
RAxML-NG v. 1.0.1 released on 19.09.2020 by The Exelixis Lab.
Developed by: Alexey M. Kozlov and Alexandros Stamatakis.
Contributors: Diego Darriba, Tomas Flouri, Benoit Morel, Sarah Lutteropp, Ben Bettisworth.
Latest version: https://github.com/amkozlov/raxml-ng
Questions/problems/suggestions? Please visit: https://groups.google.com/forum/#!forum/raxml

System: Intel(R) Xeon(R) CPU E5-2683 v4 @ 2.10GHz, 32 cores, 503 GB RAM

RAxML-NG was called at 07-Oct-2020 01:45:34 as follows:

./raxml-ng --threads 6 --msa Alignments_filtered_renamed/jgi|Pseudest1|8690|VC83_03862T0.aln_filtered_renamed.fasta --model LG+G --prefix Phylogenies_raxml/jgi|Pseudest1|8690|VC83_03862T0/jgi|Pseudest1|8690|VC83_03862T0 --seed 546

Analysis options:
  run mode: ML tree search
  start tree(s): random (10) + parsimony (10)
  random seed: 546
  tip-inner: OFF
  pattern compression: ON
  per-rate scalers: OFF
  site repeats: ON
  fast spr radius: AUTO
  spr subtree cutoff: 1.000000
  branch lengths: proportional (ML estimate, algorithm: NR-FAST)
  SIMD kernels: AVX2
  parallelization: coarse-grained (auto), PTHREADS (6 threads), thread pinning: OFF

[00:00:00] Reading alignment from file: Alignments_filtered_renamed/jgi|Pseudest1|8690|VC83_03862T0.aln_filtered_renamed.fasta
[00:00:00] Loaded alignment with 250 taxa and 340 sites

WARNING: Sequences taxon248 and taxon249 are exactly identical!
WARNING: Sequences taxon27 and taxon57 are exactly identical!
WARNING: Sequences taxon34 and taxon39 are exactly identical!
WARNING: Duplicate sequences found: 3

NOTE: Reduced alignment (with duplicates and gap-only sites/taxa removed) 
NOTE: was saved to: /home/dutheil/Data/WhiteNoseSyndrome/Phylogenomics/Phylogenies_raxml/jgi|Pseudest1|8690|VC83_03862T0/jgi|Pseudest1|8690|VC83_03862T0.raxml.reduced.phy

Alignment comprises 1 partitions and 328 patterns

Partition 0: noname
Model: LG+G4m
Alignment sites / patterns: 340 / 328
Gaps: 1.29 %
Invariant sites: 10.00 %


NOTE: Binary MSA file created: Phylogenies_raxml/jgi|Pseudest1|8690|VC83_03862T0/jgi|Pseudest1|8690|VC83_03862T0.raxml.rba

Parallelization scheme autoconfig: 6 worker(s) x 1 thread(s)

Parallel reduction/worker buffer size: 1 KB  / 0 KB

[00:00:00] Generating 10 random starting tree(s) with 250 taxa
[00:00:00] Generating 10 parsimony starting tree(s) with 250 taxa
[00:00:00] Data distribution: max. partitions/sites/weight per thread: 1 / 328 / 26240
[00:00:00] Data distribution: max. searches per worker: 4

Starting ML tree search with 20 distinct starting trees

[00:00:00 -119716.489681] Initial branch length optimization
[00:00:01 -106380.678650] Model parameter optimization (eps = 10.000000)
[00:00:04 -106040.984037] AUTODETECT spr round 1 (radius: 5)
[00:00:29 -70852.354173] AUTODETECT spr round 2 (radius: 10)
[00:01:03 -51801.904744] AUTODETECT spr round 3 (radius: 15)
[00:01:43 -50049.028082] AUTODETECT spr round 4 (radius: 20)
[00:02:42 -50049.009118] SPR radius for FAST iterations: 15 (autodetect)
[00:02:42 -50049.009118] Model parameter optimization (eps = 3.000000)
[00:02:44 -50042.505752] FAST spr round 1 (radius: 15)
[00:03:18 -44977.433163] FAST spr round 2 (radius: 15)
[00:03:44 -44778.392387] FAST spr round 3 (radius: 15)
[00:04:05 -44716.404738] FAST spr round 4 (radius: 15)
[00:04:22 -44714.123839] FAST spr round 5 (radius: 15)
[00:04:39 -44714.123794] Model parameter optimization (eps = 1.000000)
[00:04:40 -44712.069258] SLOW spr round 1 (radius: 5)
[00:05:26 -44695.999451] SLOW spr round 2 (radius: 5)
[00:06:06 -44692.896722] SLOW spr round 3 (radius: 5)
[00:06:43 -44692.896706] SLOW spr round 4 (radius: 10)
[00:07:21 -44692.896706] SLOW spr round 5 (radius: 15)
[00:08:27 -44692.896706] SLOW spr round 6 (radius: 20)
[00:09:45 -44692.896706] SLOW spr round 7 (radius: 25)
[00:10:40] [worker #2] ML tree search #3, logLikelihood: -44692.865846
[00:11:03 -44692.896706] Model parameter optimization (eps = 0.100000)

[00:11:04] [worker #0] ML tree search #1, logLikelihood: -44692.839255

[00:11:04 -119773.666605] Initial branch length optimization
[00:11:05 -105780.223289] Model parameter optimization (eps = 10.000000)
[00:11:08 -105367.970097] AUTODETECT spr round 1 (radius: 5)
[00:11:16] [worker #4] ML tree search #5, logLikelihood: -44695.717394
[00:11:16] [worker #3] ML tree search #4, logLikelihood: -44696.140719
[00:11:34 -71854.322973] AUTODETECT spr round 2 (radius: 10)
[00:12:08 -54877.787134] AUTODETECT spr round 3 (radius: 15)
[00:12:16] [worker #1] ML tree search #2, logLikelihood: -44696.086164
[00:12:21] [worker #5] ML tree search #6, logLikelihood: -44698.190472
[00:12:47 -48948.951932] AUTODETECT spr round 4 (radius: 20)
[00:13:33 -48739.358190] AUTODETECT spr round 5 (radius: 25)
[00:14:22 -48739.353079] SPR radius for FAST iterations: 20 (autodetect)
[00:14:22 -48739.353079] Model parameter optimization (eps = 3.000000)
[00:14:23 -48724.390165] FAST spr round 1 (radius: 20)
[00:14:56 -44862.364464] FAST spr round 2 (radius: 20)
[00:15:24 -44714.274870] FAST spr round 3 (radius: 20)
[00:15:44 -44702.013864] FAST spr round 4 (radius: 20)
[00:16:01 -44702.013745] Model parameter optimization (eps = 1.000000)
[00:16:01 -44701.576379] SLOW spr round 1 (radius: 5)
[00:16:45 -44692.851413] SLOW spr round 2 (radius: 5)
[00:17:23 -44692.713639] SLOW spr round 3 (radius: 5)
[00:18:00 -44692.713634] SLOW spr round 4 (radius: 10)
[00:18:39 -44692.713634] SLOW spr round 5 (radius: 15)
[00:19:48 -44692.713634] SLOW spr round 6 (radius: 20)
[00:20:08] [worker #4] ML tree search #11, logLikelihood: -44700.820310
[00:21:07 -44692.713634] SLOW spr round 7 (radius: 25)
[00:21:08] [worker #5] ML tree search #12, logLikelihood: -44699.485227
[00:21:36] [worker #2] ML tree search #9, logLikelihood: -44693.733078
[00:22:25 -44692.713634] Model parameter optimization (eps = 0.100000)

[00:22:26] [worker #0] ML tree search #7, logLikelihood: -44692.713634

[00:22:26 -50363.854875] Initial branch length optimization
[00:22:27 -45078.596704] Model parameter optimization (eps = 10.000000)
[00:22:28 -45051.518403] AUTODETECT spr round 1 (radius: 5)
[00:22:47] [worker #3] ML tree search #10, logLikelihood: -44695.361031
[00:22:47 -44746.709650] AUTODETECT spr round 2 (radius: 10)
[00:23:05] [worker #1] ML tree search #8, logLikelihood: -44696.051727
[00:23:23 -44743.368331] AUTODETECT spr round 3 (radius: 15)
[00:24:14 -44743.367969] SPR radius for FAST iterations: 10 (autodetect)
[00:24:14 -44743.367969] Model parameter optimization (eps = 3.000000)
[00:24:15 -44743.331214] FAST spr round 1 (radius: 10)
[00:24:37 -44725.844115] FAST spr round 2 (radius: 10)
[00:24:57 -44718.875008] FAST spr round 3 (radius: 10)
[00:25:14 -44718.875003] Model parameter optimization (eps = 1.000000)
[00:25:14 -44718.858132] SLOW spr round 1 (radius: 5)
[00:25:57 -44706.792638] SLOW spr round 2 (radius: 5)
[00:26:37 -44699.307516] SLOW spr round 3 (radius: 5)
[00:27:16 -44696.459371] SLOW spr round 4 (radius: 5)
[00:27:53 -44696.459074] SLOW spr round 5 (radius: 10)
[00:28:32 -44696.459070] SLOW spr round 6 (radius: 15)
[00:29:01] [worker #4] ML tree search #17, logLikelihood: -44706.062667
[00:29:38] [worker #5] ML tree search #18, logLikelihood: -44704.276531
[00:29:41 -44696.459070] SLOW spr round 7 (radius: 20)
[00:30:42] [worker #2] ML tree search #15, logLikelihood: -44696.063215
[00:30:59 -44696.459070] SLOW spr round 8 (radius: 25)
[00:31:34] [worker #3] ML tree search #16, logLikelihood: -44695.764537
[00:32:08] [worker #1] ML tree search #14, logLikelihood: -44692.955235
[00:32:17 -44696.459070] Model parameter optimization (eps = 0.100000)

[00:32:17] [worker #0] ML tree search #13, logLikelihood: -44696.385752

[00:32:17 -50326.806242] Initial branch length optimization
[00:32:18 -45094.800877] Model parameter optimization (eps = 10.000000)
[00:32:19 -45068.405494] AUTODETECT spr round 1 (radius: 5)
[00:32:37 -44762.184488] AUTODETECT spr round 2 (radius: 10)
[00:33:12 -44762.183562] SPR radius for FAST iterations: 5 (autodetect)
[00:33:12 -44762.183562] Model parameter optimization (eps = 3.000000)
[00:33:12 -44762.179335] FAST spr round 1 (radius: 5)
[00:33:36 -44710.035463] FAST spr round 2 (radius: 5)
[00:33:55 -44703.664317] FAST spr round 3 (radius: 5)
[00:34:14 -44696.829260] FAST spr round 4 (radius: 5)
[00:34:31 -44696.829229] Model parameter optimization (eps = 1.000000)
[00:34:31 -44696.743788] SLOW spr round 1 (radius: 5)
[00:35:11 -44692.732056] SLOW spr round 2 (radius: 5)
[00:35:49 -44692.731734] SLOW spr round 3 (radius: 10)
[00:36:27 -44692.731733] SLOW spr round 4 (radius: 15)
[00:37:36 -44692.731733] SLOW spr round 5 (radius: 20)
[00:38:52 -44692.731733] SLOW spr round 6 (radius: 25)
[00:40:08 -44692.731733] Model parameter optimization (eps = 0.100000)

[00:40:08] [worker #0] ML tree search #19, logLikelihood: -44692.713807

[00:40:52] [worker #1] ML tree search #20, logLikelihood: -44702.192849

Optimized model parameters:

   Partition 0: noname
   Rate heterogeneity: GAMMA (4 cats, mean),  alpha: 0.771926 (ML),  weights&rates: (0.250000,0.089572) (0.250000,0.395581) (0.250000,0.948862) (0.250000,2.565985) 
   Base frequencies (model): 0.079066 0.055941 0.041977 0.053052 0.012937 0.040767 0.071586 0.057337 0.022355 0.062157 0.099081 0.064600 0.022951 0.042302 0.044040 0.061197 0.053287 0.012066 0.034155 0.069147 
   Substitution rates (model): 0.425093 0.276818 0.395144 2.489084 0.969894 1.038545 2.066040 0.358858 0.149830 0.395337 0.536518 1.124035 0.253701 1.177651 4.727182 2.139501 0.180717 0.218959 2.547870 0.751878 0.123954 0.534551 2.807908 0.363970 0.390192 2.426601 0.126991 0.301848 6.326067 0.484133 0.052722 0.332533 0.858151 0.578987 0.593607 0.314440 0.170887 5.076149 0.528768 1.695752 0.541712 1.437645 4.509238 0.191503 0.068427 2.145078 0.371004 0.089525 0.161787 4.008358 2.000679 0.045376 0.612025 0.083688 0.062556 0.523386 5.243870 0.844926 0.927114 0.010690 0.015076 0.282959 0.025548 0.017416 0.394456 1.240275 0.425860 0.029890 0.135107 0.037967 0.084808 0.003499 0.569265 0.640543 0.320627 0.594007 0.013266 0.893680 1.105251 0.075382 2.784478 1.143480 0.670128 1.165532 1.959291 4.128591 0.267959 4.813505 0.072854 0.582457 3.234294 1.672569 0.035855 0.624294 1.223828 1.080136 0.236199 0.257336 0.210332 0.348847 0.423881 0.044265 0.069673 1.807177 0.173735 0.018811 0.419409 0.611973 0.604545 0.077852 0.120037 0.245034 0.311484 0.008705 0.044261 0.296636 0.139538 0.089586 0.196961 1.739990 0.129836 0.268491 0.054679 0.076701 0.108882 0.366317 0.697264 0.442472 0.682139 0.508851 0.990012 0.584262 0.597054 5.306834 0.119013 4.145067 0.159069 4.273607 1.112727 0.078281 0.064105 1.033739 0.111660 0.232523 10.649107 0.137500 6.312358 2.592692 0.249060 0.182287 0.302936 0.619632 0.299648 1.702745 0.656604 0.023918 0.390322 0.748683 1.136863 0.049906 0.131932 0.185202 1.798853 0.099849 0.346960 2.020366 0.696175 0.481306 1.898718 0.094464 0.361819 0.165001 2.457121 7.803902 0.654683 1.338132 0.571468 0.095131 0.089613 0.296501 6.472279 0.248862 0.400547 0.098369 0.140825 0.245841 2.188158 3.151815 0.189510 0.249313 


Final LogLikelihood: -44692.713634

AIC score: 90381.427269 / AICc score: 587385.427269 / BIC score: 92288.242186
Free parameters (model + branch lengths): 498

WARNING: Number of free parameters (K=498) is larger than alignment size (n=340).
         This might lead to overfitting and compromise tree inference results!


WARNING: Best ML tree contains 16 near-zero branches!

Best ML tree with collapsed near-zero branches saved to: /home/dutheil/Data/WhiteNoseSyndrome/Phylogenomics/Phylogenies_raxml/jgi|Pseudest1|8690|VC83_03862T0/jgi|Pseudest1|8690|VC83_03862T0.raxml.bestTreeCollapsed
Best ML tree saved to: /home/dutheil/Data/WhiteNoseSyndrome/Phylogenomics/Phylogenies_raxml/jgi|Pseudest1|8690|VC83_03862T0/jgi|Pseudest1|8690|VC83_03862T0.raxml.bestTree
All ML trees saved to: /home/dutheil/Data/WhiteNoseSyndrome/Phylogenomics/Phylogenies_raxml/jgi|Pseudest1|8690|VC83_03862T0/jgi|Pseudest1|8690|VC83_03862T0.raxml.mlTrees
Optimized model saved to: /home/dutheil/Data/WhiteNoseSyndrome/Phylogenomics/Phylogenies_raxml/jgi|Pseudest1|8690|VC83_03862T0/jgi|Pseudest1|8690|VC83_03862T0.raxml.bestModel

Execution log saved to: /home/dutheil/Data/WhiteNoseSyndrome/Phylogenomics/Phylogenies_raxml/jgi|Pseudest1|8690|VC83_03862T0/jgi|Pseudest1|8690|VC83_03862T0.raxml.log

Analysis started: 07-Oct-2020 01:45:34 / finished: 07-Oct-2020 02:26:26

Elapsed time: 2452.705 seconds

Consumed energy: 189.549 Wh

