
RAxML-NG v. 1.0.1 released on 19.09.2020 by The Exelixis Lab.
Developed by: Alexey M. Kozlov and Alexandros Stamatakis.
Contributors: Diego Darriba, Tomas Flouri, Benoit Morel, Sarah Lutteropp, Ben Bettisworth.
Latest version: https://github.com/amkozlov/raxml-ng
Questions/problems/suggestions? Please visit: https://groups.google.com/forum/#!forum/raxml

System: Intel(R) Xeon(R) CPU E5-2683 v4 @ 2.10GHz, 32 cores, 503 GB RAM

RAxML-NG was called at 07-Oct-2020 00:42:27 as follows:

./raxml-ng --threads 6 --msa Alignments_filtered_renamed/jgi|Pseudest1|7420|VC83_02663T0.aln_filtered_renamed.fasta --model LG+G --prefix Phylogenies_raxml/jgi|Pseudest1|7420|VC83_02663T0/jgi|Pseudest1|7420|VC83_02663T0 --seed 470

Analysis options:
  run mode: ML tree search
  start tree(s): random (10) + parsimony (10)
  random seed: 470
  tip-inner: OFF
  pattern compression: ON
  per-rate scalers: OFF
  site repeats: ON
  fast spr radius: AUTO
  spr subtree cutoff: 1.000000
  branch lengths: proportional (ML estimate, algorithm: NR-FAST)
  SIMD kernels: AVX2
  parallelization: coarse-grained (auto), PTHREADS (6 threads), thread pinning: OFF

[00:00:00] Reading alignment from file: Alignments_filtered_renamed/jgi|Pseudest1|7420|VC83_02663T0.aln_filtered_renamed.fasta
[00:00:00] Loaded alignment with 250 taxa and 670 sites

WARNING: Sequences taxon208 and taxon209 are exactly identical!
WARNING: Sequences taxon249 and taxon250 are exactly identical!
WARNING: Sequences taxon168 and taxon169 are exactly identical!
WARNING: Sequences taxon135 and taxon141 are exactly identical!
WARNING: Sequences taxon129 and taxon130 are exactly identical!
WARNING: Sequences taxon93 and taxon94 are exactly identical!
WARNING: Sequences taxon189 and taxon190 are exactly identical!
WARNING: Sequences taxon26 and taxon57 are exactly identical!
WARNING: Sequences taxon5 and taxon19 are exactly identical!
WARNING: Sequences taxon33 and taxon34 are exactly identical!
WARNING: Sequences taxon15 and taxon29 are exactly identical!
WARNING: Sequences taxon15 and taxon32 are exactly identical!
WARNING: Sequences taxon15 and taxon40 are exactly identical!
WARNING: Sequences taxon15 and taxon52 are exactly identical!
WARNING: Sequences taxon38 and taxon51 are exactly identical!
WARNING: Sequences taxon38 and taxon46 are exactly identical!
WARNING: Duplicate sequences found: 16

NOTE: Reduced alignment (with duplicates and gap-only sites/taxa removed) 
NOTE: was saved to: /home/dutheil/Data/WhiteNoseSyndrome/Phylogenomics/Phylogenies_raxml/jgi|Pseudest1|7420|VC83_02663T0/jgi|Pseudest1|7420|VC83_02663T0.raxml.reduced.phy

Alignment comprises 1 partitions and 556 patterns

Partition 0: noname
Model: LG+G4m
Alignment sites / patterns: 670 / 556
Gaps: 0.13 %
Invariant sites: 21.19 %


NOTE: Binary MSA file created: Phylogenies_raxml/jgi|Pseudest1|7420|VC83_02663T0/jgi|Pseudest1|7420|VC83_02663T0.raxml.rba

Parallelization scheme autoconfig: 3 worker(s) x 2 thread(s)

Parallel reduction/worker buffer size: 1 KB  / 0 KB

[00:00:00] Generating 10 random starting tree(s) with 250 taxa
[00:00:00] Generating 10 parsimony starting tree(s) with 250 taxa
[00:00:00] Data distribution: max. partitions/sites/weight per thread: 1 / 278 / 22240
[00:00:00] Data distribution: max. searches per worker: 7

Starting ML tree search with 20 distinct starting trees

[00:00:00 -112216.358161] Initial branch length optimization
[00:00:01 -100243.913882] Model parameter optimization (eps = 10.000000)
[00:00:03 -99367.478688] AUTODETECT spr round 1 (radius: 5)
[00:00:23 -64811.366200] AUTODETECT spr round 2 (radius: 10)
[00:00:51 -45070.515133] AUTODETECT spr round 3 (radius: 15)
[00:01:31 -43134.276721] AUTODETECT spr round 4 (radius: 20)
[00:02:20 -43074.661312] AUTODETECT spr round 5 (radius: 25)
[00:03:06 -43072.760977] SPR radius for FAST iterations: 25 (autodetect)
[00:03:06 -43072.760977] Model parameter optimization (eps = 3.000000)
[00:03:07 -43062.688210] FAST spr round 1 (radius: 25)
[00:03:34 -39341.836954] FAST spr round 2 (radius: 25)
[00:03:56 -38691.914868] FAST spr round 3 (radius: 25)
[00:04:11 -38685.372959] FAST spr round 4 (radius: 25)
[00:04:25 -38685.370551] Model parameter optimization (eps = 1.000000)
[00:04:25 -38685.359566] SLOW spr round 1 (radius: 5)
[00:04:58 -38679.807759] SLOW spr round 2 (radius: 5)
[00:05:28 -38678.596168] SLOW spr round 3 (radius: 5)
[00:05:57 -38678.595152] SLOW spr round 4 (radius: 10)
[00:06:25 -38678.594884] SLOW spr round 5 (radius: 15)
[00:07:28 -38678.594810] SLOW spr round 6 (radius: 20)
[00:08:32 -38678.594790] SLOW spr round 7 (radius: 25)
[00:08:46] [worker #2] ML tree search #3, logLikelihood: -38674.841336
[00:09:32 -38678.594784] Model parameter optimization (eps = 0.100000)

[00:09:32] [worker #0] ML tree search #1, logLikelihood: -38678.593485

[00:09:32 -112093.928602] Initial branch length optimization
[00:09:33 -100041.612955] Model parameter optimization (eps = 10.000000)
[00:09:34 -99196.579464] AUTODETECT spr round 1 (radius: 5)
[00:09:36] [worker #1] ML tree search #2, logLikelihood: -38679.411512
[00:09:54 -61452.721651] AUTODETECT spr round 2 (radius: 10)
[00:10:21 -44454.964915] AUTODETECT spr round 3 (radius: 15)
[00:10:56 -42558.611070] AUTODETECT spr round 4 (radius: 20)
[00:11:37 -42544.375988] AUTODETECT spr round 5 (radius: 25)
[00:12:23 -42544.356786] SPR radius for FAST iterations: 20 (autodetect)
[00:12:23 -42544.356786] Model parameter optimization (eps = 3.000000)
[00:12:24 -42536.790247] FAST spr round 1 (radius: 20)
[00:12:50 -38950.879811] FAST spr round 2 (radius: 20)
[00:13:11 -38741.917227] FAST spr round 3 (radius: 20)
[00:13:28 -38684.816622] FAST spr round 4 (radius: 20)
[00:13:43 -38682.968899] FAST spr round 5 (radius: 20)
[00:13:56 -38682.968621] Model parameter optimization (eps = 1.000000)
[00:13:57 -38682.753542] SLOW spr round 1 (radius: 5)
[00:14:30 -38677.587331] SLOW spr round 2 (radius: 5)
[00:15:00 -38677.586369] SLOW spr round 3 (radius: 10)
[00:15:29 -38677.586230] SLOW spr round 4 (radius: 15)
[00:16:30 -38677.586195] SLOW spr round 5 (radius: 20)
[00:17:35 -38677.586186] SLOW spr round 6 (radius: 25)
[00:18:02] [worker #2] ML tree search #6, logLikelihood: -38687.356732
[00:18:16] [worker #1] ML tree search #5, logLikelihood: -38672.855926
[00:18:35 -38677.586183] Model parameter optimization (eps = 0.100000)

[00:18:35] [worker #0] ML tree search #4, logLikelihood: -38677.585832

[00:18:36 -110761.891434] Initial branch length optimization
[00:18:36 -98888.969797] Model parameter optimization (eps = 10.000000)
[00:18:38 -98045.089963] AUTODETECT spr round 1 (radius: 5)
[00:18:58 -63257.603080] AUTODETECT spr round 2 (radius: 10)
[00:19:28 -50242.880605] AUTODETECT spr round 3 (radius: 15)
[00:20:13 -44322.492285] AUTODETECT spr round 4 (radius: 20)
[00:21:06 -44306.687541] AUTODETECT spr round 5 (radius: 25)
[00:21:49 -44306.648100] SPR radius for FAST iterations: 20 (autodetect)
[00:21:49 -44306.648100] Model parameter optimization (eps = 3.000000)
[00:21:50 -44296.095798] FAST spr round 1 (radius: 20)
[00:22:17 -38903.712685] FAST spr round 2 (radius: 20)
[00:22:37 -38690.080791] FAST spr round 3 (radius: 20)
[00:22:52 -38682.659417] FAST spr round 4 (radius: 20)
[00:23:05 -38682.656766] Model parameter optimization (eps = 1.000000)
[00:23:06 -38681.278225] SLOW spr round 1 (radius: 5)
[00:23:38 -38672.186720] SLOW spr round 2 (radius: 5)
[00:24:08 -38672.176733] SLOW spr round 3 (radius: 10)
[00:24:36 -38672.174888] SLOW spr round 4 (radius: 15)
[00:25:38 -38672.174552] SLOW spr round 5 (radius: 20)
[00:25:58] [worker #2] ML tree search #9, logLikelihood: -38671.448040
[00:26:40 -38672.174490] SLOW spr round 6 (radius: 25)
[00:27:38 -38672.174479] Model parameter optimization (eps = 0.100000)

[00:27:38] [worker #0] ML tree search #7, logLikelihood: -38672.161776

[00:27:38 -111595.883875] Initial branch length optimization
[00:27:39 -98945.049120] Model parameter optimization (eps = 10.000000)
[00:27:41 -98120.215714] AUTODETECT spr round 1 (radius: 5)
[00:27:59 -62088.903165] AUTODETECT spr round 2 (radius: 10)
[00:28:03] [worker #1] ML tree search #8, logLikelihood: -38673.155505
[00:28:27 -43864.726165] AUTODETECT spr round 3 (radius: 15)
[00:29:04 -41877.645120] AUTODETECT spr round 4 (radius: 20)
[00:29:43 -41877.615576] SPR radius for FAST iterations: 15 (autodetect)
[00:29:43 -41877.615576] Model parameter optimization (eps = 3.000000)
[00:29:44 -41872.590499] FAST spr round 1 (radius: 15)
[00:30:12 -38908.648437] FAST spr round 2 (radius: 15)
[00:30:34 -38697.383303] FAST spr round 3 (radius: 15)
[00:30:49 -38681.560025] FAST spr round 4 (radius: 15)
[00:31:03 -38679.859361] FAST spr round 5 (radius: 15)
[00:31:15 -38679.859321] Model parameter optimization (eps = 1.000000)
[00:31:16 -38677.540632] SLOW spr round 1 (radius: 5)
[00:31:49 -38673.145756] SLOW spr round 2 (radius: 5)
[00:32:18 -38673.142495] SLOW spr round 3 (radius: 10)
[00:32:46 -38673.141923] SLOW spr round 4 (radius: 15)
[00:32:59] [worker #2] ML tree search #12, logLikelihood: -38673.834015
[00:33:46 -38673.141797] SLOW spr round 5 (radius: 20)
[00:34:05] [worker #1] ML tree search #11, logLikelihood: -38677.509632
[00:34:48 -38673.141768] SLOW spr round 6 (radius: 25)
[00:35:49 -38673.141762] Model parameter optimization (eps = 0.100000)

[00:35:49] [worker #0] ML tree search #10, logLikelihood: -38673.139903

[00:35:49 -45364.974965] Initial branch length optimization
[00:35:50 -38949.195629] Model parameter optimization (eps = 10.000000)
[00:35:51 -38836.927445] AUTODETECT spr round 1 (radius: 5)
[00:36:05 -38698.126154] AUTODETECT spr round 2 (radius: 10)
[00:36:33 -38698.121343] SPR radius for FAST iterations: 5 (autodetect)
[00:36:33 -38698.121343] Model parameter optimization (eps = 3.000000)
[00:36:33 -38698.100407] FAST spr round 1 (radius: 5)
[00:36:50 -38683.054238] FAST spr round 2 (radius: 5)
[00:37:03 -38683.054199] Model parameter optimization (eps = 1.000000)
[00:37:03 -38683.054196] SLOW spr round 1 (radius: 5)
[00:37:36 -38674.230289] SLOW spr round 2 (radius: 5)
[00:38:04 -38674.230203] SLOW spr round 3 (radius: 10)
[00:38:33 -38674.225686] SLOW spr round 4 (radius: 15)
[00:39:34 -38674.225483] SLOW spr round 5 (radius: 20)
[00:40:37 -38674.225448] SLOW spr round 6 (radius: 25)
[00:41:20] [worker #2] ML tree search #15, logLikelihood: -38679.856128
[00:41:35 -38674.225442] Model parameter optimization (eps = 0.100000)

[00:41:35] [worker #0] ML tree search #13, logLikelihood: -38674.223792

[00:41:35 -45561.930483] Initial branch length optimization
[00:41:36 -39050.312046] Model parameter optimization (eps = 10.000000)
[00:41:37 -38934.440602] AUTODETECT spr round 1 (radius: 5)
[00:41:51 -38706.733450] AUTODETECT spr round 2 (radius: 10)
[00:41:59] [worker #1] ML tree search #14, logLikelihood: -38683.252571
[00:42:19 -38705.163258] AUTODETECT spr round 3 (radius: 15)
[00:43:01 -38705.160515] SPR radius for FAST iterations: 10 (autodetect)
[00:43:01 -38705.160515] Model parameter optimization (eps = 3.000000)
[00:43:02 -38705.086381] FAST spr round 1 (radius: 10)
[00:43:17 -38687.365935] FAST spr round 2 (radius: 10)
[00:43:30 -38687.365826] Model parameter optimization (eps = 1.000000)
[00:43:30 -38687.365812] SLOW spr round 1 (radius: 5)
[00:44:03 -38674.418807] SLOW spr round 2 (radius: 5)
[00:44:32 -38674.415761] SLOW spr round 3 (radius: 10)
[00:45:01 -38674.415221] SLOW spr round 4 (radius: 15)
[00:46:01 -38674.415122] SLOW spr round 5 (radius: 20)
[00:47:06 -38674.415105] SLOW spr round 6 (radius: 25)
[00:47:22] [worker #2] ML tree search #18, logLikelihood: -38672.140970
[00:48:06 -38674.415102] Model parameter optimization (eps = 0.100000)

[00:48:06] [worker #0] ML tree search #16, logLikelihood: -38674.407388

[00:48:06 -45465.753092] Initial branch length optimization
[00:48:07 -38989.200568] Model parameter optimization (eps = 10.000000)
[00:48:07] [worker #1] ML tree search #17, logLikelihood: -38674.333387
[00:48:08 -38876.042090] AUTODETECT spr round 1 (radius: 5)
[00:48:22 -38697.726930] AUTODETECT spr round 2 (radius: 10)
[00:48:51 -38696.153437] AUTODETECT spr round 3 (radius: 15)
[00:49:33 -38696.144535] SPR radius for FAST iterations: 10 (autodetect)
[00:49:34 -38696.144535] Model parameter optimization (eps = 3.000000)
[00:49:34 -38696.083074] FAST spr round 1 (radius: 10)
[00:49:49 -38685.783454] FAST spr round 2 (radius: 10)
[00:50:02 -38685.782068] Model parameter optimization (eps = 1.000000)
[00:50:02 -38685.781819] SLOW spr round 1 (radius: 5)
[00:50:35 -38680.529007] SLOW spr round 2 (radius: 5)
[00:51:05 -38678.926916] SLOW spr round 3 (radius: 5)
[00:51:34 -38678.923981] SLOW spr round 4 (radius: 10)
[00:52:04 -38678.923124] SLOW spr round 5 (radius: 15)
[00:53:08 -38678.922881] SLOW spr round 6 (radius: 20)
[00:53:48] [worker #1] ML tree search #20, logLikelihood: -38672.919665
[00:54:12 -38678.922811] SLOW spr round 7 (radius: 25)
[00:55:11 -38678.922791] Model parameter optimization (eps = 0.100000)

[00:55:12] [worker #0] ML tree search #19, logLikelihood: -38678.920929


Optimized model parameters:

   Partition 0: noname
   Rate heterogeneity: GAMMA (4 cats, mean),  alpha: 0.619479 (ML),  weights&rates: (0.250000,0.057149) (0.250000,0.322928) (0.250000,0.890940) (0.250000,2.728983) 
   Base frequencies (model): 0.079066 0.055941 0.041977 0.053052 0.012937 0.040767 0.071586 0.057337 0.022355 0.062157 0.099081 0.064600 0.022951 0.042302 0.044040 0.061197 0.053287 0.012066 0.034155 0.069147 
   Substitution rates (model): 0.425093 0.276818 0.395144 2.489084 0.969894 1.038545 2.066040 0.358858 0.149830 0.395337 0.536518 1.124035 0.253701 1.177651 4.727182 2.139501 0.180717 0.218959 2.547870 0.751878 0.123954 0.534551 2.807908 0.363970 0.390192 2.426601 0.126991 0.301848 6.326067 0.484133 0.052722 0.332533 0.858151 0.578987 0.593607 0.314440 0.170887 5.076149 0.528768 1.695752 0.541712 1.437645 4.509238 0.191503 0.068427 2.145078 0.371004 0.089525 0.161787 4.008358 2.000679 0.045376 0.612025 0.083688 0.062556 0.523386 5.243870 0.844926 0.927114 0.010690 0.015076 0.282959 0.025548 0.017416 0.394456 1.240275 0.425860 0.029890 0.135107 0.037967 0.084808 0.003499 0.569265 0.640543 0.320627 0.594007 0.013266 0.893680 1.105251 0.075382 2.784478 1.143480 0.670128 1.165532 1.959291 4.128591 0.267959 4.813505 0.072854 0.582457 3.234294 1.672569 0.035855 0.624294 1.223828 1.080136 0.236199 0.257336 0.210332 0.348847 0.423881 0.044265 0.069673 1.807177 0.173735 0.018811 0.419409 0.611973 0.604545 0.077852 0.120037 0.245034 0.311484 0.008705 0.044261 0.296636 0.139538 0.089586 0.196961 1.739990 0.129836 0.268491 0.054679 0.076701 0.108882 0.366317 0.697264 0.442472 0.682139 0.508851 0.990012 0.584262 0.597054 5.306834 0.119013 4.145067 0.159069 4.273607 1.112727 0.078281 0.064105 1.033739 0.111660 0.232523 10.649107 0.137500 6.312358 2.592692 0.249060 0.182287 0.302936 0.619632 0.299648 1.702745 0.656604 0.023918 0.390322 0.748683 1.136863 0.049906 0.131932 0.185202 1.798853 0.099849 0.346960 2.020366 0.696175 0.481306 1.898718 0.094464 0.361819 0.165001 2.457121 7.803902 0.654683 1.338132 0.571468 0.095131 0.089613 0.296501 6.472279 0.248862 0.400547 0.098369 0.140825 0.245841 2.188158 3.151815 0.189510 0.249313 


Final LogLikelihood: -38671.448040

AIC score: 78338.896079 / AICc score: 81245.352219 / BIC score: 80583.520380
Free parameters (model + branch lengths): 498

WARNING: Best ML tree contains 33 near-zero branches!

Best ML tree with collapsed near-zero branches saved to: /home/dutheil/Data/WhiteNoseSyndrome/Phylogenomics/Phylogenies_raxml/jgi|Pseudest1|7420|VC83_02663T0/jgi|Pseudest1|7420|VC83_02663T0.raxml.bestTreeCollapsed
Best ML tree saved to: /home/dutheil/Data/WhiteNoseSyndrome/Phylogenomics/Phylogenies_raxml/jgi|Pseudest1|7420|VC83_02663T0/jgi|Pseudest1|7420|VC83_02663T0.raxml.bestTree
All ML trees saved to: /home/dutheil/Data/WhiteNoseSyndrome/Phylogenomics/Phylogenies_raxml/jgi|Pseudest1|7420|VC83_02663T0/jgi|Pseudest1|7420|VC83_02663T0.raxml.mlTrees
Optimized model saved to: /home/dutheil/Data/WhiteNoseSyndrome/Phylogenomics/Phylogenies_raxml/jgi|Pseudest1|7420|VC83_02663T0/jgi|Pseudest1|7420|VC83_02663T0.raxml.bestModel

Execution log saved to: /home/dutheil/Data/WhiteNoseSyndrome/Phylogenomics/Phylogenies_raxml/jgi|Pseudest1|7420|VC83_02663T0/jgi|Pseudest1|7420|VC83_02663T0.raxml.log

Analysis started: 07-Oct-2020 00:42:27 / finished: 07-Oct-2020 01:37:39

Elapsed time: 3312.244 seconds

Consumed energy: 245.529 Wh (= 1 km in an electric car, or 6 km with an e-scooter!)

