
RAxML-NG v. 1.0.1 released on 19.09.2020 by The Exelixis Lab.
Developed by: Alexey M. Kozlov and Alexandros Stamatakis.
Contributors: Diego Darriba, Tomas Flouri, Benoit Morel, Sarah Lutteropp, Ben Bettisworth.
Latest version: https://github.com/amkozlov/raxml-ng
Questions/problems/suggestions? Please visit: https://groups.google.com/forum/#!forum/raxml

System: Intel(R) Xeon(R) CPU E5-2683 v4 @ 2.10GHz, 32 cores, 503 GB RAM

RAxML-NG was called at 06-Oct-2020 21:45:24 as follows:

./raxml-ng --threads 6 --msa Alignments_filtered_renamed/jgi|Pseudest1|4604|VC83_07842T0.aln_filtered_renamed.fasta --model LG+G --prefix Phylogenies_raxml/jgi|Pseudest1|4604|VC83_07842T0/jgi|Pseudest1|4604|VC83_07842T0 --seed 283

Analysis options:
  run mode: ML tree search
  start tree(s): random (10) + parsimony (10)
  random seed: 283
  tip-inner: OFF
  pattern compression: ON
  per-rate scalers: OFF
  site repeats: ON
  fast spr radius: AUTO
  spr subtree cutoff: 1.000000
  branch lengths: proportional (ML estimate, algorithm: NR-FAST)
  SIMD kernels: AVX2
  parallelization: coarse-grained (auto), PTHREADS (6 threads), thread pinning: OFF

[00:00:00] Reading alignment from file: Alignments_filtered_renamed/jgi|Pseudest1|4604|VC83_07842T0.aln_filtered_renamed.fasta
[00:00:00] Loaded alignment with 250 taxa and 341 sites

WARNING: Sequences taxon184 and taxon185 are exactly identical!
WARNING: Sequences taxon189 and taxon190 are exactly identical!
WARNING: Sequences taxon4 and taxon19 are exactly identical!
WARNING: Sequences taxon33 and taxon34 are exactly identical!
WARNING: Sequences taxon33 and taxon39 are exactly identical!
WARNING: Sequences taxon33 and taxon58 are exactly identical!
WARNING: Sequences taxon52 and taxon29 are exactly identical!
WARNING: Sequences taxon52 and taxon40 are exactly identical!
WARNING: Sequences taxon52 and taxon53 are exactly identical!
WARNING: Sequences taxon206 and taxon207 are exactly identical!
WARNING: Sequences taxon249 and taxon250 are exactly identical!
WARNING: Sequences taxon223 and taxon224 are exactly identical!
WARNING: Sequences taxon133 and taxon135 are exactly identical!
WARNING: Sequences taxon133 and taxon144 are exactly identical!
WARNING: Sequences taxon239 and taxon240 are exactly identical!
WARNING: Duplicate sequences found: 15

NOTE: Reduced alignment (with duplicates and gap-only sites/taxa removed) 
NOTE: was saved to: /home/dutheil/Data/WhiteNoseSyndrome/Phylogenomics/Phylogenies_raxml/jgi|Pseudest1|4604|VC83_07842T0/jgi|Pseudest1|4604|VC83_07842T0.raxml.reduced.phy

Alignment comprises 1 partitions and 327 patterns

Partition 0: noname
Model: LG+G4m
Alignment sites / patterns: 341 / 327
Gaps: 0.60 %
Invariant sites: 7.62 %


NOTE: Binary MSA file created: Phylogenies_raxml/jgi|Pseudest1|4604|VC83_07842T0/jgi|Pseudest1|4604|VC83_07842T0.raxml.rba

Parallelization scheme autoconfig: 6 worker(s) x 1 thread(s)

Parallel reduction/worker buffer size: 1 KB  / 0 KB

[00:00:00] Generating 10 random starting tree(s) with 250 taxa
[00:00:00] Generating 10 parsimony starting tree(s) with 250 taxa
[00:00:00] Data distribution: max. partitions/sites/weight per thread: 1 / 327 / 26160
[00:00:00] Data distribution: max. searches per worker: 4

Starting ML tree search with 20 distinct starting trees

[00:00:00 -125162.313713] Initial branch length optimization
[00:00:01 -107602.856580] Model parameter optimization (eps = 10.000000)
[00:00:04 -107321.218225] AUTODETECT spr round 1 (radius: 5)
[00:00:29 -65589.592188] AUTODETECT spr round 2 (radius: 10)
[00:01:03 -49808.774156] AUTODETECT spr round 3 (radius: 15)
[00:01:44 -43407.704341] AUTODETECT spr round 4 (radius: 20)
[00:02:21 -43316.625215] AUTODETECT spr round 5 (radius: 25)
[00:03:02 -43302.250397] SPR radius for FAST iterations: 25 (autodetect)
[00:03:02 -43302.250397] Model parameter optimization (eps = 3.000000)
[00:03:03 -43288.596813] FAST spr round 1 (radius: 25)
[00:03:37 -39232.527553] FAST spr round 2 (radius: 25)
[00:04:05 -39037.659242] FAST spr round 3 (radius: 25)
[00:04:23 -39028.445849] FAST spr round 4 (radius: 25)
[00:04:40 -39028.440998] Model parameter optimization (eps = 1.000000)
[00:04:40 -39028.135636] SLOW spr round 1 (radius: 5)
[00:05:21 -39020.747669] SLOW spr round 2 (radius: 5)
[00:06:00 -39018.324415] SLOW spr round 3 (radius: 5)
[00:06:35 -39018.324374] SLOW spr round 4 (radius: 10)
[00:07:11 -39018.324374] SLOW spr round 5 (radius: 15)
[00:08:21 -39018.324374] SLOW spr round 6 (radius: 20)
[00:09:42 -39018.324374] SLOW spr round 7 (radius: 25)
[00:10:47] [worker #2] ML tree search #3, logLikelihood: -39019.633569
[00:10:56 -39018.324374] Model parameter optimization (eps = 0.100000)

[00:10:57] [worker #0] ML tree search #1, logLikelihood: -39018.091005

[00:10:57 -123732.621126] Initial branch length optimization
[00:10:59 -106884.305722] Model parameter optimization (eps = 10.000000)
[00:11:01 -106491.605913] AUTODETECT spr round 1 (radius: 5)
[00:11:12] [worker #3] ML tree search #4, logLikelihood: -39022.944955
[00:11:16] [worker #5] ML tree search #6, logLikelihood: -39021.318236
[00:11:26 -66034.865816] AUTODETECT spr round 2 (radius: 10)
[00:11:40] [worker #1] ML tree search #2, logLikelihood: -39023.188446
[00:12:01 -49515.454503] AUTODETECT spr round 3 (radius: 15)
[00:12:03] [worker #4] ML tree search #5, logLikelihood: -39020.742396
[00:12:41 -44841.305644] AUTODETECT spr round 4 (radius: 20)
[00:13:34 -43592.326789] AUTODETECT spr round 5 (radius: 25)
[00:14:28 -43556.087886] SPR radius for FAST iterations: 25 (autodetect)
[00:14:29 -43556.087886] Model parameter optimization (eps = 3.000000)
[00:14:30 -43535.232831] FAST spr round 1 (radius: 25)
[00:15:02 -39278.282303] FAST spr round 2 (radius: 25)
[00:15:29 -39066.135200] FAST spr round 3 (radius: 25)
[00:15:49 -39039.085479] FAST spr round 4 (radius: 25)
[00:16:05 -39039.082894] Model parameter optimization (eps = 1.000000)
[00:16:06 -39038.884180] SLOW spr round 1 (radius: 5)
[00:16:46 -39023.895648] SLOW spr round 2 (radius: 5)
[00:17:23 -39022.356495] SLOW spr round 3 (radius: 5)
[00:17:58 -39022.354728] SLOW spr round 4 (radius: 10)
[00:18:35 -39022.354556] SLOW spr round 5 (radius: 15)
[00:19:46 -39022.354536] SLOW spr round 6 (radius: 20)
[00:20:20] [worker #5] ML tree search #12, logLikelihood: -39031.097404
[00:20:39] [worker #4] ML tree search #11, logLikelihood: -39019.682329
[00:21:09 -39022.354533] SLOW spr round 7 (radius: 25)
[00:22:21] [worker #3] ML tree search #10, logLikelihood: -39025.264941
[00:22:23 -39022.354533] Model parameter optimization (eps = 0.100000)

[00:22:23] [worker #0] ML tree search #7, logLikelihood: -39022.344967

[00:22:23 -44985.645030] Initial branch length optimization
[00:22:24 -39339.308136] Model parameter optimization (eps = 10.000000)
[00:22:25 -39332.284485] AUTODETECT spr round 1 (radius: 5)
[00:22:37] [worker #2] ML tree search #9, logLikelihood: -39017.549260
[00:22:43 -39052.921880] AUTODETECT spr round 2 (radius: 10)
[00:23:16 -39052.703055] AUTODETECT spr round 3 (radius: 15)
[00:23:19] [worker #1] ML tree search #8, logLikelihood: -39019.213237
[00:24:08 -39052.673694] SPR radius for FAST iterations: 10 (autodetect)
[00:24:08 -39052.673694] Model parameter optimization (eps = 3.000000)
[00:24:08 -39052.636600] FAST spr round 1 (radius: 10)
[00:24:26 -39041.670782] FAST spr round 2 (radius: 10)
[00:24:43 -39032.688047] FAST spr round 3 (radius: 10)
[00:24:59 -39032.687740] Model parameter optimization (eps = 1.000000)
[00:24:59 -39032.642626] SLOW spr round 1 (radius: 5)
[00:25:39 -39023.351333] SLOW spr round 2 (radius: 5)
[00:26:14 -39023.330781] SLOW spr round 3 (radius: 10)
[00:26:48 -39023.330506] SLOW spr round 4 (radius: 15)
[00:27:55] [worker #4] ML tree search #17, logLikelihood: -39020.585187
[00:27:57 -39023.330478] SLOW spr round 5 (radius: 20)
[00:29:02] [worker #5] ML tree search #18, logLikelihood: -39019.333396
[00:29:20 -39023.330474] SLOW spr round 6 (radius: 25)
[00:30:36 -39023.330473] Model parameter optimization (eps = 0.100000)

[00:30:36] [worker #0] ML tree search #13, logLikelihood: -39023.324835

[00:30:36 -44973.599973] Initial branch length optimization
[00:30:37 -39388.816967] Model parameter optimization (eps = 10.000000)
[00:30:38 -39381.351869] AUTODETECT spr round 1 (radius: 5)
[00:30:55 -39059.812259] AUTODETECT spr round 2 (radius: 10)
[00:31:03] [worker #3] ML tree search #16, logLikelihood: -39017.480720
[00:31:04] [worker #2] ML tree search #15, logLikelihood: -39022.965329
[00:31:30 -39057.858958] AUTODETECT spr round 3 (radius: 15)
[00:31:47] [worker #1] ML tree search #14, logLikelihood: -39023.101385
[00:32:22 -39057.812804] SPR radius for FAST iterations: 10 (autodetect)
[00:32:22 -39057.812804] Model parameter optimization (eps = 3.000000)
[00:32:22 -39057.741596] FAST spr round 1 (radius: 10)
[00:32:42 -39042.238762] FAST spr round 2 (radius: 10)
[00:32:57 -39042.238360] Model parameter optimization (eps = 1.000000)
[00:32:57 -39042.202924] SLOW spr round 1 (radius: 5)
[00:33:39 -39027.595821] SLOW spr round 2 (radius: 5)
[00:34:19 -39021.195697] SLOW spr round 3 (radius: 5)
[00:34:53 -39021.195301] SLOW spr round 4 (radius: 10)
[00:35:30 -39021.195247] SLOW spr round 5 (radius: 15)
[00:36:42 -39021.195238] SLOW spr round 6 (radius: 20)
[00:38:03 -39021.195237] SLOW spr round 7 (radius: 25)
[00:39:00] [worker #1] ML tree search #20, logLikelihood: -39017.906793
[00:39:13 -39021.195237] Model parameter optimization (eps = 0.100000)

[00:39:14] [worker #0] ML tree search #19, logLikelihood: -39021.181040


Optimized model parameters:

   Partition 0: noname
   Rate heterogeneity: GAMMA (4 cats, mean),  alpha: 0.874867 (ML),  weights&rates: (0.250000,0.111362) (0.250000,0.435616) (0.250000,0.975721) (0.250000,2.477301) 
   Base frequencies (model): 0.079066 0.055941 0.041977 0.053052 0.012937 0.040767 0.071586 0.057337 0.022355 0.062157 0.099081 0.064600 0.022951 0.042302 0.044040 0.061197 0.053287 0.012066 0.034155 0.069147 
   Substitution rates (model): 0.425093 0.276818 0.395144 2.489084 0.969894 1.038545 2.066040 0.358858 0.149830 0.395337 0.536518 1.124035 0.253701 1.177651 4.727182 2.139501 0.180717 0.218959 2.547870 0.751878 0.123954 0.534551 2.807908 0.363970 0.390192 2.426601 0.126991 0.301848 6.326067 0.484133 0.052722 0.332533 0.858151 0.578987 0.593607 0.314440 0.170887 5.076149 0.528768 1.695752 0.541712 1.437645 4.509238 0.191503 0.068427 2.145078 0.371004 0.089525 0.161787 4.008358 2.000679 0.045376 0.612025 0.083688 0.062556 0.523386 5.243870 0.844926 0.927114 0.010690 0.015076 0.282959 0.025548 0.017416 0.394456 1.240275 0.425860 0.029890 0.135107 0.037967 0.084808 0.003499 0.569265 0.640543 0.320627 0.594007 0.013266 0.893680 1.105251 0.075382 2.784478 1.143480 0.670128 1.165532 1.959291 4.128591 0.267959 4.813505 0.072854 0.582457 3.234294 1.672569 0.035855 0.624294 1.223828 1.080136 0.236199 0.257336 0.210332 0.348847 0.423881 0.044265 0.069673 1.807177 0.173735 0.018811 0.419409 0.611973 0.604545 0.077852 0.120037 0.245034 0.311484 0.008705 0.044261 0.296636 0.139538 0.089586 0.196961 1.739990 0.129836 0.268491 0.054679 0.076701 0.108882 0.366317 0.697264 0.442472 0.682139 0.508851 0.990012 0.584262 0.597054 5.306834 0.119013 4.145067 0.159069 4.273607 1.112727 0.078281 0.064105 1.033739 0.111660 0.232523 10.649107 0.137500 6.312358 2.592692 0.249060 0.182287 0.302936 0.619632 0.299648 1.702745 0.656604 0.023918 0.390322 0.748683 1.136863 0.049906 0.131932 0.185202 1.798853 0.099849 0.346960 2.020366 0.696175 0.481306 1.898718 0.094464 0.361819 0.165001 2.457121 7.803902 0.654683 1.338132 0.571468 0.095131 0.089613 0.296501 6.472279 0.248862 0.400547 0.098369 0.140825 0.245841 2.188158 3.151815 0.189510 0.249313 


Final LogLikelihood: -39017.480720

AIC score: 79030.961440 / AICc score: 576034.961440 / BIC score: 80939.238913
Free parameters (model + branch lengths): 498

WARNING: Number of free parameters (K=498) is larger than alignment size (n=341).
         This might lead to overfitting and compromise tree inference results!


WARNING: Best ML tree contains 34 near-zero branches!

Best ML tree with collapsed near-zero branches saved to: /home/dutheil/Data/WhiteNoseSyndrome/Phylogenomics/Phylogenies_raxml/jgi|Pseudest1|4604|VC83_07842T0/jgi|Pseudest1|4604|VC83_07842T0.raxml.bestTreeCollapsed
Best ML tree saved to: /home/dutheil/Data/WhiteNoseSyndrome/Phylogenomics/Phylogenies_raxml/jgi|Pseudest1|4604|VC83_07842T0/jgi|Pseudest1|4604|VC83_07842T0.raxml.bestTree
All ML trees saved to: /home/dutheil/Data/WhiteNoseSyndrome/Phylogenomics/Phylogenies_raxml/jgi|Pseudest1|4604|VC83_07842T0/jgi|Pseudest1|4604|VC83_07842T0.raxml.mlTrees
Optimized model saved to: /home/dutheil/Data/WhiteNoseSyndrome/Phylogenomics/Phylogenies_raxml/jgi|Pseudest1|4604|VC83_07842T0/jgi|Pseudest1|4604|VC83_07842T0.raxml.bestModel

Execution log saved to: /home/dutheil/Data/WhiteNoseSyndrome/Phylogenomics/Phylogenies_raxml/jgi|Pseudest1|4604|VC83_07842T0/jgi|Pseudest1|4604|VC83_07842T0.raxml.log

Analysis started: 06-Oct-2020 21:45:24 / finished: 06-Oct-2020 22:24:38

Elapsed time: 2354.368 seconds

Consumed energy: 169.274 Wh

