
RAxML-NG v. 1.0.1 released on 19.09.2020 by The Exelixis Lab.
Developed by: Alexey M. Kozlov and Alexandros Stamatakis.
Contributors: Diego Darriba, Tomas Flouri, Benoit Morel, Sarah Lutteropp, Ben Bettisworth.
Latest version: https://github.com/amkozlov/raxml-ng
Questions/problems/suggestions? Please visit: https://groups.google.com/forum/#!forum/raxml

System: Intel(R) Xeon(R) CPU E5-2683 v4 @ 2.10GHz, 32 cores, 503 GB RAM

RAxML-NG was called at 07-Oct-2020 02:17:13 as follows:

./raxml-ng --threads 6 --msa Alignments_filtered_renamed/jgi|Pseudest1|9285|VC83_04462T0.aln_filtered_renamed.fasta --model LG+G --prefix Phylogenies_raxml/jgi|Pseudest1|9285|VC83_04462T0/jgi|Pseudest1|9285|VC83_04462T0 --seed 586

Analysis options:
  run mode: ML tree search
  start tree(s): random (10) + parsimony (10)
  random seed: 586
  tip-inner: OFF
  pattern compression: ON
  per-rate scalers: OFF
  site repeats: ON
  fast spr radius: AUTO
  spr subtree cutoff: 1.000000
  branch lengths: proportional (ML estimate, algorithm: NR-FAST)
  SIMD kernels: AVX2
  parallelization: coarse-grained (auto), PTHREADS (6 threads), thread pinning: OFF

[00:00:00] Reading alignment from file: Alignments_filtered_renamed/jgi|Pseudest1|9285|VC83_04462T0.aln_filtered_renamed.fasta
[00:00:00] Loaded alignment with 250 taxa and 313 sites

WARNING: Sequences taxon119 and taxon120 are exactly identical!
WARNING: Sequences taxon189 and taxon190 are exactly identical!
WARNING: Sequences taxon36 and taxon51 are exactly identical!
WARNING: Sequences taxon46 and taxon38 are exactly identical!
WARNING: Sequences taxon27 and taxon57 are exactly identical!
WARNING: Sequences taxon27 and taxon54 are exactly identical!
WARNING: Sequences taxon18 and taxon55 are exactly identical!
WARNING: Sequences taxon32 and taxon52 are exactly identical!
WARNING: Sequences taxon206 and taxon207 are exactly identical!
WARNING: Sequences taxon247 and taxon248 are exactly identical!
WARNING: Sequences taxon247 and taxon249 are exactly identical!
WARNING: Sequences taxon247 and taxon250 are exactly identical!
WARNING: Sequences taxon95 and taxon97 are exactly identical!
WARNING: Sequences taxon201 and taxon202 are exactly identical!
WARNING: Sequences taxon71 and taxon75 are exactly identical!
WARNING: Sequences taxon77 and taxon78 are exactly identical!
WARNING: Sequences taxon239 and taxon240 are exactly identical!
WARNING: Sequences taxon237 and taxon238 are exactly identical!
WARNING: Sequences taxon126 and taxon132 are exactly identical!
WARNING: Sequences taxon129 and taxon147 are exactly identical!
WARNING: Sequences taxon135 and taxon144 are exactly identical!
WARNING: Duplicate sequences found: 21

NOTE: Reduced alignment (with duplicates and gap-only sites/taxa removed) 
NOTE: was saved to: /home/dutheil/Data/WhiteNoseSyndrome/Phylogenomics/Phylogenies_raxml/jgi|Pseudest1|9285|VC83_04462T0/jgi|Pseudest1|9285|VC83_04462T0.raxml.reduced.phy

Alignment comprises 1 partitions and 296 patterns

Partition 0: noname
Model: LG+G4m
Alignment sites / patterns: 313 / 296
Gaps: 0.33 %
Invariant sites: 10.22 %


NOTE: Binary MSA file created: Phylogenies_raxml/jgi|Pseudest1|9285|VC83_04462T0/jgi|Pseudest1|9285|VC83_04462T0.raxml.rba

Parallelization scheme autoconfig: 6 worker(s) x 1 thread(s)

Parallel reduction/worker buffer size: 1 KB  / 0 KB

[00:00:00] Generating 10 random starting tree(s) with 250 taxa
[00:00:00] Generating 10 parsimony starting tree(s) with 250 taxa
[00:00:00] Data distribution: max. partitions/sites/weight per thread: 1 / 296 / 23680
[00:00:00] Data distribution: max. searches per worker: 4

Starting ML tree search with 20 distinct starting trees

[00:00:00 -105839.013273] Initial branch length optimization
[00:00:01 -91777.216337] Model parameter optimization (eps = 10.000000)
[00:00:04 -91307.506832] AUTODETECT spr round 1 (radius: 5)
[00:00:27 -53133.297954] AUTODETECT spr round 2 (radius: 10)
[00:00:59 -37664.813158] AUTODETECT spr round 3 (radius: 15)
[00:01:44 -34461.627151] AUTODETECT spr round 4 (radius: 20)
[00:02:39 -34259.612584] AUTODETECT spr round 5 (radius: 25)
[00:03:26 -34259.605960] SPR radius for FAST iterations: 20 (autodetect)
[00:03:26 -34259.605960] Model parameter optimization (eps = 3.000000)
[00:03:27 -34230.838422] FAST spr round 1 (radius: 20)
[00:03:56 -30799.111822] FAST spr round 2 (radius: 20)
[00:04:21 -30491.564024] FAST spr round 3 (radius: 20)
[00:04:39 -30483.077387] FAST spr round 4 (radius: 20)
[00:04:54 -30479.107718] FAST spr round 5 (radius: 20)
[00:05:08 -30479.107647] Model parameter optimization (eps = 1.000000)
[00:05:09 -30479.104727] SLOW spr round 1 (radius: 5)
[00:05:46 -30473.873235] SLOW spr round 2 (radius: 5)
[00:06:18 -30473.873082] SLOW spr round 3 (radius: 10)
[00:06:50 -30473.873067] SLOW spr round 4 (radius: 15)
[00:07:48 -30473.873065] SLOW spr round 5 (radius: 20)
[00:08:50 -30473.873065] SLOW spr round 6 (radius: 25)
[00:09:46] [worker #2] ML tree search #3, logLikelihood: -30481.572737
[00:09:52] [worker #4] ML tree search #5, logLikelihood: -30475.233219
[00:09:54 -30473.873065] Model parameter optimization (eps = 0.100000)

[00:09:54] [worker #0] ML tree search #1, logLikelihood: -30473.872228

[00:09:54 -102829.815645] Initial branch length optimization
[00:09:56 -89139.545740] Model parameter optimization (eps = 10.000000)
[00:09:58 -88717.923036] AUTODETECT spr round 1 (radius: 5)
[00:10:20 -52435.124853] AUTODETECT spr round 2 (radius: 10)
[00:10:48 -44434.803606] AUTODETECT spr round 3 (radius: 15)
[00:11:10] [worker #1] ML tree search #2, logLikelihood: -30480.379540
[00:11:28 -37833.458766] AUTODETECT spr round 4 (radius: 20)
[00:11:37] [worker #5] ML tree search #6, logLikelihood: -30482.485030
[00:12:10 -36079.964514] AUTODETECT spr round 5 (radius: 25)
[00:12:43] [worker #3] ML tree search #4, logLikelihood: -30480.447901
[00:12:51 -36079.947755] SPR radius for FAST iterations: 20 (autodetect)
[00:12:51 -36079.947755] Model parameter optimization (eps = 3.000000)
[00:12:52 -36068.288712] FAST spr round 1 (radius: 20)
[00:13:20 -30810.981955] FAST spr round 2 (radius: 20)
[00:13:45 -30512.027794] FAST spr round 3 (radius: 20)
[00:14:00 -30502.442849] FAST spr round 4 (radius: 20)
[00:14:14 -30500.696384] FAST spr round 5 (radius: 20)
[00:14:28 -30500.695986] Model parameter optimization (eps = 1.000000)
[00:14:29 -30497.931957] SLOW spr round 1 (radius: 5)
[00:15:04 -30483.416756] SLOW spr round 2 (radius: 5)
[00:15:34 -30483.416308] SLOW spr round 3 (radius: 10)
[00:16:06 -30483.416231] SLOW spr round 4 (radius: 15)
[00:16:37] [worker #4] ML tree search #11, logLikelihood: -30472.971961
[00:17:01 -30483.416216] SLOW spr round 5 (radius: 20)
[00:18:03 -30483.416212] SLOW spr round 6 (radius: 25)
[00:18:16] [worker #5] ML tree search #12, logLikelihood: -30480.315124
[00:19:02 -30483.416212] Model parameter optimization (eps = 0.100000)

[00:19:03] [worker #0] ML tree search #7, logLikelihood: -30483.405129

[00:19:03 -35342.719267] Initial branch length optimization
[00:19:04 -30922.699323] Model parameter optimization (eps = 10.000000)
[00:19:05 -30895.617844] AUTODETECT spr round 1 (radius: 5)
[00:19:20 -30523.901873] AUTODETECT spr round 2 (radius: 10)
[00:19:52 -30513.379422] AUTODETECT spr round 3 (radius: 15)
[00:20:35 -30513.376626] SPR radius for FAST iterations: 10 (autodetect)
[00:20:35 -30513.376626] Model parameter optimization (eps = 3.000000)
[00:20:35 -30512.475638] FAST spr round 1 (radius: 10)
[00:20:54 -30493.515833] FAST spr round 2 (radius: 10)
[00:21:09 -30490.077379] FAST spr round 3 (radius: 10)
[00:21:23 -30490.077280] Model parameter optimization (eps = 1.000000)
[00:21:23 -30490.049791] SLOW spr round 1 (radius: 5)
[00:21:55 -30489.484088] SLOW spr round 2 (radius: 5)
[00:22:25 -30489.267763] SLOW spr round 3 (radius: 5)
[00:22:36] [worker #2] ML tree search #9, logLikelihood: -30481.189179
[00:22:55 -30489.267691] SLOW spr round 4 (radius: 10)
[00:23:25 -30489.267687] SLOW spr round 5 (radius: 15)
[00:23:27] [worker #4] ML tree search #17, logLikelihood: -30470.453821
[00:24:22 -30489.267687] SLOW spr round 6 (radius: 20)
[00:24:31] [worker #3] ML tree search #10, logLikelihood: -30480.580067
[00:24:52] [worker #1] ML tree search #8, logLikelihood: -30482.938998
[00:25:24 -30489.267687] SLOW spr round 7 (radius: 25)
[00:25:37] [worker #5] ML tree search #18, logLikelihood: -30480.859448
[00:26:22 -30489.267687] Model parameter optimization (eps = 0.100000)

[00:26:23] [worker #0] ML tree search #13, logLikelihood: -30489.267687

[00:26:23 -35177.553806] Initial branch length optimization
[00:26:24 -30864.493919] Model parameter optimization (eps = 10.000000)
[00:26:24 -30833.008795] AUTODETECT spr round 1 (radius: 5)
[00:26:39 -30553.721923] AUTODETECT spr round 2 (radius: 10)
[00:27:10 -30547.499933] AUTODETECT spr round 3 (radius: 15)
[00:27:53 -30547.499438] SPR radius for FAST iterations: 10 (autodetect)
[00:27:53 -30547.499438] Model parameter optimization (eps = 3.000000)
[00:27:53 -30547.262643] FAST spr round 1 (radius: 10)
[00:28:14 -30507.508077] FAST spr round 2 (radius: 10)
[00:28:29 -30505.131699] FAST spr round 3 (radius: 10)
[00:28:43 -30503.473007] FAST spr round 4 (radius: 10)
[00:28:56 -30503.472996] Model parameter optimization (eps = 1.000000)
[00:28:57 -30503.404755] SLOW spr round 1 (radius: 5)
[00:29:32 -30495.127187] SLOW spr round 2 (radius: 5)
[00:30:06 -30484.263676] SLOW spr round 3 (radius: 5)
[00:30:38] [worker #2] ML tree search #15, logLikelihood: -30472.098973
[00:30:38 -30482.783374] SLOW spr round 4 (radius: 5)
[00:31:07 -30482.783084] SLOW spr round 5 (radius: 10)
[00:31:37] [worker #3] ML tree search #16, logLikelihood: -30472.833906
[00:31:37 -30482.783059] SLOW spr round 6 (radius: 15)
[00:32:31 -30482.783056] SLOW spr round 7 (radius: 20)
[00:33:11] [worker #1] ML tree search #14, logLikelihood: -30472.060200
[00:33:30 -30482.783056] SLOW spr round 8 (radius: 25)
[00:34:28 -30482.783056] Model parameter optimization (eps = 0.100000)

[00:34:29] [worker #0] ML tree search #19, logLikelihood: -30482.781087

[00:40:20] [worker #1] ML tree search #20, logLikelihood: -30474.404813

Optimized model parameters:

   Partition 0: noname
   Rate heterogeneity: GAMMA (4 cats, mean),  alpha: 0.800776 (ML),  weights&rates: (0.250000,0.095724) (0.250000,0.407446) (0.250000,0.957170) (0.250000,2.539660) 
   Base frequencies (model): 0.079066 0.055941 0.041977 0.053052 0.012937 0.040767 0.071586 0.057337 0.022355 0.062157 0.099081 0.064600 0.022951 0.042302 0.044040 0.061197 0.053287 0.012066 0.034155 0.069147 
   Substitution rates (model): 0.425093 0.276818 0.395144 2.489084 0.969894 1.038545 2.066040 0.358858 0.149830 0.395337 0.536518 1.124035 0.253701 1.177651 4.727182 2.139501 0.180717 0.218959 2.547870 0.751878 0.123954 0.534551 2.807908 0.363970 0.390192 2.426601 0.126991 0.301848 6.326067 0.484133 0.052722 0.332533 0.858151 0.578987 0.593607 0.314440 0.170887 5.076149 0.528768 1.695752 0.541712 1.437645 4.509238 0.191503 0.068427 2.145078 0.371004 0.089525 0.161787 4.008358 2.000679 0.045376 0.612025 0.083688 0.062556 0.523386 5.243870 0.844926 0.927114 0.010690 0.015076 0.282959 0.025548 0.017416 0.394456 1.240275 0.425860 0.029890 0.135107 0.037967 0.084808 0.003499 0.569265 0.640543 0.320627 0.594007 0.013266 0.893680 1.105251 0.075382 2.784478 1.143480 0.670128 1.165532 1.959291 4.128591 0.267959 4.813505 0.072854 0.582457 3.234294 1.672569 0.035855 0.624294 1.223828 1.080136 0.236199 0.257336 0.210332 0.348847 0.423881 0.044265 0.069673 1.807177 0.173735 0.018811 0.419409 0.611973 0.604545 0.077852 0.120037 0.245034 0.311484 0.008705 0.044261 0.296636 0.139538 0.089586 0.196961 1.739990 0.129836 0.268491 0.054679 0.076701 0.108882 0.366317 0.697264 0.442472 0.682139 0.508851 0.990012 0.584262 0.597054 5.306834 0.119013 4.145067 0.159069 4.273607 1.112727 0.078281 0.064105 1.033739 0.111660 0.232523 10.649107 0.137500 6.312358 2.592692 0.249060 0.182287 0.302936 0.619632 0.299648 1.702745 0.656604 0.023918 0.390322 0.748683 1.136863 0.049906 0.131932 0.185202 1.798853 0.099849 0.346960 2.020366 0.696175 0.481306 1.898718 0.094464 0.361819 0.165001 2.457121 7.803902 0.654683 1.338132 0.571468 0.095131 0.089613 0.296501 6.472279 0.248862 0.400547 0.098369 0.140825 0.245841 2.188158 3.151815 0.189510 0.249313 


Final LogLikelihood: -30470.453821

AIC score: 61936.907642 / AICc score: 558940.907642 / BIC score: 63802.516831
Free parameters (model + branch lengths): 498

WARNING: Number of free parameters (K=498) is larger than alignment size (n=313).
         This might lead to overfitting and compromise tree inference results!


WARNING: Best ML tree contains 26 near-zero branches!

Best ML tree with collapsed near-zero branches saved to: /home/dutheil/Data/WhiteNoseSyndrome/Phylogenomics/Phylogenies_raxml/jgi|Pseudest1|9285|VC83_04462T0/jgi|Pseudest1|9285|VC83_04462T0.raxml.bestTreeCollapsed
Best ML tree saved to: /home/dutheil/Data/WhiteNoseSyndrome/Phylogenomics/Phylogenies_raxml/jgi|Pseudest1|9285|VC83_04462T0/jgi|Pseudest1|9285|VC83_04462T0.raxml.bestTree
All ML trees saved to: /home/dutheil/Data/WhiteNoseSyndrome/Phylogenomics/Phylogenies_raxml/jgi|Pseudest1|9285|VC83_04462T0/jgi|Pseudest1|9285|VC83_04462T0.raxml.mlTrees
Optimized model saved to: /home/dutheil/Data/WhiteNoseSyndrome/Phylogenomics/Phylogenies_raxml/jgi|Pseudest1|9285|VC83_04462T0/jgi|Pseudest1|9285|VC83_04462T0.raxml.bestModel

Execution log saved to: /home/dutheil/Data/WhiteNoseSyndrome/Phylogenomics/Phylogenies_raxml/jgi|Pseudest1|9285|VC83_04462T0/jgi|Pseudest1|9285|VC83_04462T0.raxml.log

Analysis started: 07-Oct-2020 02:17:13 / finished: 07-Oct-2020 02:57:34

Elapsed time: 2420.953 seconds

Consumed energy: 155.978 Wh

