
RAxML-NG v. 1.0.1 released on 19.09.2020 by The Exelixis Lab.
Developed by: Alexey M. Kozlov and Alexandros Stamatakis.
Contributors: Diego Darriba, Tomas Flouri, Benoit Morel, Sarah Lutteropp, Ben Bettisworth.
Latest version: https://github.com/amkozlov/raxml-ng
Questions/problems/suggestions? Please visit: https://groups.google.com/forum/#!forum/raxml

System: Intel(R) Xeon(R) CPU E5-2683 v4 @ 2.10GHz, 32 cores, 503 GB RAM

RAxML-NG was called at 06-Oct-2020 22:34:45 as follows:

./raxml-ng --threads 6 --msa Alignments_filtered_renamed/jgi|Pseudest1|5465|VC83_08638T0.aln_filtered_renamed.fasta --model LG+G --prefix Phylogenies_raxml/jgi|Pseudest1|5465|VC83_08638T0/jgi|Pseudest1|5465|VC83_08638T0 --seed 344

Analysis options:
  run mode: ML tree search
  start tree(s): random (10) + parsimony (10)
  random seed: 344
  tip-inner: OFF
  pattern compression: ON
  per-rate scalers: OFF
  site repeats: ON
  fast spr radius: AUTO
  spr subtree cutoff: 1.000000
  branch lengths: proportional (ML estimate, algorithm: NR-FAST)
  SIMD kernels: AVX2
  parallelization: coarse-grained (auto), PTHREADS (6 threads), thread pinning: OFF

[00:00:00] Reading alignment from file: Alignments_filtered_renamed/jgi|Pseudest1|5465|VC83_08638T0.aln_filtered_renamed.fasta
[00:00:00] Loaded alignment with 250 taxa and 333 sites

WARNING: Sequences taxon95 and taxon97 are exactly identical!
WARNING: Sequences taxon129 and taxon136 are exactly identical!
WARNING: Sequences taxon135 and taxon144 are exactly identical!
WARNING: Sequences taxon170 and taxon171 are exactly identical!
WARNING: Sequences taxon215 and taxon216 are exactly identical!
WARNING: Sequences taxon55 and taxon53 are exactly identical!
WARNING: Duplicate sequences found: 6

NOTE: Reduced alignment (with duplicates and gap-only sites/taxa removed) 
NOTE: was saved to: /home/dutheil/Data/WhiteNoseSyndrome/Phylogenomics/Phylogenies_raxml/jgi|Pseudest1|5465|VC83_08638T0/jgi|Pseudest1|5465|VC83_08638T0.raxml.reduced.phy

Alignment comprises 1 partitions and 322 patterns

Partition 0: noname
Model: LG+G4m
Alignment sites / patterns: 333 / 322
Gaps: 0.77 %
Invariant sites: 11.71 %


NOTE: Binary MSA file created: Phylogenies_raxml/jgi|Pseudest1|5465|VC83_08638T0/jgi|Pseudest1|5465|VC83_08638T0.raxml.rba

Parallelization scheme autoconfig: 6 worker(s) x 1 thread(s)

Parallel reduction/worker buffer size: 1 KB  / 0 KB

[00:00:00] Generating 10 random starting tree(s) with 250 taxa
[00:00:00] Generating 10 parsimony starting tree(s) with 250 taxa
[00:00:00] Data distribution: max. partitions/sites/weight per thread: 1 / 322 / 25760
[00:00:00] Data distribution: max. searches per worker: 4

Starting ML tree search with 20 distinct starting trees

[00:00:00 -111753.750285] Initial branch length optimization
[00:00:02 -98099.705035] Model parameter optimization (eps = 10.000000)
[00:00:04 -97425.887893] AUTODETECT spr round 1 (radius: 5)
[00:00:29 -59385.069609] AUTODETECT spr round 2 (radius: 10)
[00:01:02 -43926.535070] AUTODETECT spr round 3 (radius: 15)
[00:01:45 -39935.458621] AUTODETECT spr round 4 (radius: 20)
[00:02:38 -39917.629855] AUTODETECT spr round 5 (radius: 25)
[00:03:28 -39722.021282] SPR radius for FAST iterations: 25 (autodetect)
[00:03:28 -39722.021282] Model parameter optimization (eps = 3.000000)
[00:03:29 -39721.915346] FAST spr round 1 (radius: 25)
[00:04:00 -36983.915057] FAST spr round 2 (radius: 25)
[00:04:27 -36857.645321] FAST spr round 3 (radius: 25)
[00:04:47 -36842.459498] FAST spr round 4 (radius: 25)
[00:05:06 -36832.551466] FAST spr round 5 (radius: 25)
[00:05:22 -36827.856525] FAST spr round 6 (radius: 25)
[00:05:38 -36827.856344] Model parameter optimization (eps = 1.000000)
[00:05:38 -36827.796039] SLOW spr round 1 (radius: 5)
[00:06:18 -36822.588802] SLOW spr round 2 (radius: 5)
[00:06:53 -36822.588778] SLOW spr round 3 (radius: 10)
[00:07:31 -36822.588778] SLOW spr round 4 (radius: 15)
[00:08:43 -36822.588778] SLOW spr round 5 (radius: 20)
[00:10:09 -36822.588778] SLOW spr round 6 (radius: 25)
[00:10:28] [worker #1] ML tree search #2, logLikelihood: -36819.677699
[00:10:39] [worker #3] ML tree search #4, logLikelihood: -36821.411590
[00:10:43] [worker #5] ML tree search #6, logLikelihood: -36826.112914
[00:11:04] [worker #4] ML tree search #5, logLikelihood: -36821.850995
[00:11:25 -36822.588778] Model parameter optimization (eps = 0.100000)

[00:11:25] [worker #0] ML tree search #1, logLikelihood: -36822.587642

[00:11:25 -110611.744127] Initial branch length optimization
[00:11:27 -96953.753427] Model parameter optimization (eps = 10.000000)
[00:11:30 -96173.684355] AUTODETECT spr round 1 (radius: 5)
[00:11:55 -59757.230514] AUTODETECT spr round 2 (radius: 10)
[00:12:08] [worker #2] ML tree search #3, logLikelihood: -36824.040292
[00:12:28 -45162.054499] AUTODETECT spr round 3 (radius: 15)
[00:13:06 -40375.053273] AUTODETECT spr round 4 (radius: 20)
[00:13:53 -40251.828534] AUTODETECT spr round 5 (radius: 25)
[00:14:43 -40225.564785] SPR radius for FAST iterations: 25 (autodetect)
[00:14:43 -40225.564785] Model parameter optimization (eps = 3.000000)
[00:14:43 -40225.105838] FAST spr round 1 (radius: 25)
[00:15:17 -36968.745937] FAST spr round 2 (radius: 25)
[00:15:40 -36837.170181] FAST spr round 3 (radius: 25)
[00:15:57 -36833.912800] FAST spr round 4 (radius: 25)
[00:16:12 -36833.912356] Model parameter optimization (eps = 1.000000)
[00:16:13 -36833.559221] SLOW spr round 1 (radius: 5)
[00:16:54 -36823.123524] SLOW spr round 2 (radius: 5)
[00:17:31 -36817.454592] SLOW spr round 3 (radius: 5)
[00:18:05 -36817.454422] SLOW spr round 4 (radius: 10)
[00:18:40 -36817.454420] SLOW spr round 5 (radius: 15)
[00:19:06] [worker #5] ML tree search #12, logLikelihood: -36820.576191
[00:19:40] [worker #4] ML tree search #11, logLikelihood: -36818.884207
[00:19:49 -36817.454420] SLOW spr round 6 (radius: 20)
[00:21:13 -36817.454420] SLOW spr round 7 (radius: 25)
[00:21:52] [worker #1] ML tree search #8, logLikelihood: -36820.232634
[00:22:01] [worker #3] ML tree search #10, logLikelihood: -36819.790233
[00:22:29 -36817.454420] Model parameter optimization (eps = 0.100000)

[00:22:30] [worker #0] ML tree search #7, logLikelihood: -36817.432180

[00:22:30 -42099.409939] Initial branch length optimization
[00:22:31 -37248.972688] Model parameter optimization (eps = 10.000000)
[00:22:32 -37061.916952] AUTODETECT spr round 1 (radius: 5)
[00:22:37] [worker #2] ML tree search #9, logLikelihood: -36823.915253
[00:22:49 -36847.127876] AUTODETECT spr round 2 (radius: 10)
[00:23:21 -36846.711136] AUTODETECT spr round 3 (radius: 15)
[00:24:11 -36846.710610] SPR radius for FAST iterations: 10 (autodetect)
[00:24:11 -36846.710610] Model parameter optimization (eps = 3.000000)
[00:24:11 -36846.604120] FAST spr round 1 (radius: 10)
[00:24:30 -36826.269185] FAST spr round 2 (radius: 10)
[00:24:46 -36826.269162] Model parameter optimization (eps = 1.000000)
[00:24:46 -36826.252008] SLOW spr round 1 (radius: 5)
[00:25:24 -36820.428361] SLOW spr round 2 (radius: 5)
[00:25:58 -36819.583618] SLOW spr round 3 (radius: 5)
[00:26:31 -36819.583572] SLOW spr round 4 (radius: 10)
[00:27:06 -36819.583572] SLOW spr round 5 (radius: 15)
[00:27:25] [worker #4] ML tree search #17, logLikelihood: -36816.714664
[00:28:12 -36819.583572] SLOW spr round 6 (radius: 20)
[00:28:27] [worker #5] ML tree search #18, logLikelihood: -36827.867351
[00:29:32 -36819.583572] SLOW spr round 7 (radius: 25)
[00:30:28] [worker #2] ML tree search #15, logLikelihood: -36821.525783
[00:30:47 -36819.583572] Model parameter optimization (eps = 0.100000)

[00:30:47] [worker #0] ML tree search #13, logLikelihood: -36819.582989

[00:30:47 -41912.908226] Initial branch length optimization
[00:30:48] [worker #3] ML tree search #16, logLikelihood: -36823.800493
[00:30:48 -37183.703039] Model parameter optimization (eps = 10.000000)
[00:30:49 -37016.020102] AUTODETECT spr round 1 (radius: 5)
[00:31:06 -36861.650359] AUTODETECT spr round 2 (radius: 10)
[00:31:40 -36861.649850] SPR radius for FAST iterations: 5 (autodetect)
[00:31:40 -36861.649850] Model parameter optimization (eps = 3.000000)
[00:31:41 -36861.638956] FAST spr round 1 (radius: 5)
[00:32:00 -36837.201471] FAST spr round 2 (radius: 5)
[00:32:15 -36837.200380] Model parameter optimization (eps = 1.000000)
[00:32:15 -36837.025308] SLOW spr round 1 (radius: 5)
[00:32:32] [worker #1] ML tree search #14, logLikelihood: -36823.375541
[00:32:54 -36825.499078] SLOW spr round 2 (radius: 5)
[00:33:29 -36822.426630] SLOW spr round 3 (radius: 5)
[00:34:01 -36822.426356] SLOW spr round 4 (radius: 10)
[00:34:36 -36822.426354] SLOW spr round 5 (radius: 15)
[00:35:44 -36822.426354] SLOW spr round 6 (radius: 20)
[00:37:03 -36822.426354] SLOW spr round 7 (radius: 25)
[00:38:13 -36822.426354] Model parameter optimization (eps = 0.100000)

[00:38:14] [worker #0] ML tree search #19, logLikelihood: -36822.410353

[00:40:10] [worker #1] ML tree search #20, logLikelihood: -36824.183618

Optimized model parameters:

   Partition 0: noname
   Rate heterogeneity: GAMMA (4 cats, mean),  alpha: 0.536990 (ML),  weights&rates: (0.250000,0.040432) (0.250000,0.275379) (0.250000,0.845423) (0.250000,2.838766) 
   Base frequencies (model): 0.079066 0.055941 0.041977 0.053052 0.012937 0.040767 0.071586 0.057337 0.022355 0.062157 0.099081 0.064600 0.022951 0.042302 0.044040 0.061197 0.053287 0.012066 0.034155 0.069147 
   Substitution rates (model): 0.425093 0.276818 0.395144 2.489084 0.969894 1.038545 2.066040 0.358858 0.149830 0.395337 0.536518 1.124035 0.253701 1.177651 4.727182 2.139501 0.180717 0.218959 2.547870 0.751878 0.123954 0.534551 2.807908 0.363970 0.390192 2.426601 0.126991 0.301848 6.326067 0.484133 0.052722 0.332533 0.858151 0.578987 0.593607 0.314440 0.170887 5.076149 0.528768 1.695752 0.541712 1.437645 4.509238 0.191503 0.068427 2.145078 0.371004 0.089525 0.161787 4.008358 2.000679 0.045376 0.612025 0.083688 0.062556 0.523386 5.243870 0.844926 0.927114 0.010690 0.015076 0.282959 0.025548 0.017416 0.394456 1.240275 0.425860 0.029890 0.135107 0.037967 0.084808 0.003499 0.569265 0.640543 0.320627 0.594007 0.013266 0.893680 1.105251 0.075382 2.784478 1.143480 0.670128 1.165532 1.959291 4.128591 0.267959 4.813505 0.072854 0.582457 3.234294 1.672569 0.035855 0.624294 1.223828 1.080136 0.236199 0.257336 0.210332 0.348847 0.423881 0.044265 0.069673 1.807177 0.173735 0.018811 0.419409 0.611973 0.604545 0.077852 0.120037 0.245034 0.311484 0.008705 0.044261 0.296636 0.139538 0.089586 0.196961 1.739990 0.129836 0.268491 0.054679 0.076701 0.108882 0.366317 0.697264 0.442472 0.682139 0.508851 0.990012 0.584262 0.597054 5.306834 0.119013 4.145067 0.159069 4.273607 1.112727 0.078281 0.064105 1.033739 0.111660 0.232523 10.649107 0.137500 6.312358 2.592692 0.249060 0.182287 0.302936 0.619632 0.299648 1.702745 0.656604 0.023918 0.390322 0.748683 1.136863 0.049906 0.131932 0.185202 1.798853 0.099849 0.346960 2.020366 0.696175 0.481306 1.898718 0.094464 0.361819 0.165001 2.457121 7.803902 0.654683 1.338132 0.571468 0.095131 0.089613 0.296501 6.472279 0.248862 0.400547 0.098369 0.140825 0.245841 2.188158 3.151815 0.189510 0.249313 


Final LogLikelihood: -36816.714664

AIC score: 74629.429328 / AICc score: 571633.429328 / BIC score: 76525.884288
Free parameters (model + branch lengths): 498

WARNING: Number of free parameters (K=498) is larger than alignment size (n=333).
         This might lead to overfitting and compromise tree inference results!


WARNING: Best ML tree contains 23 near-zero branches!

Best ML tree with collapsed near-zero branches saved to: /home/dutheil/Data/WhiteNoseSyndrome/Phylogenomics/Phylogenies_raxml/jgi|Pseudest1|5465|VC83_08638T0/jgi|Pseudest1|5465|VC83_08638T0.raxml.bestTreeCollapsed
Best ML tree saved to: /home/dutheil/Data/WhiteNoseSyndrome/Phylogenomics/Phylogenies_raxml/jgi|Pseudest1|5465|VC83_08638T0/jgi|Pseudest1|5465|VC83_08638T0.raxml.bestTree
All ML trees saved to: /home/dutheil/Data/WhiteNoseSyndrome/Phylogenomics/Phylogenies_raxml/jgi|Pseudest1|5465|VC83_08638T0/jgi|Pseudest1|5465|VC83_08638T0.raxml.mlTrees
Optimized model saved to: /home/dutheil/Data/WhiteNoseSyndrome/Phylogenomics/Phylogenies_raxml/jgi|Pseudest1|5465|VC83_08638T0/jgi|Pseudest1|5465|VC83_08638T0.raxml.bestModel

Execution log saved to: /home/dutheil/Data/WhiteNoseSyndrome/Phylogenomics/Phylogenies_raxml/jgi|Pseudest1|5465|VC83_08638T0/jgi|Pseudest1|5465|VC83_08638T0.raxml.log

Analysis started: 06-Oct-2020 22:34:45 / finished: 06-Oct-2020 23:14:56

Elapsed time: 2410.934 seconds

Consumed energy: 185.913 Wh

