
RAxML-NG v. 1.0.1 released on 19.09.2020 by The Exelixis Lab.
Developed by: Alexey M. Kozlov and Alexandros Stamatakis.
Contributors: Diego Darriba, Tomas Flouri, Benoit Morel, Sarah Lutteropp, Ben Bettisworth.
Latest version: https://github.com/amkozlov/raxml-ng
Questions/problems/suggestions? Please visit: https://groups.google.com/forum/#!forum/raxml

System: Intel(R) Xeon(R) CPU E5-2683 v4 @ 2.10GHz, 32 cores, 503 GB RAM

RAxML-NG was called at 06-Oct-2020 20:34:17 as follows:

./raxml-ng --threads 6 --msa Alignments_filtered_renamed/jgi|Pseudest1|3388|VC83_06812T0.aln_filtered_renamed.fasta --model LG+G --prefix Phylogenies_raxml/jgi|Pseudest1|3388|VC83_06812T0/jgi|Pseudest1|3388|VC83_06812T0 --seed 201

Analysis options:
  run mode: ML tree search
  start tree(s): random (10) + parsimony (10)
  random seed: 201
  tip-inner: OFF
  pattern compression: ON
  per-rate scalers: OFF
  site repeats: ON
  fast spr radius: AUTO
  spr subtree cutoff: 1.000000
  branch lengths: proportional (ML estimate, algorithm: NR-FAST)
  SIMD kernels: AVX2
  parallelization: coarse-grained (auto), PTHREADS (6 threads), thread pinning: OFF

[00:00:00] Reading alignment from file: Alignments_filtered_renamed/jgi|Pseudest1|3388|VC83_06812T0.aln_filtered_renamed.fasta
[00:00:00] Loaded alignment with 250 taxa and 593 sites

WARNING: Sequences taxon239 and taxon240 are exactly identical!
WARNING: Sequences taxon249 and taxon250 are exactly identical!
WARNING: Sequences taxon39 and taxon34 are exactly identical!
WARNING: Duplicate sequences found: 3

NOTE: Reduced alignment (with duplicates and gap-only sites/taxa removed) 
NOTE: was saved to: /home/dutheil/Data/WhiteNoseSyndrome/Phylogenomics/Phylogenies_raxml/jgi|Pseudest1|3388|VC83_06812T0/jgi|Pseudest1|3388|VC83_06812T0.raxml.reduced.phy

Alignment comprises 1 partitions and 587 patterns

Partition 0: noname
Model: LG+G4m
Alignment sites / patterns: 593 / 587
Gaps: 1.60 %
Invariant sites: 6.75 %


NOTE: Binary MSA file created: Phylogenies_raxml/jgi|Pseudest1|3388|VC83_06812T0/jgi|Pseudest1|3388|VC83_06812T0.raxml.rba

Parallelization scheme autoconfig: 3 worker(s) x 2 thread(s)

Parallel reduction/worker buffer size: 1 KB  / 0 KB

[00:00:00] Generating 10 random starting tree(s) with 250 taxa
[00:00:00] Generating 10 parsimony starting tree(s) with 250 taxa
[00:00:00] Data distribution: max. partitions/sites/weight per thread: 1 / 294 / 23520
[00:00:00] Data distribution: max. searches per worker: 7

Starting ML tree search with 20 distinct starting trees

[00:00:00 -216465.778804] Initial branch length optimization
[00:00:02 -187430.446339] Model parameter optimization (eps = 10.000000)
[00:00:04 -186660.795428] AUTODETECT spr round 1 (radius: 5)
[00:00:28 -127871.031914] AUTODETECT spr round 2 (radius: 10)
[00:01:00 -102524.507138] AUTODETECT spr round 3 (radius: 15)
[00:01:45 -91033.904669] AUTODETECT spr round 4 (radius: 20)
[00:02:28 -90683.457797] AUTODETECT spr round 5 (radius: 25)
[00:03:16 -90341.310848] SPR radius for FAST iterations: 25 (autodetect)
[00:03:16 -90341.310848] Model parameter optimization (eps = 3.000000)
[00:03:17 -90296.883807] FAST spr round 1 (radius: 25)
[00:03:47 -85771.209868] FAST spr round 2 (radius: 25)
[00:04:13 -85395.544733] FAST spr round 3 (radius: 25)
[00:04:33 -85389.345782] FAST spr round 4 (radius: 25)
[00:04:52 -85386.031637] FAST spr round 5 (radius: 25)
[00:05:11 -85382.803770] FAST spr round 6 (radius: 25)
[00:05:29 -85380.239291] FAST spr round 7 (radius: 25)
[00:05:49 -85368.431681] FAST spr round 8 (radius: 25)
[00:06:07 -85367.039408] FAST spr round 9 (radius: 25)
[00:06:24 -85367.039407] Model parameter optimization (eps = 1.000000)
[00:06:25 -85366.688289] SLOW spr round 1 (radius: 5)
[00:07:05 -85355.962085] SLOW spr round 2 (radius: 5)
[00:07:42 -85355.961299] SLOW spr round 3 (radius: 10)
[00:08:19 -85355.961252] SLOW spr round 4 (radius: 15)
[00:09:31 -85355.961249] SLOW spr round 5 (radius: 20)
[00:10:56 -85355.961249] SLOW spr round 6 (radius: 25)
[00:12:05] [worker #2] ML tree search #3, logLikelihood: -85350.342117
[00:12:08 -85355.961249] Model parameter optimization (eps = 0.100000)

[00:12:09] [worker #0] ML tree search #1, logLikelihood: -85355.955369

[00:12:09 -218894.719821] Initial branch length optimization
[00:12:10 -187802.802551] Model parameter optimization (eps = 10.000000)
[00:12:13 -186956.529410] AUTODETECT spr round 1 (radius: 5)
[00:12:36 -123685.541143] AUTODETECT spr round 2 (radius: 10)
[00:13:08 -95827.511074] AUTODETECT spr round 3 (radius: 15)
[00:13:21] [worker #1] ML tree search #2, logLikelihood: -85354.244853
[00:13:52 -91960.287747] AUTODETECT spr round 4 (radius: 20)
[00:14:39 -91796.207013] AUTODETECT spr round 5 (radius: 25)
[00:15:25 -91796.203379] SPR radius for FAST iterations: 20 (autodetect)
[00:15:25 -91796.203379] Model parameter optimization (eps = 3.000000)
[00:15:26 -91780.053200] FAST spr round 1 (radius: 20)
[00:15:58 -85803.594984] FAST spr round 2 (radius: 20)
[00:16:26 -85440.188352] FAST spr round 3 (radius: 20)
[00:16:46 -85411.568201] FAST spr round 4 (radius: 20)
[00:17:04 -85409.222907] FAST spr round 5 (radius: 20)
[00:17:23 -85405.051785] FAST spr round 6 (radius: 20)
[00:17:41 -85403.601278] FAST spr round 7 (radius: 20)
[00:17:59 -85402.294474] FAST spr round 8 (radius: 20)
[00:18:17 -85401.276066] FAST spr round 9 (radius: 20)
[00:18:35 -85400.537974] FAST spr round 10 (radius: 20)
[00:18:53 -85400.517727] Model parameter optimization (eps = 1.000000)
[00:18:54 -85398.969710] SLOW spr round 1 (radius: 5)
[00:19:37 -85376.108581] SLOW spr round 2 (radius: 5)
[00:20:15 -85375.124719] SLOW spr round 3 (radius: 5)
[00:20:52 -85375.123803] SLOW spr round 4 (radius: 10)
[00:21:29 -85375.123755] SLOW spr round 5 (radius: 15)
[00:22:42 -85375.123753] SLOW spr round 6 (radius: 20)
[00:23:36] [worker #2] ML tree search #6, logLikelihood: -85378.120135
[00:24:06 -85375.123753] SLOW spr round 7 (radius: 25)
[00:25:18 -85375.123753] Model parameter optimization (eps = 0.100000)

[00:25:19] [worker #0] ML tree search #4, logLikelihood: -85375.025555

[00:25:19 -217711.833973] Initial branch length optimization
[00:25:20 -189149.762538] Model parameter optimization (eps = 10.000000)
[00:25:22 -188468.124405] AUTODETECT spr round 1 (radius: 5)
[00:25:45 -123965.322677] AUTODETECT spr round 2 (radius: 10)
[00:25:50] [worker #1] ML tree search #5, logLikelihood: -85354.459385
[00:26:17 -94880.298335] AUTODETECT spr round 3 (radius: 15)
[00:26:56 -92557.198729] AUTODETECT spr round 4 (radius: 20)
[00:27:36 -92128.927567] AUTODETECT spr round 5 (radius: 25)
[00:28:19 -92069.431291] SPR radius for FAST iterations: 25 (autodetect)
[00:28:19 -92069.431291] Model parameter optimization (eps = 3.000000)
[00:28:20 -92053.180923] FAST spr round 1 (radius: 25)
[00:28:53 -85809.989451] FAST spr round 2 (radius: 25)
[00:29:20 -85405.338737] FAST spr round 3 (radius: 25)
[00:29:44 -85362.503262] FAST spr round 4 (radius: 25)
[00:30:02 -85359.183624] FAST spr round 5 (radius: 25)
[00:30:20 -85356.030848] FAST spr round 6 (radius: 25)
[00:30:39 -85354.658233] FAST spr round 7 (radius: 25)
[00:30:57 -85353.861879] FAST spr round 8 (radius: 25)
[00:31:15 -85353.861303] Model parameter optimization (eps = 1.000000)
[00:31:15 -85353.765591] SLOW spr round 1 (radius: 5)
[00:31:56 -85349.995096] SLOW spr round 2 (radius: 5)
[00:32:33 -85349.994813] SLOW spr round 3 (radius: 10)
[00:33:10 -85349.994795] SLOW spr round 4 (radius: 15)
[00:34:24 -85349.994794] SLOW spr round 5 (radius: 20)
[00:35:50 -85349.994794] SLOW spr round 6 (radius: 25)
[00:36:02] [worker #2] ML tree search #9, logLikelihood: -85375.221318
[00:37:01 -85349.994794] Model parameter optimization (eps = 0.100000)

[00:37:02] [worker #0] ML tree search #7, logLikelihood: -85349.988658

[00:37:02 -219469.655214] Initial branch length optimization
[00:37:03 -188761.645032] Model parameter optimization (eps = 10.000000)
[00:37:06 -187924.750946] AUTODETECT spr round 1 (radius: 5)
[00:37:29 -126277.015914] AUTODETECT spr round 2 (radius: 10)
[00:38:02 -96894.786348] AUTODETECT spr round 3 (radius: 15)
[00:38:25] [worker #1] ML tree search #8, logLikelihood: -85359.313121
[00:38:48 -92261.332733] AUTODETECT spr round 4 (radius: 20)
[00:39:30 -92248.094963] AUTODETECT spr round 5 (radius: 25)
[00:40:10 -92248.092061] SPR radius for FAST iterations: 20 (autodetect)
[00:40:10 -92248.092061] Model parameter optimization (eps = 3.000000)
[00:40:11 -92207.209169] FAST spr round 1 (radius: 20)
[00:40:43 -85712.328888] FAST spr round 2 (radius: 20)
[00:41:09 -85439.352116] FAST spr round 3 (radius: 20)
[00:41:31 -85395.446339] FAST spr round 4 (radius: 20)
[00:41:49 -85389.174643] FAST spr round 5 (radius: 20)
[00:42:08 -85384.581924] FAST spr round 6 (radius: 20)
[00:42:26 -85384.016288] FAST spr round 7 (radius: 20)
[00:42:43 -85383.918020] Model parameter optimization (eps = 1.000000)
[00:42:44 -85383.040966] SLOW spr round 1 (radius: 5)
[00:43:26 -85371.796768] SLOW spr round 2 (radius: 5)
[00:44:06 -85360.003196] SLOW spr round 3 (radius: 5)
[00:44:24] [worker #2] ML tree search #12, logLikelihood: -85355.136519
[00:44:41 -85360.001247] SLOW spr round 4 (radius: 10)
[00:45:18 -85360.001146] SLOW spr round 5 (radius: 15)
[00:46:32 -85360.001140] SLOW spr round 6 (radius: 20)
[00:47:23] [worker #1] ML tree search #11, logLikelihood: -85353.932339
[00:47:58 -85360.001140] SLOW spr round 7 (radius: 25)
[00:49:09 -85360.001140] Model parameter optimization (eps = 0.100000)

[00:49:09] [worker #0] ML tree search #10, logLikelihood: -85359.967124

[00:49:09 -96728.140256] Initial branch length optimization
[00:49:10 -85989.131838] Model parameter optimization (eps = 10.000000)
[00:49:11 -85869.510305] AUTODETECT spr round 1 (radius: 5)
[00:49:28 -85420.784193] AUTODETECT spr round 2 (radius: 10)
[00:50:01 -85420.760140] SPR radius for FAST iterations: 5 (autodetect)
[00:50:01 -85420.760140] Model parameter optimization (eps = 3.000000)
[00:50:01 -85420.467444] FAST spr round 1 (radius: 5)
[00:50:23 -85374.892034] FAST spr round 2 (radius: 5)
[00:50:41 -85368.622135] FAST spr round 3 (radius: 5)
[00:50:59 -85365.575244] FAST spr round 4 (radius: 5)
[00:51:16 -85362.606331] FAST spr round 5 (radius: 5)
[00:51:33 -85362.606331] Model parameter optimization (eps = 1.000000)
[00:51:33 -85362.604306] SLOW spr round 1 (radius: 5)
[00:52:12 -85355.498395] SLOW spr round 2 (radius: 5)
[00:52:41] [worker #2] ML tree search #15, logLikelihood: -85352.027881
[00:52:51 -85351.053907] SLOW spr round 3 (radius: 5)
[00:53:27 -85351.053840] SLOW spr round 4 (radius: 10)
[00:54:04 -85351.053837] SLOW spr round 5 (radius: 15)
[00:55:16 -85351.053837] SLOW spr round 6 (radius: 20)
[00:56:27] [worker #1] ML tree search #14, logLikelihood: -85367.084253
[00:56:42 -85351.053837] SLOW spr round 7 (radius: 25)
[00:57:55 -85351.053837] Model parameter optimization (eps = 0.100000)

[00:57:55] [worker #0] ML tree search #13, logLikelihood: -85350.993127

[00:57:55 -96588.491978] Initial branch length optimization
[00:57:56 -85835.967156] Model parameter optimization (eps = 10.000000)
[00:57:57 -85715.964824] AUTODETECT spr round 1 (radius: 5)
[00:58:14 -85426.481424] AUTODETECT spr round 2 (radius: 10)
[00:58:47 -85417.415009] AUTODETECT spr round 3 (radius: 15)
[00:59:37 -85417.414603] SPR radius for FAST iterations: 10 (autodetect)
[00:59:37 -85417.414603] Model parameter optimization (eps = 3.000000)
[00:59:38 -85417.412386] FAST spr round 1 (radius: 10)
[01:00:00 -85374.030064] FAST spr round 2 (radius: 10)
[01:00:18 -85370.794034] FAST spr round 3 (radius: 10)
[01:00:36 -85369.765814] FAST spr round 4 (radius: 10)
[01:00:54 -85369.679769] Model parameter optimization (eps = 1.000000)
[01:00:54 -85369.654562] SLOW spr round 1 (radius: 5)
[01:01:37 -85360.443941] SLOW spr round 2 (radius: 5)
[01:02:14 -85360.441562] SLOW spr round 3 (radius: 10)
[01:02:22] [worker #2] ML tree search #18, logLikelihood: -85368.910792
[01:02:52 -85360.441449] SLOW spr round 4 (radius: 15)
[01:04:07 -85360.441443] SLOW spr round 5 (radius: 20)
[01:04:39] [worker #1] ML tree search #17, logLikelihood: -85358.028979
[01:05:34 -85360.441443] SLOW spr round 6 (radius: 25)
[01:06:43 -85360.441443] Model parameter optimization (eps = 0.100000)

[01:06:43] [worker #0] ML tree search #16, logLikelihood: -85360.433394

[01:06:44 -96430.900840] Initial branch length optimization
[01:06:44 -85782.596106] Model parameter optimization (eps = 10.000000)
[01:06:45 -85659.040542] AUTODETECT spr round 1 (radius: 5)
[01:07:02 -85431.267022] AUTODETECT spr round 2 (radius: 10)
[01:07:35 -85431.266880] SPR radius for FAST iterations: 5 (autodetect)
[01:07:35 -85431.266880] Model parameter optimization (eps = 3.000000)
[01:07:35 -85431.125487] FAST spr round 1 (radius: 5)
[01:07:56 -85383.504644] FAST spr round 2 (radius: 5)
[01:08:16 -85376.047954] FAST spr round 3 (radius: 5)
[01:08:34 -85371.860311] FAST spr round 4 (radius: 5)
[01:08:51 -85368.677462] FAST spr round 5 (radius: 5)
[01:09:09 -85367.304787] FAST spr round 6 (radius: 5)
[01:09:27 -85366.092268] FAST spr round 7 (radius: 5)
[01:09:44 -85366.092185] Model parameter optimization (eps = 1.000000)
[01:09:45 -85365.919808] SLOW spr round 1 (radius: 5)
[01:10:24 -85363.725448] SLOW spr round 2 (radius: 5)
[01:11:02 -85362.731860] SLOW spr round 3 (radius: 5)
[01:11:38 -85362.731698] SLOW spr round 4 (radius: 10)
[01:12:15 -85362.731691] SLOW spr round 5 (radius: 15)
[01:13:30 -85362.731690] SLOW spr round 6 (radius: 20)
[01:14:56 -85362.731690] SLOW spr round 7 (radius: 25)
[01:15:12] [worker #1] ML tree search #20, logLikelihood: -85350.389246
[01:16:07 -85362.731690] Model parameter optimization (eps = 0.100000)

[01:16:07] [worker #0] ML tree search #19, logLikelihood: -85362.730555


Optimized model parameters:

   Partition 0: noname
   Rate heterogeneity: GAMMA (4 cats, mean),  alpha: 0.686144 (ML),  weights&rates: (0.250000,0.071231) (0.250000,0.356919) (0.250000,0.919624) (0.250000,2.652226) 
   Base frequencies (model): 0.079066 0.055941 0.041977 0.053052 0.012937 0.040767 0.071586 0.057337 0.022355 0.062157 0.099081 0.064600 0.022951 0.042302 0.044040 0.061197 0.053287 0.012066 0.034155 0.069147 
   Substitution rates (model): 0.425093 0.276818 0.395144 2.489084 0.969894 1.038545 2.066040 0.358858 0.149830 0.395337 0.536518 1.124035 0.253701 1.177651 4.727182 2.139501 0.180717 0.218959 2.547870 0.751878 0.123954 0.534551 2.807908 0.363970 0.390192 2.426601 0.126991 0.301848 6.326067 0.484133 0.052722 0.332533 0.858151 0.578987 0.593607 0.314440 0.170887 5.076149 0.528768 1.695752 0.541712 1.437645 4.509238 0.191503 0.068427 2.145078 0.371004 0.089525 0.161787 4.008358 2.000679 0.045376 0.612025 0.083688 0.062556 0.523386 5.243870 0.844926 0.927114 0.010690 0.015076 0.282959 0.025548 0.017416 0.394456 1.240275 0.425860 0.029890 0.135107 0.037967 0.084808 0.003499 0.569265 0.640543 0.320627 0.594007 0.013266 0.893680 1.105251 0.075382 2.784478 1.143480 0.670128 1.165532 1.959291 4.128591 0.267959 4.813505 0.072854 0.582457 3.234294 1.672569 0.035855 0.624294 1.223828 1.080136 0.236199 0.257336 0.210332 0.348847 0.423881 0.044265 0.069673 1.807177 0.173735 0.018811 0.419409 0.611973 0.604545 0.077852 0.120037 0.245034 0.311484 0.008705 0.044261 0.296636 0.139538 0.089586 0.196961 1.739990 0.129836 0.268491 0.054679 0.076701 0.108882 0.366317 0.697264 0.442472 0.682139 0.508851 0.990012 0.584262 0.597054 5.306834 0.119013 4.145067 0.159069 4.273607 1.112727 0.078281 0.064105 1.033739 0.111660 0.232523 10.649107 0.137500 6.312358 2.592692 0.249060 0.182287 0.302936 0.619632 0.299648 1.702745 0.656604 0.023918 0.390322 0.748683 1.136863 0.049906 0.131932 0.185202 1.798853 0.099849 0.346960 2.020366 0.696175 0.481306 1.898718 0.094464 0.361819 0.165001 2.457121 7.803902 0.654683 1.338132 0.571468 0.095131 0.089613 0.296501 6.472279 0.248862 0.400547 0.098369 0.140825 0.245841 2.188158 3.151815 0.189510 0.249313 


Final LogLikelihood: -85349.988658

AIC score: 171695.977316 / AICc score: 176983.253912 / BIC score: 173879.804127
Free parameters (model + branch lengths): 498

WARNING: Best ML tree contains 7 near-zero branches!

Best ML tree with collapsed near-zero branches saved to: /home/dutheil/Data/WhiteNoseSyndrome/Phylogenomics/Phylogenies_raxml/jgi|Pseudest1|3388|VC83_06812T0/jgi|Pseudest1|3388|VC83_06812T0.raxml.bestTreeCollapsed
Best ML tree saved to: /home/dutheil/Data/WhiteNoseSyndrome/Phylogenomics/Phylogenies_raxml/jgi|Pseudest1|3388|VC83_06812T0/jgi|Pseudest1|3388|VC83_06812T0.raxml.bestTree
All ML trees saved to: /home/dutheil/Data/WhiteNoseSyndrome/Phylogenomics/Phylogenies_raxml/jgi|Pseudest1|3388|VC83_06812T0/jgi|Pseudest1|3388|VC83_06812T0.raxml.mlTrees
Optimized model saved to: /home/dutheil/Data/WhiteNoseSyndrome/Phylogenomics/Phylogenies_raxml/jgi|Pseudest1|3388|VC83_06812T0/jgi|Pseudest1|3388|VC83_06812T0.raxml.bestModel

Execution log saved to: /home/dutheil/Data/WhiteNoseSyndrome/Phylogenomics/Phylogenies_raxml/jgi|Pseudest1|3388|VC83_06812T0/jgi|Pseudest1|3388|VC83_06812T0.raxml.log

Analysis started: 06-Oct-2020 20:34:17 / finished: 06-Oct-2020 21:50:25

Elapsed time: 4567.660 seconds

Consumed energy: 327.303 Wh (= 2 km in an electric car, or 8 km with an e-scooter!)

