
RAxML-NG v. 1.0.1 released on 19.09.2020 by The Exelixis Lab.
Developed by: Alexey M. Kozlov and Alexandros Stamatakis.
Contributors: Diego Darriba, Tomas Flouri, Benoit Morel, Sarah Lutteropp, Ben Bettisworth.
Latest version: https://github.com/amkozlov/raxml-ng
Questions/problems/suggestions? Please visit: https://groups.google.com/forum/#!forum/raxml

System: Intel(R) Xeon(R) CPU E5-2683 v4 @ 2.10GHz, 32 cores, 503 GB RAM

RAxML-NG was called at 21-Oct-2020 02:44:16 as follows:

./raxml-ng --msa SuperAlignment.fasta.raxml.rba --prefix Bootstrap/SuperAlignment.fasta.raxml.bootstrap156 --bootstrap --bs-trees 1 --seed 198 --threads 32

Analysis options:
  run mode: Bootstrapping
  start tree(s): 
  bootstrap replicates: 1
  random seed: 198
  tip-inner: OFF
  pattern compression: ON
  per-rate scalers: OFF
  site repeats: ON
  branch lengths: proportional (ML estimate, algorithm: NR-FAST)
  SIMD kernels: AVX2
  parallelization: coarse-grained (auto), PTHREADS (32 threads), thread pinning: OFF

[00:00:00] Loading binary alignment from file: SuperAlignment.fasta.raxml.rba
[00:00:01] Alignment comprises 250 taxa, 556 partitions and 259935 patterns

Partition 0: VC83_04927T0
Model: LG+G4m+B
Alignment sites / patterns: 309 / 298
Gaps: 0.97 %
Invariant sites: 9.71 %

Partition 1: VC83_04935T0
Model: LG+G4m+B
Alignment sites / patterns: 350 / 312
Gaps: 0.79 %
Invariant sites: 21.14 %

Partition 2: VC83_04938T0
Model: LG+G4m+B
Alignment sites / patterns: 442 / 367
Gaps: 0.58 %
Invariant sites: 23.76 %

Partition 3: VC83_04969T0
Model: LG+G4m+B
Alignment sites / patterns: 449 / 440
Gaps: 0.50 %
Invariant sites: 8.46 %

Partition 4: VC83_04989T0
Model: LG+G4m+B
Alignment sites / patterns: 268 / 237
Gaps: 0.53 %
Invariant sites: 25.37 %

Partition 5: VC83_05001T0
Model: LG+G4m+B
Alignment sites / patterns: 372 / 311
Gaps: 0.44 %
Invariant sites: 25.81 %

Partition 6: VC83_05010T0
Model: LG+G4m+B
Alignment sites / patterns: 173 / 169
Gaps: 2.09 %
Invariant sites: 16.18 %

Partition 7: VC83_05018T0
Model: LG+G4m+B
Alignment sites / patterns: 412 / 402
Gaps: 0.35 %
Invariant sites: 6.31 %

Partition 8: VC83_00011T0
Model: LG+G4m+B
Alignment sites / patterns: 534 / 483
Gaps: 0.56 %
Invariant sites: 16.29 %

Partition 9: VC83_05075T0
Model: LG+G4m+B
Alignment sites / patterns: 463 / 429
Gaps: 0.83 %
Invariant sites: 15.98 %

Partition 10: VC83_05085T0
Model: LG+G4m+B
Alignment sites / patterns: 621 / 616
Gaps: 2.43 %
Invariant sites: 6.92 %

Partition 11: VC83_05108T0
Model: LG+G4m+B
Alignment sites / patterns: 209 / 189
Gaps: 0.59 %
Invariant sites: 33.01 %

Partition 12: VC83_05116T0
Model: LG+G4m+B
Alignment sites / patterns: 762 / 760
Gaps: 2.65 %
Invariant sites: 1.44 %

Partition 13: VC83_05121T0
Model: LG+G4m+B
Alignment sites / patterns: 381 / 370
Gaps: 2.06 %
Invariant sites: 8.66 %

Partition 14: VC83_05127T0
Model: LG+G4m+B
Alignment sites / patterns: 191 / 184
Gaps: 1.03 %
Invariant sites: 16.23 %

Partition 15: VC83_05139T0
Model: LG+G4m+B
Alignment sites / patterns: 1320 / 1276
Gaps: 0.67 %
Invariant sites: 4.85 %

Partition 16: VC83_06394T0
Model: LG+G4m+B
Alignment sites / patterns: 1044 / 830
Gaps: 0.51 %
Invariant sites: 24.43 %

Partition 17: VC83_06401T0
Model: LG+G4m+B
Alignment sites / patterns: 437 / 392
Gaps: 1.10 %
Invariant sites: 14.19 %

Partition 18: VC83_06402T0
Model: LG+G4m+B
Alignment sites / patterns: 528 / 520
Gaps: 1.31 %
Invariant sites: 3.98 %

Partition 19: VC83_06427T0
Model: LG+G4m+B
Alignment sites / patterns: 285 / 283
Gaps: 0.53 %
Invariant sites: 3.51 %

Partition 20: VC83_06437T0
Model: LG+G4m+B
Alignment sites / patterns: 496 / 411
Gaps: 0.41 %
Invariant sites: 24.40 %

Partition 21: VC83_06567T0
Model: LG+G4m+B
Alignment sites / patterns: 571 / 541
Gaps: 0.53 %
Invariant sites: 10.16 %

Partition 22: VC83_06568T0
Model: LG+G4m+B
Alignment sites / patterns: 1317 / 1292
Gaps: 1.25 %
Invariant sites: 4.33 %

Partition 23: VC83_06571T0
Model: LG+G4m+B
Alignment sites / patterns: 855 / 792
Gaps: 0.81 %
Invariant sites: 11.11 %

Partition 24: VC83_06579T0
Model: LG+G4m+B
Alignment sites / patterns: 343 / 338
Gaps: 1.60 %
Invariant sites: 4.08 %

Partition 25: VC83_05180T0
Model: LG+G4m+B
Alignment sites / patterns: 668 / 642
Gaps: 1.79 %
Invariant sites: 8.53 %

Partition 26: VC83_05183T0
Model: LG+G4m+B
Alignment sites / patterns: 1076 / 1053
Gaps: 0.87 %
Invariant sites: 5.02 %

Partition 27: VC83_05194T0
Model: LG+G4m+B
Alignment sites / patterns: 473 / 417
Gaps: 1.86 %
Invariant sites: 22.20 %

Partition 28: VC83_05196T0
Model: LG+G4m+B
Alignment sites / patterns: 643 / 609
Gaps: 0.87 %
Invariant sites: 9.02 %

Partition 29: VC83_05207T0
Model: LG+G4m+B
Alignment sites / patterns: 1006 / 954
Gaps: 0.29 %
Invariant sites: 7.46 %

Partition 30: VC83_05233T0
Model: LG+G4m+B
Alignment sites / patterns: 432 / 419
Gaps: 1.48 %
Invariant sites: 7.64 %

Partition 31: VC83_00160T0
Model: LG+G4m+B
Alignment sites / patterns: 498 / 487
Gaps: 4.51 %
Invariant sites: 6.83 %

Partition 32: VC83_05254T0
Model: LG+G4m+B
Alignment sites / patterns: 642 / 617
Gaps: 0.60 %
Invariant sites: 6.85 %

Partition 33: VC83_05264T0
Model: LG+G4m+B
Alignment sites / patterns: 704 / 689
Gaps: 0.31 %
Invariant sites: 4.12 %

Partition 34: VC83_05268T0
Model: LG+G4m+B
Alignment sites / patterns: 342 / 329
Gaps: 0.39 %
Invariant sites: 11.99 %

Partition 35: VC83_05270T0
Model: LG+G4m+B
Alignment sites / patterns: 907 / 897
Gaps: 1.31 %
Invariant sites: 2.32 %

Partition 36: VC83_05285T0
Model: LG+G4m+B
Alignment sites / patterns: 456 / 425
Gaps: 0.90 %
Invariant sites: 11.62 %

Partition 37: VC83_05303T0
Model: LG+G4m+B
Alignment sites / patterns: 181 / 174
Gaps: 2.80 %
Invariant sites: 7.18 %

Partition 38: VC83_05308T0
Model: LG+G4m+B
Alignment sites / patterns: 1076 / 1047
Gaps: 0.89 %
Invariant sites: 5.48 %

Partition 39: VC83_05312T0
Model: LG+G4m+B
Alignment sites / patterns: 554 / 525
Gaps: 0.53 %
Invariant sites: 9.75 %

Partition 40: VC83_05337T0
Model: LG+G4m+B
Alignment sites / patterns: 841 / 691
Gaps: 0.26 %
Invariant sites: 20.33 %

Partition 41: VC83_05338T0
Model: LG+G4m+B
Alignment sites / patterns: 1245 / 1139
Gaps: 0.63 %
Invariant sites: 12.13 %

Partition 42: VC83_05368T0
Model: LG+G4m+B
Alignment sites / patterns: 1202 / 1049
Gaps: 0.47 %
Invariant sites: 15.81 %

Partition 43: VC83_05372T0
Model: LG+G4m+B
Alignment sites / patterns: 349 / 337
Gaps: 3.17 %
Invariant sites: 8.02 %

Partition 44: VC83_00175T0
Model: LG+G4m+B
Alignment sites / patterns: 373 / 314
Gaps: 0.60 %
Invariant sites: 24.40 %

Partition 45: VC83_05397T0
Model: LG+G4m+B
Alignment sites / patterns: 660 / 628
Gaps: 1.75 %
Invariant sites: 11.36 %

Partition 46: VC83_05427T0
Model: LG+G4m+B
Alignment sites / patterns: 613 / 440
Gaps: 0.11 %
Invariant sites: 36.70 %

Partition 47: VC83_05428T0
Model: LG+G4m+B
Alignment sites / patterns: 593 / 531
Gaps: 0.48 %
Invariant sites: 19.39 %

Partition 48: VC83_05433T0
Model: LG+G4m+B
Alignment sites / patterns: 503 / 429
Gaps: 0.79 %
Invariant sites: 23.26 %

Partition 49: VC83_05452T0
Model: LG+G4m+B
Alignment sites / patterns: 390 / 351
Gaps: 0.77 %
Invariant sites: 16.92 %

Partition 50: VC83_05491T0
Model: LG+G4m+B
Alignment sites / patterns: 608 / 590
Gaps: 0.84 %
Invariant sites: 7.07 %

Partition 51: VC83_05513T0
Model: LG+G4m+B
Alignment sites / patterns: 239 / 238
Gaps: 0.71 %
Invariant sites: 3.77 %

Partition 52: VC83_05531T0
Model: LG+G4m+B
Alignment sites / patterns: 308 / 297
Gaps: 0.42 %
Invariant sites: 7.79 %

Partition 53: VC83_05570T0
Model: LG+G4m+B
Alignment sites / patterns: 189 / 176
Gaps: 0.77 %
Invariant sites: 20.11 %

Partition 54: VC83_05585T0
Model: LG+G4m+B
Alignment sites / patterns: 255 / 208
Gaps: 1.84 %
Invariant sites: 31.76 %

Partition 55: VC83_05586T0
Model: LG+G4m+B
Alignment sites / patterns: 801 / 641
Gaps: 0.20 %
Invariant sites: 25.09 %

Partition 56: VC83_05593T0
Model: LG+G4m+B
Alignment sites / patterns: 274 / 267
Gaps: 0.57 %
Invariant sites: 7.30 %

Partition 57: VC83_05594T0
Model: LG+G4m+B
Alignment sites / patterns: 274 / 269
Gaps: 1.24 %
Invariant sites: 5.11 %

Partition 58: VC83_05595T0
Model: LG+G4m+B
Alignment sites / patterns: 839 / 833
Gaps: 1.85 %
Invariant sites: 3.34 %

Partition 59: VC83_05622T0
Model: LG+G4m+B
Alignment sites / patterns: 348 / 345
Gaps: 1.36 %
Invariant sites: 5.46 %

Partition 60: VC83_05646T0
Model: LG+G4m+B
Alignment sites / patterns: 179 / 170
Gaps: 1.13 %
Invariant sites: 16.20 %

Partition 61: VC83_05666T0
Model: LG+G4m+B
Alignment sites / patterns: 351 / 217
Gaps: 0.26 %
Invariant sites: 52.71 %

Partition 62: VC83_05678T0
Model: LG+G4m+B
Alignment sites / patterns: 888 / 883
Gaps: 2.35 %
Invariant sites: 3.72 %

Partition 63: VC83_05694T0
Model: LG+G4m+B
Alignment sites / patterns: 375 / 367
Gaps: 0.81 %
Invariant sites: 5.87 %

Partition 64: VC83_05733T0
Model: LG+G4m+B
Alignment sites / patterns: 1080 / 1062
Gaps: 0.91 %
Invariant sites: 3.15 %

Partition 65: VC83_05751T0
Model: LG+G4m+B
Alignment sites / patterns: 479 / 409
Gaps: 0.43 %
Invariant sites: 20.67 %

Partition 66: VC83_04513T0
Model: LG+G4m+B
Alignment sites / patterns: 346 / 342
Gaps: 1.96 %
Invariant sites: 6.36 %

Partition 67: VC83_04519T0
Model: LG+G4m+B
Alignment sites / patterns: 343 / 228
Gaps: 0.21 %
Invariant sites: 40.52 %

Partition 68: VC83_04521T0
Model: LG+G4m+B
Alignment sites / patterns: 216 / 179
Gaps: 1.27 %
Invariant sites: 35.19 %

Partition 69: VC83_04526T0
Model: LG+G4m+B
Alignment sites / patterns: 500 / 420
Gaps: 0.35 %
Invariant sites: 20.00 %

Partition 70: VC83_00216T0
Model: LG+G4m+B
Alignment sites / patterns: 794 / 781
Gaps: 0.97 %
Invariant sites: 3.15 %

Partition 71: VC83_04562T0
Model: LG+G4m+B
Alignment sites / patterns: 670 / 649
Gaps: 0.33 %
Invariant sites: 5.67 %

Partition 72: VC83_04565T0
Model: LG+G4m+B
Alignment sites / patterns: 1426 / 1249
Gaps: 0.39 %
Invariant sites: 15.15 %

Partition 73: VC83_04584T0
Model: LG+G4m+B
Alignment sites / patterns: 752 / 747
Gaps: 0.44 %
Invariant sites: 3.06 %

Partition 74: VC83_04605T0
Model: LG+G4m+B
Alignment sites / patterns: 1041 / 1028
Gaps: 0.43 %
Invariant sites: 2.69 %

Partition 75: VC83_04620T0
Model: LG+G4m+B
Alignment sites / patterns: 98 / 93
Gaps: 1.60 %
Invariant sites: 17.35 %

Partition 76: VC83_04642T0
Model: LG+G4m+B
Alignment sites / patterns: 380 / 330
Gaps: 0.03 %
Invariant sites: 18.42 %

Partition 77: VC83_04643T0
Model: LG+G4m+B
Alignment sites / patterns: 586 / 551
Gaps: 0.80 %
Invariant sites: 12.80 %

Partition 78: VC83_04662T0
Model: LG+G4m+B
Alignment sites / patterns: 275 / 269
Gaps: 2.01 %
Invariant sites: 5.09 %

Partition 79: VC83_04691T0
Model: LG+G4m+B
Alignment sites / patterns: 377 / 371
Gaps: 0.49 %
Invariant sites: 3.98 %

Partition 80: VC83_04694T0
Model: LG+G4m+B
Alignment sites / patterns: 803 / 795
Gaps: 1.39 %
Invariant sites: 2.74 %

Partition 81: VC83_04697T0
Model: LG+G4m+B
Alignment sites / patterns: 360 / 343
Gaps: 0.70 %
Invariant sites: 10.00 %

Partition 82: VC83_04706T0
Model: LG+G4m+B
Alignment sites / patterns: 1162 / 1058
Gaps: 0.64 %
Invariant sites: 12.82 %

Partition 83: VC83_04732T0
Model: LG+G4m+B
Alignment sites / patterns: 614 / 607
Gaps: 1.42 %
Invariant sites: 2.77 %

Partition 84: VC83_04763T0
Model: LG+G4m+B
Alignment sites / patterns: 1012 / 931
Gaps: 0.76 %
Invariant sites: 10.18 %

Partition 85: VC83_04790T0
Model: LG+G4m+B
Alignment sites / patterns: 496 / 409
Gaps: 0.26 %
Invariant sites: 22.98 %

Partition 86: VC83_04798T0
Model: LG+G4m+B
Alignment sites / patterns: 787 / 759
Gaps: 0.76 %
Invariant sites: 7.75 %

Partition 87: VC83_04829T0
Model: LG+G4m+B
Alignment sites / patterns: 318 / 279
Gaps: 0.32 %
Invariant sites: 23.27 %

Partition 88: VC83_04844T0
Model: LG+G4m+B
Alignment sites / patterns: 424 / 335
Gaps: 0.40 %
Invariant sites: 27.36 %

Partition 89: VC83_04848T0
Model: LG+G4m+B
Alignment sites / patterns: 309 / 239
Gaps: 0.11 %
Invariant sites: 29.45 %

Partition 90: VC83_04852T0
Model: LG+G4m+B
Alignment sites / patterns: 402 / 399
Gaps: 1.40 %
Invariant sites: 3.98 %

Partition 91: VC83_05788T0
Model: LG+G4m+B
Alignment sites / patterns: 248 / 236
Gaps: 1.46 %
Invariant sites: 11.29 %

Partition 92: VC83_05825T0
Model: LG+G4m+B
Alignment sites / patterns: 194 / 168
Gaps: 0.43 %
Invariant sites: 21.65 %

Partition 93: VC83_05831T0
Model: LG+G4m+B
Alignment sites / patterns: 321 / 317
Gaps: 1.41 %
Invariant sites: 4.36 %

Partition 94: VC83_05854T0
Model: LG+G4m+B
Alignment sites / patterns: 362 / 356
Gaps: 1.03 %
Invariant sites: 4.97 %

Partition 95: VC83_05855T0
Model: LG+G4m+B
Alignment sites / patterns: 222 / 211
Gaps: 0.70 %
Invariant sites: 13.51 %

Partition 96: VC83_05876T0
Model: LG+G4m+B
Alignment sites / patterns: 316 / 313
Gaps: 0.97 %
Invariant sites: 5.06 %

Partition 97: VC83_05892T0
Model: LG+G4m+B
Alignment sites / patterns: 407 / 361
Gaps: 0.41 %
Invariant sites: 16.95 %

Partition 98: VC83_05895T0
Model: LG+G4m+B
Alignment sites / patterns: 473 / 459
Gaps: 1.42 %
Invariant sites: 6.98 %

Partition 99: VC83_05902T0
Model: LG+G4m+B
Alignment sites / patterns: 667 / 659
Gaps: 0.34 %
Invariant sites: 3.30 %

Partition 100: VC83_05906T0
Model: LG+G4m+B
Alignment sites / patterns: 300 / 274
Gaps: 0.79 %
Invariant sites: 14.67 %

Partition 101: VC83_05908T0
Model: LG+G4m+B
Alignment sites / patterns: 528 / 482
Gaps: 1.02 %
Invariant sites: 13.64 %

Partition 102: VC83_05950T0
Model: LG+G4m+B
Alignment sites / patterns: 262 / 253
Gaps: 0.77 %
Invariant sites: 9.92 %

Partition 103: VC83_05971T0
Model: LG+G4m+B
Alignment sites / patterns: 637 / 607
Gaps: 0.66 %
Invariant sites: 8.01 %

Partition 104: VC83_05993T0
Model: LG+G4m+B
Alignment sites / patterns: 229 / 220
Gaps: 1.45 %
Invariant sites: 9.61 %

Partition 105: VC83_06032T0
Model: LG+G4m+B
Alignment sites / patterns: 798 / 783
Gaps: 0.92 %
Invariant sites: 4.51 %

Partition 106: VC83_06041T0
Model: LG+G4m+B
Alignment sites / patterns: 786 / 765
Gaps: 1.32 %
Invariant sites: 7.38 %

Partition 107: VC83_06904T0
Model: LG+G4m+B
Alignment sites / patterns: 260 / 209
Gaps: 0.06 %
Invariant sites: 26.54 %

Partition 108: VC83_06905T0
Model: LG+G4m+B
Alignment sites / patterns: 249 / 238
Gaps: 0.39 %
Invariant sites: 9.64 %

Partition 109: VC83_06912T0
Model: LG+G4m+B
Alignment sites / patterns: 951 / 635
Gaps: 0.10 %
Invariant sites: 36.07 %

Partition 110: VC83_00280T0
Model: LG+G4m+B
Alignment sites / patterns: 155 / 104
Gaps: 0.92 %
Invariant sites: 53.55 %

Partition 111: VC83_06939T0
Model: LG+G4m+B
Alignment sites / patterns: 456 / 431
Gaps: 0.56 %
Invariant sites: 10.53 %

Partition 112: VC83_06951T0
Model: LG+G4m+B
Alignment sites / patterns: 363 / 293
Gaps: 0.15 %
Invariant sites: 27.82 %

Partition 113: VC83_06957T0
Model: LG+G4m+B
Alignment sites / patterns: 431 / 418
Gaps: 1.03 %
Invariant sites: 11.37 %

Partition 114: VC83_06971T0
Model: LG+G4m+B
Alignment sites / patterns: 505 / 477
Gaps: 0.27 %
Invariant sites: 11.09 %

Partition 115: VC83_06987T0
Model: LG+G4m+B
Alignment sites / patterns: 254 / 245
Gaps: 0.57 %
Invariant sites: 8.66 %

Partition 116: VC83_06988T0
Model: LG+G4m+B
Alignment sites / patterns: 563 / 535
Gaps: 1.85 %
Invariant sites: 12.79 %

Partition 117: VC83_06990T0
Model: LG+G4m+B
Alignment sites / patterns: 310 / 302
Gaps: 1.05 %
Invariant sites: 11.29 %

Partition 118: VC83_06992T0
Model: LG+G4m+B
Alignment sites / patterns: 229 / 227
Gaps: 1.43 %
Invariant sites: 7.86 %

Partition 119: VC83_00287T0
Model: LG+G4m+B
Alignment sites / patterns: 388 / 381
Gaps: 0.51 %
Invariant sites: 3.87 %

Partition 120: VC83_00290T0
Model: LG+G4m+B
Alignment sites / patterns: 446 / 444
Gaps: 1.62 %
Invariant sites: 3.59 %

Partition 121: VC83_07032T0
Model: LG+G4m+B
Alignment sites / patterns: 265 / 231
Gaps: 0.63 %
Invariant sites: 28.30 %

Partition 122: VC83_07051T0
Model: LG+G4m+B
Alignment sites / patterns: 213 / 202
Gaps: 0.49 %
Invariant sites: 11.74 %

Partition 123: VC83_07104T0
Model: LG+G4m+B
Alignment sites / patterns: 604 / 562
Gaps: 0.64 %
Invariant sites: 11.42 %

Partition 124: VC83_07130T0
Model: LG+G4m+B
Alignment sites / patterns: 425 / 419
Gaps: 0.85 %
Invariant sites: 6.35 %

Partition 125: VC83_07174T0
Model: LG+G4m+B
Alignment sites / patterns: 267 / 257
Gaps: 0.59 %
Invariant sites: 8.24 %

Partition 126: VC83_07186T0
Model: LG+G4m+B
Alignment sites / patterns: 906 / 865
Gaps: 0.69 %
Invariant sites: 6.95 %

Partition 127: VC83_07188T0
Model: LG+G4m+B
Alignment sites / patterns: 463 / 448
Gaps: 0.88 %
Invariant sites: 8.21 %

Partition 128: VC83_07190T0
Model: LG+G4m+B
Alignment sites / patterns: 459 / 407
Gaps: 0.97 %
Invariant sites: 18.95 %

Partition 129: VC83_07228T0
Model: LG+G4m+B
Alignment sites / patterns: 288 / 269
Gaps: 0.56 %
Invariant sites: 11.81 %

Partition 130: VC83_07229T0
Model: LG+G4m+B
Alignment sites / patterns: 227 / 225
Gaps: 0.79 %
Invariant sites: 6.61 %

Partition 131: VC83_07231T0
Model: LG+G4m+B
Alignment sites / patterns: 1194 / 1177
Gaps: 0.64 %
Invariant sites: 3.69 %

Partition 132: VC83_07236T0
Model: LG+G4m+B
Alignment sites / patterns: 610 / 494
Gaps: 0.68 %
Invariant sites: 23.44 %

Partition 133: VC83_07243T0
Model: LG+G4m+B
Alignment sites / patterns: 674 / 661
Gaps: 0.90 %
Invariant sites: 5.79 %

Partition 134: VC83_07247T0
Model: LG+G4m+B
Alignment sites / patterns: 346 / 337
Gaps: 1.70 %
Invariant sites: 8.09 %

Partition 135: VC83_07251T0
Model: LG+G4m+B
Alignment sites / patterns: 343 / 332
Gaps: 1.78 %
Invariant sites: 9.91 %

Partition 136: VC83_00031T0
Model: LG+G4m+B
Alignment sites / patterns: 968 / 965
Gaps: 2.65 %
Invariant sites: 2.17 %

Partition 137: VC83_00316T0
Model: LG+G4m+B
Alignment sites / patterns: 358 / 350
Gaps: 1.04 %
Invariant sites: 8.38 %

Partition 138: VC83_07298T0
Model: LG+G4m+B
Alignment sites / patterns: 503 / 474
Gaps: 0.43 %
Invariant sites: 8.95 %

Partition 139: VC83_00317T0
Model: LG+G4m+B
Alignment sites / patterns: 1615 / 1542
Gaps: 0.55 %
Invariant sites: 9.04 %

Partition 140: VC83_06625T0
Model: LG+G4m+B
Alignment sites / patterns: 1104 / 916
Gaps: 0.30 %
Invariant sites: 20.38 %

Partition 141: VC83_00324T0
Model: LG+G4m+B
Alignment sites / patterns: 297 / 277
Gaps: 0.93 %
Invariant sites: 17.85 %

Partition 142: VC83_06659T0
Model: LG+G4m+B
Alignment sites / patterns: 1648 / 1640
Gaps: 0.82 %
Invariant sites: 1.21 %

Partition 143: VC83_06661T0
Model: LG+G4m+B
Alignment sites / patterns: 322 / 260
Gaps: 0.42 %
Invariant sites: 30.43 %

Partition 144: VC83_06665T0
Model: LG+G4m+B
Alignment sites / patterns: 321 / 318
Gaps: 1.08 %
Invariant sites: 3.74 %

Partition 145: VC83_06672T0
Model: LG+G4m+B
Alignment sites / patterns: 603 / 603
Gaps: 2.05 %
Invariant sites: 0.83 %

Partition 146: VC83_06694T0
Model: LG+G4m+B
Alignment sites / patterns: 1097 / 1075
Gaps: 0.43 %
Invariant sites: 3.65 %

Partition 147: VC83_06697T0
Model: LG+G4m+B
Alignment sites / patterns: 432 / 430
Gaps: 0.63 %
Invariant sites: 2.08 %

Partition 148: VC83_06701T0
Model: LG+G4m+B
Alignment sites / patterns: 246 / 244
Gaps: 1.23 %
Invariant sites: 3.25 %

Partition 149: VC83_06702T0
Model: LG+G4m+B
Alignment sites / patterns: 206 / 188
Gaps: 0.61 %
Invariant sites: 16.02 %

Partition 150: VC83_06708T0
Model: LG+G4m+B
Alignment sites / patterns: 306 / 300
Gaps: 0.82 %
Invariant sites: 8.82 %

Partition 151: VC83_00033T0
Model: LG+G4m+B
Alignment sites / patterns: 602 / 569
Gaps: 0.52 %
Invariant sites: 11.96 %

Partition 152: VC83_00332T0
Model: LG+G4m+B
Alignment sites / patterns: 602 / 507
Gaps: 0.44 %
Invariant sites: 19.27 %

Partition 153: VC83_00334T0
Model: LG+G4m+B
Alignment sites / patterns: 127 / 103
Gaps: 0.02 %
Invariant sites: 27.56 %

Partition 154: VC83_06751T0
Model: LG+G4m+B
Alignment sites / patterns: 608 / 563
Gaps: 0.28 %
Invariant sites: 11.51 %

Partition 155: VC83_06765T0
Model: LG+G4m+B
Alignment sites / patterns: 323 / 321
Gaps: 1.72 %
Invariant sites: 2.79 %

Partition 156: VC83_06776T0
Model: LG+G4m+B
Alignment sites / patterns: 446 / 428
Gaps: 0.95 %
Invariant sites: 7.85 %

Partition 157: VC83_06802T0
Model: LG+G4m+B
Alignment sites / patterns: 372 / 312
Gaps: 0.49 %
Invariant sites: 22.31 %

Partition 158: VC83_06812T0
Model: LG+G4m+B
Alignment sites / patterns: 593 / 587
Gaps: 1.60 %
Invariant sites: 6.75 %

Partition 159: VC83_06821T0
Model: LG+G4m+B
Alignment sites / patterns: 1084 / 985
Gaps: 0.52 %
Invariant sites: 13.01 %

Partition 160: VC83_06827T0
Model: LG+G4m+B
Alignment sites / patterns: 221 / 221
Gaps: 0.94 %
Invariant sites: 3.62 %

Partition 161: VC83_06828T0
Model: LG+G4m+B
Alignment sites / patterns: 784 / 681
Gaps: 1.05 %
Invariant sites: 19.26 %

Partition 162: VC83_06829T0
Model: LG+G4m+B
Alignment sites / patterns: 252 / 247
Gaps: 1.06 %
Invariant sites: 7.94 %

Partition 163: VC83_06833T0
Model: LG+G4m+B
Alignment sites / patterns: 244 / 239
Gaps: 1.42 %
Invariant sites: 6.15 %

Partition 164: VC83_06848T0
Model: LG+G4m+B
Alignment sites / patterns: 615 / 579
Gaps: 0.77 %
Invariant sites: 10.24 %

Partition 165: VC83_06868T0
Model: LG+G4m+B
Alignment sites / patterns: 458 / 428
Gaps: 0.82 %
Invariant sites: 13.54 %

Partition 166: VC83_06869T0
Model: LG+G4m+B
Alignment sites / patterns: 194 / 188
Gaps: 0.68 %
Invariant sites: 14.43 %

Partition 167: VC83_00678T0
Model: LG+G4m+B
Alignment sites / patterns: 409 / 392
Gaps: 0.73 %
Invariant sites: 8.31 %

Partition 168: VC83_00350T0
Model: LG+G4m+B
Alignment sites / patterns: 468 / 359
Gaps: 0.53 %
Invariant sites: 31.84 %

Partition 169: VC83_00698T0
Model: LG+G4m+B
Alignment sites / patterns: 466 / 431
Gaps: 1.24 %
Invariant sites: 19.31 %

Partition 170: VC83_00705T0
Model: LG+G4m+B
Alignment sites / patterns: 349 / 288
Gaps: 0.88 %
Invariant sites: 30.09 %

Partition 171: VC83_00757T0
Model: LG+G4m+B
Alignment sites / patterns: 162 / 157
Gaps: 1.06 %
Invariant sites: 14.20 %

Partition 172: VC83_00763T0
Model: LG+G4m+B
Alignment sites / patterns: 622 / 568
Gaps: 2.30 %
Invariant sites: 20.42 %

Partition 173: VC83_00823T0
Model: LG+G4m+B
Alignment sites / patterns: 517 / 497
Gaps: 1.83 %
Invariant sites: 10.06 %

Partition 174: VC83_00871T0
Model: LG+G4m+B
Alignment sites / patterns: 172 / 159
Gaps: 1.82 %
Invariant sites: 16.28 %

Partition 175: VC83_00888T0
Model: LG+G4m+B
Alignment sites / patterns: 419 / 417
Gaps: 3.68 %
Invariant sites: 2.39 %

Partition 176: VC83_00919T0
Model: LG+G4m+B
Alignment sites / patterns: 530 / 513
Gaps: 1.31 %
Invariant sites: 8.87 %

Partition 177: VC83_00943T0
Model: LG+G4m+B
Alignment sites / patterns: 529 / 520
Gaps: 1.84 %
Invariant sites: 6.05 %

Partition 178: VC83_00949T0
Model: LG+G4m+B
Alignment sites / patterns: 338 / 214
Gaps: 0.23 %
Invariant sites: 42.31 %

Partition 179: VC83_00952T0
Model: LG+G4m+B
Alignment sites / patterns: 118 / 55
Gaps: 0.17 %
Invariant sites: 68.64 %

Partition 180: VC83_00956T0
Model: LG+G4m+B
Alignment sites / patterns: 449 / 432
Gaps: 0.32 %
Invariant sites: 7.80 %

Partition 181: VC83_00958T0
Model: LG+G4m+B
Alignment sites / patterns: 699 / 693
Gaps: 1.39 %
Invariant sites: 3.29 %

Partition 182: VC83_00964T0
Model: LG+G4m+B
Alignment sites / patterns: 737 / 702
Gaps: 1.54 %
Invariant sites: 7.60 %

Partition 183: VC83_00972T0
Model: LG+G4m+B
Alignment sites / patterns: 355 / 329
Gaps: 0.34 %
Invariant sites: 13.80 %

Partition 184: VC83_00983T0
Model: LG+G4m+B
Alignment sites / patterns: 309 / 300
Gaps: 1.60 %
Invariant sites: 12.94 %

Partition 185: VC83_00986T0
Model: LG+G4m+B
Alignment sites / patterns: 983 / 948
Gaps: 0.91 %
Invariant sites: 10.58 %

Partition 186: VC83_01036T0
Model: LG+G4m+B
Alignment sites / patterns: 496 / 420
Gaps: 0.94 %
Invariant sites: 19.96 %

Partition 187: VC83_01038T0
Model: LG+G4m+B
Alignment sites / patterns: 776 / 740
Gaps: 0.66 %
Invariant sites: 7.09 %

Partition 188: VC83_01043T0
Model: LG+G4m+B
Alignment sites / patterns: 335 / 307
Gaps: 0.66 %
Invariant sites: 15.82 %

Partition 189: VC83_01053T0
Model: LG+G4m+B
Alignment sites / patterns: 315 / 303
Gaps: 0.99 %
Invariant sites: 11.43 %

Partition 190: VC83_01059T0
Model: LG+G4m+B
Alignment sites / patterns: 635 / 529
Gaps: 0.67 %
Invariant sites: 28.03 %

Partition 191: VC83_01070T0
Model: LG+G4m+B
Alignment sites / patterns: 344 / 296
Gaps: 0.62 %
Invariant sites: 22.38 %

Partition 192: VC83_01079T0
Model: LG+G4m+B
Alignment sites / patterns: 716 / 656
Gaps: 0.19 %
Invariant sites: 11.73 %

Partition 193: VC83_01080T0
Model: LG+G4m+B
Alignment sites / patterns: 379 / 366
Gaps: 1.10 %
Invariant sites: 8.97 %

Partition 194: VC83_01082T0
Model: LG+G4m+B
Alignment sites / patterns: 232 / 202
Gaps: 0.36 %
Invariant sites: 28.02 %

Partition 195: VC83_01176T0
Model: LG+G4m+B
Alignment sites / patterns: 1610 / 1582
Gaps: 1.23 %
Invariant sites: 3.98 %

Partition 196: VC83_01194T0
Model: LG+G4m+B
Alignment sites / patterns: 304 / 300
Gaps: 1.41 %
Invariant sites: 7.57 %

Partition 197: VC83_01219T0
Model: LG+G4m+B
Alignment sites / patterns: 687 / 606
Gaps: 0.69 %
Invariant sites: 15.87 %

Partition 198: VC83_01234T0
Model: LG+G4m+B
Alignment sites / patterns: 363 / 356
Gaps: 2.86 %
Invariant sites: 9.64 %

Partition 199: VC83_01258T0
Model: LG+G4m+B
Alignment sites / patterns: 614 / 469
Gaps: 0.75 %
Invariant sites: 30.62 %

Partition 200: VC83_01264T0
Model: LG+G4m+B
Alignment sites / patterns: 209 / 201
Gaps: 0.70 %
Invariant sites: 9.57 %

Partition 201: VC83_01293T0
Model: LG+G4m+B
Alignment sites / patterns: 727 / 690
Gaps: 0.68 %
Invariant sites: 8.80 %

Partition 202: VC83_01294T0
Model: LG+G4m+B
Alignment sites / patterns: 230 / 221
Gaps: 0.46 %
Invariant sites: 11.74 %

Partition 203: VC83_01295T0
Model: LG+G4m+B
Alignment sites / patterns: 354 / 339
Gaps: 1.10 %
Invariant sites: 11.02 %

Partition 204: VC83_01301T0
Model: LG+G4m+B
Alignment sites / patterns: 847 / 844
Gaps: 1.35 %
Invariant sites: 2.13 %

Partition 205: VC83_07352T0
Model: LG+G4m+B
Alignment sites / patterns: 1770 / 1734
Gaps: 0.76 %
Invariant sites: 3.67 %

Partition 206: VC83_07394T0
Model: LG+G4m+B
Alignment sites / patterns: 366 / 351
Gaps: 1.15 %
Invariant sites: 7.65 %

Partition 207: VC83_07402T0
Model: LG+G4m+B
Alignment sites / patterns: 394 / 375
Gaps: 0.87 %
Invariant sites: 7.11 %

Partition 208: VC83_07407T0
Model: LG+G4m+B
Alignment sites / patterns: 592 / 579
Gaps: 0.85 %
Invariant sites: 4.39 %

Partition 209: VC83_07422T0
Model: LG+G4m+B
Alignment sites / patterns: 226 / 209
Gaps: 0.58 %
Invariant sites: 17.70 %

Partition 210: VC83_07458T0
Model: LG+G4m+B
Alignment sites / patterns: 255 / 242
Gaps: 1.33 %
Invariant sites: 14.12 %

Partition 211: VC83_07459T0
Model: LG+G4m+B
Alignment sites / patterns: 557 / 539
Gaps: 1.05 %
Invariant sites: 5.75 %

Partition 212: VC83_07470T0
Model: LG+G4m+B
Alignment sites / patterns: 250 / 217
Gaps: 0.53 %
Invariant sites: 28.40 %

Partition 213: VC83_07483T0
Model: LG+G4m+B
Alignment sites / patterns: 255 / 253
Gaps: 0.84 %
Invariant sites: 6.67 %

Partition 214: VC83_07485T0
Model: LG+G4m+B
Alignment sites / patterns: 227 / 217
Gaps: 0.98 %
Invariant sites: 9.25 %

Partition 215: VC83_07505T0
Model: LG+G4m+B
Alignment sites / patterns: 403 / 392
Gaps: 0.87 %
Invariant sites: 6.95 %

Partition 216: VC83_07510T0
Model: LG+G4m+B
Alignment sites / patterns: 324 / 317
Gaps: 2.24 %
Invariant sites: 5.56 %

Partition 217: VC83_07912T0
Model: LG+G4m+B
Alignment sites / patterns: 397 / 372
Gaps: 0.74 %
Invariant sites: 13.10 %

Partition 218: VC83_07914T0
Model: LG+G4m+B
Alignment sites / patterns: 345 / 342
Gaps: 0.96 %
Invariant sites: 4.35 %

Partition 219: VC83_07930T0
Model: LG+G4m+B
Alignment sites / patterns: 240 / 230
Gaps: 0.80 %
Invariant sites: 14.58 %

Partition 220: VC83_07948T0
Model: LG+G4m+B
Alignment sites / patterns: 289 / 264
Gaps: 1.57 %
Invariant sites: 21.11 %

Partition 221: VC83_07975T0
Model: LG+G4m+B
Alignment sites / patterns: 507 / 444
Gaps: 0.59 %
Invariant sites: 18.15 %

Partition 222: VC83_00442T0
Model: LG+G4m+B
Alignment sites / patterns: 503 / 463
Gaps: 0.67 %
Invariant sites: 16.30 %

Partition 223: VC83_08010T0
Model: LG+G4m+B
Alignment sites / patterns: 433 / 428
Gaps: 0.90 %
Invariant sites: 5.77 %

Partition 224: VC83_08029T0
Model: LG+G4m+B
Alignment sites / patterns: 229 / 197
Gaps: 0.56 %
Invariant sites: 25.33 %

Partition 225: VC83_08056T0
Model: LG+G4m+B
Alignment sites / patterns: 227 / 218
Gaps: 1.01 %
Invariant sites: 8.37 %

Partition 226: VC83_08068T0
Model: LG+G4m+B
Alignment sites / patterns: 515 / 505
Gaps: 0.53 %
Invariant sites: 5.83 %

Partition 227: VC83_00449T0
Model: LG+G4m+B
Alignment sites / patterns: 1368 / 1356
Gaps: 2.00 %
Invariant sites: 2.34 %

Partition 228: VC83_00045T0
Model: LG+G4m+B
Alignment sites / patterns: 513 / 495
Gaps: 1.14 %
Invariant sites: 7.80 %

Partition 229: VC83_07737T0
Model: LG+G4m+B
Alignment sites / patterns: 549 / 466
Gaps: 1.15 %
Invariant sites: 22.95 %

Partition 230: VC83_07740T0
Model: LG+G4m+B
Alignment sites / patterns: 645 / 600
Gaps: 1.66 %
Invariant sites: 13.02 %

Partition 231: VC83_07741T0
Model: LG+G4m+B
Alignment sites / patterns: 628 / 585
Gaps: 1.42 %
Invariant sites: 13.54 %

Partition 232: VC83_00455T0
Model: LG+G4m+B
Alignment sites / patterns: 147 / 147
Gaps: 2.90 %
Invariant sites: 4.76 %

Partition 233: VC83_07775T0
Model: LG+G4m+B
Alignment sites / patterns: 1020 / 1009
Gaps: 1.71 %
Invariant sites: 2.84 %

Partition 234: VC83_07782T0
Model: LG+G4m+B
Alignment sites / patterns: 379 / 303
Gaps: 0.23 %
Invariant sites: 29.02 %

Partition 235: VC83_07787T0
Model: LG+G4m+B
Alignment sites / patterns: 234 / 232
Gaps: 2.59 %
Invariant sites: 8.97 %

Partition 236: VC83_07788T0
Model: LG+G4m+B
Alignment sites / patterns: 401 / 393
Gaps: 0.72 %
Invariant sites: 4.74 %

Partition 237: VC83_07798T0
Model: LG+G4m+B
Alignment sites / patterns: 167 / 164
Gaps: 1.40 %
Invariant sites: 7.78 %

Partition 238: VC83_07839T0
Model: LG+G4m+B
Alignment sites / patterns: 351 / 333
Gaps: 0.42 %
Invariant sites: 9.69 %

Partition 239: VC83_07841T0
Model: LG+G4m+B
Alignment sites / patterns: 778 / 744
Gaps: 0.48 %
Invariant sites: 7.58 %

Partition 240: VC83_07842T0
Model: LG+G4m+B
Alignment sites / patterns: 341 / 327
Gaps: 0.60 %
Invariant sites: 7.62 %

Partition 241: VC83_07845T0
Model: LG+G4m+B
Alignment sites / patterns: 987 / 955
Gaps: 0.90 %
Invariant sites: 6.59 %

Partition 242: VC83_07846T0
Model: LG+G4m+B
Alignment sites / patterns: 442 / 403
Gaps: 1.07 %
Invariant sites: 15.38 %

Partition 243: VC83_07847T0
Model: LG+G4m+B
Alignment sites / patterns: 171 / 156
Gaps: 0.37 %
Invariant sites: 21.05 %

Partition 244: VC83_07868T0
Model: LG+G4m+B
Alignment sites / patterns: 368 / 324
Gaps: 0.90 %
Invariant sites: 18.21 %

Partition 245: VC83_07872T0
Model: LG+G4m+B
Alignment sites / patterns: 384 / 360
Gaps: 0.72 %
Invariant sites: 10.16 %

Partition 246: VC83_07561T0
Model: LG+G4m+B
Alignment sites / patterns: 366 / 359
Gaps: 0.83 %
Invariant sites: 8.20 %

Partition 247: VC83_07604T0
Model: LG+G4m+B
Alignment sites / patterns: 392 / 384
Gaps: 2.26 %
Invariant sites: 10.20 %

Partition 248: VC83_07605T0
Model: LG+G4m+B
Alignment sites / patterns: 1684 / 1634
Gaps: 0.35 %
Invariant sites: 4.81 %

Partition 249: VC83_07612T0
Model: LG+G4m+B
Alignment sites / patterns: 593 / 582
Gaps: 1.76 %
Invariant sites: 4.89 %

Partition 250: VC83_07624T0
Model: LG+G4m+B
Alignment sites / patterns: 137 / 136
Gaps: 1.23 %
Invariant sites: 6.57 %

Partition 251: VC83_07625T0
Model: LG+G4m+B
Alignment sites / patterns: 666 / 662
Gaps: 1.98 %
Invariant sites: 2.85 %

Partition 252: VC83_00477T0
Model: LG+G4m+B
Alignment sites / patterns: 125 / 125
Gaps: 1.25 %
Invariant sites: 15.20 %

Partition 253: VC83_07635T0
Model: LG+G4m+B
Alignment sites / patterns: 626 / 509
Gaps: 0.39 %
Invariant sites: 25.56 %

Partition 254: VC83_07670T0
Model: LG+G4m+B
Alignment sites / patterns: 551 / 538
Gaps: 2.45 %
Invariant sites: 6.17 %

Partition 255: VC83_07679T0
Model: LG+G4m+B
Alignment sites / patterns: 557 / 323
Gaps: 0.29 %
Invariant sites: 51.89 %

Partition 256: VC83_07682T0
Model: LG+G4m+B
Alignment sites / patterns: 244 / 226
Gaps: 1.02 %
Invariant sites: 12.70 %

Partition 257: VC83_07683T0
Model: LG+G4m+B
Alignment sites / patterns: 394 / 380
Gaps: 0.55 %
Invariant sites: 7.11 %

Partition 258: VC83_07688T0
Model: LG+G4m+B
Alignment sites / patterns: 199 / 194
Gaps: 1.02 %
Invariant sites: 5.03 %

Partition 259: VC83_07696T0
Model: LG+G4m+B
Alignment sites / patterns: 457 / 386
Gaps: 0.80 %
Invariant sites: 21.66 %

Partition 260: VC83_07702T0
Model: LG+G4m+B
Alignment sites / patterns: 383 / 350
Gaps: 0.67 %
Invariant sites: 14.36 %

Partition 261: VC83_07713T0
Model: LG+G4m+B
Alignment sites / patterns: 631 / 585
Gaps: 0.49 %
Invariant sites: 13.00 %

Partition 262: VC83_07717T0
Model: LG+G4m+B
Alignment sites / patterns: 273 / 211
Gaps: 0.82 %
Invariant sites: 29.67 %

Partition 263: VC83_07720T0
Model: LG+G4m+B
Alignment sites / patterns: 1244 / 1056
Gaps: 0.29 %
Invariant sites: 19.13 %

Partition 264: VC83_08294T0
Model: LG+G4m+B
Alignment sites / patterns: 276 / 273
Gaps: 1.13 %
Invariant sites: 4.71 %

Partition 265: VC83_08319T0
Model: LG+G4m+B
Alignment sites / patterns: 577 / 551
Gaps: 1.75 %
Invariant sites: 12.82 %

Partition 266: VC83_00497T0
Model: LG+G4m+B
Alignment sites / patterns: 290 / 281
Gaps: 1.08 %
Invariant sites: 10.69 %

Partition 267: VC83_00498T0
Model: LG+G4m+B
Alignment sites / patterns: 117 / 114
Gaps: 2.26 %
Invariant sites: 20.51 %

Partition 268: VC83_08373T0
Model: LG+G4m+B
Alignment sites / patterns: 1059 / 1051
Gaps: 1.42 %
Invariant sites: 2.74 %

Partition 269: VC83_08391T0
Model: LG+G4m+B
Alignment sites / patterns: 1011 / 878
Gaps: 0.22 %
Invariant sites: 17.51 %

Partition 270: VC83_08111T0
Model: LG+G4m+B
Alignment sites / patterns: 469 / 465
Gaps: 1.21 %
Invariant sites: 4.05 %

Partition 271: VC83_08131T0
Model: LG+G4m+B
Alignment sites / patterns: 341 / 335
Gaps: 0.42 %
Invariant sites: 6.16 %

Partition 272: VC83_08134T0
Model: LG+G4m+B
Alignment sites / patterns: 437 / 426
Gaps: 0.80 %
Invariant sites: 5.03 %

Partition 273: VC83_08140T0
Model: LG+G4m+B
Alignment sites / patterns: 495 / 490
Gaps: 1.20 %
Invariant sites: 5.66 %

Partition 274: VC83_08154T0
Model: LG+G4m+B
Alignment sites / patterns: 744 / 696
Gaps: 1.65 %
Invariant sites: 10.48 %

Partition 275: VC83_08175T0
Model: LG+G4m+B
Alignment sites / patterns: 500 / 482
Gaps: 0.86 %
Invariant sites: 11.80 %

Partition 276: VC83_08176T0
Model: LG+G4m+B
Alignment sites / patterns: 333 / 326
Gaps: 0.69 %
Invariant sites: 9.61 %

Partition 277: VC83_08181T0
Model: LG+G4m+B
Alignment sites / patterns: 683 / 657
Gaps: 0.94 %
Invariant sites: 8.78 %

Partition 278: VC83_08188T0
Model: LG+G4m+B
Alignment sites / patterns: 541 / 472
Gaps: 0.83 %
Invariant sites: 20.33 %

Partition 279: VC83_08224T0
Model: LG+G4m+B
Alignment sites / patterns: 185 / 161
Gaps: 1.33 %
Invariant sites: 21.62 %

Partition 280: VC83_00514T0
Model: LG+G4m+B
Alignment sites / patterns: 487 / 478
Gaps: 0.91 %
Invariant sites: 6.37 %

Partition 281: VC83_08250T0
Model: LG+G4m+B
Alignment sites / patterns: 845 / 839
Gaps: 1.16 %
Invariant sites: 2.60 %

Partition 282: VC83_00516T0
Model: LG+G4m+B
Alignment sites / patterns: 320 / 304
Gaps: 0.22 %
Invariant sites: 9.38 %

Partition 283: VC83_08424T0
Model: LG+G4m+B
Alignment sites / patterns: 658 / 634
Gaps: 1.46 %
Invariant sites: 7.45 %

Partition 284: VC83_08439T0
Model: LG+G4m+B
Alignment sites / patterns: 425 / 424
Gaps: 0.92 %
Invariant sites: 3.53 %

Partition 285: VC83_08451T0
Model: LG+G4m+B
Alignment sites / patterns: 1351 / 1253
Gaps: 0.30 %
Invariant sites: 9.70 %

Partition 286: VC83_08712T0
Model: LG+G4m+B
Alignment sites / patterns: 277 / 266
Gaps: 0.67 %
Invariant sites: 11.55 %

Partition 287: VC83_08724T0
Model: LG+G4m+B
Alignment sites / patterns: 443 / 419
Gaps: 1.61 %
Invariant sites: 8.58 %

Partition 288: VC83_08738T0
Model: LG+G4m+B
Alignment sites / patterns: 1860 / 1817
Gaps: 1.04 %
Invariant sites: 3.66 %

Partition 289: VC83_08758T0
Model: LG+G4m+B
Alignment sites / patterns: 1027 / 999
Gaps: 1.10 %
Invariant sites: 6.23 %

Partition 290: VC83_08776T0
Model: LG+G4m+B
Alignment sites / patterns: 228 / 216
Gaps: 0.74 %
Invariant sites: 12.28 %

Partition 291: VC83_08786T0
Model: LG+G4m+B
Alignment sites / patterns: 1351 / 1268
Gaps: 0.53 %
Invariant sites: 9.77 %

Partition 292: VC83_00537T0
Model: LG+G4m+B
Alignment sites / patterns: 758 / 721
Gaps: 0.82 %
Invariant sites: 11.08 %

Partition 293: VC83_08535T0
Model: LG+G4m+B
Alignment sites / patterns: 290 / 285
Gaps: 1.80 %
Invariant sites: 10.00 %

Partition 294: VC83_08551T0
Model: LG+G4m+B
Alignment sites / patterns: 297 / 223
Gaps: 0.46 %
Invariant sites: 38.38 %

Partition 295: VC83_08553T0
Model: LG+G4m+B
Alignment sites / patterns: 808 / 800
Gaps: 1.60 %
Invariant sites: 2.10 %

Partition 296: VC83_08560T0
Model: LG+G4m+B
Alignment sites / patterns: 611 / 585
Gaps: 0.96 %
Invariant sites: 8.51 %

Partition 297: VC83_08583T0
Model: LG+G4m+B
Alignment sites / patterns: 282 / 275
Gaps: 0.41 %
Invariant sites: 8.51 %

Partition 298: VC83_08602T0
Model: LG+G4m+B
Alignment sites / patterns: 739 / 494
Gaps: 0.18 %
Invariant sites: 38.97 %

Partition 299: VC83_08604T0
Model: LG+G4m+B
Alignment sites / patterns: 649 / 589
Gaps: 0.78 %
Invariant sites: 12.33 %

Partition 300: VC83_08633T0
Model: LG+G4m+B
Alignment sites / patterns: 409 / 404
Gaps: 1.18 %
Invariant sites: 5.38 %

Partition 301: VC83_08638T0
Model: LG+G4m+B
Alignment sites / patterns: 333 / 322
Gaps: 0.77 %
Invariant sites: 11.71 %

Partition 302: VC83_08639T0
Model: LG+G4m+B
Alignment sites / patterns: 637 / 625
Gaps: 0.63 %
Invariant sites: 4.87 %

Partition 303: VC83_08641T0
Model: LG+G4m+B
Alignment sites / patterns: 371 / 349
Gaps: 1.55 %
Invariant sites: 9.43 %

Partition 304: VC83_08657T0
Model: LG+G4m+B
Alignment sites / patterns: 184 / 164
Gaps: 0.92 %
Invariant sites: 19.57 %

Partition 305: VC83_08671T0
Model: LG+G4m+B
Alignment sites / patterns: 655 / 597
Gaps: 0.81 %
Invariant sites: 13.44 %

Partition 306: VC83_08695T0
Model: LG+G4m+B
Alignment sites / patterns: 475 / 471
Gaps: 1.35 %
Invariant sites: 3.37 %

Partition 307: VC83_08697T0
Model: LG+G4m+B
Alignment sites / patterns: 193 / 179
Gaps: 0.57 %
Invariant sites: 15.54 %

Partition 308: VC83_01330T0
Model: LG+G4m+B
Alignment sites / patterns: 683 / 675
Gaps: 1.14 %
Invariant sites: 3.95 %

Partition 309: VC83_01339T0
Model: LG+G4m+B
Alignment sites / patterns: 382 / 376
Gaps: 0.33 %
Invariant sites: 8.38 %

Partition 310: VC83_01342T0
Model: LG+G4m+B
Alignment sites / patterns: 564 / 504
Gaps: 0.48 %
Invariant sites: 18.62 %

Partition 311: VC83_01343T0
Model: LG+G4m+B
Alignment sites / patterns: 256 / 223
Gaps: 0.29 %
Invariant sites: 21.09 %

Partition 312: VC83_01347T0
Model: LG+G4m+B
Alignment sites / patterns: 1626 / 1612
Gaps: 0.47 %
Invariant sites: 1.91 %

Partition 313: VC83_01354T0
Model: LG+G4m+B
Alignment sites / patterns: 883 / 852
Gaps: 1.77 %
Invariant sites: 7.59 %

Partition 314: VC83_01384T0
Model: LG+G4m+B
Alignment sites / patterns: 220 / 205
Gaps: 1.41 %
Invariant sites: 19.55 %

Partition 315: VC83_01392T0
Model: LG+G4m+B
Alignment sites / patterns: 515 / 462
Gaps: 0.94 %
Invariant sites: 17.28 %

Partition 316: VC83_01504T0
Model: LG+G4m+B
Alignment sites / patterns: 269 / 263
Gaps: 0.56 %
Invariant sites: 7.81 %

Partition 317: VC83_01534T0
Model: LG+G4m+B
Alignment sites / patterns: 425 / 413
Gaps: 1.91 %
Invariant sites: 6.59 %

Partition 318: VC83_01557T0
Model: LG+G4m+B
Alignment sites / patterns: 498 / 493
Gaps: 2.39 %
Invariant sites: 5.02 %

Partition 319: VC83_01563T0
Model: LG+G4m+B
Alignment sites / patterns: 1224 / 1188
Gaps: 0.97 %
Invariant sites: 5.88 %

Partition 320: VC83_01582T0
Model: LG+G4m+B
Alignment sites / patterns: 158 / 152
Gaps: 1.49 %
Invariant sites: 14.56 %

Partition 321: VC83_01601T0
Model: LG+G4m+B
Alignment sites / patterns: 1063 / 1020
Gaps: 0.12 %
Invariant sites: 5.64 %

Partition 322: VC83_00058T0
Model: LG+G4m+B
Alignment sites / patterns: 310 / 285
Gaps: 1.12 %
Invariant sites: 17.42 %

Partition 323: VC83_01656T0
Model: LG+G4m+B
Alignment sites / patterns: 340 / 319
Gaps: 1.75 %
Invariant sites: 15.00 %

Partition 324: VC83_01680T0
Model: LG+G4m+B
Alignment sites / patterns: 480 / 453
Gaps: 0.20 %
Invariant sites: 8.96 %

Partition 325: VC83_01684T0
Model: LG+G4m+B
Alignment sites / patterns: 551 / 547
Gaps: 2.08 %
Invariant sites: 3.63 %

Partition 326: VC83_01691T0
Model: LG+G4m+B
Alignment sites / patterns: 419 / 394
Gaps: 1.79 %
Invariant sites: 12.41 %

Partition 327: VC83_01726T0
Model: LG+G4m+B
Alignment sites / patterns: 455 / 371
Gaps: 0.71 %
Invariant sites: 26.81 %

Partition 328: VC83_01756T0
Model: LG+G4m+B
Alignment sites / patterns: 871 / 773
Gaps: 0.34 %
Invariant sites: 18.37 %

Partition 329: VC83_01760T0
Model: LG+G4m+B
Alignment sites / patterns: 210 / 188
Gaps: 0.18 %
Invariant sites: 19.52 %

Partition 330: VC83_01762T0
Model: LG+G4m+B
Alignment sites / patterns: 163 / 155
Gaps: 1.61 %
Invariant sites: 13.50 %

Partition 331: VC83_00602T0
Model: LG+G4m+B
Alignment sites / patterns: 197 / 193
Gaps: 0.80 %
Invariant sites: 4.57 %

Partition 332: VC83_01779T0
Model: LG+G4m+B
Alignment sites / patterns: 352 / 346
Gaps: 0.90 %
Invariant sites: 6.25 %

Partition 333: VC83_01781T0
Model: LG+G4m+B
Alignment sites / patterns: 762 / 741
Gaps: 1.35 %
Invariant sites: 7.87 %

Partition 334: VC83_01784T0
Model: LG+G4m+B
Alignment sites / patterns: 261 / 253
Gaps: 0.68 %
Invariant sites: 5.75 %

Partition 335: VC83_01785T0
Model: LG+G4m+B
Alignment sites / patterns: 284 / 278
Gaps: 1.09 %
Invariant sites: 6.34 %

Partition 336: VC83_01788T0
Model: LG+G4m+B
Alignment sites / patterns: 227 / 223
Gaps: 1.59 %
Invariant sites: 7.05 %

Partition 337: VC83_08881T0
Model: LG+G4m+B
Alignment sites / patterns: 206 / 191
Gaps: 0.61 %
Invariant sites: 15.05 %

Partition 338: VC83_08893T0
Model: LG+G4m+B
Alignment sites / patterns: 745 / 702
Gaps: 0.09 %
Invariant sites: 8.05 %

Partition 339: VC83_08913T0
Model: LG+G4m+B
Alignment sites / patterns: 197 / 163
Gaps: 1.45 %
Invariant sites: 32.99 %

Partition 340: VC83_08949T0
Model: LG+G4m+B
Alignment sites / patterns: 136 / 116
Gaps: 1.10 %
Invariant sites: 28.68 %

Partition 341: VC83_08954T0
Model: LG+G4m+B
Alignment sites / patterns: 188 / 176
Gaps: 1.93 %
Invariant sites: 21.28 %

Partition 342: VC83_08797T0
Model: LG+G4m+B
Alignment sites / patterns: 491 / 432
Gaps: 0.27 %
Invariant sites: 15.48 %

Partition 343: VC83_08799T0
Model: LG+G4m+B
Alignment sites / patterns: 367 / 353
Gaps: 0.77 %
Invariant sites: 7.90 %

Partition 344: VC83_08813T0
Model: LG+G4m+B
Alignment sites / patterns: 421 / 413
Gaps: 1.37 %
Invariant sites: 6.18 %

Partition 345: VC83_08819T0
Model: LG+G4m+B
Alignment sites / patterns: 437 / 420
Gaps: 0.14 %
Invariant sites: 8.92 %

Partition 346: VC83_08837T0
Model: LG+G4m+B
Alignment sites / patterns: 216 / 209
Gaps: 0.44 %
Invariant sites: 8.33 %

Partition 347: VC83_08857T0
Model: LG+G4m+B
Alignment sites / patterns: 851 / 825
Gaps: 0.78 %
Invariant sites: 7.40 %

Partition 348: VC83_09068T0
Model: LG+G4m+B
Alignment sites / patterns: 1755 / 1741
Gaps: 0.36 %
Invariant sites: 2.22 %

Partition 349: VC83_09189T0
Model: LG+G4m+B
Alignment sites / patterns: 319 / 301
Gaps: 0.88 %
Invariant sites: 11.60 %

Partition 350: VC83_09204T0
Model: LG+G4m+B
Alignment sites / patterns: 849 / 822
Gaps: 1.06 %
Invariant sites: 6.95 %

Partition 351: VC83_09207T0
Model: LG+G4m+B
Alignment sites / patterns: 260 / 219
Gaps: 0.66 %
Invariant sites: 21.54 %

Partition 352: VC83_09265T0
Model: LG+G4m+B
Alignment sites / patterns: 218 / 217
Gaps: 1.11 %
Invariant sites: 4.59 %

Partition 353: VC83_09015T0
Model: LG+G4m+B
Alignment sites / patterns: 679 / 639
Gaps: 1.25 %
Invariant sites: 9.87 %

Partition 354: VC83_09212T0
Model: LG+G4m+B
Alignment sites / patterns: 420 / 415
Gaps: 0.83 %
Invariant sites: 6.43 %

Partition 355: VC83_09224T0
Model: LG+G4m+B
Alignment sites / patterns: 565 / 550
Gaps: 0.67 %
Invariant sites: 5.49 %

Partition 356: VC83_09297T0
Model: LG+G4m+B
Alignment sites / patterns: 443 / 439
Gaps: 1.57 %
Invariant sites: 5.42 %

Partition 357: VC83_00649T0
Model: LG+G4m+B
Alignment sites / patterns: 752 / 744
Gaps: 1.66 %
Invariant sites: 2.79 %

Partition 358: VC83_01851T0
Model: LG+G4m+B
Alignment sites / patterns: 343 / 316
Gaps: 0.82 %
Invariant sites: 13.70 %

Partition 359: VC83_01857T0
Model: LG+G4m+B
Alignment sites / patterns: 431 / 377
Gaps: 0.44 %
Invariant sites: 18.79 %

Partition 360: VC83_01866T0
Model: LG+G4m+B
Alignment sites / patterns: 547 / 362
Gaps: 0.34 %
Invariant sites: 41.13 %

Partition 361: VC83_01875T0
Model: LG+G4m+B
Alignment sites / patterns: 330 / 319
Gaps: 1.64 %
Invariant sites: 8.18 %

Partition 362: VC83_01885T0
Model: LG+G4m+B
Alignment sites / patterns: 447 / 420
Gaps: 1.10 %
Invariant sites: 13.20 %

Partition 363: VC83_01888T0
Model: LG+G4m+B
Alignment sites / patterns: 645 / 540
Gaps: 0.55 %
Invariant sites: 28.06 %

Partition 364: VC83_01926T0
Model: LG+G4m+B
Alignment sites / patterns: 447 / 422
Gaps: 1.40 %
Invariant sites: 15.44 %

Partition 365: VC83_01935T0
Model: LG+G4m+B
Alignment sites / patterns: 440 / 419
Gaps: 0.94 %
Invariant sites: 13.64 %

Partition 366: VC83_01943T0
Model: LG+G4m+B
Alignment sites / patterns: 754 / 742
Gaps: 1.19 %
Invariant sites: 4.77 %

Partition 367: VC83_01945T0
Model: LG+G4m+B
Alignment sites / patterns: 390 / 378
Gaps: 1.41 %
Invariant sites: 12.56 %

Partition 368: VC83_01954T0
Model: LG+G4m+B
Alignment sites / patterns: 630 / 598
Gaps: 0.70 %
Invariant sites: 8.25 %

Partition 369: VC83_01985T0
Model: LG+G4m+B
Alignment sites / patterns: 273 / 244
Gaps: 0.53 %
Invariant sites: 22.71 %

Partition 370: VC83_02004T0
Model: LG+G4m+B
Alignment sites / patterns: 368 / 348
Gaps: 2.16 %
Invariant sites: 11.14 %

Partition 371: VC83_02014T0
Model: LG+G4m+B
Alignment sites / patterns: 150 / 132
Gaps: 0.33 %
Invariant sites: 20.67 %

Partition 372: VC83_02026T0
Model: LG+G4m+B
Alignment sites / patterns: 433 / 414
Gaps: 0.63 %
Invariant sites: 15.70 %

Partition 373: VC83_02033T0
Model: LG+G4m+B
Alignment sites / patterns: 443 / 412
Gaps: 1.05 %
Invariant sites: 14.45 %

Partition 374: VC83_02036T0
Model: LG+G4m+B
Alignment sites / patterns: 961 / 898
Gaps: 0.31 %
Invariant sites: 11.34 %

Partition 375: VC83_02040T0
Model: LG+G4m+B
Alignment sites / patterns: 671 / 656
Gaps: 1.29 %
Invariant sites: 4.92 %

Partition 376: VC83_02044T0
Model: LG+G4m+B
Alignment sites / patterns: 303 / 258
Gaps: 0.34 %
Invariant sites: 22.11 %

Partition 377: VC83_02088T0
Model: LG+G4m+B
Alignment sites / patterns: 980 / 942
Gaps: 0.59 %
Invariant sites: 7.24 %

Partition 378: VC83_02094T0
Model: LG+G4m+B
Alignment sites / patterns: 700 / 589
Gaps: 1.19 %
Invariant sites: 25.43 %

Partition 379: VC83_02098T0
Model: LG+G4m+B
Alignment sites / patterns: 282 / 270
Gaps: 1.56 %
Invariant sites: 17.38 %

Partition 380: VC83_02103T0
Model: LG+G4m+B
Alignment sites / patterns: 437 / 421
Gaps: 1.53 %
Invariant sites: 10.76 %

Partition 381: VC83_02110T0
Model: LG+G4m+B
Alignment sites / patterns: 379 / 360
Gaps: 0.56 %
Invariant sites: 10.03 %

Partition 382: VC83_02134T0
Model: LG+G4m+B
Alignment sites / patterns: 456 / 441
Gaps: 1.05 %
Invariant sites: 12.28 %

Partition 383: VC83_02153T0
Model: LG+G4m+B
Alignment sites / patterns: 1543 / 1535
Gaps: 0.46 %
Invariant sites: 1.10 %

Partition 384: VC83_02155T0
Model: LG+G4m+B
Alignment sites / patterns: 329 / 314
Gaps: 1.03 %
Invariant sites: 19.15 %

Partition 385: VC83_02157T0
Model: LG+G4m+B
Alignment sites / patterns: 228 / 211
Gaps: 0.64 %
Invariant sites: 14.91 %

Partition 386: VC83_02180T0
Model: LG+G4m+B
Alignment sites / patterns: 567 / 549
Gaps: 1.50 %
Invariant sites: 6.35 %

Partition 387: VC83_02189T0
Model: LG+G4m+B
Alignment sites / patterns: 398 / 369
Gaps: 0.71 %
Invariant sites: 13.57 %

Partition 388: VC83_02191T0
Model: LG+G4m+B
Alignment sites / patterns: 345 / 342
Gaps: 0.96 %
Invariant sites: 4.35 %

Partition 389: VC83_02214T0
Model: LG+G4m+B
Alignment sites / patterns: 390 / 376
Gaps: 1.06 %
Invariant sites: 12.56 %

Partition 390: VC83_02216T0
Model: LG+G4m+B
Alignment sites / patterns: 343 / 334
Gaps: 1.83 %
Invariant sites: 9.62 %

Partition 391: VC83_02224T0
Model: LG+G4m+B
Alignment sites / patterns: 616 / 602
Gaps: 0.17 %
Invariant sites: 4.55 %

Partition 392: VC83_02260T0
Model: LG+G4m+B
Alignment sites / patterns: 475 / 471
Gaps: 1.76 %
Invariant sites: 7.79 %

Partition 393: VC83_02263T0
Model: LG+G4m+B
Alignment sites / patterns: 189 / 133
Gaps: 0.97 %
Invariant sites: 48.15 %

Partition 394: VC83_09328T0
Model: LG+G4m+B
Alignment sites / patterns: 447 / 440
Gaps: 1.10 %
Invariant sites: 5.59 %

Partition 395: VC83_09330T0
Model: LG+G4m+B
Alignment sites / patterns: 401 / 382
Gaps: 0.70 %
Invariant sites: 8.98 %

Partition 396: VC83_09331T0
Model: LG+G4m+B
Alignment sites / patterns: 365 / 363
Gaps: 1.28 %
Invariant sites: 4.93 %

Partition 397: VC83_09338T0
Model: LG+G4m+B
Alignment sites / patterns: 255 / 252
Gaps: 1.95 %
Invariant sites: 9.02 %

Partition 398: VC83_09373T0
Model: LG+G4m+B
Alignment sites / patterns: 477 / 411
Gaps: 0.85 %
Invariant sites: 19.50 %

Partition 399: VC83_09388T0
Model: LG+G4m+B
Alignment sites / patterns: 147 / 108
Gaps: 0.91 %
Invariant sites: 43.54 %

Partition 400: VC83_09356T0
Model: LG+G4m+B
Alignment sites / patterns: 470 / 458
Gaps: 1.34 %
Invariant sites: 8.72 %

Partition 401: VC83_09442T0
Model: LG+G4m+B
Alignment sites / patterns: 581 / 574
Gaps: 0.59 %
Invariant sites: 4.30 %

Partition 402: VC83_02280T0
Model: LG+G4m+B
Alignment sites / patterns: 364 / 316
Gaps: 1.44 %
Invariant sites: 18.68 %

Partition 403: VC83_02289T0
Model: LG+G4m+B
Alignment sites / patterns: 195 / 161
Gaps: 0.47 %
Invariant sites: 29.74 %

Partition 404: VC83_02290T0
Model: LG+G4m+B
Alignment sites / patterns: 173 / 158
Gaps: 0.12 %
Invariant sites: 17.34 %

Partition 405: VC83_02331T0
Model: LG+G4m+B
Alignment sites / patterns: 261 / 244
Gaps: 1.07 %
Invariant sites: 15.33 %

Partition 406: VC83_02346T0
Model: LG+G4m+B
Alignment sites / patterns: 120 / 117
Gaps: 1.25 %
Invariant sites: 9.17 %

Partition 407: VC83_02354T0
Model: LG+G4m+B
Alignment sites / patterns: 443 / 407
Gaps: 0.71 %
Invariant sites: 17.38 %

Partition 408: VC83_02357T0
Model: LG+G4m+B
Alignment sites / patterns: 525 / 506
Gaps: 1.33 %
Invariant sites: 7.81 %

Partition 409: VC83_02374T0
Model: LG+G4m+B
Alignment sites / patterns: 655 / 636
Gaps: 2.08 %
Invariant sites: 8.09 %

Partition 410: VC83_02382T0
Model: LG+G4m+B
Alignment sites / patterns: 361 / 338
Gaps: 1.73 %
Invariant sites: 10.25 %

Partition 411: VC83_02393T0
Model: LG+G4m+B
Alignment sites / patterns: 908 / 713
Gaps: 0.13 %
Invariant sites: 25.88 %

Partition 412: VC83_02398T0
Model: LG+G4m+B
Alignment sites / patterns: 233 / 224
Gaps: 0.51 %
Invariant sites: 13.30 %

Partition 413: VC83_02407T0
Model: LG+G4m+B
Alignment sites / patterns: 321 / 252
Gaps: 0.29 %
Invariant sites: 31.78 %

Partition 414: VC83_02409T0
Model: LG+G4m+B
Alignment sites / patterns: 236 / 232
Gaps: 0.58 %
Invariant sites: 6.78 %

Partition 415: VC83_02426T0
Model: LG+G4m+B
Alignment sites / patterns: 451 / 448
Gaps: 1.87 %
Invariant sites: 4.88 %

Partition 416: VC83_02439T0
Model: LG+G4m+B
Alignment sites / patterns: 485 / 281
Gaps: 0.22 %
Invariant sites: 50.10 %

Partition 417: VC83_06109T0
Model: LG+G4m+B
Alignment sites / patterns: 993 / 933
Gaps: 0.44 %
Invariant sites: 9.57 %

Partition 418: VC83_02482T0
Model: LG+G4m+B
Alignment sites / patterns: 480 / 388
Gaps: 0.49 %
Invariant sites: 24.58 %

Partition 419: VC83_02502T0
Model: LG+G4m+B
Alignment sites / patterns: 559 / 523
Gaps: 2.69 %
Invariant sites: 14.85 %

Partition 420: VC83_02515T0
Model: LG+G4m+B
Alignment sites / patterns: 613 / 555
Gaps: 0.63 %
Invariant sites: 13.70 %

Partition 421: VC83_02550T0
Model: LG+G4m+B
Alignment sites / patterns: 468 / 359
Gaps: 0.53 %
Invariant sites: 31.84 %

Partition 422: VC83_02556T0
Model: LG+G4m+B
Alignment sites / patterns: 269 / 239
Gaps: 0.36 %
Invariant sites: 18.22 %

Partition 423: VC83_02597T0
Model: LG+G4m+B
Alignment sites / patterns: 385 / 362
Gaps: 0.74 %
Invariant sites: 12.99 %

Partition 424: VC83_02599T0
Model: LG+G4m+B
Alignment sites / patterns: 794 / 751
Gaps: 1.16 %
Invariant sites: 10.96 %

Partition 425: VC83_02640T0
Model: LG+G4m+B
Alignment sites / patterns: 464 / 355
Gaps: 0.38 %
Invariant sites: 28.23 %

Partition 426: VC83_02652T0
Model: LG+G4m+B
Alignment sites / patterns: 405 / 369
Gaps: 1.28 %
Invariant sites: 13.58 %

Partition 427: VC83_02663T0
Model: LG+G4m+B
Alignment sites / patterns: 670 / 556
Gaps: 0.13 %
Invariant sites: 21.19 %

Partition 428: VC83_02668T0
Model: LG+G4m+B
Alignment sites / patterns: 309 / 216
Gaps: 0.53 %
Invariant sites: 42.07 %

Partition 429: VC83_02712T0
Model: LG+G4m+B
Alignment sites / patterns: 612 / 576
Gaps: 0.53 %
Invariant sites: 8.82 %

Partition 430: VC83_02718T0
Model: LG+G4m+B
Alignment sites / patterns: 123 / 103
Gaps: 0.09 %
Invariant sites: 23.58 %

Partition 431: VC83_02743T0
Model: LG+G4m+B
Alignment sites / patterns: 299 / 280
Gaps: 1.17 %
Invariant sites: 15.72 %

Partition 432: VC83_00075T0
Model: LG+G4m+B
Alignment sites / patterns: 1277 / 1253
Gaps: 1.25 %
Invariant sites: 5.64 %

Partition 433: VC83_09490T0
Model: LG+G4m+B
Alignment sites / patterns: 1004 / 955
Gaps: 0.29 %
Invariant sites: 7.27 %

Partition 434: VC83_03231T0
Model: LG+G4m+B
Alignment sites / patterns: 454 / 434
Gaps: 0.49 %
Invariant sites: 9.91 %

Partition 435: VC83_03250T0
Model: LG+G4m+B
Alignment sites / patterns: 221 / 210
Gaps: 0.76 %
Invariant sites: 19.46 %

Partition 436: VC83_00076T0
Model: LG+G4m+B
Alignment sites / patterns: 486 / 475
Gaps: 2.21 %
Invariant sites: 6.79 %

Partition 437: VC83_03273T0
Model: LG+G4m+B
Alignment sites / patterns: 535 / 411
Gaps: 1.36 %
Invariant sites: 29.53 %

Partition 438: VC83_03274T0
Model: LG+G4m+B
Alignment sites / patterns: 367 / 359
Gaps: 0.85 %
Invariant sites: 6.54 %

Partition 439: VC83_03332T0
Model: LG+G4m+B
Alignment sites / patterns: 715 / 707
Gaps: 1.99 %
Invariant sites: 4.34 %

Partition 440: VC83_03342T0
Model: LG+G4m+B
Alignment sites / patterns: 516 / 493
Gaps: 0.93 %
Invariant sites: 8.72 %

Partition 441: VC83_03366T0
Model: LG+G4m+B
Alignment sites / patterns: 626 / 588
Gaps: 0.40 %
Invariant sites: 8.95 %

Partition 442: VC83_06158T0
Model: LG+G4m+B
Alignment sites / patterns: 256 / 201
Gaps: 0.42 %
Invariant sites: 30.08 %

Partition 443: VC83_03405T0
Model: LG+G4m+B
Alignment sites / patterns: 251 / 185
Gaps: 0.81 %
Invariant sites: 54.98 %

Partition 444: VC83_03412T0
Model: LG+G4m+B
Alignment sites / patterns: 314 / 306
Gaps: 0.70 %
Invariant sites: 8.60 %

Partition 445: VC83_03413T0
Model: LG+G4m+B
Alignment sites / patterns: 816 / 799
Gaps: 0.83 %
Invariant sites: 4.17 %

Partition 446: VC83_03415T0
Model: LG+G4m+B
Alignment sites / patterns: 487 / 474
Gaps: 0.83 %
Invariant sites: 6.16 %

Partition 447: VC83_03433T0
Model: LG+G4m+B
Alignment sites / patterns: 224 / 218
Gaps: 0.68 %
Invariant sites: 8.48 %

Partition 448: VC83_03442T0
Model: LG+G4m+B
Alignment sites / patterns: 325 / 322
Gaps: 1.71 %
Invariant sites: 3.69 %

Partition 449: VC83_06168T0
Model: LG+G4m+B
Alignment sites / patterns: 193 / 192
Gaps: 2.07 %
Invariant sites: 5.70 %

Partition 450: VC83_03567T0
Model: LG+G4m+B
Alignment sites / patterns: 148 / 145
Gaps: 0.71 %
Invariant sites: 10.14 %

Partition 451: VC83_03578T0
Model: LG+G4m+B
Alignment sites / patterns: 388 / 375
Gaps: 1.14 %
Invariant sites: 12.89 %

Partition 452: VC83_03612T0
Model: LG+G4m+B
Alignment sites / patterns: 622 / 542
Gaps: 0.50 %
Invariant sites: 18.97 %

Partition 453: VC83_03617T0
Model: LG+G4m+B
Alignment sites / patterns: 583 / 556
Gaps: 0.70 %
Invariant sites: 8.23 %

Partition 454: VC83_03621T0
Model: LG+G4m+B
Alignment sites / patterns: 1082 / 1069
Gaps: 1.81 %
Invariant sites: 3.51 %

Partition 455: VC83_03622T0
Model: LG+G4m+B
Alignment sites / patterns: 158 / 133
Gaps: 0.40 %
Invariant sites: 39.24 %

Partition 456: VC83_06181T0
Model: LG+G4m+B
Alignment sites / patterns: 323 / 320
Gaps: 0.57 %
Invariant sites: 6.81 %

Partition 457: VC83_03630T0
Model: LG+G4m+B
Alignment sites / patterns: 275 / 264
Gaps: 0.34 %
Invariant sites: 14.18 %

Partition 458: VC83_03641T0
Model: LG+G4m+B
Alignment sites / patterns: 494 / 478
Gaps: 0.83 %
Invariant sites: 9.11 %

Partition 459: VC83_09518T0
Model: LG+G4m+B
Alignment sites / patterns: 370 / 353
Gaps: 0.66 %
Invariant sites: 11.35 %

Partition 460: VC83_09534T0
Model: LG+G4m+B
Alignment sites / patterns: 631 / 599
Gaps: 0.69 %
Invariant sites: 8.40 %

Partition 461: VC83_02781T0
Model: LG+G4m+B
Alignment sites / patterns: 1003 / 945
Gaps: 0.50 %
Invariant sites: 8.08 %

Partition 462: VC83_02816T0
Model: LG+G4m+B
Alignment sites / patterns: 745 / 724
Gaps: 0.65 %
Invariant sites: 7.52 %

Partition 463: VC83_06194T0
Model: LG+G4m+B
Alignment sites / patterns: 587 / 561
Gaps: 0.33 %
Invariant sites: 8.35 %

Partition 464: VC83_00081T0
Model: LG+G4m+B
Alignment sites / patterns: 247 / 229
Gaps: 1.22 %
Invariant sites: 15.79 %

Partition 465: VC83_02889T0
Model: LG+G4m+B
Alignment sites / patterns: 569 / 539
Gaps: 1.40 %
Invariant sites: 13.01 %

Partition 466: VC83_02894T0
Model: LG+G4m+B
Alignment sites / patterns: 522 / 424
Gaps: 0.50 %
Invariant sites: 25.48 %

Partition 467: VC83_02895T0
Model: LG+G4m+B
Alignment sites / patterns: 518 / 501
Gaps: 0.64 %
Invariant sites: 7.34 %

Partition 468: VC83_02901T0
Model: LG+G4m+B
Alignment sites / patterns: 471 / 454
Gaps: 1.07 %
Invariant sites: 11.25 %

Partition 469: VC83_02910T0
Model: LG+G4m+B
Alignment sites / patterns: 450 / 443
Gaps: 0.63 %
Invariant sites: 5.11 %

Partition 470: VC83_06205T0
Model: LG+G4m+B
Alignment sites / patterns: 285 / 279
Gaps: 0.67 %
Invariant sites: 6.67 %

Partition 471: VC83_02941T0
Model: LG+G4m+B
Alignment sites / patterns: 795 / 666
Gaps: 0.45 %
Invariant sites: 21.64 %

Partition 472: VC83_02973T0
Model: LG+G4m+B
Alignment sites / patterns: 329 / 274
Gaps: 0.60 %
Invariant sites: 24.01 %

Partition 473: VC83_02995T0
Model: LG+G4m+B
Alignment sites / patterns: 1719 / 1716
Gaps: 0.63 %
Invariant sites: 0.99 %

Partition 474: VC83_03001T0
Model: LG+G4m+B
Alignment sites / patterns: 789 / 760
Gaps: 2.57 %
Invariant sites: 9.00 %

Partition 475: VC83_03004T0
Model: LG+G4m+B
Alignment sites / patterns: 358 / 346
Gaps: 1.50 %
Invariant sites: 6.70 %

Partition 476: VC83_03013T0
Model: LG+G4m+B
Alignment sites / patterns: 221 / 215
Gaps: 1.66 %
Invariant sites: 9.95 %

Partition 477: VC83_03014T0
Model: LG+G4m+B
Alignment sites / patterns: 283 / 279
Gaps: 0.97 %
Invariant sites: 9.89 %

Partition 478: VC83_03021T0
Model: LG+G4m+B
Alignment sites / patterns: 912 / 899
Gaps: 1.28 %
Invariant sites: 3.29 %

Partition 479: VC83_03094T0
Model: LG+G4m+B
Alignment sites / patterns: 502 / 500
Gaps: 1.76 %
Invariant sites: 2.79 %

Partition 480: VC83_06222T0
Model: LG+G4m+B
Alignment sites / patterns: 184 / 170
Gaps: 1.13 %
Invariant sites: 19.57 %

Partition 481: VC83_03113T0
Model: LG+G4m+B
Alignment sites / patterns: 286 / 285
Gaps: 0.88 %
Invariant sites: 3.85 %

Partition 482: VC83_03116T0
Model: LG+G4m+B
Alignment sites / patterns: 491 / 349
Gaps: 0.37 %
Invariant sites: 36.05 %

Partition 483: VC83_06225T0
Model: LG+G4m+B
Alignment sites / patterns: 640 / 498
Gaps: 0.35 %
Invariant sites: 29.69 %

Partition 484: VC83_03126T0
Model: LG+G4m+B
Alignment sites / patterns: 565 / 551
Gaps: 0.67 %
Invariant sites: 6.02 %

Partition 485: VC83_06227T0
Model: LG+G4m+B
Alignment sites / patterns: 539 / 426
Gaps: 0.56 %
Invariant sites: 29.68 %

Partition 486: VC83_03181T0
Model: LG+G4m+B
Alignment sites / patterns: 299 / 230
Gaps: 0.39 %
Invariant sites: 33.78 %

Partition 487: VC83_06236T0
Model: LG+G4m+B
Alignment sites / patterns: 504 / 503
Gaps: 1.26 %
Invariant sites: 1.39 %

Partition 488: VC83_03681T0
Model: LG+G4m+B
Alignment sites / patterns: 335 / 305
Gaps: 0.55 %
Invariant sites: 17.61 %

Partition 489: VC83_03687T0
Model: LG+G4m+B
Alignment sites / patterns: 189 / 177
Gaps: 1.03 %
Invariant sites: 11.64 %

Partition 490: VC83_03699T0
Model: LG+G4m+B
Alignment sites / patterns: 187 / 178
Gaps: 1.62 %
Invariant sites: 11.76 %

Partition 491: VC83_03724T0
Model: LG+G4m+B
Alignment sites / patterns: 297 / 294
Gaps: 0.48 %
Invariant sites: 5.39 %

Partition 492: VC83_03745T0
Model: LG+G4m+B
Alignment sites / patterns: 178 / 174
Gaps: 2.23 %
Invariant sites: 5.62 %

Partition 493: VC83_00086T0
Model: LG+G4m+B
Alignment sites / patterns: 827 / 811
Gaps: 1.55 %
Invariant sites: 5.56 %

Partition 494: VC83_06247T0
Model: LG+G4m+B
Alignment sites / patterns: 368 / 366
Gaps: 1.12 %
Invariant sites: 4.62 %

Partition 495: VC83_03782T0
Model: LG+G4m+B
Alignment sites / patterns: 145 / 143
Gaps: 0.52 %
Invariant sites: 10.34 %

Partition 496: VC83_03786T0
Model: LG+G4m+B
Alignment sites / patterns: 537 / 503
Gaps: 1.07 %
Invariant sites: 10.80 %

Partition 497: VC83_03787T0
Model: LG+G4m+B
Alignment sites / patterns: 220 / 209
Gaps: 1.95 %
Invariant sites: 15.00 %

Partition 498: VC83_03791T0
Model: LG+G4m+B
Alignment sites / patterns: 432 / 377
Gaps: 0.83 %
Invariant sites: 20.60 %

Partition 499: VC83_03794T0
Model: LG+G4m+B
Alignment sites / patterns: 238 / 220
Gaps: 1.06 %
Invariant sites: 13.45 %

Partition 500: VC83_03795T0
Model: LG+G4m+B
Alignment sites / patterns: 215 / 209
Gaps: 0.49 %
Invariant sites: 13.02 %

Partition 501: VC83_03835T0
Model: LG+G4m+B
Alignment sites / patterns: 920 / 904
Gaps: 1.06 %
Invariant sites: 4.46 %

Partition 502: VC83_03851T0
Model: LG+G4m+B
Alignment sites / patterns: 276 / 251
Gaps: 0.51 %
Invariant sites: 16.67 %

Partition 503: VC83_03862T0
Model: LG+G4m+B
Alignment sites / patterns: 340 / 328
Gaps: 1.29 %
Invariant sites: 10.00 %

Partition 504: VC83_03881T0
Model: LG+G4m+B
Alignment sites / patterns: 383 / 376
Gaps: 1.23 %
Invariant sites: 6.53 %

Partition 505: VC83_03889T0
Model: LG+G4m+B
Alignment sites / patterns: 259 / 245
Gaps: 0.57 %
Invariant sites: 11.58 %

Partition 506: VC83_03890T0
Model: LG+G4m+B
Alignment sites / patterns: 1010 / 971
Gaps: 0.44 %
Invariant sites: 7.13 %

Partition 507: VC83_03895T0
Model: LG+G4m+B
Alignment sites / patterns: 269 / 266
Gaps: 1.27 %
Invariant sites: 6.32 %

Partition 508: VC83_03955T0
Model: LG+G4m+B
Alignment sites / patterns: 449 / 420
Gaps: 1.32 %
Invariant sites: 15.37 %

Partition 509: VC83_03964T0
Model: LG+G4m+B
Alignment sites / patterns: 192 / 182
Gaps: 0.68 %
Invariant sites: 15.62 %

Partition 510: VC83_03975T0
Model: LG+G4m+B
Alignment sites / patterns: 764 / 509
Gaps: 0.13 %
Invariant sites: 40.84 %

Partition 511: VC83_04017T0
Model: LG+G4m+B
Alignment sites / patterns: 264 / 250
Gaps: 0.47 %
Invariant sites: 9.47 %

Partition 512: VC83_04018T0
Model: LG+G4m+B
Alignment sites / patterns: 439 / 422
Gaps: 0.63 %
Invariant sites: 12.98 %

Partition 513: VC83_04034T0
Model: LG+G4m+B
Alignment sites / patterns: 339 / 312
Gaps: 0.82 %
Invariant sites: 18.29 %

Partition 514: VC83_04120T0
Model: LG+G4m+B
Alignment sites / patterns: 722 / 663
Gaps: 1.56 %
Invariant sites: 13.71 %

Partition 515: VC83_04123T0
Model: LG+G4m+B
Alignment sites / patterns: 471 / 243
Gaps: 0.40 %
Invariant sites: 64.33 %

Partition 516: VC83_04148T0
Model: LG+G4m+B
Alignment sites / patterns: 310 / 302
Gaps: 1.60 %
Invariant sites: 6.13 %

Partition 517: VC83_04154T0
Model: LG+G4m+B
Alignment sites / patterns: 510 / 493
Gaps: 3.06 %
Invariant sites: 8.04 %

Partition 518: VC83_04155T0
Model: LG+G4m+B
Alignment sites / patterns: 240 / 216
Gaps: 0.25 %
Invariant sites: 16.25 %

Partition 519: VC83_04196T0
Model: LG+G4m+B
Alignment sites / patterns: 655 / 639
Gaps: 1.15 %
Invariant sites: 5.50 %

Partition 520: VC83_04204T0
Model: LG+G4m+B
Alignment sites / patterns: 557 / 472
Gaps: 0.41 %
Invariant sites: 21.36 %

Partition 521: VC83_04227T0
Model: LG+G4m+B
Alignment sites / patterns: 249 / 222
Gaps: 0.36 %
Invariant sites: 32.13 %

Partition 522: VC83_04233T0
Model: LG+G4m+B
Alignment sites / patterns: 484 / 449
Gaps: 0.53 %
Invariant sites: 11.36 %

Partition 523: VC83_04259T0
Model: LG+G4m+B
Alignment sites / patterns: 338 / 321
Gaps: 0.59 %
Invariant sites: 10.36 %

Partition 524: VC83_04260T0
Model: LG+G4m+B
Alignment sites / patterns: 195 / 190
Gaps: 1.25 %
Invariant sites: 9.23 %

Partition 525: VC83_04266T0
Model: LG+G4m+B
Alignment sites / patterns: 490 / 447
Gaps: 0.89 %
Invariant sites: 13.06 %

Partition 526: VC83_04278T0
Model: LG+G4m+B
Alignment sites / patterns: 316 / 315
Gaps: 1.10 %
Invariant sites: 1.90 %

Partition 527: VC83_04291T0
Model: LG+G4m+B
Alignment sites / patterns: 400 / 383
Gaps: 0.34 %
Invariant sites: 9.00 %

Partition 528: VC83_04300T0
Model: LG+G4m+B
Alignment sites / patterns: 418 / 416
Gaps: 2.16 %
Invariant sites: 3.83 %

Partition 529: VC83_04301T0
Model: LG+G4m+B
Alignment sites / patterns: 400 / 391
Gaps: 1.07 %
Invariant sites: 8.00 %

Partition 530: VC83_06301T0
Model: LG+G4m+B
Alignment sites / patterns: 705 / 678
Gaps: 1.11 %
Invariant sites: 7.80 %

Partition 531: VC83_04353T0
Model: LG+G4m+B
Alignment sites / patterns: 272 / 250
Gaps: 0.53 %
Invariant sites: 17.28 %

Partition 532: VC83_04360T0
Model: LG+G4m+B
Alignment sites / patterns: 412 / 380
Gaps: 0.23 %
Invariant sites: 11.17 %

Partition 533: VC83_04362T0
Model: LG+G4m+B
Alignment sites / patterns: 807 / 753
Gaps: 0.29 %
Invariant sites: 10.16 %

Partition 534: VC83_04372T0
Model: LG+G4m+B
Alignment sites / patterns: 445 / 438
Gaps: 0.74 %
Invariant sites: 3.37 %

Partition 535: VC83_04373T0
Model: LG+G4m+B
Alignment sites / patterns: 361 / 328
Gaps: 0.93 %
Invariant sites: 17.45 %

Partition 536: VC83_04406T0
Model: LG+G4m+B
Alignment sites / patterns: 449 / 430
Gaps: 1.36 %
Invariant sites: 6.90 %

Partition 537: VC83_04431T0
Model: LG+G4m+B
Alignment sites / patterns: 362 / 341
Gaps: 0.82 %
Invariant sites: 10.50 %

Partition 538: VC83_04437T0
Model: LG+G4m+B
Alignment sites / patterns: 442 / 408
Gaps: 0.69 %
Invariant sites: 11.99 %

Partition 539: VC83_04439T0
Model: LG+G4m+B
Alignment sites / patterns: 346 / 340
Gaps: 0.63 %
Invariant sites: 5.78 %

Partition 540: VC83_06315T0
Model: LG+G4m+B
Alignment sites / patterns: 605 / 510
Gaps: 0.44 %
Invariant sites: 22.81 %

Partition 541: VC83_04452T0
Model: LG+G4m+B
Alignment sites / patterns: 444 / 400
Gaps: 0.50 %
Invariant sites: 16.22 %

Partition 542: VC83_04454T0
Model: LG+G4m+B
Alignment sites / patterns: 945 / 865
Gaps: 0.33 %
Invariant sites: 12.49 %

Partition 543: VC83_04462T0
Model: LG+G4m+B
Alignment sites / patterns: 313 / 296
Gaps: 0.33 %
Invariant sites: 10.22 %

Partition 544: VC83_04465T0
Model: LG+G4m+B
Alignment sites / patterns: 1359 / 1355
Gaps: 2.19 %
Invariant sites: 1.47 %

Partition 545: VC83_04472T0
Model: LG+G4m+B
Alignment sites / patterns: 258 / 248
Gaps: 0.98 %
Invariant sites: 20.54 %

Partition 546: VC83_00093T0
Model: LG+G4m+B
Alignment sites / patterns: 266 / 261
Gaps: 0.61 %
Invariant sites: 5.64 %

Partition 547: VC83_04484T0
Model: LG+G4m+B
Alignment sites / patterns: 437 / 417
Gaps: 1.68 %
Invariant sites: 12.81 %

Partition 548: VC83_04485T0
Model: LG+G4m+B
Alignment sites / patterns: 326 / 318
Gaps: 1.16 %
Invariant sites: 9.20 %

Partition 549: VC83_04500T0
Model: LG+G4m+B
Alignment sites / patterns: 332 / 288
Gaps: 0.44 %
Invariant sites: 23.19 %

Partition 550: VC83_04507T0
Model: LG+G4m+B
Alignment sites / patterns: 270 / 267
Gaps: 1.97 %
Invariant sites: 4.81 %

Partition 551: VC83_06326T0
Model: LG+G4m+B
Alignment sites / patterns: 597 / 557
Gaps: 0.40 %
Invariant sites: 9.38 %

Partition 552: VC83_06329T0
Model: LG+G4m+B
Alignment sites / patterns: 315 / 297
Gaps: 1.53 %
Invariant sites: 10.48 %

Partition 553: VC83_00096T0
Model: LG+G4m+B
Alignment sites / patterns: 422 / 394
Gaps: 1.31 %
Invariant sites: 11.85 %

Partition 554: VC83_04887T0
Model: LG+G4m+B
Alignment sites / patterns: 297 / 294
Gaps: 1.16 %
Invariant sites: 5.05 %

Partition 555: VC83_04889T0
Model: LG+G4m+B
Alignment sites / patterns: 378 / 366
Gaps: 1.38 %
Invariant sites: 6.35 %


Parallelization scheme autoconfig: 1 worker(s) x 32 thread(s)

Parallel reduction/worker buffer size: 278 KB  / 0 KB

[00:00:01] Data distribution: max. partitions/sites/weight per thread: 19 / 8123 / 649840
[00:00:01] Data distribution: max. searches per worker: 1
[00:00:01] Starting bootstrapping analysis with 1 replicates.

[00:00:17 -92817464.726830] Initial branch length optimization
[00:01:29 -81148662.777983] Model parameter optimization (eps = 10.000000)
[00:06:15 -80713206.551619] AUTODETECT spr round 1 (radius: 5)
[00:15:27 -53264071.018467] AUTODETECT spr round 2 (radius: 10)
[00:28:54 -39911831.186909] AUTODETECT spr round 3 (radius: 15)
[00:44:50 -37625610.840588] AUTODETECT spr round 4 (radius: 20)
[01:07:26 -37590698.963268] AUTODETECT spr round 5 (radius: 25)
[01:29:59 -37590650.047348] SPR radius for FAST iterations: 25 (autodetect)
[01:29:59 -37590650.047348] Model parameter optimization (eps = 3.000000)
[01:33:44 -37523078.776240] FAST spr round 1 (radius: 25)
[01:50:33 -33241908.914503] FAST spr round 2 (radius: 25)
[02:07:07 -33103968.539858] FAST spr round 3 (radius: 25)
[02:18:43 -33097407.354854] FAST spr round 4 (radius: 25)
[02:29:00 -33096689.520598] FAST spr round 5 (radius: 25)
[02:38:35 -33096286.604910] FAST spr round 6 (radius: 25)
[02:48:57 -33095985.683735] FAST spr round 7 (radius: 25)
[02:58:33 -33095409.863295] FAST spr round 8 (radius: 25)
[03:08:10 -33095114.457976] FAST spr round 9 (radius: 25)
[03:17:30 -33094898.136452] FAST spr round 10 (radius: 25)
[03:26:48 -33094846.612235] FAST spr round 11 (radius: 25)
[03:36:16 -33094846.605128] Model parameter optimization (eps = 1.000000)
[03:37:40 -33093722.452559] SLOW spr round 1 (radius: 5)
[04:00:45 -33091450.149729] SLOW spr round 2 (radius: 5)
[04:21:48 -33091423.438644] SLOW spr round 3 (radius: 5)
[04:42:00 -33091423.427315] SLOW spr round 4 (radius: 10)
[05:04:07 -33091423.424718] SLOW spr round 5 (radius: 15)
[05:53:03 -33091423.422789] SLOW spr round 6 (radius: 20)
[06:52:36 -33091423.421898] SLOW spr round 7 (radius: 25)
[07:50:45 -33091423.421335] Model parameter optimization (eps = 0.100000)

[07:51:33] Bootstrap tree #1, logLikelihood: -33091415.667375


Bootstrap trees saved to: /home/dutheil/Data/WhiteNoseSyndrome/Phylogenomics/Bootstrap/SuperAlignment.fasta.raxml.bootstrap156.raxml.bootstraps

Execution log saved to: /home/dutheil/Data/WhiteNoseSyndrome/Phylogenomics/Bootstrap/SuperAlignment.fasta.raxml.bootstrap156.raxml.log

Analysis started: 21-Oct-2020 02:44:16 / finished: 21-Oct-2020 10:35:50

Elapsed time: 28294.114 seconds

Consumed energy: 2241.808 Wh (= 11 km in an electric car, or 56 km with an e-scooter!)

