Site	ColumnScore	SumOfPairsScore
1	1	0
2	1	0
3	1	0
4	1	0
5	1	0
6	1	0
7	1	0
8	1	0
9	1	0
10	1	0
11	1	0
12	1	0
13	1	0
14	1	0
15	1	0
16	1	0
17	1	0
18	0	0
19	0	0
20	0	0
21	0	0
22	0	0
23	0	0
24	0	0
25	0	0
26	0	0
27	0	0
28	0	0
29	0	0
30	0	0
31	0	0
32	0	0
33	1	0
34	1	0
35	1	0
36	1	0
37	1	0
38	1	0
39	0	0
40	0	0
41	0	0
42	0	0
43	0	0
44	0	0
45	0	0
46	0	0
47	0	0
48	0	0
49	0	0
50	0	0
51	0	0
52	0	0
53	0	0
54	0	0
55	0	0
56	0	0
57	0	0
58	0	0
59	0	0
60	0	0
61	0	0
62	0	0
63	0	0
64	0	0
65	0	0
66	0	0
67	0	0
68	0	0
69	0	0
70	0	0
71	0	0
72	0	0
73	0	0
74	0	0
75	0	0
76	0	0
77	0	0
78	0	0
79	0	0
80	0	0
81	0	0
82	0	0
83	0	0
84	0	0
85	0	0
86	0	0.333333
87	0	0.333333
88	0	0.333333
89	0	0.333333
90	0	0.333333
91	0	0.333333
92	0	0
93	0	0
94	0	0
95	0	0.214286
96	0	0.166667
97	0	0.230769
98	0	0.202658
99	0	0.595386
100	0	0.492205
101	0	0.452163
102	0	0.332257
103	0	1
104	0	0.333333
105	0	0.333333
106	0	0.1
107	0	0.205554
108	0	0.202785
109	0	0.171289
110	0	0.156871
111	0	0.140485
112	0	0.111402
113	0	0.116672
114	0	0.4
115	0	0.714286
116	0	0
117	0	0
118	0	0
119	0	0
120	0	0
121	0	0.254083
122	0	0.166667
123	0	0
124	0	0.166667
125	0	0.163398
126	0	0.159105
127	0	0.177496
128	0	0.260422
129	0	0.241345
130	0	0.244455
131	0	0.240553
132	0	0.221014
133	0	0.208791
134	0	0.266667
135	0	0.3
136	0	0.299075
137	0	0.337937
138	0	0.41476
139	0	0.691952
140	0	0.4
141	0	1
142	0	0.762846
143	0	0.801587
144	0	0.846847
145	0	1
146	0	1
147	0	1
148	0	1
149	1	1
150	1	1
151	0	0.991453
152	0	0.991453
153	0	0.991453
154	0	0.991453
155	0	0.991453
156	0	0.991453
157	0	0.991453
158	0	0.991453
159	0	0.991453
160	0	0.991453
161	0	0.991453
162	0	0.991453
163	0	0.991453
164	0	0.991453
165	0	0.991453
166	0	0.991935
167	0	0.991935
168	0	0.991935
169	0	0.991935
170	0	1
171	0	0.666667
172	0	0.936638
173	0	0.918794
174	0	0.833236
175	0	0
176	0	0
177	0	0
178	0	0.581367
179	0	0.438013
180	0	0.40857
181	0	0.368542
182	0	0.430108
183	0	0.304314
184	0	0.209596
185	0	0.185616
186	0	0.206396
187	0	0.282051
188	0	0.334775
189	0	0.551643
190	0	0
191	0	0
192	0	0
193	0	0.285714
194	0	0.263758
195	0	0.259868
196	0	0.25409
197	0	0.24796
198	0	0.263365
199	0	0.206954
200	0	0.1
201	0	0.0952381
202	0	0.107143
203	0	0.318096
204	0	0.299408
205	0	0.346553
206	0	0.389804
207	0	0.415471
208	0	0.46766
209	0	0.460479
210	0	0.333333
211	0	0.333333
212	0	1
213	0	1
214	0	1
215	0	1
216	0	0.721943
217	0	0.722724
218	0	0.724438
219	0	0.166667
220	0	0.166667
221	0	0.166667
222	0	0.333333
223	0	1
224	0	1
225	0	1
226	0	0.923734
227	0	0.923621
228	0	0.915846
229	0	0.884112
230	0	0.884112
231	0	0
232	0	0.891242
233	0	0.891242
234	0	0.884369
235	0	0.884369
236	0	0.877044
237	0	0.483256
238	0	0.484048
239	0	0.503714
240	0	0.513349
241	0	0.973336
242	0	1
243	0	1
244	1	1
245	1	1
246	1	1
247	1	1
248	1	1
249	1	1
250	1	1
251	1	1
252	1	1
253	1	1
254	1	1
255	1	1
256	1	1
257	1	1
258	0	0
259	0	0.992
260	0	0.541976
261	0	0.976193
262	0	1
263	1	1
264	1	1
265	1	1
266	1	1
267	1	1
268	1	1
269	1	1
270	1	1
271	1	1
272	1	1
273	1	1
274	1	1
275	1	1
276	1	1
277	1	1
278	1	1
279	1	1
280	1	1
281	1	1
282	0	1
283	0	0.952964
284	0	0.952964
285	1	1
286	1	1
287	1	1
288	1	1
289	1	1
290	1	1
291	1	1
292	1	1
293	1	1
294	1	1
295	1	1
296	1	1
297	1	1
298	0	1
299	0	0.908241
300	1	1
301	1	1
302	1	1
303	1	1
304	1	1
305	1	1
306	1	1
307	1	1
308	1	1
309	1	1
310	1	1
311	1	1
312	1	1
313	1	1
314	1	1
315	1	1
316	1	1
317	1	1
318	1	1
319	1	1
320	1	1
321	1	1
322	1	1
323	1	1
324	1	1
325	1	1
326	1	1
327	1	1
328	1	1
329	1	1
330	1	1
331	1	1
332	1	1
333	0	0.984064
334	0	0.984032
335	0	0
336	0	1
337	1	1
338	1	1
339	1	1
340	1	1
341	1	1
342	1	1
343	1	1
344	1	1
345	1	1
346	1	1
347	1	1
348	1	1
349	1	1
350	1	1
351	1	1
352	1	1
353	1	1
354	1	1
355	1	1
356	1	1
357	1	1
358	1	1
359	1	1
360	1	1
361	1	1
362	1	1
363	1	1
364	1	1
365	1	1
366	1	1
367	1	1
368	1	1
369	1	1
370	1	1
371	1	1
372	1	1
373	1	1
374	0	1
375	0	0.975412
376	0	0.975412
377	0	0
378	0	0
379	0	0
380	0	0
381	0	0
382	0	0.890688
383	0	0.853659
384	0	0.804582
385	0	0
386	0	0
387	0	0
388	0	0.6
389	0	0.6
390	0	0.321429
391	0	0.236364
392	0	0.378205
393	0	0.306864
394	0	0.190775
395	0	0.203539
396	0	0.242153
397	0	0
398	0	0
399	0	0.47619
400	0	0.47619
401	0	0.472361
402	0	0.40739
403	0	0.423968
404	0	0.814286
405	0	0.556989
406	0	0.398941
407	0	0
408	0	0.403849
409	0	1
410	0	1
411	0	0.769231
412	0	1
413	0	0.981221
414	0	0.984064
415	0	0.984064
416	0	0.984064
417	0	1
418	1	1
419	1	1
420	1	1
421	1	1
422	1	1
423	1	1
424	1	1
425	1	1
426	1	1
427	1	1
428	1	1
429	1	1
430	1	1
431	1	1
432	1	1
433	1	1
434	1	1
435	1	1
436	1	1
437	1	1
438	1	1
439	1	1
440	1	1
441	1	1
442	1	1
443	1	1
444	1	1
445	1	1
446	1	1
447	1	1
448	1	1
449	1	1
450	1	1
451	1	1
452	1	1
453	1	1
454	1	1
455	1	1
456	1	1
457	1	1
458	1	1
459	1	1
460	1	1
461	1	1
462	1	1
463	1	1
464	1	1
465	1	1
466	1	1
467	1	1
468	1	1
469	1	1
470	1	1
471	1	1
472	1	1
473	1	1
474	1	1
475	1	1
476	1	1
477	1	1
478	1	1
479	1	1
480	1	1
481	1	1
482	1	1
483	1	1
484	1	1
485	1	1
486	1	1
487	1	1
488	1	1
489	1	1
490	1	1
491	1	1
492	1	1
493	1	1
494	1	1
495	1	1
496	1	1
497	1	1
498	1	1
499	1	1
500	1	1
501	1	1
502	1	1
503	1	1
504	1	1
505	1	1
506	1	1
507	1	1
508	1	1
509	1	1
510	1	1
511	1	1
512	1	1
513	1	1
514	1	1
515	1	1
516	1	1
517	1	1
518	1	1
519	1	1
520	1	1
521	1	1
522	0	1
523	0	0.984064
524	0	0.984064
525	0	0.984064
526	0	0.984064
527	0	0.968257
528	0	0.937414
529	0	0.937414
530	0	0.55804
531	0	0
532	0	0.561626
533	0	0.936585
534	0	1
535	0	0.967842
536	0	0.983904
537	0	1
538	1	1
539	1	1
540	1	1
541	1	1
542	1	1
543	1	1
544	1	1
545	1	1
546	1	1
547	1	1
548	1	1
549	1	1
550	1	1
551	1	1
552	1	1
553	1	1
554	1	1
555	1	1
556	1	1
557	1	1
558	1	1
559	1	1
560	1	1
561	1	1
562	1	1
563	1	1
564	1	1
565	1	1
566	1	1
567	1	1
568	1	1
569	1	1
570	1	1
571	1	1
572	1	1
573	1	1
574	1	1
575	1	1
576	1	1
577	1	1
578	1	1
579	1	1
580	1	1
581	1	0
582	1	0
583	1	0
584	1	0
585	1	0
586	1	0
587	1	0
588	1	0
589	1	0
590	1	0
591	1	0
592	1	0
593	1	0
594	1	0
595	1	0
596	1	0
597	1	0
598	1	0
599	1	0
600	1	0
601	1	0
602	1	0
603	1	1
604	1	1
605	1	1
606	1	1
607	1	1
608	1	1
609	1	1
610	1	1
611	1	1
612	1	1
613	1	1
614	1	1
615	1	1
616	1	1
617	1	1
618	1	1
619	1	1
620	1	1
621	1	1
622	1	1
623	1	1
624	1	1
625	1	1
626	1	1
627	1	1
628	1	1
629	1	1
630	1	1
631	1	1
632	1	1
633	1	1
634	1	1
635	1	1
636	1	1
637	1	1
638	1	1
639	1	1
640	1	1
641	1	1
642	1	1
643	1	1
644	1	1
645	1	1
646	1	1
647	1	1
648	1	1
649	1	1
650	1	1
651	1	1
652	1	1
653	1	1
654	1	1
655	1	1
656	1	1
657	1	1
658	1	1
659	1	1
660	1	1
661	1	1
662	1	1
663	1	1
664	1	1
665	1	1
666	1	1
667	1	1
668	1	1
669	0	1
670	0	0.829815
671	0	0.851665
672	0	0.845494
673	0	0
674	0	0.982495
675	0	0.980392
676	0	0.980392
677	0	0.980392
678	0	0.511109
679	0	0.904762
680	0	0.516498
681	1	1
682	1	1
683	1	1
684	1	1
685	1	1
686	1	1
687	1	1
688	1	1
689	1	1
690	1	1
691	1	1
692	1	1
693	1	1
694	1	1
695	1	1
696	1	1
697	1	1
698	1	1
699	1	1
700	1	1
701	1	1
702	1	1
703	1	1
704	1	1
705	1	1
706	1	1
707	1	1
708	1	1
709	1	1
710	1	1
711	1	1
712	1	1
713	1	1
714	1	1
715	1	1
716	1	1
717	1	1
718	1	1
719	1	1
720	1	1
721	1	1
722	1	1
723	1	1
724	1	1
725	1	1
726	1	1
727	1	1
728	1	1
729	1	1
730	1	1
731	1	1
732	1	1
733	1	1
734	1	1
735	1	1
736	1	1
737	1	1
738	1	1
739	1	1
740	1	1
741	1	1
742	1	1
743	1	1
744	1	1
745	1	1
746	1	1
747	1	1
748	1	1
749	1	1
750	1	1
751	1	1
752	1	1
753	1	1
754	1	1
755	1	1
756	1	1
757	1	1
758	1	1
759	1	1
760	1	1
761	1	1
762	1	1
763	1	1
764	1	1
765	1	1
766	1	1
767	1	1
768	1	1
769	1	1
770	1	1
771	1	1
772	1	1
773	1	1
774	1	1
775	1	1
776	1	1
777	1	1
778	1	1
779	1	1
780	1	1
781	1	1
782	1	1
783	1	1
784	1	1
785	1	1
786	1	1
787	1	1
788	1	1
789	1	1
790	1	1
791	1	1
792	1	1
793	1	1
794	1	1
795	1	1
796	1	1
797	1	1
798	1	1
799	1	1
800	1	1
801	1	1
802	1	1
803	1	1
804	1	1
805	1	1
806	1	1
807	1	1
808	1	1
809	1	1
810	1	1
811	1	1
812	1	1
813	1	1
814	1	1
815	1	1
816	1	1
817	1	1
818	1	1
819	1	1
820	1	1
821	1	1
822	1	1
823	1	1
824	1	1
825	1	1
826	1	1
827	1	1
828	1	1
829	1	1
830	1	1
831	1	1
832	1	1
833	1	1
834	1	1
835	1	1
836	1	1
837	1	1
838	0	1
839	0	1
840	0	0.861953
841	0	0.833333
842	0	0.825998
843	0	0
844	0	0
845	0	0
846	0	0
847	0	0.782724
848	0	0.166667
849	0	0
850	0	0.163636
851	0	0
852	0	0
853	0	0
854	0	0.0666667
855	0	0.275132
856	0	0.410103
857	0	0.396399
858	0	0.3842
859	0	0.301592
860	0	0.305336
861	0	0.256964
862	0	0.250249
863	0	0
864	0	0
865	0	0
866	0	0.878472
867	0	0.909135
868	0	0.909135
869	0	0.909135
870	0	0.906298
871	0	0.843169
872	0	0.694915
873	0	0.651299
874	0	0.576577
875	0	0.495968
876	0	0.495968
877	0	0.593846
878	0	0.285714
879	0	0.285714
880	0	0.1
881	0	0.133333
882	0	0.142231
883	0	0.169086
884	0	0.17098
885	0	0.183599
886	0	0.0769231
887	0	0.0922213
888	0	0.157143
889	0	0.0995671
890	0	0.095769
891	0	0.0787188
892	0	0.0615776
893	0	0.0596513
894	0	0.0559619
895	0	0.0932401
896	0	0.0728177
897	0	0.0720329
898	0	0.071736
899	0	0.0809179
900	0	0.102439
901	0	0.123925
902	0	0.123236
903	0	0
904	0	0.106816
905	0	0.121397
906	0	0.0887027
907	0	0.124298
908	0	0.216292
909	0	0.245378
910	0	0.457075
911	0	0.71677
912	0	0.704845
913	0	0.740659
914	0	0.747438
915	0	0.753822
916	0	1
917	0	0.333333
918	0	0.739715
919	0	0.166667
920	0	0.724076
921	0	0.589026
922	0	0.0444444
923	0	0.439011
924	0	0.400835
925	0	0.357114
926	0	0
927	0	0
928	0	0.352064
929	0	0.419776
930	0	0.488161
931	0	0.520353
932	0	1
933	0	1
934	0	1
935	0	1
936	0	1
937	0	1
938	0	1
939	0	1
940	0	1
941	0	1
942	0	1
943	0	1
944	0	1
945	0	1
946	0	1
947	0	1
948	0	1
949	0	1
950	0	1
951	0	1
952	0	1
953	0	1
954	0	1
955	0	1
956	0	1
957	0	1
958	0	1
959	0	1
960	0	1
961	0	1
962	0	1
963	0	1
964	0	1
965	0	1
966	0	1
967	0	1
968	0	1
969	0	1
970	0	1
971	0	1
972	0	1
973	0	1
974	0	1
975	0	1
976	0	1
977	0	1
978	0	1
979	0	1
980	0	1
981	0	1
982	0	1
983	0	1
984	0	1
985	0	1
986	0	1
987	0	1
988	0	1
989	0	1
990	0	1
991	0	1
992	0	1
993	0	1
994	0	1
995	0	1
996	0	1
997	0	1
998	0	1
999	0	1
1000	0	1
1001	0	1
1002	0	1
1003	0	1
1004	0	1
1005	0	1
1006	0	1
1007	0	1
1008	0	1
1009	0	1
1010	0	1
1011	0	1
1012	0	1
1013	0	1
1014	0	1
1015	0	1
1016	0	1
1017	0	1
1018	0	1
1019	0	1
1020	0	1
1021	0	1
1022	0	1
1023	0	1
1024	0	1
1025	0	1
1026	0	1
1027	0	1
1028	0	1
1029	0	1
1030	0	1
1031	0	1
1032	0	1
1033	0	1
1034	0	1
1035	0	1
1036	0	1
1037	0	1
1038	0	0.508518
1039	0	0.458155
1040	0	0.462779
1041	0	0.26087
1042	0	0.0952381
1043	0	0.0952381
1044	0	0.133333
1045	0	0.133333
1046	0	0.133333
1047	0	0.133333
1048	0	0.133333
1049	0	0.133333
1050	0	0.0666667
1051	0	0.0666667
1052	0	0.0666667
1053	0	0.0666667
1054	0	0.0666667
1055	0	0.0666667
1056	0	0.0666667
1057	0	0.0666667
1058	0	0.0666667
1059	0	0.0666667
1060	0	0.0666667
1061	0	0.0666667
1062	0	0.0666667
1063	0	0.0666667
1064	0	0.0666667
1065	0	0.0666667
1066	0	0.0666667
1067	0	0.0666667
1068	0	0.0666667
1069	0	0.0666667
1070	0	0.0666667
1071	0	0.0666667
1072	0	0.0666667
1073	0	0.0666667
1074	0	0.0666667
1075	0	0.0666667
1076	0	0.0666667
1077	0	0.0666667
1078	0	0.0666667
1079	0	0.0666667
1080	0	0.0666667
1081	0	0.0666667
1082	0	0.0666667
1083	0	0.0666667
1084	0	0.0666667
1085	0	0.0666667
1086	0	0.0666667
1087	0	0.0666667
1088	0	0.0666667
1089	0	0.0666667
1090	0	0.0666667
1091	0	0.0666667
1092	0	0.0666667
1093	0	0.0666667
1094	0	0.0666667
1095	0	0.0666667
1096	0	0.0666667
1097	0	0.0666667
1098	0	0.0666667
1099	0	0.0666667
1100	0	0.0666667
1101	0	0.0666667
1102	0	0.0666667
1103	0	0.0666667
1104	0	0.0666667
1105	0	0.0666667
1106	0	0.0666667
1107	0	0.0666667
1108	0	0.0666667
1109	0	0.0666667
1110	0	0.0666667
1111	0	0.0666667
1112	0	0.0666667
1113	0	0.0666667
1114	0	0.0666667
1115	0	0.0666667
1116	0	0.0666667
1117	0	0.0666667
1118	0	0.0666667
1119	0	0.0666667
1120	0	0.0666667
1121	0	0.0666667
1122	0	0.0666667
1123	0	0.0666667
1124	0	0.0666667
1125	0	0.0666667
1126	0	0.0666667
1127	0	0.0666667
1128	0	0.0666667
1129	0	0.0666667
1130	0	0.0666667
1131	0	0.0666667
1132	0	0.0666667
1133	0	0.0666667
1134	0	0.0666667
1135	0	0.0666667
1136	0	0.0666667
1137	0	0.0666667
1138	0	0.0666667
1139	0	0.0666667
1140	0	0.0666667
1141	0	0.0666667
1142	0	0.0666667
1143	0	0.0666667
1144	0	0.0666667
1145	0	0.0666667
1146	0	0.0666667
1147	0	0.0666667
1148	0	0.0666667
1149	0	0.0666667
1150	0	0.0666667
1151	0	0.0666667
1152	0	0.0666667
1153	0	0.0666667
1154	0	0.0666667
1155	0	0.0666667
1156	0	0.0666667
1157	0	0.0666667
1158	0	0.0666667
1159	0	0.0666667
1160	0	0.0666667
1161	0	0.0666667
1162	0	0.0666667
1163	0	0.0666667
1164	0	0.0666667
1165	0	0.0666667
1166	0	0.0666667
1167	0	0.0666667
1168	0	0.0666667
1169	0	0.0666667
1170	0	0.0666667
1171	0	0.0666667
1172	0	0.0666667
1173	0	0.0666667
1174	0	0.0666667
1175	0	0.0666667
1176	0	0.0666667
1177	0	0.0666667
1178	0	0.0666667
1179	0	0.0666667
1180	0	0.0666667
1181	0	0.0666667
1182	0	0.0666667
1183	0	0.0666667
1184	0	0.0666667
1185	0	0.0666667
1186	0	0.0666667
1187	0	0.0666667
1188	0	0.0666667
1189	0	0.0666667
1190	0	0.0666667
1191	0	0.0666667
1192	0	0.0666667
1193	0	0.0666667
1194	0	0.0666667
1195	0	0.0666667
1196	0	0.0666667
1197	0	0.0666667
1198	0	0.0666667
1199	0	0.0666667
1200	0	0.0666667
1201	0	0.0666667
1202	0	0.0666667
1203	0	0.0666667
1204	0	0.0666667
1205	0	0.0666667
1206	0	0.0666667
1207	0	0.0666667
1208	0	0.0666667
1209	0	0.0666667
1210	0	0.0666667
1211	0	0.0666667
1212	0	0.0666667
1213	0	0.0666667
1214	0	0.0666667
1215	0	0.0666667
1216	0	0.0666667
1217	0	0.0666667
1218	0	0.0666667
1219	0	0.0666667
1220	0	0.0666667
1221	0	0.0666667
1222	0	0.0666667
1223	0	0.0666667
1224	0	0.0666667
1225	0	0.0666667
1226	0	0.0666667
1227	0	0.0666667
1228	0	0.0666667
1229	0	0.0666667
1230	0	0.0666667
1231	0	0.0666667
1232	0	0.0666667
1233	0	0.0666667
1234	0	0.0666667
1235	0	0.0666667
1236	0	0.0666667
1237	0	0.0666667
1238	0	0.0666667
1239	0	0.0666667
1240	0	0.0666667
1241	0	0.0666667
1242	0	0.0666667
1243	0	0.0666667
1244	0	0.0666667
1245	0	0.0666667
1246	0	0.0666667
1247	0	0.0666667
1248	0	0.0666667
1249	0	0.0666667
1250	0	0.0666667
1251	0	0.0666667
1252	0	0.0666667
1253	0	0.0666667
1254	0	0.0666667
1255	0	0.0666667
1256	0	0.0666667
1257	0	0.0666667
1258	0	0.0666667
1259	0	0.0666667
1260	0	0.0666667
1261	0	0.0666667
1262	0	0.0666667
1263	0	0.0666667
1264	0	0.0666667
1265	0	0.0666667
1266	0	0.0666667
1267	0	0.1
1268	0	0.1
1269	0	0.1
1270	0	0.1
1271	0	0.1
1272	0	0.1
1273	0	0.1
1274	0	0.1
1275	0	0.1
1276	0	0.1
1277	0	0.1
1278	0	0.1
1279	0	0.1
1280	0	0.1
1281	0	0.1
1282	0	0.1
1283	0	0.1
1284	0	0.1
1285	0	0.1
1286	0	0.1
1287	0	0.1
1288	0	0.1
1289	0	0.1
1290	0	0.1
1291	0	0.1
1292	0	0.1
1293	0	0.1
1294	0	0.1
1295	0	0.1
1296	0	0.1
1297	0	0.1
1298	0	0.1
1299	0	0.1
1300	0	0.1
1301	0	0.1
1302	0	0.1
1303	0	0.1
1304	0	0.1
1305	0	0.1
1306	0	0.1
1307	0	0.1
1308	0	0.1
1309	0	0.1
1310	0	0.1
1311	0	0.1
1312	0	0.1
1313	0	0.1
1314	0	0.1
1315	0	0.1
1316	0	0.1
1317	0	0.1
1318	0	0.1
1319	0	0.1
1320	0	0.1
1321	0	0.1
1322	0	0.1
1323	0	0.1
1324	0	0.1
1325	0	0.1
1326	0	0.1
1327	0	0.1
1328	0	0.1
1329	0	0.1
1330	0	0.1
1331	0	0.1
1332	0	0.1
1333	0	0.1
1334	0	0.1
1335	0	0.1
1336	0	0.1
1337	0	0.1
1338	0	0.1
1339	0	0.1
1340	0	0.1
1341	0	0.1
1342	0	0.1
1343	0	0.1
1344	0	0.1
1345	0	0.1
1346	0	0.1
1347	0	0.1
1348	0	0.1
1349	0	0.1
1350	0	0.1
1351	0	0.1
1352	0	0.1
1353	0	0.1
1354	0	0.1
1355	0	0.1
1356	0	0.1
1357	0	0.1
1358	0	0.1
1359	0	0.1
1360	0	0.1
1361	0	0.1
1362	0	0.1
1363	0	0.1
1364	0	0.1
1365	0	0.1
1366	0	0.1
1367	0	0.1
1368	0	0.1
1369	0	0.1
1370	0	0.1
1371	0	0.1
1372	0	0.1
1373	0	0.1
1374	0	0.1
1375	0	0.1
1376	0	0.1
1377	0	0.1
1378	0	0.1
1379	0	0.1
1380	0	0.1
1381	0	0.1
1382	0	0.1
1383	0	0.1
1384	0	0.1
1385	0	0.1
1386	0	0.1
1387	0	0.1
1388	0	0.1
1389	0	0.1
1390	0	0.1
1391	0	0.1
1392	0	0.1
1393	0	0.1
1394	0	0.1
1395	0	0.1
1396	0	0.1
1397	0	0.1
1398	0	0.1
1399	0	0.1
1400	0	0.1
1401	0	0.1
1402	0	0.1
1403	0	0.1
1404	0	0.1
1405	0	0.1
1406	0	0.1
1407	0	0.1
1408	0	0.1
1409	0	0.1
1410	0	0.1
1411	0	0.1
1412	0	0.1
1413	0	0.1
1414	0	0.1
1415	0	0.1
1416	0	0.1
1417	0	0.1
1418	0	0.1
1419	0	0.1
1420	0	0.1
1421	0	0.1
1422	0	0.1
1423	0	0.1
1424	0	0.1
1425	0	0.1
1426	0	0.1
1427	0	0.1
1428	0	0.1
1429	0	0.1
1430	0	0.1
1431	0	0.1
1432	0	0.1
1433	0	0.1
1434	0	0.1
1435	0	0.1
1436	0	0.1
1437	0	0.1
1438	0	0.1
1439	0	0.1
1440	0	0.1
1441	0	0.1
1442	0	0.1
1443	0	0.1
1444	0	0.1
1445	0	0.1
1446	0	0.1
1447	0	0.1
1448	0	0.166667
1449	0	0.166667
1450	0	0.166667
1451	0	0.166667
1452	0	0.166667
1453	0	0.166667
1454	0	0.166667
1455	0	0.166667
1456	0	0.166667
1457	0	0.166667
1458	0	0.166667
1459	0	0.166667
1460	0	0.166667
1461	0	0.333333
1462	0	0.333333
1463	0	0.333333
1464	0	0.333333
1465	0	0.333333
1466	0	0.333333
1467	0	0.333333
1468	0	0.333333
1469	0	0.333333
1470	0	0.333333
1471	0	0.333333
1472	0	0.333333
1473	0	0.333333
1474	0	0.333333
1475	0	0.333333
1476	0	0.333333
1477	0	0.333333
1478	0	0.333333
1479	0	0.333333
1480	0	0.333333
1481	0	0.333333
1482	0	0.333333
1483	0	0.333333
1484	0	0.333333
1485	0	0.333333
1486	0	0.333333
1487	0	0.333333
1488	0	0.333333
1489	0	0.333333
1490	0	0.333333
1491	0	0.333333
1492	0	0.333333
1493	0	0.333333
1494	0	0.333333
1495	0	0.333333
1496	0	0.333333
1497	0	0.333333
1498	0	0.333333
1499	0	0.333333
1500	0	0.333333
1501	0	0.333333
1502	0	0.333333
1503	0	0.333333
1504	0	0.333333
1505	0	0.333333
1506	0	0.333333
1507	0	0.333333
1508	0	0.333333
1509	0	0.333333
1510	0	0.333333
1511	0	0.333333
1512	0	0.333333
1513	0	0.333333
1514	0	0.333333
1515	0	0.333333
1516	0	0.333333
1517	0	0.333333
1518	0	0.333333
1519	0	0.333333
1520	0	0.333333
1521	0	0.333333
1522	0	0.333333
1523	0	0.333333
1524	0	0.333333
1525	0	0.333333
1526	0	0.333333
1527	0	0.333333
1528	0	0.333333
1529	0	0.333333
1530	0	0.333333
1531	0	0.333333
1532	0	0.333333
1533	0	0.333333
1534	0	0.333333
1535	0	0.333333
1536	0	0.333333
1537	0	0.333333
1538	0	0.333333
1539	0	0.333333
1540	0	0.333333
1541	0	0.333333
1542	0	0.333333
1543	0	0.333333
1544	0	0.333333
1545	0	0.333333
1546	0	0.333333
1547	0	0.333333
1548	0	0.333333
1549	0	0.333333
1550	0	0.333333
1551	0	0.333333
1552	0	0.333333
1553	0	0.333333
1554	0	0.333333
1555	0	0.333333
1556	0	0.333333
1557	0	0.333333
1558	0	0.333333
1559	0	0.333333
1560	0	0.333333
1561	0	0.333333
1562	0	0.333333
1563	0	0.333333
1564	0	0.333333
1565	0	0.333333
1566	0	0.333333
1567	0	0.333333
1568	0	0.333333
1569	0	0.333333
1570	0	0.333333
1571	0	0.333333
1572	0	0.333333
1573	0	0.333333
1574	0	0.333333
1575	0	0.333333
1576	0	0.333333
1577	0	0.333333
1578	0	0.333333
1579	0	0.333333
1580	0	0.333333
1581	0	0.333333
1582	0	0.333333
1583	0	0.333333
1584	0	0.333333
1585	0	0.333333
1586	0	0.333333
1587	0	0.333333
1588	0	0.333333
1589	0	0.333333
1590	0	0.333333
1591	0	0.333333
1592	0	0.333333
1593	0	0.333333
1594	0	0.333333
1595	0	0.333333
1596	0	0.333333
1597	0	0.333333
1598	0	0.333333
1599	0	0.333333
1600	0	0.333333
1601	0	0.333333
1602	0	0
1603	0	0
1604	0	0
1605	0	0
1606	0	0
1607	0	0
1608	0	0
1609	0	0
1610	0	0
1611	1	0
1612	1	0
1613	0	0
1614	0	0
1615	0	0
1616	0	0
1617	0	0
1618	0	0
1619	0	0
1620	0	0
1621	0	0
1622	0	0
1623	0	0
1624	0	0
1625	0	0
1626	0	0
1627	0	0
1628	0	0
1629	0	0
1630	0	0
1631	0	0
1632	0	0
1633	0	0
1634	0	0
1635	0	0
1636	0	0
1637	0	0
1638	0	0
1639	0	0
1640	0	0
1641	0	0
1642	0	0
1643	0	0
1644	0	0
1645	0	0
1646	0	0
1647	0	0
1648	0	0
1649	0	0
1650	0	0
1651	0	0
1652	0	0
1653	0	0
1654	0	0
1655	0	0
1656	0	0
1657	0	0
1658	0	0
1659	0	0
1660	0	0
1661	0	0
1662	0	0
1663	0	0
1664	0	0
1665	0	0
1666	0	0
1667	0	0
1668	0	0
1669	0	0
1670	0	0
1671	0	0
1672	0	0
1673	0	0
1674	0	0
1675	0	0
1676	0	0
1677	0	0
1678	0	0
1679	0	0
1680	0	0
1681	0	0
1682	0	0
1683	0	0
1684	0	0
1685	0	0
1686	0	0
1687	0	0
1688	0	0
1689	0	0
1690	0	0
1691	0	0
1692	0	0
1693	0	0
1694	0	0
1695	0	0
1696	0	0
1697	0	0
1698	0	0
1699	0	0
1700	0	0
1701	0	0
1702	0	0
1703	0	0
1704	0	0
1705	0	0
1706	0	0
1707	0	0
1708	0	0
1709	0	0
1710	0	0
1711	0	0
1712	0	0
1713	0	0
1714	0	0
1715	0	0
1716	0	0
1717	0	0
1718	0	0
1719	0	0
1720	0	0
1721	0	0
1722	0	0
1723	0	0
1724	0	0
1725	0	0
1726	0	0
1727	0	0
1728	0	0
1729	0	0
1730	0	0
1731	0	0
1732	0	0
1733	0	0
1734	0	0
1735	0	0
1736	0	0
1737	0	0
1738	0	0
1739	0	0
1740	0	0
1741	0	0
1742	0	0
1743	0	0
1744	0	0
1745	0	0
1746	0	0
1747	0	0
1748	0	0
1749	0	0
1750	0	0
1751	0	0
1752	0	0
1753	0	0
1754	0	0
1755	0	0
1756	0	0
1757	0	0
1758	0	0
1759	0	0
1760	0	0
1761	0	0
1762	0	0
1763	0	0
1764	0	0
1765	0	0
1766	0	0
1767	0	0
1768	0	0
1769	0	0
1770	0	0
1771	0	0
1772	0	0
1773	0	0
1774	0	0
