Site	ColumnScore	SumOfPairsScore
1	1	0
2	1	0
3	1	0
4	1	0
5	1	0
6	1	0
7	1	0
8	1	0
9	1	0
10	1	0
11	1	0
12	1	0
13	1	0
14	1	0
15	1	0
16	1	0
17	1	0
18	1	0
19	1	0
20	1	0
21	1	0
22	1	0
23	1	0
24	1	0
25	1	0
26	1	0
27	1	0
28	1	0
29	1	0
30	1	0
31	1	0
32	1	0
33	1	0
34	1	0
35	1	0
36	1	0
37	1	0
38	1	0
39	1	0
40	1	0
41	1	0
42	1	0
43	1	0
44	1	0
45	1	0
46	1	0
47	1	0
48	1	0
49	1	0
50	1	0
51	1	0
52	1	0
53	1	0
54	1	0
55	1	0
56	1	0
57	1	0
58	1	0
59	1	0
60	1	0
61	1	0
62	1	0
63	1	0
64	1	0
65	1	0
66	1	0
67	1	0
68	1	0
69	1	0
70	1	0
71	1	0
72	1	0
73	1	0
74	1	0
75	1	0
76	1	0
77	1	0
78	1	0
79	1	0
80	1	0
81	1	0
82	1	0
83	1	0
84	1	0
85	1	0
86	1	0
87	1	0
88	1	0
89	1	0
90	1	0
91	1	0
92	1	0
93	1	0
94	1	0
95	1	0
96	1	0
97	1	0
98	1	0
99	1	0
100	1	0
101	1	0
102	1	0
103	1	0
104	1	0
105	1	0
106	1	0
107	1	0
108	1	0
109	1	0
110	1	0
111	1	0
112	1	0
113	1	0
114	1	0
115	1	0
116	1	0
117	1	0
118	1	0
119	1	0
120	1	0
121	1	0
122	1	0
123	1	0
124	1	0
125	1	0
126	1	0
127	1	0
128	1	0
129	1	0
130	1	0
131	1	0
132	1	0
133	1	0
134	1	0
135	1	0
136	1	0
137	1	0
138	1	0
139	1	0
140	1	0
141	1	0
142	1	0
143	1	0
144	1	0
145	1	0
146	1	0
147	1	0
148	1	0
149	1	0
150	1	0
151	1	0
152	1	0
153	1	0
154	1	0
155	1	0
156	1	0
157	1	0
158	1	0
159	1	0
160	1	0
161	1	0
162	1	0
163	1	0
164	1	0
165	1	0
166	1	0
167	1	0
168	1	0
169	1	0
170	1	0
171	1	0
172	1	0
173	1	0
174	1	0
175	1	0
176	1	0
177	1	0
178	1	0
179	1	0
180	1	0
181	1	0
182	1	0
183	1	0
184	1	0
185	1	0
186	1	0
187	1	0
188	1	0
189	1	0
190	1	0
191	1	0
192	1	0
193	1	0
194	1	0
195	1	0
196	1	0
197	1	0
198	1	0
199	1	0
200	1	0
201	1	0
202	1	0
203	1	0
204	1	0
205	1	0
206	1	0
207	1	0
208	1	0
209	1	0
210	1	0
211	1	0
212	1	0
213	1	0
214	1	0
215	1	0
216	1	0
217	1	0
218	1	0
219	1	0
220	1	0
221	1	0
222	1	0
223	1	0
224	1	0
225	1	0
226	1	0
227	1	0
228	1	0
229	1	0
230	1	0
231	1	0
232	1	0
233	1	0
234	1	0
235	1	0
236	1	0
237	1	0
238	1	0
239	1	0
240	1	0
241	1	0
242	1	0
243	1	0
244	1	0
245	1	0
246	1	0
247	1	0
248	1	0
249	1	0
250	1	0
251	1	0
252	1	0
253	1	0
254	1	0
255	0	0
256	0	0
257	0	0
258	0	0
259	0	0
260	0	0
261	0	0
262	0	0
263	0	0
264	0	0
265	0	0
266	0	0
267	0	0
268	0	0
269	0	0
270	0	0
271	0	0
272	0	0
273	0	0
274	0	0
275	0	0
276	0	0
277	0	0
278	0	0
279	0	0
280	0	0
281	0	0
282	0	0
283	0	0
284	0	0
285	0	0
286	0	0
287	0	0
288	0	0
289	0	0
290	0	0
291	0	0
292	0	0
293	0	0
294	0	0
295	0	0
296	0	0
297	0	0
298	0	0.1
299	0	0.1
300	0	0.0666667
301	0	0.0666667
302	0	0.0666667
303	0	0.0666667
304	0	0.0666667
305	0	0.0666667
306	0	0.047619
307	0	0.127273
308	0	0.106061
309	0	0.102564
310	0	0.102564
311	0	0.104762
312	0	0.105263
313	0	0.0909091
314	0	0.380392
315	0	0.381176
316	0	0.290164
317	0	0.241688
318	0	0.20696
319	0	0.196491
320	0	0.170732
321	0	0.163511
322	0	0.115458
323	0	0.115458
324	0	0.104396
325	0	0.0981529
326	0	0.151694
327	0	0.147598
328	0	0.122205
329	0	0.115395
330	0	0.111917
331	0	0.118587
332	0	0.103639
333	0	0.103381
334	0	0.111102
335	0	0.109893
336	0	0.155527
337	0	0.276809
338	0	0.299578
339	0	0.341613
340	0	0.727569
341	0	0.729088
342	0	0.868082
343	0	0.879796
344	0	0.879796
345	0	0.869642
346	0	0.965911
347	0	0.965911
348	0	0.965911
349	0	0.965911
350	0	0.965911
351	0	0.965911
352	0	0.965911
353	0	0.965911
354	0	0.965911
355	0	0.965911
356	0	0.965911
357	0	0.965911
358	0	0.965911
359	0	0.965911
360	0	0.965911
361	0	0.965911
362	0	0.965911
363	0	0.965911
364	0	0.965911
365	0	0.885246
366	0	0.885246
367	0	0.679457
368	0	0.679457
369	0	0.588843
370	0	0.490542
371	0	0.415901
372	0	0.404251
373	0	0.397586
374	0	0.391701
375	0	0.391701
376	0	0.34108
377	0	0.325294
378	0	0.323633
379	0	0.312936
380	0	0.256395
381	0	0.210535
382	0	0.153616
383	0	0.113006
384	0	0.0890789
385	0	0.0892838
386	0	0.0951907
387	0	0.105862
388	0	0.108516
389	0	0.10929
390	0	0.115154
391	0	0.108543
392	0	0.0790236
393	0	0.0791719
394	0	0.0810683
395	0	0.083816
396	0	0.101754
397	0	0.101754
398	0	0.10696
399	0	0.111593
400	0	0.121849
401	0	0.105063
402	0	0.106013
403	0	0.106288
404	0	0.114032
405	0	0.114241
406	0	0.153205
407	0	0.147817
408	0	0.177945
409	0	0.225914
410	0	0.148148
411	0	0.16996
412	0	0.0761905
413	0	0.0761905
414	0	0.0879121
415	0	0.0879121
416	0	0.0879121
417	0	0.0909091
418	0	0.111111
419	0	0.142857
420	0	0.047619
421	0	0
422	0	0
423	0	0.1
424	0	0.166667
425	0	0
426	0	0
427	0	0
428	0	0
429	0	0
430	0	0.268234
431	0	0.268198
432	0	0.0904762
433	0	0.0904762
434	0	0.261722
435	0	0.26103
436	0	0.261445
437	0	0.26435
438	0	0.260581
439	0	0.255718
440	0	0.253423
441	0	0.254316
442	0	0.306882
443	0	0.245842
444	0	0.24494
445	0	0
446	0	0
447	0	0
448	0	0
449	0	0
450	0	0
451	0	0
452	0	0
453	0	0
454	0	0
455	0	0
456	0	0
457	0	0
458	0	0
459	0	0
460	0	0
461	0	0.258333
462	0	0.192029
463	0	0.148148
464	0	0.393434
465	0	0.312645
466	0	0.257814
467	0	0.14054
468	0	0.138115
469	0	0.13383
470	0	0.124943
471	0	0.102249
472	0	0.114843
473	0	0.135573
474	0	0.173463
475	0	0.173913
476	0	0.165828
477	0	0.174523
478	0	0
479	0	0
480	0	0
481	0	0
482	0	0
483	0	0
484	0	0
485	0	0
486	0	0
487	0	0
488	0	0
489	0	0
490	0	0
491	0	0
492	0	0
493	0	0
494	0	0
495	0	0
496	0	0
497	0	0.166667
498	0	0.4
499	0	0.321429
500	0	0.269231
501	0	0.637363
502	0	0.630435
503	0	0.831313
504	0	0.757214
505	0	0.879176
506	0	0.815332
507	0	0.846286
508	0	0.967096
509	0	0.967215
510	0	0.989071
511	0	0.989071
512	0	0.989071
513	0	0.989071
514	0	0.989071
515	0	0.989071
516	0	0.989071
517	0	0.989071
518	0	0.989071
519	0	0.989071
520	0	0.989071
521	1	1
522	1	1
523	1	1
524	1	1
525	1	1
526	1	1
527	1	1
528	1	1
529	1	1
530	1	1
531	1	1
532	1	1
533	1	1
534	1	1
535	1	1
536	1	1
537	1	1
538	0	0.989071
539	0	0.977338
540	0	0.96552
541	0	0.96552
542	0	0.963417
543	0	0.572449
544	0	0.333634
545	0	0.257191
546	0	0.135351
547	0	0.118708
548	0	0.134232
549	0	0.154573
550	0	0.185808
551	0	0.235248
552	0	1
553	0	1
554	0	1
555	0	1
556	0	1
557	0	0.472527
558	0	0.743902
559	0	0.776596
560	0	0.867227
561	0	0.837194
562	0	0.827275
563	0	0.836366
564	0	0.847173
565	0	0.847173
566	0	0.847173
567	0	0.847173
568	0	0.847173
569	0	0.847173
570	0	0.847173
571	0	0.847173
572	0	0.847173
573	0	0.829061
574	0	0.811469
575	0	0.80959
576	0	0.563472
577	0	0.568437
578	0	0.307056
579	0	0.304374
580	0	0.304374
581	0	0.304374
582	0	0.294875
583	0	0.443265
584	0	0.228878
585	0	0.224471
586	0	0.223931
587	0	0.223338
588	0	0.226494
589	0	0.202073
590	0	0.192065
591	0	0.175575
592	0	0
593	0	0
594	0	0
595	0	0
596	0	0
597	0	0
598	0	0
599	0	0
600	0	0
601	0	0
602	0	0
603	0	0
604	0	0
605	0	0.0363636
606	0	0.0384615
607	0	0.0869565
608	0	0.112376
609	0	0.129898
610	0	0.11756
611	0	0.0944095
612	0	0.0834145
613	0	0.0695174
614	0	0.0690575
615	0	0.0651718
616	0	0.0682696
617	0	0.0661937
618	0	0.0632949
619	0	0.0636965
620	0	0.0618564
621	0	0.0599235
622	0	0.0604063
623	0	0.0604657
624	0	0.0595088
625	0	0.0579475
626	0	0.0563673
627	0	0.04134
628	0	0.0407896
629	0	0.0366479
630	0	0.041194
631	0	0.0392344
632	0	0.0400782
633	0	0.036905
634	0	0.0354866
635	0	0.0373737
636	0	0.075
637	0	0.0583333
638	0	0.05
639	0	0.05
640	0	0.0390384
641	0	0.0497465
642	0	0.0548878
643	0	0.0669104
644	0	0.0568897
645	0	0.0812043
646	0	0.0960872
647	0	0.0993793
648	0	0.102123
649	0	0.0681732
650	0	0.0770893
651	0	0.0855463
652	0	0
653	0	0
654	0	0
655	0	0
656	0	0
657	0	0
658	0	0
659	0	0
660	0	0
661	0	0.0908893
662	0	0.0898351
663	0	0.157308
664	0	0.156675
665	0	0.156429
666	0	0.156934
667	0	0
668	0	0
669	0	0
670	0	0
671	0	0
672	0	0
673	0	0.04804
674	0	0.0473529
675	0	0.0514243
676	0	0.0567869
677	0	0.0668067
678	0	0.102381
679	0	0.125095
680	0	0.195884
681	0	0.20462
682	0	0.211881
683	0	0.252683
684	0	0.291136
685	0	0.327586
686	0	0.358864
687	0	0.363585
688	0	0.541595
689	0	0.541595
690	0	0.566621
691	0	0.566621
692	0	0.566621
693	0	0.621759
694	0	0.596782
695	0	0.60025
696	0	0.815644
697	0	0.809039
698	0	0.864092
699	0	1
700	0	1
701	0	1
702	0	1
703	0	1
704	0	0.991837
705	0	0.991837
706	0	0.991837
707	0	0.991837
708	0	0.99187
709	0	0.99187
710	0	0.99187
711	0	0.991935
712	0	0.991935
713	0	0.991935
714	0	0.991903
715	0	0.983904
716	0	0.662335
717	0	0.921009
718	0	0.984252
719	1	0
720	0	0.6019
721	0	0.617442
722	0	0.617442
723	0	0.991935
724	0	0.991935
725	0	0.991935
726	0	0.991935
727	0	0.991935
728	0	0.991935
729	0	0.991935
730	0	0.991935
731	0	0.991935
732	0	0.991935
733	0	0.991935
734	0	0.991935
735	0	0.991935
736	0	0.991935
737	0	0.991935
738	0	0.991935
739	0	0.991935
740	0	0.991935
741	0	0.991935
742	0	0.991935
743	1	1
744	1	1
745	1	1
746	1	1
747	1	1
748	1	1
749	1	1
750	1	1
751	0	1
752	1	1
753	1	1
754	0	1
755	0	0.500827
756	0	0.333698
757	0	0.531977
758	1	1
759	1	1
760	1	1
761	1	1
762	1	1
763	1	1
764	1	1
765	1	1
766	1	1
767	1	1
768	1	1
769	1	1
770	1	1
771	1	1
772	1	1
773	1	1
774	1	1
775	0	1
776	0	1
777	0	1
778	0	1
779	0	1
780	0	1
781	0	1
782	0	1
783	0	1
784	1	1
785	1	1
786	1	1
787	0	0.991968
788	0	0.991968
789	0	0.991968
790	0	0.991968
791	0	0.991968
792	1	1
793	1	1
794	1	1
795	1	1
796	1	1
797	1	1
798	1	1
799	1	1
800	1	1
801	1	1
802	0	1
803	0	0.983936
804	0	0.976033
805	0	0.991968
806	0	0.991968
807	0	0.991968
808	0	0.991968
809	0	0.991968
810	0	0.991968
811	0	0.991968
812	0	0.991968
813	0	0.991968
814	0	0.991968
815	1	1
816	1	1
817	1	1
818	1	1
819	1	1
820	1	1
821	1	1
822	1	1
823	1	1
824	1	1
825	0	0.991968
826	0	0.991968
827	1	1
828	1	1
829	1	1
830	1	1
831	1	1
832	1	1
833	1	1
834	0	0.991968
835	0	0.991968
836	0	0.991968
837	0	0.991968
838	0	0.991968
839	0	0.991968
840	0	0.991968
841	0	0.991968
842	0	0.991968
843	0	0.991968
844	1	1
845	1	1
846	1	1
847	0	0.912947
848	0	0.94404
849	0	0.572455
850	0	0.585611
851	0	1
852	0	0.99177
853	0	1
854	0	1
855	0	1
856	0	1
857	0	0.96826
858	0	0.96826
859	0	1
860	1	1
861	1	1
862	1	1
863	1	1
864	1	1
865	1	1
866	1	1
867	1	1
868	1	1
869	1	1
870	1	1
871	1	1
872	1	1
873	1	1
874	1	1
875	1	1
876	1	1
877	1	1
878	1	1
879	1	1
880	1	1
881	1	1
882	1	1
883	1	1
884	1	1
885	1	1
886	1	1
887	1	1
888	1	1
889	1	1
890	1	1
891	1	1
892	1	1
893	1	1
894	1	1
895	1	1
896	1	1
897	1	1
898	1	1
899	1	1
900	1	1
901	1	1
902	1	1
903	1	1
904	1	1
905	1	1
906	1	1
907	1	1
908	1	1
909	1	1
910	1	1
911	1	1
912	1	1
913	1	1
914	1	1
915	1	1
916	1	1
917	1	1
918	1	1
919	1	1
920	1	1
921	1	1
922	1	1
923	1	1
924	1	1
925	1	1
926	1	1
927	1	1
928	1	1
929	1	1
930	1	1
931	1	1
932	1	1
933	1	1
934	1	1
935	1	1
936	1	1
937	1	1
938	1	1
939	1	1
940	1	1
941	1	1
942	1	1
943	1	1
944	1	1
945	1	1
946	1	1
947	1	1
948	1	1
949	1	1
950	1	1
951	1	1
952	1	1
953	1	1
954	1	1
955	1	1
956	1	1
957	1	1
958	1	1
959	1	1
960	1	1
961	1	1
962	1	1
963	1	1
964	1	1
965	1	1
966	1	1
967	1	1
968	1	1
969	1	1
970	1	1
971	1	1
972	1	1
973	1	1
974	1	1
975	1	1
976	1	1
977	1	1
978	1	1
979	1	1
980	1	1
981	1	1
982	1	1
983	1	1
984	1	1
985	1	1
986	1	1
987	1	1
988	1	1
989	1	1
990	1	1
991	1	1
992	1	1
993	1	1
994	1	1
995	1	1
996	1	1
997	1	1
998	1	1
999	1	1
1000	1	1
1001	1	1
1002	1	1
1003	1	1
1004	1	1
1005	1	1
1006	1	1
1007	1	1
1008	1	1
1009	1	1
1010	1	1
1011	1	1
1012	1	1
1013	1	1
1014	1	1
1015	1	1
1016	0	1
1017	0	1
1018	0	1
1019	0	0.497251
1020	0	0.836699
1021	0	0.812447
1022	0	0.337069
1023	0	0.338045
1024	0	0.332172
1025	0	0.318182
1026	0	0.318182
1027	0	0.27056
1028	0	0.264993
1029	0	0.26504
1030	0	0.262976
1031	0	0.265886
1032	0	0.19902
1033	0	0.271186
1034	0	0.21694
1035	0	0.100985
1036	0	0.248433
1037	0	0.2
1038	0	0.2
1039	0	0.282278
1040	0	0.361111
1041	0	0.361111
1042	0	0.254545
1043	0	0.113048
1044	0	0.151345
1045	0	0.152671
1046	0	0.150862
1047	0	0
1048	0	0
1049	0	0
1050	0	0
1051	0	0.213488
1052	0	0
1053	0	0
1054	0	0
1055	0	1
1056	0	0.563366
1057	0	0.571515
1058	0	0.1
1059	0	0.047619
1060	0	0.266634
1061	0	0.258631
1062	0	0.248372
1063	0	0.234135
1064	0	0.255702
1065	0	0.261261
1066	0	0.27619
1067	0	0.384127
1068	0	0.213848
1069	0	0
1070	0	0
1071	0	0
1072	0	0.207443
1073	0	0.207669
1074	0	0.198828
1075	0	0.203816
1076	0	0.254797
1077	0	0
1078	0	0
1079	0	0
1080	0	0.163043
1081	0	0.173913
1082	0	0.454837
1083	0	0.494333
1084	0	0.506619
1085	0	0.436135
1086	0	0.411765
1087	0	0.580882
1088	0	0.489474
1089	0	0.282809
1090	0	0.322607
1091	0	0.475276
1092	0	0.536992
1093	0	0.761594
1094	0	0.874823
1095	0	0
1096	0	0.333333
1097	0	0.333333
1098	0	1
1099	0	1
1100	0	1
1101	0	0.967748
1102	0	0.968006
1103	0	1
1104	1	1
1105	1	1
1106	1	1
1107	1	1
1108	1	1
1109	1	1
1110	1	1
1111	1	1
1112	1	1
1113	1	1
1114	1	1
1115	1	1
1116	1	1
1117	1	1
1118	1	1
1119	1	1
1120	1	1
1121	1	1
1122	1	1
1123	1	1
1124	1	1
1125	1	1
1126	1	1
1127	1	1
1128	0	1
1129	0	0.571429
1130	0	0.571429
1131	1	1
1132	0	0.937799
1133	0	0.937799
1134	1	1
1135	1	1
1136	0	0.992
1137	0	0.992
1138	1	0
1139	1	0
1140	1	0
1141	1	0
1142	0	0
1143	0	1
1144	0	1
1145	0	1
1146	0	1
1147	0	1
1148	0	1
1149	0	1
1150	0	1
1151	0	1
1152	0	1
1153	0	1
1154	0	1
1155	0	1
1156	0	1
1157	0	1
1158	0	1
1159	0	1
1160	0	1
1161	0	1
1162	0	1
1163	1	1
1164	1	1
1165	1	1
1166	1	1
1167	0	1
1168	0	1
1169	0	1
1170	0	1
1171	0	1
1172	0	1
1173	0	1
1174	1	1
1175	1	1
1176	0	1
1177	0	1
1178	0	1
1179	0	1
1180	0	1
1181	0	1
1182	1	1
1183	1	1
1184	1	1
1185	1	1
1186	1	1
1187	1	1
1188	1	1
1189	1	1
1190	1	1
1191	1	1
1192	1	1
1193	1	1
1194	1	1
1195	1	1
1196	1	1
1197	1	1
1198	1	1
1199	1	1
1200	1	1
1201	1	1
1202	1	1
1203	1	1
1204	1	1
1205	1	1
1206	1	1
1207	1	1
1208	1	1
1209	0	1
1210	0	1
1211	0	1
1212	0	1
1213	0	1
1214	0	1
1215	0	1
1216	0	1
1217	1	1
1218	1	1
1219	1	1
1220	1	1
1221	1	1
1222	1	1
1223	1	1
1224	1	1
1225	1	1
1226	1	1
1227	1	1
1228	1	1
1229	1	1
1230	1	1
1231	1	1
1232	1	1
1233	0	0.992
1234	0	0.992
1235	0	0.992
1236	0	0.992
1237	0	0.992
1238	0	0.992
1239	0	0.992
1240	0	0.992
1241	1	1
1242	1	1
1243	1	1
1244	1	1
1245	1	1
1246	1	1
1247	1	1
1248	1	1
1249	1	1
1250	1	1
1251	1	1
1252	1	1
1253	1	1
1254	1	1
1255	1	1
1256	1	1
1257	1	1
1258	1	1
1259	1	1
1260	1	1
1261	0	0.991968
1262	0	0.991968
1263	0	0.991968
1264	0	0.991968
1265	0	0.991968
1266	0	0.991968
1267	0	0.991968
1268	0	0.991968
1269	0	0.991968
1270	0	1
1271	0	0.921682
1272	0	0.841048
1273	0	0.502125
1274	0	0.444799
1275	0	0.647811
1276	0	0.845006
1277	0	0.853375
1278	0	0.627593
1279	0	0.627593
1280	0	0.886855
1281	0	0.879599
1282	0	0.86515
1283	0	0
1284	0	0
1285	0	0
1286	0	0
1287	0	0.664385
1288	0	0.658328
1289	0	0.574791
1290	0	0.569813
1291	0	0.554093
1292	0	0.53553
1293	0	0.417297
1294	0	0.6
1295	0	0.428571
1296	0	0.272727
1297	0	0.205128
1298	0	0.161905
1299	0	0.141667
1300	0	0.206154
1301	0	0.193277
1302	0	0.142253
1303	0	0.175921
1304	0	0.147657
1305	0	0.105707
1306	0	0.0996636
1307	0	0.199669
1308	0	0.233894
1309	0	0.32313
1310	0	0.475249
1311	0	0.563869
1312	0	0.573174
1313	0	0.581203
1314	0	0.597218
1315	0	0.609253
1316	0	0.615129
1317	0	0.52381
1318	0	1
1319	0	1
1320	0	0.752489
1321	0	0.752489
1322	0	0.794294
1323	0	0.839683
1324	0	0.333333
1325	0	0.333333
1326	0	0.333333
1327	0	0.333333
1328	0	0.333333
1329	0	0.333333
1330	0	1
1331	0	1
1332	0	0.975711
1333	0	0.975711
1334	0	0.975711
1335	0	0.975711
1336	0	0.975711
1337	0	0.975711
1338	0	0.975711
1339	0	0.975711
1340	0	0.975906
1341	0	0.975906
1342	0	0.967908
1343	0	0.967908
1344	0	0.975809
1345	0	0.975809
1346	0	0.975809
1347	0	0.975711
1348	0	0.975612
1349	0	0.975612
1350	0	0.975612
1351	0	0.975612
1352	0	0.975612
1353	0	0.975612
1354	1	0
1355	0	1
1356	1	1
1357	1	1
1358	1	1
1359	1	1
1360	1	1
1361	0	1
1362	0	0.991701
1363	0	0.975445
1364	0	0.975445
1365	0	0.975445
1366	0	0.975445
1367	0	0.975445
1368	0	0
1369	0	0
1370	0	0
1371	0	0
1372	0	0.967316
1373	0	0.967316
1374	0	0.959387
1375	0	0.983505
1376	0	0.983505
1377	0	0.983505
1378	0	0.983505
1379	0	0.991736
1380	0	0.991736
1381	0	0.967282
1382	0	0
1383	1	0
1384	1	0
1385	1	0
1386	1	0
1387	1	0
1388	1	0
1389	0	0
1390	0	0
1391	0	0.967615
1392	0	0.967615
1393	0	0.967615
1394	0	0.967615
1395	0	0.967615
1396	0	0.967615
1397	0	0.967615
1398	0	0.967615
1399	0	0.967615
1400	0	0.959585
1401	0	0.959585
1402	0	0.959748
1403	0	0.959748
1404	0	0.991803
1405	0	0.99187
1406	0	0.99187
1407	0	1
1408	0	1
1409	0	1
1410	1	1
1411	1	1
1412	1	1
1413	1	1
1414	1	1
1415	1	1
1416	1	1
1417	0	1
1418	0	1
1419	0	0.952803
1420	0	0.944996
1421	0	0.869446
1422	0	0.507607
1423	0	0
1424	0	0.266667
1425	0	0
1426	0	0
1427	0	0
1428	0	1
1429	0	1
1430	1	1
1431	1	1
1432	1	1
1433	1	1
1434	1	1
1435	1	1
1436	1	1
1437	1	1
1438	1	1
1439	1	1
1440	1	1
1441	0	0
1442	0	0.978723
1443	0	0.519733
1444	0	0.485205
1445	0	0.929509
1446	0	0.929509
1447	0	0.929509
1448	0	0.922043
1449	0	0.929509
1450	0	0.929509
1451	0	0
1452	0	0.857143
1453	0	0.499766
1454	0	0.499766
1455	0	0.493845
1456	0	0.52381
1457	0	0.254902
1458	0	0.4
1459	0	0.311111
1460	0	0.373123
1461	0	0.429411
1462	0	0.488213
1463	0	0.890571
1464	0	0.975937
1465	1	1
1466	1	1
1467	1	1
1468	1	1
1469	1	1
1470	1	1
1471	1	1
1472	1	1
1473	1	1
1474	1	1
1475	1	1
1476	1	1
1477	1	1
1478	0	0.991968
1479	0	0.991968
1480	1	0
1481	1	0
1482	0	0
1483	0	0
1484	1	1
1485	1	1
1486	1	1
1487	1	1
1488	1	1
1489	1	1
1490	1	1
1491	1	1
1492	1	1
1493	1	1
1494	1	1
1495	1	1
1496	1	1
1497	1	1
1498	1	1
1499	0	1
1500	0	0.937066
1501	0	0.921771
1502	0	0.914432
1503	0	0.914432
1504	0	0.921771
1505	0	0.913978
1506	0	0.913641
1507	0	0.333333
1508	0	0.333333
1509	0	0.384615
1510	0	0.275
1511	0	0.644403
1512	0	0.583797
1513	0	0.302263
1514	1	0
1515	0	0.3
1516	0	0.3
1517	1	0
1518	1	0
1519	0	0
1520	0	0
1521	0	0
1522	0	0.266368
1523	0	0.252024
1524	0	0.227523
1525	0	0.19316
1526	0	0.184415
1527	0	0.129
1528	0	0
1529	0	0
1530	0	0
1531	0	0
1532	0	0
1533	0	0
1534	0	0.112552
1535	0	0.108604
1536	0	0.117108
1537	0	0.125304
1538	0	0.131868
1539	0	0.318681
1540	0	0.318681
1541	0	0.159117
1542	0	0.183865
1543	0	0.199327
1544	0	0.47619
1545	0	0.236364
1546	0	0.438095
1547	0	0.800493
1548	0	0.901695
1549	0	0.963473
1550	0	0.989744
1551	0	0.97425
1552	0	0.982943
1553	0	0.983968
1554	0	0.983968
1555	0	0.983968
1556	0	0
1557	0	0
1558	0	1
1559	0	1
1560	1	1
1561	1	1
1562	0	0.992
1563	0	0.992
1564	0	0.992
1565	0	0.992
1566	0	0.992
1567	1	1
1568	1	1
1569	1	1
1570	1	1
1571	0	1
1572	0	1
1573	0	0
1574	0	0.973952
1575	0	1
1576	0	0.738589
1577	0	0.691622
1578	0	0.676048
1579	0	0.497486
1580	0	0.360887
1581	0	0.296968
1582	0	0.253255
1583	0	0.235905
1584	0	0
1585	0	0
1586	0	0.333333
1587	0	0.309317
1588	0	0.313883
1589	0	0.402597
1590	0	0.410978
1591	0	0.41694
1592	0	0.398455
1593	0	0.320513
1594	0	0.320513
1595	0	0.350427
1596	0	0.398555
1597	0	0.3
1598	0	0.275951
1599	0	0.271265
1600	0	0.417965
1601	0	0.227061
1602	0	0.227061
1603	0	0.221233
1604	0	0.224847
1605	0	0
1606	0	0.1
1607	0	0
1608	0	0
1609	0	0
1610	0	0
1611	0	0.261168
1612	0	0
1613	0	0.153725
1614	0	0.117508
1615	0	0.0867648
1616	0	0.0690234
1617	0	1
1618	0	0.333333
1619	0	0.333333
1620	0	0.333333
1621	0	0
1622	0	0.0616883
1623	0	0.119658
1624	0	0.0858586
1625	0	0.113415
1626	0	0.138095
1627	0	0.151515
1628	0	0.0784314
1629	0	0.157143
1630	0	0.280632
1631	0	0.226891
1632	0	0.207457
1633	0	0.204991
1634	0	0.219654
1635	0	0.610887
1636	0	0.66129
1637	0	0.653968
1638	0	0.587482
1639	0	0.519164
1640	0	0.372051
1641	0	0.410077
1642	0	0.396825
1643	0	0.396825
1644	0	0.396825
1645	0	0.313668
1646	0	0.315237
1647	0	0.306625
1648	0	0
1649	0	0.076087
1650	0	0.425784
1651	0	0.198413
1652	0	0.210826
1653	0	0.195767
1654	0	0.163441
1655	0	0.209974
1656	0	0.205133
1657	0	0.201395
1658	0	0.200123
1659	0	0.19885
1660	0	0.119601
1661	0	0.122622
1662	0	0.158815
1663	0	0.157423
1664	0	0
1665	0	0
1666	0	0
1667	0	0
1668	0	0
1669	0	0
1670	0	0
1671	0	0
1672	0	0
1673	0	0
1674	0	0
1675	0	0
1676	0	0
1677	1	0
1678	0	0
1679	0	0
1680	0	0
1681	0	0
1682	0	0
1683	0	0
1684	0	0
1685	0	0
1686	0	0.385965
1687	0	0.410526
1688	0	0.123153
1689	0	0.106855
1690	0	0.10404
1691	0	0.10195
1692	0	0.0878084
1693	0	0.0860577
1694	0	0.0843254
1695	0	0.0881954
1696	0	0.0795031
1697	0	0.0745814
1698	0	0.0810811
1699	0	0.0590722
1700	0	0.0677628
1701	0	0.073165
1702	0	0.0806896
1703	0	0.0945006
1704	0	0.10315
1705	0	0.118241
1706	0	0.152872
1707	0	0.18994
1708	0	0.18882
1709	0	0.213478
1710	0	0.376623
1711	0	0.419048
1712	0	0.419048
1713	0	0.419048
1714	0	0.485714
1715	0	0.547619
1716	0	0.123025
1717	0	0.182447
1718	0	0.201221
1719	0	0.207202
1720	0	0.207004
1721	0	0.207993
1722	0	0.211556
1723	0	0.222924
1724	0	0.243296
1725	0	0.181818
1726	0	0.277778
1727	0	0.277778
1728	0	0.277778
1729	0	0.277778
1730	0	0.346552
1731	0	0.287879
1732	0	0.269231
1733	0	0.335764
1734	0	0.342556
1735	0	0.345308
1736	0	0.344768
1737	0	0.333333
1738	0	0.361111
1739	0	0.361111
1740	0	0.361905
1741	0	0.423645
1742	0	0.425806
1743	0	0.357692
1744	0	0.42531
1745	0	0.355817
1746	0	0.322922
1747	0	0.534434
1748	0	0.520382
1749	0	0.493476
1750	0	0.41129
1751	0	0.411128
1752	0	0.421136
1753	0	0.42567
1754	0	0.462754
1755	0	0.431435
1756	0	0.0592885
1757	0	0.0541311
1758	0	0.218654
1759	0	0.220502
1760	0	0.11
1761	0	0.0968661
1762	0	0.506179
1763	0	0.166667
1764	0	0.498019
1765	0	0.485107
1766	0	0.475093
1767	0	0.5
1768	0	0.333333
1769	0	0.166667
1770	0	0.166667
1771	0	0.597516
1772	0	0.309615
1773	0	0.127273
1774	0	0.133333
1775	0	0.127273
1776	0	0.137255
1777	0	0.0995671
1778	0	0.29359
1779	0	0.17256
1780	0	0.172999
1781	0	0.149088
1782	0	0.145272
1783	0	0.266667
1784	0	0.266667
1785	0	0.327485
1786	0	0.327485
1787	0	0.117632
1788	0	0.114296
1789	0	0.112677
1790	0	0.0930496
1791	0	0.0746535
1792	0	0.0715685
1793	0	0.0803134
1794	0	0.0986801
1795	0	0.107583
1796	0	0
1797	0	0
1798	0	0
1799	0	0
1800	0	0
1801	0	0
1802	0	0
1803	0	0
1804	0	0
1805	0	0
1806	0	0
1807	1	0
1808	0	0
1809	0	0
1810	0	0
1811	0	0.166667
1812	0	0.166667
1813	0	0.1
1814	0	0.0666667
1815	0	0.0929152
1816	0	0.10122
1817	0	0.103659
1818	0	0.121457
1819	0	0.128079
1820	0	0.108333
1821	0	0.0989011
1822	0	0.108333
1823	0	0.615385
1824	0	1
1825	0	0.833333
1826	0	0.882353
1827	0	0.894737
1828	0	0.787302
1829	0	0.800532
1830	0	0.595705
1831	0	0.667335
1832	0	0.729529
1833	0	0.797995
1834	0	0.811407
1835	0	0.983968
1836	0	0.991968
1837	0	0.991968
1838	0	0.991968
1839	1	1
1840	1	1
1841	1	1
1842	1	1
1843	1	1
1844	1	1
1845	1	1
1846	1	1
1847	1	1
1848	1	1
1849	1	1
1850	1	1
1851	1	1
1852	1	1
1853	1	1
1854	1	1
1855	1	1
1856	1	1
1857	1	1
1858	1	1
1859	0	1
1860	0	1
1861	0	0.779412
1862	0	0.870314
1863	0	0.856393
1864	0	1
1865	0	0.56044
1866	0	0.646167
1867	0	0.440022
1868	0	0.436725
1869	0	0.767742
1870	0	0.72
1871	0	0.395307
1872	0	0.421274
1873	0	0.350877
1874	0	0.533333
1875	0	0.533333
1876	0	0.533333
1877	0	0.5
1878	0	0.5
1879	0	0.5
1880	0	0.5
1881	0	1
1882	0	1
