Site	ColumnScore	SumOfPairsScore
1	1	0
2	1	0
3	1	0
4	1	0
5	1	0
6	1	0
7	1	0
8	1	0
9	1	0
10	1	0
11	1	0
12	1	0
13	1	0
14	1	0
15	1	0
16	1	0
17	1	0
18	1	0
19	1	0
20	1	0
21	1	0
22	1	0
23	1	0
24	1	0
25	1	0
26	1	0
27	1	0
28	1	0
29	1	0
30	1	0
31	1	0
32	1	0
33	1	0
34	1	0
35	1	0
36	1	0
37	1	0
38	1	0
39	1	0
40	1	0
41	1	0
42	1	0
43	1	0
44	1	0
45	1	0
46	1	0
47	1	0
48	1	0
49	1	0
50	1	0
51	1	0
52	1	0
53	1	0
54	1	0
55	1	0
56	1	0
57	1	0
58	1	0
59	1	0
60	1	0
61	1	0
62	1	0
63	1	0
64	1	0
65	1	0
66	1	0
67	1	0
68	1	0
69	1	0
70	1	0
71	1	0
72	1	0
73	1	0
74	1	0
75	1	0
76	1	0
77	1	0
78	1	0
79	1	0
80	1	0
81	1	0
82	1	0
83	1	0
84	1	0
85	1	0
86	1	0
87	1	0
88	1	0
89	1	0
90	1	0
91	1	0
92	1	0
93	1	0
94	1	0
95	1	0
96	1	0
97	1	0
98	1	0
99	1	0
100	1	0
101	1	0
102	1	0
103	1	0
104	1	0
105	1	0
106	1	0
107	1	0
108	1	0
109	1	0
110	1	0
111	1	0
112	1	0
113	1	0
114	1	0
115	1	0
116	1	0
117	1	0
118	1	0
119	1	0
120	1	0
121	1	0
122	1	0
123	1	0
124	1	0
125	1	0
126	1	0
127	1	0
128	1	0
129	1	0
130	1	0
131	1	0
132	1	0
133	1	0
134	1	0
135	1	0
136	0	0
137	0	0
138	0	0
139	0	0
140	0	0
141	0	0
142	0	0
143	0	0
144	1	0
145	1	0
146	1	0
147	1	0
148	1	0
149	1	0
150	1	0
151	1	0
152	1	0
153	1	0
154	1	0
155	1	0
156	1	0
157	1	0
158	1	0
159	1	0
160	1	0
161	1	0
162	1	0
163	1	0
164	1	0
165	1	0
166	1	0
167	1	0
168	1	0
169	1	0
170	1	0
171	1	0
172	1	0
173	1	0
174	1	0
175	1	0
176	1	0
177	1	0
178	1	0
179	1	0
180	1	0
181	1	0
182	1	0
183	1	0
184	1	0
185	1	0
186	1	0
187	1	0
188	1	0
189	1	0
190	1	0
191	1	0
192	1	0
193	1	0
194	1	0
195	1	0
196	1	0
197	1	0
198	1	0
199	1	0
200	1	0
201	1	0
202	1	0
203	1	0
204	0	0
205	0	0
206	0	0
207	0	0
208	0	0
209	0	0
210	0	0
211	0	0
212	1	0
213	1	0
214	1	0
215	1	0
216	1	0
217	1	0
218	1	0
219	1	0
220	1	0
221	1	0
222	1	0
223	1	0
224	1	0
225	1	0
226	1	0
227	1	0
228	1	0
229	1	0
230	1	0
231	1	0
232	1	0
233	1	0
234	1	0
235	1	0
236	1	0
237	1	0
238	1	0
239	1	0
240	1	0
241	1	0
242	1	0
243	1	0
244	1	0
245	1	0
246	1	0
247	1	0
248	1	0
249	0	0
250	0	0
251	0	0
252	0	0
253	0	0
254	0	0
255	0	0
256	0	0
257	0	0
258	0	0
259	0	0
260	1	0
261	1	0
262	1	0
263	1	0
264	1	0
265	0	0
266	0	0
267	0	0
268	0	0
269	0	0.333333
270	0	0.333333
271	0	0.333333
272	0	0.333333
273	0	0.333333
274	0	0.333333
275	0	0.333333
276	0	0.333333
277	0	0.333333
278	0	0.333333
279	0	0.333333
280	0	0.333333
281	0	0.333333
282	0	0.333333
283	0	0.333333
284	0	0.333333
285	0	0.333333
286	0	0.333333
287	0	0.333333
288	0	0.333333
289	0	0.333333
290	0	0.333333
291	0	0.333333
292	0	0.333333
293	0	0.333333
294	0	0.333333
295	0	0.333333
296	0	0.333333
297	0	0.333333
298	0	0.333333
299	0	0.333333
300	0	0.333333
301	0	0.333333
302	0	0.333333
303	0	0.333333
304	0	0.333333
305	0	0.333333
306	0	0.333333
307	0	0.333333
308	0	0.333333
309	0	0.333333
310	0	0.333333
311	0	0.333333
312	0	0.333333
313	0	0.333333
314	0	0.333333
315	0	0.333333
316	0	0.333333
317	0	0.333333
318	0	0.333333
319	0	0.333333
320	0	0.333333
321	0	0.333333
322	0	0.333333
323	0	0.333333
324	0	0.333333
325	0	0.333333
326	0	0.333333
327	0	0.333333
328	0	0.333333
329	0	0.333333
330	0	0.333333
331	0	0.333333
332	0	0.333333
333	0	0.333333
334	0	0.333333
335	0	0.333333
336	0	0.333333
337	0	0.333333
338	0	0.333333
339	0	0.333333
340	0	0.333333
341	0	0.333333
342	0	0.333333
343	0	0.333333
344	0	0.333333
345	0	0.333333
346	0	0.333333
347	0	0.333333
348	0	0.333333
349	0	0.333333
350	0	0.333333
351	0	0.333333
352	0	0.333333
353	0	0.333333
354	0	0.333333
355	0	0.333333
356	0	0.333333
357	0	0.333333
358	0	0.333333
359	0	0.333333
360	0	0.333333
361	0	0.333333
362	0	0.333333
363	0	0.333333
364	0	0.333333
365	0	0.333333
366	0	0.333333
367	0	0.333333
368	0	0.333333
369	0	0.333333
370	0	0.333333
371	0	0.333333
372	0	0.333333
373	0	0.333333
374	0	0.333333
375	0	0.333333
376	0	0.333333
377	0	0.333333
378	0	0.333333
379	0	0.333333
380	0	0.333333
381	0	0.333333
382	0	0.333333
383	0	0.333333
384	0	0.333333
385	0	0.333333
386	0	0.333333
387	0	0.333333
388	0	0.333333
389	0	0.333333
390	0	0.333333
391	0	0.333333
392	0	0.333333
393	0	0.333333
394	0	0.333333
395	0	0.333333
396	0	0.333333
397	0	0.333333
398	0	0.333333
399	0	0.333333
400	0	0.333333
401	0	0.333333
402	0	0.333333
403	0	0.333333
404	0	0.333333
405	0	0.333333
406	0	0.333333
407	0	0.333333
408	0	0.333333
409	0	0.333333
410	0	0.333333
411	0	0.333333
412	0	0.333333
413	0	0.333333
414	0	0.333333
415	0	0.333333
416	0	0.333333
417	0	0.333333
418	0	0.333333
419	0	0.333333
420	0	0.333333
421	0	0.333333
422	0	0.333333
423	0	0.333333
424	0	0.333333
425	0	0.333333
426	0	0.333333
427	0	0.333333
428	0	0.333333
429	0	0.333333
430	0	0.333333
431	0	0.333333
432	0	0.333333
433	0	0.333333
434	0	0.333333
435	0	0.333333
436	0	0.333333
437	0	0.333333
438	0	0.333333
439	0	0.333333
440	0	0.333333
441	0	0.333333
442	0	0.333333
443	0	0.333333
444	0	0.333333
445	0	0.333333
446	0	0.333333
447	0	0.333333
448	0	0.333333
449	0	0.333333
450	0	0.333333
451	0	0.333333
452	0	0.333333
453	0	0.333333
454	0	0.333333
455	0	0.333333
456	0	0.333333
457	0	0.333333
458	0	0.333333
459	0	0.333333
460	0	0.333333
461	0	0.333333
462	0	0.333333
463	0	0.333333
464	0	0.333333
465	0	0.333333
466	0	0.333333
467	0	0.333333
468	0	0.333333
469	0	0.333333
470	0	0.333333
471	0	0.333333
472	0	0.333333
473	0	0.333333
474	0	0.333333
475	0	0.333333
476	0	0.333333
477	0	0.333333
478	0	0.333333
479	0	0.333333
480	0	0.333333
481	0	0.333333
482	0	0.333333
483	0	0.333333
484	0	0.333333
485	0	0.333333
486	0	0.333333
487	0	0.333333
488	0	0.333333
489	0	0.333333
490	0	0.333333
491	0	0.333333
492	0	0.333333
493	0	0.333333
494	0	0.333333
495	0	0.333333
496	0	0.333333
497	0	0.333333
498	0	0.333333
499	0	0.333333
500	0	0.333333
501	0	0.333333
502	0	0.333333
503	0	0.333333
504	0	0.333333
505	0	0.333333
506	0	0.333333
507	0	0.333333
508	0	0.333333
509	0	0.333333
510	0	0.333333
511	0	0.333333
512	0	0.333333
513	0	0.333333
514	0	0.333333
515	0	0.333333
516	0	0.333333
517	0	0.333333
518	0	0.333333
519	0	0.333333
520	0	0.333333
521	0	0.333333
522	0	0.333333
523	0	0.333333
524	0	0.333333
525	0	0.333333
526	0	0.333333
527	0	0.333333
528	0	0.333333
529	0	0.333333
530	0	0.333333
531	0	0.333333
532	0	0.333333
533	0	0.333333
534	0	0.333333
535	0	0.333333
536	0	0.333333
537	0	0.333333
538	0	0.333333
539	0	0.333333
540	0	0.333333
541	0	0.333333
542	0	0.333333
543	0	0.333333
544	0	0.333333
545	0	0.333333
546	0	0.333333
547	0	0.333333
548	0	0.333333
549	0	0.333333
550	0	0.333333
551	0	0.333333
552	0	0.333333
553	0	0.333333
554	0	0.333333
555	0	0.333333
556	0	0.333333
557	0	0.333333
558	0	0.333333
559	0	0.333333
560	0	0.333333
561	0	0.333333
562	0	0.333333
563	0	0.333333
564	0	0.333333
565	0	0.333333
566	0	0.333333
567	0	0.333333
568	0	0.333333
569	0	0.333333
570	0	0.333333
571	0	0.333333
572	0	0.333333
573	0	0.333333
574	0	0.333333
575	0	0.333333
576	0	0.333333
577	0	0.333333
578	0	0.333333
579	0	0.333333
580	0	0.333333
581	0	0.333333
582	0	0.333333
583	0	0.333333
584	0	0.333333
585	0	0.333333
586	0	0.333333
587	0	0.333333
588	0	0.333333
589	0	0.333333
590	0	0.333333
591	0	0.333333
592	0	0.333333
593	0	0.333333
594	0	0.333333
595	0	0.333333
596	0	0.333333
597	0	0.333333
598	0	0.333333
599	0	0.333333
600	0	0.333333
601	0	0.333333
602	0	0.333333
603	0	0.333333
604	0	0.333333
605	0	0.333333
606	0	0.333333
607	0	0.333333
608	0	0.333333
609	0	0.333333
610	0	0.333333
611	0	0.333333
612	0	0.333333
613	0	0.333333
614	0	0.333333
615	0	0.333333
616	0	0.166667
617	0	0.166667
618	0	0.166667
619	0	0.133333
620	0	0.133333
621	0	0.4
622	0	0.4
623	0	0.47619
624	0	0.47619
625	0	0.47619
626	0	0.47619
627	0	0.714286
628	0	1
629	0	1
630	0	1
631	0	1
632	0	1
633	0	0.819048
634	0	0.84058
635	0	0.773333
636	0	0.918221
637	0	0.904684
638	0	0.894957
639	0	0.897354
640	0	0.917633
641	0	0.91065
642	0	0.91065
643	0	0.903124
644	0	0.903158
645	0	0.918305
646	0	0.910685
647	0	0.918305
648	0	1
649	0	1
650	0	1
651	0	1
652	0	1
653	0	1
654	0	1
655	0	0.910685
656	0	0.910685
657	0	0.910685
658	0	0.910685
659	0	0.910719
660	0	0.903193
661	0	0.888484
662	0	0.888484
663	0	0.888484
664	0	0.888484
665	0	0.881265
666	0	0.881265
667	0	0.881265
668	0	0.888518
669	0	0.888518
670	0	0.895861
671	0	0.888518
672	0	0.895511
673	0	0.895511
674	0	0.895511
675	0	0.895511
676	0	0.895511
677	0	0.895511
678	0	0.841113
679	0	0.83361
680	0	0.789557
681	0	0
682	0	0
683	0	0
684	0	0
685	0	0
686	0	0
687	0	0
688	0	0
689	0	0
690	0	0
691	0	0
692	0	0
693	0	0
694	0	0
695	0	0
696	0	0
697	0	0
698	0	0
699	0	0
700	0	0
701	0	0
702	0	0
703	0	0
704	0	0
705	0	0
706	0	0
707	0	0
708	0	0
709	0	0
710	0	0
711	0	0
712	0	0
713	0	0
714	0	0
715	0	0
716	0	0
717	0	0
718	0	0
719	0	0
720	0	0
721	0	0
722	0	0
723	0	0
724	0	0.0833333
725	0	0.0666667
726	0	0.22807
727	0	0.235887
728	0	0.131907
729	0	0.135266
730	0	0.106939
731	0	0.106939
732	0	0.0987934
733	0	0.11991
734	0	0.174576
735	0	0.15873
736	0	0.164187
737	0	0.155586
738	0	0.142314
739	0	0.156238
740	0	0.248296
741	0	0.247971
742	0	0.227446
743	0	0.182574
744	0	0.156448
745	0	0.138057
746	0	0.117325
747	0	0.106935
748	0	0.102283
749	0	0.111501
750	0	0.0922729
751	0	0.0864717
752	0	0.0815372
753	0	0.0840423
754	0	0.100248
755	0	0.129462
756	0	0.195781
757	0	0.198233
758	0	0.214172
759	0	0.221197
760	0	0.226686
761	0	0.333333
762	0	0.314727
763	0	0.329868
764	0	0.343764
765	0	0.373882
766	0	0
767	0	0
768	0	0
769	0	0
770	0	0
771	0	0
772	0	0
773	0	0.333333
774	0	0.333333
775	0	0.333333
776	0	0.333333
777	0	0.0879121
778	0	0.105263
779	0	0.155172
780	0	0.138258
781	0	0.12437
782	0	0.11746
783	0	0.106686
784	0	0.136471
785	0	0.152395
786	0	0.159652
787	0	0.186583
788	0	0.240391
789	0	0.678788
790	0	0.801948
791	0	0.831818
792	0	0.896753
793	0	1
794	0	0.971014
795	0	1
796	0	1
797	0	1
798	1	1
799	1	1
800	1	1
801	1	1
802	1	1
803	1	1
804	0	1
805	0	1
806	0	1
807	0	1
808	1	1
809	1	1
810	1	1
811	1	1
812	1	1
813	1	1
814	1	1
815	0	0.99187
816	0	0.99187
817	0	0.983773
818	0	0
819	0	0
820	0	0
821	0	0
822	0	0
823	1	0
824	1	0
825	1	0
826	1	0
827	1	0
828	1	0
829	1	0
830	1	0
831	1	0
832	1	0
833	1	0
834	1	0
835	1	0
836	1	0
837	1	0
838	1	0
839	1	0
840	1	0
841	1	0
842	1	0
843	1	0
844	1	0
845	1	0
846	1	0
847	1	0
848	0	0
849	0	0
850	0	0.975709
851	0	0
852	0	0.983707
853	0	0
854	0	0
855	1	0
856	1	0
857	1	0
858	1	0
859	1	0
860	1	0
861	1	0
862	1	0
863	1	0
864	1	0
865	1	0
866	1	0
867	1	0
868	0	0
869	0	0
870	0	0
871	0	0.333333
872	0	0.333333
873	0	0.99187
874	0	0.99187
875	0	0.991903
876	0	0.991837
877	0	1
878	0	1
879	0	1
880	0	1
881	0	1
882	0	1
883	0	1
884	0	1
885	0	0.991903
886	0	0.991903
887	0	0.991903
888	0	0.991903
889	0	0.991903
890	0	0.991903
891	0	0.991903
892	0	1
893	0	0.983936
894	0	0.983936
895	0	0.983936
896	0	0.983936
897	0	0.983936
898	0	0.983936
899	0	0.983936
900	0	0.983936
901	0	0.983936
902	0	0.97584
903	0	0.97584
904	0	0.97584
905	0	0.97584
906	0	0.97584
907	0	0.97584
908	0	0.975937
909	0	0.975937
910	0	0.975937
911	0	0.975937
912	0	0.975937
913	0	0.975937
914	0	0.975937
915	0	0.975937
916	0	0.975937
917	0	0.975937
918	0	0.975937
919	0	0.975937
920	0	0.975937
921	0	0.975937
922	0	0.968098
923	0	0.968098
924	0	0.968098
925	0	0.968098
926	1	1
927	1	1
928	0	0.983968
929	0	0.991968
930	0	0.991968
931	0	0.991968
932	0	1
933	0	1
934	0	1
935	0	1
936	0	1
937	0	1
938	1	1
939	1	1
940	0	1
941	0	1
942	0	0.584271
943	0	0.584271
944	0	0.584271
945	0	0.584271
946	0	0
947	0	0
948	0	0
949	0	0
950	0	0
951	0	0
952	0	0
953	0	0
954	0	0
955	0	0
956	0	0
957	1	0
958	1	0
959	1	0
960	1	0
961	1	0
962	1	0
963	1	0
964	1	0
965	1	0
966	1	0
967	1	0
968	1	0
969	1	0
970	1	0
971	1	0
972	1	0
973	1	0
974	1	0
975	0	0
976	0	0
977	0	0
978	0	0
979	0	0
980	0	0
981	0	0
982	0	0
983	0	0
984	0	0
985	0	0
986	1	1
987	1	1
988	0	0.333333
989	0	0.333333
990	0	0.333333
991	1	1
992	1	1
993	0	1
994	0	1
995	0	1
996	0	1
997	1	1
998	1	1
999	1	1
1000	1	1
1001	1	1
1002	1	1
1003	0	0.991935
1004	0	0.991903
1005	0	1
1006	0	1
1007	0	1
1008	0	1
1009	0	1
1010	0	1
1011	0	1
1012	1	1
1013	1	1
1014	0	0.991903
1015	0	0.991903
1016	0	0
1017	0	0.991935
1018	1	1
1019	1	1
1020	1	1
1021	0	0.991935
1022	0	0.991935
1023	0	0
1024	0	0
1025	1	1
1026	1	1
1027	1	1
1028	1	1
1029	1	1
1030	0	1
1031	0	1
1032	0	1
1033	0	1
1034	0	1
1035	0	1
1036	0	1
1037	0	1
1038	0	1
1039	0	1
1040	0	1
1041	0	1
1042	0	1
1043	1	1
1044	1	1
1045	1	1
1046	1	1
1047	1	1
1048	1	1
1049	1	1
1050	1	1
1051	1	1
1052	1	1
1053	1	1
1054	1	1
1055	1	1
1056	1	1
1057	1	1
1058	1	1
1059	1	1
1060	1	1
1061	1	1
1062	1	1
1063	1	1
1064	1	1
1065	1	1
1066	1	1
1067	1	1
1068	1	1
1069	1	1
1070	1	1
1071	0	0
1072	0	0
1073	0	0.991968
1074	0	0
1075	0	0
1076	0	0
1077	0	0
1078	0	0
1079	0	0
1080	0	0
1081	0	0
1082	0	0
1083	0	0
1084	0	0
1085	0	0
1086	0	0
1087	0	0
1088	0	0
1089	0	0
1090	0	0
1091	0	0
1092	0	0
1093	0	0
1094	0	0.1
1095	0	0.941949
1096	0	0.941949
1097	0	0.913574
1098	0	0.390476
1099	0	0.320261
1100	0	0.131868
1101	0	0.153846
1102	0	0.242424
1103	0	0.205128
1104	0	0.205128
1105	0	0.257576
1106	0	0.218182
1107	0	0.558136
1108	0	0.559528
1109	0	0
1110	0	0
1111	0	0
1112	0	0
1113	0	0
1114	0	0
1115	0	0
1116	0	0
1117	0	0
1118	0	0
1119	0	0
1120	0	0
1121	0	0
1122	0	0
1123	0	0
1124	0	0
1125	0	0
1126	0	0
1127	0	0
1128	0	0
1129	0	0
1130	0	0.6
1131	0	0.4
1132	0	0.25
1133	0	0.25
1134	0	0.699256
1135	0	0.166667
1136	0	0.166667
1137	0	0.166667
1138	0	0
1139	0	0
1140	0	0
1141	0	0
1142	0	0
1143	0	0.333333
1144	0	0.333333
1145	0	0.333333
1146	0	0.333333
1147	0	0.333333
1148	0	0.333333
1149	0	0.333333
1150	0	0.333333
1151	0	0.2
1152	0	0.2
1153	0	0.428571
1154	0	0.428571
1155	0	0.884727
1156	0	1
1157	0	1
1158	0	1
1159	1	1
1160	1	1
1161	1	1
1162	1	1
1163	1	1
1164	1	1
1165	1	1
1166	1	1
1167	1	1
1168	1	1
1169	1	1
1170	1	1
1171	1	1
1172	1	1
1173	1	1
1174	1	1
1175	1	1
1176	1	1
1177	1	1
1178	1	1
1179	1	1
1180	1	1
1181	1	1
1182	1	1
1183	1	1
1184	1	1
1185	1	1
1186	1	1
1187	1	1
1188	1	1
1189	1	1
1190	1	1
1191	1	1
1192	1	1
1193	1	1
1194	1	1
1195	1	1
1196	1	1
1197	1	1
1198	1	1
1199	1	1
1200	1	1
1201	1	1
1202	1	1
1203	1	1
1204	1	1
1205	1	1
1206	0	0.976129
1207	0	1
1208	0	1
1209	0	1
1210	0	0.5
1211	0	0.5
1212	0	0.5
1213	0	0.5
1214	0	0.5
1215	0	0.5
1216	0	0.5
1217	0	0.5
1218	0	0.266667
1219	0	0.133333
1220	0	0.177778
1221	0	0.889805
1222	0	0.869866
1223	0	0.866245
1224	0	0.683302
1225	0	0.6723
1226	0	0.534144
1227	0	0.520614
1228	0	0.451266
1229	0	0.308691
1230	0	0.335465
1231	0	0.227855
1232	0	0.252484
1233	0	0.20108
1234	0	0.278325
1235	0	0.25977
1236	0	0.227586
1237	0	0.243386
1238	0	0.25641
1239	0	0.293333
1240	0	0.278986
1241	0	0.329004
1242	0	0.277778
1243	0	0.277778
1244	0	0.357143
1245	0	0.357143
1246	0	0.357143
1247	0	0.357143
1248	0	0.357143
1249	0	0.333333
1250	0	0.175136
1251	0	0.182022
1252	0	0.391318
1253	0	0.509043
1254	0	0.622265
1255	0	0.690813
1256	0	0.690813
1257	0	0.308046
1258	0	0.27619
1259	0	0.047619
1260	0	0.047619
1261	0	0.047619
1262	0	0.0666667
1263	0	0.1
1264	0	0.1
1265	0	0.1
1266	0	0.166667
1267	0	0.333333
1268	0	0.333333
1269	0	0.333333
1270	0	0.333333
1271	0	0.943433
1272	0	0
1273	0	0
1274	0	0
1275	0	0
1276	0	0
1277	0	0
1278	0	0
1279	0	1
1280	0	1
1281	0	1
1282	0	1
1283	0	1
1284	1	1
1285	1	1
1286	1	1
1287	1	1
1288	1	1
1289	1	1
1290	0	1
1291	0	1
1292	0	0.984001
1293	0	0.984001
1294	0	0.559165
1295	0	0.453724
1296	0	0.509804
1297	0	0.483677
1298	0	0.483677
1299	0	0.776918
1300	0	1
1301	1	1
1302	1	1
1303	1	1
1304	1	1
1305	1	1
1306	1	1
1307	1	1
1308	0	1
1309	0	0.984001
1310	1	1
1311	1	1
1312	1	1
1313	1	1
1314	1	1
1315	1	1
1316	1	1
1317	1	1
1318	0	1
1319	0	1
1320	0	0.464286
1321	0	0.937071
1322	0	0.937557
1323	0	0.921654
1324	0	1
1325	0	1
1326	0	1
1327	1	1
1328	1	1
1329	1	1
1330	1	1
1331	0	0.766667
1332	0	0.504275
1333	0	0.238095
1334	0	1
1335	0	0.51587
1336	1	1
1337	1	1
1338	1	1
1339	1	1
1340	1	1
1341	1	1
1342	1	1
1343	0	0.968036
1344	0	1
1345	0	1
1346	1	1
1347	1	1
1348	1	1
1349	1	1
1350	1	1
1351	1	1
1352	1	1
1353	0	1
1354	0	0.937557
1355	0	0.937557
1356	0	0.8
1357	0	0.520404
1358	0	0.899339
1359	0	0.937557
1360	1	1
1361	1	1
1362	1	1
1363	1	1
1364	1	1
1365	1	1
1366	1	1
1367	1	1
1368	1	1
1369	1	1
1370	1	1
1371	1	1
1372	1	1
1373	1	1
1374	0	1
1375	0	1
1376	0	1
1377	0	1
1378	0	0.899339
1379	0	1
1380	0	1
1381	0	1
1382	0	1
1383	0	1
1384	0	1
1385	0	1
1386	0	1
1387	0	1
1388	0	1
1389	0	0.861802
1390	0	0.861802
1391	0	0.854385
1392	0	0.853997
1393	0	0.83926
1394	0	0.795958
1395	0	0.630198
1396	0	0
1397	0	0
1398	0	0.580882
1399	0	0.580882
1400	0	0
1401	0	0
1402	0	0.166667
1403	0	0.0666667
1404	0	0.0714286
1405	0	0.0714286
1406	0	0.0444444
1407	0	0.125
1408	0	0.125
1409	0	0.166667
1410	0	0.45443
1411	0	0.405322
1412	0	0.355471
1413	0	0.28303
1414	0	0.254267
1415	0	0.286975
1416	0	0.762794
1417	0	0.835021
1418	0	0.913166
1419	0	0.901554
1420	0	0.804338
1421	0	0.943203
1422	0	0.952358
1423	0	0.333333
1424	0	0.333333
1425	0	0.983871
1426	0	0.984001
1427	0	1
1428	1	1
1429	1	1
1430	1	1
1431	1	1
1432	1	1
1433	1	1
1434	1	1
1435	1	1
1436	1	1
1437	1	1
1438	1	1
1439	1	1
1440	0	0.893445
1441	0	1
1442	1	1
1443	1	1
1444	1	1
1445	1	1
1446	1	1
1447	1	1
1448	1	1
1449	1	1
1450	1	1
1451	1	1
1452	1	1
1453	1	1
1454	1	1
1455	1	1
1456	0	0
1457	0	0
1458	0	0
1459	0	0
1460	0	0
1461	0	0
1462	0	0
1463	0	0
1464	0	0
1465	0	0
1466	0	0
1467	0	0
1468	0	0
1469	0	0
1470	0	0
1471	0	0
1472	0	0
1473	0	0
1474	0	0
1475	0	0
1476	0	0
1477	0	0
1478	0	0
1479	0	0
1480	0	0
1481	0	0
1482	0	0.166667
1483	0	0.166667
1484	0	0.1
1485	0	0.1
1486	0	0.1
1487	0	0.1
1488	0	0.1
1489	0	0.244444
1490	0	0.179487
1491	0	0.179487
1492	0	0.179487
1493	0	0.179487
1494	0	0.153846
1495	0	0.153846
1496	0	0.110294
1497	0	0.1
1498	0	0.102564
1499	0	0.091133
1500	0	0.0795699
1501	0	0.0719697
1502	0	0.0719697
1503	0	0.0677362
1504	0	0.144042
1505	0	0.167806
1506	0	0.146473
1507	0	0.128942
1508	0	0.122969
1509	0	0.113927
1510	0	0.100489
1511	0	0.113642
1512	0	0.134262
1513	0	0.124677
1514	0	0.123653
1515	0	0.156911
1516	0	0.273141
1517	0	0.303717
1518	0	0.28451
1519	0	0.311372
1520	0	0.227273
1521	0	0.227273
1522	0	0.227273
1523	0	0.192308
1524	0	0.192308
1525	0	0.164835
1526	0	0.164835
1527	0	0.175824
1528	0	0.175824
1529	0	0.175824
1530	0	0.152381
1531	0	0.152381
1532	0	0.0952381
1533	0	0.0952381
1534	0	0.0952381
1535	0	0.0952381
1536	0	0.108333
1537	0	0.108333
1538	0	0.125
1539	0	0.139706
1540	0	0.233766
1541	0	0.307692
1542	0	0.372414
1543	0	0.563864
1544	0	0.729985
1545	0	0.679104
1546	0	0.713605
1547	0	0.2
1548	0	0.047619
1549	0	0.047619
1550	0	0.047619
1551	0	0.047619
1552	0	0.047619
1553	0	0.047619
1554	0	0.047619
1555	0	0.047619
1556	0	0.047619
1557	0	0.047619
1558	0	0.047619
1559	0	0.047619
1560	0	0.047619
1561	0	0.047619
1562	0	0.047619
1563	0	0.0714286
1564	0	0.57197
1565	0	0.592699
1566	0	0.579251
1567	0	0.672239
1568	0	0.2
1569	0	0.2
1570	0	0.2
1571	0	0.2
1572	0	0.2
1573	0	0.2
1574	0	0.133333
1575	0	0.133333
1576	0	0.133333
1577	0	0.0952381
1578	0	0.0952381
1579	0	0.0833333
1580	0	0.0833333
1581	0	0.673575
1582	0	0.431148
1583	0	0.214772
1584	0	0.188096
1585	0	0.363409
1586	0	0.327839
1587	0	0.37411
1588	0	0.405372
1589	0	0.29301
1590	0	0
1591	0	0
1592	0	0
1593	0	0
1594	0	0
1595	0	0
1596	0	0
1597	0	0
1598	0	0
1599	0	0
1600	0	0
1601	0	0
1602	0	0
1603	0	0
1604	0	0
1605	0	0
1606	0	0
1607	0	0
1608	0	0
1609	0	0
1610	0	0
1611	0	0
1612	0	0
1613	0	0
1614	0	0
1615	0	0
1616	0	0
1617	0	0
1618	0	0
1619	0	0
1620	0	0
1621	0	0
1622	0	0
1623	0	0
1624	0	0
1625	0	0
1626	0	0
1627	0	0
1628	0	0
1629	0	0
1630	0	0
1631	0	0
1632	0	0
1633	0	0
1634	0	0
1635	0	0
1636	0	0
1637	0	0
1638	0	0
1639	0	0
1640	0	0
1641	0	0
1642	0	0
1643	0	0
1644	0	0
1645	0	0
1646	0	0
1647	0	0
1648	0	0
1649	0	0
1650	0	0.166667
1651	0	0.166667
1652	0	0.166667
1653	0	0.166667
1654	0	0.166667
1655	0	0.166667
1656	0	0.166667
1657	0	0.166667
1658	0	0.166667
1659	0	0.166667
1660	0	0.166667
1661	0	0.166667
1662	0	0.166667
1663	0	0.166667
1664	0	0.166667
1665	0	0.166667
1666	0	0.166667
1667	0	0.166667
1668	0	0.166667
1669	0	0.166667
1670	0	0.166667
1671	0	0.166667
1672	0	0.1
1673	0	0.1
1674	0	0.2
1675	0	0.2
1676	0	0.2
1677	0	0.2
1678	0	0.2
1679	0	0.2
1680	0	0.2
1681	0	0.2
1682	0	0.2
1683	0	0.2
1684	0	0.2
1685	0	0.2
1686	0	0.2
1687	0	0.2
1688	0	0.2
1689	0	0.2
1690	0	0.1
1691	0	0.1
1692	0	0.2
1693	0	0.2
1694	0	0.2
1695	0	0.2
1696	0	0.2
1697	0	0.2
1698	0	0.2
1699	0	0.266667
1700	0	0.2
1701	0	0.2
1702	0	0.2
1703	0	0.2
1704	0	0.466667
1705	0	0.4
1706	0	0.285714
1707	0	0.285714
1708	0	0.357143
1709	0	0.535714
1710	0	0.583333
1711	0	0.583333
1712	0	0.43956
1713	0	0.397661
1714	0	0.4329
1715	0	0.403162
1716	0	0.662352
1717	0	1
1718	1	1
1719	1	1
1720	1	1
1721	1	1
1722	1	1
1723	1	1
1724	1	1
1725	1	1
1726	1	1
1727	1	1
1728	1	1
1729	1	1
1730	1	1
1731	1	1
1732	1	1
1733	1	1
1734	1	1
1735	1	1
1736	1	1
1737	1	1
1738	0	1
1739	0	1
1740	0	1
1741	0	1
1742	0	1
1743	0	1
1744	0	1
1745	0	0.959814
1746	0	0.952042
1747	0	0.79085
1748	0	0.838562
1749	0	0.837317
1750	0	0.666667
1751	0	0.666667
1752	0	0.666667
1753	0	0.666667
1754	0	0.333333
1755	0	0.333333
1756	0	0.333333
1757	0	0.333333
1758	0	0.333333
1759	0	0.333333
1760	0	0.333333
1761	1	1
1762	1	1
1763	1	1
1764	0	0.782258
1765	0	0.788592
1766	0	0.787809
1767	0	0.673632
1768	0	0.758402
1769	0	0
1770	0	0
1771	0	0
1772	0	0
1773	0	0.166667
1774	0	0.1
1775	0	0.0666667
1776	0	0.133333
1777	0	0.0952381
1778	0	0.799418
1779	0	0.800597
1780	0	0
1781	0	0
1782	0	0
1783	0	0
1784	0	0
1785	0	0
1786	0	0
1787	0	0
1788	0	0
1789	0	0
1790	0	0
1791	0	0
1792	0	0
1793	0	0
1794	0	0
1795	0	0.5
1796	0	0.5
1797	0	1
1798	0	1
1799	0	1
1800	0	1
1801	0	1
1802	0	1
1803	0	0.991667
1804	1	1
1805	1	1
1806	0	0.992
1807	0	0.992
1808	1	1
1809	1	1
1810	1	1
1811	1	1
1812	1	1
1813	1	1
1814	1	1
1815	1	1
1816	1	1
1817	1	1
1818	1	1
1819	1	1
1820	1	1
1821	1	1
1822	1	1
1823	1	1
1824	1	1
1825	1	1
1826	0	1
1827	1	1
1828	1	0
