Site	ColumnScore	SumOfPairsScore
1	1	0
2	1	0
3	1	0
4	1	0
5	1	0
6	1	0
7	1	0
8	1	0
9	1	0
10	1	0
11	1	0
12	1	0
13	1	0
14	1	0
15	1	0
16	1	0
17	1	0
18	1	0
19	1	0
20	1	0
21	1	0
22	1	0
23	1	0
24	1	0
25	1	0
26	1	0
27	1	0
28	1	0
29	1	0
30	1	0
31	1	0
32	1	0
33	1	0
34	1	0
35	1	0
36	1	0
37	1	0
38	1	0
39	1	0
40	1	0
41	1	0
42	1	0
43	1	0
44	1	0
45	1	0
46	1	0
47	1	0
48	1	0
49	1	0
50	1	0
51	1	0
52	1	0
53	1	0
54	1	0
55	1	0
56	1	0
57	1	0
58	1	0
59	1	0
60	1	0
61	1	0
62	1	0
63	1	0
64	1	0
65	1	0
66	1	0
67	1	0
68	1	0
69	1	0
70	1	0
71	1	0
72	1	0
73	1	0
74	1	0
75	1	0
76	1	0
77	1	0
78	1	0
79	1	0
80	1	0
81	1	0
82	1	0
83	1	0
84	1	0
85	1	0
86	1	0
87	1	0
88	1	0
89	1	0
90	1	0
91	1	0
92	1	0
93	1	0
94	1	0
95	1	0
96	1	0
97	1	0
98	1	0
99	1	0
100	1	0
101	1	0
102	1	0
103	1	0
104	1	0
105	1	0
106	1	0
107	1	0
108	1	0
109	1	0
110	1	0
111	1	0
112	1	0
113	1	0
114	1	0
115	1	0
116	1	0
117	1	0
118	1	0
119	1	0
120	1	0
121	1	0
122	1	0
123	1	0
124	1	0
125	1	0
126	1	0
127	1	0
128	1	0
129	1	0
130	1	0
131	1	0
132	1	0
133	1	0
134	1	0
135	1	0
136	1	0
137	1	0
138	1	0
139	1	0
140	1	0
141	1	0
142	1	0
143	1	0
144	1	0
145	1	0
146	1	0
147	1	0
148	1	0
149	1	0
150	1	0
151	1	0
152	1	0
153	1	0
154	1	0
155	1	0
156	1	0
157	1	0
158	1	0
159	1	0
160	1	0
161	1	0
162	1	0
163	1	0
164	1	0
165	1	0
166	1	0
167	1	0
168	1	0
169	1	0
170	1	0
171	1	0
172	1	0
173	1	0
174	1	0
175	1	0
176	1	0
177	1	0
178	1	0
179	1	0
180	1	0
181	1	0
182	1	0
183	1	0
184	1	0
185	1	0
186	1	0
187	1	0
188	1	0
189	1	0
190	1	0
191	1	0
192	1	0
193	0	0
194	0	0
195	0	0
196	0	0
197	0	0
198	0	0
199	0	0
200	0	0
201	0	0
202	0	0
203	0	0
204	0	0
205	0	0
206	0	0
207	0	0
208	0	0
209	0	0
210	0	0
211	0	0
212	0	0
213	0	0
214	0	0
215	0	0
216	0	0
217	0	0
218	0	0
219	0	0
220	0	0
221	0	0
222	0	0
223	0	0
224	0	0
225	0	0
226	0	0.508313
227	0	0.508313
228	0	0.491555
229	0	0.48077
230	0	0.346154
231	0	0.397436
232	0	0.295726
233	0	0.278869
234	0	0.177724
235	0	0
236	0	0
237	0	0
238	0	0
239	0	0
240	0	0
241	0	0.147821
242	0	0.137182
243	0	0.212121
244	0	0.181818
245	0	0.190476
246	0	0.1
247	0	0
248	0	0
249	0	0
250	0	0
251	0	0
252	0	0.0875225
253	0	0.0836015
254	0	0.0740542
255	0	0.0875706
256	0	0.0779518
257	0	0.0817064
258	0	0
259	0	0.142857
260	0	0.142857
261	0	0.0952381
262	0	0
263	0	0
264	0	0.573529
265	0	0.51634
266	0	0.415789
267	0	0.0999471
268	0	0.0680653
269	0	0.0691995
270	0	0.0736597
271	0	0.0797814
272	0	0
273	0	0
274	0	0
275	0	0.142857
276	0	0.0555556
277	0	0.0444444
278	0	0.0659341
279	0	0.0593703
280	0	0.0568072
281	0	0.0494435
282	0	0.0426846
283	0	0.0466981
284	0	0.0541644
285	0	0.0637186
286	0	0.0668844
287	0	0.0817929
288	0	0.113333
289	0	0.12
290	0	0.0766351
291	0	0.0741219
292	0	0.106269
293	0	0.114365
294	0	0.214286
295	0	0.214286
296	0	0.138998
297	0	0.163498
298	0	0.138864
299	0	0.111162
300	0	0.0951505
301	0	0
302	0	0
303	0	0
304	0	0
305	0	0
306	0	0
307	0	0
308	0	0.0989104
309	0	0.0948617
310	0	0.142857
311	0	0.164502
312	0	0.198413
313	0	0.195767
314	0	0.126672
315	0	0.135544
316	0	0.0823488
317	0	0.110739
318	0	0.239524
319	0	0.244969
320	0	0.121053
321	0	0.210526
322	0	0.3
323	0	0.320012
324	0	0.324737
325	0	0.218648
326	0	0.150997
327	0	0.157895
328	0	0.166667
329	0	0.047619
330	0	0.0666667
331	0	0
332	0	0
333	0	0
334	0	0
335	0	0
336	0	0.622222
337	0	0.622222
338	0	0.622222
339	0	0.622222
340	0	0.622222
341	0	0
342	0	0
343	0	0
344	0	0
345	0	0
346	0	0.438499
347	0	0.439454
348	0	0.4518
349	0	0.456579
350	0	0.444732
351	0	0.802068
352	0	0.914318
353	0	0.870815
354	0	0.870815
355	0	0.871784
356	0	0.96033
357	0	0.96033
358	0	1
359	0	1
360	0	0.893847
361	1	1
362	1	1
363	1	1
364	1	1
365	1	1
366	1	1
367	0	0.976193
368	0	0.976193
369	0	0.976193
370	0	1
371	0	1
372	0	1
373	0	1
374	0	1
375	0	0.922594
376	0	0.915213
377	0	0.915213
378	0	1
379	0	0.900635
380	0	0.992
381	0	0.991968
382	0	0.992
383	1	1
384	1	1
385	1	1
386	1	1
387	0	0
388	0	0.992
389	0	0.992
390	1	1
391	1	1
392	1	1
393	1	1
394	1	1
395	1	1
396	1	1
397	1	1
398	1	1
399	1	1
400	1	1
401	1	1
402	1	1
403	1	1
404	1	1
405	0	0.910018
406	0	0.991071
407	0	1
408	0	0.992
409	1	1
410	1	1
411	1	1
412	1	1
413	1	1
414	1	1
415	1	1
416	1	1
417	1	1
418	1	1
419	1	1
420	1	1
421	1	1
422	1	1
423	1	1
424	1	1
425	1	1
426	1	1
427	1	1
428	1	1
429	1	1
430	1	1
431	0	0.992
432	0	0
433	1	1
434	1	1
435	1	1
436	1	1
437	0	1
438	1	1
439	1	1
440	1	1
441	1	1
442	1	1
443	1	1
444	1	1
445	1	1
446	1	1
447	1	1
448	1	1
449	1	1
450	1	1
451	1	1
452	1	1
453	1	1
454	1	1
455	1	1
456	1	1
457	1	1
458	1	1
459	1	1
460	1	1
461	1	1
462	1	1
463	1	1
464	0	0.541667
465	0	1
466	0	1
467	0	0.5
468	0	0.345455
469	0	0.454545
470	1	1
471	1	1
472	1	1
473	1	1
474	0	0.968386
475	1	1
476	1	1
477	1	1
478	1	1
479	1	1
480	1	1
481	1	1
482	1	1
483	1	1
484	1	1
485	1	1
486	1	1
487	1	1
488	1	1
489	1	1
490	1	1
491	1	1
492	1	1
493	1	1
494	1	1
495	1	1
496	1	1
497	1	1
498	1	1
499	1	1
500	1	1
501	1	1
502	1	1
503	1	1
504	1	1
505	1	1
506	1	1
507	1	1
508	1	1
509	1	1
510	1	1
511	1	1
512	1	1
513	1	1
514	1	1
515	1	1
516	1	0
517	1	0
518	1	0
519	1	1
520	1	1
521	1	1
522	1	1
523	1	1
524	1	1
525	1	1
526	1	1
527	1	1
528	1	1
529	1	1
530	1	1
531	1	1
532	1	1
533	1	1
534	1	1
535	1	1
536	1	1
537	1	1
538	1	1
539	1	1
540	1	1
541	1	1
542	1	1
543	1	1
544	1	1
545	1	1
546	1	1
547	1	1
548	1	1
549	1	1
550	1	1
551	1	1
552	1	1
553	1	1
554	1	1
555	1	1
556	1	1
557	1	1
558	1	1
559	1	1
560	1	1
561	1	1
562	1	1
563	1	1
564	1	1
565	1	1
566	1	1
567	1	1
568	1	0
569	1	0
570	1	0
571	1	0
572	1	0
573	1	0
574	1	0
575	1	0
576	1	0
577	1	0
578	1	0
579	1	0
580	1	0
581	1	0
582	1	0
583	1	0
584	1	0
585	1	1
586	1	1
587	0	0
588	1	0
589	1	0
590	1	0
591	1	0
592	0	0.992
593	1	1
594	1	1
595	1	1
596	1	1
597	1	1
598	1	1
599	1	1
600	1	1
601	1	1
602	1	1
603	1	1
604	1	1
605	1	1
606	1	1
607	1	1
608	1	1
609	1	1
610	1	1
611	1	1
612	1	1
613	1	1
614	1	1
615	1	1
616	1	1
617	1	1
618	1	1
619	1	1
620	1	1
621	1	1
622	1	1
623	1	1
624	1	1
625	1	1
626	1	1
627	1	1
628	1	1
629	1	1
630	1	1
631	1	1
632	1	1
633	1	1
634	1	1
635	1	1
636	1	1
637	1	1
638	1	1
639	1	1
640	1	1
641	1	1
642	0	1
643	1	1
644	1	1
645	0	0.529412
646	1	1
647	0	0.992
648	0	1
649	0	0.758233
650	0	0.922892
651	0	0.922892
652	0	0.922892
653	0	0.922892
654	0	0.922892
655	0	0.922892
656	0	1
657	0	1
658	0	1
659	1	1
660	1	1
661	1	1
662	1	1
663	1	1
664	1	1
665	1	1
666	1	1
667	1	1
668	0	0.992
669	0	0.992
670	0	0.992
671	0	0.992
672	0	0.992
673	0	0.992
674	0	0.992
675	0	0.992
676	0	0
677	0	0
678	0	0
679	0	0
680	0	0
681	0	0
682	0	0
683	0	0
684	0	0
685	0	0.976001
686	0	0.968098
687	0	0.926391
688	0	0.542105
689	0	0.874901
690	0	0.590909
691	0	0.449915
692	0	0.449915
693	0	0.446496
694	0	0.43652
695	0	0.363747
696	0	0.389577
697	0	0.165392
698	0	0.173416
699	0	0.281267
700	0	0.281887
701	0	0.243771
702	0	0.243703
703	0	0.24269
704	0	0.262563
705	0	0.281251
706	0	0.166667
707	0	0.366527
708	0	0.419048
709	0	0.587156
710	0	0.266667
711	0	0.3
712	0	0.622222
713	0	0.622222
714	0	0.373626
715	0	0.457143
716	0	0.552381
717	0	0.552381
718	0	0.641669
719	0	0.63641
720	0	0.68452
721	0	0.598532
722	0	0.594195
723	0	0.584867
724	0	0.579309
725	0	0
726	0	0
727	0	0
728	0	0
729	0	0
730	0	0
731	0	0
732	0	0
733	0	0
734	0	1
735	0	1
736	0	0.746811
737	0	0.719414
738	0	0.724777
739	0	0.695305
740	0	0.580408
741	0	0.557817
742	0	0.444444
743	0	0.560606
744	0	0.527273
745	0	0.527273
746	0	0.439394
747	0	0.1
748	0	0.1
749	0	0.166667
750	0	0.215385
751	0	0.135135
752	0	0.103557
753	0	0.0936705
754	0	0.0824035
755	0	0.0738113
756	0	0.0754238
757	0	0.0680556
758	0	0.0692232
759	0	0.0619612
760	0	0.145413
761	0	0.333333
762	0	0.166667
763	0	0
764	0	0
765	0	0
766	0	0
767	0	0.166667
768	0	0.216512
769	0	0.222626
770	0	0.238675
771	0	0.138528
772	0	0.138528
773	0	0.283107
774	0	0.29502
775	0	0.296764
776	0	0.6
777	0	0.6
778	0	0.6
779	0	0.6
780	0	1
781	0	0.401899
782	0	0.704319
783	0	0.814118
784	0	0.834542
785	0	0.852463
786	0	1
787	0	1
788	1	1
789	1	1
790	1	1
791	1	1
792	0	0.992
793	1	1
794	0	0.992
795	0	0.992
796	0	0.992
797	0	0.992
798	0	0.992
799	0	0.992
800	0	0.666667
801	0	0.5
802	0	0.95261
803	0	0.95261
804	0	0.9449
805	0	0.944241
806	0	0.913817
807	0	0.5
808	0	0.3
809	0	0.428571
810	0	0.653352
811	0	0.412297
812	0	0.368365
813	0	0.274635
814	0	0.648707
815	0	0.606618
816	0	0.638676
817	0	0.407407
818	0	0.46784
819	0	0.444358
820	0	0.5
821	0	0.5
822	0	1
823	0	0.929244
824	0	0.792959
825	0	0.983773
826	0	0.984001
827	0	0
828	0	0
829	1	1
830	1	1
831	1	1
832	1	1
833	1	1
834	0	0
835	0	0
836	0	0.99187
837	0	0
838	0	0
839	0	0
840	0	0
841	0	0
842	0	0
843	0	0
844	0	0
845	0	0
846	0	0
847	0	0
848	0	0
849	0	0
850	0	0
851	0	0
852	0	0
853	0	0.333333
854	0	1
855	0	1
856	0	1
857	0	1
858	0	1
859	0	1
860	0	1
861	0	1
862	0	1
863	0	1
864	0	1
865	0	1
866	0	1
867	0	1
868	0	1
869	0	1
870	0	1
871	0	1
872	0	1
873	0	1
874	0	1
875	0	1
876	0	1
877	0	1
878	0	1
879	0	1
880	0	1
881	0	1
882	0	1
883	0	1
884	0	1
885	0	1
886	0	1
887	0	1
888	0	1
889	0	1
890	0	1
891	0	1
892	0	1
893	0	1
894	0	1
895	0	1
896	0	1
897	0	1
898	0	1
899	0	1
900	0	1
901	0	1
902	0	1
903	0	1
904	0	1
905	0	1
906	0	1
907	0	1
908	0	1
909	0	1
910	0	1
911	0	1
912	0	1
913	0	1
914	0	1
915	0	1
916	0	1
917	0	1
918	0	1
919	0	1
920	0	1
921	0	1
922	0	1
923	0	1
924	0	1
925	0	1
926	0	1
927	0	1
928	0	1
929	0	1
930	0	1
931	0	1
932	0	1
933	0	1
934	0	1
935	0	1
936	0	1
937	0	1
938	0	1
939	0	1
940	1	1
941	1	1
942	1	1
943	1	1
944	1	1
945	1	1
946	0	1
947	0	1
948	0	1
949	0	1
950	0	1
951	0	1
952	0	1
953	0	1
954	0	1
955	0	1
956	0	1
957	0	1
958	1	1
959	1	1
960	1	1
961	1	1
962	0	1
963	0	1
964	1	1
965	0	1
966	0	1
967	0	1
968	0	1
969	0	1
970	0	1
971	0	1
972	0	1
973	0	1
974	0	1
975	0	1
976	0	1
977	0	1
978	0	1
979	0	1
980	0	1
981	1	1
982	1	1
983	1	1
984	1	1
985	1	1
986	1	1
987	1	1
988	1	1
989	1	1
990	1	1
991	1	1
992	1	1
993	1	1
994	1	1
995	1	1
996	1	1
997	1	1
998	0	0.937189
999	0	0.929168
1000	0	0.921863
1001	0	0.921863
1002	0	0.916519
1003	0	0.911603
1004	0	0.877891
1005	0	0.85064
1006	0	0.590909
1007	0	0.4
1008	0	0.4
1009	0	0.4
1010	0	0.4
1011	0	0.4
1012	0	0.4
1013	0	0.4
1014	0	0.4
1015	0	0.4
1016	0	0.4
1017	0	0.4
1018	0	0.4
1019	0	0.4
1020	0	0.3
1021	0	0.3
1022	0	0.3
1023	0	0.3
1024	0	0.3
1025	0	0.3
1026	0	0.3
1027	0	0.3
1028	0	0.3
1029	0	0.3
1030	0	0.3
1031	0	0.3
1032	0	0.3
1033	0	0.3
1034	0	0.3
1035	0	0.3
1036	0	0.3
1037	0	0.3
1038	0	0.3
1039	0	0.3
1040	0	0.3
1041	0	0.3
1042	0	0.3
1043	0	0.3
1044	0	0.3
1045	0	0
1046	0	0
1047	0	0
1048	0	0
1049	0	0
1050	0	0
1051	0	0
1052	0	0
1053	0	0
1054	0	0
1055	0	0
1056	0	0
1057	0	0
1058	0	0
1059	0	0
1060	0	0
1061	0	0
1062	0	0
1063	0	0
1064	0	0
1065	0	0
1066	0	0
1067	0	0
1068	0	0
1069	0	0
1070	0	0
1071	0	0
1072	0	0
1073	0	0
1074	0	0
1075	0	0
1076	0	0
1077	0	0
1078	0	0
1079	0	0
1080	0	0
1081	0	0
1082	0	0
1083	0	0
1084	0	0
1085	0	0
1086	0	0
1087	0	0
1088	0	0
1089	0	0
1090	0	0
1091	0	0
1092	0	0
1093	0	0
1094	0	0
1095	0	0
1096	0	0
1097	0	0
1098	0	0
1099	0	0
1100	0	0
1101	0	0
1102	0	0
1103	0	0
1104	0	0
1105	0	0
1106	0	0
1107	0	0
1108	0	0
1109	0	0
1110	0	0
1111	0	0
1112	0	0
1113	0	0
1114	0	0
1115	0	0
1116	0	0
1117	0	0
1118	0	0
1119	0	0
1120	0	0
1121	0	0
1122	0	0
1123	0	0
1124	0	0
1125	0	0
1126	0	0
1127	0	0
1128	0	0
1129	0	0
1130	0	0
1131	0	0
1132	0	0
1133	0	0
1134	0	0
1135	0	0
1136	0	0
1137	0	0
1138	0	0
1139	0	0
1140	0	0
1141	0	0
1142	0	0
1143	0	0
1144	0	0
1145	0	0
1146	0	0
1147	0	0
1148	0	0
1149	0	0
1150	0	0
1151	0	0
1152	0	0
1153	0	0
1154	0	0
1155	0	0
1156	0	0
1157	0	0
1158	0	0
1159	0	0
1160	0	0
1161	0	0
1162	0	0
1163	0	0
1164	0	0
1165	0	0
1166	0	0
