Site	ColumnScore	SumOfPairsScore
1	1	1
2	1	1
3	1	1
4	1	1
5	1	1
6	1	1
7	1	1
8	1	1
9	1	1
10	0	1
11	0	0.959556
12	0	0.959881
13	0	0.967748
14	0	1
15	0	0.99187
16	1	1
17	1	1
18	1	1
19	1	1
20	1	1
21	1	1
22	1	1
23	1	1
24	1	1
25	1	1
26	1	1
27	1	1
28	1	1
29	1	1
30	1	1
31	1	1
32	1	1
33	1	1
34	1	1
35	1	1
36	1	1
37	1	1
38	1	1
39	1	1
40	1	1
41	1	1
42	1	1
43	1	1
44	1	1
45	1	1
46	1	1
47	1	1
48	1	1
49	1	1
50	1	1
51	1	1
52	1	1
53	1	1
54	1	1
55	1	1
56	0	1
57	0	0.944307
58	0	0.553273
59	0	1
60	0	1
61	0	0.575393
62	1	1
63	1	1
64	1	1
65	1	1
66	1	1
67	1	1
68	1	1
69	0	0.960172
70	0	1
71	1	1
72	1	1
73	1	1
74	1	1
75	1	1
76	1	1
77	1	1
78	1	1
79	1	1
80	1	1
81	1	1
82	1	1
83	1	1
84	1	1
85	1	1
86	1	1
87	1	1
88	1	1
89	1	1
90	1	1
91	1	1
92	1	1
93	1	1
94	1	1
95	1	1
96	1	1
97	1	1
98	1	1
99	1	1
100	1	1
101	1	1
102	1	1
103	1	1
104	1	1
105	1	1
106	1	1
107	1	1
108	1	1
109	1	1
110	1	1
111	1	1
112	1	1
113	1	1
114	0	0.968006
115	0	0.968006
116	0	0.968006
117	0	0.968006
118	0	1
119	0	1
120	1	1
121	1	1
122	1	1
123	1	1
124	1	1
125	1	1
126	1	1
127	1	1
128	1	1
129	1	1
130	1	1
131	1	1
132	0	1
133	0	1
134	0	1
135	1	1
136	1	1
137	1	1
138	1	1
139	1	1
140	1	1
141	1	1
142	1	1
143	1	1
144	1	1
145	1	1
146	1	1
147	1	1
148	1	1
149	1	1
150	1	1
151	1	1
152	1	1
153	1	1
154	1	1
155	1	1
156	1	1
157	1	1
158	1	1
159	1	1
160	1	1
161	0	0.687524
162	0	1
163	0	1
164	0	0.787213
165	0	0.787213
166	0	0.787213
167	0	0.984001
168	0	1
169	1	1
170	1	1
171	0	0.707864
172	0	1
173	1	1
174	1	1
175	1	1
176	1	1
177	1	1
178	1	1
179	1	1
180	1	1
181	1	1
182	1	1
183	1	1
184	1	1
185	1	1
186	1	1
187	1	1
188	1	0
189	1	0
190	1	0
191	1	1
192	1	1
193	1	1
194	1	1
195	1	1
196	1	1
197	1	1
198	1	1
199	1	1
200	1	1
201	1	1
202	0	1
203	0	0.826361
204	0	0.826361
205	0	0.826361
206	0	0.826361
207	0	0.565391
208	0	0.565391
209	0	0.565391
210	0	0.561925
211	0	0.318986
212	0	0.68112
213	0	0.667352
214	0	0.604055
215	0	0.599203
216	0	0.599203
217	0	0.599203
218	0	0.599203
219	0	0.983193
220	0	0.707864
221	1	1
222	1	1
223	1	1
224	1	1
225	1	1
226	1	1
227	1	1
228	1	1
229	1	1
230	1	1
231	1	1
232	1	1
233	0	0.984001
234	1	1
235	1	1
236	0	1
237	1	1
238	1	1
239	1	1
240	1	1
241	1	1
242	1	1
243	1	1
244	1	1
245	1	1
246	1	1
247	1	1
248	1	1
249	1	1
250	1	1
251	1	1
252	1	1
253	1	1
254	1	1
255	1	1
256	1	1
257	1	1
258	1	1
259	1	1
260	1	1
261	1	1
262	1	1
263	1	1
264	1	1
265	1	1
266	1	1
267	1	1
268	1	1
269	1	1
270	1	1
271	1	1
272	1	1
273	1	1
274	1	1
275	1	1
276	1	1
277	1	1
278	1	1
279	1	1
280	1	0
281	1	1
282	1	1
283	1	1
284	1	1
285	1	1
286	1	1
287	1	1
288	1	1
289	1	1
290	1	1
291	1	1
292	1	1
293	1	1
294	1	1
295	1	1
296	1	1
297	1	1
298	1	1
299	1	1
300	1	1
301	1	1
302	1	1
303	1	1
304	1	1
305	1	1
306	1	1
307	1	1
308	1	1
309	1	1
310	1	1
311	1	1
312	1	1
313	1	1
314	1	1
315	1	1
316	1	1
317	1	1
318	1	1
319	1	1
320	0	1
321	0	0.991968
322	1	1
323	1	1
324	1	1
325	1	1
326	1	1
327	1	1
328	1	1
329	1	1
330	1	1
331	1	1
332	1	1
333	1	1
334	1	1
335	1	1
336	1	1
337	1	1
338	1	1
339	1	1
340	1	1
341	1	1
342	1	1
343	1	1
344	1	1
345	1	1
346	1	1
347	1	1
348	1	1
349	1	1
350	1	1
351	1	1
352	1	1
353	1	1
354	1	1
355	1	1
356	1	1
357	1	1
358	1	1
359	1	1
360	1	1
361	1	1
362	1	1
363	1	1
364	1	1
365	1	1
366	0	0.851665
367	1	1
368	0	1
369	1	1
370	0	0.751652
371	0	1
372	1	1
373	1	1
374	1	1
375	1	1
376	1	1
377	1	1
378	1	1
379	1	1
380	1	1
381	1	1
382	1	1
383	1	1
384	1	1
385	1	1
386	1	1
387	1	1
388	1	1
389	1	1
390	1	1
391	1	1
392	1	1
393	1	1
394	1	1
395	1	1
396	1	1
397	1	1
398	1	1
399	1	1
400	1	1
401	1	1
402	1	1
403	1	1
404	1	1
405	1	1
406	1	1
407	1	1
408	1	1
409	1	1
410	1	1
411	1	1
412	1	1
413	1	1
414	1	1
415	1	1
416	1	1
417	1	1
418	1	1
419	1	1
420	1	1
421	1	1
422	1	1
423	1	1
424	1	1
425	1	1
426	1	1
427	0	0.976098
428	1	0
429	0	1
430	0	0.976098
431	1	1
432	0	0.991667
433	0	0.991968
434	0	0.991968
435	0	1
436	1	1
437	1	1
438	1	1
439	1	1
440	1	1
441	1	1
442	1	1
443	1	1
444	1	1
445	1	1
446	1	1
447	1	1
448	1	1
449	1	1
450	1	1
451	1	1
452	1	1
453	1	1
454	1	1
455	1	1
456	1	1
457	1	1
458	1	1
459	1	1
460	1	1
461	1	1
462	1	1
463	1	1
464	1	1
465	1	1
466	1	1
467	1	1
468	1	1
469	1	1
470	1	1
471	1	1
472	1	1
473	1	1
474	1	1
475	1	1
476	1	1
477	1	1
478	1	1
479	1	1
480	1	1
481	1	1
482	1	1
483	1	1
484	1	1
485	1	1
486	1	1
487	1	1
488	1	1
489	1	1
490	1	1
491	1	1
492	1	1
493	1	1
494	1	1
495	1	1
496	1	1
497	1	1
498	1	1
499	1	1
500	1	1
501	1	1
502	0	1
503	0	1
504	0	1
505	0	0.655797
506	0	0.50796
507	0	0.458988
508	0	0.412632
509	0	0.402257
510	0	0.297348
511	0	0.247141
512	0	0.211783
513	0	0.219005
514	0	0.29816
515	0	0.460788
516	0	0.658462
517	0	0.906399
518	0	0.904776
519	0	0.94465
520	0	0.936844
521	0	0
522	0	0.98364
523	0	0.98364
524	0	0.98364
525	0	0.983573
526	0	0.983437
527	0	0.967316
528	0	0.975309
529	0	0.983437
530	0	0.975309
531	0	0.944118
532	0	0
533	0	0
534	0	0.935742
535	0	0.928103
536	0	1
537	0	0.789174
538	0	0.483483
539	0	0.343564
540	0	0.257661
541	0	0.219963
542	0	0.183173
543	0	0.172795
544	0	0.228206
545	0	0.23091
546	0	0.547859
547	0	0.495565
548	0	0.465449
549	0	0.471018
550	0	0.382069
551	0	0
552	0	0
553	0	0
554	0	0.486345
555	0	0.540139
556	0	0.880726
557	0	0.295238
558	0	0.444444
559	0	0.714286
560	1	1
561	1	1
562	1	1
563	1	1
564	1	1
565	1	1
566	1	1
567	1	1
568	1	1
569	1	1
570	1	1
571	1	1
572	0	0
573	1	0
574	0	0.991968
575	1	1
576	1	1
577	1	1
578	1	1
579	1	1
580	1	1
581	1	1
582	1	1
583	1	1
584	1	1
585	1	1
586	0	0.893847
587	0	0.893847
588	0	0.893847
589	0	0.893847
590	0	0.891803
591	0	0.891803
592	0	0.933678
593	0	0.925425
594	0	0.97436
595	0	0.958717
596	0	0.851717
597	1	1
598	0	1
599	0	1
600	0	1
601	0	1
602	0	1
603	0	0.984064
604	1	1
605	1	1
606	1	1
607	1	1
608	1	1
609	1	1
610	1	1
611	1	1
612	1	1
613	1	1
614	1	1
615	1	1
616	1	1
617	1	1
618	1	1
619	0	1
620	0	1
621	0	0.82684
622	0	0.82684
623	0	0.832019
624	0	0.774233
625	0	0.773622
626	0	0.802087
627	0	0.82188
628	0	0.431373
629	0	0.47619
630	0	0.666667
631	0	0.666667
632	0	0.666667
633	0	0.666667
634	0	0.4
635	0	0.4
636	0	0.4
637	0	0.818336
638	0	0.812594
639	0	0.43245
640	0	0.422747
641	0	0.26791
642	0	0.297662
643	0	0.333333
644	0	0.333333
645	0	0.333333
646	0	0.75
647	0	0.846154
648	0	0.779528
649	0	1
650	0	1
651	0	1
652	0	1
653	1	1
654	1	1
655	1	1
656	1	1
657	1	1
658	1	1
659	1	1
660	1	1
661	1	1
662	1	1
663	1	1
664	1	1
665	1	1
666	1	1
667	1	1
668	1	1
669	1	1
670	1	1
671	1	1
672	1	1
673	1	1
674	1	1
675	1	1
676	1	1
677	1	1
678	1	1
679	1	1
680	1	1
681	1	1
682	0	0
683	0	0.333333
684	0	0.954668
685	0	0.486851
686	0	0.486851
687	0	0.48302
688	0	0.487068
689	0	0.488996
690	0	0.488996
691	0	0.438876
692	0	0.357333
693	0	0.355373
694	0	0.361928
695	0	0
696	0	0.963803
697	0	0.966635
698	0	0.991903
699	0	0.992
700	0	0.992
701	0	0.992
702	0	0.992
703	0	0.992
704	0	0.992
705	0	0.992
706	0	0.984032
707	0	0.701257
708	0	0.701744
709	0	1
710	1	1
711	1	1
712	1	1
713	1	1
714	1	1
715	0	0
716	0	0
717	1	1
718	1	1
719	1	1
720	1	1
721	1	1
722	1	1
723	1	1
724	1	1
725	1	1
726	0	1
727	0	1
728	0	0.684512
729	0	0.604968
730	0	0
731	0	0.406646
732	0	0.560393
733	0	1
734	0	1
735	0	0.486111
736	0	0.908241
737	0	0.908241
738	1	1
739	1	1
740	1	1
741	1	1
742	1	1
743	1	1
744	1	1
745	1	1
746	1	1
747	1	1
748	1	1
749	1	1
750	1	1
751	1	1
752	0	1
753	0	0.893847
754	1	1
755	1	1
756	1	1
757	1	1
758	1	1
759	1	1
760	1	1
761	1	1
762	1	1
763	1	1
764	1	1
765	0	1
766	0	1
767	0	1
768	0	0.899663
769	0	0.901012
770	1	1
771	1	1
772	1	1
773	1	1
774	1	1
775	1	1
776	1	1
777	1	1
778	1	1
779	1	1
780	0	0.6
781	0	0.566045
782	0	0.492755
783	0	0.486201
784	0	0.85755
785	0	0.684847
786	0	0.591826
787	0	0.54071
788	0	0.301404
789	0	0
790	0	0
791	0	0
792	0	0
793	0	0.4
794	0	0
795	0	0
796	0	0
797	0	0
798	0	0
799	0	0.190476
800	0	0.320513
801	0	0.909091
802	0	0.901006
803	0	0.929432
804	0	0.630403
805	0	0.631234
806	0	0.712191
807	1	1
808	1	1
809	1	1
810	1	1
811	1	1
812	1	1
813	1	1
814	1	1
815	1	1
816	1	1
817	1	1
818	1	1
819	1	1
820	1	1
821	1	1
822	1	1
823	1	1
824	1	1
825	1	1
826	1	1
827	0	1
828	0	1
829	0	1
830	0	1
831	0	1
832	0	0.333333
833	0	0.166667
834	0	0.904547
835	0	0.86202
836	0	0.702076
837	0	0.464182
838	0	0.415457
839	0	0.283107
840	0	0
841	0	0
842	0	0
843	0	0.166667
844	0	0.230769
845	0	0.309091
846	0	0.421995
847	0	0.328214
848	0	0.166667
849	0	0.133333
850	0	0.166667
851	0	0.267164
852	0	0.258362
853	0	0.277342
854	0	0.163399
855	0	0.228571
856	0	0.808208
857	0	0.777778
858	0	1
859	0	1
860	0	0.561698
861	0	0.561698
862	0	0.573625
863	0	1
864	0	1
865	0	1
866	0	1
867	0	0.693499
868	0	0.687768
869	0	0.688322
870	0	0.694265
871	0	0.694265
872	0	0.4
873	0	0.943202
874	0	0.943202
875	0	0.952675
876	0	0.952803
877	0	0.952803
878	0	0.945157
879	0	0.945157
880	0	1
881	0	0.487179
882	0	0.487179
883	0	0.487179
884	0	0.487179
885	0	0.487179
886	0	0.487179
887	0	0.487179
888	0	0.487179
889	0	0.417582
890	0	0.310769
891	0	0.310769
892	0	0.370827
893	0	0.370827
894	0	0.915534
895	0	0.915534
896	0	0.915534
897	0	0.915534
898	1	1
899	1	1
900	1	1
901	1	1
902	1	1
903	1	1
904	1	1
905	1	1
906	1	1
907	1	1
908	1	1
909	1	1
910	1	1
911	1	1
912	1	1
913	1	1
914	0	1
915	0	0.554667
916	0	0.533719
917	0	1
918	0	0.474795
919	0	0.505495
920	0	0.425636
921	0	0.839451
922	0	0.839451
923	0	0.522988
924	0	0.879229
925	0	0.879229
926	0	0.864321
927	0	0.5812
928	0	0.560514
929	0	0.624827
930	0	0.947167
931	0	0.960514
932	0	0.96826
933	0	1
934	0	0.96826
935	0	0.96826
936	0	0.96826
937	0	0.96826
938	0	0.945135
939	0	1
940	0	0.980952
941	0	0.495486
942	0	0.502618
943	0	0.609831
944	1	1
945	1	1
946	1	1
947	1	1
948	1	1
949	0	0.992
950	0	0
951	1	1
952	1	1
953	1	1
954	1	1
955	1	1
956	1	1
957	1	1
958	1	1
959	1	1
960	1	1
961	1	1
962	1	1
963	1	1
964	0	1
965	1	1
966	1	1
967	1	1
968	1	1
969	1	1
970	1	1
971	1	1
972	1	1
973	1	1
974	1	0
975	1	0
976	1	0
977	1	0
978	1	0
979	1	0
980	1	0
981	1	0
982	1	0
983	1	0
984	1	0
985	1	0
986	1	0
987	1	0
988	1	0
989	1	0
990	1	0
991	1	0
992	1	0
993	1	0
994	1	0
995	1	0
996	1	0
997	1	0
998	1	0
999	1	0
1000	1	0
1001	1	0
1002	1	0
1003	1	0
1004	1	0
1005	1	0
1006	1	0
1007	1	0
1008	1	0
1009	1	0
1010	1	0
1011	1	0
1012	1	0
1013	1	0
1014	1	0
1015	1	0
1016	1	0
1017	1	0
1018	1	0
1019	1	0
1020	1	0
1021	1	0
