Site	ColumnScore	SumOfPairsScore
1	1	0
2	1	0
3	1	0
4	1	0
5	1	0
6	1	0
7	1	0
8	1	0
9	1	0
10	1	0
11	1	0
12	0	0.333333
13	0	0.333333
14	0	0.333333
15	0	0.333333
16	0	0.333333
17	0	0.333333
18	0	0.333333
19	0	0.333333
20	0	0.333333
21	0	0.333333
22	0	0.333333
23	0	0.333333
24	0	0.333333
25	0	0.333333
26	0	0.333333
27	0	0.333333
28	0	0.333333
29	0	0.333333
30	0	0.333333
31	0	0.333333
32	0	0.333333
33	0	0.333333
34	0	0.333333
35	0	0.333333
36	0	0.333333
37	0	0.333333
38	0	0.333333
39	0	0.333333
40	0	0.333333
41	0	0.333333
42	0	0.333333
43	0	0.333333
44	0	0.333333
45	0	0.333333
46	0	0.333333
47	0	0.333333
48	0	0.333333
49	0	0.333333
50	0	0.333333
51	0	0.333333
52	0	0.333333
53	0	0.333333
54	0	0.333333
55	0	0.333333
56	0	0.333333
57	0	0.333333
58	0	0.333333
59	0	0.333333
60	0	0.333333
61	0	0.333333
62	0	0.333333
63	0	0.333333
64	0	0.333333
65	0	0.333333
66	0	0.333333
67	0	0.333333
68	0	0.333333
69	0	0.333333
70	0	0.333333
71	0	0.333333
72	0	0.333333
73	0	0.333333
74	0	0.333333
75	0	0.333333
76	0	0.333333
77	0	0.333333
78	0	0.333333
79	0	0.333333
80	0	0.333333
81	0	0.333333
82	0	0.333333
83	0	0.333333
84	0	0.333333
85	0	0.333333
86	0	0.333333
87	0	0.333333
88	0	0.333333
89	0	0.333333
90	0	0.333333
91	0	0.333333
92	0	0.333333
93	0	0.333333
94	0	0.333333
95	0	0.333333
96	0	0.333333
97	0	0.333333
98	0	0.333333
99	0	0.166667
100	0	0.166667
101	0	0.166667
102	0	0.166667
103	0	0.5
104	0	0.666667
105	0	0.666667
106	0	0.666667
107	0	0.47619
108	0	0.47619
109	0	0.580952
110	0	0.381513
111	0	0.381513
112	0	0.331092
113	0	0.384874
114	0	0.314367
115	0	0.314367
116	0	0.292683
117	0	0.254757
118	0	0.216312
119	0	0.218085
120	0	0.211735
121	0	0.211735
122	0	0.205782
123	0	0.2
124	0	0.204898
125	0	0.181176
126	0	0.208899
127	0	0.188961
128	0	0.152766
129	0	0.135759
130	0	0.209534
131	0	0.221234
132	0	0.220487
133	0	0.305263
134	0	0.264069
135	0	0.185771
136	0	0.258809
137	0	0.260307
138	0	0.357882
139	0	0.383795
140	0	0.389796
141	0	0.389796
142	0	0.389796
143	0	0.455252
144	0	0.455252
145	0	0.461125
146	0	0.461308
147	0	0.443385
148	0	0.432088
149	0	0.43199
150	0	0.43199
151	0	0.297212
152	0	0.261166
153	0	0.275622
154	0	0.697129
155	0	0.697129
156	0	0.718193
157	0	0.740792
158	0	0.842257
159	0	0.862282
160	0	0.870281
161	0	0.866736
162	0	0.866736
163	0	0.866736
164	0	0.87402
165	0	0.866667
166	0	0.866667
167	0	0.866667
168	0	0.866667
169	0	0.929232
170	0	0.929232
171	0	0.991903
172	0	0.983904
173	0	0.983904
174	0	0.983904
175	0	0.99187
176	0	0.99187
177	0	0.991903
178	0	0.991903
179	0	0.991903
180	0	1
181	0	1
182	0	1
183	0	1
184	0	1
185	0	1
186	0	1
187	0	1
188	0	0.97584
189	0	0.975904
190	0	0.983904
191	0	0.983904
192	0	0.983904
193	0	0.983904
194	0	0.959942
195	0	0.975807
196	0	0.975807
197	0	0.975807
198	0	0.967809
199	0	0.967809
200	0	0
201	0	0
202	0	0
203	0	0
204	0	0
205	1	0
206	1	0
207	0	0.333333
208	0	0.560606
209	0	0.474359
210	0	0.333333
211	0	0.222989
212	0	0.385464
213	0	0.324051
214	0	0.238749
215	0	0.197873
216	0	0.161812
217	0	0.150289
218	0	0.120235
219	0	0.128406
220	0	0.151971
221	0	0.179495
222	0	0.336964
223	0	0.383748
224	0	0.402918
225	0	0.418019
226	0	0.642623
227	0	0.656346
228	0	0.651032
229	0	0.672482
230	0	0.659184
231	0	0.643336
232	0	0.648023
233	0	1
234	0	0.333333
235	0	0.266667
236	0	0.266667
237	0	0.667455
238	0	0.667455
239	0	0.41039
240	0	0.358757
241	0	0.212766
242	0	0.228933
243	0	0.216184
244	0	0.123288
245	0	0.141168
246	0	0.116402
247	0	0.206295
248	0	0.203678
249	0	0.238209
250	0	0.431662
251	0	0.445249
252	0	0.457388
253	0	0.30694
254	0	0.181643
255	0	0.265597
256	0	0.362319
257	0	0.583333
258	0	0.583333
259	0	0.75
260	0	0.75
261	0	1
262	0	1
263	0	1
264	0	1
265	0	0.877352
266	0	0.952299
267	0	1
268	0	1
269	1	1
270	1	1
271	1	1
272	0	1
273	0	1
274	0	0.991968
275	0	0.991968
276	0	0.991968
277	0	0.991968
278	0	0.991968
279	0	0.991968
280	0	0.968225
281	1	0
282	1	0
283	0	0.333333
284	0	0.333333
285	0	0.333333
286	0	0.333333
287	0	0.333333
288	0	0.5
289	1	1
290	1	1
291	1	1
292	1	1
293	1	1
294	1	1
295	1	1
296	1	1
297	1	1
298	1	1
299	1	1
300	1	1
301	1	1
302	1	1
303	1	1
304	1	1
305	1	1
306	1	1
307	1	1
308	1	1
309	1	1
310	1	1
311	1	1
312	1	1
313	1	1
314	1	1
315	1	1
316	1	1
317	1	1
318	1	1
319	1	1
320	1	1
321	0	1
322	0	0.991968
323	1	1
324	1	1
325	1	1
326	1	1
327	1	1
328	1	1
329	1	1
330	1	1
331	0	1
332	0	0.991903
333	1	0
334	1	0
335	1	0
336	1	0
337	1	0
338	1	0
339	0	0.983871
340	0	1
341	1	1
342	1	1
343	1	1
344	1	1
345	1	1
346	1	1
347	1	1
348	1	1
349	0	0.991903
350	1	1
351	1	1
352	1	1
353	1	1
354	1	1
355	1	1
356	1	1
357	1	1
358	1	1
359	1	1
360	1	1
361	1	1
362	1	1
363	1	1
364	1	1
365	1	1
366	0	1
367	1	1
368	1	1
369	1	1
370	1	1
371	1	1
372	1	1
373	1	1
374	1	1
375	1	1
376	1	1
377	1	1
378	1	1
379	1	1
380	1	1
381	1	1
382	1	1
383	1	1
384	1	1
385	1	1
386	1	1
387	1	1
388	1	1
389	1	1
390	1	1
391	1	1
392	1	1
393	1	1
394	1	1
395	1	1
396	1	1
397	1	1
398	1	1
399	1	1
400	1	1
401	1	1
402	1	1
403	1	1
404	1	1
405	1	1
406	1	1
407	1	1
408	1	1
409	1	1
410	1	1
411	1	1
412	1	1
413	1	1
414	1	1
415	1	1
416	1	1
417	1	1
418	1	1
419	1	1
420	1	1
421	1	1
422	1	1
423	1	1
424	1	1
425	1	1
426	1	1
427	1	1
428	1	1
429	1	1
430	1	1
431	1	1
432	1	1
433	1	1
434	1	1
435	0	1
436	0	0.94763
437	0	0.680815
438	0	0.590718
439	0	0
440	0	0
441	0	0.333333
442	0	0.333333
443	0	0.88495
444	0	0.819722
445	0	0.801724
446	0	0
447	0	0
448	0	0.972731
449	0	0
450	0	1
451	1	1
452	1	1
453	1	1
454	1	1
455	1	1
456	1	1
457	1	1
458	1	1
459	1	1
460	1	1
461	1	1
462	1	1
463	1	1
464	1	1
465	1	1
466	1	1
467	1	1
468	1	1
469	1	1
470	1	1
471	1	1
472	1	1
473	1	1
474	1	1
475	1	1
476	1	1
477	1	1
478	1	1
479	1	1
480	1	1
481	1	1
482	1	1
483	1	1
484	1	1
485	1	1
486	1	1
487	1	1
488	1	1
489	1	1
490	1	1
491	1	1
492	1	1
493	1	1
494	1	1
495	1	1
496	1	1
497	1	1
498	1	1
499	1	1
500	1	1
501	1	1
502	1	1
503	1	1
504	1	1
505	1	1
506	1	1
507	1	1
508	0	1
509	0	0.8
510	0	0.8
511	0	0.461538
512	0	0.241758
513	0	0.843825
514	0	0.785878
515	0	0.5
516	0	0.5
517	0	0.5
518	0	0.452649
519	0	0.303699
520	0	0.357106
521	0	0.375383
522	0	0.682266
523	0	0.1
524	0	0.166667
525	0	0.166667
526	0	0
527	0	0
528	0	0
529	0	0
530	0	0
531	0	0
532	0	0
533	0	0
534	0	0
535	0	0
536	0	0
537	0	0
538	0	0
539	0	0
540	0	0
541	0	0
542	0	0
543	0	0
544	0	0
545	0	0
546	0	0.972351
547	0	0.972351
548	0	0
549	0	0
550	0	0.333333
551	0	0.333333
552	0	0.333333
553	0	0.333333
554	0	0.333333
555	1	1
556	1	1
557	1	1
558	1	1
559	1	1
560	1	1
561	1	1
562	1	1
563	1	1
564	1	1
565	1	1
566	1	1
567	1	1
568	1	1
569	1	1
570	1	1
571	1	1
572	1	1
573	1	1
574	1	1
575	0	0.992
576	0	0.992
577	0	0.992
578	0	0.992
579	0	0.575936
580	0	0.507277
581	0	1
582	1	1
583	1	1
584	1	1
585	1	1
586	1	1
587	1	1
588	1	1
589	1	1
590	0	0
591	0	0
592	1	0
593	1	0
594	1	0
595	1	0
596	1	0
597	1	0
598	1	0
599	1	0
600	1	0
601	1	0
602	1	0
603	1	0
604	1	0
605	1	0
606	1	0
607	1	0
608	1	0
609	1	0
610	0	0.992
611	0	0.992
612	1	1
613	1	1
614	1	1
615	1	1
616	1	1
617	1	1
618	1	1
619	1	1
620	1	1
621	1	1
622	1	1
623	1	1
624	1	1
625	1	1
626	1	1
627	1	1
628	1	1
629	1	1
630	0	1
631	0	1
632	0	1
633	0	1
634	0	1
635	0	1
636	0	0.930313
637	0	0.929671
638	0	0.333333
639	0	0.166667
640	0	0.859259
641	0	0
642	0	0
643	0	0
644	0	0.166667
645	0	0.166667
646	0	0.681421
647	0	0.445355
648	0	0.488095
649	0	0.47619
650	0	0.4
651	0	0.4
652	0	0.0666667
653	0	0.19697
654	0	0
655	0	0
656	0	0
657	0	0.3
658	0	0.3
659	0	0.736134
660	0	0.432881
661	0	0.312004
662	0	0.283887
663	0	0.246126
664	0	0.348391
665	0	0.429174
666	0	0.465279
667	0	0.856032
668	0	0.952514
669	0	0.952514
670	0	0.0666667
671	0	0.0666667
672	0	0.1
673	0	0.1
674	0	0.166667
675	0	0.166667
676	0	0.333333
677	0	0.333333
678	0	0.333333
679	0	0.333333
680	0	0.333333
681	0	1
682	0	1
683	0	1
684	0	1
685	0	1
686	0	1
687	1	1
688	1	1
689	1	1
690	1	1
691	1	1
692	1	1
693	1	1
694	1	1
695	1	1
696	1	1
697	1	1
698	1	1
699	0	1
700	0	1
701	0	0.503336
702	0	0.49057
703	0	0.937414
704	1	1
705	1	1
706	1	1
707	1	1
708	1	1
709	1	1
710	1	1
711	1	1
712	1	1
713	1	1
714	1	1
715	0	0.908241
716	0	0.908241
717	0	0.908241
718	0	1
719	0	1
720	1	0
721	1	0
722	1	0
723	1	0
724	1	0
725	1	0
726	1	0
727	1	1
728	1	1
729	1	1
730	1	1
731	1	1
732	1	1
733	1	1
734	1	1
735	1	1
736	1	1
737	1	1
738	1	1
739	1	1
740	1	1
741	1	1
742	1	1
743	1	1
744	1	1
745	1	1
746	1	1
747	1	1
748	1	1
749	1	1
750	1	1
751	1	1
752	1	1
753	1	1
754	1	1
755	1	1
756	1	1
757	1	1
758	1	1
759	1	1
760	1	1
761	1	1
762	1	1
763	1	1
764	1	1
765	1	1
766	1	1
767	1	1
768	1	1
769	1	1
770	1	1
771	1	1
772	1	1
773	1	1
774	1	1
775	1	1
776	1	1
777	1	1
778	1	1
779	1	1
780	1	1
781	1	1
782	1	1
783	1	1
784	1	1
785	1	1
786	1	1
787	1	1
788	0	1
789	1	1
790	0	0
791	0	0
792	0	0
793	0	0
794	0	0
795	0	0
796	0	0
797	0	0
798	0	0
799	0	0
800	1	0
801	1	0
802	1	0
803	0	0.333333
804	0	0.333333
805	0	0.166667
806	0	0.166667
807	0	0.133333
808	0	0.133333
809	0	0.133333
810	0	0.0952381
811	0	0.0952381
812	0	0.0952381
813	0	0.752314
814	0	0.546493
815	0	0.551331
816	0	0.550191
817	0	0
818	0	0
819	0	0
820	0	0.5
821	0	0.6
822	0	0.913667
823	0	0.570291
824	0	0
825	0	0
826	0	0.166667
827	0	0.166667
828	0	0.166667
829	0	0.166667
830	0	0.166667
831	0	0.166667
832	0	0.166667
833	0	0.166667
834	0	0.333333
835	0	1
836	0	1
837	0	1
838	0	1
839	0	1
840	0	1
841	0	0.6
842	0	0.6
843	0	0.6
844	0	0.967842
845	0	0
846	0	0
847	0	0
848	0	0
849	0	0
850	0	0
851	0	1
852	0	1
853	0	1
854	0	1
855	0	1
856	0	1
857	0	1
858	0	1
859	0	1
860	0	1
861	1	1
862	1	1
863	1	1
864	1	1
865	1	1
866	1	1
867	1	1
868	1	1
869	1	1
870	1	1
871	1	1
872	1	1
873	1	1
874	1	1
875	1	1
876	1	1
877	0	0.991903
878	0	0
879	0	0.601362
880	0	1
881	0	1
882	1	1
883	1	1
884	1	1
885	1	1
886	1	1
887	1	1
888	1	1
889	1	1
890	1	1
891	1	1
892	1	1
893	1	1
894	1	1
895	1	1
896	1	1
897	1	1
898	1	1
899	1	1
900	1	1
901	1	1
902	1	1
903	1	1
904	1	1
905	1	1
906	1	1
907	1	1
908	1	1
909	1	1
910	1	1
911	0	0.99187
912	0	0.99187
913	0	0.983839
914	0	0
915	0	0
916	0	0
917	0	1
918	0	1
919	0	1
920	0	1
921	0	1
922	0	1
923	0	1
924	0	1
925	0	1
926	0	1
927	0	1
928	0	1
929	0	1
930	0	1
931	0	1
932	0	1
933	0	1
934	0	1
935	0	1
936	0	1
937	0	1
938	0	1
939	0	1
940	0	1
941	0	1
942	0	1
943	0	1
944	0	1
945	0	1
946	0	1
947	0	1
948	0	1
949	1	1
950	1	1
951	1	1
952	1	1
953	1	1
954	1	1
955	1	1
956	1	1
957	1	1
958	1	1
959	1	1
960	1	1
961	1	1
962	1	1
963	1	1
964	1	1
965	1	1
966	1	1
967	1	1
968	1	1
969	1	1
970	1	1
971	1	1
972	1	1
973	1	1
974	1	1
975	1	1
976	1	1
977	1	1
978	1	1
979	1	1
980	1	1
981	1	1
982	1	1
983	1	1
984	1	1
985	1	1
986	1	1
987	1	1
988	1	1
989	1	1
990	1	1
991	1	1
992	1	1
993	1	1
994	1	1
995	1	1
996	1	1
997	1	1
998	1	1
999	1	1
1000	1	1
1001	1	1
1002	1	1
1003	1	1
1004	1	1
1005	1	1
1006	1	1
1007	1	1
1008	1	1
1009	1	1
1010	1	1
1011	1	1
1012	1	1
1013	1	1
1014	1	1
1015	1	1
1016	1	1
1017	1	1
1018	1	1
1019	1	1
1020	1	1
1021	1	1
1022	1	1
1023	1	1
1024	1	1
1025	1	1
1026	1	1
1027	1	1
1028	1	1
1029	1	1
1030	1	1
1031	1	1
1032	1	1
1033	1	1
1034	1	1
1035	1	1
1036	1	1
1037	1	1
1038	1	1
1039	1	1
1040	1	1
1041	1	1
1042	1	1
1043	1	1
1044	1	1
1045	1	1
1046	1	1
1047	1	1
1048	1	1
1049	1	1
1050	1	1
1051	0	0.967778
1052	0	0.943861
1053	0	0.940523
1054	0	0.940014
1055	0	0.937886
1056	0	0.928719
1057	0	0.911077
1058	0	0.957156
1059	0	0.943956
1060	0	0.937543
1061	0	0.90339
1062	0	0.896753
1063	0	0.882653
1064	0	0.838655
1065	0	0.493506
1066	0	0.397059
1067	0	0.375
1068	0	0.346154
1069	0	0.318182
1070	0	0.181818
1071	0	0.194444
1072	0	0.194444
1073	0	0.194444
1074	0	0.214286
1075	0	0.5
1076	0	0.5
1077	0	0.5
1078	1	1
1079	1	1
1080	1	1
1081	1	1
1082	1	1
1083	1	1
1084	1	1
1085	1	1
1086	1	1
1087	1	1
1088	1	1
1089	1	1
1090	1	1
1091	1	1
1092	1	1
1093	1	1
1094	1	1
1095	1	1
1096	1	1
1097	1	1
1098	1	1
1099	1	1
1100	1	1
1101	1	1
1102	1	1
1103	1	1
1104	1	1
1105	1	1
1106	1	1
1107	1	1
1108	1	1
1109	1	1
1110	1	1
1111	1	1
1112	1	1
1113	1	1
1114	1	1
1115	1	1
1116	1	1
1117	1	1
1118	0	0.333333
1119	0	0.333333
1120	0	0.333333
1121	0	0.333333
1122	0	0.333333
1123	1	1
1124	1	1
1125	1	1
1126	1	1
1127	1	1
1128	1	1
1129	1	1
1130	1	1
1131	1	1
1132	1	1
1133	1	1
1134	1	1
1135	1	1
1136	1	1
1137	1	1
1138	1	1
1139	1	1
1140	0	0
1141	0	0
1142	0	0
1143	0	0
1144	0	0
1145	0	0
1146	0	0
1147	0	0
1148	0	0
1149	1	0
1150	1	0
1151	1	0
1152	1	0
1153	1	0
1154	1	0
1155	1	0
