Site	ColumnScore	SumOfPairsScore
1	0	0
2	0	0
3	0	0
4	0	0
5	0	0
6	0	0
7	0	0
8	0	0
9	0	0
10	0	0
11	0	0
12	0	0
13	0	0
14	0	0
15	0	0
16	0	0
17	0	0
18	0	0
19	0	0
20	0	0
21	0	0
22	0	0
23	0	0
24	0	0
25	0	0
26	0	0
27	0	0
28	0	0
29	0	0
30	0	0
31	0	0
32	0	0
33	0	0
34	0	0
35	0	0
36	0	0
37	0	0
38	0	0
39	0	0
40	0	0
41	0	0
42	0	0
43	1	0
44	1	0
45	1	0
46	1	0
47	0	0
48	0	0
49	0	0
50	0	0
51	0	0
52	0	0
53	0	0
54	0	0
55	0	0
56	0	0
57	0	0
58	0	0
59	0	0
60	0	0
61	0	0
62	0	0
63	0	0
64	0	0
65	0	0
66	0	0
67	0	0
68	0	0
69	0	0
70	0	0
71	0	0
72	0	0
73	0	0
74	0	0
75	0	0
76	0	0
77	0	0
78	0	0
79	0	0
80	1	0
81	0	0
82	0	0
83	0	0
84	0	0
85	0	0
86	0	0
87	1	0
88	1	0
89	1	0
90	0	0
91	0	0
92	0	0
93	0	0
94	0	0
95	0	0
96	0	0
97	0	0
98	0	0
99	0	0
100	0	0
101	0	0
102	0	0
103	0	0
104	0	0
105	0	0
106	0	0
107	0	0
108	0	0
109	0	0
110	1	0
111	1	0
112	1	0
113	1	0
114	1	0
115	1	0
116	1	0
117	0	0
118	0	0
119	0	0
120	0	0
121	0	0
122	0	0
123	0	0
124	0	0
125	0	0
126	0	0
127	0	0
128	0	0
129	0	0
130	0	0
131	0	0
132	0	0
133	0	0
134	0	0
135	0	0
136	0	0
137	0	0
138	0	0
139	0	0
140	0	0
141	0	0
142	0	0
143	0	0
144	0	0
145	0	0
146	0	0
147	0	0
148	0	0
149	0	0
150	0	0
151	0	0
152	0	0
153	0	0
154	0	0
155	0	0
156	0	0
157	0	0
158	0	0
159	0	0
160	0	0
161	0	0
162	0	0
163	0	0
164	0	0
165	0	0
166	0	0
167	0	0
168	0	0
169	0	0
170	0	0
171	0	0
172	0	0
173	0	0
174	0	0
175	0	0
176	0	0
177	0	0
178	0	0
179	0	0
180	0	0
181	0	0
182	0	0
183	0	0
184	0	0
185	0	0
186	0	0
187	0	0
188	0	0
189	0	0
190	0	0
191	0	0
192	0	0
193	0	0
194	0	0
195	0	0
196	0	0
197	0	0
198	0	0
199	0	0
200	0	0
201	0	0
202	0	0
203	0	0
204	0	0
205	0	0
206	0	0
207	0	0
208	0	0
209	0	0
210	0	0
211	0	0
212	0	0
213	0	0
214	0	0
215	0	0
216	0	0
217	0	0
218	0	0
219	0	0
220	0	0
221	0	0
222	0	0
223	0	0
224	0	0
225	0	0
226	0	0
227	0	0
228	0	0
229	0	0
230	0	0.166667
231	0	0.166667
232	0	0.133333
233	0	0.133333
234	0	0.131868
235	0	0.114286
236	0	0.121212
237	0	0.273784
238	0	0.210471
239	0	0.203789
240	0	0.19403
241	0	0.192221
242	0	0.163146
243	0	0.142019
244	0	0.158842
245	0	0.15449
246	0	0.146667
247	0	0.156757
248	0	0.164211
249	0	0.18386
250	0	0.28638
251	0	0.354978
252	0	0.333025
253	0	0.411287
254	0	0.866401
255	0	0.866468
256	0	0.881198
257	0	0.889265
258	0	0.896964
259	0	0
260	0	0
261	0	0
262	0	0
263	0	0
264	0	0
265	0	0
266	0	0
267	0	0
268	0	0
269	0	0
270	0	0
271	0	0
272	0	0
273	0	0
274	0	0
275	0	0
276	0	0
277	0	0
278	0	0
279	0	0
280	0	0
281	0	0
282	0	0
283	0	0
284	0	0
285	0	0
286	0	0
287	0	0
288	0	0
289	0	0
290	0	0
291	0	0
292	0	0
293	0	0
294	0	0
295	0	0
296	0	0
297	0	0
298	0	0
299	0	0
300	0	0
301	0	0
302	0	0
303	0	0
304	0	0
305	0	0
306	0	0
307	0	0
308	0	0
309	0	0
310	0	0
311	0	0
312	0	0
313	0	0
314	0	0
315	0	0
316	0	0
317	0	0.912527
318	0	0.882591
319	0	0.875534
320	0	0.775424
321	0	0.727167
322	0	0.4121
323	1	0
324	1	0
325	1	0
326	1	0
327	1	0
328	1	0
329	1	0
330	1	0
331	1	0
332	1	0
333	1	0
334	1	0
335	1	0
336	1	0
337	1	0
338	1	0
339	1	0
340	1	0
341	1	0
342	1	0
343	1	0
344	1	0
345	1	0
346	1	0
347	1	0
348	1	0
349	1	0
350	1	0
351	1	0
352	1	0
353	1	0
354	1	0
355	1	0
356	1	0
357	1	0
358	1	0
359	1	0
360	1	0
361	1	0
362	1	0
363	1	0
364	1	0
365	1	0
366	1	0
367	1	0
368	1	0
369	1	0
370	1	0
371	1	0
372	1	0
373	1	0
374	1	0
375	1	0
376	1	0
377	1	0
378	1	0
379	1	0
380	1	0
381	1	0
382	1	0
383	1	0
384	1	0
385	1	0
386	1	0
387	1	0
388	1	0
389	1	0
390	1	0
391	1	0
392	1	0
393	1	0
394	1	0
395	1	0
396	1	0
397	1	0
398	1	0
399	1	0
400	1	0
401	1	0
402	1	0
403	1	0
404	1	0
405	1	0
406	1	0
407	1	0
408	1	0
409	1	0
410	1	0
411	1	0
412	1	0
413	1	0
414	1	0
415	1	0
416	1	0
417	1	0
418	1	0
419	1	0
420	1	0
421	1	0
422	1	0
423	1	0
424	1	0
425	1	0
426	1	0
427	1	0
428	1	0
429	1	0
430	1	0
431	1	0
432	1	0
433	1	0
434	1	0
435	1	0
436	1	0
437	1	0
438	1	0
439	1	0
440	1	0
441	1	0
442	1	0
443	1	0
444	1	0
445	1	0
446	1	0
447	1	0
448	1	0
449	1	0
450	1	0
451	1	0
452	1	0
453	1	0
454	1	0
455	1	0
456	1	0
457	1	0
458	1	0
459	1	0
460	1	0
461	1	0
462	1	0
463	1	0
464	1	0
465	1	0
466	1	0
467	1	0
468	1	0
469	1	0
470	1	0
471	1	0
472	1	0
473	1	0
474	1	0
475	1	0
476	1	0
477	1	0
478	1	0
479	1	0
480	1	0
481	1	0
482	1	0
483	1	0
484	1	0
485	1	0
486	1	0
487	1	0
488	1	0
489	1	0
490	1	0
491	1	0
492	1	0
493	1	0
494	1	0
495	1	0
496	1	0
497	1	0
498	1	0
499	1	0
500	1	0
501	1	0
502	1	0
503	1	0
504	1	0
505	1	0
506	1	0
507	1	0
508	1	0
509	1	0
510	1	0
511	1	0
512	1	0
513	1	0
514	1	0
515	1	0
516	1	0
517	1	0
518	1	0
519	1	0
520	1	0
521	1	0
522	1	0
523	1	0
524	1	0
525	1	0
526	1	0
527	1	0
528	1	0
529	1	0
530	1	0
531	1	0
532	1	0
533	1	0
534	1	0
535	1	0
536	1	0
537	1	0
538	1	0
539	1	0
540	1	0
541	1	0
542	1	0
543	1	0
544	1	0
545	1	0
546	1	0
547	1	0
548	1	0
549	0	0
550	0	0
551	0	0
552	0	0
553	0	0
554	0	0
555	0	0
556	0	0
557	0	0
558	0	0
559	0	0
560	0	0
561	0	0
562	0	0
563	0	0
564	0	0
565	0	0
566	0	0
567	0	0
568	0	0
569	0	0
570	0	0
571	0	0
572	0	0
573	0	0
574	0	0
575	0	0
576	0	0
577	0	0
578	0	0
579	0	0
580	0	0
581	0	0
582	0	0
583	0	0
584	0	0
585	0	0
586	0	0
587	0	0
588	0	0
589	0	0
590	0	0
591	0	0
592	0	0
593	0	0
594	0	0
595	0	0
596	0	0
597	0	0
598	0	0
599	0	0
600	0	0
601	0	0
602	0	0
603	0	0
604	0	0
605	0	0
606	0	0
607	0	0
608	0	0
609	0	0
610	0	0
611	0	0
612	0	0
613	0	0
614	0	0
615	0	0
616	0	0
617	0	0
618	0	0
619	1	0
620	0	0
621	0	0
622	0	0
623	0	0
624	0	0
625	0	0
626	0	0
627	0	0
628	0	0
629	0	0
630	0	0
631	0	0
632	0	0
633	0	0
634	0	0
635	0	0
636	0	0
637	0	0
638	0	0
639	0	0
640	0	0
641	0	0
642	0	0
643	0	0
644	0	0
645	0	0
646	0	0
647	0	0
648	0	0
649	0	0
650	0	0
651	0	0
652	0	0
653	0	0
654	0	0
655	0	0
656	0	0
657	0	0
658	0	0
659	0	0
660	0	0
661	0	0
662	0	0
663	0	0
664	0	0
665	0	0
666	0	0
667	0	0
668	0	0
669	0	0
670	0	0
671	0	0
672	0	0
673	0	0
674	0	0
675	0	0
676	0	0
677	0	0
678	0	0
679	0	0
680	0	0
681	0	0
682	0	0
683	0	0
684	0	0
685	0	0
686	0	0
687	0	0
688	0	0
689	0	0
690	0	0
691	0	0
692	0	0
693	0	0
694	0	0
695	0	0
696	0	0
697	1	0
698	1	0
699	0	0
700	0	0
701	0	0
702	0	0
703	0	0
704	0	0
705	0	0
706	0	0
707	0	0
708	0	0
709	0	0
710	0	0
711	0	0
712	0	0
713	0	0
714	0	0
715	0	0
716	0	0
717	0	0
718	0	0
719	0	0
720	0	0
721	0	0
722	0	0
723	0	0
724	0	0
725	0	0
726	0	0
727	0	0
728	0	0
729	0	0
730	0	0
731	0	0
732	0	0
733	0	0
734	0	0
735	0	0
736	0	0
737	0	0
738	0	0
739	0	0
740	0	0
741	0	0
742	0	0
743	0	0
744	0	0
745	0	0
746	0	0
747	0	0
748	0	0
749	0	0
750	0	0
751	0	0
752	0	0.166667
753	0	0.166667
754	0	0.333333
755	0	0.333333
756	0	0.333333
757	0	0.333333
758	0	0
759	0	0
760	0	0
761	0	0
762	0	0
763	0	0
764	0	0
765	0	0
766	0	0
767	0	0
768	0	0
769	0	0
770	0	0
771	0	0
772	0	0
773	0	0
774	0	0
775	0	0
776	0	0
777	0	0
778	0	0.0666667
779	0	0.0444444
780	0	0.0555556
781	0	0.0357143
782	0	0.0277778
783	0	0.0277778
784	0	0.0277778
785	0	0.0222222
786	0	0.0222222
787	0	0.0151515
788	0	0.0659341
789	0	0.0659341
790	0	0.025
791	0	0.0261438
792	0	0.0210526
793	0	0.0238095
794	0	0.0253623
795	0	0.0502646
796	0	0.0473118
797	0	0.0537815
798	0	0.045045
799	0	0.0585859
800	0	0.0612795
801	0	0.263965
802	0	0.175935
803	0	0.154654
804	0	0.2496
805	0	0.265906
806	0	0.166667
807	0	0.166667
808	0	0.166667
809	0	0.166667
810	0	0.2
811	0	0.270893
812	0	0.309799
813	0	0.62782
814	0	0.793538
815	0	0.190476
816	0	0.3
817	0	0.3
818	0	0.5
819	0	0.6
820	0	1
821	0	1
822	0	1
823	0	0.930313
824	0	0.930313
825	1	1
826	1	1
827	1	1
828	1	1
829	1	1
830	1	1
831	1	1
832	1	1
833	1	1
834	1	1
835	1	1
836	1	1
837	1	1
838	1	1
839	1	1
840	0	0.984064
841	1	1
842	0	1
843	1	1
844	1	1
845	1	1
846	1	1
847	1	1
848	1	1
849	1	1
850	1	1
851	1	1
852	1	1
853	1	1
854	0	0.882353
855	0	0.882353
856	1	1
857	0	0.571429
858	0	0.571429
859	1	1
860	0	0.4
861	0	0.4
862	0	0.4
863	0	0
864	0	0
865	1	1
866	1	1
867	1	1
868	0	1
869	0	1
870	0	1
871	1	1
872	1	1
873	1	1
874	1	1
875	1	1
876	1	1
877	1	1
878	1	1
879	1	1
880	1	1
881	1	1
882	1	1
883	1	1
884	1	1
885	1	1
886	1	1
887	1	1
888	1	1
889	1	1
890	1	1
891	1	1
892	1	1
893	1	1
894	1	1
895	1	1
896	1	1
897	1	1
898	1	1
899	1	1
900	1	1
901	1	1
902	1	1
903	1	1
904	1	1
905	1	1
906	1	1
907	1	1
908	1	1
909	1	1
910	1	1
911	1	1
912	1	1
913	1	1
914	1	1
915	1	1
916	1	1
917	1	1
918	1	1
919	1	1
920	1	1
921	1	1
922	1	1
923	1	1
924	1	1
925	1	1
926	1	1
927	1	1
928	1	1
929	1	1
930	1	1
931	1	1
932	1	1
933	1	1
934	1	1
935	1	1
936	1	1
937	1	1
938	1	1
939	1	1
940	1	1
941	1	1
942	1	1
943	1	1
944	1	1
945	1	1
946	1	1
947	1	1
948	1	1
949	1	1
950	1	1
951	1	1
952	1	1
953	1	1
954	1	1
955	1	1
956	1	1
957	1	1
958	1	1
959	1	1
960	1	1
961	1	1
962	1	1
963	1	1
964	1	1
965	1	1
966	1	1
967	1	1
968	1	1
969	1	1
970	1	1
971	1	1
972	1	1
973	1	1
974	1	1
975	1	1
976	1	1
977	1	1
978	1	1
979	1	1
980	1	1
981	1	1
982	1	1
983	0	1
984	0	0.886319
985	0	0.886319
986	0	0.886319
987	0	0.4
988	0	0.4
989	0	0.4
990	0	0.8686
991	0	0.820938
992	0	0.804068
993	0	0.778173
994	0	0.755047
995	0	0.498159
996	0	0.43161
997	0	0.547956
998	0	0.48563
999	0	0.281286
1000	0	0.354712
1001	0	0.37373
1002	0	0.173016
1003	0	0.2
1004	0	0.333333
1005	0	0
1006	0	0
1007	0	0
1008	0	0
1009	0	0
1010	0	0
1011	0	0
1012	0	0
1013	1	0
1014	1	0
1015	0	0
1016	0	0
1017	0	0
1018	0	0.0715746
1019	0	0.0831962
1020	0	0.0838992
1021	0	0.0896731
1022	0	0.138374
1023	0	0.161051
1024	0	0.175884
1025	0	0.171703
1026	0	0.261359
1027	0	0.27116
1028	0	0.5
1029	0	0.5
1030	0	0.5
1031	0	0.5
1032	0	0.5
1033	0	0.166667
1034	0	0.226635
1035	0	0.183229
1036	0	0
1037	0	0.345811
1038	0	0.0833333
1039	0	0.161261
1040	0	0.666667
1041	0	0.583333
1042	0	0.583333
1043	0	0.268769
1044	1	0
1045	0	0
1046	0	0
1047	0	0.0721569
1048	0	0
1049	0	0
1050	0	0
1051	0	0
1052	0	0
1053	0	0.0952381
1054	0	0.166667
1055	0	0.107829
1056	0	0
1057	0	0
1058	0	0.0875502
1059	0	0.0812209
1060	0	0.157497
1061	0	0.0837365
1062	0	0.0983103
1063	0	0.0916697
1064	0	1
1065	0	1
1066	0	1
1067	0	1
1068	0	1
1069	0	0.104191
1070	0	0.125113
1071	0	0.333333
1072	0	0.333333
1073	0	0.426901
1074	0	0.128921
1075	0	0.141301
1076	0	0
1077	0	0
1078	0	0
1079	0	0
1080	0	0
1081	0	0
1082	0	0
1083	0	0
1084	0	0.509091
1085	0	0.545455
1086	0	0.467236
1087	0	0.57561
1088	0	0.346316
1089	0	0.374292
1090	0	0.375782
1091	0	0.395296
1092	0	0.388564
1093	0	1
1094	0	1
1095	0	0.919061
1096	0	0.936818
1097	0	0.937066
1098	0	0.952024
1099	0	0.96033
1100	0	1
1101	1	1
1102	1	1
1103	1	1
1104	1	1
1105	1	1
1106	1	1
1107	1	1
1108	1	1
1109	1	1
1110	1	1
1111	1	1
1112	1	1
1113	1	1
1114	1	1
1115	1	1
1116	1	1
1117	1	1
1118	1	1
1119	1	1
1120	0	0.908525
1121	0	0.861124
1122	0	0.991597
1123	0	1
1124	1	1
1125	1	1
1126	1	1
1127	1	1
1128	1	1
1129	1	1
1130	1	1
1131	1	1
1132	1	1
1133	1	1
1134	1	1
1135	1	1
1136	1	1
1137	1	1
1138	1	1
1139	1	1
1140	1	1
1141	1	1
1142	1	1
1143	1	1
1144	1	1
1145	1	1
1146	1	1
1147	1	1
1148	1	1
1149	1	1
1150	1	1
1151	0	0
1152	0	0
1153	0	0.991968
1154	0	0.968225
1155	0	0.871325
1156	0	0.862903
1157	0	0.862903
1158	0	0.783121
1159	0	0.759482
1160	0	1
1161	1	1
1162	0	1
1163	0	1
1164	0	1
1165	0	0.983123
1166	0	1
1167	0	1
1168	0	0.893847
1169	0	0.893847
1170	0	0.893847
1171	0	0.893847
1172	0	0.893847
1173	1	1
1174	1	1
1175	1	1
1176	1	1
1177	1	1
1178	1	1
1179	1	1
1180	0	0
1181	0	0
1182	0	0.991489
1183	0	0.991525
1184	0	0.991525
1185	0	0.991453
1186	0	0.974721
1187	0	1
1188	0	0
1189	0	0
1190	0	0
1191	0	0.95806
1192	0	0.95806
1193	0	0.958348
1194	0	0.974721
1195	0	0.974506
1196	0	0.982979
1197	0	0.975759
1198	0	0.972416
1199	1	1
1200	1	1
1201	1	1
1202	1	0
1203	1	0
1204	1	0
1205	1	0
1206	1	0
1207	1	0
