Site	ColumnScore	SumOfPairsScore
1	0	1
2	0	0.333333
3	0	0.333333
4	0	0.333333
5	0	0.166667
6	0	0.166667
7	0	0.166667
8	0	0.166667
9	0	0.166667
10	0	0
11	0	0
12	0	0
13	0	0
14	0	0
15	0	0
16	0	0
17	0	0
18	0	0
19	0	0
20	0	0
21	0	0
22	0	0
23	0	0
24	0	0
25	0	0
26	0	0
27	0	0
28	0	0
29	0	0
30	0	0
31	0	0
32	0	0
33	0	0
34	0	0
35	0	0
36	0	0
37	0	0
38	0	0.0357143
39	0	0.0357143
40	0	0.0357143
41	0	0.0714286
42	0	0.0714286
43	0	0.0714286
44	0	0.0714286
45	0	0.0714286
46	0	0.0714286
47	0	0.0714286
48	0	0.0714286
49	0	0.0714286
50	0	0.0714286
51	0	0.0714286
52	0	0.0714286
53	0	0.0714286
54	0	0.107143
55	0	0.222222
56	0	0.222222
57	0	0.222222
58	0	0.222222
59	0	0.166667
60	0	0.166667
61	0	0.166667
62	0	0.177778
63	0	0.145455
64	0	0.254545
65	0	0.254545
66	0	0.254545
67	0	0.55336
68	0	0.55336
69	0	0.55336
70	0	0.514493
71	0	0.423645
72	0	0.783743
73	0	0.639613
74	0	0.577489
75	0	0.476356
76	0	0.408345
77	0	0.481833
78	0	0.495168
79	0	0.494133
80	1	0
81	0	1
82	0	1
83	0	1
84	0	1
85	1	1
86	1	1
87	1	1
88	1	1
89	1	1
90	1	1
91	1	1
92	0	0.991837
93	0	0.991837
94	0	0.991837
95	0	0.991837
96	0	0.991837
97	0	0.991837
98	0	0.991701
99	0	0.81175
100	0	0.813829
101	0	0.787729
102	0	0.80063
103	0	0.80063
104	0	0.82178
105	0	0.75721
106	0	0
107	0	0.714286
108	0	0.909888
109	0	0.812037
110	0	0.324226
111	0	0.282854
112	0	0.553846
113	0	0.582122
114	0	0.529776
115	0	0.49284
116	0	0.853028
117	0	0.853725
118	0	0.853725
119	0	0.85253
120	0	1
121	0	1
122	0	1
123	0	0.81118
124	0	0.813483
125	0	0.805773
126	0	0.700577
127	0	0.912446
128	0	0.89793
129	0	1
130	0	1
131	0	0.975809
132	0	0.975906
133	1	1
134	1	1
135	1	1
136	1	1
137	1	1
138	1	1
139	1	1
140	1	1
141	1	1
142	1	1
143	1	1
144	1	1
145	1	1
146	1	1
147	1	1
148	1	1
149	1	1
150	1	1
151	1	1
152	1	1
153	0	1
154	1	1
155	1	1
156	1	1
157	0	0.991903
158	0	1
159	0	1
160	0	1
161	0	0.333333
162	0	0.333333
163	0	0.333333
164	0	0.333333
165	0	0.333333
166	0	0.333333
167	0	0.333333
168	0	0.333333
169	0	0.333333
170	0	0.333333
171	0	0.266667
172	0	0.466667
173	0	0.466667
174	1	1
175	1	1
176	0	0.714286
177	0	0.714286
178	0	0.99187
179	1	1
180	1	1
181	1	1
182	1	1
183	1	1
184	0	0.991903
185	1	1
186	1	1
187	1	1
188	1	1
189	1	1
190	1	1
191	1	1
192	1	1
193	1	1
194	1	1
195	1	1
196	1	1
197	0	1
198	0	1
199	0	1
200	0	1
201	0	1
202	0	1
203	0	1
204	0	1
205	0	1
206	0	1
207	0	1
208	0	1
209	0	1
210	0	1
211	1	1
212	1	1
213	1	1
214	1	1
215	1	1
216	1	1
217	1	1
218	1	1
219	1	1
220	1	1
221	1	1
222	1	1
223	1	1
224	1	1
225	1	1
226	1	1
227	1	1
228	1	1
229	0	1
230	1	1
231	1	1
232	1	1
233	1	1
234	1	1
235	1	1
236	0	0.6
237	0	0.6
238	0	0.6
239	0	0.6
240	0	0.6
241	0	0.6
242	0	0.6
243	0	0.6
244	0	0.6
245	0	0.6
246	0	0.6
247	0	0.6
248	0	0.6
249	0	0.6
250	0	0.6
251	0	0.6
252	0	0.6
253	0	0.942948
254	0	0.942948
255	0	0.942621
256	0	0.941955
257	0	0
258	0	0
259	0	0
260	0	0.333333
261	0	0.333333
262	0	0.333333
263	0	0.5243
264	0	0.52132
265	0	0.960135
266	0	0.960135
267	0	0.960135
268	0	0.968036
269	0	0.968036
270	0	0.960102
271	0	0
272	0	0
273	0	0
274	0	0
275	0	0.333333
276	0	0.333333
277	0	0.166667
278	0	0.5
279	0	0.5
280	0	0.5
281	0	0.5
282	0	1
283	0	1
284	0	1
285	0	1
286	0	1
287	0	1
288	0	1
289	0	1
290	1	1
291	1	1
292	1	1
293	1	1
294	1	1
295	0	1
296	0	0.991935
297	0	0.991935
298	0	0.991935
299	0	0.991935
300	0	0.991935
301	0	0.991935
302	0	0.991935
303	0	0.991935
304	0	0.991935
305	0	0.991935
306	0	0.991935
307	1	1
308	1	1
309	1	1
310	1	1
311	0	0.866667
312	1	1
313	1	1
314	1	1
315	1	1
316	1	1
317	1	1
318	1	1
319	1	1
320	1	1
321	1	1
322	1	1
323	1	1
324	1	1
325	1	1
326	1	1
327	1	1
328	1	1
329	1	1
330	1	1
331	1	1
332	1	1
333	1	1
334	1	1
335	1	1
336	1	1
337	1	1
338	1	1
339	1	1
340	1	1
341	1	1
342	1	1
343	1	1
344	1	1
345	1	1
346	1	1
347	1	1
348	1	1
349	1	1
350	1	1
351	1	1
352	1	1
353	1	1
354	1	1
355	1	1
356	1	1
357	1	1
358	1	1
359	1	1
360	1	1
361	1	1
362	1	1
363	0	1
364	0	1
365	0	0.976098
366	0	0.976098
367	0	0.976098
368	0	0.984001
369	0	0.984001
370	0	0.991968
371	0	0
372	0	0
373	1	1
374	1	1
375	1	1
376	1	1
377	1	1
378	1	1
379	1	1
380	1	1
381	1	1
382	0	0.992
383	0	0.992
384	1	1
385	1	1
386	1	1
387	1	1
388	1	1
389	1	1
390	1	1
391	1	1
392	1	1
393	1	1
394	1	1
395	0	0.976098
396	0	0.976098
397	0	1
398	0	0.992
399	0	1
400	0	0.992
401	0	0.992
402	0	0.992
403	0	0.992
404	0	0.992
405	0	0.93733
406	0	1
407	0	0.610097
408	0	0.59093
409	0	0.591948
410	0	0
411	0	0
412	0	0
413	0	0
414	0	0
415	0	0
416	1	0
417	1	0
418	1	0
419	1	0
420	1	0
421	1	0
422	1	0
423	1	0
424	1	0
425	1	0
426	1	0
427	1	0
428	1	0
429	1	0
430	0	0
431	0	0
432	0	1
433	0	1
434	0	1
435	0	1
436	1	1
437	1	1
438	0	0.52381
439	0	0.166667
440	0	0.254545
441	0	0.164835
442	0	0.285714
443	0	0.295238
444	0	0.465854
445	0	0.462838
446	0	0.346185
447	0	0.983674
448	0	0.98374
449	0	0.98374
450	0	1
451	0	1
452	0	0.960643
453	1	1
454	1	1
455	1	1
456	1	1
457	1	1
458	1	1
459	1	1
460	1	1
461	1	1
462	1	1
463	1	1
464	1	1
465	1	1
466	1	1
467	1	1
468	1	1
469	1	1
470	1	1
471	1	1
472	1	1
473	1	1
474	1	1
475	1	1
476	1	1
477	1	1
478	1	1
479	1	1
480	1	1
481	1	1
482	1	1
483	1	1
484	1	1
485	1	1
486	1	1
487	1	1
488	1	1
489	1	1
490	1	1
491	1	1
492	1	1
493	1	1
494	1	1
495	1	1
496	1	1
497	1	1
498	1	1
499	1	1
500	1	1
501	1	1
502	1	1
503	1	1
504	0	0.968386
505	1	1
506	0	0.99187
507	0	0
508	1	1
509	1	1
510	1	1
511	1	1
512	1	1
513	1	1
514	1	1
515	1	1
516	0	1
517	0	1
518	0	1
519	0	1
520	0	1
521	0	0.952487
522	0	0.5
523	0	0.5
524	0	0.906432
525	0	0.906432
526	0	0.906432
527	0	0.925926
528	0	0.704376
529	0	0.618895
530	0	0.61015
531	0	0.497733
532	0	0.350693
533	0	0.333333
534	0	0.333333
535	0	0.333333
536	0	0.333333
537	0	0
538	0	0
539	0	0.296296
540	0	0.259259
541	0	0
542	0	0
543	0	0
544	0	0
545	0	0
546	0	0
547	0	0.166667
548	0	0.3
549	0	0.416667
550	0	0.406593
551	0	0.406593
552	0	0.358974
553	0	0.227941
554	0	0.227941
555	0	0.227941
556	0	0.280952
557	0	0.255411
558	0	0.239316
559	0	0.302326
560	0	0.309189
561	0	0.343489
562	0	0.275602
563	0	0.287593
564	0	0.226954
565	0	0.210934
566	0	0.3
567	0	0.3
568	0	0.366473
569	0	0.483579
570	0	0.522056
571	0	0.721564
572	0	1
573	0	1
574	0	1
575	0	1
576	0	1
577	0	1
578	0	1
579	0	1
580	0	1
581	0	1
582	0	1
583	0	0.854309
584	0	0.545455
585	0	0.545455
586	0	0.672727
587	0	1
588	0	1
589	0	1
590	0	1
591	0	1
592	0	0.94452
593	0	0.94452
594	0	0.94452
595	0	0.94452
596	0	1
597	0	1
598	0	1
599	0	1
600	0	1
601	0	1
602	0	1
603	0	0.809195
604	0	0.4
605	0	0.238095
606	0	0.238095
607	0	0.214286
608	0	0.142857
609	0	0.181818
610	0	0.163399
611	0	0.136842
612	0	0.189372
613	0	0.339045
614	0	0.230833
615	0	0.260728
616	0	0.204435
617	0	0.122819
618	0	0.114276
619	0	0.0981378
620	0	0.106262
621	0	0.103175
622	0	0.0899471
623	0	0.0925926
624	0	0.188406
625	0	0.0818604
626	0	0.0778373
627	0	0.0735275
628	0	0.0668016
629	0	0.071242
630	0	0.104592
631	0	0.111656
632	0	0.115237
633	0	0.113918
634	0	0.0974946
635	0	0.102524
636	0	0.119641
637	0	0.162021
638	0	0.176451
639	0	0.48203
640	0	0.581081
641	0	0.721591
642	0	0
643	0	0
644	0	0
645	0	0
646	0	0
647	0	0
648	0	0
649	0	0
650	0	0
651	0	0
652	0	0
653	0	0
654	0	0
655	0	0
656	0	0
657	0	0
658	0	0
659	0	0.578977
660	0	0.641119
661	0	0.640803
662	0	0.378788
663	0	0.383599
664	0	0.503336
665	0	0.503336
666	0	0.503336
667	0	0.543237
668	0	0.543237
669	0	0
670	0	0
671	0	0
672	1	0
673	1	0
674	1	0
675	1	0
676	1	0
677	1	0
678	1	0
679	0	0.575
680	0	0.5
681	0	0.5
682	0	0.5
683	0	0.3
684	0	0.877637
685	0	0.96026
686	0	0.968163
687	0	0.968163
688	0	0.968163
689	0	0.968163
690	0	0.960102
691	0	0.983707
692	0	0.928337
693	0	0.913081
694	0	0.544685
695	0	0.54902
696	0	0.857143
697	0	1
698	0	1
699	1	1
700	0	0.885445
701	0	0.885445
702	0	0.893024
703	0	0.893024
704	0	0.893024
705	0	0.991968
706	0	1
707	0	0.717949
708	0	0.899922
709	0	0.899922
710	0	0.899922
711	0	0.899922
712	0	0.759457
713	0	0.69588
714	0	0.319185
715	0	0.297291
716	0	0.33222
717	0	0.47619
718	0	0.666667
719	0	1
720	0	1
721	0	1
722	0	1
723	0	0.5
724	0	0.4419
725	0	0.279343
726	0	0.2625
727	0	0.241443
728	0	0.242105
729	0	0.189542
730	0	0.111111
731	0	0.0714286
732	0	0
733	0	0
734	0	0.333333
735	0	0.333333
736	0	0
737	0	0
738	0	0
739	0	0
740	0	0
741	0	0
742	0	0
743	0	0
744	0	0
745	0	0
746	0	0
747	0	0
748	0	0
749	0	0
750	0	0
751	0	0
752	0	0
753	0	0
754	0	0
755	0	0
756	0	0
757	0	0
758	0	0
759	0	0.263213
760	0	0.267217
761	0	0.258528
762	0	0.257127
763	0	0.105063
764	0	0.0996835
765	0	0.0920826
766	0	0.174153
767	0	0.149819
768	0	0.151964
769	0	0.144577
770	0	0.173314
771	0	0.175783
772	0	0.174651
773	0	0
774	0	0
775	0	0
776	0	0
777	0	0
778	0	0
779	0	0
780	0	0
781	0	0.0666667
782	0	0.0666667
783	0	0.0357143
784	0	0.0277778
785	0	0.0277778
786	0	0.309269
787	0	0.293693
788	0	0.278261
789	0	0.0380952
790	0	0.0571429
791	0	0.047619
792	0	0.0416667
793	0	0.0367647
794	0	0.0286738
795	0	0.0298077
796	0	0.0260017
797	0	0.0411765
798	0	0.0377029
799	0	0.0347144
800	0	0.125759
801	0	0.111614
802	0	0.10881
803	0	0.0860005
804	0	0.0918873
805	0	0.097958
806	0	0.345588
807	0	0.345588
808	0	0.320261
809	0	0.28655
810	0	0.059322
811	0	0.171608
812	0	0.167748
813	0	0.168096
814	0	0.165272
815	0	0.170036
816	0	0.17928
817	0	0.197818
818	0	0.332022
819	0	0.358308
820	0	0.383838
821	0	0.403583
822	0	0.426879
823	0	0.277778
824	0	0.258467
825	0	0.215054
826	0	0.249231
827	0	0.207792
828	0	0.185714
829	0	0.185714
830	0	0.235294
831	0	0.164835
832	0	0.0909091
833	0	0.0909091
834	0	0.0909091
835	0	0.0909091
836	0	0.0909091
837	0	0.0151515
838	0	0.0151515
839	0	0.0294118
840	0	0.0326797
841	0	0.0343707
842	0	0.0342669
843	0	0.0330236
844	0	0.0336154
845	0	0.0346109
846	0	0.032819
847	0	0.035706
848	0	0.0354405
849	0	0.0350755
850	0	0.0317239
851	0	0.0354405
852	0	0.0371329
853	0	0.0364029
854	0	0.0382612
855	0	0.102279
856	0	0.0835769
857	0	0.0307692
858	0	0.0318247
859	0	0.0328245
860	0	0.0270684
861	0	0.0266106
862	0	0.0769231
863	0	0.0466667
864	0	0.0434783
865	0	0.0897436
866	0	0.0897436
867	0	0.0909091
868	0	0.0909091
869	0	0.109091
870	0	0.109091
871	0	0.0666667
872	0	0.0666667
873	0	0.0666667
874	0	0.0666667
875	0	0.0888889
876	0	0.0357143
877	0	0.0357143
878	0	0.0357143
879	0	0
880	0	0
881	0	0.0454545
882	0	0.0313027
883	0	0.0287053
884	0	0.0314821
885	0	0.0313364
886	0	0
887	0	0
888	0	0
889	0	0
890	0	0
891	0	0
892	0	0
893	0	0
894	0	0
895	0	0
896	0	0
897	0	0.0261278
898	0	0.0512821
899	0	0.0512821
900	0	0.043956
901	0	0.0243258
902	0	0.0274987
903	0	0.0262897
904	0	0.0307131
905	0	0.0296195
906	0	0.0308954
907	0	0.0449735
908	0	0.0343434
909	0	0.0329966
910	0	0.0552189
911	0	0.0525253
912	0	0.0506494
913	0	0.0426003
914	0	0.0390041
915	0	0
916	0	0.0376638
917	0	0.039854
918	0	0.0404845
919	0	0.466667
920	0	0.0511894
921	0	0.023208
922	0	0.0329847
923	0	0.0323919
924	0	0
925	0	0
926	0	0
927	0	0.0333322
928	0	0.0317851
929	0	0
930	0	0
931	0	0
932	0	0
933	0	0
934	0	0
935	0	0
936	0	0
937	0	0
938	0	0
939	0	0
940	0	0
941	0	0
942	0	0
943	0	0
944	0	0
945	0	0
946	0	0
947	0	0
948	0	0
949	0	0
950	0	0
951	0	0
952	0	0
953	0	0
954	0	0
955	0	0
956	0	0.047619
957	0	0.0625
958	0	0.0289515
959	0	0.0226558
960	0	0.0259317
961	0	0.0243163
962	0	0.023667
963	0	0.023711
964	0	0
965	0	0
966	0	0
967	0	0
968	0	0
969	0	0
970	0	0
971	0	0.0253048
972	0	0.0242313
973	0	0.0602151
974	0	0.0645161
975	0	0.0689655
976	0	0.0738916
977	0	0.0846561
978	0	0.0846561
979	0	0.0846561
980	0	0.0899471
981	0	0.0846561
982	0	0.0588235
983	0	0.0587121
984	0	0.0587121
985	0	0.0587121
986	0	0.0604839
987	0	0.0712644
988	0	0.0758621
989	0	0.0758621
990	0	0.0709677
991	0	0.0731183
992	0	0.0731183
993	0	0.0688172
994	0	0.0645161
995	0	0.0645161
996	0	0.057041
997	0	0.052381
998	0	0.0398936
999	0	0.0348331
1000	0	0.0338346
1001	0	0.0338346
1002	0	0.0338346
1003	0	0.0350877
1004	0	0.038961
1005	0	0.163399
1006	0	0.176471
1007	0	0.163399
1008	0	0.024101
1009	0	0.0233523
1010	0	0.0242221
1011	0	0.0246905
1012	0	0.0278689
1013	0	0.0293409
1014	0	0.0311141
1015	0	0.0320843
1016	0	0.0324858
1017	0	0
1018	0	0
1019	0	0
1020	0	0
1021	0	0
1022	0	0
1023	0	0
1024	0	0
1025	0	0
1026	0	0.0341074
1027	0	0.0268505
1028	0	0.0268505
1029	0	0
1030	0	0
1031	0	0
1032	0	0.0428571
1033	0	0.0588235
1034	0	0.0526316
1035	0	0.0571429
1036	0	0.0571429
1037	0	0.0571429
1038	0	0.0571429
1039	0	0.0519481
1040	0	0.0519481
1041	0	0.0474308
1042	0	0.0433333
1043	0	0.037037
1044	0	0.0344828
1045	0	0.0413793
1046	0	0.0315315
1047	0	0.0267131
1048	0	0.0196078
1049	0	0.015146
1050	0	0.0141168
1051	0	0.0146341
1052	0	0.0219006
1053	0	0.025581
1054	0	0.0261949
1055	0	0
1056	0	0
1057	0	0
1058	0	0
1059	0	0
1060	0	0
1061	0	0
1062	0	0
1063	0	0
1064	0	0
1065	0	0
1066	0	0
1067	0	0
1068	0	0
1069	0	0
1070	0	0
1071	0	0
1072	0	0
1073	0	0
1074	0	0
1075	0	0
1076	0	0
1077	0	0
1078	0	0
1079	0	0
1080	0	0.0221529
1081	0	0.0209059
1082	0	0.0208727
1083	0	0.0240252
1084	0	0.0227642
1085	0	0.0194714
1086	0	0.0203413
1087	0	0.0195383
1088	0	0.0185499
1089	0	0.0185167
1090	0	0.0193795
1091	0	0.018749
1092	0	0.0167911
1093	0	0.0191472
1094	0	0.0200431
1095	0	0.0205741
1096	0	0.0221669
1097	0	0.0229301
1098	0	0.0223992
1099	0	0.0222333
1100	0	0.0412262
1101	0	0.0243129
1102	0	0.0257092
1103	0	0.0248227
1104	0	0.0200063
1105	0	0.0193515
1106	0	0.0200139
1107	0	0.0202232
1108	0	0.0231172
1109	0	0.0222222
1110	0	0.0222222
1111	0	0.0222222
1112	0	0.0222222
1113	0	0.0222222
1114	0	0.0222222
1115	0	0.0222222
1116	0	0.0181818
1117	0	0.0151515
1118	0	0.0151515
1119	0	0.0151515
1120	0	0.0166667
1121	0	0.0197628
1122	0	0.0193548
1123	0	0.0223639
1124	0	0.0246557
1125	0	0.0249212
1126	0	0.0254521
1127	0	0.0270781
1128	0	0.0266799
1129	0	0.027775
1130	0	0.0274339
1131	0	0.0264808
1132	0	0.010989
1133	0	0
1134	0	0
1135	0	0
1136	0	0
1137	0	0
1138	0	0
1139	0	0
1140	0	0.0253137
1141	0	0.0218122
1142	0	0.0222055
1143	0	0.0219085
1144	0	0.0231884
1145	0	0
1146	0	0
1147	0	0
1148	0	0
1149	0	0
1150	0	0
1151	0	0
1152	0	0
1153	0	0
1154	0	0
1155	0	0
1156	0	0
1157	0	0
1158	0	0
1159	0	0
1160	0	0.0232185
1161	0	0.0218802
1162	0	0.0234686
1163	0	0.0253448
1164	0	0.0264639
1165	0	0.0238636
1166	0	0.0236332
1167	0	0.024094
1168	0	0.0251802
1169	0	0
1170	0	0
1171	0	0
1172	0	0
1173	0	0
1174	0	0
1175	0	0
1176	0	0
1177	0	0
1178	0	0
1179	0	0
1180	0	0
1181	0	0
1182	0	0.0248271
1183	0	0.0243084
1184	0	0.0255533
1185	0	0.0259336
1186	0	0.0261411
1187	0	0.0275934
1188	0	0.0273167
1189	0	0.0265906
1190	0	0.439394
1191	0	0.439394
1192	0	0.439394
1193	0	0.333333
1194	0	0.333333
1195	0	0.333333
1196	0	0.333333
1197	0	0.333333
1198	0	0.333333
1199	0	0.333333
1200	0	0.282051
1201	0	0.282051
1202	0	0.282051
1203	0	0.282051
1204	0	0.209524
1205	0	0.0246214
1206	0	0.0247314
1207	0	0.0291625
1208	0	0.0305896
1209	0	0.0324883
1210	0	0.0337553
1211	0	0.0338622
1212	0	0.041746
1213	0	0.0426984
1214	0	0.0378613
1215	0	0.0201754
1216	0	0.020979
1217	0	0.0253834
1218	0	0.0265537
1219	0	0.0329412
1220	0	0.0314626
1221	0	0.039039
1222	0	0.0528736
1223	0	0.0220588
1224	0	0.0384615
1225	0	0.0444444
1226	0	0.0555556
1227	0	0.0714286
1228	0	0
1229	0	0
1230	0	0
1231	0	0
1232	0	0
1233	0	0
1234	0	0
1235	0	0
1236	0	0
1237	0	0
1238	0	0
1239	0	0
1240	0	0
1241	0	0
1242	0	0
1243	0	0
1244	0	0
1245	0	0
1246	0	0
1247	0	0
1248	0	0
1249	0	0
1250	0	0
1251	0	0
1252	0	0
1253	0	0
1254	0	0
1255	0	0
1256	0	0
1257	0	0
1258	0	0
1259	0	0
1260	0	0
1261	1	0
