Site	ColumnScore	SumOfPairsScore
1	0	0
2	0	0
3	0	0.333333
4	0	0.333333
5	0	0.333333
6	0	0.333333
7	0	0.333333
8	0	0.333333
9	0	0.333333
10	0	0.333333
11	0	0.333333
12	0	0.333333
13	0	0.333333
14	1	1
15	1	1
16	1	1
17	1	1
18	1	1
19	1	1
20	0	0.940326
21	0	0.957457
22	0	0.94359
23	0	0.934314
24	0	0.967047
25	0	0.967182
26	0	0.967712
27	0	0.967712
28	0	0.967712
29	0	0.967712
30	0	0.951784
31	0	0.8
32	0	0.890632
33	0	0.794145
34	0	0.781432
35	0	0.781432
36	0	0.287956
37	0	0
38	0	0
39	0	0.454545
40	0	0.450682
41	0	0.339116
42	0	0.375102
43	0	0.368364
44	0	0.382252
45	0	0.648375
46	0	0.974845
47	0	0.98374
48	1	1
49	1	1
50	1	1
51	1	1
52	1	1
53	1	1
54	0	0.99187
55	0	0.99187
56	0	0.99187
57	0	0.991903
58	0	0.991903
59	0	0.991903
60	0	0.736486
61	0	0.734703
62	0	0.934974
63	0	1
64	0	0.890919
65	0	0.883052
66	0	0.897897
67	0	0
68	1	0
69	1	0
70	1	0
71	0	0.333333
72	0	1
73	0	1
74	1	1
75	1	1
76	1	1
77	1	1
78	1	1
79	0	1
80	0	1
81	0	1
82	0	0.49901
83	0	0.5
84	0	0.514607
85	0	0.544304
86	0	0.576453
87	0	0.652459
88	0	0.711111
89	0	0.758345
90	0	0.751131
91	0	0.748869
92	0	0.651765
93	0	0.672619
94	0	0.770513
95	0	0.685185
96	0	0.641304
97	0	0.641304
98	0	0.875
99	0	0.166667
100	0	0.333333
101	0	0
102	0	0
103	0	0
104	0	0
105	0	0.310521
106	0	0.303953
107	0	0.303149
108	0	0.280932
109	0	0.174787
110	0	0.156324
111	0	0.122073
112	0	0.10677
113	0	0.147899
114	0	0.147899
115	0	0.139496
116	0	0.101961
117	0	0.147059
118	0	0.238739
119	0	0.262763
120	0	0.279279
121	0	0.288762
122	0	0.264271
123	0	0.285777
124	0	0.479113
125	0	0.506161
126	0	0.664433
127	0	0.549454
128	0	0.573557
129	0	0.576839
130	0	0.704537
131	0	0.688307
132	0	1
133	0	1
134	0	1
135	0	1
136	0	1
137	0	0.818898
138	0	0.868405
139	0	0.967809
140	0	0.967938
141	0	0.975904
142	0	0.975904
143	0	0.975904
144	0	0.967938
145	0	0.967938
146	0	0.967938
147	0	0.967938
148	0	0.967938
149	0	0.967938
150	0	0.960004
151	0	0.952103
152	0	1
153	0	1
154	0	1
155	0	1
156	0	0.6
157	0	0.6
158	0	0.771195
159	0	0.694331
160	0	0.625218
161	0	0.625218
162	0	0.579489
163	0	0.542005
164	0	0.534259
165	0	0.383921
166	0	0.218387
167	0	0.222342
168	0	0.218438
169	0	0.209182
170	0	0.136225
171	0	0.143547
172	0	0.172316
173	0	0.172316
174	0	0.168927
175	0	0.175336
176	0	0.172998
177	0	0.195286
178	0	0.22534
179	0	0.236702
180	0	0.278013
181	0	0.290144
182	0	0.292359
183	0	0.294574
184	0	0.294574
185	0	0.321951
186	0	0.0808824
187	0	0.108333
188	0	0.128205
189	0	0.127273
190	0	0.127273
191	0	0.257353
192	0	0.242647
193	0	0.266667
194	0	0.509091
195	0	0.509091
196	0	0.439394
197	0	0.439394
198	0	0.371795
199	0	0.110153
200	0	0.100275
201	0	0.0922056
202	0	0.0973814
203	0	0.0960655
204	0	0.0977202
205	0	0.0977181
206	0	0.0964238
207	0	0.0915401
208	0	0.129882
209	0	0.179111
210	0	0.17733
211	0	0.188958
212	0	0.189885
213	0	0.193571
214	0	0.172932
215	0	0.258201
216	0	0.24516
217	0	0.362201
218	0	0.354527
219	0	0.380131
220	0	0.378593
221	0	0.378702
222	0	0.325511
223	0	0.331817
224	0	1
225	0	0.612
226	0	0.616173
227	0	0.991803
228	0	1
229	1	1
230	1	1
231	1	1
232	1	1
233	1	1
234	1	1
235	1	1
236	0	0.96033
237	0	0.96033
238	0	1
239	1	1
240	1	1
241	1	1
242	1	1
243	1	1
244	1	1
245	1	1
246	1	1
247	0	0.991416
248	0	1
249	1	1
250	1	1
251	1	1
252	1	1
253	1	1
254	1	1
255	1	1
256	1	1
257	0	0.991837
258	1	0
259	0	1
260	0	1
261	0	0.655797
262	0	0.942748
263	0	0.951857
264	0	0.951857
265	0	0.951857
266	0	0.991837
267	0	0.991837
268	0	0.991837
269	0	0.991837
270	0	0.991837
271	0	0.991837
272	0	0.991837
273	0	1
274	0	1
275	0	1
276	0	1
277	0	1
278	0	1
279	0	1
280	0	1
281	0	1
282	1	1
283	1	1
284	0	1
285	0	1
286	0	1
287	0	0.166667
288	0	0
289	0	0
290	0	0.661334
291	0	1
292	0	1
293	0	1
294	0	1
295	0	1
296	0	1
297	0	1
298	0	1
299	0	1
300	0	1
301	0	1
302	0	1
303	0	1
304	0	0.666667
305	0	0.666667
306	0	0.714286
307	0	0.99187
308	1	1
309	1	1
310	1	1
311	1	1
312	1	1
313	1	1
314	1	1
315	1	1
316	0	0.991968
317	0	1
318	0	0.991968
319	0	0.991968
320	0	0.983968
321	0	0.951271
322	0	0.906262
323	1	0
324	1	0
325	0	0.934337
326	1	1
327	1	1
328	1	1
329	1	1
330	1	1
331	1	1
332	1	1
333	0	0.991968
334	1	1
335	1	1
336	1	1
337	1	1
338	1	1
339	1	1
340	1	1
341	0	1
342	0	0.822549
343	0	0.485294
344	0	0.391813
345	0	0.356152
346	0	0.367347
347	0	0.550168
348	0	0.54612
349	0	0.545407
350	0	0.355908
351	0	1
352	0	1
353	0	0.504762
354	0	0.453441
355	0	0.288606
356	0	0.254103
357	0	0.151552
358	0	0.162748
359	0	0.145161
360	0	0.136444
361	0	0.114911
362	0	0
363	0	0
364	0	0
365	0	0.686275
366	0	0.558201
367	0	0.625616
368	0	0.14676
369	0	0.119827
370	0	1
371	0	0.20101
372	0	0.13615
373	0	0.15242
374	0	0.0606061
375	0	0.111111
376	0	0.0857143
377	0	0.0641026
378	0	0.166667
379	0	0
380	0	0
381	0	0
382	0	0
383	0	0
384	0	0
385	0	0
386	0	0
387	0	0
388	0	0
389	0	0
390	0	0
391	0	0
392	0	0
393	0	0
394	0	0
395	0	0.0666667
396	0	0.139491
397	0	0.165361
398	0	0.199134
399	0	0.613187
400	0	0.759432
401	0	0.838462
402	0	0.571429
403	0	0.571429
404	0	1
405	0	1
406	0	1
407	0	0.834442
408	0	0.849157
409	0	0.849157
410	0	0.849157
411	0	0.952358
412	0	1
413	0	1
414	0	1
415	0	0.991935
416	0	0
417	0	0
418	0	0
419	0	0
420	1	1
421	1	1
422	1	1
423	1	1
424	1	1
425	1	1
426	1	1
427	1	1
428	1	1
429	1	1
430	1	1
431	1	1
432	1	1
433	1	1
434	1	1
435	1	1
436	1	1
437	1	1
438	1	1
439	1	1
440	1	1
441	1	1
442	0	0.992
443	0	0.976129
444	0	1
445	0	0.894895
446	0	0.625253
447	0	0.39926
448	0	0.288596
449	0	0.22183
450	0	0.18113
451	0	0.205699
452	0	0.196683
453	0	0.335536
454	0	0
455	0	0
456	0	0
457	0	0.400214
458	0	0.451791
459	0	0.714024
460	0	0.764048
461	0	0.77058
462	0	0.960643
463	0	0.960643
464	1	1
465	1	1
466	1	1
467	1	1
468	1	1
469	1	1
470	1	1
471	1	1
472	1	1
473	1	1
474	1	1
475	1	1
476	1	1
477	1	1
478	1	1
479	1	1
480	1	1
481	1	1
482	0	0.937574
483	0	0.937574
484	0	1
485	0	0.333333
486	0	0.921542
487	0	0.513125
488	0	0.310174
489	0	0
490	0	0
491	0	0
492	0	0
493	0	0
494	0	0
495	0	0
496	0	0
497	1	0
498	1	0
499	1	0
500	1	0
501	0	0
502	0	0
503	0	0
504	0	0
505	0	0
506	0	0
507	0	0
508	0	0
509	0	0.333333
510	0	0.333333
511	0	0.333333
512	0	0.333333
513	0	0.333333
514	0	0.166667
515	0	0.2
516	0	0.222222
517	0	0.428283
518	0	0.389266
519	0	0.391107
520	0	0.3006
521	0	0.319451
522	0	0.514968
523	0	0.760641
524	1	1
525	1	1
526	1	1
527	1	1
528	1	1
529	1	1
530	1	1
531	1	1
532	1	1
533	1	1
534	1	1
535	1	1
536	1	1
537	1	1
538	1	1
539	1	1
540	1	1
541	1	1
542	0	1
543	0	0.885912
544	0	0.984064
545	0	0.333333
546	1	1
547	1	1
548	1	1
549	1	1
550	1	1
551	1	1
552	1	1
553	1	1
554	1	1
555	1	1
556	1	1
557	1	1
558	1	1
559	1	1
560	1	1
561	1	1
562	1	1
563	1	1
564	1	1
565	1	1
566	0	1
567	0	0
568	0	0
569	0	0
570	0	0
571	0	0
572	1	0
573	1	0
574	1	0
575	1	0
576	1	0
577	1	0
578	1	0
579	0	0
580	0	0
581	0	0
582	0	0
583	0	0.947925
584	0	0.810077
585	0	0.61664
586	0	0.679915
587	0	0.892723
588	0	0.907598
589	0	0.56044
590	1	1
591	1	1
592	1	1
593	1	1
594	1	1
595	1	1
596	1	1
597	1	1
598	1	1
599	1	1
600	1	1
601	1	1
602	1	1
603	1	1
604	1	1
605	1	1
606	1	1
607	1	1
608	1	1
609	1	1
610	1	1
611	1	1
612	1	1
613	1	1
614	1	1
615	1	1
616	1	1
617	0	1
618	0	1
619	0	1
620	0	0.948735
621	0	0.800176
622	0	0.764706
623	0	0.695664
624	0	0.590301
625	0	0.590301
626	0	0.573817
627	0	0.545816
628	0	0.51917
629	0	0.513608
630	0	0.468591
631	0	0.296642
632	0	0.296959
633	0	0.275186
634	0	0.198248
635	0	0.169395
636	0	0.168481
637	0	0.113529
638	0	0.126398
639	0	0.173221
640	0	0.234251
641	0	0.241418
642	1	0
643	1	0
644	1	0
645	0	0
646	0	0
647	0	0
648	0	0
649	0	0
650	0	0.318015
651	0	0.47619
652	0	0.500891
653	0	0.568548
654	0	0.190476
655	0	0.266667
656	0	0.266667
657	0	0.266667
658	0	0.333333
659	0	0.894737
660	0	1
661	0	1
662	0	1
663	0	1
664	0	1
665	0	1
666	0	1
667	0	1
668	0	1
669	0	1
670	0	1
671	0	0.52381
672	0	0.52381
673	0	0.935483
674	0	0.47619
675	0	0.881164
676	0	0.859945
677	0	0.853076
678	0	0.845729
679	0	0.47619
680	0	0.47619
681	0	0.47619
682	0	0.392857
683	0	0.721204
684	0	0.524017
685	0	0
686	0	0
687	0	0.466206
688	0	0.38729
689	0	0.276579
690	0	0.247327
691	0	0.32229
692	0	0.426899
693	0	0.257895
694	0	0.323529
695	0	0.469697
696	0	0.383275
697	0	0.519328
698	0	1
699	0	1
700	0	1
701	0	1
702	0	0.975709
703	0	0.983773
704	0	0.983773
705	0	0.983773
706	0	0.97584
707	0	0.97584
708	0	0.97584
709	0	0.97584
710	0	1
711	0	1
712	0	1
713	1	1
714	1	1
715	1	1
716	1	1
717	1	1
718	1	1
719	1	1
720	1	1
721	0	0.6
722	0	0.6
723	0	0.6
724	1	1
725	0	0.666667
726	1	1
727	0	0.714286
728	0	0.656783
729	0	0.991803
730	0	0.983707
731	0	0.983707
732	0	0.983707
733	0	0.983707
734	0	0.991837
735	0	0.991837
736	0	1
737	0	1
738	0	1
739	0	0.832085
740	0	0.832085
741	0	0.714286
742	0	0.271739
743	0	0.596874
744	0	0.507151
745	0	0.532205
746	0	0.591936
747	0	0.616783
748	0	0.692767
749	0	0
750	0	0
751	1	0
752	1	0
753	1	0
754	0	0
755	0	0
756	0	0
757	0	0
758	0	0
759	0	0
760	0	0.333333
761	0	0.571429
762	0	0.927958
763	0	0.93712
764	0	0.939937
765	0	1
766	0	1
767	0	1
768	0	1
769	0	0.960196
770	0	0.952325
771	0	0.952325
772	0	0.952358
773	0	0.960069
774	0	1
775	0	1
776	0	0.968098
777	0	0.968098
778	0	0.968098
779	0	0.968098
780	0	0.968098
781	0	0.968098
782	0	0.960353
783	0	1
784	0	1
785	0	0.333333
786	0	0.333333
787	0	0.2
788	0	0.142857
789	0	0.755191
790	0	0.429835
791	0	0.373268
792	0	0.365617
793	0	0.300296
794	0	0.277519
795	0	0.352029
796	0	0.36118
797	0	0.771634
798	0	0.813699
799	0	0.835094
800	0	0.960196
801	0	0.960196
802	0	0.960196
803	0	0.960196
804	0	0.960196
805	0	0.960196
806	0	0.960037
807	0	0.952882
808	0	1
809	0	1
810	0	1
811	0	0.681146
812	0	0.667525
813	0	0.585086
814	0	0.584726
815	0	0.584596
816	0	0.510911
817	0	0.497614
818	0	0.266667
819	0	0.333333
820	0	0.358333
821	0	0.78074
822	0	0.771138
823	0	0.771138
824	0	0.761283
825	0	0.572657
826	0	0.570021
827	0	0.440211
828	0	0.249514
829	0	0
830	0	0
831	0	0.555932
832	0	0.555932
833	0	0
834	0	0.422764
835	0	0.414378
836	0	0.381692
837	0	0.319371
838	0	0.445355
839	0	0.446655
840	0	0.792249
841	0	0.805219
842	0	0.811929
843	0	0.811929
844	0	0.51052
845	0	0.253133
846	0	0.259524
847	0	0.215014
848	0	0.197796
849	0	0
850	0	0
851	0	0
852	0	0
853	0	0
854	0	0
855	0	0
856	0	0
857	0	0.295486
858	0	0.274692
859	0	0.47619
860	0	0.666667
861	0	0.714286
862	0	0.714286
863	0	0.454545
864	0	0.307692
865	0	0.307692
866	0	0.307692
867	0	0.307692
868	0	0.307692
869	0	0.208791
870	0	0.228571
871	0	0.183333
872	0	0.505495
873	0	0.437908
874	0	0.293902
875	0	0.254446
876	0	0.203963
877	0	0.244087
878	0	0.299856
879	0	0.300607
880	0	0.379754
881	0	0.376662
882	0	0.381084
883	0	0.333288
884	0	0.32302
885	0	0
886	0	0
887	0	0.493827
888	0	0.418617
889	0	0.311647
890	0	0.225253
891	0	0.233371
892	0	0.176594
893	0	0.146446
894	0	0.882353
895	0	0.784314
896	0	0.203735
897	0	0.327485
898	0	0.327485
899	0	0.133226
900	0	0.136895
901	0	0.135258
902	0	0.1
903	0	0.15286
904	0	0.23262
905	0	0.246756
906	0	0.256015
907	0	0.255484
908	0	0.25557
909	0	0.252829
910	0	0.252331
911	0	0.0994152
912	0	0.0994152
913	0	0.0894737
914	0	0.0809524
915	0	0.0769231
916	0	0.0757576
917	0	0.228393
918	0	0.225676
919	0	0.220915
920	0	0.220697
921	0	0.224479
922	0	0.223439
923	0	0.223554
924	0	0.234282
925	0	0.273091
926	0	0.299449
927	0	0.355796
928	0	0.17
929	0	0.0808824
930	0	0.121212
931	0	0.0727273
932	0	0.1
933	0	0
934	0	0
935	0	0
936	0	0
937	0	0
938	0	0
939	0	0
940	0	0
941	0	0
942	0	0
943	0	0
944	0	0.666667
945	0	0.511705
946	0	0.5159
947	0	0.589194
948	0	0.589194
949	0	0.589194
950	0	0.589194
951	0	0.578596
952	0	1
953	0	0.5
954	0	0.576536
955	0	0.576536
956	0	0
957	0	0
958	0	0
959	0	0
960	0	0
961	0	0
962	0	0
963	0	0
964	0	0
965	0	0
966	0	0
967	0	0
968	0	0
969	0	0
970	0	0
971	0	0
972	0	1
973	0	1
974	0	1
975	0	1
976	0	1
977	0	1
978	0	1
979	0	1
980	0	1
981	0	1
982	0	1
983	0	1
984	0	1
985	0	1
986	0	1
987	0	1
988	0	1
989	0	1
990	0	1
991	0	1
992	0	1
993	0	1
994	0	1
995	0	1
996	0	1
997	0	1
998	0	1
999	0	1
1000	0	1
1001	0	1
1002	0	1
1003	0	1
1004	0	1
1005	0	1
1006	0	1
1007	0	1
1008	0	1
1009	0	1
1010	0	1
1011	0	1
1012	0	1
1013	0	1
1014	0	1
1015	0	1
1016	0	1
1017	0	1
1018	0	1
1019	0	1
1020	0	1
1021	0	1
1022	0	1
1023	0	1
1024	0	1
1025	0	1
1026	0	1
1027	0	1
1028	0	1
1029	0	1
1030	0	1
1031	0	1
1032	0	1
1033	0	1
1034	0	1
1035	0	1
1036	0	1
1037	0	1
1038	0	1
1039	0	1
1040	0	1
1041	0	1
1042	0	1
1043	0	1
1044	0	1
1045	0	1
1046	0	1
1047	0	1
1048	1	1
1049	0	1
1050	0	1
1051	0	1
1052	0	1
1053	0	1
1054	0	1
1055	0	1
1056	0	1
1057	0	0.565223
1058	0	0.565223
1059	0	1
1060	0	1
1061	1	1
1062	1	1
1063	1	1
1064	0	1
1065	0	1
1066	0	1
1067	0	1
1068	0	1
1069	0	1
1070	0	1
1071	1	1
1072	1	1
1073	1	1
1074	1	1
1075	1	1
1076	1	1
1077	1	1
1078	1	1
1079	1	1
1080	1	1
1081	1	1
1082	1	1
1083	1	1
1084	1	1
1085	1	1
1086	1	1
1087	1	1
1088	1	1
1089	1	1
1090	1	1
1091	1	1
1092	1	1
1093	1	1
1094	1	1
1095	1	1
1096	1	1
1097	1	1
1098	1	1
1099	1	1
1100	1	1
1101	1	1
1102	1	1
1103	1	1
1104	1	1
1105	1	1
1106	1	1
1107	1	1
1108	1	1
1109	1	1
1110	1	1
1111	1	1
1112	1	1
1113	1	1
1114	1	1
1115	1	1
1116	1	1
1117	1	1
1118	1	1
1119	1	1
1120	1	1
1121	1	1
1122	1	1
1123	1	1
1124	1	1
1125	1	1
1126	1	1
1127	1	1
1128	1	1
1129	1	1
1130	1	1
1131	1	1
1132	1	1
1133	1	1
1134	1	1
1135	1	1
1136	1	1
1137	1	1
1138	1	1
1139	1	1
1140	1	1
1141	1	1
1142	1	1
1143	1	1
1144	1	1
1145	1	1
1146	1	1
1147	1	1
1148	1	1
1149	1	1
1150	1	1
1151	1	1
1152	1	1
1153	1	1
1154	1	1
1155	1	1
1156	1	1
1157	1	1
1158	1	1
1159	1	1
1160	1	1
1161	1	1
1162	1	1
1163	1	1
1164	1	1
1165	1	1
1166	1	1
1167	1	1
1168	1	1
1169	1	1
1170	1	1
1171	1	1
1172	1	1
1173	1	1
1174	1	1
1175	1	1
1176	1	1
1177	1	1
1178	1	1
1179	1	1
1180	1	1
1181	1	1
1182	1	1
1183	1	1
1184	1	1
1185	1	1
1186	1	1
1187	1	1
1188	1	1
1189	1	1
1190	1	1
1191	1	1
1192	1	1
1193	1	1
1194	1	1
1195	1	1
1196	1	1
1197	1	1
1198	1	1
1199	1	1
1200	1	1
1201	1	1
1202	1	1
1203	1	1
1204	1	1
1205	1	1
1206	1	1
1207	1	1
1208	1	1
1209	0	0.551691
1210	0	0.551691
1211	0	0.556158
1212	0	0.556158
1213	0	1
1214	0	1
1215	0	1
1216	0	1
1217	0	1
1218	0	1
1219	0	0.466667
1220	0	1
1221	0	0.72
1222	0	0.72
1223	0	0.72
1224	0	0.72
1225	0	0.72
1226	0	0.72
1227	0	0.398319
1228	0	0.324359
1229	0	0.352386
1230	0	0
1231	0	0
1232	0	0
1233	0	0
1234	0	0
1235	0	0
1236	0	0
1237	0	0
1238	0	0
1239	0	0
1240	0	0
1241	0	0
1242	0	0
1243	0	0
1244	0	0
1245	0	0
1246	0	0
1247	0	0
1248	0	0
1249	0	0
1250	0	0
1251	0	0
1252	0	0
1253	0	1
1254	0	1
1255	0	1
1256	0	1
1257	0	1
1258	0	1
1259	0	0.6
1260	0	0.313199
1261	0	0.27343
1262	0	0.250887
1263	0	0.240646
1264	0	0.223673
1265	0	0.132731
1266	1	1
1267	1	1
1268	1	1
1269	1	1
1270	1	1
1271	1	1
1272	1	1
1273	1	1
1274	1	1
1275	1	1
1276	1	1
1277	1	1
1278	1	1
1279	1	1
1280	0	0.175719
1281	0	0.666667
1282	0	0.666667
1283	0	0.666667
1284	0	0.666667
1285	0	0.666667
1286	0	0.666667
1287	0	0.47619
1288	0	0.357143
1289	0	0.305556
1290	0	0.369458
1291	0	0.212625
1292	0	0.118747
1293	0	0.1125
1294	0	0.0859065
1295	0	0.108333
1296	0	0.1
1297	0	0.0850873
1298	0	0.0977961
1299	0	0.104958
1300	0	0.104487
1301	0	0.103982
1302	0	0.119006
1303	0	0.111899
1304	0	0.102722
1305	0	0.101832
1306	0	0.0993361
1307	0	0.0937729
1308	0	0.0937729
1309	0	0.0867305
1310	0	0.0867266
1311	0	0.0896175
1312	0	0.0892655
1313	0	0.0868687
1314	0	0.107308
1315	0	0.140825
1316	0	0.129129
1317	0	0.138138
1318	0	0.140394
1319	0	0.107527
1320	0	0.115764
1321	0	0.138528
1322	0	0.2
1323	0	0.190476
1324	0	0.190476
1325	0	0.30303
1326	0	0.290909
1327	0	0.290909
1328	0	0.290909
1329	0	0.355556
1330	0	0.666667
1331	0	0.666667
1332	0	0.666667
1333	0	0.666667
1334	0	0.666667
1335	0	0.666667
1336	0	0.666667
1337	1	1
1338	1	1
1339	1	1
1340	1	1
1341	1	1
1342	1	1
1343	1	1
1344	1	1
1345	1	1
1346	1	1
1347	1	1
1348	1	1
1349	1	1
1350	1	1
1351	1	1
1352	1	1
1353	1	1
1354	1	1
1355	1	1
