Site	ColumnScore	SumOfPairsScore
1	1	0
2	1	0
3	1	0
4	1	0
5	1	0
6	1	0
7	1	0
8	1	0
9	1	0
10	1	0
11	1	0
12	1	0
13	1	0
14	1	0
15	1	0
16	1	0
17	1	0
18	1	0
19	1	0
20	1	0
21	1	0
22	1	0
23	1	0
24	1	0
25	1	0
26	1	0
27	1	0
28	1	0
29	1	0
30	1	0
31	1	0
32	1	0
33	1	0
34	1	0
35	1	0
36	1	0
37	1	0
38	1	0
39	1	0
40	1	0
41	1	0
42	1	0
43	1	0
44	1	0
45	1	0
46	1	0
47	1	0
48	1	0
49	1	0
50	1	0
51	1	0
52	1	0
53	1	0
54	1	0
55	1	0
56	1	0
57	1	0
58	1	0
59	1	0
60	1	0
61	1	0
62	1	0
63	1	0
64	1	0
65	1	0
66	1	0
67	1	0
68	1	0
69	1	0
70	1	0
71	1	0
72	1	0
73	1	0
74	1	0
75	1	0
76	1	0
77	1	0
78	1	0
79	1	0
80	1	0
81	1	0
82	1	0
83	1	0
84	1	0
85	1	0
86	1	0
87	1	0
88	1	0
89	1	0
90	1	0
91	1	0
92	1	0
93	1	0
94	1	0
95	1	0
96	1	0
97	1	0
98	1	0
99	1	0
100	1	0
101	1	0
102	1	0
103	1	0
104	1	0
105	1	0
106	1	0
107	1	0
108	1	0
109	1	0
110	1	0
111	1	0
112	1	0
113	1	0
114	1	0
115	1	0
116	1	0
117	1	0
118	1	0
119	1	0
120	1	0
121	1	0
122	1	0
123	1	0
124	1	0
125	1	0
126	1	0
127	1	0
128	1	0
129	1	0
130	1	0
131	1	0
132	1	0
133	1	0
134	1	0
135	1	0
136	1	0
137	1	0
138	1	0
139	1	0
140	1	0
141	1	0
142	1	0
143	1	0
144	1	0
145	1	0
146	1	0
147	1	0
148	1	0
149	1	0
150	1	0
151	1	0
152	1	0
153	1	0
154	1	0
155	1	0
156	1	0
157	1	0
158	1	0
159	1	0
160	1	0
161	1	0
162	1	0
163	1	0
164	1	0
165	1	0
166	1	0
167	1	0
168	1	0
169	1	0
170	1	0
171	1	0
172	1	0
173	1	0
174	1	0
175	1	0
176	1	0
177	1	0
178	1	0
179	1	0
180	1	0
181	1	0
182	1	0
183	1	0
184	1	0
185	1	0
186	1	0
187	1	0
188	1	0
189	1	0
190	1	0
191	1	0
192	1	0
193	1	0
194	1	0
195	1	0
196	1	0
197	1	0
198	1	0
199	1	0
200	1	0
201	1	0
202	1	0
203	1	0
204	1	0
205	1	0
206	1	0
207	1	0
208	1	0
209	1	0
210	1	0
211	1	0
212	1	0
213	1	0
214	1	0
215	1	0
216	1	0
217	1	0
218	1	0
219	1	0
220	1	0
221	1	0
222	1	0
223	1	0
224	1	0
225	1	0
226	1	0
227	1	0
228	1	0
229	1	0
230	1	0
231	1	0
232	1	0
233	1	0
234	1	0
235	1	0
236	1	0
237	1	0
238	1	0
239	1	0
240	1	0
241	1	0
242	1	0
243	1	0
244	1	0
245	1	0
246	1	0
247	1	0
248	1	0
249	1	0
250	1	0
251	1	0
252	1	0
253	1	0
254	1	0
255	1	0
256	1	0
257	1	0
258	1	0
259	1	0
260	1	0
261	1	0
262	1	0
263	1	0
264	1	0
265	1	0
266	1	0
267	1	0
268	1	0
269	1	0
270	1	0
271	1	0
272	1	0
273	1	0
274	1	0
275	1	0
276	1	0
277	1	0
278	1	0
279	1	0
280	1	0
281	1	0
282	1	0
283	1	0
284	1	0
285	1	0
286	1	0
287	1	0
288	1	0
289	1	0
290	1	0
291	1	0
292	1	0
293	1	0
294	1	0
295	1	0
296	1	0
297	1	0
298	1	0
299	1	0
300	1	0
301	1	0
302	1	0
303	1	0
304	1	0
305	1	0
306	1	0
307	1	0
308	1	0
309	1	0
310	1	0
311	1	0
312	1	0
313	1	0
314	1	0
315	1	0
316	1	0
317	1	0
318	1	0
319	1	0
320	1	0
321	1	0
322	1	0
323	1	0
324	1	0
325	1	0
326	1	0
327	1	0
328	1	0
329	1	0
330	1	0
331	1	0
332	1	0
333	1	0
334	1	0
335	1	0
336	1	0
337	1	0
338	1	0
339	1	0
340	1	0
341	1	0
342	1	0
343	1	0
344	1	0
345	1	0
346	1	0
347	1	0
348	1	0
349	1	0
350	1	0
351	1	0
352	1	0
353	1	0
354	1	0
355	1	0
356	1	0
357	1	0
358	1	0
359	1	0
360	1	0
361	1	0
362	1	0
363	1	0
364	1	0
365	1	0
366	1	0
367	1	0
368	1	0
369	1	0
370	1	0
371	1	0
372	1	0
373	1	0
374	1	0
375	1	0
376	1	0
377	1	0
378	1	0
379	1	0
380	1	0
381	1	0
382	1	0
383	1	0
384	1	0
385	1	0
386	1	0
387	1	0
388	1	0
389	1	0
390	1	0
391	1	0
392	1	0
393	1	0
394	1	0
395	1	0
396	1	0
397	1	0
398	1	0
399	1	0
400	1	0
401	1	0
402	1	0
403	1	0
404	1	0
405	1	0
406	1	0
407	1	0
408	1	0
409	1	0
410	1	0
411	1	0
412	1	0
413	1	0
414	1	0
415	1	0
416	1	0
417	1	0
418	1	0
419	1	0
420	1	0
421	1	0
422	1	0
423	1	0
424	1	0
425	1	0
426	1	0
427	1	0
428	1	0
429	1	0
430	1	0
431	1	0
432	1	0
433	1	0
434	1	0
435	1	0
436	1	0
437	1	0
438	1	0
439	1	0
440	1	0
441	1	0
442	1	0
443	1	0
444	1	0
445	1	0
446	1	0
447	1	0
448	1	0
449	1	0
450	1	0
451	1	0
452	1	0
453	1	0
454	1	0
455	1	0
456	1	0
457	1	0
458	1	0
459	1	0
460	1	0
461	1	0
462	1	0
463	1	0
464	1	0
465	1	0
466	1	0
467	1	0
468	1	0
469	1	0
470	1	0
471	1	0
472	1	0
473	1	0
474	1	0
475	1	0
476	1	0
477	1	0
478	1	0
479	1	0
480	1	0
481	1	0
482	1	0
483	1	0
484	1	0
485	1	0
486	1	0
487	1	0
488	1	0
489	1	0
490	1	0
491	1	0
492	1	0
493	1	0
494	1	0
495	1	0
496	1	0
497	1	0
498	1	0
499	1	0
500	1	0
501	1	0
502	1	0
503	1	0
504	1	0
505	1	0
506	1	0
507	1	0
508	1	0
509	1	0
510	1	0
511	1	0
512	1	0
513	1	0
514	1	0
515	1	0
516	1	0
517	1	0
518	1	0
519	1	0
520	1	0
521	1	0
522	1	0
523	1	0
524	1	0
525	1	0
526	1	0
527	1	0
528	1	0
529	1	0
530	1	0
531	1	0
532	1	0
533	1	0
534	1	0
535	1	0
536	1	0
537	1	0
538	1	0
539	1	0
540	1	0
541	1	0
542	1	0
543	1	0
544	1	0
545	1	0
546	1	0
547	1	0
548	1	0
549	1	0
550	1	0
551	1	0
552	1	0
553	1	0
554	1	0
555	1	0
556	1	0
557	1	0
558	1	0
559	1	0
560	1	0
561	1	0
562	1	0
563	1	0
564	1	0
565	1	0
566	1	0
567	1	0
568	1	0
569	1	0
570	1	0
571	1	0
572	1	0
573	1	0
574	1	0
575	1	0
576	1	0
577	1	0
578	1	0
579	1	0
580	1	0
581	1	0
582	1	0
583	1	0
584	1	0
585	1	0
586	1	0
587	1	0
588	1	0
589	1	0
590	1	0
591	1	0
592	1	0
593	1	0
594	1	0
595	1	0
596	1	0
597	1	0
598	1	0
599	1	0
600	1	0
601	1	0
602	1	0
603	1	0
604	1	0
605	1	0
606	1	0
607	1	0
608	1	0
609	1	0
610	1	0
611	1	0
612	1	0
613	1	0
614	1	0
615	1	0
616	1	0
617	1	0
618	1	0
619	1	0
620	1	0
621	1	0
622	1	0
623	1	0
624	1	0
625	1	0
626	1	0
627	1	0
628	1	0
629	1	0
630	1	0
631	1	0
632	1	0
633	1	0
634	1	0
635	1	0
636	1	0
637	1	0
638	1	0
639	1	0
640	1	0
641	1	0
642	1	0
643	1	0
644	1	0
645	1	0
646	1	0
647	1	0
648	1	0
649	1	0
650	1	0
651	1	0
652	1	0
653	1	0
654	1	0
655	1	0
656	1	0
657	1	0
658	1	0
659	1	0
660	1	0
661	1	0
662	1	0
663	1	0
664	1	0
665	1	0
666	1	0
667	1	0
668	1	0
669	1	0
670	1	0
671	1	0
672	1	0
673	1	0
674	1	0
675	1	0
676	1	0
677	1	0
678	1	0
679	1	0
680	1	0
681	1	0
682	1	0
683	1	0
684	1	0
685	1	0
686	1	0
687	1	0
688	1	0
689	1	0
690	1	0
691	1	0
692	1	0
693	1	0
694	1	0
695	1	0
696	1	0
697	1	0
698	1	0
699	1	0
700	1	0
701	1	0
702	1	0
703	1	0
704	1	0
705	1	0
706	1	0
707	1	0
708	1	0
709	1	0
710	1	0
711	1	0
712	1	0
713	1	0
714	1	0
715	1	0
716	1	0
717	1	0
718	1	0
719	1	0
720	1	0
721	1	0
722	1	0
723	1	0
724	1	0
725	1	0
726	1	0
727	1	0
728	1	0
729	1	0
730	1	0
731	1	0
732	1	0
733	1	0
734	1	0
735	1	0
736	1	0
737	1	0
738	1	0
739	1	0
740	1	0
741	1	0
742	1	0
743	1	0
744	1	0
745	1	0
746	1	0
747	1	0
748	1	0
749	1	0
750	1	0
751	1	0
752	1	0
753	1	0
754	1	0
755	1	0
756	1	0
757	1	0
758	1	0
759	1	0
760	1	0
761	1	0
762	1	0
763	1	0
764	1	0
765	1	0
766	1	0
767	1	0
768	1	0
769	1	0
770	1	0
771	1	0
772	1	0
773	1	0
774	1	0
775	1	0
776	1	0
777	1	0
778	1	0
779	1	0
780	1	0
781	1	0
782	1	0
783	1	0
784	1	0
785	1	0
786	1	0
787	1	0
788	1	0
789	1	0
790	1	0
791	1	0
792	1	0
793	1	0
794	1	0
795	1	0
796	1	0
797	1	0
798	1	0
799	1	0
800	1	0
801	1	0
802	1	0
803	1	0
804	1	0
805	1	0
806	1	0
807	1	0
808	1	0
809	1	0
810	1	0
811	1	0
812	1	0
813	1	0
814	1	0
815	1	0
816	1	0
817	1	0
818	1	0
819	1	0
820	1	0
821	1	0
822	1	0
823	1	0
824	1	0
825	1	0
826	1	0
827	1	0
828	1	0
829	1	0
830	1	0
831	1	0
832	1	0
833	1	0
834	1	0
835	1	0
836	1	0
837	1	0
838	1	0
839	1	0
840	1	0
841	1	0
842	1	0
843	1	0
844	1	0
845	1	0
846	1	0
847	1	0
848	1	0
849	1	0
850	1	0
851	1	0
852	1	0
853	1	0
854	1	0
855	1	0
856	1	0
857	1	0
858	1	0
859	1	0
860	1	0
861	1	0
862	1	0
863	1	0
864	1	0
865	1	0
866	1	0
867	1	0
868	1	0
869	1	0
870	1	0
871	1	0
872	1	0
873	1	0
874	1	0
875	1	0
876	1	0
877	1	0
878	1	0
879	1	0
880	1	0
881	1	0
882	1	0
883	1	0
884	1	0
885	1	0
886	1	0
887	1	0
888	1	0
889	1	0
890	1	0
891	1	0
892	1	0
893	1	0
894	1	0
895	1	0
896	1	0
897	1	0
898	1	0
899	1	0
900	1	0
901	1	0
902	1	0
903	1	0
904	1	0
905	1	0
906	1	0
907	1	0
908	1	0
909	1	0
910	1	0
911	1	0
912	1	0
913	1	0
914	1	0
915	1	0
916	1	0
917	1	0
918	1	0
919	1	0
920	1	0
921	1	0
922	1	0
923	1	0
924	1	0
925	1	0
926	1	0
927	1	0
928	1	0
929	1	0
930	1	0
931	1	0
932	1	0
933	1	0
934	1	0
935	1	0
936	1	0
937	1	0
938	1	0
939	1	0
940	1	0
941	1	0
942	1	0
943	1	0
944	1	0
945	1	0
946	1	0
947	1	0
948	1	0
949	1	0
950	1	0
951	1	0
952	1	0
953	1	0
954	1	0
955	1	0
956	1	0
957	1	0
958	1	0
959	1	0
960	1	0
961	1	0
962	1	0
963	1	0
964	1	0
965	1	0
966	1	0
967	1	0
968	1	0
969	1	0
970	1	0
971	1	0
972	1	0
973	1	0
974	1	0
975	1	0
976	1	0
977	1	0
978	1	0
979	1	0
980	1	0
981	1	0
982	1	0
983	1	0
984	1	0
985	1	0
986	1	0
987	1	0
988	1	0
989	1	0
990	1	0
991	1	0
992	1	0
993	1	0
994	1	0
995	1	0
996	1	0
997	1	0
998	1	0
999	1	0
1000	1	0
1001	1	0
1002	1	0
1003	1	0
1004	1	0
1005	1	0
1006	1	0
1007	1	0
1008	1	0
1009	1	0
1010	1	0
1011	1	0
1012	1	0
1013	1	0
1014	1	0
1015	1	0
1016	1	0
1017	1	0
1018	1	0
1019	1	0
1020	1	0
1021	1	0
1022	1	0
1023	1	0
1024	1	0
1025	1	0
1026	1	0
1027	1	0
1028	1	0
1029	1	0
1030	1	0
1031	1	0
1032	1	0
1033	1	0
1034	1	0
1035	1	0
1036	1	0
1037	1	0
1038	1	0
1039	1	0
1040	1	0
1041	1	0
1042	1	0
1043	1	0
1044	1	0
1045	1	0
1046	1	0
1047	1	0
1048	1	0
1049	1	0
1050	1	0
1051	1	0
1052	1	0
1053	1	0
1054	1	0
1055	1	0
1056	1	0
1057	1	0
1058	1	0
1059	1	0
1060	1	0
1061	1	0
1062	1	0
1063	1	0
1064	1	0
1065	1	0
1066	1	0
1067	1	0
1068	1	0
1069	1	0
1070	1	0
1071	1	0
1072	1	0
1073	1	0
1074	1	0
1075	1	0
1076	1	0
1077	1	0
1078	1	0
1079	1	0
1080	1	0
1081	1	0
1082	1	0
1083	1	0
1084	1	0
1085	1	0
1086	1	0
1087	1	0
1088	1	0
1089	1	0
1090	1	0
1091	1	0
1092	1	0
1093	1	0
1094	1	0
1095	1	0
1096	1	0
1097	1	0
1098	1	0
1099	1	0
1100	1	0
1101	1	0
1102	1	0
1103	1	0
1104	1	0
1105	1	0
1106	1	0
1107	1	0
1108	1	0
1109	1	0
1110	1	0
1111	0	0
1112	0	0
1113	0	0
1114	0	0
1115	0	0
1116	0	0
1117	0	0
1118	0	0
1119	0	0
1120	0	0
1121	0	0
1122	0	0
1123	0	0
1124	0	0
1125	0	0
1126	0	0
1127	0	0
1128	0	0
1129	0	0
1130	0	0
1131	0	0
1132	0	0
1133	0	0
1134	1	0
1135	1	0
1136	0	0
1137	0	0
1138	0	0
1139	0	0
1140	0	0
1141	0	0
1142	0	0
1143	0	0
1144	0	0
1145	0	0
1146	0	0
1147	0	0
1148	0	0
1149	0	0
1150	0	0
1151	0	0
1152	0	0
1153	0	0
1154	0	0
1155	0	0
1156	0	0
1157	1	0
1158	1	0
1159	1	0
1160	1	0
1161	1	0
1162	0	0
1163	0	0
1164	0	0
1165	0	0
1166	0	0
1167	0	0
1168	0	0
1169	0	0
1170	0	0
1171	0	0
1172	0	0
1173	0	0
1174	0	0
1175	0	0
1176	0	0
1177	0	0
1178	1	0
1179	1	0
1180	1	0
1181	1	0
1182	1	0
1183	1	0
1184	1	0
1185	1	0
1186	1	0
1187	1	0
1188	1	0
1189	1	0
1190	1	0
1191	1	0
1192	1	0
1193	1	0
1194	1	0
1195	1	0
1196	1	0
1197	1	0
1198	1	0
1199	1	0
1200	1	0
1201	0	0
1202	0	0
1203	0	0
1204	0	0
1205	0	0
1206	0	0
1207	0	0
1208	0	0
1209	0	0
1210	0	0
1211	1	0
1212	1	0
1213	1	0
1214	0	0
1215	0	0
1216	0	0
1217	0	0
1218	0	0
1219	0	0
1220	0	0
1221	0	0
1222	0	0
1223	0	0
1224	0	0
1225	0	0
1226	0	0
1227	0	0
1228	0	0
1229	0	0
1230	0	0
1231	0	0
1232	0	0
1233	0	0
1234	0	0
1235	0	0
1236	0	0
1237	0	0
1238	0	0
1239	0	0
1240	0	0
1241	0	0
1242	0	0
1243	0	0
1244	0	0
1245	0	0
1246	0	0
1247	0	0
1248	0	0
1249	0	0
1250	0	0
1251	0	0
1252	0	0
1253	0	0
1254	0	0
1255	0	0
1256	0	0
1257	0	0
1258	0	0
1259	0	0
1260	0	0
1261	1	0
1262	1	0
1263	1	0
1264	1	0
1265	1	0
1266	1	0
1267	1	0
1268	1	0
1269	1	0
1270	1	0
1271	1	0
1272	1	0
1273	1	0
1274	0	0
1275	0	0
1276	0	0
1277	0	0
1278	0	0
1279	0	0
1280	0	0
1281	0	0
1282	0	0
1283	0	0
1284	0	0
1285	0	0
1286	0	0
1287	0	0
1288	0	0
1289	0	0
1290	1	0
1291	1	0
1292	1	0
1293	1	0
1294	1	0
1295	1	0
1296	1	0
1297	1	0
1298	1	0
1299	1	0
1300	1	0
1301	1	0
1302	1	0
1303	1	0
1304	1	0
1305	1	0
1306	1	0
1307	1	0
1308	1	0
1309	1	0
1310	1	0
1311	1	0
1312	1	0
1313	0	0
1314	0	0
1315	0	0
1316	0	0
1317	0	0
1318	0	0
1319	0	0
1320	0	0
1321	0	0
1322	0	0
1323	0	0
1324	0	0
1325	0	0
1326	0	0
1327	0	0
1328	0	0
1329	0	0
1330	0	0
1331	0	0
1332	0	0
1333	0	0
1334	0	0
1335	0	0
1336	0	0
1337	0	0
1338	0	0
1339	0	0
1340	0	0
1341	0	0
1342	0	0
1343	0	0
1344	0	0
1345	0	0
1346	0	0
1347	0	0
1348	0	0
1349	0	0
1350	0	0
1351	0	0
1352	0	0
1353	0	0
1354	0	0
1355	0	0
1356	0	0
1357	0	0
1358	0	0
1359	0	0
1360	0	0
1361	0	0
1362	0	0
1363	0	0
1364	0	0
1365	0	0
1366	0	0
1367	0	0
1368	0	0
1369	0	0
1370	0	0
1371	0	0
1372	0	0
1373	0	0
1374	1	0
1375	1	0
1376	1	0
1377	1	0
1378	0	0
1379	0	0
1380	0	0
1381	0	0
1382	0	0
1383	0	0
1384	0	0
1385	0	0
1386	0	0
1387	1	0
1388	1	0
1389	1	0
1390	1	0
1391	1	0
1392	1	0
1393	1	0
1394	1	0
1395	1	0
1396	1	0
1397	0	0.333333
1398	0	0.333333
1399	0	0.333333
1400	0	0.333333
1401	0	0.333333
1402	0	0.333333
1403	0	0.333333
1404	0	0.333333
1405	0	0.333333
1406	0	0.333333
1407	0	0.333333
1408	0	0.333333
1409	0	0.333333
1410	0	0.333333
1411	0	0.333333
1412	0	0.333333
1413	0	0.333333
1414	0	0.333333
1415	0	0.333333
1416	0	0.333333
1417	0	0.333333
1418	0	0.333333
1419	0	0.333333
1420	0	0.333333
1421	0	0.333333
1422	0	0.333333
1423	0	0.333333
1424	0	0.333333
1425	0	0.333333
1426	0	0.333333
1427	0	0.333333
1428	0	0.333333
1429	0	0.333333
1430	0	0.333333
1431	0	0.333333
1432	0	0.333333
1433	0	0.333333
1434	0	0.333333
1435	0	0.333333
1436	0	0.333333
1437	0	0.333333
1438	0	0.333333
1439	0	0.333333
1440	0	0.333333
1441	0	0.333333
1442	0	0.333333
1443	0	0.333333
1444	0	0.333333
1445	0	0.333333
1446	0	0.333333
1447	0	0.333333
1448	0	0.333333
1449	0	0.333333
1450	0	0.333333
1451	0	0.333333
1452	0	0.333333
1453	0	0.333333
1454	0	0.333333
1455	0	0.333333
1456	0	0.333333
1457	0	0.333333
1458	0	0.333333
1459	0	0.333333
1460	0	0.333333
1461	0	0.333333
1462	0	0.333333
1463	0	0.333333
1464	0	0.333333
1465	0	0.333333
1466	0	0.333333
1467	0	0.333333
1468	0	0.333333
1469	0	0.333333
1470	0	0.333333
1471	0	0.333333
1472	0	0.333333
1473	0	0.333333
1474	0	0.333333
1475	0	0.333333
1476	0	0.333333
1477	0	0.333333
1478	0	0.333333
1479	0	0.333333
1480	0	0.333333
1481	0	0.333333
1482	0	0.333333
1483	0	0.333333
1484	0	0.333333
1485	0	0.333333
1486	0	0.333333
1487	0	0.333333
1488	0	0.333333
1489	0	0.333333
1490	0	0.333333
1491	0	0.333333
1492	0	0.333333
1493	0	0.333333
1494	0	0.333333
1495	0	0.333333
1496	0	0.333333
1497	0	0.333333
1498	0	0.333333
1499	0	0.333333
1500	0	0.333333
1501	0	0.333333
1502	0	0.333333
1503	0	0.333333
1504	0	0.333333
1505	0	0.333333
1506	0	0.333333
1507	0	0.333333
1508	0	0.333333
1509	0	0.333333
1510	0	0.333333
1511	0	0.333333
1512	0	0.333333
1513	0	0.333333
1514	0	0.333333
1515	0	0.166667
1516	0	0.166667
1517	0	0.166667
1518	0	0.166667
1519	0	0.166667
1520	0	0.166667
1521	0	0.166667
1522	0	0.166667
1523	0	0.166667
1524	0	0.166667
1525	0	0.166667
1526	0	0.166667
1527	0	0.166667
1528	0	0.166667
1529	0	0.166667
1530	0	0.166667
1531	0	0.166667
1532	0	0.166667
1533	0	0.166667
1534	0	0.166667
1535	0	0.166667
1536	0	0.1
1537	0	0.1
1538	0	0.1
1539	0	0.1
1540	0	0.1
1541	0	0.1
1542	0	0.1
1543	0	0.1
1544	0	0.1
1545	0	0.1
1546	0	0.1
1547	0	0.1
1548	0	0.1
1549	0	0.1
1550	0	0.1
1551	0	0.1
1552	0	0.1
1553	0	0.0952381
1554	0	0.0952381
1555	0	0.0952381
1556	0	0.0952381
1557	0	0.0952381
1558	0	0.0952381
1559	0	0.0952381
1560	0	0.0952381
1561	0	0.0952381
1562	0	0.0952381
1563	0	0.0952381
1564	0	0.0952381
1565	0	0.0952381
1566	0	0.0952381
1567	0	0.0952381
1568	0	0.0952381
1569	0	0.0952381
1570	0	0.0952381
1571	0	0.0952381
1572	0	0.0952381
1573	0	0.0952381
1574	0	0.0714286
1575	0	0.0714286
1576	0	0.0714286
1577	0	0.0714286
1578	0	0.777028
1579	0	0.796024
1580	0	0.815793
1581	0	0.815793
1582	0	0.815793
1583	0	1
1584	0	1
1585	0	1
1586	0	0.333333
1587	0	0.333333
1588	0	0.333333
1589	0	0.333333
1590	0	0.333333
1591	0	0.333333
1592	0	0.333333
1593	0	0.333333
1594	0	0.333333
1595	0	0.333333
1596	0	0.333333
1597	0	0.333333
1598	1	1
1599	1	1
1600	1	1
1601	1	1
1602	1	1
1603	1	1
1604	1	1
1605	1	1
1606	1	1
1607	1	1
1608	1	1
1609	1	1
1610	0	0.333333
1611	0	0.333333
1612	0	0.333333
1613	0	0.857671
1614	0	0
1615	0	0
1616	0	0
1617	0	0
1618	0	0
1619	0	0
1620	0	0
1621	0	0
1622	0	0
1623	0	0
1624	0	0
1625	0	0
1626	0	0
1627	0	0
1628	0	0
1629	0	0.956753
1630	0	0.829273
1631	0	0.0714286
1632	0	0.0714286
1633	0	0.0714286
1634	0	0.0714286
1635	0	0.0714286
1636	0	0.0714286
1637	0	0.0714286
1638	0	0.0952381
1639	0	0.1
1640	0	0.166667
1641	0	0.166667
1642	0	0.166667
1643	0	0.166667
1644	0	0.166667
1645	0	0.166667
1646	0	0.166667
1647	0	0.166667
1648	0	0.166667
1649	0	0.166667
1650	0	0.166667
1651	0	0.166667
1652	0	0
1653	0	0
1654	0	0
1655	0	0
1656	0	0.805995
1657	0	0.724925
1658	0	1
1659	0	1
1660	0	1
1661	0	1
1662	0	1
1663	0	1
1664	0	1
1665	0	1
1666	0	1
1667	0	1
1668	0	1
1669	0	1
1670	0	1
1671	0	1
1672	0	1
1673	0	1
1674	0	1
1675	0	1
1676	0	1
1677	0	1
1678	0	1
1679	0	1
1680	0	1
1681	0	1
1682	0	1
1683	0	1
1684	0	1
1685	0	1
1686	0	1
1687	0	1
1688	0	1
1689	0	1
1690	0	1
1691	0	1
1692	0	1
1693	1	1
1694	1	1
1695	1	1
1696	1	1
1697	1	1
1698	1	1
1699	0	1
1700	0	1
1701	0	1
1702	0	1
1703	0	1
1704	0	1
1705	0	1
1706	0	1
1707	0	1
1708	0	1
1709	0	1
1710	0	1
1711	0	1
1712	0	1
1713	0	1
1714	0	1
1715	0	1
1716	0	1
1717	0	1
1718	0	1
1719	0	1
1720	0	1
1721	0	1
1722	0	1
1723	0	1
1724	0	1
1725	0	1
1726	0	1
1727	0	1
1728	0	1
1729	0	1
1730	0	1
1731	0	1
1732	0	1
1733	0	1
1734	0	1
1735	0	1
1736	0	1
1737	0	1
1738	0	1
1739	0	1
1740	0	1
1741	0	1
1742	0	1
1743	0	1
1744	0	1
1745	0	1
1746	0	1
1747	1	1
1748	1	1
1749	1	1
1750	1	1
1751	0	1
1752	0	1
1753	0	1
1754	0	1
1755	0	1
1756	1	1
1757	1	1
1758	0	1
1759	0	1
1760	0	1
1761	0	1
1762	0	1
1763	0	1
1764	0	1
1765	0	1
1766	0	1
1767	0	1
1768	0	0.333333
1769	0	0.333333
1770	0	0.333333
1771	0	0.333333
1772	0	0.333333
1773	0	0.333333
1774	0	0.333333
1775	0	0.333333
1776	0	0.333333
1777	0	0.333333
1778	0	0.333333
1779	0	0.333333
1780	0	0.333333
1781	0	0.333333
1782	0	0.333333
1783	0	0.333333
1784	0	0.333333
1785	0	0.333333
1786	0	0.333333
1787	0	0.333333
1788	0	0.333333
1789	0	0.333333
1790	0	0.333333
1791	0	0.333333
1792	0	0.333333
1793	0	0.333333
1794	0	0.333333
1795	0	0.333333
1796	0	0.333333
1797	0	0.333333
1798	0	0.333333
1799	0	0.333333
1800	0	0.333333
1801	0	0.333333
1802	0	0.333333
1803	0	0.333333
1804	0	0.333333
1805	0	0.333333
1806	0	0.333333
1807	0	0.333333
1808	0	0.333333
1809	0	0.333333
1810	0	0.333333
1811	0	0.333333
1812	0	0.333333
1813	0	0.333333
1814	0	0.333333
1815	0	0.333333
1816	0	0.333333
1817	0	0.333333
1818	0	0.333333
1819	0	0.333333
1820	0	0.333333
1821	0	0.333333
1822	0	0.333333
1823	0	0.333333
1824	0	0.333333
1825	0	0.333333
1826	0	0.333333
1827	0	0.333333
1828	0	0.333333
1829	0	0.333333
1830	0	0.333333
1831	0	0.92587
1832	0	0.417582
1833	0	0.975344
1834	0	0.975445
1835	0	0.944682
1836	0	0.976033
1837	0	1
1838	0	1
1839	0	1
1840	0	1
1841	0	1
1842	0	1
1843	0	1
1844	0	1
1845	0	1
1846	0	1
1847	0	1
1848	0	1
1849	0	1
1850	0	1
1851	0	1
1852	0	1
1853	0	1
1854	0	1
1855	0	1
1856	0	1
1857	0	1
1858	0	1
1859	0	1
1860	0	1
1861	0	1
1862	0	1
1863	0	1
1864	0	1
1865	0	1
1866	0	1
1867	0	1
1868	0	1
1869	0	1
1870	0	0.992
1871	0	0.992
1872	0	0.992
1873	1	1
1874	1	1
1875	1	1
1876	1	1
1877	1	1
1878	1	1
1879	1	1
1880	1	1
1881	1	1
1882	1	1
1883	1	1
1884	1	1
1885	1	1
1886	1	1
1887	1	1
1888	1	1
1889	1	1
1890	1	1
1891	1	1
1892	1	1
1893	1	1
1894	1	1
1895	1	1
1896	1	1
1897	1	1
1898	1	1
1899	1	1
1900	1	1
1901	1	1
1902	1	1
1903	1	1
1904	1	1
1905	1	1
1906	1	1
1907	1	1
1908	1	1
1909	1	1
1910	1	1
1911	1	1
1912	1	1
1913	1	1
1914	1	1
1915	1	1
1916	1	1
1917	1	1
1918	1	1
1919	1	1
1920	1	1
1921	1	1
1922	1	1
1923	1	1
1924	1	1
1925	1	1
1926	1	1
1927	1	1
1928	1	1
1929	1	1
1930	1	1
1931	1	1
1932	1	1
1933	1	1
1934	1	1
1935	1	1
1936	1	1
1937	1	1
1938	1	1
1939	1	1
1940	1	1
1941	1	1
1942	1	1
1943	1	1
1944	1	1
1945	1	1
1946	1	0
1947	1	0
1948	1	0
1949	1	0
1950	1	0
1951	1	0
1952	1	0
1953	1	0
1954	1	0
1955	1	0
1956	1	0
1957	1	0
1958	1	0
1959	1	1
1960	1	1
1961	1	1
1962	1	1
1963	1	1
1964	1	1
1965	1	1
1966	1	1
1967	1	1
1968	1	1
1969	1	1
1970	1	1
1971	1	1
1972	1	1
1973	1	1
1974	1	1
1975	1	1
1976	1	1
1977	1	1
1978	1	1
1979	1	1
1980	1	1
1981	1	1
1982	1	1
1983	1	1
1984	1	1
1985	1	1
1986	1	1
1987	1	1
1988	1	1
1989	1	1
1990	1	1
1991	1	1
1992	1	1
1993	1	1
1994	1	1
1995	1	1
1996	1	1
1997	1	1
1998	0	0.991968
1999	0	0.991968
2000	0	0
2001	1	1
2002	1	1
2003	1	1
2004	1	1
2005	1	1
2006	1	1
2007	1	1
2008	1	1
2009	1	1
2010	1	1
2011	1	1
2012	1	1
2013	0	0
2014	0	0.982495
2015	0	0.8425
2016	0	1
2017	0	1
2018	0	0.632252
2019	0	0.680596
2020	0	0.680596
2021	0	0.657979
2022	0	1
2023	0	1
2024	0	1
2025	0	1
2026	0	0.285714
2027	0	0.257143
2028	0	0.317959
2029	0	0.272316
2030	0	0.21099
2031	0	0.209322
2032	0	0.188632
2033	0	0.170224
2034	0	0.157307
2035	0	0.16018
2036	0	0.150189
2037	0	0.15559
2038	0	0.14189
2039	0	0.140724
2040	0	0.14108
2041	0	0.162262
2042	0	0.158732
2043	0	0.161258
2044	0	0.6
2045	0	0.6
2046	0	0.6
2047	0	0.4
2048	0	0.266667
2049	0	0.266667
2050	0	0.266667
2051	0	0.218182
2052	0	0.167877
2053	0	0.145869
2054	0	0.147251
2055	0	0.129356
2056	0	0.0934298
2057	0	0.113387
2058	0	0.108991
2059	0	0.136989
2060	0	0.154899
2061	0	0.144081
2062	0	0.211881
2063	0	0.19774
2064	0	0.15873
2065	0	0.282609
2066	0	0.181818
2067	0	0.25
2068	0	0.107143
2069	0	0.466667
2070	0	0.649857
2071	0	0.713823
2072	0	0.929395
2073	0	0.991968
2074	0	0.991968
2075	0	0.991968
2076	0	0.991968
2077	0	0.991968
2078	0	0.333333
2079	0	0.984001
2080	0	0.984001
2081	0	1
2082	0	0.960514
2083	0	0.945157
2084	0	0.844851
2085	1	1
2086	1	1
2087	1	1
2088	1	1
2089	0	0.976098
2090	0	0.976098
2091	0	0
2092	0	0
2093	0	0
2094	0	0
2095	0	0
2096	0	0.333333
2097	0	0.333333
2098	0	0.2
2099	0	0.75417
2100	0	0.462005
2101	0	0.38389
2102	0	0.281915
2103	0	0.299145
2104	0	0.166667
2105	0	0.166667
2106	0	0
2107	0	0
2108	0	0
2109	0	0.166667
2110	0	0.257143
2111	0	0.267806
2112	0	0.219231
2113	0	0.142745
2114	0	0.166318
2115	0	0.143619
2116	0	0.129227
2117	0	0.146295
2118	0	0.143639
2119	0	0.132563
2120	0	1
2121	0	1
2122	0	1
2123	0	0.134343
2124	0	0.138384
2125	0	0.0960884
2126	0	0.0948479
2127	0	0.082928
2128	0	0.0714371
2129	0	0.0642815
2130	0	0.0648091
2131	0	0.0720882
2132	0	0.0712338
2133	0	0.0683117
2134	0	0.0698511
2135	0	0.0690969
2136	0	0.0673709
2137	0	0.0652115
2138	0	0
2139	0	0
2140	0	0
2141	0	0
2142	0	0
2143	0	0
2144	0	0
2145	0	0
2146	0	0
2147	0	0.333333
2148	0	0.0952381
2149	0	0.0727273
2150	0	0.160173
2151	0	0.121693
2152	0	0.109244
2153	0	0.0938834
2154	0	0.102745
2155	0	0.102891
2156	0	0.0783208
2157	0	0.0625
2158	0	0.0477118
2159	0	0.0398378
2160	0	0.0354362
2161	0	0.0492312
2162	0	0.0481203
2163	0	0.0481175
2164	0	0.0491125
2165	0	0.0506896
2166	0	0.0540873
2167	0	0.0523708
2168	0	0.0617308
2169	0	0.0980392
2170	0	0.0769231
2171	0	0.0782241
2172	0	0.106635
2173	0	0.108003
2174	0	0.10989
2175	0	0.181818
2176	0	0.213333
2177	0	0.191026
2178	0	0.233469
2179	0	0.1914
2180	0	0.225108
2181	0	0.361765
2182	0	0.365673
2183	0	0.415829
2184	0	0.414853
2185	0	0.414853
2186	0	0.41508
2187	0	0.212346
2188	0	0.189716
2189	0	0.238462
2190	0	0.214286
2191	0	0.227513
2192	0	0.288538
2193	0	0.316017
2194	0	0.316176
2195	0	0.375
2196	0	0.425
2197	0	0.8
2198	0	0
2199	0	0.984064
2200	0	0.984064
2201	1	1
2202	0	0.983936
2203	0	0.968257
2204	0	0.984064
2205	0	0.984064
2206	0	0.984064
2207	0	0
2208	0	0
2209	0	0
2210	0	0
2211	0	0
2212	0	0
2213	0	0
2214	0	0
2215	0	0
2216	0	0.967213
2217	0	1
2218	0	0.402241
2219	0	0.5
2220	0	0.818548
2221	0	0.571429
2222	0	0.641026
2223	0	0.4375
2224	0	0.626894
2225	0	0.626894
2226	0	0.843333
2227	0	0.843333
2228	0	0.843333
2229	0	0.843333
2230	0	0.677249
2231	0	0.677249
2232	0	0.677249
2233	0	0.316532
2234	0	0.161905
2235	0	0.152381
2236	0	0.126667
2237	0	0.0989247
2238	0	0.177895
2239	0	0.121765
2240	0	0.123577
2241	0	0
2242	0	0
2243	0	0
2244	0	0
2245	0	0
2246	0	0
2247	0	0
2248	0	0.0825251
2249	0	0.155556
2250	0	0.136364
2251	0	0.10989
2252	0	0.110526
2253	0	0.104772
2254	0	0.115312
2255	0	0.117159
2256	0	0.111111
2257	0	0.139915
2258	0	0.15177
2259	0	0.174938
2260	0	0.131628
2261	0	0.260417
2262	0	0.228058
2263	0	0.267832
2264	0	0.286396
2265	0	0.454944
2266	0	0.494205
2267	0	0.505991
2268	0	0.521878
2269	0	0.568913
2270	0	1
2271	0	0.599088
2272	0	1
2273	1	1
2274	1	1
2275	1	1
2276	1	1
2277	1	1
2278	1	1
2279	1	1
2280	1	1
2281	1	1
2282	1	1
2283	1	1
2284	1	1
2285	1	1
2286	1	1
2287	1	1
2288	1	1
2289	1	1
2290	1	1
2291	1	1
2292	1	1
2293	1	1
2294	1	1
2295	1	1
2296	1	1
2297	1	1
2298	1	1
2299	1	1
2300	1	1
2301	1	1
2302	1	1
2303	1	1
2304	1	1
2305	1	1
2306	1	1
2307	1	1
2308	1	1
2309	1	1
2310	1	1
2311	1	1
2312	1	1
2313	1	1
2314	1	1
2315	1	1
2316	1	1
2317	0	1
2318	0	1
2319	1	1
2320	1	1
2321	1	1
2322	1	1
2323	1	1
2324	1	1
2325	1	1
2326	1	1
2327	1	1
2328	1	1
2329	1	1
2330	1	1
2331	1	1
2332	0	1
2333	0	1
2334	0	0.736835
2335	0	0.713499
2336	0	0.706827
2337	0	0.706827
2338	0	0.7226
2339	0	0
2340	0	0
2341	0	0.509091
2342	0	0.726623
2343	0	0.726623
2344	0	0.811711
2345	0	0.729092
2346	0	0.729092
2347	0	0.729092
2348	0	1
2349	0	0.843333
2350	0	0.481545
2351	0	0.361111
2352	0	0.392857
2353	0	0.392857
2354	0	0.425179
2355	0	0.394012
2356	0	0.719807
2357	0	0.675758
2358	0	0.695703
2359	0	0.656214
2360	0	0.287879
2361	0	0.714286
2362	0	0.5
2363	0	1
2364	0	0.5
2365	0	0.3
2366	0	0.1
2367	0	0.0666667
2368	0	0.0666667
2369	0	0
2370	0	0
2371	1	0
2372	1	0
2373	1	0
2374	1	0
2375	0	0
2376	0	0
2377	0	1
2378	0	1
2379	0	1
2380	0	1
2381	0	1
2382	0	1
2383	0	1
2384	0	1
2385	0	1
2386	0	1
2387	0	1
2388	0	1
2389	0	1
2390	0	1
2391	0	1
2392	0	1
2393	0	1
2394	0	1
2395	0	1
2396	0	1
2397	0	1
2398	0	1
2399	0	0.628458
2400	0	0.628458
2401	0	0.628458
2402	0	0.444444
2403	0	0.513333
2404	0	0.107143
2405	0	0.285714
2406	0	0.47619
2407	0	0.47619
2408	0	0.666667
2409	0	0.443333
2410	0	0.458333
2411	0	0.340136
2412	0	0.380952
2413	0	0.3343
2414	0	0.401535
2415	0	0
2416	0	0
2417	0	0
2418	0	0
2419	0	0
2420	0	0.241327
2421	0	0.234624
2422	0	0.220518
2423	0	0.2
2424	0	0.19374
2425	0	0.207474
2426	0	0.179409
2427	0	0.174103
2428	0	0.157281
2429	0	0.0666667
2430	0	0.0666667
2431	0	0.111111
2432	0	0.111111
2433	0	0.110717
2434	0	0.0793869
2435	0	0.0717466
2436	0	0.0635707
2437	0	0.0613574
2438	0	0.0597413
2439	0	0.0545455
2440	0	0.0727273
2441	0	0.141026
2442	0	0.141026
2443	0	0.318644
2444	0	0.309524
2445	0	0.102799
2446	0	0.0901672
2447	0	0.110048
2448	0	0.117383
2449	0	0.112204
2450	0	0.11559
2451	0	0.115608
2452	0	0.176471
2453	0	0.183333
2454	0	0.327212
2455	0	0.579953
2456	0	0.65468
2457	0	0.664524
2458	0	0.819303
2459	0	0.819303
2460	0	0.390476
2461	0	0.390476
2462	0	0.421099
2463	0	0.421099
2464	0	0.42716
2465	0	0
2466	0	0
2467	0	0
2468	0	0
2469	0	0
2470	0	0
2471	0	0
2472	0	0.102982
2473	0	0.0999798
2474	0	0.0628173
2475	0	0.0606958
2476	0	0.0630164
2477	0	0
2478	0	0
2479	0	0
2480	0	0.0528351
2481	0	0.0438402
2482	0	0.0458935
2483	0	0.0837404
2484	0	0
2485	0	0
2486	0	0
2487	0	0
2488	0	0
2489	0	0
2490	0	0
2491	0	0
2492	0	0
2493	0	0
2494	0	0.0802871
2495	0	0
2496	0	0
2497	0	0
2498	0	0.130094
2499	0	0.12931
2500	0	0.113807
2501	0	0
2502	0	0
2503	0	0
2504	0	0
2505	0	0
2506	0	0
2507	0	0
2508	0	0
2509	0	0
2510	0	0
2511	0	0
2512	0	0
2513	0	0.0697592
2514	0	0.0694069
2515	0	0.0702249
2516	0	0.0222222
2517	0	0.0222222
2518	0	0.0222222
2519	0	0.0444444
2520	0	0.0625824
2521	0	0.0605893
2522	0	0
2523	0	0
2524	0	0
2525	0	0
2526	0	0.0485194
2527	0	0.0488276
2528	0	0.0491371
2529	0	0.0513279
2530	0	0
2531	0	0.1
2532	0	0.1
2533	0	0.1
2534	0	0.2
2535	0	0.2
2536	0	0.0952381
2537	0	0.190476
2538	0	0.0471798
2539	0	0.0441962
2540	0	0.0543872
2541	0	0.0648544
2542	0	0.0670528
2543	0	0.0643086
2544	0	0.0766708
2545	0	0.0690406
2546	0	0.0707123
2547	0	0.055083
2548	0	0.0467517
2549	0	0
2550	0	0
2551	0	0
2552	0	0.110517
2553	0	0.184615
2554	0	0
2555	0	0
2556	0	0
2557	0	0.0277778
2558	0	0.0277778
2559	0	0.0606061
2560	0	0.13315
2561	0	0.153166
2562	0	0.152746
2563	0	0.181818
2564	0	0
2565	0	0
2566	0	0
2567	0	0.243417
2568	0	0.237235
2569	0	0.244382
2570	0	0.256731
2571	0	0.23027
2572	0	0.310577
2573	0	0.649452
2574	0	0.285714
2575	0	0.5
2576	0	0.333333
2577	0	0.333333
2578	0	0.333333
2579	0	0.333333
2580	0	0.333333
2581	0	0.333333
2582	0	0.333333
2583	0	0.333333
2584	0	0.333333
2585	0	1
2586	0	1
2587	0	1
2588	0	1
2589	0	0
2590	0	0
2591	0	0
2592	0	0
2593	0	0
2594	0	0
2595	0	0.333333
2596	0	0.333333
2597	0	0.333333
2598	0	0.333333
2599	0	0.333333
2600	0	0.215213
2601	0	0
2602	0	0.4
2603	0	0.4
2604	0	0.333333
2605	0	0.333333
2606	0	0.204923
2607	0	0.199248
2608	0	0.198098
2609	0	0.206897
2610	0	0.206897
2611	0	0.163755
2612	0	0.0666667
2613	0	0.1
2614	0	0.0666667
2615	0	0.125868
2616	0	0.129061
2617	0	0.150719
2618	0	0.155633
2619	0	0.154299
2620	0	0.0879121
2621	0	0.0847267
2622	0	0.135094
2623	0	0.0666667
2624	0	0.119239
2625	0	0.188859
2626	0	0.29
2627	0	0.356725
2628	0	0.458333
2629	0	0
2630	0	0
2631	0	0
2632	0	0
2633	0	0
2634	0	0
2635	0	0
2636	0	0
