Site	ColumnScore	SumOfPairsScore
1	1	0
2	1	0
3	1	0
4	1	0
5	1	0
6	1	0
7	1	0
8	1	0
9	1	0
10	1	0
11	1	0
12	1	0
13	1	0
14	1	0
15	1	0
16	1	0
17	1	0
18	1	0
19	1	0
20	1	0
21	1	1
22	1	1
23	1	1
24	1	1
25	1	1
26	1	1
27	1	1
28	1	1
29	1	1
30	1	1
31	1	1
32	1	1
33	1	1
34	1	1
35	1	1
36	1	1
37	1	1
38	1	1
39	1	1
40	1	1
41	1	1
42	1	1
43	1	1
44	1	1
45	1	1
46	1	1
47	1	1
48	0	0.893445
49	0	0.893445
50	0	0
51	1	1
52	1	1
53	1	1
54	1	1
55	1	1
56	1	1
57	1	1
58	1	1
59	1	1
60	1	1
61	1	1
62	1	1
63	1	1
64	1	1
65	1	1
66	1	1
67	1	1
68	1	1
69	1	1
70	1	1
71	1	1
72	1	1
73	1	1
74	1	1
75	1	1
76	1	1
77	0	0.992
78	0	0.992
79	0	0.992
80	1	1
81	1	1
82	1	1
83	0	0
84	1	0
85	1	0
86	1	0
87	1	0
88	1	0
89	0	0.930043
90	0	1
91	0	1
92	0	1
93	1	1
94	1	1
95	0	1
96	0	0.984064
97	1	1
98	0	0.5
99	0	0.992
100	0	0.992
101	0	0.992
102	1	0
103	1	0
104	1	0
105	1	0
106	1	0
107	1	0
108	1	0
109	1	0
110	1	0
111	1	0
112	1	0
113	1	0
114	1	0
115	1	0
116	1	0
117	1	0
118	1	0
119	0	0
120	0	0
121	0	0
122	0	0
123	1	1
124	1	1
125	1	1
126	1	1
127	1	1
128	1	1
129	1	1
130	1	1
131	1	1
132	1	1
133	1	1
134	1	1
135	1	1
136	1	1
137	1	1
138	1	1
139	1	1
140	1	1
141	1	1
142	1	1
143	1	1
144	1	1
145	1	1
146	1	1
147	1	1
148	1	1
149	1	1
150	1	1
151	1	1
152	1	1
153	1	1
154	1	1
155	1	1
156	1	1
157	1	1
158	1	1
159	1	1
160	1	1
161	1	1
162	1	1
163	1	1
164	1	1
165	1	1
166	0	1
167	0	0.89343
168	0	0.878394
169	0	0.333333
170	0	0.893847
171	0	0
172	0	1
173	1	1
174	1	1
175	1	1
176	1	1
177	1	1
178	1	1
179	1	1
180	1	1
181	1	1
182	1	1
183	1	1
184	0	0
185	0	0
186	0	0
187	0	0
188	0	0
189	1	0
190	1	0
191	1	0
192	1	0
193	1	0
194	0	0
195	0	0
196	0	0
197	0	0
198	0	0
199	0	0
200	0	0
201	1	0
202	1	0
203	1	0
204	1	0
205	1	0
206	1	0
207	0	0
208	0	0
209	0	0
210	0	0
211	0	0
212	0	0
213	0	0
214	0	0
215	0	1
216	1	1
217	1	1
218	0	0.984064
219	0	0.984064
220	0	0.984064
221	0	0.984064
222	0	0.984064
223	0	0.984064
224	0	0.52381
225	0	0.944151
226	0	0.741065
227	0	0.708819
228	0	0.796402
229	0	0.79004
230	0	0.757845
231	0	0.744062
232	0	1
233	0	0.807781
234	0	0.802203
235	0	0.632861
236	0	0.632452
237	0	0.620893
238	0	0.476012
239	0	0.239316
240	0	0.33689
241	0	0.203764
242	0	0.343281
243	0	0.523903
244	0	0.525992
245	0	0.540799
246	0	0
247	0	0
248	0	0.606726
249	0	0.680337
250	0	1
251	0	1
252	0	0.980583
253	0	0.983403
254	0	0.984064
255	0	0.984064
256	0	0.984064
257	0	0.984064
258	0	0.984064
259	0	0.991968
260	1	1
261	1	1
262	1	1
263	1	1
264	1	1
265	0	1
266	0	1
267	0	0.991968
268	0	0
269	0	0
270	0	0
271	0	0
272	0	0
273	0	0
274	1	0
275	1	0
276	0	0
277	0	0
278	0	0
279	0	0
280	0	0.976001
281	0	0.976001
282	0	1
283	0	1
