Site	ColumnScore	SumOfPairsScore
1	1	1
2	1	1
3	1	1
4	1	1
5	1	1
6	1	1
7	1	1
8	1	1
9	1	1
10	1	1
11	1	1
12	1	1
13	0	1
14	0	0.984064
15	1	1
16	1	1
17	1	1
18	1	1
19	1	1
20	1	1
21	1	1
22	1	1
23	1	1
24	1	1
25	1	1
26	1	1
27	1	1
28	1	1
29	1	1
30	1	1
31	1	1
32	1	1
33	1	1
34	1	1
35	0	0.794088
36	0	1
37	0	0.589537
38	0	0.434249
39	0	0.922892
40	0	0.922892
41	0	0.922892
42	0	1
43	1	1
44	1	1
45	1	1
46	1	1
47	1	1
48	1	1
49	1	1
50	1	1
51	1	1
52	1	1
53	1	1
54	1	1
55	1	1
56	1	1
57	1	1
58	1	1
59	1	1
60	1	1
61	1	1
62	1	1
63	1	1
64	0	0
65	1	0
66	1	0
67	1	0
68	1	0
69	1	0
70	1	0
71	1	0
72	1	0
73	1	0
74	1	0
75	1	0
76	1	0
77	1	0
78	1	0
79	1	0
80	1	0
81	1	0
82	1	0
83	1	0
84	0	0.992
85	1	1
86	1	1
87	1	1
88	1	1
89	1	1
90	1	1
91	1	1
92	1	1
93	1	1
94	1	1
95	1	1
96	1	1
97	1	1
98	1	1
99	1	1
100	1	1
101	1	1
102	1	1
103	1	1
104	1	1
105	1	1
106	1	1
107	1	1
108	1	1
109	1	1
110	1	1
111	1	1
112	1	1
113	1	1
114	1	1
115	1	1
116	1	1
117	1	1
118	1	1
119	1	1
120	1	1
121	1	1
122	1	1
123	1	1
124	1	1
125	1	1
126	1	1
127	1	1
128	1	1
129	1	1
130	1	1
131	1	1
132	1	1
133	1	1
134	1	1
135	1	1
136	1	1
137	1	1
138	1	1
139	1	1
140	1	1
141	1	1
142	1	1
143	1	1
144	1	1
145	1	1
146	1	1
147	1	1
148	1	1
149	1	1
150	1	1
151	1	1
152	1	1
153	1	1
154	1	1
155	1	1
156	1	1
157	1	1
158	1	1
159	1	1
160	1	1
161	1	1
162	1	1
163	1	1
164	1	1
165	1	1
166	1	1
167	1	1
168	1	1
169	1	1
170	0	0
171	0	0
172	1	0
173	1	0
174	0	0.992
175	0	0.992
176	1	1
177	1	1
178	1	1
179	1	1
180	1	1
181	1	1
182	1	1
183	1	1
184	1	1
185	1	1
186	1	1
187	1	1
188	1	1
189	1	1
190	1	1
191	1	1
192	1	1
193	1	1
194	1	1
195	1	1
196	1	1
197	1	1
198	1	1
199	1	1
200	1	1
201	1	1
202	1	1
203	1	1
204	1	1
205	1	1
206	1	1
207	1	1
208	1	1
209	1	1
210	1	1
211	1	1
212	1	1
213	1	1
214	1	1
215	1	1
216	1	1
217	1	1
218	1	1
219	1	1
220	1	1
221	1	1
222	1	1
223	1	1
224	1	1
225	1	1
226	1	1
227	1	1
228	1	1
229	1	1
230	1	1
231	1	1
232	1	1
233	1	1
234	1	1
235	1	1
236	1	1
237	1	1
238	1	1
239	1	1
240	1	1
241	1	1
242	1	1
243	1	1
244	1	1
245	1	1
246	1	1
247	1	1
248	1	1
249	1	1
250	1	1
251	1	1
252	1	1
253	1	1
254	1	1
255	1	1
256	1	1
257	1	1
258	1	1
259	1	1
260	1	1
261	1	1
262	1	1
263	1	1
264	1	1
265	1	1
266	1	1
267	1	1
268	1	1
269	1	1
270	1	1
271	1	1
272	1	1
273	1	1
274	1	1
275	1	1
276	1	1
277	1	1
278	1	1
279	1	1
280	1	1
281	1	1
282	1	1
283	1	1
284	1	1
285	1	1
286	1	1
287	1	1
288	1	1
289	1	1
290	1	1
291	1	1
292	1	1
293	0	0.984064
294	0	0.960643
295	0	0.774233
296	0	0.560482
297	0	0
298	0	0.333333
299	0	0.638095
300	0	0.558333
301	0	0.425
302	0	0.425
303	0	0.375
304	0	0.494194
305	0	0.404442
306	0	0.285237
307	0	0.26711
308	0	0.232146
309	0	0.223573
310	0	0.196281
311	0	0.155937
312	0	0.13992
313	0	0.123494
314	0	0.0887421
315	0	0
316	0	0
317	0	0.4
318	0	0
319	0	0.2
320	0	0.561878
321	0	0.50641
322	0	0.417553
323	0	0.229146
324	0	0.605387
325	0	0.715881
326	0	0.717509
327	0	0.968091
328	0	0.989796
329	0	0.979435
330	0	0
331	0	0
332	0	0.6
333	0	1
334	1	1
335	1	1
336	1	1
337	1	1
338	1	1
339	1	1
340	1	1
341	1	1
342	1	1
343	1	1
344	1	1
345	1	1
346	1	1
347	1	1
348	1	1
349	1	1
350	1	1
351	1	1
352	1	1
353	1	1
354	1	1
355	1	1
356	1	1
357	1	1
358	1	1
359	1	1
360	1	1
361	1	1
362	1	1
363	1	1
364	1	1
365	1	1
366	1	1
367	1	1
368	1	1
369	1	1
370	1	1
371	1	1
372	1	1
373	1	1
374	1	1
375	1	1
376	1	1
377	1	1
378	1	1
379	0	0
380	0	0.992
381	0	0.984032
382	0	0.984032
383	0	0.984032
384	0	0
385	0	0
386	0	0
387	0	0
388	0	0
389	0	0.4
390	0	0.2
391	0	0.142857
392	0	0.905303
393	0	0.890821
394	0	0.890821
395	0	0.890821
396	0	1
397	0	0.675296
398	0	0.502256
399	0	0.403645
400	0	0.398582
401	0	0.488889
402	0	0.506541
403	0	0.515106
404	0	0.493235
405	0	0.484831
406	0	0.15
407	0	0.107143
408	0	0.1
409	0	0
410	0	0
411	0	0
412	0	0.17512
413	0	0.214201
414	0	0.138956
415	0	0.157558
416	0	0.184932
417	0	0.290909
418	0	0.186323
419	0	0.249536
420	0	0.197064
421	0	0.257645
422	0	0.258849
423	0	0.259786
424	0	0.266185
425	0	0.372549
426	0	0.266667
427	0	0.320513
428	0	0.333333
429	0	0.333333
430	0	0.353155
431	0	0.453076
432	0	0
433	0	0
434	0	0.449574
435	0	0.451406
436	0	0.419984
437	0	0.415229
438	0	0
439	0	0
440	0	0
441	0	0.333333
442	0	0.384206
443	0	0.379405
444	0	0
445	0	0
446	0	0
447	0	0
448	0	0
449	0	0
450	0	0
451	0	0
452	0	0
453	0	0
454	0	0
455	0	0.285714
456	0	0.214286
457	0	0.415385
458	0	0.566138
459	0	0.333333
460	0	0.253244
461	0	0.335366
462	0	0.318293
463	0	0.148857
464	0	0.205373
465	0	0.206568
466	0	0.18597
467	0	0.22979
468	0	0.438095
469	0	0.505495
470	0	0.505495
471	0	0.250538
472	0	0.249928
473	0	0.266956
474	0	0.271408
475	0	0.33456
476	0	0.632799
477	0	0.568421
478	0	0.875
479	0	0.875
