Site	ColumnScore	SumOfPairsScore
1	1	0
2	1	0
3	1	0
4	1	0
5	1	0
6	1	0
7	1	0
8	1	0
9	1	0
10	1	0
11	1	0
12	1	0
13	1	0
14	1	0
15	1	0
16	1	0
17	1	0
18	1	0
19	1	0
20	1	0
21	1	0
22	1	0
23	1	0
24	1	0
25	1	0
26	1	0
27	1	0
28	1	0
29	1	0
30	1	0
31	1	0
32	1	0
33	1	0
34	1	0
35	1	0
36	1	0
37	1	0
38	1	0
39	1	0
40	1	0
41	1	0
42	1	0
43	1	0
44	1	0
45	1	0
46	1	0
47	1	0
48	1	0
49	1	0
50	1	0
51	1	0
52	1	0
53	1	0
54	1	0
55	1	0
56	1	0
57	1	0
58	1	0
59	1	0
60	1	0
61	1	0
62	1	0
63	1	0
64	1	0
65	1	0
66	1	0
67	1	0
68	1	0
69	1	0
70	1	0
71	1	0
72	1	0
73	1	0
74	1	0
75	1	0
76	1	0
77	1	0
78	1	0
79	1	0
80	1	0
81	1	0
82	1	0
83	1	0
84	1	0
85	1	0
86	1	0
87	1	0
88	1	0
89	1	0
90	1	0
91	1	0
92	1	0
93	1	0
94	1	0
95	1	0
96	1	0
97	1	0
98	1	0
99	1	0
100	1	0
101	1	0
102	1	0
103	1	0
104	1	0
105	1	0
106	1	0
107	1	0
108	1	0
109	1	0
110	1	0
111	1	0
112	1	0
113	1	0
114	1	0
115	1	0
116	1	0
117	1	0
118	1	0
119	1	0
120	1	0
121	1	0
122	1	0
123	1	0
124	1	0
125	1	0
126	1	0
127	1	0
128	1	0
129	1	0
130	1	0
131	1	0
132	1	0
133	1	0
134	1	0
135	1	0
136	1	0
137	1	0
138	1	0
139	1	0
140	1	0
141	1	0
142	1	0
143	1	0
144	1	0
145	1	0
146	1	0
147	1	0
148	1	0
149	1	0
150	1	0
151	1	0
152	1	0
153	1	0
154	1	0
155	1	0
156	1	0
157	1	0
158	1	0
159	1	0
160	1	0
161	1	0
162	1	0
163	1	0
164	1	0
165	1	0
166	1	0
167	1	0
168	1	0
169	1	0
170	1	0
171	1	0
172	1	0
173	1	0
174	1	0
175	0	0
176	0	0
177	0	0
178	0	0
179	1	0
180	1	0
181	1	0
182	1	0
183	1	0
184	1	0
185	1	0
186	1	0
187	1	0
188	1	0
189	1	0
190	1	0
191	1	0
192	1	0
193	1	0
194	1	0
195	1	0
196	1	0
197	1	0
198	0	0
199	0	0
200	0	0
201	0	0
202	0	0
203	0	0
204	0	0
205	0	0
206	0	0
207	0	0
208	0	0
209	0	0
210	0	0
211	0	0
212	0	0
213	0	0
214	0	0
215	0	0
216	0	0
217	0	0
218	0	0
219	0	0
220	0	0
221	0	0
222	0	0
223	0	0
224	0	0
225	0	0
226	1	0
227	1	0
228	1	0
229	1	0
230	1	0
231	1	0
232	1	0
233	1	0
234	1	0
235	1	0
236	1	0
237	1	0
238	0	0
239	0	0
240	0	0
241	0	0
242	0	0
243	0	0
244	0	0
245	0	0
246	0	0
247	0	0
248	0	0
249	0	0
250	0	0
251	0	0
252	0	0
253	0	0
254	0	0
255	0	0
256	0	0
257	0	0
258	0	0
259	0	0
260	0	0
261	0	0
262	0	0
263	0	0
264	0	0
265	0	0
266	0	0
267	0	0
268	0	0
269	0	0
270	0	0
271	0	0
272	0	0
273	0	0
274	1	0
275	1	0
276	0	0
277	1	0
278	1	0
279	1	0
280	1	0
281	1	0
282	1	0
283	1	0
284	1	0
285	1	0
286	1	0
287	0	0
288	0	0
289	0	0
290	0	0
291	0	0
292	0	0
293	0	0
294	0	0
295	0	0
296	0	0
297	0	0
298	0	0
299	0	0
300	0	0
301	0	0
302	0	0
303	0	0
304	0	0
305	0	0
306	0	0
307	0	0
308	0	0
309	0	0
310	0	0
311	0	0
312	0	0
313	0	0
314	0	0
315	0	0
316	0	0
317	0	0
318	0	0
319	0	0
320	0	0.2
321	0	0.2
322	0	0.2
323	0	0.2
324	0	0.285714
325	0	0.285714
326	0	0.285714
327	0	0.285714
328	0	0.285714
329	0	0.285714
330	0	0.285714
331	0	0.285714
332	0	0.285714
333	0	0.285714
334	0	0.285714
335	0	0.285714
336	0	0.214286
337	0	0.214286
338	0	0.214286
339	0	0.214286
340	0	0.214286
341	0	0.214286
342	0	0.214286
343	0	0.214286
344	0	0.214286
345	0	0.214286
346	0	0.214286
347	0	0.214286
348	0	0.214286
349	0	0.214286
350	0	0.214286
351	0	0.214286
352	0	0.214286
353	0	0.214286
354	0	0.214286
355	0	0.214286
356	0	0.214286
357	0	0.214286
358	0	0.214286
359	0	0.214286
360	0	0.214286
361	0	0.214286
362	0	0.214286
363	0	0.214286
364	0	0.214286
365	0	0.214286
366	0	0.283333
367	0	0.283333
368	0	0.283333
369	0	0.25
370	0	0.222222
371	0	0.222222
372	0	0.178947
373	0	0.178947
374	0	0.142105
375	0	0.142105
376	0	0.142105
377	0	0.11
378	0	0.11
379	0	0.11
380	0	0.11
381	0	0.122507
382	0	0.286822
383	0	0.262626
384	0	0.262626
385	0	0.272464
386	0	0.235133
387	0	0.229104
388	0	0.229104
389	0	0.195416
390	0	0.236948
391	0	0.238095
392	0	0.196226
393	0	0.176724
394	0	0.172025
395	0	0.167427
396	0	0.165879
397	0	0.167132
398	0	0.155594
399	0	0.0694805
400	0	0.0809012
401	0	0.133565
402	0	0.125616
403	0	0.111323
404	0	0.107068
405	0	0.148967
406	0	0.144998
407	0	0.150228
408	0	0.144138
409	0	0.130345
410	0	0.216323
411	0	0.216002
412	0	0.245887
413	0	0.24644
414	0	0.263414
415	0	0
416	0	0
417	0	0
418	0	0
419	0	0.454562
420	0	0.471548
421	0	0.471548
422	0	0.473361
423	0	0.473684
424	0	0.453801
425	0	0.434021
426	0	0.414997
427	0	0.417032
428	0	0.419719
429	0	0.254908
430	0	0.245463
431	0	0.221683
432	0	0.279487
433	0	0.286604
434	0	0.288289
435	0	0.235851
436	0	0.221578
437	0	0.27877
438	0	0.291908
439	0	0.292153
440	0	0.292075
441	0	0.25246
442	0	0.241905
443	0	0.22299
444	0	0.216042
445	0	0.250598
446	0	0.368217
447	0	0.295238
448	0	0.236364
449	0	0.47619
450	0	0.666667
451	0	0.666667
452	0	1
453	0	1
454	0	1
455	0	1
456	0	1
457	0	1
458	0	1
459	0	1
460	0	1
461	0	1
462	0	1
463	0	1
464	0	1
465	0	0.666667
466	0	0.666667
467	0	0.47619
468	0	0.47619
469	0	0.482647
470	0	0.196697
471	0	0.193277
472	0	0.253968
473	0	0.146667
474	0	0.146667
475	0	0.104575
476	0	0.158032
477	0	0.163453
478	0	0.171104
479	0	0.213268
480	0	0.247403
481	0	0.204291
482	0	0.197955
483	0	0.194992
484	0	0.183399
485	0	0.186813
486	0	0.230769
487	0	0.190107
488	0	0.169805
489	0	0.170885
490	0	0.170885
491	0	0.199685
492	0	0.201521
493	0	0.204143
494	0	0.180172
495	0	0.206097
496	0	0.206131
497	0	0.2062
498	0	0.392857
499	0	0.392857
500	0	0.392857
501	0	0.287943
502	0	0.283888
503	0	0.296838
504	0	0.318992
505	0	0.377179
506	0	0.110294
507	0	0.133333
508	0	0.488529
509	0	0.445796
510	0	0.431644
511	0	0.472194
512	0	0.460565
513	0	0.449051
514	0	0.454012
515	0	0.413793
516	0	0.422882
517	0	0.398621
518	0	0.40025
519	0	0.289425
520	0	0.232221
521	0	0.263695
522	0	0.262614
523	0	0.273755
524	0	0.257192
525	0	0.480083
526	0	0.483645
527	0	0.484786
528	0	0.471511
529	0	0.479466
530	0	0.385836
531	0	0.368869
532	0	1
533	0	0.5
534	0	0.428571
535	0	0.483333
536	0	0.472868
537	0	0.635197
538	0	0.699477
539	0	0.678665
540	0	0.674896
541	0	0.683195
542	0	0.65172
543	0	0.666667
544	0	0.666667
545	0	0.666667
546	0	0.666667
547	0	0.821656
548	0	0.666667
549	0	0.666667
550	0	0.666667
551	0	0.666667
552	0	0.584993
553	0	0.598539
554	0	0.587771
555	0	0.595693
556	0	0.796296
557	0	0.729719
558	0	0.645743
559	0	0.552486
560	0	0.927815
561	0	0.927815
562	0	0.927815
563	0	0.92009
564	0	0.92009
565	0	0.952301
566	0	0.439112
567	0	0.799926
568	0	0.777778
569	0	0.867803
570	0	0.868313
571	0	0.868313
572	0	0.868313
573	0	0.868313
574	0	0.868313
575	0	0.868313
576	0	0.86677
577	0	0
578	0	0.81788
579	0	0.816563
580	0	0.767322
581	0	1
582	0	0.948334
583	0	0.991266
584	0	0.941735
585	0	0.941735
586	0	1
587	0	0.338029
588	0	0.315626
589	0	0.644156
590	0	0.486166
591	0	0.475
592	0	0.260635
593	0	0.234213
594	0	0.247354
595	0	0.17415
596	0	0.204648
597	0	0.260935
598	0	0.285714
599	0	0.4
600	0	0.6
601	0	0.6
602	0	0.6
603	0	0.4
604	0	0.233883
605	0	0.337231
606	0	0.306366
607	0	0.254509
608	0	0.463406
609	0	0.63686
610	0	0.631563
611	0	0.656224
612	0	0.654288
613	0	0.648915
614	0	0
615	0	0
616	0	0
617	0	0
618	0	0
619	0	0
620	0	0
621	0	0
622	0	0
623	0	0.34
624	0	0.468085
625	0	0.333333
626	0	0.108871
627	0	0.140212
628	0	0.200966
629	0	0
630	0	0
631	0	0
632	0	0.228225
633	0	0.5
634	0	0.5
635	0	1
636	0	1
637	0	1
638	0	1
639	0	1
640	0	1
641	0	0.138001
642	0	0.12275
643	0	0.134403
644	0	0.22885
645	0	0.236038
646	0	0.280899
647	0	0.261537
648	0	0.2811
649	0	0.128342
650	0	0.116129
651	0	0.0857143
652	0	0.0719697
653	0	0.21325
654	0	0.216129
655	0	0.183845
656	0	0.185126
657	0	0.180829
658	0	0.174603
659	0	0.180129
660	0	0.184107
661	0	0.206012
662	0	0.220353
663	0	0.221795
664	0	0.232234
665	0	0.229276
666	0	0.246263
667	0	0
668	0	0
669	0	0
670	0	0
671	0	0
672	0	0.106133
673	0	0.131552
674	0	0.143088
675	0	0.140314
676	1	0
677	1	0
678	1	0
679	1	0
680	1	0
681	1	0
682	1	0
683	1	0
684	1	0
685	1	0
686	1	0
687	1	0
688	1	0
689	1	0
690	1	0
691	1	0
692	1	0
693	1	0
694	1	0
695	1	0
696	1	0
697	1	0
698	1	0
699	1	0
700	1	0
701	1	0
702	1	0
703	1	0
704	1	0
705	0	0
706	0	0
707	0	0
708	0	0
709	0	0
710	0	0
711	0	0
712	0	0
713	0	0.155644
714	0	0.159312
715	0	0.0888889
716	0	0.0888889
717	0	0.0888889
718	0	0.148431
719	0	0.150884
720	0	0.190227
721	0	0.192426
722	0	0
723	0	0
724	0	0
725	0	0
726	0	0
727	0	0
728	0	0
729	0	0
730	0	0
731	0	0
732	0	0.33793
733	0	0
734	0	0
735	0	0.1
736	0	0.190476
737	0	0.285714
738	0	0.381818
739	0	0.381818
740	0	0.307317
741	0	0.307971
742	0	0.226728
743	0	0.231321
744	0	0.229965
745	0	0.301634
746	0	0.408744
747	0	0.512594
748	0	0.549067
749	0	0.569141
750	0	0.572811
751	0	0.89656
752	0	1
753	1	1
754	0	0.984001
755	0	0.984001
756	0	0.984001
757	1	1
758	1	1
759	1	1
760	1	1
761	1	1
762	1	1
763	1	1
764	1	1
765	1	1
766	0	0.991903
767	0	0.991903
768	0	0.991903
769	0	1
770	0	1
771	0	1
772	1	1
773	1	1
774	1	1
775	1	1
776	1	1
777	0	1
778	0	1
779	0	1
780	0	0.333333
781	0	0
782	0	0
783	0	0
784	0	0
785	0	0.333333
786	0	0.333333
787	0	0.333333
788	0	0.333333
789	0	0.333333
790	0	1
791	0	1
792	0	1
793	1	1
794	1	1
795	1	1
796	1	1
797	1	1
798	1	1
799	1	1
800	1	1
801	1	1
802	1	1
803	1	1
804	1	1
805	1	1
806	1	1
807	1	1
808	1	1
809	1	1
810	1	1
811	1	1
812	1	1
813	1	1
814	1	1
815	1	1
816	1	1
817	1	1
818	1	1
819	1	1
820	1	1
821	1	1
822	1	1
823	1	1
824	1	1
825	1	1
826	1	1
827	1	1
828	1	1
829	1	1
830	1	1
831	1	1
832	1	1
833	1	1
834	1	1
835	1	1
836	1	1
837	0	0.900635
838	0	0.900635
839	1	1
840	1	1
841	0	1
842	0	1
843	1	1
844	1	1
845	1	1
846	1	1
847	1	1
848	1	1
849	1	1
850	1	1
851	1	1
852	1	1
853	1	1
854	1	1
855	1	1
856	1	1
857	1	1
858	1	1
859	1	1
860	1	1
861	1	1
862	1	1
863	1	1
864	1	1
865	1	1
866	1	1
867	1	1
868	1	1
869	1	1
870	1	1
871	1	1
872	1	1
873	1	1
874	1	1
875	1	1
876	1	1
877	1	1
878	1	1
879	1	1
880	1	1
881	1	1
882	1	1
883	1	1
884	1	1
885	0	1
886	0	1
887	0	0.991935
888	0	0.991935
889	0	0.991903
890	1	1
891	0	0.99187
892	0	1
893	0	0.908033
894	0	0.906313
895	0	1
896	0	0.629572
897	0	0.466667
898	0	0.549826
899	0	0.342791
900	0	0.345711
901	0	0.345711
902	0	0.337246
903	0	0.1
904	0	0.524942
905	0	0.406926
906	0	0.207989
907	0	0.190815
908	0	0.231099
909	0	0.239688
910	0	0.4
911	0	0.678963
912	0	0.678963
913	0	1
914	0	1
915	0	1
916	0	1
917	0	0.333333
918	0	0.333333
919	0	0.333333
920	0	0.166667
921	0	0.166667
922	0	0.166667
923	0	0.166667
924	0	0.166667
925	0	0.1
926	0	0.242424
927	0	0.205128
928	0	0.572796
929	0	0.360031
930	0	0.346817
931	0	0.387156
932	0	0.264113
933	0	0.28046
934	0	0.142857
935	0	0.0222222
936	0	0.0222222
937	0	0.0277778
938	0	0.0833333
939	0	0.111111
940	0	0.111111
941	0	0.333333
942	0	0.333333
943	0	0.333333
944	0	0.333333
945	0	0.333333
946	0	0.333333
947	0	0.333333
948	0	0.333333
949	0	1
950	0	1
951	0	1
952	0	0
953	0	0
954	0	0
955	0	0
956	0	0
957	0	0
958	0	0
959	0	0
960	0	0
961	0	0
962	0	0
963	0	0
964	0	0
965	0	0
966	0	0
967	0	0
968	0	0
969	0	0
970	0	0
971	0	0
972	0	0
973	0	0
974	0	0
975	0	0
976	0	0
977	0	0
978	0	0
979	0	0
980	0	0
981	0	0
982	0	0
983	0	0
984	1	0
985	0	0
986	0	0
987	0	0
988	0	0
989	0	0
990	0	0
991	0	0
992	1	0
993	1	0
994	1	0
995	1	0
996	1	0
997	1	0
998	1	0
999	1	0
1000	1	0
1001	1	0
1002	1	0
1003	1	0
1004	1	0
1005	1	0
1006	1	0
1007	1	0
1008	1	0
1009	1	0
1010	1	0
1011	1	0
1012	1	0
1013	1	0
1014	1	0
1015	1	0
1016	1	0
1017	1	0
1018	1	0
1019	1	0
1020	1	0
1021	1	0
1022	1	0
1023	1	0
1024	1	0
1025	1	0
1026	1	0
1027	1	0
1028	1	0
1029	1	0
1030	1	0
1031	1	0
1032	1	0
1033	1	0
1034	1	0
1035	1	0
1036	1	0
1037	1	0
1038	1	0
1039	1	0
1040	1	0
1041	1	0
1042	1	0
1043	1	0
1044	1	0
1045	1	0
1046	1	0
1047	1	0
1048	1	0
1049	1	0
1050	1	0
1051	1	0
1052	1	0
1053	1	0
1054	1	0
1055	1	0
1056	1	0
1057	1	0
1058	1	0
1059	1	0
1060	1	0
1061	1	0
1062	1	0
1063	1	0
1064	1	0
1065	1	0
1066	1	0
