Site	ColumnScore	SumOfPairsScore
1	0	0
2	0	0
3	0	0
4	0	0
5	0	0
6	0	0
7	0	0
8	0	0
9	0	0
10	0	0
11	0	0
12	0	0
13	0	0
14	0	0
15	0	0
16	0	0
17	0	0
18	0	0
19	0	0
20	0	0
21	0	0
22	0	0
23	0	0
24	0	0
25	0	0
26	0	0
27	0	0
28	0	0
29	0	0
30	0	0
31	0	0
32	0	0
33	0	0
34	0	0
35	0	0
36	0	0
37	0	0
38	0	0
39	0	0
40	0	0
41	0	0
42	0	0
43	0	0
44	0	0
45	0	0
46	0	0
47	0	0
48	0	0
49	0	0
50	0	0
51	0	0
52	0	0
53	0	0
54	0	0
55	0	0
56	0	0
57	0	0
58	0	0
59	0	0
60	0	0
61	0	0
62	0	0
63	0	0
64	0	0
65	0	0
66	0	0
67	0	0
68	0	0
69	0	0
70	0	0
71	0	0
72	0	0
73	0	0
74	0	0
75	0	0
76	0	0
77	0	0
78	0	0
79	0	0
80	0	0
81	0	0
82	0	0
83	0	0
84	0	0
85	0	0
86	0	0
87	0	0
88	0	0
89	0	0
90	0	0
91	0	0
92	0	0
93	0	0
94	0	0
95	0	0
96	0	0
97	0	0
98	0	0
99	0	0
100	0	0
101	0	0
102	0	0
103	0	0
104	0	0
105	0	0
106	0	0
107	0	0
108	0	0
109	0	0
110	0	0
111	0	0
112	0	0
113	0	0
114	0	0
115	0	0
116	0	0
117	0	0
118	0	0
119	0	0
120	0	0
121	0	0
122	0	0
123	0	0
124	0	0
125	0	0
126	0	0
127	0	0
128	0	0
129	0	0
130	0	0
131	0	0
132	0	0
133	0	0
134	0	0
135	0	0
136	0	0
137	0	0
138	0	0
139	0	0
140	0	0
141	0	0
142	0	0
143	0	0
144	0	0
145	0	0
146	0	0
147	0	0
148	0	0
149	0	0
150	0	0
151	0	0
152	0	0
153	0	0
154	0	0
155	0	0
156	0	0
157	0	0
158	0	0
159	0	0
160	0	0
161	0	0
162	0	0
163	0	0
164	0	0
165	0	0
166	0	0
167	0	0
168	0	0
169	0	0
170	0	0
171	0	0
172	0	0
173	0	0
174	0	0
175	0	0
176	0	0
177	0	0
178	0	0
179	0	0
180	0	0
181	0	0
182	0	0
183	0	0
184	0	0
185	0	0.047619
186	0	0.047619
187	0	0.047619
188	0	0.047619
189	0	0.141026
190	0	0.122807
191	0	0.0948617
192	0	0.0793651
193	0	0.0615764
194	0	0.0551724
195	0	0.0748663
196	0	0.0587302
197	0	0.0611664
198	0	0.0474359
199	0	0.0541063
200	0	0.0447059
201	0	0.0376623
202	0	0.0513699
203	0	0.0656429
204	0	0.0984439
205	0	0.096871
206	0	0.0908702
207	0	0.0839234
208	0	0.0733968
209	0	0.0691711
210	0	0.0736757
211	0	0.0841877
212	0	0.153758
213	0	0.127367
214	0	0.131096
215	0	0.130532
216	0	0.150752
217	0	0.0784173
218	0	0.0820144
219	0	0.0858056
220	0	0.158026
221	0	0.154437
222	0	0.156998
223	0	0.147284
224	0	0.090222
225	0	0.0858614
226	0	0.0683949
227	0	0.0741864
228	0	0.0688546
229	0	0.0615003
230	0	0.0604891
231	0	0.0604027
232	0	0.0577181
233	0	0.0528859
234	0	0.0508888
235	0	0.0459219
236	0	0.0411293
237	0	0.0365981
238	0	0.0431335
239	0	0.0412165
240	0	0.0389509
241	0	0.0367724
242	0	0.0318568
243	0	0.030604
244	0	0.0262916
245	0	0.0261997
246	0	0.0269037
247	0	0.0209154
248	0	0.0162465
249	0	0.0163418
250	0	0.0157132
251	0	0.0230496
252	0	0.0203901
253	0	0.0212766
254	0	0.0175763
255	0	0.0175763
256	0	0.0256729
257	0	0.0182195
258	0	0.0243137
259	0	0.0286576
260	0	0.026936
261	0	0.0275689
262	0	0.0204259
263	0	0.0198464
264	0	0.0215069
265	0	0.0233894
266	0	0.0281513
267	0	0.0334734
268	0	0.0354342
269	0	0.0331933
270	0	0.027591
271	0	0.0292717
272	0	0.0298319
273	0	0.0284314
274	0	0.0289916
275	0	0.0312325
276	0	0.0316194
277	0	0.0328618
278	0	0.0329835
279	0	0.0389805
280	0	0.5
281	1	0
282	1	0
283	1	0
284	1	0
285	1	0
286	1	0
287	1	0
288	1	0
289	1	0
290	1	0
291	1	0
292	1	0
293	1	0
294	1	0
295	1	0
296	1	0
297	0	0
298	0	0
299	0	0
300	0	0
301	0	0
302	0	0
303	0	0
304	0	0
305	0	0
306	0	0
307	0	0
308	0	0
309	0	0
310	0	0
311	0	0
312	0	0
313	0	0
314	0	0
315	0	0
316	0	0
317	0	0
318	0	0
319	0	0
320	0	0
321	0	0
322	0	0
323	0	0
324	0	0
325	0	0
326	0	0
327	0	0
328	0	0
329	0	0
330	0	0
331	0	0
332	0	0
333	0	0
334	0	0
335	0	0
336	0	0
337	0	0
338	0	0
339	0	0
340	0	0
341	0	0
342	0	0
343	0	0
344	0	0
345	0	0
346	0	0
347	0	0
348	0	0
349	0	0
350	0	0
351	0	0
352	0	0
353	0	0
354	0	0
355	0	0.166667
356	0	0.1
357	0	0.3
358	0	0.3
359	0	0.3
360	0	0.3
361	0	0.4
362	0	0.4
363	0	0.25
364	0	0.464286
365	0	0.311111
366	0	0.345455
367	0	0.263736
368	0	0.27668
369	0	0.166667
370	0	0.188161
371	0	0.178191
372	0	0.111628
373	0	0.202174
374	0	0.232444
375	0	0.233821
376	0	0.229934
377	0	0.229581
378	0	0.218014
379	0	0.215219
380	0	0.215715
381	0	0.216046
382	0	0.216212
383	0	0.155749
384	0	0.132571
385	0	0.136492
386	0	0.128649
387	0	0.126797
388	0	0.11874
389	0	0.132602
390	0	0.147842
391	0	0.159913
392	0	0.136726
393	0	0.160146
394	0	0.167239
395	0	0.167239
396	0	0.167239
397	0	0.167239
398	0	0.159231
399	0	0.171342
400	0	0.171576
401	0	0.0984556
402	0	0.100943
403	0	0.100127
404	0	0.102425
405	0	0.101944
406	0	0.0993973
407	0	0.0929463
408	0	0.0904064
409	0	0.0865522
410	0	0.113113
411	0	0.0806871
412	0	0.0832093
413	0	0.0768328
414	0	0.0834786
415	0	0.0834786
416	0	0.116645
417	0	0.116645
418	0	0.125958
419	0	0.127137
420	0	0.135961
421	0	0.135961
422	0	0.0349206
423	0	0
424	0	0
425	0	0
426	0	0
427	0	0
428	0	0
429	0	0
430	0	0
431	0	0
432	0	0
433	0	0
434	0	0
435	0	0
436	0	0
437	0	0
438	0	0
439	0	0
440	0	0
441	0	0
442	0	0
443	0	0
444	0	0
445	0	0
446	0	0.357143
447	0	0.357143
448	0	0.277778
449	0	0.222222
450	0	0.181818
451	0	0.151515
452	0	0.151515
453	0	0.128205
454	0	0.128205
455	0	0.0952381
456	0	0.0916667
457	0	0.0955882
458	0	0.0955882
459	0	0.0955882
460	0	0.0714286
461	0	0.083004
462	0	0.0712251
463	0	0.0846774
464	0	0.101604
465	0	0.109531
466	0	0.0952381
467	0	0.112858
468	0	0.108156
469	0	0.109043
470	0	0.105442
471	0	0.104592
472	0	0.104592
473	0	0.128401
474	0	0.146259
475	0	0.146259
476	0	0.140408
477	0	0.136471
478	0	0.141176
479	0	0.154944
480	0	0.284506
481	0	0.287981
482	0	0.212376
483	0	0.21106
484	0	0.208602
485	0	0.155398
486	0	0.15787
487	0	0.157631
488	0	0.201656
489	0	0.201656
490	0	0.19871
491	0	0.114943
492	0	0.204022
493	0	0.201511
494	0	0.200917
495	0	0.199898
496	0	0.203216
497	0	0.142673
498	0	0.115325
499	0	0.121051
500	0	0.122532
501	0	0.125145
502	0	0.6
503	0	0
504	0	0
505	0	0
506	0	0
507	0	0
508	0	0
509	0	0
510	0	0
511	0	0
512	0	0
513	0	0
514	0	0
515	0	0
516	0	0
517	0	0.181818
518	0	0.181818
519	0	0.181818
520	0	0.153846
521	0	0.153846
522	0	0.131868
523	0	0.0818713
524	0	0.139601
525	0	0.16
526	0	0.126882
527	0	0.115873
528	0	0.11991
529	0	0.0978142
530	0	0.0869215
531	0	0.0837139
532	0	0.0825225
533	0	0.0714286
534	0	0.0820425
535	0	0.0915966
536	0	0.1112
537	0	0.104651
538	0	0.106076
539	0	0.111264
540	0	0.139137
541	0	0.116687
542	0	0.118929
543	0	0.137692
544	0	0.13271
545	0	0.127553
546	0	0.129032
547	0	0.100399
548	0	0.0764368
549	0	0.0768199
550	0	0
551	0	0
552	0	0
553	0	0
554	0	0
555	0	0
556	0	0
557	0	0
558	0	0
559	0	0
560	0	0
561	0	0
562	0	0
563	0	0.1
564	0	0.142857
565	0	0.102564
566	0	0.294355
567	0	0.247059
568	0	0.191332
569	0	0.207729
570	0	0.178191
571	0	0.164706
572	0	0.158442
573	0	0.174812
574	0	0.158117
575	0	0.165501
576	0	0.160248
577	0	0.204024
578	0	0.198319
579	0	0.155504
580	0	0.144799
581	0	0.134733
582	0	0.1323
583	0	0.172997
584	0	0.203101
585	0	0.240442
586	0	0.0769231
587	0	0.0769231
588	0	0.0909091
589	0	0.0492424
590	0	0.0453782
591	0	0.0440967
592	0	0.190462
593	0	0.155252
594	0	0.208118
595	0	0.182979
596	0	0.185972
597	0	0.197728
598	0	0.145748
599	0	0.139348
600	0	0.0703712
601	0	0.066116
602	0	0.069167
603	0	0.0809953
604	0	0
605	0	0
606	0	0
607	0	0
608	0	0.166667
609	0	0.166667
610	0	0.0666667
611	0	0.0666667
612	0	0.0357143
613	0	0.0222222
614	0	0.0222222
615	0	0.246377
616	0	0.184946
617	0	0.178253
618	0	0.13964
619	0	0.0922559
620	0	0.0906483
621	0	0.0830002
622	0	0.0778237
623	0	0.106766
624	0	0.122027
625	0	0.18782
626	0	0.211557
627	0	0.199062
628	0	0.21172
629	0	0.198017
630	0	0.183759
631	0	0.172781
632	0	0.172817
633	0	0.12381
634	0	0.0915033
635	0	0.0588235
636	0	0.0965517
637	0	0.178214
638	0	0.169204
639	0	0.203149
640	0	0
641	0	0
642	0	0.195349
643	0	0.21142
644	0	0.184034
645	0	0
646	0	0
647	0	0.268421
648	0	0.273684
649	0	0.211871
650	0	0.235854
651	0	0.430894
652	0	0.429733
653	0	0.466899
654	0	0.291573
655	0	0.325993
656	0	0.47034
657	0	0.659159
658	0	0.69379
659	0	0.709895
660	0	0.166008
661	0	0.226316
662	0	0.27668
663	0	0.549708
664	0	0.619883
665	0	0.888889
666	0	0.888889
667	0	0.959059
668	0	0.959059
669	0	0.6
670	0	0.6
671	0	0
672	0	0
673	1	1
674	1	1
675	1	1
676	1	1
677	1	1
678	1	1
679	1	1
680	1	1
681	1	1
682	1	1
683	1	1
684	1	1
685	1	1
686	1	1
687	1	1
688	1	1
689	1	1
690	1	1
691	1	1
692	1	1
693	0	1
694	1	1
695	1	1
696	1	1
697	1	1
698	1	1
699	1	1
700	1	1
701	1	1
702	1	1
703	1	1
704	1	1
705	1	1
706	1	1
707	1	1
708	1	1
709	1	1
710	1	1
711	0	0.991935
712	0	0.991935
713	0	1
714	0	0.983936
715	1	1
716	1	1
717	1	1
718	1	1
719	1	1
720	1	1
721	1	1
722	1	1
723	1	1
724	1	1
725	1	1
726	1	1
727	1	1
728	1	1
729	1	1
730	1	1
731	1	1
732	1	1
733	1	1
734	1	1
735	1	1
736	1	1
737	1	1
738	1	1
739	1	1
740	1	1
741	1	1
742	1	1
743	1	1
744	1	1
745	1	1
746	0	1
747	0	1
748	0	0.384615
749	0	0.384615
750	0	0.351648
751	0	0.351648
752	0	0.351648
753	0	0.351648
754	0	0.410256
755	0	0.410256
756	0	0.410256
757	0	0.527273
758	0	0.527273
759	0	0.877076
760	0	0.52951
761	0	1
762	0	0.988506
763	0	0.991968
764	0	0.991968
765	0	0.991968
766	1	1
767	0	0.991968
768	0	0.991968
769	0	0.991968
770	0	0.991968
771	0	0.991968
772	0	0.991968
773	1	1
774	1	1
775	1	1
776	1	1
777	1	1
778	1	1
779	1	1
780	1	1
781	1	1
782	1	1
783	1	1
784	1	1
785	0	1
786	0	0.991903
787	0	0.983968
788	0	0.885445
789	0	0.820152
790	0	0.668901
791	0	0.556731
792	0	0.589776
793	0	0.852752
794	1	1
795	0	1
796	0	1
797	0	0.920765
798	0	0.959556
799	0	0.951623
800	0	0.333333
801	0	0.968134
802	0	0.968134
803	0	0.968134
804	0	0.968134
805	0	0.6
806	0	0.6
807	0	0.991935
808	1	1
809	1	1
810	1	1
811	1	1
812	0	0
813	0	0
814	0	0.846154
815	0	0.344615
816	0	0.550427
817	0	0.606068
818	0	0.333333
819	0	0.392857
820	0	0.266667
821	0	0.290909
822	0	0.532357
823	0	0.366152
824	0	0.503799
825	0	0.244306
826	0	0.246278
827	0	0.194234
828	0	0.179915
829	0	0.467236
830	0	0.42735
831	0	0.362069
832	0	0.519339
833	0	0.047619
834	0	0.0666667
835	0	0.355556
836	0	0.230769
837	0	0.230769
838	0	0.228571
839	0	0.696496
840	0	0.952358
841	0	0.960196
842	0	0.96026
843	0	0.960358
844	0	0.968163
845	0	0.968163
846	0	0.968163
847	0	1
848	0	0.676891
849	0	0.579936
850	0	0.649123
851	0	0.649123
852	0	0.649123
853	0	0.4331
854	0	0.358349
855	0	0.357822
856	0	0.245014
857	0	0.418568
858	0	0.411743
859	0	0.133333
860	0	0
861	0	0
862	0	0
863	0	0
864	0	0
865	0	0
866	0	0
867	0	0.322518
868	0	0.276461
869	0	0.274323
870	0	0.157438
871	0	0.241612
872	0	0.218843
873	0	0.214438
874	0	0.131235
875	0	0.125081
876	0	0.47619
877	0	0.47619
878	0	0.560195
879	0	0.558974
880	0	0.558974
881	0	0.567416
882	0	0.324111
883	0	0.297101
884	0	0.278986
885	0	0.253333
886	0	0.235507
887	0	0.216667
888	0	0.235507
889	0	0.242754
890	0	0.25974
891	0	0.225296
892	0	0.242424
893	0	0.210145
894	0	0.193333
895	0	0.193333
896	0	0.187692
897	0	0.0981508
898	0	0.0931174
899	0	0.0931174
900	0	0.0897436
901	0	0.0897436
902	0	0.0859466
903	0	0.0742448
904	0	0.0644206
905	0	0.110022
906	0	0.103973
907	0	0.121855
908	0	0.12421
909	0	0.122597
910	0	0.125218
911	0	0.131579
912	0	0.136842
913	0	0.136842
914	0	0.128413
915	0	0.13004
916	0	0.128492
917	0	0.274849
918	0	0.258333
919	0	0.285714
920	0	0.285714
921	0	0.318182
922	0	0.257576
923	0	0.257576
924	0	0.459766
925	0	0.542735
926	0	0.233512
927	0	0.253782
928	0	0.253782
929	0	0.480189
930	0	0.516358
931	0	0.527336
932	0	0.532866
933	0	0.342105
934	0	0.672172
935	0	1
936	0	1
937	0	0.459459
938	0	0.447619
939	0	0.554149
940	0	0
941	0	0
942	0	0
943	0	0
944	0	0
945	0	0
946	0	0
947	0	0.645689
948	0	0.2
949	0	0.333333
950	0	0.333333
951	0	0.0666667
952	0	0.0666667
953	0	0.303344
954	0	0.282602
955	0	0.208791
956	0	0.158333
957	0	0.281611
958	0	0.531338
959	0	0.55479
960	0	0.5
961	0	0.44808
962	0	0.475976
963	0	0.877205
964	0	0.877205
965	0	0.785253
966	0	0.333333
967	0	0.333333
968	0	0.4
969	0	0.843126
970	0	0.843784
971	0	1
972	1	1
973	1	1
974	1	1
975	1	1
976	1	1
977	1	1
978	1	1
979	1	1
980	1	1
981	1	1
982	1	1
983	1	1
984	1	1
985	1	1
986	1	1
987	1	1
988	1	1
989	1	1
990	1	1
991	1	1
992	1	1
993	1	1
994	1	1
995	1	1
996	1	1
997	1	1
998	1	1
999	1	1
1000	1	1
1001	1	1
1002	1	1
1003	1	1
1004	1	1
1005	1	1
1006	1	1
1007	1	1
1008	1	1
1009	1	1
1010	1	1
1011	1	1
1012	0	0
1013	0	0
1014	0	0
1015	0	0
1016	0	0
1017	0	0
1018	0	0
1019	0	0
1020	1	0
1021	1	0
1022	1	0
1023	1	0
1024	1	0
1025	1	0
1026	1	0
1027	1	0
1028	1	0
1029	1	0
1030	1	0
1031	1	0
1032	1	0
1033	1	0
1034	1	0
1035	1	0
1036	1	0
1037	1	0
1038	1	0
1039	1	0
1040	1	0
1041	1	0
1042	0	0
1043	0	0
1044	0	0
1045	0	0.992
1046	0	0.992
1047	0	0.992
1048	0	0.984032
1049	0	0.984032
1050	0	0.957447
1051	0	0.957447
1052	0	0.945946
1053	0	0.945946
1054	0	0.945946
1055	0	0.945946
1056	0	0.945946
1057	0	0.540948
1058	0	0
1059	0	0
1060	0	0
1061	0	0
1062	0	0
1063	0	0
1064	0	0
1065	0	0
1066	0	0
1067	0	0
1068	0	0
1069	0	0
1070	0	0
1071	0	0
1072	1	0
1073	1	0
1074	1	0
1075	0	0
1076	0	0
1077	0	0
1078	0	0
1079	0	0
1080	0	0
1081	0	0
1082	0	0
1083	0	0
1084	0	0
1085	0	0
1086	0	0
1087	0	0
1088	0	0
1089	0	0
1090	0	0
1091	0	0
1092	0	0
1093	0	0.579213
1094	0	0.992
1095	0	0.992
1096	0	0.992
1097	0	0.992
1098	0	0.992
1099	0	0
1100	0	0
1101	0	0
1102	0	0
1103	0	0
1104	0	0
1105	0	0
1106	0	0
1107	0	0
1108	0	0
1109	0	0
1110	0	0
1111	0	0
1112	0	0
1113	0	0
1114	1	0
1115	1	0
1116	0	0
1117	1	0
1118	1	0
1119	1	0
1120	1	0
1121	1	0
1122	1	0
1123	1	0
1124	1	0
1125	1	0
1126	1	0
1127	0	0.992
1128	0	0.992
1129	0	0.992
1130	0	0.992
1131	0	0.992
1132	0	0.992
1133	1	0
1134	1	0
1135	1	0
1136	1	0
1137	1	0
1138	1	0
1139	1	0
1140	1	0
1141	1	0
1142	1	0
1143	1	0
1144	1	0
1145	1	0
1146	1	0
1147	0	0.992
1148	0	0.992
1149	0	0.992
1150	0	0.992
1151	0	0.992
1152	0	0.991968
1153	0	0.992
1154	0	0.992
1155	0	0.992
1156	0	0.992
1157	0	0.992
1158	0	0.992
1159	0	0.992
1160	0	0.992
1161	0	0.992
1162	0	0.992
1163	0	0.992
1164	1	0
1165	1	0
1166	1	0
1167	1	0
1168	1	0
1169	1	0
1170	1	0
1171	1	0
1172	1	0
1173	1	0
1174	1	0
1175	1	0
1176	1	0
1177	1	0
1178	1	0
1179	1	0
1180	0	0.992
1181	0	0.992
1182	0	0.992
1183	0	0.992
1184	0	0.992
1185	0	0.991968
1186	0	0.991968
1187	0	0.991968
1188	0	0.991968
1189	0	0.991968
1190	0	0.991968
1191	0	0.991968
1192	0	0.991968
1193	0	0.991968
1194	0	0.991968
1195	0	1
1196	0	1
1197	0	1
1198	0	1
1199	0	1
1200	0	1
1201	0	1
1202	0	1
1203	0	1
1204	0	1
1205	0	1
1206	0	0.976033
1207	0	0.976033
1208	0	0.976033
1209	0	0.976033
1210	0	0.944941
1211	0	0.935043
1212	0	0
1213	0	0
1214	0	0
1215	0	0
