Site	ColumnScore	SumOfPairsScore
1	0	0
2	0	0
3	0	0
4	0	0
5	1	0
6	1	0
7	1	0
8	1	0
9	1	0
10	1	0
11	1	0
12	1	0
13	1	0
14	1	0
15	1	0
16	1	0
17	1	0
18	1	0
19	1	0
20	1	0
21	1	0
22	1	0
23	1	0
24	1	0
25	0	0
26	0	0
27	0	0
28	0	0
29	0	0
30	0	0
31	0	0
32	0	0
33	0	0
34	0	0
35	0	0
36	0	0
37	0	0
38	0	0.1
39	0	0.1
40	0	0.1
41	0	0.1
42	0	0.1
43	0	0.1
44	0	0.1
45	0	0.1
46	0	0.1
47	0	0.1
48	0	0.3
49	0	0.3
50	0	0.3
51	0	0.6
52	0	0.6
53	0	0.6
54	0	0.6
55	0	0.4
56	0	0.47619
57	0	0.47619
58	0	0.47619
59	0	0.357143
60	0	0.4
61	0	0.790652
62	0	0.538995
63	0	0.529797
64	0	0.913817
65	0	0.913817
66	0	0.921216
67	0	0.921216
68	0	0.928607
69	0	0.928607
70	0	0.944645
71	0	1
72	0	1
73	0	1
74	0	0.552725
75	0	0.508282
76	0	0.508282
77	0	0.518154
78	0	0.290909
79	0	0.59483
80	0	0.566687
81	0	0.560683
82	0	0.554577
83	0	0.554577
84	0	0.5427
85	0	0.542468
86	0	0.51727
87	0	0.445193
88	0	1
89	0	0.153846
90	0	0.420744
91	0	0.333333
92	0	0.333333
93	0	0.333333
94	0	0.476104
95	0	0.560867
96	0	0.554388
97	0	0.553732
98	0	0.496033
99	0	0.321429
100	0	0.321429
101	0	0.357617
102	0	0.585191
103	0	0.594184
104	0	0
105	0	0.604196
106	0	0.611752
107	0	0.611752
108	0	0.611752
109	0	0
110	0	0
111	0	0
112	0	0.1
113	0	0.815288
114	0	0.718925
115	0	0.716233
116	0	0.651748
117	0	0.532559
118	0	0.27503
119	0	0.312367
120	0	0.179487
121	0	0.239919
122	0	0.560606
123	0	0.371795
124	0	0.442857
125	0	0.444444
126	0	0.410256
127	0	0.5613
128	0	0.735181
129	0	0.777923
130	0	0.82585
131	0	0.84881
132	0	1
133	0	0.921053
134	0	0.976096
135	0	0.976096
136	0	0.984032
137	0	0.976033
138	0	0.879229
139	0	0.879229
140	0	0.855613
141	0	0
142	0	0.955607
143	0	0.615059
144	0	0.75
145	0	0.75
146	0	0.539439
147	0	0.463175
148	0	0.366369
149	0	0.377242
150	0	0.405263
151	0	0.508772
152	0	0.617011
153	0	0.686779
154	0	0.937136
155	0	0.968134
156	0	0.968386
157	0	0.968386
158	0	0.968386
159	0	0.952707
160	0	1
161	0	1
162	1	1
163	1	1
164	1	1
165	1	1
166	1	1
167	0	0.992
168	0	0.992
169	0	0.952675
170	0	0
171	0	0.944444
172	0	1
173	1	1
174	0	0.740775
175	0	1
176	0	0.992
177	1	1
178	1	1
179	1	1
180	1	1
181	1	1
182	1	1
183	1	1
184	0	0.992
185	0	0.992
186	0	0.992
187	0	0.992
188	0	0.992
189	0	0
190	1	1
191	1	1
192	1	1
193	1	1
194	1	1
195	1	1
196	1	1
197	1	1
198	1	1
199	1	1
200	1	1
201	1	1
202	1	1
203	1	1
204	1	1
205	1	1
206	1	1
207	1	1
208	1	1
209	1	1
210	1	1
211	1	1
212	1	1
213	1	1
214	1	1
215	1	1
216	1	1
217	1	1
218	1	1
219	1	1
220	1	1
221	1	1
222	1	1
223	1	1
224	1	1
225	1	1
226	1	1
227	1	1
228	1	1
229	1	1
230	1	1
231	1	1
232	1	1
233	1	1
234	1	1
235	1	1
236	1	1
237	1	1
238	1	1
239	1	1
240	1	1
241	1	1
242	1	1
243	1	1
244	1	1
245	1	1
246	0	0
247	0	0.66601
248	0	0.627663
249	0	0.627663
250	0	0.627663
251	0	0.627663
252	0	0.626636
253	1	0
254	1	0
255	0	1
256	1	1
257	1	1
258	1	1
259	1	1
260	1	1
261	1	1
262	1	1
263	1	1
264	1	1
265	1	1
266	1	1
267	1	1
268	1	1
269	1	1
270	1	1
271	1	1
272	1	1
273	1	1
274	1	1
275	1	1
276	1	1
277	1	1
278	1	1
279	0	1
280	0	0.653687
281	0	1
282	0	0.955556
283	0	0.799585
284	1	1
285	1	1
286	1	1
287	1	1
288	1	1
289	1	1
290	1	1
291	1	1
292	1	1
293	1	1
294	1	1
295	1	1
296	1	1
297	1	1
298	1	1
299	1	1
300	1	1
301	1	1
302	1	1
303	1	1
304	1	1
305	1	1
306	1	1
307	1	1
308	1	1
309	1	1
310	1	1
311	1	1
312	0	0.575133
313	0	0.498506
314	0	0.528386
315	0	0.859494
316	0	1
317	0	0.992
318	1	1
319	1	1
320	1	1
321	1	1
322	1	1
323	1	1
324	1	1
325	1	1
326	1	1
327	1	1
328	1	1
329	1	1
330	1	1
331	1	1
332	1	1
333	1	1
334	1	1
335	1	1
336	1	1
337	1	1
338	1	1
339	1	1
340	1	1
341	1	1
342	1	1
343	1	1
344	1	1
345	1	1
346	1	1
347	1	1
348	1	1
349	1	1
350	1	1
351	1	1
352	1	1
353	1	1
354	0	1
355	0	0.578313
356	1	1
357	1	1
358	1	1
359	1	1
360	1	1
361	1	1
362	1	1
363	1	1
364	1	1
365	1	1
366	1	1
367	1	1
368	1	1
369	1	1
370	1	1
371	1	1
372	1	1
373	1	1
374	1	1
375	1	1
376	1	1
377	1	1
378	1	1
379	1	1
380	1	1
381	1	1
382	1	1
383	1	1
384	1	1
385	1	1
386	1	1
387	1	1
388	1	1
389	1	1
390	1	1
391	1	1
392	1	1
393	1	1
394	1	1
395	1	1
396	1	1
397	1	1
398	1	1
399	1	1
400	1	1
401	1	1
402	1	1
403	1	1
404	1	1
405	1	1
406	1	1
407	1	1
408	1	1
409	1	1
410	1	1
411	1	1
412	1	1
413	1	1
414	1	1
415	1	1
416	1	1
417	1	1
418	1	1
419	1	1
420	1	1
421	1	0
422	1	0
423	1	0
424	1	0
425	1	0
426	1	0
427	1	0
428	1	0
429	1	0
430	0	0
431	0	0.991935
432	0	0.991935
433	0	0.991935
434	0	0.991935
435	0	0.991837
436	0	0.991803
437	0	0.991803
438	0	0.975742
439	0	0.967908
440	0	0.967908
441	0	0.967908
442	0	0.967908
443	0	0.960102
444	0	0.960102
445	0	0.960102
446	0	0.960102
447	0	0.952423
448	0	0.967842
449	0	0.967842
450	0	0.967842
451	0	0.967842
452	0	0.975742
453	0	0.99187
454	0	0.99187
455	0	0.99187
456	0	0.99187
457	0	0.983839
458	0	0.99187
459	0	0.99187
460	0	0.99187
461	0	0.99187
462	0	0.99187
463	0	0.99187
464	0	0.99187
465	0	0.99187
466	0	0.991803
467	0	0.991803
468	0	0.991803
469	0	0.991803
470	0	0.991803
471	0	0.975036
472	1	0
473	1	0
