Site	ColumnScore	SumOfPairsScore
1	0	0
2	0	0
3	0	0
4	0	0
5	0	0
6	0	0
7	0	0
8	0	0
9	0	0
10	0	0
11	0	0
12	0	0
13	0	0
14	0	0
15	0	0
16	0	0.293108
17	0	0.302373
18	0	0.452097
19	0	0.565506
20	0	0.235294
21	0	0.6695
22	0	0.635382
23	0	0.635382
24	0	0.633227
25	0	0.3
26	0	0.909359
27	0	1
28	0	1
29	0	0.940308
30	0	0.943669
31	0	0.944118
32	0	0.944118
33	0	0.944118
34	1	0
35	1	0
36	1	0
37	1	0
38	1	0
39	1	0
40	1	0
41	1	0
42	1	0
43	1	0
44	1	0
45	1	0
46	1	0
47	1	0
48	1	0
49	1	0
50	1	0
51	1	0
52	1	0
53	1	0
54	1	0
55	1	0
56	1	0
57	1	0
58	1	0
59	1	0
60	1	0
61	1	0
62	1	0
63	1	0
64	1	0
65	1	0
66	1	0
67	1	0
68	1	0
69	1	0
70	1	0
71	1	0
72	1	0
73	1	0
74	1	0
75	1	0
76	1	0
77	1	0
78	1	0
79	1	0
80	1	0
81	1	0
82	1	0
83	1	0
84	1	0
85	1	0
86	1	0
87	1	0
88	1	0
89	1	0
90	1	0
91	1	0
92	1	0
93	1	0
94	1	0
95	1	0
96	1	0
97	1	0
98	1	0
99	1	0
100	1	0
101	1	0
102	1	0
103	1	0
104	1	0
105	1	0
106	1	0
107	1	0
108	1	0
109	1	0
110	1	0
111	1	0
112	1	0
113	1	0
114	1	0
115	1	0
116	1	0
117	1	0
118	1	0
119	1	0
120	1	0
121	1	0
122	1	0
123	1	0
124	1	0
125	1	0
126	1	0
127	1	0
128	1	0
129	1	0
130	1	0
131	1	0
132	0	0.983437
133	0	0.983437
134	0	0.983437
135	0	0.983437
136	0	0.975309
137	0	0.975309
138	0	0.975309
139	0	0.959055
140	0	0.950962
141	0	1
142	0	0.711506
143	0	0.710425
144	0	0.4
145	0	0.266667
146	0	0.19697
147	0	0.152381
148	0	0.125
149	0	0.647683
150	0	0.415439
151	0	0.411905
152	0	0.398505
153	0	0.361888
154	0	0.190476
155	0	0.190476
156	0	0.142857
157	0	0.631016
158	0	0.247824
159	0	0.193964
160	0	0.221808
161	0	0.158783
162	0	0.183402
163	0	0.186525
164	0	0.221715
165	1	0
166	1	0
167	1	0
168	1	0
169	1	0
170	1	0
171	1	0
172	1	0
173	1	0
174	1	0
175	1	0
176	1	0
177	1	0
178	0	0.236011
179	0	0.32752
180	0	0.601936
181	0	0.362845
182	0	0.362845
183	0	0.37632
184	0	0.361395
185	0	0.377551
186	0	0.213675
187	0	0
188	0	0
189	0	0
190	0	0
191	0	0
192	0	0
193	0	0
194	0	0
195	0	0
196	0	0
197	0	0
198	0	0.366373
199	0	0.351426
200	0	0.383797
201	0	0
202	0	0
203	0	0
204	0	0.1
205	0	0.256293
206	0	0.22885
207	1	0
208	1	0
209	1	0
210	1	0
211	1	0
212	1	0
213	1	0
214	1	0
215	1	0
216	1	0
217	1	0
218	1	0
219	1	0
220	1	0
221	1	0
222	1	0
223	1	0
224	1	0
225	1	0
226	1	0
227	1	0
228	1	0
229	1	0
230	1	0
231	1	0
232	1	0
233	1	0
234	1	0
235	1	0
236	1	0
237	1	0
238	1	0
239	1	0
240	1	0
241	1	0
242	1	0
243	1	0
244	1	0
245	1	0
246	1	0
247	1	0
248	1	0
249	1	0
250	1	0
251	1	0
252	1	0
253	1	0
254	1	0
255	1	0
256	1	0
257	1	0
258	1	0
259	1	0
260	1	0
261	1	0
262	1	0
263	1	0
264	1	0
265	1	0
266	1	0
267	1	0
268	1	0
269	1	0
270	1	0
271	1	0
272	1	0
273	1	0
274	1	0
275	1	0
276	1	0
277	1	0
278	1	0
279	1	0
280	1	0
281	1	0
282	1	0
283	1	0
284	1	0
285	1	0
286	1	0
287	1	0
288	1	0
289	1	0
290	1	0
291	1	0
292	1	0
293	1	0
294	1	0
295	1	0
296	1	0
297	1	0
298	1	0
299	1	0
300	1	0
301	1	0
302	1	0
303	1	0
304	1	0
305	1	0
306	1	0
307	1	0
308	1	0
309	1	0
310	1	0
311	1	0
312	1	0
313	1	0
314	1	0
315	1	0
316	1	0
317	1	0
318	1	0
319	1	0
320	1	0
321	1	0
322	1	0
323	1	0
324	1	0
325	1	0
326	1	0
327	1	0
328	1	0
329	1	0
330	1	0
331	1	0
332	1	0
333	1	0
334	1	0
335	1	0
336	1	0
337	1	0
338	1	0
339	1	0
340	1	0
341	1	0
342	1	0
343	1	0
344	1	0
345	1	0
346	1	0
347	1	0
348	1	0
349	1	0
350	1	0
351	1	0
352	1	0
353	1	0
354	1	0
355	1	0
356	1	0
357	1	0
358	1	0
359	1	0
360	1	0
361	1	0
362	0	0
363	0	0
364	0	0
365	0	0
366	0	0
367	0	0
368	0	0
369	0	0
370	0	0
371	0	0
372	0	0
373	0	0
374	0	0
375	0	0
376	0	0
377	0	0
378	0	0
379	0	0
380	0	0
381	0	0
382	0	0
383	0	0
384	0	0
385	0	0
386	0	0
387	0	0
388	0	0
389	0	0
390	0	0
391	0	0
392	0	0
393	0	0
394	0	0
395	0	0
396	0	0
397	0	0
398	0	0
399	0	0
400	0	0
401	0	0
402	0	0
403	0	0
404	0	0
405	0	0.24369
406	0	0.182186
407	0	0.187439
408	0	0.194807
409	0	0.322299
410	0	0.253395
411	0	0.234615
412	0	0.551261
413	0	0.723056
414	0	0.736037
415	0	0.737049
416	0	0.639719
417	0	0.666161
418	0	0.622955
419	0	0.678859
420	0	0.111111
421	0	0.142857
422	0	0.6162
423	0	0.602757
424	0	0.598436
425	0	0.55816
426	0	0.555753
427	0	1
428	0	1
429	0	0.725275
430	0	0.725275
431	0	0.725275
432	0	0.725275
433	0	0.628571
434	0	0.65
435	0	0.65
436	0	0.5665
437	0	0.559197
438	0	0.454445
439	0	0.381997
440	0	0.270413
441	0	0.2
442	0	0.3
443	0	0.3
444	0	0.3
445	0	0.3
446	0	0.3
447	0	0.3
448	0	0.5
449	0	0.5
450	0	0.5
451	0	0.263354
452	0	0.262614
453	0	0.260884
454	0	0.190435
455	0	0.131369
456	0	0.181321
457	0	0.198231
458	0	0.207382
459	0	0.194386
460	0	0.161505
461	0	0.149813
462	0	0.163357
463	0	0.163129
464	0	0.163697
465	0	0.200826
466	0	0.65
467	0	0.628571
468	0	0.628571
469	0	0.628571
470	0	0.725275
471	0	0.604396
472	0	0.18622
473	0	0.165041
474	0	0.161134
475	0	0.148997
476	0	0.161238
477	0	0.163105
478	0	0.15875
479	0	0.126634
480	0	0.122002
481	0	0.126276
482	0	0.0985191
483	0	0.0875771
484	0	0.0685762
485	0	0.0619133
486	0	0.0581414
487	0	0.0566584
488	0	0.0557075
489	0	0.056243
490	0	0.045354
491	0	0.0539972
492	0	0.0609391
493	0	0.0734127
494	0	0.0838384
495	0	0.100423
496	0	0.110742
497	0	0.0952381
498	0	0.125755
499	0	0.100454
500	0	0.108619
501	0	0.115807
502	0	0.121787
503	0	0.121152
504	0	0.147763
505	0	0.135111
506	0	0.164304
507	0	0.21659
508	0	0.275918
509	0	0.323582
510	0	0.331401
511	0	0.287879
512	0	0.34359
513	0	0.242647
514	0	0.32381
515	0	0.464286
516	0	0.464286
517	0	0.361111
518	0	0.361111
519	0	0.361111
520	0	0.428571
521	0	0.428571
522	0	1
523	0	0
524	0	0
525	0	0
526	0	0
527	0	0
528	0	0
529	0	0
530	0	0
531	0	0
532	0	0
533	0	0.496153
534	0	0.507818
535	0	0.175824
536	0	0.290909
537	0	0.519562
538	0	0.530963
539	0	0.526785
540	0	0.541041
541	0	0.541041
542	0	0
543	0	0.551304
544	0	0.539522
545	0	0.517922
546	0	0.551596
547	0	0.532667
548	0	0.546333
549	0	0.221672
550	0	0.167808
551	0	0.189291
552	0	0.193277
553	0	0.243077
554	0	0.27451
555	0	0.166667
556	0	0.214286
557	0	0.214286
558	0	0.214286
559	0	0.285714
560	0	0.6
561	0	1
562	0	0.548107
563	0	0.764446
564	0	0.91205
565	0	0.928921
566	0	0.928921
567	1	1
568	1	1
569	0	0.944118
570	0	0.897727
571	0	0.882396
572	0	0.852265
573	0	0.773287
574	0	1
575	0	1
576	0	0.46875
577	0	0.383205
578	0	0.275481
579	0	0.224961
580	0	0.173333
581	0	0.149425
582	0	0.228571
583	0	0.238026
584	0	0.241313
585	0	0.226331
586	0	0.465274
587	0	0.78146
588	0	0.911065
589	0	0.918949
590	0	0.91213
591	0	0.935708
592	0	0.935708
593	0	0.913169
594	0	0.936473
595	0	0.936473
596	0	0.92864
597	0	0.92864
598	0	0.875646
599	0	0.874674
600	0	0.874674
601	0	0.874674
602	0	1
603	0	1
604	0	1
605	0	0.886633
606	0	0.877811
607	0	0.877811
608	0	0.371429
609	0	0.590569
610	0	0.591335
611	0	0.608163
612	0	0.388011
613	0	0.389121
614	0	0.38455
615	0	0.379678
616	0	0.364991
617	0	0.286776
618	0	0.235229
619	0	0.219839
620	0	0.22122
621	0	0.158156
622	0	0.158088
623	0	0
624	0	0
625	0	0
626	0	0.846154
627	0	0.380648
628	0	0.227107
629	0	0.230805
630	0	0.362802
631	0	0.440349
632	0	0.435067
633	0	0.468878
634	0	0.471971
635	0	0.418752
636	0	1
637	0	0.531881
638	0	0.862147
639	0	0.928738
640	0	0.928738
641	0	0.975412
642	0	0.975412
643	0	0.975412
644	0	0.933682
645	0	0.854021
646	0	0.936572
647	0	0.929019
648	0	0.929019
649	0	0.929019
650	0	0.921557
651	0	0.921719
652	0	0.921719
653	0	0.921719
654	0	0.921412
655	0	0.913674
656	0	1
657	0	1
658	0	0.615385
659	0	0.615385
660	0	0.841141
661	0	0.835636
662	0	0.83484
663	0	0.818989
664	0	0.676336
665	0	0.726069
666	0	0.688648
667	0	0.652037
668	0	0.628656
669	0	0.505376
670	0	0.79085
671	0	0.638095
672	0	0.681818
673	0	0.681818
674	0	0.654545
675	0	0.622222
676	0	0.622222
677	0	0.357143
678	0	0.285714
679	0	0.4
680	0	0.4
681	0	0.4
682	0	0.4
683	0	0.4
684	0	0.4
685	0	0.4
686	0	0.4
687	0	0
688	0	0
689	0	0
690	0	0
691	0	0
692	0	0
693	0	0
694	0	0
695	0	0
696	0	0
697	0	0
698	0	0
699	0	0
700	0	0
701	0	0
702	0	0
703	0	0
704	0	0
705	0	0.0882718
706	0	0.097315
707	0	0.096922
708	0	0.0910672
709	0	0.074172
710	0	0.0655988
711	0	0.113721
712	0	0.117081
713	0	0.1665
714	0	0.152525
715	0	0.165657
716	0	0.185859
717	0	0.190447
718	0	0.198054
719	0	0.195148
720	0	0.203427
721	0	0.207022
722	0	0.214212
723	0	0.372549
724	0	0.190785
725	0	0.191832
726	0	0.166147
727	0	0.103976
728	0	0.112863
729	0	0.10788
730	0	0.113239
731	0	0.0674486
732	0	0.0775116
733	0	0.0905538
734	0	0.0984754
735	0	0.0726392
736	0	0.0817246
737	0	0.0898232
738	0	0.10327
739	0	0.116883
740	0	0.139706
741	0	0.227273
742	0	0.166667
743	0	0.166667
744	0	0.166667
745	0	0.333333
746	0	0.333333
747	0	0.333333
748	0	0.333333
749	0	0.333333
750	0	0.333333
751	0	0.333333
752	0	0
753	0	0.297948
754	0	0.375946
755	0	0.468135
756	0	0.133333
757	0	0
758	0	0
759	0	0
760	0	0
761	0	0.506383
762	0	0.507934
763	0	0
764	0	0
765	0	0
766	0	0.333333
767	0	0.333333
768	0	0.333333
769	0	0.333333
770	0	0.590834
771	0	0.166667
772	0	0.166667
773	0	0.0666667
774	0	0.523949
775	0	0.327731
776	0	0.425092
777	0	0.425092
778	0	0.412982
779	0	0.404178
780	0	0.395063
781	0	0.405826
782	0	0.415486
783	0	0.49206
784	0	0.489826
785	0	0.459104
786	0	0.371768
787	0	0.387097
788	0	0.320513
789	0	0.318182
790	0	0.444444
791	0	0.6
792	0	0.3
793	0	0.3
794	0	0.0801394
795	0	0.0595653
796	0	0.058968
797	0	0.0632303
798	0	0.0709325
799	0	0.0700666
800	0	0.0781638
801	0	0.0844325
802	0	0.0881873
803	0	0.0868425
804	0	0.0934761
805	0	0.133757
806	0	0.142857
807	0	0.142857
808	0	0.107143
809	0	0.0833333
810	0	0.343511
811	0	0.453545
812	0	0.047619
813	0	0.166667
814	0	0.166667
815	0	0.333333
816	0	0.2
817	0	0.224547
818	0	0.221032
819	0	0.222863
820	0	0.220266
821	0	0
822	0	0
823	0	0
824	0	0
825	0	0
826	0	0
827	0	0
828	0	0
829	0	0.166667
830	0	0.1
831	0	0.649231
832	0	0.60114
833	0	0.32568
834	0	0.249244
835	0	0.257108
836	0	0.194192
837	0	0.139596
838	0	0.115091
839	0	0.10997
840	0	0.128503
841	0	0.075028
842	0	0.0742857
843	0	0.0813093
844	0	0.0823402
845	0	0.0856486
846	0	0.115831
847	0	0.109643
848	0	0.102116
849	0	0.0880048
850	0	0.0837088
851	0	0.173789
852	0	0.173789
853	0	0.202299
854	0	0.161327
855	0	0.182329
856	0	0.247987
857	0	0.247636
858	0	0.238313
859	0	0.235851
860	0	0.228298
861	0	0.327421
862	0	0.302678
863	0	0.304861
864	0	0.300339
865	0	0.300261
866	0	0.304355
867	0	0
868	0	0
869	0	0
870	0	0
871	0	0
872	0	0
873	0	0
874	0	0
875	0	0.0661765
876	0	0.0761905
877	0	0.0788177
878	0	0.204953
879	0	0.190432
880	0	0.167085
881	0	0.112856
882	0	0.108644
883	0	0.047619
884	0	0.0357143
885	0	0.0357143
886	0	0.197849
887	0	0.147147
888	0	0.114141
889	0	0.120748
890	0	0.119184
891	0	0.133333
892	0	0.134386
893	0	0.163626
894	0	0.229839
895	0	0.209195
896	0	0.224138
897	0	0.240741
898	0	0.161905
899	0	0.166667
900	0	0.127924
901	0	0.128633
902	0	0.127711
903	0	0.127777
904	0	0
905	0	0
906	0	0
907	0	0
908	0	0
909	0	0
910	0	0
911	0	0
912	0	0
913	0	0.166667
914	0	0.166667
915	0	0.166667
916	0	0.166667
917	0	0.166667
918	0	0.166667
919	0	0.266667
920	0	0.676471
921	0	0.498024
922	0	0.498024
923	0	0.498024
924	0	0.498024
925	0	0.498024
926	0	0.498024
927	0	0.498024
928	0	0.498024
929	0	0.498024
930	0	0.498024
931	0	0.498024
932	0	0.498024
933	0	0.913043
934	0	1
935	0	1
936	0	1
937	0	1
938	0	1
939	0	1
940	0	1
941	0	1
942	0	1
943	0	1
944	0	1
945	0	1
946	0	1
947	0	1
948	0	1
949	0	1
950	0	1
951	0	1
952	0	1
953	0	1
954	0	1
955	0	1
956	0	1
957	0	1
958	0	1
959	0	1
960	0	1
961	0	1
962	0	1
963	0	1
964	0	1
965	0	1
966	0	1
967	0	1
968	0	0.84058
969	0	1
970	0	1
971	0	1
972	0	1
973	0	1
974	0	1
975	0	1
976	0	1
977	0	1
978	0	1
979	0	1
980	0	1
981	0	1
982	0	1
983	0	1
984	0	1
985	0	1
986	0	1
987	0	1
988	0	1
989	0	1
990	0	1
991	0	1
992	0	1
993	0	0.849231
994	0	0.849231
995	0	1
996	0	1
997	0	1
998	0	1
999	0	1
1000	0	1
1001	0	1
1002	0	1
1003	0	1
1004	0	1
1005	0	1
1006	0	0.731579
1007	0	1
1008	0	1
1009	0	1
1010	0	0
1011	0	0
1012	0	0
1013	0	0.52381
1014	0	0.52381
1015	0	0.504762
1016	0	0.504762
1017	0	0.458874
1018	0	0.52381
1019	0	0.52381
1020	0	0.52381
1021	0	0.52381
1022	0	0.438406
1023	0	0.406667
1024	0	0.406667
1025	0	0.375385
1026	0	0.375385
1027	0	0.307882
1028	0	0.355446
1029	0	0.333872
1030	0	0.327808
1031	0	0.25674
1032	0	0.180309
1033	0	0.120858
1034	0	0.116992
1035	0	0.105411
1036	0	0.108259
1037	0	0.116283
1038	0	0.117682
1039	0	0.120714
1040	0	0.128985
1041	0	0.144636
1042	0	0.177033
1043	0	0.236344
1044	0	0.244766
1045	0	0.305051
1046	0	0.343857
1047	0	0.201624
1048	0	0.140707
1049	0	0.144836
1050	0	0.156773
1051	0	0.161545
1052	0	0.171809
1053	0	0.171717
1054	0	0.175617
1055	0	0.188537
1056	0	0.245567
1057	0	0.245567
1058	0	0.279227
1059	0	0.394928
1060	0	0.467532
1061	0	0.504762
1062	0	0.619883
1063	0	0.166667
1064	0	0.166667
1065	0	0.333333
1066	0	1
1067	0	1
1068	0	0.779886
1069	0	0.890952
1070	0	0.905554
1071	0	0.907373
1072	0	0.976193
1073	0	0.968289
1074	0	0.968289
1075	0	0.968289
1076	0	0.976098
1077	0	0.976098
1078	0	0.976098
1079	0	0.976098
1080	0	1
1081	0	1
1082	1	1
1083	0	0.83641
1084	0	1
1085	0	1
1086	0	0.929735
1087	0	0.929735
1088	0	0.976193
1089	0	0.976193
1090	0	0.976193
1091	0	0.976193
1092	0	1
1093	0	0.937189
1094	0	0.944964
1095	0	0.944964
1096	0	0.944964
1097	0	0
1098	0	0
1099	0	0
1100	0	0
1101	0	0
1102	0	0
1103	0	0
1104	0	0
1105	0	0
1106	0	0
1107	0	0
1108	0	0
1109	0	0
1110	0	0.921118
1111	0	1
1112	0	1
1113	0	1
1114	0	1
1115	0	1
1116	0	0.842737
1117	0	0.785232
1118	0	0.777946
1119	0	0.495462
1120	0	0.262015
1121	0	0
1122	0	0
1123	0	0
1124	0	0
1125	0	0
1126	0	0
1127	0	0
1128	0	0
1129	0	0
1130	0	0
1131	0	0
1132	0	0
1133	0	0
1134	0	0
1135	0	0
1136	0	0
1137	0	0
1138	0	0
1139	0	0
1140	0	0
1141	0	0
1142	0	0
1143	0	0
1144	0	0
1145	0	0
1146	0	0
1147	0	0
1148	0	0
1149	0	0
1150	0	0
1151	0	0
1152	0	0
1153	0	0
1154	0	0
1155	0	0
1156	0	0
1157	0	0
1158	0	0
1159	0	0
1160	0	0
1161	0	0
1162	0	0
1163	0	0
1164	0	0
1165	0	0
1166	0	0
1167	0	0
1168	0	0
1169	0	0
1170	0	0
1171	0	0
1172	0	0
1173	0	0
1174	0	0
1175	0	0
1176	0	0
1177	0	0
1178	0	0
1179	0	0
1180	0	0
1181	0	0
1182	0	0
1183	0	0
1184	0	0
1185	0	0
1186	0	0
1187	0	0
1188	0	0
1189	0	0
1190	0	0
1191	0	0
1192	0	0
1193	0	0
1194	0	0
1195	0	0
1196	0	0
1197	0	0
1198	0	0
1199	0	0
1200	0	0
1201	0	0
1202	0	0
1203	0	0
1204	0	0
1205	0	0
1206	0	0
1207	0	0
1208	0	0
1209	0	0
1210	0	0
1211	0	0
1212	0	0
1213	0	0
1214	0	0
1215	0	0
1216	0	0
1217	0	0
1218	0	0
1219	0	0
1220	0	0
1221	0	0
1222	0	0
1223	0	0
1224	0	0
1225	0	0
1226	0	0
1227	0	0
1228	0	0
1229	0	0
1230	0	0
1231	0	0
1232	0	0
1233	0	0
1234	0	0
1235	0	0
1236	0	0
1237	0	0
1238	0	0
1239	0	0
1240	0	0
1241	0	0
1242	0	0
1243	0	0
1244	0	0
1245	0	0
1246	0	0
1247	0	0.375
1248	0	0.258333
1249	0	0.316288
1250	0	0.231313
1251	0	0.372449
1252	0	0.350877
1253	0	0.372359
1254	0	0.443579
1255	0	0.498582
1256	0	0.843517
1257	0	0.933917
1258	0	0.957396
1259	0	0.979849
1260	0	0.990698
1261	0	0.991935
1262	0	0.992
1263	0	0.992
1264	0	1
1265	1	1
1266	1	1
1267	1	1
1268	1	1
1269	1	1
1270	1	1
1271	1	1
1272	1	1
1273	1	1
1274	1	1
1275	1	1
1276	1	1
1277	1	1
1278	1	1
1279	1	1
1280	1	1
1281	1	1
1282	1	1
1283	1	1
1284	1	1
1285	0	1
1286	0	0.845494
1287	0	0.44588
1288	0	0.458088
1289	0	0.458088
1290	0	1
1291	0	1
1292	0	1
1293	1	1
1294	1	1
1295	1	1
1296	1	1
1297	1	1
1298	1	1
1299	1	1
1300	1	1
1301	1	1
1302	0	0
1303	0	0.992
1304	1	1
1305	1	1
1306	1	1
1307	1	1
1308	1	1
1309	1	1
1310	1	1
1311	1	1
1312	1	1
1313	1	1
1314	1	1
1315	1	1
1316	1	1
1317	1	1
1318	1	1
1319	1	1
1320	1	1
1321	1	1
1322	1	1
1323	1	1
1324	1	1
1325	1	1
1326	1	1
1327	1	1
1328	1	1
1329	1	1
1330	1	1
1331	1	1
1332	1	1
1333	1	1
1334	1	1
1335	1	1
1336	1	1
1337	1	1
1338	1	1
1339	1	1
1340	1	1
1341	1	1
1342	1	1
1343	1	1
1344	1	1
1345	1	1
1346	1	1
1347	1	1
1348	1	1
1349	1	1
1350	1	1
1351	1	1
1352	1	1
1353	1	1
1354	1	1
1355	1	1
1356	1	1
1357	1	1
1358	1	1
1359	1	1
1360	1	1
1361	1	1
1362	1	1
1363	1	1
1364	1	1
1365	1	1
1366	1	1
1367	1	1
1368	1	1
1369	1	1
1370	1	1
1371	1	1
1372	1	1
1373	1	1
1374	1	1
1375	1	1
1376	1	1
1377	1	1
1378	1	1
1379	1	1
1380	1	1
1381	1	1
1382	1	1
1383	1	1
1384	1	1
1385	1	1
1386	1	1
1387	1	1
1388	1	1
1389	1	1
1390	1	1
1391	1	1
1392	0	0.984064
1393	0	1
1394	0	0.678715
1395	1	1
1396	1	1
1397	1	1
1398	1	1
1399	1	1
1400	1	1
1401	1	1
1402	1	1
1403	1	1
1404	1	1
1405	1	1
1406	1	0
1407	1	0
1408	1	1
1409	1	1
1410	1	1
1411	1	1
1412	1	1
1413	1	1
1414	1	1
1415	1	1
1416	1	1
1417	1	1
1418	1	1
1419	1	1
1420	1	1
1421	1	1
1422	1	1
1423	1	1
1424	1	1
1425	1	1
1426	1	1
1427	0	0
1428	0	0.916667
1429	0	0.752938
1430	0	0.617584
1431	0	0.553305
1432	0	0.493213
1433	0	0.468746
1434	0	0.804152
1435	0	0.848883
1436	0	1
1437	1	1
1438	1	1
1439	1	1
1440	1	1
1441	1	1
1442	1	1
1443	1	1
1444	1	1
1445	1	1
1446	1	1
1447	1	1
1448	1	1
1449	1	1
1450	1	1
1451	1	1
1452	1	1
1453	1	1
1454	1	1
1455	1	1
1456	1	1
1457	1	1
1458	1	1
1459	1	1
1460	1	1
1461	1	1
1462	1	1
1463	1	1
1464	1	1
1465	1	1
1466	1	1
1467	0	1
1468	0	1
1469	1	1
1470	0	0.992
1471	0	0.992
1472	0	0.499566
1473	0	1
1474	1	1
1475	1	1
1476	1	1
1477	1	1
1478	1	1
1479	1	1
1480	1	1
1481	0	1
1482	0	0.97584
1483	0	0.842731
1484	0	0.836948
1485	0	0.834601
1486	0	0.590643
1487	0	0.867305
1488	0	0.951521
1489	0	0.951521
1490	0	0.793009
1491	0	0
1492	0	0.777778
1493	0	0.442432
1494	0	0.596757
1495	0	0.601494
1496	0	0.857896
1497	0	0.872739
1498	0	0.968386
1499	0	0.968386
1500	0	0.968386
1501	0	0.945349
1502	0	0.929495
1503	0	0.71894
1504	0	0.669454
1505	0	0.507425
1506	0	0.444496
1507	0	0.913196
1508	0	0.944262
1509	0	0.945349
1510	0	0.945349
1511	1	1
1512	1	1
1513	1	1
1514	1	1
1515	1	1
1516	1	1
1517	1	1
1518	1	1
1519	1	1
1520	1	1
1521	1	1
1522	1	1
1523	1	1
1524	0	0
1525	0	0
1526	0	0.729345
1527	0	0.516741
1528	0	0.414843
1529	0	0.493526
1530	0	0
1531	0	0.62521
1532	0	0.724743
1533	0	0.717838
1534	0	0.893076
1535	1	1
1536	1	1
1537	1	1
1538	1	1
1539	1	1
1540	1	1
1541	0	1
1542	1	1
1543	1	1
1544	1	1
1545	1	1
1546	1	1
1547	1	1
1548	1	1
1549	1	1
1550	0	0
1551	0	0.991968
1552	0	0.991968
1553	0	0.960358
1554	0	0.960358
1555	0	0.427746
1556	0	0.429444
1557	0	1
1558	0	0.805178
1559	0	0.798711
1560	0	0.798711
1561	0	0.798711
1562	0	0.798711
1563	0	0.704852
1564	0	0.711556
1565	0	0.717871
1566	0	0.717871
1567	0	0.716893
1568	0	0.70429
1569	0	1
1570	1	1
1571	1	1
1572	0	1
1573	0	0.95477
1574	0	1
1575	0	1
1576	0	1
1577	0	1
1578	0	1
1579	0	0.92928
1580	0	0.937084
1581	0	1
1582	1	1
1583	1	1
1584	1	1
1585	1	1
1586	1	1
1587	1	1
1588	1	1
1589	0	0
1590	0	0
1591	0	0.977778
1592	1	1
1593	0	0.977778
1594	1	1
1595	0	1
1596	1	1
1597	0	0.947387
1598	0	0.977011
1599	1	0
1600	1	0
1601	1	0
1602	1	0
1603	1	0
1604	1	0
1605	0	0
1606	0	0
1607	0	0.530546
1608	0	0
1609	1	1
1610	1	1
1611	1	1
1612	1	1
1613	1	1
1614	1	1
1615	1	1
1616	1	1
1617	1	1
1618	1	1
1619	1	1
1620	1	1
1621	1	1
1622	1	1
1623	1	1
1624	1	1
1625	1	1
1626	1	1
1627	0	0.992
1628	1	1
1629	1	1
1630	1	1
1631	1	1
1632	1	1
1633	1	1
1634	1	1
1635	1	1
1636	1	1
1637	1	1
1638	1	1
1639	0	0.575133
1640	0	0.575133
1641	0	0.383261
1642	1	1
1643	0	0.5
1644	0	1
1645	0	1
1646	1	1
1647	1	1
1648	1	1
1649	0	1
1650	1	1
1651	0	0.922594
1652	1	1
1653	1	1
1654	1	1
1655	1	1
1656	1	1
1657	0	0
1658	0	0
1659	0	0
1660	0	0
1661	0	0.975611
1662	0	1
1663	0	0.88415
1664	0	0.88415
1665	0	0.88415
1666	0	0.269006
1667	0	0.210526
1668	0	0.821258
1669	0	0.5
1670	0	0.5
1671	0	0.5
1672	0	0.5
1673	0	0.5
1674	0	0.436364
1675	0	0.802187
1676	0	0.611111
1677	0	0.794509
1678	0	0
1679	0	0
1680	0	0.81912
1681	0	0.333333
1682	0	0.856485
1683	0	0.85659
1684	0	1
1685	0	1
1686	0	1
1687	0	1
1688	0	1
1689	0	1
1690	0	1
1691	0	1
1692	0	1
1693	0	1
1694	0	1
1695	0	1
1696	0	0.4
1697	0	0.378788
1698	0	0.975242
1699	0	0.983472
1700	0	0.983806
1701	0	0.983806
1702	0	0.983806
1703	0	0.983806
1704	0	0
1705	0	0
1706	0	0
1707	0	0
1708	0	0
1709	0	0
1710	0	0
1711	0	0.975644
1712	0	0.935999
1713	0	0
1714	0	0
1715	0	0
1716	0	0
1717	0	0
1718	0	0
1719	0	0
1720	0	0
1721	0	0
1722	0	0
1723	0	0
1724	0	0
1725	0	0
1726	0	0.333333
1727	0	0.333333
1728	0	0
1729	0	0
1730	0	0
1731	0	0
1732	0	0
1733	0	0
1734	0	0
1735	0	0
1736	0	0
1737	0	0
1738	0	0
1739	0	0
1740	0	0.333333
1741	0	0.166667
1742	0	0
1743	0	0
1744	0	0
1745	0	0
1746	0	0
1747	0	0
1748	0	0
1749	0	0
1750	0	0
1751	0	0
1752	0	0
1753	0	0
1754	0	0
1755	0	0.0666667
1756	0	0
1757	0	0.9106
1758	0	0.909124
1759	0	0.698925
1760	0	0
1761	0	0
1762	0	0
1763	0	0
1764	0	0
1765	0	0
1766	0	0
1767	0	0
1768	0	0
1769	0	0
1770	0	0
1771	0	0
1772	0	0
1773	0	0
1774	0	0
1775	0	0
1776	0	0
1777	0	0
1778	0	0
1779	0	0.0357143
1780	0	0.0357143
1781	0	0.0357143
1782	0	0.047619
1783	0	0.047619
1784	0	0.047619
1785	0	0.047619
1786	0	0.047619
1787	0	0.047619
1788	0	0.0357143
1789	0	0.142857
1790	0	0.142857
1791	0	0.142857
1792	0	0.25
1793	0	0.535714
1794	0	0.535714
1795	0	0.535714
1796	0	0.583333
1797	0	0.777778
1798	0	0.777778
1799	0	0.777778
1800	0	0.777778
1801	0	0.8
1802	0	0.654545
1803	0	0.725275
1804	0	0.866667
1805	0	0.866667
1806	0	0.866667
1807	0	0.866667
1808	0	0.866667
1809	0	0.866667
1810	0	0.866667
1811	0	0.866667
1812	0	0.866667
1813	0	0.866667
1814	0	0.866667
1815	0	0.866667
1816	0	0.866667
1817	0	0.866667
1818	0	0.866667
1819	0	0.866667
1820	0	0.866667
1821	0	0.866667
1822	0	0.866667
1823	0	0.866667
1824	0	0.866667
1825	0	0.866667
1826	0	0.866667
1827	0	0.866667
1828	0	0.866667
1829	0	0.866667
1830	0	0.866667
1831	0	0.866667
1832	0	0.866667
1833	0	0.866667
1834	0	0.866667
1835	0	0.866667
1836	0	0.866667
1837	0	0.866667
1838	0	0.866667
1839	0	0.866667
1840	0	0.866667
1841	0	0.866667
1842	0	0.866667
1843	0	0.866667
1844	0	0.866667
1845	0	0.866667
1846	0	0.866667
1847	0	0.866667
1848	0	0.866667
1849	0	0.866667
1850	0	0.866667
1851	0	0.866667
1852	0	0.866667
1853	0	0.866667
1854	0	0.866667
1855	0	0.866667
1856	0	0.866667
1857	0	0.866667
1858	0	0.866667
1859	0	0.866667
1860	0	0.866667
1861	0	0.866667
1862	0	0.866667
1863	0	0.866667
1864	0	0.866667
1865	0	0.866667
1866	0	0.866667
1867	0	0.866667
1868	0	0.866667
1869	0	0.866667
1870	0	0.866667
1871	0	0.857143
1872	0	0.742857
1873	0	0.742857
1874	0	0.866667
1875	0	0.742857
1876	0	0.628571
1877	0	0.628571
1878	0	0.628571
1879	0	0.628571
1880	0	0.32381
1881	0	0.32381
1882	0	0.32381
1883	0	0.32381
1884	0	0.32381
1885	0	0.166667
1886	0	0.166667
1887	0	0.166667
1888	0	0.166667
1889	0	0.361905
1890	0	0.361905
1891	0	0.361905
1892	0	0.285714
1893	0	0.27619
1894	0	0.27619
1895	0	0.266667
1896	0	0.266667
1897	0	0.266667
1898	0	0.266667
1899	0	0.266667
1900	0	0.266667
1901	0	0.358974
1902	0	0.358974
1903	0	0.358974
1904	0	0.307692
1905	0	0.307692
1906	0	0.307692
1907	0	0.307692
1908	0	0.230769
1909	0	0.230769
1910	0	0.230769
1911	0	0.230769
1912	0	0.230769
1913	0	0.318182
1914	0	0.318182
1915	0	0.318182
1916	0	0.318182
1917	0	0.466667
1918	0	0.466667
1919	0	0.488889
1920	0	0.488889
1921	0	0.488889
1922	0	0.488889
1923	0	0.488889
1924	0	0.488889
1925	0	0.466667
1926	0	0.466667
1927	0	0.466667
1928	0	0.416667
1929	0	0.111111
1930	0	0.111111
1931	0	0.111111
1932	0	0.142857
1933	0	0.142857
1934	0	0.142857
1935	0	0.190476
1936	0	0.190476
1937	0	0.266667
1938	0	0.266667
1939	0	0.266667
1940	0	0.333333
1941	0	0.333333
1942	0	0.333333
1943	0	0.333333
1944	0	0.333333
1945	0	0.576923
1946	0	0.576923
1947	0	0.576923
1948	0	0.705128
1949	0	0.705128
1950	0	0.705128
1951	0	0.705128
1952	0	0.705128
1953	0	0.705128
1954	0	0.705128
1955	0	0.705128
1956	0	0.705128
1957	0	0.705128
1958	0	0.705128
1959	0	0.705128
1960	0	0.705128
1961	0	0.705128
1962	0	0.604396
1963	0	0.604396
1964	0	0.604396
1965	0	0.576923
1966	0	0.505495
1967	0	0.474359
1968	0	0.474359
1969	0	0.406593
1970	0	0.505495
1971	0	0.604396
1972	0	0.494505
1973	0	0.494505
1974	0	0.494505
1975	0	0.576923
1976	0	0.576923
1977	0	0.576923
1978	0	0.576923
1979	0	0.725275
1980	0	0.725275
1981	0	0.725275
1982	0	0.725275
1983	0	0.725275
1984	0	0.725275
1985	0	0.725275
1986	0	0.725275
1987	0	0.725275
1988	0	0.725275
1989	0	0.725275
1990	0	0.725275
1991	0	0.725275
1992	0	0.725275
1993	0	0.604396
1994	0	0.604396
1995	0	0.705128
1996	0	0.705128
1997	0	0.705128
1998	0	0.705128
1999	0	0.604396
2000	0	0.604396
2001	0	0.494505
2002	0	0.346154
2003	0	0.4
2004	0	0.363636
2005	0	0.576923
2006	0	0.576923
2007	0	0
2008	0	0.604396
2009	0	0.725275
2010	0	0.725275
2011	0	0.857143
2012	0	0.857143
2013	0	0.725275
2014	0	0.846154
2015	0	0.846154
2016	0	0.857143
2017	0	0.857143
2018	0	0.857143
2019	0	0.857143
2020	0	0.857143
2021	0	0.857143
2022	0	0.857143
2023	0	0.857143
2024	0	0.857143
2025	0	0.857143
2026	0	0.857143
2027	0	0.857143
2028	0	0.857143
2029	0	0.857143
2030	0	0.857143
2031	0	0.857143
2032	0	0.857143
2033	0	0.857143
2034	0	0.857143
2035	0	0.857143
2036	0	0.857143
2037	0	0.857143
2038	0	0.857143
2039	0	0.857143
2040	0	0.857143
2041	0	0.857143
2042	0	0.857143
2043	0	0.857143
2044	0	0.615385
2045	0	0.615385
2046	0	0.505495
2047	0	0.505495
2048	0	0.604396
2049	0	0.604396
2050	0	0.604396
2051	0	0
2052	0	0
2053	0	0
2054	0	0.333333
2055	0	0.857143
2056	0	0.857143
2057	0	0.857143
2058	0	0.857143
2059	0	0.857143
2060	0	0.857143
2061	0	0.857143
2062	0	0.857143
2063	0	0.857143
2064	0	0.857143
2065	0	0.857143
2066	0	0.857143
2067	0	0.857143
2068	0	0.857143
2069	0	0.666667
2070	0	0.373626
2071	0	0.725275
2072	0	0.846154
2073	0	0.5
2074	0	0.5
2075	0	0.637363
2076	1	1
2077	1	1
2078	1	1
2079	1	1
2080	1	1
2081	1	1
2082	1	1
2083	1	1
2084	1	1
2085	1	1
2086	1	1
2087	1	1
2088	1	1
2089	1	1
2090	1	1
2091	1	1
2092	1	1
2093	1	1
2094	1	1
2095	1	1
2096	1	1
2097	1	1
2098	1	1
2099	1	1
2100	1	1
2101	1	1
2102	1	1
2103	1	1
2104	1	1
2105	1	1
2106	1	1
2107	1	1
2108	0	0.857143
2109	0	0.846154
2110	0	0.846154
2111	0	0.846154
2112	0	0.5
2113	0	0.5
2114	0	0.590909
2115	0	0.590909
2116	0	0.590909
2117	0	0.590909
2118	1	1
2119	1	1
2120	1	1
2121	1	1
2122	1	1
2123	1	1
2124	1	1
2125	1	1
2126	1	1
2127	1	1
2128	1	1
2129	1	1
2130	1	1
2131	1	1
2132	1	1
2133	1	1
2134	0	1
2135	0	1
2136	0	1
2137	0	1
2138	0	1
2139	0	1
2140	0	1
2141	0	1
2142	0	1
2143	0	1
2144	0	1
2145	0	1
2146	0	0.857143
2147	0	0.857143
2148	0	0.857143
2149	0	0.857143
2150	0	0.857143
2151	0	0.857143
2152	0	0.857143
2153	0	0.857143
2154	0	0.833333
2155	0	0.725275
2156	0	0.576923
2157	0	0.576923
2158	0	0
2159	0	0
2160	0	0
2161	0	0
2162	0	0.833333
2163	0	0.846154
2164	0	0.857143
2165	0	0.857143
2166	0	0.857143
2167	0	0.857143
2168	0	0.857143
2169	0	0.857143
2170	0	0.857143
2171	0	0.857143
2172	0	0.857143
2173	0	0.857143
2174	0	0.857143
2175	0	0.857143
2176	0	0.857143
2177	0	0.857143
2178	0	0.857143
2179	0	0.857143
2180	0	0.857143
2181	0	0.857143
2182	0	0.857143
2183	0	0.857143
2184	0	0.857143
2185	0	0.857143
2186	0	0.857143
2187	0	0.857143
2188	0	0.857143
2189	0	0.857143
2190	0	0.857143
2191	0	0.857143
2192	0	0
2193	0	0
2194	0	0.857143
2195	1	1
2196	1	1
2197	1	1
2198	1	1
2199	1	1
2200	1	1
2201	1	1
2202	1	1
2203	1	1
2204	1	1
2205	1	1
2206	1	1
2207	1	1
2208	1	1
2209	1	1
2210	1	1
2211	1	1
2212	1	1
2213	1	1
2214	1	1
2215	1	1
2216	1	1
2217	1	1
2218	1	1
2219	1	1
2220	1	1
2221	1	1
2222	1	1
2223	1	1
2224	1	1
2225	1	1
2226	1	1
2227	1	1
2228	1	1
2229	1	1
2230	1	1
2231	1	1
2232	1	1
2233	1	1
2234	1	1
2235	1	1
2236	1	1
2237	1	1
2238	1	1
2239	1	1
2240	1	1
2241	1	1
2242	1	1
2243	1	1
2244	1	1
2245	1	1
2246	1	1
2247	1	1
2248	1	1
2249	1	1
2250	1	1
2251	1	1
2252	1	1
2253	1	1
2254	1	1
2255	1	1
2256	1	1
2257	1	1
2258	1	1
2259	1	1
2260	1	1
2261	1	1
2262	1	1
2263	1	1
2264	1	1
2265	1	1
2266	1	1
2267	1	1
2268	0	1
2269	0	1
2270	0	0.538462
2271	0	0.515152
2272	0	0.538462
2273	0	0.538462
2274	0	0.538462
2275	0	0.435897
2276	0	0.435897
2277	1	0
2278	0	0
2279	0	0
2280	0	0.5
2281	0	0.527473
2282	0	0.505495
2283	0	0.505495
2284	0	0.505495
2285	0	0.505495
2286	0	0.505495
2287	0	0.505495
2288	0	0.505495
2289	0	0.505495
2290	0	0.505495
2291	0	0.505495
2292	0	0.615385
2293	0	0.615385
2294	0	0.615385
2295	0	0.615385
2296	0	0.615385
2297	0	0.615385
2298	0	0.615385
2299	0	0.615385
2300	0	0.615385
2301	0	0.615385
2302	0	0.615385
2303	0	0.505495
2304	0	0.505495
2305	0	0.527473
2306	0	0.527473
2307	0	0.527473
2308	0	0.527473
2309	0	0.527473
2310	0	0.527473
2311	0	0.527473
2312	0	0.527473
2313	0	0.527473
2314	0	0.527473
2315	0	0.266667
2316	0	0.266667
2317	0	0.266667
2318	0	0.351648
2319	0	0.318681
2320	0	0.406593
2321	0	0.406593
2322	0	0.406593
2323	0	0.406593
2324	0	0.406593
2325	0	0.406593
2326	0	0.406593
2327	0	0.406593
2328	0	0.406593
2329	0	0.406593
2330	0	0.371795
2331	0	0.406593
2332	0	0.406593
2333	0	0.406593
2334	0	0.406593
2335	0	0.406593
2336	0	0.406593
2337	0	0.406593
2338	0	0.428571
2339	0	0.428571
2340	0	0
2341	0	0
2342	0	0
2343	0	0
2344	0	0.6
2345	0	0.4
2346	0	0.6
2347	0	0.461538
2348	0	0.461538
2349	0	0.461538
2350	0	0.461538
2351	0	0.428571
2352	0	0.527473
2353	0	0.615385
2354	0	0.615385
2355	0	0.615385
2356	0	0.615385
2357	0	0.615385
2358	0	0.615385
2359	0	0.615385
2360	0	0.615385
2361	0	0.615385
2362	0	0.615385
2363	0	0.615385
2364	0	0.615385
2365	0	0.615385
2366	0	0.615385
2367	0	0.615385
2368	0	0.615385
2369	0	0.615385
2370	0	0
2371	0	0
2372	0	0.604396
2373	0	0.527473
2374	0	0.444444
2375	0	0.472527
2376	0	0.637363
2377	1	1
2378	1	1
2379	1	1
2380	1	1
2381	1	1
2382	1	1
2383	1	1
2384	1	1
2385	1	1
2386	1	1
2387	1	1
2388	1	1
2389	1	1
2390	1	1
2391	1	1
2392	1	1
2393	1	1
2394	1	1
2395	1	1
2396	1	1
2397	1	1
2398	1	1
2399	1	1
2400	1	1
2401	1	1
2402	1	1
2403	1	1
2404	1	1
2405	1	1
2406	1	1
2407	1	1
2408	1	1
2409	1	1
2410	1	1
2411	1	1
2412	1	1
2413	1	1
2414	1	1
2415	1	1
2416	1	1
2417	1	1
2418	1	1
2419	1	1
2420	1	1
2421	1	1
2422	1	1
2423	1	1
2424	1	1
2425	1	1
2426	1	1
2427	1	1
2428	1	1
2429	1	1
2430	1	1
2431	1	1
2432	1	1
2433	1	1
2434	1	1
2435	1	1
2436	1	1
2437	1	1
2438	1	1
2439	1	1
2440	1	1
2441	1	1
2442	1	1
2443	1	1
2444	1	1
2445	1	1
2446	1	1
2447	1	1
2448	1	1
2449	1	1
2450	1	1
2451	1	1
2452	1	1
2453	1	1
2454	1	1
2455	1	1
2456	1	1
2457	1	1
2458	1	1
2459	1	1
2460	1	1
2461	1	1
2462	1	1
2463	1	1
2464	1	1
2465	1	1
2466	1	1
2467	1	1
2468	1	1
2469	1	1
2470	1	1
2471	1	1
2472	1	1
2473	1	1
2474	1	1
2475	1	1
2476	1	1
2477	1	1
2478	1	1
2479	1	1
2480	1	1
2481	1	1
2482	1	1
2483	1	1
2484	1	1
2485	1	1
2486	1	1
2487	1	1
2488	1	1
2489	1	1
2490	1	1
2491	1	1
2492	1	1
2493	1	1
2494	1	1
2495	1	1
2496	1	1
2497	1	1
2498	1	1
2499	1	1
2500	1	1
2501	1	1
2502	1	1
2503	1	1
2504	1	1
2505	1	1
2506	1	1
2507	1	1
2508	1	1
2509	1	1
2510	1	1
2511	1	1
2512	1	1
2513	1	1
2514	1	1
2515	1	1
2516	1	1
2517	1	1
2518	1	1
2519	1	1
2520	1	1
2521	1	1
2522	1	1
2523	1	1
2524	1	1
2525	1	1
2526	1	1
2527	1	1
2528	1	1
2529	1	1
2530	1	1
2531	1	1
2532	1	1
2533	1	1
2534	1	1
2535	1	1
2536	1	1
2537	1	1
2538	1	1
2539	1	1
2540	1	1
2541	1	1
2542	1	1
2543	1	1
2544	1	1
2545	1	1
2546	1	1
2547	1	1
2548	1	1
2549	1	1
2550	1	1
2551	1	1
2552	1	1
2553	1	1
2554	1	1
2555	1	1
2556	1	1
2557	1	1
2558	1	1
2559	1	1
2560	1	1
2561	1	1
2562	1	1
2563	1	1
2564	1	1
2565	1	1
2566	1	1
2567	1	1
2568	1	1
2569	1	1
2570	1	1
2571	1	1
2572	1	1
2573	1	1
2574	1	1
2575	1	1
2576	1	1
2577	1	1
2578	1	1
2579	1	1
2580	1	1
2581	1	1
2582	1	1
2583	1	1
2584	1	1
2585	1	1
2586	1	1
2587	1	1
2588	1	1
2589	1	1
2590	1	1
2591	1	1
2592	1	1
2593	1	1
2594	1	1
2595	1	1
2596	1	1
2597	1	1
2598	1	1
2599	1	1
2600	1	1
2601	1	1
2602	1	1
2603	1	1
2604	1	1
2605	1	1
2606	1	1
2607	1	1
2608	1	1
2609	1	1
2610	0	0
2611	0	0
2612	0	0.857143
2613	0	0.857143
2614	0	0.857143
2615	1	1
2616	1	1
2617	1	1
2618	1	1
2619	1	1
2620	1	1
2621	1	1
2622	1	1
2623	1	1
2624	1	1
2625	1	1
2626	1	1
2627	1	1
2628	1	1
2629	1	1
2630	1	1
2631	1	1
2632	1	1
2633	1	1
2634	1	1
2635	1	1
2636	1	1
2637	1	1
2638	1	1
2639	1	1
2640	1	1
2641	1	1
2642	0	0
2643	0	0
2644	0	0
2645	0	0
2646	0	0.857143
2647	0	0.857143
2648	0	0.857143
2649	0	0.857143
2650	0	0.857143
2651	0	0.857143
2652	0	0.857143
2653	0	0.857143
2654	0	0.857143
2655	0	0.857143
2656	0	0.857143
2657	0	0.857143
2658	0	0.857143
2659	0	0.857143
2660	0	0.857143
2661	0	0.857143
2662	0	0.857143
2663	0	0.857143
2664	0	0.857143
2665	0	0.818182
2666	0	0.818182
2667	0	0.8
2668	0	1
2669	0	1
2670	0	1
2671	0	1
2672	1	1
2673	1	1
