Site	ColumnScore	SumOfPairsScore
1	1	0
2	1	0
3	1	0
4	1	0
5	1	0
6	1	0
7	1	0
8	1	0
9	1	0
10	1	0
11	1	0
12	1	0
13	1	0
14	1	0
15	1	0
16	1	0
17	1	0
18	1	0
19	1	0
20	1	0
21	1	0
22	1	0
23	0	0
24	0	0
25	0	0
26	0	0
27	0	0
28	0	0
29	0	0
30	0	0
31	0	0
32	0	0
33	0	0
34	0	0
35	0	0
36	1	0
37	1	0
38	0	0
39	0	0
40	0	0
41	0	0
42	0	0
43	0	0
44	0	0
45	0	0
46	0	0
47	0	0
48	0	0
49	0	0
50	0	0
51	0	0
52	0	0
53	0	0
54	0	0
55	0	0
56	0	0
57	0	0
58	0	0
59	0	0
60	0	0
61	0	0
62	0	0
63	1	0
64	1	0
65	0	0
66	0	0
67	0	0
68	0	0
69	0	0
70	0	0
71	0	0
72	0	0
73	0	0
74	0	0
75	0	0
76	0	0
77	0	0
78	0	0
79	0	0
80	0	0
81	0	0
82	0	0
83	0	0
84	0	0
85	0	0
86	0	0
87	0	0
88	0	0
89	0	0
90	0	0
91	0	0
92	0	0
93	0	0
94	0	0
95	0	0
96	0	0
97	0	0
98	0	0
99	0	0
100	0	0
101	0	0
102	0	0
103	0	0.1
104	0	0.0666667
105	0	0
106	0	0
107	0	0
108	0	0
109	0	0
110	0	0.0666667
111	0	0.0666667
112	0	0.0666667
113	0	0.0666667
114	0	0
115	0	0
116	0	0
117	0	0
118	0	0.0666667
119	0	0.0666667
120	0	0.0666667
121	0	0.0666667
122	0	0.0666667
123	0	0.0666667
124	0	0.0666667
125	0	0.0666667
126	0	0.0666667
127	0	0.2
128	0	0.2
129	0	0.2
130	1	1
131	1	1
132	1	1
133	1	1
134	1	1
135	1	1
136	1	1
137	1	1
138	1	1
139	1	1
140	1	1
141	1	1
142	1	1
143	1	1
144	1	1
145	1	1
146	1	1
147	0	0.990521
148	0	0.991667
149	0	0.991667
150	0	0.983505
151	0	0.98364
152	0	0.98364
153	0	0.98364
154	0	0.98364
155	0	0.983707
156	0	0.975709
157	0	0.975709
158	0	0.975709
159	0	0.967679
160	0	0.967679
161	0	1
162	0	0.333333
163	0	0.333333
164	0	0.166667
165	0	0.133333
166	0	0.181818
167	0	0.142857
168	0	0.855858
169	0	0.486166
170	0	0.486166
171	0	0.717012
172	0	0.717082
173	0	0.705438
174	0	0
175	0	0
176	0	0
177	0	0
178	0	0
179	0	0.357143
180	0	0.574359
181	0	0.541026
182	0	0.537179
183	0	0.537179
184	0	0.464387
185	0	0.464387
186	0	0.65812
187	0	0.485294
188	0	0.225
189	0	0.22
190	0	0.242754
191	0	0.264822
192	0	0.333333
193	0	0
194	0	0
195	0	0
196	0	0
197	0	0
198	0	0
199	0	0
200	0	0.166667
201	0	0.166667
202	0	0.333333
203	0	0.333333
204	0	0.333333
205	0	0.333333
206	0	0.333333
207	0	1
208	0	0.5
209	0	0.1
210	0	0.0666667
211	0	0.047619
212	0	0.308333
213	0	0.356712
214	0	0.317376
215	0	0.304962
216	0	0.211203
217	0	0
218	0	0
219	0	0
220	0	0.333333
221	0	0.333333
222	0	0.333333
223	0	0.333333
224	0	0.333333
225	0	0.333333
226	0	0
227	0	0
228	0	0
229	0	0.2
230	0	0.166598
231	0	0.157642
232	0	0.139903
233	0	0.119467
234	0	0.114419
235	0	0.0931724
236	0	0
237	0	0
238	0	0
239	0	0
240	0	0
241	0	0
242	0	0
243	0	0
244	0	0
245	0	0.0859258
246	0	0.0962856
247	0	0.183824
248	0	0.191176
249	0	0.181287
250	0	0.100449
251	0	0.108634
252	0	0.121212
253	0	0.0757576
254	0	0.102564
255	0	0.10989
256	0	0.0952381
257	0	0.12253
258	0	0.112319
259	0	0.100529
260	0	0.111111
261	0	0.152688
262	0	0.128571
263	0	0.107258
264	0	0.104956
265	0	0.114454
266	0	0.148338
267	0	0.175291
268	0	0.14807
269	0	0.141762
270	0	0.135593
271	0	0.129184
272	0	0.125762
273	0	0.158371
274	0	0.129713
275	0	0.150245
276	0	0.203905
277	0	0.206017
278	0	0.221646
279	0	0.333333
280	0	1
281	0	1
282	0	1
283	0	1
284	0	0.251888
285	0	0.307332
286	0	0.499826
287	0	0.559085
288	0	0
289	0	0
290	0	0
291	0	0.166667
292	0	0.133333
293	0	0.133333
294	0	0.0952381
295	0	0.0952381
296	0	0.142857
297	0	0.178571
298	0	0.321429
299	0	0.321429
300	0	0.321429
301	0	1
302	0	1
303	0	0.5
304	0	0.5
305	0	0.5
306	0	1
307	0	0.6
308	0	0.6
309	0	0.909091
310	0	0.878314
311	0	0.878314
312	0	0.878314
313	0	0
314	0	0
315	0	0
316	0	1
317	1	1
318	1	1
319	1	1
320	1	1
321	1	1
322	1	1
323	1	1
324	1	1
325	1	1
326	1	1
327	1	1
328	1	1
329	1	1
330	1	1
331	1	1
332	1	1
333	1	1
334	1	1
335	1	1
336	1	1
337	1	1
338	1	1
339	1	1
340	1	1
341	1	1
342	1	1
343	1	1
344	1	1
345	1	1
346	1	1
347	1	1
348	1	1
349	1	1
350	1	1
351	1	1
352	1	1
353	1	1
354	1	1
355	1	1
356	1	1
357	1	1
358	1	1
359	1	1
360	1	1
361	1	1
362	1	1
363	1	1
364	1	1
365	1	1
366	1	1
367	1	1
368	1	1
369	1	1
370	1	1
371	1	1
372	1	1
373	1	1
374	1	1
375	1	1
376	1	1
377	1	1
378	1	1
379	1	1
380	0	0.984001
381	0	0
382	1	1
383	1	1
384	1	1
385	1	1
386	1	1
387	1	1
388	1	1
389	1	1
390	1	1
391	1	1
392	1	1
393	1	1
394	1	1
395	1	1
396	1	1
397	1	1
398	1	1
399	1	1
400	1	1
401	1	1
402	1	1
403	1	1
404	1	1
405	1	1
406	1	1
407	1	1
408	1	1
409	1	1
410	1	1
411	1	1
412	1	1
413	1	1
414	1	1
415	1	1
416	1	1
417	1	1
418	1	1
419	1	1
420	1	1
421	1	1
422	1	1
423	1	1
424	1	1
425	1	1
426	1	1
427	1	1
428	1	1
429	1	1
430	1	1
431	1	1
432	1	1
433	1	1
434	1	1
435	1	1
436	1	1
437	1	1
438	1	1
439	1	1
440	1	1
441	1	1
442	1	1
443	1	1
444	1	1
445	1	1
446	1	1
447	1	1
448	1	1
449	0	0
450	0	0
451	0	0
452	0	0
453	0	0
454	0	0
455	0	0
456	0	0
457	0	0.992
458	0	0.992
459	0	0.992
460	0	0.992
461	0	0.992
462	0	0.992
463	0	0.984064
464	0	0.984064
465	0	0.952707
466	0	0.952707
467	0	0.9449
468	0	1
469	0	0.333333
470	0	0.944115
471	0	0.814994
472	0	0.45687
473	0	0.79829
474	0	0.802699
475	0	0.1
476	0	0.516167
477	0	1
478	0	0.333333
479	0	0
480	0	0
481	0	0.313092
482	0	0.293847
483	0	0.322088
484	0	0
485	0	0
486	0	0.480988
487	0	0.480988
488	0	0.6
489	0	0.959556
490	0	0.976129
491	0	0.976129
492	0	0.976129
493	0	0.976129
494	0	0
495	0	0
496	0	0
497	0	0
498	0	0
499	0	0
500	0	0
501	0	0
502	0	0
503	0	0
504	0	0
505	0	0
506	0	0
507	0	0
508	0	0.944115
509	0	0.893136
510	0	0.470857
511	0	0.462408
512	0	0.401929
513	0	0.401929
514	0	0.405965
515	0	0.402003
516	0	0
517	0	0
518	0	0
519	0	0
520	0	0
521	0	0
522	0	0.37054
523	0	0.357344
524	0	1
525	0	0.6
526	0	0.343324
527	0	0.381111
528	0	0.275122
529	0	0.142857
530	0	0.142857
531	0	0.142857
532	0	0.705961
533	0	0.582237
534	0	0.327394
535	0	0.260793
536	0	0.314336
537	0	0
538	0	0
539	0	0
540	0	0
541	0	0
542	0	0
543	0	0
544	0	0
545	0	0
546	0	0
547	0	0.37619
548	0	0.259448
549	0	0.278109
550	0	0.282476
551	0	0.166667
552	0	0.166667
553	0	0.28767
554	0	0.286007
555	0	0.286196
556	0	0.28594
557	0	0.285463
558	0	0.289848
559	0	0.359684
560	0	0.461538
561	0	0
562	0	0
563	0	0
564	0	0
565	0	0
566	0	0
567	0	0.437083
568	0	0.391773
569	0	0
570	0	0
571	0	0.341728
572	0	0.471773
573	0	0.488529
574	0	0
575	0	0
576	0	0
577	0	0
578	0	0
579	0	0
580	0	0
581	0	0
582	0	0
583	0	0
584	0	0
585	0	1
586	0	1
587	0	1
588	0	1
589	0	1
590	0	1
591	1	1
592	1	1
593	1	1
594	1	1
595	1	1
596	1	1
597	1	1
598	1	1
599	1	1
600	1	1
601	1	1
602	0	1
603	0	1
604	0	1
605	0	1
606	0	1
607	0	1
608	0	1
609	0	1
610	0	1
611	0	1
612	0	1
613	0	1
614	0	1
615	0	1
616	0	1
617	0	1
618	0	1
619	0	1
620	0	1
621	0	1
622	0	1
623	0	1
624	0	1
625	1	1
626	1	1
627	1	1
628	1	1
629	1	1
630	0	1
631	0	0.992
632	0	0.992
633	0	0.992
634	0	0.992
635	0	0.992
636	0	0.992
637	0	0.992
638	0	0.992
639	0	0.992
640	0	0.992
641	0	0.992
642	0	0.992
643	0	0.992
644	0	0.992
645	0	0.992
646	0	0.992
647	0	0.992
648	1	0
649	1	0
650	1	0
651	1	0
652	1	1
653	0	0.992
654	0	0.992
655	0	0.992
656	0	0.96826
657	0	0.96826
658	0	1
659	0	1
660	0	1
661	0	1
662	0	0.97584
663	0	0.960293
664	0	0.959489
665	0	0.525973
666	0	0.458111
667	0	0.788796
668	0	0.448388
669	0	0.364243
670	0	0.360366
671	0	1
672	0	1
673	0	1
674	0	1
675	0	1
676	0	1
677	0	1
678	0	0.352381
679	0	0.352381
680	0	0.255411
681	0	0.280952
682	0	0.224638
683	0	0.193846
684	0	0.179487
685	0	0.151261
686	0	0.350868
687	0	0.337578
688	0	0.199862
689	0	0.298462
690	0	0.301538
691	0	0.298462
692	0	0.221542
693	0	0.218991
694	0	0.218107
695	0	0.214017
696	0	0.201858
697	0	0.230747
698	0	0.230435
699	0	0.238984
700	0	0.17367
701	0	0.173441
702	0	0.206736
703	0	0.326437
704	0	0.427692
705	0	0.484211
706	0	0
707	0	0
708	0	0
709	0	0
710	0	0.134058
711	0	0
712	0	0
713	0	0
714	0	0
715	0	0
716	0	0
717	0	0.180562
718	0	0.212412
719	0	0.149247
720	0	0.145601
721	0	0.137036
722	0	0
723	0	0
724	0	0
725	0	0
726	0	0.333333
727	0	0.2
728	0	0.177778
729	0	0.153846
730	0	0.108225
731	0	0.0837438
732	0	0.121564
733	0	0.0845865
734	0	0.071554
735	0	0.078141
736	0	0.0765277
737	0	0.0843023
738	0	0.0722055
739	0	0.0695084
740	0	0.0671616
741	0	0.0661765
742	0	0.0565391
743	0	0.0614194
744	0	0.168421
745	0	0.181287
746	0	0.157895
747	0	0.122807
748	0	0.104592
749	0	0.118393
750	0	0.128205
751	0	0.126856
752	0	0.151515
753	0	0.321429
754	0	0.6
755	0	0.6
756	0	0.6
757	0	0.6
758	0	0.6
759	0	0.6
760	0	0.6
761	0	0.6
762	0	0.333333
763	0	0.0781266
764	0	0.088253
765	0	0.0897068
766	0	0.0863029
767	0	0.100167
768	0	0.100102
769	0	0.307255
770	0	0.276248
771	0	0.164683
772	0	0.410714
773	0	0.430556
774	0	0.407738
775	0	0.611111
776	0	0.611607
777	0	0.406065
778	0	0.111111
779	0	0.25
780	0	0.25
781	0	0.52381
782	0	0.52381
783	0	0.460181
784	0	0.48696
785	0	0.470886
786	0	0.470886
787	0	0.457706
788	0	0.333333
789	0	0.333333
790	0	0.333333
791	0	0
792	0	0
793	0	0
794	0	0
795	0	0
796	0	0
797	0	0.324471
798	0	0.203077
799	0	0.150769
800	0	0.0952381
801	0	0.0925926
802	0	0.160343
803	0	0.313725
804	0	0.175875
805	0	0.190191
806	0	0.227876
807	0	0.213125
808	0	0
809	0	0
810	0	0.205058
811	0	0.238898
812	0	0.0987103
813	0	0.117347
814	0	0.175676
815	0	0.121212
816	0	0.158333
817	0	0.0888889
818	0	0.142857
819	0	0.333333
820	0	1
821	0	1
822	0	0.569891
823	0	0.569891
824	0	0.57431
825	0	0.57431
826	0	0.610673
827	0	0.610706
828	0	0.5
829	0	0.5
830	0	0.3
831	0	0.625174
832	0	0.935143
833	0	0.935143
834	0	0.935143
835	0	0.935143
836	0	0.872972
837	0	0.767881
838	0	0
839	0	0.333333
840	0	1
841	0	1
842	0	0.52381
843	0	0.269231
844	0	0.276667
845	0	0.238095
846	0	0.344275
847	0	0.236052
848	0	0.234584
849	0	0.20427
850	0	0.296703
851	0	0.285714
852	0	0.190476
853	0	0.0952381
854	0	0.0833333
855	0	0.0641026
856	0	0.0915033
857	0	0.224138
858	0	0.180994
859	0	0.397661
860	0	0.363158
861	0	0.462069
862	0	0.271098
863	0	0.205099
864	0	0.197158
865	0	0.210422
866	0	0.5
867	0	0
868	0	0
869	0	0
870	0	0
871	0	0
872	0	0
873	0	0.218136
874	0	0.225062
875	0	0.209662
876	0	0.227053
877	0	0.18546
878	0	0.205628
879	0	0.182019
880	0	0.136516
881	0	0.180039
882	0	0.0809524
883	0	0.0666667
884	0	0.0897436
885	0	0.030303
886	0	0.047619
887	0	0
888	0	0
889	0	0
890	0	0
891	0	0
892	0	0
893	0	0.238175
894	0	0
895	0	0
896	0	0
897	0	0
898	0	0
899	0	0
900	0	0
901	0	0
902	0	0
903	0	0.290043
904	0	0.456155
905	0	0.12381
906	0	0.329633
907	0	0.330705
908	0	0.329011
909	0	0.331172
910	0	0.326743
911	0	0.2
912	0	0.2
913	0	0.2
914	0	0.142857
915	0	0.0888889
916	0	0.226768
917	0	0.167816
918	0	0.139113
919	0	0.196753
920	0	0.144379
921	0	0.141295
922	0	0.171006
923	0	0.158745
924	0	0.192896
925	0	0.197345
926	0	0.192653
927	0	0.180274
928	0	0.149559
929	0	0.150162
930	0	0.148107
931	0	0.025641
932	0	0.025641
933	0	0.025641
934	0	0.030303
935	0	0.032967
936	0	0.021978
937	0	0.032967
938	0	0.200079
939	0	0.224235
940	0	0.111111
941	0	0.0957447
942	0	0.0906568
943	0	0.0999075
944	0	0.0791837
945	0	0.167965
946	0	0.199645
947	0	0.19576
948	0	0.195871
949	0	0.195501
950	0	0.201986
951	0	0
952	0	0
953	0	0
954	0	0
955	0	0
956	0	0
957	0	0.116883
958	0	0.0833333
959	0	0.118577
960	0	0
961	0	0.103896
962	0	0.0952381
963	0	0.0888889
964	0	0.111111
965	0	0.047619
966	0	0.0714286
967	0	0.0714286
968	0	0.0666667
969	0	0.0666667
970	0	0.0666667
971	0	0.0666667
972	0	0.0666667
973	0	0
974	0	0
975	0	0
976	0	0
977	0	0
978	0	0
979	0	0
980	0	0.107143
981	0	0.0833333
982	0	0.0857143
983	0	0.0923077
984	0	0.122507
985	0	0.122507
986	0	0.122507
987	0	0.120513
988	0	0.397717
989	0	0.386616
990	0	0.392961
991	0	0.398344
992	0	0.251082
993	0	0.251534
994	0	0.251195
995	0	0.251045
996	0	0
997	0	0
998	0	0
999	0	0
1000	0	0
1001	0	0
1002	0	0
1003	0	0
1004	0	0
1005	0	0
1006	0	0
1007	0	0
1008	0	0
1009	0	0
1010	0	0
1011	0	0
1012	0	0
1013	0	0
1014	0	0
1015	0	0
1016	0	0
1017	0	0
1018	0	0
1019	0	0
1020	0	0
1021	0	0
1022	0	0
1023	0	0
1024	0	0
1025	0	0
1026	0	0
1027	0	0
1028	0	0
1029	0	0
1030	0	0
1031	0	0
1032	0	0
1033	0	0
1034	0	0
1035	0	0
1036	0	0
1037	0	0
1038	0	0
1039	0	0
1040	0	0.0826211
1041	0	0.386002
1042	0	0.0666667
1043	0	0
1044	0	0
1045	0	0.321068
1046	0	0
1047	0	0
1048	0	0
1049	0	0
1050	0	0
1051	0	0
1052	0	0
1053	0	0
1054	0	0
1055	0	0
1056	0	0
1057	0	0
1058	0	0
1059	0	0
1060	0	0
1061	0	0
1062	0	0
1063	0	0
1064	0	0
1065	0	0
1066	0	0
1067	0	0
1068	0	0
1069	0	0
1070	0	0
1071	0	0
1072	0	0
1073	0	0.316408
1074	0	0.287443
1075	0	0.284532
1076	0	0.288248
1077	0	1
1078	0	0
1079	0	0
1080	0	0
1081	0	0
1082	0	0
1083	0	0
1084	0	0
1085	0	0
1086	0	0
1087	0	0
1088	0	0
1089	0	0.0357143
1090	0	0.312149
1091	0	0.262791
1092	0	0.0249554
1093	0	0.0249554
1094	0	0.0249554
1095	0	0.0285205
1096	0	0.0268908
1097	0	0.199643
1098	0	0.194655
1099	0	0.194655
1100	0	0.197516
1101	0	0.164502
1102	0	0.165521
1103	0	0.165407
1104	0	0.165977
1105	0	0.0666667
1106	0	0.0666667
1107	0	0.0666667
1108	0	0.0666667
1109	0	0.0666667
1110	0	0.0666667
1111	0	0.104762
1112	0	0.104762
1113	0	0.0916667
1114	0	0.0583333
1115	0	0.0522876
1116	0	0.052381
1117	0	0.052381
1118	0	0.052381
1119	0	0.0507246
1120	0	0.0507246
1121	0	0.0466667
1122	0	0.0529101
1123	0	0.0492611
1124	0	0.0473118
1125	0	0.0625
1126	0	0.0469417
1127	0	0.0391121
1128	0	0.0310734
1129	0	0.0765413
1130	0	0.0696587
1131	0	0.0666549
1132	0	0.130577
1133	0	0.146697
1134	0	0.143005
1135	0	0.175442
1136	0	0.175442
1137	0	0.151995
1138	0	0.114695
1139	0	0.114269
1140	0	0.125049
1141	0	0.125388
1142	0	0.0629666
1143	0	0.0590717
1144	0	0.053554
1145	0	0.0478056
1146	0	0.0472832
1147	0	0.0650104
1148	0	0.0831202
1149	0	0.084472
1150	0	0.0630861
1151	0	0.0419336
1152	0	0.0392157
1153	0	0.0392157
1154	0	0.0444661
1155	0	0.0382993
1156	0	0.0379747
1157	0	0.0398148
1158	0	0.0415671
1159	0	0.0377488
1160	0	0.047619
1161	0	0.0523232
1162	0	0.0813262
1163	0	0.0798379
1164	0	0.0623418
1165	0	0.0543293
1166	0	0.0533247
1167	0	0.056725
1168	0	0.0584642
1169	0	0.0575371
1170	0	0.0586387
1171	0	0.0590245
1172	0	0.0614111
1173	0	0.0610701
1174	0	0.0719953
1175	0	0.0782669
1176	0	0.0873469
1177	0	0.0333333
1178	0	0.0474308
1179	0	0.0441176
1180	0	0.0333333
1181	0	0.0333333
1182	0	0.0190476
1183	0	0.021978
1184	0	0.0151515
1185	0	0.0222222
1186	0	0.0222222
1187	0	0.0222222
1188	0	0.0222222
1189	0	0.0222222
1190	0	0.0222222
1191	0	0.0222222
1192	0	0.0222222
1193	0	0.0277778
1194	0	0.0357143
1195	0	0.0357143
1196	0	0.0357143
1197	0	0.0357143
1198	0	0.047619
1199	0	0.047619
1200	0	0.047619
1201	0	0.047619
1202	0	0.047619
1203	0	0.047619
1204	0	0.047619
1205	0	0.047619
1206	0	0.047619
1207	0	0
1208	0	0
1209	0	0
1210	0	0
1211	0	0
1212	0	0
1213	0	0
1214	0	0
1215	0	0
1216	0	0
1217	0	0
1218	0	0
1219	0	0
1220	0	0
1221	0	0
1222	0	0
1223	0	0
1224	0	0
1225	0	0
1226	0	0
1227	0	0
1228	0	0
1229	0	0
1230	0	0
1231	0	0
1232	0	0
1233	0	0
1234	0	0
1235	0	0
1236	0	0
1237	0	0
1238	0	0
1239	0	0
1240	0	0
1241	0	0
1242	0	0
1243	0	0
1244	0	0
1245	0	0
1246	0	0
1247	0	0
1248	0	0
1249	0	0
1250	0	0
1251	0	0
1252	0	0
1253	0	0
1254	0	0
1255	0	0
1256	0	0
1257	0	0
1258	0	0
1259	0	0
1260	0	0
1261	0	0
1262	0	0
1263	0	0
1264	0	0
1265	0	0
1266	0	0
1267	0	0
1268	0	0
1269	0	0
1270	0	0
1271	0	0
1272	0	0
1273	0	0
1274	0	0
1275	0	0
1276	0	0
1277	0	0
1278	0	0
1279	0	0
1280	0	0
1281	0	0
1282	0	0
1283	0	0
1284	0	0
1285	0	0
1286	0	0
1287	0	0
1288	0	0
1289	0	0
1290	0	0
1291	0	0
1292	0	0
1293	0	0
1294	0	0
1295	0	0
1296	0	0
1297	0	0
1298	0	0
1299	0	0
1300	0	0
1301	0	0
1302	0	0
1303	0	0
1304	0	0
1305	0	0
1306	0	0
1307	0	0
1308	0	0
1309	0	0
1310	0	0
1311	0	0
1312	0	0
1313	0	0
1314	0	0
1315	0	0
1316	0	0
1317	0	0
1318	0	0
1319	0	0
1320	0	0
1321	0	0
1322	0	0
1323	0	0
1324	0	0
1325	0	0
1326	0	0
1327	0	0
1328	0	0
1329	0	0
1330	0	0
1331	0	0
1332	0	0
1333	0	0
1334	0	0
1335	0	0
1336	0	0
1337	0	0
1338	0	0
1339	0	0
1340	0	0
1341	0	0
1342	0	0
1343	0	0
1344	0	0
1345	0	0
1346	0	0
1347	0	0
1348	0	0
1349	0	0
1350	0	0
1351	0	0
1352	0	0
1353	0	0
1354	0	0
1355	0	0
1356	0	0
1357	0	0
1358	0	0
1359	0	0
1360	0	0
1361	0	0
1362	0	0
1363	0	0
1364	0	0
1365	0	0
1366	0	0
1367	0	0
1368	0	0
1369	0	0
1370	0	0
1371	0	0
1372	0	0
1373	0	0
1374	1	0
1375	1	0
1376	1	0
1377	1	0
1378	1	0
1379	1	0
1380	1	0
1381	1	0
1382	1	0
1383	1	0
1384	1	0
1385	1	0
1386	1	0
1387	1	0
1388	1	0
1389	1	0
1390	1	0
1391	1	0
1392	1	0
1393	1	0
1394	1	0
1395	1	0
1396	1	0
1397	1	0
1398	1	0
1399	1	0
1400	1	0
1401	1	0
1402	1	0
1403	1	0
1404	1	0
1405	1	0
1406	1	0
1407	1	0
1408	1	0
1409	1	0
1410	1	0
1411	1	0
1412	1	0
1413	1	0
1414	1	0
1415	1	0
1416	1	0
1417	1	0
1418	1	0
1419	1	0
1420	1	0
1421	1	0
1422	1	0
1423	1	0
1424	1	0
1425	1	0
1426	1	0
1427	1	0
1428	1	0
1429	1	0
1430	1	0
1431	1	0
1432	1	0
1433	1	0
1434	1	0
1435	1	0
1436	1	0
1437	1	0
1438	1	0
1439	1	0
1440	1	0
