Site	ColumnScore	SumOfPairsScore
1	1	0
2	1	0
3	1	0
4	1	0
5	1	0
6	1	0
7	1	0
8	1	0
9	1	0
10	0	0
11	0	0.468552
12	0	0.485504
13	0	0.677415
14	0	0.853056
15	0	0.922516
16	0	0.943458
17	0	0.972521
18	0	0.976033
19	0	0.991903
20	0	0.991903
21	0	0.991903
22	0	0.991968
23	0	0.991968
24	0	0.991968
25	0	0.991968
26	0	1
27	0	0.813829
28	0	0.775489
29	0	1
30	0	0.503883
31	0	0.166667
32	0	0.333333
33	0	0.65907
34	0	0.67964
35	0	0.791498
36	0	0.84808
37	0	0.839591
38	0	0.673115
39	0	0.880952
40	1	1
41	1	1
42	0	0.563504
43	0	0.714286
44	0	0.854839
45	0	0.428571
46	0	0.320261
47	0	0.640436
48	0	0.631261
49	0	0.269231
50	0	0.671008
51	0	0.492907
52	0	0.491886
53	0	0.524307
54	0	0.571429
55	0	0.571429
56	0	0.444444
57	0	0.4
58	0	0.241667
59	0	0.229313
60	0	0.220907
61	0	0.222114
62	0	0.170191
63	0	0.14172
64	0	0.139277
65	0	0.164799
66	0	0.160399
67	0	0
68	0	1
69	0	1
70	0	0.672727
71	0	0.489429
72	0	0.36476
73	0	0.380772
74	0	0.686094
75	0	0
76	0	0.678502
77	0	0.68613
78	0	0.68613
79	0	0.652128
80	0	1
81	0	0.542413
82	0	0.433549
83	0	0.591513
84	0	0.591513
85	0	0.616643
86	0	0.700938
87	0	0.720063
88	0	0.714185
89	0	0.714185
90	0	0.714185
91	0	0.5
92	0	0.775201
93	0	0.763319
94	0	0.748884
95	0	0.750349
96	0	1
97	0	1
98	0	0.333333
99	0	0.333333
100	0	0.333333
101	0	0.333333
102	0	0.484358
103	0	0.285714
104	0	0.214286
105	0	0.1
106	0	0.333333
107	0	0.333333
108	0	0.333333
109	0	0.819706
110	0	1
111	1	1
112	1	1
113	1	1
114	1	1
115	1	1
116	0	0
117	0	0.333333
118	0	0.96797
119	0	0.96797
120	0	0.96797
121	0	0.960037
122	0	0.883864
123	0	0.832212
124	0	0.722568
125	0	0.281405
126	0	0.32048
127	0	0.318427
128	0	0.53099
129	0	0.535991
130	0	0
131	0	0
132	0	0.195279
133	0	0.183786
134	0	0.405936
135	0	0.370061
136	0	0.424796
137	0	0.424796
138	0	0.43529
139	0	0.407144
140	0	0.404327
141	0	0.426674
142	0	0.425297
143	0	0.405155
144	0	0.396867
145	0	0.437338
146	0	0
147	0	0
148	0	0.601032
149	0	0.766508
150	0	0.45743
151	0	0.387024
152	0	0.425638
153	0	0.465151
154	0	0.465151
155	0	1
156	0	1
157	1	1
158	1	1
159	1	1
160	1	1
161	1	1
162	1	1
163	1	1
164	1	1
165	1	1
166	1	1
167	1	1
168	0	1
169	0	0.974287
170	0	0.965853
171	0	0.834139
172	0	0.798061
173	0	0.696715
174	0	0.655318
175	0	1
176	0	0.5
177	0	0.671872
178	0	0.361283
179	0	0.34814
180	0	0.24286
181	0	1
182	0	1
183	1	1
184	1	1
185	1	1
186	1	1
187	1	1
188	1	1
189	1	1
190	1	1
191	1	1
192	1	1
193	1	1
194	0	0.5
195	0	0.5
196	0	1
197	0	0.466667
198	0	0.22381
199	0	0.797172
200	0	1
201	1	1
202	1	1
203	0	0.976098
204	0	0.991968
205	0	0.991968
206	0	0.991968
207	1	1
208	1	1
209	0	1
210	0	0.952592
211	0	0.944724
212	0	0.944724
213	0	0.848655
214	0	0.875323
215	0	0.583169
216	0	1
217	0	0.805997
218	0	0.991701
219	0	0.991837
220	0	0.991837
221	1	1
222	1	1
223	0	1
224	1	1
225	1	1
226	1	1
227	1	1
228	0	1
229	0	1
230	0	0.987421
231	0	1
232	0	0.526218
233	0	0.532938
234	0	0.418578
235	0	0.419905
236	0	0.390757
237	0	0.31565
238	0	0.355033
239	0	0.466667
240	0	0.615385
241	0	0.615385
242	0	0.905671
243	0	0.95429
244	0	0.448175
245	0	0.527473
246	0	0.309104
247	0	0.302033
248	0	0.403333
249	0	0.211949
250	0	0.295992
251	0	0.336672
252	0	0.327771
253	0	0.316241
254	0	0.282271
255	0	0.205746
256	0	0.25
257	0	0.325397
258	0	0.513121
259	0	0.822693
260	0	0.976193
261	1	1
262	1	1
263	1	1
264	1	1
265	1	1
266	1	1
267	1	1
268	0	0.992
269	0	0.992
270	0	0.991968
271	0	0.984032
272	0	0.976129
273	0	0.984064
274	0	0.984032
275	0	0.680656
276	0	1
277	0	0.548364
278	0	0.86742
279	0	0.884547
280	0	0.571682
281	0	0.484402
282	0	0.650956
283	0	1
284	1	1
285	1	1
286	1	1
287	1	1
288	1	1
289	1	1
290	1	1
291	0	0.952964
292	1	0
293	0	1
294	0	0.99095
295	0	0.964089
296	0	0.778339
297	0	0.732106
298	0	0.461951
299	0	1
300	0	0.700208
301	0	0.493111
302	0	0.984064
303	0	0.984064
304	0	0.984064
305	0	1
306	1	1
307	1	1
308	1	1
309	1	1
310	1	1
311	1	1
312	1	1
313	1	1
314	1	1
315	1	1
316	1	1
317	1	1
318	1	1
319	1	1
320	1	1
321	1	1
322	1	1
323	1	1
324	1	1
325	1	1
326	1	1
327	1	1
328	1	1
329	1	1
330	1	1
331	1	1
332	0	1
333	0	0.91958
334	0	0.485714
335	0	0.466763
336	0	0.466763
337	0	0.32694
338	0	1
339	0	0.952803
340	0	0.952675
341	0	0.968289
342	0	0.984032
343	0	0.984032
344	0	0.984032
345	1	1
346	1	1
347	1	1
348	1	1
349	1	1
350	1	1
351	1	1
352	1	1
353	1	1
354	1	1
355	1	1
356	1	1
357	1	1
358	1	1
359	1	1
360	1	1
361	1	1
362	1	1
363	1	1
364	1	1
365	1	1
366	1	1
367	1	1
368	1	1
369	1	1
370	1	1
371	1	1
372	1	1
373	1	1
374	1	1
375	1	1
376	1	1
377	1	1
378	1	1
379	1	1
380	1	1
381	1	1
382	1	1
383	1	1
384	1	1
385	1	1
386	1	1
387	1	1
388	0	1
389	0	0.984064
390	0	0.984064
391	0	0.908241
392	0	1
393	1	1
394	1	1
395	1	1
396	1	1
397	1	1
398	0	0.622522
399	0	0.628579
400	1	1
401	1	1
402	0	1
403	0	1
404	1	1
405	1	1
406	1	1
407	1	1
408	1	1
409	1	1
410	1	1
411	1	1
412	1	1
413	1	1
414	1	1
415	1	1
416	1	1
417	1	1
418	1	1
419	0	0.575133
420	0	0
421	0	0
422	0	0.333333
423	0	0.266667
424	0	0.96826
425	0	0.809982
426	0	0.6
427	0	1
428	1	1
429	1	1
430	1	1
431	1	1
432	1	1
433	1	1
434	1	1
435	1	1
436	1	1
437	1	1
438	1	1
439	1	1
440	1	1
441	1	1
442	1	1
443	1	1
444	1	1
445	1	1
446	1	1
447	1	1
448	1	1
449	1	1
450	1	1
451	1	1
452	1	1
453	1	1
454	1	1
455	1	1
456	1	1
457	1	1
458	1	1
459	1	1
460	1	1
461	1	1
462	1	1
463	1	1
464	1	1
465	1	1
466	1	1
467	1	1
468	1	1
469	1	1
470	1	1
471	0	0.890227
472	0	0
473	0	0.752151
474	0	0.425595
475	0	0.504822
476	0	0
477	0	0.266667
478	0	0.789174
479	0	0.405986
480	0	0.235458
481	0	0.285076
482	0	0
483	0	0
484	0	0.35572
485	0	0.3648
486	1	0
487	1	0
488	1	0
489	1	0
490	1	0
491	0	0
492	0	0.6
493	0	0.333333
494	0	0.787567
495	0	0.395402
496	0	0.719008
497	0	0.72094
498	0	0.709408
499	0	0.975445
500	0	0.975742
501	0	0.975742
502	0	0.983806
503	0	0.983806
504	0	1
505	1	1
506	1	1
507	1	1
508	1	1
509	1	1
510	1	1
511	1	1
512	1	1
513	1	1
514	1	1
515	1	1
516	1	1
517	1	1
518	1	1
519	1	1
520	1	1
521	1	1
522	1	1
523	1	1
524	1	1
525	1	1
526	1	1
527	1	1
528	1	1
529	1	1
530	1	1
531	1	1
532	1	1
533	1	1
534	1	1
535	1	1
536	1	1
537	1	1
538	1	1
539	1	1
540	1	1
541	0	1
542	0	0.560784
543	0	0.624294
544	0	0.556678
545	0	0.780916
546	0	0.819277
547	0	0.819277
548	0	0.819277
549	0	1
550	1	1
551	1	1
552	1	1
553	1	1
554	1	1
555	1	1
556	1	1
557	1	1
558	1	1
559	1	1
560	1	1
561	1	1
562	1	1
563	1	1
564	1	1
565	1	1
566	1	1
567	1	1
568	1	1
569	1	1
570	1	1
571	1	1
572	1	1
573	1	1
574	1	1
575	1	1
576	1	1
577	1	1
578	1	1
579	1	1
580	1	1
581	1	1
582	1	1
583	1	1
584	1	1
585	1	1
586	1	1
587	0	0.845494
588	0	0
589	0	0
590	0	0
591	0	0.5
592	0	0.333333
593	0	0.333333
594	0	0.333333
595	0	0.333333
596	0	0.166667
597	0	0
598	0	0
599	0	0
600	0	0.452381
601	0	0.1
602	0	0.1
603	0	0.85442
604	0	0
605	0	0.696126
606	0	0.264203
607	0	0.256203
608	0	0.333333
609	0	0.506892
610	0	0.296301
611	0	0.349436
612	0	0
613	0	0
614	0	0
615	0	0
616	0	0
617	0	0
618	0	0.404255
619	0	0.337931
620	0	0.273005
621	0	0.820573
622	0	0.893847
623	0	0.893847
624	0	0.893847
625	1	1
626	0	0.893847
627	1	1
628	1	1
629	1	1
630	1	1
631	1	1
632	1	1
633	1	1
634	1	1
635	1	1
636	1	1
637	1	1
638	1	1
639	1	1
640	1	1
641	1	1
642	1	1
643	1	1
644	1	1
645	1	1
646	1	1
647	1	1
648	1	1
649	1	1
650	1	1
651	1	1
652	1	1
653	1	1
654	1	1
655	1	1
656	1	1
657	1	1
658	1	1
659	1	1
660	0	0
661	0	0
662	0	0.981652
663	0	1
664	0	0.133333
665	0	0.560108
666	0	0.1
667	0	0
668	0	0.5
669	0	0.5
670	0	0.744721
671	0	0
672	0	0.894737
673	0	0.434483
674	0	0.467803
675	0	0.929182
676	0	0.937799
677	0	0.937799
678	0	0.937799
679	0	0.937799
680	0	1
681	1	1
682	1	1
683	1	1
684	1	1
685	1	1
686	1	1
687	1	1
688	1	1
689	1	1
690	1	1
691	1	1
692	1	1
693	0	0.992
694	0	0
695	0	0
696	0	0.992
697	0	0.992
698	0	1
699	0	0.554795
700	0	0.414843
701	0	0.793189
702	0	0
703	0	1
704	0	1
705	1	1
706	1	1
707	1	1
708	1	1
709	1	1
710	1	1
711	1	1
712	1	1
713	1	1
714	1	1
715	1	1
716	1	1
717	1	1
718	1	1
719	1	1
720	1	1
721	1	1
722	1	1
723	1	1
724	1	1
725	1	1
726	1	1
727	1	1
728	1	1
729	1	1
730	1	1
731	1	1
732	1	1
733	1	1
734	1	1
735	1	1
736	1	1
737	1	1
738	1	1
739	1	1
740	1	1
741	1	1
742	1	1
743	1	1
744	1	1
745	1	1
746	1	1
747	1	1
748	1	1
749	1	1
750	1	1
751	1	1
752	1	1
753	1	1
754	1	1
755	1	1
756	1	1
757	1	1
758	1	1
759	1	1
760	1	1
761	1	1
762	1	1
763	1	1
764	1	1
765	1	1
766	1	1
767	1	1
768	1	1
769	1	1
770	1	1
771	1	1
772	1	1
773	1	1
774	1	1
775	1	1
776	1	1
777	1	1
778	1	1
779	1	1
780	1	1
781	1	1
782	1	1
783	1	1
784	1	1
785	1	1
786	1	1
787	1	1
788	1	1
789	1	1
790	1	1
791	1	1
792	1	1
793	1	1
794	1	1
795	1	1
796	1	1
797	1	1
798	1	1
799	1	1
800	1	1
801	1	1
802	1	1
803	1	1
804	1	1
805	1	1
806	1	1
807	1	1
808	1	1
809	1	1
810	1	1
811	1	1
812	1	1
813	1	1
814	1	1
815	1	1
816	1	1
817	1	1
818	1	1
819	1	1
820	1	1
821	1	1
822	1	1
823	1	1
824	1	1
825	1	1
826	1	1
827	1	1
828	1	1
829	1	1
830	1	1
831	1	1
832	1	1
833	1	0
834	1	1
835	1	1
836	1	1
837	1	1
838	1	1
839	1	1
840	1	1
841	1	1
842	1	1
843	1	1
844	1	1
845	1	1
846	1	1
847	1	1
848	1	1
849	1	1
850	1	1
851	1	1
852	1	1
853	1	1
854	1	1
855	1	1
856	1	1
857	1	1
858	1	1
859	1	1
860	1	1
861	1	1
862	1	1
863	1	1
864	1	1
865	1	1
866	1	1
867	1	1
868	1	1
869	1	1
870	1	1
871	1	1
872	1	0
873	1	1
874	1	1
875	1	1
876	1	1
877	1	1
878	1	1
879	1	1
880	1	1
881	1	1
882	1	1
883	1	1
884	1	1
885	1	1
886	1	1
887	1	1
888	1	1
889	1	1
890	1	1
891	1	1
892	1	1
893	1	1
894	1	1
895	1	1
896	1	1
897	1	1
898	1	1
899	1	1
900	0	0.992
901	1	1
902	0	0.64555
903	0	0.648949
904	0	1
905	0	0.968386
906	0	0.968386
907	0	1
908	1	1
909	1	1
910	1	1
911	1	1
912	1	1
913	1	1
914	0	1
915	0	0.976193
916	0	0.976193
917	1	1
918	1	1
919	1	1
920	1	1
921	1	1
922	1	1
923	1	1
924	1	1
925	1	1
926	1	1
927	1	1
928	1	1
929	1	1
930	1	1
931	0	0
932	0	0
933	0	0
934	0	0.991968
935	0	0.991968
936	0	0.960418
937	1	1
938	0	1
939	0	0.983707
940	0	0.983707
941	1	1
942	1	1
943	1	1
944	1	1
945	1	1
946	1	1
947	1	1
948	1	1
949	1	1
950	1	1
951	1	1
952	1	1
953	1	1
954	1	1
955	1	1
956	1	1
957	1	1
958	1	1
959	1	1
960	1	1
961	1	1
962	1	1
963	1	1
964	1	1
965	1	1
966	1	1
967	1	1
968	1	1
969	1	1
970	1	1
971	1	1
972	1	1
973	1	1
974	1	1
975	1	1
976	1	1
977	1	1
978	1	1
979	1	1
980	1	1
981	1	1
982	1	1
983	1	1
984	1	1
985	1	1
986	1	1
987	1	1
988	1	1
989	1	1
990	1	1
991	1	1
992	1	1
993	0	1
994	0	1
995	0	0.992
996	0	0.960514
997	0	0.333333
998	0	0.530056
999	0	0.481896
1000	0	0.478329
1001	0	0.486592
1002	0	0.486592
1003	0	0
1004	0	0
1005	0	1
1006	0	1
1007	0	1
1008	1	1
1009	1	1
1010	1	1
1011	1	1
1012	1	1
1013	1	1
1014	1	1
1015	1	1
1016	1	1
1017	1	1
1018	1	1
1019	1	1
1020	1	1
1021	1	1
1022	1	1
1023	1	1
1024	1	1
1025	1	1
1026	1	1
1027	1	1
1028	1	1
1029	1	1
1030	1	1
1031	1	1
1032	1	1
1033	1	1
1034	1	1
1035	1	1
1036	1	1
1037	1	1
1038	0	1
1039	1	1
1040	0	0.578313
1041	0	0.968386
1042	0	1
1043	1	1
1044	1	1
1045	1	1
1046	1	1
1047	1	1
1048	1	1
1049	1	1
1050	1	1
1051	1	1
1052	1	1
1053	1	1
1054	1	1
1055	1	1
1056	1	1
1057	1	1
1058	1	1
1059	1	1
1060	1	1
1061	1	1
1062	1	1
1063	1	1
1064	1	1
1065	1	1
1066	1	1
1067	1	1
1068	1	1
1069	1	1
1070	1	1
1071	1	1
1072	1	1
1073	1	1
1074	1	1
1075	1	1
1076	1	1
1077	1	1
1078	1	1
1079	1	1
1080	1	1
1081	1	1
1082	1	1
1083	1	1
1084	1	1
1085	1	1
1086	1	1
1087	1	1
1088	1	1
1089	1	1
1090	1	1
1091	1	1
1092	1	1
1093	1	1
1094	1	1
1095	1	1
1096	1	1
1097	1	1
1098	1	1
1099	1	1
1100	1	1
1101	1	1
1102	1	1
1103	1	1
1104	1	1
1105	1	1
1106	1	1
1107	1	1
1108	1	1
1109	1	1
1110	1	1
1111	1	1
1112	1	1
1113	1	1
1114	1	1
1115	1	1
1116	1	1
1117	1	1
1118	1	1
1119	1	1
1120	0	1
1121	1	1
1122	1	1
1123	1	1
1124	1	1
1125	1	1
1126	1	1
1127	1	1
1128	0	0.992
1129	1	1
1130	1	1
1131	1	1
1132	1	1
1133	1	1
1134	1	1
1135	1	1
1136	1	1
1137	1	1
1138	1	1
1139	1	1
1140	1	1
1141	0	1
1142	0	0.992
1143	0	0.992
1144	1	1
1145	1	1
1146	1	1
1147	1	1
1148	1	1
1149	1	1
1150	0	1
1151	0	1
1152	0	0.321429
1153	0	0.891382
1154	0	0.60264
1155	0	0.480482
1156	0	0.433124
1157	0	0
1158	0	1
1159	0	1
1160	0	1
1161	0	0.63245
1162	0	0.633092
1163	0	0
1164	0	0
1165	0	1
1166	0	0.714286
1167	0	0.714286
1168	0	0.654715
1169	0	0.719325
1170	0	0.901012
1171	0	0.901012
1172	0	1
1173	1	1
1174	1	1
1175	1	1
1176	1	1
1177	1	1
1178	1	1
1179	1	1
1180	1	1
1181	1	1
1182	1	1
1183	1	1
1184	1	1
1185	1	1
1186	1	1
1187	1	1
1188	1	1
1189	1	1
1190	1	1
1191	0	0.984064
1192	0	0.983472
1193	1	1
1194	0	0
1195	0	0
1196	1	1
1197	1	1
1198	1	1
1199	1	1
1200	1	1
1201	1	1
1202	1	1
1203	1	1
1204	1	1
1205	1	1
1206	1	1
1207	1	1
1208	1	1
1209	1	1
1210	1	1
1211	1	1
1212	1	1
1213	1	1
1214	1	1
1215	1	1
1216	1	1
1217	1	1
1218	1	1
1219	1	1
1220	1	1
1221	1	1
1222	1	1
1223	1	1
1224	1	1
1225	1	1
1226	1	1
1227	1	1
1228	1	1
1229	1	1
1230	1	1
1231	1	1
1232	1	1
1233	1	1
1234	1	1
1235	1	1
1236	1	1
1237	1	1
1238	1	1
1239	1	1
1240	1	1
1241	1	1
1242	1	1
1243	1	1
1244	1	1
1245	1	1
1246	1	1
1247	1	1
1248	1	1
1249	1	1
1250	1	1
1251	1	1
1252	1	1
1253	1	1
1254	1	1
1255	1	1
1256	1	1
1257	1	1
1258	1	1
1259	1	1
1260	1	1
1261	1	1
1262	1	1
1263	1	1
1264	1	1
1265	1	1
1266	1	1
1267	1	1
1268	1	1
1269	1	1
1270	0	1
1271	0	0.968386
1272	1	1
1273	1	1
1274	1	1
1275	1	1
1276	1	1
1277	1	1
1278	1	1
1279	1	1
1280	1	1
1281	1	1
1282	1	1
1283	1	1
1284	1	1
1285	1	1
1286	1	1
1287	1	1
1288	1	1
1289	1	1
1290	1	1
1291	1	1
1292	1	1
1293	1	1
1294	1	1
1295	1	1
1296	1	1
1297	0	1
1298	0	0.893847
1299	0	0.893847
1300	1	1
1301	1	1
1302	1	1
1303	1	1
1304	1	1
1305	1	1
1306	1	1
1307	1	1
1308	1	1
1309	1	1
1310	1	1
1311	1	1
1312	1	1
1313	1	1
1314	1	1
1315	1	1
1316	1	1
1317	1	1
1318	1	1
1319	1	1
1320	1	1
1321	1	1
1322	1	1
1323	1	1
1324	1	1
1325	1	1
1326	1	1
1327	1	1
1328	1	1
1329	1	1
1330	1	1
1331	1	1
1332	1	1
1333	1	1
1334	1	1
1335	1	1
1336	1	1
1337	1	1
1338	1	1
1339	1	1
1340	1	1
1341	1	1
1342	1	1
1343	1	1
1344	1	1
1345	1	1
1346	1	1
1347	1	1
1348	1	1
1349	1	1
1350	1	1
1351	1	1
1352	0	1
1353	0	1
1354	0	1
1355	0	1
1356	0	0.62959
1357	0	0.62959
1358	0	0
1359	0	0.714286
1360	0	0.637523
1361	0	0.552514
1362	0	0.582972
1363	0	0
1364	0	1
1365	0	1
1366	1	1
1367	1	1
1368	1	1
1369	1	1
1370	1	1
1371	1	1
1372	1	1
1373	1	1
1374	1	1
1375	1	1
1376	1	1
1377	1	1
1378	1	1
1379	1	1
1380	1	1
1381	1	1
1382	1	1
1383	1	1
1384	1	1
1385	1	1
1386	1	1
1387	1	1
1388	1	1
1389	1	1
1390	1	1
1391	1	1
1392	1	1
1393	1	1
1394	1	1
1395	1	1
1396	1	1
1397	1	1
1398	1	1
1399	1	1
1400	1	1
1401	0	0.922892
1402	0	1
1403	1	1
1404	0	0.991903
1405	0	1
1406	0	1
1407	0	1
1408	0	1
1409	0	0.333333
1410	0	0.944585
1411	0	0.937124
1412	0	0.936375
1413	0	0.384247
1414	0	0.818182
1415	0	0.849799
1416	0	0.849799
1417	0	0.849799
1418	0	0.849799
1419	0	1
1420	0	1
1421	1	1
1422	1	1
1423	1	1
1424	1	1
1425	1	1
1426	1	1
1427	1	1
1428	1	1
1429	1	1
1430	1	1
1431	1	1
1432	0	0
1433	0	0
1434	0	0.957447
1435	0	0.691984
1436	0	0.691984
1437	0	0.691984
1438	0	0.691984
1439	0	0.691984
1440	0	0.697564
1441	0	0.692512
1442	0	1
1443	0	0.62551
1444	0	0.992
1445	0	0.992
1446	0	0.992
1447	0	0
1448	0	0
1449	1	1
1450	1	1
1451	1	1
1452	1	1
1453	1	1
1454	1	1
1455	1	1
1456	1	1
1457	1	1
1458	1	1
1459	1	1
1460	1	1
1461	1	1
1462	1	1
1463	1	1
1464	1	1
1465	1	1
1466	1	1
1467	1	1
1468	1	1
1469	1	1
1470	1	1
1471	1	1
1472	1	1
1473	1	1
1474	1	1
1475	1	1
1476	1	1
1477	1	1
1478	1	1
1479	1	1
1480	1	1
1481	1	1
1482	1	1
1483	1	1
1484	1	1
1485	1	1
1486	1	1
1487	1	1
1488	1	1
1489	1	1
1490	1	1
1491	1	1
1492	1	1
1493	1	1
1494	1	1
1495	1	1
1496	1	1
1497	1	1
1498	1	1
1499	1	1
1500	1	1
1501	1	1
1502	1	1
1503	1	1
1504	1	1
1505	1	1
1506	1	1
1507	1	1
1508	1	1
1509	1	1
1510	1	1
1511	1	1
1512	1	1
1513	1	1
1514	1	1
1515	1	1
1516	1	1
1517	1	1
1518	1	1
1519	1	1
1520	1	1
1521	1	1
1522	1	1
1523	1	1
1524	1	1
1525	1	1
1526	1	0
1527	0	1
1528	0	0.960643
1529	1	0
1530	1	0
1531	0	0.984064
1532	0	0.983871
1533	1	1
1534	1	1
1535	1	1
1536	1	1
1537	1	1
1538	1	1
1539	1	1
1540	1	1
1541	1	1
1542	1	1
1543	1	1
1544	1	1
1545	1	1
1546	1	1
1547	1	1
1548	1	1
1549	1	1
1550	1	1
1551	1	1
1552	1	1
1553	1	1
1554	1	1
1555	1	1
1556	1	1
1557	1	1
1558	1	1
1559	1	1
1560	1	1
1561	1	1
1562	1	1
1563	1	1
1564	1	1
1565	1	1
1566	1	1
1567	1	1
1568	1	1
1569	0	0
1570	0	0
1571	0	0
1572	0	0
1573	0	0
1574	0	0
1575	0	0
1576	0	0
1577	1	0
1578	1	0
1579	1	0
1580	0	0
1581	0	0
1582	0	0
1583	0	0
1584	0	0
1585	0	0
1586	0	0
1587	0	0
1588	0	0
1589	0	0
1590	0	0
1591	0	0
1592	0	0
1593	0	0.952964
1594	0	1
1595	0	1
1596	0	1
1597	0	1
1598	0	1
1599	0	1
1600	0	1
1601	0	1
1602	0	1
1603	0	1
1604	0	1
1605	0	1
1606	0	1
1607	0	1
1608	0	1
1609	0	1
1610	0	1
1611	0	1
1612	0	1
1613	0	1
1614	0	1
1615	1	1
1616	1	1
1617	1	1
1618	1	1
1619	1	1
1620	1	1
1621	1	1
1622	1	1
1623	1	1
1624	1	1
1625	1	1
1626	1	1
1627	1	1
1628	1	1
1629	1	1
1630	1	1
1631	0	1
1632	0	1
1633	0	1
1634	0	1
1635	0	1
1636	0	1
1637	0	1
1638	1	1
1639	1	1
1640	1	1
1641	1	1
1642	1	1
1643	1	1
1644	1	1
1645	1	1
1646	1	1
1647	1	1
1648	1	1
1649	1	1
1650	0	0.960487
1651	1	1
1652	1	1
1653	1	1
1654	1	1
1655	1	1
1656	0	0
1657	0	0
1658	0	0
1659	0	0
1660	0	0
1661	0	0
1662	0	0
1663	0	0
1664	0	0
1665	0	0
1666	0	0
1667	0	0
1668	0	0
1669	0	0
1670	0	0
1671	0	0
1672	0	0
1673	0	0
1674	0	0
1675	0	0
1676	0	0.991803
1677	0	0.991803
1678	0	0.991803
1679	0	0.991803
1680	0	0.991803
1681	0	0.991803
1682	0	0.959691
1683	0	0.959691
1684	0	0.959691
1685	0	0.951857
1686	0	0.951857
1687	0	0.952803
1688	0	0.952803
1689	0	0.952803
1690	0	0.960487
1691	0	0.960487
1692	0	0.960487
1693	0	0.960487
1694	0	0
1695	0	0
1696	0	0
1697	0	0
1698	0	0
1699	0	0
1700	0	0
1701	0	0
1702	0	0
1703	0	0
1704	0	0
1705	0	0
1706	0	0
1707	0	0
1708	0	0
1709	0	0
1710	0	0
1711	0	0
1712	0	0
1713	0	0
1714	0	0
1715	0	0
1716	0	0
1717	0	0
1718	0	0
1719	0	0
1720	0	0
1721	0	0
1722	0	0
1723	0	0
1724	0	0.960358
1725	0	0.960358
1726	0	0.960358
1727	0	0.960358
1728	0	0.952487
1729	0	0.952487
1730	0	0.952487
1731	0	0.952487
1732	0	0.9602
1733	0	0
1734	0	0
1735	0	0
1736	0	0
1737	0	0
1738	0	0
1739	0	0
1740	0	0
1741	0	0
1742	0	0
1743	0	0
1744	0	0
1745	0	0
1746	0	0
1747	0	0
1748	0	0
1749	0	0
1750	0	0
1751	0	0
1752	0	0
1753	0	0
1754	0	0
1755	0	0
1756	0	0
1757	0	0
1758	0	0
1759	0	0
1760	0	0
1761	0	0
1762	0	0
1763	0	0
1764	0	0
1765	0	0
1766	0	0
1767	0	0
1768	0	0
1769	0	0
1770	0	0
1771	0	0
1772	0	0
1773	0	0
1774	0	0
1775	0	0
1776	0	0
1777	0	0
1778	0	0
1779	0	0
1780	0	0
1781	0	0
1782	0	0
1783	0	0
1784	0	0
1785	0	0
1786	0	0.937092
1787	0	0
1788	0	0
1789	0	0
1790	0	0
1791	0	0
1792	0	0
1793	0	0
1794	0	0
1795	0	0.952299
1796	0	0.952429
1797	0	0.952429
1798	0	0.952429
1799	0	0.952429
1800	0	1
1801	0	1
1802	0	1
1803	0	1
1804	0	1
1805	0	1
1806	0	1
1807	0	1
1808	0	1
1809	0	1
1810	0	1
1811	0	1
1812	0	1
1813	0	1
1814	0	1
1815	0	1
1816	0	1
1817	0	1
1818	0	1
1819	0	1
1820	0	1
1821	0	1
1822	0	1
1823	0	1
1824	0	1
1825	0	1
1826	0	1
1827	0	1
1828	0	1
1829	0	0.333333
1830	0	0.333333
1831	0	0.333333
1832	0	0.333333
1833	0	0.333333
1834	0	0.333333
1835	0	0.333333
1836	0	0.333333
1837	0	0.333333
1838	0	0.333333
1839	0	0.333333
1840	0	0.333333
1841	0	0.333333
1842	0	0.333333
1843	0	0.333333
1844	0	0.333333
1845	0	0.333333
1846	0	0.166667
1847	0	0.166667
1848	0	0.166667
1849	0	0.166667
1850	0	0.166667
1851	0	0.166667
1852	0	0.166667
1853	0	0.166667
1854	0	0.166667
1855	0	0.166667
1856	0	0.166667
1857	0	0.1
1858	0	0.1
1859	0	0.1
1860	0	0.1
1861	0	0.1
1862	0	0.1
1863	0	0.1
1864	0	0.1
1865	0	0.1
1866	0	0.1
1867	0	0.1
1868	0	0.1
1869	0	0.3
1870	0	0.3
1871	0	0.3
1872	0	0.3
1873	0	0.3
1874	0	0.3
1875	0	0.3
1876	0	0.3
1877	0	0.3
1878	0	0.3
1879	0	0.3
1880	0	0.3
1881	0	0.3
1882	0	0.3
1883	0	0.3
1884	0	0.3
1885	0	0.3
1886	0	0.3
1887	0	0.3
1888	0	0.3
1889	0	0.3
1890	0	0.3
1891	0	0.3
1892	0	0.3
1893	0	0.3
1894	0	0.3
1895	0	0.3
1896	0	0.3
1897	0	0.3
1898	0	0.3
1899	0	0.3
1900	0	0.3
1901	0	0.3
1902	0	0.3
1903	0	0.3
1904	0	0.3
1905	0	0.3
1906	0	0.3
1907	0	0.3
1908	0	0.3
1909	0	0.3
1910	0	0.3
1911	0	0.3
1912	0	0.3
1913	0	0.3
1914	0	0.3
1915	0	0.3
1916	0	0.3
1917	0	0.3
1918	0	0.3
1919	0	0.3
1920	0	0.3
1921	0	0.3
1922	0	0.3
1923	0	0.3
1924	0	0.3
1925	0	0.3
1926	0	0.3
1927	0	0.3
1928	0	0.3
1929	0	0.3
1930	0	0.3
1931	0	0.3
1932	0	0.3
1933	0	0.3
1934	0	0.3
1935	0	0.3
1936	0	0.3
1937	0	0.3
1938	0	0.3
1939	0	0.3
1940	0	0.6
1941	0	0.6
1942	0	0.6
1943	0	0.6
1944	0	0.6
1945	0	0.6
1946	0	0.6
1947	0	0.6
1948	0	0.6
1949	0	0.6
1950	0	0.6
1951	0	0.6
1952	0	0.6
1953	0	0.6
1954	0	0.6
1955	0	0.6
1956	0	0.6
1957	0	0.6
1958	0	0.6
1959	0	0.6
1960	0	0.6
1961	0	0.6
1962	0	0.6
1963	0	0.6
1964	0	0.6
1965	0	0.6
1966	0	0.6
1967	0	0.6
1968	0	0.6
1969	0	0.6
1970	0	0.6
1971	0	0.6
1972	0	0.6
1973	0	0.6
1974	0	0.6
1975	0	0.6
1976	0	0.6
1977	0	0.6
1978	0	0.6
1979	0	0.6
1980	0	0.6
1981	0	0.6
1982	0	0.6
1983	0	0.6
1984	0	0.6
1985	0	0.6
1986	0	0.6
1987	0	0.6
1988	0	0.6
1989	0	0.6
1990	0	0.6
1991	0	0.6
1992	0	0.6
1993	0	0.6
1994	0	0.6
1995	0	0.6
1996	0	0.6
1997	0	0.6
1998	0	0.6
1999	0	0.6
2000	0	0.6
2001	0	0.6
2002	0	0.6
2003	0	0.6
2004	0	0.6
2005	0	0.6
2006	0	0.6
2007	0	0.6
2008	0	0.6
2009	0	0.6
2010	0	0.6
2011	0	0.6
2012	0	0.6
2013	0	0.6
2014	0	0.6
2015	0	0.6
2016	0	0.6
2017	0	0.6
2018	0	0.6
2019	0	0.6
2020	0	0.6
2021	0	0.6
2022	0	0.6
2023	0	0.6
2024	0	0.6
2025	0	0.6
2026	0	0.6
2027	0	0.6
2028	0	0.6
2029	0	0.6
2030	0	0.6
2031	0	0.6
2032	0	0.6
2033	0	0.6
2034	0	0.6
2035	0	0.6
2036	0	0.6
2037	0	0.6
2038	0	0.6
2039	0	0.6
2040	0	0.6
2041	0	0.6
2042	0	0.6
2043	0	0.6
2044	0	0.6
2045	0	0.6
2046	0	0.6
2047	0	0.6
2048	0	0.6
2049	0	0.6
2050	0	0.6
2051	0	0.6
2052	0	0.6
2053	0	0.6
2054	0	0.6
2055	0	0.6
2056	0	0.6
2057	0	0.6
2058	0	0.6
2059	0	0.6
2060	0	0.6
2061	0	0.6
2062	0	0.6
2063	0	0.6
2064	0	0.6
2065	0	0.6
2066	0	0.6
2067	0	0.6
2068	0	0.6
2069	0	0.6
2070	0	0.6
2071	0	0.6
2072	0	0.6
2073	0	0.6
2074	0	0.6
2075	0	0.6
2076	0	0.6
2077	0	0.6
2078	1	1
2079	1	1
2080	1	1
2081	1	1
2082	1	1
2083	1	1
2084	1	1
2085	1	1
2086	1	1
2087	1	1
2088	1	1
2089	1	1
2090	1	1
2091	1	1
2092	1	1
2093	1	1
2094	1	1
2095	1	1
2096	1	1
2097	1	1
2098	1	1
2099	1	1
2100	1	1
2101	1	1
2102	1	1
2103	1	1
2104	1	1
2105	1	1
2106	1	1
2107	1	1
2108	0	0.469697
2109	0	0.444444
2110	0	0.444444
2111	0	0.52381
2112	0	0.52381
2113	0	0.392857
2114	0	0.833264
2115	0	0.666667
2116	0	0.666667
2117	0	0.666667
2118	0	0.666667
2119	0	0.666667
2120	0	0.666667
2121	0	0.666667
2122	0	0.666667
2123	0	0.666667
2124	0	0.666667
2125	0	0.666667
2126	0	0.666667
2127	0	0.666667
2128	0	0.666667
2129	0	0.666667
2130	0	0.666667
2131	0	0.666667
2132	0	0.666667
2133	0	0.666667
2134	0	0.666667
2135	0	0.666667
2136	0	0.666667
2137	0	0.666667
2138	0	0.666667
2139	0	0.666667
2140	0	0.775457
2141	0	0.775457
2142	0	0.775295
2143	0	1
2144	0	1
2145	0	1
2146	0	1
2147	0	1
2148	0	1
2149	0	1
2150	0	1
2151	0	1
2152	0	1
2153	0	1
2154	0	1
2155	0	1
2156	0	1
2157	0	0.6
2158	0	0.6
2159	0	0.6
2160	0	0.6
2161	0	0.6
2162	0	0.6
2163	0	0.6
2164	0	0.6
2165	0	0.6
2166	0	0.6
2167	0	0.6
2168	0	0.6
2169	0	0.6
2170	0	0.6
2171	0	0.6
2172	0	0.6
2173	0	0.6
2174	0	0.6
2175	0	0.6
2176	0	0.6
2177	0	0.6
2178	0	0.6
2179	0	0.6
2180	0	0.6
2181	0	0.6
2182	0	0.6
2183	0	0.6
2184	0	0.6
2185	0	0.6
2186	0	0.6
2187	0	0.6
2188	0	0.6
2189	0	0.6
2190	0	0.6
2191	0	0.6
2192	0	0.6
2193	0	0.6
2194	0	0.6
2195	0	0.6
2196	0	0.6
2197	0	0.6
2198	0	0.6
2199	0	0.6
2200	0	0.6
2201	0	0.6
2202	0	0.6
2203	0	0.6
2204	0	0.6
2205	0	0.6
2206	0	0.6
2207	0	0.6
2208	0	0.6
2209	0	0.6
2210	0	0.6
2211	0	0.6
2212	0	0.6
2213	0	0.6
2214	0	0.6
2215	0	0.6
2216	0	0.6
2217	0	0.6
2218	0	0.6
2219	0	0.6
2220	0	0.6
2221	0	0.6
2222	0	0.6
2223	0	0.6
2224	0	0.6
2225	0	0.6
2226	0	0.6
2227	0	0.6
2228	0	0.6
2229	0	0.6
2230	0	0.6
2231	0	0.6
2232	0	0.6
2233	0	0.6
2234	0	0.6
2235	0	0.6
2236	0	0.6
2237	0	0.6
2238	0	0.6
2239	0	0.6
2240	0	0.6
2241	0	0.6
2242	0	0.6
2243	0	0.6
2244	0	0.6
2245	0	0.6
2246	0	0.6
2247	0	0.6
2248	0	0.6
2249	0	0.6
2250	0	0.6
2251	0	0.6
2252	0	0.6
2253	0	0.6
2254	0	0.6
2255	0	0.6
2256	0	0.6
2257	0	0.6
2258	0	0.6
2259	0	0.6
2260	0	0.6
2261	0	0.6
2262	0	0.6
2263	0	0.6
2264	0	0.6
2265	0	0.6
2266	0	0.6
2267	0	0.6
2268	0	0.6
2269	0	0.6
2270	0	0.6
2271	0	0.6
2272	0	0.6
2273	0	0.6
2274	0	0.6
2275	0	0.6
2276	0	0.6
2277	0	0.6
2278	0	0.6
2279	0	0.6
2280	0	0.6
2281	0	0.6
2282	0	0.6
2283	0	0.6
2284	0	0.6
2285	0	0.6
2286	0	0.6
2287	0	0.6
2288	0	0.6
2289	0	0.4
2290	0	0.25
2291	0	0.25
2292	0	0.194444
2293	0	0.155556
2294	0	0.194444
2295	0	0.194444
2296	0	0.155556
2297	0	0.189474
2298	0	0.26
2299	0	0.22069
2300	0	0.1875
2301	0	0.153846
2302	0	0.425061
2303	0	0.28426
2304	0	0.263243
2305	0	0.0714286
2306	0	0.0714286
2307	0	0.0555556
2308	0	0.0357143
2309	0	0.3561
2310	0	0.334374
2311	0	0.215726
2312	0	0.0984615
2313	0	0.0866667
2314	0	0.0653595
2315	0	0.0653595
2316	0	0.0857143
2317	0	0.128205
2318	0	0.141026
2319	0	0.145455
2320	0	0.194444
2321	0	0.214286
2322	0	0.285714
2323	0	0.285714
2324	0	0.285714
2325	0	0.285714
2326	0	0.285714
2327	0	0.4
2328	0	0.4
2329	0	0.4
2330	0	0.4
2331	0	0.4
2332	0	0.4
2333	0	0.4
2334	0	0.4
2335	0	0.4
2336	0	0.4
2337	0	0.4
2338	0	0.4
2339	0	0.4
2340	0	0.4
2341	0	0.4
2342	0	0.4
2343	0	0.4
2344	0	0.4
2345	0	0.4
2346	0	0.4
2347	0	0.4
2348	0	0.4
2349	0	0.4
2350	0	0.4
2351	0	0.4
2352	0	0.4
2353	0	0.4
2354	0	0.4
2355	0	0.425
2356	0	0.25
2357	0	0.194444
2358	0	0.285714
2359	0	0.285714
2360	0	0.141667
2361	0	0.125
2362	0	0.116959
2363	0	0.114625
2364	0	0.128205
2365	0	0.10989
2366	0	0.10989
2367	0	0.0989011
2368	0	0.0769231
2369	0	0.0947368
2370	0	0.0947368
2371	0	0.114625
2372	0	0.102767
2373	0	0.126943
2374	0	0.125308
2375	0	0
2376	0	0.107143
2377	0	0.142857
2378	0	0.142857
2379	0	0.2
2380	0	0.2
2381	0	0.2
2382	0	0.2
2383	0	0.2
2384	0	0.2
2385	0	0.2
2386	0	0.2
2387	0	0.142857
2388	0	0.142857
2389	0	0.142857
2390	0	0.142857
2391	0	0.142857
2392	0	0.142857
2393	0	0.142857
2394	0	0.142857
2395	0	0.142857
2396	0	0.142857
2397	0	0.142857
2398	0	0.142857
2399	0	0.142857
2400	0	0.142857
2401	0	0.142857
2402	0	0.142857
2403	0	0.142857
2404	0	0.142857
2405	0	0.142857
2406	0	0.142857
2407	0	0.142857
2408	0	0.142857
2409	0	0.142857
2410	0	0.142857
2411	0	0.142857
2412	0	0.142857
2413	0	0.142857
2414	0	0.142857
2415	0	0.142857
2416	0	0.142857
2417	0	0.142857
2418	0	0.142857
2419	0	0.285714
2420	0	0.285714
2421	0	0.285714
2422	0	0.285714
2423	0	0.285714
2424	0	0.285714
2425	0	0.285714
2426	0	0.285714
2427	0	0.285714
2428	0	0.4
2429	0	0.4
2430	0	0.4
2431	0	0.4
2432	0	0.4
2433	0	0.4
2434	0	0.4
2435	0	0.4
2436	0	0.4
2437	0	0.6
2438	0	0.6
2439	0	0.6
2440	0	0.6
2441	0	0.6
2442	0	0.6
2443	0	0.6
2444	0	0.6
2445	0	0.6
2446	0	0.6
2447	0	0.6
2448	0	0.6
2449	0	0.6
2450	0	0.6
2451	0	0.6
2452	0	0.6
2453	0	0.6
2454	0	0.6
2455	0	0.6
2456	0	0.6
2457	0	0.6
2458	0	0.6
2459	0	0.6
2460	0	0.6
2461	0	0.6
2462	0	0.6
2463	0	0.6
2464	0	0.6
2465	0	0.6
2466	0	0.6
2467	0	0.6
2468	0	0.6
2469	0	0.6
2470	0	0.6
2471	0	0.6
2472	0	0.6
2473	0	0.6
2474	0	0.6
2475	0	0.6
2476	0	0.6
2477	0	0.6
2478	0	0.6
2479	0	0.6
2480	0	0.6
2481	0	0.6
2482	0	0.6
2483	0	0.6
2484	0	0.6
2485	0	0.6
2486	0	0.6
2487	0	0.6
2488	0	0.6
2489	0	0.6
2490	0	0.6
2491	0	0.6
2492	0	0.6
2493	0	0.6
2494	0	0.6
2495	0	0.6
2496	0	0.6
2497	0	0.6
2498	0	0.6
2499	0	0.6
2500	0	0.6
2501	0	0.6
2502	0	0.6
2503	0	0.6
2504	0	0.6
2505	0	0.6
2506	0	0.6
2507	0	0.6
2508	0	0.6
2509	0	0.6
2510	0	0.6
2511	0	0.6
2512	0	0.6
2513	0	0.6
2514	0	0.6
2515	0	0.6
2516	0	0.6
2517	0	0.6
2518	0	0.6
2519	0	0.6
2520	0	0.6
2521	0	0.6
2522	0	0.6
2523	0	0.6
2524	0	0.6
2525	0	0.6
2526	0	0.6
2527	0	0.6
2528	0	0.6
2529	0	0.6
2530	0	0.6
2531	0	0.6
2532	0	0.6
2533	0	0.6
2534	0	0.6
2535	0	0.6
2536	0	0.6
2537	0	0.6
2538	0	0.6
2539	0	0.6
2540	0	0.6
2541	0	0.6
2542	0	0.6
2543	0	0.6
2544	0	0.6
2545	0	0.6
2546	0	0.6
2547	0	0.6
2548	0	0.6
2549	0	0.6
2550	0	0.6
2551	0	0.6
2552	0	0.6
2553	0	0.6
2554	0	0.6
2555	0	0.6
2556	0	0.6
2557	0	0.6
2558	0	0.6
2559	0	0.6
2560	0	0.6
2561	0	0.6
2562	0	0.6
2563	0	0.6
2564	0	0.6
2565	0	0.6
2566	0	0.6
2567	0	0.6
2568	0	0.6
2569	0	0.6
2570	0	0.6
2571	0	0.6
2572	0	0.6
2573	0	0.6
2574	0	0.6
2575	0	0.6
2576	0	0.6
2577	0	0.6
2578	0	0.6
2579	0	0.6
2580	0	0.6
2581	0	0.6
2582	0	0.6
2583	0	0.6
2584	0	0.6
2585	0	0.6
2586	0	0.6
2587	0	0.6
2588	0	0.6
2589	0	0.6
2590	0	0.6
2591	0	0.6
2592	0	0.6
2593	0	0.6
2594	0	0.6
2595	0	0.6
2596	0	0.6
2597	0	0.6
2598	0	0.6
2599	0	0.6
2600	0	0.6
2601	0	0.6
2602	0	0.6
2603	0	0.6
2604	0	0.6
2605	0	0.6
2606	0	0.6
2607	0	0.6
2608	0	0.6
2609	0	0.6
2610	0	0.6
2611	0	0.6
2612	0	0.6
2613	0	0.6
2614	0	0.6
2615	0	0.6
2616	0	0.6
2617	0	0.6
2618	0	0.6
2619	0	0.6
2620	0	0.6
2621	0	0.6
2622	0	0.6
2623	0	0.6
2624	0	0.6
2625	0	0.6
2626	0	0.6
2627	0	0.6
2628	0	0.6
2629	0	0.6
2630	0	0.6
2631	0	0.6
2632	0	0.6
2633	0	0.6
2634	0	0.6
2635	0	0.6
2636	0	0.6
2637	0	0.6
2638	0	0.6
2639	0	0.6
2640	0	0.6
2641	0	0.6
2642	0	0.6
2643	0	0.6
2644	0	0.6
2645	0	0.6
2646	0	0.6
2647	0	0.6
2648	0	0.6
2649	0	0.6
2650	0	0.6
2651	0	0.6
2652	0	0.6
2653	1	1
2654	1	1
2655	1	1
2656	1	1
2657	1	1
2658	1	1
2659	1	1
2660	1	1
2661	1	1
2662	1	1
2663	1	1
2664	1	1
2665	1	1
2666	1	1
2667	1	1
2668	1	1
2669	1	1
2670	1	1
2671	1	1
2672	1	1
2673	1	1
2674	1	1
2675	1	1
2676	1	1
2677	1	1
2678	1	1
2679	1	1
2680	1	1
2681	1	1
2682	1	1
2683	1	1
2684	1	1
2685	1	1
2686	1	1
2687	1	1
2688	1	1
2689	1	1
2690	1	1
2691	1	1
2692	1	1
2693	1	1
2694	1	1
2695	1	1
2696	1	1
2697	1	1
2698	1	1
2699	1	1
2700	1	1
2701	1	1
2702	1	1
2703	1	1
2704	1	1
2705	1	1
2706	1	1
2707	1	1
2708	1	1
2709	1	1
2710	1	1
2711	1	1
2712	1	1
2713	1	1
2714	1	1
2715	1	1
2716	1	1
2717	1	1
2718	1	1
2719	1	1
2720	1	1
2721	1	1
2722	1	1
2723	1	1
2724	1	1
2725	1	1
2726	1	1
2727	1	1
2728	1	1
2729	1	1
2730	1	1
2731	1	1
2732	1	1
2733	1	1
2734	1	1
2735	1	1
2736	1	1
2737	1	1
2738	1	1
2739	1	1
2740	1	1
2741	1	1
2742	1	1
2743	1	1
2744	1	1
2745	1	1
2746	1	1
2747	1	1
2748	1	1
2749	1	1
2750	1	1
2751	1	1
2752	1	1
2753	1	1
2754	1	1
2755	1	1
2756	1	1
2757	1	1
2758	1	1
2759	1	1
2760	1	1
2761	1	1
2762	1	1
2763	1	1
2764	1	1
2765	1	1
2766	1	1
2767	1	1
2768	1	1
2769	1	1
2770	1	1
2771	1	1
2772	1	1
2773	1	1
2774	1	1
2775	1	1
2776	1	1
2777	1	1
2778	1	1
2779	1	1
2780	1	1
2781	1	1
2782	1	1
2783	1	1
2784	1	1
2785	1	1
2786	1	1
2787	1	1
2788	1	1
2789	1	1
2790	1	1
2791	1	1
2792	1	1
2793	1	1
2794	1	1
2795	1	1
2796	1	1
2797	1	1
2798	1	1
2799	1	1
2800	1	1
2801	1	1
2802	1	1
2803	1	1
2804	1	1
2805	1	1
2806	1	1
2807	1	1
2808	1	1
2809	1	1
2810	1	1
2811	1	1
2812	1	1
2813	1	1
2814	1	1
2815	1	1
2816	1	1
2817	1	1
2818	1	1
2819	1	1
2820	1	1
2821	1	1
2822	1	1
2823	1	1
2824	1	1
2825	1	1
2826	1	1
2827	1	1
2828	1	1
2829	1	1
2830	1	1
2831	1	1
2832	1	1
2833	1	1
2834	1	1
2835	1	1
2836	1	1
2837	1	1
2838	1	1
2839	1	1
2840	1	1
2841	1	1
2842	1	1
2843	1	1
2844	1	1
2845	1	1
2846	1	1
2847	1	1
2848	1	1
2849	1	1
2850	1	1
2851	1	1
2852	1	1
2853	1	1
2854	1	1
2855	1	1
2856	1	1
2857	1	1
2858	1	1
2859	1	1
2860	1	1
2861	1	1
2862	1	1
2863	1	1
2864	1	1
2865	1	1
2866	1	1
2867	1	1
2868	1	1
2869	1	1
2870	1	1
2871	1	1
2872	1	1
2873	1	1
