Site	ColumnScore	SumOfPairsScore
1	0	0
2	0	0
3	0	0
4	0	0
5	0	0
6	0	0
7	0	0
8	0	0
9	0	0
10	0	0
11	0	0
12	0	0
13	0	0
14	0	0
15	0	0
16	0	0
17	0	0
18	0	0
19	0	0
20	0	0
21	0	0
22	0	0
23	0	0
24	0	0
25	0	0
26	0	0
27	0	0
28	0	0
29	0	0
30	0	0
31	0	0
32	0	0
33	0	0
34	0	0
35	0	0
36	0	0
37	0	0
38	0	0
39	0	0
40	0	0
41	0	0
42	0	0
43	0	0
44	0	0
45	0	0
46	0	0
47	0	0
48	0	0
49	0	0
50	0	0
51	0	0
52	0	0
53	0	0
54	0	0
55	0	0
56	0	0
57	0	0
58	0	0
59	0	0
60	0	0
61	0	0
62	0	0
63	0	0
64	0	0
65	0	0
66	0	0
67	0	0
68	0	0
69	0	0.047619
70	0	0.222222
71	0	0.222222
72	0	0.181818
73	0	0.181818
74	0	0.181818
75	0	0.181818
76	0	0.151515
77	0	0.151515
78	0	0.151515
79	0	0.128205
80	0	0.250712
81	0	0.197581
82	0	0.138605
83	0	0.186122
84	0	0.195102
85	0	0.172607
86	0	0.172607
87	0	0.161688
88	0	0.161688
89	0	0.150635
90	0	0.123077
91	0	0.11295
92	0	0.103443
93	0	0.0910476
94	0	0.0910476
95	0	0.0826476
96	0	0.107333
97	0	0.145819
98	0	0.149009
99	0	0.164958
100	0	0.187059
101	0	0.337776
102	0	0.377778
103	0	0.378331
104	0	0.378331
105	0	0.448203
106	0	0.448203
107	0	0.466621
108	0	0.475963
109	0	0.475963
110	0	0.47357
111	0	0.513215
112	0	0.505468
113	0	0.505468
114	0	0.494987
115	0	0.477612
116	0	0.492019
117	0	0.512463
118	0	0.515443
119	0	0.537287
120	0	0.5625
121	0	0.5625
122	0	0.569804
123	0	0.650587
124	0	0.573229
125	0	0.609513
126	0	0.638804
127	0	0.552786
128	0	0.563216
129	0	0.534474
130	0	0.533768
131	0	0.516622
132	0	0.245463
133	0	0.240611
134	0	0.230769
135	0	0.199634
136	0	1
137	0	1
138	0	1
139	0	0.5
140	0	0.5
141	0	0.5
142	0	0.5
143	0	0.5
144	0	0.5
145	0	0.5
146	0	0.5
147	0	0.5
148	0	0.5
149	0	0.5
150	0	0.5
151	0	0.3
152	0	0.3
153	0	0.1
154	0	0.1
155	0	0.1
156	0	0.1
157	0	0.1
158	0	0.1
159	0	0.1
160	0	0.1
161	0	0.1
162	0	0.1
163	0	0.1
164	0	0.1
165	0	0.1
166	0	0.1
167	0	0.1
168	0	0.1
169	0	0.1
170	0	0.1
171	0	0.1
172	0	0.1
173	0	0.1
174	0	0.1
175	0	0.1
176	0	0.1
177	0	0.1
178	0	0.1
179	0	0.1
180	0	0.1
181	0	0.1
182	0	0.1
183	0	0.1
184	0	0.1
185	0	0.1
186	0	0.1
187	0	0.1
188	0	0.1
189	0	0.0666667
190	0	0.0666667
191	0	0.0666667
192	0	0.0666667
193	0	0.0666667
194	0	0.0666667
195	0	0.0666667
196	0	0.0666667
197	0	0.0666667
198	0	0.0666667
199	0	0.0666667
200	0	0.0666667
201	0	0.0666667
202	0	0.0666667
203	0	0.0666667
204	0	0.0666667
205	0	0.0666667
206	0	0.0666667
207	0	0.0666667
208	0	0.0666667
209	0	0.0666667
210	0	0
211	0	0
212	0	0
213	0	0.0666667
214	0	0.0666667
215	0	0.0666667
216	0	0.0666667
217	0	0.0666667
218	0	0.0666667
219	0	0.0666667
220	0	0.0666667
221	0	0.0666667
222	0	0.0666667
223	0	0.0666667
224	0	0.0666667
225	0	0.0666667
226	0	0.0666667
227	0	0.0666667
228	0	0.0666667
229	0	0.0666667
230	0	0.0666667
231	0	0.0666667
232	0	0.0666667
233	0	0.0666667
234	0	0.0666667
235	0	0.0666667
236	0	0.0666667
237	0	0.0666667
238	0	0.0666667
239	0	0.0666667
240	0	0.0666667
241	0	0.0666667
242	0	0.0666667
243	0	0.0666667
244	0	0.0666667
245	0	0.0666667
246	0	0.0666667
247	0	0.0666667
248	0	0.0666667
249	0	0.0666667
250	0	0.0666667
251	0	0.0666667
252	0	0.0666667
253	0	0.0666667
254	0	0.0666667
255	0	0.0666667
256	0	0.0666667
257	0	0.0666667
258	0	0.0666667
259	0	0.0666667
260	0	0.0666667
261	0	0.0666667
262	0	0.0666667
263	0	0.0666667
264	0	0.0666667
265	0	0.0666667
266	0	0.0666667
267	0	0.0666667
268	0	0.0666667
269	0	0.0666667
270	0	0.0666667
271	0	0.0666667
272	0	0.0666667
273	0	0.0666667
274	0	0.0666667
275	0	0.0666667
276	0	0.0666667
277	0	0.0666667
278	0	0
279	0	0
280	0	0
281	0	0
282	0	0
283	0	0
284	0	0
285	0	0
286	0	0
287	0	0
288	0	0
289	0	0
290	0	0
291	0	0
292	0	0
293	0	0
294	0	0
295	0	0
296	0	0
297	0	0
298	0	0
299	0	0
300	0	0
301	0	0
302	0	0
303	0	0
304	0	0
305	0	0
306	0	0
307	0	0
308	0	0
309	0	0
310	0	0
311	0	0
312	0	0.0222222
313	0	0
314	0	0.010989
315	0	0.0457516
316	0	0.52893
317	0	0
318	0	0
319	0	0
320	0	0
321	0	0
322	0	0
323	0	0
324	0	0
325	0	0
326	0	0
327	0	0
328	0	0
329	0	0
330	0	0
331	0	0
332	0	0
333	0	0
334	0	0
335	0	0
336	0	0
337	0	0
338	0	0
339	0	0
340	0	0
341	0	0
342	0	0
343	0	0
344	0	0
345	0	0
346	0	0
347	0	0
348	0	0
349	0	0
350	0	0
351	0	0
352	0	0
353	0	0
354	0	0
355	0	0
356	0	0
357	0	0
358	0	0
359	0	0
360	0	0
361	0	0
362	0	0
363	0	0
364	0	0
365	0	0
366	0	0
367	0	0
368	0	0
369	0	0
370	0	0
371	0	0
372	0	0
373	0	0
374	0	0
375	0	0
376	0	0
377	0	0
378	0	0
379	0	0
380	0	0
381	0	0
382	0	0
383	0	0
384	0	0
385	0	0
386	0	0
387	0	0
388	0	0
389	0	0
390	0	0
391	0	0
392	0	0
393	0	0
394	0	0
395	0	0
396	0	0
397	0	0
398	0	0
399	0	0
400	0	0
401	0	0
402	0	0.47619
403	0	0.460901
404	0	0.508202
405	0	0.476235
406	0	0.414198
407	0	0.36676
408	0	0.352296
409	0	0.243328
410	0	0.228151
411	0	0.182471
412	0	0.126961
413	0	0.11213
414	0	0.122748
415	0	0.104088
416	0	0.0997532
417	0	0.110813
418	0	0.117328
419	0	0.115449
420	0	0.103712
421	0	0
422	0	0
423	0	0
424	0	0
425	0	0
426	0	0
427	0	0
428	0	0
429	0	0
430	0	0
431	0	0
432	0	0
433	0	0
434	0	0
435	0	0
436	0	0
437	0	0
438	0	0
439	0	0
440	0	0
441	0	0
442	0	0
443	0	0
444	0	0
445	0	0
446	0	0
447	0	0
448	0	0.1
449	0	0.1
450	0	0.1
451	0	0.1
452	0	0.1
453	0	0.1
454	0	0.0666667
455	0	0.0666667
456	0	0.0666667
457	0	0.047619
458	0	0.047619
459	0	0.047619
460	0	0.047619
461	0	0.047619
462	0	0.047619
463	0	0.047619
464	0	0.047619
465	0	0.0357143
466	0	0.0357143
467	0	0.0357143
468	0	0.0357143
469	0	0.0357143
470	0	0.0357143
471	0	0.0357143
472	0	0.0277778
473	0	0.0277778
474	0	0.0277778
475	0	0.0363636
476	0	0.0363636
477	0	0.030303
478	0	0.025641
479	0	0.0166667
480	0	0.0166667
481	0	0.0166667
482	0	0.0175439
483	0	0.0157895
484	0	0.0217391
485	0	0.02
486	0	0.034188
487	0	0.031746
488	0	0.0215054
489	0	0.0181452
490	0	0.0151515
491	0	0.0184874
492	0	0.0170697
493	0	0.0170697
494	0	0.0199147
495	0	0.039778
496	0	0.0365646
497	0	0.0370102
498	0	0.0337662
499	0	0.0320629
500	0	0.0391327
501	0	0.0365385
502	0	0.0346795
503	0	0.0352782
504	0	0.0414079
505	0	0.0339545
506	0	0.0313883
507	0	0.0309077
508	0	0.0302703
509	0	0.0433161
510	0	0.0424077
511	0	0.040293
512	0	0.0376344
513	0	0.0382064
514	0	0.0423244
515	0	0.0512469
516	0	0.0730241
517	0	0.0712871
518	0	0.0802328
519	0	0.088785
520	0	0.11036
521	0	0.180252
522	0	0.251401
523	0	0.404177
524	0	0.381924
525	0	0.389428
526	0	0.450372
527	0	0.434594
528	0	0.236074
529	0	0.177489
530	0	0.18096
531	0	0.6
532	0	0.6
533	0	0.266667
534	0	0.266667
535	0	0.290909
536	0	0.290909
537	0	0.205128
538	0	0.190476
539	0	0.175
540	0	0.154412
541	0	0.386243
542	0	0.411219
543	0	0.451623
544	0	0.554307
545	0	0.585984
546	0	0.49592
547	0	0.17206
548	0	0.178451
549	0	0.141696
550	0	0.141414
551	0	0.278699
552	0	0.483334
553	0	0.190476
554	0	0
555	0	0
556	0	0.659433
557	0	0.673191
558	0	0.67312
559	0	0.673014
560	0	0.846154
561	0	0.681818
562	0	0
563	0	0
564	0	0
565	0	0
566	0	0
567	0	0
568	0	0
569	0	0
570	0	0
571	0	0
572	0	0
573	0	0
574	0	0
575	0	0
576	0	0
577	0	0
578	0	0
579	0	0
580	0	0
581	0	0
582	0	0
583	0	0
584	0	0
585	0	0
586	0	0
587	0	0
588	0	0
589	0	0
590	0	0
591	0	0
592	0	0.550757
593	0	0.482156
594	0	0.486118
595	0	0.423997
596	0	0.228599
597	0	0.214117
598	0	0.150898
599	0	0.106808
600	0	0.080236
601	0	0.183333
602	0	0.0757576
603	0	0.0666667
604	0	0.0666667
605	0	0.0666667
606	0	0.0666667
607	0	0.0666667
608	0	0.0666667
609	0	0.0666667
610	0	0.0666667
611	0	0.0666667
612	0	0.047619
613	0	0.047619
614	0	0.047619
615	0	0.166667
616	0	0.125776
617	0	0.125203
618	0	0.137393
619	0	0.152318
620	0	0.175286
621	0	0.227907
622	0	0.232068
623	0	0.127628
624	0	0.192118
625	0	0.143791
626	0	0.152381
627	0	0.0357143
628	0	0.0666667
629	0	0.0666667
630	0	0.2
631	0	0
632	0	0
633	0	0
634	0	0
635	0	0
636	0	0
637	0	0
638	0	0
639	0	0
640	0	0
641	0	0
642	0	0
643	0	0
644	0	0
645	0	0
646	0	0
647	0	0
648	0	0
649	0	0
650	0	0
651	0	0.265185
652	0	0.278056
653	0	0.278836
654	0	0.282452
655	0	0.235739
656	0	0.244797
657	0	0.260352
658	0	0.266609
659	0	0.21991
660	0	0
661	0	0
662	0	0
663	0	0
664	0	0
665	0	0
666	0	0
667	0	0
668	0	0
669	0	0
670	0	0
671	0	0
672	0	0.3
673	0	0.34
674	0	0.319149
675	0	0.263816
676	0	0.184799
677	0	0.201688
678	0	0.179331
679	0	0.366791
680	0	0.625442
681	0	0.161905
682	0	0.202614
683	0	0.637036
684	0	0.75202
685	0	0
686	0	0
687	0	0
688	0	0
689	0	0
690	0	0.871066
691	0	0.871066
692	0	0.870546
693	0	0.863226
694	0	0.840125
695	0	0.839485
696	0	0.478487
697	0	0
698	0	0
699	0	0
700	0	0
701	0	0.872131
702	0	0.872131
703	0	0.932788
704	0	0.681818
705	0	0.644444
706	0	0
707	0	0
708	0	0
709	0	0
710	0	0
711	0	0.3
712	0	0.3
713	0	0.535714
714	0	0.389668
715	0	0.38477
716	0	0.327273
717	0	0.272727
718	0	0.230769
719	0	0.228571
720	0	0.0980392
721	0	0.0833333
722	0	0.0825397
723	0	0.102745
724	0	0.138629
725	0	0.118516
726	0	0.107364
727	0	0.114226
728	0	0.160587
729	0	0.18346
730	0	0.197709
731	0	0.364903
732	0	0.451556
733	0	0.515106
734	0	0.903887
735	0	0.951528
736	0	0.951528
737	0	0.951528
738	0	0.951528
739	0	0.951528
740	0	0.951528
741	0	0.935831
742	0	0.935831
743	0	0.835253
744	0	0.809388
745	0	0.445209
746	0	0.323509
747	0	0.297036
748	0	0.311224
749	0	0.344609
750	0	0.403509
751	0	0.45873
752	0	0.442017
753	0	0.442017
754	0	0.496212
755	0	0.25
756	0	0.321429
757	0	0.333333
758	0	0.333333
759	0	0.466667
760	0	0.466667
761	0	0.466667
762	0	0.4
763	0	0.4
764	0	0.4
765	0	0.4
766	0	0.4
767	0	0.4
768	0	0.4
769	0	0.4
770	0	0.266667
771	0	0.5
772	0	0
773	0	0
774	0	0
775	0	0
776	0	0
777	0	0
778	0	0
779	0	0
780	0	0
781	0	0
782	0	0.242756
783	0	0.284495
784	0	0.660613
785	0	0.660273
786	0	0.673675
787	0	0
788	0	0
789	0	0
790	0	0
791	0	0.571679
792	0	0.580882
793	0	0.333333
794	0	0.700628
795	0	0.700662
796	0	0.700662
797	0	0.694895
798	0	0.694895
799	0	0.644186
800	0	1
801	0	1
802	0	0.5
803	0	0.729345
804	0	0.729345
805	0	0.552258
806	0	0.576055
807	0	0.608203
808	0	0.608203
809	0	0.57009
810	0	0.57009
811	0	0.166667
812	0	0.632363
813	0	0.605578
814	0	0.54631
815	0	0.295724
816	0	0.227286
817	0	0.192673
818	0	0.183403
819	0	0.17718
820	0	0.20592
821	0	0
822	0	0
823	0	0
824	0	0
825	0	0
826	0	0.5
827	0	0.333333
828	0	0.333333
829	0	0.236364
830	0	0.27619
831	0	0.251082
832	0	0.194581
833	0	0.181452
834	0	0.301578
835	0	0.291525
836	0	0.261137
837	0	0.178378
838	0	0.169515
839	0	0.16196
840	0	0.15634
841	0	0.148881
842	0	0.145938
843	0	0.140903
844	0	0.140356
845	0	0.292208
846	0	0.292208
847	0	0.294156
848	0	0.35119
849	0	0.393324
850	0	0.17606
851	0	0.457255
852	0	0.480783
853	0	0.525424
854	0	0.447842
855	0	0.460334
856	0	0.24119
857	0	0
858	0	0
859	0	0
860	0	0
861	0	0
862	0	0.223485
863	0	0.214015
864	0	0.217469
865	0	0.226381
866	0	0.226768
867	0	0.328455
868	0	0.336134
869	0	0
870	0	0
871	0	0.333333
872	0	0.846154
873	0	0.846154
874	0	1
875	0	0.784314
876	0	0.357117
877	0	0.350196
878	0	0.438901
879	0	0.441179
880	0	0.42914
881	0	0.495798
882	0	0.495798
883	0	0.508259
884	0	0.44857
885	0	0.407192
886	0	0.453783
887	0	0
888	0	0
889	0	0.810526
890	0	0.606061
891	0	0.323864
892	0	0.27619
893	0	0.213705
894	0	0.321719
895	0	0.616279
896	0	0.52299
897	0	0.990991
898	0	0.991803
899	0	0.991803
900	0	0.991803
901	0	0.991803
902	0	0.991803
903	0	0.991803
904	0	0.943669
905	0	0.951468
906	0	0.974614
907	0	0.4527
908	0	0.353367
909	0	1
910	0	0.355819
911	0	0.65575
912	0	0.33371
913	0	0
914	0	0.714286
915	0	0.381818
916	0	0.342365
917	0	0.479976
918	0	0.530496
919	0	0.795947
920	0	0.931778
921	0	0.931778
922	0	0.931778
923	0	0
924	0	0.853167
925	0	0.853167
926	0	0.658875
927	0	0.624775
928	0	0.904158
929	0	1
930	0	1
931	0	0.335054
932	0	0.335054
933	0	0.335054
934	0	0
935	0	0.654545
936	0	0.426316
937	0	0.238916
938	0	0.341474
939	0	0.224848
940	0	0.173065
941	0	0.299402
942	0	0.30065
943	0	0.412031
944	0	0.375353
945	0	0.371768
946	0	0.372403
947	0	0.371638
948	0	0.37377
949	0	0.420174
950	0	0.522026
951	0	0.877016
952	0	0
953	0	0
954	0	0.7504
955	0	0.771826
956	0	0
957	0	0
958	0	0
959	0	0
960	0	0
961	0	0.799485
962	0	0.394928
963	0	0.796517
964	0	0.500493
965	0	0.485869
966	0	0.49767
967	0	0.6
968	0	0.3
969	0	0.983607
970	0	0.967615
971	0	0.977403
972	1	1
973	1	1
974	1	1
975	1	1
976	1	1
977	1	1
978	1	1
979	1	1
980	1	1
981	1	1
982	1	1
983	1	1
984	1	1
985	1	1
986	1	1
987	1	1
988	0	1
989	0	0.649955
990	0	0.649955
991	0	0.649955
992	0	1
993	0	0.762846
994	0	0.510558
995	0	0.341398
996	0	0
997	0	0
998	0	0
999	0	0
1000	0	0
1001	0	0.329723
1002	0	1
1003	0	0.355556
1004	0	0.306839
1005	0	0.225305
1006	0	0.280208
1007	0	0.196669
1008	0	0
1009	0	0.142857
1010	0	0.305556
1011	0	0.282051
1012	0	0.431232
1013	0	0.535359
1014	0	0.369272
1015	0	0.367861
1016	0	0.410927
1017	0	0.490768
1018	0	0.509886
1019	0	1
1020	0	1
1021	1	1
1022	1	1
1023	1	1
1024	1	1
1025	1	1
1026	1	1
1027	1	1
1028	1	1
1029	1	1
1030	1	1
1031	1	1
1032	1	1
1033	1	1
1034	1	1
1035	1	1
1036	1	1
1037	1	1
1038	1	1
1039	1	1
1040	1	1
1041	1	1
1042	1	1
1043	1	1
1044	1	1
1045	0	1
1046	0	0.808776
1047	0	0.587457
1048	0	0.620881
1049	0	0.405933
1050	0	0.386056
1051	0	0.851598
1052	0	0.858988
1053	1	1
1054	1	1
1055	1	1
1056	1	1
1057	1	1
1058	1	1
1059	1	1
1060	1	1
1061	1	1
1062	1	1
1063	1	1
1064	1	1
1065	1	1
1066	1	1
1067	1	1
1068	1	1
1069	0	0
1070	0	0
1071	0	0
1072	0	0
1073	0	0
1074	1	0
1075	1	0
1076	0	0
1077	0	0
1078	0	0
1079	0	0
1080	0	0.333333
1081	1	1
1082	1	1
1083	1	1
1084	1	1
1085	1	1
1086	0	0.498792
1087	1	1
1088	1	1
1089	1	1
1090	1	1
1091	1	1
1092	1	1
1093	0	0.984064
1094	0	1
1095	0	1
1096	0	0.650956
1097	0	0.650956
1098	0	0
1099	0	0.5
1100	0	0.617327
1101	0	0.612348
1102	0	0.618421
1103	0	0.600398
1104	0	1
1105	0	0.595216
1106	0	0.965334
1107	0	0.974397
1108	0	0.976129
1109	0	0.976129
1110	0	0.991935
1111	0	1
1112	0	1
1113	1	1
1114	1	1
1115	1	1
1116	1	1
1117	1	1
1118	1	1
1119	1	1
1120	1	1
1121	1	1
1122	1	1
1123	1	1
1124	1	1
1125	1	1
1126	1	1
1127	0	1
1128	1	1
1129	1	1
1130	1	1
1131	1	1
1132	1	1
1133	1	1
1134	1	1
1135	1	1
1136	1	1
1137	1	1
1138	1	1
1139	1	1
1140	1	1
1141	1	1
1142	0	0.992
1143	1	1
1144	1	1
1145	1	1
1146	1	1
1147	1	1
1148	1	1
1149	1	1
1150	1	1
1151	1	1
1152	1	1
1153	1	1
1154	1	1
1155	1	1
1156	1	1
1157	1	1
1158	1	1
1159	1	1
1160	1	1
1161	1	1
1162	0	0.992
1163	0	0.693462
1164	0	0.691984
1165	0	0.311375
1166	0	0
1167	0	0.363421
1168	0	0.407357
1169	0	0.333333
1170	0	0.676558
1171	0	1
1172	0	1
1173	0	1
1174	0	0.984032
1175	0	0.984032
1176	0	0.984032
1177	0	1
1178	0	0.825678
1179	0	0.711712
1180	0	0.618374
1181	1	0
1182	1	0
1183	1	0
1184	0	1
1185	0	1
1186	0	0.905651
1187	0	0.707472
1188	0	0.595688
1189	0	0.710072
1190	0	0.717094
1191	0	0.901012
1192	0	0.901012
1193	0	1
1194	1	1
1195	1	1
1196	1	1
1197	1	1
1198	1	1
1199	1	1
1200	1	1
1201	1	1
1202	1	1
1203	1	1
1204	1	1
1205	1	1
1206	1	1
1207	1	1
1208	1	1
1209	1	1
1210	1	1
1211	1	1
1212	1	1
1213	1	1
1214	1	1
1215	1	1
1216	1	1
1217	1	1
1218	1	1
1219	1	1
1220	1	1
1221	1	1
1222	1	1
1223	1	1
1224	1	1
1225	1	1
1226	1	1
1227	1	1
1228	1	1
1229	1	1
1230	1	1
1231	1	1
1232	1	1
1233	1	1
1234	1	1
1235	1	1
1236	1	1
1237	1	1
1238	1	1
1239	1	1
1240	1	1
1241	1	1
1242	1	1
1243	1	1
1244	1	1
1245	1	1
1246	1	1
1247	1	1
1248	1	1
1249	1	1
1250	1	1
1251	1	1
1252	1	1
1253	1	1
1254	1	1
1255	1	1
1256	1	1
1257	1	1
1258	1	1
1259	1	1
1260	1	1
1261	1	1
1262	1	1
1263	1	1
1264	1	1
1265	1	1
1266	1	1
1267	1	1
1268	1	1
1269	1	1
1270	1	1
1271	1	1
1272	1	1
1273	1	1
1274	1	1
1275	1	1
1276	1	1
1277	1	1
1278	1	1
1279	1	1
1280	1	1
1281	1	1
1282	1	1
1283	1	1
1284	1	1
1285	1	1
1286	1	1
1287	1	1
1288	1	1
1289	1	1
1290	1	1
1291	1	1
1292	1	1
1293	1	1
1294	1	1
1295	1	1
1296	1	1
1297	1	1
1298	1	1
1299	0	0.992
1300	0	0.992
1301	0	0
1302	0	0
1303	0	0
1304	0	0
1305	0	0.4
1306	0	0.397436
1307	0	0.406897
1308	0	0.316562
1309	0	0.613098
1310	0	0.613098
1311	0	0.615041
1312	0	1
1313	0	1
1314	0	0.166667
1315	0	0.1
1316	0	0.047619
1317	0	0.047619
1318	0	0.047619
1319	0	0.047619
1320	0	0.047619
1321	0	0.142857
1322	0	0.142857
1323	0	0.205128
1324	0	0.191176
1325	0	0.191176
1326	0	0.168421
1327	0	0.326316
1328	0	0.304965
1329	0	0.211295
1330	0	0.298907
1331	0	0.328266
1332	0	0.310105
1333	0	0.406069
1334	0	0.333333
1335	0	0.333333
1336	0	0.333333
1337	0	0.431695
1338	0	0.506769
1339	0	0.506769
1340	0	0
1341	0	0.508358
1342	0	0.882983
1343	0	0.882983
1344	0	0.86052
1345	0	0.860846
1346	0	0
1347	0	0.363636
1348	0	0.872998
1349	0	0.74977
1350	0	0.627876
1351	0	0.636266
1352	0	0.649372
1353	0	0.649372
1354	1	1
1355	0	1
1356	0	0.991968
1357	0	0.991968
1358	0	0.991968
1359	0	0.991968
1360	0	0.991968
1361	0	0.991968
1362	0	0
1363	0	0
1364	0	0.864782
1365	0	0
1366	1	0
1367	1	0
1368	1	0
1369	1	0
1370	1	0
1371	1	0
1372	0	0
1373	0	0.992
1374	1	1
1375	1	1
1376	1	1
1377	1	1
1378	1	1
1379	1	1
1380	1	1
1381	1	1
1382	1	1
1383	1	1
1384	1	1
1385	1	1
1386	1	1
1387	1	1
1388	1	1
1389	1	1
1390	1	1
1391	1	1
1392	1	1
1393	1	1
1394	1	1
1395	1	1
1396	1	1
1397	1	1
1398	1	1
1399	1	1
1400	1	1
1401	1	1
1402	1	1
1403	1	1
1404	1	1
1405	1	1
1406	1	1
1407	1	1
1408	1	1
1409	1	1
1410	1	1
1411	1	1
1412	1	1
1413	1	1
1414	1	1
1415	1	1
1416	1	1
1417	1	1
1418	1	1
1419	1	1
1420	1	1
1421	1	1
1422	1	1
1423	1	1
1424	1	1
1425	1	1
1426	1	1
1427	1	1
1428	1	1
1429	1	1
1430	1	1
1431	1	1
1432	1	1
1433	1	1
1434	1	1
1435	1	1
1436	1	1
1437	1	1
1438	1	1
1439	1	1
1440	1	1
1441	1	1
1442	1	1
1443	1	1
1444	0	0.922345
1445	0	0
1446	0	0.87455
1447	0	0.929436
1448	0	0.861925
1449	0	1
1450	0	0.677419
1451	0	0.395928
1452	0	0.355556
1453	0	0.316416
1454	0	0.295733
1455	0	0.270621
1456	0	0.234426
1457	0	0.176744
1458	0	0.150075
1459	0	0.166974
1460	0	0.122495
1461	0	0.0947871
1462	0	0.0892038
1463	0	0.0555556
1464	0	0.0555556
1465	0	0.0555556
1466	0	0.164894
1467	0	0.156108
1468	0	0
1469	0	0
1470	0	0.327273
1471	0	0
1472	0	0
1473	0	0
1474	0	0
1475	0	0.705128
1476	0	0.705128
1477	0	0.466667
1478	0	0.366013
1479	0	0.201016
1480	0	0.209644
1481	0	0.227273
1482	0	0.164103
1483	0	0.161654
1484	0	0.145482
1485	0	0.160872
1486	0	0.213207
1487	0	0.244434
1488	0	0.2
1489	0	0.121053
1490	0	0.131907
1491	0	0.15942
1492	0	0.372139
1493	0	0.367347
1494	0	0
1495	0	0
1496	0	0.133333
1497	0	0.133333
1498	0	0.166667
1499	0	0.166667
1500	0	0.252747
1501	0	0.32971
1502	0	0.583333
1503	0	0.466667
1504	0	0.34899
1505	0	0.521961
1506	0	0.880369
1507	0	0.983806
1508	0	1
1509	1	1
1510	1	1
1511	1	1
1512	1	1
1513	1	1
1514	1	1
1515	1	1
1516	1	1
1517	1	1
1518	1	1
1519	1	1
1520	1	1
1521	1	1
1522	1	1
1523	1	1
1524	1	1
1525	1	1
1526	1	1
1527	1	1
1528	1	1
1529	1	1
1530	1	1
1531	0	1
1532	0	1
1533	0	0
1534	0	0
1535	0	0
1536	0	0
1537	0	0
1538	0	0
1539	0	0
1540	0	0.5
1541	0	0.5
1542	0	0.967648
1543	0	0.967648
1544	0	0.951263
1545	0	0.4
1546	0	0.904683
1547	0	0.496448
1548	0	0.28933
1549	0	1
1550	0	0.450602
1551	0	0.953501
1552	0	1
1553	1	1
1554	1	1
1555	1	1
1556	1	1
1557	0	1
1558	0	1
1559	0	1
1560	0	1
1561	0	1
1562	1	1
1563	0	0.992
1564	0	0.992
1565	0	0.992
1566	0	0.992
1567	0	0.992
1568	1	1
1569	1	1
1570	0	1
1571	0	1
1572	0	1
1573	0	1
1574	0	1
1575	0	1
1576	1	1
1577	1	1
1578	1	1
1579	1	1
1580	0	0.5
1581	0	0.5
1582	0	0.5
1583	0	0.5
1584	0	0.5
1585	0	0.5
1586	0	0.5
1587	0	0.5
1588	0	0.5
1589	0	0.5
1590	0	0.5
1591	0	0.5
1592	0	0.5
1593	0	0.4
1594	0	0.4
1595	0	0.4
1596	0	0.4
1597	0	0.4
1598	0	0.5
1599	0	0.5
1600	0	0
1601	0	0
1602	0	0
1603	0	0
1604	0	0
1605	0	0
1606	0	0
1607	1	0
1608	1	0
1609	1	0
1610	1	0
1611	0	0
1612	0	0
1613	0	0
1614	0	0
1615	0	0
1616	0	0
1617	0	0
1618	0	0
1619	1	0
1620	1	0
1621	1	0
