Site	ColumnScore	SumOfPairsScore
1	1	0
2	1	0
3	1	0
4	1	0
5	1	0
6	1	0
7	1	0
8	1	0
9	1	0
10	1	0
11	1	0
12	1	0
13	1	0
14	1	0
15	1	0
16	1	0
17	1	0
18	1	0
19	1	0
20	1	0
21	1	0
22	1	0
23	1	0
24	1	0
25	1	0
26	1	0
27	1	0
28	1	0
29	1	0
30	1	0
31	1	0
32	1	0
33	1	0
34	1	0
35	1	0
36	1	0
37	1	0
38	1	0
39	1	0
40	1	0
41	1	0
42	1	0
43	1	0
44	1	0
45	1	0
46	1	0
47	1	0
48	1	0
49	1	0
50	1	0
51	1	0
52	1	0
53	1	0
54	1	0
55	1	0
56	1	0
57	1	0
58	1	0
59	1	0
60	1	0
61	1	0
62	1	0
63	1	0
64	1	0
65	1	0
66	1	0
67	1	0
68	1	0
69	1	0
70	1	0
71	1	0
72	1	0
73	1	0
74	1	0
75	1	0
76	1	0
77	1	0
78	1	0
79	1	0
80	1	0
81	1	0
82	1	0
83	1	0
84	1	0
85	1	0
86	1	0
87	1	0
88	1	0
89	1	0
90	1	0
91	1	0
92	1	0
93	1	0
94	1	0
95	1	0
96	1	0
97	1	0
98	1	0
99	1	0
100	1	0
101	1	0
102	1	0
103	1	0
104	1	0
105	1	0
106	1	0
107	1	0
108	1	0
109	1	0
110	1	0
111	1	0
112	1	0
113	1	0
114	1	0
115	1	0
116	1	0
117	1	0
118	1	0
119	1	0
120	1	0
121	1	0
122	1	0
123	1	0
124	1	0
125	1	0
126	1	0
127	1	0
128	1	0
129	1	0
130	1	0
131	1	0
132	1	0
133	1	0
134	1	0
135	1	0
136	1	0
137	1	0
138	1	0
139	1	0
140	1	0
141	1	0
142	1	0
143	1	0
144	1	0
145	1	0
146	1	0
147	1	0
148	1	0
149	1	0
150	1	0
151	1	0
152	1	0
153	1	0
154	1	0
155	1	0
156	1	0
157	1	0
158	1	0
159	1	0
160	1	0
161	1	0
162	1	0
163	1	0
164	1	0
165	1	0
166	1	0
167	1	0
168	1	0
169	1	0
170	1	0
171	1	0
172	1	0
173	1	0
174	1	0
175	1	0
176	1	0
177	1	0
178	1	0
179	1	0
180	1	0
181	1	0
182	1	0
183	1	0
184	1	0
185	1	0
186	1	0
187	1	0
188	1	0
189	1	0
190	1	0
191	1	0
192	1	0
193	1	0
194	1	0
195	1	0
196	1	0
197	1	0
198	1	0
199	1	0
200	1	0
201	1	0
202	1	0
203	1	0
204	1	0
205	1	0
206	1	0
207	1	0
208	1	0
209	1	0
210	1	0
211	1	0
212	1	0
213	1	0
214	1	0
215	1	0
216	1	0
217	1	0
218	1	0
219	1	0
220	1	0
221	1	0
222	1	0
223	1	0
224	1	0
225	1	0
226	1	0
227	1	0
228	1	0
229	1	0
230	1	0
231	1	0
232	1	0
233	1	0
234	1	0
235	1	0
236	1	0
237	1	0
238	1	0
239	1	0
240	1	0
241	1	0
242	1	0
243	1	0
244	1	0
245	1	0
246	1	0
247	1	0
248	1	0
249	1	0
250	1	0
251	1	0
252	1	0
253	1	0
254	1	0
255	1	0
256	1	0
257	1	0
258	1	0
259	1	0
260	1	0
261	1	0
262	1	0
263	1	0
264	1	0
265	1	0
266	1	0
267	1	0
268	1	0
269	1	0
270	1	0
271	1	0
272	1	0
273	1	0
274	1	0
275	1	0
276	1	0
277	1	0
278	1	0
279	1	0
280	1	0
281	1	0
282	1	0
283	1	0
284	1	0
285	1	0
286	1	0
287	1	0
288	1	0
289	1	0
290	1	0
291	1	0
292	1	0
293	1	0
294	1	0
295	1	0
296	1	0
297	1	0
298	1	0
299	1	0
300	1	0
301	1	0
302	1	0
303	1	0
304	1	0
305	1	0
306	1	0
307	1	0
308	1	0
309	1	0
310	1	0
311	1	0
312	1	0
313	1	0
314	1	0
315	1	0
316	1	0
317	1	0
318	1	0
319	1	0
320	1	0
321	1	0
322	1	0
323	1	0
324	1	0
325	1	0
326	1	0
327	1	0
328	1	0
329	1	0
330	1	0
331	1	0
332	1	0
333	1	0
334	1	0
335	1	0
336	1	0
337	1	0
338	1	0
339	1	0
340	1	0
341	1	0
342	1	0
343	1	0
344	1	0
345	1	0
346	1	0
347	1	0
348	1	0
349	1	0
350	1	0
351	1	0
352	1	0
353	1	0
354	1	0
355	1	0
356	1	0
357	1	0
358	1	0
359	1	0
360	1	0
361	1	0
362	1	0
363	1	0
364	1	0
365	1	0
366	1	0
367	1	0
368	1	0
369	1	0
370	1	0
371	1	0
372	1	0
373	1	0
374	1	0
375	1	0
376	1	0
377	1	0
378	1	0
379	1	0
380	1	0
381	1	0
382	1	0
383	1	0
384	0	0
385	0	0
386	0	0
387	0	0
388	0	0
389	0	0
390	0	0
391	1	0
392	1	0
393	1	0
394	1	0
395	1	0
396	1	0
397	1	0
398	1	0
399	1	0
400	1	0
401	1	0
402	1	0
403	1	0
404	0	0
405	0	0
406	0	0
407	0	0
408	0	0
409	0	0
410	0	0
411	0	0
412	0	0
413	0	0
414	0	0
415	0	0
416	0	0
417	0	0
418	0	0
419	0	0
420	0	0.333333
421	0	0.333333
422	0	0.333333
423	0	0.333333
424	0	0.333333
425	0	0.333333
426	0	0.333333
427	0	0.333333
428	0	0.333333
429	0	0.333333
430	0	0.333333
431	0	0.333333
432	0	0.333333
433	0	0.333333
434	0	0.333333
435	0	0.333333
436	0	0.333333
437	0	0.333333
438	0	0.333333
439	0	0.333333
440	0	0.333333
441	0	0.333333
442	0	0.333333
443	0	0.333333
444	0	0.166667
445	0	0.166667
446	0	0.166667
447	0	0.166667
448	0	0.166667
449	0	0.166667
450	0	0.166667
451	0	0.166667
452	0	0.166667
453	0	0.166667
454	0	0.166667
455	0	0.166667
456	0	0.166667
457	0	0.166667
458	0	0.166667
459	0	0.166667
460	0	0.166667
461	0	0.166667
462	0	0.166667
463	0	0.166667
464	0	0.5
465	0	0.5
466	0	0.5
467	0	0.5
468	0	0.5
469	0	0.5
470	0	0.5
471	0	0.5
472	0	0.5
473	0	0.5
474	0	0.5
475	0	0.5
476	0	0.5
477	0	0.5
478	0	0.5
479	0	0.5
480	1	1
481	1	1
482	1	1
483	1	1
484	1	1
485	1	1
486	1	1
487	1	1
488	1	1
489	0	1
490	0	0.991803
491	0	0.991935
492	0	0.991935
493	0	0.991935
494	0	0
495	0	1
496	0	1
497	0	0.991968
498	0	0.991968
499	1	1
500	1	1
501	1	1
502	1	1
503	1	1
504	1	1
505	1	1
506	1	1
507	1	1
508	1	1
509	1	1
510	1	1
511	1	1
512	1	1
513	1	1
514	1	1
515	1	1
516	1	1
517	1	1
518	1	1
519	1	1
520	1	1
521	1	1
522	1	1
523	1	1
524	1	1
525	1	0
526	1	1
527	1	1
528	1	1
529	1	1
530	1	1
531	1	1
532	1	1
533	1	1
534	1	1
535	1	1
536	1	1
537	1	1
538	1	1
539	1	1
540	1	1
541	1	1
542	1	1
543	1	1
544	1	1
545	1	1
546	1	1
547	1	1
548	1	1
549	1	1
550	1	1
551	0	1
552	1	1
553	1	1
554	1	1
555	1	1
556	1	1
557	1	1
558	1	1
559	1	1
560	0	0.838256
561	1	1
562	1	1
563	1	1
564	1	1
565	1	1
566	1	1
567	1	1
568	1	1
569	1	1
570	1	1
571	1	1
572	1	1
573	1	1
574	1	1
575	1	1
576	1	1
577	1	1
578	1	1
579	1	1
580	1	1
581	1	1
582	1	1
583	1	1
584	1	1
585	1	1
586	1	1
587	1	1
588	1	1
589	1	1
590	1	1
591	1	1
592	1	1
593	1	1
594	1	1
595	1	1
596	1	1
597	1	1
598	1	1
599	1	1
600	1	1
601	1	1
602	0	0
603	0	0.882353
604	0	0.663557
605	0	0.991968
606	0	0.992
607	0	0.992
608	0	0.992
609	0	0.945157
610	0	0
611	0	0
612	0	0
613	0	1
614	1	1
615	1	1
616	1	1
617	1	1
618	1	1
619	1	1
620	1	1
621	1	1
622	1	1
623	1	1
624	0	0
625	0	0.991968
626	0	0
627	0	0
628	0	0
629	0	0.4
630	0	0.25
631	0	0.25
632	0	0.345455
633	0	0.526316
634	0	0.36881
635	0	0.291742
636	0	0.231017
637	0	0.446008
638	0	0.984064
639	1	1
640	1	1
641	1	1
642	1	1
643	1	1
644	1	1
645	1	1
646	1	1
647	1	1
648	1	1
649	1	1
650	1	1
651	1	1
652	1	1
653	1	1
654	1	1
655	1	1
656	1	1
657	1	1
658	1	1
659	1	1
660	1	1
661	1	1
662	1	1
663	1	1
664	1	1
665	1	1
666	1	1
667	1	1
668	1	1
669	1	1
670	1	1
671	1	1
672	1	1
673	1	1
674	1	1
675	1	1
676	1	1
677	1	1
678	1	1
679	1	1
680	1	1
681	1	1
682	1	1
683	1	1
684	1	1
685	1	1
686	1	1
687	1	1
688	1	1
689	1	1
690	1	1
691	1	1
692	1	1
693	1	1
694	1	1
695	1	1
696	1	1
697	1	1
698	1	1
699	1	1
700	1	1
701	1	1
702	1	1
703	1	1
704	1	1
705	1	1
706	1	1
707	1	1
708	1	1
709	1	1
710	1	1
711	1	1
712	1	1
713	1	1
714	1	1
715	1	1
716	0	0
717	0	0
718	0	0
719	0	0
720	0	0
721	0	0
722	0	0
723	0	0
724	0	0
725	0	0
726	0	0
727	0	0
728	1	0
729	1	0
730	1	0
731	1	0
732	1	0
733	1	0
734	1	0
735	1	0
736	1	0
737	1	0
738	1	0
739	1	0
740	1	0
741	1	0
742	1	0
743	1	0
744	1	0
745	0	0
746	0	0
747	0	0
748	0	0
749	0	0
750	0	0
751	0	0
752	0	0
753	0	0
754	0	0
755	0	0
756	0	0
757	0	0
758	0	0
759	0	0
760	0	0
761	0	0
762	0	0
763	0	0
764	0	0
765	0	0
766	0	0.983904
767	0	0
768	0	0
769	0	0
770	0	0
771	0	0
772	0	0
773	0	0
774	0	0
775	0	0
776	0	1
777	0	1
778	0	0.333333
779	0	0.333333
780	0	0.419118
781	0	0.419118
782	0	0.419118
783	0	0.419118
784	0	0.485294
785	0	0.485294
786	0	0.485294
787	0	0.485294
788	0	1
789	0	1
790	0	1
791	0	1
792	0	1
793	0	1
794	0	1
795	0	1
796	0	1
797	0	1
798	0	1
799	0	1
800	0	1
801	1	1
802	1	1
803	1	1
804	1	1
805	0	1
806	0	1
807	0	1
808	0	1
809	0	1
810	0	1
811	0	1
812	0	1
813	0	1
814	0	1
815	0	1
816	0	1
817	0	1
818	0	1
819	0	1
820	0	1
821	0	1
822	0	1
823	0	1
824	0	1
825	0	1
826	0	1
827	0	1
828	0	1
829	0	1
830	0	1
831	0	1
832	0	1
833	0	1
834	0	1
835	0	1
836	0	1
837	0	1
838	0	1
839	0	1
840	0	1
841	0	1
842	0	1
843	0	1
844	0	1
845	0	1
846	0	1
847	0	1
848	0	1
849	0	1
850	0	1
851	0	1
852	0	1
853	0	1
854	0	1
855	0	1
856	0	1
857	0	1
858	0	1
859	0	1
860	0	1
861	0	0.779412
862	0	0.882353
863	0	0.882353
864	0	0.882353
865	0	0.882353
866	0	0.882353
867	0	0.882353
868	0	0.882353
869	0	0.882353
870	0	1
871	0	1
872	0	1
873	0	1
874	0	1
875	0	0.4
876	0	0.277778
877	0	0.611111
878	0	0.611111
879	0	0.611111
880	0	0.611111
881	0	0.308333
882	0	0.408333
883	0	0.408333
884	0	0.408333
885	0	0.367647
886	0	0.367647
887	0	0.367647
888	0	0.367647
889	0	0.410256
890	0	0.410256
891	0	0.410256
892	0	0.410256
893	0	0.367647
894	0	0.367647
895	0	0.367647
896	0	0.367647
897	0	0.367647
898	0	0.367647
899	0	0.485294
900	0	0.882353
901	1	1
902	1	1
903	1	1
904	0	1
905	1	1
906	1	1
907	1	1
908	1	1
909	1	1
910	1	1
911	1	1
912	1	1
913	1	1
914	1	1
915	1	1
916	1	1
917	1	1
918	1	1
919	1	1
920	0	0.485294
921	0	0.485294
922	0	0.485294
923	0	0.485294
924	0	0.485294
925	0	0.485294
926	0	0.485294
927	0	0.485294
928	0	0.466667
929	0	0.533333
930	0	0.563636
931	0	0.294118
932	0	0.323529
933	0	0.323529
934	0	0.470588
935	0	0.470588
936	0	0.470588
937	0	0.470588
938	0	0.470588
939	0	0.475
940	0	0.475
941	0	1
942	0	0.56044
943	0	0.56044
944	0	0.580952
945	0	0.455882
946	0	0.5
947	0	0.882353
948	0	0.882353
949	1	1
950	1	1
951	1	1
952	1	1
953	0	1
954	1	1
955	1	1
956	1	1
957	1	1
958	1	1
959	0	0.779412
960	0	1
961	1	1
962	1	1
963	0	0.766667
964	0	0.766667
965	0	0.419118
966	0	0.419118
967	0	0.485714
968	0	0.485714
969	0	0.485714
970	0	0.382353
971	0	0.419118
972	0	0.470588
973	0	0.470588
974	0	0.470588
975	0	0.470588
976	0	0.470588
977	0	0.470588
978	0	0.470588
979	0	0.470588
980	0	0.538462
981	0	0.352941
982	0	0.330882
983	0	0.375
984	0	0.461538
985	0	0.425
986	0	0.358333
987	0	0.8
988	0	0.590909
989	0	0.590909
990	0	0.590909
991	0	0.590909
992	0	0.590909
993	0	0.419118
994	0	0.419118
995	0	0.419118
996	0	0.316176
997	0	0.4
998	0	0.316176
999	0	0.227941
1000	0	0.25
1001	0	0.860367
1002	0	1
1003	0	1
1004	0	1
1005	0	1
1006	0	0.837063
1007	0	0.837349
1008	0	0.138889
1009	0	0.2
1010	0	0.194444
1011	0	0.194444
1012	0	0.333333
1013	0	0.238095
1014	0	0.238095
1015	0	0.515152
1016	0	0.466667
1017	0	0.466667
1018	0	0.466667
1019	0	0.466667
1020	0	0.466667
1021	0	0.466667
1022	0	0.485294
1023	0	0.485294
1024	0	0.485294
1025	0	0.485294
1026	0	0.485294
1027	0	0.52381
1028	0	0.485294
1029	0	0.485294
1030	0	0.485294
1031	0	0.485294
1032	0	0.485294
1033	0	0.485294
1034	0	0.485294
1035	0	0.485294
1036	0	0.5
1037	0	0.5
1038	0	0.485294
1039	0	0.485294
1040	0	0.485294
1041	0	0.485294
1042	0	0.485294
1043	0	0.485294
1044	0	0.485294
1045	0	0.485294
1046	0	0.485294
1047	0	0.485294
1048	0	0.485294
1049	0	0.485294
1050	0	0.485294
1051	0	0.485294
1052	0	0.485294
1053	0	0.485294
1054	0	0.485294
1055	0	0.485294
1056	0	0.485294
1057	0	0.485294
1058	0	0.485294
1059	0	0.485294
1060	0	0.485294
1061	0	0.485294
1062	0	1
1063	0	0.644444
1064	0	1
1065	0	1
1066	0	1
1067	0	1
1068	0	1
1069	0	1
1070	0	1
1071	0	1
1072	0	1
1073	0	1
1074	0	1
1075	0	1
1076	0	1
1077	0	1
1078	0	1
1079	0	1
1080	0	1
1081	0	1
1082	0	1
1083	0	1
1084	0	0.485294
1085	0	0.485294
1086	0	0.485294
1087	0	0.485294
1088	0	0.485294
1089	0	0.485294
1090	0	0.485294
1091	0	0.485294
1092	0	0.485294
1093	0	0.367647
1094	0	1
1095	1	1
1096	1	1
1097	1	1
1098	1	1
1099	1	1
1100	1	1
1101	0	0.888889
1102	0	0.888889
1103	0	0.888889
1104	0	0.888889
1105	0	0.888889
1106	0	0.888889
1107	0	0.888889
1108	0	0.888889
1109	0	0.888889
1110	0	0.888889
1111	0	0.888889
1112	0	0.888889
1113	0	0.888889
1114	0	0.833109
1115	0	0.833109
1116	0	0.673135
1117	0	0.673135
1118	0	0.673135
1119	0	0.36877
1120	0	0.888889
1121	0	0.888889
1122	0	0.888889
1123	0	0.888889
1124	0	0.888889
1125	0	0.888889
1126	0	0.888889
1127	0	0.888889
1128	0	0.888889
1129	0	0.888889
1130	0	0.888889
1131	0	0.888889
1132	0	0.888889
1133	0	0.888889
1134	0	0.8
1135	0	0.8
1136	0	0.8
1137	0	0.888889
1138	0	0.888889
1139	0	0.888889
1140	0	0.888889
1141	0	0.888889
1142	0	0.431373
1143	0	0.818182
1144	0	0.888889
1145	0	0.888889
1146	0	0.888889
1147	0	0.888889
1148	0	0.888889
1149	0	0.888889
1150	0	0.888889
1151	0	0.888889
1152	0	0.888889
1153	0	0.888889
1154	0	0.888889
1155	0	0.888889
1156	0	0.888889
1157	0	0.888889
1158	0	0.888889
1159	0	0.888889
1160	0	0.888889
1161	0	0.378704
1162	0	0.370348
1163	0	0.645902
1164	0	0.645902
1165	0	0.658962
1166	0	0.653052
1167	0	0.653052
1168	0	0.660243
1169	0	0.660243
1170	0	0.660243
1171	1	1
1172	1	1
1173	1	1
1174	1	1
1175	1	1
1176	1	1
1177	1	1
1178	1	1
1179	1	1
1180	1	1
1181	1	1
1182	1	1
1183	1	1
1184	1	1
1185	1	1
1186	1	1
1187	1	1
1188	1	1
1189	1	1
1190	1	1
1191	1	1
1192	1	1
1193	1	1
1194	1	1
1195	1	1
1196	0	0.485294
1197	0	0.367647
1198	0	0.367647
1199	0	0.367647
1200	0	0.367647
1201	0	0.367647
1202	0	0.367647
1203	0	0.367647
1204	0	0.367647
1205	0	0.367647
1206	0	0.367647
1207	0	0.367647
1208	0	0.367647
1209	0	1
1210	0	1
1211	0	0.644444
1212	0	0.644444
1213	0	0.644444
1214	1	1
1215	1	1
1216	1	1
1217	1	1
1218	1	1
1219	1	1
1220	1	1
1221	1	1
1222	1	1
1223	1	1
1224	1	1
1225	1	1
1226	1	1
1227	1	1
1228	1	1
1229	1	1
1230	1	1
1231	1	1
1232	1	1
1233	1	1
1234	1	1
1235	1	1
1236	1	1
1237	1	1
1238	1	1
1239	1	1
1240	1	1
1241	1	1
1242	1	1
1243	1	1
1244	1	1
1245	1	1
1246	1	1
1247	1	1
1248	1	1
1249	1	1
1250	1	1
1251	1	1
1252	1	1
1253	0	0.888889
1254	0	0.888889
1255	0	0.888889
1256	0	0.888889
1257	0	0.888889
1258	0	0.888889
1259	0	0.888889
1260	0	0.888889
1261	0	0.372549
1262	0	0.372549
1263	0	0.372549
1264	0	0.372549
1265	0	0.372549
1266	0	0.654545
1267	0	0.8
1268	0	0.648532
1269	0	0.641468
1270	0	0.654348
1271	0	0.654348
1272	0	0.833798
1273	0	0.841344
1274	0	0.784507
1275	0	0.784507
1276	0	0.782788
1277	0	0.523333
1278	0	0.888889
1279	0	0.888889
1280	0	0.888889
1281	0	0.888889
1282	0	0.888889
1283	0	0.888889
1284	0	0.888889
1285	0	0.888889
1286	0	0.888889
1287	0	0.888889
1288	0	0.888889
1289	1	1
1290	1	1
1291	1	1
1292	1	1
1293	1	1
1294	1	1
1295	1	1
1296	1	1
1297	1	1
1298	1	1
1299	1	1
1300	1	1
1301	1	1
1302	1	1
1303	1	1
1304	1	1
1305	1	1
1306	1	1
1307	1	1
1308	1	1
1309	1	1
1310	1	1
1311	1	1
1312	1	1
1313	1	1
1314	1	1
1315	1	1
1316	1	1
1317	1	1
1318	1	1
1319	1	1
1320	1	1
1321	1	1
1322	1	1
1323	1	1
1324	1	1
1325	1	1
1326	1	1
1327	1	1
1328	1	1
1329	1	1
1330	1	1
1331	1	1
1332	0	1
1333	0	0.535714
1334	0	0.419118
1335	0	0.419118
1336	0	0.419118
1337	0	0.583333
1338	0	0.419118
1339	0	0.419118
1340	0	0.882353
1341	0	0.882353
1342	0	0.882353
1343	0	0.882353
1344	0	0.882353
1345	0	0.882353
1346	0	0.882353
1347	0	0.882353
1348	0	0.882353
1349	0	0.882353
1350	0	0.882353
1351	0	0.882353
1352	0	0.882353
1353	0	0.882353
1354	0	0.882353
1355	0	0.882353
1356	0	0.882353
1357	0	0.875
1358	0	0.772059
1359	0	0.875
1360	0	0.875
1361	0	0.866667
1362	0	0.866667
