Site	ColumnScore	SumOfPairsScore
1	1	0
2	1	0
3	1	0
4	1	0
5	1	0
6	0	0
7	0	0
8	0	0.775075
9	0	0.781344
10	0	0.781344
11	0	0.653094
12	0	0.372968
13	0	0.34207
14	0	0.322417
15	0	0
16	0	0
17	0	0
18	0	0
19	0	0
20	0	0
21	0	0
22	0	0
23	0	0
24	0	0
25	0	0
26	0	0.0666667
27	0	0.192308
28	0	0.194737
29	0	0.147186
30	0	0.295798
31	0	0.387302
32	0	0.347084
33	0	0.243832
34	0	0.200546
35	0	0.157703
36	0	0.138826
37	0	0.110771
38	0	0.118887
39	0	0.105442
40	0	0.114638
41	0	0.104975
42	0	0.101999
43	0	0.0801174
44	0	0.0824289
45	0	0.0799087
46	0	0.0650198
47	0	0.0682399
48	0	0.069789
49	0	0.0623994
50	0	0.050731
51	0	0.0459465
52	0	0.0601101
53	0	0.0596358
54	0	0.0682853
55	0	0.0702804
56	0	0.0797798
57	0	0.0583391
58	0	0.166667
59	0	0.166667
60	0	0.439394
61	0	0.439394
62	0	0.439394
63	0	0.304762
64	0	0.408333
65	0	0.408333
66	0	0.408333
67	0	0.408333
68	0	0.558333
69	0	0.45098
70	0	0.280632
71	0	0.171429
72	0	0.162162
73	0	0.153846
74	0	0.123671
75	0	0.1211
76	0	0.105225
77	0	0.109713
78	0	0.118627
79	0	0.125109
80	0	0.126554
81	0	0.102855
82	0	0.109024
83	0	0.164825
84	0	0.138606
85	0	0.196329
86	0	0.201208
87	0	0.228411
88	0	0.232298
89	0	0.232692
90	0	0.227941
91	0	0.257353
92	0	0.266667
93	0	0.227453
94	0	0.201349
95	0	0.247718
96	0	0.569149
97	0	0.575693
98	0	0.575794
99	0	0.568542
100	0	0
101	0	0
102	0	0
103	0	0
104	0	0
105	0	0
106	0	0.3
107	0	0
108	0	0
109	0	0
110	0	0.0666667
111	0	0.496377
112	0	0.218935
113	0	0.178145
114	0	0.179936
115	0	0.16533
116	0	0.701075
117	0	0.701075
118	0	0.664773
119	0	0.664773
120	0	0.462195
121	0	0.331071
122	0	0.563748
123	0	0.601358
124	0	0.615749
125	0	0.594493
126	0	0.605641
127	0	0.600737
128	0	0.884706
129	0	0.742208
130	0	0.901442
131	0	0.89675
132	0	0.833333
133	0	0.983968
134	0	0.983968
135	0	0.983968
136	0	0.983968
137	0	0.983968
138	0	0.983968
139	0	0.983968
140	0	0.983968
141	0	0.983968
142	0	0.983968
143	0	0.983968
144	0	0.983968
145	0	0.983968
146	0	0.983968
147	0	0.983968
148	0	0.983968
149	0	0.983968
150	0	0.991935
151	0	0.991935
152	0	0.991935
153	0	0.991935
154	0	0.991935
155	0	0
156	0	0
157	0	0
158	0	0
159	0	0
160	0	0
161	0	0
162	0	0
163	0	0
164	0	0
165	0	0
166	0	0
167	0	0
168	0	0
169	0	0
170	0	0
171	1	1
172	1	1
173	1	1
174	1	1
175	1	1
176	1	1
177	1	1
178	1	1
179	1	1
180	1	1
181	1	1
182	1	1
183	1	1
184	1	1
185	1	1
186	1	1
187	1	1
188	1	1
189	0	1
190	1	1
191	1	1
192	1	1
193	1	1
194	1	1
195	1	1
196	1	1
197	1	1
198	1	1
199	1	1
200	0	0.991968
201	0	0.984032
202	0	0.992
203	0	0.992
204	0	0.992
205	0	0.992
206	0	0.992
207	0	0.984032
208	1	0
209	0	0
210	0	0.992
211	0	0.992
212	0	0.992
213	0	0.992
214	0	0.992
215	0	0.992
216	0	0.992
217	0	0.992
218	0	0.992
219	0	0.992
220	0	1
221	0	1
222	0	1
223	0	1
224	0	0.5
225	0	0.5
226	0	0.5
227	0	0.960418
228	0	0.960418
229	0	0.960418
230	0	0.960418
231	0	0.960418
232	0	0.968163
233	0	0.968163
234	0	0.960135
235	0	0.952299
236	0	0.906654
237	0	0.906654
238	0	0
239	0	0
240	0	0
241	0	0
242	0	0
243	0	0
244	0	0
245	0	0
246	0	0
247	0	0
248	0	0
249	0	0
250	0	0
251	0	0
252	0	0
253	0	0
254	0	0
255	0	0
256	0	0
257	0	0
258	0	0
259	0	0
260	0	0
261	0	0
262	0	0
263	0	0
264	0	0
265	0	0
266	0	0.949591
267	0	0.949591
268	0	0.861868
269	0	0.711598
270	0	0.732006
271	0	1
272	0	1
273	0	1
274	0	0.430071
275	0	0.429748
276	0	1
277	0	1
278	0	1
279	0	1
280	0	1
281	0	1
282	0	1
283	0	1
284	0	1
285	0	1
286	0	0.857143
287	0	1
288	0	1
289	0	1
290	0	0.866667
291	0	0.866667
292	0	0.795322
293	0	0.561265
294	0	0.433048
295	0	0.3867
296	0	0.242424
297	0	0.21746
298	0	0.144304
299	0	0.143867
300	0	0.151896
301	0	0.24627
302	0	0.22771
303	0	0.18641
304	0	0.183689
305	0	0.18056
306	0	0.118695
307	0	0.166667
308	0	0.333333
309	0	0.1
310	0	0.3
311	0	0.457143
312	0	0.268966
313	0	0.215686
314	0	0.186344
315	0	0.158562
316	0	0.144311
317	0	0.139456
318	0	0.102825
319	0	0.14003
320	0	0.130087
321	0	0.130135
322	0	0.123752
323	0	0.127993
324	0	0.235416
325	0	0.268544
326	0	0.269836
327	0	1
328	0	0.271086
329	0	0.251055
330	0	0.258123
331	0	0.69281
332	0	0.658333
333	0	0.658333
334	0	0.742857
335	0	0.742857
336	0	0.725275
337	0	0.187427
338	0	0.176253
339	0	0.183087
340	0	0.168375
341	0	0.14351
342	0	0.0764588
343	0	0.0825509
344	0	0.169095
345	0	0.169486
346	0	0.173776
347	0	0
348	0	0
349	0	0.0996956
350	0	0.123668
351	0	0.138523
352	0	0.15447
353	0	0.2
354	0	0.2
355	0	0.2
356	0	0.133333
357	0	0.133333
358	0	0.0666667
359	0	0.0666667
360	0	0.0545455
361	0	0.0384615
362	0	0.174603
363	0	0.148387
364	0	0.140152
365	0	0.115634
366	0	0.141859
367	0	0.155388
368	0	0.150273
369	0	0.162547
370	0	0.158885
371	0	0.155666
372	0	0.143786
373	0	0.129584
374	0	0
375	0	0
376	0	0
377	0	0
378	0	0
379	0	0
380	0	0
381	0	0
382	0	0
383	0	0
384	0	0
385	0	0
386	0	0
387	0	0
388	0	0
389	0	0
390	0	0
391	1	0
392	1	0
393	1	0
394	1	0
395	0	0
396	0	0
397	0	0
398	0	0
399	0	0
400	0	0
401	0	0
402	0	0
403	0	0
404	0	0
405	0	0
406	0	0
407	0	0.416667
408	0	0.262097
409	0	0.147718
410	0	0.153987
411	0	0.361905
412	0	0.552381
413	0	0.433824
414	0	0.385621
415	0	0.156187
416	0	0.21898
417	0	0.144713
418	0	0.138013
419	0	0.117641
420	0	0
421	0	0
422	0	0
423	0	0
424	0	0.113798
425	0	0.131249
426	0	0.125123
427	0	0.117535
428	0	0.116401
429	0	0.117535
430	0	0.116369
431	0	0.0933087
432	0	0.0991903
433	0	0
434	0	0.4
435	0	0.4
436	0	0.4
437	0	1
438	0	1
439	0	0.6
440	0	0.333333
441	0	0.333333
442	0	0.333333
443	0	0.25
444	0	0.177778
445	0	0.474359
446	0	0.474359
447	0	0.406593
448	0	0.351852
449	0	0.297348
450	0	0.410256
451	0	0.483525
452	0	0.467865
453	0	0.529938
454	0	0.583473
455	0	0.584034
456	0	0.571272
457	0	0.232121
458	0	0.293663
459	0	0.291833
460	0	0.252735
461	0	0.195992
462	0	0.204622
463	0	0.168254
464	0	0
465	0	0
466	0	0
467	0	0
468	0	0.4
469	0	0.868966
470	0	0.868966
471	0	0.415356
472	0	0.334181
473	0	0.484864
474	0	0.484864
475	0	0.333333
476	0	0.466667
477	0	1
478	0	0.472996
479	0	0.472996
480	0	0.824996
481	0	0.824996
482	0	0.824996
483	0	1
484	0	1
485	1	1
486	1	1
487	1	1
488	1	1
489	1	1
490	1	1
491	1	1
492	1	1
493	1	1
494	1	1
495	1	1
496	1	1
497	1	1
498	1	1
499	1	1
500	1	1
501	1	1
502	1	1
503	1	1
504	0	0.872739
505	0	0.872739
506	0	0.865285
507	0	0
508	0	0.622222
509	0	0.953964
510	0	0
511	0	0.55412
512	0	0.549719
513	0	0.343341
514	0	0.569828
515	0	0.580253
516	0	0.577466
517	0	0.216667
518	0	0.2
519	0	0.579857
520	0	0.432354
521	0	0.437024
522	0	0.423167
523	0	0.244675
524	0	0.271118
525	0	0.518329
526	0	0.314524
527	0	0.286538
528	0	0.37748
529	0	0.4599
530	0	0.57098
531	0	0.564082
532	0	0.4
533	0	0
534	0	0
535	0	0
536	0	0
537	0	0
538	0	0
539	0	0
540	0	0
541	0	0
542	0	1
543	0	0.170791
544	0	0.145357
545	0	0.256684
546	0	0.508162
547	0	0.50813
548	0	0.522953
549	0	0.460561
550	0	0
551	0	0
552	0	0.5
553	0	0.614379
554	0	0.483333
555	0	0.457143
556	0	0.153846
557	0	0.117647
558	0	0.17316
559	0	0.384615
560	0	0.822511
561	0	0.814286
562	0	0.340716
563	0	0.278651
564	0	0.242754
565	0	0.213333
566	0	0.289362
567	0	0.285431
568	0	0.231807
569	0	0.230005
570	0	0.353175
571	0	0.475192
572	0	0.450035
573	0	0.422078
574	0	0.411028
575	0	0.363534
576	0	0.36316
577	0	0.364657
578	0	0.313931
579	0	0.315053
580	0	0.312424
581	0	0.173863
582	0	0.179309
583	0	0.191487
584	0	0.245877
585	0	0.256274
586	0	0.235814
587	0	0.204223
588	0	0.205078
589	0	0.175983
590	0	0.190177
591	0	0.137931
592	0	0.128736
593	0	0.155844
594	0	0.126316
595	0	0.175
596	0	0.227273
597	0	0.321429
598	0	0.321429
599	0	0.321429
600	0	0.321429
601	0	0.321429
602	0	0.321429
603	0	0.321429
604	0	0.321429
605	0	0.321429
606	0	0.321429
607	0	0.321429
608	0	0.321429
609	0	0.321429
610	0	0.321429
611	0	0.321429
612	0	0.25
613	0	0.25
614	0	0.25
615	0	0.25
616	0	0.25
617	0	0.25
618	0	0.25
619	0	0.25
620	0	0.25
621	0	0.25
622	0	0.25
623	0	0.25
624	0	0.25
625	0	0.25
626	0	0.25
627	0	0.25
628	0	0.25
629	0	0.25
630	0	0.25
631	0	0.25
632	0	0.25
633	0	0.214286
634	0	0.214286
635	0	0.214286
636	0	0.214286
637	0	0.214286
638	0	0.214286
639	0	0.214286
640	0	0.285714
641	0	0.285714
642	0	0.285714
643	0	0.142857
644	0	0.142857
645	0	0.2
646	0	0.2
647	0	0.3
648	0	0.190476
649	0	0.190476
650	0	0.190476
651	0	0.408333
652	0	0.466667
653	0	0.466667
654	0	0.466667
655	0	0.466667
656	0	0.69697
657	0	0.69697
658	0	0.69697
659	0	0.69697
660	0	0.69697
661	0	0.277671
662	0	0.235819
663	0	0.228206
664	0	0.248626
665	0	0.333333
666	0	0.333333
667	0	0.21771
668	0	0.219847
669	0	0.217839
670	0	0.219944
671	0	0.220009
672	0	0.0952381
673	0	0.0555556
674	0	0.223523
675	0	0.177547
676	0	0.17627
677	0	0.171606
678	0	0
679	0	0.818182
680	0	0.818182
681	0	0.818182
682	0	0.818182
683	0	0.818182
684	0	0.818182
685	0	0.527473
686	0	0
687	0	0
688	0	0.637363
689	0	0.405229
690	0	0.368421
691	0	0.331579
692	0	0.3
693	0	0.272727
694	0	0.277056
695	0	0.277056
696	0	0.296562
697	0	0.284768
698	0	0.281893
699	0	0.234989
700	0	0.223765
701	0	0.223765
702	0	0.252635
703	0	0.258958
704	0	0.27343
705	0	0.316162
706	0	0.287234
707	0	0.560893
708	0	0.528469
709	0	0.325783
710	0	0.302708
711	0	0.308852
712	0	0.302994
713	0	0
714	0	0
715	0	0
716	0	0
717	0	0
718	0	0.220142
719	0	0.215112
720	0	0.212273
721	0	0.209028
722	0	0.232997
723	0	0.235971
724	0	0.244018
725	0	0.260611
726	0	0.25
727	0	0.333333
728	0	0.466667
729	0	0.333333
730	0	0.333333
731	0	0.333333
732	0	0.442681
733	0	0.272971
734	0	0.190731
735	0	0.136508
736	0	0.156545
737	0	0.114983
738	0	0.0979592
739	0	0.107451
740	0	0.0684551
741	0	0.110929
742	0	0.110827
743	0	0.107018
744	0	0.0920826
745	0	0.08418
746	0	0.0868687
747	0	0.101293
748	0	0.159397
749	0	0.282796
750	0	0.142857
751	0	0.142857
752	0	0.355856
753	0	0.355856
754	0	0.561905
755	0	0.313814
756	0	0.352941
757	0	0.393162
758	0	0.378917
759	0	0.8
760	0	0.8
761	0	0.8
762	0	0.560606
763	0	0.818182
764	0	0.818182
765	0	0.681818
766	0	0.236975
767	0	0.322222
768	0	0.32381
769	0	0.304805
770	0	0.334835
771	0	0.393939
772	0	0.445565
773	0	0.432258
774	0	0.432258
775	0	0.432258
776	0	0.356303
777	0	0.470899
778	0	0.470899
779	0	0.423333
780	0	0.343915
781	0	0.361905
782	0	0.406593
783	0	0.406593
784	0	0.406593
785	0	0.406593
786	0	0.230769
787	0	0.327273
788	0	0.2
789	0	0.2
790	0	0.2
791	0	0.2
792	0	0.2
793	0	0.280702
794	0	0.16934
795	0	0.17479
796	0	0.190805
797	0	0.193103
798	0	0.142529
799	0	0.279412
800	0	0.333333
801	0	0.266667
802	0	0.666667
803	0	0.666667
804	0	0.4
805	0	0.666667
806	0	0.666667
807	0	0.215686
808	0	0.714286
809	0	1
810	0	1
811	0	1
812	0	1
813	0	1
814	0	0.810526
815	0	0.731579
816	0	0.731579
817	0	1
818	0	1
819	0	0.819355
820	0	0.824597
821	0	0.53573
822	0	0
823	0	0.333333
824	0	0.333333
825	0	0.660385
826	0	0.660385
827	0	1
828	0	0.762257
829	0	0.762257
830	0	0.560606
831	0	0.637374
832	0	0.629293
833	0	0.944444
834	0	0.976001
835	0	0.968193
836	0	0.968193
837	0	0.968193
838	0	0
839	0	0
840	0	0
841	0	0
842	0	0
843	0	0
844	0	0
845	0	0
846	0	0
847	0	0
848	0	0
849	0	0
850	0	0
851	0	0
852	0	0
853	0	0
854	0	0
855	0	0
856	0	0
857	0	0
858	0	0
859	0	0
860	0	0
861	0	0
862	0	0
863	0	0
864	0	0
865	0	0.959518
866	0	0.959518
867	0	0.5
868	0	0.5
869	0	0.914663
870	0	0.561419
871	0	0.529025
872	0	0.252632
873	0	0.177778
874	0	0.266667
875	0	0.2
876	0	0.3
877	0	0.3
878	0	0.3
879	0	0.3
880	0	0.3
881	0	0.365419
882	0	0.575075
883	0	0.3
884	0	0.277579
885	0	0.275669
886	0	0.273213
887	0	0.21182
888	0	0
889	0	0
890	0	0
891	0	0.784355
892	0	0.689177
893	0	0.676768
894	0	0.676768
895	0	0.687805
896	0	0.266667
897	0	0.333333
898	0	0.333333
899	0	0
900	0	0.4
901	0	0.552632
902	0	0.431373
903	0	0.192982
904	0	0.178947
905	0	0.333333
906	0	0.333333
907	0	0.333333
908	0	0.333333
909	0	0
910	0	0
911	0	0
912	0	0.166667
913	0	0.1
914	0	0.1
915	0	0.222222
916	0	0.181818
917	0	0.116667
918	0	0.0727273
919	0	0.0888889
920	0	0.133333
921	0	0.264516
922	0	0.218293
923	0	0.228049
924	0	0.295238
925	0	0.0916667
926	0	0.0571429
927	0	0.0641026
928	0	0.0808824
929	0	0.0666667
930	0	0.224155
931	0	0.132277
932	0	0.102229
933	0	0.086788
934	0	0.0886508
935	0	0.10641
936	0	0.140534
937	0	0.113636
938	0	0.131579
939	0	0.164286
940	0	0.170779
941	0	0.161654
942	0	0.0926281
943	0	0.109446
944	0	0.162025
945	0	0.173495
946	0	0.173442
947	0	0.0441176
948	0	0.0522876
949	0	0.191186
950	0	0.24072
951	0	0.240534
952	0	0
953	0	0
954	0	0
955	0	0
956	0	0
957	0	0
958	0	0
959	0	0
960	0	0
961	0	0
962	0	0
963	0	0
964	0	0.235382
965	0	0.23383
966	0	0.230416
967	0	0.462422
968	0	0.233333
969	0	0.269006
970	0	0.269006
971	0	0.300654
972	0	0.300654
973	0	0.161626
974	0	0.160555
975	0	0.134225
976	0	0.13456
977	0	0
978	0	0.129375
979	0	0.166667
980	0	0.166667
981	0	0.166667
982	0	0.166667
983	0	0.166667
984	0	0.166667
985	0	0.166667
986	0	0.166667
987	0	0.166667
988	0	0
989	0	0
990	0	0.738916
991	0	0.738916
992	0	0.730159
993	0	0.720798
994	0	0.552632
995	0	0.166667
996	0	0.254902
997	0	0.15
998	0	0.342857
999	0	0.126735
1000	0	0.119334
1001	0	0.108527
1002	0	0.0769231
1003	0	0.0849673
1004	0	0.0688406
1005	0	0.126812
1006	0	0.116667
1007	0	0.103387
1008	0	0.0864865
1009	0	0.0582011
1010	0	0.180124
1011	0	0.0556777
1012	0	0.0501005
1013	0	0.0699457
1014	0	0.0357143
1015	0	0.0357143
1016	0	0.162791
1017	0	0.0727273
1018	0	0.127273
1019	0	0.109091
1020	0	0.0753045
1021	0	0.0952381
1022	0	0.130081
1023	0	0.114634
1024	0	0.133005
1025	0	0.132576
1026	0	0.137815
1027	0	0.143902
1028	0	0.143902
1029	0	0.0952381
1030	0	0.133333
1031	0	0.2
1032	0	0.2
1033	0	0.194444
1034	0	0.0888889
1035	0	0.107143
1036	0	0.133333
1037	0	0.0952381
1038	0	0.0952381
1039	0	0.190476
1040	0	0.190476
1041	0	0
1042	0	0
1043	0	0
1044	0	0
1045	0	0.5
1046	0	0.194444
1047	0	0.194444
1048	0	0
1049	0	0
1050	0	0
1051	0	0
1052	0	0
1053	0	0.357143
1054	0	0.1
1055	0	0.1
1056	0	0.357143
1057	0	0.357143
1058	0	0.242424
1059	0	0.304094
1060	0	0.304094
1061	0	0.304094
1062	0	0.304094
1063	0	0.304094
1064	0	0.304094
1065	0	0.4
1066	0	0.361905
1067	0	0.1
1068	0	0
1069	0	0
1070	0	0
1071	0	0.0935039
1072	0	0.099196
1073	0	0
1074	0	0
1075	0	0
1076	0	0
1077	0	0
1078	0	0
1079	0	0
1080	0	0
1081	0	0
1082	0	0.104447
1083	0	0.105298
1084	0	0.108829
1085	0	0.147382
1086	0	0.320552
1087	0	0.173893
1088	0	0.259598
1089	0	0.259001
1090	0	0.259192
1091	0	0.218845
1092	0	0.030303
1093	0	0.030303
1094	0	0.391405
1095	0	0.0222222
1096	0	0
1097	0	0
1098	0	0
1099	0	0.189542
1100	0	0.164683
1101	0	0.133333
1102	0	0.0722789
1103	0	0.303168
1104	0	0.193756
1105	0	0.203236
1106	0	0.191356
1107	0	0.180601
1108	0	0.2438
1109	0	0.244174
1110	0	0
1111	0	0
1112	0	0.0914476
1113	0	0.205645
1114	0	0.520776
1115	0	0.52791
1116	0	0.548271
1117	0	0.337205
1118	0	0.542997
1119	0	0.73785
1120	0	0.235294
1121	0	0.428571
1122	0	0.428571
1123	0	0.617424
1124	0	0.047619
1125	0	0.047619
1126	0	0
1127	0	0
1128	0	0
1129	0	0
1130	0	0
1131	0	0
1132	0	0.396979
1133	0	0.393513
1134	0	0.394646
1135	0	0.19251
1136	0	0.152319
1137	0	0.213151
1138	0	0.263576
1139	0	0.279885
1140	0	0.287199
1141	0	0.430586
1142	0	0.447363
1143	0	0.446602
1144	0	0.446602
1145	0	0.483612
1146	0	0.494004
1147	0	0.60162
1148	0	0.291026
1149	0	0.280702
1150	0	0.169591
1151	0	0.217949
1152	0	0.290909
1153	0	0.290909
1154	0	0.290909
1155	0	0.164142
1156	0	0.176279
1157	0	0.169221
1158	0	0.219502
1159	0	0.323358
1160	0	0.420779
1161	0	0.770928
1162	0	0.883599
1163	0	0.876053
1164	0	0.876085
1165	0	0.883179
1166	0	0.912726
1167	0	0.3
1168	0	0.3
1169	0	0.860766
1170	0	0.860766
1171	0	0.875729
1172	0	0.875729
1173	0	0.861269
1174	0	0.868247
1175	0	0.875278
1176	0	0.867735
1177	0	0.333333
1178	0	0.333333
1179	0	0.333333
1180	0	0.828638
1181	0	0.753957
1182	0	0.775042
1183	0	0
1184	0	0
1185	0	0
1186	1	0
1187	1	0
1188	1	0
1189	1	0
1190	1	0
1191	0	0
1192	0	0
1193	0	0
1194	0	0
1195	0	0
1196	0	0
1197	0	0
1198	0	0
1199	0	0
1200	0	0
1201	0	0
1202	0	0
1203	0	0
1204	0	0
1205	0	0
1206	0	0
1207	0	0
1208	0	0
1209	0	0
1210	0	0
1211	0	0
1212	0	0
1213	0	0.166667
1214	0	0.166667
1215	0	0.568148
1216	0	0.567961
1217	0	0.42674
1218	0	0.212219
1219	0	0.206819
1220	0	0.200935
1221	0	0.21371
1222	0	0.201613
1223	0	0.489159
1224	0	0.488019
1225	0	0.52005
1226	0	0.52005
1227	0	0.579315
1228	0	0.585859
1229	0	0.732143
1230	0	0.395604
1231	0	0.333333
1232	0	0.272727
1233	0	0
1234	0	0
1235	0	0
1236	0	0
1237	0	0.173069
1238	0	0.167525
1239	0	0.224871
1240	0	0.164618
1241	0	0.14824
1242	0	0.102732
1243	0	0.14082
1244	0	0.14082
1245	0	0.260955
1246	0	0.279966
1247	0	0.166667
1248	0	0.166667
1249	0	0.190476
1250	0	0.190476
1251	0	0.310604
1252	0	0.282796
1253	0	0.28646
1254	0	0.276275
1255	0	0.166667
1256	0	0
1257	0	0
1258	0	0
1259	0	0.0952381
1260	0	0
1261	0	0
1262	0	0
1263	0	0
1264	0	0
1265	0	0
1266	0	0
1267	0	0.425641
1268	0	0.317405
1269	0	0.419118
1270	0	0.133333
1271	0	0.2
1272	0	0.0666667
1273	0	0.0666667
1274	0	0.0666667
1275	0	0.047619
1276	0	0.047619
1277	0	0.318681
1278	0	0.818578
1279	0	0.851433
1280	0	0.380633
1281	0	0.407307
1282	1	0
1283	1	0
1284	1	0
1285	1	0
1286	1	0
1287	1	0
1288	1	0
1289	1	0
1290	1	0
1291	1	0
1292	1	0
1293	1	0
1294	1	0
1295	1	0
1296	1	0
1297	1	0
1298	1	0
1299	1	0
1300	1	0
1301	1	0
1302	1	0
1303	1	0
1304	1	0
1305	1	0
1306	1	0
1307	1	0
1308	1	0
1309	1	0
1310	1	0
1311	1	0
1312	1	0
1313	1	0
1314	1	0
1315	0	0
1316	0	0.411552
1317	0	0.399534
1318	0	0.395226
1319	0	0.1
1320	0	0.1
1321	0	0.1
1322	0	0.557106
1323	0	0.767857
1324	0	0.820598
1325	0	0.698782
1326	0	0.657658
1327	0	0.775401
1328	0	0.653968
1329	0	0
1330	0	0
1331	0	0
1332	0	0
1333	0	0.713184
1334	0	0.710966
1335	0	0.756148
1336	0	0.783095
1337	0	0.856566
1338	0	0.885789
1339	0	0.88275
1340	0	0.773121
1341	0	0.879183
1342	0	0.835494
1343	0	0.863409
1344	0	0.853411
1345	0	0.720965
1346	0	0.497738
1347	0	0.510204
1348	0	0.64482
1349	0	0.409357
1350	0	0.375
1351	0	0
1352	1	0
