Site	ColumnScore	SumOfPairsScore
1	0	0
2	0	0
3	0	0.545695
4	0	0.59744
5	0	0.597177
6	0	0.557037
7	0	0.568828
8	0	0.564208
9	0	0.443304
10	0	0.322045
11	0	0.416203
12	0	0.282646
13	0	0.294065
14	0	0.420192
15	0	0.252381
16	0	0.197802
17	0	0
18	0	0
19	0	0
20	0	0
21	0	0
22	0	0
23	0	0
24	0	0
25	0	0
26	0	0
27	0	0
28	0	0.4
29	0	0.320513
30	0	0.270613
31	0	0.43419
32	0	0.658698
33	0	0.710702
34	0	0.73052
35	0	0.801376
36	0	0.333333
37	0	1
38	0	1
39	0	1
40	0	1
41	0	1
42	0	0.844833
43	0	0.89304
44	0	0.893478
45	0	0.893478
46	0	1
47	0	1
48	0	1
49	0	1
50	0	0.958546
51	0	0.959715
52	0	0.95175
53	0	0.166667
54	0	0
55	0	0
56	0	0
57	0	0
58	0	0
59	0	0
60	0	0.983904
61	0	0.991903
62	1	1
63	1	1
64	0	1
65	1	1
66	1	1
67	1	1
68	1	1
69	1	1
70	1	1
71	1	1
72	0	0.991935
73	0	0.991935
74	1	1
75	1	1
76	1	1
77	0	1
78	0	1
79	0	0
80	1	0
81	1	0
82	1	0
83	1	0
84	1	0
85	1	0
86	1	0
87	1	0
88	1	0
89	1	0
90	1	0
91	1	0
92	1	0
93	1	0
94	1	0
95	1	0
96	1	0
97	1	0
98	1	0
99	0	0.991935
100	1	1
101	1	1
102	1	1
103	1	1
104	1	1
105	1	1
106	1	1
107	1	1
108	1	1
109	1	1
110	1	1
111	1	1
112	0	1
113	0	1
114	0	1
115	0	1
116	0	1
117	0	1
118	1	1
119	1	1
120	1	1
121	1	1
122	1	1
123	1	1
124	1	1
125	1	1
126	1	1
127	1	1
128	1	1
129	0	0
130	0	0
131	0	0.954877
132	0	0.897582
133	0	0.422366
134	0	0.40405
135	0	0.302073
136	0	0.365405
137	0	0.310924
138	0	0.597403
139	0	0.5
140	0	0.393162
141	0	0.150201
142	0	0.193618
143	0	0.188727
144	0	0.20445
145	0	0.217631
146	0	0.232924
147	0	1
148	0	1
149	0	0.438399
150	0	0.438399
151	0	0.43367
152	0	0
153	0	0
154	0	0
155	0	0
156	0	0
157	0	0
158	0	0
159	0	0
160	0	0.433721
161	0	0.433851
162	0	0.441493
163	0	0.418288
164	0	0
165	0	0
166	0	0.6
167	0	0.4
168	0	0.4
169	0	0.4
170	0	0.444738
171	0	0.4
172	0	0.266667
173	0	0.261438
174	0	0.425175
175	0	0.332982
176	0	0.321345
177	0	0.30636
178	0	0.285031
179	0	0.211295
180	0	0.351266
181	0	0.290014
182	0	0.238206
183	0	0.212184
184	0	0.150738
185	0	0.132941
186	0	0.118978
187	0	0.128727
188	0	0.145145
189	0	0.165899
190	0	0.224732
191	0	0.41036
192	0	0
193	0	0
194	0	0
195	0	0
196	0	0.397937
197	0	0.414885
198	0	0.489247
199	0	0.490154
200	0	0.490154
201	0	0
202	0	1
203	0	0.736264
204	0	0.766667
205	0	0.85755
206	0	1
207	0	1
208	0	1
209	0	1
210	1	1
211	1	1
212	1	1
213	1	1
214	1	1
215	1	1
216	1	1
217	1	1
218	1	1
219	1	1
220	1	1
221	1	1
222	1	1
223	1	1
224	1	1
225	1	1
226	1	1
227	1	1
228	1	1
229	1	1
230	1	1
231	1	1
232	1	1
233	1	1
234	1	1
235	1	1
236	1	1
237	1	1
238	1	1
239	1	1
240	1	1
241	1	1
242	1	1
243	1	1
244	1	1
245	1	1
246	1	1
247	1	1
248	1	1
249	1	1
250	1	1
251	1	1
252	1	1
253	1	1
254	1	1
255	1	1
256	1	1
257	1	1
258	1	1
259	1	1
260	1	1
261	1	1
262	1	1
263	1	1
264	1	1
265	1	1
266	1	1
267	1	1
268	1	1
269	1	1
270	1	1
271	1	1
272	1	1
273	1	1
274	1	1
275	1	1
276	1	1
277	1	1
278	1	1
279	1	1
280	1	1
281	1	1
282	1	1
283	1	1
284	1	1
285	0	1
286	0	1
287	0	0.866667
288	0	0.758333
289	0	0.387097
290	0	0.181707
291	0	0.699483
292	0	0.401336
293	0	1
294	0	0.333333
295	0	0.333333
296	0	0.333333
297	0	0.2
298	0	0.107143
299	0	0.181818
300	0	0.150327
301	0	0.130435
302	0	0.111111
303	0	0.114943
304	0	0.221505
305	0	0.197445
306	0	0.199435
307	0	0.175855
308	0	0.17479
309	0	0.158514
310	0	0.240493
311	0	0.271339
312	0	0.260882
313	0	0.443152
314	0	0.489887
315	0	0.673157
316	0	0.488319
317	0	0
318	0	0
319	0	0
320	0	0.535714
321	0	0.166667
322	0	0.444444
323	0	0.571429
324	0	0.571429
325	0	0.571429
326	0	0.5
327	0	1
328	0	0.560386
329	0	0.560386
330	0	0.560386
331	0	0.560386
332	0	0
333	0	0
334	0	0
335	0	0
336	0	0
337	0	0
338	0	0
339	0	0
340	0	0
341	0	0
342	0	0.333333
343	0	1
344	0	1
345	0	1
346	0	0.584867
347	0	0.584867
348	0	1
349	0	1
350	1	1
351	1	1
352	1	1
353	1	1
354	1	1
355	1	1
356	1	1
357	0	1
358	0	0.908241
359	1	1
360	1	1
361	1	1
362	1	1
363	1	1
364	1	1
365	1	1
366	1	1
367	1	1
368	1	1
369	1	1
370	1	1
371	1	1
372	1	1
373	1	1
374	1	1
375	1	1
376	1	1
377	1	1
378	1	1
379	1	1
380	1	1
381	1	1
382	1	1
383	0	0.992
384	0	0
385	1	1
386	1	1
387	1	1
388	1	1
389	1	1
390	1	1
391	0	0.984064
392	1	1
393	0	1
394	1	1
395	1	1
396	1	1
397	1	1
398	1	1
399	1	1
400	1	1
401	1	1
402	1	1
403	1	1
404	1	1
405	1	1
406	1	1
407	1	1
408	0	0.952964
409	0	0.945157
410	1	0
411	1	0
412	1	0
413	1	0
414	1	0
415	0	0.714286
416	0	0.951832
417	0	0.951638
418	0	0.945157
419	0	0.952707
420	1	1
421	1	1
422	0	1
423	1	1
424	1	1
425	0	1
426	0	1
427	1	1
428	1	1
429	1	1
430	1	1
431	1	1
432	1	1
433	1	1
434	1	1
435	1	1
436	1	1
437	1	1
438	1	1
439	1	1
440	0	1
441	0	1
442	0	1
443	0	1
444	0	1
445	0	1
446	1	1
447	1	1
448	1	1
449	0	0.333333
450	0	0.333333
451	0	0.333333
452	0	0.333333
453	0	0.333333
454	0	0.91933
455	0	0.91933
456	0	0.903825
457	0	0.787978
458	0	0.57382
459	0	0.726554
460	0	0.528919
461	1	0
462	1	0
463	1	0
464	1	0
465	1	0
466	1	0
467	1	0
468	1	0
469	1	0
470	1	0
471	1	0
472	1	0
473	1	0
474	1	0
475	1	0
476	0	0.543788
477	0	0.666667
478	0	1
479	0	1
480	0	1
481	0	0.801466
482	0	0.584867
483	0	0.584867
484	1	1
485	1	1
486	1	1
487	1	1
488	1	1
489	1	1
490	1	1
491	1	1
492	1	1
493	1	1
494	1	1
495	1	1
496	1	1
497	1	1
498	1	1
499	1	1
500	1	1
501	1	1
502	1	1
503	1	1
504	1	1
505	1	1
506	1	1
507	1	1
508	1	1
509	1	1
510	1	1
511	1	1
512	0	1
513	0	1
514	0	1
515	0	0.4
516	0	0.952042
517	0	0.913043
518	0	0.491979
519	0	0.633121
520	0	0.366874
521	0	0.348931
522	0	0
523	0	0
524	0	0
525	0	0
526	0	0
527	0	0
528	0	0
529	0	0.1
530	0	0.246835
531	0	0.235968
532	0	0.181652
533	0	0.150538
534	0	0.125822
535	0	0.25
536	0	0.25976
537	0	0.165074
538	0	0.461814
539	0	0.46396
540	0	0.534071
541	0	0.598925
542	0	0.76087
543	0	0.809358
544	0	0.780635
545	0	0.822796
546	0	0.822432
547	0	0.797769
548	0	0.635915
549	0	0.325102
550	0	0.319309
551	0	0.314338
552	0	0.30652
553	0	0.302651
554	0	0
555	0	0
556	0	0
557	0	0
558	0	0
559	0	0
560	0	0
561	0	0
562	0	0
563	0	0
564	0	0
565	0	0
566	0	0
567	0	0
568	0	0
569	0	0
570	0	0
571	0	0
572	0	0
573	0	0
574	0	0
575	0	0
576	0	0
577	0	0
578	0	0
579	0	0
580	0	0
581	0	0
582	0	0
583	0	0
584	0	0.0666667
585	0	0.0666667
586	0	0.0666667
587	0	0.0666667
588	0	0.047619
589	0	0
590	0	0.047619
591	0	0.0555556
592	0	0.0545455
593	0	0.0545455
594	0	0.0512821
595	0	0.0522876
596	0	0.0428571
597	0	0.0640394
598	0	0.185192
599	0	0.162011
600	0	0.135875
601	0	0.132664
602	0	0.19842
603	0	0.192444
604	0	0.134868
605	0	0.0992596
606	0	0.0767193
607	0	0
608	0	0
609	0	0
610	0	0
611	0	0
612	0	0
613	0	0
614	0	0
615	0	0
616	0	0
617	0	0.0579315
618	0	0.0613649
619	0	0.0570344
620	0	0.0574521
621	0	0.0524208
622	0	0.0676178
623	0	0.0721591
624	0	0
625	0	0
626	0	0.0794536
627	0	0.0666667
628	0	0.0666667
629	0	0.0666667
630	0	0.0666667
631	0	0.0625889
632	0	0.043956
633	0	0.0776488
634	0	0.0965167
635	0	0
636	0	0
637	0	0
638	0	0
639	0	0
640	0	0
641	0	0.119578
642	0	0.131122
643	0	0.138088
644	0	0.139181
645	0	0.163695
646	0	1
647	0	0.256206
648	0	0.277778
649	0	0.333333
650	0	0.333333
651	0	0.438095
652	0	0.669118
653	0	0.669118
654	0	0.611423
655	0	0.614586
656	0	0.714042
657	0	0.988827
658	0	0.989691
659	0	0.991031
660	0	0.991837
661	0	0
662	1	1
663	1	1
664	1	1
665	1	1
666	1	1
667	1	1
668	1	1
669	1	1
670	1	1
671	1	1
672	1	1
673	1	1
674	1	1
675	1	1
676	1	1
677	1	1
678	1	1
679	1	1
680	1	1
681	1	1
682	1	1
683	1	1
684	1	1
685	0	0
686	0	0
687	1	0
688	0	0.992
689	0	0.992
690	1	1
691	1	1
692	1	1
693	1	1
694	1	1
695	1	1
696	1	1
697	1	1
698	1	1
699	0	0.984064
700	0	1
701	0	0.966949
702	0	0.968386
703	0	0.976098
704	0	1
705	0	1
706	0	1
707	0	1
708	0	1
709	0	1
710	0	1
711	0	1
712	0	1
713	0	1
714	0	1
715	0	1
716	0	1
717	0	1
718	0	1
719	0	1
720	0	1
721	0	1
722	0	1
723	0	1
724	0	1
725	0	1
726	0	1
727	0	1
728	0	1
729	0	1
730	0	1
731	0	1
732	0	1
733	0	1
734	0	1
735	0	1
736	0	1
737	0	1
738	0	0.6
739	0	0.958551
740	0	0.968386
741	0	0.968386
742	0	0.968386
743	0	0.968386
744	0	0.968386
745	0	0.968386
746	0	0.968386
747	0	0.968386
748	0	0.960514
749	0	0.960514
750	0	0.960514
751	0	0.960514
752	0	0.960514
753	0	1
754	0	0.950968
755	0	0.950968
756	0	0.6
757	0	0.6
758	0	0.6
759	0	0.6
760	1	1
761	1	1
762	0	1
763	1	1
764	1	1
765	1	1
766	1	1
767	1	1
768	1	1
769	1	1
770	1	1
771	1	1
772	1	1
773	1	1
774	1	1
775	1	1
776	1	1
777	1	1
778	1	1
779	1	1
780	1	1
781	1	1
782	1	1
783	1	1
784	1	1
785	1	1
786	1	1
787	1	1
788	1	1
789	1	1
790	1	1
791	1	1
792	1	1
793	1	1
794	1	1
795	1	1
796	1	1
797	1	1
798	1	1
799	1	1
800	1	1
801	1	1
802	1	1
803	1	1
804	1	1
805	1	1
806	1	1
807	1	1
808	1	1
809	1	1
810	1	1
811	1	1
812	1	1
813	1	1
814	1	1
815	1	1
816	1	1
817	1	1
818	1	1
819	1	1
820	1	1
821	1	1
822	1	1
823	1	1
824	1	1
825	1	1
826	1	1
827	1	1
828	1	1
829	1	1
830	1	1
831	1	1
832	1	1
833	1	1
834	1	1
835	1	1
836	1	1
837	1	1
838	1	1
839	1	1
840	1	1
841	1	1
842	1	1
843	1	1
844	0	0.6
845	0	0.6
846	0	0.869526
847	0	0.861608
848	0	0.854159
849	0	0.596676
850	0	0
851	0	0
852	0	0
853	0	0
854	0	0
855	0	0.5
856	0	0.5
857	0	0.5
858	0	0.5
859	0	0.5
860	0	0.5
861	0	0.5
862	0	0.5
863	0	0.5
864	0	0.5
865	0	0.25
866	0	0.25
867	0	0.25
868	0	0.25
869	0	0.2
870	0	0.2
871	0	0.25
872	0	0.138889
873	0	0.292398
874	0	0.202899
875	0	0.481232
876	0	0.455216
877	0	0.312736
878	0	0.261922
879	0	0.26214
880	0	0.333333
881	0	0.333333
882	0	0.333333
883	0	0.260873
884	0	0.257878
885	0	0.255286
886	0	0.211086
887	0	0.183815
888	0	0.186006
889	0	0.104651
890	0	0.137097
891	0	0.15415
892	0	0.163158
893	0	0.163158
894	0	0.128205
895	0	0.128205
896	0	0.151515
897	0	0.151515
898	0	0.2
899	0	0.25
900	0	0.25
901	0	0.25
902	0	0.321429
