Site	ColumnScore	SumOfPairsScore
1	0	0
2	0	0
3	0	0
4	0	0
5	0	0
6	0	0
7	0	0
8	0	0
9	0	0
10	0	0
11	0	0
12	0	0
13	0	0
14	0	0
15	0	0
16	0	0
17	0	0
18	0	0
19	0	0
20	0	0
21	0	0
22	0	0
23	0	0
24	0	0
25	0	0
26	0	0
27	0	0
28	0	0
29	0	0
30	0	0
31	0	0
32	0	0
33	0	0
34	0	0
35	0	0
36	0	0
37	0	0
38	0	0
39	0	0
40	0	0
41	0	0
42	0	0
43	0	0
44	0	0
45	0	0
46	0	0
47	0	0
48	0	0
49	0	0
50	0	0
51	0	0
52	0	0
53	0	0
54	0	0
55	0	0
56	0	0
57	0	0
58	0	0
59	0	0
60	0	0
61	0	0
62	0	0
63	0	0
64	0	0
65	0	0
66	0	0
67	0	0
68	0	0
69	0	0
70	0	0
71	0	0
72	0	0
73	0	0
74	0	0
75	0	0
76	0	0
77	0	0
78	0	0
79	0	0
80	0	0
81	0	0
82	0	0
83	0	0
84	0	0
85	0	0
86	0	0
87	0	0
88	0	0
89	0	0
90	0	0
91	0	0
92	0	0
93	0	0
94	0	0
95	0	0
96	0	0
97	0	0
98	0	0
99	0	0
100	0	0
101	0	0
102	0	0
103	0	0
104	0	0
105	0	0
106	0	0
107	0	0
108	0	0
109	0	0
110	0	0
111	0	0
112	0	0
113	0	0
114	0	0
115	0	0
116	0	0
117	0	0
118	0	0
119	0	0
120	0	0
121	0	0
122	0	0
123	0	0
124	0	0
125	0	0
126	0	0
127	0	0
128	0	0
129	0	0
130	0	0
131	0	0
132	0	0
133	0	0
134	0	0
135	0	0
136	0	0
137	0	0
138	0	0
139	0	0
140	0	0
141	0	0
142	0	0
143	0	0
144	0	0
145	0	0
146	0	0
147	0	0
148	0	0
149	0	0
150	0	0
151	0	0
152	0	0
153	0	0
154	0	0
155	0	0
156	0	0
157	0	0
158	0	0
159	0	0
160	0	0
161	0	0
162	0	0
163	0	0
164	0	0
165	0	0
166	0	0
167	0	0
168	0	0
169	0	0
170	0	0
171	0	0
172	0	0
173	0	0
174	0	0
175	0	0
176	0	0
177	0	0
178	0	0
179	0	0
180	0	0
181	0	0
182	0	0
183	0	0
184	0	0
185	0	0
186	0	0
187	0	0
188	0	0
189	0	0
190	0	0
191	0	0
192	0	0
193	0	0
194	0	0
195	0	0
196	0	0.0666667
197	0	0.047619
198	0	0.047619
199	0	0.047619
200	0	0.047619
201	0	0.047619
202	0	0.047619
203	0	0.047619
204	0	0.047619
205	0	0.0357143
206	0	0.0357143
207	0	0.0357143
208	0	0.0357143
209	0	0.0357143
210	0	0.0555556
211	0	0.0555556
212	0	0.0555556
213	0	0.0888889
214	0	0.252632
215	0	0.27619
216	0	0.255411
217	0	0.233202
218	0	0.233202
219	0	0.282609
220	0	0.32971
221	0	0.32971
222	0	0.301994
223	0	0.248276
224	0	0.248276
225	0	0.174174
226	0	0.164103
227	0	0.111933
228	0	0.105946
229	0	0.150773
230	0	0.195098
231	0	0.215058
232	0	0.217831
233	0	0.218554
234	0	0.333442
235	0	0.329624
236	0	0.265092
237	0	0
238	0	0
239	0	0
240	0	0
241	0	0
242	0	0
243	0	0
244	0	0
245	0	0
246	0	0
247	0	0
248	1	0
249	1	0
250	0	0
251	0	0
252	0	0
253	0	0
254	1	0
255	1	0
256	0	0
257	0	0
258	0	0
259	0	0
260	0	0
261	0	0
262	0	0
263	0	0
264	0	0
265	1	0
266	1	0
267	0	0
268	0	0
269	0	0
270	0	0
271	0	0
272	1	0
273	1	0
274	1	0
275	1	0
276	1	0
277	0	0
278	1	0
279	1	0
280	1	0
281	1	0
282	1	0
283	0	0
284	0	0
285	0	0
286	0	0
287	0	0
288	0	0
289	0	0
290	1	0
291	1	0
292	1	0
293	1	0
294	1	0
295	1	0
296	1	0
297	1	0
298	0	0
299	0	0
300	0	0
301	0	0
302	0	0
303	0	0
304	0	0
305	0	0
306	0	0
307	0	0
308	0	0
309	0	0
310	0	0
311	0	0
312	0	0
313	0	0
314	0	0
315	0	0
316	0	0
317	0	0
318	0	0
319	0	0
320	0	0
321	0	0
322	0	0
323	0	0
324	0	0
325	0	0
326	0	0
327	0	0
328	0	0
329	0	0
330	0	0
331	0	0
332	0	0
333	0	0
334	0	0
335	0	0
336	0	0
337	0	0
338	0	0
339	0	0
340	0	0
341	0	0
342	0	0
343	0	0
344	0	0
345	0	0
346	0	0
347	0	0
348	0	0
349	0	0
350	0	0
351	0	0
352	0	0
353	0	0
354	0	0.270813
355	0	0.190253
356	0	0.190253
357	0	0.18738
358	0	0.125805
359	0	0.121477
360	0	0
361	0	0
362	0	0
363	0	0
364	0	0
365	0	0
366	0	0
367	0	0
368	0	0
369	0	0
370	0	0
371	0	0
372	0	0
373	0	0
374	0	0
375	0	0
376	0	0
377	0	0
378	0	0
379	0	0
380	0	0
381	0	0
382	0	0
383	0	0
384	0	0
385	0	0
386	0	0
387	0	0
388	0	0
389	0	0
390	0	0
391	0	0.359184
392	0	0.292553
393	0	0.130378
394	0	0.108913
395	0	0.131932
396	0	0.194855
397	0	0.2176
398	0	0.190948
399	0	0.212546
400	0	0.227778
401	0	0.229028
402	0	0.347238
403	0	0
404	0	0
405	0	0
406	0	0
407	0	0
408	0	0
409	0	0.333333
410	0	0.285714
411	0	0.266667
412	0	0.32381
413	0	0.909091
414	0	0.62273
415	0	0.629982
416	0	1
417	0	1
418	1	1
419	1	1
420	1	1
421	1	1
422	1	1
423	1	1
424	1	1
425	1	1
426	1	1
427	1	1
428	1	1
429	1	1
430	1	1
431	1	1
432	1	1
433	1	1
434	1	1
435	1	1
436	1	1
437	1	1
438	1	1
439	1	1
440	1	1
441	1	1
442	1	1
443	1	1
444	1	1
445	1	1
446	1	1
447	1	1
448	1	1
449	1	1
450	1	1
451	1	1
452	1	1
453	1	1
454	1	1
455	1	1
456	1	1
457	1	1
458	1	1
459	1	1
460	1	1
461	1	1
462	1	1
463	1	1
464	1	1
465	1	1
466	1	1
467	0	0
468	0	0
469	0	0.992
470	0	0
471	1	0
472	1	0
473	0	0
474	1	1
475	1	1
476	1	1
477	1	1
478	1	1
479	1	1
480	1	1
481	1	1
482	1	1
483	1	1
484	1	1
485	1	1
486	1	1
487	1	1
488	1	1
489	1	1
490	1	1
491	1	1
492	1	1
493	1	1
494	1	1
495	1	1
496	1	1
497	1	1
498	1	1
499	1	1
500	1	1
501	1	1
502	1	1
503	1	1
504	0	0
505	0	0
506	0	0.5
507	0	0.5
508	0	0
509	0	0
510	0	0
511	0	0.190476
512	0	0.944803
513	0	0
514	0	0
515	0	0
516	0	0.944803
517	0	0.92951
518	0	0
519	0	0
520	0	0.2
521	0	0.91781
522	0	0
523	0	0
524	0	0
525	0	0.333333
526	0	0.333333
527	0	0.6
528	0	0.6
529	0	0.6
530	0	0.6
531	0	0.6
532	0	0.25
533	0	0.25
534	0	0.794956
535	0	0.254545
536	0	0.178571
537	0	0.541622
538	0	0.558737
539	0	0.30444
540	0	0.337526
541	0	0.19697
542	0	0.533333
543	0	0.533333
544	0	0.205128
545	0	0.205128
546	0	0.428571
547	0	1
548	0	0.819346
549	0	0.80619
550	0	1
551	0	0.428571
552	0	0.819048
553	0	1
554	1	1
555	1	1
556	1	1
557	1	1
558	1	1
559	1	1
560	1	1
561	1	1
562	1	1
563	1	1
564	1	1
565	0	1
566	0	0.538462
567	0	0.367816
568	0	0.320175
569	0	0.242901
570	0	0.191484
571	0	0.440386
572	0	0.244844
573	0	0.320175
574	0	0.259719
575	0	0.422723
576	0	0
577	0	0
578	0	0
579	0	0
580	0	0
581	0	0
582	0	0.583333
583	0	0.967517
584	0	1
585	0	1
586	0	1
587	1	1
588	1	1
589	1	1
590	1	1
591	1	1
592	1	1
593	1	1
594	1	1
595	1	1
596	1	1
597	1	1
598	1	1
599	1	1
600	1	1
601	1	1
602	1	1
603	1	1
604	1	1
605	1	1
606	1	1
607	0	0.992
608	1	1
609	1	1
610	1	1
611	1	1
612	1	1
613	1	1
614	1	1
615	1	1
616	1	1
617	1	1
618	1	1
619	1	1
620	1	1
621	1	1
622	0	1
623	1	1
624	1	1
625	1	1
626	1	1
627	1	1
628	1	1
629	1	1
630	1	1
631	1	1
632	1	1
633	1	1
634	0	0
635	0	0
636	0	0
637	0	0
638	0	0
639	0	0
640	0	0
641	0	0
642	0	0
643	0	0
644	0	0.333333
645	0	0.589744
646	0	0.527273
647	0	0.644444
648	0	0.611111
649	0	0.488889
650	0	0.898918
651	0	0.89853
652	0	0.89853
653	0	1
654	0	0.563636
655	0	0.656317
656	0	0.595592
657	0	0.421677
658	0	0.221224
659	0	0.210873
660	0	0.158316
661	0	0
662	0	0
663	0	0.142857
664	0	0.0952381
665	0	0.0757576
666	0	0.658333
667	0	0.65
668	0	0.573529
669	0	0.573529
670	0	0.573529
671	0	0.594771
672	0	0.484211
673	0	0.538012
674	0	0.538012
675	0	0.538012
676	0	0.538012
677	0	0.484211
678	0	0.153846
679	0	0.114286
680	0	0.0760234
681	0	0.138138
682	0	0.227567
683	0	0.150298
684	0	0.130159
685	0	0.104792
686	0	0.099127
687	0	0.100627
688	0	0.312808
689	0	0.315271
690	0	0.242289
691	0	0.142857
692	0	0.142857
693	0	0.142857
694	0	0.142857
695	0	0.142857
696	0	0.333333
697	0	0.333333
698	0	0.333333
699	0	0.333333
700	0	0.333333
701	0	0.300768
702	0	0.322023
703	0	0.0923077
704	0	0.0923077
705	0	0.101538
706	0	0.113846
707	0	0.132308
708	0	0.132308
709	0	0.450988
710	0	0.446137
711	0	0.421173
712	0	0.354827
713	0	0.183055
714	0	0.333333
715	0	0.333333
716	0	0.333333
717	0	0.166667
718	0	0.166667
719	0	0.333333
720	0	0
721	0	0
722	0	0
723	0	0
724	0	0
725	0	0
726	0	0.166667
727	0	0.333333
728	0	0.333333
729	0	0
730	0	0.166667
731	0	0.266667
732	0	0.238095
733	0	0.166667
734	0	0.133333
735	0	0.133333
736	0	0.0512821
737	0	0.0380952
738	0	0.05
739	0	0.0344086
740	0	0.036036
741	0	0.0454545
742	0	0.0348639
743	0	0.261755
744	0	0.201748
745	0	0.202497
746	0	0.284982
747	0	0.331716
748	0	0.326365
749	0	0.469406
750	0	0.363231
751	0	0.35633
752	0	0.363455
753	0	0.382452
754	0	0.259354
755	0	0.236585
756	0	0.08
757	0	0.0995671
758	0	0.102767
759	0	0.304676
760	0	0.198075
761	0	0.181818
762	0	0.226189
763	0	0.215038
764	0	0.190564
765	0	0.233117
766	0	0.54062
767	0	0.696045
768	0	0.668328
769	0	0.823204
770	0	0.877719
771	0	0.885237
772	0	1
773	0	1
774	0	0.929671
775	0	0.929671
776	0	0.929671
777	0	0.89192
778	0	1
779	0	1
780	0	1
781	1	1
782	1	1
783	1	1
784	1	1
785	1	1
786	1	1
787	1	1
788	0	0
789	1	0
790	0	0
791	0	0.983368
792	0	0.982103
793	0	0.981439
794	0	1
795	0	0.801092
796	0	0.801092
797	0	0.806554
798	1	1
799	1	1
800	1	1
801	1	1
802	1	1
803	1	1
804	1	1
805	1	1
806	1	1
807	1	1
808	1	1
809	0	1
810	0	0.615385
811	0	0.213235
812	0	0.128655
813	0	0.108225
814	0	0.211876
815	0	0.212022
816	0	0.164013
817	0	0.147679
818	0	0.466235
819	0	0.431792
820	0	0.460617
821	0	0.3
822	0	0.3
823	0	0.3
824	0	0.107143
825	0	0.139706
826	0	0.257143
827	0	0.46089
828	0	0.455743
829	0	0.298071
830	0	0.345238
831	0	0.285323
832	0	0.428571
833	0	0.444444
834	0	0.4
835	0	0.675
836	0	0.297178
837	0	0.367462
838	0	0.4
839	0	0.254545
840	0	0.406723
841	0	0.663121
842	0	0.531097
843	0	0.425499
844	0	0.28473
845	0	0.257876
846	0	0.21415
847	0	0.229498
848	0	0.243522
849	0	0.535088
850	0	0.477944
851	0	0.482057
852	0	0
853	0	0
854	0	0
855	0	0
856	0	0
857	0	0
858	0	0
859	0	0.901282
860	0	0.953488
861	0	0.953488
862	0	0.954545
863	0	0.954545
864	0	0.970588
865	0	0.970588
866	0	1
867	0	0.951442
868	0	0.952404
869	0	1
870	1	1
871	1	1
872	1	1
873	1	1
874	1	1
875	0	0
876	0	0
877	0	0
878	0	0
879	0	0
880	0	0
881	0	0
882	0	0
883	0	0
884	0	0
885	1	0
886	1	0
887	1	0
888	1	0
889	1	0
890	1	0
891	1	0
892	1	0
893	1	0
894	1	0
895	1	0
896	1	0
897	1	0
898	1	0
899	1	0
900	1	0
901	1	0
902	1	0
903	1	0
904	1	0
905	1	0
906	1	0
907	1	0
908	1	0
909	1	0
910	1	0
911	1	0
912	1	0
913	1	0
914	1	0
915	1	0
916	1	0
917	1	0
918	1	0
919	1	0
920	1	0
921	1	0
922	1	0
923	1	0
924	1	0
925	1	0
926	1	0
927	1	0
928	1	0
929	1	0
930	1	0
931	1	0
932	1	0
933	1	0
934	1	0
935	1	0
936	1	0
937	1	0
938	1	0
939	1	0
940	1	0
941	1	0
942	1	0
943	1	0
944	1	0
945	1	0
946	1	0
947	1	0
948	1	0
949	1	0
950	1	0
951	1	0
952	1	0
953	1	0
954	1	0
955	1	0
956	1	0
957	1	0
958	1	0
959	1	0
960	1	0
961	1	0
962	1	0
963	1	0
964	1	0
965	1	0
966	1	0
967	1	0
968	1	0
969	1	0
970	1	0
971	1	0
972	1	0
973	1	0
974	1	0
975	1	0
976	1	0
977	1	0
978	1	0
979	1	0
980	1	0
981	1	0
982	1	0
983	1	0
984	1	0
985	1	0
986	1	0
987	1	0
988	1	0
989	1	0
990	1	0
991	1	0
992	1	0
993	1	0
994	1	0
995	1	0
996	1	0
997	1	0
998	1	0
999	1	0
1000	1	0
1001	1	0
1002	1	0
1003	1	0
1004	1	0
1005	1	0
1006	1	0
1007	1	0
1008	1	0
1009	1	0
1010	1	0
1011	1	0
1012	1	0
1013	1	0
1014	1	0
1015	1	0
1016	1	0
1017	1	0
1018	1	0
1019	1	0
1020	1	0
1021	1	0
1022	1	0
1023	1	0
1024	1	0
1025	1	0
1026	1	0
1027	1	0
1028	1	0
1029	1	0
1030	1	0
1031	1	0
1032	1	0
1033	1	0
1034	1	0
1035	1	0
1036	1	0
1037	1	0
1038	1	0
1039	1	0
1040	1	0
1041	1	0
1042	1	0
1043	1	0
1044	1	0
1045	1	0
1046	1	0
1047	1	0
1048	1	0
1049	1	0
1050	1	0
1051	1	0
1052	1	0
1053	1	0
1054	1	0
1055	1	0
1056	1	0
1057	1	0
1058	1	0
1059	1	0
1060	1	0
1061	1	0
1062	1	0
1063	0	0.992
1064	0	0.992
1065	0	0.992
1066	0	0.992
1067	0	1
1068	0	0.975644
1069	0	0.972893
1070	0	0.956945
1071	0	0.952668
1072	0	0
1073	0	0
1074	1	0
1075	1	0
1076	1	0
1077	1	0
1078	1	0
1079	1	0
1080	1	0
1081	1	0
1082	1	0
1083	1	0
1084	1	0
1085	1	0
1086	1	0
1087	1	0
1088	1	0
1089	1	0
1090	1	0
1091	1	0
1092	1	0
1093	1	0
1094	1	0
1095	1	0
1096	1	0
1097	1	0
1098	1	0
1099	1	0
1100	1	0
1101	1	0
1102	1	0
1103	1	0
1104	1	0
1105	1	0
1106	1	0
1107	1	0
1108	1	0
1109	1	0
1110	1	0
1111	1	0
1112	1	0
1113	1	0
1114	1	0
1115	1	0
1116	1	0
1117	1	0
1118	1	0
1119	1	0
