Site	ColumnScore	SumOfPairsScore
1	1	0
2	1	0
3	1	0
4	1	0
5	1	0
6	1	0
7	1	0
8	1	0
9	1	0
10	1	0
11	1	0
12	1	0
13	1	0
14	1	0
15	1	0
16	1	0
17	1	0
18	1	0
19	1	0
20	1	0
21	1	0
22	1	0
23	0	0
24	0	0
25	0	0
26	0	0
27	0	0
28	0	0
29	0	0
30	0	0
31	0	0
32	0	0
33	0	0
34	0	0
35	0	0
36	0	0
37	0	0
38	0	0
39	0	0
40	0	0
41	0	0
42	0	0
43	1	0
44	1	0
45	1	0
46	1	0
47	0	0
48	0	0
49	0	0
50	0	0
51	1	0
52	1	0
53	1	0
54	1	0
55	1	0
56	1	0
57	1	0
58	1	0
59	1	0
60	1	0
61	1	0
62	1	0
63	1	0
64	1	0
65	1	0
66	1	0
67	1	0
68	1	0
69	1	0
70	1	0
71	1	0
72	0	0
73	0	0
74	0	0
75	0	0
76	0	0
77	0	0
78	0	0
79	0	0
80	0	0
81	0	0
82	0	0
83	0	0
84	0	0
85	0	0
86	0	0
87	0	0
88	0	0
89	0	0
90	0	0
91	0	0
92	0	0
93	0	0
94	0	0
95	0	0
96	0	0
97	0	0
98	0	0
99	0	0
100	0	0
101	0	0
102	0	0
103	0	0
104	0	0
105	0	0
106	0	0
107	0	0
108	0	0
109	0	0
110	0	0
111	0	0
112	0	0
113	0	0
114	0	0
115	0	0
116	0	0
117	0	0
118	0	0
119	0	0
120	0	0
121	0	0
122	0	0
123	0	0
124	0	0
125	0	0
126	0	0
127	0	0
128	0	0
129	0	0
130	0	0
131	0	0
132	0	0
133	0	0
134	0	0
135	0	0
136	0	0
137	0	0
138	0	0
139	0	0
140	0	0
141	0	0
142	0	0
143	0	0
144	0	0
145	0	0
146	0	0
147	0	0
148	0	0
149	0	0
150	0	0
151	0	0
152	0	0
153	0	0
154	0	0
155	0	0
156	0	0
157	0	0
158	0	0
159	0	0
160	0	0
161	0	0
162	0	0
163	0	0
164	0	0
165	0	0
166	0	0
167	0	0
168	0	0
169	0	0
170	1	0
171	1	0
172	1	0
173	1	0
174	1	0
175	1	0
176	1	0
177	0	0
178	0	0
179	0	0
180	0	0
181	0	0
182	1	0
183	1	0
184	1	0
185	0	0
186	0	0
187	0	0
188	0	0
189	0	0
190	0	0
191	0	0
192	0	0
193	0	0
194	0	0
195	0	0
196	0	0
197	0	0
198	0	0
199	0	0
200	0	0
201	0	0
202	0	0
203	0	0
204	0	0
205	0	0
206	0	0
207	0	0
208	0	0
209	0	0
210	0	0
211	0	0
212	0	0
213	0	0
214	0	0
215	0	0
216	0	0
217	0	0
218	0	0
219	0	0
220	0	0
221	0	0
222	0	0
223	0	0
224	0	0
225	0	0
226	0	0
227	0	0
228	0	0
229	0	0.166667
230	0	0.166667
231	0	0.166667
232	0	0.166667
233	0	0.166667
234	0	0.166667
235	0	0.190476
236	0	0.194444
237	0	0.155556
238	0	0.548065
239	0	0.610413
240	0	0.614984
241	0	0.46748
242	0	0.260512
243	0	0.262011
244	0	0.262011
245	0	0.234515
246	0	0
247	0	0.260846
248	0	0.252171
249	0	1
250	0	0.334823
251	0	0.333333
252	0	0.333333
253	0	0.333333
254	0	0.333333
255	0	0.333333
256	0	0.333333
257	0	0.333333
258	0	0.333333
259	0	0.333333
260	0	0.333333
261	0	0.333333
262	0	0.5
263	0	0.5
264	0	0.5
265	0	0.5
266	0	0.5
267	0	0.5
268	0	0.5
269	0	0.595472
270	0	1
271	0	1
272	0	1
273	0	1
274	0	1
275	0	1
276	0	0.337255
277	0	0.338731
278	0	0.361111
279	0	0.361111
280	0	0.877637
281	0	0.877637
282	0	0.877637
283	0	0.877637
284	0	0.877637
285	0	0.877637
286	0	0.877637
287	0	0.877637
288	0	0.877637
289	0	0.877637
290	0	0.877637
291	0	0.214286
292	0	0.214286
293	0	0.25
294	0	0.214286
295	0	0.356256
296	0	0.5
297	0	0.53262
298	0	0.531114
299	0	0
300	0	0
301	0	0
302	0	0
303	0	0
304	0	0
305	0	0
306	0	0
307	0	0
308	0	0
309	0	0
310	0	0
311	0	0
312	0	0
313	0	0
314	0	0
315	0	0
316	0	0
317	0	0
318	0	0
319	0	0
320	0	0
321	0	0
322	0	0
323	0	0
324	0	0
325	0	0
326	0	0
327	0	0
328	0	0
329	0	0
330	0	0
331	0	0
332	1	0
333	1	0
334	1	0
335	0	0
336	0	0
337	0	0
338	0	0
339	0	0
340	0	0
341	0	0
342	0	0
343	0	0
344	0	0
345	0	0
346	0	0
347	0	0
348	0	0
349	0	0
350	0	0
351	0	0
352	0	0
353	0	0
354	0	0
355	0	0
356	0	0
357	0	0
358	0	0
359	0	0
360	0	0
361	0	0
362	0	0
363	0	0
364	0	0
365	0	0
366	0	0.333333
367	0	0.5
368	0	0.5
369	0	0.5
370	0	0.5
371	0	0.5
372	0	0.5
373	0	0.5
374	0	0.3
375	0	0.3
376	0	0.3
377	0	0.190476
378	0	0.190476
379	0	0.190476
380	0	0.190476
381	0	0.190476
382	0	0.190476
383	0	0.190476
384	0	0.190476
385	0	0.285714
386	0	0.285714
387	0	0.285714
388	0	0.677621
389	0	0.642725
390	0	0.307692
391	0	0.635972
392	0	0.714592
393	0	0.95239
394	0	1
395	0	1
396	0	1
397	0	0.333333
398	0	0.333333
399	0	0.333333
400	0	0.333333
401	0	0.333333
402	0	0.333333
403	0	0.333333
404	0	0.333333
405	0	0.333333
406	0	0.333333
407	0	0.333333
408	0	0.333333
409	0	0.333333
410	0	0.333333
411	0	0.333333
412	0	0.333333
413	0	0.333333
414	0	0.333333
415	0	0.333333
416	0	0.333333
417	0	0.333333
418	0	0.333333
419	0	0.333333
420	0	0.333333
421	0	0.333333
422	0	0.333333
423	0	0.333333
424	0	1
425	0	1
426	0	1
427	0	1
428	0	1
429	0	1
430	0	1
431	0	1
432	0	1
433	1	1
434	1	1
435	0	0.878345
436	0	0.878345
437	0	1
438	1	1
439	1	1
440	1	1
441	1	1
442	1	1
443	1	1
444	1	1
445	1	1
446	1	1
447	1	1
448	1	1
449	1	1
450	1	1
451	0	0.991935
452	0	0.991935
453	0	0.991935
454	0	0.991935
455	0	0.991935
456	0	1
457	0	1
458	0	1
459	0	1
460	0	0
461	0	0
462	0	0
463	0	0
464	0	0
465	0	0
466	0	0
467	0	0
468	0	0
469	0	0
470	0	0
471	0	0
472	0	0
473	0	0
474	0	0
475	0	0
476	1	1
477	1	1
478	1	1
479	1	1
480	1	1
481	1	1
482	0	0.833333
483	0	0.833333
484	0	0.54599
485	0	0.54599
486	0	0.54599
487	0	0.991968
488	0	0
489	0	0
490	1	1
491	1	1
492	1	1
493	1	1
494	1	1
495	1	1
496	1	1
497	1	1
498	1	1
499	1	1
500	1	1
501	1	1
502	1	1
503	1	1
504	1	1
505	1	1
506	1	1
507	1	1
508	1	1
509	1	1
510	1	1
511	1	1
512	1	1
513	1	1
514	1	1
515	1	1
516	1	1
517	1	1
518	1	1
519	1	1
520	1	1
521	1	1
522	1	1
523	1	1
524	1	1
525	1	1
526	1	1
527	1	1
528	1	1
529	1	1
530	1	1
531	1	1
532	1	1
533	1	1
534	0	0.5
535	0	0.5
536	0	0.5
537	0	0.5
538	0	0.5
539	0	0.5
540	1	0
541	0	1
542	0	1
543	0	1
544	0	1
545	0	1
546	0	1
547	1	1
548	1	1
549	1	1
550	1	1
551	1	1
552	1	1
553	1	1
554	1	1
555	1	1
556	1	1
557	1	1
558	1	1
559	1	1
560	0	1
561	1	1
562	1	1
563	1	1
564	1	1
565	1	1
566	1	1
567	1	1
568	1	1
569	1	1
570	1	1
571	1	1
572	1	1
573	1	1
574	1	1
575	1	1
576	1	1
577	1	1
578	1	1
579	1	1
580	1	1
581	1	1
582	1	1
583	0	0
584	1	0
585	1	0
586	1	0
587	0	0.992
588	1	1
589	1	1
590	1	1
591	1	1
592	1	1
593	1	1
594	1	1
595	1	1
596	1	1
597	1	1
598	1	1
599	1	1
600	1	1
601	1	1
602	1	1
603	1	1
604	1	1
605	1	1
606	1	1
607	1	1
608	1	1
609	1	1
610	1	1
611	1	1
612	1	1
613	1	1
614	1	1
615	1	1
616	1	1
617	1	1
618	1	1
619	1	1
620	1	1
621	1	1
622	1	1
623	1	1
624	1	1
625	1	1
626	1	1
627	1	1
628	1	1
629	1	1
630	1	1
631	1	1
632	1	1
633	1	1
634	1	1
635	1	1
636	1	1
637	1	1
638	1	1
639	1	1
640	1	1
641	1	1
642	1	1
643	1	1
644	1	1
645	1	1
646	1	1
647	1	1
648	1	1
649	1	1
650	1	1
651	1	1
652	1	1
653	1	1
654	1	1
655	1	1
656	1	1
657	1	1
658	1	1
659	1	1
660	1	1
661	1	1
662	1	1
663	1	1
664	1	1
665	1	1
666	1	1
667	1	1
668	1	1
669	1	1
670	0	1
671	0	1
672	0	1
673	0	1
674	0	1
675	0	1
676	0	0.984064
677	0	0
678	0	0
679	0	0
680	0	0
681	0	0.166667
682	0	0.166667
683	0	0.166667
684	0	0.305556
685	0	0.305556
686	0	0.305556
687	0	0.305556
688	0	0.305556
689	0	0.333333
690	0	0.444444
691	0	0.444444
692	1	1
693	1	1
694	1	1
695	0	0.8
696	0	0.8
697	0	0.8
698	0	0.833333
699	1	1
700	1	1
701	1	1
702	1	1
703	1	1
704	1	1
705	1	1
706	1	1
707	1	1
708	1	1
709	1	1
710	1	1
711	1	1
712	1	1
713	1	1
714	1	1
715	1	1
716	1	1
717	1	1
718	1	1
719	1	1
720	1	1
721	1	1
722	1	1
723	1	1
724	1	1
725	1	1
726	1	1
727	1	1
728	1	1
729	1	1
730	1	1
731	1	1
732	1	1
733	1	1
734	1	1
735	1	1
736	1	1
737	1	1
738	1	1
739	1	1
740	1	1
741	1	1
742	1	1
743	1	1
744	1	1
745	1	1
746	1	1
747	1	1
748	1	1
749	1	1
750	1	1
751	1	1
752	1	1
753	1	1
754	1	1
755	1	1
756	1	1
757	1	1
758	1	1
759	1	1
760	1	1
761	1	1
762	1	1
763	1	1
764	1	1
765	1	1
766	1	1
767	1	1
768	1	1
769	1	1
770	1	1
771	1	1
772	1	1
773	1	1
774	1	1
775	1	1
776	1	1
777	1	1
778	1	1
779	1	1
780	1	1
781	1	1
782	1	1
783	1	1
784	1	1
785	1	1
786	1	1
787	1	1
788	1	1
789	1	1
790	1	1
791	1	1
792	1	1
793	1	1
794	1	1
795	1	1
796	1	1
797	1	1
798	1	1
799	1	1
800	1	1
801	1	1
802	1	1
803	1	1
804	1	1
805	1	1
806	1	1
807	1	1
808	1	1
809	1	1
810	1	1
811	1	1
812	1	1
813	1	1
814	1	1
815	1	1
816	1	1
817	1	1
818	1	1
819	1	1
820	1	1
821	1	1
822	1	1
823	1	1
824	1	1
825	1	1
826	1	1
827	1	1
828	1	1
829	1	1
830	1	1
831	1	1
832	1	1
833	1	1
834	1	1
835	1	1
836	1	1
837	1	1
838	1	1
839	1	1
840	1	1
841	1	1
842	1	1
843	1	1
844	1	1
845	1	1
846	1	1
847	1	1
848	1	1
849	1	1
850	1	1
851	1	1
852	1	1
853	1	1
854	1	1
855	1	1
856	1	1
857	1	1
858	1	1
859	1	1
860	1	1
861	1	1
862	1	1
863	1	1
864	1	1
865	1	1
866	1	1
867	1	1
868	1	1
869	1	1
870	1	1
871	1	1
872	1	1
873	1	1
874	1	1
875	1	1
876	1	1
877	1	1
878	1	1
879	1	1
880	1	1
881	1	1
882	1	1
883	1	1
884	1	1
885	1	1
886	1	1
887	1	1
888	1	1
889	1	1
890	1	1
891	1	1
892	1	1
893	1	1
894	1	1
895	1	1
896	1	1
897	1	1
898	1	1
899	1	1
900	1	1
901	1	1
902	1	1
903	1	1
904	1	1
905	1	1
906	1	1
907	1	1
908	1	1
909	1	1
910	1	1
911	1	1
912	1	1
913	1	1
914	1	1
915	1	1
916	1	1
917	1	1
918	1	1
919	1	1
920	1	1
921	1	1
922	1	1
923	1	1
924	1	1
925	1	1
926	1	1
927	1	1
928	1	1
929	1	1
930	1	1
931	1	1
932	1	1
933	1	1
934	1	1
935	1	1
936	1	1
937	1	1
938	1	1
939	1	1
940	1	1
941	1	1
942	1	1
943	1	1
944	1	1
945	1	1
946	1	1
947	1	1
948	1	1
949	0	0.565034
950	1	1
951	1	1
952	1	1
953	1	1
954	1	1
955	0	0.563636
956	0	0.563636
957	0	0.436364
958	0	0.436364
959	0	0.436364
960	0	0.436364
961	0	0.436364
962	0	0.436364
963	0	0.436364
964	0	0.436364
965	0	0.5
966	0	0
967	0	1
968	1	1
969	1	1
970	1	1
971	1	1
972	1	1
973	1	1
974	1	1
975	1	1
976	1	1
977	1	1
978	1	1
979	1	1
980	1	1
981	1	1
982	1	1
983	1	1
984	1	1
985	1	1
986	1	1
987	1	1
988	1	1
989	1	1
990	1	1
991	1	1
992	1	1
993	1	1
994	1	1
995	1	1
996	1	1
997	1	1
998	1	1
999	1	1
1000	1	1
1001	1	1
1002	1	1
1003	1	1
1004	1	1
1005	1	1
1006	1	1
1007	1	1
1008	1	1
1009	1	1
1010	1	1
1011	1	1
1012	1	1
1013	1	1
1014	1	1
1015	1	1
1016	1	1
1017	1	1
1018	1	1
1019	1	1
1020	1	1
1021	1	1
1022	1	1
1023	1	1
1024	1	1
1025	1	1
1026	1	1
1027	1	1
1028	1	1
1029	1	1
1030	1	1
1031	1	1
1032	1	1
1033	1	1
1034	1	1
1035	1	1
1036	1	1
1037	1	1
1038	1	1
1039	1	1
1040	1	1
1041	1	1
1042	0	0
1043	0	0
1044	0	0
1045	0	0
1046	0	0
1047	0	0
1048	0	0
1049	0	0.991803
1050	0	0.992
1051	0	0.992
1052	0	1
1053	0	0.824362
1054	0	1
1055	0	1
1056	0	0.718264
1057	0	0.381299
1058	0	0.266667
1059	0	0.428571
1060	0	0.428571
1061	0	0.388048
1062	0	0.417735
1063	0	0.510329
1064	0	0.333333
1065	0	0.976129
1066	0	0.976129
1067	0	0.333333
1068	0	1
1069	0	1
1070	1	1
1071	1	1
1072	0	0
1073	0	0
1074	0	0
1075	0	0
1076	0	0
1077	0	0
1078	0	0
1079	0	0
1080	0	0
1081	0	0
1082	0	0
1083	0	0.991968
1084	0	0.984032
1085	0	0.984032
1086	0	0.984032
1087	0	0.984032
1088	0	0.984032
1089	0	0.984032
1090	0	0
1091	0	0
1092	0	0
1093	0	0
1094	0	0
1095	0	0
1096	0	0
1097	0	0
1098	0	0
1099	0	0
1100	0	0
1101	0	0
1102	0	0
1103	0	0
1104	0	0
1105	0	0.984032
1106	0	0.984032
1107	0	0.992
1108	0	0.992
1109	0	1
1110	0	1
1111	0	0.5
1112	0	0.666667
1113	0	0.266667
1114	0	0.3
1115	0	0.3
1116	0	0.3
1117	0	0
1118	0	0
1119	0	0
1120	0	0
1121	0	0.928256
1122	0	0.906442
1123	0	0
1124	0	0
1125	0	0
1126	0	0
1127	0	0
1128	0	0.898432
1129	0	0.333333
1130	0	0.166667
1131	0	0.166667
1132	0	0.166667
1133	0	0.856932
1134	0	0.397436
1135	0	0.406136
1136	0	0.327792
1137	0	0.0666667
1138	0	0.316193
1139	0	0.854803
1140	0	0.790747
1141	0	0.791904
1142	0	0.799004
1143	0	0.799004
1144	0	0.133333
1145	0	0.2
1146	0	0.3
1147	0	0
1148	0	0
1149	0	0
1150	0	0
1151	0	0
1152	0	0
1153	0	0
1154	0	0
1155	0	0
