Site	ColumnScore	SumOfPairsScore
1	1	0
2	1	0
3	1	0
4	1	0
5	1	0
6	1	0
7	1	0
8	1	0
9	1	0
10	1	0
11	1	0
12	1	0
13	1	0
14	1	0
15	1	0
16	1	0
17	1	0
18	1	0
19	1	0
20	1	0
21	1	0
22	1	0
23	1	0
24	1	0
25	1	0
26	1	0
27	1	0
28	1	0
29	1	0
30	1	0
31	1	0
32	1	0
33	1	0
34	1	0
35	1	0
36	1	0
37	1	0
38	1	0
39	1	0
40	1	0
41	1	0
42	1	0
43	1	0
44	1	0
45	1	0
46	1	0
47	1	0
48	1	0
49	1	0
50	1	0
51	1	0
52	1	0
53	1	0
54	1	0
55	1	0
56	1	0
57	1	0
58	1	0
59	1	0
60	1	0
61	1	0
62	1	0
63	1	0
64	1	0
65	1	0
66	1	0
67	1	0
68	1	0
69	1	0
70	1	0
71	1	0
72	1	0
73	1	0
74	1	0
75	1	0
76	1	0
77	1	0
78	1	0
79	1	0
80	1	0
81	1	0
82	1	0
83	1	0
84	1	0
85	1	0
86	1	0
87	1	0
88	1	0
89	1	0
90	1	0
91	1	0
92	1	0
93	1	0
94	1	0
95	1	0
96	1	0
97	1	0
98	1	0
99	1	0
100	1	0
101	1	0
102	1	0
103	1	0
104	1	0
105	1	0
106	1	0
107	1	0
108	1	0
109	1	0
110	1	0
111	1	0
112	1	0
113	1	0
114	1	0
115	1	0
116	1	0
117	1	0
118	1	0
119	1	0
120	1	0
121	1	0
122	1	0
123	1	0
124	1	0
125	1	0
126	1	0
127	1	0
128	1	0
129	1	0
130	1	0
131	1	0
132	1	0
133	1	0
134	1	0
135	1	0
136	1	0
137	1	0
138	1	0
139	1	0
140	1	0
141	1	0
142	1	0
143	1	0
144	1	0
145	1	0
146	1	0
147	1	0
148	1	0
149	1	0
150	1	0
151	1	0
152	1	0
153	1	0
154	1	0
155	1	0
156	1	0
157	1	0
158	1	0
159	1	0
160	1	0
161	1	0
162	1	0
163	1	0
164	1	0
165	1	0
166	1	0
167	1	0
168	1	0
169	1	0
170	1	0
171	1	0
172	1	0
173	1	0
174	1	0
175	1	0
176	1	0
177	1	0
178	1	0
179	1	0
180	1	0
181	1	0
182	1	0
183	1	0
184	1	0
185	1	0
186	1	0
187	1	0
188	1	0
189	1	0
190	1	0
191	1	0
192	1	0
193	1	0
194	1	0
195	1	0
196	1	0
197	1	0
198	1	0
199	1	0
200	1	0
201	1	0
202	1	0
203	1	0
204	1	0
205	1	0
206	1	0
207	1	0
208	0	0
209	0	0
210	0	0
211	0	0
212	0	0
213	0	0
214	0	0
215	0	0
216	0	0
217	0	0
218	0	0
219	0	0
220	0	0
221	0	0
222	0	0
223	0	0
224	0	0
225	0	0
226	0	0
227	0	0
228	0	0
229	0	0
230	0	0
231	0	0
232	0	0
233	0	0
234	0	0
235	0	0.429574
236	0	0.447301
237	0	0.449274
238	0	0.438416
239	0	0.433074
240	0	0.408475
241	1	0
242	1	0
243	1	0
244	1	0
245	1	0
246	1	0
247	1	0
248	1	0
249	1	0
250	1	0
251	1	0
252	1	0
253	1	0
254	1	0
255	1	0
256	1	0
257	1	0
258	1	0
259	1	0
260	1	0
261	1	0
262	1	0
263	1	0
264	1	0
265	1	0
266	1	0
267	1	0
268	1	0
269	1	0
270	1	0
271	1	0
272	1	0
273	1	0
274	1	0
275	1	0
276	1	0
277	1	0
278	1	0
279	1	0
280	1	0
281	1	0
282	1	0
283	1	0
284	1	0
285	1	0
286	1	0
287	1	0
288	1	0
289	1	0
290	1	0
291	1	0
292	1	0
293	1	0
294	1	0
295	1	0
296	1	0
297	1	0
298	1	0
299	1	0
300	1	0
301	1	0
302	1	0
303	1	0
304	1	0
305	1	0
306	1	0
307	1	0
308	1	0
309	1	0
310	1	0
311	1	0
312	1	0
313	1	0
314	1	0
315	1	0
316	1	0
317	1	0
318	1	0
319	1	0
320	1	0
321	1	0
322	1	0
323	1	0
324	1	0
325	1	0
326	1	0
327	1	0
328	1	0
329	1	0
330	1	0
331	1	0
332	1	0
333	1	0
334	1	0
335	1	0
336	1	0
337	1	0
338	1	0
339	1	0
340	1	0
341	1	0
342	1	0
343	1	0
344	1	0
345	1	0
346	1	0
347	1	0
348	1	0
349	1	0
350	1	0
351	1	0
352	1	0
353	1	0
354	1	0
355	1	0
356	1	0
357	1	0
358	1	0
359	1	0
360	1	0
361	1	0
362	1	0
363	1	0
364	1	0
365	1	0
366	1	0
367	1	0
368	1	0
369	1	0
370	1	0
371	1	0
372	1	0
373	1	0
374	1	0
375	1	0
376	1	0
377	1	0
378	1	0
379	1	0
380	1	0
381	1	0
382	1	0
383	1	0
384	1	0
385	1	0
386	1	0
387	1	0
388	1	0
389	1	0
390	1	0
391	1	0
392	1	0
393	1	0
394	1	0
395	1	0
396	1	0
397	1	0
398	1	0
399	1	0
400	1	0
401	1	0
402	1	0
403	1	0
404	1	0
405	1	0
406	1	0
407	1	0
408	1	0
409	1	0
410	1	0
411	1	0
412	1	0
413	1	0
414	1	0
415	1	0
416	1	0
417	1	0
418	1	0
419	1	0
420	1	0
421	1	0
422	1	0
423	1	0
424	1	0
425	1	0
426	1	0
427	1	0
428	1	0
429	1	0
430	1	0
431	1	0
432	1	0
433	1	0
434	1	0
435	0	0
436	0	0
437	0	0
438	0	0
439	0	0.272727
440	0	0.428536
441	0	0.433599
442	0	0.344059
443	0	0.306926
444	0	0.250685
445	0	0.303892
446	0	0.307453
447	0	0.295934
448	0	0.306109
449	0	0.310998
450	0	0.202102
451	0	0.174782
452	1	0
453	1	0
454	1	0
455	1	0
456	1	0
457	1	0
458	1	0
459	1	0
460	1	0
461	1	0
462	1	0
463	1	0
464	1	0
465	1	0
466	1	0
467	1	0
468	1	0
469	1	0
470	1	0
471	1	0
472	1	0
473	1	0
474	1	0
475	1	0
476	1	0
477	1	0
478	1	0
479	1	0
480	1	0
481	1	0
482	1	0
483	1	0
484	1	0
485	1	0
486	1	0
487	1	0
488	1	0
489	1	0
490	1	0
491	1	0
492	1	0
493	1	0
494	1	0
495	1	0
496	1	0
497	1	0
498	1	0
499	1	0
500	1	0
501	1	0
502	1	0
503	1	0
504	1	0
505	1	0
506	1	0
507	1	0
508	1	0
509	1	0
510	1	0
511	1	0
512	1	0
513	1	0
514	1	0
515	1	0
516	1	0
517	1	0
518	1	0
519	1	0
520	1	0
521	1	0
522	1	0
523	1	0
524	1	0
525	1	0
526	1	0
527	1	0
528	1	0
529	1	0
530	1	0
531	1	0
532	1	0
533	1	0
534	1	0
535	1	0
536	1	0
537	1	0
538	1	0
539	1	0
540	1	0
541	1	0
542	1	0
543	1	0
544	1	0
545	1	0
546	1	0
547	1	0
548	1	0
549	1	0
550	1	0
551	1	0
552	1	0
553	1	0
554	1	0
555	1	0
556	1	0
557	1	0
558	1	0
559	1	0
560	1	0
561	1	0
562	0	0
563	0	0
564	0	0
565	0	0
566	0	0
567	0	0
568	0	0
569	0	0
570	0	0
571	0	0
572	0	0
573	0	0
574	0	0
575	1	0
576	1	0
577	0	0.204212
578	0	0.204212
579	0	0
580	0	0
581	0	0
582	0	0
583	0	0
584	0	0
585	0	0
586	0	0
587	0	0
588	0	0
589	0	0
590	0	0
591	0	0
592	0	0
593	0	0
594	0	0
595	0	0
596	0	0.271557
597	0	0.274106
598	0	0.248413
599	0	0.202933
600	0	0.240023
601	0	0.236447
602	0	0.305152
603	0	0.0891266
604	0	0.325008
605	0	0.157143
606	0	0.451379
607	0	0.371579
608	0	0.261773
609	0	0.198508
610	0	0.141843
611	0	0.138832
612	0	0.173372
613	0	0.170644
614	0	0.191868
615	0	0.183515
616	0	0.183631
617	0	0.193466
618	0	1
619	0	1
620	0	1
621	0	1
622	0	1
623	0	0.333333
624	0	0.207239
625	0	0.203736
626	0	0.199607
627	0	0.17373
628	0	0.180832
629	0	0.166478
630	0	0.168261
631	0	0.421922
632	0	0.407407
633	0	0.435897
634	0	0.407407
635	0	0.473846
636	0	0.140228
637	0	0.137949
638	0	0.148609
639	0	0.141046
640	0	0.142636
641	0	0.135459
642	0	0.134677
643	0	0.133167
644	0	0
645	0	0
646	0	0
647	0	0.047619
648	0	0.0357143
649	0	0.405902
650	0	0.361668
651	0	0.325593
652	0	0.0566667
653	0	0.042328
654	0	0.299298
655	0	0.181118
656	0	0.219434
657	0	0.379576
658	0	0.203175
659	0	0.14958
660	0	0.14958
661	0	0.333484
662	0	0.330643
663	0	0.331051
664	0	0
665	0	0
666	0	0
667	0	0
668	0	0
669	0	0
670	0	0
671	0	0
672	0	0
673	0	0
674	0	0
675	0	0
676	0	0
677	0	0
678	0	0
679	0	0
680	0	0
681	0	0
682	0	0
683	0	0
684	0	0
685	0	0
686	0	0
687	0	0
688	0	0
689	0	0
690	0	0
691	0	0
692	0	0
693	0	0
694	0	0
695	0	0
696	0	0
697	0	0
698	0	0
699	0	0
700	0	0
701	0	0
702	0	0
703	0	0
704	0	0
705	0	0
706	0	0
707	0	0
708	0	0
709	0	0
710	0	0
711	0	0
712	0	0
713	0	0
714	0	0
715	0	0
716	0	0
717	0	0
718	0	0
719	0	0
720	0	0
721	0	0
722	0	0
723	0	0
724	0	0
725	0	0
726	0	0
727	0	0
728	0	0
729	0	0
730	0	0
731	0	0.333089
732	0	0.318006
733	0	0.118415
734	0	0.123474
735	0	0.274294
736	0	0.274897
737	0	0.272997
738	0	0
739	0	0
740	0	0
741	0	0
742	0	0
743	0	0
744	0	0
745	0	0
746	0	0
747	0	0
748	0	0.141667
749	0	0.141667
750	0	0.417237
751	0	0.1
752	0	0.166667
753	0	0.166667
754	0	0.166667
755	0	0.166667
756	0	0.166667
757	0	0
758	0	0
759	0	0
760	0	0
761	0	0
762	0	0
763	0	0
764	0	0
765	0	0
766	0	0
767	0	0
768	0	0.682179
769	0	0.655738
770	0	0.548621
771	0	0.26738
772	0	0.155298
773	0	0.163243
774	0	0.16221
775	0	0.248062
776	0	0.361111
777	0	0.378544
778	0	0.148148
779	0	0.211488
780	0	0.204868
781	0	0.219398
782	0	0.242377
783	0	0.0545455
784	0	0.0952381
785	0	0.166667
786	0	0.333333
787	0	0.333333
788	0	0.333333
789	0	0.333333
790	0	0.333333
791	0	0.333333
792	0	0.333333
793	0	0.199149
794	0	0.196015
795	0	0.20596
796	0	0.208856
797	0	0.226936
798	0	0.229703
799	0	1
800	0	0.333333
801	0	0.401312
802	0	0.372139
803	0	0.216064
804	0	0
805	0	0
806	0	0
807	0	0
808	0	0
809	0	0.153489
810	0	0.152017
811	0	0.13513
812	0	0.165025
813	0	0.325949
814	0	0.320998
815	0	0.31531
816	0	0.178571
817	0	0.142857
818	0	0.190476
819	0	0.190476
820	0	0
821	0	0
822	0	0
823	0	1
824	0	0.154886
825	0	0.155788
826	0	0.18489
827	0	0.210494
828	0	0.0952381
829	0	0.166667
830	0	0.3
831	0	0.2
832	0	0.214286
833	0	0.315385
834	0	0.076087
835	0	0.307644
836	0	0.343799
837	0	0.493135
838	0	0.348869
839	0	0.65942
840	0	0.591606
841	0	0.858328
842	0	0.858295
843	0	0.865286
844	0	0.880182
845	0	0.881131
846	0	0.888413
847	0	0.305556
848	0	0.878169
849	0	0.878169
850	0	0.773333
851	0	0.773333
852	0	0.679579
853	0	0.685451
854	0	0.659568
855	0	0.645488
856	0	0.525157
857	0	0.541448
858	0	0.475348
859	0	0
860	0	0
861	0	0
862	0	0
863	0	0
864	0	0
865	0	0
866	0	0.341343
867	0	0.348566
868	0	0.386909
869	0	0.393741
870	0	0.399799
871	0	0.732385
872	0	0.746872
873	0	0.794881
874	0	0.89719
875	0	0
876	0	0
877	0	0
878	0	0.942196
879	0	0.904102
880	0	0.89631
881	0	0.865682
882	0	0.594363
883	0	0
884	0	0
885	0	0
886	0	0
887	0	0.333333
888	0	0.25
889	0	0.695619
890	0	0.744589
891	0	0.1
892	0	0.323553
893	0	0.298641
894	0	0.301078
895	0	0.301974
896	0	0.294263
897	0	0.317106
898	0	0
899	0	0
900	0	0
901	0	0.333333
902	0	0.252747
903	0	0.238636
904	0	0.2
905	0	0.298789
906	0	0.326398
907	0	0.326265
908	0	0.413141
909	0	0.1
910	0	0.86202
911	0	0.523429
912	0	0.518824
913	0	0.340771
914	0	0
915	0	0
916	0	0
917	0	0
918	0	0
919	0	0.6
920	0	0.6
921	0	0.6
922	0	0.6
923	0	0.675676
924	0	0.456318
925	0	0.456318
926	0	0.458747
927	0	0.452492
928	0	0.145455
929	0	0.44659
930	0	0.389116
931	0	0.110294
932	0	0.391389
933	0	0.683971
934	0	0.678889
935	0	0.652024
936	0	0.419821
937	0	0.87994
938	0	0.937085
939	0	0.937085
940	0	0.863034
941	0	0.856007
942	0	0.841365
943	0	0.819564
944	0	0.823423
945	0	0.249693
946	0	0.311208
947	0	0.295058
948	0	0.485714
949	0	0.333333
950	0	0.423913
951	0	0.335897
952	0	0.379171
953	0	0.34188
954	0	0.270983
955	0	0.397759
956	0	0.299638
957	0	0.273396
958	0	0.268236
959	0	0.646947
960	0	0.427275
961	0	0.47822
962	0	0.453965
963	0	0.779957
964	0	0.774977
965	0	0.788223
966	0	0.801261
967	0	0.273846
968	0	0.528688
969	0	0
970	0	0
971	0	0
972	0	0.424242
973	0	0.358974
974	0	0.300809
975	0	0.833992
976	0	0.736264
977	0	0.736264
978	0	0.611111
979	0	0.255382
980	0	0.540221
981	0	0.478259
982	0	0.842559
983	0	0.867022
984	0	0.867154
985	0	0
986	0	0
987	0	0.859649
988	0	0.859649
989	0	0.867187
990	0	1
991	0	0.871264
992	0	0.871264
993	0	0.766129
994	0	0.715726
995	0	0.784874
996	0	0.574907
997	0	0.54533
998	0	0.529908
999	0	0.329156
1000	0	0.32623
1001	0	0.280702
1002	0	0.583179
1003	0	0.339791
1004	0	0.293589
1005	0	0.289568
1006	0	0.266667
1007	0	0.181917
1008	0	0.165129
1009	0	0.180479
1010	0	0.1727
1011	0	0.17478
1012	0	0.178598
1013	0	0.149732
1014	0	0.157368
1015	0	0.306047
1016	0	0.203137
1017	0	0.250694
1018	0	0.257239
1019	0	0.491765
1020	0	0.473285
1021	0	0.808565
1022	0	0.809368
1023	0	0.809368
1024	0	0.808642
1025	0	0.426316
1026	0	0.818765
1027	0	0.503413
1028	0	0.823212
1029	0	1
1030	0	1
1031	0	1
1032	0	0.166667
1033	0	0.689511
1034	0	0.717114
1035	0	0.682848
1036	0	0
1037	0	0
1038	0	0
1039	0	0
1040	0	0
1041	0	0
1042	0	0.654545
1043	0	0.818182
1044	0	0.5
1045	0	0.441176
1046	0	0.441176
1047	0	0.190476
1048	0	0.336132
1049	0	0.346308
1050	0	0.257604
1051	0	0
1052	0	0
1053	0	0.166667
1054	0	0.533333
1055	0	0.580882
1056	0	0.376623
1057	0	0.386878
1058	0	0.36639
1059	0	0.315225
1060	0	0.326835
1061	0	0.327979
1062	0	0.0952381
1063	0	0.133333
1064	0	0.442424
1065	0	0
1066	0	0
1067	0	0
1068	0	0
1069	0	0
1070	0	0
1071	0	0.454886
1072	0	0.481311
1073	0	0.1
1074	0	0.745007
1075	0	0.869923
1076	0	0
1077	0	0
1078	0	0
1079	0	0
1080	0	0
1081	0	0
1082	0	0
1083	0	0
1084	0	1
1085	1	1
1086	1	1
1087	1	1
1088	1	1
1089	1	1
1090	1	1
1091	1	1
1092	1	1
1093	1	1
1094	1	1
1095	1	1
1096	1	1
1097	1	1
1098	0	0.984001
1099	0	0.984001
1100	0	1
1101	0	0.428571
1102	0	0.96826
1103	0	0.968134
1104	0	0.967745
1105	0	0.714286
1106	0	0.714286
1107	0	0.910858
1108	0	0.821097
1109	0	0.481788
1110	0	0.617255
1111	0	0.435228
1112	0	0.52381
1113	0	1
1114	0	0.466134
1115	0	0.476054
1116	0	0.482927
1117	0	0.634058
1118	0	0.889327
1119	0	0.862126
1120	0	0.862126
1121	0	0.862353
1122	0	0.862353
1123	0	0.494429
1124	0	0.519724
1125	0	0.532404
1126	0	0.973684
1127	0	0.943589
1128	0	0.943589
1129	0	0.893445
1130	0	0.893445
1131	0	0.893445
1132	1	1
1133	1	1
1134	0	1
1135	0	1
1136	0	1
1137	0	1
1138	0	0.898338
1139	0	0.643742
1140	0	0.434113
1141	0	0.42751
1142	0	0.448392
1143	0	0.779412
1144	0	0.520596
1145	0	0.492705
1146	0	1
1147	0	1
1148	0	1
1149	1	1
1150	1	1
1151	1	1
1152	1	1
1153	1	1
1154	1	1
1155	1	1
1156	1	1
1157	1	1
1158	1	1
1159	1	1
1160	1	1
1161	1	1
1162	1	1
1163	1	1
1164	0	0
1165	0	0
1166	0	0
1167	0	0
1168	1	0
1169	1	0
1170	0	0.992
1171	0	0.992
1172	0	0.992
1173	0	0.992
1174	1	1
1175	1	1
1176	1	1
1177	1	1
1178	1	1
1179	0	0.992
1180	1	0
1181	1	0
1182	1	0
1183	1	0
1184	1	0
1185	1	0
1186	1	0
1187	1	0
1188	1	0
1189	1	0
1190	1	0
1191	1	0
1192	1	0
1193	1	0
1194	1	0
1195	1	0
1196	1	0
1197	1	0
1198	1	0
1199	1	0
1200	1	0
1201	1	0
1202	1	0
1203	1	0
1204	1	0
1205	1	0
1206	1	0
1207	0	0
1208	1	1
1209	1	1
1210	1	1
1211	1	1
1212	1	1
1213	1	1
1214	1	1
1215	1	1
1216	1	1
1217	1	1
1218	1	1
1219	1	1
1220	1	1
1221	1	1
1222	1	1
1223	1	1
1224	1	1
1225	0	0.976193
1226	0	0.976193
1227	0	0.968163
1228	0	0.952423
1229	0	1
1230	0	0.946231
1231	0	0.510101
1232	0	0.501109
1233	0	0
1234	0	0
1235	0	1
1236	0	1
1237	0	1
1238	1	1
1239	1	1
1240	1	1
1241	1	1
1242	1	1
1243	1	1
1244	1	1
1245	1	1
1246	1	1
1247	1	1
1248	0	1
1249	0	1
1250	0	1
1251	0	0.796919
1252	0	0.733236
1253	0	0.730439
1254	0	0.44488
1255	0	0.325423
1256	0	0.48981
1257	0	0.442105
1258	0	0.289308
1259	0	0.292245
1260	0	0.143527
1261	0	0.139226
1262	0	0.134658
1263	0	0.14828
1264	0	0.150509
1265	0	0.172466
1266	0	0.205222
1267	0	0.194724
1268	0	0.237649
1269	0	0.245746
1270	0	0.30499
1271	0	0.310805
1272	0	0.35208
1273	0	0.22023
1274	0	0.210825
1275	0	0.194229
1276	0	0.199056
1277	0	0.193761
1278	0	0.194915
1279	0	0.270588
1280	0	0.393556
1281	0	0.370043
1282	0	0.367422
1283	0	0.431682
1284	0	0.440991
1285	0	0.412533
1286	0	0.32808
1287	0	0.32461
1288	0	0.196069
1289	0	0.191874
1290	0	0.268149
1291	0	0.260735
1292	0	0
1293	0	0
1294	0	0.333333
1295	0	0.925606
1296	0	1
1297	0	0
1298	0	0.333333
1299	0	0.282051
1300	0	0.8
1301	0	0.464286
1302	0	0.333333
1303	0	0.513032
1304	0	0.497154
1305	0	0.551383
1306	0	1
1307	0	0.903192
1308	0	1
1309	0	1
1310	0	1
1311	0	1
1312	0	0.935546
1313	0	0.935805
1314	0	0.936061
1315	0	1
1316	0	1
1317	1	1
1318	1	1
1319	1	1
1320	1	1
1321	1	1
1322	1	1
1323	1	1
1324	1	1
1325	1	1
1326	1	1
1327	1	1
1328	1	1
1329	1	1
1330	1	1
1331	1	1
1332	1	1
1333	1	1
1334	1	1
1335	1	1
1336	1	1
1337	1	1
1338	1	1
1339	1	1
1340	0	0.900635
1341	0	0.907179
1342	0	1
1343	0	0.927524
1344	0	0.898158
1345	0	0.899339
1346	0	0.899339
1347	0	0.47619
1348	0	0.801989
1349	0	0.755991
1350	0	0.876159
1351	0	0.869122
1352	0	0.862169
1353	0	0.488514
1354	0	0.495936
1355	0	0.495936
1356	0	0
1357	0	0.9875
1358	0	0.9875
1359	0	0.975001
1360	0	0.975511
1361	0	0.99177
1362	0	0.99177
1363	0	1
1364	1	1
1365	1	1
1366	1	1
1367	1	1
1368	1	1
1369	1	1
1370	1	1
1371	1	1
1372	1	1
1373	1	1
1374	1	1
1375	1	1
1376	1	1
1377	1	1
1378	1	1
1379	0	0
1380	0	0.992
1381	1	1
1382	1	1
1383	1	1
1384	1	1
1385	1	1
1386	1	1
1387	1	1
1388	1	1
1389	1	1
1390	1	1
1391	0	0
1392	0	0
1393	0	0.922353
1394	0	0.475635
1395	0	0.32267
1396	0	0.243207
1397	0	0.235885
1398	0	0.214804
1399	0	0.199533
1400	0	0.462388
1401	0	0.483433
1402	0	0.65812
1403	1	1
1404	1	1
1405	1	1
1406	1	1
1407	1	1
1408	1	1
1409	1	1
1410	1	1
1411	1	1
1412	1	1
1413	1	1
1414	1	1
1415	1	1
1416	0	0.968386
1417	0	0.968386
1418	0	0.96826
1419	0	0.96826
1420	0	1
1421	0	0.958824
1422	0	0.776141
1423	0	0.723014
1424	0	0.46043
1425	0	0.45247
1426	0	0.425008
1427	0	0.471455
1428	0	0.451906
1429	0	0.475196
1430	0	0.422346
1431	0	0.252018
1432	0	0.336758
1433	0	0.354322
1434	0	0.340913
1435	0	0.453174
1436	0	0.456729
1437	0	0.173913
1438	0	0.411836
1439	0	0.41493
1440	0	0.413373
1441	0	0.425101
1442	0	0.402254
1443	0	0.284072
1444	0	0.325301
1445	0	0.351924
1446	0	0.38636
1447	0	0
1448	0	0
1449	0	1
1450	0	0.884997
1451	0	0.887152
1452	0	0.833333
1453	0	1
1454	0	1
1455	0	1
1456	0	1
1457	1	1
1458	1	1
1459	1	1
1460	1	1
1461	1	1
1462	1	1
1463	1	1
1464	1	1
1465	1	1
1466	1	1
1467	1	1
1468	1	1
1469	1	1
1470	1	1
1471	1	1
1472	0	0.56347
1473	0	0.914205
1474	0	1
1475	0	1
1476	0	1
1477	1	1
1478	1	1
1479	1	1
1480	1	1
1481	1	1
1482	0	0.984064
1483	0	0.983806
1484	0	0.551904
1485	0	0.551904
1486	0	0.933766
1487	0	0.945349
1488	0	0.945349
1489	0	0.945135
1490	0	0.945349
1491	0	1
1492	1	1
1493	1	1
1494	1	1
1495	1	1
1496	1	1
1497	1	1
1498	1	1
1499	1	1
1500	1	1
1501	1	1
1502	1	1
1503	1	1
1504	1	1
1505	1	1
1506	1	1
1507	1	1
1508	1	1
1509	1	1
1510	1	1
1511	1	1
1512	1	1
1513	1	1
1514	0	0.992
1515	0	0.992
1516	0	1
1517	0	0.991968
1518	1	1
1519	1	1
1520	1	1
1521	1	1
1522	1	1
1523	0	1
1524	0	1
1525	0	1
1526	1	1
1527	0	0.992
1528	0	0.992
1529	0	0.992
1530	1	1
1531	1	1
1532	1	1
1533	1	1
1534	1	1
1535	1	1
1536	1	1
1537	0	0.976193
1538	0	1
1539	1	1
1540	1	1
1541	1	1
1542	0	0.983871
1543	1	1
1544	1	1
1545	0	1
1546	1	1
1547	1	1
1548	1	1
1549	1	1
1550	1	1
1551	1	1
1552	1	1
1553	1	1
1554	1	1
1555	1	1
1556	0	0.937799
1557	0	0.937799
1558	0	0.930056
1559	0	0
1560	0	0
1561	0	0
1562	0	0
1563	0	0
1564	0	0
1565	0	0
1566	0	0.833333
1567	0	0.622222
1568	0	1
1569	0	0.736066
1570	0	0.499787
1571	0	0.466667
1572	0	0.466667
1573	0	0.356473
1574	0	0.319496
1575	0	0
1576	0	0
1577	0	0
1578	0	0
1579	0	0
1580	0	0
1581	0	0.298936
1582	0	0.177654
1583	0	0.238095
1584	0	0.4
1585	1	1
1586	0	0.666667
1587	0	0.666667
1588	0	0.714286
1589	0	0.492322
1590	0	0.54067
1591	0	0.333247
1592	0	0.243421
1593	0	0.238937
1594	0	0.285714
1595	0	0.222862
1596	0	1
1597	0	0.263736
1598	0	1
1599	0	1
1600	0	1
1601	0	0.288253
1602	0	0.894737
1603	0	0.409357
1604	0	0.604396
1605	0	0.507755
1606	0	0.354581
1607	0	0
1608	0	0
1609	0	0
1610	0	0
1611	0	0
1612	0	0
1613	0	0
1614	0	0.354876
1615	0	0.391971
1616	0	0.241148
1617	0	0.235275
1618	0	0.211529
1619	0	0.235507
1620	0	0.343537
1621	0	0.412666
1622	0	0.550526
1623	0	0.477064
1624	0	0.490327
1625	0	0.49036
1626	0	0.532106
1627	0	0.5
1628	0	0.6
1629	0	0.6
1630	0	1
1631	0	0.989796
1632	0	1
1633	1	1
1634	1	1
1635	1	1
1636	1	1
1637	1	1
1638	1	1
1639	0	0.992
1640	0	0
1641	0	0
1642	0	0
1643	0	0.954545
1644	0	0.524258
1645	0	0.374808
1646	0	0.361639
1647	0	0.47094
1648	0	0.518361
1649	0	0.821764
1650	0	0.952592
1651	1	1
1652	1	1
1653	1	1
1654	1	1
1655	1	1
1656	1	1
1657	1	1
1658	1	1
1659	1	1
1660	1	1
1661	1	1
1662	1	1
1663	1	1
1664	1	1
1665	1	1
1666	0	0.992
1667	0	0.572581
1668	0	0.505928
1669	0	0
1670	0	0
1671	0	0
1672	0	0
1673	0	0.969113
1674	0	0.654971
1675	0	0.384615
1676	0	0.724292
1677	0	0.676286
1678	0	0.425849
1679	0	0.560606
1680	0	0.804164
1681	0	0.984064
1682	0	0.984064
1683	0	0.984064
1684	0	0.984064
1685	0	0.984064
1686	0	0.984064
1687	0	1
1688	1	1
1689	1	1
1690	1	1
1691	0	0.984064
1692	0	1
1693	1	1
1694	1	1
1695	1	1
1696	1	1
1697	1	1
1698	1	1
1699	1	1
1700	1	1
1701	1	1
1702	1	1
1703	1	1
1704	1	1
1705	1	1
1706	1	1
1707	1	1
1708	1	1
1709	1	1
1710	1	1
1711	1	1
1712	1	1
1713	1	1
1714	1	1
1715	1	1
1716	1	1
1717	1	1
1718	1	1
1719	1	1
1720	1	1
1721	1	1
1722	1	1
1723	1	1
1724	1	1
1725	1	1
1726	1	1
1727	1	1
1728	0	1
1729	0	1
1730	0	0.945349
1731	0	0.945349
1732	0	0.94492
1733	0	0.834402
1734	0	0.825615
1735	0	1
1736	0	1
1737	0	1
1738	0	1
1739	0	1
1740	0	0.672727
1741	0	0.736764
1742	0	0.552793
1743	0	0.483912
1744	0	0.421941
1745	0	0.454908
1746	0	0.333333
1747	0	0.317748
1748	0	0.307294
1749	0	0.28812
1750	0	1
1751	0	0.666667
1752	0	1
1753	0	0.5
1754	0	0.375
1755	0	0.330882
1756	0	0.628458
1757	0	0.563841
1758	0	0.557525
1759	0	0.984032
1760	0	0.984032
1761	0	0.984032
1762	0	0.991968
1763	0	0
1764	0	0
1765	0	0
1766	0	0
1767	1	1
1768	1	1
1769	1	1
1770	1	1
1771	1	1
1772	1	1
1773	1	1
1774	1	1
1775	1	1
1776	1	1
1777	1	1
1778	1	1
1779	1	1
1780	1	1
1781	1	1
1782	1	1
1783	1	1
1784	1	1
1785	1	1
1786	1	1
1787	1	1
1788	1	1
1789	1	1
1790	1	1
1791	1	1
1792	1	1
1793	1	1
1794	1	1
1795	1	1
1796	1	1
1797	1	1
1798	1	1
1799	1	1
1800	1	1
1801	1	1
1802	1	1
1803	1	1
1804	1	1
1805	1	1
1806	1	1
1807	1	1
1808	1	1
1809	1	1
1810	1	1
1811	0	1
1812	0	0.991736
1813	0	0.975412
1814	0	1
1815	0	1
1816	0	0.884659
1817	0	0.884659
1818	0	0.884659
1819	0	0.75
1820	0	0.75
1821	0	0.833317
1822	0	0.833317
1823	0	0.833317
1824	0	0.833317
1825	0	0.833317
1826	0	0.166667
1827	0	0.166667
1828	0	0.166667
1829	0	0.166667
1830	0	0.166667
1831	0	0.133333
1832	0	0.190476
1833	0	0.765829
1834	0	0.331821
1835	0	0.343859
1836	0	0.334747
1837	0	0.297092
1838	0	0.107143
1839	0	0.511202
1840	0	0.426251
1841	0	0.467162
1842	0	0.466781
1843	0	0.166667
1844	0	0.163333
1845	0	0.199128
1846	0	0.195888
1847	0	0.188042
1848	0	0.206633
1849	0	0
1850	0	0
1851	0	0
1852	0	0.221565
1853	0	0.133333
1854	0	0.2
1855	0	0.385165
1856	0	0.405102
1857	0	0.846154
1858	0	0.321569
1859	0	0.412518
1860	0	0.226531
1861	0	0.283341
1862	0	0.288386
1863	0	0.29661
1864	0	0
1865	0	0
1866	0	0
1867	0	0
1868	0	0
1869	0	0
1870	0	0.351892
1871	0	0.339869
1872	0	0.333333
1873	0	0.839935
1874	0	0.857849
1875	0	0
1876	0	0
1877	0	0
1878	0	0
1879	0	0
1880	0	0.870233
1881	0	0.892691
1882	0	0.892691
1883	0	0.892691
1884	0	0.892691
1885	0	0.892691
1886	0	0.95103
1887	0	0.952578
1888	0	0.95239
1889	0	0.967548
1890	0	0.951623
1891	0	0.976096
1892	0	0.976096
1893	0	0.968066
1894	0	0.968066
1895	0	0.968066
1896	0	0.968066
1897	0	0
1898	0	0.967581
1899	0	0.512925
1900	0	0
1901	0	0.843507
1902	0	0.734228
1903	0	0
1904	0	0
1905	0	0
1906	0	0
1907	0	0
1908	0	0
1909	0	0
1910	0	0
1911	1	0
1912	1	0
1913	1	0
1914	1	0
1915	1	0
1916	1	0
1917	1	0
1918	1	0
1919	1	0
1920	1	0
1921	0	0
1922	0	0
1923	0	0.921508
1924	0	0.92866
1925	0	0.883669
1926	0	0
1927	0	0.333333
1928	0	0.854843
1929	0	0.818538
1930	0	0.47909
1931	0	0.538462
1932	0	0.25
1933	0	0.435016
1934	0	0.393514
1935	0	0.340789
1936	1	0
1937	1	0
1938	0	0
1939	0	0
1940	0	0
1941	0	0
1942	0	0.333333
1943	0	0.808499
1944	0	0.614099
1945	0	0.334835
1946	0	0.203086
1947	0	0.421586
1948	0	0.438096
1949	0	0.467341
1950	0	0.430908
1951	0	0.407935
1952	0	0.46289
1953	0	0.420776
1954	0	0
1955	0	0
1956	0	0
1957	0	0
1958	0	0.477047
1959	0	0.482737
1960	0	0.487531
1961	0	0.492324
1962	0	0
1963	0	0.512286
1964	0	1
1965	0	1
1966	0	0.451775
1967	0	0.930056
1968	0	0.976129
1969	0	0.984032
1970	0	0.991935
1971	0	0.992
1972	0	0.992
1973	0	0.992
1974	0	0.992
1975	0	0.984032
1976	0	0.984032
1977	0	0.983904
1978	0	0.983904
1979	0	0.839752
1980	0	0
1981	0	0.979113
1982	0	0.556624
1983	0	0.571338
1984	0	0.57913
1985	0	1
1986	0	1
1987	1	1
1988	0	0.931034
1989	0	0.735156
1990	0	0.981044
1991	0	1
1992	1	1
1993	1	1
1994	1	1
1995	1	1
1996	0	1
1997	0	0.984064
1998	0	0.984064
1999	0	0.976129
2000	0	0.976193
2001	0	1
2002	1	1
2003	1	1
2004	1	1
2005	0	0
2006	0	0
2007	0	0
2008	0	0
2009	0	0
2010	0	0
2011	0	0
2012	1	0
2013	1	0
2014	1	0
2015	1	0
2016	1	0
2017	1	0
2018	1	0
2019	1	0
2020	1	0
2021	1	0
2022	1	0
2023	1	0
2024	1	0
2025	1	0
2026	1	0
2027	0	0.991525
2028	0	0.705128
2029	0	0.651452
2030	0	0.656581
2031	0	0.541085
2032	0	0.498866
2033	0	0.498866
2034	0	0
2035	0	0
2036	0	0
2037	0	0.91716
2038	0	1
2039	0	0.92749
2040	0	0.935449
2041	0	0.891307
2042	0	0.929639
2043	0	0.929639
2044	0	0.937136
2045	1	0
2046	1	0
2047	1	0
2048	1	0
2049	0	0
2050	0	0
2051	0	0
2052	0	0
2053	0	0
2054	0	0
2055	0	1
2056	0	1
2057	0	1
2058	0	1
2059	1	1
2060	1	1
2061	0	1
2062	0	0.984064
2063	0	1
2064	1	1
2065	0	0.968131
2066	0	0.984032
2067	0	0.984032
2068	0	0.976096
2069	0	0
2070	0	1
2071	0	0.992
2072	0	0.992
2073	1	0
2074	1	0
2075	1	0
2076	1	0
2077	1	0
2078	1	0
2079	1	0
2080	1	0
2081	1	0
2082	1	0
2083	0	0
2084	0	0
2085	1	1
2086	1	1
2087	1	1
2088	1	1
2089	1	1
2090	1	1
2091	1	1
2092	1	1
2093	1	1
2094	1	1
2095	1	1
2096	1	1
2097	0	1
2098	0	1
2099	0	0.523181
2100	0	0.523181
2101	0	0.523181
2102	0	0.909226
2103	0	0.332143
2104	0	0.317547
2105	0	0.260688
2106	0	0.271883
2107	0	0.226851
2108	0	0.226584
2109	0	0.190361
2110	0	0.209799
2111	0	0.248321
2112	0	0.343568
2113	0	0.356555
2114	0	0.35941
2115	0	0.362233
2116	0	0.369554
2117	0	0.365396
2118	0	0.392543
2119	0	0.531649
2120	0	0.615786
2121	0	0.885173
2122	0	0.885173
2123	0	0.885173
2124	0	0.892723
2125	0	0.892723
2126	0	0.891896
2127	0	0.891896
2128	0	0.878394
2129	0	0.4
2130	0	0.940913
2131	0	0.1
2132	0	0
2133	0	0
2134	0	0
2135	0	0
2136	0	0.840491
2137	0	0.840491
2138	0	0.840491
2139	0	0.840491
2140	0	0.840491
2141	0	0
2142	0	0
2143	0	0
2144	0	0
2145	0	0
2146	0	0.831572
2147	0	0.833478
2148	0	0.833478
2149	0	0.832996
2150	0	0.825703
2151	0	0.825042
2152	0	0
2153	0	0
2154	0	0
2155	0	0
2156	0	0
2157	0	0
2158	0	0
2159	0	0
2160	0	0
2161	0	0
2162	0	0
2163	0	0
2164	0	0
2165	0	0
2166	0	0
2167	0	0
2168	0	0
2169	0	0
2170	0	0
2171	0	0
2172	0	0
2173	0	0
2174	0	0
2175	0	0
2176	0	0
2177	0	0
2178	0	0
2179	0	0
2180	0	0.1
2181	0	0.835993
2182	0	0.380952
2183	0	0.673314
2184	0	0.360151
2185	0	0.333333
2186	0	0.420327
2187	0	0.286318
2188	0	0.268702
2189	0	0.147409
2190	0	0.210486
2191	0	0
2192	0	0
2193	0	0
2194	0	0
2195	0	0
2196	0	0
2197	0	0
2198	0	0.0833333
2199	0	0.225317
2200	0	0.231701
2201	0	0
2202	0	0.1
2203	0	0.1
2204	0	0.166667
2205	0	0.802994
2206	0	0.741042
2207	0	0.537912
2208	0	0.582819
2209	0	0.422799
2210	0	0.428725
2211	0	0.433479
2212	0	0.426494
2213	0	0.471828
2214	0	0.547085
2215	0	0.542771
2216	0	0.843278
2217	0	0.877333
2218	0	0.898127
2219	0	0.47619
2220	0	0.47619
2221	0	0.569028
2222	0	0.569028
2223	0	0
2224	0	0
2225	0	0
2226	0	0
2227	0	0
2228	0	0.555733
2229	0	0.555733
2230	0	0.555733
2231	0	0.555733
2232	0	0.550183
2233	0	0.883664
2234	0	0.725912
2235	0	0.367936
2236	0	0.32212
2237	0	0.197044
2238	0	0
2239	0	0
2240	0	0
2241	0	0
2242	0	0
2243	0	0
2244	0	0
2245	0	0
2246	0	0
2247	0	0.5
2248	0	0.266667
2249	0	0.380952
2250	0	0.419118
2251	0	0.296443
2252	0	0.170115
2253	0	0.212903
2254	0	0.591093
2255	0	0.422868
2256	0	0.770131
2257	0	0.848154
2258	0	0.862047
2259	0	0.933837
2260	0	0.944707
2261	0	0.944707
2262	0	0.944771
2263	0	0.944771
2264	0	0.944771
2265	0	0.944771
2266	0	0
2267	0	0
2268	0	0
2269	0	0
2270	0	1
2271	0	1
2272	0	1
2273	0	1
2274	0	1
2275	0	1
2276	1	1
2277	1	1
2278	1	1
2279	1	1
2280	1	1
2281	1	1
2282	1	1
2283	1	1
2284	1	1
2285	1	1
2286	1	1
2287	1	1
2288	1	1
2289	1	1
2290	1	1
2291	1	1
2292	1	1
2293	1	1
2294	1	1
2295	1	1
2296	1	1
2297	1	1
2298	1	1
2299	0	1
2300	0	0.466667
2301	0	0.466667
2302	0	0.724038
2303	0	0.464314
2304	0	0.358384
2305	0	0.268959
2306	0	0.202797
2307	0	0.201248
2308	0	0.191874
2309	0	0.151341
2310	0	0.173571
2311	0	0.192203
2312	0	0.211518
2313	0	0.155172
2314	0	0
2315	0	0.166667
2316	0	0.5
2317	0	0
2318	0	0
2319	0	0
2320	0	0.186618
2321	0	0.197407
2322	0	0
2323	0	0
2324	0	0.181954
2325	0	0.179534
2326	0	0.177574
2327	0	0
2328	0	0.176887
2329	0	0.207059
2330	0	0.178571
2331	0	0.133333
2332	0	0.243393
2333	0	0.177671
2334	0	0.188883
2335	0	0
2336	0	0
2337	0	0.167037
2338	0	0.44293
2339	0	0.166464
2340	0	0
2341	0	0
2342	0	0
2343	0	0
2344	0	0
2345	0	0
2346	0	0.214286
2347	0	0.285714
2348	0	0.163636
2349	0	0.38396
2350	0	0.375849
2351	0	1
2352	0	1
2353	0	0.333333
2354	0	0.0671937
2355	0	0.0652174
2356	0	0.159943
2357	0	0.167353
2358	0	0.171866
2359	0	0.141029
2360	0	0.138374
2361	0	0.146598
2362	0	0.150206
2363	0	0.433511
2364	0	0.2642
2365	0	0.135897
2366	0	0.195329
2367	0	0.20219
2368	0	0.245677
2369	0	0.190476
2370	0	0.116959
2371	0	0.117647
2372	0	0.2
2373	0	0.338897
2374	0	0.378776
2375	0	0.297487
2376	0	0.274693
2377	0	0.219052
2378	0	0.212467
2379	0	0.218613
2380	0	0.226953
2381	0	0.285541
2382	0	0.246667
2383	0	0.552036
2384	0	0.778516
2385	0	0.816492
2386	0	0.779623
2387	0	0.779623
2388	0	0.7463
2389	0	0
2390	0	0
2391	0	0
2392	0	0
2393	0	0
2394	0	0
2395	0	0
2396	0	0
2397	0	0
2398	0	0
2399	0	0
2400	0	0
2401	0	0.888889
2402	0	0
2403	0	0
2404	0	0
2405	0	1
2406	1	1
2407	1	1
2408	1	1
2409	1	1
2410	1	1
2411	1	1
2412	1	1
2413	1	1
2414	0	1
2415	0	0.649123
2416	0	0.855981
2417	0	0.855981
2418	0	0.855981
2419	0	0.855981
2420	0	0.855436
2421	0	0
2422	0	0
2423	0	0
2424	0	0
2425	0	0
2426	0	0
2427	0	0
2428	0	0
2429	0	0
2430	0	0
2431	0	0
2432	0	0
2433	0	0
2434	0	0
2435	0	0
2436	0	0
2437	0	0
2438	0	0
2439	0	0
2440	0	0
2441	0	0
2442	0	0
2443	0	0
2444	0	0
2445	0	0
2446	0	0
2447	0	0
2448	0	0
2449	0	0
2450	0	0
2451	0	0.333333
2452	0	0.855896
2453	0	0.840302
2454	0	0.4
2455	0	0.4
2456	0	0.666667
2457	0	0.5
2458	0	0.5
2459	0	0.5
2460	0	0.5
2461	0	0.5
2462	1	0
2463	1	0
2464	0	0.593579
2465	0	0.58895
2466	0	0.538809
2467	0	0.717471
2468	0	0.513182
2469	0	0.513014
2470	0	0.333333
2471	0	0.342818
2472	0	0.343844
2473	0	0.265328
2474	0	0.246377
2475	0	0.106061
2476	0	0.0952381
2477	0	0
2478	0	0
2479	0	0
2480	0	0
2481	0	0
2482	0	0
2483	0	0.203915
2484	0	0.183311
2485	0	0.0968625
2486	0	0.3
2487	0	0.1
2488	0	0.437895
2489	0	0.392352
2490	0	0.285005
2491	0	0.374085
2492	0	0.209732
2493	0	0.211865
2494	0	0.211167
2495	0	0.213208
2496	0	0.215637
2497	0	0
2498	0	0
2499	0	0
2500	0	0
2501	0	0
2502	0	0.242424
2503	0	0.669173
2504	0	0.669515
2505	0	0.635833
2506	0	0.592894
2507	0	0.656445
2508	0	0.620258
2509	0	0.761888
2510	0	0.205128
2511	0	0.819931
2512	0	0.826729
2513	0	0
2514	0	0
2515	0	0
2516	0	0
2517	0	0
2518	0	0
2519	0	1
2520	0	1
2521	0	1
2522	0	0.880386
2523	0	0.880861
2524	0	0.880861
2525	0	0
2526	0	0.832161
2527	0	0.832161
2528	0	0.83152
2529	0	0.83152
2530	0	0.83152
2531	0	0.475094
2532	0	0.466175
2533	0	0.465258
2534	0	0.5
2535	0	0.333333
2536	0	0.5
2537	0	0.583333
2538	0	0.488889
2539	0	0.814286
2540	0	0.342843
2541	0	0.536108
2542	0	0.833673
2543	0	0
2544	0	0
2545	0	0
2546	0	0
2547	0	0
2548	0	0
2549	0	0
2550	0	0
2551	0	0
2552	0	0
2553	0	0
2554	0	0
2555	0	0
2556	0	0
2557	0	0
2558	0	0
2559	0	0
2560	0	0
2561	0	0
2562	0	0
2563	0	0
2564	0	0
2565	0	0
2566	0	0
2567	0	0
2568	0	0
2569	0	0
2570	0	0
2571	0	0
2572	0	0
2573	0	0
2574	0	0
2575	0	0
2576	0	0
2577	0	0
2578	0	0
2579	0	0
2580	0	0
2581	0	0
2582	0	0
2583	0	0
2584	0	0
2585	0	0
2586	0	0
2587	0	0
2588	0	0
2589	0	0
2590	0	0
2591	0	0
2592	0	0
2593	0	0
2594	0	0
2595	0	0
2596	0	0
2597	0	0
2598	0	0
2599	0	0
2600	0	0
2601	0	0
2602	0	0
2603	0	0
2604	0	0
2605	0	0
2606	0	0
2607	0	0
2608	0	0
2609	0	0.333333
2610	0	0.5
2611	0	0.833333
2612	0	0.950796
2613	0	0.967712
2614	0	0.959909
2615	0	0.959909
2616	0	0.97584
2617	0	0.967938
2618	0	0.968066
2619	0	0.968066
2620	0	0.937006
2621	0	0.869251
2622	0	0.862297
2623	0	0.862297
2624	0	0
2625	0	0
2626	0	0
2627	0	0.873176
2628	0	0.55828
2629	0	0.543084
2630	0	0.333333
2631	0	0.333333
2632	0	0.333333
2633	0	0.2
2634	0	0.2
2635	0	0.333333
2636	0	0.333333
2637	0	0.142857
2638	0	0.163636
2639	0	0.230769
2640	0	0.307692
2641	0	0.385309
2642	0	0.324281
2643	0	0.190476
2644	0	0.138528
2645	0	0.108529
2646	0	0.0946011
2647	0	0.135725
2648	0	0.131181
2649	0	0.125111
2650	0	0.201271
2651	0	0.257123
2652	0	0
2653	0	0
2654	0	0
2655	0	0
2656	0	0
2657	0	0
2658	0	0
2659	0	0
2660	0	0
2661	0	0
2662	0	0
2663	0	0
2664	0	0
2665	0	0
2666	0	0
2667	0	0
2668	0	0
2669	0	0
2670	0	0
2671	0	0
2672	0	0
2673	0	0
2674	0	0
2675	0	0
2676	0	0
2677	0	0
2678	0	0
2679	0	0
2680	0	0
2681	0	0
2682	0	0
2683	0	0
2684	0	0
2685	0	0
2686	0	0
2687	0	0
2688	0	0
2689	0	0
2690	0	0
2691	0	0
2692	0	0
2693	0	0
2694	0	0
2695	0	0
2696	0	0
2697	0	0
2698	0	0
2699	0	0
2700	0	0
2701	0	0
2702	0	0
2703	0	0
2704	0	0
2705	0	0
2706	1	0
2707	1	0
2708	0	0
2709	0	0
2710	0	0
2711	0	0
2712	0	0
2713	0	0
2714	0	0
2715	0	0
2716	0	0
2717	0	0
2718	0	0
2719	0	0
2720	0	0
2721	0	0
2722	0	0
2723	0	0
2724	0	0
2725	0	0
2726	0	0
2727	0	0
2728	0	0
2729	0	0
2730	0	0
2731	0	0
2732	0	0
2733	0	0
2734	0	0
2735	0	0
2736	0	0
2737	0	0
2738	0	0
2739	0	0
2740	0	0
2741	0	0
2742	0	0
2743	0	0
2744	0	0.333333
2745	0	0.6
2746	0	0.6
2747	0	0.395285
2748	0	0.214286
2749	0	0
2750	0	0.44058
2751	0	0.222222
2752	0	0.307692
2753	0	0.358974
2754	0	0.358974
2755	0	0.371795
2756	0	0.438095
2757	0	0.438095
2758	0	0.438095
2759	0	0.438095
2760	0	0.783647
2761	0	0.783614
2762	0	0.783775
2763	0	0.2
2764	0	0
2765	0	0
2766	0	0
2767	0	0
2768	0	0
2769	0	0
2770	0	0.792225
2771	0	0.622222
2772	0	0.535714
2773	0	0
2774	0	0
2775	0	0
2776	0	0
2777	0	0.854811
2778	0	0.854322
2779	0	0.81032
2780	0	0.809822
2781	0	0
2782	0	0
2783	0	0
2784	0	0
2785	0	0
2786	0	0.841021
2787	0	0.820084
2788	0	0.80666
2789	0	0.80666
2790	0	0.82687
2791	0	0
2792	0	0
2793	0	0
2794	0	0
2795	0	0
2796	0	0
2797	0	0
2798	0	0
2799	0	0
2800	0	0
2801	0	0
2802	0	0
2803	0	0
2804	0	0
2805	0	0
2806	0	0
2807	0	0
2808	0	0
2809	0	0
2810	0	0
2811	0	0
2812	1	0
2813	1	0
2814	1	0
2815	1	0
2816	1	0
2817	0	0
2818	0	0
2819	0	0
2820	0	0
2821	0	0
2822	0	0
2823	0	0
2824	0	0
2825	0	0
2826	0	0
2827	0	0
2828	0	0
2829	0	0
2830	0	0
2831	0	0
2832	0	0
2833	0	0
2834	0	0
2835	0	0
2836	0	0
2837	0	0
2838	0	0
2839	0	0
2840	0	0
2841	0	0
2842	0	0
2843	0	0
2844	0	0
2845	0	0
2846	0	0
2847	0	0
2848	0	0
2849	0	0
2850	0	0
2851	0	0
2852	0	0
2853	0	0
2854	0	0
2855	0	0
2856	0	0
2857	0	0
2858	0	0
2859	0	0
2860	0	0
2861	0	0
2862	0	0
2863	0	0
2864	0	0
2865	0	0
2866	0	0
2867	0	0
2868	0	0
2869	0	0
2870	0	0
2871	0	0
2872	0	0
2873	0	0
2874	0	0
2875	0	0
2876	0	0
2877	0	0
2878	0	0
2879	0	0
2880	0	0
2881	0	0
2882	0	0
2883	0	0
2884	0	0
2885	0	0
2886	0	0
2887	0	0
2888	0	0
2889	0	0
2890	0	0
2891	0	0
2892	0	0
2893	0	0
2894	0	0
2895	0	0
2896	0	0
2897	0	0
2898	0	0
2899	0	0
2900	0	0
2901	0	0
2902	0	0
2903	0	0
2904	0	0
2905	0	0
2906	0	0
2907	0	0
2908	0	0
2909	0	0
2910	0	0
2911	0	0
2912	0	0
2913	0	0
2914	0	0
2915	0	0
2916	0	0.938381
2917	0	0.854046
2918	0	0.833067
2919	0	0.833067
2920	0	0.826096
2921	0	0.805802
2922	0	0
2923	0	0
2924	0	0
2925	0	0
2926	0	0
2927	0	0
2928	0	0
2929	0	0
2930	0	0
2931	0	0
2932	0	0
2933	0	0
2934	0	0
2935	0	0
2936	0	0
2937	0	0
2938	0	0
2939	0	0
2940	0	0
2941	0	0
2942	0	0
2943	0	0
2944	0	0
2945	0	0
2946	0	0
2947	0	0
2948	0	0
2949	0	0
2950	0	0
2951	0	0
2952	0	0
2953	0	0
2954	0	0
2955	0	0
2956	0	0
2957	0	0
2958	0	0
2959	0	0
2960	0	0
2961	1	0
2962	0	0
2963	0	0
2964	0	0
2965	0	0
2966	0	0
2967	0	0
2968	0	0
2969	0	0
2970	0	0
2971	0	0
2972	0	0
2973	0	0
2974	0	0
2975	0	0
2976	0	0
2977	0	0
2978	0	0
2979	0	0
2980	0	0
2981	0	0
2982	0	0
2983	0	0
2984	0	0
2985	0	0
2986	0	0
2987	0	0
2988	0	0
2989	0	0
2990	0	0
2991	0	0
2992	0	0
2993	0	0
2994	0	0
2995	0	0
2996	0	0
2997	0	0
2998	0	0
2999	0	0
3000	0	0
3001	0	0
3002	0	0
3003	0	0
3004	0	0
3005	0	0
3006	0	0
3007	1	0
3008	1	0
3009	1	0
3010	1	0
3011	1	0
3012	1	0
3013	1	0
3014	1	0
3015	1	0
3016	1	0
3017	1	0
3018	1	0
3019	1	0
3020	1	0
3021	1	0
3022	1	0
3023	1	0
3024	1	0
3025	1	0
3026	1	0
3027	1	0
3028	1	0
3029	1	0
3030	1	0
3031	1	0
3032	1	0
3033	1	0
3034	1	0
3035	1	0
3036	1	0
3037	1	0
3038	1	0
3039	1	0
3040	1	0
3041	1	0
3042	1	0
3043	1	0
3044	1	0
3045	1	0
3046	1	0
3047	1	0
3048	1	0
3049	1	0
3050	1	0
3051	1	0
