Site	ColumnScore	SumOfPairsScore
1	0	0.571429
2	0	0.819048
3	0	0.984001
4	0	0.984001
5	0	0.984001
6	0	0.984001
7	0	0.984001
8	0	0.984001
9	0	0.984001
10	1	1
11	1	1
12	1	1
13	1	1
14	1	1
15	1	1
16	1	1
17	1	1
18	1	1
19	1	1
20	1	1
21	1	1
22	1	1
23	1	1
24	1	1
25	1	1
26	1	1
27	1	1
28	1	1
29	1	1
30	1	1
31	1	1
32	1	1
33	1	1
34	1	1
35	1	1
36	1	1
37	1	1
38	1	1
39	1	1
40	1	1
41	1	1
42	1	1
43	1	1
44	1	1
45	1	1
46	1	1
47	1	1
48	1	1
49	1	1
50	1	1
51	1	1
52	1	1
53	1	1
54	1	1
55	1	1
56	1	1
57	1	1
58	1	1
59	1	1
60	1	1
61	1	1
62	1	1
63	1	1
64	1	1
65	1	1
66	1	1
67	1	1
68	1	1
69	1	1
70	1	1
71	1	1
72	1	1
73	1	1
74	1	1
75	1	1
76	1	1
77	1	1
78	1	1
79	1	1
80	1	1
81	1	1
82	1	1
83	1	1
84	1	1
85	1	1
86	1	1
87	1	1
88	1	1
89	1	1
90	1	1
91	1	1
92	1	1
93	1	1
94	1	1
95	1	1
96	1	1
97	1	1
98	1	1
99	1	1
100	1	1
101	1	1
102	1	1
103	1	1
104	0	0.992
105	1	0
106	1	0
107	1	0
108	1	0
109	1	0
110	1	0
111	0	0
112	1	1
113	1	1
114	1	1
115	1	1
116	1	1
117	1	1
118	1	1
119	1	1
120	1	1
121	1	1
122	1	1
123	1	1
124	1	1
125	1	1
126	1	1
127	1	1
128	1	1
129	1	1
130	1	1
131	1	1
132	1	1
133	1	1
134	1	1
135	1	1
136	1	1
137	1	1
138	1	1
139	1	1
140	1	1
141	1	1
142	1	1
143	1	1
144	1	1
145	1	1
146	1	1
147	1	1
148	1	1
149	1	1
150	1	1
151	1	1
152	1	1
153	0	1
154	0	0.962963
155	0	0.653687
156	0	0.502394
157	0	0.675214
158	0	0.648867
159	0	0.960514
160	0	0.960514
161	0	0.960514
162	0	0.968386
163	0	0.943702
164	0	0.333333
165	0	0.333333
166	0	0.333333
167	0	0.951562
168	0	0.943928
169	0	0.943928
170	0	0.906795
171	0	0.891631
172	0	0.894056
173	0	0.703409
174	0	0.713791
175	0	0.8
176	0	0.654817
177	0	0.647411
178	0	0.635002
179	0	0.628353
180	0	0.285714
181	0	0.178571
182	0	0.626189
183	0	0.568557
184	0	0.50705
185	0	0
186	0	0
187	0	0.355556
188	0	0.257576
189	0	0.217949
190	0	0.2
191	0	0.27377
192	0	0.200448
193	0	0.189527
194	0	0.130517
195	0	0.133448
196	0	0.125834
197	0	0.154801
198	0	0.162075
199	0	0.161388
200	0	0
201	0	0
202	0	1
203	0	1
204	0	0.6
205	0	0.6
206	0	0.285714
207	0	0.806897
208	0	0.733486
209	0	0.591379
210	0	0.48993
211	0	0.498502
212	0	0.501234
213	0	0.437116
214	0	0.450372
215	0	0.489215
216	0	0.768293
217	0	0.386476
218	0	0.383955
219	0	0.707695
220	0	0.685622
221	0	0
222	0	0
223	0	0.626328
224	0	0.466667
225	0	0.466667
226	0	0.430246
227	0	0.205128
228	0	0.362434
229	0	0.411799
230	0	0.3
231	0	0.252308
232	0	0.252308
233	0	0.287879
234	0	0.48583
235	0	0.458379
236	0	0.489766
237	0	0.266667
238	0	0.133333
239	0	0.142857
240	0	0.568531
241	0	0.731937
242	0	1
243	0	1
244	0	0.618027
245	0	0.266667
246	0	0.651117
247	0	0.657593
248	0	0.657593
249	0	0.630747
250	0	0.630747
251	0	0.630747
252	0	0.634214
253	0	1
254	0	1
255	0	1
256	0	1
257	0	1
258	0	0.952429
259	0	0.952429
260	0	0.952429
261	0	0.879229
262	0	0.879229
263	0	0.877622
264	0	0.877622
265	0	0.870297
266	0	0.888889
267	0	0.454878
268	0	0.391082
269	0	0.6
270	0	1
271	0	0.766667
272	0	1
273	0	0.257534
274	0	0.270781
275	0	0.427839
276	0	0.885012
277	0	0.968289
278	0	0.976193
279	1	1
280	1	1
281	1	1
282	1	1
283	1	1
284	1	1
285	1	1
286	1	1
287	1	1
288	1	1
289	1	1
290	1	1
291	1	1
292	1	1
293	1	1
294	1	1
295	1	1
296	1	1
297	1	1
298	1	1
299	1	1
300	1	1
301	1	1
302	1	1
303	1	1
304	1	1
305	1	1
306	1	1
307	1	1
308	0	1
309	0	1
310	0	1
311	0	1
312	0	0.984001
313	0	1
314	0	0.478261
315	0	0.345455
316	0	0.367307
317	0	0.364855
318	0	0.321813
319	0	0.325664
320	0	0.75
321	0	0.295133
322	0	0.290345
323	0	0.272386
324	0	0.507935
325	0	0
326	0	0.328442
327	0	0
328	0	0.598812
329	0	1
330	0	1
331	0	0.528089
332	0	0.796623
333	0	0.882321
334	0	1
335	0	1
336	1	1
337	1	1
338	1	1
339	1	1
340	1	1
341	1	1
342	1	1
343	1	1
344	1	1
345	1	1
346	1	1
347	1	1
348	1	1
349	0	0.930313
350	0	0.922602
351	0	1
352	0	1
353	1	1
354	1	1
355	1	1
356	1	1
357	1	1
358	1	1
359	1	1
360	1	1
361	1	1
362	1	1
363	1	1
364	1	1
365	1	1
366	1	1
367	1	1
368	1	1
369	1	1
370	1	1
371	1	1
372	1	1
373	1	1
374	1	1
375	1	1
376	1	1
377	1	1
378	1	1
379	1	1
380	1	1
381	1	1
382	1	1
383	1	1
384	1	1
385	1	1
386	1	1
387	1	1
388	1	1
389	1	1
390	1	1
391	1	1
392	0	1
393	1	1
394	0	0.886747
395	1	1
396	1	1
397	1	1
398	1	1
399	1	1
400	1	1
401	1	1
402	1	1
403	1	1
404	1	1
405	1	1
406	1	1
407	1	1
408	1	0
409	1	0
410	1	0
411	0	0
412	0	0
413	0	0
414	0	0.166667
415	0	0.565217
416	0	0.857896
417	0	0.85706
418	1	1
419	1	1
420	1	1
421	1	1
422	1	1
423	1	1
424	1	1
425	1	1
426	1	1
427	1	1
428	1	1
429	1	1
430	1	1
431	1	1
432	1	1
433	1	1
434	1	1
435	1	1
436	1	1
437	1	1
438	1	1
439	0	0.992
440	1	1
441	1	1
442	0	1
443	1	1
444	1	1
445	1	1
446	1	1
447	1	1
448	1	1
449	1	1
450	1	1
451	1	1
452	1	1
453	1	1
454	1	1
455	1	1
456	1	1
457	1	1
458	1	1
459	1	1
460	1	1
461	1	1
462	1	1
463	1	1
464	1	1
465	1	1
466	1	1
467	1	1
468	1	1
469	1	1
470	1	1
471	1	1
472	1	1
473	1	1
474	1	1
475	1	1
476	1	1
477	1	1
478	1	1
479	1	1
480	1	1
481	1	1
482	1	1
483	1	1
484	1	1
485	1	1
486	1	1
487	1	1
488	1	1
489	1	1
490	1	1
491	1	1
492	1	1
493	1	1
494	1	1
495	1	1
496	1	1
497	1	1
498	1	1
499	1	1
500	1	1
501	1	1
502	1	1
503	0	1
504	0	0.98374
505	0	0.95252
506	0	1
507	0	0.740981
508	0	0.465884
509	0	0.328949
510	0	0.249608
511	0	0.249301
512	0	1
513	0	0.24941
514	0	0
515	0	0
516	0	0.5
517	0	0.321429
518	0	0.443683
519	0	0.197123
520	0	0.196253
521	0	0.196253
522	0	0.282051
523	0	0.357143
524	0	0.1
525	0	0.1
526	0	0.1
527	0	0.166667
528	0	0
529	0	0
530	0	0
531	0	0
532	0	0
533	0	0
534	0	0
535	0	0
536	0	0
537	0	0
538	0	0
539	0	0
540	0	0
541	0	0
542	0	0
543	0	0
544	0	0
545	0	0
546	0	0
547	0	0
548	0	0
549	0	0
550	0	0
551	0	0
552	0	0
553	0	0
554	0	0
555	0	0
556	0	0
557	0	0
558	0	0
559	1	0
560	1	0
561	1	0
562	1	0
563	1	0
564	1	0
565	1	0
566	1	0
567	1	0
568	1	0
569	1	0
570	1	0
571	1	0
572	1	0
573	1	0
574	1	0
575	1	0
576	1	0
577	1	0
578	1	0
579	1	0
580	1	0
581	1	0
582	1	0
583	1	0
584	1	0
585	1	0
586	1	0
587	1	0
588	1	0
589	1	0
590	1	0
591	1	0
592	1	0
593	1	0
594	1	0
595	1	0
596	1	0
597	1	0
598	1	0
599	1	0
600	1	0
601	1	0
602	1	0
603	1	0
604	1	0
605	1	0
606	1	0
607	1	0
608	1	0
609	1	0
610	1	0
611	1	0
612	1	0
613	1	0
614	1	0
615	1	0
616	1	0
617	1	0
618	1	0
619	1	0
620	1	0
621	1	0
622	1	0
623	1	0
624	1	0
625	1	0
626	1	0
627	1	0
628	1	0
629	1	0
630	1	0
631	1	0
632	1	0
633	1	0
634	1	0
635	1	0
636	1	0
637	1	0
638	1	0
639	1	0
