Site	ColumnScore	SumOfPairsScore
1	0	1
2	0	1
3	0	1
4	0	1
5	0	1
6	0	1
7	0	1
8	1	1
9	0	1
10	0	1
11	0	1
12	0	1
13	0	1
14	0	1
15	0	1
16	0	1
17	0	1
18	0	1
19	0	1
20	0	0.166667
21	0	0.166667
22	0	0.166667
23	0	0.166667
24	0	0.166667
25	0	0.166667
26	0	0.166667
27	0	0.166667
28	0	0.166667
29	0	0.166667
30	0	0.166667
31	0	0.166667
32	0	0.166667
33	0	0.166667
34	0	0.166667
35	0	0.166667
36	0	0.166667
37	0	0.166667
38	0	0.166667
39	0	0.166667
40	0	0.166667
41	0	0.166667
42	0	0.166667
43	0	0.166667
44	0	0.166667
45	0	0.166667
46	0	0.166667
47	0	0.166667
48	0	0.166667
49	0	0.5
50	0	0.5
51	0	0.5
52	0	0.5
53	0	0.5
54	0	0.5
55	0	0.5
56	0	0.666667
57	0	0.397436
58	0	0.587276
59	0	0.302861
60	0	0.26975
61	0	0.266111
62	0	0.280727
63	0	0.242043
64	0	0.243051
65	0	0.430352
66	0	0.427959
67	0	0.432194
68	0	0.428558
69	0	0.434951
70	0	0.420851
71	0	0.438622
72	0	0.113469
73	0	0.377183
74	0	0.378928
75	0	0.2
76	0	0.2
77	0	0.363263
78	0	0.30667
79	0	0.287332
80	0	0.197215
81	0	0.196688
82	0	0.191611
83	0	0
84	0	0
85	0	0
86	0	0
87	0	0
88	0	0
89	0	0
90	0	0
91	0	0
92	0	0
93	0	0
94	0	0
95	0	0.244444
96	0	0.0833333
97	0	0.0666667
98	0	0.866819
99	0	0.646119
100	0	0.629026
101	0	0.202614
102	0	0.169935
103	0	0.113853
104	0	0.114818
105	0	0.117285
106	0	0
107	0	0
108	0	0.333333
109	0	0
110	0	0
111	0	0
112	0	0
113	0	0
114	0	0.571715
115	0	0.572289
116	0	0.590361
117	0	0.590361
118	0	0.591509
119	0	0.608649
120	0	0.32967
121	0	0
122	0	0.4
123	0	0.4
124	0	0.181818
125	0	0.627312
126	0	0.723077
127	0	0.75417
128	0	0.722603
129	0	0.432559
130	0	0.433984
131	0	0.427311
132	0	0.38946
133	0	0
134	0	0
135	0	0.222222
136	0	0.166667
137	0	0.238041
138	0	0.24366
139	0	0
140	0	0.48
141	0	0.247523
142	0	0.142857
143	0	0.142857
144	0	0.655598
145	0	0.555556
146	0	0.517959
147	0	0.382943
148	0	0.288889
149	0	0.282051
150	0	0.280594
151	0	0.347673
152	0	0.277373
153	0	0.472307
154	0	0.482797
155	0	0.487473
156	0	0.46295
157	0	0.2
158	0	0.549708
159	0	0.272177
160	0	0.22644
161	0	0.271222
162	0	0.311206
163	0	0.322614
164	0	0
165	0	0
166	0	0.166667
167	0	0.3
168	0	0.684531
169	0	0.685288
170	0	0.4
171	0	0.321429
172	0	0.321429
173	0	0.428571
174	0	0.67619
175	0	0.828008
176	0	0.166667
177	0	0.7953
178	0	0.458741
179	0	0.461538
180	0	0.455285
181	0	0.6
182	0	0.6
183	0	0.466667
184	0	0.410108
185	0	0.300395
186	0	0.38629
187	0	0.289819
188	0	0.30837
189	0	0.308914
190	0	0.317734
191	0	0.277419
192	0	0.34885
193	0	0.381696
194	0	0.413315
195	0	0
196	0	0
197	0	0
198	0	0.333333
199	0	0.166667
200	0	0.0952381
201	0	0.430812
202	0	0.337058
203	0	0
204	0	0
205	0	0
206	0	0
207	0	0.390769
208	0	0.290683
209	0	0.416818
210	0	0.247619
211	0	0.247619
212	0	0.380952
213	0	0.445459
214	0	0.442382
215	0	0.295667
216	0	0.3128
217	0	0
218	0	0.266667
219	0	0
220	0	0
221	0	1
222	0	0.491667
223	0	0.461945
224	0	0.370827
225	0	0.942857
226	0	0.982759
227	0	0.559342
228	0	0.583309
229	1	1
230	1	1
231	1	1
232	1	1
233	1	1
234	1	1
235	1	1
236	1	1
237	0	0.51587
238	0	0
239	0	0.737892
240	0	0.513503
241	0	0.503927
242	0	0
243	0	0
244	0	0
245	0	0
246	0	0
247	0	0
248	0	0.448855
249	0	0.190476
250	0	0.528252
251	0	0.55422
252	0	0.319665
253	0	0.282873
254	0	0.282988
255	0	0.395759
256	0	0.763668
257	0	0.763927
258	0	0.317075
259	0	0.318662
260	0	0
261	0	0
262	0	0
263	0	0
264	0	0
265	0	0
266	0	0
267	0	0
268	0	0
269	0	0
270	0	0
271	0	0
272	0	0
273	0	0
274	0	0
275	0	0
276	1	1
277	0	0.466794
278	0	0.433392
279	0	0.648667
280	0	0.482135
281	0	0.133333
282	0	0.2
283	0	0.133333
284	0	0.181818
285	0	0.1
286	0	0.2
287	0	0.222222
288	0	0.245046
289	0	1
290	0	0.201128
291	0	0.184829
292	0	0.158792
293	0	0.161517
294	0	0.156871
295	0	0.300277
296	0	0
297	0	0
298	0	0
299	0	0
300	0	0
301	0	0.290909
302	0	0.237644
303	0	0.329437
304	0	0.43939
305	0	0.32543
306	0	0.508755
307	0	0.510785
308	0	0.428627
309	0	0.4
310	0	0.755309
311	0	0.8
312	0	1
313	0	0.746953
314	0	0.716459
315	0	0.716175
316	0	0.992
317	0	0.992
318	0	0.992
319	0	0.992
320	1	1
321	1	1
322	1	1
323	1	1
324	1	1
325	1	1
326	1	1
327	1	1
328	1	1
329	1	1
330	1	1
331	1	1
332	1	1
333	1	1
334	1	1
335	1	1
336	1	1
337	1	1
338	1	1
339	1	1
340	1	1
341	1	1
342	1	1
343	1	1
344	1	1
345	1	1
346	1	1
347	0	0.992
348	0	1
349	1	1
350	1	1
351	1	1
352	1	1
353	1	1
354	1	1
355	1	1
356	1	1
357	1	1
358	1	1
359	1	1
360	1	1
361	1	1
362	1	1
363	1	1
364	1	1
365	1	1
366	1	1
367	1	1
368	1	1
369	1	1
370	1	1
371	1	1
372	1	1
373	1	1
374	1	1
375	1	1
376	1	1
377	1	1
378	1	1
379	1	1
380	0	0.968386
381	0	1
382	0	0.530892
383	0	0.53298
384	0	0.53298
385	0	0.541976
386	0	0.490859
387	0	1
388	0	1
389	0	0.476654
390	0	0.472543
391	0	0.356794
392	0	0.326791
393	0	0.740629
394	0	0.520964
395	0	0.500723
396	0	0.500032
397	0	1
398	0	0.449119
399	0	0.449119
400	0	0.449556
401	0	1
402	0	0.618357
403	0	0.397137
404	0	0
405	0	0.5
406	0	0.264972
407	0	0.661534
408	0	0.649438
409	0	0.639979
410	0	0.403064
411	0	0.594771
412	0	0.421827
413	0	0.611111
414	0	0.647059
415	0	0.741176
416	0	0.473285
417	0	0.47369
418	0	0.471213
419	0	0.469655
420	0	0.451727
421	0	0.462592
422	0	1
423	0	0.499537
424	0	0.499537
425	0	0.570572
426	0	0.8
427	0	1
428	0	0
429	0	0
430	0	0
431	0	0
432	0	0
433	0	0.677615
434	0	0.677615
435	0	0.677615
436	0	1
437	0	1
438	0	1
439	0	0.5
440	0	0.266667
441	0	0.198529
442	0	0.395063
443	0	0.311342
444	0	0.408748
445	0	0.498262
446	0	0.164691
447	0	0.239601
448	0	0.3
449	0	0.767361
450	0	0.785792
451	0	0.643547
452	0	0.279232
453	0	1
454	0	0.638095
455	0	0.661616
456	0	0.497478
457	0	0.495422
458	0	0.495422
459	0	0.777778
460	0	0.974764
461	0	0.944996
462	0	0.870683
463	0	1
464	0	1
465	1	1
466	1	1
467	1	1
468	1	1
469	1	1
470	1	1
471	1	1
472	1	1
473	1	1
474	1	1
475	1	1
476	1	1
477	1	1
478	1	1
479	1	1
480	1	1
481	1	1
482	1	1
483	1	1
484	1	1
485	1	1
486	1	1
487	1	1
488	1	1
489	1	1
490	1	1
491	1	1
492	1	1
493	1	1
494	1	1
495	1	1
496	1	1
497	1	1
498	1	1
499	1	1
500	1	1
501	1	1
502	1	1
503	1	1
504	1	1
505	1	1
506	1	1
507	1	1
508	1	1
509	1	1
510	1	1
511	1	1
512	1	1
513	1	1
514	1	1
515	1	1
516	1	1
517	1	1
518	1	1
519	1	1
520	1	1
521	1	1
522	1	1
523	1	1
524	1	1
525	1	1
526	1	1
527	1	1
528	1	1
529	1	1
530	1	1
531	1	1
532	1	1
533	1	1
534	1	1
535	1	1
536	1	1
537	1	1
538	1	1
539	1	1
540	1	1
541	1	1
542	1	1
543	1	1
544	1	1
545	1	1
546	1	1
547	1	1
548	1	1
549	1	1
550	1	1
551	1	1
552	1	1
553	1	1
554	1	1
555	1	1
556	1	1
557	1	1
558	1	1
559	0	0.992
560	1	0
561	1	0
562	1	0
563	1	0
564	1	0
565	1	0
566	1	0
567	1	0
568	1	0
569	1	0
570	1	0
571	1	0
572	1	0
573	1	0
574	1	0
575	1	0
576	1	0
577	1	0
578	1	0
579	1	0
580	1	0
581	1	0
582	0	0
583	1	1
584	1	1
585	1	1
586	1	1
587	1	1
588	1	1
589	1	1
590	1	1
591	1	1
592	1	1
593	1	1
594	1	1
595	1	1
596	1	1
597	1	1
598	1	1
599	1	1
600	1	1
601	1	1
602	1	1
603	1	1
604	1	1
605	1	1
606	1	1
607	1	1
608	1	1
609	1	1
610	1	1
611	0	1
612	0	1
613	0	1
614	0	1
615	0	0.992
616	0	0.992
617	0	0.992
618	0	0.992
619	0	0.992
620	0	0.992
621	0	0.992
622	0	0.992
623	0	0.992
624	0	0.992
625	0	0.992
626	0	0.992
627	0	0.992
628	0	0.992
629	0	0.992
630	0	0.992
631	1	1
632	1	1
633	1	1
634	1	1
635	1	1
636	1	1
637	1	1
638	1	1
639	1	1
640	1	1
641	1	1
642	1	1
643	1	1
644	0	0.992
645	0	0.992
646	0	0.992
647	0	0.992
648	0	0.992
649	1	1
650	1	1
651	1	1
652	1	1
653	1	1
654	1	1
655	1	1
656	1	1
657	1	1
658	1	1
659	1	1
660	1	1
661	0	0.992
662	0	0.992
663	0	0.992
664	0	0.992
665	0	0.992
666	0	0.992
667	0	0.992
668	0	0.992
669	0	0.992
670	0	0.992
671	1	1
672	1	1
673	1	1
674	1	1
675	1	1
676	1	1
677	1	1
678	1	1
679	1	1
680	1	1
681	1	1
682	1	1
683	1	1
684	0	1
685	0	1
686	0	1
687	0	1
688	0	1
689	1	1
690	1	1
691	1	1
692	1	1
693	1	1
694	1	1
695	1	1
696	1	1
697	1	1
698	1	1
699	1	1
700	1	1
701	1	1
702	1	1
703	1	1
704	1	1
705	1	1
706	1	1
707	1	1
708	1	1
709	1	1
710	1	1
711	1	1
712	1	1
713	1	1
714	1	1
715	1	1
716	1	1
717	1	1
718	1	1
719	1	1
720	1	1
721	1	1
722	1	1
723	1	1
724	0	0.991935
725	0	1
726	0	1
727	0	0.602868
728	0	0.59311
729	0	0.33934
730	0	0.336783
731	0	0.635921
732	0	0.635921
733	0	1
734	1	1
735	1	1
736	1	1
737	1	1
738	1	1
739	1	1
740	1	1
741	1	1
742	1	1
743	1	1
744	1	1
745	1	1
746	1	1
747	1	1
748	1	1
749	1	1
750	1	1
751	1	1
752	1	1
753	1	1
754	1	1
755	1	1
756	1	1
757	1	1
758	1	1
759	1	1
760	1	1
761	1	1
762	1	1
763	1	1
764	1	1
765	1	1
766	1	1
767	1	1
768	1	1
769	1	1
770	1	1
771	1	1
772	0	1
773	0	1
774	0	1
775	1	1
776	1	1
777	1	1
778	1	1
779	1	1
780	1	1
781	1	1
782	1	1
783	1	1
784	1	1
785	1	1
786	1	1
787	1	1
788	1	1
789	1	1
790	1	1
791	1	1
792	0	1
793	0	1
794	0	1
795	0	1
796	0	1
797	0	1
798	0	1
799	0	1
800	0	1
801	1	1
802	1	1
803	1	1
804	1	1
805	1	1
806	1	1
807	1	1
808	1	1
809	1	1
810	1	1
811	1	1
812	0	0
813	0	0
814	0	0.99177
815	0	0.99177
816	0	0.99177
817	0	0.99177
818	0	0.937124
819	0	1
820	0	1
821	0	0.975311
822	0	0
823	0	0.881623
824	0	0.485786
825	0	0.333333
826	0	0.45861
827	0	0.395785
828	0	0
829	0	0.194444
830	0	0.181818
831	0	0.223787
832	0	0.330833
833	0	0.337401
834	0	0
835	0	0
836	1	0
837	0	0
838	0	0
839	0	0
840	0	0
841	0	0.389742
842	0	0.432213
843	0	0.579869
844	0	0
845	0	0
846	0	0.83919
847	0	0.942193
848	0	1
849	0	1
850	1	1
851	1	1
852	1	1
853	1	1
854	1	1
855	1	1
856	1	1
857	1	1
858	1	1
859	1	1
860	1	1
861	1	1
862	1	1
863	1	1
864	1	1
865	1	1
866	1	1
867	1	1
868	1	1
869	1	1
870	1	1
871	1	1
872	1	1
873	1	1
874	1	1
875	1	1
876	1	1
877	1	1
878	1	1
879	1	1
880	1	1
881	1	1
882	1	1
883	1	1
884	1	1
885	1	1
886	0	0.96033
887	0	1
888	1	1
889	1	1
890	1	1
891	1	1
892	1	1
893	1	1
894	1	1
895	1	1
896	1	1
897	1	1
898	1	1
899	1	1
900	1	1
901	1	1
902	1	1
903	1	1
904	1	1
905	1	1
906	1	1
907	1	1
908	1	1
909	1	1
910	1	1
911	1	1
912	1	1
913	1	1
914	1	1
915	1	1
916	1	1
917	1	1
918	1	1
919	1	1
920	1	1
921	1	1
922	1	1
923	1	1
924	1	1
925	1	1
926	1	1
927	1	1
928	1	1
929	1	1
930	1	1
931	0	1
932	0	0.945349
933	0	0.945349
934	0	0.523181
935	1	1
936	1	1
937	1	1
938	1	1
939	1	1
940	1	1
941	1	1
942	1	1
943	1	1
944	1	1
945	1	1
946	1	1
947	1	1
948	1	1
949	1	1
950	1	1
951	1	1
952	1	1
953	1	1
954	1	1
955	1	1
956	1	1
957	0	0
958	0	0.333333
959	0	0.802956
960	0	0.645723
961	0	0.598013
962	0	0.49719
963	0	1
964	0	1
965	0	0.517263
966	0	0.485367
967	0	0.395316
968	0	0.383233
969	0	0.342394
970	0	0.240129
971	0	0.534039
972	0	0.542169
973	0	0
974	0	0.725275
975	0	0.355236
976	0	0.357779
977	0	0.3545
978	0	0
979	0	0
980	0	0
981	0	0.353219
982	0	0.358415
983	0	0.358553
984	0	0.366185
985	0	0.372037
986	0	0.133333
987	0	0.166667
988	0	0.437151
989	0	0.436681
990	0	0.424481
991	0	0.424481
992	0	0.424081
993	0	0.417331
994	0	0.536803
995	0	0.539631
996	0	0.529382
997	0	0.536418
998	0	0.540744
999	0	0.686002
1000	0	0.92977
1001	0	0.92977
1002	0	1
1003	1	1
1004	1	1
1005	1	1
1006	1	1
1007	1	1
1008	1	1
1009	1	1
1010	1	1
1011	1	1
1012	1	1
1013	1	1
1014	1	1
1015	1	1
1016	1	1
1017	1	1
1018	1	1
1019	1	1
1020	1	1
1021	1	1
1022	1	1
1023	1	1
1024	1	1
1025	1	1
1026	1	1
1027	1	1
1028	1	1
1029	1	1
1030	1	1
1031	1	1
1032	1	1
1033	1	1
1034	1	1
1035	1	1
1036	1	1
1037	1	1
1038	1	1
1039	1	1
1040	1	1
1041	1	1
1042	1	1
1043	1	1
1044	1	1
1045	1	1
1046	1	1
1047	1	1
1048	1	1
1049	0	1
1050	0	1
1051	0	1
1052	0	0.991935
1053	0	0.991935
1054	0	0.991935
1055	0	0.991935
1056	0	0.991935
1057	0	0.991935
1058	0	0.991935
1059	0	0.991935
1060	0	0.991935
1061	0	0.991935
1062	0	0.991935
1063	0	0.991935
1064	0	0.991935
1065	0	0.991935
1066	0	0.991935
1067	0	0.991935
1068	1	1
1069	1	1
1070	1	1
1071	1	1
1072	1	1
1073	1	1
1074	1	1
1075	1	1
1076	1	1
1077	1	1
1078	1	1
1079	1	1
1080	1	1
1081	1	1
1082	1	1
1083	1	1
1084	1	1
1085	1	1
1086	1	1
1087	1	1
1088	1	1
1089	1	1
1090	1	1
1091	1	1
1092	1	1
1093	1	1
1094	1	1
1095	1	1
1096	1	1
1097	1	1
1098	1	1
1099	1	1
1100	1	1
1101	1	1
1102	1	1
1103	1	1
1104	1	1
1105	1	1
1106	1	1
1107	1	1
1108	1	1
1109	1	1
1110	1	1
1111	1	1
1112	1	1
1113	1	1
1114	1	1
1115	1	1
1116	1	1
1117	1	1
1118	1	1
1119	1	1
1120	1	1
1121	1	1
1122	1	1
1123	1	1
1124	0	0.991935
1125	0	0.991935
1126	0	0.991935
1127	0	1
1128	0	1
1129	0	1
1130	0	1
1131	0	1
1132	0	1
1133	0	1
1134	0	1
1135	0	1
1136	1	1
1137	1	1
1138	1	1
1139	1	1
1140	1	1
1141	1	1
1142	1	1
1143	1	1
1144	1	1
1145	1	1
1146	1	1
1147	0	1
1148	1	1
1149	1	1
1150	0	1
1151	0	1
1152	0	1
1153	0	1
1154	0	1
1155	0	1
1156	1	1
1157	1	1
1158	1	1
1159	1	1
1160	1	1
1161	1	1
1162	1	1
1163	1	1
1164	1	1
1165	1	1
1166	1	1
1167	1	1
1168	1	1
1169	1	1
1170	1	1
1171	1	1
1172	1	1
1173	1	1
1174	1	1
1175	1	1
1176	1	1
1177	1	1
1178	1	1
1179	1	1
1180	1	1
1181	1	1
1182	1	1
1183	1	1
1184	1	1
1185	1	1
1186	1	1
1187	1	1
1188	1	1
1189	1	1
1190	1	1
1191	1	1
1192	1	1
1193	1	1
1194	1	1
1195	1	1
1196	1	1
1197	1	1
1198	1	1
1199	1	1
1200	1	1
1201	1	1
1202	1	1
1203	1	1
1204	1	1
1205	1	1
1206	1	1
1207	1	1
1208	1	1
1209	1	1
1210	1	1
1211	1	1
1212	1	1
1213	1	1
1214	1	1
1215	1	1
1216	1	1
1217	1	1
1218	1	1
1219	1	1
1220	1	1
1221	1	1
1222	1	1
1223	1	1
1224	1	1
1225	1	1
1226	1	1
1227	1	1
1228	1	1
1229	1	1
1230	0	0
1231	0	0.5
1232	0	0.968289
1233	0	0.968289
1234	0	0.884916
1235	0	0.877815
1236	0	0.847292
1237	0	0.776806
1238	0	1
1239	0	0.428571
1240	0	0.321429
1241	0	0.533678
1242	0	0.368488
1243	0	0.439655
1244	0	0.442417
1245	0	0.471622
1246	0	0.618685
1247	0	0.806649
1248	0	0.611111
1249	0	1
1250	0	0.991968
1251	0	0.991968
1252	0	1
1253	1	1
1254	1	1
1255	1	1
1256	1	1
1257	1	1
1258	1	1
1259	1	1
1260	1	1
1261	1	1
1262	1	1
1263	1	1
1264	1	1
1265	1	1
1266	1	1
1267	1	1
1268	1	1
1269	1	1
1270	1	1
1271	1	1
1272	1	1
1273	1	1
1274	1	1
1275	1	1
1276	1	1
1277	1	1
1278	1	1
1279	1	1
1280	1	1
1281	1	1
1282	1	1
1283	1	1
1284	1	1
1285	1	1
1286	1	1
1287	1	1
1288	1	1
1289	1	1
1290	1	1
1291	1	1
1292	1	1
1293	1	1
1294	1	1
1295	1	1
1296	1	1
1297	1	1
1298	1	1
1299	1	1
1300	1	1
1301	1	1
1302	1	1
1303	1	1
1304	1	1
1305	1	1
1306	1	1
1307	1	1
1308	1	1
1309	1	1
1310	1	1
1311	1	1
1312	1	1
1313	1	1
1314	1	1
1315	1	1
1316	1	1
1317	1	1
1318	1	1
1319	1	1
1320	1	1
1321	1	1
1322	1	1
1323	1	1
1324	1	1
1325	1	1
1326	1	1
1327	1	1
1328	1	1
1329	1	1
1330	1	1
1331	1	1
1332	1	1
1333	1	1
1334	1	1
1335	1	1
1336	1	1
1337	1	1
1338	1	1
1339	1	1
1340	1	1
1341	1	1
1342	1	1
1343	1	1
1344	1	1
1345	1	1
1346	1	1
1347	1	1
1348	1	1
1349	1	1
1350	1	1
1351	1	1
1352	1	1
1353	1	1
1354	1	1
1355	1	1
1356	1	1
1357	1	1
1358	1	1
1359	0	1
1360	0	0.595181
1361	0	0
1362	0	0
1363	0	0
1364	0	0
1365	0	0
1366	0	0.517044
1367	0	0
1368	0	0
1369	0	0.333333
1370	0	0.948816
1371	0	0.792829
1372	0	0.472198
1373	0	0.442313
1374	0	0.442827
1375	0	0.792579
1376	0	0.679709
1377	0	0.975344
1378	0	0.976129
1379	0	0.976129
1380	0	0.862446
1381	0	0.444444
1382	0	0.765972
1383	0	0.582554
1384	0	0.551904
1385	0	0.584867
1386	0	0.584867
1387	0	0.547084
1388	0	1
1389	0	1
1390	0	1
1391	1	1
1392	1	1
1393	1	1
1394	1	1
1395	1	1
1396	1	1
1397	1	1
1398	1	1
1399	1	1
1400	1	1
1401	1	1
1402	1	1
1403	1	1
1404	1	1
1405	1	1
1406	1	1
1407	1	1
1408	1	1
1409	1	1
1410	1	1
1411	1	1
1412	1	1
1413	1	1
1414	1	1
1415	1	1
1416	1	1
1417	1	1
1418	1	1
1419	1	1
1420	1	1
1421	1	1
1422	1	1
1423	1	1
1424	1	1
1425	1	1
1426	1	1
1427	1	1
1428	1	1
1429	1	1
1430	1	1
1431	1	1
1432	1	1
1433	0	0.992
1434	0	1
1435	1	1
1436	1	1
1437	1	1
1438	1	1
1439	1	1
1440	1	1
1441	1	1
1442	1	1
1443	1	1
1444	1	1
1445	1	1
1446	1	1
1447	1	1
1448	1	1
1449	1	1
1450	1	1
1451	1	1
1452	1	1
1453	1	1
1454	1	1
1455	1	1
1456	1	1
1457	1	1
1458	1	1
1459	1	1
1460	1	1
1461	1	1
1462	0	0.617542
1463	0	1
1464	1	1
1465	1	1
1466	1	1
1467	1	1
1468	1	1
1469	1	1
1470	1	1
1471	1	1
1472	1	1
1473	1	1
1474	1	1
1475	1	1
1476	1	1
1477	1	1
1478	1	1
1479	1	1
1480	1	1
1481	1	1
1482	1	1
1483	1	1
1484	1	1
1485	1	1
1486	1	1
1487	1	1
1488	1	1
1489	1	1
1490	1	1
1491	1	1
1492	1	1
1493	1	1
1494	1	1
1495	1	1
1496	1	1
1497	1	1
1498	1	1
1499	1	1
1500	1	1
1501	1	1
1502	1	1
1503	1	1
1504	1	1
1505	1	1
1506	1	1
1507	1	1
1508	1	1
1509	1	1
1510	1	1
1511	1	1
1512	1	1
1513	1	1
1514	0	0.991968
1515	0	0.991968
1516	0	0.991968
1517	0	0.991968
1518	0	0.991968
1519	1	1
1520	1	1
1521	1	1
1522	1	1
1523	1	1
1524	0	0
1525	1	0
1526	0	0.991903
1527	1	1
1528	1	1
1529	1	1
1530	1	1
1531	0	0.991903
1532	0	0.991903
1533	0	0
1534	0	0.974359
1535	0	0
1536	0	0
1537	0	0
1538	0	0
1539	0	0
1540	0	0
1541	0	0
1542	0	0
1543	0	0
1544	0	0
1545	0	0
1546	0	0
1547	0	0
1548	0	1
1549	0	1
1550	0	1
1551	0	1
1552	0	0.5
1553	0	0.5
1554	0	0.5
1555	0	1
1556	0	1
1557	0	0.56044
1558	0	0.694132
1559	0	0.49419
1560	0	0.495331
1561	0	0.495331
1562	0	0.495331
1563	0	0.495331
1564	0	0.495331
1565	0	0.48201
1566	0	0
1567	0	0
1568	0	0
1569	0	0
1570	0	0
1571	0	0.959802
1572	0	0.959802
1573	0	0
1574	0	0
1575	0	0.742857
1576	0	0.742857
1577	0	0.960978
1578	0	0.960978
1579	0	0.924197
1580	0	0.85739
1581	0	0.85739
1582	0	0.37625
1583	0	0.351937
1584	0	0.296238
1585	0	0.273443
1586	0	0.273279
1587	0	0.271473
1588	0	0.271538
1589	0	0.331649
1590	0	0.330214
1591	0	0.323245
1592	0	0.278876
1593	0	0.281189
1594	0	0.279133
1595	0	0.279133
1596	0	0
1597	0	0
1598	0	0
1599	0	0
1600	0	0.166667
1601	0	0.166667
1602	0	0.166667
1603	0	0.166667
1604	0	0.166667
1605	0	0.166667
1606	0	0.166667
1607	0	0.166667
1608	0	0.166667
1609	0	0.166667
1610	0	0.166667
1611	0	0.25
1612	0	0.25
1613	0	0.25
1614	0	0.25
1615	0	0.25
1616	0	0.25
1617	0	0.25
1618	0	0.25
1619	0	0.25
1620	0	0.25
1621	0	0.724294
1622	0	0.724294
1623	0	0.724294
1624	0	0.728415
1625	0	0.728962
1626	0	0.705447
1627	0	0.709677
1628	0	0.689708
1629	0	0.689708
1630	0	0.911805
1631	0	0.960594
1632	0	0.961355
1633	0	0.981481
1634	0	0.990991
1635	0	0.991031
1636	0	0.991111
1637	0	0.992
1638	0	0.992
1639	0	0.992
1640	0	0.992
1641	0	0.992
1642	0	0.992
1643	0	0
1644	0	0
1645	0	0
1646	0	0
1647	0	0
1648	0	0
1649	1	1
1650	1	1
1651	1	1
1652	1	1
1653	1	1
1654	1	1
1655	1	1
1656	1	0
1657	1	1
1658	1	1
1659	1	1
1660	1	1
1661	1	1
1662	1	1
1663	1	1
1664	1	1
1665	1	1
1666	1	1
1667	1	1
1668	1	1
1669	1	1
1670	1	1
1671	1	1
1672	1	1
1673	0	1
1674	0	1
1675	1	1
1676	1	1
1677	1	1
1678	0	1
1679	0	0.92928
1680	0	0.508913
1681	0	0.4
1682	0	0
1683	1	0
1684	1	0
1685	1	0
1686	1	0
1687	1	0
1688	1	0
1689	1	0
1690	1	0
1691	1	0
1692	1	0
1693	1	0
1694	1	0
1695	1	0
1696	1	0
1697	1	0
1698	1	0
1699	1	0
1700	1	0
1701	1	0
1702	1	0
1703	1	0
1704	1	0
1705	1	0
1706	1	0
1707	0	0
1708	0	0
1709	0	0.929035
1710	0	0.929035
1711	0	0.983871
1712	0	0.983871
1713	0	1
1714	0	0.984001
1715	1	1
1716	1	1
1717	1	1
1718	1	1
1719	1	1
1720	1	1
1721	1	1
1722	1	1
1723	1	1
1724	1	1
1725	1	1
1726	1	1
1727	1	1
1728	1	1
1729	1	1
1730	1	1
1731	1	1
1732	1	1
1733	1	1
1734	1	1
1735	1	1
1736	1	1
1737	1	1
1738	1	1
1739	1	1
1740	1	1
1741	1	1
1742	1	1
1743	1	1
1744	1	1
1745	1	1
1746	1	1
1747	1	1
1748	1	1
1749	1	1
1750	1	1
1751	1	1
1752	1	1
1753	0	1
1754	0	1
1755	0	1
1756	0	1
1757	0	0.984001
1758	0	0.984001
1759	0	0.80117
1760	0	0.824679
1761	0	0.464286
1762	0	0.361111
1763	0	0.361111
1764	0	0.529189
1765	0	0.529352
1766	0	0.527567
1767	0	0
1768	0	0
1769	0	0
1770	0	0
1771	0	0
1772	0	0
1773	0	0
1774	0	0
1775	0	0
1776	0	0
1777	0	0
1778	0	0
1779	0	0
1780	0	0
1781	0	0
1782	0	0.166667
1783	0	0.1
1784	0	0.1
1785	0	0.1
1786	0	0
1787	0	0
1788	0	0
1789	0	0
1790	0	0
1791	0	0
1792	0	0
1793	0	0
1794	0	0
1795	0	0
1796	0	0
1797	1	0
1798	0	0
1799	0	0.294982
1800	0	0.297587
1801	0	0
1802	0	0
1803	0	0
1804	0	0
1805	0	0.222222
1806	0	0.222222
1807	0	0.287087
1808	0	0.254454
1809	0	0.047619
1810	0	0.047619
1811	0	0.047619
1812	0	0.0952381
1813	0	0.0952381
1814	0	0.0952381
1815	0	0.047619
1816	0	0.111111
1817	0	0.191357
1818	0	0.183796
1819	0	0
1820	0	0
1821	0	0
1822	0	0
1823	0	0
1824	0	0
1825	0	0
1826	0	0
1827	0	0
1828	0	0
1829	0	0.364796
1830	0	0.321633
1831	0	0
1832	0	0
1833	0	0
1834	0	0
1835	0	0
1836	0	0.8
1837	0	0.8
1838	0	0.8
1839	0	0.8
1840	0	0.8
1841	0	0.8
1842	0	0.8
1843	0	0.8
1844	0	1
1845	0	1
1846	0	1
1847	0	1
1848	0	1
1849	0	1
1850	0	1
1851	0	1
1852	0	1
1853	0	1
1854	0	1
1855	0	1
1856	0	1
1857	0	1
1858	0	1
1859	0	1
1860	0	0.133731
1861	0	0.3
1862	0	0.2
1863	0	0.110003
1864	0	0.106909
1865	0	0.0987956
1866	0	0
1867	0	0
1868	0	0
1869	0	0
1870	0	0.257143
1871	0	0
1872	0	0
1873	0	0
1874	0	0
1875	0	0
1876	0	0
1877	0	0
1878	0	0
1879	0	0
1880	0	0
1881	0	0
1882	0	0
1883	0	0
1884	0	0
1885	0	0
1886	0	0
1887	0	0
1888	0	0
1889	0	0
1890	0	0
1891	0	0
1892	0	0.0666667
1893	0	0.226316
1894	0	0.403941
1895	0	0.679803
1896	0	0.689655
1897	0	0.654655
1898	0	0.692063
1899	0	0.598718
1900	0	0.598718
1901	0	0.459459
1902	0	0.48254
1903	0	0.417004
1904	0	0.382927
1905	0	0.444958
1906	0	0.463652
1907	0	0.225
1908	0	0.225
1909	0	0.175439
1910	0	0.204762
1911	0	0.204762
1912	0	0.194805
1913	0	0.194805
1914	0	0.177866
1915	0	0.320158
1916	0	0.320158
1917	0	0.214286
1918	0	0.122178
1919	0	0.12106
1920	0	0
1921	0	0
1922	0	0
1923	0	0.0666667
1924	0	0.313887
1925	0	0.331697
1926	0	0.0409357
1927	0	0.0818713
1928	0	0.0818713
1929	0	0.0818713
1930	0	0.147436
1931	0	0.179803
1932	0	0.553315
1933	0	0.21645
1934	0	0.426108
1935	0	0.462527
1936	0	0.369883
1937	0	0.374434
1938	0	0.376612
1939	0	0.226381
1940	0	0.322689
1941	0	0.274359
1942	0	0.3
1943	0	0.370273
1944	0	0.366195
1945	0	0.366038
1946	0	0.363199
1947	0	0.373113
1948	0	0.377597
1949	0	0.39024
1950	0	0.539493
1951	0	0.0666667
1952	0	0.0666667
1953	0	0.1
1954	0	0.355204
1955	0	0.341959
1956	0	0.358042
1957	0	0.384058
1958	0	0.359684
1959	0	0.393939
1960	0	0.433333
1961	0	0.478947
1962	0	0.366013
1963	0	0.330882
1964	0	0.375
1965	0	0.428571
1966	0	0.428571
1967	0	0.181818
1968	0	0.181818
1969	0	0.181818
1970	0	0.616949
1971	0	0.616949
1972	0	0.621858
1973	0	0.48008
1974	0	0.393354
1975	0	0.378481
1976	0	0.397269
1977	0	0.397269
1978	0	0.360434
1979	0	0.271003
1980	0	0.265432
1981	0	0.258861
1982	0	0.191176
1983	0	0.161765
1984	0	0.209524
1985	0	0.209524
1986	0	0.209524
1987	0	0.197802
1988	0	0.197802
1989	0	0.197802
1990	0	0.197802
1991	0	0.222222
1992	0	0.222222
1993	0	0.111111
1994	0	0.142857
1995	0	0.142857
1996	0	0.142857
1997	0	0.142857
1998	0	0.142857
1999	0	0.142857
2000	0	0.2
2001	0	0.2
2002	0	0.2
2003	0	0.2
2004	0	0.2
2005	0	0.2
2006	0	0.2
2007	0	0.2
2008	0	0.2
2009	0	0.2
2010	0	0.333333
2011	0	0.333333
2012	0	0.333333
2013	0	0.333333
2014	0	0.333333
2015	0	0.333333
2016	0	0.333333
2017	0	0.333333
2018	0	0.333333
2019	0	0.166667
2020	0	0.166667
2021	0	0.166667
2022	0	0.166667
2023	0	0.166667
2024	0	0.166667
2025	0	0.166667
2026	0	0.166667
2027	0	0
2028	0	0
2029	0	0
2030	0	0.166667
2031	0	0.166667
2032	0	0.166667
2033	0	0.166667
2034	0	0.166667
2035	0	0.166667
2036	0	0.166667
2037	0	0.166667
2038	0	0.166667
2039	0	0.166667
2040	0	0.166667
2041	0	0.166667
2042	0	0.166667
2043	0	0.166667
2044	0	0.166667
2045	0	0.166667
2046	0	0.166667
2047	0	0.166667
2048	0	0.166667
2049	0	0.166667
2050	0	0.166667
2051	0	0.166667
2052	0	0.166667
2053	0	0.166667
2054	0	0.1
2055	0	0.1
2056	0	0.1
2057	0	0.1
2058	0	0.1
2059	0	0.1
2060	0	0.1
2061	0	0.133333
2062	0	0.266667
2063	0	0.4
2064	0	1
2065	0	1
2066	0	1
2067	0	1
2068	0	1
2069	0	1
2070	0	1
2071	0	1
2072	0	1
2073	0	1
2074	0	1
2075	0	1
2076	0	1
2077	0	1
2078	0	1
2079	0	1
2080	0	1
2081	0	1
2082	0	1
2083	0	1
2084	0	1
2085	0	1
2086	1	1
2087	1	1
2088	1	1
2089	1	1
2090	1	1
2091	1	1
2092	1	1
2093	1	1
2094	1	1
2095	1	1
2096	1	1
2097	1	1
2098	0	0.777778
2099	0	1
2100	0	1
2101	0	1
2102	0	1
2103	0	1
2104	0	1
2105	0	1
2106	0	1
2107	0	1
2108	0	0.5
2109	0	0.5
2110	0	1
2111	0	1
2112	0	1
2113	0	1
2114	0	1
2115	0	1
2116	0	1
2117	0	1
2118	0	1
2119	0	1
2120	1	1
2121	0	1
2122	0	1
2123	0	1
2124	0	1
2125	0	1
2126	0	1
2127	0	1
2128	0	1
2129	0	1
2130	1	1
2131	1	1
2132	0	1
2133	1	1
2134	1	1
2135	1	1
2136	1	1
2137	0	1
2138	0	0.777778
2139	0	1
2140	0	1
2141	0	1
2142	0	1
2143	0	1
2144	0	1
2145	1	1
2146	0	1
2147	0	1
2148	0	1
2149	0	1
2150	0	1
2151	0	1
2152	0	1
2153	0	1
2154	0	1
2155	0	1
2156	0	1
2157	0	1
2158	0	1
2159	0	1
2160	0	1
2161	0	1
2162	0	1
2163	0	1
2164	0	1
2165	0	1
2166	0	1
2167	0	1
2168	0	1
2169	0	1
2170	0	1
2171	0	1
2172	0	1
2173	0	1
2174	0	1
2175	0	1
2176	0	1
2177	0	1
2178	0	1
2179	0	1
2180	0	1
2181	0	1
2182	0	1
2183	0	1
2184	0	1
2185	0	1
2186	0	1
2187	0	1
2188	1	1
2189	1	1
2190	1	1
2191	1	1
2192	1	1
2193	1	1
2194	1	1
2195	1	1
2196	1	1
2197	1	1
2198	1	1
2199	1	1
2200	1	1
2201	1	1
2202	1	1
2203	1	1
2204	1	1
2205	1	1
2206	1	1
2207	1	1
2208	1	1
2209	1	1
2210	1	1
2211	1	1
2212	1	1
2213	1	1
2214	1	1
2215	1	1
2216	1	1
2217	1	1
2218	1	1
2219	1	1
2220	1	1
2221	1	1
2222	1	1
2223	1	1
2224	1	1
2225	1	1
2226	1	1
2227	1	1
2228	1	1
2229	1	1
2230	1	1
2231	1	1
2232	1	1
2233	1	1
2234	1	1
2235	1	1
2236	1	1
2237	1	1
2238	1	1
2239	1	1
2240	1	1
2241	1	1
2242	1	1
2243	1	1
2244	1	1
2245	1	1
2246	1	1
2247	1	1
2248	1	1
2249	1	1
2250	1	1
2251	1	1
2252	1	1
2253	1	1
2254	1	1
2255	1	1
2256	1	1
2257	1	1
2258	1	1
2259	1	1
2260	1	1
2261	1	1
2262	1	1
2263	1	1
2264	1	1
2265	1	1
2266	1	1
2267	1	1
2268	1	1
2269	1	1
2270	1	1
2271	1	1
2272	1	1
2273	1	1
2274	1	1
2275	1	1
2276	1	1
2277	1	1
2278	1	1
2279	1	1
2280	1	1
2281	1	1
2282	1	1
2283	1	1
2284	1	1
2285	1	1
2286	1	1
2287	1	1
2288	1	1
2289	1	1
2290	1	1
2291	1	1
2292	1	1
2293	1	1
2294	1	1
2295	1	1
2296	1	1
2297	1	1
2298	1	1
2299	1	1
2300	1	1
2301	1	1
2302	1	1
2303	1	1
2304	1	1
2305	1	1
2306	1	1
2307	1	1
2308	1	1
2309	1	1
2310	1	1
2311	1	1
2312	1	1
2313	0	0.777778
2314	1	1
2315	1	1
2316	1	1
2317	1	1
2318	1	1
2319	1	1
2320	1	1
2321	1	1
2322	1	1
2323	1	1
2324	1	1
2325	1	1
2326	1	1
2327	1	1
2328	1	1
2329	1	1
2330	1	1
2331	1	1
2332	1	1
2333	1	1
2334	1	1
2335	1	1
2336	1	1
2337	1	1
2338	1	1
2339	1	1
2340	1	1
2341	1	1
2342	1	1
2343	1	1
2344	0	1
2345	1	1
2346	1	1
2347	1	1
2348	1	1
2349	1	1
2350	1	1
2351	1	1
2352	1	1
2353	1	1
2354	1	1
2355	1	1
2356	1	1
2357	1	1
2358	1	1
2359	1	1
2360	1	1
2361	1	1
2362	1	1
2363	1	1
2364	1	1
2365	1	1
2366	1	1
2367	1	1
2368	1	1
2369	1	1
2370	1	1
2371	1	1
2372	1	1
2373	1	1
2374	1	1
2375	1	1
2376	1	1
2377	1	1
2378	1	1
2379	1	1
2380	1	1
2381	1	1
2382	1	1
2383	1	1
2384	1	1
2385	1	1
2386	1	1
2387	1	1
2388	1	1
2389	1	1
2390	1	1
2391	1	1
2392	1	1
2393	1	1
2394	1	1
2395	1	1
2396	1	1
2397	1	1
2398	1	1
2399	1	1
2400	1	1
2401	1	1
2402	1	1
2403	1	1
2404	1	1
2405	1	1
2406	1	1
2407	1	1
2408	1	1
2409	1	1
2410	1	1
2411	1	1
2412	1	1
2413	1	1
2414	1	1
2415	1	1
2416	1	1
2417	1	1
2418	1	1
2419	1	1
2420	1	1
2421	1	1
2422	1	1
2423	1	1
2424	1	1
2425	1	1
2426	1	1
2427	1	1
2428	1	1
2429	1	1
2430	1	1
2431	1	1
2432	1	1
2433	1	1
2434	1	1
2435	1	1
2436	1	1
2437	1	1
2438	1	1
2439	1	1
2440	1	1
2441	1	1
2442	1	1
2443	1	1
2444	1	1
2445	1	1
2446	0	1
2447	0	1
2448	0	1
2449	0	1
2450	0	1
2451	0	1
2452	0	1
2453	0	0.428571
2454	0	0.428571
2455	0	0.428571
2456	0	0.428571
2457	0	0.428571
2458	0	0.428571
2459	0	0.321429
2460	0	0.428571
2461	1	1
2462	1	1
2463	0	1
2464	1	1
2465	0	0.777778
2466	1	1
2467	1	1
2468	1	1
2469	1	1
2470	1	1
2471	1	1
2472	1	1
2473	1	1
2474	1	1
2475	1	1
2476	1	1
2477	1	1
2478	1	1
2479	1	1
2480	1	1
2481	1	1
2482	1	1
2483	1	1
2484	1	1
2485	1	1
2486	1	1
2487	1	1
2488	1	1
2489	1	1
2490	1	1
2491	1	1
2492	1	1
2493	1	1
2494	1	1
2495	1	1
2496	1	1
2497	1	1
2498	1	1
2499	1	1
2500	1	1
2501	1	1
2502	1	1
2503	1	1
2504	1	1
2505	1	1
2506	1	1
2507	1	1
2508	1	1
2509	1	1
2510	1	1
2511	1	1
2512	1	1
2513	1	1
2514	1	1
2515	1	1
2516	1	1
2517	1	1
2518	1	1
2519	1	1
2520	1	1
2521	1	1
2522	1	1
2523	1	1
2524	1	1
2525	0	0.777778
2526	0	0.777778
2527	0	0.777778
2528	0	0.777778
2529	0	0.777778
2530	0	0.777778
2531	0	0.777778
2532	0	0.777778
2533	0	0.777778
2534	0	0.777778
2535	0	0.777778
2536	0	0.777778
2537	0	0.777778
2538	0	0.777778
2539	0	0.777778
2540	0	0.777778
2541	0	0.777778
2542	0	0.777778
2543	0	0.777778
2544	0	0.777778
2545	0	0.777778
2546	0	0.777778
2547	0	0.777778
2548	0	0.777778
2549	0	0.777778
2550	0	0.5
2551	0	0.166667
2552	0	0.166667
2553	0	0.166667
2554	0	0.166667
2555	0	0.166667
2556	0	0.166667
2557	0	0.166667
2558	0	0.166667
2559	0	0.166667
2560	0	0.166667
2561	0	0.166667
2562	0	0.166667
2563	0	0
2564	0	0
2565	0	0
2566	0	0.714286
2567	0	0.714286
2568	0	0.714286
2569	0	0.714286
2570	0	0.714286
2571	0	0.714286
2572	0	0.714286
2573	0	0.714286
2574	0	0.714286
2575	0	0.714286
2576	0	0.714286
2577	0	0.714286
2578	0	0.714286
2579	0	0.714286
2580	0	0.714286
2581	1	0
2582	1	0
2583	1	0
2584	0	0
2585	0	0
2586	0	0
2587	0	0
2588	0	0
2589	0	0
2590	0	0
2591	0	0
2592	1	0
2593	1	0
2594	1	0
2595	1	0
2596	0	0
2597	0	0
2598	0	0
2599	0	0
2600	0	0
2601	0	0
2602	1	0
2603	1	0
2604	1	0
2605	1	0
2606	1	0
2607	1	0
2608	1	0
2609	1	0
2610	1	0
2611	1	0
2612	1	0
