Site	ColumnScore	SumOfPairsScore
1	0	0
2	0	0
3	0	0
4	0	0
5	0	0
6	0	0
7	0	0
8	0	0
9	0	0
10	0	0
11	0	0
12	0	0
13	0	0
14	0	0
15	0	0
16	0	0
17	1	0
18	1	0
19	1	0
20	1	0
21	1	0
22	1	0
23	1	0
24	1	0
25	1	0
26	1	0
27	1	0
28	1	0
29	1	0
30	1	0
31	0	0
32	0	0
33	0	0
34	0	0
35	0	0
36	0	0
37	0	0
38	0	0
39	0	0
40	0	0
41	0	0
42	0	0
43	0	0
44	0	0
45	0	0
46	0	0
47	1	1
48	1	1
49	1	1
50	1	1
51	1	1
52	1	1
53	1	1
54	1	1
55	1	1
56	1	1
57	1	1
58	1	1
59	1	1
60	1	1
61	1	1
62	1	1
63	1	1
64	1	1
65	1	1
66	1	1
67	1	1
68	1	1
69	1	1
70	1	1
71	1	1
72	1	1
73	1	1
74	1	1
75	1	1
76	1	1
77	1	1
78	1	1
79	1	1
80	1	1
81	1	1
82	1	1
83	1	1
84	1	1
85	1	1
86	1	1
87	1	1
88	1	1
89	1	1
90	1	1
91	1	1
92	1	1
93	1	1
94	1	1
95	1	1
96	1	1
97	1	1
98	1	1
99	1	1
100	1	1
101	1	1
102	1	1
103	1	1
104	1	1
105	1	1
106	1	1
107	1	1
108	1	1
109	1	1
110	1	1
111	1	1
112	1	1
113	1	1
114	1	1
115	1	1
116	1	1
117	1	1
118	1	1
119	1	1
120	1	1
121	1	1
122	1	1
123	1	1
124	1	1
125	1	1
126	1	1
127	1	1
128	1	1
129	1	1
130	1	1
131	1	1
132	1	1
133	1	1
134	1	1
135	1	1
136	1	1
137	1	1
138	1	1
139	1	1
140	1	1
141	1	1
142	1	1
143	1	1
144	1	1
145	1	1
146	1	1
147	1	1
148	1	1
149	1	1
150	1	1
151	1	1
152	1	1
153	1	1
154	1	1
155	1	1
156	1	1
157	1	1
158	1	1
159	1	1
160	1	1
161	1	1
162	1	1
163	1	1
164	1	1
165	1	1
166	1	1
167	1	1
168	1	1
169	1	1
170	1	1
171	1	1
172	1	1
173	1	1
174	1	1
175	1	1
176	1	1
177	1	1
178	1	1
179	1	1
180	1	1
181	1	1
182	1	1
183	1	1
184	1	1
185	1	1
186	1	1
187	1	1
188	1	1
189	1	1
190	1	1
191	1	1
192	1	1
193	1	1
194	1	1
195	1	1
196	1	1
197	1	1
198	1	1
199	1	1
200	1	1
201	1	1
202	1	1
203	1	1
204	1	1
205	1	1
206	1	1
207	1	1
208	1	1
209	1	1
210	1	1
211	1	1
212	1	1
213	1	1
214	1	1
215	1	1
216	1	1
217	1	1
218	1	1
219	1	1
220	1	1
221	1	1
222	1	1
223	1	1
224	1	1
225	1	1
226	1	1
227	1	1
228	1	1
229	1	1
230	1	1
231	1	1
232	1	1
233	1	1
234	1	1
235	1	1
236	1	1
237	1	1
238	1	1
239	1	1
240	1	1
241	1	1
242	1	1
243	1	1
244	1	1
245	1	1
246	1	1
247	1	1
248	1	1
249	1	1
250	1	1
251	1	1
252	1	1
253	1	1
254	1	1
255	1	1
256	1	1
257	1	1
258	1	1
259	1	1
260	1	1
261	1	1
262	1	1
263	1	1
264	1	1
265	1	1
266	1	1
267	1	1
268	1	1
269	1	1
270	1	1
271	1	1
272	1	1
273	1	1
274	1	1
275	1	1
276	1	1
277	1	1
278	1	1
279	1	1
280	1	1
281	1	1
282	1	1
283	1	1
284	1	1
285	1	1
286	1	1
287	1	1
288	1	1
289	1	1
290	1	1
291	1	1
292	1	1
293	1	1
294	1	1
295	1	1
296	1	1
297	1	1
298	1	1
299	1	1
300	1	1
301	1	1
302	1	1
303	1	1
304	1	1
305	1	1
306	1	1
307	1	1
308	1	1
309	1	1
310	1	1
311	1	1
312	1	1
313	1	1
314	1	1
315	1	1
316	1	1
317	1	1
318	1	1
319	1	1
320	1	1
321	1	1
322	1	1
323	1	1
324	1	1
325	1	1
326	1	1
327	1	1
328	1	1
329	1	1
330	1	1
331	1	1
332	1	1
333	1	1
334	1	1
335	1	1
336	1	1
337	1	1
338	1	1
339	1	1
340	1	1
341	1	1
342	1	1
343	1	1
344	1	1
345	1	1
346	1	1
347	1	1
348	1	1
349	1	1
350	1	1
351	1	1
352	1	1
353	1	1
354	1	1
355	1	1
356	1	1
357	1	1
358	1	1
359	1	1
360	1	1
361	1	1
362	1	1
363	1	1
364	1	1
365	1	1
366	1	1
367	1	1
368	1	1
369	1	1
370	1	1
371	1	1
372	1	1
373	1	1
374	1	1
375	1	1
376	1	1
377	1	1
378	1	1
379	1	1
380	1	1
381	1	1
382	1	1
383	1	1
384	1	1
385	1	1
386	1	1
387	1	1
388	1	1
389	1	1
390	1	1
391	1	1
392	1	1
393	1	1
394	1	1
395	1	1
396	1	1
397	1	1
398	1	1
399	1	1
400	1	1
401	1	1
402	1	1
403	1	1
404	1	1
405	1	1
406	1	1
407	1	1
408	1	1
409	1	1
410	1	1
411	1	1
412	1	1
413	1	1
414	1	1
415	1	1
416	1	1
417	1	1
418	1	1
419	1	1
420	1	1
421	1	1
422	1	1
423	1	1
424	1	1
425	1	1
426	1	1
427	1	1
428	1	1
429	1	1
430	1	1
431	1	1
432	1	1
433	1	1
434	1	1
435	1	1
436	1	1
437	1	1
438	1	1
439	1	1
440	1	1
441	1	1
442	1	1
443	1	1
444	1	1
445	1	1
446	1	1
447	1	1
448	1	1
449	1	1
450	1	1
451	1	1
452	1	1
453	1	1
454	1	1
455	1	1
456	1	1
457	1	1
458	0	1
459	0	1
460	0	1
461	0	1
462	0	1
463	0	1
464	0	1
465	0	1
466	0	1
467	0	1
468	0	1
469	0	1
470	0	0.333333
471	0	0.333333
472	0	0.333333
473	0	0.333333
474	0	0.333333
475	0	0.333333
476	0	0.333333
477	0	0.333333
478	0	0.333333
479	0	0.333333
480	0	0.333333
481	0	0.333333
482	0	0.333333
483	0	0.333333
484	0	0.333333
485	0	0.333333
486	0	0.333333
487	0	0.333333
488	0	0.333333
489	0	0.333333
490	0	0.333333
491	0	0.333333
492	0	0.333333
493	0	0.333333
494	0	0.333333
495	0	0.333333
496	0	0.333333
497	0	0.333333
498	0	0.333333
499	0	0
500	0	0
501	0	0
502	0	0
503	0	0
504	0	0
505	0	0
506	0	0
507	0	0
508	0	0
509	0	0
510	0	0
511	0	0
512	0	0
513	0	0
514	0	0
515	0	0
516	0	0
517	0	0
518	0	0
519	0	0
520	0	0
521	0	0
522	0	0
523	0	0
524	0	0
525	0	0
526	0	0
527	0	0.166667
528	0	0.166667
529	0	0.725275
530	0	0.836957
531	0	0.723647
532	0	0.723647
533	0	0.723647
534	0	0.615385
535	0	0.571429
536	0	0.571429
537	0	0.571429
538	0	0.571429
539	0	0.53202
540	0	0.496552
541	0	0.498851
542	0	0.416807
543	0	0.279035
544	0	0.289446
545	0	0.44581
546	0	0.545987
547	0	0.599363
548	0	0.938957
549	0	0.939572
550	0	0.942191
551	0	0.94355
552	0	0.944076
553	0	0.982722
554	0	0.983158
555	0	0.983158
556	0	0.983968
557	0	0.991968
558	0	0.992
559	0	0.992
560	0	0.992
561	0	0.992
562	0	0.992
563	0	0.992
564	0	0.992
565	0	0.992
566	0	0.992
567	0	0.992
568	0	0.992
569	0	0.992
570	0	0.992
571	0	0.992
572	1	1
573	1	1
574	1	1
575	1	1
576	1	1
577	1	1
578	1	1
579	1	1
580	1	1
581	1	1
582	1	1
583	1	1
584	1	1
585	1	1
586	1	1
587	1	1
588	1	1
589	1	1
590	1	1
591	1	1
592	1	1
593	1	1
594	0	0.992
595	0	0.992
596	0	0.992
597	1	1
598	1	1
599	1	1
600	1	1
601	1	1
602	1	1
603	1	1
604	1	1
605	1	1
606	1	1
607	1	1
608	1	1
609	1	1
610	1	1
611	1	1
612	1	1
613	1	1
614	1	1
615	1	1
616	1	1
617	1	1
618	1	1
619	1	1
620	1	1
621	1	1
622	1	1
623	1	1
624	1	1
625	1	1
626	1	1
627	1	1
628	1	1
629	1	1
630	1	1
631	1	1
632	1	1
633	1	1
634	1	1
635	1	1
636	1	1
637	1	1
638	1	1
639	1	1
640	1	1
641	1	1
642	1	1
643	1	1
644	1	1
645	1	1
646	1	1
647	1	1
648	1	1
649	1	1
650	1	1
651	1	1
652	1	1
653	1	1
654	1	1
655	1	1
656	1	1
657	1	1
658	1	1
659	1	1
660	1	1
661	1	1
662	1	1
663	1	1
664	1	1
665	1	1
666	1	1
667	1	1
668	1	1
669	1	1
670	1	1
671	1	1
672	1	1
673	1	1
674	1	1
675	1	1
676	1	1
677	1	1
678	1	1
679	0	1
680	0	1
681	1	1
682	1	1
683	1	1
684	1	1
685	0	0.3
686	0	0.3
687	0	0.6
688	0	0.992
689	0	0.992
690	0	0.960643
691	0	0.960643
692	0	0.992
693	0	0.976129
694	0	0.976129
695	0	0.976129
696	0	0.976129
697	0	0.976129
698	0	0.976129
699	0	0.976129
700	0	0
701	0	1
702	0	1
703	0	1
704	0	1
705	0	1
706	0	1
707	1	1
708	1	1
709	1	1
710	1	1
711	1	1
712	1	1
713	1	1
714	1	1
715	1	1
716	1	1
717	1	1
718	1	1
719	1	1
720	1	1
721	1	1
722	1	1
723	1	1
724	1	1
725	1	0
726	1	0
727	1	0
728	1	0
729	1	0
730	1	0
731	1	0
732	1	0
733	1	0
734	1	0
735	1	0
736	1	0
737	1	0
738	1	0
739	1	0
740	1	0
741	1	0
742	1	0
743	1	0
744	1	0
745	1	0
746	1	0
747	1	0
748	1	0
749	1	0
750	1	0
751	1	0
752	1	0
753	1	0
754	1	0
755	1	0
756	1	0
757	1	0
758	1	0
759	1	0
760	1	0
761	1	0
762	1	0
763	1	0
764	1	0
765	1	0
766	1	1
767	1	1
768	1	1
769	1	1
770	1	1
771	1	1
772	1	1
773	1	1
774	1	1
775	1	1
776	1	1
777	1	1
778	1	1
779	1	1
780	1	1
781	1	1
782	1	1
783	1	1
784	1	1
785	1	1
786	1	1
787	1	1
788	1	1
789	1	1
790	1	1
791	1	1
792	1	1
793	1	1
794	1	1
795	1	1
796	1	1
797	1	1
798	1	1
799	1	1
800	1	1
801	1	1
802	1	1
803	1	1
804	1	1
805	1	1
806	0	1
807	0	0.608449
808	0	0.916667
809	0	0.471025
810	0	0.509074
811	0	0.509074
812	0	0
813	0	0.713842
814	0	0.705135
815	0	0
816	0	0.990783
817	0	1
818	0	1
819	0	1
820	1	1
821	1	1
822	1	1
823	1	1
824	1	1
825	1	1
826	1	1
827	1	1
828	1	1
829	1	1
830	1	1
831	1	1
832	1	1
833	1	1
834	1	1
835	1	1
836	1	1
837	0	1
838	0	0.498506
839	0	0.498506
840	0	0
841	0	0
842	0	0
843	0	0.361111
844	0	0.47619
845	0	0.47619
846	0	0.266667
847	0	0.599906
848	0	0.59282
849	0	1
850	0	0.837481
851	0	0
852	0	0
853	0	0
854	0	0
855	0	0
856	0	0
857	0	0
858	0	0.734317
859	0	0.727723
860	0	0.713454
861	0	0.382732
862	0	0
863	0	0
864	0	0
865	0	0
866	0	0
867	0	0.208955
868	0	0.20438
869	0	0
870	0	0.312271
871	0	0.472868
872	0	0.504983
873	0	0.498966
874	0	0.676471
875	0	0.882353
876	0	0.882353
877	0	0.435766
878	0	0.441164
879	0	0.439904
880	0	0.666667
881	0	0.666667
882	0	0.562361
883	0	0
884	1	1
885	1	1
886	1	1
887	1	1
888	1	1
889	1	1
890	1	1
891	1	1
892	1	1
893	1	1
894	1	1
895	1	1
896	1	1
897	1	1
898	1	1
899	1	1
900	1	1
901	1	1
902	1	1
903	1	1
904	1	1
905	1	1
906	1	1
907	1	1
908	1	1
909	1	1
910	1	1
911	1	1
912	1	1
913	1	1
914	1	1
915	1	1
916	0	0.526908
917	0	0.526908
918	0	1
919	1	1
920	1	1
921	1	1
922	1	1
923	1	1
924	1	1
925	1	1
926	1	1
927	0	0.968386
928	0	1
929	1	1
930	1	1
931	1	1
932	1	1
933	1	1
934	1	1
935	1	1
936	1	1
937	1	1
938	1	1
939	1	1
940	1	1
941	1	1
942	1	1
943	1	1
944	1	1
945	1	1
946	1	1
947	1	1
948	1	1
949	1	1
950	1	1
951	0	0.968386
952	0	0.968386
953	1	0
954	0	1
955	1	1
956	1	1
957	1	1
958	1	1
959	1	1
960	1	1
961	1	1
962	1	1
963	1	1
964	1	1
965	1	1
966	1	1
967	1	1
968	1	1
969	1	1
970	1	1
971	1	1
972	1	1
973	1	1
974	1	1
975	1	1
976	1	1
977	1	1
978	1	1
979	1	1
980	1	1
981	1	1
982	1	1
983	1	1
984	1	1
985	1	1
986	1	1
987	1	1
988	1	1
989	1	1
990	1	1
991	1	1
992	1	1
993	1	1
994	1	1
995	1	1
996	1	1
997	1	1
998	1	1
999	1	1
1000	1	1
1001	1	1
1002	1	1
1003	1	1
1004	1	1
1005	1	1
1006	1	1
1007	1	1
1008	1	1
1009	1	1
1010	1	1
1011	1	1
1012	1	1
1013	1	1
1014	1	1
1015	1	1
1016	1	1
1017	1	1
1018	0	0
1019	0	0.977778
1020	0	0.53449
1021	0	0.539631
1022	1	1
1023	1	1
1024	1	1
1025	1	1
1026	1	1
1027	1	1
1028	1	1
1029	1	1
1030	1	1
1031	1	1
1032	1	1
1033	1	1
1034	0	1
1035	1	1
1036	0	0.519711
1037	1	1
1038	1	1
1039	1	1
1040	1	1
1041	1	1
1042	1	1
1043	1	1
1044	1	1
1045	1	1
1046	1	1
1047	1	1
1048	1	1
1049	1	0
1050	1	0
1051	1	0
1052	1	0
1053	1	0
1054	1	0
1055	1	0
1056	1	0
1057	1	0
1058	1	0
1059	1	0
1060	1	0
1061	1	0
1062	1	1
1063	1	1
1064	1	1
1065	1	1
1066	1	1
1067	1	1
1068	1	1
1069	1	1
1070	1	1
1071	1	1
1072	1	1
1073	1	1
1074	1	1
1075	1	1
1076	1	1
1077	1	1
1078	1	1
1079	1	1
1080	1	1
1081	1	1
1082	1	1
1083	0	1
1084	0	0.951442
1085	1	1
1086	1	1
1087	1	1
1088	1	1
1089	1	1
1090	1	1
1091	1	1
1092	1	1
1093	1	1
1094	1	1
1095	1	1
1096	1	1
1097	1	1
1098	1	1
1099	1	1
1100	1	1
1101	1	1
1102	1	1
1103	1	1
1104	0	0.992
1105	1	1
1106	1	1
1107	1	1
1108	1	1
1109	0	0
1110	1	0
1111	1	0
1112	1	0
1113	1	0
1114	1	0
1115	1	0
1116	1	0
1117	0	0
1118	1	1
1119	1	1
1120	1	1
1121	1	1
1122	1	1
1123	1	1
1124	1	1
1125	1	1
1126	1	1
1127	1	1
1128	1	1
1129	1	1
1130	1	1
1131	1	1
1132	1	1
1133	1	1
1134	1	1
1135	1	1
1136	1	1
1137	1	1
1138	1	1
1139	1	1
1140	1	1
1141	1	1
1142	1	1
1143	1	1
1144	1	1
1145	1	1
1146	1	1
1147	1	1
1148	1	1
1149	1	1
1150	1	1
1151	1	1
1152	1	1
1153	1	1
1154	1	1
1155	1	1
1156	1	1
1157	1	1
1158	1	1
1159	1	1
1160	1	1
1161	1	1
1162	1	1
1163	1	1
1164	1	1
1165	1	1
1166	0	0.983936
1167	0	1
1168	0	0.799301
1169	0	1
1170	0	0.972481
1171	0	0.769053
1172	0	0.66692
1173	0	0.676463
1174	0	0.959609
1175	0	0.893445
1176	1	1
1177	1	1
1178	1	1
1179	1	1
1180	1	1
1181	1	1
1182	1	1
1183	1	1
1184	1	1
1185	1	1
1186	1	1
1187	1	1
1188	1	1
1189	1	1
1190	1	1
1191	1	1
1192	1	1
1193	1	1
1194	1	1
1195	1	1
1196	1	1
1197	1	1
1198	1	1
1199	1	1
1200	1	1
1201	1	1
1202	1	1
1203	1	1
1204	1	1
1205	1	1
1206	1	1
1207	0	0.991935
1208	1	1
1209	1	1
1210	1	1
1211	1	1
1212	1	1
1213	1	1
1214	1	1
1215	1	1
1216	1	1
1217	1	1
1218	1	1
1219	1	1
1220	1	1
1221	0	0
1222	0	0
1223	0	0
1224	0	0.9875
1225	0	0.666667
1226	0	0.458333
1227	0	0.407101
1228	0	0.364939
1229	0	0.354701
1230	0	0.458698
1231	0	0.472117
1232	0	0.408505
1233	0	0.6
1234	0	0.6
1235	0	0.738791
1236	0	0.742498
1237	0	0.686314
1238	0	0.663152
1239	0	0.764965
1240	0	0
1241	0	0
1242	0	0
1243	0	0.901328
1244	0	0.892851
1245	0	0.333333
1246	0	1
1247	0	0.991968
1248	0	0.992
1249	0	0.992
1250	0	0.992
1251	0	0.992
1252	0	0.992
1253	0	0.992
1254	0	0.992
1255	0	0.992
1256	0	0.992
1257	0	0.991968
1258	0	0.984032
1259	0	0.984032
1260	0	0.737952
1261	0	0
1262	0	0
1263	0	0.797062
1264	0	0.487875
1265	0	0.681818
1266	0	0.583333
1267	0	0.505495
1268	0	0
1269	0	0.363636
1270	0	0
1271	0	0
1272	0	0
1273	1	0
1274	1	0
1275	1	0
1276	0	0.311111
1277	0	0.166667
1278	0	0.166667
1279	0	0.166667
1280	0	0.333333
1281	0	0.326667
1282	0	0.188657
1283	0	0.199829
1284	0	0.159725
1285	0	0.183493
1286	0	0.230556
1287	0	0.462921
1288	0	0.596376
1289	0	0.771739
1290	0	0.947368
1291	0	0.827909
1292	0	0.818629
1293	0	0.984064
1294	0	0.984064
1295	1	1
1296	1	1
1297	1	1
1298	1	1
1299	1	1
1300	1	1
1301	1	1
1302	1	1
1303	1	1
1304	1	1
1305	1	1
1306	1	1
1307	1	1
1308	0	1
1309	1	1
1310	1	1
1311	0	1
1312	0	1
1313	0	1
1314	0	1
1315	0	1
1316	0	1
1317	0	1
1318	1	1
1319	1	1
1320	1	1
1321	0	0.991935
1322	0	0.991935
1323	0	0.991935
1324	0	0.983968
1325	0	0.983968
1326	0	0.983968
1327	0	0.991935
1328	0	0.991935
1329	0	0.991935
1330	0	0.991903
1331	0	0.991903
1332	0	0.991903
1333	0	0.991903
1334	0	0.991903
1335	0	0.991903
1336	0	0.991903
1337	0	0.991903
1338	0	0.991903
1339	0	0.991903
1340	0	1
1341	0	0.76092
1342	0	0.711828
1343	0	0.770241
1344	0	0.720539
1345	0	0
1346	0	0
1347	0	0
1348	0	0
1349	0	0.535714
1350	0	0.581513
1351	0	0.43763
1352	0	0.273979
1353	0	0.239247
1354	0	1
1355	0	1
1356	0	1
1357	0	1
1358	1	1
1359	1	1
1360	0	1
1361	0	1
1362	0	1
1363	0	1
1364	0	1
1365	0	0.285714
1366	0	0.178571
1367	0	0.138889
1368	0	0.333333
1369	0	0.333333
1370	0	0.505495
1371	0	0.254298
1372	0	0.311361
1373	0	0.197044
1374	0	0.225287
1375	0	0.768145
1376	0	0.523342
1377	0	1
1378	0	1
1379	1	1
1380	1	1
1381	1	1
1382	1	1
1383	1	1
1384	1	1
1385	1	1
1386	1	1
1387	1	1
1388	0	0.991903
1389	1	1
1390	0	1
1391	1	1
1392	1	1
1393	1	1
1394	1	1
1395	0	0.991935
1396	0	0.991935
1397	0	0.991935
1398	0	0.991935
1399	1	1
1400	1	1
1401	1	1
1402	1	1
1403	1	1
1404	1	1
1405	1	1
1406	1	1
1407	1	1
1408	1	1
1409	1	1
1410	1	1
1411	1	1
1412	1	1
1413	1	1
1414	1	1
1415	1	1
1416	1	1
1417	1	1
1418	1	1
1419	1	1
1420	1	1
1421	1	1
1422	1	1
1423	1	1
1424	1	1
1425	1	1
1426	1	1
1427	1	1
1428	1	1
1429	1	1
1430	1	1
1431	0	0.992
1432	0	0.992
1433	1	1
1434	1	1
1435	1	1
1436	1	1
1437	1	1
1438	1	1
1439	1	1
1440	1	1
1441	1	1
1442	1	1
1443	1	1
1444	1	1
1445	1	1
1446	1	1
1447	1	1
1448	1	1
1449	1	1
1450	1	1
1451	1	1
1452	1	1
1453	1	1
1454	1	1
1455	0	0.991968
1456	0	0.991968
1457	0	1
1458	0	0.464286
1459	0	0.464286
1460	0	0.93361
1461	0	0.933393
1462	0	1
1463	0	0.4
1464	0	0.4
1465	0	0.311111
1466	0	0.374269
1467	0	0.425035
1468	0	0.514706
1469	0	0.691176
1470	0	0.454545
1471	0	0.362825
1472	0	0.246601
1473	0	0.866667
1474	0	0.772059
1475	0	0.686275
1476	0	0.915819
1477	0	0.970149
1478	0	0.942455
1479	0	0.8
1480	0	1
1481	0	0.945438
1482	0	0.597746
1483	0	0.597746
1484	1	1
1485	1	1
1486	1	1
1487	1	1
1488	1	1
1489	1	1
1490	1	1
1491	1	1
1492	1	1
1493	1	1
1494	1	1
1495	1	1
1496	1	1
1497	1	1
1498	0	1
1499	0	0.956571
1500	0	1
1501	0	1
1502	0	1
1503	0	1
1504	0	1
1505	0	0.611111
1506	0	0.488889
1507	0	0.488889
1508	0	0.488889
1509	0	0.47619
1510	0	0.47619
1511	0	0.47619
1512	0	0.305556
1513	0	0.266667
1514	0	0.1
1515	0	0.145455
1516	0	0.145455
1517	0	0.0989011
1518	0	0.0989011
1519	0	0.111111
1520	0	0.0988142
1521	0	0.0833333
1522	0	0.0833333
1523	0	0.0833333
1524	0	0.108262
1525	0	0.0862069
1526	0	0.0804598
1527	0	0.0731183
1528	0	0.0902439
1529	0	0.124274
1530	0	0.124274
1531	0	0.194906
1532	0	0.251515
1533	0	0.351515
1534	0	0.351515
1535	0	0.377778
1536	0	0.453488
1537	0	0.460606
1538	0	0.460606
1539	0	0.483087
1540	0	0.508974
1541	0	0.362821
1542	0	0.352564
1543	0	0.320076
1544	0	0.305376
1545	0	0.436364
1546	0	0.25
1547	0	0.190476
1548	0	0.3
1549	0	0.166667
1550	0	0.166667
1551	0	0.1
1552	0	1
1553	0	0.333333
1554	0	0.333333
1555	0	1
1556	0	0.333333
1557	0	0
1558	0	0
1559	0	0.047619
1560	0	0.0555556
1561	0	0.0545455
1562	0	0.0512821
1563	0	0.0735294
1564	0	0.0684211
1565	0	0.0684211
1566	0	0.0606061
1567	0	0.0566667
1568	0	0.0529101
1569	0	0.0974529
1570	0	0.0975845
1571	0	0.0975845
1572	0	0.077381
1573	0	0.129348
1574	0	0.120049
1575	0	0.11173
1576	0	0.128082
1577	0	0.119899
1578	0	0.0696981
1579	0	0.0788638
1580	0	0.0738438
1581	0	0.0526316
1582	0	0.0467836
1583	0	0.0526316
1584	0	0.047619
1585	0	0.0507246
1586	0	0.042735
1587	0	0.0365591
1588	0	0.0236735
1589	0	0.025098
1590	0	0.0246734
1591	0	0.0276855
1592	0	0.0289855
1593	0	0.0292553
1594	0	0.0457912
1595	0	0.0520833
1596	0	0.0548727
1597	0	0.0727848
1598	0	0.0940288
1599	0	0.129283
1600	0	0.259947
1601	0	0.292693
1602	0	0.330711
1603	0	0.659168
1604	0	0.841991
1605	0	0.926608
1606	0	0.916136
1607	0	0.973423
1608	0	0.961294
1609	0	0.821144
1610	0	0.884155
1611	1	1
1612	1	1
1613	1	1
1614	1	1
1615	1	1
1616	1	1
1617	1	1
1618	1	1
1619	1	1
1620	1	1
1621	1	1
1622	0	0
1623	0	0.991968
1624	0	0.991968
1625	1	1
1626	1	1
1627	1	1
1628	1	1
1629	1	1
1630	1	1
1631	1	1
1632	1	1
1633	1	1
1634	1	1
1635	1	1
1636	1	1
1637	1	1
1638	0	0.991968
1639	1	0
1640	0	0
1641	1	1
1642	1	1
1643	1	1
1644	1	1
1645	1	1
1646	1	1
1647	1	1
1648	1	1
1649	1	1
1650	1	1
1651	1	1
1652	1	1
1653	1	1
1654	1	1
1655	1	1
1656	1	1
1657	0	1
1658	1	1
1659	1	1
1660	1	1
1661	1	1
1662	1	1
1663	1	1
