Site	ColumnScore	SumOfPairsScore
1	1	0
2	1	0
3	1	0
4	1	0
5	1	0
6	1	0
7	1	0
8	1	0
9	1	0
10	1	0
11	1	0
12	1	0
13	1	0
14	1	0
15	1	0
16	1	0
17	1	0
18	1	0
19	1	0
20	1	0
21	1	0
22	1	0
23	1	0
24	1	0
25	1	0
26	1	0
27	1	0
28	1	0
29	1	0
30	1	0
31	1	0
32	1	0
33	1	0
34	1	0
35	1	0
36	1	0
37	1	0
38	1	0
39	1	0
40	1	0
41	1	0
42	1	0
43	1	0
44	1	0
45	1	0
46	1	0
47	1	0
48	1	0
49	1	0
50	1	0
51	1	0
52	1	0
53	1	0
54	1	0
55	1	0
56	1	0
57	1	0
58	1	0
59	1	0
60	1	0
61	1	0
62	1	0
63	1	0
64	0	0.333333
65	0	0.285714
66	0	0.190476
67	0	0.35
68	0	0.333333
69	0	0.410256
70	0	0.374384
71	0	0.303659
72	0	0.586428
73	0	0.588065
74	0	0.833992
75	0	0.953863
76	0	0.890731
77	0	0.835186
78	0	0.991736
79	0	0.991837
80	0	0.991837
81	0	0.99187
82	0	0.991903
83	0	0.991903
84	0	0.991903
85	1	1
86	0	0.99187
87	0	0.991803
88	0	0.991803
89	0	0.967778
90	0	0.967648
91	0	0.967648
92	0	0.967648
93	0	0.943567
94	0	0.920293
95	0	0.858295
96	0	0.333333
97	0	0.333333
98	0	0.333333
99	0	0.333333
100	0	0.333333
101	0	0.333333
102	0	0.333333
103	0	0
104	0	0
105	0	0.466667
106	0	0.294372
107	0	0.370779
108	0	0.255547
109	0	0.40614
110	0	0.490419
111	0	0.423727
112	0	0.627947
113	0	0.685888
114	0	0.7119
115	0	0.921991
116	0	0.937312
117	1	1
118	1	1
119	1	1
120	1	1
121	1	1
122	1	1
123	1	1
124	1	1
125	1	1
126	1	1
127	1	1
128	1	1
129	1	1
130	1	1
131	1	1
132	0	1
133	0	0.909091
134	0	0.837576
135	0	0.837576
136	0	0.846977
137	0	0
138	0	0
139	0	0
140	0	0
141	0	0
142	0	0.785885
143	0	0.432116
144	0	0.25731
145	0	0.323529
146	0	0.444444
147	0	0.277778
148	0	0.4
149	0	0.843179
150	0	1
151	1	1
152	1	1
153	1	1
154	1	1
155	1	1
156	1	1
157	1	1
158	0	0.865332
159	0	0.865332
160	0	0.812063
161	0	1
162	0	0.837836
163	0	0.528096
164	0	0.890819
165	0	0.921694
166	0	0.992
167	0	0.992
168	0	0.992
169	0	0.992
170	0	0.992
171	1	1
172	1	1
173	1	1
174	1	1
175	1	1
176	1	1
177	1	1
178	1	1
179	1	1
180	1	1
181	1	1
182	1	1
183	1	1
184	1	1
185	1	1
186	1	1
187	1	1
188	1	1
189	0	1
190	0	0.991968
191	0	0.991968
192	0	0.991968
193	0	0.991968
194	0	1
195	0	0.638098
196	0	0.627702
197	0	0
198	0	0
199	0	0
200	0	0.285714
201	0	0.285714
202	0	0.142857
203	0	0.450113
204	0	0.350241
205	0	0
206	0	0
207	1	0
208	1	0
209	1	0
210	1	0
211	0	0.5
212	0	0.5
213	0	0.5
214	0	0.5
215	0	0.5
216	0	0.4
217	0	0.818182
218	0	0.458111
219	0	1
220	0	1
221	0	0.927778
222	0	0.927778
223	0	0.905149
224	0	0.769918
225	0	0.721452
226	0	0.264666
227	0	0.260767
228	0	0.262875
229	0	0.237716
230	0	0.202494
231	0	0.206779
232	0	0
233	0	0
234	0	0
235	0	0
236	0	0
237	0	0
238	0	0
239	0	0
240	0	0
241	0	0.597172
242	0	0.585545
243	0	0.609359
244	0	0.687471
245	0	0.697924
246	0	0.47965
247	0	0.46672
248	0	0.426624
249	0	0.425445
250	0	0.411933
251	0	0.414815
252	0	0.503966
253	0	0.39774
254	0	0.551418
255	0	0.444444
256	0	0.286765
257	0	0.214286
258	0	0.285714
259	0	0.285714
260	0	0.266667
261	0	0.180952
262	0	0.246377
263	0	0.236364
264	0	0.19473
265	0	0
266	0	0.788889
267	0	0.380338
268	0	0.747943
269	0	0.878008
270	0	0
271	0	0
272	0	0
273	0	0
274	0	0
275	0	0
276	0	0
277	0	0.833333
278	0	0.976098
279	0	0.976098
280	0	1
281	0	1
282	0	0.992
283	0	0.992
284	0	0.992
285	0	0
286	0	0
287	0	0
288	0	0.6
289	0	0.934777
290	0	0.911618
291	0	0.895643
292	0	0.875
293	0	0.304478
294	0	1
295	0	1
296	0	1
297	0	0.358715
298	0	0.602456
299	0	0.614224
300	0	0.379447
301	0	0.363158
302	0	0.296443
303	0	0.356381
304	0	0.189941
305	0	0.190773
306	0	0.163706
307	0	0.16563
308	0	0.179476
309	0	0.2
310	0	0.242424
311	0	0.227941
312	0	0.222481
313	0	0.215156
314	0	0.222951
315	0	0.230612
316	0	0.241613
317	0	0.348348
318	0	0.33033
319	0	0.264083
320	0	0.614719
321	0	0.562234
322	0	0.481398
323	0	0.647169
324	0	0.61806
325	0	0.752258
326	0	0
327	0	0
328	0	0.266667
329	0	0.241758
330	0	0.391813
331	0	1
332	0	0.992
333	0	0.992
334	0	0.992
335	0	0.992
336	1	1
337	1	1
338	1	1
339	1	1
340	1	1
341	1	1
342	1	1
343	1	1
344	0	0.992
345	1	1
346	1	1
347	1	1
348	1	1
349	1	1
350	1	1
351	1	1
352	1	1
353	1	1
354	1	1
355	1	1
356	0	1
357	0	0.551293
358	0	0.550052
359	0	0.988701
360	0	0.988304
361	0	1
362	0	0.907834
363	0	0.727273
364	0	0.438095
365	0	0.392857
366	0	0.133333
367	0	0.1
368	0	0.1
369	0	0.367265
370	0	0.347137
371	0	0.325144
372	0	0.254745
373	0	0.217931
374	0	0.214122
375	0	0
376	0	0.5
377	0	0.5
378	0	0.705376
379	0	0.586453
380	0	0.370766
381	0	0.216116
382	0	0
383	0	0
384	0	0
385	0	0.265549
386	0	0.360843
387	0	0.121212
388	0	0.224568
389	0	0.777778
390	0	0.777778
391	0	0.327956
392	0	0.4
393	0	0.3
394	0	0.536992
395	0	0.635575
396	0	0.641825
397	0	0.641858
398	0	0.641858
399	0	0
400	0	0.417582
401	0	0.669063
402	0	0.827374
403	0	0
404	0	0.834337
405	0	0.834337
406	0	1
407	0	0.915209
408	0	0.915209
409	0	0.915209
410	0	0.915209
411	0	0.915209
412	0	0.915209
413	0	0.907536
414	0	0.959364
415	0	1
416	0	1
417	0	1
418	0	0.96826
419	1	1
420	0	1
421	1	1
422	1	1
423	0	1
424	0	1
425	1	1
426	1	1
427	1	1
428	0	1
429	0	1
430	0	1
431	0	1
432	0	1
433	0	1
434	0	1
435	0	0.992
436	0	0.992
437	0	0.992
438	0	0.900627
439	0	0.992
440	0	0.992
441	0	1
442	0	1
443	1	1
444	1	1
445	1	1
446	1	1
447	1	1
448	1	1
449	1	1
450	1	1
451	1	1
452	1	1
453	1	1
454	1	1
455	1	1
456	1	1
457	1	1
458	1	1
459	1	1
460	1	1
461	1	1
462	1	1
463	1	1
464	1	1
465	1	1
466	1	1
467	1	1
468	1	1
469	1	1
470	1	1
471	1	1
472	1	1
473	1	1
474	1	1
475	1	1
476	1	1
477	1	1
478	1	1
479	1	1
480	1	1
481	1	1
482	1	1
483	1	1
484	1	1
485	0	0
486	1	0
487	1	0
488	0	0.992
489	1	1
490	1	1
491	1	1
492	1	1
493	1	1
494	1	1
495	0	0.992
496	0	0.992
497	0	0.992
498	0	0.992
499	0	0.992
500	0	0.992
501	0	0.992
502	0	0.992
503	0	0.992
504	0	0.992
505	1	1
506	1	1
507	1	1
508	1	1
509	1	1
510	1	1
511	1	1
512	1	1
513	1	1
514	1	1
515	1	1
516	1	1
517	1	1
518	1	1
519	1	1
520	0	1
521	0	1
522	0	1
523	1	1
524	1	1
525	1	1
526	1	1
527	1	1
528	1	1
529	0	0.992
530	0	0.992
531	0	0.992
532	0	0.992
533	0	0.992
534	0	1
535	0	1
536	0	0.968134
537	0	0.968134
538	0	0.968134
539	0	0.700176
540	0	0.323377
541	0	0.309102
542	0	0.516603
543	0	0.632407
544	0	0.535714
545	0	1
546	0	1
547	0	0.426345
548	0	0.729542
549	0	0.756787
550	0	0.759133
551	0	0
552	0	0
553	0	0
554	0	0.333333
555	0	0.773675
556	0	1
557	0	1
558	0	0.975207
559	0	0.6
560	0	0.425
561	0	0.64154
562	0	0.479558
563	0	0.464341
564	0	0.460691
565	0	0.46596
566	0	0.462651
567	0	0.39712
568	0	0
569	0	0
570	0	0
571	0	0.508306
572	0	0.498024
573	0	0.4
574	0	0.355556
575	0	0.222222
576	0	0.2
577	0	0.1
578	0	0.1
579	0	0.0714286
580	0	0.226309
581	0	0.209524
582	0	0.247619
583	0	0.118891
584	0	0.114752
585	0	0.357143
586	0	0.357143
587	0	0.262474
588	0	0.237379
589	0	0
590	0	0.8
591	0	0.441301
592	0	0.446704
593	0	1
594	0	1
595	0	1
596	0	1
597	0	0.446291
598	0	0.459399
599	0	0
600	0	0
601	0	0
602	0	0.466667
603	0	0.4
604	0	0.2
605	0	0.3
606	0	0.426397
607	0	0.325
608	0	0.391107
609	0	0
610	0	0
611	0	0.47619
612	0	0.545455
613	0	0.316667
614	0	0.216374
615	0	0.358463
616	0	0.424024
617	0	0.747388
618	0	1
619	0	1
620	0	0.92827
621	0	0.945028
622	0	0.960643
623	0	0.960643
624	0	0.960643
625	0	1
626	1	1
627	1	1
628	1	1
629	1	1
630	1	1
631	1	1
632	1	1
633	1	1
634	1	1
635	1	1
636	1	1
637	1	1
638	1	1
639	1	1
640	1	1
641	1	1
642	1	1
643	1	1
644	1	1
645	1	1
646	1	1
647	1	1
648	1	1
649	1	1
650	1	1
651	1	1
652	1	1
653	1	1
654	1	1
655	1	1
656	1	1
657	1	1
658	1	1
659	1	1
660	1	1
661	1	1
662	1	1
663	1	1
664	1	1
665	1	1
666	1	1
667	1	1
668	1	1
669	1	1
670	1	1
671	1	1
672	1	1
673	0	1
674	0	0.5
675	0	0.968289
676	0	0.968289
677	0	1
678	0	0.469697
679	0	0.676605
680	0	0.513361
681	0	0.504497
682	0	0
683	0	0.928571
684	0	1
685	0	0.8
686	0	0.166667
687	0	0.133333
688	0	0.376068
689	0	0.270123
690	0	0.231045
691	0	0.225871
692	0	0.135461
693	0	0.0888442
694	0	0.155242
695	0	0.153409
696	0	0.207898
697	0	0.175087
698	0	0.263616
699	0	0.349434
700	0	0.344543
701	0	0.374136
702	0	0.408953
703	0	0.445247
704	0	0.917533
705	0	0.95015
706	0	0.982906
707	0	1
708	0	1
709	0	1
710	1	1
711	1	1
712	1	1
713	1	1
714	1	1
715	1	1
716	0	1
717	0	0
718	0	0
719	0	0
720	0	0.983968
721	0	0.983968
722	0	0.960358
723	0	0.759338
724	0	0.76244
725	0	0.760541
726	1	0
727	0	0
728	0	1
729	1	1
730	1	1
731	1	1
732	1	1
733	1	1
734	1	1
735	1	1
736	1	1
737	1	1
738	1	1
739	1	1
740	1	1
741	1	1
742	1	1
743	1	1
744	1	1
745	1	1
746	1	1
747	1	1
748	0	0
749	0	0.749129
750	0	1
751	1	1
752	0	0.54382
753	0	0.875269
754	1	1
755	1	1
756	1	1
757	1	1
758	1	1
759	0	0.937799
760	0	1
761	0	0.47619
762	0	0.842564
763	0	0.785285
764	0	0.333333
765	0	0.5
766	0	0.307064
767	0	0.6
768	0	0.6
769	0	1
770	0	0.734268
771	0	0.929495
772	0	1
773	0	1
774	1	1
775	1	1
776	0	0
777	0	0
778	0	0
779	0	0
780	0	0
781	0	0
782	0	0
783	0	0
784	0	0
785	0	0
786	0	0
787	0	0
788	0	0
789	0	0
790	0	0
791	0	0
792	0	0
793	0	0
794	0	0
795	0	0
796	0	0
797	0	0
798	0	0
799	0	0
800	0	0
801	0	0
802	0	0
803	0	0
804	0	0
805	0	0
806	0	0
807	0	0
808	0	0
809	0	0
810	0	0
811	0	0
812	0	0
813	0	0
814	0	0
815	0	0
816	0	0
817	0	0
818	0	0
819	0	0
820	0	0
821	0	0
822	0	0
823	0	0
824	0	0
825	0	0
826	0	0
827	0	0
828	0	0
829	0	0
830	0	0
831	0	0
832	0	0
833	0	0
834	0	0
835	0	0
836	0	0
837	0	0
838	0	0
839	0	0
840	0	0
841	0	0
842	0	0
843	0	0
844	0	0
845	0	0
846	0	0
847	0	0
848	0	0
849	0	0
850	0	0
851	0	0
852	0	0
853	1	0
854	1	0
855	0	0
856	0	0
857	0	0
858	0	0
859	0	0
860	0	0
861	0	0
862	0	0
863	0	0
864	0	0
865	0	0
866	0	0
867	0	0
868	0	0
869	0	0
870	0	0
871	0	0
872	0	0
873	0	0
874	0	0
875	0	0
876	0	0
877	0	0
878	0	0
879	0	0
880	0	0
881	0	0
882	0	0
883	0	0
884	0	0
885	0	0
886	0	0
887	0	0
888	0	0
889	0	0
890	0	0
891	0	0
892	0	0
893	0	0
894	0	0
895	0	0
896	0	0
897	0	0
898	0	0
899	0	0
900	0	0
901	0	0
902	0	0
903	0	0
904	0	0
905	0	0
906	0	0
907	0	0
908	0	0
909	1	0
910	0	0
911	0	0
912	0	0
913	0	0
914	0	0
915	0	0
916	0	0
917	0	0
918	0	0
919	0	0
920	0	0
921	0	0
922	0	0
923	0	0
924	0	0
925	0	0
926	0	0
927	0	0
928	0	0
929	0	0
930	0	0
931	0	0
932	0	0
933	0	0
934	0	0
935	0	0.913043
936	0	0.83155
937	0	0.83155
938	0	0.83155
939	0	0.83155
940	0	1
941	0	0.786274
942	0	0.777657
943	0	0.966102
944	0	0.818182
945	0	0.5
946	0	0.5
947	0	0
948	0	0
949	0	0
950	0	0
951	0	0
952	0	0
953	0	0
954	0	0
955	0	0
956	0	0
957	0	0
958	0	0
959	0	0
960	0	0
961	0	0
962	0	0
963	0	0
964	0	0
965	0	0
966	0	0
967	0	0
968	0	0
969	0	0
970	0	0
971	0	0
972	0	0
973	0	0
974	0	0
975	0	0
976	0	0
977	0	0
978	0	0
979	0	0
980	0	0
981	0	0
982	0	0
983	0	0
984	0	0
985	0	0
986	0	0
987	0	0
988	0	0
989	0	0
990	0	0
991	0	0
992	0	0
993	0	0
994	0	0
995	0	0
996	0	0
997	0	0
998	0	0
999	0	0
1000	0	0
1001	0	0
1002	0	0
1003	0	0
1004	0	0
1005	0	0
1006	0	0
1007	0	0
1008	0	0
1009	0	0
1010	0	0
1011	0	0
1012	0	0
1013	0	0
1014	0	0
1015	0	0
1016	0	0
1017	0	0
1018	0	0
1019	0	0
1020	0	0
1021	0	0
1022	0	0
1023	0	0
1024	0	0
1025	0	0
1026	0	0
1027	0	0
1028	0	0
1029	0	0
1030	0	0
1031	0	0
1032	0	0
1033	0	0
1034	0	0
1035	0	0
1036	1	0
1037	1	0
1038	1	0
1039	1	0
1040	1	0
1041	0	0
1042	0	0
1043	0	0
1044	0	0
1045	1	0
1046	0	0
1047	0	0
1048	0	0
1049	0	0
1050	0	0
1051	0	0
1052	0	0
1053	0	0
1054	0	0
1055	0	0
1056	1	0
1057	1	0
1058	1	0
1059	1	0
1060	1	0
1061	1	0
1062	1	0
1063	1	0
1064	0	0
1065	0	0
1066	0	0
1067	0	0
1068	0	0
1069	0	0
1070	0	0
1071	0	0
1072	0	0
1073	0	0
1074	0	0
1075	0	0
1076	0	0
1077	1	0
1078	1	0
1079	1	0
1080	1	0
1081	1	0
1082	1	0
1083	1	0
1084	0	0
1085	0	0
1086	0	0
1087	0	0
1088	0	0
1089	0	0
1090	0	0
1091	0	0
1092	0	0
1093	0	0
1094	0	0
1095	0	0
1096	0	0
1097	0	0
1098	0	0
1099	0	0
1100	0	0
1101	0	0
1102	0	0
1103	0	0
1104	0	0
1105	0	0
1106	0	0
1107	0	0
1108	0	0
1109	1	0
1110	1	0
1111	1	0
1112	1	0
1113	0	0
1114	0	0
1115	0	0
1116	1	0
1117	0	0
1118	0	0
1119	0	0
1120	0	0
1121	0	0
1122	0	0
1123	0	0
1124	0	0
1125	0	0
1126	0	0
1127	1	0
1128	1	0
1129	1	0
1130	1	0
1131	1	0
1132	1	0
1133	1	0
1134	0	0
1135	0	0
1136	0	0
1137	0	0
1138	0	0
1139	0	0
1140	0	0
1141	0	0
1142	0	0
1143	0	0
1144	0	0
1145	0	0
1146	0	0
1147	0	0
1148	0	0
1149	1	0
1150	0	0
1151	0	0
1152	0	0
1153	0	0
1154	0	0
1155	0	0
1156	0	0
1157	0	0
1158	0	0
1159	0	0
1160	0	0
1161	0	0
1162	0	0
1163	0	0
1164	0	0
1165	0	0
1166	0	0
1167	0	0
1168	0	0
1169	0	0
1170	0	0
1171	0	0
1172	0	0
1173	0	0
1174	0	0
1175	0	0
1176	0	0
1177	0	0
1178	0	0
1179	0	0
1180	0	0
1181	0	0
1182	0	0
1183	0	0
1184	0	0
1185	0	0
1186	0	0
1187	0	0
1188	1	0
1189	1	0
1190	1	0
1191	1	0
1192	1	0
1193	1	0
1194	1	0
1195	1	0
1196	1	0
1197	1	0
1198	0	0
1199	0	0
1200	0	0
1201	0	0
1202	0	0
1203	0	0
1204	0	0
1205	0	0
1206	0	0
1207	0	0
1208	0	0
1209	1	0
1210	1	0
1211	1	0
1212	1	0
1213	1	0
1214	1	0
1215	1	0
1216	1	0
1217	1	0
1218	1	0
1219	1	0
1220	1	0
1221	1	0
1222	1	0
1223	1	0
1224	1	0
1225	1	0
1226	1	0
1227	1	0
1228	1	0
1229	1	0
1230	1	0
1231	1	0
1232	1	0
1233	1	0
1234	1	0
1235	1	0
1236	1	0
1237	1	0
1238	1	0
1239	1	0
1240	1	0
1241	1	0
1242	1	0
1243	1	0
1244	1	0
1245	1	0
1246	1	0
1247	1	0
1248	1	0
1249	1	0
1250	1	0
1251	1	0
1252	1	0
1253	1	0
1254	1	0
1255	1	0
1256	1	0
1257	1	0
1258	1	0
1259	1	0
1260	1	0
1261	1	0
1262	1	0
1263	1	0
1264	1	0
1265	1	0
1266	1	0
1267	1	0
1268	1	0
1269	1	0
1270	1	0
1271	1	0
1272	1	0
1273	1	0
1274	1	0
1275	1	0
1276	1	0
1277	1	0
1278	1	0
1279	1	0
1280	1	0
1281	1	0
1282	1	0
1283	1	0
1284	1	0
1285	1	0
1286	1	0
1287	1	0
1288	1	0
1289	1	0
1290	1	0
1291	1	0
1292	1	0
1293	1	0
1294	1	0
1295	1	0
1296	1	0
1297	1	0
1298	1	0
1299	1	0
1300	1	0
1301	1	0
1302	1	0
1303	1	0
1304	1	0
1305	1	0
1306	1	0
1307	1	0
1308	1	0
1309	1	0
1310	1	0
1311	1	0
1312	1	0
1313	1	0
1314	1	0
1315	1	0
1316	1	0
