Site	ColumnScore	SumOfPairsScore
1	1	0
2	1	0
3	1	0
4	1	0
5	0	0
6	0	0
7	0	0
8	0	0
9	0	0
10	1	0
11	0	0
12	0	0.333333
13	0	0.333333
14	0	0.333333
15	0	0
16	0	0
17	0	0
18	0	0
19	0	0
20	0	0.1
21	0	0.2
22	0	0.333333
23	0	0.333333
24	0	0.333333
25	0	0.333333
26	0	0.52381
27	0	0.52381
28	0	0.52381
29	0	0.52381
30	0	0.52381
31	0	0.52381
32	0	0.52381
33	0	0.52381
34	0	0.52381
35	0	0.52381
36	0	0.571429
37	1	1
38	1	1
39	1	1
40	1	1
41	1	1
42	1	1
43	1	1
44	1	1
45	1	1
46	1	1
47	1	1
48	1	1
49	1	1
50	1	1
51	1	1
52	1	1
53	1	1
54	1	1
55	1	1
56	1	1
57	1	1
58	1	1
59	1	1
60	1	1
61	1	1
62	1	1
63	1	1
64	1	1
65	1	1
66	1	1
67	0	0
68	0	0
69	0	0
70	0	0
71	0	0.166667
72	0	0.968098
73	0	0.944779
74	0	0.944779
75	0	0.944724
76	0	0
77	0	0
78	0	0
79	0	0
80	0	0.942372
81	0	0
82	0	0
83	0	0.705128
84	0	0.409091
85	0	0.757753
86	0	0.472735
87	0	0.27959
88	0	0
89	0	0.5
90	0	1
91	0	1
92	0	0.294598
93	0	0.657143
94	0	0.90789
95	1	1
96	0	0.991968
97	0	1
98	1	1
99	1	1
100	1	1
101	1	1
102	1	1
103	1	1
104	1	1
105	1	1
106	1	1
107	1	1
108	1	1
109	1	1
110	1	1
111	1	1
112	1	1
113	1	1
114	1	1
115	1	1
116	1	1
117	1	1
118	1	1
119	1	1
120	1	1
121	1	1
122	1	1
123	1	1
124	1	1
125	1	1
126	1	1
127	0	1
128	0	0
129	0	0
130	0	0
131	1	0
132	1	0
133	1	0
134	1	0
135	0	0.95224
136	0	0.93733
137	0	0.93733
138	1	1
139	1	1
140	1	1
141	1	1
142	1	1
143	1	1
144	1	1
145	1	1
146	1	1
147	1	1
148	1	1
149	1	1
150	1	1
151	0	1
152	0	1
153	0	0.907536
154	0	0.907176
155	0	1
156	0	1
157	0	0.918971
158	0	0.333333
159	0	0
160	0	0
161	1	0
162	1	0
163	1	0
164	0	0.333333
165	0	0.333333
166	0	0.364537
167	0	0.48077
168	0	0.445032
169	0	0.494413
170	0	0.333333
171	0	0.5
172	0	0.85511
173	0	0
174	0	0
175	0	0
176	0	1
177	0	1
178	0	0.91213
179	0	0.91213
180	0	0.91213
181	0	0
182	0	0
183	0	1
184	0	1
185	0	1
186	0	1
187	0	0.991903
188	1	1
189	1	1
190	1	1
191	1	1
192	1	1
193	1	1
194	1	1
195	1	1
196	1	1
197	1	1
198	1	1
199	1	1
200	1	1
201	1	1
202	1	1
203	1	1
204	1	1
205	1	1
206	1	1
207	1	1
208	1	1
209	1	1
210	1	1
211	1	1
212	1	1
213	0	0.983968
214	0	0.983968
215	0	0.976001
216	0	0.333333
217	0	0.991968
218	0	1
219	0	1
220	1	1
221	1	1
222	1	1
223	1	1
224	1	1
225	1	1
226	1	1
227	1	1
228	1	1
229	1	1
230	1	1
231	1	1
232	0	0
233	0	0
234	0	0
235	0	0
236	0	0
237	0	0
238	0	0
239	0	0
240	0	0.91401
241	0	0.803191
242	0	0.392027
243	0	0.335911
244	0	0.271092
245	0	0.204638
246	0	0.168161
247	0	0.234951
248	0	0.2022
249	0	0.12296
250	0	0.11314
251	0	0.124093
252	0	0
253	0	0.208791
254	0	0.156138
255	0	0
256	0	0.426467
257	0	0.443421
258	0	0.460078
259	0	0.127273
260	0	0.923103
261	0	0.948394
262	0	0.948394
263	0	0
264	0	0
265	0	0
266	0	0
267	0	0
268	0	0
269	0	0
270	0	0
271	0	0
272	0	0
273	0	0
274	0	0.540251
275	0	0.563342
276	0	0.604936
277	0	0.658787
278	0	0
279	0	0
280	0	0.989637
281	0	0
282	0	0
283	0	1
284	0	1
285	1	1
286	1	1
287	1	1
288	1	1
289	1	1
290	1	1
291	1	1
292	1	1
293	1	1
294	1	1
295	1	1
296	1	1
297	1	1
298	1	1
299	1	1
300	1	1
301	1	1
302	1	1
303	1	1
304	1	1
305	1	1
306	1	1
307	1	1
308	1	1
309	1	1
310	1	1
311	1	1
312	1	1
313	0	1
314	0	0.976193
315	0	0.976193
316	0	0.976193
317	1	1
318	1	1
319	1	1
320	1	1
321	1	1
322	1	1
323	1	1
324	1	1
325	1	1
326	1	1
327	1	1
328	1	1
329	1	1
330	1	1
331	1	1
332	1	1
333	1	1
334	1	1
335	1	1
336	1	1
337	1	1
338	1	1
339	1	1
340	1	1
341	1	1
342	1	1
343	1	1
344	1	1
345	1	1
346	1	1
347	1	1
348	1	1
349	1	1
350	1	1
351	1	1
352	1	1
353	1	1
354	1	1
355	1	1
356	1	1
357	1	1
358	1	1
359	1	1
360	1	1
361	0	1
362	0	0.893847
363	0	0.893847
364	1	1
365	1	1
366	1	1
367	0	0.878811
368	0	0.878352
369	0	0.877283
370	0	0.877283
371	0	1
372	0	1
373	0	1
374	0	0.983264
375	1	1
376	1	1
377	1	1
378	1	1
379	1	1
380	1	1
381	1	1
382	1	1
383	1	1
384	1	1
385	1	1
386	1	1
387	1	1
388	1	1
389	1	1
390	1	1
391	1	1
392	1	1
393	1	1
394	1	1
395	1	1
396	1	1
397	1	1
398	1	1
399	1	1
400	1	1
401	1	1
402	1	1
403	1	1
404	1	1
405	1	1
406	1	1
407	1	1
408	1	1
409	1	1
410	1	1
411	1	1
412	1	1
413	1	1
414	1	1
415	1	1
416	1	1
417	1	1
418	1	1
419	1	1
420	1	1
421	1	1
422	1	1
423	1	1
424	1	1
425	1	1
426	1	1
427	1	1
428	1	1
429	1	1
430	1	1
431	1	1
432	1	1
433	1	1
434	1	1
435	1	1
436	1	1
437	1	1
438	1	1
439	1	1
440	1	1
441	1	1
442	1	1
443	1	1
444	0	1
445	0	1
446	0	0.659317
447	0	0.644533
448	0	0.584835
449	0	0.573254
450	0	0.488889
451	0	0.589806
452	0	0.479118
453	0	0.881097
454	0	0.823272
455	0	0.82683
456	0	0.984001
457	1	1
458	1	1
459	1	1
460	1	1
461	1	1
462	1	1
463	1	1
464	1	1
465	1	1
466	1	1
467	1	1
468	1	1
469	1	1
470	0	0.976193
471	0	1
472	1	1
473	1	1
474	1	1
475	1	1
476	1	1
477	1	1
478	1	1
479	1	1
480	1	1
481	1	1
482	1	0
483	1	1
484	1	1
485	1	1
486	1	1
487	1	1
488	1	1
489	1	1
490	1	1
491	1	1
492	1	1
493	1	1
494	1	1
495	1	1
496	1	1
497	1	1
498	1	1
499	1	1
500	1	1
501	1	1
502	1	1
503	1	1
504	1	1
505	1	1
506	1	1
507	1	1
508	1	0
509	1	0
510	1	1
511	1	1
512	1	1
513	1	1
514	1	1
515	1	1
516	1	1
517	1	1
518	1	1
519	1	1
520	1	1
521	1	1
522	1	1
523	1	1
524	1	1
525	1	1
526	1	1
527	1	1
528	1	1
529	1	1
530	1	1
531	1	1
532	1	1
533	1	1
534	1	1
535	1	1
536	0	0.992
537	1	1
538	1	1
539	1	1
540	1	1
541	1	1
542	1	1
543	1	1
544	1	1
545	1	1
546	1	1
547	1	1
548	1	1
549	0	1
550	0	0.4
551	0	0.913249
552	0	0.444444
553	0	0.826181
554	0	0.826462
555	0	0.817049
556	0	0.398241
557	0	0.390058
558	0	0.503067
559	0	0.801966
560	0	0.681736
561	0	0.825
562	0	0.423408
563	0	0.54321
564	0	0.444444
565	0	0.286765
566	0	0.404412
567	0	0.47619
568	0	0
569	0	0
570	0	0
571	0	0.602814
572	0	0.696226
573	0	0.709482
574	0	0.991935
575	0	0.991968
576	1	1
577	0	1
578	0	1
579	1	1
580	1	1
581	1	1
582	1	1
583	1	1
584	1	1
585	1	1
586	1	1
587	0	0.992
588	0	0
589	1	1
590	1	1
591	1	1
592	1	1
593	1	1
594	1	1
595	0	0.992
596	1	1
597	1	1
598	1	1
599	1	1
600	1	1
601	1	1
602	1	1
603	1	1
604	1	1
605	1	1
606	1	1
607	1	1
608	1	1
609	1	1
610	1	1
611	1	1
612	1	1
613	1	1
614	1	1
615	1	1
616	1	1
617	1	1
618	0	1
619	0	1
620	0	0.968134
621	0	0.968134
622	0	0.960041
623	0	1
624	0	0.940194
625	0	0.854086
626	0	0.52381
627	0	0.901659
628	0	0.849106
629	0	0.915209
630	0	0.915213
631	1	1
632	1	1
633	1	1
634	1	1
635	1	1
636	1	1
637	1	1
638	1	0
639	1	1
640	1	1
641	1	1
642	1	1
643	1	1
644	0	0.733871
645	0	1
646	0	0.795731
647	0	0.989305
648	1	1
649	1	1
650	1	1
651	1	1
652	1	1
653	1	1
654	1	1
655	1	1
656	1	1
657	1	1
658	1	1
659	1	1
660	1	1
661	1	1
662	1	1
663	1	1
664	1	1
665	1	1
666	1	1
667	1	1
668	1	1
669	1	1
670	1	1
671	1	1
672	1	1
673	0	0.992
674	0	0.992
675	0	0.992
676	0	0.992
677	0	0.991935
678	0	0.991837
679	0	1
680	0	0.909948
681	0	0.501749
682	0	0.452077
683	0	0.810526
684	0	0.539668
685	0	0.627366
686	0	0.697241
687	0	0.830289
688	0	0.830289
689	0	1
690	0	1
691	1	1
692	1	1
693	1	1
694	1	1
695	1	1
696	1	1
697	1	1
698	1	1
699	1	1
700	0	0.992
701	0	0.992
702	0	0.992
703	0	0.992
704	0	0.992
705	0	0.992
706	0	0
707	0	0.98
708	0	0.428571
709	0	0.568539
710	0	0.350679
711	0	0.363472
712	0	0.355301
713	0	0.340714
714	0	0
715	0	0.835401
716	0	0.991968
717	0	0.991968
718	0	0.992
719	0	0.992
720	0	0.992
721	0	0.992
722	0	0
723	1	1
724	1	1
725	1	1
726	1	1
727	1	1
728	1	1
729	1	1
730	1	1
731	1	1
732	1	1
733	1	1
734	1	1
735	0	0.992
736	1	1
737	0	1
738	1	1
739	1	1
740	1	1
741	1	1
742	1	1
743	1	1
744	1	1
745	1	1
746	1	1
747	1	1
748	1	1
749	1	1
750	1	1
751	1	1
752	1	1
753	1	1
754	0	1
755	0	0.612903
756	0	0.753135
757	0	0
758	0	0
759	0	0.692658
760	0	0.6
761	0	0.896753
762	0	0.392857
763	0	0.333333
764	0	0.21978
765	0	0.21978
766	0	0.15
767	0	0.125
768	0	0.578054
769	0	0.320482
770	0	0.275845
771	0	0.271123
772	0	0.252318
773	0	0.245854
774	0	0.211571
775	0	0.23426
776	0	0.228851
777	0	0.227037
778	0	0.222972
779	0	0
780	0	0
781	0	0
782	0	0
783	0	0.583333
784	0	0.583333
785	0	0.123959
786	0	0.115634
787	0	0.166484
788	0	0.122582
789	0	0.117572
790	0	0.114732
791	0	0.165193
792	0	0.188013
793	0	0.13729
794	0	0.087037
795	0	0.0789211
796	0	0
797	0	0
798	0	0
799	0	0
800	0	0
801	0	0
802	0	0
803	0	0
804	0	0
805	0	0.07866
806	0	0
807	0	0.0923695
808	0	0.0926586
809	0	0.0666667
810	0	0.0666667
811	0	0.110554
812	0	0.333333
813	0	0.333333
814	0	0.333333
815	0	0
816	0	0.0788177
817	0	0.0850575
818	0	0.168013
819	0	0.166354
820	0	0
821	0	0
822	0	0
823	0	0
824	0	0
825	0	0.155556
826	0	0.1
827	0	0.172305
828	0	0.208578
829	0	0.214715
830	0	0
831	0	0
832	0	0
833	0	0
834	0	0.302288
835	0	0.1
836	0	0
837	0	0
838	0	0.333333
839	0	0.309839
840	0	0.317007
841	0	0.325427
842	0	0.371082
843	0	0.476543
844	0	0.576865
845	0	0.962264
846	0	1
847	0	0.83179
848	0	0.825483
849	0	0.826139
850	0	0.827438
851	0	0.827438
852	0	1
853	0	1
854	0	0.959652
855	0	0.975513
856	0	1
857	1	1
858	1	1
859	1	1
860	0	0.968386
861	0	0.968386
862	0	0.983936
863	0	1
864	0	1
865	0	1
866	1	1
867	1	1
868	1	1
869	1	1
870	1	1
871	1	1
872	1	1
873	1	1
874	1	1
875	1	1
876	1	1
877	1	1
878	1	1
879	1	1
880	1	1
881	0	0.992
882	0	0.991736
883	0	1
884	0	0.428571
885	0	0.853435
886	0	0.65323
887	0	0.56704
888	0	0.773333
889	0	0.395578
890	0	0.262665
891	0	0.316167
892	0	0.341333
893	0	0.458664
894	0	0.308147
895	0	0.300593
896	0	0.121212
897	0	0.150416
898	0	0.196725
899	0	0.180538
900	0	0.5
901	0	0.193463
902	0	0.259694
903	0	0.274798
904	0	0.317528
905	0	0.37731
906	0	0.444732
907	0	0.501395
908	0	0.526479
909	0	0.625883
910	0	0.636228
911	0	0.958553
912	0	0.958119
913	0	0.978947
914	0	0.869734
915	0	0.849932
916	0	0.941953
917	0	0.924384
918	0	0.943055
919	0	0.94359
920	0	0.904844
921	0	0.333333
922	0	0.333333
923	0	1
924	0	1
925	1	1
926	1	1
927	1	1
928	1	1
929	1	1
930	1	1
931	1	1
932	1	1
933	1	1
934	0	0.992
935	1	1
936	1	1
937	1	1
938	1	1
939	1	1
940	1	1
941	1	1
942	1	1
943	1	1
944	0	1
945	1	1
946	1	1
947	0	0.984064
948	1	1
949	1	1
950	1	1
951	1	1
952	1	1
953	1	1
954	1	1
955	1	1
956	1	1
957	0	0.992
958	0	0.992
959	0	0.992
960	0	1
961	1	1
962	1	1
963	1	1
964	1	1
965	1	1
966	1	1
967	1	0
968	1	1
969	1	1
970	1	1
971	1	1
972	1	1
973	1	1
974	1	1
975	1	1
976	1	1
977	1	1
978	1	1
979	0	0
980	0	0.988571
981	0	0.977338
982	0	0
983	0	0
984	1	0
985	1	0
986	1	0
987	1	0
988	1	0
989	1	0
990	0	0.714286
991	0	0.666667
992	1	1
993	1	1
994	0	1
995	0	1
996	0	0.911302
997	0	1
998	0	0.507919
999	0	1
1000	0	1
1001	0	0.952779
1002	1	1
1003	1	1
1004	1	1
1005	1	1
1006	1	1
1007	1	1
1008	1	1
1009	1	1
1010	1	1
1011	1	1
1012	0	1
1013	0	1
1014	0	1
1015	0	1
1016	0	1
1017	0	1
1018	0	1
1019	0	1
1020	0	0.992
1021	0	0.992
1022	0	1
1023	0	0.818182
1024	0	0.818182
1025	0	0.373333
1026	0	0.79423
1027	0	0.75577
1028	0	0.748603
1029	0	0.392857
1030	0	0.392857
1031	0	0.392857
1032	0	0.305556
1033	0	0.244444
1034	0	0.166667
1035	0	0.691744
1036	0	0.513423
1037	0	0.482816
1038	0	0.398139
1039	0	0.394507
1040	0	0.372749
1041	0	0.352307
1042	0	0.284901
1043	0	0.166667
1044	0	0.166667
1045	0	0.166667
1046	0	0.166667
1047	0	0.166667
1048	0	0.166667
1049	0	0.166667
1050	0	0.1
1051	0	0.1
1052	0	0.133333
1053	0	0.133333
1054	0	0.0952381
1055	0	0.0952381
1056	0	0.279412
1057	0	0.22807
1058	0	0.0545455
1059	0	0.0454545
1060	0	0.043956
1061	0	0.0380952
1062	0	0.0294118
1063	0	0.101538
1064	0	0.0984615
1065	0	0.0731183
1066	0	0.330989
1067	0	0.330989
1068	0	0.25
1069	0	0.226316
1070	0	0.187129
1071	0	0.13071
1072	0	0.119453
1073	0	0.110624
1074	0	0.147237
1075	0	0.163814
1076	0	0.15291
1077	0	0.165711
1078	0	0.16309
1079	0	0.157947
1080	0	0.142857
1081	0	0.142857
1082	0	0.142857
1083	0	0.107143
1084	0	0.107143
1085	0	0.107143
1086	0	0.107143
1087	0	0.107143
1088	0	0.246411
1089	0	0.462456
1090	0	0.540896
1091	0	0.295238
1092	0	0.286765
1093	0	0.352941
1094	0	0.4
1095	0	0.4
1096	0	0.4
1097	0	0.4
1098	0	0.494505
1099	0	0.494505
1100	0	0.494505
1101	0	0.142857
1102	0	0.163636
1103	0	0.121212
1104	0	0.10989
1105	0	0.294872
1106	0	0.294872
1107	0	0.305556
1108	0	0.305556
1109	0	0.485872
1110	0	0.873118
1111	0	0.873118
1112	0	0.612177
1113	0	0.617414
1114	0	0.553896
1115	0	0.530763
1116	0	0
1117	0	0
1118	0	0
1119	0	0
1120	0	0
1121	0	0
1122	0	0
1123	0	0
1124	0	0.163043
1125	0	0.106667
1126	0	0.425558
1127	0	0.131868
1128	0	0.0735294
1129	0	0.377718
1130	0	0.334412
1131	0	0.047619
1132	0	0.0666667
1133	0	0.268587
1134	0	0
1135	0	0
1136	0	0
1137	0	0
1138	0	0
1139	0	0
1140	0	0
1141	0	0
1142	0	0
1143	0	0
1144	0	0
1145	0	0.205978
1146	0	0.201083
1147	0	0.20239
1148	0	0.192157
1149	0	0.217154
1150	0	0.217087
1151	0	0.0380952
1152	0	0.0606061
1153	0	0.0277778
1154	0	0.0444444
1155	0	0.0454545
1156	0	0.109091
1157	0	0.0888889
1158	0	0.111111
1159	0	0.285622
1160	0	0.475862
1161	0	0.393939
1162	0	0.8
1163	0	0.8
1164	0	0.717949
1165	0	0.450226
1166	0	0.8425
1167	0	0.983839
1168	0	0.983968
1169	0	0.983968
1170	0	0.983968
1171	0	0.983968
1172	0	0.992
1173	0	0.992
1174	0	0.992
1175	0	0.992
1176	0	0.984032
1177	0	0.968098
1178	0	0.929395
1179	0	0.909091
1180	0	0.765502
1181	0	0.727142
1182	0	0.34592
1183	0	0.343378
1184	0	0.334763
1185	0	0.47619
1186	0	0.740387
1187	0	0.893356
1188	0	0.888185
1189	0	0.906099
1190	0	0.906099
1191	0	0.906099
1192	0	0.876279
1193	0	0.876085
1194	0	0.868636
1195	0	0.842529
1196	0	0.733618
1197	0	0.743447
1198	0	0.691494
1199	0	0
1200	0	0.395168
1201	0	0.469945
1202	0	0.312643
1203	0	0.356667
1204	0	0.355556
1205	0	0.416667
1206	0	0.416667
1207	0	0.478632
1208	0	0.383714
1209	0	0.591158
1210	0	0.593989
1211	0	0.611309
1212	0	0.611277
1213	0	0.641048
1214	0	0
1215	0	0
1216	0	0
1217	0	0
1218	0	0.416667
1219	0	0.590636
1220	0	0.585698
1221	0	0.574017
1222	0	0
1223	0	0
1224	0	0
1225	0	0
1226	0	0
1227	0	0.25
1228	0	0.334586
1229	0	0.364551
1230	0	0
1231	0	0
1232	0	0
1233	0	0
1234	0	0.0357143
1235	0	0.266667
1236	0	0.262401
1237	0	0.212016
1238	0	0.188336
1239	0	0.178446
1240	0	0
1241	0	0
1242	0	0
1243	0	0
1244	0	0
1245	0	0
1246	0	0
1247	0	0
1248	0	0
1249	0	0
1250	0	0
1251	0	0
1252	0	0.404412
1253	0	0.321637
1254	0	0.264706
1255	0	0.206531
1256	0	0.15361
1257	0	0.18006
1258	0	0.105376
1259	0	0.107692
1260	0	0.0754936
1261	0	0.117263
1262	0	0.113018
1263	0	0.2
1264	0	0.166667
1265	0	0.166667
1266	0	0.166667
1267	0	0.166667
1268	0	0.166667
1269	0	0.166667
1270	0	0.0763394
1271	0	0.0895295
1272	0	0.0732002
1273	0	0.0620301
1274	0	0.0675325
1275	0	0.101494
1276	0	0.100209
1277	0	0.101108
1278	0	0.0781609
1279	0	0.103614
1280	0	0.110297
1281	0	0.124691
1282	0	0.190476
1283	0	0.142857
1284	0	0.1
1285	0	0.111111
1286	0	0.155556
1287	0	0.5
1288	0	0.46813
1289	0	0.467868
1290	0	0.361905
1291	0	0.4
1292	0	0.347826
1293	0	0.217203
1294	0	0.233374
1295	0	0.290016
1296	0	0.236364
1297	0	0.236364
1298	0	0.327273
1299	0	0.366255
1300	0	0.372557
1301	0	0.416426
1302	0	0.436646
1303	0	0.535714
1304	0	0.470054
1305	0	0.458802
1306	0	0.464962
1307	0	0.469932
1308	0	0.464896
1309	0	0.435084
1310	0	0.302233
1311	0	1
1312	0	0.4
1313	0	0.4
1314	0	0.285714
1315	0	0.106061
1316	0	0.0879121
1317	0	0.105263
1318	0	0.201266
1319	0	0.159104
1320	0	0.14158
1321	0	0.123604
1322	0	0.10011
1323	0	0.0560647
1324	0	0.0747576
1325	0	0.0740026
1326	0	0.0622188
1327	0	0.0811104
1328	0	0.0963931
1329	0	0.0879322
1330	0	0.103833
1331	0	0.10169
1332	0	0.120733
1333	0	0.13778
1334	0	0.140649
1335	0	0.333333
1336	0	0.333333
1337	0	0.333333
1338	0	0.333333
1339	0	0.333333
1340	0	1
1341	0	1
1342	0	1
1343	0	0.333333
1344	0	0.333333
1345	0	0.333333
1346	0	0.333333
1347	0	0.178793
1348	0	0.142857
1349	0	0.107143
1350	0	0.107143
1351	0	0.107143
1352	0	0.199074
1353	0	0.114625
1354	0	0.0869565
1355	0	0.0833333
1356	0	0.101466
1357	0	0.094803
1358	0	0.104131
1359	0	0.105051
1360	0	0.10101
1361	0	0.113951
1362	0	0.122531
1363	0	0.116975
1364	0	0.134997
1365	0	0.0736411
1366	0	0.116893
1367	0	0.0972424
1368	0	0.0807823
1369	0	0.0898551
1370	0	0.0746032
1371	0	0.102857
1372	0	0.0761905
1373	0	0.140319
1374	0	0.153395
1375	0	0.177297
1376	0	0.195976
1377	0	0.21185
1378	0	0.231235
1379	0	0.122115
1380	0	0.0727273
1381	0	0.0727273
1382	0	0.0727273
1383	0	0.14805
1384	0	0.175476
1385	0	0.168091
1386	0	0.143791
1387	0	0.175824
1388	0	0.2
1389	0	0.242424
1390	0	0.142857
1391	0	0.127273
1392	0	0.127273
1393	0	0.127273
1394	0	0.127273
1395	0	0.0909091
1396	0	0.2
1397	0	0.431078
1398	0	0.0714286
1399	0	0.639731
1400	0	0.663871
1401	0	0.687954
1402	0	0.598694
1403	0	0.286531
1404	0	0.206096
1405	0	0.183599
1406	0	0.116893
1407	0	0.12
1408	0	0.149502
1409	0	0.191597
1410	0	0.217391
1411	0	0.371795
1412	0	0.371795
1413	0	0.557895
1414	0	0.507246
1415	0	0.483077
1416	0	0.266667
1417	0	0.266667
1418	0	0.266667
1419	0	0.5
1420	0	0.5
1421	0	0.5
1422	0	0.5
1423	0	1
1424	0	1
1425	0	1
1426	0	1
1427	0	1
1428	0	1
1429	0	0.666667
1430	0	0.666667
1431	0	0.666667
1432	0	0.774489
1433	0	0
1434	0	0.838341
1435	0	0.838958
1436	0	0.838958
1437	0	0.838958
1438	0	1
1439	0	1
1440	0	1
1441	0	1
1442	0	1
1443	0	0.966354
1444	0	0.974614
1445	0	1
1446	0	1
1447	1	1
1448	1	1
1449	1	1
1450	1	1
1451	1	1
1452	1	1
1453	1	1
1454	1	1
1455	1	1
1456	1	1
1457	1	1
1458	0	1
1459	0	1
1460	0	1
1461	0	1
1462	0	0
1463	0	0
1464	0	0
1465	0	1
1466	0	1
1467	0	1
1468	0	1
1469	0	1
1470	0	1
1471	0	1
1472	0	1
1473	0	1
1474	0	1
1475	0	1
1476	0	1
1477	0	1
1478	0	1
1479	0	0
1480	0	0
1481	0	0
1482	0	0
1483	0	0
1484	0	0
1485	0	0
1486	0	0
1487	0	0
1488	0	0
1489	0	0
1490	0	0
1491	0	0
1492	0	0.47619
1493	0	0.288889
1494	0	0.134387
1495	0	0.123188
1496	0	0.125
1497	0	0.114286
1498	0	0.101215
1499	0	0.0931174
1500	0	0.0890244
1501	0	0.0792271
1502	0	0.104707
1503	0	0.319128
1504	0	0.263806
1505	0	0.219811
1506	0	0.197229
1507	0	0.143708
1508	0	0.222222
1509	0	0.333333
1510	0	0.333333
1511	0	0.0923164
1512	0	0.0737384
1513	0	0.0482456
1514	0	0.0482616
1515	0	0.0603486
1516	0	0.0672203
1517	0	0.076187
1518	0	0.0907563
1519	0	0.09328
1520	0	0.079193
1521	0	0.115895
1522	0	0.159596
1523	0	0.191489
1524	0	0.2741
1525	0	0.31444
1526	0	0.404635
1527	0	0.455645
1528	0	0.486022
1529	0	0.445633
1530	0	0.410637
1531	0	1
1532	0	0.97584
1533	0	0.975937
1534	0	1
1535	0	1
1536	0	0.984032
1537	0	0.984032
1538	0	0.984032
1539	0	0.984032
1540	0	0.984032
1541	0	0.984032
1542	0	0.984032
1543	0	0.991968
1544	0	0.991968
1545	0	0.99187
1546	0	0.983839
1547	0	1
1548	0	0.983123
1549	1	0
1550	1	0
1551	0	0.926233
1552	0	0.912379
1553	0	0.912379
1554	0	0.919888
1555	0	0.666667
1556	0	0.666667
1557	0	0.974896
1558	0	0.983158
1559	0	0
1560	0	0
1561	0	0
1562	0	0
1563	0	0
1564	0	0
1565	0	0
1566	0	0
1567	0	0
1568	0	0
1569	0	0
1570	0	0
1571	0	0
1572	0	0
1573	1	0
1574	1	0
1575	1	0
1576	1	0
1577	1	0
1578	1	0
1579	1	0
1580	1	0
1581	1	0
1582	1	0
1583	1	0
1584	1	0
1585	1	0
1586	1	0
1587	1	0
1588	1	0
1589	0	0.6
1590	0	0.6
1591	0	0.6
1592	0	0.6
1593	0	0.6
1594	0	0.6
1595	0	0.6
1596	0	0.6
1597	0	0.6
1598	0	0.934014
1599	0	0.933741
1600	0	0
1601	0	0
1602	0	0
1603	0	0
1604	0	0
1605	0	0
1606	0	0
1607	0	0
1608	0	0
1609	0	0
1610	0	0
1611	0	0
1612	0	0
1613	0	0
1614	0	0
1615	0	0
1616	0	0
1617	0	0
1618	0	0
1619	0	0
1620	0	0
1621	0	0
1622	0	0
1623	0	0
1624	1	1
1625	1	1
1626	1	1
1627	1	1
1628	1	1
1629	1	1
1630	1	1
1631	1	1
1632	1	1
1633	1	1
1634	1	1
1635	1	1
1636	1	1
1637	1	1
1638	1	1
1639	1	1
1640	1	1
1641	1	1
1642	1	1
1643	1	1
1644	1	1
1645	1	1
1646	1	1
1647	1	1
1648	1	1
1649	1	1
1650	1	1
1651	1	1
1652	1	1
1653	1	1
1654	1	1
1655	1	1
1656	1	1
1657	1	1
1658	1	1
1659	1	1
1660	1	1
1661	1	1
1662	1	1
1663	1	1
1664	1	1
1665	1	1
1666	1	1
1667	1	1
1668	1	1
1669	1	1
1670	1	1
1671	1	1
1672	1	1
1673	1	1
1674	1	1
1675	1	1
1676	1	1
1677	1	1
1678	1	1
1679	1	1
1680	1	1
1681	1	1
1682	1	1
1683	1	1
1684	1	1
1685	1	1
1686	1	1
1687	1	1
1688	1	1
1689	1	1
1690	1	1
1691	1	1
1692	1	1
1693	1	1
1694	1	1
1695	1	1
1696	1	1
1697	1	1
1698	1	1
1699	1	1
1700	1	1
1701	1	1
1702	1	1
1703	1	1
1704	1	1
1705	1	1
1706	1	1
1707	1	1
1708	1	1
1709	1	1
1710	1	1
1711	1	1
1712	1	1
1713	1	1
1714	1	1
1715	1	1
1716	1	1
1717	1	1
1718	1	1
1719	0	0.909052
1720	0	0.916124
1721	0	0.577213
1722	0	0.956318
1723	0	0.965817
1724	0	0.964918
1725	0	0.900135
1726	0	0.885918
1727	0	0.862434
1728	0	0.810526
1729	0	0.644444
1730	0	0.333333
1731	1	1
1732	1	1
1733	1	1
1734	1	1
1735	1	1
1736	1	1
1737	0	0
1738	0	0
1739	0	0
1740	0	0
1741	0	0
1742	0	0
1743	0	0
1744	0	0
1745	0	0
1746	0	0
1747	0	0
1748	0	0
1749	0	0
1750	0	0
1751	0	0
1752	0	0
1753	0	0
1754	0	0
1755	0	0
1756	0	0
1757	0	0
1758	0	0
1759	0	0
1760	0	0
1761	0	0
1762	0	0
1763	0	0
1764	0	0
1765	0	0
1766	0	0
1767	0	0
1768	0	0
1769	0	0
1770	0	0
1771	0	0
1772	0	0
1773	0	0
1774	0	0
1775	0	0
1776	0	0
1777	0	0
1778	0	0
1779	0	0
1780	0	0
1781	0	0
1782	0	0
1783	0	0
1784	0	0
1785	0	0
1786	0	0
1787	0	0
1788	0	0
1789	0	0
1790	0	0
1791	0	0
1792	0	0
1793	0	0
1794	0	0
1795	0	0
1796	0	0
1797	0	0
1798	0	0
1799	0	0
1800	0	0
1801	0	0
1802	0	0
1803	0	0
1804	0	0
1805	0	0
1806	0	0
1807	0	0
1808	0	0
1809	0	0
1810	0	0
1811	0	0
1812	0	0
1813	0	0
1814	0	0
1815	0	0
1816	0	0
1817	0	0
1818	0	0
1819	0	0
1820	0	0
1821	0	0
1822	0	0
1823	0	0
1824	0	0
1825	0	0
1826	0	0
1827	0	0
1828	0	0
1829	0	0
1830	0	0
1831	0	0
1832	0	0
1833	0	0
1834	0	0
1835	0	0
1836	0	0
1837	0	0
1838	0	0
1839	0	0
1840	0	0
1841	0	0
1842	0	0
1843	0	0
1844	0	0
1845	0	0
1846	0	0
1847	0	0
1848	0	0
1849	0	0
1850	0	0
1851	0	0
1852	0	0
1853	0	0
1854	0	0
1855	0	0
1856	0	0
1857	0	0
1858	0	0
1859	0	0
1860	0	0
1861	0	0
1862	0	0
1863	0	0
1864	0	0
1865	0	0
1866	0	0
1867	0	0
1868	0	0
1869	0	0
1870	0	0
1871	0	0
1872	0	0
1873	0	0
1874	0	0
1875	0	0
1876	0	0
1877	0	0
1878	0	0
1879	0	0
1880	0	0
1881	0	0
1882	0	0
1883	0	0
1884	0	0
1885	0	0
1886	0	0
1887	0	0
1888	0	0
1889	0	0
1890	0	0
1891	0	0
1892	0	0
1893	0	0
1894	0	0
1895	0	0
1896	0	0
1897	0	0
1898	0	0
1899	0	0
1900	0	0
1901	0	0
1902	0	0
1903	0	0
1904	0	0
1905	0	0
1906	0	0
1907	0	0
1908	0	0
1909	0	0
1910	0	0
1911	0	0
1912	0	0
1913	0	0
1914	0	0
1915	0	0
1916	0	0
1917	0	0
1918	0	0
1919	0	0
1920	0	0
1921	0	0
1922	0	0
1923	0	0
1924	0	0
1925	0	0
1926	0	0
1927	0	0
1928	0	0
1929	0	0
1930	0	0
1931	0	0
1932	0	0
1933	0	0
1934	0	0
1935	0	0
1936	0	0
1937	0	0
1938	0	0
1939	0	0
1940	0	0
1941	0	0
1942	0	0
1943	0	0
1944	0	0
1945	0	0
1946	0	0
1947	0	0
1948	0	0
1949	0	0
1950	0	0
1951	0	0
1952	0	0
1953	0	0
1954	0	0
1955	0	0
1956	0	0
1957	0	0
1958	0	0
1959	0	0
1960	0	0
1961	0	0
1962	0	0
1963	0	0
1964	0	0
1965	0	0
1966	0	0
1967	0	0
1968	0	0
1969	0	0
1970	0	0
1971	0	0
1972	0	0
1973	0	0
1974	0	0
1975	0	0
1976	0	0
1977	0	0
1978	0	0
1979	0	0
1980	0	0
1981	0	0
1982	0	0
1983	0	0
1984	0	0
1985	0	0
1986	0	0
1987	0	0
1988	0	0
1989	0	0
1990	0	0
1991	0	0
1992	0	0
1993	0	0
1994	0	0
1995	0	0
1996	0	0
1997	0	0
1998	0	0
1999	0	0
2000	0	0
2001	0	0
2002	0	0
2003	0	0
2004	0	0
2005	0	0
2006	0	0
2007	0	0
2008	0	0
2009	0	0
2010	0	0
2011	0	0
2012	0	0
2013	0	0
2014	0	0
2015	0	0
2016	0	0
2017	0	0
2018	0	0
2019	0	0
2020	0	0
2021	0	0
2022	0	0
2023	0	0
2024	0	0
2025	0	0
2026	0	0
2027	0	0
2028	0	0
2029	0	0
2030	0	0
2031	0	0
2032	0	0
2033	0	0
2034	0	0
2035	0	0
2036	0	0
2037	0	0
2038	0	0
2039	0	0
2040	0	0
2041	0	0
2042	0	0
2043	0	0
2044	0	0
2045	0	0
2046	0	0
2047	0	0
2048	0	0
2049	0	0
2050	0	0
2051	0	0
2052	0	0
2053	0	0
2054	0	0
2055	0	0
2056	0	0
2057	0	0
2058	0	0
2059	0	0
2060	0	0
2061	0	0
2062	0	0
2063	0	0
2064	0	0
2065	0	0
2066	0	0
2067	0	0
2068	0	0
2069	0	0
2070	0	0
2071	0	0
2072	0	0
2073	0	0
2074	0	0
2075	0	0
2076	0	0
2077	0	0
2078	0	0
2079	0	0
2080	0	0
2081	0	0
2082	0	0
2083	0	0
2084	0	0
2085	0	0
2086	0	0
2087	0	0
2088	0	0
2089	0	0
2090	0	0
2091	0	0
2092	0	0
2093	0	0
2094	0	0
2095	0	0
2096	0	0
2097	0	0
2098	0	0
2099	0	0
2100	0	0
2101	0	0
2102	0	0
2103	0	0
2104	0	0
2105	0	0
2106	0	0
2107	0	0
2108	0	0
2109	0	0
2110	0	0
2111	0	0
2112	0	0
2113	0	0
2114	0	0
2115	0	0
2116	0	0
2117	0	0
2118	0	0
2119	0	0
2120	0	0
2121	0	0
2122	0	0
2123	0	0
2124	0	0
2125	0	0
2126	0	0
2127	0	0
2128	0	0
2129	0	0
2130	0	0
2131	0	0
2132	0	0
2133	0	0
2134	0	0
2135	0	0
2136	0	0
2137	0	0
2138	0	0
2139	0	0
2140	0	0
2141	0	0
2142	0	0
2143	0	0
2144	0	0
2145	0	0
2146	0	0
2147	0	0
2148	0	0
2149	0	0
2150	0	0
2151	0	0
2152	0	0
2153	0	0
2154	0	0
2155	0	0
2156	0	0
2157	0	0
2158	0	0
2159	0	0
2160	0	0
2161	0	0
2162	0	0
2163	0	0
2164	0	0
2165	0	0
2166	0	0
2167	0	0
2168	0	0
2169	0	0
2170	0	0
2171	0	0
2172	0	0
2173	0	0
2174	0	0
2175	0	0
2176	0	0
2177	0	0
2178	0	0
2179	0	0
2180	0	0
2181	0	0
2182	0	0
2183	0	0
2184	0	0
2185	0	0
2186	0	0
2187	0	0
2188	0	0
2189	0	0
2190	0	0
2191	0	0
2192	0	0
2193	0	0
2194	0	0
2195	0	0
2196	0	0
2197	0	0
2198	0	0
2199	0	0
2200	0	0
2201	0	0
2202	0	0
2203	0	0
2204	0	0
2205	0	0
2206	0	0
2207	0	0
2208	0	0
2209	0	0
2210	0	0
2211	0	0
2212	0	0
2213	0	0
2214	0	0
2215	0	0
2216	0	0
2217	0	0
2218	0	0
2219	0	0
2220	0	0
2221	0	0
2222	0	0
2223	0	0
2224	0	0
2225	0	0
2226	0	0
2227	0	0
2228	0	0
2229	0	0
2230	0	0
2231	0	0
2232	0	0
2233	0	0
2234	0	0
2235	0	0
2236	0	0
2237	0	0
2238	0	0
2239	0	0
2240	0	0
2241	0	0
2242	0	0
2243	0	0
2244	0	0
2245	0	0
2246	0	0
2247	0	0
2248	0	0
2249	0	0
2250	0	0
2251	0	0
2252	0	0
2253	0	0
2254	0	0
2255	0	0
2256	0	0
2257	0	0
2258	0	0
2259	0	0
2260	0	0
2261	0	0
2262	0	0
2263	0	0
2264	0	0
2265	0	0
2266	0	0
2267	0	0
2268	0	0
2269	0	0
2270	0	0
2271	0	0
2272	0	0
2273	0	0
2274	0	0
2275	0	0
2276	0	0
2277	0	0
2278	0	0
2279	0	0
2280	0	0
2281	0	0
2282	0	0
2283	0	0
2284	0	0
2285	0	0
2286	0	0
2287	0	0
2288	0	0
2289	0	0
2290	0	0
2291	0	0
2292	0	0
2293	0	0
2294	0	0
2295	0	0
2296	0	0
2297	0	0
2298	0	0
2299	0	0
2300	0	0
2301	0	0
2302	0	0
2303	0	0
2304	0	0
2305	0	0
2306	0	0
2307	0	0
2308	0	0
2309	0	0
2310	0	0
2311	0	0
2312	0	0
2313	0	0
2314	0	0
2315	0	0
2316	0	0
2317	0	0
2318	0	0
2319	0	0
