Site	ColumnScore	SumOfPairsScore
1	0	0
2	0	0
3	0	0
4	0	0
5	0	0
6	0	0
7	0	0
8	0	0
9	0	0
10	0	0
11	0	0
12	0	0
13	0	0
14	0	0
15	0	0
16	0	0
17	0	0
18	0	0
19	0	0
20	0	0
21	0	0
22	0	0
23	0	0
24	0	0
25	0	0
26	0	0
27	0	0
28	0	0
29	0	0
30	0	0
31	0	0
32	0	0
33	0	0
34	0	0
35	0	0
36	0	0
37	0	0
38	0	0
39	0	0
40	0	0
41	0	0
42	0	0
43	0	0
44	0	0
45	0	0
46	0	0
47	1	1
48	1	1
49	1	1
50	1	1
51	1	1
52	1	1
53	1	1
54	0	1
55	0	1
56	0	1
57	0	1
58	0	1
59	0	0.5
60	0	0.3
61	0	0.535714
62	0	0.535714
63	0	0.805263
64	0	0.478858
65	0	0.431857
66	0	0.429084
67	0	0.509043
68	0	0.601732
69	0	0.842957
70	0	0
71	0	0
72	0	0
73	0	0
74	0	0.866636
75	0	0.681818
76	0	0.967449
77	0	0.967581
78	0	0.967842
79	0	0.967842
80	0	0.333333
81	0	0.333333
82	0	0.983839
83	1	0
84	1	0
85	1	0
86	1	0
87	1	0
88	1	0
89	1	0
90	1	0
91	1	0
92	1	0
93	1	0
94	1	0
95	1	0
96	1	0
97	1	0
98	1	0
99	1	0
100	1	0
101	1	0
102	1	0
103	1	0
104	1	0
105	1	0
106	1	0
107	1	0
108	1	0
109	1	0
110	1	0
111	1	0
112	1	0
113	1	0
114	1	0
115	1	0
116	1	0
117	1	0
118	1	0
119	1	0
120	1	0
121	1	0
122	1	0
123	1	0
124	1	0
125	1	0
126	1	0
127	1	0
128	1	0
129	1	0
130	1	0
131	1	0
132	1	0
133	1	0
134	1	0
135	0	0.99187
136	0	0.99187
137	0	0.99187
138	0	0.99187
139	0	0.99187
140	0	0.99187
141	0	0.983839
142	1	0
143	1	0
144	1	0
145	1	0
146	1	0
147	1	0
148	1	0
149	1	0
150	1	0
151	1	0
152	1	0
153	1	0
154	1	0
155	1	0
156	1	0
157	1	0
158	1	0
159	1	0
160	1	0
161	0	0.99187
162	0	0.99187
163	0	0.99187
164	0	0.99187
165	0	0.99187
166	0	0.99187
167	1	1
168	0	0.983839
169	0	0.983839
170	0	0.983839
171	0	0.983839
172	0	0.975904
173	0	0.975807
174	0	0.975709
175	0	0
176	1	0
177	1	0
178	1	0
179	0	0
180	0	0.333333
181	0	0
182	0	0.333333
183	0	0
184	0	0.596923
185	0	0
186	0	0.56
187	0	0.333333
188	1	0
189	0	0.9
190	0	0.514113
191	0	0.572934
192	0	0
193	0	0
194	0	0.375
195	0	0.424516
196	0	0.301907
197	0	0.292398
198	0	0.25915
199	0	0.369287
200	1	0
201	1	0
202	1	0
203	1	0
204	1	0
205	1	0
206	0	0
207	0	0
208	0	0
209	0	0
210	0	0
211	0	0
212	0	0
213	0	0
214	0	0
215	0	0
216	0	0
217	0	0
218	0	0
219	0	0
220	0	0
221	0	0
222	0	0
223	0	0
224	0	0
225	0	0
226	0	0
227	0	0
228	0	0
229	0	0
230	0	0
231	0	0
232	0	0
233	0	0
234	0	0
235	0	0
236	0	0
237	0	0
238	0	0
239	0	0
240	0	0
241	0	0
242	0	0
243	0	0
244	0	0
245	0	0.963473
246	0	0.952049
247	0	0.99187
248	0	0.99187
249	0	0.99187
250	0	0.99187
251	0	0.99187
252	0	0.99187
253	0	0.99187
254	0	0.99187
255	0	0.99187
256	0	0.99187
257	0	0
258	0	0
259	0	0
260	0	0
261	0	0
262	0	0
263	0	0
264	0	0
265	0	0
266	0	0
267	0	0
268	0	0
269	0	0
270	0	0
271	0	0
272	0	0
273	0	0
274	0	0
275	0	0
276	0	0
277	0	0
278	0	0
279	0	0.96797
280	0	0
281	0	0
282	0	0
283	0	0
284	0	0
285	0	0
286	0	0
287	0	0
288	0	0
289	0	0
290	0	0
291	0	0
292	0	0
293	0	0
294	0	0
295	0	0
296	0	0
297	0	0
298	0	0.333333
299	0	0.333333
300	0	1
301	1	1
302	1	1
303	1	1
304	0	0.991903
305	0	0.991903
306	0	0.991903
307	0	0.991935
308	0	0.991935
309	0	0.991935
310	1	1
311	1	1
312	0	1
313	0	1
314	0	1
315	0	1
316	0	1
317	0	1
318	0	0.968006
319	0	1
320	0	1
321	0	0.967035
322	0	0.945723
323	0	0.701095
324	0	0.605634
325	0	0.330261
326	0	0.216916
327	0	0.51836
328	0	0.874609
329	0	0.89904
330	0	0.827732
331	0	1
332	0	1
333	0	1
334	0	1
335	0	1
336	0	1
337	0	1
338	0	0.8
339	0	1
340	0	1
341	1	1
342	1	1
343	1	1
344	1	1
345	1	1
346	1	1
347	0	1
348	0	0.978262
349	0	0.599811
350	0	0.2817
351	0	0.557601
352	1	1
353	1	1
354	1	1
355	1	1
356	1	1
357	1	1
358	1	1
359	1	1
360	1	1
361	1	1
362	1	1
363	1	1
364	1	1
365	1	1
366	1	1
367	1	1
368	1	1
369	1	1
370	1	1
371	1	1
372	0	0
373	0	0
374	0	0
375	0	0.666667
376	0	0.666667
377	0	0.666667
378	0	0.931558
379	0	0.912587
380	0	0.900185
381	0	1
382	0	1
383	0	1
384	0	1
385	0	1
386	0	1
387	0	1
388	0	0.492788
389	0	0.492463
390	0	0.293038
391	0	0.278832
392	0	0.314557
393	0	0.313285
394	0	0.252308
395	0	0.241107
396	0	0.264069
397	0	0.271429
398	0	0.222014
399	0	0.151495
400	0	0.140329
401	0	0.142857
402	0	0.0888889
403	0	0.107143
404	0	0.206154
405	0	0.0952381
406	0	0.0952381
407	0	0.355556
408	0	0.355556
409	0	0.258333
410	0	0.297872
411	0	0.243265
412	0	0.19322
413	0	0.155676
414	0	0.133833
415	0	0.113832
416	0	0.122222
417	0	0.131628
418	0	0.135448
419	0	0.155585
420	0	0.164187
421	0	0.196271
422	0	0.210999
423	0	0.309244
424	0	0.488889
425	0	0
426	0	0
427	0	0
428	0	1
429	0	1
430	0	1
431	0	1
432	0	0.404975
433	0	0.460615
434	0	0.520276
435	0	0.436364
436	0	0.5
437	0	0.925926
438	0	0.762483
439	0	0.810612
440	0	0.845528
441	0	0.921151
442	0	0.921151
443	0	0.921151
444	0	0.944267
445	0	0.936431
446	0	0.936398
447	0	0.936431
448	0	0.944044
449	0	0.951944
450	0	0.951944
451	0	0.959876
452	0	0.928157
453	0	0.708892
454	0	0.628571
455	0	0.455342
456	0	0.404558
457	0	0.1
458	0	0.1
459	0	0.0666667
460	0	0.342452
461	0	0.490876
462	0	0.490948
463	0	0
464	0	0
465	0	0
466	0	0
467	0	0
468	0	0.966911
469	0	0.967182
470	0	0.166667
471	0	0.5
472	0	1
473	1	1
474	1	1
475	1	1
476	1	1
477	1	1
478	1	1
479	1	1
480	1	1
481	1	1
482	1	1
483	1	1
484	1	1
485	1	1
486	1	1
487	1	1
488	1	1
489	1	1
490	1	1
491	1	1
492	1	1
493	1	1
494	1	1
495	1	1
496	1	1
497	1	1
498	1	1
499	1	1
500	1	1
501	1	1
502	1	1
503	1	1
504	1	1
505	1	1
506	1	1
507	1	1
508	1	1
509	1	1
510	1	1
511	1	1
512	1	1
513	1	1
514	1	1
515	1	1
516	1	1
517	1	1
518	1	1
519	1	1
520	1	1
521	1	1
522	1	1
523	1	1
524	1	1
525	1	1
526	1	1
527	1	1
528	1	1
529	1	1
530	1	1
531	1	1
532	1	1
533	1	1
534	1	1
535	1	1
536	1	1
537	1	1
538	1	1
539	1	1
540	1	1
541	1	1
542	1	1
543	1	1
544	1	1
545	1	1
546	1	1
547	1	1
548	1	1
549	0	1
550	0	1
551	0	1
552	0	1
553	0	0.926923
554	0	0.926325
555	0	0.840832
556	0	0.840832
557	0	0.756595
558	0	1
559	0	0.805847
560	0	0.500241
561	0	0
562	0	1
563	0	1
564	0	0.833992
565	0	0.833992
566	1	1
567	1	1
568	0	1
569	0	0.983674
570	1	1
571	1	1
572	1	1
573	1	0
574	1	0
575	1	0
576	1	0
577	1	0
578	1	1
579	1	1
580	1	1
581	1	1
582	1	1
583	1	1
584	1	1
585	1	1
586	1	1
587	1	1
588	1	1
589	1	1
590	1	1
591	1	1
592	1	1
593	1	1
594	1	1
595	1	1
596	1	1
597	1	1
598	1	1
599	1	1
600	1	1
601	1	1
602	1	1
603	1	1
604	0	0.886747
605	0	1
606	0	0.886747
607	0	1
608	1	1
609	1	1
610	1	1
611	1	1
612	1	1
613	1	1
614	1	1
615	1	1
616	1	1
617	1	1
618	1	1
619	1	1
620	1	1
621	1	1
622	1	1
623	1	1
624	1	1
625	1	1
626	1	1
627	1	1
628	1	1
629	1	1
630	1	1
631	1	1
632	0	0.852209
633	0	0.904762
634	0	0.992
635	0	0.960514
636	0	0.914302
637	0	0.839344
638	1	1
639	1	1
640	0	1
641	0	1
642	0	0.893847
643	0	0.886297
644	0	0.893445
645	0	0.893847
646	0	0.893847
647	0	1
648	0	1
649	0	0.893847
650	0	0.893847
651	0	0.893847
652	0	0.893445
653	0	0.893445
654	0	1
655	0	0.813237
656	0	0.813237
657	0	0.806554
658	0	0.731277
659	0	0.731855
660	0	1
661	0	1
662	0	0.495678
663	0	0.492349
664	0	0.500116
665	0	0.541091
666	0	0.286739
667	0	0.319394
668	0	0.6
669	0	0.643825
670	0	0.980247
671	1	0
672	1	0
673	1	0
674	1	0
675	0	0
676	0	0
677	0	0
678	0	0
679	0	0
680	0	0
681	0	0
682	0	1
683	1	1
684	1	1
685	1	1
686	1	1
687	1	1
688	1	1
689	1	1
690	1	1
691	1	1
692	1	1
693	1	1
694	1	1
695	0	0.992
696	0	1
697	0	1
698	0	0
699	1	0
700	0	0.48345
701	0	0.92212
702	0	0.975513
703	0	1
704	1	1
705	1	1
706	1	1
707	1	1
708	1	1
709	1	1
710	1	1
711	1	1
712	1	1
713	1	1
714	1	1
715	0	0.669985
716	0	1
717	0	0.939625
718	0	0.92946
719	0	0.968134
720	0	0.968386
721	1	1
722	1	1
723	1	1
724	1	1
725	1	1
726	1	1
727	1	1
728	1	1
729	1	1
730	1	1
731	1	1
732	1	1
733	1	1
734	1	1
735	1	1
736	1	1
737	1	1
738	1	1
739	1	1
740	0	1
741	0	0.984064
742	0	0.8
743	0	0.333333
744	0	0.477075
745	0	0.493978
746	0	0.52381
747	0	0.452506
748	0	0.903819
749	0	0
750	0	0.333333
751	0	0.666667
752	0	0.889997
753	0	0.875891
754	0	0.868409
755	0	0.868377
756	0	1
757	0	1
758	0	0.730044
759	0	0.58795
760	0	0.551463
761	0	0
762	0	0.96103
763	0	0.96103
764	0	1
765	0	1
766	0	0.992
767	0	0.992
768	0	1
769	1	1
770	1	1
771	1	1
772	1	1
773	1	1
774	1	1
775	1	1
776	1	1
777	1	1
778	1	1
779	1	1
780	1	1
781	1	1
782	1	1
783	1	1
784	1	1
785	1	1
786	1	1
787	1	1
788	1	1
789	1	1
790	0	1
791	0	0.992
792	0	0.992
793	0	0.991968
794	0	0.991968
795	0	0.983968
796	0	1
797	0	1
798	0	0.714286
799	0	0.714286
800	0	0.4
801	0	0.806147
802	0	0.454127
803	0	0.408531
804	0	0.392765
805	0	0.430325
806	0	0.451776
807	0	0.288217
808	0	0.5
809	0	0.5
810	0	0.5
811	0	0.308591
812	0	0.333333
813	0	0.333333
814	0	0.333333
815	0	0.590912
816	0	0.944585
817	0	0.952423
818	0	0.968163
819	0	0.968163
820	0	0.991968
821	0	0.991968
822	0	0.983968
823	1	0
824	1	0
825	1	0
826	1	0
827	1	0
828	1	0
829	0	0
830	1	1
831	0	1
832	0	1
833	0	1
834	0	1
835	0	0.991968
836	0	0.991968
837	0	0.991968
838	0	0.991968
839	0	0.991968
840	0	0.991968
841	0	0.991968
842	0	0.991968
843	0	0.991701
844	0	0.929784
845	0	0.991968
846	0	1
847	0	0.498782
848	0	0.332625
849	0	0.332625
850	0	0.332625
851	0	0.321966
852	0	0.457825
853	0	0.643089
854	0	0.666571
855	0	0.845621
856	0	0.868706
857	0	1
858	0	0.991837
859	0	0.991935
860	0	0.991968
861	0	0.991968
862	0	0.991736
863	0	0.983573
864	0	0.935359
865	0	0.898687
866	0	0.898687
867	0	0.898687
868	0	0
869	0	0
870	0	0
871	0	0
872	0	0.835294
873	0	0.711238
874	0	0.5
875	0	0.666081
876	0	1
877	0	0.607147
878	0	0.562864
879	0	0.166667
880	0	0.54883
881	0	0.43462
882	0	0.309524
883	0	0.309524
884	0	0.362821
885	0	0.330878
886	0	0
887	0	0
888	0	0
889	0	0
890	0	0
891	0	0
892	0	0
893	0	0.333333
894	0	0.333333
895	0	1
896	0	1
897	0	1
898	0	0.5
899	0	0.166667
900	0	0.333333
901	0	1
902	0	1
903	0	0.333333
904	0	0.42334
905	0	0.166667
906	0	0.166667
907	0	0.333333
908	0	0.333333
909	0	0
910	0	0
911	0	0
912	0	0.25158
913	0	0.230769
914	0	0.286957
915	0	0.282051
916	0	0.229944
917	0	0.182002
918	0	0.145455
919	0	0.138889
920	0	0.138889
921	0	0.305556
922	0	0.47619
923	0	0.777778
924	0	0.777778
925	0	0.777778
926	0	0.777778
927	0	0
928	0	0
929	0	0
930	0	0
931	0	0.525207
932	0	0.56998
933	0	1
934	0	1
935	0	1
936	0	0.875767
937	0	0.906432
938	0	0.906432
939	0	0.906432
940	0	0.913772
941	0	0.913772
942	0	0.913772
943	0	0.913772
944	0	0.913772
945	0	0.991597
946	0	0.991632
947	0	0.991837
948	0	0.991837
949	1	1
950	1	1
951	1	1
952	1	1
953	1	1
954	1	1
955	1	1
956	1	1
957	1	1
958	1	1
959	1	1
960	1	1
961	1	1
962	0	1
963	0	1
964	0	0.976033
965	0	0.976001
966	0	0.976001
967	0	0.552419
968	0	0.288645
969	0	0.269406
970	0	0.136803
971	0	0.140688
972	0	0.161742
973	0	0.833333
974	0	0
975	0	0
976	0	0
977	0	0
978	0	0
979	0	0.166667
980	0	0.333333
981	0	0.466667
982	0	0.584211
983	0	0.732927
984	0	0.789641
985	0	0.463856
986	0	0.533661
987	0	0.686531
988	0	0.764107
989	0	0.764107
990	0	0.944592
991	0	0.981177
992	0	0.981177
993	0	0
994	0	0
995	0	0
996	0	0
997	0	0
998	0	0.975904
999	0	0
1000	0	0
1001	0	0
1002	0	0
1003	0	0
1004	0	0
1005	0	0
1006	0	0
1007	0	0
1008	0	0
1009	0	0
1010	0	0
1011	0	0
1012	1	1
1013	1	1
1014	1	1
1015	1	1
1016	1	1
1017	1	1
1018	1	1
1019	1	1
1020	1	1
1021	1	1
1022	1	1
1023	1	1
1024	1	1
1025	1	1
1026	1	1
1027	1	1
1028	1	1
1029	1	1
1030	1	1
1031	1	1
1032	1	1
1033	1	1
1034	1	1
1035	1	1
1036	1	1
1037	1	1
1038	1	1
1039	1	1
1040	1	1
1041	1	1
1042	1	1
1043	0	0.991935
1044	0	0.991935
1045	0	0.991935
1046	0	1
1047	1	1
1048	1	1
1049	1	1
1050	0	0.991968
1051	1	1
1052	1	1
1053	1	1
1054	1	1
1055	1	1
1056	1	1
1057	1	1
1058	1	1
1059	1	1
1060	1	1
1061	1	1
1062	1	1
1063	1	1
1064	1	1
1065	1	1
1066	1	1
1067	1	1
1068	1	1
1069	0	1
1070	0	1
1071	0	1
1072	0	1
1073	0	1
1074	1	1
1075	1	1
1076	1	1
1077	1	1
1078	1	1
1079	1	1
1080	1	1
1081	1	1
1082	1	1
1083	1	1
1084	1	1
1085	1	1
1086	1	1
1087	1	1
1088	1	1
1089	1	1
1090	0	1
1091	1	1
1092	0	0.983936
1093	1	1
1094	1	1
1095	1	1
1096	1	1
1097	1	1
1098	0	0.991935
1099	0	0.983936
1100	1	1
1101	0	0.991903
1102	0	0.983839
1103	0	0.991837
1104	1	0
1105	0	0
1106	0	0
1107	0	0
1108	0	0.975644
1109	0	1
1110	0	0.490909
1111	0	0.503265
1112	0	0.975937
1113	0	0.960228
1114	0	1
1115	1	1
1116	1	1
1117	1	1
1118	1	1
1119	1	1
1120	0	0.991968
1121	0	0.991968
1122	1	1
1123	1	1
1124	1	1
1125	0	1
1126	0	1
1127	0	1
1128	0	1
1129	0	1
1130	0	0.991968
1131	0	0.991968
1132	0	0.991968
1133	0	0.991968
1134	0	0.991968
1135	0	0.991968
1136	0	0.991968
1137	0	0.991968
1138	0	0
1139	0	0
1140	0	0
1141	0	0
1142	0	0
1143	0	0
1144	0	0
1145	0	0
1146	0	0
1147	0	0
1148	0	0
1149	0	0
1150	0	0
1151	0	0
1152	0	0
1153	0	0
1154	0	0
1155	0	0
1156	0	0
1157	0	0
1158	0	0
1159	0	0
1160	0	0
1161	0	0
1162	0	0
1163	0	0
1164	0	0
1165	0	0
1166	0	0
1167	1	0
1168	1	0
1169	1	0
1170	1	0
1171	1	0
1172	1	0
1173	1	0
1174	1	0
1175	1	0
1176	1	0
1177	1	0
1178	1	0
1179	1	0
1180	1	0
1181	1	0
1182	1	0
1183	1	0
1184	1	0
1185	1	0
1186	1	0
1187	1	0
1188	1	0
1189	1	0
1190	1	0
1191	1	0
1192	1	0
1193	1	0
1194	1	0
1195	1	0
1196	1	0
1197	1	0
1198	1	0
1199	1	0
1200	1	0
1201	1	0
1202	1	0
1203	1	0
1204	1	0
1205	1	0
1206	1	0
1207	1	0
1208	1	0
1209	1	0
1210	1	0
1211	1	0
1212	1	0
1213	1	0
1214	1	0
1215	1	0
1216	1	0
1217	1	0
1218	1	0
1219	1	0
1220	1	0
1221	1	0
1222	1	0
1223	1	0
1224	1	0
1225	1	0
1226	1	0
1227	1	0
1228	1	0
1229	1	0
1230	1	0
1231	1	0
1232	1	0
1233	1	0
1234	1	0
1235	1	0
1236	1	0
1237	1	0
1238	1	0
1239	1	0
1240	1	0
1241	1	0
1242	1	0
1243	1	0
1244	1	0
1245	1	0
1246	1	0
1247	1	0
1248	1	0
1249	1	0
1250	1	0
1251	1	0
1252	1	0
1253	1	0
1254	1	0
1255	1	0
1256	1	0
1257	1	0
1258	1	0
1259	1	0
1260	1	0
1261	1	0
1262	1	0
1263	1	0
1264	1	0
1265	1	0
1266	1	0
1267	1	0
1268	1	0
1269	1	0
1270	1	0
1271	1	0
1272	1	0
1273	1	0
1274	1	0
1275	1	0
1276	1	0
1277	1	0
1278	1	0
1279	1	0
1280	1	0
1281	1	0
1282	1	0
1283	1	0
1284	1	0
1285	1	0
1286	1	0
1287	1	0
1288	1	0
1289	1	0
1290	1	0
1291	1	0
1292	1	0
1293	1	0
1294	1	0
1295	1	0
1296	1	0
1297	1	0
1298	1	0
1299	1	0
1300	1	0
1301	1	0
1302	1	0
1303	1	0
1304	1	0
1305	1	0
1306	1	0
1307	1	0
1308	1	0
1309	1	0
1310	1	0
1311	1	0
1312	1	0
1313	1	0
1314	1	0
1315	1	0
1316	1	0
1317	1	0
1318	1	0
1319	1	0
1320	1	0
1321	1	0
1322	1	0
1323	1	0
1324	1	0
1325	1	0
1326	1	0
1327	1	0
1328	1	0
1329	1	0
1330	1	0
1331	1	0
1332	1	0
1333	1	0
1334	1	0
1335	1	0
1336	1	0
1337	1	0
1338	1	0
1339	1	0
1340	1	0
1341	1	0
1342	1	0
1343	1	0
1344	1	0
1345	1	0
1346	1	0
1347	1	0
1348	1	0
1349	1	0
1350	1	0
1351	1	0
1352	1	0
1353	1	0
1354	1	0
1355	1	0
1356	1	0
1357	1	0
1358	1	0
1359	1	0
1360	1	0
1361	1	0
1362	1	0
1363	1	0
1364	1	0
1365	1	0
1366	1	0
1367	1	0
1368	1	0
1369	1	0
1370	1	0
1371	1	0
1372	1	0
1373	1	0
1374	1	0
1375	1	0
1376	1	0
1377	1	0
1378	1	0
1379	1	0
1380	1	0
1381	1	0
1382	1	0
1383	1	0
1384	1	0
1385	1	0
1386	1	0
1387	1	0
1388	1	0
1389	1	0
1390	1	0
1391	1	0
1392	1	0
1393	1	0
1394	1	0
1395	1	0
1396	1	0
1397	1	0
1398	1	0
1399	1	0
1400	1	0
1401	1	0
1402	1	0
1403	1	0
1404	1	0
1405	1	0
1406	1	0
1407	1	0
1408	1	0
1409	1	0
1410	1	0
1411	1	0
1412	1	0
1413	1	0
1414	1	0
1415	1	0
1416	1	0
1417	1	0
1418	1	0
1419	1	0
1420	1	0
1421	1	0
1422	1	0
1423	1	0
1424	1	0
1425	1	0
1426	1	0
1427	1	0
1428	1	0
1429	1	0
1430	1	0
1431	1	0
1432	1	0
1433	1	0
1434	1	0
1435	1	0
1436	1	0
1437	1	0
1438	1	0
1439	1	0
1440	1	0
1441	1	0
1442	1	0
1443	1	0
1444	1	0
1445	1	0
1446	1	0
1447	1	0
1448	1	0
1449	1	0
1450	1	0
1451	1	0
1452	1	0
1453	1	0
1454	1	0
1455	1	0
1456	1	0
1457	1	0
1458	1	0
1459	1	0
1460	1	0
1461	1	0
1462	1	0
1463	1	0
1464	1	0
1465	1	0
1466	1	0
1467	1	0
1468	1	0
1469	1	0
1470	1	0
1471	1	0
1472	1	0
1473	1	0
1474	1	0
1475	1	0
1476	1	0
1477	1	0
1478	1	0
1479	1	0
1480	1	0
1481	1	0
1482	1	0
1483	1	0
1484	1	0
1485	1	0
1486	1	0
1487	1	0
1488	1	0
1489	1	0
1490	1	0
1491	1	0
1492	1	0
1493	1	0
1494	1	0
1495	1	0
1496	1	0
1497	1	0
1498	1	0
1499	1	0
1500	1	0
1501	1	0
1502	1	0
1503	1	0
1504	1	0
1505	1	0
1506	1	0
1507	1	0
1508	1	0
1509	1	0
1510	1	0
1511	1	0
1512	1	0
1513	1	0
1514	1	0
1515	1	0
1516	1	0
1517	1	0
1518	1	0
1519	1	0
1520	1	0
1521	1	0
1522	1	0
1523	1	0
1524	1	0
1525	1	0
1526	1	0
1527	1	0
1528	1	0
1529	1	0
1530	1	0
1531	1	0
1532	1	0
1533	1	0
1534	1	0
1535	1	0
1536	1	0
1537	1	0
1538	1	0
1539	1	0
1540	1	0
1541	1	0
1542	1	0
1543	1	0
1544	1	0
1545	1	0
1546	1	0
1547	1	0
1548	1	0
1549	1	0
1550	1	0
1551	1	0
1552	1	0
1553	1	0
1554	1	0
1555	1	0
1556	1	0
1557	1	0
1558	1	0
1559	1	0
1560	1	0
1561	1	0
1562	1	0
1563	1	0
1564	1	0
1565	1	0
1566	1	0
1567	1	0
1568	1	0
1569	1	0
1570	1	0
1571	1	0
1572	1	0
1573	1	0
1574	1	0
1575	1	0
1576	1	0
1577	1	0
1578	1	0
1579	1	0
1580	1	0
1581	1	0
1582	1	0
1583	1	0
1584	1	0
1585	1	0
1586	1	0
1587	1	0
1588	1	0
1589	1	0
1590	1	0
1591	1	0
1592	1	0
1593	1	0
1594	1	0
1595	1	0
1596	1	0
1597	1	0
1598	1	0
1599	1	0
1600	1	0
1601	1	0
1602	1	0
1603	1	0
1604	1	0
1605	1	0
1606	1	0
1607	1	0
1608	1	0
1609	1	0
1610	1	0
1611	1	0
1612	1	0
1613	1	0
1614	1	0
1615	1	0
1616	1	0
1617	1	0
1618	1	0
1619	1	0
1620	1	0
1621	1	0
1622	1	0
1623	1	0
1624	1	0
1625	1	0
1626	1	0
1627	1	0
1628	1	0
1629	1	0
1630	1	0
1631	1	0
1632	1	0
1633	1	0
1634	1	0
1635	1	0
1636	1	0
1637	1	0
1638	1	0
1639	1	0
1640	1	0
1641	1	0
1642	1	0
1643	1	0
1644	1	0
1645	1	0
1646	1	0
1647	1	0
1648	1	0
1649	1	0
1650	1	0
1651	1	0
1652	1	0
1653	1	0
1654	1	0
1655	1	0
1656	1	0
1657	1	0
1658	1	0
1659	1	0
1660	1	0
1661	1	0
1662	1	0
1663	1	0
1664	1	0
1665	1	0
1666	1	0
1667	1	0
1668	1	0
1669	1	0
1670	1	0
1671	1	0
1672	1	0
1673	1	0
1674	1	0
1675	1	0
1676	1	0
1677	1	0
1678	1	0
1679	1	0
1680	1	0
1681	1	0
1682	1	0
1683	1	0
1684	1	0
1685	1	0
1686	1	0
1687	1	0
1688	1	0
1689	1	0
1690	1	0
1691	1	0
1692	1	0
1693	1	0
1694	1	0
1695	1	0
1696	1	0
1697	1	0
1698	1	0
1699	1	0
1700	1	0
1701	1	0
1702	1	0
1703	1	0
1704	1	0
1705	1	0
1706	1	0
1707	1	0
1708	1	0
1709	1	0
1710	1	0
1711	1	0
1712	1	0
1713	1	0
1714	1	0
1715	1	0
1716	1	0
1717	1	0
1718	1	0
1719	1	0
1720	1	0
1721	1	0
1722	1	0
1723	1	0
1724	1	0
1725	1	0
1726	1	0
1727	1	0
1728	1	0
1729	1	0
1730	1	0
1731	1	0
1732	1	0
1733	1	0
1734	1	0
1735	1	0
1736	1	0
1737	1	0
1738	1	0
1739	1	0
1740	1	0
1741	1	0
1742	1	0
1743	1	0
1744	1	0
1745	1	0
1746	1	0
1747	1	0
1748	1	0
1749	1	0
1750	1	0
1751	1	0
1752	1	0
1753	1	0
1754	1	0
1755	1	0
1756	1	0
1757	1	0
1758	1	0
1759	1	0
1760	1	0
1761	1	0
1762	1	0
1763	1	0
1764	1	0
1765	1	0
1766	1	0
1767	1	0
1768	1	0
1769	1	0
1770	1	0
1771	1	0
1772	1	0
1773	1	0
1774	1	0
1775	1	0
1776	1	0
1777	1	0
1778	1	0
1779	1	0
1780	1	0
1781	1	0
1782	1	0
1783	1	0
1784	1	0
1785	1	0
1786	1	0
1787	1	0
1788	1	0
1789	1	0
1790	1	0
1791	1	0
1792	1	0
1793	1	0
1794	1	0
1795	0	0.983968
1796	0	0.983968
1797	0	0.991968
1798	0	0.991968
1799	0	0.991968
1800	0	0.991935
1801	1	0
1802	1	0
1803	1	0
1804	1	0
1805	0	0.333333
1806	0	0.96797
1807	0	0.96797
1808	0	0.945946
1809	0	0.701825
1810	0	0.601768
1811	0	0
1812	0	0
1813	0	0
1814	0	0
1815	0	0.4
1816	0	0.644961
1817	1	0
1818	1	0
1819	1	0
1820	1	0
1821	0	0.622222
1822	0	0.509091
1823	0	0.283333
1824	0	0.283333
1825	0	0.205128
1826	0	0.607814
1827	0	0.399209
1828	0	0.399209
1829	0	0.417848
1830	0	0.271717
1831	0	0.275748
1832	0	0.395475
1833	0	0.337934
1834	0	0.269458
1835	0	0.178378
1836	0	0.144086
1837	0	0.1
1838	0	0.112554
1839	0	0.117647
1840	0	0.181818
1841	0	0.194444
1842	0	0.2
1843	0	0.190476
1844	0	0
1845	0	0
1846	0	0
1847	0	0
1848	1	0
1849	1	0
1850	1	0
1851	1	0
1852	1	0
1853	1	0
1854	1	0
1855	1	0
1856	1	0
1857	1	0
1858	1	0
1859	1	0
1860	1	0
1861	1	0
1862	1	0
1863	1	0
1864	1	0
1865	1	0
1866	1	0
1867	1	0
1868	1	0
1869	1	0
1870	1	0
1871	1	0
1872	1	0
1873	1	0
1874	1	0
1875	1	0
1876	1	0
1877	1	0
1878	1	0
1879	1	0
1880	1	0
1881	1	0
1882	1	0
1883	1	0
1884	1	0
1885	1	0
1886	1	0
1887	1	0
1888	1	0
1889	1	0
1890	1	0
1891	1	0
1892	1	0
1893	1	0
1894	1	0
1895	1	0
1896	1	0
1897	1	0
1898	1	0
1899	1	0
1900	1	0
1901	1	0
1902	1	0
1903	1	0
1904	1	0
1905	1	0
1906	1	0
1907	1	0
1908	1	0
1909	1	0
1910	1	0
1911	1	0
1912	1	0
1913	1	0
1914	1	0
1915	1	0
1916	1	0
1917	1	0
1918	1	0
1919	1	0
1920	1	0
1921	1	0
1922	1	0
1923	1	0
1924	1	0
1925	1	0
1926	1	0
1927	1	0
1928	1	0
1929	1	0
1930	1	0
1931	1	0
1932	1	0
1933	1	0
1934	1	0
1935	1	0
1936	1	0
1937	1	0
1938	1	0
1939	1	0
1940	1	0
1941	1	0
1942	1	0
1943	1	0
1944	1	0
1945	1	0
1946	1	0
1947	1	0
1948	1	0
1949	1	0
1950	1	0
1951	1	0
1952	1	0
1953	1	0
1954	1	0
1955	1	0
1956	1	0
1957	1	0
1958	1	0
1959	1	0
1960	1	0
1961	1	0
1962	1	0
1963	1	0
1964	1	0
1965	1	0
1966	1	0
1967	1	0
1968	1	0
1969	1	0
1970	1	0
1971	1	0
1972	1	0
1973	1	0
1974	1	0
1975	1	0
1976	1	0
1977	1	0
1978	1	0
1979	1	0
1980	1	0
1981	1	0
1982	1	0
1983	1	0
1984	1	0
1985	1	0
1986	1	0
1987	1	0
1988	1	0
1989	1	0
1990	1	0
1991	1	0
1992	1	0
1993	1	0
1994	1	0
1995	1	0
1996	1	0
1997	1	0
1998	1	0
1999	1	0
2000	1	0
2001	1	0
2002	1	0
2003	1	0
2004	1	0
2005	1	0
2006	1	0
2007	1	0
2008	1	0
2009	1	0
2010	1	0
2011	1	0
2012	1	0
2013	1	0
2014	1	0
2015	1	0
2016	1	0
2017	1	0
2018	1	0
2019	1	0
2020	1	0
2021	1	0
2022	1	0
2023	1	0
2024	1	0
2025	1	0
2026	1	0
2027	1	0
2028	1	0
2029	1	0
2030	1	0
2031	1	0
2032	1	0
2033	1	0
2034	1	0
2035	1	0
2036	1	0
2037	1	0
2038	1	0
2039	1	0
2040	1	0
2041	1	0
2042	1	0
2043	1	0
2044	1	0
2045	1	0
2046	1	0
2047	1	0
2048	1	0
2049	1	0
2050	1	0
2051	1	0
2052	1	0
2053	1	0
2054	1	0
2055	1	0
2056	1	0
2057	1	0
2058	1	0
2059	1	0
2060	1	0
2061	1	0
2062	1	0
2063	1	0
2064	1	0
2065	1	0
2066	1	0
2067	1	0
2068	1	0
2069	1	0
2070	1	0
2071	1	0
2072	1	0
2073	1	0
2074	1	0
2075	1	0
2076	1	0
2077	1	0
2078	1	0
2079	1	0
2080	1	0
2081	1	0
2082	1	0
2083	1	0
2084	1	0
2085	1	0
2086	1	0
2087	1	0
2088	1	0
2089	1	0
2090	1	0
2091	1	0
2092	1	0
2093	1	0
2094	1	0
2095	1	0
2096	1	0
2097	1	0
2098	1	0
2099	1	0
2100	1	0
2101	1	0
2102	1	0
2103	1	0
2104	1	0
2105	1	0
2106	1	0
2107	1	0
2108	1	0
2109	1	0
2110	1	0
2111	1	0
2112	1	0
2113	1	0
2114	1	0
2115	1	0
2116	1	0
2117	1	0
2118	1	0
2119	1	0
2120	1	0
2121	1	0
2122	1	0
2123	1	0
2124	1	0
2125	1	0
2126	1	0
2127	1	0
2128	1	0
2129	1	0
2130	1	0
2131	1	0
2132	1	0
2133	1	0
2134	1	0
2135	1	0
2136	1	0
2137	1	0
