Site	ColumnScore	SumOfPairsScore
1	0	0
2	0	0
3	0	0
4	0	0
5	0	0
6	0	0
7	0	0
8	0	0
9	0	0
10	0	0
11	0	0.8
12	0	0.8
13	0	0.8
14	0	0.8
15	0	0.8
16	0	0.8
17	0	0.654545
18	0	0.545455
19	0	0.545455
20	0	0.461538
21	0	0.461538
22	0	0.461538
23	0	0.461538
24	0	0.461538
25	0	0.395604
26	0	0.395604
27	0	0.395604
28	0	0.395604
29	0	0.3
30	0	0.3
31	0	0.171429
32	0	0.133333
33	0	0.121839
34	0	0.0650407
35	0	0.0657895
36	0	0.0542032
37	0	0.0482561
38	0	0.218481
39	0	0.224198
40	0	0.222385
41	0	0.180187
42	0	0.169805
43	0	0.177232
44	0	0.0814561
45	0	0.0837568
46	0	0.261905
47	0	0.261905
48	0	0.233618
49	0	0.185484
50	0	0.354167
51	0	0.370968
52	0	0.363636
53	0	0.193135
54	0	0.192525
55	0	0.931034
56	0	0.933333
57	0	0.935484
58	0	1
59	0	1
60	0	1
61	0	1
62	0	1
63	0	1
64	0	1
65	0	1
66	0	1
67	0	1
68	0	1
69	0	1
70	0	1
71	0	1
72	0	1
73	0	1
74	0	1
75	0	1
76	0	1
77	0	1
78	0	1
79	0	1
80	0	1
81	0	1
82	0	1
83	0	1
84	0	1
85	0	1
86	0	1
87	0	1
88	0	1
89	0	1
90	0	1
91	0	1
92	0	1
93	0	1
94	0	1
95	0	1
96	0	1
97	0	1
98	0	1
99	0	1
100	0	0.857143
101	0	1
102	0	1
103	0	0.227273
104	0	0.111111
105	0	0
106	0	0
107	0	0
108	0	0
109	0	0.5
110	0	0.5
111	0	0.5
112	0	1
113	0	1
114	0	1
115	0	0.47619
116	0	0.47619
117	0	0.47619
118	0	0.666667
119	0	0.666667
120	0	0.666667
121	0	1
122	0	0.075301
123	0	0.0812702
124	0	0.0716294
125	0	0.0777502
126	0	0.0790736
127	0	0.125724
128	0	0.186448
129	0	0.190317
130	0	0.215429
131	0	0.214816
132	0	0.0720044
133	0	0.104907
134	0	0.0844646
135	0	0.0848485
136	0	0.110661
137	0	0.0710383
138	0	0.074746
139	0	0.08
140	0	0.0545455
141	0	0.0833333
142	0	0.0833333
143	0	0.190476
144	0	0.190476
145	0	0.190476
146	0	0.183333
147	0	0.383333
148	0	0.383333
149	0	0.438095
150	0	0.166667
151	0	0.166667
152	0	0.333333
153	0	0.333333
154	0	0
155	0	0
156	0	0
157	0	0
158	0	0.333333
159	0	0.333333
160	0	0.475476
161	0	0.477092
162	0	0.482706
163	0	0.482706
164	0	0.884135
165	0	0.884135
166	0	0.884135
167	0	0.884135
168	0	0.884135
169	0	0.884135
170	0	0.939394
171	1	1
172	1	1
173	1	1
174	1	1
175	1	1
176	1	1
177	1	1
178	1	1
179	1	1
180	1	1
181	1	1
182	1	1
183	1	1
184	1	1
185	1	1
186	1	1
187	1	1
188	1	1
189	1	1
190	1	1
191	1	1
192	1	1
193	1	1
194	1	1
195	1	1
196	1	1
197	1	1
198	1	1
199	1	1
200	1	1
201	1	1
202	0	1
203	0	1
204	0	1
205	0	0.707527
206	0	0.707527
207	0	0.754023
208	0	0.754023
209	0	0.687192
210	0	0.687192
211	0	0.630542
212	0	0.630542
213	0	0.524631
214	0	0.317734
215	0	0.333333
216	0	0.291005
217	0	0.210145
218	0	0.229249
219	0	0.229249
220	0	0.189723
221	0	0.134387
222	0	0.116883
223	0	0.0842105
224	0	0.0842105
225	0	0.0935673
226	0	0.0701754
227	0	0.0784314
228	0	0.0784314
229	0	0.0916667
230	0	0.0701754
231	0	0.0441176
232	0	0.0441176
233	0	0.05
234	0	0.05
235	0	0.0641026
236	0	0.0641026
237	0	0.0757576
238	0	0.0641026
239	0	0.0641026
240	0	0.0757576
241	0	0.0757576
242	0	0.155556
243	0	0.244444
244	0	0.305556
245	0	0.138889
246	0	0.190476
247	0	0.266667
248	0	0.266667
249	0	0.266667
250	0	0.266667
251	0	0.644444
252	0	1
253	0	1
254	0	1
255	0	1
256	0	1
257	0	0.777778
258	0	0.777778
259	0	0.644444
260	0	0.472527
261	0	0.472527
262	0	0.472527
263	0	0.466667
264	0	0.621856
265	0	1
266	0	1
267	0	1
268	0	0.694335
269	0	0.705128
270	0	0.764617
271	0	0.764617
272	0	0.764617
273	0	0.764617
274	0	0.770989
275	0	0.783939
276	0	0
277	0	1
278	0	1
279	0	1
280	0	1
281	0	1
282	0	1
283	0	1
284	0	1
285	0	1
286	0	1
287	0	1
288	0	1
289	0	1
290	0	1
291	0	1
292	0	1
293	0	1
294	0	1
295	0	1
296	0	1
297	0	1
298	0	1
299	0	0.763221
300	0	0.763221
301	1	1
302	1	1
303	1	1
304	1	1
305	1	1
306	1	1
307	1	1
308	1	1
309	1	1
310	1	1
311	1	1
312	1	1
313	1	1
314	0	0.769555
315	0	0.769555
316	0	0.769555
317	0	0.769555
318	0	0.769555
319	0	0.769555
320	0	0
321	0	0
322	0	0
323	0	0
324	0	0
325	0	0.732761
326	1	1
327	1	1
328	1	1
329	1	1
330	1	1
331	1	1
332	1	1
333	1	1
334	1	1
335	1	1
336	1	1
337	1	1
338	1	1
339	1	1
340	1	1
341	1	1
342	1	1
343	1	1
344	0	0.939394
345	0	0.646426
346	0	0.61719
347	0	0.615201
348	0	0.378788
349	0	0.378788
350	0	0.266667
351	0	0.266667
352	0	0.438708
353	0	0.180063
354	0	0.242208
355	0	0.230349
356	0	0.214158
357	0	0.198754
358	0	0
359	0	0.333333
360	0	0.333333
361	0	0.166667
362	0	0.166667
363	0	0.166667
364	0	0.1
365	0	0.238095
366	0	0.210352
367	0	0.212993
368	0	0.175852
369	0	0
370	0	0
371	0	0
372	0	0
373	0	0
374	0	0
375	0	0.166667
376	0	0.222222
377	0	0.208791
378	0	0.228758
379	0	0.137782
380	0	0.133677
381	0	0.116794
382	0	0.1
383	0	0.0814087
384	0	0.125821
385	0	0.114562
386	0	0.113309
387	0	0.105221
388	0	0.0712042
389	0	0.0672913
390	0	0.0597199
391	0	0.065955
392	0	0.0617508
393	0	0.102338
394	0	0.100081
395	1	1
396	1	1
397	1	1
398	1	1
399	1	1
400	1	1
401	1	1
402	1	1
403	1	1
404	1	1
405	1	1
406	1	1
407	1	1
408	1	1
409	0	1
410	1	1
411	1	1
412	1	1
413	1	1
414	1	1
415	1	1
416	0	1
417	0	1
418	0	0.56092
419	0	0.56092
420	0	0.524731
421	0	0.524731
422	0	0.524731
423	0	0.288889
424	0	0.212121
425	0	0.433824
426	0	0.366995
427	0	0.326882
428	0	0.326882
429	0	0.326882
430	0	0.326882
431	0	0.326882
432	0	0.326882
433	0	0.326882
434	0	0.326882
435	0	0.819355
436	0	0.768145
437	0	0.879032
438	1	1
439	1	1
440	1	1
441	1	1
442	1	1
443	1	1
444	1	1
445	1	1
446	1	1
447	1	1
448	1	1
449	1	1
450	1	1
451	1	1
452	1	1
453	1	1
454	1	1
455	1	1
456	1	1
457	1	1
458	1	1
459	1	1
460	1	1
461	1	1
462	1	1
463	1	1
464	1	1
465	1	1
466	1	1
467	0	0.9375
468	0	0.877016
469	0	0.877016
470	0	0.877016
471	0	0.877016
472	0	0.877016
473	0	0.877016
474	0	0.877016
475	0	0.877016
476	0	0.877016
477	0	0.877016
478	0	0.877016
479	0	0.877016
480	0	0.877016
481	0	0.877016
482	0	0.877016
483	0	0.877016
484	0	0.877016
485	0	0.877016
486	0	0.877016
487	0	0.877016
488	0	0.877016
489	0	0.877016
490	0	0.877016
491	0	0.873118
492	0	0.873118
493	0	0.873118
494	0	0.868966
495	0	0.864532
496	0	0.732804
497	0	0.259259
498	0	0.248677
499	0	0.248677
500	0	0.248677
501	0	0.248677
502	0	0.248677
503	0	0.248677
504	0	0.231527
505	0	0.263547
506	0	0.245977
507	0	0.261084
508	0	0.261084
509	0	0.261084
510	0	0.261084
511	0	0.287749
512	0	0.287749
513	0	0.287749
514	0	0.287749
515	0	0.310769
516	0	0.310769
517	0	0.287749
518	0	0.269841
519	0	0.269841
520	0	0.248768
521	0	0.232184
522	0	0.232184
523	0	0.121839
524	0	0.121839
525	0	0.118227
526	0	0.110345
527	0	0.110345
528	0	0.110837
529	0	0.103175
530	0	0.100529
531	0	0.0997151
532	0	0.0997151
533	0	0.107692
534	0	0.0562771
535	0	0.043956
536	0	0.043956
537	0	0.043956
538	0	0.043956
539	0	0.0181818
540	0	0.0181818
541	0	0.0181818
542	0	0.0454545
543	0	0.0454545
544	0	0.0877193
545	0	0.0714286
546	0	0.103896
547	0	0.0995671
548	0	0.116883
549	0	0.116883
550	0	0.116883
551	0	0.0967742
552	0	0.0987903
553	0	0.189516
554	0	0.229839
555	0	0.229839
556	0	0.229839
557	0	0.229839
558	0	0.245161
559	0	0.221505
560	0	0.221505
561	0	0.223656
562	0	0.223656
563	0	0.223656
564	0	0.223656
565	0	0.223656
566	0	0.236782
567	0	0.236782
568	0	0.236782
569	0	0.236782
570	0	0.236782
571	0	0.236782
572	0	0.236782
573	0	0.236782
574	0	0.236782
575	0	0.236782
576	0	0.225806
577	0	0.225806
578	0	0.227586
579	0	0.227586
580	0	0.227586
581	0	0.212903
582	0	0.212903
583	0	0.212903
584	0	0.212903
585	0	0.212903
586	0	0.212903
587	0	0.212903
588	0	0.227586
589	0	0.227586
590	0	0.259259
591	0	0.256158
592	0	0.256158
593	0	0.263547
594	0	0.263547
595	0	0.263547
596	0	0.263547
597	0	0.263547
598	0	0.263547
599	0	0.263547
600	0	0.24086
601	0	0.24086
602	0	0.24086
603	0	0.24086
604	0	0.24086
605	0	0.24086
606	0	0.24086
607	0	0.283871
608	0	0.703226
609	0	0.703226
610	0	0.875269
611	0	0.879032
612	1	1
613	1	1
614	1	1
615	1	1
616	1	1
617	1	1
618	1	1
619	1	1
620	1	1
621	1	1
622	1	1
623	1	1
624	1	1
625	1	1
626	1	1
627	1	1
628	1	1
629	1	1
630	1	1
631	1	1
632	1	1
633	1	1
634	1	1
635	1	1
636	1	1
637	1	1
638	1	1
639	1	1
640	1	1
641	1	1
642	1	1
643	1	1
644	1	1
645	1	1
646	1	1
647	1	1
648	1	1
649	1	1
650	1	1
651	1	1
652	1	1
653	1	1
654	1	1
655	1	1
656	1	1
657	1	1
658	1	1
659	1	1
660	1	1
661	1	1
662	1	1
663	1	1
664	1	1
665	1	1
666	1	1
667	1	1
668	1	1
669	1	1
670	1	1
671	1	1
672	1	1
673	1	1
674	1	1
675	1	1
676	1	1
677	1	1
678	1	1
679	1	1
680	1	1
681	1	1
682	1	1
683	1	1
684	1	1
685	1	1
686	1	1
687	1	1
688	1	1
689	1	1
690	1	1
691	1	1
692	1	1
693	1	1
694	1	1
695	1	1
696	1	1
697	1	1
698	1	1
699	1	1
700	1	1
701	1	1
702	1	1
703	1	1
704	1	1
705	1	1
706	1	1
707	0	0.879032
708	0	0.766129
709	0	0.766129
710	0	0.766129
711	0	0.766129
712	0	0.751724
713	0	0.751724
714	0	0.751724
715	0	0.751724
716	0	0.862434
717	0	0.862434
718	0	0.862434
719	0	0.862434
720	0	0.862434
721	0	0.862434
722	0	0.333333
723	0	0.333333
724	0	0.333333
725	0	0.333333
726	0	0.333333
727	0	0.505495
728	0	0.505495
729	0	0.505495
730	0	0.505495
731	0	0.505495
732	0	0.321053
733	0	0.356725
734	0	0.295238
735	0	0.268398
736	0	0.252381
737	0	0.193103
738	0	0.219212
739	0	0.327485
740	0	0.327485
741	0	0.327485
742	0	0.356725
743	0	0.356725
744	0	0.337931
745	0	0.743842
746	0	1
747	0	1
748	1	1
749	1	1
750	1	1
751	1	1
752	1	1
753	1	1
754	1	1
755	1	1
756	1	1
757	1	1
758	1	1
759	1	1
760	1	1
761	1	1
762	1	1
763	1	1
764	1	1
765	1	1
766	1	1
767	1	1
768	1	1
769	1	1
770	1	1
771	1	1
772	1	1
773	1	1
774	1	1
775	1	1
776	1	1
777	1	1
778	1	1
779	1	1
780	1	1
781	1	1
782	1	1
783	1	1
784	1	1
785	1	1
786	1	1
787	1	1
788	0	0
789	1	0
790	1	0
791	1	0
792	1	0
793	1	0
794	1	0
795	0	0.846154
796	0	0.504762
797	0	0.458874
798	0	0.315854
799	0	0.300813
800	0	0.300813
801	0	0.300813
802	0	0.300813
803	0	0.300813
804	0	0.300813
805	0	0.300813
806	0	0.300813
807	0	0.300813
808	0	0.295681
809	0	0.295681
810	0	0.282241
811	0	0.273784
812	0	0.130155
813	0	0.420635
814	0	0.102477
815	0	0.11141
816	0	0.19878
817	0	0.0895813
818	0	0.0911081
819	0	0.0835036
820	0	0.0864787
821	0	0.371921
822	0	0.109857
823	0	0.11349
824	0	0.159496
825	0	0.172378
826	0	0.171779
827	0	0.161493
828	0	0.164896
829	0	0.479915
830	0	0.479915
831	0	0.479915
832	0	0.479915
833	0	0.479915
834	0	0.479915
835	0	0.479915
836	0	0.479915
837	0	0.479915
838	0	0.479915
839	0	0.479915
840	0	0.479915
841	0	0.479915
842	0	0.479915
843	0	0.479915
844	0	0.479915
845	0	0.450317
846	0	0.539112
847	0	0.539112
848	0	0.539112
849	0	0.539112
850	0	0.515152
851	0	0.375763
852	0	0.375763
853	0	0.384554
854	0	0.273663
855	0	0.384554
856	0	0.882353
857	0	0.453629
858	0	0.453629
859	0	0.453629
860	0	0.453629
861	0	0.375
862	0	0.71371
863	0	0.71371
864	0	0.820565
865	0	1
866	0	1
867	0	0.9375
868	0	0.9375
869	0	0.9375
870	0	0.9375
871	0	0.9375
872	0	0.9375
873	0	0.9375
874	0	0.9375
875	0	0.9375
876	0	0.9375
877	0	0.9375
878	0	0.9375
879	0	0.9375
880	0	0.9375
881	0	0.9375
882	0	0.9375
883	0	0.9375
884	0	0.9375
885	0	0.9375
886	0	0.9375
887	0	0.9375
888	0	0.9375
889	0	0.9375
890	0	0.9375
891	0	0.9375
892	0	0.9375
893	0	0.9375
894	0	0.9375
895	0	0.9375
896	0	0.9375
897	0	0.9375
898	0	0.9375
899	0	0.9375
900	0	0.9375
901	0	0.9375
902	0	0.9375
903	0	0.9375
904	0	0.877016
905	0	0.71371
906	0	0.71371
907	0	0.71371
908	0	0.71371
909	0	0.768145
910	0	0.768145
911	0	0.768145
912	0	0.768145
913	0	0.768145
914	0	0.768145
915	0	0.768145
916	0	0.768145
917	0	0.768145
918	0	0.768145
919	0	0.768145
920	0	0.768145
921	0	0.768145
922	0	0.764113
923	0	0.764113
924	0	0.764113
925	0	0.764113
926	0	0.764113
927	0	0.764113
928	0	0.756989
929	0	0.756989
930	0	0.602151
931	0	0.612903
932	0	0.612903
933	0	0.612903
934	0	0.612903
935	0	0.612903
936	0	0.612903
937	0	0.612903
938	0	0.612903
939	0	0.612903
940	0	0.612903
941	0	0.612903
942	0	0.612903
943	0	0.612903
944	0	0.612903
945	0	0.612903
946	0	0.608871
947	0	0.608871
948	0	0.608871
949	0	0.649462
950	0	0.649462
951	0	0.649462
952	0	0.649462
953	0	0.63908
954	0	0.63908
955	0	0.63908
956	0	0.63908
957	0	0.63908
958	0	0.63908
959	0	0.586207
960	0	0.63908
961	0	0.63908
962	0	0.63908
963	0	0.616402
964	0	0.28046
965	0	0.327586
966	0	0.527094
967	0	0.527094
968	0	0.527094
969	0	0.527094
970	0	0.527094
971	0	0.498851
972	0	0.498851
973	0	0.498851
974	0	0.534483
975	0	0.534483
976	0	0.534483
977	0	0.534483
978	0	0.534483
979	0	0.534483
980	0	0.534483
981	0	0.534483
982	0	0.534483
983	0	0.534483
984	0	0.534483
985	0	0.534483
986	0	0.534483
987	0	0.534483
988	0	0.386243
989	0	0.343915
990	0	0.335979
991	0	0.335979
992	0	0.335979
993	0	0.335979
994	0	0.335979
995	0	0.187831
996	0	0.224868
997	0	0.219577
998	0	0.174603
999	0	0.153439
1000	0	0.116402
1001	0	0.100529
1002	0	0.0873016
1003	0	0.0714286
1004	0	0.0714286
1005	0	0.0555556
1006	0	0.0555556
1007	0	0.0555556
1008	0	0.0555556
1009	0	0.0555556
1010	0	0.042328
1011	0	0.0555556
1012	0	0.0569801
1013	0	0.0598291
1014	0	0.045584
1015	0	0.048433
1016	0	0.048433
1017	0	0.048433
1018	0	0.048433
1019	0	0.0533333
1020	0	0.0533333
1021	0	0.0533333
1022	0	0.0533333
1023	0	0.0433333
1024	0	0.0433333
1025	0	0.0533333
1026	0	0.0398551
1027	0	0.0338462
1028	0	0.0398551
1029	0	0.0471014
1030	0	0.0513834
1031	0	0.055336
1032	0	0.055336
1033	0	0.0606061
1034	0	0.0606061
1035	0	0.0606061
1036	0	0.0649351
1037	0	0.0649351
1038	0	0.0649351
1039	0	0.0649351
1040	0	0.0666667
1041	0	0.0684211
1042	0	0.0684211
1043	0	0.0789474
1044	0	0.0789474
1045	0	0.0789474
1046	0	0.0789474
1047	0	0.0789474
1048	0	0.0877193
1049	0	0.0877193
1050	0	0.0877193
1051	0	0.0877193
1052	0	0.0877193
1053	0	0.0980392
1054	0	0.0980392
1055	0	0.0980392
1056	0	0.0980392
1057	0	0.0980392
1058	0	0.0980392
1059	0	0.0980392
1060	0	0.0980392
1061	0	0.114286
1062	0	0.114286
1063	0	0.114286
1064	0	0.114286
1065	0	0.114286
1066	0	0.114286
1067	0	0.114286
1068	0	0.114286
1069	0	0.114286
1070	0	0.114286
1071	0	0.109091
1072	0	0.109091
1073	0	0.109091
1074	0	0.12381
1075	0	0.12381
1076	0	0.142857
1077	0	0.142857
1078	0	0.142857
1079	0	0.142857
1080	0	0.142857
1081	0	0.222222
1082	0	0.277778
1083	0	0.47619
1084	0	0.666667
1085	0	0.666667
1086	0	0
1087	0	0
1088	0	0
1089	0	0
1090	0	0
1091	0	0
1092	0	0
1093	0	0
1094	0	0
1095	0	0
1096	0	0
1097	0	0
1098	0	0.271386
1099	0	0.301195
1100	0	0.305784
1101	0	0.499109
1102	0	0.499109
1103	0	0.530303
1104	0	0.6
1105	0	0.6
1106	0	0.6
1107	0	0.6
1108	0	0.6
1109	0	0.76129
1110	0	0.76129
1111	0	0.276397
1112	0	0.278765
1113	0	0.335979
1114	0	0.583333
1115	0	0.436364
1116	0	0.236735
1117	0	0.629713
1118	0	0.705128
1119	0	0.846154
1120	0	0.988506
1121	0	1
1122	0	1
1123	1	1
1124	1	1
1125	1	1
1126	1	1
1127	1	1
1128	1	1
1129	1	1
1130	1	1
1131	1	1
1132	1	1
1133	0	0.524811
1134	1	1
1135	0	0.428571
1136	0	1
1137	0	1
1138	1	1
1139	1	1
1140	1	1
1141	1	1
1142	1	1
1143	1	1
1144	1	1
1145	1	1
1146	1	1
1147	0	0.991597
1148	0	1
1149	0	1
1150	0	0.975344
1151	0	0.98354
1152	0	0.951271
1153	0	0.951271
1154	0	0
1155	0	0
1156	0	0.950934
1157	0	0.966773
1158	0	0.936857
1159	0	0.964912
1160	0	0.56715
1161	0	0.796825
1162	0	0.641304
1163	0	0.455665
1164	0	0.408884
1165	0	0.406286
1166	0	0.350386
1167	0	0.347525
1168	0	0.302121
1169	0	0.649206
1170	0	0.0714286
1171	0	0.0666667
1172	0	0.2
1173	0	0.586683
1174	0	0.586855
1175	0	0.384058
1176	0	0.666589
1177	0	0.64329
1178	0	0.634254
1179	0	0.312312
1180	0	0.525771
1181	0	0.827269
1182	0	0.827029
1183	0	0.428873
1184	0	0.479694
1185	0	0.549489
1186	0	0.538702
1187	0	0.538772
1188	0	0.545902
1189	0	0.545937
1190	0	0.4
1191	0	0.4
1192	0	0.706794
1193	0	0.713156
1194	0	0.929221
1195	0	0.929221
1196	0	0.929221
1197	0	0.957447
1198	0	0
1199	0	0
1200	0	0
1201	0	0
1202	0	0
1203	1	0
1204	1	0
1205	0	0
1206	0	0
1207	0	0.383017
1208	0	0.292868
1209	0	0.23022
1210	0	0.263932
1211	0	0.247902
1212	0	0.21863
1213	0	0.17749
1214	0	0.149893
1215	0	0.142293
1216	0	0.445378
1217	0	0.144864
1218	0	0.101655
1219	0	0.103407
1220	0	0.0889912
1221	0	0.0999184
1222	0	0.0955882
1223	0	0.0882353
1224	0	0.0955882
1225	0	0.107754
1226	0	0.114887
1227	0	0.17881
1228	0	0
1229	0	0
1230	0	0
1231	0	0
1232	0	0
1233	0	0
1234	0	1
1235	0	0.590643
1236	0	0.279682
1237	0	0.269075
1238	0	0.246577
1239	0	0.394241
1240	0	0.401691
1241	0	0.419712
1242	0	0.289609
1243	0	0.293406
1244	0	0.342652
1245	0	0.354862
1246	0	0.385573
1247	0	0.40319
1248	0	0.406931
1249	0	0.413903
1250	0	0.430506
1251	0	0.449642
1252	0	0.455192
1253	0	0.564124
1254	0	0.902673
1255	0	0.905724
1256	0	0.905724
1257	0	0.905724
1258	1	1
1259	1	1
1260	1	1
1261	1	1
1262	1	1
1263	1	1
1264	0	1
1265	0	1
1266	0	1
1267	0	1
1268	0	1
1269	0	1
1270	0	1
1271	0	1
1272	0	1
1273	1	1
1274	1	1
1275	1	1
1276	0	0.99177
1277	0	0.99177
1278	0	0.99177
1279	0	0.99177
1280	0	0.99177
1281	0	0.991736
1282	0	0.991736
1283	0	0.991736
1284	0	0.991736
1285	0	0.991597
1286	0	0.991736
1287	1	0
1288	1	0
1289	0	0.99177
1290	0	0.99177
1291	0	0.99177
1292	0	0.99177
1293	0	0.99177
1294	0	1
1295	0	0.975445
1296	0	0.975445
1297	0	0.975445
1298	0	0
1299	0	0
1300	0	0
1301	0	0
1302	0	0
1303	0	0
1304	0	0.333333
1305	0	0.333333
1306	0	0.333333
1307	0	1
1308	0	1
1309	0	1
1310	0	1
1311	0	1
1312	0	1
1313	0	0.5
1314	0	0.5
1315	0	0.3
1316	0	0.789641
1317	0	0.518425
1318	0	0.647033
1319	0	1
1320	0	1
1321	0	1
1322	0	1
1323	0	0.991416
1324	0	0.991416
1325	0	0.983015
1326	0	0.991453
1327	0	0.991489
1328	0	0.991489
1329	0	0.991489
1330	0	0.974827
1331	0	0.991561
1332	0	0.991561
1333	0	0.991561
1334	0	0.991561
1335	0	1
1336	0	1
1337	0	1
1338	0	1
1339	0	1
1340	0	0.947169
1341	0	0.946935
1342	0	0.917907
1343	0	0.456995
1344	0	0.438481
1345	0	0.428754
1346	0	0.428754
1347	0	0.416065
1348	0	0.333333
1349	0	0.594951
1350	0	0.4
1351	0	0
1352	0	0
1353	0	0
1354	0	0
1355	0	0.188406
1356	0	0.237373
1357	0	0.249753
1358	0	0.307692
1359	0	0.298718
1360	0	0.198844
1361	0	0.164524
1362	0	0.32967
1363	0	0.233918
1364	0	0.269213
1365	0	0.352221
1366	0	0.275762
1367	0	0.810526
1368	0	0.810526
1369	0	0.652837
1370	0	1
1371	0	1
1372	0	1
1373	0	1
1374	0	1
1375	0	1
1376	0	1
1377	0	1
1378	1	1
1379	1	1
1380	1	1
1381	1	1
1382	1	1
1383	1	1
1384	1	1
1385	1	1
1386	1	1
1387	1	1
1388	1	1
1389	1	1
1390	0	1
1391	1	1
1392	1	1
1393	1	1
1394	1	1
1395	1	1
1396	1	1
1397	0	0.991597
1398	0	0.991561
1399	0	0.991561
1400	0	0.983158
1401	0	0.991561
1402	0	1
1403	0	1
1404	0	1
1405	0	1
1406	0	1
1407	0	1
1408	0	1
1409	0	1
1410	0	0.991561
1411	1	1
1412	1	1
1413	1	1
1414	1	1
1415	1	1
1416	1	1
1417	1	1
1418	1	1
1419	1	1
1420	1	1
1421	1	1
1422	1	1
1423	1	1
1424	0	0.991525
1425	0	0.991525
1426	0	0.991489
1427	0	0.983158
1428	0	0.517843
1429	0	0.507652
1430	0	1
1431	0	0.510988
1432	0	0.489806
1433	0	0
1434	0	1
1435	0	0.991416
1436	0	0.991561
1437	0	0.991561
1438	0	0.991561
1439	0	0.991561
1440	0	0.991561
1441	0	0.991561
1442	0	0.991561
1443	1	1
1444	1	1
1445	1	1
1446	1	1
1447	1	1
1448	0	1
1449	0	1
1450	0	0.991525
1451	0	0.950234
1452	0	0
1453	0	0
1454	0	0
1455	0	0
1456	0	0
1457	0	0
1458	0	0
1459	0	0
1460	0	0
1461	0	0.96
1462	0	0.855588
1463	0	0.794613
1464	0	0.766234
1465	0	0.493521
1466	0	0.456596
1467	0	0.423734
1468	0	0.413272
1469	0	0.333217
1470	0	0.293229
1471	0	0.223027
1472	0	0.213699
1473	0	0.209146
1474	0	0.193092
1475	0	0.155737
1476	0	0.231638
1477	0	0.221711
1478	0	0.388143
1479	0	0.386909
1480	0	0.404832
1481	0	0.717923
1482	0	0.759028
1483	0	0.758845
1484	0	1
1485	1	1
1486	0	1
1487	0	0.991667
1488	0	0.991667
1489	0	0.991667
1490	0	0.991667
1491	0	1
1492	1	1
1493	1	1
1494	1	1
1495	1	1
1496	1	1
1497	1	1
1498	1	1
1499	1	1
1500	0	0.991736
1501	0	0.991736
1502	0	0.991736
1503	0	0.991736
1504	0	0.991736
1505	0	0.991736
1506	0	0.991736
1507	0	0.991736
1508	0	0.991736
1509	0	0.991736
1510	0	0.983573
1511	0	0.983573
1512	0	0.99177
1513	1	1
1514	1	1
1515	1	1
1516	0	1
1517	0	1
1518	0	1
1519	0	1
1520	0	1
1521	0	1
1522	1	1
1523	1	1
1524	1	1
1525	1	1
1526	1	1
1527	1	1
1528	1	1
1529	1	1
1530	1	1
1531	0	1
1532	0	1
1533	0	1
1534	0	1
1535	1	1
1536	1	1
1537	1	1
1538	1	1
1539	1	1
1540	1	1
1541	1	1
1542	1	1
1543	1	1
1544	1	1
1545	1	1
1546	1	1
1547	1	1
1548	1	1
1549	1	1
1550	1	1
1551	1	1
1552	1	1
1553	1	1
1554	1	1
1555	1	1
1556	1	1
1557	1	1
1558	1	1
1559	1	1
1560	1	1
1561	0	0.99187
1562	0	0.99187
1563	0	0.99187
1564	0	0.99187
1565	0	0.983904
1566	0	0.991903
1567	0	0.991903
1568	0	0.991903
1569	0	0.991903
1570	0	0.991903
1571	0	0.991903
1572	0	0.991903
1573	0	0.991903
1574	0	0.991903
1575	0	0.991903
1576	0	0.714286
1577	0	0.714286
1578	0	0.714286
1579	0	0.930108
1580	0	0.666667
1581	0	0.47619
1582	0	0.190476
1583	0	0.793998
1584	0	0.792869
1585	0	0.40671
1586	0	0.342255
1587	0	0.344865
1588	0	0.350117
1589	0	0.409736
1590	0	0.392633
1591	0	0.637033
1592	0	0.645266
1593	0	0.663633
1594	0	0.658172
1595	0	0.691223
1596	0	0.689093
1597	0	0.690177
1598	0	0.690032
1599	0	0.701556
1600	0	0
1601	0	0
1602	1	0
1603	1	0
1604	1	0
1605	1	0
1606	1	0
1607	1	0
1608	1	0
1609	1	0
1610	1	0
1611	1	0
1612	1	0
1613	1	0
1614	1	0
1615	1	0
1616	1	0
1617	1	0
1618	0	0
1619	0	0
1620	0	0
1621	0	0
1622	0	0
1623	0	0
1624	0	0
1625	0	0.6
1626	0	0.333333
1627	0	0.355556
1628	0	0.463742
1629	0	0.301704
1630	0	0.297524
1631	0	0.24075
1632	0	0.249314
1633	0	0.257912
1634	0	0.259418
1635	0	0.254267
1636	0	0.248533
1637	0	0.248797
1638	0	0.288945
1639	0	0.192637
1640	0	0.188153
1641	0	0.203659
1642	0	0.163521
1643	0	0.152567
1644	0	0.139536
1645	0	0.231148
1646	0	0.220582
1647	0	0.222411
1648	0	0.246604
1649	0	0.24606
1650	0	0.22179
1651	0	0.246667
1652	0	0.255696
1653	0	0.362238
1654	0	0.386905
1655	0	0.386905
1656	0	0.386905
1657	0	0.398874
1658	0	0.402732
1659	0	0.577959
1660	0	0.411765
1661	0	0.166667
1662	0	0
1663	0	0
1664	0	0
1665	0	0.152003
1666	0	0.196801
1667	0	0.194332
1668	0	0.191198
1669	0	0.203898
1670	0	0.191622
1671	0	0.257317
1672	0	0.208709
1673	0	0.213213
1674	0	0.170537
1675	0	0.163935
1676	0	0.170145
1677	0	0.108476
1678	0	0.0841629
1679	0	0.0815888
1680	0	0.0865377
1681	0	0.192713
1682	0	0.328901
1683	0	0.440244
1684	0	0.155556
1685	0	0.194444
1686	0	0.0797721
1687	0	0.0861538
1688	0	0
1689	0	0.152435
1690	0	0.160588
1691	0	0.167775
1692	0	0.158371
1693	0	0.147036
1694	0	0.150719
1695	0	0.13967
1696	0	0.137882
1697	0	0.129535
1698	0	0.126397
1699	0	0.118716
1700	0	0.128751
1701	0	0.141667
1702	0	0.123285
1703	0	0
1704	0	0.113924
1705	0	0.0666667
1706	0	0.0666667
1707	0	0.1
1708	0	0
1709	0	0
1710	0	0
1711	0	0
1712	0	0
1713	0	0.351099
1714	0	0.0714286
1715	0	0.185104
1716	0	0.248034
1717	0	0.194444
1718	0	0.199926
1719	0	0.316176
1720	0	0.359104
1721	0	0.416346
1722	0	0.407093
1723	0	0.417163
1724	0	0.427802
1725	0	0.356675
1726	0	0.358058
1727	0	0.256122
1728	0	0.463199
1729	0	0.483044
1730	0	0.47506
1731	0	0.256418
1732	0	0.293009
1733	0	0.253361
1734	0	0.0769231
1735	0	0.123077
1736	0	0.111742
1737	0	0.148485
1738	0	0.160677
1739	0	0.131676
1740	0	0.144075
1741	0	0.131065
1742	0	0.129037
1743	0	0.24372
1744	0	0.250786
1745	0	0.334518
1746	0	0.322152
1747	0	0.563636
1748	0	0.335005
1749	0	0.390754
1750	0	0.453453
1751	0	0.575122
1752	0	0.967648
1753	0	0.967778
1754	0	0.959942
1755	0	0.960102
1756	0	0.960102
1757	0	0.960102
1758	0	0.960102
1759	0	0.960102
1760	0	0
1761	0	0
1762	0	0
1763	0	0
1764	0	0
1765	0	0
1766	0	0
1767	0	0
1768	0	0.959055
1769	0	0.9375
1770	0	0.706841
1771	0	0.61074
1772	0	0.598765
1773	0	0.411115
1774	0	0.242424
1775	0	0.145455
1776	0	0.563266
1777	0	0.292763
1778	0	0.410132
1779	0	0.163636
1780	0	0.153846
1781	0	0.306311
1782	0	0.310166
1783	0	0.318981
1784	0	0.315858
1785	0	0.316376
1786	0	0.50579
1787	0	0.602242
1788	0	0.654423
1789	0	0.636228
1790	0	0.659388
1791	0	0
1792	0	0
1793	0	0
1794	0	0
1795	0	0.652099
1796	0	0.643165
1797	0	0.643396
1798	0	0.570433
1799	0	0.57551
1800	0	0.57551
1801	0	0.580228
1802	0	0.589804
1803	0	0.594698
1804	0	0.756172
1805	0	1
1806	0	1
1807	1	1
1808	1	1
1809	1	1
1810	1	1
1811	1	1
1812	1	1
1813	0	0.991903
1814	0	0.991935
1815	0	0.991935
1816	1	1
1817	1	1
1818	1	1
1819	1	1
1820	1	1
1821	1	1
1822	1	1
1823	1	1
1824	1	1
1825	1	1
1826	1	1
1827	1	1
1828	1	1
1829	1	1
1830	1	1
1831	1	1
1832	1	1
1833	1	1
1834	1	1
1835	1	1
1836	0	0.676766
1837	1	1
1838	1	1
1839	1	1
1840	1	1
1841	0	1
1842	1	1
1843	1	1
1844	1	1
1845	1	1
1846	1	1
1847	1	1
1848	1	1
1849	1	1
1850	1	1
1851	1	1
1852	1	1
1853	1	1
1854	1	1
1855	1	1
1856	1	1
1857	1	1
1858	1	1
1859	1	1
1860	1	1
1861	1	1
1862	1	1
1863	1	1
1864	1	1
1865	1	1
1866	1	1
1867	1	1
1868	1	1
1869	1	1
1870	1	1
1871	1	1
1872	1	1
1873	1	1
1874	0	1
1875	0	0.975906
1876	0	0.975906
1877	0	0.975906
1878	0	0.975906
1879	0	0.991903
1880	0	0.983904
1881	0	0.983904
1882	0	0.983904
1883	0	0.991935
1884	0	0.96797
1885	0	0.333333
1886	0	0.975611
1887	0	0.959843
1888	0	0.959843
1889	0	0.959843
1890	0	0
1891	0	0
1892	0	0
1893	0	0
1894	0	0
1895	0	0
1896	0	0.943786
1897	0	0.943786
1898	0	0.928057
1899	0	0.860846
1900	0	0.850559
1901	0	0.827109
1902	0	0.810766
1903	0	0.428126
1904	0	0.18429
1905	0	0
1906	0	0.272938
1907	0	0.16406
1908	0	0
1909	0	0
1910	0	0
1911	0	0.25
1912	0	0.435897
1913	0	0.515152
1914	0	0.315657
1915	0	0.550372
1916	0	0.333333
1917	0	0.333333
1918	0	0.333333
1919	0	0.333333
1920	0	0.818182
1921	0	0.818182
1922	0	0.818182
1923	0	0.829616
1924	0	0.82936
1925	0	0.448529
1926	0	0.6
1927	0	1
1928	0	1
1929	0	1
1930	0	0.876126
1931	0	0.883669
1932	0	0.883734
1933	0	0.883734
1934	0	0.884028
1935	0	0.884028
1936	0	0.884615
1937	0	0.846154
1938	0	0.846154
1939	0	0.868923
1940	0	0.866782
1941	0	0.928705
1942	0	0.9602
1943	0	0.991803
1944	0	0
1945	0	0
1946	0	0
1947	0	0
1948	0	0
1949	0	0
1950	0	0
1951	0	1
1952	0	0.893039
1953	1	1
1954	1	1
1955	1	1
1956	1	1
1957	1	1
1958	1	1
1959	1	1
1960	1	1
1961	1	1
1962	1	1
1963	1	1
1964	1	1
1965	1	1
1966	1	1
1967	1	1
1968	1	1
1969	1	1
1970	1	1
1971	1	1
1972	1	1
1973	1	1
1974	1	1
1975	1	1
1976	1	1
1977	1	1
1978	0	0.991935
1979	1	1
1980	1	1
1981	1	1
1982	0	0.975709
1983	0	0.983904
1984	0	0.983904
1985	0	0.983839
1986	1	0
1987	1	0
1988	1	0
1989	1	0
1990	1	0
1991	0	0
1992	0	0.991968
1993	0	0.991968
1994	0	0.991968
1995	0	0.991968
1996	1	1
1997	1	1
1998	1	1
1999	1	1
2000	1	1
2001	1	1
2002	1	1
2003	1	1
2004	1	1
2005	1	1
2006	1	1
2007	1	1
2008	1	1
2009	1	1
2010	1	1
2011	1	1
2012	1	1
2013	1	1
2014	1	1
2015	1	1
2016	1	1
2017	1	1
2018	1	1
2019	1	1
2020	1	1
2021	1	1
2022	1	1
2023	1	1
2024	1	1
2025	1	1
2026	1	1
2027	1	1
2028	1	1
2029	1	1
2030	1	1
2031	1	1
2032	1	1
2033	1	1
2034	1	1
2035	1	1
2036	1	1
2037	1	1
2038	1	1
2039	1	1
2040	1	1
2041	1	1
2042	1	1
2043	1	1
2044	1	1
2045	1	1
2046	1	1
2047	1	1
2048	1	1
2049	1	1
2050	1	1
2051	1	1
2052	1	1
2053	1	1
2054	1	1
2055	1	1
2056	1	1
2057	1	1
2058	1	1
2059	1	1
2060	1	1
2061	1	1
2062	1	1
2063	1	1
2064	1	1
2065	1	1
2066	1	1
2067	1	1
2068	1	1
2069	1	1
2070	1	1
2071	1	1
2072	1	1
2073	1	1
2074	1	1
2075	1	1
2076	1	1
2077	1	1
2078	1	1
2079	1	1
2080	1	1
2081	1	1
2082	1	1
2083	1	1
2084	1	1
2085	1	1
2086	1	1
2087	1	1
2088	0	1
2089	0	1
2090	0	0.875
2091	0	1
2092	0	0.433824
2093	0	0.318681
2094	0	0.127273
2095	0	0.153846
2096	0	0.205128
2097	0	0.461538
2098	0	0.576923
2099	0	0.576923
2100	0	0.818182
2101	0	0.818182
2102	0	0.527273
2103	0	0.527273
2104	0	0.509091
2105	0	0.509091
2106	0	0.509091
2107	0	0.509091
2108	0	0.509091
2109	0	0
2110	0	0.846056
2111	0	0.1
2112	0	0.1
2113	0	0.314775
2114	0	1
2115	0	0.8
2116	0	0.8
2117	0	0.8
2118	0	0.8
2119	0	0.8
2120	0	0.8
2121	0	0.8
2122	0	0.8
2123	0	0.8
2124	0	0.8
2125	0	0.622222
2126	0	0.622222
2127	0	0.622222
2128	0	0.6
2129	0	0.6
2130	0	0.6
2131	0	0.3
2132	0	0.1
2133	0	0.1
2134	0	0
2135	0	0.355556
2136	0	1
2137	0	1
2138	0	1
2139	0	0.477102
2140	0	0.944062
2141	0	0.944062
2142	0	0.714286
2143	0	1
2144	0	1
2145	0	1
2146	1	1
2147	1	1
2148	1	1
2149	1	1
2150	1	1
2151	1	1
2152	1	1
2153	0	0
2154	0	0
2155	1	0
2156	1	0
2157	1	0
2158	1	0
2159	1	0
2160	1	0
2161	1	0
2162	1	0
2163	1	0
2164	0	0.991968
2165	0	1
2166	0	0.933333
2167	0	0.718422
2168	0	0.718422
2169	0	0.718422
2170	1	1
2171	1	1
2172	1	1
2173	1	1
2174	1	1
2175	1	1
2176	1	1
2177	1	1
2178	1	1
2179	1	1
2180	1	1
2181	1	1
2182	1	1
2183	1	1
2184	1	1
2185	1	1
2186	1	1
2187	1	1
2188	1	1
2189	1	1
2190	1	1
2191	1	1
2192	1	1
2193	1	1
2194	1	1
2195	1	1
2196	1	1
2197	1	1
2198	1	1
2199	1	1
2200	1	1
2201	1	1
2202	1	1
2203	1	1
2204	1	1
2205	1	1
2206	1	1
2207	1	1
2208	1	1
2209	1	1
2210	1	1
2211	1	1
2212	1	1
2213	1	1
2214	1	1
2215	1	1
2216	1	1
2217	1	1
2218	1	1
2219	1	1
2220	0	1
2221	0	1
2222	0	0.991968
2223	0	0.983904
2224	0	0.983904
2225	0	0.983904
2226	0	0.983839
2227	0	0.983839
2228	0	0.98364
2229	0	0
2230	0	0
2231	0	0
2232	0	0.955286
2233	0	0.783076
2234	0	0.783845
2235	0	1
2236	0	1
2237	0	1
2238	0	1
2239	0	1
2240	0	1
2241	0	0.333333
2242	0	0.2
2243	0	0.142857
2244	0	0.107143
2245	0	0.818631
2246	0	0.51634
2247	0	0.290553
2248	0	0.373152
2249	0	0.29219
2250	0	0.283787
2251	0	0.210916
2252	0	0.254545
2253	0	0.254545
2254	0	0.199034
2255	0	0.208498
2256	0	0.19013
2257	0	0.155838
2258	0	0.136821
2259	0	0.157257
2260	0	0.104236
2261	0	0.115152
2262	0	0.149074
2263	0	0.171788
2264	0	0.200962
2265	0	0.105376
2266	0	0.103175
2267	0	0.0988142
2268	0	0.108225
2269	0	0.0955882
2270	0	0.0955882
2271	0	0.153846
2272	0	0.181818
2273	0	0.181818
2274	0	0.214286
2275	0	0.285714
2276	0	0.285714
2277	0	0.285714
2278	0	0.285714
2279	0	0.4
2280	0	0.4
2281	0	0
2282	0	0
2283	0	0
2284	0	0
2285	0	0
2286	0	0
2287	0	0
2288	0	0
2289	0	0
2290	0	0.680786
2291	0	1
2292	0	1
2293	0	0
2294	0	0
2295	0	0.166667
2296	0	0.133333
2297	0	0.419355
2298	0	0.419638
2299	0	0.676923
2300	0	0.647561
2301	0	0.940489
2302	0	0.927936
2303	0	0.935865
2304	0	0.951589
2305	0	0.951589
2306	0	0.333333
2307	0	0.333333
2308	0	0.333333
2309	0	0.333333
2310	0	0.333333
2311	0	1
2312	0	1
2313	0	1
2314	0	0.99187
2315	0	0.99187
2316	0	0.99187
2317	0	0.99187
2318	0	0.99187
2319	0	0.99187
2320	0	0.99187
2321	0	0.991837
2322	0	0.991837
2323	0	0.991837
2324	0	1
2325	0	0.991837
2326	0	0.991837
2327	0	0.991837
2328	0	0.991837
2329	0	0.991837
2330	0	0.991837
2331	0	0.991837
2332	1	1
2333	1	1
2334	1	1
2335	0	0
2336	0	0
2337	0	0
2338	0	0
2339	0	0
2340	0	0
2341	0	0
2342	0	0
2343	0	0
2344	0	0
2345	0	0
2346	0	0
2347	0	0
2348	0	0
2349	0	0
2350	0	0
2351	0	0
2352	0	0
2353	0	0
2354	0	0
2355	0	0
2356	0	0
2357	0	0
2358	0	0
2359	0	0
2360	0	0
2361	0	0
2362	0	0
2363	0	0
2364	0	0
2365	0	0
2366	0	0
2367	0	0
2368	0	0
2369	0	0
2370	0	0.991803
2371	0	0.991803
2372	0	0.991803
2373	0	0.991803
2374	0	0.991803
2375	0	0
2376	0	0
2377	0	0
2378	0	0
2379	0	0
2380	0	0
2381	0	0
2382	0	0
2383	0	0
2384	0	0
2385	0	0
2386	0	0
2387	0	0
2388	0	0
2389	0	0
2390	0	0
2391	0	0
2392	0	0
2393	0	0
2394	0	0
2395	0	0
2396	0	0
2397	0	0
2398	0	0
2399	0	0
2400	0	0
2401	0	0
2402	0	0
2403	0	0
2404	0	0
2405	0	0
2406	0	0
2407	0	0
2408	0	0
2409	0	0
2410	0	0
2411	0	0
2412	1	0
2413	0	0
2414	0	0
2415	0	0
2416	0	0
2417	0	0
2418	0	0
2419	0	0
2420	1	0
2421	1	0
2422	1	0
2423	0	0
2424	0	0
2425	0	0
2426	0	0
2427	0	0
2428	0	0
2429	0	0
2430	0	0
2431	0	0
2432	0	0
2433	0	0
2434	0	0
2435	0	0
2436	0	0
2437	0	0
2438	0	0
2439	0	0
2440	0	0
2441	0	0
2442	0	0
2443	0	0
2444	0	0
2445	0	0
2446	0	0
2447	0	0
2448	0	0
2449	0	0
2450	0	0
2451	0	0
2452	0	0
2453	0	0
2454	1	0
2455	1	0
2456	1	0
2457	1	0
2458	1	0
2459	1	0
2460	0	0
2461	0	0
2462	0	0
2463	0	0
2464	0	0
2465	0	0
2466	0	0
2467	0	0
2468	0	0
2469	0	0.991803
2470	0	0.991803
2471	0	0.991803
2472	0	0
2473	0	0
2474	0	0
2475	0	0
2476	0	0
2477	0	0
2478	0	0
2479	0	0
2480	0	0
2481	0	0
2482	0	0
2483	0	0
2484	0	0
2485	0	0
2486	0	0
2487	0	0
2488	0	0
2489	0	0
2490	0	0
2491	0	0
2492	0	0
2493	0	0
2494	0	0
2495	0	0
2496	0	0
2497	0	0
2498	0	0
2499	0	0
2500	0	0
2501	0	0
2502	0	0
2503	0	0
2504	0	0
2505	0	0
2506	0	0
2507	0	0
2508	1	0
2509	1	0
2510	1	0
2511	1	0
2512	1	0
2513	1	0
2514	1	0
2515	0	0
2516	0	0
2517	0	0
2518	0	0
2519	1	0
2520	1	0
2521	1	0
2522	1	0
2523	1	0
2524	1	0
2525	0	0
2526	0	0
2527	0	0
2528	0	0
2529	0	0
2530	0	0
2531	0	0
2532	0	0
2533	0	0
2534	0	0
2535	0	0
2536	0	0
2537	0	0
2538	0	0
2539	0	0
2540	0	0
2541	0	0
2542	0	0
2543	0	0
2544	0	0
2545	0	0
2546	0	0
2547	0	0
2548	0	0
2549	0	0
2550	0	0
2551	0	0
2552	0	0
2553	0	0
2554	0	0
2555	0	0
2556	0	0
2557	0	0
2558	1	0
2559	1	0
2560	1	0
2561	1	0
2562	0	0
2563	0	0
2564	0	0
2565	0	0
2566	0	0
2567	0	0
2568	0	0
2569	0	0
2570	0	0
2571	0	0
2572	0	0
2573	0	0
2574	0	0
2575	0	0
2576	0	0
2577	0	0
2578	0	0
2579	0	0
2580	0	0
2581	0	0
2582	0	0
2583	0	0
2584	0	0
2585	0	0
2586	0	0
2587	0	0
2588	0	0
2589	0	0
2590	0	0
2591	0	0
2592	0	0
2593	0	0
2594	0	0
2595	0	0
2596	0	0
2597	0	0
2598	0	0
2599	0	0
2600	0	0
2601	0	0
2602	0	0
2603	0	0
2604	0	0
2605	0	0
2606	0	0
2607	0	0
2608	0	0
2609	0	0
2610	0	0
2611	0	0
2612	0	0
2613	0	0
2614	0	0
2615	0	0
2616	0	0
2617	0	0
2618	0	0
2619	0	0
2620	0	0
2621	0	0
2622	0	0
2623	0	0
2624	0	0
2625	1	0
2626	0	0
2627	0	0
2628	0	0
2629	0	0
2630	0	0
2631	0	0
2632	0	0
2633	0	0
2634	0	0
2635	0	0
2636	0	0
2637	0	0
2638	0	0
2639	0	0
2640	0	0
2641	0	0
2642	0	0
2643	0	0
2644	0	0
2645	0	0
2646	0	0
2647	0	0
2648	0	0
2649	0	0
2650	0	0
2651	0	0
2652	0	0
2653	0	0
2654	0	0
2655	0	0
2656	0	0
2657	0	0
2658	0	0
2659	0	0
2660	0	0
2661	0	0
2662	0	0
2663	0	0
2664	0	0
2665	0	0
2666	0	0
2667	0	0
2668	0	0
2669	0	0
2670	0	0
2671	1	0
2672	1	0
2673	1	0
2674	0	0
2675	0	0
2676	0	0
2677	0	0
2678	0	0
2679	1	0
2680	1	0
2681	0	0.975611
2682	0	0.98364
2683	0	0.975611
2684	0	0
2685	0	0
2686	0	0
2687	0	0
2688	0	0
2689	0	0
2690	0	0
2691	0	0
2692	0	0
2693	0	0
2694	0	0
2695	0	0
2696	0	0
2697	0	0
2698	0	0
2699	0	0
2700	0	0
2701	0	0
2702	0	0
2703	0	0
2704	0	0
2705	0	0
2706	0	0
2707	0	0
2708	0	0
2709	0	0
2710	0	0
2711	0	0
2712	0	0
2713	0	0
2714	0	0
2715	0	0
2716	0	0
2717	0	0
2718	0	0
2719	0	0
2720	0	0
2721	0	0
2722	0	0
2723	0	0
2724	0	0
2725	0	0
2726	0	0
2727	0	0
2728	0	0
2729	0	0
2730	0	0
2731	0	0
2732	0	0
2733	0	0
2734	0	0
2735	0	0
2736	0	0
2737	0	0
2738	0	0
2739	0	0
2740	0	0
2741	0	0
2742	0	0
2743	0	0
2744	0	0
2745	0	0
2746	0	0
2747	0	0
2748	0	0
2749	0	0
2750	0	0
2751	0	0
2752	0	0
2753	0	0
2754	0	0
2755	0	0
2756	0	0
2757	0	0.951717
2758	0	0.951717
2759	0	0.951717
2760	0	0.959518
2761	0	0.959354
2762	0	0.951522
2763	0	0
2764	0	0
2765	0	0
2766	0	0
2767	0	0
2768	0	0
2769	0	0
2770	0	0
2771	0	0
2772	0	0
2773	0	0
2774	0	0
2775	0	0
2776	0	0
2777	0	0
2778	0	0
2779	0	0
2780	0	0
2781	0	0
2782	0	0
2783	0	0
2784	0	0
2785	0	0
2786	0	0
2787	0	0
2788	0	0
2789	0	0
2790	0	0
2791	0	0
2792	0	0
2793	0	0
2794	0	0
2795	0	0
2796	0	0
2797	0	0
2798	0	0
2799	0	0
2800	0	0
2801	0	0
2802	0	0
2803	0	0
2804	0	0
2805	0	0
2806	0	0
2807	0	0
2808	0	0
2809	0	0
2810	0	0
