Site	ColumnScore	SumOfPairsScore
1	0	1
2	0	1
3	0	1
4	0	1
5	0	1
6	0	1
7	0	1
8	0	1
9	0	1
10	0	1
11	0	1
12	0	1
13	0	1
14	0	1
15	0	1
16	0	1
17	0	1
18	0	1
19	0	1
20	0	1
21	0	1
22	0	1
23	0	1
24	0	1
25	0	1
26	0	1
27	0	1
28	0	1
29	0	1
30	0	1
31	0	1
32	0	1
33	0	1
34	0	1
35	0	1
36	0	1
37	0	1
38	0	1
39	1	1
40	1	1
41	0	1
42	0	1
43	0	1
44	0	1
45	0	1
46	0	1
47	0	1
48	0	1
49	0	1
50	0	1
51	0	1
52	0	1
53	0	1
54	0	1
55	0	1
56	0	1
57	0	1
58	0	1
59	0	1
60	0	1
61	0	1
62	0	1
63	0	1
64	0	1
65	0	1
66	0	1
67	0	1
68	0	1
69	0	1
70	0	1
71	0	1
72	0	1
73	0	1
74	0	1
75	0	1
76	0	1
77	0	1
78	0	1
79	0	1
80	0	1
81	0	1
82	0	1
83	0	1
84	0	1
85	0	1
86	0	1
87	0	1
88	0	1
89	0	1
90	0	1
91	0	1
92	0	1
93	0	1
94	0	1
95	0	1
96	0	1
97	0	1
98	0	1
99	0	1
100	0	1
101	0	1
102	0	1
103	0	1
104	0	1
105	0	1
106	0	1
107	0	1
108	0	1
109	0	1
110	0	1
111	0	1
112	0	1
113	0	1
114	0	1
115	0	1
116	0	1
117	0	1
118	0	1
119	0	1
120	0	1
121	0	1
122	0	1
123	0	1
124	0	1
125	0	1
126	0	1
127	0	1
128	0	1
129	0	1
130	0	1
131	0	1
132	0	1
133	0	1
134	0	1
135	0	1
136	0	1
137	0	1
138	0	1
139	0	1
140	0	1
141	0	1
142	0	1
143	0	1
144	0	1
145	0	1
146	0	1
147	0	1
148	0	1
149	0	1
150	0	1
151	0	1
152	0	1
153	0	1
154	0	1
155	0	1
156	0	1
157	0	1
158	0	1
159	0	1
160	0	1
161	0	1
162	0	1
163	0	1
164	0	1
165	0	1
166	0	1
167	0	1
168	0	1
169	0	1
170	0	1
171	0	1
172	0	1
173	0	1
174	0	1
175	0	1
176	0	1
177	0	1
178	0	1
179	0	1
180	0	1
181	0	1
182	0	1
183	0	1
184	0	1
185	0	1
186	0	1
187	0	0.333333
188	0	0.333333
189	0	0.333333
190	0	0.333333
191	0	0.333333
192	0	0.333333
193	0	0.333333
194	0	0.333333
195	0	0.333333
196	0	0.333333
197	0	0.333333
198	0	0.333333
199	0	0.333333
200	0	0.333333
201	0	0.333333
202	0	0.333333
203	0	0.333333
204	0	0.333333
205	0	0.333333
206	0	0.333333
207	0	0.333333
208	0	0.333333
209	0	0.333333
210	0	0.333333
211	0	0.333333
212	0	0.333333
213	0	0.333333
214	0	0.333333
215	0	0.333333
216	0	0.333333
217	0	0.333333
218	0	0.333333
219	0	0.333333
220	0	0.333333
221	0	0.166667
222	0	0.166667
223	0	0.166667
224	0	0.166667
225	0	0.166667
226	0	0.1
227	0	0.1
228	0	0.1
229	0	0.1
230	0	0.1
231	0	0.1
232	0	0.1
233	0	0.1
234	0	0.1
235	0	0.1
236	0	0.25
237	0	0.768797
238	0	0.768797
239	0	0.772535
240	0	0.746347
241	0	0.746347
242	0	0.746347
243	0	0.746347
244	0	0.698361
245	0	0.698361
246	0	0.698361
247	0	0.698361
248	0	0.698361
249	0	0.698361
250	0	0.698361
251	0	0.698361
252	0	0.698361
253	0	0.698361
254	0	0.698361
255	0	0.698361
256	0	0.698361
257	0	0.746347
258	0	0.746347
259	0	0.746347
260	0	0.746347
261	0	0.746347
262	0	0.746347
263	0	0.746347
264	0	0.746347
265	0	0.746347
266	0	0.746347
267	0	0.721469
268	0	0.721469
269	0	0.721469
270	0	0.721469
271	0	0.721469
272	0	0.721469
273	0	0.721469
274	0	0.721469
275	0	0.721469
276	0	0.721469
277	0	0.721469
278	0	0.721469
279	0	0.721469
280	0	0.721469
281	0	0.721469
282	0	0.746347
283	0	0.746347
284	0	0.746347
285	0	0.746347
286	0	0.746347
287	0	0.746347
288	0	0.746347
289	0	0.746347
290	0	0.746347
291	0	0.746347
292	0	0.746347
293	0	0.746347
294	0	0.746347
295	0	0.746347
296	0	0.746347
297	0	0.772535
298	0	0.772535
299	0	0.772535
300	0	0.772535
301	0	0.772535
302	0	0.772535
303	0	0.799499
304	0	0.828571
305	0	0.828571
306	0	0.828571
307	0	0.828571
308	0	0.859259
309	0	0.859259
310	0	0.891684
311	0	0.891684
312	0	0.891684
313	0	0.891684
314	0	0.891684
315	0	0.891684
316	0	0.891684
317	0	0.891684
318	0	0.891684
319	0	0.891684
320	0	0.891684
321	0	0.891684
322	0	0.891684
323	0	0.891684
324	0	0.891684
325	0	0.891684
326	0	0.891684
327	0	0.891684
328	0	0.891684
329	0	0.891684
330	0	0.891684
331	0	0.891684
332	0	0.891684
333	0	0.891684
334	0	0.891684
335	0	0.891684
336	0	0.891684
337	0	0.891684
338	0	0.891684
339	0	0.891684
340	0	0.891684
341	0	0.891684
342	0	0.891684
343	0	0.891684
344	0	0.859259
345	0	0.859259
346	0	0.859259
347	0	0.859259
348	0	0.859259
349	0	0.859259
350	0	0.859259
351	0	0.859259
352	0	0.859259
353	0	0.859259
354	0	0.859259
355	0	0.859259
356	0	0.859259
357	0	0.859259
358	0	0.859259
359	0	0.859259
360	0	0.859259
361	0	0.859259
362	0	0.859259
363	0	0.859259
364	0	0.859259
365	0	0.859259
366	0	0.859259
367	0	0.859259
368	0	0.859259
369	0	0.859259
370	0	0.859259
371	0	0.859259
372	0	0.859259
373	0	0.859259
374	0	0.859259
375	0	0.859259
376	0	0.859259
377	0	0.859259
378	0	0.859259
379	0	0.859259
380	0	0.859259
381	0	0.859259
382	0	0.859259
383	0	0.859259
384	0	0.859259
385	0	0.859259
386	0	0.859259
387	0	0.859259
388	0	0.859259
389	0	0.859259
390	0	0.859259
391	0	0.859259
392	0	0.859259
393	0	0.859259
394	0	0.859259
395	0	0.859259
396	0	0.859259
397	0	0.859259
398	0	0.859259
399	0	0.859259
400	0	0.859259
401	0	0.859259
402	0	0.859259
403	0	0.859259
404	0	0.859259
405	0	0.859259
406	0	0.859259
407	0	0.859259
408	0	0.891684
409	0	0.891684
410	0	0.891684
411	0	0.891684
412	0	0.891684
413	0	0.891684
414	0	0.891684
415	0	0.891684
416	0	0.891684
417	0	0.891684
418	0	0.800125
419	0	0.800125
420	0	0.800125
421	0	0.800125
422	0	0.800125
423	0	0.800125
424	0	0.800125
425	0	0.800125
426	0	0.800125
427	0	0.800125
428	0	0.800125
429	0	0.800125
430	0	0.800125
431	0	0.800125
432	0	0.800125
433	0	0.800125
434	0	0.800125
435	0	0.800125
436	0	0.800125
437	0	0.800125
438	0	0.800125
439	0	0.800125
440	0	0.800125
441	0	0.800125
442	0	0.800125
443	0	0.800125
444	0	0.800125
445	0	0.800125
446	0	0.800125
447	0	0.800125
448	0	0.800125
449	0	0.800125
450	0	0.859259
451	0	0.859259
452	0	0.859259
453	0	0.859259
454	0	0.859259
455	0	0.859259
456	0	0.859259
457	0	0.859259
458	0	0.859259
459	0	0.859259
460	0	0.859259
461	0	0.859259
462	0	0.859259
463	0	0.859259
464	0	0.859259
465	0	0.859259
466	0	0.859259
467	0	0.859259
468	0	0.859259
469	0	0.859259
470	0	0.859259
471	0	0.859259
472	0	0.859259
473	0	0.859259
474	0	0.859259
475	0	0.859259
476	0	0.859259
477	0	0.859259
478	0	0.859259
479	0	0.859259
480	0	0.859259
481	0	0.859259
482	0	0.859259
483	0	0.859259
484	0	0.859259
485	0	0.859259
486	0	0.859259
487	0	0.859259
488	0	0.859259
489	0	0.859259
490	0	0.859259
491	0	0.859259
492	0	0.859259
493	0	0.859259
494	0	0.859259
495	0	0.859259
496	0	0.859259
497	0	0.859259
498	0	0.859259
499	0	0.859259
500	0	0.859259
501	0	0.859259
502	0	0.859259
503	0	0.859259
504	0	0.859259
505	0	0.859259
506	0	0.859259
507	0	0.859259
508	0	0.859259
509	0	0.859259
510	0	0.859259
511	0	0.859259
512	0	0.859259
513	0	0.859259
514	0	0.859259
515	0	0.859259
516	0	0.859259
517	0	0.859259
518	0	0.859259
519	0	0.859259
520	0	0.859259
521	0	0.859259
522	0	0.859259
523	0	0.859259
524	0	0.859259
525	0	0.859259
526	0	0.859259
527	0	0.859259
528	0	0.859259
529	0	0.859259
530	0	0.859259
531	0	0.859259
532	0	0.859259
533	0	0.859259
534	0	0.859259
535	0	0.859259
536	0	0.859259
537	0	0.859259
538	0	0.859259
539	0	0.859259
540	0	0.859259
541	0	0.891684
542	0	0.891684
543	0	0.891684
544	0	0.891684
545	0	0.891684
546	0	0.891684
547	0	0.891684
548	0	0.891684
549	0	0.891684
550	0	0.891684
551	0	0.891684
552	0	0.891684
553	0	0.891684
554	0	0.891684
555	0	0.891684
556	0	0.891684
557	0	0.891684
558	0	0.891684
559	0	0.891684
560	0	0.891684
561	0	0.891684
562	0	0.891684
563	0	0.891684
564	0	0.891684
565	0	0.891684
566	0	0.891684
567	0	0.891684
568	0	0.891684
569	0	0.891684
570	0	0.891684
571	0	0.891684
572	0	0.891684
573	0	0.891684
574	0	0.891684
575	0	0.891684
576	0	0.859259
577	0	0.859259
578	0	0.859259
579	0	0.891684
580	0	0.891684
581	0	0.891684
582	0	0.333333
583	0	0.333333
584	0	0.333333
585	0	0.333333
586	0	0.333333
587	0	0.333333
588	0	0.333333
589	0	0.333333
590	0	0.333333
591	0	0.333333
592	0	0.333333
593	0	0.333333
594	0	0.333333
595	0	0.333333
596	0	0.333333
597	0	0.333333
598	0	0.333333
599	0	0.333333
600	0	0.333333
601	0	0.333333
602	0	0.333333
603	0	0.333333
604	0	0.333333
605	0	0.333333
606	0	0.333333
607	0	0.333333
608	0	0.333333
609	0	0.333333
610	0	0.333333
611	0	0.333333
612	0	0.333333
613	0	0.333333
614	0	0.333333
615	0	0.333333
616	0	0.333333
617	0	0.333333
618	0	0.333333
619	0	0.333333
620	0	0.333333
621	0	0.333333
622	0	0.333333
623	0	0.333333
624	0	0.333333
625	0	0.333333
626	0	0.333333
627	0	0.333333
628	0	0.333333
629	0	0.333333
630	0	0.333333
631	0	0.333333
632	0	0.333333
633	0	0.333333
634	0	0.333333
635	0	0.333333
636	0	0.333333
637	0	0.333333
638	0	0.333333
639	0	0.333333
640	0	0.333333
641	0	0.333333
642	0	0.333333
643	0	0.333333
644	0	0.333333
645	0	0.333333
646	0	0.333333
647	0	0.333333
648	0	0.333333
649	0	0.333333
650	0	0.333333
651	0	0.333333
652	0	0.333333
653	0	0.333333
654	0	0.333333
655	0	0.333333
656	0	0.333333
657	0	0.333333
658	0	0.333333
659	0	0.333333
660	0	0.859259
661	0	0.859259
662	0	0.859259
663	0	0.859259
664	0	0.859259
665	0	0.859259
666	0	0.859259
667	0	0.859259
668	0	0.859259
669	0	0.859259
670	0	0.828571
671	0	0.828571
672	0	0.859259
673	0	0.828571
674	0	0.859259
675	0	0.859259
676	0	0.859259
677	0	0.859259
678	0	0.859259
679	0	0.859259
680	0	0.859259
681	0	0.859259
682	0	0.859259
683	0	0.859259
684	0	0.859259
685	0	0.859259
686	0	0.859259
687	0	0.859259
688	0	0.859259
689	0	0.859259
690	0	0.859259
691	0	0.859259
692	0	0.859259
693	0	0.859259
694	0	0.859259
695	0	0.859259
696	0	0.859259
697	0	0.859259
698	0	0.859259
699	0	0.859259
700	0	0.859259
701	0	0.859259
702	0	0.859259
703	0	0.859259
704	0	0.859259
705	0	0.859259
706	0	0.859259
707	0	0.859259
708	0	0.859259
709	0	0.859259
710	0	0.859259
711	0	0.859259
712	0	0.859259
713	0	0.859259
714	0	0.859259
715	0	0.859259
716	0	0.859259
717	0	0.825589
718	0	0.825589
719	0	0.825589
720	0	0.856744
721	0	0.856744
722	0	0.856744
723	0	0.856744
724	0	0.854136
725	0	0.848627
726	0	0.87343
727	0	0.87343
728	0	0.87343
729	0	0.87343
730	0	0.83285
731	0	0.83285
732	0	0.83285
733	0	0.755556
734	0	0.750505
735	0	0.821705
736	0	0.779623
737	0	0.779623
738	0	0.698782
739	0	0.442029
740	0	0.442029
741	0	0.422925
742	0	0.463203
743	0	0.557895
744	0	0.357895
745	0	0.3
746	0	0.3
747	0	0.220588
748	0	0.220588
749	0	0.15
750	0	0.153846
751	0	0.166667
752	0	0.415789
753	0	0.415789
754	0	0.461988
755	0	0.391813
756	0	0.391813
757	0	0.397661
758	0	0.397661
759	0	0.397661
760	0	0.357895
761	0	0.246667
762	0	0.268116
763	0	0.268116
764	0	0.257246
765	0	0.30303
766	0	0.329004
767	0	0.342857
768	0	0.378947
769	0	0.368421
770	0	0.409357
771	0	0.409357
772	0	0.409357
773	0	0.409357
774	0	0.409357
775	0	0.397661
776	0	0.461988
777	0	0.461988
778	0	0.461988
779	0	0.461988
780	0	0.51634
781	0	0.166667
782	0	0.166667
783	0	0.166667
784	0	0.166667
785	0	0.166667
786	0	0.166667
787	0	0.166667
788	0	0.166667
789	0	0
790	0	0
791	0	0
792	0	0
793	0	0
794	0	0
795	0	0
796	0	0
797	0	0
798	0	0
799	0	0.318937
800	0	0.345515
801	0	0.534343
802	0	0.534343
803	0	0.60202
804	0	0.551341
805	0	0.656023
806	0	0.560452
807	0	0.507226
808	0	0.438655
809	0	0.268321
810	0	0.233799
811	0	0.228864
812	0	0.230602
813	0	0.235056
814	0	0.230836
815	0	0.230939
816	0	0.228719
817	0	0.215581
818	0	0.21848
819	0	0.109836
820	0	0.047619
821	0	0
822	0	0.213578
823	0	0.0826613
824	0	0.0640394
825	0	0.174588
826	0	0.17757
827	0	0.2
828	0	0.666667
829	0	0.6
830	0	0
831	0	0
832	0	0
833	0	0.611111
834	0	0.349206
835	0	0.569906
836	0	0.575021
837	0	0.238095
838	0	0.304939
839	0	0.323301
840	0	0
841	0	0
842	0	0
843	0	0.0584677
844	0	0.0504032
845	0	0.0709677
846	0	0.301878
847	0	0.294722
848	0	0
849	0	0
850	0	0
851	0	0
852	0	0
853	0	0.0181818
854	0	0.36615
855	0	0.370671
856	0	0.28159
857	0	0.266234
858	0	0
859	0	0.1
860	0	0.411765
861	0	0.1
862	0	0.166667
863	0	0.166667
864	0	0.166667
865	0	0.166667
866	0	0.166667
867	0	0.166667
868	0	0.166667
869	0	0.166667
870	0	0.369053
871	0	0.376723
872	0	0.3656
873	0	0
874	0	0
875	0	0
876	0	0
877	0	0
878	0	0
879	0	0
880	0	0
881	0	0
882	0	0
883	0	0
884	0	0
885	0	0
886	0	0
887	0	0
888	0	0
889	0	0
890	0	0
891	0	0
892	0	0
893	0	0
894	0	0
895	0	0
896	0	0
897	0	0
898	0	0
899	0	0
900	0	0
901	0	0
902	0	0
903	0	0
904	0	0
905	0	0
906	0	0
907	0	0
908	0	0
909	0	0
910	0	0
911	0	0
912	0	0
913	0	0.047619
914	0	0.220836
915	0	0.222117
916	0	0.29096
917	0	0.290909
918	0	0.416667
919	0	0
920	0	0
921	0	0
922	0	0
923	0	0
924	0	0
925	0	0
926	0	0
927	0	0
928	0	0
929	0	0
930	0	0
931	0	0
932	0	0
933	0	0
934	0	0
935	0	0
936	0	0
937	0	0
938	0	0
939	0	0
940	0	0
941	0	0
942	0	0
943	0	0
944	0	0
945	0	0
946	0	0
947	0	0
948	0	0
949	0	0
950	0	0
951	0	0
952	0	0
953	0	0
954	0	0
955	0	0
956	0	0
957	0	0
958	0	0
959	0	0
960	0	0
961	0	0
962	0	0
963	0	0
964	0	0
965	0	0
966	0	0
967	0	0
968	0	0
969	0	0
970	0	0
971	0	0
972	0	0
973	0	0
974	0	0
975	0	0
976	0	0
977	0	0
978	0	0
979	0	0
980	0	0.166667
981	0	0.4
982	0	0.583333
983	0	0.583333
984	0	0.583333
985	0	0.583333
986	0	0.583333
987	0	0.583333
988	0	0.583333
989	0	0.583333
990	0	0.583333
991	0	0.583333
992	0	0.583333
993	0	0.583333
994	0	0.583333
995	0	0.583333
996	0	0.583333
997	0	0.583333
998	0	0.583333
999	0	0.583333
1000	0	0.583333
1001	0	0.583333
1002	0	0.583333
1003	0	0.583333
1004	0	0.583333
1005	0	0.583333
1006	0	0.583333
1007	0	0.583333
1008	0	0
1009	0	0
1010	0	0
1011	0	0
1012	0	0
1013	0	0
1014	0	0
1015	0	0
1016	0	0
1017	0	0
1018	0	0
1019	0	0
1020	0	0
1021	0	0
1022	0	0
1023	0	0
1024	0	0
1025	0	0
1026	0	0
1027	0	0
1028	0	0
1029	0	0
1030	0	0
1031	0	0
1032	0	0
1033	0	0
1034	0	0
1035	0	0
1036	0	0
1037	0	0
1038	0	0
1039	0	0
1040	0	0
1041	0	0
1042	0	0
1043	0	0
1044	0	0
1045	0	0
1046	0	0
1047	0	0
1048	0	0
1049	0	0
1050	0	0
1051	0	0
1052	0	0
1053	0	0
1054	0	0
1055	0	0
1056	0	0
1057	0	0.350821
1058	0	0.392733
1059	0	0.386367
1060	0	0
1061	0	0
1062	0	0
1063	0	0
1064	0	0
1065	0	0
1066	0	0
1067	0	0
1068	0	0
1069	0	0
1070	0	0
1071	0	0
1072	0	0
1073	0	0
1074	0	0
1075	0	0
1076	0	0
1077	0	0
1078	0	0
1079	0	0
1080	0	0
1081	0	0
1082	0	0
1083	0	0.552632
1084	0	0.780543
1085	0	0.512982
1086	0	0.434883
1087	0	0.311082
1088	0	0.234554
1089	0	0
1090	0	0.228526
1091	0	0.20733
1092	0	0
1093	0	0
1094	0	0
1095	0	0
1096	0	0
1097	0	0
1098	0	0
1099	0	0.212743
1100	0	0.358974
1101	0	0.358974
1102	0	0.358974
1103	0	0.358974
1104	0	0.358974
1105	0	0.358829
1106	0	0.133333
1107	0	0
1108	0	0
1109	0	0
1110	0	0
1111	0	0
1112	0	0
1113	0	0
1114	0	0
1115	0	0.204799
1116	0	0.223594
1117	0	0
1118	0	0
1119	0	0
1120	0	0
1121	0	0
1122	0	0
1123	0	0
1124	0	0
1125	0	0
1126	0	0
1127	0	0
1128	0	0
1129	0	0
1130	0	0
1131	0	0
1132	0	0
1133	0	0
1134	0	0
1135	0	0
1136	0	0
1137	0	0
1138	0	0
1139	0	0
1140	0	0
1141	0	0
1142	0	0
1143	0	0
1144	0	0
1145	0	0
1146	0	1
1147	0	1
1148	0	1
1149	0	1
1150	0	1
1151	0	0.333333
1152	0	0.333333
1153	0	0.166667
1154	0	0.0666667
1155	0	0.323657
1156	0	0.237852
1157	0	0.23336
1158	0	0
1159	0	0.047619
1160	0	0.2
1161	0	0.0833333
1162	0	0.0833333
1163	0	0.0549451
1164	0	0.16129
1165	0	0.518506
1166	0	0.429192
1167	0	0.294709
1168	0	0.270728
1169	0	0.280577
1170	0	0.285714
1171	0	0.285714
1172	0	0.285714
1173	0	0.304861
1174	0	0.1
1175	0	0.309091
1176	0	0.330882
1177	0	0.433824
1178	0	0.433824
1179	0	0.433824
1180	0	0.455882
1181	0	0.323441
1182	0	0.240553
1183	0	0.269231
1184	0	0.186813
1185	0	0.139706
1186	0	0.222222
1187	0	0.355524
1188	0	0.352572
1189	0	0.207831
1190	0	0.400767
1191	0	0.367012
1192	0	0.531194
1193	0	0.539496
1194	0	0.458022
1195	0	0.527141
1196	0	0.527141
1197	0	0.991968
1198	0	0.991968
1199	0	0.992
1200	0	0.968289
1201	0	0.968289
1202	0	0.992
1203	0	0.992
1204	0	0.992
1205	0	0.992
1206	0	0.992
1207	0	0.992
1208	0	0.992
1209	0	0.992
1210	0	0
1211	0	0
1212	0	0
1213	0	0
1214	0	0
1215	0	0
1216	0	0
1217	0	0
1218	0	0
1219	0	0
1220	0	0
1221	0	0
1222	0	0
1223	0	0
1224	0	0
1225	0	0
1226	0	0
1227	0	0
1228	0	0
1229	0	0
1230	0	0
1231	0	0
1232	0	0
1233	0	0
1234	0	0
1235	0	0
1236	0	0
1237	0	0
1238	0	0
1239	0	0
1240	0	0
1241	0	0
1242	0	0
1243	0	0
1244	0	0
1245	0	0
1246	0	0
1247	0	0
1248	0	0
1249	0	0
1250	0	0
1251	0	0
1252	0	0
1253	0	0
1254	0	0
1255	0	0
1256	0	0
1257	0	0
1258	0	0
1259	0	0
1260	0	0
1261	0	0
1262	0	0
1263	0	0
1264	0	0
1265	0	0
1266	0	0
1267	0	0
1268	0	0
1269	0	0
1270	0	0
1271	0	0
1272	0	0
1273	0	0
1274	0	0
1275	0	0
1276	0	0
1277	0	0
1278	0	0
1279	0	0
1280	0	0
1281	0	0
1282	0	0
1283	0	0
1284	0	0
1285	0	0
1286	0	0
1287	0	0
1288	0	0
1289	0	0
1290	0	0.992
1291	0	0.992
1292	0	0.992
1293	0	0.992
1294	0	0
1295	0	0.984032
1296	0	0.992
1297	0	0.992
1298	0	0.992
1299	0	0.992
1300	0	0.992
1301	0	0
1302	0	0
1303	0	0
1304	0	0
1305	0	0.992
1306	0	0.992
1307	0	0
1308	0	0
1309	0	0.97584
1310	0	0
1311	0	1
1312	0	0.976129
1313	0	0.976129
1314	0	0
1315	0	0
1316	0	0
1317	0	0
1318	0	0
1319	0	0
1320	0	0
1321	0	0
1322	0	0
1323	0	0
1324	0	0
1325	0	0
1326	0	0
1327	0	0
1328	0	0
1329	0	0
1330	0	0
1331	0	0
1332	0	0
1333	0	0
1334	0	0
1335	0	0
1336	0	0
1337	0	0
1338	0	0
1339	0	0
1340	0	0
1341	0	0
1342	0	0
1343	0	0
1344	0	0
1345	0	0
1346	0	0
1347	0	0
1348	0	0
1349	0	0
1350	0	0
1351	0	0
1352	0	0
1353	0	0
1354	0	0
1355	0	0
1356	0	0
1357	0	0
1358	0	0
1359	0	0
1360	0	0
1361	0	0
1362	0	0
1363	0	0
1364	0	0.333333
1365	0	0.333333
1366	0	0.992
1367	0	0.992
1368	0	0.992
1369	0	0.992
1370	0	0.992
1371	0	0.992
1372	0	0.992
1373	0	0.992
1374	0	0.992
1375	0	0
1376	0	0
1377	0	0
1378	0	0
1379	0	0
1380	0	0
1381	0	0
1382	0	0
1383	0	0
1384	0	0
1385	0	0
1386	0	0
1387	0	0
1388	0	0
1389	0	0
1390	0	0
1391	0	0
1392	0	0
1393	0	0
1394	0	0
1395	0	0
1396	0	0
1397	0	0
1398	0	0
1399	0	0
1400	0	0
1401	0	0
1402	0	0
1403	0	0
1404	0	0
1405	0	0
1406	0	0
1407	0	0
1408	0	0
1409	0	0
1410	0	0
1411	0	0
1412	0	0
1413	0	0
1414	0	0
1415	0	0
1416	0	0
1417	0	0
1418	0	0
1419	0	0
1420	0	0
1421	0	0
1422	0	0
1423	0	0
1424	0	0
1425	0	0
1426	0	0
1427	0	0
1428	0	0
1429	0	0
1430	0	0
1431	0	0
1432	0	0
1433	0	0
1434	0	0
1435	0	0
1436	0	0.992
1437	0	0.992
1438	0	0.992
1439	0	0.992
1440	0	0.992
1441	0	0.992
1442	0	0.992
1443	0	0.992
1444	0	0.992
1445	0	0.992
1446	0	0
1447	0	0
1448	0	0
1449	0	0
1450	0	0
1451	0	0
1452	0	0
1453	0	0
1454	0	0
1455	0	0
1456	0	0
1457	0	0
1458	0	0
1459	0	0
1460	0	0
1461	0	0
1462	0	0
1463	0	0
1464	0	0
1465	0	0
1466	0	0
1467	0	0
1468	0	0
1469	0	0
1470	0	0
1471	0	0
1472	0	0
1473	0	0
1474	0	0
1475	0	0
1476	0	0
1477	0	0
1478	0	0
1479	0	0
1480	0	0
1481	0	0
1482	0	0
1483	0	0
1484	0	0
1485	0	0
1486	0	0
1487	0	0
1488	0	0
1489	0	0
1490	0	0
1491	0	0
1492	0	0
1493	0	0
1494	0	0
1495	0	0
1496	0	0
1497	0	0
1498	0	0
1499	0	0
1500	0	0
1501	0	0
1502	0	0
1503	0	0
1504	0	0
1505	0	0
1506	0	0
1507	0	0
1508	0	0
1509	0	0
1510	0	0
1511	0	0
1512	0	0
1513	0	0
1514	0	0
1515	0	0
1516	0	0
1517	0	0
1518	0	0
1519	0	0
1520	0	0
1521	0	0
1522	0	0
1523	0	0
1524	0	0
1525	0	0
1526	0	0
1527	0	0
1528	0	0
1529	0	0
1530	0	0
1531	0	0
1532	0	0
1533	0	0
1534	0	0
1535	0	0
1536	0	0
1537	0	0
1538	0	0
1539	0	0
1540	0	0
1541	0	0
1542	0	0
1543	0	0
1544	0	0
1545	0	0
1546	0	0
1547	0	0
1548	0	0
1549	0	0
1550	0	0
1551	0	0
1552	0	0
1553	0	0
1554	0	0
1555	0	0
1556	0	0
1557	0	0
1558	0	0
1559	0	0
1560	0	0
1561	0	0
1562	0	0
1563	0	0
1564	0	0
1565	0	0
1566	0	0
1567	0	0
1568	0	0
1569	0	0
1570	0	0
1571	0	0
1572	0	0
1573	0	0
1574	0	0
1575	0	0
1576	0	0
1577	0	0
1578	0	0
1579	0	0
1580	0	0
1581	0	0
1582	0	0
1583	0	0
1584	0	0
1585	0	0
1586	0	0
1587	0	0
1588	0	0
1589	0	0
1590	0	0
1591	0	0
1592	0	0
1593	0	0
1594	0	0
1595	0	0
1596	0	0
1597	0	0
1598	0	0
1599	0	0
1600	0	0
1601	0	0
1602	0	0
1603	0	0
1604	0	0
1605	0	0
1606	0	0
1607	0	0
1608	0	0
1609	0	0
1610	0	0
1611	0	0
1612	0	0
1613	0	0
1614	0	0
1615	0	0
1616	0	0
1617	0	0
1618	0	0
1619	0	0
1620	0	0
1621	0	0
1622	0	0
1623	0	0
1624	0	0
1625	0	0
1626	0	0
1627	0	0
1628	0	0
1629	0	0
1630	0	0
1631	0	0
1632	0	0
1633	0	0
1634	0	0
1635	0	0
1636	0	0
1637	0	0
1638	0	0
1639	0	0
1640	0	0
1641	0	0
1642	0	0
1643	0	0
1644	0	0
1645	0	0
1646	0	0
1647	0	0
1648	0	0
1649	0	0
1650	0	0
1651	0	0
1652	0	0
1653	0	0
1654	0	0
1655	0	0
1656	0	0
1657	0	0
1658	0	0
1659	0	0
1660	0	0
1661	1	0
1662	1	0
1663	1	0
1664	1	0
1665	1	0
1666	0	0
1667	0	0
1668	0	0
1669	0	0
1670	0	0
1671	0	0
1672	0	0
1673	0	0
1674	0	0
1675	0	0
1676	0	0
1677	0	0
1678	0	0
1679	0	0
1680	0	0
1681	0	0
1682	1	0
1683	1	0
1684	1	0
1685	1	0
1686	1	0
1687	1	0
1688	1	0
1689	1	0
1690	0	0
1691	0	0
1692	0	0
1693	0	0
1694	0	0
1695	0	0
1696	0	0
1697	0	0
1698	0	0
1699	0	0
1700	0	0
1701	0	0
1702	0	0
1703	0	0
1704	0	0
1705	0	0
1706	0	0
1707	0	0
1708	0	0
1709	0	0
1710	0	0
1711	0	0
1712	0	0
1713	0	0
1714	1	0
1715	1	0
1716	0	0
1717	1	1
1718	1	1
1719	1	1
1720	1	1
1721	1	1
1722	1	1
1723	0	0.976193
1724	0	0
1725	0	0
1726	0	0
1727	0	0
1728	0	0
1729	0	0
1730	0	0
1731	0	0
1732	0	0
1733	0	0
1734	1	0
1735	1	0
1736	1	0
1737	1	0
1738	0	0.968289
1739	0	0.968289
1740	0	0.968289
1741	0	0.960418
1742	0	0.960418
1743	0	0.489092
1744	0	0.828956
1745	0	0.528996
1746	0	0.884337
1747	0	0
1748	0	0
1749	1	1
1750	1	1
1751	0	1
1752	0	1
1753	0	1
1754	0	1
1755	1	1
1756	1	1
1757	1	1
1758	1	1
1759	1	1
1760	0	1
1761	0	1
1762	0	1
1763	0	1
1764	0	1
1765	0	1
1766	0	0.333333
1767	1	1
1768	0	1
1769	0	1
1770	0	1
1771	0	1
1772	0	0.952049
1773	0	0
1774	0	0
1775	0	0
1776	0	1
1777	1	1
1778	1	1
1779	1	1
1780	1	1
1781	1	1
1782	1	1
1783	1	1
1784	1	1
1785	1	1
1786	1	1
1787	1	1
1788	1	1
1789	1	1
1790	1	1
1791	1	1
1792	1	1
1793	1	1
1794	1	1
1795	0	1
1796	0	1
1797	0	1
1798	0	0.75
1799	0	0.926936
1800	0	0.785099
1801	0	0.603333
1802	0	0.60607
1803	0	0.428907
1804	0	0.469697
1805	0	0.424242
1806	0	0.479065
1807	0	0.673514
1808	0	0.658635
1809	0	0.882353
1810	0	0.979221
1811	0	0.979221
1812	0	0.86241
1813	0	0.866911
1814	0	0.975937
1815	0	0.991935
1816	1	1
1817	0	0.930043
1818	0	0.930313
1819	0	0.930313
1820	0	1
1821	1	1
1822	1	1
1823	1	1
1824	1	1
1825	1	1
1826	1	1
1827	1	1
1828	1	1
1829	1	1
1830	1	1
1831	0	1
1832	0	0.848883
1833	0	0.848883
1834	0	1
1835	0	1
1836	0	0.563636
1837	0	0.731216
1838	0	0.635429
1839	0	0.635429
1840	0	0.611687
1841	0	0.594705
1842	0	0.584889
1843	0	0.584889
1844	0	0.666667
1845	0	0.666667
1846	0	0.514635
1847	0	0.502233
1848	0	0.453044
1849	0	0.431486
1850	0	0
1851	0	0
1852	0	0.25
1853	0	0.214286
1854	0	0.25
1855	0	0.659015
1856	0	0.555864
1857	0	0.371876
1858	0	0.140351
1859	0	0.176471
1860	0	0.175385
1861	0	0.222989
1862	0	0.198864
1863	0	0.166667
1864	0	0.180751
1865	0	0.178143
1866	0	0.181133
1867	0	0.1868
1868	0	0.226721
1869	0	0.220379
1870	0	0.333333
1871	0	0.5
1872	0	0.6
1873	0	0.6
1874	0	0.82238
1875	0	0.392434
1876	0	0
1877	0	0
1878	0	0
1879	0	0
1880	0	0
1881	0	0
1882	0	0
1883	0	0.1
1884	0	0.401983
1885	0	0.390987
1886	0	0.387961
1887	0	0.387018
1888	0	0.394501
1889	0	0
1890	0	0
1891	0	0
1892	0	0
1893	0	0
1894	0	0
1895	0	0
1896	0	0.404634
1897	0	0.410998
1898	0	0.209524
1899	0	0.28233
1900	0	0.270616
1901	0	0.181594
1902	0	0.161877
1903	0	0
1904	0	0
1905	0	0
1906	0	0.707602
1907	0	0.79085
1908	0	0.795322
1909	0	0.237666
1910	0	0.6
1911	0	0.6
1912	0	0.4
1913	0	0.4
1914	0	0.25928
1915	0	0.196581
1916	0	0.182266
1917	0	0.287356
1918	0	0.238897
1919	0	0.230056
1920	0	1
1921	0	0.714286
1922	0	0.714286
1923	0	0.364567
1924	0	0.681818
1925	0	0.818182
1926	0	0.945946
1927	0	0.948718
1928	0	0.861789
1929	0	1
1930	0	1
1931	0	0.889721
1932	0	0
1933	0	1
1934	0	1
1935	0	1
1936	0	1
1937	0	1
1938	1	1
1939	1	1
1940	1	1
1941	1	1
1942	1	1
1943	1	1
1944	1	1
1945	1	1
1946	1	1
1947	1	1
1948	1	1
1949	1	1
1950	1	1
1951	1	1
1952	1	1
1953	1	1
1954	1	1
1955	0	1
1956	0	1
1957	0	0.974141
1958	0	0.666667
1959	0	0.867783
1960	0	0.6
1961	0	0.469701
1962	0	0.755812
1963	0	0.333333
1964	0	0.861625
1965	0	0
1966	0	0.885432
1967	0	0.878811
1968	0	0.984064
1969	1	1
1970	1	1
1971	1	1
1972	1	1
1973	1	1
1974	1	1
1975	1	1
1976	1	1
1977	1	1
1978	1	1
1979	1	1
1980	0	1
1981	0	1
1982	0	0.615385
1983	0	0.527473
1984	0	0.844895
1985	0	0.827353
1986	0	0.834343
1987	0	0.813061
1988	0	0.957447
1989	0	0.95
1990	0	0.455183
1991	0	0.266667
1992	0	0.503401
1993	0	0.155556
1994	0	0.337375
1995	0	0.562716
1996	0	0.668757
1997	0	0.609581
1998	0	0.604761
1999	0	0.878066
2000	0	0.274725
2001	0	0.358974
2002	0	0.490909
2003	0	1
2004	0	0.968289
2005	0	0.968289
2006	1	1
2007	1	1
2008	1	1
2009	1	1
2010	1	1
2011	1	1
2012	1	1
2013	1	1
2014	1	1
2015	1	1
2016	1	1
2017	1	1
2018	1	1
2019	1	1
2020	1	1
2021	1	1
2022	1	1
2023	1	1
2024	1	1
2025	1	1
2026	1	1
2027	1	1
2028	1	1
2029	0	0
2030	0	0
2031	0	0.992
2032	0	0.992
2033	1	1
2034	1	1
2035	1	1
2036	1	1
2037	1	1
2038	1	1
2039	1	1
2040	1	1
2041	1	1
2042	1	1
2043	1	1
2044	1	1
2045	1	1
2046	1	1
2047	1	1
2048	1	1
2049	1	1
2050	1	1
2051	1	1
2052	1	1
2053	1	1
2054	1	1
2055	1	1
2056	1	1
2057	1	1
2058	1	1
2059	1	1
2060	1	1
2061	1	1
2062	1	1
2063	1	1
2064	1	1
2065	1	1
2066	0	1
2067	1	1
2068	1	1
2069	1	1
2070	1	1
2071	1	1
2072	1	1
2073	1	1
2074	1	1
2075	1	1
2076	1	1
2077	1	1
2078	1	1
2079	1	1
2080	1	1
2081	1	1
2082	1	1
2083	1	1
2084	1	1
2085	0	0.992
2086	0	0.992
2087	0	0.992
2088	1	0
2089	1	0
2090	1	0
2091	1	0
2092	1	0
2093	1	0
2094	1	0
2095	1	0
2096	1	0
2097	0	0.333333
2098	0	0.333333
2099	0	0.333333
2100	0	0.333333
2101	0	0.333333
2102	0	0.333333
2103	0	0.333333
2104	0	0.333333
2105	0	0.333333
2106	0	0.96826
2107	0	0.96826
2108	0	0.863519
2109	0	0.917639
2110	0	0.906853
2111	1	1
2112	1	1
2113	1	1
2114	1	1
2115	1	1
2116	1	1
2117	1	1
2118	1	1
2119	1	1
2120	1	1
2121	1	1
2122	1	1
2123	1	1
2124	1	1
2125	1	1
2126	1	1
2127	1	1
2128	0	1
2129	1	1
2130	1	1
2131	1	1
2132	1	1
2133	1	1
2134	1	1
2135	1	1
2136	1	1
2137	1	1
2138	1	1
2139	1	1
2140	1	1
2141	1	1
2142	0	0.992
2143	1	0
2144	0	0
2145	1	1
2146	1	1
2147	1	1
2148	1	1
2149	1	1
2150	1	1
2151	1	1
2152	1	1
2153	1	1
2154	1	1
2155	1	1
2156	1	1
2157	1	1
2158	1	1
2159	1	1
2160	1	1
2161	1	1
2162	1	1
2163	1	1
2164	1	1
2165	0	1
2166	0	1
2167	0	1
2168	0	1
2169	0	0.896753
2170	0	0.737013
2171	0	0.529293
2172	0	0.613365
2173	0	1
2174	0	1
2175	0	1
2176	0	1
2177	1	1
2178	1	1
2179	0	0.5
2180	0	0.5
2181	0	0.777778
2182	0	0.777778
2183	0	0.777778
2184	0	0.777778
2185	0	0.777778
2186	0	0.777778
2187	0	0.622222
2188	0	0.509091
2189	0	0.633549
2190	0	0.166667
2191	0	0.5
2192	0	0.556517
2193	0	0.596562
2194	0	0.596562
2195	0	1
2196	0	0.945349
2197	1	1
2198	1	1
2199	1	1
2200	1	1
2201	1	1
2202	1	1
2203	1	1
2204	1	1
2205	1	1
2206	0	1
2207	0	1
2208	0	0.992
2209	0	0.992
2210	0	0.992
2211	0	0.992
2212	1	1
2213	1	1
2214	1	1
2215	1	1
2216	0	0.984032
2217	0	0
2218	0	0
2219	0	0.976001
2220	0	1
2221	0	1
2222	0	1
2223	1	1
2224	0	0.666667
2225	0	0.666667
2226	0	0.929478
2227	0	0.841189
2228	0	0.841189
2229	0	0
2230	0	0
2231	0	0
2232	0	0
2233	0	0
2234	0	0
2235	0	0.952429
2236	0	1
2237	0	1
2238	0	1
2239	0	1
2240	0	1
2241	0	1
2242	1	1
2243	1	1
2244	1	1
2245	1	1
2246	1	1
2247	1	1
2248	1	1
2249	1	1
2250	1	1
2251	1	1
2252	1	1
2253	1	1
2254	1	1
2255	1	1
2256	1	1
2257	1	1
2258	1	1
2259	1	1
2260	1	1
2261	1	1
2262	1	1
2263	1	1
2264	1	1
2265	1	1
2266	1	1
2267	1	1
2268	1	1
2269	1	1
2270	1	1
2271	1	1
2272	1	1
2273	1	1
2274	1	1
2275	1	1
2276	1	1
2277	1	1
2278	1	1
2279	1	1
2280	1	1
2281	1	1
2282	1	1
2283	1	1
2284	1	1
2285	1	1
2286	1	1
2287	1	1
2288	1	1
2289	1	1
2290	1	1
2291	1	1
2292	1	1
2293	1	1
2294	1	1
2295	1	1
2296	1	1
2297	1	1
2298	1	1
2299	0	1
2300	0	0.992
2301	0	0.991968
2302	0	1
2303	0	1
2304	0	0.885907
2305	0	0.878363
2306	0	0
2307	0	0
2308	0	0
2309	0	0
2310	0	0
2311	0	0
2312	0	0
2313	0	0.832333
2314	0	0
2315	0	0
2316	0	0
2317	0	0
2318	0	0
2319	0	0.79776
2320	0	0.710131
2321	0	0.750356
2322	0	1
2323	0	0.89989
2324	0	0.968193
2325	1	0
2326	1	0
2327	1	0
2328	0	0
2329	0	0
2330	0	0
2331	0	1
2332	0	1
2333	0	1
2334	0	1
2335	0	1
2336	0	1
2337	0	1
2338	1	1
2339	0	0.984001
2340	0	0.976129
2341	1	1
2342	1	1
2343	1	1
2344	1	1
2345	1	1
2346	1	1
2347	1	1
2348	1	1
2349	1	1
2350	1	1
2351	1	1
2352	1	1
2353	1	1
2354	1	1
2355	1	1
2356	1	1
2357	0	0
2358	0	0
2359	0	0
2360	0	0
2361	0	0
2362	0	0
2363	0	0
2364	0	0
2365	0	0
2366	0	0
2367	0	0
2368	0	0
2369	0	0
2370	0	0
2371	0	0
2372	0	0
2373	0	0
2374	0	0
2375	0	0
2376	0	0
2377	0	0
2378	0	0
2379	0	0
2380	0	0
2381	0	0
2382	0	0
2383	0	0
2384	0	0
2385	0	0
2386	0	0
2387	0	0
2388	0	0
2389	0	0
2390	0	0
2391	0	0
2392	0	0
2393	0	0
2394	0	0
2395	1	0
2396	1	0
2397	1	0
2398	1	0
2399	1	0
2400	1	0
2401	0	0
2402	0	0
2403	0	0
2404	0	0
2405	0	0
2406	0	0
2407	0	0
2408	0	0
2409	0	0
2410	0	0
2411	0	0
2412	0	0
2413	0	0
2414	0	0
2415	0	0
2416	0	0
2417	0	0
2418	0	0
2419	0	0
2420	0	0
2421	0	0
2422	0	0
2423	0	0
2424	0	0
2425	0	0
2426	0	0
2427	0	0
2428	0	0
2429	0	0
2430	0	0
2431	0	0
2432	0	0
2433	0	0
2434	0	0
2435	0	0
2436	0	0
2437	0	0
2438	0	0
2439	0	0
2440	0	0
2441	0	0
2442	0	0
2443	0	0
2444	0	0.992
2445	0	0.818182
2446	0	0.818182
2447	0	0.818182
2448	0	0.915213
2449	0	0.915213
2450	0	0.75
2451	0	0.84869
2452	0	0.4
2453	0	0.425
2454	0	0.475107
2455	0	0.507196
2456	0	0.507196
2457	0	0
2458	0	0
2459	0	0
2460	0	0
2461	0	0
2462	0	0
2463	0	0
2464	0	0
2465	0	0
2466	0	0.530142
2467	0	0.438095
2468	0	0.228571
2469	0	0.677788
2470	0	0.404736
2471	0	0.390669
2472	0	0.437908
2473	0	1
2474	0	1
2475	0	1
2476	0	0
2477	0	0
2478	0	0
2479	0	0
2480	0	0
2481	0	0
2482	0	0
2483	0	0
2484	0	0
2485	0	0
2486	0	0
2487	0	0
2488	0	0
2489	0	0
2490	0	0
2491	0	0
2492	0	0
2493	0	0
2494	0	0
2495	0	0
2496	0	0
2497	0	0
2498	0	0
2499	0	0
2500	0	0
2501	0	0
2502	0	0
2503	0	0
2504	0	0
2505	0	0
2506	0	0
2507	0	0
2508	0	0
2509	1	0
2510	1	0
2511	0	0
2512	0	0
2513	0	0
2514	0	0
2515	0	0
2516	0	0
2517	0	0
2518	1	0
2519	1	0
2520	1	0
2521	1	0
2522	1	0
2523	1	0
2524	1	0
2525	1	0
2526	1	0
2527	0	0
2528	0	0
2529	0	0
2530	0	0
2531	0	0
2532	0	0
2533	0	0
2534	1	0
2535	1	0
2536	1	0
2537	1	0
2538	1	0
2539	1	0
2540	0	0
2541	0	0
2542	0	0
2543	0	0
2544	1	0
2545	1	0
2546	1	0
2547	1	0
2548	1	0
2549	1	0
2550	1	0
2551	1	0
2552	1	0
2553	1	0
2554	1	0
2555	1	0
2556	1	0
2557	1	0
2558	1	0
2559	1	0
2560	1	0
2561	0	0
2562	1	0
2563	1	0
2564	1	0
2565	0	0
2566	0	0
2567	0	0
2568	0	0
2569	0	0
2570	0	0
2571	0	0
2572	0	0
2573	0	0
2574	0	0
2575	0	0
2576	0	0
2577	0	0
2578	0	0
2579	0	0
2580	0	0
2581	0	0
2582	0	0
2583	0	0
2584	0	0
2585	0	0
2586	0	0
2587	0	0
2588	0	0
2589	0	0
2590	0	0
2591	0	0
2592	0	0
2593	0	0
2594	0	0
2595	0	0
2596	0	0
2597	0	0
2598	0	0
2599	0	0
2600	0	0
2601	1	0
2602	1	0
2603	1	0
2604	1	0
2605	1	0
2606	1	0
2607	1	0
2608	1	0
2609	1	0
2610	1	0
2611	1	0
2612	1	0
2613	1	0
2614	1	0
2615	1	0
2616	1	0
2617	1	0
2618	1	0
2619	1	0
2620	1	0
2621	1	0
2622	1	0
2623	1	0
2624	1	0
2625	1	0
2626	1	0
2627	1	0
2628	1	0
2629	1	0
2630	1	0
2631	1	0
2632	1	0
2633	1	0
2634	1	0
2635	1	0
2636	1	0
2637	1	0
2638	1	0
2639	1	0
2640	1	0
2641	1	0
2642	1	0
2643	1	0
2644	1	0
2645	1	0
2646	1	0
2647	1	0
2648	1	0
2649	1	0
2650	1	0
2651	1	0
2652	1	0
2653	1	0
2654	1	0
2655	1	0
2656	1	0
2657	1	0
2658	1	0
2659	1	0
2660	1	0
2661	1	0
2662	1	0
2663	1	0
2664	1	0
2665	1	0
2666	1	0
2667	1	0
2668	1	0
2669	1	0
2670	1	0
2671	1	0
2672	1	0
2673	1	0
2674	1	0
2675	1	0
2676	1	0
2677	1	0
2678	1	0
2679	1	0
2680	1	0
2681	1	0
2682	1	0
2683	1	0
2684	1	0
2685	1	0
2686	1	0
2687	1	0
2688	1	0
2689	1	0
2690	1	0
2691	1	0
2692	1	0
2693	1	0
2694	1	0
2695	1	0
2696	1	0
2697	1	0
2698	1	0
2699	1	0
2700	1	0
2701	1	0
2702	1	0
2703	1	0
2704	1	0
2705	1	0
2706	1	0
2707	1	0
2708	1	0
2709	1	0
2710	1	0
2711	1	0
2712	1	0
2713	1	0
2714	1	0
2715	1	0
2716	1	0
2717	1	0
2718	1	0
2719	1	0
2720	1	0
2721	1	0
2722	1	0
2723	1	0
2724	1	0
2725	1	0
2726	1	0
2727	1	0
2728	1	0
2729	1	0
2730	1	0
2731	1	0
2732	1	0
2733	1	0
2734	1	0
2735	1	0
2736	1	0
2737	1	0
2738	1	0
2739	1	0
2740	1	0
2741	1	0
2742	1	0
2743	1	0
2744	1	0
2745	1	0
2746	1	0
2747	1	0
2748	1	0
2749	1	0
2750	1	0
2751	1	0
2752	1	0
2753	1	0
2754	1	0
2755	1	0
2756	1	0
2757	1	0
2758	1	0
2759	1	0
2760	1	0
2761	1	0
2762	1	0
2763	1	0
2764	1	0
2765	1	0
2766	1	0
2767	1	0
2768	1	0
2769	1	0
2770	1	0
2771	1	0
2772	1	0
