Site	ColumnScore	SumOfPairsScore
1	1	0
2	1	0
3	1	0
4	1	0
5	1	0
6	1	0
7	1	0
8	1	0
9	1	0
10	1	0
11	1	0
12	1	0
13	1	0
14	1	0
15	1	0
16	1	0
17	1	0
18	1	0
19	1	0
20	1	0
21	1	0
22	1	0
23	1	0
24	1	0
25	1	0
26	1	0
27	1	0
28	1	0
29	1	0
30	1	0
31	1	0
32	1	0
33	1	0
34	1	0
35	1	0
36	1	0
37	1	0
38	1	0
39	1	0
40	1	0
41	1	0
42	1	0
43	1	0
44	1	0
45	1	0
46	1	0
47	1	0
48	1	0
49	1	0
50	1	0
51	1	0
52	1	0
53	1	0
54	1	0
55	1	0
56	1	0
57	1	0
58	1	0
59	1	0
60	1	0
61	1	0
62	1	0
63	1	0
64	1	0
65	1	0
66	1	0
67	1	0
68	1	0
69	1	0
70	1	0
71	1	0
72	1	0
73	1	0
74	1	0
75	1	0
76	1	0
77	1	0
78	1	0
79	1	0
80	1	0
81	1	0
82	1	0
83	1	0
84	1	0
85	1	0
86	1	0
87	1	0
88	1	0
89	1	0
90	1	0
91	1	0
92	1	0
93	1	0
94	1	0
95	1	0
96	1	0
97	1	0
98	1	0
99	1	0
100	1	0
101	1	0
102	1	0
103	1	0
104	1	0
105	1	0
106	1	0
107	1	0
108	1	0
109	1	0
110	1	0
111	1	0
112	1	0
113	1	0
114	1	0
115	1	0
116	1	0
117	1	0
118	1	0
119	1	0
120	1	0
121	1	0
122	1	0
123	1	0
124	1	0
125	1	0
126	1	0
127	1	0
128	1	0
129	1	0
130	1	0
131	1	0
132	1	0
133	1	0
134	1	0
135	1	0
136	1	0
137	1	0
138	1	0
139	1	0
140	1	0
141	1	0
142	1	0
143	1	0
144	1	0
145	1	0
146	1	0
147	1	0
148	1	0
149	1	0
150	1	0
151	1	0
152	1	0
153	1	0
154	1	0
155	1	0
156	1	0
157	1	0
158	1	0
159	1	0
160	1	0
161	1	0
162	1	0
163	1	0
164	1	0
165	1	0
166	1	0
167	1	0
168	1	0
169	1	0
170	1	0
171	1	0
172	1	0
173	1	0
174	1	0
175	1	0
176	1	0
177	1	0
178	1	0
179	1	0
180	1	0
181	1	0
182	1	0
183	1	0
184	1	0
185	1	0
186	1	0
187	1	0
188	1	0
189	1	0
190	1	0
191	1	0
192	1	0
193	1	0
194	1	0
195	1	0
196	1	0
197	1	0
198	1	0
199	1	0
200	1	0
201	1	0
202	1	0
203	1	0
204	1	0
205	1	0
206	1	0
207	1	0
208	1	0
209	1	0
210	1	0
211	1	0
212	1	0
213	1	0
214	1	0
215	1	0
216	1	0
217	1	0
218	1	0
219	1	0
220	1	0
221	1	0
222	1	0
223	1	0
224	1	0
225	1	0
226	1	0
227	1	0
228	1	0
229	1	0
230	1	0
231	1	0
232	1	0
233	1	0
234	1	0
235	1	0
236	1	0
237	1	0
238	1	0
239	1	0
240	1	0
241	1	0
242	1	0
243	1	0
244	1	0
245	1	0
246	1	0
247	1	0
248	1	0
249	1	0
250	1	0
251	1	0
252	1	0
253	1	0
254	1	0
255	1	0
256	1	0
257	1	0
258	1	0
259	1	0
260	1	0
261	1	0
262	1	0
263	1	0
264	1	0
265	1	0
266	1	0
267	1	0
268	1	0
269	1	0
270	1	0
271	1	0
272	1	0
273	1	0
274	1	0
275	1	0
276	1	0
277	1	0
278	1	0
279	1	0
280	1	0
281	1	0
282	1	0
283	1	0
284	1	0
285	1	0
286	1	0
287	1	0
288	1	0
289	1	0
290	1	0
291	1	0
292	1	0
293	1	0
294	1	0
295	1	0
296	1	0
297	1	0
298	1	0
299	1	0
300	1	0
301	1	0
302	1	0
303	1	0
304	1	0
305	1	0
306	1	0
307	1	0
308	1	0
309	1	0
310	1	0
311	1	0
312	1	0
313	1	0
314	1	0
315	1	0
316	0	0
317	0	0
318	0	0
319	0	0
320	0	0
321	0	0
322	0	0
323	0	0
324	0	0
325	0	0
326	0	0
327	0	0
328	0	0
329	0	0
330	0	0
331	0	0
332	0	0
333	0	0
334	0	0
335	0	0
336	0	0
337	0	0
338	0	0
339	0	0
340	0	0
341	0	0
342	0	0
343	0	0
344	0	0
345	0	0
346	0	0
347	0	0
348	0	0
349	0	0
350	0	0
351	0	0
352	0	0
353	0	0.2
354	0	0.2
355	0	0.2
356	0	0.142857
357	0	0.142857
358	0	0.142857
359	0	0.142857
360	0	0.142857
361	0	0.142857
362	0	0.142857
363	0	0.142857
364	0	0.142857
365	0	0.142857
366	0	0.178571
367	0	0.178571
368	0	0.178571
369	0	0.178571
370	0	0.178571
371	0	0.178571
372	0	0.178571
373	0	0.178571
374	0	0.178571
375	0	0.178571
376	0	0.178571
377	0	0.178571
378	0	0.25
379	0	0.25
380	0	0.25
381	0	0.178571
382	0	0.178571
383	0	0.178571
384	0	0.178571
385	0	0.392857
386	0	0.392857
387	0	0.392857
388	0	0.392857
389	0	0.392857
390	0	0.583333
391	0	0.583333
392	0	0.777778
393	0	0.777778
394	0	0.777778
395	0	0.8
396	0	0.8
397	0	0.8
398	0	0.990566
399	0	0.990566
400	0	0.991968
401	0	0.983904
402	0	0.968066
403	0	0.991903
404	0	0
405	0	0
406	0	0
407	0	0
408	0	0
409	0	0.983968
410	0	0.983968
411	0	0.983968
412	0	0.989691
413	0	0.646424
414	0	0.983968
415	0	0.944724
416	0	0.333333
417	0	0.991968
418	0	0.991968
419	0	0.991968
420	0	0.991968
421	0	0.991968
422	0	0.991968
423	0	0.991968
424	0	0.991968
425	0	1
426	0	1
427	0	1
428	0	0.580547
429	0	1
430	0	1
431	0	1
432	0	1
433	0	1
434	0	0.5
435	0	0.5
436	0	0.5
437	0	0.166667
438	0	0.333333
439	0	0.333333
440	0	0.333333
441	0	0.333333
442	0	0.333333
443	0	0.333333
444	0	0.333333
445	0	0.333333
446	0	0.333333
447	0	0.333333
448	1	1
449	1	1
450	0	1
451	0	1
452	0	1
453	0	1
454	1	1
455	1	1
456	1	1
457	1	1
458	1	1
459	0	1
460	1	1
461	1	1
462	1	1
463	1	1
464	1	1
465	1	1
466	1	1
467	1	1
468	1	1
469	1	1
470	1	1
471	1	1
472	1	1
473	1	1
474	1	1
475	1	1
476	1	1
477	1	1
478	1	1
479	1	1
480	1	1
481	1	1
482	1	1
483	1	1
484	1	1
485	1	1
486	1	1
487	1	1
488	1	1
489	1	1
490	1	1
491	1	1
492	1	1
493	1	1
494	1	1
495	1	1
496	1	1
497	1	1
498	1	1
499	1	1
500	1	1
501	1	1
502	1	1
503	1	1
504	1	1
505	1	1
506	1	1
507	1	1
508	1	1
509	1	1
510	1	1
511	1	1
512	1	1
513	1	1
514	1	1
515	1	1
516	1	1
517	1	1
518	1	1
519	1	1
520	1	1
521	1	1
522	1	1
523	1	1
524	1	1
525	1	1
526	1	1
527	1	1
528	1	1
529	1	1
530	1	1
531	1	1
532	1	1
533	1	1
534	1	1
535	1	1
536	1	1
537	1	1
538	1	1
539	1	1
540	1	1
541	1	1
542	1	1
543	1	1
544	1	1
545	1	1
546	1	1
547	1	1
548	1	1
549	1	1
550	1	1
551	1	1
552	1	1
553	1	1
554	1	1
555	1	1
556	1	1
557	1	1
558	1	1
559	1	1
560	1	1
561	1	1
562	1	1
563	1	1
564	1	1
565	1	1
566	1	1
567	1	1
568	1	1
569	1	1
570	1	1
571	1	1
572	1	1
573	1	1
574	1	1
575	1	1
576	1	1
577	1	1
578	1	1
579	1	1
580	1	1
581	1	1
582	1	1
583	1	1
584	1	1
585	1	1
586	1	1
587	1	1
588	1	1
589	1	1
590	1	1
591	1	1
592	1	1
593	1	1
594	1	1
595	1	1
596	1	1
597	1	1
598	1	1
599	1	1
600	1	1
601	1	1
602	1	1
603	1	1
604	1	1
605	1	1
606	1	1
607	1	1
608	1	1
609	1	1
610	1	1
611	1	1
612	1	1
613	1	1
614	0	0.992
615	0	0.991968
616	0	1
617	0	0.960643
618	1	1
619	1	1
620	1	1
621	0	1
622	0	1
623	0	0.991968
624	0	1
625	0	0.90681
626	0	0.58377
627	0	0.455133
628	0	0.453044
629	0	0.466988
630	0	0.463839
631	0	0.506217
632	0	0.506217
633	0	0.506217
634	0	0.510299
635	0	1
636	1	1
637	1	1
638	1	1
639	1	1
640	1	1
641	1	1
642	1	1
643	1	1
644	1	1
645	1	1
646	1	1
647	1	1
648	1	1
649	1	1
650	1	1
651	1	1
652	1	1
653	1	1
654	1	1
655	1	1
656	1	1
657	1	1
658	1	1
659	1	1
660	1	1
661	1	1
662	1	1
663	1	1
664	1	1
665	1	1
666	1	1
667	1	1
668	1	1
669	1	1
670	1	1
671	1	1
672	1	1
673	1	1
674	1	1
675	1	1
676	1	1
677	1	1
678	1	1
679	1	1
680	1	1
681	1	1
682	1	1
683	1	1
684	1	1
685	1	1
686	1	1
687	1	1
688	1	1
689	1	1
690	1	1
691	1	1
692	1	1
693	1	1
694	1	1
695	1	0
696	1	1
697	1	1
698	1	1
699	1	1
700	1	1
701	1	1
702	1	1
703	1	1
704	1	1
705	1	1
706	1	1
707	1	1
708	1	1
709	1	1
710	1	1
711	1	1
712	1	1
713	1	1
714	1	1
715	1	1
716	1	1
717	1	1
718	1	1
719	1	1
720	1	1
721	1	1
722	1	1
723	1	1
724	1	1
725	1	1
726	1	1
727	1	1
728	1	1
729	1	1
730	1	1
731	1	1
732	1	1
733	1	1
734	1	1
735	1	1
736	1	1
737	1	1
738	1	1
739	1	1
740	1	1
741	1	1
742	1	1
743	1	1
744	1	1
745	1	1
746	1	1
747	1	1
748	1	1
749	1	1
750	1	1
751	1	1
752	1	1
753	1	1
754	1	1
755	1	1
756	1	1
757	1	1
758	1	1
759	1	1
760	1	1
761	1	1
762	1	1
763	1	1
764	1	1
765	1	1
766	1	1
767	1	1
768	1	1
769	1	1
770	1	1
771	1	1
772	1	1
773	1	1
774	1	1
775	1	1
776	1	1
777	1	1
778	1	1
779	1	1
780	1	1
781	1	1
782	1	1
783	1	1
784	1	1
785	1	1
786	1	1
787	1	1
788	1	1
789	1	1
790	1	1
791	1	1
792	1	1
793	1	1
794	1	1
795	1	1
796	1	1
797	1	1
798	1	1
799	1	1
800	1	1
801	1	1
802	1	1
803	1	1
804	1	1
805	1	1
806	1	1
807	1	1
808	1	1
809	1	1
810	1	1
811	1	1
812	1	1
813	1	1
814	1	1
815	1	1
816	1	1
817	1	1
818	1	1
819	1	1
820	1	1
821	1	1
822	1	1
823	1	1
824	1	1
825	1	1
826	1	1
827	1	1
828	1	1
829	1	1
830	1	1
831	1	1
832	1	1
833	1	1
834	1	1
835	1	1
836	1	1
837	1	1
838	1	1
839	1	1
840	1	1
841	1	1
842	1	1
843	1	1
844	1	1
845	1	1
846	1	1
847	1	1
848	1	1
849	1	1
850	1	1
851	1	1
852	1	1
853	1	1
854	1	1
855	1	1
856	1	1
857	1	1
858	1	1
859	1	1
860	1	1
861	1	1
862	1	1
863	1	1
864	1	1
865	1	1
866	1	1
867	1	1
868	1	1
869	1	1
870	1	1
871	1	1
872	1	1
873	1	1
874	1	1
875	1	1
876	1	1
877	1	1
878	1	1
879	1	1
880	1	1
881	1	1
882	1	1
883	1	1
884	1	1
885	1	1
886	1	1
887	1	1
888	1	1
889	1	1
890	1	1
891	1	1
892	1	1
893	1	1
894	1	1
895	1	1
896	1	1
897	1	1
898	1	1
899	1	1
900	1	1
901	1	1
902	1	1
903	1	1
904	1	1
905	1	1
906	1	1
907	1	1
908	1	1
909	1	1
910	1	1
911	1	1
912	1	1
913	1	1
914	1	1
915	1	1
916	1	1
917	1	1
918	1	1
919	1	1
920	1	1
921	1	1
922	1	1
923	1	1
924	1	1
925	1	1
926	1	1
927	1	1
928	1	1
929	1	1
930	1	1
931	1	1
932	1	1
933	1	1
934	1	1
935	1	1
936	1	1
937	1	1
938	1	1
939	1	1
940	1	1
941	1	1
942	1	1
943	1	1
944	1	1
945	1	1
946	1	1
947	1	1
948	1	1
949	1	1
950	1	1
951	1	1
952	1	1
953	1	1
954	1	1
955	1	1
956	1	1
957	1	1
958	1	1
959	1	1
960	1	1
961	1	1
962	1	1
963	1	1
964	1	1
965	1	1
966	1	1
967	1	1
968	1	1
969	1	1
970	1	1
971	1	1
972	1	1
973	1	1
974	1	1
975	1	1
976	1	1
977	1	1
978	1	1
979	1	1
980	1	1
981	1	1
982	1	1
983	1	1
984	1	1
985	1	1
986	1	1
987	1	1
988	1	1
989	1	1
990	0	0
991	0	0
992	0	0.940751
993	0	0.560996
994	0	0
995	1	1
996	1	1
997	1	1
998	1	1
999	1	1
1000	1	1
1001	1	1
1002	1	1
1003	1	1
1004	1	1
1005	0	0.666667
1006	1	1
1007	1	1
1008	1	1
1009	1	1
1010	1	1
1011	1	1
1012	1	1
1013	0	0.6
1014	0	0.6
1015	0	0.6
1016	0	0.6
1017	0	0.6
1018	0	0.6
1019	0	0.6
1020	0	0.6
1021	0	0
1022	0	0
1023	1	1
1024	1	1
1025	1	1
1026	1	1
1027	1	1
1028	1	1
1029	1	1
1030	1	1
1031	1	1
1032	1	1
1033	1	1
1034	1	1
1035	1	1
1036	1	1
1037	1	1
1038	1	1
1039	1	1
1040	1	1
1041	1	1
1042	1	1
1043	1	1
1044	1	1
1045	1	1
1046	1	1
1047	1	1
1048	1	1
1049	1	1
1050	1	1
1051	1	1
1052	1	1
1053	1	1
1054	1	1
1055	1	1
1056	1	1
1057	1	1
1058	1	1
1059	1	1
1060	1	1
1061	1	1
1062	1	1
1063	1	1
1064	1	1
1065	1	1
1066	1	1
1067	0	1
1068	0	0.976193
1069	0	0.976193
1070	1	1
1071	1	1
1072	1	1
1073	1	1
1074	1	1
1075	1	1
1076	1	1
1077	1	1
1078	1	1
1079	1	1
1080	1	1
1081	1	1
1082	1	1
1083	1	1
1084	1	1
1085	0	1
1086	0	0.976129
1087	0	0.984064
1088	0	0.984064
1089	0	0.984064
1090	0	0.984064
1091	0	0.984064
1092	0	0
1093	0	0.69697
1094	0	0.466667
1095	0	0.484183
1096	0	1
1097	0	0
1098	0	0
1099	0	0.458371
1100	0	0.385478
1101	0	0.319068
1102	0	0.324048
1103	0	0.441558
1104	0	0.545248
1105	0	0.65192
1106	0	0.803546
1107	0	0.819277
1108	0	0.992
1109	0	0.992
1110	1	1
1111	1	1
1112	1	1
1113	1	1
1114	1	1
1115	1	1
1116	1	1
1117	1	1
1118	1	1
1119	1	1
1120	1	1
1121	1	1
1122	1	1
1123	1	1
1124	1	1
1125	1	1
1126	1	1
1127	1	1
1128	1	1
1129	1	1
1130	1	1
1131	1	1
1132	1	1
1133	1	1
1134	1	1
1135	1	1
1136	1	1
1137	1	1
1138	1	1
1139	1	1
1140	1	1
1141	1	1
1142	1	1
1143	1	1
1144	1	1
1145	1	1
1146	1	1
1147	1	1
1148	1	1
1149	1	1
1150	1	1
1151	1	1
1152	1	1
1153	1	1
1154	1	1
1155	1	1
1156	1	1
1157	1	1
1158	1	1
1159	1	1
1160	1	1
1161	1	1
1162	1	1
1163	1	1
1164	1	1
1165	1	1
1166	1	1
1167	1	1
1168	1	1
1169	1	1
1170	1	1
1171	1	1
1172	1	1
1173	1	1
1174	1	1
1175	1	1
1176	1	1
1177	1	1
1178	1	1
1179	1	1
1180	1	1
1181	1	1
1182	1	1
1183	1	1
1184	1	1
1185	0	1
1186	0	1
1187	0	0.976002
1188	0	0.846154
1189	0	0.846154
1190	0	0.527473
1191	0	0.847871
1192	0	0.847871
1193	0	0.617831
1194	0	0.331116
1195	0	0.480244
1196	0	0.46922
1197	0	0.598198
1198	0	0.457516
1199	0	0.945349
1200	0	0.945349
1201	0	0.945349
1202	0	0.945349
1203	0	1
1204	1	1
1205	1	1
1206	1	1
1207	1	1
1208	1	1
1209	1	1
1210	1	1
1211	1	1
1212	1	1
1213	1	1
1214	1	1
1215	1	1
1216	1	1
1217	1	1
1218	1	1
1219	1	1
1220	1	1
1221	1	1
1222	1	1
1223	1	1
1224	1	1
1225	1	1
1226	1	1
1227	1	1
1228	1	1
1229	0	0.877154
1230	0	0.913209
1231	0	0.991453
1232	0	0
1233	1	1
1234	1	1
1235	1	1
1236	1	1
1237	1	1
1238	1	1
1239	1	1
1240	1	1
1241	1	1
1242	1	1
1243	1	1
1244	1	1
1245	1	1
1246	1	1
1247	1	1
1248	1	1
1249	1	1
1250	1	1
1251	1	1
1252	1	1
1253	1	1
1254	1	1
1255	1	1
1256	1	1
1257	1	1
1258	1	1
1259	1	1
1260	1	1
1261	1	1
1262	1	1
1263	1	1
1264	1	1
1265	1	1
1266	1	1
1267	1	1
1268	1	1
1269	1	1
1270	1	1
1271	1	1
1272	1	1
1273	1	1
1274	1	1
1275	1	1
1276	1	1
1277	1	1
1278	1	1
1279	1	1
1280	1	1
1281	1	1
1282	1	1
1283	1	1
1284	1	1
1285	1	1
1286	1	1
1287	1	1
1288	1	1
1289	1	1
1290	1	1
1291	1	1
1292	1	1
1293	1	1
1294	1	1
1295	0	0
1296	0	0
1297	0	0
1298	0	0.99005
1299	0	0.867254
1300	0	1
1301	0	0.466667
1302	0	0.606256
1303	0	0.696075
1304	0	0.708787
1305	0	0.708787
1306	1	1
1307	1	1
1308	1	1
1309	1	1
1310	1	1
1311	1	1
1312	1	1
1313	1	1
1314	0	0.945349
1315	0	1
1316	0	1
1317	0	0.886747
1318	0	0.886747
1319	0	0.885889
1320	0	0.885889
1321	0	0.885889
1322	0	0
1323	0	0
1324	1	0
1325	1	0
1326	1	0
1327	1	0
1328	1	0
1329	1	0
1330	1	0
1331	1	0
1332	1	0
1333	1	0
1334	1	0
1335	1	0
1336	1	0
1337	1	0
1338	1	0
1339	0	0.333333
1340	0	0.285714
1341	1	1
1342	0	1
1343	0	1
1344	0	1
1345	0	1
1346	1	1
1347	1	1
1348	1	1
1349	1	1
1350	1	1
1351	1	1
1352	1	1
1353	0	0.992
1354	0	0.992
1355	0	0.992
1356	0	0.992
1357	1	1
1358	1	1
1359	1	1
1360	1	1
1361	1	1
1362	1	1
1363	1	1
1364	1	1
1365	1	1
1366	1	1
1367	1	1
1368	1	1
1369	1	1
1370	1	1
1371	1	1
1372	1	1
1373	1	1
1374	1	1
1375	1	1
1376	1	1
1377	1	1
1378	1	1
1379	1	1
1380	1	1
1381	1	1
1382	1	1
1383	1	1
1384	0	1
1385	0	1
1386	0	1
1387	0	1
1388	0	1
1389	0	1
1390	0	1
1391	0	1
1392	0	1
1393	0	0
1394	0	0
1395	0	0
1396	0	0
1397	0	0
1398	0	0
1399	0	0
1400	0	0
1401	0	0
1402	0	0
1403	0	0
1404	0	0
1405	0	0
1406	0	0
1407	0	0
1408	0	0
1409	0	0
1410	0	0
1411	0	0
1412	0	0.983968
1413	0	0.983968
1414	0	0.983968
1415	0	0.983968
1416	0	0.983968
1417	0	0.983968
1418	0	0.983968
1419	0	0.983968
1420	0	0
1421	0	0
1422	0	0
1423	0	0
1424	0	0.976001
1425	0	0.976001
1426	0	0
1427	0	0
1428	0	0
1429	0	0
1430	0	0
1431	0	0
1432	0	0
1433	0	0
1434	1	0
1435	1	0
1436	1	0
1437	0	0
1438	0	0
1439	0	0
1440	0	0
1441	0	0
1442	0	0
1443	0	0
1444	0	0
1445	0	0
1446	0	0
1447	1	0
1448	1	0
1449	1	0
1450	1	0
1451	1	0
1452	1	0
1453	1	0
1454	0	0
1455	0	0
1456	0	0
1457	0	0
1458	0	0
1459	1	0
1460	0	0
1461	1	0
1462	0	0
1463	0	0
1464	0	0
1465	0	0
1466	0	0
1467	0	0
1468	0	0
1469	0	0
1470	0	0
1471	0	0
1472	1	0
1473	1	0
1474	1	0
1475	0	0
1476	0	0
1477	1	0
1478	1	0
1479	1	0
1480	0	0
1481	0	0
1482	0	0
1483	0	0
1484	0	0
1485	0	0
1486	0	0
1487	0	0
1488	0	0
1489	1	0
1490	1	0
1491	0	0
1492	0	0
1493	0	0
1494	0	0
1495	0	0
1496	0	0
1497	0	0
1498	1	0
1499	1	0
1500	1	0
1501	1	0
1502	1	0
1503	1	0
1504	0	0
1505	0	0
1506	0	0
1507	0	0
1508	0	0
1509	0	0
1510	0	0
1511	0	0
1512	0	0
1513	1	0
1514	1	0
1515	1	0
1516	1	0
1517	1	0
1518	1	0
1519	1	0
1520	1	0
1521	1	0
1522	1	0
1523	1	0
1524	1	0
1525	1	0
1526	1	0
1527	1	0
1528	1	0
1529	1	0
1530	1	0
1531	1	0
1532	1	0
1533	1	0
1534	1	0
1535	1	0
1536	1	0
1537	1	0
1538	1	0
1539	1	0
1540	1	0
1541	1	0
1542	1	0
1543	1	0
1544	1	0
1545	1	0
1546	1	0
1547	1	0
1548	1	0
1549	1	0
1550	1	0
1551	1	0
1552	1	0
1553	1	0
1554	1	0
1555	1	0
1556	1	0
1557	1	0
1558	1	0
1559	1	0
1560	1	0
1561	1	0
1562	1	0
1563	1	0
1564	1	0
1565	1	0
1566	1	0
1567	1	0
1568	1	0
1569	1	0
1570	1	0
1571	1	0
1572	1	0
1573	0	0.983904
1574	0	0.983904
1575	0	0.937084
1576	0	0.936836
1577	0	1
1578	0	1
1579	0	0.876008
1580	0	0.833152
1581	0	0.929002
1582	0	0.929002
1583	0	1
1584	0	1
1585	0	1
1586	0	1
1587	0	1
1588	0	1
1589	0	1
1590	0	1
1591	0	1
1592	0	1
1593	0	1
1594	0	1
1595	0	1
1596	0	1
1597	0	1
1598	0	0.928954
1599	0	0.928954
1600	1	0
1601	1	0
1602	1	0
1603	1	0
1604	1	0
1605	1	0
1606	1	0
1607	1	0
1608	1	0
1609	1	0
1610	1	0
1611	1	0
1612	1	0
1613	1	0
1614	1	0
1615	1	0
1616	1	0
1617	1	0
1618	1	0
1619	1	0
1620	1	0
1621	1	0
1622	1	0
1623	1	0
1624	1	0
1625	1	0
1626	1	0
1627	1	0
1628	1	0
1629	1	0
1630	1	0
1631	1	0
1632	1	0
1633	1	0
1634	1	0
1635	1	0
1636	1	0
1637	1	0
1638	1	0
1639	1	0
1640	1	0
1641	1	0
1642	1	0
1643	1	0
1644	1	0
1645	1	0
1646	1	0
1647	1	0
1648	1	0
1649	1	0
1650	1	0
1651	1	0
1652	1	0
1653	1	0
1654	1	0
1655	1	0
1656	1	0
1657	1	0
1658	1	0
1659	1	0
1660	1	0
1661	1	0
1662	1	0
1663	1	0
1664	1	0
1665	1	0
1666	1	0
1667	1	0
1668	1	0
1669	1	0
1670	1	0
1671	1	0
1672	1	0
1673	1	0
1674	1	0
1675	1	0
1676	1	0
1677	1	0
1678	1	0
1679	1	0
1680	1	0
1681	1	0
1682	1	0
1683	1	0
1684	1	0
1685	1	0
1686	1	0
1687	1	0
1688	1	0
1689	1	0
1690	1	0
1691	1	0
1692	1	0
1693	1	0
1694	1	0
1695	1	0
1696	1	0
1697	1	0
1698	1	0
1699	1	0
1700	1	0
1701	1	0
1702	1	0
1703	1	0
1704	1	0
1705	1	0
1706	1	0
1707	1	0
1708	1	0
1709	1	0
1710	1	0
1711	1	0
1712	1	0
1713	1	0
1714	1	0
1715	1	0
1716	1	0
1717	1	0
1718	1	0
1719	1	0
1720	0	0.936506
1721	0	0.936506
1722	0	0.936506
1723	0	0.936506
1724	0	0.936254
1725	0	0.333333
1726	0	0.333333
1727	0	0.333333
1728	0	0.333333
1729	0	0.333333
1730	0	0.333333
1731	0	0.333333
1732	0	0.333333
1733	0	0.333333
1734	0	0.333333
1735	0	0.333333
1736	0	0.333333
1737	0	0.333333
1738	0	0.333333
1739	0	0.333333
1740	0	0.333333
1741	0	0.333333
1742	0	0.333333
1743	0	0.333333
1744	0	0.333333
1745	0	0.333333
1746	0	0.333333
1747	0	0.333333
1748	0	0.333333
1749	0	0.333333
1750	0	0.333333
1751	0	0.333333
1752	0	0.333333
1753	0	0.333333
1754	0	0.333333
1755	0	0.333333
1756	0	0.333333
1757	0	0.333333
1758	0	0.333333
1759	0	0.333333
1760	0	0
1761	0	0
1762	0	0
1763	0	0
1764	0	0
1765	0	0
1766	0	0
1767	0	0
1768	0	0
1769	0	0
1770	0	0
1771	0	0
1772	0	0
1773	1	0
1774	1	0
1775	1	0
1776	1	0
1777	1	0
1778	1	0
1779	1	0
1780	1	0
1781	1	0
1782	1	0
1783	1	0
1784	1	0
1785	1	0
1786	1	0
1787	1	0
1788	1	0
1789	1	0
1790	1	0
1791	1	0
1792	1	0
1793	1	0
1794	1	0
1795	1	0
1796	1	0
1797	1	0
1798	1	0
1799	1	0
1800	1	0
1801	1	0
1802	1	0
1803	1	0
1804	1	0
1805	1	0
1806	1	0
1807	1	0
1808	1	0
1809	1	0
1810	1	0
1811	1	0
1812	1	0
1813	1	0
1814	1	0
1815	1	0
1816	1	0
1817	1	0
1818	1	0
1819	1	0
1820	1	0
1821	1	0
1822	1	0
1823	1	0
1824	1	0
