Site	ColumnScore	SumOfPairsScore
1	1	1
2	1	1
3	1	1
4	1	1
5	1	1
6	1	1
7	1	1
8	1	1
9	1	1
10	1	1
11	1	1
12	1	1
13	1	1
14	1	1
15	1	1
16	1	1
17	1	1
18	1	1
19	1	1
20	1	1
21	1	1
22	1	1
23	1	1
24	1	1
25	1	0
26	1	0
27	1	0
28	1	1
29	1	1
30	1	1
31	1	1
32	1	1
33	1	1
34	1	1
35	1	1
36	1	1
37	1	1
38	1	1
39	1	1
40	1	1
41	1	1
42	1	1
43	1	1
44	1	1
45	1	1
46	1	1
47	1	1
48	1	1
49	1	1
50	1	1
51	1	1
52	1	1
53	1	1
54	1	1
55	1	1
56	1	1
57	1	1
58	0	0.333333
59	0	0.333333
60	0	0.333333
61	0	0.907085
62	0	0.907085
63	0	0.907085
64	0	0.907085
65	0	0.907085
66	0	0.907085
67	0	0.907085
68	0	0.907085
69	0	0.907085
70	0	0.907085
71	0	0.907085
72	0	0.907085
73	0	0.907085
74	0	0.907085
75	0	0.907085
76	0	0.907085
77	0	0.907085
78	0	0.907085
79	0	0.907085
80	0	0.907085
81	0	0.907085
82	0	0.907085
83	0	0.907085
84	0	0.907085
85	0	0.907085
86	0	0.907085
87	0	0.907085
88	0	0.907085
89	0	0.907085
90	0	0.907085
91	0	0.907085
92	0	0.907085
93	0	0.907085
94	0	0.907085
95	0	0.907085
96	0	0.907085
97	0	0.907085
98	0	0.907085
99	0	0.897582
100	0	0.897582
101	0	0.55192
102	0	0.526316
103	0	0.345455
104	0	0.4
105	0	0.778165
106	0	0.907085
107	0	0.907085
108	0	0.907085
109	0	0.907085
110	0	0.907085
111	0	0.907085
112	0	0.907085
113	0	0.907085
114	0	0.907085
115	0	0.864895
116	0	0.864895
117	0	0.864895
118	0	0.864895
119	0	0.864895
120	0	0.864895
121	0	0.864895
122	0	0.864895
123	0	0.864895
124	0	0.864895
125	0	0.864895
126	0	0.864895
127	0	0.864895
128	0	0.864895
129	0	0.864895
130	0	0.864895
131	0	0.864895
132	0	0.864895
133	0	0.864895
134	0	0.864895
135	0	0.864895
136	0	0.864895
137	0	0.864895
138	0	0.864895
139	0	0.864895
140	0	0.864895
141	0	0.864895
142	0	0.864895
143	0	0.864895
144	0	0.864895
145	0	0.864895
146	0	0.864895
147	0	0.864895
148	0	0.864895
149	0	0.864895
150	0	0.864895
151	0	0.864895
152	0	0.864895
153	0	0.864895
154	0	0.864895
155	0	0.864895
156	0	0.864895
157	0	0.864895
158	0	0.864895
159	0	0.864895
160	0	0.864895
161	0	0.864895
162	0	0.864895
163	0	0.864895
164	0	0.864895
165	0	0.864895
166	0	0.864895
167	0	0.864895
168	0	0.864895
169	0	0.864895
170	0	0.864895
171	0	0.864895
172	0	0.864895
173	0	0.864895
174	0	0.864895
175	0	0.864895
176	0	0.864895
177	0	0.864895
178	0	0.864895
179	0	0.864895
180	0	0.864895
181	0	0.864895
182	0	0.864895
183	0	0.864895
184	0	0.864895
185	0	0.864895
186	0	0.864895
187	0	0.864895
188	0	0.864895
189	0	0.864895
190	0	0.864895
191	0	0.864895
192	0	0.864895
193	0	0.864895
194	0	0.907085
195	0	0.907085
196	0	0.907085
197	0	0.907085
198	0	0.907085
199	0	0.907085
200	0	0.907085
201	0	0.907085
202	0	0.907085
203	0	0.907085
204	0	0.907085
205	0	0.907085
206	0	0.907085
207	0	0.907085
208	0	0.907085
209	0	0.907085
210	0	0.907085
211	0	0.907085
212	0	0.907085
213	0	0.907085
214	0	0.907085
215	0	0.907085
216	0	0.907085
217	0	0.907085
218	0	0.907085
219	0	0.907085
220	0	0.907085
221	0	0.907085
222	0	0.907085
223	0	0.907085
224	0	0.907085
225	0	0.907085
226	0	0.907085
227	0	0.907085
228	0	0.907085
229	0	0.907085
230	0	0.907085
231	0	0.907085
232	0	0.907085
233	0	0.907085
234	0	0.907085
235	0	0.907085
236	0	0.907085
237	0	0.907085
238	0	0.907085
239	0	0.907085
240	0	0.907085
241	0	0.907085
242	0	0.907085
243	0	0.907085
244	0	0.907085
245	0	0.907085
246	0	0.907085
247	0	0.907085
248	0	0.907085
249	0	0.907085
250	0	0.907085
251	0	0.95122
252	0	0.907085
253	0	0.907085
254	0	0.907085
255	0	0.907085
256	0	0.907085
257	0	0.907085
258	0	0.904878
259	0	0.902564
260	0	0.889076
261	0	0.333333
262	0	0.333333
263	0	0.238095
264	0	0.266667
265	0	0.238095
266	0	0.238095
267	0	0.238095
268	0	0.238095
269	0	0.238095
270	0	0.238095
271	0	0.190476
272	0	0.190476
273	0	0.190476
274	0	0.190476
275	0	0.190476
276	0	0.190476
277	0	0.190476
278	0	0.266667
279	0	0.266667
280	0	0.266667
281	0	0.266667
282	0	0.178571
283	0	0.238095
284	0	0.178571
285	0	0.138889
286	0	0.111111
287	0	0.111111
288	0	0.111111
289	0	0.111111
290	0	0.0909091
291	0	0.0641026
292	0	0.0549451
293	0	0.0549451
294	0	0.047619
295	0	0.047619
296	0	0.0441176
297	0	0.0584795
298	0	0.0584795
299	0	0.0584795
300	0	0.0584795
301	0	0.0526316
302	0	0.0877193
303	0	0.0789474
304	0	0.0714286
305	0	0.0714286
306	0	0.0714286
307	0	0.0592885
308	0	0.0592885
309	0	0.0592885
310	0	0.0724638
311	0	0.0724638
312	0	0.0724638
313	0	0.0724638
314	0	0.0724638
315	0	0.0866667
316	0	0.08
317	0	0.0740741
318	0	0.0804598
319	0	0.0659537
320	0	0.0655462
321	0	0.0688259
322	0	0.0697674
323	0	0.158947
324	0	0.138655
325	0	0.110669
326	0	0.0984516
327	0	0.102156
328	0	0.111914
329	0	0.103193
330	0	0.0956486
331	0	0.0915435
332	0	0.0867652
333	0	0.0843524
334	0	0.0837803
335	0	0.08117
336	0	0.5
337	0	0.5
338	0	0.5
339	0	0.5
340	0	0.5
341	0	0.5
342	0	0.5
343	0	0.091328
344	0	0.0915018
345	0	0.0921539
346	0	0
347	0	0
348	0	0
349	0	0
350	0	0
351	0	0
352	0	0
353	0	0.0363636
354	0	0.0363636
355	0	0.030303
356	0	0.0357143
357	0	0.0357143
358	0	0.0357143
359	0	0.0357143
360	0	0.0357143
361	0	0.0357143
362	0	0.0357143
363	0	0.0357143
364	0	0.0357143
365	0	0.0357143
366	0	0.0181818
367	0	0.0588235
368	0	0.0526316
369	0	0.0732837
370	0	0.0730851
371	0	0.0873176
372	0	0.0823188
373	0	0.111792
374	0	0.0975012
375	0	0.0916696
376	0	0.101132
377	0	0.114388
378	0	0.124645
379	0	0.108274
380	0	0.140871
381	0	0.173644
382	0	0.174294
383	0	0.310256
384	0	0.39886
385	0	0.0714286
386	0	0.0952381
387	0	0.1
388	0	0.166667
389	0	0.333333
390	0	0.333333
391	0	0.333333
392	0	0.333333
393	0	0.333333
394	0	0.333333
395	0	0.333333
396	0	0.333333
397	0	0.333333
398	0	0.333333
399	0	1
400	0	0.333333
401	0	0.333333
402	0	1
403	0	1
404	0	1
405	0	1
406	0	1
407	0	1
408	1	1
409	0	1
410	0	1
411	0	1
412	0	1
413	1	1
414	1	1
415	1	1
416	1	1
417	0	1
418	0	1
419	0	0
420	0	0
421	0	0
422	0	0
423	0	0
424	0	0
425	0	0
426	0	0
427	0	0
428	0	0
429	0	0
430	0	0
431	0	0
432	0	0
433	0	0
434	0	0
435	0	0
436	0	0
437	0	0
438	0	0
439	0	0
440	0	0
441	0	0
442	0	0
443	0	0
444	0	0
445	0	0
446	0	0
447	0	0
448	0	0
449	0	0
450	0	0
451	0	0
452	0	0
453	0	0
454	0	0
455	0	0
456	0	0
457	0	0
458	0	0
459	0	0
460	0	0
461	0	0
462	0	0
463	0	0
464	0	0
465	0	0
466	0	0
467	0	0
468	0	0
469	0	0
470	0	0
471	0	0
472	0	0
473	0	0
474	0	0
475	0	0
476	0	0
477	0	0
478	0	0
479	0	0
480	0	0
481	0	0
482	0	0
483	0	1
484	0	1
485	0	1
486	0	1
487	0	1
488	0	1
489	0	1
490	0	1
491	0	1
492	0	1
493	0	1
494	0	1
495	0	1
496	0	1
497	0	1
498	0	1
499	0	1
500	0	1
501	0	1
502	0	1
503	0	1
504	0	1
505	0	0
506	0	0
507	0	1
508	0	1
509	0	1
510	0	0.633235
511	0	0.649547
512	0	0.662338
513	0	0.671151
514	0	0.709773
515	0	0.729835
516	0	0.641329
517	0	0.649909
518	0	1
519	0	1
520	0	0.964295
521	0	1
522	0	1
523	0	1
524	1	1
525	1	1
526	1	1
527	1	1
528	1	1
529	1	1
530	1	1
531	1	1
532	1	1
533	1	1
534	1	1
535	1	1
536	1	1
537	1	1
538	1	1
539	1	1
540	1	1
541	1	1
542	1	1
543	1	1
544	1	1
545	1	1
546	1	1
547	1	1
548	1	1
549	1	1
550	1	1
551	1	1
552	1	1
553	1	1
554	1	1
555	1	1
556	1	1
557	1	1
558	1	1
559	1	1
560	1	1
561	1	1
562	1	1
563	1	1
564	1	1
565	1	1
566	1	1
567	1	1
568	1	1
569	1	1
570	1	1
571	0	0.991903
572	0	0.991903
573	0	0.991903
574	0	0.991935
575	0	0.991935
576	0	0.991935
577	0	0.991935
578	0	0.991935
579	1	0
580	1	0
581	1	0
582	1	0
583	1	0
584	1	0
585	1	0
586	1	0
587	1	0
588	1	0
589	1	0
590	1	0
591	1	0
592	1	0
593	1	0
594	1	1
595	1	1
596	0	1
597	0	1
598	0	1
599	0	1
600	0	1
601	0	1
602	0	1
603	0	1
604	1	1
605	1	1
606	1	1
607	1	1
608	1	1
609	1	1
610	1	1
611	1	1
612	1	1
613	1	1
614	1	1
615	1	1
616	1	1
617	0	1
618	0	0.991935
619	0	0.99095
620	0	0.333333
621	0	0.79246
622	0	0.79246
623	0	0.765205
624	0	0.983839
625	0	1
626	1	1
627	1	1
628	0	1
629	1	1
630	1	1
631	1	1
632	1	1
633	1	1
634	1	1
635	1	1
636	1	1
637	1	1
638	1	1
639	1	1
640	1	1
641	1	1
642	0	1
643	0	1
644	0	1
645	0	0.968386
646	0	0.968386
647	0	0.968386
648	0	0.968386
649	1	1
650	1	1
651	1	1
652	1	1
653	1	1
654	0	1
655	0	1
656	0	0.975711
657	0	0.975711
658	0	0.975711
659	0	0.975711
660	0	0.975711
661	0	0
662	0	0.866667
663	0	0.676471
664	0	0.5
665	0	0.295238
666	0	0.264069
667	0	0.238095
668	0	0.258865
669	0	0.292308
670	0	0.24073
671	0	0.208446
672	0	0.126454
673	0	0.176751
674	0	0.138953
675	0	0.170869
676	0	0.149666
677	0	0.128245
678	0	0.119668
679	0	0.102423
680	0	0.10279
681	0	0.10446
682	0	0.128139
683	0	0.240721
684	0	0.272718
685	0	0.340923
686	0	0.38792
687	0	0.426621
688	0	0.445308
689	0	0
690	0	0
691	0	0
692	0	0
693	0	0
694	0	0
695	0	1
696	0	0.5
697	0	0.861418
698	0	1
699	0	0.929201
700	0	0.929201
701	0	0.968066
702	0	0.968066
703	0	0.983968
704	0	0.983968
705	0	0.983968
706	0	0.983968
707	0	0.983968
708	0	0.983968
709	0	0.983968
710	0	0.983968
711	0	0.952707
712	0	0
713	0	0.984848
714	0	0.956318
715	0	0.970806
716	0	0.505373
717	0	0.515326
718	1	1
719	1	1
720	1	1
721	1	1
722	0	0.900635
723	0	0.893847
724	1	1
725	1	1
726	1	1
727	1	1
728	1	1
729	1	1
730	0	1
731	0	1
732	0	1
733	0	0.99177
734	0	0.99177
735	0	0.975511
736	0	0.936386
737	0	0.92009
738	0	0.91008
739	0	0.901738
740	0	0.849059
741	0	0.902095
742	0	0.902095
743	0	0.866694
744	0	0.935097
745	0	0.935877
746	0	0.95224
747	0	1
748	1	1
749	1	1
750	1	1
751	1	1
752	1	1
753	1	1
754	1	1
755	1	1
756	1	1
757	1	1
758	1	1
759	1	1
760	1	1
761	1	1
762	1	1
763	1	1
764	1	1
765	1	1
766	1	1
767	1	1
768	1	1
769	1	1
770	1	1
771	1	1
772	0	1
773	0	1
774	0	0.952404
775	0	0.926007
776	0	0.908425
777	0	0.364156
778	0	0.341724
779	0	0.341072
780	0	1
781	0	1
782	0	1
783	0	0.247524
784	0	0.205474
785	0	0.207671
786	0	1
787	0	0
788	0	0
789	0	0.1
790	0	0.76129
791	0	0.5
792	0	0
793	0	0.166667
794	0	0.1
795	0	0
796	0	0.166667
797	0	0.447368
798	0	0.496552
799	0	0.51954
800	0	0.43908
801	0	0.818548
802	0	0.877016
803	0	0.823864
804	0	0.821705
805	0	0.522188
806	0	0.530294
807	0	0.798335
808	0	0.766844
809	0	0.907834
810	0	0.924129
811	0	0.981132
812	0	0.964838
813	0	0.476802
814	0	0.98287
815	0	0.982943
816	0	0.991903
817	0	0.992
818	0	1
819	1	1
820	1	1
821	1	1
822	1	0
823	1	1
824	1	1
825	1	1
826	1	1
827	1	1
828	1	1
829	1	1
830	1	1
831	1	1
832	1	1
833	1	1
834	1	1
835	1	1
836	1	1
837	1	1
838	1	1
839	1	1
840	1	1
841	1	1
842	1	1
843	1	1
844	1	1
845	1	1
846	1	1
847	1	1
848	1	1
849	1	1
850	1	1
851	1	1
852	1	1
853	1	1
854	1	1
855	1	1
856	1	1
857	1	1
858	1	1
859	1	1
860	1	1
861	1	1
862	1	1
863	1	1
864	1	1
865	1	1
866	1	1
867	1	1
868	1	1
869	1	1
870	1	1
871	1	1
872	1	1
873	1	1
874	1	1
875	1	1
876	1	1
877	1	1
878	1	1
879	1	1
880	1	1
881	1	1
882	1	1
883	1	1
884	1	1
885	1	1
886	1	1
887	1	1
888	0	1
889	1	1
890	0	0.519711
891	0	0.519711
892	0	0.519711
893	0	0.519711
894	0	0.505986
895	0	0.514892
896	0	1
897	1	1
898	1	1
899	1	1
900	0	1
901	0	1
902	0	1
903	0	1
904	0	1
905	1	1
906	1	1
907	1	1
908	1	1
909	1	1
910	1	1
911	1	1
912	1	1
913	1	1
914	1	1
915	1	1
916	1	1
917	1	1
918	1	1
919	1	1
920	1	1
921	1	1
922	1	1
923	1	1
924	1	1
925	1	1
926	1	1
927	1	1
928	1	1
929	1	1
930	1	1
931	1	1
932	1	1
933	1	1
934	1	1
935	1	1
936	1	1
937	1	1
938	1	1
939	1	1
940	1	1
941	0	1
942	0	1
943	0	1
944	1	1
945	1	1
946	0	0.805719
947	0	0.805719
948	0	0.456418
949	0	1
950	0	1
951	0	0.333333
952	0	0
953	0	0
954	0	0
955	0	0.929712
956	0	0.746441
957	0	0.748241
958	0	0.753494
959	0	1
960	0	1
961	0	1
962	0	1
963	0	1
964	0	1
965	1	1
966	1	1
967	1	1
968	1	1
969	1	1
970	1	1
971	1	1
972	1	1
973	1	1
974	1	1
975	1	1
976	1	1
977	1	1
978	0	0
979	0	0
980	0	0.992
981	0	0.992
982	1	1
983	0	0
984	0	0
985	0	0
986	0	0.5
987	0	0.5
988	0	0.5
989	0	0.823968
990	0	0
991	0	0.57971
992	0	0.669124
993	0	0
994	0	0.166667
995	0	0.846154
996	0	0.438735
997	0	0.282241
998	0	0.221858
999	0	0.199598
1000	0	0.148246
1001	0	0.196765
1002	0	0.236159
1003	0	0.347099
1004	0	0.386539
1005	0	0.336032
1006	0	0.44334
1007	0	0.440835
1008	1	1
1009	1	1
1010	1	1
1011	1	1
1012	1	1
1013	1	1
1014	1	1
1015	1	1
1016	0	0.992
1017	0	0.992
1018	0	0.992
1019	1	1
1020	1	1
1021	1	1
1022	1	1
1023	1	1
1024	1	1
1025	1	1
1026	1	1
1027	1	1
1028	1	1
1029	1	1
1030	1	1
1031	0	0.992
1032	1	1
1033	1	1
1034	1	1
1035	0	1
1036	0	1
1037	0	0.717949
1038	0	0.637363
1039	0	0.637363
1040	0	0.831839
1041	0	0.892787
1042	0	0.892787
1043	0	0.892787
1044	0	0.976193
1045	0	0.976193
1046	0	0.976193
1047	0	1
1048	0	1
1049	1	1
1050	1	1
1051	1	1
1052	1	1
1053	1	1
1054	1	1
1055	1	1
1056	1	1
1057	1	1
1058	1	1
1059	1	1
1060	1	1
1061	1	1
1062	1	1
1063	1	1
1064	1	1
1065	1	1
1066	1	1
1067	1	1
1068	1	1
1069	1	1
1070	1	1
1071	1	1
1072	1	1
1073	1	1
1074	1	1
1075	1	1
1076	1	1
1077	1	1
1078	1	1
1079	1	1
1080	1	1
1081	1	1
1082	1	1
1083	1	1
1084	1	1
1085	1	1
1086	1	1
1087	1	1
1088	1	1
1089	1	1
1090	1	1
1091	1	1
1092	1	1
1093	1	1
1094	1	1
1095	1	1
1096	1	1
1097	1	1
1098	1	1
1099	1	1
1100	1	1
1101	1	1
1102	1	1
1103	1	1
1104	1	1
1105	1	1
1106	1	1
1107	1	1
1108	1	1
1109	1	1
1110	1	1
1111	0	1
1112	0	1
1113	0	1
1114	0	1
1115	0	1
1116	0	0.992
1117	0	0.992
1118	0	0.992
1119	0	0.992
1120	0	0.992
1121	0	1
1122	0	1
1123	0	1
1124	0	1
1125	0	1
1126	0	1
1127	0	1
1128	0	1
1129	0	1
1130	0	1
1131	0	1
1132	1	1
1133	1	1
1134	1	1
1135	0	0.992
1136	0	0.992
1137	0	0.992
1138	0	0.992
1139	0	0.992
1140	0	0.992
1141	0	0.992
1142	0	0.992
1143	0	0.992
1144	0	0.992
1145	0	0.992
1146	0	0.992
1147	0	0.992
1148	0	1
1149	0	1
1150	0	1
1151	1	1
1152	1	1
1153	1	1
1154	1	1
1155	1	1
1156	1	1
1157	1	1
1158	1	1
1159	1	1
1160	1	1
1161	1	1
1162	1	1
1163	1	1
1164	1	1
1165	0	0.991968
1166	0	0.991968
1167	0	0.991968
1168	0	0.991968
1169	0	0.991968
1170	0	0.991935
1171	0	0.991935
1172	0	0.991935
1173	0	0.991935
1174	0	0.991935
1175	0	0
1176	0	0
1177	0	0
1178	0	0
1179	0	0
1180	0	0
1181	0	0
1182	0	0
1183	0	0
1184	0	0
1185	0	0
1186	0	0
1187	0	0
1188	0	0
1189	0	0
1190	0	0
1191	0	0
1192	0	0
1193	0	0.975207
1194	0	0.97436
1195	0	0.97425
1196	0	0.907416
1197	0	0.935468
1198	0	0.935037
1199	0	0.906812
1200	0	0.817935
1201	0	0.842017
1202	0	0.824211
1203	0	0.821982
1204	0	0.819696
1205	0	0.768265
1206	0	0.752414
1207	0	1
1208	0	0.666667
1209	0	0.666667
1210	0	0.4
1211	0	0.2
1212	0	0.2
1213	0	0.0666667
1214	0	0.0666667
1215	0	0.0666667
1216	0	0.0666667
1217	0	0.047619
1218	0	0.047619
1219	0	0.047619
1220	0	0.047619
1221	0	0.047619
1222	0	0.2
1223	0	0.0555556
1224	0	0.0363636
1225	0	0.0363636
1226	0	0.030303
1227	0	0.0151515
1228	0	0.0181818
1229	0	0.0181818
1230	0	0.0181818
1231	0	0.0363636
1232	0	0
1233	0	0
1234	0	0.0181818
1235	0	0.0545455
1236	0	0.0545455
1237	0	0.0181818
1238	0	0.0545455
1239	0	0.0909091
1240	0	0.0454545
1241	0	0.0454545
1242	0	0.0454545
1243	0	0.0909091
1244	0	0.0909091
1245	0	0.0909091
1246	0	0.0909091
1247	0	0.0909091
1248	0	0.151515
1249	0	0.151515
1250	0	0.151515
1251	0	0.0606061
1252	0	0.0606061
1253	0	0.0606061
1254	0	0.0454545
1255	0	0.0606061
1256	0	0.0606061
1257	0	0.0606061
1258	0	0.0606061
1259	0	0.0606061
1260	0	0.0151515
1261	0	0.0151515
1262	0	0.0151515
1263	0	0.0151515
1264	0	0.0151515
1265	0	0.0606061
1266	0	0.0909091
1267	0	0.106061
1268	0	0.106061
1269	0	0.151515
1270	0	0.179487
1271	0	0.25641
1272	0	0.25641
1273	0	0.25641
1274	0	0.25641
1275	0	0.25641
1276	0	0.25641
1277	0	0.25641
1278	0	0.25641
1279	0	0.25641
1280	0	0.25641
1281	0	0.25641
1282	0	0.25641
1283	0	0.25641
1284	0	0.25641
1285	0	0.25641
1286	0	0.25641
1287	0	0.25641
1288	0	0.25641
1289	0	0.320513
1290	0	0.320513
1291	0	0.320513
1292	0	0.320513
1293	0	0.320513
1294	0	0.320513
1295	0	0.320513
1296	0	0.320513
1297	0	0.320513
1298	0	0.320513
1299	0	0.320513
1300	0	0.320513
1301	0	0.320513
1302	0	0.320513
1303	0	0.320513
1304	0	0.320513
1305	0	0.320513
1306	0	0.320513
1307	0	0.320513
1308	0	0.320513
1309	0	0.320513
1310	0	0.320513
1311	0	0.320513
1312	0	0.320513
1313	0	0.320513
1314	0	0.320513
1315	0	0.320513
1316	0	0.320513
1317	0	0.320513
1318	0	0.378788
1319	0	0.378788
1320	0	0.378788
1321	0	0.378788
1322	0	0.378788
1323	0	0.378788
1324	0	0.378788
1325	0	0.378788
1326	0	0.378788
1327	0	0.378788
1328	0	0.378788
1329	0	0.378788
1330	0	0.378788
1331	0	0.833333
1332	0	0.833333
1333	0	0.833333
1334	0	0.833333
1335	0	0.833333
1336	0	0.833333
1337	0	0.833333
1338	0	0.833333
1339	0	0.833333
1340	0	0.833333
1341	0	0.833333
1342	0	0.833333
1343	0	0.833333
1344	0	0.833333
1345	0	0.833333
1346	0	0.833333
1347	0	0.833333
1348	0	0.833333
1349	0	0.833333
1350	0	0.833333
1351	0	0.833333
1352	0	0.833333
1353	0	0.833333
1354	0	0.833333
1355	0	0.833333
1356	0	0.833333
1357	0	0.833333
1358	0	0.833333
1359	0	0.833333
1360	0	0.833333
1361	0	0.833333
1362	0	0.833333
1363	0	0.833333
1364	0	0.833333
1365	0	0.833333
1366	0	0.833333
1367	0	0.833333
1368	0	0.833333
1369	0	0.833333
1370	0	0.833333
1371	0	0.833333
1372	0	0.833333
1373	0	0.833333
1374	0	0.833333
1375	0	0.833333
1376	0	0.833333
1377	0	0.833333
1378	0	0.833333
1379	0	0.833333
1380	0	0.833333
1381	0	0.833333
1382	0	0.833333
1383	0	0.833333
1384	0	0.833333
1385	0	0.833333
1386	0	0.833333
1387	0	0.833333
1388	0	0.833333
1389	0	0.833333
1390	0	0.833333
1391	0	0.833333
1392	0	0.833333
1393	0	0.833333
1394	0	0.833333
1395	0	0.833333
1396	0	0.833333
1397	0	0.833333
1398	0	0.833333
1399	0	0.833333
1400	1	1
1401	1	1
1402	1	1
1403	1	1
1404	1	1
1405	1	1
1406	1	1
1407	1	1
1408	1	1
1409	1	1
1410	1	1
1411	1	1
1412	1	1
1413	0	1
1414	0	1
1415	0	0.428571
1416	0	0.4
1417	0	0.4
1418	0	1
1419	1	1
1420	0	0.833333
1421	1	1
1422	1	1
1423	1	1
1424	1	1
1425	1	1
1426	0	0.833333
1427	0	0.833333
1428	0	0.833333
1429	0	0.833333
1430	0	0.833333
1431	0	0.833333
1432	0	0.833333
1433	0	0.833333
1434	0	0.833333
1435	0	0.833333
1436	0	0.833333
1437	0	0.833333
1438	0	0.833333
1439	0	0.833333
1440	0	0.833333
1441	0	0.833333
1442	0	0.833333
1443	0	0.833333
1444	0	0.833333
1445	0	0.833333
1446	0	0.833333
1447	0	0.833333
1448	0	0.833333
1449	0	0.833333
1450	0	0.833333
1451	0	0.833333
1452	0	0.833333
1453	0	0.833333
1454	0	0.833333
1455	0	0.833333
1456	0	0.833333
1457	0	0.833333
1458	0	0.833333
1459	0	0.833333
1460	0	0.833333
1461	0	0.833333
1462	0	0.833333
1463	0	0.833333
1464	0	0.833333
1465	0	0.833333
1466	0	0.833333
1467	0	0.833333
1468	0	0.833333
1469	0	0.833333
1470	0	0.833333
1471	0	0.833333
1472	0	0.833333
1473	0	0.833333
1474	0	0.833333
1475	0	0.833333
1476	0	0.833333
1477	0	0.833333
1478	0	0.833333
1479	0	0.833333
1480	0	0.409091
1481	0	0.409091
1482	0	0.409091
1483	0	0.409091
1484	0	0.409091
1485	0	0.409091
1486	0	0.409091
1487	0	0.409091
1488	0	0.469697
1489	0	0.469697
1490	0	0.469697
1491	0	0.469697
1492	0	0.469697
1493	0	0.469697
1494	0	0.469697
1495	0	0.469697
1496	0	0.469697
1497	0	0.469697
1498	0	0.469697
1499	0	0.469697
1500	0	0.469697
1501	0	0.469697
1502	0	0.363636
1503	0	0
1504	0	0
1505	0	0.357143
1506	0	0.583333
1507	0	0.681818
1508	0	0.681818
1509	0	0.681818
1510	0	0.681818
1511	0	0.681818
1512	0	0.681818
1513	0	0.681818
1514	0	0.681818
1515	0	0.681818
1516	0	0.681818
1517	0	0.681818
1518	0	0.681818
1519	0	0.681818
1520	0	0.681818
1521	0	0.681818
1522	0	0.681818
1523	0	0.681818
1524	0	0.833333
1525	0	0.833333
1526	0	0.833333
1527	0	0.833333
1528	0	0.833333
1529	0	0.833333
1530	0	0.833333
1531	0	0.833333
1532	0	0.833333
1533	0	0.833333
1534	0	0.833333
1535	0	0.833333
1536	0	0.833333
1537	0	0.833333
1538	0	0.833333
1539	0	0.833333
1540	0	0.833333
1541	1	1
1542	1	1
1543	1	1
1544	1	1
1545	1	1
1546	1	1
1547	1	1
1548	1	1
1549	1	1
1550	1	1
1551	1	1
1552	1	1
1553	1	1
1554	1	1
1555	1	1
1556	1	1
1557	1	1
1558	1	1
1559	1	1
1560	1	1
1561	1	1
1562	1	1
1563	1	1
1564	1	1
1565	1	1
1566	1	1
1567	1	1
1568	1	1
1569	1	1
1570	1	1
1571	1	1
1572	1	1
1573	1	1
1574	1	1
1575	1	1
1576	1	1
1577	1	1
1578	1	1
1579	1	1
1580	1	1
1581	1	1
1582	1	1
1583	1	1
1584	1	1
1585	1	1
1586	1	1
1587	1	1
1588	1	1
1589	1	1
1590	1	1
1591	1	1
1592	1	1
1593	1	1
1594	1	1
1595	1	1
1596	1	1
1597	1	1
1598	1	1
1599	1	1
1600	1	1
1601	1	1
1602	1	1
1603	1	1
1604	1	1
1605	1	1
1606	1	1
1607	1	1
1608	1	1
1609	1	1
1610	1	1
1611	1	1
1612	1	1
1613	1	1
1614	1	1
1615	1	1
1616	1	1
1617	1	1
1618	1	1
1619	1	1
1620	1	1
1621	1	1
1622	1	1
1623	1	1
1624	1	1
1625	1	1
1626	1	1
1627	1	1
1628	1	1
1629	1	1
1630	1	1
1631	1	1
1632	1	1
1633	1	1
1634	1	1
1635	1	1
1636	1	1
1637	1	1
1638	0	1
1639	0	1
1640	0	1
1641	0	1
1642	0	1
1643	0	1
1644	0	1
1645	0	1
1646	0	1
1647	0	1
1648	0	1
1649	0	1
1650	0	1
1651	0	1
1652	0	1
1653	0	1
1654	0	1
1655	0	1
1656	0	1
1657	0	1
1658	0	1
1659	1	1
1660	1	1
1661	1	1
1662	1	1
1663	1	1
1664	1	1
1665	1	1
1666	1	1
1667	1	1
1668	1	1
1669	1	1
1670	1	1
1671	1	1
1672	1	1
1673	1	1
1674	1	1
1675	1	1
1676	1	1
1677	1	1
1678	1	1
1679	1	1
1680	1	1
1681	1	1
1682	0	1
1683	0	1
1684	0	1
1685	0	1
1686	1	1
1687	1	1
