Site	ColumnScore	SumOfPairsScore
1	1	0
2	1	0
3	1	0
4	1	0
5	1	0
6	1	0
7	1	0
8	1	0
9	1	0
10	1	0
11	1	0
12	1	0
13	1	0
14	1	0
15	1	0
16	0	0
17	0	0
18	0	0
19	0	0
20	0	0
21	0	0
22	0	0
23	0	0
24	1	0
25	1	0
26	1	0
27	1	0
28	1	0
29	1	0
30	0	0
31	0	0
32	1	1
33	0	1
34	0	1
35	0	1
36	0	1
37	0	1
38	0	0.333333
39	0	0.333333
40	0	0.333333
41	0	0.333333
42	0	0.333333
43	0	0.333333
44	0	0.333333
45	0	0.166667
46	0	0.166667
47	0	0.166667
48	0	0.166667
49	0	0.166667
50	0	0.166667
51	0	0.166667
52	0	0.166667
53	0	0.166667
54	0	0.166667
55	0	0.166667
56	0	0.166667
57	0	0.166667
58	0	0.166667
59	0	0.166667
60	0	0.166667
61	0	0.166667
62	0	0.166667
63	0	0.3
64	0	0.4
65	0	0.4
66	0	0.4
67	0	0.4
68	0	0.47619
69	0	0.714286
70	0	0.714286
71	0	0.714286
72	0	0.714286
73	0	0.714286
74	0	0.973095
75	0	0.990909
76	0	0.990909
77	0	0.990909
78	0	0.990909
79	0	0.990909
80	0	0.981942
81	0	0.981942
82	0	0.981942
83	0	0.982103
84	0	0.973095
85	0	0.973215
86	0	0.973215
87	0	0.973215
88	0	0.973095
89	0	0.973095
90	0	0.964209
91	0	0
92	0	0
93	0	0
94	0	0.963764
95	0	0.963764
96	0	0.955002
97	0	0.955002
98	0	0.945876
99	0	0.945876
100	0	0.937277
101	0	0.166667
102	0	0.5
103	0	0.5
104	0	0.5
105	0	0.93736
106	0	0.93736
107	0	0.5
108	0	0.5
109	0	0.5
110	0	0.5
111	0	0.929544
112	0	0.929544
113	0	0.929544
114	0	0.912334
115	0	0.912334
116	0	0.912293
117	0	0.921587
118	0	0.921587
119	0	0.921587
120	0	0.946598
121	0	0.946598
122	0	0.946598
123	0	0.777184
124	0	0.737692
125	0	0.758333
126	0	0.758333
127	0	0.981777
128	0	0.981777
129	0	0.981777
130	0	0.990868
131	0	0.99095
132	0	0.991736
133	0	0.991736
134	0	0.991736
135	0	0.991736
136	0	1
137	0	1
138	0	1
139	0	1
140	0	1
141	0	1
142	0	1
143	0	0.99177
144	0	0.99177
145	0	0.99177
146	0	0.99177
147	0	0.99177
148	0	0.99177
149	0	0.99177
150	0	1
151	0	1
152	0	1
153	0	1
154	1	1
155	1	1
156	1	1
157	1	1
158	1	1
159	1	1
160	1	1
161	1	1
162	1	1
163	1	1
164	1	1
165	1	1
166	1	1
167	1	1
168	1	1
169	1	1
170	1	1
171	1	1
172	0	0.991968
173	0	0.992
174	0	0.992
175	1	0
176	0	1
177	0	1
178	0	1
179	1	1
180	1	1
181	1	1
182	1	1
183	0	1
184	0	1
185	1	1
186	1	1
187	0	0.992
188	0	0.992
189	0	0.992
190	0	0.992
191	1	1
192	1	1
193	1	1
194	1	1
195	1	1
196	1	1
197	1	1
198	1	1
199	1	1
200	1	1
201	1	1
202	0	1
203	0	1
204	1	1
205	1	1
206	1	1
207	1	1
208	0	0.992
209	0	0.992
210	0	0.992
211	0	0.992
212	0	0.992
213	0	0.992
214	0	0.992
215	0	0
216	0	0
217	0	0
218	1	1
219	1	1
220	1	1
221	1	1
222	1	1
223	1	1
224	1	1
225	1	1
226	0	0.992
227	0	0.992
228	1	1
229	1	1
230	1	1
231	1	1
232	1	1
233	0	1
234	0	1
235	1	1
236	1	1
237	1	1
238	1	1
239	1	1
240	1	1
241	1	1
242	1	1
243	1	1
244	1	1
245	1	1
246	1	1
247	1	1
248	1	1
249	1	1
250	1	1
251	1	1
252	1	1
253	1	1
254	1	1
255	1	1
256	1	1
257	1	1
258	1	1
259	1	1
260	1	1
261	1	1
262	1	1
263	1	1
264	1	1
265	1	1
266	1	1
267	1	1
268	1	1
269	1	1
270	1	1
271	1	1
272	1	1
273	1	1
274	1	1
275	1	1
276	1	1
277	1	1
278	1	1
279	1	1
280	1	1
281	1	1
282	1	1
283	1	1
284	1	1
285	1	1
286	1	1
287	1	1
288	1	1
289	0	0.893847
290	1	1
291	1	1
292	0	1
293	1	1
294	1	1
295	1	1
296	1	1
297	1	1
298	1	1
299	1	1
300	1	1
301	1	1
302	1	1
303	1	1
304	1	1
305	1	1
306	1	1
307	1	1
308	1	1
309	1	1
310	1	1
311	1	1
312	1	1
313	1	1
314	1	1
315	1	1
316	1	1
317	1	1
318	1	1
319	1	1
320	1	1
321	1	1
322	1	1
323	1	1
324	1	1
325	1	1
326	1	1
327	1	1
328	1	1
329	1	1
330	1	1
331	1	1
332	1	1
333	1	1
334	1	1
335	1	1
336	1	1
337	1	1
338	1	1
339	1	1
340	1	1
341	1	1
342	1	1
343	1	1
344	1	1
345	1	1
346	1	1
347	1	1
348	1	1
349	1	1
350	1	1
351	1	1
352	1	1
353	1	1
354	1	1
355	1	1
356	1	1
357	1	1
358	1	1
359	1	1
360	1	1
361	1	1
362	1	1
363	1	1
364	1	1
365	1	1
366	1	1
367	1	1
368	1	1
369	1	1
370	1	1
371	1	1
372	1	1
373	1	1
374	1	1
375	1	1
376	1	1
377	1	1
378	1	1
379	1	1
380	1	1
381	1	1
382	1	1
383	1	1
384	1	1
385	1	1
386	1	1
387	0	0.576
388	1	1
389	1	1
390	0	1
391	0	1
392	1	1
393	1	1
394	1	1
395	1	1
396	1	1
397	1	1
398	1	1
399	1	1
400	0	0
401	0	0
402	0	0.580919
403	0	0.562635
404	0	1
405	0	0.666667
406	0	0.976193
407	1	1
408	1	1
409	1	1
410	1	1
411	1	1
412	1	1
413	1	1
414	1	1
415	1	1
416	1	1
417	1	1
418	1	1
419	1	1
420	1	1
421	1	1
422	1	1
423	1	1
424	1	1
425	1	1
426	1	1
427	1	1
428	1	1
429	1	1
430	1	1
431	1	1
432	1	1
433	1	1
434	1	1
435	1	1
436	1	1
437	1	1
438	1	1
439	0	1
440	0	0.618367
441	0	0.560514
442	0	0.386506
443	0	0
444	0	0.777778
445	0	0.777778
446	0	0.824597
447	0	0.824597
448	0	0.936533
449	0	0.446989
450	0	0.70908
451	0	0.582461
452	0	0.992
453	0	0.992
454	0	0.992
455	0	0.992
456	0	0
457	0	0.982833
458	0	0.779759
459	0	0.492594
460	0	0.309782
461	1	0
462	1	0
463	0	0
464	0	0
465	0	0
466	0	0.166667
467	0	0.166667
468	0	1
469	0	0.604968
470	0	1
471	0	1
472	0	0.984064
473	0	0.984064
474	0	0.984064
475	0	0.984001
476	0	0
477	1	1
478	1	1
479	1	1
480	1	1
481	0	1
482	0	0.940473
483	0	0.984064
484	1	1
485	1	1
486	1	1
487	0	0.893847
488	1	1
489	1	1
490	1	1
491	0	1
492	1	1
493	1	1
494	1	1
495	1	1
496	1	1
497	1	1
498	1	1
499	1	1
500	1	1
501	1	1
502	1	1
503	1	1
504	1	1
505	1	1
506	1	1
507	0	1
508	0	1
509	0	0.960514
510	0	0.960514
511	0	0.712551
512	0	0.593928
513	0	0
514	0	0
515	0	0
516	0	0.577058
517	0	0
518	0	0.6
519	0	0.554062
520	0	0.344771
521	0	0.313609
522	0	0
523	0	0.490248
524	0	0
525	0	0
526	0	0
527	0	0
528	1	0
529	0	0.351371
530	0	0.246956
531	0	0
532	0	0.266667
533	0	0.338654
534	0	0.320447
535	0	0.477778
536	0	0.864532
537	0	0.972222
538	0	0.937084
539	0	0.960487
540	1	1
541	1	1
542	1	1
543	1	1
544	1	1
545	1	1
546	1	1
547	1	1
548	1	1
549	1	1
550	1	1
551	1	1
552	1	1
553	1	1
554	1	1
555	1	1
556	1	1
557	1	1
558	1	1
559	1	1
560	1	1
561	1	1
562	1	1
563	1	1
564	1	1
565	1	1
566	1	1
567	1	1
568	1	1
569	1	1
570	1	1
571	0	0
572	0	0.992
573	0	0.992
574	0	0.992
575	0	0.992
576	0	1
577	0	0.75
578	0	0.660504
579	0	0.436076
580	0	0.485007
581	0	0.48346
582	0	0.251901
583	0	0.230012
584	0	0.469697
585	0	0.469697
586	0	0.427191
587	0	0.444585
588	0	1
589	0	0.522692
590	0	0.833333
591	0	0.819355
592	0	0.899275
593	0	1
594	0	0.976193
595	0	0.976193
596	0	0.976193
597	0	0.976193
598	0	0.976193
599	0	1
600	0	0.333333
601	0	0.333333
602	0	0.333333
603	0	0.333333
604	0	0.333333
605	0	0.976129
606	0	0.976129
607	0	1
608	0	1
609	0	1
610	0	1
611	0	1
612	0	0.976129
613	0	0.976129
614	0	0.976129
615	0	0.976129
616	0	0.976129
617	0	0.976129
618	0	0.968225
619	0	0.968225
620	0	0.968225
621	0	0
622	0	0
623	0	0
624	0	0
625	0	0
626	0	0
627	0	0
628	0	0
629	0	0
630	0	0
631	0	0
632	0	0
633	0	0
634	0	0
635	0	0
636	0	0
637	0	0
638	0	0
639	0	0
640	0	0
641	0	0
642	0	0.960418
643	0	0.960418
644	0	0.960418
645	0	0
646	0	0
647	0	0
648	0	0
649	0	0
650	0	0
651	0	0
652	0	0
653	0	0
654	0	0
655	0	0
656	0	0
657	0	0
658	0	0
659	0	0
660	0	0
661	0	0
662	0	0
663	0	0
664	0	0
665	0	0
666	0	0
667	0	0
668	0	0
669	0	0
670	0	0
671	0	0
672	0	0
673	0	0
674	0	0
675	0	0
676	0	0
677	0	0
678	0	0
679	0	0
680	0	0
681	0	0
682	0	0
683	0	0
684	0	0
685	0	0
686	0	0
687	0	0
688	0	0
689	0	0
690	0	0
691	0	0
692	0	0
693	0	0
694	0	0
695	0	0
696	0	0
697	0	0
698	0	0
699	0	0
700	0	0
701	0	0
702	0	0
703	0	0
704	0	0
705	0	0
706	0	0
707	0	0
708	0	0
709	0	0
710	0	0
711	0	0
712	0	0
713	0	1
714	0	1
715	0	1
716	0	1
717	0	1
718	0	1
719	0	1
720	0	1
721	0	1
722	0	1
723	0	1
724	0	1
725	0	1
726	0	1
727	0	1
728	0	1
729	0	1
730	0	1
731	0	1
732	0	1
733	0	1
734	0	1
735	0	1
736	0	1
737	0	1
738	0	1
739	0	1
740	0	1
741	0	1
742	0	1
743	0	1
744	0	1
745	0	1
746	0	1
747	0	1
748	0	1
749	0	1
750	0	1
751	0	1
752	0	1
753	0	1
754	0	1
755	0	1
756	0	1
757	0	1
758	0	1
759	0	1
760	0	1
761	0	1
762	0	1
763	0	1
764	0	1
765	0	1
766	0	1
767	0	1
768	0	1
769	0	1
770	0	1
771	0	1
772	0	1
773	0	1
774	0	1
775	0	1
776	0	1
777	0	1
778	0	1
779	0	1
780	0	1
781	0	1
782	0	1
783	0	1
784	0	1
785	0	1
786	0	1
787	0	1
788	0	1
789	0	0.960358
790	0	0.649123
791	0	0.649123
792	0	0.649123
793	0	0.649123
794	0	0.497076
795	0	0.497076
796	0	0.515789
797	0	0.515789
798	0	0.515789
799	0	0.515789
800	0	0.515789
801	0	0.515789
802	0	0.515789
803	0	0.515789
804	0	0.663158
805	0	0.663158
806	0	0.663158
807	0	0.663158
808	0	0.663158
809	0	0.663158
810	0	0.663158
811	0	0.663158
812	0	0.663158
813	0	0.663158
814	0	0.663158
815	0	0.663158
816	0	0.663158
817	0	0.663158
818	0	0.663158
819	0	0.663158
820	0	0.663158
821	0	0.663158
822	0	0.663158
823	0	0.663158
824	0	0.663158
825	0	0.663158
826	0	0.663158
827	0	0.663158
828	0	0.663158
829	0	0.663158
830	0	0.663158
831	0	0.663158
832	0	0.663158
833	0	0.663158
834	0	0.663158
835	0	0.663158
836	0	0.663158
837	0	0.663158
838	0	0.663158
839	0	0.663158
840	0	0.663158
841	0	0.663158
842	0	0.663158
843	0	0.663158
844	0	0.663158
845	0	0.663158
846	0	0.663158
847	0	0.663158
848	0	0.663158
849	0	0.663158
850	0	0.663158
851	0	0.663158
852	0	0.663158
853	0	0.663158
854	0	0.663158
855	0	0.663158
856	0	0.663158
857	0	0.663158
858	0	0.663158
859	0	0.663158
860	0	0.663158
861	0	0.663158
862	0	0.663158
863	0	0.663158
864	0	0.663158
865	0	0.663158
866	0	0.663158
867	0	0.663158
868	0	0.663158
869	0	0.663158
870	0	0.663158
871	0	0.663158
872	0	0.663158
873	0	0.663158
874	0	0.663158
875	0	0.663158
876	0	0.663158
877	0	0.663158
878	0	0.663158
879	0	0.663158
880	0	0.663158
881	0	0.663158
882	0	0.663158
883	0	0.663158
884	0	0.663158
885	0	0.663158
886	0	0.663158
887	0	0.663158
888	0	0.663158
889	0	0.663158
890	0	0.663158
891	0	0.663158
892	0	0.663158
893	0	0.663158
894	0	0.663158
895	0	0.663158
896	0	0.663158
897	0	0.663158
898	0	0.663158
899	0	0.663158
900	0	0.663158
901	0	0.663158
902	0	0.663158
903	0	0.663158
904	0	0.663158
905	0	0.663158
906	0	0.663158
907	0	0.663158
908	0	0.663158
909	0	0.663158
910	0	0.663158
911	0	0.663158
912	0	0.663158
913	0	0.663158
914	0	0.663158
915	0	0.663158
916	0	0.663158
917	0	0.663158
918	0	0.663158
919	0	0.663158
920	0	0.663158
921	0	0.663158
922	0	0.663158
923	0	0.663158
924	0	0.663158
925	0	0.663158
926	0	0.663158
927	0	0.663158
928	0	0.663158
929	0	0.663158
930	0	0.663158
931	0	0.663158
932	0	0.663158
933	0	0.663158
934	0	0.663158
935	0	0.663158
936	0	0.663158
937	0	0.515789
938	0	0.663158
939	0	0.663158
940	0	0.663158
941	0	0.663158
942	0	0.663158
943	0	0.663158
944	0	0.663158
945	0	0.6
946	0	0.6
947	0	0.6
948	0	0.6
949	0	0.6
950	0	0.6
951	0	0.6
952	0	0.6
953	0	0.6
954	0	0.6
955	0	0.6
956	0	0.6
957	0	0.842795
958	0	0.842795
959	0	0.6
960	0	0.6
961	0	0.6
962	0	0.6
963	0	0.6
964	0	0.6
965	0	0.6
966	0	0.6
967	0	0.6
968	0	0.6
969	0	0.6
970	0	0.6
971	0	0
972	0	0
973	0	0
974	0	0
975	0	0
976	0	0
977	0	0
978	0	0
979	0	0
980	0	0.842208
981	0	0.6
982	0	0.6
983	0	0.6
984	0	0.6
985	0	0.6
986	0	0.6
987	0	0.6
988	0	0.6
989	0	0.6
990	0	0.6
991	0	0.6
992	0	0.6
993	0	0.6
994	0	0.6
995	0	0.3
996	0	0.3
997	0	0.3
998	0	0.318182
999	0	0.318182
1000	0	0.136364
1001	0	0.136364
1002	0	0.4
1003	0	0.4
1004	0	0.266667
1005	0	0.236364
1006	0	0.333333
1007	0	0.6
1008	0	0.6
1009	0	0.6
1010	0	0.6
1011	0	0.6
1012	0	0.6
1013	0	0.6
1014	0	0.6
1015	0	0.6
1016	0	0.6
1017	0	0.6
1018	0	0.6
1019	0	0.6
1020	0	0.6
1021	0	0.6
1022	0	0.6
1023	0	0.6
1024	0	0.6
1025	0	0.6
1026	0	0.6
1027	0	0.842208
1028	0	0.842208
1029	0	0.633987
1030	0	0.633987
1031	0	0.633987
1032	0	0.633987
1033	0	0.633987
1034	0	0.633987
1035	0	0.567251
1036	0	0.567251
1037	0	0.567251
1038	0	0.567251
1039	0	0.461538
1040	0	0.8
1041	0	0.654545
1042	0	0.654545
1043	0	0.654545
1044	0	0.654545
1045	0	0.425
1046	0	0.425
1047	0	0.425
1048	0	0.425
1049	0	0.425
1050	0	0.425
1051	0	0.425
1052	0	0.466667
1053	0	0.535714
1054	0	0.416667
1055	0	0.416667
1056	0	0.381818
1057	0	0.381818
1058	0	0.366667
1059	0	0.5
1060	0	0.5
1061	0	1
1062	0	1
1063	0	1
1064	0	1
1065	0	1
1066	0	1
1067	0	1
1068	0	1
1069	0	1
1070	0	1
1071	0	1
1072	0	1
1073	0	1
1074	0	1
1075	0	0.875
1076	0	0.875
1077	0	1
1078	0	1
1079	0	1
1080	0	1
1081	0	1
1082	0	1
1083	0	1
1084	0	1
1085	0	1
1086	0	1
1087	0	1
1088	0	0.842208
1089	0	0.842208
1090	0	0.842208
1091	0	0.842208
1092	0	0.792104
1093	0	0.723766
1094	0	1
1095	0	1
1096	0	1
1097	0	1
1098	0	1
1099	0	1
1100	0	1
1101	0	1
1102	0	1
1103	0	1
1104	0	1
1105	0	1
1106	0	1
1107	0	1
1108	0	1
1109	0	1
1110	0	1
1111	0	1
1112	0	1
1113	0	1
1114	0	1
1115	0	1
1116	0	1
1117	0	1
1118	0	1
1119	0	1
1120	0	1
1121	0	1
1122	0	1
1123	0	1
1124	0	1
1125	0	1
1126	0	1
1127	0	1
1128	0	1
1129	0	1
1130	0	1
1131	0	1
1132	0	0.506056
1133	0	0.502008
1134	0	0.502008
1135	0	0.502008
1136	0	0.502008
1137	0	0.663158
1138	0	0.663158
1139	0	0.663158
1140	0	0.663158
1141	0	0.663158
1142	0	0.663158
1143	0	0.663158
1144	0	0.663158
1145	0	0.663158
1146	0	0.663158
1147	0	0.663158
1148	0	0.663158
1149	0	0.663158
1150	0	0.663158
1151	0	0.663158
1152	0	0.663158
1153	0	0.663158
1154	0	0.663158
1155	0	0.663158
1156	0	0.663158
1157	0	0.663158
1158	0	0.663158
1159	0	0.663158
1160	0	0.663158
1161	0	0.663158
1162	0	0.663158
1163	0	0.663158
1164	0	0.663158
1165	0	0.663158
1166	0	0.663158
1167	0	0.663158
1168	0	0.663158
1169	0	0.663158
1170	0	0.663158
1171	0	0.663158
1172	0	0.663158
1173	0	0.663158
1174	0	0.663158
1175	0	0.663158
1176	0	0.663158
1177	0	0.663158
1178	0	0.663158
1179	0	0.663158
1180	0	0.663158
1181	0	0.663158
1182	0	0.663158
1183	0	0.663158
1184	0	0.663158
1185	0	0.663158
1186	0	0.663158
1187	0	0.663158
1188	0	0.663158
1189	0	0.663158
1190	0	0.663158
1191	0	0.663158
1192	0	0.663158
1193	0	0.663158
1194	0	0.663158
1195	0	0.663158
1196	0	0.663158
1197	0	0.663158
1198	0	0.663158
1199	0	0.663158
1200	0	0.663158
1201	0	0.663158
1202	0	0.663158
1203	0	0.663158
1204	0	0.663158
1205	0	0.663158
1206	0	0.663158
1207	0	0.663158
1208	0	0.663158
1209	0	0.663158
1210	0	0.54902
1211	0	0.54902
1212	0	0.54902
1213	0	0.54902
1214	0	0.421053
1215	0	0.251462
1216	0	0.251462
1217	0	0.281046
1218	0	0.281046
1219	0	0.281046
1220	0	0.281046
1221	0	0.281046
1222	0	0.189474
1223	0	0.273684
1224	0	0.273684
1225	0	0.273684
1226	0	0.273684
1227	0	0.273684
1228	0	0.273684
1229	0	0.273684
1230	0	0.247619
1231	0	0.247619
1232	0	0.295238
1233	0	0.295238
1234	0	0.295238
1235	0	0.295238
1236	0	0.147619
1237	0	0.143791
1238	0	0.147619
1239	0	0.147619
1240	0	0.147619
1241	0	0.183824
1242	0	0.183824
1243	0	0.171429
1244	0	0.198529
1245	0	0.147059
1246	0	0.147059
1247	0	0.147059
1248	0	0.147059
1249	0	0.147059
1250	0	0.147059
1251	0	0.154412
1252	0	0.175
1253	0	0.175
1254	0	0.175
1255	0	0.175
1256	0	0.2
1257	0	0.21978
1258	0	0.21978
1259	0	0.21978
1260	0	0.21978
1261	0	0.25641
1262	0	0.25641
1263	0	0.25641
1264	0	0.357143
1265	0	0.49992
1266	0	0.49992
1267	0	0.490817
1268	0	0
1269	0	0
1270	0	0.430861
1271	0	0.429906
1272	0	0.323331
1273	0	0.225296
1274	0	0.298246
1275	0	0.298246
1276	0	0.333333
1277	0	0.333333
1278	0	0.298246
1279	0	0.298246
1280	0	0.298246
1281	0	0.298246
1282	0	0.304094
1283	0	0.304094
1284	0	0.192982
1285	0	0.175439
1286	0	0.146199
1287	0	0.146199
1288	0	0.146199
1289	0	0.146199
1290	0	0.146199
1291	0	0.134503
1292	0	0.180952
1293	0	0.202614
1294	0	0.202614
1295	0	0.169935
1296	0	0.169935
1297	0	0.169935
1298	0	0.169935
1299	0	0.169935
1300	0	0.169935
1301	0	0.175824
1302	0	0.175824
1303	0	0.128655
1304	0	0.128655
1305	0	0.143791
1306	0	0.143791
1307	0	0.169935
1308	0	0.169935
1309	0	0.169935
1310	0	0.157895
1311	0	0.15
1312	0	0.122807
1313	0	0.116959
1314	0	0.152047
1315	0	0.152047
1316	0	0.152047
1317	0	0.152047
1318	0	0.152047
1319	0	0.152047
1320	0	0.152047
1321	0	0.152047
1322	0	0.152047
1323	0	0.152047
1324	0	0.152047
1325	0	0.152047
1326	0	0.152047
1327	0	0.157895
1328	0	0.157895
1329	0	0.150327
1330	0	0.133333
1331	0	0.115385
1332	0	0.153846
1333	0	0.153846
1334	0	0.153846
1335	0	0.153846
1336	0	0.153846
1337	0	0.153846
1338	0	0.153846
1339	0	0.131868
1340	0	0.131868
1341	0	0.131868
1342	0	0.157895
1343	0	0.157895
1344	0	0.157895
1345	0	0.157895
1346	0	0.142105
1347	0	0.142105
1348	0	0.1
1349	0	0.117647
1350	0	0.117647
1351	0	0.117647
1352	0	0.0980392
1353	0	0.0980392
1354	0	0.0882353
1355	0	0.0882353
1356	0	0.111111
1357	0	0.111111
1358	0	0.140351
1359	0	0.140351
1360	0	0.245614
1361	0	0.245614
1362	0	0.245614
1363	0	0.268421
1364	0	0.321053
1365	0	0.321053
1366	0	0.326316
1367	0	0.326316
1368	0	0.326316
1369	0	0.384211
1370	0	0.384211
1371	0	0.384211
1372	0	0.384211
1373	0	0.384211
1374	0	0.558333
1375	0	0.558333
1376	0	0.758333
1377	0	0.758333
1378	0	0.758333
1379	0	0.758333
1380	0	0.758333
1381	0	0.758333
1382	0	0.758333
1383	0	0.758333
1384	0	0.758333
1385	0	0.758333
1386	0	0.758333
1387	0	0.758333
1388	0	0.758333
1389	0	0.758333
1390	0	0.758333
1391	0	0.758333
1392	0	0.758333
1393	0	0.758333
1394	0	0.758333
1395	0	0.758333
1396	0	0.758333
1397	0	0.758333
1398	0	0.758333
1399	0	0.758333
1400	0	0.758333
1401	0	0.758333
1402	0	0.758333
1403	0	0.758333
1404	0	0.758333
1405	0	0.758333
1406	0	0.758333
1407	0	0.758333
1408	0	0.758333
1409	0	0.758333
1410	0	0.758333
1411	0	0.758333
1412	0	0.758333
1413	0	0.758333
1414	0	0.758333
1415	0	0.758333
1416	0	0.758333
1417	0	0.758333
1418	0	0.758333
1419	0	0.758333
1420	0	0.758333
1421	0	0.758333
1422	0	0.758333
1423	0	0.875
1424	0	0.818182
1425	0	0.458333
1426	0	0.458333
1427	0	0.438095
1428	0	0.438095
1429	0	0.383333
1430	0	0.383333
1431	0	0.383333
1432	0	0.383333
1433	0	0.383333
1434	0	0.191667
1435	0	0.4
1436	0	0.483333
1437	0	0.483333
1438	0	0.552381
1439	0	0.1
1440	0	0.1
1441	0	0.1
1442	0	0.65
1443	0	0.65
1444	0	0.65
1445	0	0.65
1446	0	0.65
1447	0	0.65
1448	0	0.65
1449	0	0.65
1450	0	0.65
1451	0	0.65
1452	0	0.65
1453	0	0.65
1454	0	0.65
1455	0	0.65
1456	0	0.65
1457	0	0.65
1458	0	0.65
1459	0	0.65
1460	0	0.65
1461	0	0.65
1462	0	0.65
1463	0	0.65
1464	0	0.65
1465	0	0.65
1466	0	0.65
1467	0	0.558333
1468	0	0.558333
1469	0	0.558333
1470	0	0.558333
1471	0	0.558333
1472	0	0.55
1473	0	0.55
1474	0	0.55
1475	0	0.258333
1476	0	0.295238
1477	0	0.397436
1478	0	0.397436
1479	0	0.397436
1480	0	0.397436
1481	0	0.397436
1482	0	0.397436
1483	0	0.409091
1484	0	0.47619
1485	0	0.535714
1486	0	0.714286
1487	0	0.714286
1488	0	0.197802
1489	0	0.171429
1490	0	0.15
1491	0	0.15
1492	0	0.0916667
1493	0	0.0545455
1494	0	0.133333
1495	0	0.133333
1496	0	0.152381
1497	0	0.152381
1498	0	0.152381
1499	0	0.180952
1500	0	0.180952
1501	0	0.190476
1502	0	0.191667
1503	0	0.191667
1504	0	0.191667
1505	0	0.191667
1506	0	0.191667
1507	0	0.191667
1508	0	0.191667
1509	0	0.233333
1510	0	0.233333
1511	0	0.225
1512	0	0.225
1513	0	0.225
1514	0	0.225
1515	0	0.225
1516	0	0.225
1517	0	0.225
1518	0	0.257143
1519	0	0.257143
1520	0	0.257143
1521	0	0.257143
1522	0	0.257143
1523	0	0.257143
1524	0	0.257143
1525	0	0.257143
1526	0	0.257143
1527	0	0.257143
1528	0	0.257143
1529	0	0.257143
1530	0	0.225
1531	0	0.225
1532	0	0.225
1533	0	0.225
1534	0	0.225
1535	0	0.225
1536	0	0.233333
1537	0	0.233333
1538	0	0.233333
1539	0	0.183333
1540	0	0.183333
1541	0	0.177778
1542	0	0.466667
1543	0	0.466667
1544	0	0.52381
1545	0	0.736264
1546	0	0.752381
1547	0	0.752381
1548	0	0.833333
1549	0	0.508333
1550	0	0.758333
1551	0	0.758333
1552	0	0.758333
1553	0	0.758333
1554	0	0.758333
1555	0	0.758333
1556	0	0.758333
1557	0	0.758333
1558	0	0.758333
1559	0	0.758333
1560	0	0.758333
1561	0	0.758333
1562	0	0.758333
1563	0	0.758333
1564	0	0.758333
1565	0	0.758333
1566	0	0.758333
1567	0	0.758333
1568	0	0.758333
1569	0	0.758333
1570	0	0.758333
1571	0	0.758333
1572	0	0.758333
1573	0	0.758333
1574	0	0.758333
1575	0	0.758333
1576	0	0.758333
1577	0	0.758333
1578	0	0.758333
1579	0	0.758333
1580	0	0.758333
1581	0	0.758333
1582	0	0.875
1583	0	0.875
1584	0	0.875
1585	0	0.818182
1586	0	0.458333
1587	0	0.875
1588	0	0.875
1589	0	0.875
1590	0	0.875
1591	0	0.875
1592	0	0.875
1593	0	0.875
1594	0	0.875
1595	0	0.875
1596	0	0.875
1597	0	0.875
1598	0	0.875
1599	0	0.758333
1600	0	0.857143
1601	0	0.758333
1602	0	0.875
1603	0	0.875
1604	0	0.875
1605	0	0.875
1606	0	0.875
1607	0	0.875
1608	0	0.875
1609	0	0.875
1610	0	0.875
1611	0	0.875
1612	0	0.875
1613	0	0.875
1614	0	0.875
1615	0	0.875
1616	0	0.875
1617	0	0.875
1618	0	0.875
1619	0	0.875
1620	0	0.875
1621	0	0.875
1622	0	0.875
1623	0	0.875
1624	0	0.875
1625	0	0.875
1626	0	0.875
1627	0	0.875
1628	0	0.875
1629	0	0.875
1630	0	0.875
1631	0	0.333333
1632	0	0.638095
1633	0	0.488889
1634	0	0.488889
1635	0	0.308333
1636	0	0.308333
1637	0	0.425
1638	0	0.425
1639	0	0.425
1640	1	1
1641	1	1
1642	1	1
1643	0	0.6
1644	0	1
1645	1	1
1646	1	1
1647	1	1
1648	1	1
1649	1	1
1650	1	1
1651	1	1
1652	1	1
1653	1	1
1654	1	1
1655	1	1
1656	1	1
1657	1	1
1658	1	1
1659	1	1
1660	1	1
1661	1	1
1662	1	1
1663	1	1
1664	1	1
1665	1	1
1666	1	1
1667	1	1
1668	1	1
1669	1	1
1670	1	1
1671	1	1
1672	1	1
1673	1	1
1674	1	1
1675	1	1
1676	1	1
1677	1	1
1678	1	1
1679	1	1
1680	1	1
1681	1	1
1682	1	1
1683	1	1
1684	1	1
1685	1	1
1686	1	1
1687	0	1
1688	0	0.666667
1689	0	0.283333
1690	0	0.32381
1691	0	0.392857
1692	0	0.392857
1693	0	0.392857
1694	0	0.392857
1695	0	0.52381
1696	0	1
1697	0	1
1698	1	1
1699	1	1
1700	1	1
1701	1	1
1702	1	1
1703	1	1
1704	1	1
1705	1	1
1706	1	1
1707	1	1
1708	1	1
1709	1	1
1710	1	1
1711	1	1
1712	1	1
1713	1	1
1714	1	1
1715	1	1
1716	1	1
1717	1	1
1718	1	1
1719	1	1
1720	1	1
1721	1	1
1722	1	1
1723	1	1
1724	1	1
1725	1	1
1726	1	1
1727	1	1
1728	1	1
1729	1	1
1730	1	1
1731	1	1
1732	1	1
1733	1	1
1734	1	1
1735	1	1
1736	1	1
1737	1	1
1738	1	1
1739	1	1
1740	1	1
1741	1	1
1742	1	1
1743	1	1
1744	1	1
1745	1	1
1746	1	1
1747	1	1
1748	1	1
1749	1	1
1750	1	1
1751	1	1
1752	1	1
1753	1	1
1754	1	1
1755	1	1
1756	1	1
1757	1	1
1758	1	1
1759	1	1
1760	1	1
1761	1	1
1762	1	1
1763	1	1
1764	1	1
1765	1	1
1766	1	1
1767	1	1
1768	1	1
1769	1	1
1770	1	1
1771	1	1
1772	1	1
1773	1	1
1774	1	1
1775	1	1
1776	1	1
1777	1	1
1778	1	1
1779	1	1
1780	1	1
1781	1	1
1782	1	1
1783	1	1
1784	1	1
1785	1	1
1786	1	1
1787	1	1
1788	1	1
1789	1	1
1790	1	1
1791	1	1
1792	1	1
1793	1	1
1794	1	1
1795	1	1
1796	1	1
1797	1	1
1798	1	1
1799	1	1
1800	1	1
1801	1	1
1802	1	1
1803	1	1
1804	1	1
1805	0	1
1806	0	1
1807	0	1
1808	0	1
1809	0	1
1810	0	1
1811	0	1
1812	0	0
1813	0	0
1814	0	0
1815	0	0
1816	0	0.705128
1817	0	0.705128
1818	0	0.494505
1819	0	0.494505
1820	0	0.274725
1821	0	0.21978
1822	0	0.21978
1823	0	0.166667
1824	0	0.166667
1825	0	0.5
1826	0	0.666667
1827	0	0.666667
1828	0	1
1829	0	1
1830	0	1
1831	1	1
1832	1	1
1833	1	1
1834	1	1
1835	1	1
1836	1	1
1837	1	1
1838	1	1
1839	1	1
1840	1	1
1841	1	1
1842	1	1
1843	1	1
1844	1	1
1845	1	1
1846	1	1
1847	1	1
1848	1	1
1849	1	1
1850	1	1
1851	1	1
1852	1	1
1853	1	1
1854	1	1
1855	1	1
1856	1	1
1857	1	1
1858	1	1
1859	1	1
1860	1	1
1861	1	1
1862	1	1
1863	1	1
1864	1	1
1865	1	1
1866	1	1
1867	1	1
1868	1	1
1869	1	1
1870	1	1
1871	1	1
1872	1	1
1873	1	1
1874	1	1
1875	1	1
1876	1	1
1877	1	1
1878	1	1
1879	1	1
1880	1	1
1881	1	1
1882	1	1
1883	1	1
1884	1	1
1885	1	1
1886	1	1
1887	1	1
1888	1	1
1889	1	1
1890	1	1
1891	1	1
1892	1	1
1893	1	1
1894	1	1
1895	1	1
1896	1	1
1897	1	1
1898	1	1
1899	1	1
1900	1	1
1901	1	1
1902	1	1
1903	1	1
1904	1	1
1905	1	1
1906	1	1
1907	0	0.4
1908	0	0.304762
1909	0	0.304762
1910	0	0.304762
1911	0	0.304762
1912	0	0.304762
1913	0	0.304762
1914	0	0.304762
1915	0	0.304762
1916	0	0.304762
1917	0	0.247619
1918	0	0.247619
1919	0	0.247619
1920	0	0.247619
1921	0	0.247619
1922	0	0.217949
1923	0	0.218182
1924	0	0.218182
1925	0	0.218182
1926	0	0.266667
1927	0	0.305556
1928	0	0.305556
1929	0	0.305556
1930	0	0.294872
1931	0	0.294872
1932	0	0.294872
1933	0	0.290909
1934	0	0.244444
1935	0	0.236364
1936	0	0.2
1937	0	0.2
1938	0	0.3
1939	0	0.3
1940	0	0.3
1941	0	0.5
1942	0	0.5
1943	0	0.5
