Site	ColumnScore	SumOfPairsScore
1	0	0.75
2	0	0.777778
3	0	0.777778
4	0	0.777778
5	0	0.777778
6	0	0.777778
7	0	0.777778
8	0	0.777778
9	0	0.777778
10	0	0.777778
11	0	0.777778
12	0	0.777778
13	0	0.777778
14	0	0.777778
15	0	0.777778
16	0	0.777778
17	0	0.777778
18	0	0.777778
19	0	0.777778
20	0	0.777778
21	0	0.777778
22	0	0.777778
23	0	0.777778
24	0	0.777778
25	0	0.777778
26	0	0.777778
27	0	0.777778
28	0	0.777778
29	0	0.777778
30	0	0.777778
31	0	0.777778
32	0	0.777778
33	0	0.777778
34	0	0.777778
35	0	0.777778
36	0	0.777778
37	0	0.777778
38	0	0.777778
39	0	0.777778
40	0	0.777778
41	0	0.777778
42	0	0.777778
43	0	0.777778
44	0	0.777778
45	0	0.777778
46	0	0.777778
47	0	0.777778
48	0	0.777778
49	0	0.777778
50	0	0.777778
51	0	0.777778
52	0	0.777778
53	0	0.777778
54	0	0.777778
55	0	0.777778
56	0	0.777778
57	0	0.777778
58	0	0.777778
59	0	0.777778
60	0	0.777778
61	0	0.777778
62	0	0.777778
63	0	0.777778
64	0	0.777778
65	0	0.777778
66	0	0.777778
67	0	0.777778
68	0	0.777778
69	0	0.777778
70	0	0.5
71	0	0.5
72	0	0.5
73	0	0.464286
74	0	0.428571
75	0	0.428571
76	0	0.428571
77	0	0.428571
78	0	0.428571
79	0	1
80	0	1
81	0	0.777778
82	0	1
83	0	1
84	0	1
85	0	1
86	0	1
87	0	1
88	0	1
89	0	1
90	0	1
91	0	1
92	0	1
93	0	1
94	0	1
95	0	1
96	0	1
97	0	1
98	0	1
99	0	1
100	0	1
101	0	1
102	0	1
103	0	1
104	0	1
105	0	1
106	0	1
107	0	1
108	0	1
109	0	1
110	0	1
111	0	1
112	0	1
113	0	1
114	0	1
115	0	1
116	0	1
117	0	1
118	0	1
119	0	1
120	0	1
121	0	1
122	0	1
123	0	1
124	0	1
125	0	1
126	0	1
127	0	1
128	0	1
129	0	1
130	0	1
131	0	1
132	0	1
133	0	1
134	0	1
135	0	1
136	0	1
137	0	1
138	0	1
139	0	1
140	0	1
141	0	1
142	0	1
143	0	1
144	0	1
145	0	1
146	0	1
147	0	1
148	0	1
149	0	1
150	0	1
151	0	1
152	0	1
153	0	1
154	0	1
155	0	1
156	0	1
157	0	1
158	0	1
159	0	1
160	0	1
161	0	1
162	0	1
163	0	1
164	0	1
165	0	1
166	0	1
167	0	1
168	0	1
169	0	1
170	0	1
171	0	1
172	0	1
173	0	1
174	0	1
175	0	1
176	0	1
177	0	1
178	0	1
179	0	1
180	0	1
181	0	1
182	0	1
183	0	1
184	0	1
185	0	1
186	0	1
187	0	1
188	0	1
189	0	1
190	0	1
191	0	1
192	0	1
193	0	1
194	0	1
195	0	1
196	0	1
197	0	1
198	0	1
199	0	1
200	0	1
201	0	1
202	0	1
203	0	1
204	0	1
205	0	1
206	0	1
207	0	1
208	0	1
209	0	1
210	0	1
211	0	1
212	0	1
213	0	1
214	0	1
215	0	1
216	0	1
217	0	1
218	0	1
219	0	1
220	0	1
221	0	1
222	0	1
223	0	1
224	0	1
225	0	1
226	0	1
227	0	1
228	0	1
229	0	1
230	0	1
231	0	1
232	0	1
233	0	1
234	0	0.464286
235	0	0.464286
236	0	0.464286
237	0	0.464286
238	0	0.464286
239	0	0.464286
240	0	0.464286
241	0	0.464286
242	0	0.464286
243	0	0.464286
244	0	0.464286
245	0	0.464286
246	0	0.464286
247	0	0.464286
248	0	0.464286
249	0	0.464286
250	0	0.142857
251	0	0.142857
252	0	0.142857
253	0	0.142857
254	0	0.142857
255	0	0.142857
256	0	0.142857
257	0	0.1
258	0	0.1
259	0	0.166667
260	0	0.333333
261	0	0.333333
262	0	0.333333
263	0	0
264	0	0
265	0	0
266	0	0
267	0	0
268	0	0
269	0	0
270	0	0
271	0	0
272	0	0
273	0	0
274	0	0
275	0	0
276	0	0
277	0	0
278	0	0
279	0	0
280	0	0
281	0	0
282	0	0
283	0	0
284	0	0
285	0	0
286	0	0
287	0	0
288	0	0
289	0	0
290	0	0
291	0	0
292	0	0
293	0	0
294	0	0
295	0	0
296	0	0
297	0	0
298	0	0
299	0	0
300	0	0
301	0	0
302	0	0
303	0	0
304	0	0
305	0	0
306	0	0
307	0	0
308	0	0
309	0	0
310	0	0
311	0	0
312	0	0
313	0	0
314	0	0
315	0	0
316	0	0
317	0	0
318	0	0
319	0	0
320	0	0
321	0	0
322	0	0
323	0	0
324	0	0
325	0	0
326	0	0
327	0	0
328	0	0
329	0	0
330	0	0
331	0	0
332	0	0
333	0	0
334	0	0
335	0	0.0128205
336	0	0.455663
337	0	0.417304
338	0	0.417304
339	0	0.394597
340	0	0.374054
341	0	0.314363
342	0	0.269152
343	0	0.215496
344	0	0.170037
345	0	0.141444
346	0	0.13708
347	0	0.134288
348	0	0.131624
349	0	0.13309
350	0	0.13188
351	0	0.130012
352	0	0.131163
353	0	0.333333
354	0	0.333333
355	0	0.333333
356	0	0.333333
357	0	0.333333
358	0	0
359	0	0
360	0	0
361	0	0
362	0	0
363	0	0
364	0	0
365	0	0
366	0	0
367	0	0
368	0	0
369	0	0
370	0	0
371	0	0
372	0	0
373	0	0
374	0	0
375	0	0
376	0	0
377	0	0
378	0	0
379	0	0
380	0	0.14611
381	0	0
382	0	0
383	0	0
384	0	0.161765
385	0	0.134503
386	0	0.0285714
387	0	0.120199
388	0	0.114802
389	0	0.123178
390	0	0.125147
391	0	0.120267
392	0	0.116406
393	0	0.0917547
394	0	0.0950649
395	0	0.103621
396	0	0.100061
397	0	0.100552
398	0	0.0876022
399	0	0.107574
400	0	0.14656
401	0	0.111548
402	0	0.113101
403	0	0.235928
404	0	0.318447
405	0	0.340655
406	0	0.361978
407	0	0
408	0	0
409	0	0
410	0	0
411	0	0
412	0	0
413	0	0
414	0	0
415	0	0
416	0	0.154412
417	0	0.154412
418	0	0.143791
419	0	0.383931
420	0	0.368137
421	0	0.361476
422	0	0.343756
423	0	0.342262
424	0	0.342262
425	0	0.337206
426	0	0.189723
427	0	0.401852
428	0	0.102941
429	0	0.0842105
430	0	0.0842105
431	0	0.0849673
432	0	0.0760234
433	0	0.0760234
434	0	0.0606061
435	0	0.395625
436	0	0.366346
437	0	0.295659
438	0	0.420696
439	0	0.395622
440	0	0.0384615
441	0	0.0333333
442	0	0.349894
443	0	0
444	0	0
445	0	0
446	0	0
447	0	0
448	0	0.094778
449	0	0.0859539
450	0	0.047619
451	0	0.0780861
452	0	0.0770131
453	0	0.0650407
454	0	0.0485295
455	0	0.0221675
456	0	0.0246305
457	0	0.0197044
458	0	0.0246305
459	0	0.0535885
460	0	0.0469811
461	0	0.0605037
462	0	0.0694151
463	0	0.0174216
464	0	0.0174216
465	0	0.0219512
466	0	0.0242424
467	0	0.0197445
468	0	0.0761792
469	0	0.093139
470	0	0.128802
471	0	0.168746
472	0	0.0916667
473	0	0.030303
474	0	0.030303
475	0	0.030303
476	0	0.0363636
477	0	0.249286
478	0	0.122429
479	0	0.110377
480	0	0
481	0	0
482	0	0
483	0	0.143501
484	0	0.121245
485	0	0.126769
486	0	0
487	0	0
488	0	0
489	0	0
490	0	0
491	0	0
492	0	0
493	0	0
494	0	0
495	0	0
496	0	0
497	0	0
498	0	0
499	0	0.119258
500	0	0.117723
501	0	0.054878
502	0	0.138728
503	0	0.138311
504	0	0.132874
505	0	0.191315
506	0	0.0666667
507	0	0
508	0	0
509	0	0
510	0	0
511	0	0
512	0	0
513	0	0
514	0	0
515	0	0
516	0	0
517	0	0
518	0	0
519	0	0
520	0	0
521	0	0
522	0	0.419355
523	0	0.324421
524	0	0.339015
525	0	0.312808
526	0	0.353276
527	0	0.353276
528	0	0.227941
529	0	0.12987
530	0	0.135472
531	0	0.135472
532	0	0.0838382
533	0	0.0826354
534	0	0.0882431
535	0	0.069911
536	0	0.0675753
537	0	0.066132
538	0	0
539	1	0
540	1	0
541	0	0
542	0	0
543	0	0
544	0	0
545	1	0
546	0	0
547	0	0
548	0	0
549	1	0
550	1	0
551	1	0
552	1	0
553	1	0
554	1	0
555	1	0
556	1	0
557	1	0
558	0	0
559	0	0.111232
560	0	0.114566
561	0	0.134734
562	0	0.105677
563	0	0.0391363
564	0	0.0507937
565	0	0
566	0	0
567	0	0
568	0	0
569	0	0
570	0	0
571	0	0
572	0	0.08
573	0	0
574	0	0
575	0	0
576	0	0.0970352
577	0	0.103294
578	0	0.107264
579	0	0.11013
580	0	0.129844
581	0	0.206349
582	0	0.175115
583	0	0.161552
584	0	0.165683
585	0	0.189153
586	0	0.198789
587	0	0.229991
588	0	0.333333
589	0	0.333333
590	0	0.333333
591	0	0.333333
592	0	0.333333
593	0	0.415492
594	0	0.419143
595	0	0.0666667
596	0	0.0666667
597	0	0
598	0	0
599	0	0
600	0	0
601	0	0
602	0	0
603	0	0.437908
604	0	0.45614
605	0	0.327586
606	0	0.361742
607	0	0.52381
608	0	0.731092
609	0	0.731092
610	0	0.731092
611	0	0
612	0	0
613	0	0
614	0	0
615	0	0
616	0	0
617	0	0
618	0	0
619	0	0.333333
620	0	0.333333
621	0	0.5
622	0	0.666667
623	0	0.911521
624	0	0.925802
625	0	0.940551
626	0	0.940551
627	0	0.5
628	0	0.97425
629	0	0.97436
630	0	0.974577
631	0	0
632	0	0
633	0	0
634	0	0
635	0	0
636	0	0
637	0	0
638	0	0
639	0	0
640	0	0
641	0	0
642	0	0
643	0	0
644	0	0
645	0	0
646	0	0
647	0	0
648	0	0
649	0	0
650	0	0
651	0	0
652	0	0
653	0	0
654	0	0
655	0	0
656	0	0
657	0	0
658	0	0
659	0	0
660	0	0
661	0	0
662	0	0
663	0	0
664	0	0
665	0	0
666	0	0
667	0	0
668	0	0
669	0	0
670	0	0
671	0	0
672	0	0
673	0	0
674	0	0
675	0	0
676	0	0
677	0	0
678	0	0
679	0	0
680	0	0
681	0	0
682	0	0
683	0	0
684	0	0
685	0	0
686	0	0
687	0	0
688	0	0
689	0	0
690	0	0
691	0	0
692	0	0
693	0	0
694	0	0
695	0	0
696	0	0
697	0	0
698	0	0
699	0	0
700	0	0
701	0	0
702	0	0
703	0	0
704	0	0
705	0	0
706	0	0
707	0	0
708	0	0
709	0	0
710	0	0
711	0	0
712	0	0
713	0	0
714	0	0
715	0	0
716	0	0
717	0	0
718	0	0
719	0	0
720	0	0
721	0	0
722	0	0
723	0	0
724	0	0
725	0	0
726	0	0
727	0	0
728	0	0
729	0	0
730	0	0
731	0	0
732	0	0
733	0	0
734	0	0
735	0	0
736	0	0
737	0	0
738	0	0
739	0	0
740	0	0
741	0	0
742	0	0
743	0	0
744	0	0
745	0	0
746	0	0
747	0	0
748	0	0
749	0	0
750	0	0
751	0	0
752	0	0
753	0	0
754	0	0
755	0	0
756	0	0
757	0	0
758	0	0
759	0	0
760	0	0
761	0	0
762	0	0
763	0	0
764	0	0
765	0	0
766	0	0
767	0	0
768	0	0
769	0	0
770	0	0
771	0	0
772	0	0
773	0	0
774	0	0
775	0	0
776	0	0
777	0	0
778	0	0
779	0	0
780	0	0
781	0	0
782	0	0
783	0	0
784	0	0
785	0	0
786	0	0
787	0	0
788	0	0
789	0	0
790	0	0
791	0	0
792	0	0
793	0	0
794	0	0
795	0	0
796	0	0
797	0	0
798	0	0
799	0	0
800	0	0
801	0	0
802	0	0
803	0	0
804	0	0
805	0	0
806	0	0
807	0	0
808	0	0
809	0	0
810	0	0
811	0	0
812	0	0
813	0	0
814	0	0
815	0	0
816	0	0
817	0	0
818	0	0
819	0	0
820	0	0
821	0	0
822	0	0
823	0	0
824	0	0
825	0	0
826	0	0
827	0	0
828	0	0
829	0	0
830	0	0
831	0	0
832	0	0
833	0	0
834	0	0
835	0	0
836	0	0
837	0	0
838	0	0
839	0	0
840	0	0
841	0	0
842	0	0
843	0	0
844	0	0
845	0	0
846	0	0
847	0	0
848	0	0
849	0	0
850	0	0
851	0	0
852	0	0
853	0	0
854	0	0
855	0	0
856	0	0
857	0	0
858	0	0
859	0	0
860	0	0.983087
861	0	0.983087
862	0	0.983087
863	0	0
864	0	0
865	0	0
866	0	0
867	0	0
868	0	0
869	0	0
870	0	0
871	0	0
872	0	0
873	0	0
874	0	0
875	0	0
876	0	0
877	0	0
878	1	0
879	1	0
880	1	0
881	1	0
882	1	0
883	0	0
884	0	0
885	0	0
886	0	0
887	0	0.974932
888	0	0.974932
889	0	0.974932
890	0	0.974932
891	0	0.974932
892	0	0.975036
893	0	0.975036
894	0	0.975036
895	0	0.975036
896	0	0.975036
897	0	0.975742
898	0	0.975742
899	0	0.991803
900	0	0.991803
901	0	0.991803
902	0	0.991803
903	0	0.99177
904	0	1
905	0	1
906	0	0.943466
907	0	0.928256
908	0	0.95185
909	0	0.951263
910	0	0.951263
911	0	0.95185
912	0	0.959585
913	0	0.959421
914	0	0.911914
915	0	0.896303
916	0	0.903673
917	0	1
918	0	0.885918
919	0	0.83066
920	0	0.4737
921	0	0.418477
922	0	0.38427
923	0	0.388613
924	0	0.365493
925	0	0.345537
926	0	0.347826
927	0	0.293447
928	0	0.269841
929	0	0.259444
930	0	0.195994
931	0	0.18664
932	0	1
933	0	0.217639
934	0	0.19226
935	0	0.156109
936	0	0.17432
937	0	0.249663
938	0	0.249663
939	0	0.208085
940	0	0.177273
941	0	0.165217
942	0	0.200883
943	0	0.242925
944	0	0.357143
945	0	0.47619
946	0	0.47619
947	0	0
948	0	0
949	0	0
950	0	0.496834
951	0	0.0666667
952	0	0.0666667
953	0	0.0666667
954	0	0.0666667
955	0	0.411448
956	0	0.417787
957	0	0.419579
958	0	0.441851
959	0	0.468457
960	0	0.471441
961	0	0.47689
962	0	0.474803
963	0	0.467131
964	0	0.467098
965	0	0.467065
966	0	0.472407
967	0	0.464737
968	0	0.460959
969	0	0.450523
970	0	0.414369
971	0	0.39708
972	0	0.390377
973	0	0.276648
974	0	0.0608466
975	0	0.347059
976	0	0.327576
977	0	0.030303
978	0	0.303976
979	0	0.314077
980	0	0
981	0	0
982	0	0
983	0	0
984	0	0
985	0	0.278631
986	0	0.271094
987	0	0.273068
988	0	0.107617
989	0	0.115304
990	0	0.105581
991	0	0.263285
992	0	0.36698
993	0	0.367225
994	0	0.36712
995	0	0
996	0	0
997	0	0
998	0	0
999	0	0
1000	0	0.732869
1001	0	0.595137
1002	0	0.568687
1003	0	0.323538
1004	0	0.223529
1005	0	0.296703
1006	0	0.154536
1007	0	0.14945
1008	0	0
1009	0	0
1010	0	0
1011	0	0
1012	0	0
1013	0	0
1014	0	0
1015	0	0
1016	0	0.558333
1017	0	0.628079
1018	0	0.28303
1019	0	0.231269
1020	0	0.247527
1021	0	0.302534
1022	0	0.276209
1023	0	0.302447
1024	0	0.399226
1025	0	0.409728
1026	0	0.461392
1027	0	0.545187
1028	0	0.2
1029	0	0.178571
1030	0	0.266667
1031	0	0
1032	0	0
1033	0	0
1034	0	0
1035	0	0
1036	0	0
1037	0	0
1038	0	0
1039	0	0.616601
1040	0	0.24359
1041	0	0.25889
1042	0	0.522523
1043	0	0.809195
1044	0	0.333333
1045	0	0.333333
1046	0	0.333333
1047	0	1
1048	0	1
1049	0	0.893912
1050	0	0.918983
1051	0	0.934959
1052	0	0.392857
1053	0	0.666667
1054	0	0.666667
1055	0	1
1056	1	1
1057	1	1
1058	1	1
1059	1	1
1060	1	1
1061	1	1
1062	1	1
1063	1	1
1064	1	1
1065	1	1
1066	1	1
1067	1	1
1068	1	1
1069	1	1
1070	1	1
1071	1	1
1072	0	0.706
1073	0	0.955556
1074	1	1
1075	1	1
1076	0	0.955556
1077	0	0.955556
1078	0	0.983839
1079	0	0.983871
1080	1	1
1081	1	1
1082	1	1
1083	1	1
1084	1	1
1085	1	1
1086	1	1
1087	1	1
1088	1	1
1089	1	1
1090	1	1
1091	1	1
1092	1	1
1093	1	1
1094	1	1
1095	1	1
1096	1	1
1097	1	1
1098	1	1
1099	1	1
1100	1	1
1101	1	1
1102	1	1
1103	1	1
1104	1	1
1105	1	1
1106	1	1
1107	1	1
1108	1	1
1109	1	1
1110	1	1
1111	1	1
1112	1	1
1113	1	1
1114	1	1
1115	1	1
1116	1	1
1117	1	1
1118	1	1
1119	1	1
1120	1	1
1121	1	1
1122	1	1
1123	0	0.983806
1124	0	1
1125	0	0.976193
1126	1	1
1127	1	1
1128	1	1
1129	1	1
1130	1	1
1131	1	1
1132	1	1
1133	1	1
1134	1	1
1135	1	1
1136	1	1
1137	0	0.982609
1138	0	0.498309
1139	0	0.498309
1140	0	0.493993
1141	0	0.446361
1142	0	0.446779
1143	0	0.44669
1144	1	1
1145	1	1
1146	1	1
1147	1	1
1148	1	1
1149	1	1
1150	1	1
1151	1	1
1152	1	1
1153	1	1
1154	1	1
1155	1	1
1156	1	1
1157	1	1
1158	1	1
1159	1	1
1160	1	1
1161	1	1
1162	1	1
1163	1	1
1164	1	1
1165	1	1
1166	1	1
1167	1	1
1168	1	1
1169	1	1
1170	1	1
1171	1	1
1172	1	1
1173	1	1
1174	1	1
1175	1	1
1176	1	1
1177	1	1
1178	1	1
1179	1	1
1180	1	1
1181	0	1
1182	0	0.984001
1183	0	0.968289
1184	0	0.976098
1185	1	1
1186	1	1
1187	1	1
1188	1	1
1189	1	1
1190	1	1
1191	1	1
1192	1	1
1193	1	1
1194	1	1
1195	1	1
1196	1	1
1197	1	1
1198	1	1
1199	1	1
1200	1	1
1201	1	1
1202	1	1
1203	1	1
1204	1	1
1205	1	1
1206	1	1
1207	1	1
1208	1	1
1209	1	1
1210	1	1
1211	1	1
1212	1	1
1213	1	1
1214	1	1
1215	1	1
1216	1	1
1217	1	1
1218	1	1
1219	1	1
1220	1	1
1221	1	1
1222	1	1
1223	1	1
1224	1	1
1225	1	1
1226	1	1
1227	1	1
1228	1	1
1229	1	1
1230	1	1
1231	1	1
1232	1	1
1233	1	1
1234	1	1
1235	1	1
1236	1	1
1237	1	1
1238	1	1
1239	1	1
1240	1	1
1241	0	0
1242	0	0
1243	0	0
1244	0	0
1245	0	0.991968
1246	0	0.6
1247	0	0.6
1248	0	0.4
1249	0	0.25
1250	0	0.25
1251	0	0.80728
1252	0	0.791177
1253	0	0.666373
1254	0	0.546339
1255	0	0.15121
1256	0	0.172988
1257	0	0.156463
1258	0	0.261803
1259	0	0.252889
1260	0	0.22623
1261	0	0.263226
1262	0	0.247441
1263	0	0.253336
1264	0	0.242097
1265	0	0.242097
1266	0	0.436007
1267	0	0.373105
1268	0	0.370249
1269	0	0.37102
1270	0	0.365687
1271	0	0.364402
1272	0	0.266217
1273	0	0.185863
1274	0	0.184996
1275	0	0.0769231
1276	0	0.0769231
1277	0	0.0833333
1278	0	0.0882353
1279	0	0.138097
1280	0	0.217391
1281	0	0.216675
1282	0	0.197438
1283	0	0.178414
1284	0	0.19238
1285	0	0.193729
1286	0	0.197895
1287	0	0.180737
1288	0	0.169984
1289	0	0.167696
1290	0	0.199725
1291	0	0.2027
1292	0	0.21623
1293	0	0.222824
1294	0	0.226852
1295	0	0.239533
1296	0	0.255439
1297	0	0.255439
1298	0	0.250811
1299	0	0.257312
1300	0	0.257312
1301	0	0.303336
1302	0	0.321678
1303	0	0.34127
1304	0	0.34127
1305	0	0.339782
1306	0	0.339782
1307	0	0.356517
1308	0	0.381579
1309	0	0.386054
1310	0	0.257005
1311	0	0.265781
1312	0	0.25641
1313	0	0.181538
1314	0	0.197628
1315	0	0.233333
1316	0	0.22381
1317	0	0.0151515
1318	0	0.0181818
1319	0	0.0277778
1320	0	0.0357143
1321	0	0
1322	0	0
1323	0	0
1324	0	0.0666667
1325	0	0.0555556
1326	0	0.0357143
1327	0	0.3
1328	0	0.3
1329	0	0.3
1330	0	0.3
1331	0	0.3
1332	0	0.3
1333	0	0.3
1334	0	0.3
1335	0	0
1336	0	0
1337	0	0
1338	0	0
1339	0	0
1340	0	0
1341	0	0
1342	0	0
1343	0	0
1344	0	0
1345	0	0
1346	0	0
1347	0	0
1348	0	0
1349	0	0
1350	0	0
1351	0	0
1352	0	0
1353	0	0.166667
1354	0	0.142857
1355	0	0.0925322
1356	0	0.09573
1357	0	0.0929032
1358	0	0.0858456
1359	0	0.0933182
1360	0	0.0819874
1361	0	0.0896517
1362	0	0.0874384
1363	0	0.159368
1364	0	0.138118
1365	0	0.184713
1366	0	0.37597
1367	0	0.544026
1368	0	0.577697
1369	0	0.596139
1370	0	0.793309
1371	0	0.138889
1372	0	0.190476
1373	0	0.190476
1374	0	0.266667
1375	0	0.3
1376	0	0.875309
1377	0	0.875309
1378	0	0.875792
1379	0	1
1380	0	1
1381	0	1
1382	0	1
1383	1	1
1384	1	1
1385	1	1
1386	1	1
1387	1	1
1388	1	1
1389	1	1
1390	1	1
1391	1	1
1392	1	1
1393	1	1
1394	1	1
1395	1	1
1396	1	1
1397	1	1
1398	1	1
1399	1	1
1400	1	1
1401	1	1
1402	1	1
1403	1	1
1404	1	1
1405	1	1
1406	1	1
1407	1	1
1408	1	1
1409	1	1
1410	1	1
1411	1	1
1412	1	1
1413	1	1
1414	1	1
1415	1	1
1416	1	1
1417	1	1
1418	1	1
1419	1	1
1420	1	1
1421	1	1
1422	1	1
1423	1	1
1424	1	1
1425	1	1
1426	1	1
1427	1	1
1428	1	1
1429	1	1
1430	1	1
1431	1	1
1432	1	1
1433	1	1
1434	1	1
1435	1	1
1436	1	1
1437	1	1
1438	1	1
1439	1	1
1440	1	1
1441	1	1
1442	1	1
1443	1	1
1444	1	1
1445	1	1
1446	1	1
1447	1	1
1448	1	1
1449	1	1
1450	1	1
1451	1	1
1452	1	1
1453	1	1
1454	1	1
1455	1	1
1456	1	1
1457	1	1
1458	1	1
1459	1	1
1460	1	1
1461	1	1
1462	1	1
1463	1	1
1464	1	1
1465	1	1
1466	1	1
1467	1	1
1468	1	1
1469	1	1
1470	0	1
1471	0	0.646554
1472	1	1
1473	1	1
1474	1	1
1475	1	1
1476	1	1
1477	1	1
1478	1	1
1479	1	1
1480	0	0.5
1481	0	0.5
1482	0	0.95261
1483	0	0.780145
1484	0	0.333333
1485	0	0.428571
1486	0	0.85661
1487	0	0.863936
1488	0	0.866667
1489	0	0.866667
1490	0	1
1491	0	1
1492	1	1
1493	1	1
1494	1	1
1495	1	1
1496	1	1
1497	1	1
1498	1	1
1499	1	1
1500	1	1
1501	1	1
1502	1	1
1503	1	1
1504	1	1
1505	0	0.922892
1506	1	1
1507	0	1
1508	1	1
1509	1	1
1510	1	1
1511	0	0.960643
1512	1	1
1513	0	1
1514	1	1
1515	1	1
1516	1	1
1517	1	1
1518	1	1
1519	1	1
1520	1	1
1521	1	1
1522	1	1
1523	0	0
1524	0	0
1525	0	0
1526	0	0
1527	0	0
1528	0	0
1529	0	0
1530	0	0.654545
1531	0	0.818182
1532	0	0.505376
1533	0	0.505376
1534	0	0.602667
1535	0	0.401478
1536	0	0.4071
1537	0	0.6
1538	0	0.466667
1539	0	0.466667
1540	0	0.333333
1541	0	0.510526
1542	0	0.666306
1543	0	0.44384
1544	0	0.448514
1545	0	0.952803
1546	0	0.960643
1547	0	0.992
1548	0	0.992
1549	0	0.992
1550	0	0.992
1551	0	0.992
1552	0	0
1553	0	0
1554	0	0.333333
1555	0	0.166667
1556	0	0.1
1557	0	0.133333
1558	0	0.968225
1559	0	0.976129
1560	0	0.984032
1561	0	1
1562	1	1
1563	1	1
1564	1	1
1565	1	1
1566	1	1
1567	1	1
1568	1	1
1569	1	1
1570	1	1
1571	1	1
1572	1	1
1573	1	1
1574	1	1
1575	1	1
1576	1	1
1577	1	1
1578	0	1
1579	0	0.595181
1580	0	0.595181
1581	0	0.595181
1582	0	0.595181
1583	0	0.595181
1584	0	0.595181
1585	0	0.595181
1586	0	0.926585
1587	0	0.926284
1588	0	0.534837
1589	0	0.549391
1590	0	0.549391
1591	0	0.943271
1592	0	0.951723
1593	0	1
1594	0	0.928389
1595	0	1
1596	0	1
1597	0	0.959881
1598	0	0.9602
1599	0	1
1600	0	1
1601	0	0.992
1602	0	0.992
1603	0	1
1604	1	1
1605	1	1
1606	1	1
1607	1	1
1608	1	1
1609	1	1
1610	1	1
1611	1	1
1612	1	1
1613	1	1
1614	1	1
1615	1	1
1616	1	1
1617	1	1
1618	1	1
1619	1	1
1620	1	1
1621	1	1
1622	1	1
1623	1	1
1624	1	1
1625	1	1
1626	0	1
1627	0	1
1628	0	1
1629	0	0.929495
1630	0	0.928658
1631	0	0
1632	0	0
1633	0	0
1634	0	0
1635	0	0
1636	0	0.666667
1637	0	0.47619
1638	0	0.47619
1639	0	0.47619
1640	0	0.47619
1641	0	0.357143
1642	0	0.357143
1643	0	0.244444
1644	0	0.244444
1645	0	0.274854
1646	0	0.206667
1647	0	0.167488
1648	0	0.257163
1649	0	0.232456
1650	0	0.22444
1651	0	0.195084
1652	0	0.163146
1653	0	0.228063
1654	0	0.212096
1655	0	0.204165
1656	0	0.195183
1657	0	0.186395
1658	0	0.20329
1659	0	0.178718
1660	0	0.17004
1661	0	0.156447
1662	0	0.155818
1663	0	0.156604
1664	0	0.153516
1665	0	0.163101
1666	0	0.158313
1667	0	0.158103
1668	0	0.210526
1669	0	0.24183
1670	0	0.150327
1671	0	0.150327
1672	0	0.183333
1673	0	0.230769
1674	0	0.318182
1675	0	0.318182
1676	0	0.318182
1677	0	0.318182
1678	0	0.318182
1679	0	0
1680	0	0
1681	0	0
1682	0	0
1683	0	0.177838
1684	0	0.175439
1685	0	0.125603
1686	0	0.143408
1687	0	0.145181
1688	0	0.147457
1689	0	0.130831
1690	0	0.147149
1691	0	0.141597
1692	0	0.116624
1693	0	0.118389
1694	0	0.121309
1695	0	0.116457
1696	0	0.124965
1697	0	0.128082
1698	0	0.132677
1699	0	0.120297
1700	0	0.12787
1701	0	0.14795
1702	0	0.0882777
1703	0	0.0815888
1704	0	0.0884768
1705	0	0.0908761
1706	0	0.0837191
1707	0	0.0799764
1708	0	0.0816102
1709	0	0.0694022
1710	0	0.0636816
1711	0	0.102745
1712	0	0.102745
1713	0	0.115248
1714	0	0.129469
1715	0	0.115942
1716	0	0.4
1717	0	0.4
1718	0	0.4
1719	0	0
1720	0	0
1721	0	0
1722	0	0
1723	0	0
1724	0	0
1725	0	0
1726	0	0
1727	0	0
1728	0	0
1729	0	0
1730	0	0
1731	0	0
1732	0	0
1733	0	0
1734	0	0
1735	0	0
1736	0	0
1737	0	0
1738	0	0
1739	0	0
1740	0	0
1741	0	0
1742	0	0
1743	0	0.1
1744	0	0.133333
1745	0	0.111111
1746	0	0.0909091
1747	0	0.0769231
1748	0	0.0769231
1749	0	0.0769231
1750	0	0.0769231
1751	0	0.0659341
1752	0	0.134387
1753	0	0.128205
1754	0	0.119048
1755	0	0.115764
1756	0	0.110345
1757	0	0.103226
1758	0	0.103226
1759	0	0.0941176
1760	0	0.0914634
1761	0	0.0878788
1762	0	0.117398
1763	0	0.119327
1764	0	0.12576
1765	0	0.178932
1766	0	0.199542
1767	0	0.326702
1768	0	0.614652
1769	0	0.753358
1770	0	0.784447
1771	0	0.783905
1772	0	0.783905
1773	0	0.783905
1774	0	0.0277778
1775	0	0.047619
1776	0	0.047619
1777	0	0.047619
1778	0	0.047619
1779	0	0
1780	0	0
1781	0	0
1782	0	0
1783	0	0
1784	0	0
1785	0	0
1786	0	0.166667
1787	0	0.166667
1788	0	0.333333
1789	0	0.333333
1790	0	0.333333
1791	0	0.881888
1792	0	0.615385
1793	0	0.833333
1794	0	0.833333
1795	0	0.991903
1796	0	0.991903
1797	0	0.991903
1798	0	0.991903
1799	0	0.991903
1800	0	0.991903
1801	0	0.991903
1802	0	0.991903
1803	0	0.991903
1804	0	0
1805	0	0
1806	0	0
1807	0	0
1808	0	0
1809	0	0
1810	0	0
1811	0	0
1812	0	0
1813	0	0
1814	0	0
1815	0	0
1816	0	0
1817	0	0
1818	0	0
1819	0	0
1820	0	0
1821	0	0
1822	0	0
1823	0	0
1824	0	0
1825	0	0
1826	0	0
1827	0	0
1828	0	0
1829	0	0
1830	0	0
1831	0	0
1832	0	0
1833	0	0
1834	0	0
1835	0	0
1836	0	0
1837	0	0
1838	0	0
1839	0	0
1840	0	0
1841	0	0
1842	0	0
1843	0	0
1844	0	0
1845	0	0
1846	0	0
1847	0	0
1848	0	0
1849	0	0
1850	1	0
1851	1	0
1852	1	0
1853	0	0
1854	0	0
1855	0	0
1856	0	0
1857	0	0
1858	0	0
1859	0	0
1860	0	0
1861	0	0
1862	0	0
1863	0	0
1864	0	0
1865	0	0
1866	0	0
1867	0	0
1868	0	0
1869	0	0
1870	0	0
1871	0	0
1872	0	0
1873	0	0
1874	0	0
1875	0	0
1876	1	0
1877	1	0
1878	1	0
1879	1	0
1880	1	0
1881	1	0
1882	1	0
1883	1	0
1884	1	0
1885	1	0
1886	1	0
1887	1	0
1888	1	0
1889	0	0
1890	0	0
1891	0	0
1892	0	0
1893	0	0
1894	0	0
1895	0	0
1896	0	0
1897	0	0
1898	0	0
1899	0	0
1900	0	0
1901	0	0
1902	0	0
1903	0	0
1904	0	0
1905	0	0
1906	0	0
1907	0	0
1908	0	0
1909	0	0.991903
1910	0	0.991903
1911	0	0.991903
1912	0	0.991903
1913	0	0.991903
1914	0	0
1915	0	0
1916	0	0
1917	0	0
1918	0	0
1919	0	0
1920	0	0
1921	0	0
1922	0	0.991903
1923	0	0.991903
1924	0	0.991903
1925	0	0.991903
1926	0	0.991903
1927	0	0.991903
1928	0	0.991903
1929	0	0.991903
1930	0	0
1931	0	0.875
1932	0	0.877851
1933	0	0.877851
1934	0	0.877851
1935	0	0.877851
1936	0	0.873524
1937	0	0.6
1938	0	0
1939	1	0
1940	1	0
1941	1	0
1942	1	0
1943	0	0
1944	0	0.844809
1945	0	0.498853
1946	0	0.491071
1947	0	0.468236
1948	0	0.447775
1949	0	0.468956
1950	0	0.459366
1951	0	0.462395
1952	0	0.462395
1953	0	0.3
1954	0	0.3
1955	0	0.3
1956	0	0.3
1957	0	0.3
1958	0	0.571234
1959	0	1
1960	0	1
1961	0	0.568663
1962	0	0.576956
1963	0	0.559521
1964	0	1
1965	0	1
1966	0	0.942302
1967	0	0.934449
1968	0	0.934449
1969	0	0.926694
1970	0	0.926694
1971	0	0.926694
1972	0	0.919036
1973	0	0.911472
1974	0	0.911472
1975	0	0.874399
1976	0	0.532305
1977	0	0.542704
1978	0	0.777778
1979	0	0.550059
1980	0	0.596727
1981	0	0.610972
1982	0	0.609055
1983	0	0.741413
1984	0	0.742454
1985	0	0.572305
1986	0	0.542762
1987	0	0.60973
1988	0	0.573152
1989	0	0.515854
1990	0	0.677362
1991	0	0.675889
1992	0	0.17619
1993	0	0.152047
1994	0	0.186813
1995	0	0.212121
1996	0	0.244444
1997	0	0.1
1998	0	0.1
1999	0	0.1
2000	0	0.166667
2001	0	0.166667
2002	0	0.166667
2003	0	0
2004	0	0
2005	0	0
2006	0	0
2007	0	0
2008	0	0
2009	0	0
2010	0	0
2011	0	0
2012	0	0
2013	0	0
2014	0	0
2015	0	0
2016	0	0
2017	0	0
2018	0	0
2019	0	0
2020	0	0
2021	0	0
2022	0	0
2023	0	0
2024	0	0
2025	0	0
2026	0	0
2027	0	0
2028	0	0
2029	0	0
2030	0	0
2031	0	0
2032	0	0
2033	0	0
2034	0	0
2035	0	0
2036	0	0
2037	0	0
2038	0	0
2039	0	0
2040	0	0
2041	0	0
2042	0	0
2043	0	0
2044	0	0
2045	0	0
2046	0	0
2047	0	0
2048	0	0
2049	0	0
2050	0	0
2051	0	0
2052	0	0
2053	0	0
2054	0	0
2055	0	0
2056	0	0
2057	0	0
2058	0	0
2059	0	0
2060	0	0
2061	0	0
2062	0	0
2063	0	0
2064	0	0
2065	0	0
2066	0	0
2067	0	0
2068	0	0
2069	0	0
2070	0	0
2071	0	0
2072	0	0
2073	0	0
2074	0	0
2075	0	0
2076	0	0
2077	0	0
2078	0	0
2079	0	0
2080	0	0
2081	0	0
2082	0	0
2083	0	0
2084	0	0
2085	0	0
2086	0	0
2087	0	0
2088	0	0
2089	0	0
2090	0	0
2091	0	0
2092	0	0
2093	0	0
2094	0	0
2095	0	0
2096	0	0
2097	0	0
2098	0	0
2099	0	0
2100	0	0
2101	0	0
2102	0	0
2103	0	0
2104	0	0
2105	0	0
2106	0	0
2107	0	0
2108	0	0
2109	0	0
2110	0	0
2111	0	0
2112	0	0
2113	0	0
2114	0	0
2115	0	0
2116	0	0
2117	0	0
2118	0	0
2119	0	0
2120	0	0
2121	0	0
2122	0	0
2123	0	0
2124	0	0
2125	0	0
2126	0	0
2127	0	0
2128	0	0
2129	0	0
2130	0	0
2131	0	0
2132	0	0
2133	0	0
2134	0	0
2135	0	0
2136	0	0
2137	0	0
2138	0	0
2139	0	0
2140	0	0
2141	0	0
2142	0	0
2143	0	0
2144	0	0
2145	0	0
2146	0	0
2147	0	0
2148	0	0
2149	0	0
2150	0	0
2151	0	0
2152	0	0
2153	0	0
2154	0	0
2155	0	0
2156	0	0
2157	0	0
2158	0	0
2159	0	0
2160	0	0
2161	0	0
2162	0	0
2163	0	0
2164	0	0
2165	0	0
2166	0	0
2167	0	0
2168	1	0
2169	1	0
2170	0	0
2171	0	0
2172	0	0
2173	0	0
2174	0	0
2175	0	0
2176	0	0
2177	0	0
2178	0	0
2179	0	0
2180	0	0
2181	0	0
2182	0	0
2183	1	0
2184	1	0
2185	1	0
2186	1	0
2187	1	0
2188	0	0
2189	0	0
2190	0	0
2191	0	0
2192	0	0
2193	0	0
2194	0	0
2195	0	0
2196	0	0
2197	0	0
2198	0	0
2199	0	0
2200	0	0
2201	0	0
2202	0	0
2203	0	0
2204	0	0
2205	0	0
2206	0	0
2207	0	0
2208	0	0
2209	0	0
2210	0	0
2211	0	0
2212	0	0
2213	0	0
2214	0	0
2215	0	0
2216	0	0
2217	0	0
2218	1	0
2219	0	0
2220	0	0
2221	0	0
2222	0	0
2223	0	0
2224	0	0
2225	0	0
2226	0	0
2227	0	0
2228	0	0
2229	0	0
2230	0	0
2231	0	0
2232	0	0
2233	0	0
2234	0	0
2235	0	0
2236	0	0
2237	0	0
2238	0	0
2239	0	0
2240	0	0
2241	0	0
2242	0	0
2243	0	0
2244	1	0
2245	1	0
2246	1	0
2247	1	0
2248	1	0
2249	1	0
2250	1	0
2251	1	0
2252	1	0
2253	1	0
2254	1	0
2255	1	0
2256	1	0
2257	1	0
2258	1	0
2259	1	0
2260	1	0
2261	1	0
2262	1	0
2263	1	0
2264	1	0
2265	1	0
2266	1	0
2267	1	0
2268	1	0
2269	1	0
2270	1	0
2271	1	0
2272	1	0
2273	1	0
2274	1	0
2275	1	0
2276	1	0
2277	0	0
2278	1	0
2279	1	0
2280	1	0
2281	1	0
2282	1	0
2283	1	0
2284	1	0
2285	1	0
2286	1	0
2287	1	0
2288	1	0
2289	1	0
2290	1	0
2291	1	0
2292	1	0
2293	1	0
2294	1	0
2295	1	0
2296	1	0
2297	1	0
2298	1	0
2299	1	0
2300	1	0
2301	1	0
2302	1	0
2303	1	0
2304	1	0
2305	1	0
2306	1	0
2307	1	0
2308	1	0
2309	0	0
2310	0	0
2311	0	0
2312	0	0
2313	0	0
2314	0	0
2315	0	0
2316	0	0
2317	0	0
2318	0	0
2319	0	0
2320	0	0
2321	0	0
2322	0	0
2323	0	0
2324	0	0
2325	0	0
2326	0	0
2327	0	0
2328	0	0
2329	0	0
2330	1	0
2331	1	0
2332	1	0
2333	1	0
2334	1	0
2335	1	0
2336	1	0
2337	1	0
2338	1	0
2339	1	0
2340	1	0
2341	0	0
2342	0	0
2343	0	0
2344	0	0
2345	0	0
2346	0	0
2347	0	0
2348	0	0
2349	0	0
2350	0	0
2351	0	0
2352	0	0
2353	0	0
2354	0	0
2355	1	0
2356	1	0
2357	1	0
2358	1	0
2359	1	0
2360	1	0
2361	1	0
2362	1	0
2363	1	0
2364	1	0
2365	1	0
2366	1	0
2367	1	0
2368	1	0
2369	1	0
2370	1	0
2371	1	0
2372	1	0
2373	1	0
2374	1	0
2375	1	0
2376	1	0
2377	1	0
2378	1	0
2379	1	0
2380	1	0
2381	1	0
2382	1	0
2383	1	0
2384	1	0
2385	1	0
2386	0	0
2387	0	0
2388	0	0
2389	0	0
2390	0	0
2391	0	0
2392	0	0
2393	0	0
2394	0	0
2395	0	0
2396	0	0
2397	0	0
2398	0	0
2399	0	0
2400	0	0
2401	0	0
2402	0	0
2403	0	0
2404	0	0
2405	0	0
2406	0	0
2407	1	0
2408	1	0
2409	1	0
2410	1	0
2411	1	0
2412	0	0
2413	0	0
2414	0	0
2415	0	0
2416	0	0
2417	0	0
2418	0	0
2419	0	0
2420	0	0
2421	0	0
2422	0	0
2423	0	0
2424	0	0
2425	0	0
2426	1	0
2427	1	0
2428	1	0
2429	1	0
2430	1	0
2431	1	0
2432	1	0
2433	1	0
2434	1	0
2435	1	0
2436	1	0
2437	1	0
2438	1	0
2439	1	0
2440	1	0
2441	1	0
2442	1	0
2443	1	0
2444	1	0
2445	1	0
2446	1	0
2447	1	0
