Site	ColumnScore	SumOfPairsScore
1	0	0
2	0	0
3	0	0
4	0	0
5	0	0
6	0	0
7	0	0
8	0	0
9	0	0
10	0	0
11	0	0
12	0	0
13	0	0
14	0	0
15	0	0
16	0	0
17	0	0
18	0	0
19	0	0
20	0	0
21	0	0
22	0	0
23	0	0
24	0	0
25	0	0
26	0	0
27	0	0
28	0	0
29	0	0
30	0	0
31	0	0
32	0	0
33	0	0
34	0	0
35	0	0
36	0	0
37	0	0
38	0	0
39	0	0
40	0	0
41	0	0
42	0	0
43	0	0
44	0	0
45	0	0
46	0	0
47	0	0
48	0	0
49	0	0
50	0	0
51	0	0
52	0	0
53	0	0
54	0	0
55	0	0
56	0	0
57	0	0
58	0	0
59	0	0
60	0	0
61	0	0
62	0	0
63	0	0
64	0	0
65	0	0
66	0	0
67	0	0
68	0	0
69	0	0
70	0	0
71	0	0
72	0	0
73	0	0
74	0	0
75	0	0
76	0	0
77	0	0
78	0	0
79	0	0
80	0	0
81	0	0
82	0	0
83	0	0
84	0	0
85	0	0
86	0	0
87	0	0
88	0	0.166667
89	0	0.166667
90	0	0.0666667
91	0	0.311465
92	0	0.324469
93	0	0.15526
94	0	0.131052
95	1	0
96	1	0
97	1	0
98	1	0
99	1	0
100	1	0
101	1	0
102	1	0
103	1	0
104	1	0
105	1	0
106	1	0
107	1	0
108	1	0
109	1	0
110	1	0
111	1	0
112	1	0
113	1	0
114	1	0
115	1	0
116	1	0
117	1	0
118	1	0
119	1	0
120	1	0
121	1	0
122	1	0
123	1	0
124	1	0
125	1	0
126	1	0
127	1	0
128	1	0
129	1	0
130	1	0
131	1	0
132	1	0
133	1	0
134	1	0
135	1	0
136	1	0
137	1	0
138	1	0
139	1	0
140	1	0
141	1	0
142	1	0
143	1	0
144	1	0
145	1	0
146	1	0
147	1	0
148	1	0
149	1	0
150	1	0
151	1	0
152	1	0
153	1	0
154	1	0
155	1	0
156	1	0
157	1	0
158	1	0
159	1	0
160	1	0
161	1	0
162	1	0
163	1	0
164	1	0
165	1	0
166	1	0
167	1	0
168	1	0
169	1	0
170	1	0
171	1	0
172	1	0
173	1	0
174	1	0
175	1	0
176	1	0
177	1	0
178	1	0
179	1	0
180	1	0
181	1	0
182	1	0
183	1	0
184	1	0
185	1	0
186	1	0
187	1	0
188	1	0
189	1	0
190	1	0
191	1	0
192	1	0
193	1	0
194	1	0
195	1	0
196	1	0
197	1	0
198	1	0
199	1	0
200	1	0
201	1	0
202	1	0
203	1	0
204	1	0
205	1	0
206	1	0
207	1	0
208	1	0
209	1	0
210	1	0
211	1	0
212	1	0
213	1	0
214	1	0
215	1	0
216	1	0
217	1	0
218	1	0
219	1	0
220	1	0
221	1	0
222	1	0
223	1	0
224	1	0
225	1	0
226	1	0
227	1	0
228	1	0
229	1	0
230	1	0
231	1	0
232	1	0
233	1	0
234	1	0
235	1	0
236	1	0
237	1	0
238	1	0
239	1	0
240	1	0
241	1	0
242	1	0
243	0	0
244	0	0
245	0	0
246	0	0
247	0	0
248	0	0
249	0	0
250	0	0
251	0	0
252	1	0
253	1	0
254	1	0
255	1	0
256	1	0
257	1	0
258	1	0
259	1	0
260	0	0
261	1	0
262	1	0
263	1	0
264	1	0
265	1	0
266	1	0
267	0	0
268	0	0
269	0	0
270	0	0
271	0	0
272	0	0
273	0	0
274	0	0
275	0	0
276	0	0
277	0	0
278	0	0
279	0	0
280	0	0
281	0	0
282	0	0
283	0	0
284	0	0
285	0	0
286	1	0
287	0	0.285714
288	0	0.357143
289	0	0.357143
290	0	0.277778
291	0	0.277778
292	0	0.2
293	0	0.166667
294	0	0.166667
295	0	0.127273
296	0	0.116667
297	0	0.53169
298	0	0.308399
299	0	0.241036
300	0	0.297127
301	0	0.499073
302	0	0.931874
303	0	0.7075
304	0	0.708838
305	0	0.724281
306	0	0.93603
307	0	0.936369
308	0	0.936369
309	0	0.936369
310	0	0.730964
311	0	0.695241
312	0	0.659988
313	0	0.466569
314	0	0.663069
315	0	0.415344
316	0	0.842564
317	0	0.958066
318	0	0.958179
319	0	0.958179
320	0	0.958179
321	0	0.3
322	0	0.968752
323	0	0.968752
324	0	0.968752
325	0	0.979003
326	0	0.979003
327	0	0.968752
328	0	0.958661
329	0	0.94878
330	0	0.714286
331	0	0.714286
332	0	0.872909
333	0	0.872909
334	0	0.859788
335	0	0.859788
336	0	0.796296
337	0	0.781538
338	0	0.55914
339	0	0.522177
340	0	0.205882
341	0	0.304078
342	0	0.211656
343	0	0.162914
344	0	0.209534
345	0	0.372319
346	0	0.377149
347	0	0.596195
348	0	0.593887
349	0	0.593943
350	0	0.917033
351	0	0.917145
352	0	0.907547
353	0	0.907547
354	0	0.907547
355	0	0.926954
356	0	0.926954
357	1	0
358	1	0
359	0	0
360	0	0.9
361	0	0
362	0	0
363	0	0
364	0	0
365	0	0
366	0	0
367	0	0
368	0	0
369	0	0
370	0	0
371	0	0
372	0	0
373	0	0
374	0	0
375	0	0
376	0	0.3
377	0	0.5
378	0	0.5
379	0	0.214286
380	0	0.423913
381	0	0.16
382	0	0.202439
383	0	0.293135
384	0	0.30316
385	0	0.205346
386	0	0.144741
387	0	0.121254
388	0	0.143576
389	0	0.159763
390	0	0.155175
391	0	0.227594
392	0	0.241379
393	0	0.181287
394	0	0.333333
395	0	0.333333
396	0	0.282051
397	0	0.282051
398	0	0.307692
399	0	0.263736
400	0	0.263736
401	0	0.161905
402	0	0.331823
403	0	0.393842
404	0	0.423699
405	0	0.423515
406	0	0.3
407	0	0.3
408	0	0.3
409	0	0.466667
410	0	0.318182
411	0	0.318681
412	0	0.25
413	0	0.28046
414	0	0.375758
415	0	0.401936
416	0	0.396527
417	0	0.463803
418	0	0.462908
419	0	0.468141
420	0	0.468141
421	0	0.420127
422	0	0.489368
423	0	0.489368
424	0	0.91092
425	0	0.651562
426	0	0.651562
427	0	0.651562
428	0	0.651562
429	0	0.625107
430	0	0.620069
431	0	0.708345
432	0	0.909246
433	0	0.958229
434	0	0.968752
435	0	0.968752
436	0	0.94878
437	0	0.94878
438	0	0.94878
439	0	0.94878
440	0	0.94878
441	0	0.939307
442	0	0.930074
443	0	0.930074
444	0	0.930074
445	0	0.493259
446	0	0.418247
447	0	0.457828
448	0	0.462597
449	0	0.727273
450	0	0.973333
451	0	0
452	0	0
453	0	0
454	0	0
455	0	0
456	0	0
457	0	0
458	0	0
459	0	0
460	0	0
461	0	0.872455
462	0	0.86677
463	0	0.859641
464	0	0.852566
465	0	0.84605
466	0	0.839144
467	0	0.839144
468	0	0.839144
469	0	0.839144
470	0	0.879786
471	0	0.887211
472	0	1
473	0	1
474	0	0.4
475	0	0.238095
476	0	0.190476
477	0	0.190476
478	0	0.882628
479	0	0.882628
480	0	0.875168
481	0	0.835461
482	0	0.3
483	0	0.214286
484	0	0.166667
485	0	0.142857
486	0	0.111111
487	0	0.111111
488	0	0.111111
489	0	0.367725
490	0	0.319304
491	0	0.254593
492	0	0.248668
493	0	0.231826
494	0	0.207708
495	0	0.165873
496	0	0.136852
497	0	0.135839
498	0	0.13263
499	0	0.152663
500	0	0.124022
501	0	0.183007
502	0	0.161905
503	0	0.120551
504	0	0.129703
505	0	0.135238
506	1	0
507	1	0
508	0	0
509	0	0
510	0	0
511	0	0
512	0	0
513	0	0
514	0	0
515	0	0.535714
516	0	0.535714
517	0	0.416667
518	0	0.540323
519	0	0.479501
520	0	0.41963
521	0	0.257692
522	0	0.469019
523	0	0.76357
524	0	0.712607
525	0	0.69382
526	0	0.689164
527	0	0.664186
528	0	0.706776
529	0	0.647343
530	0	0.646758
531	0	0.342716
532	0	0.350084
533	0	0.65
534	0	0.758333
535	0	0.758333
536	0	0.784314
537	0	0.805263
538	0	0.77
539	0	0.908794
540	0	0.926495
541	0	0.942664
542	0	0.923584
543	0	0.923258
544	0	0.915622
545	0	0.907374
546	0	0.924227
547	0	0.924544
548	0	0.924544
549	0	0.924508
550	0	0.924508
551	0	0.924508
552	1	0
553	1	0
554	1	0
555	0	0
556	0	0
557	0	0
558	0	0
559	0	0
560	0	0
561	0	0
562	0	0
563	0	0
564	0	0
565	0	0
566	0	0
567	0	0
568	0	0
569	0	0
570	0	0
571	0	0
572	0	0
573	1	0
574	1	0
575	1	0
576	0	0
577	0	0
578	0	0
579	0	0
580	0	0
581	0	0
582	0	0
583	0	0
584	0	0
585	0	0
586	1	0
587	1	0
588	1	0
589	1	0
590	1	0
591	1	0
592	1	0
593	1	0
594	1	0
595	1	0
596	1	0
597	1	0
598	1	0
599	1	0
600	1	0
601	1	0
602	1	0
603	1	0
604	1	0
605	1	0
606	1	0
607	0	0
608	0	0
609	0	0
610	0	0
611	0	0
612	0	0
613	0	0
614	0	0
615	0	0
616	1	0
617	1	0
618	1	0
619	1	0
620	1	0
621	0	0
622	0	0
623	0	0
624	0	0
625	0	0
626	0	0
627	0	0
628	0	0
629	0	0.965295
630	0	0.956901
631	0	0.956901
632	0	0.956901
633	0	0.956901
634	0	0.948617
635	0	0.948617
636	0	0.956901
637	0	0.956527
638	0	0
639	0	0.877137
640	0	0.787126
641	0	0.491228
642	0	0.923006
643	0	0.956715
644	0	0.965144
645	0	0.916731
646	0	0.908965
647	0	0.901262
648	0	0.932117
649	0	0.924153
650	0	0.940222
651	0	0.932117
652	0	0.940222
653	0	0.940476
654	0	0.940476
655	0	0.948617
656	0	0.948617
657	0	0.956901
658	0	0.949693
659	0	0.966032
660	0	0.966032
661	0	0.966032
662	1	0
663	1	0
664	1	0
665	1	0
666	1	0
667	1	0
668	1	0
669	1	0
670	1	0
671	1	0
672	1	0
673	1	0
674	1	0
675	1	0
676	0	0
677	0	0
678	0	0
679	0	0
680	0	0
681	0	0
682	0	0
683	0	0
684	0	0
685	0	0
686	0	0
687	0	0
688	0	0
689	0	0
690	0	0
691	0	0
692	0	0
693	0	0
694	0	0
695	0	0
696	0	0
697	0	0
698	0	0
699	0	0
700	0	0
701	0	0
702	0	0
703	0	0
704	0	0
705	0	0
706	0	0
707	0	0
708	0	0
709	0	0
710	0	0
711	0	0
712	0	0
713	0	0
714	0	0
715	0	0
716	0	0
717	0	0
718	0	0
719	0	0
720	0	0
721	0	0
722	0	0
723	0	0
724	0	0
725	0	0
726	0	0
727	0	0
728	0	0
729	0	0
730	0	0
731	0	0
732	0	0
733	0	0
734	0	0
735	0	0
736	0	0
737	0	0
738	0	0
739	0	0
740	0	0
741	0	0
742	0	0
743	0	0
744	0	0
745	0	0
746	0	0
747	0	0.896065
748	0	0.903501
749	0	0.910996
750	0	0.918619
751	0	0.918619
752	0	0.918619
753	0	0.918619
754	0	0.918619
755	0	0.932508
756	0	0.932508
757	0	0.758333
758	0	0.758333
759	0	0.403004
760	0	0.402558
761	0	0.402593
762	0	0.391447
763	0	1
764	0	1
765	0	0.460953
766	0	0.517211
767	0	0.926255
768	0	0.889294
769	0	0.927768
770	0	0.927768
771	0	0.927768
772	0	0.943593
773	0	0.943593
774	0	0.943593
775	0	0.904617
776	0	0
777	0	0
778	0	0.3
779	0	0.3
780	0	0.266667
781	0	0.4
782	0	0.796339
783	0	0.796339
784	0	0.689762
785	0	0.535714
786	0	0.942635
787	0	0.944011
788	0	0.936398
789	0	0
790	0	0.967548
791	0	0.959681
792	0	0.959681
793	0	0.959681
794	0	0.967548
795	0	0.975611
796	0	0.94376
797	0	0.935831
798	0	0.869987
799	0	0.166667
800	0	0
801	0	0
802	0	0.639425
803	0	0.52379
804	0	0.531155
805	0	0.666667
806	0	0
807	0	0.635581
808	0	0.874673
809	0	0.882817
810	0	0.882817
811	0	0.882817
812	0	0.890542
813	0	0.983707
814	0	0.983707
815	0	0.983707
816	0	0
817	0	0.952103
818	0	0.913576
819	0	0.928555
820	0	0.967712
821	0	0.967712
822	0	0.98364
823	0	0.98364
824	0	0.98364
825	0	0.983839
826	0	0.983839
827	0	0.983839
828	0	0.991903
829	0	0.991968
830	0	0.991968
831	0	0.952617
832	0	1
833	0	0.991968
834	0	0.991968
835	0	0.991968
836	0	0.991968
837	0	0.991968
838	0	0.991968
839	0	0.878773
840	0	0.871259
841	0	0.878804
842	0	1
843	0	1
844	1	1
845	1	1
846	1	1
847	1	1
848	1	1
849	1	1
850	1	1
851	1	1
852	1	1
853	1	1
854	1	1
855	1	1
856	1	1
857	1	1
858	1	1
859	1	1
860	1	1
861	1	1
862	1	1
863	1	1
864	1	1
865	1	1
866	1	1
867	1	1
868	1	1
869	1	1
870	0	0.984064
871	0	0.984064
872	0	1
873	0	1
874	1	1
875	1	1
876	0	0.584867
877	1	1
878	1	1
879	1	1
880	1	1
881	1	1
882	1	1
883	1	1
884	1	1
885	1	1
886	1	1
887	1	1
888	1	1
889	1	1
890	1	1
891	1	1
892	1	1
893	1	1
894	1	1
895	1	1
896	1	1
897	1	1
898	1	1
899	1	1
900	1	1
901	1	1
902	1	1
903	1	1
904	1	1
905	1	1
906	1	1
907	1	1
908	1	1
909	1	1
910	1	1
911	1	1
912	1	1
913	1	1
914	1	1
915	0	0
916	0	0.992
917	1	1
918	1	1
919	1	1
920	1	1
921	1	1
922	1	1
923	1	1
924	1	1
925	1	1
926	1	1
927	1	1
928	1	1
929	1	1
930	1	1
931	1	1
932	1	1
933	1	1
934	1	1
935	1	1
936	1	1
937	1	1
938	1	1
939	1	1
940	1	1
941	1	1
942	1	1
943	1	1
944	1	1
945	1	1
946	1	1
947	1	1
948	1	1
949	1	1
950	1	1
951	1	1
952	1	1
953	1	1
954	1	1
955	1	1
956	1	1
957	1	1
958	1	1
959	1	1
960	1	1
961	1	1
962	1	1
963	1	1
964	1	1
965	1	1
966	1	1
967	1	1
968	1	1
969	1	1
970	1	1
971	1	1
972	1	1
973	1	1
974	1	1
975	1	1
976	1	1
977	1	1
978	1	1
979	0	0.662876
980	0	0.614715
981	0	1
982	0	1
983	1	1
984	1	1
985	1	1
986	1	1
987	1	1
988	1	1
989	1	1
990	1	1
991	1	1
992	0	0.50959
993	1	1
994	0	1
995	1	1
996	1	1
997	1	1
998	1	1
999	1	1
1000	1	1
1001	1	1
1002	1	1
1003	1	1
1004	1	1
1005	1	1
1006	1	1
1007	1	1
1008	1	1
1009	1	1
1010	1	1
1011	1	1
1012	1	1
1013	1	1
1014	1	1
1015	1	1
1016	1	1
1017	1	1
1018	1	1
1019	1	1
1020	1	1
1021	1	1
1022	1	1
1023	1	1
1024	1	1
1025	1	1
1026	1	1
1027	1	1
1028	1	1
1029	1	1
1030	1	1
1031	1	1
1032	1	1
1033	1	1
1034	1	1
1035	1	1
1036	1	1
1037	1	1
1038	1	1
1039	1	1
1040	1	1
1041	1	1
1042	1	1
1043	1	1
1044	1	1
1045	1	1
1046	1	1
1047	1	1
1048	1	1
1049	1	1
1050	1	1
1051	1	1
1052	1	1
1053	1	1
1054	1	1
1055	1	1
1056	1	1
1057	0	1
1058	0	0.858466
1059	0	0.8847
1060	0	1
1061	0	0.991968
1062	0	1
1063	0	1
1064	0	1
1065	1	1
1066	1	1
1067	1	1
1068	0	0.991968
1069	0	0.991968
1070	0	0.991968
1071	0	0.991935
1072	0	1
1073	0	1
1074	0	0.991935
1075	0	0.991935
1076	0	0.991935
1077	0	1
1078	0	1
1079	0	1
1080	0	1
1081	0	1
1082	0	1
1083	0	1
1084	0	1
1085	0	0
1086	0	0
1087	0	0
1088	0	0
1089	0	0
1090	0	0
1091	0	0
1092	1	0
1093	1	0
1094	1	0
1095	1	0
1096	0	0
1097	0	0
1098	0	0
1099	0	0
1100	0	0
1101	0	0
1102	0	0
1103	0	0
1104	1	0
1105	1	0
1106	1	0
1107	1	0
1108	1	0
1109	1	0
1110	1	0
1111	1	0
1112	1	0
1113	1	0
1114	1	0
1115	1	0
1116	1	0
1117	1	0
1118	1	0
1119	1	0
1120	1	0
1121	1	0
1122	1	0
1123	1	0
1124	1	0
1125	1	0
1126	1	0
1127	1	0
1128	1	0
1129	1	0
1130	1	0
1131	1	0
1132	1	0
1133	1	0
1134	1	0
1135	1	0
1136	1	0
1137	1	0
1138	1	0
1139	1	0
1140	1	0
1141	1	0
1142	1	0
1143	1	0
1144	1	0
1145	1	0
1146	1	0
1147	1	0
1148	1	0
1149	1	0
1150	1	0
1151	1	0
1152	1	0
1153	1	0
1154	1	0
1155	1	0
1156	1	0
1157	1	0
1158	1	0
1159	1	0
1160	1	0
1161	1	0
1162	1	0
1163	1	0
1164	1	0
1165	1	0
1166	1	0
1167	1	0
1168	1	0
1169	1	0
1170	1	0
1171	1	0
1172	1	0
1173	1	0
1174	1	0
1175	1	0
1176	1	0
1177	1	0
1178	1	0
1179	1	0
1180	1	0
1181	1	0
1182	1	0
1183	1	0
1184	1	0
1185	1	0
1186	1	0
1187	1	0
1188	1	0
1189	1	0
1190	1	0
1191	1	0
1192	1	0
1193	1	0
1194	1	0
1195	1	0
1196	1	0
1197	1	0
1198	1	0
1199	1	0
1200	1	0
1201	1	0
1202	0	0.975904
1203	0	0.975904
1204	0	0.975904
1205	0	0.975904
1206	0	0.975411
1207	0	0.974026
1208	0	0.962264
1209	0	0.959184
1210	0	0.894737
1211	0	0.894737
1212	0	0.875
1213	0	0.833333
1214	0	0.3
1215	0	0
1216	0	0
1217	0	0
1218	0	0
1219	0	0
1220	0	0
1221	0	0
1222	0	0
1223	1	0
1224	1	0
1225	1	0
1226	1	0
1227	1	0
1228	1	0
1229	1	0
1230	1	0
1231	1	0
1232	1	0
1233	1	0
1234	1	0
1235	1	0
1236	1	0
1237	1	0
1238	1	0
1239	1	0
1240	1	0
1241	1	0
1242	1	0
1243	1	0
1244	1	0
1245	1	0
1246	1	0
1247	1	0
1248	1	0
1249	1	0
1250	1	0
1251	1	0
1252	1	0
1253	1	0
