Site	ColumnScore	SumOfPairsScore
1	1	0
2	1	0
3	1	0
4	1	0
5	1	0
6	1	0
7	1	0
8	1	0
9	1	0
10	1	0
11	1	0
12	1	0
13	1	0
14	1	0
15	1	0
16	1	0
17	1	0
18	1	0
19	1	0
20	1	0
21	1	0
22	1	0
23	1	0
24	1	0
25	1	0
26	1	0
27	1	0
28	1	0
29	1	0
30	1	0
31	1	0
32	1	0
33	1	0
34	1	0
35	1	0
36	1	0
37	1	0
38	1	0
39	1	0
40	1	0
41	1	0
42	1	0
43	1	0
44	1	0
45	1	0
46	1	0
47	1	0
48	1	0
49	1	0
50	1	0
51	1	0
52	1	0
53	1	0
54	1	0
55	1	0
56	1	0
57	1	0
58	1	0
59	1	0
60	1	0
61	1	0
62	1	0
63	1	0
64	1	0
65	1	0
66	1	0
67	1	0
68	1	0
69	1	0
70	1	0
71	1	0
72	1	0
73	1	0
74	1	0
75	1	0
76	1	0
77	1	0
78	1	0
79	1	0
80	1	0
81	1	0
82	1	0
83	1	0
84	1	0
85	1	0
86	1	0
87	1	0
88	1	0
89	1	0
90	1	0
91	1	0
92	1	0
93	1	0
94	1	0
95	1	0
96	1	0
97	1	0
98	1	0
99	1	0
100	1	0
101	1	0
102	1	0
103	1	0
104	1	0
105	1	0
106	1	0
107	1	0
108	1	0
109	1	0
110	1	0
111	1	0
112	1	0
113	1	0
114	1	0
115	1	0
116	1	0
117	1	0
118	1	0
119	1	0
120	1	0
121	1	0
122	1	0
123	1	0
124	1	0
125	1	0
126	1	0
127	1	0
128	1	0
129	1	0
130	1	0
131	1	0
132	1	0
133	1	0
134	1	0
135	1	0
136	1	0
137	1	0
138	1	0
139	1	0
140	1	0
141	1	0
142	1	0
143	1	0
144	1	0
145	1	0
146	1	0
147	1	0
148	1	0
149	1	0
150	1	0
151	1	0
152	1	0
153	1	0
154	1	0
155	1	0
156	1	0
157	1	0
158	1	0
159	1	0
160	1	0
161	1	0
162	1	0
163	1	0
164	1	0
165	1	0
166	1	0
167	1	0
168	1	0
169	1	0
170	1	0
171	1	0
172	1	0
173	1	0
174	1	0
175	1	0
176	1	0
177	1	0
178	1	0
179	1	0
180	1	0
181	1	0
182	1	0
183	1	0
184	1	0
185	1	0
186	1	0
187	1	0
188	1	0
189	1	0
190	1	0
191	1	0
192	1	0
193	1	0
194	1	0
195	1	0
196	1	0
197	1	0
198	1	0
199	1	0
200	1	0
201	1	0
202	1	0
203	1	0
204	1	0
205	1	0
206	1	0
207	1	0
208	1	0
209	1	0
210	1	0
211	1	0
212	1	0
213	1	0
214	1	0
215	1	0
216	1	0
217	1	0
218	1	0
219	1	0
220	1	0
221	1	0
222	1	0
223	1	0
224	1	0
225	1	0
226	1	0
227	1	0
228	1	0
229	1	0
230	1	0
231	1	0
232	1	0
233	1	0
234	1	0
235	1	0
236	1	0
237	1	0
238	1	0
239	1	0
240	1	0
241	1	0
242	1	0
243	1	0
244	1	0
245	1	0
246	1	0
247	1	0
248	1	0
249	1	0
250	1	0
251	1	0
252	1	0
253	1	0
254	1	0
255	1	0
256	1	0
257	1	0
258	1	0
259	1	0
260	1	0
261	1	0
262	1	0
263	1	0
264	1	0
265	1	0
266	1	0
267	1	0
268	1	0
269	1	0
270	1	0
271	1	0
272	1	0
273	1	0
274	1	0
275	1	0
276	1	0
277	1	0
278	1	0
279	1	0
280	1	0
281	1	0
282	1	0
283	1	0
284	1	0
285	1	0
286	1	0
287	1	0
288	1	0
289	1	0
290	1	0
291	1	0
292	0	0
293	0	0.166667
294	0	0.166667
295	0	0.166667
296	0	0.166667
297	0	0.166667
298	0	0.166667
299	0	0.166667
300	0	0.5
301	0	0.5
302	0	0.5
303	0	0.5
304	0	0.5
305	0	0.5
306	0	0.5
307	0	0.5
308	0	0.5
309	0	0.5
310	0	0.5
311	0	0.5
312	0	0.5
313	0	0.5
314	0	0.5
315	0	0.5
316	0	0.5
317	0	0.5
318	0	0.5
319	0	0.5
320	0	0.5
321	0	0.5
322	0	0.5
323	0	0.5
324	0	0.5
325	0	0.5
326	0	0.5
327	0	0.5
328	0	0.5
329	0	0.5
330	0	0.5
331	0	0.5
332	0	0.5
333	0	0.5
334	0	0.5
335	0	0.5
336	0	0.5
337	0	0.5
338	0	0.5
339	0	0.5
340	0	0.5
341	0	0.5
342	0	0.5
343	0	0.5
344	0	0.5
345	0	0.5
346	0	0.5
347	0	0.5
348	0	0.5
349	0	0.5
350	0	0.5
351	0	0.5
352	0	0.5
353	0	0.5
354	0	0.5
355	0	0.5
356	0	0.5
357	0	0.5
358	0	0.5
359	0	0.5
360	0	0.5
361	0	0.5
362	0	0.5
363	0	0.5
364	0	0.5
365	0	0.5
366	0	0.5
367	0	0.5
368	0	0.5
369	0	0.5
370	0	0.5
371	0	0.5
372	0	0.5
373	0	0.5
374	0	0.5
375	0	0.5
376	0	0.5
377	0	0.5
378	0	0.5
379	0	0.5
380	0	0.5
381	0	0.5
382	0	0.5
383	0	0.5
384	0	0.5
385	0	0.5
386	0	0.5
387	0	0.5
388	0	0.5
389	0	0.5
390	0	0.5
391	0	0.5
392	0	0.5
393	0	0.5
394	0	0.5
395	0	0.5
396	0	0.5
397	0	0.5
398	0	0.5
399	0	0.5
400	0	0.5
401	0	0.5
402	0	0.5
403	0	0.5
404	0	0.5
405	0	0.428571
406	0	0.428571
407	0	0.428571
408	0	0.428571
409	0	0.428571
410	0	0.428571
411	0	0.428571
412	0	0.428571
413	0	0.428571
414	0	0.428571
415	0	0.428571
416	0	0.428571
417	0	0.428571
418	0	0.428571
419	0	0.428571
420	0	0.428571
421	0	0.428571
422	0	0.428571
423	0	0.428571
424	0	0.428571
425	0	0.428571
426	0	0.428571
427	0	0.428571
428	0	0.428571
429	0	0.428571
430	0	0.428571
431	0	0.428571
432	0	0.428571
433	0	0.428571
434	0	0.428571
435	0	0.428571
436	0	0.428571
437	0	0.428571
438	0	0.428571
439	0	0.428571
440	0	0.428571
441	0	0.428571
442	0	0.428571
443	0	0.428571
444	0	0.428571
445	0	0.428571
446	0	0.428571
447	0	0.428571
448	0	0.428571
449	0	0.428571
450	0	0.428571
451	0	0.428571
452	0	0.428571
453	0	0.428571
454	0	0.428571
455	0	0.428571
456	0	0.428571
457	0	0.428571
458	0	0.428571
459	0	0.428571
460	0	0.428571
461	0	0.428571
462	0	0.428571
463	0	0.428571
464	0	0.428571
465	0	0.428571
466	0	0.428571
467	0	0.428571
468	0	0.428571
469	0	0.428571
470	0	0.428571
471	0	0.428571
472	0	0.428571
473	0	0.428571
474	0	0.428571
475	0	0.428571
476	0	0.428571
477	0	0.428571
478	0	0.428571
479	0	0.428571
480	0	0.428571
481	0	0.428571
482	0	0.428571
483	0	0.428571
484	0	0.428571
485	0	0.428571
486	0	0.428571
487	0	0.428571
488	0	0.428571
489	0	0.428571
490	0	0.428571
491	0	0.428571
492	0	0.428571
493	0	0.428571
494	0	0.428571
495	0	0.428571
496	0	0.428571
497	0	0.428571
498	0	0.428571
499	0	0.428571
500	0	0.428571
501	0	0.428571
502	0	0.428571
503	0	0.428571
504	0	0.428571
505	0	0.428571
506	0	0.428571
507	0	0.428571
508	0	0.725275
509	0	0.725275
510	0	0.725275
511	0	0.725275
512	0	0.725275
513	0	0.725275
514	0	0.725275
515	0	0.725275
516	0	0.725275
517	0	0.428571
518	0	0.428571
519	0	0.428571
520	0	0.428571
521	0	0.428571
522	0	0.428571
523	0	0.428571
524	0	0.428571
525	0	0.428571
526	0	0.428571
527	0	0.428571
528	0	0.428571
529	0	0.428571
530	0	0.428571
531	0	0.428571
532	0	0.428571
533	0	0.428571
534	0	0.428571
535	0	0.428571
536	0	0.428571
537	0	0.428571
538	0	0.428571
539	0	0.428571
540	0	0.428571
541	0	0.428571
542	0	0.428571
543	0	0.428571
544	0	0.428571
545	0	0.428571
546	0	0.428571
547	0	0.428571
548	0	0.406593
549	0	0.474359
550	0	0.474359
551	0	0.474359
552	0	0.474359
553	0	0.474359
554	0	0.474359
555	0	0.474359
556	0	0.474359
557	0	0.474359
558	0	0.474359
559	0	0.474359
560	0	0.474359
561	0	0.474359
562	0	0.474359
563	0	0.474359
564	0	0.474359
565	0	0.406593
566	0	0.406593
567	0	0.406593
568	0	0.406593
569	0	0.406593
570	0	0.406593
571	0	0.406593
572	0	0.406593
573	0	0.428571
574	0	0.428571
575	0	0.428571
576	0	0.428571
577	0	0.428571
578	0	0.428571
579	0	0.428571
580	0	0.428571
581	0	0.428571
582	0	0.428571
583	0	0.428571
584	0	0.428571
585	0	0.428571
586	0	0.428571
587	0	0.428571
588	0	0.428571
589	0	0.428571
590	0	0.428571
591	0	0.428571
592	0	0.428571
593	0	0.428571
594	0	0.428571
595	0	0.428571
596	0	0.428571
597	0	0.428571
598	0	0.428571
599	0	0.428571
600	0	0.428571
601	0	0.428571
602	0	0.428571
603	0	0.428571
604	0	0.428571
605	0	0.428571
606	0	0.428571
607	0	0.428571
608	0	0.428571
609	0	0.428571
610	0	0.428571
611	0	0.428571
612	0	0.428571
613	0	0.428571
614	0	0.428571
615	0	0.428571
616	0	0.428571
617	0	0.428571
618	0	0.428571
619	0	0.428571
620	0	0.428571
621	0	0.428571
622	0	0.428571
623	0	0.428571
624	0	0.428571
625	0	0.428571
626	0	0.428571
627	0	0.428571
628	0	0.428571
629	0	0.428571
630	0	0.428571
631	0	0.428571
632	0	0.428571
633	0	0.428571
634	0	0.428571
635	0	0.428571
636	0	0.428571
637	0	0.428571
638	0	0.428571
639	0	0.428571
640	0	0.428571
641	0	0.428571
642	0	0.428571
643	0	0.428571
644	0	0.428571
645	0	0.428571
646	0	0.428571
647	0	0.428571
648	0	0.428571
649	0	0.428571
650	0	0.428571
651	0	0.428571
652	0	0.428571
653	0	0.428571
654	0	0.428571
655	0	0.428571
656	0	0.428571
657	0	0.428571
658	0	0.428571
659	0	0.428571
660	0	0.428571
661	0	0.428571
662	0	0.428571
663	0	0.428571
664	0	0.428571
665	0	0.428571
666	0	0.428571
667	0	0.428571
668	0	0.428571
669	0	0.428571
670	0	0.428571
671	0	0.428571
672	0	0.428571
673	0	0.428571
674	0	0.428571
675	0	0.428571
676	0	0.428571
677	0	0.428571
678	0	0.428571
679	0	0.428571
680	0	0.428571
681	0	0.428571
682	0	0.428571
683	0	0.428571
684	0	0.428571
685	0	0.428571
686	0	0.428571
687	0	0.428571
688	0	0.428571
689	0	0.428571
690	0	0.428571
691	0	0.428571
692	0	0.428571
693	0	0.428571
694	0	0.428571
695	0	0.428571
696	0	0.428571
697	0	0.428571
698	0	0.428571
699	0	0.428571
700	0	0.428571
701	0	0.428571
702	0	0.428571
703	0	0.428571
704	0	0.428571
705	0	0.428571
706	0	0.428571
707	0	0.428571
708	0	0.428571
709	0	0.428571
710	0	0.428571
711	0	0.428571
712	0	0.428571
713	0	0.428571
714	0	0.428571
715	0	0.428571
716	0	0.428571
717	0	0.428571
718	0	0.428571
719	0	0.428571
720	0	0.428571
721	0	0.428571
722	0	0.428571
723	0	0.428571
724	0	0.428571
725	0	0.428571
726	0	0.428571
727	0	0.428571
728	0	0.428571
729	0	0.428571
730	0	0.428571
731	0	0.428571
732	0	0.428571
733	0	0.428571
734	0	0.428571
735	0	0.428571
736	0	0.428571
737	0	0.428571
738	0	0.428571
739	0	0.428571
740	0	0.428571
741	0	0.428571
742	0	0.428571
743	0	0.428571
744	0	0.428571
745	0	0.428571
746	0	0.428571
747	0	0.428571
748	0	0.428571
749	0	0.428571
750	0	0.428571
751	0	0.428571
752	0	0.428571
753	0	0.428571
754	0	0.428571
755	0	0.428571
756	0	0.428571
757	0	0.428571
758	0	0.428571
759	0	0.428571
760	0	0.428571
761	0	0.428571
762	0	0.428571
763	0	0.428571
764	0	0.428571
765	0	0.428571
766	0	0.428571
767	0	0.428571
768	0	0.428571
769	0	0.428571
770	0	0.428571
771	0	0.428571
772	0	0.428571
773	0	0.428571
774	0	0.428571
775	0	0.428571
776	0	0.428571
777	0	0.428571
778	0	0.428571
779	0	0.428571
780	0	0.428571
781	0	0.428571
782	0	0.428571
783	0	0.428571
784	0	0.428571
785	0	0.428571
786	0	0.428571
787	0	0.428571
788	0	0.428571
789	0	0.428571
790	0	0.428571
791	0	0.428571
792	0	0.428571
793	0	0.428571
794	0	0.428571
795	0	0.428571
796	0	0.428571
797	0	0.428571
798	0	0.428571
799	0	0.428571
800	0	0.428571
801	0	0.428571
802	0	0.428571
803	0	0.428571
804	0	0.428571
805	0	0.428571
806	0	0.428571
807	0	0.428571
808	0	0.428571
809	0	0.428571
810	0	0.428571
811	0	0.5
812	0	0.5
813	0	0.5
814	0	0.5
815	0	0.5
816	0	0.5
817	0	0.5
818	0	0.5
819	0	0.5
820	0	0.5
821	0	0.474359
822	0	0.4
823	0	0.4
824	0	0.269231
825	0	0.269231
826	0	0.269231
827	0	0.269231
828	0	0.269231
829	0	0.269231
830	0	0.269231
831	0	0.269231
832	0	0.327273
833	0	0.327273
834	0	0.5
835	0	0.5
836	0	0.5
837	0	0.5
838	0	0.5
839	0	0.5
840	0	0.5
841	0	0.5
842	0	0.5
843	0	0.5
844	0	0.5
845	0	0.5
846	0	0.5
847	0	0.5
848	0	0.5
849	0	0.5
850	0	0.5
851	0	0.5
852	0	0.5
853	0	0.5
854	0	0.5
855	0	0.5
856	0	0.5
857	0	0.5
858	0	0.5
859	0	0.5
860	0	0.5
861	0	0.5
862	0	0.5
863	0	0.5
864	0	0.5
865	0	0.5
866	0	0.5
867	0	0.5
868	0	0.5
869	0	0.5
870	0	0.5
871	0	0.5
872	0	0.5
873	0	0.5
874	0	0.5
875	0	0.5
876	0	0.5
877	0	0.5
878	0	0.5
879	0	0.5
880	0	0.5
881	0	0.5
882	0	0.5
883	0	0.5
884	0	0.5
885	0	0.5
886	0	0.5
887	0	0.5
888	0	0.5
889	0	0.5
890	0	0.5
891	0	0.5
892	0	0.5
893	0	0.5
894	0	0.5
895	0	0.5
896	0	0.5
897	0	0.5
898	0	0.5
899	0	0.5
900	0	0.5
901	0	0.3
902	0	0.3
903	0	0.3
904	0	0.3
905	0	0.3
906	0	0.3
907	0	0.3
908	0	0.3
909	0	0.3
910	0	0.3
911	0	0.3
912	0	0.3
913	0	0.3
914	0	0.3
915	0	0.3
916	0	0.3
917	0	0.3
918	0	0.3
919	0	0.3
920	0	0.3
921	0	0.3
922	0	0.3
923	0	0.3
924	0	0.3
925	0	0.3
926	0	0.3
927	0	0.3
928	0	0.3
929	0	0.3
930	0	0.3
931	0	0.3
932	0	0.3
933	0	0.3
934	0	0.3
935	0	0.3
936	0	0.3
937	0	0.3
938	0	0.3
939	0	0.3
940	0	0.3
941	0	0.3
942	0	0.3
943	0	0.3
944	0	0.3
945	0	0.3
946	0	0.3
947	0	0.3
948	0	0.3
949	0	0.3
950	0	0.397436
951	0	0.397436
952	0	0.397436
953	0	0.397436
954	0	0.397436
955	0	0.397436
956	0	0.397436
957	0	0.397436
958	0	0.397436
959	0	0.397436
960	0	0.397436
961	0	0.469697
962	0	0.469697
963	0	0.469697
964	0	0.469697
965	0	0.469697
966	0	0.439394
967	0	0.439394
968	0	0.439394
969	0	0.439394
970	0	0.439394
971	0	0.439394
972	0	0.439394
973	0	0.439394
974	0	0.439394
975	0	0.439394
976	0	0.439394
977	0	0.439394
978	0	0.509091
979	0	0.509091
980	0	0.509091
981	0	0.509091
982	0	0.509091
983	0	0.509091
984	0	0.509091
985	0	0.509091
986	0	0.358974
987	0	0.358974
988	0	0.358974
989	0	0.318681
990	0	0.241667
991	0	0.213235
992	0	0.163158
993	0	0.173684
994	0	0.142292
995	0	0.126812
996	0	0.107692
997	0	0.08867
998	0	0.084127
999	0	0.0685714
1000	0	0.131653
1001	0	0.207552
1002	0	0.195352
1003	0	0.161285
1004	0	0.0920524
1005	0	0.0998766
1006	0	0.0944467
1007	0	0
1008	0	0
1009	0	0
1010	0	0
1011	0	0
1012	0	0
1013	0	0
1014	0	0
1015	0	0
1016	0	0
1017	0	0
1018	0	0
1019	0	0
1020	0	0
1021	0	0
1022	0	0
1023	0	0
1024	0	0
1025	0	0
1026	0	0
1027	0	0
1028	0	0
1029	0	0
1030	0	0
1031	0	0
1032	0	0
1033	0	0
1034	0	0
1035	0	0
1036	0	0
1037	0	0
1038	0	0
1039	0	0
1040	0	0
1041	0	0
1042	0	0
1043	0	0
1044	0	0
1045	0	0
1046	0	0
1047	0	0
1048	0	0
1049	0	0
1050	0	0
1051	0	0
1052	0	0
1053	0	0
1054	0	0
1055	0	0
1056	0	0
1057	0	0
1058	0	0
1059	0	0
1060	0	0
1061	0	0
1062	0	0
1063	0	0
1064	0	0
1065	0	0
1066	0	0
1067	0	0
1068	0	0
1069	0	0
1070	0	0
1071	0	0
1072	0	0
1073	0	0
1074	0	0
1075	0	0
1076	0	0
1077	0	0
1078	0	0
1079	0	0
1080	0	0
1081	0	0
1082	0	0
1083	0	0
1084	0	0
1085	0	0
1086	0	0
1087	0	0
1088	0	0
1089	0	0
1090	0	0
1091	0	0
1092	0	0
1093	0	0
1094	0	0
1095	0	0
1096	0	0
1097	0	0
1098	0	0
1099	0	0
1100	0	0
1101	0	0
1102	0	0
1103	0	0
1104	0	0
1105	0	0
1106	0	0
1107	0	0
1108	0	0
1109	0	0
1110	0	0
1111	0	0
1112	0	0
1113	0	0
1114	0	0
1115	0	0
1116	0	0
1117	0	0
1118	0	0
1119	0	0
1120	0	0
1121	0	0
1122	0	0
1123	0	0
1124	0	0
1125	0	0
1126	0	0
1127	0	0
1128	0	0
1129	0	0
1130	0	0
1131	0	0
1132	0	0
1133	0	0
1134	0	0
1135	0	0
1136	0	0
1137	0	0
1138	0	0
1139	0	0
1140	0	0
1141	0	0
1142	0	0
1143	0	0
1144	0	0
1145	0	0
1146	0	0
1147	0	0
1148	0	0
1149	0	0
1150	0	0
1151	0	0
1152	0	0
1153	0	0
1154	0	0
1155	0	0
1156	0	0
1157	0	0
1158	0	0
1159	0	0
1160	1	0
1161	1	0
1162	1	0
1163	1	0
1164	1	0
1165	1	0
1166	0	0
1167	0	0
1168	0	0
1169	1	0
1170	1	0
1171	1	0
1172	0	0
1173	0	0
1174	0	0
1175	0	0
1176	0	0
1177	0	0
1178	0	0
1179	0	0
1180	0	0
1181	0	0
1182	0	0
1183	0	0
1184	0	0
1185	0	0
1186	0	0
1187	0	0
1188	0	0
1189	0	0
1190	0	0
1191	0	0
1192	0	0
1193	0	0
1194	0	0
1195	0	0
1196	0	0
1197	0	0
1198	0	0
1199	0	0
1200	0	0
1201	0	0
1202	0	0
1203	0	0
1204	0	0
1205	0	0
1206	0	0
1207	0	0
1208	0	0
1209	0	0
1210	0	0
1211	0	0
1212	0	0
1213	0	0
1214	0	0
1215	0	0
1216	0	0
1217	0	0
1218	0	0
1219	0	0
1220	0	0
1221	0	0
1222	0	0
1223	0	0
1224	0	0
1225	0	0
1226	0	0
1227	0	0
1228	0	0
1229	0	0
1230	0	0
1231	0	0
1232	0	0
1233	0	0
1234	0	0
1235	0	0
1236	0	0
1237	0	0
1238	0	0
1239	0	0
1240	0	0
1241	0	0
1242	0	0
1243	0	0
1244	0	0
1245	0	0
1246	0	0
1247	0	0
1248	0	0
1249	0	0
1250	0	0
1251	0	0
1252	0	0
1253	0	0
1254	0	0
1255	0	0
1256	0	0
1257	0	0
1258	0	0
1259	0	0
1260	0	0
1261	0	0
1262	0	0
1263	0	0
1264	0	0
1265	0	0
1266	0	0
1267	0	0
1268	0	0
1269	0	0
1270	0	0
1271	0	0
1272	0	0
1273	0	0
1274	0	0
1275	1	0
1276	1	0
1277	1	0
1278	1	0
1279	1	0
1280	1	0
1281	1	0
1282	1	0
1283	1	0
1284	1	0
1285	1	0
1286	1	0
1287	0	0
1288	0	0
1289	0	0
1290	0	0
1291	0	0
1292	0	0
1293	0	0
1294	0	0
1295	0	0
1296	0	0
1297	0	0
1298	0	0
1299	0	0
1300	0	0
1301	1	0
1302	1	0
1303	1	0
1304	1	0
1305	1	0
1306	1	0
1307	1	0
1308	1	0
1309	1	0
1310	0	0
1311	0	0
1312	0	0
1313	0	0
1314	1	0
1315	1	0
1316	1	0
1317	1	0
1318	1	0
1319	1	0
1320	1	0
1321	0	0
1322	0	0
1323	0	0
1324	0	0
1325	0	0
1326	0	0
1327	0	0
1328	0	0
1329	0	0
1330	0	0
1331	0	0
1332	0	0
1333	0	0
1334	0	0
1335	0	0
1336	0	0
1337	0	0
1338	0	0
1339	0	0
1340	0	0
1341	0	0
1342	0	0
1343	0	0
1344	0	0
1345	0	0
1346	0	0
1347	0	0
1348	0	0
1349	0	0
1350	0	0
1351	0	0
1352	0	0
1353	0	0
1354	0	0
1355	0	0
1356	0	0
1357	0	0
1358	0	0
1359	0	0
1360	0	0
1361	0	0
1362	0	0
1363	0	0
1364	0	0
1365	0	0
1366	0	0
1367	0	0
1368	0	0
1369	0	0
1370	0	0
1371	0	0
1372	0	0
1373	0	0
1374	0	0
1375	0	0.0910416
1376	0	0.101632
1377	0	0.102636
1378	0	0.101049
1379	0	0.0873494
1380	0	0
1381	0	0
1382	0	0
1383	0	0
1384	0	0
1385	0	0
1386	0	0
1387	0	0
1388	0	0
1389	0	0
1390	0	0
1391	0	0
1392	0	0
1393	0	0
1394	0	0
1395	0	0
1396	0	0
1397	0	0
1398	0	0
1399	0	0
1400	0	0
1401	0	0
1402	0	0
1403	0	0
1404	0	0
1405	0	0
1406	0	0
1407	0	0
1408	0	0
1409	0	0
1410	0	0.2
1411	0	0.142857
1412	0	0.142857
1413	0	0.111111
1414	0	0.111111
1415	0	0.194444
1416	0	0.25
1417	0	0.181818
1418	0	0.145455
1419	0	0.145455
1420	0	0.145455
1421	0	0.121212
1422	0	0.121212
1423	0	0.121212
1424	0	0.121212
1425	0	0.121212
1426	0	0.121212
1427	0	0.0757576
1428	0	0.0757576
1429	0	0.0641026
1430	0	0.0641026
1431	0	0.0769231
1432	0	0.0769231
1433	0	0.0769231
1434	0	0.0769231
1435	0	0.0769231
1436	0	0.0769231
1437	0	0.0769231
1438	0	0.0769231
1439	0	0.0769231
1440	0	0.0769231
1441	0	0.0769231
1442	0	0.0769231
1443	0	0.0769231
1444	0	0.0769231
1445	0	0.0769231
1446	0	0.0769231
1447	0	0.0659341
1448	0	0.0659341
1449	0	0.0659341
1450	0	0.0659341
1451	0	0.0659341
1452	0	0.0659341
1453	0	0.0659341
1454	0	0.0454545
1455	0	0.030303
1456	0	0.025641
1457	0	0.0457516
1458	0	0.0380952
1459	0	0.0333333
1460	0	0.030303
1461	0	0.0434783
1462	0	0.0430769
1463	0	0.048433
1464	0	0.047619
1465	0	0.048433
1466	0	0.046798
1467	0	0.0752688
1468	0	0.254545
1469	0	0.210485
1470	0	0.169801
1471	0	0.148352
1472	0	0.122026
1473	0	0.115528
1474	0	0.107902
1475	0	0.0934972
1476	0	0.0890953
1477	0	0.0948817
1478	0	0.102651
1479	0	0.12279
1480	0	0.161302
1481	0	0.17235
1482	0	0.226364
1483	0	0.352941
1484	0	0.307595
1485	0	0.435025
1486	0	0.436965
1487	0	0
1488	0	0
1489	0	0
1490	0	0
1491	0	0
1492	0	0
1493	0	0
1494	0	0
1495	0	0
1496	0	0
1497	0	0
1498	0	0
1499	0	0
1500	0	0
1501	0	0
1502	0	0
1503	0	0
1504	0	0
1505	0	0.438042
1506	0	0.466538
1507	0	0.470203
1508	0	0.846154
1509	0	0.857143
1510	0	0.857143
1511	0	0.857143
1512	0	1
1513	0	1
1514	0	1
1515	0	0.992
1516	0	0.992
1517	0	0.992
1518	0	0.992
1519	0	0.992
1520	0	0.992
1521	1	1
1522	1	1
1523	1	1
1524	1	1
1525	1	1
1526	1	1
1527	1	1
1528	1	1
1529	1	1
1530	1	1
1531	1	1
1532	1	1
1533	1	1
1534	1	1
1535	1	1
1536	1	1
1537	1	1
1538	1	1
1539	1	1
1540	1	1
1541	1	1
1542	1	1
1543	0	0.5388
1544	0	0.5388
1545	1	1
1546	0	1
1547	0	1
1548	1	1
1549	1	1
1550	1	1
1551	1	1
1552	1	1
1553	1	1
1554	1	1
1555	1	1
1556	1	1
1557	1	1
1558	1	1
1559	1	1
1560	1	1
1561	1	1
1562	1	1
1563	1	1
1564	1	1
1565	1	1
1566	1	1
1567	1	1
1568	0	1
1569	0	1
1570	0	1
1571	0	1
1572	0	1
1573	0	1
1574	0	1
1575	0	0.944209
1576	0	0.929104
1577	0	0.936877
1578	0	0.869251
1579	0	0
1580	0	0
1581	0	0
1582	0	0
1583	0	0
1584	0	0
1585	0	0
1586	0	0
1587	0	0
1588	0	0.728571
1589	0	0.295238
1590	0	0.531677
1591	0	0.335249
1592	0	0.309755
1593	0	0.302091
1594	0	0.266667
1595	0	0.535714
1596	0	0.47619
1597	0	0.285714
1598	0	0.285714
1599	0	0.166667
1600	0	0.2
1601	0	0.113757
1602	0	0.237029
1603	0	0.223072
1604	0	0.172148
1605	0	0.175611
1606	0	0
1607	0	0
1608	0	0
1609	0	0.166667
1610	0	0.167329
1611	0	0.1642
1612	0	0.466667
1613	0	0.383333
1614	0	0.383333
1615	0	0.130631
1616	0	0.13964
1617	0	0.14367
1618	0	0.196739
1619	0	0.307697
1620	0	0.303699
1621	0	0.308851
1622	0	0.304964
1623	0	0.30204
1624	0	0.291052
1625	0	0.297414
1626	0	1
1627	0	0.5
1628	0	0.64482
1629	0	0.208321
1630	0	0.333333
1631	0	0.333333
1632	0	0.333333
1633	0	0.333333
1634	0	0.333333
1635	0	0.333333
1636	0	0.333333
1637	0	0.2
1638	0	0.222222
1639	0	0.181818
1640	0	0.164915
1641	0	0.134048
1642	0	0.136612
1643	0	0
1644	0	0
1645	0	0
1646	0	0
1647	0	0
1648	0	0
1649	0	0.1
1650	0	0
1651	0	0.277778
1652	0	0.242424
1653	0	0.150246
1654	0	0.103477
1655	0	0.0974298
1656	0	0.101403
1657	0	0
1658	0	0
1659	0	0
1660	0	0
1661	0	0
1662	0	0
1663	0	0
1664	0	0
1665	0	0
1666	0	0
1667	0	0.11
1668	0	0.104615
1669	0	0.134172
1670	0	0.136383
1671	0	0.281516
1672	0	0.264137
1673	0	0.262737
1674	0	0.265922
1675	0	0.307692
1676	0	0.307692
1677	0	0.230769
1678	0	0.230769
1679	0	0.228571
1680	0	0.228571
1681	0	0.318977
1682	0	0.313858
1683	0	0.31784
1684	0	0.357694
1685	0	0.412195
1686	0	0
1687	0	0
1688	0	0
1689	0	0
1690	0	0
1691	0	0
1692	0	0
1693	0	0
1694	0	0
1695	0	0
1696	0	0
1697	0	0
1698	0	0.422113
1699	0	0.421204
1700	0	0.421786
1701	0	0
1702	0	0
1703	0	0
1704	0	0.622222
1705	0	0.622222
1706	0	0.622222
1707	0	0.509091
1708	0	0.509091
1709	0	0.509091
1710	0	0.509091
1711	0	0.509091
1712	0	0.424242
1713	0	0.258333
1714	0	0.261438
1715	0	0.171429
1716	0	0.173109
1717	0	0.212121
1718	0	0.543385
1719	0	0.61123
1720	0	0.626289
1721	0	0.618936
1722	0	0.540866
1723	0	0.582114
1724	0	0.558117
1725	0	0.566116
1726	0	0.57085
1727	0	0.337861
1728	0	1
1729	0	1
1730	0	1
1731	0	1
1732	0	0.6
1733	0	0.632929
1734	0	0
1735	0	0
1736	0	0
1737	0	0
1738	0	0
1739	0	0
1740	0	1
1741	0	0.729535
1742	0	0.732393
1743	0	0.691457
1744	0	0.94376
1745	0	0.94376
1746	0	0.983437
1747	0	0.983773
1748	0	0.975709
1749	0	0.5
1750	0	0.3
1751	0	0.0952381
1752	0	0.898272
1753	0	0.874944
1754	0	0.854216
1755	0	0.814184
1756	0	0.793958
1757	0	0.877028
1758	0	0.869095
1759	0	0.514286
1760	0	0.758333
1761	0	0.758333
1762	0	0.770055
1763	0	0.762517
1764	0	0.763691
1765	0	0.755671
1766	0	0.4
1767	0	0
1768	0	1
1769	0	0.469697
1770	0	0.469697
1771	0	0.469697
1772	0	0.351648
1773	0	0.351648
1774	0	0.257353
1775	0	0.372984
1776	0	0.270707
1777	0	0.253061
1778	0	0.259592
1779	0	0.232946
1780	0	0.216835
1781	0	0.255873
1782	0	0.242991
1783	0	0.244453
1784	0	0.253414
1785	0	0.237462
1786	0	0.193868
1787	0	0.193966
1788	0	0.225097
1789	0	0.257576
1790	0	0.245417
1791	0	0.249066
1792	0	0.285747
1793	0	0.263815
1794	0	0.281046
1795	0	0.316176
1796	0	0.358333
1797	0	0.461538
1798	0	0.435897
1799	0	0.6
1800	0	0.6
1801	0	0.6
1802	0	0.6
1803	0	0.6
1804	0	0
1805	0	0
1806	0	0
1807	0	0
1808	0	0
1809	0	0
1810	0	0.335196
1811	0	0.335463
1812	0	0.34988
1813	0	0.362345
1814	0	0.38898
1815	0	0.400771
1816	0	0.482924
1817	0	0.496243
1818	0	0.496243
1819	0	0.489053
1820	0	0.391813
1821	0	0.391813
1822	0	0.530838
1823	0	0.473014
1824	0	0.423286
1825	0	0.379366
1826	0	0
1827	0	0
1828	0	0
1829	0	0
1830	0	0
1831	0	0
1832	0	0
1833	1	0
1834	1	0
1835	1	0
1836	1	0
1837	1	0
1838	0	0.347558
1839	0	0.402214
1840	0	0.405187
1841	0	0.335423
1842	0	0.643789
1843	0	0.64695
1844	0	0.443731
1845	0	0.61048
1846	0	0.4
1847	0	0.5
1848	0	1
1849	0	0.885445
1850	0	0.813221
1851	0	0.699961
1852	0	0.69954
1853	0	0.69384
1854	0	0.773125
1855	0	0
1856	0	0
1857	0	0
1858	0	1
1859	0	0.990909
1860	1	1
1861	1	1
1862	1	1
1863	1	1
1864	1	1
1865	1	1
1866	1	1
1867	1	1
1868	1	1
1869	1	1
1870	1	1
1871	1	1
1872	1	1
1873	1	1
1874	1	1
1875	1	1
1876	1	1
1877	1	1
1878	1	1
1879	1	1
1880	1	1
1881	1	1
1882	1	1
1883	0	0.464286
1884	0	0.52381
1885	0	0.52381
1886	0	0.52381
1887	0	0.935011
1888	0	0.464803
1889	1	1
1890	0	0.482056
1891	0	0.341783
1892	0	0.341783
1893	0	0.341783
1894	0	0.341783
1895	0	0.341783
1896	0	0.341783
1897	0	0.978947
1898	0	0.892782
1899	0	0.872225
1900	0	0.900627
1901	0	1
1902	1	1
1903	1	1
1904	1	1
1905	1	1
1906	1	1
1907	1	1
1908	1	1
1909	1	1
1910	1	1
1911	1	1
1912	1	1
1913	1	1
1914	1	1
1915	1	1
1916	1	1
1917	1	1
1918	1	1
1919	1	1
1920	1	1
1921	1	1
1922	1	1
1923	1	1
1924	1	1
1925	1	1
1926	1	1
1927	1	1
1928	1	1
1929	1	1
1930	1	1
1931	0	0.968386
1932	0	1
1933	1	1
1934	1	1
1935	1	1
1936	1	1
1937	1	1
1938	1	1
1939	1	1
1940	1	1
1941	1	1
1942	1	1
1943	1	1
1944	1	1
1945	1	1
1946	1	1
1947	1	1
1948	1	1
1949	1	1
1950	1	1
1951	1	1
1952	1	1
1953	1	1
1954	0	0
1955	0	0
1956	0	0.99187
1957	0	0.99187
1958	0	0.99187
1959	0	0.99187
1960	0	0.991837
1961	0	0.991837
1962	0	0.99177
1963	0	0.99177
1964	0	0.991701
1965	0	0.991667
1966	0	0.983368
1967	0	0.934833
1968	0	0.934658
1969	0	0.974577
1970	0	0.589889
1971	0	0.59473
1972	0	0.405345
1973	0	0.405359
1974	0	0.387727
1975	0	0.366323
1976	0	0.365293
1977	0	0.383596
1978	0	0.365446
1979	0	0.307512
1980	0	0.317625
1981	0	0.166667
1982	0	0.259163
1983	0	0.292645
1984	0	0.31917
1985	0	0.224749
1986	0	0.2134
1987	0	0.204638
1988	0	0.204023
1989	0	0.243802
1990	0	0.267067
1991	0	0.198714
1992	0	0.219758
1993	0	0.583418
1994	0	0.459337
1995	0	0.472908
1996	0	0.468983
1997	0	0.469191
1998	0	0.467427
1999	0	0.467427
2000	0	0.490335
2001	0	0.491289
2002	0	0.559282
2003	0	0.578574
2004	0	0.980769
2005	0	1
2006	0	1
2007	0	1
2008	0	1
2009	0	1
2010	0	1
2011	0	1
2012	0	1
2013	1	1
2014	1	1
2015	1	1
2016	1	1
2017	1	1
2018	1	1
2019	1	1
2020	1	1
2021	1	1
2022	1	1
2023	1	1
2024	1	1
2025	1	1
2026	1	1
2027	1	1
2028	1	1
2029	1	1
2030	1	1
2031	1	1
2032	1	1
2033	1	1
2034	1	1
2035	1	1
2036	1	1
2037	1	1
2038	1	1
2039	1	1
2040	1	1
2041	1	1
2042	1	1
2043	1	1
2044	1	1
2045	1	1
2046	1	1
2047	1	1
2048	1	1
2049	1	1
2050	1	1
2051	1	1
2052	1	1
2053	1	1
2054	1	1
2055	1	1
2056	1	1
2057	1	1
2058	1	1
2059	1	1
2060	1	1
2061	1	1
2062	1	1
2063	1	1
2064	1	1
2065	0	1
2066	0	1
2067	0	1
2068	0	1
2069	0	1
2070	0	1
2071	0	1
2072	0	0.731214
2073	0	0.731214
2074	0	0.731214
2075	0	0.717531
2076	0	0.717531
2077	0	0.717531
2078	0	0.717531
2079	0	0
2080	0	0
2081	0	0
2082	0	0.709468
2083	0	0.721219
2084	0	0
2085	0	0
2086	0	0
2087	0	0
2088	0	0
2089	0	0
2090	0	0
2091	0	0.71877
2092	0	0.943169
2093	0	0.830425
2094	0	0.830425
2095	0	0
2096	0	0
2097	0	0
2098	0	0
2099	0	0
2100	0	0.844484
2101	0	0.951065
2102	0	0.951065
2103	0	1
2104	0	1
2105	0	1
2106	0	1
2107	0	0.959719
2108	0	0.959719
2109	0	0.959719
2110	0	1
2111	1	1
2112	0	0.991803
2113	0	0.991803
2114	0	0.991803
2115	0	0
2116	0	0.98364
2117	0	0.991803
2118	0	0.991803
2119	0	0.991803
2120	0	0.991803
2121	0	0.991803
2122	0	0.991803
2123	0	0.983674
2124	0	0.967449
2125	0	0.98005
2126	0	0.960104
2127	0	0.89517
2128	0	0.882353
2129	0	1
2130	0	1
2131	0	0.875
2132	0	0.69281
2133	0	0.473639
2134	0	0.352359
2135	0	0.29193
2136	0	0.390363
2137	0	0.390215
2138	0	0.362045
2139	0	0.279603
2140	0	0.275523
2141	0	0.271707
2142	0	0.284971
2143	0	0.284625
2144	0	0.284288
2145	0	0.287729
2146	0	0.287729
2147	0	0
2148	0	1
2149	0	1
2150	0	1
2151	0	0.777778
2152	0	0.777778
2153	0	0.563636
2154	0	0.472527
2155	0	0.898546
2156	0	1
2157	0	1
2158	0	1
2159	0	1
2160	0	1
2161	1	1
2162	1	1
2163	1	1
2164	1	1
2165	1	1
2166	1	1
2167	1	1
2168	1	1
2169	1	1
2170	1	1
2171	1	1
2172	1	1
2173	1	1
2174	1	1
2175	1	1
2176	1	1
2177	1	1
2178	1	1
2179	0	0
2180	0	0
2181	0	0.818182
2182	0	0
2183	0	0
2184	0	0
2185	0	0
2186	0	0
2187	0	0
2188	0	0
2189	0	0
2190	0	0
2191	0	0
2192	0	0
2193	0	0
2194	0	0
2195	0	0.727739
2196	0	0.750481
2197	0	0.6
2198	0	0.452299
2199	0	0.270067
2200	0	0.239426
2201	0	0.321569
2202	0	0.352106
2203	0	0.464568
2204	0	0.491846
2205	0	0.487627
2206	0	0.484984
2207	0	0.440873
2208	0	0.434519
2209	0	0.425589
2210	0	0.420781
2211	0	0.4
2212	0	0.4
2213	0	0.4
2214	0	0.4
2215	0	0.2
2216	0	0.133333
2217	0	0.218182
2218	0	0.413717
2219	0	0.391742
2220	0	0.386741
2221	0	0.346549
2222	0	0.285833
2223	0	0.288179
2224	0	0.266034
2225	0	0.249859
2226	0	0.192513
2227	0	0.179656
2228	0	0.149043
2229	0	0.161723
2230	0	0.166795
2231	0	0.156987
2232	0	0.0960828
2233	0	0.0943223
2234	0	0.0986491
2235	0	0.0782672
2236	0	0.0862807
2237	0	0.0798251
2238	0	0.3
2239	0	0.3
2240	0	0.3
2241	0	0.3
2242	0	0.3
2243	0	0.3
2244	0	0.6
2245	0	0.6
2246	0	0.6
2247	0	0.125397
2248	0	0.128571
2249	0	0.137255
2250	0	0.242063
2251	0	0.243056
2252	0	0.0769231
2253	0	0.115385
2254	0	0.106061
2255	0	0.537805
2256	0	0.537805
2257	0	0.537805
2258	0	0.565385
2259	0	0.214286
2260	0	0.214286
2261	0	0.285714
2262	0	0.5
2263	0	0.5
2264	0	0.333333
2265	0	0.166667
2266	0	0.166667
2267	0	0.0666667
2268	0	0.047619
2269	0	0.220588
2270	0	0.181159
2271	0	0.108871
2272	0	0.0682028
2273	0	0.0651333
2274	0	0.0651554
2275	0	0.0500522
2276	0	0.0458075
2277	0	0.0592412
2278	0	0
2279	0	0.0357143
2280	0	0.0357143
2281	0	0.0357143
2282	0	0.0357143
2283	0	0.075074
2284	0	0.024026
2285	0	0.0243258
2286	0	0.0223214
2287	0	0.0474634
2288	0	0.0466584
2289	0	0.0462017
2290	0	0.0401892
2291	0	0.0317507
2292	0	0.0226535
2293	0	0.0323968
2294	0	0.036374
2295	0	0.0456253
2296	0	0.0508689
2297	0	0.0511848
2298	0	0.0466019
2299	0	0.0478333
2300	0	0.0451505
2301	0	0.0533607
2302	0	0.0590029
2303	0	0.0619108
2304	0	0.0601758
2305	0	0.138889
2306	0	0.109091
2307	0	0.109091
2308	0	0.0954724
2309	0	0.0879811
2310	0	0.0907934
2311	0	0.0686312
2312	0	0.0602778
2313	0	0.0879033
2314	0	0.0891591
2315	0	0.0943474
2316	0	0.0960946
2317	0	0.0868486
2318	0	0.0951312
2319	0	0.0914227
2320	0	0.0380952
2321	0	0.0522876
2322	0	0.0522876
2323	0	0.0514706
2324	0	0.0629265
2325	0	0.0639391
2326	0	0.0635162
2327	0	0.0632589
2328	0	0.0627066
2329	0	0.0759293
2330	0	0.333333
2331	0	0.333333
2332	0	0.333333
2333	0	0.166667
2334	0	0.0787335
2335	0	0.0787675
2336	0	0.0801959
2337	0	0.0793116
2338	0	0.0650559
2339	0	0.069827
2340	0	0.0707297
2341	0	0.072016
2342	0	0.0721646
2343	0	0
2344	0	0
2345	0	0
2346	0	0
2347	0	0.738095
2348	0	0
2349	0	0.698198
2350	0	0.473737
2351	0	0.495772
2352	0	0.436633
2353	0	0.359729
2354	0	0.336827
2355	0	0.0676923
2356	0	0.0883191
2357	0	0.0827586
2358	0	0.0903226
2359	0	0.0833333
2360	0	0.0961538
2361	0	0.125
2362	0	0.226465
2363	0	0.261216
2364	0	0.229946
2365	0	0.215059
2366	0	0.225377
2367	0	0.478046
2368	0	0.488323
2369	0	0
2370	0	0
2371	0	0
2372	0	0
2373	0	0
2374	0	0
2375	0	0
2376	0	0
2377	0	0
2378	0	0
2379	0	0
2380	0	0
2381	0	0
2382	0	0
2383	0	0
2384	0	0
2385	0	0.206132
2386	0	0.236654
2387	0	0.218156
2388	0	0.226377
2389	0	0.236507
2390	0	0.237648
2391	0	0.136644
2392	0	0.146275
2393	0	0.144566
2394	0	0.148468
2395	0	0.142105
2396	0	0.101282
2397	0	0.0987805
2398	0	0.108108
2399	0	0.108108
2400	0	0.107786
2401	0	0.205636
2402	0	0.201959
2403	0	0.137933
2404	0	0.154416
2405	0	0.159147
2406	0	0.158232
2407	0	0.150131
2408	0	0.155409
2409	0	0.157213
2410	0	0.15305
2411	0	0.179056
2412	0	0.145885
2413	0	0.16019
2414	0	0.137374
2415	0	0.151457
2416	0	0.163679
2417	0	0.15175
2418	0	0.108081
2419	0	0.107401
2420	0	0.108623
2421	0	0.0848776
2422	0	0.0722298
2423	0	0.0907112
2424	0	0.0863636
2425	0	0.0888889
2426	0	0.0689873
2427	0	0.087395
2428	0	0.0882968
2429	0	0.0878995
2430	0	0.0926979
2431	0	0.10624
2432	0	0.109981
2433	0	0.106689
2434	0	0.0965884
2435	0	0.10407
2436	0	0.102552
2437	0	0.105279
2438	0	0.47619
2439	0	0.47619
2440	0	0.47619
2441	0	0.47619
2442	0	0.47619
2443	0	0.357143
2444	0	0.222222
2445	0	0.151515
2446	0	0.280702
2447	0	0.108046
2448	0	0.16129
2449	0	0.12381
2450	0	0.117117
2451	0	0.0917538
2452	0	0.0469849
2453	0	0.0713025
2454	0	0.0802871
2455	0	0.0836152
2456	0	0.0829149
2457	0	0.0819502
2458	0	0.0829184
2459	0	0.0830544
2460	0	0
2461	0	0
2462	0	0.0831117
2463	0	0.0877939
2464	0	0.0887275
2465	0	0.0989344
2466	0	0.140845
2467	0	0.151629
2468	0	0.143506
2469	0	0.102357
2470	0	0.112317
2471	0	0.127363
2472	0	0.127568
2473	0	0.0888889
2474	0	0.0666667
2475	0	0.1
2476	0	0
2477	0	0
2478	0	0
2479	0	0
2480	0	0
2481	1	0
2482	1	0
2483	1	0
2484	0	0
2485	0	0
2486	0	0
2487	0	0
2488	0	0
2489	0	0.333333
2490	0	0.333333
2491	0	0.333333
2492	0	0.333333
2493	0	0.166667
2494	0	0.1
2495	0	0.1
2496	0	0.1
2497	0	0.0666667
2498	0	0.0666667
2499	0	0.0666667
2500	0	0.142857
2501	0	0.507527
2502	0	0.427807
2503	0	0.236842
2504	0	0.236842
2505	0	0.228571
2506	0	0.231729
2507	0	0.124777
2508	0	0.0666667
2509	0	0.112299
2510	0	0.126984
2511	0	0.115764
2512	0	0.110345
2513	0	0.111111
2514	0	0.166667
2515	0	0.166667
2516	0	0.166667
2517	0	0.166667
2518	0	0.166667
2519	0	0.166667
2520	0	0.155556
2521	0	0.155556
2522	0	0.112644
2523	0	0.12043
2524	0	0.0846774
2525	0	0.108871
2526	0	0.121839
2527	0	0.121839
2528	0	0.2
2529	0	0.151724
2530	0	0.296552
2531	0	0.457692
2532	0	0.528205
2533	0	0.166667
2534	0	0.595142
2535	0	0.491694
2536	0	0.104575
2537	0	0.0809524
2538	0	0
2539	0	0
2540	0	0
2541	0	0
2542	0	0
2543	0	0
2544	0	0
2545	0	0
2546	0	0
2547	0	0
2548	0	0
2549	0	0
2550	0	0
2551	0	0.122376
2552	0	0.111178
2553	0	0.112489
2554	0	0.111485
2555	0	0.118209
2556	0	0.118865
2557	0	0.120115
2558	0	0.119035
2559	0	0.0892156
2560	0	0.093612
2561	0	0.0957904
2562	0	0.0895857
2563	0	0.119384
2564	0	0.123423
2565	0	0.114648
2566	0	0.116519
2567	0	0.12009
2568	0	0.119954
2569	0	0.13332
2570	0	0.133354
2571	0	0.123763
2572	0	0.123167
2573	0	0.0512821
2574	0	0.043956
2575	0	0.416162
2576	0	0.40592
2577	0	0.0769231
2578	0	0.0769231
2579	0	0.0659341
2580	0	0.350951
2581	0	0.0350877
2582	0	0.415197
2583	0	0.296835
2584	0	0.210809
2585	0	0.187675
2586	0	0.171814
2587	0	0.226537
2588	0	0.168396
2589	0	0.18068
2590	0	0.175439
2591	0	0.25
2592	0	0.614402
2593	0	0.764103
2594	0	0.764103
2595	0	0.764103
2596	0	0.804318
2597	0	0.804318
2598	0	0.418354
2599	0	0.142857
2600	0	0.365079
2601	0	0.365079
2602	0	0.636667
2603	0	0
2604	0	0
2605	0	0
2606	0	0
2607	0	0
2608	0	0
2609	0	0
2610	0	0.5
2611	0	0.5
2612	0	0.5
2613	0	0.5
2614	0	0.833333
2615	0	0.356725
2616	0	0.3003
2617	0	0.39102
2618	0	0.375686
2619	0	0.123295
2620	0	0.125659
2621	0	0.127187
2622	0	0.140446
2623	0	0.141841
2624	0	0.143584
2625	0	0.145881
2626	0	0
2627	0	0
2628	0	0
2629	0	0
2630	0	0
2631	0	0
2632	0	0
2633	0	0
2634	0	0
2635	0	0.880682
2636	0	0.880682
2637	0	0.880682
2638	0	0
2639	0	0.333333
2640	0	0.333333
2641	0	0.333333
2642	0	0.783193
2643	0	0.783193
2644	0	0.732773
2645	0	0.739683
2646	0	0.0952381
2647	0	0.647619
2648	0	0.0666667
2649	0	0.0666667
2650	0	0.047619
2651	0	0.0222222
2652	0	0.0181818
2653	0	0.243599
2654	0	0.223132
2655	0	0.196296
2656	0	0.194658
2657	0	0.1297
2658	0	0.111901
2659	0	0.105487
2660	0	0.0767544
2661	0	0.0787037
2662	0	0.0881155
2663	0	0.0977226
2664	0	0.0981366
2665	0	0.112379
2666	0	0.0637681
2667	0	0.0657005
2668	0	0.0792271
2669	0	0.187019
2670	0	0.193452
2671	0	0.356387
2672	0	0.348581
2673	0	0.501271
2674	0	0.532546
2675	0	0.532452
2676	0	0.535085
2677	0	0.535085
2678	0	0.535085
2679	0	0.545455
2680	0	0.545455
2681	0	0.583719
2682	0	0.901282
2683	0	0.898785
2684	0	0.853846
2685	0	0.853846
2686	0	0.853846
2687	0	0.853846
2688	0	0.357143
2689	0	0.214286
2690	0	0.635628
2691	0	0.641026
2692	0	0.623044
2693	0	0.591093
2694	0	0.5
2695	0	0.576577
2696	0	0.133333
2697	0	0.133333
2698	0	0.705548
2699	0	0.0357143
2700	0	0.560816
2701	0	0.316709
2702	0	0.3167
2703	0	0.204256
2704	0	0.184789
2705	0	0.175408
2706	0	0.179973
2707	0	0.223055
2708	0	0.207194
2709	0	0.213171
2710	0	0.26043
2711	0	0.271718
2712	0	0.286612
2713	0	0.326193
2714	0	0.252987
2715	0	0.262303
2716	0	0.25812
2717	0	0.26392
2718	0	0.305828
2719	0	0.0666667
2720	0	0.0833333
2721	0	0.0833333
2722	0	0.0833333
2723	0	0.107143
2724	0	0.0666667
2725	0	0.1
2726	0	0
2727	0	0
2728	0	0
2729	0	0
2730	0	0
2731	0	0
2732	0	0
2733	0	0
2734	0	0
2735	0	0
2736	0	0
2737	0	0
2738	0	0
2739	0	0
2740	0	0
2741	0	0
2742	0	0
2743	0	0
2744	0	0
2745	0	0
2746	0	0
2747	0	0
2748	0	0
2749	0	0
2750	0	0
2751	0	0
2752	0	0
2753	0	0
2754	0	0
2755	0	0
2756	0	0
