Site	ColumnScore	SumOfPairsScore
1	0	0.921412
2	0	0.921412
3	0	0.898981
4	1	1
5	0	0.4
6	0	0.983505
7	1	0
8	1	0
9	1	0
10	1	0
11	1	0
12	0	0
13	0	0
14	0	0
15	0	0
16	0	0
17	0	1
18	1	1
19	1	1
20	1	1
21	1	1
22	1	1
23	1	1
24	1	1
25	1	1
26	1	1
27	1	1
28	1	1
29	1	1
30	1	1
31	1	1
32	1	1
33	1	1
34	0	1
35	0	1
36	0	0.983871
37	0	0.983871
38	0	0.983871
39	0	0.983871
40	0	0.983871
41	0	0.983871
42	0	1
43	0	1
44	0	1
45	0	1
46	0	1
47	0	1
48	0	1
49	1	1
50	1	0
51	0	0.959909
52	0	0.959975
53	0	1
54	0	1
55	1	1
56	0	0.991968
57	0	0.984032
58	0	0.984032
59	0	0.984032
60	0	0.984032
61	0	0.992
62	0	0.992
63	1	1
64	1	1
65	1	1
66	1	1
67	1	1
68	1	1
69	1	1
70	1	1
71	1	1
72	1	1
73	1	1
74	1	1
75	1	1
76	1	1
77	1	1
78	1	1
79	1	1
80	1	1
81	1	1
82	1	1
83	1	1
84	1	1
85	1	1
86	1	1
87	1	1
88	1	1
89	1	1
90	1	1
91	1	1
92	1	1
93	0	0
94	1	0
95	0	0.992
96	1	1
97	1	1
98	1	1
99	1	1
100	1	1
101	1	1
102	1	1
103	1	1
104	1	1
105	1	1
106	1	1
107	1	1
108	1	1
109	1	1
110	1	1
111	1	1
112	1	1
113	1	1
114	1	1
115	1	1
116	1	1
117	1	1
118	1	1
119	1	1
120	1	1
121	1	1
122	1	1
123	1	1
124	1	1
125	1	1
126	1	1
127	1	1
128	1	1
129	1	1
130	1	1
131	1	1
132	1	1
133	1	1
134	1	1
135	1	1
136	1	1
137	1	1
138	1	1
139	1	1
140	1	1
141	1	1
142	1	1
143	1	1
144	1	1
145	1	1
146	1	1
147	1	1
148	1	1
149	1	1
150	1	1
151	1	1
152	1	1
153	1	1
154	1	1
155	1	1
156	1	1
157	1	1
158	1	1
159	1	1
160	1	1
161	1	1
162	1	1
163	1	1
164	1	1
165	1	1
166	1	1
167	1	1
168	1	1
169	1	1
170	1	1
171	1	1
172	1	1
173	1	1
174	1	1
175	1	1
176	1	1
177	1	1
178	1	1
179	1	1
180	1	1
181	1	1
182	1	1
183	1	1
184	1	1
185	1	1
186	1	1
187	1	1
188	1	1
189	1	1
190	1	1
191	1	1
192	1	1
193	1	1
194	1	1
195	1	1
196	1	1
197	1	1
198	1	1
199	1	1
200	1	1
201	1	1
202	1	1
203	1	1
204	1	0
205	1	0
206	1	0
207	1	0
208	1	0
209	1	1
210	1	1
211	1	1
212	1	1
213	1	1
214	1	1
215	1	1
216	1	1
217	1	1
218	1	1
219	1	1
220	1	1
221	1	1
222	1	1
223	1	1
224	1	1
225	1	1
226	1	1
227	1	1
228	1	1
229	1	1
230	1	1
231	1	1
232	1	1
233	1	1
234	1	1
235	1	1
236	1	1
237	1	1
238	1	1
239	1	1
240	1	1
241	1	1
242	1	1
243	1	1
244	1	1
245	1	1
246	1	1
247	1	1
248	1	1
249	1	1
250	1	1
251	1	1
252	1	1
253	1	1
254	0	0.992
255	0	0.992
256	0	0.992
257	0	0.992
258	0	0.992
259	0	0.992
260	0	0.992
261	0	0.992
262	0	0.992
263	1	0
264	1	0
265	1	0
266	1	0
267	1	0
268	1	0
269	1	0
270	1	0
271	1	0
272	1	0
273	1	0
274	1	0
275	1	0
276	1	0
277	1	0
278	1	0
279	1	0
280	1	0
281	1	0
282	1	0
283	1	0
284	0	0
285	0	0
286	0	0
287	0	0
288	0	0
289	0	0
290	0	0
291	0	0
292	0	0
293	1	1
294	1	1
295	1	1
296	1	1
297	1	1
298	1	1
299	1	1
300	1	1
301	1	1
302	1	1
303	1	1
304	1	1
305	1	1
306	1	1
307	1	1
308	1	1
309	1	1
310	1	1
311	1	1
312	1	1
313	0	1
314	0	0.984064
315	1	1
316	1	1
317	1	1
318	1	1
319	1	1
320	1	1
321	1	1
322	1	1
323	1	1
324	1	1
325	1	1
326	1	1
327	1	1
328	1	1
329	1	1
330	1	1
331	1	1
332	1	1
333	1	1
334	0	1
335	0	0.992
336	0	0.992
337	0	0.992
338	0	0.992
339	0	0.992
340	0	0.992
341	0	0.992
342	0	0
343	0	0.947368
344	0	0.655063
345	0	0.558719
346	0	0.478811
347	0	0.370968
348	0	0.342297
349	0	0.334888
350	0	0.266667
351	0	0.280516
352	0	0.289929
353	0	0.283122
354	0	0.207207
355	0	0.198126
356	0	0.218284
357	0	0.229947
358	0	0.202439
359	0	0.298443
360	0	0.180325
361	0	0.170217
362	0	0.20845
363	0	0.211823
364	0	0.211341
365	0	0.22339
366	0	0.209253
367	0	0.205237
368	0	0
369	0	0
370	0	0
371	0	0
372	0	0
373	0	0
374	0	0
375	0	0
376	0	0
377	0	0
378	0	0
379	0	0
380	0	0
381	0	0
382	0	0
383	0	0
384	0	0
385	0	0
386	0	0
387	0	0
388	0	0
389	0	0
390	0	0
391	0	0
392	0	0
393	0	0
394	0	0
395	0	0
396	0	0
397	0	0
398	0	0
399	0	0
400	0	0
401	0	0
402	0	0
403	0	0
404	0	0
405	0	0
406	0	0
407	0	0
408	0	0.725275
409	0	0.725275
410	0	0.177778
411	0	0.343137
412	0	0.2931
413	0	0.367502
414	0	0.461815
415	0	0.509333
416	0	0.509333
417	0	0.509333
418	0	0.509333
419	0	0
420	0	0
421	0	0
422	0	0
423	0	0
424	0	0
425	0	0
426	0	0
427	0	0
428	0	0
429	0	0
430	0	0
431	0	0
432	0	0
433	0	0
434	0	0
435	0	0
436	0	0
437	0	0
438	0	0
439	0	0
440	0	0
441	0	0
442	0	0
443	0	0
444	0	0
445	0	0
446	0	0
447	0	0
448	0	0
449	0	0
450	0	0
451	0	0
452	0	0
453	0	0
454	0	0
455	0	0
456	0	0
457	0	0
458	0	0
459	0	0
460	0	0
461	0	0
462	0	0
463	0	0
464	0	0
465	0	0
466	0	0
467	0	0
468	0	0
469	0	0
470	0	0
471	0	0
472	0	0
473	0	0
474	0	0
475	0	0
476	0	0
477	0	0
478	0	0
479	0	0
480	0	0
481	0	0
482	0	0
483	0	0
484	0	0
485	0	0
486	0	0
487	0	0
488	0	0
489	0	0
490	0	0.974442
491	0	0.95239
492	0	0.582458
493	0	0.915742
494	0	0
495	0	0
496	0	0
497	0	0
498	0	0
499	0	0.892177
500	0	0
501	0	0
502	0	0
503	0	0
504	0	0
505	0	0
506	0	0
507	0	0
508	0	0
509	0	0.892177
510	0	1
511	0	1
512	0	1
513	0	1
514	0	1
515	0	1
516	0	1
517	0	1
518	0	1
519	0	1
520	0	0.333333
521	0	0.333333
522	0	0.876659
523	0	0
524	0	0
525	0	0
526	0	0.333333
527	0	0.333333
528	0	0.333333
529	0	0.333333
530	0	0.882918
531	0	0.142857
532	0	0.142857
533	0	0.2
534	0	0.3
535	0	0.3
536	0	0.3
537	0	0.3
538	0	0.3
539	0	0.190476
540	0	0.266667
541	0	0.266667
542	0	0.266667
543	0	0.3
544	0	0.3
545	0	0.2
546	0	0.2
547	0	0.266667
548	0	0.266667
549	0	0.266667
550	0	0.266667
551	0	0.266667
552	0	0.266667
553	0	0.266667
554	0	0.266667
555	0	0.266667
556	0	0.266667
557	0	0.266667
558	0	0.266667
559	0	0.266667
560	0	0.266667
561	0	0.266667
562	0	0.266667
563	0	0.266667
564	0	0.266667
565	0	0.266667
566	0	0.266667
567	0	0.266667
568	0	0.266667
569	0	0.266667
570	0	0.266667
571	0	0.266667
572	0	0.266667
573	0	0.266667
574	0	0.266667
575	0	0.266667
576	0	0.266667
577	0	0.266667
578	0	0.266667
579	0	0.333333
580	0	0.333333
581	0	0.333333
582	0	0.333333
583	0	0.333333
584	0	0
585	0	0
586	0	0
587	0	0
588	0	0
589	0	0
590	0	0
591	0	0
592	0	0
593	0	0
594	0	0
595	0	0
596	0	0
597	0	0
598	0	0
599	0	0
