Site	ColumnScore	SumOfPairsScore
1	0	0
2	0	0
3	0	0
4	0	0
5	0	0
6	0	0
7	0	0
8	0	0
9	0	0
10	0	0
11	0	0
12	0	0
13	0	0
14	0	0
15	0	0
16	0	0
17	0	0
18	0	0
19	0	0
20	0	0
21	0	0
22	0	0
23	0	0
24	0	0
25	0	0
26	0	0
27	0	0
28	0	0
29	0	0
30	0	0
31	0	0
32	0	0
33	0	0
34	0	0
35	0	0
36	0	0
37	0	0
38	0	0
39	0	0
40	0	0
41	0	0
42	0	0
43	0	0
44	0	0
45	0	0
46	0	0
47	0	0
48	0	0.333333
49	0	0.333333
50	0	0.333333
51	0	0.333333
52	0	0.333333
53	0	0.333333
54	0	0.333333
55	0	0.333333
56	0	0.333333
57	0	0.333333
58	0	0.333333
59	0	0.333333
60	0	0.333333
61	0	0.333333
62	0	0.333333
63	0	0.333333
64	0	0.333333
65	0	0.333333
66	0	0.333333
67	0	0.333333
68	0	0.333333
69	0	0.333333
70	0	0.333333
71	0	0.333333
72	0	0.333333
73	0	0.333333
74	0	0.333333
75	0	0.333333
76	0	0.333333
77	0	0.333333
78	0	0.333333
79	0	0.333333
80	0	0.333333
81	0	0.333333
82	0	0.333333
83	0	0.333333
84	0	0.333333
85	0	0.333333
86	0	0.333333
87	0	0.333333
88	0	0.333333
89	0	0.333333
90	0	0.333333
91	0	0.333333
92	0	0.333333
93	0	0.333333
94	0	0.333333
95	0	0.333333
96	0	0.333333
97	0	0.333333
98	0	0.333333
99	0	0.333333
100	0	0.333333
101	0	0.333333
102	0	0.333333
103	0	0.333333
104	0	0.333333
105	0	0.333333
106	0	0.333333
107	0	0.333333
108	0	0.333333
109	0	0.333333
110	0	0.333333
111	0	0.333333
112	0	0.333333
113	0	0.333333
114	0	0.333333
115	0	0.333333
116	0	0.333333
117	0	0.333333
118	0	0.333333
119	0	0.333333
120	0	0.333333
121	0	0.333333
122	0	0.333333
123	0	0.333333
124	0	0.333333
125	0	0.333333
126	0	0.333333
127	0	0.333333
128	0	0.333333
129	0	0.333333
130	0	0.333333
131	0	0.333333
132	0	0.333333
133	0	0.333333
134	0	0.333333
135	0	0.333333
136	0	0.333333
137	0	0.333333
138	0	0.333333
139	0	0.333333
140	0	0.333333
141	0	0.333333
142	0	0.333333
143	0	0.333333
144	0	0.333333
145	0	0.333333
146	0	0.333333
147	0	0.333333
148	0	0.333333
149	0	0.333333
150	0	0.333333
151	0	0.333333
152	0	0.333333
153	0	0.333333
154	0	0.333333
155	0	0.333333
156	0	0.333333
157	0	0.333333
158	0	0.333333
159	0	0.333333
160	0	0.333333
161	0	0.333333
162	0	0.333333
163	0	0.333333
164	0	0.333333
165	0	0.333333
166	0	0.333333
167	0	0.333333
168	0	0.333333
169	0	0.333333
170	0	0.333333
171	0	0.333333
172	0	0.333333
173	0	0.333333
174	0	0.333333
175	0	0.333333
176	0	0.333333
177	0	0.333333
178	0	0.333333
179	0	0.333333
180	0	0.333333
181	0	0.333333
182	0	0.333333
183	0	0.333333
184	0	0.333333
185	0	0.333333
186	0	0.166667
187	0	0.166667
188	0	0.166667
189	0	0.166667
190	0	0.166667
191	0	0.166667
192	0	0.166667
193	0	0.166667
194	0	0.166667
195	0	0.166667
196	0	0.166667
197	0	0.166667
198	0	0.166667
199	0	0.166667
200	0	0.166667
201	0	0
202	0	0
203	0	0
204	0	0
205	0	0
206	0	0
207	0	0
208	0	0
209	0	0
210	0	0
211	0	0
212	0	0
213	0	0
214	0	0
215	0	0
216	0	0
217	0	0
218	0	0
219	0	0
220	0	0
221	0	0
222	0	0
223	0	0
224	0	0
225	0	0
226	0	0
227	0	0
228	0	0
229	0	0
230	0	0
231	0	0
232	0	0
233	0	0
234	0	0
235	0	0
236	0	0
237	0	0
238	0	0
239	0	0
240	0	0
241	0	0
242	0	0
243	0	0
244	0	0
245	0	0
246	0	0
247	0	0
248	0	0
249	0	0
250	0	0
251	0	0
252	0	0
253	0	0
254	0	0
255	0	0
256	0	0
257	0	0
258	0	0
259	0	0
260	0	0
261	0	0
262	0	0
263	0	0
264	0	0
265	0	0
266	0	0
267	0	0
268	0	0
269	0	0
270	0	0
271	0	0
272	0	0
273	0	0
274	0	0
275	0	0
276	0	0
277	0	0
278	0	0
279	0	0
280	0	0
281	0	0
282	0	0
283	0	0
284	0	0
285	0	0
286	0	0
287	0	0
288	0	0
289	0	0
290	0	0
291	0	0
292	0	0
293	0	0
294	0	0
295	0	0
296	0	0
297	0	0
298	0	0
299	0	0
300	0	0
301	0	0
302	0	0
303	0	0
304	0	0
305	0	0
306	0	0
307	0	0
308	0	0
309	0	0
310	0	0
311	0	0
312	0	0
313	0	0
314	0	0
315	0	0
316	0	0
317	0	0
318	0	0
319	0	0
320	0	0
321	0	0
322	0	0
323	0	0
324	0	0
325	0	0
326	0	0
327	0	0
328	0	0
329	0	0
330	0	0
331	0	0
332	0	0
333	0	0
334	0	0
335	0	0
336	0	0
337	0	0
338	0	0
339	0	0
340	0	0
341	0	0
342	0	0
343	0	0
344	0	0
345	0	0
346	0	0
347	0	0
348	0	0
349	0	0
350	0	0
351	0	0
352	0	0
353	0	0
354	0	0
355	0	0
356	0	0
357	0	0
358	0	0
359	0	0
360	0	0.1
361	0	0.0666667
362	0	0.0666667
363	0	0.0666667
364	0	0.0666667
365	0	0.0666667
366	0	0.0666667
367	0	0.0666667
368	0	0.0666667
369	0	0.0666667
370	0	0.0666667
371	0	0.0666667
372	0	0.0666667
373	0	0.0666667
374	0	0.0666667
375	0	0.0666667
376	0	0.0666667
377	0	0.0666667
378	0	0.0666667
379	0	0.0666667
380	0	0.0666667
381	0	0.0666667
382	0	0.2
383	0	0.2
384	0	0.2
385	0	0.2
386	0	0.2
387	0	0.2
388	0	0.2
389	0	0.2
390	0	0.2
391	0	0.2
392	0	0.2
393	0	0.2
394	0	0.2
395	0	0.2
396	0	0.2
397	0	0.2
398	0	0.2
399	0	0.2
400	0	0.2
401	0	0.2
402	0	0.2
403	0	0.2
404	0	0.2
405	0	0.2
406	0	0.2
407	0	0.2
408	0	0.2
409	0	0.2
410	0	0.2
411	0	0.2
412	0	0.2
413	0	0.2
414	0	0.2
415	0	0.2
416	0	0.2
417	0	0.2
418	0	0.2
419	0	0.2
420	0	0.2
421	0	0.2
422	0	0.2
423	0	0.2
424	0	0.2
425	0	0.2
426	0	0.2
427	0	0.2
428	0	0.2
429	0	0.2
430	0	0.2
431	0	0.2
432	0	0.2
433	0	0.2
434	0	0.2
435	0	0.2
436	0	0.2
437	0	0.2
438	0	0.2
439	0	0.2
440	0	0.2
441	0	0.2
442	0	0.2
443	0	0.2
444	0	0.2
445	0	0.2
446	0	0.2
447	0	0.2
448	0	0.2
449	0	0.2
450	0	0.2
451	0	0.2
452	0	0.2
453	0	0.2
454	0	0.2
455	0	0.2
456	0	0.2
457	0	0.2
458	0	0.2
459	0	0.2
460	0	0.2
461	0	0.2
462	0	0.2
463	0	0.2
464	0	0.2
465	0	0.2
466	0	0.2
467	0	0.2
468	0	0.2
469	0	0.2
470	0	0.2
471	0	0.2
472	0	0.2
473	0	0.2
474	0	0.2
475	0	0.2
476	0	0.2
477	0	0.2
478	0	0.2
479	0	0.2
480	0	0.2
481	0	0.2
482	0	0.2
483	0	0.2
484	0	0.2
485	0	0.2
486	0	0.2
487	0	0.2
488	0	0.2
489	0	0.2
490	0	0.2
491	0	0.2
492	0	0.2
493	0	0.2
494	0	0.2
495	0	0.2
496	0	0.2
497	0	0.2
498	0	0.2
499	0	0.2
500	0	0.2
501	0	0.2
502	0	0.2
503	0	0.2
504	0	0.2
505	0	0.2
506	0	0.2
507	0	0.2
508	0	0.142857
509	0	0.142857
510	0	0.142857
511	0	0.142857
512	0	0.142857
513	0	0.142857
514	0	0.142857
515	0	0.142857
516	0	0.142857
517	0	0.142857
518	0	0.142857
519	0	0.142857
520	0	0.142857
521	0	0.142857
522	0	0.142857
523	0	0.142857
524	0	0.142857
525	0	0.142857
526	0	0.142857
527	0	0.142857
528	0	0.142857
529	0	0.142857
530	0	0.142857
531	0	0.142857
532	0	0.107143
533	0	0.0888889
534	0	0.0888889
535	0	0.0888889
536	0	0.0888889
537	0	0.0888889
538	0	0.0888889
539	0	0.0888889
540	0	0.0888889
541	0	0.0888889
542	0	0.0888889
543	0	0.0888889
544	0	0.0888889
545	0	0.0888889
546	0	0.2
547	0	0.2
548	0	0.2
549	0	0.2
550	0	0.2
551	0	0.2
552	0	0.2
553	0	0.2
554	0	0.2
555	0	0.2
556	0	0.2
557	0	0.4
558	0	0.4
559	0	0.4
560	0	0.4
561	0	0.4
562	0	0.4
563	0	0.436364
564	0	0.439683
565	0	0.558352
566	0	0.539493
567	0	0.505056
568	0	0.496499
569	0	0.451686
570	0	0.444401
571	0	0.444401
572	0	0.430894
573	0	0.293086
574	0	0.281854
575	0	0.246732
576	0	0.298246
577	0	0.320261
578	0	0.222222
579	0	0.404208
580	0	0.19414
581	0	0.200291
582	0	0.353706
583	0	0.384423
584	0	0.605338
585	0	0.781339
586	0	0.779952
587	0	0.793412
588	0	0.785244
589	0	0.782066
590	0	0.773877
591	0	0.424283
592	0	0.411049
593	0	0.406855
594	0	0.411208
595	0	0.4083
596	0	0.255221
597	0	0.203996
598	0	0.200096
599	0	0.192228
600	0	0
601	0	0
602	0	0
603	0	0
604	0	0
605	0	0
606	0	0
607	0	0
608	0	0
609	0	0
610	0	0
611	0	0
612	0	0
613	0	0
614	0	0
615	0	0
616	0	0
617	0	0
618	0	0
619	0	0
620	0	0
621	0	0
622	0	0
623	0	0
624	0	0
625	0	0
626	0	0
627	0	0
628	0	0
629	0	0
630	0	0
631	0	0
632	0	0
633	0	0
634	0	0
635	0	0
636	0	0
637	0	0
638	0	0
639	0	0
640	0	0
641	0	0
642	0	0
643	0	0
644	0	0
645	0	0
646	0	0
647	0	0
648	0	0
649	0	0
650	0	0
651	0	0
652	0	0
653	0	0
654	0	0
655	0	0
656	0	0
657	0	0
658	0	0
659	0	0
660	0	0
661	0	0
662	0	0.136364
663	0	0.570192
664	0	0.369039
665	0	0.256555
666	0	0.249139
667	0	0.19489
668	0	0.16306
669	0	0.219675
670	0	0.205088
671	0	0.198885
672	0	0.200223
673	0	0.188697
674	0	0.245124
675	0	0.62592
676	0	0.634577
677	0	0.642488
678	0	0.633831
679	0	0.611443
680	0	0.61402
681	0	0.462488
682	0	0.463781
683	0	0.405473
684	0	0.302814
685	0	0.222211
686	0	0
687	0	0
688	0	0.1
689	0	0.1
690	0	0.333333
691	0	0.166667
692	0	0.1
693	0	0.0666667
694	0	0.0666667
695	0	0.0666667
696	0	0.121212
697	0	0.151515
698	0	0.151515
699	0	0.133333
700	0	0.269006
701	0	0.271739
702	0	0.445977
703	0	0.507824
704	0	0.549758
705	0	0.622926
706	0	0.675956
707	0	0.549984
708	0	0.808126
709	0	0.620446
710	0	0.590275
711	0	0.581745
712	0	0.922645
713	0	0.931574
714	0	0.931574
715	0	0.915584
716	0	0.923832
717	0	0.923832
718	0	0.93244
719	0	0.93244
720	0	0.93244
721	0	0.93244
722	0	1
723	0	0.98287
724	0	0.98287
725	0	0.98287
726	0	0.983015
727	0	0.982943
728	0	0.983087
729	0	0.966495
730	0	0.974721
731	0	0.927815
732	0	0
733	0	0
734	0	0
735	0	0
736	0	0.983015
737	0	0.983087
738	0	0.991525
739	0	0.991525
740	0	0.991525
741	0	0.991525
742	0	0.991525
743	0	0.991525
744	0	0.991525
745	0	0.991525
746	0	0.991525
747	0	0.991525
748	0	1
749	0	1
750	0	1
751	0	1
752	0	1
753	0	1
754	0	1
755	0	1
756	0	1
757	1	1
758	1	1
759	1	1
760	1	1
761	1	1
762	1	1
763	1	1
764	1	1
765	1	1
766	1	1
767	1	1
768	1	1
769	1	1
770	1	1
771	1	1
772	1	1
773	1	1
774	1	1
775	1	1
776	1	1
777	1	1
778	1	1
779	1	1
780	1	1
781	1	1
782	1	1
783	1	1
784	1	1
785	1	1
786	1	1
787	0	0.937066
788	0	0.718802
789	0	0.193793
790	0	0.296296
791	0	0.461538
792	0	0.24183
793	0	0.210526
794	0	0.316176
795	0	0.195228
796	0	0.213262
797	0	0.217548
798	0	0.311518
799	0	0.303673
800	0	0.762846
801	0	0.646756
802	0	0.991935
803	0	0.991935
804	1	1
805	1	1
806	1	1
807	1	1
808	1	1
809	1	1
810	1	1
811	1	1
812	1	1
813	1	1
814	1	1
815	1	1
816	1	1
817	1	1
818	1	1
819	1	1
820	1	1
821	1	1
822	1	1
823	1	1
824	1	1
825	1	1
826	1	1
827	1	1
828	1	1
829	1	1
830	1	1
831	1	1
832	1	1
833	1	1
834	1	1
835	1	1
836	1	1
837	1	1
838	1	1
839	1	1
840	1	1
841	1	1
842	1	1
843	1	1
844	1	1
845	1	1
846	1	1
847	1	1
848	1	1
849	1	1
850	1	1
851	1	1
852	1	1
853	1	1
854	1	1
855	1	1
856	1	1
857	1	1
858	0	1
859	0	0.758233
860	0	1
861	1	1
862	1	1
863	1	1
864	1	1
865	1	1
866	1	1
867	1	1
868	1	1
869	1	1
870	1	1
871	1	1
872	1	1
873	1	1
874	1	1
875	1	1
876	1	1
877	1	1
878	1	1
879	1	1
880	1	1
881	1	1
882	1	1
883	1	1
884	1	1
885	1	1
886	1	1
887	1	1
888	1	1
889	1	1
890	1	1
891	1	1
892	1	1
893	1	1
894	1	1
895	1	1
896	1	1
897	1	1
898	1	1
899	1	1
900	1	1
901	1	1
902	1	1
903	1	1
904	1	1
905	1	1
906	1	1
907	1	1
908	1	1
909	1	1
910	1	1
911	1	1
912	1	1
913	1	1
914	1	1
915	1	1
916	1	1
917	1	1
918	1	1
919	1	1
920	1	1
921	1	1
922	1	1
923	1	1
924	1	1
925	1	1
926	1	1
927	1	1
928	1	1
929	1	1
930	1	1
931	0	1
932	0	1
933	0	1
934	0	1
935	0	1
936	0	0.333333
937	0	0.333333
938	0	0.333333
939	0	0.333333
940	0	0.166667
941	0	0.166667
942	0	0.133333
943	0	0.047619
944	0	0.047619
945	0	0.047619
946	0	0.047619
947	0	0.047619
948	0	0.0555556
949	0	0.918995
950	0	0
951	0	0
952	0	0
953	0	0
954	0	0
955	0	0
956	0	0
957	0	0
958	0	0
959	0	0
960	0	0
961	0	0
962	0	0
963	0	0
964	0	0.194444
965	0	0.155556
966	0	0.109091
967	0	0.272727
968	0	0.272727
969	0	0.205128
970	0	0.282051
971	0	0.282051
972	0	0.282051
973	0	0.371795
974	0	0.604396
975	0	0.742857
976	0	0.758333
977	0	0.758333
978	0	0.758333
979	0	1
980	0	1
981	0	0.595402
982	0	1
983	0	1
984	0	1
985	0	1
986	0	1
987	0	1
988	0	1
989	0	1
990	0	1
991	0	1
992	0	1
993	0	1
994	0	1
995	0	1
996	0	1
997	0	1
998	0	1
999	0	1
1000	0	1
1001	0	1
1002	0	1
1003	0	1
1004	0	1
1005	0	1
1006	0	1
1007	0	0.9375
1008	0	0.9375
1009	0	0.9375
1010	0	0.9375
1011	0	0.9375
1012	0	0.9375
1013	0	0.9375
1014	0	0.9375
1015	0	0.9375
1016	0	0.9375
1017	0	0.9375
1018	0	0.9375
1019	0	0.9375
1020	0	0.9375
1021	0	0.9375
1022	0	0.9375
1023	0	0.9375
1024	0	0.9375
1025	0	0.9375
1026	0	0.9375
1027	0	0.9375
1028	0	0.9375
1029	0	0.9375
1030	0	0.9375
1031	0	0.9375
1032	0	0.9375
1033	0	0.9375
1034	0	0.9375
1035	0	0.9375
1036	0	0.9375
1037	0	0.9375
1038	0	0.9375
1039	0	0.9375
1040	0	0.9375
1041	0	0.9375
1042	0	0.9375
1043	0	0.9375
1044	0	0.9375
1045	0	0.9375
1046	0	0.9375
1047	0	0.9375
1048	0	0.9375
1049	0	0.9375
1050	0	0.9375
1051	0	0.9375
1052	0	0.9375
1053	0	0.9375
1054	0	0.9375
1055	0	0.9375
1056	0	0.9375
1057	0	0.9375
1058	0	0.9375
1059	0	0.9375
1060	0	0.9375
1061	0	0.9375
1062	0	0.9375
1063	0	0.9375
1064	0	0.9375
1065	0	0.9375
1066	0	0.9375
1067	0	0.9375
1068	0	0.9375
1069	0	0.9375
1070	0	0.9375
1071	0	0.9375
1072	0	0.9375
1073	0	0.9375
1074	0	0.9375
1075	0	0.9375
1076	0	0.9375
1077	0	0.9375
1078	0	0.9375
1079	0	0.9375
1080	0	0.747619
1081	0	0.747619
1082	0	0.747619
1083	0	0.747619
1084	0	0.747619
1085	0	0.747619
1086	0	0.747619
1087	0	0.747619
1088	0	0.747619
1089	0	0.747619
1090	0	0.747619
1091	0	0.747619
1092	0	0.747619
1093	0	0.747619
1094	0	0.747619
1095	0	0.747619
1096	0	0.671408
1097	0	0.671408
1098	0	0.671408
1099	0	0.674253
1100	0	0.691323
1101	0	0.65587
1102	0	0.65587
1103	0	0.615385
1104	0	0.615385
1105	0	0.615385
1106	0	0.615385
1107	0	0.615385
1108	0	0.615385
1109	0	0.584615
1110	0	0.584615
1111	0	0.584615
1112	0	0.584615
1113	0	0.584615
1114	0	0.584615
1115	0	0.584615
1116	0	0.588462
1117	0	0.559756
1118	0	0.559756
1119	0	0.559756
1120	0	0.559756
1121	0	0.559756
1122	0	0.559756
1123	0	0.559756
1124	0	0.533101
1125	0	0.533101
1126	0	0.533101
1127	0	0.533101
1128	0	0.533101
1129	0	0.706313
1130	0	0.706313
1131	0	0.706313
1132	0	0
1133	0	0
1134	0	0
1135	0	0
1136	0	0
1137	0	0
1138	0	0
1139	0	0
1140	0	0
1141	0	0
1142	0	0
1143	0	0
1144	0	0
1145	0	0.712009
1146	0	1
1147	0	1
1148	0	1
1149	0	1
1150	0	1
1151	0	1
1152	0	0.75
1153	0	0.706313
1154	0	0.706313
1155	0	0.648649
1156	0	0.648649
1157	0	0.684685
1158	0	0.684685
1159	0	0.684685
1160	0	0.684685
1161	0	0.684685
1162	0	0.648649
1163	0	0.648649
1164	0	0.648649
1165	0	0.648649
1166	0	0.495725
1167	0	0.495725
1168	0	0.495725
1169	0	0.492686
1170	0	0
1171	0	0
1172	0	0
1173	0	0
1174	0	0
1175	0	0
1176	0	0
1177	0	0
1178	0	0
1179	0	0
1180	0	0
1181	0	0
1182	0	0
1183	0	0
1184	0	0
1185	0	0
1186	0	0
1187	0	0
1188	0	0
1189	0	0
1190	0	0
1191	0	0
1192	0	0
1193	0	0
1194	0	0
1195	0	0
1196	0	0
1197	0	0
1198	0	0
1199	0	0
1200	0	0
1201	0	0
1202	0	0
1203	0	0
1204	0	0
1205	0	0
1206	0	0
1207	0	0
1208	0	0
1209	0	0
1210	0	0
1211	0	0
1212	0	0
1213	0	0
1214	0	0
1215	0	0
1216	0	0
1217	0	0
1218	0	0
1219	0	0
1220	0	0
1221	0	0
1222	0	0
1223	0	0
1224	0	0
1225	0	0
1226	0	0
1227	0	0
1228	0	0
1229	0	0
1230	0	0
1231	0	0
1232	0	0
1233	0	0
1234	0	0
1235	0	0
1236	0	0
1237	0	0
1238	0	0
1239	0	0
1240	0	0
1241	0	0
1242	0	0
1243	0	0
1244	0	0
1245	0	0
1246	0	0
1247	0	0
1248	0	0
1249	0	0
1250	0	0
1251	0	0
1252	0	0
1253	0	0
1254	0	0
1255	0	0
1256	0	0
1257	0	0
1258	0	0
1259	0	0
1260	0	0
1261	0	0
1262	0	0
1263	0	0
1264	0	0
1265	0	0.436427
1266	0	0.6
1267	0	0.328751
1268	0	0.328751
1269	0	0.321247
1270	0	0.323946
1271	0	0.297277
1272	0	0.3052
1273	0	0.297902
1274	0	0.301075
1275	0	0.467677
1276	0	0.4926
1277	0	0.615385
1278	0	0.615385
1279	0	0.615385
1280	0	0.615385
1281	0	0.615385
1282	0	0.615385
1283	0	0.615385
1284	0	0.615385
1285	0	0.615385
1286	0	0.648649
1287	0	0.648649
1288	0	0.648649
1289	0	0.648649
1290	0	0.648649
1291	0	0.648649
1292	0	0.648649
1293	0	0.648649
1294	0	0.648649
1295	0	0.684685
1296	0	0.684685
1297	0	0.684685
1298	0	0.684685
1299	0	0.684685
1300	0	0.684685
1301	0	0.684685
1302	0	0.684685
1303	0	0.684685
1304	0	0.684685
1305	0	0.684685
1306	0	0.684685
1307	0	0.684685
1308	0	0.684685
1309	0	0.684685
1310	0	0.684685
1311	0	0.684685
1312	0	0.684685
1313	0	0.684685
1314	0	0.684685
1315	0	0.684685
1316	0	0.684685
1317	0	0.684685
1318	0	0.684685
1319	0	0.684685
1320	0	0.684685
1321	0	0.684685
1322	0	0.684685
1323	0	0.684685
1324	0	0.684685
1325	0	0.684685
1326	0	0.684685
1327	0	0.684685
1328	0	0.684685
1329	0	0.684685
1330	0	0.684685
1331	0	0.684685
1332	0	0.684685
1333	0	0.684685
1334	0	1
1335	0	1
1336	0	1
1337	0	1
1338	0	1
1339	0	1
1340	0	1
1341	0	1
1342	1	1
1343	1	1
1344	1	1
1345	1	1
1346	1	1
1347	1	1
1348	1	1
1349	1	1
1350	1	1
1351	1	1
1352	1	1
1353	1	1
1354	1	1
1355	1	1
1356	1	1
1357	1	1
1358	1	1
1359	1	1
1360	1	1
1361	1	1
1362	1	1
1363	1	1
1364	1	1
1365	1	1
1366	1	1
1367	1	1
1368	1	1
1369	1	1
1370	1	1
1371	1	1
1372	1	1
1373	1	1
1374	1	1
1375	1	1
1376	1	1
1377	1	1
1378	1	1
1379	1	1
1380	1	1
1381	1	1
1382	1	1
1383	1	1
1384	1	1
1385	1	1
1386	1	1
1387	1	1
1388	1	1
1389	1	1
1390	1	1
1391	1	1
1392	1	1
1393	1	1
1394	1	1
1395	1	1
1396	1	1
1397	1	1
1398	1	1
1399	1	1
1400	1	1
1401	1	1
1402	1	1
1403	1	1
1404	1	1
1405	1	1
1406	1	1
1407	1	1
1408	1	1
1409	1	1
1410	1	1
1411	1	1
1412	1	1
1413	1	1
1414	1	1
1415	1	1
1416	1	1
1417	1	1
1418	1	1
1419	1	1
1420	1	1
1421	1	1
1422	1	1
1423	1	1
1424	1	1
1425	1	1
1426	1	1
1427	1	1
1428	1	1
1429	1	1
1430	1	1
1431	1	1
1432	1	1
1433	1	1
1434	1	1
1435	1	1
1436	1	1
1437	1	1
1438	1	1
1439	1	1
1440	1	1
1441	1	1
1442	1	1
1443	1	1
1444	1	1
1445	1	0
1446	1	0
1447	1	0
1448	1	0
1449	1	0
