Site	ColumnScore	SumOfPairsScore
1	0	1
2	0	1
3	0	1
4	1	1
5	1	1
6	1	1
7	1	1
8	1	1
9	1	1
10	1	1
11	1	1
12	1	1
13	1	1
14	1	1
15	0	1
16	0	1
17	0	1
18	0	1
19	0	1
20	0	1
21	0	1
22	0	1
23	0	1
24	0	1
25	0	1
26	0	1
27	0	1
28	0	1
29	0	1
30	0	1
31	0	1
32	0	1
33	0	1
34	0	1
35	0	1
36	0	1
37	0	1
38	0	1
39	0	1
40	0	1
41	0	0.6
42	0	0.6
43	0	0.6
44	0	0.6
45	0	0.6
46	0	0.6
47	0	0.6
48	0	0.6
49	0	0.6
50	0	0.6
51	0	0.6
52	0	0.6
53	0	0.6
54	0	0.6
55	0	0.6
56	0	0.6
57	0	0.6
58	0	0.6
59	0	0.6
60	0	0.6
61	0	0.6
62	0	0.6
63	0	0.6
64	0	0.6
65	0	0.6
66	0	0.6
67	0	0.6
68	0	0.6
69	0	0.6
70	0	0.6
71	0	0.6
72	0	0.6
73	0	0.6
74	0	0.5
75	0	0.5
76	0	0.5
77	0	0.5
78	0	0.5
79	0	0.5
80	0	0.5
81	0	0.5
82	0	0.5
83	0	0.5
84	0	0.5
85	0	0.5
86	0	0.5
87	0	0.5
88	0	0.5
89	0	0.5
90	0	0.5
91	0	0.5
92	0	0.5
93	0	0.5
94	0	0.5
95	0	0.5
96	0	0.5
97	0	0.5
98	0	0.5
99	0	0.5
100	0	0.5
101	0	0.5
102	0	0.5
103	0	0.5
104	0	0.3
105	0	0.6
106	0	0.6
107	0	0.6
108	0	0.6
109	0	0.6
110	0	0.6
111	0	0.6
112	0	0.6
113	0	0.6
114	0	0.6
115	0	0.6
116	0	0.6
117	0	0.6
118	0	0.6
119	0	0.6
120	0	0.6
121	0	0.6
122	0	0.6
123	0	0.6
124	0	0.6
125	0	0.6
126	0	0.6
127	0	0.6
128	0	0.6
129	0	0.6
130	0	0.6
131	0	0.6
132	0	0.6
133	0	0.6
134	0	0.6
135	0	0.6
136	0	0.6
137	0	0.6
138	0	0.6
139	0	0.6
140	0	0.6
141	0	0.6
142	0	0.6
143	0	0.6
144	0	0.6
145	0	0.6
146	0	0.6
147	0	0.6
148	0	0.6
149	0	0.6
150	0	0.6
151	0	0.6
152	0	0.6
153	0	0.6
154	0	0.6
155	0	0.6
156	0	0.6
157	0	0.6
158	0	0.6
159	0	0.6
160	0	0.6
161	0	0.6
162	0	0.6
163	0	0.6
164	0	0.4
165	0	0.4
166	0	0.4
167	0	0.4
168	0	0.4
169	0	0.4
170	0	0.4
171	0	0.4
172	0	0.4
173	0	0.4
174	0	0.4
175	0	0.4
176	0	0.4
177	0	0.4
178	0	0.4
179	0	0.4
180	0	0.4
181	0	0.4
182	0	0.4
183	0	0.4
184	0	0.4
185	0	0.4
186	0	0.4
187	0	0.4
188	0	0.4
189	0	0.4
190	0	0.4
191	0	0.4
192	0	0.4
193	0	0.4
194	0	0.4
195	0	0.285714
196	0	0.285714
197	0	0.285714
198	0	0.285714
199	0	0.285714
200	0	0.285714
201	0	0.333333
202	0	0.333333
203	0	0.333333
204	0	0.333333
205	0	0.333333
206	0	0.333333
207	0	0.333333
208	0	0.333333
209	0	0.333333
210	0	0.333333
211	0	0.333333
212	0	0.333333
213	0	0.333333
214	0	0.333333
215	0	0.333333
216	0	0.333333
217	0	0.333333
218	0	0.333333
219	0	0.333333
220	0	0.333333
221	0	0.333333
222	0	0.333333
223	0	0.333333
224	0	0.333333
225	0	0.333333
226	0	0.333333
227	0	0.333333
228	0	0.333333
229	0	0.333333
230	0	0.333333
231	0	0.333333
232	0	0.333333
233	0	0.333333
234	0	0.333333
235	0	0.190476
236	0	0.190476
237	0	0.0952381
238	0	0.133333
239	0	0.2
240	0	0.333333
241	0	0.333333
242	0	0.333333
243	0	0.333333
244	0	0.333333
245	0	0.333333
246	0	0.333333
247	0	0.333333
248	0	0.25
249	0	0.25
250	0	0.25
251	0	0.25
252	0	0.25
253	0	0.25
254	0	0.25
255	0	0.25
256	0	0.25
257	0	0.25
258	0	0.25
259	0	0.25
260	0	0.25
261	0	0.25
262	0	0.25
263	0	0.25
264	0	0.25
265	0	0.25
266	0	0.25
267	0	0.25
268	0	0.25
269	0	0.25
270	0	0.25
271	0	0.25
272	0	0.25
273	0	0.25
274	0	0.25
275	0	0.25
276	0	0.25
277	0	0.177778
278	0	0.177778
279	0	0.177778
280	0	0.177778
281	0	0.177778
282	0	0.177778
283	0	0.177778
284	0	0.177778
285	0	0.177778
286	0	0.177778
287	0	0.177778
288	0	0.177778
289	0	0.177778
290	0	0.177778
291	0	0.177778
292	0	0.177778
293	0	0.177778
294	0	0.177778
295	0	0.177778
296	0	0.177778
297	0	0.177778
298	0	0.177778
299	0	0.177778
300	0	0.177778
301	0	0.177778
302	0	0.177778
303	0	0.177778
304	0	0.177778
305	0	0.145455
306	0	0.145455
307	0	0.145455
308	0	0.145455
309	0	0.145455
310	0	0.145455
311	0	0.145455
312	0	0.145455
313	0	0.145455
314	0	0.145455
315	0	0.145455
316	0	0.145455
317	0	0.145455
318	0	0.145455
319	0	0.145455
320	0	0.145455
321	0	0.145455
322	0	0.145455
323	0	0.145455
324	0	0.145455
325	0	0.145455
326	0	0.145455
327	0	0.145455
328	0	0.145455
329	0	0.145455
330	0	0.145455
331	0	0.145455
332	0	0.145455
333	0	0.145455
334	0	0.145455
335	0	0.145455
336	0	0.145455
337	0	0.145455
338	0	0.145455
339	0	0.145455
340	0	0.145455
341	0	0.145455
342	0	0.145455
343	0	0.145455
344	0	0.145455
345	0	0.145455
346	0	0.145455
347	0	0.145455
348	0	0.145455
349	0	0.145455
350	0	0.145455
351	0	0.145455
352	0	0.145455
353	0	0.145455
354	0	0.145455
355	0	0.145455
356	0	0.145455
357	0	0.145455
358	0	0.145455
359	0	0.145455
360	0	0.145455
361	0	0.145455
362	0	0.145455
363	0	0.145455
364	0	0.145455
365	0	0.145455
366	0	0.145455
367	0	0.145455
368	0	0.145455
369	0	0.145455
370	0	0.145455
371	0	0.145455
372	0	0.145455
373	0	0.145455
374	0	0.145455
375	0	0.145455
376	0	0.145455
377	0	0.145455
378	0	0.145455
379	0	0.145455
380	0	0.145455
381	0	0.145455
382	0	0.145455
383	0	0.145455
384	0	0.145455
385	0	0.145455
386	0	0.145455
387	0	0.145455
388	0	0.145455
389	0	0.145455
390	0	0.145455
391	0	0.145455
392	0	0.145455
393	0	0.145455
394	0	0.145455
395	0	0.145455
396	0	0.145455
397	0	0.145455
398	0	0.145455
399	0	0.145455
400	0	0.145455
401	0	0.111111
402	0	0.111111
403	0	0.111111
404	0	0.111111
405	0	0.111111
406	0	0.111111
407	0	0.111111
408	0	0.111111
409	0	0.111111
410	0	0.111111
411	0	0.111111
412	0	0.111111
413	0	0.111111
414	0	0.111111
415	0	0.111111
416	0	0.111111
417	0	0.111111
418	0	0.111111
419	0	0.111111
420	0	0.111111
421	0	0.111111
422	0	0.111111
423	0	0.111111
424	0	0.111111
425	0	0.111111
426	0	0.111111
427	0	0.111111
428	0	0.111111
429	0	0.111111
430	0	0.111111
431	0	0.111111
432	0	0.111111
433	0	0.111111
434	0	0.111111
435	0	0.111111
436	0	0.111111
437	0	0.111111
438	0	0.155556
439	0	0.155556
440	0	0.155556
441	0	0.111111
442	0	0.111111
443	0	0.111111
444	0	0.111111
445	0	0.111111
446	0	0.111111
447	0	0.111111
448	0	0.111111
449	0	0.111111
450	0	0.111111
451	0	0.111111
452	0	0.111111
453	0	0.111111
454	0	0.111111
455	0	0.111111
456	0	0.111111
457	0	0.111111
458	0	0.111111
459	0	0.111111
460	0	0.111111
461	0	0.111111
462	0	0.111111
463	0	0.111111
464	0	0.111111
465	0	0.111111
466	0	0.111111
467	0	0.111111
468	0	0.111111
469	0	0.111111
470	0	0.111111
471	0	0.111111
472	0	0.111111
473	0	0.111111
474	0	0.111111
475	0	0.111111
476	0	0.111111
477	0	0.111111
478	0	0.111111
479	0	0.111111
480	0	0.111111
481	0	0.111111
482	0	0.111111
483	0	0.111111
484	0	0.111111
485	0	0.111111
486	0	0.142857
487	0	0.142857
488	0	0.142857
489	0	0.142857
490	0	0.0666667
491	0	0.0666667
492	0	0.0666667
493	0	0.0666667
494	0	0.0666667
495	0	0.0666667
496	0	0.0666667
497	0	0.0666667
498	0	0.0666667
499	0	0.0666667
500	0	0.0666667
501	0	0.0666667
502	0	0.0666667
503	0	0.0666667
504	0	0.0666667
505	0	0.0666667
506	0	0.0952381
507	0	0.047619
508	0	0.047619
509	0	0.047619
510	0	0.047619
511	0	0.047619
512	0	0.047619
513	0	0.047619
514	0	0.047619
515	0	0.047619
516	0	0.047619
517	0	0.047619
518	0	0.0952381
519	0	0.0952381
520	0	0.0714286
521	0	0.0357143
522	0	0.0357143
523	0	0.0357143
524	0	0.0357143
525	0	0.0444444
526	0	0.0888889
527	0	0.0888889
528	0	0.0888889
529	0	0.0888889
530	0	0.0888889
531	0	0.0888889
532	0	0.0888889
533	0	0.0888889
534	0	0.0888889
535	0	0.0888889
536	0	0.0888889
537	0	0.0888889
538	0	0.379217
539	0	0.379217
540	0	0.296896
541	0	0.272605
542	0	0.261735
543	0	0.224359
544	0	0.206439
545	0	0.203175
546	0	0.125793
547	0	0.149758
548	0	0.143707
549	0	0.396341
550	0	0.480193
551	0	0.507246
552	0	0.693033
553	0	0.667365
554	0	0.490185
555	0	0.480094
556	0	0.493878
557	0	0.530278
558	0	1
559	0	1
560	0	1
561	0	0.884479
562	0	0.90387
563	0	0.90387
564	0	0.90387
565	0	0
566	0	0
567	1	0
568	1	0
569	1	0
570	1	0
571	1	0
572	0	0
573	0	0
574	0	0
575	0	0
576	0	0
577	0	0
578	0	0
579	0	0
580	0	0
581	0	0
582	0	0
583	0	0
584	0	0
585	0	0
586	0	0
587	0	0
588	0	0
589	0	0
590	0	0
591	0	0
592	0	0
593	0	0
594	0	0
595	0	0
596	0	0
597	0	0
598	0	0
599	0	0
600	0	0
601	0	0
602	0	0
603	0	0
604	0	0
605	0	0
606	0	0
607	0	0
608	0	0
609	0	0
610	0	0
611	0	0
612	0	0
613	0	0
614	0	0
615	0	0
616	0	0
617	0	0
618	0	0
619	0	0
620	0	0
621	0	0
622	0	0
623	0	0
624	0	0
625	0	0
626	0	0
627	0	0
628	0	0
629	0	0
630	0	0
631	0	0
632	0	0
633	0	0
634	0	0
635	0	0
636	0	0.913888
637	0	0
638	0	0
639	0	0
640	0	0
641	0	0
642	0	0
643	0	0
644	0	0
645	0	0
646	0	0
647	0	0
648	0	0
649	0	0
650	0	0
651	0	0
652	0	0
653	0	0.900246
654	0	1
655	0	0.991968
656	0	0.991968
657	0	0.991968
658	0	0
659	0	0
660	0	0
661	0	0
662	0	0
663	0	0
664	0	0.991968
665	0	0.991968
666	0	0
667	0	0
668	0	0
669	0	0
670	0	0
671	0	0
672	0	0
673	0	0
674	0	0
675	0	0
676	0	0
677	0	0
678	0	0
679	0	0
680	0	0
681	0	0
682	0	0
683	0	0
684	0	0
685	0	0
686	0	0
687	0	0.991968
688	0	0.991968
689	0	0.991968
690	0	0.991968
691	0	0.991968
692	0	0.976001
693	0	1
694	0	0.952299
695	0	0.967712
696	0	0.875
697	0	0.870548
698	0	0
699	0	0
700	0	0
701	0	0
702	0	0.6449
703	0	0.708894
704	0	0.850202
705	0	0.808974
706	0	0.808974
707	0	0
708	0	0
709	0	0
710	0	0
711	0	0
712	0	0
713	0	0
714	1	0
715	1	0
716	0	0
717	0	0
718	0	0
719	0	0
720	0	0
721	0	0
722	0	0
723	0	0
724	0	0.733515
725	0	0.968163
726	0	0.968163
727	0	1
728	0	0.991968
729	0	0.991968
730	0	0.991968
731	0	0.991968
732	0	0.991968
733	0	0.991968
734	0	0.991968
735	0	0.991968
736	0	0.991968
737	0	0
738	0	0
739	0	0
740	0	0
741	0	0
742	0	0
743	0	0
744	0	0
745	0	0
746	0	0
747	0	0
748	0	0
749	0	0
750	0	0
751	1	0
752	1	0
753	1	0
754	1	0
755	0	0
756	0	0
757	0	0
758	0	0
759	0	0
760	0	0
761	0	0
762	0	0
763	0	0
764	0	0
765	0	0
766	0	0
767	0	0
768	0	0
769	0	0
770	0	0
771	0	0
772	0	0
773	0	0
774	0	0
775	0	0
776	0	0
777	0	0
778	0	0
779	0	0
780	0	0
781	0	0
782	0	0
783	0	0
784	0	0
785	0	0
786	0	0
787	0	0
788	0	0
789	0	0
790	0	0
791	0	0
792	0	0
793	0	0
794	0	0
795	0	0
796	0	0
797	0	0
798	0	0
799	0	0
800	0	0
801	0	0.991903
802	0	0.991968
803	0	0
804	0	0
805	0	0
806	0	0.991935
807	0	0.991968
808	0	0.991968
809	0	0.991968
810	0	0.991968
811	0	0.991968
812	0	0.991968
813	0	0.991968
814	0	0.991968
815	0	0.991968
816	0	0.991968
817	0	0.991968
818	0	0.991968
819	0	0.991968
820	0	0.991968
821	0	0.991968
822	0	0.991968
823	0	0.991968
824	0	0.991968
825	0	0.991968
826	0	0.991968
827	0	0.991968
828	0	0.991968
829	0	0.991968
830	0	0.991968
831	0	0.991968
832	0	0.991968
833	0	0.991968
834	0	0.991968
835	0	0.991968
836	0	0
837	0	0
838	0	0
839	0	0
840	0	0
841	0	0
842	0	0
843	0	0
844	0	0
845	0	0
846	0	0
847	0	0
848	0	0
849	0	0
850	0	0
851	0	0
852	0	0
853	0	0
854	0	0
855	0	0
856	0	0
857	0	0
858	0	0
859	0	0
860	0	0
861	0	0
862	0	0
863	0	0
864	0	0
865	0	0
866	0	0
867	0	0
868	1	0
869	1	0
870	1	0
871	1	0
872	1	0
873	1	0
874	1	0
875	1	0
876	0	0
877	0	0
878	0	0
879	0	0
880	0	0
881	0	0
882	0	0
883	0	0
884	0	0
885	0	0
886	0	0
887	0	0
888	0	0
889	0	0
890	0	0
891	0	0
892	0	0
893	0	0
894	0	0
895	0	0
896	0	0
897	0	0
898	0	0
899	0	0
900	0	0
901	1	0
902	1	0
903	1	0
904	1	0
905	1	0
906	1	0
907	1	0
908	1	0
909	1	0
910	1	0
911	1	0
912	1	0
913	1	0
914	1	0
915	1	0
916	1	0
917	1	0
918	1	0
919	1	0
920	1	0
921	1	0
922	1	0
923	1	0
924	1	0
925	1	0
926	1	0
927	1	0
928	1	0
929	1	0
930	1	0
931	1	0
932	1	0
933	0	0
934	0	0
935	1	0
936	1	0
937	1	0
938	1	0
939	1	0
940	1	0
941	1	0
942	1	0
943	0	0
944	0	0
945	0	0
946	0	0
947	0	0
948	0	0
949	0	0
950	0	0
951	0	0
952	0	0
953	0	0
954	0	0
955	0	0
956	0	0
957	0	0
958	0	0
959	0	0
960	0	0
961	0	0
962	0	0
963	0	0
964	0	0
965	0	0
966	0	0
967	0	0.991968
968	0	0.991968
969	0	0.991968
970	1	1
971	0	1
972	1	1
973	1	1
974	1	1
975	1	1
976	1	1
977	1	1
978	1	1
979	1	1
980	1	1
981	1	1
982	0	1
983	0	1
984	0	1
985	0	0.68086
986	0	0.524691
987	0	0.526033
988	0	0.508772
989	0	0.290768
990	0	0.272121
991	0	0.269141
992	0	0
993	0	0
994	0	0
995	0	0
996	0	0.92598
997	0	0.712627
998	0	0.596517
999	0	0.595918
1000	0	0.855128
1001	0	0.900135
1002	0	0.734146
1003	0	0.672727
1004	0	0.382353
1005	0	0.380952
1006	0	0.287582
1007	0	0.194444
1008	0	0
1009	0	0
1010	0	0
1011	0	0
1012	0	0
1013	0	0
1014	0	0
1015	0	0
1016	0	0
1017	0	0
1018	0	0
1019	0	0
1020	0	0
1021	0	0
1022	0	0
1023	0	0.333333
1024	0	0.333333
1025	0	0.117241
1026	0	0.104202
1027	0	0.097479
1028	0	0.205612
1029	0	0.16201
1030	0	0.154514
1031	0	0.127166
1032	0	0.126943
1033	0	0
1034	0	0
1035	0	0
1036	0	0
1037	0	0
1038	0	0
1039	0	0.16153
1040	0	0
1041	0	0
1042	0	0
1043	0	0
1044	0	0.0543478
1045	0	0.0766667
1046	0	0.261445
1047	0	0.1
1048	0	0.1
1049	0	0.406593
1050	0	0.0952381
1051	0	0.272727
1052	0	0.274725
1053	0	0.224899
1054	0	0.2145
1055	0	0.268687
1056	0	0.30303
1057	0	0.348485
1058	0	0.240861
1059	0	0.237544
1060	0	0.242424
1061	0	0.209524
1062	0	0.228571
1063	0	0.361972
1064	0	0.3
1065	0	0.3
1066	0	0.150327
1067	0	0.506162
1068	0	0.448927
1069	0	0.450204
1070	0	0.162055
1071	0	0.391667
1072	0	0.28655
1073	0	0
1074	0	0
1075	0	0
1076	0	0.796395
1077	0	0.791424
1078	0	0.790776
1079	0	0.791165
1080	0	0.811666
1081	0	0
1082	0	0
1083	0	0.78443
1084	0	0.290909
1085	0	0.208791
1086	0	0.208791
1087	0	0.202899
1088	0	0.270655
1089	0	0.331276
1090	0	0.294872
1091	0	0.340659
1092	0	0.29817
1093	0	0.397436
1094	0	0.397436
1095	0	0.285191
1096	0	0.365511
1097	0	0.323117
1098	0	0.329475
1099	0	0.35485
1100	0	0.329364
1101	0	0.818182
1102	0	1
1103	0	0.761999
1104	0	0.769494
1105	0	0.798065
1106	0	0.799553
1107	0	0.799585
1108	0	0.864351
1109	0	0.912594
1110	0	1
1111	0	1
1112	1	1
1113	1	1
1114	1	1
1115	1	1
1116	0	0.984032
1117	0	0
1118	1	1
1119	1	1
1120	1	1
1121	1	1
1122	1	1
1123	1	1
1124	1	1
1125	1	1
1126	1	1
1127	1	1
1128	1	1
1129	1	1
1130	1	1
1131	1	1
1132	1	1
1133	1	1
1134	1	1
1135	1	1
1136	1	1
1137	1	1
1138	1	1
1139	0	0.992
1140	0	0.992
1141	0	0.992
1142	0	0.992
1143	0	0.992
1144	0	0
1145	0	0.991968
1146	0	0.991968
1147	1	1
1148	1	1
1149	1	1
1150	1	1
1151	0	1
1152	0	1
1153	0	1
1154	0	0.166667
1155	0	0.648238
1156	0	0.619309
1157	0	0
1158	0	0
1159	0	0
1160	0	0
1161	0	0
1162	0	0.5
1163	0	0.5
1164	0	0.5
1165	0	0.166667
1166	0	1
1167	0	0.333333
1168	0	0.333333
1169	0	0.138889
1170	0	0.111111
1171	0	0.194444
1172	0	0.21978
1173	0	0.169935
1174	0	0.287582
1175	0	0.356725
1176	0	0.453637
1177	0	0.717317
1178	0	0.384615
1179	0	0.846667
1180	0	1
1181	0	0.991968
1182	0	0.991968
1183	0	0.991968
1184	0	0.991968
1185	0	1
1186	0	0.590643
1187	0	0.837738
1188	0	0.810243
1189	0	1
1190	0	1
1191	0	1
1192	0	0.466667
1193	0	0.781934
1194	0	0.72056
1195	0	0
1196	0	0.428571
1197	0	0.342374
1198	0	0.252284
1199	0	0
1200	0	0
1201	0	0
1202	0	0
1203	0	0.582514
1204	0	0
1205	0	0
1206	0	0.4
1207	0	0.178571
1208	0	0.155556
1209	0	0.333333
1210	0	0.286765
1211	0	0.425926
1212	0	0.518909
1213	0	0.971063
1214	0	0.954358
1215	0	1
1216	0	0.992
1217	0	0.992
1218	0	1
1219	0	1
1220	0	1
1221	1	1
1222	1	1
1223	1	1
1224	1	1
1225	1	1
1226	1	1
1227	1	1
1228	1	1
1229	1	1
1230	1	1
1231	1	1
1232	1	1
1233	1	1
1234	1	1
1235	1	1
1236	1	1
1237	1	1
1238	1	1
1239	1	1
1240	1	1
1241	1	1
1242	1	1
1243	1	1
1244	1	1
1245	1	1
1246	1	1
1247	1	1
1248	1	1
1249	1	1
1250	1	1
1251	1	1
1252	1	1
1253	1	1
1254	1	1
1255	1	1
1256	1	1
1257	1	1
1258	1	1
1259	1	1
1260	1	1
1261	1	1
1262	1	1
1263	1	1
1264	1	1
1265	1	1
1266	1	1
1267	1	1
1268	1	1
1269	1	1
1270	1	1
1271	1	1
1272	1	1
1273	1	1
1274	1	1
1275	1	1
1276	0	1
1277	0	0.5
1278	0	0.960514
1279	0	1
1280	0	0.522855
1281	0	0.501976
1282	0	0.505542
1283	0	0.511983
1284	0	0.511983
1285	0	1
1286	0	1
1287	0	0.987342
1288	0	0.974922
1289	0	0.553019
1290	0	0.532396
1291	0	0.529246
1292	0	0.529246
1293	0	0.529246
1294	0	0.529246
1295	0	0.529246
1296	0	0.529246
1297	0	0.529246
1298	0	0.509425
1299	0	0.509425
1300	0	0.509425
1301	0	0.512722
1302	0	0.509759
1303	0	0.508587
1304	0	0.499053
1305	0	0.494188
1306	0	0.518535
1307	0	0.518535
1308	0	0.370902
1309	0	0.492788
1310	0	0.894737
1311	0	0.894737
1312	1	1
1313	1	1
1314	1	1
1315	1	1
1316	1	1
1317	1	1
1318	1	1
1319	1	1
1320	1	1
1321	1	1
1322	1	1
1323	1	1
1324	1	1
1325	1	1
1326	1	1
1327	1	1
1328	1	1
1329	1	1
1330	1	1
1331	1	1
1332	1	1
1333	1	1
1334	1	1
1335	1	1
1336	1	1
1337	1	1
1338	1	1
1339	1	1
1340	1	1
1341	0	0
1342	0	0
1343	0	0.99187
1344	0	0.99187
1345	0	0.991837
1346	0	0.991837
1347	0	0.991837
1348	0	0.991837
1349	0	0.75
1350	0	0.845332
1351	0	0
1352	0	0.935742
1353	0	0.935539
1354	0	0
1355	0	0
1356	0	0
1357	0	0
1358	0	0
1359	0	0
1360	0	0
1361	0	0
1362	0	0
1363	0	0
1364	0	0
1365	0	0
1366	0	0
1367	0	0
1368	0	0
1369	0	0
1370	0	0
1371	0	0
1372	0	0
1373	0	0
1374	0	0
1375	0	0
1376	0	0
1377	0	0
1378	0	0
1379	0	0
1380	1	0
1381	0	0
1382	0	0
1383	0	0
1384	0	0
1385	0	0
1386	0	0
1387	0	0
1388	0	0
1389	0	0
1390	0	0
1391	0	0
1392	0	0
1393	0	0
1394	0	0
1395	0	0
1396	0	0
1397	0	0
1398	0	0
1399	0	0
1400	0	0
1401	0	0
1402	0	0
1403	1	0
1404	1	0
1405	1	0
1406	1	0
1407	1	0
1408	1	0
1409	1	0
1410	1	0
1411	1	0
1412	1	0
1413	1	0
1414	1	0
1415	1	0
1416	1	0
1417	1	0
1418	1	0
1419	1	0
1420	1	0
1421	1	0
1422	1	0
1423	1	0
1424	0	0
1425	0	0
1426	0	0
1427	0	0
1428	0	0
1429	0	0
1430	1	0
1431	1	0
1432	1	0
1433	1	0
1434	1	0
1435	1	0
1436	1	0
1437	1	0
1438	1	0
1439	1	0
1440	1	0
1441	1	0
1442	1	0
1443	1	0
1444	1	0
1445	1	0
1446	1	0
1447	1	0
1448	1	0
1449	1	0
1450	1	0
1451	1	0
1452	1	0
1453	1	0
1454	1	0
1455	1	0
1456	1	0
1457	1	0
1458	1	0
1459	1	0
1460	1	0
1461	1	0
1462	1	0
1463	1	0
1464	1	0
1465	1	0
1466	1	0
1467	1	0
1468	1	0
1469	1	0
1470	1	0
1471	1	0
1472	1	0
1473	1	0
1474	1	0
1475	1	0
1476	1	0
1477	0	0.3
1478	0	0.3
1479	0	0.934947
1480	0	0.926957
1481	0	0
1482	0	0
1483	0	0
1484	0	0
1485	0	0
1486	0	0
1487	0	0
1488	0	0
1489	0	0
1490	0	0
1491	0	0
1492	0	0.166667
1493	0	0.166667
1494	0	0.166667
1495	0	0.166667
1496	0	0.1
1497	0	0.1
1498	0	0.901642
1499	0	1
1500	0	1
1501	0	1
1502	0	1
1503	0	1
1504	0	1
1505	0	1
1506	0	1
1507	0	1
1508	0	1
1509	0	1
1510	0	1
1511	0	1
1512	0	1
1513	0	1
1514	0	0.5
1515	0	0.5
1516	1	1
1517	1	1
1518	1	1
1519	1	1
1520	1	1
1521	1	1
1522	1	1
1523	1	1
1524	1	1
1525	1	1
1526	1	1
1527	1	1
1528	1	1
1529	1	1
1530	1	1
1531	1	1
1532	1	1
1533	1	1
1534	1	1
1535	1	1
1536	1	1
1537	1	1
1538	1	1
1539	1	1
1540	1	1
1541	1	1
1542	1	1
1543	0	1
1544	0	1
1545	0	1
1546	0	1
1547	0	1
1548	0	1
1549	0	1
1550	0	1
1551	0	1
1552	1	1
1553	0	1
1554	0	1
1555	0	1
1556	0	1
1557	1	1
1558	1	1
1559	1	1
1560	1	1
1561	0	0.6
1562	0	0.6
1563	0	0.333333
1564	0	0.333333
1565	0	0.25
1566	0	0.25
1567	0	0.222222
1568	0	0.177778
1569	0	0.819588
1570	0	0.818236
1571	0	0.77967
1572	0	0.251462
1573	0	0.121212
1574	0	0.121212
1575	0	0.121212
1576	0	0.0757576
1577	0	0.0833333
1578	0	0.0833333
1579	0	0.107143
1580	0	0.107143
1581	0	0.107143
1582	0	0.107143
1583	0	0.142857
1584	0	0.142857
1585	0	0.142857
1586	0	0.142857
1587	0	0.2
1588	0	0.2
1589	0	0.2
1590	0	0.2
1591	0	0.2
1592	0	0.2
1593	0	0.2
1594	0	0.3
1595	0	0.3
1596	0	0.3
1597	0	0.3
1598	0	0.3
1599	0	0.3
1600	0	0.3
1601	0	0.3
1602	0	0.3
1603	0	0.3
1604	0	0.3
1605	0	0.3
1606	0	0.5
1607	0	0.5
1608	0	0.5
1609	0	0.5
1610	0	0.5
1611	0	0.5
1612	0	0.5
1613	0	0.5
1614	0	0.5
1615	0	0.5
1616	0	0.5
1617	0	0.5
1618	0	0.5
1619	0	0.5
1620	0	0.5
1621	0	0.5
1622	0	0.5
1623	0	0.5
1624	0	0.5
1625	0	0.5
1626	0	0.5
1627	0	0.5
1628	0	0.5
1629	0	0.5
1630	0	0.5
1631	0	0.5
1632	0	0.5
1633	0	0.5
1634	0	0.5
1635	0	0.5
1636	0	0.5
1637	0	0.5
1638	0	0.5
1639	0	0.5
1640	0	0.5
1641	0	0.5
1642	0	0.5
1643	0	0.5
1644	0	0.5
1645	0	0.5
1646	0	0.5
1647	0	0.5
1648	0	0.166667
1649	0	0.166667
1650	0	0.166667
1651	0	0.166667
1652	0	0
1653	0	0
1654	0	0
1655	0	0
1656	0	0
1657	0	0
1658	0	0
1659	0	0
1660	0	0
1661	0	0
1662	0	0
1663	0	0
1664	0	0
1665	0	0
1666	0	0
1667	0	0
1668	0	0
1669	0	0
1670	0	0
1671	0	0
1672	0	0
1673	0	0
1674	0	0
1675	0	0
1676	0	0
1677	0	0
1678	0	0
1679	0	0
1680	0	0
1681	0	0
1682	0	0
1683	0	0
1684	0	0
1685	0	0
1686	0	0
1687	0	0
1688	0	0
1689	0	0
1690	0	0
1691	0	0
1692	0	0
1693	0	0
1694	0	0
1695	0	0
1696	0	0
1697	0	0
1698	0	0
1699	0	0
1700	0	0
1701	0	0
1702	0	0
1703	0	0
1704	0	0
1705	0	0
1706	0	0
1707	0	0
1708	0	0
1709	0	0
1710	0	0
1711	0	0
1712	0	0
1713	0	0
