Site	ColumnScore	SumOfPairsScore
1	1	0
2	0	0
3	0	0
4	0	0
5	0	0
6	0	0
7	0	0
8	0	0
9	0	0
10	0	0
11	0	0
12	0	0
13	0	0
14	0	0
15	0	0
16	0	0
17	0	0
18	0	0
19	0	0
20	0	0
21	1	0
22	0	0.333333
23	0	0.333333
24	0	0.333333
25	0	0.333333
26	0	0.333333
27	0	0.333333
28	0	0.333333
29	0	0.333333
30	0	0.333333
31	0	0.333333
32	0	0.333333
33	0	0.333333
34	0	0.333333
35	0	0.333333
36	0	0.333333
37	0	0.333333
38	0	0.333333
39	0	0.333333
40	0	0.166667
41	0	0.166667
42	0	0.166667
43	0	0.166667
44	0	0.166667
45	0	0.166667
46	0	0.166667
47	0	0.166667
48	0	0.166667
49	0	0.166667
50	0	0.166667
51	0	0.166667
52	0	0.166667
53	0	0.133333
54	0	0.133333
55	0	0.133333
56	0	0.133333
57	0	0.133333
58	0	0.133333
59	0	0.133333
60	0	0.133333
61	0	0.133333
62	0	0.133333
63	0	0.266667
64	0	0.266667
65	0	0.266667
66	0	0.266667
67	0	0.266667
68	0	0.266667
69	0	0.266667
70	0	0.2
71	0	0.2
72	0	0.2
73	0	0.2
74	0	0.2
75	0	0.2
76	0	0.2
77	0	0.2
78	0	0.2
79	0	0.2
80	0	0.2
81	0	0.2
82	0	0.2
83	0	0.2
84	0	0.4
85	0	0.4
86	0	0.4
87	0	0.666667
88	0	0.666667
89	0	0.666667
90	0	0.666667
91	0	0.666667
92	0	0.666667
93	0	0.666667
94	0	0.666667
95	0	0.666667
96	1	1
97	1	1
98	1	1
99	1	1
100	1	1
101	1	1
102	1	1
103	1	1
104	1	1
105	0	0.966495
106	0	0.983773
107	0	0.991903
108	0	0.991903
109	0	0.991903
110	0	0.991903
111	0	0.991903
112	0	0.991903
113	0	0.991903
114	0	0.991903
115	0	0.991903
116	0	0.991903
117	0	0.699352
118	0	0.94434
119	1	0
120	0	0
121	0	1
122	0	1
123	1	1
124	1	1
125	1	1
126	1	1
127	1	1
128	1	1
129	1	1
130	0	1
131	0	1
132	0	1
133	0	1
134	0	1
135	1	1
136	1	1
137	0	0.469697
138	0	0.469697
139	0	0.790692
140	0	0.739733
141	0	0.645518
142	0	1
143	0	1
144	0	1
145	0	1
146	1	1
147	1	1
148	1	1
149	1	1
150	1	1
151	1	1
152	1	1
153	1	1
154	1	1
155	1	1
156	1	1
157	1	1
158	0	1
159	0	1
160	0	1
161	0	1
162	1	1
163	1	1
164	1	1
165	1	1
166	1	1
167	1	1
168	1	1
169	1	1
170	1	1
171	1	1
172	1	1
173	1	1
174	1	1
175	1	1
176	1	1
177	0	1
178	0	0
179	0	0
180	0	0.972604
181	0	0.965031
182	0	0.815757
183	0	1
184	0	1
185	0	1
186	0	1
187	0	1
188	0	1
189	1	1
190	0	1
191	0	1
192	0	1
193	0	1
194	0	1
195	0	1
196	0	1
197	1	1
198	1	1
199	1	1
200	1	1
201	1	1
202	1	1
203	1	1
204	1	1
205	1	1
206	1	1
207	1	1
208	1	1
209	1	1
210	1	1
211	1	1
212	1	1
213	1	1
214	1	1
215	1	1
216	1	1
217	1	1
218	1	1
219	1	1
220	1	1
221	1	1
222	1	1
223	1	1
224	1	1
225	1	1
226	1	1
227	1	1
228	1	1
229	1	1
230	1	1
231	1	1
232	1	1
233	1	1
234	1	1
235	1	1
236	1	1
237	1	1
238	1	1
239	1	1
240	1	1
241	1	1
242	1	1
243	1	1
244	1	1
245	1	1
246	1	1
247	1	1
248	1	1
249	1	1
250	1	1
251	1	1
252	1	1
253	1	1
254	1	1
255	1	1
256	1	1
257	1	1
258	1	1
259	1	1
260	1	1
261	1	1
262	1	1
263	1	1
264	1	1
265	1	1
266	1	1
267	1	1
268	1	1
269	1	1
270	1	1
271	1	1
272	1	1
273	1	1
274	1	1
275	1	1
276	1	1
277	1	1
278	1	1
279	1	1
280	1	1
281	1	1
282	1	1
283	1	1
284	1	1
285	1	1
286	1	1
287	1	1
288	1	1
289	1	1
290	1	1
291	1	1
292	1	1
293	1	1
294	1	1
295	1	1
296	1	1
297	1	1
298	1	1
299	1	1
300	1	1
301	1	1
302	1	1
303	1	1
304	1	1
305	1	1
306	1	1
307	1	1
308	1	1
309	1	1
310	1	1
311	1	1
312	1	1
313	1	1
314	1	1
315	1	1
316	1	1
317	1	1
318	1	1
319	1	1
320	1	1
321	1	1
322	1	1
323	1	1
324	1	1
325	1	1
326	1	1
327	1	1
328	0	1
329	0	0.96826
330	0	1
331	0	1
332	0	1
333	0	1
334	0	0.975644
335	0	0.944682
336	0	0.944682
337	0	0.944241
338	0	0.5
339	0	0.936375
340	0	0.936375
341	0	0.92074
342	0	0
343	0	0.845056
344	0	0.466953
345	0	1
346	0	0.333333
347	0	0.619883
348	0	0.335946
349	0	0.319141
350	0	0.234955
351	0	0.52381
352	0	0.52381
353	0	0.379085
354	0	0.359788
355	0	0.334975
356	0	0.279184
357	0	0.165965
358	0	0.14146
359	0	0.125229
360	0	0.12604
361	0	0.159098
362	0	0.20903
363	0	0
364	0	0
365	0	0
366	0	0.242436
367	0	0.0727273
368	0	0.111111
369	0	0.177778
370	0	0.181818
371	0	0.163636
372	0	0.214481
373	0	0.273653
374	0	0.214286
375	0	0.214286
376	0	0.25
377	0	0.388501
378	0	0.541262
379	0	0.688334
380	0	0.666667
381	0	0.666667
382	0	0.714286
383	0	0.77758
384	0	0.527273
385	0	0.861511
386	0	0.86204
387	0	0
388	0	0
389	0	0
390	0	1
391	0	1
392	0	0.958651
393	0	0.959226
394	0	0.5
395	0	1
396	0	0.992
397	1	1
398	1	1
399	1	1
400	1	1
401	1	1
402	1	1
403	1	1
404	0	0
405	0	0
406	0	0
407	0	0
408	0	0.983607
409	0	1
410	0	0.57089
411	0	0.681818
412	0	0.355321
413	0	0.336101
414	0	0.333536
415	0	0.384091
416	0	0.486296
417	0	0.4
418	0	0
419	0	0
420	0	0.444444
421	0	1
422	0	1
423	1	1
424	1	1
425	1	1
426	1	1
427	1	1
428	1	1
429	1	1
430	1	1
431	0	1
432	0	1
433	0	1
434	0	0.786299
435	0	0.574396
436	0	0.559019
437	0	0.514152
438	0	0.476179
439	0	0.478605
440	0	0.807018
441	0	0.807018
442	0	0.300694
443	0	0.28085
444	0	0.379085
445	0	0.460989
446	0	0.311111
447	0	0.311111
448	0	0.311111
449	0	0.254545
450	0	0.212121
451	0	0.20202
452	0	0.215035
453	0	0.216395
454	0	0.171275
455	0	0.246246
456	0	0.226727
457	0	0.16967
458	0	0.0757862
459	0	0.0757176
460	0	0.0694789
461	0	0
462	0	0.333333
463	0	0.2
464	0	0.4
465	0	0.25
466	0	0.166667
467	0	0.166667
468	0	0.194444
469	0	0.0599259
470	0	0.075276
471	0	0
472	0	0
473	0	0
474	0	0
475	0	0
476	0	0.0921967
477	0	0
478	0	0
479	0	0
480	0	0
481	0	0.0870436
482	0	0.107916
483	0	0.114144
484	0	0.0937621
485	0	0.229437
486	0	0.236975
487	0	0.131938
488	0	0.151443
489	0	0.15476
490	0	0.15858
491	0	0.4
492	0	0.666667
493	0	0.666667
494	0	0.177323
495	0	0
496	0	0
497	0	0
498	0	0.5
499	0	0.419218
500	0	0.446377
501	0	0.466667
502	0	0.595819
503	0	0.309179
504	0	0.378776
505	0	0.375385
506	0	0.534118
507	0	0.916667
508	0	0.909091
509	0	0.631718
510	0	0.673708
511	0	0.676366
512	0	0.675923
513	0	0.738708
514	0	0.846154
515	0	0.966142
516	0	0.966285
517	0	0.976193
518	0	0.968134
519	0	1
520	1	1
521	1	1
522	0	0.992
523	0	0
524	0	0.540397
525	0	0.373737
526	0	0.327133
527	0	0.327133
528	0	0.75
529	0	0.323136
530	0	0.476241
531	0	0.458469
532	0	0.249249
533	0	0
534	0	0.266667
535	0	0.285714
536	0	0.49492
537	0	0.278826
538	0	0.352312
539	0	0.549367
540	0	0.288448
541	0	0.679842
542	0	0.915819
543	0	0.956522
544	0	0.956522
545	0	0.497981
546	0	0
547	0	0
548	0	0
549	0	0
550	0	0
551	0	0
552	0	0
553	0	0
554	0	0
555	0	0
556	0	0
557	0	0
558	0	0
559	0	0
560	0	0
561	0	0
562	0	0
563	0	0
564	0	0
565	0	0
566	0	0
567	0	0
568	0	0
569	0	0
570	0	0
571	0	0
572	0	0
573	1	0
574	1	0
575	0	0
576	0	0
577	0	0
578	0	0
579	0	0
580	0	0
581	0	0
582	0	0
583	0	0
584	0	0
585	0	0
586	0	0
587	0	0
588	0	0
589	0	0
590	0	0
591	0	0
592	0	0
593	0	0
594	0	0
595	0	0
596	0	0
597	0	0
598	0	0
599	0	0
600	0	0
601	0	0
602	0	0
603	0	0
604	0	0
605	0	0
606	0	0
607	0	0
608	0	0
609	0	0
610	0	0
611	0	0
612	0	0
613	0	0
614	0	0
615	0	0
616	0	0
617	0	0
618	0	0
619	0	0
620	0	0
621	0	0
622	0	0
623	0	0
624	0	0
625	0	0
626	0	0
627	0	0
628	0	0
629	0	0
630	0	0
631	0	0
632	0	0
633	0	0
634	0	0
635	0	0
636	1	0
637	1	0
638	1	0
639	1	0
640	1	0
641	1	0
642	1	0
643	1	0
644	1	0
645	1	0
646	1	0
647	1	0
648	1	0
649	1	0
650	0	0.539804
651	0	0.539804
652	0	0.546763
653	0	0.585543
654	0	0.619089
655	0	0.611834
656	0	0.611695
657	0	0.604385
658	0	0.593671
659	0	0.598458
660	0	0.558394
661	0	0.572499
662	0	0
663	0	0.724401
664	0	0.142857
665	0	0.585082
666	0	0.277733
667	0	0.327273
668	0	0.281684
669	0	0.300248
670	0	0.300379
671	0	0.302436
672	1	0
673	1	0
674	1	0
675	1	0
676	1	0
677	1	0
678	1	0
679	1	0
680	1	0
681	1	0
682	0	0.301076
683	0	0.25
684	0	0.142857
685	0	0.309531
686	0	0
687	0	0
688	0	0
689	0	0
690	0	0
691	0	0
692	0	0
693	0	0
694	0	0
695	0	0
696	0	0
697	0	0
698	0	0
699	0	0
700	0	0
701	0	0
702	0	0
703	0	0
704	0	0
705	0	0
706	0	0
707	0	0
708	0	0
709	0	0
710	0	0
711	0	0
712	0	0
713	0	0
714	0	0
715	0	0
716	0	0
717	0	0
718	0	0
719	0	0
720	0	0
721	0	0
722	0	0
723	0	0
724	0	0
725	1	0
726	1	0
727	1	0
728	1	0
729	1	0
730	1	0
731	1	0
732	1	0
733	1	0
734	0	0
735	0	0
736	0	0
737	1	0
738	0	0
739	0	0
740	0	0
741	0	0
742	0	0
743	0	0
744	1	0
745	1	0
746	1	0
747	1	0
748	1	0
749	1	0
750	1	0
751	1	0
752	1	0
753	1	0
754	1	0
755	0	0
756	0	0
757	0	0
758	0	0
759	0	0
760	0	0
761	1	0
762	1	0
763	1	0
764	1	0
765	1	0
766	1	0
767	1	0
768	1	0
769	1	0
770	1	0
771	1	0
772	1	0
773	1	0
774	1	0
775	1	0
776	1	0
777	1	0
778	1	0
779	1	0
780	1	0
781	1	0
782	1	0
783	1	0
784	0	0
785	0	0
786	0	0
787	0	0
788	0	0
789	0	0
790	0	0
791	0	0
792	1	0
793	1	0
794	1	0
795	1	0
796	0	0
797	0	0
798	0	0
799	0	0
800	0	0
801	0	0
802	0	0
803	0	0
804	0	0
805	0	0
806	0	0
807	0	0
808	0	0
809	0	0
810	0	0
811	0	0
812	0	0
813	0	0.441943
814	0	0.484211
