
RAxML-NG v. 1.0.1 released on 19.09.2020 by The Exelixis Lab.
Developed by: Alexey M. Kozlov and Alexandros Stamatakis.
Contributors: Diego Darriba, Tomas Flouri, Benoit Morel, Sarah Lutteropp, Ben Bettisworth.
Latest version: https://github.com/amkozlov/raxml-ng
Questions/problems/suggestions? Please visit: https://groups.google.com/forum/#!forum/raxml

System: Intel(R) Xeon(R) CPU E5-2683 v4 @ 2.10GHz, 32 cores, 503 GB RAM

RAxML-NG was called at 06-Oct-2020 19:19:23 as follows:

./raxml-ng --threads 6 --msa Alignments_filtered_renamed/jgi|Pseudest1|2481|VC83_05788T0.aln_filtered_renamed.fasta --model LG+G --prefix Phylogenies_raxml/jgi|Pseudest1|2481|VC83_05788T0/jgi|Pseudest1|2481|VC83_05788T0 --seed 134

Analysis options:
  run mode: ML tree search
  start tree(s): random (10) + parsimony (10)
  random seed: 134
  tip-inner: OFF
  pattern compression: ON
  per-rate scalers: OFF
  site repeats: ON
  fast spr radius: AUTO
  spr subtree cutoff: 1.000000
  branch lengths: proportional (ML estimate, algorithm: NR-FAST)
  SIMD kernels: AVX2
  parallelization: coarse-grained (auto), PTHREADS (6 threads), thread pinning: OFF

[00:00:00] Reading alignment from file: Alignments_filtered_renamed/jgi|Pseudest1|2481|VC83_05788T0.aln_filtered_renamed.fasta
[00:00:00] Loaded alignment with 250 taxa and 248 sites

WARNING: Sequences taxon208 and taxon209 are exactly identical!
WARNING: Sequences taxon223 and taxon224 are exactly identical!
WARNING: Sequences taxon239 and taxon240 are exactly identical!
WARNING: Sequences taxon168 and taxon169 are exactly identical!
WARNING: Sequences taxon136 and taxon147 are exactly identical!
WARNING: Sequences taxon247 and taxon248 are exactly identical!
WARNING: Sequences taxon247 and taxon249 are exactly identical!
WARNING: Sequences taxon119 and taxon120 are exactly identical!
WARNING: Sequences taxon121 and taxon122 are exactly identical!
WARNING: Sequences taxon189 and taxon190 are exactly identical!
WARNING: Sequences taxon27 and taxon57 are exactly identical!
WARNING: Sequences taxon27 and taxon26 are exactly identical!
WARNING: Sequences taxon9 and taxon19 are exactly identical!
WARNING: Sequences taxon33 and taxon34 are exactly identical!
WARNING: Sequences taxon33 and taxon39 are exactly identical!
WARNING: Sequences taxon18 and taxon55 are exactly identical!
WARNING: Sequences taxon15 and taxon53 are exactly identical!
WARNING: Sequences taxon15 and taxon32 are exactly identical!
WARNING: Sequences taxon184 and taxon185 are exactly identical!
WARNING: Duplicate sequences found: 19

NOTE: Reduced alignment (with duplicates and gap-only sites/taxa removed) 
NOTE: was saved to: /home/dutheil/Data/WhiteNoseSyndrome/Phylogenomics/Phylogenies_raxml/jgi|Pseudest1|2481|VC83_05788T0/jgi|Pseudest1|2481|VC83_05788T0.raxml.reduced.phy

Alignment comprises 1 partitions and 236 patterns

Partition 0: noname
Model: LG+G4m
Alignment sites / patterns: 248 / 236
Gaps: 1.46 %
Invariant sites: 11.29 %


NOTE: Binary MSA file created: Phylogenies_raxml/jgi|Pseudest1|2481|VC83_05788T0/jgi|Pseudest1|2481|VC83_05788T0.raxml.rba

Parallelization scheme autoconfig: 6 worker(s) x 1 thread(s)

Parallel reduction/worker buffer size: 1 KB  / 0 KB

[00:00:00] Generating 10 random starting tree(s) with 250 taxa
[00:00:00] Generating 10 parsimony starting tree(s) with 250 taxa
[00:00:00] Data distribution: max. partitions/sites/weight per thread: 1 / 236 / 18880
[00:00:00] Data distribution: max. searches per worker: 4

Starting ML tree search with 20 distinct starting trees

[00:00:00 -85955.441222] Initial branch length optimization
[00:00:02 -73907.010875] Model parameter optimization (eps = 10.000000)
[00:00:04 -73381.288562] AUTODETECT spr round 1 (radius: 5)
[00:00:24 -46677.569297] AUTODETECT spr round 2 (radius: 10)
[00:00:49 -36626.117938] AUTODETECT spr round 3 (radius: 15)
[00:01:19 -32517.819302] AUTODETECT spr round 4 (radius: 20)
[00:01:51 -31091.366004] AUTODETECT spr round 5 (radius: 25)
[00:02:29 -30436.158977] SPR radius for FAST iterations: 25 (autodetect)
[00:02:29 -30436.158977] Model parameter optimization (eps = 3.000000)
[00:02:29 -30434.633405] FAST spr round 1 (radius: 25)
[00:02:52 -26235.741295] FAST spr round 2 (radius: 25)
[00:03:12 -26035.952592] FAST spr round 3 (radius: 25)
[00:03:27 -26028.249425] FAST spr round 4 (radius: 25)
[00:03:40 -26028.248725] Model parameter optimization (eps = 1.000000)
[00:03:41 -26026.796566] SLOW spr round 1 (radius: 5)
[00:04:11 -26018.593391] SLOW spr round 2 (radius: 5)
[00:04:38 -26016.135670] SLOW spr round 3 (radius: 5)
[00:05:07 -26015.004039] SLOW spr round 4 (radius: 5)
[00:05:33 -26015.002446] SLOW spr round 5 (radius: 10)
[00:05:59 -26012.814277] SLOW spr round 6 (radius: 5)
[00:06:44 -26011.858824] SLOW spr round 7 (radius: 5)
[00:07:18 -26011.772165] SLOW spr round 8 (radius: 10)
[00:07:44 -26011.771451] SLOW spr round 9 (radius: 15)
[00:08:08] [worker #5] ML tree search #6, logLikelihood: -25885.928669
[00:08:09] [worker #3] ML tree search #4, logLikelihood: -25883.537280
[00:08:32] [worker #4] ML tree search #5, logLikelihood: -25884.533649
[00:08:34 -26011.771337] SLOW spr round 10 (radius: 20)
[00:09:17] [worker #1] ML tree search #2, logLikelihood: -25886.248067
[00:09:23] [worker #2] ML tree search #3, logLikelihood: -25880.104125
[00:09:28 -26011.771318] SLOW spr round 11 (radius: 25)
[00:10:19 -26011.771315] Model parameter optimization (eps = 0.100000)

[00:10:23] [worker #0] ML tree search #1, logLikelihood: -25887.969438

[00:10:23 -85477.033163] Initial branch length optimization
[00:10:25 -74244.815713] Model parameter optimization (eps = 10.000000)
[00:10:27 -73803.090862] AUTODETECT spr round 1 (radius: 5)
[00:10:47 -45915.808575] AUTODETECT spr round 2 (radius: 10)
[00:11:13 -35004.952516] AUTODETECT spr round 3 (radius: 15)
[00:11:48 -30499.305411] AUTODETECT spr round 4 (radius: 20)
[00:12:35 -29998.806497] AUTODETECT spr round 5 (radius: 25)
[00:13:17 -29998.797523] SPR radius for FAST iterations: 20 (autodetect)
[00:13:17 -29998.797523] Model parameter optimization (eps = 3.000000)
[00:13:17 -29997.806111] FAST spr round 1 (radius: 20)
[00:13:41 -26164.438269] FAST spr round 2 (radius: 20)
[00:13:58] [worker #4] ML tree search #11, logLikelihood: -25882.704406
[00:14:04 -26033.285357] FAST spr round 3 (radius: 20)
[00:14:22 -26011.870690] FAST spr round 4 (radius: 20)
[00:14:26] [worker #5] ML tree search #12, logLikelihood: -25878.897154
[00:14:34 -26011.870681] Model parameter optimization (eps = 1.000000)
[00:14:35 -26008.885689] SLOW spr round 1 (radius: 5)
[00:15:07 -25998.593578] SLOW spr round 2 (radius: 5)
[00:15:39 -25893.909377] SLOW spr round 3 (radius: 5)
[00:16:07 -25890.453063] SLOW spr round 4 (radius: 5)
[00:16:33 -25890.452996] SLOW spr round 5 (radius: 10)
[00:16:40] [worker #3] ML tree search #10, logLikelihood: -25879.587305
[00:16:58 -25890.452995] SLOW spr round 6 (radius: 15)
[00:17:45 -25890.452995] SLOW spr round 7 (radius: 20)
[00:17:59] [worker #1] ML tree search #8, logLikelihood: -25890.543829
[00:18:37 -25890.452995] SLOW spr round 8 (radius: 25)
[00:18:45] [worker #2] ML tree search #9, logLikelihood: -25884.278684
[00:19:26 -25890.452995] Model parameter optimization (eps = 0.100000)

[00:19:27] [worker #0] ML tree search #7, logLikelihood: -25881.719566

[00:19:27 -29833.121140] Initial branch length optimization
[00:19:28 -26222.753423] Model parameter optimization (eps = 10.000000)
[00:19:29 -26209.743802] AUTODETECT spr round 1 (radius: 5)
[00:19:42 -25923.277962] AUTODETECT spr round 2 (radius: 10)
[00:19:49] [worker #4] ML tree search #17, logLikelihood: -25879.277923
[00:20:06 -25923.275742] SPR radius for FAST iterations: 5 (autodetect)
[00:20:06 -25923.275742] Model parameter optimization (eps = 3.000000)
[00:20:06 -25923.268116] FAST spr round 1 (radius: 5)
[00:20:22 -25897.634728] FAST spr round 2 (radius: 5)
[00:20:35 -25889.667545] FAST spr round 3 (radius: 5)
[00:20:38] [worker #5] ML tree search #18, logLikelihood: -25883.361600
[00:20:47 -25889.667537] Model parameter optimization (eps = 1.000000)
[00:20:48 -25889.650670] SLOW spr round 1 (radius: 5)
[00:21:17 -25882.765843] SLOW spr round 2 (radius: 5)
[00:21:42 -25882.765657] SLOW spr round 3 (radius: 10)
[00:22:07 -25882.039372] SLOW spr round 4 (radius: 5)
[00:22:49 -25882.039365] SLOW spr round 5 (radius: 10)
[00:23:18 -25882.039365] SLOW spr round 6 (radius: 15)
[00:23:40] [worker #2] ML tree search #15, logLikelihood: -25879.888195
[00:23:45] [worker #3] ML tree search #16, logLikelihood: -25882.653779
[00:24:00 -25882.039365] SLOW spr round 7 (radius: 20)
[00:24:15] [worker #1] ML tree search #14, logLikelihood: -25884.208343
[00:24:52 -25882.039365] SLOW spr round 8 (radius: 25)
[00:25:40 -25882.039365] Model parameter optimization (eps = 0.100000)

[00:25:41] [worker #0] ML tree search #13, logLikelihood: -25882.035714

[00:25:41 -29712.411889] Initial branch length optimization
[00:25:42 -26152.180621] Model parameter optimization (eps = 10.000000)
[00:25:42 -26138.710795] AUTODETECT spr round 1 (radius: 5)
[00:25:56 -25924.555016] AUTODETECT spr round 2 (radius: 10)
[00:26:19 -25924.549167] SPR radius for FAST iterations: 5 (autodetect)
[00:26:20 -25924.549167] Model parameter optimization (eps = 3.000000)
[00:26:20 -25924.482889] FAST spr round 1 (radius: 5)
[00:26:35 -25903.680529] FAST spr round 2 (radius: 5)
[00:26:48 -25896.841342] FAST spr round 3 (radius: 5)
[00:27:01 -25895.166752] FAST spr round 4 (radius: 5)
[00:27:14 -25891.915335] FAST spr round 5 (radius: 5)
[00:27:27 -25891.915201] Model parameter optimization (eps = 1.000000)
[00:27:27 -25891.914155] SLOW spr round 1 (radius: 5)
[00:27:56 -25885.961926] SLOW spr round 2 (radius: 5)
[00:28:22 -25885.961735] SLOW spr round 3 (radius: 10)
[00:28:47 -25885.231570] SLOW spr round 4 (radius: 5)
[00:29:28 -25885.231563] SLOW spr round 5 (radius: 10)
[00:29:57 -25885.231563] SLOW spr round 6 (radius: 15)
[00:30:41 -25885.231563] SLOW spr round 7 (radius: 20)
[00:30:53] [worker #1] ML tree search #20, logLikelihood: -25881.237547
[00:31:37 -25885.231563] SLOW spr round 8 (radius: 25)
[00:32:28 -25885.231563] Model parameter optimization (eps = 0.100000)

[00:32:29] [worker #0] ML tree search #19, logLikelihood: -25885.211419


Optimized model parameters:

   Partition 0: noname
   Rate heterogeneity: GAMMA (4 cats, mean),  alpha: 0.780264 (ML),  weights&rates: (0.250000,0.091353) (0.250000,0.399065) (0.250000,0.951333) (0.250000,2.558250) 
   Base frequencies (model): 0.079066 0.055941 0.041977 0.053052 0.012937 0.040767 0.071586 0.057337 0.022355 0.062157 0.099081 0.064600 0.022951 0.042302 0.044040 0.061197 0.053287 0.012066 0.034155 0.069147 
   Substitution rates (model): 0.425093 0.276818 0.395144 2.489084 0.969894 1.038545 2.066040 0.358858 0.149830 0.395337 0.536518 1.124035 0.253701 1.177651 4.727182 2.139501 0.180717 0.218959 2.547870 0.751878 0.123954 0.534551 2.807908 0.363970 0.390192 2.426601 0.126991 0.301848 6.326067 0.484133 0.052722 0.332533 0.858151 0.578987 0.593607 0.314440 0.170887 5.076149 0.528768 1.695752 0.541712 1.437645 4.509238 0.191503 0.068427 2.145078 0.371004 0.089525 0.161787 4.008358 2.000679 0.045376 0.612025 0.083688 0.062556 0.523386 5.243870 0.844926 0.927114 0.010690 0.015076 0.282959 0.025548 0.017416 0.394456 1.240275 0.425860 0.029890 0.135107 0.037967 0.084808 0.003499 0.569265 0.640543 0.320627 0.594007 0.013266 0.893680 1.105251 0.075382 2.784478 1.143480 0.670128 1.165532 1.959291 4.128591 0.267959 4.813505 0.072854 0.582457 3.234294 1.672569 0.035855 0.624294 1.223828 1.080136 0.236199 0.257336 0.210332 0.348847 0.423881 0.044265 0.069673 1.807177 0.173735 0.018811 0.419409 0.611973 0.604545 0.077852 0.120037 0.245034 0.311484 0.008705 0.044261 0.296636 0.139538 0.089586 0.196961 1.739990 0.129836 0.268491 0.054679 0.076701 0.108882 0.366317 0.697264 0.442472 0.682139 0.508851 0.990012 0.584262 0.597054 5.306834 0.119013 4.145067 0.159069 4.273607 1.112727 0.078281 0.064105 1.033739 0.111660 0.232523 10.649107 0.137500 6.312358 2.592692 0.249060 0.182287 0.302936 0.619632 0.299648 1.702745 0.656604 0.023918 0.390322 0.748683 1.136863 0.049906 0.131932 0.185202 1.798853 0.099849 0.346960 2.020366 0.696175 0.481306 1.898718 0.094464 0.361819 0.165001 2.457121 7.803902 0.654683 1.338132 0.571468 0.095131 0.089613 0.296501 6.472279 0.248862 0.400547 0.098369 0.140825 0.245841 2.188158 3.151815 0.189510 0.249313 


Final LogLikelihood: -25878.897154

AIC score: 52753.794309 / AICc score: 549757.794309 / BIC score: 54503.481824
Free parameters (model + branch lengths): 498

WARNING: Number of free parameters (K=498) is larger than alignment size (n=248).
         This might lead to overfitting and compromise tree inference results!


WARNING: Best ML tree contains 30 near-zero branches!

Best ML tree with collapsed near-zero branches saved to: /home/dutheil/Data/WhiteNoseSyndrome/Phylogenomics/Phylogenies_raxml/jgi|Pseudest1|2481|VC83_05788T0/jgi|Pseudest1|2481|VC83_05788T0.raxml.bestTreeCollapsed
Best ML tree saved to: /home/dutheil/Data/WhiteNoseSyndrome/Phylogenomics/Phylogenies_raxml/jgi|Pseudest1|2481|VC83_05788T0/jgi|Pseudest1|2481|VC83_05788T0.raxml.bestTree
All ML trees saved to: /home/dutheil/Data/WhiteNoseSyndrome/Phylogenomics/Phylogenies_raxml/jgi|Pseudest1|2481|VC83_05788T0/jgi|Pseudest1|2481|VC83_05788T0.raxml.mlTrees
Optimized model saved to: /home/dutheil/Data/WhiteNoseSyndrome/Phylogenomics/Phylogenies_raxml/jgi|Pseudest1|2481|VC83_05788T0/jgi|Pseudest1|2481|VC83_05788T0.raxml.bestModel

Execution log saved to: /home/dutheil/Data/WhiteNoseSyndrome/Phylogenomics/Phylogenies_raxml/jgi|Pseudest1|2481|VC83_05788T0/jgi|Pseudest1|2481|VC83_05788T0.raxml.log

Analysis started: 06-Oct-2020 19:19:23 / finished: 06-Oct-2020 19:51:52

Elapsed time: 1949.357 seconds

Consumed energy: 139.442 Wh

