
RAxML-NG v. 1.0.1 released on 19.09.2020 by The Exelixis Lab.
Developed by: Alexey M. Kozlov and Alexandros Stamatakis.
Contributors: Diego Darriba, Tomas Flouri, Benoit Morel, Sarah Lutteropp, Ben Bettisworth.
Latest version: https://github.com/amkozlov/raxml-ng
Questions/problems/suggestions? Please visit: https://groups.google.com/forum/#!forum/raxml

System: Intel(R) Xeon(R) CPU E5-2683 v4 @ 2.10GHz, 32 cores, 503 GB RAM

RAxML-NG was called at 07-Oct-2020 01:50:12 as follows:

./raxml-ng --threads 6 --msa Alignments_filtered_renamed/jgi|Pseudest1|8782|VC83_03955T0.aln_filtered_renamed.fasta --model LG+G --prefix Phylogenies_raxml/jgi|Pseudest1|8782|VC83_03955T0/jgi|Pseudest1|8782|VC83_03955T0 --seed 551

Analysis options:
  run mode: ML tree search
  start tree(s): random (10) + parsimony (10)
  random seed: 551
  tip-inner: OFF
  pattern compression: ON
  per-rate scalers: OFF
  site repeats: ON
  fast spr radius: AUTO
  spr subtree cutoff: 1.000000
  branch lengths: proportional (ML estimate, algorithm: NR-FAST)
  SIMD kernels: AVX2
  parallelization: coarse-grained (auto), PTHREADS (6 threads), thread pinning: OFF

[00:00:00] Reading alignment from file: Alignments_filtered_renamed/jgi|Pseudest1|8782|VC83_03955T0.aln_filtered_renamed.fasta
[00:00:00] Loaded alignment with 250 taxa and 449 sites

WARNING: Sequences taxon208 and taxon209 are exactly identical!
WARNING: Sequences taxon170 and taxon171 are exactly identical!
WARNING: Sequences taxon189 and taxon190 are exactly identical!
WARNING: Sequences taxon27 and taxon57 are exactly identical!
WARNING: Sequences taxon247 and taxon248 are exactly identical!
WARNING: Sequences taxon247 and taxon249 are exactly identical!
WARNING: Sequences taxon247 and taxon250 are exactly identical!
WARNING: Duplicate sequences found: 7

NOTE: Reduced alignment (with duplicates and gap-only sites/taxa removed) 
NOTE: was saved to: /home/dutheil/Data/WhiteNoseSyndrome/Phylogenomics/Phylogenies_raxml/jgi|Pseudest1|8782|VC83_03955T0/jgi|Pseudest1|8782|VC83_03955T0.raxml.reduced.phy

Alignment comprises 1 partitions and 420 patterns

Partition 0: noname
Model: LG+G4m
Alignment sites / patterns: 449 / 420
Gaps: 1.32 %
Invariant sites: 15.37 %


NOTE: Binary MSA file created: Phylogenies_raxml/jgi|Pseudest1|8782|VC83_03955T0/jgi|Pseudest1|8782|VC83_03955T0.raxml.rba

Parallelization scheme autoconfig: 3 worker(s) x 2 thread(s)

Parallel reduction/worker buffer size: 1 KB  / 0 KB

[00:00:00] Generating 10 random starting tree(s) with 250 taxa
[00:00:00] Generating 10 parsimony starting tree(s) with 250 taxa
[00:00:00] Data distribution: max. partitions/sites/weight per thread: 1 / 210 / 16800
[00:00:00] Data distribution: max. searches per worker: 7

Starting ML tree search with 20 distinct starting trees

[00:00:00 -135304.828026] Initial branch length optimization
[00:00:01 -119769.280153] Model parameter optimization (eps = 10.000000)
[00:00:03 -118591.065721] AUTODETECT spr round 1 (radius: 5)
[00:00:21 -79408.438710] AUTODETECT spr round 2 (radius: 10)
[00:00:47 -60420.009140] AUTODETECT spr round 3 (radius: 15)
[00:01:18 -55351.610931] AUTODETECT spr round 4 (radius: 20)
[00:01:55 -53409.784087] AUTODETECT spr round 5 (radius: 25)
[00:02:31 -53263.031560] SPR radius for FAST iterations: 25 (autodetect)
[00:02:31 -53263.031560] Model parameter optimization (eps = 3.000000)
[00:02:32 -53260.860718] FAST spr round 1 (radius: 25)
[00:02:54 -49547.088323] FAST spr round 2 (radius: 25)
[00:03:13 -49434.415450] FAST spr round 3 (radius: 25)
[00:03:28 -49412.008083] FAST spr round 4 (radius: 25)
[00:03:42 -49401.265237] FAST spr round 5 (radius: 25)
[00:03:54 -49401.264808] Model parameter optimization (eps = 1.000000)
[00:03:55 -49398.106019] SLOW spr round 1 (radius: 5)
[00:04:25 -49394.505849] SLOW spr round 2 (radius: 5)
[00:04:53 -49394.336306] SLOW spr round 3 (radius: 5)
[00:05:20 -49394.335641] SLOW spr round 4 (radius: 10)
[00:05:46 -49394.331886] SLOW spr round 5 (radius: 15)
[00:06:33 -49394.331883] SLOW spr round 6 (radius: 20)
[00:07:28 -49394.331883] SLOW spr round 7 (radius: 25)
[00:08:06] [worker #2] ML tree search #3, logLikelihood: -49393.933177
[00:08:23 -49394.331883] Model parameter optimization (eps = 0.100000)

[00:08:23] [worker #0] ML tree search #1, logLikelihood: -49394.317454

[00:08:23 -135290.787486] Initial branch length optimization
[00:08:24 -119807.378165] Model parameter optimization (eps = 10.000000)
[00:08:26 -118614.039905] AUTODETECT spr round 1 (radius: 5)
[00:08:31] [worker #1] ML tree search #2, logLikelihood: -49392.407195
[00:08:44 -78561.265240] AUTODETECT spr round 2 (radius: 10)
[00:09:08 -56654.038855] AUTODETECT spr round 3 (radius: 15)
[00:09:44 -52382.279613] AUTODETECT spr round 4 (radius: 20)
[00:10:26 -52193.374389] AUTODETECT spr round 5 (radius: 25)
[00:11:08 -52185.452100] SPR radius for FAST iterations: 25 (autodetect)
[00:11:08 -52185.452100] Model parameter optimization (eps = 3.000000)
[00:11:09 -52179.322033] FAST spr round 1 (radius: 25)
[00:11:31 -49616.152698] FAST spr round 2 (radius: 25)
[00:11:50 -49417.297358] FAST spr round 3 (radius: 25)
[00:12:05 -49401.834420] FAST spr round 4 (radius: 25)
[00:12:18 -49399.971489] FAST spr round 5 (radius: 25)
[00:12:31 -49396.334569] FAST spr round 6 (radius: 25)
[00:12:43 -49396.334533] Model parameter optimization (eps = 1.000000)
[00:12:44 -49394.256815] SLOW spr round 1 (radius: 5)
[00:13:15 -49380.720460] SLOW spr round 2 (radius: 5)
[00:13:44 -49377.773196] SLOW spr round 3 (radius: 5)
[00:14:11 -49377.543184] SLOW spr round 4 (radius: 5)
[00:14:37 -49377.543136] SLOW spr round 5 (radius: 10)
[00:15:03 -49377.543133] SLOW spr round 6 (radius: 15)
[00:15:51 -49377.543133] SLOW spr round 7 (radius: 20)
[00:16:44] [worker #1] ML tree search #5, logLikelihood: -49377.821651
[00:16:49 -49377.543133] SLOW spr round 8 (radius: 25)
[00:17:43 -49377.543133] Model parameter optimization (eps = 0.100000)

[00:17:44] [worker #0] ML tree search #4, logLikelihood: -49377.538322

[00:17:44 -135047.632220] Initial branch length optimization
[00:17:45 -118579.263952] Model parameter optimization (eps = 10.000000)
[00:17:46 -117545.026132] AUTODETECT spr round 1 (radius: 5)
[00:18:03 -78275.563655] AUTODETECT spr round 2 (radius: 10)
[00:18:06] [worker #2] ML tree search #6, logLikelihood: -49388.291551
[00:18:27 -59869.579136] AUTODETECT spr round 3 (radius: 15)
[00:18:59 -56995.967894] AUTODETECT spr round 4 (radius: 20)
[00:19:35 -56877.837071] AUTODETECT spr round 5 (radius: 25)
[00:20:10 -56877.825666] SPR radius for FAST iterations: 20 (autodetect)
[00:20:10 -56877.825666] Model parameter optimization (eps = 3.000000)
[00:20:11 -56867.323194] FAST spr round 1 (radius: 20)
[00:20:35 -50167.711216] FAST spr round 2 (radius: 20)
[00:20:53 -49482.358430] FAST spr round 3 (radius: 20)
[00:21:10 -49421.670178] FAST spr round 4 (radius: 20)
[00:21:24 -49417.991154] FAST spr round 5 (radius: 20)
[00:21:37 -49417.990527] Model parameter optimization (eps = 1.000000)
[00:21:37 -49417.857755] SLOW spr round 1 (radius: 5)
[00:22:10 -49396.055292] SLOW spr round 2 (radius: 5)
[00:22:38 -49392.890060] SLOW spr round 3 (radius: 5)
[00:23:05 -49392.889698] SLOW spr round 4 (radius: 10)
[00:23:33 -49392.889626] SLOW spr round 5 (radius: 15)
[00:24:23 -49392.889609] SLOW spr round 6 (radius: 20)
[00:25:17 -49392.889604] SLOW spr round 7 (radius: 25)
[00:26:09 -49392.889603] Model parameter optimization (eps = 0.100000)

[00:26:09] [worker #0] ML tree search #7, logLikelihood: -49392.879195

[00:26:10 -135005.681172] Initial branch length optimization
[00:26:11 -118983.896826] Model parameter optimization (eps = 10.000000)
[00:26:12 -117874.960499] AUTODETECT spr round 1 (radius: 5)
[00:26:14] [worker #2] ML tree search #9, logLikelihood: -49384.075746
[00:26:29 -78347.974910] AUTODETECT spr round 2 (radius: 10)
[00:26:52 -55615.927326] AUTODETECT spr round 3 (radius: 15)
[00:27:05] [worker #1] ML tree search #8, logLikelihood: -49382.761309
[00:27:29 -53083.489092] AUTODETECT spr round 4 (radius: 20)
[00:28:11 -53038.246995] AUTODETECT spr round 5 (radius: 25)
[00:28:50 -53038.219035] SPR radius for FAST iterations: 20 (autodetect)
[00:28:50 -53038.219035] Model parameter optimization (eps = 3.000000)
[00:28:51 -53026.516939] FAST spr round 1 (radius: 20)
[00:29:13 -49498.592965] FAST spr round 2 (radius: 20)
[00:29:31 -49436.340201] FAST spr round 3 (radius: 20)
[00:29:43 -49436.339547] Model parameter optimization (eps = 1.000000)
[00:29:44 -49436.332552] SLOW spr round 1 (radius: 5)
[00:30:15 -49423.427184] SLOW spr round 2 (radius: 5)
[00:30:46 -49394.958349] SLOW spr round 3 (radius: 5)
[00:31:15 -49391.885121] SLOW spr round 4 (radius: 5)
[00:31:41 -49391.884754] SLOW spr round 5 (radius: 10)
[00:32:09 -49391.884726] SLOW spr round 6 (radius: 15)
[00:32:54] [worker #1] ML tree search #11, logLikelihood: -49382.544511
[00:32:58 -49391.884723] SLOW spr round 7 (radius: 20)
[00:33:00] [worker #2] ML tree search #12, logLikelihood: -49387.433724
[00:33:57 -49391.884722] SLOW spr round 8 (radius: 25)
[00:34:50 -49391.884722] Model parameter optimization (eps = 0.100000)

[00:34:51] [worker #0] ML tree search #10, logLikelihood: -49391.884557

[00:34:51 -56523.915010] Initial branch length optimization
[00:34:51 -49982.218729] Model parameter optimization (eps = 10.000000)
[00:34:52 -49729.527136] AUTODETECT spr round 1 (radius: 5)
[00:35:05 -49486.119703] AUTODETECT spr round 2 (radius: 10)
[00:35:29 -49445.901074] AUTODETECT spr round 3 (radius: 15)
[00:36:03 -49445.893713] SPR radius for FAST iterations: 10 (autodetect)
[00:36:03 -49445.893713] Model parameter optimization (eps = 3.000000)
[00:36:03 -49445.812001] FAST spr round 1 (radius: 10)
[00:36:21 -49409.052142] FAST spr round 2 (radius: 10)
[00:36:36 -49404.424676] FAST spr round 3 (radius: 10)
[00:36:50 -49399.081486] FAST spr round 4 (radius: 10)
[00:37:01 -49399.081131] Model parameter optimization (eps = 1.000000)
[00:37:02 -49398.960345] SLOW spr round 1 (radius: 5)
[00:37:32 -49389.707532] SLOW spr round 2 (radius: 5)
[00:37:59 -49389.298046] SLOW spr round 3 (radius: 5)
[00:38:25 -49389.297990] SLOW spr round 4 (radius: 10)
[00:38:52 -49389.297988] SLOW spr round 5 (radius: 15)
[00:39:15] [worker #2] ML tree search #15, logLikelihood: -49385.216687
[00:39:43 -49389.297988] SLOW spr round 6 (radius: 20)
[00:40:40 -49389.297988] SLOW spr round 7 (radius: 25)
[00:40:58] [worker #1] ML tree search #14, logLikelihood: -49380.529069
[00:41:30 -49389.297988] Model parameter optimization (eps = 0.100000)

[00:41:31] [worker #0] ML tree search #13, logLikelihood: -49389.182196

[00:41:31 -56576.804990] Initial branch length optimization
[00:41:31 -50013.535937] Model parameter optimization (eps = 10.000000)
[00:41:32 -49756.673473] AUTODETECT spr round 1 (radius: 5)
[00:41:45 -49452.763118] AUTODETECT spr round 2 (radius: 10)
[00:42:09 -49441.488029] AUTODETECT spr round 3 (radius: 15)
[00:42:40 -49441.487442] SPR radius for FAST iterations: 10 (autodetect)
[00:42:40 -49441.487442] Model parameter optimization (eps = 3.000000)
[00:42:41 -49441.070249] FAST spr round 1 (radius: 10)
[00:42:58 -49407.593124] FAST spr round 2 (radius: 10)
[00:43:12 -49404.227091] FAST spr round 3 (radius: 10)
[00:43:24 -49404.226433] Model parameter optimization (eps = 1.000000)
[00:43:24 -49404.184502] SLOW spr round 1 (radius: 5)
[00:43:56 -49385.361086] SLOW spr round 2 (radius: 5)
[00:44:24 -49378.208888] SLOW spr round 3 (radius: 5)
[00:44:50 -49378.208760] SLOW spr round 4 (radius: 10)
[00:45:05] [worker #2] ML tree search #18, logLikelihood: -49389.466995
[00:45:17 -49378.208756] SLOW spr round 5 (radius: 15)
[00:46:08 -49378.208756] SLOW spr round 6 (radius: 20)
[00:46:45] [worker #1] ML tree search #17, logLikelihood: -49386.940267
[00:47:05 -49378.208756] SLOW spr round 7 (radius: 25)
[00:47:57 -49378.208756] Model parameter optimization (eps = 0.100000)

[00:47:57] [worker #0] ML tree search #16, logLikelihood: -49378.196672

[00:47:58 -56530.719786] Initial branch length optimization
[00:47:58 -49970.818552] Model parameter optimization (eps = 10.000000)
[00:47:59 -49712.583446] AUTODETECT spr round 1 (radius: 5)
[00:48:12 -49464.184245] AUTODETECT spr round 2 (radius: 10)
[00:48:37 -49452.699363] AUTODETECT spr round 3 (radius: 15)
[00:49:11 -49452.695822] SPR radius for FAST iterations: 10 (autodetect)
[00:49:11 -49452.695822] Model parameter optimization (eps = 3.000000)
[00:49:11 -49452.372434] FAST spr round 1 (radius: 10)
[00:49:27 -49401.650195] FAST spr round 2 (radius: 10)
[00:49:41 -49398.373257] FAST spr round 3 (radius: 10)
[00:49:53 -49398.372817] Model parameter optimization (eps = 1.000000)
[00:49:53 -49398.326586] SLOW spr round 1 (radius: 5)
[00:50:25 -49389.958477] SLOW spr round 2 (radius: 5)
[00:50:54 -49386.632814] SLOW spr round 3 (radius: 5)
[00:51:21 -49386.632764] SLOW spr round 4 (radius: 10)
[00:51:48 -49386.632763] SLOW spr round 5 (radius: 15)
[00:52:35] [worker #1] ML tree search #20, logLikelihood: -49385.942062
[00:52:38 -49386.632763] SLOW spr round 6 (radius: 20)
[00:53:36 -49386.632762] SLOW spr round 7 (radius: 25)
[00:54:27 -49386.632762] Model parameter optimization (eps = 0.100000)

[00:54:28] [worker #0] ML tree search #19, logLikelihood: -49386.621718


Optimized model parameters:

   Partition 0: noname
   Rate heterogeneity: GAMMA (4 cats, mean),  alpha: 0.556525 (ML),  weights&rates: (0.250000,0.044284) (0.250000,0.287225) (0.250000,0.857408) (0.250000,2.811083) 
   Base frequencies (model): 0.079066 0.055941 0.041977 0.053052 0.012937 0.040767 0.071586 0.057337 0.022355 0.062157 0.099081 0.064600 0.022951 0.042302 0.044040 0.061197 0.053287 0.012066 0.034155 0.069147 
   Substitution rates (model): 0.425093 0.276818 0.395144 2.489084 0.969894 1.038545 2.066040 0.358858 0.149830 0.395337 0.536518 1.124035 0.253701 1.177651 4.727182 2.139501 0.180717 0.218959 2.547870 0.751878 0.123954 0.534551 2.807908 0.363970 0.390192 2.426601 0.126991 0.301848 6.326067 0.484133 0.052722 0.332533 0.858151 0.578987 0.593607 0.314440 0.170887 5.076149 0.528768 1.695752 0.541712 1.437645 4.509238 0.191503 0.068427 2.145078 0.371004 0.089525 0.161787 4.008358 2.000679 0.045376 0.612025 0.083688 0.062556 0.523386 5.243870 0.844926 0.927114 0.010690 0.015076 0.282959 0.025548 0.017416 0.394456 1.240275 0.425860 0.029890 0.135107 0.037967 0.084808 0.003499 0.569265 0.640543 0.320627 0.594007 0.013266 0.893680 1.105251 0.075382 2.784478 1.143480 0.670128 1.165532 1.959291 4.128591 0.267959 4.813505 0.072854 0.582457 3.234294 1.672569 0.035855 0.624294 1.223828 1.080136 0.236199 0.257336 0.210332 0.348847 0.423881 0.044265 0.069673 1.807177 0.173735 0.018811 0.419409 0.611973 0.604545 0.077852 0.120037 0.245034 0.311484 0.008705 0.044261 0.296636 0.139538 0.089586 0.196961 1.739990 0.129836 0.268491 0.054679 0.076701 0.108882 0.366317 0.697264 0.442472 0.682139 0.508851 0.990012 0.584262 0.597054 5.306834 0.119013 4.145067 0.159069 4.273607 1.112727 0.078281 0.064105 1.033739 0.111660 0.232523 10.649107 0.137500 6.312358 2.592692 0.249060 0.182287 0.302936 0.619632 0.299648 1.702745 0.656604 0.023918 0.390322 0.748683 1.136863 0.049906 0.131932 0.185202 1.798853 0.099849 0.346960 2.020366 0.696175 0.481306 1.898718 0.094464 0.361819 0.165001 2.457121 7.803902 0.654683 1.338132 0.571468 0.095131 0.089613 0.296501 6.472279 0.248862 0.400547 0.098369 0.140825 0.245841 2.188158 3.151815 0.189510 0.249313 


Final LogLikelihood: -49377.538322

AIC score: 99751.076644 / AICc score: 596755.076644 / BIC score: 101796.374042
Free parameters (model + branch lengths): 498

WARNING: Number of free parameters (K=498) is larger than alignment size (n=449).
         This might lead to overfitting and compromise tree inference results!


WARNING: Best ML tree contains 18 near-zero branches!

Best ML tree with collapsed near-zero branches saved to: /home/dutheil/Data/WhiteNoseSyndrome/Phylogenomics/Phylogenies_raxml/jgi|Pseudest1|8782|VC83_03955T0/jgi|Pseudest1|8782|VC83_03955T0.raxml.bestTreeCollapsed
Best ML tree saved to: /home/dutheil/Data/WhiteNoseSyndrome/Phylogenomics/Phylogenies_raxml/jgi|Pseudest1|8782|VC83_03955T0/jgi|Pseudest1|8782|VC83_03955T0.raxml.bestTree
All ML trees saved to: /home/dutheil/Data/WhiteNoseSyndrome/Phylogenomics/Phylogenies_raxml/jgi|Pseudest1|8782|VC83_03955T0/jgi|Pseudest1|8782|VC83_03955T0.raxml.mlTrees
Optimized model saved to: /home/dutheil/Data/WhiteNoseSyndrome/Phylogenomics/Phylogenies_raxml/jgi|Pseudest1|8782|VC83_03955T0/jgi|Pseudest1|8782|VC83_03955T0.raxml.bestModel

Execution log saved to: /home/dutheil/Data/WhiteNoseSyndrome/Phylogenomics/Phylogenies_raxml/jgi|Pseudest1|8782|VC83_03955T0/jgi|Pseudest1|8782|VC83_03955T0.raxml.log

Analysis started: 07-Oct-2020 01:50:12 / finished: 07-Oct-2020 02:44:41

Elapsed time: 3268.349 seconds

Consumed energy: 256.710 Wh (= 1 km in an electric car, or 6 km with an e-scooter!)

