
RAxML-NG v. 1.0.1 released on 19.09.2020 by The Exelixis Lab.
Developed by: Alexey M. Kozlov and Alexandros Stamatakis.
Contributors: Diego Darriba, Tomas Flouri, Benoit Morel, Sarah Lutteropp, Ben Bettisworth.
Latest version: https://github.com/amkozlov/raxml-ng
Questions/problems/suggestions? Please visit: https://groups.google.com/forum/#!forum/raxml

System: Intel(R) Xeon(R) CPU E5-2683 v4 @ 2.10GHz, 32 cores, 503 GB RAM

RAxML-NG was called at 06-Oct-2020 21:16:41 as follows:

./raxml-ng --threads 6 --msa Alignments_filtered_renamed/jgi|Pseudest1|4239|VC83_07483T0.aln_filtered_renamed.fasta --model LG+G --prefix Phylogenies_raxml/jgi|Pseudest1|4239|VC83_07483T0/jgi|Pseudest1|4239|VC83_07483T0 --seed 256

Analysis options:
  run mode: ML tree search
  start tree(s): random (10) + parsimony (10)
  random seed: 256
  tip-inner: OFF
  pattern compression: ON
  per-rate scalers: OFF
  site repeats: ON
  fast spr radius: AUTO
  spr subtree cutoff: 1.000000
  branch lengths: proportional (ML estimate, algorithm: NR-FAST)
  SIMD kernels: AVX2
  parallelization: coarse-grained (auto), PTHREADS (6 threads), thread pinning: OFF

[00:00:00] Reading alignment from file: Alignments_filtered_renamed/jgi|Pseudest1|4239|VC83_07483T0.aln_filtered_renamed.fasta
[00:00:00] Loaded alignment with 250 taxa and 255 sites

WARNING: Sequences taxon119 and taxon120 are exactly identical!
WARNING: Sequences taxon34 and taxon39 are exactly identical!
WARNING: Sequences taxon34 and taxon58 are exactly identical!
WARNING: Sequences taxon27 and taxon57 are exactly identical!
WARNING: Sequences taxon189 and taxon190 are exactly identical!
WARNING: Sequences taxon38 and taxon51 are exactly identical!
WARNING: Sequences taxon168 and taxon169 are exactly identical!
WARNING: Sequences taxon170 and taxon171 are exactly identical!
WARNING: Sequences taxon239 and taxon240 are exactly identical!
WARNING: Duplicate sequences found: 9

NOTE: Reduced alignment (with duplicates and gap-only sites/taxa removed) 
NOTE: was saved to: /home/dutheil/Data/WhiteNoseSyndrome/Phylogenomics/Phylogenies_raxml/jgi|Pseudest1|4239|VC83_07483T0/jgi|Pseudest1|4239|VC83_07483T0.raxml.reduced.phy

Alignment comprises 1 partitions and 253 patterns

Partition 0: noname
Model: LG+G4m
Alignment sites / patterns: 255 / 253
Gaps: 0.84 %
Invariant sites: 6.67 %


NOTE: Binary MSA file created: Phylogenies_raxml/jgi|Pseudest1|4239|VC83_07483T0/jgi|Pseudest1|4239|VC83_07483T0.raxml.rba

Parallelization scheme autoconfig: 6 worker(s) x 1 thread(s)

Parallel reduction/worker buffer size: 1 KB  / 0 KB

[00:00:00] Generating 10 random starting tree(s) with 250 taxa
[00:00:00] Generating 10 parsimony starting tree(s) with 250 taxa
[00:00:00] Data distribution: max. partitions/sites/weight per thread: 1 / 253 / 20240
[00:00:00] Data distribution: max. searches per worker: 4

Starting ML tree search with 20 distinct starting trees

[00:00:00 -77082.242842] Initial branch length optimization
[00:00:01 -68107.869071] Model parameter optimization (eps = 10.000000)
[00:00:03 -67915.088710] AUTODETECT spr round 1 (radius: 5)
[00:00:25 -45314.719192] AUTODETECT spr round 2 (radius: 10)
[00:00:52 -33423.014412] AUTODETECT spr round 3 (radius: 15)
[00:01:39 -31569.346924] AUTODETECT spr round 4 (radius: 20)
[00:02:34 -31542.980666] AUTODETECT spr round 5 (radius: 25)
[00:03:23 -31542.977728] SPR radius for FAST iterations: 20 (autodetect)
[00:03:23 -31542.977728] Model parameter optimization (eps = 3.000000)
[00:03:24 -31538.069682] FAST spr round 1 (radius: 20)
[00:03:50 -29076.259122] FAST spr round 2 (radius: 20)
[00:04:13 -28999.535384] FAST spr round 3 (radius: 20)
[00:04:30 -28991.085280] FAST spr round 4 (radius: 20)
[00:04:44 -28986.938058] FAST spr round 5 (radius: 20)
[00:04:58 -28986.937897] Model parameter optimization (eps = 1.000000)
[00:04:59 -28986.559636] SLOW spr round 1 (radius: 5)
[00:05:35 -28972.239264] SLOW spr round 2 (radius: 5)
[00:06:06 -28969.942951] SLOW spr round 3 (radius: 5)
[00:06:36 -28969.942909] SLOW spr round 4 (radius: 10)
[00:07:06 -28969.942909] SLOW spr round 5 (radius: 15)
[00:08:11 -28969.942909] SLOW spr round 6 (radius: 20)
[00:08:48] [worker #3] ML tree search #4, logLikelihood: -28976.837823
[00:09:00] [worker #2] ML tree search #3, logLikelihood: -28966.616918
[00:09:01] [worker #4] ML tree search #5, logLikelihood: -28982.423988
[00:09:29 -28969.942909] SLOW spr round 7 (radius: 25)
[00:09:46] [worker #5] ML tree search #6, logLikelihood: -28975.151085
[00:10:25 -28969.942909] Model parameter optimization (eps = 0.100000)

[00:10:26] [worker #0] ML tree search #1, logLikelihood: -28969.938766

[00:10:26 -77327.561996] Initial branch length optimization
[00:10:27 -68146.013272] Model parameter optimization (eps = 10.000000)
[00:10:28 -67945.807943] AUTODETECT spr round 1 (radius: 5)
[00:10:49 -45723.005876] AUTODETECT spr round 2 (radius: 10)
[00:11:19 -32648.911047] AUTODETECT spr round 3 (radius: 15)
[00:11:48] [worker #1] ML tree search #2, logLikelihood: -28971.681216
[00:11:55 -31522.137564] AUTODETECT spr round 4 (radius: 20)
[00:12:50 -31420.235680] AUTODETECT spr round 5 (radius: 25)
[00:13:28 -31420.207681] SPR radius for FAST iterations: 20 (autodetect)
[00:13:28 -31420.207681] Model parameter optimization (eps = 3.000000)
[00:13:28 -31419.353957] FAST spr round 1 (radius: 20)
[00:13:54 -29158.508209] FAST spr round 2 (radius: 20)
[00:14:17 -28998.202163] FAST spr round 3 (radius: 20)
[00:14:33 -28987.491698] FAST spr round 4 (radius: 20)
[00:14:47 -28987.491622] Model parameter optimization (eps = 1.000000)
[00:14:48 -28986.425809] SLOW spr round 1 (radius: 5)
[00:15:24 -28977.339357] SLOW spr round 2 (radius: 5)
[00:15:47] [worker #4] ML tree search #11, logLikelihood: -28981.923808
[00:15:55 -28976.535140] SLOW spr round 3 (radius: 5)
[00:16:24 -28976.535040] SLOW spr round 4 (radius: 10)
[00:16:34] [worker #5] ML tree search #12, logLikelihood: -28977.412289
[00:16:54 -28976.535038] SLOW spr round 5 (radius: 15)
[00:17:38] [worker #2] ML tree search #9, logLikelihood: -28971.710364
[00:17:55 -28976.535038] SLOW spr round 6 (radius: 20)
[00:18:17] [worker #3] ML tree search #10, logLikelihood: -28973.568360
[00:19:06 -28976.535038] SLOW spr round 7 (radius: 25)
[00:20:08 -28976.535038] Model parameter optimization (eps = 0.100000)

[00:20:08] [worker #0] ML tree search #7, logLikelihood: -28976.529217

[00:20:08 -32745.117931] Initial branch length optimization
[00:20:09 -29329.555364] Model parameter optimization (eps = 10.000000)
[00:20:10 -29279.156514] AUTODETECT spr round 1 (radius: 5)
[00:20:25 -29023.614069] AUTODETECT spr round 2 (radius: 10)
[00:20:54 -29015.848215] AUTODETECT spr round 3 (radius: 15)
[00:21:23] [worker #1] ML tree search #8, logLikelihood: -28970.214764
[00:21:40 -29015.844889] SPR radius for FAST iterations: 10 (autodetect)
[00:21:40 -29015.844889] Model parameter optimization (eps = 3.000000)
[00:21:40 -29015.211717] FAST spr round 1 (radius: 10)
[00:21:59 -28987.958291] FAST spr round 2 (radius: 10)
[00:22:14 -28980.501173] FAST spr round 3 (radius: 10)
[00:22:23] [worker #4] ML tree search #17, logLikelihood: -28975.192814
[00:22:28 -28979.700586] FAST spr round 4 (radius: 10)
[00:22:42 -28979.700571] Model parameter optimization (eps = 1.000000)
[00:22:42 -28979.697118] SLOW spr round 1 (radius: 5)
[00:23:17 -28974.906162] SLOW spr round 2 (radius: 5)
[00:23:46 -28974.906106] SLOW spr round 3 (radius: 10)
[00:24:17 -28974.906105] SLOW spr round 4 (radius: 15)
[00:24:33] [worker #2] ML tree search #15, logLikelihood: -28974.103055
[00:24:56] [worker #5] ML tree search #18, logLikelihood: -28970.355385
[00:25:15] [worker #3] ML tree search #16, logLikelihood: -28982.293366
[00:25:20 -28974.906105] SLOW spr round 5 (radius: 20)
[00:26:33 -28974.906105] SLOW spr round 6 (radius: 25)
[00:27:27 -28974.906105] Model parameter optimization (eps = 0.100000)

[00:27:27] [worker #0] ML tree search #13, logLikelihood: -28974.906105

[00:27:27 -32739.891248] Initial branch length optimization
[00:27:28 -29272.042784] Model parameter optimization (eps = 10.000000)
[00:27:29 -29227.743637] AUTODETECT spr round 1 (radius: 5)
[00:27:43 -28996.513453] AUTODETECT spr round 2 (radius: 10)
[00:28:04] [worker #1] ML tree search #14, logLikelihood: -28984.087988
[00:28:10 -28996.511099] SPR radius for FAST iterations: 5 (autodetect)
[00:28:10 -28996.511099] Model parameter optimization (eps = 3.000000)
[00:28:10 -28996.335966] FAST spr round 1 (radius: 5)
[00:28:25 -28988.047717] FAST spr round 2 (radius: 5)
[00:28:39 -28987.614856] FAST spr round 3 (radius: 5)
[00:28:52 -28987.614446] Model parameter optimization (eps = 1.000000)
[00:28:52 -28987.559424] SLOW spr round 1 (radius: 5)
[00:29:28 -28978.084793] SLOW spr round 2 (radius: 5)
[00:29:58 -28976.330717] SLOW spr round 3 (radius: 5)
[00:30:26 -28976.330466] SLOW spr round 4 (radius: 10)
[00:30:55 -28976.330461] SLOW spr round 5 (radius: 15)
[00:31:57 -28976.330461] SLOW spr round 6 (radius: 20)
[00:33:06 -28976.330461] SLOW spr round 7 (radius: 25)
[00:34:00 -28976.330461] Model parameter optimization (eps = 0.100000)

[00:34:01] [worker #0] ML tree search #19, logLikelihood: -28976.277716

[00:35:29] [worker #1] ML tree search #20, logLikelihood: -28968.753047

Optimized model parameters:

   Partition 0: noname
   Rate heterogeneity: GAMMA (4 cats, mean),  alpha: 0.711213 (ML),  weights&rates: (0.250000,0.076585) (0.250000,0.368773) (0.250000,0.928954) (0.250000,2.625689) 
   Base frequencies (model): 0.079066 0.055941 0.041977 0.053052 0.012937 0.040767 0.071586 0.057337 0.022355 0.062157 0.099081 0.064600 0.022951 0.042302 0.044040 0.061197 0.053287 0.012066 0.034155 0.069147 
   Substitution rates (model): 0.425093 0.276818 0.395144 2.489084 0.969894 1.038545 2.066040 0.358858 0.149830 0.395337 0.536518 1.124035 0.253701 1.177651 4.727182 2.139501 0.180717 0.218959 2.547870 0.751878 0.123954 0.534551 2.807908 0.363970 0.390192 2.426601 0.126991 0.301848 6.326067 0.484133 0.052722 0.332533 0.858151 0.578987 0.593607 0.314440 0.170887 5.076149 0.528768 1.695752 0.541712 1.437645 4.509238 0.191503 0.068427 2.145078 0.371004 0.089525 0.161787 4.008358 2.000679 0.045376 0.612025 0.083688 0.062556 0.523386 5.243870 0.844926 0.927114 0.010690 0.015076 0.282959 0.025548 0.017416 0.394456 1.240275 0.425860 0.029890 0.135107 0.037967 0.084808 0.003499 0.569265 0.640543 0.320627 0.594007 0.013266 0.893680 1.105251 0.075382 2.784478 1.143480 0.670128 1.165532 1.959291 4.128591 0.267959 4.813505 0.072854 0.582457 3.234294 1.672569 0.035855 0.624294 1.223828 1.080136 0.236199 0.257336 0.210332 0.348847 0.423881 0.044265 0.069673 1.807177 0.173735 0.018811 0.419409 0.611973 0.604545 0.077852 0.120037 0.245034 0.311484 0.008705 0.044261 0.296636 0.139538 0.089586 0.196961 1.739990 0.129836 0.268491 0.054679 0.076701 0.108882 0.366317 0.697264 0.442472 0.682139 0.508851 0.990012 0.584262 0.597054 5.306834 0.119013 4.145067 0.159069 4.273607 1.112727 0.078281 0.064105 1.033739 0.111660 0.232523 10.649107 0.137500 6.312358 2.592692 0.249060 0.182287 0.302936 0.619632 0.299648 1.702745 0.656604 0.023918 0.390322 0.748683 1.136863 0.049906 0.131932 0.185202 1.798853 0.099849 0.346960 2.020366 0.696175 0.481306 1.898718 0.094464 0.361819 0.165001 2.457121 7.803902 0.654683 1.338132 0.571468 0.095131 0.089613 0.296501 6.472279 0.248862 0.400547 0.098369 0.140825 0.245841 2.188158 3.151815 0.189510 0.249313 


Final LogLikelihood: -28966.616918

AIC score: 58929.233837 / AICc score: 555933.233837 / BIC score: 60692.783082
Free parameters (model + branch lengths): 498

WARNING: Number of free parameters (K=498) is larger than alignment size (n=255).
         This might lead to overfitting and compromise tree inference results!


WARNING: Best ML tree contains 25 near-zero branches!

Best ML tree with collapsed near-zero branches saved to: /home/dutheil/Data/WhiteNoseSyndrome/Phylogenomics/Phylogenies_raxml/jgi|Pseudest1|4239|VC83_07483T0/jgi|Pseudest1|4239|VC83_07483T0.raxml.bestTreeCollapsed
Best ML tree saved to: /home/dutheil/Data/WhiteNoseSyndrome/Phylogenomics/Phylogenies_raxml/jgi|Pseudest1|4239|VC83_07483T0/jgi|Pseudest1|4239|VC83_07483T0.raxml.bestTree
All ML trees saved to: /home/dutheil/Data/WhiteNoseSyndrome/Phylogenomics/Phylogenies_raxml/jgi|Pseudest1|4239|VC83_07483T0/jgi|Pseudest1|4239|VC83_07483T0.raxml.mlTrees
Optimized model saved to: /home/dutheil/Data/WhiteNoseSyndrome/Phylogenomics/Phylogenies_raxml/jgi|Pseudest1|4239|VC83_07483T0/jgi|Pseudest1|4239|VC83_07483T0.raxml.bestModel

Execution log saved to: /home/dutheil/Data/WhiteNoseSyndrome/Phylogenomics/Phylogenies_raxml/jgi|Pseudest1|4239|VC83_07483T0/jgi|Pseudest1|4239|VC83_07483T0.raxml.log

Analysis started: 06-Oct-2020 21:16:41 / finished: 06-Oct-2020 21:52:10

Elapsed time: 2129.195 seconds

Consumed energy: 163.211 Wh

