
RAxML-NG v. 1.0.1 released on 19.09.2020 by The Exelixis Lab.
Developed by: Alexey M. Kozlov and Alexandros Stamatakis.
Contributors: Diego Darriba, Tomas Flouri, Benoit Morel, Sarah Lutteropp, Ben Bettisworth.
Latest version: https://github.com/amkozlov/raxml-ng
Questions/problems/suggestions? Please visit: https://groups.google.com/forum/#!forum/raxml

System: Intel(R) Xeon(R) CPU E5-2683 v4 @ 2.10GHz, 32 cores, 503 GB RAM

RAxML-NG was called at 06-Oct-2020 20:24:49 as follows:

./raxml-ng --threads 6 --msa Alignments_filtered_renamed/jgi|Pseudest1|3280|VC83_06702T0.aln_filtered_renamed.fasta --model LG+G --prefix Phylogenies_raxml/jgi|Pseudest1|3280|VC83_06702T0/jgi|Pseudest1|3280|VC83_06702T0 --seed 192

Analysis options:
  run mode: ML tree search
  start tree(s): random (10) + parsimony (10)
  random seed: 192
  tip-inner: OFF
  pattern compression: ON
  per-rate scalers: OFF
  site repeats: ON
  fast spr radius: AUTO
  spr subtree cutoff: 1.000000
  branch lengths: proportional (ML estimate, algorithm: NR-FAST)
  SIMD kernels: AVX2
  parallelization: coarse-grained (auto), PTHREADS (6 threads), thread pinning: OFF

[00:00:00] Reading alignment from file: Alignments_filtered_renamed/jgi|Pseudest1|3280|VC83_06702T0.aln_filtered_renamed.fasta
[00:00:00] Loaded alignment with 250 taxa and 206 sites

WARNING: Sequences taxon68 and taxon69 are exactly identical!
WARNING: Sequences taxon249 and taxon247 are exactly identical!
WARNING: Sequences taxon249 and taxon246 are exactly identical!
WARNING: Sequences taxon249 and taxon248 are exactly identical!
WARNING: Sequences taxon88 and taxon90 are exactly identical!
WARNING: Sequences taxon119 and taxon120 are exactly identical!
WARNING: Sequences taxon121 and taxon122 are exactly identical!
WARNING: Sequences taxon189 and taxon190 are exactly identical!
WARNING: Sequences taxon48 and taxon56 are exactly identical!
WARNING: Sequences taxon26 and taxon54 are exactly identical!
WARNING: Sequences taxon26 and taxon57 are exactly identical!
WARNING: Sequences taxon4 and taxon19 are exactly identical!
WARNING: Sequences taxon4 and taxon5 are exactly identical!
WARNING: Sequences taxon4 and taxon9 are exactly identical!
WARNING: Sequences taxon46 and taxon30 are exactly identical!
WARNING: Sequences taxon38 and taxon51 are exactly identical!
WARNING: Sequences taxon10 and taxon50 are exactly identical!
WARNING: Sequences taxon15 and taxon18 are exactly identical!
WARNING: Sequences taxon15 and taxon29 are exactly identical!
WARNING: Sequences taxon15 and taxon32 are exactly identical!
WARNING: Sequences taxon15 and taxon40 are exactly identical!
WARNING: Sequences taxon15 and taxon52 are exactly identical!
WARNING: Sequences taxon15 and taxon53 are exactly identical!
WARNING: Sequences taxon15 and taxon55 are exactly identical!
WARNING: Sequences taxon33 and taxon34 are exactly identical!
WARNING: Sequences taxon33 and taxon39 are exactly identical!
WARNING: Sequences taxon33 and taxon58 are exactly identical!
WARNING: Sequences taxon73 and taxon74 are exactly identical!
WARNING: Sequences taxon73 and taxon77 are exactly identical!
WARNING: Sequences taxon73 and taxon72 are exactly identical!
WARNING: Sequences taxon215 and taxon216 are exactly identical!
WARNING: Sequences taxon223 and taxon224 are exactly identical!
WARNING: Sequences taxon126 and taxon132 are exactly identical!
WARNING: Sequences taxon140 and taxon142 are exactly identical!
WARNING: Sequences taxon124 and taxon131 are exactly identical!
WARNING: Sequences taxon124 and taxon133 are exactly identical!
WARNING: Sequences taxon124 and taxon135 are exactly identical!
WARNING: Sequences taxon124 and taxon137 are exactly identical!
WARNING: Sequences taxon124 and taxon138 are exactly identical!
WARNING: Sequences taxon124 and taxon139 are exactly identical!
WARNING: Sequences taxon124 and taxon141 are exactly identical!
WARNING: Sequences taxon124 and taxon144 are exactly identical!
WARNING: Sequences taxon124 and taxon145 are exactly identical!
WARNING: Sequences taxon124 and taxon125 are exactly identical!
WARNING: Sequences taxon124 and taxon129 are exactly identical!
WARNING: Sequences taxon124 and taxon130 are exactly identical!
WARNING: Sequences taxon124 and taxon136 are exactly identical!
WARNING: Sequences taxon96 and taxon99 are exactly identical!
WARNING: Sequences taxon95 and taxon97 are exactly identical!
WARNING: Sequences taxon239 and taxon240 are exactly identical!
WARNING: Duplicate sequences found: 50

NOTE: Reduced alignment (with duplicates and gap-only sites/taxa removed) 
NOTE: was saved to: /home/dutheil/Data/WhiteNoseSyndrome/Phylogenomics/Phylogenies_raxml/jgi|Pseudest1|3280|VC83_06702T0/jgi|Pseudest1|3280|VC83_06702T0.raxml.reduced.phy

Alignment comprises 1 partitions and 188 patterns

Partition 0: noname
Model: LG+G4m
Alignment sites / patterns: 206 / 188
Gaps: 0.61 %
Invariant sites: 16.02 %


NOTE: Binary MSA file created: Phylogenies_raxml/jgi|Pseudest1|3280|VC83_06702T0/jgi|Pseudest1|3280|VC83_06702T0.raxml.rba

Parallelization scheme autoconfig: 6 worker(s) x 1 thread(s)

Parallel reduction/worker buffer size: 1 KB  / 0 KB

[00:00:00] Generating 10 random starting tree(s) with 250 taxa
[00:00:00] Generating 10 parsimony starting tree(s) with 250 taxa
[00:00:00] Data distribution: max. partitions/sites/weight per thread: 1 / 188 / 15040
[00:00:00] Data distribution: max. searches per worker: 4

Starting ML tree search with 20 distinct starting trees

[00:00:00 -47905.068662] Initial branch length optimization
[00:00:01 -41908.327719] Model parameter optimization (eps = 10.000000)
[00:00:02 -41511.788974] AUTODETECT spr round 1 (radius: 5)
[00:00:17 -25286.503482] AUTODETECT spr round 2 (radius: 10)
[00:00:38 -18573.392454] AUTODETECT spr round 3 (radius: 15)
[00:01:06 -16801.985255] AUTODETECT spr round 4 (radius: 20)
[00:01:36 -16684.137511] AUTODETECT spr round 5 (radius: 25)
[00:02:07 -16684.136997] SPR radius for FAST iterations: 20 (autodetect)
[00:02:07 -16684.136997] Model parameter optimization (eps = 3.000000)
[00:02:08 -16670.041836] FAST spr round 1 (radius: 20)
[00:02:24 -15611.368092] FAST spr round 2 (radius: 20)
[00:02:38 -15512.772289] FAST spr round 3 (radius: 20)
[00:02:50 -15507.830217] FAST spr round 4 (radius: 20)
[00:03:01 -15503.974812] FAST spr round 5 (radius: 20)
[00:03:12 -15503.974810] Model parameter optimization (eps = 1.000000)
[00:03:12 -15503.816403] SLOW spr round 1 (radius: 5)
[00:03:33 -15502.958242] SLOW spr round 2 (radius: 5)
[00:03:52 -15502.958128] SLOW spr round 3 (radius: 10)
[00:04:13 -15502.958125] SLOW spr round 4 (radius: 15)
[00:04:52 -15502.958124] SLOW spr round 5 (radius: 20)
[00:05:34 -15502.958124] SLOW spr round 6 (radius: 25)
[00:06:00] [worker #1] ML tree search #2, logLikelihood: -15512.869142
[00:06:08] [worker #5] ML tree search #6, logLikelihood: -15503.141484
[00:06:13 -15502.958124] Model parameter optimization (eps = 0.100000)

[00:06:13] [worker #0] ML tree search #1, logLikelihood: -15502.955677

[00:06:13 -48026.874807] Initial branch length optimization
[00:06:14 -42503.402835] Model parameter optimization (eps = 10.000000)
[00:06:15 -42121.006801] AUTODETECT spr round 1 (radius: 5)
[00:06:20] [worker #4] ML tree search #5, logLikelihood: -15505.971998
[00:06:27] [worker #3] ML tree search #4, logLikelihood: -15503.189192
[00:06:30 -27073.657367] AUTODETECT spr round 2 (radius: 10)
[00:06:51 -19798.750442] AUTODETECT spr round 3 (radius: 15)
[00:06:59] [worker #2] ML tree search #3, logLikelihood: -15508.198444
[00:07:18 -17473.123468] AUTODETECT spr round 4 (radius: 20)
[00:07:47 -17192.256510] AUTODETECT spr round 5 (radius: 25)
[00:08:16 -17161.680992] SPR radius for FAST iterations: 25 (autodetect)
[00:08:16 -17161.680992] Model parameter optimization (eps = 3.000000)
[00:08:17 -17152.765336] FAST spr round 1 (radius: 25)
[00:08:33 -15756.442336] FAST spr round 2 (radius: 25)
[00:08:49 -15547.534565] FAST spr round 3 (radius: 25)
[00:09:01 -15536.473239] FAST spr round 4 (radius: 25)
[00:09:12 -15536.473231] Model parameter optimization (eps = 1.000000)
[00:09:12 -15536.458119] SLOW spr round 1 (radius: 5)
[00:09:34 -15525.852601] SLOW spr round 2 (radius: 5)
[00:09:56 -15520.592656] SLOW spr round 3 (radius: 5)
[00:10:16 -15520.592530] SLOW spr round 4 (radius: 10)
[00:10:36 -15514.827696] SLOW spr round 5 (radius: 5)
[00:11:11 -15508.902471] SLOW spr round 6 (radius: 5)
[00:11:36 -15508.902457] SLOW spr round 7 (radius: 10)
[00:11:45] [worker #4] ML tree search #11, logLikelihood: -15504.832216
[00:11:51] [worker #1] ML tree search #8, logLikelihood: -15512.756257
[00:11:57 -15508.902457] SLOW spr round 8 (radius: 15)
[00:12:14] [worker #5] ML tree search #12, logLikelihood: -15500.312851
[00:12:32 -15508.902457] SLOW spr round 9 (radius: 20)
[00:12:35] [worker #3] ML tree search #10, logLikelihood: -15517.441188
[00:13:13 -15508.902457] SLOW spr round 10 (radius: 25)
[00:13:23] [worker #2] ML tree search #9, logLikelihood: -15506.460384
[00:13:52 -15508.902457] Model parameter optimization (eps = 0.100000)

[00:13:53] [worker #0] ML tree search #7, logLikelihood: -15508.881053

[00:13:53 -18339.560665] Initial branch length optimization
[00:13:53 -15762.587232] Model parameter optimization (eps = 10.000000)
[00:13:54 -15727.946084] AUTODETECT spr round 1 (radius: 5)
[00:14:05 -15561.316939] AUTODETECT spr round 2 (radius: 10)
[00:14:24 -15558.332659] AUTODETECT spr round 3 (radius: 15)
[00:14:50 -15558.325952] SPR radius for FAST iterations: 10 (autodetect)
[00:14:50 -15558.325952] Model parameter optimization (eps = 3.000000)
[00:14:50 -15557.171931] FAST spr round 1 (radius: 10)
[00:15:05 -15522.459762] FAST spr round 2 (radius: 10)
[00:15:15 -15521.709202] FAST spr round 3 (radius: 10)
[00:15:25 -15521.709201] Model parameter optimization (eps = 1.000000)
[00:15:25 -15521.706605] SLOW spr round 1 (radius: 5)
[00:15:46 -15515.547716] SLOW spr round 2 (radius: 5)
[00:16:06 -15511.351725] SLOW spr round 3 (radius: 5)
[00:16:23] [worker #1] ML tree search #14, logLikelihood: -15522.705046
[00:16:25 -15511.351652] SLOW spr round 4 (radius: 10)
[00:16:32] [worker #4] ML tree search #17, logLikelihood: -15514.188286
[00:16:44 -15511.351594] SLOW spr round 5 (radius: 15)
[00:16:59] [worker #3] ML tree search #16, logLikelihood: -15518.815462
[00:17:18 -15511.351594] SLOW spr round 6 (radius: 20)
[00:17:20] [worker #5] ML tree search #18, logLikelihood: -15515.681456
[00:17:58 -15511.351594] SLOW spr round 7 (radius: 25)
[00:18:10] [worker #2] ML tree search #15, logLikelihood: -15508.227059
[00:18:39 -15511.351594] Model parameter optimization (eps = 0.100000)

[00:18:39] [worker #0] ML tree search #13, logLikelihood: -15511.343632

[00:18:39 -18321.768263] Initial branch length optimization
[00:18:40 -15803.940288] Model parameter optimization (eps = 10.000000)
[00:18:40 -15769.906953] AUTODETECT spr round 1 (radius: 5)
[00:18:51 -15564.366204] AUTODETECT spr round 2 (radius: 10)
[00:19:11 -15562.624015] AUTODETECT spr round 3 (radius: 15)
[00:19:39 -15562.623584] SPR radius for FAST iterations: 10 (autodetect)
[00:19:39 -15562.623584] Model parameter optimization (eps = 3.000000)
[00:19:39 -15561.660782] FAST spr round 1 (radius: 10)
[00:19:51 -15532.069141] FAST spr round 2 (radius: 10)
[00:20:01 -15532.068965] Model parameter optimization (eps = 1.000000)
[00:20:01 -15532.063140] SLOW spr round 1 (radius: 5)
[00:20:21 -15521.321592] SLOW spr round 2 (radius: 5)
[00:20:23] [worker #1] ML tree search #20, logLikelihood: -15502.842821
[00:20:41 -15518.660256] SLOW spr round 3 (radius: 5)
[00:20:59 -15518.660014] SLOW spr round 4 (radius: 10)
[00:21:18 -15518.660000] SLOW spr round 5 (radius: 15)
[00:21:52 -15518.659999] SLOW spr round 6 (radius: 20)
[00:22:31 -15518.659999] SLOW spr round 7 (radius: 25)
[00:23:10 -15518.659999] Model parameter optimization (eps = 0.100000)

[00:23:10] [worker #0] ML tree search #19, logLikelihood: -15518.640228


Optimized model parameters:

   Partition 0: noname
   Rate heterogeneity: GAMMA (4 cats, mean),  alpha: 0.648946 (ML),  weights&rates: (0.250000,0.063335) (0.250000,0.338411) (0.250000,0.904373) (0.250000,2.693880) 
   Base frequencies (model): 0.079066 0.055941 0.041977 0.053052 0.012937 0.040767 0.071586 0.057337 0.022355 0.062157 0.099081 0.064600 0.022951 0.042302 0.044040 0.061197 0.053287 0.012066 0.034155 0.069147 
   Substitution rates (model): 0.425093 0.276818 0.395144 2.489084 0.969894 1.038545 2.066040 0.358858 0.149830 0.395337 0.536518 1.124035 0.253701 1.177651 4.727182 2.139501 0.180717 0.218959 2.547870 0.751878 0.123954 0.534551 2.807908 0.363970 0.390192 2.426601 0.126991 0.301848 6.326067 0.484133 0.052722 0.332533 0.858151 0.578987 0.593607 0.314440 0.170887 5.076149 0.528768 1.695752 0.541712 1.437645 4.509238 0.191503 0.068427 2.145078 0.371004 0.089525 0.161787 4.008358 2.000679 0.045376 0.612025 0.083688 0.062556 0.523386 5.243870 0.844926 0.927114 0.010690 0.015076 0.282959 0.025548 0.017416 0.394456 1.240275 0.425860 0.029890 0.135107 0.037967 0.084808 0.003499 0.569265 0.640543 0.320627 0.594007 0.013266 0.893680 1.105251 0.075382 2.784478 1.143480 0.670128 1.165532 1.959291 4.128591 0.267959 4.813505 0.072854 0.582457 3.234294 1.672569 0.035855 0.624294 1.223828 1.080136 0.236199 0.257336 0.210332 0.348847 0.423881 0.044265 0.069673 1.807177 0.173735 0.018811 0.419409 0.611973 0.604545 0.077852 0.120037 0.245034 0.311484 0.008705 0.044261 0.296636 0.139538 0.089586 0.196961 1.739990 0.129836 0.268491 0.054679 0.076701 0.108882 0.366317 0.697264 0.442472 0.682139 0.508851 0.990012 0.584262 0.597054 5.306834 0.119013 4.145067 0.159069 4.273607 1.112727 0.078281 0.064105 1.033739 0.111660 0.232523 10.649107 0.137500 6.312358 2.592692 0.249060 0.182287 0.302936 0.619632 0.299648 1.702745 0.656604 0.023918 0.390322 0.748683 1.136863 0.049906 0.131932 0.185202 1.798853 0.099849 0.346960 2.020366 0.696175 0.481306 1.898718 0.094464 0.361819 0.165001 2.457121 7.803902 0.654683 1.338132 0.571468 0.095131 0.089613 0.296501 6.472279 0.248862 0.400547 0.098369 0.140825 0.245841 2.188158 3.151815 0.189510 0.249313 


Final LogLikelihood: -15500.312851

AIC score: 31996.625702 / AICc score: 529000.625702 / BIC score: 33653.908034
Free parameters (model + branch lengths): 498

WARNING: Number of free parameters (K=498) is larger than alignment size (n=206).
         This might lead to overfitting and compromise tree inference results!


WARNING: Best ML tree contains 52 near-zero branches!

Best ML tree with collapsed near-zero branches saved to: /home/dutheil/Data/WhiteNoseSyndrome/Phylogenomics/Phylogenies_raxml/jgi|Pseudest1|3280|VC83_06702T0/jgi|Pseudest1|3280|VC83_06702T0.raxml.bestTreeCollapsed
Best ML tree saved to: /home/dutheil/Data/WhiteNoseSyndrome/Phylogenomics/Phylogenies_raxml/jgi|Pseudest1|3280|VC83_06702T0/jgi|Pseudest1|3280|VC83_06702T0.raxml.bestTree
All ML trees saved to: /home/dutheil/Data/WhiteNoseSyndrome/Phylogenomics/Phylogenies_raxml/jgi|Pseudest1|3280|VC83_06702T0/jgi|Pseudest1|3280|VC83_06702T0.raxml.mlTrees
Optimized model saved to: /home/dutheil/Data/WhiteNoseSyndrome/Phylogenomics/Phylogenies_raxml/jgi|Pseudest1|3280|VC83_06702T0/jgi|Pseudest1|3280|VC83_06702T0.raxml.bestModel

Execution log saved to: /home/dutheil/Data/WhiteNoseSyndrome/Phylogenomics/Phylogenies_raxml/jgi|Pseudest1|3280|VC83_06702T0/jgi|Pseudest1|3280|VC83_06702T0.raxml.log

Analysis started: 06-Oct-2020 20:24:49 / finished: 06-Oct-2020 20:47:59

Elapsed time: 1390.486 seconds

Consumed energy: 107.734 Wh

