Site	ColumnScore	SumOfPairsScore
1	0	1
2	0	1
3	0	1
4	0	1
5	0	1
6	0	1
7	0	1
8	0	1
9	0	1
10	0	1
11	0	1
12	0	1
13	0	1
14	0	1
15	0	1
16	0	1
17	0	1
18	0	1
19	0	1
20	0	1
21	0	1
22	0	1
23	0	1
24	0	1
25	0	1
26	0	1
27	0	1
28	0	1
29	0	1
30	0	1
31	0	1
32	0	1
33	0	1
34	0	1
35	0	1
36	0	1
37	0	1
38	0	1
39	0	1
40	0	1
41	0	1
42	0	1
43	0	1
44	0	1
45	0	1
46	0	1
47	0	1
48	0	1
49	0	1
50	0	1
51	0	1
52	0	1
53	0	1
54	0	1
55	0	1
56	0	1
57	0	1
58	0	1
59	0	1
60	0	1
61	0	1
62	0	1
63	0	1
64	0	1
65	0	1
66	0	1
67	0	1
68	0	1
69	0	1
70	0	1
71	0	1
72	0	1
73	0	1
74	0	1
75	0	1
76	0	1
77	0	1
78	0	1
79	0	1
80	0	1
81	0	1
82	0	1
83	0	1
84	0	1
85	0	1
86	0	1
87	0	1
88	0	1
89	0	1
90	0	1
91	0	1
92	0	1
93	0	1
94	0	1
95	0	1
96	0	1
97	0	1
98	0	1
99	0	1
100	0	1
101	0	1
102	0	1
103	0	1
104	0	1
105	0	1
106	0	1
107	0	1
108	0	1
109	0	1
110	0	1
111	0	1
112	0	1
113	0	1
114	0	1
115	0	1
116	0	1
117	0	1
118	0	1
119	0	1
120	0	1
121	0	1
122	0	1
123	0	1
124	0	1
125	0	1
126	0	1
127	0	1
128	0	1
129	0	1
130	0	1
131	0	1
132	0	1
133	0	1
134	0	1
135	0	1
136	0	1
137	0	1
138	0	1
139	0	1
140	0	1
141	0	1
142	0	1
143	0	1
144	0	1
145	0	1
146	0	1
147	0	1
148	0	1
149	0	1
150	0	1
151	0	1
152	0	1
153	0	1
154	0	1
155	0	1
156	0	1
157	0	1
158	0	1
159	0	1
160	0	1
161	0	1
162	0	1
163	0	1
164	0	1
165	0	1
166	0	1
167	0	1
168	0	1
169	0	1
170	0	1
171	0	1
172	0	1
173	0	1
174	0	1
175	0	1
176	0	1
177	0	1
178	0	1
179	0	1
180	0	1
181	0	1
182	0	1
183	0	1
184	0	1
185	0	1
186	0	1
187	0	1
188	0	1
189	0	1
190	0	1
191	0	1
192	0	1
193	0	1
194	0	1
195	0	1
196	0	1
197	0	1
198	0	1
199	0	1
200	0	1
201	0	1
202	0	1
203	0	1
204	0	1
205	0	1
206	0	1
207	0	1
208	0	1
209	0	1
210	0	1
211	0	1
212	0	1
213	0	1
214	0	1
215	0	1
216	0	1
217	0	1
218	0	1
219	0	1
220	0	1
221	0	1
222	0	1
223	0	1
224	0	1
225	0	1
226	0	1
227	0	1
228	0	1
229	0	1
230	0	1
231	0	1
232	0	1
233	0	1
234	0	1
235	0	1
236	0	1
237	0	1
238	0	1
239	0	1
240	0	1
241	0	1
242	0	1
243	0	1
244	0	1
245	0	1
246	0	1
247	0	1
248	0	1
249	0	1
250	0	1
251	0	1
252	0	1
253	0	1
254	0	1
255	0	1
256	0	1
257	0	1
258	0	1
259	0	1
260	0	1
261	0	1
262	0	1
263	0	1
264	0	1
265	0	1
266	0	1
267	0	1
268	0	1
269	0	1
270	0	1
271	0	1
272	0	1
273	0	1
274	0	1
275	0	1
276	0	1
277	0	1
278	0	1
279	0	1
280	0	1
281	0	1
282	0	1
283	0	1
284	0	1
285	0	1
286	0	1
287	0	1
288	0	1
289	0	1
290	0	1
291	0	1
292	0	1
293	0	1
294	0	1
295	0	1
296	0	1
297	0	1
298	0	1
299	0	1
300	0	1
301	0	1
302	0	1
303	0	1
304	0	1
305	0	1
306	0	1
307	0	1
308	0	1
309	0	1
310	0	1
311	0	1
312	0	1
313	0	1
314	0	1
315	0	1
316	0	1
317	0	1
318	0	1
319	0	1
320	0	1
321	0	1
322	0	1
323	0	1
324	0	1
325	0	1
326	0	1
327	0	1
328	0	1
329	0	1
330	0	1
331	0	1
332	0	1
333	0	1
334	0	1
335	0	1
336	0	1
337	0	1
338	0	1
339	0	1
340	0	1
341	0	1
342	0	1
343	0	1
344	0	1
345	0	1
346	0	1
347	0	1
348	0	1
349	0	1
350	0	1
351	0	1
352	0	1
353	0	1
354	0	1
355	0	1
356	0	1
357	0	1
358	0	1
359	0	1
360	0	1
361	1	1
362	1	1
363	1	1
364	0	1
365	0	1
366	0	1
367	0	1
368	0	1
369	0	1
370	0	1
371	0	1
372	0	1
373	0	1
374	0	1
375	0	1
376	0	1
377	0	1
378	0	1
379	0	1
380	0	1
381	0	1
382	0	1
383	0	1
384	0	1
385	0	1
386	0	1
387	0	1
388	0	1
389	0	1
390	0	1
391	0	1
392	0	1
393	0	1
394	0	1
395	0	1
396	0	1
397	0	1
398	0	1
399	0	1
400	0	1
401	0	1
402	0	1
403	0	1
404	0	1
405	0	1
406	0	1
407	0	1
408	0	1
409	0	1
410	0	1
411	0	1
412	0	1
413	0	1
414	0	1
415	0	1
416	0	1
417	0	1
418	0	1
419	0	1
420	0	1
421	0	1
422	0	1
423	0	1
424	0	1
425	0	1
426	0	1
427	0	1
428	0	1
429	0	1
430	0	1
431	0	1
432	0	1
433	0	1
434	0	1
435	0	1
436	0	1
437	0	1
438	0	1
439	0	1
440	0	1
441	0	1
442	0	1
443	0	1
444	0	1
445	0	1
446	0	1
447	0	1
448	0	1
449	0	1
450	0	1
451	0	1
452	0	1
453	0	1
454	0	1
455	0	1
456	0	1
457	0	1
458	0	1
459	0	1
460	0	1
461	0	1
462	0	1
463	0	1
464	0	1
465	0	1
466	0	1
467	0	1
468	0	1
469	0	1
470	0	1
471	0	1
472	0	1
473	0	1
474	0	1
475	0	1
476	0	1
477	0	1
478	0	1
479	0	1
480	0	1
481	0	1
482	0	1
483	0	1
484	0	1
485	0	1
486	0	1
487	0	1
488	0	1
489	0	1
490	0	1
491	0	1
492	0	1
493	0	1
494	0	1
495	0	1
496	0	1
497	0	1
498	0	1
499	0	1
500	0	1
501	0	1
502	0	1
503	0	1
504	0	1
505	0	1
506	0	1
507	0	1
508	0	1
509	0	1
510	0	1
511	0	1
512	0	1
513	0	1
514	0	1
515	0	1
516	0	1
517	0	1
518	0	1
519	0	1
520	0	1
521	0	1
522	0	1
523	0	1
524	0	1
525	0	1
526	0	1
527	0	1
528	0	1
529	0	1
530	0	1
531	0	1
532	0	1
533	0	1
534	0	1
535	0	1
536	0	1
537	0	1
538	0	1
539	0	1
540	0	1
541	0	1
542	0	1
543	0	1
544	0	1
545	0	1
546	0	1
547	0	1
548	0	1
549	0	1
550	0	1
551	0	1
552	0	1
553	0	1
554	0	1
555	0	1
556	0	1
557	0	1
558	0	1
559	0	1
560	0	1
561	0	1
562	0	1
563	0	1
564	0	1
565	0	1
566	0	1
567	0	1
568	0	1
569	0	1
570	0	1
571	0	1
572	0	1
573	0	1
574	0	1
575	0	1
576	0	1
577	0	1
578	0	1
579	0	1
580	0	1
581	0	1
582	0	1
583	0	1
584	0	1
585	0	1
586	0	1
587	0	1
588	0	1
589	0	1
590	0	1
591	0	1
592	0	1
593	0	1
594	0	1
595	0	1
596	0	1
597	0	1
598	0	1
599	0	1
600	0	1
601	0	1
602	0	1
603	0	1
604	0	1
605	0	1
606	0	1
607	0	1
608	0	1
609	0	1
610	0	1
611	0	1
612	0	1
613	0	1
614	0	1
615	0	1
616	0	1
617	0	1
618	0	1
619	0	1
620	0	1
621	0	1
622	0	1
623	0	1
624	0	1
625	0	1
626	0	1
627	0	1
628	0	1
629	0	1
630	0	1
631	0	1
632	0	0.5
633	0	0.5
634	0	0.5
635	0	0.5
636	0	0.5
637	0	0.5
638	0	0.5
639	0	0.5
640	0	0.5
641	0	0.5
642	0	0.5
643	0	0.5
644	0	0.5
645	0	0.5
646	0	0.5
647	0	0.5
648	0	0.5
649	0	0.5
650	0	0.5
651	0	0.5
652	0	0.5
653	0	0.5
654	0	0.5
655	0	0.5
656	0	0.5
657	0	0.5
658	0	0.5
659	0	0.5
660	0	0.5
661	0	0.5
662	0	0.5
663	0	0.5
664	0	0.5
665	0	0.5
666	0	0.5
667	0	0.5
668	0	0.5
669	0	0.5
670	0	0.5
671	0	0.5
672	0	0.5
673	0	0.5
674	0	0.5
675	0	0.5
676	0	0.5
677	0	0.5
678	0	0.5
679	0	0.5
680	0	0.5
681	0	0.5
682	0	0.5
683	0	0.5
684	0	0.5
685	0	0.5
686	0	0.5
687	0	0.5
688	0	0.5
689	0	0.5
690	0	0.5
691	0	0.5
692	0	0.5
693	0	0.5
694	0	0.5
695	0	0.5
696	0	0.5
697	0	0.5
698	0	0.5
699	0	0.5
700	0	0.5
701	0	0.5
702	0	0.5
703	0	0.5
704	0	0.5
705	0	0.5
706	0	0.5
707	0	0.5
708	0	0.5
709	0	0.5
710	0	0.5
711	0	0.5
712	0	0.5
713	0	0.5
714	0	0.5
715	0	0.5
716	0	0.5
717	0	0.5
718	0	0.5
719	0	0.5
720	0	0.5
721	0	0.5
722	0	0.5
723	0	0.5
724	0	0.5
725	0	0.5
726	0	0.5
727	0	0.5
728	0	0.5
729	0	0.5
730	0	0.5
731	0	0.5
732	0	0.5
733	0	0.5
734	0	0.5
735	0	0.5
736	0	0.5
737	0	0.5
738	0	0.5
739	0	0.5
740	0	0.5
741	0	0.5
742	0	0.5
743	0	0.5
744	0	0.5
745	0	0.5
746	0	0.5
747	0	0.5
748	0	0.5
749	0	0.5
750	0	0.5
751	0	0.5
752	0	0.5
753	0	0.5
754	0	0.5
755	0	0.5
756	0	0.5
757	0	0.5
758	0	0.5
759	0	0.5
760	0	0.5
761	0	0.5
762	0	0.5
763	0	0.5
764	0	0.5
765	0	0.5
766	0	0.5
767	0	0.5
768	0	0.5
769	0	0.5
770	0	0.5
771	0	0.5
772	0	0.5
773	0	0.5
774	0	0.5
775	0	0.5
776	0	0.5
777	0	0.5
778	0	0.5
779	0	0.5
780	0	0.5
781	0	0.5
782	0	0.5
783	0	0.5
784	0	0.5
785	0	0.5
786	0	0.5
787	0	0.5
788	0	0.5
789	0	0.5
790	0	0.5
791	0	0.5
792	0	0.5
793	0	0.5
794	0	0.5
795	0	0.5
796	0	0.5
797	0	0.5
798	0	0.5
799	0	0.5
800	0	0.5
801	0	0.5
802	0	0.5
803	0	0.5
804	0	0.5
805	0	0.5
806	0	0.5
807	0	0.5
808	0	0.5
809	0	0.5
810	0	0.5
811	0	0.5
812	0	0.5
813	0	0.5
814	0	0.5
815	0	0.5
816	0	0.5
817	0	0.5
818	0	0.5
819	0	0.5
820	0	0.5
821	0	0.5
822	0	0.5
823	0	0.5
824	0	0.5
825	0	0.5
826	0	0.5
827	0	0.5
828	0	0.5
829	0	0.5
830	0	0.5
831	0	0.5
832	0	0.5
833	0	0.5
834	0	0.5
835	0	0.5
836	0	0.5
837	0	0.5
838	0	0.5
839	0	0.5
840	0	0.5
841	0	0.5
842	0	0.5
843	0	0.5
844	0	0.5
845	0	0.5
846	0	0.5
847	0	0.5
848	0	0.5
849	0	0.5
850	0	0.5
851	0	0.5
852	0	0.5
853	0	0.5
854	0	0.5
855	0	0.5
856	0	0.5
857	0	0.5
858	0	0.5
859	0	0.5
860	0	0.5
861	0	0.5
862	0	0.5
863	0	0.5
864	0	0.5
865	0	0.5
866	0	0.5
867	0	0.5
868	0	0.5
869	0	0.5
870	0	0.5
871	0	0.5
872	0	0.5
873	0	0.5
874	0	0.5
875	0	0.5
876	0	0.5
877	0	0.5
878	0	0.5
879	0	0.5
880	0	0.5
881	0	0.5
882	0	0.5
883	0	0.5
884	0	0.5
885	0	0.5
886	0	0.5
887	0	0.5
888	0	0.5
889	0	0.5
890	0	0.5
891	0	0.5
892	0	0.5
893	0	0.5
894	0	0.5
895	0	0.5
896	0	0.5
897	0	0.5
898	0	0.5
899	0	0.5
900	0	0.5
901	0	0.5
902	0	0.5
903	0	0.5
904	0	0.5
905	0	0.5
906	0	0.5
907	0	0.5
908	0	0.5
909	0	0.5
910	0	0.3
911	0	0.3
912	0	0.3
913	0	0.3
914	0	0.3
915	0	0.3
916	0	0.3
917	0	0.3
918	0	0.3
919	0	0.3
920	0	0.3
921	0	0.3
922	0	0.3
923	0	0.3
924	0	0.3
925	0	0.3
926	0	0.3
927	0	0.2
928	0	0.2
929	0	0.2
930	0	0.2
931	0	0.2
932	0	0.2
933	0	0.2
934	0	0.2
935	0	0.2
936	0	0.2
937	0	0.2
938	0	0.2
939	0	0.2
940	0	0.2
941	0	0.214286
942	0	0.214286
943	0	0.214286
944	0	0.214286
945	0	0.214286
946	0	0.214286
947	0	0.214286
948	0	0.214286
949	0	0.214286
950	0	0.214286
951	0	0.214286
952	0	0.321429
953	0	0.321429
954	0	0.321429
955	0	0.321429
956	0	0.321429
957	0	0.321429
958	0	0.428571
959	0	0.428571
960	0	0.333333
961	0	0.333333
962	0	0.333333
963	0	0.719758
964	0	0.719758
965	0	0.83986
966	0	0.594752
967	0	0.587346
968	0	0.588325
969	0	0.592765
970	0	0
971	0	0
972	0	0
973	0	0.593732
974	0	0.593732
975	0	0.593732
976	0	0.593732
977	0	0.593732
978	0	0
979	0	0
980	0	0
981	0	0
982	0	0
983	0	0
984	0	0
985	0	0
986	0	0
987	0	0
988	0	0
989	0	0
990	0	0
991	0	0
992	0	0
993	0	0
994	0	0
995	1	0
996	1	0
997	0	0
998	0	0
999	0	0
1000	0	0
1001	0	0
1002	0	0
1003	0	0
1004	0	0
1005	0	0
1006	0	0
1007	0	0
1008	0	0
1009	0	0
1010	0	0
1011	0	0
1012	0	0
1013	0	0
1014	0	0
1015	0	0
1016	0	0
1017	0	0
1018	0	0
1019	0	0
1020	0	0.593732
1021	0	0.593732
1022	0	0.593732
1023	0	0.593732
1024	0	0.593732
1025	0	0
1026	0	0
1027	0	0
1028	0	0
1029	0	0
1030	0	0
1031	0	0
1032	0	0
1033	0	0
1034	0	0
1035	0	0
1036	0	0
1037	0	0
1038	0	0
1039	0	0
1040	0	0
1041	0	0
1042	0	0
1043	0	0
1044	0	0
1045	0	0
1046	0	0
1047	0	0
1048	0	0
1049	0	0
1050	0	0
1051	0	0
1052	0	0
1053	0	0
1054	0	0
1055	0	0
1056	0	0
1057	0	0
1058	0	0
1059	0	0
1060	0	0
1061	0	0
1062	0	0
1063	0	0
1064	0	0
1065	0	0
1066	0	0
1067	0	0
1068	0	0
1069	0	0
1070	0	0
1071	0	0.598213
1072	0	0.598213
1073	0	0.598213
1074	0	0.598213
1075	0	0.598213
1076	0	0.598213
1077	0	0.598213
1078	0	0.598213
1079	0	0
1080	0	0
1081	0	0
1082	0	0
1083	0	0
1084	0	0
1085	0	0
1086	0	0
1087	0	0
1088	0	0
1089	0	0
1090	0	0
1091	0	0
1092	0	0
1093	0	0
1094	0	0
1095	0	0
1096	0	0
1097	0	0
1098	0	0
1099	0	0
1100	0	0
1101	0	0
1102	0	0
1103	0	0
1104	0	0
1105	0	0
1106	0	0
1107	0	0
1108	0	0
1109	0	0
1110	0	0
1111	0	0
1112	0	0
1113	0	0
1114	0	0
1115	0	0
1116	0	0
1117	0	0
1118	0	0
1119	0	0
1120	0	0
1121	0	0
1122	0	0
1123	0	0
1124	0	0
1125	0	0
1126	0	0
1127	0	0
1128	0	0
1129	0	0
1130	0	0
1131	0	0
1132	0	0
1133	0	0
1134	0	0
1135	0	0
1136	0	0
1137	0	0
1138	0	0
1139	0	0
1140	0	0
1141	0	0
1142	0	0
1143	0	0
1144	0	0
1145	0	0
1146	0	0
1147	0	0
1148	0	0
1149	0	0
1150	0	0
1151	0	0
1152	0	0
1153	0	0
1154	0	0
1155	0	0
1156	0	0
1157	0	0
1158	0	0
1159	0	0
1160	0	0
1161	0	0
1162	0	0
1163	0	0
1164	0	0
1165	0	0
1166	0	0
1167	0	0
1168	0	0
1169	0	0
1170	0	0
1171	0	0
1172	0	0
1173	0	0
1174	0	0
1175	0	0
1176	0	0
1177	0	0
1178	0	0
1179	0	0
1180	0	0
1181	0	0
1182	0	0
1183	0	0
1184	0	0
1185	0	0
1186	0	0
1187	0	0
1188	0	0
1189	0	0
1190	0	0
1191	0	0
1192	0	0
1193	0	0.497585
1194	0	0
1195	0	0
1196	0	0
1197	0	0
1198	0	0.875
1199	0	0.326729
1200	0	0.302452
1201	0	0.262211
1202	0	0.268591
1203	0	0.278095
1204	0	0
1205	0	0
1206	0	0
1207	0	0
1208	0	0
1209	0	0
1210	0	0
1211	0	0
1212	0	0
1213	0	0
1214	0	0
1215	0	0
1216	0	0
1217	0	0
1218	0	0
1219	0	0
1220	0	0
1221	0	0
1222	0	0
1223	0	0
1224	0	0
1225	0	0
1226	0	0
1227	0	0
1228	0	0
1229	0	0
1230	0	0
1231	0	0
1232	0	0
1233	0	0
1234	0	0
1235	0	0
1236	0	0
1237	0	0
1238	0	0
1239	0	0
1240	0	0
1241	0	0
1242	0	0
1243	0	0
1244	0	0
1245	0	0
1246	0	0
1247	0	0
1248	0	0
1249	0	0
1250	0	0
1251	0	0
1252	0	0
1253	0	0
1254	0	0
1255	0	0
1256	0	0
1257	0	0
1258	0	0
1259	0	0
1260	0	0
1261	0	0
1262	0	0
1263	0	0
1264	0	0
1265	0	0
1266	0	0
1267	0	0
1268	0	0
1269	0	0
1270	0	0
1271	0	0
1272	0	0
1273	0	0
1274	0	0
1275	0	0
1276	0	0
1277	0	0
1278	0	0
1279	0	0
1280	0	0
1281	0	0
1282	0	0
1283	0	0
1284	0	0
1285	0	0
1286	0	0
1287	0	0
1288	0	0
1289	0	0
1290	0	0
1291	0	0
1292	0	0
1293	0	0
1294	0	0
1295	0	0
1296	0	0
1297	0	0
1298	0	0
1299	0	0
1300	0	0
1301	0	0
1302	0	0
1303	0	0
1304	0	0
1305	0	0
1306	0	0
1307	0	0
1308	0	0
1309	0	0
1310	0	0
1311	0	0
1312	0	0
1313	0	0
1314	0	0
1315	0	0
1316	0	0
1317	0	0
1318	0	0
1319	0	0
1320	0	0
1321	0	0
1322	0	0
1323	0	0
1324	0	0
1325	1	0
1326	1	0
1327	1	0
1328	1	0
1329	1	0
1330	1	0
1331	0	0
1332	0	0
1333	0	0
1334	0	0
1335	0	0
1336	0	0
1337	0	0
1338	0	0
1339	0	0
1340	0	0
1341	0	0
1342	0	0
1343	0	0
1344	0	0
1345	0	0
1346	0	0
1347	0	0
1348	0	0
1349	0	0
1350	0	0
1351	0	0
1352	0	0
1353	0	0
1354	0	0
1355	0	0
1356	0	0
1357	0	0
1358	0	0
1359	0	0
1360	0	0
1361	0	0
1362	0	0
1363	0	0
1364	0	0
1365	0	0
1366	0	0
1367	0	0
1368	0	0
1369	0	0
1370	0	0
1371	0	0
1372	0	0
1373	0	0
1374	0	0
1375	0	0
1376	0	0
1377	0	0
1378	0	0
1379	0	0
1380	0	0
1381	0	0
1382	0	0
1383	0	0
1384	0	0
1385	0	0
1386	0	0
1387	0	0
1388	0	0
1389	0	0
1390	0	0
1391	0	0
1392	0	0
1393	0	0
1394	0	0
1395	0	0
1396	0	0
1397	0	0
1398	0	0
1399	0	0
1400	0	0
1401	0	0
1402	0	0
1403	0	0
1404	0	0
1405	0	0
1406	0	0
1407	0	0
1408	0	0
1409	0	0
1410	0	0
1411	0	0
1412	0	0
1413	0	0
1414	0	0
1415	0	0
1416	0	0
1417	0	0
1418	0	0
1419	0	0
1420	0	0
1421	0	0
1422	0	0
1423	0	0
1424	0	0
1425	0	0
1426	0	0
1427	0	0
1428	0	0
1429	0	0
1430	0	0
1431	0	0
1432	0	0
1433	0	0
1434	0	0
1435	0	0
1436	0	0
1437	0	0
1438	0	0
1439	0	0
1440	0	0
1441	0	0
1442	0	0
1443	0	0
1444	0	0
1445	0	0
1446	0	0
1447	0	0
1448	0	0
1449	0	0
1450	0	0
1451	0	0
1452	0	0
1453	0	0
1454	0	0
1455	0	0
1456	0	0
1457	0	0
1458	0	0
1459	0	0
1460	0	0
1461	0	0
1462	0	0
1463	0	0
1464	0	0
1465	0	0
1466	0	0
1467	0	0
1468	0	0
1469	0	0
1470	0	0
1471	0	0
1472	0	0
1473	0	0
1474	0	0
1475	0	0
1476	0	0
1477	0	0
1478	0	0
1479	0	0
1480	0	0
1481	0	0
1482	0	0
1483	0	0
1484	0	0
1485	0	0
1486	0	0
1487	0	0
1488	0	0
1489	0	0
1490	0	0
1491	0	0
1492	0	0
1493	0	0
1494	0	0
1495	0	0
1496	0	0
1497	0	0
1498	0	0
1499	0	0
1500	0	0
1501	0	0
1502	0	0
1503	0	0
1504	0	0
1505	0	0
1506	0	0
1507	0	0
1508	0	0
1509	0	0
1510	0	0
1511	0	0
1512	0	0
1513	0	0
1514	0	0
1515	0	0
1516	0	0
1517	0	0
1518	0	0
1519	0	0
1520	0	0
1521	0	0
1522	0	0
1523	0	0
1524	0	0
1525	0	0
1526	0	0
1527	0	0
1528	0	0
1529	0	0
1530	0	0
1531	0	0
1532	0	0
1533	0	0
1534	0	0
1535	0	0
1536	0	0
1537	0	0
1538	0	0
1539	0	0
1540	0	0
1541	0	0
1542	0	0
1543	0	0
1544	0	0
1545	0	0
1546	0	0
1547	0	0
1548	0	0
1549	0	0
1550	0	0
1551	0	0
1552	0	0
1553	0	0
1554	0	0
1555	0	0
1556	0	0
1557	0	0
1558	0	0
1559	0	0
1560	0	0
1561	0	0
1562	0	0
1563	0	0.1
1564	0	0.166667
1565	0	0.166667
1566	0	0
1567	0	0.352826
1568	0	0.367647
1569	0	0.305511
1570	0	0.305946
1571	0	0.312064
1572	0	0.488807
1573	0	0.491138
1574	0	0.558907
1575	0	0
1576	0	0
1577	0	0
1578	0	0
1579	0	0
1580	0	0
1581	0	0
1582	0	0
1583	0	0
1584	0	0
1585	0	0
1586	0	0
1587	0	0
1588	0	0
1589	0	0
1590	0	0
1591	0	0
1592	0	0
1593	0	0
1594	0	0
1595	0	0
1596	0	0
1597	0	0
1598	0	0
1599	0	0
1600	0	0
1601	0	0
1602	0	0
1603	0	0
1604	0	0
1605	0	0
1606	0	0
1607	0	0
1608	0	0
1609	0	0
1610	0	0
1611	0	0
1612	0	0
1613	0	0
1614	0	0
1615	0	0
1616	0	0
1617	0	0
1618	0	0
1619	0	0
1620	0	0
1621	0	0
1622	0	0
1623	0	0
1624	0	0
1625	0	0
1626	0	0
1627	0	0
1628	0	0
1629	0	0
1630	0	0
1631	0	0
1632	0	0
1633	0	0
1634	0	0
1635	0	0
1636	0	0
1637	0	0
1638	0	0
1639	0	0
1640	0	0
1641	0	0
1642	0	0
1643	0	0
1644	0	0
1645	0	0
1646	0	0
1647	0	0
1648	0	0
1649	0	0
1650	0	0
1651	0	0
1652	0	0
1653	0	0
1654	0	0
1655	0	0
1656	0	0
1657	0	0
1658	0	0
1659	0	0
1660	0	0
1661	0	0
1662	0	0
1663	0	0
1664	0	0
1665	0	0
1666	0	0
1667	0	0
1668	0	0
1669	0	0
1670	0	0
1671	0	0
1672	0	0
1673	0	0
1674	0	0
1675	0	0
1676	0	0
1677	0	0
1678	0	0
1679	0	0
1680	0	0
1681	0	0
1682	0	0
1683	0	0
1684	0	0
1685	0	0
1686	0	0
1687	0	0
1688	0	0
1689	0	0.333333
1690	0	0.333333
1691	0	0.333333
1692	0	0.333333
1693	0	0.333333
1694	0	0.75
1695	0	0.587346
1696	0	0.593732
1697	0	0.593732
1698	0	0.593732
1699	0	0.593732
1700	0	0.593732
1701	0	0.593732
1702	0	0.593732
1703	0	0.593732
1704	0	0
1705	0	0
1706	0	0
1707	0	0
1708	0	0
1709	0	0
1710	0	0
1711	0	0
1712	0	0
1713	0	0
1714	0	0
1715	0	0
1716	0	0
1717	0	0
1718	0	0
1719	0	0
1720	0	0
1721	0	0
1722	0	0
1723	0	0
1724	0	0
1725	0	0
1726	0	0
1727	0	0
1728	0	0
1729	0	0
1730	0	0
1731	0	0
1732	0	0
1733	0	0
1734	0	0
1735	0	0
1736	0	0
1737	0	0
1738	0	0
1739	0	0
1740	0	0
1741	0	0
1742	0	0
1743	0	0
1744	0	0
1745	0	0
1746	0	0
1747	0	0
1748	0	0
1749	0	0
1750	0	0
1751	0	0
1752	0	0
1753	0	0
1754	0	0
1755	0	0
1756	0	0
1757	0	0
1758	0	0
1759	0	0
1760	0	0
1761	0	0
1762	0	0
1763	0	0
1764	0	0
1765	0	0
1766	0	0
1767	0	0
1768	0	0
1769	0	0
1770	0	0
1771	0	0
1772	0	0
1773	0	0
1774	0	0
1775	0	0
1776	0	0
1777	0	0
1778	0	0
1779	0	0
1780	0	0
1781	0	0
1782	0	0
1783	0	0
1784	0	0
1785	0	0
1786	0	0
1787	0	0
1788	0	0
1789	0	0
1790	0	0
1791	0	0
1792	0	0
1793	0	0
1794	0	0
1795	0	0
1796	0	0
1797	0	0
1798	0	0
1799	0	0
1800	0	0
1801	0	0
1802	0	0
1803	0	0.597256
1804	0	0.598213
1805	0	0
1806	0	0
1807	0	0
1808	0	0
1809	0	0
1810	0	0
1811	0	0
1812	0	0
1813	0	0.592765
1814	0	0
1815	0	0
1816	0	0
1817	0	0
1818	0	0
1819	0	0
1820	0	0
1821	0	0
1822	0	0
1823	0	0.985103
1824	0	0.985103
1825	0	0.985103
1826	0	0
1827	0	0
1828	0	0
1829	0	0
1830	0	0
1831	0	0
1832	0	0
1833	0	0
1834	0	0
1835	0	0
1836	0	0
1837	0	0
1838	0	0
1839	0	0
1840	0	0
1841	0	0
1842	0	0
1843	0	0
1844	0	0
1845	0	0
1846	0	0
1847	0	0
1848	0	0
1849	0	0
1850	0	0
1851	0	0
1852	0	0
1853	0	0
1854	0	0
1855	0	0
1856	0	0
1857	0	0
1858	0	0
1859	1	0
1860	1	0
1861	1	0
1862	1	0
1863	1	0
1864	1	0
1865	1	0
1866	1	0
1867	1	0
1868	0	0
1869	0	0
1870	0	0
1871	0	0.992481
1872	0	0.992481
1873	0	0.992481
1874	0	0.992481
1875	0	0.992481
1876	0	0.992481
1877	0	0.992481
1878	0	0.992509
1879	0	0.992509
1880	0	0.992509
1881	0	0.992509
1882	0	0.992509
1883	0	0
1884	0	0
1885	0	0
1886	0	0
1887	0	0
1888	0	0
1889	0	0
1890	0	0
1891	0	0
1892	0	0
1893	0	0
1894	0	0.992509
1895	0	0.992509
1896	0	0.992509
1897	0	0.992509
1898	0	0
1899	0	0.958119
1900	0	0.938158
1901	0	0
1902	0	0
1903	0	0
1904	0	0
1905	0	0
1906	0	0
1907	0	0
1908	0	0
1909	0	0
1910	0	0
1911	0	0
1912	0	0
1913	0	0
1914	0	0
1915	0	0
1916	0	0
1917	0	0
1918	0	0
1919	0	0
1920	0	0
1921	0	0
1922	0	0
1923	0	0
1924	0	0
1925	0	0
1926	0	0
1927	0	0
1928	0	0
1929	0	0
1930	0	0
1931	0	0
1932	0	0
1933	0	0
1934	0	0.810779
1935	0	0.761073
1936	0	0.639558
1937	0	0.264103
1938	0	0.225617
1939	0	0.214296
1940	0	0.1847
1941	0	0.20882
1942	0	0.18717
1943	0	0.194468
1944	0	0.192871
1945	0	0.535714
1946	0	0.714286
1947	0	0.681818
1948	0	0.467232
1949	0	0.929698
1950	0	0.94978
1951	0	0.853797
1952	0	0.938725
1953	0	1
1954	1	1
1955	1	1
1956	1	1
1957	1	1
1958	1	1
1959	1	1
1960	1	1
1961	1	1
1962	1	1
1963	1	1
1964	1	1
1965	1	1
1966	1	1
1967	1	1
1968	1	1
1969	1	1
1970	1	1
1971	1	1
1972	0	1
1973	1	1
1974	1	1
1975	1	1
1976	1	1
1977	1	1
1978	1	1
1979	1	1
1980	1	1
1981	1	1
1982	1	1
1983	1	1
1984	1	1
1985	1	1
1986	1	1
1987	1	1
1988	1	1
1989	1	1
1990	1	1
1991	1	1
1992	1	1
1993	1	1
1994	1	1
1995	1	1
1996	1	1
1997	1	1
1998	1	1
1999	1	1
2000	1	1
2001	1	1
2002	1	1
2003	1	1
2004	1	1
2005	1	1
2006	1	1
2007	1	1
2008	1	1
2009	1	1
2010	1	1
2011	1	1
2012	1	1
2013	1	1
2014	1	1
2015	1	1
2016	1	1
2017	1	1
2018	1	1
2019	1	1
2020	1	1
2021	1	1
2022	1	1
2023	1	1
2024	1	1
2025	1	1
2026	1	1
2027	1	1
2028	1	1
2029	1	1
2030	1	1
2031	1	1
2032	1	1
2033	1	1
2034	1	1
2035	1	1
2036	1	1
2037	1	1
2038	1	1
2039	1	1
2040	1	1
2041	1	1
2042	1	1
2043	0	1
2044	0	1
2045	0	0.969471
2046	0	0.95447
2047	0	0.569959
2048	0	0.494072
2049	0	0.479767
2050	0	1
2051	0	0
2052	0	0
2053	0	0
2054	0	0
2055	0	0.392857
2056	0	0.2
2057	0	0.527273
2058	0	0.384615
2059	0	0.2
2060	0	0.558824
2061	0	0.443077
2062	0	0.291607
2063	0	0.494261
2064	0	0.468291
2065	0	0.336337
2066	0	0.594669
2067	0	0.9
2068	0	0.9
2069	0	0.9
2070	0	0.9
2071	0	0.72631
2072	0	0.72631
2073	0	0
2074	0	1
2075	0	1
2076	0	1
2077	0	1
2078	0	1
2079	0	1
2080	0	1
2081	1	1
2082	1	1
2083	1	1
2084	1	1
2085	1	1
2086	1	1
2087	1	1
2088	1	1
2089	1	1
2090	1	1
2091	1	1
2092	1	1
2093	1	1
2094	1	1
2095	1	1
2096	1	1
2097	1	1
2098	1	1
2099	1	1
2100	1	1
2101	1	1
2102	1	1
2103	1	1
2104	1	1
2105	1	1
2106	1	1
2107	1	1
2108	1	1
2109	1	1
2110	1	1
2111	1	1
2112	1	1
2113	1	1
2114	1	1
2115	1	1
2116	1	1
2117	1	1
2118	0	0
2119	0	0
2120	0	0
2121	0	0
2122	0	0
2123	0	0
2124	0	0
2125	0	0
2126	0	0.166667
2127	0	0.166667
2128	0	0.954228
2129	0	0.94326
2130	0	0.921511
2131	0	0.836585
2132	0	0.758333
2133	0	0.468354
2134	0	0.24573
2135	0	0.16382
2136	0	0.132966
2137	0	0.333333
2138	0	0.118101
2139	0	0.114168
2140	0	0.136853
2141	0	0.466667
2142	0	0.254854
2143	0	0.4
2144	0	0.714286
2145	0	0.272844
2146	0	0.476852
2147	0	0.193103
2148	0	0.219577
2149	0	0.30719
2150	0	0.391667
2151	0	0.133333
2152	0	0.333333
2153	0	0
2154	0	0
2155	0	0
2156	0	0
2157	0	0.992218
2158	0	1
2159	0	1
2160	1	1
2161	1	1
2162	1	1
2163	1	1
2164	1	1
2165	1	1
2166	1	1
2167	1	1
2168	0	1
2169	0	0.977275
2170	0	0.934848
2171	1	1
2172	1	1
2173	1	1
2174	1	1
2175	1	1
2176	1	1
2177	1	1
2178	1	1
2179	1	1
2180	1	1
2181	1	1
2182	1	1
2183	1	1
2184	0	1
2185	0	1
2186	0	1
2187	0	1
2188	0	1
2189	0	1
2190	0	1
2191	1	1
2192	1	1
2193	0	1
2194	0	0
2195	0	0
2196	0	0
2197	0	0
2198	0	0
2199	0	0
2200	0	0
2201	0	0
2202	0	0
2203	0	0
2204	0	0
2205	0	0
2206	0	0
2207	0	0
2208	0	0
2209	0	0
2210	0	0
2211	0	0
2212	0	0
2213	0	0
2214	0	0
2215	0	0
2216	0	0
2217	0	0
2218	0	0
2219	0	0
2220	0	0
2221	1	0
2222	1	0
2223	1	0
2224	1	0
2225	1	0
2226	1	0
2227	0	0
2228	0	0
2229	0	0
2230	0	0
2231	0	0
2232	0	0
2233	0	0
2234	0	0
2235	0	0
2236	0	0
2237	0	0
2238	0	0
2239	0	0
2240	0	0
2241	0	0
2242	0	0
2243	0	0
2244	0	0
2245	0	0
2246	0	0
2247	0	0
2248	0	0
2249	0	0
2250	0	0
2251	0	0
2252	0	0
2253	0	0
2254	0	0
2255	0	0
2256	0	0
2257	0	0
2258	0	0
2259	0	0
2260	0	0
2261	0	0
2262	0	0
2263	0	0
2264	0	0
2265	0	0
2266	0	0
2267	0	0
2268	0	0
2269	0	0
2270	0	0
2271	0	0
2272	0	0
2273	0	0
2274	0	0
2275	0	0
2276	0	0
2277	0	0
2278	0	0
2279	0	0
2280	0	0
2281	0	0
2282	0	0
2283	0	0
2284	0	0
2285	0	0
2286	0	0
2287	0	0
2288	0	0
2289	0	0
2290	0	0
2291	0	0
2292	0	0
2293	0	0
2294	0	0
2295	0	0
2296	0	0
2297	0	0
2298	0	0
2299	0	0
2300	0	0
2301	0	0
2302	0	0
2303	0	0
2304	0	0
2305	0	0
2306	0	0
2307	0	0
2308	0	0
2309	0	0
2310	0	0
2311	0	0
2312	0	0
2313	0	0
2314	0	0
2315	0	0
2316	0	0
2317	0	0
2318	0	0
2319	0	0
2320	0	0
2321	0	0
2322	0	0
2323	0	0
2324	0	0
2325	0	0
2326	0	0
2327	0	0
2328	0	0
2329	0	0
2330	0	0
2331	0	0
2332	0	0
2333	0	0
2334	0	0
2335	0	0
2336	0	0
2337	0	0
2338	0	0
2339	0	0
2340	0	0
2341	0	0
2342	0	0
2343	0	0
2344	0	0
2345	0	0
2346	0	0
2347	0	0
2348	0	0
2349	0	0
2350	0	0
2351	0	0
2352	1	0
2353	1	0
2354	0	0
2355	0	0
2356	0	0
2357	0	0
2358	0	0
2359	0	0
2360	0	0
2361	0	0
2362	0	0
2363	0	0
2364	0	0
2365	0	0
2366	0	0
2367	0	0
2368	0	0
2369	0	0
2370	0	0
2371	0	0
2372	0	0
2373	0	0
2374	0	0
2375	0	0
2376	0	0
2377	0	0
2378	0	0
2379	0	0
2380	0	0
2381	0	0
2382	0	0
2383	0	0
2384	0	0
2385	0	0
2386	0	0
2387	0	0
2388	0	0
2389	0	0
2390	0	0
2391	0	0
2392	0	0
2393	0	0
2394	0	0
2395	0	0
2396	1	0
2397	1	0
2398	1	0
2399	1	0
2400	1	0
2401	1	0
2402	1	0
2403	1	0
2404	1	0
2405	1	0
2406	1	0
2407	1	0
2408	1	0
2409	1	0
2410	1	0
2411	1	0
2412	1	0
2413	1	0
2414	1	0
2415	1	0
2416	1	0
2417	1	0
2418	1	0
2419	1	0
2420	1	0
2421	1	0
2422	1	0
2423	1	0
2424	1	0
2425	1	0
2426	1	0
2427	1	0
2428	1	0
2429	1	0
2430	1	0
2431	0	0
2432	0	0
2433	0	0
2434	0	0
2435	0	0
2436	0	0
2437	0	0
2438	0	0
2439	0	0
2440	0	0
2441	0	0
2442	0	0
2443	0	0
2444	0	0
2445	0	0
2446	0	0
2447	0	0
2448	0	0
2449	0	0
2450	0	0
2451	0	0
2452	0	0
2453	0	0
2454	0	0
2455	0	0
2456	0	0
2457	0	0
2458	0	0
2459	0	0
2460	0	0
2461	0	0
2462	0	0
2463	0	0
2464	0	0
2465	0	0
2466	0	0
2467	0	0
2468	0	0
2469	0	0
2470	0	0
2471	0	0
2472	0	0
2473	0	0
2474	0	0
2475	0	0
2476	0	0
2477	0	0
2478	0	0
2479	0	0
2480	0	0
2481	0	0
2482	0	0
2483	0	0
2484	0	0
2485	0	0
2486	0	0
2487	0	0
2488	0	0
2489	0	0
2490	0	0
2491	0	0
2492	0	0
2493	0	0
2494	0	0
2495	0	0
2496	0	0
2497	0	0
2498	1	0
2499	1	0
2500	1	0
2501	0	0
2502	0	0
2503	0	0
2504	0	0
2505	0	0
2506	0	0
2507	0	0
2508	0	0
2509	0	0
2510	0	0
2511	0	0
2512	0	0
2513	0	0
2514	0	0
2515	0	0
2516	0	0
2517	0	0
2518	0	0
2519	0	0
2520	0	0
2521	0	0
2522	0	0
2523	0	0
2524	0	0
2525	0	0
2526	0	0
2527	0	0
2528	1	0
2529	1	0
2530	1	0
2531	1	0
2532	1	0
2533	1	0
2534	0	0
2535	0	0
2536	0	0
2537	0	0
2538	0	0
2539	0	0.984934
2540	0	0.984934
2541	0	0
2542	0	0.977273
2543	0	0.631411
2544	0	0
2545	0	0.737113
2546	0	0.737113
2547	0	0.735746
2548	0	0.371429
2549	0	0.266667
2550	0	0.266398
2551	0	0.219496
2552	0	0.580952
2553	0	1
2554	0	0.39567
2555	0	0.604396
2556	0	0.725275
2557	0	0.322184
2558	0	0.621457
2559	0	0.621457
2560	0	0.943586
2561	0	0.971832
2562	0	0.971832
2563	0	0
2564	0	0
2565	0	0
2566	0	0.992509
2567	0	0.992509
2568	0	0.992509
2569	0	0.992509
2570	0	0.992509
2571	0	0.992509
2572	0	0.992509
2573	0	0.992509
2574	0	0.992509
2575	0	0.992509
2576	0	0.992509
2577	0	0.992509
2578	0	0.992509
2579	0	0.992509
2580	0	0.95576
2581	0	0.95576
2582	0	0.95576
2583	0	0.992509
2584	0	0
2585	0	0
2586	0	0
2587	0	0
2588	1	0
2589	0	0
2590	0	0
2591	0	0
2592	0	0
2593	0	0
2594	0	0
2595	0	0
2596	0	0
2597	1	0
2598	0	0
2599	0	0
2600	0	0
2601	0	0
2602	0	0
2603	0	0
2604	0	0
2605	0	0
2606	0	0
2607	0	0
2608	0	0
2609	0	0
2610	0	0
2611	0	0
2612	0	0
2613	0	0
2614	0	0
2615	0	0
2616	0	0
2617	0	0
2618	0	0
2619	0	0
2620	0	0
2621	0	0
2622	0	0
2623	0	0
2624	0	0
2625	0	0
2626	0	0
2627	0	0
2628	0	0
2629	0	0
2630	0	0
2631	0	0
2632	0	0
2633	0	0
2634	0	0
2635	0	0
2636	0	0
2637	0	0
2638	0	0
2639	0	0
2640	0	0
2641	0	0
2642	0	0
2643	0	0
2644	0	0
2645	0	0
2646	1	0
2647	1	0
2648	1	0
2649	1	0
2650	1	0
2651	1	0
2652	1	0
2653	1	0
2654	1	0
2655	1	0
2656	1	0
2657	0	0
2658	0	0
2659	0	0
2660	0	0
2661	0	0
2662	0	0
2663	0	0
2664	1	0
2665	1	0
2666	1	0
2667	1	0
2668	1	0
2669	1	0
2670	1	0
2671	1	0
2672	1	0
2673	1	0
2674	1	0
2675	1	0
2676	1	0
2677	1	0
2678	0	0
2679	0	0
2680	0	0
2681	0	0
2682	0	0
2683	0	0
2684	0	0
2685	0	0
2686	0	0.985047
2687	0	0.985047
2688	0	0.985047
2689	0	0.985047
2690	0	0.984991
2691	0	0
2692	0	0
2693	1	0
2694	1	0
2695	1	0
2696	1	0
2697	1	0
2698	1	0
2699	1	0
2700	1	0
2701	1	0
2702	1	0
2703	1	0
2704	1	0
2705	1	0
2706	1	0
2707	1	0
2708	1	0
2709	1	0
2710	1	0
2711	1	0
2712	1	0
2713	1	0
2714	1	0
2715	1	0
2716	1	0
2717	1	0
2718	1	0
2719	1	0
2720	1	0
2721	1	0
2722	1	0
2723	1	0
2724	1	0
2725	1	0
2726	1	0
2727	1	0
2728	1	0
2729	1	0
2730	1	0
2731	1	0
2732	1	0
2733	1	0
2734	1	0
2735	1	0
2736	1	0
2737	1	0
2738	1	0
2739	1	0
2740	1	0
2741	1	0
2742	1	0
2743	1	0
2744	1	0
2745	1	0
2746	1	0
2747	1	0
2748	1	0
2749	1	0
2750	1	0
2751	1	0
2752	1	0
2753	1	0
2754	1	0
2755	1	0
2756	1	0
2757	1	0
2758	0	0
2759	0	0
2760	0	0
2761	0	0
2762	0	0
2763	0	0
2764	0	0
2765	0	0
2766	0	0
2767	0	0
2768	0	0
2769	0	0
2770	0	0
2771	0	0
2772	0	0
2773	0	0
2774	0	0
2775	0	0
2776	0	0
2777	0	0
2778	0	0
2779	0	0
2780	0	0
2781	0	0
2782	1	0
2783	1	0
2784	0	0
2785	0	0
2786	0	0
2787	0	0
2788	0	0
2789	0	0
2790	0	0
2791	0	0
2792	0	0
2793	0	0
2794	0	0
2795	0	0
2796	1	0
2797	1	0
2798	1	0
2799	1	0
2800	1	0
2801	1	0
2802	1	0
2803	1	0
2804	1	0
2805	1	0
2806	1	0
2807	1	0
2808	1	0
2809	1	0
2810	0	0
2811	0	0
2812	0	0
2813	0	0
2814	0	0
2815	0	0
2816	0	0.977444
2817	0	0
2818	0	0
2819	0	0
2820	0	0
2821	0	0
2822	0	0
2823	0	0
2824	0	0
2825	0	0
2826	0	0
2827	0	0
2828	0	0
2829	0	0
2830	0	0
2831	0	0
2832	0	0
2833	0	0
2834	0	0
2835	0	0
2836	0	0
2837	0	0
2838	0	0
2839	0	0.1
2840	0	0.1
2841	0	0.1
2842	0	0.1
2843	0	0.1
2844	0	0.1
2845	0	0.1
2846	0	0.3
2847	0	0.2
2848	0	0.2
2849	0	0.2
2850	0	0.2
2851	0	0.142857
2852	0	0.142857
2853	0	0.142857
2854	0	0.142857
2855	0	0.142857
2856	0	0.142857
2857	0	0.142857
2858	0	0.142857
2859	0	0.142857
2860	0	0.142857
2861	0	0.142857
2862	0	0.142857
2863	0	0.142857
2864	0	0.142857
2865	0	0.142857
2866	0	0.142857
2867	0	0.142857
2868	0	0.142857
2869	0	0.142857
2870	0	0.142857
2871	0	0.142857
2872	0	0.142857
2873	0	0.142857
2874	0	0.142857
2875	0	0.142857
2876	0	0.142857
2877	0	0.142857
2878	0	0.142857
2879	0	0.142857
2880	0	0.2
2881	0	0.2
2882	0	0.2
2883	0	0.2
2884	0	0.2
2885	0	0.2
2886	0	0.2
2887	0	0.2
2888	0	0.2
2889	0	0.2
2890	0	0.2
2891	0	0.357143
2892	0	0.357143
2893	0	0.357143
2894	0	0.357143
2895	0	0.357143
2896	0	0.357143
2897	0	0.357143
2898	0	0.357143
2899	0	0.357143
2900	0	0.357143
2901	0	0.357143
2902	0	0.357143
2903	0	0.357143
2904	0	0.357143
2905	0	0.829293
2906	0	0
2907	0	0
2908	0	0
2909	0	0
2910	0	0
2911	0	0
2912	0	0.1
2913	0	0.0666667
2914	0	0.0714286
2915	0	0.468399
2916	0	0.461408
2917	0	0.458717
2918	0	0.458717
2919	0	1
2920	0	0.418678
2921	0	0.333333
2922	0	0.333333
2923	0	0.333333
2924	0	0.244318
2925	0	0.174603
2926	0	0.130125
2927	0	0.248061
2928	0	0.205067
2929	0	0.224923
2930	0	0.210779
2931	0	0.215152
2932	0	0.213285
2933	0	0.204601
2934	0	0.212261
2935	0	0.166393
2936	0	0.129913
2937	0	0.0789899
2938	0	0.0529471
2939	0	0.0539947
2940	0	0.0517483
2941	0	0.0524297
2942	0	0.06298
2943	0	0.0689655
2944	0	0.176398
2945	0	0.230584
2946	0	0.285202
2947	0	0.328398
2948	0	0.373866
2949	0	0.373866
2950	0	0.400649
2951	0	0.445573
2952	0	0.481569
2953	0	0.521259
2954	0	0.525604
2955	0	0.557488
2956	0	0.272727
2957	0	0.272727
2958	0	0.272727
2959	0	0.272727
2960	0	0.272727
2961	0	0.272727
2962	0	0.272727
2963	0	0.272727
2964	0	0.272727
2965	0	0.272727
2966	0	0.272727
2967	0	0.272727
2968	0	0.272727
2969	0	0.272727
2970	0	0.272727
2971	0	0.272727
2972	0	0.272727
2973	0	0.272727
2974	0	0.272727
2975	0	0.272727
2976	0	0.333333
2977	0	0.333333
2978	0	0.333333
2979	0	0.333333
2980	0	0.333333
2981	0	0.333333
2982	0	0.333333
2983	0	0.333333
2984	0	0.333333
2985	0	0.416667
2986	0	0.416667
2987	0	0.416667
2988	0	0.416667
2989	0	0.416667
2990	0	0.416667
2991	0	0.416667
2992	0	0.416667
2993	0	0.416667
2994	0	0.416667
2995	0	0.416667
2996	0	0.416667
2997	0	0.416667
2998	0	0.416667
2999	0	0.416667
3000	0	0.416667
3001	0	0.416667
3002	0	0.416667
3003	0	0.416667
3004	0	0.416667
3005	0	0.416667
3006	0	0.416667
3007	0	0.416667
3008	0	0.416667
3009	0	0.416667
3010	0	0.416667
3011	0	0.416667
3012	0	0.416667
3013	0	0.416667
3014	0	0.416667
3015	0	0.416667
3016	0	0.416667
3017	0	0.416667
3018	0	0.416667
3019	0	0.416667
3020	0	0.416667
3021	0	0.416667
3022	0	0.416667
3023	0	0.416667
3024	0	0.416667
3025	0	0.416667
3026	0	0.416667
3027	0	0.416667
3028	0	0.416667
3029	0	0.416667
3030	0	0.416667
3031	0	0.416667
3032	0	0.416667
3033	0	0.416667
3034	0	0.416667
3035	0	0.416667
3036	0	0.416667
3037	0	0.416667
3038	0	0.416667
3039	0	0.416667
3040	0	0.416667
3041	0	0.416667
3042	0	0.416667
3043	0	0.416667
3044	0	0.416667
3045	0	0.416667
3046	0	0.416667
3047	0	0.416667
3048	0	0.416667
3049	0	0.416667
3050	0	0.416667
3051	0	0.416667
3052	0	0.416667
3053	0	0.416667
3054	0	0.416667
3055	0	0
3056	0	0.277778
3057	0	0.277778
3058	0	0.277778
3059	0	0.416667
3060	0	0.416667
3061	0	0.416667
3062	0	0.416667
3063	0	0.416667
3064	0	0.416667
3065	0	0.416667
3066	0	0.416667
3067	0	0.416667
3068	0	0.416667
3069	0	0.416667
3070	0	0.416667
3071	0	0.416667
3072	0	0.416667
3073	0	0.416667
3074	0	0.416667
3075	0	0.416667
3076	0	0.416667
3077	0	0.416667
3078	0	0.416667
3079	0	0.416667
3080	0	0.416667
3081	0	0.416667
3082	0	0.416667
3083	0	0.416667
3084	0	0.416667
3085	0	0.416667
3086	0	0.416667
3087	0	0.416667
3088	0	0.416667
3089	0	0.416667
3090	0	0.416667
3091	0	0.416667
3092	0	0.416667
3093	0	0.416667
3094	0	0.416667
3095	0	0.416667
3096	0	0.416667
3097	0	0.416667
3098	0	0.416667
3099	0	0.416667
3100	0	0.416667
3101	0	0.416667
3102	0	0.416667
3103	0	0.416667
3104	0	0.416667
3105	0	0.416667
3106	0	0.416667
3107	0	0.416667
3108	0	0.416667
3109	0	0.416667
3110	0	0.416667
3111	0	0.416667
3112	0	0.416667
3113	0	0.416667
3114	0	0.416667
3115	0	0.416667
3116	0	0.416667
3117	0	0.416667
3118	0	0.416667
3119	0	0.416667
3120	0	0.416667
3121	0	0.416667
3122	0	0.416667
3123	0	0.416667
3124	0	0.416667
3125	0	0.416667
3126	0	0.416667
3127	0	0.416667
3128	0	0.416667
3129	0	0.416667
3130	0	0.416667
3131	0	0.416667
3132	0	0.416667
3133	0	0.416667
3134	0	0.416667
3135	0	0.416667
3136	0	0.416667
3137	0	0.416667
3138	0	0.416667
3139	0	0.583333
3140	0	0.583333
3141	0	0.583333
3142	0	0.583333
3143	0	0.583333
3144	0	0.583333
3145	0	0.583333
3146	0	0.416667
3147	0	0.416667
3148	0	0.416667
3149	0	0.357143
3150	0	0.277778
3151	0	0.277778
3152	0	0.277778
3153	0	0.277778
3154	0	0.277778
3155	0	0.277778
3156	0	0.277778
3157	0	0.277778
3158	0	0.277778
3159	0	0.277778
3160	0	0.277778
3161	0	0.277778
3162	0	0.416667
3163	0	0.535714
3164	0	0.535714
3165	0	0.535714
3166	0	0.535714
3167	0	0.535714
3168	0	0.535714
3169	0	0.535714
3170	0	0.535714
3171	0	0.535714
3172	0	0.535714
3173	0	0.535714
3174	0	0
3175	0	0
3176	0	0
3177	0	0
3178	0	0
3179	0	0
3180	0	0
3181	0	0
3182	0	0
3183	0	0
3184	0	0
3185	0	0
3186	0	0
3187	0	0
3188	0	0
3189	0	0
3190	0	0
3191	0	0
3192	0	0
3193	0	0
3194	0	0
3195	0	0
3196	0	0
3197	0	0
3198	0	0
3199	0	0
3200	0	0
3201	0	0
3202	0	0
3203	0	0
3204	0	0
3205	0	0
3206	0	0
3207	0	0
3208	0	0
3209	0	0
3210	0	0
3211	0	0
3212	0	0
3213	0	0
3214	0	0
3215	0	0
3216	0	0
3217	0	0
3218	0	0
3219	0	0
3220	0	0
3221	0	0
3222	0	0
3223	0	0
3224	0	0
3225	0	0
3226	0	0
3227	0	0
3228	0	0
3229	0	0
3230	0	0
3231	0	0
3232	0	0
3233	0	0
3234	0	0
3235	0	0
3236	0	0
3237	0	0
3238	0	0
3239	0	0
3240	0	0
3241	0	0
3242	0	0
3243	0	0
3244	0	0
3245	0	0
3246	0	0
3247	0	0
3248	0	0
3249	0	0
3250	0	0
3251	0	0
3252	0	0
3253	0	0
3254	0	0
3255	0	0
3256	0	0
3257	0	0
3258	0	0
3259	0	0
3260	0	0
3261	0	0
3262	0	0
3263	0	0
3264	0	0
3265	0	0
3266	0	0
3267	0	0
3268	0	0
3269	0	0
3270	0	0
3271	0	0
3272	0	0
3273	0	0
3274	0	0
3275	0	0
3276	0	0
3277	0	0
3278	0	0
3279	0	0
3280	0	0
3281	0	0
3282	0	0
3283	0	0
3284	0	0
3285	0	0
3286	0	0
3287	0	0
3288	0	0
3289	0	0
3290	0	0
3291	0	0
3292	0	0
3293	0	0
3294	0	0
3295	0	0
3296	0	0
3297	0	0
3298	0	0
3299	0	0
3300	0	0
3301	0	0
3302	0	0
3303	0	0
3304	0	0
3305	0	0
3306	0	0
3307	0	0
3308	0	0
3309	0	0
3310	0	0
3311	0	0
3312	0	0
3313	0	0
3314	0	0
3315	0	0
3316	0	0
3317	0	0
3318	0	0
3319	0	0
3320	1	0
3321	0	0
3322	0	0
3323	0	0
3324	0	0
3325	0	0
3326	0	0
3327	0	0
3328	0	0
3329	0	0
3330	0	0
3331	0	0
3332	0	0
3333	0	0
3334	0	0
3335	0	0
3336	0	0
3337	0	0
