Site	ColumnScore	SumOfPairsScore
1	1	0
2	1	0
3	1	0
4	1	0
5	1	0
6	1	0
7	1	0
8	1	0
9	1	0
10	1	0
11	1	0
12	1	0
13	1	0
14	1	0
15	1	0
16	1	0
17	1	0
18	1	0
19	1	0
20	1	0
21	1	0
22	1	0
23	1	0
24	1	0
25	1	0
26	1	0
27	1	0
28	1	0
29	1	0
30	1	0
31	1	0
32	1	0
33	1	0
34	1	0
35	1	0
36	1	0
37	1	0
38	1	0
39	1	0
40	1	0
41	1	0
42	1	0
43	1	0
44	1	0
45	1	0
46	1	0
47	1	0
48	1	0
49	1	0
50	1	0
51	1	0
52	1	0
53	1	0
54	1	0
55	1	0
56	1	0
57	1	0
58	1	0
59	1	0
60	1	0
61	1	0
62	1	0
63	1	0
64	1	0
65	1	0
66	1	0
67	1	0
68	1	0
69	1	0
70	1	0
71	1	0
72	1	0
73	1	0
74	1	0
75	1	0
76	1	0
77	1	0
78	1	0
79	1	0
80	1	0
81	1	0
82	1	0
83	1	0
84	1	0
85	1	0
86	1	0
87	1	0
88	1	0
89	1	0
90	1	0
91	1	0
92	1	0
93	1	0
94	1	0
95	1	0
96	1	0
97	1	0
98	1	0
99	1	0
100	1	0
101	1	0
102	1	0
103	1	0
104	1	0
105	1	0
106	1	0
107	1	0
108	0	0
109	0	0
110	0	0
111	0	0
112	0	0
113	1	0
114	1	0
115	1	0
116	1	0
117	1	0
118	1	0
119	1	0
120	1	0
121	1	0
122	1	0
123	1	0
124	1	0
125	1	0
126	1	0
127	1	0
128	1	0
129	1	0
130	1	0
131	1	0
132	1	0
133	1	0
134	1	0
135	1	0
136	1	0
137	1	0
138	1	0
139	1	0
140	1	0
141	1	0
142	1	0
143	1	0
144	1	0
145	1	0
146	1	0
147	1	0
148	1	0
149	1	0
150	1	0
151	1	0
152	1	0
153	1	0
154	1	0
155	1	0
156	1	0
157	1	0
158	1	0
159	1	0
160	1	0
161	1	0
162	1	0
163	1	0
164	1	0
165	1	0
166	1	0
167	1	0
168	1	0
169	1	0
170	1	0
171	1	0
172	1	0
173	1	0
174	1	0
175	1	0
176	1	0
177	1	0
178	1	0
179	1	0
180	1	0
181	1	0
182	1	0
183	0	0
184	0	0
185	0	0
186	0	0
187	0	0
188	0	0
189	0	0
190	0	0
191	0	0
192	0	0
193	0	0
194	0	0
195	0	0
196	0	0
197	0	0
198	0	0
199	0	0
200	0	0
201	0	0
202	0	0
203	0	0
204	0	0
205	0	0
206	0	0
207	0	0
208	0	0
209	0	0
210	0	0
211	0	0
212	0	0
213	0	0
214	0	0
215	0	0
216	0	0
217	0	0
218	0	0
219	0	0
220	0	0
221	0	0
222	0	0
223	0	0
224	0	0
225	0	0
226	0	0
227	0	0
228	0	0
229	0	0
230	0	0
231	0	0
232	0	0
233	0	0
234	0	0
235	0	0
236	0	0
237	0	0
238	0	0
239	0	0
240	0	0
241	0	0
242	0	0
243	0	0
244	0	0
245	0	0
246	0	0
247	0	0
248	0	0
249	0	0
250	0	0
251	0	0
252	0	0
253	0	0
254	0	0
255	0	0
256	0	0
257	0	0
258	0	0
259	0	0
260	0	0
261	0	0
262	0	0
263	0	0
264	0	0
265	0	0
266	0	0
267	0	0
268	0	0
269	0	0
270	0	0
271	0	0
272	0	0
273	0	0
274	0	0
275	0	0
276	0	0
277	0	0
278	0	0
279	0	0
280	0	0
281	0	0
282	0	0
283	0	0
284	0	0
285	0	0
286	0	0
287	0	0
288	0	0
289	0	0.333333
290	0	0.333333
291	0	0.333333
292	0	0.333333
293	0	0.333333
294	0	0.333333
295	0	0.5
296	0	0.5
297	0	0.5
298	0	0.5
299	0	0.5
300	0	0.5
301	0	0.5
302	0	0.5
303	0	0.666667
304	0	0.666667
305	0	0.714286
306	0	0.714286
307	0	0.535714
308	0	0.583333
309	0	0.583333
310	0	0.583333
311	0	0.583333
312	0	0.583333
313	0	0.583333
314	0	0.583333
315	0	0.583333
316	0	0.583333
317	0	0.583333
318	0	0.583333
319	0	0.583333
320	0	0.583333
321	0	0.583333
322	0	0.583333
323	0	0.583333
324	0	0.583333
325	0	0.583333
326	0	0.583333
327	0	0.583333
328	0	0.583333
329	0	0.583333
330	0	0.583333
331	0	0.583333
332	0	0.583333
333	0	0.583333
334	0	0.583333
335	0	0.583333
336	0	0.583333
337	0	0.583333
338	0	0.583333
339	0	0.583333
340	0	0.583333
341	0	0.583333
342	0	0.583333
343	0	0.583333
344	0	0.583333
345	0	0.583333
346	0	0.583333
347	0	0.583333
348	0	0.583333
349	0	0.583333
350	0	0.583333
351	0	0.583333
352	0	0.583333
353	0	0.583333
354	0	0.583333
355	0	0.583333
356	0	0.583333
357	0	0.583333
358	0	0.583333
359	0	0.583333
360	0	0.583333
361	0	0.583333
362	0	0.583333
363	0	0.583333
364	0	0.583333
365	0	0.583333
366	0	0.583333
367	0	0.583333
368	0	0.583333
369	0	0.583333
370	0	0.583333
371	0	0.583333
372	0	0.583333
373	0	0.583333
374	0	0.583333
375	0	0.583333
376	0	0.583333
377	0	0.583333
378	0	0.583333
379	0	0.583333
380	0	0.583333
381	0	0.583333
382	0	0.583333
383	0	0.583333
384	0	0.583333
385	0	0.583333
386	0	0.583333
387	0	0.583333
388	0	0.583333
389	0	0.583333
390	0	0.583333
391	0	0.583333
392	0	0.583333
393	0	0.583333
394	0	0.583333
395	0	0.583333
396	0	0.583333
397	0	0.583333
398	0	0.583333
399	0	0.583333
400	0	0.583333
401	0	0.583333
402	0	0.583333
403	0	0.583333
404	0	0.583333
405	0	0.583333
406	0	0.583333
407	0	0.583333
408	0	0.583333
409	0	0.583333
410	0	0.583333
411	0	0.583333
412	0	0.583333
413	0	0.583333
414	0	0.583333
415	0	0.583333
416	0	0.583333
417	0	0.583333
418	0	0.583333
419	0	0.583333
420	0	0.583333
421	0	0.583333
422	0	0.583333
423	0	0.583333
424	0	0.583333
425	0	0.583333
426	0	0.583333
427	0	0.583333
428	0	0.583333
429	0	0.583333
430	0	0.583333
431	0	0.583333
432	0	0.583333
433	0	0.583333
434	0	0.583333
435	0	0.583333
436	0	0.583333
437	0	0.583333
438	0	0.583333
439	0	0.583333
440	0	0.583333
441	0	0.583333
442	0	0.583333
443	0	0.583333
444	0	0.583333
445	0	0.583333
446	0	0.583333
447	0	0.583333
448	0	0.583333
449	0	0.583333
450	0	0.583333
451	0	0.583333
452	0	0.583333
453	0	0.583333
454	0	0.583333
455	0	0.583333
456	0	0.583333
457	0	0.583333
458	0	0.583333
459	0	0.583333
460	0	0.583333
461	0	0.583333
462	0	0.583333
463	0	0.583333
464	0	0.583333
465	0	0.583333
466	0	0.583333
467	0	0.583333
468	0	0.583333
469	0	0.583333
470	0	0.583333
471	0	0.583333
472	0	0.583333
473	0	0.583333
474	0	0.583333
475	0	0.583333
476	0	0.583333
477	0	0.583333
478	0	0.583333
479	0	0.583333
480	0	0.583333
481	0	0.583333
482	0	0.583333
483	0	0.583333
484	0	0.583333
485	0	0.583333
486	0	0.583333
487	0	0.583333
488	0	0.583333
489	0	0.583333
490	0	0.583333
491	0	0.583333
492	0	0.583333
493	0	0.583333
494	0	0.583333
495	0	0.583333
496	0	0.583333
497	0	0.583333
498	0	0.583333
499	0	0.583333
500	0	0.583333
501	0	0.583333
502	0	0.583333
503	0	0.583333
504	0	0.583333
505	0	0.583333
506	0	0.583333
507	0	0.583333
508	0	0.535714
509	0	0.535714
510	0	0.535714
511	0	0.357143
512	0	0.47619
513	0	0.47619
514	0	0.47619
515	0	0.285714
516	0	0.142857
517	0	0.142857
518	0	0.107143
519	0	0.107143
520	0	0.107143
521	0	0.107143
522	0	0.107143
523	0	0.142857
524	0	0.142857
525	0	0.0833333
526	0	0.0833333
527	0	0.0833333
528	0	0.111111
529	0	0.111111
530	0	0.111111
531	0	0.166667
532	0	0.166667
533	0	0.166667
534	0	0.166667
535	0	0.166667
536	0	0.166667
537	0	0.166667
538	0	0.166667
539	0	0.166667
540	0	0.166667
541	0	0.166667
542	0	0.166667
543	0	0.166667
544	0	0.166667
545	0	0.142857
546	0	0.142857
547	0	0.142857
548	0	0.142857
549	0	0.142857
550	0	0.142857
551	0	0.142857
552	0	0.142857
553	0	0.142857
554	0	0.142857
555	0	0.142857
556	0	0.142857
557	0	0.0714286
558	0	0.0714286
559	0	0.0714286
560	0	0.0714286
561	0	0.0714286
562	0	0.0714286
563	0	0.0714286
564	0	0.0714286
565	0	0.0714286
566	0	0.0714286
567	0	0.0714286
568	0	0.0714286
569	0	0.0714286
570	0	0.0714286
571	0	0.0714286
572	0	0.0714286
573	0	0.0714286
574	0	0.0714286
575	0	0.0714286
576	0	0.0714286
577	0	0.0714286
578	0	0.0714286
579	0	0.0714286
580	0	0.0714286
581	0	0.0714286
582	0	0.0714286
583	0	0.0714286
584	0	0.0714286
585	0	0
586	0	0
587	0	0.0357143
588	0	0.0357143
589	0	0.0357143
590	0	0.0357143
591	0	0.0357143
592	0	0.0357143
593	0	0.0357143
594	0	0.0357143
595	0	0.0357143
596	0	0.0357143
597	0	0.0357143
598	0	0.0357143
599	0	0.0357143
600	0	0.0357143
601	0	0.0357143
602	0	0.0357143
603	0	0.0357143
604	0	0.0357143
605	0	0.0357143
606	0	0.0357143
607	0	0.0357143
608	0	0.0357143
609	0	0.0357143
610	0	0.0357143
611	0	0.0357143
612	0	0.0357143
613	0	0.0357143
614	0	0.0357143
615	0	0.0357143
616	0	0.0357143
617	0	0.0357143
618	0	0.0357143
619	0	0.0357143
620	0	0.0357143
621	0	0.0357143
622	0	0.0357143
623	0	0.0357143
624	0	0.0357143
625	0	0.0357143
626	0	0.0357143
627	0	0.0357143
628	0	0.0357143
629	0	0.0357143
630	0	0.0357143
631	0	0.0357143
632	0	0.0357143
633	0	0.0357143
634	0	0.0357143
635	0	0.0357143
636	0	0.0357143
637	0	0.0357143
638	0	0.0357143
639	0	0.0357143
640	0	0.0357143
641	0	0.0357143
642	0	0.0357143
643	0	0.0357143
644	0	0.0357143
645	0	0.0357143
646	0	0.0357143
647	0	0
648	0	0
649	0	0
650	0	0
651	0	0
652	0	0
653	0	0
654	0	0
655	0	0.0357143
656	0	0.0357143
657	0	0.0714286
658	0	0.0714286
659	0	0.0714286
660	0	0.0714286
661	0	0.0714286
662	0	0.0714286
663	0	0.107143
664	0	0.107143
665	0	0.107143
666	0	0.107143
667	0	0.107143
668	0	0.107143
669	0	0.0357143
670	0	0.0357143
671	0	0.0357143
672	0	0.0357143
673	0	0.0357143
674	0	0.107143
675	0	0.107143
676	0	0.107143
677	0	0.107143
678	0	0.107143
679	0	0.107143
680	0	0.107143
681	0	0.107143
682	0	0.107143
683	0	0.107143
684	0	0.107143
685	0	0.107143
686	0	0.107143
687	0	0.107143
688	0	0.107143
689	0	0.214286
690	0	0.214286
691	0	0.214286
692	0	0.0714286
693	0	0.0714286
694	0	0.0357143
695	0	0.0357143
696	0	0.0357143
697	0	0
698	0	0
699	0	0
700	0	0
701	0	0
702	0	0
703	0	0
704	0	0
705	0	0
706	0	0
707	0	0
708	0	0
709	0	0
710	0	0
711	0	0
712	0	0
713	0	0
714	0	0
715	0	0
716	0	0
717	0	0
718	0	0
719	0	0
720	0	0
721	0	0
722	0	0.0357143
723	0	0.0357143
724	0	0.0357143
725	0	0.0357143
726	0	0.0357143
727	0	0.0357143
728	0	0.0357143
729	0	0.0357143
730	0	0.0357143
731	0	0.0357143
732	0	0.0357143
733	0	0.0357143
734	0	0
735	0	0
736	0	0
737	0	0
738	0	0
739	0	0
740	0	0
741	0	0
742	0	0
743	0	0
744	0	0
745	0	0
746	0	0
747	0	0
748	0	0
749	0	0
750	0	0
751	0	0
752	0	0
753	0	0
754	0	0
755	0	0
756	0	0
757	0	0
758	0	0
759	0	0
760	0	0
761	0	0
762	0	0
763	0	0
764	0	0
765	0	0
766	0	0
767	0	0
768	0	0
769	0	0
770	0	0
771	0	0
772	0	0
773	0	0
774	0	0
775	0	0
776	0	0
777	0	0
778	0	0
779	0	0
780	0	0
781	0	0
782	0	0
783	0	0
784	0	0
785	0	0
786	0	0
787	0	0
788	0	0
789	0	0
790	0	0
791	0	0
792	0	0
793	0	0
794	0	0
795	0	0
796	0	0
797	0	0
798	0	0
799	0	0
800	0	0
801	0	0
802	0	0
803	0	0
804	0	0
805	0	0
806	0	0
807	0	0
808	0	0
809	0	0
810	0	0
811	0	0
812	0	0
813	0	0
814	0	0
815	0	0
816	0	0
817	0	0
818	0	0
819	0	0
820	0	0
821	0	0
822	0	0
823	0	0
824	0	0
825	0	0
826	0	0
827	0	0
828	0	0
829	0	0
830	0	0
831	0	0
832	0	0
833	0	0
834	0	0
835	0	0
836	0	0
837	0	0
838	0	0
839	0	0
840	0	0.0151515
841	0	0.0151515
842	0	0
843	0	0
844	0	0
845	0	0.0151515
846	0	0.0151515
847	0	0.0151515
848	0	0.0151515
849	0	0.0151515
850	0	0.0151515
851	0	0.0151515
852	0	0.0181818
853	0	0.0363636
854	0	0.0151515
855	0	0.0151515
856	0	0.0151515
857	0	0.030303
858	0	0.030303
859	0	0.030303
860	0	0.0454545
861	0	0.0606061
862	0	0.145455
863	0	0.145455
864	0	0.177778
865	0	0.2
866	0	0.288889
867	0	0.288889
868	0	0.288889
869	0	0.311111
870	0	0.288889
871	0	0.92
872	0	0.92
873	0	0.92
874	0	0.923077
875	0	0.923077
876	0	0.923077
877	0	0.923077
878	0	0.923077
879	0	0.925926
880	0	1
881	0	0.968087
882	0	0.977359
883	0	0.977359
884	0	0.977359
885	0	0
886	0	0
887	0	0
888	0	0
889	0	0
890	0	0
891	0	0
892	0	0
893	0	0
894	0	0.977273
895	0	0.96987
896	0	0.96987
897	0	0.96987
898	0	0.96987
899	0	0.96987
900	0	0.83004
901	0	0.824689
902	0	0.824689
903	0	0.824689
904	0	0.824689
905	0	0.81781
906	0	0.81781
907	0	0.774591
908	0	0.772059
909	0	0.784314
910	0	0.372912
911	0	0.2
912	0	0
913	0	0
914	0	0
915	0	0
916	0	0
917	0	0
918	0	0
919	0	0
920	0	0
921	0	0
922	0	0
923	0	0
924	0	0
925	0	0
926	0	0
927	0	0
928	0	0
929	0	0
930	0	0
931	0	0
932	0	0
933	0	0
934	0	0
935	0	0
936	0	0
937	0	0
938	0	0
939	0	0
940	0	0
941	0	0
942	0	0
943	0	0
944	0	0
945	0	0
946	0	0
947	0	0
948	0	0
949	0	0
950	0	0
951	0	0
952	0	0
953	0	0
954	0	0
955	0	0
956	0	0
957	0	0
958	0	0
959	0	0
960	0	0
961	0	0
962	0	0
963	0	0
964	0	0
965	0	0
966	0	0
967	0	0
968	0	0
969	0	0
970	0	0
971	0	0
972	0	0
973	0	0
974	0	0
975	0	0
976	0	0
977	0	0
978	0	0
979	0	0
980	0	0
981	0	0
982	0	0
983	0	0
984	0	0
985	0	0
986	0	0
987	0	0
988	0	0
989	0	0
990	0	0
991	0	0
992	0	0
993	0	0
994	0	0
995	0	0
996	0	0
997	0	0
998	0	0
999	0	0
1000	0	0
1001	0	0
1002	0	0
1003	0	0
1004	0	0
1005	0	0
1006	0	0
1007	0	0
1008	0	0
1009	0	0
1010	0	0
1011	0	0
1012	0	0
1013	0	0
1014	0	0
1015	0	0
1016	0	0
1017	0	0
1018	0	0
1019	0	0
1020	0	0
1021	0	0
1022	0	0
1023	0	0
1024	0	0
1025	0	0
1026	0	0
1027	0	0
1028	0	0
1029	0	0
1030	0	0
1031	0	0
1032	0	0
1033	0	0
1034	0	0
1035	0	0
1036	0	0
1037	0	0
1038	0	0
1039	0	0
1040	0	0
1041	0	0
1042	0	0
1043	0	0
1044	0	0
1045	0	0
1046	0	0
1047	0	0
1048	0	0
1049	0	0
1050	0	0
1051	0	0
1052	0	0
1053	0	0
1054	0	0
1055	0	0
1056	0	0
1057	0	0
1058	0	0
1059	0	0
1060	0	0.3501
1061	0	0.288889
1062	0	0.416152
1063	0	0.235893
1064	0	0.210539
1065	0	0.264854
1066	0	0.217279
1067	0	0.195195
1068	0	0.385185
1069	0	0.328139
1070	0	0.436323
1071	0	0.449584
1072	0	0.190476
1073	0	0.3
1074	0	0.285714
1075	0	0
1076	1	0
1077	1	0
1078	1	0
1079	1	0
1080	0	0
1081	0	0
1082	0	0
1083	0	0
1084	0	0
1085	0	0
1086	0	0
1087	0	0
1088	0	0
1089	0	0
1090	0	0
1091	0	0
1092	0	0
1093	0	0
1094	0	0
1095	0	0
1096	0	0
1097	0	0
1098	0	0
1099	0	0
1100	0	0
1101	0	0
1102	0	0
1103	0	0
1104	0	0
1105	0	0
1106	0	0
1107	0	0
1108	0	0
1109	0	0
1110	0	0
1111	0	0
1112	0	0
1113	0	0
1114	0	0
1115	0	0
1116	0	0
1117	0	0
1118	0	0
1119	0	0
1120	0	0
1121	0	0
1122	0	0
1123	0	0
1124	0	0
1125	0	0
1126	0	0
1127	0	0
1128	0	0
1129	0	0
1130	0	0
1131	0	0
1132	0	0
1133	0	0
1134	0	0
1135	0	0
1136	0	0
1137	0	0
1138	0	0
1139	0	0
1140	0	0
1141	0	0
1142	0	0
1143	0	0
1144	0	0
1145	0	0
1146	0	0
1147	0	0
1148	0	0
1149	0	0
1150	0	0
1151	0	0
1152	0	0
1153	0	0
1154	0	0
1155	0	0
1156	0	0
1157	0	0
1158	0	0
1159	0	0
1160	0	0
1161	0	0
1162	0	0
1163	0	0
1164	0	0
1165	0	0
1166	0	0
1167	0	0
1168	0	0
1169	0	0
1170	0	0
1171	0	0
1172	0	0
1173	0	0
1174	0	0
1175	0	0
1176	0	0
1177	0	0
1178	0	0
1179	0	0
1180	0	0
1181	0	0
1182	0	0
1183	0	0
1184	0	0
1185	0	0
1186	0	0
1187	0	0
1188	0	0
1189	0	0
1190	0	0
1191	0	0
1192	0	0
1193	0	0
1194	0	0
1195	0	0
1196	0	0
1197	0	0
1198	0	0
1199	0	0
1200	0	0
1201	0	0
1202	0	0
1203	0	0
1204	0	0
1205	0	0
1206	0	0
1207	0	0
1208	0	0
1209	0	0
1210	0	0
1211	0	0
1212	0	0
1213	0	0
1214	0	0
1215	0	0.529583
1216	0	0.529583
1217	0	0.559226
1218	0	0.873118
1219	0	0.901282
1220	0	0.984934
1221	0	0.984934
1222	0	0.984963
1223	0	0.984963
1224	0	0.984963
1225	0	0.984963
1226	0	0.984963
1227	0	0.992424
1228	0	0.992424
1229	0	0.992424
1230	0	0.992424
1231	0	0.992424
1232	0	0.992424
1233	0	0
1234	0	0
1235	0	0
1236	0	0
1237	0	0
1238	0	0
1239	0	0.984556
1240	1	1
1241	1	1
1242	1	1
1243	1	1
1244	1	1
1245	1	1
1246	1	1
1247	1	1
1248	1	1
1249	1	1
1250	1	1
1251	0	0.984675
1252	1	1
1253	1	1
1254	1	1
1255	1	1
1256	1	1
1257	1	1
1258	1	1
1259	1	1
1260	0	0.899182
1261	0	1
1262	0	1
1263	0	1
1264	0	1
1265	0	0.6
1266	0	0.6
1267	0	0.4
1268	0	0.266667
1269	0	0.266667
1270	0	0.82578
1271	0	0.808548
1272	0	0.808548
1273	0	0.808519
1274	0	0.684542
1275	0	0.619906
1276	0	0.295455
1277	0	0.384087
1278	0	0.345366
1279	0	0.237136
1280	0	0.252727
1281	0	0.238876
1282	0	0.333333
1283	0	0
1284	0	0
1285	0	0.494505
1286	0	0.494505
1287	0	0.272727
1288	0	0.166667
1289	0	0.357143
1290	0	0.102941
1291	0	0.116959
1292	0	0.147059
1293	0	0.0916667
1294	0	0.104762
1295	0	0.131868
1296	0	0.166667
1297	0	0.0555556
1298	0	0.0545455
1299	0	0.0666667
1300	0	0.0797721
1301	0	0.0502646
1302	0	0.208654
1303	0	0.0650794
1304	0	0.129012
1305	0	0.0767261
1306	0	0.0640948
1307	0	0.0793094
1308	0	0.0948722
1309	0	0.188836
1310	0	0.506868
1311	0	0.469726
1312	0	0.529849
1313	0	0.555975
1314	0	0.166667
1315	0	0.5
1316	0	0.5
1317	0	0.714286
1318	0	0.714286
1319	0	0.714286
1320	0	0.373219
1321	0	0.428571
1322	0	0.552707
1323	0	0.564516
1324	0	0.780749
1325	0	0.959184
1326	0	0.992
1327	0	0.992278
1328	0	1
1329	1	1
1330	1	1
1331	1	1
1332	1	1
1333	1	1
1334	1	1
1335	1	1
1336	1	1
1337	1	1
1338	1	1
1339	1	1
1340	1	1
1341	1	1
1342	1	1
1343	1	1
1344	1	1
1345	1	1
1346	1	1
1347	1	1
1348	1	1
1349	1	1
1350	1	1
1351	1	1
1352	1	1
1353	1	1
1354	1	1
1355	0	1
1356	0	1
1357	0	1
1358	0	1
1359	1	1
1360	1	1
1361	1	1
1362	1	1
1363	1	1
1364	1	1
1365	1	1
1366	1	1
1367	1	1
1368	1	1
1369	1	1
1370	1	1
1371	1	1
1372	1	1
1373	1	1
1374	1	1
1375	0	1
1376	0	0.778747
1377	0	0.848294
1378	0	0.886061
1379	0	0.753695
1380	0	0.428571
1381	0	0.333333
1382	0	0.333333
1383	0	0.499732
1384	0	0.534398
1385	0	0.970375
1386	1	1
1387	1	1
1388	1	1
1389	1	1
1390	1	1
1391	1	1
1392	1	1
1393	1	1
1394	0	0
1395	0	0
1396	0	0
1397	0	0
1398	0	0
1399	0	0
1400	0	0
1401	0	0
1402	0	0
1403	1	0
1404	1	0
1405	0	0
1406	0	0
1407	0	0
1408	0	0
1409	0	0.166667
1410	0	0.305556
1411	0	0.217949
1412	0	0.214286
1413	0	0.254902
1414	0	0.197965
1415	0	0.170612
1416	0	0.147451
1417	0	0.163683
1418	0	0.550698
1419	0	0.207677
1420	0	0.179483
1421	0	0.431704
1422	0	0.387035
1423	0	0.336882
1424	0	0.25641
1425	0	0.410256
1426	0	0.615385
1427	0	0.719024
1428	0	0.90119
1429	0	0.932585
1430	0	0.277778
1431	0	0.4
1432	0	1
1433	0	1
1434	0	1
1435	0	0.992509
1436	0	0.992509
1437	0	0.992509
1438	1	1
1439	1	1
1440	1	1
1441	1	1
1442	1	1
1443	1	1
1444	1	1
1445	1	1
1446	1	1
1447	1	1
1448	1	1
1449	1	1
1450	1	1
1451	1	1
1452	1	1
1453	1	1
1454	1	1
1455	1	1
1456	1	1
1457	1	1
1458	1	1
1459	1	1
1460	1	1
1461	1	1
1462	1	1
1463	1	1
1464	1	1
1465	1	1
1466	1	1
1467	1	1
1468	1	1
1469	1	1
1470	1	1
1471	1	1
1472	1	1
1473	1	1
1474	1	1
1475	1	1
1476	1	1
1477	1	1
1478	1	1
1479	1	1
1480	1	1
1481	1	1
1482	1	1
1483	1	1
1484	1	1
1485	1	1
1486	1	1
1487	1	1
1488	1	1
1489	1	1
1490	1	1
1491	0	0.941652
1492	0	0.878291
1493	0	0
1494	0	0.75
1495	0	0.535714
1496	0	0.535714
1497	0	0.1
1498	0	0.1
1499	0	0.142857
1500	0	0.0666667
1501	0	0.0666667
1502	0	0.0714286
1503	0	0.142857
1504	0	0.142857
1505	0	0
1506	0	0
1507	0	0
1508	0	0.2
1509	0	0.236364
1510	0	0.80658
1511	0	0.770743
1512	0	0.619289
1513	0	0.591739
1514	0	0.533832
1515	0	0.364173
1516	0	0.288466
1517	0	0.219193
1518	0	0.254432
1519	0	0.182906
1520	0	0.184265
1521	0	0.0910256
1522	0	0.115297
1523	0	0.0849951
1524	0	0.0780586
1525	0	0.0444444
1526	0	0.047619
1527	0	0.047619
1528	0	0.047619
1529	0	0.047619
1530	0	0.047619
1531	0	0.0816626
1532	0	0.083679
1533	0	0.0788109
1534	0	0.0786579
1535	0	0.0786464
1536	0	0.0760727
1537	0	0.0879121
1538	0	0.0291005
1539	0	0.0596076
1540	0	0.0408602
1541	0	0.0423387
1542	0	0.0349206
1543	0	0.0530973
1544	0	0.0540293
1545	0	0.0575699
1546	0	0.0549944
1547	0	0.0615317
1548	0	0.0535319
1549	0	0.0560893
1550	0	0.0606387
1551	0	0.0558136
1552	0	0.0564468
1553	0	0.113216
1554	0	0.133188
1555	0	0.132744
1556	0	0.133121
1557	0	0.129569
1558	0	0.333333
1559	0	0.333333
1560	0	0.333333
1561	0	0.235294
1562	0	1
1563	0	1
1564	0	0.350649
1565	0	0.285714
1566	0	0.354978
1567	0	0.463203
1568	0	0.527273
1569	0	0.097842
1570	0	0.10751
1571	0	0.110672
1572	0	0.15942
1573	0	0.166667
1574	0	0.148504
1575	0	0.174981
1576	0	0.4
1577	0	0.4
1578	0	0.4
1579	0	0.4
1580	0	0.4
1581	0	0.4
1582	0	0.571429
1583	0	0.263725
1584	0	0.185868
1585	0	0.189795
1586	0	0.207519
1587	0	0.252319
1588	0	0.258306
1589	0	0.5
1590	0	0.469697
1591	0	0.454545
1592	0	0.461538
1593	0	0.486702
1594	0	0.981818
1595	0	0.736207
1596	0	1
1597	0	1
1598	0	1
1599	0	0.807404
1600	0	0.813522
1601	0	0.984963
1602	0	0.984963
1603	0	1
1604	0	1
1605	0	1
1606	0	1
1607	1	1
1608	1	1
1609	1	1
1610	1	1
1611	1	1
1612	1	1
1613	1	1
1614	1	1
1615	1	1
1616	1	1
1617	1	1
1618	1	1
1619	1	1
1620	1	1
1621	1	1
1622	1	1
1623	1	1
1624	1	1
1625	1	1
1626	1	1
1627	1	1
1628	1	1
1629	1	1
1630	1	1
1631	1	1
1632	1	1
1633	1	1
1634	1	1
1635	0	0
1636	0	0
1637	0	0
1638	0	0
1639	0	0
1640	0	0
1641	0	0
1642	0	0
1643	0	0
1644	0	0
1645	1	0
1646	1	0
1647	1	0
1648	1	0
1649	1	0
1650	0	0
1651	0	0
1652	0	0
1653	0	0
1654	0	0
1655	0	0
1656	0	0
1657	0	0.166667
1658	0	0.166667
1659	0	0.166667
1660	0	0.166667
1661	0	0.5
1662	0	0.5
1663	0	0.5
1664	0	0.5
1665	0	0.5
1666	1	1
1667	1	1
1668	1	1
1669	1	1
1670	1	1
1671	0	0.96993
1672	0	1
1673	0	1
1674	0	1
1675	0	1
1676	0	1
1677	0	1
1678	0	1
1679	0	1
1680	0	1
1681	0	1
1682	0	1
1683	0	1
1684	0	1
1685	0	1
1686	0	1
1687	0	1
1688	0	1
1689	0	1
1690	0	1
1691	0	0.992395
1692	0	0.992395
1693	0	0.992395
1694	0	0.984877
1695	0	0.984877
1696	0	0.984877
1697	0	0.984877
1698	0	0.984877
1699	0	0.984877
1700	0	0.984877
1701	0	0.984877
1702	0	0.992395
1703	0	0.992395
1704	0	0.992395
1705	0	0.992395
1706	0	0.992395
1707	0	0.992395
1708	0	0.992395
1709	0	0.992395
1710	0	0.992395
1711	0	0.992395
1712	0	0.977473
1713	0	0
1714	0	0
1715	0	0
1716	0	0
1717	0	0
1718	0	0
1719	0	0
1720	0	0
1721	0	0
1722	0	0
1723	1	0
1724	1	0
1725	1	0
1726	1	0
1727	1	0
1728	0	0.98482
1729	0	0.98482
1730	0	0.98482
1731	0	0.970011
1732	0	0.970011
1733	0	0.970011
1734	0	0.970011
1735	0	0.947668
1736	0	0.977273
1737	0	0.977273
1738	0	0.98482
1739	0	0.98482
1740	0	0.98482
1741	0	0.98482
1742	0	0.333333
1743	0	0.970123
1744	0	0.970123
1745	0	0.970123
1746	0	0.940633
1747	0	0.932714
1748	0	0
1749	0	0
1750	0	0
1751	0	0
1752	0	0
1753	0	0
1754	0	0
1755	0	0
1756	0	0
1757	0	0
1758	0	0
1759	0	0
1760	0	0
1761	0	0
1762	0	0
1763	0	0
1764	0	0
1765	0	0
1766	0	0
1767	0	0
1768	0	0
1769	0	0.914849
1770	0	0
1771	0	0
1772	0	0
1773	0	0
1774	0	0
1775	0	0
1776	0	0
1777	0	0
1778	0	0
1779	0	0
1780	0	0
1781	0	0
1782	0	0
1783	0	0
1784	0	0
1785	0	0
1786	0	0
1787	0	0
1788	0	0
1789	0	0
1790	0	0
1791	0	0
1792	0	0
1793	0	0
1794	0	0
1795	0	0
1796	0	0
1797	0	0
1798	0	0
1799	0	0
1800	0	0
1801	0	0
1802	0	0
1803	0	0
1804	0	0
1805	0	0
1806	0	0
1807	0	0
1808	0	0
1809	0	0
1810	0	0
1811	0	0
1812	0	0
1813	0	0
1814	0	0
1815	0	0
1816	0	0
1817	0	0
1818	0	0
1819	0	0.333333
1820	0	0.333333
1821	0	0.333333
1822	0	0.583333
1823	0	0.583333
1824	0	0.361905
1825	0	0.361905
1826	0	0.361905
1827	0	0.316667
1828	0	0.340659
1829	0	0.340659
1830	0	0.742857
1831	0	0.742857
1832	0	0.742857
1833	0	0.742857
1834	0	0.82884
1835	0	0.82884
1836	0	0.828811
1837	0	0.828811
1838	0	0
1839	0	0
1840	0	0
1841	0	0.828667
1842	0	0.828667
1843	0	0
1844	0	0
1845	0	0
1846	0	0
1847	0	0
1848	0	0
1849	0	0
1850	0	0
1851	0	0
1852	0	0
1853	0	0
1854	0	0
1855	0	0
1856	0	0
1857	0	0
1858	0	0
1859	0	0
1860	0	0
1861	0	0
1862	0	0
1863	0	0
1864	0	0
1865	0	0
1866	0	0
1867	0	0
1868	0	0
1869	0	0
1870	0	0
1871	0	0
1872	0	0
1873	0	0
1874	0	0
1875	0	0
1876	0	0
1877	0	0
1878	0	0
1879	0	0
1880	0	0
1881	0	0
1882	0	0
1883	0	0
1884	0	0
1885	0	0
1886	0	0
1887	0	0
1888	0	0
1889	0	0
1890	0	0
1891	0	0
1892	0	0
1893	0	0
1894	0	0
1895	0	0
1896	0	0
1897	0	0
1898	0	0
1899	0	0
1900	0	0
1901	0	0
1902	0	0.166667
1903	0	0.166667
1904	0	0.166667
1905	0	0.638095
1906	0	0.866667
1907	0	0.866667
1908	0	0.676471
1909	0	0.676471
1910	0	0.676471
1911	0	0.676471
1912	0	0.779412
1913	0	0.779412
1914	0	0.779412
1915	0	0.779412
1916	0	1
1917	0	1
1918	0	1
1919	0	1
1920	0	1
1921	0	1
1922	0	1
1923	1	1
1924	1	1
1925	1	1
1926	1	1
1927	1	1
1928	1	1
1929	1	1
1930	1	1
1931	1	1
1932	1	1
1933	1	1
1934	0	1
1935	0	1
1936	1	1
1937	1	1
1938	1	1
1939	1	1
1940	1	1
1941	1	1
1942	1	1
1943	1	1
1944	1	1
1945	1	1
1946	1	1
1947	0	1
1948	0	1
1949	0	1
1950	0	1
1951	0	1
1952	0	1
1953	0	1
1954	0	1
1955	0	1
1956	0	1
1957	1	1
1958	1	1
1959	1	1
1960	1	1
1961	1	1
1962	1	1
1963	0	1
1964	0	1
1965	0	1
1966	1	1
1967	1	1
1968	1	1
1969	1	1
1970	1	1
1971	1	1
1972	1	1
1973	1	1
1974	1	1
1975	1	1
1976	1	1
1977	1	1
1978	1	1
1979	1	1
1980	1	1
1981	0	1
1982	0	1
1983	0	1
1984	0	1
1985	0	1
1986	0	1
1987	1	1
1988	1	1
1989	1	1
1990	1	1
1991	1	1
1992	1	1
1993	1	1
1994	1	1
1995	1	1
1996	1	1
1997	1	1
1998	1	1
1999	1	1
2000	1	1
2001	1	1
2002	1	1
2003	1	1
2004	1	1
2005	1	1
2006	1	1
2007	1	1
2008	1	1
2009	1	1
2010	1	1
2011	1	1
2012	1	1
2013	1	1
2014	1	1
2015	1	1
2016	1	1
2017	1	1
2018	1	1
2019	1	1
2020	1	1
2021	1	1
2022	1	1
2023	0	1
2024	0	0.80117
2025	1	1
2026	1	1
2027	1	1
2028	1	1
2029	1	1
2030	1	1
2031	1	1
2032	1	1
2033	1	1
2034	1	1
2035	1	1
2036	1	1
2037	1	1
2038	1	1
2039	1	1
2040	1	1
2041	1	1
2042	1	1
2043	1	1
2044	1	1
2045	1	1
2046	1	1
2047	1	1
2048	1	1
2049	1	1
2050	1	1
2051	1	1
2052	1	1
2053	1	1
2054	1	1
2055	1	1
2056	1	1
2057	1	1
2058	1	1
2059	1	1
2060	1	1
2061	1	1
2062	1	1
2063	1	1
2064	1	1
2065	1	1
2066	1	1
2067	1	1
2068	1	1
2069	1	1
2070	1	1
2071	1	1
2072	1	1
2073	1	1
2074	1	1
2075	1	1
2076	1	1
2077	1	1
2078	1	1
2079	1	1
2080	1	1
2081	1	1
2082	1	1
2083	1	1
2084	1	1
2085	1	1
2086	1	1
2087	1	1
2088	1	1
2089	1	1
2090	1	1
2091	1	1
2092	1	1
2093	1	1
2094	1	1
2095	1	1
2096	1	1
2097	1	1
2098	1	1
2099	1	1
2100	1	1
2101	1	1
2102	1	1
2103	1	1
2104	1	1
2105	1	1
2106	1	1
2107	1	1
2108	1	1
2109	1	1
2110	1	1
2111	1	1
2112	1	1
2113	1	1
2114	1	1
2115	1	1
2116	1	1
2117	1	1
2118	1	1
2119	1	1
2120	1	1
2121	1	1
2122	1	1
2123	1	1
2124	1	1
2125	1	1
2126	1	1
2127	1	1
2128	1	1
2129	1	1
2130	1	1
2131	1	1
2132	1	1
2133	1	1
2134	1	1
2135	1	1
2136	1	1
2137	1	1
2138	1	1
2139	1	1
2140	1	1
2141	1	1
2142	1	1
2143	1	1
2144	1	1
2145	1	1
2146	1	1
2147	1	1
2148	1	1
2149	1	1
2150	1	1
2151	1	1
2152	1	1
2153	1	1
2154	1	1
2155	1	1
2156	1	1
2157	1	1
2158	1	1
2159	1	1
2160	1	1
2161	1	1
2162	1	1
2163	1	1
2164	1	1
2165	1	1
2166	1	1
2167	1	1
2168	1	1
2169	1	1
2170	1	1
2171	1	1
2172	1	1
2173	1	1
2174	1	1
2175	1	1
2176	1	1
2177	1	1
2178	1	1
2179	1	1
2180	1	1
2181	1	1
2182	1	1
2183	1	1
2184	1	1
2185	1	1
2186	0	0.9
2187	0	0.9
2188	0	0.814286
2189	0	0.814286
2190	0	0.817404
2191	0	0.757979
2192	0	0.763823
2193	0	0.769676
2194	1	1
2195	1	1
2196	1	1
2197	1	1
2198	1	1
2199	1	1
2200	1	1
2201	1	1
2202	1	1
2203	1	1
2204	1	1
2205	1	1
2206	1	1
2207	1	1
2208	1	1
2209	1	1
2210	1	1
2211	1	1
2212	1	1
2213	1	1
2214	1	1
2215	1	1
2216	1	1
2217	1	1
2218	1	1
2219	1	1
2220	1	1
2221	1	1
2222	1	1
2223	1	1
2224	1	1
2225	1	1
2226	1	1
2227	1	1
2228	1	1
2229	1	1
2230	1	1
2231	1	1
2232	1	1
2233	1	1
2234	1	1
2235	1	1
2236	1	1
2237	1	1
2238	1	1
2239	1	1
2240	1	1
2241	1	1
2242	0	0.717967
2243	0	0.717967
2244	0	0.717967
2245	1	1
2246	1	1
2247	1	1
2248	1	1
2249	1	1
2250	1	1
2251	1	1
2252	1	1
2253	1	1
2254	1	1
2255	1	1
2256	1	1
2257	1	1
2258	1	1
2259	1	1
2260	1	1
2261	1	1
2262	1	1
2263	1	1
2264	1	1
2265	1	1
2266	1	1
2267	1	1
2268	1	1
2269	1	1
2270	1	1
2271	1	1
2272	1	1
2273	1	1
2274	1	1
2275	1	1
2276	1	1
2277	1	1
2278	1	1
2279	0	0.9
2280	0	0.9
2281	0	0.9
2282	0	0.9
2283	0	0.9
2284	0	0.712594
2285	0	0
2286	0	0
2287	0	0
2288	0	0
2289	0	0
2290	0	0
2291	0	0.707109
2292	0	0.707052
2293	0	0.707052
2294	0	0.707052
2295	0	0.814286
2296	0	0.9
2297	1	1
2298	1	1
2299	1	1
2300	1	1
2301	1	1
2302	1	1
2303	1	1
2304	1	1
2305	1	1
2306	1	1
2307	1	1
2308	1	1
2309	1	1
2310	1	1
2311	1	1
2312	1	1
2313	1	1
2314	1	1
2315	1	1
2316	0	0.9
2317	0	0.9
2318	0	0.9
2319	0	0.9
2320	0	0.9
2321	0	0.9
2322	0	0.9
2323	0	0.9
2324	0	0.9
2325	0	0.9
2326	0	0.9
2327	0	0.9
2328	0	0.9
2329	0	0.9
2330	0	0.9
2331	0	0.9
2332	0	0.9
2333	0	0.9
2334	0	0.9
2335	0	0.9
2336	0	0.9
2337	0	0.9
2338	0	0.9
2339	0	0.9
2340	0	0.9
2341	0	0.9
2342	0	0.9
2343	0	0.9
2344	0	0.9
2345	0	0.9
2346	0	0.9
2347	0	0.9
2348	0	0.9
2349	0	0.9
2350	0	0.9
2351	0	0.9
2352	0	0.894737
2353	0	0.875
2354	0	0.875
2355	0	0
2356	0	0
2357	0	0
2358	0	0
