Site	ColumnScore	SumOfPairsScore
1	1	0
2	1	0
3	1	0
4	1	0
5	1	0
6	1	0
7	1	0
8	0	0
9	0	0
10	0	0
11	0	0
12	0	0
13	0	0
14	0	0
15	0	0
16	0	0
17	0	0
18	0	0
19	0	0
20	0	0
21	0	0
22	0	0
23	0	0
24	0	0
25	0	0
26	0	0
27	0	0
28	0	0
29	0	0
30	0	0
31	0	0
32	0	0
33	0	0
34	0	0
35	0	0
36	0	0
37	0	0
38	0	0
39	0	0
40	0	0
41	0	0
42	0	0
43	0	0
44	0	0
45	0	0
46	0	0
47	0	0
48	0	0
49	0	0
50	0	0
51	0	0
52	0	0
53	0	0
54	0	0
55	0	0
56	0	0
57	0	0
58	0	0
59	0	0
60	0	0
61	0	0
62	0	0
63	0	0
64	0	0
65	0	0
66	0	0
67	0	0
68	0	0
69	0	0
70	1	1
71	1	1
72	1	1
73	1	1
74	1	1
75	1	1
76	1	1
77	1	1
78	1	1
79	1	1
80	1	1
81	1	1
82	1	1
83	1	1
84	1	1
85	1	1
86	1	1
87	1	1
88	0	1
89	0	0.992248
90	0	0.968998
91	0	0.878752
92	0	0.91383
93	0	0.913047
94	0	0.90592
95	0	1
96	0	0.818817
97	0	0.6
98	0	0.912226
99	0	0.912226
100	0	0.754725
101	0	0.419906
102	0	0.305904
103	0	0.666667
104	0	0.428809
105	0	0.240647
106	0	0.332537
107	0	0.325958
108	0	0.449142
109	0	0.453256
110	0	0.466785
111	0	0.467811
112	0	0.2
113	0	0.843844
114	0	0.476672
115	0	0.333333
116	0	0.333333
117	0	0.333333
118	0	0.333333
119	0	0.333333
120	0	0.333333
121	0	0.333333
122	0	0.333333
123	0	0.432515
124	0	0.320513
125	0	0.378788
126	0	0.378788
127	0	0.378788
128	0	0.242424
129	0	0.212121
130	0	0.371067
131	0	0.349382
132	0	0.34861
133	0	0.324391
134	0	0.267343
135	0	0.6
136	0	0.321429
137	0	0.25
138	0	0.333333
139	0	0.333333
140	0	0.229236
141	0	0.232767
142	0	0.216979
143	0	0.256048
144	0	0.258065
145	0	0.259398
146	0	0.267532
147	0	0.311839
148	0	0.324474
149	0	0.334495
150	0	0.110769
151	0	0.130435
152	0	0.134199
153	0	0.166667
154	0	0.114286
155	0	0.142105
156	0	0.161765
157	0	0.3
158	0	0.4
159	0	1
160	0	1
161	0	1
162	0	1
163	0	0.52381
164	0	0.118594
165	0	0.119219
166	0	0.111171
167	0	0.116959
168	0	0.111111
169	0	0.0779221
170	0	0.122884
171	0	0.107357
172	0	0.177778
173	0	0.333333
174	0	0.333333
175	0	0.333333
176	0	0.428571
177	0	0.428571
178	0	0.129443
179	0	0.150604
180	0	0.47619
181	0	0.357143
182	0	0.257576
183	0	0.361063
184	0	0.492439
185	0	0.59024
186	0	0.59163
187	0	0
188	0	0
189	0	0
190	0	0
191	0	0.421927
192	0	0.221538
193	0	0.727823
194	0	1
195	0	0.992509
196	0	0.992537
197	0	0.992537
198	1	1
199	1	1
200	1	1
201	0	0.992509
202	0	0.992509
203	0	0
204	0	0
205	0	0.976925
206	0	0.633987
207	0	0.618532
208	0	0
209	0	0.911805
210	0	0.384069
211	0	0.277819
212	0	0.29983
213	0	0.28747
214	0	0.234577
215	0	0.220838
216	0	0.284715
217	0	0.261385
218	0	0.196757
219	0	0.11898
220	0	0.108434
221	0	0.118882
222	0	0.118268
223	0	0.120554
224	0	0.125032
225	0	0.121174
226	0	0.147
227	0	0.216807
228	0	0.266291
229	0	0.266509
230	0	0.295306
231	0	0.383144
232	0	0.427244
233	0	0.486646
234	0	0.48689
235	0	0.606877
236	0	0.666667
237	0	1
238	0	0.688995
239	0	0.700661
240	0	0.777778
241	0	1
242	0	1
243	1	1
244	1	1
245	1	1
246	1	1
247	1	1
248	1	1
249	1	1
250	1	1
251	1	1
252	1	1
253	1	1
254	1	1
255	1	1
256	1	1
257	1	1
258	1	1
259	1	1
260	1	1
261	1	1
262	1	1
263	0	0.672564
264	0	1
265	0	1
266	0	0.663844
267	0	0.494737
268	0	0.398541
269	0	0.691176
270	0	0.397059
271	0	0.477215
272	0	1
273	0	1
274	0	1
275	0	0.333333
276	0	0.333333
277	0	0.5
278	0	0.5
279	0	0.496169
280	0	0.668268
281	0	0.963636
282	0	0.992537
283	0	0
284	0	0
285	0	0
286	0	0
287	0	0
288	0	0
289	0	0
290	1	1
291	1	1
292	1	1
293	1	1
294	1	1
295	1	1
296	1	1
297	1	1
298	1	1
299	1	1
300	1	1
301	1	1
302	1	0
303	1	0
304	0	1
305	1	1
306	1	1
307	1	1
308	0	0.651182
309	1	1
310	1	1
311	1	1
312	1	1
313	1	1
314	1	1
315	1	0
316	1	0
317	1	0
318	1	0
319	1	0
320	1	0
321	1	0
322	1	0
323	1	1
324	1	1
325	1	1
326	1	1
327	1	1
328	1	1
329	1	1
330	1	1
331	1	1
332	0	1
333	0	0.970485
334	1	1
335	0	0
336	0	0
337	0	0
338	0	0
339	0	0
340	0	0
341	0	0
342	0	0
343	0	0
344	0	0
345	0	0
346	1	0
347	1	0
348	1	0
349	1	0
350	1	0
351	1	0
352	1	0
353	1	0
354	0	0.992537
355	0	0.992537
356	0	0.992537
357	0	0.992537
358	0	0.992537
359	0	0.992537
360	0	0.992537
361	0	0
362	0	0
363	0	0.977641
364	0	0.970345
365	0	0.985103
366	1	1
367	1	1
368	1	1
369	1	1
370	1	1
371	1	1
372	1	1
373	0	0.76111
374	1	1
375	0	1
376	1	1
377	1	1
378	1	1
379	1	1
380	1	1
381	1	1
382	1	1
383	0	0
384	1	0
385	1	0
386	1	0
387	0	0.992537
388	1	1
389	1	1
390	0	0.970485
391	1	1
392	0	1
393	1	1
394	1	1
395	1	1
396	1	1
397	1	1
398	1	1
399	1	1
400	1	1
401	1	1
402	1	1
403	1	1
404	1	1
405	1	1
406	1	1
407	1	1
408	1	1
409	0	1
410	0	1
411	0	1
412	0	0.333333
413	0	0.962069
414	0	0.962069
415	0	1
416	0	1
417	0	1
418	0	0.466667
419	0	0.466667
420	0	0.894796
421	0	0.713309
422	0	0.647502
423	0	0.507149
424	0	0.354412
425	0	0.323713
426	0	0.307169
427	0	0.297181
428	0	0.290909
429	0	0.318182
430	0	0.619565
431	0	0.625668
432	0	0.406316
433	0	0.512716
434	0	0.518508
435	0	0.790301
436	0	0.801021
437	0	0.816266
438	0	0.62551
439	0	0
440	0	0
441	0	0.616204
442	0	0.599168
443	0	0.166667
444	0	0.5
445	0	0.5
446	0	0.5
447	0	0.6
448	0	0.6
449	0	0.957447
450	0	0.930203
451	0	0.947494
452	0	0.94769
453	0	0.962775
454	0	0.962775
455	0	0.984934
456	0	0
457	0	0
458	0	0
459	0	0
460	0	0.992537
461	0	0.992537
462	0	0.992537
463	0	0.977724
464	0	0.977724
465	0	0.985075
466	0	0.985075
467	0	0.985075
468	0	0.984991
469	0	0.984991
470	0	0.977641
471	0	0.977641
472	0	0.977613
473	0	0.969983
474	0	0.969983
475	0	0.955563
476	0	0.955398
477	0	0
478	0	0.947942
479	0	1
480	0	0.992481
481	0	0.992481
482	0	0.992481
483	0	0
484	0	0
485	0	0
486	1	1
487	0	1
488	1	0
489	0	1
490	0	1
491	0	1
492	0	1
493	0	1
494	0	1
495	1	1
496	1	1
497	1	1
498	1	1
499	1	1
500	1	1
501	1	1
502	1	1
503	1	1
504	1	1
505	1	1
506	1	1
507	1	1
508	1	1
509	1	1
510	1	1
511	1	1
512	1	1
513	1	1
514	1	1
515	1	1
516	1	1
517	0	0
518	0	0.333333
519	0	0.333333
520	1	1
521	0	0.97753
522	0	0.955811
523	0	0.992537
524	1	1
525	1	1
526	1	1
527	1	1
528	1	1
529	1	1
530	1	1
531	1	1
532	1	0
533	0	1
534	0	0.6
535	0	0.6
536	1	1
537	1	1
538	1	1
539	1	1
540	1	1
541	1	1
542	1	1
543	1	1
544	1	1
545	1	1
546	1	1
547	1	1
548	0	0
549	0	0
550	0	0
551	1	0
552	1	0
553	1	0
554	1	0
555	1	0
556	1	0
557	1	0
558	1	0
559	0	0.992509
560	0	0.977011
561	0	0.913358
562	0	0.719101
563	0	0.719101
564	0	0.719101
565	0	0.719101
566	0	0.519726
567	0	1
568	0	0.552239
569	1	1
570	1	1
571	1	1
572	1	1
573	1	1
574	1	1
575	1	1
576	1	1
577	1	1
578	1	1
579	1	1
580	1	1
581	1	1
582	1	1
583	1	1
584	1	1
585	1	1
586	0	1
587	0	1
588	1	1
589	0	0.595422
590	0	0.595422
591	0	0.595422
592	0	1
593	0	1
594	1	1
595	1	1
596	1	1
597	1	1
598	1	1
599	1	1
600	1	1
601	1	1
602	1	1
603	1	1
604	1	1
605	1	1
606	1	1
607	1	1
608	1	1
609	1	1
610	1	1
611	1	1
612	0	1
613	0	1
614	1	1
615	0	0.750377
616	0	0.750377
617	1	1
618	1	1
619	1	1
620	1	1
621	1	1
622	1	1
623	1	1
624	1	1
625	1	1
626	1	1
627	1	1
628	1	1
629	1	1
630	1	1
631	1	1
632	1	1
633	1	1
634	1	1
635	1	1
636	1	1
637	1	1
638	1	1
639	1	1
640	1	1
641	1	1
642	1	1
643	1	1
644	1	1
645	1	1
646	1	1
647	1	1
648	0	1
649	0	0.760356
650	0	1
651	0	0.501006
652	0	0.335986
653	0	0.705674
654	0	0.622926
655	0	0.622926
656	0	0.647347
657	0	0.621961
658	0	0.538047
659	0	0.517532
660	0	0.50188
661	0	0.302246
662	0	0.325215
663	0	0.325215
664	0	0.323355
665	0	0.578776
666	0	0.579592
667	0	0.578776
668	0	0.577143
669	0	0.593972
670	0	0.578744
671	0	0.310087
672	0	0.170839
673	0	0.217751
674	0	0.180121
675	0	0.173686
676	0	0.189419
677	0	0.102732
678	0	0.0955838
679	0	0.134135
680	0	0.133566
681	0	0.163585
682	0	0.165165
683	0	0.180924
684	0	0
685	0	0
686	0	0
687	0	0.166667
688	0	0.166667
689	0	0.488889
690	0	0.634058
691	0	0.754023
692	0	0.9375
693	0	0.9375
694	0	1
695	0	0.418575
696	0	0.429022
697	0	0.661851
698	0	0.662048
699	0	0.777778
700	0	0.973455
701	0	0.973455
702	0	1
703	0	1
704	0	0.992537
705	1	1
706	1	1
707	1	1
708	1	1
709	1	1
710	1	1
711	1	1
712	1	1
713	1	1
714	1	1
715	1	1
716	1	1
717	1	1
718	1	1
719	1	1
720	1	1
721	1	1
722	1	1
723	1	1
724	1	1
725	1	1
726	1	1
727	1	1
728	1	1
729	1	1
730	1	1
731	1	1
732	1	1
733	1	1
734	1	1
735	1	1
736	1	1
737	1	1
738	1	1
739	1	1
740	1	1
741	1	1
742	1	1
743	1	1
744	1	1
745	1	1
746	1	1
747	1	1
748	1	1
749	1	1
750	1	1
751	1	1
752	1	1
753	1	1
754	1	1
755	1	1
756	1	1
757	1	1
758	1	1
759	1	1
760	1	1
761	1	1
762	0	0.985075
763	0	0
764	0	0
765	0	0
766	0	0
767	1	0
768	1	0
769	0	0.980583
770	0	0.980198
771	0	0.978261
772	0	0.628486
773	0	0.437881
774	0	0.510526
775	0	0.344168
776	0	0
777	0	0
778	0	0
779	0	0.75
780	0	0.331933
781	0	0.344282
782	0	0.535714
783	0	0.485516
784	0	0.493196
785	0	0.493196
786	0	0.972225
787	0	0.985131
788	0	0
789	0	0.992537
790	0	0.992537
791	0	0
792	1	1
793	1	1
794	1	1
795	1	1
796	1	1
797	1	1
798	1	1
799	1	1
800	1	1
801	1	1
802	1	1
803	1	1
804	1	1
805	1	1
806	1	1
807	1	1
808	1	1
809	1	1
810	1	1
811	1	1
812	1	1
813	1	1
814	1	1
815	1	1
816	0	1
817	0	1
818	0	1
819	0	1
820	0	1
821	0	1
822	0	1
823	0	1
824	0	1
825	1	1
826	1	1
827	1	1
828	1	1
829	0	1
830	0	1
831	0	1
832	0	1
833	0	1
834	0	1
835	0	0.977724
836	0	0.977724
837	0	0.977724
838	0	0
839	0	0
840	0	0
841	0	0
842	0	0
843	0	0
844	0	0
845	0	0
846	0	0
847	0	0
848	0	0.604396
849	0	0.630312
850	0	0.378472
851	0	0.475891
852	0	0.374934
853	0	0.355655
854	0	0.612037
855	0	0.636203
856	0	0.412844
857	0	0.391409
858	0	0.358496
859	0	0.281706
860	0	0.28209
861	0	0.28199
862	0	0.28139
863	0	0.294547
864	0	0.298397
865	0	0.316982
866	0	0.311773
867	0	0.338968
868	0	0.359554
869	0	0.372447
870	0	0.595402
871	0	0.576667
872	0	0
873	1	0
874	1	0
875	1	0
876	1	0
877	1	0
878	0	0
879	0	0
880	0	0
881	0	0
882	0	0.333333
883	0	0.166667
884	0	0.364943
885	0	0.275275
886	0	0.271471
887	0	0.271471
888	0	0.308378
889	0	0.325758
890	0	0.306595
891	0	0.167231
892	0	0.168744
893	0	0.166983
894	0	0.169565
895	0	0.169018
896	0	0.14421
897	0	0.153044
898	0	0.147847
899	0	0
900	0	0
901	0	0
902	0	0.1
903	0	0.142857
904	0	0.12381
905	0	0.192889
906	0	0.219924
907	0	0.226522
908	0	0.216359
909	0	0.21043
910	0	0.198834
911	0	0.188987
912	0	0.266594
913	0	0.350061
914	0	0.604349
915	0	0.7053
916	0	0.812611
917	0	0.984314
918	0	0.984733
919	0	0.992481
920	0	0.992509
921	0	0.992509
922	1	1
923	1	1
924	1	1
925	1	1
926	1	1
927	1	1
928	1	1
929	1	1
930	1	1
931	1	1
932	1	1
933	1	1
934	1	1
935	1	1
936	0	1
937	0	1
938	0	1
939	0	1
940	0	0.96311
941	0	0.542057
942	0	0
943	0	0
944	0	0
945	0	0
946	0	0.932788
947	0	0.932788
948	0	0.901695
949	0	0.81874
950	0	0.725916
951	0	0.704565
952	0	0.643098
953	0	0.643098
954	0	0.26
955	0	0.173109
956	0	0.167558
957	0	0.186952
958	0	0.119117
959	0	0.141934
960	0	0.168101
961	0	0.467658
962	0	0.471826
963	0	0.473121
964	0	0.732804
965	0	0.589015
966	0	0.652101
967	0	0.947368
968	0	0.953488
969	0	0.955556
970	0	0.943271
971	0	1
972	0	1
973	0	1
974	0	1
975	0	1
976	0	0.992537
977	0	0.992537
978	0	0.992537
979	0	0.992537
980	0	0.992537
981	0	0.992537
982	0	0.992537
983	0	0.992537
984	0	0.992537
985	0	0.992537
986	0	0.992537
987	0	0.992537
988	0	0.992537
989	1	1
990	1	1
991	1	1
992	1	1
993	0	1
994	0	0.675
995	0	0.884211
996	0	0.883656
997	0	0
998	0	0
999	0	0
1000	0	0
1001	0	0
1002	0	0.483529
1003	0	0.466037
1004	0	0
1005	0	0.417355
1006	0	0.773863
1007	0	0.973333
1008	0	0.947027
1009	0	0.947027
1010	0	0.947027
1011	0	0.947027
1012	0	0.846847
1013	0	0.846847
1014	0	0.266667
1015	0	0.266667
1016	0	0.266667
1017	0	0.333333
1018	0	0.166667
1019	0	0.166667
1020	0	0.604814
1021	0	0
1022	0	0.742857
1023	0	0.65253
1024	0	0
1025	0	0.5
1026	0	1
1027	1	1
1028	1	1
1029	1	1
1030	1	1
1031	1	1
1032	1	1
1033	1	1
1034	1	1
1035	1	1
1036	1	1
1037	0	0
1038	0	0.972973
1039	0	0.624148
1040	0	0.333333
1041	0	0.333333
1042	0	0.454545
1043	0	0.342857
1044	0	0.311688
1045	0	0.223485
1046	0	0.274202
1047	0	0.209909
1048	0	0.171512
1049	0	0.159553
1050	0	0.16631
1051	0	0.154348
1052	0	0.151073
1053	0	0.131717
1054	0	0.131993
1055	0	0.159159
1056	0	0.103218
1057	0	0.100624
1058	0	0.0958308
1059	0	0.105283
1060	0	0.100281
1061	0	0.0992341
1062	0	0.102359
1063	0	0.0982003
1064	0	0.106516
1065	0	0.115646
1066	0	0.0853543
1067	0	0.0873533
1068	0	0.0872535
1069	0	0.0905539
1070	0	0.0920036
1071	0	0.149384
1072	0	0.179812
1073	0	0.164905
1074	0	0.0953846
1075	0	0.119048
1076	0	0.102564
1077	0	0.127273
1078	0	0.142857
1079	0	0.2
1080	0	0.3
1081	0	0.5
1082	1	0
1083	1	0
