Site	ColumnScore	SumOfPairsScore
1	1	0
2	1	0
3	1	0
4	1	0
5	1	0
6	1	0
7	1	0
8	1	0
9	1	0
10	1	0
11	1	0
12	1	0
13	1	0
14	1	0
15	1	0
16	1	0
17	1	0
18	1	0
19	1	0
20	1	0
21	1	0
22	1	0
23	1	0
24	1	0
25	1	0
26	1	0
27	1	0
28	1	0
29	1	0
30	1	0
31	1	0
32	1	0
33	1	0
34	1	0
35	1	0
36	1	0
37	1	0
38	1	0
39	1	0
40	1	0
41	1	0
42	1	0
43	1	0
44	1	0
45	1	0
46	1	0
47	1	0
48	1	0
49	1	0
50	1	0
51	1	0
52	1	0
53	1	0
54	1	0
55	1	0
56	1	0
57	1	0
58	1	0
59	1	0
60	1	0
61	1	0
62	1	0
63	1	0
64	1	0
65	1	0
66	1	0
67	1	0
68	1	0
69	1	0
70	1	0
71	1	0
72	1	0
73	1	0
74	1	0
75	1	0
76	1	0
77	1	0
78	1	0
79	1	0
80	1	0
81	1	0
82	1	0
83	1	0
84	1	0
85	1	0
86	1	0
87	1	0
88	1	0
89	1	0
90	1	0
91	1	0
92	1	0
93	1	0
94	1	0
95	1	0
96	1	0
97	1	0
98	1	0
99	1	0
100	1	0
101	1	0
102	1	0
103	1	0
104	1	0
105	1	0
106	1	1
107	1	1
108	1	1
109	1	1
110	1	1
111	1	1
112	1	1
113	0	0.962275
114	0	1
115	1	1
116	1	1
117	1	1
118	1	1
119	1	1
120	0	0.992366
121	0	0.992366
122	0	0.992366
123	1	0
124	1	0
125	1	0
126	1	0
127	1	0
128	1	0
129	1	0
130	1	0
131	1	0
132	1	0
133	1	0
134	1	0
135	1	0
136	1	0
137	1	0
138	1	0
139	1	0
140	1	0
141	1	0
142	1	0
143	1	0
144	1	0
145	1	0
146	1	0
147	1	0
148	1	0
149	1	0
150	1	0
151	1	0
152	1	0
153	1	0
154	1	0
155	1	0
156	1	0
157	1	0
158	1	0
159	1	0
160	1	0
161	0	0.992337
162	0	0.992337
163	1	1
164	0	0.984791
165	0	0.984791
166	0	0.984791
167	0	0.984791
168	0	0.984791
169	0	0.984791
170	0	0.984791
171	0	0.984791
172	1	1
173	1	1
174	1	1
175	1	1
176	1	1
177	1	1
178	1	1
179	1	1
180	1	1
181	1	1
182	1	1
183	1	1
184	1	1
185	1	1
186	1	1
187	1	1
188	1	1
189	0	0.992366
190	0	0.992366
191	0	0.98482
192	0	0
193	0	0
194	0	0
195	0	0
196	0	0
197	0	0
198	0	0
199	0	0
200	0	0
201	1	1
202	1	1
203	1	1
204	1	1
205	1	1
206	1	1
207	1	1
208	1	1
209	0	1
210	0	0.992337
211	0	0.992337
212	0	0.992337
213	1	1
214	1	1
215	1	1
216	1	1
217	0	0.992395
218	0	0
219	0	0
220	0	0
221	0	0
222	0	0
223	0	0
224	0	0
225	0	0
226	1	0
227	1	0
228	1	0
229	1	0
230	1	0
231	1	0
232	1	0
233	1	0
234	1	0
235	1	0
236	1	0
237	0	0.977359
238	0	0.977359
239	0	0.977359
240	0	0.98482
241	0	0.98482
242	0	0.955076
243	0	0.955076
244	0	0.955076
245	0	0.955076
246	0	0.969817
247	0	0.977275
248	0	0.992366
249	0	0.918656
250	0	1
251	0	0.960514
252	0	0.94533
253	0	0.954642
254	0	0.984762
255	0	0.992366
256	0	0.992366
257	0	0.992424
258	1	0
259	0	0
260	0	0
261	0	0
262	0	1
263	1	1
264	0	0.992481
265	1	1
266	1	1
267	1	1
268	1	1
269	1	1
270	1	1
271	1	1
272	1	1
273	1	1
274	1	1
275	1	1
276	1	1
277	1	1
278	1	1
279	1	1
280	1	1
281	1	1
282	1	1
283	1	1
284	1	1
285	1	1
286	1	1
287	1	1
288	1	1
289	1	1
290	1	1
291	1	1
292	1	1
293	1	1
294	1	1
295	1	1
296	1	1
297	1	1
298	1	1
299	1	1
300	1	1
301	0	0.601194
302	0	0.601194
303	0	1
304	1	1
305	1	1
306	1	1
307	1	1
308	1	1
309	1	1
310	1	1
311	1	1
312	1	1
313	1	1
314	1	1
315	1	1
316	1	1
317	1	1
318	1	1
319	1	1
320	1	1
321	1	1
322	1	1
323	1	1
324	1	1
325	1	1
326	1	1
327	1	1
328	1	1
329	1	1
330	1	1
331	0	1
332	0	0.992126
333	0	0.992126
334	0	0.992095
335	0	0.899532
336	0	0.899532
337	0	0.892794
338	0	0.898441
339	0	0.898441
340	0	0.983707
341	0	0.988235
342	0	0.960102
343	0	0.983936
344	0	1
345	0	1
346	1	1
347	1	1
348	1	1
349	1	1
350	1	1
351	1	1
352	1	1
353	1	1
354	1	1
355	1	1
356	1	1
357	1	1
358	1	1
359	1	1
360	1	1
361	1	1
362	1	1
363	1	1
364	1	1
365	1	1
366	1	1
367	1	1
368	1	1
369	1	1
370	1	1
371	1	1
372	1	1
373	1	1
374	1	1
375	1	1
376	1	1
377	1	1
378	1	1
379	1	1
380	1	1
381	1	1
382	1	1
383	1	1
384	1	1
385	1	1
386	1	1
387	1	1
388	1	1
389	1	1
390	1	1
391	1	1
392	1	1
393	1	1
394	1	1
395	1	1
396	1	1
397	1	1
398	1	1
399	1	1
400	1	1
401	1	1
402	1	1
403	1	1
404	1	1
405	1	1
406	1	1
407	1	1
408	1	1
409	1	1
410	1	1
411	1	1
412	1	1
413	1	1
414	1	1
415	1	1
416	1	1
417	1	1
418	1	1
419	1	1
420	1	1
421	1	1
422	1	1
423	1	1
424	1	1
425	0	1
426	0	0.920985
427	0	0.920314
428	0	0.941864
429	0	0.941864
430	0	0.934625
431	0	1
432	0	0.920705
433	0	1
434	0	0.333333
435	0	0.333333
436	0	0.333333
437	0	0.586207
438	0	0.732634
439	0	0.673917
440	0	0.699482
441	0	0.4
442	0	0.266667
443	0	0.266667
444	0	0.266667
445	0	0.266667
446	0	0.679076
447	0	0.449992
448	0	0.813061
449	0	0.777143
450	0	0.806122
451	0	0.762257
452	0	0.697695
453	0	0.697695
454	0	0.695035
455	0	0.617391
456	0	0.650242
457	0	0.613527
458	0	0.569697
459	0	0.579559
460	0	0.608537
461	0	0
462	0	0
463	0	0
464	0	0
465	0	0
466	0	0
467	0	0
468	0	0.37057
469	0	0.361971
470	0	0.295915
471	0	0
472	0	0.115521
473	0	0.105469
474	0	0.108728
475	0	0.0714286
476	0	0.0355731
477	0	0.142857
478	0	0.142857
479	0	0.142857
480	0	0.047619
481	0	0.0350877
482	0	0.06132
483	0	0.056753
484	0	0
485	0	0
486	0	0
487	0	0
488	0	0.333333
489	0	0.166667
490	0	0.578078
491	0	0.412262
492	0	0.361702
493	0	0.346631
494	0	0.29979
495	0	0.254386
496	0	0.199068
497	0	0.200767
498	0	0.163363
499	0	0.112042
500	0	0.0980941
501	0	0.0861553
502	0	0.0542001
503	0	0.0424517
504	0	0.046197
505	0	0.0571606
506	0	0.0543738
507	0	0.0590089
508	0	0.0672109
509	0	0.0693017
510	0	0
511	0	0
512	0	0
513	0	0
514	0	0
515	0	0
516	0	0
517	0	0.0642449
518	0	0.0714368
519	0	0.0748299
520	0	0.0595065
521	0	0.0621943
522	0	0.200913
523	0	0.197174
524	0	0.208325
525	0	0.221814
526	0	0.239807
527	0	0.355556
528	0	0.355556
529	0	0.355556
530	0	0.355556
531	0	0.32381
532	0	0.213877
533	0	0.218017
534	0	0.209935
535	0	0.190476
536	0	0.0952381
537	0	0.190476
538	0	0.190476
539	0	0.190476
540	0	0.313386
541	0	0.213812
542	0	0.116135
543	0	0.270639
544	0	0.243223
545	0	0.367832
546	0	0.262753
547	0	0.367742
548	0	0.435897
549	0	0.333333
550	0	0.333333
551	0	0.796711
552	0	0.803594
553	0	0.796523
554	0	0.789703
555	0	0.776567
556	0	0.776902
557	0	0
558	0	0
559	0	0
560	0	0.406593
561	0	0.406593
562	0	0.406593
563	0	0.439671
564	0	0.411174
565	0	0.411286
566	0	0.382526
567	0	0
568	0	0.799431
569	0	0.799431
570	0	0.804318
571	0	0.769512
572	0	0.769512
573	0	0.732869
574	0	0.694541
575	0	0
576	0	0
577	0	0
578	0	0
579	0	0
580	0	0
581	0	0
582	0	0
583	0	0
584	0	0
585	0	0
586	0	0
587	0	0
588	0	0
589	0	0
590	0	0
591	0	0
592	0	0.424242
593	0	0.290043
594	0	0.223529
595	0	0.142771
596	0	0.161525
597	0	0.190375
598	0	0.202186
599	0	0.1981
600	0	0.177621
601	0	0
602	0	0
603	0	0
604	0	0
605	0	0
606	0	0
607	0	0
608	0	0.240949
609	0	0.211146
610	0	0.199115
611	0	0.184019
612	0	0.145493
613	0	0.155637
614	0	0.13394
615	0	0.139084
616	0	0
617	0	0
618	0	0
619	0	0
620	0	0
621	0	0
622	0	0
623	0	0
624	0	0.198718
625	0	0.203361
626	0	0.178049
627	0	0.245368
628	0	0.273577
629	0	0.313677
630	0	0.312776
631	0	0
632	0	0
633	0	0.4
634	0	0.392857
635	0	0.527611
636	0	0.530258
637	0	0.530258
638	0	1
639	0	0.992481
640	0	0.992481
641	0	0.985103
642	0	0.985103
643	0	0.992509
644	0	0.992509
645	0	1
646	0	0.970317
647	0	0.721088
648	0	0.923345
649	0	0.2
650	0	0.333333
651	0	0.333333
652	0	0.804992
653	0	0.804656
654	0	0.837218
655	0	0.83051
656	0	0.843787
657	0	0.823579
658	0	0.797613
659	0	0.803498
660	0	0.779412
661	0	0.52381
662	0	0.52381
663	0	0.675556
664	0	0.253763
665	0	0.304088
666	0	0.295712
667	0	0.328388
668	0	0
669	0	0
670	0	0.233333
671	0	0.244872
672	0	0.281356
673	0	0.516139
674	0	0.238521
675	0	0.338378
676	0	0.223629
677	0	0.40796
678	0	0
679	0	0.404215
680	0	1
681	0	0.5
682	0	0.5
683	0	0.352941
684	0	0.315855
685	0	0.210871
686	0	0.209084
687	0	0.5
688	0	0.3
689	0	0
690	0	0
691	0	0
692	0	0
693	0	0
694	0	0
695	0	0
696	0	0.587719
697	0	0
698	0	0
699	0	0.5
700	0	0.583333
701	0	0.675214
702	0	0.824597
703	0	0.942857
704	0	0.893393
705	0	0.429895
706	0	0.463462
707	0	0.394153
708	0	0.0833333
709	0	0.111111
710	0	0.332549
711	0	0.145455
712	0	0.145455
713	0	0.145455
714	0	0.324456
715	0	0
716	0	0.166667
717	0	0.339757
718	0	0.339027
719	0	0.224486
720	0	0.290909
721	0	0.12381
722	0	0.133333
723	0	0.214951
724	0	0.212881
725	0	0.180046
726	0	1
727	0	0.22362
728	0	0.293103
729	0	0.27173
730	0	0.26912
731	0	0.522876
732	0	0.535948
733	0	0.588235
734	0	0.580882
735	0	0.328063
736	0	0.216749
737	0	0.397844
738	0	0.331707
739	0	0.332993
740	0	0.231033
741	0	0.263463
742	0	0.269491
743	0	0
744	0	0.253221
745	0	0.364004
746	0	0.155556
747	0	0.155556
748	0	0.556786
749	0	1
750	0	1
751	0	1
752	0	0.644444
753	0	0.729298
754	0	0.720083
755	0	0.720083
756	0	0.730326
757	0	0.730326
758	0	0.740585
759	0	0.463203
760	0	0.238866
761	0	0.169214
762	0	0.287824
763	0	0.281154
764	0	0.220588
765	0	0.220588
766	0	0.269383
767	0	0.330303
768	0	0.330263
769	0	0.361587
770	0	0.360683
771	0	0.359739
772	0	0.341383
773	0	0.335458
774	0	0.319901
775	0	0.316442
776	0	0.6
777	0	0.6
778	0	0.6
779	0	0.329792
780	0	0.398419
781	0	0.166667
782	0	0.166667
783	0	0.276361
784	0	0.117647
785	0	0.310226
786	0	0.287818
787	0	0.262136
788	0	0.189172
789	0	0.169361
790	0	0.13279
791	0	0.133758
792	0	0.123914
793	0	0.118876
794	0	0.116466
795	0	0.0967463
796	0	0.0825073
797	0	0.0884051
798	0	0.116891
799	0	0
800	0	0.0757793
801	0	0.0653644
802	0	0.0621611
803	0	0.0747946
804	0	0.105512
805	0	0.129555
806	0	0.0871484
807	0	0.115954
808	0	0.1
809	0	0.130511
810	0	0.140394
811	0	0.147197
812	0	0.0222222
813	0	0.310425
814	0	0.1
815	0	0.2
816	0	0.1
817	0	0.1
818	0	0
819	0	1
820	0	0.267673
821	0	0.408827
822	0	0.302368
823	0	0.328264
824	0	0.406671
825	0	0.243786
826	0	0.173124
827	0	0.107439
828	0	0.0897436
829	0	0.133333
830	0	0.125
831	0	0.110429
832	0	0.122642
833	0	0.130795
834	0	0.0857143
835	0	0.047619
836	0	0.142857
837	0	0.142857
838	0	0.0666667
839	0	0.0666667
840	0	0.0666667
841	0	0.113591
842	0	0.110069
843	0	0
844	0	0
845	0	0
846	0	0
847	0	0
848	0	0.107547
849	0	0.11037
850	0	0.0975741
851	0	0.0957299
852	0	0.0888889
853	0	0.0952381
854	0	0.30006
855	0	0.281921
856	0	0.0849673
857	0	0.146667
858	0	0.0933824
859	0	0.101061
860	0	0.11386
861	0	0.129655
862	0	0.194829
863	0	0.169547
864	0	0.194781
865	0	0.20708
866	0	0.372028
867	0	0.342453
868	0	0.342338
869	0	0.6
870	0	0.218182
871	0	0.521164
872	0	0.367949
873	0	0.253107
874	0	0.339868
875	0	0.39491
876	0	0.647284
877	0	0.475103
878	0	0.357531
879	0	0.405187
880	0	0.563797
881	0	0.564212
882	0	0.5
883	0	0.5
884	0	0.5
885	0	0.333333
886	0	0.333333
887	0	0.482057
888	0	0.434276
889	0	0.296078
890	0	0.222016
891	0	0.235249
892	0	0.5
893	0	0.5
894	0	0.232686
895	0	0.194444
896	0	0.194444
897	0	0.212775
898	0	0.207423
899	0	1
900	0	1
901	0	1
902	0	1
903	0	1
904	0	1
905	0	1
906	0	1
907	0	1
908	0	1
909	0	1
910	0	1
911	0	1
912	0	1
913	0	0.464286
914	0	0.361111
915	0	0.257596
916	0	0.286208
917	0	0.247232
918	0	0.190476
919	0	0.169935
920	0	0.156863
921	0	0.140494
922	0	0.168478
923	0	0
924	0	0
925	0	0
926	0	0.5
927	0	0.169455
928	0	0.184252
929	0	0.166667
930	0	0.166667
931	0	0.200414
932	0	0.243503
933	0	0.285714
934	0	0.269565
935	0	0.194444
936	0	0.333333
937	0	0.333333
938	0	0.428195
939	0	0.425368
940	0	0.571429
941	0	0.571429
942	0	1
943	0	1
944	0	1
945	0	1
946	0	1
947	0	1
948	0	0.571429
949	0	0.625512
950	0	0.786325
951	0	0.91401
952	0	0.920816
953	0	0.922353
954	0	0.90445
955	0	0.90445
956	0	0.90445
957	0	0.90445
958	0	0.890909
959	0	0.890909
960	0	0.890909
961	0	0.890881
962	0	0.890852
963	0	0.257576
964	0	0.290909
965	0	0.919377
966	0	1
967	0	1
968	0	0.969899
969	0	0.969899
970	0	0.734359
971	0	0
972	0	0
973	0	0
974	0	0
975	0	0.962857
976	0	0.962857
977	0	0.962857
978	0	0.962857
979	0	0.962857
980	0	0.962857
981	0	0.962857
982	0	1
983	0	1
984	0	0.333333
985	0	0.947856
986	0	0.947856
987	0	0.676758
988	0	0.497999
989	0	0.205246
990	0	0.456286
991	0	0.370418
992	0	0.616425
993	0	0.498992
994	0	0.747546
995	0	1
996	0	0.84717
997	0	0.84717
998	1	1
999	1	1
1000	1	1
1001	1	1
1002	1	1
1003	1	1
1004	1	1
1005	1	1
1006	1	1
1007	1	1
1008	1	1
1009	1	1
1010	1	1
1011	1	1
1012	1	1
1013	1	1
1014	0	1
1015	0	0.806368
1016	0	0.915323
1017	0	0.908118
1018	0	0.976745
1019	0	0.992453
1020	0	0.992481
1021	0	0.992481
1022	0	0.992481
1023	0	0.992481
1024	0	0.992481
1025	0	0.992481
1026	0	0.992453
1027	0	0.992424
1028	1	1
1029	0	0.912577
1030	0	0.926024
1031	0	0.868818
1032	1	1
1033	1	1
1034	1	1
1035	1	1
1036	1	1
1037	1	1
1038	1	1
1039	1	1
1040	1	1
1041	1	1
1042	1	1
1043	1	1
1044	1	1
1045	1	1
1046	1	1
1047	1	1
1048	1	1
1049	1	1
1050	1	1
1051	1	1
1052	0	1
1053	0	0.378588
1054	0	0.371353
1055	0	0.294826
1056	0	0.292212
1057	0	0.333333
1058	0	0.504799
1059	0	0.493337
1060	0	0.976262
1061	0	0.970291
1062	0	0.977697
1063	0	0.992537
1064	0	0.992537
1065	0	0.992509
1066	0	1
1067	1	1
1068	1	1
1069	1	1
1070	1	1
1071	0	0
1072	0	0
1073	0	0
1074	0	0.992481
1075	0	0.984991
1076	0	0.985047
1077	0	0.992509
1078	0	0.992509
1079	0	0.992509
1080	0	1
1081	0	1
1082	0	1
1083	0	1
1084	0	1
1085	0	1
1086	0	1
1087	0	1
1088	0	1
1089	0	1
1090	0	0.333333
1091	0	0.333333
1092	0	1
1093	0	1
1094	0	1
1095	0	1
1096	0	1
1097	0	1
1098	0	1
1099	0	1
1100	0	1
1101	0	1
1102	0	1
1103	0	1
1104	0	1
1105	0	1
1106	0	1
1107	0	1
1108	0	1
1109	0	0.940956
1110	0	0.357143
1111	0	0.190476
1112	0	0.190476
1113	0	0.190476
1114	0	0.190476
1115	0	0.190476
1116	0	0.891358
1117	0	0.877327
1118	0	0.856476
1119	0	0
1120	0	0
1121	0	0
1122	0	0
1123	0	0
1124	0	0
1125	0	0
1126	0	0
1127	0	0
1128	0	0
1129	0	0
1130	0	0
1131	0	0
1132	0	0.166667
1133	0	0.0666667
1134	0	0.0666667
1135	0	0.0666667
1136	0	0.0357143
1137	0	0.209524
1138	0	0.209524
1139	0	0.117647
1140	0	0.752505
1141	0	0.710276
1142	0	0.310563
1143	0	0.109091
1144	0	0.106061
1145	0	0.0888889
1146	0	0.0968254
1147	0	0.238965
1148	0	0.114286
1149	0	0.117647
1150	0	0.0940171
1151	0	0.289306
1152	0	0.322027
1153	0	0.0963415
1154	0	0.0817204
1155	0	0.0643275
1156	0	0.0392157
1157	0	0.0666667
1158	0	0.043956
1159	0	0.0384615
1160	0	0.0454545
1161	0	0.043956
1162	0	0.043956
1163	0	0.043956
1164	0	0.043956
1165	0	0.0380952
1166	0	0.0380952
1167	0	0.030303
1168	0	0.0363636
1169	0	0.0444444
1170	0	0.0357143
1171	0	0.0357143
1172	0	0.0870509
1173	0	0.0862207
1174	0	0.0895779
1175	0	0.0843964
1176	0	0.0834108
1177	0	0.0819746
1178	0	0.0826504
1179	0	0.0788481
1180	0	0.0924934
1181	0	0.0897436
1182	0	0.0989011
1183	0	0.141667
1184	0	0.166667
1185	0	0.128655
1186	0	0.0950855
1187	0	0.102693
1188	0	0.0964332
1189	0	0.0757062
1190	0	0.144755
1191	0	0.123898
1192	0	0.116217
1193	0	0.12032
1194	0	0.118016
1195	0	0
1196	0	0
1197	0	0
1198	0	0
1199	0	0
1200	0	0
1201	0	0
1202	0	0
1203	0	0
1204	0	0
1205	0	0
1206	0	0
1207	0	0
1208	0	0
1209	0	0.166667
1210	0	0.166667
1211	0	0.166667
1212	0	0.166667
1213	0	0.166667
1214	0	0.1
1215	0	0.1
1216	0	0.047619
1217	0	0.047619
1218	0	0.047619
1219	0	0.047619
1220	0	0.047619
1221	0	0.047619
1222	0	0.1
1223	0	0
1224	0	0
1225	0	0
1226	0	0
1227	0	0
1228	0	0
1229	0	0
1230	0	0
1231	0	0
1232	0	0
1233	0	0
1234	0	0
1235	0	0
1236	0	0
1237	0	0
1238	0	0
1239	0	0
1240	0	0
1241	0	0
1242	0	0.166667
1243	0	0.3
1244	0	0.3
1245	0	0.3
1246	0	0.2
1247	0	0.142857
1248	0	0.127273
1249	0	0.0897436
1250	0	0.108333
1251	0	0.0978836
1252	0	0.116935
1253	0	0.128023
1254	0	0.129555
1255	0	0.137805
1256	0	0.107755
1257	0	0.111837
1258	0	0.100407
1259	0	0.14554
1260	0	0.114299
1261	0	0.115895
1262	0	0.108062
1263	0	0.0856489
1264	0	0
1265	0	0.0527964
1266	0	0.103775
1267	0	0.10399
1268	0	0.109681
1269	0	0.134058
1270	0	0.134058
1271	0	0.143707
1272	0	0.189213
1273	0	0.194282
1274	0	0.192396
1275	0	0.228571
1276	0	0.302868
1277	0	0.0545455
1278	0	0.0727273
1279	0	0.0727273
1280	0	0.0545455
1281	0	0.28431
1282	0	0.284238
1283	0	0.103448
1284	0	0.116402
1285	0	0.122507
1286	0	0.283095
1287	0	0.286657
1288	0	0.304601
1289	0	0.307368
1290	0	0.310219
1291	0	0
1292	0	0
1293	0	0
1294	0	0
1295	0	0
1296	0	0
1297	0	0
1298	0	0
1299	0	0
1300	0	0
1301	0	0
1302	0	0
1303	0	0
1304	0	0
1305	0	0
1306	0	0
1307	0	0
1308	0	0
1309	0	0
1310	0	0
1311	0	0
1312	0	0
1313	0	0
1314	0	0
1315	0	0
1316	0	0
1317	0	0
1318	0	0
1319	0	0
1320	0	0
1321	0	0.412181
1322	0	0.343256
1323	0	0.176812
1324	0	0.319716
1325	0	0.631685
1326	0	0.415261
1327	0	0.361111
1328	0	0.666667
1329	0	0.666667
1330	0	1
1331	1	1
1332	1	1
1333	1	1
1334	1	1
1335	1	1
1336	1	1
1337	1	1
1338	1	1
1339	0	0.992537
1340	0	0.992537
1341	0	0.880737
1342	0	0.880737
1343	0	0.848734
1344	0	1
1345	0	0.333333
1346	0	0.166667
1347	0	0.791457
1348	0	0.392592
1349	0	0.337686
1350	0	0.469179
1351	0	0.478883
1352	0	0.519723
1353	0	0.812925
1354	1	1
1355	1	1
1356	1	1
1357	1	1
1358	1	1
1359	1	1
1360	1	1
1361	1	1
1362	0	0.985131
1363	1	1
1364	1	1
1365	1	1
1366	0	1
1367	1	1
1368	1	1
1369	1	1
1370	1	1
1371	1	1
1372	1	1
1373	1	1
1374	1	1
1375	1	1
1376	1	1
1377	1	1
1378	1	1
1379	1	1
1380	1	1
1381	1	1
1382	1	1
1383	0	0
1384	0	0.992453
1385	1	1
1386	1	1
1387	1	1
1388	1	1
1389	1	1
1390	1	1
1391	1	1
1392	1	1
1393	1	1
1394	1	1
1395	1	1
1396	1	1
1397	1	1
1398	1	1
1399	1	1
1400	1	1
1401	0	1
1402	0	0.563636
1403	0	0.534535
1404	0	0.670321
1405	0	0.423638
1406	0	0.415809
1407	0	0.331647
1408	0	0.328273
1409	0	0.275
1410	0	0.272924
1411	0	0.333333
1412	0	0.5
1413	0	0.346387
1414	0	0.192633
1415	0	0.340448
1416	0	1
1417	0	1
1418	0	0.518273
1419	1	0
1420	1	0
1421	1	0
1422	1	0
1423	1	0
1424	1	0
1425	1	0
1426	0	0
1427	0	0
1428	0	0
1429	0	0.166667
1430	0	0.333333
1431	0	1
1432	0	1
1433	0	1
1434	0	0.940345
1435	0	1
1436	0	0.962582
1437	0	0.962582
1438	0	1
1439	0	1
1440	0	1
1441	1	1
1442	0	1
1443	0	1
1444	1	1
1445	1	1
1446	1	1
1447	1	1
1448	1	1
1449	1	1
1450	1	1
1451	1	1
1452	1	1
1453	1	1
1454	1	1
1455	1	1
1456	0	0.985131
1457	0	0.985131
1458	0	0.985131
1459	0	0.985131
1460	0	0.955839
1461	0	0.970265
1462	0	0.921686
1463	0	0.506677
1464	0	0.960202
1465	0	0.615935
1466	0	0.404378
1467	0	0.484621
1468	0	0.586318
1469	0	0.1
1470	0	0.190476
1471	0	0.175
1472	0	0.279412
1473	0	0.384615
1474	0	0.384615
1475	0	0.466667
1476	0	0.466667
1477	0	0.466667
1478	0	1
1479	0	0.89958
1480	0	0.941439
1481	0	0.941439
1482	0	0.941439
1483	1	1
1484	1	1
1485	1	1
1486	1	1
1487	1	1
1488	1	1
1489	1	1
1490	1	1
1491	1	1
1492	1	1
1493	0	0
1494	0	1
1495	0	0.715283
1496	0	0.339472
1497	0	0.590974
1498	1	1
1499	1	1
1500	1	1
1501	1	1
1502	1	1
1503	1	1
1504	1	1
1505	1	1
1506	1	1
1507	1	1
1508	1	1
1509	1	1
1510	0	0.984849
1511	0	0.955243
1512	0	0.938492
1513	0	0.708358
1514	0	0.959184
1515	0	0
1516	0	0.571823
1517	0	0.847764
1518	0	0.880524
1519	0	0.93905
1520	0	1
1521	0	1
1522	0	1
1523	1	1
1524	1	1
1525	1	1
1526	1	1
1527	1	1
1528	1	1
1529	1	1
1530	1	1
1531	1	1
1532	1	1
1533	0	1
1534	0	0.963246
1535	0	0.598748
1536	1	1
1537	1	1
1538	1	1
1539	1	1
1540	1	1
1541	1	1
1542	1	1
1543	1	1
1544	1	1
1545	1	1
1546	1	1
1547	1	1
1548	1	1
1549	0	0.992537
1550	0	0.992537
1551	0	0.698725
1552	0	0
1553	0	0
1554	0	0
1555	0	0
1556	0	0
1557	0	0
1558	0	0
1559	0	0
1560	0	0
1561	0	0.5
1562	0	0.5
1563	0	0.5
1564	0	0.5
1565	0	1
1566	0	1
1567	0	1
1568	0	1
1569	0	1
1570	0	0.5
1571	0	0.5
1572	0	0.5
1573	0	0.3
1574	0	0.361111
1575	0	0.583333
1576	0	0.291472
1577	0	0.276209
1578	0	0.523693
1579	0	0.530146
1580	0	0.597336
1581	0	0.604489
1582	0	0.47619
1583	0	0
1584	0	0
1585	0	0
1586	0	0
1587	0	0
1588	0	0
1589	0	0
1590	0	0
1591	0	0
1592	0	0
1593	0	0
1594	0	0
1595	0	0
1596	0	0
1597	0	0
1598	0	1
1599	0	0.927889
1600	0	0.970485
1601	0	1
1602	1	1
1603	1	1
1604	1	1
1605	1	1
1606	1	1
1607	1	1
1608	1	1
1609	1	1
1610	1	1
1611	1	1
1612	0	0
1613	0	0.833333
1614	0	0.444444
1615	0	0.444444
1616	0	0.496732
1617	0	0.512429
1618	0	0.512429
1619	0	0.344498
1620	0	0.356459
1621	0	0.334835
1622	0	0.272983
1623	0	0.243172
1624	0	0.282171
1625	0	0.386792
1626	0	0.539693
1627	0	0.360647
1628	0	0.660769
1629	0	0.663844
1630	1	1
1631	1	1
1632	1	1
1633	1	1
1634	1	1
1635	1	1
1636	0	0.985131
1637	0	0.985131
1638	0	0.985131
1639	0	0.985131
1640	0	0.977778
1641	0	0.554726
1642	0	1
1643	1	1
1644	1	1
1645	1	1
1646	1	1
1647	1	1
1648	1	1
1649	1	1
1650	1	1
1651	1	1
1652	1	1
1653	1	1
1654	1	1
1655	1	1
1656	1	1
1657	1	1
1658	1	1
1659	1	1
1660	1	1
1661	1	1
1662	0	0
1663	0	0
1664	1	0
1665	1	0
1666	0	0.714286
1667	0	0.381818
1668	0	0.32967
1669	0	0.707524
1670	0	0.427061
1671	0	0.301638
1672	0	0.325731
1673	1	1
1674	1	1
1675	1	1
1676	1	1
1677	1	1
1678	1	1
1679	1	1
1680	1	1
1681	1	1
1682	0	0
1683	0	0.982906
1684	0	0.501136
1685	0	0.879563
1686	0	0.866818
1687	0	0.857935
1688	1	1
1689	1	1
1690	1	1
1691	1	1
1692	1	1
1693	1	1
1694	1	1
1695	1	1
1696	1	1
1697	1	1
1698	1	1
1699	1	1
1700	1	1
1701	1	1
1702	0	1
1703	0	0.956062
1704	0	0.59436
1705	0	0.462533
1706	0	0.352753
1707	0	0.589763
1708	0	0.749936
1709	0	0.788772
1710	0	0.425
1711	0	0.433333
1712	0	0.69697
1713	0	1
1714	0	1
1715	0	1
1716	0	1
1717	0	1
1718	0	0.874224
1719	0	0.970485
1720	0	0.970485
1721	0	1
1722	1	1
1723	1	1
1724	1	1
1725	1	1
1726	1	1
1727	0	1
1728	0	0.800368
1729	0	1
1730	0	0.617647
1731	0	0.457895
1732	0	0.442105
1733	0	0.413043
1734	0	0.424242
1735	0	0.352926
1736	0	0.34897
1737	0	0.300196
1738	0	0.278771
1739	0	0.210313
1740	0	0.1491
1741	0	0
1742	0	0
1743	0	0
1744	0	0.166667
1745	0	0.167344
1746	0	0.189803
1747	0	0.196537
1748	0	0.152632
1749	0	0.39331
1750	0	0.561714
1751	0	0.798121
1752	0	0.841709
1753	0	0
1754	0	0
1755	0	0.5
1756	0	0.6
1757	0	1
1758	0	1
1759	0	1
1760	0	0.875
1761	0	1
1762	0	1
1763	0	0.992537
1764	0	0.992537
1765	0	0.992537
1766	0	0.992537
1767	0	0.992537
1768	0	1
1769	0	1
1770	0	0.4
1771	0	0.623227
1772	0	1
1773	0	0
1774	0	0
1775	0	0
1776	0	0
1777	0	0
1778	0	0
1779	0	0
1780	0	0.4
1781	0	0.646418
1782	0	0.630621
1783	0	0.366634
1784	0	0
1785	0	0
1786	0	0
1787	0	0.912121
1788	0	0.702671
1789	0	1
1790	0	1
1791	0	1
1792	0	0.5
1793	0	0.5
1794	0	0.258373
1795	0	0
1796	0	0
1797	0	0.622222
1798	0	0.232307
1799	0	0.29798
1800	0	0.439379
1801	0	0.540848
1802	0	0.553193
1803	0	1
1804	0	1
1805	0	1
1806	0	0.498545
1807	0	0.705489
1808	0	0.876005
1809	0	0.878376
1810	0	0.913238
1811	0	0
1812	0	0
1813	0	0
1814	0	0
1815	0	0
1816	0	0
1817	0	1
1818	0	1
1819	1	1
1820	1	1
1821	1	1
1822	1	1
1823	1	1
1824	0	0
1825	1	0
1826	1	0
1827	0	0.992537
1828	1	1
1829	1	1
1830	1	1
1831	1	1
1832	1	1
1833	1	1
1834	1	1
1835	1	1
1836	0	0
1837	0	0.992537
1838	0	0.992537
1839	0	0.992537
1840	0	0.992509
1841	0	1
1842	1	1
1843	1	1
1844	1	1
1845	1	1
1846	1	1
1847	1	1
1848	1	1
1849	1	1
1850	1	0
1851	1	0
