Site	ColumnScore	SumOfPairsScore
1	1	0
2	1	0
3	1	0
4	1	0
5	1	0
6	1	0
7	1	0
8	1	0
9	1	0
10	1	0
11	1	0
12	1	0
13	1	0
14	1	0
15	1	0
16	1	0
17	1	0
18	1	0
19	1	0
20	1	0
21	1	0
22	1	0
23	1	0
24	1	0
25	1	0
26	1	0
27	1	0
28	1	0
29	1	0
30	1	0
31	1	0
32	1	0
33	1	0
34	1	0
35	1	0
36	1	0
37	1	0
38	1	0
39	1	0
40	1	0
41	1	0
42	1	0
43	1	0
44	1	0
45	1	0
46	1	0
47	1	0
48	1	0
49	1	0
50	1	0
51	1	0
52	1	0
53	1	0
54	1	0
55	1	0
56	1	0
57	1	0
58	1	0
59	1	0
60	1	0
61	1	0
62	1	0
63	1	0
64	1	0
65	1	0
66	1	0
67	1	0
68	1	0
69	1	0
70	1	0
71	1	0
72	1	0
73	1	0
74	1	0
75	1	0
76	1	0
77	1	0
78	1	0
79	1	0
80	1	0
81	1	0
82	1	0
83	1	0
84	1	0
85	1	0
86	1	0
87	1	0
88	1	0
89	1	0
90	1	0
91	1	0
92	1	0
93	1	0
94	1	0
95	1	0
96	1	0
97	1	0
98	1	0
99	1	0
100	1	0
101	1	0
102	1	0
103	1	0
104	1	0
105	0	0
106	0	0
107	0	0
108	0	0
109	0	0
110	0	0
111	0	0
112	0	0
113	0	0
114	0	0
115	0	0
116	1	0
117	1	0
118	0	0
119	0	0
120	0	0
121	0	0
122	0	0
123	0	0
124	0	0
125	0	0
126	0	0
127	0	0
128	0	0
129	0	0
130	0	0
131	0	0
132	0	0
133	1	0
134	1	0
135	1	0
136	1	0
137	1	0
138	0	0
139	0	0
140	0	0
141	0	0
142	0	0
143	0	0
144	0	0
145	0	0
146	0	0
147	0	0
148	0	0
149	0	0
150	0	0
151	0	0
152	0	0
153	0	0
154	0	0
155	0	0
156	0	0
157	0	0
158	0	0
159	0	0
160	0	0
161	0	0
162	0	0
163	0	0
164	0	0
165	0	0
166	0	0
167	0	0
168	0	0
169	0	0
170	0	0
171	0	0
172	0	0
173	0	0
174	0	0
175	0	0
176	0	0
177	0	0
178	0	0
179	0	0
180	0	0
181	0	0
182	0	0
183	0	0
184	0	0
185	0	0
186	0	0
187	0	0
188	0	0
189	0	0
190	0	0
191	0	0
192	0	0
193	0	0
194	0	0
195	0	0
196	0	0
197	0	0
198	0	0
199	0	0
200	0	0
201	0	0
202	0	0
203	0	0
204	0	0
205	0	0
206	0	0
207	0	0
208	0	0
209	0	0
210	0	0
211	0	0
212	0	0
213	0	0
214	0	0
215	0	0
216	0	0
217	0	0
218	0	0
219	0	0
220	0	0
221	0	0
222	0	0
223	0	0
224	0	0
225	0	0
226	0	0
227	0	0
228	0	0
229	0	0
230	0	0
231	0	0
232	0	0
233	0	0
234	0	0
235	0	0
236	0	0
237	0	0
238	0	0
239	0	0
240	0	0
241	0	0
242	0	0
243	0	0
244	0	0
245	0	0
246	0	0
247	0	0
248	0	0
249	0	0
250	0	0
251	0	0
252	0	0
253	0	0
254	0	0
255	0	0
256	0	0
257	0	0
258	0	0
259	0	0
260	0	0
261	0	0
262	0	0
263	0	0
264	0	0
265	0	0
266	0	0
267	0	0
268	0	0
269	0	0
270	0	0
271	0	0
272	0	0
273	0	0
274	0	0
275	0	0
276	0	0
277	0	0
278	0	0
279	0	0
280	0	0
281	0	0
282	0	0
283	0	0
284	0	0
285	0	0
286	0	0
287	0	0
288	0	0
289	0	0
290	0	0
291	0	0
292	0	0
293	0	0
294	0	0
295	0	0
296	0	0
297	0	0
298	0	0
299	0	0
300	0	0
301	0	0
302	0	0
303	0	0
304	0	0
305	0	0
306	0	0
307	0	0
308	0	0
309	0	0
310	0	0
311	0	0
312	0	0
313	0	0
314	0	0
315	0	0
316	0	0
317	0	0
318	0	0
319	0	0.1
320	0	0.0666667
321	0	0.0666667
322	0	0.0666667
323	0	0.0666667
324	0	0.0666667
325	0	0.0666667
326	0	0.0666667
327	0	0.0666667
328	0	0.0666667
329	0	0.0666667
330	0	0.0666667
331	0	0.2
332	0	0.2
333	0	0.2
334	0	0.2
335	0	0.2
336	0	0.2
337	0	0.2
338	0	0.2
339	0	0.285714
340	0	0.190476
341	0	0.190476
342	0	0.333333
343	0	0.285714
344	0	0.285714
345	0	0.190476
346	0	0.238095
347	0	0.190476
348	0	0.190476
349	0	0.142857
350	0	0.142857
351	0	0.190476
352	0	0.190476
353	0	0.142857
354	0	0.107143
355	0	0.142857
356	0	0.247619
357	0	0.22381
358	0	0.444848
359	0	0.353005
360	0	0.320933
361	0	0.320933
362	0	0.308604
363	0	0.24206
364	0	0.25308
365	0	0.239234
366	0	0.5
367	0	0.5
368	0	0.5
369	0	0.258806
370	0	0.252996
371	0	0
372	0	0
373	0	0
374	0	0
375	0	0
376	0	0
377	0	0.259856
378	0	0.6
379	0	0.6
380	0	0.384615
381	0	0.384615
382	0	0.483668
383	0	0.464364
384	0	0.446951
385	0	0.923077
386	0	0.969701
387	0	0.962384
388	0	0.962384
389	0	1
390	0	1
391	0	1
392	1	1
393	1	1
394	1	1
395	1	1
396	1	1
397	1	1
398	1	1
399	1	1
400	1	1
401	1	1
402	1	1
403	0	0.992395
404	0	0.992395
405	0	0.992395
406	0	0.992395
407	0	0.992395
408	0	0.992395
409	0	0.6
410	0	0.6
411	0	0.6
412	0	0.6
413	0	0.6
414	0	0.6
415	0	0.6
416	0	1
417	0	0.5
418	0	0.3
419	0	0.3
420	0	0.3
421	0	0.3
422	0	0.3
423	0	0.3
424	0	0.3
425	0	0.1
426	0	0.1
427	0	0.1
428	0	0.166667
429	0	0.166667
430	0	0.1
431	0	0.2
432	0	0.333333
433	0	0.333333
434	0	1
435	0	1
436	0	1
437	0	1
438	0	1
439	0	1
440	0	0.872067
441	1	1
442	1	1
443	1	1
444	1	1
445	1	1
446	1	1
447	1	1
448	1	1
449	1	1
450	1	1
451	1	1
452	1	1
453	1	1
454	1	1
455	1	1
456	1	1
457	1	1
458	1	1
459	1	1
460	1	1
461	1	1
462	1	1
463	1	1
464	1	1
465	1	1
466	1	1
467	1	1
468	1	1
469	1	1
470	1	1
471	1	1
472	1	1
473	1	1
474	1	1
475	1	1
476	1	1
477	1	1
478	1	1
479	1	1
480	1	1
481	1	1
482	1	1
483	1	1
484	1	1
485	1	1
486	1	1
487	1	1
488	1	1
489	1	1
490	1	1
491	1	1
492	1	1
493	1	1
494	1	1
495	1	1
496	1	1
497	1	1
498	1	1
499	1	1
500	1	1
501	1	1
502	1	1
503	1	1
504	1	1
505	1	1
506	1	1
507	0	0
508	0	0
509	0	0
510	0	0.992395
511	0	1
512	0	1
513	0	1
514	0	0.963246
515	0	0.963246
516	1	1
517	1	1
518	1	1
519	1	1
520	1	1
521	1	1
522	1	1
523	1	1
524	1	1
525	1	1
526	1	1
527	1	1
528	1	1
529	1	1
530	1	1
531	1	1
532	1	1
533	1	1
534	1	1
535	1	1
536	0	1
537	0	0.900256
538	0	0.900256
539	0	0.900256
540	1	1
541	0	0.934612
542	0	0
543	0	0
544	0	0
545	0	0
546	0	0
547	0	0
548	0	0.333333
549	0	0.333333
550	0	0.333333
551	0	0.333333
552	0	0.333333
553	0	0.166667
554	0	0.133333
555	0	0.466667
556	0	0.466667
557	0	1
558	0	1
559	0	0.517293
560	0	0.955738
561	0	0
562	0	0
563	0	0
564	0	0
565	0	0
566	0	0
567	0	0
568	0	0
569	0	0
570	0	0
571	0	0
572	0	0
573	0	0
574	0	0
575	0	0
576	0	0.166667
577	0	0.166667
578	0	0.166667
579	0	0.166667
580	0	0.166667
581	0	0.166667
582	0	0.166667
583	0	0.166667
584	0	0.166667
585	0	0.166667
586	0	0.166667
587	0	0.166667
588	0	0.166667
589	0	0.166667
590	0	0.166667
591	0	0.5
592	0	0.5
593	0	0.5
594	0	0.5
595	0	0.5
596	0	0.5
597	0	0.5
598	0	0.5
599	0	1
600	0	1
601	0	1
602	0	1
603	0	1
604	0	1
605	0	1
606	0	1
607	0	1
608	0	1
609	0	1
610	0	1
611	0	1
612	0	1
613	0	1
614	0	1
615	0	1
616	0	1
617	0	1
618	0	1
619	0	1
620	0	1
621	0	1
622	0	1
623	0	1
624	0	1
625	0	1
626	0	1
627	0	0.5
628	0	0.5
629	0	0.5
630	0	0.5
631	0	0.5
632	0	1
633	0	1
634	0	1
635	0	1
636	0	1
637	0	1
638	0	1
639	0	1
640	0	1
641	0	1
642	0	1
643	0	1
644	0	1
645	0	1
646	0	1
647	0	1
648	0	1
649	0	1
650	0	1
651	0	1
652	0	1
653	0	1
654	0	1
655	0	1
656	0	1
657	0	1
658	0	1
659	0	1
660	0	1
661	0	1
662	0	1
663	0	1
664	0	1
665	0	1
666	0	1
667	0	1
668	0	1
669	0	1
670	0	1
671	0	1
672	0	1
673	0	1
674	0	1
675	0	1
676	0	1
677	0	1
678	0	1
679	0	1
680	0	1
681	0	1
682	0	1
683	0	1
684	0	1
685	0	1
686	0	1
687	0	1
688	0	1
689	0	1
690	0	1
691	0	1
692	0	1
693	0	1
694	0	1
695	0	1
696	0	1
697	0	1
698	0	1
699	0	1
700	0	1
701	0	1
702	0	1
703	0	0.6
704	0	0.6
705	0	0.6
706	0	0.6
707	0	0.6
708	0	0.6
709	0	0.6
710	0	0.6
711	0	0.6
712	0	0.6
713	0	0.6
714	0	0.6
715	0	0.6
716	0	0.6
717	0	0.6
718	0	0.6
719	0	0.6
720	0	0.6
721	0	0.6
722	0	0.6
723	0	0.6
724	0	0.6
725	0	0.955483
726	0	0.955483
727	0	0.955483
728	0	1
729	0	1
730	0	1
731	0	1
732	0	1
733	0	1
734	0	1
735	0	1
736	0	1
737	0	1
738	0	1
739	0	1
740	0	1
741	0	1
742	0	1
743	0	1
744	0	1
745	0	1
746	0	1
747	0	1
748	0	1
749	0	1
750	0	1
751	0	1
752	0	1
753	0	1
754	0	1
755	0	1
756	0	1
757	0	1
758	0	1
759	0	1
760	0	1
761	0	1
762	0	1
763	0	1
764	0	1
765	0	1
766	0	1
767	0	1
768	0	1
769	0	1
770	0	1
771	0	1
772	0	1
773	0	1
774	0	1
775	0	1
776	0	1
777	0	1
778	0	1
779	0	1
780	0	1
781	0	1
782	0	1
783	0	1
784	0	1
785	0	1
786	0	1
787	0	1
788	0	1
789	0	1
790	0	1
791	0	1
792	0	1
793	0	1
794	0	1
795	0	1
796	0	1
797	0	1
798	0	1
799	0	1
800	0	1
801	0	1
802	0	1
803	0	1
804	0	1
805	0	1
806	0	1
807	0	1
808	0	1
809	0	1
810	0	1
811	0	1
812	0	1
813	0	1
814	0	1
815	0	1
816	0	1
817	0	1
818	0	1
819	0	1
820	0	1
821	0	1
822	0	1
823	0	1
824	0	1
825	0	1
826	0	1
827	0	1
828	0	1
829	0	1
830	0	1
831	0	1
832	0	1
833	0	1
834	0	1
835	0	1
836	0	1
837	0	1
838	0	1
839	0	1
840	0	1
841	0	1
842	0	1
843	0	1
844	0	1
845	0	1
846	0	1
847	0	1
848	0	1
849	0	1
850	0	1
851	0	1
852	0	1
853	0	1
854	0	1
855	0	1
856	0	1
857	0	1
858	0	1
859	0	1
860	0	1
861	0	1
862	0	1
863	0	1
864	0	1
865	0	0.6
866	0	0.6
867	0	0.6
868	0	0.6
869	0	0.6
870	0	0.6
871	0	0.6
872	0	0.6
873	0	0.6
874	0	0.6
875	0	0.6
876	0	0.6
877	0	0.6
878	0	0.3
879	0	0.3
880	0	0.3
881	0	0.3
882	0	0.3
883	0	0.3
884	0	0.3
885	0	0.962636
886	0	0.962636
887	0	0.962636
888	0	0.5
889	0	0.5
890	0	0.5
891	0	0.5
892	0	0.5
893	0	0.5
894	0	0.5
895	0	0.5
896	0	0.5
897	0	0.5
898	0	0.5
899	0	0.5
900	0	0.5
901	0	0.5
902	0	0.5
903	0	0.5
904	0	0.5
905	0	0.5
906	0	0.5
907	0	0.5
908	0	0.5
909	0	0.5
910	0	0.5
911	0	0.5
912	0	0.5
913	0	0.5
914	0	0.5
915	0	0.5
916	0	0.5
917	0	0.5
918	0	0.5
919	0	0.5
920	0	0.5
921	0	0.5
922	0	0.5
923	0	0.5
924	0	0.5
925	0	1
926	0	1
927	0	1
928	0	1
929	0	1
930	0	1
931	0	1
932	0	1
933	0	1
934	0	1
935	0	1
936	0	1
937	0	1
938	0	1
939	0	1
940	0	1
941	0	1
942	0	1
943	0	1
944	0	1
945	0	1
946	0	1
947	0	1
948	0	1
949	0	1
950	0	1
951	0	1
952	0	1
953	0	1
954	0	1
955	0	1
956	0	1
957	0	1
958	0	1
959	0	1
960	0	1
961	0	1
962	0	1
963	0	1
964	0	1
965	0	1
966	0	1
967	0	1
968	0	1
969	0	1
970	0	1
971	0	1
972	0	1
973	0	1
974	0	1
975	0	1
976	0	1
977	0	1
978	0	1
979	0	1
980	0	1
981	0	1
982	0	1
983	0	1
984	0	1
985	0	1
986	0	1
987	0	1
988	0	1
989	0	1
990	0	1
991	0	1
992	0	1
993	0	1
994	0	1
995	0	1
996	0	1
997	0	1
998	0	1
999	0	1
1000	0	1
1001	0	1
1002	0	1
1003	0	1
1004	0	1
1005	0	1
1006	0	1
1007	0	1
1008	0	1
1009	0	1
1010	0	1
1011	0	1
1012	0	1
1013	0	1
1014	0	1
1015	0	1
1016	0	1
1017	0	1
1018	0	1
1019	0	1
1020	0	1
1021	0	1
1022	0	1
1023	0	1
1024	0	1
1025	0	1
1026	0	1
1027	0	1
1028	0	1
1029	0	0.5
1030	0	0.5
1031	0	0.5
1032	0	0.5
1033	0	0.5
1034	0	0.5
1035	0	0.5
1036	0	0.5
1037	0	0.5
1038	0	0.5
1039	0	0.5
1040	0	0.5
1041	0	0.5
1042	0	0.5
1043	0	0.5
1044	0	0.5
1045	0	0.5
1046	0	0.5
1047	0	0.5
1048	0	0.5
1049	0	0.5
1050	0	0.5
1051	0	0.5
1052	0	0.5
1053	0	0.5
1054	0	0.5
1055	0	0.5
1056	0	0.5
1057	0	0.5
1058	0	0.5
1059	0	0.5
1060	0	0.5
1061	0	0.5
1062	0	0.5
1063	0	0.5
1064	0	0.5
1065	0	0.5
1066	0	0.5
1067	0	0.5
1068	0	0.5
1069	0	0.5
1070	0	0.5
1071	0	0.5
1072	0	0.5
1073	0	0.5
1074	0	0.5
1075	0	0.5
1076	0	0.5
1077	0	0.5
1078	0	0.5
1079	0	0.5
1080	0	0.5
1081	0	0.5
1082	0	0.5
1083	0	0.5
1084	0	0.5
1085	0	0
1086	0	0
1087	0	0
1088	0	0
1089	0	0
1090	0	0
1091	0	0
1092	0	0
1093	0	0
1094	0	0.955398
1095	0	0.955398
1096	0	0.5
1097	0	0.5
1098	0	0.5
1099	0	0.5
1100	0	0.5
1101	0	0.5
1102	0	0.5
1103	0	0.5
1104	0	0.5
1105	0	0.5
1106	0	0.5
1107	0	0.5
1108	0	0.5
1109	0	0.5
1110	0	0.955483
1111	0	0.955483
1112	0	0
1113	0	0.955317
1114	0	0
1115	0	0
1116	0	0
1117	0	0
1118	0	0
1119	0	0
1120	0	0
1121	0	0
1122	0	0.962722
1123	0	0.962722
1124	0	1
1125	0	1
1126	0	1
1127	0	1
1128	0	1
1129	0	1
1130	0	1
1131	0	1
1132	0	1
1133	0	1
1134	0	1
1135	0	1
1136	0	1
1137	0	1
1138	0	1
1139	0	1
1140	0	1
1141	0	1
1142	0	1
1143	0	1
1144	0	1
1145	0	1
1146	0	1
1147	0	1
1148	0	1
1149	0	0
1150	0	0
1151	0	0
1152	0	0
1153	0	0
1154	0	0
1155	0	0
1156	0	0
1157	0	0
1158	0	0
1159	0	0
1160	0	0
1161	0	0
1162	0	0
1163	0	0
1164	0	0
1165	0	0
1166	0	0
1167	0	0
1168	0	0
1169	0	0
1170	0	0
1171	0	0
1172	0	0
1173	0	0
1174	0	0
1175	0	0
1176	0	0
1177	0	0
1178	0	0
1179	0	0
1180	0	0
1181	0	0
1182	0	0
1183	0	0
1184	0	0
1185	0	0
1186	0	0
1187	0	0
1188	0	0
1189	0	0
1190	0	0
1191	0	0
1192	0	0
1193	0	0
1194	0	0
1195	0	0
1196	0	0
1197	0	0
1198	0	0
1199	0	0
1200	0	0
1201	0	0
1202	0	0
1203	0	0
1204	0	0
1205	0	0
1206	0	0
1207	0	0
1208	0	0
1209	0	0
1210	0	0
1211	0	0
1212	0	0
1213	0	0
1214	0	0
1215	0	0
1216	0	0
1217	0	0
1218	0	0
1219	0	0
1220	0	0
1221	0	0
1222	0	0
1223	0	0
1224	0	0
1225	0	0
1226	0	0
1227	0	0
1228	0	0
1229	0	0
1230	0	0
1231	0	0
1232	0	0
1233	0	0
1234	0	0
1235	0	0
1236	0	0
1237	0	0
1238	0	0
1239	0	0
1240	0	0
1241	0	0
1242	0	0
1243	0	0
1244	0	0
1245	0	0
1246	0	0
1247	0	0
1248	0	0
1249	0	0
1250	0	0
1251	0	0
1252	0	0
1253	0	0
1254	0	0
1255	0	0
1256	0	0
1257	0	0
1258	0	0
1259	0	0
1260	0	0
1261	0	0
1262	0	0
1263	0	0
1264	0	0
1265	0	0
1266	0	0
1267	0	0
1268	0	0
1269	0	0
1270	0	0
1271	0	0
1272	0	0
1273	0	0
1274	0	0
1275	0	0
1276	0	0
1277	0	0
1278	0	0
1279	0	0
1280	0	0
1281	0	0
1282	0	0
1283	0	0
1284	0	0
1285	0	0
1286	0	0
1287	0	0
1288	0	0
1289	0	0
1290	0	0
1291	0	0
1292	0	0
1293	0	0
1294	0	0
1295	0	0
1296	0	0
1297	0	0
1298	0	0
1299	0	0
1300	0	0
1301	0	0
1302	0	0
1303	0	0
1304	0	0
1305	0	0
1306	0	0
1307	0	0
1308	0	0
1309	0	0
1310	0	0
1311	1	0
1312	1	0
1313	1	0
1314	0	0
1315	0	0
1316	0	0
1317	0	0
1318	0	0
1319	0	0
1320	0	0
1321	0	0
1322	0	0
1323	0	0
1324	0	0
1325	0	0
1326	0	0
1327	0	0
1328	0	0
1329	0	0
1330	0	0
1331	0	0
1332	0	0
1333	0	0
1334	0	0
1335	0	0
1336	0	0
1337	0	0
1338	0	0
1339	0	0
1340	0	0
1341	0	0
1342	0	0
1343	0	0
1344	0	0
1345	0	0
1346	0	0
1347	0	0
1348	0	0
1349	0	0
1350	0	0
1351	0	0
1352	0	0
1353	0	0
1354	0	0
1355	0	0
1356	0	0
1357	0	0
1358	0	0
1359	0	0
1360	0	0
1361	0	0
1362	0	0
1363	0	0
1364	0	0
1365	0	0
1366	0	0
1367	0	0
1368	0	0
1369	0	0
1370	0	0
1371	0	0
1372	0	0
1373	0	0
1374	0	0
1375	0	0
1376	0	0
1377	0	0
1378	0	0
1379	0	0
1380	0	0
1381	0	0
1382	0	0
1383	0	0
1384	0	0
1385	0	0
1386	0	0
1387	0	0
1388	0	0
1389	0	0
1390	0	0
1391	0	0
1392	0	0
1393	0	0
1394	0	0
1395	0	0
1396	0	0
1397	0	0
1398	0	0
1399	0	0
1400	0	0
1401	0	0
1402	0	0
1403	0	0
1404	0	0
1405	0	0
1406	0	0
1407	0	0
1408	0	0
1409	0	0
1410	0	0
1411	0	0
1412	0	0
1413	0	0
1414	0	0
1415	0	0
1416	0	0
1417	0	0
1418	0	0
1419	0	0
1420	0	0
1421	0	0
1422	0	0
1423	0	0
1424	0	0
1425	0	0
1426	0	0
1427	0	0
1428	0	0
1429	0	0
1430	0	0
1431	0	0
1432	0	0
1433	0	0
1434	0	0
1435	0	0
1436	0	0
1437	0	0
1438	0	0
1439	0	0
1440	0	0
1441	0	0
1442	0	0
1443	0	0
1444	0	0
1445	0	0
1446	0	0
1447	0	0
1448	0	0
1449	0	0
1450	0	0
1451	0	0
1452	0	0
1453	0	0
1454	0	0
1455	0	0
1456	0	0
1457	0	0
1458	0	0
1459	0	0
1460	0	0
1461	0	0
1462	0	0
1463	0	0
1464	0	0
1465	0	0
1466	0	0
1467	0	0
1468	0	0
1469	0	0
1470	0	0
1471	0	0
1472	0	0
1473	0	0
1474	0	0
1475	0	0
1476	0	0
1477	0	0
1478	0	0
1479	0	0
1480	0	0
1481	0	0
1482	0	0
1483	0	0
1484	0	0
1485	0	0
1486	0	0
1487	0	0
1488	0	0
1489	0	0
1490	0	0
1491	0	0
1492	0	0
1493	0	0
1494	0	0
1495	0	0
1496	0	0
1497	0	0
1498	0	0
1499	0	0
1500	0	0
1501	0	0
1502	0	0
1503	0	0
1504	0	0
1505	0	0
1506	0	0
1507	0	0
1508	0	0
1509	0	0
1510	0	0
1511	0	0
1512	0	0
1513	0	0
1514	0	0
1515	0	0
1516	0	0
1517	0	0
1518	0	0
1519	0	0
1520	0	0
1521	0	0
1522	0	0
1523	0	0
1524	0	0
1525	0	0
1526	0	0
1527	0	0
1528	0	0
1529	0	0
1530	0	0
1531	0	0
1532	0	0
1533	0	0
1534	0	0
1535	0	0
1536	0	0
1537	0	0
1538	0	0
1539	0	0
1540	0	0
1541	0	0
1542	0	0
1543	0	0
1544	0	0
1545	0	0
1546	0	0
1547	0	0
1548	0	0
1549	0	0
1550	0	0
1551	0	0
1552	0	0
1553	0	0
1554	0	0
1555	0	0
1556	0	0
1557	0	0
1558	0	0
1559	0	0
1560	0	0
1561	0	0
1562	0	0
1563	0	0
1564	0	0
1565	0	0
1566	0	0
1567	0	0
1568	0	0
1569	0	0
1570	0	0
1571	0	0
1572	0	0
1573	0	0
1574	0	0
1575	0	0
1576	0	0
1577	0	0
1578	0	0
1579	0	0
1580	0	0
1581	0	0
1582	0	0
1583	0	0
1584	0	0
1585	0	0
1586	0	0
1587	0	0
1588	0	0
1589	0	0
1590	0	0
1591	0	0
1592	0	0
1593	0	0
1594	0	0
1595	0	0
1596	0	0
1597	0	0
1598	0	0
1599	0	0
1600	0	0
1601	0	0
1602	0	0
1603	0	0
1604	0	0
1605	0	0
1606	0	0
1607	0	0
1608	0	0
1609	0	0
1610	0	0
1611	0	0
1612	0	0
1613	0	0
1614	0	0
1615	0	0
1616	0	0
1617	0	0
1618	0	0
1619	0	0
1620	0	0
1621	0	0
1622	0	0
1623	0	0
1624	0	0
1625	0	0
1626	0	0
1627	0	0
1628	0	0
1629	0	0
1630	0	0
1631	0	0
1632	0	0
1633	0	0
1634	0	0
1635	0	0
1636	0	0
1637	0	0
1638	0	0
1639	0	0
1640	0	0
1641	0	0
1642	0	0
1643	0	0
1644	0	0
1645	0	0
1646	0	0
1647	0	0
1648	0	0
1649	0	0
1650	0	0
1651	0	0
1652	0	0
1653	0	0
1654	0	0
1655	0	0
1656	0	0
1657	0	0
1658	0	0
1659	0	0
1660	0	0
1661	0	0
1662	0	0
1663	0	0
1664	0	0
1665	0	0
1666	0	0
1667	0	0
1668	0	0
1669	0	0
1670	0	0
1671	0	0
1672	0	0
1673	0	0
1674	0	0
1675	0	0
1676	0	0
1677	0	0
1678	0	0
1679	0	0
1680	0	0
1681	0	0
1682	0	0
1683	0	0
1684	0	0
1685	0	0
1686	0	0
1687	0	0
1688	0	0
1689	0	0
1690	0	0
1691	0	0
1692	0	0
1693	0	0
1694	0	0
1695	0	0
1696	0	0
1697	0	0
1698	0	0
1699	0	0
1700	0	0
1701	0	0
1702	0	0
1703	0	0
1704	0	0
1705	0	0
1706	0	0
1707	0	0
1708	0	0
1709	0	0
1710	0	0
1711	0	0
1712	0	0
1713	0	0
1714	0	0
1715	0	0
1716	0	0
1717	0	0
1718	0	0
1719	0	0
1720	0	0
1721	0	0
1722	0	0
1723	0	0
1724	0	0
1725	0	0
1726	0	0
1727	0	0
1728	0	0
1729	0	0
1730	0	0
1731	0	0
1732	0	0
1733	0	0
1734	0	0
1735	0	0
1736	0	0
1737	0	0
1738	0	0
1739	0	0
1740	0	0
1741	0	0
1742	0	0
1743	0	0
1744	0	0
1745	0	0
1746	0	0
1747	0	0
1748	0	0
1749	0	0
1750	0	0
1751	0	0
1752	0	0
1753	0	0
1754	0	0
1755	0	0
1756	0	0
1757	0	0
1758	0	0
1759	0	0
1760	0	0
1761	0	0
1762	0	0
1763	0	0
1764	0	0
1765	0	0
1766	0	0
1767	0	0
1768	0	0
1769	0	0
1770	0	0
1771	0	0
1772	0	0
1773	0	0
1774	0	0
1775	0	0
1776	0	0
1777	0	0
1778	0	0
1779	0	0
1780	0	0
1781	0	0
1782	0	0
1783	0	0
1784	0	0
1785	0	0
1786	0	0
1787	0	0
1788	0	0
1789	0	0
1790	0	0
1791	0	0
1792	0	0
1793	0	0
1794	0	0
1795	0	0
1796	0	0
1797	0	0
1798	0	0
1799	0	0
1800	0	0
1801	0	0
1802	0	0
1803	0	0
1804	0	0
1805	0	0
1806	0	0
1807	0	0
1808	0	0
1809	0	0
1810	0	0
1811	0	0
1812	0	0
1813	0	0
1814	0	0
1815	0	0
1816	0	0
1817	0	0
1818	0	0
1819	0	0
1820	0	0
1821	0	0
1822	0	0
1823	0	0
1824	0	0
1825	0	0
1826	0	0
1827	0	0
1828	0	0
1829	0	0
1830	0	0
1831	0	0
1832	0	0
1833	0	0
1834	0	0
1835	0	0
1836	0	0
1837	0	0
1838	0	0
1839	0	0
1840	0	0
1841	0	0
1842	0	0
1843	0	0
1844	0	0
1845	0	0
1846	0	0
1847	0	0
1848	0	0
1849	0	0
1850	0	0
1851	0	0
1852	0	0
1853	0	0
1854	0	0
1855	0	0
1856	0	0
1857	0	0
1858	0	0
1859	0	0.962496
1860	0	0.962496
1861	0	0.962496
1862	0	0.962496
1863	0	0.962496
1864	0	0.962496
1865	0	1
1866	0	1
1867	0	1
1868	0	1
1869	0	1
1870	0	1
1871	0	1
1872	0	1
1873	0	1
1874	0	1
1875	0	1
1876	0	1
1877	0	1
1878	0	1
1879	0	1
1880	0	1
1881	0	1
1882	0	1
1883	0	1
1884	0	1
1885	0	1
1886	0	1
1887	0	1
1888	0	1
1889	0	1
1890	0	1
1891	0	1
1892	0	1
1893	0	1
1894	0	1
1895	0	1
1896	0	1
1897	0	1
1898	0	1
1899	0	1
1900	0	1
1901	0	1
1902	0	1
1903	0	1
1904	0	0.962496
1905	0	0.5
1906	0	0.3
1907	0	0.3
1908	0	0.3
1909	0	0.3
1910	0	0.3
1911	0	0.962355
1912	0	0.962355
1913	0	0.955064
1914	0	0.955064
1915	0	0.955064
1916	0	0.954895
1917	0	0.954381
1918	0	0.4
1919	0	0.943919
1920	0	0.941822
1921	0	0.919849
1922	0	0.883276
1923	0	0.876387
1924	0	0.79108
1925	0	0.670455
1926	0	0.565217
1927	0	0.532468
1928	0	0.585714
1929	0	0.529412
1930	0	0.457143
1931	0	0.219048
1932	0	0.205128
1933	0	0.205128
1934	0	0.205128
1935	0	0.212121
1936	0	0.212121
1937	0	0.212121
1938	0	0.212121
1939	0	0.212121
1940	0	0.212121
1941	0	0.212121
1942	0	0.212121
1943	0	0.212121
1944	0	0.212121
1945	0	0.212121
1946	0	0.212121
1947	0	0.212121
1948	0	0.212121
1949	0	0.212121
1950	0	0.212121
1951	0	0.212121
1952	0	0.212121
1953	0	0.212121
1954	0	0.212121
1955	0	0.212121
1956	0	0.212121
1957	0	0.212121
1958	0	0.212121
1959	0	0.212121
1960	0	0.212121
1961	0	0.212121
1962	0	0.212121
1963	0	0.212121
1964	0	0.212121
1965	0	0.212121
1966	0	0.212121
1967	0	0.212121
1968	0	0.218182
1969	0	0.218182
1970	0	0.218182
1971	0	0.218182
1972	0	0.218182
1973	0	0.218182
1974	0	0.218182
1975	0	0.218182
1976	0	0.218182
1977	0	0.218182
1978	0	0.218182
1979	0	0.218182
1980	0	0.218182
1981	0	0.218182
1982	0	0.218182
1983	0	0.218182
1984	0	0.218182
1985	0	0.218182
1986	0	0.218182
1987	0	0.218182
1988	0	0.218182
1989	0	0.218182
1990	0	0.218182
1991	0	0.218182
1992	0	0.218182
1993	0	0.218182
1994	0	0.218182
1995	0	0.218182
1996	0	0.218182
1997	0	0.218182
1998	0	0.218182
1999	0	0.218182
2000	0	0.218182
2001	0	0.218182
2002	0	0.218182
2003	0	0.218182
2004	0	0.218182
2005	0	0.218182
2006	0	0.218182
2007	0	0.218182
2008	0	0.218182
2009	0	0.218182
2010	0	0.181818
2011	0	0.181818
2012	0	0.181818
2013	0	0.181818
2014	0	0.181818
2015	0	0.181818
2016	0	0.181818
2017	0	0.181818
2018	0	0.181818
2019	0	0.181818
2020	0	0.181818
2021	0	0.181818
2022	0	0.181818
2023	0	0.181818
2024	0	0.181818
2025	0	0.181818
2026	0	0.181818
2027	0	0.181818
2028	0	0.181818
2029	0	0.181818
2030	0	0.212121
2031	0	0.212121
2032	0	0.212121
2033	0	0.212121
2034	0	0.212121
2035	0	0.212121
2036	0	0.212121
2037	0	0.212121
2038	0	0.212121
2039	0	0.212121
2040	0	0.254545
2041	0	0.254545
2042	0	0.254545
2043	0	0.254545
2044	0	0.254545
2045	0	0.254545
2046	0	0.254545
2047	0	0.254545
2048	0	0.254545
2049	0	0.254545
2050	0	0.254545
2051	0	0.254545
2052	0	0.254545
2053	0	0.254545
2054	0	0.254545
2055	0	0.254545
2056	0	0.254545
2057	0	0.254545
2058	0	0.254545
2059	0	0.254545
2060	0	0.254545
2061	0	0.254545
2062	0	0.254545
2063	0	0.254545
2064	0	0.254545
2065	0	0.254545
2066	0	0.254545
2067	0	0.254545
2068	0	0.254545
2069	0	0.254545
2070	0	0.254545
2071	0	0.254545
2072	0	0.254545
2073	0	0.254545
2074	0	0.254545
2075	0	0.254545
2076	0	0.254545
2077	0	0.254545
2078	0	0.254545
2079	0	0.254545
2080	0	0.254545
2081	0	0.254545
2082	0	0.254545
2083	0	0.254545
2084	0	0.254545
2085	0	0.254545
2086	0	0.254545
2087	0	0.254545
2088	0	0.254545
2089	0	0.254545
2090	0	0.254545
2091	0	0.254545
2092	0	0.254545
2093	0	0.254545
2094	0	0.254545
2095	0	0.254545
2096	0	0.254545
2097	0	0.254545
2098	0	0.254545
2099	0	0.254545
2100	0	0.254545
2101	0	0.254545
2102	0	0.254545
2103	0	0.254545
2104	0	0.254545
2105	0	0.254545
2106	0	0.254545
2107	0	0.254545
2108	0	0.254545
2109	0	0.254545
2110	0	0.254545
2111	0	0.254545
2112	0	0.254545
2113	0	0.254545
2114	0	0.254545
2115	0	0.254545
2116	0	0.254545
2117	0	0.254545
2118	0	0.254545
2119	0	0.254545
2120	0	0.254545
2121	0	0.254545
2122	0	0.254545
2123	0	0.254545
2124	0	0.254545
2125	0	0.254545
2126	0	0.254545
2127	0	0.254545
2128	0	0.254545
2129	0	0.254545
2130	0	0.254545
2131	0	0.254545
2132	0	0.254545
2133	0	0.254545
2134	0	0.254545
2135	0	0.254545
2136	0	0.254545
2137	0	0.254545
2138	0	0.254545
2139	0	0.254545
2140	0	0.254545
2141	0	0.254545
2142	0	0.254545
2143	0	0.254545
2144	0	0.254545
2145	0	0.254545
2146	0	0.254545
2147	0	0.254545
2148	0	0.254545
2149	0	0.254545
2150	0	0.254545
2151	0	0.254545
2152	0	0.254545
2153	0	0.254545
2154	0	0.254545
2155	0	0.254545
2156	0	0.254545
2157	0	0.254545
2158	0	0.254545
2159	0	0.254545
2160	0	0.254545
2161	0	0.254545
2162	0	0.254545
2163	0	0.254545
2164	0	0.254545
2165	0	0.254545
2166	0	0.254545
2167	0	0.254545
2168	0	0.254545
2169	0	0.254545
2170	0	0.254545
2171	0	0.254545
2172	0	0.254545
2173	0	0.254545
2174	0	0.254545
2175	0	0.254545
2176	0	0.254545
2177	0	0.254545
2178	0	0.254545
2179	0	0.254545
2180	0	0.254545
2181	0	0.254545
2182	0	0.254545
2183	0	0.254545
2184	0	0.254545
2185	0	0.254545
2186	0	0.254545
2187	0	0.254545
2188	0	0.254545
2189	0	0.254545
2190	0	0.254545
2191	0	0.254545
2192	0	0.254545
2193	0	0.254545
2194	0	0.254545
2195	0	0.254545
2196	0	0.254545
2197	0	0.254545
2198	0	0.254545
2199	0	0.254545
2200	0	0.254545
2201	0	0.254545
2202	0	0.254545
2203	0	0.254545
2204	0	0.254545
2205	0	0.254545
2206	0	0.254545
2207	0	0.254545
2208	0	0.254545
2209	0	0.254545
2210	0	0.311111
2211	0	0.311111
2212	0	0.311111
2213	0	0.311111
2214	0	0.311111
2215	0	0.311111
2216	0	0.311111
2217	0	0.311111
2218	0	0.311111
2219	0	0.311111
2220	0	0.311111
2221	0	0.311111
2222	0	0.311111
2223	0	0.311111
2224	0	0.311111
2225	0	0.311111
2226	0	0.311111
2227	0	0.311111
2228	0	0.311111
2229	0	0.311111
2230	0	0.311111
2231	0	0.311111
2232	0	0.311111
2233	0	0.311111
2234	0	0.311111
2235	0	0.311111
2236	0	0.311111
2237	0	0.311111
2238	0	0.311111
2239	0	0.311111
2240	0	0.311111
2241	0	0.311111
2242	0	0.311111
2243	0	0.311111
2244	0	0.311111
2245	0	0.311111
2246	0	0.311111
2247	0	0.311111
2248	0	0.311111
2249	0	0.311111
2250	0	0.311111
2251	0	0.311111
2252	0	0.311111
2253	0	0.311111
2254	0	0.311111
2255	0	0.311111
2256	0	0.311111
2257	0	0.311111
2258	0	0.311111
2259	0	0.311111
2260	0	0.311111
2261	0	0.311111
2262	0	0.311111
2263	0	0.311111
2264	0	0.311111
2265	0	0.311111
2266	0	0.311111
2267	0	0.311111
2268	0	0.311111
2269	0	0.311111
2270	0	0.311111
2271	0	0.311111
2272	0	0.311111
2273	0	0.311111
2274	0	0.311111
2275	0	0.311111
2276	0	0.311111
2277	0	0.311111
2278	0	0.311111
2279	0	0.311111
2280	0	0.311111
2281	0	0.311111
2282	0	0.311111
2283	0	0.311111
2284	0	0.311111
2285	0	0.311111
2286	0	0.311111
2287	0	0.311111
2288	0	0.311111
2289	0	0.311111
2290	0	0.311111
2291	0	0.311111
2292	0	0.311111
2293	0	0.311111
2294	0	0.311111
2295	0	0.311111
2296	0	0.311111
2297	0	0.311111
2298	0	0.311111
2299	0	0.311111
2300	0	0.311111
2301	0	0.311111
2302	0	0.311111
2303	0	0.311111
2304	0	0.311111
2305	0	0.311111
2306	0	0.311111
2307	0	0.311111
2308	0	0.311111
2309	0	0.311111
2310	0	0.311111
2311	0	0.311111
2312	0	0.311111
2313	0	0.311111
2314	0	0.311111
2315	0	0.311111
2316	0	0.311111
2317	0	0.311111
2318	0	0.311111
2319	0	0.311111
2320	0	0.311111
2321	0	0.311111
2322	0	0.311111
2323	0	0.311111
2324	0	0.311111
2325	0	0.311111
2326	0	0.311111
2327	0	0.311111
2328	0	0.311111
2329	0	0.311111
2330	0	0.311111
2331	0	0.311111
2332	0	0.311111
2333	0	0.311111
2334	0	0.311111
2335	0	0.311111
2336	0	0.311111
2337	0	0.311111
2338	0	0.311111
2339	0	0.311111
2340	0	0.311111
2341	0	0.311111
2342	0	0.311111
2343	0	0.311111
2344	0	0.311111
2345	0	0.311111
2346	0	0.311111
2347	0	0.311111
2348	0	0.311111
2349	0	0.311111
2350	0	0.311111
2351	0	0.311111
2352	0	0.311111
2353	0	0.311111
2354	0	0.311111
2355	0	0.311111
2356	0	0.311111
2357	0	0.311111
2358	0	0.311111
2359	0	0.311111
2360	0	0.311111
2361	0	0.311111
2362	0	0.311111
2363	0	0.311111
2364	0	0.311111
2365	0	0.311111
2366	0	0.311111
2367	0	0.311111
2368	0	0.311111
2369	0	0.311111
2370	0	0.311111
2371	0	0.311111
2372	0	0.311111
2373	0	0.311111
2374	0	0.311111
2375	0	0.311111
2376	0	0.311111
2377	0	0.311111
2378	0	0.311111
2379	0	0.311111
2380	0	0.311111
2381	0	0.311111
2382	0	0.311111
2383	0	0.311111
2384	0	0.311111
2385	0	0.311111
2386	0	0.311111
2387	0	0.311111
2388	0	0.311111
2389	0	0.311111
2390	0	0.311111
2391	0	0.311111
2392	0	0.311111
2393	0	0.311111
2394	0	0.311111
2395	0	0.311111
2396	0	0.311111
2397	0	0.311111
2398	0	0.311111
2399	0	0.311111
2400	0	0.311111
2401	0	0.311111
2402	0	0.311111
2403	0	0.311111
2404	0	0.311111
2405	0	0.311111
2406	0	0.311111
2407	0	0.311111
2408	0	0.311111
2409	0	0.311111
2410	0	0.311111
2411	0	0.311111
2412	0	0.311111
2413	0	0.311111
2414	0	0.311111
2415	0	0.311111
2416	0	0.311111
2417	0	0.311111
2418	0	0.311111
2419	0	0.311111
2420	0	0.311111
2421	0	0.311111
2422	0	0.311111
2423	0	0.311111
2424	0	0.311111
2425	0	0.311111
2426	0	0.311111
2427	0	0.311111
2428	0	0.311111
2429	0	0.311111
2430	0	0.311111
2431	0	0.311111
2432	0	0.311111
2433	0	0.311111
2434	0	0.311111
2435	0	0.311111
2436	0	0.311111
2437	0	0.311111
2438	0	0.311111
2439	0	0.311111
2440	0	0.311111
2441	0	0.311111
2442	0	0.311111
2443	0	0.311111
2444	0	0.311111
2445	0	0.311111
2446	0	0.311111
2447	0	0.311111
2448	0	0.311111
2449	0	0.311111
2450	0	0.311111
2451	0	0.311111
2452	0	0.311111
2453	0	0.311111
2454	0	0.311111
2455	0	0.311111
2456	0	0.311111
2457	0	0.311111
2458	0	0.311111
2459	0	0.311111
2460	0	0.311111
2461	0	0.311111
2462	0	0.311111
2463	0	0.311111
2464	0	0.311111
2465	0	0.311111
2466	0	0.311111
2467	0	0.311111
2468	0	0.311111
2469	0	0.311111
2470	0	0.311111
2471	0	0.311111
2472	0	0.311111
2473	0	0.311111
2474	0	0.311111
2475	0	0.311111
2476	0	0.311111
2477	0	0.311111
2478	0	0.311111
2479	0	0.311111
2480	0	0.311111
2481	0	0.311111
2482	0	0.311111
2483	0	0.311111
2484	0	0.311111
2485	0	0.311111
2486	0	0.311111
2487	0	0.311111
2488	0	0.311111
2489	0	0.311111
2490	0	0.311111
2491	0	0.311111
2492	0	0.311111
2493	0	0.311111
2494	0	0.311111
2495	0	0.311111
2496	0	0.311111
2497	0	0.311111
2498	0	0.311111
2499	0	0.311111
2500	0	0.311111
2501	0	0.311111
2502	0	0.311111
2503	0	0.311111
2504	0	0.177778
2505	0	0.177778
2506	0	0.177778
2507	0	0.177778
2508	0	0.177778
2509	0	0.177778
2510	0	0.177778
2511	0	0.177778
2512	0	0.177778
2513	0	0.177778
2514	0	0.166667
2515	0	0.133333
2516	0	0.177778
2517	0	0.177778
2518	0	0.194444
2519	0	0.194444
2520	0	0.194444
2521	0	0.194444
2522	0	0.194444
2523	0	0.194444
2524	0	0.194444
2525	0	0.194444
2526	0	0.177778
2527	0	0.177778
2528	0	0.177778
2529	0	0.177778
2530	0	0.177778
2531	0	0.311111
2532	0	0.311111
2533	0	0.311111
2534	0	0.311111
2535	0	0.311111
2536	0	0.311111
2537	0	0.311111
2538	0	0.311111
2539	0	0.311111
2540	0	0.311111
2541	0	0.311111
2542	0	0.311111
2543	0	0.311111
2544	0	0.311111
2545	0	0.311111
2546	0	0.311111
2547	0	0.166667
2548	0	0.166667
2549	0	0.238095
2550	0	0.238095
2551	0	0.238095
2552	0	0.25
2553	0	0.25
2554	0	0.25
2555	0	0.177778
2556	0	0.177778
2557	0	0.177778
2558	0	0.177778
2559	0	0.177778
2560	0	0.177778
2561	0	0.177778
2562	0	0.177778
2563	0	0.177778
2564	0	0.177778
2565	0	0.177778
2566	0	0.177778
2567	0	0.177778
2568	0	0.177778
2569	0	0.177778
2570	0	0.177778
2571	0	0.177778
2572	0	0.177778
2573	0	0.177778
2574	0	0.177778
2575	0	0.177778
2576	0	0.177778
2577	0	0.166667
2578	0	0.177778
2579	0	0.177778
2580	0	0.311111
2581	0	0.311111
2582	0	0.311111
2583	0	0.311111
2584	0	0.311111
2585	0	0.311111
2586	0	0.311111
2587	0	0.311111
2588	0	0.311111
2589	0	0.311111
2590	0	0.311111
2591	0	0.311111
2592	0	0.311111
2593	0	0.311111
2594	0	0.311111
2595	0	0.311111
2596	0	0.311111
2597	0	0.311111
2598	0	0.311111
2599	0	0.311111
2600	0	0.311111
2601	0	0.311111
2602	0	0.311111
2603	0	0.311111
2604	0	0.311111
2605	0	0.311111
2606	0	0.311111
2607	0	0.311111
2608	0	0.311111
2609	0	0.311111
2610	0	0.311111
2611	0	0.311111
2612	0	0.311111
2613	0	0.311111
2614	0	0.311111
2615	0	0.311111
2616	0	0.311111
2617	0	0.311111
2618	0	0.311111
2619	0	0.311111
2620	0	0.311111
2621	0	0.311111
2622	0	0.311111
2623	0	0.311111
2624	0	0.311111
2625	0	0.311111
2626	0	0.311111
2627	0	0.311111
2628	0	0.311111
2629	0	0.311111
2630	0	0.311111
2631	0	0.311111
2632	0	0.311111
2633	0	0.311111
2634	0	0.311111
2635	0	0.311111
2636	0	0.311111
2637	0	0.311111
2638	0	0.311111
2639	0	0.311111
2640	0	0.311111
2641	0	0.311111
2642	0	0.311111
2643	0	0.311111
2644	0	0.311111
2645	0	0.311111
2646	0	0.311111
2647	0	0.311111
2648	0	0.311111
2649	0	0.311111
2650	0	0.311111
2651	0	0.311111
2652	0	0.311111
2653	0	0.311111
2654	0	0.311111
2655	0	0.311111
2656	0	0.311111
2657	0	0.311111
2658	0	0.311111
2659	0	0.311111
2660	0	0.311111
2661	0	0.311111
2662	0	0.311111
2663	0	0.311111
2664	0	0.311111
2665	0	0.311111
2666	0	0.311111
2667	0	0.311111
2668	0	0.311111
2669	0	0.311111
2670	0	0.311111
2671	0	0.311111
2672	0	0.311111
2673	0	0.311111
2674	0	0.311111
2675	0	0.311111
2676	0	0.311111
2677	0	0.311111
2678	0	0.311111
2679	0	0.311111
2680	0	0.311111
2681	0	0.311111
2682	0	0.311111
2683	0	0.311111
2684	0	0.311111
2685	0	0.311111
2686	0	0.311111
2687	0	0.311111
2688	0	0.311111
2689	0	0.311111
2690	0	0.311111
2691	0	0.311111
2692	0	0.311111
2693	0	0.311111
2694	0	0.311111
2695	0	0.311111
2696	0	0.311111
2697	0	0.311111
2698	0	0.277778
2699	0	0.222222
2700	0	0.222222
2701	0	0.311111
2702	0	0.311111
2703	0	0.311111
2704	0	0.311111
2705	0	0.311111
2706	0	0.311111
2707	0	0.311111
2708	0	0.311111
2709	0	0.311111
2710	0	0.311111
2711	0	0.311111
2712	0	0.311111
2713	0	0.311111
2714	0	0.311111
2715	0	0.311111
2716	0	0.311111
2717	0	0.311111
2718	0	0.311111
2719	0	0.311111
2720	0	0.311111
2721	0	0.311111
2722	0	0.311111
2723	0	0.311111
2724	0	0.311111
2725	0	0.311111
2726	0	0.311111
2727	0	0.311111
2728	0	0.311111
2729	0	0.311111
2730	0	0.311111
2731	0	0.311111
2732	0	0.311111
2733	0	0.311111
2734	0	0.311111
2735	0	0.311111
2736	0	0.311111
2737	0	0.311111
2738	0	0.52381
2739	0	0.52381
2740	0	0.52381
2741	0	0.52381
2742	0	0.52381
2743	0	0.52381
2744	0	0.52381
2745	0	0.52381
2746	0	0.52381
2747	0	0.52381
2748	0	0.52381
2749	0	0.52381
2750	0	0.52381
2751	0	0.52381
2752	0	0.52381
2753	0	0.52381
2754	0	0.52381
2755	0	0.52381
2756	0	0.52381
2757	0	0.52381
2758	0	0.52381
2759	0	0.52381
2760	0	0.52381
2761	0	0.52381
2762	0	0.52381
2763	0	0.52381
2764	0	0.52381
2765	0	0.52381
2766	0	0.52381
2767	0	0.52381
2768	0	0.52381
2769	0	0.52381
2770	0	0.52381
2771	0	0.52381
2772	0	0.52381
2773	0	0.52381
2774	0	0.52381
2775	0	0.52381
2776	0	0.52381
2777	0	0.52381
2778	0	0.52381
2779	0	0.52381
2780	0	0.52381
2781	0	0.52381
2782	0	0.52381
2783	0	0.52381
2784	0	0.52381
2785	0	0.52381
2786	0	0.52381
2787	0	0.52381
2788	0	0.52381
2789	0	0.52381
2790	0	0.52381
2791	0	0.52381
2792	0	0.52381
2793	0	0.52381
2794	0	0.52381
2795	0	0.52381
2796	0	0.52381
2797	0	0.52381
2798	0	0.52381
2799	0	0.52381
2800	0	0.52381
2801	0	0.52381
2802	0	0.52381
2803	0	0.52381
2804	0	0.52381
2805	0	0.52381
2806	0	0.52381
2807	0	0.52381
2808	0	0.52381
2809	0	0.52381
2810	0	0.52381
2811	0	0.52381
2812	0	0.52381
2813	0	0.52381
2814	0	0.52381
2815	0	0.52381
2816	0	0.52381
2817	0	0.52381
2818	0	0.52381
2819	0	0.52381
2820	0	0.52381
2821	0	0.52381
2822	0	0.52381
2823	0	0.52381
2824	0	0.52381
2825	0	0.52381
2826	0	0.52381
2827	0	0.52381
2828	0	0.52381
2829	0	0.52381
2830	0	0.52381
2831	0	0.52381
2832	0	0.52381
2833	0	0.52381
2834	0	0.52381
2835	0	0.52381
2836	0	0.52381
2837	0	0.52381
2838	0	0.52381
2839	0	0.52381
2840	0	0.52381
2841	0	0.52381
2842	0	0.52381
2843	0	0.52381
2844	0	0.52381
2845	0	0.52381
2846	0	0.52381
2847	0	0.52381
2848	0	0.52381
2849	0	0.52381
2850	0	0.52381
2851	0	0.52381
2852	0	0.52381
2853	0	0.52381
2854	0	0.52381
2855	0	0.52381
2856	0	0.52381
2857	0	0.52381
2858	0	0.52381
2859	0	0.52381
2860	0	0.52381
2861	0	0.52381
2862	0	0.52381
2863	0	0.52381
2864	0	0.52381
2865	0	0.52381
2866	0	0.52381
2867	0	0.52381
2868	0	0.52381
2869	0	0.52381
2870	0	0.52381
2871	0	0.52381
2872	0	0.52381
2873	0	0.52381
2874	0	0.52381
2875	0	0.52381
2876	0	0.52381
2877	0	0.52381
2878	0	0.52381
2879	0	0.52381
2880	0	0.52381
2881	0	0.52381
2882	0	0.52381
2883	0	0.52381
2884	0	0.52381
2885	0	0.52381
2886	0	0.52381
2887	0	0.52381
2888	0	0.52381
2889	0	0.52381
2890	0	0.52381
2891	0	0.52381
2892	0	0.52381
2893	0	0.52381
2894	0	0.52381
2895	0	0.52381
2896	0	0.52381
2897	0	0.52381
2898	0	0.52381
2899	0	0.52381
2900	0	0.52381
2901	0	0.52381
2902	0	0.52381
2903	0	0.52381
2904	0	0.52381
2905	0	0.52381
2906	0	0.52381
2907	0	0.52381
2908	0	0.52381
2909	0	0.52381
2910	0	0.52381
2911	0	0.52381
2912	0	0.52381
2913	0	0.52381
2914	0	0.52381
2915	0	0.52381
2916	0	0.52381
2917	0	0.52381
2918	0	0.52381
2919	0	0.52381
2920	0	0.4
2921	0	0.52381
2922	0	0.52381
2923	0	0.52381
2924	0	0.52381
2925	0	0.52381
2926	0	0.52381
2927	0	0.52381
2928	0	0.52381
2929	0	0.52381
2930	0	0.52381
2931	0	0.52381
2932	0	0.52381
2933	0	0.52381
2934	0	0.52381
2935	0	0.52381
2936	0	0.52381
2937	0	0.52381
2938	0	0.52381
2939	0	0.52381
2940	0	0.52381
2941	0	0.52381
2942	0	0.52381
2943	0	0.52381
2944	0	0.52381
2945	0	0.52381
2946	0	0.52381
2947	0	0.52381
2948	0	0.52381
2949	0	0.52381
2950	0	0.52381
2951	0	0.52381
2952	0	0.52381
2953	0	0.52381
2954	0	0.52381
2955	0	0.52381
2956	0	0.52381
2957	0	0.52381
2958	0	0.52381
2959	0	0.52381
2960	0	0.52381
2961	0	0.52381
2962	0	0.52381
2963	0	0.52381
2964	0	0.52381
2965	0	0.52381
2966	0	0.52381
2967	0	0.52381
2968	0	0.52381
2969	0	0.52381
2970	0	0.52381
2971	0	0.52381
2972	0	0.52381
2973	0	0.52381
2974	0	0.52381
2975	0	0.52381
2976	0	0.52381
2977	0	0.52381
2978	0	0.52381
2979	0	0.52381
2980	0	0.52381
2981	0	0.52381
2982	0	0.52381
2983	0	0.52381
2984	0	0.52381
2985	0	0.52381
2986	0	0.52381
2987	0	0.52381
2988	0	0.52381
2989	0	0.52381
2990	0	0.52381
2991	0	0.52381
2992	0	0.52381
2993	0	0.52381
2994	0	0.52381
2995	0	0.52381
2996	0	0.52381
2997	0	0.52381
2998	0	0.52381
2999	0	0.52381
3000	0	0.52381
3001	0	0.52381
3002	0	0.52381
3003	0	0.52381
3004	0	0.52381
3005	0	0.52381
3006	0	0.52381
3007	0	0.52381
3008	0	0.52381
3009	0	0.52381
3010	0	0.52381
3011	0	0.52381
3012	0	0.52381
3013	0	0.52381
3014	0	0.52381
3015	0	0.52381
3016	0	0.52381
3017	0	0.52381
3018	0	0.52381
3019	0	0.52381
3020	0	0.52381
3021	0	0.52381
3022	0	0.52381
3023	0	0.52381
3024	0	0.52381
3025	0	0.52381
3026	0	0.52381
3027	0	0.52381
3028	0	0.52381
3029	0	0.52381
3030	0	0.52381
3031	0	0.52381
3032	0	0.52381
3033	0	0.52381
3034	0	0.52381
3035	0	0.52381
3036	0	0.52381
3037	0	0.52381
3038	0	0.52381
3039	0	0.52381
3040	0	0.52381
3041	0	0.52381
3042	0	0.52381
3043	0	0.52381
3044	0	0.52381
3045	0	0.52381
3046	0	0.52381
3047	0	0.52381
3048	0	0.52381
3049	0	0.52381
3050	0	0.52381
3051	0	0.52381
3052	0	0.52381
3053	0	0.52381
3054	0	0.52381
3055	0	0.52381
3056	0	0.52381
3057	0	0.52381
3058	0	0.52381
3059	0	0.52381
3060	0	0.52381
3061	0	0.52381
3062	0	0.52381
3063	0	0.52381
3064	0	0.52381
3065	0	0.52381
3066	0	0.52381
3067	0	0.52381
3068	0	0.52381
3069	0	0.52381
3070	0	0.52381
3071	0	0.52381
3072	0	0.52381
3073	0	0.52381
3074	0	0.52381
3075	0	0.52381
3076	0	0.52381
3077	0	0.52381
3078	0	0.52381
3079	0	0.52381
3080	0	0.52381
3081	0	0.52381
3082	0	0.52381
3083	0	0.52381
3084	0	0.52381
3085	0	0.52381
3086	0	0.52381
3087	0	0.52381
3088	0	0.52381
3089	0	0.52381
3090	0	0.52381
3091	0	0.52381
3092	0	0.52381
3093	0	0.52381
3094	0	0.52381
3095	0	0.52381
3096	0	0.52381
3097	0	0.52381
3098	0	0.52381
3099	0	0.52381
3100	0	0.52381
3101	0	0.52381
3102	0	0.52381
3103	0	0.52381
3104	0	0.52381
3105	0	0.52381
3106	0	0.52381
3107	0	0.52381
3108	0	0.52381
3109	0	0.52381
3110	0	0.52381
3111	0	0.52381
3112	0	0.52381
3113	0	0.52381
3114	0	0.52381
3115	0	0.52381
3116	0	0.52381
3117	0	0.52381
3118	0	0.52381
3119	0	0.52381
3120	0	0.52381
3121	0	0.52381
3122	0	0.52381
3123	0	0.52381
3124	0	0.52381
3125	0	0.52381
3126	0	0.52381
3127	0	0.52381
3128	0	0.52381
3129	0	0.52381
3130	0	0.52381
3131	0	0.52381
3132	0	0.52381
3133	0	0.52381
3134	0	0.52381
3135	0	0.52381
3136	0	0.52381
3137	0	0.52381
3138	0	0.52381
3139	0	0.52381
3140	0	0.52381
3141	0	0.52381
3142	0	0.52381
3143	0	0.52381
3144	0	0.52381
3145	0	0.52381
3146	0	0.52381
3147	0	0.52381
3148	0	0.52381
3149	0	0.52381
3150	0	0.52381
3151	0	0.52381
3152	0	0.52381
3153	0	0.52381
3154	0	0.52381
3155	0	0.52381
3156	0	0.52381
3157	0	0.52381
3158	0	0.52381
3159	0	0.52381
3160	0	0.52381
3161	0	0.52381
3162	0	0.52381
3163	0	0.52381
3164	0	0.52381
3165	0	0.52381
3166	0	0.52381
3167	0	0.52381
3168	0	0.52381
3169	0	0.52381
3170	0	0.52381
3171	0	0.52381
3172	0	0.52381
3173	0	0.52381
3174	0	0.4
3175	0	1
3176	0	1
3177	0	1
3178	0	1
3179	0	1
3180	0	1
3181	0	1
3182	0	1
3183	0	1
3184	0	1
3185	0	1
3186	0	1
3187	0	1
3188	0	1
3189	0	1
3190	0	1
3191	0	1
3192	0	1
3193	0	1
3194	0	1
3195	0	1
3196	0	1
3197	0	1
3198	0	1
3199	0	1
3200	0	1
3201	0	1
3202	0	1
3203	0	1
3204	0	1
3205	0	1
3206	0	1
3207	0	1
3208	0	1
3209	0	1
3210	0	1
3211	0	1
3212	0	1
3213	0	1
3214	0	1
3215	0	1
3216	0	1
3217	0	1
3218	0	1
3219	0	1
3220	0	1
3221	0	1
3222	0	1
3223	0	1
3224	0	1
3225	0	1
3226	0	1
3227	0	1
3228	0	1
3229	0	1
3230	0	1
3231	0	1
3232	0	1
3233	0	1
3234	0	1
3235	0	1
3236	0	1
3237	0	1
3238	0	1
3239	0	1
3240	0	1
3241	0	1
3242	0	1
3243	0	1
3244	0	1
3245	0	1
3246	0	1
3247	0	1
3248	0	1
3249	0	1
3250	0	1
3251	0	1
3252	0	1
3253	0	1
3254	0	1
3255	0	1
3256	0	1
3257	0	1
3258	0	1
3259	0	1
3260	0	1
3261	0	1
3262	0	1
3263	0	1
3264	0	1
3265	0	1
3266	0	1
3267	0	1
3268	0	1
3269	0	1
3270	0	1
3271	0	1
3272	0	1
3273	0	1
3274	0	1
3275	0	1
3276	0	1
3277	0	1
3278	0	1
3279	0	1
3280	0	1
3281	0	1
3282	0	1
3283	0	1
3284	0	1
3285	0	1
3286	0	1
3287	0	1
3288	0	1
3289	0	1
3290	0	1
3291	0	1
3292	0	1
3293	0	1
3294	0	1
3295	0	1
3296	0	1
3297	0	1
3298	0	1
3299	0	1
3300	0	1
3301	0	1
3302	0	1
3303	0	1
3304	0	1
3305	0	1
3306	0	1
3307	0	1
3308	0	1
3309	0	1
3310	0	1
3311	0	1
3312	0	1
3313	0	1
3314	0	1
3315	0	1
3316	0	1
3317	0	1
3318	0	1
3319	0	1
3320	0	1
3321	0	1
3322	0	1
3323	0	1
3324	0	1
3325	0	1
3326	0	1
3327	0	1
3328	0	1
3329	0	1
3330	0	1
3331	0	1
3332	0	1
3333	0	1
3334	0	1
3335	0	1
3336	0	1
3337	0	1
3338	0	1
3339	0	1
3340	0	1
3341	0	1
3342	0	1
3343	0	1
3344	0	1
3345	0	1
3346	0	1
3347	0	1
3348	0	1
3349	0	1
3350	0	1
3351	0	1
3352	0	1
3353	0	1
3354	0	1
3355	0	1
3356	0	1
3357	0	1
3358	0	1
3359	0	1
3360	0	1
3361	0	1
3362	0	1
3363	0	1
3364	1	1
3365	1	1
3366	1	1
3367	1	1
3368	1	1
3369	1	1
3370	1	1
3371	1	1
3372	1	1
3373	1	1
3374	1	1
3375	1	1
3376	1	1
3377	1	1
3378	1	1
3379	1	1
3380	1	1
3381	1	1
3382	1	1
3383	1	1
3384	1	1
3385	1	1
3386	1	1
3387	1	1
3388	1	1
3389	1	1
3390	1	1
3391	1	1
3392	1	1
3393	1	1
3394	1	1
3395	1	1
3396	1	1
