Site	ColumnScore	SumOfPairsScore
1	0	0
2	0	0
3	1	0
4	1	0
5	1	0
6	1	0
7	1	0
8	1	0
9	1	0
10	1	0
11	1	0
12	1	0
13	1	0
14	1	0
15	1	0
16	0	0
17	0	0
18	0	0
19	0	0
20	0	0
21	0	0
22	0	0
23	0	0
24	0	0
25	0	0
26	0	0
27	0	0
28	0	0
29	0	0
30	0	0
31	0	0
32	0	0
33	0	0
34	0	0
35	0	0
36	0	0
37	0	0.333333
38	0	0.333333
39	0	0.333333
40	0	0.333333
41	0	0.333333
42	0	0.333333
43	0	0.333333
44	0	0.333333
45	0	0
46	0	0
47	0	0
48	0	0
49	0	0
50	0	0
51	0	0
52	0	0
53	0	0
54	0	0
55	0	0
56	0	0
57	0	0
58	0	0
59	0	0
60	0	0
61	0	0
62	0	0
63	0	0
64	0	0
65	0	0
66	0	0
67	0	0
68	0	0
69	0	0
70	0	0
71	0	0
72	0	0
73	0	0
74	0	0
75	0	0
76	0	0
77	0	0
78	0	0
79	0	0
80	0	0
81	0	0
82	0	0
83	0	0
84	0	0
85	0	0
86	0	0
87	0	0
88	0	0
89	0	0
90	0	0
91	0	0
92	0	0
93	0	0
94	0	0
95	0	0
96	0	0
97	0	0
98	0	0
99	0	0
100	0	0
101	0	0
102	0	0
103	0	0
104	0	0
105	0	0.166667
106	0	0.1
107	0	0.1
108	0	0.1
109	0	0.133333
110	0	0.133333
111	0	0.133333
112	0	0.2
113	0	0.2
114	0	0.2
115	0	0.2
116	0	0.2
117	0	0.2
118	0	0.4
119	0	0.4
120	0	0.4
121	0	0.4
122	0	0.4
123	0	0.47619
124	0	0.47619
125	0	0.47619
126	0	0.47619
127	0	0.75
128	0	0.75
129	0	0.75
130	0	0.75
131	0	0.798228
132	0	0.798228
133	0	0.798228
134	0	0
135	0	0
136	0	0
137	0	0
138	0	0
139	0	0
140	0	0.333333
141	0	0.5
142	0	0.5
143	0	0.5
144	0	1
145	0	1
146	0	1
147	0	1
148	0	1
149	0	1
150	0	1
151	0	1
152	0	1
153	0	0.984934
154	0	0
155	0	0
156	0	0
157	0	0
158	0	0
159	0	0
160	0	0
161	0	0
162	0	0
163	0	0
164	0	0
165	0	0
166	0	0
167	0	0
168	0	0
169	0	0
170	0	0
171	0	0
172	0	0
173	0	0
174	0	0
175	0	0
176	0	1
177	1	1
178	1	1
179	1	1
180	1	1
181	1	1
182	1	1
183	1	1
184	1	1
185	1	1
186	0	1
187	0	1
188	0	1
189	1	1
190	1	1
191	1	1
192	1	1
193	1	1
194	1	1
195	1	1
196	1	1
197	1	1
198	1	1
199	1	1
200	1	1
201	1	1
202	0	0
203	1	0
204	0	0.992424
205	0	0.985019
206	1	1
207	1	1
208	1	1
209	1	1
210	1	1
211	1	1
212	1	1
213	1	1
214	1	1
215	1	1
216	1	1
217	1	1
218	1	1
219	1	1
220	1	1
221	1	1
222	1	1
223	1	1
224	1	1
225	1	1
226	1	1
227	1	1
228	0	1
229	0	0.596879
230	1	1
231	1	1
232	1	1
233	1	1
234	1	1
235	1	1
236	1	1
237	1	1
238	1	1
239	1	1
240	1	1
241	1	1
242	1	1
243	1	1
244	1	1
245	1	1
246	1	1
247	1	1
248	1	1
249	1	1
250	1	1
251	1	1
252	1	1
253	1	1
254	1	1
255	1	1
256	1	1
257	1	1
258	1	1
259	1	1
260	1	1
261	1	1
262	1	1
263	1	1
264	1	1
265	1	1
266	1	1
267	1	1
268	1	1
269	1	1
270	1	1
271	1	1
272	1	1
273	1	1
274	1	1
275	1	1
276	1	1
277	1	1
278	1	1
279	1	1
280	1	1
281	1	1
282	1	1
283	1	1
284	1	1
285	1	1
286	1	1
287	1	1
288	1	1
289	1	1
290	1	1
291	1	1
292	1	1
293	1	1
294	1	1
295	1	1
296	1	1
297	1	1
298	0	1
299	0	1
300	0	1
301	0	0.6436
302	0	1
303	0	0.614257
304	0	0.695643
305	0	0.984963
306	0	0.977473
307	0	0.977473
308	0	1
309	0	1
310	1	1
311	1	1
312	1	1
313	1	1
314	1	1
315	1	1
316	1	1
317	1	1
318	1	1
319	1	1
320	1	1
321	1	1
322	1	1
323	1	1
324	1	1
325	1	1
326	1	1
327	1	1
328	1	1
329	1	1
330	1	1
331	1	1
332	1	1
333	1	1
334	1	1
335	1	1
336	1	1
337	1	1
338	1	1
339	1	1
340	1	1
341	1	1
342	1	1
343	1	1
344	1	1
345	1	1
346	1	1
347	1	1
348	1	1
349	1	1
350	1	1
351	1	1
352	1	1
353	1	1
354	1	1
355	1	1
356	1	1
357	1	1
358	1	1
359	1	1
360	1	1
361	1	1
362	1	1
363	1	1
364	1	1
365	1	1
366	1	1
367	1	1
368	1	1
369	1	1
370	1	1
371	1	1
372	1	1
373	1	1
374	1	1
375	1	1
376	1	1
377	1	1
378	1	1
379	1	1
380	1	1
381	1	1
382	1	1
383	1	1
384	1	1
385	1	1
386	1	1
387	1	1
388	1	1
389	1	1
390	1	1
391	1	1
392	1	1
393	1	1
394	1	1
395	1	1
396	1	1
397	1	1
398	1	1
399	1	1
400	1	1
401	1	1
402	1	1
403	1	1
404	1	1
405	1	1
406	1	1
407	1	1
408	1	1
409	1	1
410	1	1
411	1	1
412	1	1
413	1	1
414	1	1
415	1	1
416	1	1
417	1	1
418	1	1
419	0	0.985075
420	0	0
421	0	0
422	0	0
423	0	0.777778
424	0	0.622222
425	0	0.622222
426	0	0.919354
427	0	0.912441
428	0	0.912441
429	0	1
430	0	0.626329
431	0	0.926644
432	0	0.926615
433	0	0.927149
434	0	0.622222
435	0	0.8
436	0	1
437	0	1
438	0	1
439	1	1
440	1	1
441	1	1
442	1	1
443	1	1
444	1	1
445	1	1
446	1	1
447	1	1
448	1	1
449	1	1
450	1	1
451	1	1
452	1	1
453	1	1
454	1	1
455	1	1
456	1	1
457	1	1
458	1	1
459	1	1
460	1	1
461	1	1
462	1	1
463	1	1
464	1	1
465	1	1
466	1	1
467	1	1
468	1	1
469	1	1
470	1	1
471	1	1
472	1	1
473	1	1
474	1	1
475	1	1
476	1	1
477	1	1
478	1	1
479	1	1
480	1	1
481	1	1
482	1	1
483	1	1
484	1	1
485	1	1
486	1	1
487	1	1
488	1	1
489	1	1
490	1	1
491	1	1
492	1	1
493	1	1
494	1	1
495	1	1
496	1	1
497	1	1
498	1	1
499	1	1
500	1	1
501	1	1
502	1	1
503	1	1
504	1	1
505	1	1
506	1	1
507	1	1
508	1	1
509	1	1
510	1	1
511	1	1
512	1	1
513	1	1
514	1	1
515	1	1
516	1	1
517	1	1
518	1	1
519	1	1
520	1	1
521	1	1
522	1	1
523	1	1
524	1	1
525	1	1
526	1	1
527	1	1
528	1	1
529	1	1
530	1	1
531	1	1
532	1	1
533	1	1
534	1	1
535	1	1
536	1	1
537	1	1
538	1	1
539	1	1
540	0	1
541	0	0.970485
542	1	1
543	1	1
544	1	1
545	1	1
546	1	1
547	1	1
548	1	1
549	1	1
550	1	1
551	1	1
552	1	1
553	1	1
554	1	1
555	1	1
556	1	1
557	1	1
558	1	1
559	1	1
560	1	1
561	1	1
562	1	1
563	1	1
564	1	1
565	1	1
566	1	1
567	1	1
568	1	1
569	1	1
570	1	1
571	1	1
572	1	1
573	1	1
574	1	1
575	1	1
576	1	1
577	1	1
578	1	1
579	1	1
580	1	1
581	1	1
582	1	1
583	1	1
584	1	1
585	0	1
586	0	0.955243
587	0	1
588	0	0.48102
589	0	0.6094
590	0	0.595841
591	1	1
592	1	1
593	1	1
594	1	1
595	1	1
596	1	1
597	1	1
598	1	1
599	1	1
600	1	1
601	1	1
602	1	1
603	1	1
604	1	1
605	1	1
606	1	1
607	1	1
608	1	1
609	1	1
610	1	1
611	1	1
612	1	1
613	1	1
614	1	1
615	1	1
616	1	1
617	1	1
618	1	1
619	1	1
620	1	1
621	1	1
622	1	1
623	1	1
624	1	1
625	1	1
626	1	1
627	1	1
628	1	1
629	1	1
630	1	1
631	1	1
632	1	1
633	1	1
634	1	1
635	1	1
636	1	1
637	1	1
638	1	1
639	1	1
640	1	1
641	1	1
642	1	1
643	1	1
644	1	1
645	1	1
646	1	1
647	1	1
648	1	1
649	1	1
650	1	1
651	1	1
652	1	1
653	1	1
654	1	1
655	1	1
656	1	1
657	1	1
658	1	1
659	1	1
660	0	1
661	0	0.992537
662	1	1
663	1	1
664	1	1
665	1	1
666	1	1
667	1	1
668	1	1
669	1	1
670	1	1
671	1	1
672	1	1
673	1	1
674	1	1
675	1	1
676	1	1
677	1	1
678	1	1
679	1	1
680	1	1
681	1	1
682	1	1
683	1	1
684	1	1
685	1	1
686	1	1
687	1	1
688	1	1
689	1	1
690	1	1
691	1	1
692	1	1
693	1	1
694	1	1
695	1	1
696	1	1
697	1	1
698	1	1
699	1	1
700	1	1
701	1	1
702	1	1
703	1	1
704	1	1
705	1	1
706	1	1
707	1	1
708	1	1
709	1	1
710	1	1
711	1	1
712	1	1
713	1	1
714	1	1
715	1	1
716	1	1
717	1	1
718	1	1
719	0	0
720	0	0.992537
721	1	1
722	1	1
723	1	1
724	1	1
725	1	1
726	1	1
727	1	1
728	1	1
729	1	1
730	1	1
731	1	1
732	1	1
733	1	1
734	1	1
735	1	1
736	1	1
737	1	1
738	1	1
739	1	1
740	1	1
741	1	1
742	1	1
743	1	1
744	1	1
745	1	1
746	1	1
747	1	1
748	1	1
749	1	1
750	1	1
751	1	1
752	1	1
753	0	1
754	0	0.900609
755	0	0.525379
756	0	0.525379
757	0	1
758	0	1
759	1	1
760	1	1
761	1	1
762	1	1
763	1	1
764	1	1
765	1	1
766	1	1
767	1	1
768	1	1
769	1	1
770	1	1
771	1	1
772	1	0
773	1	0
774	1	1
775	1	1
776	1	1
777	1	1
778	1	1
779	0	0
780	0	0
781	0	0
782	0	0
783	0	0
784	0	0
785	0	0
786	0	0
787	0	0
788	0	0
789	0	0
790	0	0
791	1	0
792	1	0
793	1	0
794	1	0
795	0	0.992424
796	0	1
797	0	1
798	0	1
799	0	1
800	0	1
801	0	1
802	0	1
803	0	1
804	0	1
805	0	1
806	0	1
807	1	1
808	1	1
809	1	1
810	0	1
811	0	0.85744
812	0	0.506458
813	0	0.509419
814	0	0.53557
815	0	0.535628
816	0	0.545497
817	0	0.545497
818	0	0.545497
819	0	0.545497
820	0	0.545497
821	0	0
822	0	0
823	0	0
824	0	0
825	0	0
826	0	0
827	0	0
828	0	0
829	0	0
830	0	0
831	0	0
832	0	0
833	0	0
834	0	0
835	0	0
836	0	0
837	0	0
838	0	0
839	0	0
840	0	0
841	0	0
842	0	0
843	0	0
844	0	0
845	0	0
846	0	0
847	0	0
848	0	0
849	0	0
850	0	0
851	0	0
852	0	0
853	0	0
854	0	0
855	0	0
856	0	0
857	0	0
858	0	0
859	0	0
860	0	0
861	0	0
862	0	0
863	0	0
864	0	0
865	0	0
866	0	0
867	0	0
868	0	0
869	0	0
870	0	0
871	0	0
872	0	0
873	0	0
874	0	0
875	0	0
876	0	0
877	0	0
878	0	0
879	0	0
880	0	0
881	0	0.333333
882	0	0.333333
883	0	0.333333
884	0	0.333333
885	0	0.333333
886	0	0.333333
887	0	0.333333
888	0	0.5
889	0	0.5
890	0	0.5
891	0	0.5
892	0	0.5
893	0	0.5
894	0	0.266667
895	0	0.266667
896	0	0.266667
897	0	0.266667
898	0	0.266667
899	0	0.266667
900	0	0.266667
901	0	0.266667
902	0	0.266667
903	0	0.266667
904	0	0.266667
905	0	0.266667
906	0	0.266667
907	0	0.266667
908	0	0.266667
909	0	0.266667
910	0	0.266667
911	0	0.266667
912	0	0.266667
913	0	0.266667
914	0	0.266667
915	0	0.190476
916	0	0.333333
917	0	0.333333
918	0	0.333333
919	0	0.333333
920	0	0.333333
921	0	0.333333
922	0	0.333333
923	0	0.333333
924	0	0.333333
925	0	0.333333
926	0	0.333333
927	0	0.333333
928	0	0.333333
929	0	0.333333
930	0	0.333333
931	0	0.333333
932	0	0.333333
933	0	0.333333
934	0	0.333333
935	0	0.333333
936	0	0.333333
937	0	0.333333
938	0	0.333333
939	0	0.333333
940	0	0.333333
941	0	0.333333
942	0	0.333333
943	0	0.333333
944	0	0.333333
945	0	0.333333
946	0	0.166667
947	0	0.166667
948	0	0.166667
949	0	0.190476
950	0	0.52381
951	0	0.52381
952	0	0.52381
953	0	0.52381
954	0	0.52381
955	0	0.52381
956	0	0.52381
957	0	0.52381
958	0	0.52381
959	0	0.52381
960	0	0.52381
961	0	0.52381
962	0	0.52381
963	0	0.52381
964	0	0.52381
965	0	0.52381
966	0	0.52381
967	0	0.52381
968	0	0.52381
969	0	0.52381
970	0	1
971	0	1
972	0	1
973	0	1
974	0	1
975	0	1
976	0	1
977	0	1
978	0	1
979	0	1
980	0	1
981	0	1
982	0	1
983	0	1
984	0	1
985	0	0.51177
986	0	0
987	0	0
988	0	0
989	0	0
990	0	0
991	0	0
992	0	0
993	0	0
994	0	0
995	0	0
996	0	0
997	0	0
998	0	0
999	1	0
1000	0	0
1001	0	0
1002	0	0
1003	0	0
1004	0	0
1005	0	0
1006	0	0
1007	0	0
1008	0	0
1009	0	0
1010	0	0
1011	0	0
1012	0	0
1013	0	0
1014	0	0
1015	0	0
1016	0	0
1017	0	0
1018	0	0
1019	0	0
1020	0	0
1021	0	0
1022	0	0
1023	0	0
1024	0	0
1025	0	0
1026	0	0
1027	0	0
1028	0	0
1029	0	0
1030	0	0
1031	0	0
1032	0	0
1033	0	0
1034	0	0
1035	0	0
1036	0	0
1037	0	0
1038	0	0
1039	0	0
1040	0	0
1041	0	0
1042	0	0
1043	0	0
1044	0	0
1045	0	0
1046	0	0
1047	0	0
1048	0	0
1049	0	0
1050	0	0
1051	0	0
1052	0	0
1053	0	0
1054	0	0
1055	0	0
1056	0	0
1057	0	0
1058	0	0
1059	0	0
1060	0	0
1061	0	0
1062	0	0
1063	0	0
1064	0	0
1065	0	0
1066	0	0
1067	0	0
1068	1	0
1069	0	0
1070	0	0
1071	0	0
1072	0	0
1073	0	0
1074	0	0
1075	0	0
1076	0	0
1077	0	0
1078	0	0
1079	0	0
1080	0	0
1081	0	0
1082	0	0
1083	0	0
1084	0	0
1085	0	0
1086	0	0
1087	0	0
1088	0	0
1089	0	0
1090	0	0
1091	0	0
1092	0	0
1093	0	0
1094	0	0
1095	0	0
1096	0	0
1097	0	0
1098	0	0
1099	0	0
1100	0	0
1101	0	0
1102	0	0
1103	0	0
1104	0	0
1105	0	0
1106	0	0
1107	0	0
1108	0	0.977778
1109	0	0.939917
1110	0	0.82794
1111	0	0.82228
1112	0	0.82228
1113	0	0.82228
1114	0	0.81605
1115	0	0.81605
1116	0	1
1117	0	1
1118	0	1
1119	0	1
1120	0	1
1121	0	1
1122	0	1
1123	0	1
1124	0	1
1125	0	1
1126	0	1
1127	0	1
1128	0	1
1129	0	1
1130	1	1
1131	1	1
1132	0	1
1133	0	1
1134	0	1
1135	0	1
1136	0	1
1137	0	1
1138	0	1
1139	0	1
1140	0	0.75
1141	0	0.75
1142	0	0.75
1143	0	0.75
1144	0	0.808551
1145	0	0.808551
1146	0	0.808551
1147	0	0.75
1148	0	0.75
1149	0	0.75
1150	0	0.75
1151	0	0.75
1152	0	0.75
1153	0	0.75
1154	0	0.75
1155	0	0.75
1156	0	0.75
1157	0	0.75
1158	0	0.75
1159	0	0.75
1160	0	0.75
1161	0	0.75
1162	0	0.75
1163	0	0.75
1164	0	0.75
1165	0	0.75
1166	0	0.75
1167	0	0.75
1168	0	0.75
1169	0	0.75
1170	0	0.75
1171	0	0.75
1172	0	0.75
1173	0	0.75
1174	0	0.75
1175	0	0.75
1176	0	0.75
1177	0	0.75
1178	0	0.75
1179	0	0.75
1180	0	0.75
1181	0	0.75
1182	0	0.75
1183	0	0.75
1184	0	0.75
1185	0	0.75
1186	0	0.75
1187	0	0.75
1188	0	0.75
1189	0	0.75
1190	0	0.75
1191	0	0.75
1192	0	0.75
1193	0	0.75
1194	0	0.75
1195	0	0.75
1196	0	0.75
1197	0	0.75
1198	0	0.75
1199	0	0.75
1200	0	0.75
1201	0	0.75
1202	0	0.75
1203	0	0.75
1204	0	0.75
1205	0	0.75
1206	0	0.75
1207	0	0.75
1208	0	0.75
1209	0	0.75
1210	0	0.75
1211	0	0.75
1212	0	0.75
1213	0	0.75
1214	0	0.75
1215	0	0.75
1216	0	0.75
1217	0	0.75
1218	0	0.75
1219	0	0.75
1220	0	0.75
1221	0	0.75
1222	0	0.75
1223	0	0.75
1224	0	0.75
1225	0	0.75
1226	0	0.75
1227	0	0.75
1228	0	0.75
1229	0	0.75
1230	0	0.75
1231	0	0.75
1232	0	0.75
1233	0	0.75
1234	0	0.75
1235	0	0.75
1236	0	0.75
1237	0	0.75
1238	0	0.75
1239	0	0.75
1240	0	0.583333
1241	0	0.583333
1242	0	0.78968
1243	0	0.777872
1244	0	0.784489
1245	0	0.784489
1246	0	0
1247	0	0
1248	0	0
1249	0	0
1250	0	0
1251	0	0
1252	0	0
1253	0	0
1254	0	0
1255	0	0
1256	0	0
1257	0	0
1258	0	0
1259	0	0
1260	0	0
1261	0	0
1262	0	0
1263	0	0
1264	0	0
1265	0	0
1266	0	0
1267	0	0
1268	0	0
1269	0	0
1270	0	0
1271	0	0
1272	0	0
1273	0	0
1274	0	0
1275	0	0
1276	0	0
1277	0	0
1278	0	0
1279	0	0
1280	0	0
1281	0	0
1282	0	0
1283	0	0
1284	0	0
1285	0	0
1286	0	0
1287	0	0
1288	0	0
1289	0	0
1290	0	0
1291	0	0
1292	0	0
1293	0	0
1294	0	0
1295	0	0.796569
1296	0	0.796569
1297	0	0.810063
1298	0	0
1299	0	0
1300	0	0
1301	0	0
1302	0	0
1303	0	0
1304	0	0
1305	0	0
1306	0	0
1307	0	0
1308	0	0
1309	0	0
1310	0	0
1311	0	0
1312	0	0
1313	0	0
1314	0	0
1315	0	0
1316	0	0
1317	0	0
1318	0	0
1319	0	0
1320	0	0
1321	0	0
1322	0	0
1323	0	0
1324	0	0
1325	0	0
1326	0	0
1327	0	0
1328	0	0
1329	0	0
1330	0	0
1331	0	0
1332	0	0
1333	0	0
1334	0	0
1335	0	0
1336	0	0
1337	0	0
1338	0	0
1339	0	0
1340	0	0
1341	0	0
1342	0	0
1343	0	0
1344	0	0
1345	0	0
1346	0	0
1347	0	0
1348	0	0
1349	0	0
1350	0	0
1351	0	0
1352	0	0
1353	0	0
1354	0	0
1355	0	0
1356	0	0
1357	0	0
1358	0	0
1359	0	0
1360	0	0
1361	0	0
1362	0	0
1363	0	0
1364	0	0
1365	0	0
1366	0	0
1367	0	0
1368	0	0
1369	0	0
1370	0	0
1371	0	0
1372	0	0
1373	0	0
1374	0	0
1375	0	0
1376	0	0
1377	0	0
1378	0	0
1379	0	0
1380	0	0
1381	0	0
1382	0	0
1383	0	0
1384	0	0
1385	0	0
1386	0	0
1387	0	0
1388	0	0
1389	0	0
1390	0	0
1391	0	0
1392	0	0
1393	0	0
1394	0	0
1395	0	0
1396	0	0
1397	0	0
1398	0	0
1399	0	0
1400	0	0
1401	0	0
1402	0	0
1403	0	0
1404	0	0
1405	0	0
1406	0	0
1407	0	0
1408	0	0
1409	0	0
1410	0	0
1411	0	0
1412	0	0
1413	0	0
1414	0	0
1415	0	0
1416	0	0
1417	0	0
1418	0	0
1419	0	0
1420	0	0
1421	0	0
1422	0	0
1423	0	0
1424	0	0
1425	0	0
1426	0	0
1427	0	0
1428	0	0
1429	0	0
1430	0	0
1431	0	0
1432	0	0
1433	0	0
1434	0	0
1435	0	0
1436	0	0
1437	0	0
1438	0	0
1439	0	0
1440	0	0
1441	0	0
1442	0	0
1443	0	0
1444	0	0
1445	0	0
1446	0	0
1447	0	0
1448	0	0
1449	0	0
1450	0	0
1451	0	0
1452	0	0
1453	0	0
1454	0	0
1455	0	0
1456	0	0
1457	0	0
1458	0	0
1459	0	0
1460	0	0
1461	0	0
1462	0	0
1463	0	0
1464	0	0
1465	0	0
1466	0	0
1467	0	0
1468	0	0
1469	0	0
1470	0	0
1471	0	0
1472	0	0
1473	0	0
1474	0	0
1475	0	0
1476	0	0
1477	0	0
1478	0	0
1479	0	0
1480	0	0
1481	0	0
1482	0	0
1483	0	0
1484	0	0
1485	0	0
1486	0	0
1487	0	0
1488	0	0
1489	0	0
1490	0	0
1491	0	0
1492	0	0
1493	0	0
1494	0	0
1495	0	0
1496	0	0
1497	0	0
1498	0	0
1499	0	0
1500	0	0
1501	0	0
1502	0	0
1503	0	0
1504	0	0
1505	0	0
1506	0	0
1507	0	0
1508	0	0
1509	0	0
1510	0	0
1511	0	0
1512	0	0
1513	0	0
1514	0	0
1515	0	0
1516	0	0
1517	0	0
1518	0	0
1519	0	0
1520	0	0
1521	0	0
1522	0	0
1523	0	0
1524	0	0
1525	0	0
1526	0	0
1527	0	0
1528	0	0
1529	0	0
1530	0	0
1531	0	0
1532	0	0
1533	0	0
1534	0	0
1535	0	0
1536	0	0
1537	0	0
1538	0	0
1539	0	0
1540	0	0
1541	0	0
1542	0	0
1543	0	0
1544	0	0
1545	0	0
1546	0	0
1547	0	0
1548	0	0
1549	0	0
1550	0	0
1551	0	0
1552	0	0
1553	0	0
1554	0	0
1555	0	0
1556	0	0
1557	0	0
1558	0	0
1559	0	0
1560	0	0
1561	0	0
1562	0	0
1563	0	0
1564	0	0
1565	0	0
1566	0	0
1567	0	0
1568	0	0
1569	0	0
1570	0	0
1571	0	0
1572	0	0
1573	0	0
1574	0	0
1575	0	0
1576	0	0
1577	0	0
1578	0	0
1579	0	0
1580	0	0
1581	0	0
1582	0	0
1583	0	0
1584	0	0.725162
1585	0	0.699736
1586	0	0.676516
1587	0	0
1588	0	0
1589	0	0
1590	0	0
1591	0	0
1592	0	0
1593	0	0
1594	0	0
1595	0	0
1596	0	0
1597	0	0
1598	0	0
1599	0	0
1600	0	0
1601	0	0
1602	0	0
1603	0	0
1604	0	0
1605	0	0
1606	0	0
1607	0	0
1608	0	0
1609	0	0
1610	0	0
1611	0	0
1612	0	0
1613	0	0
1614	0	0
1615	0	0
1616	0	0
1617	0	0
1618	0	0
1619	0	0
1620	1	0
1621	1	0
1622	1	0
1623	1	0
1624	1	0
1625	1	0
1626	1	0
1627	1	0
1628	1	0
1629	0	0
1630	0	0
1631	0	0
1632	0	0
1633	0	0
1634	0	0
1635	0	0
1636	0	0
1637	0	0
1638	0	0
1639	0	0
1640	0	0
1641	0	0
1642	0	0
1643	0	0
1644	0	0
1645	0	0
1646	0	0
1647	0	0
1648	0	0
1649	0	0
1650	0	0
1651	0	0
1652	0	0
1653	0	0
1654	0	0
1655	0	0
1656	0	0
1657	0	0
1658	0	0
1659	0	0
1660	0	0
1661	0	0
1662	0	0
1663	0	0
1664	0	0
1665	0	0
1666	0	0
1667	0	0
1668	0	0
1669	0	0
1670	0	0
1671	0	0
1672	0	0
1673	0	0.047619
1674	0	0.047619
1675	0	0.0357143
1676	0	0.0277778
1677	0	0.0277778
1678	0	0.0277778
1679	0	0.0277778
1680	0	0.261905
1681	0	0.61163
1682	0	0.352064
1683	0	0.239345
1684	0	0.187118
1685	0	0.185476
1686	0	0
1687	0	0.333333
1688	0	0.761382
1689	0	0.142857
1690	0	0.142857
1691	0	0.142857
1692	0	0.2
1693	0	0.2
1694	0	0.2
1695	0	0.2
1696	0	0.2
1697	0	0.2
1698	0	0.2
1699	0	0.2
1700	0	0.2
1701	0	0.307692
1702	0	0.307692
1703	0	0.307692
1704	0	0.307692
1705	0	0.307692
1706	0	0.307692
1707	0	0.307692
1708	0	0.307692
1709	0	0.257143
1710	0	0.257143
1711	0	0.257143
1712	0	0.27451
1713	0	0.257895
1714	0	0.300395
1715	0	0.315217
1716	0	0.315217
1717	0	0.315217
1718	0	0.315217
1719	0	0.358696
1720	0	0.358696
1721	0	0.358696
1722	0	0.358696
1723	0	0.358696
1724	0	0.358696
1725	0	0.358696
1726	0	0.358696
1727	0	0.358696
1728	0	0.358696
1729	0	0.358696
1730	0	0.358696
1731	0	0.358696
1732	0	0.358696
1733	0	0.358696
1734	0	0.358696
1735	0	0.358696
1736	0	0.358696
1737	0	0.358696
1738	0	0.358696
1739	0	0.358696
1740	0	0.33
1741	0	0.29
1742	0	0.29
1743	0	0.29
1744	0	0.29
1745	0	0.29
1746	0	0.256667
1747	0	0.21
1748	0	0.24
1749	0	0.24
1750	0	0.24
1751	0	0.33
1752	0	0.33
1753	0	0.373333
1754	0	0.373333
1755	0	0.373333
1756	0	0.373333
1757	0	0.373333
1758	0	0.373333
1759	0	0.373333
1760	0	0.373333
1761	0	0.373333
1762	0	0.373333
1763	0	0.373333
1764	0	0.373333
1765	0	0.373333
1766	0	0.373333
1767	0	0.373333
1768	0	0.373333
1769	0	0.373333
1770	0	0.373333
1771	0	0.373333
1772	0	0.373333
1773	0	0.373333
1774	0	0.373333
1775	0	0.373333
1776	0	0.373333
1777	0	0.373333
1778	0	0.373333
1779	0	0.373333
1780	0	0.373333
1781	0	0.373333
1782	0	0.373333
1783	0	0.373333
1784	0	0.373333
1785	0	0.373333
1786	0	0.373333
1787	0	0.373333
1788	0	0.373333
1789	0	0.373333
1790	0	0.373333
1791	0	0.373333
1792	0	0.373333
1793	0	0.373333
1794	0	0.373333
1795	0	0.373333
1796	0	0.373333
1797	0	0.373333
1798	0	0.373333
1799	0	0.373333
1800	0	0.373333
1801	0	0.373333
1802	0	0.373333
1803	0	0.373333
1804	0	0.373333
1805	0	0.373333
1806	0	0.373333
1807	0	0.373333
1808	0	0.373333
1809	0	0.373333
1810	0	0.373333
1811	0	0.373333
1812	0	0.373333
1813	0	0.373333
1814	0	0.293333
1815	0	0.293333
1816	0	0.293333
1817	0	0.293333
1818	0	0.263333
1819	0	0.263333
1820	0	0.263333
1821	0	0.263333
1822	0	0.263333
1823	0	0.282051
1824	0	0.343874
1825	0	0.358696
1826	0	0.373333
1827	0	0.373333
1828	0	0.373333
1829	0	0.373333
1830	0	0.373333
1831	0	0.373333
1832	0	0.373333
1833	0	0.373333
1834	0	0.373333
1835	0	0.373333
1836	0	0.373333
1837	0	0.373333
1838	0	0.373333
1839	0	0.373333
1840	0	0.373333
1841	0	0.42
1842	0	0.42
1843	0	0.42
1844	0	0.42
1845	0	0.42
1846	0	0.42
1847	0	0.42
1848	0	0.42
1849	0	0.42
1850	0	0.42
1851	0	0.42
1852	0	0.42
1853	0	0.42
1854	0	0.42
1855	0	0.42
1856	0	0.42
1857	0	0.42
1858	0	0.42
1859	0	0.42
1860	0	0.42
1861	0	0.42
1862	0	0.42
1863	0	0.42
1864	0	0.42
1865	0	0.42
1866	0	0.42
1867	0	0.42
1868	0	0.42
1869	0	0.42
1870	0	0.42
1871	0	0.42
1872	0	0.42
1873	0	0.42
1874	0	0.42
1875	0	0.42
1876	0	0.42
1877	0	0.42
1878	0	0.42
1879	0	0.42
1880	0	0.42
1881	0	0.42
1882	0	0.42
1883	0	0.42
1884	0	0.42
1885	0	0.42
1886	0	0.42
1887	0	0.42
1888	0	0.42
1889	0	0.42
1890	0	0.42
1891	0	0.42
1892	0	0.42
1893	0	0.42
1894	0	0.42
1895	0	0.42
1896	0	0.42
1897	0	0.42
1898	0	0.42
1899	0	0.42
1900	0	0.42
1901	0	0.42
1902	0	0.42
1903	0	0.42
1904	0	0.42
1905	0	0.42
1906	0	0.42
1907	0	0.42
1908	0	0.42
1909	0	0.42
1910	0	0.42
1911	0	0.42
1912	0	0.42
1913	0	0.42
1914	0	0.42
1915	0	0.42
1916	0	0.42
1917	0	0.42
1918	0	0.42
1919	0	0.42
1920	0	0.42
1921	0	0.42
1922	0	0.42
1923	0	0.42
1924	0	0.42
1925	0	0.42
1926	0	0.42
1927	0	0.42
1928	0	0.42
1929	0	0.42
1930	0	0.42
1931	0	0.42
1932	0	0.42
1933	0	0.42
1934	0	0.42
1935	0	0.42
1936	0	0.42
1937	0	0.42
1938	0	0.42
1939	0	0.42
1940	0	0.42
1941	0	0.42
1942	0	0.42
1943	0	0.42
1944	0	0.42
1945	0	0.42
1946	0	0.42
1947	0	0.42
1948	0	0.42
1949	0	0.42
1950	0	0.42
1951	0	0.42
1952	0	0.42
1953	0	0.42
1954	0	0.42
1955	0	0.42
1956	0	0.42
1957	0	0.42
1958	0	0.42
1959	0	0.42
1960	0	0.42
1961	0	0.42
1962	0	0.42
1963	0	0.42
1964	0	0.42
1965	0	0.42
1966	0	0.454545
1967	0	0.454545
1968	0	0.42
1969	0	0.42
1970	0	0.42
1971	0	0.42
1972	0	0.42
1973	0	0.42
1974	0	0.42
1975	0	0.42
1976	0	0.42
1977	0	0.42
1978	0	0.42
1979	0	0.42
1980	0	0.42
1981	0	0.42
1982	0	0.42
1983	0	0.42
1984	0	0.42
1985	0	0.42
1986	0	0.42
1987	0	0.42
1988	0	0.42
1989	0	0.42
1990	0	0.42
1991	0	0.42
1992	0	0.42
1993	0	0.42
1994	0	0.42
1995	0	0.42
1996	0	0.42
1997	0	0.42
1998	0	0.42
1999	0	0.42
2000	0	0.42
2001	0	0.42
2002	0	0.42
2003	0	0.42
2004	0	0.42
2005	0	0.42
2006	0	0.42
2007	0	0.42
2008	0	0.42
2009	0	0.42
2010	0	0.42
2011	0	0.256667
2012	0	0.329004
2013	0	0.347368
2014	0	0.314286
2015	0	0.166667
2016	0	0.190476
2017	0	0.333333
2018	0	0.391304
2019	0	0.42
2020	0	0.42
2021	0	0.42
2022	0	0.42
2023	0	0.42
2024	0	0.42
2025	0	0.42
2026	0	0.42
2027	0	0.42
2028	0	0.42
2029	0	0.42
2030	0	0.42
2031	0	0.42
2032	0	0.42
2033	0	0.42
2034	0	0.42
2035	0	0.42
2036	0	0.42
2037	0	0.42
2038	0	0.42
2039	0	0.42
2040	0	0.42
2041	0	0.42
2042	0	0.42
2043	0	0.42
2044	0	0.42
2045	0	0.42
2046	0	0.42
2047	0	0.42
2048	0	0.42
2049	0	0.42
2050	0	0.42
2051	0	0.42
2052	0	0.42
2053	0	0.42
2054	0	0.42
2055	0	0.42
2056	0	0.42
2057	0	0.42
2058	0	0.42
2059	0	0.42
2060	0	0.42
2061	0	0.42
2062	0	0.42
2063	0	0.42
2064	0	0.42
2065	0	0.42
2066	0	0.42
2067	0	0.42
2068	0	0.42
2069	0	0.42
2070	0	0.42
2071	0	0.42
2072	0	0.42
2073	0	0.42
2074	0	0.42
2075	0	0.42
2076	0	0.42
2077	0	0.42
2078	0	0.42
2079	0	0.42
2080	0	0.42
2081	0	0.42
2082	0	0.42
2083	0	0.42
2084	0	0.42
2085	0	0.42
2086	0	0.42
2087	0	0.42
2088	0	0.42
2089	0	0.42
2090	0	0.42
2091	0	0.42
2092	0	0.42
2093	0	0.42
2094	0	0.42
2095	0	0.42
2096	0	0.42
2097	0	0.42
2098	0	0.42
2099	0	0.42
2100	0	0.42
2101	0	0.42
2102	0	0.42
2103	0	0.42
2104	0	0.42
2105	0	0.42
2106	0	0.42
2107	0	0.42
2108	0	0.42
2109	0	0.42
2110	0	0.42
2111	0	0.42
2112	0	0.373333
2113	0	0.373333
2114	0	0.373333
2115	0	0.373333
2116	0	0.373333
2117	0	0.373333
2118	0	0.373333
2119	0	0.373333
2120	0	0.373333
2121	0	0.373333
2122	0	0.373333
2123	0	0.373333
2124	0	0.373333
2125	0	0.373333
2126	0	0.373333
2127	0	0.373333
2128	0	0.373333
2129	0	0.373333
2130	0	0.373333
2131	0	0.373333
2132	0	0.373333
2133	0	0.373333
2134	0	0.373333
2135	0	0.373333
2136	0	0.373333
2137	0	0.373333
2138	0	0.373333
2139	0	0.373333
2140	0	0.373333
2141	0	0.373333
2142	0	0.373333
2143	0	0.373333
2144	0	0.373333
2145	0	0.373333
2146	0	0.373333
2147	0	0.373333
2148	0	0.373333
2149	0	0.373333
2150	0	0.373333
2151	0	0.373333
2152	0	0.373333
2153	0	0.373333
2154	0	0.373333
2155	0	0.373333
2156	0	0.373333
2157	0	0.373333
2158	0	0.373333
2159	0	0.373333
2160	0	0.373333
2161	0	0.373333
2162	0	0.373333
2163	0	0.373333
2164	0	0.373333
2165	0	0.373333
2166	0	0.42
2167	0	0.42
2168	0	0.42
2169	0	0.42
2170	0	0.42
2171	0	0.42
2172	0	0.42
2173	0	0.42
2174	0	0.3
2175	0	0.295238
2176	0	0.203333
2177	0	0.153333
2178	0	0.233333
2179	0	0.233333
2180	0	0.233333
2181	0	0.272727
2182	0	0.272727
2183	0	0.272727
2184	0	0.233333
2185	0	0.233333
2186	0	0.233333
2187	0	0.233333
2188	0	0.226667
2189	0	0.226667
2190	0	0.293333
2191	0	0.293333
2192	0	0.293333
2193	0	0.293333
2194	0	0.293333
2195	0	0.293333
2196	0	0.293333
2197	0	0.293333
2198	0	0.293333
2199	0	0.293333
2200	0	0.293333
2201	0	0.32381
2202	0	0.324111
2203	0	0.324111
2204	0	0.297101
2205	0	0.297101
2206	0	0.297101
2207	0	0.324111
2208	0	0.324111
2209	0	0.324111
2210	0	0.324111
2211	0	0.324111
2212	0	0.350649
2213	0	0.367589
2214	0	0.324111
2215	0	0.418972
2216	0	0.418972
2217	0	0.418972
2218	0	0.418972
2219	0	0.418972
2220	0	0.418972
2221	0	0.387352
2222	0	0.395257
2223	0	0.395257
2224	0	0.395257
2225	0	0.395257
2226	0	0.395257
2227	0	0.395257
2228	0	0.395257
2229	0	0.395257
2230	0	0.395257
2231	0	0.395257
2232	0	0.395257
2233	0	0.395257
2234	0	0.395257
2235	0	0.395257
2236	0	0.395257
2237	0	0.452381
2238	0	0.442688
2239	0	0.442688
2240	0	0.442688
2241	0	0.442688
2242	0	0.442688
2243	0	0.442688
2244	0	0.442688
2245	0	0.442688
2246	0	0.442688
2247	0	0.442688
2248	0	0.442688
2249	0	0.442688
2250	0	0.442688
2251	0	0.442688
2252	0	0.442688
2253	0	0.442688
2254	0	0.442688
2255	0	0.442688
2256	0	0.442688
2257	0	0.442688
2258	0	0.442688
2259	0	0.442688
2260	0	0.442688
2261	0	0.442688
2262	0	0.442688
2263	0	0.442688
2264	0	0.442688
2265	0	0.442688
2266	0	0.442688
2267	0	0.442688
2268	0	0.442688
2269	0	0.442688
2270	0	0.758333
2271	0	0.758333
2272	0	0.758333
2273	0	0.758333
2274	0	0.758333
2275	0	0.758333
2276	0	0.758333
2277	0	0.758333
2278	0	0.758333
2279	0	0.758333
2280	0	0.758333
2281	0	0.742857
2282	0	0.742857
2283	0	0.742857
2284	0	0.742857
2285	0	0.742857
2286	0	0.361905
2287	0	0.361905
2288	0	0.361905
2289	0	0.361905
2290	0	0.361905
2291	0	0.361905
2292	0	0.361905
2293	0	0.295238
2294	0	0.295238
2295	0	0.238095
2296	0	0.238095
2297	0	0.238095
2298	0	0.238095
2299	0	0.238095
2300	0	0.238095
2301	0	0.274725
2302	0	0.274725
2303	0	0.274725
2304	0	0.21978
2305	0	0.21978
2306	0	0.277778
2307	0	0.277778
2308	0	0.357143
2309	0	0.357143
2310	0	0.357143
2311	0	0
2312	0	0
2313	0	0
2314	0	0
2315	0	0
2316	1	0
2317	1	0
2318	1	0
2319	1	0
2320	0	0
2321	0	0
2322	0	0
2323	0	0
2324	0	0
2325	0	0
2326	0	0
2327	0	0
2328	0	0
