Site	ColumnScore	SumOfPairsScore
1	1	0
2	1	0
3	1	0
4	1	0
5	1	0
6	1	0
7	1	0
8	1	0
9	1	0
10	1	0
11	1	0
12	1	0
13	1	0
14	1	0
15	1	0
16	1	0
17	1	0
18	1	0
19	1	0
20	1	0
21	1	0
22	1	0
23	1	0
24	1	0
25	1	0
26	1	0
27	1	0
28	1	0
29	1	0
30	1	0
31	1	0
32	1	0
33	1	0
34	1	0
35	1	0
36	1	0
37	1	0
38	1	0
39	1	0
40	1	0
41	1	0
42	1	0
43	1	0
44	1	0
45	1	0
46	1	0
47	1	0
48	1	0
49	1	0
50	1	0
51	1	0
52	1	0
53	1	0
54	1	0
55	1	0
56	1	0
57	1	0
58	1	0
59	1	0
60	1	0
61	1	0
62	1	0
63	1	0
64	1	0
65	1	0
66	1	0
67	1	0
68	1	0
69	1	0
70	1	0
71	1	0
72	1	0
73	1	0
74	1	0
75	1	0
76	1	0
77	1	0
78	1	0
79	1	0
80	1	0
81	1	0
82	1	0
83	1	0
84	1	0
85	1	0
86	1	0
87	1	0
88	1	0
89	1	0
90	1	0
91	1	0
92	1	0
93	1	0
94	1	0
95	1	0
96	1	0
97	1	0
98	1	0
99	1	0
100	1	0
101	1	0
102	1	0
103	1	0
104	1	0
105	1	0
106	1	0
107	1	0
108	1	0
109	1	0
110	1	0
111	1	0
112	1	0
113	1	0
114	1	0
115	1	0
116	1	0
117	1	0
118	1	0
119	1	0
120	1	0
121	1	0
122	1	0
123	1	0
124	1	0
125	1	0
126	1	0
127	1	0
128	1	0
129	1	0
130	1	0
131	1	0
132	1	0
133	1	0
134	1	0
135	1	0
136	1	0
137	1	0
138	1	0
139	1	0
140	1	0
141	1	0
142	1	0
143	1	0
144	1	0
145	1	0
146	1	0
147	1	0
148	1	0
149	1	0
150	1	0
151	1	0
152	1	0
153	1	0
154	1	0
155	1	0
156	1	0
157	1	0
158	1	0
159	1	0
160	1	0
161	1	0
162	1	0
163	1	0
164	1	0
165	1	0
166	1	0
167	1	0
168	1	0
169	1	0
170	1	0
171	1	0
172	1	0
173	1	0
174	1	0
175	1	0
176	1	0
177	1	0
178	1	0
179	1	0
180	1	0
181	1	0
182	1	0
183	1	0
184	1	0
185	1	0
186	1	0
187	1	0
188	1	0
189	1	0
190	1	0
191	1	0
192	1	0
193	1	0
194	1	0
195	1	0
196	1	0
197	1	0
198	1	0
199	1	0
200	1	0
201	1	0
202	1	0
203	1	0
204	1	0
205	1	0
206	1	0
207	1	0
208	1	0
209	1	0
210	1	0
211	1	0
212	0	0
213	0	0
214	0	0
215	0	0
216	0	0
217	0	0
218	0	0
219	0	0
220	0	0
221	0	0.333333
222	0	0.166667
223	0	0.133333
224	0	0.222222
225	0	0.179487
226	0	0.179487
227	0	0.309942
228	0	0.309942
229	0	0.289474
230	0	0.298701
231	0	0.298701
232	0	0.466667
233	0	0.802331
234	1	1
235	1	1
236	1	1
237	1	1
238	1	1
239	1	1
240	1	1
241	1	1
242	1	1
243	1	1
244	1	1
245	1	1
246	1	1
247	1	1
248	1	1
249	1	1
250	1	1
251	1	1
252	1	1
253	1	1
254	1	1
255	1	1
256	1	1
257	1	1
258	1	1
259	1	1
260	1	1
261	1	1
262	1	1
263	0	0
264	0	0
265	0	0
266	0	0
267	0	0
268	0	0
269	0	0
270	0	0
271	0	0
272	0	0
273	0	0
274	0	0
275	0	0
276	0	0
277	0	0
278	0	0
279	0	0
280	0	0
281	0	0
282	0	0
283	0	0.98482
284	0	0.98482
285	0	0.98482
286	0	0.98482
287	0	0.977473
288	0	0.977473
289	0	0.977473
290	0	0.970011
291	0	0.977388
292	0	0.977388
293	0	0.977388
294	0	0.977388
295	0	0.977129
296	1	0
297	1	0
298	1	0
299	1	0
300	1	0
301	1	0
302	1	0
303	1	0
304	1	0
305	0	0
306	0	1
307	0	1
308	0	1
309	0	1
310	0	1
311	0	1
312	0	1
313	0	1
314	0	1
315	0	1
316	0	1
317	0	1
318	0	1
319	0	1
320	0	1
321	0	1
322	0	0.599895
323	0	1
324	0	1
325	0	0.333333
326	0	0.333333
327	0	0.333333
328	0	0.333333
329	0	0.333333
330	0	0.333333
331	0	0.333333
332	0	0.333333
333	0	0.333333
334	0	0.333333
335	0	0.333333
336	0	0.333333
337	0	0.333333
338	0	0.333333
339	0	0.333333
340	0	0.977696
341	0	0.552434
342	0	1
343	0	0.618935
344	0	0.900256
345	0	0.900256
346	0	0.900256
347	0	0.900256
348	0	0.900256
349	0	0.900256
350	0	1
351	1	1
352	1	1
353	1	1
354	1	1
355	1	1
356	1	1
357	1	1
358	1	1
359	1	1
360	1	1
361	1	1
362	1	1
363	1	1
364	1	1
365	1	1
366	1	1
367	1	1
368	1	1
369	1	1
370	1	1
371	1	1
372	1	1
373	0	0.501844
374	0	0.502199
375	0	0
376	0	0
377	0	0
378	0	0
379	0	0
380	0	0
381	0	0
382	0	0
383	0	0
384	0	0
385	0	0
386	1	1
387	1	1
388	1	1
389	1	1
390	1	1
391	1	1
392	0	1
393	0	1
394	1	1
395	1	1
396	1	1
397	1	1
398	1	1
399	1	1
400	1	1
401	1	1
402	1	1
403	1	1
404	1	1
405	0	0.992481
406	0	0.992481
407	1	0
408	1	0
409	1	0
410	1	0
411	1	0
412	1	0
413	1	0
414	1	0
415	1	0
416	1	0
417	1	0
418	1	0
419	1	0
420	1	0
421	1	0
422	0	0
423	0	0
424	1	1
425	1	1
426	1	1
427	1	1
428	1	1
429	1	1
430	1	1
431	0	0.992481
432	1	1
433	0	0.899543
434	0	0.992032
435	0	1
436	0	0.976129
437	0	0.87804
438	0	0.848386
439	0	0
440	0	0.333333
441	0	0.333333
442	0	0.333333
443	0	0.333333
444	0	0.333333
445	0	1
446	0	1
447	0	0.333333
448	0	0.333333
449	0	0.2
450	0	0.142857
451	0	0.142857
452	0	0.142857
453	0	0.178571
454	0	0.305556
455	0	0.309091
456	0	0.863339
457	0	0.449539
458	0	0.515168
459	0	0.503001
460	0	0.92212
461	0	0
462	0	0
463	0	0.976835
464	0	0.984991
465	0	0.992453
466	1	1
467	1	1
468	1	1
469	1	1
470	1	1
471	1	1
472	1	1
473	1	1
474	1	1
475	0	0.992453
476	0	0.992453
477	0	1
478	0	1
479	0	1
480	0	1
481	0	1
482	0	1
483	0	1
484	0	0.333333
485	0	0.984906
486	0	0
487	0	0
488	0	0
489	0	0
490	0	0
491	0	0
492	0	0
493	1	1
494	1	1
495	1	1
496	1	1
497	1	1
498	1	1
499	1	1
500	0	1
501	0	1
502	0	1
503	0	1
504	1	1
505	1	1
506	1	1
507	1	1
508	1	1
509	1	1
510	0	0.992509
511	0	0.992509
512	0	0
513	1	1
514	1	1
515	1	1
516	1	1
517	1	1
518	1	1
519	1	1
520	1	1
521	1	1
522	1	1
523	1	1
524	1	1
525	1	1
526	1	1
527	1	1
528	1	1
529	1	1
530	1	1
531	1	1
532	1	1
533	1	1
534	0	0
535	1	0
536	1	0
537	1	0
538	1	0
539	1	0
540	1	0
541	1	0
542	1	0
543	1	0
544	1	0
545	1	0
546	1	0
547	1	0
548	1	0
549	1	0
550	1	0
551	1	0
552	1	0
553	1	0
554	1	0
555	1	0
556	1	0
557	1	0
558	1	0
559	0	0.992509
560	1	1
561	1	1
562	1	1
563	1	1
564	1	1
565	1	1
566	1	1
567	1	1
568	1	1
569	1	1
570	1	1
571	1	1
572	1	1
573	1	1
574	1	1
575	1	1
576	1	1
577	1	1
578	1	1
579	1	1
580	1	1
581	1	1
582	1	1
583	1	1
584	1	1
585	1	1
586	1	1
587	1	1
588	1	1
589	1	1
590	1	1
591	1	1
592	1	1
593	1	1
594	1	1
595	1	1
596	1	1
597	1	1
598	1	1
599	1	1
600	1	1
601	1	1
602	1	1
603	1	1
604	1	1
605	1	1
606	1	1
607	1	1
608	1	1
609	1	1
610	1	1
611	1	1
612	1	1
613	1	1
614	1	1
615	1	1
616	0	1
617	0	1
618	0	1
619	0	1
620	0	1
621	0	1
622	0	1
623	1	1
624	1	1
625	1	1
626	1	1
627	1	1
628	1	1
629	1	1
630	1	1
631	1	1
632	1	1
633	1	1
634	1	1
635	1	1
636	1	1
637	1	1
638	0	1
639	0	1
640	0	1
641	0	1
642	0	1
643	0	1
644	0	1
645	0	1
646	0	1
647	0	1
648	0	1
649	0	1
650	0	1
651	0	1
652	0	1
653	0	1
654	0	1
655	0	1
656	0	1
657	0	1
658	0	1
659	0	1
660	0	1
661	0	1
662	0	1
663	0	1
664	0	1
665	1	1
666	1	1
667	0	1
668	0	1
669	0	1
670	0	1
671	0	1
672	0	1
673	0	1
674	0	1
675	0	1
676	0	1
677	0	1
678	0	1
679	0	1
680	0	1
681	0	1
682	0	1
683	0	1
684	0	1
685	1	1
686	1	1
687	1	1
688	1	1
689	1	1
690	1	1
691	1	1
692	1	1
693	1	1
694	1	1
695	1	1
696	1	1
697	1	1
698	1	1
699	1	1
700	1	1
701	1	1
702	1	1
703	1	1
704	1	1
705	1	1
706	1	1
707	1	1
708	1	1
709	1	1
710	1	1
711	1	1
712	0	1
713	0	1
714	0	1
715	0	1
716	0	1
717	0	1
718	0	1
719	0	1
720	0	1
721	0	1
722	0	1
723	0	1
724	0	1
725	0	1
726	0	1
727	0	0.985075
728	0	0.985075
729	0	0.333333
730	0	0.333333
731	0	0.333333
732	0	0.333333
733	0	0.333333
734	0	0.333333
735	0	0.333333
736	0	0.333333
737	0	0.333333
738	0	0.333333
739	0	0.333333
740	0	0.333333
741	0	0.333333
742	0	0.977641
743	0	0.977641
744	0	0.977641
745	0	0.977641
746	0	0
747	0	0
748	0	0
749	0	0
750	0	0
751	0	0
752	0	0
753	0	0
754	0	0
755	0	0
756	0	0
757	0	0
758	0	0
759	0	0
760	0	0
761	0	0
762	0	0
763	0	0
764	0	0
765	0	0
766	0	0
767	0	0
768	0	0
769	0	0
770	0	0
771	0	0
772	0	0
773	0	0
774	0	0
775	0	0
776	0	0
777	0	0
778	0	0
779	0	0
780	0	0
781	0	0
782	0	0
783	0	0
784	0	0
785	0	0
786	0	0
787	0	0
788	0	0
789	0	0
790	0	0
791	0	0
792	0	0
793	0	0
794	0	0
795	0	0
796	0	0
797	0	0
798	0	0
799	0	0
800	0	0
801	0	0
802	0	0
803	0	0
804	0	0
805	0	0
806	0	1
807	0	1
808	0	1
809	0	1
810	0	1
811	0	1
812	0	0.333333
813	0	0.333333
814	0	0.333333
815	0	0.333333
816	0	0.333333
817	0	0.333333
818	0	0.333333
819	0	0.333333
820	0	0.333333
821	0	0.333333
822	0	0.333333
823	0	0.333333
824	0	0.333333
825	0	0.333333
826	0	0.333333
827	0	0.333333
828	0	0.333333
829	0	0.333333
830	0	0.333333
831	0	0.333333
832	0	0.333333
833	0	0.333333
834	0	0.333333
835	0	0.333333
836	0	0.333333
837	0	0.333333
838	0	0.333333
839	0	0.333333
840	0	0.333333
841	0	0.333333
842	0	0.333333
843	0	0.333333
844	0	0.333333
845	0	0.333333
846	0	0.333333
847	0	0.333333
848	0	0.333333
849	0	0.333333
850	0	0.333333
851	0	0.333333
852	0	0.333333
853	0	0.333333
854	0	0.333333
855	0	0.333333
856	0	0.333333
857	0	0.333333
858	0	0.333333
859	0	0.333333
860	0	0.333333
861	0	0.333333
862	0	0.333333
863	0	0.333333
864	0	0.333333
865	0	0.333333
866	0	0.333333
867	0	0.852468
868	0	0.970235
869	0	0.970235
870	0	0.970235
871	0	0.970235
872	0	0.970235
873	0	0
874	0	0
875	0	0
876	0	0
877	0	0
878	0	0
879	0	0
880	0	0
881	0	0
882	0	0
883	0	0
884	0	0
885	0	0
886	0	0
887	0	0
888	0	0
889	0	0
890	0	0
891	0	0
892	0	0
893	0	0
894	0	0
895	0	0
896	0	0
897	0	0
898	0	0.896873
899	0	0.874775
900	0	0.814759
901	0	0.561988
902	0	0.532343
903	0	0.376036
904	0	0.36072
905	0	0.333333
906	0	0.356284
907	0	0.356284
908	0	0.370841
909	0	0.458937
910	0	0.304762
911	0	0.439394
912	0	0.439394
913	0	0.305556
914	0	0.190476
915	0	0.190476
916	0	0.190476
917	0	0.190476
918	0	0.133333
919	0	0.166667
920	0	0.166667
921	0	0.166667
922	0	0.166667
923	0	0.166667
924	0	0.166667
925	0	0.166667
926	0	0.166667
927	0	0.166667
928	0	0.166667
929	0	0.166667
930	0	0.166667
931	0	0.166667
932	0	0.166667
933	0	0.166667
934	0	0.166667
935	0	0.166667
936	0	0.166667
937	0	0.166667
938	0	0.166667
939	0	0.166667
940	0	0.166667
941	0	0.166667
942	0	0.166667
943	0	0.166667
944	0	0
945	0	0
946	0	0.166667
947	0	0.166667
948	0	0.166667
949	0	0.166667
950	0	0.166667
951	0	0.166667
952	0	0.166667
953	0	0.166667
954	0	0.166667
955	0	0.166667
956	0	0.166667
957	0	0.166667
958	0	0.166667
959	0	0.166667
960	0	0.166667
961	0	0.166667
962	0	0.166667
963	0	0.166667
964	0	0.166667
965	0	0.166667
966	0	0.166667
967	0	0.166667
968	0	0.166667
969	0	0.166667
970	0	0.166667
971	0	0.166667
972	0	0.166667
973	0	0.166667
974	0	0.166667
975	0	0.166667
976	0	0.166667
977	0	0.166667
978	0	0.166667
979	0	0.166667
980	0	0.166667
981	0	0.166667
982	0	0.166667
983	0	0.166667
984	0	0.166667
985	0	0.166667
986	0	0.166667
987	0	0.166667
988	0	0.166667
989	0	0.166667
990	0	0.166667
991	0	0.166667
992	0	0.166667
993	0	0.166667
994	0	0.166667
995	0	0.166667
996	0	0.166667
997	0	0.166667
998	0	0.166667
999	0	0.166667
1000	0	0.166667
1001	0	0.166667
1002	0	0.166667
1003	0	0.166667
1004	0	0.166667
1005	0	0.166667
1006	0	0.166667
1007	0	0.166667
1008	0	0.166667
1009	0	0.166667
1010	0	0.166667
1011	0	0.166667
1012	0	0.166667
1013	0	0.166667
1014	0	0.166667
1015	0	0.166667
1016	0	0.166667
1017	0	0.166667
1018	0	0.166667
1019	0	0.166667
1020	0	0.166667
1021	0	0.166667
1022	0	0.166667
1023	0	0.166667
1024	0	0.166667
1025	0	0.166667
1026	0	0.166667
1027	0	0.166667
1028	0	0.166667
1029	0	0.166667
1030	0	0.166667
1031	0	0.166667
1032	0	0.166667
1033	0	0.166667
1034	0	0.166667
1035	0	0.166667
1036	0	0.166667
1037	0	0.166667
1038	0	0.166667
1039	0	0.166667
1040	0	0
1041	0	0
1042	0	0
1043	0	0
1044	0	0
1045	0	0.166667
1046	0	0.166667
1047	0	0
1048	0	0
1049	0	0
1050	0	0
1051	0	0
1052	0	0
1053	0	0
1054	0	0
1055	0	0
1056	0	0
1057	0	0
1058	0	0
1059	0	0
1060	0	0
1061	0	0
1062	0	0
1063	0	0
1064	0	0
1065	0	0
1066	0	0
1067	0	0
1068	0	0
1069	0	0
1070	0	0
1071	0	0
1072	0	0
1073	0	0
1074	0	0
1075	0	0
1076	0	0
1077	0	0
1078	0	0
1079	0	0
1080	0	0
1081	0	0
1082	0	0
1083	0	0
1084	0	0
1085	0	0
1086	0	0
1087	0	0
1088	0	0
1089	0	0
1090	0	0
1091	0	0
1092	0	0
1093	0	0
1094	0	0
1095	0	0
1096	0	0
1097	0	0
1098	0	0
1099	0	0
1100	0	0
1101	0	0
1102	0	0
1103	0	0
1104	0	0
1105	0	0
1106	0	0
1107	0	0
1108	0	0
1109	0	0
1110	0	0
1111	0	0
1112	0	0
1113	0	0
1114	0	0
1115	0	0
1116	0	0
1117	0	0
1118	0	0
1119	0	0
1120	0	0
1121	0	0
1122	0	0
1123	0	0
1124	0	0
1125	0	0
1126	0	0
1127	0	0
1128	0	0
1129	0	0
1130	0	0
