Site	ColumnScore	SumOfPairsScore
1	0	0
2	0	0
3	0	0
4	0	0
5	0	0
6	1	0
7	1	0
8	1	0
9	1	0
10	1	0
11	1	0
12	1	0
13	1	0
14	1	0
15	1	0
16	1	0
17	1	0
18	1	0
19	1	0
20	0	0
21	0	0
22	0	0
23	0	0
24	0	0
25	0	0
26	0	0
27	0	0
28	0	0
29	0	0
30	0	0
31	0	0
32	0	0
33	0	0.0666667
34	0	0.0666667
35	0	0.0666667
36	0	0.0444444
37	0	0.0363636
38	0	0.0181818
39	0	0.043956
40	0	0.0380952
41	0	0.0294118
42	0	0.0261438
43	0	0.243434
44	0	0.198431
45	0	0.19521
46	0	0.163636
47	0	0.163277
48	0	0.174603
49	0	0.165385
50	0	0.157715
51	0	0.153623
52	0	0.140859
53	0	0.119652
54	0	0.110877
55	0	0.091529
56	0	0.156711
57	0	0.158561
58	0	0.149216
59	0	0.106963
60	0	0.108424
61	0	0.1059
62	0	0.0969328
63	0	0
64	0	0
65	0	0
66	0	0
67	0	0
68	0	0
69	0	0
70	0	0.6
71	0	0.666667
72	0	0.25
73	0	0.2
74	0	0.266667
75	0	0.266667
76	0	0.290909
77	0	0.230769
78	0	0.183333
79	0	0.267974
80	0	0.426316
81	0	0.485714
82	0	0.485714
83	0	0.501976
84	0	0.54023
85	0	0.692523
86	0	0.709619
87	0	0.709619
88	0	0.66776
89	0	0.66776
90	0	0.646219
91	0	0.625992
92	0	0.849206
93	0	0.849206
94	0	0.8766
95	0	0.880288
96	0	0.880288
97	0	0.880288
98	0	0.880288
99	0	0.880288
100	0	0.880288
101	0	0.880288
102	0	0.880288
103	0	0.880288
104	0	0.880288
105	0	0.853613
106	0	0.853613
107	0	0.828132
108	0	0.828132
109	0	0.828132
110	0	0.828132
111	0	0.828132
112	0	0.828132
113	0	0.828132
114	0	0.828132
115	0	0.828132
116	0	0.828132
117	0	0.764184
118	0	0.489824
119	0	0.828132
120	0	0.828132
121	0	0.828132
122	0	0.828132
123	0	0.829037
124	0	0.829037
125	0	0.829037
126	0	0.829037
127	0	0.829037
128	0	0.829037
129	0	0.829037
130	0	0.829037
131	0	0.826573
132	0	0.804653
133	0	0.804653
134	0	0.804653
135	0	0.804653
136	0	0.804653
137	0	0.804653
138	0	0.804653
139	0	0.804653
140	0	0.804653
141	0	0.804653
142	0	0.804653
143	0	0.804653
144	0	0.804653
145	0	0.804653
146	0	0.804653
147	0	0.804653
148	0	0.804653
149	0	0.804653
150	0	0.804653
151	0	0.804653
152	0	0.804653
153	0	0.804653
154	0	0.804653
155	0	0.804653
156	0	0.78133
157	0	0.78133
158	0	0.78133
159	0	0.78133
160	0	0.78133
161	0	0.78133
162	0	0.78133
163	0	0.78133
164	0	0.760248
165	0	0.760248
166	0	0.760248
167	0	0.760248
168	0	0.760248
169	0	0.760248
170	0	0.714688
171	0	0.714688
172	0	0.479365
173	0	0.479365
174	0	0.479365
175	0	0.389113
176	0	0.344029
177	0	0.23451
178	0	0.265306
179	0	0.174352
180	0	0.266293
181	0	0.198198
182	0	0.18848
183	0	0.145946
184	0	0.140043
185	0	0.134823
186	0	0.134768
187	0	0.140973
188	0	0.13962
189	0	0.138286
190	0	0.152694
191	0	0.151667
192	0	0.134774
193	0	0.137638
194	0	0.137839
195	0	0.136884
196	0	0.137739
197	0	1
198	0	1
199	0	1
200	0	0.857143
201	0	0.857143
202	0	0.857143
203	0	0.725275
204	0	0.252747
205	0	0.252747
206	0	0.252747
207	0	0.0989011
208	0	0.102564
209	0	0.0512821
210	0	0.0641026
211	0	0.0363636
212	0	0.0444444
213	0	0.0357143
214	0	0.047619
215	0	0.0666667
216	0	0.1
217	0	0
218	0	0
219	0	0
220	0	0
221	0	0
222	0	0.166667
223	0	0.1
224	0	0.0952381
225	0	0.0545455
226	0	0.104762
227	0	0.0915033
228	0	0.0701754
229	0	0.0578947
230	0	0.0396825
231	0	0.0413793
232	0	0.032197
233	0	0.0284495
234	0	0.0232558
235	0	0.0499849
236	0	0.0405375
237	0	0.0428283
238	0	0.0378378
239	0	0.0327869
240	0	0.046798
241	0	0.0457117
242	0	0.0473204
243	0	0.0491566
244	0	0.048255
245	0	0.0467251
246	0	0.0461514
247	0	0.0554923
248	0	0.0611522
249	0	0.0445203
250	0	0.0584795
251	0	0.0233918
252	0	0.0292398
253	0	0.0588235
254	0	0.0588235
255	0	0.0522876
256	0	0.0392157
257	0	0.0457516
258	0	0.0457516
259	0	0.0869565
260	0	0.108696
261	0	0.0490348
262	0	0.0543936
263	0	0.054008
264	0	0.0536867
265	0	0.0547149
266	0	0.163077
267	0	0.0666667
268	0	0.075
269	0	0.0857143
270	0	0.0659341
271	0	0.105747
272	0	0.101075
273	0	0.0454545
274	0	0.0727273
275	0	0.0727273
276	0	0.0673118
277	0	0.0595767
278	0	0.0574043
279	0	0
280	0	0
281	0	0
282	0	0
283	0	0
284	0	0
285	0	0
286	0	0
287	0	0
288	0	0.3
289	0	0.3
290	0	0.285714
291	0	0.214286
292	0	0.102564
293	0	0.0580338
294	0	0.0598487
295	0	0.0600355
296	0	0.0524727
297	0	0.0527839
298	0	0.0532508
299	0	0.0666667
300	0	0.2
301	0	0.2
302	0	0.2
303	0	0.2
304	0	0.357143
305	0	0.357143
306	0	0.357143
307	0	0.357143
308	0	0.357143
309	0	0.357143
310	0	0.113933
311	0	0.285714
312	0	0.246667
313	0	0.230769
314	0	0.184729
315	0	0.0886076
316	0	0.15451
317	0	0.148701
318	0	0.156634
319	0	0.152282
320	0	0.179364
321	0	0.208976
322	0	0.269017
323	0	0.336113
324	0	0.359615
325	0	0.433497
326	0	0.485498
327	0	0.51868
328	0	0.524449
329	0	0.560404
330	0	0.561949
331	0	0.579659
332	0	0.645174
333	0	0.65741
334	0	0.558333
335	0	0.758333
336	0	0.875
337	0	0.933778
338	0	0.977529
339	0	0.977529
340	0	0.977529
341	0	0
342	0	0
343	0	0
344	0	0
345	0	0
346	0	0
347	0	0
348	0	0
349	0	0
350	0	0.984934
351	0	0.984934
352	0	0
353	0	0.984934
354	0	0.984991
355	0	0.984991
356	0	0.984991
357	0	0.984991
358	0	0.984991
359	0	0.984991
360	0	0.984934
361	0	0.984934
362	0	0.977529
363	0	0.977529
364	0	0.977529
365	0	0.984934
366	0	0.984934
367	0	0.984934
368	0	0.984934
369	0	0.984934
370	0	0.984934
371	0	0.984934
372	0	0.984934
373	0	0.871955
374	0	0.871955
375	0	0.977529
376	0	0.977529
377	0	0
378	0	0
379	0	0
380	0	0
381	0	0
382	0	0
383	0	0
384	0	0
385	0	0
386	0	0
387	0	0
388	0	0
389	0	0
390	0	0
391	0	0
392	0	0
393	0	0
394	0	0
395	0	0.984934
396	0	0.984934
397	0	0.984934
398	0	0.977529
399	0	0.977529
400	0	0.977529
401	0	0.977529
402	0	0.977529
403	0	0.977529
404	0	0
405	0	0
406	0	0
407	0	0.984934
408	0	0.984934
409	0	0.984934
410	0	0.984934
411	0	0.984934
412	0	0.984934
413	0	0.984934
414	0	0.984934
415	0	0
416	0	0
417	0	0.984963
418	0	0.984963
419	0	0.984963
420	0	0.984963
421	0	0.984963
422	0	0.984963
423	0	0.984963
424	0	0.984963
425	0	0.984963
426	0	0.984963
427	0	0.984963
428	0	0.984963
429	0	0.984963
430	0	0.984963
431	0	0.984963
432	0	0.984963
433	0	0.984963
434	0	0.984963
435	0	0.984963
436	0	1
437	0	1
438	0	1
439	0	1
440	0	1
441	0	1
442	0	1
443	0	1
444	0	1
445	0	1
446	0	1
447	0	1
448	0	1
449	0	1
450	0	1
451	0	1
452	0	1
453	0	1
454	0	1
455	0	1
456	0	1
457	0	1
458	0	1
459	0	1
460	0	1
461	0	1
462	0	0
463	0	1
464	0	1
465	0	1
466	0	0.984963
467	0	0.977557
468	0	0.977473
469	0	0.977473
470	0	0.970123
471	0	0.970123
472	0	0.970123
473	0	0
474	0	0
475	0	0
476	0	0
477	0	0.968722
478	0	0.953646
479	0	0.935098
480	0	0.934745
481	0	0.924064
482	0	0.924002
483	0	0.872437
484	0	0.392857
485	0	0.333333
486	0	0.466667
487	0	0.466667
488	0	0.466667
489	0	0.333333
490	0	0.222222
491	0	0.222222
492	0	0.166667
493	0	0.175824
494	0	0.175824
495	0	0.403904
496	0	0.283071
497	0	0.217417
498	0	0.288017
499	0	0.270605
500	0	0.179473
501	0	0.137489
502	0	0.193428
503	0	0.229287
504	0	0.511753
505	0	0.581413
506	0	0.589602
507	0	0
508	0	0
509	0	0
510	0	0
511	0	0
512	0	0
513	0	0
514	0	0
515	0	0
516	0	0.472811
517	0	0
518	0	0
519	0	0
520	0	0
521	0	0.166667
522	0	0.525961
523	0	0.92417
524	0	0
525	0	0
526	0	0
527	0	0
528	0	0
529	0	0
530	0	0
531	0	0
532	0	0
533	0	0.960972
534	0	0.968599
535	0	0
536	0	0
537	0	0.984526
538	0	0.984526
539	0	0.984526
540	0	0.984526
541	0	0.992248
542	0	0.992248
543	0	0.992248
544	0	0.992248
545	0	0.992248
546	0	0.992248
547	0	0.992248
548	0	0.992248
549	0	0.934374
550	0	0.934374
551	1	0
552	1	0
553	1	0
554	1	0
555	1	0
556	1	0
557	1	0
558	1	0
559	0	1
560	1	1
561	0	1
562	0	1
563	0	1
564	0	1
565	0	1
566	0	1
567	0	1
568	0	0.992395
569	0	0.992395
570	0	0.992395
571	0	0.992395
572	0	0.992395
573	0	0.992395
574	0	0.992395
575	0	0.992395
576	0	0.97018
577	0	0.992481
578	0	0.992537
579	0	0.992537
580	0	0.992537
581	0	0.992537
582	0	0.992537
583	0	0.992537
584	0	0.992537
585	0	0.992537
586	0	0.992537
587	0	0.992537
588	0	0.992537
589	0	0.992537
590	0	0.992537
591	0	0.992537
592	0	0
593	1	0
594	0	0
595	0	0
596	0	0
597	0	0
598	0	0
599	0	0
600	1	1
601	1	1
602	1	1
603	1	1
604	1	1
605	1	1
606	1	1
607	1	1
608	1	1
609	1	1
610	1	1
611	1	1
612	1	1
613	1	1
614	1	1
615	1	1
616	1	1
617	1	1
618	1	1
619	1	1
620	1	1
621	1	1
622	1	1
623	1	1
624	1	1
625	1	1
626	1	1
627	1	1
628	1	1
629	1	1
630	1	1
631	1	1
632	1	1
633	1	1
634	1	1
635	1	1
636	1	1
637	1	1
638	1	1
639	1	1
640	1	1
641	1	1
642	1	1
643	1	1
644	1	1
645	1	1
646	1	1
647	1	1
648	1	1
649	1	1
650	1	1
651	1	1
652	1	1
653	1	1
654	1	1
655	1	1
656	1	1
657	1	1
658	1	1
659	1	1
660	1	1
661	1	1
662	1	1
663	1	1
664	1	1
665	1	1
666	1	1
667	1	1
668	1	1
669	1	1
670	1	1
671	1	1
672	1	1
673	1	1
674	1	1
675	1	1
676	1	1
677	1	1
678	1	1
679	1	1
680	1	1
681	1	1
682	1	1
683	1	1
684	1	1
685	1	1
686	1	1
687	0	1
688	0	1
689	0	0.849585
690	0	0.849585
691	0	0.530195
692	0	0.419484
693	0	0.277174
694	0	0.209662
695	0	0.323333
696	0	0.315217
697	0	0.242424
698	0	0.333333
699	0	0.321429
700	0	0.321429
701	0	0.199587
702	0	0.222694
703	0	0.258205
704	0	0.258748
705	0	0.234899
706	0	0.219833
707	0	0
708	0	0
709	0	0.196923
710	0	0.182336
711	0	0.194807
712	0	0.176059
713	0	0.132392
714	0	0.122958
715	0	0.107948
716	0	1
717	0	1
718	0	0.100366
719	0	0.125926
720	0	0.136054
721	0	0.0797721
722	0	0.0877193
723	0	0.166667
724	0	0.2
725	0	0.0666667
726	0	0.047619
727	0	0
728	0	0
729	0	0
730	0	0
731	0	0
732	0	0
733	0	0
734	0	0
735	0	0
736	0	0
737	0	0.777778
738	0	1
739	0	0.44709
740	0	0.857143
741	0	0.758333
742	0	0.124947
743	0	0
744	0	0
745	0	0.157627
746	0	0
747	0	0.157936
748	0	0.15156
749	0	0.166667
750	0	0.166667
751	0	0.166667
752	0	0.166667
753	0	0.154123
754	0	0.153589
755	0	0
756	0	0.190338
757	0	0.196617
758	0	0.190564
759	0	0.196115
760	0	0.175163
761	0	0.173105
762	0	0.113865
763	0	0.112922
764	0	0.112836
765	0	0.108299
766	0	0.111221
767	0	0.108214
768	0	0.106418
769	0	0.104866
770	0	0.101743
771	0	0.109459
772	0	0.113233
773	0	0.113094
774	0	0.030303
775	0	0.0989308
776	0	0.0905637
777	0	0.0674262
778	0	0.0708223
779	0	0.0696434
780	0	0.0706653
781	0	0.125356
782	0	0.148551
783	0	0.142857
784	0	0.173684
785	0	0.173684
786	0	0.185714
787	0	0.0752829
788	0	0.114135
789	0	0.0824418
790	0	0
791	0	0
792	0	0
793	0	0
794	0	0.047619
795	0	0.047619
796	0	0.0555556
797	0	0.0555556
798	0	0.0804257
799	0	0.0725165
800	0	0.0367647
801	0	0.0512821
802	0	0.0666667
803	0	0.0666667
804	0	0.0888889
805	0	0.111111
806	0	0.147937
807	0	0.1625
808	0	0.137097
809	0	0.203333
810	0	0.255411
811	0	0
812	0	0
813	0	0
814	0	0
815	0	0
816	0	0
817	0	0
818	0	0.0604944
819	0	0.0483866
820	0	0.0513377
821	0	0.0486989
822	0	0.333333
823	0	0.0495291
824	0	0
825	0	0
826	0	0
827	0	0
828	0	0
829	0	0
830	0	0.052727
831	0	0.0357143
832	0	0.047619
833	0	0.047619
834	0	0
835	0	0.101758
836	0	0.107246
837	0	0.112121
838	0	0.134343
839	0	0.0683607
840	0	0
841	0	0
842	0	0
843	0	0
844	0	0.0712855
845	0	0.0716628
846	0	0.0754651
847	0	0.0862493
848	0	0.305556
849	0	0.355556
850	0	0.236364
851	0	0.106742
852	0	0.666667
853	0	0.666667
854	0	0.666667
855	0	0.142817
856	0	0
857	0	0
858	0	0
859	0	0
860	0	0
861	0	0
862	0	0.5
863	0	0.681818
864	0	0.26455
865	0	0.2
866	0	0.235294
867	0	0.225225
868	0	0.332512
869	0	0.266667
870	0	0.248366
871	0	0.493506
872	0	0.28955
873	0	0.284044
874	0	0.428429
875	0	0.448855
876	0	0.744589
877	0	1
878	0	1
879	0	0.621629
880	0	0.621571
881	0	0.2
882	0	0.2
883	0	0.662438
884	0	0.190476
885	0	0.142857
886	0	0.582492
887	0	0.585714
888	0	0.57661
889	0	0.595109
890	0	0.593695
891	0	0
892	0	0.777778
893	0	0.509091
894	0	0.28655
895	0	0.255411
896	0	0.374037
897	0	0.311924
898	0	0.263429
899	0	0.133328
900	0	0.144257
901	0	0.169166
902	0	0.160383
903	0	0.157603
904	0	0.152927
905	0	0.153545
906	0	0.16135
907	0	0.1545
908	0	0.152849
909	0	0.146153
910	0	0.112218
911	0	0.135573
912	0	0.136368
913	0	0.101704
914	0	0.112221
915	0	0.132638
916	0	0.133315
917	0	0.195841
918	0	0.183333
919	0	0.221247
920	0	0.262183
921	0	0.239604
922	0	0.267525
923	0	0.304234
924	0	0.303295
925	0	0.331068
926	0	0.352371
927	0	0.756369
928	0	0.781532
929	0	0.837017
930	0	0.903168
931	0	0.854701
932	0	0.795322
