Site	ColumnScore	SumOfPairsScore
1	1	0
2	1	0
3	1	0
4	1	0
5	1	0
6	1	0
7	0	0
8	0	0.6
9	0	0.6
10	0	0.6
11	0	0.6
12	0	0.6
13	0	0.6
14	0	0.4
15	0	0.4
16	0	0.4
17	0	0.285714
18	0	0.285714
19	0	0.166667
20	0	0.333333
21	0	0.381818
22	0	0.252747
23	0	0.252747
24	0	0.37931
25	0	0.336898
26	0	0.32437
27	0	0.307937
28	0	0.291291
29	0	0.263158
30	0	0.229965
31	0	0.234611
32	0	0.208355
33	0	0.201741
34	0	0.205357
35	0	0.206242
36	0	0.206242
37	0	0.183903
38	0	0.163021
39	0	0.151899
40	0	0.146635
41	0	0.134831
42	0	0.106783
43	0	0.110608
44	0	0.102684
45	0	0.0957864
46	0	0.102293
47	0	0.0789136
48	0	0.0682966
49	0	0.063225
50	0	0.0765662
51	0	0.0745396
52	0	0.0737436
53	0	0.0880635
54	0	0.0846742
55	0	0.0813488
56	0	0.0790439
57	0	0.11656
58	0	0.144988
59	0	0.144369
60	0	0.118434
61	0	0.0405797
62	0	0.0457143
63	0	0.0999228
64	0	0.0930508
65	0	0.0961602
66	0	0.0964652
67	0	0.0713989
68	0	0.0748738
69	0	0.11082
70	0	0.0985733
71	0	0.104688
72	0	0.108167
73	0	0.106778
74	0	0.094297
75	0	0.0822322
76	0	0.0879842
77	0	0.0959533
78	0	0.0944501
79	0	0.132663
80	0	0.152305
81	0	0.220311
82	0	0.217199
83	0	0.32807
84	0	0.387755
85	0	0.391844
86	0	0.228758
87	0	0.318681
88	0	0.0666667
89	0	0
90	0	0.467565
91	0	0.670584
92	0	0.670613
93	0	0.671391
94	0	0.671391
95	0	1
96	0	1
97	0	1
98	0	1
99	0	1
100	0	0.697723
101	0	0.21978
102	0	0.673341
103	0	0.685493
104	0	0.658376
105	0	0.652031
106	0	0
107	0	0
108	0	0
109	0	0
110	0	0
111	0	1
112	0	1
113	0	0.866995
114	0	0.866995
115	0	0.809195
116	0	0.711694
117	0	0.668561
118	0	0.668561
119	0	0.668561
120	0	0.668561
121	0	0.629234
122	0	0.504979
123	0	0.455128
124	0	0.455128
125	0	0.364646
126	0	0.348792
127	0	0.383904
128	0	0.327843
129	0	0.327843
130	0	0.327843
131	0	0.318367
132	0	0.297959
133	0	0.268235
134	0	0.229804
135	0	0.204374
136	0	0.185185
137	0	0.174167
138	0	0.188194
139	0	0.173982
140	0	0.15935
141	0	0.167449
142	0	0.139802
143	0	0.128108
144	0	0.186476
145	0	0.181109
146	0	0.161345
147	0	0.198347
148	0	0.204817
149	0	0.192929
150	0	0.268181
151	0	0.279462
152	0	0.387657
153	0	0.503876
154	0	0.707132
155	0	0.819104
156	0	0.860636
157	0	0.333333
158	0	0.466667
159	0	0.466667
160	0	1
161	0	0.911664
162	0	0.940595
163	0	0.941032
164	0	0.941032
165	0	0.941032
166	0	0.941032
167	0	1
168	0	1
169	1	1
170	1	1
171	1	1
172	1	1
173	0	1
174	0	1
175	0	1
176	0	1
177	0	0
178	0	0
179	0	0
180	0	0.992453
181	0	0.992453
182	0	0.984991
183	0	1
184	0	0.937548
185	0	0.90716
186	0	0.890977
187	0	0.84927
188	0	0.75
189	0	0.75
190	0	0.414286
191	0	0.383109
192	0	0.347786
193	0	0.272739
194	0	0.266667
195	0	0.228005
196	0	0.568841
197	0	0.19258
198	0	0.19439
199	0	0.129662
200	0	0.177115
201	0	0.202797
202	0	0.272899
203	0	0.387289
204	0	0.436828
205	0	0.465775
206	0	0.468947
207	0	0
208	0	0
209	0	0
210	0	0.734007
211	0	0.333333
212	0	0.955738
213	0	0.956062
214	0	0.956062
215	0	0.956062
216	0	0.985131
217	0	0.934457
218	0	1
219	0	1
220	0	0.914173
221	0	0.921542
222	0	0.333333
223	0	0.466667
224	0	0.466667
225	0	0.5
226	0	1
227	0	1
228	0	1
229	0	0.5
230	0	0.3
231	0	0.318182
232	0	0.490148
233	0	0.536765
234	0	0.5153
235	0	0.888889
236	0	0.888889
237	0	0.395821
238	0	0.367942
239	0	0.337614
240	0	0.272676
241	0	0.248677
242	0	0.293333
243	0	0.293333
244	0	0.293333
245	0	0.204598
246	0	0.15015
247	0	0.0885936
248	0	0.115992
249	0	0.109091
250	0	0.119339
251	0	0.100139
252	0	0.0798419
253	0	0.0651233
254	0	0.0580667
255	0	0.0784314
256	0	0.0797665
257	0	0.0831104
258	0	0.290909
259	0	0.290909
260	0	0.0858944
261	0	0
262	0	0.1
263	0	0.492063
264	0	0.435897
265	0	0.206522
266	0	0.233846
267	0	0.167636
268	0	0.205847
269	0	0.294156
270	0	0.220869
271	0	0.339759
272	0	0.580952
273	0	0.654457
274	0	0.762303
275	0	0.886886
276	0	0.907345
277	0	0.907345
278	0	0.907345
279	0	1
280	1	1
281	1	1
282	1	1
283	1	1
284	1	1
285	1	1
286	1	1
287	1	1
288	1	1
289	1	1
290	1	1
291	1	1
292	1	1
293	1	1
294	1	1
295	1	1
296	1	1
297	1	1
298	1	1
299	1	1
300	1	1
301	1	1
302	1	1
303	1	1
304	1	1
305	1	1
306	1	1
307	1	1
308	1	1
309	1	1
310	1	1
311	1	1
312	1	1
313	0	0.992537
314	1	0
315	1	0
316	0	0
317	1	1
318	1	1
319	1	1
320	1	1
321	1	1
322	1	1
323	1	1
324	1	1
325	1	1
326	1	1
327	1	1
328	1	1
329	1	1
330	1	1
331	0	1
332	0	0.977724
333	0	1
334	1	1
335	1	1
336	1	1
337	1	1
338	1	1
339	0	0
340	1	0
341	0	0.992537
342	1	1
343	1	1
344	0	0
345	0	0.992395
346	0	0.970485
347	1	1
348	1	1
349	1	1
350	1	1
351	1	1
352	1	1
353	1	1
354	1	1
355	1	1
356	1	1
357	1	1
358	1	1
359	1	1
360	1	1
361	1	1
362	1	1
363	1	1
364	1	1
365	1	1
366	1	1
367	1	1
368	1	1
369	1	1
370	1	1
371	1	1
372	1	1
373	1	1
374	1	1
375	1	1
376	1	1
377	1	1
378	1	1
379	1	1
380	1	1
381	1	1
382	1	1
383	0	0.985131
384	0	0.985131
385	0	0
386	0	0
387	0	0
388	0	0
389	0	0
390	0	0
391	0	0
392	0	0
393	0	0
394	0	0
395	0	0
396	0	0
397	0	0
398	0	0
399	0	0
400	0	0
401	0	0
402	0	0
403	0	0
404	0	0
405	0	0
406	0	0
407	0	0
408	0	0.984991
409	0	0.984991
410	0	0.984991
411	0	0.984991
412	0	0.977529
413	0	1
414	0	0.633892
415	0	0
416	0	0
417	0	0.571429
418	0	0.611111
419	0	0.611111
420	0	0.611111
421	0	0.333333
422	0	0.35195
423	0	0.360544
424	0	0.360544
425	0	0.38729
426	0	0.388472
427	0	0.372734
428	0	0.305556
429	0	0.236842
430	0	0.236842
431	0	0.342857
432	0	0.357143
433	0	0.38
434	0	0.317236
435	0	0.353118
436	0	0.236364
437	0	0.333333
438	0	0.333333
439	0	0.428571
440	0	1
441	0	1
442	0	1
443	0	1
444	0	1
445	0	1
446	0	1
447	0	1
448	0	1
449	0	1
450	0	1
451	0	0.305556
452	0	0.743224
453	0	0.806985
454	0	0.81175
455	0	0.812399
456	0	0.844716
457	0	0.884721
458	0	0.96286
459	0	0.940985
460	0	0.969817
461	0	1
462	1	1
463	1	1
464	1	1
465	1	1
466	1	1
467	1	1
468	1	1
469	1	1
470	1	1
471	1	1
472	1	1
473	0	1
474	0	1
475	1	1
476	1	1
477	1	1
478	1	1
479	1	1
480	1	1
481	0	0.992537
482	0	0.992537
483	0	0
484	1	1
485	1	1
486	1	1
487	1	1
488	1	1
489	0	1
490	0	1
491	1	1
492	1	1
493	1	1
494	1	1
495	0	1
496	0	1
497	0	1
498	0	1
499	0	1
500	0	1
501	0	1
502	0	1
503	0	1
504	0	1
505	0	1
506	0	0.333333
507	0	0.333333
508	0	0.333333
509	0	0.333333
510	0	0.333333
511	0	0.333333
512	0	0.333333
513	0	0.968874
514	0	0.932076
515	0	0.924934
516	0	0.917873
517	0	0.917873
518	0	0.917873
519	0	0.939809
520	0	0.4
521	0	0.2
522	0	0.0666667
523	0	0.881138
524	0	0.881138
525	0	0.874411
526	0	0.86068
527	0	0.620882
528	0	0.47619
529	0	0.340659
530	0	0.340659
531	0	0.347126
532	0	0.34023
533	0	0.31828
534	0	0.204678
535	0	0.208333
536	0	0.15
537	0	0.132353
538	0	0.132353
539	0	0.117647
540	0	0.0588235
541	0	0.0128205
542	0	0.021978
543	0	0.021978
544	0	0.12987
545	0	0.116667
546	0	0.108046
547	0	0.101075
548	0	0.0544355
549	0	0.0499109
550	0	0.0487395
551	0	0.0495495
552	0	0.0653846
553	0	0.0763285
554	0	0.0690196
555	0	0.0654588
556	0	0.0976577
557	0	0.0922761
558	0	0.090555
559	0	0.132438
560	0	0.130804
561	0	0.0999888
562	0	0.0942963
563	0	0.0753141
564	0	0.0831962
565	0	0.0971798
566	0	0.096051
567	0	0.112958
568	0	0.142339
569	0	0.160099
570	0	0.206204
571	0	0.209748
572	0	0
573	0	0
574	0	0
575	0	0
576	0	0
577	0	0
578	0	0
579	0	0
580	0	0
581	0	0
582	0	0
583	0	0
584	0	0
585	0	0
586	0	0
587	0	0
588	0	0
589	0	0
590	0	0
591	0	0
592	0	0
593	0	0
594	0	0
595	0	0
596	0	0
597	0	0
598	0	0
599	1	0
600	0	0
601	0	0
602	0	0
603	0	0
604	0	0
605	0	0
606	0	0
607	0	0
608	0	0
609	0	0
610	0	0
611	0	0
612	0	0
613	0	0
614	0	0
615	0	0
616	0	0
617	0	0
618	0	0
619	0	0
620	0	0
621	0	0
622	0	1
623	0	0.432213
624	0	0.333333
625	0	0.333333
626	0	0.333333
627	0	0.333333
628	0	0.333333
629	0	0.333333
630	0	0.333333
631	0	0.333333
632	0	0.333333
633	0	0.333333
634	0	0.493761
635	0	0.488889
636	0	0.488889
637	0	0.75
638	0	0.75
639	0	0.75
640	0	0.75
641	0	0.644444
642	0	0.527273
643	0	0.762144
644	0	0.852308
645	0	1
646	1	1
647	1	1
648	1	1
649	1	1
650	1	1
651	1	1
652	1	1
653	1	1
654	1	1
655	1	1
656	1	1
657	1	1
658	1	1
659	1	1
660	1	1
661	1	1
662	1	1
663	1	1
664	1	1
665	1	1
666	1	1
667	1	1
668	1	1
669	1	1
670	1	1
671	1	1
672	1	1
673	1	1
674	1	1
675	1	1
676	1	1
677	1	1
678	1	1
679	1	1
680	1	1
681	1	1
682	1	1
683	1	1
684	1	1
685	1	1
686	1	1
687	1	1
688	1	1
689	1	1
690	1	1
691	1	1
692	1	1
693	1	1
694	1	1
695	1	1
696	1	1
697	1	1
698	1	1
699	1	1
700	1	1
701	1	1
702	1	1
703	1	1
704	1	1
705	1	1
706	1	1
707	1	1
708	1	1
709	1	1
710	1	1
711	1	1
712	1	1
713	1	1
714	1	1
715	1	1
716	1	1
717	1	1
718	1	1
719	1	1
720	1	1
721	1	1
722	1	1
723	1	1
724	1	1
725	1	1
726	1	1
727	1	1
728	1	1
729	1	1
730	1	1
731	0	0
732	0	0.992453
733	0	0.462931
734	0	0
735	0	0
736	0	0
737	0	0.846154
738	0	0
739	0	0.6
740	0	0.6
741	1	1
742	0	0.487179
743	0	0.561032
744	0	0.360574
745	0	0.799653
746	0	0.985103
747	0	0.985103
748	0	0.985103
749	0	0.985103
750	0	0.985047
751	1	0
752	0	0
753	1	1
754	1	1
755	1	1
756	1	1
757	1	1
758	1	1
759	1	1
760	1	1
761	1	1
762	1	1
763	1	1
764	1	1
765	1	1
766	1	1
767	1	1
768	1	1
769	1	1
770	1	1
771	1	1
772	1	1
773	1	1
774	1	1
775	1	1
776	1	1
777	1	1
778	1	1
779	1	1
780	1	1
781	1	1
782	1	1
783	1	1
784	1	1
785	1	1
786	0	0.900609
787	0	1
788	1	1
789	1	1
790	1	1
791	1	1
792	1	1
793	1	1
794	1	1
795	1	1
796	1	1
797	1	1
798	1	1
799	1	1
800	1	1
801	1	1
802	1	1
803	1	1
804	1	1
805	1	1
806	1	1
807	1	1
808	1	1
809	1	1
810	1	1
811	1	1
812	1	1
813	1	1
814	1	1
815	1	1
816	1	1
817	1	1
818	1	1
819	1	1
820	1	1
821	1	1
822	1	1
823	1	1
824	1	1
825	1	1
826	1	1
827	1	1
828	1	1
829	1	1
830	1	1
831	1	1
832	1	1
833	1	1
834	1	1
835	1	1
836	1	1
837	1	1
838	1	1
839	1	1
840	1	1
841	1	1
842	1	1
843	1	1
844	1	1
845	1	1
846	1	1
847	1	1
848	1	1
849	1	1
850	1	1
851	1	1
852	1	1
853	1	1
854	1	1
855	1	1
856	1	1
857	1	1
858	1	1
859	1	1
860	0	0
861	0	0.992424
862	0	0.992424
863	0	0.984849
864	0	0.984849
865	0	0
866	1	0
867	1	0
868	0	0.961128
869	0	0.477514
870	0	0.476113
871	0	0.805263
872	0	0.663171
873	0	1
874	1	1
875	1	1
876	1	1
877	1	1
878	1	1
879	1	1
880	1	1
881	1	1
882	1	1
883	1	1
884	1	1
885	1	1
886	1	1
887	1	1
888	1	1
889	1	1
890	1	1
891	1	1
892	1	1
893	1	1
894	1	1
895	1	1
896	1	1
897	1	1
898	1	1
899	1	1
900	1	1
901	1	1
902	1	1
903	1	1
904	1	1
905	1	1
906	1	1
907	1	1
908	1	1
909	1	1
910	1	1
911	1	1
912	1	1
913	1	1
914	1	1
915	1	1
916	1	1
917	1	1
918	1	1
919	1	1
920	1	1
921	1	1
922	1	1
923	1	1
924	1	1
925	1	1
926	1	1
927	1	1
928	1	1
929	1	1
930	1	1
931	0	1
932	0	1
933	0	1
934	1	1
935	1	1
936	1	1
937	0	0.433535
938	0	0.518503
939	0	0.788921
940	1	1
941	1	1
942	1	1
943	1	1
944	1	1
945	1	1
946	1	1
947	1	1
948	1	1
949	1	1
950	1	1
951	1	1
952	1	1
953	1	1
954	1	1
955	1	1
956	1	1
957	1	1
958	1	1
959	1	1
960	1	1
961	1	1
962	1	1
963	1	1
964	1	1
965	1	1
966	1	1
967	1	1
968	1	1
969	1	1
970	1	1
971	1	1
972	1	1
973	1	1
974	1	1
975	1	1
976	1	1
977	1	1
978	1	1
979	1	1
980	1	1
981	1	1
982	1	1
983	1	1
984	1	1
985	1	1
986	1	1
987	1	1
988	1	1
989	1	1
990	1	1
991	1	1
992	1	1
993	1	1
994	1	1
995	1	1
996	1	1
997	1	1
998	1	1
999	1	1
1000	1	1
1001	1	1
1002	1	1
1003	1	1
1004	1	1
1005	1	1
1006	1	1
1007	1	1
1008	1	1
1009	1	1
1010	1	1
1011	1	1
1012	1	1
1013	1	1
1014	1	1
1015	1	1
1016	1	1
1017	1	1
1018	1	1
1019	1	1
1020	1	1
1021	1	1
1022	1	1
1023	1	1
1024	1	1
1025	1	1
1026	1	1
1027	1	1
1028	1	1
1029	1	1
1030	1	1
1031	1	1
1032	1	1
1033	1	1
1034	1	1
1035	1	1
1036	0	0.992537
1037	1	1
1038	1	1
1039	1	1
1040	1	1
1041	1	1
1042	1	1
1043	1	1
1044	1	1
1045	1	0
1046	1	1
1047	1	1
1048	1	1
1049	1	1
1050	1	1
1051	1	1
1052	1	1
1053	1	1
1054	1	1
1055	1	1
1056	1	1
1057	1	1
1058	1	1
1059	0	1
1060	1	1
1061	1	1
1062	1	1
1063	1	1
1064	1	1
1065	1	1
1066	1	1
1067	1	1
1068	1	1
1069	1	1
1070	1	1
1071	1	1
1072	1	1
1073	1	1
1074	1	1
1075	1	1
1076	1	1
1077	1	1
1078	1	1
1079	0	0
1080	0	0
1081	0	0
1082	1	0
1083	1	0
1084	1	0
1085	1	0
1086	1	0
1087	1	0
1088	1	0
1089	1	0
1090	1	0
1091	1	0
1092	1	0
1093	1	0
1094	0	0
1095	0	0
1096	0	0
1097	1	1
1098	1	1
1099	1	1
1100	1	1
1101	1	1
1102	0	1
1103	0	1
1104	0	1
1105	1	1
1106	1	1
1107	1	1
1108	1	1
1109	1	1
1110	1	1
1111	0	0.992424
1112	0	1
1113	1	1
1114	1	1
1115	1	1
1116	1	1
1117	1	1
1118	1	1
1119	1	1
1120	1	1
1121	0	0.962941
1122	0	0.333333
1123	0	0.333333
1124	0	0.333333
1125	0	0.333333
1126	0	0.333333
1127	0	0.977388
1128	0	0.977388
1129	0	0
1130	0	0
1131	0	0
1132	0	0
1133	0	0
1134	0	0
1135	0	0
1136	0	0
1137	0	0
1138	0	0
1139	0	0
1140	0	0
1141	0	0
1142	0	0
1143	0	0
1144	0	0
1145	0	0
1146	0	0
1147	0	0
1148	1	1
1149	1	1
1150	1	1
1151	1	1
1152	1	1
1153	1	1
1154	1	1
1155	0	1
1156	0	1
1157	0	1
1158	0	1
1159	0	1
1160	0	1
1161	0	1
1162	0	1
1163	1	1
1164	1	1
1165	1	1
1166	1	1
1167	1	1
1168	1	1
1169	1	1
1170	1	1
1171	1	1
1172	1	1
1173	1	1
1174	1	1
1175	1	1
1176	1	1
1177	1	1
1178	1	1
1179	1	1
1180	1	1
1181	1	1
1182	1	1
1183	1	1
1184	1	1
1185	1	1
1186	1	1
1187	1	1
1188	1	1
1189	1	1
1190	1	1
1191	1	1
1192	1	1
1193	1	1
1194	1	1
1195	1	1
1196	1	1
1197	1	1
1198	1	1
1199	1	1
1200	1	1
1201	1	1
1202	1	1
1203	1	1
1204	1	1
1205	1	1
1206	1	1
1207	1	1
1208	1	1
1209	1	1
1210	1	1
1211	1	1
1212	1	1
1213	1	1
1214	1	1
1215	1	1
1216	1	1
1217	1	1
1218	1	1
1219	1	1
1220	1	1
1221	0	0.955317
1222	0	0.737892
1223	0	0.94774
1224	0	0.68442
1225	0	0.418021
1226	0	0.418021
1227	0	0.418021
1228	0	0.413844
1229	0	0.6
1230	0	0.6
1231	0	0.6
1232	0	0.6
1233	0	0.6
1234	0	0.3
1235	0	0.1
1236	0	0.1
1237	0	0.1
1238	0	0.1
1239	0	0.1
1240	0	0.1
1241	0	0.1
1242	0	0.1
1243	0	0
1244	0	0
1245	0	0
1246	0	0
1247	0	0
1248	0	0
1249	0	0
1250	0	0
1251	0	0
1252	0	0
1253	0	0
1254	0	0
1255	0	0
1256	0	0
1257	0	0
1258	0	0
1259	0	0
1260	0	0
1261	0	0
1262	0	0
1263	0	0
1264	0	0
1265	0	0
1266	0	0
1267	0	0
1268	0	0
1269	0	0
1270	0	0
1271	0	0
1272	0	0
1273	0	0
1274	0	0
1275	0	0
1276	0	0
1277	0	0
1278	0	0
1279	0	0
1280	0	0
1281	0	0
1282	0	0
1283	0	0
1284	0	0
1285	0	0
1286	0	0
1287	0	0
1288	0	0
1289	0	0
1290	0	0
1291	0	0
1292	0	0
1293	0	0
1294	0	0
1295	0	0
1296	0	0
1297	0	0
1298	0	0
1299	0	0
1300	0	0
1301	0	0
1302	0	0
1303	0	0
1304	0	0
1305	0	0
1306	0	0
1307	0	0
1308	0	0
1309	0	0
1310	0	0
1311	0	0
1312	0	0
1313	0	0
1314	0	0
1315	0	0
1316	0	0
1317	0	0
1318	0	0
1319	0	0
1320	0	0
1321	0	0
1322	0	0
1323	0	0
1324	0	0
1325	0	0
1326	0	0
1327	0	0
1328	0	0
1329	0	0
1330	0	0
1331	0	0
1332	0	0
1333	0	0
1334	0	0
1335	0	0
1336	0	0
1337	0	0
1338	0	0
1339	0	0
1340	0	0
1341	0	0
1342	0	0
1343	0	0
1344	0	0
1345	0	0
1346	0	0
1347	0	0
1348	0	0.166667
1349	0	0.166667
1350	0	0.166667
1351	0	0.166667
1352	0	0.166667
1353	0	0.166667
1354	0	0.166667
1355	0	0.166667
1356	0	0.166667
1357	0	0.166667
1358	0	0.166667
1359	0	0.166667
1360	0	0.166667
1361	0	0.166667
1362	0	0.166667
1363	0	0.166667
1364	0	0.166667
1365	0	0.166667
1366	0	0.166667
1367	0	0.166667
1368	0	0.166667
1369	0	0.166667
1370	0	0.166667
1371	0	0.166667
1372	0	0.166667
1373	0	0.166667
1374	0	0.166667
1375	0	0.166667
1376	0	0.166667
1377	0	0
1378	0	0
1379	0	0
1380	0	0
1381	0	0
1382	0	0
1383	0	0
1384	0	0
1385	0	0
1386	0	0
1387	0	0
1388	0	0
1389	0	0
1390	0	0
1391	0	0
1392	0	0
1393	0	0
1394	0	0
1395	0	0
1396	0	0
1397	0	0
1398	0	0
1399	0	0
1400	0	0
1401	0	0
1402	0	0
1403	0	0
1404	0	0
1405	0	0
1406	0	0
1407	0	0
1408	0	0
1409	0	0
1410	0	0
1411	0	0
1412	0	0
1413	0	0
1414	0	0
1415	0	0
1416	0	0
1417	0	0
1418	0	0
1419	0	0
1420	0	0
1421	0	0
1422	0	0
1423	0	0
1424	0	0
1425	0	0
1426	0	0
1427	0	0
1428	0	0
1429	0	0
1430	0	0
1431	0	0
1432	0	0
1433	0	0
1434	0	0
1435	0	0
1436	0	0
1437	0	0
1438	0	0
1439	0	0
1440	0	0
1441	0	0
1442	0	0
1443	0	0
1444	0	0
1445	0	0
1446	0	0
1447	0	0
1448	0	0
1449	0	0
1450	0	0
1451	0	0
1452	0	0
1453	0	0
1454	0	0
1455	0	0
1456	0	0
1457	0	0
1458	0	0
1459	0	0
1460	0	0
1461	0	0
1462	0	0
1463	0	0
1464	0	0
1465	0	0
1466	0	0
1467	0	0
1468	0	0
1469	0	0
1470	0	0
1471	0	0
1472	0	0
1473	0	0
1474	0	0
1475	0	0
1476	0	0
1477	0	0
1478	0	0
1479	0	0
1480	0	0
1481	0	0
1482	0	0
1483	0	0
1484	0	0
1485	0	0
1486	0	0
1487	0	0
1488	0	0
1489	0	0
1490	0	0
1491	0	0
1492	0	0
1493	0	0
1494	0	0
1495	0	0
1496	0	0
1497	0	0
1498	0	0
1499	0	0
1500	0	0
1501	0	0
1502	0	0
1503	0	0
1504	0	0
1505	0	0
1506	0	0
1507	0	0
1508	0	0
1509	0	0
1510	0	0
1511	0	0
1512	0	0
1513	0	0
1514	0	0
1515	0	0
1516	0	0
1517	0	0
1518	0	0
1519	0	0
1520	0	0
1521	0	0
1522	0	0
1523	0	0
1524	0	0
1525	0	0
1526	0	0
1527	0	0
1528	0	0
1529	0	0
1530	0	0
1531	0	0
1532	0	0
1533	0	0
1534	0	0
1535	0	0
1536	0	0
1537	0	0
1538	0	0
1539	0	0
1540	0	0
1541	0	0
1542	0	0
1543	0	0
1544	0	0
1545	0	0
1546	0	0
1547	0	0
1548	0	0
1549	0	0
1550	0	0
1551	0	0
1552	0	0
1553	0	0
1554	0	0
1555	0	0
1556	0	0
1557	0	0
1558	0	0
1559	0	0
1560	0	0
1561	0	0
1562	0	0
1563	0	0
1564	0	0
1565	0	0
1566	0	0
1567	0	0
1568	0	0
1569	0	0
1570	0	0
1571	0	0
1572	0	0
1573	0	0
1574	0	0
1575	0	0
1576	0	0
1577	0	0
1578	0	0
1579	0	0
1580	0	0
1581	0	0
1582	0	0
1583	0	0
1584	0	0
1585	0	0
1586	0	0
1587	0	0
1588	0	0
1589	0	0
1590	0	0
1591	0	0
1592	0	0
1593	0	0
1594	0	0
1595	0	0
1596	0	0
1597	0	0
1598	0	0
1599	0	0
1600	0	0
1601	0	0
1602	0	0
1603	0	0
1604	0	0
1605	0	0
1606	0	0
1607	0	0
1608	0	0
1609	0	0
1610	0	0
1611	0	0
1612	0	0
1613	0	0
1614	0	0
1615	0	0
1616	0	0
1617	0	0
1618	0	0
1619	0	0
1620	0	0
1621	0	0
1622	0	0
1623	0	0
1624	0	0
1625	0	0
1626	0	0
1627	0	0
1628	0	0
1629	0	0
1630	0	0
1631	0	0
1632	0	0
1633	0	0
1634	0	0
1635	0	0
1636	0	0
1637	0	0
1638	0	0
1639	0	0
1640	0	0
1641	0	0
1642	0	0
1643	0	0
1644	0	0
1645	0	0
1646	0	0
1647	0	0
1648	0	0
1649	0	0
1650	0	0
1651	0	0
1652	0	0
1653	0	0
1654	0	0
1655	0	0
1656	0	0
1657	0	0
1658	1	0
1659	1	0
1660	1	0
1661	1	0
1662	1	0
1663	1	0
1664	1	0
1665	0	0
1666	0	0
1667	0	0
1668	0	0
1669	0	0
1670	0	0
1671	0	0
1672	0	0
1673	0	0
1674	1	0
1675	1	0
1676	1	0
1677	1	0
1678	1	0
1679	1	0
1680	1	0
1681	1	0
1682	1	0
1683	1	0
1684	1	0
1685	1	0
1686	1	0
1687	1	0
1688	1	0
1689	1	0
1690	1	0
1691	1	0
1692	1	0
1693	1	0
1694	1	0
1695	1	0
1696	1	0
1697	1	0
1698	1	0
1699	1	0
1700	1	0
1701	1	0
1702	1	0
1703	1	0
1704	1	0
1705	1	0
1706	1	0
1707	1	0
1708	1	0
1709	1	0
1710	1	0
1711	1	0
1712	1	0
1713	1	0
1714	1	0
1715	1	0
1716	1	0
1717	1	0
1718	1	0
1719	1	0
1720	1	0
1721	1	0
1722	1	0
1723	1	0
1724	1	0
1725	1	0
1726	1	0
1727	1	0
1728	1	0
1729	1	0
1730	1	0
1731	1	0
1732	1	0
1733	1	0
1734	1	0
1735	1	0
1736	1	0
1737	1	0
1738	1	0
1739	1	0
1740	1	0
1741	1	0
1742	1	0
1743	1	0
1744	1	0
1745	1	0
1746	1	0
1747	1	0
1748	1	0
1749	1	0
1750	1	0
1751	1	0
1752	1	0
1753	1	0
1754	1	0
1755	1	0
1756	1	0
1757	1	0
1758	1	0
1759	1	0
1760	1	0
1761	1	0
1762	1	0
1763	1	0
1764	1	0
1765	1	0
1766	1	0
1767	1	0
1768	1	0
1769	1	0
1770	1	0
1771	1	0
1772	1	0
1773	1	0
1774	1	0
1775	1	0
1776	1	0
1777	1	0
1778	1	0
1779	1	0
1780	1	0
1781	1	0
1782	1	0
1783	1	0
1784	1	0
1785	1	0
1786	1	0
1787	1	0
1788	1	0
1789	1	0
1790	1	0
1791	1	0
1792	1	0
1793	1	0
1794	1	0
1795	1	0
1796	1	0
1797	1	0
1798	1	0
1799	1	0
1800	1	0
1801	1	0
1802	1	0
1803	1	0
1804	1	0
1805	1	0
1806	1	0
1807	1	0
1808	1	0
1809	1	0
1810	1	0
1811	1	0
1812	1	0
1813	1	0
1814	1	0
1815	1	0
1816	1	0
1817	1	0
1818	1	0
1819	1	0
1820	1	0
1821	1	0
1822	1	0
1823	1	0
1824	1	0
1825	1	0
1826	1	0
1827	1	0
1828	1	0
1829	1	0
1830	1	0
1831	1	0
1832	1	0
1833	1	0
1834	1	0
1835	1	0
1836	1	0
1837	1	0
1838	1	0
1839	1	0
1840	1	0
1841	1	0
1842	1	0
1843	1	0
1844	1	0
1845	1	0
1846	1	0
1847	1	0
1848	1	0
1849	1	0
1850	1	0
1851	1	0
1852	1	0
1853	1	0
1854	1	0
1855	1	0
1856	1	0
1857	1	0
1858	1	0
1859	1	0
1860	1	0
1861	1	0
1862	1	0
1863	1	0
1864	1	0
1865	1	0
1866	1	0
1867	1	0
1868	1	0
1869	1	0
1870	1	0
1871	1	0
1872	1	0
1873	1	0
1874	1	0
1875	1	0
1876	1	0
1877	1	0
1878	1	0
1879	1	0
1880	1	0
1881	1	0
1882	1	0
1883	1	0
1884	1	0
1885	1	0
1886	1	0
1887	1	0
1888	1	0
1889	1	0
1890	1	0
1891	1	0
1892	1	0
1893	1	0
1894	1	0
1895	1	0
1896	1	0
1897	1	0
1898	1	0
1899	1	0
1900	1	0
1901	1	0
1902	1	0
1903	1	0
1904	1	0
1905	1	0
1906	1	0
1907	1	0
1908	1	0
1909	1	0
1910	1	0
1911	1	0
1912	1	0
1913	1	0
1914	1	0
1915	1	0
1916	1	0
1917	1	0
1918	1	0
1919	1	0
1920	1	0
1921	1	0
1922	1	0
1923	1	0
1924	1	0
1925	1	0
1926	1	0
1927	1	0
1928	1	0
1929	1	0
1930	1	0
1931	1	0
1932	1	0
1933	1	0
1934	1	0
1935	1	0
1936	1	0
1937	1	0
1938	1	0
1939	1	0
1940	1	0
1941	1	0
1942	1	0
1943	1	0
1944	1	0
1945	1	0
1946	1	0
1947	1	0
1948	1	0
1949	1	0
1950	1	0
1951	1	0
1952	1	0
1953	1	0
1954	1	0
1955	1	0
1956	1	0
1957	1	0
1958	1	0
1959	1	0
1960	1	0
1961	1	0
1962	1	0
1963	1	0
1964	1	0
1965	1	0
1966	1	0
1967	1	0
1968	1	0
1969	1	0
1970	1	0
1971	1	0
1972	1	0
1973	1	0
1974	1	0
1975	1	0
1976	1	0
1977	1	0
1978	1	0
1979	1	0
1980	1	0
1981	1	0
1982	1	0
1983	1	0
1984	1	0
1985	1	0
1986	1	0
1987	1	0
1988	1	0
1989	1	0
1990	1	0
1991	1	0
1992	1	0
1993	1	0
1994	1	0
1995	1	0
1996	1	0
1997	1	0
1998	1	0
1999	1	0
2000	1	0
2001	1	0
2002	1	0
2003	1	0
2004	1	0
2005	1	0
2006	1	0
2007	1	0
2008	1	0
2009	1	0
2010	1	0
2011	1	0
2012	1	0
2013	1	0
2014	1	0
2015	1	0
2016	1	0
2017	1	0
2018	1	0
2019	1	0
2020	1	0
2021	1	0
2022	1	0
2023	1	0
2024	1	0
2025	1	0
2026	1	0
2027	1	0
2028	1	0
2029	1	0
2030	1	0
2031	1	0
2032	1	0
2033	1	0
2034	1	0
2035	1	0
2036	1	0
2037	1	0
2038	1	0
2039	1	0
2040	1	0
2041	1	0
2042	1	0
2043	1	0
2044	1	0
2045	1	0
2046	1	0
2047	1	0
2048	1	0
2049	1	0
2050	1	0
2051	1	0
2052	1	0
2053	1	0
2054	1	0
2055	1	0
2056	1	0
2057	1	0
2058	1	0
2059	1	0
2060	1	0
2061	1	0
2062	1	0
2063	1	0
2064	1	0
2065	1	0
2066	1	0
2067	1	0
2068	1	0
2069	1	0
2070	1	0
2071	1	0
2072	1	0
2073	1	0
2074	1	0
2075	1	0
2076	1	0
2077	1	0
2078	1	0
2079	1	0
2080	1	0
2081	1	0
2082	1	0
2083	1	0
2084	1	0
2085	1	0
2086	1	0
2087	1	0
2088	1	0
2089	1	0
2090	1	0
2091	1	0
2092	1	0
2093	1	0
2094	1	0
2095	1	0
2096	1	0
2097	1	0
2098	1	0
2099	1	0
2100	1	0
2101	1	0
2102	1	0
2103	1	0
2104	1	0
2105	1	0
2106	1	0
2107	1	0
2108	1	0
2109	1	0
2110	1	0
2111	1	0
2112	1	0
2113	1	0
2114	1	0
2115	1	0
2116	1	0
2117	1	0
2118	1	0
2119	1	0
2120	1	0
2121	1	0
2122	1	0
2123	1	0
2124	1	0
2125	1	0
2126	1	0
2127	1	0
2128	1	0
2129	1	0
2130	1	0
2131	1	0
2132	1	0
2133	1	0
2134	1	0
2135	1	0
2136	1	0
2137	1	0
2138	1	0
2139	1	0
2140	1	0
2141	1	0
2142	1	0
2143	1	0
2144	1	0
2145	1	0
2146	1	0
2147	1	0
2148	1	0
2149	1	0
2150	1	0
2151	1	0
2152	1	0
2153	1	0
2154	1	0
2155	1	0
2156	1	0
2157	1	0
2158	1	0
2159	1	0
2160	1	0
2161	1	0
2162	1	0
2163	1	0
2164	1	0
2165	1	0
2166	1	0
2167	1	0
2168	1	0
2169	1	0
2170	1	0
2171	1	0
2172	1	0
2173	1	0
2174	1	0
2175	1	0
2176	1	0
2177	1	0
2178	1	0
2179	1	0
2180	1	0
2181	1	0
2182	1	0
2183	1	0
2184	1	0
2185	1	0
2186	1	0
2187	1	0
2188	1	0
2189	1	0
2190	1	0
2191	1	0
2192	1	0
2193	1	0
2194	1	0
2195	1	0
2196	1	0
2197	1	0
2198	1	0
2199	1	0
2200	1	0
2201	1	0
2202	1	0
2203	1	0
2204	1	0
2205	1	0
2206	1	0
2207	1	0
2208	1	0
2209	1	0
2210	1	0
2211	1	0
2212	1	0
2213	1	0
2214	1	0
2215	1	0
2216	1	0
2217	1	0
2218	1	0
2219	1	0
2220	1	0
2221	1	0
2222	1	0
2223	1	0
2224	1	0
2225	1	0
2226	1	0
2227	1	0
2228	1	0
2229	1	0
2230	1	0
2231	1	0
2232	1	0
2233	1	0
2234	1	0
2235	1	0
2236	1	0
2237	1	0
2238	1	0
2239	1	0
2240	1	0
2241	1	0
2242	1	0
2243	1	0
2244	1	0
2245	1	0
2246	1	0
2247	1	0
2248	1	0
2249	1	0
2250	1	0
2251	1	0
2252	1	0
2253	1	0
2254	1	0
2255	1	0
2256	1	0
2257	1	0
2258	1	0
2259	1	0
2260	1	0
2261	1	0
2262	1	0
2263	1	0
2264	1	0
2265	1	0
2266	1	0
2267	1	0
2268	1	0
2269	1	0
2270	1	0
2271	1	0
2272	1	0
2273	1	0
2274	1	0
2275	1	0
2276	1	0
2277	1	0
2278	1	0
2279	1	0
2280	1	0
2281	1	0
2282	1	0
2283	1	0
2284	1	0
2285	1	0
2286	1	0
