Site	ColumnScore	SumOfPairsScore
1	0	0
2	0	0
3	0	0
4	0	0
5	0	0
6	0	0
7	0	0
8	0	0
9	0	0
10	0	0
11	0	0
12	0	0
13	0	0
14	0	0
15	0	0
16	1	0
17	1	0
18	1	0
19	1	0
20	0	0
21	0	0
22	0	0
23	0	0
24	0	0
25	0	0
26	0	0
27	0	0
28	0	0
29	0	0
30	0	0
31	0	0
32	0	0
33	0	0
34	0	0
35	0	0
36	0	0
37	0	0.181818
38	0	0.10989
39	0	0.10989
40	0	0.0684211
41	0	0.0700758
42	0	0.054878
43	0	0.0707071
44	0	0.158947
45	0	0.118247
46	0	0.115602
47	0	0.113293
48	0	0.110049
49	0	0.106626
50	0	0.107333
51	0	0.161905
52	0	0.157143
53	0	0.157143
54	0	0.119565
55	0	0.126154
56	0	0.148611
57	0	0.0822511
58	0	0.0789474
59	0	0.075
60	0	0.11658
61	0	0.111108
62	0	0
63	0	0
64	0	0
65	0	0
66	0	0
67	0	0
68	0	0
69	0	0
70	0	0
71	0	0
72	0	0
73	0	0
74	0	0
75	0	0
76	0	0
77	0	0
78	0	0.184211
79	0	0.13
80	0	0.12381
81	0	0.11471
82	0	0.384008
83	0	0.367316
84	0	0.343388
85	0	0.227919
86	0	0.223336
87	0	0.227355
88	0	0.214825
89	0	0.203434
90	0	0.252787
91	0	0.244918
92	0	0.241618
93	0	0.260163
94	0	0.259116
95	0	0.259406
96	0	0.259213
97	0	1
98	0	1
99	0	0.333333
100	0	0.47619
101	0	0.777778
102	0	0.435897
103	0	0.426901
104	0	0.320565
105	0	0.315126
106	0	0.308702
107	0	0.487161
108	0	0.50566
109	0	0.50566
110	0	0.50566
111	0	0.50566
112	0	0.50566
113	0	0.50566
114	0	0.50095
115	0	0.501873
116	0	0.49258
117	0	0.496297
118	0	0.496297
119	0	0
120	0	0
121	0	0
122	0	0
123	0	0
124	0	0
125	0	0
126	0	0
127	0	0
128	0	0
129	0	0.956288
130	0	0.50566
131	0	0.506575
132	0	0.506575
133	0	0.506575
134	0	0.506575
135	0	0.506575
136	0	0.506575
137	0	0.506575
138	0	0.506575
139	0	0.506575
140	0	0.507491
141	0	0.507491
142	0	0.507491
143	0	0.507491
144	0	0.507491
145	0	0.507491
146	0	0.927889
147	0	0.927889
148	0	0.927889
149	0	0.927889
150	0	0.927889
151	0	0.832411
152	0	0.832411
153	0	0.832411
154	0	0.832411
155	0	0.832411
156	0	0.47954
157	0	0
158	0	0
159	0	0
160	0	0
161	0	0
162	0	0
163	0	0
164	0	0
165	0	0
166	0	0
167	0	0
168	0	0.729055
169	0	1
170	0	0.4
171	0	0.218182
172	0	0.26087
173	0	0.292754
174	0	0.8
175	0	0.488889
176	0	0.644444
177	0	0.644444
178	0	0.644444
179	0	0.644444
180	0	0.777778
181	0	0.777778
182	0	0.777778
183	0	0.777778
184	0	0.777778
185	0	0.777778
186	0	0.777778
187	0	0.777778
188	0	0.777778
189	0	0.777778
190	0	0.777778
191	0	0.777778
192	0	0.777778
193	0	0.777778
194	0	0.777778
195	0	0.777778
196	0	0.777778
197	0	0.777778
198	0	0.777778
199	0	0.777778
200	0	0.777778
201	0	1
202	0	1
203	0	1
204	0	1
205	0	1
206	0	1
207	0	1
208	0	1
209	0	1
210	0	1
211	0	1
212	0	1
213	0	1
214	0	1
215	0	1
216	0	1
217	1	1
218	0	1
219	0	1
220	0	1
221	0	1
222	0	1
223	0	1
224	0	1
225	0	1
226	0	1
227	0	1
228	0	1
229	0	1
230	0	1
231	0	1
232	0	1
233	0	1
234	0	1
235	0	1
236	0	1
237	0	1
238	0	1
239	0	1
240	0	1
241	0	1
242	0	1
243	0	1
244	0	1
245	0	1
246	0	1
247	0	1
248	0	1
249	0	1
250	0	1
251	0	1
252	0	1
253	0	1
254	0	1
255	0	1
256	0	1
257	0	0.8
258	0	0.8
259	0	0
260	0	0.4
261	0	0.285714
262	0	0.316896
263	0	0.314696
264	0	0.311845
265	0	0
266	0	0.47619
267	0	0.47619
268	0	0.244444
269	0	0.218182
270	0	0.252632
271	0	0.173453
272	0	0.160699
273	0	0.145358
274	0	0.126543
275	0	0.108911
276	0	0.105301
277	0	0.102024
278	0	0.0971424
279	0	0.333333
280	0	0.333333
281	0	0.166667
282	0	0.116667
283	0	0.0845492
284	0	0.078456
285	0	0.0778691
286	0	0
287	0	0
288	0	0
289	0	0
290	0	0
291	0	0
292	0	0
293	0	0.0748495
294	0	0.6
295	0	0.6
296	0	0.6
297	0	0.6
298	0	0.285714
299	0	0.0604167
300	0	0.0556066
301	0	0.0508876
302	0	1
303	0	1
304	0	1
305	0	0.0519994
306	0	0.0447229
307	0	0.0400964
308	0	0.0358247
309	0	0.0407596
310	0	0.0436339
311	0	0
312	0	0
313	0	0
314	0	0.461538
315	0	0.461538
316	0	0.545455
317	0	0.654545
318	0	0.8
319	0	0.8
320	0	0.8
321	0	0.8
322	0	0.8
323	0	0.8
324	0	0.8
325	0	0.8
326	0	0.654545
327	0	0.654545
328	0	0.654545
329	0	0.545455
330	0	0.545455
331	0	0.654545
332	0	0.654545
333	0	0.545455
334	0	0.545455
335	0	0.545455
336	0	0.395604
337	0	0.3
338	0	0.185714
339	0	0.13
340	0	0.102823
341	0	0.106607
342	0	0.089701
343	0	0.0983709
344	0	0.0958504
345	0	0.0851624
346	0	0.100548
347	0	0.0804378
348	0	0.0830721
349	0	0.132318
350	0	0.133555
351	0	0.163333
352	0	0.165025
353	0	0.0797903
354	0	0.0860027
355	0	0.116883
356	0	0.57
357	0	0.57
358	0	0.127478
359	0	0.127872
360	0	0.306878
361	0	0.470443
362	0	0.43908
363	0	0.119969
364	0	0.117472
365	0	0.140092
366	0	0.141687
367	0	0.158609
368	0	0.0831579
369	0	0.0924658
370	0	0.153197
371	0	0.196929
372	0	0.300363
373	0	0.331908
374	0	0.488889
375	0	0.75
376	0	1
377	0	0.392497
378	0	0.40892
379	0	0.292335
380	0	0.471612
381	0	0.477571
382	0	0.477883
383	0	0
384	0	0
385	0	0
386	0	1
387	0	1
388	0	1
389	0	1
390	0	0.958978
391	0	0.985047
392	0	0.977724
393	0	0.977724
394	0	0.977724
395	0	0.935043
396	0	0.977724
397	0	1
398	1	1
399	1	1
400	1	1
401	1	1
402	1	1
403	1	1
404	1	1
405	1	1
406	1	1
407	1	1
408	1	1
409	1	1
410	1	1
411	1	1
412	1	1
413	1	1
414	1	1
415	1	1
416	1	1
417	1	1
418	1	1
419	1	1
420	1	1
421	1	1
422	1	1
423	1	1
424	1	1
425	1	1
426	1	1
427	1	1
428	1	1
429	1	1
430	1	1
431	1	1
432	0	0
433	0	0
434	0	0
435	0	0
436	0	0
437	0	0
438	0	0
439	0	0
440	1	1
441	1	1
442	1	1
443	1	1
444	1	1
445	1	1
446	1	1
447	1	1
448	1	1
449	1	1
450	1	1
451	1	1
452	1	1
453	1	1
454	1	1
455	1	1
456	1	1
457	1	1
458	1	1
459	1	1
460	1	1
461	0	1
462	0	0.612611
463	0	0.612611
464	1	1
465	1	1
466	1	1
467	1	1
468	1	1
469	1	1
470	1	1
471	1	1
472	1	1
473	0	0
474	0	0
475	0	0
476	0	0.333333
477	0	0.333333
478	0	0.977724
479	0	0.992537
480	0	0.992537
481	0	0.992537
482	0	0.992537
483	0	0.992537
484	0	0.992537
485	0	0.992537
486	0	0.992537
487	1	1
488	1	1
489	1	1
490	1	1
491	1	1
492	1	1
493	1	1
494	1	1
495	1	1
496	1	1
497	1	1
498	1	1
499	1	1
500	1	1
501	0	0.992537
502	0	0.992537
503	0	0.992537
504	0	0.992537
505	0	1
506	0	0.712644
507	0	0.573996
508	1	1
509	0	0.977614
510	0	0.977614
511	0	0.970123
512	0	0.970123
513	0	0.962941
514	0	0.962941
515	0	0
516	0	0.981439
517	0	0
518	0	0
519	0	0
520	0	0
521	0	0.593895
522	0	0.772596
523	0	0.597175
524	0	0.323179
525	0	0.382557
526	0	0
527	0	0.546991
528	0	1
529	1	1
530	1	1
531	1	1
532	1	1
533	1	1
534	1	1
535	1	1
536	1	1
537	1	1
538	1	1
539	1	1
540	1	1
541	1	1
542	1	1
543	1	1
544	1	1
545	1	1
546	1	1
547	1	1
548	1	1
549	1	1
550	1	1
551	1	1
552	1	1
553	1	1
554	1	1
555	1	1
556	1	1
557	1	1
558	0	0.97778
559	1	1
560	0	1
561	1	1
562	1	1
563	1	1
564	1	1
565	1	1
566	1	1
567	1	1
568	1	1
569	1	1
570	1	1
571	1	1
572	1	1
573	1	1
574	1	1
575	1	1
576	1	1
577	1	1
578	1	1
579	1	1
580	1	1
581	1	1
582	1	1
583	1	1
584	1	1
585	1	1
586	1	1
587	1	1
588	1	1
589	1	1
590	1	1
591	1	1
592	1	1
593	1	1
594	1	1
595	1	1
596	1	1
597	1	1
598	1	1
599	1	1
600	1	1
601	1	1
602	1	1
603	1	1
604	1	1
605	1	1
606	1	1
607	1	1
608	1	1
609	1	1
610	1	1
611	1	1
612	1	1
613	1	1
614	1	1
615	1	1
616	1	1
617	1	1
618	1	1
619	1	1
620	1	1
621	1	1
622	1	1
623	1	1
624	1	1
625	1	1
626	1	1
627	1	1
628	1	1
629	1	1
630	1	1
631	1	1
632	1	1
633	1	1
634	1	1
635	1	1
636	1	1
637	1	1
638	1	1
639	1	1
640	1	1
641	1	1
642	1	1
643	1	1
644	1	1
645	1	1
646	1	1
647	1	1
648	1	1
649	1	1
650	1	1
651	1	1
652	1	1
653	0	0
654	0	0
655	0	0
656	0	0
657	0	0
658	0	0
659	0	0
660	0	0
661	0	0
662	0	0
663	0	0
664	0	0
665	0	0
666	0	0
667	0	0.166667
668	0	0.1
669	0	0.0666667
670	0	0.878509
671	0	0.771907
672	0	0.429752
673	0	0.392643
674	0	0.366877
675	0	0.386069
676	0	0.387289
677	0	0.378068
678	0	0.330146
679	0	0.329777
680	0	1
681	0	1
682	0	0.227381
683	0	0
684	0	0
685	0	0
686	0	0
687	0	0
688	0	0.635213
689	0	0.538056
690	0	0
691	0	0
692	0	0
693	0	0
694	0	0
695	0	0.646238
696	0	0
697	0	0
698	0	0.184849
699	0	0.161354
700	0	0.165126
701	0	0.162573
702	0	0.3
703	0	0
704	0	0
705	0	0
706	0	0
707	0	0
708	0	0
709	0	0
710	0	0
711	0	0.200383
712	0	0.212307
713	0	0.228751
714	0	0.224444
715	0	0.217104
716	0	0.210374
717	0	0.289776
718	0	0.302566
719	0	0.269108
720	0	0.233747
721	0	0.047619
722	0	0
723	0	0
724	0	0
725	0	0
726	0	0
727	0	0
728	0	0.211503
729	0	0.333333
730	0	0.251299
731	0	0.191332
732	0	0.197445
733	0	0.195195
734	0	0.149826
735	0	0.236786
736	0	0.208537
737	0	0.245847
738	0	0.222222
739	0	0.178571
740	0	0.3
741	0	0.142857
742	0	0.0666667
743	0	0.0666667
744	0	0
745	0	0
746	0	0
747	0	0.166667
748	0	0.166667
749	0	0.166667
750	0	0.166667
751	0	0
752	0	0
753	0	0.190244
754	0	0.184146
755	0	0.215854
756	0	0.2
757	0	0.16715
758	0	0.164251
759	0	0.123232
760	0	0.122622
761	0	0.114165
762	0	0.112957
763	0	0.103175
764	0	0.116883
765	0	0.119048
766	0	0.142857
767	0	0.230769
768	0	0.305556
769	0	0.392857
770	0	0.392857
771	0	0.666667
772	0	0.666667
773	0	1
774	0	1
775	0	1
776	0	1
777	0	0
778	0	0
779	0	0
780	0	0
781	0	0
782	0	0
783	0	0.3
784	0	0.127984
785	0	0.251226
786	0	0.132572
787	0	0.134035
788	0	0.142509
789	0	0.282313
790	0	0.15428
791	0	0.134365
792	0	0.181527
793	0	0.179089
794	0	0.357143
795	0	0.714286
796	0	0.357143
797	0	0.290909
798	0	0.274725
799	0	0.295238
800	0	0.316667
801	0	0.316667
802	0	0.191176
803	0	0.444444
804	0	0.444444
805	0	0.223399
806	0	0.262907
807	0	0.166667
808	0	0.265872
809	0	0.272439
810	0	0.273419
811	0	0.275628
812	0	0.333333
813	0	0.333333
814	0	0.275131
815	0	0.275825
816	0	0.259863
817	0	0.255675
818	0	0.199216
819	0	0.18032
820	0	0
821	0	0
822	0	0
823	0	0
824	0	0.215083
825	0	0.333333
826	0	0.294872
827	0	0.294872
828	0	0.241758
829	0	0.420807
830	0	0.413793
831	0	0.250871
832	0	0.169892
833	0	0.156443
834	0	0.329469
835	0	0.27002
836	0	0.328854
837	0	0.466667
838	0	0.560606
839	0	0.31973
840	0	0.287564
841	0	0.295912
842	0	0.295049
843	0	0.296042
844	0	0
845	0	0
846	0	0.731092
847	0	0
848	0	1
849	0	1
850	0	0.830376
851	0	0.839094
852	0	0.852401
853	0	0.919583
854	0	0.984934
855	0	0.984934
856	0	0.992424
857	0	0.992424
858	0	0.984934
859	0	0.984406
860	0	0.926305
861	0	0.923781
862	0	1
863	0	1
864	0	1
865	1	0
866	1	0
867	1	0
868	1	0
869	1	0
870	1	0
871	1	0
872	1	0
873	1	0
874	1	0
875	1	0
876	1	0
877	1	0
878	1	0
879	1	0
880	1	0
881	1	0
882	1	0
883	1	0
884	1	0
885	1	0
886	1	0
887	1	0
888	1	0
889	1	0
890	1	0
891	1	0
892	1	0
893	1	0
894	1	0
895	1	0
896	1	0
897	1	0
898	1	0
899	1	0
900	1	0
901	1	0
902	1	0
903	1	0
904	1	0
905	1	0
906	1	0
907	1	0
908	1	0
909	1	0
910	1	0
911	1	0
912	1	0
913	1	0
914	1	0
915	1	0
916	1	0
917	1	0
918	1	0
919	1	0
920	1	0
921	1	0
922	1	0
923	1	0
924	1	0
925	1	0
926	1	0
927	1	0
928	1	0
929	1	0
930	1	0
931	1	0
932	1	0
933	1	0
934	1	0
935	1	0
936	1	0
937	1	0
938	1	0
939	1	0
940	1	0
941	1	0
942	1	0
943	1	0
944	1	0
945	1	0
946	1	0
947	1	0
948	1	0
949	1	0
950	1	0
951	1	0
952	1	0
953	1	0
954	1	0
955	1	0
956	1	0
957	1	0
958	1	0
959	1	0
960	1	0
961	1	0
962	1	0
963	1	0
964	1	0
965	1	0
966	1	0
967	1	0
968	1	0
969	1	0
970	1	0
971	1	0
972	1	0
973	1	0
974	1	0
975	1	0
976	1	0
977	1	0
978	1	0
979	1	0
980	1	0
981	1	0
982	1	0
983	1	0
984	1	0
985	1	0
986	1	0
987	1	0
988	1	0
989	1	0
990	1	0
991	1	0
992	1	0
993	1	0
994	1	0
995	1	0
996	1	0
997	1	0
998	1	0
999	1	0
1000	1	0
1001	1	0
1002	1	0
1003	1	0
1004	1	0
1005	1	0
1006	1	0
1007	1	0
1008	1	0
1009	1	0
1010	1	0
1011	1	0
1012	1	0
1013	1	0
1014	1	0
1015	1	0
1016	1	0
1017	1	0
1018	1	0
1019	1	0
1020	1	0
1021	1	0
1022	1	0
1023	1	0
1024	1	0
1025	1	0
1026	1	0
1027	1	0
1028	1	0
1029	1	0
1030	1	0
1031	1	0
1032	1	0
1033	1	0
1034	1	0
1035	1	0
1036	1	0
1037	1	0
1038	1	0
1039	1	0
1040	1	0
1041	1	0
1042	1	0
1043	1	0
