Site	ColumnScore	SumOfPairsScore
1	0	1
2	0	1
3	0	1
4	1	1
5	1	1
6	0	1
7	0	1
8	0	1
9	0	1
10	0	1
11	0	1
12	0	1
13	0	1
14	0	1
15	0	1
16	0	1
17	0	1
18	0	1
19	0	1
20	0	1
21	0	1
22	0	1
23	0	1
24	0	1
25	0	1
26	0	1
27	0	1
28	0	1
29	0	1
30	0	1
31	0	1
32	0	1
33	0	0.4
34	0	0.359998
35	0	0.613359
36	0	0.67013
37	0	0.67013
38	0	1
39	0	0.613247
40	0	0.885078
41	0	0.885359
42	0	0.871167
43	0	0.871167
44	0	0.912337
45	0	0.166667
46	0	0.25
47	0	0.333333
48	0	0.333333
49	0	0.333333
50	0	0.333333
51	0	0.333333
52	0	0.333333
53	0	0.333333
54	0	0.4
55	0	0.4
56	0	0.4
57	0	0.4
58	0	0.4
59	0	0.4
60	0	0.4
61	0	0.4
62	0	0.4
63	0	1
64	0	1
65	0	1
66	0	1
67	0	1
68	0	1
69	0	1
70	0	1
71	0	1
72	0	1
73	0	1
74	0	1
75	0	0.4
76	0	0.4
77	0	0.934218
78	0	0.891696
79	0	0.277778
80	0	0.927375
81	0	0.927375
82	0	0.927375
83	0	0.892033
84	0	0.625722
85	0	1
86	0	0.363333
87	0	0.514706
88	0	0.529412
89	0	0.538794
90	0	0.2
91	0	0.943075
92	0	0
93	0	0.673425
94	0	0.594891
95	0	0.656381
96	0	0
97	0	0.669897
98	0	1
99	0	0.947355
100	0	0.466667
101	0	0.818282
102	0	0.823805
103	0	0.83725
104	0	1
105	0	1
106	0	1
107	0	0.444444
108	0	0.433333
109	0	0.738579
110	0	0.476889
111	0	0.398277
112	0	0.467331
113	0	0.8
114	0	0.654545
115	0	0.282065
116	0	0.279716
117	0	0.288136
118	0	0.325054
119	0	0.515305
120	0	0.777778
121	0	0.777778
122	0	0.586003
123	0	0.42381
124	0	0.590726
125	0	1
126	0	0.622757
127	0	0
128	0	0
129	0	0
130	0	0.657562
131	0	0.531913
132	0	0.491057
133	0	1
134	0	0.983871
135	0	1
136	0	1
137	1	1
138	1	1
139	1	1
140	1	1
141	1	1
142	1	1
143	1	1
144	1	1
145	1	1
146	1	1
147	1	1
148	1	1
149	1	1
150	1	1
151	1	1
152	1	1
153	1	1
154	1	1
155	1	1
156	1	1
157	1	1
158	1	1
159	1	1
160	1	1
161	1	1
162	1	1
163	1	1
164	1	1
165	1	1
166	1	1
167	1	1
168	1	1
169	1	1
170	1	1
171	1	1
172	1	1
173	1	1
174	1	1
175	1	1
176	1	1
177	1	1
178	1	1
179	1	1
180	1	1
181	1	1
182	1	1
183	1	1
184	1	1
185	1	1
186	1	1
187	1	1
188	1	1
189	1	1
190	1	1
191	1	1
192	1	1
193	1	1
194	1	1
195	1	1
196	1	1
197	1	1
198	1	1
199	1	1
200	1	1
201	1	1
202	1	1
203	1	1
204	1	1
205	1	1
206	1	1
207	1	1
208	1	1
209	1	1
210	1	1
211	1	1
212	1	1
213	1	1
214	1	1
215	1	1
216	1	1
217	1	1
218	1	1
219	1	1
220	1	1
221	1	1
222	1	1
223	1	1
224	1	1
225	1	1
226	1	1
227	1	1
228	1	1
229	1	1
230	1	1
231	1	1
232	1	1
233	1	1
234	1	1
235	1	1
236	1	1
237	1	1
238	1	1
239	1	1
240	1	1
241	1	1
242	1	1
243	1	1
244	1	1
245	1	1
246	1	1
247	1	1
248	1	1
249	1	1
250	1	1
251	1	1
252	1	1
253	1	1
254	1	1
255	1	1
256	1	1
257	1	1
258	1	1
259	1	1
260	1	1
261	1	1
262	1	1
263	1	1
264	1	1
265	1	1
266	1	1
267	1	1
268	1	1
269	1	1
270	1	1
271	1	1
272	1	1
273	1	1
274	1	1
275	1	1
276	1	1
277	1	1
278	1	1
279	1	1
280	1	1
281	1	1
282	1	1
283	1	1
284	1	1
285	1	1
286	1	1
287	1	1
288	1	1
289	1	1
290	1	1
291	1	1
292	1	1
293	1	1
294	1	1
295	1	1
296	1	1
297	1	1
298	1	1
299	1	1
300	1	1
301	1	1
302	1	1
303	1	1
304	1	1
305	1	1
306	1	1
307	1	1
308	1	1
309	1	1
310	1	1
311	1	1
312	1	1
313	1	1
314	1	1
315	1	1
316	1	1
317	1	1
318	1	1
319	1	1
320	1	1
321	1	1
322	1	1
323	1	1
324	1	1
325	1	1
326	1	1
327	1	1
328	1	1
329	1	1
330	1	1
331	0	0
332	0	0
333	0	0
334	0	0
335	0	0
336	0	0
337	0	0
338	0	0.977359
339	0	0
340	0	0
341	0	0
342	0	0
343	0	0
344	0	0
345	0	0
346	0	0
347	0	0
348	0	0
349	0	0
350	0	0
351	0	0
352	0	0
353	0	0.266667
354	0	0.266667
355	0	0.266667
356	0	0.190476
357	0	0.93297
358	0	0.93297
359	0	0.65
360	0	0.837684
361	0	0.776592
362	0	0.781714
363	0	0.775398
364	0	0.734526
365	0	0.535714
366	0	0.666667
367	0	0.5
368	0	0.333333
369	0	0
370	0	0
371	0	0
372	0	0
373	0	0
374	1	0
375	1	0
376	1	0
