Site	ColumnScore	SumOfPairsScore
1	0	1
2	0	1
3	0	1
4	0	1
5	0	1
6	0	1
7	0	1
8	0	1
9	0	1
10	0	1
11	0	1
12	0	1
13	0	1
14	0	1
15	0	1
16	0	1
17	0	1
18	0	1
19	0	1
20	0	1
21	0	1
22	0	1
23	0	1
24	0	1
25	0	1
26	0	1
27	0	1
28	0	1
29	0	1
30	0	1
31	0	1
32	0	1
33	0	1
34	0	1
35	0	1
36	1	1
37	1	1
38	1	1
39	1	1
40	1	1
41	1	1
42	1	1
43	1	1
44	1	1
45	0	1
46	0	1
47	0	1
48	0	1
49	0	1
50	0	1
51	0	1
52	0	1
53	0	1
54	1	1
55	1	1
56	1	1
57	1	1
58	1	1
59	1	1
60	1	1
61	0	1
62	0	1
63	0	1
64	0	1
65	0	1
66	0	1
67	0	1
68	0	1
69	0	1
70	0	1
71	0	1
72	0	1
73	0	1
74	0	1
75	1	1
76	1	1
77	1	1
78	1	1
79	1	1
80	0	1
81	0	1
82	0	1
83	0	1
84	0	1
85	0	1
86	0	1
87	0	1
88	0	1
89	0	1
90	0	1
91	0	1
92	0	1
93	0	1
94	0	1
95	1	1
96	1	1
97	1	1
98	1	1
99	1	1
100	1	1
101	1	1
102	1	1
103	1	1
104	1	1
105	0	1
106	0	1
107	1	1
108	1	1
109	1	1
110	1	1
111	1	1
112	1	1
113	1	1
114	1	1
115	1	1
116	1	1
117	1	1
118	1	1
119	1	1
120	1	1
121	0	1
122	0	1
123	0	1
124	0	1
125	0	1
126	0	1
127	0	1
128	0	1
129	0	1
130	0	1
131	0	1
132	0	1
133	0	1
134	0	1
135	0	1
136	0	1
137	0	1
138	0	1
139	0	1
140	1	1
141	1	1
142	0	1
143	0	1
144	0	1
145	0	1
146	0	1
147	0	1
148	0	1
149	0	1
150	0	1
151	0	1
152	0	1
153	0	1
154	0	1
155	0	1
156	0	1
157	0	1
158	0	1
159	0	1
160	0	1
161	0	1
162	0	1
163	0	1
164	0	1
165	0	1
166	0	1
167	0	1
168	0	1
169	0	1
170	0	1
171	0	1
172	0	1
173	0	1
174	0	1
175	0	1
176	0	1
177	0	1
178	0	1
179	0	1
180	0	1
181	0	1
182	0	1
183	1	1
184	1	1
185	1	1
186	1	1
187	1	1
188	1	1
189	1	1
190	1	1
191	1	1
192	1	1
193	1	1
194	1	1
195	1	1
196	1	1
197	1	1
198	1	1
199	1	1
200	1	1
201	1	1
202	1	1
203	1	1
204	1	1
205	1	1
206	1	1
207	1	1
208	1	1
209	1	1
210	1	1
211	1	1
212	1	1
213	1	1
214	1	1
215	1	1
216	1	1
217	1	1
218	1	1
219	1	1
220	1	1
221	1	1
222	1	1
223	1	1
224	0	1
225	0	1
226	0	1
227	0	1
228	0	1
229	0	1
230	0	1
231	0	1
232	0	1
233	0	1
234	0	1
235	0	1
236	0	1
237	0	1
238	0	1
239	0	1
240	0	1
241	0	1
242	0	1
243	0	1
244	0	1
245	0	1
246	0	1
247	0	1
248	0	1
249	0	1
250	0	1
251	0	1
252	0	1
253	0	1
254	0	1
255	0	1
256	0	1
257	0	1
258	0	1
259	0	1
260	0	1
261	0	1
262	0	1
263	0	1
264	0	1
265	0	1
266	0	1
267	0	1
268	0	1
269	0	1
270	0	1
271	0	1
272	0	1
273	0	1
274	0	1
275	0	1
276	0	1
277	0	1
278	0	1
279	0	1
280	0	1
281	0	1
282	0	1
283	0	1
284	0	1
285	0	1
286	0	1
287	0	1
288	0	1
289	0	1
290	0	1
291	0	1
292	0	1
293	0	1
294	0	1
295	0	1
296	0	1
297	0	1
298	0	1
299	0	1
300	0	1
301	0	1
302	0	1
303	0	1
304	0	1
305	0	1
306	0	1
307	0	1
308	0	1
309	0	1
310	0	1
311	1	1
312	1	1
313	1	1
314	1	1
315	0	1
316	0	1
317	0	1
318	0	1
319	0	1
320	0	1
321	0	1
322	0	1
323	0	1
324	0	1
325	0	1
326	0	1
327	1	1
328	1	1
329	1	1
330	0	1
331	0	1
332	0	1
333	0	1
334	0	1
335	0	1
336	0	1
337	0	1
338	0	1
339	0	1
340	0	1
341	0	1
342	0	1
343	1	1
344	1	1
345	1	1
346	1	1
347	1	1
348	0	0.52381
349	0	0.52381
350	0	0.464286
351	0	0.464286
352	0	0.464286
353	0	0.464286
354	0	0.464286
355	0	0.464286
356	0	0.464286
357	0	0.464286
358	0	0.464286
359	0	0.464286
360	0	0.464286
361	0	0.464286
362	0	0.464286
363	0	0.464286
364	0	0.464286
365	0	0.464286
366	0	0.464286
367	0	0.464286
368	0	0.464286
369	0	0.464286
370	0	0.464286
371	0	0.464286
372	0	0.464286
373	0	0.464286
374	0	0.464286
375	0	0.464286
376	0	0.464286
377	0	0.464286
378	0	0.464286
379	0	0.464286
380	0	0.464286
381	0	0.464286
382	0	0.464286
383	0	0.464286
384	0	0.464286
385	0	0.464286
386	0	0.464286
387	0	0.464286
388	0	0.464286
389	0	0.464286
390	0	0.464286
391	0	0.464286
392	0	0.361111
393	0	0.361111
394	0	0.152381
395	0	0.152381
396	0	0.152381
397	0	0.152381
398	0	0.152381
399	0	0.152381
400	0	0.152381
401	0	0.152381
402	0	0.152381
403	0	0.152381
404	0	0.166667
405	0	0.166667
406	0	0.166667
407	0	0.164502
408	0	0.150198
409	0	0.224638
410	0	0.224638
411	0	0.224638
412	0	0.224638
413	0	0.297101
414	0	0.297101
415	0	0.297101
416	0	0.297101
417	0	0.313333
418	0	0.313333
419	0	0.313333
420	0	0.313333
421	0	0.313333
422	0	0.273333
423	0	0.313333
424	0	0.313333
425	0	0.289231
426	0	0.289231
427	0	0.289231
428	0	0.289231
429	0	0.289231
430	0	0.289231
431	0	0.289231
432	0	0.289231
433	0	0.289231
434	0	0.289231
435	0	0.289231
436	0	0.289231
437	0	0.289231
438	0	0.289231
439	0	0.289231
440	0	0.289231
441	0	0.289231
442	0	0.289231
443	0	0.289231
444	0	0.289231
445	0	0.289231
446	0	0.289231
447	0	0.289231
448	0	0.289231
449	0	0.289231
450	0	0.289231
451	0	0.289231
452	0	0.289231
453	0	0.289231
454	0	0.289231
455	0	0.289231
456	0	0.3
457	0	0.26
458	0	0.26
459	0	0.26
460	0	0.26
461	0	0.252308
462	0	0.252308
463	0	0.252308
464	0	0.252308
465	0	0.252308
466	0	0.252308
467	0	0.252308
468	0	0.252308
469	0	0.252308
470	0	0.252308
471	0	0.252308
472	0	0.252308
473	0	0.252308
474	0	0.143791
475	0	0.143333
476	0	0.132308
477	0	0.144615
478	0	0.126154
479	0	0.169231
480	0	0.169231
481	0	0.169231
482	0	0.169231
483	0	0.169231
484	0	0.163077
485	0	0.169231
486	0	0.169231
487	0	0.169231
488	0	0.169231
489	0	0.169231
490	0	0.176667
491	0	0.176667
492	0	0.163077
493	0	0.163077
494	0	0.163077
495	0	0.18
496	0	0.18
497	0	0.18
498	0	0.18
499	0	0.18
500	0	0.21
501	0	0.21
502	0	0.21
503	0	0.21
504	0	0.21
505	0	0.21
506	0	0.21
507	0	0.21
508	0	0.21
509	0	0.21
510	0	0.21
511	0	0.21
512	0	0.228261
513	0	0.228261
514	0	0.228261
515	0	0.228261
516	0	0.228261
517	0	0.228261
518	0	0.152174
519	0	0.152174
520	0	0.224638
521	0	0.224638
522	0	0.26087
523	0	0.26087
524	0	0.26087
525	0	0.300725
526	0	0.300725
527	0	0.300725
528	0	0.300725
529	0	0.300725
530	0	0.300725
531	0	0.300725
532	0	0.300725
533	0	0.300725
534	0	0.300725
535	0	0.300725
536	0	0.300725
537	0	0.300725
538	0	0.300725
539	0	0.284585
540	0	0.284585
541	0	0.309091
542	0	0.309091
543	0	0.309091
544	0	0.309091
545	0	0.309091
546	0	0.309091
547	0	0.309091
548	0	0.309091
549	0	0.309091
550	0	0.309091
551	0	0.309091
552	0	0.309091
553	0	0.309091
554	0	0.309091
555	0	0.309091
556	0	0.309091
557	0	0.309091
558	0	0.309091
559	0	0.309091
560	0	0.309091
561	0	0.309091
562	0	0.309091
563	0	0.309091
564	0	0.311111
565	0	0.311111
566	0	0.311111
567	0	0.311111
568	0	0.311111
569	0	0.311111
570	0	0.311111
571	0	0.311111
572	0	0.311111
573	0	0.311111
574	0	0.311111
575	0	0.311111
576	0	0.311111
577	0	0.311111
578	0	0.311111
579	0	0.311111
580	0	0.311111
581	0	0.254545
582	0	0.254545
583	0	0.254545
584	0	0.254545
585	0	0.254545
586	0	0.254545
587	0	0.254545
588	0	0.254545
589	0	0.254545
590	0	0.254545
591	0	0.254545
592	0	0.254545
593	0	0.254545
594	0	0.254545
595	0	0.254545
596	0	0.254545
597	0	0.254545
598	0	0.254545
599	0	0.254545
600	0	0.254545
601	0	0.254545
602	0	0.254545
603	0	0.254545
604	0	0.254545
605	0	0.254545
606	0	0.254545
607	0	0.254545
608	0	0.254545
609	0	0.254545
610	0	0.254545
611	0	0.254545
612	0	0.254545
613	0	0.254545
614	0	0.254545
615	0	0.212121
616	0	0.212121
617	0	0.212121
618	0	0.212121
619	0	0.212121
620	0	0.212121
621	0	0.212121
622	0	0.212121
623	0	0.212121
624	0	0.212121
625	0	0.212121
626	0	0.179487
627	0	0.179487
628	0	0.179487
629	0	0.179487
630	0	0.179487
631	0	0.153846
632	0	0.133333
633	0	0.133333
634	0	0.133333
635	0	0.116667
636	0	0.116667
637	0	0.116667
638	0	0.116667
639	0	0.116667
640	0	0.116667
641	0	0.116667
642	0	0.116667
643	0	0.116667
644	0	0.116667
645	0	0.141667
646	0	0.141667
647	0	0.141667
648	0	0.116667
649	0	0.102941
650	0	0.0915033
651	0	0.0915033
652	0	0.0915033
653	0	0.0849673
654	0	0.0849673
655	0	0.0818713
656	0	0.0818713
657	0	0.0818713
658	0	0.0736842
659	0	0.0736842
660	0	0.0736842
661	0	0.0649351
662	0	0.0649351
663	0	0.0592885
664	0	0.0543478
665	0	0.0632411
666	0	0.271951
667	0	0.271951
668	0	0.460245
669	0	0.451877
670	0	0.316196
671	0	0.316196
672	0	0.316196
673	0	0.316196
674	0	0.313909
675	0	0.313909
676	0	0.311497
677	0	0.311497
678	0	0.30692
679	0	0.51634
680	0	0.51634
681	0	0.371795
682	0	0.1
683	0	0.1
684	0	0.1
685	0	0.1
686	0	0.1
687	0	0.1
688	0	0.1
689	0	0.1
690	0	0.1
691	0	0.166667
692	0	0.166667
693	0	0.166667
694	0	0.166667
695	0	0.333333
696	0	0.333333
697	0	0.333333
698	0	0.333333
699	0	0.333333
700	0	0.333333
701	0	0.333333
702	0	0.333333
703	0	0.333333
704	0	1
705	0	1
706	0	1
707	0	1
708	0	1
709	0	1
710	0	1
711	0	1
712	0	0
713	0	0.275533
714	0	0.275533
715	0	0.269462
716	0	0.242585
717	0	0.0380952
718	0	0.0294118
719	0	0.139601
720	0	0.102102
721	0	0.180545
722	0	0.18063
723	0	0
724	0	0.489919
725	0	1
726	0	1
727	0	1
728	0	1
729	0	1
730	0	1
731	0	1
732	0	1
733	0	1
734	0	1
735	0	1
736	0	1
737	0	1
738	0	1
739	0	1
740	0	1
741	0	1
742	0	1
743	0	1
744	0	0.6
745	0	0.6
746	0	0.4
747	0	1
748	0	1
749	0	1
750	0	1
751	0	1
752	0	1
753	0	1
754	0	1
755	0	1
756	0	1
757	0	1
758	0	1
759	0	1
760	0	1
761	0	1
762	0	1
763	0	1
764	0	1
765	0	1
766	0	1
767	0	1
768	0	1
769	0	1
770	0	1
771	0	1
772	0	1
773	0	1
774	0	1
775	0	1
776	0	1
777	0	1
778	0	1
779	0	1
780	0	1
781	0	1
782	0	1
783	0	1
784	0	1
785	0	1
786	0	1
787	0	1
788	0	1
789	0	1
790	0	1
791	0	1
792	0	1
793	0	1
794	0	1
795	0	1
796	0	1
797	0	1
798	0	0.6
799	0	0.6
800	0	0.6
801	0	0.6
802	0	0.6
803	0	0.6
804	0	0.6
805	0	0.6
806	0	0.6
807	0	0.4
808	0	0.4
809	0	0.4
810	0	0.4
811	0	0.4
812	0	0.4
813	0	0.4
814	0	0.4
815	0	0.4
816	0	0.2
817	0	0.2
818	0	0.2
819	0	0.2
820	0	0.142857
821	0	0.142857
822	0	0.142857
823	0	0.142857
824	0	0.142857
825	0	0.142857
826	0	0.142857
827	0	0.2
828	0	0.2
829	0	0
830	0	0
831	0	0
832	0	0
833	0	0
834	0	0
835	0	0
836	0	0
837	0	0
838	0	0
839	0	0
840	0	0
841	0	0
842	0	0.142857
843	0	0.214286
844	0	0.214286
845	0	0.214286
846	0	0.214286
847	0	0.214286
848	0	0.214286
849	0	0.214286
850	0	0.214286
851	0	0.214286
852	0	0.133333
853	0	0.166667
854	0	0.166667
855	0	0.194444
856	0	0.194444
857	0	0.244444
858	0	0.222222
859	0	0.222222
860	0	0.222222
861	0	0.181818
862	0	0.141026
863	0	0.141026
864	0	0.141026
865	0	0.141026
866	0	0.141026
867	0	0.141026
868	0	0.120879
869	0	0.120879
870	0	0.120879
871	0	0.120879
872	0	0.120879
873	0	0.230769
874	0	0.230769
875	0	0.104762
876	0	0.104762
877	0	0.104762
878	0	0.133333
879	0	0.117647
880	0	0.117647
881	0	0.104575
882	0	0.104575
883	0	0.104575
884	0	0.0935673
885	0	0.0842105
886	0	0.0842105
887	0	0.0692641
888	0	0.0692641
889	0	0.0633333
890	0	0.0633333
891	0	0.0615385
892	0	0.0615385
893	0	0.0555556
894	0	0.0555556
895	0	0.0492611
896	0	0.0396825
897	0	0.0396825
898	0	0.0396825
899	0	0.0482759
900	0	0.0551724
901	0	0.0387097
902	0	0.0344086
903	0	0.0265152
904	0	0.0231729
905	0	0.0213371
906	0	0.022942
907	0	0.0219512
908	0	0.0256098
909	0	0.0280193
910	0	0.0203901
911	0	0.0345745
912	0	0.0467687
913	0	0.0481633
914	0	0.0690196
915	0	0.157647
916	0	0.217331
917	0	0.265993
918	0	0.225352
919	0	0.257658
920	0	0.23976
921	0	0.249074
922	0	0.271605
923	0	0.28181
924	0	0.321572
925	0	0.508071
926	0	0.49638
927	0	0.463351
928	0	0.430905
929	0	0.90657
930	0	0.984032
931	0	0.96967
932	0	0.992366
933	0	0.992395
934	0	0.992395
935	0	0.992395
936	0	0
937	0	0.992395
938	0	0.992395
939	0	0.992395
940	0	0.992395
941	0	0.992395
942	1	1
943	1	1
944	1	1
945	1	1
946	1	1
947	1	1
948	1	1
949	1	1
950	1	1
951	1	1
952	1	1
953	1	1
954	1	1
955	1	1
956	1	1
957	1	1
958	1	1
959	1	1
960	1	1
961	1	1
962	1	1
963	1	1
964	1	1
965	1	1
966	1	1
967	1	1
968	1	1
969	1	1
970	1	1
971	1	1
972	1	1
973	1	1
974	1	1
975	1	1
976	1	1
977	1	1
978	1	1
979	1	1
980	1	1
981	1	1
982	1	1
983	1	1
984	1	1
985	1	1
986	1	1
987	0	0
988	0	0
989	0	0
990	1	0
991	0	0
992	0	0
993	0	0.333333
994	1	1
995	0	0.5
996	1	1
997	1	1
998	1	1
999	1	1
1000	1	1
1001	1	1
1002	1	1
1003	1	1
1004	1	1
1005	1	1
1006	1	1
1007	1	1
1008	1	1
1009	1	1
1010	1	1
1011	1	1
1012	1	1
1013	1	1
1014	1	1
1015	1	1
1016	1	1
1017	1	1
1018	1	1
1019	1	1
1020	1	1
1021	1	1
1022	1	1
1023	1	1
1024	1	1
1025	1	1
1026	1	1
1027	1	1
1028	1	1
1029	1	1
1030	1	1
1031	1	1
1032	1	1
1033	1	1
1034	1	1
1035	1	1
1036	1	1
1037	1	1
1038	1	1
1039	1	1
1040	1	1
1041	1	1
1042	1	1
1043	1	1
1044	1	1
1045	1	1
1046	1	1
1047	0	1
1048	0	0.969236
1049	0	0.824641
1050	0	0.685673
1051	0	0.520655
1052	0	0.587587
1053	0	0.4659
1054	0	0
1055	0	0
1056	0	0
1057	0	0
1058	0	0
1059	0	0
1060	0	0
1061	0	0.622222
1062	0	0.333333
1063	0	0.408348
1064	0	0.358127
1065	0	0.340447
1066	0	0.328381
1067	0	0.395734
1068	0	0.629511
1069	0	0.280702
1070	0	0.274854
1071	0	0.339181
1072	0	0.877774
1073	1	1
1074	1	1
1075	1	1
1076	1	1
1077	1	1
1078	1	1
1079	1	1
1080	1	1
1081	1	1
1082	1	1
1083	1	1
1084	0	1
1085	0	0.992537
1086	1	1
1087	0	0
1088	0	0
1089	0	1
1090	0	1
1091	0	1
1092	0	1
1093	0	1
1094	0	0.6
1095	0	0.333333
1096	0	0.333333
1097	0	0.775348
1098	0	0.775348
1099	0	0.478536
1100	0	0.433842
1101	0	0.433735
1102	0	0
1103	0	0
1104	0	0
1105	0	0
1106	0	0
1107	0	0
1108	0	0
1109	0	0
1110	0	0
1111	0	0
1112	0	0
1113	0	0
1114	1	0
1115	1	0
1116	0	0.5
1117	0	0.5
1118	0	0.5
1119	0	0.5
1120	0	0.5
1121	0	0.5
1122	0	0.5
1123	0	0.5
1124	0	0.5
1125	0	0.5
1126	0	0.5
1127	0	0.5
1128	0	0.5
1129	0	0.5
1130	0	0.3
1131	0	0.3
1132	0	0.3
1133	0	0.3
1134	0	0.3
1135	0	0.3
1136	0	0.3
1137	0	0.3
1138	0	0.3
1139	0	0.3
1140	0	0.3
1141	0	0.3
1142	0	0.3
1143	0	0.3
1144	0	0.3
1145	0	0.3
1146	0	0.3
1147	0	0.3
1148	0	0.3
1149	0	0.3
1150	0	0.3
1151	0	0.3
1152	0	0.3
1153	0	0.3
1154	0	0.3
1155	0	0.3
1156	0	0.3
1157	0	0.3
1158	0	0.3
1159	0	0.3
1160	0	0.3
1161	0	0.3
1162	0	0.3
1163	0	0.3
1164	0	0.3
1165	0	0.3
1166	0	0.6
1167	0	0.6
1168	0	0.6
1169	0	0.6
1170	0	0.6
1171	0	0.6
1172	0	0.6
1173	0	0.6
1174	0	0.6
1175	0	0.6
1176	0	0.6
1177	0	0.6
1178	0	0.6
1179	0	0.6
1180	0	0.6
1181	0	0.6
1182	0	0.6
1183	0	0.6
1184	0	0.6
1185	0	0.6
1186	0	0.6
1187	0	0.6
1188	0	0.6
1189	0	0.6
1190	0	0.6
1191	0	0.6
1192	0	0.6
1193	0	0.6
1194	0	0.6
1195	0	0.6
1196	0	0.6
1197	0	0.6
1198	0	0.6
1199	0	0.6
1200	0	0.6
1201	0	0.6
1202	0	0.6
1203	0	0.6
1204	0	0.6
1205	0	0.6
1206	0	0.6
1207	0	0.6
1208	0	0.6
1209	0	0.6
1210	0	0.6
1211	0	0.6
1212	0	0.6
1213	0	0.6
1214	0	0.6
1215	0	0.6
1216	0	0.6
1217	0	0.6
1218	0	0.6
1219	0	0.6
1220	0	0.6
1221	0	0.6
1222	0	0.6
1223	0	0.4
1224	0	0.4
1225	0	0.4
1226	0	0.4
1227	0	0.4
1228	0	0.4
1229	0	0.4
1230	0	0.4
1231	0	0.4
1232	0	0.4
1233	0	0.4
1234	0	0.4
1235	0	0.4
1236	0	0.4
1237	0	0.4
1238	0	0.4
1239	0	0.4
1240	0	0.4
1241	0	0.4
1242	0	0.4
1243	0	0.4
1244	0	0.4
1245	0	0.4
1246	0	0.4
1247	0	0.4
1248	0	0.4
1249	0	0.4
1250	0	0.4
1251	0	0.4
1252	0	0.6
1253	0	0.6
1254	0	0.6
1255	0	0.666667
1256	0	0.666667
1257	0	0.666667
1258	0	0.666667
1259	0	0.666667
1260	0	0.666667
1261	0	0.666667
1262	0	0.666667
1263	0	0.666667
1264	0	0.666667
1265	0	0.666667
1266	0	0.666667
1267	0	0.666667
1268	0	0.666667
1269	0	0.666667
1270	0	0.666667
1271	0	0.666667
1272	0	0.666667
1273	0	0.666667
1274	0	0.666667
1275	0	0.666667
1276	0	0.666667
1277	0	0.666667
1278	0	0.666667
1279	0	0.666667
1280	0	0.666667
1281	0	0.666667
1282	0	0.666667
1283	0	0.666667
1284	0	0.666667
1285	0	0.666667
1286	0	0.666667
1287	0	0.666667
1288	0	0.666667
1289	0	0.666667
1290	0	0.666667
1291	0	0.666667
1292	0	0.666667
1293	0	0.666667
1294	0	0.666667
1295	0	0.666667
1296	0	0.666667
1297	0	0.666667
1298	0	0.666667
1299	0	0.666667
1300	0	0.666667
1301	0	0.666667
1302	0	0.666667
1303	0	0.666667
1304	0	0.666667
1305	0	0.666667
1306	0	0.666667
1307	0	0.666667
1308	0	0.666667
1309	0	0.666667
1310	0	0.666667
1311	0	0.666667
1312	0	0.666667
1313	0	0.666667
1314	0	0.666667
1315	0	0.666667
1316	0	0.666667
1317	0	0.666667
1318	0	0.666667
1319	0	0.666667
1320	0	0.666667
1321	0	0.666667
1322	0	0.666667
1323	0	0.666667
1324	0	0.666667
1325	0	0.666667
1326	0	0.666667
1327	0	0.666667
1328	0	0.666667
1329	0	0.666667
1330	0	0.666667
1331	0	0.666667
1332	0	0.666667
1333	0	0.666667
1334	0	0.666667
1335	0	0.666667
1336	0	0.666667
1337	0	0.666667
1338	0	0.666667
1339	0	0.666667
1340	0	0.666667
1341	0	0.666667
1342	0	0.666667
1343	0	0.666667
1344	0	0.4
1345	0	0.6
1346	0	0.6
1347	0	0.6
1348	0	0.6
1349	0	0.6
1350	0	0.6
1351	0	0.6
1352	0	0.666667
1353	0	0.666667
1354	0	0.666667
1355	0	0.666667
1356	0	0.666667
1357	0	0.666667
1358	0	0.666667
1359	0	0.666667
1360	0	0.666667
1361	0	0.666667
1362	0	0.666667
1363	0	0.666667
1364	0	0.666667
1365	0	0.666667
1366	0	0.666667
1367	0	0.666667
1368	0	0.666667
1369	0	0.666667
1370	0	0.666667
1371	0	0.666667
1372	0	0.666667
1373	0	0.666667
1374	0	0.666667
1375	0	0.6
1376	0	0.6
1377	0	0.6
