Site	ColumnScore	SumOfPairsScore
1	0	0
2	0	0
3	0	0
4	0	0
5	0	0
6	0	0
7	0	0
8	0	0
9	0	0
10	0	0
11	0	0
12	0	0
13	0	0
14	0	0
15	0	0
16	0	0
17	0	0
18	0	0
19	0	0
20	0	0
21	0	0
22	0	0
23	0	0
24	0	0
25	0	0
26	0	0
27	0	0
28	0	0
29	0	0
30	0	0
31	0	0
32	0	0
33	0	0
34	0	0
35	0	0
36	0	0
37	0	0
38	0	0
39	0	0
40	0	0
41	0	0
42	0	0
43	0	0
44	0	0
45	0	0
46	0	0
47	0	0
48	0	0
49	0	0
50	0	0
51	0	0
52	0	0
53	0	0
54	0	0
55	0	0
56	0	0
57	0	0
58	0	0
59	0	0
60	0	0
61	0	0
62	0	0
63	0	0
64	0	0
65	0	0
66	0	0
67	0	0
68	0	0
69	0	0
70	0	0
71	0	0
72	0	0
73	0	0
74	0	0
75	0	0
76	0	0
77	0	0
78	0	0
79	0	0
80	0	0
81	0	0
82	0	0
83	0	0
84	0	0
85	0	0
86	0	0
87	0	0
88	0	0
89	0	0
90	0	0
91	0	0
92	0	0
93	0	0
94	0	0
95	0	0
96	0	0
97	0	0
98	0	0
99	0	0
100	0	0
101	0	0
102	0	0
103	0	0
104	0	0
105	0	0
106	0	0
107	0	0
108	0	0
109	0	0
110	0	0
111	0	0
112	0	0
113	0	0
114	0	0
115	0	0
116	0	0
117	0	0
118	0	0
119	0	0
120	0	0
121	0	0
122	0	0
123	0	0
124	0	0
125	0	0
126	0	0
127	0	0
128	0	0
129	0	0
130	0	0
131	0	0
132	0	0
133	0	0
134	0	0
135	0	0
136	0	0
137	0	0
138	0	0
139	0	0
140	0	0
141	0	0
142	0	0
143	0	0
144	0	0
145	0	0
146	0	0
147	0	0
148	0	0
149	0	0
150	0	0
151	0	0
152	0	0
153	0	0
154	0	0
155	0	0
156	0	0
157	0	0
158	0	0
159	0	0
160	0	0
161	0	0
162	0	0
163	0	0
164	0	0
165	0	0
166	0	0
167	0	0
168	0	0
169	0	0
170	0	0
171	0	0
172	0	0
173	0	0
174	0	0
175	0	0
176	0	0
177	0	0
178	0	0
179	0	0
180	0	0
181	0	0
182	0	0
183	0	0
184	0	0
185	0	0
186	0	0
187	0	0
188	0	0
189	0	0
190	0	0
191	0	0
192	0	0
193	0	0
194	0	0
195	0	0
196	0	0
197	0	0
198	0	0
199	0	0
200	0	0
201	0	0
202	0	0
203	0	0
204	0	0
205	0	0
206	0	0
207	0	0
208	0	0
209	0	0
210	0	0
211	0	0
212	0	0
213	0	0
214	0	0
215	0	0
216	0	0
217	0	0
218	0	0
219	0	0
220	0	0
221	0	0
222	0	0
223	0	0
224	0	0
225	0	0
226	0	0
227	0	0
228	0	0
229	0	0
230	0	0
231	0	0
232	0	0
233	0	0
234	0	0
235	0	0
236	0	0
237	0	0
238	0	0
239	0	0
240	0	0
241	0	0
242	0	0
243	0	0
244	0	0
245	0	0
246	0	0
247	0	0
248	0	0
249	0	0
250	0	0
251	0	0
252	0	0
253	0	0
254	0	0
255	0	0
256	0	0
257	0	0
258	0	0
259	0	0
260	0	0
261	0	0
262	0	0
263	0	0
264	0	0
265	0	0
266	0	0
267	0	0
268	0	0
269	0	0
270	0	0
271	0	0
272	0	0
273	0	0
274	0	0
275	0	0
276	0	0
277	0	0
278	0	0
279	0	0
280	0	0
281	0	0
282	0	0
283	0	0
284	0	0
285	0	0
286	0	0
287	0	0
288	0	0
289	0	0
290	0	0
291	0	0
292	0	0
293	0	0
294	0	0
295	0	0
296	0	0
297	0	0
298	0	0
299	0	0
300	0	0
301	0	0
302	0	0
303	0	0
304	0	0
305	0	0
306	0	0
307	0	0
308	0	0
309	0	0
310	0	0
311	0	0
312	0	0
313	0	0
314	0	0
315	0	0
316	0	0
317	0	0
318	0	0
319	0	0
320	0	0
321	0	0
322	0	0
323	0	0
324	0	0
325	0	0
326	0	0
327	0	0
328	0	0
329	0	0
330	0	0
331	0	0
332	0	0
333	0	0
334	0	0
335	0	0
336	0	0
337	0	0
338	0	0
339	0	0
340	0	0
341	0	0
342	0	0
343	0	0
344	0	0
345	0	0
346	0	0
347	0	0
348	0	0
349	0	0
350	0	0
351	0	0
352	0	0
353	0	0
354	0	0
355	0	0
356	0	0
357	0	0
358	0	0
359	0	0
360	0	0
361	0	0
362	0	0
363	0	0
364	0	0
365	0	0
366	0	0
367	0	0
368	0	0
369	0	0
370	0	0
371	0	0
372	0	0
373	0	0
374	0	0
375	0	0
376	0	0
377	0	0
378	0	0
379	0	0
380	0	0
381	0	0
382	0	0
383	0	0
384	0	0
385	0	0
386	0	0
387	0	0
388	0	0
389	0	0
390	0	0
391	0	0
392	0	0
393	0	0
394	0	0
395	0	0
396	0	0
397	0	0
398	0	0
399	0	0
400	0	0
401	0	0
402	0	0
403	0	0
404	0	0
405	0	0
406	0	0
407	0	0
408	0	0
409	0	0
410	0	0
411	0	0
412	0	0
413	0	0
414	0	0
415	0	0
416	0	0
417	0	0
418	0	0
419	0	0
420	0	0
421	0	0
422	0	0
423	0	0
424	0	0
425	0	0
426	0	0
427	0	0
428	0	0
429	0	0
430	0	0
431	0	0
432	0	0
433	0	0
434	0	0
435	0	0
436	0	0
437	0	0
438	0	0
439	0	0
440	0	0
441	0	0
442	0	0
443	0	0
444	0	0
445	0	0
446	0	0
447	0	0
448	0	0
449	0	0
450	0	0
451	0	0
452	0	0
453	0	0
454	0	0
455	0	0
456	0	0
457	0	0
458	0	0
459	0	0
460	0	0
461	0	0
462	0	0
463	0	0
464	0	0
465	0	0
466	0	0
467	0	0
468	0	0
469	0	0
470	0	0
471	0	0
472	0	0
473	0	0
474	0	0
475	0	0
476	0	0
477	0	0
478	0	0
479	0	0
480	0	0
481	0	0
482	0	0
483	0	0
484	0	0
485	0	0
486	0	0
487	0	0
488	0	0
489	0	0
490	0	0
491	0	0
492	0	0
493	0	0
494	0	0
495	0	0
496	0	0
497	0	0
498	0	0
499	0	0
500	0	0
501	0	0
502	0	0
503	0	0
504	0	0
505	0	0
506	0	0
507	0	0
508	0	0
509	0	0
510	0	0
511	0	0
512	0	0
513	0	0
514	0	0
515	0	0
516	0	0
517	0	0
518	0	0
519	0	0
520	0	0
521	0	0
522	0	0
523	0	0
524	0	0
525	0	0
526	0	0
527	0	0
528	0	0
529	0	0
530	0	0
531	0	0
532	0	0
533	0	0
534	0	0
535	0	0
536	0	0
537	0	0
538	0	0
539	0	0
540	0	0
541	0	0
542	0	0
543	0	0
544	0	0
545	0	0
546	0	0
547	0	0
548	0	0
549	0	0
550	0	0
551	0	0
552	0	0
553	0	0
554	0	0
555	0	0
556	0	0
557	0	0
558	0	0
559	0	0
560	0	0
561	0	0
562	0	0
563	0	0
564	0	0
565	0	0
566	0	0
567	0	0
568	0	0
569	0	0
570	0	0
571	0	0.0277778
572	0	0.0606061
573	0	0.0606061
574	0	0.0606061
575	0	0.0606061
576	0	0.0769231
577	0	0.142857
578	0	0.152174
579	0	0.173333
580	0	0.178462
581	0	0.184615
582	0	0.184615
583	0	0.184615
584	0	0.215385
585	0	0.215385
586	0	0.215385
587	0	0.215385
588	0	0.646154
589	0	0.793651
590	0	0.793651
591	0	0.793651
592	0	0.793651
593	0	0.942857
594	0	0.952381
595	0	0.972222
596	1	1
597	1	1
598	1	1
599	1	1
600	1	1
601	1	1
602	1	1
603	1	1
604	1	1
605	1	1
606	1	1
607	1	1
608	1	1
609	1	1
610	1	1
611	1	1
612	1	1
613	1	1
614	1	1
615	1	1
616	1	1
617	1	1
618	1	1
619	0	1
620	0	0.985131
621	1	1
622	1	1
623	1	1
624	1	1
625	1	1
626	1	1
627	1	1
628	1	1
629	1	1
630	1	1
631	1	1
632	1	1
633	1	1
634	1	1
635	1	1
636	1	1
637	1	1
638	1	1
639	1	1
640	1	1
641	1	1
642	1	1
643	1	1
644	1	1
645	1	1
646	1	1
647	1	1
648	1	1
649	1	1
650	1	1
651	1	1
652	1	1
653	1	1
654	1	1
655	1	1
656	1	1
657	1	1
658	1	1
659	1	1
660	1	1
661	1	1
662	1	1
663	1	1
664	1	1
665	1	1
666	1	1
667	1	1
668	1	1
669	1	1
670	1	1
671	1	1
672	1	1
673	1	1
674	1	1
675	1	1
676	1	1
677	1	1
678	1	1
679	1	1
680	1	1
681	1	1
682	1	1
683	1	1
684	1	1
685	1	1
686	1	1
687	1	1
688	1	1
689	1	1
690	0	0.992509
691	1	1
692	0	1
693	1	1
694	1	1
695	1	1
696	1	1
697	1	1
698	1	1
699	1	1
700	1	1
701	1	1
702	1	1
703	1	1
704	1	1
705	1	1
706	1	1
707	1	1
708	1	1
709	1	1
710	1	1
711	1	1
712	1	1
713	1	1
714	1	1
715	1	1
716	1	1
717	1	1
718	1	1
719	1	1
720	1	1
721	1	1
722	1	1
723	0	0
724	1	0
725	0	0.992509
726	1	1
727	1	1
728	1	1
729	1	1
730	1	1
731	1	1
732	0	0.992537
733	1	1
734	1	1
735	1	1
736	1	1
737	1	1
738	1	1
739	1	1
740	1	1
741	1	1
742	1	1
743	1	1
744	1	1
745	0	0.893929
746	0	0.846614
747	0	1
748	0	0.991342
749	0	0.977724
750	0	0.985103
751	0	0.985103
752	1	0
753	1	0
754	1	0
755	1	0
756	1	0
757	0	0
758	0	0
759	0	0
760	1	1
761	1	1
762	1	1
763	0	0.992537
764	1	1
765	0	0.985131
766	0	0
767	0	0.992537
768	0	0.992537
769	0	0.992537
770	1	1
771	1	1
772	1	1
773	1	1
774	1	1
775	1	1
776	1	1
777	1	1
778	1	1
779	1	1
780	1	1
781	1	1
782	0	1
783	0	0.985075
784	0	0.992537
785	0	0.992537
786	1	1
787	1	1
788	1	1
789	1	1
790	1	1
791	1	1
792	1	1
793	1	1
794	1	1
795	1	1
796	1	1
797	1	1
798	1	1
799	1	1
800	1	1
801	1	1
802	1	1
803	1	1
804	1	1
805	1	1
806	1	1
807	1	1
808	1	1
809	1	1
810	1	1
811	1	1
812	1	1
813	1	1
814	1	1
815	1	1
816	0	1
817	0	1
818	0	1
819	0	1
820	0	1
821	1	1
822	0	1
823	0	1
824	0	1
825	0	1
826	0	1
827	0	1
828	0	1
829	0	0.992537
830	0	0.992537
831	0	0.992537
832	0	0.992537
833	0	0.992537
834	0	0.992537
835	0	0.992537
836	0	0.992537
837	0	0.992537
838	0	0.992537
839	0	0.992537
840	0	0.992537
841	0	0.992537
842	0	0.992537
843	0	0.992537
844	0	0.992537
845	0	0.992537
846	0	0.992537
847	0	0.992537
848	0	0.992537
849	0	0.992537
850	0	0.992537
851	0	0.992537
852	0	0.992537
853	0	0.992537
854	0	0.992537
855	0	0.992537
856	0	0.992537
857	0	0.992537
858	0	0.992537
859	0	0.992537
860	0	0.992537
861	0	0.992537
862	0	0.992537
863	0	0.992537
864	0	0.992537
865	0	0.992537
866	0	0.992537
867	0	0.992537
868	0	0.992537
869	0	0.992537
870	0	0.992537
871	0	0.992537
872	0	0.992537
873	0	0.992537
874	0	1
875	0	1
876	0	1
877	1	1
878	1	1
879	1	1
880	1	1
881	1	1
882	1	1
883	1	1
884	1	1
885	1	1
886	1	1
887	1	1
888	1	1
889	1	1
890	1	1
891	1	1
892	1	1
893	1	1
894	1	1
895	1	1
896	1	1
897	1	1
898	1	1
899	1	1
900	1	1
901	1	1
902	1	1
903	1	1
904	1	1
905	0	1
906	0	0.984849
907	0	0.957447
908	0	0.705426
909	0	0.495686
910	0	0.528658
911	0	0.472727
912	0	0.622572
913	0	0.590194
914	0	0.535388
915	0	0.5
916	0	0.212351
917	0	0.276928
918	0	0.399672
919	0	0.514711
920	0	0.573401
921	0	0.615459
922	0	0.685024
923	0	0.716162
924	0	0.716162
925	0	0.7463
926	0	0.516913
927	0	0.428165
928	0	0.462462
929	0	0.357697
930	0	0.302305
931	0	0.253659
932	0	0.888889
933	0	0.166667
934	0	0.266667
935	0	0.8
936	0	1
937	0	0.984616
938	1	1
939	1	1
940	1	1
941	1	1
942	1	1
943	1	1
944	1	1
945	1	1
946	1	1
947	1	1
948	1	1
949	1	1
950	1	1
951	1	1
952	1	1
953	1	1
954	1	1
955	1	1
956	0	1
957	0	1
958	1	1
959	1	1
960	1	1
961	1	1
962	1	1
963	1	1
964	1	1
965	1	1
966	1	1
967	1	1
968	1	1
969	1	1
970	1	1
971	1	1
972	1	1
973	1	1
974	0	0.992537
975	0	0.992537
976	1	1
977	1	1
978	1	1
979	1	1
980	1	1
981	1	1
982	1	1
983	1	1
984	1	1
985	1	1
986	1	1
987	1	1
988	1	1
989	1	1
990	1	1
991	1	1
992	1	1
993	1	1
994	1	1
995	1	1
996	1	1
997	1	1
998	1	1
999	0	0.91383
1000	0	0.91383
1001	0	1
1002	1	1
1003	1	1
1004	1	1
1005	1	1
1006	1	1
1007	1	1
1008	1	1
1009	1	1
1010	1	1
1011	1	1
1012	1	1
1013	1	1
1014	1	1
1015	1	1
1016	1	1
1017	0	1
1018	0	0.573016
1019	0	0.599166
1020	0	0.60263
1021	0	0.60263
1022	0	0.60263
1023	0	0.60263
1024	0	0.60263
1025	0	0.60263
1026	0	0.587873
1027	0	1
1028	0	0
1029	0	0
1030	0	0
1031	0	0
1032	0	0
1033	1	0
1034	1	0
1035	1	0
1036	1	0
1037	1	0
1038	1	0
1039	1	0
1040	0	0
1041	0	1
1042	0	1
1043	0	1
1044	0	1
1045	0	1
1046	0	1
1047	0	1
1048	0	0.507561
1049	0	0.48799
1050	0	0
1051	0	0
1052	0	0
1053	0	0.4
1054	0	0.333333
1055	0	0.384124
1056	0	0.438459
1057	0	0.844397
1058	0	1
1059	0	1
1060	0	1
1061	0	1
1062	0	1
1063	0	1
1064	0	1
1065	0	1
1066	0	1
1067	0	0.831622
1068	0	0.985047
1069	0	0.985047
1070	0	0.985047
1071	0	0.985047
1072	0	0
1073	0	1
1074	0	1
1075	1	1
1076	1	1
1077	1	1
1078	1	1
1079	1	1
1080	1	1
1081	1	1
1082	1	1
1083	1	1
1084	1	1
1085	1	1
1086	1	1
1087	1	1
1088	1	1
1089	0	1
1090	0	0.644444
1091	0	0.257576
1092	0	0.191667
1093	0	0.301075
1094	0	0.779507
1095	0	0.731875
1096	0	0.759427
1097	0	0.752021
1098	0	0
1099	0	1
1100	0	1
1101	0	0
1102	0	0
1103	0	0
1104	0	0
1105	0	0
1106	0	0
1107	0	0
1108	0	0.333333
1109	0	0
1110	0	0.1
1111	0	0.282051
1112	0	1
1113	0	1
1114	0	1
1115	0	1
1116	0	1
1117	0	1
1118	0	0.333333
1119	0	0.333333
1120	0	0.5
1121	0	0.333333
1122	0	0.169591
1123	0	0.304348
1124	0	0.414016
1125	0	0.400151
1126	0	0
1127	0	0
1128	0	0
1129	0	0.0952381
1130	0	0.236153
1131	0	0.221538
1132	0	0.25731
1133	0	0.25731
1134	0	0.281046
1135	0	0.281046
1136	0	0.276703
1137	0	0.276759
1138	0	0.276956
1139	0	0.216074
1140	0	1
1141	0	1
1142	0	0.818182
1143	0	0.818182
1144	0	0.818182
1145	0	0.606061
1146	0	0.443169
1147	0	0.360529
1148	0	0.236307
1149	0	0.767286
1150	0	0.78709
1151	0	0.992481
1152	0	0.992509
1153	0	0.992509
1154	0	0.992509
1155	1	1
1156	1	1
1157	0	0.992509
1158	0	0.992509
1159	0	0.992509
1160	0	0.992509
1161	0	0.992509
1162	0	0.992509
1163	0	0.992509
1164	0	0.992509
1165	0	0.992509
1166	0	0.992509
1167	0	0.992509
1168	0	0.992509
1169	0	0.992509
1170	0	0.985047
1171	0	0.985047
1172	0	0.977613
1173	0	0.970206
1174	0	0.962828
1175	0	0
1176	0	0
1177	0	0
1178	0	0
1179	0	0
1180	0	0
1181	0	0
1182	0	0
1183	0	0
1184	0	0
1185	0	0
1186	0	0
1187	0	0
1188	0	0
1189	0	0
1190	0	0
1191	0	0
1192	0	0
1193	0	0
1194	0	0
1195	0	0
1196	0	0
1197	0	0
1198	0	0
1199	0	0
1200	0	0
1201	0	0
1202	0	0
1203	0	0
1204	0	0
1205	0	0.166667
1206	0	0.166667
1207	0	0.1
1208	0	0.1
1209	0	0.1
1210	0	0.133333
1211	0	0.133333
1212	0	0.955507
1213	0	0.955507
1214	0	0.948185
1215	0	0.948185
1216	0	0.333333
1217	0	0.333333
1218	0	0.333333
1219	0	0.333333
1220	0	0.333333
1221	0	0.333333
1222	0	0.166667
1223	0	0.166667
1224	0	0.166667
1225	0	0.166667
1226	0	0.166667
1227	0	0.166667
1228	0	0.166667
1229	0	0.166667
1230	0	0.166667
1231	0	0.166667
1232	0	0.166667
1233	0	0.1
1234	0	0.1
1235	0	0.1
1236	0	0.1
1237	0	0.1
1238	0	0.1
1239	0	0.2
1240	0	0.2
1241	0	0.2
1242	0	0.2
1243	0	0.948213
1244	0	0.948213
1245	0	0.948213
1246	0	0.948241
1247	0	0
1248	0	0.6
1249	0	0.2
1250	0	0.6
1251	0	0.666667
1252	0	0.47619
1253	0	0.52381
1254	0	0.52381
1255	0	0.52381
1256	0	0.52381
1257	0	0.52381
1258	0	0.52381
1259	0	0.52381
1260	0	0.52381
1261	0	0.52381
1262	0	0.52381
1263	0	0.52381
1264	0	0.52381
1265	0	0.52381
1266	0	0.52381
1267	0	0.52381
1268	0	0.52381
1269	0	0.571429
1270	0	0.571429
1271	0	0.571429
1272	0	0.571429
1273	0	0.52381
1274	0	0.52381
1275	0	0.52381
1276	0	0.52381
1277	0	0.52381
1278	0	0.52381
1279	0	0.52381
1280	0	0.52381
1281	0	0.52381
1282	0	0.52381
1283	0	0.571429
1284	0	0.571429
1285	0	0.571429
1286	0	0.571429
1287	0	0.611111
1288	0	0.611111
1289	0	0.611111
1290	0	0.611111
1291	0	0.611111
1292	0	0.611111
1293	0	0.611111
1294	0	0.672727
1295	0	0.672727
1296	0	0.672727
1297	0	0.672727
1298	0	0.672727
1299	0	0.672727
1300	0	1
1301	0	1
1302	0	1
1303	0	1
1304	0	1
1305	0	1
1306	0	1
1307	1	1
1308	1	1
1309	1	1
1310	1	1
1311	1	1
1312	1	1
1313	0	1
1314	0	1
1315	0	1
1316	0	1
1317	0	1
1318	0	1
1319	0	1
1320	0	0.846154
1321	0	0.846154
1322	0	0.846154
1323	0	0.846154
1324	0	0.846154
1325	0	0.846154
1326	0	0.846154
1327	0	0.846154
1328	0	0.846154
1329	0	0.846154
1330	0	0.846154
1331	0	0.846154
1332	0	0.846154
1333	0	0.846154
1334	0	0.846154
1335	0	0.846154
1336	0	0.846154
1337	0	0.846154
1338	0	0.846154
1339	0	0.846154
1340	0	0.846154
1341	0	0.846154
1342	0	0.846154
1343	0	0.846154
1344	0	0.846154
1345	0	0.846154
1346	0	0.846154
1347	0	0.846154
1348	0	0.846154
1349	0	0.846154
1350	0	0.846154
1351	0	0.846154
1352	0	0.846154
1353	0	0.846154
1354	0	0.899552
1355	0	0.817818
1356	0	0.835168
1357	0	0.748635
1358	0	0.713247
1359	0	0.71179
1360	0	0.429733
1361	0	0.381538
1362	0	0.38961
1363	0	0.438596
1364	0	0.438596
1365	0	0.470588
1366	0	0.575
1367	0	0.575
1368	0	0.575
1369	0	0.575
1370	0	0.575
1371	0	0.575
1372	0	0.657143
1373	0	0.657143
1374	0	0.657143
1375	0	0.657143
1376	0	0.657143
1377	0	0.657143
1378	0	0.657143
1379	0	0.657143
1380	0	0.6
1381	0	0.6
1382	0	0.6
1383	0	0.6
1384	0	0.6
1385	0	0.6
1386	0	0.6
1387	0	0.6
1388	0	0.558824
1389	0	0.558824
1390	0	0.558824
1391	0	0.558824
1392	0	0.558824
1393	0	0.558824
1394	0	0.558824
1395	0	0.558824
1396	0	0.558824
1397	0	0.558824
1398	0	0.558824
1399	0	0.558824
1400	0	0.558824
1401	0	0.558824
1402	0	0.558824
1403	0	0.558824
1404	0	0.558824
1405	0	0.558824
1406	0	0.458333
1407	0	0.411765
1408	0	0.411765
1409	0	0.411765
1410	0	0.411765
1411	0	0.411765
1412	0	0.411765
1413	0	0.411765
1414	0	0.411765
1415	0	0.411765
1416	0	0.411765
1417	0	0.411765
1418	0	0.411765
1419	0	0.411765
1420	0	0.411765
1421	0	0.411765
1422	0	0.411765
1423	0	0.411765
1424	0	0.411765
1425	0	0.411765
1426	0	0.411765
1427	0	0.411765
1428	0	0.411765
1429	0	0.411765
1430	0	0.411765
1431	0	0.411765
1432	0	0.411765
1433	0	0.458333
1434	0	0.458333
1435	0	0.47619
1436	0	0.666667
1437	0	0.666667
1438	0	0.666667
1439	0	0.666667
1440	0	0.666667
1441	0	0.666667
1442	0	0.666667
1443	0	0.666667
1444	0	0.666667
1445	0	0.666667
1446	0	0.666667
1447	0	0.666667
1448	0	0.666667
1449	0	0.666667
1450	0	0.666667
1451	0	0.666667
1452	0	0.666667
1453	0	0.666667
1454	0	0.666667
1455	0	0.666667
1456	0	0.47619
1457	0	0.47619
1458	0	0.47619
1459	0	0.666667
1460	0	0.666667
1461	0	0.666667
1462	0	0.666667
1463	0	0.666667
1464	0	0.666667
1465	0	0.666667
1466	0	0.666667
1467	0	0.666667
1468	0	0.666667
1469	0	0.666667
1470	0	0.666667
1471	0	0.666667
1472	0	0.666667
1473	0	0.666667
1474	0	0.666667
1475	0	0.666667
1476	0	0.666667
1477	0	0.666667
1478	0	0.666667
1479	0	0.666667
1480	0	0.666667
1481	0	0.666667
1482	0	0.666667
1483	0	0.666667
1484	0	0.666667
1485	0	0.666667
1486	0	0.666667
1487	0	0.666667
1488	0	0.666667
1489	0	0.666667
1490	0	0.666667
1491	0	0.666667
1492	0	1
1493	0	1
1494	1	1
1495	1	1
1496	1	1
1497	1	1
1498	1	1
1499	1	1
1500	1	1
1501	1	1
1502	1	1
1503	1	1
1504	1	1
1505	1	1
1506	1	1
1507	1	1
1508	1	1
1509	1	1
1510	1	1
1511	1	1
1512	1	1
1513	1	1
1514	1	1
1515	1	1
1516	1	1
1517	1	1
1518	1	1
1519	1	1
1520	1	1
1521	1	1
1522	1	1
1523	1	1
1524	0	1
1525	0	1
1526	0	1
1527	0	1
1528	0	1
1529	0	1
1530	0	1
1531	0	1
1532	0	1
1533	0	1
1534	0	1
1535	0	1
1536	0	1
1537	0	1
1538	0	1
1539	0	1
1540	0	1
1541	0	1
1542	0	1
1543	0	1
1544	0	1
1545	0	1
1546	1	1
1547	1	1
1548	1	1
1549	1	1
1550	1	1
1551	1	1
1552	1	1
1553	1	1
1554	1	1
1555	1	1
1556	1	1
1557	1	1
1558	0	1
1559	0	0.6
1560	0	0.2
1561	0	0.4
1562	0	0.4
1563	0	0.4
1564	0	0.4
1565	0	0.4
1566	0	0.4
1567	0	0.4
1568	0	0.4
1569	0	0.4
1570	0	0.4
1571	0	0.4
1572	0	0.4
1573	0	0.4
1574	0	0.4
1575	0	0.4
1576	0	0.4
1577	0	0.4
1578	0	0.4
1579	0	0.4
1580	0	0.4
1581	0	0.4
1582	0	0.4
1583	0	0.4
1584	0	0.4
1585	0	0.4
1586	0	0.4
1587	0	0.4
1588	0	0.4
1589	0	0.4
1590	0	0.4
1591	0	0.4
1592	0	0.4
1593	0	0.4
1594	0	0.4
1595	0	0.4
1596	0	0.4
1597	0	0.4
1598	0	0.4
1599	0	0.4
1600	0	0.4
1601	0	0.4
1602	0	0.4
1603	0	0.4
1604	0	0.4
1605	0	0.4
1606	0	0.4
1607	0	0.4
1608	0	0.4
1609	0	0.4
1610	0	0.4
1611	0	0.4
1612	0	0.4
1613	0	0.4
1614	0	0.4
1615	0	0.4
1616	0	0.4
1617	0	0.4
1618	0	0.4
1619	0	0.4
1620	0	0.4
1621	0	0.4
1622	0	0.4
1623	0	0.4
1624	0	0.4
1625	0	0.4
1626	0	0.4
1627	0	0.4
1628	0	0.4
1629	0	0.4
1630	0	0.4
1631	0	0.4
1632	0	0.4
1633	0	0.4
1634	0	1
1635	0	0
1636	0	0.6
1637	1	1
1638	1	1
1639	1	1
1640	1	1
1641	1	1
1642	1	1
1643	1	1
1644	1	1
1645	1	1
1646	1	1
1647	1	1
1648	1	1
1649	1	1
1650	1	1
1651	1	1
1652	1	1
1653	1	1
1654	1	1
1655	1	1
1656	1	1
1657	1	1
1658	1	1
1659	1	1
1660	1	1
1661	1	1
1662	1	1
1663	1	1
1664	1	1
1665	1	1
1666	1	1
1667	1	1
1668	1	1
1669	1	1
1670	1	1
1671	1	1
1672	1	1
1673	1	1
1674	1	1
1675	1	1
1676	1	1
1677	1	1
1678	1	1
1679	1	1
1680	1	1
1681	1	1
1682	1	1
1683	1	1
1684	1	1
1685	1	1
1686	1	1
1687	1	1
1688	1	1
1689	0	1
1690	0	1
1691	0	1
1692	0	1
1693	0	1
1694	0	1
1695	0	1
1696	0	1
1697	0	1
1698	0	1
1699	0	1
1700	0	1
1701	0	1
1702	0	1
1703	0	1
1704	0	1
1705	0	1
1706	0	1
1707	0	1
1708	0	1
1709	0	1
1710	1	1
1711	1	1
1712	1	1
1713	1	1
1714	0	1
1715	0	1
1716	0	1
1717	0	1
1718	0	1
1719	0	1
1720	0	1
1721	0	1
1722	0	1
1723	0	1
1724	0	1
1725	0	1
1726	1	1
1727	1	1
1728	1	1
1729	1	1
1730	1	1
1731	1	1
1732	1	1
1733	1	1
1734	1	1
1735	1	1
1736	1	1
1737	1	1
1738	0	1
1739	0	1
1740	0	1
1741	0	1
1742	0	1
1743	0	1
1744	0	1
1745	0	1
1746	0	1
1747	0	1
1748	0	1
1749	0	1
1750	0	1
1751	0	1
1752	0	1
1753	0	1
1754	1	1
1755	1	1
1756	1	1
1757	1	1
1758	1	1
1759	1	1
1760	1	1
1761	1	1
1762	1	1
1763	1	1
1764	0	0
1765	0	0
1766	1	0
1767	1	0
1768	0	0.6
1769	0	0.6
1770	1	1
1771	1	1
1772	1	1
1773	1	1
1774	1	1
1775	1	1
1776	1	1
1777	1	1
1778	1	1
1779	1	1
1780	1	1
1781	1	1
1782	1	1
1783	0	1
1784	0	1
1785	0	1
1786	0	1
1787	0	1
1788	0	1
1789	1	1
1790	1	1
1791	1	1
1792	1	1
1793	1	1
1794	1	1
1795	1	1
1796	1	1
1797	1	1
1798	1	1
1799	1	1
1800	1	1
1801	1	1
1802	1	1
1803	1	1
1804	1	1
1805	1	1
1806	1	1
1807	1	1
1808	1	1
1809	1	1
1810	1	1
1811	1	1
1812	1	1
1813	1	1
1814	1	1
1815	1	1
1816	1	1
1817	1	1
1818	1	1
1819	1	1
1820	1	1
1821	1	1
1822	1	1
1823	1	1
1824	1	1
1825	1	1
1826	1	1
1827	1	1
1828	1	1
1829	1	1
1830	1	1
1831	1	1
1832	1	1
1833	1	1
1834	1	1
