Site	ColumnScore	SumOfPairsScore
1	1	0
2	1	0
3	1	0
4	1	0
5	1	0
6	1	0
7	1	0
8	1	0
9	1	0
10	1	0
11	1	0
12	1	0
13	1	0
14	0	0
15	0	0
16	0	0
17	0	0
18	0	0
19	0	0
20	0	0
21	0	0
22	0	0
23	0	0
24	0	0
25	0	0
26	0	0
27	0	0
28	0	0
29	0	0
30	0	0
31	0	0
32	1	1
33	1	1
34	1	1
35	1	1
36	1	1
37	1	1
38	1	1
39	1	1
40	1	1
41	1	1
42	1	1
43	1	1
44	1	1
45	1	1
46	1	1
47	1	1
48	1	1
49	1	1
50	1	1
51	1	1
52	1	1
53	1	1
54	1	1
55	1	1
56	1	1
57	1	1
58	1	1
59	1	1
60	1	1
61	1	1
62	1	1
63	1	1
64	1	1
65	1	1
66	1	1
67	1	1
68	1	1
69	1	1
70	1	1
71	1	1
72	1	1
73	1	1
74	1	1
75	1	1
76	1	1
77	1	1
78	1	1
79	1	1
80	1	1
81	1	1
82	1	1
83	1	1
84	1	1
85	1	1
86	1	1
87	1	1
88	1	1
89	1	1
90	1	1
91	1	1
92	1	1
93	1	1
94	1	1
95	1	1
96	1	1
97	1	1
98	1	1
99	1	1
100	1	1
101	1	1
102	0	0.96311
103	0	0
104	0	0.955901
105	0	0.55901
106	0	0.524316
107	0	1
108	0	0.91383
109	0	0
110	1	1
111	1	1
112	1	1
113	1	1
114	1	1
115	1	1
116	1	1
117	0	0.992481
118	1	1
119	1	1
120	1	1
121	1	1
122	1	1
123	1	1
124	1	1
125	1	1
126	1	1
127	0	1
128	1	1
129	1	1
130	1	1
131	1	1
132	1	1
133	1	1
134	1	1
135	1	1
136	1	1
137	1	1
138	1	1
139	1	1
140	1	1
141	1	1
142	1	1
143	1	1
144	1	1
145	1	1
146	1	1
147	1	1
148	1	1
149	1	1
150	1	1
151	1	1
152	1	1
153	1	1
154	1	0
155	1	0
156	1	0
157	1	0
158	1	0
159	1	0
160	1	0
161	1	0
162	1	0
163	1	0
164	1	0
165	1	0
166	1	0
167	1	0
168	1	0
169	1	0
170	1	0
171	1	0
172	1	0
173	1	0
174	1	0
175	1	0
176	1	0
177	1	1
178	1	1
179	1	1
180	1	1
181	1	1
182	1	1
183	1	1
184	1	1
185	1	1
186	1	1
187	1	1
188	1	1
189	1	1
190	1	1
191	1	1
192	1	1
193	1	1
194	1	1
195	1	1
196	1	1
197	1	1
198	1	1
199	1	1
200	1	1
201	1	1
202	1	1
203	1	1
204	1	1
205	1	1
206	1	1
207	1	1
208	1	1
209	1	1
210	1	1
211	1	1
212	1	1
213	1	1
214	1	1
215	1	1
216	1	1
217	1	1
218	1	1
219	1	1
220	1	1
221	1	1
222	1	1
223	1	1
224	1	1
225	1	1
226	1	1
227	0	0.618005
228	0	0.618005
229	0	1
230	0	1
231	0	0.615274
232	0	0.60213
233	1	1
234	1	1
235	1	1
236	1	1
237	0	1
238	0	1
239	1	1
240	1	1
241	1	1
242	1	1
243	1	1
244	1	1
245	1	1
246	1	1
247	1	1
248	1	1
249	1	1
250	1	1
251	1	1
252	1	1
253	1	1
254	1	1
255	1	1
256	1	1
257	1	1
258	1	1
259	1	1
260	1	1
261	1	1
262	1	1
263	1	1
264	1	1
265	0	0.992537
266	1	1
267	0	1
268	1	1
269	1	1
270	1	1
271	0	1
272	0	0.985075
273	0	0.992537
274	1	1
275	1	1
276	1	1
277	1	1
278	1	1
279	1	1
280	1	1
281	1	1
282	1	1
283	1	1
284	1	1
285	1	1
286	1	1
287	1	1
288	1	1
289	1	1
290	1	1
291	1	1
292	1	1
293	0	1
294	0	1
295	0	1
296	0	0.992509
297	0	0.985103
298	0	0.983968
299	0	0.94434
300	0	0.948517
301	0	0.667437
302	0	0.541085
303	0	0.488289
304	0	0.70105
305	0	0.831208
306	0	0.920705
307	0	0.992537
308	1	1
309	1	1
310	1	1
311	1	1
312	1	1
313	1	1
314	1	1
315	1	1
316	1	1
317	1	1
318	1	1
319	1	1
320	1	1
321	1	1
322	1	1
323	1	1
324	1	1
325	1	1
326	1	1
327	1	1
328	1	1
329	1	1
330	1	1
331	1	1
332	1	1
333	0	0.992509
334	1	1
335	0	1
336	1	1
337	1	1
338	1	1
339	1	1
340	1	1
341	1	1
342	1	1
343	1	1
344	1	1
345	1	1
346	1	1
347	1	1
348	1	1
349	1	1
350	1	1
351	1	1
352	1	1
353	1	1
354	1	1
355	1	1
356	1	1
357	1	1
358	1	1
359	1	1
360	1	1
361	1	1
362	1	1
363	1	1
364	1	1
365	1	1
366	1	1
367	1	1
368	1	1
369	1	1
370	1	1
371	1	1
372	1	1
373	1	1
374	1	1
375	1	1
376	1	1
377	1	1
378	1	1
379	1	1
380	1	1
381	1	1
382	1	1
383	1	1
384	1	1
385	1	1
386	1	1
387	1	1
388	1	1
389	1	1
390	1	1
391	1	1
392	1	1
393	1	1
394	1	1
395	1	1
396	0	0
397	0	0
398	0	0
399	0	0.714286
400	0	1
401	0	1
402	0	0.947618
403	0	0
404	0	0
405	0	0
406	0	0
407	0	1
408	0	1
409	0	0
410	0	0
411	0	0.333333
412	0	0.166667
413	0	0.555147
414	0	0.682828
415	0	0.710359
416	0	0.393824
417	0	0.360263
418	0	0.25731
419	0	0.235294
420	0	0.323299
421	0	0.5
422	0	0.5
423	0	0.327515
424	0	0.183193
425	0	0.173333
426	0	0.276923
427	0	0.279487
428	0	0.20641
429	0	0.25641
430	0	0.297297
431	0	0.268254
432	0	0.282353
433	0	0.12381
434	0	0.145412
435	0	0.134328
436	0	0.140319
437	0	0.125222
438	0	0
439	0	0
440	0	0
441	0	0
442	0	0.14023
443	0	0.137931
444	0	0.133333
445	0	0.131327
446	0	0.125453
447	0	0.123078
448	0	0.1
449	0	0.1
450	0	0
451	0	0
452	0	0
453	0	0
454	0	0
455	0	0.047619
456	0	0.186859
457	0	0.18005
458	0	0.183166
459	0	0.181476
460	0	0.197355
461	0	0.269902
462	0	0.07
463	0	0.08
464	0	0.0948617
465	0	0.579288
466	0	0.660825
467	0	0.632873
468	0	0.648658
469	0	0.495027
470	0	0.512076
471	0	0.631793
472	0	0.639718
473	0	0.65963
474	0	0.679842
475	0	0.646674
476	0	0.667766
477	0	0.673003
478	0	0.66011
479	0	0
480	0	0
481	0	0
482	0	0.586892
483	0	0.585811
484	0	0.594923
485	0	0.565359
486	0	0
487	0	0
488	0	0
489	0	0
490	0	0
491	0	0
492	0	0
493	0	0
494	0	0
495	0	0
496	0	0
497	0	0.777778
498	0	0.631818
499	0	0
500	0	0.2
501	0	0.154437
502	0	0.313361
503	0	0.213648
504	0	0.128571
505	0	0.22381
506	0	0.201434
507	0	0.220311
508	0	0.227614
509	0	0.11553
510	0	0.303251
511	0	0.292848
512	0	0.371266
513	0	0.384752
514	0	0.732
515	0	0.706284
516	0	0.2
517	0	0.166667
518	0	0.5
519	0	0.5
520	0	0.684904
521	0	0.69568
522	0	1
523	0	1
524	0	0.92281
525	0	0.714286
526	0	1
527	0	0.962973
528	1	1
529	1	1
530	1	1
531	1	1
532	1	1
533	1	1
534	1	1
535	1	1
536	1	1
537	1	1
538	1	1
539	1	1
540	1	1
541	1	1
542	1	1
543	1	1
544	1	1
545	1	1
546	1	1
547	1	1
548	1	1
549	1	1
550	1	1
551	1	1
552	1	1
553	1	1
554	1	1
555	1	1
556	0	0
557	1	0
558	0	0.992537
559	1	1
560	1	1
561	1	0
562	1	1
563	1	1
564	1	1
565	1	1
566	1	1
567	1	1
568	1	1
569	1	1
570	1	1
571	1	1
572	1	1
573	1	1
574	1	1
575	1	1
576	1	1
577	1	1
578	1	1
579	1	1
580	1	1
581	1	1
582	1	1
583	1	1
584	1	1
585	1	1
586	1	1
587	1	1
588	1	1
589	0	0.992537
590	0	0
591	1	1
592	1	1
593	1	1
594	1	1
595	1	1
596	1	1
597	1	1
598	1	1
599	1	1
600	1	1
601	1	1
602	1	1
603	1	1
604	1	1
605	1	1
606	1	1
607	1	1
608	1	1
609	1	1
610	1	1
611	1	1
612	1	1
613	1	1
614	1	1
615	1	1
616	1	1
617	1	1
618	1	1
619	1	1
620	1	1
621	1	1
622	1	1
623	1	1
624	1	1
625	1	1
626	0	0.97778
627	0	0.956062
628	0	0.96311
629	0	0
630	0	0
631	0	0
632	0	0
633	0	0
634	0	0
635	0	0
636	0	0
637	0	0
638	0	0
639	0	0.0666667
640	0	0.0666667
641	0	0.0666667
642	0	0.877477
643	0	0.47139
644	0	0.468746
645	0	0.458421
646	0	0.458393
647	0	0.454929
648	0	0.441525
649	0	0
650	0	0.333333
651	0	0
652	0	0
653	0	0
654	0	0
655	0	0
656	0	0
657	0	1
658	0	0
659	0	0
660	0	0
661	0	0
662	0	0
663	0	0
664	0	0
665	0	0
666	0	0
667	0	0
668	0	0
669	0	0
670	0	0.166667
671	0	0.166667
672	0	0.709677
673	0	0.142857
674	0	0.0714286
675	0	0.422402
676	0	0.315675
677	0	0.269779
678	0	0.268015
679	0	0
680	0	0.195652
681	0	0.128079
682	0	0.0769231
683	0	0.0908456
684	0	0.117091
685	0	0.189884
686	0	0.185449
687	0	0
688	0	0
689	0	0
690	0	0
691	0	0
692	0	0
693	0	0
694	0	0
695	0	0
696	0	0.0285714
697	0	0.0549451
698	0	0.021978
699	0	0.159757
700	0	0.161598
701	0	0.157622
702	0	0.148684
703	0	0.196175
704	0	0.197785
705	0	0.141667
706	0	0.2
707	0	0.272727
708	0	0.333333
709	0	0
710	0	0
711	0	0
712	0	0
713	0	0
714	0	0
715	0	0
716	0	0.509677
717	0	0.619048
718	0	0.619048
719	0	0
720	0	0.1
721	0	0
722	0	0
723	0	0
724	0	0
725	0	0
726	0	0
727	0	0.166667
728	0	0.5
729	0	1
730	0	0.571429
731	0	0.630952
732	0	0.423653
733	0	0
734	0	0
735	0	0
736	0	0
737	0	0
738	0	0
739	0	0
740	0	0
741	0	0
742	0	0.611111
743	0	0.611111
744	0	0.660182
745	0	0.941061
746	0	0
747	0	0
748	0	0
749	0	0
750	0	0.969843
751	0	1
752	0	1
753	1	1
754	1	1
755	1	1
756	1	1
757	1	1
758	1	1
759	1	1
760	1	1
761	1	1
762	1	1
763	1	1
764	1	1
765	1	1
766	1	1
767	1	1
768	1	1
769	1	1
770	1	1
771	1	1
772	1	1
773	1	1
774	1	1
775	1	1
776	1	1
777	1	1
778	1	1
779	1	1
780	1	1
781	1	1
782	1	1
783	1	1
784	1	1
785	1	1
786	1	1
787	1	1
788	1	1
789	1	1
790	1	1
791	1	1
792	1	1
793	1	1
794	1	1
795	1	1
796	1	1
797	1	1
798	1	1
799	1	1
800	1	1
801	1	1
802	1	1
803	1	1
804	1	1
805	1	1
806	1	1
807	1	1
808	1	1
809	1	1
810	1	1
811	1	1
812	1	1
813	1	1
814	1	1
815	1	1
816	1	1
817	1	1
818	1	1
819	1	1
820	1	1
821	1	1
822	1	1
823	1	1
824	1	1
825	1	1
826	1	1
827	1	1
828	1	1
829	1	1
830	1	1
831	1	1
832	1	1
833	1	1
834	1	1
835	1	1
836	1	1
837	1	1
838	0	1
839	0	1
840	0	0.885678
841	0	0.884934
842	0	0.527273
843	0	0.527273
844	0	0.527273
845	0	0.527273
846	0	0.76351
847	0	0.751229
848	0	0.738593
849	0	0.600198
850	0	0.46
851	0	0.285595
852	0	0.273039
853	0	0.269455
854	0	0.0555556
855	0	0.111111
856	0	0.0833333
857	0	0.199751
858	0	0.194066
859	0	0
860	0	0
861	0	0
862	0	0
863	0	0
864	0	0.333333
865	0	0
866	0	0
867	0	0.166667
868	0	0.166667
869	0	0
870	0	0
871	0	0.0666667
872	0	0.193899
873	0	0.126348
874	0	0.124061
875	0	0.132356
876	0	0.133231
877	0	0.470732
878	0	0.219973
879	0	0.285714
880	0	0.4
881	0	0.4
882	0	0.4
883	0	0.4
884	0	0.4
885	0	0.166667
886	0	0.166667
887	0	0.166667
888	0	0.166667
889	0	0.166667
890	0	0.166667
891	0	0.166667
892	0	0.166667
893	0	0.166667
894	0	0.166667
895	0	0.0909118
896	0	0.0838945
897	0	0.0866053
898	0	0
899	0	0.142857
900	0	0.142857
901	0	0.047619
902	0	0.0666667
903	0	0.155556
904	0	0.0841144
905	0	0.0806356
906	0	0.0689364
907	0	0.0743995
908	0	0
909	0	0
910	0	0
911	0	0
912	0	0
913	0	0
914	0	0.1
915	0	0
916	0	0
917	0	0
918	0	0
919	0	0.0692188
920	0	0.0699389
921	0	0.0683248
922	0	0
923	0	0
924	0	0
925	0	0
926	0	0
927	0	0
928	0	0.166667
929	0	0.166667
930	0	0.166667
931	0	0.1
932	0	0.077074
933	0	0.0773943
934	0	0.110636
935	0	0.113195
936	0	0.107857
937	0	0.0855101
938	0	0.0834868
939	0	0.0782266
940	0	0.0730828
941	0	0.0775465
942	0	0.140123
943	0	0.156393
944	0	0.157692
945	0	0.164481
946	0	0.114362
947	0	0.0412698
948	0	0.0386555
949	0	0.047619
950	0	0.047619
951	0	0.0602151
952	0	0.0524194
953	0	0.0436975
954	0	0.0436975
955	0	0.037037
956	0	0.042735
957	0	0.0430769
958	0	0.0492308
959	0	0.0369231
960	0	0.0270936
961	0	0.0277778
962	0	0.0357143
963	0	0.0357143
964	0	0.0833333
965	0	0.107143
966	0	0.107143
967	0	0.107143
968	0	0.107143
969	0	0.107143
970	0	0.0488296
971	0	0.0562066
972	0	0.0603193
973	0	0.0761736
974	0	0.0816853
975	0	0.082423
976	0	0
977	0	0
978	0	0
979	0	0
980	0	0
981	0	0
982	0	0.0181818
983	0	0.0549451
984	0	0.043956
985	0	0.0989011
986	0	0.25
987	0	0.249231
988	0	0.315873
989	0	0.371751
990	0	0.293833
991	0	0.28456
992	0	0.30447
993	0	0.31627
994	0	0.350819
995	0	0.38777
996	0	0.346395
997	0	0.351806
998	0	0
999	0	0
1000	0	0
1001	0	0
1002	0	0
1003	0	0
1004	0	0
1005	0	0
1006	0	0
1007	0	0.5
1008	0	0.5
1009	0	0.5
1010	0	0.5
1011	0	0.5
1012	0	0.5
1013	0	0.5
1014	0	0.5
1015	0	0.5
1016	0	0.5
1017	0	0.5
1018	0	0.5
1019	0	0.5
1020	0	0.216234
1021	0	0.25
1022	0	0.25
1023	0	0.333333
1024	0	0.333333
1025	0	0.333333
1026	0	0.5
1027	0	0.5
1028	0	0.5
1029	0	0.288889
1030	0	0.309091
1031	0	0.309091
1032	0	0.343337
1033	0	0.345614
1034	0	0.622222
1035	0	0.622222
1036	0	0.622222
1037	0	0.8
1038	0	0.8
1039	0	0.8
1040	0	0.616014
1041	0	0.355556
1042	0	0.428571
1043	0	0.5
1044	0	1
1045	0	1
1046	0	1
1047	0	1
1048	0	1
1049	0	1
1050	0	1
1051	1	1
1052	1	1
1053	1	1
1054	1	1
1055	1	1
1056	1	1
1057	1	1
1058	1	1
1059	1	1
1060	1	1
1061	1	1
1062	1	1
1063	1	1
1064	1	1
1065	1	1
1066	1	1
1067	1	1
1068	1	1
1069	1	1
1070	1	1
1071	1	1
1072	1	1
1073	1	1
1074	1	1
1075	1	1
1076	1	1
1077	1	1
1078	1	1
1079	1	1
1080	1	1
1081	0	1
1082	0	1
1083	0	1
1084	1	1
1085	1	1
1086	1	1
1087	1	1
1088	1	1
1089	1	1
1090	1	1
1091	1	1
1092	1	1
1093	1	1
1094	1	1
1095	1	1
1096	1	1
1097	1	1
1098	1	1
1099	1	1
1100	1	1
1101	1	1
1102	1	1
1103	1	1
1104	1	1
1105	1	1
1106	1	1
1107	1	1
1108	1	1
1109	1	1
1110	1	1
1111	1	1
1112	1	1
1113	1	1
1114	1	1
1115	1	1
1116	1	1
1117	1	1
1118	1	1
1119	1	1
1120	1	1
1121	1	1
1122	1	1
1123	1	1
1124	1	1
1125	1	1
1126	1	1
1127	1	1
1128	1	1
1129	1	1
1130	1	1
1131	1	1
1132	1	1
1133	1	1
1134	1	1
1135	1	1
1136	1	1
1137	1	1
1138	1	1
1139	1	1
1140	1	1
1141	1	1
1142	1	1
1143	1	1
1144	1	1
1145	1	1
1146	1	1
1147	1	1
1148	1	1
1149	1	1
1150	1	1
1151	1	1
1152	1	1
1153	1	1
1154	1	1
1155	1	1
1156	1	1
1157	1	1
1158	1	1
1159	1	1
1160	1	1
1161	1	1
1162	1	1
1163	1	1
1164	1	1
1165	1	1
1166	1	1
1167	1	1
1168	1	1
1169	1	1
1170	1	1
1171	1	1
1172	1	1
1173	1	1
1174	1	1
1175	1	1
1176	1	1
1177	1	1
1178	1	1
1179	1	1
1180	1	1
1181	1	1
1182	1	1
1183	1	1
1184	1	1
1185	1	1
1186	1	1
1187	1	1
1188	1	1
1189	1	1
1190	1	1
1191	1	1
1192	1	1
1193	1	1
1194	1	1
1195	1	1
1196	1	1
1197	1	1
1198	1	1
1199	1	1
1200	1	1
1201	1	1
1202	1	1
1203	1	1
1204	1	1
1205	1	1
1206	1	1
1207	1	1
1208	1	1
1209	1	1
1210	1	1
1211	1	1
1212	1	1
1213	1	1
1214	1	1
1215	1	1
1216	1	1
1217	1	1
1218	1	1
1219	1	1
1220	1	1
1221	1	1
1222	1	1
1223	1	1
1224	1	1
1225	1	1
1226	1	1
1227	1	1
1228	1	1
1229	1	1
1230	1	1
1231	0	0.985075
1232	0	0.985075
1233	0	0.985019
