Site	ColumnScore	SumOfPairsScore
1	0	0
2	0	0
3	0	0
4	0	0
5	0	0
6	0	0
7	0	0
8	0	0
9	0	0
10	0	0
11	0	0
12	0	0
13	0	0
14	0	0
15	0	0
16	0	0
17	0	0
18	0	0
19	0	0
20	0	0
21	0	0
22	0	0
23	0	0
24	0	0
25	0	0
26	0	0
27	0	0
28	0	0
29	0	0
30	0	0
31	0	0
32	0	0
33	0	0
34	0	0
35	0	0
36	0	0
37	0	0
38	0	0
39	0	0
40	0	0
41	0	0
42	0	0
43	0	0
44	0	0
45	0	0
46	0	0
47	0	0
48	0	0
49	0	0
50	0	0
51	0	0
52	0	0.166667
53	0	0.166667
54	0	0.166667
55	0	0.166667
56	0	0.166667
57	0	0.166667
58	0	0.166667
59	0	0.166667
60	0	0.166667
61	0	0.166667
62	0	0.166667
63	0	0.166667
64	0	0.1
65	0	0.257576
66	0	0.831543
67	0	0.843718
68	0	0.824332
69	0	0.806143
70	0	0.770288
71	0	0.750353
72	0	0.41167
73	0	0.65907
74	0	0.0666667
75	0	0.0666667
76	0	0.1
77	0	0.047619
78	0	0.331361
79	0	0.287769
80	0	0.274332
81	0	0.473668
82	0	0.382971
83	0	0.403706
84	0	0.210984
85	0	0.201442
86	0	0.206841
87	0	0.214369
88	0	0.35852
89	0	0.354073
90	0	0.295086
91	0	0.23098
92	0	0.235829
93	0	0.201811
94	0	0.159567
95	0	0.136206
96	0	0.15763
97	0	0.243674
98	0	0.465887
99	0	0.486547
100	0	0.355556
101	0	0.236364
102	0	0.522365
103	0	0.517657
104	0	0.415116
105	0	0.412145
106	0	0.333333
107	0	0.333333
108	0	0.484859
109	0	0.2
110	0	0.2
111	0	0.368145
112	0	0.261688
113	0	0.331438
114	0	0.350169
115	0	0.350169
116	0	0.348207
117	0	0.297144
118	0	0.276733
119	0	0.276733
120	0	0.469075
121	0	0.497607
122	0	0.546032
123	0	0.912121
124	0	0.821062
125	0	0.828377
126	0	0.829386
127	0	0.830014
128	0	0.769271
129	0	0.769271
130	0	0.769179
131	0	0.455453
132	0	0.523284
133	0	0.528615
134	0	0.512984
135	0	0.285714
136	0	0.190476
137	0	0.53468
138	0	0.277778
139	0	0.436967
140	0	0.267598
141	0	0.23196
142	0	0.225987
143	0	0.286853
144	0	0
145	0	0
146	0	0
147	0	0.76817
148	0	0.623016
149	0	0.381628
150	0	0.509091
151	0	0.546353
152	0	0.539603
153	0	0.946794
154	0	0
155	0	0
156	0	0.781333
157	0	0.782843
158	0	0.80554
159	1	0
160	1	0
161	1	0
162	1	0
163	1	0
164	1	0
165	1	0
166	1	0
167	1	0
168	1	0
169	1	0
170	1	0
171	1	0
172	1	0
173	1	0
174	1	0
175	1	0
176	1	0
177	1	0
178	1	0
179	1	0
180	1	0
181	1	0
182	1	0
183	1	0
184	1	0
185	1	0
186	1	0
187	1	0
188	1	0
189	1	0
190	1	0
191	1	0
192	1	0
193	1	0
194	1	0
195	1	0
196	1	0
197	1	0
198	1	0
199	1	0
200	1	0
201	1	0
202	1	0
203	1	0
204	1	0
205	1	0
206	1	0
207	1	0
208	1	0
209	1	0
210	1	0
211	1	0
212	1	0
213	1	0
214	0	0.782521
215	0	0.770502
216	0	0.770502
217	0	0.758885
218	0	0.444444
219	0	0.444444
220	0	0.785753
221	0	0.791614
222	0	0.2
223	0	0.2
224	0	0.1
225	0	0.1
226	0	0.1
227	0	0.1
228	0	0
229	0	0
230	0	0
231	0	0
232	0	0
233	0	0
234	0	0
235	0	0
236	0	0
237	0	0
238	0	0
239	0	0
240	0	0
241	0	0
242	0	0
243	0	0
244	0	0
245	0	0
246	0	0
247	0	0
248	0	0
249	0	0.789815
250	0	0.782715
251	0	0.747952
252	0	0.731539
253	0	0.730943
254	0	0.748851
255	0	0.416667
256	0	0
257	0	0
258	0	0
259	0	0
260	0	0
261	0	0
262	0	0
263	0	0
264	0	0
265	0	0.718646
266	0	0.719242
267	0	0.694711
268	0	0.701086
269	0	0.672533
270	0	0.672503
271	0	0
272	0	0
273	0	0.166667
274	0	0.166667
275	0	0.166667
276	0	0
277	0	0
278	0	0
279	0	0.594771
280	0	0.556374
281	0	0.392558
282	0	0.388817
283	0	0.381779
284	0	0.371261
285	0	0.165126
286	0	0.159685
287	0	0.23913
288	0	0.23913
289	0	0.246377
290	0	0.326829
291	0	0.156556
292	0	0.187952
293	0	0.146199
294	0	0.162249
295	0	0.164112
296	0	0
297	0	0
298	0	0
299	0	0
300	0	0
301	0	0
302	0	0
303	0	0
304	0	0.285714
305	0	0.340594
306	0	0.289373
307	0	0.276774
308	0	0.704903
309	0	0.704903
310	0	0.706499
311	0	0.486334
312	0	0.942868
313	0	0.880046
314	0	0.888595
315	0	0.889007
316	0	0.924816
317	0	0.924816
318	0	0.925377
319	0	0.932468
320	0	0
321	0	0
322	0	0
323	0	0
324	0	0
325	0	0
326	0	0
327	0	0
328	0	0
329	0	0
330	0	0
331	0	0
332	0	0
333	0	0
334	0	0
335	0	0
336	0	0
337	0	0
338	0	0
339	0	0
340	0	1
341	0	0.977187
342	0	0.977187
343	0	0.977273
344	0	0.969756
345	0	0.955232
346	0	0.940758
347	0	0.940758
348	0	0
349	0	0
350	0	0
351	0	0
352	0	0
353	0	0
354	0	0
355	0	0
356	0	0
357	0	0
358	0	0
359	0	0
360	0	0
361	0	0
362	1	0
363	0	0
364	0	0
365	0	0
366	0	0.96026
367	0	0.96026
368	0	0.827674
369	0	0.819454
370	0	1
371	0	0
372	0	0.484796
373	0	0.448043
374	0	0.519481
375	0	0.519481
376	0	0.619883
377	0	0.354336
378	0	0.461538
379	0	0.333333
380	0	0.333333
381	0	0.333333
382	0	0.333333
383	0	0.333333
384	0	0.333333
385	0	0.454347
386	0	0.767567
387	0	0.76058
388	0	0.762255
389	0	0.63245
390	0	0.388692
391	0	0.389414
392	0	0.787311
393	0	0
394	0	0
395	0	0
396	0	0
397	0	0
398	0	0
399	0	0.534932
400	0	0.542574
401	0	0.545656
402	0	0
403	0	0.533196
404	0	0.313153
405	0	0
406	0	0.4
407	0	0.302623
408	0	0.197596
409	0	0
410	0	0
411	0	0.214706
412	0	0.438095
413	0	0.288889
414	0	0.248062
415	0	0.245989
416	0	0.333333
417	0	0.487598
418	0	0.293523
419	0	0.239068
420	0	0.247255
421	0	0.363633
422	0	0.142857
423	0	0.142857
424	0	0.544508
425	0	0.327273
426	0	0.741996
427	0	0.803146
428	0	0.803491
429	0	0.882353
430	0	0.888889
431	0	0.80117
432	0	1
433	0	1
434	0	0.992481
435	0	0.992509
436	0	0.992509
437	0	0.992509
438	0	0.992509
439	0	0.992509
440	0	0.992509
441	0	0.992509
442	0	0.992509
443	0	0.992509
444	0	0.992509
445	0	0.992509
446	1	1
447	1	1
448	1	1
449	1	1
450	1	1
451	1	1
452	1	1
453	0	0.992509
454	0	0.992509
455	0	0.992509
456	1	1
457	1	1
458	1	1
459	1	1
460	1	1
461	1	1
462	1	1
463	0	1
464	0	1
465	0	1
466	0	1
467	1	1
468	1	1
469	0	1
470	0	1
471	0	0.954545
472	0	0.64878
473	0	1
474	0	0.331579
475	0	0.379085
476	0	0.436364
477	0	0.5
478	0	0.5
479	0	0.623891
480	0	0.623401
481	0	0.613293
482	0	0.770833
483	0	0.721591
484	0	0.455556
485	0	0.491791
486	0	0.640927
487	0	0.672428
488	0	1
489	0	0.957447
490	0	0.992453
491	0	0.992509
492	0	0.992537
493	0	0.992537
494	0	0.992537
495	0	0.992537
496	0	1
497	1	1
498	1	1
499	1	1
500	1	1
501	1	1
502	1	1
503	1	1
504	1	1
505	1	1
506	1	1
507	1	1
508	1	1
509	1	1
510	1	1
511	1	1
512	1	1
513	1	1
514	1	1
515	1	1
516	1	1
517	1	1
518	1	1
519	1	1
520	1	1
521	1	1
522	1	1
523	1	1
524	1	1
525	1	1
526	1	1
527	1	1
528	1	1
529	1	1
530	1	1
531	1	1
532	1	1
533	1	1
534	1	1
535	1	1
536	1	1
537	1	1
538	1	1
539	0	1
540	1	1
541	1	1
542	1	1
543	1	1
544	1	1
545	1	1
546	1	1
547	1	1
548	1	1
549	1	1
550	0	0.934612
551	0	0.933404
552	0	0.826652
553	0	0.700535
554	0	0.45102
555	0	0.414013
556	0	0.464286
557	0	0.407989
558	0	0.529767
559	0	0.329738
560	0	0.332038
561	0	0.732815
562	0	0.726479
563	0	0.726479
564	0	1
565	0	1
566	0	1
567	0	1
568	0	1
569	0	1
570	0	1
571	0	0.4
572	0	0.62408
573	0	0.333333
574	0	0.333333
575	0	0.333333
576	0	0.333333
577	0	0.333333
578	0	0.333333
579	0	0.333333
580	0	0.333333
581	0	0.333333
582	0	0.487179
583	0	0.266667
584	0	0.266667
585	0	0.376044
586	0	0.165025
587	0	0.165517
588	0	0.208056
589	0	0.207373
590	0	0
591	0	0
592	0	0
593	0	0
594	0	0
595	0	0
596	0	0
597	0	0
598	0	0.333333
599	0	0.333333
600	0	0.333333
601	0	0.166667
602	0	0.0666667
603	0	0.0909091
604	0	0.138528
605	0	0.355367
606	0	0.275362
607	0	0.304233
608	0	0.186301
609	0	0.184798
610	0	0.176415
611	0	0.175165
612	0	0.175077
613	0	0.173876
614	0	0.172864
615	0	0.162947
616	0	0.179617
617	0	0.153906
618	0	0.1
619	0	0.1
620	0	0.1
621	0	0.0666667
622	0	0.0555556
623	0	0.177504
624	0	0.156143
625	0	0.149586
626	0	0.152933
627	0	0.175892
628	0	0.158542
629	0	0.139706
630	0	0.0754717
631	0	0.153581
632	0	0.107234
633	0	0.120556
634	0	0.126791
635	0	0.119831
636	0	0.147436
637	0	0.196833
638	0	0.296807
639	0	0.14094
640	0	0.152773
641	0	0.147821
642	0	0
643	0	0
644	0	0
645	0	0
646	0	0
647	0	0
648	0	0
649	0	0.215952
650	0	0.249755
651	0	0.266176
652	0	0
653	0	0.166667
654	0	0.166667
655	0	0.4
656	0	0.285714
657	0	0.624123
658	0	0.610844
659	0	0.3
660	0	0.5
661	0	0.5
662	0	0.5
663	0	0.5
664	0	0.666667
665	0	0.666667
666	0	0.609219
667	0	0.613071
668	0	0.621622
669	0	1
670	0	1
671	0	1
672	1	1
673	1	1
674	1	1
675	1	1
676	1	1
677	1	1
678	1	1
679	1	1
680	1	1
681	1	1
682	1	1
683	0	0.992509
684	0	0.992509
685	1	1
686	1	1
687	1	1
688	1	1
689	1	1
690	1	1
691	1	1
692	0	0.992481
693	0	0.992481
694	0	0.992481
695	0	0.992453
696	1	1
697	1	1
698	1	1
699	1	1
700	1	1
701	1	1
702	0	1
703	0	1
704	1	1
705	1	1
706	1	1
707	1	1
708	0	1
709	0	0.544187
710	0	0.50193
711	0	1
712	0	0.888223
713	0	0.970291
714	0	0.992424
715	0	0
716	1	1
717	1	1
718	1	1
719	1	1
720	1	1
721	1	1
722	1	1
723	1	1
724	1	1
725	1	1
726	1	1
727	1	1
728	1	1
729	1	1
730	1	1
731	1	1
732	1	1
733	1	1
734	1	1
735	1	1
736	1	1
737	1	1
738	1	1
739	1	1
740	0	1
741	0	1
742	0	1
743	0	1
744	0	1
745	0	1
746	0	1
747	0	1
748	0	0.96993
749	0	0.96993
750	0	0.962442
751	0	0.962442
752	0	0.772324
753	0	0
754	0	0
755	0	0
756	0	0
757	0	0.285714
758	0	0.190476
759	0	0.190476
760	0	0.190476
761	0	0.836796
762	0	0.836796
763	0	0.700874
764	0	0.702372
765	0	0.702372
766	0	0.757054
767	0	0.852259
768	0	0.882449
769	0	0.454701
770	0	0.868339
771	0	0.48778
772	0	0.345672
773	0	0.316427
774	0	0.31372
775	0	0.308542
776	0	0.305023
777	0	0.671028
778	0	0.671355
779	0	0.824373
780	0	0.720738
781	0	0.710279
782	0	0.835113
783	0	0.863994
784	0	0.863994
785	0	0.597308
786	0	0.621674
787	0	0.969232
788	0	0.976654
789	0	0.976745
790	0	0.984406
791	0	0.992157
792	0	0.992157
793	0	0.984406
794	0	0.969203
795	0	0.969203
796	0	0.969203
797	0	0.969203
798	0	0.919011
799	0	0.918982
800	0	0.926144
801	0	0.926144
802	0	0.926144
803	0	0.926144
804	0	0.933417
805	0	0.933417
806	0	0.926576
807	0	0.918885
808	0	0.918283
809	0	0.918885
810	0	0.932744
811	0	0.906507
812	0	0.906507
813	0	0.992188
814	0	0.992063
815	0	0.954907
816	0	0.927218
817	0	1
818	0	1
819	1	1
820	1	1
821	1	1
822	1	1
823	1	1
824	1	1
825	1	1
826	1	1
827	1	1
828	1	1
829	1	1
830	1	1
831	1	1
832	1	1
833	1	1
834	1	1
835	1	1
836	1	1
837	1	1
838	1	1
839	1	1
840	1	1
841	1	1
842	1	1
843	1	1
844	1	1
845	1	1
846	1	1
847	0	0.941224
848	0	0.890437
849	0	1
850	1	1
851	1	1
852	1	1
853	1	1
854	1	1
855	1	1
856	1	1
857	1	1
858	1	1
859	1	1
860	1	1
861	1	1
862	1	1
863	1	1
864	1	1
865	1	1
866	1	1
867	1	1
868	1	1
869	1	1
870	1	1
871	1	1
872	1	1
873	0	1
874	0	1
875	0	1
876	0	1
877	0	0.929233
878	0	1
879	0	1
880	0	1
881	0	1
882	0	0.6
883	0	0.6
884	0	0.6
885	0	0.6
886	0	0.6
887	0	0.6
888	0	0.6
889	0	0.6
890	0	0.6
891	0	0.321429
892	0	0.222222
893	0	0.625347
894	0	0.551684
895	0	0.442017
896	0	0.462185
897	0	0.594601
898	0	0.658333
899	0	0.351522
900	0	0.339061
901	0	0.32807
902	0	0.216352
903	0	0.217799
904	0	0.157404
905	0	0
906	0	0.242105
907	0	0.182654
908	0	1
909	0	0.248443
910	0	0.179704
911	0	0.187179
912	0	0.425
913	0	0.444444
914	0	0.628571
915	0	0.65
916	0	0.45
917	0	0.45
918	0	0.452962
919	0	0.382897
920	0	0.439508
921	0	0.85064
922	0	0.959853
923	0	0.960013
924	0	0.960013
925	0	0.944593
926	0	0.944593
927	0	0.937071
928	0	0.937253
929	0	0.937253
930	0	0.937498
931	0	0.98374
932	0	0.98374
933	0	0.98374
934	0	0.99177
935	0	0.983573
936	0	0.975411
937	0	0.823011
938	0	0.698914
939	0	0.166667
940	0	0
941	0	0.576305
942	0	0.580319
943	0	0.570521
944	0	0.577104
945	0	0.333333
946	0	0.333333
947	0	0.333333
948	0	0.776227
949	0	1
950	0	0.992278
951	0	1
952	0	1
953	1	1
954	1	1
955	1	1
956	1	1
957	1	1
958	1	1
959	1	1
960	1	1
961	1	1
962	1	1
963	1	1
964	1	1
965	1	1
966	1	1
967	1	1
968	1	1
969	1	1
970	1	1
971	1	1
972	1	1
973	1	1
974	1	1
975	0	0
976	0	0
977	0	0
978	0	0.992509
979	0	1
980	0	0.4
981	0	0.868854
982	0	0.868796
983	0	0.868796
984	0	1
985	0	1
986	0	1
987	0	0.466667
988	0	0.466667
989	0	0.466667
990	0	0.333333
991	0	0.333333
992	0	0.25
993	0	0.177778
994	0	0.155556
995	0	0.155556
996	0	0.2
997	0	0.2
998	0	0.266667
999	0	0.741958
1000	0	0.633979
1001	0	0.617151
1002	0	0.615422
1003	0	0
1004	0	0
1005	0	0
1006	0	0
1007	0	0
1008	0	0
1009	0	0
1010	0	0
1011	0	0
1012	0	0
1013	0	0
1014	0	0
1015	0	0
1016	0	0
1017	0	0
1018	0	0
1019	0	0
1020	0	0
1021	0	0
1022	0	0
1023	0	0
1024	0	0
1025	0	0
1026	0	0
1027	0	0
1028	0	0
1029	0	0
1030	0	0.0833333
1031	0	0.0833333
1032	0	0.0833333
1033	0	0.0833333
1034	0	0.0727273
1035	0	0.0909091
1036	0	0.0769231
1037	0	0.0882353
1038	0	0.0882353
1039	0	0.339744
1040	0	0.283298
1041	0	0.254252
1042	0	0.153623
1043	0	0.133555
1044	0	0.263632
1045	0	0.23195
1046	0	0.220343
1047	0	0.216163
1048	0	0.203568
1049	0	0.103179
1050	0	0.102564
1051	0	0.080895
1052	0	0.0865801
1053	0	0.0587808
1054	0	0.0691489
1055	0	0.0820513
1056	0	0.0794872
1057	0	0.0697013
1058	0	0.0583215
1059	0	0.0483642
1060	0	0.0510511
1061	0	0.048048
1062	0	0.0465465
1063	0	0.0495495
1064	0	0.0619048
1065	0	0.0619048
1066	0	0.0615616
1067	0	0.0615616
1068	0	0.177477
1069	0	0.170329
1070	0	0.103934
1071	0	0.114286
1072	0	0.110559
1073	0	0.113458
1074	0	0.118427
1075	0	0.185517
1076	0	0.189655
1077	0	0.217922
1078	0	0.277276
1079	0	0.322009
1080	0	0.345507
1081	0	0.3501
1082	0	0.348897
1083	0	0.354829
1084	0	0
1085	0	0
1086	0	0
1087	0	0
1088	0	0
1089	0	0
1090	0	0
1091	0	0
1092	0	0
1093	0	0
1094	0	0
1095	0	0
1096	0	0
1097	0	0
1098	0	0
1099	0	0
1100	0	0
1101	0	0
1102	0	0
1103	0	0
1104	0	0
1105	0	0
1106	0	0
1107	0	0
1108	0	0
1109	0	0
1110	0	0
1111	0	0
1112	0	0.1
1113	0	0.6
1114	0	0.6
1115	0	0.6
1116	0	0.6
1117	0	0.777778
1118	0	0.777778
1119	0	0.777778
1120	0	0.622222
1121	0	0.622222
1122	0	0.654545
1123	0	0.505495
1124	0	0.615385
1125	0	0.707602
1126	0	0.637071
1127	0	0.637071
1128	0	0.401691
1129	0	0.213235
1130	0	0.433824
1131	0	0.657143
1132	0	1
1133	0	1
1134	0	1
1135	0	1
1136	0	1
1137	0	1
1138	1	1
1139	1	1
1140	1	1
1141	1	1
1142	1	1
1143	1	1
1144	1	1
1145	1	1
1146	1	1
1147	1	1
1148	1	1
1149	1	1
1150	1	1
1151	1	1
1152	1	1
1153	1	1
1154	1	1
1155	0	0.824138
1156	0	1
1157	0	0.977724
1158	0	0.977696
1159	0	0.705909
1160	0	0
1161	0	0
1162	0	0
1163	0	0.612825
1164	0	0.892923
1165	0	1
1166	0	1
1167	1	1
1168	1	1
1169	1	1
1170	1	1
1171	1	1
1172	1	1
1173	0	0
1174	0	0
1175	0	0
1176	0	0
1177	0	0
1178	0	0
1179	0	0
1180	0	0
1181	0	0
1182	0	0.992481
1183	0	0.97018
1184	0	0.777778
1185	0	1
1186	0	0.355556
1187	0	0.893685
1188	0	0.862526
1189	0	0.501511
1190	0	0.493228
1191	0	0.493228
1192	0	0.371795
1193	0	0.371795
1194	0	0.371795
1195	0	0.216248
1196	0	0.210317
1197	0	0.327047
1198	0	0.305574
1199	0	0.296032
1200	0	0.287757
1201	0	0.273101
1202	0	0.231583
1203	0	0.181818
1204	0	0.0727273
1205	0	0.0545455
1206	0	0.0545455
1207	0	0.0545455
1208	0	0.0545455
1209	0	0.0545455
1210	0	0.0606061
1211	0	0.043956
1212	0	0.043956
1213	0	0.043956
1214	0	0.047619
1215	0	0.047619
1216	0	0.0380952
1217	0	0.0380952
1218	0	0.0367647
1219	0	0.0261438
1220	0	0.0263158
1221	0	0.0433333
1222	0	0.175439
1223	0	0.169399
1224	0	0.174011
1225	0	0.172881
1226	0	0.158218
1227	0	0.15
1228	0	0.13659
1229	0	0.139596
1230	0	0.132091
1231	0	0.129175
1232	0	0.129175
1233	0	0.128773
1234	0	0.128773
1235	0	0.151017
1236	0	0.111652
1237	0	0.0970378
1238	0	0.088151
1239	0	0.0877193
1240	0	0.0672369
1241	0	0.0835714
1242	0	0.0649415
1243	0	0.0529538
1244	0	0.0523586
1245	0	0.0601294
1246	0	0.0544762
1247	0	0.0531753
1248	0	0.0575858
1249	0	0.0480457
1250	0	0.0542991
1251	0	0
1252	0	0
1253	0	0
1254	0	0
1255	0	0
1256	0	0
1257	0	0
1258	0	0
1259	0	0
1260	0	0
1261	0	0
1262	0	0
1263	0	0
1264	0	0
1265	0	0
1266	0	0
1267	0	0
1268	0	0
1269	0	0
1270	0	0
1271	0	0
1272	0	0.0714286
1273	0	0.0564972
1274	0	0.0569386
1275	0	0.0607267
1276	0	0
1277	0	0
1278	0	0
1279	0	0
1280	0	0
1281	0	0
1282	0	0
1283	0	0
1284	0	0
1285	0	0
1286	0	0
1287	0	0
1288	0	0
1289	0	0
1290	0	0
1291	0	0
1292	0	0
1293	0	0
1294	0	0.166667
1295	0	0.0651283
1296	0	0.064881
1297	0	0.0667813
1298	0	0.060266
1299	0	0.0602317
1300	0	0.0601533
1301	0	0.0608606
1302	0	0.0699676
1303	0	0.0785441
1304	0	0.0771294
1305	0	0.0724978
1306	0	0.0175439
1307	0	0.0175439
1308	0	0.0175439
1309	0	0.00584795
1310	0	0.0175439
1311	0	0.0116959
1312	0	0.00584795
1313	0	0.068488
1314	0	0.0658003
1315	0	0.0628597
1316	0	0.0640296
1317	0	0.0634288
1318	0	0.0676342
1319	0	0
1320	0	0
1321	0	0.333333
1322	0	0.333333
1323	0	0
1324	0	0
1325	0	0
1326	0	0
1327	0	0
1328	0	0
1329	0	0
1330	0	0
1331	0	0
1332	0	0
1333	0	0
1334	0	0
1335	0	0
1336	0	0
1337	0	0
1338	0	0
1339	0	0
1340	0	0
1341	0	0
1342	0	0
1343	0	0
1344	0	0
1345	0	0
1346	0	0
1347	0	0
1348	0	0
1349	0	0
1350	0	0
1351	0	0
1352	0	0
1353	0	0
1354	0	0
1355	0	0
1356	0	0
1357	0	0
1358	0	0
1359	0	0
1360	0	0
1361	0	0
1362	0	0
1363	0	0
1364	0	0
1365	0	0
1366	0	0
1367	0	0
1368	0	0
1369	0	0
1370	0	0
1371	0	0
1372	0	0
1373	0	0
1374	0	0
1375	0	0
1376	0	0
1377	0	0
1378	0	0
1379	0	0
1380	0	0
1381	0	0
1382	0	0
1383	0	0
1384	0	0
1385	0	0
1386	0	0
1387	0	0
1388	0	0
1389	0	0
1390	0	0
1391	0	0
1392	0	0
1393	0	0
1394	0	0
1395	0	0
1396	0	0
1397	0	0
1398	0	0
1399	0	0
1400	0	0
1401	0	0
1402	0	0
1403	0	0
1404	0	0
1405	0	0
1406	0	0
1407	0	0
1408	0	0
1409	0	0
1410	0	0
1411	0	0
1412	0	0
1413	0	0
1414	0	0
1415	0	0
1416	0	0
1417	0	0
1418	0	0
1419	0	0
1420	0	0
1421	0	0
1422	0	0
1423	0	0
1424	0	0
1425	0	0
1426	0	0
1427	0	0
1428	0	0
1429	0	0
1430	0	0
1431	0	0
1432	0	0
1433	0	0
1434	0	0
1435	0	0
1436	0	0
1437	0	0
1438	0	0
1439	0	0
1440	0	0
1441	0	0
1442	0	0.0190476
1443	0	0.0166667
1444	0	0.00735294
1445	0	0.00735294
1446	0	0.00653595
1447	0	0.0130719
1448	0	0.0147059
1449	0	0.00865801
1450	0	0.004329
1451	0	0.00362319
1452	0	0.00724638
1453	0	0.0108696
1454	0	0.0108696
1455	0	0.0108696
1456	0	0.0108696
1457	0	0.0108696
1458	0	0.0108696
1459	0	0.0133333
1460	0	0.00666667
1461	0	0.00923077
1462	0	0.00854701
1463	0	0.017094
1464	0	0.0185185
1465	0	0.0107527
1466	0	0.0094697
1467	0	0.095791
1468	0	0.100337
1469	0	0.0846995
1470	0	0.0622066
1471	0	0.0361969
1472	0	0.0339447
1473	0	0.0336086
1474	0	0.0409159
1475	0	0.0397174
1476	0	0.0530099
1477	0	0.0518427
1478	0	0.0532534
1479	0	0.0667852
1480	0	0.0696159
1481	0	0.0672131
1482	0	0
1483	0	0
1484	0	0
1485	0	0
1486	0	0
1487	0	0
1488	0	0
1489	0	0
1490	0	0.0139141
1491	0	0.0382808
1492	0	0.0467838
1493	0	0.0470803
1494	0	0.0467529
1495	0	0
1496	0	0
1497	0	0
1498	0	0
1499	0	0
1500	0	0.187879
1501	0	0
1502	0	0
1503	0	0
1504	0	0
1505	0	0
1506	0	0
1507	0	0
1508	0	0
1509	0	0
1510	0	0
1511	0	0
1512	0	0
1513	0	0
1514	0	0
1515	0	0
1516	0	0
1517	0	0
1518	0	0
1519	0	0
1520	0	0
1521	0	0
1522	0	0
1523	0	0
1524	0	0
1525	0	0
1526	0	0
1527	0	0
1528	0	0
1529	0	0
1530	0	0
1531	0	0
1532	1	0
1533	1	0
1534	1	0
1535	0	0
1536	0	0
1537	0	0
1538	0	0
1539	0	0
1540	1	0
1541	1	0
1542	1	0
1543	1	0
1544	1	0
1545	1	0
1546	1	0
1547	1	0
1548	1	0
1549	1	0
1550	0	0
1551	0	0
1552	0	0
1553	0	0
1554	0	0
1555	0	0
1556	0	0
1557	0	0
1558	0	0
1559	0	0
1560	1	0
1561	1	0
1562	0	0
1563	0	0
1564	0	0
1565	0	0
1566	0	0
1567	0	0
1568	0	0
1569	0	0
1570	0	0
1571	0	0
1572	0	0
1573	0	0
1574	0	0
1575	0	0
1576	0	0
1577	0	0
1578	0	0
1579	0	0
1580	0	0
1581	0	0
1582	1	0
1583	1	0
1584	1	0
1585	1	0
1586	1	0
1587	1	0
1588	1	0
1589	1	0
1590	1	0
1591	1	0
1592	1	0
1593	1	0
1594	1	0
1595	1	0
1596	1	0
1597	1	0
1598	1	0
1599	1	0
1600	1	0
1601	1	0
1602	1	0
1603	1	0
1604	1	0
1605	1	0
1606	1	0
1607	1	0
1608	1	0
1609	1	0
1610	1	0
1611	1	0
1612	1	0
1613	1	0
1614	1	0
1615	0	0.6
1616	0	0.0512589
1617	0	0.0558028
1618	0	0.0524416
1619	0	0
1620	0	0
1621	0	0
1622	0	0
1623	0	0
1624	0	0
1625	0	0.00584795
1626	0	0.00584795
1627	0	0.00584795
1628	0	0.0671484
1629	0	0.010989
1630	0	0.010989
1631	0	0.00952381
1632	0	0.00952381
1633	0	0.00952381
1634	0	0.0512794
1635	0	0.0489665
1636	0	0.0585357
1637	0	0.0577514
1638	0	0.0549852
1639	0	0.0538446
1640	0	0.0539908
1641	0	0.0324936
1642	0	0.0321285
1643	0	0.0243216
1644	0	0.0241206
1645	0	0.0254048
1646	0	0.0254486
1647	0	0.0233425
1648	0	0.0237842
1649	0	0.0772386
1650	0	0.0782638
1651	0	0.0772386
1652	0	0.0796309
1653	0	0.0796309
1654	0	0.0781646
1655	0	0.0794304
1656	0	0.084312
1657	0	0.0822803
1658	0	0.049949
1659	0	0.046027
1660	0	0.0524403
1661	0	0.0302124
1662	0	0.038674
1663	0	0.0391597
1664	0	0.0384315
1665	0	0.0387318
1666	0	0.0402526
1667	0	0.0391597
1668	0	0.0400528
1669	0	0.0350688
1670	0	0.0355492
1671	0	0.0411337
1672	0	0.099643
1673	0	0.0993184
1674	0	0.04915
1675	0	0.0638232
1676	0	0.0615398
1677	0	0.0463632
1678	0	0.0465201
1679	0	0.0486266
1680	0	0.052862
1681	0	0.051677
1682	0	0.0508032
1683	0	0.0509237
1684	0	0.0501847
1685	0	0.0793651
1686	0	0.0580297
1687	0	0.0591899
1688	0	0.0593156
1689	0	0.0475891
1690	0	0.0509127
1691	0	0.0589486
1692	0	0.0487295
1693	0	0.050899
1694	0	0.0519872
1695	0	0.0693863
1696	0	0.0730333
1697	0	0.074656
1698	0	0
1699	0	0
1700	0	0
1701	0	0
1702	0	0
1703	0	0
1704	0	0
1705	0	0
1706	0	0
1707	0	0
1708	0	0
1709	0	0
1710	0	0
1711	0	0
1712	0	0
1713	0	0
1714	0	0
1715	0	0
1716	0	0
1717	0	0
1718	0	0
1719	0	0
1720	0	0
1721	0	0
1722	0	0
1723	0	0
1724	0	0
1725	0	0
1726	0	0
1727	0	0
1728	0	0
1729	0	0
1730	0	0
1731	0	0
1732	0	0
1733	0	0
1734	0	0
1735	0	0
1736	0	0
1737	0	0
1738	0	0
1739	0	0
1740	0	0
1741	0	0
1742	0	0
1743	0	0
1744	0	0
1745	0	0
1746	0	0.0222222
1747	0	0.0454545
1748	0	0.0380952
1749	0	0.0350877
1750	0	0.0571429
1751	0	0.126154
1752	0	0.167488
1753	0	0.0998468
1754	0	0.091886
1755	0	0.0876289
1756	0	0.105958
1757	0	0.0886869
1758	0	0.0862626
1759	0	0.0914851
1760	0	0.244584
1761	0	0.259958
1762	0	0.244584
1763	0	0.14968
1764	0	0.140963
1765	0	0.148432
1766	0	0.154533
1767	0	0.154533
1768	0	0.150505
1769	0	0.175679
1770	0	0.174692
1771	0	0.421053
1772	0	0.468468
1773	0	0.679803
1774	0	0
1775	0	0
1776	0	0
1777	0	0
1778	0	0
1779	0	0
1780	0	0.05
1781	0	0.05
1782	0	0.0571429
1783	0	0.107143
1784	0	0.142857
1785	0	0.0666667
1786	0	0
1787	0	0
1788	0	0
1789	0	0
1790	0	0
1791	0	0
1792	0	0
1793	0	0
1794	0	0
1795	0	0
1796	0	0
1797	0	0
1798	1	0
1799	1	0
1800	1	0
1801	1	0
1802	1	0
1803	1	0
1804	1	0
1805	1	0
1806	1	0
1807	1	0
1808	1	0
1809	1	0
1810	1	0
1811	1	0
1812	1	0
1813	1	0
1814	1	0
1815	1	0
1816	1	0
1817	1	0
1818	1	0
1819	1	0
1820	1	0
1821	1	0
1822	1	0
1823	1	0
1824	1	0
1825	1	0
1826	1	0
1827	1	0
1828	1	0
1829	1	0
1830	1	0
1831	1	0
1832	1	0
1833	1	0
1834	1	0
1835	1	0
1836	1	0
1837	1	0
1838	1	0
1839	1	0
1840	1	0
1841	1	0
1842	1	0
1843	1	0
1844	1	0
1845	1	0
1846	1	0
1847	1	0
1848	1	0
1849	1	0
1850	1	0
1851	1	0
1852	1	0
1853	1	0
1854	1	0
1855	1	0
1856	1	0
1857	1	0
1858	1	0
1859	1	0
1860	1	0
1861	1	0
1862	1	0
1863	1	0
1864	1	0
1865	1	0
1866	1	0
1867	1	0
1868	1	0
1869	1	0
1870	1	0
1871	1	0
1872	1	0
1873	1	0
1874	1	0
1875	1	0
1876	1	0
1877	1	0
1878	1	0
1879	1	0
1880	1	0
1881	1	0
1882	1	0
1883	1	0
1884	1	0
1885	1	0
1886	1	0
1887	1	0
1888	1	0
1889	1	0
1890	1	0
1891	1	0
1892	1	0
1893	1	0
1894	1	0
1895	1	0
1896	1	0
1897	1	0
1898	1	0
1899	1	0
1900	1	0
1901	1	0
1902	1	0
1903	1	0
1904	1	0
1905	1	0
1906	1	0
1907	1	0
1908	1	0
1909	1	0
1910	1	0
1911	1	0
1912	1	0
1913	1	0
1914	1	0
1915	1	0
1916	1	0
1917	1	0
1918	1	0
1919	1	0
1920	1	0
1921	1	0
1922	1	0
1923	1	0
1924	1	0
1925	1	0
1926	1	0
1927	1	0
1928	1	0
1929	1	0
1930	1	0
1931	1	0
1932	1	0
1933	1	0
1934	1	0
1935	1	0
1936	1	0
1937	1	0
1938	1	0
1939	1	0
1940	1	0
1941	1	0
1942	1	0
1943	1	0
1944	1	0
1945	1	0
1946	1	0
1947	1	0
1948	1	0
1949	1	0
1950	1	0
1951	1	0
1952	1	0
1953	1	0
1954	1	0
1955	1	0
1956	1	0
1957	1	0
1958	1	0
1959	1	0
1960	1	0
1961	1	0
1962	1	0
1963	1	0
1964	1	0
1965	1	0
1966	1	0
1967	1	0
1968	1	0
1969	1	0
1970	1	0
1971	1	0
1972	1	0
1973	1	0
1974	1	0
1975	1	0
1976	1	0
1977	1	0
1978	1	0
1979	1	0
1980	1	0
1981	1	0
1982	1	0
1983	1	0
1984	1	0
1985	1	0
1986	1	0
1987	1	0
1988	1	0
1989	1	0
1990	1	0
1991	1	0
1992	1	0
1993	1	0
1994	1	0
1995	1	0
1996	1	0
1997	1	0
1998	1	0
1999	1	0
2000	1	0
2001	1	0
2002	1	0
2003	1	0
2004	1	0
2005	1	0
2006	1	0
2007	1	0
2008	1	0
2009	1	0
2010	1	0
2011	1	0
2012	1	0
2013	1	0
2014	1	0
2015	1	0
2016	1	0
2017	1	0
2018	1	0
2019	1	0
2020	1	0
2021	1	0
2022	1	0
2023	1	0
2024	1	0
2025	1	0
2026	1	0
2027	1	0
2028	1	0
2029	1	0
2030	1	0
2031	1	0
2032	1	0
2033	1	0
2034	1	0
2035	1	0
2036	1	0
2037	1	0
2038	1	0
2039	1	0
2040	1	0
2041	1	0
2042	1	0
2043	1	0
2044	1	0
2045	1	0
2046	1	0
2047	1	0
2048	1	0
2049	1	0
2050	1	0
2051	1	0
2052	1	0
2053	1	0
2054	1	0
2055	1	0
2056	1	0
2057	1	0
2058	1	0
2059	1	0
2060	1	0
2061	1	0
2062	1	0
2063	1	0
2064	1	0
2065	1	0
