Site	ColumnScore	SumOfPairsScore
1	1	0
2	1	0
3	1	0
4	1	0
5	1	0
6	1	0
7	1	0
8	1	0
9	1	0
10	1	0
11	1	0
12	1	0
13	1	0
14	1	0
15	1	0
16	1	0
17	1	0
18	1	0
19	1	0
20	1	0
21	1	0
22	1	0
23	1	0
24	1	0
25	1	0
26	1	0
27	1	0
28	1	0
29	1	0
30	1	0
31	1	0
32	1	0
33	0	0.333333
34	0	0.333333
35	0	0.2
36	0	0.142857
37	0	0.325
38	0	0.233766
39	0	0.199275
40	0	0.280127
41	0	0.280127
42	0	0.267677
43	0	0.267677
44	0	0.267677
45	0	0.267677
46	0	0.266667
47	0	0.266667
48	0	0.251515
49	0	0.251515
50	0	0.259596
51	0	0.221212
52	0	0.221212
53	0	0.221212
54	0	0.218182
55	0	0.254545
56	0	0.254545
57	0	0.251515
58	0	0.248485
59	0	0.292929
60	0	0.289899
61	0	0.289899
62	0	0.289899
63	0	0.309091
64	0	0.314141
65	0	0.314141
66	0	0.313131
67	0	0.343434
68	0	0.349495
69	0	0.609091
70	0	0.679798
71	0	0.830867
72	0	0.830867
73	0	0.830867
74	0	0.954545
75	0	0.91401
76	0	0.91401
77	0	0.91401
78	0	0.91401
79	0	0.91401
80	0	0.91401
81	0	0.91401
82	0	0.872464
83	0	0.91401
84	0	0.91401
85	0	0.91401
86	0	0.91401
87	0	0.91401
88	0	0.91401
89	0	0.91401
90	0	0.91401
91	0	0.91401
92	0	0.875116
93	0	0.875116
94	0	0.875116
95	0	0.835338
96	0	0.836263
97	0	0.836263
98	0	0.836263
99	0	0.87343
100	0	0.333333
101	0	0.915819
102	0	0.915819
103	0	0.915819
104	0	0.915819
105	0	0.915819
106	0	0.915819
107	0	0.915819
108	0	0.915819
109	0	0.915819
110	0	0.915819
111	0	0.915819
112	0	0.915819
113	0	0.915819
114	0	0.915819
115	0	0.915819
116	0	0.915819
117	0	0.915819
118	0	0.91401
119	0	0.91401
120	0	0.91401
121	0	0.91401
122	0	0.91401
123	0	0.91401
124	0	0.91401
125	0	0.91401
126	0	0.91401
127	0	0.91401
128	0	0.91401
129	0	0.91401
130	0	0.91401
131	0	0.91401
132	0	0.875116
133	0	0.875116
134	0	0.875116
135	0	0.875116
136	0	0.91401
137	0	0.91401
138	0	0.872464
139	0	0.872464
140	0	0.872464
141	0	0.872464
142	0	0.91401
143	0	0.91401
144	0	0.91401
145	0	0.91401
146	0	0.91401
147	0	0.91401
148	0	0.91401
149	0	0.91401
150	0	0.91401
151	0	0.91401
152	0	0.91401
153	0	0.91401
154	0	0.91401
155	0	0.91401
156	0	0.91401
157	0	0.955556
158	0	0.955556
159	0	0.955556
160	0	0.955556
161	0	0.955556
162	0	0.955556
163	0	0.955556
164	0	0.516162
165	0	0.243434
166	0	0.255556
167	0	0.263636
168	0	0
169	0	0
170	0	0
171	0	0
172	0	0
173	0	0.142857
174	0	0.194444
175	0	0.145455
176	0	0.213235
177	0	0.210526
178	0	0.349206
179	0	0.292308
180	0	0.2463
181	0	0.253535
182	0	0.251515
183	0	0.251515
184	0	0.155556
185	0	0.147992
186	0	0.169133
187	0	0.190275
188	0	0.196617
189	0	0.266385
190	0	0.257928
191	0	0.244186
192	0	0.258985
193	0	0.298097
194	0	0.302326
195	0	0.405051
196	0	0.788889
197	0	0.829293
198	0	0.829293
199	0	0.912121
200	0	0.912121
201	0	0.912121
202	0	0.955556
203	0	0.955556
204	0	0.955556
205	0	0.955556
206	0	0.955556
207	0	0.955556
208	0	0.955556
209	0	0.955556
210	0	0.955556
211	0	0.955556
212	0	0.91401
213	0	0.91401
214	0	0.91401
215	0	0.91401
216	0	0.91401
217	0	0.875116
218	0	0.875116
219	0	0.875116
220	0	0.875116
221	0	0.875116
222	0	0.875116
223	0	0.875116
224	0	0.875116
225	0	0.875116
226	0	0.875116
227	0	0.875116
228	0	0.875116
229	0	0.875116
230	0	0.875116
231	0	0.875116
232	0	0.875116
233	0	0.875116
234	0	0.875116
235	0	0.875116
236	0	0.875116
237	0	0.875116
238	0	0.872464
239	0	0.437681
240	0	1
241	0	0.6
242	0	0.6
243	0	0.6
244	0	0.5
245	0	0.5
246	0	0.5
247	0	0.5
248	0	0.333333
249	0	0.333333
250	0	0.333333
251	0	0.333333
252	0	0.333333
253	0	0.333333
254	0	0.333333
255	0	0
256	0	0
257	0	0
258	0	0
259	0	0
260	0	0
261	0	0
262	0	0
263	0	0
264	0	0
265	0	0
266	0	0
267	0	0
268	0	0
269	0	0
270	0	0
271	0	0
272	0	0
273	0	0
274	0	0
275	0	0
276	0	0
277	0	0
278	0	0
279	0	0
280	0	0
281	0	0
282	0	0
283	0	0
284	0	0
285	0	0
286	0	0
287	0	0
288	0	0
289	0	0
290	0	0
291	0	0
292	0	0.166667
293	0	0.166667
294	0	0.1
295	0	0.142857
296	0	0.214286
297	0	0.194444
298	0	0.49189
299	0	0.572301
300	0	0.911626
301	0	0.911626
302	0	0
303	0	0
304	0	0
305	0	0
306	0	0
307	0	0
308	0	0
309	0	0
310	0	0
311	0	0
312	0	0
313	0	0
314	0	0
315	0	0
316	0	0
317	0	0
318	0	0
319	0	0
320	0	0
321	0	0
322	0	0
323	0	0
324	0	0
325	0	0
326	0	0
327	0	0
328	0	0
329	0	0
330	0	0
331	0	0
332	0	0
333	0	0
334	0	0
335	0	0
336	0	0
337	0	0
338	0	0
339	0	0
340	0	0
341	0	0
342	0	0.926912
343	0	0.933905
344	0	0.934147
345	0	0.992481
346	0	1
347	1	1
348	1	1
349	1	1
350	1	1
351	1	1
352	1	1
353	1	1
354	1	1
355	1	1
356	1	1
357	1	1
358	1	1
359	1	1
360	1	1
361	1	1
362	1	1
363	1	1
364	1	1
365	1	1
366	1	1
367	1	1
368	1	1
369	1	1
370	1	1
371	1	1
372	1	1
373	1	1
374	1	1
375	1	1
376	1	1
377	1	1
378	1	1
379	1	1
380	1	1
381	1	1
382	1	1
383	1	1
384	1	1
385	1	1
386	1	1
387	1	1
388	1	1
389	1	1
390	1	1
391	1	1
392	1	1
393	1	1
394	1	1
395	1	1
396	1	1
397	1	1
398	1	1
399	1	1
400	1	1
401	1	1
402	1	1
403	1	1
404	1	1
405	1	1
406	1	1
407	1	1
408	1	1
409	1	1
410	1	1
411	1	1
412	1	1
413	1	1
414	1	1
415	1	1
416	1	1
417	1	1
418	1	1
419	1	1
420	1	1
421	1	1
422	1	1
423	1	1
424	1	1
425	1	1
426	1	1
427	1	1
428	1	1
429	1	1
430	1	1
431	1	1
432	1	1
433	1	1
434	1	1
435	1	1
436	1	1
437	1	1
438	1	1
439	1	1
440	1	1
441	1	1
442	1	1
443	1	1
444	1	1
445	1	1
446	1	1
447	1	1
448	1	1
449	1	1
450	1	1
451	1	1
452	1	1
453	1	1
454	1	1
455	1	1
456	1	1
457	1	1
458	1	1
459	1	1
460	1	1
461	1	1
462	1	1
463	1	1
464	0	0
465	0	0
466	0	0
467	0	0
468	0	0
469	0	0
470	1	0
471	1	0
472	1	0
473	1	0
474	0	0.992537
475	0	0.992537
476	0	0.992537
477	0	0.992537
478	0	0.992537
479	0	0.855023
480	1	1
481	1	1
482	1	1
483	1	1
484	1	1
485	1	1
486	1	1
487	1	1
488	1	1
489	1	1
490	1	1
491	1	1
492	1	1
493	1	1
494	1	1
495	1	1
496	1	1
497	1	1
498	1	1
499	1	1
500	1	1
501	1	1
502	1	1
503	1	1
504	1	1
505	1	1
506	1	1
507	0	1
508	0	1
509	0	1
510	0	1
511	0	1
512	0	1
513	0	1
514	0	1
515	0	1
516	0	1
517	0	1
518	0	1
519	0	1
520	0	1
521	0	1
522	0	1
523	0	1
524	0	1
525	0	1
526	0	1
527	0	1
528	0	1
529	0	1
530	0	1
531	0	1
532	0	1
533	0	1
534	0	1
535	0	1
536	1	1
537	1	1
538	0	1
539	0	1
540	0	1
541	0	1
542	0	1
543	0	1
544	0	1
545	0	1
546	0	1
547	0	1
548	0	1
549	0	1
550	0	1
551	0	0.333333
552	0	0.333333
553	0	0.333333
554	0	0.166667
555	0	0.333333
556	0	0.333333
557	0	0.333333
558	0	0.333333
559	0	0.333333
560	0	0.333333
561	0	0.333333
562	0	0.333333
563	0	0.333333
564	0	0.333333
565	0	1
566	0	1
567	0	1
568	0	1
569	0	1
570	0	1
571	0	1
572	0	1
573	0	1
574	0	1
575	0	1
576	0	1
577	0	1
578	0	1
579	0	1
580	0	1
581	0	1
582	0	1
583	0	1
584	0	1
585	0	1
586	0	1
587	0	0.970154
588	0	0.970154
589	0	0.9486
590	0	1
591	0	1
592	0	1
593	0	1
594	0	1
595	0	1
596	0	1
597	0	1
598	0	1
599	0	1
600	0	1
601	0	1
602	0	1
603	0	1
604	0	1
605	0	1
606	0	1
607	0	1
608	0	1
609	0	1
610	0	1
611	0	1
612	0	0.333333
613	0	1
614	0	1
615	0	1
616	0	1
617	0	1
618	0	1
619	0	1
620	0	1
621	0	1
622	0	1
623	0	1
624	0	1
625	0	1
626	0	1
627	0	1
628	0	1
629	0	1
630	0	1
631	0	1
632	0	1
633	0	1
634	0	1
635	0	1
636	0	1
637	0	1
638	0	1
639	0	1
640	0	1
641	0	1
642	0	1
643	0	1
644	0	1
645	0	1
646	0	1
647	0	1
648	0	1
649	0	1
650	0	1
651	0	1
652	0	1
653	0	1
654	0	1
655	0	1
656	0	1
657	0	1
658	0	1
659	0	1
660	0	1
661	0	1
662	0	1
663	0	1
664	0	1
665	0	1
666	0	1
667	0	1
668	0	1
669	0	1
670	0	1
671	0	1
672	0	1
673	0	1
674	0	1
675	0	1
676	0	1
677	0	1
678	0	1
679	0	1
680	0	1
681	0	1
682	0	1
683	0	1
684	0	1
685	0	1
686	0	1
687	0	1
688	0	1
689	0	1
690	0	1
691	0	1
692	0	1
693	0	1
694	0	1
695	0	1
696	0	0.970154
697	0	0.970154
698	0	0.970154
699	0	0
700	0	0
701	0	0
702	0	0
703	0	0
704	0	0
705	0	0.166667
706	0	0.166667
707	0	0.166667
708	0	0.133333
709	0	0.133333
710	0	0.133333
711	0	0.133333
712	0	0.145455
713	0	0.121212
714	0	0.121212
715	0	0.121212
716	0	0.102564
717	0	0.102564
718	0	0.102564
719	0	0.102564
720	0	0.115385
721	0	0.115385
722	0	0.115385
723	0	0.0879121
724	0	0.0879121
725	0	0.0879121
726	0	0.0989011
727	0	0.890907
728	0	0.762581
729	0	0.333333
730	0	0.333333
731	0	0.333333
732	0	0.333333
733	0	0.333333
734	0	0.333333
735	0	0.2
736	0	0.190476
737	0	0.333333
738	0	0.52381
739	0	0.52381
740	0	0.52381
741	0	0.52381
742	0	0.392857
743	0	0.392857
744	0	0.392857
745	0	0.305556
746	0	0.305556
747	0	0.704711
748	0	0.428571
749	0	0.333333
750	0	0.333333
751	0	0.333333
752	0	0.333333
753	0	0.333333
754	0	0.333333
755	0	0.333333
756	0	0.333333
757	0	0.333333
758	0	0.333333
759	0	0.25
760	0	0.25
761	0	0.25
762	0	0.25
763	0	0.25
764	0	0.25
765	0	0.25
766	0	0.25
767	0	0.214286
768	0	0.214286
769	0	0.709746
770	0	0.047619
771	0	0
772	0	0
773	0	0
774	0	0
775	0	0
776	0	0
777	0	0
778	0	0
779	0	0
780	0	0
781	0	0
782	0	0
783	0	0
784	0	0
785	0	0
786	0	0
787	0	0
788	0	0
789	0	0
790	0	0
791	0	0
792	0	0
793	0	0
794	0	0
795	0	0
796	0	0
797	0	0
798	0	0
799	0	0
800	0	0
801	0	0.69815
802	0	0.678678
803	0	0.678678
804	0	0.678678
805	0	0.581643
806	0	0.0457516
807	0	0.0457516
808	0	0.0457516
809	0	0.0514706
810	0	0.0514706
811	0	0.0514706
812	0	0.0514706
813	0	0.0666667
814	0	0.0897436
815	0	0.0897436
816	0	0.106061
817	0	0.106061
818	0	0.106061
819	0	0.106061
820	0	0.127273
821	0	0.127273
822	0	0.127273
823	0	0.127273
824	0	0.127273
825	0	0.127273
826	0	0.155556
827	0	0.155556
828	0	0.155556
829	0	0.2
830	0	0.155556
831	0	0.155556
832	0	0.194444
833	0	0.194444
834	0	0.194444
835	0	0.194444
836	0	0.194444
837	0	0.194444
838	0	0.194444
839	0	0.214286
840	0	0.214286
841	0	0.214286
842	0	0.214286
843	0	0.214286
844	0	0.214286
845	0	0.214286
846	0	0.214286
847	0	0.214286
848	0	0.214286
849	0	0.214286
850	0	0.214286
851	0	0.214286
852	0	0.214286
853	0	0.214286
854	0	0.214286
855	0	0.214286
856	0	0.214286
857	0	0.214286
858	0	0.214286
859	0	0.214286
860	0	0.214286
861	0	0.214286
862	0	0.214286
863	0	0.214286
864	0	0.285714
865	0	0.285714
866	0	0.285714
867	0	0.285714
868	0	0.4
869	0	0.4
870	0	0.4
871	0	0.4
872	0	0.4
873	0	0.4
874	0	0.4
875	0	0.4
876	0	0.4
877	0	0.4
878	0	0.4
879	0	0.4
880	0	0.4
881	0	0.4
882	0	0.4
883	0	0.4
884	0	0.4
885	0	0.4
886	0	0.4
887	0	0.4
888	0	0.4
889	0	0.4
890	0	0.4
891	0	0.4
892	0	0.4
893	0	0.4
894	0	0.4
895	0	0.4
896	0	0.4
897	0	0.4
898	0	0.4
899	0	0.4
900	0	0.4
901	0	0.4
902	0	0.4
903	0	0.4
904	0	0.4
905	0	0.4
906	0	0.4
907	0	0.4
908	0	0.4
909	0	0.4
910	0	0.4
911	0	0.4
912	0	0.4
913	0	0.4
914	0	0.4
915	0	0.4
916	0	0.4
917	0	0.4
918	0	0.4
919	0	0.4
920	0	0.4
921	0	0.4
922	0	0.4
923	0	0.4
924	0	0.4
925	0	0.4
926	0	0.4
927	0	0.4
928	0	0.4
929	0	0.4
930	0	0.4
931	0	0.4
932	0	0.4
933	0	0.4
934	0	0.4
935	0	0.4
936	0	0.4
937	0	0.4
938	0	0.4
939	0	0.4
940	0	0.4
941	0	0.4
942	0	0.4
943	0	0.4
944	0	0.4
945	0	0.4
946	0	0.4
947	0	0.4
948	0	0.4
949	0	0.4
950	0	0.4
951	0	0.4
952	0	0.4
953	0	0.4
954	0	0.4
955	0	0.4
956	0	0.4
957	0	0.4
958	0	0.4
959	0	0.4
960	0	0.166667
961	0	0.166667
962	0	0.166667
963	0	0.166667
964	0	0.166667
965	0	0.166667
966	0	0.166667
967	0	0.166667
968	0	0.166667
969	0	0.166667
970	0	0.166667
971	0	0.166667
972	0	0.166667
973	0	0.333333
974	0	0.333333
975	0	0.333333
976	0	0.333333
977	0	0.333333
978	0	0.333333
979	0	0.333333
980	0	0.333333
981	0	0.333333
982	0	0.333333
983	0	0.333333
984	0	0.333333
985	0	0.333333
986	0	0.333333
987	0	0.333333
988	0	0.333333
989	0	0.333333
990	0	0.333333
991	0	0.333333
992	0	0.333333
993	0	0.333333
994	0	0.333333
995	0	0.333333
996	0	0.333333
997	0	0.333333
998	0	0.333333
999	0	0.333333
1000	0	0.333333
1001	0	0.333333
1002	0	0.333333
1003	0	0.333333
1004	0	0.333333
1005	0	0.333333
1006	0	0.333333
1007	0	0.333333
1008	0	0.333333
1009	0	0.333333
1010	0	0.333333
1011	0	0.333333
1012	1	1
1013	1	1
1014	1	1
1015	1	1
1016	1	1
1017	1	1
1018	1	1
1019	1	1
1020	1	1
1021	1	1
1022	1	1
1023	1	1
1024	1	1
1025	1	1
1026	1	1
1027	1	1
1028	1	1
1029	1	1
1030	1	1
1031	1	1
1032	1	1
1033	1	1
1034	1	1
1035	1	1
1036	1	1
1037	1	1
1038	1	1
1039	1	1
1040	1	1
1041	1	1
1042	1	1
1043	1	1
1044	1	1
1045	1	1
1046	1	1
1047	1	1
1048	1	1
1049	1	1
1050	1	1
1051	1	1
1052	1	1
1053	1	1
1054	1	1
1055	1	1
1056	1	1
1057	1	1
1058	1	1
1059	1	1
1060	1	1
1061	1	1
1062	1	1
1063	1	1
1064	1	1
1065	1	1
1066	1	1
1067	1	1
1068	1	1
1069	1	1
1070	1	1
1071	1	1
1072	1	1
1073	1	1
1074	1	1
1075	1	1
1076	1	1
1077	1	1
1078	1	1
1079	1	1
1080	1	1
1081	1	1
1082	1	1
1083	1	1
1084	1	1
1085	1	1
1086	1	1
1087	1	1
1088	1	1
1089	1	1
1090	1	1
1091	1	1
1092	1	1
1093	1	1
1094	1	1
1095	1	1
1096	1	1
1097	1	1
1098	1	1
1099	0	0
1100	0	0
1101	0	0
1102	0	0
1103	0	0
1104	0	0
1105	0	0
1106	0	0
1107	0	0
1108	0	0
1109	0	0
1110	0	0
1111	1	0
1112	1	0
1113	1	0
1114	1	0
1115	1	0
1116	1	0
1117	1	0
1118	1	0
1119	1	0
1120	1	0
1121	1	0
1122	1	0
1123	1	0
1124	1	0
1125	1	0
1126	1	0
1127	1	0
1128	1	0
1129	1	0
1130	1	0
1131	1	0
1132	1	0
1133	1	0
1134	1	0
1135	1	0
1136	1	0
1137	1	0
1138	1	0
1139	1	0
1140	1	0
1141	1	0
1142	1	0
1143	1	0
1144	1	0
1145	1	0
1146	1	0
1147	1	0
1148	1	0
1149	1	0
1150	1	0
1151	1	0
1152	1	0
1153	1	0
1154	1	0
1155	1	0
1156	1	0
