Site	ColumnScore	SumOfPairsScore
1	1	1
2	1	1
3	1	1
4	1	1
5	0	1
6	0	1
7	0	0.940852
8	0	0.94107
9	0	0.94107
10	0	0.94107
11	0	0.870705
12	0	1
13	0	0.709768
14	0	0.692234
15	0	1
16	0	0.8
17	0	0.732766
18	0	0.543987
19	0	0.285556
20	0	0.248954
21	0	0.258757
22	0	0.264604
23	0	0.142857
24	0	0.181961
25	0	0.23027
26	0	0.243383
27	0	0.236516
28	0	0.218176
29	0	0
30	0	0
31	0	0
32	0	0
33	0	0
34	0	0
35	0	0
36	0	0
37	0	0
38	0	0.207792
39	0	0.207792
40	0	0.207792
41	0	0.15553
42	0	0.141344
43	0	0.144281
44	0	0.10989
45	0	0.131868
46	0	0.104575
47	0	0.208075
48	0	0.174518
49	0	0.156871
50	0	0.116634
51	0	0.0937411
52	0	0.0811094
53	0	0.0882897
54	0	0.08981
55	0	0.0921308
56	0	0.142857
57	0	0.266667
58	0	0.190476
59	0	0.0893707
60	0	0.0918033
61	0	0.113636
62	0	0
63	0	0
64	0	0
65	0	0
66	0	0
67	0	0
68	0	0.137826
69	0	0.333333
70	0	0.333333
71	0	0.166667
72	0	0.128217
73	0	0.130818
74	0	0
75	0	0
76	0	0
77	0	0
78	0	0
79	0	0
80	0	0.266667
81	0	0.19697
82	0	0.236364
83	0	0.281933
84	0	0.133333
85	0	0.133333
86	0	0.111111
87	0	0.111111
88	0	0.207288
89	0	0.210206
90	0	0.259401
91	0	0.15793
92	0	0.191243
93	0	0.184242
94	0	0.168971
95	0	0.118577
96	0	0.189542
97	0	0.213235
98	0	0.18254
99	0	0.466667
100	0	0.533333
101	0	0.505495
102	0	0.333333
103	0	0.333333
104	0	1
105	0	0.195761
106	0	0.296377
107	0	0.299277
108	0	0.332514
109	0	0.393231
110	0	0.714286
111	0	0.342857
112	0	0.734819
113	0	0.723152
114	0	0.822511
115	0	0
116	0	0
117	0	0
118	0	0
119	0	0.896786
120	0	0.6
121	0	1
122	0	0.934147
123	0	0.934147
124	0	0.934147
125	0	1
126	0	0.812217
127	0	0.812217
128	0	0.812217
129	0	0.615385
130	0	0.528863
131	0	0.371212
132	0	0.871184
133	0	0.877273
134	0	0.877559
135	0	0.877559
136	0	1
137	0	0.619048
138	0	0.496667
139	0	0.71451
140	0	0.885918
141	0	1
142	0	0
143	0	0
144	0	0.409435
145	0	0.394625
146	0	0.175567
147	0	0.537529
148	0	0.384135
149	0	0.446401
150	0	0.54018
151	0	0.354206
152	0	0.307184
153	0	0.300468
154	0	0.166667
155	0	0.2
156	0	0.615385
157	0	0.266584
158	0	0.337297
159	0	0.290603
160	0	0.966667
161	0	0.973858
162	0	0.983674
163	1	1
164	1	1
165	1	1
166	1	1
167	1	1
168	1	1
169	1	1
170	1	1
171	1	1
172	1	1
173	1	1
174	1	1
175	1	1
176	1	1
177	1	1
178	1	1
179	1	1
180	1	1
181	1	1
182	1	1
183	1	1
184	1	1
185	1	1
186	1	1
187	1	1
188	1	1
189	1	1
190	1	1
191	1	1
192	1	1
193	1	1
194	1	1
195	1	1
196	1	1
197	1	1
198	1	1
199	1	1
200	1	1
201	1	1
202	1	1
203	1	1
204	1	1
205	1	1
206	1	1
207	1	1
208	1	1
209	1	1
210	1	1
211	1	1
212	1	1
213	1	1
214	1	1
215	1	1
216	1	1
217	0	0.992481
218	1	1
219	1	1
220	1	1
221	1	1
222	0	1
223	0	1
224	0	1
225	0	1
226	0	1
227	0	1
228	0	1
229	0	1
230	0	1
231	0	0
232	0	0
233	0	0
234	0	0
235	0	0
236	0	0
237	0	0
238	0	0
239	0	0
240	0	0
241	0	0
242	0	0
243	0	0.977359
244	0	0.333333
245	0	0.333333
246	0	0.333333
247	0	0.333333
248	0	0.333333
249	0	0.333333
250	0	0.333333
251	0	0.333333
252	0	0.333333
253	0	1
254	0	1
255	0	1
256	0	1
257	0	1
258	0	1
259	0	1
260	0	1
261	0	0.970375
262	1	1
263	1	1
264	1	1
265	1	1
266	1	1
267	1	1
268	1	1
269	1	1
270	1	1
271	1	1
272	1	1
273	1	1
274	1	1
275	1	1
276	1	1
277	1	1
278	1	1
279	1	1
280	1	1
281	1	1
282	1	1
283	1	1
284	1	1
285	1	1
286	1	1
287	1	1
288	1	1
289	1	1
290	0	0.992509
291	0	1
292	0	1
293	0	1
294	0	1
295	1	1
296	1	1
297	1	1
298	1	1
299	0	1
300	0	0.937555
301	0	0.664866
302	0	1
303	0	1
304	0	1
305	0	1
306	0	1
307	0	1
308	0	1
309	0	1
310	0	1
311	0	1
312	0	0.622658
313	0	1
314	0	1
315	0	0.578832
316	0	0.52729
317	0	0.445638
318	0	0.40837
319	0	0.400118
320	0	0.397268
321	0	0.521053
322	0	0.60114
323	0	0.299203
324	0	0.295953
325	0	0.219048
326	0	0.133333
327	0	0.133333
328	0	0.207674
329	0	0.209061
330	0	0.141676
331	0	0.182698
332	0	0.318519
333	0	0.277265
334	0	0.307962
335	0	0.323554
336	0	0.363578
337	0	0.372809
338	0	0.444444
339	0	0.443158
340	0	0.474841
341	0	0.48993
342	0	0.505765
343	0	0.720648
344	0	0.649786
345	0	0.653827
346	0	0.947303
347	0	0.940569
348	0	0.96993
349	1	1
350	1	1
351	1	1
352	0	0.992424
353	0	0.992424
354	0	0.992424
355	0	0
356	0	0.977388
357	0	0.962746
358	0	0.962746
359	0	0.962746
360	0	0.962746
361	0	0.962746
362	0	0.970152
363	0	0.955398
364	0	0.948106
365	0	0.948106
366	0	0.918811
367	0	1
368	0	0.827055
369	0	0.883044
370	0	0.758486
371	0	0.775531
372	0	0.333333
373	0	0
374	0	0.322033
375	0	0.689084
376	0	0.551724
377	0	0.641304
378	0	0.743421
379	0	0.745167
380	0	0.738469
381	0	0.74415
382	0	0.764499
383	0	0.490909
384	0	0.409091
385	0	0.740864
386	0	0.702373
387	0	0.693253
388	0	0.304202
389	0	0.735641
390	0	0.64451
391	0	0.702941
392	0	0.190476
393	0	0.190476
394	0	0.502566
395	0	0.497201
396	0	0.415286
397	0	0.418918
398	0	1
399	0	0.505495
400	0	0.324111
401	0	0.231884
402	0	0.458229
403	0	0.231884
404	0	0.583657
405	0	0.609888
406	0	0.70803
407	0	0.710757
408	0	0.947185
409	0	0.962442
410	0	0.992278
411	0	0
412	0	1
413	0	0.96993
414	1	1
415	0	0.992424
416	0	0.969956
417	0	0.969956
418	0	0.969956
419	0	0.969956
420	0	0.898807
421	0	0.898807
422	0	0.898807
423	0	0.890437
424	0	0.87402
425	0	1
426	0	0.771549
427	0	0.437122
428	0	0.455739
429	0	0.698488
430	0	0.717238
431	0	0.877002
432	0	0.883829
433	0	0.896817
434	0	1
435	0	0.969956
436	0	0.969956
437	0	1
438	1	1
439	1	1
440	1	1
441	1	1
442	1	1
443	1	1
444	1	1
445	1	1
446	1	1
447	1	1
448	1	1
449	1	1
450	1	1
451	1	1
452	1	1
453	1	1
454	1	1
455	0	1
456	1	1
457	1	1
458	1	1
459	1	1
460	1	1
461	1	1
462	1	1
463	1	1
464	1	1
465	1	1
466	1	1
467	1	1
468	1	1
469	1	1
470	1	1
471	1	1
472	1	1
473	1	1
474	1	1
475	1	1
476	1	1
477	1	1
478	1	1
479	1	1
480	1	1
481	1	1
482	1	1
483	1	1
484	1	1
485	1	1
486	1	1
487	1	1
488	1	1
489	1	1
490	1	1
491	1	1
492	1	1
493	1	1
494	1	1
495	1	1
496	1	1
497	0	1
498	1	1
499	1	1
500	1	1
501	1	1
502	1	1
503	1	1
504	1	1
505	1	1
506	1	1
507	0	1
508	0	0.333333
509	0	0.333333
510	0	0.638095
511	0	0.799832
512	0	0.50141
513	0	0.333333
514	0	0.333333
515	0	0.333333
516	0	0.333333
517	0	0.333333
518	0	0.333333
519	0	0.337136
520	0	0.344533
521	0	0.325144
522	0	0.166667
523	0	0
524	0	0
525	0	0
526	0	0
527	0	0
528	0	0
529	0	0
530	0	0.276623
531	0	0.240191
532	0	0.138095
533	0	0.240216
534	0	0.138547
535	0	0.5
536	0	1
537	0	1
538	0	1
539	0	1
540	0	1
541	0	1
542	0	1
543	0	1
544	0	1
545	0	1
546	0	1
547	1	1
548	1	1
549	0	0.132561
550	0	0.125019
551	0	0.133179
552	0	0.508772
553	0	0.508772
554	0	1
555	0	1
556	0	0.321238
557	0	0.374107
558	0	0.433302
559	0	0.46557
560	0	1
561	0	1
562	0	1
563	0	1
564	0	0.6
565	0	0.6
566	0	0.895019
567	0	0.896375
568	0	1
569	0	1
570	0	1
571	1	1
572	1	1
573	1	1
574	1	1
575	1	1
576	1	1
577	1	1
578	1	1
579	1	1
580	1	1
581	1	1
582	1	1
583	1	1
584	1	1
585	1	1
586	1	1
587	1	1
588	1	1
589	1	1
590	1	1
591	1	1
592	1	1
593	1	1
594	1	1
595	1	1
596	1	1
597	1	1
598	1	1
599	1	1
600	1	1
601	1	1
602	1	1
603	1	1
604	1	1
605	0	0
606	0	0
607	0	0
608	0	0
609	0	0
610	0	0
611	0	0.977273
612	0	0.800738
613	0	0.717721
614	0	0.444444
615	0	0.603927
616	0	0.460548
617	0	0.240577
618	0	0.301294
619	0	0.25042
620	0	0.307527
621	0	0.418702
622	0	0.76129
623	0	0.568137
624	0	0.836913
625	0	0.905745
626	0	0.912985
627	0	0.622222
628	0	0.818182
629	0	0.985103
630	0	0.985103
631	0	0.5
632	0	0.96305
633	0	0.985103
634	0	0.985103
635	0	0.985103
636	0	0.985103
637	0	0.963134
638	0	0.96305
639	0	0.962212
640	0	0.912796
641	0	0.857343
642	0	1
643	0	0.438095
644	0	0.681191
645	0	0.379087
646	0	0.254137
647	0	0
648	0	0
649	0	0.227444
650	0	0.216576
651	0	0.188235
652	0	0.188698
653	0	0.444444
654	0	0.333333
655	0	0.333333
656	0	1
657	0	0.137255
658	0	0
659	0	0.333333
660	0	0.333333
661	0	0.252747
662	0	0.422222
663	0	0.358289
664	0	0.383107
665	0	0.534118
666	0	0.535816
667	0	0.490909
668	0	0.685488
669	0	0.928571
670	1	1
671	1	1
672	1	1
673	1	1
674	1	1
675	1	1
676	1	1
677	1	1
678	1	1
679	1	1
680	1	1
681	1	1
682	1	1
683	1	1
684	1	1
685	1	1
686	1	1
687	1	1
688	1	1
689	1	1
690	1	1
691	1	1
692	1	1
693	1	1
694	1	1
695	1	1
696	1	1
697	1	1
698	1	1
699	1	1
700	1	1
701	1	1
702	1	1
703	1	1
704	1	1
705	1	1
706	1	1
707	1	1
708	1	1
709	1	1
710	1	1
711	1	1
712	1	1
713	1	1
714	1	1
715	1	1
716	1	1
717	1	1
718	1	1
719	1	1
720	1	1
721	0	0.992537
722	0	1
723	0	0.82684
724	0	0.788971
725	0	0.761371
726	0	1
727	0	1
728	0	1
729	0	1
730	0	0.872464
731	0	0.742041
732	0	0.316408
733	0	0.236509
734	0	0.198525
735	0	0.320959
736	0	0.400486
737	0	0.577111
738	0	0.4
739	0	0.288889
740	0	0.487367
741	0	0.333333
742	0	0.333333
743	0	0.333333
744	0	0.2
745	0	0.716078
746	0	0.513995
747	0	0.464286
748	0	0.280632
749	0	0.661271
750	0	0.516484
751	0	0.565912
752	0	0.289855
753	0	0.458576
754	0	0.454693
755	0	0.459444
756	0	0.459444
757	0	0.418218
758	0	0.3
759	0	0.880682
760	0	0.857317
761	0	0.278614
762	0	0.408537
763	0	0.375
764	0	0.19697
765	0	0.4
766	0	0.395666
767	0	0.875
768	0	0.875
769	0	0.875
770	0	0.875
771	0	0.28471
772	0	0.333333
773	0	0.333333
774	0	0.274961
775	0	0.287907
776	0	0.281742
777	0	0.282247
778	0	0.273854
779	0	0.277174
780	0	0.227417
781	0	0.214551
782	0	0
783	0	0
784	0	0
785	0	0
786	0	0
787	0	0
788	0	0
789	0	0
790	0	0
791	0	0
792	0	0
793	0	0
794	0	0
795	0	0.204071
796	0	0.180511
797	0	0
798	0	0
799	0	0
800	0	0
801	0	0.200383
802	0	0.198485
803	0	0.122691
804	0	0.333333
805	0	0.333333
806	0	0.181818
807	0	0.666667
808	0	0.443697
809	0	0.723647
810	0	0.236048
811	0	0.131962
812	0	0.12654
813	0	0.155144
814	0	0.292308
815	0	0.312732
816	0	0.402708
817	0	0.406094
818	0	0.426169
819	0	0.410426
820	0	0.411382
821	0	0.45348
822	0	0.494055
823	0	0.566385
824	0	0.550042
825	0	0.499462
826	0	0.494543
827	0	0.399246
828	0	0
829	0	0
830	0	0
831	0	0
832	0	0.6
833	0	0.4
834	0	0.666667
835	0	0.47619
836	0	0.463158
837	0	0.2
838	0	0.315789
839	0	0.245283
840	0	0.241051
841	0	0.213481
842	0	0.145269
843	0	0.206566
844	0	0.0900469
845	0	0.0943808
846	0	0.10869
847	0	0.147813
848	0	0.134503
849	0	0.0925926
850	0	0.112782
851	0	0.273764
852	0	0.292469
853	0	0.258872
854	0	0.266925
855	0	0.25545
856	0	0.247852
857	0	0.141026
858	0	1
859	0	0.539042
860	0	0.336404
861	0	0.336684
862	0	0.352461
863	0	0.365695
864	0	0.372847
865	0	0.383771
866	0	0.285289
867	0	1
868	0	0
869	0	0.194737
870	0	0.312195
871	0	0.393358
872	0	0.374898
873	0	0.426719
874	0	0.681818
875	0	0.818182
876	0	0.527273
877	0	0.681818
878	0	0.686275
879	0	0.901282
880	0	0.58082
881	0	1
882	0	1
883	0	0.8
884	0	1
885	0	0.831238
886	0	0.832411
887	0	0.896963
888	0	0.896963
889	0	1
890	0	1
891	1	1
892	1	1
893	1	1
894	1	1
895	1	1
896	1	1
897	1	1
898	1	1
899	1	1
900	1	1
901	1	1
902	1	1
903	1	1
904	1	1
905	1	1
906	1	1
907	1	1
908	1	1
909	1	1
910	1	1
911	1	1
912	1	1
913	1	1
914	1	1
915	1	1
916	1	1
917	0	1
918	0	1
919	0	1
920	0	1
921	0	0.985131
922	0	0.985131
923	0	0.985131
924	0	0.985131
925	0	0.985131
926	0	0.899939
927	0	0.838247
928	0	0.91383
929	0	0.91383
930	0	1
931	0	1
932	0	1
933	0	1
934	0	0.507323
935	0	0.507323
936	0	0.760104
937	0	0.760104
938	0	0.765582
939	0	0.765582
940	0	0.765582
941	0	0.765582
942	0	0.765582
943	0	0.765582
944	0	0.760719
945	0	1
946	0	1
947	0	0.575968
948	0	0.576136
949	0	0.479317
950	0	1
951	0	0.428571
952	0	0.428571
953	0	0.333333
954	0	0.227273
955	0	0.391304
956	0	0.478742
957	0	0.5003
958	0	0.317314
959	0	0.309018
960	0	0.171429
961	0	0.175824
962	0	0.208791
963	0	0.208791
964	0	0.264182
965	0	0.284127
966	0	0.280396
967	0	0.302769
968	0	0.385983
969	0	0.332449
970	0	0.33791
971	0	0.33791
972	0	0.331026
973	0	0.331026
974	0	0.330912
975	0	0.306061
976	0	0.292893
977	0	0.297484
978	0	0.187535
979	0	0.213706
980	0	0
981	0	0
982	0	0
983	0	0.151515
984	0	0.321429
985	0	0.321429
986	0	0.193277
987	0	0.23399
988	0	0.4
989	0	0.604478
990	0	0.696304
991	0	0.655685
992	0	0.530602
993	0	0.555777
994	0	0.54702
995	0	0.544954
996	0	0.0820106
997	0	0.13964
998	0	0.416216
999	0	0.268316
1000	0	0.271074
1001	0	0.26916
1002	0	0.27556
1003	0	0.279082
1004	0	0.278998
1005	0	0.2712
1006	0	0.0666667
1007	0	0.0666667
1008	0	0.366833
1009	0	0.355666
1010	0	0.346773
1011	0	0.339646
1012	0	0.330481
1013	0	0.189841
1014	0	0.4
1015	0	0.4
1016	0	0.4
1017	0	0
1018	0	0
1019	0	0
1020	0	0
1021	0	0
1022	0	0
1023	0	0
1024	0	0
1025	0	0
1026	0	0
1027	0	0.173781
1028	0	0.215906
1029	0	0.238655
1030	0	0.206827
1031	0	0.216802
1032	0	0.272078
1033	0	0.305273
1034	0	0.207087
1035	0	0.280423
1036	0	0.4
1037	0	0.2
1038	0	0.2
1039	0	0.2
1040	0	0.2
1041	0	0.2
1042	0	0.2
1043	0	0.2
1044	0	0.4
1045	0	1
1046	0	1
1047	0	1
1048	0	1
1049	0	0.51444
1050	0	0.495807
1051	0	0.495807
1052	0	0.49019
1053	0	0.490413
1054	0	0.489826
1055	0	0.489742
1056	0	0.48734
1057	0	0.476152
1058	0	0.328907
1059	0	0.566489
1060	0	0.417582
1061	0	0.454545
1062	0	0.418182
1063	0	0.418182
1064	0	0.611111
1065	0	0.611111
1066	0	0.571429
1067	0	0.571429
1068	0	0.571429
1069	0	1
1070	0	0.209069
1071	0	0.2034
1072	0	0.214328
1073	0	0.173829
1074	0	0.204821
1075	0	0.208824
1076	0	0.101546
1077	0	0.099514
1078	0	0.0984563
1079	0	0.0977647
1080	0	0.0941055
1081	0	0.0925453
1082	0	0.0852688
1083	0	0.0828483
1084	0	0.107778
1085	0	0.324846
1086	0	0.506061
1087	0	0.291498
1088	0	0.395604
1089	0	0.381818
1090	0	0.535714
1091	0	0.333333
1092	0	0.333333
1093	0	0
1094	0	0
1095	0	0
1096	0	0.0875503
1097	0	0.0949283
1098	0	0.0972093
1099	0	0.0987018
1100	0	0.0977162
1101	0	0.093633
1102	0	0.0714286
1103	0	0.0555556
1104	0	0.132232
1105	0	0.135318
1106	0	0.13484
1107	0	0.1
1108	0	0.0711462
1109	0	0.0857143
1110	0	0.149321
1111	0	0.222222
1112	0	0.0934384
1113	0	0.0927373
1114	0	0.106642
1115	0	0.266667
1116	0	0.266667
1117	0	0.142857
1118	0	0.196396
1119	0	0.12374
1120	0	0.125218
1121	0	0.132557
1122	0	0.128159
1123	0	0.110089
1124	0	0.101588
1125	0	0.0885892
1126	0	0.086892
1127	0	0.0731375
1128	0	0.0777408
1129	0	0.0896446
1130	0	0.116701
1131	0	0.0666667
1132	0	0
1133	0	0
1134	0	0
1135	0	0
1136	0	0
1137	0	0.203463
1138	0	0.203463
1139	0	0.17
1140	0	0.114789
1141	0	0.170297
1142	0	0.176905
1143	0	0.175911
1144	0	0.317577
1145	0	0.330316
1146	0	0.330288
1147	0	0.335868
1148	0	0.208333
1149	0	0.187879
1150	0	0.249471
1151	0	0.434409
1152	0	0.805619
1153	0	0.806918
1154	0	0.848027
1155	0	0.842331
1156	0	0.842753
1157	0	0.644444
1158	0	0.736264
1159	0	0.933522
1160	0	0.933522
1161	0	0.93401
1162	0	0.6
1163	0	0.6
1164	0	0.6
1165	0	0.970206
1166	0	0.970206
1167	0	0.970206
1168	0	0.970206
1169	0	0.970206
1170	0	0.970206
1171	0	0.962828
1172	0	0.955507
1173	0	0.75
1174	0	0.75
1175	0	0.911626
1176	0	0.91195
1177	0	0.91195
1178	0	0.918253
1179	0	0.321429
1180	0	0.863436
1181	0	0.863436
1182	0	0.869843
1183	0	0.86338
1184	0	0.870311
1185	0	0.870311
1186	0	0.870311
1187	0	0.8226
1188	0	0.750992
1189	0	0.737995
1190	0	0.737995
1191	0	1
1192	0	1
1193	0	0.3
1194	0	0.2
1195	0	0.142857
1196	0	0.0714286
1197	0	0.352381
1198	0	0.370766
1199	0	0.291607
1200	0	0.219457
1201	0	0.216162
1202	0	0.362242
1203	0	0.362242
1204	0	0.253333
1205	0	0.2747
1206	0	0.194358
1207	0	0.225431
1208	0	0.166516
1209	0	0.14092
1210	0	0.152708
1211	0	0.198151
1212	0	0.181687
1213	0	0.193466
1214	0	0.206692
1215	0	0.230217
1216	0	0.228493
1217	0	0.0662879
1218	0	0.23504
1219	0	0.244375
1220	0	0.261172
1221	0	0
1222	0	0
1223	0	0
1224	0	0
1225	0	0
1226	0	0
1227	0	0
1228	0	0
1229	0	0
1230	0	0
1231	0	0
1232	0	0
1233	0	0
1234	0	0
1235	0	0
1236	0	0
1237	0	0
1238	0	0
1239	0	0
1240	0	0
1241	0	0
1242	0	0
1243	0	0
1244	0	0
1245	0	0
1246	0	0
1247	0	0
1248	0	0
1249	0	0
1250	0	0
1251	0	0
1252	0	0
1253	0	0
1254	0	0
1255	0	0
1256	0	0.282508
1257	0	0.283589
1258	0	0.333333
1259	0	0.333333
1260	0	0.333333
1261	0	0.333333
1262	0	0.333333
1263	0	0.333333
1264	0	0.333333
1265	0	0.333333
1266	0	0.333333
1267	0	0.166667
1268	0	0.1
1269	0	0.1
1270	0	0.1
1271	0	0.0666667
1272	0	0.0952381
1273	0	0.0952381
1274	0	0.0714286
1275	0	0.0666667
1276	0	0.0666667
1277	0	0.102564
1278	0	0.125
1279	0	0.274854
1280	0	0.247368
1281	0	0.294926
1282	0	0.315988
1283	0	0.272556
1284	0	0.260746
1285	0	0.200541
1286	0	0.501102
1287	0	0.446639
1288	0	0.490105
1289	0	0.459613
1290	0	0.52763
1291	0	0.723571
1292	0	0.920482
1293	0	0.909316
1294	0	0.947638
1295	0	0.948974
1296	0	0.925421
1297	0	0.94452
1298	0	0.952358
1299	0	0.952358
1300	0	0.952358
1301	0	0.952358
1302	0	0.952358
1303	0	0.952358
1304	0	0.85004
1305	0	0.166667
1306	0	0.813293
1307	0	0.813293
1308	0	0.819408
1309	0	0.819408
1310	0	0
1311	0	0
1312	0	0
1313	0	0
1314	0	0
1315	0	0
1316	0	0
1317	0	0
1318	0	0
1319	0	0
1320	0	0
1321	0	0
1322	0	0
1323	0	0
1324	0	0
1325	0	0
1326	0	0
1327	0	0
1328	0	0
1329	0	0
1330	0	0
1331	0	0
1332	0	0
1333	0	0
1334	0	0
1335	0	0
1336	0	0
1337	0	0
1338	0	0
1339	0	0
1340	0	0
1341	0	0
1342	0	0
1343	0	0
1344	0	0
1345	0	0
1346	0	0.813293
1347	0	0.936121
1348	0	0.952137
1349	0	0.882051
1350	0	1
1351	0	0
1352	0	0
1353	0	0
1354	0	0
1355	0	0
1356	0	0
1357	0	0
1358	0	0
1359	0	0
1360	0	0
1361	0	0
1362	0	0.777778
1363	0	0.666667
1364	0	0.6
1365	0	0.5
1366	0	0.5
1367	0	0.5
1368	0	0.309194
1369	0	0.310631
1370	0	0.305146
1371	0	0.301815
1372	0	0.277884
1373	0	0.205128
1374	0	0.163743
1375	0	0.153846
1376	0	0.212121
1377	0	0.236364
1378	0	0.0666667
1379	0	0.166667
1380	0	0.166667
1381	0	0.166667
1382	0	0.229742
1383	0	0.246942
1384	0	0.337654
1385	0	0.480983
1386	0	0.51521
1387	0	0.51412
1388	0	0.531042
1389	0	0.536652
1390	0	0.166667
1391	0	0.166667
1392	0	0.166667
1393	0	0.333333
1394	0	1
1395	0	1
1396	0	1
1397	0	1
1398	0	1
1399	0	1
1400	0	1
1401	0	1
1402	0	1
1403	0	1
1404	0	0.436588
1405	0	0.436588
1406	0	0.425875
1407	0	0.425705
1408	0	0.4154
1409	0	0.388532
1410	0	0.222816
1411	0	0.135135
1412	0	0.119231
1413	0	0.0894118
1414	0	0.0849057
1415	0	0.0700565
1416	0	0.0676891
1417	0	0.0653846
1418	0	0.0596076
1419	0	0.0428571
1420	0	0.0527473
1421	0	0.118273
1422	0	0.107916
1423	0	0.0796279
1424	0	0.0833427
1425	0	0.0802131
1426	0	0.0790292
1427	0	0.0793621
1428	0	0.0612328
1429	0	0.055128
1430	0	0.056386
1431	0	0.056349
1432	0	0.333333
1433	0	0.1
1434	0	0.333333
1435	0	1
1436	0	1
1437	0	1
1438	0	1
1439	0	1
1440	0	1
1441	0	1
1442	0	0.0714286
1443	0	0.0666667
1444	0	0.333333
1445	0	0.333333
1446	0	0.333333
1447	0	0.166667
1448	0	0.166667
1449	0	0.166667
1450	0	0.166667
1451	0	0.166667
1452	0	1
1453	0	1
1454	0	1
1455	0	1
1456	0	1
1457	0	1
1458	0	1
1459	0	1
1460	0	0.166667
1461	0	0.1
1462	0	0.333333
1463	0	1
1464	0	1
1465	0	0.0392608
1466	0	0.0402022
1467	0	0.0373431
1468	0	0.0377266
1469	0	0.0391213
1470	0	0.0285714
1471	0	0.0329087
1472	0	1
1473	0	1
1474	0	1
1475	0	1
1476	0	1
1477	0	1
1478	0	1
1479	0	1
1480	0	1
1481	0	1
1482	0	1
1483	0	1
1484	0	1
1485	0	1
1486	0	1
1487	0	1
1488	0	1
1489	0	1
1490	0	1
1491	0	1
1492	0	1
1493	0	1
1494	0	1
1495	0	0.333333
1496	0	0.333333
1497	0	0.333333
1498	0	0.333333
1499	0	0.333333
1500	0	0.333333
1501	0	0.4
1502	0	0.4
1503	0	0.4
1504	0	0.4
1505	0	0.4
1506	0	0.4
1507	0	0.4
1508	0	0.266667
1509	0	0.190476
1510	0	0.111111
1511	0	0.0769231
1512	0	0.152047
1513	0	0.106719
1514	0	0.0315262
1515	0	0.0309602
1516	0	0.0305339
1517	0	0.0344318
1518	0	0.0363204
1519	0	0.0375124
1520	0	0.0372515
1521	0	0.041657
1522	0	0.0413359
1523	0	0.0476833
1524	0	0.0492047
1525	0	0.0513485
1526	0	0.0567773
1527	0	0.051556
1528	0	0.0514177
1529	0	0.0516443
1530	0	0.0551421
1531	0	0.0614862
1532	0	0.0582934
1533	0	0.0832228
1534	0	0.084005
1535	0	0.095258
1536	0	0.0906206
1537	0	0.111178
1538	0	0.0820646
1539	0	0.0982688
1540	0	0.0865801
1541	0	0.202614
1542	0	0.107143
1543	0	0.142857
1544	0	0.142857
1545	0	0.2
1546	0	0.2
1547	0	0.2
1548	0	0.2
1549	0	0.2
1550	0	0.2
1551	0	0.2
1552	0	0.169444
1553	0	0.200176
1554	0	0.2511
1555	0	0.313776
1556	0	0.404219
1557	0	0.401298
1558	0	0.396394
1559	0	0
1560	0	0
1561	0	0
1562	0	0
1563	0	0
1564	0	0
1565	0	0
1566	0	0
1567	0	0
1568	0	0
1569	0	0
1570	0	0
1571	0	0
1572	0	0
1573	0	0
1574	0	0.78447
1575	0	0
1576	0	0
1577	0	0.214286
1578	0	0.2
1579	0	0.2
1580	0	0.2
1581	0	0.166667
1582	0	0.152047
1583	0	0.24183
1584	0	0.209524
1585	0	0.242072
1586	0	0.677171
1587	0	0.578518
1588	0	0.567873
1589	0	0.672782
1590	0	0.67261
1591	0	0.392929
1592	0	0.497407
1593	0	0.500558
1594	0	0.489645
1595	0	0.136752
1596	0	0.433181
1597	0	0.428431
1598	0	0.411483
1599	0	0.411519
1600	0	0.416764
1601	0	0.248548
1602	0	0.403142
1603	0	0.390745
1604	0	0.388842
1605	0	0.357505
1606	0	0.222136
1607	0	0.223249
1608	0	0.334305
1609	0	0.334305
1610	0	0.334305
1611	0	0.317976
1612	0	0.330657
1613	0	0.335664
1614	0	0.335664
1615	0	0.294483
1616	0	0.297154
1617	0	0.318428
1618	0	0.313678
1619	0	0.307503
1620	0	0.304111
1621	0	0.318732
1622	0	0.423443
1623	0	0.509448
1624	0	0.612346
1625	0	0.618382
1626	0	0.382195
1627	0	0.431373
1628	0	0.571429
1629	0	0.613757
1630	0	0.613757
1631	0	0.710769
1632	0	0
1633	0	0
1634	0	0
1635	0	0
1636	0	0
1637	0	0
1638	0	0
1639	0	0
1640	0	0
1641	0	0
1642	1	0
1643	1	0
1644	1	0
1645	1	0
1646	1	0
1647	1	0
1648	1	0
1649	1	0
1650	1	0
1651	1	0
1652	1	0
1653	1	0
1654	1	0
1655	1	0
1656	1	0
1657	1	0
1658	1	0
1659	1	0
1660	1	0
1661	1	0
1662	1	0
1663	1	0
1664	1	0
1665	1	0
1666	1	0
1667	1	0
1668	1	0
1669	1	0
1670	1	0
1671	1	0
1672	1	0
1673	1	0
1674	1	0
1675	1	0
1676	1	0
1677	1	0
1678	1	0
1679	1	0
1680	1	0
1681	1	0
1682	1	0
1683	1	0
1684	1	0
1685	1	0
1686	1	0
1687	1	0
1688	1	0
1689	1	0
1690	1	0
1691	1	0
1692	1	0
1693	1	0
