Site	ColumnScore	SumOfPairsScore
1	0	1
2	0	1
3	0	1
4	0	1
5	0	1
6	0	1
7	0	1
8	0	1
9	0	1
10	0	1
11	0	1
12	0	1
13	0	1
14	0	1
15	0	1
16	0	1
17	0	1
18	0	1
19	0	1
20	0	1
21	0	1
22	0	1
23	0	1
24	0	1
25	0	1
26	0	1
27	0	1
28	0	1
29	0	1
30	0	1
31	0	1
32	0	1
33	0	1
34	0	1
35	0	1
36	0	1
37	0	1
38	0	1
39	0	1
40	0	1
41	0	1
42	0	1
43	0	1
44	0	1
45	0	1
46	0	1
47	0	1
48	0	1
49	0	1
50	0	1
51	0	1
52	0	1
53	0	0.333333
54	0	0.333333
55	0	0.333333
56	0	0.333333
57	0	0.333333
58	0	0.333333
59	0	0.333333
60	0	0.333333
61	0	0.333333
62	0	0.333333
63	0	0.333333
64	0	0.333333
65	0	0.333333
66	0	0.333333
67	0	0.333333
68	0	0.333333
69	0	0.333333
70	0	0.333333
71	0	0.333333
72	0	0.333333
73	0	0.333333
74	0	0.333333
75	0	0.333333
76	0	0.333333
77	0	0.333333
78	0	0.333333
79	0	0.333333
80	0	0.333333
81	0	0.333333
82	0	0.333333
83	0	0.333333
84	0	0.333333
85	0	0.333333
86	0	0.333333
87	0	0.333333
88	0	0.333333
89	0	0.333333
90	0	0.333333
91	0	0.333333
92	0	0.333333
93	0	0.333333
94	0	0.333333
95	0	0.333333
96	0	0.333333
97	0	0.333333
98	0	0.333333
99	0	0.333333
100	0	0.333333
101	0	0.333333
102	0	0.333333
103	0	0.333333
104	0	0.333333
105	0	0.333333
106	0	0.333333
107	0	0.333333
108	0	0.333333
109	0	0.333333
110	0	0.333333
111	0	0.333333
112	0	0.333333
113	0	0.333333
114	0	0.333333
115	0	0.333333
116	0	0.333333
117	0	0.333333
118	0	0.333333
119	0	0.333333
120	0	0.333333
121	0	0.333333
122	0	0.333333
123	0	0.333333
124	0	0.333333
125	0	0.333333
126	0	0.333333
127	0	0.333333
128	0	0.333333
129	0	0.333333
130	0	0.333333
131	0	0.333333
132	0	0.333333
133	0	0.333333
134	0	0.333333
135	0	0.333333
136	0	0.333333
137	0	0.333333
138	0	0.333333
139	0	0.333333
140	0	0.333333
141	0	0.333333
142	0	0.333333
143	0	0.333333
144	0	0.333333
145	0	0.333333
146	0	0.333333
147	0	0.333333
148	0	0.333333
149	0	0.333333
150	0	0.333333
151	0	0.333333
152	0	0.333333
153	0	0.333333
154	0	0.333333
155	0	0.333333
156	0	0.333333
157	0	0.333333
158	0	0.333333
159	0	0.333333
160	0	0.333333
161	0	0.333333
162	0	0.333333
163	0	0.333333
164	0	0.333333
165	0	0.333333
166	0	0.333333
167	0	0.333333
168	0	0.333333
169	0	0.333333
170	0	0.333333
171	0	0.333333
172	0	0.333333
173	0	0.333333
174	0	0.2
175	0	0.2
176	0	0.2
177	0	0.2
178	0	0.2
179	0	0.2
180	0	0.2
181	0	0.2
182	0	0.2
183	0	0.2
184	0	0.2
185	0	0.2
186	0	0.2
187	0	0.2
188	0	0.2
189	0	0.2
190	0	0.2
191	0	0.2
192	0	0.2
193	0	0.2
194	0	0.2
195	0	0.2
196	0	0.2
197	0	0.2
198	0	0.2
199	0	0.2
200	0	0.2
201	0	0.2
202	0	0.2
203	0	0.2
204	0	0.2
205	0	0.2
206	0	0.2
207	0	0.2
208	0	0.2
209	0	0.2
210	0	0.2
211	0	0.2
212	0	0.2
213	0	0.2
214	0	0.2
215	0	0.2
216	0	0.2
217	0	0.2
218	0	0.2
219	0	0.2
220	0	0.2
221	0	0.2
222	0	0.2
223	0	0.2
224	0	0.2
225	0	0.2
226	0	0.2
227	0	0.2
228	0	0.2
229	0	0.2
230	0	0.2
231	0	0.2
232	0	0.2
233	0	0.2
234	0	0.2
235	0	0.2
236	0	0.2
237	0	0.2
238	0	0.2
239	0	0.2
240	0	0.2
241	0	0.2
242	0	0.2
243	0	0.2
244	0	0.2
245	0	0.2
246	0	0.2
247	0	0.2
248	0	0.2
249	0	0.2
250	0	0.2
251	0	0.2
252	0	0.2
253	0	0.2
254	0	0.2
255	0	0.2
256	0	0.133333
257	0	0.133333
258	0	0.133333
259	0	0.133333
260	0	0.133333
261	0	0.133333
262	0	0.133333
263	0	0.133333
264	0	0.133333
265	0	0.133333
266	0	0.133333
267	0	0.133333
268	0	0.133333
269	0	0.133333
270	0	0.0952381
271	0	0.0952381
272	0	0.0952381
273	0	0.0952381
274	0	0.0952381
275	0	0.0952381
276	0	0.0952381
277	0	0.0952381
278	0	0.0952381
279	0	0.190476
280	0	0.190476
281	0	0.190476
282	0	0.190476
283	0	0.190476
284	0	0.190476
285	0	0.190476
286	0	0.190476
287	0	0.190476
288	0	0.190476
289	0	0.190476
290	0	0.190476
291	0	0.190476
292	0	0.190476
293	0	0.190476
294	0	0.190476
295	0	0.0952381
296	0	0.0952381
297	0	0.0952381
298	0	0.0952381
299	0	0.0952381
300	0	0.0952381
301	0	0.0952381
302	0	0.0952381
303	0	0.0952381
304	0	0.0952381
305	0	0.0952381
306	0	0.0952381
307	0	0.0952381
308	0	0.0952381
309	0	0.0952381
310	0	0.0952381
311	0	0.0952381
312	0	0.0952381
313	0	0.0952381
314	0	0.0952381
315	0	0.0952381
316	0	0.0952381
317	0	0.0952381
318	0	0.0952381
319	0	0.0952381
320	0	0.0952381
321	0	0.0952381
322	0	0.0952381
323	0	0.0952381
324	0	0.0952381
325	0	0.0952381
326	0	0.0952381
327	0	0.0952381
328	0	0.0952381
329	0	0.0952381
330	0	0.0952381
331	0	0.0952381
332	0	0.0952381
333	0	0.0952381
334	0	0.0952381
335	0	0.0952381
336	0	0.0952381
337	0	0.0952381
338	0	0.0952381
339	0	0.0952381
340	0	0.0952381
341	0	0.0952381
342	0	0.0952381
343	0	0.0952381
344	0	0.0952381
345	0	0.0952381
346	0	0.0952381
347	0	0.0952381
348	0	0.0952381
349	0	0.0952381
350	0	0.0952381
351	0	0.0952381
352	0	0.0952381
353	0	0.0952381
354	0	0.0952381
355	0	0.0952381
356	0	0.0952381
357	0	0.0952381
358	0	0.0952381
359	0	0.0952381
360	0	0.0952381
361	0	0.0952381
362	0	0.0952381
363	0	0.0952381
364	0	0.0952381
365	0	0.0952381
366	0	0.0952381
367	0	0.0952381
368	0	0.0952381
369	0	0.0952381
370	0	0.0952381
371	0	0.0952381
372	0	0.0952381
373	0	0.0952381
374	0	0.0952381
375	0	0.0952381
376	0	0.0952381
377	0	0.0952381
378	0	0.0952381
379	0	0.0952381
380	0	0.0952381
381	0	0.0952381
382	0	0.0952381
383	0	0.0952381
384	0	0.0952381
385	0	0.0952381
386	0	0.0952381
387	0	0.0952381
388	0	0.0952381
389	0	0.0952381
390	0	0.0952381
391	0	0.0952381
392	0	0.0952381
393	0	0.0952381
394	0	0.0952381
395	0	0.0714286
396	0	0.0714286
397	0	0.0714286
398	0	0.0555556
399	0	0.0555556
400	0	0.0555556
401	0	0.0555556
402	0	0.0444444
403	0	0.0444444
404	0	0.0444444
405	0	0.0444444
406	0	0.0444444
407	0	0.0444444
408	0	0.0666667
409	0	0.0666667
410	0	0.0666667
411	0	0.0666667
412	0	0.111111
413	0	0.155556
414	0	0.155556
415	0	0.155556
416	0	0.111111
417	0	0.111111
418	0	0.111111
419	0	0.111111
420	0	0.111111
421	0	0.111111
422	0	0.0909091
423	0	0.0909091
424	0	0.0757576
425	0	0.0757576
426	0	0.0757576
427	0	0.0641026
428	0	0.0641026
429	0	0.032967
430	0	0.032967
431	0	0.032967
432	0	0.043956
433	0	0.043956
434	0	0.043956
435	0	0.043956
436	0	0.043956
437	0	0.032967
438	0	0.032967
439	0	0.032967
440	0	0.032967
441	0	0.032967
442	0	0.032967
443	0	0.032967
444	0	0.032967
445	0	0.032967
446	0	0.0549451
447	0	0.131868
448	0	0.142857
449	0	0.0989011
450	0	0.0879121
451	0	0.0879121
452	0	0.0879121
453	0	0.0879121
454	0	0.0659341
455	0	0.0549451
456	0	0.0769231
457	0	0.131868
458	0	0.241758
459	0	0.241758
460	0	0.241758
461	0	0.318681
462	0	0.406593
463	0	0.406593
464	0	0.406593
465	0	0.406593
466	0	0.406593
467	0	0.505495
468	0	0.505495
469	0	0.505495
470	0	0.615385
471	0	0.615385
472	0	0.615385
473	0	0.615385
474	0	0.615385
475	0	0.923663
476	0	0.892484
477	0	0.892484
478	0	0.892484
479	0	0.892484
480	0	1
481	0	0.977641
482	0	0.977641
483	0	1
484	0	1
485	0	1
486	0	1
487	0	1
488	0	1
489	0	1
490	0	1
491	0	1
492	0	1
493	0	1
494	0	1
495	0	1
496	0	1
497	0	1
498	0	1
499	0	1
500	0	1
501	0	1
502	0	1
503	0	1
504	0	1
505	0	1
506	0	1
507	0	1
508	0	1
509	0	1
510	0	1
511	0	1
512	0	1
513	0	1
514	0	1
515	0	1
516	0	1
517	0	1
518	0	1
519	0	1
520	0	1
521	0	1
522	0	1
523	0	1
524	0	1
525	0	1
526	0	1
527	0	1
528	0	1
529	0	1
530	0	1
531	0	1
532	0	1
533	0	1
534	0	1
535	0	1
536	0	1
537	0	1
538	0	1
539	0	1
540	0	1
541	0	1
542	0	1
543	0	1
544	0	1
545	0	0
546	0	0
547	0	0
548	0	0
549	0	0
550	0	0
551	0	0
552	0	0
553	0	0
554	0	0
555	0	0
556	0	0
557	0	0
558	0	0
559	0	0
560	0	0
561	0	0
562	0	0
563	0	0
564	0	0
565	0	0
566	0	0
567	0	0
568	0	0
569	0	0
570	0	0
571	0	0
572	0	0
573	0	0
574	0	0
575	0	0
576	0	0
577	0	0
578	0	0
579	0	0
580	0	0
581	0	0.992509
582	0	0.992509
583	0	0.992509
584	0	0.992509
585	0	0.992509
586	0	0.992509
587	0	0.992509
588	0	0.992509
589	0	0.992509
590	1	0
591	1	0
592	1	0
593	1	0
594	1	0
595	1	0
596	1	0
597	1	0
598	1	0
599	1	0
600	1	0
601	1	0
602	1	0
603	1	0
604	1	0
605	1	0
606	1	0
607	1	0
608	1	0
609	1	0
610	1	0
611	1	0
612	1	0
613	0	0
614	0	0
615	0	0
616	0	0
617	0	0
618	0	0
619	0	0
620	0	0
621	0	0
622	0	0
623	0	0
624	0	0
625	0	0
626	0	0
627	0	0
628	0	0
629	1	1
630	1	1
631	1	1
632	1	1
633	1	1
634	1	1
635	1	1
636	1	1
637	1	1
638	1	1
639	1	1
640	1	1
641	1	1
642	1	1
643	0	1
644	0	0.900609
645	1	1
646	0	0.992537
647	1	0
648	1	0
649	1	0
650	1	0
651	1	0
652	1	0
653	1	0
654	1	0
655	1	0
656	1	0
657	1	0
658	1	0
659	1	0
660	0	0
661	1	1
662	1	1
663	1	1
664	1	1
665	1	1
666	1	1
667	1	1
668	1	1
669	1	1
670	1	1
671	1	1
672	1	1
673	1	1
674	1	1
675	1	1
676	1	1
677	1	1
678	1	1
679	1	1
680	1	1
681	1	1
682	1	1
683	1	1
684	1	1
685	1	1
686	1	1
687	1	1
688	1	1
689	1	1
690	1	1
691	1	1
692	1	1
693	1	1
694	1	1
695	1	1
696	1	1
697	1	1
698	0	1
699	1	1
700	1	1
701	0	0.680055
702	0	1
703	0	1
704	1	1
705	1	1
706	1	1
707	1	1
708	0	0.6
709	0	0.6
710	0	0.6
711	0	0.6
712	0	0.4
713	0	0.4
714	0	0.466667
715	1	1
716	1	1
717	1	1
718	1	1
719	0	0.166667
720	0	0.166667
721	0	0.166667
722	0	0.166667
723	0	0.166667
724	0	0.166667
725	0	0.166667
726	0	0.166667
727	0	0.166667
728	0	0
729	0	0
730	0	0
731	0	0
732	0	0
733	0	0
734	0	0
735	0	0
736	0	0
737	0	0
738	0	0
739	0	0
740	0	0
741	0	0
742	0	0
743	0	0
744	0	0
745	0	0
746	0	0
747	0	0
748	0	0
749	0	0
750	0	0
751	0	0
752	0	0
753	0	0
754	0	0
755	0	0
756	0	0
757	0	0
758	0	0
759	0	0
760	0	0
761	0	1
762	0	1
763	0	1
764	0	1
765	0	1
766	0	1
767	0	1
768	0	1
769	0	1
770	0	1
771	0	0.992537
772	0	0.992537
773	1	1
774	1	1
775	1	1
776	1	1
777	1	1
778	1	1
779	1	1
780	1	1
781	1	1
782	1	1
783	1	1
784	1	1
785	1	1
786	1	1
787	1	1
788	1	1
789	1	1
790	1	1
791	1	1
792	1	1
793	1	1
794	1	1
795	1	1
796	1	1
797	1	1
798	1	1
799	1	1
800	1	1
801	1	1
802	1	1
803	1	1
804	1	1
805	1	1
806	1	1
807	1	1
808	1	1
809	1	1
810	1	1
811	1	1
812	1	1
813	1	1
814	1	1
815	1	1
816	1	1
817	1	1
818	1	1
819	1	1
820	1	1
821	1	1
822	1	1
823	1	1
824	1	1
825	1	1
826	1	1
827	1	1
828	1	1
829	1	1
830	1	0
831	1	1
832	1	1
833	1	1
834	1	1
835	1	1
836	1	1
837	1	1
838	1	1
839	1	1
840	1	1
841	1	1
842	1	1
843	1	1
844	1	1
845	1	1
846	1	1
847	1	1
848	1	1
849	1	1
850	1	1
851	1	1
852	1	1
853	1	1
854	1	1
855	1	1
856	1	1
857	1	1
858	1	1
859	1	1
860	1	1
861	1	1
862	1	1
863	1	1
864	1	1
865	1	1
866	1	1
867	1	1
868	1	1
869	1	1
870	1	1
871	1	1
872	1	1
873	1	1
874	1	1
875	1	1
876	1	1
877	1	1
878	1	1
879	1	1
880	1	1
881	1	1
882	1	1
883	1	1
884	1	1
885	1	1
886	1	1
887	1	1
888	1	1
889	1	1
890	1	1
891	1	1
892	1	1
893	1	1
894	1	1
895	1	1
896	1	1
897	1	1
898	1	1
899	1	1
900	1	1
901	1	1
902	1	1
903	1	1
904	1	1
905	1	1
906	1	1
907	1	1
908	1	1
909	1	1
910	1	1
911	1	1
912	1	1
913	1	1
914	1	1
915	1	1
916	1	1
917	1	1
918	1	1
919	1	1
920	1	1
921	1	1
922	1	1
923	1	1
924	1	1
925	1	1
926	1	1
927	1	1
928	1	1
929	0	0
930	1	0
931	1	0
932	1	0
933	1	0
934	1	0
935	1	0
936	1	0
937	1	0
938	1	0
939	1	0
940	1	0
941	1	0
942	1	0
943	1	0
944	1	0
945	1	0
946	1	0
947	1	0
948	1	0
949	0	0.992537
950	1	1
951	0	1
952	0	1
953	0	1
954	0	1
955	0	1
956	0	0
957	0	0
958	0	0
959	0	0
960	0	0
961	0	0
962	0	0
963	0	0
964	0	0
965	0	0
966	0	0
967	0	0
968	0	0
969	0	0
970	0	0
971	0	0.985103
972	0	0.6
973	0	0
974	0	0
975	0	0
976	0	0
977	0	0
978	0	0
979	0	0
980	1	0
981	1	0
982	1	0
983	1	0
984	1	0
985	1	0
986	1	0
987	1	0
988	1	0
989	1	0
990	1	0
991	1	0
992	1	0
993	1	0
994	1	0
995	1	0
996	1	0
997	1	0
998	1	0
999	0	0
1000	1	0
1001	1	0
1002	1	0
1003	1	0
1004	1	0
1005	1	0
1006	1	0
1007	0	0
1008	0	0
1009	0	0
1010	0	0
1011	0	0
1012	0	0
1013	0	0
1014	0	1
1015	1	1
1016	0	1
1017	0	1
1018	0	1
1019	0	1
1020	0	1
1021	0	0.992453
1022	0	0.984991
1023	0	0.984991
1024	0	0.984991
1025	0	0.984991
1026	0	0.984934
1027	0	0.984934
1028	0	0.992424
1029	0	0.992424
1030	0	0.992424
1031	0	1
1032	0	0.992424
1033	0	0.992424
1034	0	0.992424
1035	0	0.992424
1036	0	0.992424
1037	0	0.992424
1038	0	0.992424
1039	0	0.992424
1040	0	0.992424
1041	0	0.984934
1042	0	0.984877
1043	0	0.984877
1044	0	0.984877
1045	0	0.984877
1046	0	0.98482
1047	0	0.98482
1048	0	0
1049	0	0
1050	0	0
1051	0	0
1052	0	0
1053	0	0
1054	0	0
1055	0	0.984704
1056	0	0.984704
1057	0	0.969641
1058	0	0.962154
1059	0	0.962154
1060	0	0
1061	0	0
1062	0	0
1063	0	0
1064	0	0
1065	0	0
1066	0	0
1067	0	0
1068	0	0
1069	0	0
1070	0	0
1071	0	0
1072	0	0
1073	0	0
1074	0	0
1075	0	0
1076	0	0
1077	0	0
1078	0	0.333333
1079	0	0.333333
1080	0	0.333333
1081	1	1
1082	1	1
1083	0	1
1084	0	1
1085	0	0.5
1086	0	0.5
1087	0	0.3
1088	0	0.666667
1089	0	0.47619
1090	0	0.357143
1091	0	0.700308
1092	0	0.939242
1093	0	0.969292
1094	0	0.969292
1095	0	0.969292
1096	0	0.969292
1097	0	0.961835
1098	0	0.961835
1099	0	0
1100	0	0
1101	0	0
1102	0	0
1103	0	0.946807
1104	0	0.947179
1105	0	0.947179
1106	0	0.954465
1107	0	0.961835
1108	0	0.969409
1109	0	0.976924
1110	0	0.984526
1111	0	0.984526
1112	0	0.984526
1113	0	0.984526
1114	0	1
1115	0	1
1116	0	0.932998
1117	0	0.496009
1118	0	0.476186
1119	0	0.432937
1120	0	0.42784
1121	0	0.41583
1122	0	0.397869
1123	0	0.398468
1124	0	0.382904
1125	0	0.382721
1126	0	0.378769
1127	0	0.305263
1128	0	0.305263
1129	0	0.310681
1130	0	0.266203
1131	0	0.188309
1132	0	0.179471
1133	0	0.180466
1134	0	0.256763
1135	0	0.252501
1136	0	0.231617
1137	0	0.181653
1138	0	0.200738
1139	0	0.192726
1140	0	0.136591
1141	0	0
1142	0	0
1143	0	0
1144	0	0
1145	0	0
1146	0	0
1147	0	0
1148	0	0
1149	0	0
1150	0	0.65812
1151	0	0.535632
1152	0	0.67541
1153	0	0.688988
1154	0	0.214627
1155	0	0.165145
1156	0	0.164474
1157	0	0.2005
1158	0	0.25427
1159	0	0.342118
1160	0	0.541704
1161	0	0.541704
1162	0	0.642883
1163	0	0.642883
1164	0	0.678843
1165	0	0.759165
1166	0	0.586939
1167	0	0.586939
1168	0	0.562442
1169	0	0.576613
1170	0	0.688406
1171	0	0.573529
1172	0	0.5
1173	0	0.5
1174	0	0.560606
1175	0	0.560606
1176	0	0.439394
1177	0	0.509091
1178	0	0.509091
1179	0	0.583333
1180	0	0.583333
1181	0	0.535714
1182	0	0.4
1183	0	0.5
1184	1	0
1185	0	0
1186	0	0
1187	0	0
1188	0	0
1189	0	0
1190	0	0
1191	0	0
1192	0	0
1193	0	0
1194	0	0
1195	0	0
1196	0	0
1197	0	0
1198	0	0.125549
1199	0	0.125549
1200	0	0.147498
1201	0	0.181299
1202	0	0.170764
1203	0	0.175486
1204	0	0.165967
1205	0	0.154681
1206	0	0.157395
1207	0	0.155133
1208	0	0.157594
1209	0	0.154098
1210	0	0.187205
1211	0	0.0952381
1212	0	0.0952381
