Site	ColumnScore	SumOfPairsScore
1	0	0
2	0	0
3	0	0
4	0	0
5	0	0
6	1	0
7	1	0
8	1	0
9	1	0
10	1	0
11	1	0
12	1	0
13	1	0
14	0	0
15	0	0
16	0	0
17	0	0
18	0	0
19	0	0
20	0	0
21	1	0
22	1	0
23	0	0
24	0	0
25	0	0
26	0	0
27	0	0
28	0	0
29	0	0
30	0	0
31	0	0
32	0	0
33	0	0
34	0	0
35	0	0
36	0	0
37	0	0
38	0	0.0666667
39	0	0.0666667
40	0	0.0666667
41	0	0.0666667
42	0	0.0666667
43	0	0.0666667
44	0	0.0666667
45	0	0.0666667
46	0	0.0666667
47	0	0.0666667
48	0	0.2
49	0	0.2
50	0	0.2
51	0	0.2
52	0	0.4
53	0	0.4
54	0	0.4
55	0	0.47619
56	0	0.535714
57	0	0.535714
58	0	0.535714
59	0	0.535714
60	0	0.527273
61	0	0.790543
62	0	0.571466
63	0	0.568411
64	0	0.94797
65	0	0.94797
66	0	0.96967
67	0	0.96967
68	0	0.96967
69	0	0.96967
70	0	0.969851
71	0	0.466667
72	0	0.355556
73	0	0.355556
74	0	0.553654
75	0	0.867714
76	0	0.867714
77	0	0.889123
78	0	0.236364
79	0	0.883307
80	0	0.811405
81	0	0.798408
82	0	0.797832
83	0	0.500475
84	0	0.190476
85	0	0.285714
86	0	0.517992
87	0	0.513585
88	0	0.484864
89	0	0.488624
90	0	0.52591
91	0	0.4
92	0	0.166667
93	0	0.3
94	0	0.701945
95	0	0.497488
96	0	0.538738
97	0	0.540007
98	0	0.519779
99	0	0.333333
100	0	0
101	0	0.450674
102	0	0.61726
103	0	0.60531
104	0	0.608694
105	0	0.615208
106	0	0.615208
107	0	0.615208
108	0	0
109	0	0
110	0	0
111	0	0
112	0	0.739784
113	0	0.66002
114	0	0.623961
115	0	0.524963
116	0	0
117	0	0.705128
118	0	0.534845
119	0	0.302337
120	0	0.289356
121	0	0.410871
122	0	0.262108
123	0	0.439394
124	0	0.488889
125	0	0.295238
126	0	0.54902
127	0	0.338549
128	0	0.608205
129	0	0.774705
130	0	0.797303
131	0	0.892936
132	0	0.893343
133	0	0.92574
134	0	0.962857
135	0	0.962857
136	0	0.970235
137	0	0.955591
138	0	0.865901
139	0	0.865901
140	0	0.768579
141	0	1
142	0	0.930814
143	0	0.650547
144	0	1
145	0	1
146	0	0.739927
147	0	0
148	0	0.53482
149	0	0.35834
150	0	0.468756
151	0	0.265657
152	0	0.560054
153	0	0.638028
154	0	0.679592
155	0	0.941032
156	0	0.970154
157	0	0.970265
158	1	1
159	1	1
160	1	1
161	0	0.466667
162	0	0.970375
163	0	0.970375
164	0	0.970375
165	0	0.970375
166	0	0.970375
167	0	0.970375
168	0	0.962997
169	0	0.934387
170	0	0.927149
171	0	0
172	0	0.919583
173	0	0.707719
174	0	1
175	0	1
176	0	1
177	0	0.992248
178	1	1
179	1	1
180	1	1
181	1	1
182	1	1
183	1	1
184	1	1
185	1	0
186	1	1
187	1	1
188	1	1
189	1	1
190	1	1
191	1	1
192	1	1
193	1	1
194	1	1
195	1	1
196	1	1
197	1	1
198	1	1
199	1	1
200	1	1
201	1	1
202	1	1
203	1	1
204	1	1
205	1	1
206	1	1
207	1	1
208	1	1
209	1	1
210	1	1
211	1	1
212	1	1
213	1	1
214	1	1
215	1	1
216	1	1
217	1	1
218	1	1
219	1	1
220	1	1
221	1	1
222	1	1
223	1	1
224	1	1
225	1	1
226	1	1
227	1	1
228	1	1
229	1	1
230	1	1
231	1	1
232	1	1
233	1	1
234	1	1
235	1	1
236	1	1
237	1	1
238	1	1
239	1	1
240	1	1
241	1	1
242	1	1
243	1	1
244	1	1
245	1	1
246	1	1
247	0	0
248	0	0.984963
249	0	0.963078
250	0	0.963078
251	0	0.96305
252	0	0.834004
253	0	0.679142
254	1	0
255	0	0
256	0	1
257	1	1
258	1	1
259	1	1
260	1	1
261	1	1
262	1	1
263	1	1
264	1	1
265	1	1
266	1	1
267	1	1
268	1	1
269	1	1
270	1	1
271	1	1
272	1	1
273	1	1
274	1	1
275	1	1
276	1	1
277	1	1
278	1	1
279	1	1
280	0	1
281	0	0.600117
282	0	1
283	0	1
284	0	0.992509
285	1	1
286	1	1
287	1	1
288	1	1
289	1	1
290	1	1
291	1	1
292	1	1
293	1	1
294	1	1
295	1	1
296	1	1
297	1	1
298	1	1
299	1	1
300	1	1
301	1	1
302	1	1
303	1	1
304	1	1
305	1	1
306	1	1
307	1	1
308	1	1
309	1	1
310	1	1
311	1	1
312	1	1
313	0	0.592152
314	0	0.517944
315	0	0.548969
316	0	0.859494
317	0	1
318	0	0.992537
319	1	1
320	1	1
321	1	1
322	1	1
323	1	1
324	1	1
325	1	1
326	1	1
327	1	1
328	1	1
329	1	1
330	1	1
331	1	1
332	1	1
333	1	1
334	1	1
335	1	1
336	1	1
337	1	1
338	1	1
339	1	1
340	1	1
341	1	1
342	1	1
343	1	1
344	1	1
345	1	1
346	1	1
347	1	1
348	1	1
349	1	1
350	1	1
351	1	1
352	1	1
353	1	1
354	1	1
355	1	1
356	1	1
357	1	1
358	1	1
359	1	1
360	1	1
361	1	1
362	1	1
363	1	1
364	1	1
365	1	1
366	1	1
367	1	1
368	1	1
369	1	1
370	1	1
371	1	1
372	1	1
373	1	1
374	1	1
375	1	1
376	1	1
377	1	1
378	1	1
379	1	1
380	1	1
381	1	1
382	1	1
383	1	1
384	1	1
385	1	1
386	1	1
387	1	1
388	1	1
389	1	1
390	1	1
391	1	1
392	1	1
393	1	1
394	1	1
395	1	1
396	1	1
397	1	1
398	1	1
399	1	1
400	1	1
401	1	1
402	1	1
403	1	1
404	1	1
405	1	1
406	1	1
407	1	1
408	1	1
409	1	1
410	1	1
411	1	1
412	1	1
413	1	1
414	1	1
415	1	1
416	1	1
417	1	1
418	1	1
419	1	1
420	1	1
421	1	1
422	1	0
423	1	0
424	1	0
425	1	0
426	1	0
427	1	0
428	1	0
429	1	0
430	1	0
431	0	0
432	0	0.992481
433	0	0.992481
434	0	0.992481
435	0	0.992481
436	0	0.992395
437	0	0.992366
438	0	0.992366
439	0	0.977388
440	0	0.970069
441	0	0.970069
442	0	0.970069
443	0	0.970069
444	0	0.962775
445	0	0.962775
446	0	0.962775
447	0	0.962775
448	0	0.955591
449	0	0.970011
450	0	0.970011
451	0	0.970011
452	0	0.970011
453	0	0.977388
454	0	0.992424
455	0	0.992424
456	0	0.992424
457	0	0.992424
458	0	0.984934
459	0	0.992424
460	0	0.992424
461	0	0.992424
462	0	0.992424
463	0	0.992424
464	0	0.992424
465	0	0.992424
466	0	0.992424
467	0	0.992366
468	0	0.992366
469	0	0.992366
470	0	0.992366
471	0	0.992366
472	0	0.976502
473	1	0
474	1	0
