
RAxML-NG v. 1.0.1 released on 19.09.2020 by The Exelixis Lab.
Developed by: Alexey M. Kozlov and Alexandros Stamatakis.
Contributors: Diego Darriba, Tomas Flouri, Benoit Morel, Sarah Lutteropp, Ben Bettisworth.
Latest version: https://github.com/amkozlov/raxml-ng
Questions/problems/suggestions? Please visit: https://groups.google.com/forum/#!forum/raxml

System: Intel(R) Xeon(R) CPU E5-2683 v4 @ 2.10GHz, 32 cores, 503 GB RAM

RAxML-NG was called at 24-Nov-2020 22:44:57 as follows:

./raxml-ng --msa SuperAlignment2.fasta.raxml.rba --prefix Bootstrap2/SuperAlignment2.fasta.raxml.bootstrap99 --bootstrap --bs-trees 1 --seed 141 --threads 32

Analysis options:
  run mode: Bootstrapping
  start tree(s): 
  bootstrap replicates: 1
  random seed: 141
  tip-inner: OFF
  pattern compression: ON
  per-rate scalers: OFF
  site repeats: ON
  branch lengths: proportional (ML estimate, algorithm: NR-FAST)
  SIMD kernels: AVX2
  parallelization: coarse-grained (auto), PTHREADS (32 threads), thread pinning: OFF

[00:00:00] Loading binary alignment from file: SuperAlignment2.fasta.raxml.rba
[00:00:00] Alignment comprises 268 taxa, 212 partitions and 90596 patterns

Partition 0: VC83_04935T0
Model: LG+G4m+B
Alignment sites / patterns: 353 / 323
Gaps: 1.16 %
Invariant sites: 20.11 %

Partition 1: VC83_04938T0
Model: LG+G4m+B
Alignment sites / patterns: 442 / 372
Gaps: 0.57 %
Invariant sites: 23.76 %

Partition 2: VC83_04969T0
Model: LG+G4m+B
Alignment sites / patterns: 449 / 440
Gaps: 0.51 %
Invariant sites: 8.46 %

Partition 3: VC83_05010T0
Model: LG+G4m+B
Alignment sites / patterns: 171 / 166
Gaps: 2.01 %
Invariant sites: 16.37 %

Partition 4: VC83_05075T0
Model: LG+G4m+B
Alignment sites / patterns: 468 / 434
Gaps: 0.86 %
Invariant sites: 15.81 %

Partition 5: VC83_05108T0
Model: LG+G4m+B
Alignment sites / patterns: 209 / 195
Gaps: 0.80 %
Invariant sites: 31.58 %

Partition 6: VC83_05116T0
Model: LG+G4m+B
Alignment sites / patterns: 756 / 755
Gaps: 2.73 %
Invariant sites: 1.32 %

Partition 7: VC83_06394T0
Model: LG+G4m+B
Alignment sites / patterns: 1035 / 833
Gaps: 0.52 %
Invariant sites: 24.73 %

Partition 8: VC83_06401T0
Model: LG+G4m+B
Alignment sites / patterns: 438 / 393
Gaps: 0.91 %
Invariant sites: 14.16 %

Partition 9: VC83_06567T0
Model: LG+G4m+B
Alignment sites / patterns: 573 / 543
Gaps: 0.58 %
Invariant sites: 10.12 %

Partition 10: VC83_06568T0
Model: LG+G4m+B
Alignment sites / patterns: 1317 / 1291
Gaps: 1.17 %
Invariant sites: 4.33 %

Partition 11: VC83_05207T0
Model: LG+G4m+B
Alignment sites / patterns: 1006 / 957
Gaps: 0.28 %
Invariant sites: 7.46 %

Partition 12: VC83_05268T0
Model: LG+G4m+B
Alignment sites / patterns: 342 / 329
Gaps: 0.43 %
Invariant sites: 11.70 %

Partition 13: VC83_05338T0
Model: LG+G4m+B
Alignment sites / patterns: 1239 / 1132
Gaps: 0.66 %
Invariant sites: 12.11 %

Partition 14: VC83_05368T0
Model: LG+G4m+B
Alignment sites / patterns: 1206 / 1076
Gaps: 1.03 %
Invariant sites: 15.51 %

Partition 15: VC83_05397T0
Model: LG+G4m+B
Alignment sites / patterns: 624 / 599
Gaps: 1.73 %
Invariant sites: 12.02 %

Partition 16: VC83_05427T0
Model: LG+G4m+B
Alignment sites / patterns: 613 / 441
Gaps: 0.10 %
Invariant sites: 36.54 %

Partition 17: VC83_05428T0
Model: LG+G4m+B
Alignment sites / patterns: 592 / 530
Gaps: 0.46 %
Invariant sites: 19.43 %

Partition 18: VC83_05433T0
Model: LG+G4m+B
Alignment sites / patterns: 507 / 434
Gaps: 0.73 %
Invariant sites: 22.88 %

Partition 19: VC83_05570T0
Model: LG+G4m+B
Alignment sites / patterns: 185 / 172
Gaps: 1.02 %
Invariant sites: 19.46 %

Partition 20: VC83_05585T0
Model: LG+G4m+B
Alignment sites / patterns: 253 / 207
Gaps: 1.72 %
Invariant sites: 31.23 %

Partition 21: VC83_05593T0
Model: LG+G4m+B
Alignment sites / patterns: 273 / 266
Gaps: 0.52 %
Invariant sites: 7.69 %

Partition 22: VC83_05595T0
Model: LG+G4m+B
Alignment sites / patterns: 852 / 846
Gaps: 1.73 %
Invariant sites: 3.40 %

Partition 23: VC83_05666T0
Model: LG+G4m+B
Alignment sites / patterns: 351 / 228
Gaps: 0.31 %
Invariant sites: 51.28 %

Partition 24: VC83_05751T0
Model: LG+G4m+B
Alignment sites / patterns: 478 / 408
Gaps: 0.43 %
Invariant sites: 20.08 %

Partition 25: VC83_04521T0
Model: LG+G4m+B
Alignment sites / patterns: 208 / 186
Gaps: 1.44 %
Invariant sites: 26.92 %

Partition 26: VC83_04526T0
Model: LG+G4m+B
Alignment sites / patterns: 503 / 422
Gaps: 0.35 %
Invariant sites: 19.88 %

Partition 27: VC83_04562T0
Model: LG+G4m+B
Alignment sites / patterns: 674 / 654
Gaps: 0.36 %
Invariant sites: 5.49 %

Partition 28: VC83_04584T0
Model: LG+G4m+B
Alignment sites / patterns: 755 / 750
Gaps: 0.46 %
Invariant sites: 2.91 %

Partition 29: VC83_04605T0
Model: LG+G4m+B
Alignment sites / patterns: 1040 / 1027
Gaps: 0.40 %
Invariant sites: 2.69 %

Partition 30: VC83_04642T0
Model: LG+G4m+B
Alignment sites / patterns: 380 / 330
Gaps: 0.03 %
Invariant sites: 18.42 %

Partition 31: VC83_04643T0
Model: LG+G4m+B
Alignment sites / patterns: 589 / 554
Gaps: 0.89 %
Invariant sites: 11.04 %

Partition 32: VC83_04790T0
Model: LG+G4m+B
Alignment sites / patterns: 496 / 410
Gaps: 0.26 %
Invariant sites: 22.98 %

Partition 33: VC83_04798T0
Model: LG+G4m+B
Alignment sites / patterns: 792 / 766
Gaps: 0.77 %
Invariant sites: 7.32 %

Partition 34: VC83_04848T0
Model: LG+G4m+B
Alignment sites / patterns: 308 / 239
Gaps: 0.16 %
Invariant sites: 29.22 %

Partition 35: VC83_04852T0
Model: LG+G4m+B
Alignment sites / patterns: 401 / 398
Gaps: 1.47 %
Invariant sites: 3.99 %

Partition 36: VC83_05788T0
Model: LG+G4m+B
Alignment sites / patterns: 245 / 233
Gaps: 1.36 %
Invariant sites: 11.84 %

Partition 37: VC83_05831T0
Model: LG+G4m+B
Alignment sites / patterns: 331 / 327
Gaps: 1.37 %
Invariant sites: 4.23 %

Partition 38: VC83_05892T0
Model: LG+G4m+B
Alignment sites / patterns: 409 / 364
Gaps: 0.42 %
Invariant sites: 16.63 %

Partition 39: VC83_00280T0
Model: LG+G4m+B
Alignment sites / patterns: 155 / 106
Gaps: 0.86 %
Invariant sites: 52.26 %

Partition 40: VC83_06957T0
Model: LG+G4m+B
Alignment sites / patterns: 433 / 420
Gaps: 1.07 %
Invariant sites: 11.32 %

Partition 41: VC83_06992T0
Model: LG+G4m+B
Alignment sites / patterns: 227 / 224
Gaps: 1.62 %
Invariant sites: 8.81 %

Partition 42: VC83_00287T0
Model: LG+G4m+B
Alignment sites / patterns: 400 / 395
Gaps: 0.78 %
Invariant sites: 3.50 %

Partition 43: VC83_00290T0
Model: LG+G4m+B
Alignment sites / patterns: 452 / 450
Gaps: 1.46 %
Invariant sites: 3.54 %

Partition 44: VC83_07186T0
Model: LG+G4m+B
Alignment sites / patterns: 897 / 856
Gaps: 0.68 %
Invariant sites: 7.02 %

Partition 45: VC83_07190T0
Model: LG+G4m+B
Alignment sites / patterns: 464 / 412
Gaps: 0.95 %
Invariant sites: 18.75 %

Partition 46: VC83_07229T0
Model: LG+G4m+B
Alignment sites / patterns: 234 / 232
Gaps: 0.88 %
Invariant sites: 6.41 %

Partition 47: VC83_07231T0
Model: LG+G4m+B
Alignment sites / patterns: 1196 / 1179
Gaps: 0.60 %
Invariant sites: 3.68 %

Partition 48: VC83_00031T0
Model: LG+G4m+B
Alignment sites / patterns: 970 / 966
Gaps: 2.47 %
Invariant sites: 2.06 %

Partition 49: VC83_07298T0
Model: LG+G4m+B
Alignment sites / patterns: 500 / 471
Gaps: 0.42 %
Invariant sites: 8.80 %

Partition 50: VC83_00324T0
Model: LG+G4m+B
Alignment sites / patterns: 294 / 274
Gaps: 0.87 %
Invariant sites: 18.03 %

Partition 51: VC83_06697T0
Model: LG+G4m+B
Alignment sites / patterns: 430 / 428
Gaps: 0.64 %
Invariant sites: 1.86 %

Partition 52: VC83_06701T0
Model: LG+G4m+B
Alignment sites / patterns: 250 / 249
Gaps: 0.90 %
Invariant sites: 3.20 %

Partition 53: VC83_06702T0
Model: LG+G4m+B
Alignment sites / patterns: 204 / 186
Gaps: 0.51 %
Invariant sites: 16.18 %

Partition 54: VC83_00033T0
Model: LG+G4m+B
Alignment sites / patterns: 591 / 559
Gaps: 0.63 %
Invariant sites: 12.18 %

Partition 55: VC83_00332T0
Model: LG+G4m+B
Alignment sites / patterns: 606 / 511
Gaps: 0.39 %
Invariant sites: 19.14 %

Partition 56: VC83_00334T0
Model: LG+G4m+B
Alignment sites / patterns: 127 / 103
Gaps: 0.01 %
Invariant sites: 27.56 %

Partition 57: VC83_06765T0
Model: LG+G4m+B
Alignment sites / patterns: 322 / 320
Gaps: 1.43 %
Invariant sites: 2.80 %

Partition 58: VC83_06827T0
Model: LG+G4m+B
Alignment sites / patterns: 218 / 218
Gaps: 0.80 %
Invariant sites: 2.75 %

Partition 59: VC83_06828T0
Model: LG+G4m+B
Alignment sites / patterns: 781 / 679
Gaps: 1.01 %
Invariant sites: 19.21 %

Partition 60: VC83_06829T0
Model: LG+G4m+B
Alignment sites / patterns: 245 / 243
Gaps: 0.88 %
Invariant sites: 5.71 %

Partition 61: VC83_06868T0
Model: LG+G4m+B
Alignment sites / patterns: 441 / 418
Gaps: 0.98 %
Invariant sites: 12.47 %

Partition 62: VC83_00678T0
Model: LG+G4m+B
Alignment sites / patterns: 410 / 395
Gaps: 0.74 %
Invariant sites: 8.05 %

Partition 63: VC83_00350T0
Model: LG+G4m+B
Alignment sites / patterns: 469 / 361
Gaps: 0.78 %
Invariant sites: 31.77 %

Partition 64: VC83_00698T0
Model: LG+G4m+B
Alignment sites / patterns: 473 / 440
Gaps: 1.42 %
Invariant sites: 18.82 %

Partition 65: VC83_00823T0
Model: LG+G4m+B
Alignment sites / patterns: 544 / 524
Gaps: 1.57 %
Invariant sites: 9.01 %

Partition 66: VC83_00943T0
Model: LG+G4m+B
Alignment sites / patterns: 519 / 516
Gaps: 2.05 %
Invariant sites: 5.78 %

Partition 67: VC83_00952T0
Model: LG+G4m+B
Alignment sites / patterns: 118 / 55
Gaps: 0.15 %
Invariant sites: 68.64 %

Partition 68: VC83_00956T0
Model: LG+G4m+B
Alignment sites / patterns: 448 / 431
Gaps: 0.30 %
Invariant sites: 8.04 %

Partition 69: VC83_00972T0
Model: LG+G4m+B
Alignment sites / patterns: 355 / 329
Gaps: 0.38 %
Invariant sites: 13.80 %

Partition 70: VC83_00983T0
Model: LG+G4m+B
Alignment sites / patterns: 324 / 315
Gaps: 1.69 %
Invariant sites: 12.04 %

Partition 71: VC83_01070T0
Model: LG+G4m+B
Alignment sites / patterns: 353 / 305
Gaps: 0.66 %
Invariant sites: 21.81 %

Partition 72: VC83_01079T0
Model: LG+G4m+B
Alignment sites / patterns: 722 / 663
Gaps: 0.24 %
Invariant sites: 11.50 %

Partition 73: VC83_01082T0
Model: LG+G4m+B
Alignment sites / patterns: 231 / 202
Gaps: 0.27 %
Invariant sites: 27.71 %

Partition 74: VC83_01176T0
Model: LG+G4m+B
Alignment sites / patterns: 1611 / 1586
Gaps: 1.16 %
Invariant sites: 3.79 %

Partition 75: VC83_01219T0
Model: LG+G4m+B
Alignment sites / patterns: 677 / 599
Gaps: 0.60 %
Invariant sites: 15.95 %

Partition 76: VC83_01234T0
Model: LG+G4m+B
Alignment sites / patterns: 359 / 352
Gaps: 2.69 %
Invariant sites: 9.19 %

Partition 77: VC83_01264T0
Model: LG+G4m+B
Alignment sites / patterns: 209 / 201
Gaps: 0.66 %
Invariant sites: 9.09 %

Partition 78: VC83_01293T0
Model: LG+G4m+B
Alignment sites / patterns: 711 / 703
Gaps: 1.06 %
Invariant sites: 7.17 %

Partition 79: VC83_01294T0
Model: LG+G4m+B
Alignment sites / patterns: 229 / 220
Gaps: 0.40 %
Invariant sites: 12.23 %

Partition 80: VC83_01301T0
Model: LG+G4m+B
Alignment sites / patterns: 847 / 844
Gaps: 1.28 %
Invariant sites: 2.24 %

Partition 81: VC83_07352T0
Model: LG+G4m+B
Alignment sites / patterns: 1713 / 1681
Gaps: 0.69 %
Invariant sites: 3.62 %

Partition 82: VC83_07407T0
Model: LG+G4m+B
Alignment sites / patterns: 595 / 584
Gaps: 0.88 %
Invariant sites: 4.37 %

Partition 83: VC83_07470T0
Model: LG+G4m+B
Alignment sites / patterns: 253 / 224
Gaps: 0.48 %
Invariant sites: 24.90 %

Partition 84: VC83_07483T0
Model: LG+G4m+B
Alignment sites / patterns: 261 / 259
Gaps: 0.81 %
Invariant sites: 5.75 %

Partition 85: VC83_07485T0
Model: LG+G4m+B
Alignment sites / patterns: 214 / 204
Gaps: 1.23 %
Invariant sites: 9.81 %

Partition 86: VC83_07505T0
Model: LG+G4m+B
Alignment sites / patterns: 401 / 394
Gaps: 0.88 %
Invariant sites: 5.24 %

Partition 87: VC83_07510T0
Model: LG+G4m+B
Alignment sites / patterns: 322 / 314
Gaps: 2.23 %
Invariant sites: 5.90 %

Partition 88: VC83_07948T0
Model: LG+G4m+B
Alignment sites / patterns: 301 / 287
Gaps: 1.87 %
Invariant sites: 9.97 %

Partition 89: VC83_00442T0
Model: LG+G4m+B
Alignment sites / patterns: 515 / 477
Gaps: 0.80 %
Invariant sites: 15.53 %

Partition 90: VC83_08029T0
Model: LG+G4m+B
Alignment sites / patterns: 229 / 198
Gaps: 0.56 %
Invariant sites: 24.45 %

Partition 91: VC83_07787T0
Model: LG+G4m+B
Alignment sites / patterns: 236 / 234
Gaps: 2.35 %
Invariant sites: 8.90 %

Partition 92: VC83_07839T0
Model: LG+G4m+B
Alignment sites / patterns: 346 / 328
Gaps: 0.31 %
Invariant sites: 9.83 %

Partition 93: VC83_07841T0
Model: LG+G4m+B
Alignment sites / patterns: 779 / 754
Gaps: 0.61 %
Invariant sites: 7.32 %

Partition 94: VC83_07842T0
Model: LG+G4m+B
Alignment sites / patterns: 335 / 321
Gaps: 0.52 %
Invariant sites: 7.76 %

Partition 95: VC83_07872T0
Model: LG+G4m+B
Alignment sites / patterns: 386 / 362
Gaps: 0.81 %
Invariant sites: 10.10 %

Partition 96: VC83_07635T0
Model: LG+G4m+B
Alignment sites / patterns: 625 / 508
Gaps: 0.36 %
Invariant sites: 25.44 %

Partition 97: VC83_07670T0
Model: LG+G4m+B
Alignment sites / patterns: 559 / 547
Gaps: 2.65 %
Invariant sites: 6.08 %

Partition 98: VC83_07683T0
Model: LG+G4m+B
Alignment sites / patterns: 399 / 385
Gaps: 0.59 %
Invariant sites: 6.77 %

Partition 99: VC83_07713T0
Model: LG+G4m+B
Alignment sites / patterns: 620 / 574
Gaps: 0.40 %
Invariant sites: 13.23 %

Partition 100: VC83_07717T0
Model: LG+G4m+B
Alignment sites / patterns: 270 / 207
Gaps: 0.73 %
Invariant sites: 30.00 %

Partition 101: VC83_08294T0
Model: LG+G4m+B
Alignment sites / patterns: 279 / 277
Gaps: 1.55 %
Invariant sites: 4.66 %

Partition 102: VC83_00498T0
Model: LG+G4m+B
Alignment sites / patterns: 124 / 122
Gaps: 2.57 %
Invariant sites: 16.94 %

Partition 103: VC83_08391T0
Model: LG+G4m+B
Alignment sites / patterns: 1014 / 883
Gaps: 0.22 %
Invariant sites: 17.26 %

Partition 104: VC83_08134T0
Model: LG+G4m+B
Alignment sites / patterns: 435 / 424
Gaps: 0.73 %
Invariant sites: 5.06 %

Partition 105: VC83_08140T0
Model: LG+G4m+B
Alignment sites / patterns: 497 / 492
Gaps: 1.22 %
Invariant sites: 5.43 %

Partition 106: VC83_08712T0
Model: LG+G4m+B
Alignment sites / patterns: 277 / 266
Gaps: 0.60 %
Invariant sites: 11.19 %

Partition 107: VC83_08776T0
Model: LG+G4m+B
Alignment sites / patterns: 228 / 216
Gaps: 0.95 %
Invariant sites: 12.28 %

Partition 108: VC83_08551T0
Model: LG+G4m+B
Alignment sites / patterns: 297 / 242
Gaps: 0.67 %
Invariant sites: 37.04 %

Partition 109: VC83_08553T0
Model: LG+G4m+B
Alignment sites / patterns: 794 / 786
Gaps: 1.40 %
Invariant sites: 2.27 %

Partition 110: VC83_08560T0
Model: LG+G4m+B
Alignment sites / patterns: 608 / 583
Gaps: 0.77 %
Invariant sites: 8.55 %

Partition 111: VC83_08638T0
Model: LG+G4m+B
Alignment sites / patterns: 337 / 327
Gaps: 0.62 %
Invariant sites: 9.79 %

Partition 112: VC83_08639T0
Model: LG+G4m+B
Alignment sites / patterns: 650 / 638
Gaps: 0.56 %
Invariant sites: 4.77 %

Partition 113: VC83_08641T0
Model: LG+G4m+B
Alignment sites / patterns: 370 / 348
Gaps: 1.47 %
Invariant sites: 9.46 %

Partition 114: VC83_08697T0
Model: LG+G4m+B
Alignment sites / patterns: 191 / 177
Gaps: 0.58 %
Invariant sites: 15.18 %

Partition 115: VC83_01342T0
Model: LG+G4m+B
Alignment sites / patterns: 560 / 501
Gaps: 0.51 %
Invariant sites: 18.57 %

Partition 116: VC83_01392T0
Model: LG+G4m+B
Alignment sites / patterns: 503 / 450
Gaps: 0.84 %
Invariant sites: 17.69 %

Partition 117: VC83_01557T0
Model: LG+G4m+B
Alignment sites / patterns: 478 / 470
Gaps: 1.94 %
Invariant sites: 4.81 %

Partition 118: VC83_01582T0
Model: LG+G4m+B
Alignment sites / patterns: 159 / 153
Gaps: 1.20 %
Invariant sites: 15.09 %

Partition 119: VC83_01756T0
Model: LG+G4m+B
Alignment sites / patterns: 872 / 774
Gaps: 0.32 %
Invariant sites: 18.35 %

Partition 120: VC83_00602T0
Model: LG+G4m+B
Alignment sites / patterns: 195 / 195
Gaps: 0.87 %
Invariant sites: 3.59 %

Partition 121: VC83_01779T0
Model: LG+G4m+B
Alignment sites / patterns: 353 / 348
Gaps: 0.94 %
Invariant sites: 5.95 %

Partition 122: VC83_01784T0
Model: LG+G4m+B
Alignment sites / patterns: 271 / 263
Gaps: 0.72 %
Invariant sites: 5.54 %

Partition 123: VC83_01785T0
Model: LG+G4m+B
Alignment sites / patterns: 271 / 265
Gaps: 0.78 %
Invariant sites: 6.64 %

Partition 124: VC83_01788T0
Model: LG+G4m+B
Alignment sites / patterns: 224 / 220
Gaps: 1.46 %
Invariant sites: 6.70 %

Partition 125: VC83_08893T0
Model: LG+G4m+B
Alignment sites / patterns: 745 / 702
Gaps: 0.09 %
Invariant sites: 7.92 %

Partition 126: VC83_08949T0
Model: LG+G4m+B
Alignment sites / patterns: 140 / 120
Gaps: 1.00 %
Invariant sites: 27.86 %

Partition 127: VC83_08819T0
Model: LG+G4m+B
Alignment sites / patterns: 439 / 424
Gaps: 0.31 %
Invariant sites: 8.20 %

Partition 128: VC83_09204T0
Model: LG+G4m+B
Alignment sites / patterns: 821 / 795
Gaps: 1.07 %
Invariant sites: 7.43 %

Partition 129: VC83_09207T0
Model: LG+G4m+B
Alignment sites / patterns: 255 / 216
Gaps: 0.45 %
Invariant sites: 21.18 %

Partition 130: VC83_09265T0
Model: LG+G4m+B
Alignment sites / patterns: 218 / 217
Gaps: 1.60 %
Invariant sites: 4.59 %

Partition 131: VC83_09224T0
Model: LG+G4m+B
Alignment sites / patterns: 562 / 547
Gaps: 0.71 %
Invariant sites: 5.69 %

Partition 132: VC83_09297T0
Model: LG+G4m+B
Alignment sites / patterns: 428 / 424
Gaps: 1.10 %
Invariant sites: 5.61 %

Partition 133: VC83_01851T0
Model: LG+G4m+B
Alignment sites / patterns: 351 / 324
Gaps: 0.92 %
Invariant sites: 13.11 %

Partition 134: VC83_01857T0
Model: LG+G4m+B
Alignment sites / patterns: 426 / 374
Gaps: 0.40 %
Invariant sites: 18.78 %

Partition 135: VC83_01866T0
Model: LG+G4m+B
Alignment sites / patterns: 548 / 385
Gaps: 0.58 %
Invariant sites: 39.23 %

Partition 136: VC83_01888T0
Model: LG+G4m+B
Alignment sites / patterns: 648 / 547
Gaps: 0.57 %
Invariant sites: 26.70 %

Partition 137: VC83_01943T0
Model: LG+G4m+B
Alignment sites / patterns: 743 / 732
Gaps: 1.14 %
Invariant sites: 4.85 %

Partition 138: VC83_01985T0
Model: LG+G4m+B
Alignment sites / patterns: 271 / 248
Gaps: 0.76 %
Invariant sites: 22.14 %

Partition 139: VC83_02004T0
Model: LG+G4m+B
Alignment sites / patterns: 339 / 319
Gaps: 1.71 %
Invariant sites: 12.09 %

Partition 140: VC83_02014T0
Model: LG+G4m+B
Alignment sites / patterns: 151 / 133
Gaps: 0.32 %
Invariant sites: 20.53 %

Partition 141: VC83_02214T0
Model: LG+G4m+B
Alignment sites / patterns: 373 / 365
Gaps: 1.68 %
Invariant sites: 9.12 %

Partition 142: VC83_02224T0
Model: LG+G4m+B
Alignment sites / patterns: 615 / 607
Gaps: 0.23 %
Invariant sites: 4.39 %

Partition 143: VC83_02260T0
Model: LG+G4m+B
Alignment sites / patterns: 477 / 471
Gaps: 2.07 %
Invariant sites: 5.87 %

Partition 144: VC83_02263T0
Model: LG+G4m+B
Alignment sites / patterns: 190 / 134
Gaps: 0.93 %
Invariant sites: 47.89 %

Partition 145: VC83_09328T0
Model: LG+G4m+B
Alignment sites / patterns: 440 / 433
Gaps: 0.97 %
Invariant sites: 5.23 %

Partition 146: VC83_09373T0
Model: LG+G4m+B
Alignment sites / patterns: 476 / 417
Gaps: 0.86 %
Invariant sites: 19.33 %

Partition 147: VC83_09388T0
Model: LG+G4m+B
Alignment sites / patterns: 147 / 116
Gaps: 1.02 %
Invariant sites: 39.46 %

Partition 148: VC83_09442T0
Model: LG+G4m+B
Alignment sites / patterns: 581 / 576
Gaps: 0.62 %
Invariant sites: 3.79 %

Partition 149: VC83_02280T0
Model: LG+G4m+B
Alignment sites / patterns: 350 / 306
Gaps: 1.57 %
Invariant sites: 18.29 %

Partition 150: VC83_02289T0
Model: LG+G4m+B
Alignment sites / patterns: 193 / 160
Gaps: 0.48 %
Invariant sites: 29.53 %

Partition 151: VC83_02290T0
Model: LG+G4m+B
Alignment sites / patterns: 173 / 158
Gaps: 0.11 %
Invariant sites: 17.34 %

Partition 152: VC83_02398T0
Model: LG+G4m+B
Alignment sites / patterns: 234 / 225
Gaps: 0.49 %
Invariant sites: 12.82 %

Partition 153: VC83_02426T0
Model: LG+G4m+B
Alignment sites / patterns: 455 / 452
Gaps: 1.86 %
Invariant sites: 4.84 %

Partition 154: VC83_02482T0
Model: LG+G4m+B
Alignment sites / patterns: 478 / 385
Gaps: 0.46 %
Invariant sites: 25.10 %

Partition 155: VC83_02515T0
Model: LG+G4m+B
Alignment sites / patterns: 615 / 557
Gaps: 0.59 %
Invariant sites: 13.66 %

Partition 156: VC83_02550T0
Model: LG+G4m+B
Alignment sites / patterns: 469 / 361
Gaps: 0.78 %
Invariant sites: 31.77 %

Partition 157: VC83_02556T0
Model: LG+G4m+B
Alignment sites / patterns: 270 / 249
Gaps: 0.44 %
Invariant sites: 14.44 %

Partition 158: VC83_02663T0
Model: LG+G4m+B
Alignment sites / patterns: 670 / 556
Gaps: 0.12 %
Invariant sites: 21.19 %

Partition 159: VC83_02668T0
Model: LG+G4m+B
Alignment sites / patterns: 309 / 219
Gaps: 0.64 %
Invariant sites: 41.10 %

Partition 160: VC83_02712T0
Model: LG+G4m+B
Alignment sites / patterns: 604 / 569
Gaps: 0.45 %
Invariant sites: 8.77 %

Partition 161: VC83_02718T0
Model: LG+G4m+B
Alignment sites / patterns: 123 / 103
Gaps: 0.08 %
Invariant sites: 23.58 %

Partition 162: VC83_00075T0
Model: LG+G4m+B
Alignment sites / patterns: 1257 / 1232
Gaps: 1.16 %
Invariant sites: 6.13 %

Partition 163: VC83_03250T0
Model: LG+G4m+B
Alignment sites / patterns: 220 / 209
Gaps: 0.66 %
Invariant sites: 19.55 %

Partition 164: VC83_03342T0
Model: LG+G4m+B
Alignment sites / patterns: 515 / 493
Gaps: 0.94 %
Invariant sites: 8.54 %

Partition 165: VC83_03412T0
Model: LG+G4m+B
Alignment sites / patterns: 316 / 308
Gaps: 0.70 %
Invariant sites: 8.23 %

Partition 166: VC83_03433T0
Model: LG+G4m+B
Alignment sites / patterns: 221 / 215
Gaps: 0.56 %
Invariant sites: 9.05 %

Partition 167: VC83_03567T0
Model: LG+G4m+B
Alignment sites / patterns: 148 / 145
Gaps: 0.70 %
Invariant sites: 9.46 %

Partition 168: VC83_06181T0
Model: LG+G4m+B
Alignment sites / patterns: 323 / 320
Gaps: 0.55 %
Invariant sites: 7.12 %

Partition 169: VC83_03630T0
Model: LG+G4m+B
Alignment sites / patterns: 275 / 264
Gaps: 0.29 %
Invariant sites: 14.18 %

Partition 170: VC83_02816T0
Model: LG+G4m+B
Alignment sites / patterns: 745 / 725
Gaps: 0.59 %
Invariant sites: 7.38 %

Partition 171: VC83_06194T0
Model: LG+G4m+B
Alignment sites / patterns: 586 / 560
Gaps: 0.30 %
Invariant sites: 8.36 %

Partition 172: VC83_00081T0
Model: LG+G4m+B
Alignment sites / patterns: 248 / 230
Gaps: 1.41 %
Invariant sites: 15.73 %

Partition 173: VC83_02894T0
Model: LG+G4m+B
Alignment sites / patterns: 520 / 431
Gaps: 0.77 %
Invariant sites: 23.85 %

Partition 174: VC83_02895T0
Model: LG+G4m+B
Alignment sites / patterns: 521 / 505
Gaps: 0.76 %
Invariant sites: 7.49 %

Partition 175: VC83_02901T0
Model: LG+G4m+B
Alignment sites / patterns: 469 / 459
Gaps: 1.23 %
Invariant sites: 11.51 %

Partition 176: VC83_06205T0
Model: LG+G4m+B
Alignment sites / patterns: 271 / 268
Gaps: 0.69 %
Invariant sites: 7.01 %

Partition 177: VC83_02973T0
Model: LG+G4m+B
Alignment sites / patterns: 328 / 273
Gaps: 0.48 %
Invariant sites: 24.09 %

Partition 178: VC83_03004T0
Model: LG+G4m+B
Alignment sites / patterns: 361 / 349
Gaps: 1.57 %
Invariant sites: 6.65 %

Partition 179: VC83_03113T0
Model: LG+G4m+B
Alignment sites / patterns: 292 / 292
Gaps: 1.15 %
Invariant sites: 1.71 %

Partition 180: VC83_06225T0
Model: LG+G4m+B
Alignment sites / patterns: 639 / 497
Gaps: 0.31 %
Invariant sites: 29.73 %

Partition 181: VC83_03181T0
Model: LG+G4m+B
Alignment sites / patterns: 298 / 245
Gaps: 0.62 %
Invariant sites: 33.22 %

Partition 182: VC83_03681T0
Model: LG+G4m+B
Alignment sites / patterns: 334 / 306
Gaps: 0.54 %
Invariant sites: 17.07 %

Partition 183: VC83_03687T0
Model: LG+G4m+B
Alignment sites / patterns: 187 / 174
Gaps: 0.97 %
Invariant sites: 12.30 %

Partition 184: VC83_03724T0
Model: LG+G4m+B
Alignment sites / patterns: 300 / 297
Gaps: 0.51 %
Invariant sites: 4.67 %

Partition 185: VC83_03745T0
Model: LG+G4m+B
Alignment sites / patterns: 161 / 157
Gaps: 1.59 %
Invariant sites: 6.21 %

Partition 186: VC83_00086T0
Model: LG+G4m+B
Alignment sites / patterns: 789 / 774
Gaps: 1.46 %
Invariant sites: 5.70 %

Partition 187: VC83_03782T0
Model: LG+G4m+B
Alignment sites / patterns: 144 / 142
Gaps: 0.37 %
Invariant sites: 10.42 %

Partition 188: VC83_03791T0
Model: LG+G4m+B
Alignment sites / patterns: 424 / 369
Gaps: 1.09 %
Invariant sites: 20.99 %

Partition 189: VC83_03794T0
Model: LG+G4m+B
Alignment sites / patterns: 233 / 215
Gaps: 0.98 %
Invariant sites: 13.73 %

Partition 190: VC83_03890T0
Model: LG+G4m+B
Alignment sites / patterns: 1022 / 983
Gaps: 0.41 %
Invariant sites: 6.95 %

Partition 191: VC83_03895T0
Model: LG+G4m+B
Alignment sites / patterns: 276 / 273
Gaps: 1.24 %
Invariant sites: 5.80 %

Partition 192: VC83_04018T0
Model: LG+G4m+B
Alignment sites / patterns: 439 / 422
Gaps: 0.59 %
Invariant sites: 12.98 %

Partition 193: VC83_04148T0
Model: LG+G4m+B
Alignment sites / patterns: 290 / 282
Gaps: 1.55 %
Invariant sites: 6.55 %

Partition 194: VC83_04154T0
Model: LG+G4m+B
Alignment sites / patterns: 502 / 485
Gaps: 2.75 %
Invariant sites: 8.17 %

Partition 195: VC83_04155T0
Model: LG+G4m+B
Alignment sites / patterns: 240 / 217
Gaps: 0.27 %
Invariant sites: 16.25 %

Partition 196: VC83_04227T0
Model: LG+G4m+B
Alignment sites / patterns: 249 / 228
Gaps: 0.47 %
Invariant sites: 28.92 %

Partition 197: VC83_04259T0
Model: LG+G4m+B
Alignment sites / patterns: 336 / 319
Gaps: 0.52 %
Invariant sites: 10.42 %

Partition 198: VC83_04260T0
Model: LG+G4m+B
Alignment sites / patterns: 180 / 175
Gaps: 0.98 %
Invariant sites: 10.00 %

Partition 199: VC83_06301T0
Model: LG+G4m+B
Alignment sites / patterns: 681 / 660
Gaps: 1.24 %
Invariant sites: 7.64 %

Partition 200: VC83_04353T0
Model: LG+G4m+B
Alignment sites / patterns: 274 / 255
Gaps: 0.55 %
Invariant sites: 17.15 %

Partition 201: VC83_04406T0
Model: LG+G4m+B
Alignment sites / patterns: 445 / 426
Gaps: 1.13 %
Invariant sites: 7.64 %

Partition 202: VC83_04431T0
Model: LG+G4m+B
Alignment sites / patterns: 363 / 342
Gaps: 0.76 %
Invariant sites: 10.47 %

Partition 203: VC83_04437T0
Model: LG+G4m+B
Alignment sites / patterns: 442 / 408
Gaps: 0.58 %
Invariant sites: 11.99 %

Partition 204: VC83_04462T0
Model: LG+G4m+B
Alignment sites / patterns: 310 / 293
Gaps: 0.24 %
Invariant sites: 10.32 %

Partition 205: VC83_04465T0
Model: LG+G4m+B
Alignment sites / patterns: 1317 / 1312
Gaps: 2.03 %
Invariant sites: 1.67 %

Partition 206: VC83_00093T0
Model: LG+G4m+B
Alignment sites / patterns: 264 / 260
Gaps: 0.75 %
Invariant sites: 5.68 %

Partition 207: VC83_04500T0
Model: LG+G4m+B
Alignment sites / patterns: 333 / 289
Gaps: 0.45 %
Invariant sites: 23.12 %

Partition 208: VC83_06329T0
Model: LG+G4m+B
Alignment sites / patterns: 311 / 293
Gaps: 1.38 %
Invariant sites: 10.29 %

Partition 209: VC83_00096T0
Model: LG+G4m+B
Alignment sites / patterns: 428 / 401
Gaps: 1.39 %
Invariant sites: 11.45 %

Partition 210: VC83_04887T0
Model: LG+G4m+B
Alignment sites / patterns: 312 / 309
Gaps: 1.49 %
Invariant sites: 4.49 %

Partition 211: VC83_04889T0
Model: LG+G4m+B
Alignment sites / patterns: 364 / 352
Gaps: 1.31 %
Invariant sites: 6.59 %


Parallelization scheme autoconfig: 1 worker(s) x 32 thread(s)

Parallel reduction/worker buffer size: 106 KB  / 0 KB

[00:00:00] Data distribution: max. partitions/sites/weight per thread: 8 / 2832 / 226560
[00:00:00] Data distribution: max. searches per worker: 1
[00:00:00] Starting bootstrapping analysis with 1 replicates.

[00:00:05 -33232806.341175] Initial branch length optimization
[00:00:29 -29172385.722711] Model parameter optimization (eps = 10.000000)
[00:01:58 -29023483.687061] AUTODETECT spr round 1 (radius: 5)
[00:05:23 -19198982.765340] AUTODETECT spr round 2 (radius: 10)
[00:09:59 -14832376.210089] AUTODETECT spr round 3 (radius: 15)
[00:17:10 -12767074.615762] AUTODETECT spr round 4 (radius: 20)
[00:24:46 -12697802.400100] AUTODETECT spr round 5 (radius: 25)
[00:31:32 -12578193.959490] SPR radius for FAST iterations: 25 (autodetect)
[00:31:32 -12578193.959490] Model parameter optimization (eps = 3.000000)
[00:32:34 -12555215.804926] FAST spr round 1 (radius: 25)
[00:38:06 -11330857.310993] FAST spr round 2 (radius: 25)
[00:42:55 -11306006.883916] FAST spr round 3 (radius: 25)
[00:46:29 -11305041.940991] FAST spr round 4 (radius: 25)
[00:49:51 -11304733.723307] FAST spr round 5 (radius: 25)
[00:53:14 -11304441.113612] FAST spr round 6 (radius: 25)
[00:56:39 -11304196.663846] FAST spr round 7 (radius: 25)
[00:59:54 -11304020.454478] FAST spr round 8 (radius: 25)
[01:03:14 -11303998.247373] FAST spr round 9 (radius: 25)
[01:06:33 -11303976.927530] FAST spr round 10 (radius: 25)
[01:09:49 -11303904.669274] FAST spr round 11 (radius: 25)
[01:13:08 -11303890.889840] FAST spr round 12 (radius: 25)
[01:16:24 -11303890.878015] Model parameter optimization (eps = 1.000000)
[01:16:51 -11303644.414628] SLOW spr round 1 (radius: 5)
[01:23:54 -11301701.889715] SLOW spr round 2 (radius: 5)
[01:30:31 -11301701.877514] SLOW spr round 3 (radius: 10)
[01:37:20 -11301701.877495] SLOW spr round 4 (radius: 15)
[01:53:07 -11301701.876880] SLOW spr round 5 (radius: 20)
[02:12:27 -11301701.876879] SLOW spr round 6 (radius: 25)
[02:29:26 -11301701.876879] Model parameter optimization (eps = 0.100000)

[02:29:40] Bootstrap tree #1, logLikelihood: -11301698.113019


Bootstrap trees saved to: /home/dutheil/Data/WhiteNoseSyndrome/Phylogenomics/Bootstrap2/SuperAlignment2.fasta.raxml.bootstrap99.raxml.bootstraps

Execution log saved to: /home/dutheil/Data/WhiteNoseSyndrome/Phylogenomics/Bootstrap2/SuperAlignment2.fasta.raxml.bootstrap99.raxml.log

Analysis started: 24-Nov-2020 22:44:57 / finished: 25-Nov-2020 01:14:38

Elapsed time: 8981.114 seconds

Consumed energy: 715.074 Wh (= 4 km in an electric car, or 18 km with an e-scooter!)

