Site	ColumnScore	SumOfPairsScore
1	1	0
2	1	0
3	1	0
4	1	0
5	1	0
6	1	0
7	1	0
8	1	0
9	1	0
10	1	0
11	1	0
12	1	0
13	1	0
14	1	0
15	1	0
16	1	0
17	1	0
18	1	0
19	1	0
20	1	0
21	1	0
22	1	0
23	1	0
24	1	0
25	1	0
26	1	0
27	1	0
28	1	0
29	1	0
30	1	0
31	1	0
32	1	0
33	1	0
34	1	0
35	1	0
36	1	0
37	1	0
38	1	0
39	1	0
40	1	0
41	1	0
42	1	0
43	1	0
44	1	0
45	1	0
46	1	0
47	1	0
48	1	0
49	1	0
50	1	0
51	1	0
52	1	0
53	1	0
54	1	0
55	1	0
56	1	0
57	1	0
58	1	0
59	1	0
60	1	0
61	1	0
62	1	0
63	1	0
64	1	0
65	1	0
66	1	0
67	1	0
68	1	0
69	1	0
70	1	0
71	1	0
72	1	0
73	1	0
74	1	0
75	1	0
76	1	0
77	1	0
78	1	0
79	1	0
80	1	0
81	1	0
82	1	0
83	1	0
84	1	0
85	1	0
86	1	0
87	1	0
88	1	0
89	1	0
90	1	0
91	1	0
92	1	0
93	1	0
94	1	0
95	1	0
96	1	0
97	1	0
98	1	0
99	1	0
100	1	0
101	1	0
102	1	0
103	1	0
104	1	0
105	1	0
106	1	0
107	1	0
108	1	0
109	1	0
110	1	0
111	1	0
112	1	0
113	1	0
114	1	0
115	1	0
116	1	0
117	1	0
118	1	0
119	1	0
120	1	0
121	1	0
122	1	0
123	1	0
124	1	0
125	1	0
126	1	0
127	1	0
128	1	0
129	1	0
130	1	0
131	1	0
132	1	0
133	1	0
134	1	0
135	1	0
136	1	0
137	1	0
138	1	0
139	1	0
140	1	0
141	1	0
142	1	0
143	1	0
144	1	0
145	1	0
146	1	0
147	1	0
148	1	0
149	1	0
150	1	0
151	1	0
152	1	0
153	1	0
154	1	0
155	1	0
156	1	0
157	1	0
158	1	0
159	1	0
160	1	0
161	1	0
162	1	0
163	1	0
164	1	0
165	1	0
166	1	0
167	1	0
168	1	0
169	1	0
170	1	0
171	1	0
172	1	0
173	1	0
174	1	0
175	1	0
176	1	0
177	1	0
178	1	0
179	1	0
180	1	0
181	1	0
182	1	0
183	1	0
184	1	0
185	1	0
186	1	0
187	1	0
188	1	0
189	1	0
190	1	0
191	1	0
192	1	0
193	1	0
194	1	0
195	1	0
196	1	0
197	1	0
198	1	0
199	1	0
200	1	0
201	1	0
202	1	0
203	1	0
204	1	0
205	1	0
206	1	0
207	1	0
208	1	0
209	1	0
210	1	0
211	1	0
212	1	0
213	1	0
214	1	0
215	1	0
216	1	0
217	1	0
218	1	0
219	1	0
220	1	0
221	1	0
222	1	0
223	1	0
224	1	0
225	1	0
226	1	0
227	1	0
228	1	0
229	1	0
230	1	0
231	1	0
232	1	0
233	1	0
234	1	0
235	1	0
236	1	0
237	1	0
238	1	0
239	1	0
240	1	0
241	1	0
242	1	0
243	1	0
244	1	0
245	1	0
246	1	0
247	1	0
248	1	0
249	1	0
250	1	0
251	1	0
252	1	0
253	1	0
254	1	0
255	1	0
256	1	0
257	1	0
258	1	0
259	1	0
260	1	0
261	1	0
262	1	0
263	1	0
264	1	0
265	1	0
266	1	0
267	1	0
268	1	0
269	1	0
270	1	0
271	1	0
272	1	0
273	1	0
274	1	0
275	1	0
276	1	0
277	1	0
278	1	0
279	1	0
280	1	0
281	1	0
282	1	0
283	1	0
284	1	0
285	1	0
286	1	0
287	1	0
288	1	0
289	1	0
290	1	0
291	1	0
292	1	0
293	1	0
294	1	0
295	1	0
296	1	0
297	1	0
298	1	0
299	1	0
300	1	0
301	1	0
302	1	0
303	1	0
304	1	0
305	1	0
306	1	0
307	1	0
308	1	0
309	1	0
310	1	0
311	1	0
312	1	0
313	1	0
314	1	0
315	1	0
316	1	0
317	1	0
318	1	0
319	1	0
320	1	0
321	1	0
322	1	0
323	1	0
324	1	0
325	1	0
326	1	0
327	1	0
328	1	0
329	1	0
330	1	0
331	1	0
332	1	0
333	1	0
334	1	0
335	1	0
336	1	0
337	1	0
338	1	0
339	1	0
340	1	0
341	1	0
342	1	0
343	1	0
344	1	0
345	1	0
346	1	0
347	1	0
348	1	0
349	1	0
350	1	0
351	1	0
352	1	0
353	1	0
354	1	0
355	1	0
356	1	0
357	1	0
358	1	0
359	1	0
360	1	0
361	1	0
362	1	0
363	1	0
364	1	0
365	1	0
366	1	0
367	1	0
368	1	0
369	1	0
370	1	0
371	1	0
372	1	0
373	1	0
374	1	0
375	1	0
376	1	0
377	1	0
378	1	0
379	1	0
380	1	0
381	1	0
382	1	0
383	1	0
384	1	0
385	1	0
386	1	0
387	1	0
388	1	0
389	1	0
390	1	0
391	1	0
392	1	0
393	1	0
394	1	0
395	1	0
396	1	0
397	1	0
398	1	0
399	1	0
400	1	0
401	1	0
402	1	0
403	1	0
404	1	0
405	1	0
406	1	0
407	1	0
408	1	0
409	1	0
410	1	0
411	1	0
412	1	0
413	1	0
414	1	0
415	1	0
416	1	0
417	1	0
418	1	0
419	1	0
420	1	0
421	1	0
422	1	0
423	1	0
424	1	0
425	1	0
426	1	0
427	1	0
428	1	0
429	1	0
430	1	0
431	1	0
432	1	0
433	1	0
434	1	0
435	1	0
436	1	0
437	1	0
438	1	0
439	1	0
440	1	0
441	1	0
442	1	0
443	1	0
444	1	0
445	1	0
446	1	0
447	1	0
448	1	0
449	1	0
450	1	0
451	1	0
452	1	0
453	1	0
454	1	0
455	1	0
456	1	0
457	1	0
458	1	0
459	1	0
460	1	0
461	1	0
462	1	0
463	1	0
464	1	0
465	1	0
466	1	0
467	1	0
468	1	0
469	1	0
470	1	0
471	1	0
472	1	0
473	1	0
474	1	0
475	1	0
476	1	0
477	1	0
478	1	0
479	1	0
480	1	0
481	1	0
482	1	0
483	1	0
484	1	0
485	1	0
486	1	0
487	1	0
488	1	0
489	1	0
490	1	0
491	1	0
492	1	0
493	1	0
494	1	0
495	1	0
496	1	0
497	1	0
498	1	0
499	1	0
500	1	0
501	1	0
502	1	0
503	1	0
504	1	0
505	1	0
506	1	0
507	1	0
508	1	0
509	1	0
510	1	0
511	1	0
512	1	0
513	1	0
514	1	0
515	1	0
516	1	0
517	1	0
518	1	0
519	1	0
520	1	0
521	1	0
522	1	0
523	1	0
524	1	0
525	1	0
526	1	0
527	1	0
528	1	0
529	1	0
530	1	0
531	1	0
532	1	0
533	1	0
534	1	0
535	1	0
536	1	0
537	1	0
538	1	0
539	1	0
540	1	0
541	1	0
542	1	0
543	1	0
544	1	0
545	1	0
546	1	0
547	1	0
548	1	0
549	1	0
550	1	0
551	1	0
552	1	0
553	1	0
554	1	0
555	1	0
556	1	0
557	1	0
558	1	0
559	1	0
560	1	0
561	1	0
562	1	0
563	1	0
564	1	0
565	1	0
566	1	0
567	1	0
568	1	0
569	1	0
570	1	0
571	1	0
572	1	0
573	1	0
574	1	0
575	1	0
576	1	0
577	1	0
578	1	0
579	1	0
580	1	0
581	1	0
582	1	0
583	1	0
584	1	0
585	1	0
586	1	0
587	1	0
588	1	0
589	1	0
590	1	0
591	1	0
592	1	0
593	1	0
594	1	0
595	1	0
596	1	0
597	1	0
598	1	0
599	1	0
600	1	0
601	1	0
602	1	0
603	1	0
604	1	0
605	1	0
606	1	0
607	1	0
608	1	0
609	1	0
610	1	0
611	1	0
612	1	0
613	1	0
614	1	0
615	1	0
616	1	0
617	1	0
618	1	0
619	1	0
620	1	0
621	1	0
622	1	0
623	1	0
624	1	0
625	1	0
626	1	0
627	1	0
628	1	0
629	1	0
630	1	0
631	1	0
632	1	0
633	1	0
634	1	0
635	1	0
636	1	0
637	1	0
638	1	0
639	1	0
640	1	0
641	1	0
642	1	0
643	1	0
644	1	0
645	1	0
646	1	0
647	1	0
648	1	0
649	1	0
650	1	0
651	1	0
652	1	0
653	1	0
654	1	0
655	1	0
656	1	0
657	1	0
658	1	0
659	1	0
660	1	0
661	1	0
662	1	0
663	1	0
664	1	0
665	1	0
666	1	0
667	1	0
668	1	0
669	1	0
670	1	0
671	1	0
672	1	0
673	1	0
674	1	0
675	1	0
676	1	0
677	1	0
678	1	0
679	1	0
680	1	0
681	1	0
682	1	0
683	1	0
684	1	0
685	1	0
686	1	0
687	1	0
688	1	0
689	1	0
690	1	0
691	1	0
692	1	0
693	1	0
694	1	0
695	1	0
696	1	0
697	1	0
698	1	0
699	1	0
700	1	0
701	1	0
702	1	0
703	1	0
704	1	0
705	1	0
706	1	0
707	1	0
708	1	0
709	1	0
710	1	0
711	1	0
712	1	0
713	1	0
714	1	0
715	1	0
716	1	0
717	1	0
718	1	0
719	1	0
720	1	0
721	1	0
722	1	0
723	1	0
724	1	0
725	1	0
726	1	0
727	1	0
728	1	0
729	1	0
730	1	0
731	1	0
732	1	0
733	1	0
734	1	0
735	1	0
736	1	0
737	1	0
738	1	0
739	1	0
740	1	0
741	1	0
742	1	0
743	1	0
744	1	0
745	1	0
746	1	0
747	1	0
748	1	0
749	1	0
750	1	0
751	1	0
752	1	0
753	1	0
754	1	0
755	1	0
756	1	0
757	1	0
758	1	0
759	1	0
760	1	0
761	1	0
762	1	0
763	1	0
764	1	0
765	1	0
766	1	0
767	1	0
768	1	0
769	1	0
770	1	0
771	1	0
772	1	0
773	1	0
774	1	0
775	1	0
776	1	0
777	1	0
778	1	0
779	1	0
780	1	0
781	1	0
782	1	0
783	1	0
784	1	0
785	1	0
786	1	0
787	1	0
788	1	0
789	1	0
790	1	0
791	1	0
792	1	0
793	1	0
794	1	0
795	1	0
796	1	0
797	1	0
798	1	0
799	1	0
800	1	0
801	1	0
802	1	0
803	1	0
804	1	0
805	1	0
806	1	0
807	1	0
808	1	0
809	1	0
810	1	0
811	1	0
812	1	0
813	1	0
814	1	0
815	1	0
816	1	0
817	1	0
818	1	0
819	1	0
820	1	0
821	1	0
822	1	0
823	1	0
824	1	0
825	1	0
826	1	0
827	1	0
828	1	0
829	1	0
830	1	0
831	1	0
832	1	0
833	1	0
834	1	0
835	1	0
836	1	0
837	1	0
838	1	0
839	1	0
840	1	0
841	1	0
842	1	0
843	1	0
844	1	0
845	1	0
846	1	0
847	1	0
848	1	0
849	1	0
850	1	0
851	1	0
852	1	0
853	1	0
854	1	0
855	1	0
856	1	0
857	1	0
858	1	0
859	1	0
860	1	0
861	1	0
862	1	0
863	1	0
864	1	0
865	1	0
866	1	0
867	1	0
868	1	0
869	1	0
870	1	0
871	1	0
872	1	0
873	1	0
874	1	0
875	1	0
876	1	0
877	1	0
878	1	0
879	1	0
880	1	0
881	1	0
882	1	0
883	1	0
884	1	0
885	1	0
886	1	0
887	1	0
888	1	0
889	1	0
890	1	0
891	1	0
892	1	0
893	1	0
894	1	0
895	1	0
896	1	0
897	1	0
898	1	0
899	1	0
900	1	0
901	1	0
902	1	0
903	1	0
904	1	0
905	1	0
906	1	0
907	1	0
908	1	0
909	1	0
910	1	0
911	1	0
912	1	0
913	1	0
914	1	0
915	1	0
916	1	0
917	1	0
918	1	0
919	1	0
920	1	0
921	1	0
922	1	0
923	1	0
924	1	0
925	1	0
926	1	0
927	1	0
928	1	0
929	1	0
930	1	0
931	1	0
932	1	0
933	1	0
934	1	0
935	1	0
936	1	0
937	1	0
938	1	0
939	1	0
940	1	0
941	1	0
942	1	0
943	1	0
944	1	0
945	1	0
946	1	0
947	1	0
948	1	0
949	1	0
950	1	0
951	1	0
952	1	0
953	1	0
954	1	0
955	1	0
956	1	0
957	1	0
958	1	0
959	1	0
960	1	0
961	1	0
962	1	0
963	1	0
964	1	0
965	1	0
966	1	0
967	1	0
968	1	0
969	1	0
970	1	0
971	1	0
972	1	0
973	1	0
974	1	0
975	1	0
976	1	0
977	1	0
978	1	0
979	1	0
980	1	0
981	1	0
982	1	0
983	1	0
984	1	0
985	1	0
986	1	0
987	1	0
988	1	0
989	1	0
990	1	0
991	1	0
992	1	0
993	1	0
994	1	0
995	1	0
996	1	0
997	1	0
998	1	0
999	1	0
1000	1	0
1001	1	0
1002	1	0
1003	1	0
1004	1	0
1005	1	0
1006	1	0
1007	1	0
1008	1	0
1009	1	0
1010	1	0
1011	1	0
1012	1	0
1013	1	0
1014	1	0
1015	1	0
1016	1	0
1017	1	0
1018	1	0
1019	1	0
1020	1	0
1021	1	0
1022	1	0
1023	1	0
1024	1	0
1025	1	0
1026	1	0
1027	1	0
1028	1	0
1029	1	0
1030	1	0
1031	1	0
1032	1	0
1033	1	0
1034	1	0
1035	1	0
1036	1	0
1037	1	0
1038	1	0
1039	1	0
1040	1	0
1041	1	0
1042	1	0
1043	1	0
1044	1	0
1045	1	0
1046	1	0
1047	1	0
1048	1	0
1049	1	0
1050	1	0
1051	1	0
1052	1	0
1053	1	0
1054	1	0
1055	1	0
1056	1	0
1057	1	0
1058	1	0
1059	1	0
1060	1	0
1061	1	0
1062	1	0
1063	1	0
1064	1	0
1065	1	0
1066	1	0
1067	1	0
1068	1	0
1069	1	0
1070	1	0
1071	1	0
1072	1	0
1073	1	0
1074	1	0
1075	1	0
1076	1	0
1077	1	0
1078	1	0
1079	1	0
1080	1	0
1081	1	0
1082	1	0
1083	1	0
1084	1	0
1085	1	0
1086	1	0
1087	1	0
1088	1	0
1089	1	0
1090	1	0
1091	1	0
1092	1	0
1093	1	0
1094	1	0
1095	1	0
1096	1	0
1097	1	0
1098	1	0
1099	1	0
1100	1	0
1101	1	0
1102	1	0
1103	1	0
1104	1	0
1105	1	0
1106	1	0
1107	1	0
1108	1	0
1109	1	0
1110	1	0
1111	1	0
1112	1	0
1113	1	0
1114	1	0
1115	1	0
1116	1	0
1117	1	0
1118	1	0
1119	1	0
1120	1	0
1121	1	0
1122	1	0
1123	1	0
1124	1	0
1125	1	0
1126	1	0
1127	1	0
1128	1	0
1129	1	0
1130	1	0
1131	1	0
1132	1	0
1133	1	0
1134	1	0
1135	1	0
1136	1	0
1137	1	0
1138	1	0
1139	1	0
1140	1	0
1141	1	0
1142	1	0
1143	1	0
1144	1	0
1145	0	0
1146	0	0
1147	0	0
1148	0	0
1149	0	0
1150	0	0
1151	0	0
1152	0	0
1153	0	0
1154	0	0
1155	0	0
1156	0	0
1157	0	0
1158	0	0
1159	0	0
1160	0	0
1161	0	0
1162	0	0
1163	0	0
1164	0	0
1165	0	0
1166	0	0
1167	0	0
1168	0	0
1169	0	0
1170	0	0
1171	0	0
1172	0	0
1173	0	0
1174	0	0
1175	0	0
1176	0	0
1177	0	0
1178	0	0
1179	0	0
1180	0	0
1181	0	0
1182	0	0
1183	0	0
1184	0	0
1185	0	0
1186	0	0
1187	0	0
1188	0	0
1189	0	0
1190	0	0
1191	0	0
1192	0	0
1193	0	0
1194	0	0
1195	0	0
1196	0	0
1197	0	0
1198	0	0
1199	0	0
1200	0	0
1201	0	0
1202	0	0
1203	0	0
1204	0	0
1205	0	0
1206	0	0
1207	0	0
1208	0	0
1209	0	0
1210	0	0
1211	0	0
1212	0	0
1213	0	0
1214	0	0
1215	0	0
1216	0	0
1217	0	0
1218	0	0
1219	0	0
1220	0	0
1221	0	0
1222	0	0
1223	0	0
1224	0	0
1225	0	0
1226	0	0
1227	0	0
1228	0	0
1229	0	0
1230	0	0
1231	0	0
1232	0	0
1233	0	0
1234	0	0
1235	0	0
1236	0	0
1237	0	0
1238	0	0
1239	0	0
1240	0	0
1241	0	0
1242	0	0
1243	0	0
1244	0	0
1245	0	0
1246	0	0
1247	0	0
1248	0	0
1249	0	0
1250	0	0
1251	0	0
1252	0	0
1253	0	0
1254	0	0
1255	0	0
1256	0	0
1257	0	0
1258	0	0
1259	0	0
1260	0	0
1261	0	0
1262	0	0
1263	0	0
1264	0	0
1265	0	0
1266	0	0
1267	0	0
1268	0	0
1269	0	0
1270	0	0
1271	0	0
1272	0	0
1273	0	0
1274	0	0
1275	0	0
1276	0	0
1277	0	0
1278	0	0
1279	0	0
1280	0	0
1281	0	0
1282	0	0
1283	0	0
1284	0	0
1285	0	0
1286	0	0
1287	0	0
1288	0	0
1289	0	0
1290	0	0
1291	0	0
1292	0	0
1293	0	0
1294	0	0
1295	0	0
1296	0	0
1297	0	0
1298	0	0
1299	0	0
1300	0	0
1301	0	0
1302	0	0
1303	0	0
1304	0	0
1305	0	0
1306	0	0
1307	0	0
1308	0	0
1309	0	0
1310	0	0
1311	0	0
1312	0	0
1313	0	0
1314	0	0
1315	0	0
1316	0	0
1317	0	0
1318	0	0
1319	0	0
1320	0	0
1321	0	0
1322	0	0
1323	0	0
1324	0	0
1325	0	0
1326	0	0
1327	0	0
1328	0	0
1329	0	0
1330	0	0
1331	0	0
1332	0	0
1333	0	0
1334	0	0
1335	0	0
1336	0	0
1337	0	0
1338	0	0
1339	0	0
1340	0	0
1341	0	0
1342	0	0
1343	0	0
1344	0	0
1345	0	0
1346	0	0
1347	0	0
1348	0	0
1349	0	0
1350	0	0
1351	0	0
1352	0	0
1353	0	0
1354	0	0
1355	0	0
1356	0	0
1357	0	0
1358	0	0
1359	0	0
1360	0	0
1361	0	0
1362	0	0
1363	0	0
1364	0	0
1365	0	0
1366	0	0
1367	0	0
1368	0	0
1369	0	0
1370	0	0
1371	0	0
1372	0	0
1373	0	0
1374	0	0
1375	0	0
1376	0	0
1377	0	0
1378	0	0
1379	0	0
1380	0	0
1381	0	0
1382	0	0
1383	0	0
1384	0	0
1385	0	0
1386	0	0
1387	0	0
1388	0	0
1389	0	0
1390	0	0
1391	0	0
1392	0	0
1393	0	0
1394	0	0
1395	0	0
1396	0	0
1397	0	0
1398	0	0
1399	0	0
1400	0	0
1401	0	0
1402	0	0
1403	0	0
1404	0	0
1405	0	0
1406	0	0
1407	0	0
1408	0	0
1409	0	0
1410	0	0
1411	0	0
1412	0	0
1413	0	0
1414	0	0
1415	0	0
1416	0	0
1417	0	0
1418	0	0
1419	0	0
1420	0	0
1421	0	0
1422	0	0
1423	0	0
1424	0	0
1425	0	0
1426	0	0
1427	0	0
1428	0	0
1429	0	0
1430	0	0
1431	0	0
1432	0	0
1433	0	0
1434	0	0
1435	0	0
1436	0	0
1437	0	0
1438	0	0
1439	0	0
1440	0	0
1441	0	0
1442	0	0
1443	0	0
1444	0	0
1445	0	0
1446	0	0
1447	0	0
1448	0	0
1449	0	0
1450	0	0
1451	0	0
1452	0	0
1453	0	0
1454	0	0
1455	0	0
1456	0	0
1457	0	0
1458	0	0
1459	0	0
1460	0	0
1461	0	0
1462	0	0
1463	0	0
1464	0	0
1465	0	0
1466	0	0
1467	0	0
1468	0	0
1469	0	0
1470	0	0
1471	0	0
1472	0	0
1473	0	0
1474	0	0
1475	0	0
1476	0	0
1477	0	0
1478	0	0
1479	0	0
1480	0	0
1481	0	0
1482	0	0
1483	0	0
1484	0	0
1485	0	0
1486	0	0
1487	0	0
1488	0	0
1489	0	0
1490	0	0
1491	0	0
1492	0	0
1493	0	0
1494	0	0
1495	0	0
1496	0	0
1497	0	0
1498	0	0
1499	0	0
1500	0	0
1501	0	0
1502	0	0
1503	0	0
1504	0	0
1505	0	0
1506	0	0
1507	0	0
1508	0	0
1509	0	0
1510	0	0
1511	0	0
1512	0	0
1513	0	0
1514	0	0
1515	0	0
1516	0	0
1517	0	0
1518	0	0
1519	0	0
1520	0	0
1521	0	0
1522	0	0
1523	0	0
1524	0	0
1525	0	0
1526	0	0
1527	0	0
1528	0	0
1529	0	0
1530	0	0
1531	0	0
1532	0	0
1533	0	0
1534	0	0
1535	0	0
1536	0	0
1537	0	0
1538	0	0
1539	0	0
1540	0	0
1541	0	0
1542	0	0
1543	0	0
1544	0	0
1545	0	0
1546	0	0
1547	0	0
1548	0	0
1549	0	0
1550	0	0
1551	0	0
1552	0	0
1553	0	0
1554	0	0
1555	0	0
1556	0	0
1557	0	0
1558	0	0
1559	0	0
1560	0	0
1561	0	0
1562	0	0
1563	0	0
1564	0	0
1565	0	0
1566	0	0
1567	0	0
1568	0	0
1569	0	0
1570	0	0
1571	0	0
1572	0	0
1573	0	0
1574	0	0
1575	0	0
1576	0	0
1577	0	0
1578	0	0
1579	0	0
1580	0	0
1581	0	0
1582	0	0
1583	0	0
1584	0	0
1585	0	0
1586	0	0
1587	0	0
1588	0	0
1589	0	0
1590	0	0
1591	0	0
1592	0	0
1593	0	0
1594	0	0
1595	0	0
1596	0	0
1597	0	0
1598	0	0
1599	0	0
1600	0	0
1601	0	0
1602	0	0
1603	0	0
1604	0	0
1605	0	0
1606	0	0
1607	0	0
1608	0	0
1609	0	0
1610	0	0
1611	0	0
1612	0	0
1613	0	0
1614	0	0
1615	0	0
1616	0	0
1617	0	0
1618	0	0
1619	0	0
1620	0	0
1621	0	0
1622	0	0
1623	0	0
1624	0	0
1625	0	0
1626	0	0
1627	0	0
1628	0	0
1629	0	0
1630	0	0
1631	0	0
1632	0	0
1633	0	0
1634	0	0
1635	0	0
1636	0	0
1637	0	0
1638	0	0
1639	0	0
1640	0	0
1641	0	0
1642	0	0
1643	0	0
1644	0	0
1645	0	0
1646	0	0
1647	0	0
1648	0	0
1649	0	0
1650	0	0
1651	0	0
1652	0	0
1653	0	0
1654	0	0
1655	0	0
1656	0	0
1657	0	0
1658	0	0
1659	0	0
1660	0	0
1661	0	0
1662	0	0
1663	0	0
1664	0	0
1665	0	0
1666	0	0
1667	0	0
1668	0	0
1669	0	0
1670	0	0
1671	0	0
1672	0	0
1673	0	0
1674	0	0
1675	0	0
1676	0	0
1677	0	0
1678	0	0
1679	0	0
1680	0	0
1681	0	0
1682	0	0.333333
1683	0	0.333333
1684	0	0.333333
1685	0	0.333333
1686	0	0.333333
1687	0	0.333333
1688	0	0.333333
1689	0	0.333333
1690	0	0.333333
1691	0	0.333333
1692	0	0.333333
1693	0	0.333333
1694	0	0.333333
1695	0	0.333333
1696	0	0.333333
1697	0	0.333333
1698	0	0.333333
1699	0	0.333333
1700	0	0.333333
1701	0	0.333333
1702	0	0.333333
1703	0	0.333333
1704	0	0.333333
1705	0	0.333333
1706	0	0.333333
1707	0	0.333333
1708	0	0.333333
1709	0	0.333333
1710	0	0.333333
1711	0	0.333333
1712	0	0.333333
1713	0	0.333333
1714	0	0.333333
1715	0	0.333333
1716	0	0.333333
1717	0	0.333333
1718	0	0.333333
1719	0	0.333333
1720	0	0.333333
1721	0	0.333333
1722	0	0.333333
1723	0	0.333333
1724	0	0.333333
1725	0	0.333333
1726	0	0.333333
1727	0	0.333333
1728	0	0.333333
1729	0	0.333333
1730	0	0.333333
1731	0	0.333333
1732	0	0.333333
1733	0	0.333333
1734	0	0.333333
1735	0	0.333333
1736	0	0.333333
1737	0	0.333333
1738	0	0.333333
1739	0	0.333333
1740	0	0.333333
1741	0	0.333333
1742	0	0.333333
1743	0	0.333333
1744	0	0.333333
1745	0	0.333333
1746	0	0.333333
1747	0	0.333333
1748	0	0.333333
1749	0	0.333333
1750	0	0.333333
1751	0	0.333333
1752	0	0.333333
1753	0	0.333333
1754	0	0.333333
1755	0	0.333333
1756	0	0.333333
1757	0	0.333333
1758	0	0.333333
1759	0	0.333333
1760	0	0.333333
1761	0	0.333333
1762	0	0.333333
1763	0	0.333333
1764	0	0.333333
1765	0	0.333333
1766	0	0.333333
1767	0	0.333333
1768	0	0.333333
1769	0	0.333333
1770	0	0.333333
1771	0	0.333333
1772	0	0.333333
1773	0	0.333333
1774	0	0.333333
1775	0	0.333333
1776	0	0.333333
1777	0	0.333333
1778	0	0.333333
1779	0	0.333333
1780	0	0.333333
1781	0	0.333333
1782	0	0.333333
1783	0	0.333333
1784	0	0.333333
1785	0	0.333333
1786	0	0.333333
1787	0	0.333333
1788	0	0.333333
1789	0	0.333333
1790	0	0.333333
1791	0	0.333333
1792	0	0.333333
1793	0	0.333333
1794	0	0.333333
1795	0	0.333333
1796	0	0.333333
1797	0	0.333333
1798	0	0.333333
1799	0	0.333333
1800	0	0.333333
1801	0	0.333333
1802	0	0.333333
1803	0	0.333333
1804	0	0.333333
1805	0	0.333333
1806	0	0.333333
1807	0	0.333333
1808	0	0.333333
1809	0	0.333333
1810	0	0.333333
1811	0	0.333333
1812	0	0.333333
1813	0	0.333333
1814	0	0.333333
1815	0	0.333333
1816	0	0.333333
1817	0	0.333333
1818	0	0.333333
1819	0	0.333333
1820	0	0.333333
1821	0	0.333333
1822	0	0.333333
1823	0	0.333333
1824	0	0.333333
1825	0	0.333333
1826	0	0.333333
1827	0	0.333333
1828	0	0.333333
1829	0	0.333333
1830	0	0.333333
1831	0	0.333333
1832	0	0.333333
1833	0	0.333333
1834	0	0.333333
1835	0	0.333333
1836	0	0.333333
1837	0	0.333333
1838	0	0.333333
1839	0	0.333333
1840	0	0.333333
1841	0	0.333333
1842	0	0.333333
1843	0	0.333333
1844	0	0.333333
1845	0	0.333333
1846	0	0.333333
1847	0	0.333333
1848	0	0.333333
1849	0	0.333333
1850	0	0.333333
1851	0	0.333333
1852	0	0.333333
1853	0	0.333333
1854	0	0.333333
1855	0	0.333333
1856	0	0.333333
1857	0	0.333333
1858	0	0.333333
1859	0	0.333333
1860	0	0.333333
1861	0	0.333333
1862	0	0.333333
1863	0	0.333333
1864	0	0.333333
1865	0	0.333333
1866	0	0.333333
1867	0	0.333333
1868	0	0.333333
1869	0	0.333333
1870	0	0.333333
1871	0	0.333333
1872	0	0.333333
1873	0	0.333333
1874	0	0.333333
1875	0	0.333333
1876	0	0.333333
1877	0	0.333333
1878	0	0.333333
1879	0	0.333333
1880	0	0.333333
1881	0	0.333333
1882	0	0.333333
1883	0	0.333333
1884	0	0.333333
1885	0	0.333333
1886	0	0.333333
1887	0	0.333333
1888	0	0.333333
1889	0	0.333333
1890	0	0.333333
1891	0	0.333333
1892	0	0.333333
1893	0	0.333333
1894	0	0.333333
1895	0	0.333333
1896	0	0.333333
1897	0	0.333333
1898	0	0.333333
1899	0	0.333333
1900	0	0.333333
1901	0	0.333333
1902	0	0.333333
1903	0	0.333333
1904	0	0.333333
1905	0	0.333333
1906	0	0.333333
1907	0	0.333333
1908	0	0.333333
1909	0	0.333333
1910	0	0.333333
1911	0	0.333333
1912	0	0.333333
1913	0	0.333333
1914	0	0.333333
1915	0	0.333333
1916	0	0.333333
1917	0	0.333333
1918	0	0.333333
1919	0	0.333333
1920	0	0.333333
1921	0	0.333333
1922	0	0.333333
1923	0	0.333333
1924	0	0.333333
1925	0	0.333333
1926	0	0.333333
1927	0	0.333333
1928	0	0.333333
1929	0	0.333333
1930	0	0.333333
1931	0	0.333333
1932	0	0.333333
1933	0	0.333333
1934	0	0.333333
1935	0	0.333333
1936	0	0.333333
1937	0	0.333333
1938	0	0.333333
1939	0	0.333333
1940	0	0.333333
1941	0	0.333333
1942	0	0.333333
1943	0	0.333333
1944	0	0.333333
1945	0	0.333333
1946	0	0.333333
1947	0	0.333333
1948	0	0.333333
1949	0	0.333333
1950	0	0.333333
1951	0	0.333333
1952	0	0.333333
1953	0	0.333333
1954	0	0.333333
1955	0	0.333333
1956	0	0.333333
1957	0	0.333333
1958	0	0.333333
1959	0	0.333333
1960	0	0.166667
1961	0	0.166667
1962	0	0.166667
1963	0	0.166667
1964	0	0.166667
1965	0	0.166667
1966	0	0.166667
1967	0	0.166667
1968	0	0.166667
1969	0	0.166667
1970	0	0.166667
1971	0	0.166667
1972	0	0.166667
1973	0	0.166667
1974	0	0.166667
1975	0	0.166667
1976	0	0.166667
1977	0	0.166667
1978	0	0.166667
1979	0	0.166667
1980	0	0.166667
1981	0	0.166667
1982	0	0.166667
1983	0	0.166667
1984	0	0.166667
1985	0	0.166667
1986	0	0.166667
1987	0	0.166667
1988	0	0.166667
1989	0	0.166667
1990	0	0.166667
1991	0	0.166667
1992	0	0.166667
1993	0	0.166667
1994	0	0.166667
1995	0	0.166667
1996	0	0.166667
1997	0	0.166667
1998	0	0.166667
1999	0	0.166667
2000	0	0.166667
2001	0	0.166667
2002	0	0.166667
2003	0	0.166667
2004	0	0.166667
2005	0	0.166667
2006	0	0.166667
2007	0	0.166667
2008	0	0.166667
2009	0	0.166667
2010	0	0.166667
2011	0	0.166667
2012	0	0.166667
2013	0	0.166667
2014	0	0.166667
2015	0	0.166667
2016	0	0.166667
2017	0	0.166667
2018	0	0.166667
2019	0	0.166667
2020	0	0.166667
2021	0	0.166667
2022	0	0.166667
2023	0	0.166667
2024	0	0.166667
2025	0	0.166667
2026	0	0.166667
2027	0	0.166667
2028	0	0.166667
2029	0	0.166667
2030	0	0.166667
2031	0	0.166667
2032	0	0.166667
2033	0	0.166667
2034	0	0.166667
2035	0	0.166667
2036	0	0.166667
2037	0	0.166667
2038	0	0.166667
2039	0	0.166667
2040	0	0.166667
2041	0	0.166667
2042	0	0.166667
2043	0	0.166667
2044	0	0.166667
2045	0	0.166667
2046	0	0.166667
2047	0	0.166667
2048	0	0.166667
2049	0	0.166667
2050	0	0.166667
2051	0	0.166667
2052	0	0.166667
2053	0	0.166667
2054	0	0.166667
2055	0	0.166667
2056	0	0.166667
2057	0	0.166667
2058	0	0.166667
2059	0	0.166667
2060	0	0.166667
2061	0	0.166667
2062	0	0.166667
2063	0	0.166667
2064	0	0.166667
2065	0	0.166667
2066	0	0.166667
2067	0	0.166667
2068	0	0.166667
2069	0	0.166667
2070	0	0.166667
2071	0	0.166667
2072	0	0.166667
2073	0	0.166667
2074	0	0.166667
2075	0	0.166667
2076	0	0.166667
2077	0	0.166667
2078	0	0.166667
2079	0	0.166667
2080	0	0.166667
2081	0	0.166667
2082	0	0.166667
2083	0	0.166667
2084	0	0.166667
2085	0	0.166667
2086	0	0.166667
2087	0	0.166667
2088	0	0.166667
2089	0	0.166667
2090	0	0.166667
2091	0	0.166667
2092	0	0.166667
2093	0	0.166667
2094	0	0.166667
2095	0	0.166667
2096	0	0.166667
2097	0	0.166667
2098	0	0.166667
2099	0	0.166667
2100	0	0.166667
2101	0	0.166667
2102	0	0.166667
2103	0	0.166667
2104	0	0.166667
2105	0	0.166667
2106	0	0.166667
2107	0	0.166667
2108	0	0.166667
2109	0	0.166667
2110	0	0.166667
2111	0	0.166667
2112	0	0.166667
2113	0	0.166667
2114	0	0.166667
2115	0	0.166667
2116	0	0.166667
2117	0	0.166667
2118	0	0.166667
2119	0	0.166667
2120	0	0.166667
2121	0	0.166667
2122	0	0.166667
2123	0	0.166667
2124	0	0.166667
2125	0	0.166667
2126	0	0.166667
2127	0	0.166667
2128	0	0.166667
2129	0	0.166667
2130	0	0.166667
2131	0	0.166667
2132	0	0.166667
2133	0	0.166667
2134	0	0.166667
2135	0	0.166667
2136	0	0.166667
2137	0	0.166667
2138	0	0.166667
2139	0	0.166667
2140	0	0.166667
2141	0	0.166667
2142	0	0.166667
2143	0	0.166667
2144	0	0.166667
2145	0	0.166667
2146	0	0.166667
2147	0	0.166667
2148	0	0.166667
2149	0	0.166667
2150	0	0.166667
2151	0	0.166667
2152	0	0.166667
2153	0	0.166667
2154	0	0.166667
2155	0	0.166667
2156	0	0.166667
2157	0	0.166667
2158	0	0.166667
2159	0	0.166667
2160	0	0.166667
2161	0	0.166667
2162	0	0.166667
2163	0	0.166667
2164	0	0.166667
2165	0	0.166667
2166	0	0.166667
2167	0	0.166667
2168	0	0.166667
2169	0	0.166667
2170	0	0.166667
2171	0	0.166667
2172	0	0.166667
2173	0	0.166667
2174	0	0.166667
2175	0	0.166667
2176	0	0.166667
2177	0	0.166667
2178	0	0.166667
2179	0	0.166667
2180	0	0.166667
2181	0	0.166667
2182	0	0.166667
2183	0	0.166667
2184	0	0.166667
2185	0	0.166667
2186	0	0.166667
2187	0	0.166667
2188	0	0.166667
2189	0	0.166667
2190	0	0.166667
2191	0	0.166667
2192	0	0.166667
2193	0	0.166667
2194	0	0.166667
2195	0	0.166667
2196	0	0.166667
2197	0	0.166667
2198	0	0.166667
2199	0	0.166667
2200	0	0.166667
2201	0	0.166667
2202	0	0.166667
2203	0	0.166667
2204	0	0.166667
2205	0	0.166667
2206	0	0.166667
2207	0	0.166667
2208	0	0.166667
2209	0	0.166667
2210	0	0.166667
2211	0	0.166667
2212	0	0.166667
2213	0	0.166667
2214	0	0.166667
2215	0	0.166667
2216	0	0.166667
2217	0	0.166667
2218	0	0.166667
2219	0	0.166667
2220	0	0.166667
2221	0	0.166667
2222	0	0.166667
2223	0	0.166667
2224	0	0.166667
2225	0	0.166667
2226	0	0.166667
2227	0	0.166667
2228	0	0.166667
2229	0	0.166667
2230	0	0.166667
2231	0	0.166667
2232	0	0.166667
2233	0	0.166667
2234	0	0.166667
2235	0	0.166667
2236	0	0.166667
2237	0	0.166667
2238	0	0.166667
2239	0	0.166667
2240	0	0.166667
2241	0	0.166667
2242	0	0.166667
2243	0	0.166667
2244	0	0.166667
2245	0	0.166667
2246	0	0.166667
2247	0	0.166667
2248	0	0.166667
2249	0	0.166667
2250	0	0.166667
2251	0	0.166667
2252	0	0.166667
2253	0	0.166667
2254	0	0.166667
2255	0	0.166667
2256	0	0.166667
2257	0	0.166667
2258	0	0.166667
2259	0	0.166667
2260	0	0.166667
2261	0	0.166667
2262	0	0.166667
2263	0	0.166667
2264	0	0.166667
2265	0	0.166667
2266	0	0.166667
2267	0	0.166667
2268	0	0.166667
2269	0	0.166667
2270	0	0.166667
2271	0	0.166667
2272	0	0.166667
2273	0	0.166667
2274	0	0.166667
2275	0	0.166667
2276	0	0.166667
2277	0	0.166667
2278	0	0.166667
2279	0	0.166667
2280	0	0.166667
2281	0	0.166667
2282	0	0.166667
2283	0	0.166667
2284	0	0.166667
2285	0	0.166667
2286	0	0.166667
2287	0	0.166667
2288	0	0.166667
2289	0	0.166667
2290	0	0.166667
2291	0	0.166667
2292	0	0.166667
2293	0	0.166667
2294	0	0.166667
2295	0	0.166667
2296	0	0.166667
2297	0	0.166667
2298	0	0.166667
2299	0	0.166667
2300	0	0.166667
2301	0	0.166667
2302	0	0.166667
2303	0	0.166667
2304	0	0.166667
2305	0	0.166667
2306	0	0.166667
2307	0	0.166667
2308	0	0.166667
2309	0	0.166667
2310	0	0.166667
2311	0	0.166667
2312	0	0.166667
2313	0	0.166667
2314	0	0.166667
2315	0	0.166667
2316	0	0.166667
2317	0	0.166667
2318	0	0.166667
2319	0	0.166667
2320	0	0.166667
2321	0	0.166667
2322	0	0.166667
2323	0	0.166667
2324	0	0.166667
2325	0	0.166667
2326	0	0.166667
2327	0	0.166667
2328	0	0.166667
2329	0	0.166667
2330	0	0.166667
2331	0	0.166667
2332	0	0.166667
2333	0	0.166667
2334	0	0.166667
2335	0	0.166667
2336	0	0.166667
2337	0	0.166667
2338	0	0.166667
2339	0	0.166667
2340	0	0.166667
2341	0	0.166667
2342	0	0.166667
2343	0	0.166667
2344	0	0.166667
2345	0	0.166667
2346	0	0.166667
2347	0	0.166667
2348	0	0.166667
2349	0	0.166667
2350	0	0.1
2351	0	0.1
2352	0	0.1
2353	0	0.1
2354	0	0.1
2355	0	0.1
2356	0	0.1
2357	0	0.1
2358	0	0.1
2359	0	0.1
2360	0	0.1
2361	0	0.1
2362	0	0.1
2363	0	0.1
2364	0	0.1
2365	0	0.1
2366	0	0.1
2367	0	0.1
2368	0	0.1
2369	0	0.1
2370	0	0.1
2371	0	0.1
2372	0	0.1
2373	0	0.1
2374	0	0.1
2375	0	0.1
2376	0	0.1
2377	0	0.1
2378	0	0.1
2379	0	0.0666667
2380	0	0.0666667
2381	0	0.0666667
2382	0	0.0666667
2383	0	0.0666667
2384	0	0.0666667
2385	0	0.0666667
2386	0	0.0666667
2387	0	0.2
2388	0	0.2
2389	0	0.2
2390	0	0.2
2391	0	0.2
2392	0	0.2
2393	0	0.2
2394	0	0.2
2395	0	0.2
2396	0	0.2
2397	0	0.2
2398	0	0.2
2399	0	0.2
2400	0	0.2
2401	0	0.2
2402	0	0.2
2403	0	0.2
2404	0	0.2
2405	0	0.2
2406	0	0.2
2407	0	0.2
2408	0	0.2
2409	0	0.2
2410	0	0.2
2411	0	0.2
2412	0	0.2
2413	0	0.2
2414	0	0.2
2415	0	0.2
2416	0	0.2
2417	0	0.2
2418	0	0.2
2419	0	0.2
2420	0	0.2
2421	0	0.2
2422	0	0.2
2423	0	0.2
2424	0	0.2
2425	0	0.2
2426	0	0.2
2427	0	0.2
2428	0	0.2
2429	0	0.2
2430	0	0.2
2431	0	0.2
2432	0	0.2
2433	0	0.2
2434	0	0.2
2435	0	0.2
2436	0	0.2
2437	0	0.2
2438	0	0.2
2439	0	0.2
2440	0	0.2
2441	0	0.2
2442	0	0.2
2443	0	0.2
2444	0	0.2
2445	0	0.2
2446	0	0.2
2447	0	0.2
2448	0	0.2
2449	0	0.2
2450	0	0.2
2451	0	0.2
2452	0	0.2
2453	0	0.2
2454	0	0.2
2455	0	0.2
2456	0	0.2
2457	0	0.2
2458	0	0.2
2459	0	0.2
2460	0	0.2
2461	0	0.2
2462	0	0.2
2463	0	0.2
2464	0	0.2
2465	0	0.2
2466	0	0.2
2467	0	0.2
2468	0	0.2
2469	0	0.2
2470	0	0.2
2471	0	0.2
2472	0	0.2
2473	0	0.2
2474	0	0.2
2475	0	0.2
2476	0	0.2
2477	0	0.2
2478	0	0.2
2479	0	0.2
2480	0	0.2
2481	0	0.2
2482	0	0.2
2483	0	0.2
2484	0	0.2
2485	0	0.2
2486	0	0.2
2487	0	0.2
2488	0	0.2
2489	0	0.2
2490	0	0.2
2491	0	0.2
2492	0	0.2
2493	0	0.2
2494	0	0.2
2495	0	0.2
2496	0	0.2
2497	0	0.2
2498	0	0.2
2499	0	0.2
2500	0	0.2
2501	0	0.2
2502	0	0.2
2503	0	0.2
2504	0	0.2
2505	0	0.2
2506	0	0.2
2507	0	0.2
2508	0	0.2
2509	0	0.2
2510	0	0.2
2511	0	0.2
2512	0	0.2
2513	0	0.2
2514	0	0.2
2515	0	0.2
2516	0	0.2
2517	0	0.2
2518	0	0.2
2519	0	0.2
2520	0	0.2
2521	0	0.2
2522	0	0.2
2523	0	0.2
2524	0	0.2
2525	0	0.2
2526	0	0.2
2527	0	0.2
2528	0	0.2
2529	0	0.2
2530	0	0.2
2531	0	0.2
2532	0	0.2
2533	0	0.2
2534	0	0.2
2535	0	0.2
2536	0	0.2
2537	0	0.2
2538	0	0.2
2539	0	0.2
2540	0	0.2
2541	0	0.2
2542	0	0.2
2543	0	0.2
2544	0	0.2
2545	0	0.2
2546	0	0.2
2547	0	0.2
2548	0	0.2
2549	0	0.2
2550	0	0.2
2551	0	0.2
2552	0	0.2
2553	0	0.2
2554	0	0.2
2555	0	0.2
2556	0	0.2
2557	0	0.2
2558	0	0.2
2559	0	0.2
2560	0	0.2
2561	0	0.2
2562	0	0.2
2563	0	0.2
2564	0	0.2
2565	0	0.2
2566	0	0.2
2567	0	0.2
2568	0	0.142857
2569	0	0.142857
2570	0	0.142857
2571	0	0.142857
2572	0	0.142857
2573	0	0.142857
2574	0	0.142857
2575	0	0.107143
2576	0	0.107143
2577	0	0.107143
2578	0	0.107143
2579	0	0.107143
2580	0	0.0989011
2581	0	0.358974
2582	0	0.312808
2583	0	0.291954
2584	0	0.291954
2585	0	0.231729
2586	0	0.218487
2587	0	0.206349
2588	0	0.206349
2589	0	0.206349
2590	0	0.206349
2591	0	0.1997
2592	0	0.189189
2593	0	0.189189
2594	0	0.189189
2595	0	0.189189
2596	0	0.189189
2597	0	0.189189
2598	0	0.189189
2599	0	0.189189
2600	0	0.189189
2601	0	0.189189
2602	0	0.189189
2603	0	0.179487
2604	0	0.179487
2605	0	0.179487
2606	0	0.179487
2607	0	0.179487
2608	0	0.179487
2609	0	0.179487
2610	0	0.179487
2611	0	0.179487
2612	0	0.179487
2613	0	0.183536
2614	0	0.183536
2615	0	0.183536
2616	0	0.183536
2617	0	0.179487
2618	0	0.179487
2619	0	0.179487
2620	0	0.179487
2621	0	0.179487
2622	0	0.179487
2623	0	0.179487
2624	0	0.179487
2625	0	0.179487
2626	0	0.179487
2627	0	0.179487
2628	0	0.179487
2629	0	0.179487
2630	0	0.179487
2631	0	0.179487
2632	0	0.179487
2633	0	0.20108
2634	0	0.20108
2635	0	0.20108
2636	0	0.20108
2637	0	0.203779
2638	0	0.203779
2639	0	0.203779
2640	0	0.20108
2641	0	0.20108
2642	0	0.20108
2643	0	0.20108
2644	0	0.20108
2645	0	0.179487
2646	0	0.179487
2647	0	0.180837
2648	0	0.180837
2649	0	0.180837
2650	0	0.22942
2651	0	0.22942
2652	0	0.253711
2653	0	0.253711
2654	0	0.253711
2655	0	0.273954
2656	0	0.383266
2657	0	0.383266
2658	0	0.383266
2659	0	0.383266
2660	0	0.383266
2661	0	0.383266
2662	0	0.383266
2663	0	0.383266
2664	0	0.383266
2665	0	0.383266
2666	0	0.383266
2667	0	0.383266
2668	0	0.353576
2669	0	0.383266
2670	0	0.383266
2671	0	0.383266
2672	0	0.383266
2673	0	0.383266
2674	0	0.383266
2675	0	0.383266
2676	0	0.383266
2677	0	0.326586
2678	0	0.326586
2679	0	0.326586
2680	0	0.383266
2681	0	0.364103
2682	0	0.364103
2683	0	0.364103
2684	0	0.335897
2685	0	0.346154
2686	0	0.330769
2687	0	0.330769
2688	0	0.330769
2689	0	0.6
2690	0	0.6
2691	0	0.6
2692	0	0.6
2693	0	0.6
2694	0	0.6
2695	0	0.6
2696	0	0.6
2697	0	0.6
2698	0	0.6
2699	0	0.6
2700	0	0.6
2701	0	0.6
2702	0	0.6
2703	0	0.6
2704	0	0.6
2705	0	0.6
2706	0	0.6
2707	0	0.6
2708	0	0.6
2709	0	0.6
2710	0	0.6
2711	0	0.6
2712	0	0.6
2713	0	0.6
2714	0	0.6
2715	0	0.6
2716	0	0.6
2717	0	0.6
2718	0	0.6
2719	0	0.6
2720	0	0.6
2721	0	0.6
2722	0	0.6
2723	0	0.6
2724	0	0.6
2725	0	0.6
2726	0	0.6
2727	0	0.6
2728	0	0.6
2729	0	0.6
2730	0	0.6
2731	0	0.6
2732	0	0.6
2733	0	0.6
2734	0	0.6
2735	0	0.6
2736	0	0.6
2737	0	0.6
2738	0	0.6
2739	0	0.6
2740	0	0.6
2741	0	0.6
2742	0	0.6
2743	0	0.6
2744	0	0.6
2745	0	0.6
2746	0	0.6
2747	0	0.6
2748	0	0.6
2749	0	0.6
2750	0	0.6
2751	0	0.6
2752	0	0.6
2753	0	0.6
2754	0	0.6
2755	0	0.6
2756	0	0.6
2757	0	0.6
2758	0	0.6
2759	0	0.6
2760	0	0.6
2761	0	0.6
2762	0	0.6
2763	0	0.6
2764	0	0.6
2765	0	0.6
2766	0	0.6
2767	0	0.6
2768	0	0.6
2769	0	0.6
2770	0	0.6
2771	0	0.6
2772	0	0.6
2773	0	0.6
2774	0	0.6
2775	0	0.6
2776	0	0.6
2777	0	0.6
2778	0	0.6
2779	0	0.6
2780	0	0.6
2781	0	0.6
2782	0	0.6
2783	0	0.6
2784	0	0.603846
2785	0	0.603846
2786	0	0.603846
2787	0	0.6
2788	0	0.6
2789	0	0.6
2790	0	0.6
2791	0	0.6
2792	0	0.6
2793	0	0.6
2794	0	0.6
2795	0	0.6
2796	0	0.6
2797	0	0.6
2798	0	0.6
2799	0	0.6
2800	0	0.6
2801	0	0.6
2802	0	0.6
2803	0	0.6
2804	0	0.6
2805	0	0.6
2806	0	0.6
2807	0	0.6
2808	0	0.6
2809	0	0.570732
2810	0	0.570732
2811	0	0.570732
2812	0	0.570732
2813	0	0.543554
2814	0	0.543554
2815	0	0.543554
2816	0	0.543554
2817	0	0.543554
2818	0	0.543554
2819	0	0.543554
2820	0	0.543554
2821	0	0.369338
2822	0	0.369338
2823	0	0.369338
2824	0	0.369338
2825	0	0.369338
2826	0	0.369338
2827	0	0.369338
2828	0	0.369338
2829	0	0.369338
2830	0	0.369338
2831	0	0.369338
2832	0	0.369338
2833	0	0.369338
2834	0	0.369338
2835	0	0.369338
2836	0	0.369338
2837	0	0.369338
2838	0	0.369338
2839	0	0.26597
2840	0	0.26597
2841	0	0.221835
2842	0	0.26597
2843	0	0.29359
2844	0	0.29359
2845	0	0.267131
2846	0	0.267131
2847	0	0.267131
2848	0	0.267131
2849	0	0.267131
2850	0	0.269454
2851	0	0.269454
2852	0	0.2741
2853	0	0.2741
2854	0	0.261351
2855	0	0.239203
2856	0	0.256098
2857	0	0.25
2858	0	0.238095
2859	0	0.236934
2860	0	0.236934
2861	0	0.236934
2862	0	0.225914
2863	0	0.225914
2864	0	0.225914
2865	0	0.225914
2866	0	0.225914
2867	0	0.225914
2868	0	0.225914
2869	0	0.225914
2870	0	0.219269
2871	0	0.219269
2872	0	0.219269
2873	0	0.219269
2874	0	0.219269
2875	0	0.219269
2876	0	0.219269
2877	0	0.219269
2878	0	0.219269
2879	0	0.209302
2880	0	0.211416
2881	0	0.211416
2882	0	0.211416
2883	0	0.211416
2884	0	0.232558
2885	0	0.232558
2886	0	0.232558
2887	0	0.232558
2888	0	0.233615
2889	0	0.212474
2890	0	0.0983087
2891	0	0.0961945
2892	0	0.0919192
2893	0	0.0919192
2894	0	0.0969697
2895	0	0.0969697
2896	0	0.0969697
2897	0	0.112821
2898	0	0.115385
2899	0	0.116162
2900	0	0.116162
2901	0	0.116162
2902	0	0.116162
2903	0	0.116162
2904	0	0.111111
2905	0	0.111111
2906	0	0.111111
2907	0	0.101758
2908	0	0.107308
2909	0	0.0921986
2910	0	0.0957447
2911	0	0.0948582
2912	0	0.10202
2913	0	0.0662879
2914	0	0.198582
2915	0	0.181738
2916	0	0.236702
2917	0	0.218085
2918	0	0.236702
2919	0	0.236702
2920	0	0.236702
2921	0	0.236702
2922	0	0.227041
2923	0	0.222041
2924	0	0.213333
2925	0	0.212549
2926	0	0.212549
2927	0	0.212549
2928	0	0.212549
2929	0	0.212549
2930	0	0.212549
2931	0	0.212549
2932	0	0.212549
2933	0	0.212549
2934	0	0.212549
2935	0	0.212549
2936	0	0.212549
2937	0	0.212549
2938	0	0.212549
2939	0	0.196662
2940	0	0.196662
2941	0	0.201016
2942	0	0.201016
2943	0	0.193571
2944	0	0.175974
2945	0	0.170426
2946	0	0.164549
2947	0	0.165154
2948	0	0.159556
2949	0	0.149727
2950	0	0.146995
2951	0	0.145426
2952	0	0.129032
2953	0	0.11828
2954	0	0.135417
2955	0	0.127739
2956	0	0.108159
2957	0	0.117483
2958	0	0.127739
2959	0	0.123474
2960	0	0.119842
2961	0	0.119842
2962	0	0.119403
2963	0	0.0985507
2964	0	0.0915493
2965	0	0.104262
2966	0	0.101814
2967	0	0.0946685
2968	0	0.0922411
2969	0	0.0840435
2970	0	0.0843373
2971	0	0.079617
2972	0	0.079617
2973	0	0.0750766
2974	0	0.0698413
2975	0	0.0685619
2976	0	0.0670874
2977	0	0.0675549
2978	0	0.0653509
2979	0	0.0538033
2980	0	0.0531313
2981	0	0.0524752
2982	0	0.0498763
2983	0	0.0461815
2984	0	0.054876
2985	0	0.050885
2986	0	0.049733
2987	0	0.0494232
2988	0	0.0463492
2989	0	0.0420479
2990	0	0.0533151
2991	0	0.0713147
2992	0	0.0647752
2993	0	0.0737203
2994	0	0.0710311
2995	0	0.0724758
2996	0	0.104879
2997	0	0.106505
2998	0	0.0888889
2999	0	0.0888889
3000	0	0.0727273
3001	0	0.0727273
3002	0	0.0727273
3003	0	0.0727273
3004	0	0.0727273
3005	0	0.0727273
3006	0	0.0727273
3007	0	0.0727273
3008	0	0.0727273
3009	0	0.0727273
3010	0	0.0727273
3011	0	0.0727273
3012	0	0.0727273
3013	0	0.0727273
3014	0	0.0727273
3015	0	0.0641026
3016	0	0.0641026
3017	0	0.0641026
3018	0	0.0641026
3019	0	0.0641026
3020	0	0.0641026
3021	0	0.0641026
3022	0	0.0641026
3023	0	0.0641026
3024	0	0.0641026
3025	0	0.0549451
3026	0	0.123772
3027	0	0
3028	0	0
3029	0	0
3030	0	0
3031	0	0
3032	0	0
3033	0	0
3034	0	0
3035	0	0
3036	0	0
3037	0	0
3038	0	0
3039	0	0
3040	0	0
3041	0	0
3042	0	0
3043	0	0
3044	0	0
3045	0	0
3046	0	0
3047	0	0
3048	0	0
3049	0	0
3050	0	0
3051	0	0
3052	0	0
3053	0	0
3054	0	0
3055	0	0
3056	0	0
3057	0	0
3058	0	0
3059	0	0
3060	0	0
3061	0	0
3062	0	0
3063	0	0
3064	0	0
3065	0	0
3066	0	0
3067	0	0
3068	0	0
3069	0	0
3070	0	0
3071	0	0
3072	0	0
3073	0	0
3074	0	0
3075	0	0
3076	0	0
3077	0	0
3078	0	0
3079	0	0
3080	0	0
3081	0	0
3082	0	0
3083	0	0
3084	0	0
3085	0	0
3086	0	0
3087	0	0
3088	0	0
3089	0	0
3090	0	0
3091	0	0
3092	0	0
3093	0	0
3094	0	0
3095	0	0
3096	0	0
3097	0	0
3098	0	0
3099	0	0
3100	0	0
3101	0	0
3102	0	0
3103	0	0
3104	0	0
3105	0	0
3106	0	0
3107	0	0
3108	0	0
3109	0	0
3110	0	0
3111	0	0
3112	0	0
3113	0	0
3114	0	0
3115	0	0
3116	0	0
3117	0	0
3118	0	0
3119	0	0
3120	0	0
3121	0	0
3122	0	0
3123	0	0
3124	0	0
3125	0	0
3126	0	0
3127	0	0
3128	0	0
3129	0	0
3130	0	0
3131	0	0
3132	0	0
3133	0	0
3134	0	0
3135	0	0
3136	0	0
3137	0	0
3138	0	0
3139	0	0
3140	0	0
3141	0	0
3142	0	0
3143	0	0
3144	0	0
3145	0	0
3146	0	0
3147	0	0
3148	0	0
3149	0	0
3150	0	0
3151	0	0
3152	0	0
3153	0	0
3154	0	0
3155	0	0
3156	0	0
3157	0	0
3158	0	0
3159	0	0
3160	0	0
3161	0	0
3162	0	0
3163	0	0
3164	0	0
3165	0	0
3166	0	0
3167	0	0
3168	0	0
3169	0	0
3170	0	0
3171	0	0
3172	0	0
3173	0	0
3174	0	0
3175	0	0
3176	0	0
3177	0	0
3178	0	0
3179	0	0
3180	0	0
3181	0	0
3182	0	0
3183	0	0
3184	0	0
3185	0	0
3186	0	0
3187	0	0
3188	0	0
3189	0	0
3190	0	0
3191	0	0
3192	0	0
3193	0	0
3194	0	0
3195	0	0
3196	0	0
3197	0	0
3198	0	0
3199	0	0
3200	0	0
3201	0	0
3202	0	0
3203	0	0
3204	0	0
3205	0	0
3206	0	0
3207	0	0
3208	0	0
3209	0	0
3210	0	0
3211	0	0
3212	0	0
3213	0	0
3214	0	0
3215	0	0
3216	0	0
3217	0	0
3218	0	0
3219	0	0
3220	0	0
3221	0	0
3222	0	0
3223	0	0
3224	0	0
3225	0	0
3226	0	0
3227	0	0
3228	0	0
3229	0	0
3230	0	0
3231	0	0
3232	0	0
3233	0	0
3234	0	0
3235	0	0
3236	0	0
3237	0	0
3238	0	0
3239	0	0
3240	0	0
3241	0	0
3242	0	0
3243	0	0
3244	0	0
3245	0	0
3246	0	0
3247	0	0
3248	0	0
3249	0	0
3250	0	0
3251	0	0
3252	0	0
3253	0	0
3254	0	0
3255	0	0
3256	0	0
3257	0	0
3258	0	0
3259	0	0
3260	0	0
3261	0	0
3262	0	0
3263	0	0
3264	0	0
3265	0	0
3266	0	0
3267	0	0
3268	0	0
3269	0	0
3270	0	0
3271	0	0
3272	0	0
3273	0	0
3274	0	0
3275	0	0
3276	0	0
3277	0	0
3278	0	0
3279	0	0
3280	0	0
3281	0	0
3282	0	0
3283	0	0
3284	0	0
3285	0	0
3286	0	0
3287	0	0
3288	0	0
3289	0	0
3290	0	0
3291	0	0
3292	0	0
3293	0	0
3294	0	0
3295	0	0
3296	0	0
3297	1	0
3298	0	0
3299	0	0
3300	0	0
3301	0	0
3302	0	0
3303	0	0
3304	0	0
3305	0	0
3306	0	0
3307	0	0
3308	0	0
3309	0	0
3310	0	0
3311	0	0
3312	0	0
3313	0	0
3314	0	0
3315	0	0
3316	0	0
3317	0	0
3318	0	0
3319	0	0
3320	0	0
3321	0	0
3322	0	0
3323	0	0
3324	0	0
3325	0	0
3326	0	0
3327	0	0
3328	0	0
3329	0	0
3330	0	0
3331	0	0
3332	0	0
3333	0	0
3334	0	0
3335	0	0
3336	0	0
3337	0	0
3338	0	0
3339	0	0
3340	0	0
3341	0	0
3342	0	0
3343	0	0
3344	0	0
3345	0	0
3346	0	0
3347	0	0
3348	0	0
3349	0	0
3350	0	0
3351	0	0
3352	0	0
3353	0	0
3354	0	0
3355	0	0
3356	0	0
3357	0	0
3358	0	0
3359	0	0
3360	0	0
3361	0	0
3362	0	0
3363	0	0
3364	0	0
3365	0	0
3366	0	0
3367	0	0
3368	0	0
3369	0	0
3370	0	0
3371	0	0
3372	0	0
3373	0	0
3374	0	0
3375	0	0
3376	0	0
3377	0	0
3378	0	0
3379	0	0
3380	0	0
3381	0	0
3382	0	0
3383	0	0
3384	0	0
3385	0	0
3386	0	0
3387	0	0
3388	0	0
3389	0	0
3390	0	0
3391	0	0
3392	0	0
3393	0	0
3394	0	0
3395	0	0
3396	0	0
3397	0	0
3398	0	0
3399	0	0
3400	0	0
3401	0	0
3402	0	0
3403	0	0
3404	0	0
3405	0	0
3406	0	0
3407	0	0
3408	0	0
3409	0	0
3410	0	0
3411	0	0
3412	0	0
3413	0	0
3414	0	0
3415	0	0
3416	0	0
3417	0	0
3418	0	0
3419	0	0
3420	0	0
3421	0	0
3422	0	0
3423	0	0
3424	0	0
3425	0	0
3426	0	0
3427	0	0
3428	0	0
3429	0	0
3430	0	0
3431	0	0
3432	0	0
3433	0	0
3434	0	0
3435	0	0
3436	0	0
3437	0	0
3438	0	0
3439	0	0
3440	0	0
3441	0	0
3442	0	0
3443	0	0
3444	0	0
3445	0	0
3446	0	0
3447	0	0
3448	0	0
3449	0	0
3450	0	0
3451	0	0
3452	0	0
3453	0	0
3454	0	0
3455	0	0
3456	0	0
3457	0	0
3458	0	0
3459	0	0
3460	0	0
3461	0	0
3462	0	0
3463	0	0
3464	0	0
3465	0	0
3466	0	0
3467	0	0
3468	0	0
3469	0	0
3470	0	0
3471	0	0
3472	0	0
3473	0	0
3474	0	0
3475	0	0
3476	0	0
3477	0	0
3478	0	0
3479	0	0
3480	0	0
3481	0	0
3482	0	0
3483	0	0
3484	0	0
3485	0	0
3486	0	0
3487	0	0
3488	0	0
3489	0	0
3490	0	0
3491	0	0
3492	0	0
3493	0	0
3494	0	0
3495	0	0
3496	0	0
3497	0	0
3498	0	0
3499	0	0
3500	0	0
3501	0	0
3502	0	0
3503	0	0
3504	0	0
3505	0	0
3506	0	0
3507	0	0
3508	0	0
3509	0	0
3510	0	0
3511	0	0
3512	0	0
3513	0	0
3514	0	0
3515	0	0
3516	0	0
3517	0	0
3518	0	0
3519	0	0
3520	0	0
3521	0	0
3522	0	0
3523	0	0
3524	0	0
3525	0	0
3526	0	0
3527	0	0
3528	0	0
3529	0	0
3530	0	0
3531	0	0
3532	0	0
3533	0	0
3534	0	0
3535	0	0
3536	0	0
3537	0	0
3538	0	0
3539	0	0
3540	0	0
3541	0	0
3542	0	0
3543	0	0
3544	0	0
3545	0	0
3546	0	0
3547	0	0
3548	0	0
3549	0	0
3550	0	0
3551	0	0
3552	0	0
3553	0	0
3554	0	0
3555	0	0
3556	0	0
3557	0	0
3558	0	0
3559	0	0
3560	0	0
3561	0	0
3562	0	0
3563	0	0
3564	0	0
3565	0	0
3566	0	0
3567	0	0
3568	0	0
3569	0	0
3570	0	0
3571	0	0
3572	0	0
3573	0	0
3574	0	0
3575	0	0
3576	0	0
3577	0	0
3578	0	0
3579	0	0
3580	0	0
3581	0	0
3582	0	0
3583	0	0
3584	0	0
3585	0	0
3586	0	0
3587	0	0
3588	0	0
3589	0	0
3590	0	0
3591	0	0
3592	0	0
3593	0	0
3594	0	0
3595	0	0
3596	0	0
3597	0	0
3598	0	0
3599	0	0
3600	0	0
3601	0	0
3602	0	0
3603	0	0
3604	0	0
3605	0	0
3606	0	0
3607	0	0
3608	0	0
3609	0	0
3610	0	0
3611	0	0
3612	0	0
3613	0	0
3614	0	0
3615	0	0
3616	0	0
3617	0	0
3618	0	0
3619	0	0
3620	0	0
3621	0	0
3622	0	0
3623	0	0
3624	0	0
3625	0	0
3626	0	0
3627	0	0
3628	0	0
3629	0	0
3630	0	0
3631	0	0
3632	0	0
3633	0	0
3634	0	0
3635	0	0
3636	0	0
3637	0	0
3638	0	0
3639	0	0
3640	0	0
3641	0	0
3642	0	0
3643	0	0
3644	0	0
3645	0	0
3646	0	0
3647	0	0
3648	0	0
3649	0	0
3650	0	0
3651	0	0
3652	0	0
3653	0	0
3654	0	0
3655	0	0
3656	0	0
3657	0	0
3658	0	0
3659	0	0
3660	0	0
3661	0	0
3662	0	0
3663	0	0
3664	0	0
3665	0	0
3666	0	0
3667	0	0
3668	0	0
3669	0	0
3670	0	0
3671	0	0
3672	0	0
3673	0	0
3674	0	0
3675	0	0
3676	0	0
3677	0	0
3678	0	0
3679	0	0
3680	0	0
3681	0	0
3682	0	0
3683	0	0
3684	0	0
3685	0	0
3686	0	0
3687	0	0
3688	0	0
3689	0	0
3690	0	0
3691	0	0
3692	0	0
3693	0	0
3694	0	0
3695	0	0
3696	0	0
3697	0	0
3698	0	0
3699	0	0
3700	0	0
3701	0	0
3702	0	0
3703	0	0
3704	0	0
3705	0	0
3706	0	0
3707	0	0
3708	0	0
3709	0	0
3710	0	0
3711	0	0
3712	0	0
3713	0	0
3714	0	0
3715	0	0
3716	0	0
3717	0	0
3718	0	0
3719	0	0
3720	0	0
3721	0	0
3722	0	0
3723	0	0
3724	0	0
3725	0	0
3726	0	0
3727	0	0
3728	0	0
3729	0	0
3730	0	0
3731	0	0
3732	0	0
3733	0	0
3734	0	0
3735	0	0
3736	0	0
3737	0	0
3738	0	0
3739	0	0
3740	0	0
3741	0	0
3742	0	0
3743	0	0
3744	0	0
3745	0	0
3746	0	0
3747	0	0
3748	0	0
3749	0	0
3750	0	0
3751	0	0
3752	0	0
3753	0	0
3754	0	0
3755	0	0
3756	0	0
3757	0	0
3758	0	0
3759	0	0
3760	0	0
3761	0	0
3762	0	0
3763	0	0
3764	0	0
3765	0	0
3766	0	0
3767	0	0
3768	0	0
3769	0	0
3770	0	0
3771	0	0
3772	0	0
3773	0	0
3774	0	0
3775	0	0
3776	0	0
3777	0	0
3778	0	0
3779	0	0
3780	0	0
3781	0	0
3782	0	0
3783	0	0
3784	0	0
3785	0	0
3786	0	0
3787	0	0
3788	0	0
3789	0	0
3790	0	0
3791	0	0
3792	0	0
3793	0	0
3794	0	0
3795	0	0
3796	0	0
3797	0	0
3798	0	0
3799	0	0
3800	0	0
3801	0	0
3802	0	0
3803	0	0
3804	0	0
3805	0	0
3806	0	0
3807	0	0
3808	0	0
3809	0	0
3810	0	0
3811	0	0
3812	0	0
3813	0	0
3814	0	0
3815	0	0
3816	0	0
3817	0	0
3818	0	0
3819	0	0
3820	0	0
3821	0	0
3822	0	0
3823	0	0
3824	0	0
3825	0	0
3826	0	0
3827	0	0
3828	0	0
3829	0	0
3830	0	0
3831	0	0
3832	0	0
3833	0	0
3834	0	0
3835	0	0
3836	0	0
3837	0	0
3838	0	0
3839	0	0
3840	0	0
3841	0	0
3842	0	0
3843	0	0
3844	0	0
3845	0	0
3846	0	0
3847	0	0
3848	0	0
3849	0	0
3850	0	0
3851	0	0
3852	0	0
3853	0	0
3854	0	0
3855	0	0
3856	0	0
3857	0	0
3858	0	0
3859	0	0
3860	0	0
3861	0	0
3862	0	0
3863	0	0
3864	0	0
3865	0	0
3866	0	0
3867	0	0
3868	0	0
3869	0	0
3870	0	0
3871	0	0
3872	0	0
3873	0	0
3874	0	0
3875	0	0
3876	0	0
3877	0	0
3878	0	0
3879	0	0
3880	0	0
3881	0	0
3882	0	0
3883	0	0
3884	0	0
3885	0	0
3886	0	0
3887	0	0
3888	0	0
3889	0	0
3890	0	0
3891	0	0
3892	0	0
3893	0	0
3894	0	0
3895	0	0
3896	0	0
3897	0	0
3898	0	0
3899	0	0
3900	0	0
3901	0	0
3902	0	0
3903	0	0
3904	0	0
3905	0	0
3906	0	0
3907	0	0
3908	0	0
3909	0	0
3910	0	0
3911	0	0
3912	0	0
3913	0	0
3914	0	0
3915	0	0
3916	0	0
3917	0	0
3918	0	0
3919	0	0
3920	0	0
3921	0	0
3922	0	0
3923	0	0
3924	0	0
3925	0	0
3926	0	0
3927	0	0
3928	0	0
3929	0	0
3930	0	0
3931	0	0
3932	0	0
3933	0	0
3934	0	0
3935	0	0
3936	0	0
3937	0	0
3938	0	0
3939	0	0
3940	0	0
3941	0	0
3942	0	0.166667
3943	0	0.166667
3944	0	0.166667
3945	0	0.166667
3946	0	0.166667
3947	0	0.166667
3948	0	0.166667
3949	0	0.166667
3950	0	0.166667
3951	0	0.166667
3952	0	0.166667
3953	0	0.166667
3954	0	0.166667
3955	0	0.166667
3956	0	0.166667
3957	0	0.166667
3958	0	0.166667
3959	0	0.1
3960	0	0.1
3961	0	0.1
3962	0	0.1
3963	0	0.0666667
3964	0	0.0666667
3965	0	0.0666667
3966	0	0.0666667
3967	0	0.0666667
3968	0	0.0666667
3969	0	0.0666667
3970	0	0.0666667
3971	0	0.0666667
3972	0	0.0357143
3973	0	0.0357143
3974	0	0.0666667
3975	0	0.0666667
3976	0	0.0666667
3977	0	0.0666667
3978	0	0.0666667
3979	0	0.0666667
3980	0	0.0666667
3981	0	0.0666667
3982	0	0.0666667
3983	0	0.0666667
3984	0	0.0666667
3985	0	0.0666667
3986	0	0.0666667
3987	0	0.0666667
3988	0	0.0666667
3989	0	0.0666667
3990	0	0.0666667
3991	0	0.0666667
3992	0	0.0666667
3993	0	0.0666667
3994	0	0.0666667
3995	0	0.0666667
3996	0	0.0666667
3997	0	0.0666667
3998	0	0.0666667
3999	0	0.047619
4000	0	0.047619
4001	0	0.047619
4002	0	0.047619
4003	0	0.047619
4004	0	0.047619
4005	0	0.0357143
4006	0	0.0357143
4007	0	0.0357143
4008	0	0.0357143
4009	0	0.0357143
4010	0	0.0357143
4011	0	0.0277778
4012	0	0.0277778
4013	0	0.0363636
4014	0	0.0363636
4015	0	0.0363636
4016	0	0.0363636
4017	0	0.0363636
4018	0	0.030303
4019	0	0.030303
4020	0	0.030303
4021	0	0.030303
4022	0	0.030303
4023	0	0.030303
4024	0	0.025641
4025	0	0.025641
4026	0	0.025641
4027	0	0.025641
4028	0	0.025641
4029	0	0.025641
4030	0	0.021978
4031	0	0.021978
4032	0	0.0894737
4033	0	0.0894737
4034	0	0.0894737
4035	0	0.0894737
4036	0	0.0894737
4037	0	0.0904762
4038	0	0.0904762
4039	0	0.0904762
4040	0	0.0904762
4041	0	0.0904762
4042	0	0.0822511
4043	0	0.0822511
4044	0	0.0822511
4045	0	0.0750988
4046	0	0.0750988
4047	0	0.0750988
4048	0	0.0666667
4049	0	0.0666667
4050	0	0.07
4051	0	0.07
4052	0	0.07
4053	0	0.07
4054	0	0.07
4055	0	0.0646154
4056	0	0.0683761
4057	0	0.0683761
4058	0	0.0661376
4059	0	0.0634921
4060	0	0.0530303
4061	0	0.0460317
4062	0	0.0512091
4063	0	0.0551282
4064	0	0.0810811
4065	0	0.0697013
4066	0	0.0661269
4067	0	0.0756098
4068	0	0.0778165
4069	0	0.0727273
4070	0	0.0653061
4071	0	0.0609579
4072	0	0.0572391
4073	0	0.0776942
4074	0	0.158142
4075	0	0.154017
4076	0	0.39922
4077	0	0.281524
4078	0	0.2806
4079	0	0.251334
4080	0	0.245291
4081	0	0.263855
4082	0	0.255298
4083	0	0.2285
4084	0	0.225892
4085	0	0.296903
4086	0	0.300659
4087	0	0.338526
4088	0	0.451831
4089	0	0.484375
4090	0	0.469495
4091	0	0.473338
4092	0	0.0779221
4093	0	0.0877193
4094	0	0.0980392
4095	0	0.0980392
4096	0	0.0980392
4097	0	0.0980392
4098	0	0.0980392
4099	0	0.0980392
4100	0	0.0980392
4101	0	0.454977
4102	0	0.454133
4103	0	0
4104	0	0
4105	0	0
4106	0	0
4107	0	0
4108	0	0
4109	0	0
4110	0	0
4111	0	0
4112	0	0
4113	0	0
4114	0	0
4115	0	0
4116	0	0
4117	0	0
4118	0	0
4119	0	0
4120	0	0
4121	0	0
4122	0	0
4123	0	0
4124	0	0
4125	0	0
4126	0	0
4127	0	0
4128	0	0
4129	0	0
4130	0	0
4131	0	0
4132	0	0
4133	0	0
4134	0	0
4135	0	0
4136	0	0
4137	0	0
4138	0	0
4139	0	0
4140	0	0
4141	0	0
4142	0	0
4143	0	0
4144	0	0
4145	0	0
4146	0	0
4147	0	0
4148	0	0
4149	0	0
4150	0	0
4151	0	0
4152	0	0
4153	0	0
4154	0	0
4155	0	0
4156	0	0
4157	0	0
4158	0	0
4159	0	0
4160	0	0
4161	0	0
4162	0	0
4163	0	0
4164	0	0
4165	0	0
4166	0	0
4167	0	0
4168	0	0
4169	0	0
4170	0	0
4171	0	0
4172	0	0
4173	0	0
4174	0	0
4175	0	0
4176	0	0
4177	0	0
4178	0	0
4179	0	0
4180	0	0
4181	0	0
4182	0	0
4183	0	0
4184	0	0
4185	0	0
4186	0	0
4187	0	0
4188	0	0
4189	0	0
4190	0	0
4191	0	0
4192	0	0
4193	0	0
4194	0	0
4195	0	0
4196	0	0
4197	0	0
4198	0	0
4199	0	0
4200	0	0
4201	0	0
4202	0	0
4203	0	0
4204	0	0
4205	0	0
4206	0	0
4207	0	0
4208	0	0
4209	0	0
4210	0	0
4211	0	0
4212	0	0
4213	0	0
4214	0	0
4215	0	0
4216	0	0.166667
4217	0	0.166667
4218	0	0.166667
4219	0	0.166667
4220	0	0.166667
4221	0	0.166667
4222	0	0.166667
4223	0	0.166667
4224	0	0.166667
4225	0	0.166667
4226	0	0.166667
4227	0	0.166667
4228	0	0.166667
4229	0	0.166667
4230	0	0.1
4231	0	0.1
4232	0	0.1
4233	0	0.1
4234	0	0.1
4235	0	0.1
4236	0	0.0952381
4237	0	0.0952381
4238	0	0.0952381
4239	0	0.047619
4240	0	0
4241	0	0
4242	0	0
4243	0	0.047619
4244	0	0.047619
4245	0	0.047619
4246	0	0.047619
4247	0	0.0357143
4248	0	0.0357143
4249	0	0
4250	0	0
4251	0	0
4252	0	0.0277778
4253	0	0.0833333
4254	0	0.0833333
4255	0	0.133333
4256	0	0.133333
4257	0	0.133333
4258	0	0.133333
4259	0	0.133333
4260	0	0.133333
4261	0	0.133333
4262	0	0.133333
4263	0	0.133333
4264	0	0.109091
4265	0	0.109091
4266	0	0.109091
4267	0	0.136364
4268	0	0.136364
4269	0	0.136364
4270	0	0.181818
4271	0	0.181818
4272	0	0.181818
4273	0	0.269231
4274	0	0.269231
4275	0	0.269231
4276	0	0.269231
4277	0	0.269231
4278	0	0.263736
4279	0	0.263736
4280	0	0.208333
4281	0	0.183824
4282	0	0.204762
4283	0	0.536361
4284	0	0.137566
4285	0	0.137566
4286	0	0.137566
4287	0	0.152709
4288	0	0.142529
4289	0	0.796618
4290	0	0.926436
4291	0	0.928733
4292	0	0
4293	0	0
4294	0	0
4295	0	0
4296	0	0
4297	0	0
4298	0	0
4299	0	0
4300	0	0
4301	0	0
4302	0	0.911406
4303	0	0.91158
4304	0	0
4305	0	0
4306	0	0
4307	0	0
4308	0	0
4309	0	0
4310	0	0
4311	0	0
4312	0	0
4313	0	0
4314	0	0
4315	0	0
4316	0	0
4317	0	0
4318	0	0
4319	0	0
4320	0	0
4321	0	0
4322	0	0
4323	0	0
4324	0	0
4325	0	0
4326	0	0
4327	0	0
4328	0	0
4329	0	0
4330	0	0
4331	0	0
4332	0	0
4333	0	0
4334	0	0
4335	0	0
4336	0	0
4337	0	0
4338	0	0
4339	0	0
4340	0	0
4341	0	0
4342	0	0
4343	0	0
4344	0	0.166667
4345	0	0.1
4346	0	0.1
4347	0	0.1
4348	0	0.133333
4349	0	0.2
4350	0	0.2
4351	0	0.107143
4352	0	0.272727
4353	0	0.93643
4354	0	0.327273
4355	0	0.327273
4356	0	0.327273
4357	0	0.230769
4358	0	0.166667
4359	0	0.142857
4360	0	0.142857
4361	0	0.142857
4362	0	0.142857
4363	0	0.142857
4364	0	0.142857
4365	0	0.142857
4366	0	0.166667
4367	0	0.166667
4368	0	0.166667
4369	0	0.142857
4370	0	0.12381
4371	0	0.0857143
4372	0	0.0857143
4373	0	0.0952381
4374	0	0.133333
4375	0	0.116667
4376	0	0.139706
4377	0	0.111111
4378	0	0.134503
4379	0	0.134503
4380	0	0.121053
4381	0	0.109524
4382	0	0.109524
4383	0	0.925506
4384	0	0.572055
4385	0	0.870788
4386	0	0
4387	0	0
4388	0	0
4389	0	0
4390	0	0
4391	0	0
4392	0	0
4393	0	0
4394	0	0
4395	0	0
4396	0	0
4397	0	0
4398	0	0
4399	0	0
4400	0	0
4401	0	0
4402	0	0
4403	0	0
4404	0	0
4405	0	0
4406	0	0
4407	0	0
4408	0	0
4409	0	0
4410	0	0
4411	0	0.878899
4412	0	0
4413	0	0
4414	0	0
4415	0	0
4416	0	0
4417	0	0
4418	0	0
4419	0	0
4420	0	0
4421	0	0
4422	0	0
4423	0	0
4424	0	0.1
4425	0	0.1
4426	0	0.0666667
4427	0	0.047619
4428	0	0.047619
4429	0	0.047619
4430	0	0.0357143
4431	0	0.111111
4432	0	0.244444
4433	0	0.181818
4434	0	0.842825
4435	0	0.0735294
4436	0	0.0833333
4437	0	0.0952381
4438	0	0.115385
4439	0	0.0833333
4440	0	0.0277778
4441	0	0
4442	0	0
4443	0	0
4444	0	0
4445	0	0
4446	0	0
4447	0	0
4448	0	0
4449	0	0
4450	0	0
4451	0	0
4452	0	0
4453	0	0
4454	0	0
4455	0	0
4456	0	0.984312
4457	0	0.996078
4458	1	1
4459	1	1
4460	1	1
4461	1	1
4462	1	1
4463	0	1
4464	1	1
4465	0	1
4466	1	1
4467	1	1
4468	1	1
4469	1	1
4470	1	1
4471	1	1
4472	1	0
4473	1	0
4474	1	0
4475	1	1
4476	1	1
4477	1	1
4478	0	1
4479	1	1
4480	1	1
4481	1	1
4482	1	1
4483	1	1
4484	1	1
4485	1	1
4486	1	1
4487	1	1
4488	1	1
4489	1	1
4490	1	1
4491	1	1
4492	1	1
4493	1	1
4494	1	1
4495	1	1
4496	0	1
4497	1	1
4498	1	1
4499	1	1
4500	1	1
4501	1	1
4502	1	1
4503	1	1
4504	1	1
4505	1	1
4506	1	1
4507	1	1
4508	1	1
4509	1	1
4510	1	1
4511	1	1
4512	1	1
4513	1	1
4514	1	1
4515	1	1
4516	1	1
4517	1	1
4518	0	1
4519	1	1
4520	1	1
4521	1	1
4522	0	1
4523	0	1
4524	0	0
4525	0	0
4526	1	0
4527	1	0
4528	1	0
4529	1	0
4530	1	0
4531	1	0
4532	1	0
4533	0	0.996088
4534	0	0.996088
4535	0	0.998043
4536	0	0.998043
4537	0	0
4538	0	0
4539	0	0
4540	0	0
4541	0	0
4542	0	0
4543	0	0
4544	0	0
4545	0	0
4546	0	0
4547	0	0
4548	0	0
4549	0	0
4550	0	0
4551	0	0
4552	0	0
4553	0	0
4554	0	0
4555	0	0
4556	0	0
4557	0	0
4558	0	0
4559	0	0
4560	0	0
4561	0	0
4562	0	0
4563	0	0
4564	0	0
4565	0	0
4566	0	0
4567	0	0.998041
4568	0	0
4569	0	0
4570	0	0
4571	0	0
4572	0	0
4573	0	0
4574	0	0
4575	0	0
4576	0	0
4577	0	0
4578	0	0
4579	0	0
4580	0	0
4581	0	0
4582	0	0
4583	0	0
4584	0	0
4585	0	0
4586	0	0
4587	0	0
4588	0	0
4589	0	0
4590	0	0
4591	0	0
4592	0	0
4593	0	0
4594	0	0
4595	0	0
4596	0	0
4597	0	0
4598	0	0
4599	0	0
4600	0	0
4601	0	0
4602	0	0
4603	0	0
4604	0	0
4605	0	0
4606	0	0
4607	0	0
4608	0	0
4609	0	0
4610	0	0
4611	0	0
4612	0	0
4613	0	0
4614	0	0
4615	0	0
4616	0	0
4617	0	0
4618	0	0
4619	0	0
4620	0	0
4621	0	0
4622	0	0
4623	0	0
4624	0	0
4625	0	0
4626	0	0
4627	0	0
4628	0	0
4629	0	0
4630	0	0
4631	0	0
4632	0	0
4633	0	0
4634	0	0
4635	0	0
4636	0	0
4637	0	0
4638	0	0
4639	0	0
4640	0	0
4641	0	0
4642	0	0
4643	0	0
4644	0	0
4645	0	0
4646	0	0
4647	0	0
4648	0	0
4649	0	0
4650	0	0
4651	0	0
4652	0	0
4653	0	0
4654	0	0
4655	0	0
4656	0	0
4657	0	0
4658	0	0
4659	0	0
4660	0	0
4661	0	0
4662	0	0
4663	0	0
4664	0	0
4665	0	0
4666	0	0
4667	0	0
4668	0	0
4669	0	0
4670	0	0
4671	0	0
4672	0	0
4673	0	0
4674	0	0
4675	0	0
4676	0	0
4677	0	0
4678	0	0
4679	0	0
4680	0	0
4681	0	0
4682	0	0
4683	0	0
4684	0	0
4685	0	0
4686	0	0
4687	0	0
4688	0	0
4689	0	0
4690	0	0
4691	0	0
4692	0	0
4693	0	0
4694	0	0
4695	0	0
4696	0	0
4697	0	0
4698	0	0
4699	0	0
4700	0	0
4701	0	0
4702	0	0
4703	0	0
4704	0	0
4705	0	0
4706	0	0
4707	0	0
4708	0	0
4709	0	0
4710	0	0
4711	0	0
4712	0	0
4713	0	0
4714	0	0
4715	0	0
4716	0	0
4717	0	0
4718	0	0
4719	0	0
4720	0	0
4721	0	0
4722	0	0
4723	0	0
4724	0	0.986342
4725	0	0.166667
4726	0	0.166667
4727	0	0.166667
4728	0	0.166667
4729	0	0.166667
4730	0	0.166667
4731	0	0.166667
4732	0	0.166667
4733	0	0.166667
4734	0	0.166667
4735	0	0.1
4736	0	0.1
4737	0	0
4738	0	0
4739	0	0.0357143
4740	0	0.209524
4741	0	0.191667
4742	0	0.191667
4743	0	0.241667
4744	0	0.196078
4745	0	0.213235
4746	0	0.24183
4747	0	0.216374
4748	0	0.216374
4749	0	0.216374
4750	0	0.194737
4751	0	0.189474
4752	0	0.189474
4753	0	0.263158
4754	0	0.236842
4755	0	0.181818
4756	0	0.156667
4757	0	0.144615
4758	0	0.121839
4759	0	0.113978
4760	0	0.104167
4761	0	0.0941176
4762	0	0.0904762
4763	0	0.0855856
4764	0	0.0789779
4765	0	0.0753045
4766	0	0.901366
4767	0	0.1
4768	0	0.1
4769	0	0.1
4770	0	0.1
4771	0	0.0666667
4772	0	0.0666667
4773	0	0.0666667
4774	0	0.0666667
4775	0	0.0666667
4776	0	0.0666667
4777	0	0.0666667
4778	0	0
4779	0	0
4780	0	0
4781	0	0
4782	0	0.0277778
4783	0	0
4784	0	0.862483
4785	0	0.359684
4786	0	0.359684
4787	0	0.359684
4788	0	0.21371
4789	0	0.204433
4790	0	0.190805
4791	0	0.190805
4792	0	0.157197
4793	0	0.144444
4794	0	0.128023
4795	0	0.479505
4796	0	0.476633
4797	0	0.180063
4798	0	0.0865335
4799	0	0.0865335
4800	0	0.337092
4801	0	0.327136
4802	0	0.31392
4803	0	0.0828373
4804	0	0.0254707
4805	0	0.0285714
4806	0	0.0137931
4807	0	0.0133333
4808	0	0.0237154
4809	0	0.0285714
4810	0	0.0350877
4811	0	0.0367647
4812	0	0.0416667
4813	0	0.0416667
4814	0	0.032967
4815	0	0
4816	0	0
4817	0	0
4818	0	0
4819	0	0
4820	0	0
4821	0	0
4822	0	0
4823	0	0
4824	0	0
4825	0	0
4826	0	0
4827	0	0
4828	0	0
4829	0	0
4830	0	0
4831	0	0
4832	0	0
4833	0	0
4834	0	0
4835	0	0
4836	0	0
4837	0	0
4838	0	0
4839	0	0
4840	0	0
4841	0	0
4842	0	0
4843	0	0
4844	0	0
4845	0	0
4846	0	0
4847	0	0
4848	0	0
4849	0	0
4850	0	0
4851	0	0
4852	0	0
4853	0	0
4854	0	0
4855	0	0
4856	0	0
4857	0	0
4858	0	0
4859	0	0
4860	0	0
4861	0	0
4862	0	0
4863	0	0
4864	0	0
4865	0	0
4866	0	0
4867	0	0
4868	0	0
4869	0	0
4870	0	0
4871	0	0
4872	0	0
4873	0	0
4874	0	0
4875	0	0
4876	0	0
4877	0	0
4878	0	0
4879	0	0
4880	0	0
4881	0	0
4882	0	0
4883	0	0
4884	0	0
4885	0	0
4886	0	0
4887	0	0
4888	0	0
4889	0	0
4890	0	0
4891	1	0
4892	1	0
4893	1	0
4894	1	0
4895	1	0
4896	1	0
4897	1	0
4898	1	0
4899	1	0
4900	1	0
4901	1	0
4902	1	0
4903	1	0
4904	1	0
4905	1	0
4906	1	0
4907	1	0
4908	1	0
4909	0	0
4910	0	0
4911	0	0
4912	0	0
4913	0	0
4914	0	0
4915	0	0
4916	0	0
4917	0	0
4918	0	0
4919	0	0
4920	0	0
4921	0	0
4922	0	0
4923	0	0
4924	0	0
4925	0	0
4926	0	0
4927	0	0
4928	1	0
4929	1	0
4930	1	0
4931	1	0
4932	1	0
4933	1	0
4934	1	0
4935	1	0
4936	1	0
4937	1	0
4938	1	0
4939	0	0
4940	0	0
4941	0	0
4942	0	0
4943	0	0
4944	0	0
4945	0	0
4946	0	0
4947	0	0
4948	0	0
4949	0	0
4950	0	0
4951	0	0
4952	0	0
4953	0	0
4954	0	0
4955	0	0
4956	0	0
4957	0	0
4958	0	0
4959	0	0
4960	0	0
4961	0	0
4962	0	0
4963	0	0
4964	1	0
4965	1	0
4966	0	0
4967	0	0
4968	0	0
4969	0	0
4970	0	0
4971	0	0
4972	0	0
4973	0	0
4974	1	0
4975	1	0
4976	1	0
4977	1	0
4978	1	0
4979	1	0
4980	1	0
4981	1	0
4982	1	0
4983	1	0
4984	1	0
4985	1	0
4986	1	0
4987	1	0
4988	1	0
4989	1	0
4990	1	0
4991	1	0
4992	1	0
4993	1	0
4994	1	0
4995	1	0
4996	1	0
4997	1	0
4998	1	0
4999	1	0
5000	1	0
5001	1	0
5002	1	0
5003	1	0
5004	1	0
5005	1	0
5006	1	0
5007	1	0
5008	1	0
5009	1	0
5010	1	0
5011	1	0
5012	1	0
5013	1	0
5014	1	0
