Site	ColumnScore	SumOfPairsScore
1	1	0
2	1	0
3	1	0
4	1	0
5	1	0
6	1	0
7	1	0
8	1	0
9	1	0
10	1	0
11	1	0
12	1	0
13	1	0
14	1	0
15	1	0
16	1	0
17	1	0
18	1	0
19	1	0
20	1	0
21	1	0
22	1	0
23	1	0
24	1	0
25	1	0
26	1	0
27	1	0
28	1	0
29	1	0
30	1	0
31	1	0
32	1	0
33	1	0
34	1	0
35	1	0
36	1	0
37	1	0
38	1	0
39	1	0
40	1	0
41	1	0
42	1	0
43	1	0
44	1	0
45	1	0
46	1	0
47	1	0
48	1	0
49	1	0
50	1	0
51	1	0
52	1	0
53	1	0
54	1	0
55	1	0
56	1	0
57	1	0
58	1	0
59	1	0
60	1	0
61	1	0
62	1	0
63	1	0
64	1	0
65	1	0
66	1	0
67	1	0
68	1	0
69	1	0
70	1	0
71	1	0
72	1	0
73	1	0
74	1	0
75	1	0
76	1	0
77	1	0
78	1	0
79	1	0
80	1	0
81	1	0
82	1	0
83	1	0
84	1	0
85	1	0
86	1	0
87	1	0
88	1	0
89	1	0
90	1	0
91	1	0
92	1	0
93	1	0
94	1	0
95	1	0
96	1	0
97	1	0
98	1	0
99	1	0
100	1	0
101	1	0
102	1	0
103	1	0
104	1	0
105	1	0
106	1	0
107	1	0
108	1	0
109	1	0
110	1	0
111	1	0
112	1	0
113	1	0
114	1	0
115	1	0
116	1	0
117	1	0
118	1	0
119	1	0
120	1	0
121	1	0
122	1	0
123	1	0
124	1	0
125	1	0
126	1	0
127	1	0
128	1	0
129	1	0
130	1	0
131	1	0
132	1	0
133	1	0
134	1	0
135	1	0
136	1	0
137	1	0
138	1	0
139	1	0
140	1	0
141	1	0
142	1	0
143	1	0
144	1	0
145	1	0
146	1	0
147	1	0
148	1	0
149	1	0
150	1	0
151	1	0
152	1	0
153	1	0
154	1	0
155	1	0
156	1	0
157	1	0
158	1	0
159	1	0
160	1	0
161	1	0
162	1	0
163	1	0
164	1	0
165	1	0
166	1	0
167	1	0
168	1	0
169	1	0
170	1	0
171	1	0
172	1	0
173	1	0
174	1	0
175	1	0
176	1	0
177	1	0
178	1	0
179	1	0
180	1	0
181	1	0
182	1	0
183	1	0
184	1	0
185	1	0
186	1	0
187	1	0
188	1	0
189	1	0
190	1	0
191	1	0
192	1	0
193	1	0
194	1	0
195	1	0
196	1	0
197	1	0
198	1	0
199	1	0
200	1	0
201	1	0
202	1	0
203	1	0
204	1	0
205	1	0
206	1	0
207	1	0
208	1	0
209	1	0
210	1	0
211	1	0
212	1	0
213	1	0
214	1	0
215	1	0
216	1	0
217	1	0
218	1	0
219	1	0
220	1	0
221	1	0
222	1	0
223	1	0
224	1	0
225	1	0
226	1	0
227	1	0
228	1	0
229	1	0
230	1	0
231	1	0
232	1	0
233	1	0
234	1	0
235	1	0
236	1	0
237	1	0
238	1	0
239	1	0
240	1	0
241	1	0
242	1	0
243	1	0
244	1	0
245	1	0
246	1	0
247	1	0
248	1	0
249	1	0
250	1	0
251	1	0
252	1	0
253	1	0
254	1	0
255	1	0
256	1	0
257	1	0
258	1	0
259	1	0
260	1	0
261	1	0
262	1	0
263	1	0
264	1	0
265	1	0
266	1	0
267	1	0
268	1	0
269	1	0
270	1	0
271	1	0
272	1	0
273	1	0
274	1	0
275	1	0
276	1	0
277	1	0
278	1	0
279	1	0
280	1	0
281	1	0
282	1	0
283	1	0
284	1	0
285	1	0
286	1	0
287	1	0
288	1	0
289	1	0
290	1	0
291	1	0
292	1	0
293	1	0
294	1	0
295	1	0
296	1	0
297	1	0
298	1	0
299	1	0
300	1	0
301	1	0
302	1	0
303	1	0
304	1	0
305	1	0
306	1	0
307	1	0
308	1	0
309	1	0
310	1	0
311	1	0
312	1	0
313	1	0
314	1	0
315	1	0
316	1	0
317	1	0
318	1	0
319	1	0
320	1	0
321	1	0
322	1	0
323	1	0
324	1	0
325	1	0
326	1	0
327	1	0
328	1	0
329	1	0
330	1	0
331	1	0
332	1	0
333	1	0
334	1	0
335	1	0
336	1	0
337	1	0
338	1	0
339	1	0
340	1	0
341	1	0
342	1	0
343	1	0
344	1	0
345	1	0
346	1	0
347	1	0
348	1	0
349	1	0
350	1	0
351	1	0
352	1	0
353	1	0
354	1	0
355	1	0
356	1	0
357	1	0
358	1	0
359	1	0
360	1	0
361	1	0
362	1	0
363	1	0
364	1	0
365	1	0
366	1	0
367	1	0
368	1	0
369	1	0
370	1	0
371	1	0
372	1	0
373	1	0
374	1	0
375	1	0
376	1	0
377	1	0
378	1	0
379	1	0
380	1	0
381	1	0
382	1	0
383	1	0
384	1	0
385	1	0
386	1	0
387	1	0
388	1	0
389	1	0
390	1	0
391	1	0
392	1	0
393	1	0
394	1	0
395	1	0
396	1	0
397	1	0
398	1	0
399	1	0
400	1	0
401	1	0
402	1	0
403	1	0
404	1	0
405	1	0
406	1	0
407	1	0
408	1	0
409	1	0
410	1	0
411	1	0
412	1	0
413	1	0
414	1	0
415	1	0
416	1	0
417	1	0
418	1	0
419	1	0
420	1	0
421	1	0
422	1	0
423	1	0
424	1	0
425	1	0
426	1	0
427	1	0
428	1	0
429	1	0
430	1	0
431	1	0
432	1	0
433	1	0
434	1	0
435	1	0
436	1	0
437	1	0
438	1	0
439	1	0
440	1	0
441	1	0
442	1	0
443	1	0
444	1	0
445	1	0
446	1	0
447	1	0
448	1	0
449	1	0
450	1	0
451	1	0
452	1	0
453	1	0
454	1	0
455	1	0
456	1	0
457	1	0
458	1	0
459	1	0
460	1	0
461	1	0
462	1	0
463	1	0
464	1	0
465	1	0
466	1	0
467	1	0
468	1	0
469	1	0
470	1	0
471	1	0
472	1	0
473	1	0
474	1	0
475	1	0
476	1	0
477	1	0
478	1	0
479	1	0
480	1	0
481	1	0
482	1	0
483	1	0
484	1	0
485	1	0
486	1	0
487	1	0
488	1	0
489	1	0
490	1	0
491	1	0
492	1	0
493	1	0
494	1	0
495	1	0
496	1	0
497	1	0
498	1	0
499	1	0
500	1	0
501	1	0
502	1	0
503	1	0
504	1	0
505	1	0
506	1	0
507	1	0
508	1	0
509	1	0
510	1	0
511	1	0
512	1	0
513	1	0
514	1	0
515	1	0
516	1	0
517	1	0
518	1	0
519	1	0
520	1	0
521	1	0
522	1	0
523	1	0
524	1	0
525	1	0
526	1	0
527	1	0
528	1	0
529	1	0
530	1	0
531	1	0
532	1	0
533	1	0
534	1	0
535	1	0
536	1	0
537	1	0
538	1	0
539	1	0
540	1	0
541	1	0
542	1	0
543	1	0
544	1	0
545	1	0
546	1	0
547	1	0
548	1	0
549	1	0
550	1	0
551	1	0
552	1	0
553	1	0
554	1	0
555	1	0
556	1	0
557	1	0
558	1	0
559	1	0
560	1	0
561	1	0
562	1	0
563	1	0
564	1	0
565	1	0
566	1	0
567	1	0
568	1	0
569	1	0
570	1	0
571	1	0
572	1	0
573	1	0
574	1	0
575	1	0
576	1	0
577	1	0
578	1	0
579	1	0
580	1	0
581	1	0
582	1	0
583	1	0
584	1	0
585	1	0
586	1	0
587	1	0
588	1	0
589	1	0
590	1	0
591	1	0
592	1	0
593	1	0
594	1	0
595	1	0
596	1	0
597	1	0
598	1	0
599	1	0
600	1	0
601	1	0
602	1	0
603	1	0
604	1	0
605	1	0
606	1	0
607	1	0
608	1	0
609	1	0
610	1	0
611	1	0
612	1	0
613	1	0
614	1	0
615	1	0
616	1	0
617	1	0
618	1	0
619	1	0
620	1	0
621	1	0
622	1	0
623	1	0
624	1	0
625	1	0
626	1	0
627	1	0
628	1	0
629	1	0
630	1	0
631	1	0
632	1	0
633	1	0
634	1	0
635	1	0
636	1	0
637	1	0
638	1	0
639	1	0
640	1	0
641	1	0
642	1	0
643	1	0
644	0	0
645	0	0
646	0	0
647	0	0
648	0	0
649	0	0
650	0	0
651	0	0
652	0	0
653	0	0
654	0	0
655	0	0
656	0	0
657	0	0
658	0	0
659	0	0
660	0	0
661	0	0
662	0	0
663	0	0
664	0	0
665	0	0
666	0	0
667	0	0
668	0	0
669	0	0
670	0	0
671	0	0
672	0	0
673	0	0
674	0	0
675	0	0
676	0	0
677	0	0
678	0	0
679	0	0
680	0	0
681	0	0
682	0	0
683	0	0
684	0	0
685	1	0
686	1	0
687	1	0
688	1	0
689	1	0
690	1	0
691	1	0
692	1	0
693	1	0
694	1	0
695	1	0
696	1	0
697	1	0
698	1	0
699	1	0
700	1	0
701	1	0
702	1	0
703	1	0
704	0	0
705	0	0
706	0	0
707	0	0
708	0	0
709	0	0
710	0	0
711	1	0
712	1	0
713	1	0
714	1	0
715	1	0
716	1	0
717	1	0
718	1	0
719	1	0
720	1	0
721	1	0
722	0	0
723	0	0
724	1	0
725	0	0
726	0	0
727	0	0
728	0	0
729	1	0
730	1	0
731	1	0
732	1	0
733	0	0
734	0	0
735	0	0
736	0	0
737	0	0
738	0	0
739	0	0
740	0	0
741	0	0
742	0	0
743	0	0
744	0	0
745	0	0
746	0	0
747	0	0
748	0	0
749	0	0
750	0	0
751	0	0
752	0	0
753	0	0
754	0	0
755	0	0
756	0	0
757	0	0
758	0	0
759	0	0
760	0	0
761	0	0
762	0	0
763	0	0
764	0	0
765	0	0
766	0	0
767	0	0
768	0	0
769	0	0
770	0	0
771	0	0
772	0	0
773	0	0
774	0	0
775	0	0
776	0	0
777	0	0
778	0	0
779	0	0
780	0	0
781	0	0
782	0	0
783	0	0
784	0	0
785	0	0
786	0	0
787	0	0
788	0	0
789	0	0
790	0	0
791	0	0
792	0	0
793	0	0
794	0	0
795	0	0
796	0	0
797	0	0
798	0	0
799	0	0
800	0	0
801	0	0
802	0	0
803	0	0
804	0	0
805	0	0
806	0	0
807	0	0
808	0	0
809	0	0
810	0	0
811	0	0
812	0	0
813	0	0
814	0	0
815	0	0
816	0	0
817	0	0
818	0	0
819	0	0
820	0	0
821	0	0
822	0	0
823	0	0
824	0	0
825	0	0
826	0	0
827	0	0
828	0	0
829	0	0
830	0	0
831	0	0
832	0	0
833	0	0
834	0	0
835	0	0
836	0	0
837	0	0
838	0	0
839	0	0
840	0	0
841	0	0
842	0	0
843	0	0
844	0	0
845	0	0
846	0	0
847	0	0
848	0	0
849	0	0
850	0	0
851	0	0
852	0	0
853	0	0
854	0	0
855	0	0
856	0	0
857	0	0
858	0	0
859	0	0
860	0	0
861	0	0
862	0	0
863	0	0
864	0	0
865	0	0
866	0	0
867	0	0
868	0	0
869	0	0
870	0	0
871	0	0
872	0	0
873	0	0
874	0	0
875	0	0
876	0	0
877	0	0
878	0	0
879	0	0
880	0	0
881	0	0
882	0	0
883	0	0
884	0	0
885	0	0
886	0	0
887	0	0
888	0	0
889	0	0
890	0	0
891	0	0
892	0	0
893	0	0
894	0	0
895	0	0
896	0	0
897	0	0
898	0	0
899	0	0
900	0	0
901	0	0
902	0	0
903	0	0
904	0	0
905	0	0
906	0	0
907	0	0
908	0	0
909	0	0
910	0	0
911	0	0
912	0	0
913	0	0
914	0	0
915	0	0
916	0	0
917	0	0
918	0	0
919	0	0
920	0	0
921	0	0
922	0	0
923	0	0
924	0	0
925	0	0
926	0	0
927	0	0
928	0	0
929	0	0
930	0	0
931	0	0
932	0	0
933	0	0
934	0	0
935	0	0
936	0	0
937	0	0
938	0	0
939	0	0
940	0	0
941	0	0
942	0	0
943	0	0
944	0	0
945	0	0
946	0	0
947	0	0
948	0	0
949	0	0
950	0	0
951	0	0
952	0	0
953	0	0
954	0	0
955	0	0
956	0	0
957	0	0
958	0	0
959	0	0
960	0	0
961	0	0
962	0	0
963	0	0
964	0	0
965	0	0
966	0	0
967	0	0
968	0	0
969	0	0
970	0	0
971	0	0
972	0	0
973	0	0
974	0	0
975	0	0
976	0	0
977	0	0
978	0	0
979	0	0
980	0	0
981	0	0
982	0	0
983	0	0
984	0	0
985	0	0
986	0	0
987	0	0
988	0	0
989	0	0
990	0	0
991	0	0
992	0	0
993	0	0
994	0	0
995	0	0
996	0	0
997	0	0
998	0	0
999	0	0
1000	0	0
1001	0	0
1002	0	0
1003	0	0
1004	0	0
1005	0	0
1006	0	0
1007	0	0
1008	0	0
1009	0	0
1010	0	0
1011	0	0
1012	0	0
1013	0	0
1014	0	0
1015	0	0
1016	0	0
1017	0	0
1018	0	0
1019	0	0
1020	0	0
1021	0	0
1022	0	0
1023	0	0
1024	0	0
1025	0	0
1026	0	0
1027	0	0
1028	0	0
1029	0	0
1030	0	0
1031	0	0
1032	0	0
1033	0	0
1034	0	0
1035	0	0
1036	0	0
1037	0	0
1038	0	0
1039	0	0
1040	0	0
1041	0	0
1042	0	0
1043	0	0
1044	0	0
1045	0	0
1046	0	0
1047	0	0
1048	0	0
1049	0	0
1050	0	0
1051	0	0
1052	0	0
1053	0	0
1054	0	0
1055	0	0
1056	0	0
1057	0	0
1058	0	0
1059	0	0
1060	0	0
1061	0	0
1062	0	0
1063	0	0
1064	0	0
1065	0	0
1066	0	0
1067	0	0
1068	0	0
1069	0	0
1070	0	0
1071	0	0
1072	0	0
1073	0	0
1074	0	0
1075	0	0
1076	0	0
1077	0	0
1078	0	0
1079	0	0
1080	0	0
1081	0	0
1082	0	0
1083	0	0
1084	0	0
1085	0	0
1086	0	0
1087	0	0
1088	0	0
1089	0	0
1090	0	0
1091	0	0
1092	0	0
1093	0	0
1094	0	0
1095	0	0
1096	0	0
1097	0	0
1098	0	0
1099	0	0
1100	0	0
1101	0	0
1102	0	0
1103	0	0
1104	0	0
1105	0	0
1106	0	0
1107	0	0
1108	0	0
1109	0	0
1110	0	0
1111	0	0
1112	0	0
1113	0	0
1114	0	0
1115	0	0
1116	0	0
1117	0	0
1118	0	0
1119	0	0
1120	0	0
1121	0	0.0666667
1122	0	0.0666667
1123	0	0.0666667
1124	0	0.0666667
1125	0	0.0666667
1126	0	0.0666667
1127	0	0.0666667
1128	0	0.0666667
1129	0	0.0666667
1130	0	0.0666667
1131	0	0.0666667
1132	0	0.0666667
1133	0	0.0666667
1134	0	0.0666667
1135	0	0.0666667
1136	0	0.0666667
1137	0	0.0666667
1138	0	0.0666667
1139	0	0.0666667
1140	0	0.0666667
1141	0	0.0666667
1142	0	0.0666667
1143	0	0.0666667
1144	0	0.0666667
1145	0	0.0666667
1146	0	0.0666667
1147	0	0.0666667
1148	0	0.0666667
1149	0	0.0666667
1150	0	0.0666667
1151	0	0.0666667
1152	0	0.0666667
1153	0	0.0666667
1154	0	0.0666667
1155	0	0.0666667
1156	0	0.0666667
1157	0	0.0666667
1158	0	0.0666667
1159	0	0.0666667
1160	0	0.0666667
1161	0	0.0666667
1162	0	0.0666667
1163	0	0.0666667
1164	0	0.0666667
1165	0	0.0666667
1166	0	0.0666667
1167	0	0.0666667
1168	0	0.0666667
1169	0	0.0666667
1170	0	0.0666667
1171	0	0.0666667
1172	0	0.0666667
1173	0	0.0666667
1174	0	0.0666667
1175	0	0.0666667
1176	0	0.0666667
1177	0	0.0666667
1178	0	0.0666667
1179	0	0.0666667
1180	0	0.0666667
1181	0	0.0666667
1182	0	0.0666667
1183	0	0.0666667
1184	0	0.0666667
1185	0	0.0666667
1186	0	0.0666667
1187	0	0.0666667
1188	0	0.0666667
1189	0	0.0666667
1190	0	0.0666667
1191	0	0.0666667
1192	0	0.0666667
1193	0	0.0666667
1194	0	0.0666667
1195	0	0.0666667
1196	0	0.0666667
1197	0	0.0666667
1198	0	0.0666667
1199	0	0.0666667
1200	0	0.0666667
1201	0	0.0666667
1202	0	0.0666667
1203	0	0.0666667
1204	0	0.0666667
1205	0	0.0666667
1206	0	0.0666667
1207	0	0.0666667
1208	0	0.0666667
1209	0	0.0666667
1210	0	0.0666667
1211	0	0.0666667
1212	0	0.0666667
1213	0	0.0666667
1214	0	0.0666667
1215	0	0.0666667
1216	0	0.0666667
1217	0	0.0666667
1218	0	0.0666667
1219	0	0.0666667
1220	0	0.0666667
1221	0	0.0666667
1222	0	0.0666667
1223	0	0.0666667
1224	0	0.0666667
1225	0	0.0666667
1226	0	0.0666667
1227	0	0.0666667
1228	0	0.0666667
1229	0	0.0666667
1230	0	0.0666667
1231	0	0.0666667
1232	0	0.0666667
1233	0	0.133333
1234	0	0.133333
1235	0	0.0666667
1236	0	0.0666667
1237	0	0.0666667
1238	0	0.0666667
1239	0	0.0666667
1240	0	0.0666667
1241	0	0.0666667
1242	0	0.0666667
1243	0	0.0666667
1244	0	0.0666667
1245	0	0.0666667
1246	0	0.133333
1247	0	0.133333
1248	0	0.133333
1249	0	0.133333
1250	0	0.133333
1251	0	0.133333
1252	0	0.133333
1253	0	0.133333
1254	0	0.133333
1255	0	0.133333
1256	0	0.133333
1257	0	0.133333
1258	0	0.133333
1259	0	0.133333
1260	0	0.133333
1261	0	0.133333
1262	0	0.133333
1263	0	0.0666667
1264	0	0.0666667
1265	0	0.0666667
1266	0	0.0666667
1267	0	0.0666667
1268	0	0.0666667
1269	0	0.0666667
1270	0	0.0666667
1271	0	0.0666667
1272	0	0.0666667
1273	0	0.0666667
1274	0	0.0666667
1275	0	0.0666667
1276	0	0.0666667
1277	0	0.0666667
1278	0	0.0666667
1279	0	0.0666667
1280	0	0.0666667
1281	0	0.0666667
1282	0	0.0666667
1283	0	0.0666667
1284	0	0.0666667
1285	0	0.0666667
1286	0	0.0666667
1287	0	0.0666667
1288	0	0.0666667
1289	0	0.0666667
1290	0	0.0666667
1291	0	0.0666667
1292	0	0.0666667
1293	0	0.0666667
1294	0	0.0666667
1295	0	0.0666667
1296	0	0.0666667
1297	0	0.0666667
1298	0	0.0666667
1299	0	0.0666667
1300	0	0.0666667
1301	0	0.0666667
1302	0	0.0666667
1303	0	0.0666667
1304	0	0.0666667
1305	0	0.0666667
1306	0	0.0666667
1307	0	0.0666667
1308	0	0.0666667
1309	0	0.0666667
1310	0	0.0666667
1311	0	0.0666667
1312	0	0.0666667
1313	0	0.0666667
1314	0	0.0666667
1315	0	0.0666667
1316	0	0.0666667
1317	0	0.0666667
1318	0	0.0666667
1319	0	0.0666667
1320	0	0.0666667
1321	0	0.0666667
1322	0	0.0666667
1323	0	0.0666667
1324	0	0.0666667
1325	0	0.0666667
1326	0	0.0666667
1327	0	0.0666667
1328	0	0.0666667
1329	0	0.0666667
1330	0	0.0666667
1331	0	0.0666667
1332	0	0.0666667
1333	0	0.0666667
1334	0	0.0666667
1335	0	0.0666667
1336	0	0.0666667
1337	0	0.0666667
1338	0	0.0666667
1339	0	0.0666667
1340	0	0.0666667
1341	0	0.266667
1342	0	0.190476
1343	0	0.190476
1344	0	0.190476
1345	0	0.190476
1346	0	0.190476
1347	0	0.190476
1348	0	0.190476
1349	0	0.190476
1350	0	0.142857
1351	0	0.371795
1352	0	0.371795
1353	0	0.371795
1354	0	0.863581
1355	0	0.863581
1356	0	0.863581
1357	0	0.839593
1358	0	0.839593
1359	0	0.839593
1360	0	0.839593
1361	0	0.839593
1362	0	0.839593
1363	0	0.794891
1364	0	0.794891
1365	0	0.794891
1366	0	0.794891
1367	0	0.773694
1368	0	0.773694
1369	0	0.773694
1370	0	0.773694
1371	0	0.773694
1372	0	0.773694
1373	0	0.797477
1374	0	0.797477
1375	0	0.797477
1376	0	0.797477
1377	0	0.797477
1378	0	0.797477
1379	0	0.797477
1380	0	0.797477
1381	0	0.797477
1382	0	0.797477
1383	0	0.797477
1384	0	0.802461
1385	0	0.849966
1386	0	0.849966
1387	0	0.849966
1388	0	0.849966
1389	0	0.849966
1390	0	0.849966
1391	0	0.849966
1392	0	0.849966
1393	0	0.849966
1394	0	0.849966
1395	0	0.849966
1396	0	0.849966
1397	0	0.849966
1398	0	0.828172
1399	0	0.828172
1400	0	0.828172
1401	0	0.828172
1402	0	0.828172
1403	0	0.828172
1404	0	0.816971
1405	0	0.828172
1406	0	0.828172
1407	0	0.828172
1408	0	0.787342
1409	0	0.787342
1410	0	0.787342
1411	0	0.78481
1412	0	0.76519
1413	0	0.76519
1414	0	0.76519
1415	0	0.76519
1416	0	0.76519
1417	0	0.76519
1418	0	0.746296
1419	0	0.746296
1420	0	0.746296
1421	0	0.746296
1422	0	0.746296
1423	0	0.746296
1424	0	0.746296
1425	0	0.746296
1426	0	0.746296
1427	0	0.746296
1428	0	0.764873
1429	0	0.767593
1430	0	0.767593
1431	0	0.767593
1432	0	0.767593
1433	0	0.767593
1434	0	0.767593
1435	0	0.767593
1436	0	0.79193
1437	0	0.79193
1438	0	0.79193
1439	0	0.79193
1440	0	0.79193
1441	0	0.79193
1442	0	0.79193
1443	0	0.79193
1444	0	0.79193
1445	0	0.772847
1446	0	0.794299
1447	0	0.794299
1448	0	0.794299
1449	0	0.794299
1450	0	0.794299
1451	0	0.775674
1452	0	0.725207
1453	0	0.725207
1454	0	0.708725
1455	0	0.708725
1456	0	0.671108
1457	0	0.708725
1458	0	0.708725
1459	0	0.708725
1460	0	0.671108
1461	0	0.708725
1462	0	0.708725
1463	0	0.708725
1464	0	0.708725
1465	0	0.708725
1466	0	0.708725
1467	0	0.708725
1468	0	0.708725
1469	0	0.708725
1470	0	0.708725
1471	0	0.708725
1472	0	0.708464
1473	0	0.708464
1474	0	0.692799
1475	0	0.692799
1476	0	0.692799
1477	0	0.692799
1478	0	0.692799
1479	0	0.692799
1480	0	0.692799
1481	0	0.692799
1482	0	0.692799
1483	0	0.692799
1484	0	0.692799
1485	0	0.692799
1486	0	0.692799
1487	0	0.692799
1488	0	0.692799
1489	0	0.692799
1490	0	0.692799
1491	0	0.692799
1492	0	0.692799
1493	0	0.677403
1494	0	0.677403
1495	0	0.677403
1496	0	0.677403
1497	0	0.677403
1498	0	0.692799
1499	0	0.692799
1500	0	0.692799
1501	0	0.692799
1502	0	0.692799
1503	0	0.692799
1504	0	0.692799
1505	0	0.692799
1506	0	0.692799
1507	0	0.692799
1508	0	0.692799
1509	0	0.692799
1510	0	0.692799
1511	0	0.692799
1512	0	0.692799
1513	0	0.692799
1514	0	0.692799
1515	0	0.692799
1516	0	0.692799
1517	0	0.692799
1518	0	0.692799
1519	0	0.692799
1520	0	0.692799
1521	0	0.692799
1522	0	0.692799
1523	0	0.692799
1524	0	0.656027
1525	0	0.656027
1526	0	0.692799
1527	0	0.692799
1528	0	0.692799
1529	0	0.692799
1530	0	0.674157
1531	0	0.689655
1532	0	0.689655
1533	0	0.689655
1534	0	0.689655
1535	0	0.689655
1536	0	0.689655
1537	0	0.689655
1538	0	0.689655
1539	0	0.689655
1540	0	0.689655
1541	0	0.689655
1542	0	0.689655
1543	0	0.689655
1544	0	0.689655
1545	0	0.689655
1546	0	0.689655
1547	0	0.689655
1548	0	0.689655
1549	0	0.689655
1550	0	0.689655
1551	0	0.689655
1552	0	0.689655
1553	0	0.689655
1554	0	0.689655
1555	0	0.689655
1556	0	0.689655
1557	0	0.689655
1558	0	0.689655
1559	0	0.689655
1560	0	0.689655
1561	0	0.674157
1562	0	0.65256
1563	0	0.634796
1564	0	0.634796
1565	0	0.634796
1566	0	0.634274
1567	0	0.51907
1568	0	0.51907
1569	0	0.51907
1570	0	0.51907
1571	0	0.51907
1572	0	0.452553
1573	0	0.313553
1574	0	0.1
1575	0	0.183333
1576	0	0.169118
1577	0	0.219212
1578	0	0.184939
1579	0	0.562771
1580	0	0.68591
1581	0	0.692268
1582	0	0.714249
1583	0	0.714249
1584	0	0.714249
1585	0	0.714249
1586	0	0.714249
1587	0	0.714249
1588	0	0.714249
1589	0	0.714249
1590	0	0.714249
1591	0	0.714249
1592	0	0.714249
1593	0	0.714249
1594	0	0.714249
1595	0	0.714249
1596	0	0.676966
1597	0	0.714249
1598	0	0.714249
1599	0	0.714249
1600	0	0.714249
1601	0	0.714249
1602	0	0.714249
1603	0	0.714249
1604	0	0.714249
1605	0	0.714249
1606	0	0.714249
1607	0	0.714249
1608	0	0.714249
1609	0	0.714249
1610	0	0.714249
1611	0	0.714249
1612	0	0.714249
1613	0	0.714249
1614	0	0.714249
1615	0	0.714249
1616	0	0.714249
1617	0	0.714249
1618	0	0.714249
1619	0	0.714249
1620	0	0.714249
1621	0	0.714249
1622	0	0.714249
1623	0	0.714249
1624	0	0.714249
1625	0	0.714249
1626	0	0.714249
1627	0	0.714249
1628	0	0.714249
1629	0	0.714249
1630	0	0.714249
1631	0	0.714249
1632	0	0.714249
1633	0	0.714249
1634	0	0.714249
1635	0	0.714249
1636	0	0.714249
1637	0	0.714249
1638	0	0.714249
1639	0	0.714249
1640	0	0.714249
1641	0	0.714249
1642	0	0.714249
1643	0	0.714249
1644	0	0.714249
1645	0	0.714249
1646	0	0.714249
1647	0	0.714249
1648	0	0.714249
1649	0	0.714249
1650	0	0.714249
1651	0	0.714249
1652	0	0.714249
1653	0	0.714249
1654	0	0.714249
1655	0	0.714249
1656	0	0.714249
1657	0	0.714249
1658	0	0.714249
1659	0	0.714249
1660	0	0.714249
1661	0	0.714249
1662	0	0.714249
1663	0	0.714249
1664	0	0.714249
1665	0	0.714249
1666	0	0.714249
1667	0	0.714249
1668	0	0.714249
1669	0	0.714249
1670	0	0.714249
1671	0	0.712717
1672	0	0.712717
1673	0	0.712717
1674	0	0.714249
1675	0	0.714249
1676	0	0.714249
1677	0	0.714249
1678	0	0.714249
1679	0	0.714249
1680	0	0.714249
1681	0	0.714249
1682	0	0.714249
1683	0	0.714249
1684	0	0.714249
1685	0	0.714249
1686	0	0.714249
1687	0	0.714249
1688	0	0.714249
1689	0	0.714249
1690	0	0.714249
1691	0	0.714249
1692	0	0.714249
1693	0	0.714249
1694	0	0.714249
1695	0	0.714249
1696	0	0.714249
1697	0	0.714249
1698	0	0.714249
1699	0	0.714249
1700	0	0.714249
1701	0	0.714249
1702	0	0.714249
1703	0	0.714249
1704	0	0.714249
1705	0	0.714249
1706	0	0.714249
1707	0	0.714249
1708	0	0.714249
1709	0	0.714249
1710	0	0.714249
1711	0	0.714249
1712	0	0.714249
1713	0	0.714249
1714	0	0.714249
1715	0	0.714249
1716	0	0.714249
1717	0	0.714249
1718	0	0.714249
1719	0	0.714249
1720	0	0.698377
1721	0	0.701343
1722	0	0.701343
1723	0	0.701343
1724	0	0.701343
1725	0	0.701343
1726	0	0.701343
1727	0	0.701343
1728	0	0.701343
1729	0	0.665201
1730	0	0.665201
1731	0	0.701343
1732	0	0.717104
1733	0	0.717104
1734	0	0.717104
1735	0	0.717104
1736	0	0.717104
1737	0	0.717104
1738	0	0.717104
1739	0	0.717104
1740	0	0.717104
1741	0	0.717104
1742	0	0.717104
1743	0	0.717104
1744	0	0.717104
1745	0	0.717104
1746	0	0.717104
1747	0	0.717104
1748	0	0.717104
1749	0	0.717104
1750	0	0.717104
1751	0	0.717104
1752	0	0.717104
1753	0	0.717104
1754	0	0.717104
1755	0	0.717104
1756	0	0.717104
1757	0	0.717104
1758	0	0.717104
1759	0	0.717104
1760	0	0.717104
1761	0	0.717104
1762	0	0.717104
1763	0	0.717104
1764	0	0.717104
1765	0	0.717104
1766	0	0.717104
1767	0	0.717104
1768	0	0.717104
1769	0	0.717104
1770	0	0.717104
1771	0	0.717104
1772	0	0.717104
1773	0	0.717104
1774	0	0.717104
1775	0	0.717104
1776	0	0.717104
1777	0	0.717104
1778	0	0.717104
1779	0	0.717104
1780	0	0.733401
1781	0	0.733401
1782	0	0.733401
1783	0	0.733401
1784	0	0.733401
1785	0	0.733401
1786	0	0.733401
1787	0	0.733401
1788	0	0.733401
1789	0	0.733401
1790	0	0.733401
1791	0	0.733401
1792	0	0.733401
1793	0	0.733401
1794	0	0.733401
1795	0	0.733401
1796	0	0.733401
1797	0	0.733401
1798	0	0.733401
1799	0	0.733401
1800	0	0.733401
1801	0	0.733401
1802	0	0.714249
1803	0	0.730669
1804	0	0.730669
1805	0	0.730669
1806	0	0.730669
1807	0	0.730669
1808	0	0.730669
1809	0	0.730669
1810	0	0.730669
1811	0	0.730669
1812	0	0.730669
1813	0	0.730669
1814	0	0.730669
1815	0	0.730669
1816	0	0.730669
1817	0	0.730669
1818	0	0.730669
1819	0	0.730669
1820	0	0.333333
1821	0	0.333333
1822	0	0.333333
1823	0	0.333333
1824	0	0.333333
1825	0	0.333333
1826	0	0.333333
1827	0	0.333333
1828	0	0.333333
1829	0	0.333333
1830	0	0.333333
1831	0	0.333333
1832	0	0.333333
1833	0	0.333333
1834	0	0.333333
1835	0	0.333333
1836	0	0.333333
1837	0	0.333333
1838	0	0.333333
1839	0	0.333333
1840	0	0.333333
1841	0	0.333333
1842	0	0.333333
1843	0	0.333333
1844	0	0.333333
1845	0	0.333333
1846	0	0.333333
1847	0	0.333333
1848	0	0.333333
1849	0	0.333333
1850	0	0.333333
1851	0	0.333333
1852	0	0.333333
1853	0	0.333333
1854	0	0.333333
1855	0	0.333333
1856	0	0.333333
1857	0	0.333333
1858	0	0.333333
1859	0	0.333333
1860	0	0.333333
1861	0	0.333333
1862	0	0.333333
1863	0	0.333333
1864	0	0.333333
1865	0	0.333333
1866	0	0.333333
1867	0	0.333333
1868	0	0.333333
1869	0	0.333333
1870	0	0.333333
1871	0	0.333333
1872	0	0.333333
1873	0	0.333333
1874	0	0.333333
1875	0	0.333333
1876	0	0.333333
1877	0	0.333333
1878	0	0.333333
1879	0	0.333333
1880	0	0.333333
1881	0	0.333333
1882	0	0.333333
1883	0	0.333333
1884	0	0.333333
1885	0	0.333333
1886	0	0.333333
1887	0	0.333333
1888	0	0.333333
1889	0	0.333333
1890	0	0.333333
1891	0	0.333333
1892	0	0.333333
1893	0	0.333333
1894	0	0.333333
1895	0	0.333333
1896	0	0.333333
1897	0	0.333333
1898	0	0.333333
1899	0	0.333333
1900	0	0.333333
1901	0	0.333333
1902	0	0.568627
1903	0	0.364658
1904	0	0.364658
1905	0	0.364658
1906	0	0.364658
1907	0	0.364658
1908	0	0.364658
1909	0	0.364658
1910	0	0.364658
1911	0	0.695608
1912	0	0.695608
1913	0	0.695608
1914	0	0.695608
1915	0	0.695608
1916	0	0.695608
1917	0	0.714249
1918	0	0.733401
1919	0	0.733401
1920	0	0.733401
1921	0	0.733401
1922	0	0.733401
1923	0	0.733401
1924	0	0.733401
1925	0	0.733401
1926	0	0.733401
1927	0	0.733401
1928	0	0.733401
1929	0	0.717104
1930	0	0.717104
1931	0	0.717104
1932	0	0.717104
1933	0	0.717104
1934	0	0.717104
1935	0	0.717104
1936	0	0.717104
1937	0	0.717104
1938	0	0.717104
1939	0	0.717104
1940	0	0.717104
1941	0	0.717104
1942	0	0.717104
1943	0	0.717104
1944	0	0.717104
1945	0	0.717104
1946	0	0.717104
1947	0	0.717104
1948	0	0.717104
1949	0	0.717104
1950	0	0.717104
1951	0	0.717104
1952	0	0.717104
1953	0	0.717104
1954	0	0.717104
1955	0	0.717104
1956	0	0.717104
1957	0	0.717104
1958	0	0.717104
1959	0	0.717104
1960	0	0.717104
1961	0	0.717104
1962	0	0.717104
1963	0	0.717104
1964	0	0.717104
1965	0	0.717104
1966	0	0.717104
1967	0	0.717104
1968	0	0.717104
1969	0	0.717104
1970	0	0.717104
1971	0	0.717104
1972	0	0.717104
1973	0	0.717104
1974	0	0.717104
1975	0	0.717104
1976	0	0.717104
1977	0	0.717104
1978	0	0.717104
1979	0	0.717104
1980	0	0.717104
1981	0	0.717104
1982	0	0.701343
1983	0	0.701343
1984	0	0.701343
1985	0	0.701343
1986	0	0.701343
1987	0	0.701343
1988	0	0.701343
1989	0	0.701343
1990	0	0.701343
1991	0	0.701343
1992	0	0.701343
1993	0	0.701343
1994	0	0.701343
1995	0	0.701343
1996	0	0.701343
1997	0	0.701343
1998	0	0.701343
1999	0	0.701343
2000	0	0.701343
2001	0	0.701343
2002	0	0.701343
2003	0	0.701343
2004	0	0.701343
2005	0	0.701343
2006	0	0.701343
2007	0	0.701343
2008	0	0.701343
2009	0	0.665201
2010	0	0.665201
2011	0	0.665201
2012	0	0.650741
2013	0	0.686097
2014	0	0.686097
2015	0	0.686097
2016	0	0.686097
2017	0	0.686097
2018	0	0.686097
2019	0	0.686097
2020	0	0.686097
2021	0	0.687769
2022	0	0.687769
2023	0	0.687769
2024	0	0.687769
2025	0	0.687769
2026	0	0.687769
2027	0	0.687769
2028	0	0.687769
2029	0	0.687769
2030	0	0.687769
2031	0	0.687769
2032	0	0.687769
2033	0	0.687769
2034	0	0.687769
2035	0	0.684737
2036	0	0.684737
2037	0	0.684737
2038	0	0.684737
2039	0	0.684737
2040	0	0.684737
2041	0	0.684737
2042	0	0.684737
2043	0	0.683028
2044	0	0.683028
2045	0	0.683028
2046	0	0.683028
2047	0	0.683028
2048	0	0.683028
2049	0	0.683028
2050	0	0.683028
2051	0	0.683028
2052	0	0.681563
2053	0	0.681563
2054	0	0.680342
2055	0	0.680342
2056	0	0.680342
2057	0	0.680342
2058	0	0.680342
2059	0	0.680342
2060	0	0.680342
2061	0	0.680342
2062	0	0.680342
2063	0	0.680342
2064	0	0.680342
2065	0	0.680342
2066	0	0.680342
2067	0	0.680342
2068	0	0.680342
2069	0	0.680342
2070	0	0.680342
2071	0	0.680342
2072	0	0.680342
2073	0	0.680342
2074	0	0.680342
2075	0	0.680342
2076	0	0.680342
2077	0	0.680342
2078	0	0.680342
2079	0	0.680342
2080	0	0.681563
2081	0	0.681563
2082	0	0.681563
2083	0	0.681563
2084	0	0.681563
2085	0	0.666746
2086	0	0.666746
2087	0	0.684663
2088	0	0.699878
2089	0	0.699878
2090	0	0.699878
2091	0	0.699878
2092	0	0.698901
2093	0	0.714607
2094	0	0.714607
2095	0	0.714607
2096	0	0.714607
2097	0	0.714607
2098	0	0.714607
2099	0	0.714607
2100	0	0.714607
2101	0	0.714607
2102	0	0.714607
2103	0	0.714607
2104	0	0.714607
2105	0	0.730848
2106	0	0.730848
2107	0	0.827886
2108	0	0.827886
2109	0	0.827886
2110	0	0.827886
2111	0	0.827886
2112	0	0.827886
2113	0	0.827886
2114	0	0.827886
2115	0	0.827886
2116	0	0.827886
2117	0	0.827886
2118	0	0.730848
2119	0	0.730848
2120	0	0.730848
2121	0	0.730848
2122	0	0.730848
2123	0	0.730848
2124	0	0.730592
2125	0	0.730592
2126	0	0.730592
2127	0	0.730592
2128	0	0.730592
2129	0	0.730592
2130	0	0.730592
2131	0	0.730592
2132	0	0.730592
2133	0	0.730592
2134	0	0.730592
2135	0	0.731869
2136	0	0.731869
2137	0	0.731869
2138	0	0.731869
2139	0	0.731869
2140	0	0.731869
2141	0	0.731869
2142	0	0.731869
2143	0	0.731869
2144	0	0.731869
2145	0	0.731869
2146	0	0.729101
2147	0	0.729101
2148	0	0.729101
2149	0	0.729101
2150	0	0.729101
2151	0	0.746057
2152	0	0.746057
2153	0	0.746057
2154	0	0.779272
2155	0	0.80028
2156	0	0.80028
2157	0	0.80028
2158	0	0.80028
2159	0	0.80028
2160	0	0.80028
2161	0	0.80028
2162	0	0.80028
2163	0	0.80028
2164	0	0.78355
2165	0	0.78355
2166	0	0.78355
2167	0	0.760906
2168	0	0.760906
2169	0	0.760906
2170	0	0.760906
2171	0	0.760906
2172	0	0.760906
2173	0	0.8
2174	0	0.753684
2175	0	0.753684
2176	0	0.753684
2177	0	0.730877
2178	0	0.730877
2179	0	0.730877
2180	0	0.730877
2181	0	0.440351
2182	0	0.424211
2183	0	0.394035
2184	0	0.425614
2185	0	0.425614
2186	0	0.425614
2187	0	0.425614
2188	0	0.425614
2189	0	0.425614
2190	0	0.447242
2191	0	0.447242
2192	0	0.459665
2193	0	0.47144
2194	0	0.47144
2195	0	0.47144
2196	0	0.47144
2197	0	0.47144
2198	0	0.484909
2199	0	0.484909
2200	0	0.484909
2201	0	0.484909
2202	0	0.484909
2203	0	0.484909
2204	0	0.484909
2205	0	0.484909
2206	0	0.408355
2207	0	0.404741
2208	0	0.376442
2209	0	0.262156
2210	0	0.252492
2211	0	0.212625
2212	0	0.142857
2213	0	0.0926829
2214	0	0.0974359
2215	0	0.105263
2216	0	0.0666667
2217	0	0.0705882
2218	0	0.0435606
2219	0	0.0454545
2220	0	0.0397727
2221	0	0.0238095
2222	0	0.026455
2223	0	0.031746
2224	0	0.02849
2225	0	0.0253623
2226	0	0.030303
2227	0	0.0233918
2228	0	0.0233918
2229	0	0.0233918
2230	0	0.0175439
2231	0	0.0175439
2232	0	0.0196078
2233	0	0.0196078
2234	0	0.0220588
2235	0	0.0166667
2236	0	0.0190476
2237	0	0.0190476
2238	0	0.010989
2239	0	0.010989
2240	0	0.00952381
2241	0	0.0190476
2242	0	0.0285714
2243	0	0.025641
2244	0	0.025641
2245	0	0.0181818
2246	0	0.0666667
2247	0	0.0666667
2248	0	0.0666667
2249	0	0.0666667
2250	0	0.0666667
2251	0	0.0222222
2252	0	0.0222222
2253	0	0.0277778
2254	0	0.0357143
2255	0	0
2256	0	0
2257	0	0
2258	0	0
2259	0	0
2260	0	0
2261	0	0
2262	0	0
2263	0	0
2264	0	0
2265	0	0
2266	0	0
2267	0	0
2268	0	0
2269	0	0
2270	0	0
2271	0	0
2272	0	0
2273	0	0
2274	0	0
2275	0	0
2276	0	0
2277	0	0
2278	0	0
2279	0	0
2280	0	0
2281	0	0
2282	0	0
2283	0	0
2284	0	0
2285	0	0
2286	0	0
2287	0	0
2288	0	0
2289	0	0
2290	0	0
2291	0	0
2292	0	0
2293	0	0
2294	0	0
2295	0	0
2296	0	0
2297	0	0
2298	0	0
2299	0	0
2300	0	0
2301	0	0
2302	0	0
2303	0	0
2304	0	0
2305	0	0
2306	0	0
2307	0	0
2308	0	0
2309	0	0
2310	0	0
2311	0	0
2312	0	0
2313	0	0
2314	0	0
2315	0	0
2316	0	0
2317	0	0
2318	0	0
2319	0	0
2320	0	0
2321	0	0
2322	0	0
2323	0	0
2324	0	0
2325	0	0
2326	0	0
2327	0	0
2328	0	0
2329	0	0
2330	0	0
2331	0	0
2332	0	0
2333	0	0
2334	0	0
2335	0	0
2336	0	0
2337	0	0
2338	0	0
2339	0	0
2340	0	0
2341	0	0
2342	0	0
2343	0	0
2344	0	0
2345	0	0
2346	0	0
2347	0	0
2348	0	0
2349	0	0
2350	0	0
2351	0	0
2352	0	0
2353	0	0
2354	0	0
2355	0	0
2356	0	0
2357	0	0
2358	0	0
2359	0	0
2360	0	0
2361	0	0
2362	0	0
2363	0	0
2364	0	0
2365	0	0
2366	0	0
2367	0	0
2368	0	0
2369	0	0
2370	0	0
2371	0	0
2372	0	0
2373	0	0
2374	0	0
2375	0	0
2376	0	0
2377	0	0
2378	0	0
2379	0	0
2380	0	0
2381	0	0
2382	0	0
2383	0	0
2384	0	0.1
2385	0	0.1
2386	0	0.1
2387	0	0.0666667
2388	0	0.0666667
2389	0	0.0666667
2390	0	0.0666667
2391	0	0.0666667
2392	0	0.0666667
2393	0	0.0666667
2394	0	0.0666667
2395	0	0
2396	0	0
2397	0	0
2398	0	0.0277778
2399	0	0.0277778
2400	0	0.0444444
2401	0	0.0222222
2402	0	0.0222222
2403	0	0.0181818
2404	0	0.0151515
2405	0	0.0151515
2406	0	0.0151515
2407	0	0.032967
2408	0	0.043956
2409	0	0.0380952
2410	0	0.0666667
2411	0	0.0666667
2412	0	0.0849673
2413	0	0.0915033
2414	0	0.189542
2415	0	0.219048
2416	0	0.214286
2417	0	0.194805
2418	0	0.222989
2419	0	0.238636
2420	0	0.267267
2421	0	0.267267
2422	0	0.869679
2423	0	0.874694
2424	0	0.034632
2425	0	0.0316206
2426	0	0.030303
2427	0	0.030303
2428	0	0.0263158
2429	0	0.0350877
2430	0	0.0392157
2431	0	0.0661765
2432	0	0.0849673
2433	0	0.105263
2434	0	0.136842
2435	0	0.136842
2436	0	0.177489
2437	0	0.181818
2438	0	0.276667
2439	0	0.925595
2440	0	0.1
2441	0	0.1
2442	0	0.166667
2443	0	0.166667
2444	0	0.166667
2445	0	0.166667
2446	0	0.166667
2447	0	0.166667
2448	0	0.166667
2449	0	0.166667
2450	0	0.166667
2451	0	0.166667
2452	0	0.166667
2453	0	0.166667
2454	0	0.166667
2455	0	0.166667
2456	0	0.166667
2457	0	0.166667
2458	0	0.166667
2459	0	0.166667
2460	0	0.166667
2461	0	0.166667
2462	0	0.166667
2463	0	0.166667
2464	0	0.166667
2465	0	0.166667
2466	0	0.166667
2467	0	0.166667
2468	0	0.166667
2469	0	0.166667
2470	0	0.166667
2471	0	0.166667
2472	0	0.166667
2473	0	0.166667
2474	0	0.166667
2475	0	0.166667
2476	0	0.166667
2477	0	0.166667
2478	0	0.1
2479	0	0.1
2480	0	0.1
2481	0	0.1
2482	0	0.1
2483	0	0.1
2484	0	0.1
2485	0	0.1
2486	0	0.1
2487	0	0.1
2488	0	0.1
2489	0	0.1
2490	0	0.1
2491	0	0.1
2492	0	0.1
2493	0	0.1
2494	0	0.1
2495	0	0.0952381
2496	0	0.0952381
2497	0	0.0952381
2498	0	0.0952381
2499	0	0.0952381
2500	0	0.0952381
2501	0	0.0952381
2502	0	0.0952381
2503	0	0.0952381
2504	0	0.0952381
2505	0	0.0952381
2506	0	0.0952381
2507	0	0.0952381
2508	0	0.0952381
2509	0	0.0952381
2510	0	0.0952381
2511	0	0.0952381
2512	0	0.0714286
2513	0	0.0555556
2514	0	0.0757576
2515	0	0.127273
2516	0	0.922819
2517	0	1
2518	0	1
2519	0	1
2520	0	1
2521	0	1
2522	0	1
2523	0	1
2524	0	1
2525	0	1
2526	0	1
2527	0	1
2528	0	1
2529	0	1
2530	0	1
2531	0	1
2532	0	1
2533	0	0.166667
2534	0	0.166667
2535	0	0.5
2536	0	0.5
2537	0	0.5
2538	0	0.3
2539	0	0.3
2540	0	0.3
2541	0	0.6
2542	0	0.666667
2543	0	0.666667
2544	0	0.47619
2545	0	0.47619
2546	0	0.47619
2547	0	0.47619
2548	0	0.47619
2549	0	0.277778
2550	0	0.277778
2551	0	0.277778
2552	0	0.934907
2553	0	0
2554	0	0
2555	0	0
2556	0	0
2557	0	0
2558	0	0
2559	0	0
2560	0	0
2561	0	0
2562	0	0
2563	0	0
2564	0	0
2565	0	0
2566	0	0
2567	0	0
2568	0	0
2569	0	0
2570	0	0
2571	0	0
2572	0	0
2573	0	0
2574	0	0
2575	0	0
2576	0	0
2577	0	0
2578	0	0
2579	0	0
2580	0	0
2581	0	0
2582	0	0
2583	0	0
2584	0	0
2585	0	0
2586	0	0
2587	0	0
2588	0	0
2589	0	0
2590	0	0
2591	0	0
2592	0	0
2593	0	0
2594	0	0
2595	0	0
2596	0	0
2597	0	0
2598	0	0
2599	0	0
2600	0	0
2601	0	0
2602	0	0
2603	0	0
2604	0	0
2605	0	0
2606	0	0
2607	0	0.946656
2608	0	0.946885
2609	0	0.951934
2610	0	0
2611	0	0
2612	0	0
2613	0	0
2614	0	0.955361
2615	0	0.478474
2616	0	1
2617	0	0.666667
2618	0	0.4
2619	0	0.4
2620	0	0.4
2621	0	0.4
2622	0	0.4
2623	0	0.4
2624	0	0.4
2625	0	0.4
2626	0	0.4
2627	0	0.4
2628	0	0.4
2629	0	0.4
2630	0	0.482687
2631	0	0
2632	0	0
2633	0	0
2634	0	0
2635	0	0
2636	0	0
2637	0	0
2638	0	0
2639	0	0
2640	0	0
2641	0	0
2642	0	0
2643	0	0
2644	0	0
2645	0	0
2646	0	0
2647	0	0
2648	0	0
2649	0	0
2650	0	0
2651	0	0
2652	0	0
2653	0	0
2654	0	0
2655	0	0
2656	0	0
2657	0	0
2658	0	0
2659	0	0
2660	0	0
2661	0	0
2662	0	0
2663	0	0
2664	0	0
2665	0	0
2666	0	0
2667	0	0
2668	0	0
2669	0	0
2670	0	0
2671	0	0.166667
2672	0	0.166667
2673	0	0.166667
2674	0	0.1
2675	0	0.1
2676	0	0.1
2677	0	0.1
2678	0	0.1
2679	0	0.1
2680	0	0.1
2681	0	0.1
2682	0	0.1
2683	0	0.2
2684	0	0.6
2685	0	0.6
2686	0	0.6
2687	0	0.6
2688	0	0.6
2689	0	0.666667
2690	0	0.47619
2691	0	0.714286
2692	0	0.714286
2693	0	0.486469
2694	0	0.701511
2695	0	0
2696	0	0
2697	0	0
2698	0	0
2699	0	0
2700	0	0
2701	0	0.0666667
2702	0	0.142857
2703	0	0.142857
2704	0	0.0666667
2705	0	0.0666667
2706	0	0.0666667
2707	0	0.0666667
2708	0	0.133333
2709	0	0.133333
2710	0	0.133333
2711	0	0.133333
2712	0	0.133333
2713	0	0.2
2714	0	0.2
2715	0	0.25
2716	0	0.25
2717	0	0.321429
2718	0	0.321429
2719	0	0.321429
2720	0	0.214286
2721	0	0.214286
2722	0	0.214286
2723	0	0.214286
2724	0	0.987936
2725	0	0.987936
2726	0	0.989655
2727	0	0
2728	0	0
2729	0	0
2730	0	0
2731	0	0
2732	0	0
2733	0	0
2734	0	0
2735	0	0
2736	0	0
2737	0	0
2738	0	0
2739	0	0
2740	0	0
2741	0	0
2742	0	0
2743	0	0
2744	0	0.998268
2745	0	0.998268
2746	0	0.998268
2747	0	0.998268
2748	0	0
2749	0	0
2750	0	0
2751	0	0
2752	0	0
2753	0	0
2754	0	0
2755	0	0
2756	0	0
2757	0	0
2758	0	0
2759	0	0
2760	0	0.996538
2761	0	0.996538
2762	0	0.996538
2763	0	0
2764	0	0
2765	0	0
2766	0	0
2767	0	0
2768	0	0
2769	0	0
2770	0	0
2771	0	0
2772	0	0
2773	0	0
2774	0	0
2775	0	0
2776	0	0.996538
2777	0	0.998268
2778	0	0.998268
2779	0	0.998268
2780	0	0.998268
2781	0	0.996541
2782	0	0.993102
2783	0	0.993102
2784	0	0.998268
2785	0	0.998267
2786	0	1
2787	0	1
2788	0	0.523282
2789	0	0.523282
2790	0	0
2791	0	0
2792	0	0
2793	0	0
2794	0	0
2795	0	0
2796	0	0
2797	0	0
2798	0	0
2799	0	0
2800	0	0
2801	1	1
2802	0	0.996546
2803	0	0.994825
2804	0	0.996549
2805	0	0.996549
2806	1	1
2807	1	1
2808	1	1
2809	1	1
2810	1	1
2811	1	1
2812	1	1
2813	0	1
2814	0	1
2815	0	1
2816	0	1
2817	0	0
2818	0	0
2819	0	0
2820	0	0
2821	0	0
2822	0	0
2823	0	0
2824	0	0
2825	0	0
2826	0	0
2827	0	0
2828	0	0.333333
2829	0	0.333333
2830	0	0.333333
2831	0	0.333333
2832	0	0.333333
2833	0	0.333333
2834	1	1
2835	1	1
2836	1	1
2837	1	1
2838	1	1
2839	1	1
2840	1	1
2841	0	0.761117
2842	0	1
2843	0	1
2844	0	1
2845	0	1
2846	0	1
2847	0	1
2848	0	1
2849	0	1
2850	0	1
2851	0	1
2852	0	1
2853	0	0.998273
2854	1	1
2855	0	1
2856	0	0.998273
2857	0	0.998273
2858	0	0.998273
2859	0	0.998271
2860	0	0.99827
2861	0	0.99827
2862	1	1
2863	1	1
2864	1	1
2865	1	1
2866	1	1
2867	1	1
2868	1	1
2869	1	1
2870	1	1
2871	1	1
2872	1	1
2873	0	0.99482
2874	0	0
2875	0	0
2876	0	0
2877	0	0
2878	0	0
2879	0	0
2880	0	0
2881	0	0
2882	0	0
2883	0	0
2884	0	0
2885	0	0
2886	0	0
2887	1	1
2888	1	1
2889	1	1
2890	1	1
2891	0	0.333333
2892	0	0.333333
2893	0	1
2894	0	0.996547
2895	1	1
2896	1	1
2897	1	1
2898	1	1
2899	1	1
2900	0	1
2901	1	1
2902	1	1
2903	1	1
2904	0	1
2905	0	1
2906	0	1
2907	0	1
2908	1	1
2909	0	1
2910	0	1
2911	0	1
2912	0	1
2913	0	1
2914	1	1
2915	1	1
2916	1	1
2917	1	1
2918	1	1
2919	1	1
2920	1	1
2921	1	1
2922	1	1
2923	1	1
2924	0	1
2925	1	1
2926	0	0.926828
2927	0	0.998274
2928	0	0.998274
2929	1	1
2930	1	1
2931	1	1
2932	1	1
2933	1	1
2934	1	1
2935	1	1
2936	1	1
2937	1	1
2938	1	1
2939	1	1
2940	1	1
2941	1	1
2942	1	1
2943	1	1
2944	1	1
2945	1	1
2946	1	1
2947	1	1
2948	1	1
2949	1	1
2950	1	1
2951	1	1
2952	1	1
2953	1	1
2954	1	1
2955	1	1
2956	1	1
2957	1	1
2958	1	1
2959	1	1
2960	1	1
2961	1	1
2962	1	1
2963	1	1
2964	1	1
2965	1	1
2966	0	0
2967	0	0
2968	0	0
2969	0	0
2970	0	0
2971	0	0
2972	0	0
2973	0	0
2974	0	0
2975	0	0
2976	0	0
2977	0	0
2978	0	0
2979	0	0
2980	0	0
2981	0	0
2982	0	0
2983	0	0
2984	0	0
2985	0	0
2986	0	0
2987	0	0
2988	0	0
2989	0	0
2990	0	0
2991	0	0
2992	0	0
2993	0	0
2994	0	0
2995	0	0
2996	0	0
2997	0	0
2998	0	0
2999	0	0
3000	0	0
3001	0	0
3002	0	0
3003	0	0
3004	0	0
3005	0	0
3006	0	0
3007	0	0
3008	0	0
3009	0	0
3010	0	0
3011	0	0
3012	0	0
3013	0	0
3014	0	0
3015	0	0
3016	0	0
3017	0	0
3018	0	0
3019	0	0
3020	0	0
3021	0	0
3022	0	0
3023	0	0
3024	0	0
3025	0	0
3026	0	0
3027	0	0
3028	0	0
3029	0	0
3030	0	0
3031	0	0
3032	0	0
3033	0	0
3034	0	0
3035	0	0
3036	0	0
3037	0	0
3038	0	0
3039	0	0
3040	0	0
3041	0	0
3042	0	0
3043	0	0
3044	0	0
3045	0	0
3046	0	0
3047	0	0
3048	0	0
3049	0	0
3050	0	0
3051	0	0
3052	0	0
3053	0	0
3054	0	0
3055	0	0
3056	0	0
3057	0	0
3058	0	0
3059	0	0
3060	0	0
3061	0	0
3062	0	0
3063	0	0
3064	0	0
3065	0	0
3066	0	0
3067	0	0
3068	0	0
3069	0	0
3070	0	0
3071	0	0
3072	0	0
3073	0	0.994823
3074	0	0.994823
3075	0	0.994823
3076	0	0.994823
3077	0	0
3078	0	0
3079	0	0
3080	0	0
3081	0	0
3082	0	0
3083	0	0
3084	0	0
3085	0	0
3086	0	0
3087	0	0
3088	0	0
3089	0	0
3090	0	0
3091	0	0
3092	0	0
3093	0	0
3094	0	0
3095	0	0
3096	0	0
3097	0	0
3098	0	0
3099	0	0
3100	0	0
3101	0	0
3102	0	0
3103	0	0
3104	0	0
3105	0	0
3106	0	0
3107	0	0
3108	0	0
3109	0	0
3110	0	0
3111	0	0
3112	0	0
3113	0	0
3114	0	0
3115	0	0
3116	0	0
3117	0	0
3118	0	0
3119	0	0
3120	0	0
3121	0	0
3122	0	0
3123	0	0
3124	0	0
3125	0	0
3126	0	0
3127	0	0
3128	0	0
3129	0	0
3130	0	0
3131	0	0
3132	0	0
3133	0	0
3134	0	0
3135	0	0
3136	0	0
3137	0	0
3138	0	0
3139	0	0
3140	0	0
3141	0	0
3142	0	0
3143	0	0
3144	1	0
3145	1	0
3146	1	0
3147	1	0
3148	1	0
3149	0	0
3150	0	0
3151	0	0
3152	0	0
3153	0	0
3154	0	0
3155	0	0
3156	0	0
3157	0	0
3158	0	0
3159	0	0
3160	1	0
3161	0	0
3162	0	0
3163	0	0
3164	0	0
3165	0	0
3166	0	0
3167	0	0
3168	0	0
3169	0	0
3170	0	0
3171	0	0
3172	0	0
3173	0	0
3174	0	0
3175	1	0
3176	1	0
3177	0	0
3178	0	0
3179	0	0
3180	0	0
3181	0	0
3182	0	0
3183	0	0
3184	0	0
3185	0	0
3186	0	0
3187	0	0
3188	0	0
3189	0	0
3190	0	0
3191	0	0
3192	0	0
3193	0	0
3194	0	0
3195	0	0
3196	0	0
3197	0	0
3198	0	0
3199	0	0
3200	0	0
3201	0	0
3202	0	0
3203	0	0
3204	0	0
3205	0	0
3206	0	0
3207	0	0
3208	0	0
3209	0	0
3210	0	0
3211	0	0
3212	0	0
3213	0	0
3214	0	0
3215	0	0
3216	0	0
3217	0	0
3218	0	0
3219	0	0
3220	0	0
3221	0	0
3222	0	0
3223	0	0
3224	0	0
3225	0	0
3226	0	0
3227	0	0
3228	0	0
3229	0	0
3230	0	0
3231	0	0
3232	0	0
3233	0	0
3234	0	0
3235	0	0
3236	1	0
3237	1	0
3238	1	0
3239	1	0
3240	1	0
3241	1	0
3242	1	0
3243	1	0
3244	1	0
3245	1	0
3246	1	0
3247	1	0
3248	1	0
3249	1	0
3250	1	0
3251	1	0
3252	1	0
3253	1	0
3254	1	0
3255	0	0
3256	0	0
3257	0	0
3258	0	0
3259	0	0
3260	0	0
3261	0	0
3262	0	0
3263	0	0
3264	0	0
3265	0	0
3266	0	0
3267	0	0
3268	0	0
3269	0	0
3270	0	0
3271	0	0
3272	0	0
3273	0	0
3274	0	0
3275	0	0
3276	0	0
3277	0	0
3278	0	0
3279	0	0
3280	0	0
3281	0	0
3282	0	0
3283	0	0
3284	0	0
3285	0	0
3286	0	0
3287	0	0
3288	0	0
3289	0	0
3290	0	0
3291	0	0
3292	0	0
3293	0	0
3294	0	0
3295	0	0
3296	0	0
3297	0	0
3298	0	0
3299	0	0
3300	0	0
3301	0	0
3302	0	0
3303	0	0
3304	0	0
3305	0	0
3306	0	0
3307	0	0
3308	0	0
3309	0	0
3310	0	0
3311	0	0
3312	0	0
3313	0	0
3314	0	0
3315	0	0
3316	0	0
3317	0	0
3318	0	0
3319	0	0
3320	0	0
3321	0	0
3322	0	0
3323	0	0
3324	0	0
3325	0	0
3326	0	0
3327	0	0
3328	0	0
3329	0	0
3330	0	0
3331	0	0
3332	0	0
3333	0	0
3334	0	0
3335	0	0
3336	0	0
3337	0	0
3338	0	0
3339	0	0
3340	0	0
3341	0	0
3342	0	0
3343	0	0
3344	0	0
3345	0	0
3346	0	0
3347	0	0
3348	0	0
3349	0	0
3350	0	0
3351	0	0
3352	0	0
3353	0	0
3354	0	0
3355	0	0
3356	0	0
3357	0	0
3358	0	0
3359	0	0
3360	0	0
3361	0	0
3362	0	0
3363	0	0
3364	0	0
3365	0	0
3366	0	0
3367	0	0
3368	0	0
3369	0	0
3370	0	0
3371	0	0
3372	0	0
3373	0	0
3374	0	0
3375	0	0
3376	0	0
3377	0	0
3378	0	0
3379	0	0
3380	0	0
3381	0	0
3382	0	0
3383	0	0
3384	0	0
3385	0	0
3386	0	0
3387	0	0
3388	0	0
3389	0	0
3390	0	0
3391	0	0
3392	0	0
3393	0	0
3394	0	0
3395	0	0
3396	0	0
3397	0	0
3398	0	0
3399	0	0
3400	0	0
3401	0	0
3402	0	0
3403	0	0
3404	0	0
3405	0	0
3406	0	0
3407	0	0
3408	0	0
3409	0	0
3410	0	0
3411	0	0
3412	0	0
3413	0	0
3414	0	0
3415	0	0
3416	0	0
3417	0	0
3418	0	0
3419	0	0
3420	0	0
3421	0	0
3422	0	0
3423	0	0
3424	0	0
3425	0	0
3426	0	0
3427	0	0
3428	0	0
3429	0	0
3430	0	0
3431	0	0
3432	0	0
3433	0	0
3434	0	0
3435	0	0
3436	0	0
3437	0	0
3438	0	0
3439	0	0
3440	0	0
3441	0	0
3442	0	0
3443	0	0
3444	0	0
3445	0	0
3446	0	0
3447	0	0
3448	0	0
3449	0	0
3450	0	0
3451	0	0
3452	0	0
3453	0	0
3454	0	0
3455	0	0
3456	0	0
3457	0	0
3458	0	0
3459	0	0
3460	0	0
3461	0	0
3462	0	0
3463	0	0
3464	0	0
3465	0	0
3466	0	0
3467	0	0
3468	0	0
3469	0	0
3470	0	0
3471	0	0
3472	0	0
3473	0	0
3474	0	0
3475	0	0
3476	0	0
3477	0	0
3478	0	0
3479	0	0
3480	0	0
3481	0	0
3482	0	0
3483	0	0
3484	0	0
3485	0	0
3486	0	0
3487	0	0
3488	0	0
3489	0	0
3490	0	0
3491	0	0
3492	0	0
3493	0	0
3494	0	0
3495	0	0
3496	0	0
3497	0	0
3498	0	0
3499	0	0
3500	0	0
3501	0	0
3502	0	0
3503	0	0
3504	0	0
3505	0	0
3506	0	0
3507	0	0
3508	0	0
3509	0	0
3510	0	0
3511	0	0
3512	0	0
3513	0	0
3514	0	0
3515	0	0
3516	0	0
3517	0	0
3518	0	0
3519	0	0
3520	0	0
3521	0	0
3522	0	0
3523	0	0
3524	0	0
3525	0	0
3526	0	0
3527	0	0
3528	0	0
3529	0	0
3530	0	0
3531	0	0
3532	0	0
3533	0	0
3534	0	0
3535	0	0
3536	0	0
3537	0	0
3538	0	0
3539	0	0
3540	0	0
3541	0	0
3542	0	0
3543	0	0
3544	0	0
3545	0	0
3546	0	0
3547	0	0
3548	0	0
3549	0	0
3550	0	0
3551	0	0
3552	0	0
3553	0	0
3554	0	0
3555	0	0
3556	0	0
3557	0	0
3558	0	0
3559	0	0
3560	0	0
3561	0	0
3562	0	0
3563	0	0
3564	0	0
3565	0	0
3566	0	0
3567	0	0
3568	0	0
3569	0	0
3570	0	0
3571	0	0
3572	0	0
3573	0	0
3574	0	0
3575	0	0
3576	0	0
3577	0	0
3578	0	0
3579	0	0
3580	0	0
3581	0	0
3582	0	0
3583	0	0
3584	0	0
3585	0	0
3586	0	0
3587	0	0
3588	0	0
3589	0	0
3590	0	0
3591	0	0
3592	0	0
3593	0	0
3594	0	0
3595	0	0
3596	0	0
3597	0	0
3598	0	0
3599	0	0
3600	0	0
3601	0	0
3602	0	0
3603	0	0
3604	0	0
3605	0	0
3606	0	0
3607	0	0
3608	0	0
3609	0	0
3610	0	0
3611	0	0
3612	0	0
3613	0	0
3614	0	0
3615	0	0
3616	0	0
3617	0	0
3618	0	0
3619	0	0
3620	0	0
3621	0	0
3622	0	0
3623	0	0
3624	0	0
3625	0	0
3626	0	0
3627	0	0
3628	0	0
3629	0	0
3630	0	0
3631	0	0
3632	0	0
3633	0	0
3634	0	0
3635	0	0
3636	0	0
3637	0	0
3638	0	0
3639	0	0
3640	0	0
3641	0	0
3642	0	0
3643	0	0
3644	0	0
3645	0	0
3646	0	0
3647	0	0
3648	0	0
3649	0	0
3650	0	0
3651	0	0
3652	0	0
3653	0	0
3654	0	0
3655	0	0
3656	0	0
3657	0	0
3658	0	0
3659	0	0
3660	0	0
3661	0	0
3662	0	0
3663	0	0
3664	0	0
3665	0	0
3666	0	0
3667	0	0
3668	0	0
3669	0	0
3670	0	0
3671	0	0
3672	0	0
3673	0	0
3674	0	0
3675	0	0
3676	0	0
3677	0	0
3678	0	0
3679	0	0
3680	0	0
3681	0	0
3682	0	0
3683	0	0
3684	0	0
3685	0	0
3686	0	0
3687	0	0
3688	0	0
3689	0	0
3690	0	0
3691	0	0
3692	0	0
3693	0	0
3694	0	0
3695	0	0
3696	0	0
3697	0	0
3698	0	0
3699	0	0
3700	0	0
3701	0	0
3702	0	0
3703	0	0
3704	0	0
3705	0	0
3706	0	0
3707	0	0
3708	0	0
3709	0	0
3710	0	0
3711	0	0
3712	0	0
3713	0	0
3714	0	0
3715	0	0
3716	0	0
3717	0	0
3718	0	0
3719	0	0
3720	0	0
3721	0	0
3722	0	0
3723	0	0
3724	0	0
3725	0	0
3726	0	0
3727	0	0
3728	0	0
3729	0	0
3730	0	0
3731	0	0
3732	0	0
3733	0	0
3734	0	0
3735	0	0
3736	0	0
3737	0	0
3738	0	0
3739	0	0
3740	0	0
3741	0	0
3742	0	0
3743	0	0
3744	0	0
3745	0	0
3746	0	0
3747	0	0
3748	0	0
3749	0	0
3750	0	0
3751	0	0
3752	0	0
3753	0	0
3754	0	0
3755	0	0
3756	0	0
3757	0	0
3758	0	0
3759	0	0
3760	0	0
3761	0	0
3762	0	0
3763	0	0
3764	0	0
3765	0	0
3766	0	0
3767	0	0
3768	0	0
3769	0	0
3770	0	0
3771	0	0
3772	0	0
3773	0	0
3774	0	0
3775	0	0
3776	0	0
3777	0	0
3778	0	0
3779	0	0
3780	0	0
3781	0	0
3782	0	0
3783	0	0
3784	0	0
3785	0	0
3786	0	0
3787	0	0
3788	0	0
3789	0	0
3790	0	0
3791	0	0
3792	0	0
3793	0	0
3794	0	0
3795	0	0
3796	0	0
3797	0	0
3798	0	0
3799	0	0
3800	0	0
3801	0	0
3802	0	0
3803	0	0
3804	0	0
3805	0	0
3806	0	0
3807	0	0
3808	0	0
3809	0	0
3810	0	0
3811	0	0
3812	0	0
3813	0	0
3814	0	0
3815	0	0
3816	0	0
3817	0	0
3818	0	0
3819	0	0
3820	0	0
3821	0	0
3822	0	0
3823	0	0
3824	0	0
3825	0	0
3826	0	0
3827	0	0
3828	0	0
3829	0	0
3830	0	0
3831	0	0
3832	0	0
3833	0	0
3834	0	0
3835	0	0
3836	0	0
3837	0	0
3838	0	0
3839	0	0
3840	0	0
3841	0	0
3842	0	0
3843	0	0
3844	0	0
3845	0	0
3846	0	0
3847	0	0
3848	0	0
3849	0	0
3850	0	0
3851	0	0
3852	0	0
3853	0	0
3854	0	0
3855	0	0
3856	0	0
3857	0	0
3858	0	0
3859	0	0
3860	0	0
3861	0	0
3862	0	0
3863	0	0
3864	0	0
3865	0	0
3866	0	0
3867	0	0
3868	0	0
3869	0	0
3870	0	0
3871	0	0
3872	0	0
3873	0	0
3874	0	0
3875	0	0
3876	0	0
3877	0	0
3878	0	0
3879	0	0
3880	0	0
3881	0	0
3882	0	0
3883	0	0
3884	0	0
3885	0	0
3886	0	0
3887	0	0
3888	0	0
3889	0	0
3890	0	0
3891	0	0
3892	0	0
3893	0	0
3894	0	0
3895	0	0
3896	0	0
3897	0	0
3898	0	0
3899	0	0
3900	0	0
3901	0	0
3902	0	0
3903	0	0
3904	0	0
3905	0	0
3906	0	0
3907	0	0
3908	0	0
3909	0	0
3910	0	0.166667
3911	0	0.166667
3912	0	0.166667
3913	0	0.166667
3914	0	0.166667
3915	0	0.166667
3916	0	0.166667
3917	0	0.166667
3918	0	0.166667
3919	0	0.166667
3920	0	0.166667
3921	0	0.166667
3922	0	0.166667
3923	0	0.166667
3924	0	0.166667
3925	0	0.166667
3926	0	0.166667
3927	0	0.166667
3928	0	0.166667
3929	0	0.166667
3930	0	0.166667
3931	0	0.166667
3932	0	0.166667
3933	0	0.166667
3934	0	0.1
3935	0	0.1
3936	0	0.1
3937	0	0.1
3938	0	0.1
3939	0	0.1
3940	0	0.1
3941	0	0.1
3942	0	0.1
3943	0	0.1
3944	0	0.1
3945	0	0.1
3946	0	0.1
3947	0	0.1
3948	0	0.1
3949	0	0.1
3950	0	0.1
3951	0	0.1
3952	0	0.1
3953	0	0.1
3954	0	0.1
3955	0	0.1
3956	0	0.1
3957	0	0.1
3958	0	0.1
3959	0	0.1
3960	0	0.1
3961	0	0.1
3962	0	0.1
3963	0	0.1
3964	0	0.1
3965	0	0.1
3966	0	0.1
3967	0	0.1
3968	0	0.1
3969	0	0.1
3970	0	0.1
3971	0	0.1
3972	0	0.1
3973	0	0.1
3974	0	0.1
3975	0	0.1
3976	0	0.1
3977	0	0.1
3978	0	0.1
3979	0	0.1
3980	0	0.1
3981	0	0.1
3982	0	0.1
3983	0	0.1
3984	0	0.1
3985	0	0.1
3986	0	0.1
3987	0	0.1
3988	0	0.1
3989	0	0.1
3990	0	0.1
3991	0	0.1
3992	0	0.1
3993	0	0.1
3994	0	0.1
3995	0	0.1
3996	0	0.1
3997	0	0.1
3998	0	0.1
3999	0	0.1
4000	0	0.1
4001	0	0.1
4002	0	0.1
4003	0	0.1
4004	0	0.1
4005	0	0.1
4006	0	0.1
4007	0	0.1
4008	0	0.1
4009	0	0.1
4010	0	0.1
4011	0	0.1
4012	0	0.1
4013	0	0.1
4014	0	0.1
4015	0	0.1
4016	0	0.1
4017	0	0.1
4018	0	0.1
4019	0	0.1
4020	0	0.1
4021	0	0.1
4022	0	0.1
4023	0	0.1
4024	0	0.1
4025	0	0.1
4026	0	0.1
4027	0	0.1
4028	0	0.1
4029	0	0.1
4030	0	0.1
4031	0	0.1
4032	0	0.1
4033	0	0.1
4034	0	0.1
4035	0	0.1
4036	0	0.1
4037	0	0.1
4038	0	0.1
4039	0	0.1
4040	0	0.1
4041	0	0.1
4042	0	0.1
4043	0	0.1
4044	0	0.1
4045	0	0.1
4046	0	0.1
4047	0	0.1
4048	0	0.1
4049	0	0.1
4050	0	0.1
4051	0	0.1
4052	0	0.1
4053	0	0.1
4054	0	0.1
4055	0	0.1
4056	0	0.1
4057	0	0.1
4058	0	0.1
4059	0	0.1
4060	0	0.1
4061	0	0.1
4062	0	0.1
4063	0	0.1
4064	0	0.1
4065	0	0.1
4066	0	0.1
4067	0	0.1
4068	0	0.1
4069	0	0.1
4070	0	0.1
4071	0	0.1
4072	0	0.1
4073	0	0.1
4074	0	0.1
4075	0	0.1
4076	0	0.1
4077	0	0.1
4078	0	0.1
4079	0	0.1
4080	0	0.1
4081	0	0.1
4082	0	0.1
4083	0	0.1
4084	0	0.1
4085	0	0.1
4086	0	0.1
4087	0	0.1
4088	0	0.1
4089	0	0.1
4090	0	0
4091	0	0
4092	0	0.1
4093	0	0.1
4094	0	0.1
4095	0	0.1
4096	0	0.1
4097	0	0.1
4098	0	0.1
4099	0	0.1
4100	0	0.1
4101	0	0.1
4102	0	0.1
4103	0	0.1
4104	0	0.1
4105	0	0.1
4106	0	0.1
4107	0	0.1
4108	0	0.1
4109	0	0.1
4110	0	0.1
4111	0	0.1
4112	0	0
4113	0	0
4114	0	0
4115	0	0.1
4116	0	0.1
4117	0	0.1
4118	0	0.1
4119	0	0.1
4120	0	0.1
4121	0	0.1
4122	0	0.1
4123	0	0.1
4124	0	0.1
4125	0	0.1
4126	0	0.1
4127	0	0.1
4128	0	0.1
4129	0	0.1
4130	0	0.1
4131	0	0.1
4132	0	0.1
4133	0	0.1
4134	0	0
4135	0	0
4136	0	0.1
4137	0	0.1
4138	0	0.1
4139	0	0.1
4140	0	0.1
4141	0	0.1
4142	0	0.1
4143	0	0.1
4144	0	0.1
4145	0	0.1
4146	0	0.1
4147	0	0.1
4148	0	0.1
4149	0	0.1
4150	0	0.1
4151	0	0.1
4152	0	0.1
4153	0	0.1
4154	0	0.1
4155	0	0.1
4156	0	0.1
4157	0	0.1
4158	0	0.1
4159	0	0.1
4160	0	0.1
4161	0	0.1
4162	0	0.1
4163	0	0.1
4164	0	0.1
4165	0	0.1
4166	0	0.1
4167	0	0.1
4168	0	0.1
4169	0	0.1
4170	0	0.1
4171	0	0.1
4172	0	0.1
4173	0	0.1
4174	0	0.1
4175	0	0.1
4176	0	0.1
4177	0	0.1
4178	0	0.1
4179	0	0.1
4180	0	0.1
4181	0	0.3
4182	0	0.3
4183	0	0.3
4184	0	0.3
4185	0	0.3
4186	0	0.3
4187	0	0.3
4188	0	0.3
4189	0	0.3
4190	0	0.3
4191	0	0.3
4192	0	0.3
4193	0	0.3
4194	0	0.3
4195	0	0.3
4196	0	0.3
4197	0	0.3
4198	0	0.3
4199	0	0.1
4200	0	0.1
4201	0	0.3
4202	0	0.3
4203	0	0.3
4204	0	0.3
4205	0	0.3
4206	0	0.3
4207	0	0.3
4208	0	0.3
4209	0	0.3
4210	0	0.3
4211	0	0.3
4212	0	0.3
4213	0	0.3
4214	0	0.3
4215	0	0.3
4216	0	0.3
4217	0	0.3
4218	0	0.3
4219	0	0.3
4220	0	0.3
4221	0	0.3
4222	0	0.3
4223	0	0.3
4224	0	0.3
4225	0	0.3
4226	0	0.3
4227	0	0.3
4228	0	0.3
4229	0	0.3
4230	0	0.3
4231	0	0.3
4232	0	0.3
4233	0	0.3
4234	0	0.3
4235	0	0.3
4236	0	0.3
4237	0	0.3
4238	0	0.3
4239	0	0.3
4240	0	0.3
4241	0	0.3
4242	0	0.3
4243	0	0.3
4244	0	0.3
4245	0	0.3
4246	0	0.3
4247	0	0.3
4248	0	0.3
4249	0	0.3
4250	0	0.3
4251	0	0.3
4252	0	0.3
4253	0	0.3
4254	0	0.3
4255	0	0.3
4256	0	0.3
4257	0	0.3
4258	0	0.3
4259	0	0.3
4260	0	0.3
4261	0	0.3
4262	0	0.3
4263	0	0.3
4264	0	0.3
4265	0	0.3
4266	0	0.3
4267	0	0.3
4268	0	0.3
4269	0	0.3
4270	0	0.3
4271	0	0.3
4272	0	0.3
4273	0	0.3
4274	0	0.3
4275	0	0.3
4276	0	0.3
4277	0	0.3
4278	0	0.3
4279	0	0.3
4280	0	0.3
4281	0	0.3
4282	0	0.3
4283	0	0.3
4284	0	0.3
4285	0	0.3
4286	0	0.3
4287	0	0.3
4288	0	0.2
4289	0	0.2
4290	0	0.2
4291	0	0.2
4292	0	0.2
4293	0	0.2
4294	0	0.2
4295	0	0.2
4296	0	0.2
4297	0	0.2
4298	0	0.2
4299	0	0.2
4300	0	0.2
4301	0	0.142857
4302	0	0.142857
4303	0	0.142857
4304	0	0.142857
4305	0	0.142857
4306	0	0.142857
4307	0	0.142857
4308	0	0.142857
4309	0	0.142857
4310	0	0.142857
4311	0	0.142857
4312	0	0.142857
4313	0	0.142857
4314	0	0.142857
4315	0	0.142857
4316	0	0.142857
4317	0	0.142857
4318	0	0.142857
4319	0	0.142857
4320	0	0.142857
4321	0	0.142857
4322	0	0.142857
4323	0	0.142857
4324	0	0.142857
4325	0	0.142857
4326	0	0.142857
4327	0	0.142857
4328	0	0.142857
4329	0	0.142857
4330	0	0.142857
4331	0	0.142857
4332	0	0.142857
4333	0	0.142857
4334	0	0.142857
4335	0	0.142857
4336	0	0.142857
4337	0	0.142857
4338	0	0.142857
4339	0	0.142857
4340	0	0.142857
4341	0	0.142857
4342	0	0.142857
4343	0	0.142857
4344	0	0.142857
4345	0	0.142857
4346	0	0.142857
4347	0	0.142857
4348	0	0.142857
4349	0	0.142857
4350	0	0.142857
4351	0	0.142857
4352	0	0.142857
4353	0	0.142857
4354	0	0.142857
4355	0	0.142857
4356	0	0.142857
4357	0	0.142857
4358	0	0.142857
4359	0	0.142857
4360	0	0.142857
4361	0	0.142857
4362	0	0.142857
4363	0	0.142857
4364	0	0.142857
4365	0	0.142857
4366	0	0.142857
4367	0	0.142857
4368	0	0.142857
4369	0	0.142857
4370	0	0.142857
4371	0	0.142857
4372	0	0.142857
4373	0	0.142857
4374	0	0.142857
4375	0	0.142857
4376	0	0.142857
4377	0	0.142857
4378	0	0.107143
4379	0	0.107143
4380	0	0.0833333
4381	0	0.0833333
4382	0	0.0833333
4383	0	0.0833333
4384	0	0.0833333
4385	0	0.0833333
4386	0	0.0833333
4387	0	0.0833333
4388	0	0.0833333
4389	0	0.0833333
4390	0	0.0833333
4391	0	0.0833333
4392	0	0.0909091
4393	0	0.0909091
4394	0	0.0909091
4395	0	0.0909091
4396	0	0.0769231
4397	0	0.0659341
4398	0	0.0659341
4399	0	0.0659341
4400	0	0.0659341
4401	0	0.0659341
4402	0	0.0659341
4403	0	0.0659341
4404	0	0.0659341
4405	0	0.0571429
4406	0	0.0380952
4407	0	0.0367647
4408	0	0.0367647
4409	0	0.0392157
4410	0	0.0368421
4411	0	0.0333333
4412	0	0.0433333
4413	0	0.0430769
4414	0	0.039886
4415	0	0.0369458
4416	0	0.0344828
4417	0	0.0397727
4418	0	0.0374332
4419	0	0.0356506
4420	0	0.0356506
4421	0	0.0336134
4422	0	0.0323887
4423	0	0.0313589
4424	0	0.0306554
4425	0	0.0280193
4426	0	0.0229592
4427	0	0.0289562
4428	0	0.0307018
4429	0	0.0289617
4430	0	0.027972
4431	0	0.0301252
4432	0	0.0295495
4433	0	0.865
4434	0	0.861749
4435	0	0.048433
4436	0	0.0285714
4437	0	0.0350877
4438	0	0.0292398
4439	0	0.0292398
4440	0	0.0292398
4441	0	0.0315789
4442	0	0.0333333
4443	0	0.850708
4444	0	0.854773
4445	0	0.0752941
4446	0	0.0555042
4447	0	0.0484848
4448	0	0.0509413
4449	0	0.0509413
4450	0	0.0441347
4451	0	0.0495495
4452	0	0.0554622
4453	0	0.0588235
4454	0	0.0492424
4455	0	0.0270936
4456	0	0.017094
4457	0	0.02
4458	0	0.0217391
4459	0	0.0217391
4460	0	0.0181159
4461	0	0.0253623
4462	0	0.0197628
4463	0	0.0197628
4464	0	0.0197628
4465	0	0.0197628
4466	0	0.0197628
4467	0	0.0197628
4468	0	0.0197628
4469	0	0.0197628
4470	0	0.021645
4471	0	0.021645
4472	0	0.0210526
4473	0	0.0263158
4474	0	0.0263158
4475	0	0.0263158
4476	0	0.0263158
4477	0	0.0263158
4478	0	0.0263158
4479	0	0.0263158
4480	0	0.0263158
4481	0	0.0292398
4482	0	0.0292398
4483	0	0.0292398
4484	0	0.0292398
4485	0	0.0292398
4486	0	0.0326797
4487	0	0.0367647
4488	0	0.0367647
4489	0	0.0367647
4490	0	0.043956
4491	0	0.043956
4492	0	0.043956
4493	0	0.043956
4494	0	0.043956
4495	0	0.0512821
4496	0	0.0512821
4497	0	0.0512821
4498	0	0.0512821
4499	0	0.0512821
4500	0	0.0512821
4501	0	0.0512821
4502	0	0.0512821
4503	0	0.0512821
4504	0	0.0512821
4505	0	0.0512821
4506	0	0.0512821
4507	0	0.0512821
4508	0	0.0512821
4509	0	0.0512821
4510	0	0.0512821
4511	0	0.0512821
4512	0	0.0512821
4513	0	0.0512821
4514	0	0.0512821
4515	0	0.0512821
4516	0	0.0512821
4517	0	0.0512821
4518	0	0.0512821
4519	0	0.0512821
4520	0	0.0512821
4521	0	0.0512821
4522	0	0.0512821
4523	0	0.0512821
4524	0	0.0512821
4525	0	0.0512821
4526	0	0.0512821
4527	0	0.0512821
4528	0	0.0512821
4529	0	0.0512821
4530	0	0.0512821
4531	0	0.0512821
4532	0	0.0512821
4533	0	0.0512821
4534	0	0.0512821
4535	0	0.0512821
4536	0	0.0512821
4537	0	0.0512821
4538	0	0.0512821
4539	0	0.0512821
4540	0	0.0512821
4541	0	0.0512821
4542	0	0.0606061
4543	0	0.0606061
4544	0	0.0606061
4545	0	0.0606061
4546	0	0.0606061
4547	0	0.0606061
4548	0	0.0606061
4549	0	0.0606061
4550	0	0.0606061
4551	0	0.0606061
4552	0	0.0606061
4553	0	0.0606061
4554	0	0.0606061
4555	0	0.0606061
4556	0	0.0606061
4557	0	0.0606061
4558	0	0.0606061
4559	0	0.0606061
4560	0	0.0606061
4561	0	0.0606061
4562	0	0.0606061
4563	0	0.0606061
4564	0	0.0606061
4565	0	0.0606061
4566	0	0.0606061
4567	0	0.0606061
4568	0	0.0606061
4569	0	0.0606061
4570	0	0.0606061
4571	0	0.0606061
4572	0	0.0606061
4573	0	0.0606061
4574	0	0.0606061
4575	0	0.0606061
4576	0	0.0606061
4577	0	0.0606061
4578	0	0.0606061
4579	0	0.0606061
4580	0	0.0606061
4581	0	0.0606061
4582	0	0.0606061
4583	0	0.0606061
4584	0	0.0606061
4585	0	0.0606061
4586	0	0.0727273
4587	0	0.0727273
4588	0	0.0727273
4589	0	0.0727273
4590	0	0.0727273
4591	0	0.0727273
4592	0	0.0727273
4593	0	0.0727273
4594	0	0.0727273
4595	0	0.0545455
4596	0	0.0545455
4597	0	0.0545455
4598	0	0.0181818
4599	0	0.0545455
4600	0	0.0545455
4601	0	0.0545455
4602	0	0.0545455
4603	0	0.0545455
4604	0	0.0545455
4605	0	0.0545455
4606	0	0.0545455
4607	0	0.0545455
4608	0	0.0545455
4609	0	0.0545455
4610	0	0.0545455
4611	0	0.0545455
4612	0	0.0545455
4613	0	0.0545455
4614	0	0.0545455
4615	0	0.0545455
4616	0	0.0545455
4617	0	0.0545455
4618	0	0.0545455
4619	0	0.0545455
4620	0	0.0545455
4621	0	0.0545455
4622	0	0.0545455
4623	0	0.0545455
4624	0	0.0545455
4625	0	0.0545455
4626	0	0.0545455
4627	0	0.0545455
4628	0	0.0545455
4629	0	0.0545455
4630	0	0.0545455
4631	0	0.0545455
4632	0	0.0545455
4633	0	0.0545455
4634	0	0.0545455
4635	0	0.0545455
4636	0	0.0545455
4637	0	0.0545455
4638	0	0.0545455
4639	0	0.0545455
4640	0	0.0545455
4641	0	0.0545455
4642	0	0.0545455
4643	0	0.0545455
4644	0	0.0545455
4645	0	0.0666667
4646	0	0.0666667
4647	0	0.0666667
4648	0	0.0666667
4649	0	0.0666667
4650	0	0.0666667
4651	0	0.0833333
4652	0	0.0833333
4653	0	0.0833333
4654	0	0.0833333
4655	0	0.0833333
4656	0	0.0833333
4657	0	0.0833333
4658	0	0.111111
4659	0	0.111111
4660	0	0.107143
4661	0	0.107143
4662	0	0.107143
4663	0	0.107143
4664	0	0.107143
4665	0	0.107143
4666	0	0.107143
4667	0	0.107143
4668	0	0
4669	0	0
4670	0	0
4671	0	0
4672	0	0
4673	0	0
4674	0	0
4675	0	0
4676	0	0
4677	0	0
4678	0	0
4679	0	0
4680	0	0
4681	0	0
4682	0	0
4683	0	0
4684	0	0
4685	0	0
4686	0	0
4687	0	0
4688	0	0
4689	0	0
4690	0	0
4691	0	0
4692	0	0
4693	0	0
4694	0	0
4695	0	0
4696	0	0
4697	0	0
4698	0	0
4699	0	0
4700	0	0
4701	0	0
4702	0	0
4703	0	0
4704	0	0
4705	0	0
4706	0	0
4707	0	0
4708	0	0
4709	0	0
4710	0	0
4711	0	0
4712	0	0
4713	0	0
4714	0	0
4715	0	0
4716	0	0
4717	0	0
4718	0	0
4719	0	0
4720	0	0
4721	0	0
4722	0	0
4723	0	0
4724	0	0
4725	0	0
4726	0	0
4727	0	0
4728	0	0
4729	0	0
4730	0	0
4731	0	0
4732	0	0
4733	0	0
4734	0	0
4735	0	0
4736	0	0
4737	0	0
4738	0	0
4739	0	0
4740	0	0
4741	0	0
4742	0	0
4743	0	0
4744	0	0
4745	0	0
4746	0	0
4747	0	0
4748	0	0
4749	0	0
4750	0	0
4751	0	0
4752	0	0
4753	0	0
4754	0	0
4755	0	0
4756	0	0
4757	0	0
4758	0	0
4759	0	0
4760	0	0
4761	0	0
4762	0	0
4763	0	0
4764	0	0
4765	0	0
4766	0	0
4767	0	0
4768	0	0
4769	0	0
4770	0	0
4771	0	0
4772	0	0
4773	0	0
4774	0	0
4775	0	0
4776	0	0
4777	0	0
4778	0	0
4779	0	0
4780	0	0
4781	0	0
4782	0	0
4783	0	0
4784	0	0
4785	0	0
4786	0	0
4787	0	0
4788	0	0
4789	0	0
4790	0	0
4791	0	0
4792	0	0
4793	0	0
4794	0	0
4795	0	0
4796	0	0
4797	0	0
4798	0	0
4799	0	0
4800	0	0
4801	0	0
4802	0	0
4803	0	0
4804	0	0
4805	0	0
4806	0	0
4807	0	0
