Site	ColumnScore	SumOfPairsScore
1	0	0
2	0	0
3	0	0
4	0	0
5	0	0
6	0	0
7	0	0
8	0	0
9	0	0
10	0	0
11	0	0
12	0	0
13	0	0
14	0	0
15	0	0
16	0	0
17	0	0
18	0	0
19	0	0
20	0	0
21	0	0
22	0	0
23	0	0
24	0	0
25	0	0
26	0	0
27	0	0
28	0	0
29	0	0
30	0	0
31	0	0
32	0	0
33	0	0
34	0	0
35	0	0
36	0	0
37	0	0
38	0	0
39	0	0
40	0	0
41	0	0
42	0	0
43	0	0
44	0	0
45	0	0
46	0	0
47	0	0
48	0	0
49	0	0
50	0	0
51	0	0
52	0	0
53	0	0
54	0	0
55	0	0
56	0	0
57	0	0
58	0	0
59	0	0
60	0	0
61	0	0
62	0	0
63	0	0
64	0	0
65	0	0
66	0	0
67	0	0
68	0	0
69	0	0
70	0	0
71	0	0
72	0	0
73	0	0
74	0	0
75	0	0
76	0	0
77	0	0
78	0	0
79	0	0
80	0	0
81	0	0
82	0	0
83	0	0
84	0	0
85	0	0
86	0	0
87	0	0
88	0	0
89	0	0
90	0	0
91	0	0
92	0	0
93	0	0
94	0	0
95	0	0
96	0	0
97	0	0
98	0	0
99	0	0
100	0	0
101	0	0
102	0	0
103	0	0
104	0	0
105	0	0
106	0	0
107	0	0
108	0	0
109	0	0
110	0	0
111	0	0
112	0	0
113	0	0
114	0	0
115	0	0
116	0	0
117	0	0
118	0	0
119	0	0
120	0	0
121	0	0
122	0	0
123	0	0
124	0	0
125	0	0
126	0	0
127	0	0
128	0	0
129	0	0
130	0	0
131	0	0
132	0	0
133	0	0
134	0	0
135	0	0
136	0	0
137	0	0
138	0	0
139	0	0
140	0	0
141	0	0
142	0	0
143	0	0
144	0	0
145	0	0
146	0	0
147	0	0
148	0	0
149	0	0
150	0	0
151	0	0
152	0	0
153	0	0
154	0	0
155	0	0
156	0	0
157	0	0
158	0	0
159	0	0
160	0	0
161	0	0
162	0	0
163	0	0
164	0	0
165	0	0
166	0	0
167	0	0
168	0	0
169	0	0
170	0	0
171	0	0
172	0	0
173	0	0
174	0	0
175	0	0
176	0	0
177	0	0
178	0	0
179	0	0
180	0	0
181	0	0
182	0	0
183	0	0
184	0	0
185	0	0
186	0	0
187	0	0
188	0	0
189	0	0
190	0	0
191	0	0
192	0	0
193	0	0
194	0	0
195	0	0
196	0	0
197	0	0
198	0	0
199	0	0
200	0	0
201	0	0
202	0	0
203	0	0
204	0	0
205	0	0
206	0	0
207	0	0
208	0	0
209	0	0
210	0	0
211	0	0
212	0	0
213	0	0
214	0	0
215	0	0
216	0	0
217	0	0
218	0	0
219	0	0
220	0	0
221	0	0
222	0	0
223	0	0
224	0	0
225	0	0
226	0	0
227	0	0
228	0	0
229	0	0
230	0	0
231	0	0
232	0	0
233	0	0
234	0	0
235	0	0
236	0	0
237	0	0
238	0	0
239	0	0
240	0	0
241	0	0
242	0	0
243	0	0
244	0	0
245	0	0
246	0	0
247	0	0
248	0	0
249	0	0
250	0	0
251	0	0
252	0	0
253	0	0
254	0	0
255	0	0
256	0	0
257	0	0
258	0	0
259	0	0
260	0	0
261	0	0
262	0	0
263	0	0
264	0	0
265	0	0
266	0	0
267	0	0
268	0	0
269	0	0
270	0	0
271	0	0
272	0	0
273	0	0
274	0	0
275	0	0
276	0	0
277	0	0
278	0	0
279	0	0
280	0	0
281	0	0
282	0	0
283	0	0
284	0	0
285	0	0
286	0	0
287	0	0
288	0	0
289	0	0
290	0	0
291	0	0
292	0	0
293	0	0
294	0	0
295	0	0
296	0	0
297	0	0
298	0	0
299	0	0
300	0	0
301	0	0
302	0	0
303	0	0
304	0	0
305	0	0
306	0	0
307	0	0
308	0	0
309	0	0
310	0	0
311	0	0
312	0	0
313	0	0
314	0	0
315	0	0
316	0	0
317	0	0
318	0	0
319	0	0
320	0	0
321	0	0
322	0	0
323	0	0
324	0	0
325	0	0
326	0	0
327	0	0
328	0	0
329	0	0
330	0	0
331	0	0
332	0	0
333	0	0
334	0	0
335	0	0
336	0	0
337	0	0
338	0	0
339	0	0
340	0	0
341	0	0
342	0	0
343	0	0
344	0	0
345	0	0
346	0	0
347	0	0
348	0	0
349	0	0
350	0	0
351	0	0
352	0	0
353	0	0
354	0	0
355	0	0
356	0	0
357	0	0
358	0	0
359	0	0
360	0	0
361	0	0
362	0	0
363	0	0
364	0	0
365	0	0
366	0	0.166667
367	0	0.166667
368	0	0.166667
369	0	0.166667
370	0	0.166667
371	0	0.166667
372	0	0.166667
373	0	0.166667
374	0	0.166667
375	0	0.166667
376	0	0.166667
377	0	0.166667
378	0	0.166667
379	0	0
380	0	0
381	0	0
382	0	0
383	0	0
384	0	0
385	0	0
386	0	0
387	0	0
388	0	0
389	0	0
390	0	0
391	0	0
392	0	0
393	0	0
394	0	0
395	0	0
396	0	0
397	0	0
398	0	0
399	0	0
400	0	0
401	0	0
402	0	0
403	0	0
404	0	0
405	0	0
406	0	0
407	0	0
408	0	0
409	0	0
410	0	0
411	0	0
412	0	0
413	0	0
414	0	0
415	0	0
416	0	0
417	0	0
418	0	0
419	0	0
420	0	0
421	0	0
422	0	0
423	0	0
424	0	0
425	0	0
426	0	0
427	0	0
428	0	0
429	0	0
430	0	0
431	0	0
432	0	0
433	0	0
434	0	0
435	0	0
436	0	0
437	0	0
438	0	0
439	0	0
440	0	0
441	0	0
442	0	0
443	0	0
444	0	0
445	0	0
446	0	0
447	0	0
448	0	0
449	0	0
450	0	0
451	0	0
452	0	0
453	0	0
454	0	0
455	0	0
456	0	0
457	0	0
458	0	0
459	0	0
460	0	0
461	0	0
462	0	0
463	0	0
464	0	0
465	0	0
466	0	0
467	0	0
468	0	0
469	0	0
470	0	0
471	0	0
472	0	0
473	0	0
474	0	0
475	0	0
476	0	0
477	0	0
478	0	0
479	0	0
480	0	0
481	0	0
482	0	0
483	0	0
484	0	0
485	0	0
486	0	0
487	0	0
488	0	0
489	0	0
490	0	0
491	0	0
492	0	0
493	0	0
494	0	0
495	0	0
496	0	0
497	0	0
498	0	0
499	0	0
500	0	0
501	0	0
502	0	0
503	0	0
504	0	0
505	0	0
506	0	0
507	0	0
508	0	0
509	0	0
510	0	0
511	0	0
512	0	0
513	0	0
514	0	0
515	0	0
516	0	0
517	0	0
518	0	0
519	0	0
520	0	0
521	0	0
522	0	0
523	0	0
524	0	0
525	0	0
526	0	0
527	0	0
528	0	0
529	0	0
530	0	0
531	0	0
532	0	0
533	0	0
534	0	0
535	0	0
536	0	0
537	0	0
538	0	0
539	0	0
540	0	0
541	0	0
542	0	0
543	0	0
544	0	0
545	0	0
546	0	0
547	0	0
548	0	0
549	0	0
550	0	0
551	0	0
552	0	0
553	0	0
554	0	0
555	0	0
556	0	0
557	0	0
558	0	0
559	0	0
560	0	0
561	0	0
562	0	0
563	0	0
564	0	0
565	0	0
566	0	0
567	0	0
568	0	0
569	0	0
570	0	0
571	0	0
572	0	0
573	0	0
574	0	0
575	0	0
576	0	0
577	0	0
578	0	0
579	0	0
580	0	0
581	0	0
582	0	0
583	0	0
584	0	0
585	0	0
586	0	0
587	0	0
588	0	0
589	0	0
590	0	0
591	0	0
592	0	0
593	0	0
594	0	0
595	0	0
596	0	0
597	0	0
598	0	0
599	0	0
600	0	0
601	0	0
602	0	0
603	0	0
604	0	0
605	0	0
606	0	0
607	0	0
608	0	0
609	0	0
610	0	0
611	0	0
612	0	0
613	0	0
614	0	0
615	0	0
616	0	0
617	0	0
618	0	0
619	0	0
620	0	0
621	0	0
622	0	0
623	0	0
624	0	0
625	0	0
626	0	0
627	0	0
628	0	0
629	0	0
630	0	0
631	0	0
632	0	0
633	0	0
634	0	0
635	0	0
636	0	0
637	0	0
638	0	0
639	0	0
640	0	0
641	0	0
642	0	0
643	0	0
644	0	0
645	0	0.0181818
646	0	0.0181818
647	0	0.0181818
648	0	0.0181818
649	0	0.0181818
650	0	0.0181818
651	0	0.0181818
652	0	0.0181818
653	0	0.0181818
654	0	0.0181818
655	0	0.0181818
656	0	0.025641
657	0	0.025641
658	0	0.0512821
659	0	0.0512821
660	0	0.0512821
661	0	0.0641026
662	0	0.0384615
663	0	0.0384615
664	0	0.0384615
665	0	0.0384615
666	0	0.032967
667	0	0.032967
668	0	0.032967
669	0	0.032967
670	0	0.032967
671	0	0.032967
672	0	0.032967
673	0	0.032967
674	0	0.032967
675	0	0.032967
676	0	0.032967
677	0	0.032967
678	0	0.032967
679	0	0.032967
680	0	0.032967
681	0	0.032967
682	0	0.032967
683	0	0.0285714
684	0	0.0285714
685	0	0.021978
686	0	0.021978
687	0	0.0190476
688	0	0.0190476
689	0	0.0166667
690	0	0.0166667
691	0	0.0147059
692	0	0.0196078
693	0	0.0326797
694	0	0.0196078
695	0	0.0196078
696	0	0.0196078
697	0	0.0196078
698	0	0.0196078
699	0	0.0196078
700	0	0.0196078
701	0	0.0261438
702	0	0.0261438
703	0	0.0526316
704	0	0.0526316
705	0	0.0526316
706	0	0.0467836
707	0	0.0421053
708	0	0.0263158
709	0	0.0263158
710	0	0.0116959
711	0	0.0233918
712	0	0.0233918
713	0	0.0175439
714	0	0.0175439
715	0	0.0116959
716	0	0.0116959
717	0	0.0142857
718	0	0.0142857
719	0	0.0142857
720	0	0.0142857
721	0	0.0380952
722	0	0.0238095
723	0	0.0285714
724	0	0.0619048
725	0	0.0809524
726	0	0.0857143
727	0	0.0857143
728	0	0.0857143
729	0	0.0995671
730	0	0.0869565
731	0	0.126667
732	0	0.126667
733	0	0.126667
734	0	0.150769
735	0	0.132275
736	0	0.147783
737	0	0.229064
738	0	0.211494
739	0	0.21371
740	0	0.215726
741	0	0.188948
742	0	0.456458
743	0	0.38386
744	0	0.489946
745	0	0.484151
746	0	0.476856
747	0	0.663027
748	0	0.0641711
749	0	0.0641711
750	0	0.668578
751	0	0.644991
752	0	0.648899
753	0	0
754	0	0
755	0	0
756	0	0.396087
757	0	0.396087
758	0	0.504561
759	0	0.360195
760	0	0.59353
761	0	0
762	0	0
763	0	0
764	0	0
765	0	0
766	0	0
767	0	0
768	0	0
769	0	0
770	0	0
771	0	0
772	0	0
773	0	0
774	0	0
775	0	0
776	0	0
777	0	0
778	0	0
779	0	0
780	0	0
781	0	0
782	0	0
783	0	0
784	0	0
785	0	0
786	0	0
787	0	0
788	0	0
789	0	0
790	0	0
791	0	0
792	0	0
793	0	0
794	0	0
795	0	0
796	0	0
797	0	0
798	0	0
799	0	0
800	0	0
801	0	0
802	0	0
803	0	0
804	0	0
805	0	0
806	0	0
807	0	0
808	0	0
809	0	0
810	0	0
811	0	0
812	0	0
813	0	0
814	0	0
815	0	0
816	0	0
817	0	0
818	0	0
819	0	0
820	0	0
821	0	0
822	0	0
823	0	0
824	0	0
825	0	0
826	0	0
827	0	0
828	0	0
829	0	0
830	0	0
831	0	0
832	0	0
833	0	0
834	0	0
835	0	0.285714
836	0	0.181818
837	0	0.478717
838	0	0.173055
839	0	0.200929
840	0	0.127353
841	0	0.150609
842	0	0.331049
843	0	0.373794
844	0	0.0457516
845	0	0.0701754
846	0	0.0784314
847	0	0.0735294
848	0	0.278282
849	0	0.272556
850	0	0.0915916
851	0	0.102102
852	0	0.350027
853	0	0.214286
854	0	0
855	0	0
856	0	0
857	0	0
858	0	0
859	0	0
860	0	0
861	0	0
862	0	0
863	0	0
864	0	0
865	0	0
866	0	0
867	0	0
868	0	0
869	0	0
870	0	0
871	0	0
872	0	0
873	0	0
874	0	0.458333
875	0	0.458333
876	0	0.458333
877	0	0.458333
878	0	0.458333
879	0	0.509804
880	0	0.288421
881	0	0.0666667
882	0	0.0666667
883	0	0.0666667
884	0	0
885	0	0
886	0	0
887	0	0
888	0	0
889	0	0
890	0	0
891	0	0
892	0	0
893	0	0
894	0	0
895	0	0
896	0	0
897	0	0
898	0	0
899	0	0
900	0	0
901	0	0
902	0	0
903	0	0
904	0	0
905	0	0.470769
906	0	0.60101
907	0	0.288199
908	0	0.328044
909	0	0
910	0	0
911	0	0
912	0	0
913	0	0
914	0	0
915	0	0.2445
916	0	0.53149
917	0	0.584746
918	0	0.238306
919	0	0.348837
920	0	0.201991
921	0	0.736134
922	0	0.736134
923	0	0.786555
924	0	0.3
925	0	0.3
926	0	0.847347
927	0	0.957447
928	0	0.460981
929	0	0.242424
930	0	0.444444
931	0	0.333333
932	0	0
933	0	0
934	0	0
935	0	0
936	0	0
937	0	0
938	0	0
939	0	0
940	0	0
941	0	0
942	0	0
943	0	0
944	0	0
945	0	0
946	0	0
947	0	0
948	0	0
949	0	0
950	0	0
951	0	0
952	0	0
953	0	0
954	0	0
955	0	0
956	0	0
957	0	0
958	0	0
959	0	0
960	0	0
961	0	0
962	0	0
963	0	0
964	0	0
965	0	0
966	0	0
967	0	0
968	0	0
969	0	0
970	0	0
971	0	0
972	0	0
973	0	0
974	0	0
975	0	0
976	0	0.552986
977	0	0.415126
978	0	0.65812
979	0	0.59159
980	0	0
981	0	0
982	0	0
983	0	0
984	0	0
985	0	0
986	0	0
987	0	0
988	0	0
989	0	0
990	0	0
991	0	0
992	0	0
993	0	0
994	0	0
995	0	0
996	0	0
997	0	0
998	0	0
999	0	0
1000	0	0
1001	0	0
1002	0	0.0357143
1003	0	0.0357143
1004	0	0.0357143
1005	0	0.0888889
1006	0	0.0888889
1007	0	0.153846
1008	0	0.25
1009	0	0.308824
1010	0	0.333333
1011	0	0.342857
1012	0	0.311688
1013	0	0.293478
1014	0	0.962208
1015	0	0.965775
1016	0	0.974583
1017	0	0.974583
1018	0	0.972804
1019	0	0.972854
1020	0	0.971083
1021	0	0.902215
1022	0	0.83004
1023	0	0.4
1024	0	0.1
1025	0	0
1026	0	0
1027	0	0
1028	0	0.87766
1029	0	0.886878
1030	0	0.933352
1031	0	0.943474
1032	0	0.930091
1033	0	0.930091
1034	0	0.94387
1035	0	0.94387
1036	0	0.94387
1037	0	0.94387
1038	0	0.694083
1039	0	0.483333
1040	0	0.316017
1041	0	0.183824
1042	0	0.659652
1043	0	0.169231
1044	0	0.649896
1045	0	0.645588
1046	0	0.646106
1047	0	0.646044
1048	0	0.522596
1049	0	1
1050	0	0.166667
1051	0	0.0666667
1052	0	0.047619
1053	0	0.0888889
1054	0	0.0384615
1055	0	0
1056	0	0
1057	0	0
1058	0	0
1059	0	0
1060	0	0
1061	0	0
1062	0	0
1063	0	0
1064	0	0
1065	0	0
1066	0	0
1067	0	0.3
1068	0	0.190476
1069	0	0.551121
1070	0	0.504316
1071	0	0.507111
1072	0	0.290373
1073	0	0.342067
1074	0	0.643827
1075	0	0.047619
1076	0	0.047619
1077	0	0
1078	0	0
1079	0	0
1080	0	0
1081	0	0
1082	0	0
1083	0	0.584832
1084	0	0.581609
1085	0	0.325827
1086	0	0.394602
1087	0	0
1088	0	0
1089	0	0
1090	0	0
1091	0	0
1092	0	0
1093	0	0
1094	0	0
1095	0	0
1096	0	0.928571
1097	0	0.389453
1098	0	0.102564
1099	0	0.201426
1100	0	0.433515
1101	0	0.047619
1102	0	0.047619
1103	0	0.142857
1104	0	0.481284
1105	0	0.203077
1106	0	0.472702
1107	0	0.604396
1108	0	0.576923
1109	0	0.576923
1110	0	0.545455
1111	0	0.545455
1112	0	0.545455
1113	0	0.545455
1114	0	0.649589
1115	0	0.649562
1116	0	0.778462
1117	0	0.426316
1118	0	0.392157
1119	0	0.361905
1120	0	0.361905
1121	0	0.361905
1122	0	0.466667
1123	0	0.466667
1124	0	0.333333
1125	0	0.133333
1126	0	0.0555556
1127	0	0.111111
1128	0	0.111111
1129	0	0.0888889
1130	0	0.0666667
1131	0	0.0222222
1132	0	0.0277778
1133	0	0.0277778
1134	0	0.0277778
1135	0	0.0277778
1136	0	0.0277778
1137	0	0.0277778
1138	0	0.0277778
1139	0	0.107143
1140	0	0.537931
1141	0	0.343434
1142	0	0.471861
1143	0	0.471861
1144	0	0.715789
1145	0	0.486667
1146	0	0.331118
1147	0	0.253805
1148	0	0.227215
1149	0	0.38232
1150	0	0.225641
1151	0	0.140351
1152	0	0.205595
1153	0	0.168421
1154	0	0.251131
1155	0	0.241546
1156	0	0.19704
1157	0	0.180851
1158	0	0.153469
1159	0	0.535771
1160	0	0.62331
1161	0	0.269231
1162	0	0.269231
1163	0	0.230769
1164	0	0.209524
1165	0	0.0896552
1166	0	0.103649
1167	0	0.363539
1168	0	0.12656
1169	0	0.487875
1170	0	0.482554
1171	0	0.170732
1172	0	0.149206
1173	0	0.0421053
1174	0	0.0549451
1175	0	0.111111
1176	0	0.111111
1177	0	0.0666667
1178	0	0.215385
1179	0	0.531707
1180	0	0.493658
1181	0	0.50303
1182	0	0.44
1183	0	0.612549
1184	0	0.612549
1185	0	0.435379
1186	0	0.555307
1187	0	0.580608
1188	0	0.163636
1189	0	0.166667
1190	0	0.151515
1191	0	0.151515
1192	0	0.118197
1193	0	0.113946
1194	0	0.126531
1195	0	0.674661
1196	0	0.686854
1197	0	0.319048
1198	0	0.376894
1199	0	0.109091
1200	0	0.178571
1201	0	0.4
1202	0	0.4
1203	0	0.190476
1204	0	0.190476
1205	0	0.285714
1206	0	0.285714
1207	0	0.285714
1208	0	0.285714
1209	0	0.80685
1210	0	0.810063
1211	0	0.267131
1212	0	0.804174
1213	0	0.338016
1214	0	0.828322
1215	0	0.832474
1216	0	0
1217	0	0
1218	0	0
1219	0	0
1220	0	0
1221	0	0
1222	0	0
1223	0	0
1224	0	0
1225	0	0
1226	0	0
1227	0	0
1228	0	0
1229	0	0
1230	0	0
1231	0	0
1232	0	0
1233	0	0
1234	0	0
1235	0	0
1236	0	0
1237	0	0
1238	1	0
1239	0	0
1240	0	0
1241	0	0
1242	0	0
1243	0	0
1244	0	0
1245	0	0
1246	0	0
1247	0	0
1248	0	0
1249	0	0
1250	0	0
1251	0	0
1252	0	0
1253	0	0
1254	0	0
1255	0	0
1256	0	0
1257	0	0
1258	0	0
1259	0	0
1260	0	0
1261	0	0
1262	0	0
1263	0	0
1264	0	0
1265	0	0
1266	0	0
1267	0	0
1268	0	0
1269	0	0
1270	0	0
1271	0	0
1272	0	0
1273	0	0
1274	0	0
1275	0	0
1276	0	0
1277	0	0
1278	0	0
1279	0	0
1280	0	0
1281	0	0
1282	0	0
1283	0	0
1284	0	0
1285	0	0
1286	0	0
1287	0	0
1288	0	0
1289	0	0
1290	0	0
1291	0	0
1292	0	0
1293	0	0
1294	0	0
1295	0	0
1296	0	0
1297	0	0
1298	0	0
1299	0	0
1300	0	0
1301	0	0
1302	0	0
1303	0	0
1304	0	0
1305	0	0
1306	0	0
1307	0	0
1308	0	0
1309	0	0
1310	0	0
1311	0	0
1312	0	0
1313	0	0
1314	0	0
1315	0	0
1316	0	0
1317	0	0
1318	0	0
1319	0	0
1320	0	0
1321	0	0
1322	0	0
1323	0	0
1324	0	0
1325	0	0
1326	0	0
1327	0	0
1328	0	0
1329	0	0
1330	0	0
1331	0	0
1332	0	0
1333	0	0
1334	0	0
1335	0	0
1336	0	0
1337	0	0
1338	0	0
1339	0	0
1340	0	0
1341	0	0
1342	0	0
1343	0	0
1344	0	0
1345	0	0
1346	0	0
1347	0	0
1348	0	0
1349	0	0
1350	0	0
1351	0	0
1352	0	0
1353	0	0
1354	0	0
1355	0	0
1356	0	0
1357	0	0
1358	0	0
1359	0	0
1360	0	0
1361	0	0
1362	0	0
1363	0	0
1364	0	0
1365	0	0
1366	0	0
1367	0	0
1368	0	0
1369	0	0
1370	0	0
1371	0	0
1372	0	0
1373	0	0
1374	0	0
1375	0	0
1376	0	0
1377	0	0
1378	0	0
1379	0	0
1380	0	0
1381	0	0
1382	0	0
1383	0	0
1384	0	0
1385	0	0
1386	0	0
1387	0	0
1388	0	0
1389	0	0
1390	0	0
1391	0	0
1392	1	0
1393	1	0
1394	1	0
1395	1	0
1396	1	0
1397	1	0
1398	1	0
1399	1	0
1400	1	0
1401	1	0
1402	0	0
1403	0	0
1404	0	0
1405	0	0
1406	0	0
1407	0	0
1408	0	0
1409	0	0
1410	0	0
1411	0	0
1412	0	0
1413	0	0
1414	0	0
1415	0	0
1416	1	0
1417	1	0
1418	1	0
1419	1	0
1420	1	0
1421	1	0
1422	1	0
1423	1	0
1424	1	0
1425	1	0
1426	1	0
1427	1	0
1428	1	0
1429	0	0
1430	0	0
1431	0	0
1432	0	0
1433	0	0
1434	0	0
1435	0	0
1436	0	0
1437	0	0
1438	0	0
1439	0	0
1440	0	0
1441	0	0
1442	0	0
1443	0	0
1444	0	0
1445	0	0
1446	0	0
1447	0	0
1448	0	0
1449	0	0
1450	0	0
1451	0	0
1452	0	0
1453	0	0
1454	0	0
1455	0	0
1456	0	0
1457	0	0
1458	0	0
1459	0	0
1460	0	0
1461	0	0
1462	0	0
1463	0	0
1464	0	0
1465	0	0
1466	0	0
1467	0	0
1468	0	0
1469	0	0
1470	0	0
1471	0	0
1472	0	0
1473	0	0
1474	0	0
1475	0	0
1476	0	0
1477	0	0
1478	0	0
1479	0	0
1480	0	0
1481	0	0
1482	0	0
1483	0	0
1484	0	0
1485	0	0
1486	0	0
1487	0	0
1488	0	0
1489	0	0
1490	0	0
1491	0	0
1492	0	0
1493	0	0
1494	0	0
1495	0	0
1496	0	0
1497	0	0
1498	0	0
1499	0	0
1500	0	0
1501	0	0
1502	0	0
1503	0	0
1504	0	0
1505	0	0
1506	0	0
1507	0	0
1508	0	0
1509	0	0
1510	0	0
1511	0	0
1512	0	0
1513	0	0
1514	0	0
1515	0	0
1516	0	0
1517	0	0
1518	0	0
1519	0	0
1520	0	0
1521	0	0
1522	0	0
1523	0	0
1524	0	0
1525	0	0
1526	0	0
1527	0	0
1528	0	0
1529	0	0
1530	0	0
1531	0	0
1532	0	0
1533	0	0
1534	0	0
1535	0	0
1536	0	0
1537	0	0
1538	0	0
1539	0	0
1540	0	0
1541	0	0
1542	0	0
1543	0	0
1544	0	0
1545	0	0
1546	0	0
1547	0	0
1548	0	0
1549	0	0
1550	0	0
1551	0	0
1552	0	0
1553	0	0
1554	0	0
1555	0	0
1556	0	0
1557	0	0
1558	0	0
1559	0	0
1560	0	0
1561	0	0
1562	0	0
1563	0	0
1564	0	0
1565	0	0
1566	0	0
1567	0	0
1568	0	0
1569	0	0
1570	0	0
1571	0	0
1572	0	0
1573	0	0
1574	0	0
1575	0	0
1576	0	0
1577	0	0
1578	0	0
1579	0	0
1580	0	0
1581	0	0
1582	0	0
1583	0	0
1584	0	0
1585	0	0
1586	0	0
1587	0	0
1588	0	0
1589	0	0
1590	0	0
1591	0	0
1592	0	0
1593	0	0
1594	0	0
1595	0	0
1596	0	0
1597	0	0
1598	0	0
1599	0	0
1600	0	0
1601	0	0
1602	0	0
1603	0	0
1604	0	0
1605	0	0
1606	0	0
1607	0	0
1608	0	0
1609	0	0
1610	0	0
1611	0	0
1612	0	0
1613	0	0
1614	0	0
1615	0	0
1616	0	0
1617	0	0
1618	0	0
1619	0	0
1620	0	0
1621	0	0
1622	0	0
1623	0	0
1624	0	0
1625	0	0
1626	0	0
1627	0	0
1628	0	0
1629	0	0
1630	0	0
1631	0	0
1632	0	0
1633	0	0
1634	0	0
1635	0	0
1636	0	0
1637	0	0
1638	0	0
1639	0	0
1640	0	0
1641	0	0
1642	0	0
1643	0	0
1644	0	0
1645	0	0
1646	0	0
1647	0	0
1648	0	0
1649	0	0
1650	0	0
1651	0	0
1652	0	0
1653	0	0
1654	0	0
1655	0	0
1656	0	0
1657	0	0
1658	0	0
1659	0	0
1660	0	0
1661	0	0
1662	0	0
1663	0	0
1664	0	0
1665	0	0
1666	0	0
1667	0	0
1668	0	0
1669	0	0
1670	0	0
1671	0	0
1672	0	0
1673	0	0
1674	0	0
1675	0	0
1676	0	0
1677	0	0
1678	0	0
1679	0	0
1680	0	0
1681	0	0
1682	0	0
1683	0	0
1684	0	0
1685	0	0
1686	0	0
1687	0	0
1688	0	0
1689	0	0
1690	0	0
1691	0	0
1692	0	0
1693	0	0
1694	0	0
1695	0	0.147059
1696	0	0.15
1697	0	0.192308
1698	0	0.238095
1699	0	0.4
1700	0	0.4
1701	0	0.817929
1702	0	0.817921
1703	0	0.817921
1704	0	0.965921
1705	0	0.833333
1706	0	0.994604
1707	0	0.994609
1708	0	0.991039
1709	0	0.994619
1710	0	0.994624
1711	0	0.994624
1712	0	0.994624
1713	0	0.994628
1714	0	0.994624
1715	0	0.994619
1716	0	0
1717	0	0.996411
1718	0	0.996411
1719	0	0.996411
1720	0	0.996411
1721	0	0
1722	0	0
1723	0	0
1724	0	0
1725	0	0
1726	0	0
1727	0	0.998206
1728	0	0.998206
1729	0	0
1730	0	0
1731	0	1
1732	0	1
1733	0	1
1734	0	1
1735	0	1
1736	0	1
1737	0	1
1738	0	1
1739	0	1
1740	1	1
1741	1	1
1742	1	1
1743	1	1
1744	1	1
1745	1	1
1746	0	0.998208
1747	0	0.998208
1748	0	0.998208
1749	0	0.998208
1750	0	1
1751	1	1
1752	1	1
1753	1	1
1754	1	1
1755	1	1
1756	1	1
1757	1	1
1758	1	1
1759	1	1
1760	1	1
1761	1	1
1762	1	1
1763	1	1
1764	1	1
1765	1	1
1766	1	1
1767	1	1
1768	1	1
1769	0	0.870068
1770	0	1
1771	0	1
1772	0	0
1773	0	0
1774	0	0
1775	0	0
1776	0	0
1777	0	0
1778	0	0
1779	0	0
1780	0	0
1781	0	0
1782	0	0
1783	0	0
1784	0	0
1785	0	0
1786	0	0
1787	0	0
1788	0	0
1789	0	0
1790	0	0
1791	0	0
1792	0	0
1793	0	0
1794	0	0.166667
1795	0	0.166667
1796	0	0.166667
1797	0	0.166667
1798	0	0.166667
1799	0	0.166667
1800	0	0.996404
1801	0	0.989278
1802	0	0.983983
1803	0	0.983983
1804	0	0.52381
1805	0	0.998205
1806	0	0
1807	0	0
1808	0	0
1809	0	0
1810	0	0
1811	1	0
1812	1	0
1813	1	0
1814	1	0
1815	1	0
1816	1	0
1817	1	0
1818	0	0
1819	0	0
1820	0	0
1821	0	0
1822	0	0
1823	0	0
1824	0	0
1825	0	0
1826	0	0
1827	0	0
1828	0	0
1829	0	0
1830	0	0
1831	0	0
1832	0	0
1833	0	0
1834	0	0
1835	0	0
1836	0	0
1837	0	0
1838	0	0
1839	0	0
1840	0	0
1841	0	0
1842	0	1
1843	1	1
1844	1	1
1845	1	1
1846	0	1
1847	1	1
1848	1	1
1849	1	1
1850	1	1
1851	1	1
1852	1	1
1853	1	1
1854	0	0.998214
1855	0	0.998214
1856	0	0.333333
1857	0	0.994649
1858	0	0.998214
1859	0	0.998214
1860	0	0.998214
1861	0	0
1862	1	0
1863	0	0.99643
1864	0	0.998214
1865	1	1
1866	1	1
1867	1	1
1868	1	1
1869	0	0.998213
1870	0	1
1871	0	1
1872	0	1
1873	0	1
1874	0	1
1875	0	0.854251
1876	0	1
1877	0	1
1878	0	1
1879	0	1
1880	0	1
1881	0	1
1882	0	1
1883	0	1
1884	0	0.591312
1885	0	0
1886	0	0
1887	0	0
1888	0	0.591312
1889	0	0
1890	0	0
1891	0	0
1892	0	0.643478
1893	0	0.75934
1894	0	0.76939
1895	0	0.758225
1896	0	0.749547
1897	0	0.52024
1898	0	0.5
1899	0	0.5
1900	0	0.5
1901	0	0.5
1902	0	0.4
1903	0	0.5
1904	0	0.47564
1905	0	0
1906	0	0
1907	0	0
1908	0	0
1909	0	0
1910	0	0
1911	0	0
1912	0	0
1913	0	0.572308
1914	0	0.814286
1915	0	0.9
1916	0	0.814286
1917	0	0.814286
1918	0	0.814286
1919	0	0.687747
1920	0	0.277584
1921	0	0.412485
1922	0	0.243421
1923	0	0.238402
1924	0	0.236903
1925	0	0.309511
1926	0	0.398111
1927	0	0.166461
1928	0	0.153129
1929	0	0.147618
1930	0	0.219096
1931	0	0.394506
1932	0	0.400452
1933	0	0.448485
1934	0	0.480836
1935	0	0.495122
1936	0	0.230769
1937	0	0.265327
1938	0	0.20963
1939	0	0.201792
1940	0	0.209406
1941	0	0.179682
1942	0	0.34632
1943	0	0.122921
1944	0	0.333333
1945	0	0.0777156
1946	0	0.119827
1947	0	0.111111
1948	0	0.133333
1949	0	0.25
1950	0	0.173913
1951	0	0.172973
1952	0	0.165862
1953	0	0.147981
1954	0	0.167616
1955	0	0.649231
1956	0	0.649231
1957	0	0.0737638
1958	0	0.148991
1959	0	0.129258
1960	0	0.0725703
1961	0	0.0555556
1962	0	0.0727273
1963	0	0.119763
1964	0	0.133333
1965	0	0
1966	0	0
1967	0	0.277778
1968	0	0.0557952
1969	0	0.404024
1970	0	0.404024
1971	0	0.0607865
1972	0	0.413333
1973	0	0.366667
1974	0	0.366667
1975	0	0.366667
1976	0	0.0705785
1977	0	0.0925359
1978	0	0.0666667
1979	0	0.0666667
1980	0	0.0952381
1981	0	0.0952381
1982	0	0.0875878
1983	0	0.0921246
1984	0	0.0943127
1985	0	0.16667
1986	0	0.160669
1987	0	0.218182
1988	0	0.333333
1989	0	0.333333
1990	0	0.333333
1991	0	0.333333
1992	0	0.333333
1993	0	0.333333
1994	0	0.333333
1995	0	0.255129
1996	0	0
1997	0	0
1998	0	0
1999	0	0
2000	0	0
2001	0	0.333333
2002	0	0.166667
2003	0	0.166667
2004	0	0.154373
2005	0	0.0833333
2006	0	0.111111
2007	0	0.111111
2008	0	0.111111
2009	0	0.219048
2010	0	0.0357143
2011	0	0.153284
2012	0	0.284898
2013	0	0
2014	0	0
2015	0	0
2016	0	0
2017	0	0
2018	0	0.315476
2019	0	0.128205
2020	0	0.369898
2021	0	0.239535
2022	0	0.221523
2023	0	0.209524
2024	0	0.162981
2025	0	0.232136
2026	0	0.150997
2027	0	0.21353
2028	0	0.228048
2029	0	0.360317
2030	0	0.377778
2031	0	0.316481
2032	0	0.336123
2033	0	0.509678
2034	0	1
2035	0	1
2036	0	1
2037	0	1
2038	0	1
2039	0	0.714537
2040	0	0
2041	0	0
2042	0	0
2043	0	0
2044	0	0
2045	0	0
2046	0	0
2047	0	0
2048	0	0.886957
2049	0	1
2050	0	0.978601
2051	0	0.978628
2052	0	0.777778
2053	0	1
2054	0	1
2055	0	0.998206
2056	0	0.998206
2057	0	0.998206
2058	0	0.998206
2059	1	1
2060	1	1
2061	1	1
2062	0	0.998208
2063	0	0.998209
2064	0	0.998209
2065	0	0.998209
2066	0	0.998209
2067	0	0.998145
2068	0	0.996421
2069	0	0.998209
2070	0	0.998209
2071	0	0.998209
2072	0	0.998209
2073	0	0.998209
2074	0	0.996421
2075	0	0
2076	0	0.996424
2077	0	0.996427
2078	0	0.996427
2079	0	0.994648
2080	0	0.996427
2081	0	0.996427
2082	0	0.996427
2083	0	0.996427
2084	0	0.998211
2085	1	1
2086	1	1
2087	1	1
2088	1	1
2089	0	0.998209
2090	0	0.998209
2091	0	0.998209
2092	0	0.998209
2093	0	0.998209
2094	0	1
2095	0	1
2096	0	1
2097	0	1
2098	0	0.5
2099	0	0.5
2100	0	0.871751
2101	0	0.411765
2102	0	0.378917
2103	0	0.33156
2104	0	0.215735
2105	0	0.452238
2106	0	0.58722
2107	0	0
2108	0	0
2109	0	0
2110	0	0
2111	0	0
2112	0	0.194444
2113	0	0.217949
2114	0	0.238095
2115	0	0.362319
2116	0	0.264151
2117	0	0.271303
2118	0	0.309898
2119	0	0.576923
2120	0	0.571864
2121	0	0.414229
2122	0	0.973399
2123	0	0.973398
2124	0	0.111111
2125	0	0.277778
2126	0	0.464286
2127	0	0.464286
2128	0	0.464286
2129	0	0.52381
2130	0	0.571429
2131	0	0.996422
2132	0	0.996422
2133	0	0.996422
2134	0	0.996419
2135	0	0.982224
2136	0	0.982224
2137	0	0.982224
2138	0	0.982224
2139	0	0.982224
2140	0	1
2141	0	0.647942
2142	0	0.988372
2143	0	0.923619
2144	0	0.99463
2145	0	1
2146	0	1
2147	1	1
2148	1	1
2149	1	1
2150	1	1
2151	1	1
2152	1	1
2153	0	0.998208
2154	1	1
2155	1	1
2156	1	1
2157	1	1
2158	1	1
2159	1	1
2160	0	0
2161	0	0
2162	0	0
2163	0	0
2164	0	0.998192
2165	0	0.983931
2166	0	0.97866
2167	0	0.983974
2168	0	0.975124
2169	0	0.973355
2170	0	0.983876
2171	0	0.75
2172	0	0.996414
2173	0	0.996417
2174	0	0
2175	0	0.998206
2176	0	0.998206
2177	0	0.998206
2178	0	0.998206
2179	0	0.998206
2180	0	0.998206
2181	0	1
2182	1	1
2183	1	1
2184	1	1
2185	1	1
2186	1	1
2187	1	1
2188	0	0.998206
2189	0	0.998206
2190	0	1
2191	0	1
2192	0	0.966487
2193	0	0.731552
2194	0	1
2195	0	0.746757
2196	1	1
2197	1	1
2198	1	1
2199	1	1
2200	1	1
2201	1	1
2202	1	1
2203	1	1
2204	1	1
2205	1	1
2206	1	1
2207	1	1
2208	0	1
2209	0	0.998208
2210	0	0.998208
2211	0	1
2212	0	0.448529
2213	0	0.285714
2214	0	0.285714
2215	0	0.285714
2216	0	0.285714
2217	0	0.285714
2218	0	0.285714
2219	0	0.285714
2220	0	0.277778
2221	0	0.138889
2222	0	0.138889
2223	0	0.138889
2224	0	0.111111
2225	0	0.277778
2226	0	0.222222
2227	0	0.181818
2228	0	0.272727
2229	0	0.381818
2230	0	0.691936
2231	0	0
2232	0	0
2233	0	0
2234	0	1
2235	0	1
2236	0	0.798742
2237	0	0
2238	0	0
2239	0	0
2240	0	0
2241	0	0
2242	0	0
2243	0	0
2244	0	0
2245	0	0
2246	0	0
2247	0	0
2248	0	0
2249	0	0
2250	0	0
2251	0	0
2252	0	0
2253	0	0
2254	0	0
2255	0	0
2256	0	0
2257	0	0
2258	0	0
2259	0	0.996406
2260	0	0.996401
2261	0	0.996401
2262	0	0.996401
2263	0	0.996398
2264	0	0.996398
2265	0	0.996398
2266	0	0.998198
2267	0	0.998198
2268	0	0.996401
2269	0	0.996398
2270	0	0.996398
2271	0	0.994604
2272	0	0.996398
2273	0	0.996398
2274	0	0.996398
2275	0	0.994604
2276	0	0.996401
2277	0	0.996401
2278	1	0
2279	1	0
2280	1	0
2281	1	0
2282	1	0
2283	1	0
2284	1	0
2285	1	0
2286	0	0
2287	0	0
2288	0	0
2289	0	0
2290	0	0
2291	0	0
2292	0	0.992827
2293	0	0.992827
2294	0	1
2295	0	0.4
2296	0	0.985663
2297	0	0.987439
2298	0	0.987439
2299	0	0.987439
2300	0	0.987439
2301	0	0.846154
2302	0	0.846154
2303	0	0.846154
2304	0	0.846154
2305	0	0.638095
2306	0	0.419118
2307	0	0.388664
2308	0	0.379801
2309	0	0.34359
2310	0	0.289037
2311	0	0.234672
2312	0	0.240241
2313	0	0.853734
2314	0	1
2315	0	1
2316	0	1
2317	0	1
2318	0	1
2319	0	1
2320	0	0.777778
2321	0	0.777778
2322	0	0.547126
2323	0	0.517241
2324	0	0.455645
2325	0	0.153846
2326	0	0.712912
2327	0	0.669835
2328	0	0.600223
2329	0	0.713846
2330	0	0.733333
2331	0	0.390476
2332	0	0.390476
2333	0	0.444444
2334	0	0.444444
2335	0	0.571429
2336	0	0.571429
2337	0	0.508418
2338	0	0.633634
2339	0	0.36
2340	0	0.36
2341	0	0.454545
2342	0	0.454545
2343	0	0.571429
2344	0	0.333333
2345	0	0.333333
2346	0	0.333333
2347	0	0.333333
2348	0	0
2349	0	0.383333
2350	0	0.383333
2351	0	0.383333
2352	0	0.437908
2353	0	0.107143
2354	0	0.19883
2355	0	0.20915
2356	0	0
2357	0	0
2358	0	0
2359	0	0
2360	0	0
2361	0	0.166667
2362	0	0.1
2363	0	0.0666667
2364	0	0.492647
2365	0	0.307359
2366	0	0.333333
2367	0	0.0999548
2368	0	0.267994
2369	0	0
2370	0	0
2371	0	0.707629
2372	0	0.687004
2373	0	0.267166
2374	0	0.255155
2375	0	0.252929
2376	0	0.233353
2377	0	0.253569
2378	0	0.25909
2379	0	0.227261
2380	0	0.239203
2381	0	0.261538
2382	0	0.285714
2383	0	0.196581
2384	0	0.22
2385	0	0.252964
2386	0	0.236364
2387	0	0.266667
2388	0	0.266667
2389	0	0.6
2390	0	0
2391	0	0
2392	0	0.833333
2393	0	0.833333
2394	0	0.833333
2395	0	0.833333
2396	0	0.833333
2397	0	0.833333
2398	0	0.152038
2399	0	0.152174
2400	0	0.148707
2401	0	0.14297
2402	0	0.170742
2403	0	0.244301
2404	0	0.504739
2405	0	0.255588
2406	0	0.138607
2407	0	0.263003
2408	0	0.226316
2409	0	0.308333
2410	0	0.248366
2411	0	0.355556
2412	0	0.444444
2413	0	0.392857
2414	0	0.333333
2415	0	0.333333
2416	0	0.333333
2417	0	0.333333
2418	0	0.469267
2419	0	0
2420	0	0
2421	0	1
2422	0	0.561345
2423	0	0.702703
2424	0	0.819977
2425	0	0.880319
2426	0	1
2427	0	0.94978
2428	0	0.998188
2429	0	0.996385
2430	0	0.99459
2431	0	0.99459
2432	0	0.99459
2433	0	0.996388
2434	0	0.996388
2435	0	0.996388
2436	0	0.996388
2437	0	0.996388
2438	0	0.996388
2439	0	0.996388
2440	0	0.996388
2441	0	0.996388
2442	0	0.996388
2443	0	0.996388
2444	0	0.99459
2445	0	0.99459
2446	0	0.99459
2447	0	0.99279
2448	0	0.996385
2449	0	0.333333
2450	0	0.333333
2451	1	0
2452	1	0
2453	1	0
2454	0	0
2455	0	0.985671
2456	0	0
2457	0	0.991007
2458	0	0.992796
2459	0	0.992796
2460	0	0.992796
2461	0	0
2462	0	0.998192
2463	0	0.998192
2464	0	0
2465	0	0
2466	0	0
2467	0	0
2468	0	0
2469	0	0
2470	0	0
2471	0	0
2472	0	0
2473	0	0
2474	0	0
2475	0	0
2476	0	0
2477	0	0
2478	0	0
2479	0	0
2480	0	0
2481	0	0
2482	0	0
2483	0	0
2484	0	0
2485	0	0
2486	0	0
2487	0	0
2488	0	0
2489	0	0
2490	0	0
2491	0	0
2492	0	0
2493	0	0
2494	0	0
2495	0	0
2496	0	0
2497	0	0
2498	0	0
2499	0	0
2500	0	0
2501	0	0
2502	0	0
2503	0	0
2504	0	0
2505	0	0
2506	0	0
2507	0	0
2508	0	0.996388
2509	0	0.994585
2510	0	0.992777
2511	0	0
2512	0	0
2513	0	0
2514	0	0
2515	0	0.985605
2516	0	0
2517	0	0
2518	0	0
2519	0	0
2520	0	0
2521	0	0
2522	0	0
2523	0	0
2524	0	0
2525	0	0
2526	0	0
2527	0	0
2528	0	0
2529	0	0
2530	0	0
2531	0	0
2532	0	0
2533	0	0
2534	0	0
2535	0	0
2536	0	0
2537	0	0
2538	0	0
2539	0	0
2540	0	0
2541	0	0
2542	0	0
2543	0	0
2544	0	0
2545	0	0
2546	0	0
2547	0	0
2548	0	0
2549	0	0
2550	0	0
2551	0	0
2552	0	0
2553	0	0
2554	0	0
2555	0	0
2556	0	0
2557	0	0
2558	0	0
2559	0	0
2560	0	0
2561	0	0
2562	0	0
2563	0	0
2564	0	0
2565	0	0
2566	0	0
2567	0	0
2568	0	0
2569	0	0
2570	0	0
2571	0	0
2572	0	0
2573	0	0
2574	0	0
2575	0	0
2576	0	0
2577	0	0
2578	0	0
2579	0	0
2580	0	0
2581	0	0
2582	0	0
2583	0	0
2584	0	0
2585	0	0
2586	0	0
2587	0	0
2588	0	0
2589	0	0
2590	0	0
2591	0	0
2592	0	0
2593	0	0
2594	0	0
2595	0	0
2596	0	0
2597	0	0
2598	0	0
2599	0	0
2600	0	0
2601	0	0
2602	0	0
2603	0	0
2604	0	0
2605	0	0
2606	0	0
2607	0	0
2608	0	0
2609	0	0
2610	0	0
2611	0	0
2612	0	0
2613	0	0
2614	0	0
2615	0	0
2616	0	0
2617	0	0
2618	0	0
2619	0	0
2620	0	0
2621	0	0
2622	0	0
2623	0	0
2624	0	0
2625	0	0
2626	0	0
2627	0	0
2628	0	0
2629	0	0
2630	0	0
2631	0	0
2632	0	0
2633	0	0
2634	0	0
2635	0	0
2636	0	0
2637	0	0
2638	0	0
2639	0	0
2640	0	0
2641	0	0
2642	0	0
2643	0	0
2644	0	0
2645	0	0
2646	0	0
2647	0	0
2648	0	0
2649	0	0
2650	0	0
2651	0	0
2652	0	0
2653	0	0
2654	0	0
2655	0	0
2656	0	0
2657	0	0
2658	0	0
2659	0	0
2660	0	0
2661	0	0
2662	0	0
2663	0	0
2664	0	0
2665	0	0
2666	0	0
2667	0	0
2668	0	0
2669	0	0
2670	0	0
2671	0	0
2672	0	0
2673	0	0
2674	0	0
2675	0	0
2676	0	0
2677	0	0
2678	0	0
2679	0	0
2680	0	0
2681	0	0
2682	0	0
2683	0	0
2684	0	0
2685	0	0
2686	0	0
2687	0	0
2688	0	0
2689	0	0
2690	0	0
2691	0	0
2692	0	0
2693	0	0
2694	0	0
2695	0	0
2696	0	0
2697	0	0
2698	0	0
2699	0	0
2700	0	0
2701	0	0
2702	0	0
2703	0	0
2704	0	0
2705	0	0
2706	0	0
2707	0	0
2708	0	0
2709	0	0
2710	0	0
2711	0	0
2712	0	0
2713	0	0
2714	0	0
2715	0	0
2716	0	0
2717	0	0
2718	0	0
2719	0	0
2720	0	0
2721	0	0
2722	0	0.989145
2723	0	0.989145
2724	0	0.989145
2725	0	0.989145
2726	0	0
2727	0	0.990901
2728	0	1
2729	0	1
2730	0	1
2731	0	0.666667
2732	0	0.826667
2733	0	0.574011
2734	0	1
2735	0	1
2736	0	0.819073
2737	0	0
2738	0	0
2739	0	0
2740	0	0
2741	0	0
2742	0	0
2743	0	0
2744	0	0
2745	0	0
2746	0	0
2747	0	0
2748	0	0
2749	0	0
2750	0	0
2751	0	0
2752	0	0
2753	0	0
2754	0	0
2755	0	0
2756	0	0
2757	0	0
2758	0	0
2759	0	0
2760	0	0
2761	0	0
2762	0	0
2763	0	0
2764	0	0
2765	0	0
2766	0	0
2767	0	0
2768	0	0
2769	0	0
2770	0	0
2771	0	0
2772	0	0
2773	0	0
2774	0	0
2775	0	0
2776	0	0
2777	0	0
2778	0	0
2779	0	0
2780	0	0
2781	0	0
2782	0	0
2783	0	0
2784	0	0
2785	0	0
2786	0	0
2787	0	0.786717
2788	0	0.142857
2789	0	0.142857
2790	0	0.142857
2791	0	0.142857
2792	0	0.220012
2793	0	0.268278
2794	0	0
2795	0	0.249554
2796	0	0.218387
2797	0	0.365701
2798	0	0.535714
2799	0	0.535714
2800	0	0.535714
2801	0	0.535714
2802	0	0.267401
2803	0	0.318521
2804	0	0.171914
2805	0	0.273038
2806	0	0.0645161
2807	0	0.0666667
2808	0	0.1
2809	0	0.360302
2810	0	0.490389
2811	0	0.0935673
2812	0	0.0947368
2813	0	0.452247
2814	0	0.170838
2815	0	0.205937
2816	0	0.330168
2817	0	0.760663
2818	0	0.363341
2819	0	0.457382
2820	0	0.0666667
2821	0	0.0666667
2822	0	0.1
2823	0	0.166667
2824	0	0.166667
2825	0	0.166667
2826	0	0.166667
2827	0	0.166667
2828	0	0.166667
2829	0	0.166667
2830	0	0.1
2831	0	0.471483
2832	0	1
2833	0	1
2834	0	1
2835	0	1
2836	0	1
2837	0	0.461278
2838	0	0.267538
2839	0	0.415425
2840	0	0.295238
2841	0	0.396012
2842	0	0
2843	0	0
2844	0	0
2845	0	0
2846	0	0
2847	0	0
2848	0	0
2849	0	0
2850	0	0
2851	0	0
2852	0	0
2853	0	0
2854	0	0
2855	0	0
2856	0	0
2857	0	0
2858	0	0
2859	0	0
2860	0	0
2861	0	0
2862	0	0
2863	0	0
2864	0	0
2865	0	0
2866	0	0
2867	0	0
2868	0	0
2869	0	0
2870	0	0
2871	0	0
2872	0	0
2873	0	0
2874	0	0
2875	0	0
2876	0	0
2877	0	0
2878	0	0
2879	0	0
2880	0	0
2881	0	0.690658
2882	0	0.428606
2883	0	1
2884	0	1
2885	0	1
2886	0	1
2887	0	0
2888	0	0
2889	0	0.430687
2890	0	0.300834
2891	0	0.165018
2892	0	0.369878
2893	0	0.369878
2894	0	0.148594
2895	0	0.136024
2896	0	0
2897	0	0
2898	0	0
2899	0	0
2900	0	0
2901	0	0
2902	0	0
2903	0	0
2904	0	0
2905	0	0
2906	0	0
2907	0	0
2908	0	0
2909	0	0
2910	0	0
2911	0	0
2912	0	0
2913	0	0
2914	0	0
2915	0	0
2916	0	0
2917	0	0
2918	0	0
2919	0	0
2920	0	0
2921	0	0
2922	0	0
2923	0	0
2924	0	0
2925	0	0
2926	0	0
2927	0	0
2928	0	0
2929	0	0
2930	0	0
2931	0	0
2932	0	0
2933	0	0
2934	0	0
2935	0	0
2936	0	0
2937	0	0
2938	0	0
2939	0	0
2940	0	0
2941	0	0
2942	0	0
2943	0	0
2944	0	0
2945	0	0
2946	0	0
2947	0	0
2948	0	0
2949	0	0
2950	0	0
2951	0	0
2952	0	0
2953	0	0
2954	0	0
2955	0	0
2956	0	0
2957	0	0
2958	0	0
2959	0	0
2960	0	0
2961	0	0
2962	0	0
2963	0	0
2964	0	0
2965	0	0
2966	0	0
2967	0	0
2968	0	0
2969	0	0
2970	0	0
2971	0	0
2972	0	0
2973	0	0
2974	0	0
2975	0	0
2976	0	0
2977	0	0
2978	0	0
2979	0	0
2980	0	0
2981	0	0
2982	0	0
2983	0	0
2984	0	0
2985	0	0
2986	0	0
2987	0	0
2988	0	0
2989	0	0
2990	0	0
2991	0	0
2992	0	0
2993	0	0
2994	0	0
2995	0	0
2996	0	0
2997	0	0
2998	0	0
2999	0	0
3000	0	0
3001	0	0
3002	0	0
3003	0	0
3004	0	0
3005	0	0
3006	0	0
3007	0	0
3008	0	0
3009	0	0.646154
3010	0	0.0666667
3011	0	0
3012	0	0
3013	0	0.121661
3014	0	0
3015	0	0
3016	0	0
3017	0	0
3018	0	0
3019	0	0
3020	0	0
3021	0	0
3022	0	0
3023	0	0
3024	0	0
3025	0	0
3026	0	0
3027	0	0
3028	0	0
3029	0	0
3030	0	0
3031	0	0
3032	0	0
3033	0	0
3034	0	0
3035	0	0
3036	0	0
3037	0	0
3038	0	0
3039	0	0
3040	0	0
3041	0	0
3042	0	0
3043	0	0
3044	0	0
3045	0	0
3046	0	0
3047	0	0
3048	0	0
3049	0	0
3050	0	0
3051	0	0
3052	0	0
3053	0	0
3054	0	0
3055	0	0
3056	0	0
3057	0	0
3058	0	0
3059	0	0
3060	0	0
3061	0	0
3062	0	0
3063	0	0
3064	0	0
3065	0	0
3066	0	0
3067	0	0
3068	0	0
3069	0	0
3070	0	0
3071	0	0
3072	0	0
3073	0	0
3074	0	0
3075	0	0
3076	0	0
3077	0	0
3078	0	0
3079	0	0
3080	0	0
3081	0	0
3082	0	0
3083	0	0
3084	0	0
3085	0	0
3086	0	0
3087	0	0
3088	0	0
3089	0	0
3090	0	0
3091	0	0
3092	0	0
3093	0	0
3094	0	0
3095	0	0
3096	1	0
3097	0	0
3098	0	0
3099	0	0
3100	0	0
3101	0	0
3102	0	0
3103	0	0
3104	0	0
3105	0	0
3106	0	0
3107	0	0
3108	0	0
3109	0	0
3110	0	0
3111	0	0
3112	0	0
3113	0	0
3114	0	0
3115	0	0
3116	0	0
3117	0	0
3118	0	0
3119	0	0
3120	0	0
3121	0	0
3122	0	0
3123	0	0
3124	0	0
3125	0	0
3126	0	0
3127	0	0
3128	0	0
3129	0	0
3130	0	0
3131	0	0
3132	0	0
3133	0	0
3134	0	0
3135	0	0
3136	0	0
3137	0	0
3138	0	0
3139	0	0
3140	0	0
3141	0	0
3142	0	0
3143	0	0
3144	0	0
3145	0	0
3146	0	0
3147	0	0
3148	0	0
3149	0	0
3150	0	0
3151	0	0
3152	0	0
3153	0	0
3154	0	0
3155	0	0
3156	0	0
3157	0	0
3158	0	0
3159	0	0
3160	0	0
3161	0	0
3162	0	0
3163	0	0
3164	0	0
3165	0	0
3166	0	0
3167	0	0
3168	0	0
3169	0	0
3170	0	0
3171	0	0
3172	0	0
3173	0	0
3174	0	0
3175	0	0
3176	0	0
3177	0	0
3178	0	0
3179	0	0
3180	0	0
3181	0	0
3182	0	0
3183	0	0
3184	0	0
3185	0	0
3186	0	0
3187	0	0
3188	0	0
3189	0	0
3190	0	0
3191	0	0
3192	0	0
3193	0	0
3194	0	0
3195	0	0
3196	0	0
3197	0	0
3198	0	0
3199	0	0
3200	0	0
3201	0	0
3202	0	0
3203	0	0
3204	0	0
3205	0	0
3206	0	0
3207	0	0
3208	0	0
3209	0	0
3210	0	0
3211	0	0
3212	0	0
3213	0	0
3214	0	0
3215	0	0
3216	0	0
3217	0	0
3218	0	0
3219	0	0
3220	0	0
3221	0	0
3222	0	0
3223	0	0
3224	0	0
3225	0	0
3226	0	0
3227	0	0
3228	0	0
3229	0	0
3230	0	0
3231	0	0
3232	0	0
3233	0	0
3234	0	0
3235	0	0
3236	0	0
3237	0	0
3238	0	0
3239	0	0
3240	0	0
3241	0	0
3242	0	0
3243	0	0
3244	0	0
3245	0	0
3246	1	0
3247	0	0
3248	0	0
3249	0	0
3250	0	0
3251	0	0
3252	0	0
3253	0	0
3254	0	0
3255	0	0
3256	0	0
3257	0	0
3258	0	0
3259	0	0
3260	0	0
3261	0	0
3262	0	0
3263	0	0
3264	0	0
3265	0	0
3266	0	0
3267	0	0
3268	0	0
3269	0	0
3270	0	0
3271	0	0
3272	0	0
3273	0	0
3274	0	0
3275	0	0
3276	0	0
3277	0	0
3278	0	0
3279	0	0
3280	0	0
3281	0	0
3282	0	0
3283	0	0
3284	0	0
3285	0	0
3286	0	0
3287	0	0
3288	0	0
3289	0	0
3290	0	0
3291	0	0
3292	0	0
3293	0	0
3294	0	0
3295	0	0
3296	0	0.166667
3297	0	0.166667
3298	0	0.0666667
3299	0	0.0666667
3300	0	0.0666667
3301	0	0.257694
3302	0	0.257471
3303	0	0.0784314
3304	0	0.231061
3305	0	0.186701
3306	0	0.224602
3307	0	0.176046
3308	0	0.192521
3309	0	0.185946
3310	0	0.125143
3311	0	0.166667
3312	0	0.166667
3313	0	0.777184
3314	0	0.166667
3315	0	0.777184
3316	0	0.247317
3317	0	0.047619
3318	0	0.047619
3319	0	0.047619
3320	0	0.047619
3321	0	0.047619
3322	0	0.047619
3323	0	0.047619
3324	0	0.047619
3325	0	0.047619
3326	0	0.047619
3327	0	0.214912
3328	0	0.0813008
3329	0	0.494505
3330	0	0.494505
3331	0	0.0642278
3332	0	0.113748
3333	0	0.0972516
3334	0	0.118952
3335	0	0.100326
3336	0	0
3337	0	0.857143
3338	0	0
3339	0	0.461988
3340	0	0.461988
3341	0	0.461988
3342	0	0.37619
3343	0	0.0666667
3344	0	0.0666667
3345	0	0.132867
3346	0	0.113108
3347	0	0.0653595
3348	0	0.0588235
3349	0	0.0588235
3350	0	0.0588235
3351	0	0.0588235
3352	0	0.0578947
3353	0	0.0978836
3354	0	0.0639043
3355	0	0.127178
3356	0	0.129435
3357	0	0.778824
3358	0	0.778824
3359	0	0.778824
3360	0	0.142857
3361	0	0.142857
3362	0	0.110769
3363	0	0.110769
3364	0	0.167742
3365	0	0.121074
3366	0	0.0555556
3367	0	0.0555556
3368	0	0.0714286
3369	0	0.0666667
3370	0	0.0666667
3371	0	0.1
3372	0	0.1
3373	0	0.1
3374	0	0.1
3375	0	0.1
3376	0	0.166667
3377	0	0.166667
3378	0	0.166667
3379	0	0.166667
3380	0	0.166667
3381	0	0.166667
3382	0	0.166667
3383	0	0.166667
3384	0	0.166667
3385	0	0.166667
3386	0	0.109607
3387	0	0.0909091
3388	0	0.104391
3389	0	0.047619
3390	0	0.1
3391	0	0.1
3392	0	0.1
3393	0	0.1
3394	0	0.1
3395	0	0.1
3396	0	0.1
3397	0	0.1
3398	0	0.1
3399	0	0.1
3400	0	0.103768
3401	0	1
3402	0	0
3403	0	0
3404	0	0
3405	0	0
3406	0	0
3407	0	0
3408	0	0
3409	0	0
3410	0	0
3411	0	0
3412	0	0
3413	0	0
3414	0	0
3415	0	0
3416	0	0
3417	0	0
3418	0	0
3419	0	0
3420	0	0
3421	0	0
3422	0	0
3423	0	0
3424	0	0
3425	0	0
3426	0	0
3427	0	0
3428	0	0
3429	0	0
3430	0	0
3431	0	0
3432	0	0
3433	0	0
3434	0	0
3435	0	0
3436	0	0
3437	0	0
3438	0	0
3439	0	0
3440	0	0
3441	0	0
3442	0	0
3443	0	0
3444	0	0
3445	0	0
3446	0	0
3447	0	0
3448	0	0
3449	0	0
3450	0	0
3451	0	0
3452	0	0.333333
3453	0	0.333333
3454	0	0.148275
3455	0	0.0824017
3456	0	0.230357
3457	0	0.224645
3458	0	0.25876
3459	0	0.130663
3460	0	0
3461	0	0
3462	0	0
3463	0	0
3464	0	0
3465	0	0
3466	0	0
3467	0	0
3468	0	0
3469	0	0
3470	0	0
3471	0	0
3472	0	0
3473	0	0
3474	0	0
3475	0	0
3476	0	0
3477	0	0
3478	0	0
3479	0	0
3480	0	0
3481	0	0
3482	0	0
3483	0	0
3484	0	0
3485	0	0
3486	0	0
3487	0	0
3488	0	0
3489	0	0
3490	0	0
3491	0	0
3492	0	0
3493	0	0
3494	0	0
3495	0	0
3496	0	0
3497	0	0
3498	0	0
3499	0	0
3500	0	0
3501	0	0
3502	0	0
3503	0	0
3504	0	0
3505	0	0
3506	0	0
3507	0	0
3508	0	0
3509	0	0
3510	0	0
3511	0	0
3512	0	0
3513	0	0
3514	0	0
3515	0	0
3516	0	0
3517	0	0
3518	0	0
3519	0	0
3520	0	0
3521	0	0
3522	0	0
3523	0	0
3524	0	0
3525	0	0
3526	0	0
3527	0	0
3528	0	0
3529	0	0
3530	0	0
3531	0	0
3532	0	0
3533	0	0
3534	0	0
3535	0	0
3536	0	0
3537	0	0
3538	0	0
3539	1	0
3540	1	0
3541	1	0
3542	0	0
3543	0	0
3544	0	0
3545	0	0
3546	0	0
3547	0	0
3548	0	0
3549	0	0
3550	0	0
3551	0	0
3552	0	0
3553	0	0
3554	0	0
3555	0	0
3556	0	0
3557	0	0
3558	0	0
3559	0	0
3560	0	0
3561	0	0
3562	0	0
3563	0	0
3564	0	0
3565	0	0
3566	0	0
3567	0	0
3568	0	0
3569	0	0
3570	0	0
3571	0	0
3572	0	0
3573	0	0
3574	0	0
3575	0	0
3576	0	0
3577	0	0
3578	0	0
3579	0	0
3580	0	0
3581	0	0
3582	0	0
3583	0	0
3584	1	0
3585	1	0
3586	1	0
3587	1	0
3588	1	0
3589	1	0
3590	1	0
3591	1	0
3592	0	0
3593	0	0
3594	0	0
3595	0	0
3596	0	0
3597	0	0
3598	0	0
3599	0	0
3600	0	0
3601	0	0
3602	0	0
3603	0	0
3604	0	0
3605	0	0
3606	0	1
3607	0	1
3608	0	1
3609	0	1
3610	0	1
3611	0	1
3612	0	1
3613	0	1
3614	0	1
3615	0	1
3616	0	1
3617	0	1
3618	0	1
3619	0	1
3620	0	1
3621	0	1
3622	0	1
3623	1	1
3624	1	1
3625	1	1
3626	1	1
3627	1	1
3628	1	1
3629	1	1
3630	1	1
3631	0	1
3632	0	1
3633	0	1
3634	0	1
3635	0	1
3636	0	1
3637	0	1
3638	0	1
3639	0	1
3640	1	1
3641	1	1
3642	1	1
3643	0	1
3644	0	1
3645	0	1
3646	0	1
3647	0	1
3648	0	1
3649	0	1
3650	0	1
3651	0	1
3652	0	1
3653	1	1
3654	1	1
3655	1	1
3656	1	1
3657	1	1
3658	1	1
3659	1	1
3660	1	1
3661	1	1
3662	1	1
3663	1	1
3664	1	1
3665	1	1
3666	1	1
3667	1	1
3668	1	1
3669	1	1
3670	0	1
3671	0	1
3672	0	1
3673	0	1
3674	0	1
3675	0	1
3676	0	1
3677	0	1
3678	0	1
3679	0	1
3680	0	1
3681	0	1
3682	0	1
3683	0	1
3684	0	1
3685	0	1
3686	0	1
3687	0	1
3688	0	1
3689	1	1
3690	1	1
3691	1	1
3692	1	1
3693	1	1
3694	1	1
3695	1	1
3696	1	1
3697	0	1
3698	0	1
3699	0	1
3700	0	1
3701	0	1
3702	0	1
3703	0	1
3704	0	1
3705	0	1
3706	0	1
3707	0	1
3708	0	1
3709	1	1
3710	1	1
3711	1	1
3712	1	1
3713	1	1
3714	1	1
3715	1	1
3716	1	1
3717	1	1
3718	1	1
3719	1	1
3720	1	1
3721	1	1
3722	1	1
3723	1	1
3724	1	1
3725	1	1
3726	1	1
3727	1	1
3728	1	1
3729	1	1
3730	1	1
3731	1	1
3732	1	1
3733	1	1
3734	1	1
3735	1	1
3736	1	1
3737	0	1
3738	0	1
3739	0	1
3740	0	1
3741	0	1
3742	0	1
3743	0	1
3744	0	1
3745	0	1
3746	0	1
3747	0	1
3748	0	1
3749	0	1
3750	0	1
3751	0	1
3752	0	1
3753	0	1
3754	0	1
3755	0	1
3756	0	1
3757	0	1
3758	0	1
3759	0	1
3760	0	1
3761	0	1
3762	0	1
3763	0	1
3764	0	1
3765	0	1
3766	1	1
3767	1	1
3768	1	1
3769	0	1
3770	0	1
3771	0	1
3772	0	1
3773	0	1
3774	0	1
3775	0	1
3776	1	1
3777	1	1
3778	1	1
3779	0	1
3780	0	1
3781	0	1
3782	0	1
3783	0	1
3784	0	1
3785	0	1
3786	0	1
3787	1	1
3788	1	1
3789	0	1
3790	0	1
3791	0	1
3792	0	1
3793	0	1
3794	0	1
3795	0	1
3796	0	1
3797	0	1
3798	0	1
3799	0	1
3800	0	1
3801	0	1
3802	0	1
3803	0	1
3804	0	1
3805	0	1
3806	0	1
3807	0	1
3808	0	1
3809	0	1
3810	0	1
3811	0	1
3812	0	1
3813	0	1
3814	0	1
3815	0	1
3816	0	1
3817	0	1
3818	0	1
3819	0	1
3820	0	1
3821	0	1
3822	0	1
3823	0	1
3824	0	1
3825	0	1
3826	0	1
3827	0	1
3828	0	1
3829	0	1
3830	0	1
3831	0	1
3832	0	1
3833	0	1
3834	0	1
3835	0	1
3836	0	1
3837	0	1
3838	0	1
3839	0	1
3840	0	1
3841	0	1
3842	0	1
3843	0	1
3844	0	1
3845	0	1
3846	0	1
3847	0	1
3848	0	1
3849	0	1
3850	0	1
3851	0	1
3852	0	1
3853	1	1
3854	1	1
3855	1	1
3856	1	1
3857	1	1
3858	1	1
3859	1	1
3860	1	1
3861	0	1
3862	0	1
3863	0	1
3864	0	1
3865	0	1
3866	0	0
3867	0	0
3868	0	0
3869	0	0
3870	0	0
3871	0	0
3872	0	0
3873	0	0
3874	0	0
3875	0	0
3876	0	0
3877	0	0
3878	0	0
3879	0	0
3880	0	0
3881	0	0
3882	0	0
3883	0	0
3884	0	0
3885	0	0
3886	0	0
3887	0	0
3888	0	0
3889	0	0
3890	0	0
3891	0	0
3892	0	0
3893	0	0
3894	0	0
3895	0	0
3896	0	0
3897	0	0
3898	0	0
3899	0	0
3900	0	0
3901	0	0
3902	0	0
3903	0	0
3904	0	0
3905	0	0
3906	0	0
3907	0	0
3908	0	0
3909	0	0
3910	0	0
3911	0	0
3912	0	0
3913	0	0
3914	0	0
3915	0	0
3916	0	0
3917	0	0
3918	0	0
3919	0	0
3920	0	0
3921	0	0
3922	0	0
3923	0	0
3924	0	0
3925	0	0
3926	0	0
3927	0	0
3928	0	0
3929	0	0
3930	0	0
3931	0	0
3932	0	0
3933	0	0
3934	0	0
3935	0	0
3936	0	0
3937	0	0
3938	0	0
3939	0	0
3940	0	0
3941	0	0
3942	0	0
3943	0	0
3944	0	0
3945	0	0
3946	0	0
3947	0	0
3948	0	0
3949	0	0
3950	0	0
3951	0	0
3952	0	0
3953	0	0
3954	0	0
3955	0	0
3956	0	0
3957	0	0
3958	0	0
3959	0	0
3960	0	0
3961	0	0
3962	0	0
3963	0	0
3964	0	0
3965	0	0
3966	0	0
3967	0	0
3968	0	0
3969	0	0
3970	0	0
3971	0	0
3972	0	0
3973	0	0
3974	0	0
3975	0	0
3976	0	0
3977	0	0
3978	0	0
3979	0	0
3980	0	0
3981	0	0
3982	0	0
3983	0	0
3984	0	0
3985	0	0
3986	0	0
3987	0	0
3988	0	0
3989	0	0
3990	0	0
3991	0	0
3992	0	0
3993	0	0
3994	0	0
3995	0	0
3996	0	0
3997	0	0
3998	0	0
3999	0	0
4000	0	0
4001	0	1
4002	0	1
4003	1	1
4004	1	1
4005	0	1
4006	0	1
4007	0	1
4008	0	1
4009	0	1
4010	0	1
4011	0	1
4012	0	1
4013	0	1
4014	0	1
4015	0	1
4016	0	1
4017	0	1
4018	0	1
4019	0	1
4020	0	1
4021	0	1
4022	0	1
4023	0	1
4024	0	1
4025	0	1
4026	0	1
4027	0	1
4028	0	1
4029	0	1
4030	0	1
4031	0	1
4032	0	1
4033	0	1
4034	0	1
4035	0	1
4036	0	1
4037	0	1
4038	0	1
4039	0	1
4040	0	1
4041	0	1
4042	0	1
4043	0	1
4044	0	1
4045	0	1
4046	0	1
4047	0	1
4048	0	1
4049	0	1
4050	0	1
4051	0	1
4052	0	1
4053	0	1
4054	0	1
4055	0	1
4056	0	1
4057	0	1
4058	0	1
4059	0	1
4060	0	1
4061	0	1
4062	0	1
4063	0	1
4064	0	1
4065	0	1
4066	0	1
4067	0	1
4068	0	1
4069	0	1
4070	0	1
4071	0	1
4072	0	1
4073	0	1
4074	0	1
4075	0	0.111834
4076	0	0.0637681
4077	0	0.068599
4078	0	0.0629047
4079	0	0.066605
4080	0	0.107014
4081	0	0.0714286
4082	0	0.0714286
4083	0	0.0714286
4084	0	0.0714286
4085	0	0.0714286
4086	0	0.0714286
4087	0	0.0714286
4088	0	0.142857
4089	0	0.142857
4090	0	0.142857
4091	0	0.142857
4092	0	0.142857
4093	0	0.142857
4094	0	0.142857
4095	0	0.142857
4096	0	0.142857
4097	0	0.111111
4098	0	0.0888889
4099	0	0.111111
4100	0	0.111111
4101	0	0.111111
4102	0	0.111111
4103	0	0.111111
4104	0	0.152766
4105	0	0.0666667
4106	0	0.0688406
4107	0	0.047619
4108	0	0.0578947
4109	0	0.052381
4110	0	0.0526316
4111	0	0.0947368
4112	0	0.0454545
4113	0	0.0454545
4114	0	0.0727273
4115	0	0.127273
4116	0	0.127273
4117	0	0.127273
4118	0	0.121212
4119	0	0.127273
4120	0	0.175824
4121	0	0.24183
4122	0	0.454077
4123	0	0.0666667
4124	0	0.0666667
4125	0	0.1
4126	0	0.428739
4127	0	0.1
4128	0	0.194444
4129	0	0.133333
4130	0	0.133333
4131	0	0.133333
4132	0	0.133333
4133	0	0.133333
4134	0	0.133333
4135	0	0.133333
4136	0	0.133333
4137	0	0.133333
4138	0	0.133333
4139	0	0.0952381
4140	0	0.1
4141	0	0.1
4142	0	0.188781
4143	0	0
4144	0	0
4145	0	0
4146	0	0
4147	0	0
4148	0	0
4149	0	0
4150	0	0.142308
4151	0	0.134271
4152	0	0.0984043
4153	0	0.111849
4154	0	0.112957
4155	0	0.0975845
4156	0	0.0998839
4157	0	0.10122
4158	0	0.118841
4159	0	0.139216
4160	0	0.133516
4161	0	0.087668
4162	0	0.0803571
4163	0	0.0659722
4164	0	0.193658
4165	0	0
4166	0	0
4167	0	0.157714
4168	0	0.126444
4169	0	0.0546473
4170	0	0.0615901
4171	0	0.288007
4172	0	0.0757576
4173	0	0.0757576
4174	0	0.0757576
4175	0	0.0757576
4176	0	0.0757576
4177	0	0.0909091
4178	0	0.0909091
4179	0	0.0888889
4180	0	0.111111
4181	0	0.0727273
4182	0	0.0727273
4183	0	0.0888889
4184	0	0.0888889
4185	0	0.0888889
4186	0	0.0888889
4187	0	0.0888889
4188	0	0.111111
4189	0	0.111111
4190	0	0.111111
4191	0	0.0888889
4192	0	0.0888889
4193	0	0.0727273
4194	0	0.0727273
4195	0	0.0454545
4196	0	0.0454545
4197	0	0.0512821
4198	0	0.043956
4199	0	0.189201
4200	0	0.349776
4201	0	1
4202	0	1
4203	0	1
4204	0	1
4205	0	1
4206	0	1
4207	0	1
4208	0	1
4209	0	1
4210	0	1
4211	0	1
4212	0	1
4213	0	0.361749
4214	0	1
4215	0	1
4216	0	1
4217	0	1
4218	0	1
4219	0	1
4220	0	1
4221	0	1
4222	0	1
4223	0	1
4224	0	0.333333
4225	0	0.333333
4226	0	0.333333
4227	0	0.333333
4228	0	0.333333
4229	0	0.333333
4230	0	0.333333
4231	0	0.333333
4232	0	0.558333
4233	0	0.47619
4234	0	0.571429
4235	0	0.5
4236	0	0.5
4237	0	0.378788
4238	0	0.378788
4239	0	0.378788
4240	0	0.274725
4241	0	0.183824
4242	0	0.169591
4243	0	0.169591
4244	0	0.510548
4245	0	0.125356
4246	0	0.134058
4247	0	0.227941
4248	0	0.295238
4249	0	0.340659
4250	0	0.509091
4251	0	0.509091
4252	0	0.509091
4253	0	0.509091
4254	0	0.509091
4255	0	0.622222
4256	0	0.622222
4257	0	0.622222
4258	0	0.777778
4259	0	0.777778
4260	0	0.777778
4261	0	0.777778
4262	0	0.777778
4263	0	0.777778
4264	0	0.777778
4265	0	1
4266	0	1
4267	0	1
4268	0	1
4269	0	1
4270	0	1
4271	0	1
4272	0	1
4273	0	1
4274	0	1
4275	0	1
4276	0	1
4277	0	1
4278	0	1
4279	0	1
4280	0	1
4281	0	1
4282	0	1
4283	0	1
4284	0	1
4285	0	1
4286	0	1
4287	0	1
4288	0	1
4289	0	1
4290	0	1
4291	0	1
4292	0	1
4293	0	1
4294	0	1
4295	0	1
4296	0	1
4297	0	1
4298	0	1
4299	0	1
4300	0	1
4301	0	1
4302	0	1
4303	0	1
4304	0	1
4305	0	1
4306	0	1
4307	0	1
4308	0	1
4309	0	1
4310	0	1
4311	0	1
4312	0	1
4313	0	1
4314	0	1
4315	0	1
4316	0	1
4317	0	1
4318	0	1
4319	0	1
4320	0	1
4321	0	1
4322	0	1
4323	0	1
4324	0	1
4325	0	1
4326	0	1
4327	0	1
4328	0	1
4329	0	1
4330	0	1
4331	0	1
4332	0	1
4333	0	1
4334	0	1
4335	0	1
4336	0	1
4337	0	1
4338	0	1
4339	0	1
4340	0	1
4341	0	1
4342	0	1
4343	0	1
4344	0	1
4345	0	1
4346	0	1
4347	0	1
4348	0	1
4349	0	1
4350	0	1
4351	0	1
4352	0	1
4353	0	1
4354	0	1
4355	0	1
4356	0	1
4357	0	1
4358	0	1
4359	0	1
4360	0	1
4361	0	1
4362	0	1
4363	0	1
4364	0	1
4365	0	1
4366	0	1
4367	0	1
4368	0	1
4369	0	1
4370	0	1
4371	0	1
4372	0	1
4373	0	1
4374	0	1
4375	0	1
4376	0	1
4377	0	1
4378	0	1
4379	0	1
4380	0	1
4381	0	1
4382	0	1
4383	0	1
4384	0	1
4385	0	1
4386	0	1
4387	0	1
4388	0	1
4389	0	1
4390	0	1
4391	0	1
4392	0	1
4393	0	1
4394	0	1
4395	0	1
4396	0	1
4397	0	1
4398	0	1
4399	0	1
4400	0	1
4401	0	1
4402	0	1
4403	0	1
4404	0	1
4405	0	1
4406	0	1
4407	0	1
4408	0	1
4409	0	1
4410	0	1
4411	0	1
4412	0	1
4413	0	1
4414	0	1
4415	0	1
4416	0	1
4417	0	1
4418	0	1
4419	0	1
4420	0	1
4421	0	1
4422	0	1
4423	0	1
4424	0	1
4425	0	1
4426	0	1
4427	0	1
4428	0	1
4429	0	1
4430	0	1
4431	0	1
4432	0	1
4433	0	1
4434	0	1
4435	0	1
4436	0	1
4437	0	1
4438	0	1
4439	0	1
4440	0	1
4441	0	1
4442	0	1
4443	0	1
4444	0	1
4445	0	1
4446	0	1
4447	0	1
4448	0	1
4449	0	1
4450	0	1
4451	0	1
4452	0	1
4453	0	1
4454	0	1
4455	0	1
4456	0	1
4457	0	1
4458	0	1
4459	0	1
4460	0	1
4461	0	1
4462	0	1
4463	0	1
4464	0	1
4465	0	1
4466	0	1
4467	0	1
4468	0	1
4469	0	1
4470	0	1
4471	0	1
4472	0	1
4473	0	1
4474	0	1
4475	0	1
4476	0	1
4477	0	1
4478	0	1
4479	0	1
4480	0	1
4481	0	1
4482	0	1
4483	0	1
4484	0	1
4485	0	1
4486	0	1
4487	0	1
4488	0	1
4489	0	1
4490	0	1
4491	0	1
4492	0	1
4493	0	1
4494	0	1
4495	0	1
4496	0	1
4497	0	1
4498	0	1
4499	0	1
4500	0	1
4501	0	1
4502	0	1
4503	0	1
4504	0	1
4505	0	1
4506	0	1
4507	0	1
4508	0	1
4509	0	1
4510	0	1
4511	0	1
4512	0	1
4513	0	1
4514	0	1
4515	0	1
4516	0	1
4517	0	1
4518	0	1
4519	0	1
4520	0	1
4521	0	1
4522	0	1
4523	0	1
4524	0	1
4525	0	1
4526	0	1
4527	0	1
4528	0	1
4529	0	1
4530	0	1
4531	0	1
4532	0	1
4533	0	1
4534	0	1
4535	0	1
4536	0	1
4537	0	1
4538	0	1
4539	0	1
4540	0	1
4541	0	1
4542	0	1
4543	0	1
4544	0	1
4545	0	1
4546	0	1
4547	0	1
4548	0	1
4549	0	1
4550	0	1
4551	0	1
4552	0	1
4553	0	1
4554	0	1
4555	0	1
4556	0	1
4557	0	1
4558	0	1
4559	0	1
4560	0	1
4561	0	1
4562	0	1
4563	0	1
4564	0	1
4565	0	1
4566	0	1
4567	0	1
4568	0	1
4569	0	1
4570	0	1
4571	0	1
4572	0	1
4573	0	1
4574	0	1
4575	0	1
4576	0	1
4577	0	1
4578	0	1
4579	0	1
4580	0	1
4581	0	1
4582	0	1
4583	0	1
4584	0	1
4585	0	1
4586	0	1
4587	0	1
4588	0	1
4589	0	1
4590	0	1
4591	0	1
4592	0	1
4593	0	1
4594	0	1
4595	0	1
4596	0	1
4597	0	1
4598	0	1
4599	0	1
4600	0	1
4601	0	1
4602	0	1
4603	0	1
4604	0	1
4605	0	1
4606	0	1
4607	0	1
4608	0	1
4609	0	1
4610	0	1
4611	0	1
4612	0	1
4613	0	1
4614	0	1
4615	0	1
4616	0	1
4617	0	1
4618	0	1
4619	0	1
4620	0	1
4621	1	1
4622	1	1
4623	1	1
4624	1	1
4625	0	1
4626	0	1
4627	0	1
4628	0	1
4629	0	1
4630	0	1
4631	0	1
4632	0	1
4633	0	1
4634	0	1
4635	0	1
4636	0	1
4637	0	1
4638	0	1
4639	0	1
4640	0	1
4641	0	1
4642	0	1
4643	0	1
4644	0	1
4645	0	1
4646	0	1
4647	0	1
4648	0	1
4649	0	1
4650	0	1
4651	0	1
4652	0	1
4653	0	1
4654	0	1
4655	0	1
4656	0	1
4657	0	1
4658	0	1
4659	0	1
4660	0	1
4661	0	1
4662	0	1
4663	0	1
4664	0	1
4665	0	1
4666	0	1
4667	1	1
4668	1	1
4669	1	1
4670	1	1
4671	1	1
4672	1	1
4673	1	1
4674	1	1
4675	1	1
4676	1	1
4677	1	1
4678	1	1
4679	0	1
4680	0	1
4681	0	1
4682	0	1
4683	0	1
4684	0	1
4685	0	1
4686	0	1
4687	1	1
4688	0	1
4689	0	1
4690	0	1
4691	0	1
4692	0	1
4693	0	1
4694	0	1
4695	0	1
4696	1	1
4697	1	1
4698	1	1
4699	1	1
4700	1	1
4701	1	1
4702	1	1
4703	1	1
4704	1	1
4705	1	1
4706	1	1
4707	0	1
4708	0	1
4709	0	1
4710	0	1
4711	0	1
4712	0	1
4713	0	1
4714	0	1
4715	0	1
4716	0	1
4717	0	1
4718	0	1
4719	0	1
4720	0	1
4721	0	1
4722	0	1
4723	0	1
4724	0	1
4725	0	1
4726	0	1
4727	0	1
4728	0	1
4729	0	1
4730	0	0.563636
4731	0	0.563636
4732	0	0.563636
4733	0	0.563636
4734	0	0.563636
4735	0	0.563636
4736	0	0.563636
4737	0	0.563636
4738	0	0.563636
4739	0	0.563636
4740	0	0.563636
4741	0	0.563636
4742	0	0.563636
4743	0	0.563636
4744	0	0.563636
4745	0	0.563636
4746	0	0.563636
4747	0	0.563636
4748	0	0.563636
4749	0	0.563636
4750	0	0.563636
4751	0	0.563636
4752	0	0.563636
4753	0	0.563636
4754	0	0.563636
4755	0	0.563636
4756	0	0.563636
4757	0	0.563636
4758	0	0.563636
4759	0	0.563636
4760	0	0.563636
4761	0	0.563636
4762	0	0.563636
4763	0	0.563636
4764	0	0.563636
4765	0	0.563636
4766	0	0.563636
4767	0	0.563636
4768	0	0.563636
4769	0	0.563636
4770	0	0.563636
4771	0	0.563636
4772	0	0.563636
4773	0	0.563636
4774	0	0.563636
4775	0	0.563636
4776	0	0.563636
4777	0	0.563636
4778	0	0.563636
4779	0	0.563636
4780	0	0.563636
4781	0	0.563636
4782	0	0.563636
4783	0	0.563636
4784	0	0.563636
4785	0	0.563636
4786	0	0.563636
4787	0	0.563636
4788	0	0.563636
4789	0	0.563636
4790	0	0.563636
4791	0	0.563636
4792	0	0.563636
4793	0	0.563636
4794	0	0.563636
4795	0	0.563636
4796	0	0.563636
4797	0	0.563636
4798	0	0.563636
4799	0	0.563636
4800	0	0.563636
4801	0	0.644444
4802	0	0.654545
4803	0	0.527273
4804	0	0.363636
4805	0	0.363636
4806	0	0.309091
4807	0	0.466667
4808	0	0.454545
4809	0	0.454545
4810	0	0.490909
4811	0	0.490909
4812	0	0.490909
4813	0	0.490909
4814	0	0.490909
4815	0	0.490909
4816	0	0.409091
4817	0	0.409091
4818	0	0.409091
4819	0	0.409091
4820	0	0.409091
4821	0	0.409091
4822	0	0.409091
4823	0	0.409091
4824	0	0.409091
4825	0	0.409091
4826	0	0.409091
4827	0	0.409091
4828	0	0.409091
4829	0	0.409091
4830	0	0.409091
4831	0	0.409091
4832	0	0.409091
4833	0	0.409091
4834	0	0.409091
4835	0	0.409091
4836	0	0.409091
4837	0	0.409091
4838	0	0.409091
4839	0	0.409091
4840	0	0.409091
4841	0	0.409091
4842	0	0.409091
4843	0	0.409091
4844	0	0.409091
4845	0	0.409091
4846	0	0.409091
4847	0	0.409091
4848	0	0.409091
4849	0	0.409091
4850	0	0.409091
4851	0	0.409091
4852	0	0.409091
4853	0	0.409091
4854	0	0.409091
4855	0	0.409091
4856	0	0.409091
4857	0	0.409091
4858	0	0.409091
4859	0	0.409091
4860	0	0.409091
4861	0	0.409091
4862	0	0.409091
4863	0	0.409091
4864	0	0.409091
4865	0	0.409091
4866	0	0.409091
4867	0	0.409091
4868	0	0.409091
4869	0	0.409091
4870	0	0.409091
4871	0	0.409091
4872	0	0.409091
4873	0	0.409091
4874	0	0.409091
4875	0	0.409091
4876	0	0.409091
4877	0	0.409091
4878	0	0.409091
4879	0	0.409091
4880	0	0.409091
4881	0	0.409091
4882	0	0.409091
4883	0	0.409091
4884	0	0.409091
4885	0	0.409091
4886	0	0.409091
4887	0	0.409091
4888	0	0.409091
4889	0	0.409091
4890	0	0.409091
4891	0	0.409091
4892	0	0.409091
4893	0	0.409091
4894	0	0.409091
4895	0	0.409091
4896	0	0.409091
4897	0	0.409091
4898	0	0.409091
4899	0	0.409091
4900	0	0.409091
4901	0	0.409091
4902	0	0.409091
4903	0	0.409091
4904	0	0.409091
4905	0	0.409091
4906	0	0.409091
4907	0	0.409091
4908	0	0.409091
4909	0	0.409091
4910	0	0.409091
4911	0	0.409091
4912	0	0.409091
4913	0	0.409091
4914	0	0.409091
4915	0	0.409091
4916	0	0.409091
4917	0	0.409091
4918	0	0.409091
4919	0	0.409091
4920	0	0.409091
4921	0	0.409091
4922	0	0.409091
4923	0	0.409091
4924	0	0.409091
4925	0	0.409091
4926	0	0.409091
4927	0	0.409091
4928	0	0.409091
4929	0	0.409091
4930	0	0.409091
4931	0	0.409091
4932	0	0.409091
4933	0	0.409091
4934	0	0.409091
4935	0	0.409091
4936	0	0.409091
4937	0	0.409091
4938	0	0.409091
4939	0	0.409091
4940	0	0.409091
4941	0	0.409091
4942	0	0.409091
4943	0	0.409091
4944	0	0.409091
4945	0	0.409091
4946	0	0.409091
4947	0	0.409091
4948	0	0.409091
4949	0	0.409091
4950	0	0.409091
4951	0	0.409091
4952	0	0.409091
4953	0	0.409091
4954	0	0.409091
4955	0	0.409091
4956	0	0.409091
4957	0	0.409091
4958	0	0.409091
4959	0	0.409091
4960	0	0.409091
4961	0	0.409091
4962	0	0.409091
4963	0	0.409091
4964	0	0.409091
4965	0	0.409091
4966	0	0.409091
4967	0	0.409091
4968	0	0.409091
4969	0	0.409091
4970	0	0.409091
4971	0	0.409091
4972	0	0.409091
4973	0	0.409091
4974	0	0.409091
4975	0	0.409091
4976	0	0.409091
4977	0	0.409091
4978	0	0.409091
4979	0	0.409091
4980	0	0.409091
4981	0	0.409091
4982	0	0.409091
4983	0	0.409091
4984	0	0.409091
4985	0	0.409091
4986	0	0.409091
4987	0	0.409091
4988	0	0.409091
4989	0	0.409091
4990	0	0.409091
4991	0	0.409091
4992	0	0.409091
4993	0	0.409091
4994	0	0.409091
4995	0	0.409091
4996	0	0.409091
4997	0	0.409091
4998	0	0.409091
4999	0	0.409091
5000	0	0.409091
5001	0	0.490909
5002	0	0.466667
5003	0	0.407877
5004	0	0.118614
5005	0	0.249133
5006	0	0.571635
5007	0	0
5008	0	0
5009	0	0
5010	0	0
5011	0	0.3
5012	0	0.3
5013	0	0.3
5014	0	0.6
5015	0	0
5016	0	0
5017	0	0
5018	0	0
5019	0	0
5020	0	0
5021	0	0
5022	0	0
5023	0	0
5024	0	0
5025	0	0.0952381
5026	0	0.142857
5027	0	0.107143
5028	0	0.142857
5029	0	0.438095
5030	0	0.669325
5031	0	0.205852
5032	0	0.204104
5033	0	0.736024
5034	0	0.739228
5035	0	0.242424
5036	0	0.242424
5037	0	0.333333
5038	0	0.333333
5039	0	0.333333
5040	0	0.392619
5041	0	0.459965
5042	0	0.467232
5043	0	0.501512
5044	0	0.602541
5045	0	0.667797
5046	0	0.667797
5047	0	0.78621
5048	0	0.483333
5049	0	0.705128
5050	0	0.705128
5051	0	0.705128
5052	0	0.833333
5053	0	0.833333
5054	0	0.833333
5055	0	0.833333
5056	0	0.833333
5057	0	0.833333
5058	0	0.833333
5059	0	0.833333
5060	0	0.833333
5061	0	0.833333
5062	0	0.833333
5063	0	0.833333
5064	0	0.833333
5065	0	0.833333
5066	0	0.833333
5067	0	0.833333
5068	0	0.833333
5069	0	0.833333
5070	0	0.833333
5071	0	0.833333
5072	0	0.833333
5073	0	0.833333
5074	0	0.833333
5075	0	0.833333
5076	0	0.833333
5077	0	0.833333
5078	0	0.833333
5079	0	0.833333
5080	0	0.833333
5081	0	0.833333
5082	0	0.833333
5083	0	0.833333
5084	0	0.833333
5085	0	0.833333
5086	0	0.833333
5087	0	0.833333
5088	0	0.833333
5089	0	0.833333
5090	0	0.833333
5091	0	0.833333
5092	0	0.833333
5093	0	0.833333
5094	0	0.833333
5095	0	0.833333
5096	0	0.833333
5097	0	0.833333
5098	0	0.833333
5099	0	0.833333
5100	0	0.833333
5101	0	0.833333
5102	0	0.833333
5103	0	0.833333
5104	0	0.833333
5105	0	0.833333
5106	0	0.833333
5107	0	0.833333
5108	0	0.833333
5109	0	0.833333
5110	0	0.833333
5111	0	0.833333
5112	0	0.833333
5113	0	0.833333
5114	0	0.833333
5115	0	0.833333
5116	0	0.833333
5117	0	0.833333
5118	0	0.833333
5119	0	0.833333
5120	0	0.833333
5121	0	0.833333
5122	0	0.833333
5123	0	0.833333
5124	0	0.833333
5125	0	0.833333
5126	0	0.833333
5127	0	0.833333
5128	0	0.833333
5129	0	0.833333
5130	0	0.833333
5131	0	0.833333
5132	0	0.833333
5133	0	0.833333
5134	0	0.833333
5135	0	0.833333
5136	0	0.833333
5137	0	0.833333
5138	0	0.833333
5139	0	0.833333
5140	0	0.833333
5141	0	0.833333
5142	0	0.833333
5143	0	0.833333
5144	0	0.833333
5145	0	0.833333
5146	0	0.833333
5147	0	0.833333
5148	0	0.833333
5149	0	0.833333
5150	0	0.833333
5151	0	0.833333
5152	0	0.833333
5153	0	0.833333
5154	0	0.833333
5155	0	0.833333
5156	0	0.833333
5157	0	0.833333
5158	0	0.833333
5159	0	0.833333
5160	0	0.833333
5161	0	0.833333
5162	0	0.833333
5163	0	0.833333
5164	0	0.705128
5165	0	0.705128
5166	0	0.705128
5167	0	0.705128
5168	0	0.705128
5169	0	0.705128
5170	0	0.705128
5171	0	0.705128
5172	0	0.705128
5173	0	0.705128
5174	0	0.705128
5175	0	0.705128
5176	0	0.705128
5177	0	0.705128
5178	0	0.705128
5179	0	0.705128
5180	0	0.705128
5181	0	0.705128
5182	0	0.705128
5183	0	0.705128
5184	0	0.705128
5185	0	0.705128
5186	0	0.705128
5187	0	0.705128
5188	0	0.705128
5189	0	0.705128
5190	0	0.705128
5191	0	0.705128
5192	0	0.705128
5193	0	0.705128
5194	0	0.705128
5195	0	0.705128
5196	0	0.705128
5197	0	0.705128
5198	0	0.705128
5199	0	0.705128
5200	0	0.705128
5201	0	0.705128
5202	0	0.705128
5203	0	0.705128
5204	0	0.705128
5205	0	0.705128
5206	0	0.705128
5207	0	0.705128
5208	0	0.705128
5209	0	0.705128
5210	0	0.705128
5211	0	0.705128
5212	0	0.705128
5213	0	0.705128
5214	0	0.705128
5215	0	0.705128
5216	0	0.705128
5217	0	0.705128
5218	0	0.705128
5219	0	0.705128
5220	0	0.705128
5221	0	0.705128
5222	0	0.705128
5223	0	0.705128
5224	0	0.705128
5225	0	0.705128
5226	0	0.705128
5227	0	0.705128
5228	0	0.705128
5229	0	0.705128
5230	0	0.705128
5231	0	0.705128
5232	0	0.705128
5233	0	0.705128
5234	0	0.705128
5235	0	0.705128
5236	0	0.705128
5237	0	0.705128
5238	0	0.705128
5239	0	0.705128
5240	0	0.705128
5241	0	0.705128
5242	0	0.705128
5243	0	0.705128
5244	0	0.705128
5245	0	0.705128
5246	0	0.705128
5247	0	0.705128
5248	0	0.705128
5249	0	0.705128
5250	0	0.705128
5251	0	0.705128
5252	0	0.705128
5253	0	0.705128
5254	0	0.705128
5255	0	0.705128
5256	0	0.705128
5257	0	0.705128
5258	0	0.705128
5259	0	0.705128
5260	0	0.705128
5261	0	0.705128
5262	0	0.705128
5263	0	0.705128
5264	0	0.705128
5265	0	0.705128
5266	0	0.705128
5267	0	0.705128
5268	0	0.705128
5269	0	0.705128
5270	0	0.705128
5271	0	0.705128
5272	0	0.705128
5273	0	0.705128
5274	0	0.705128
5275	0	0.705128
5276	0	0.705128
5277	0	0.705128
5278	0	0.705128
5279	0	0.705128
5280	0	0.705128
5281	0	0.705128
5282	0	0.705128
5283	0	0.705128
5284	0	0.705128
5285	0	0.705128
5286	0	0.705128
5287	0	0.705128
5288	0	0.705128
5289	0	0.705128
5290	0	0.705128
5291	0	0.705128
5292	0	0.705128
5293	0	0.705128
5294	0	0.705128
5295	0	0.705128
5296	0	0.705128
5297	0	0.705128
5298	0	0.705128
5299	0	0.705128
5300	0	0.705128
5301	0	0.705128
5302	0	0.705128
5303	0	0.705128
5304	0	0.705128
5305	0	0.705128
5306	0	0.705128
5307	0	0.705128
5308	0	0.705128
5309	0	0.705128
5310	0	0.705128
5311	0	0.576923
5312	0	0.576923
5313	0	0.576923
5314	0	0.307692
5315	0	0.307692
5316	0	0.307692
5317	0	0.307692
5318	0	0.307692
5319	0	0.307692
5320	0	0.307692
5321	0	0.307692
5322	0	0.307692
5323	0	0.307692
5324	0	0.307692
5325	0	0.307692
5326	0	0.307692
5327	0	0.307692
5328	0	0.307692
5329	0	0.307692
5330	0	0.179487
5331	0	0.179487
5332	0	0.179487
5333	0	0.179487
5334	0	0.179487
5335	0	0.179487
5336	0	0.179487
5337	0	0.179487
5338	0	0.179487
5339	0	0.179487
5340	0	0.4
5341	0	0.4
5342	0	0.272727
5343	0	0.272727
5344	0	0.272727
5345	0	0.272727
5346	0	0.272727
5347	0	0.272727
5348	0	0.272727
5349	0	0.272727
5350	0	0.272727
5351	0	0.272727
5352	0	0.272727
5353	0	0.272727
5354	0	0.272727
5355	0	0.272727
5356	0	0.272727
5357	0	0.272727
5358	0	0.272727
5359	0	0.272727
5360	0	0.230769
5361	0	0.19697
5362	0	0.230769
5363	0	0.24359
5364	0	0.24359
5365	0	0.545455
5366	0	0.576923
5367	0	0.576923
5368	0	0.576923
5369	0	0.576923
5370	0	0.576923
5371	0	0.576923
5372	0	0.576923
5373	0	0.576923
5374	0	0.576923
5375	0	0.576923
5376	0	0.576923
5377	0	0.576923
5378	0	0.576923
5379	0	0.576923
5380	0	0.576923
5381	0	0.576923
5382	0	0.576923
5383	0	0.576923
5384	0	0.576923
5385	0	0.576923
5386	0	0.576923
5387	0	0.576923
5388	0	0.576923
5389	0	0.576923
5390	0	0.576923
5391	0	0.576923
5392	0	0.576923
5393	0	0.576923
5394	0	0.576923
5395	0	0.576923
5396	0	0.576923
5397	0	0.576923
5398	0	0.576923
5399	0	0.576923
5400	0	0.576923
5401	0	0.576923
5402	0	0.576923
5403	0	0.576923
5404	0	0.576923
5405	0	0.576923
5406	0	0.576923
5407	0	0.576923
5408	0	0.576923
5409	0	0.576923
5410	0	0.576923
5411	0	0.576923
5412	0	0.576923
5413	0	0.576923
5414	0	0.576923
5415	0	0.576923
5416	0	0.576923
5417	0	0.576923
5418	0	0.576923
5419	0	0.576923
5420	0	0.576923
5421	0	0.576923
5422	0	0.576923
5423	0	0.576923
5424	0	0.576923
5425	0	0.576923
5426	0	0.576923
5427	0	0.576923
5428	0	0.576923
5429	0	0.576923
5430	0	0.576923
5431	0	0.576923
5432	0	0.681818
5433	0	0.681818
5434	0	0.681818
5435	0	0.681818
5436	0	0.681818
5437	0	0.681818
5438	0	0.681818
5439	0	0.681818
5440	0	0.681818
5441	0	0.681818
5442	0	0.681818
5443	0	0.681818
5444	0	0.681818
5445	0	0.681818
5446	0	0.681818
5447	0	0.681818
5448	0	0.681818
5449	0	0.681818
5450	0	0.681818
5451	0	0.681818
5452	0	0.681818
5453	0	0.681818
5454	0	0.681818
5455	0	0.681818
5456	0	0.681818
5457	0	0.681818
5458	0	0.681818
5459	0	0.681818
5460	0	0.681818
5461	0	0.681818
5462	0	0.681818
5463	0	0.681818
5464	0	0.681818
5465	0	0.681818
5466	0	0.681818
5467	0	0.681818
5468	0	0.681818
5469	0	0.681818
5470	0	0.681818
5471	0	0.681818
5472	0	0.681818
5473	0	0.681818
5474	0	0.681818
5475	0	0.681818
5476	0	0.681818
5477	0	0.681818
5478	0	0.681818
5479	0	0.681818
5480	0	0.681818
5481	0	0.681818
5482	0	0.681818
5483	0	0.681818
5484	0	0.681818
5485	0	0.681818
5486	0	0.681818
5487	0	0.681818
5488	0	0.681818
5489	0	0.681818
5490	0	0.681818
5491	0	0.681818
5492	0	0.681818
5493	0	0.681818
5494	0	0.681818
5495	0	0.681818
5496	0	0.681818
5497	0	0.681818
5498	0	0.681818
5499	0	0.681818
5500	0	0.681818
5501	0	0.681818
5502	0	0.681818
5503	0	0.681818
5504	0	0.681818
5505	0	0.681818
5506	0	0.681818
5507	0	0.681818
5508	0	0.681818
5509	0	0.681818
5510	0	0.681818
5511	0	0.681818
5512	0	0.681818
5513	0	0.681818
5514	0	0.681818
5515	0	0.681818
5516	0	0.681818
5517	0	0.681818
5518	0	0.681818
5519	0	0.681818
5520	0	0.681818
5521	0	0.681818
5522	0	0.681818
5523	0	0.681818
5524	0	0.681818
5525	0	0.681818
5526	0	0.681818
5527	0	0.681818
5528	0	0.681818
5529	0	0.681818
5530	0	0.681818
5531	0	0.681818
5532	0	0.681818
5533	0	0.681818
5534	0	0.681818
5535	0	0.681818
5536	0	0.681818
5537	0	0.681818
5538	0	0.681818
5539	0	0.681818
5540	0	0.681818
5541	0	0.681818
5542	0	0.681818
5543	0	0.681818
5544	0	0.681818
5545	0	0.681818
5546	0	0.681818
5547	0	0.681818
5548	0	0.681818
5549	0	0.681818
5550	0	0.681818
5551	0	0.681818
5552	0	0.681818
5553	0	0.681818
5554	0	0.681818
5555	0	0.681818
5556	0	0.681818
5557	0	0.681818
5558	0	0.681818
5559	0	0.681818
5560	0	0.681818
5561	0	0.681818
5562	0	0.681818
5563	0	0.681818
5564	0	0.681818
5565	0	0.681818
5566	0	0.681818
5567	0	0.681818
5568	0	0.681818
5569	0	0.681818
5570	0	0.681818
5571	0	0.681818
5572	0	0.681818
5573	0	0.681818
5574	0	0.681818
5575	0	0.681818
5576	0	0.681818
5577	0	0.681818
5578	0	0.681818
5579	0	0.681818
5580	0	0.681818
5581	0	0.681818
5582	0	0.681818
5583	0	0.681818
5584	0	0.681818
5585	0	0.681818
5586	0	0.681818
5587	0	0.681818
5588	0	0.681818
5589	0	0.681818
5590	0	0.681818
5591	0	0.681818
5592	0	0.681818
5593	0	0.681818
5594	0	0.681818
5595	0	0.681818
5596	0	0.681818
5597	0	0.681818
5598	0	0.681818
5599	0	0.681818
5600	0	0.681818
5601	0	0.681818
5602	0	0.681818
5603	0	0.681818
5604	0	0.681818
5605	0	0.681818
5606	0	0.681818
5607	0	0.681818
5608	0	0.681818
5609	0	0.681818
5610	0	0.681818
5611	0	0.681818
5612	0	0.681818
5613	0	0.681818
5614	0	0.681818
5615	0	0.681818
5616	0	0.681818
5617	0	0.681818
5618	0	0.681818
5619	0	0.681818
5620	0	0.681818
5621	0	0.681818
5622	0	0.681818
5623	0	0.681818
5624	0	0.681818
5625	0	0.681818
5626	0	0.681818
5627	0	0.681818
5628	0	0.681818
5629	0	0.681818
5630	0	0.681818
5631	0	0.681818
5632	0	0.681818
5633	0	0.681818
5634	0	0.681818
5635	0	0.681818
5636	0	0.681818
5637	0	0.681818
5638	0	0.681818
5639	0	0.681818
5640	0	0.681818
5641	0	0.681818
5642	0	0.681818
5643	0	0
5644	0	0.895601
5645	0	0.902506
5646	0	0.850804
5647	0	0.852168
5648	0	0.164021
5649	0	0.181538
5650	0	0.196667
5651	0	0.233202
5652	0	0.27619
5653	0	0.305263
5654	0	0.339181
5655	0	0.339181
5656	0	0.379085
5657	0	0.366013
5658	0	0.366013
5659	0	0.411765
5660	0	0.404412
5661	0	0.404412
5662	0	0.404412
5663	0	0.404412
5664	0	0.411765
5665	0	0.458333
5666	0	0.458333
5667	0	0.458333
5668	0	0.458333
5669	0	0.458333
5670	0	0.458333
5671	0	0.458333
5672	0	0.458333
5673	0	0.458333
5674	0	0.458333
5675	0	0.458333
5676	0	0.52381
5677	0	0.52381
5678	0	0.52381
5679	0	0.52381
5680	0	0.52381
5681	0	0.52381
5682	0	0.705128
5683	0	0.705128
5684	0	0.705128
5685	0	0.705128
5686	0	0.705128
5687	0	0.705128
5688	0	0.705128
5689	0	0.705128
5690	0	0.705128
5691	0	0.705128
5692	0	0.705128
5693	0	0.705128
5694	0	0.705128
5695	0	0.705128
5696	0	0.705128
5697	0	0.705128
5698	0	0.705128
5699	0	0.705128
5700	0	0.705128
5701	0	0.705128
5702	0	0.705128
5703	0	0.705128
5704	0	0.705128
5705	0	0.705128
5706	0	0.705128
5707	0	0.705128
5708	0	0.705128
5709	0	0.705128
5710	0	0.705128
5711	0	0.705128
5712	0	0.705128
5713	0	0.705128
5714	0	0.705128
5715	0	0.705128
5716	0	0.705128
5717	0	0.705128
5718	0	0.705128
5719	0	0.705128
5720	0	0.705128
5721	0	0.705128
5722	0	0.705128
5723	0	0.705128
5724	0	0.705128
5725	0	0.705128
5726	0	0.705128
5727	0	0.705128
5728	0	0.705128
5729	0	0.705128
5730	0	0.705128
5731	0	0.705128
5732	0	0.705128
5733	0	0.705128
5734	0	0.705128
5735	0	0.705128
5736	0	0.705128
5737	0	0.705128
5738	0	0.705128
5739	0	0.705128
5740	0	0.705128
5741	0	0.705128
5742	0	0.705128
5743	0	0.705128
5744	0	0.705128
5745	0	0.705128
5746	0	0.705128
5747	0	0.705128
5748	0	0.705128
5749	0	0.705128
5750	0	0.705128
5751	0	0.705128
5752	0	0.705128
5753	0	0.705128
5754	0	0.705128
5755	0	0.705128
5756	0	0.705128
5757	0	0.705128
5758	0	0.705128
5759	0	0.705128
5760	0	0.705128
5761	0	0.705128
5762	0	0.705128
5763	0	0.705128
5764	0	0.705128
5765	0	0.705128
5766	0	0.705128
5767	0	0.705128
5768	0	0.705128
5769	0	0.705128
5770	0	0.705128
5771	0	0.705128
5772	0	0.705128
5773	0	0.705128
5774	0	0.705128
5775	0	0.705128
5776	0	0.705128
5777	0	0.705128
5778	0	0.705128
5779	0	0.705128
5780	0	0.705128
5781	0	0.681818
5782	0	0.681818
5783	0	0.681818
5784	0	0.681818
5785	0	0.545455
5786	0	0.545455
5787	0	0.545455
5788	0	0.509091
5789	0	0.509091
5790	0	0.509091
5791	0	0.381818
5792	0	0.381818
5793	0	0.0666667
5794	0	0.0666667
5795	0	0.0666667
5796	0	0.0666667
5797	0	0.0666667
5798	0	0
5799	0	0
5800	0	0
5801	0	0
5802	0	0
5803	0	0
5804	0	0
5805	0	0
5806	0	0
5807	0	0
5808	0	0.1
5809	0	0.1
5810	0	0.1
5811	0	0.1
5812	0	0.1
5813	0	0.1
5814	0	0.1
5815	0	0.1
5816	0	0.1
5817	0	0.1
5818	0	0.1
5819	0	0.1
5820	0	0.1
5821	0	0.1
5822	0	0.1
5823	0	0.1
5824	0	0.1
5825	0	0.1
5826	0	0.1
5827	0	0.1
5828	0	0.1
5829	0	0.1
5830	0	0.1
5831	0	0.1
5832	0	0.1
5833	0	0.1
5834	0	0.1
5835	0	0.1
5836	0	0.1
5837	0	0.1
5838	0	0.1
5839	0	0.1
5840	0	0.1
5841	0	0.1
5842	0	0.1
5843	0	0.1
5844	0	0.1
5845	0	0.1
5846	0	0.1
5847	0	0.1
5848	0	0.1
5849	0	0.1
5850	0	0.1
5851	0	0.1
5852	0	0.1
5853	0	0.1
5854	0	0.1
5855	0	0.1
5856	0	0.1
5857	0	0.1
5858	0	0.1
5859	0	0.1
5860	0	0.1
5861	0	0.1
5862	0	0.1
5863	0	0.1
5864	0	0.1
5865	0	0.1
5866	0	0.1
5867	0	0.1
5868	0	0.1
5869	0	0.1
5870	0	0.1
5871	0	0.1
5872	0	0.1
5873	0	0.1
5874	0	0.1
5875	0	0.1
5876	0	0.1
5877	0	0.1
5878	0	0.1
5879	0	0.1
5880	0	0.1
5881	0	0.1
5882	0	0.1
5883	0	0.1
5884	0	0.166667
5885	0	0.166667
5886	0	0.166667
5887	0	0.166667
5888	0	0.166667
5889	0	0.166667
5890	0	0.166667
5891	0	0.166667
5892	0	0.166667
5893	0	0.166667
5894	0	0.166667
5895	0	0.166667
5896	0	0.166667
5897	0	0.166667
5898	0	0.166667
5899	0	0.166667
5900	0	0.166667
5901	0	0.166667
5902	0	0.166667
5903	0	0.166667
5904	0	0.166667
5905	0	0.166667
5906	0	0.166667
5907	0	0.166667
5908	0	0.166667
5909	0	0.166667
5910	0	0.166667
5911	0	0.166667
5912	0	0.166667
5913	0	0.166667
5914	0	0.166667
5915	0	0.166667
5916	0	0.166667
5917	0	0.166667
5918	0	0.166667
5919	0	0.166667
5920	0	0.166667
5921	0	0.166667
5922	0	0.166667
5923	0	0.166667
5924	0	0.166667
5925	0	0.166667
5926	0	0.166667
5927	0	0.166667
5928	0	0.166667
5929	0	0.166667
5930	0	0.166667
5931	0	0.166667
5932	0	0.166667
5933	0	0.166667
5934	0	0.166667
5935	0	0.166667
5936	0	0.166667
5937	0	0.166667
5938	0	0.166667
5939	0	0.166667
5940	0	0.166667
5941	0	0.166667
5942	0	0.166667
5943	0	0.166667
5944	0	0.166667
5945	0	0.166667
5946	0	0.166667
5947	0	0.166667
5948	0	0.166667
5949	0	0.166667
5950	0	0.166667
5951	0	0.166667
5952	0	0.166667
5953	0	0.166667
5954	0	0.166667
5955	0	0.166667
5956	0	0.166667
5957	0	0.166667
5958	0	0.166667
5959	0	0.166667
5960	0	0.166667
5961	0	0.166667
5962	0	0.166667
5963	0	0.166667
5964	0	0.166667
5965	0	0.166667
5966	0	0.166667
5967	0	0.166667
5968	0	0.166667
5969	0	0.166667
5970	0	0.166667
5971	0	0.166667
5972	0	0.166667
5973	0	0.166667
5974	0	0.166667
5975	0	0.166667
5976	0	0.166667
5977	0	0.166667
5978	0	0.166667
5979	0	0.166667
5980	0	0.166667
5981	0	0.166667
5982	0	0.166667
5983	0	0.166667
5984	0	0.166667
5985	0	0.166667
5986	0	0.166667
5987	0	0.166667
5988	0	0.166667
5989	0	0.166667
5990	0	0.166667
5991	0	0.166667
5992	0	0.166667
5993	0	0.166667
5994	0	0.166667
5995	0	0.166667
5996	0	0.166667
5997	0	0.166667
5998	0	0.166667
5999	0	0.166667
6000	0	0.166667
6001	0	0.166667
6002	0	0.166667
6003	0	0.166667
6004	0	0.166667
6005	0	0.166667
6006	0	0.166667
6007	0	0.166667
6008	0	0.166667
6009	0	0.166667
6010	0	0.166667
6011	0	0.166667
6012	0	0.166667
6013	0	0.166667
6014	0	0.166667
6015	0	0.166667
6016	0	0.166667
6017	0	0.166667
6018	0	0.166667
6019	0	0.166667
6020	0	0.166667
6021	0	0.166667
6022	0	0.166667
6023	0	0.166667
6024	0	0.166667
6025	0	0.166667
6026	0	0.166667
6027	0	0.166667
6028	0	0.166667
6029	0	0.166667
6030	0	0.166667
6031	0	0.333333
6032	0	0.333333
6033	0	0.333333
6034	0	0.333333
6035	0	0.333333
6036	0	0.333333
6037	0	0.333333
6038	0	0.333333
6039	0	0.333333
6040	0	0.333333
6041	0	0.333333
6042	0	0.333333
6043	0	0.333333
6044	0	0.333333
6045	0	0.333333
6046	0	0.333333
6047	0	0.333333
6048	0	0.333333
6049	0	0.333333
6050	0	0.333333
6051	0	0.333333
6052	0	0.333333
6053	0	0.333333
6054	0	0.333333
6055	0	0.333333
6056	0	0.333333
6057	0	0.333333
6058	0	0.333333
6059	0	0.333333
6060	0	0.333333
6061	0	0.333333
6062	0	0.333333
6063	0	0.333333
6064	0	0.333333
6065	0	0.333333
6066	0	0.333333
6067	0	0.333333
6068	0	0.333333
6069	0	0.333333
6070	0	0.333333
6071	0	0.333333
6072	0	0.333333
6073	0	0.333333
6074	0	0.333333
6075	0	0.333333
6076	0	0.333333
6077	0	0.333333
6078	0	0.333333
6079	0	0.333333
6080	0	0.333333
6081	0	0.333333
6082	0	0.333333
6083	0	0.333333
6084	0	0.333333
6085	0	0.333333
6086	0	0.333333
6087	0	0.333333
6088	0	0.333333
6089	0	0.333333
6090	0	0.333333
6091	0	0.333333
6092	0	0.333333
6093	0	0.333333
6094	0	0.333333
6095	0	0.333333
6096	0	0.333333
6097	0	0.333333
6098	0	0.333333
6099	0	0.333333
6100	0	0.333333
6101	0	0.333333
6102	0	0.333333
6103	0	0.333333
6104	0	0.333333
6105	0	0.333333
6106	0	0.333333
6107	0	0.333333
6108	0	0.333333
6109	0	0.333333
6110	0	0.333333
6111	0	0.333333
6112	0	0.333333
6113	0	0.333333
6114	0	0.333333
6115	0	0.333333
6116	0	0.333333
6117	0	0.333333
6118	0	0.333333
6119	0	0.333333
6120	0	0.333333
6121	0	0.333333
6122	0	0.333333
6123	0	0.333333
6124	0	0.333333
6125	0	0.333333
6126	0	0.333333
6127	0	0.333333
6128	0	0.333333
6129	0	0.333333
6130	0	0.333333
6131	0	0.333333
6132	0	0.333333
6133	0	0.333333
6134	0	0.333333
6135	0	0.333333
6136	0	0.333333
6137	0	0.333333
6138	0	0.333333
6139	0	0.333333
6140	0	0.333333
6141	0	0.333333
6142	0	0.333333
6143	0	0.333333
6144	0	0.333333
6145	0	0.333333
6146	0	0.333333
6147	0	0.333333
6148	0	0.333333
6149	0	0.333333
6150	0	0.333333
6151	0	0.333333
6152	0	0.333333
6153	0	0.333333
6154	0	0.333333
6155	0	0.333333
6156	0	0.333333
6157	0	0.333333
6158	0	0.333333
6159	0	0.333333
6160	0	0.333333
6161	0	0.333333
6162	0	0
6163	0	0
6164	0	0
6165	0	0
6166	0	0
6167	0	0
6168	0	0
6169	0	0
6170	0	0
6171	0	0
6172	0	0
6173	0	0
6174	0	0
6175	0	0
6176	0	0
6177	0	0
6178	0	0
6179	0	0
6180	0	0
6181	0	0
6182	0	0
6183	0	0
6184	0	0
6185	0	0
6186	0	0
6187	0	0
6188	0	0
6189	0	0
6190	0	0
6191	0	0
6192	0	0
6193	0	0
6194	0	0
6195	0	0
6196	0	0
6197	0	0
6198	0	0
6199	0	0
6200	0	0
6201	0	0
6202	0	0
6203	0	0
6204	0	0
6205	0	0
6206	0	0
6207	0	0
6208	0	0
6209	0	0
6210	0	0
6211	0	0
6212	0	0
6213	0	0
6214	0	0
6215	0	0
6216	0	0
6217	0	0
6218	0	0
6219	0	0
6220	0	0
6221	0	0
6222	0	0
6223	0	0
6224	0	0
6225	0	0
6226	0	1
6227	0	1
6228	1	1
6229	1	1
6230	1	1
6231	1	1
6232	0	1
6233	0	0
6234	0	0
6235	0	0
6236	0	0
6237	0	0
6238	0	0
6239	0	0
6240	0	0
