Site	ColumnScore	SumOfPairsScore
1	1	0
2	1	0
3	1	0
4	1	0
5	1	0
6	1	0
7	1	0
8	1	0
9	1	0
10	1	0
11	1	0
12	1	0
13	1	0
14	1	0
15	1	0
16	1	0
17	1	0
18	1	0
19	0	0
20	0	0
21	0	0
22	0	0
23	0	0
24	0	0
25	0	0
26	0	0
27	0	0
28	0	0
29	0	0
30	0	0
31	0	0
32	0	0
33	0	0
34	0	0
35	0	0
36	0	0
37	0	0
38	0	0
39	0	0
40	0	0
41	0	0
42	0	0
43	0	0
44	0	0
45	0	0
46	0	0
47	0	0
48	0	0
49	0	0
50	0	0
51	0	0
52	0	0
53	0	0
54	0	0
55	0	0
56	0	0
57	0	0
58	0	0
59	0	0
60	0	0
61	0	0
62	0	0
63	0	0
64	0	0
65	0	0
66	0	0
67	0	0
68	0	0
69	0	0
70	0	0
71	0	0
72	0	0
73	0	0
74	0	0
75	0	0
76	0	0
77	0	0
78	0	0
79	0	0
80	0	0
81	0	0
82	0	0
83	0	0
84	0	0
85	0	0
86	0	0
87	0	0
88	0	0
89	0	0
90	0	0
91	0	0
92	0	0
93	0	0
94	0	0
95	0	0
96	0	0
97	0	0
98	0	0
99	0	0
100	0	0
101	0	0
102	0	0
103	0	0
104	0	0
105	0	0
106	0	0
107	0	0
108	0	0
109	0	0
110	0	0
111	0	0
112	0	0
113	0	0
114	0	0
115	0	0
116	0	0
117	0	0
118	0	0
119	0	0
120	0	0
121	0	0
122	0	0
123	0	0
124	0	0
125	0	0
126	0	0.0277778
127	0	0.0277778
128	0	0.0277778
129	0	0.0277778
130	0	0.0277778
131	0	0.0277778
132	0	0.0277778
133	0	0.0277778
134	0	0.0277778
135	0	0.0277778
136	0	0.0277778
137	0	0.0277778
138	0	0.0277778
139	0	0.0277778
140	0	0.111111
141	0	0.111111
142	0	0.111111
143	0	0.166667
144	0	0.166667
145	0	0.166667
146	0	0.155556
147	0	0.155556
148	0	0.155556
149	0	0.155556
150	0	0.348485
151	0	0.348485
152	0	0.333333
153	0	0.371795
154	0	0.474359
155	0	0.406593
156	0	0.406593
157	0	0.406593
158	0	0.428571
159	0	0.4
160	0	0.799055
161	0	0.804625
162	0	0.809259
163	0	0.811806
164	0	0.802315
165	0	0.743774
166	0	0.54329
167	0	0.625903
168	0	0.638092
169	0	0.664309
170	0	0.731179
171	0	0.764495
172	0	0.74213
173	0	0.753063
174	0	0.748011
175	0	0.752142
176	0	0.333333
177	0	0.583333
178	0	0.308824
179	0	0.746868
180	0	0.741924
181	0	0.745462
182	0	0.935651
183	0	0.636667
184	0	0.355556
185	0	0.5
186	0	0.978355
187	0	0.777778
188	0	1
189	0	0.99164
190	0	0.99164
191	0	0.99164
192	0	0.99164
193	0	0.99164
194	0	0
195	0	0.991632
196	0	0.991632
197	0	0.993297
198	0	0.993297
199	0	0.994928
200	0	0.974836
201	0	0
202	0	0
203	0	0
204	0	0
205	0	0
206	0	0
207	0	0
208	0	0
209	0	0.616158
210	0	0.6147
211	0	0.615641
212	0	0.616845
213	0	0.616845
214	0	0.934716
215	0	0.979993
216	0	0.981641
217	0	0.981641
218	0	0.981595
219	0	0.981611
220	0	0.981626
221	0	0.981626
222	0	0.981639
223	0	1
224	0	1
225	0	0.69697
226	0	0.485714
227	0	0.22381
228	0	0.919602
229	0	0.88285
230	0	0.807314
231	0	0.409673
232	0	0.24
233	0	0
234	0	0
235	0	0.882353
236	0	1
237	0	1
238	0	1
239	0	0.493439
240	0	0.345029
241	0	0.292398
242	0	0.392611
243	0	0.446908
244	0	0.4
245	0	0.94234
246	0	0.333333
247	0	1
248	0	0.5
249	0	0
250	0	0
251	0	0
252	0	0.993276
253	0	0.994951
254	0	0.994951
255	0	0.333333
256	0	1
257	0	1
258	0	1
259	0	0.996637
260	0	0.998318
261	0	0.998318
262	0	0.998318
263	0	0.998318
264	0	0.996634
265	1	0
266	1	0
267	1	0
268	1	0
269	1	0
270	1	0
271	1	0
272	1	0
273	1	0
274	1	0
275	1	0
276	1	0
277	1	0
278	1	0
279	1	0
280	1	0
281	1	0
282	1	0
283	1	0
284	1	0
285	1	0
286	1	0
287	0	0
288	0	0.998319
289	0	0.998319
290	0	1
291	0	1
292	1	1
293	0	1
294	1	1
295	0	1
296	0	1
297	0	1
298	0	1
299	0	1
300	0	0.782013
301	0	0.992226
302	0	0.954162
303	0	0.996656
304	0	0.998325
305	1	1
306	0	0.993311
307	0	0.998318
308	0	0.99664
309	0	0.998319
310	0	1
311	0	0.8
312	0	0.444444
313	0	0.333333
314	0	0.266667
315	0	0
316	0	0
317	0	0.166667
318	0	0.333333
319	0	0
320	0	0
321	0	0
322	0	0
323	0	0
324	0	0
325	0	0
326	0	0
327	0	0
328	0	0
329	0	0.333333
330	0	0.333333
331	0	0.333333
332	0	0.333333
333	0	0.333333
334	0	0.333333
335	0	0.333333
336	0	0.333333
337	0	0.333333
338	0	0.333333
339	0	1
340	0	1
341	0	1
342	0	0.973452
343	1	1
344	1	1
345	1	1
346	1	1
347	1	1
348	1	1
349	0	1
350	0	1
351	0	1
352	0	0.95387
353	0	0.953812
354	0	0.950463
355	0	0.666667
356	0	0.666667
357	0	0.468421
358	0	0.304348
359	0	0.916244
360	0	0.714286
361	0	1
362	0	1
363	0	1
364	0	0.333333
365	0	0.133333
366	0	0.26642
367	0	0.749697
368	0	0.809584
369	0	0.76009
370	0	0
371	0	0
372	0	0
373	0	0.34491
374	0	0.777778
375	0	0
376	0	0
377	0	0
378	0	0.777778
379	0	1
380	0	1
381	0	0
382	0	0.321429
383	0	0.940319
384	0	0.92386
385	0	0.749217
386	0	0.986678
387	1	1
388	1	1
389	1	1
390	1	1
391	1	1
392	1	1
393	1	1
394	1	1
395	1	1
396	1	1
397	1	1
398	1	1
399	1	1
400	1	1
401	1	1
402	1	1
403	1	1
404	1	1
405	1	1
406	1	1
407	1	1
408	1	1
409	1	1
410	1	1
411	1	1
412	1	1
413	1	1
414	1	1
415	1	1
416	1	1
417	1	1
418	1	1
419	1	0
420	1	0
421	1	0
422	0	1
423	0	1
424	1	1
425	1	1
426	0	0.998329
427	0	0.998329
428	0	0.998329
429	0	0.998329
430	0	0.998329
431	0	0.998329
432	0	0.998329
433	0	0.998329
434	1	1
435	1	1
436	1	1
437	1	1
438	1	1
439	1	1
440	0	1
441	0	0
442	0	0
443	0	0.996651
444	0	0.996656
445	0	0.996656
446	1	1
447	1	1
448	1	1
449	1	1
450	0	0.998328
451	0	0.998328
452	0	0.998328
453	0	0.998328
454	0	0.996661
455	0	0.996661
456	0	0.996661
457	0	0.998329
458	0	0.998329
459	0	0.998329
460	0	0.998328
461	0	0.998328
462	0	0.996657
463	0	0.996657
464	0	0.99666
465	0	0.99666
466	0	0.998328
467	0	0.998328
468	0	0.998328
469	0	1
470	0	1
471	1	1
472	1	1
473	1	1
474	1	1
475	1	1
476	1	1
477	0	0.998329
478	0	0.998329
479	0	0.998329
480	0	0.998328
481	0	0.998328
482	0	0.998328
483	0	0.998328
484	0	0
485	0	0
486	0	0
487	0	0
488	1	0
489	1	0
490	1	0
491	1	0
492	1	0
493	1	0
494	1	0
495	1	0
496	1	0
497	1	0
498	1	0
499	1	0
500	1	0
501	1	0
502	0	0.994987
503	0	0.994987
504	0	0.778562
505	0	0.90088
506	0	0.772386
507	1	1
508	0	0.998314
509	0	0.998325
510	0	0.998325
511	0	1
512	0	1
513	0	0.991654
514	0	0.993314
515	0	1
516	0	0.996654
517	0	0.996654
518	0	0.996654
519	0	0.996654
520	1	0
521	1	0
522	1	0
523	1	0
524	1	0
525	1	0
526	1	0
527	1	0
528	1	0
529	0	0
530	0	0
531	0	1
532	1	1
533	1	1
534	1	1
535	1	1
536	0	1
537	0	1
538	0	0.998322
539	0	0.996599
540	0	0.767578
541	0	0.571429
542	0	0.977341
543	0	0.982957
544	0	0.998328
545	0	0.998328
546	0	0.998328
547	0	0.998328
548	0	0.998328
549	0	0.998328
550	0	0.998328
551	0	0.998328
552	0	0.998328
553	0	0.998328
554	0	0.998328
555	1	1
556	1	1
557	1	1
558	1	1
559	0	1
560	1	1
561	1	1
562	1	1
563	0	0.998326
564	0	0
565	0	0
566	0	0.968631
567	0	0.266667
568	0	0.266667
569	0	0.266667
570	0	0.266667
571	0	0.266667
572	0	0.266667
573	0	0.266667
574	0	0.266667
575	0	0.333333
576	0	0.333333
577	0	0.333333
578	1	1
579	1	1
580	1	1
581	1	1
582	1	1
583	1	1
584	1	1
585	1	1
586	1	1
587	1	1
588	0	1
589	0	1
590	0	0.962189
591	0	0.998328
592	0	0.998328
593	0	0.998328
594	0	0.998328
595	1	1
596	1	1
597	1	1
598	1	1
599	0	1
600	0	0.837087
601	0	0.836963
602	0	1
603	0	0.742857
604	0	0.804189
605	0	0.714286
606	0	1
607	0	0.4
608	0	0.874011
609	0	0.488263
610	0	0.301471
611	0	0.875946
612	0	0.873654
613	0	0.731196
614	0	0.735876
615	0	0.758752
616	0	0.3
617	0	0.90125
618	0	0.910524
619	0	0
620	0	0
621	0	0
622	0	0
623	0	0
624	0	0
625	0	0
626	0	0.872453
627	0	0.471342
628	0	0.776297
629	0	0.774275
630	0	0.781868
631	0	0.783181
632	0	0.784497
633	0	1
634	1	1
635	1	1
636	1	1
637	0	1
638	1	1
639	1	1
640	1	1
641	1	1
642	1	1
643	1	1
644	0	1
645	0	0.994964
646	0	0.983352
647	0	0.998322
648	0	1
649	0	1
650	0	1
651	0	1
652	0	1
653	0	1
654	0	1
655	0	0.994987
656	0	0.994987
657	0	1
658	0	0.99498
659	0	0.996653
660	0	0.996653
661	0	0.996653
662	0	0.996653
663	0	0.996653
664	0	1
665	0	0.864895
666	0	0.919459
667	0	0.858344
668	0	0.791009
669	0	0.512104
670	0	0.901049
671	0	0.883958
672	0	0.966045
673	0	0.988012
674	0	0.6
675	1	0
676	1	0
677	1	0
678	1	0
679	1	0
680	0	0
681	0	0
682	0	0
683	0	0
684	0	0.998326
685	0	0.996657
686	0	0.996657
687	0	0.998326
688	0	0.998326
689	0	0.998326
690	0	0.998326
691	0	0.80117
692	0	0.80117
693	0	0.965168
694	0	1
695	0	1
696	0	1
697	0	1
698	0	1
699	0	0.611111
700	0	0.611111
701	0	0.236364
702	0	0.2
703	0	0.166667
704	0	0.646154
705	0	0.523944
706	0	0.445965
707	0	0.508511
708	0	0.880682
709	0	0.466056
710	0	0.2843
711	0	0.253374
712	0	0.250082
713	0	0.189111
714	0	0.22548
715	0	0.868456
716	0	0.903168
717	0	0.903168
718	0	0
719	0	0
720	0	0
721	0	0.868266
722	0	0.868646
723	0	0.868837
724	0	0.868456
725	0	0.775739
726	0	0.626609
727	0	0.585016
728	0	0.567175
729	0	0.430464
730	0	0.187713
731	0	0.201581
732	0	0.197628
733	0	0.197628
734	0	0.193676
735	0	0.238375
736	0	0.189107
737	0	0.109979
738	0	0.077908
739	0	0.247827
740	0	0.538012
741	0	0.178704
742	0	0.178395
743	0	0.178086
744	0	0.168022
745	0	0.478947
746	0	0.478947
747	0	0.406926
748	0	0.371542
749	0	0.375494
750	0	0.34058
751	0	0.313333
752	0	0.121951
753	0	0.152413
754	0	0.351259
755	0	0.236364
756	0	0.357143
757	0	0.193286
758	0	0.33762
759	0	0.366667
760	0	0.365432
761	0	0.496203
762	0	0.511579
763	0	0.504144
764	0	0.489825
765	0	0.367058
766	0	0.284738
767	0	0.352196
768	0	0.166513
769	0	0.129282
770	0	0.196923
771	0	0.2
772	0	0.172308
773	0	0.184783
774	0	0.190883
775	0	0.229888
776	0	0.0929714
777	0	0.288492
778	0	0.194128
779	0	0.202172
780	0	0.332597
781	0	0
782	0	0
783	0	0
784	0	0
785	0	0
786	0	0.138009
787	0	0.101404
788	0	0.11964
789	0	0.470454
790	0	0.282927
791	0	0.383167
792	0	0.69338
793	0	0.710359
794	0	0.614035
795	0	0.592793
796	0	0.724646
797	0	0.472979
798	0	0.163743
799	0	0.192982
800	0	0.122507
801	0	0.134253
802	0	0.192889
803	0	0.186674
804	0	0.441625
805	0	0.469282
806	0	0.347109
807	0	0.370062
808	0	0.631579
809	0	0
810	0	0
811	0	0
812	0	0
813	0	0
814	0	0
815	0	0
816	0	0
817	0	0.470633
818	0	0.472029
819	0	0.480795
820	0	0.402597
821	0	0.766685
822	0	0.868966
823	0	0.3
824	0	0.944942
825	0	1
826	0	0.8
827	0	0.866667
828	0	0.909091
829	0	0.83004
830	0	0.913043
831	0	0.913043
832	0	0.956871
833	0	0.95719
834	0	0.95719
835	0	1
836	0	0.998319
837	0	0.998319
838	0	0.998319
839	0	0.998319
840	0	1
841	0	1
842	0	1
843	0	1
844	0	1
845	0	0.998322
846	0	0.996643
847	0	0.980198
848	0	0.490001
849	0	0.917553
850	0	0.912121
851	0	0.602537
852	0	0.485482
853	0	0.392567
854	0	0.283298
855	0	0.205128
856	0	0.179487
857	0	0.102564
858	0	0.0769231
859	0	0.0728745
860	0	0.0688259
861	0	0.0647773
862	0	0.365335
863	0	0.38207
864	0	0.361301
865	0	0.663778
866	0	0.280733
867	0	0.255249
868	0	0.24598
869	0	0.188954
870	0	0.205246
871	0	0.218556
872	0	0.260236
873	0	0.385124
874	0	0.360632
875	0	0.401638
876	0	0.441652
877	0	0.4875
878	0	0.516129
879	0	0.640506
880	0	0.075
881	0	0.0897436
882	0	0.106061
883	0	0.111111
884	0	0.0666667
885	0	0.1
886	0	0.1
887	0	0.166667
888	0	0.166667
889	0	0.333333
890	0	0.333333
891	0	0.333333
892	0	0.333333
893	0	0.333333
894	0	0.333333
895	0	0.333333
896	0	0.333333
897	0	0.333333
898	0	0.333333
899	0	0.333333
900	0	0.333333
901	0	0.333333
902	0	0.333333
903	0	0.333333
904	0	0.333333
905	0	0.333333
906	0	0.333333
907	0	0.333333
908	0	0.333333
909	0	0.333333
910	0	0.333333
911	0	0.333333
912	0	0.166667
913	0	0.25
914	0	0.212121
915	0	0.193262
916	0	0
917	0	0.445502
918	0	0.565312
919	0	0.565312
920	0	0.496599
921	0	0.27305
922	0	0.2463
923	0	0.333333
924	0	0.341438
925	0	0.454042
926	0	0.523256
927	0	0.587717
928	0	0.641493
929	0	0.222222
930	0	0.320513
931	0	0.342857
932	0	0.256678
933	0	0.496124
934	0	0.519807
935	0	0.658802
936	0	0.877732
937	0	0.715909
938	0	0.762821
939	0	0.166667
940	0	0.333333
941	0	1
942	0	1
943	0	0.767524
944	0	0.97335
945	0	0.345455
946	0	0.4
947	0	1
948	0	0.996649
949	0	0.998324
950	0	0.998324
951	0	0.996654
952	0	0.996654
953	0	0.996654
954	0	0.996654
955	0	0.994987
956	0	0.994987
957	0	0.994987
958	0	0.994987
959	0	0.991654
960	0	0.991647
961	0	0.2
962	0	0.984978
963	0	0.983318
964	0	0.8
965	0	0.642923
966	0	0
967	0	0.956522
968	0	0.819731
969	0	0.333333
970	0	0.333333
971	0	0.488889
972	0	0.736264
973	0	0.666096
974	0	0.598897
975	0	0
976	0	0.408924
977	0	0.480891
978	0	0.535714
979	0	0
980	0	0
981	0	0
982	0	0
983	0	0
984	0	0
985	0	0
986	0	0
987	0	0
988	0	0
989	0	0
990	0	0.381818
991	0	0.83313
992	0	0.869978
993	0	0
994	0	0
995	0	0
996	0	0
997	0	0
998	0	0
999	0	0
1000	0	0
1001	0	0
1002	0	0
1003	0	0
1004	0	0
1005	0	0
1006	0	0
1007	0	0
1008	0	0
1009	0	0
1010	0	0
1011	0	0
1012	0	0
1013	0	0
1014	0	0
1015	0	0
1016	0	0
1017	0	0
1018	0	0
1019	0	0
1020	0	0
1021	0	0
1022	0	0
1023	0	0
1024	0	0
1025	0	0
1026	0	0
1027	0	0
1028	0	0
1029	0	0
1030	0	0
1031	0	0
1032	0	0
1033	0	0
1034	0	0
1035	0	0
1036	0	0
1037	0	0
1038	0	0
1039	0	0
1040	0	0
1041	0	0
1042	0	0
1043	0	0
1044	0	0
1045	0	0
1046	0	0
1047	0	0
1048	0	0
1049	0	0
1050	0	0
1051	0	0
1052	0	0
1053	0	0
1054	0	0
1055	0	0
1056	0	0
1057	0	0
1058	0	0
1059	0	0
1060	0	0
1061	0	0
1062	0	0
1063	0	0
1064	0	0
1065	0	0
1066	0	0
1067	0	0
1068	0	0
1069	0	0
1070	0	0
1071	0	0
1072	0	0
1073	0	0
1074	0	0
1075	0	0
1076	0	0
1077	0	0
1078	0	0
1079	0	0
1080	0	0
1081	0	0
1082	0	0
1083	0	0
1084	0	0
1085	0	0
1086	0	0
1087	0	0
1088	0	0
1089	0	0
1090	0	0
1091	0	0
1092	0	0
1093	0	0
1094	0	0
1095	0	0
1096	0	0
1097	0	0
1098	0	0
1099	0	0
1100	0	0
1101	0	0
1102	0	0
1103	0	0
1104	0	0
1105	0	0
1106	0	0
1107	0	0
1108	0	0
1109	0	0
1110	0	0
1111	0	0
1112	0	0
1113	0	0
1114	0	0
1115	0	0
1116	0	0
1117	0	0
1118	0	0
1119	0	0
1120	0	0
1121	0	0
1122	0	0
1123	0	0
1124	0	0
1125	0	0
1126	0	0
1127	0	0
1128	0	0
1129	0	0
1130	0	0
1131	0	0
1132	0	0
1133	0	0
1134	0	0
1135	0	0
1136	0	0
1137	0	0
1138	0	0
1139	0	0
1140	0	0
1141	0	0
1142	0	0
1143	0	0
1144	0	0
1145	0	0
1146	0	0
1147	0	0
1148	0	0
1149	0	0
1150	0	0
1151	0	0
1152	0	0
1153	0	0
1154	0	0
1155	0	0
1156	0	0
1157	0	0
1158	0	0
1159	0	0
1160	0	0
1161	0	0
1162	0	0
1163	0	0
1164	0	0
1165	0	0
1166	0	0
1167	0	0
1168	0	0
1169	0	0
1170	0	0
1171	0	0
1172	0	0
1173	0	0
1174	0	0
1175	0	0
1176	0	0
1177	0	0
1178	0	0
1179	0	0
1180	0	0
1181	0	0
1182	0	0
1183	0	0
1184	0	0
1185	0	0
1186	0	0
1187	0	0
1188	0	0
1189	0	0
1190	0	0
1191	0	0
1192	0	0
1193	0	0
1194	0	0
1195	0	0
1196	0	0
1197	0	0
1198	0	0
1199	0	0
1200	0	0
1201	0	0
1202	0	0
1203	0	0
1204	0	0
1205	0	0
1206	0	0
1207	0	0
1208	0	0
1209	0	0
1210	0	0
1211	0	0
1212	0	0
1213	0	0
1214	0	0
1215	0	0
1216	0	0
1217	0	0
1218	0	0
1219	0	0
1220	0	0
1221	0	0
1222	0	0
1223	0	0
1224	0	0
1225	0	0
1226	0	0
1227	0	0
1228	0	0
1229	0	0
1230	0	0
1231	0	0
1232	0	0
1233	0	0
1234	0	0
1235	0	0
1236	0	0
1237	0	0
1238	0	0
1239	0	0
1240	0	0
1241	0	0
1242	0	0
1243	0	0
1244	0	0
1245	0	0
1246	0	0
1247	0	0
1248	0	0
1249	0	0
1250	0	0
1251	0	0
1252	0	0
1253	0	0
1254	0	0
1255	0	0
1256	0	0
1257	0	0
1258	0	0
1259	0	0
1260	0	0
1261	0	0
1262	0	0
1263	0	0
1264	0	0
1265	0	0
1266	0	0
1267	0	0
1268	0	0
1269	0	0
1270	0	0
1271	0	0.357143
1272	0	0.714286
1273	0	0
1274	0	0
1275	0	0
1276	0	0
1277	0	0
1278	0	0
1279	0	0
1280	0	0
1281	0	0
1282	0	0
1283	0	0
1284	0	0
1285	0	0
1286	0	0
1287	0	0
1288	0	0
1289	0	0
1290	0	0
1291	0	0
1292	0	0
1293	0	0
1294	0	0
1295	0	0
1296	0	0.910234
1297	0	0.926271
1298	0	0.971649
1299	0	0.969991
1300	0	1
1301	0	1
1302	0	1
1303	0	1
1304	0	0
1305	0	0
1306	0	0
1307	0	0
1308	0	0
1309	0	0
1310	0	0
1311	0	0
1312	0	0
1313	0	0
1314	0	0
1315	0	0
1316	0	0
1317	0	0
1318	0	0
1319	0	0
1320	0	0
1321	0	0
1322	0	0
1323	0	0
1324	0	0
1325	0	0
1326	0	0
1327	0	0
1328	0	0
1329	0	0
1330	0	0
1331	0	0
1332	0	0
1333	0	0
1334	0	0
1335	0	0
1336	0	0
1337	0	0
1338	0	0
1339	0	0
1340	0	0
1341	0	0
1342	0	0
1343	0	0
1344	0	0
1345	0	0
1346	0	0
1347	0	0
1348	0	0
1349	0	0
1350	0	0
1351	0	0
1352	0	0
1353	0	0
1354	0	0
1355	0	0
1356	0	0
1357	0	0
1358	0	0
1359	0	0
1360	0	0
1361	0	0
1362	0	0
1363	0	0
1364	0	0
1365	0	0
1366	0	0
1367	0	0
1368	0	0
1369	0	0
1370	0	0
1371	0	0
1372	0	0
1373	0	0
1374	0	0
1375	0	0
1376	0	0
1377	0	0
1378	0	0
1379	0	0
1380	0	0
1381	0	0
1382	0	0
1383	0	0
1384	0	0
1385	0	0
1386	0	0
1387	0	0
1388	0	0
1389	0	0
1390	0	0
1391	0	0
1392	0	0
1393	0	0
1394	0	0
1395	0	0
1396	0	0
1397	0	0
1398	0	0
1399	0	0
1400	0	0
1401	0	0
1402	0	0
1403	0	0
1404	0	0
1405	0	0
1406	0	0
1407	0	0
1408	0	0
1409	0	0
1410	0	0
1411	0	0
1412	0	0
1413	0	0
1414	0	0
1415	0	0
1416	0	0
1417	0	0
1418	0	0
1419	0	0
1420	0	0
1421	0	0
1422	0	0
1423	0	0
1424	0	0
1425	0	0
1426	0	0
1427	0	0
1428	0	0
1429	0	0
1430	0	0
1431	0	0
1432	0	0
1433	0	0
1434	0	0
1435	0	0
1436	0	0
1437	0	0
1438	0	0
1439	0	0
1440	0	0
1441	0	0
1442	0	0
1443	0	0
1444	0	0
1445	0	0
1446	0	0
1447	0	0
1448	0	0
1449	0	0
1450	0	0
1451	0	0
1452	0	0
1453	0	0
1454	0	0
1455	0	0
1456	0	0
1457	0	0
1458	0	0
1459	0	0
1460	0	0
1461	0	0
1462	0	0
1463	0	0
1464	0	0.973296
1465	0	0.532164
1466	0	0.19883
1467	0	0.176471
1468	0	0.102941
1469	0	0.102941
1470	0	0.0882353
1471	0	0.0882353
1472	0	0.0882353
1473	0	0.0808824
1474	0	0.0808824
1475	0	0.0808824
1476	0	0.0735294
1477	0	0.0808824
1478	0	0.0808824
1479	0	0.0808824
1480	0	0.0916667
1481	0	0.0916667
1482	0	0.0916667
1483	0	0.10989
1484	0	0.10989
1485	0	0.128205
1486	0	0.128205
1487	0	0.128205
1488	0	0.128205
1489	0	0.906533
1490	0	0.293478
1491	0	0.229249
1492	0	0.106719
1493	0	0.083004
1494	0	0.0750988
1495	0	0.0633333
1496	0	0.0366667
1497	0	0.0366667
1498	0	0.0366667
1499	0	0.03
1500	0	0.0289855
1501	0	0.0355731
1502	0	0.0355731
1503	0	0.0316206
1504	0	0.0316206
1505	0	0.0316206
1506	0	0.034632
1507	0	0.0355731
1508	0	0.0355731
1509	0	0.0237154
1510	0	0.0237154
1511	0	0.025974
1512	0	0.025974
1513	0	0.025974
1514	0	0.025974
1515	0	0.025974
1516	0	0.025974
1517	0	0.025974
1518	0	0.025974
1519	0	0.025974
1520	0	0.0285714
1521	0	0.0285714
1522	0	0.0285714
1523	0	0.0326087
1524	0	0.0326087
1525	0	0.0326087
1526	0	0.0326087
1527	0	0.0326087
1528	0	0.034632
1529	0	0.034632
1530	0	0.034632
1531	0	0.034632
1532	0	0.034632
1533	0	0.034632
1534	0	0.034632
1535	0	0.034632
1536	0	0.034632
1537	0	0.0380952
1538	0	0.034632
1539	0	0.034632
1540	0	0.034632
1541	0	0.034632
1542	0	0.04329
1543	0	0.034632
1544	0	0.04329
1545	0	0.0428571
1546	0	0.126316
1547	0	0.189723
1548	0	0.189723
1549	0	0.189723
1550	0	0.15415
1551	0	0.15415
1552	0	0.171429
1553	0	0.171429
1554	0	0.171429
1555	0	0.194805
1556	0	0.194805
1557	0	0.194805
1558	0	0.194805
1559	0	0.194805
1560	0	0.194805
1561	0	0.214286
1562	0	0.214286
1563	0	0.214286
1564	0	0.214286
1565	0	0.214286
1566	0	0.214286
1567	0	0.214286
1568	0	0.214286
1569	0	0.214286
1570	0	0.214286
1571	0	0.214286
1572	0	0.214286
1573	0	0.214286
1574	0	0.214286
1575	0	0.214286
1576	0	0.214286
1577	0	0.214286
1578	0	0.214286
1579	0	0.214286
1580	0	0.214286
1581	0	0.214286
1582	0	0.236842
1583	0	0.236842
1584	0	0.242105
1585	0	0.242105
1586	0	0.266667
1587	0	0.266667
1588	0	0.266667
1589	0	0.266667
1590	0	0.266667
1591	0	0.294737
1592	0	0.294737
1593	0	0.294737
1594	0	0.294737
1595	0	0.266667
1596	0	0.266667
1597	0	0.266667
1598	0	0.266667
1599	0	0.261905
1600	0	0.314286
1601	0	0.314286
1602	0	0.314286
1603	0	0.314286
1604	0	0.314286
1605	0	0.314286
1606	0	0.314286
1607	0	0.314286
1608	0	0.314286
1609	0	0.314286
1610	0	0.314286
1611	0	0.347368
1612	0	0.347368
1613	0	0.347368
1614	0	0.347368
1615	0	0.347368
1616	0	0.347368
1617	0	0.347368
1618	0	0.347368
1619	0	0.347368
1620	0	0.347368
1621	0	0.347368
1622	0	0.347368
1623	0	0.347368
1624	0	0.385965
1625	0	0.385965
1626	0	0.385965
1627	0	0.385965
1628	0	0.385965
1629	0	0.385965
1630	0	0.385965
1631	0	0.385965
1632	0	0.385965
1633	0	0.385965
1634	0	0.385965
1635	0	0.385965
1636	0	0.385965
1637	0	0.385965
1638	0	0.385965
1639	0	0.385965
1640	0	0.385965
1641	0	0.385965
1642	0	0.385965
1643	0	0.385965
1644	0	0.385965
1645	0	0.385965
1646	0	0.385965
1647	0	0.385965
1648	0	0.385965
1649	0	0.385965
1650	0	0.385965
1651	0	0.385965
1652	0	0.385965
1653	0	0.385965
1654	0	0.385965
1655	0	0.385965
1656	0	0.385965
1657	0	0.385965
1658	0	0.385965
1659	0	0.385965
1660	0	0.385965
1661	0	0.385965
1662	0	0.385965
1663	0	0.385965
1664	0	0.321637
1665	0	0.321637
1666	0	0.327485
1667	0	0.327485
1668	0	0.327485
1669	0	0.233918
1670	0	0.233918
1671	0	0.327485
1672	0	0.327485
1673	0	0.327485
1674	0	0.327485
1675	0	0.366013
1676	0	0.366013
1677	0	0.366013
1678	0	0.366013
1679	0	0.366013
1680	0	0.366013
1681	0	0.366013
1682	0	0.366013
1683	0	0.366013
1684	0	0.366013
1685	0	0.366013
1686	0	0.411765
1687	0	0.411765
1688	0	0.411765
1689	0	0.411765
1690	0	0.411765
1691	0	0.466667
1692	0	0.466667
1693	0	0.466667
1694	0	0.466667
1695	0	0.466667
1696	0	0.466667
1697	0	0.466667
1698	0	0.466667
1699	0	0.466667
1700	0	0.466667
1701	0	0.466667
1702	0	0.466667
1703	0	0.466667
1704	0	0.466667
1705	0	0.466667
1706	0	0.466667
1707	0	0.466667
1708	0	0.466667
1709	0	0.466667
1710	0	0.466667
1711	0	0.466667
1712	0	0.466667
1713	0	0.466667
1714	0	0.466667
1715	0	0.466667
1716	0	0.466667
1717	0	0.466667
1718	0	0.466667
1719	0	0.466667
1720	0	0.466667
1721	0	0.466667
1722	0	0.466667
1723	0	0.466667
1724	0	0.0952381
1725	0	0.0952381
1726	0	0.133333
1727	0	0.133333
1728	0	0.133333
1729	0	0.133333
1730	0	0.133333
1731	0	0.1
1732	0	0.1
1733	0	0.1
1734	0	0.1
1735	0	0.1
1736	0	0.1
1737	0	0.1
1738	0	0.1
1739	0	0.1
1740	0	0.1
1741	0	0.1
1742	0	0.1
1743	0	0.1
1744	0	0.1
1745	0	0.166667
1746	0	0.166667
1747	0	0.166667
1748	0	0.166667
1749	0	0.166667
1750	0	0.166667
1751	0	0.166667
1752	0	0.166667
1753	0	0.166667
1754	0	0.166667
1755	0	0.166667
1756	0	0.166667
1757	0	0.166667
1758	0	0.166667
1759	0	0.166667
1760	0	0.166667
1761	0	0.166667
1762	0	0.166667
1763	0	0.166667
1764	0	0.166667
1765	0	0.166667
1766	0	0.166667
1767	0	0.1
1768	0	0.1
1769	0	0.1
1770	0	0.1
1771	0	0.1
1772	0	0.1
1773	0	0.1
1774	0	0.1
1775	0	0.1
1776	0	0.1
1777	0	0.1
1778	0	0.1
1779	0	0.1
1780	0	0.1
1781	0	0.1
1782	0	0.1
1783	0	0.1
1784	0	0.1
1785	0	0.1
1786	0	0.1
1787	0	0.1
1788	0	0.1
1789	0	0.1
1790	0	0.1
1791	0	0.1
1792	0	0.1
1793	0	0.1
1794	0	0.1
1795	0	0.1
1796	0	0.1
1797	0	0.1
1798	0	0.1
1799	0	0.1
1800	0	0.1
1801	0	0.1
1802	0	0.1
1803	0	0.1
1804	0	0.1
1805	0	0.1
1806	0	0.1
1807	0	0.1
1808	0	0.1
1809	0	0.1
1810	0	0.1
1811	0	0.1
1812	0	0.1
1813	0	0.1
1814	0	0.1
1815	0	0.1
1816	0	0.1
1817	0	0.1
1818	0	0.1
1819	0	0.1
1820	0	0.1
1821	0	0.1
1822	0	0.1
1823	0	0.1
1824	0	0.1
1825	0	0.1
1826	0	0.1
1827	0	0.1
1828	0	0.166667
1829	0	0.166667
1830	0	0.166667
1831	0	0.166667
1832	0	0.166667
1833	0	0.166667
1834	0	0.166667
1835	0	0.166667
1836	0	0.166667
1837	0	0.166667
1838	0	0
1839	0	0
1840	0	0
1841	0	0
1842	0	0
1843	0	0
1844	0	0
1845	0	0
1846	0	0
1847	0	0
1848	0	0
1849	0	0
1850	0	0
1851	0	0
1852	0	0
1853	0	0
1854	0	0
1855	0	0
1856	0	0
1857	0	0
1858	0	0
1859	0	0
1860	0	0
1861	0	0
1862	0	0
1863	0	0
1864	0	0
1865	0	0
1866	0	0
1867	0	0
1868	0	0
1869	0	0.880062
1870	0	0
1871	0	0
1872	0	0
1873	0	0
1874	0	0
1875	0	0
1876	0	0
1877	0	0
1878	0	0
1879	0	0
1880	0	0
1881	0	0
1882	0	0
1883	0	0
1884	0	0
1885	0	0
1886	0	0
1887	0	0
1888	0	0
1889	0	0
1890	0	0
1891	0	0
1892	0	0
1893	0	0
1894	0	0
1895	0	0
1896	0	0
1897	0	0
1898	0	0
1899	0	0
1900	0	0
1901	0	0
1902	0	0
1903	0	0
1904	0	0
1905	0	0
1906	0	0
1907	0	0
1908	0	0
1909	0	0
1910	0	0
1911	0	0
1912	0	0
1913	0	0
1914	0	0
1915	0	0
1916	0	0
1917	0	0
1918	0	0
1919	0	0
1920	0	0
1921	0	0
1922	0	0
1923	0	0
1924	0	0
1925	0	0
1926	0	0
1927	0	0
1928	0	0
1929	0	0
1930	0	0
1931	0	0
1932	0	0
1933	0	0
1934	0	0
1935	0	0
1936	0	0
1937	0	0
1938	0	0
1939	0	0
1940	0	0
1941	0	0
1942	0	0
1943	0	0
1944	0	0
1945	0	0
1946	0	0
1947	0	0
1948	0	0
1949	0	0
1950	0	0
1951	0	0
1952	0	0
1953	0	0
1954	0	0
1955	0	0
1956	0	0
1957	0	0
1958	0	0
1959	0	0
1960	0	0
1961	0	0
1962	0	0
1963	0	0
1964	0	0
1965	0	0
1966	0	0
1967	0	0
1968	0	0
1969	0	0
1970	0	0
1971	0	0
1972	0	0
1973	0	0
1974	0	0
1975	0	0
1976	0	0
1977	0	0
1978	0	0
1979	0	0
1980	0	0
1981	0	0
1982	0	0
1983	0	0
1984	0	0
1985	0	0
1986	0	0
1987	0	0
1988	0	0
1989	0	0
1990	0	0
1991	0	0
1992	0	0
1993	0	0
1994	0	0
1995	0	0
1996	0	0
1997	0	0
1998	0	0
1999	0	0
2000	0	0
2001	0	0
2002	0	0
2003	0	0
2004	0	0
2005	0	0
2006	0	0
2007	0	0
2008	0	0
2009	0	0
2010	0	0
2011	0	0
2012	0	0
2013	0	0
2014	0	0
2015	0	0
2016	0	0
2017	0	0
2018	0	0
2019	0	0
2020	0	0
2021	0	0
2022	0	0
2023	0	0
2024	0	0
2025	0	0
2026	0	0
2027	0	0
2028	0	0
2029	0	0
2030	0	0
2031	0	0
2032	0	0
2033	0	0
2034	0	0
2035	0	0
2036	0	0
2037	0	0
2038	0	0
2039	0	0
2040	0	0
2041	0	0
2042	0	0
2043	0	0
2044	0	0
2045	0	0
2046	0	0
2047	0	0
2048	0	0
2049	0	0
2050	0	0
2051	0	0
2052	0	0
2053	0	0
2054	0	0
2055	0	0
2056	0	0
2057	0	0
2058	0	0
2059	0	0
2060	0	0
2061	0	0
2062	0	0
2063	0	0
2064	0	0
2065	0	0
2066	0	0
2067	0	0
2068	0	0
2069	0	0
2070	0	0
2071	0	0
2072	0	0
2073	0	0
2074	0	0
2075	0	0
2076	0	0
2077	0	0
2078	0	0
2079	0	0
2080	0	0
2081	0	0
2082	0	0
2083	0	0
2084	0	0
2085	0	0
2086	0	0
2087	0	0
2088	0	0
2089	0	0
2090	0	0
2091	0	0
2092	0	0
2093	0	0
2094	0	0
2095	0	0
2096	0	0
2097	0	0
2098	0	0
2099	0	0
2100	0	0
2101	0	0
2102	0	0
2103	0	0
2104	0	0
2105	0	0
2106	0	0
2107	0	0
2108	0	0
2109	0	0
2110	0	0
2111	0	0
2112	0	0
2113	0	0
2114	0	0
2115	0	0
2116	0	0
2117	0	0
2118	0	0
2119	0	0
2120	0	0
2121	0	0
2122	0	0
2123	0	0
2124	0	0
2125	0	0
2126	0	0
2127	0	0
2128	0	0
2129	0	0
2130	0	0
2131	0	0.893242
2132	0	0.893156
2133	0	0.127273
2134	0	0.127273
2135	0	0.127273
2136	0	0.127273
2137	0	0.127273
2138	0	0.127273
2139	0	0.127273
2140	0	0.0888889
2141	0	0.0888889
2142	0	0.111111
2143	0	0.111111
2144	0	0.111111
2145	0	0.111111
2146	0	0.111111
2147	0	0.111111
2148	0	0.111111
2149	0	0.111111
2150	0	0.111111
2151	0	0.111111
2152	0	0.111111
2153	0	0.111111
2154	0	0.111111
2155	0	0.111111
2156	0	0.111111
2157	0	0.111111
2158	0	0.111111
2159	0	0.111111
2160	0	0.111111
2161	0	0.111111
2162	0	0.111111
2163	0	0.111111
2164	0	0.111111
2165	0	0.111111
2166	0	0.111111
2167	0	0.111111
2168	0	0.111111
2169	0	0.0555556
2170	0	0.0277778
2171	0	0.0277778
2172	0	0.0277778
2173	0	0.0277778
2174	0	0.0277778
2175	0	0.0277778
2176	0	0.0277778
2177	0	0.0277778
2178	0	0.0277778
2179	0	0.0277778
2180	0	0.0277778
2181	0	0.0277778
2182	0	0.0277778
2183	0	0.0357143
2184	0	0.0357143
2185	0	0.0357143
2186	0	0.0357143
2187	0	0.0357143
2188	0	0.0357143
2189	0	0.0357143
2190	0	0.0357143
2191	0	0.0357143
2192	0	0.0357143
2193	0	0.0357143
2194	0	0.0357143
2195	0	0.0357143
2196	0	0.047619
2197	0	0.047619
2198	0	0.047619
2199	0	0.047619
2200	0	0.047619
2201	0	0.047619
2202	0	0.047619
2203	0	0.047619
2204	0	0.047619
2205	0	0.047619
2206	0	0.047619
2207	0	0.047619
2208	0	0.0384615
2209	0	0.0384615
2210	0	0.0384615
2211	0	0.0545455
2212	0	0.0545455
2213	0	0.0666667
2214	0	0.0769231
2215	0	0.0757576
2216	0	0.0757576
2217	0	0.0727273
2218	0	0.0727273
2219	0	0.0727273
2220	0	0.0727273
2221	0	0.0727273
2222	0	0.0727273
2223	0	0.0727273
2224	0	0.0888889
2225	0	0.111111
2226	0	0.142857
2227	0	0.142857
2228	0	0.142857
2229	0	0.142857
2230	0	0.142857
2231	0	0.142857
2232	0	0.142857
2233	0	0.142857
2234	0	0.142857
2235	0	0.142857
2236	0	0.142857
2237	0	0.142857
2238	0	0.142857
2239	0	0.142857
2240	0	0.142857
2241	0	0.142857
2242	0	0.142857
2243	0	0.142857
2244	0	0.142857
2245	0	0.142857
2246	0	0.142857
2247	0	0.142857
2248	0	0.142857
2249	0	0.142857
2250	0	0.142857
2251	0	0.142857
2252	0	0.142857
2253	0	0.142857
2254	0	0.142857
2255	0	0.142857
2256	0	0.142857
2257	0	0.142857
2258	0	0.142857
2259	0	0.142857
2260	0	0.142857
2261	0	0.142857
2262	0	0.142857
2263	0	0.142857
2264	0	0.142857
2265	0	0.142857
2266	0	0.142857
2267	0	0.142857
2268	0	0.142857
2269	0	0.142857
2270	0	0.142857
2271	0	0.142857
2272	0	0.142857
2273	0	0.142857
2274	0	0.142857
2275	0	0.142857
2276	0	0.142857
2277	0	0.142857
2278	0	0.142857
2279	0	0.142857
2280	0	0.142857
2281	0	0.142857
2282	0	0.142857
2283	0	0.142857
2284	0	0.107143
2285	0	0.107143
2286	0	0.107143
2287	0	0.107143
2288	0	0.107143
2289	0	0.142857
2290	0	0.142857
2291	0	0.142857
2292	0	0.142857
2293	0	0.142857
2294	0	0.142857
2295	0	0.142857
2296	0	0.142857
2297	0	0.142857
2298	0	0.142857
2299	0	0.142857
2300	0	0.2
2301	0	0.2
2302	0	0.2
2303	0	0.2
2304	0	0.2
2305	0	0.2
2306	0	0.2
2307	0	0.2
2308	0	0.2
2309	0	0.2
2310	0	0.2
2311	0	0.2
2312	0	0.2
2313	0	0.2
2314	0	0.2
2315	0	0.2
2316	0	0.2
2317	0	0.2
2318	0	0.2
2319	0	0.2
2320	0	0.2
2321	0	0.2
2322	0	0.2
2323	0	0.2
2324	0	0.2
2325	0	0.2
2326	0	0.3
2327	0	0.3
2328	0	0.3
2329	0	0.3
2330	0	0.3
2331	0	0.3
2332	0	0.881065
2333	0	0.0994152
2334	0	0.0994152
2335	0	0.124138
2336	0	0.124138
2337	0	0.133005
2338	0	0.133005
2339	0	0.889843
2340	0	0.0967742
2341	0	0.103226
2342	0	0.103226
2343	0	0.103226
2344	0	0.103226
2345	0	0.103226
2346	0	0.103226
2347	0	0.103226
2348	0	0.103226
2349	0	0.103226
2350	0	0.103226
2351	0	0.103226
2352	0	0.103226
2353	0	0.103226
2354	0	0.103226
2355	0	0.103226
2356	0	0.103226
2357	0	0.101149
2358	0	0.101149
2359	0	0.101149
2360	0	0.101149
2361	0	0.0850575
2362	0	0.0850575
2363	0	0.0850575
2364	0	0.0850575
2365	0	0.0850575
2366	0	0.0837438
2367	0	0.0837438
2368	0	0.0899471
2369	0	0.0899471
2370	0	0.0968661
2371	0	0.0892308
2372	0	0.0966667
2373	0	0.0966667
2374	0	0.0966667
2375	0	0.0966667
2376	0	0.105072
2377	0	0.105072
2378	0	0.105072
2379	0	0.121212
2380	0	0.121212
2381	0	0.121212
2382	0	0.121212
2383	0	0.0894737
2384	0	0.0994152
2385	0	0.0994152
2386	0	0.0994152
2387	0	0.111111
2388	0	0.111111
2389	0	0.0915033
2390	0	0.0915033
2391	0	0.0915033
2392	0	0.0915033
2393	0	0.0915033
2394	0	0.0915033
2395	0	0.0915033
2396	0	0.0915033
2397	0	0.0915033
2398	0	0.102941
2399	0	0.102941
2400	0	0.102941
2401	0	0.102941
2402	0	0.102941
2403	0	0.108333
2404	0	0.108333
2405	0	0.108333
2406	0	0.108333
2407	0	0.108333
2408	0	0.108333
2409	0	0.108333
2410	0	0.12381
2411	0	0.12381
2412	0	0.12381
2413	0	0.12381
2414	0	0.142857
2415	0	0.142857
2416	0	0.142857
2417	0	0.142857
2418	0	0.142857
2419	0	0.142857
2420	0	0.142857
2421	0	0.142857
2422	0	0.142857
2423	0	0.166667
2424	0	0.166667
2425	0	0.166667
2426	0	0.166667
2427	0	0.166667
2428	0	0.166667
2429	0	0.166667
2430	0	0.166667
2431	0	0.166667
2432	0	0.166667
2433	0	0.166667
2434	0	0.166667
2435	0	0.166667
2436	0	0.166667
2437	0	0.166667
2438	0	0.166667
2439	0	0.166667
2440	0	0.166667
2441	0	0.166667
2442	0	0.166667
2443	0	0.166667
2444	0	0.19697
2445	0	0.19697
2446	0	0.19697
2447	0	0.19697
2448	0	0.19697
2449	0	0.19697
2450	0	0.236364
2451	0	0.236364
2452	0	0.236364
2453	0	0.236364
2454	0	0.236364
2455	0	0.236364
2456	0	0.288889
2457	0	0.288889
2458	0	0.288889
2459	0	0.288889
2460	0	0.288889
2461	0	0.288889
2462	0	0.288889
2463	0	0.288889
2464	0	0.25
2465	0	0.25
2466	0	0.25
2467	0	0.3
2468	0	0.3
2469	0	0.3
2470	0	0.190476
2471	0	0.190476
2472	0	0.190476
2473	0	0.190476
2474	0	0.190476
2475	0	0.190476
2476	0	0.190476
2477	0	0.190476
2478	0	0.190476
2479	0	0.190476
2480	0	0.190476
2481	0	0.190476
2482	0	0.190476
2483	0	0.190476
2484	0	0.190476
2485	0	0.190476
2486	0	0.166667
2487	0	0.166667
2488	0	0.166667
2489	0	0.166667
2490	0	0.166667
2491	0	0.166667
2492	0	0.166667
2493	0	0.166667
2494	0	0.166667
2495	0	0.166667
2496	0	0.166667
2497	0	0.166667
2498	0	0.166667
2499	0	0.166667
2500	0	0.166667
2501	0	0.166667
2502	0	0.166667
2503	0	0.166667
2504	0	0.166667
2505	0	0.166667
2506	0	0.166667
2507	0	0.166667
2508	0	0.166667
2509	0	0.166667
2510	0	0.166667
2511	0	0.166667
2512	0	0.166667
2513	0	0.166667
2514	0	0.166667
2515	0	0.166667
2516	0	0.166667
2517	0	0.166667
2518	0	0.166667
2519	0	0.166667
2520	0	0.166667
2521	0	0.166667
2522	0	0.166667
2523	0	0.166667
2524	0	0.166667
2525	0	0.166667
2526	0	0.166667
2527	0	0.166667
2528	0	0.166667
2529	0	0.166667
2530	0	0.166667
2531	0	0.166667
2532	0	0.166667
2533	0	0.166667
2534	0	0.166667
2535	0	0.166667
2536	0	0.166667
2537	0	0.166667
2538	0	0.166667
2539	0	0.166667
2540	0	0.166667
2541	0	0.166667
2542	0	0.166667
2543	0	0.166667
2544	0	0.166667
2545	0	0.166667
2546	0	0.166667
2547	0	0.166667
2548	0	0.166667
2549	0	0.166667
2550	0	0.166667
2551	0	0.166667
2552	0	0.166667
2553	0	0.166667
2554	0	0.166667
2555	0	0.166667
2556	0	0.166667
2557	0	0.166667
2558	0	0.166667
2559	0	0.166667
2560	0	0.166667
2561	0	0.166667
2562	0	0.166667
2563	0	0.166667
2564	0	0.166667
2565	0	0.166667
2566	0	0.166667
2567	0	0.166667
2568	0	0.166667
2569	0	0.166667
2570	0	0.166667
2571	0	0.166667
2572	0	0.166667
2573	0	0.166667
2574	0	0.166667
2575	0	0.166667
2576	0	0.166667
2577	0	0.166667
2578	0	0.166667
2579	0	0.166667
2580	0	0.166667
2581	0	0.166667
2582	0	0.166667
2583	0	0.166667
2584	0	0.166667
2585	0	0.166667
2586	0	0.166667
2587	0	0.166667
2588	0	0.166667
2589	0	0.166667
2590	0	0.166667
2591	0	0.166667
2592	0	0.166667
2593	0	0.166667
2594	0	0
2595	0	0
2596	0	0
2597	0	0
2598	0	0
2599	0	0
2600	0	0
2601	0	0
2602	0	0
2603	0	0
2604	0	0
2605	0	0
2606	0	0
2607	0	0
2608	0	0
2609	0	0
2610	1	0
2611	1	0
2612	1	0
2613	0	0
2614	0	0
2615	0	0
2616	0	0
2617	0	0
2618	0	0
2619	0	0
2620	0	0
2621	1	0
2622	0	0
2623	0	0
2624	0	0
2625	0	0
2626	0	0
2627	0	0
2628	0	0
2629	0	0
2630	0	0
2631	0	0
2632	0	0
2633	1	0
2634	1	0
2635	1	0
2636	1	0
2637	1	0
2638	1	0
2639	1	0
2640	1	0
2641	0	0
2642	0	0
2643	0	0
2644	0	0
2645	0	0
2646	0	0
2647	0	0
2648	0	0
2649	0	0
2650	0	0
2651	0	0
2652	0	0
2653	0	0
2654	0	0
2655	0	0
2656	0	0
2657	0	0
2658	0	0
2659	0	0
2660	0	0
2661	0	0
2662	0	0
2663	0	0
2664	0	0
2665	0	0
2666	0	0
2667	0	0
2668	0	0
2669	0	0
2670	0	0
2671	0	0
2672	0	0
2673	0	0
2674	0	0
2675	0	0
2676	0	0
2677	0	0
2678	0	0
2679	0	0
2680	0	0
2681	0	0
2682	0	0
2683	0	0
2684	0	0
2685	0	0
2686	0	0
2687	0	0
2688	0	0
2689	0	0
2690	0	0
2691	0	0
2692	0	0
2693	0	0
2694	0	0
2695	0	0
2696	0	0
2697	0	0.885359
2698	0	0
2699	0	0
2700	0	0
2701	0	0
2702	0	0
2703	0	0
2704	0	0
2705	0	0
2706	0	0
2707	0	0
2708	0	0
2709	0	0
2710	0	0
2711	0	0
2712	0	0
2713	0	0
2714	0	0
2715	0	0
2716	0	0
2717	0	0
2718	0	0
2719	0	0
2720	0	0
2721	0	0
2722	0	0
2723	0	0
2724	0	0
2725	0	0
2726	0	0
2727	0	0
2728	0	0
2729	0	0
2730	0	0
2731	0	0
2732	0	0
2733	0	0.047619
2734	0	0.047619
2735	0	0.047619
2736	0	0.0357143
2737	0	0.0357143
2738	0	0.0357143
2739	0	0.0357143
2740	0	0.0357143
2741	0	0.0357143
2742	0	0.0357143
2743	0	0.0357143
2744	0	0.0357143
2745	0	0.0357143
2746	0	0.0357143
2747	0	0.0357143
2748	0	0.0357143
2749	0	0.0357143
2750	0	0.0357143
2751	0	0.0357143
2752	0	0.0357143
2753	0	0.0357143
2754	0	0.0277778
2755	0	0.0222222
2756	0	0.0222222
2757	0	0.0222222
2758	0	0.0222222
2759	0	0.0181818
2760	0	0.0181818
2761	0	0.0363636
2762	0	0.030303
2763	0	0.025641
2764	0	0.025641
2765	0	0.025641
2766	0	0.025641
2767	0	0.894391
2768	0	0.900818
2769	0	0.163993
2770	0	0.163993
2771	0	0.153298
2772	0	0.149733
2773	0	0.159091
2774	0	0.157197
2775	0	0.157197
2776	0	0.179924
2777	0	0.179924
2778	0	0.179924
2779	0	0.179924
2780	0	0.191532
2781	0	0.243952
2782	0	0.229167
2783	0	0.257576
2784	0	0.287879
2785	0	0.287879
2786	0	0.287879
2787	0	0.287879
2788	0	0.306452
2789	0	0.320076
2790	0	0.320076
2791	0	0.320076
2792	0	0.320076
2793	0	0.320076
2794	0	0.320076
2795	0	0.320076
2796	0	0.320076
2797	0	0.320076
2798	0	0.320076
2799	0	0.377016
2800	0	0.402852
2801	0	0.402852
2802	0	0.402852
2803	0	0.402852
2804	0	0.402852
2805	0	0.886945
2806	0	0.0711462
2807	0	0.0711462
2808	0	0.0711462
2809	0	0.0711462
2810	0	0.0894737
2811	0	0.0894737
2812	0	0.0994152
2813	0	0.0994152
2814	0	0.0994152
2815	0	0.0994152
2816	0	0.0994152
2817	0	0.0994152
2818	0	0.0994152
2819	0	0.111111
2820	0	0.111111
2821	0	0.125
2822	0	0.125
2823	0	0.125
2824	0	0.125
2825	0	0.125
2826	0	0.125
2827	0	0.125
2828	0	0.125
2829	0	0.125
2830	0	0.0882353
2831	0	0.0882353
2832	0	0.0882353
2833	0	0.0882353
2834	0	0.0882353
2835	0	0.0882353
2836	0	0.0882353
2837	0	0.1
2838	0	0.0294118
2839	0	0.0220588
2840	0	0.0220588
2841	0	0.0220588
2842	0	0.0147059
2843	0	0.0147059
2844	0	0.0220588
2845	0	0.0220588
2846	0	0.0220588
2847	0	0.0220588
2848	0	0.0220588
2849	0	0.0220588
2850	0	0.0220588
2851	0	0.0166667
2852	0	0.0166667
2853	0	0.0166667
2854	0	0.0166667
2855	0	0.0166667
2856	0	0.0166667
2857	0	0.0166667
2858	0	0.0166667
2859	0	0.00833333
2860	0	0.00833333
2861	0	0.00833333
2862	0	0.0166667
2863	0	0.025
2864	0	0.0166667
2865	0	0.025
2866	0	0.025
2867	0	0.025
2868	0	0.025
2869	0	0.025
2870	0	0.025
2871	0	0.025
2872	0	0.025
2873	0	0.025
2874	0	0.025
2875	0	0.025
2876	0	0.021978
2877	0	0.021978
2878	0	0.021978
2879	0	0.025641
2880	0	0.025641
2881	0	0.025641
2882	0	0.025641
2883	0	0.025641
2884	0	0.025641
2885	0	0.025641
2886	0	0.025641
2887	0	0.025641
2888	0	0.0181818
2889	0	0.0181818
2890	0	0.0222222
2891	0	0.0277778
2892	0	0
2893	0	0
2894	0	0
2895	0	0
2896	0	0
2897	0	0
2898	0	0
2899	0	0
2900	0	0
2901	0	0
2902	0	0
2903	0	0
2904	0	0
2905	0	0
2906	0	0
2907	0	0
2908	0	0
2909	0	0
2910	0	0
2911	0	0
2912	0	0
2913	0	0
2914	0	0
2915	0	0
2916	0	0
2917	0	0
2918	0	0
2919	0	0
2920	0	0
2921	0	0
2922	0	0
2923	0	0
2924	0	0
2925	0	0
2926	0	0
2927	0	0
2928	0	0
2929	0	0
2930	0	0
2931	0	0
2932	0	0
2933	0	0
2934	0	0
2935	0	0
2936	0	0
2937	0	0
2938	0	0
2939	0	0
2940	0	0
2941	0	0
2942	0	0
2943	0	0
2944	0	0
2945	0	0
2946	0	0
2947	0	0
2948	0	0
2949	0	0
2950	0	0
2951	0	0
2952	0	0
2953	0	0
2954	0	0
2955	0	0
2956	0	0
2957	0	0
2958	0	0
2959	0	0
2960	0	0
2961	0	0
2962	0	0
2963	0	0
2964	0	0
2965	0	0
2966	0	0
2967	0	0
2968	0	0
2969	0	0
2970	0	0
2971	0	0
2972	0	0
2973	0	0
2974	0	0
2975	0	0
2976	0	0
2977	0	0
2978	0	0
2979	0	0
2980	0	0
2981	0	0
2982	0	0
2983	0	0
2984	0	0
2985	0	0
2986	0	0
2987	0	0
2988	0	0
2989	0	0
2990	0	0
2991	0	0
2992	0	0.895068
2993	0	0.649231
2994	0	0.649231
2995	0	0.703333
2996	0	0.76087
2997	0	0.623188
2998	0	0.5
2999	0	0.394928
3000	0	0.623188
3001	0	0.623188
3002	0	0.623188
3003	0	0.623188
3004	0	0.573333
3005	0	0.573333
3006	0	0.529231
3007	0	0.854782
3008	0	0.849999
3009	0	0.7063
3010	0	0.707021
3011	0	0.476565
3012	0	0.430067
3013	0	0.17891
3014	0	0.129996
3015	0	0.12695
3016	0	0.126586
3017	0	0.108254
3018	0	0.10482
3019	0	0.101255
3020	0	0.0984035
3021	0	0.103786
3022	0	0.104398
3023	0	0.104031
3024	0	0.103974
3025	0	0.0899441
3026	0	0.157004
3027	0	0.156143
3028	0	0.188181
3029	0	0.202105
3030	0	0.265926
3031	0	0.107116
3032	0	0.0992685
3033	0	0.0899101
3034	0	0.0745814
3035	0	0.0768849
3036	0	0.0841751
3037	0	0.0865306
3038	0	0.0364372
3039	0	0.0342742
3040	0	0.0298851
3041	0	0.0246154
3042	0	0.0266667
3043	0	0.027668
3044	0	0.027668
3045	0	0.0285714
3046	0	0.0285714
3047	0	0.0285714
3048	0	0.0292398
3049	0	0.0326797
3050	0	0.0326797
3051	0	0.0367647
3052	0	0.0367647
3053	0	0.0416667
3054	0	0.0416667
3055	0	0.047619
3056	0	0.0571429
3057	0	0.047619
3058	0	0.047619
3059	0	0.047619
3060	0	0.047619
3061	0	0.047619
3062	0	0.047619
3063	0	0.047619
3064	0	0.0190476
3065	0	0.0190476
3066	0	0.0190476
3067	0	0.0190476
3068	0	0.0190476
3069	0	0.0190476
3070	0	0.0190476
3071	0	0.0190476
3072	0	0.0190476
3073	0	0.0190476
3074	0	0.0190476
3075	0	0.00952381
3076	0	0.00952381
3077	0	0.00952381
3078	0	0.00952381
3079	0	0.00952381
3080	0	0.00952381
3081	0	0.00952381
3082	0	0.010989
3083	0	0.010989
3084	0	0.010989
3085	0	0.010989
3086	0	0.010989
3087	0	0.010989
3088	0	0.010989
3089	0	0.010989
3090	0	0.010989
3091	0	0.010989
3092	0	0.010989
3093	0	0.010989
3094	0	0.010989
3095	0	0.010989
3096	0	0.010989
3097	0	0.010989
3098	0	0.0128205
3099	0	0.0128205
3100	0	0.0128205
3101	0	0.0128205
3102	0	0.0128205
3103	0	0.0128205
3104	0	0.0128205
3105	0	0.0128205
3106	0	0.0128205
3107	0	0.0128205
3108	0	0.0128205
3109	0	0.0128205
3110	0	0.0128205
3111	0	0.0128205
3112	0	0.0128205
3113	0	0.0128205
3114	0	0.0128205
3115	0	0.0128205
3116	0	0.0128205
3117	0	0.0128205
3118	0	0.0128205
3119	0	0.025641
3120	0	0.025641
3121	0	0.025641
3122	0	0.025641
3123	0	0.025641
3124	0	0.025641
3125	0	0.030303
3126	0	0.030303
3127	0	0.030303
3128	0	0.0151515
3129	0	0.0151515
3130	0	0.0151515
3131	0	0.0151515
3132	0	0.0151515
3133	0	0.0151515
3134	0	0.0151515
3135	0	0.0151515
3136	0	0.0151515
3137	0	0.0151515
3138	0	0.0151515
3139	0	0.0151515
3140	0	0.0151515
3141	0	0.0151515
3142	0	0.0151515
3143	0	0.0151515
3144	0	0.0151515
3145	0	0.0151515
3146	0	0.0151515
3147	0	0.0151515
3148	0	0.0151515
3149	0	0.0151515
3150	0	0.0151515
3151	0	0.0151515
3152	0	0.0151515
3153	0	0.0151515
3154	0	0.0151515
3155	0	0.0151515
3156	0	0.0151515
3157	0	0.0151515
3158	0	0.0181818
3159	0	0.0181818
3160	0	0.0181818
3161	0	0.0181818
3162	0	0.0181818
3163	0	0.0181818
3164	0	0.0181818
3165	0	0.0181818
3166	0	0.0181818
3167	0	0.0181818
3168	0	0.0181818
3169	0	0.0181818
3170	0	0.0181818
3171	0	0.0181818
3172	0	0.0181818
3173	0	0.0181818
3174	0	0.0181818
3175	0	0.0181818
3176	0	0.0181818
3177	0	0.0181818
3178	0	0.0181818
3179	0	0.0181818
3180	0	0.0181818
3181	0	0.0181818
3182	0	0.0181818
3183	0	0.0181818
3184	0	0.0181818
3185	0	0.0181818
3186	0	0.0181818
3187	0	0.0181818
3188	0	0.0181818
3189	0	0.0181818
3190	0	0.0181818
3191	0	0.0181818
3192	0	0.0181818
3193	0	0.0181818
3194	0	0.0181818
3195	0	0.0181818
3196	0	0.0181818
3197	0	0.0181818
3198	0	0.0363636
3199	0	0.0363636
3200	0	0.0363636
3201	0	0.0363636
3202	0	0.0363636
3203	0	0.0181818
3204	0	0.0181818
3205	0	0.0181818
3206	0	0.0181818
3207	0	0.0181818
3208	0	0.0181818
3209	0	0.0181818
3210	0	0.0181818
3211	0	0.0181818
3212	0	0.0181818
3213	0	0.0181818
3214	0	0.0181818
3215	0	0.0181818
3216	0	0.0181818
3217	0	0.0181818
3218	0	0.0181818
3219	0	0.0181818
3220	0	0.0181818
3221	0	0.0181818
3222	0	0.0181818
3223	0	0.0181818
3224	0	0.0181818
3225	0	0.0181818
3226	0	0.0181818
3227	0	0.0181818
3228	0	0.0181818
3229	0	0.0181818
3230	0	0.0181818
3231	0	0.0181818
3232	0	0.0181818
3233	0	0.0181818
3234	0	0.0181818
3235	0	0.0181818
3236	0	0.0181818
3237	0	0.0181818
3238	0	0.0181818
3239	0	0.0181818
3240	0	0.0181818
3241	0	0.0181818
3242	0	0.0181818
3243	0	0.0181818
3244	0	0.0545455
3245	0	0.0545455
3246	0	0.0545455
3247	0	0.0545455
3248	0	0.0545455
3249	0	0.0545455
3250	0	0.0545455
3251	0	0.0545455
3252	0	0.0181818
3253	0	0.0181818
3254	0	0.0181818
3255	0	0.0181818
3256	0	0.0181818
3257	0	0.0181818
3258	0	0.0181818
3259	0	0.0181818
3260	0	0.0181818
3261	0	0.0181818
3262	0	0.0181818
3263	0	0.0181818
3264	0	0.0181818
3265	0	0.0181818
3266	0	0.0181818
3267	0	0.0181818
3268	0	0.0181818
3269	0	0.0181818
3270	0	0.0181818
3271	0	0.0277778
3272	0	0.0277778
3273	0	0.0277778
3274	0	0.0277778
3275	0	0.0277778
3276	0	0.0277778
3277	0	0.0277778
3278	0	0.0277778
3279	0	0.0277778
3280	0	0.0277778
3281	0	0.0277778
3282	0	0.0277778
3283	0	0.0277778
3284	0	0.0277778
3285	0	0.0277778
3286	0	0.0277778
3287	0	0.0277778
3288	0	0.0277778
3289	0	0.0277778
3290	0	0.0277778
3291	0	0.0277778
3292	0	0.0277778
3293	0	0.0277778
3294	0	0.0277778
3295	0	0.0277778
3296	0	0.0277778
3297	0	0.0277778
3298	0	0.0277778
3299	0	0.0277778
3300	0	0.0277778
3301	0	0.0277778
3302	0	0.0277778
3303	0	0.0277778
3304	0	0.0277778
3305	0	0.0277778
3306	0	0.0277778
3307	0	0.0277778
3308	0	0.0277778
3309	0	0.0277778
3310	0	0.0277778
3311	0	0
3312	0	0
3313	0	0
3314	0	0
3315	0	0
3316	0	0
3317	0	0
3318	0	0
3319	0	0
3320	0	0
3321	0	0
3322	0	0
3323	0	0
3324	0	0
3325	0	0
3326	0	0
3327	0	0
3328	0	0
3329	0	0
3330	0	0
3331	0	0
3332	0	0
3333	0	0
3334	0	0
3335	0	0
3336	0	0
3337	0	0
3338	0	0
3339	0	0
3340	0	0
3341	0	0
3342	0	0
3343	0	0
3344	0	0
3345	0	0
3346	0	0
3347	0	0
3348	0	0
3349	0	0
3350	0	0
3351	0	0
3352	0	0
3353	0	0
3354	0	0
3355	0	0
3356	0	0
3357	0	0
3358	0	0
3359	0	0
3360	0	0
3361	0	0
3362	0	0
3363	0	0
3364	0	0
3365	0	0
3366	0	0
3367	0	0
3368	0	0
3369	0	0
3370	0	0
3371	0	0
3372	0	0
3373	0	0
3374	0	0
3375	0	0
3376	0	0
3377	0	0
3378	0	0
3379	0	0
3380	0	0
3381	0	0
3382	0	0
3383	0	0
3384	0	0
3385	0	0
3386	0	0
3387	0	0
3388	0	0
3389	0	0
3390	0	0
3391	0	0
3392	0	0
3393	0	0
3394	0	0
3395	0	0
3396	0	0
3397	0	0
3398	0	0
3399	0	0
3400	0	0
3401	0	0
3402	0	0
3403	0	0
3404	0	0
3405	0	0
3406	0	0
3407	0	0
3408	0	0
3409	0	0
3410	0	0
3411	0	0
3412	0	0
3413	0	0
3414	0	0
3415	0	0
3416	0	0
3417	0	0
3418	0	0
3419	0	0
3420	0	0
3421	0	0
3422	0	0
3423	0	0
3424	0	0
3425	0	0
3426	0	0
3427	0	0
3428	0	0
3429	0	0
3430	0	0
3431	0	0
3432	0	0
3433	0	0
3434	0	0
3435	0	0
3436	0	0
3437	0	0
3438	0	0
3439	0	0
3440	0	0
3441	0	0
3442	0	0
3443	0	0
3444	0	0
3445	0	0
3446	0	0
3447	0	0
3448	0	0
3449	0	0
3450	0	0
3451	0	0
3452	0	0
3453	0	0
3454	0	0
3455	0	0
3456	0	0
3457	0	0
3458	0	0
3459	0	0
3460	0	0
3461	0	0
3462	0	0
3463	0	0
3464	0	0
3465	0	0
3466	0	0
3467	0	0
3468	0	0
3469	0	0
3470	0	0
3471	0	0
3472	0	0
3473	0	0
3474	0	0
3475	0	0
3476	0	0
3477	0	0
3478	0	0
3479	0	0
3480	0	0
3481	0	0
3482	0	0
3483	0	0
3484	0	0
3485	0	0
3486	0	0
3487	0	0
3488	0	0
3489	0	0
3490	0	0
3491	0	0
3492	0	0
3493	0	0
3494	0	0
3495	0	0
3496	0	0
3497	0	0
3498	0	0
3499	0	0
3500	0	0
3501	0	0
3502	0	0
3503	0	0
3504	0	0
3505	0	0
3506	0	0
3507	0	0
3508	0	0
3509	0	0
3510	0	0
3511	0	0
3512	0	0
3513	0	0
3514	0	0
3515	0	0
3516	0	0
3517	0	0
3518	0	0
3519	0	0
3520	0	0
3521	0	0
3522	0	0
3523	0	0
3524	0	0
3525	0	0
3526	0	0
3527	0	0
3528	0	0
3529	0	0
3530	0	0
3531	0	0
3532	0	0
3533	0	0
3534	0	0
3535	0	0
3536	0	0
3537	0	0
3538	0	0
3539	0	0
3540	0	0
3541	0	0
3542	0	0
3543	0	0
3544	0	0
3545	0	0
3546	0	0
3547	0	0
3548	0	0
3549	0	0
3550	0	0
3551	0	0
3552	0	0
3553	0	0
3554	0	0
3555	0	0
3556	0	0
3557	0	0
3558	0	0
3559	0	0
3560	0	0
3561	0	0
3562	0	0
3563	0	0
3564	0	0
3565	0	0
3566	0	0
3567	0	0
3568	0	0
3569	0	0
3570	0	0
3571	0	0
3572	0	0
3573	0	0
3574	0	0
3575	0	0
3576	0	0
3577	0	0
3578	0	0
3579	0	0
3580	0	0
3581	0	0
3582	0	0
3583	0	0
3584	0	0
3585	0	0
3586	0	0
3587	0	0
3588	0	0
3589	0	0
3590	0	0
3591	0	0
3592	0	0
3593	0	0
3594	0	0
3595	0	0
3596	0	0
3597	0	0
3598	0	0
3599	0	0
3600	0	0
3601	0	0
3602	0	0
3603	0	0
3604	0	0
3605	0	0
3606	0	0
3607	0	0
3608	0	0
3609	0	0
3610	0	0
3611	0	0
3612	0	0
3613	0	0
3614	0	0
3615	0	0
3616	0	0
3617	0	0
3618	0	0
3619	0	0
3620	0	0
3621	0	0
3622	0	0
3623	0	0
3624	0	0
3625	0	0
3626	0	0
3627	0	0
3628	0	0
3629	0	0
3630	0	0
3631	0	0
3632	0	0
3633	0	0
3634	0	0
3635	0	0
3636	0	0
3637	0	0
3638	0	0
3639	0	0
3640	0	0
3641	0	0
3642	0	0
3643	0	0
3644	0	0
3645	0	0
3646	0	0
3647	0	0
3648	0	0
3649	0	0
3650	0	0
3651	0	0
3652	0	0
3653	0	0
3654	0	0
3655	0	0
3656	0	0
3657	0	0
3658	0	0
3659	0	0
3660	0	0
3661	0	0
3662	0	0
3663	0	0
3664	0	0
3665	0	0
3666	0	0
3667	0	0
3668	0	0
3669	0	0
3670	0	0
3671	0	0
3672	0	0
3673	0	0
3674	0	0
3675	0	0
3676	0	0
3677	0	0
3678	0	0
3679	0	0
3680	0	0
3681	0	0
3682	0	0
3683	0	0
3684	0	0
3685	0	0
3686	0	0
3687	0	0
3688	0	0
3689	0	0
3690	0	0
3691	0	0
3692	0	0
3693	0	0
3694	0	0
3695	0	0
3696	0	0
3697	0	0
3698	0	0
3699	0	0
3700	0	0
3701	0	0
3702	0	0
3703	0	0
3704	0	0
3705	0	0
3706	0	0
3707	0	0
3708	0	0
3709	0	0
3710	0	0
3711	0	0
3712	0	0
3713	0	0
3714	0	0
3715	0	0
3716	0	0
3717	0	0
3718	0	0
3719	0	0
3720	0	0
3721	0	0
3722	0	0
3723	0	0
3724	0	0
3725	0	0
3726	0	0
3727	0	0
3728	0	0
3729	0	0
3730	0	0
3731	0	0
3732	0	0
3733	0	0
3734	0	0
3735	0	0
3736	0	0
3737	0	0
3738	0	0
3739	0	0
3740	0	0
3741	0	0
3742	0	0
3743	0	0
3744	0	0
3745	0	0
3746	0	0
3747	0	0
3748	0	0
3749	0	0
3750	0	0
3751	0	0
3752	0	0
3753	0	0
3754	0	0
3755	0	0
3756	0	0
3757	0	0
3758	0	0
3759	0	0
3760	0	0
3761	0	0
3762	0	0
3763	0	0
3764	0	0
3765	0	0
3766	0	0
3767	0	0
3768	0	0
3769	0	0
3770	0	0
3771	0	0
3772	0	0
3773	0	0
3774	0	0
3775	0	0
3776	0	0
3777	0	0
3778	0	0
3779	0	0
3780	0	0
3781	0	0
3782	0	0
3783	0	0
3784	0	0
3785	0	0
3786	0	0
3787	0	0
3788	0	0
3789	0	0
3790	0	0
3791	0	0
3792	0	0
3793	0	0
3794	0	0
3795	0	0
3796	0	0
3797	0	0
3798	0	0
3799	0	0
3800	0	0
3801	0	0
3802	0	0
3803	0	0
3804	0	0
3805	0	0
3806	0	0
3807	0	0
3808	0	0
3809	0	0
3810	0	0
3811	0	0
3812	0	0
3813	0	0
3814	0	0
3815	0	0
3816	0	0
3817	0	0
3818	0	0
3819	0	0
3820	0	0
3821	0	0
3822	0	0
3823	0	0
3824	0	0
3825	0	0
3826	0	0
3827	0	0
3828	0	0
3829	0	0
3830	0	0
3831	0	0
3832	0	0
3833	0	0
3834	0	0
3835	0	0
3836	0	0
3837	0	0
3838	0	0
3839	0	0
3840	0	0
3841	0	0
3842	0	0
3843	1	0
3844	1	0
3845	1	0
3846	1	0
3847	1	0
3848	1	0
3849	1	0
3850	1	0
3851	1	0
3852	1	0
3853	1	0
3854	1	0
3855	1	0
3856	1	0
3857	1	0
3858	1	0
3859	1	0
3860	1	0
3861	1	0
3862	1	0
3863	1	0
3864	1	0
3865	1	0
3866	1	0
3867	1	0
3868	1	0
3869	1	0
3870	1	0
3871	1	0
3872	1	0
3873	1	0
3874	1	0
3875	1	0
3876	1	0
3877	1	0
3878	1	0
3879	1	0
3880	1	0
3881	1	0
3882	1	0
3883	1	0
3884	1	0
3885	1	0
3886	1	0
3887	1	0
3888	1	0
3889	1	0
3890	1	0
3891	1	0
3892	1	0
3893	1	0
3894	1	0
3895	1	0
3896	1	0
3897	1	0
3898	1	0
3899	1	0
3900	1	0
3901	1	0
3902	1	0
3903	1	0
3904	1	0
3905	1	0
3906	1	0
3907	1	0
3908	1	0
3909	1	0
3910	1	0
3911	1	0
3912	1	0
3913	1	0
3914	1	0
3915	1	0
3916	1	0
3917	1	0
3918	1	0
3919	1	0
3920	1	0
3921	1	0
3922	1	0
3923	1	0
3924	1	0
3925	1	0
3926	1	0
3927	1	0
3928	1	0
3929	1	0
3930	1	0
3931	1	0
3932	1	0
3933	1	0
3934	1	0
3935	1	0
3936	1	0
3937	1	0
3938	1	0
3939	1	0
3940	1	0
3941	1	0
3942	1	0
3943	1	0
3944	1	0
3945	1	0
3946	1	0
3947	1	0
3948	1	0
3949	1	0
3950	1	0
3951	1	0
3952	1	0
3953	1	0
3954	1	0
3955	1	0
3956	1	0
3957	1	0
3958	1	0
3959	1	0
3960	1	0
3961	1	0
3962	1	0
3963	1	0
3964	1	0
3965	1	0
3966	1	0
3967	1	0
3968	1	0
3969	1	0
3970	1	0
3971	1	0
3972	1	0
3973	1	0
3974	1	0
3975	1	0
3976	1	0
3977	1	0
3978	1	0
3979	1	0
3980	1	0
3981	1	0
3982	1	0
3983	1	0
3984	1	0
3985	1	0
3986	1	0
3987	1	0
3988	1	0
3989	1	0
3990	1	0
3991	1	0
3992	1	0
3993	1	0
3994	1	0
3995	1	0
3996	1	0
3997	1	0
3998	1	0
3999	1	0
4000	1	0
4001	1	0
4002	1	0
4003	1	0
4004	1	0
4005	1	0
4006	1	0
4007	1	0
4008	1	0
4009	1	0
4010	1	0
4011	1	0
4012	1	0
4013	1	0
4014	1	0
4015	1	0
4016	1	0
4017	1	0
4018	1	0
4019	1	0
4020	1	0
4021	1	0
4022	1	0
4023	1	0
4024	1	0
4025	1	0
4026	1	0
4027	1	0
4028	1	0
4029	1	0
4030	1	0
4031	1	0
4032	1	0
4033	1	0
4034	1	0
4035	1	0
4036	1	0
4037	1	0
4038	1	0
4039	1	0
4040	1	0
4041	1	0
4042	1	0
4043	1	0
4044	1	0
4045	1	0
4046	1	0
4047	1	0
4048	1	0
4049	1	0
4050	1	0
4051	1	0
4052	1	0
4053	1	0
4054	1	0
4055	1	0
4056	1	0
4057	1	0
4058	1	0
4059	1	0
4060	1	0
4061	1	0
4062	1	0
4063	1	0
4064	1	0
4065	1	0
4066	1	0
4067	1	0
4068	1	0
4069	1	0
4070	1	0
4071	1	0
4072	1	0
4073	1	0
4074	1	0
4075	1	0
4076	1	0
4077	1	0
4078	1	0
4079	1	0
4080	1	0
4081	1	0
4082	1	0
4083	1	0
4084	1	0
4085	1	0
4086	1	0
4087	1	0
4088	1	0
4089	1	0
4090	1	0
4091	1	0
4092	1	0
4093	1	0
4094	1	0
4095	1	0
4096	1	0
4097	1	0
4098	1	0
4099	1	0
4100	1	0
4101	1	0
4102	1	0
4103	1	0
4104	1	0
4105	1	0
4106	1	0
4107	1	0
4108	1	0
4109	1	0
4110	1	0
4111	1	0
4112	1	0
4113	1	0
4114	1	0
4115	1	0
4116	1	0
4117	1	0
4118	1	0
4119	1	0
4120	1	0
4121	1	0
4122	1	0
4123	1	0
4124	1	0
4125	1	0
4126	1	0
4127	1	0
4128	1	0
4129	1	0
4130	1	0
4131	1	0
4132	1	0
4133	1	0
4134	1	0
4135	1	0
4136	1	0
4137	1	0
4138	1	0
4139	1	0
4140	1	0
4141	1	0
4142	1	0
4143	1	0
4144	1	0
4145	1	0
4146	1	0
4147	1	0
4148	1	0
4149	1	0
4150	1	0
4151	1	0
4152	1	0
4153	1	0
4154	1	0
4155	1	0
4156	1	0
4157	1	0
4158	1	0
4159	1	0
4160	1	0
4161	1	0
4162	1	0
4163	1	0
4164	1	0
4165	1	0
4166	1	0
4167	1	0
4168	1	0
4169	1	0
4170	1	0
4171	1	0
4172	1	0
4173	1	0
4174	1	0
4175	1	0
4176	1	0
4177	1	0
4178	1	0
4179	1	0
4180	1	0
4181	1	0
4182	1	0
4183	1	0
4184	1	0
4185	1	0
4186	1	0
4187	1	0
4188	1	0
4189	1	0
4190	1	0
4191	1	0
4192	1	0
4193	1	0
4194	1	0
4195	1	0
4196	1	0
4197	1	0
4198	1	0
4199	1	0
4200	1	0
4201	1	0
4202	1	0
4203	1	0
4204	1	0
4205	1	0
4206	1	0
4207	1	0
4208	1	0
4209	1	0
4210	1	0
4211	1	0
4212	1	0
4213	1	0
4214	1	0
4215	1	0
4216	1	0
4217	1	0
4218	1	0
4219	1	0
4220	1	0
4221	1	0
4222	1	0
4223	1	0
4224	1	0
4225	1	0
4226	1	0
4227	1	0
4228	1	0
4229	1	0
4230	1	0
4231	1	0
4232	1	0
4233	1	0
4234	1	0
4235	1	0
4236	1	0
4237	1	0
4238	1	0
4239	1	0
4240	1	0
4241	1	0
4242	1	0
4243	1	0
4244	1	0
4245	1	0
4246	1	0
4247	1	0
4248	1	0
4249	1	0
4250	1	0
4251	1	0
4252	1	0
4253	1	0
4254	1	0
4255	1	0
4256	1	0
4257	1	0
4258	1	0
4259	1	0
4260	1	0
4261	1	0
4262	1	0
4263	1	0
4264	1	0
4265	1	0
4266	1	0
4267	1	0
4268	1	0
4269	1	0
4270	1	0
4271	1	0
4272	1	0
4273	1	0
4274	1	0
4275	1	0
4276	1	0
4277	1	0
4278	1	0
4279	1	0
4280	1	0
4281	1	0
4282	1	0
4283	1	0
4284	1	0
4285	1	0
4286	1	0
4287	1	0
4288	1	0
4289	1	0
4290	1	0
4291	1	0
4292	1	0
4293	1	0
4294	1	0
4295	1	0
4296	1	0
4297	1	0
4298	1	0
4299	1	0
4300	1	0
4301	1	0
4302	1	0
4303	1	0
4304	1	0
4305	1	0
4306	1	0
4307	1	0
4308	1	0
4309	1	0
4310	1	0
4311	1	0
4312	1	0
4313	1	0
4314	1	0
4315	1	0
4316	1	0
4317	1	0
4318	1	0
4319	1	0
4320	1	0
4321	1	0
4322	1	0
4323	1	0
4324	1	0
4325	1	0
4326	1	0
4327	1	0
4328	1	0
4329	1	0
4330	1	0
4331	1	0
4332	1	0
4333	1	0
4334	1	0
4335	1	0
4336	1	0
4337	1	0
4338	1	0
4339	1	0
4340	1	0
4341	1	0
4342	1	0
4343	1	0
4344	1	0
4345	1	0
4346	1	0
4347	1	0
4348	1	0
4349	1	0
4350	1	0
4351	1	0
4352	1	0
4353	1	0
4354	1	0
4355	1	0
4356	1	0
4357	1	0
4358	1	0
4359	1	0
4360	1	0
4361	1	0
4362	1	0
4363	1	0
4364	1	0
4365	1	0
4366	1	0
4367	1	0
4368	1	0
4369	1	0
4370	1	0
4371	1	0
4372	1	0
4373	1	0
4374	1	0
4375	1	0
4376	1	0
4377	1	0
4378	1	0
4379	1	0
4380	1	0
4381	1	0
4382	1	0
4383	1	0
4384	1	0
4385	1	0
4386	1	0
4387	1	0
4388	1	0
4389	1	0
4390	1	0
4391	1	0
4392	1	0
4393	1	0
4394	1	0
4395	1	0
4396	1	0
4397	1	0
4398	1	0
4399	1	0
4400	1	0
4401	1	0
4402	1	0
4403	1	0
4404	1	0
4405	1	0
4406	1	0
4407	1	0
4408	1	0
4409	1	0
4410	1	0
4411	1	0
4412	1	0
4413	1	0
4414	1	0
4415	1	0
4416	1	0
4417	1	0
4418	1	0
4419	1	0
4420	1	0
4421	1	0
4422	1	0
4423	1	0
4424	1	0
4425	1	0
4426	1	0
4427	1	0
4428	1	0
4429	1	0
4430	1	0
4431	1	0
4432	1	0
4433	1	0
4434	1	0
4435	1	0
4436	1	0
4437	1	0
4438	1	0
4439	1	0
4440	1	0
4441	1	0
4442	1	0
4443	1	0
4444	1	0
4445	1	0
4446	1	0
4447	1	0
4448	1	0
4449	1	0
4450	1	0
4451	1	0
4452	1	0
4453	1	0
4454	1	0
4455	1	0
4456	1	0
4457	1	0
4458	1	0
4459	1	0
4460	1	0
4461	1	0
4462	1	0
4463	1	0
4464	1	0
4465	1	0
4466	1	0
4467	1	0
4468	1	0
4469	1	0
4470	1	0
4471	1	0
4472	1	0
4473	1	0
4474	1	0
4475	1	0
4476	1	0
4477	1	0
4478	1	0
4479	1	0
4480	1	0
4481	1	0
4482	1	0
4483	1	0
