Site	ColumnScore	SumOfPairsScore
1	0	0
2	0	0
3	0	0
4	0	0
5	0	0.622222
6	0	0.83004
7	0	0.83004
8	0	0.83004
9	0	0.83004
10	0	0.83004
11	0	0.913043
12	0	0.913043
13	0	0.913043
14	0	0.913043
15	0	0.913043
16	0	0.913043
17	0	0.913043
18	0	0.913043
19	0	0.754941
20	0	0.754941
21	0	0.904762
22	0	0.904762
23	0	0.814286
24	0	0.814286
25	0	0.814286
26	0	0.814286
27	0	0.814286
28	0	0.414286
29	0	0.409357
30	0	0.2
31	0	0.2
32	0	0.333333
33	0	0.608696
34	0	0.83004
35	0	0.909091
36	0	0.909091
37	0	0.909091
38	0	0.909091
39	0	0.913043
40	0	0.913043
41	0	0.913043
42	0	0.913043
43	0	0.913043
44	0	0.913043
45	0	0.913043
46	0	0.913043
47	0	0.913043
48	0	0.913043
49	0	0.913043
50	0	0.913043
51	0	0.913043
52	0	0.913043
53	0	0.913043
54	0	0.913043
55	0	0.913043
56	0	0.913043
57	0	0.913043
58	0	0.913043
59	0	0.913043
60	0	0.836957
61	0	0.836957
62	0	0.836957
63	0	0
64	0	0
65	0	0.76087
66	0	0.76087
67	0	0.750988
68	0	0.750988
69	0	0.750988
70	0	0.750988
71	0	0.513834
72	0	0.434783
73	0	0.434783
74	0	0.434783
75	0	0.434783
76	0	0.34058
77	0	0.371542
78	0	0.409357
79	0	0.409357
80	0	0.409357
81	0	0.409357
82	0	0.245614
83	0	0.25
84	0	0.220588
85	0	0.280702
86	0	0.361905
87	0	0.742857
88	0	0.725275
89	0	0.725275
90	0	0.705128
91	0	0.705128
92	0	0.654545
93	0	0.545455
94	0	0.406593
95	0	0.725275
96	0	0.725275
97	0	0.268116
98	0	0.141304
99	0	0.141304
100	0	0.141304
101	0	0.148551
102	0	0.130435
103	0	0.113846
104	0	0.108696
105	0	0.101449
106	0	0.0892308
107	0	0.101538
108	0	0.107692
109	0	0.101538
110	0	0.194444
111	0	0.0909091
112	0	0.151515
113	0	0.166667
114	0	0.166667
115	0	0.333333
116	0	0.333333
117	0	0.333333
118	0	0.333333
119	0	0.333333
120	0	0.333333
121	0	0.333333
122	0	0.257576
123	0	0.257576
124	0	0.257576
125	0	0.257576
126	0	0.257576
127	0	0.392857
128	0	0.392857
129	0	0.392857
130	0	0.392857
131	0	0.392857
132	0	0.25
133	0	0.25
134	0	0.266667
135	0	0.2
136	0	0.0952381
137	0	0.190476
138	0	0.305556
139	0	0.217949
140	0	0.217949
141	0	0.282051
142	0	0.282051
143	0	0.285714
144	0	0.225108
145	0	0.225108
146	0	0.205534
147	0	0.205534
148	0	0.205534
149	0	0.205534
150	0	0.205534
151	0	0.308333
152	0	0.308333
153	0	0.308333
154	0	0.3
155	0	0.308333
156	0	0.308333
157	0	0.272059
158	0	0.266667
159	0	0.266667
160	0	0.266667
161	0	0.16
162	0	0.220779
163	0	0.18
164	0	0.18
165	0	0.26
166	0	0.278986
167	0	0.256667
168	0	0.257246
169	0	0.256667
170	0	0.256667
171	0	0.293333
172	0	0.293333
173	0	0.293333
174	0	0.296667
175	0	0.296667
176	0	0.296667
177	0	0.296667
178	0	0.296667
179	0	0.178947
180	0	0.173684
181	0	0.138528
182	0	0.121212
183	0	0.166667
184	0	0.166667
185	0	0.166667
186	0	0.1
187	0	0.0952381
188	0	0.0833333
189	0	0.194444
190	0	0.355556
191	0	0.195238
192	0	0.231579
193	0	0.228571
194	0	0.314286
195	0	0.324111
196	0	0.492647
197	0	0.492647
198	0	0.573333
199	0	0.573333
200	0	0.573333
201	0	0.619565
202	0	0.619565
203	0	0.57
204	0	0.573333
205	0	0.593074
206	0	0.593074
207	0	0.5
208	0	0.442029
209	0	0.442029
210	0	0.442029
211	0	0.496377
212	0	0.324111
213	0	0.189723
214	0	0.189723
215	0	0.151515
216	0	0.151515
217	0	0.181818
218	0	0.164835
219	0	0.2
220	0	0.2
221	0	0.416667
222	0	0.91784
223	0	0.91784
224	0	0.91784
225	0	0.285714
226	0	0.285714
227	0	0.285714
228	0	0.688804
229	0	0.478022
230	0	0.42685
231	0	0.398907
232	0	0.363388
233	0	0.330801
234	0	0.171809
235	0	0.113381
236	0	0.240391
237	0	0.165414
238	0	0.257928
239	0	0.44086
240	0	0.44086
241	0	0.44086
242	0	0.633333
243	0	0.54416
244	0	0.54416
245	0	0.18779
246	0	0.205293
247	0	0.23737
248	0	0.233642
249	0	0.329812
250	0	0.404506
251	0	0.0277778
252	0	0.12381
253	0	0.12
254	0	0.143333
255	0	0.143333
256	0	0.109091
257	0	0.154412
258	0	0.154412
259	0	0.154412
260	0	0.154412
261	0	0.154412
262	0	0.154412
263	0	0.154412
264	0	0.196078
265	0	0.185714
266	0	0.185714
267	0	0.156863
268	0	0.156863
269	0	0.128571
270	0	0.194737
271	0	0.294901
272	0	0.280386
273	0	0.287356
274	0	0.321055
275	0	0.264726
276	0	0.283564
277	0	0.267385
278	0	0.273737
279	0	0.278081
280	0	0.302945
281	0	0.393707
282	0	0.401207
283	0	0.863305
284	0	0.863305
285	0	0.824111
286	0	0.803796
287	0	0.312505
288	0	0.316512
289	0	0.537114
290	0	0.366397
291	0	0.312814
292	0	0.422572
293	0	0.592491
294	0	0.595328
295	0	0.595328
296	0	0.595328
297	0	0.595328
298	0	0.592308
299	0	0.595148
300	0	0.567475
301	0	0.42521
302	0	0.389916
303	0	0.389916
304	0	0.389916
305	0	0.312808
306	0	0.25977
307	0	0.433333
308	0	0.296552
309	0	0.403728
310	0	0.32772
311	0	0.271227
312	0	0.170526
313	0	0.148108
314	0	0.13642
315	0	0.151159
316	0	0.0939716
317	0	0.0975845
318	0	0.0952381
319	0	0.108108
320	0	0.0642899
321	0	0.0646067
322	0	0.0660941
323	0	0.0618962
324	0	0.0822691
325	0	0.125891
326	0	0.132627
327	0	0.1297
328	0	0.119332
329	0	0.18688
330	0	0.190188
331	0	0.0740349
332	0	0.0808743
333	0	0.0819672
334	0	0.080791
335	0	0.0746753
336	0	0.232587
337	0	0.236995
338	0	0.105263
339	0	0.0966102
340	0	0.191315
341	0	0.203496
342	0	0.211253
343	0	0.22549
344	0	0.225787
345	0	0.227315
346	0	0.195451
347	0	0.201398
348	0	0.192456
349	0	0.146872
350	0	0.189019
351	0	0.282227
352	0	0.281312
353	0	0.339518
354	0	0.333939
355	0	0.245976
356	0	0.25733
357	0	0.222409
358	0	0.18393
359	0	0.184423
360	0	0.175394
361	0	0.184267
362	0	0.136536
363	0	0.136536
364	0	0.20876
365	0	0.201678
366	0	0.0466346
367	0	0.0505952
368	0	0.0629371
369	0	0.0624709
370	0	0.105487
371	0	0.107895
372	0	0.0603949
373	0	0.0615563
374	0	0.171717
375	0	0.142294
376	0	0.143702
377	0	0.135938
378	0	0.226722
379	0	0.216365
380	0	0.0774009
381	0	0.0759463
382	0	0.201526
383	0	0.205079
384	0	0.223816
385	0	0.215966
386	0	0.115146
387	0	0.121569
388	0	0.108019
389	0	0.11355
390	0	0.102502
391	0	0.104446
392	0	0.113379
393	0	0.136862
394	0	0.0967656
395	0	0.0896359
396	0	0.0433566
397	0	0.0375107
398	0	0.0342052
399	0	0.0342052
400	0	0.0467585
401	0	0.0517617
402	0	0.0634295
403	0	0.0648087
404	0	0.0578177
405	0	0.036866
406	0	0.0403616
407	0	0.0615159
408	0	0.0478747
409	0	0.0493279
410	0	0.0633001
411	0	0.0507625
412	0	0.0532554
413	0	0.0464969
414	0	0.104023
415	0	0.0735438
416	0	0.098108
417	0	0.120409
418	0	0.0906593
419	0	0.0546218
420	0	0.0564964
421	0	0.106639
422	0	0.0803043
423	0	0.0725777
424	0	0.0821715
425	0	0.0698314
426	0	0.0643264
427	0	0.051889
428	0	0.052584
429	0	0.139897
430	0	0.135251
431	0	0.133597
432	0	0.121661
433	0	0.051439
434	0	0.0539828
435	0	0.0731462
436	0	0.0392157
437	0	0.05
438	0	0.0659341
439	0	0.0659341
440	0	0.0659341
441	0	0.0659341
442	0	0.0659341
443	0	0.0454545
444	0	0.248677
445	0	0.267806
446	0	0
447	0	0
448	0	0
449	0	0
450	0	0.259259
451	0	0.222222
452	0	0.222222
453	0	0
454	0	0
455	0	0
456	0	0.115152
457	0	0.212072
458	0	0.231933
459	0	0.178776
460	0	0.274802
461	0	0.182716
462	0	0.323214
463	0	0.0626781
464	0	0.11746
465	0	0.20713
466	0	0.244954
467	0	0.32699
468	0	0.132102
469	0	0.142922
470	0	0.398961
471	0	0.39937
472	0	0.207396
473	0	0.237498
474	0	0.27878
475	0	0.333839
476	0	0.0441176
477	0	0.532288
478	0	0.414416
479	0	0.557188
480	0	0.487061
481	0	0.477221
482	0	0.50307
483	0	0.50307
484	0	0.454157
485	0	0.305556
486	0	0.305556
487	0	0.305556
488	0	0.47619
489	0	0.836957
490	0	0.836957
491	0	0.836957
492	0	0.836957
493	0	0.836957
494	0	0.836957
495	0	0.836957
496	0	0.836957
497	0	0.836957
498	0	0.836957
499	0	0.836957
500	0	0.836957
501	0	0.836957
502	0	0.836957
503	0	0.836957
504	0	0.836957
505	0	0.836957
506	0	0.836957
507	0	0.836957
508	0	0.836957
509	0	0.836957
510	0	0.836957
511	0	0.836957
512	0	0.836957
513	0	0.836957
514	0	0.836957
515	0	0.836957
516	0	0.836957
517	0	0.836957
518	0	0.583333
519	0	0.583333
520	0	0.342857
521	0	0.342857
522	0	0.307692
523	0	0.3
524	0	0.2
525	0	0.188948
526	0	0.274051
527	0	0.299087
528	0	0.298592
529	0	0.349957
530	0	0.102823
531	0	0.0907563
532	0	0.203056
533	0	0.205113
534	0	0.21481
535	0	0.216867
536	0	0.209177
537	0	0.2
538	0	0.2
539	0	0.2
540	0	0.2
541	0	0.142857
542	0	0.142857
543	0	0.169591
544	0	0.130542
545	0	0.112644
546	0	0.0795699
547	0	0.0935961
548	0	0.116667
549	0	0.116667
550	0	0.126667
551	0	0.126667
552	0	0.126667
553	0	0.196667
554	0	0.310526
555	0	0.310526
556	0	0.280952
557	0	0.290476
558	0	0.307782
559	0	0.277778
560	0	0.205687
561	0	0.186674
562	0	0.166912
563	0	0.141726
564	0	0.132013
565	0	0.198653
566	0	0.204714
567	0	0.115421
568	0	0.130533
569	0	0.16781
570	0	0.183181
571	0	0.157844
572	0	0.309195
573	0	0.32463
574	0	0.309502
575	0	0.274367
576	0	0.262812
577	0	0.338653
578	0	0.0217949
579	0	0.022942
580	0	0.022942
581	0	0.0215924
582	0	0.0215924
583	0	0.0357488
584	0	0.0357488
585	0	0.0637483
586	0	0.0677507
587	0	0.292282
588	0	0.543509
589	0	0.0188819
590	0	0.0517799
591	0	0.0681042
592	0	0.323123
593	0	0.474321
594	0	0.472364
595	0	0.491609
596	0	0.0628205
597	0	0.0602564
598	0	0.0615385
599	0	0.0615385
600	0	0.0615385
601	0	0.0585366
602	0	0.0585366
603	0	0.0585366
604	0	0.503457
605	0	0.0343434
606	0	0.0343434
607	0	0.0318841
608	0	0.0222017
609	0	0.342233
610	0	0.279968
611	0	0.19132
612	0	0.169954
613	0	0.152076
614	0	0.174035
615	0	0.16696
616	0	0.13802
617	0	0.129872
618	0	0.115929
619	0	0.129626
620	0	0.103791
621	0	0.120759
622	0	0.0946224
623	0	0.0990026
624	0	0.0151515
625	0	0.0151515
626	0	0.0151515
627	0	0.0151515
628	0	0.0151515
629	0	0.0151515
630	0	0.0151515
631	0	0.0151515
632	0	0.0151515
633	0	0.115942
634	0	0.101538
635	0	0.113846
636	0	0.101538
637	0	0.160416
638	0	0.207958
639	0	0.216763
640	0	0.320652
641	0	0
642	0	0
643	0	0
644	0	0
645	0	0
646	0	0
647	0	0
648	0	0
649	0	0
650	0	0.333333
651	0	0.333333
652	0	0.333333
653	0	0.333333
654	0	0
655	0	0
656	0	0
657	0	0
658	0	0
659	0	0
660	0	0
661	0	0.166667
662	0	0.166667
663	0	0.3
664	0	0.2
665	0	0.2
666	0	0.2
667	0	0.238095
668	0	0.190476
669	0	0.171429
670	0	0.238916
671	0	0.352941
672	0	0.244745
673	0	0.247748
674	0	0.207087
675	0	0.202658
676	0	0.321008
677	0	0.457717
678	0	0.47343
679	0	0.47343
680	0	0
681	0	0
682	0	0
683	0	0
684	0	0
685	0	0
686	0	0
687	0	0
688	0	0
689	0	0
690	0	0.1
691	0	0.0666667
692	0	0.047619
693	0	0
694	0	0
695	0	0
696	0	0
697	0	0
698	0	0.18254
699	0	0.22924
700	0	0.230804
701	0	0.217751
702	0	0.252149
703	0	0.283032
704	0	0.31977
705	0	0.0435065
706	0	0.075974
707	0	0.0383117
708	0	0.0383117
709	0	0.0337662
710	0	0.198093
711	0	0.182942
712	0	0.0666667
713	0	0.0666667
714	0	0.0666667
715	0	0.0666667
716	0	0.0666667
717	0	0.0857143
718	0	0.0857143
719	0	0.0857143
720	0	0.260078
721	0	0.215889
722	0	0.366152
723	0	0.385805
724	0	0.38567
725	0	0.341011
726	0	0.337286
727	0	0.337286
728	0	0.168044
729	0	0.150146
730	0	0.136917
731	0	0.124771
732	0	0.146484
733	0	0.15319
734	0	0.14604
735	0	0.258321
736	0	0.373548
737	0	0
738	0	0
739	0	0.0699405
740	0	0.0682692
741	0	0.0735061
742	0	0.478943
743	0	0.384335
744	0	0.484813
745	0	0.469642
746	0	0.201107
747	0	0.400145
748	0	0
749	0	0
750	0	0
751	0	0
752	0	0
753	0	0
754	0	0
755	0	0.108046
756	0	0.113978
757	0	0.596667
758	0	0
759	0	0
760	0	0
761	0	0
762	0	0
763	0	0
764	0	0
765	0	0.615015
766	0	0.0808642
767	0	0.0830899
768	0	0.142857
769	0	0.2
770	0	0.2
771	0	0.2
772	0	0.2
773	0	0.2
774	0	0.121564
775	0	0.121564
776	0	0.299898
777	0	0.265136
778	0	0.12892
779	0	0.109635
780	0	0.483016
781	0	0.354965
782	0	0.122689
783	0	0.292035
784	0	0.272938
785	0	0.047619
786	0	0
787	0	0
788	0	0
789	0	0
790	0	0
791	0	0
792	0	0.594771
793	0	0.532164
794	0	0.447619
795	0	0.467532
796	0	0.467532
797	0	0.394928
798	0	0.413333
799	0	0.294872
800	0	0.268791
801	0	0
802	0	0
803	0	0
804	0	0
805	0	0
806	0	0
807	0	0.0666667
808	0	0.047619
809	0	0.047619
810	0	0.600212
811	0	0.163077
812	0	0.151515
813	0	0.103604
814	0	0.106239
815	0	0.21829
816	0	0.0641711
817	0	0.0587302
818	0	0.0512821
819	0	0.0825826
820	0	0.213341
821	0	0.141527
822	0	0.0950215
823	0	0.0744681
824	0	0.0676692
825	0	0.0769231
826	0	0.0769231
827	0	0.0897436
828	0	0.0859929
829	0	0.15
830	0	0.261278
831	0	0.314536
832	0	0.334586
833	0	0.266781
834	0	0.130278
835	0	0.166856
836	0	0.16095
837	0	0.287583
838	0	0.14023
839	0	0.150246
840	0	0.150246
841	0	0.188034
842	0	0.193732
843	0	0.259259
844	0	0.210898
845	0	0.38976
846	0	0.480268
847	0	0.216162
848	0	0.489744
849	0	0.589423
850	0	0.376547
851	0	0.437939
852	0	0.430722
853	0	0.425125
854	0	0.42237
855	0	0.422795
856	0	0.423281
857	0	0.41989
858	0	0.0357143
859	0	0.0357143
860	0	0.0357143
861	0	0.0357143
862	0	0.682369
863	0	0.287653
864	0	0.296022
865	0	0.239894
866	0	0
867	0	0
868	0	0
869	0	0
870	0	0.45977
871	0	0.3867
872	0	0.166667
873	0	0.0549451
874	0	0.416734
875	0	0.349965
876	0	0.263649
877	0	0.545455
878	0	0.166667
879	0	0
880	0	0
881	0	0
882	0	0
883	0	0
884	0	0
885	0	0
886	0	0
887	0	0
888	0	0
889	0	0
890	0	0.509091
891	0	0.509091
892	0	0.2
893	0	0.2
894	0	0.142857
895	0	0.142857
896	0	0.190476
897	0	0.190476
898	0	0.3
899	0	0.3
900	0	0.3
901	0	0.2
902	0	0.2
903	0	0.2
904	0	0.2
905	0	0.409091
906	0	0.2
907	0	0.0833333
908	0	0.0909091
909	0	0.121212
910	0	0.180952
911	0	0.130719
912	0	0.366013
913	0	0.438095
914	0	0.496377
915	0	0.4375
916	0	0.648718
917	0	0.592085
918	0	0.21411
919	0	0.0701754
920	0	0.0994152
921	0	0.115942
922	0	0.107692
923	0	0.216901
924	0	0.211055
925	0	0.104575
926	0	0.0915033
927	0	0.0849673
928	0	0.0784314
929	0	0.0936013
930	0	0.28139
931	0	0.148011
932	0	0.146161
933	0	0.146161
934	0	0.146161
935	0	0.124802
936	0	0.152627
937	0	0.181733
938	0	0.1
939	0	0.3
940	0	0.3
941	0	0.3
942	0	0.3
943	0	0.3
944	0	0.3
945	0	0.3
946	0	0.3
947	0	0.0423246
948	0	0.240961
949	0	0.398292
950	0	0.152688
951	0	0.11828
952	0	0.105747
953	0	0.688995
954	0	0.611563
955	0	0.596826
956	0	0.59712
957	0	0.583477
958	0	0.557866
959	0	0.488079
960	0	0.347151
961	0	0.31633
962	0	0.118227
963	0	0.140212
964	0	0.145503
965	0	0.304716
966	0	0.0606061
967	0	0.0357143
968	0	0.0357143
969	0	0.0357143
970	0	0.0277778
971	0	0.0277778
972	0	0.0222222
973	0	0.0363636
974	0	0.785782
975	0	0.420018
976	0	0.483749
977	0	0.517941
978	0	0.453142
979	0	0.445645
980	0	0.165647
981	0	0.402672
982	0	0.17475
983	0	0.18662
984	0	0.201656
985	0	0.433121
986	0	0.375099
987	0	0.362292
988	0	0.4048
989	0	0.128326
990	0	0.186157
991	0	0.192786
992	0	0.232823
993	0	0.247772
994	0	0.23112
995	0	0.233402
996	0	0.234955
997	0	0.253459
998	0	0.259061
999	0	0.264018
1000	0	0.258256
1001	0	0.2086
1002	0	0.225854
1003	0	0.347514
1004	0	0.488596
1005	0	0.192234
1006	0	0.178608
1007	0	0.171578
1008	0	0.173557
1009	0	0.197441
1010	0	0.166052
1011	0	0.166602
1012	0	0.147851
1013	0	0.19653
1014	0	0.451735
1015	0	0.175439
1016	0	0.347852
1017	0	0.434193
1018	0	0.432836
1019	0	0.459592
1020	0	0.348348
1021	0	0.177778
1022	0	0.217391
1023	0	0.251773
1024	0	0.257053
1025	0	0.258005
1026	0	0.283354
1027	0	0.239116
1028	0	0.272528
1029	0	0.290765
1030	0	0.329545
1031	0	0.243386
1032	0	0.226601
1033	0	0.226601
1034	0	0.226601
1035	0	0.290981
1036	0	0.0449735
1037	0	0.0449735
1038	0	0.742994
1039	0	0.684912
1040	0	0.314691
1041	0	0.304362
1042	0	0.327207
1043	0	0.385426
1044	0	0.402891
1045	0	0.478341
1046	0	0.0735931
1047	0	0.139046
1048	0	0.0559468
1049	0	0.0535994
1050	0	0.130161
1051	0	0.200313
1052	0	0.167741
1053	0	0.154112
1054	0	0.163803
1055	0	0.171943
1056	0	0.139948
1057	0	0.61274
1058	0	0.00833333
1059	0	0.00833333
1060	0	0
1061	0	0.0357143
1062	0	0.0666667
1063	0	0
1064	0	0
1065	0	0
1066	0	0.0666667
1067	0	0.0666667
1068	0	0
1069	0	0
1070	0	0
1071	0	0
1072	0	0
1073	0	0
1074	0	0.722479
1075	0	0.748485
1076	0	0.697674
1077	0	0
1078	0	0
1079	0	0
1080	0	0
1081	0	0.0727273
1082	0	0.152381
1083	0	0.214286
1084	0	0.609524
1085	0	0.53202
1086	0	0.505747
1087	0	0.286772
1088	0	0.433469
1089	0	0.142857
1090	0	0.385616
1091	0	0.45751
1092	0	0.468267
1093	0	0.250697
1094	0	0.250733
1095	0	0.404783
1096	0	0.402411
1097	0	0.403247
1098	0	0.405483
1099	0	0.402287
1100	0	0.409053
1101	0	0
1102	0	0
1103	0	0
1104	0	0
1105	0	0
1106	0	0.205882
1107	0	0.154412
1108	0	0.0980392
1109	0	0.625858
1110	0	0.410772
1111	0	0.476907
1112	0	0.730745
1113	0	0.292517
1114	0	0.292517
1115	0	0.6639
1116	0	0.435886
1117	0	0.498765
1118	0	0.233196
1119	0	0.142857
1120	0	0.123077
1121	0	0.122353
1122	0	0.294974
1123	0	0.225452
1124	0	0.250425
1125	0	0.117647
1126	0	0.104575
1127	0	0.294118
1128	0	0.359477
1129	0	0.5422
1130	0	0.787255
1131	0	0.793842
1132	0	0.0739687
1133	0	0.768384
1134	0	0.768391
1135	0	0.77042
1136	0	0.763642
1137	0	0.156472
1138	0	0.13289
1139	0	0.326754
1140	0	0.25084
1141	0	0.519312
1142	0	0.531583
1143	0	0.527156
1144	0	0.585353
1145	0	0.160428
1146	0	0.0166667
1147	0	0.0166667
1148	0	0.0166667
1149	0	0.227393
1150	0	0.173016
1151	0	0.470497
1152	0	0.322724
1153	0	0.282439
1154	0	0.153879
1155	0	0.0118577
1156	0	0.0955838
1157	0	0.178431
1158	0	0.225678
1159	0	0.267671
1160	0	0.150633
1161	0	0.332133
1162	0	0.333175
1163	0	0.331763
1164	0	0.209312
1165	0	0.178169
1166	0	0.20233
1167	0	0.131841
1168	0	0.275053
1169	0	0.261486
1170	0	0.21893
1171	0	0.247619
1172	0	0.223329
1173	0	0.173077
1174	0	0.173077
1175	0	0.179487
1176	0	0.192308
1177	0	0.192308
1178	0	0.573641
1179	0	0.513445
1180	0	0.269636
1181	0	0.00952381
1182	0	0.00952381
1183	0	0.00952381
1184	0	0.00952381
1185	0	0.227395
1186	0	0.0436782
1187	0	0.479608
1188	0	0.114919
1189	0	0.0998839
1190	0	0.129806
1191	0	0.326803
1192	0	0.239966
1193	0	0
1194	0	0
1195	0	0
1196	0	0
1197	0	0
1198	0	0
1199	0	0.219193
1200	0	0.114364
1201	0	0.101124
1202	0	0.0998632
1203	0	0.28565
1204	0	0.240451
1205	0	0.0974828
1206	0	0.100686
1207	0	0.116129
1208	0	0.260716
1209	0	0.259354
1210	0	0.272369
1211	0	0.474412
1212	0	0.0253623
1213	0	0.0459184
1214	0	0.0475113
1215	0	0.297878
1216	0	0.289306
1217	0	0.17092
1218	0	0.414341
1219	0	0.467599
1220	0	0.469552
1221	0	0.468461
1222	0	0.469881
1223	0	0.470012
1224	0	0.0450029
1225	0	0.754954
1226	0	0.0666667
1227	0	0.0666667
1228	0	0.0666667
1229	0	0.0666667
1230	0	0.1
1231	0	0.1
1232	0	0.1
1233	0	0.1
1234	0	0.87998
1235	0	0.882575
1236	0	0.242424
1237	0	0.242424
1238	0	0.242424
1239	0	0.242424
1240	0	0.205128
1241	0	0.864788
1242	0	0.862267
1243	0	0.848446
1244	0	0.0978261
1245	0	0.142857
1246	0	0.2
1247	0	0
1248	0	0
1249	0	0
1250	0	0
1251	0	0
1252	0	0.0181818
1253	0	0.490176
1254	0	0.488333
1255	0	0.494235
1256	0	0.494079
1257	0	0.49663
1258	0	0.401143
1259	0	0.315217
1260	0	0.358696
1261	0	0.105026
1262	0	0.412181
1263	0	0.425147
1264	0	0.176471
1265	0	0.176471
1266	0	0.176471
1267	0	0.176471
1268	0	0.176471
1269	0	0.176471
1270	0	0.156863
1271	0	0.140351
1272	0	0.468394
1273	0	0.456808
1274	0	0.26428
1275	0	0.153354
1276	0	0.178141
1277	0	0.171633
1278	0	0.270804
1279	0	0.171218
1280	0	0.179646
1281	0	0.184952
1282	0	0.114458
1283	0	0.226232
1284	0	0.425403
1285	0	0.385081
1286	0	0.0444444
1287	0	0.0222222
1288	0	0.340686
1289	0	0.339806
1290	0	0.166667
1291	0	0.183372
1292	0	0.343968
1293	0	0.260907
1294	0	0.455676
1295	0	0.3
1296	0	0
1297	0	0
1298	0	0
1299	0	0
1300	0	0
1301	0	0
1302	0	0
1303	0	0
1304	0	0
1305	0	0
1306	0	0
1307	0	0
1308	0	0
1309	0	0
1310	0	0
1311	0	0
1312	0	0
1313	0	0.482073
1314	0	0.577923
1315	0	0.856859
1316	0	0.492647
1317	0	0.51634
1318	0	0.785187
1319	0	0.827247
1320	0	0.832232
1321	0	0.834118
1322	0	0.32381
1323	0	0.285714
1324	0	0
1325	0	0
1326	0	0
1327	0	0
1328	0	0
1329	0	0
1330	0	0
1331	0	0
1332	0	0
1333	0	0
1334	0	0.333333
1335	0	0.333333
1336	0	1
1337	0	1
1338	0	0.862364
1339	0	0.861071
1340	0	0.866955
1341	0	0.880879
1342	0	0.882655
1343	0	0.418972
1344	0	0
1345	0	0
1346	0	0
1347	0	0
1348	0	0
1349	0	0
1350	0	0.879944
1351	0	0.880048
1352	0	0.878782
1353	0	0
1354	0	0
1355	0	0
1356	0	0
1357	0	0
1358	0	0.5
1359	0	0.5
1360	0	0.3
1361	0	0.3
1362	0	0.3
1363	0	0.2
1364	0	0.2
1365	0	0.962889
1366	0	0
1367	0	0
1368	0	0
1369	0	0
1370	0	0
1371	0	0
1372	0	0
1373	0	0
1374	0	0
1375	0	0
1376	0	0
1377	0	0
1378	0	0
1379	0	0
1380	0	0
1381	0	0
1382	0	0
1383	0	0
1384	0	0
1385	0	0
1386	0	0
1387	0	0.909802
1388	0	0
1389	0	0
1390	0	0
1391	0	0
1392	0	0
1393	0	0
1394	0	0
1395	0	0
1396	0	0
1397	0	0.939651
1398	0	0.93464
1399	0	0
1400	0	0
1401	0	0
1402	0	0
1403	0	0
1404	0	0
1405	0	0
1406	0	0
1407	0	0
1408	0	0
1409	0	0.934694
1410	0	0.936321
1411	0	0.931408
1412	0	0.948323
1413	0	0
1414	0	0.764493
1415	0	0.481855
1416	0	0.644444
1417	0	0
1418	0	0.843333
1419	0	0.84379
1420	0	0.333333
1421	0	0.488889
1422	0	0.242741
1423	0	0.466667
1424	0	0.799289
1425	0	0
1426	0	0
1427	0	0
1428	0	0
1429	0	0
1430	0	0
1431	0	0
1432	0	0
1433	0	0
1434	0	0
1435	0	0
1436	0	0
1437	0	0
1438	0	0
1439	0	0
1440	0	0
1441	0	0.6
1442	0	0.6
1443	0	0.6
1444	0	0.6
1445	0	0.333333
1446	0	0.333333
1447	0	0.2
1448	0	0.181818
1449	0	0.796868
1450	0	0.778042
1451	0	0.47619
1452	0	0.47619
1453	0	0.502465
1454	0	0.496345
1455	0	0.541402
1456	0	0.510684
1457	0	0.173913
1458	0	0.212121
1459	0	0.203463
1460	0	0.269006
1461	0	0.22381
1462	0	0.211494
1463	0	0.263895
1464	0	0.163404
1465	0	0.188607
1466	0	0.254487
1467	0	0.146199
1468	0	0.150327
1469	0	0.252747
1470	0	0.252747
1471	0	0.333333
1472	0	0
1473	0	0
1474	0	0
1475	0	0
1476	0	0
1477	0	0
1478	0	0
1479	0	1
1480	0	0.270664
1481	0	0.142857
1482	0	0.743841
1483	0	0.846154
1484	0	0.960318
1485	0	0.2
1486	0	0
1487	0	0
1488	0	0
1489	0	0
1490	0	0
1491	0	0
1492	0	0
1493	0	0
1494	0	0
1495	0	0
1496	0	0
1497	0	0.948267
1498	0	0.948267
1499	0	0.949994
1500	0	0.946679
1501	0	0.946679
1502	0	0.949992
1503	0	0
1504	0	0.951699
1505	0	0.951699
1506	0	0.951699
1507	0	0.951667
1508	0	1
1509	0	1
1510	0	1
1511	0	1
1512	0	1
1513	0	1
1514	0	1
1515	0	1
1516	0	1
1517	0	1
1518	0	1
1519	0	1
1520	0	1
1521	0	0
1522	0	0
1523	0	0
1524	0	0
1525	0	0
1526	0	0
1527	0	0
1528	0	0
1529	0	0
1530	0	0
1531	0	0
1532	0	0
1533	0	0
1534	0	0
1535	0	0
1536	0	0
1537	0	0
1538	0	0
1539	0	0
1540	0	0
1541	0	0.951531
1542	0	0.949863
1543	0	0.941316
1544	0	0.205128
1545	0	0.4
1546	0	0.6
1547	0	0.6
1548	0	0.6
1549	0	1
1550	0	0.5
1551	0	0.5
1552	0	0.5
1553	0	0.5
1554	0	0.5
1555	0	0.5
1556	0	0.333333
1557	0	0.333333
1558	0	0.333333
1559	0	0.333333
1560	0	0.333333
1561	0	0.333333
1562	0	0.333333
1563	0	0.333333
1564	0	0
1565	0	0
1566	0	0
1567	0	0
1568	0	0
1569	0	0
1570	0	0
1571	0	0
1572	0	0
1573	0	0
1574	0	0
1575	0	0
1576	0	0.946186
1577	0	0.946173
1578	0	0
1579	0	0
1580	0	0
1581	0	0
1582	0	0
1583	0	0
1584	0	0
1585	0	0.3
1586	0	0.1
1587	0	0.133333
1588	0	0.190476
1589	0	0.190476
1590	0	0.25
1591	0	0.25
1592	0	0.4
1593	0	0.4
1594	0	0.25
1595	0	0.691645
1596	0	0
1597	0	0
1598	0	0
1599	0	0
1600	0	0
1601	0	0
1602	0	0.942753
1603	0	0.942694
1604	0	0.944406
1605	0	0.942742
1606	0	0.923882
1607	0	0
1608	0	0
1609	0	0
1610	0	0
1611	0	0
1612	0	0
1613	0	0
1614	0	0
1615	0	0
1616	0	0
1617	0	0
1618	0	0
1619	0	0
1620	0	0
1621	0	0
1622	0	0
1623	0	0
1624	0	0
1625	0	0
1626	0	0
1627	0	0
1628	0	0.662338
1629	0	0.662338
1630	0	0.604743
1631	0	0.554348
1632	0	0.364919
1633	0	0.324421
1634	0	0.267425
1635	0	0.225319
1636	0	0.184397
1637	0	0.862597
1638	0	0.32967
1639	0	0.32967
1640	0	0.285714
1641	0	0.285714
1642	0	0.719491
1643	0	0.691043
1644	0	0.422388
1645	0	0.41597
1646	0	0.262925
1647	0	0.253607
1648	0	0.248902
1649	0	0
1650	0	0
1651	0	0
1652	0	0
1653	0	0
1654	0	0
1655	0	0
1656	0	0
1657	0	0
1658	0	0
1659	0	0
1660	0	0
1661	0	0
1662	0	0
1663	0	0
1664	0	0
1665	0	0.201405
1666	0	0.190239
1667	0	0.456667
1668	0	0.456667
1669	0	0.46
1670	0	0.46
1671	0	0.46
1672	0	0.46
1673	0	0.424615
1674	0	0.424615
1675	0	0.424615
1676	0	0.393162
1677	0	0.396011
1678	0	0.396011
1679	0	0.321839
1680	0	0.130055
1681	0	0.115032
1682	0	0.230489
1683	0	0.238178
1684	0	0.0485577
1685	0	0.04
1686	0	0.039778
1687	0	0.0342276
1688	0	0.0444033
1689	0	0.300841
1690	0	0.287652
1691	0	0.106061
1692	0	0.127273
1693	0	0.0666667
1694	0	0.0833333
1695	0	0.0833333
1696	0	0.0833333
1697	0	0.166667
1698	0	0.166667
1699	0	0.333333
1700	0	0.262462
1701	0	0.289112
1702	0	0.310171
1703	0	0.124183
1704	0	0.220588
1705	0	0.220588
1706	0	0.220588
1707	0	0.220588
1708	0	0.247368
1709	0	0.217391
1710	0	0.290598
1711	0	0.590207
1712	0	0.640221
1713	0	0.815225
1714	0	0.842224
1715	0	0.850339
1716	0	0.878437
1717	0	0.105205
1718	0	0.114634
1719	0	0.128023
1720	0	0.14127
1721	0	0.164021
1722	0	0.0514706
1723	0	0.043956
1724	0	0.0512821
1725	0	0.0222222
1726	0	0
1727	0	0
1728	0	0
1729	0	0
1730	0	0
1731	0	0
1732	0	0
1733	0	0
1734	0	0
1735	0	0
1736	0	0
1737	0	0
1738	0	0
1739	0	0
1740	0	0
1741	0	0
1742	0	0
1743	0	0
1744	0	0
1745	0	0
1746	0	0
1747	0	0
1748	0	0
1749	0	0
1750	0	0
1751	0	0
1752	0	0
1753	0	0
1754	0	0
1755	0	0
1756	0	0
1757	0	0.972023
1758	0	0.970314
1759	0	0.972023
1760	0	1
1761	0	1
1762	0	1
1763	0	1
1764	0	1
1765	0	1
1766	0	1
1767	0	1
1768	0	1
1769	0	1
1770	0	0.973811
1771	0	0.966952
1772	0	0.965287
1773	0	0.967009
1774	0	0.967001
1775	0	0.968701
1776	0	1
1777	0	1
1778	0	0.75
1779	0	0.554735
1780	0	0.98596
1781	0	0.166667
1782	0	0.5
1783	0	0
1784	0	0
1785	0	0.989526
1786	0	0.989526
1787	0	0.991243
1788	0	0.991236
1789	0	0.992979
1790	0	0.994728
1791	0	0.994728
1792	0	0.996484
1793	0	0.996484
1794	0	0.992986
1795	0	1
1796	0	1
1797	0	1
1798	0	1
1799	0	1
1800	0	0.333333
1801	0	0.333333
1802	0	0.333333
1803	0	0.333333
1804	0	0.333333
1805	0	0.2
1806	0	0.5
1807	0	0.5
1808	0	0.5
1809	0	0.5
1810	0	0.444444
1811	0	0.444444
1812	0	0.397661
1813	0	0.397661
1814	0	0.397661
1815	0	0.397661
1816	0	0.357895
1817	0	0.32381
1818	0	0.294372
1819	0	0.294372
1820	0	0.294372
1821	0	0.294372
1822	0	0.30303
1823	0	0.257246
1824	0	0.268116
1825	0	0.268116
1826	0	0.26
1827	0	0.332308
1828	0	0.365079
1829	0	0.263492
1830	0	0.220513
1831	0	0.178538
1832	0	0.152597
1833	0	0.223438
1834	0	0.179376
1835	0	0.579813
1836	0	0.588451
1837	0	0
1838	0	0
1839	0	0.227941
1840	0	0.227941
1841	0	0.225
1842	0	0.257143
1843	0	0.257143
1844	0	0.257143
1845	0	0.269231
1846	0	0.230769
1847	0	0.2
1848	0	0.2
1849	0	0.408582
1850	0	0.400356
1851	0	0.194444
1852	0	0.155556
1853	0	0.155556
1854	0	0.155556
1855	0	0.155556
1856	0	0.155556
1857	0	0.155556
1858	0	0.127273
1859	0	0.226263
1860	0	0.0761905
1861	0	0.0661765
1862	0	0.176871
1863	0	0.628552
1864	0	0
1865	0	0
1866	0	0
1867	0	0
1868	0	0
1869	0	0
1870	0	0
1871	0	0
1872	0	0
1873	0	0
1874	0	0
1875	0	0
1876	0	0
1877	0	0
1878	0	0
1879	0	0
1880	0	0
1881	0	0
1882	0	0
1883	0	0
1884	0	0
1885	0	0
1886	0	0
1887	0	0
1888	0	0
1889	0	0.0357143
1890	0	0.156863
1891	0	0.176471
1892	0	0.333333
1893	0	0.248276
1894	0	0.245378
1895	0	0.28254
1896	0	0.45641
1897	0	0.62055
1898	0	0.343721
1899	0	0.342941
1900	0	0.33383
1901	0	0.321294
1902	0	0.320834
1903	0	0.543917
1904	0	0.618412
1905	0	0.350061
1906	0	0.600299
1907	0	0.644169
1908	0	0.666622
1909	0	0.723955
1910	0	0.921217
1911	0	0.246753
1912	0	0.294737
1913	0	0.333333
1914	0	0.333333
1915	0	0.463203
1916	0	0.509524
1917	0	0.69281
1918	0	0.69281
1919	0	0.69281
1920	0	0.707602
1921	0	0.333333
1922	0	0.333333
1923	0	0.333333
1924	0	0.333333
1925	0	0.333333
1926	0	0
1927	0	0
1928	0	0.817056
1929	0	0
1930	0	0
1931	0	0.981308
1932	0	0.981481
1933	0	1
1934	0	1
1935	0	0.998247
1936	0	0.998247
1937	0	0.996499
1938	0	0.994751
1939	0	0.994751
1940	0	0.994751
1941	0	0.994751
1942	0	0.994751
1943	0	0
1944	0	0.996496
1945	0	0.996496
1946	0	0.996496
1947	0	0.998244
1948	0	0.998244
1949	0	1
1950	0	0.866667
1951	0	0.614379
1952	0	0.760641
1953	0	0.764597
1954	0	0.836957
1955	0	0.83004
1956	0	0.609364
1957	0	0.605826
1958	0	0
1959	0	0
1960	0	0
1961	0	0
1962	0	0
1963	0	0
1964	0	0.444444
1965	0	0.444444
1966	0	0.636969
1967	0	0.620339
1968	0	0
1969	0	0
1970	0	0
1971	0	0
1972	0	0
1973	0	0
1974	0	0
1975	0	0.513513
1976	0	0.45614
1977	0	0.346154
1978	0	0.365465
1979	0	0.293902
1980	0	0.218384
1981	0	0.337038
1982	0	0.163399
1983	0	0.163399
1984	0	0.163399
1985	0	0.353463
1986	0	0.047619
1987	0	0.331806
1988	0	0
1989	0	0
1990	0	0
1991	0	0.552861
1992	0	0.315217
1993	0	0.424242
1994	0	0.439394
1995	0	0.267112
1996	0	0
1997	0	0.108734
1998	0	0.169118
1999	0	0.169118
2000	0	0.113636
2001	0	0.254879
2002	0	0.0666667
2003	0	0
2004	0	0.109524
2005	0	0.147619
2006	0	0.06653
2007	0	0.290926
2008	0	0.0653846
2009	0	0.0965909
2010	0	0.102823
2011	0	0.11553
2012	0	0.219065
2013	0	0.173913
2014	0	0.173913
2015	0	0.233001
2016	0	0
2017	0	0
2018	0	0
2019	0	0
2020	0	0
2021	0	0
2022	0	0
2023	0	0
2024	0	0
2025	0	0.205085
2026	0	0.195835
2027	0	0
2028	0	0
2029	0	0.0526316
2030	0	0.170707
2031	0	0.0457516
2032	0	0.179233
2033	0	0.214286
2034	0	0.101559
2035	0	0.180258
2036	0	0.18792
2037	0	0.0196078
2038	0	0.0326797
2039	0	0
2040	0	0
2041	0	0
2042	0	0
2043	0	0.0196078
2044	0	0.0220588
2045	0	0.0646341
2046	0	0.184583
2047	0	0.234645
2048	0	0.231434
2049	0	0.232855
2050	0	0.225736
2051	0	0.163769
2052	0	0.154565
2053	0	0.172448
2054	0	0.0467687
2055	0	0.0777366
2056	0	0.0518519
2057	0	0.279948
2058	0	0.453756
2059	0	0.525464
2060	0	0.665519
2061	0	0.214286
2062	0	0
2063	0	0
2064	0	0
2065	0	0
2066	0	0
2067	0	0
2068	0	0
2069	0	0
2070	0	0
2071	0	0
2072	0	0
2073	0	0
2074	0	0.333333
2075	0	0.644411
2076	0	0.657301
2077	0	0.13
2078	0	0.177866
2079	0	0.186813
2080	0	0.205128
2081	0	0.282051
2082	0	0.282051
2083	0	0.792534
2084	0	0.80641
2085	0	0.779285
2086	0	0.115385
2087	0	0.116402
2088	0	0.639451
2089	0	0.6283
2090	0	0.622039
2091	0	0.62069
2092	0	0.47619
2093	0	0.47619
2094	0	0.47619
2095	0	0.47619
2096	0	0.357143
2097	0	0.765397
2098	0	0.328571
2099	0	0.266234
2100	0	0.59062
2101	0	0.503589
2102	0	0
2103	0	0
2104	0	0
2105	0	0
2106	0	0
2107	0	0
2108	0	0
2109	0	0
2110	0	0
2111	0	0
2112	0	0
2113	0	0
2114	0	0
2115	0	0
2116	0	0
2117	0	0
2118	0	0
2119	0	0
2120	0	0.0833333
2121	0	0.298246
2122	0	0.267131
2123	0	0.201531
2124	0	0.173064
2125	0	0.229478
2126	0	0.535385
2127	0	0.12381
2128	0	0.12381
2129	0	0.12381
2130	0	0.180952
2131	0	0.53876
2132	0	0.496647
2133	0	0.554961
2134	0	0.561717
2135	0	0.577463
2136	0	0.0640394
2137	0	0.0866667
2138	0	0.103333
2139	0	0.176387
2140	0	0.281707
2141	0	0.377468
2142	0	0.2
2143	0	0.2
2144	0	0.2
2145	0	0.2
2146	0	0.674461
2147	0	0.305051
2148	0	0.361633
2149	0	0.649231
2150	0	0.706667
2151	0	1
2152	0	1
2153	0	1
2154	0	0.284245
2155	0	0.38961
2156	0	0.708245
2157	0	0.813415
2158	0	0.898785
2159	0	0.332942
2160	0	0.441026
2161	0	0.779608
2162	0	0.91844
2163	0	1
2164	0	1
2165	0	0.998258
2166	0	0.998258
2167	0	0.99652
2168	0	0.998259
2169	0	0.998259
2170	1	1
2171	0	0.998259
2172	0	0.998258
2173	0	0.99652
2174	0	0.99652
2175	0	0.99652
2176	0	0.99652
2177	0	0.99652
2178	0	0.998256
2179	0	0.998256
2180	0	0.998256
2181	0	0.998256
2182	0	0.998256
2183	0	0.996517
2184	0	0.994783
2185	0	0.994783
2186	0	0.994783
2187	0	0.99652
2188	0	0.99652
2189	0	0.99652
2190	0	0.99652
2191	0	0.99652
2192	0	0.99652
2193	0	0.99652
2194	0	0.99652
2195	0	1
2196	0	0.729231
2197	0	0.675214
2198	0	0.626984
2199	0	0.626984
2200	0	0.394062
2201	0	0.394062
2202	0	0.365722
2203	0	0.331707
2204	0	0.235714
2205	0	0.522938
2206	0	0.703179
2207	0	0.697886
2208	0	0.701744
2209	0	0.246454
2210	0	0.283499
2211	0	0.312195
2212	0	0.0994152
2213	0	0.0571429
2214	0	0.0641026
2215	0	0.0909091
2216	0	0.109091
2217	0	0.107143
2218	0	0.133333
2219	0	0.166667
2220	0	0.166667
2221	0	0
2222	0	0
2223	1	0
2224	1	0
2225	1	0
2226	0	0
2227	0	0
2228	0	0
2229	0	0
2230	0	0
2231	0	0
2232	0	0
2233	0	0
2234	0	0
2235	0	0
2236	0	0
2237	0	0
2238	0	0.333333
2239	0	1
2240	0	1
2241	0	0.99305
2242	1	1
2243	0	0.998259
2244	0	0.998259
2245	0	0.998259
2246	0	0.996523
2247	0	0.998261
2248	0	0.998261
2249	0	0.998261
2250	0	0.998261
2251	0	0.998261
2252	0	0.998261
2253	0	0.998259
2254	0	0.998259
2255	0	0
2256	0	0
2257	0	0
2258	0	0
2259	0	0.998259
2260	0	0.998259
2261	0	0.998261
2262	0	0.998261
2263	0	0.998262
2264	0	0.998262
2265	0	0.998262
2266	1	1
2267	1	1
2268	1	1
2269	1	1
2270	1	1
2271	0	0.998239
2272	0	0.998261
2273	0	0.998261
2274	0	0.998261
2275	0	0.998261
2276	0	0.998259
2277	0	0.998259
2278	0	0.998259
2279	0	0.998258
2280	0	0.998258
2281	0	0.998259
2282	0	0.998258
2283	0	0.998258
2284	0	0.998258
2285	0	0.998258
2286	0	0.998258
2287	0	1
2288	0	1
2289	0	1
2290	0	1
2291	0	0.998258
2292	0	0.998258
2293	0	0.998258
2294	0	0.998258
2295	0	0.998258
2296	0	0.998259
2297	1	1
2298	1	1
2299	1	1
2300	0	1
2301	0	1
2302	0	1
2303	0	1
2304	0	0.957196
2305	0	1
2306	0	1
2307	0	1
2308	0	0.714286
2309	0	0.714286
2310	0	0.897492
2311	0	0
2312	0	0
2313	0	0
2314	0	0
2315	0	0
2316	0	0
2317	0	0
2318	0	0
2319	0	0
2320	0	0
2321	0	0
2322	0	0.047619
2323	0	0.843254
2324	0	0.833154
2325	0	0.166667
2326	0	0.166667
2327	0	0.166667
2328	0	0.166667
2329	0	0
2330	0	0
2331	0	0
2332	0	0
2333	0	0
2334	0	0
2335	0	0.0666667
2336	0	0.877475
2337	0	0.28655
2338	0	0.28655
2339	0	0.239766
2340	0	0.685882
2341	0	0.660566
2342	0	0.583502
2343	0	0.118952
2344	0	0.0980392
2345	0	0.0654339
2346	0	0.371877
2347	0	0.359231
2348	0	0.299965
2349	0	0.292601
2350	0	0.194805
2351	0	0.156863
2352	0	0.15
2353	0	0.102941
2354	0	0.26458
2355	0	0.137681
2356	0	0.0935673
2357	0	0.0653595
2358	0	0.0584795
2359	0	0.0818713
2360	0	0.184211
2361	0	0.261438
2362	0	0.233918
2363	0	0.238095
2364	0	0.0869565
2365	0	0.110769
2366	0	0.123188
2367	0	0.439001
2368	0	0.29822
2369	0	0.186042
2370	0	0.20232
2371	0	0.134615
2372	0	0.135096
2373	0	0.132692
2374	0	0.244096
2375	0	0.0471698
2376	0	0.0569431
2377	0	0.0526316
2378	0	0.0392982
2379	0	0.193702
2380	0	0.297612
2381	0	0.29882
2382	0	0.299006
2383	0	0.187722
2384	0	0.386567
2385	0	0.388229
2386	0	0.0842681
2387	0	0.0952381
2388	0	0.0952381
2389	0	0.0909091
2390	0	0.0727273
2391	0	0.0727273
2392	0	0.0727273
2393	0	0.488582
2394	0	0.166667
2395	0	0
2396	0	0
2397	0	0
2398	0	0
2399	0	0
2400	0	0
2401	0	0
2402	0	0
2403	0	0
2404	0	0
2405	0	0
2406	0	0.313696
2407	0	0.296203
2408	0	0.27217
2409	0	0.194076
2410	0	0.0666667
2411	0	0.0888889
2412	0	0.0888889
2413	0	0.0666667
2414	0	0
2415	0	0
2416	0	0.0888889
2417	0	0.0888889
2418	0	0.564094
2419	0	0.47892
2420	0	0.190476
2421	0	0.146168
2422	0	0.150538
2423	0	0.172308
2424	0	0.212121
2425	0	0
2426	0	0
2427	0	0
2428	0	0
2429	0	0
2430	0	0
2431	0	0
2432	0	0
2433	0	0
2434	0	0
2435	0	0
2436	0	0
2437	0	0.047619
2438	0	0.357073
2439	0	0.179487
2440	0	0.179487
2441	0	0.217949
2442	0	0.269231
2443	0	0.183965
2444	0	0.303914
2445	0	0.347101
2446	0	0.396306
2447	0	0.333333
2448	0	0.333333
2449	0	0.333333
2450	0	0.333333
2451	0	0.17367
2452	0	0.186012
2453	0	0.209815
2454	0	0.544471
2455	0	0.368365
2456	0	0.387363
2457	0	0.388462
2458	0	0.77453
2459	0	0.551171
2460	0	0.540469
2461	0	0.637703
2462	0	0.184211
2463	0	0.295238
2464	0	0.357143
2465	0	0.47619
2466	0	0.47619
2467	0	0.666667
2468	0	0.666667
2469	0	1
2470	0	1
2471	0	1
2472	0	0.996484
2473	0	0.996484
2474	0	0.998239
2475	0	0.998238
2476	0	0.998238
2477	0	1
2478	0	1
2479	0	0.910277
2480	0	0
2481	1	0
2482	1	0
2483	1	0
2484	1	0
2485	1	0
2486	1	0
2487	0	0
2488	0	0.987828
2489	0	0.993034
2490	0	0.993034
2491	0	0.993034
2492	0	0.994769
2493	0	0.993034
2494	1	1
2495	1	1
2496	1	1
2497	1	1
2498	1	1
2499	1	1
2500	1	1
2501	1	1
2502	1	1
2503	1	1
2504	1	1
2505	1	1
2506	1	1
2507	1	1
2508	1	1
2509	1	1
2510	1	1
2511	1	1
2512	1	1
2513	0	0.996508
2514	0	0.996508
2515	0	0.996508
2516	0	0.996508
2517	0	0.994769
2518	0	0.993034
2519	0	0.993034
2520	0	0.993034
2521	0	0.99304
2522	0	0.987838
2523	0	0.989562
2524	1	0
2525	1	0
2526	1	0
2527	1	0
2528	0	0
2529	0	0
2530	0	0.998252
2531	0	0.998255
2532	0	0.996514
2533	0	0.996514
2534	0	0.996514
2535	0	0.996514
2536	0	0.996514
2537	0	0.996514
2538	0	0.996514
2539	0	0.996514
2540	0	0.996514
2541	0	0.996514
2542	0	0.996514
2543	0	0.998255
2544	0	0.998255
2545	0	0.998253
2546	0	0.998253
2547	0	1
2548	0	0.410256
2549	0	0.987822
2550	0	0.987817
2551	0	0.723524
2552	0	0.933333
2553	0	0.734403
2554	0	0.734403
2555	0	0.734403
2556	0	0.69916
2557	0	0.414007
2558	0	0.915473
2559	0	0
2560	0	0
2561	0	0
2562	0	0
2563	0	0
2564	0	0
2565	0	0
2566	0	0
2567	0	0
2568	0	0
2569	0	0
2570	0	0
2571	0	0
2572	0	0
2573	0	0.962859
2574	0	0.458333
2575	0	0.458333
2576	0	0.52381
2577	0	0.604396
2578	0	0
2579	0	0
2580	0	0
2581	0	0
2582	0	0
2583	0	0
2584	0	0
2585	0	0.989556
2586	0	0.991286
2587	0	0.991286
2588	0	0.991286
2589	0	0.991286
2590	0	0
2591	0	0
2592	0	0.99301
2593	0	0.993028
2594	0	0.991297
2595	0	0.965517
2596	0	1
2597	0	0.753725
2598	0	0.724736
2599	0	0.567843
2600	0	0.441327
2601	0	0.452359
2602	0	0.470531
2603	0	0.470531
2604	0	0.889541
2605	0	0
2606	0	0
2607	0	0
2608	0	0
2609	0	0
2610	0	0
2611	0	0
2612	0	0
2613	0	0
2614	0	0
2615	0	0.583333
2616	0	0.75
2617	0	0.363636
2618	0	0.363636
2619	0	0.333333
2620	0	0.298246
2621	0	0.294197
2622	0	0.278205
2623	0	0.285366
2624	0	0.282927
2625	0	0.834583
2626	0	0.777778
2627	0	0.777778
2628	0	0.777778
2629	0	0.777778
2630	0	0.777778
2631	0	0.361111
2632	0	0.361111
2633	0	0.361111
2634	0	0.361111
2635	0	0.5
2636	0	0.5
2637	0	0.5
2638	0	1
2639	0	1
2640	0	1
2641	0	1
2642	0	1
2643	0	1
2644	0	1
2645	0	1
2646	0	1
2647	0	1
2648	0	1
2649	0	1
2650	0	1
2651	0	1
2652	0	1
2653	0	1
2654	0	1
2655	0	1
2656	0	1
2657	0	1
2658	1	1
2659	1	1
2660	1	1
2661	1	1
2662	1	1
2663	1	1
2664	1	1
2665	1	1
2666	1	1
2667	1	1
2668	1	1
2669	1	1
2670	1	1
2671	1	1
2672	1	1
2673	1	1
2674	0	1
2675	0	1
2676	0	1
2677	0	1
2678	0	1
2679	0	1
2680	0	1
2681	0	0.5
2682	0	0.5
2683	0	0.5
2684	0	0.3
2685	0	0.2
2686	0	0.285714
2687	0	0.65
2688	0	0.65
2689	0	0.580882
2690	0	0.686275
2691	0	0.935902
2692	0	0.104575
2693	0	0.0897436
2694	0	0.166667
2695	0	0.166667
2696	0	0.047619
2697	0	0
2698	0	0
2699	0	0
2700	0	0
2701	0	0
2702	0	0
2703	0	0
2704	0	0.166667
2705	0	0.166667
2706	0	0.166667
2707	0	0.5
2708	0	0.5
2709	0	0.5
2710	0	0.5
2711	0	1
2712	0	1
2713	0	1
2714	0	1
2715	0	0.84429
2716	0	0.853497
2717	0	0.8
2718	0	0.833333
2719	0	0.615385
2720	0	0.887779
2721	0	0.993022
2722	0	0.99476
2723	0	0.99476
2724	0	0
2725	1	0
2726	1	0
2727	1	0
2728	1	0
2729	1	0
2730	1	0
2731	1	0
2732	1	0
2733	1	0
2734	1	0
2735	1	0
2736	1	0
2737	1	0
2738	1	0
2739	1	0
2740	1	0
2741	1	0
2742	1	0
2743	1	0
2744	1	0
2745	1	0
2746	1	0
2747	1	0
2748	1	0
2749	1	0
2750	1	0
2751	1	0
2752	1	0
2753	1	0
2754	1	0
2755	1	0
2756	1	0
2757	0	0.991282
2758	0	0.991289
2759	0	0.993028
2760	0	0
2761	0	0
2762	0	0.993004
2763	0	0.993004
2764	0	0.994746
2765	0	0.994746
2766	0	0.992998
2767	0	0.996487
2768	0	0.996487
2769	0	0.996487
2770	0	1
2771	0	1
2772	0	1
2773	0	1
2774	0	0.333333
2775	0	1
2776	0	1
2777	0	0.833992
2778	0	0.84058
2779	0	0.84058
2780	0	0.84058
2781	0	0.933764
2782	0	0.608696
2783	0	0.608696
2784	0	0.584416
2785	0	0.494048
2786	0	0.506011
2787	0	0.493108
2788	0	0.491228
2789	0	0.421053
2790	0	0.266667
2791	0	0.133333
2792	0	0.047619
2793	0	0.047619
2794	0	0.0666667
2795	0	0
2796	0	0.0653595
2797	0	0.464051
2798	0	0.416667
2799	0	0.235507
2800	0	0.377318
2801	0	0.377225
2802	0	0.47619
2803	0	0.3713
2804	0	0.389613
2805	0	0.247619
2806	0	0.247619
2807	0	0.342965
2808	0	0.208134
2809	0	0.204716
2810	0	0.192932
2811	0	0.251082
2812	0	0.229249
2813	0	0.0924176
2814	0	0.141649
2815	0	0.0772771
2816	0	0.173309
2817	0	0
2818	0	0
2819	0	0
2820	0	0
2821	1	0
2822	1	0
2823	1	0
2824	1	0
2825	1	0
2826	1	0
2827	1	0
2828	1	0
2829	1	0
2830	0	0
2831	0	0
2832	0	0.215686
2833	0	0.0716463
2834	0	0.059686
2835	0	0.16166
2836	0	0.0357143
2837	0	0.0357143
2838	0	0.0357143
2839	0	0.025974
2840	0	0.025974
2841	0	0.025974
2842	0	0.250304
2843	0	0.220513
2844	0	0.220513
2845	0	0.156695
2846	0	0.156695
2847	0	0.156695
2848	0	0.145503
2849	0	0.134921
2850	0	0.387774
2851	0	0.383703
2852	0	0.410893
2853	0	0.345121
2854	0	0.332484
2855	0	0.31159
2856	0	0.193311
2857	0	0.18367
2858	0	0.441263
2859	0	0.441263
2860	0	0.434835
2861	0	0.434835
2862	0	0.422928
2863	0	0.545772
2864	0	0.366079
2865	0	0.257389
2866	0	0.220534
2867	0	0.217635
2868	0	0.263174
2869	0	0.118307
2870	0	0.128252
2871	0	0.160983
2872	0	0.162218
2873	0	0.140372
2874	0	0.164221
2875	0	0.168152
2876	0	0.158088
2877	0	0.149342
2878	0	0.110772
2879	0	0.111222
2880	0	0.101754
2881	0	0.118659
2882	0	0.121852
2883	0	0.119796
2884	0	0.0948152
2885	0	0.0620702
2886	0	0.0612562
2887	0	0.0652174
2888	0	0.0652174
2889	0	0.0711462
2890	0	0.0711462
2891	0	0.0711462
2892	0	0.0909091
2893	0	0.0474308
2894	0	0.0474308
2895	0	0.0474308
2896	0	0.101172
2897	0	0.276667
2898	0	0.293478
2899	0	0.293478
2900	0	0.273333
2901	0	0.385714
2902	0	0.328571
2903	0	0.163636
2904	0	0.145455
2905	0	0.145455
2906	0	0.145455
2907	0	0.145455
2908	0	0.145455
2909	0	0.4
2910	0	0.166667
2911	0	0.166667
2912	0	0.166667
2913	0	0.0952381
2914	0	0.0952381
2915	0	0.0952381
2916	0	0.0952381
2917	0	0.0952381
2918	0	0.166667
2919	0	0.166667
2920	0	0.166667
2921	0	0.1
2922	0	0.3
2923	0	0.3
2924	0	0.0666667
2925	0	0.0666667
2926	0	0.0666667
2927	0	0.0666667
2928	0	0.1
2929	0	0.2
2930	0	0.2
2931	0	0.2
2932	0	0.142857
2933	0	0.214286
2934	0	0.0622457
2935	0	0.0841797
2936	0	0.0312945
2937	0	0.0241821
2938	0	0.0316206
2939	0	0.137306
2940	0	0.381818
2941	0	0.381818
2942	0	0.381818
2943	0	0
2944	0	0
2945	0	0
2946	0	0
2947	0	0
2948	0	0
2949	0	0
2950	0	0
2951	0	0
2952	0	0
2953	0	0
2954	0	0.509091
2955	0	0.509091
2956	0	0.381818
2957	0	0.318182
2958	0	0.545455
2959	0	0.545455
2960	0	0.461538
2961	0	0.381818
2962	0	0.137641
2963	0	0
2964	0	0
2965	0	0
2966	0	0
2967	0	0
2968	0	0
2969	0	0
2970	0	0
2971	0	0
2972	0	0
2973	0	0.0777366
2974	0	0.460606
2975	0	0.0747729
2976	0	0.0657005
2977	0	0.044335
2978	0	0.0451613
2979	0	0.0482759
2980	0	0.146259
2981	0	0.137155
2982	0	0.201375
2983	0	0.355787
2984	0	0.462568
2985	0	0
2986	0	0
2987	0	0.0277778
2988	0	0.0363636
2989	0	0.0727273
2990	0	0.106061
2991	0	0.0897436
2992	0	0.269231
2993	0	0.269231
2994	0	0.269231
2995	0	0.307692
2996	0	0.307692
2997	0	0.232865
2998	0	0.238501
2999	0	0.212462
3000	0	0.106338
3001	0	0.141209
3002	0	0.140842
3003	0	0.0483092
3004	0	0.0609081
3005	0	0.0570825
3006	0	0.227856
3007	0	0.503596
3008	0	0.074359
3009	0	0.0719512
3010	0	0.0782051
3011	0	0.0817073
3012	0	0.0853659
3013	0	0.097561
3014	0	0.409349
3015	0	0.17316
3016	0	0.21645
3017	0	0.211027
3018	0	0.217434
3019	0	0.22151
3020	0	0.24073
3021	0	0.247719
3022	0	0.455227
3023	0	0.457455
3024	0	0.0666667
3025	0	0.0641026
3026	0	0.0606061
3027	0	0.0833333
3028	0	0.0833333
3029	0	0.142857
3030	0	0.142857
3031	0	0.166667
3032	0	0.166667
3033	0	0.166667
3034	0	0.166667
3035	0	0.166667
3036	0	0.166667
3037	0	0.166667
3038	0	0
3039	0	0
3040	0	0
3041	0	0
3042	0	0
3043	0	0
3044	0	0
3045	0	0
3046	0	0
3047	0	0
3048	0	0
3049	0	0
3050	0	0
3051	0	0
3052	0	0
3053	0	0
3054	0	0
3055	0	0
3056	0	0
3057	0	0.6
3058	0	0.707647
3059	0	0.376499
3060	0	0.38703
3061	0	0.404358
3062	0	0.644306
3063	0	0.81994
3064	0	0.81994
3065	0	0.84639
3066	0	0.874141
3067	0	0.874141
3068	0	0
3069	0	0
3070	0	0
3071	0	0
3072	0	0
3073	0	0
3074	0	0.770694
3075	0	0.770694
3076	0	0.770694
3077	0	0.770694
3078	0	0.981308
3079	0	0.963136
3080	0	0.962793
3081	0	0.809608
3082	0	0.785439
3083	0	0.785439
3084	0	0.785101
3085	0	0.558333
3086	0	0.558333
3087	0	0.558333
3088	0	0.79022
3089	0	0.96708
3090	0	0.96708
3091	0	0.96708
3092	0	0.96708
3093	0	0.96708
3094	0	0.96708
3095	0	0.96708
3096	0	0.96708
3097	0	0.96708
3098	0	0.96708
3099	0	0.951226
3100	0	0.745802
3101	0	0.897966
3102	0	0.541545
3103	0	0.547647
3104	0	0.979017
3105	0	0.977298
3106	0	0.977298
3107	0	0.975583
3108	0	0.975583
3109	0	0
3110	0	0
3111	0	0.97214
3112	0	0
3113	0	0
3114	0	0
3115	0	0
3116	0	0
3117	0	0
3118	0	0
3119	0	0
3120	0	0
3121	0	0
3122	0	0
3123	0	0
3124	0	0
3125	0	0
3126	0	0
3127	0	0
3128	0	0
3129	0	0
3130	0	0
3131	0	0
3132	0	0
3133	0	0
3134	0	0
3135	0	0
3136	0	0
3137	0	0
3138	0	0
3139	0	0
3140	0	0
3141	0	0
3142	0	0
3143	0	0
3144	0	0
3145	0	0
3146	0	0
3147	0	0
3148	0	0.977275
3149	0	0.977275
3150	0	0
3151	0	0
3152	0	0.628571
3153	0	0.45098
3154	0	0.551967
3155	0	0.859462
3156	0	0.351261
3157	0	0.364672
3158	0	0.353846
3159	0	0.268398
3160	0	0.255411
3161	0	0.255411
3162	0	0.251082
3163	0	0.734115
3164	0	0.705589
3165	0	0.181538
3166	0	0.17094
3167	0	0.145299
3168	0	0.145299
3169	0	0.148148
3170	0	0.136752
3171	0	0.205128
3172	0	0.11396
3173	0	0.11396
3174	0	0.105413
3175	0	0.105413
3176	0	0.105413
3177	0	0.105413
3178	0	0.091954
3179	0	0.220779
3180	0	0.213033
3181	0	0.194915
3182	0	0.660868
3183	0	0.281385
3184	0	0.243928
3185	0	0.230828
3186	0	0.38185
3187	0	0.280529
3188	0	0.22202
3189	0	0.22594
3190	0	0.157154
3191	0	0.242096
3192	0	0
3193	0	0
3194	0	0
3195	0	0.140909
3196	0	0.109091
3197	0	0.119481
3198	0	0.0528541
3199	0	0.0565657
3200	0	0.0555556
3201	0	0.320006
3202	0	0
3203	0	0
3204	0	0
3205	0	0
3206	0	0
3207	0	0
3208	0	0
3209	0	0
3210	0	0
3211	0	0
3212	0	0
3213	0	0
3214	0	0
3215	0	0
3216	0	0
3217	0	0
3218	0	0
3219	0	0
3220	0	0
3221	0	0
3222	0	0
3223	0	0
3224	0	0
3225	0	0
3226	0	0
3227	0	0
3228	0	0
3229	0	0
3230	0	0
3231	0	0
3232	0	0
3233	0	0
3234	0	0.274716
3235	0	0.477102
3236	0	0.459672
3237	0	0.415787
3238	0	0
3239	0	0
3240	0	0
3241	0	0
3242	0	0
3243	0	0
3244	0	0
3245	0	0
3246	0	0
3247	0	0
3248	0	0.456667
3249	0	0.456667
3250	0	0.456667
3251	0	0.456667
3252	0	0.456667
3253	0	0.496377
3254	0	0.496377
3255	0	0.541502
3256	0	0.541502
3257	0	0.478261
3258	0	0.52381
3259	0	0.0666667
3260	0	0.0666667
3261	0	0.0666667
3262	0	0.0666667
3263	0	0.0666667
3264	0	0.0666667
3265	0	0.0666667
3266	0	0.0666667
3267	0	0.0666667
3268	0	0.0666667
3269	0	0.0666667
3270	0	0.0666667
3271	0	0.0666667
3272	0	0.0666667
3273	0	0.0666667
3274	0	0.0666667
3275	0	0.0666667
3276	0	0.0666667
3277	0	0.1
3278	0	0.1
3279	0	0.1
3280	0	0.1
3281	0	0.1
3282	0	0.1
3283	0	0.1
3284	0	0.1
3285	0	0.1
3286	0	0.1
3287	0	0.1
3288	0	0.0666667
3289	0	0.0666667
3290	0	0.047619
3291	0	0.047619
3292	0	0.047619
3293	0	0.047619
3294	0	0.047619
3295	0	0
3296	0	0.047619
3297	0	0.047619
3298	0	0.047619
3299	0	0.047619
3300	0	0.047619
3301	0	0.0357143
3302	0	0.047619
3303	0	0.0357143
3304	0	0.0357143
3305	0	0.0357143
3306	0	0.0357143
3307	0	0.047619
3308	0	0.0357143
3309	0	0.0357143
3310	0	0.047619
3311	0	0.047619
3312	0	0.047619
3313	0	0.155556
3314	0	0.381818
3315	0	0.358974
3316	0	0.358974
3317	0	0.318681
3318	0	0.573529
3319	0	0.509804
3320	0	0.532164
3321	0	0.371542
3322	0	0.53202
3323	0	0.806083
3324	0	0.979819
3325	0	0
3326	0	0
3327	0	0
3328	0	0
3329	0	0
3330	0	0
3331	0	0
3332	0	0
3333	0	0
3334	0	0
3335	0	0
3336	0	0
3337	0	0
3338	0	0
3339	0	0
3340	0	0
3341	0	0
3342	0	0
3343	0	0
3344	0	0
3345	0	0
3346	0	0
3347	0	0
3348	0	0
3349	0	0
3350	0	0
3351	0	0
3352	0	0
3353	0	0
3354	0	0
3355	0	0
3356	0	0
3357	0	0
3358	0	0
3359	0	0
3360	0	0
3361	0	0
3362	0	0
3363	0	0
3364	0	0
3365	0	0
3366	0	0
3367	0	0
3368	0	0
3369	0	0
3370	0	0
3371	0	0
3372	0	0
3373	0	0
3374	0	0
3375	0	0
3376	0	0
3377	0	0
3378	0	0
3379	0	0
3380	0	0
3381	0	0
3382	0	0
3383	0	0
3384	0	0
3385	0	0
3386	0	0
3387	0	0.94906
3388	0	0.970232
3389	0	0.970206
3390	0	0.166667
3391	0	0.166667
3392	0	0.166667
3393	0	0.166667
3394	0	0.166667
3395	0	0.1
3396	0	0.1
3397	0	0.1
3398	0	0.1
3399	0	0.0666667
3400	0	0.047619
3401	0	0.0357143
3402	0	0.0357143
3403	0	0.0357143
3404	0	0.0357143
3405	0	0.0277778
3406	0	0.0277778
3407	0	0.0222222
3408	0	0.0222222
3409	0	0.0222222
3410	0	0.264822
3411	0	0.940673
3412	0	0.937233
3413	0	0
3414	0	0
3415	0	0
3416	0	0
3417	0	0
3418	0	0
3419	0	0
3420	0	0
3421	0	0
3422	0	0
3423	0	0
3424	0	0
3425	0	0
3426	0	0
3427	0	0
3428	0	0
3429	0	0
3430	0	0
3431	0	0
3432	0	0
3433	0	0
3434	0	0
3435	0	0
3436	0	0
3437	0	0
3438	0	0
3439	0	0
3440	0	0
3441	0	0
3442	0	0
3443	0	0
3444	0	0
3445	0	0
3446	0	0
3447	0	0
3448	0	0
3449	0	0
3450	0	0
3451	0	0
3452	0	0
3453	0	0
3454	0	0
3455	0	0
3456	0	0
3457	0	0
3458	0	0
3459	0	0
3460	0	0
3461	0	0
3462	0	0
3463	0	0
3464	0	0
3465	0	0
3466	0	0
3467	0	0
3468	0	0
3469	0	0
3470	0	0
3471	0	0
3472	0	0
3473	0	0
3474	0	0
3475	0	0
3476	0	0
3477	0	0
3478	0	0
3479	0	0
3480	0	0
3481	0	0
3482	0	0
3483	0	0
3484	0	0
3485	0	0
3486	0	0
3487	0	0
3488	0	0
3489	0	0
3490	0	0
3491	0	0
3492	0	0
3493	0	0
3494	0	0
3495	0	0
3496	0	0
3497	0	0
3498	0	0
3499	0	0
3500	0	0
3501	0	0
3502	0	0
3503	0	0
3504	0	0
3505	0	0
3506	0	0
3507	0	0
3508	0	0
3509	0	0
3510	0	0
3511	0	0
3512	0	0
3513	0	0
3514	0	0
3515	0	0
3516	0	0
3517	0	0
3518	1	0
3519	1	0
3520	0	0
3521	0	0
3522	0	0
3523	0	0
3524	0	0
3525	0	0
3526	0	0
3527	0	0
3528	0	0
3529	0	0
3530	0	0
3531	0	0
3532	0	0
3533	0	0
3534	0	0
3535	0	0
3536	0	0
3537	0	0
3538	0	0
3539	0	0
3540	0	0
3541	0	0
3542	0	0
3543	0	0
3544	0	0
3545	0	0
3546	0	0
3547	0	0
3548	0	0
3549	0	0
3550	0	0
3551	0	0
3552	0	0
3553	0	0
3554	0	0
3555	0	0
3556	0	0
3557	0	0
3558	0	0
3559	0	0
3560	0	0
3561	0	0
3562	0	0
3563	0	0
3564	0	0
3565	0	0
3566	0	0
3567	0	0
3568	0	0
3569	0	0
3570	0	0
3571	0	0
3572	0	0
3573	0	0
3574	0	0
3575	0	0
3576	0	0
3577	0	0
3578	0	0
3579	0	0
3580	0	0
3581	0	0
3582	0	0
3583	0	0
3584	0	0
3585	0	0
3586	0	0
3587	0	0
3588	0	0
3589	0	0
3590	0	0
3591	0	0
3592	0	0
3593	0	0
3594	0	0
3595	0	0
3596	0	0
3597	0	0
3598	0	0
3599	0	0
3600	0	0
3601	0	0
3602	0	0
3603	0	0
3604	0	0
3605	0	0
3606	0	0
3607	0	0
3608	0	0
3609	0	0
3610	0	0
3611	0	0
3612	0	0
3613	0	0
3614	0	0
3615	0	0
3616	0	0
3617	0	0
3618	0	0
3619	0	0
3620	0	0
3621	0	0
3622	0	0
3623	0	0
3624	0	0
3625	0	0
3626	0	0
3627	0	0
3628	0	0
3629	0	0
3630	0	0
3631	0	0
3632	0	0
3633	0	0
3634	0	0
3635	0	0
3636	0	0
3637	0	0
3638	0	0
3639	0	0
3640	0	0
3641	0	0
3642	0	0
3643	0	0
3644	0	0
3645	0	0
3646	0	0
3647	0	0
3648	0	0
3649	0	0
3650	0	0
3651	0	0
3652	0	0
3653	0	0
3654	0	0
3655	0	0
3656	0	0
3657	0	0
3658	0	0
3659	0	0
3660	0	0
3661	0	0
3662	0	0
3663	0	0
3664	0	0
3665	0	0
3666	0	0
3667	0	0
3668	0	0
3669	0	0
3670	0	0
3671	0	0
3672	0	0
3673	0	0
3674	0	0
3675	0	0
3676	0	0
3677	0	0
3678	0	0
3679	0	0
3680	0	0
3681	0	0
3682	0	0
3683	0	0
3684	0	0
3685	0	0
3686	0	0
3687	0	0
3688	0	0
3689	0	0
3690	0	0
3691	0	0
3692	0	0
3693	0	0
3694	0	0
3695	0	0
3696	0	0
3697	0	0
3698	0	0
3699	0	0
3700	0	0
3701	0	0
3702	0	0
3703	0	0
3704	0	0
3705	0	0
3706	0	0
3707	0	0
3708	0	0
3709	0	0
3710	0	0
3711	0	0
3712	0	0
3713	0	0
3714	0	0
3715	0	0
3716	0	0
3717	0	0
3718	0	0
3719	0	0
3720	0	0
3721	0	0
3722	0	0
3723	0	0
3724	0	0
3725	0	0
3726	0	0
3727	0	0
3728	0	0
3729	0	0
3730	0	0
3731	0	0
3732	0	0
3733	0	0
3734	0	0
3735	0	0
3736	0	0
3737	0	0
3738	0	0
3739	0	0
3740	0	0
3741	0	0
3742	0	0
3743	0	0
3744	0	0
3745	0	0
3746	0	0
3747	0	0
3748	0	0
3749	0	0
3750	0	0
3751	0	0
3752	0	0
3753	0	0
3754	0	0
3755	0	0
3756	0	0
3757	0	0
3758	0	0
3759	0	0
3760	0	0
3761	0	0
3762	0	0
3763	0	0
3764	0	0
3765	0	0
3766	0	0
3767	0	0
3768	0	0
3769	0	0
3770	0	0
3771	0	0
3772	0	0
3773	0	0
3774	0	0
3775	0	0
3776	0	0
3777	0	0
3778	0	0
3779	0	0
3780	0	0
3781	0	0
3782	0	0
3783	0	0
3784	0	0
3785	0	0
3786	0	0
3787	0	0
3788	0	0
3789	0	0
3790	0	0
3791	0	0
3792	0	0
3793	0	0
3794	0	0
3795	0	0
3796	0	0
3797	0	0
3798	0	0
3799	0	0
3800	0	0
3801	0	0
3802	0	0
3803	0	0
3804	0	0
3805	0	0
3806	0	0
3807	0	0
3808	0	0
3809	0	0
3810	0	0
3811	0	0
3812	0	0
3813	0	0
3814	0	0
3815	0	0
3816	0	0
3817	0	0
3818	0	0
3819	0	0
3820	0	0
3821	0	0
3822	0	0
3823	0	0
3824	0	0
3825	0	0
3826	0	0
3827	0	0
3828	0	0
3829	0	0
3830	0	0
3831	0	0
3832	0	0
3833	0	0
3834	0	0
3835	0	0
3836	0	0
3837	0	0
3838	0	0
3839	0	0
3840	0	0
3841	0	0
3842	0	0
3843	0	0
3844	0	0
3845	0	0
3846	0	0
3847	0	0
3848	0	0
3849	0	0
3850	0	0
3851	0	0
3852	0	0
3853	0	0
3854	0	0
3855	0	0
3856	0	0
3857	0	0
3858	0	0
3859	0	0
3860	0	0
3861	0	0
3862	0	0
3863	0	0
3864	0	0
3865	0	0
3866	0	0
3867	0	0
3868	0	0
3869	0	0
3870	0	0
3871	0	0
3872	0	0
3873	0	0
3874	0	0
3875	0	0
3876	0	0
3877	0	0
3878	0	0
3879	0	0
3880	0	0
3881	0	0
3882	0	0
3883	0	0
3884	0	0
3885	0	0
3886	0	0
3887	0	0
3888	0	0
3889	0	0
3890	0	0
3891	0	0
3892	0	0
3893	0	0
3894	0	0
3895	0	0
3896	0	0
3897	0	0
3898	0	0
3899	0	0
3900	0	0
3901	0	0
3902	0	0
3903	0	0
3904	0	0
3905	0	0
3906	0	0
3907	0	0
3908	0	0
3909	0	0
3910	0	0
3911	0	0
3912	0	0
3913	0	0
3914	0	0
3915	0	0
3916	0	0
3917	0	0
3918	0	0
3919	0	0
3920	0	0
3921	0	0
3922	0	0
3923	0	0
3924	0	0
3925	0	0
3926	0	0
3927	0	0
3928	0	0
3929	0	0
3930	0	0
3931	0	0
3932	0	0
3933	0	0
3934	0	0
3935	0	0
3936	0	0
3937	0	0
3938	0	0
3939	0	0
3940	0	0
3941	0	0
3942	0	0
3943	0	0
3944	0	0
3945	0	0
3946	0	0
3947	0	0
3948	0	0
3949	0	0
3950	0	0
3951	0	0
3952	0	0
3953	0	0
3954	0	0
3955	0	0
3956	0	0
3957	0	0
3958	0	0
3959	0	0
3960	0	0
3961	0	0
3962	0	0
3963	0	0
3964	0	0
3965	0	0
3966	0	0
3967	0	0
3968	0	0
3969	0	0
3970	0	0
3971	0	0
3972	0	0
3973	0	0
3974	0	0
3975	0	0
3976	0	0
3977	0	0
3978	0	0
3979	0	0
3980	0	0
3981	0	0
3982	0	0
3983	0	0
3984	0	0
3985	0	0
3986	0	0
3987	0	0
3988	0	0
3989	0	0
3990	0	0
3991	0	0
3992	0	0
3993	0	0
3994	0	0
3995	0	0
3996	0	0
3997	0	0
3998	0	0
3999	0	0
4000	0	0
4001	0	0
4002	0	0
4003	0	0
4004	0	0
4005	0	0
4006	0	0
4007	0	0
4008	0	0
4009	0	0
4010	0	0
4011	0	0
4012	0	0
4013	0	0
4014	0	0
4015	0	0
4016	0	0
4017	0	0
4018	0	0
4019	0	0
4020	0	0
4021	0	0
4022	0	0
4023	0	0
4024	0	0
4025	0	0
4026	0	0
4027	0	0
4028	0	0
4029	0	0
4030	0	0
4031	0	0
4032	0	0
4033	0	0
4034	0	0
4035	0	0
4036	0	0
4037	0	0
4038	0	0
4039	0	0
4040	0	0
4041	0	0
4042	0	0
4043	0	0
4044	0	0
4045	0	0
4046	0	0
4047	0	0
4048	0	0
4049	0	0
4050	0	0
4051	0	0
4052	0	0
4053	0	0
4054	0	0
4055	0	0
4056	0	0
4057	0	0
4058	0	0
4059	0	0
4060	0	0
4061	0	0
4062	0	0
4063	0	0
4064	0	0
4065	0	0
4066	0	0
4067	0	0
4068	0	0
4069	0	0
4070	0	0
4071	0	0
4072	0	0
4073	0	0
4074	0	0
4075	0	0
4076	0	0
4077	0	0
4078	0	0
4079	0	0
4080	0	0
4081	0	0
4082	0	0
4083	0	0
4084	0	0
4085	0	0
4086	0	0
4087	0	0
4088	0	0
4089	0	0
4090	0	0
4091	0	0
4092	0	0
4093	0	0
4094	0	0
4095	0	0
4096	0	0
4097	0	0
4098	0	0
4099	0	0
4100	0	0
4101	0	0
4102	0	0
4103	0	0
4104	0	0
4105	0	0
4106	0	0
4107	0	0
4108	0	0
4109	0	0
4110	0	0
4111	0	0
4112	0	0
4113	0	0
4114	0	0
4115	0	0
4116	0	0
4117	0	0
4118	0	0
4119	0	0
4120	0	0
4121	0	0
4122	0	0
4123	0	0
4124	0	0
4125	0	0
4126	0	0
4127	0	0
4128	0	0
4129	0	0
4130	0	0
4131	0	0
4132	0	0
4133	0	0
4134	0	0
4135	0	0
4136	0	0
4137	0	0
4138	0	0
4139	0	0
4140	0	0
4141	0	0
4142	0	0
4143	0	0
4144	0	0
4145	0	0
4146	0	0
4147	0	0
4148	0	0
4149	0	0
4150	0	0
4151	0	0
4152	0	0
4153	0	0
4154	0	0
4155	0	0
4156	0	0
4157	0	0
4158	0	0
4159	0	0
4160	0	0
4161	0	0
4162	0	0
4163	0	0
4164	0	0
4165	0	0
4166	0	0
4167	0	0
4168	0	0
4169	0	0
4170	0	0
4171	0	0
4172	0	0
4173	0	0
4174	0	0
4175	0	0
4176	0	0
4177	0	0
4178	0	0
4179	0	0
4180	0	0
4181	0	0
4182	0	0
4183	0	0
4184	0	0
4185	0	0
4186	0	0
4187	0	0
4188	0	0
4189	0	0
4190	0	0
4191	0	0
4192	0	0.960804
4193	0	0
4194	0	0
4195	0	0
4196	0	0
4197	0	0
4198	0	0
4199	0	0
4200	0	0
4201	0	0
4202	0	0
4203	0	0
4204	0	0
4205	0	0
4206	0	0
4207	0	0
4208	0	0
4209	0	0
4210	0	0
4211	0	0
4212	0	0.047619
4213	0	0
4214	0	0
4215	0	0
4216	0	0
4217	0	0
4218	0	0
4219	0	0
4220	0	0
4221	0	0
4222	0	0
4223	0	0
4224	0	0
4225	0	0
4226	0	0
4227	0	0
4228	0	0
4229	0	0
4230	0	0
4231	0	0
4232	0	0
4233	0	0
4234	0	0
4235	0	0
4236	0	0
4237	0	0
4238	0	0
4239	0	0
4240	0	0
4241	0	0
4242	0	0
4243	0	0
4244	0	0
4245	0	0
4246	0	0
4247	0	0
4248	0	0
4249	0	0
4250	0	0
4251	0	0
4252	0	0.803694
4253	0	0.486265
4254	0	0.333333
4255	0	0
4256	0	0
4257	0	0
4258	0	0
4259	0	0
4260	0	0
4261	0	0
4262	0	0
4263	0	0
4264	0	0
4265	0	0
4266	0	0
4267	0	0
4268	0	0
4269	0	0
4270	0	0
4271	0	0
4272	0	0
4273	0	0
4274	0	0
4275	0	0
4276	0	0
4277	0	0
4278	0	0
4279	0	0
4280	0	0
4281	0	0
4282	0	0
4283	0	0
4284	0	0
4285	0	0
4286	0	0
4287	0	0
4288	0	0
4289	0	0
4290	0	0
4291	0	0
4292	0	0
4293	0	0
4294	0	0
4295	0	0
4296	0	0
4297	0	0
4298	0	0
4299	0	0
4300	0	0
4301	0	0
4302	0	0
4303	0	0
4304	0	0
4305	0	0
4306	0	0
4307	0	0
4308	0	0
4309	0	0
4310	0	0
4311	0	0
4312	0	0
4313	0	0
4314	0	0
4315	0	0
4316	0	0
4317	0	0
4318	0	0
4319	0	0
4320	0	0
4321	0	0
4322	0	0
4323	0	0
4324	0	0
4325	0	0
4326	0	0
4327	0	0
4328	0	0
4329	0	0
4330	0	0
4331	0	0
4332	0	0
4333	0	0
4334	0	0
4335	0	0
4336	0	0
4337	0	0
4338	0	0
4339	0	0
4340	0	0
4341	0	0
4342	0	0
4343	0	0
4344	0	0
4345	0	0
4346	0	0
4347	0	0
4348	0	0
4349	0	0
4350	0	0
4351	0	0
4352	0	0
4353	0	0
4354	0	0
4355	0	0
4356	0	0
4357	0	0
4358	0	0
4359	0	0
4360	0	0
4361	0	0
4362	0	0
4363	0	0
4364	0	0
4365	0	0
4366	0	0
4367	0	0
4368	0	0
4369	0	0
4370	0	0
4371	0	0
4372	0	0
4373	0	0
4374	0	0
4375	0	0
4376	0	0
4377	0	0
4378	0	0
4379	0	0
4380	0	0
4381	0	0
4382	0	0
4383	0	0
4384	0	0
4385	0	0
4386	0	0
4387	0	0
4388	0	0
4389	0	0
4390	0	0
4391	0	0
4392	0	0
4393	0	0
4394	0	0
4395	0	0
4396	0	0
4397	0	0
4398	0	0
4399	0	0
4400	0	0
4401	0	0
4402	0	0
4403	0	0
4404	0	0
4405	0	0
4406	0	0
4407	0	0
4408	0	0
4409	0	0
4410	0	0
4411	0	0
4412	0	0
4413	0	0
4414	0	0
4415	0	0
4416	0	0
4417	0	0
4418	0	0
4419	0	0
4420	0	0
4421	0	0
4422	0	0
4423	0	0
4424	0	0
4425	0	0
4426	0	0
4427	0	0
4428	0	0
4429	0	0
4430	0	0
4431	0	0
4432	0	0
4433	0	0
4434	0	0
4435	0	0
4436	0	0
4437	0	0
4438	0	0
4439	0	0
4440	0	0
4441	0	0
4442	0	0
4443	0	0
4444	0	0
4445	0	0
4446	0	0
4447	0	0
4448	0	0
4449	0	0
4450	0	0
4451	0	0
4452	0	0
4453	0	0
4454	0	0
4455	0	0
4456	0	0
4457	0	0
4458	0	0
4459	0	0
4460	0	0
4461	0	0
4462	0	0
4463	0	0
4464	0	0
4465	0	0
4466	0	0
4467	0	0
4468	0	0
4469	0	0
4470	0	0
4471	0	0
4472	0	0
4473	0	0
4474	0	0
4475	0	0
4476	0	0
4477	0	0
4478	0	0
4479	0	0
4480	0	0
4481	0	0
4482	0	0
4483	0	0
4484	0	0
4485	0	0
4486	0	0
4487	0	0
4488	0	0
4489	0	0
4490	0	0
4491	0	0
4492	0	0
4493	0	0
4494	0	0
4495	0	0
4496	0	0
4497	0	0
4498	0	0
4499	0	0
4500	0	0
4501	0	0
4502	0	0
4503	0	0
4504	0	0
4505	0	0
4506	0	0
4507	0	0
4508	0	0
4509	0	0
4510	0	0
4511	0	0
4512	0	0
4513	0	0
4514	0	0
4515	0	0
4516	0	0
4517	0	0
4518	0	0
4519	0	0
4520	0	0
4521	0	0
4522	0	0
4523	0	0
4524	0	0
4525	0	0
4526	0	0
4527	0	0
4528	0	0
4529	0	0
4530	0	0
4531	0	0
4532	0	0
4533	0	0
4534	0	0
4535	0	0
4536	0	0
4537	0	0
4538	0	0
4539	0	0
4540	0	0
4541	0	0
4542	0	0
4543	0	0
4544	0	0
4545	0	0
4546	0	0
4547	0	0
4548	0	0
4549	0	0
4550	0	0
4551	0	0
4552	0	0
4553	0	0
4554	0	0
4555	0	0
4556	0	0
4557	0	0
4558	0	0
4559	0	0
4560	0	0
4561	0	0
4562	0	0
4563	0	0
4564	0	0
4565	0	0
4566	0	0
4567	0	0
4568	0	0
4569	0	0
4570	0	0
4571	0	0
4572	0	0
4573	0	0
4574	0	0
4575	0	0
4576	0	0
4577	0	0
4578	0	0
4579	0	0
4580	0	0
4581	0	0
4582	0	0
4583	0	0
4584	0	0
4585	0	0
4586	0	0
4587	0	0
4588	0	0
4589	0	0
4590	0	0
4591	0	0
4592	0	0
4593	0	0
4594	0	0
4595	0	0
4596	0	0
4597	0	0
4598	0	0
4599	0	0
4600	0	0
4601	0	0
4602	0	0
4603	0	0
4604	0	0
4605	0	0
4606	0	0
4607	0	0
4608	0	0
4609	0	0
4610	0	0
4611	0	0
4612	0	0
4613	0	0
4614	0	0
4615	0	0
4616	0	0
4617	0	0
4618	0	0
4619	0	0
4620	0	0
4621	0	0
4622	1	0
4623	1	0
4624	0	0
4625	0	0
4626	0	0
4627	0	0
4628	0	0
4629	0	0
4630	0	0
4631	0	0
4632	0	0
4633	0	0
4634	0	0
4635	0	0
4636	0	0
4637	0	0
4638	0	0
4639	0	0
4640	0	0
4641	0	0
4642	0	0
4643	0	0
4644	0	0
4645	0	0
4646	0	0
4647	0	0
4648	0	0
4649	0	0
4650	0	0
4651	0	0
4652	0	0
4653	0	0
4654	0	0
4655	0	0
4656	0	0
4657	0	0
4658	0	0
4659	0	0
4660	0	0
4661	0	0
4662	0	0
4663	0	0
4664	0	0
4665	0	0
4666	0	0
4667	0	0
4668	0	0
4669	0	0
4670	0	0
4671	0	0
4672	0	0
4673	0	0
4674	0	0
4675	0	0
4676	0	0
4677	0	0
4678	0	0
4679	0	0
4680	0	0
4681	0	0
4682	0	0
4683	0	0
4684	0	0
4685	0	0
4686	0	0
4687	0	0
4688	0	0
4689	0	0
4690	0	0
4691	0	0
4692	0	0
4693	0	0
4694	0	0
4695	0	0
4696	0	0
4697	0	0
4698	0	0
4699	0	0
4700	0	0
4701	0	0
4702	0	0
4703	0	0
4704	0	0
4705	0	0
4706	0	0
4707	0	0
4708	0	0
4709	0	0
4710	0	0
4711	0	0
4712	0	0
4713	0	0
4714	0	0
4715	0	0
4716	0	0
4717	0	0
4718	0	0
4719	0	0
4720	0	0
4721	0	0
4722	0	0
4723	0	0
4724	0	0
4725	0	0
4726	0	0
4727	0	0
4728	0	0
4729	0	0
4730	0	0
4731	0	0
4732	0	0
4733	0	0
4734	0	0
4735	0	0
4736	0	0
4737	0	0
4738	0	0
4739	0	0
4740	0	0
4741	0	0
4742	0	0
4743	0	0
4744	0	0
4745	0	0
4746	0	0
4747	0	0
4748	0	0
4749	0	0
4750	0	0
4751	0	0
4752	0	0
4753	0	0
4754	0	0
4755	0	0
4756	0	0
4757	0	0
4758	0	0
4759	0	0
4760	0	0
4761	0	0
4762	0	0
4763	0	0
4764	0	0
4765	0	0
4766	0	0
4767	0	0
4768	0	0
4769	0	0
4770	0	0
4771	0	0
4772	0	0
4773	0	0
4774	0	0
4775	0	0
4776	0	0
4777	0	0
4778	0	0
4779	0	0
4780	0	0
4781	0	0
4782	0	0
4783	0	0
4784	0	0
4785	0	0
4786	0	0
4787	0	0
4788	0	0
4789	0	0
4790	0	0
4791	0	0
4792	0	0
4793	0	0
4794	0	0
4795	0	0
4796	0	0
4797	0	0
4798	0	0
4799	0	0
4800	0	0
4801	0	0
4802	0	0
4803	0	0
4804	0	0
4805	0	0
4806	0	0
4807	0	0
4808	0	0
4809	0	0
4810	0	0
4811	0	0
4812	0	0
4813	0	0
4814	0	0
4815	0	0
4816	0	0
4817	0	0
4818	0	0
4819	0	0
4820	0	0
4821	0	0
4822	0	0
4823	0	0
4824	0	0
4825	0	0
4826	0	0
4827	0	0
4828	0	0
4829	0	0
4830	0	0
4831	0	0
4832	0	0
4833	0	0
4834	0	0
4835	0	0
4836	0	0
4837	0	0
4838	0	0
4839	0	0
4840	0	0
4841	0	0
4842	0	0
4843	0	0
4844	0	0
4845	0	0
4846	0	0
4847	0	0
4848	0	0
4849	0	0
4850	0	0
4851	0	0
4852	0	0
4853	0	0
4854	0	0
4855	0	0
4856	0	0
4857	0	0
4858	0	0
4859	0	0
4860	0	0
4861	0	0
4862	0	0
4863	0	0
4864	0	0
4865	0	0
4866	0	0
4867	0	0
4868	0	0
4869	0	0
4870	0	0
4871	0	0
4872	0	0
4873	0	0
4874	0	0
4875	0	0
4876	0	0
4877	0	0
4878	0	0
4879	0	0
4880	0	0
4881	0	0
4882	0	0
4883	0	0
4884	0	0
4885	0	0
4886	0	0
4887	0	0
4888	0	0
4889	0	0
4890	0	0
4891	0	0
4892	0	0
4893	0	0
4894	0	0
4895	0	0
4896	0	0
4897	0	0
4898	0	0
4899	0	0
4900	0	0
4901	0	0
4902	0	0
4903	0	0
4904	0	0
4905	0	0
4906	0	0
4907	0	0
4908	0	0
4909	0	0
4910	0	0
4911	0	0
4912	0	0
4913	0	0
4914	0	0
4915	0	0
4916	0	0
4917	0	0
4918	0	0
4919	0	0
4920	0	0
4921	0	0
4922	0	0
4923	0	0
4924	0	0
4925	0	0
4926	0	0
4927	0	0
4928	0	0
4929	0	0
4930	0	0
4931	0	0
4932	0	0
4933	0	0
4934	0	0
4935	0	0
4936	0	0
4937	0	0
4938	0	0
4939	0	0
4940	0	0
4941	0	0
4942	0	0
4943	0	0
4944	0	0
4945	0	0
4946	0	0
4947	0	0
4948	0	0
4949	0	0
4950	0	0
4951	0	0
4952	0	0
4953	0	0
4954	0	0
4955	0	0
4956	0	0
4957	0	0
4958	0	0
4959	0	0
4960	0	0
4961	0	0
4962	0	0
4963	0	0
4964	0	0
4965	0	0
4966	0	0
4967	0	0
4968	0	0
4969	0	0
4970	0	0
4971	0	0
4972	0	0
4973	0	0
4974	0	0
4975	0	0
4976	0	0
4977	0	0
4978	0	0
4979	0	0
4980	0	0
4981	0	0
4982	0	0
4983	0	0
4984	0	0
4985	1	0
4986	0	0
4987	0	0
4988	0	0
4989	0	0
4990	0	0
4991	0	0
4992	0	0
4993	0	0
4994	0	0
4995	0	0
4996	0	0
4997	0	0
4998	0	0
4999	0	0
5000	0	0
5001	0	0
5002	0	0
5003	0	0
5004	0	0
5005	0	0
5006	0	0
5007	0	0
5008	0	0
5009	0	0
5010	0	0
5011	0	0
5012	0	0
5013	0	0
5014	0	0
5015	0	0
5016	0	0
5017	0	0
5018	0	0
5019	0	0
5020	0	0
5021	0	0
5022	0	0
5023	0	0
5024	0	0
5025	0	0
5026	0	0
5027	0	0
5028	0	0
5029	0	0
5030	0	0
5031	0	0
5032	0	0
5033	0	0
5034	0	0
5035	0	0
5036	0	0
5037	0	0
5038	0	0
5039	0	0
5040	0	0
5041	0	0
5042	0	0
5043	0	0
5044	0	0
5045	0	0
5046	0	0
5047	0	0
5048	0	0
5049	0	0
5050	0	0
5051	0	0
5052	0	0
5053	0	0
5054	0	0
5055	0	0
5056	0	0
5057	0	0
5058	0	0
5059	0	0
5060	0	0
5061	0	0
5062	0	0
5063	0	0.934039
5064	0	0
5065	0	0
5066	0	0
5067	0	0
5068	0	0.333333
5069	0	0.333333
5070	0	0.940602
5071	0	0
5072	0	0
5073	0	0
5074	0	0
5075	0	0
5076	0	0
5077	0	0
5078	0	0
5079	0	0
5080	0	0
5081	0	0
5082	0	0
5083	0	0
5084	0	0
5085	0	0
5086	0	0
5087	0	0
5088	0	0
5089	0	0
5090	0	0
5091	0	0
5092	0	0
5093	0	0
5094	0	0
5095	0	0
5096	0	0
5097	0	0
5098	0	0
5099	0	0
5100	0	0
5101	0	0
5102	0	0
5103	0	0
5104	0	0
5105	0	0
5106	0	0
5107	0	0
5108	0	0
5109	0	0
5110	0	0
5111	0	0
5112	0	0
5113	0	0
5114	0	0
5115	0	0
5116	0	0
5117	0	0
5118	0	0
5119	0	0
5120	0	0
5121	0	0
5122	0	0
5123	0	0
5124	0	0
5125	0	0
5126	0	0
5127	0	0
5128	0	0
5129	0	0
5130	0	0
5131	0	0
5132	0	0
5133	0	0
5134	0	0
5135	0	0
5136	0	0
5137	0	0
5138	0	0
5139	0	0
5140	0	0
5141	0	0
5142	0	0
5143	0	0
5144	0	0
5145	0	0
5146	0	0
5147	0	0
5148	0	0
5149	0	0
5150	0	0
5151	0	0
5152	0	0
5153	0	0
5154	0	0
5155	0	0
5156	0	0
5157	0	0
5158	0	0
5159	0	0
5160	0	0
5161	0	0
5162	0	0
5163	0	0
5164	0	0
5165	0	0
5166	0	0
5167	0	0
5168	0	0
5169	0	0
5170	0	0
5171	0	0
5172	0	0
5173	0	0
5174	0	0
5175	0	0
5176	0	0
5177	0	0
5178	0	0
5179	0	0
5180	0	0
5181	0	0
5182	0	0
5183	0	0
5184	0	0
5185	0	0
5186	0	0
5187	0	0
5188	0	0
5189	0	0
5190	0	0
5191	0	0
5192	0	0
5193	0	0
5194	0	0
5195	0	0
5196	0	0
5197	0	0
5198	0	0
5199	0	0
5200	0	0
5201	0	0
5202	0	0
5203	0	0
5204	0	0
5205	0	0
5206	0	0
5207	0	0
5208	0	0
5209	0	0
5210	0	0
5211	0	0
5212	0	0
5213	0	0
5214	0	0
5215	0	0
5216	0	0
5217	0	0
5218	0	0
5219	0	0
5220	0	0
5221	0	0
5222	0	0
5223	0	0
5224	0	0
5225	0	0
5226	0	0
5227	0	0
5228	0	0
5229	0	0
5230	0	0
5231	0	0
5232	0	0
5233	0	0
5234	0	0
5235	0	0
5236	0	0
5237	0	0
5238	0	0
5239	0	0
5240	0	0
5241	0	0
5242	0	0
5243	0	0
5244	0	0
5245	0	0
5246	0	0
5247	0	0
5248	0	0
5249	0	0
5250	0	0
5251	0	0
5252	0	0
5253	0	0
5254	0	0
5255	0	0
5256	0	0
5257	0	0
5258	0	0
5259	0	0
5260	0	0
5261	0	0
5262	0	0
5263	0	0
5264	0	0
5265	0	0
5266	0	0
5267	0	0
5268	0	0
5269	0	0
5270	0	0
5271	0	0
5272	0	0
5273	0	0
5274	0	0
5275	0	0
5276	0	0
5277	0	0
5278	0	0
5279	0	0
5280	0	0
5281	0	0
5282	0	0
5283	0	0
5284	0	0
5285	0	0
5286	0	0
5287	0	0
5288	0	0
5289	0	0
5290	0	0
5291	0	0
5292	0	0
5293	0	0
5294	0	0
5295	0	0
5296	0	0
5297	0	0
5298	0	0
5299	0	0
5300	0	0
5301	0	0
5302	0	0
5303	0	0
5304	0	0
5305	0	0
5306	0	0
5307	0	0
5308	0	0
5309	0	0
5310	0	0
5311	0	0
5312	0	0
5313	0	0
5314	0	0
5315	0	0
5316	0	0
5317	0	0
5318	0	0
5319	0	0
5320	0	0
5321	0	0
5322	0	0
5323	0	0
5324	0	0
5325	0	0
5326	0	0
5327	0	0
5328	0	0
5329	0	0
5330	0	0
5331	0	0
5332	0	0
5333	0	0
5334	0	0
5335	0	0
5336	0	0
5337	0	0
5338	0	0
5339	0	0
5340	0	0
5341	0	0
5342	0	0
5343	0	0
5344	0	0
5345	0	0
5346	0	0
5347	0	0
5348	0	0
5349	0	0
5350	0	0
5351	0	0
5352	0	0
5353	0	0
5354	0	0
5355	0	0
5356	0	0
5357	0	0
5358	0	0
5359	0	0
5360	0	0
5361	0	0
5362	0	0
5363	0	0
5364	0	0
5365	0	0
5366	0	0
5367	0	0
5368	0	0
5369	0	0
5370	0	0
5371	0	0
5372	0	0
5373	0	0
5374	0	0
5375	0	0
5376	0	0
5377	0	0
5378	0	0
5379	0	0
5380	0	0
5381	0	0
5382	0	0
5383	0	0
5384	0	0
5385	0	0
5386	0	0
5387	0	0
5388	0	0
5389	0	0
5390	0	0
5391	0	0
5392	0	0
5393	0	0
5394	0	0
5395	0	0
5396	0	0
5397	0	0
5398	0	0
5399	0	0
5400	0	0
5401	0	0
5402	0	0
5403	0	0
5404	0	0
5405	0	0
5406	0	0
5407	0	0
5408	0	0
5409	0	0
5410	0	0
5411	0	0
5412	0	0
5413	0	0
5414	0	0
5415	0	0
5416	0	0
5417	0	0
5418	0	0
5419	0	0
5420	0	0
5421	0	0
5422	0	0
5423	0	0
5424	0	0
5425	0	0
5426	0	0
5427	0	0
5428	0	0.487096
5429	0	0.940023
5430	0	0.913207
5431	0	0.0578947
5432	0	0.0522876
5433	0	0.0457516
5434	0	0.0326797
5435	0	0.0326797
5436	0	0.0367647
5437	0	0.0367647
5438	0	0.021978
5439	0	0.021978
5440	0	0.021978
5441	0	0.021978
5442	0	0.021978
5443	0	0.010989
5444	0	0.0128205
5445	0	0.0128205
5446	0	0.0128205
5447	0	0.0128205
5448	0	0.0128205
5449	0	0.025641
5450	0	0.0222222
5451	0	0.0222222
5452	0	0.0222222
5453	0	0
5454	0	0
5455	0	0
5456	0	0.0222222
5457	0	0.0222222
5458	0	0.0222222
5459	0	0.0222222
5460	0	0.0222222
5461	0	0.0222222
5462	0	0.0222222
5463	0	0.0222222
5464	0	0.0222222
5465	0	0.0222222
5466	0	0.0222222
5467	0	0.0277778
5468	0	0.0277778
5469	0	0.0277778
5470	0	0.0277778
5471	0	0.0277778
5472	0	0.0277778
5473	0	0.0277778
5474	0	0.0277778
5475	0	0.0277778
5476	0	0.0277778
5477	0	0.0277778
5478	0	0.0277778
5479	0	0.0277778
5480	0	0.0277778
5481	0	0.0277778
5482	0	0.0277778
5483	0	0.0277778
5484	0	0.0277778
5485	0	0
5486	0	0
5487	0	0
5488	0	0
5489	0	0
5490	0	0.047619
5491	0	0.0666667
5492	0	0.0666667
5493	0	0.0666667
5494	0	0.0666667
5495	0	0.0666667
5496	0	0.0666667
5497	0	0.0666667
5498	0	0.0666667
5499	0	0.0666667
5500	0	0.0666667
5501	0	0.0666667
5502	0	0.0666667
5503	0	0.0666667
5504	0	0.0666667
5505	0	0.0666667
5506	0	0.0666667
5507	0	0.0666667
5508	0	0.0666667
5509	0	0
5510	0	0
5511	0	0
5512	0	0
5513	0	0
5514	0	0
5515	0	0
5516	0	0
5517	0	0
5518	0	0
5519	0	0
5520	0	0
5521	0	0
5522	0	0
5523	0	0
5524	0	0
5525	0	0
5526	0	0
5527	0	0
5528	0	0
5529	0	0
5530	0	0
5531	0	0
5532	0	0
5533	0	0
5534	0	0
5535	0	0
5536	0	0
5537	0	0
5538	0	0
5539	0	0
5540	0	0
5541	0	0
5542	0	0
5543	0	0
5544	0	0
5545	0	0
5546	0	0
5547	0	0
5548	0	0
5549	0	0
5550	0	0
5551	0	0
5552	0	0.878867
5553	0	0.447915
5554	0	0
5555	0	0
5556	0	0
5557	0	0
5558	0	0
5559	0	0
5560	0	0
5561	0	0
5562	0	0
5563	0	0
5564	0	0
5565	0	0
5566	0	0
5567	0	0
5568	0	0
5569	0	0
5570	0	0
5571	0	0
5572	0	0
5573	0	0
5574	0	0
5575	0	0
5576	0	0
5577	0	0
5578	0	0
5579	0	0
5580	0	0
5581	0	0
5582	0	0
5583	0	0
5584	0	0
5585	0	0
5586	0	0
5587	0	0
5588	0	0
5589	0	0
5590	0	0
5591	0	0
5592	0	0
5593	0	0
5594	0	0
5595	0	0
5596	0	0
5597	0	0
5598	0	0
5599	0	0
5600	0	0
5601	0	0
5602	0	0
5603	0	0
5604	0	0
5605	0	0
5606	0	0
5607	0	0
5608	0	0
5609	0	0
5610	0	0
5611	0	0
5612	0	0
5613	0	0
5614	0	0
5615	0	0
5616	0	0
5617	0	0
5618	0	0
5619	0	0
5620	0	0
5621	0	0
5622	0	0
5623	0	0
5624	0	0
5625	0	0
5626	0	0
5627	0	0
5628	0	0
5629	0	0
5630	0	0
5631	0	0
5632	0	0
5633	0	0
5634	0	0
5635	0	0
5636	0	0
5637	0	0
5638	0	0
5639	0	0
5640	0	0
5641	0	0
5642	0	0
5643	0	0
5644	0	0
5645	0	0
5646	0	0
5647	0	0
5648	0	0
5649	0	0
5650	0	0
5651	0	0
5652	0	0
5653	0	0
5654	0	0
5655	0	0
5656	0	0
5657	0	0
5658	0	0
5659	0	0
5660	0	0
5661	0	0
5662	0	0
5663	0	0
5664	0	0
5665	0	0
5666	0	0
5667	0	0
5668	0	0
5669	0	0
5670	0	0
5671	0	0
5672	0	0
5673	0	0
5674	0	0
5675	0	0
5676	0	0
5677	0	0
5678	0	0
5679	0	0
5680	0	0
5681	0	0
5682	0	0
5683	0	0
5684	0	0
5685	0	0
5686	0	0
5687	0	0
5688	0	0.1
5689	0	0.1
5690	0	0.1
5691	0	0.1
5692	0	0.1
5693	0	0.1
5694	0	0.1
5695	0	0.1
5696	0	0.1
5697	0	0.1
5698	0	0.1
5699	0	0.1
5700	0	0.1
5701	0	0.1
5702	0	0.1
5703	0	0.1
5704	0	0.1
5705	0	0.0666667
5706	0	0.0666667
5707	0	0.0666667
5708	0	0.0666667
5709	0	0.0666667
5710	0	0.0666667
5711	0	0.0666667
5712	0	0.0666667
5713	0	0.0666667
5714	0	0.0666667
5715	0	0.0666667
5716	0	0.0666667
5717	0	0.0666667
5718	0	0.0666667
5719	0	0.047619
5720	0	0.047619
5721	0	0.0357143
5722	0	0.0277778
5723	0	0.0222222
5724	0	0.442382
5725	0	0.444864
5726	0	0.1
5727	0	0.1
5728	0	0.1
5729	0	0.1
5730	0	0.1
5731	0	0.0666667
5732	0	0.0666667
5733	0	0.0666667
5734	0	0.0666667
5735	0	0.0666667
5736	0	0.0666667
5737	0	0.0666667
5738	0	0.0666667
5739	0	0.0666667
5740	0	0.0666667
5741	0	0.0666667
5742	0	0.0666667
5743	0	0.0666667
5744	0	0.0666667
5745	0	0.0666667
5746	0	0.0666667
5747	0	0.0666667
5748	0	0.0666667
5749	0	0.047619
5750	0	0.047619
5751	0	0.047619
5752	0	0.047619
5753	0	0.047619
5754	0	0.047619
5755	0	0.0357143
5756	0	0.0222222
5757	0	0.0222222
5758	0	0.0222222
5759	0	0.443382
5760	0	0.0220588
5761	0	0.0220588
5762	0	0.0220588
5763	0	0.0220588
5764	0	0.286822
5765	0	0.034632
5766	0	0.442358
5767	0	0.412571
5768	0	0.101758
5769	0	0.0359848
5770	0	0.0390805
5771	0	0.0246154
5772	0	0.0326087
5773	0	0.0326087
5774	0	0.0326087
5775	0	0.0181159
5776	0	0.021645
5777	0	0.021645
5778	0	0.0238095
5779	0	0.0238095
5780	0	0.030303
5781	0	0.030303
5782	0	0.030303
5783	0	0.0210526
5784	0	0.0292398
5785	0	0.0292398
5786	0	0.0166667
5787	0	0.31309
5788	0	0.31309
5789	0	0.31309
5790	0	0.31309
5791	0	0.31309
5792	0	0.246088
5793	0	0.00735294
5794	0	0.00735294
5795	0	0.00735294
5796	0	0.00735294
5797	0	0.00833333
5798	0	0.00833333
5799	0	0.0233918
5800	0	0.0233918
5801	0	0.0233918
5802	0	0.0261438
5803	0	0.0457516
5804	0	0.0457516
5805	0	0.0457516
5806	0	0.0457516
5807	0	0.0457516
5808	0	0.0514706
5809	0	0.0514706
5810	0	0.010989
5811	0	0.010989
5812	0	0.010989
5813	0	0.0128205
5814	0	0.0128205
5815	0	0.0128205
5816	0	0.0128205
5817	0	0.0128205
5818	0	0.0128205
5819	0	0.0128205
5820	0	0.0128205
5821	0	0.0128205
5822	0	0.0128205
5823	0	0.0128205
5824	0	0.0128205
5825	0	0.0128205
5826	0	0.0128205
5827	0	0.0128205
5828	0	0.0128205
5829	0	0.0151515
5830	0	0.0151515
5831	0	0.0151515
5832	0	0.0151515
5833	0	0.0151515
5834	0	0.0151515
5835	0	0.0151515
5836	0	0.0151515
5837	0	0.0151515
5838	0	0.0151515
5839	0	0.0151515
5840	0	0.0151515
5841	0	0.0151515
5842	0	0.0151515
5843	0	0.0151515
5844	0	0.0151515
5845	0	0.0151515
5846	0	0.0151515
5847	0	0.0151515
5848	0	0.0151515
5849	0	0.0151515
5850	0	0.0151515
5851	0	0.0151515
5852	0	0.0151515
5853	0	0.0181818
5854	0	0.0181818
5855	0	0.0181818
5856	0	0.0181818
5857	0	0.0181818
5858	0	0.0222222
5859	0	0.0222222
5860	0	0.0222222
5861	0	0.0222222
5862	0	0.0222222
5863	0	0.0222222
5864	0	0.0222222
5865	0	0.0222222
5866	0	0.0222222
5867	0	0.0222222
5868	0	0.0222222
5869	0	0.0222222
5870	0	0.0222222
5871	0	0.0222222
5872	0	0.0222222
5873	0	0.0277778
5874	0	0.0277778
5875	0	0.0277778
5876	0	0.0277778
5877	0	0.0277778
5878	0	0.0277778
5879	0	0.0277778
5880	0	0.0222222
5881	0	0.333333
5882	0	0.0357143
5883	0	0.0357143
5884	0	0.0357143
5885	0	0.0357143
5886	0	0.0357143
5887	0	0.0357143
5888	0	0.0357143
5889	0	0.0357143
5890	0	0.0357143
5891	0	0.0357143
5892	0	0.0357143
5893	0	0.0357143
5894	0	0.0357143
5895	0	0.0357143
5896	0	0.0357143
5897	0	0.0357143
5898	0	0.0357143
5899	0	0.0357143
5900	0	0.0357143
5901	0	0.0357143
5902	0	0.0357143
5903	0	0.0357143
5904	0	0.0357143
5905	0	0.0357143
5906	0	0.0357143
5907	0	0.0357143
5908	0	0.0357143
5909	0	0.0357143
5910	0	0.0357143
5911	0	0.0357143
5912	0	0.0357143
5913	0	0.0357143
5914	0	0.0357143
5915	0	0.0357143
5916	0	0.0357143
5917	0	0.0357143
5918	0	0.0357143
5919	0	0.0357143
5920	0	0.0357143
5921	0	0.0357143
5922	0	0.0357143
5923	0	0.0357143
5924	0	0.0357143
5925	0	0.0357143
5926	0	0.0357143
5927	0	0.0357143
5928	0	0.0357143
5929	0	0.0357143
5930	0	0.0357143
5931	0	0.0357143
5932	0	0.0357143
5933	0	0.0357143
5934	0	0.0357143
5935	0	0.0357143
5936	0	0.0357143
5937	0	0.0357143
5938	0	0.0357143
5939	0	0.0357143
5940	0	0.0357143
5941	0	0.0357143
5942	0	0.0357143
5943	0	0.0357143
5944	0	0.0357143
5945	0	0.0357143
5946	0	0.0357143
5947	0	0.0357143
5948	0	0.0357143
5949	0	0.0357143
5950	0	0.0357143
5951	0	0.0357143
5952	0	0.0357143
5953	0	0.0357143
5954	0	0.0357143
5955	0	0.0357143
5956	0	0.0357143
5957	0	0.0357143
5958	0	0.0357143
5959	0	0.0357143
5960	0	0.0357143
5961	0	0.0357143
5962	0	0.0357143
5963	0	0.0357143
5964	0	0.0357143
5965	0	0.0357143
5966	0	0.0357143
5967	0	0
5968	0	0
5969	0	0
5970	0	0
5971	0	0
5972	0	0
5973	0	0
5974	0	0
5975	0	0
5976	0	0
5977	0	0
5978	0	0
5979	0	0
5980	0	0
5981	0	0
5982	0	0
5983	0	0
5984	0	0
5985	0	0
5986	0	0
5987	0	0
5988	0	0
5989	0	0
5990	0	0
5991	0	0
5992	0	0
5993	0	0
5994	0	0
5995	0	0
5996	0	0
5997	0	0
5998	0	0
5999	0	0
6000	0	0
6001	0	0
6002	0	0
6003	0	0
6004	0	0
6005	0	0
6006	0	0
6007	0	0
6008	0	0
6009	0	0
6010	0	0
6011	0	0
6012	0	0
6013	0	0
6014	0	0
6015	0	0
6016	0	0
6017	0	0
6018	0	0
6019	0	0
6020	0	0
6021	0	0
6022	0	0
6023	0	0
6024	0	0
6025	0	0
6026	0	0
6027	0	0
6028	0	0
6029	0	0
6030	0	0
6031	0	0
6032	0	0
6033	0	0
6034	0	0
6035	0	0
6036	0	0
6037	0	0
6038	0	0
6039	0	0
6040	0	0
6041	0	0
6042	0	0
6043	0	0
6044	0	0
6045	0	0
6046	0	0
6047	0	0
6048	0	0
6049	0	0
6050	0	0
6051	0	0
6052	0	0
6053	0	0
6054	0	0
6055	0	0
6056	0	0
6057	0	0
6058	0	0
6059	0	0
6060	0	0
6061	0	0
6062	0	0
6063	0	0
6064	0	0
6065	0	0
6066	0	0
6067	0	0
6068	0	0
6069	0	0
6070	0	0
6071	0	0
6072	0	0
6073	0	0
6074	0	0
6075	0	0
6076	0	0
6077	0	0
6078	0	0
6079	0	0
6080	0	0
6081	0	0
6082	0	0
6083	0	0
6084	0	0
6085	0	0
6086	0	0
6087	0	0
6088	0	0
6089	0	0
6090	0	0
6091	0	0
6092	0	0
6093	0	0
6094	0	0
6095	0	0
6096	0	0
6097	0	0
6098	0	0
6099	0	0
6100	0	0
6101	0	0
6102	0	0
6103	0	0
6104	0	0
6105	0	0
6106	0	0
6107	0	0
6108	0	0
6109	0	0
6110	0	0
6111	0	0
6112	0	0
6113	0	0
6114	0	0
6115	0	0
6116	0	0
6117	0	0
6118	0	0
6119	0	0
6120	0	0
6121	0	0
6122	0	0
6123	0	0
6124	0	0
6125	0	0
6126	0	0
6127	0	0
6128	0	0
6129	0	0
6130	0	0
6131	0	0
6132	0	0
6133	0	0
6134	0	0
6135	0	0
6136	0	0
6137	0	0
6138	0	0
6139	0	0
6140	0	0
6141	0	0
6142	0	0
6143	0	0
6144	0	0
6145	0	0
6146	0	0
6147	0	0
6148	0	0
6149	0	0
6150	0	0
6151	0	0
6152	0	0
6153	0	0
6154	0	0
6155	0	0
6156	0	0
6157	0	0
6158	0	0
6159	0	0
6160	0	0
6161	0	0
6162	0	0
6163	0	0
6164	0	0
6165	0	0
6166	0	0
6167	0	0
6168	0	0
6169	0	0
6170	0	0
6171	0	0
6172	0	0
6173	0	0
6174	0	0
6175	0	0
6176	0	0
6177	0	0
6178	0	0
6179	0	0
6180	0	0
6181	0	0
6182	0	0
6183	0	0
6184	0	0
6185	0	0
6186	0	0
6187	0	0
6188	0	0
6189	0	0
6190	0	0
6191	0	0
6192	0	0
6193	0	0
6194	0	0
6195	0	0
6196	0	0
6197	0	0
6198	0	0
6199	0	0
6200	0	0
6201	0	0
6202	0	0
6203	0	0
6204	0	0
6205	0	0
6206	0	0
6207	0	0
6208	0	0
6209	0	0
6210	0	0
6211	0	0
6212	0	0
6213	0	0
6214	0	0
6215	0	0
6216	0	0
6217	0	0
6218	0	0
6219	0	0
6220	0	0
6221	0	0
6222	0	0
6223	0	0
6224	0	0
6225	0	0
6226	0	0
6227	0	0
6228	0	0
6229	0	0
6230	0	0
6231	0	0
6232	0	0
6233	0	0
6234	0	0
6235	0	0
6236	0	0
6237	0	0
6238	0	0
6239	0	0
6240	0	0
6241	0	0
6242	0	0
6243	0	0
6244	0	0
6245	0	0
6246	0	0
6247	0	0
6248	0	0
6249	0	0
6250	0	0
6251	0	0
6252	0	0
6253	0	0
6254	0	0
6255	0	0
6256	0	0
6257	0	0
6258	0	0
6259	0	0
6260	0	0
6261	0	0
6262	0	0
6263	0	0
6264	0	0
6265	0	0
6266	0	0
6267	0	0
6268	0	0
6269	0	0
6270	0	0
6271	0	0
6272	0	0
6273	0	0
6274	0	0
6275	0	0
6276	0	0
6277	0	0
6278	0	0
6279	0	0
6280	0	0
6281	0	0
6282	0	0
6283	0	0
6284	0	0
6285	0	0
6286	0	0
6287	0	0
6288	0	0
6289	0	0
6290	0	0
6291	0	0
6292	0	0
6293	0	0
6294	0	0
6295	0	0
6296	0	0
6297	0	0
6298	0	0
6299	0	0
6300	0	0
6301	0	0
6302	0	0
6303	0	0
6304	0	0
6305	0	0
6306	0	0
6307	0	0
6308	0	0
6309	0	0
6310	0	0
6311	0	0
6312	0	0
6313	0	0
6314	0	0
6315	0	0
6316	0	0
6317	0	0
6318	0	0
6319	0	0
6320	0	0
6321	0	0
6322	0	0
6323	0	0
6324	0	0
6325	0	0
6326	0	0
6327	0	0
6328	0	0
6329	0	0
6330	0	0
6331	0	0
6332	0	0
6333	0	0
6334	0	0
6335	0	0
6336	0	0
6337	0	0
6338	0	0
6339	0	0
6340	0	0
6341	0	0
6342	0	0
6343	0	0
6344	0	0
6345	0	0
6346	0	0
6347	0	0
6348	0	0
6349	0	0
6350	0	0
6351	0	0
6352	0	0
6353	0	0
6354	0	0
6355	0	0
6356	0	0
6357	0	0
6358	0	0
6359	0	0
6360	0	0
6361	0	0
6362	0	0
6363	0	0
6364	0	0
6365	0	0
6366	0	0
6367	0	0
6368	0	0
6369	0	0
6370	0	0
6371	0	0
6372	0	0
6373	0	0
6374	0	0
6375	0	0
6376	0	0
6377	0	0
6378	0	0
6379	0	0
6380	0	0
6381	0	0
6382	0	0
6383	0	0
6384	0	0
6385	0	0
6386	0	0
6387	0	0
6388	0	0
6389	0	0
6390	0	0
6391	0	0
6392	0	0
6393	0	0
6394	0	0
6395	0	0
6396	0	0
6397	0	0
6398	0	0
6399	0	0
6400	0	0
6401	0	0
6402	0	0
6403	0	0
6404	0	0
6405	0	0
6406	0	0
6407	0	0
6408	0	0
6409	0	0
6410	0	0
6411	0	0
6412	0	0
6413	0	0
6414	0	0
6415	0	0
6416	0	0
6417	0	0
6418	0	0
6419	0	0
6420	0	0
6421	0	0
6422	0	0
6423	0	0
6424	0	0
6425	0	0
6426	0	0
6427	0	0
6428	0	0
6429	0	0
6430	0	0
6431	0	0
6432	0	0
6433	0	0
6434	0	0
6435	0	0
6436	0	0
6437	0	0
6438	0	0
6439	0	0
6440	0	0
6441	0	0
6442	0	0
6443	0	0
6444	0	0
6445	0	0
6446	0	0
6447	0	0
6448	0	0
6449	0	0
6450	0	0
6451	0	0
6452	0	0
6453	0	0
6454	0	0
6455	0	0
6456	0	0
6457	0	0
6458	0	0
6459	0	0
6460	0	0
6461	0	0
6462	0	0
6463	0	0
6464	0	0
6465	0	0
6466	0	0
6467	0	0
6468	0	0
6469	0	0
6470	0	0
6471	0	0
6472	0	0
6473	0	0
6474	0	0
6475	0	0
6476	0	0
6477	0	0
6478	0	0
6479	0	0
6480	0	0
6481	0	0
6482	0	0
6483	0	0
6484	0	0
6485	0	0
6486	0	0
6487	0	0
6488	0	0
6489	0	0
6490	0	0
6491	0	0
6492	0	0
6493	0	0
6494	0	0
6495	0	0
6496	0	0
6497	0	0
6498	0	0
6499	0	0
6500	0	0
6501	0	0
6502	0	0
6503	0	0
6504	0	0
6505	0	0
6506	0	0
6507	0	0
6508	0	0
6509	0	0
6510	0	0
6511	0	0
6512	0	0
6513	0	0
6514	0	0
6515	0	0
6516	0	0
6517	0	0
6518	0	0
6519	0	0
6520	0	0
6521	0	0
6522	0	0
6523	0	0
6524	0	0
6525	0	0
6526	0	0
6527	0	0
6528	0	0
6529	0	0
6530	0	0
6531	0	0
6532	0	0
6533	0	0
6534	0	0
6535	0	0
6536	0	0
6537	0	0
6538	0	0
6539	0	0
6540	0	0
6541	0	0
6542	0	0
6543	0	0
6544	0	0
6545	0	0
6546	0	0
6547	0	0
6548	0	0
6549	0	0
6550	0	0
6551	0	0
6552	0	0
6553	0	0
6554	0	0
6555	0	0
6556	0	0
6557	0	0
6558	0	0
6559	0	0
6560	0	0
6561	0	0
6562	0	0
6563	0	0
6564	0	0
6565	0	0
6566	0	0
6567	0	0
6568	0	0
6569	0	0
6570	0	0
6571	0	0
6572	0	0
6573	0	0
6574	0	0
6575	0	0
6576	0	0
6577	0	0
6578	0	0
6579	0	0
6580	0	0
6581	0	0
6582	0	0
6583	0	0
6584	0	0
6585	0	0
6586	0	0
6587	0	0
6588	0	0
6589	0	0
6590	0	0
6591	0	0
6592	0	0
6593	0	0
6594	0	0
6595	0	0
6596	0	0
6597	0	0
6598	0	0
6599	0	0
6600	0	0
6601	0	0
6602	0	0
6603	0	0
6604	0	0
6605	0	0
6606	0	0
6607	0	0
6608	0	0
6609	0	0
6610	0	0
6611	0	0
6612	0	0
6613	0	0
6614	0	0
6615	0	0
6616	0	0
6617	0	0
6618	0	0
6619	0	0
6620	0	0
6621	0	0
6622	0	0
6623	0	0
6624	0	0
6625	0	0
6626	0	0
6627	0	0
6628	0	0
6629	0	0
