Site	ColumnScore	SumOfPairsScore
1	1	0
2	1	0
3	1	0
4	1	0
5	1	0
6	1	0
7	1	0
8	1	0
9	1	0
10	1	0
11	1	0
12	1	0
13	1	0
14	1	0
15	1	0
16	1	0
17	1	0
18	1	0
19	1	0
20	1	0
21	1	0
22	1	0
23	0	0
24	0	0
25	0	0
26	0	0
27	0	0
28	0	0
29	0	0
30	0	0
31	0	0
32	0	0
33	0	0
34	0	0
35	0	0
36	0	0
37	0	0
38	0	0
39	0	0
40	1	0
41	1	0
42	1	0
43	1	0
44	1	0
45	0	0
46	0	0
47	0	0
48	0	0
49	0	0
50	0	0
51	1	0
52	0	0
53	0	0
54	0	0
55	0	0
56	0	0
57	0	0
58	0	0
59	0	0
60	0	0
61	0	0
62	0	0
63	0	0
64	0	0
65	0	0
66	0	0
67	0	0
68	0	0
69	0	0
70	0	0
71	0	0
72	0	0
73	0	0
74	0	0
75	0	0
76	0	0
77	0	0
78	0	0
79	0	0
80	0	0
81	0	0
82	0	0
83	0	0
84	0	0
85	0	0
86	0	0
87	0	0
88	0	0
89	0	0
90	0	0
91	0	0
92	1	0
93	1	0
94	0	0
95	0	0
96	0	0
97	0	0
98	0	0
99	0	0
100	0	0
101	0	0
102	0	0
103	0	0
104	0	0
105	0	0
106	0	0
107	0	0
108	0	0
109	0	0
110	0	0
111	0	0
112	0	0
113	0	0
114	0	0
115	0	0
116	0	0
117	0	0
118	0	0
119	0	0
120	0	0
121	0	0
122	0	0
123	0	0
124	0	0
125	0	0
126	0	0
127	0	0
128	0	0
129	0	0
130	0	0
131	0	0
132	0	0
133	0	0
134	0	0
135	0	0
136	0	0
137	0	0
138	0	0
139	0	0
140	0	0
141	0	0
142	0	0
143	0	0
144	0	0
145	0	0
146	0	0
147	0	0
148	0	0
149	0	0
150	0	0
151	0	0
152	0	0
153	0	0
154	0	0
155	0	0
156	0	0
157	0	0
158	0	0
159	0	0
160	0	0
161	0	0
162	0	0
163	0	0
164	0	0
165	0	0
166	0	0
167	0	0
168	0	0
169	0	0
170	1	0
171	1	0
172	1	0
173	1	0
174	1	0
175	1	0
176	1	0
177	1	0
178	1	0
179	1	0
180	1	0
181	1	0
182	1	0
183	1	0
184	1	0
185	1	0
186	1	0
187	1	0
188	1	0
189	1	0
190	1	0
191	1	0
192	1	0
193	1	0
194	1	0
195	1	0
196	1	0
197	1	0
198	1	0
199	1	0
200	1	0
201	1	0
202	0	0
203	0	0
204	0	0
205	0	0
206	0	0
207	0	0
208	0	0
209	0	0
210	0	0
211	0	0
212	0	0
213	0	0
214	0	0
215	0	0
216	0	0
217	0	0
218	0	0
219	0	0
220	0	0
221	0	0
222	0	0
223	0	0
224	0	0
225	0	0
226	0	0
227	0	0
228	0	0
229	0	0
230	0	0
231	0	0
232	0	0
233	0	0
234	0	0
235	0	0
236	0	0
237	0	0
238	0	0
239	0	0
240	0	0
241	0	0
242	0	0
243	0	0
244	0	0
245	0	0
246	0	0
247	0	0
248	0	0
249	1	0
250	1	0
251	1	0
252	1	0
253	0	0
254	0	0
255	0	0
256	0	0
257	0	0
258	0	0
259	0	0
260	0	0
261	0	0
262	0	0
263	0	0
264	0	0
265	0	0
266	0	0
267	0	0
268	0	0
269	0	0
270	0	0
271	0	0
272	0	0
273	0	0
274	0	0
275	0	0
276	0	0
277	0	0
278	0	0
279	0	0
280	0	0
281	0	0
282	0	0
283	0	0
284	0	0
285	0	0
286	0	0
287	0	0
288	0	0
289	0	0
290	0	0
291	0	0
292	0	0
293	0	0
294	0	0
295	0	0
296	0	0
297	0	0
298	0	0
299	0	0
300	0	0
301	0	0
302	0	0
303	0	0
304	0	0
305	0	0
306	0	0
307	0	0
308	0	0
309	0	0
310	0	0
311	0	0
312	0	0
313	0	0
314	0	0
315	0	0
316	0	0
317	0	0
318	0	0
319	0	0
320	0	0
321	0	0
322	0	0
323	0	0
324	0	0
325	0	0
326	0	0
327	0	0
328	0	0
329	0	0
330	0	0
331	0	0
332	0	0
333	0	0
334	0	0
335	0	0
336	0	0
337	0	0
338	0	0
339	0	0
340	0	0
341	0	0
342	0	0
343	0	0
344	0	0
345	0	0
346	0	0
347	0	0
348	0	0
349	0	0
350	0	0
351	0	0
352	0	0
353	0	0
354	0	0
355	0	0
356	0	0
357	0	0
358	0	0
359	0	0
360	0	0
361	0	0
362	0	0
363	0	0
364	0	0
365	0	0
366	0	0
367	0	0
368	0	0
369	0	0
370	0	0
371	0	0
372	0	0
373	0	0
374	0	0
375	0	0
376	0	0
377	0	0
378	0	0
379	0	0
380	0	0
381	0	0
382	0	0
383	0	0
384	0	0
385	0	0
386	0	0
387	0	0
388	0	0
389	0	0
390	0	0
391	0	0
392	0	0
393	0	0
394	0	0
395	0	0
396	0	0
397	0	0
398	0	0
399	0	0
400	0	0
401	0	0
402	0	0
403	0	0
404	0	0
405	0	0
406	0	0
407	0	0
408	0	0
409	0	0
410	0	0
411	0	0
412	0	0
413	0	0
414	0	0
415	0	0
416	0	0
417	0	0
418	0	0
419	0	0
420	0	0
421	0	0
422	0	0
423	0	0
424	0	0
425	0	0
426	0	0
427	0	0
428	0	0
429	0	0
430	0	0
431	0	0
432	0	0
433	0	0
434	0	0
435	0	0
436	0	0
437	0	0
438	0	0
439	0	0
440	0	0
441	0	0
442	0	0
443	0	0
444	0	0
445	0	0
446	0	0
447	0	0
448	0	0
449	0	0
450	0	0
451	0	0
452	0	0
453	0	0
454	0	0
455	0	0
456	0	0
457	0	0
458	0	0
459	0	0
460	0	0
461	0	0
462	0	0
463	0	0
464	0	0
465	0	0
466	0	0
467	0	0
468	0	0
469	0	0
470	0	0
471	0	0
472	0	0
473	0	0
474	0	0
475	0	0
476	0	0
477	0	0
478	0	0
479	0	0
480	0	0
481	0	0
482	0	0
483	0	0
484	0	0
485	0	0
486	0	0
487	0	0
488	0	0
489	0	0
490	0	0
491	0	0
492	0	0
493	0	0
494	0	0
495	0	0
496	0	0
497	0	0
498	0	0
499	0	0
500	0	0
501	0	0
502	0	0
503	0	0
504	0	0
505	0	0
506	0	0
507	0	0
508	0	0
509	0	0
510	0	0
511	0	0
512	0	0
513	0	0
514	0	0
515	0	0
516	0	0
517	0	0
518	0	0
519	0	0
520	0	0
521	0	0
522	0	0
523	0	0
524	0	0
525	0	0
526	0	0
527	0	0
528	0	0
529	0	0
530	0	0
531	0	0
532	0	0
533	0	0
534	0	0
535	0	0
536	0	0
537	0	0
538	0	0
539	0	0
540	0	0
541	0	0
542	0	0
543	0	0
544	0	0
545	0	0
546	0	0
547	0	0
548	0	0
549	0	0
550	0	0
551	0	0
552	0	0
553	0	0
554	0	0
555	0	0
556	0	0
557	0	0
558	0	0
559	0	0
560	0	0
561	0	0
562	0	0
563	0	0
564	0	0
565	0	0
566	0	0
567	0	0
568	0	0
569	0	0
570	0	0
571	0	0
572	0	0
573	0	0
574	0	0
575	0	0
576	0	0
577	0	0
578	0	0
579	0	0
580	0	0
581	0	0
582	0	0
583	0	0
584	0	0
585	0	0
586	0	0
587	0	0
588	0	0
589	0	0
590	0	0
591	0	0
592	0	0
593	0	0
594	0	0
595	0	0
596	0	0
597	0	0
598	0	0
599	0	0
600	0	0
601	0	0
602	0	0
603	0	0
604	0	0
605	0	0
606	0	0
607	0	0
608	0	0
609	0	0
610	0	0
611	0	0
612	0	0
613	0	0
614	0	0
615	0	0
616	0	0
617	0	0
618	0	0
619	0	0
620	0	0
621	0	0
622	0	0
623	0	0
624	0	0
625	0	0
626	0	0
627	0	0
628	0	0
629	0	0
630	0	0
631	0	0
632	0	0
633	0	0
634	0	0
635	0	0
636	0	0
637	0	0
638	0	0
639	0	0
640	0	0
641	0	0
642	0	0
643	0	0
644	0	0
645	0	0
646	0	0
647	0	0
648	0	0
649	0	0
650	0	0
651	0	0
652	0	0
653	0	0
654	0	0
655	0	0
656	0	0
657	0	0
658	0	0
659	0	0
660	0	0
661	0	0
662	0	0
663	0	0
664	0	0
665	0	0
666	0	0
667	0	0
668	0	0
669	0	0
670	0	0
671	0	0
672	0	0
673	0	0
674	0	0
675	0	0
676	0	0
677	0	0
678	0	0
679	0	0
680	0	0
681	0	0
682	0	0
683	0	0
684	0	0
685	0	0
686	0	0
687	0	0
688	0	0
689	0	0
690	0	0
691	0	0
692	0	0
693	0	0
694	0	0
695	0	0
696	0	0
697	0	0
698	0	0
699	0	0
700	0	0
701	0	0
702	0	0
703	0	0
704	0	0
705	0	0
706	0	0
707	0	0
708	0	0
709	0	0
710	0	0
711	0	0
712	0	0
713	0	0
714	0	0
715	0	0
716	0	0
717	0	0
718	0	0
719	0	0
720	0	0
721	0	0
722	0	0
723	0	0
724	0	0
725	0	0
726	0	0
727	0	0
728	0	0
729	0	0
730	0	0
731	0	0
732	0	0
733	0	0
734	0	0
735	0	0
736	0	0
737	0	0
738	0	0
739	0	0
740	0	0
741	0	0
742	0	0
743	0	0
744	0	0
745	0	0
746	0	0
747	0	0
748	0	0
749	0	0
750	0	0
751	0	0
752	0	0
753	0	0
754	0	0
755	0	0
756	0	0
757	0	0
758	0	0
759	0	0
760	0	0
761	0	0
762	0	0
763	0	0
764	0	0
765	0	0
766	0	0
767	0	0
768	0	0
769	0	0
770	0	0
771	0	0
772	0	0
773	0	0
774	0	0
775	0	0
776	0	0
777	0	0
778	0	0
779	0	0
780	0	0
781	0	0
782	0	0
783	0	0
784	0	0
785	0	0
786	0	0
787	0	0
788	0	0
789	0	0
790	0	0
791	0	0
792	0	0
793	0	0
794	0	0
795	0	0
796	0	0
797	0	0
798	0	0
799	0	0
800	0	0
801	0	0
802	0	0
803	0	0
804	0	0
805	0	0
806	0	0
807	0	0
808	0	0
809	0	0
810	0	0
811	0	0
812	0	0
813	0	0
814	0	0
815	0	0
816	0	0
817	0	0
818	0	0
819	0	0
820	0	0
821	0	0
822	0	0
823	0	0
824	0	0
825	0	0
826	0	0
827	0	0
828	0	0
829	0	0
830	0	0
831	0	0
832	0	0
833	0	0
834	0	0
835	0	0
836	0	0
837	0	0
838	0	0
839	0	0
840	0	0
841	0	0
842	0	0
843	0	0
844	0	0
845	0	0
846	0	0
847	0	0
848	0	0
849	0	0
850	0	0
851	0	0
852	0	0
853	0	0
854	0	0
855	0	0
856	0	0
857	0	0
858	0	0
859	0	0
860	0	0
861	0	0
862	0	0
863	0	0
864	0	0
865	0	0
866	0	0
867	0	0
868	0	0
869	0	0
870	0	0
871	0	0
872	0	0
873	0	0
874	0	0
875	0	0
876	0	0
877	0	0
878	0	0
879	0	0
880	0	0
881	0	0
882	0	0
883	0	0
884	0	0
885	0	0
886	0	0
887	0	0
888	0	0
889	0	0
890	0	0
891	0	0
892	0	0
893	0	0
894	0	0
895	0	0
896	0	0
897	0	0
898	0	0
899	0	0
900	0	0
901	0	0
902	0	0
903	0	0
904	0	0
905	0	0
906	0	0
907	0	0
908	0	0
909	0	0
910	0	0
911	0	0
912	0	0
913	0	0
914	0	0
915	0	0
916	0	0
917	0	0
918	0	0
919	0	0
920	0	0
921	0	0
922	0	0
923	0	0.0128205
924	0	0.0128205
925	0	0.0315789
926	0	0.0434783
927	0	0.0473485
928	0	0.0772608
929	0	0.0550162
930	0	0.242802
931	0	0.317213
932	0	0.294761
933	0	0.289721
934	0	0.28376
935	0	0.287113
936	0	0.288441
937	0	0.292219
938	0	0.299339
939	0	0.289629
940	0	0.292719
941	0	0.29971
942	0	0.268026
943	0	0.165217
944	0	0.442119
945	0	0.434828
946	0	0.468082
947	0	0.483167
948	0	0.492596
949	0	0.408044
950	0	0.41426
951	0	0.463001
952	0	0.404395
953	0	0.399068
954	0	0.413188
955	0	0.203361
956	0	0.210339
957	0	0.154334
958	0	0.120709
959	0	0.246028
960	0	0.199007
961	0	0.206602
962	0	0.164006
963	0	0.151723
964	0	0.0421053
965	0	0.034632
966	0	0.034632
967	0	0.183621
968	0	0.165139
969	0	0.140414
970	0	0.125023
971	0	0.0932811
972	0	0.0992069
973	0	0.107472
974	0	0.108568
975	0	0.189637
976	0	0.23401
977	0	0.22977
978	0	0.23521
979	0	0.253806
980	0	0.256006
981	0	0
982	0	0
983	0	0
984	0	0
985	0	0
986	0	0
987	0	0
988	0	0
989	0	0
990	0	0.0277778
991	0	0.0277778
992	0	0.0444444
993	0	0.0444444
994	0	0.0444444
995	0	0.0879121
996	0	0.114625
997	0	0.207071
998	0	0.17602
999	0	0.142088
1000	0	0.213973
1001	0	0.164612
1002	0	0.0971547
1003	0	0.147407
1004	0	0.0664319
1005	0	0.0639294
1006	0	0.079474
1007	0	0.1223
1008	0	0.11537
1009	0	0.113914
1010	0	0.110572
1011	0	0.112154
1012	0	0.10856
1013	0	0.110331
1014	0	0.0184615
1015	0	0.0478886
1016	0	0.0545758
1017	0	0.0451143
1018	0	0.0500587
1019	0	0.112742
1020	0	0.0751851
1021	0	0.0801807
1022	0	0.0871429
1023	0	0.0907964
1024	0	0.167543
1025	0	0.15929
1026	0	0.121711
1027	0	0.163906
1028	0	0.164018
1029	0	0.142857
1030	0	0.142857
1031	0	0.142857
1032	0	0.142857
1033	0	0.142857
1034	0	0.142857
1035	0	0.107143
1036	0	0.111111
1037	0	0.133333
1038	0	0.133333
1039	0	0.510582
1040	0	0.528409
1041	0	0.433855
1042	0	0.535366
1043	0	0.235937
1044	0	0.229716
1045	0	0.385962
1046	0	0.346972
1047	0	0.34299
1048	0	0.379447
1049	0	0.371318
1050	0	0.634745
1051	0	0.593262
1052	0	0.598819
1053	0	0.631521
1054	0	0.106061
1055	0	0.133333
1056	0	0
1057	0	0
1058	0	0
1059	0	0
1060	0	0
1061	0	0
1062	0	0
1063	0	0
1064	0	0
1065	0	0
1066	0	0
1067	0	0
1068	0	0
1069	0	0
1070	0	0
1071	0	0
1072	0	0
1073	0	0
1074	0	0
1075	0	0
1076	0	0
1077	0	0
1078	0	0
1079	0	0
1080	0	0
1081	0	0
1082	0	0
1083	0	0
1084	0	0
1085	0	0
1086	0	0
1087	0	0
1088	0	0
1089	0	0
1090	0	0
1091	0	0
1092	0	0
1093	0	0
1094	0	0
1095	0	0
1096	0	0
1097	0	0
1098	0	0
1099	0	0
1100	0	0
1101	0	0
1102	0	0
1103	0	0
1104	0	0
1105	0	0
1106	0	0
1107	0	0
1108	0	0
1109	0	0
1110	0	0
1111	0	0
1112	0	0
1113	0	0
1114	0	0
1115	0	0
1116	0	0
1117	0	0
1118	0	0
1119	0	0
1120	0	0
1121	0	0
1122	0	0
1123	0	0
1124	0	0
1125	0	0
1126	0	0
1127	0	0
1128	0	0
1129	0	0
1130	0	0
1131	0	0
1132	0	0
1133	0	0
1134	0	0
1135	0	0
1136	0	0
1137	0	0
1138	0	0
1139	0	0
1140	0	0
1141	0	0
1142	0	0
1143	0	0
1144	0	0
1145	0	0
1146	0	0
1147	0	0
1148	0	0
1149	0	0
1150	0	0
1151	0	0
1152	0	0
1153	0	0
1154	0	0
1155	0	0
1156	0	0
1157	0	0
1158	0	0
1159	0	0
1160	0	0
1161	0	0
1162	0	0
1163	0	0
1164	0	0
1165	0	0
1166	0	0
1167	0	0
1168	0	0
1169	0	0
1170	0	0
1171	0	0
1172	0	0
1173	0	0
1174	0	0
1175	0	0
1176	0	0
1177	0	0
1178	0	0
1179	0	0
1180	0	0
1181	0	0
1182	0	0
1183	0	0
1184	0	0
1185	0	0
1186	0	0
1187	0	0
1188	0	0
1189	0	0
1190	0	0
1191	0	0
1192	0	0
1193	0	0
1194	0	0
1195	0	0
1196	0	0
1197	0	0
1198	0	0
1199	0	0
1200	0	0
1201	0	0
1202	0	0
1203	0	0
1204	0	0
1205	0	0
1206	0	0
1207	0	0
1208	0	0
1209	0	0
1210	0	0
1211	0	0
1212	0	0
1213	0	0
1214	0	0
1215	0	0
1216	0	0
1217	0	0
1218	0	0
1219	0	0
1220	0	0
1221	0	0
1222	0	0
1223	0	0
1224	0	0
1225	0	0
1226	0	0
1227	0	0
1228	0	0
1229	0	0
1230	0	0
1231	0	0
1232	0	0
1233	0	0
1234	0	0
1235	0	0
1236	0	0
1237	0	0
1238	0	0
1239	0	0
1240	0	0
1241	0	0
1242	0	0
1243	0	0
1244	0	0
1245	0	0
1246	0	0
1247	0	0
1248	0	0
1249	0	0
1250	0	0
1251	0	0
1252	0	0
1253	0	0
1254	0	0
1255	0	0
1256	0	0
1257	0	0
1258	0	0
1259	0	0
1260	0	0
1261	0	0
1262	0	0
1263	0	0
1264	0	0
1265	0	0
1266	0	0
1267	0	0
1268	0	0
1269	0	0
1270	0	0
1271	0	0
1272	0	0
1273	0	0
1274	0	0
1275	0	0
1276	0	0
1277	0	0
1278	0	0
1279	0	0
1280	0	0
1281	0	0
1282	0	0
1283	0	0
1284	0	0
1285	0	0
1286	0	0
1287	0	0
1288	0	0
1289	0	0
1290	0	0
1291	0	0
1292	0	0
1293	0	0
1294	0	0
1295	0	0
1296	0	0
1297	0	0
1298	0	0
1299	0	0
1300	0	0
1301	0	0
1302	0	0
1303	0	0
1304	0	0
1305	0	0
1306	0	0
1307	0	0
1308	0	0
1309	0	0
1310	0	0
1311	0	0
1312	0	0
1313	0	0
1314	0	0
1315	0	0
1316	0	0
1317	0	0
1318	0	0
1319	0	0
1320	0	0
1321	0	0
1322	0	0
1323	0	0
1324	0	0
1325	0	0
1326	0	0
1327	0	0
1328	0	0
1329	0	0
1330	0	0
1331	0	0
1332	0	0.639449
1333	0	0.629397
1334	0	0.62957
1335	0	0.0714286
1336	0	0.133333
1337	0	0.0879121
1338	0	0.0562771
1339	0	0.67649
1340	0	0.0666667
1341	0	0.0666667
1342	0	0.133333
1343	0	0.133333
1344	0	0.133333
1345	0	0.133333
1346	0	0.0357143
1347	0	0.0357143
1348	0	0.0357143
1349	0	0.0357143
1350	0	0.0357143
1351	0	0.0357143
1352	0	0.0357143
1353	0	0.0357143
1354	0	0.0357143
1355	0	0.869501
1356	0	0.86547
1357	0	0.318182
1358	0	0.318182
1359	0	0.318182
1360	0	0.424242
1361	0	0.318182
1362	0	0.318182
1363	0	0.296703
1364	0	0.876633
1365	0	0.876917
1366	0	0.872583
1367	0	0
1368	0	0
1369	0	0
1370	0	0
1371	0	0
1372	0	0
1373	0	0
1374	0	0
1375	0	0
1376	0	0
1377	0	0
1378	0	0
1379	0	0
1380	0	0
1381	0	0
1382	0	0
1383	0	0
1384	0	0.945248
1385	0	0.282051
1386	0	0.439394
1387	0	0.439394
1388	0	0.622222
1389	0	0.654545
1390	0	0.902452
1391	0	0.913938
1392	0	0.91804
1393	0	0.967214
1394	0	0.967277
1395	0	0.967277
1396	0	0.969135
1397	0	0.969194
1398	0	0.972994
1399	0	1
1400	0	0.994169
1401	0	0.994175
1402	0	0.994175
1403	0	0.99418
1404	0	0.99613
1405	0	0.99613
1406	0	0.99613
1407	0	0.99613
1408	0	0.994209
1409	0	0.994209
1410	0	0.990366
1411	0	0.990366
1412	0	1
1413	0	1
1414	0	0.4
1415	0	0.238095
1416	0	0.51087
1417	0	0.785796
1418	0	0.384615
1419	0	0.512257
1420	0	0.292539
1421	0	0.523818
1422	0	0.22807
1423	0	0.267206
1424	0	0.321795
1425	0	0.381492
1426	0	0.59656
1427	0	0.608725
1428	0	0.586822
1429	0	0.582928
1430	0	0.575835
1431	0	0.985915
1432	0	0.484266
1433	0	0.904915
1434	0	0.591095
1435	0	0.281734
1436	0	0.245914
1437	0	0.579268
1438	0	0.608974
1439	0	0.365221
1440	0	0
1441	0	0
1442	0	0
1443	0	0
1444	0	0
1445	0	0
1446	0	0
1447	0	0
1448	0	0
1449	0	0
1450	0	0.457143
1451	0	0.555556
1452	0	0.754885
1453	0	0.214286
1454	0	0.804466
1455	0	0.715789
1456	0	0.715789
1457	0	0.69468
1458	0	0.133333
1459	0	0.610976
1460	0	0.656098
1461	0	0.616011
1462	0	0.932289
1463	0	0.932289
1464	0	0.934092
1465	0	1
1466	0	0.980831
1467	0	0.980831
1468	0	0.980831
1469	0	0.980831
1470	0	0.980831
1471	0	0.980831
1472	0	0.980831
1473	0	0.980831
1474	0	0.996111
1475	0	0.996111
1476	0	0.996111
1477	0	0.996111
1478	0	0.994169
1479	0	0.994169
1480	1	0
1481	1	0
1482	1	0
1483	1	0
1484	1	0
1485	1	0
1486	1	0
1487	1	0
1488	1	0
1489	1	0
1490	1	0
1491	1	0
1492	1	0
1493	1	0
1494	1	0
1495	1	0
1496	1	0
1497	1	0
1498	1	0
1499	0	0
1500	0	0
1501	0	0
1502	0	1
1503	1	1
1504	1	1
1505	1	1
1506	0	0.998068
1507	0	0.996137
1508	0	0.998068
1509	0	0.998068
1510	0	0.998068
1511	0	0.998068
1512	0	0.998068
1513	0	0.998068
1514	0	0.998068
1515	0	0.998068
1516	0	0.998068
1517	0	0.942857
1518	0	0.936215
1519	0	0.485637
1520	0	0.942857
1521	0	0.511425
1522	0	0.998068
1523	0	0.998068
1524	0	0.998068
1525	0	0.998068
1526	0	0.998068
1527	0	0.998068
1528	0	0.998069
1529	0	0.998069
1530	0	0.998069
1531	0	0.998069
1532	0	0.998069
1533	0	0.998069
1534	0	0.866667
1535	0	0.960116
1536	0	0
1537	0	0
1538	0	0.967334
1539	0	0.4
1540	0	0.4
1541	0	0.952341
1542	0	0.95222
1543	0	1
1544	0	1
1545	0	1
1546	0	1
1547	0	1
1548	0	1
1549	0	1
1550	0	1
1551	0	1
1552	0	1
1553	0	1
1554	0	1
1555	0	1
1556	0	1
1557	0	0.946545
1558	0	0.467239
1559	0	0
1560	0	0
1561	0	0
1562	0	0
1563	0	0
1564	0	0
1565	0	0
1566	0	0
1567	0	0
1568	0	0
1569	0	0
1570	0	0
1571	0	0
1572	0	0
1573	0	0
1574	0	0
1575	0	0
1576	0	0
1577	0	0
1578	0	0
1579	0	0
1580	0	0
1581	0	0
1582	0	0
1583	0	0
1584	0	0
1585	0	0
1586	0	0.458874
1587	0	0.747619
1588	0	0.348731
1589	0	0.409662
1590	0	0.416281
1591	0	0.383904
1592	0	0.361232
1593	0	0.356145
1594	0	0.35203
1595	0	0.340266
1596	0	0.232679
1597	0	0.346
1598	0	0.331951
1599	0	0.460553
1600	0	0.468438
1601	0	0.259452
1602	0	0.488637
1603	0	0.467952
1604	0	0.40938
1605	0	0.20915
1606	0	0.155844
1607	0	0.142857
1608	0	1
1609	0	1
1610	0	1
1611	0	0.333333
1612	0	0.333333
1613	0	0.2
1614	0	0.2
1615	0	0.2
1616	0	0.133333
1617	0	0.133333
1618	0	0.133333
1619	0	0.202899
1620	0	0.216667
1621	0	0.216667
1622	0	0.146237
1623	0	0.147177
1624	0	0.139113
1625	0	0.0813953
1626	0	0.0708899
1627	0	0.0677848
1628	0	0.0749306
1629	0	0.0697279
1630	0	0.0708899
1631	0	0.0595777
1632	0	0.0599034
1633	0	0.0628019
1634	0	0.0549645
1635	0	0.0510204
1636	0	0.054078
1637	0	0.0426065
1638	0	0.0438596
1639	0	0.0471869
1640	0	0.0957875
1641	0	0.0990486
1642	0	0.101454
1643	0	0.105538
1644	0	0.113309
1645	0	0.119924
1646	0	0.156579
1647	0	0.244035
1648	0	0.246708
1649	0	0.123496
1650	0	0.167233
1651	0	0.208288
1652	0	0.288677
1653	0	0.461096
1654	0	0.483811
1655	0	0.821364
1656	0	0.83413
1657	0	0.739445
1658	0	0.805758
1659	0	0.808845
1660	0	0.832023
1661	0	0.832127
1662	0	0.832127
1663	0	0.832127
1664	0	0.903812
1665	0	0.90476
1666	0	0.778462
1667	0	0.506146
1668	0	0.982694
1669	0	0.982694
1670	0	0.969403
1671	0	0.8
1672	0	0.8
1673	0	0.990348
1674	0	0.990338
1675	0	0.990338
1676	0	0.990338
1677	0	0.990348
1678	0	0.990329
1679	0	0.990329
1680	0	0.988411
1681	0	0.988425
1682	0	0.988425
1683	0	0.988425
1684	0	0.988425
1685	0	0
1686	0	0
1687	0	0
1688	0	0
1689	0	0
1690	0	0
1691	0	0
1692	0	0
1693	0	0.984536
1694	0	0
1695	0	0
1696	0	0
1697	0	0
1698	0	0
1699	0	0
1700	0	0
1701	0	0
1702	0	0
1703	0	0
1704	0	0
1705	0	0
1706	0	0
1707	0	0
1708	0	0
1709	0	0
1710	0	0
1711	0	0
1712	0	0
1713	0	0
1714	0	0
1715	0	0
1716	0	0
1717	0	0
1718	0	0
1719	0	0
1720	0	0
1721	0	0
1722	0	0
1723	0	0.047619
1724	0	0.047619
1725	0	0.0714286
1726	0	0.0357143
1727	0	0.0714286
1728	0	0.107143
1729	0	0.107143
1730	0	0.142857
1731	0	0.583333
1732	0	0.777778
1733	0	0.777778
1734	0	0.777778
1735	0	0.777778
1736	0	0.8
1737	0	0.8
1738	0	0.560606
1739	0	0.604396
1740	0	0.978577
1741	0	0.992178
1742	0	0.998041
1743	0	0.998041
1744	0	0.99608
1745	0	0.994123
1746	0	0.994123
1747	0	0.992191
1748	0	0.992207
1749	0	0.990282
1750	0	0.990282
1751	0	0.988368
1752	0	0.992252
1753	0	0.992252
1754	0	0.992252
1755	0	0.99418
1756	0	1
1757	0	1
1758	1	1
1759	0	0.547619
1760	0	0.547619
1761	0	0.547619
1762	0	0.547619
1763	0	0.509852
1764	0	0.509852
1765	0	0.939191
1766	0	0.939191
1767	0	0.973055
1768	0	0.976892
1769	0	0.976892
1770	0	1
1771	0	1
1772	0	1
1773	0	0.8
1774	0	0.994186
1775	0	0.992252
1776	0	0.99418
1777	0	0.99418
1778	0	0.99418
1779	0	0.996118
1780	0	0.996118
1781	0	0.996126
1782	0	0.996126
1783	0	0.996126
1784	0	0.99613
1785	0	0
1786	0	0.998066
1787	0	0.998066
1788	0	0.996141
1789	0	0.99422
1790	0	0.994214
1791	0	0.992289
1792	0	0.994214
1793	0	0.994214
1794	0	0.994214
1795	0	0.994214
1796	0	0.994214
1797	0	0.994214
1798	0	0.994214
1799	0	0.994214
1800	0	0.992237
1801	0	0.92862
1802	0	1
1803	0	1
1804	0	0
1805	0	0
1806	0	0
1807	0	0
1808	0	0
1809	0	0
1810	0	0.851841
1811	0	0.851708
1812	0	0.355556
1813	0	0.6
1814	0	0.6
1815	0	0.847171
1816	0	0.6
1817	0	0.4
1818	1	0
1819	1	0
1820	1	0
1821	1	0
1822	1	0
1823	1	0
1824	1	0
1825	1	0
1826	1	0
1827	1	0
1828	1	0
1829	1	0
1830	1	0
1831	1	0
1832	1	0
1833	1	0
1834	1	0
1835	1	0
1836	1	0
1837	1	0
1838	1	0
1839	1	0
1840	1	0
1841	1	0
1842	1	0
1843	1	0
1844	1	0
1845	1	0
1846	1	0
1847	1	0
1848	1	0
1849	1	0
1850	1	0
1851	1	0
1852	1	0
1853	1	0
1854	1	0
1855	1	0
1856	1	0
1857	1	0
1858	1	0
1859	1	0
1860	0	0
1861	0	0.940962
1862	0	0.6
1863	0	0.6
1864	0	1
1865	0	1
1866	0	1
1867	0	0.874253
1868	0	0.948506
1869	0	0.954133
1870	0	0.963565
1871	0	0.466667
1872	0	0.466667
1873	0	0.466667
1874	0	1
1875	0	1
1876	1	1
1877	1	1
1878	1	1
1879	1	1
1880	1	1
1881	1	1
1882	0	1
1883	0	1
1884	0	1
1885	1	1
1886	1	1
1887	1	1
1888	1	1
1889	1	1
1890	1	1
1891	1	1
1892	0	1
1893	0	1
1894	0	1
1895	0	1
1896	0	1
1897	0	1
1898	0	1
1899	0	1
1900	0	1
1901	0	1
1902	0	1
1903	0	1
1904	0	1
1905	0	1
1906	0	1
1907	0	1
1908	0	1
1909	1	1
1910	1	1
1911	1	1
1912	1	1
1913	1	1
1914	0	0.971185
1915	0	0.971185
1916	0	0.971158
1917	0	0.75
1918	0	0.75
1919	0	0.8
1920	0	0.994175
1921	0	0.99418
1922	0	0.994186
1923	0	0.996122
1924	0	0.994186
1925	0	0.992259
1926	0	0.992259
1927	0	0.988411
1928	0	0.986513
1929	0	0.988434
1930	0	0.988445
1931	0	0.986526
1932	0	0.990366
1933	0	0.990366
1934	0	0.992282
1935	0	0.992282
1936	0	0.990357
1937	0	0.990357
1938	0	0.988436
1939	0	0.988436
1940	0	0.984605
1941	0	0.984605
1942	0	0.984619
1943	0	0.984619
1944	0	0.97888
1945	0	0.97888
1946	0	0.978819
1947	0	0.976911
1948	0	0.978806
1949	0	0.978778
1950	0	0
1951	0	0
1952	0	0.98641
1953	0	0.990282
1954	0	0.990282
1955	0	0.990291
1956	0	0.990321
1957	0	0.990321
1958	0	0.99032
1959	0	0.99032
1960	0	0.9884
1961	0	0.986474
1962	0	0
1963	0	0.992244
1964	0	0.992244
1965	0	0.99031
1966	0	0
1967	0	0
1968	0	0
1969	0	0
1970	0	0.922353
1971	0	0.848627
1972	0	0.897574
1973	0	0.5
1974	0	0.3
1975	0	0
1976	0	0.815741
1977	0	0.475506
1978	0	0.337413
1979	0	0.557921
1980	0	0.548219
1981	0	1
1982	0	0.5
1983	0	0
1984	0	0
1985	0	0
1986	0	0
1987	0	0
1988	0	0
1989	0	0
1990	0	0
1991	0	0
1992	0	0
1993	0	0
1994	0	0
1995	0	0
1996	0	0.3
1997	0	0.3
1998	0	0
1999	0	0.166667
2000	0	0.166667
2001	0	0.333333
2002	0	0.333333
2003	0	0.333333
2004	0	0.166667
2005	0	0.535983
2006	0	0.575182
2007	0	0
2008	0	0
2009	0	0
2010	0	0
2011	0	0
2012	0	0
2013	0	0
2014	0	0
2015	0	0
2016	0	0.766554
2017	0	0.333333
2018	0	0.166667
2019	0	0.166667
2020	0	0.166667
2021	0	0.1
2022	0	0.333333
2023	0	0.540979
2024	0	0.676612
2025	0	0.166667
2026	0	0.190476
2027	0	0.190476
2028	0	0.190476
2029	0	0.21978
2030	0	0.190476
2031	0	0.190476
2032	0	0.154412
2033	0	0.154412
2034	0	0.469477
2035	0	0.450124
2036	0	0.0745098
2037	0	0.086727
2038	0	0.0814815
2039	0	0.485512
2040	0	0.46833
2041	0	0.436289
2042	0	0.107143
2043	0	0
2044	0	0.295238
2045	0	0.382576
2046	0	0.410263
2047	0	0.534007
2048	0	0.617255
2049	0	0.59276
2050	0	0.614902
2051	0	0.617255
2052	0	0.479123
2053	0	0.764493
2054	0	0.764493
2055	0	0.744589
2056	0	0.744589
2057	0	0.744589
2058	0	0.744589
2059	0	0.744589
2060	0	0.427081
2061	0	0.221053
2062	0	0.32041
2063	0	0.707806
2064	0	0.708263
2065	0	0.705957
2066	0	0.705712
2067	0	0.304762
2068	0	0.758914
2069	0	0.355742
2070	0	0.345554
2071	0	0.704427
2072	0	0.200758
2073	0	0.19697
2074	0	0.19697
2075	0	0.221591
2076	0	0.236742
2077	0	0.660268
2078	0	0.65829
2079	0	0.655982
2080	0	0.180488
2081	0	0.198381
2082	0	0.244207
2083	0	0.258065
2084	0	0.258065
2085	0	0.158333
2086	0	0.158333
2087	0	0.2
2088	0	0.285714
2089	0	0.333333
2090	0	0.466667
2091	0	0.466667
2092	0	0.466667
2093	0	0.466667
2094	0	1
2095	0	0.424856
2096	0	0.691403
2097	0	0.64577
2098	0	0.939199
2099	0	0.982656
2100	0	0.333333
2101	0	0.333333
2102	1	1
2103	1	1
2104	0	1
2105	0	1
2106	0	0.996163
2107	0	0.996167
2108	0	0.996167
2109	0	0.996167
2110	0	0.996167
2111	0	0.998081
2112	0	0.998081
2113	0	0.998081
2114	0	0.998081
2115	0	0.998081
2116	0	0.998081
2117	0	0.998081
2118	0	0.998081
2119	0	0.846154
2120	0	0.5
2121	0	0.975311
2122	0	0.975311
2123	0	1
2124	0	0.97536
2125	0	0.998084
2126	0	0.998084
2127	0	0.998084
2128	0	0.998084
2129	0	0.998084
2130	0	0.998084
2131	0	0.998084
2132	0	0.998084
2133	0	0.998084
2134	0	0.998084
2135	0	0.998084
2136	0	0.998084
2137	0	0.998084
2138	0	0.996174
2139	0	0.996174
2140	0	0.996174
2141	0	0.996174
2142	0	0.99617
2143	0	0
2144	0	0.990431
2145	0	0.982787
2146	0	0
2147	0	0.98
2148	0	0.941188
2149	0	0.92198
2150	0	0.437198
2151	0	1
2152	0	0.82684
2153	0	0.333333
2154	0	0
2155	0	0.730159
2156	0	0.899225
2157	0	0.489418
2158	0	0.460827
2159	0	0.777778
2160	0	0.777778
2161	0	0.346154
2162	0	0.235056
2163	0	0.258817
2164	0	0.516309
2165	0	0.586233
2166	0	0.585679
2167	0	0.887468
2168	0	0.837188
2169	0	0.552832
2170	0	0.913131
2171	0	0.913131
2172	0	0.85391
2173	0	1
2174	0	0.3
2175	0	0.133333
2176	0	0.501425
2177	0	0.425989
2178	0	0.3903
2179	0	0.734028
2180	0	1
2181	0	0
2182	0	0
2183	0	0
2184	0	0
2185	0	0
2186	0	0
2187	0	0
2188	0	0
2189	0	0
2190	0	0
2191	0	0.633437
2192	0	0.394627
2193	0	0.2
2194	0	0.2
2195	0	0.2
2196	0	0.333333
2197	0	0.333333
2198	0	0.333333
2199	0	0.333333
2200	0	0
2201	0	0
2202	0	0
2203	0	0
2204	0	0
2205	0	0
2206	0	0
2207	0	0
2208	0	0
2209	0	0
2210	0	0
2211	0	0
2212	0	0
2213	0	0
2214	0	0.719217
2215	0	0.335461
2216	0	0.525519
2217	0	0.45977
2218	0	0.809195
2219	0	0.946825
2220	0	0.946817
2221	0	0.25
2222	0	0.2
2223	0	0.2
2224	0	0.142857
2225	0	0.942618
2226	0	1
2227	0	1
2228	0	0.432148
2229	0	0.287389
2230	0	0.380952
2231	0	0.33414
2232	0	0.814286
2233	0	0.457022
2234	0	0.605708
2235	0	0.699921
2236	0	0.992334
2237	0	0.994247
2238	0	0.992341
2239	0	0.992341
2240	0	0.992341
2241	0	0.992341
2242	0	0
2243	0	0
2244	0	0
2245	0	0
2246	0	0
2247	0	0.4
2248	0	0.285714
2249	0	0.2
2250	0	0.2
2251	0	0.151515
2252	0	0.111111
2253	0	0.111111
2254	0	0.194444
2255	0	0.0909091
2256	0	0.0757576
2257	0	0.0916667
2258	0	0.104575
2259	0	0.136667
2260	0	0.941546
2261	0	0.463008
2262	0	0.176667
2263	0	0.202279
2264	0	0.480462
2265	0	0.254902
2266	0	0.32381
2267	0	0.925002
2268	0	0.672727
2269	0	0.672727
2270	0	0.654545
2271	0	0.94903
2272	0	0.79085
2273	0	0.79085
2274	0	0.975268
2275	0	0.975275
2276	0	0.979059
2277	0	0.982843
2278	0	0.982843
2279	0	0
2280	0	0.986618
2281	0	0.986618
2282	0	0.986618
2283	0	0.333333
2284	0	0.333333
2285	0	0.333333
2286	0	0.333333
2287	0	0.333333
2288	0	0.333333
2289	0	0.333333
2290	0	0.333333
2291	0	0.333333
2292	0	0.333333
2293	0	0.333333
2294	0	0.333333
2295	0	0.333333
2296	0	1
2297	0	1
2298	0	1
2299	0	1
2300	0	0.984726
2301	0	0.98474
2302	0	0.98474
2303	0	0.980946
2304	0	0
2305	0	0
2306	0	0
2307	0	0
2308	0	0
2309	0	0
2310	0	0
2311	0	0
2312	0	0
2313	0	0
2314	0	0
2315	0	0
2316	0	0
2317	0	0
2318	0	0
2319	0	0
2320	0	0
2321	0	0
2322	0	0
2323	0	0
2324	0	0
2325	0	0
2326	0	0
2327	0	0
2328	0	0
2329	0	0
2330	0	0
2331	0	0
2332	0	0
2333	0	0
2334	0	0
2335	0	0
2336	0	0
2337	0	0
2338	0	0
2339	0	0
2340	0	0
2341	0	0
2342	0	0
2343	0	0
2344	0	0
2345	0	0
2346	0	0
2347	0	0
2348	0	0
2349	0	0
2350	0	0
2351	0	0
2352	0	0
2353	0	0
2354	0	0
2355	0	0
2356	0	0
2357	0	0
2358	0	0
2359	0	0
2360	0	0
2361	0	0
2362	0	0
2363	0	0
2364	0	0
2365	0	0
2366	0	0
2367	0	0
2368	0	0
2369	0	0
2370	0	0
2371	0	0
2372	0	0
2373	0	0
2374	0	0
2375	0	0
2376	0	0
2377	0	0
2378	0	0
2379	0	0
2380	0	0
2381	0	0
2382	0	0
2383	0	0
2384	0	0
2385	0	0.768293
2386	0	0.913104
2387	0	0.913104
2388	0	0
2389	0	0
2390	0	0
2391	0	0
2392	0	0
2393	0	0
2394	0	0
2395	0	0
2396	0	0
2397	0	0
2398	0	0
2399	0	0
2400	0	0
2401	0	0
2402	0	0
2403	0	0
2404	0	0
2405	0	0
2406	1	0
2407	0	0.533333
2408	0	0.2
2409	0	0.2
2410	0	0.2
2411	0	0.2
2412	0	0.2
2413	0	0.142857
2414	0	0.142857
2415	0	0.111111
2416	0	0.0909091
2417	0	0.0769231
2418	0	0.104575
2419	0	0.0952381
2420	0	0.627289
2421	0	0.582399
2422	0	0.542668
2423	0	0.47741
2424	0	0.4205
2425	0	0.31945
2426	0	0.272272
2427	0	0.373244
2428	0	1
2429	0	1
2430	0	1
2431	0	1
2432	0	1
2433	0	0.563914
2434	0	0.564502
2435	0	0.661873
2436	0	0.12381
2437	0	0.133333
2438	0	0.142857
2439	0	0.2
2440	0	0.3
2441	0	0.3
2442	0	0.3
2443	0	0.3
2444	0	0.3
2445	0	0.3
2446	0	0.6
2447	0	0.6
2448	0	0.392857
2449	0	0.357143
2450	0	0.622222
2451	0	0.786913
2452	0	0.472906
2453	0	0.507937
2454	0	0.510582
2455	0	0.510582
2456	0	0.432258
2457	0	0.468806
2458	0	0.72549
2459	0	0.739683
2460	0	0.505319
2461	0	0.922353
2462	0	0.960784
2463	0	0.569682
2464	0	0.974236
2465	0	0.949174
2466	0	0.986603
2467	0	0.986603
2468	0	0.986603
2469	0	0.986603
2470	0	0
2471	0	0.9885
2472	0	0.9885
2473	0	0.545455
2474	0	0
2475	0	0
2476	0	0
2477	0	0
2478	0	0
2479	0	0
2480	0	0
2481	0	0
2482	0	0
2483	0	0
2484	0	0
2485	0	0
2486	0	0
2487	0	0
2488	0	0
2489	0	0
2490	0	0
2491	0	0.986605
2492	0	0.986605
2493	0	0.986605
2494	0	0.986605
2495	0	0
2496	0	0
2497	0	0
2498	0	0
2499	0	0
2500	0	0
2501	0	0
2502	0	0
2503	0	0
2504	0	0
2505	0	0
2506	0	0
2507	0	0
2508	0	0
2509	0	0
2510	0	0
2511	0	0
2512	0	0
2513	0	0
2514	0	0
2515	0	0
2516	0	0
2517	0	0
2518	0	0
2519	0	0
2520	0	0
2521	0	0
2522	0	0
2523	0	0
2524	0	0
2525	0	0
2526	0	0
2527	0	0
2528	0	0
2529	0	0
2530	0	0.982792
2531	0	0.982792
2532	0	0.980889
2533	0	0.978988
2534	0	0
2535	0	0.768293
2536	0	0.581818
2537	0	0.463652
2538	0	0.576631
2539	0	0
2540	0	0
2541	0	0
2542	0	0
2543	0	0
2544	0	0
2545	0	0
2546	0	0
2547	0	0
2548	0	0
2549	0	0
2550	0	0.304762
2551	0	0.692062
2552	0	0.701998
2553	0	0.695129
2554	0	0
2555	0	0
2556	0	0
2557	0	0
2558	0	0
2559	0	0
2560	0	0
2561	0	0
2562	0	0
2563	0	0
2564	0	0
2565	0	0
2566	0	0
2567	0	0
2568	0	0
2569	0	0
2570	0	0
2571	0	0
2572	0	0
2573	0	0
2574	0	0
2575	0	0
2576	0	0
2577	0	0
2578	0	0
2579	0	0
2580	0	0
2581	0	0
2582	0	0
2583	0	0
2584	0	0
2585	0	0
2586	0	0
2587	0	0
2588	0	0
2589	0	0
2590	0	0
2591	0	0
2592	0	0
2593	0	0
2594	0	0
2595	0	0
2596	0	0
2597	0	0
2598	0	0
2599	0	0
2600	0	0
2601	0	0
2602	0	0
2603	0	0
2604	0	0
2605	0	0
2606	0	0
2607	0	0
2608	0	0
2609	0	0
2610	0	0
2611	0	0
2612	0	0
2613	0	0
2614	0	0
2615	0	0
2616	0	0
2617	0	0
2618	0	0
2619	0	0
2620	0	0
2621	0	0
2622	0	0
2623	0	0
2624	0	0
2625	0	0
2626	0	0
2627	0	0
2628	0	0
2629	0	0
2630	0	0
2631	0	0
2632	0	0
2633	0	0
2634	0	0.166667
2635	0	0.166667
2636	0	0
2637	0	0
2638	0	0
2639	0	0
2640	0	0
2641	0	0
2642	0	0
2643	0	0
2644	0	0
2645	0	0
2646	0	0
2647	0	0
2648	0	0
2649	0	0
2650	0	0
2651	0	0
2652	0	0
2653	0	0
2654	0	0
2655	0	0
2656	0	0
2657	0	0
2658	0	0
2659	0	0
2660	0	0
2661	0	0
2662	0	0
2663	0	0
2664	0	0
2665	0	0
2666	0	0
2667	0	0
2668	0	0
2669	0	0
2670	0	0
2671	0	0
2672	0	0
2673	0	0
2674	0	0
2675	0	0
2676	0	0
2677	0	0
2678	0	0
2679	0	0
2680	0	0
2681	0	0
2682	0	0
2683	0	0.909138
2684	0	0.949995
2685	0	0
2686	0	0
2687	0	0
2688	0	0.55
2689	0	0.94886
2690	0	0
2691	0	0
2692	0	0
2693	0	0
2694	0	0
2695	0	0
2696	0	0
2697	0	0
2698	0	0
2699	0	0
2700	0	0
2701	0	0
2702	0	0
2703	0	0
2704	0	0
2705	0	0
2706	0	0
2707	0	0
2708	0	0
2709	0	0
2710	0	0
2711	0	0
2712	0	0
2713	0	0
2714	0	0
2715	0	0
2716	0	0
2717	0	0
2718	0	0
2719	0	0
2720	0	0
2721	0	0
2722	0	0
2723	0	0
2724	0	0
2725	0	0
2726	0	0
2727	0	0
2728	0	0
2729	0	0
2730	0	0
2731	0	0
2732	0	0
2733	0	0
2734	0	0
2735	0	0
2736	0	0
2737	0	0
2738	0	0
2739	0	0
2740	0	0
2741	0	0
2742	0	0
2743	0	0
2744	0	0
2745	0	0
2746	0	0
2747	0	0
2748	0	0
2749	0	0
2750	0	0
2751	0	0
2752	0	0
2753	0	0
2754	0	0
2755	0	0
2756	0	0
2757	0	0.047619
2758	0	0.047619
2759	0	0.047619
2760	0	0.047619
2761	0	0.047619
2762	0	0.047619
2763	0	0.047619
2764	0	0.047619
2765	0	0.047619
2766	0	0.047619
2767	0	0.047619
2768	0	0.047619
2769	0	0.047619
2770	0	0.047619
2771	0	0.047619
2772	0	0.047619
2773	0	0.047619
2774	0	0.047619
2775	0	0.0714286
2776	0	0.0714286
2777	0	0.0714286
2778	0	0.0555556
2779	0	0.0555556
2780	0	0.0555556
2781	0	0.0555556
2782	0	0.0545455
2783	0	0.0545455
2784	0	0.141667
2785	0	0.158333
2786	0	0.124183
2787	0	0.124183
2788	0	0.124183
2789	0	0.1
2790	0	0.0904762
2791	0	0.0809524
2792	0	0.0809524
2793	0	0.0822511
2794	0	0.0606061
2795	0	0.0606061
2796	0	0.0316206
2797	0	0.0237154
2798	0	0.0253623
2799	0	0.0253623
2800	0	0.021645
2801	0	0.021645
2802	0	0.0263158
2803	0	0.0238095
2804	0	0.034632
2805	0	0.034632
2806	0	0.034632
2807	0	0.0355731
2808	0	0.0355731
2809	0	0.027668
2810	0	0.0362319
2811	0	0.0471014
2812	0	0.0615942
2813	0	0.0866667
2814	0	0.0866667
2815	0	0.163333
2816	0	0.36
2817	0	0.418972
2818	0	0.403333
2819	0	0.421538
2820	0	0.473846
2821	0	0.473846
2822	0	0.438746
2823	0	0.505291
2824	0	0.571429
2825	0	0.571429
2826	0	0.583908
2827	0	0.583908
2828	0	0.583215
2829	0	0.662873
2830	0	0.70697
2831	0	0.70697
2832	0	0.70697
2833	0	0.70697
2834	0	0.70697
2835	0	0.70697
2836	0	0.70697
2837	0	0.70697
2838	0	0.70697
2839	0	0.70697
2840	0	0.70697
2841	0	0.70697
2842	0	0.70697
2843	0	0.70697
2844	0	0.70697
2845	0	0.70697
2846	0	0.70697
2847	0	0.70697
2848	0	0.70697
2849	0	0.70697
2850	0	0.70697
2851	0	0.7139
2852	0	0.7139
2853	0	0.7139
2854	0	0.7139
2855	0	0.7139
2856	0	0.7139
2857	0	0.7139
2858	0	0.7139
2859	0	0.7139
2860	0	0.7139
2861	0	0.7139
2862	0	0.7139
2863	0	0.7139
2864	0	0.7139
2865	0	0.7139
2866	0	0.7139
2867	0	0.7139
2868	0	0.7139
2869	0	0.7139
2870	0	0.7139
2871	0	0.7139
2872	0	0.7139
2873	0	0.7139
2874	0	0.7139
2875	0	0.7139
2876	0	0.7139
2877	0	0.7139
2878	0	0.7139
2879	0	0.7139
2880	0	0.7139
2881	0	0.7139
2882	0	0.7139
2883	0	0.7139
2884	0	0.7139
2885	0	0.7139
2886	0	0.7139
2887	0	0.7139
2888	0	0.7139
2889	0	0.7139
2890	0	0.7139
2891	0	0.7139
2892	0	0.7139
2893	0	0.7139
2894	0	0.7139
2895	0	0.7139
2896	0	0.7139
2897	0	0.7139
2898	0	0.7139
2899	0	0.7139
2900	0	0.7139
2901	0	0.7139
2902	0	0.7139
2903	0	0.720513
2904	0	0.720513
2905	0	0.720513
2906	0	0.720513
2907	0	0.720513
2908	0	0.720513
2909	0	0.720513
2910	0	0.720513
2911	0	0.720513
2912	0	0.720513
2913	0	0.720513
2914	0	0.807692
2915	0	0.807692
2916	0	0.807692
2917	0	0.807692
2918	0	0.807692
2919	0	0.807692
2920	0	0.807692
2921	0	0.807692
2922	0	0.720513
2923	0	0.720513
2924	0	0.720513
2925	0	0.720513
2926	0	0.720513
2927	0	0.720513
2928	0	0.720513
2929	0	0.720513
2930	0	0.720513
2931	0	0.720513
2932	0	0.720513
2933	0	0.720513
2934	0	0.720513
2935	0	0.720513
2936	0	0.720513
2937	0	0.720513
2938	0	0.720513
2939	0	0.720513
2940	0	0.720513
2941	0	0.720513
2942	0	0.720513
2943	0	0.720513
2944	0	0.720513
2945	0	0.720513
2946	0	0.720513
2947	0	0.720513
2948	0	0.720513
2949	0	0.720513
2950	0	0.720513
2951	0	0.720513
2952	0	0.720513
2953	0	0.720513
2954	0	0.720513
2955	0	0.720513
2956	0	0.720513
2957	0	0.720513
2958	0	0.720513
2959	0	0.720513
2960	0	0.720513
2961	0	0.720513
2962	0	0.720513
2963	0	0.720513
2964	0	0.720513
2965	0	0.720513
2966	0	0.720513
2967	0	0.758435
2968	0	0.758435
2969	0	0.758435
2970	0	0.758435
2971	0	0.758435
2972	0	0.758435
2973	0	0.758435
2974	0	0.758435
2975	0	0.758435
2976	0	0.758435
2977	0	0.758435
2978	0	0.758435
2979	0	0.798009
2980	0	0.798009
2981	0	0.798009
2982	0	0.798009
2983	0	0.842342
2984	0	0.842342
2985	0	0.786325
2986	0	0.786325
2987	0	0.786325
2988	0	0.786325
2989	0	0.786325
2990	0	0.786325
2991	0	0.786325
2992	0	0.786325
2993	0	0.786325
2994	0	0.604396
2995	0	0.604396
2996	0	0.604396
2997	0	0.604396
2998	0	0.214286
2999	0	0.214286
3000	0	0.214286
3001	0	0.214286
3002	0	0.214286
3003	0	0.214286
3004	0	0.214286
3005	0	0.214286
3006	0	0.214286
3007	0	0.214286
3008	0	0.214286
3009	0	0.214286
3010	0	0.214286
3011	0	0.214286
3012	0	0.214286
3013	0	0.214286
3014	0	0.0666667
3015	0	0.0666667
3016	0	0.0666667
3017	0	0.0666667
3018	0	0.0666667
3019	0	0.0666667
3020	0	0.0666667
3021	0	0
3022	0	0
3023	0	0
3024	0	0
3025	0	0
3026	0	0
3027	0	0
3028	0	0
3029	0	0
3030	0	0
3031	0	0
3032	0	0
3033	0	0
3034	0	0
3035	0	0
3036	0	0
3037	0	0
3038	0	0
3039	0	0
3040	0	0
3041	0	0
3042	0	0
3043	0	0
3044	0	0
3045	0	0
3046	0	0
3047	0	0
3048	0	0
3049	0	0
3050	0	0
3051	0	0
3052	0	0
3053	0	0
3054	0	0
3055	0	0
3056	0	0
3057	0	0
3058	0	0
3059	0	0
3060	0	0
3061	0	0
3062	0	0
3063	0	0
3064	0	0
3065	0	0
3066	0	0
3067	0	0
3068	0	0
3069	0	0
3070	0	0
3071	0	0
3072	0	0
3073	0	0
3074	0	0
3075	0	0
3076	0	0
3077	0	0
3078	0	0.1
3079	0	0.1
3080	0	0.1
3081	0	0.1
3082	0	0.1
3083	0	0.1
3084	0	0.1
3085	0	0.1
3086	0	0.1
3087	0	0.1
3088	0	0.1
3089	0	0.1
3090	0	0.1
3091	0	0.1
3092	0	0.1
3093	0	0.1
3094	0	0
3095	0	0.1
3096	0	0.1
3097	0	0.1
3098	0	0.1
3099	0	0.1
3100	0	0.1
3101	0	0
3102	0	0
3103	0	0.1
3104	0	0.1
3105	0	0.1
3106	0	0.1
3107	0	0.1
3108	0	0.1
3109	0	0.1
3110	0	0.1
3111	0	0
3112	0	0.1
3113	0	0.1
3114	0	0.1
3115	0	0.1
3116	0	0.1
3117	0	0.1
3118	0	0.438095
3119	0	0.438095
3120	0	0.438095
3121	0	0.438095
3122	0	0.438095
3123	0	0.438095
3124	0	0.438095
3125	0	0.438095
3126	0	0.438095
3127	0	0.897506
3128	0	0
3129	0	0
3130	0	0
3131	0	0
3132	0	0
3133	0	0
3134	0	0
3135	0	0
3136	0	0
3137	0	0
3138	0	0
3139	0	0
3140	0	0
3141	0	0
3142	0	0
3143	0	0
3144	0	0
3145	0	0
3146	0	0
3147	0	0
3148	0	0
3149	0	0
3150	0	0
3151	0	0
3152	0	0
3153	0	0
3154	0	0
3155	0	0
3156	0	0
3157	0	0
3158	0	0
3159	0	0
3160	0	0
3161	0	0
3162	0	0
3163	0	0
3164	0	0
3165	0	0
3166	0	0
3167	0	0
3168	0	0
3169	0	0
3170	0	0
3171	0	0
3172	0	0
3173	0	0
3174	0	0
3175	0	0
3176	0	0
3177	0	0
3178	0	0
3179	0	0
3180	0	0
3181	0	0
3182	0	0
3183	0	0
3184	0	0
3185	0	0
3186	0	0
3187	0	0
3188	0	0
3189	0	0
3190	0	0
3191	0	0
3192	0	0
3193	0	0
3194	0	0
3195	0	0
3196	0	0
3197	0	0
3198	0	0
3199	0	0
3200	0	0
3201	0	0
3202	0	0
3203	0	0
3204	0	0
3205	0	0
3206	0	0
3207	0	0
3208	0	0
3209	0	0
3210	0	0
3211	0	0
3212	0	0
3213	0	0
3214	0	0
3215	0	0
3216	0	0
3217	0	0
3218	0	0
3219	0	0
3220	0	0
3221	0	0
3222	0	0
3223	0	0
3224	0	0
3225	0	0
3226	0	0
3227	0	0
3228	0	0
3229	0	0
3230	0	0
3231	0	0
3232	0	0
3233	0	0
3234	0	0
3235	0	0
3236	0	0
3237	0	0
3238	0	0
3239	0	0
3240	0	0
3241	0	0
3242	0	0
3243	0	0
3244	0	0
3245	0	0
3246	0	0
3247	0	0
3248	0	0
3249	0	0
3250	0	0
3251	0	0
3252	0	0
3253	0	0
3254	0	0
3255	0	0
3256	0	0
3257	0	0
3258	0	0
3259	0	0
3260	0	0
3261	0	0
3262	0	0
3263	0	0
3264	0	0
3265	0	0
3266	0	0
3267	0	0
3268	0	0
3269	0	0
3270	0	0
3271	0	0
3272	0	0
3273	0	0
3274	0	0
3275	0	0
3276	0	0
3277	0	0
3278	0	0
3279	0	0
3280	0	0
3281	0	0
3282	0	0
3283	0	0
3284	0	0
3285	0	0
3286	0	0
3287	0	0
3288	0	0
3289	0	0
3290	0	0
3291	0	0
3292	0	0
3293	0	0
3294	0	0
3295	0	0
3296	0	0
3297	0	0
3298	0	0
3299	0	0
3300	0	0
3301	0	0
3302	0	0
3303	0	0
3304	0	0
3305	0	0
3306	0	0
3307	0	0
3308	0	0
3309	0	0
3310	0	0
3311	0	0
3312	0	0
3313	0	0
3314	0	0
3315	0	0
3316	0	0
3317	0	0
3318	0	0
3319	0	0
3320	0	0
3321	0	0
3322	0	0
3323	0	0
3324	0	0
3325	0	0
3326	0	0
3327	0	0
3328	0	0
3329	0	0
3330	0	0
3331	0	0
3332	0	0
3333	0	0
3334	0	0
3335	0	0
3336	0	0
3337	0	0
3338	0	0
3339	0	0
3340	0	0
3341	0	0
3342	0	0
3343	0	0
3344	0	0
3345	0	0
3346	0	0
3347	0	0
3348	0	0
3349	0	0.918064
3350	0	0
3351	0	0
3352	0	0
3353	0	0
3354	0	0
3355	0	0
3356	0	0
3357	0	0
3358	0	0
3359	0	0
3360	0	0
3361	0	0
3362	0	0
3363	0	0
3364	0	0
3365	0	0
3366	0	0
3367	0	0
3368	0	0
3369	0	0.818182
3370	0	0.818182
3371	0	0.818182
3372	0	0.818182
3373	0	0.818182
3374	0	0.818182
3375	0	0.818182
3376	0	0.818182
3377	0	0.818182
3378	0	0.818182
3379	0	0.818182
3380	0	0.818182
3381	0	0
3382	0	0
3383	0	0
3384	0	0
3385	0	0
3386	0	0
3387	0	0
3388	0	0
3389	0	0
3390	0	0
3391	0	0
3392	0	0
3393	0	0
3394	0	0
3395	0	0
3396	0	0
3397	0	0
3398	0	0
3399	0	0
3400	0	0
3401	0	0
3402	0	0
3403	0	0
3404	0	0
3405	0	0
3406	0	0
3407	0	0
3408	0	0
3409	0	0
3410	0	0
3411	0	0
3412	0	0
3413	0	0
3414	0	0
3415	0	0
3416	0	0
3417	0	0
3418	0	0
3419	0	0
3420	0	0
3421	0	0
3422	0	0
3423	0	0
3424	0	0
3425	0	0
3426	0	0
3427	0	0
3428	0	0
3429	0	0
3430	0	0
3431	0	0
3432	0	0
3433	0	0
3434	0	0
3435	0	0
3436	0	0
3437	0	0
3438	0	0
3439	0	0
3440	0	0
3441	0	0
3442	0	0
3443	0	0
3444	0	0
3445	0	0
3446	0	0
3447	0	0
3448	0	0
3449	0	0
3450	0	0
3451	0	0
3452	0	0
3453	0	0
3454	0	0
3455	0	0
3456	0	0
3457	0	0
3458	0	0
3459	0	0
3460	0	0
3461	0	0
3462	0	0
3463	0	0
3464	0	0
3465	0	0
3466	0	0
3467	0	0
3468	0	0
3469	0	0
3470	0	0
3471	0	0
3472	0	0
3473	0	0
3474	0	0
3475	0	0
3476	0	0
3477	0	0
3478	0	0
3479	0	0
3480	0	0
3481	0	0
3482	0	0
3483	0	0
3484	0	0
3485	0	0
3486	1	0
3487	0	0
3488	0	0
3489	0	0
3490	0	0
3491	0	0
3492	0	0
3493	0	0
3494	0	0
3495	0	0
3496	0	0
3497	0	0
3498	0	0
3499	1	0
3500	0	0
3501	0	0
3502	0	0
3503	0	0
3504	0	0
3505	0	0
3506	0	0
3507	0	0
3508	0	0
3509	0	0
3510	0	0
3511	0	0
3512	0	0
3513	0	0
3514	0	0
3515	0	0
3516	0	0
3517	0	0
3518	0	0
3519	0	0
3520	0	0
3521	0	0
3522	0	0
3523	0	0
3524	0	0
3525	0	0
3526	0	0
3527	0	0
3528	0	0
3529	0	0
3530	0	0
3531	0	0
3532	0	0
3533	0	0
3534	0	0
3535	0	0
3536	0	0
3537	0	0
3538	0	0
3539	0	0
3540	0	0
3541	0	1
3542	0	1
3543	0	1
3544	0	1
3545	0	1
3546	0	1
3547	0	1
3548	0	1
3549	0	0.888441
3550	0	0.888441
3551	0	0
3552	0	0
3553	0	0.888421
3554	0	0.888317
3555	0	0.285714
3556	0	0.285714
3557	0	0.285714
3558	0	0.309091
3559	0	0.309091
3560	0	0.309091
3561	0	0.309091
3562	0	0.309091
3563	0	0.309091
3564	0	0.309091
3565	0	0.344203
3566	0	0.267196
3567	0	0.330801
3568	0	0.268657
3569	0	0.217193
3570	0	0.20646
3571	0	0.168539
3572	0	0.760455
3573	0	0.758328
3574	0	0.758935
3575	0	0.509872
3576	0	0.558974
3577	0	0.239839
3578	0	0.146237
3579	0	0.118985
3580	0	0.115137
3581	0	0.100601
3582	0	0.100601
3583	0	0.0894309
3584	0	0.0882695
3585	0	0.116129
3586	0	0.116129
3587	0	0.116129
3588	0	0.116129
3589	0	0.104167
3590	0	0.83173
3591	0	0.842955
3592	0	0.497418
3593	0	0.367665
3594	0	0.315194
3595	0	0.362982
3596	0	0.443697
3597	0	0.434563
3598	0	0.36056
3599	0	0.242368
3600	0	0.130435
3601	0	0.0818713
3602	0	0.0784314
3603	0	0.0583333
3604	0	0.0380952
3605	0	0.025641
3606	0	0
3607	0	0
3608	0	0
3609	0	0
3610	0	0
3611	0	0
3612	0	0
3613	0	0
3614	0	0
3615	0	0
3616	0	0
3617	0	0
3618	0	0
3619	0	0
3620	0	0
3621	0	0
3622	0	0
3623	0	0
3624	0	0
3625	0	0
3626	0	0
3627	0	0
3628	0	0
3629	0	0
3630	0	0
3631	0	0
3632	0	0
3633	0	0
3634	0	0
3635	0	0
3636	0	0
3637	0	0
3638	0	0
3639	0	0
3640	0	0
3641	0	0
3642	0	0
3643	0	0
3644	0	0
3645	0	0
3646	0	0
3647	0	0
3648	0	0
3649	0	0
3650	0	0
3651	0	0
3652	0	0
3653	0	0
3654	0	0
3655	0	0
3656	0	0
3657	0	0
3658	0	0
3659	0	0
3660	0	0
3661	0	0
3662	0	0
3663	0	0
3664	0	0
3665	0	0
3666	0	0
3667	0	0
3668	0	0
3669	0	0
3670	0	0
3671	0	0
3672	0	0
3673	0	0
3674	0	0
3675	0	0
3676	0	0
3677	0	0
3678	0	0
3679	0	0
3680	0	0
3681	0	0
3682	0	0
3683	0	0
3684	0	0
3685	0	0
3686	0	0
3687	0	0
3688	0	0
3689	0	0
3690	0	0
3691	0	0
3692	0	0
3693	0	0
3694	0	0
3695	0	0
3696	0	0
3697	0	0
3698	0	0
3699	0	0
3700	0	0
3701	0	0
3702	0	0
3703	0	0
3704	0	0
3705	0	0
3706	0	0
3707	0	0
3708	0	0
3709	0	0
3710	0	0
3711	0	0
3712	0	0
3713	0	0
3714	0	0
3715	0	0
3716	0	0
3717	0	0
3718	0	0
3719	0	0
3720	0	0
3721	0	0
3722	0	0
3723	0	0
3724	0	0
3725	0	0
3726	0	0
3727	0	0
3728	0	0
3729	0	0
3730	0	0
3731	0	0
3732	0	0
3733	0	0
3734	0	0
3735	0	0
3736	0	0
3737	0	0
3738	0	0
3739	0	0
3740	0	0
3741	0	0
3742	0	0
3743	0	0
3744	0	0
3745	0	0
3746	0	0
3747	0	0
3748	0	0
3749	0	0
3750	0	0
3751	0	0
3752	0	0
3753	0	0
3754	0	0
3755	0	0
3756	0	0
3757	0	0
3758	0	0
3759	0	0
3760	0	0
3761	0	0
3762	0	0
3763	0	0
3764	0	0
3765	0	0
3766	0	0
3767	0	0
3768	0	0
3769	0	0
3770	0	0
3771	0	0
3772	0	0
3773	0	0
3774	0	0
3775	0	0
3776	0	0
3777	0	0
3778	0	0
3779	0	0
3780	0	0
3781	0	0
3782	0	0
3783	0	0
3784	0	0
3785	0	0
3786	0	0
3787	0	0
3788	0	0
3789	0	0
3790	0	0
3791	0	0
3792	0	0
3793	0	0
3794	0	0
3795	0	0
3796	0	0
3797	0	0
3798	0	0
3799	0	0
3800	0	0
3801	0	0
3802	0	0
3803	0	0
3804	0	0
3805	0	0
3806	0	0
3807	0	0
3808	0	0
3809	0	0
3810	0	0
3811	0	0
3812	0	0
3813	0	0
3814	0	0
3815	0	0
3816	0	0
3817	0	0
3818	0	0
3819	0	0
3820	0	0
3821	0	0
3822	0	0
3823	0	0
3824	0	0
3825	0	0
3826	0	0
3827	0	0
3828	0	0
3829	0	0
3830	0	0
3831	0	0
3832	0	0
3833	0	0
3834	0	0
3835	0	0
3836	0	0
3837	0	0
3838	0	0
3839	0	0
3840	0	0
3841	0	0
3842	0	0
3843	0	0
3844	0	0
3845	0	0
3846	0	0
3847	0	0
3848	0	0
3849	0	0
3850	0	0
3851	0	0
3852	0	0
3853	0	0
3854	0	0
3855	0	0
3856	0	0
3857	0	0
3858	0	0
3859	0	0
3860	0	0
3861	0	0
3862	0	0
3863	0	0
3864	0	0
3865	0	0
3866	0	0
3867	0	0
3868	0	0
3869	0	0
3870	0	0
3871	0	0
3872	0	0
3873	0	0
3874	0	0
3875	0	0
3876	0	0
3877	0	0
3878	0	0
3879	0	0
3880	0	0
3881	0	0
3882	0	0
3883	0	0
3884	0	0
3885	0	0
3886	0	0
3887	0	0
3888	0	0
3889	0	0
3890	0	0
3891	0	0
3892	0	0
3893	0	0
3894	0	0
3895	0	0
3896	0	0
3897	0	0
3898	0	0
3899	0	0
3900	0	0
3901	0	0
3902	0	0
3903	0	0
3904	0	0
3905	0	0
3906	0	0
3907	0	0
3908	0	0
3909	0	0
3910	0	0
3911	0	0
3912	0	0
3913	0	0
3914	0	0
3915	0	0
3916	0	0
3917	0	0
3918	0	0
3919	0	0
3920	0	0
3921	0	0
3922	0	0
3923	0	0
3924	0	0
3925	0	0
3926	0	0
3927	0	0
3928	0	0
3929	0	0
3930	0	0
3931	0	0
3932	0	0
3933	0	0
3934	0	0
3935	0	0
3936	0	0
3937	0	0
3938	0	0
3939	0	0
3940	0	0
3941	0	0
3942	0	0
3943	0	0
3944	0	0
3945	0	0
3946	0	0
3947	0	0
3948	0	0
3949	0	0
3950	0	0
3951	0	0
3952	0	0
3953	0	0
