Site	ColumnScore	SumOfPairsScore
1	0	0
2	0	0
3	0	0
4	0	0
5	0	0
6	0	0
7	0	0
8	0	0
9	0	0
10	0	0
11	0	0
12	0	0
13	0	0
14	0	0
15	0	0
16	0	0
17	0	0
18	0	0
19	0	0
20	0	0
21	0	0
22	0	0
23	0	0
24	0	0
25	0	0
26	0	0
27	0	0
28	0	0
29	0	0
30	0	0
31	0	0
32	0	0
33	0	0
34	0	0
35	0	0
36	0	0
37	0	0
38	0	0
39	0	0
40	0	0
41	0	0
42	0	0
43	0	0
44	0	0
45	1	0
46	0	0
47	0	0
48	0	0
49	0	0
50	0	0
51	0	0
52	0	0
53	0	0
54	0	0
55	0	0
56	0	0
57	0	0
58	0	0
59	0	0
60	0	0
61	0	0
62	0	0
63	0	0
64	0	0
65	0	0
66	0	0
67	0	0
68	0	0
69	0	0
70	0	0
71	0	0
72	0	0
73	0	0
74	0	0
75	0	0
76	0	0
77	0	0
78	0	0
79	0	0
80	0	0
81	0	0
82	0	0
83	0	0
84	0	0
85	0	0
86	0	0
87	0	0
88	0	0
89	0	0
90	0	0
91	0	0
92	0	0
93	0	0
94	0	0
95	0	0
96	0	0
97	0	0
98	0	0
99	0	0
100	0	0
101	0	0
102	0	0
103	0	0
104	0	0
105	0	0
106	0	0
107	0	0
108	0	0
109	0	0
110	0	0
111	0	0
112	0	0
113	0	0
114	0	0
115	0	0
116	0	0
117	0	0
118	0	0
119	0	0
120	0	0
121	0	0
122	0	0
123	0	0
124	0	0
125	0	0
126	0	0
127	0	0
128	0	0
129	0	0
130	0	0
131	0	0
132	0	0
133	0	0
134	0	0
135	0	0
136	0	0
137	0	0
138	0	0
139	0	0
140	0	0
141	0	0
142	0	0
143	0	0
144	0	0
145	0	0
146	0	0
147	0	0
148	0	0
149	0	0
150	0	0
151	0	0
152	0	0
153	0	0
154	0	0
155	0	0
156	0	0
157	0	0
158	0	0
159	0	0
160	0	0
161	0	0
162	0	0
163	0	0
164	0	0
165	0	0
166	0	0
167	0	0
168	0	0
169	0	0
170	0	0
171	0	0
172	0	0
173	0	0
174	0	0
175	0	0
176	0	0
177	0	0
178	0	0
179	0	0
180	0	0
181	0	0
182	0	0
183	0	0
184	0	0
185	0	0
186	0	0
187	0	0
188	0	0
189	0	0
190	0	0
191	0	0
192	0	0
193	0	0
194	0	0
195	0	0
196	0	0
197	0	0
198	0	0
199	0	0
200	0	0
201	0	0
202	0	0
203	0	0
204	0	0
205	0	0
206	0	0
207	0	0
208	0	0
209	0	0
210	0	0
211	0	0
212	0	0
213	0	0
214	0	0
215	0	0
216	0	0
217	0	0
218	0	0
219	0	0
220	0	0
221	0	0
222	0	0
223	0	0
224	0	0
225	0	0
226	0	0
227	0	0
228	0	0
229	0	0
230	0	0
231	0	0
232	0	0
233	0	0
234	0	0
235	0	0
236	0	0
237	0	0
238	0	0
239	0	0
240	0	0
241	0	0
242	0	0
243	0	0
244	0	0
245	0	0
246	0	0
247	0	0
248	0	0
249	0	0
250	0	0
251	0	0
252	0	0
253	0	0
254	0	0
255	0	0
256	0	0
257	0	0
258	0	0
259	0	0
260	0	0
261	0	0
262	0	0
263	0	0
264	0	0
265	0	0
266	0	0
267	0	0
268	0	0
269	0	0
270	0	0
271	0	0
272	0	0
273	0	0
274	0	0
275	0	0
276	0	0
277	0	0
278	0	0
279	0	0
280	0	0
281	0	0
282	0	0
283	0	0
284	0	0
285	0	0
286	0	0
287	0	0
288	0	0
289	0	0
290	0	0
291	0	0
292	0	0
293	0	0
294	0	0
295	0	0
296	0	0
297	0	0
298	0	0
299	0	0
300	0	0
301	0	0
302	0	0
303	0	0
304	0	0
305	0	0
306	0	0
307	0	0
308	0	0
309	0	0
310	0	0
311	0	0
312	0	0
313	0	0
314	0	0
315	0	0
316	0	0
317	0	0
318	0	0
319	0	0
320	0	0
321	0	0
322	0	0
323	0	0
324	0	0
325	0	0
326	0	0
327	0	0
328	0	0
329	0	0
330	0	0
331	0	0
332	0	0
333	0	0
334	0	0
335	0	0
336	0	0
337	0	0
338	0	0
339	0	0
340	0	0
341	0	0
342	0	0
343	0	0
344	0	0
345	0	0
346	0	0
347	0	0
348	0	0
349	0	0
350	0	0
351	0	0
352	0	0
353	0	0
354	0	0
355	0	0
356	0	0
357	0	0
358	0	0
359	0	0
360	0	0
361	0	0
362	0	0
363	0	0
364	0	0
365	0	0
366	0	0
367	0	0
368	0	0
369	0	0
370	0	0
371	0	0
372	0	0
373	0	0
374	0	0
375	0	0
376	0	0
377	0	0
378	0	0
379	0	0
380	0	0
381	0	0
382	0	0
383	0	0
384	0	0
385	0	0
386	0	0
387	0	0
388	0	0
389	0	0
390	0	0
391	0	0
392	0	0
393	0	0
394	0	0
395	0	0
396	0	0
397	0	0
398	0	0
399	0	0
400	0	0
401	0	0
402	0	0
403	0	0
404	0	0
405	0	0
406	0	0
407	0	0
408	0	0
409	0	0
410	0	0
411	0	0
412	0	0
413	0	0
414	0	0
415	0	0
416	0	0
417	0	0
418	0	0
419	0	0
420	0	0
421	0	0
422	0	0
423	0	0
424	0	0
425	0	0
426	0	0
427	0	0
428	0	0
429	0	0
430	0	0
431	0	0
432	0	0
433	0	0
434	0	0
435	0	0
436	0	0
437	0	0
438	0	0
439	0	0
440	0	0
441	0	0
442	0	0
443	0	0
444	0	0
445	0	0
446	0	0
447	0	0
448	0	0
449	0	0
450	0	0
451	0	0
452	0	0
453	0	0
454	0	0
455	0	0
456	0	0
457	0	0
458	0	0
459	0	0
460	0	0
461	0	0
462	0	0
463	0	0
464	0	0
465	0	0
466	0	0
467	0	0
468	0	0
469	0	0
470	0	0
471	0	0
472	0	0
473	0	0
474	0	0
475	0	0
476	0	0
477	0	0
478	0	0
479	0	0
480	0	0
481	0	0
482	0	0
483	0	0
484	0	0
485	0	0
486	0	0
487	0	0
488	0	0
489	0	0
490	0	0
491	0	0
492	0	0
493	0	0
494	0	0
495	0	0
496	0	0
497	0	0
498	0	0
499	0	0
500	0	0
501	0	0
502	0	0
503	0	0
504	0	0
505	0	0
506	0	0
507	0	0
508	0	0
509	0	0
510	0	0
511	0	0
512	0	0
513	0	0
514	0	0
515	0	0
516	0	0
517	0	0
518	0	0
519	0	0
520	0	0
521	0	0
522	0	0
523	0	0
524	0	0
525	0	0
526	0	0
527	0	0
528	0	0
529	0	0
530	0	0
531	0	0
532	0	0
533	0	0
534	0	0
535	0	0
536	0	0
537	0	0
538	0	0
539	0	0
540	0	0
541	0	0
542	0	0
543	0	0
544	0	0
545	0	0
546	0	0
547	0	0
548	0	0
549	0	0
550	0	0
551	0	0
552	0	0
553	0	0
554	0	0
555	0	0
556	0	0
557	0	0
558	0	0
559	0	0
560	0	0
561	0	0
562	0	0
563	0	0
564	0	0
565	0	0
566	0	0
567	0	0
568	0	0
569	0	0
570	0	0
571	0	0
572	0	0
573	0	0
574	0	0
575	0	0
576	0	0
577	0	0
578	0	0
579	0	0
580	0	0
581	0	0
582	0	0
583	0	0
584	0	0
585	0	0
586	0	0
587	0	0
588	0	0
589	0	0
590	0	0
591	0	0
592	0	0
593	0	0
594	0	0
595	0	0
596	0	0
597	0	0
598	0	0
599	0	0
600	0	0
601	0	0
602	0	0
603	0	0
604	0	0
605	0	0
606	0	0
607	0	0
608	0	0
609	0	0
610	0	0
611	0	0
612	0	0
613	0	0
614	0	0
615	0	0
616	0	0
617	0	0
618	0	0
619	0	0
620	0	0
621	0	0
622	0	0
623	0	0
624	0	0
625	0	0
626	0	0
627	0	0
628	0	0
629	0	0
630	0	0
631	0	0
632	0	0
633	0	0
634	0	0
635	0	0
636	0	0
637	0	0
638	0	0
639	0	0
640	0	0
641	0	0
642	0	0
643	0	0
644	0	0
645	0	0
646	0	0
647	0	0
648	0	0
649	0	0
650	0	0
651	0	0
652	0	0
653	0	0
654	0	0
655	0	0
656	0	0
657	0	0
658	0	0
659	0	0
660	0	0
661	0	0
662	0	0
663	0	0
664	0	0
665	0	0
666	0	0
667	0	0
668	0	0
669	0	0
670	0	0
671	0	0
672	0	0
673	0	0
674	0	0
675	0	0
676	0	0
677	0	0
678	0	0
679	0	0
680	0	0
681	0	0
682	0	0
683	0	0
684	0	0
685	0	0
686	0	0
687	0	0
688	0	0
689	0	0
690	0	0
691	0	0
692	0	0
693	0	0
694	0	0
695	0	0
696	0	0
697	0	0
698	0	0
699	0	0
700	0	0
701	0	0
702	0	0
703	0	0
704	0	0
705	0	0
706	0	0
707	0	0
708	0	0
709	0	0
710	0	0
711	0	0
712	0	0
713	0	0
714	0	0
715	0	0
716	0	0
717	0	0
718	0	0
719	0	0
720	0	0
721	0	0
722	0	0
723	0	0
724	0	0
725	0	0
726	0	0
727	0	0
728	0	0
729	0	0
730	0	0
731	0	0
732	0	0
733	0	0
734	0	0
735	0	0
736	0	0
737	0	0
738	0	0
739	0	0
740	0	0
741	0	0
742	0	0
743	0	0
744	0	0
745	0	0
746	0	0.277778
747	0	0.333333
748	0	0.381818
749	0	0.381818
750	0	0.381818
751	0	0.381818
752	0	0.381818
753	0	0.381818
754	0	0.381818
755	0	0.381818
756	0	0.381818
757	0	0.381818
758	0	0.381818
759	0	0.381818
760	0	0.381818
761	0	0.381818
762	0	0.381818
763	0	0.381818
764	0	0.381818
765	0	0.381818
766	0	0.381818
767	0	0.381818
768	0	0.381818
769	0	0.381818
770	0	0.381818
771	0	0.381818
772	0	0.381818
773	0	0.381818
774	0	0.381818
775	0	0.381818
776	0	0.381818
777	0	0.381818
778	0	0.381818
779	0	0.381818
780	0	0.381818
781	0	0.381818
782	0	0.381818
783	0	0.381818
784	0	0.381818
785	0	0.381818
786	0	0.214286
787	0	0.214286
788	0	0
789	0	0
790	0	0
791	0	0
792	0	0
793	0	0
794	0	0
795	0	0
796	0	0.381818
797	0	0.381818
798	0	0.381818
799	0	0.381818
800	0	0.381818
801	0	0.381818
802	0	0.381818
803	0	0.381818
804	0	0.381818
805	0	0.318182
806	0	0.318182
807	0	0.318182
808	0	0.318182
809	0	0.318182
810	0	0.318182
811	0	0.318182
812	0	0.318182
813	0	0.318182
814	0	0.318182
815	0	0.318182
816	0	0.318182
817	0	0.318182
818	0	0.318182
819	0	0.318182
820	0	0.318182
821	0	0.318182
822	0	0.318182
823	0	0.318182
824	0	0.318182
825	0	0.318182
826	0	0.318182
827	0	0.318182
828	0	0.318182
829	0	0.381818
830	0	0.381818
831	0	0.381818
832	0	0.381818
833	0	0.381818
834	0	0.2
835	0	0.0666667
836	0	0.381818
837	0	0.381818
838	0	0.381818
839	0	0.381818
840	0	0.381818
841	0	0.381818
842	0	0.381818
843	0	0.381818
844	0	0.381818
845	0	0.381818
846	0	0.381818
847	0	0.381818
848	0	0.381818
849	0	0.381818
850	0	0.381818
851	0	0.381818
852	0	0.381818
853	0	0.381818
854	0	0.381818
855	0	0.381818
856	0	0.381818
857	0	0.381818
858	0	0.381818
859	0	0.381818
860	0	0.381818
861	0	0.381818
862	0	0.381818
863	0	0.381818
864	0	0.381818
865	0	0.381818
866	0	0.381818
867	0	0.381818
868	0	0.381818
869	0	0.381818
870	0	0.381818
871	0	0.381818
872	0	0.381818
873	0	0.381818
874	0	0.381818
875	0	0.381818
876	0	0.381818
877	0	0.381818
878	0	0.381818
879	0	0.381818
880	0	0.381818
881	0	0.381818
882	0	0.381818
883	0	0.381818
884	0	0.381818
885	0	0.381818
886	0	0.381818
887	0	0.381818
888	0	0.381818
889	0	0.381818
890	0	0.381818
891	0	0.381818
892	0	0.381818
893	0	0.381818
894	0	0.381818
895	0	0.381818
896	0	0.381818
897	0	0.381818
898	0	0.381818
899	0	0.381818
900	0	0.381818
901	0	0.381818
902	0	0.381818
903	0	0.381818
904	0	0.381818
905	0	0.381818
906	0	0.381818
907	0	0.381818
908	0	0.381818
909	0	0.381818
910	0	0.381818
911	0	0.381818
912	0	0.381818
913	0	0.381818
914	0	0.381818
915	0	0.381818
916	0	0.381818
917	0	0.333333
918	0	0.333333
919	0	0.333333
920	0	0.333333
921	0	0.333333
922	0	0.333333
923	0	0.333333
924	0	0.333333
925	0	0.333333
926	0	0.333333
927	0	0.333333
928	0	0.333333
929	0	0.333333
930	0	0.333333
931	0	0.333333
932	0	0.333333
933	0	0.333333
934	0	0.333333
935	0	0.333333
936	0	0.333333
937	0	0.333333
938	0	0.333333
939	0	0.333333
940	0	0.333333
941	0	0.333333
942	0	0.333333
943	0	0.333333
944	0	0.318182
945	0	0.381818
946	0	0.333333
947	0	0.333333
948	0	0.333333
949	0	0.333333
950	0	0.333333
951	0	0.194444
952	0	0.333333
953	0	0.333333
954	0	0.333333
955	0	0.333333
956	0	0.333333
957	0	0.333333
958	0	0.333333
959	0	0.333333
960	0	0.333333
961	0	0.333333
962	0	0.333333
963	0	0.333333
964	0	0.333333
965	0	0.333333
966	0	0.333333
967	0	0.333333
968	0	0.333333
969	0	0.333333
970	0	0.333333
971	0	0.333333
972	0	0.333333
973	0	0.333333
974	0	0.333333
975	0	0.333333
976	0	0.333333
977	0	0.333333
978	0	0.333333
979	0	0.333333
980	0	0.333333
981	0	0.333333
982	0	0.333333
983	0	0.333333
984	0	0.381818
985	0	0.381818
986	0	0.381818
987	0	0.381818
988	0	0.381818
989	0	0.381818
990	0	0.381818
991	0	0.381818
992	0	0.381818
993	0	0.381818
994	0	0.381818
995	0	0.381818
996	0	0.381818
997	0	0.381818
998	0	0.381818
999	0	0.381818
1000	0	0.381818
1001	0	0.381818
1002	0	0.381818
1003	0	0.381818
1004	0	0.381818
1005	0	0.381818
1006	0	0.381818
1007	0	0.381818
1008	0	0.381818
1009	0	0.381818
1010	0	0.381818
1011	0	0.381818
1012	0	0.381818
1013	0	0.381818
1014	0	0.381818
1015	0	0.381818
1016	0	0.381818
1017	0	0.381818
1018	0	0.381818
1019	0	0.333333
1020	0	0.333333
1021	0	0.290909
1022	0	0.290909
1023	0	0.242424
1024	0	0.242424
1025	0	0.333333
1026	0	0.333333
1027	0	0.333333
1028	0	0.333333
1029	0	0.333333
1030	0	0.333333
1031	0	0.333333
1032	0	0.381818
1033	0	0.318182
1034	0	0.333333
1035	0	0.333333
1036	0	0.333333
1037	0	0.333333
1038	0	0.333333
1039	0	0.333333
1040	0	0.333333
1041	0	0.381818
1042	0	0.381818
1043	0	0.381818
1044	0	0.381818
1045	0	0.381818
1046	0	0.381818
1047	0	0.290909
1048	0	0.290909
1049	0	0.290909
1050	0	0.242424
1051	0	0.242424
1052	0	0.242424
1053	0	0.242424
1054	0	0.106061
1055	0	0.106061
1056	0	0.151515
1057	0	0.194444
1058	0	0.194444
1059	0	0.194444
1060	0	0.333333
1061	0	0.333333
1062	0	0.282051
1063	0	0.282051
1064	0	0.282051
1065	0	0.282051
1066	0	0.282051
1067	0	0.282051
1068	0	0.282051
1069	0	0.282051
1070	0	0.282051
1071	0	0.282051
1072	0	0.282051
1073	0	0.282051
1074	0	0.282051
1075	0	0.282051
1076	0	0.282051
1077	0	0.282051
1078	0	0.282051
1079	0	0.282051
1080	0	0.282051
1081	0	0.282051
1082	0	0.282051
1083	0	0.282051
1084	0	0.282051
1085	0	0.282051
1086	0	0.282051
1087	0	0.047619
1088	0	0.047619
1089	0	0.047619
1090	0	0.047619
1091	0	0.047619
1092	0	0.047619
1093	0	0.205128
1094	0	0.205128
1095	0	0.205128
1096	0	0.282051
1097	0	0.282051
1098	0	0.282051
1099	0	0.282051
1100	0	0.282051
1101	0	0.282051
1102	0	0.282051
1103	0	0.282051
1104	0	0.282051
1105	0	0.282051
1106	0	0.282051
1107	0	0.242424
1108	0	0.282051
1109	0	0.282051
1110	0	0.241758
1111	0	0.241758
1112	0	0.241758
1113	0	0.241758
1114	0	0.241758
1115	0	0.241758
1116	0	0.241758
1117	0	0.241758
1118	0	0.241758
1119	0	0.241758
1120	0	0.241758
1121	0	0.241758
1122	0	0.241758
1123	0	0.241758
1124	0	0.241758
1125	0	0.241758
1126	0	0.241758
1127	0	0.0357143
1128	0	0.241758
1129	0	0.241758
1130	0	0.241758
1131	0	0.241758
1132	0	0.241758
1133	0	0.241758
1134	0	0.241758
1135	0	0.241758
1136	0	0.241758
1137	0	0.241758
1138	0	0.241758
1139	0	0.241758
1140	0	0.241758
1141	0	0.27619
1142	0	0.27619
1143	0	0.27619
1144	0	0.27619
1145	0	0.27619
1146	0	0.27619
1147	0	0.27619
1148	0	0.27619
1149	0	0.27619
1150	0	0.27619
1151	0	0.27619
1152	0	0.266667
1153	0	0.307692
1154	0	0.307692
1155	0	0.307692
1156	0	0.307692
1157	0	0.307692
1158	0	0.307692
1159	0	0.307692
1160	0	0.27619
1161	0	0.27619
1162	0	0.27619
1163	0	0.27619
1164	0	0.27619
1165	0	0.27619
1166	0	0.27619
1167	0	0.241667
1168	0	0.241667
1169	0	0.241667
1170	0	0.241667
1171	0	0.241667
1172	0	0.241667
1173	0	0.241667
1174	0	0.241667
1175	0	0.241667
1176	0	0.241667
1177	0	0.241667
1178	0	0.241667
1179	0	0.241667
1180	0	0.241667
1181	0	0.241667
1182	0	0.241667
1183	0	0.308333
1184	0	0.308333
1185	0	0.308333
1186	0	0.308333
1187	0	0.308333
1188	0	0.308333
1189	0	0.308333
1190	0	0.308333
1191	0	0.308333
1192	0	0.308333
1193	0	0.272059
1194	0	0.272059
1195	0	0.272059
1196	0	0.272059
1197	0	0.272059
1198	0	0.272059
1199	0	0.272059
1200	0	0.213235
1201	0	0.213235
1202	0	0.213235
1203	0	0.213235
1204	0	0.168421
1205	0	0.168421
1206	0	0.168421
1207	0	0.168421
1208	0	0.168421
1209	0	0.168421
1210	0	0.168421
1211	0	0.168421
1212	0	0.168421
1213	0	0.168421
1214	0	0.168421
1215	0	0.0512821
1216	0	0.0512821
1217	0	0.0512821
1218	0	0.0512821
1219	0	0.0512821
1220	0	0.0512821
1221	0	0.1
1222	0	0.1
1223	0	0.1
1224	0	0.1
1225	0	0.1
1226	0	0.1
1227	0	0.1
1228	0	0.1
1229	0	0.0736842
1230	0	0.0736842
1231	0	0.0736842
1232	0	0.0736842
1233	0	0.0736842
1234	0	0.0736842
1235	0	0.152632
1236	0	0.0736842
1237	0	0.0736842
1238	0	0.0736842
1239	0	0.0736842
1240	0	0.0994152
1241	0	0.0894737
1242	0	0.0736842
1243	0	0.0736842
1244	0	0.0736842
1245	0	0.0736842
1246	0	0.0736842
1247	0	0.0736842
1248	0	0.0736842
1249	0	0.0736842
1250	0	0.0666667
1251	0	0.0666667
1252	0	0.0606061
1253	0	0.0606061
1254	0	0.0606061
1255	0	0.0606061
1256	0	0.0606061
1257	0	0.0606061
1258	0	0.0606061
1259	0	0.0606061
1260	0	0.0649351
1261	0	0.0714286
1262	0	0.0714286
1263	0	0.0714286
1264	0	0.0666667
1265	0	0.0606061
1266	0	0.0606061
1267	0	0.055336
1268	0	0.055336
1269	0	0.04329
1270	0	0.0428571
1271	0	0.0428571
1272	0	0.04329
1273	0	0.04329
1274	0	0.04329
1275	0	0.04329
1276	0	0.04329
1277	0	0.04329
1278	0	0.047619
1279	0	0.047619
1280	0	0.0368421
1281	0	0.0526316
1282	0	0.0526316
1283	0	0.0473684
1284	0	0.0711462
1285	0	0.0646154
1286	0	0.0646154
1287	0	0.0646154
1288	0	0.0598291
1289	0	0.0598291
1290	0	0.0541311
1291	0	0.0569801
1292	0	0.0655271
1293	0	0.0769231
1294	0	0.0793651
1295	0	0.0925926
1296	0	0.0978836
1297	0	0.0978836
1298	0	0.116809
1299	0	0.101075
1300	0	0.101075
1301	0	0.0947581
1302	0	0.131907
1303	0	0.12437
1304	0	0.12091
1305	0	0.109756
1306	0	0.10742
1307	0	0.137143
1308	0	0.383509
1309	0	0.327499
1310	0	0.275542
1311	0	0.271257
1312	0	0.35897
1313	0	0.211688
1314	0	0.211039
1315	0	0.208273
1316	0	0.210196
1317	0	0.220408
1318	0	0.267345
1319	0	0.246994
1320	0	0.268499
1321	0	0.268499
1322	0	0.280177
1323	0	0.249495
1324	0	0.230303
1325	0	0.234343
1326	0	0.292452
1327	0	0
1328	0	0
1329	0	0
1330	0	0
1331	0	0
1332	0	0.902222
1333	0	0.902222
1334	0	0.902222
1335	0	0.333333
1336	0	0.864646
1337	0	0
1338	0	0
1339	0	0
1340	0	0
1341	0	0
1342	0	0
1343	0	0
1344	0	0
1345	0	0
1346	0	0
1347	0	0
1348	0	0
1349	0	0
1350	0	0
1351	0	0
1352	0	0
1353	0	0
1354	0	0
1355	0	0
1356	0	0
1357	0	0
1358	0	0
1359	0	0
1360	0	0
1361	0	0
1362	0	0
1363	0	0
1364	0	0
1365	0	0
1366	0	0
1367	0	0
1368	0	0
1369	0	0
1370	0	0
1371	0	0
1372	0	0.659802
1373	0	0.576923
1374	0	0.654545
1375	0	0.545455
1376	0	0.155556
1377	0	0.25
1378	0	0.0666667
1379	0	0.2
1380	0	0.2
1381	0	0.2
1382	0	0.2
1383	0	0.2
1384	0	0.2
1385	0	0.406943
1386	0	0.156695
1387	0	0.192029
1388	0	0.114286
1389	0	0.116667
1390	0	0.131868
1391	0	0.131868
1392	0	0.114286
1393	0	0.116667
1394	0	0.116667
1395	0	0.305749
1396	0	0.148551
1397	0	0.0952381
1398	0	0.338435
1399	0	0.28447
1400	0	0.227393
1401	0	0.225806
1402	0	0.501434
1403	0	0.186946
1404	0	0.170503
1405	0	0.146958
1406	0	0.132562
1407	0	0.296922
1408	0	0.123268
1409	0	0.368582
1410	0	0.413338
1411	0	0.415837
1412	0	0.418492
1413	0	0.0666667
1414	0	0.0666667
1415	0	0.147106
1416	0	0.12057
1417	0	0.572442
1418	0	0.0420819
1419	0	0.0442968
1420	0	0.0376812
1421	0	0.0338164
1422	0	0.0290196
1423	0	0.0700283
1424	0	0.359151
1425	0	0.167812
1426	0	0.157324
1427	0	0.154733
1428	0	0.605054
1429	0	0.604881
1430	0	0.604708
1431	0	0.442983
1432	0	0.275362
1433	0	0.270531
1434	0	0.270531
1435	0	0.244048
1436	0	0.224238
1437	0	0.215933
1438	0	0.187538
1439	0	0.191608
1440	0	0.130782
1441	0	0.181921
1442	0	0.0936408
1443	0	0.101056
1444	0	0.107843
1445	0	0.112368
1446	0	0.12415
1447	0	0.121569
1448	0	0.109091
1449	0	0.307816
1450	0	0.307866
1451	0	0.306695
1452	0	0.250148
1453	0	0.332884
1454	0	0.109158
1455	0	0.115764
1456	0	0.076087
1457	0	0.202703
1458	0	0.198198
1459	0	0.192192
1460	0	0.192192
1461	0	0.05
1462	0	0.605362
1463	0	0.017316
1464	0	0.017316
1465	0	0.0105263
1466	0	0.0157895
1467	0	0.0292398
1468	0	0.0326797
1469	0	0.0326797
1470	0	0.0367647
1471	0	0.0367647
1472	0	0.0392157
1473	0	0.234242
1474	0	0.231636
1475	0	0.693458
1476	0	0.693458
1477	0	0.693458
1478	0	0.67715
1479	0	0.225566
1480	0	0.2441
1481	0	0.209045
1482	0	0.212965
1483	0	0.264452
1484	0	0
1485	0	0
1486	0	0
1487	0	0
1488	0	0
1489	0	0
1490	0	0
1491	0	0
1492	0	0
1493	0	0
1494	0	0
1495	0	0
1496	0	0
1497	0	0
1498	0	0
1499	0	0
1500	0	0
1501	0	0
1502	0	0
1503	0	0
1504	0	0
1505	0	0
1506	0	0
1507	0	0
1508	0	0
1509	0	0
1510	0	0
1511	0	0
1512	0	0
1513	0	0
1514	0	0
1515	0	0
1516	0	0
1517	0	0
1518	0	0
1519	0	0
1520	0	0
1521	0	0
1522	0	0
1523	0	0
1524	0	0
1525	0	0
1526	0	0
1527	0	0
1528	0	0
1529	0	0
1530	0	0
1531	0	0
1532	0	0
1533	0	0
1534	0	0
1535	0	0
1536	0	0
1537	0	0
1538	0	0
1539	0	0
1540	0	0
1541	0	0
1542	0	0
1543	0	0
1544	0	0
1545	0	0
1546	0	0
1547	0	0
1548	0	0
1549	0	0
1550	0	0
1551	0	0
1552	0	0
1553	0	0
1554	0	0.846154
1555	0	0
1556	0	0
1557	0	0
1558	0	0
1559	0	0
1560	0	0
1561	0	0
1562	0	0.857143
1563	0	0.215398
1564	0	0.250206
1565	0	0.1638
1566	0	0.186167
1567	0	0.173121
1568	0	0.317135
1569	0	0
1570	0	0
1571	0	0.285714
1572	0	0.69802
1573	0	0.166667
1574	0	0.654593
1575	0	0.747002
1576	0	0
1577	0	0
1578	0	0
1579	0	0
1580	0	0
1581	0	0
1582	0	0
1583	0	0
1584	0	0
1585	0	0
1586	0	0
1587	0	0
1588	0	0
1589	0	0
1590	0	0.0277778
1591	0	0.030303
1592	0	0.254907
1593	0	0.389163
1594	0	0.467914
1595	0	0.301538
1596	0	0.587692
1597	0	0.587692
1598	0	0.587692
1599	0	0.536886
1600	0	0.0578947
1601	0	0.0526316
1602	0	0.0789474
1603	0	0.105263
1604	0	0.121053
1605	0	0.136842
1606	0	0.163158
1607	0	0.147619
1608	0	0.756654
1609	0	0.107143
1610	0	0.178571
1611	0	0.321429
1612	0	0.361111
1613	0	0.4
1614	0	0.59
1615	0	0.903333
1616	0	0.897529
1617	0	0.943014
1618	0	0.963366
1619	0	0.96163
1620	0	0.96202
1621	0	0.571429
1622	0	1
1623	0	1
1624	0	1
1625	0	1
1626	0	1
1627	0	0.976816
1628	0	0.975139
1629	0	0.975139
1630	0	0.976887
1631	0	0.976928
1632	0	0.983996
1633	0	0
1634	0	1
1635	0	1
1636	0	1
1637	0	0.5
1638	0	0.987551
1639	0	0.989322
1640	0	0.989322
1641	0	0.989333
1642	0	0
1643	0	0
1644	0	0
1645	0	0
1646	0	0
1647	0	0
1648	0	0.996427
1649	0	0.996427
1650	0	0.996427
1651	0	0.996427
1652	0	0.994648
1653	0	0.994648
1654	0	0.994648
1655	0	1
1656	0	0.994643
1657	0	0.994643
1658	0	0.994643
1659	0	0.994643
1660	0	0.994638
1661	0	0.996424
1662	0	0.998211
1663	0	1
1664	1	1
1665	1	1
1666	1	1
1667	0	0.846154
1668	0	0.846154
1669	0	0.384615
1670	0	0.454545
1671	0	0.454545
1672	0	0.454545
1673	0	0.378788
1674	0	0.133333
1675	0	0.0666667
1676	0	0.0666667
1677	0	0.0666667
1678	0	0.0666667
1679	0	0.0666667
1680	0	0.1
1681	0	0.133333
1682	0	0.2
1683	0	0.2
1684	0	0.2
1685	0	0.2
1686	0	0.333333
1687	0	1
1688	0	1
1689	0	1
1690	0	1
1691	0	1
1692	0	0.760374
1693	0	1
1694	1	1
1695	1	1
1696	1	1
1697	0	1
1698	0	0.998219
1699	1	1
1700	0	0.998221
1701	0	0.996446
1702	0	0.996446
1703	0	0.996446
1704	0	0.996446
1705	0	0.996449
1706	0	0.998222
1707	0	0.998222
1708	1	1
1709	1	1
1710	1	1
1711	1	1
1712	1	1
1713	1	1
1714	1	1
1715	1	1
1716	1	1
1717	1	1
1718	1	1
1719	1	1
1720	1	0
1721	1	0
1722	1	0
1723	1	0
1724	1	0
1725	1	0
1726	1	0
1727	1	0
1728	1	0
1729	1	0
1730	1	0
1731	1	0
1732	1	0
1733	1	0
1734	1	0
1735	1	0
1736	1	0
1737	1	0
1738	1	0
1739	1	0
1740	1	0
1741	1	0
1742	1	0
1743	1	1
1744	0	0.998221
1745	0	0.998221
1746	0	1
1747	0	1
1748	0	1
1749	0	1
1750	0	1
1751	0	1
1752	0	1
1753	0	0.98762
1754	0	1
1755	0	1
1756	0	1
1757	0	1
1758	0	1
1759	0	0.714286
1760	0	0.333333
1761	0	0.333333
1762	0	0.190476
1763	0	0.0952381
1764	0	0.1
1765	0	0.1
1766	0	0.3
1767	0	0.3
1768	0	0.3
1769	0	0.3
1770	0	0.5
1771	0	1
1772	0	1
1773	0	1
1774	0	1
1775	1	1
1776	0	1
1777	0	0.998221
1778	0	1
1779	0	1
1780	1	1
1781	1	1
1782	1	1
1783	0	0.998221
1784	0	0.998221
1785	0	0.998221
1786	0	0.998221
1787	0	0.998221
1788	0	0.998221
1789	1	1
1790	1	1
1791	1	1
1792	1	1
1793	1	1
1794	1	1
1795	1	1
1796	1	1
1797	1	1
1798	1	1
1799	1	1
1800	1	1
1801	1	1
1802	1	1
1803	1	1
1804	1	1
1805	1	1
1806	1	1
1807	1	1
1808	1	1
1809	1	1
1810	1	1
1811	1	1
1812	0	0.998221
1813	0	0.998227
1814	0	0.998232
1815	0	0.998232
1816	0	0.998232
1817	0	0.998233
1818	1	1
1819	1	1
1820	1	1
1821	1	1
1822	1	1
1823	0	0
1824	0	0
1825	0	0
1826	1	0
1827	0	0.998232
1828	0	0.998232
1829	0	0.998232
1830	1	1
1831	1	1
1832	1	1
1833	0	0.998233
1834	1	1
1835	1	1
1836	1	1
1837	0	1
1838	0	1
1839	0	1
1840	0	1
1841	0	1
1842	0	1
1843	0	1
1844	1	1
1845	1	1
1846	1	1
1847	1	1
1848	1	1
1849	1	1
1850	1	1
1851	0	1
1852	0	0.984211
1853	0	0.984211
1854	1	1
1855	1	1
1856	1	1
1857	1	1
1858	1	1
1859	1	1
1860	1	1
1861	1	1
1862	1	1
1863	1	1
1864	1	1
1865	1	1
1866	1	1
1867	1	1
1868	1	1
1869	0	1
1870	1	1
1871	1	1
1872	1	1
1873	1	1
1874	1	1
1875	1	1
1876	0	1
1877	0	1
1878	0	0.991205
1879	0	0.460256
1880	0	0.599253
1881	0	0.613699
1882	0	0.611997
1883	0	0.615421
1884	0	0
1885	0	0.333333
1886	0	0.62559
1887	0	0
1888	0	0
1889	0	0
1890	1	0
1891	1	0
1892	1	0
1893	0	0.849762
1894	0	0.512673
1895	0	0.655805
1896	0	0.893075
1897	0	0.97993
1898	0	0.975499
1899	0	0.975499
1900	0	0.973756
1901	0	0
1902	0	0
1903	1	0
1904	1	0
1905	1	0
1906	1	0
1907	1	0
1908	1	0
1909	1	0
1910	1	0
1911	1	0
1912	1	0
1913	1	0
1914	1	0
1915	1	0
1916	1	0
1917	1	0
1918	1	0
1919	1	0
1920	1	0
1921	0	0
1922	0	0
1923	0	0
1924	0	0
1925	0	0
1926	0	0.266667
1927	0	0.25
1928	0	0.466667
1929	0	0.966827
1930	0	0.4
1931	0	0.768058
1932	0	0.768713
1933	0	0.773979
1934	0	0.773979
1935	0	0.920642
1936	0	0.921677
1937	1	1
1938	1	1
1939	0	1
1940	0	1
1941	0	0
1942	1	0
1943	1	0
1944	1	0
1945	1	0
1946	1	0
1947	1	0
1948	1	0
1949	1	0
1950	1	0
1951	1	0
1952	1	0
1953	1	0
1954	1	0
1955	1	0
1956	1	0
1957	1	0
1958	1	0
1959	1	0
1960	1	0
1961	1	0
1962	1	0
1963	1	0
1964	1	0
1965	1	0
1966	1	0
1967	1	0
1968	1	0
1969	1	0
1970	1	0
1971	1	0
1972	1	0
1973	1	0
1974	1	0
1975	1	0
1976	1	0
1977	1	0
1978	1	0
1979	1	0
1980	1	0
1981	1	0
1982	1	0
1983	1	0
1984	1	0
1985	1	0
1986	1	0
1987	1	0
1988	0	0.998236
1989	0	1
1990	0	1
1991	0	1
1992	0	1
1993	0	1
1994	0	1
1995	0	1
1996	0	0
1997	0	0
1998	0	0.998235
1999	0	0.998235
2000	0	0.998235
2001	0	0.998235
2002	0	0.998235
2003	0	0.998235
2004	0	0.998235
2005	0	0.998235
2006	0	1
2007	0	1
2008	0	0.998235
2009	0	0.998235
2010	0	1
2011	0	0.978951
2012	0	1
2013	0	0.994686
2014	0	0.997972
2015	0	0.96068
2016	0	0.79398
2017	0	0.774964
2018	0	0.773589
2019	0	0.767964
2020	0	0.766614
2021	0	0.775816
2022	0	0.775646
2023	0	0.775646
2024	0	0.779116
2025	0	0.780811
2026	0	0.780811
2027	0	0.985938
2028	0	0.781859
2029	0	0.784633
2030	0	0.99597
2031	0	0.99597
2032	1	0
2033	1	0
2034	0	0.996465
2035	0	0.996465
2036	0	0.998232
2037	0	0.998232
2038	0	0.998232
2039	0	0.99823
2040	0	0.996465
2041	0	0.996465
2042	0	0.996465
2043	0	0.996465
2044	0	0
2045	0	0.994695
2046	0	0.99823
2047	0	0.99823
2048	0	0.99823
2049	0	0.99823
2050	0	0.99823
2051	0	0.99823
2052	0	0.996465
2053	0	0.996465
2054	0	0.994704
2055	0	0.994704
2056	0	0.994704
2057	0	0.992942
2058	0	0.9947
2059	0	0.9947
2060	0	0.9947
2061	0	0.9947
2062	0	0.996462
2063	0	0.624225
2064	0	1
2065	0	0.5
2066	0	0.5
2067	0	1
2068	0	0.333333
2069	0	0.333333
2070	0	0.333333
2071	0	0.333333
2072	0	0.333333
2073	1	0
2074	1	0
2075	1	0
2076	1	0
2077	1	0
2078	1	0
2079	1	0
2080	1	0
2081	0	0
2082	0	0
2083	0	0
2084	0	0
2085	0	0
2086	0	1
2087	0	0.993896
2088	0	0.987861
2089	0	0.765744
2090	0	0.978897
2091	0	0.99293
2092	0	0.99293
2093	0	0.9947
2094	0	0.9947
2095	0	0.9947
2096	0	0.9947
2097	0	0.9947
2098	0	0.989424
2099	1	0
2100	1	0
2101	1	0
2102	1	0
2103	1	0
2104	1	0
2105	1	0
2106	1	0
2107	1	0
2108	1	0
2109	0	0
2110	0	0.992936
2111	0	0.992936
2112	0	0.992936
2113	0	0.992911
2114	0	0.992911
2115	0	0.994676
2116	0	0.996446
2117	0	0.996446
2118	1	0
2119	1	0
2120	1	0
2121	1	0
2122	1	0
2123	1	0
2124	1	0
2125	1	0
2126	1	0
2127	1	0
2128	1	0
2129	1	0
2130	1	0
2131	0	0.998221
2132	0	0.998221
2133	0	0
2134	0	0.994662
2135	0	0.994662
2136	0	0.996437
2137	0	0.994662
2138	0	0.992892
2139	0	0.992892
2140	0	0.992892
2141	0	0.991127
2142	0	0.992898
2143	0	0.992898
2144	0	0.992898
2145	0	1
2146	0	0
2147	0	0
2148	0	0
2149	0	0
2150	1	0
2151	1	0
2152	1	0
2153	1	0
2154	1	0
2155	1	0
2156	1	0
2157	1	0
2158	1	0
2159	1	0
2160	1	0
2161	1	0
2162	1	0
2163	1	0
2164	1	0
2165	1	0
2166	1	0
2167	0	0.989348
2168	0	0.991119
2169	0	0.991119
2170	0	0
2171	0	0
2172	0	0
2173	0	0
2174	0	0
2175	0	0
2176	0	0.992886
2177	0	0.992886
2178	0	0.992886
2179	0	0.994648
2180	0	0.991105
2181	0	0.991105
2182	0	0.991105
2183	0	1
2184	0	1
2185	0	1
2186	0	1
2187	0	1
2188	0	1
2189	0	1
2190	0	1
2191	0	1
2192	0	1
2193	0	1
2194	0	1
2195	0	0
2196	0	0
2197	0	0
2198	0	0
2199	0	0
2200	0	0
2201	0	0
2202	0	0
2203	0	0
2204	0	0
2205	0	0
2206	0	0
2207	0	0
2208	0	0
2209	0	0
2210	0	0
2211	0	0
2212	0	0
2213	0	0
2214	0	0
2215	0	0
2216	0	0
2217	0	0.166667
2218	0	0.5
2219	0	0.5
2220	0	0.5
2221	0	0.5
2222	0	0.5
2223	0	0.5
2224	0	0.5
2225	0	0.5
2226	0	0.5
2227	0	0.5
2228	0	0.5
2229	0	0.5
2230	0	0.5
2231	0	0.5
2232	0	0.5
2233	0	0.5
2234	0	0.5
2235	0	0.3
2236	0	0.3
2237	0	0.3
2238	0	0.3
2239	0	0.3
2240	0	0.3
2241	0	0.3
2242	0	0.3
2243	0	0.3
2244	0	0.3
2245	0	0.3
2246	0	0.3
2247	0	0.3
2248	0	0.3
2249	0	0.3
2250	0	0.3
2251	0	0.3
2252	0	0.3
2253	0	0.3
2254	0	0.3
2255	0	0.3
2256	0	0.3
2257	0	0.3
2258	0	0.3
2259	0	0.3
2260	0	0.3
2261	0	0.3
2262	0	0.3
2263	0	0.3
2264	0	0.3
2265	0	0.3
2266	0	0.3
2267	0	0.3
2268	0	0.3
2269	0	0.3
2270	0	0.3
2271	0	0.3
2272	0	0.3
2273	0	0.3
2274	0	0.3
2275	0	0.3
2276	0	0.3
2277	0	0.3
2278	0	0.3
2279	0	0.3
2280	0	0.3
2281	0	0.3
2282	0	0.3
2283	0	0.3
2284	0	0.3
2285	0	0.3
2286	0	0.3
2287	0	0.3
2288	0	0.3
2289	0	0.3
2290	0	0.3
2291	0	0.3
2292	0	0.3
2293	0	0.3
2294	0	0.3
2295	0	0.3
2296	0	0.3
2297	0	0.3
2298	0	0.3
2299	0	0.3
2300	0	0.3
2301	0	0.3
2302	0	0.3
2303	0	0.3
2304	0	0.3
2305	0	0.3
2306	0	0.3
2307	0	0.3
2308	0	0.3
2309	0	0.3
2310	0	0.3
2311	0	0.3
2312	0	0.3
2313	0	0.3
2314	0	0.3
2315	0	0.3
2316	0	0.3
2317	0	0.3
2318	0	0.3
2319	0	0.3
2320	0	0.3
2321	0	0.3
2322	0	0.3
2323	0	0.3
2324	0	0.3
2325	0	0
2326	0	0
2327	0	0
2328	0	0
2329	0	0.1
2330	0	0.1
2331	0	0.1
2332	0	0.3
2333	0	0.3
2334	0	0.3
2335	0	0.3
2336	0	0.3
2337	0	0.3
2338	0	0.3
2339	0	0.3
2340	0	0.3
2341	0	0.3
2342	0	0.3
2343	0	0.3
2344	0	0.3
2345	0	0.3
2346	0	0.3
2347	0	0.3
2348	0	0.3
2349	0	0.3
2350	0	0.3
2351	0	0.3
2352	0	0.3
2353	0	0.3
2354	0	0.3
2355	0	0.3
2356	0	0.3
2357	0	0.3
2358	0	0.3
2359	0	0.3
2360	0	0.3
2361	0	0.3
2362	0	0.3
2363	0	0.3
2364	0	0.3
2365	0	0.3
2366	0	0.3
2367	0	0.3
2368	0	0.3
2369	0	0.3
2370	0	0.3
2371	0	0.3
2372	0	0.3
2373	0	0.3
2374	0	0.3
2375	0	0.3
2376	0	0.3
2377	0	0.3
2378	0	0.3
2379	0	0.3
2380	0	0.3
2381	0	0.3
2382	0	0.3
2383	0	0.3
2384	0	0.3
2385	0	0.3
2386	0	0.3
2387	0	0.3
2388	0	0.3
2389	0	0.3
2390	0	0.3
2391	0	0.3
2392	0	0.3
2393	0	0.3
2394	0	0.3
2395	0	0.3
2396	0	0.3
2397	0	0.3
2398	0	0.3
2399	0	0.3
2400	0	0.3
2401	0	0.3
2402	0	0.3
2403	0	0.3
2404	0	0.3
2405	0	0.3
2406	0	0.3
2407	0	0.3
2408	0	0.3
2409	0	0.3
2410	0	0.3
2411	0	0.3
2412	0	0.3
2413	0	0.3
2414	0	0.3
2415	0	0.3
2416	0	0.3
2417	0	0.3
2418	0	0.3
2419	0	0.3
2420	0	0.3
2421	0	0.3
2422	0	0.3
2423	0	0.3
2424	0	0.3
2425	0	0.3
2426	0	0.3
2427	0	0.3
2428	0	0.3
2429	0	0.3
2430	0	0.3
2431	0	0.3
2432	0	0.3
2433	0	0.3
2434	0	0.3
2435	0	0.3
2436	0	0.3
2437	0	0.3
2438	0	0.3
2439	0	0.3
2440	0	0.3
2441	0	0.3
2442	0	0.3
2443	0	0.3
2444	0	0.3
2445	0	0.3
2446	0	0.3
2447	0	0.3
2448	0	0.3
2449	0	0.3
2450	0	0.3
2451	0	0.3
2452	0	0.3
2453	0	0.3
2454	0	0.3
2455	0	0.3
2456	0	0.3
2457	0	0.3
2458	0	0.3
2459	0	0.3
2460	0	0.3
2461	0	0.3
2462	0	0.3
2463	0	0.3
2464	0	0.3
2465	0	0.3
2466	0	0.3
2467	0	0.3
2468	0	0.3
2469	0	0.3
2470	0	0.3
2471	0	0.3
2472	0	0.3
2473	0	0.3
2474	0	0.3
2475	0	0.3
2476	0	0.3
2477	0	0.3
2478	0	0.3
2479	0	0.3
2480	0	0.3
2481	0	0.3
2482	0	0.3
2483	0	0.3
2484	0	0.3
2485	0	0.3
2486	0	0.3
2487	0	0.3
2488	0	0.3
2489	0	0.3
2490	0	0.3
2491	0	0.3
2492	0	0.3
2493	0	0.3
2494	0	0.3
2495	0	0.3
2496	0	0.3
2497	0	0.3
2498	0	0.3
2499	0	0.3
2500	0	0.3
2501	0	0.3
2502	0	0.3
2503	0	0.3
2504	0	0.3
2505	0	0.3
2506	0	0.3
2507	0	0.3
2508	0	0.3
2509	0	0.3
2510	0	0.3
2511	0	0.3
2512	0	0.3
2513	0	0.3
2514	0	0.3
2515	0	0.3
2516	0	0.3
2517	0	0.3
2518	0	0.3
2519	0	0.3
2520	0	0.3
2521	0	0.340659
2522	0	0.397436
2523	0	0.397436
2524	0	0.397436
2525	0	0.397436
2526	0	0.340659
2527	0	0.266667
2528	0	0.266667
2529	0	0.2
2530	0	0.2
2531	0	0.2
2532	0	0.2
2533	0	0.180952
2534	0	0.180952
2535	0	0.164502
2536	0	0.164502
2537	0	0.164502
2538	0	0.141304
2539	0	0.183333
2540	0	0.183333
2541	0	0.948726
2542	0	0
2543	0	0
2544	0	0
2545	0	0
2546	0	0
2547	0	0
2548	0	0
2549	0	0
2550	0	0
2551	0	0
2552	0	0
2553	0	0
2554	0	0
2555	0	0
2556	0	0
2557	0	0
2558	0	0
2559	0	0
2560	0	0
2561	0	0
2562	0	0
2563	0	0
2564	0	0
2565	0	0
2566	0	0
2567	0	0
2568	0	0
2569	0	0
2570	0	0
2571	0	0
2572	0	0
2573	0	0
2574	0	0
2575	1	0
2576	1	0
2577	1	0
2578	1	0
2579	1	0
2580	1	0
2581	0	0
2582	0	0
2583	0	0
2584	0	0
2585	0	0
2586	0	0
2587	0	0
2588	0	0
2589	0	0
2590	0	0
2591	0	0
2592	0	0
2593	0	0
2594	0	0
2595	0	0
2596	0	0
2597	0	0
2598	0	0
2599	0	0
2600	0	0
2601	0	0
2602	0	0
2603	0	0
2604	0	0
2605	0	0
2606	0	0
2607	0	0
2608	0	0
2609	0	0
2610	0	0
2611	0	0
2612	0	0
2613	0	0
2614	0	0
2615	1	0
2616	0	0
2617	0	0
2618	1	0
2619	0	0
2620	0	0
2621	0	0
2622	0	0
2623	0	0
2624	0	0
2625	0	0
2626	0	0
2627	0	0
2628	0	0
2629	0	0
2630	0	0
2631	0	0
2632	0	0
2633	0	0
2634	0	0
2635	0	0
2636	0	0
2637	0	0
2638	0	0
2639	0	0
2640	0	0
2641	0	0
2642	0	0
2643	0	0
2644	0	0
2645	0	0
2646	0	0
2647	1	0
2648	1	0
2649	1	0
2650	1	0
2651	1	0
2652	0	0
2653	0	0
2654	0	0
2655	0	0
2656	0	0
2657	0	0
2658	0	0
2659	0	0
2660	0	0
2661	0	0
2662	0	0
2663	0	0
2664	0	0
2665	0	0
2666	0	0
2667	0	0
2668	0	0
2669	0	0
2670	0	0
2671	0	0
2672	0	0
2673	1	0
2674	0	0
2675	0	0
2676	0	0
2677	0	0
2678	0	0
2679	0	0
2680	0	0
2681	0	0
2682	0	0
2683	0	0
2684	0	0
2685	0	0
2686	0	0
2687	0	0
2688	0	0
2689	0	0
2690	0	0
2691	0	0
2692	0	0
2693	0	0
2694	0	0
2695	0	0
2696	0	0
2697	0	0
2698	1	0
2699	1	0
2700	1	0
2701	1	0
2702	1	0
2703	1	0
2704	1	0
2705	1	0
2706	1	0
2707	1	0
2708	1	0
2709	0	0
2710	0	0
2711	0	0
2712	0	0
2713	0	0
2714	0	0
2715	0	0
2716	0	0
2717	0	0
2718	0	0
2719	0	0
2720	0	0
2721	1	0
2722	1	0
2723	1	0
2724	1	0
2725	1	0
2726	1	0
2727	1	0
2728	1	0
2729	1	0
2730	0	0
2731	0	0
2732	0	0
2733	0	0
2734	0	0
2735	0	0
2736	0	0
2737	0	0
2738	0	0
2739	0	0
2740	0	0
2741	0	0
2742	0	0
2743	0	0
2744	0	0
2745	0	0
2746	0	0
2747	0	0
2748	0	0
2749	0	0
2750	0	0
2751	0	0
2752	0	0
2753	0	0
2754	0	0
2755	0	0
2756	0	0
2757	0	0
2758	1	0
2759	1	0
2760	1	0
2761	1	0
2762	1	0
2763	1	0
2764	0	0
2765	0	0
2766	0	0
2767	0	0
2768	0	0
2769	0	0
2770	0	0
2771	0	0
2772	0	0
2773	0	0
2774	0	0
2775	0	0
2776	0	0
2777	0	0
2778	0	0
2779	1	0
2780	1	0
2781	1	0
2782	1	0
2783	1	0
2784	1	0
2785	1	0
2786	1	0
2787	1	0
2788	1	0
2789	1	0
2790	1	0
2791	1	0
2792	1	0
2793	1	0
2794	1	0
2795	1	0
2796	1	0
2797	1	0
2798	1	0
2799	1	0
2800	1	0
2801	1	0
2802	1	0
2803	1	0
2804	1	0
2805	1	0
2806	1	0
2807	1	0
2808	1	0
2809	1	0
2810	1	0
2811	1	0
2812	1	0
2813	1	0
2814	1	0
2815	1	0
2816	1	0
2817	1	0
2818	1	0
2819	1	0
2820	1	0
2821	1	0
2822	1	0
2823	1	0
2824	1	0
2825	1	0
2826	1	0
2827	1	0
2828	1	0
2829	1	0
2830	1	0
2831	1	0
2832	1	0
2833	1	0
2834	1	0
2835	1	0
2836	1	0
2837	1	0
2838	1	0
2839	1	0
2840	1	0
2841	1	0
2842	1	0
2843	1	0
2844	1	0
2845	1	0
2846	1	0
2847	1	0
2848	1	0
2849	1	0
2850	1	0
2851	1	0
2852	1	0
2853	1	0
2854	1	0
2855	1	0
2856	1	0
2857	1	0
2858	1	0
2859	1	0
2860	1	0
2861	1	0
2862	1	0
2863	1	0
2864	1	0
2865	1	0
2866	1	0
2867	1	0
2868	1	0
2869	1	0
2870	1	0
2871	1	0
2872	1	0
2873	1	0
2874	1	0
2875	1	0
2876	1	0
2877	1	0
2878	1	0
2879	1	0
2880	1	0
2881	1	0
2882	1	0
2883	1	0
2884	1	0
2885	1	0
2886	1	0
2887	1	0
2888	1	0
2889	1	0
2890	1	0
2891	1	0
2892	1	0
2893	1	0
2894	1	0
2895	1	0
2896	1	0
2897	1	0
2898	1	0
2899	1	0
2900	1	0
2901	1	0
2902	1	0
2903	1	0
2904	1	0
2905	1	0
2906	1	0
2907	1	0
2908	1	0
2909	1	0
2910	1	0
2911	1	0
2912	1	0
2913	1	0
2914	1	0
2915	1	0
2916	1	0
2917	1	0
2918	1	0
2919	1	0
2920	1	0
2921	1	0
2922	1	0
2923	1	0
2924	1	0
2925	1	0
2926	1	0
2927	1	0
2928	1	0
2929	1	0
2930	1	0
2931	1	0
2932	1	0
2933	1	0
2934	1	0
2935	1	0
2936	1	0
2937	1	0
2938	1	0
2939	1	0
2940	1	0
2941	1	0
2942	1	0
2943	1	0
2944	1	0
2945	1	0
2946	1	0
2947	1	0
2948	1	0
2949	1	0
2950	1	0
2951	1	0
2952	1	0
2953	1	0
2954	1	0
2955	1	0
2956	1	0
2957	1	0
2958	1	0
2959	1	0
2960	1	0
2961	1	0
2962	1	0
2963	1	0
2964	1	0
2965	1	0
2966	1	0
2967	1	0
2968	1	0
2969	1	0
2970	1	0
2971	1	0
2972	1	0
2973	1	0
2974	1	0
2975	1	0
2976	1	0
2977	1	0
2978	1	0
2979	1	0
2980	1	0
2981	1	0
2982	1	0
2983	1	0
2984	1	0
2985	1	0
2986	1	0
2987	1	0
2988	1	0
2989	1	0
2990	1	0
2991	1	0
2992	1	0
2993	1	0
2994	1	0
2995	1	0
2996	1	0
2997	1	0
2998	1	0
2999	1	0
3000	1	0
3001	1	0
3002	1	0
3003	1	0
3004	1	0
3005	1	0
3006	1	0
3007	1	0
3008	1	0
3009	1	0
3010	1	0
3011	1	0
3012	1	0
3013	1	0
3014	1	0
3015	1	0
3016	1	0
3017	1	0
3018	1	0
3019	1	0
3020	1	0
3021	1	0
3022	1	0
3023	1	0
3024	1	0
3025	1	0
3026	1	0
3027	1	0
3028	1	0
3029	1	0
3030	1	0
3031	1	0
3032	1	0
3033	1	0
3034	1	0
3035	1	0
3036	1	0
3037	1	0
3038	1	0
3039	1	0
3040	1	0
3041	1	0
3042	1	0
3043	1	0
3044	1	0
3045	1	0
3046	1	0
3047	1	0
3048	1	0
3049	1	0
3050	1	0
3051	1	0
3052	1	0
3053	1	0
3054	1	0
3055	1	0
3056	1	0
3057	1	0
3058	1	0
3059	1	0
3060	1	0
3061	1	0
3062	1	0
3063	1	0
3064	1	0
3065	1	0
3066	1	0
3067	1	0
3068	1	0
3069	1	0
3070	1	0
3071	1	0
3072	1	0
3073	1	0
3074	1	0
3075	1	0
3076	1	0
3077	1	0
3078	1	0
3079	1	0
3080	1	0
3081	1	0
3082	1	0
3083	1	0
3084	1	0
3085	1	0
3086	1	0
3087	1	0
3088	1	0
3089	1	0
3090	1	0
3091	1	0
3092	1	0
3093	1	0
3094	1	0
3095	1	0
3096	1	0
3097	1	0
3098	1	0
3099	1	0
3100	1	0
3101	1	0
3102	1	0
3103	1	0
3104	1	0
3105	1	0
3106	1	0
3107	1	0
3108	1	0
3109	1	0
3110	1	0
3111	1	0
3112	1	0
3113	1	0
3114	1	0
3115	1	0
3116	1	0
3117	1	0
3118	1	0
3119	1	0
3120	1	0
3121	1	0
3122	1	0
3123	1	0
3124	1	0
3125	1	0
3126	1	0
3127	1	0
3128	1	0
3129	1	0
3130	1	0
3131	1	0
3132	1	0
3133	1	0
3134	1	0
3135	1	0
3136	1	0
3137	1	0
3138	1	0
3139	1	0
3140	1	0
3141	1	0
3142	1	0
3143	1	0
3144	1	0
3145	1	0
3146	1	0
3147	1	0
3148	1	0
3149	1	0
3150	1	0
3151	1	0
3152	1	0
3153	1	0
3154	1	0
3155	1	0
3156	1	0
3157	1	0
3158	1	0
3159	1	0
3160	1	0
3161	1	0
3162	1	0
3163	1	0
3164	1	0
3165	1	0
3166	1	0
3167	1	0
3168	1	0
3169	1	0
3170	1	0
3171	1	0
3172	1	0
3173	1	0
3174	1	0
3175	1	0
3176	1	0
3177	1	0
3178	1	0
3179	1	0
3180	1	0
3181	1	0
3182	1	0
3183	1	0
3184	1	0
3185	1	0
3186	1	0
3187	1	0
3188	1	0
3189	1	0
3190	1	0
3191	1	0
3192	1	0
3193	1	0
3194	1	0
3195	1	0
3196	1	0
3197	1	0
3198	1	0
3199	1	0
3200	1	0
3201	1	0
3202	1	0
3203	1	0
3204	1	0
3205	1	0
3206	1	0
3207	1	0
3208	1	0
3209	1	0
3210	1	0
3211	1	0
3212	1	0
3213	1	0
3214	1	0
3215	1	0
3216	1	0
3217	1	0
3218	1	0
3219	1	0
3220	1	0
3221	1	0
3222	1	0
3223	1	0
3224	1	0
3225	1	0
3226	1	0
3227	1	0
3228	1	0
3229	1	0
3230	1	0
3231	1	0
3232	1	0
3233	1	0
3234	1	0
3235	1	0
3236	1	0
3237	1	0
3238	1	0
3239	1	0
3240	1	0
3241	1	0
3242	1	0
3243	1	0
3244	1	0
3245	1	0
3246	1	0
3247	1	0
3248	1	0
3249	1	0
3250	1	0
3251	1	0
3252	1	0
3253	1	0
3254	1	0
3255	1	0
3256	1	0
3257	1	0
3258	1	0
3259	1	0
3260	1	0
3261	1	0
3262	1	0
3263	1	0
3264	1	0
3265	1	0
3266	1	0
3267	1	0
3268	1	0
3269	1	0
3270	1	0
3271	1	0
3272	1	0
3273	1	0
3274	1	0
3275	1	0
3276	1	0
3277	1	0
3278	1	0
3279	1	0
3280	1	0
3281	1	0
3282	1	0
3283	1	0
3284	1	0
3285	1	0
3286	1	0
3287	1	0
3288	1	0
3289	1	0
3290	1	0
3291	1	0
3292	1	0
3293	1	0
3294	1	0
3295	1	0
3296	1	0
3297	1	0
3298	1	0
3299	1	0
3300	1	0
3301	1	0
3302	1	0
3303	1	0
3304	1	0
3305	1	0
3306	1	0
3307	1	0
3308	1	0
3309	1	0
3310	1	0
3311	1	0
3312	1	0
3313	1	0
3314	1	0
3315	1	0
3316	1	0
3317	1	0
3318	1	0
3319	1	0
3320	1	0
3321	1	0
3322	1	0
3323	1	0
3324	1	0
3325	1	0
3326	1	0
3327	1	0
3328	1	0
3329	1	0
3330	1	0
3331	1	0
3332	1	0
3333	1	0
3334	1	0
3335	1	0
3336	1	0
3337	1	0
3338	1	0
3339	1	0
3340	1	0
3341	1	0
3342	1	0
3343	1	0
3344	1	0
3345	1	0
3346	1	0
3347	1	0
3348	1	0
3349	1	0
3350	1	0
3351	1	0
3352	1	0
3353	1	0
3354	1	0
3355	1	0
3356	1	0
3357	1	0
3358	1	0
3359	1	0
3360	1	0
3361	1	0
3362	1	0
3363	1	0
3364	1	0
3365	1	0
3366	1	0
3367	1	0
3368	1	0
3369	1	0
3370	1	0
3371	1	0
3372	1	0
3373	1	0
3374	1	0
3375	1	0
3376	1	0
3377	1	0
3378	1	0
3379	1	0
3380	1	0
3381	1	0
3382	1	0
3383	1	0
3384	1	0
3385	1	0
3386	1	0
3387	1	0
3388	1	0
3389	1	0
3390	1	0
3391	1	0
3392	1	0
3393	1	0
3394	1	0
3395	1	0
3396	1	0
3397	1	0
3398	1	0
3399	1	0
3400	1	0
3401	1	0
3402	1	0
3403	1	0
3404	1	0
3405	1	0
3406	1	0
3407	1	0
3408	1	0
3409	1	0
3410	1	0
3411	1	0
3412	1	0
3413	1	0
3414	1	0
3415	1	0
3416	1	0
3417	1	0
3418	1	0
3419	1	0
3420	1	0
3421	1	0
3422	1	0
3423	1	0
3424	1	0
3425	1	0
3426	1	0
3427	1	0
3428	1	0
3429	1	0
3430	1	0
3431	1	0
3432	1	0
3433	1	0
3434	1	0
3435	1	0
3436	1	0
3437	1	0
3438	1	0
3439	1	0
3440	1	0
3441	1	0
3442	1	0
3443	1	0
3444	1	0
3445	1	0
3446	1	0
3447	1	0
3448	1	0
3449	1	0
3450	1	0
3451	1	0
3452	1	0
3453	1	0
3454	1	0
3455	1	0
3456	1	0
3457	1	0
3458	1	0
3459	1	0
3460	1	0
3461	1	0
3462	1	0
3463	1	0
3464	1	0
3465	1	0
3466	1	0
3467	1	0
3468	1	0
3469	1	0
3470	1	0
3471	1	0
3472	1	0
3473	1	0
3474	1	0
3475	1	0
3476	1	0
3477	1	0
3478	1	0
3479	1	0
3480	1	0
3481	1	0
3482	1	0
3483	1	0
3484	1	0
3485	1	0
3486	1	0
3487	1	0
3488	1	0
3489	1	0
3490	1	0
3491	1	0
3492	1	0
3493	1	0
3494	1	0
3495	1	0
3496	1	0
3497	1	0
3498	1	0
3499	1	0
3500	1	0
3501	1	0
3502	1	0
3503	1	0
3504	1	0
3505	1	0
3506	1	0
3507	1	0
3508	1	0
3509	1	0
3510	1	0
3511	1	0
3512	1	0
3513	1	0
3514	1	0
3515	1	0
3516	1	0
3517	1	0
3518	1	0
3519	1	0
3520	1	0
3521	1	0
3522	1	0
3523	1	0
3524	1	0
3525	1	0
3526	1	0
3527	1	0
3528	1	0
3529	1	0
3530	1	0
3531	1	0
3532	1	0
3533	1	0
3534	1	0
3535	1	0
3536	1	0
3537	1	0
3538	1	0
3539	1	0
3540	1	0
3541	1	0
3542	1	0
3543	1	0
3544	1	0
3545	1	0
3546	0	0.939817
3547	0	0.0909091
3548	0	0.0909091
3549	0	0.109091
3550	0	0.109091
3551	0	0.109091
3552	0	0.133333
3553	0	0.0888889
3554	0	0.0888889
3555	0	0.0888889
3556	0	0.0888889
3557	0	0.0833333
3558	0	0.107143
3559	0	0.107143
3560	0	0.107143
3561	0	0.107143
3562	0	0.107143
3563	0	0.107143
3564	0	0.107143
3565	0	0.107143
3566	0	0.107143
3567	0	0.107143
3568	0	0.107143
3569	0	0.107143
3570	0	0.107143
3571	0	0.107143
3572	0	0.107143
3573	0	0.107143
3574	0	0.107143
3575	0	0.107143
3576	0	0.107143
3577	0	0.107143
3578	0	0.107143
3579	0	0.107143
3580	0	0.107143
3581	0	0.107143
3582	0	0.107143
3583	0	0.107143
3584	0	0.142857
3585	0	0.0666667
3586	0	0.0666667
3587	0	0.0666667
3588	0	0.0666667
3589	0	0.047619
3590	0	0.047619
3591	0	0.047619
3592	0	0.047619
3593	0	0
3594	0	0
3595	0	0.0666667
3596	0	0.0666667
3597	0	0.0666667
3598	0	0.0666667
3599	0	0.0666667
3600	0	0
3601	0	0
3602	0	0
3603	0	0.2
3604	0	0.2
3605	0	0.2
3606	0	0.2
3607	0	0.2
3608	0	0.2
3609	0	0.2
3610	0	0.2
3611	0	0.2
3612	0	0.2
3613	0	0.2
3614	0	0.2
3615	0	0.2
3616	0	0.2
3617	0	0.2
3618	0	0.2
3619	0	0.2
3620	0	0.2
3621	0	0.2
3622	0	0.2
3623	0	0.2
3624	0	0.2
3625	0	0.2
3626	0	0.2
3627	0	0.2
3628	0	0.2
3629	0	0.2
3630	0	0.2
3631	0	0.2
3632	0	0.2
3633	0	0.2
3634	0	0.2
3635	0	0.2
3636	0	0.2
3637	0	0.3
3638	0	0.3
3639	0	0.3
3640	0	0.3
3641	0	0.3
3642	0	0.3
3643	0	0.3
3644	0	0.3
3645	0	0.3
3646	0	0.3
3647	0	0.3
3648	0	0.3
3649	0	0.3
3650	0	0.3
3651	0	0.3
3652	0	0.3
3653	0	0.3
3654	0	0.3
3655	0	0.3
3656	0	0.3
3657	0	0.3
3658	0	0.3
3659	0	0.3
3660	0	0.3
3661	0	0.3
3662	0	0.3
3663	0	0.3
3664	0	0.3
3665	0	0.3
3666	0	0.3
3667	0	0.3
3668	0	0.3
3669	0	0.3
3670	0	0.3
3671	0	0.3
3672	0	0.3
3673	0	0.3
3674	0	0.3
3675	0	0.3
3676	0	0.3
3677	0	0.3
3678	0	0.3
3679	0	0.3
3680	0	0.3
3681	0	0.3
3682	0	0.3
3683	0	0.3
3684	0	0.3
3685	0	0.3
3686	0	0.3
3687	0	0.3
3688	0	0.3
3689	0	0.3
3690	0	0.3
3691	0	0.3
3692	0	0.3
3693	0	0.3
3694	0	0.3
3695	0	0.3
3696	0	0.3
3697	0	0.3
3698	0	0.3
3699	0	0.3
3700	0	0.3
3701	0	0.3
3702	0	0.3
3703	0	0.3
3704	0	0.3
3705	0	0.3
3706	0	0.3
3707	0	0.3
3708	0	0.3
3709	0	0.3
3710	0	0.3
3711	0	0.3
3712	0	0.3
3713	0	0.3
3714	0	0.3
3715	0	0.3
3716	0	0.3
3717	0	0.3
3718	0	0.3
3719	0	0.3
3720	0	0.3
3721	0	0.3
3722	0	0.3
3723	0	0.3
3724	0	0.3
3725	0	0.3
3726	0	0.3
3727	0	0.3
3728	0	0.3
3729	0	0.3
3730	0	0.3
3731	0	0.3
3732	0	0.3
3733	0	0.5
3734	0	0.5
3735	0	0.5
3736	0	0.5
3737	0	0.5
3738	0	0.5
3739	0	0.5
3740	0	0.5
3741	0	0.5
3742	0	0.5
3743	0	0.5
3744	0	0.5
3745	0	0.5
3746	0	0.5
3747	0	0.5
3748	0	0.5
3749	0	0.5
3750	0	0.5
3751	0	0.5
3752	0	0.5
3753	0	0.5
3754	0	0.5
3755	0	0.5
3756	0	0.5
3757	0	0.5
3758	0	0.5
3759	0	0.5
3760	0	0.5
3761	0	0.5
3762	0	0.5
3763	0	0.5
3764	0	0.5
3765	0	0.5
3766	0	0.333333
3767	0	0.333333
3768	0	0.333333
3769	0	0.333333
3770	0	0.333333
3771	0	0.333333
3772	0	0.333333
3773	0	0.333333
3774	0	0.333333
3775	0	0
3776	0	0
3777	0	0
3778	0	0
3779	0	0
3780	0	0
3781	0	0
