Site	ColumnScore	SumOfPairsScore
1	0	0
2	0	0
3	0	0
4	0	0
5	0	0
6	0	0
7	0	0
8	0	0
9	0	0
10	0	0
11	0	0
12	0	0
13	0	0
14	0	0
15	0	0
16	0	0
17	0	0
18	0	0
19	0	0
20	0	0
21	0	0
22	0	0
23	0	0
24	0	0
25	0	0
26	0	0
27	0	0
28	0	0
29	0	0
30	0	0
31	0	0
32	0	0
33	0	0
34	0	0
35	0	0
36	0	0
37	0	0
38	0	0
39	0	0
40	0	0
41	0	0
42	0	0
43	0	0
44	0	0
45	0	0
46	0	0
47	0	0
48	0	0
49	0	0
50	0	0
51	0	0
52	0	0
53	0	0
54	0	0
55	0	0
56	0	0
57	0	0
58	0	0
59	0	0
60	0	0
61	0	0
62	0	0
63	0	0
64	0	0
65	0	0
66	0	0
67	0	0
68	0	0
69	0	0
70	0	0
71	0	0
72	0	0
73	0	0
74	0	0
75	0	0
76	0	0
77	0	0
78	0	0
79	0	0
80	0	0
81	0	0
82	0	0
83	0	0
84	0	0
85	0	0
86	0	0
87	0	0
88	0	0
89	0	0
90	0	0
91	0	0
92	0	0
93	0	0
94	0	0
95	0	0
96	0	0
97	0	0
98	0	0
99	0	0
100	0	0
101	0	0
102	0	0
103	0	0
104	0	0
105	0	0
106	0	0
107	0	0
108	0	0
109	0	0
110	0	0
111	0	0.705128
112	0	0.705128
113	0	0.705128
114	0	0.705128
115	0	0.705128
116	0	0.705128
117	0	0.705128
118	0	0.705128
119	0	0.705128
120	0	0.705128
121	0	0.705128
122	0	0.705128
123	0	0.705128
124	0	0.705128
125	0	0.705128
126	0	0.705128
127	0	0.705128
128	0	0.705128
129	0	0.604396
130	0	0.604396
131	0	0.604396
132	0	0.52381
133	0	0.52381
134	0	0.52381
135	0	0.458333
136	0	0.458333
137	0	0.458333
138	0	0.458333
139	0	0.458333
140	0	0.458333
141	0	0.30303
142	0	0.30303
143	0	0.30303
144	0	0.30303
145	0	0.30303
146	0	0.30303
147	0	0.30303
148	0	0.30303
149	0	0.30303
150	0	0.30303
151	0	0.30303
152	0	0.30303
153	0	0.30303
154	0	0.30303
155	0	0.30303
156	0	0.30303
157	0	0.30303
158	0	0.30303
159	0	0.30303
160	0	0.30303
161	0	0.30303
162	0	0.30303
163	0	0.30303
164	0	0.30303
165	0	0.30303
166	0	0.226316
167	0	0.204762
168	0	0.204762
169	0	0.204762
170	0	0.204762
171	0	0.204762
172	0	0.204762
173	0	0.204762
174	0	0.204762
175	0	0.204762
176	0	0.204762
177	0	0.204762
178	0	0.204762
179	0	0.204762
180	0	0.204762
181	0	0.204762
182	0	0.204762
183	0	0.204762
184	0	0.204762
185	0	0.204762
186	0	0.204762
187	0	0.204762
188	0	0.209524
189	0	0.209524
190	0	0.193676
191	0	0.193676
192	0	0.193676
193	0	0.193676
194	0	0.193676
195	0	0.193676
196	0	0.193676
197	0	0.193676
198	0	0.193676
199	0	0.193676
200	0	0.193676
201	0	0.193676
202	0	0.177536
203	0	0.177536
204	0	0.177536
205	0	0.177536
206	0	0.177536
207	0	0.177536
208	0	0.177536
209	0	0.177536
210	0	0.177536
211	0	0.177536
212	0	0.177536
213	0	0.177536
214	0	0.177536
215	0	0.177536
216	0	0.222222
217	0	0.177536
218	0	0.177536
219	0	0.177536
220	0	0.177536
221	0	0.177536
222	0	0.177536
223	0	0.177536
224	0	0.177536
225	0	0.177536
226	0	0.177536
227	0	0.177536
228	0	0.177536
229	0	0.177536
230	0	0.222222
231	0	0.222222
232	0	0.163333
233	0	0.163333
234	0	0.163333
235	0	0.14245
236	0	0.14245
237	0	0.14245
238	0	0.14245
239	0	0.14245
240	0	0.14245
241	0	0.2
242	0	0.2
243	0	0.2
244	0	0.2
245	0	0.2
246	0	0.2
247	0	0.2
248	0	0.2
249	0	0.2
250	0	0.2
251	0	0.2
252	0	0.2
253	0	0.2
254	0	0.2
255	0	0.2
256	0	0.171429
257	0	0.171429
258	0	0.171429
259	0	0.171429
260	0	0.171429
261	0	0.2
262	0	0.2
263	0	0.2
264	0	0.2
265	0	0.2
266	0	0.2
267	0	0.2
268	0	0.2
269	0	0.2
270	0	0.2
271	0	0.2
272	0	0.2
273	0	0.175
274	0	0.175
275	0	0.175
276	0	0.175
277	0	0.175
278	0	0.175
279	0	0.175
280	0	0.175
281	0	0.175
282	0	0.175
283	0	0.175
284	0	0.154412
285	0	0.122807
286	0	0.110526
287	0	0.110526
288	0	0.0935673
289	0	0.0935673
290	0	0.0842105
291	0	0.0761905
292	0	0.0761905
293	0	0.0735931
294	0	0.0735931
295	0	0.0779221
296	0	0.127016
297	0	0.117424
298	0	0.110517
299	0	0.114082
300	0	0.109244
301	0	0.107563
302	0	0.0833333
303	0	0.0807692
304	0	0.0807692
305	0	0.0743322
306	0	0.0780488
307	0	0.0719823
308	0	0.0743322
309	0	0.0743322
310	0	0.0743322
311	0	0.0708749
312	0	0.0708749
313	0	0.0626263
314	0	0.0599034
315	0	0.0589372
316	0	0.208973
317	0	0.208973
318	0	0.208973
319	0	0.203938
320	0	0.203938
321	0	0.208973
322	0	0.192886
323	0	0.177278
324	0	0.173382
325	0	0.173626
326	0	0.177528
327	0	0.190476
328	0	0.171053
329	0	0.167526
330	0	0.148959
331	0	0.14396
332	0	0.132051
333	0	0.126168
334	0	0.121997
335	0	0.119702
336	0	0.111701
337	0	0.105896
338	0	0.105896
339	0	0.102381
340	0	0.100551
341	0	0.0997155
342	0	0.0971676
343	0	0.0926134
344	0	0.0939683
345	0	0.0944762
346	0	0.0888491
347	0	0.0879624
348	0	0.0849852
349	0	0.0874927
350	0	0.0839138
351	0	0.0845771
352	0	0.0908789
353	0	0.125594
354	0	0.117715
355	0	0.105167
356	0	0.105116
357	0	0.111234
358	0	0.114084
359	0	0.129619
360	0	0.126542
361	0	0.123779
362	0	0.160689
363	0	0.158516
364	0	0.146419
365	0	0.161089
366	0	0.184903
367	0	0.180487
368	0	0.170351
369	0	0.184897
370	0	0.176424
371	0	0.205076
372	0	0.249133
373	0	0.49813
374	0	0.488618
375	0	0.507121
376	0	0.520431
377	0	0.541169
378	0	0.506212
379	0	0.516231
380	0	0.699545
381	0	0.767793
382	0	0.712196
383	0	0.652731
384	0	0.800631
385	0	0.696742
386	0	0.728101
387	0	0.732358
388	0	0.736119
389	0	0.736119
390	0	0.833333
391	0	0.833333
392	0	0.833333
393	0	0.833333
394	0	0.833333
395	0	0.833333
396	0	0.754456
397	0	0.754456
398	0	0.469697
399	0	0.469697
400	0	0.469697
401	0	0.469697
402	0	0.469697
403	0	0.469697
404	0	0.469697
405	0	0.469697
406	0	0.469697
407	0	0.563636
408	0	0.563636
409	0	0.563636
410	0	0.563636
411	0	0.563636
412	0	0.563636
413	0	0.563636
414	0	0.563636
415	0	0.563636
416	0	0.563636
417	0	0.563636
418	0	0.563636
419	0	0.563636
420	0	0.563636
421	0	0.563636
422	0	0.563636
423	0	0.563636
424	0	0.563636
425	0	0.563636
426	0	0.563636
427	0	0.563636
428	0	0.563636
429	0	0.644444
430	0	0.644444
431	0	0.644444
432	0	0.644444
433	0	0.644444
434	0	0.644444
435	0	0.644444
436	0	0.644444
437	0	0.644444
438	0	0.644444
439	0	0.644444
440	0	0.644444
441	0	0.644444
442	0	0.644444
443	0	0.644444
444	0	0.644444
445	0	0.644444
446	0	0.644444
447	0	0.644444
448	0	0.644444
449	0	0.644444
450	0	0.644444
451	0	0.644444
452	0	0.644444
453	0	0.644444
454	0	0.644444
455	0	0.644444
456	0	0.644444
457	0	0.644444
458	0	0.644444
459	0	0.644444
460	0	0.644444
461	0	0.488889
462	0	0.611111
463	0	0.611111
464	0	0.611111
465	0	0.611111
466	0	0.611111
467	0	0.611111
468	0	0.611111
469	0	0.611111
470	0	0.611111
471	0	0.611111
472	0	0.611111
473	0	0.611111
474	0	0.611111
475	0	0.611111
476	0	0.611111
477	0	0.611111
478	0	0.611111
479	0	0.611111
480	0	0.611111
481	0	0.611111
482	0	0.611111
483	0	0.333333
484	0	0.333333
485	0	0.333333
486	0	0.444444
487	0	0.444444
488	0	0.611111
489	0	0.611111
490	0	0.611111
491	0	0.333333
492	0	0.611111
493	0	0.611111
494	0	0.611111
495	0	0.611111
496	0	0.611111
497	0	0.611111
498	0	0.611111
499	0	0.611111
500	0	0.611111
501	0	0.611111
502	0	0.611111
503	0	0.611111
504	0	0.611111
505	0	0.611111
506	0	0.611111
507	0	0.611111
508	0	0.611111
509	0	0.611111
510	0	0.611111
511	0	0.611111
512	0	0.611111
513	0	0.611111
514	0	0.611111
515	0	0.611111
516	0	0.611111
517	0	0.611111
518	0	0.611111
519	0	0.611111
520	0	0.644444
521	0	0.644444
522	0	0.644444
523	0	0.644444
524	0	0.644444
525	0	0.527273
526	0	0.527273
527	0	0.527273
528	0	0.527273
529	0	0.527273
530	0	0.527273
531	0	0.527273
532	0	0.644444
533	0	0.644444
534	0	0.644444
535	0	0.644444
536	0	0.644444
537	0	0.644444
538	0	0.644444
539	0	0.644444
540	0	0.644444
541	0	0.644444
542	0	0.644444
543	0	1
544	0	1
545	0	1
546	0	1
547	0	1
548	0	1
549	0	1
550	0	1
551	0	1
552	0	1
553	0	1
554	0	1
555	0	1
556	0	1
557	0	1
558	0	1
559	0	1
560	0	1
561	0	1
562	0	1
563	0	1
564	0	1
565	0	1
566	0	1
567	0	1
568	0	1
569	0	1
570	0	1
571	0	1
572	0	1
573	0	1
574	0	1
575	0	1
576	0	1
577	0	1
578	0	1
579	0	1
580	0	1
581	0	1
582	0	1
583	0	1
584	0	1
585	0	1
586	0	1
587	0	1
588	0	1
589	0	1
590	0	1
591	0	1
592	0	1
593	0	1
594	0	1
595	0	1
596	0	1
597	0	1
598	0	1
599	0	1
600	0	1
601	0	1
602	0	1
603	0	1
604	0	1
605	0	1
606	0	1
607	0	0
608	0	0
609	0	0
610	0	0
611	0	1
612	0	1
613	0	1
614	0	1
615	0	1
616	0	1
617	0	1
618	0	1
619	0	1
620	0	1
621	0	1
622	0	1
623	0	1
624	0	1
625	0	1
626	0	1
627	0	1
628	0	1
629	0	1
630	0	1
631	0	1
632	0	1
633	0	1
634	0	1
635	0	1
636	0	1
637	0	1
638	0	1
639	0	1
640	0	1
641	0	1
642	0	1
643	0	1
644	0	1
645	0	1
646	0	1
647	0	1
648	0	1
649	0	1
650	0	1
651	0	1
652	0	1
653	0	1
654	0	1
655	0	1
656	0	1
657	0	1
658	0	1
659	0	1
660	0	1
661	0	1
662	0	1
663	0	1
664	0	1
665	0	1
666	0	1
667	0	1
668	0	1
669	0	1
670	0	1
671	0	1
672	0	1
673	0	1
674	0	1
675	0	1
676	0	1
677	0	1
678	0	1
679	0	1
680	0	1
681	0	1
682	0	1
683	0	1
684	0	1
685	0	1
686	0	1
687	0	1
688	0	1
689	0	1
690	0	1
691	0	1
692	0	1
693	0	1
694	0	1
695	0	1
696	0	1
697	0	1
698	0	1
699	0	1
700	0	1
701	0	1
702	0	1
703	0	1
704	0	1
705	0	1
706	0	1
707	0	1
708	0	1
709	0	1
710	0	1
711	0	1
712	0	1
713	0	1
714	0	1
715	0	1
716	0	1
717	0	1
718	0	1
719	0	1
720	0	1
721	0	1
722	0	1
723	0	0
724	0	0
725	0	0
726	0	0
727	0	0
728	0	0
729	0	0
730	0	0
731	0	0
732	0	0
733	0	0
734	0	1
735	0	1
736	0	1
737	0	1
738	0	1
739	0	1
740	0	1
741	0	1
742	0	1
743	0	1
744	0	1
745	0	1
746	0	1
747	0	1
748	0	1
749	0	1
750	0	1
751	0	1
752	0	1
753	0	1
754	0	1
755	0	1
756	0	1
757	0	1
758	0	1
759	0	1
760	0	1
761	0	1
762	0	1
763	0	0
764	0	0.5
765	0	0.5
766	0	0.5
767	0	0.5
768	0	0.5
769	0	0.6
770	0	0.6
771	0	0.6
772	0	0.6
773	0	0.6
774	0	0.6
775	0	0.6
776	0	0.765439
777	0	0.3
778	0	0.222222
779	0	0.266667
780	0	0.266667
781	0	0.266667
782	0	0.770062
783	0	0.766861
784	0	0.816854
785	1	0
786	1	0
787	1	0
788	1	0
789	1	0
790	1	0
791	1	0
792	1	0
793	1	0
794	1	0
795	1	0
796	1	0
797	1	0
798	1	0
799	1	0
800	1	0
801	1	0
802	1	0
803	1	0
804	1	0
805	1	0
806	1	0
807	1	0
808	1	0
809	1	0
810	1	0
811	1	0
812	1	0
813	1	0
814	1	0
815	1	0
816	1	0
817	1	0
818	1	0
819	1	0
820	1	0
821	1	0
822	1	0
823	1	0
824	1	0
825	1	0
826	1	0
827	1	0
828	1	0
829	1	0
830	1	0
831	1	0
832	1	0
833	1	0
834	1	0
835	1	0
836	1	0
837	1	0
838	1	0
839	1	0
840	1	0
841	1	0
842	1	0
843	1	0
844	1	0
845	1	0
846	1	0
847	1	0
848	1	0
849	1	0
850	1	0
851	1	0
852	1	0
853	1	0
854	1	0
855	1	0
856	1	0
857	1	0
858	1	0
859	1	0
860	1	0
861	1	0
862	1	0
863	1	0
864	1	0
865	1	0
866	1	0
867	1	0
868	1	0
869	1	0
870	1	0
871	1	0
872	1	0
873	1	0
874	1	0
875	1	0
876	1	0
877	1	0
878	1	0
879	1	0
880	1	0
881	1	0
882	1	0
883	1	0
884	1	0
885	1	0
886	1	0
887	1	0
888	1	0
889	1	0
890	1	0
891	1	0
892	1	0
893	1	0
894	1	0
895	1	0
896	1	0
897	1	0
898	1	0
899	1	0
900	1	0
901	1	0
902	1	0
903	1	0
904	1	0
905	1	0
906	1	0
907	1	0
908	1	0
909	1	0
910	1	0
911	1	0
912	1	0
913	1	0
914	1	0
915	1	0
916	1	0
917	1	0
918	1	0
919	1	0
920	1	0
921	1	0
922	1	0
923	1	0
924	1	0
925	1	0
926	1	0
927	1	0
928	1	0
929	1	0
930	1	0
931	1	0
932	1	0
933	1	0
934	1	0
935	1	0
936	1	0
937	1	0
938	1	0
939	1	0
940	1	0
941	1	0
942	1	0
943	1	0
944	1	0
945	1	0
946	1	0
947	1	0
948	1	0
949	1	0
950	1	0
951	1	0
952	1	0
953	1	0
954	1	0
955	1	0
956	1	0
957	1	0
958	1	0
959	1	0
960	1	0
961	1	0
962	1	0
963	1	0
964	1	0
965	1	0
966	1	0
967	1	0
968	1	0
969	1	0
970	1	0
971	1	0
972	1	0
973	1	0
974	1	0
975	1	0
976	1	0
977	1	0
978	1	0
979	1	0
980	1	0
981	1	0
982	1	0
983	1	0
984	1	0
985	1	0
986	1	0
987	1	0
988	1	0
989	1	0
990	1	0
991	1	0
992	1	0
993	1	0
994	1	0
995	1	0
996	1	0
997	1	0
998	1	0
999	1	0
1000	1	0
1001	1	0
1002	1	0
1003	1	0
1004	1	0
1005	1	0
1006	1	0
1007	1	0
1008	1	0
1009	1	0
1010	1	0
1011	1	0
1012	1	0
1013	1	0
1014	1	0
1015	1	0
1016	1	0
1017	1	0
1018	1	0
1019	1	0
1020	1	0
1021	1	0
1022	1	0
1023	1	0
1024	1	0
1025	1	0
1026	1	0
1027	1	0
1028	1	0
1029	1	0
1030	1	0
1031	1	0
1032	1	0
1033	1	0
1034	1	0
1035	1	0
1036	1	0
1037	1	0
1038	1	0
1039	1	0
1040	1	0
1041	1	0
1042	1	0
1043	1	0
1044	1	0
1045	1	0
1046	1	0
1047	1	0
1048	1	0
1049	1	0
1050	1	0
1051	1	0
1052	1	0
1053	1	0
1054	1	0
1055	1	0
1056	1	0
1057	1	0
1058	1	0
1059	1	0
1060	1	0
1061	1	0
1062	1	0
1063	1	0
1064	1	0
1065	1	0
1066	1	0
1067	1	0
1068	1	0
1069	1	0
1070	1	0
1071	1	0
1072	1	0
1073	1	0
1074	1	0
1075	1	0
1076	1	0
1077	1	0
1078	1	0
1079	1	0
1080	1	0
1081	1	0
1082	1	0
1083	1	0
1084	1	0
1085	1	0
1086	1	0
1087	1	0
1088	1	0
1089	1	0
1090	1	0
1091	1	0
1092	1	0
1093	1	0
1094	1	0
1095	1	0
1096	1	0
1097	1	0
1098	1	0
1099	1	0
1100	1	0
1101	1	0
1102	1	0
1103	1	0
1104	1	0
1105	1	0
1106	1	0
1107	1	0
1108	1	0
1109	1	0
1110	1	0
1111	1	0
1112	1	0
1113	1	0
1114	1	0
1115	1	0
1116	1	0
1117	1	0
1118	1	0
1119	1	0
1120	1	0
1121	1	0
1122	1	0
1123	1	0
1124	1	0
1125	1	0
1126	1	0
1127	1	0
1128	1	0
1129	1	0
1130	1	0
1131	1	0
1132	1	0
1133	1	0
1134	1	0
1135	1	0
1136	1	0
1137	1	0
1138	1	0
1139	1	0
1140	1	0
1141	1	0
1142	1	0
1143	1	0
1144	1	0
1145	1	0
1146	1	0
1147	1	0
1148	1	0
1149	1	0
1150	1	0
1151	1	0
1152	1	0
1153	1	0
1154	1	0
1155	1	0
1156	1	0
1157	1	0
1158	1	0
1159	1	0
1160	1	0
1161	1	0
1162	1	0
1163	1	0
1164	1	0
1165	1	0
1166	1	0
1167	1	0
1168	1	0
1169	1	0
1170	1	0
1171	1	0
1172	1	0
1173	1	0
1174	1	0
1175	1	0
1176	1	0
1177	1	0
1178	1	0
1179	1	0
1180	1	0
1181	1	0
1182	1	0
1183	1	0
1184	1	0
1185	1	0
1186	1	0
1187	1	0
1188	1	0
1189	1	0
1190	1	0
1191	1	0
1192	1	0
1193	1	0
1194	1	0
1195	1	0
1196	1	0
1197	1	0
1198	1	0
1199	1	0
1200	1	0
1201	1	0
1202	1	0
1203	1	0
1204	1	0
1205	1	0
1206	1	0
1207	1	0
1208	1	0
1209	1	0
1210	1	0
1211	1	0
1212	1	0
1213	1	0
1214	1	0
1215	1	0
1216	1	0
1217	1	0
1218	1	0
1219	1	0
1220	1	0
1221	1	0
1222	1	0
1223	1	0
1224	1	0
1225	1	0
1226	1	0
1227	1	0
1228	1	0
1229	1	0
1230	1	0
1231	1	0
1232	1	0
1233	1	0
1234	1	0
1235	1	0
1236	1	0
1237	1	0
1238	1	0
1239	1	0
1240	1	0
1241	1	0
1242	1	0
1243	1	0
1244	1	0
1245	1	0
1246	1	0
1247	1	0
1248	1	0
1249	1	0
1250	1	0
1251	1	0
1252	1	0
1253	1	0
1254	1	0
1255	1	0
1256	1	0
1257	1	0
1258	1	0
1259	1	0
1260	1	0
1261	1	0
1262	1	0
1263	1	0
1264	1	0
1265	1	0
1266	1	0
1267	1	0
1268	1	0
1269	1	0
1270	1	0
1271	1	0
1272	1	0
1273	1	0
1274	1	0
1275	0	0
1276	0	0
1277	1	0
1278	1	0
1279	1	0
1280	1	0
1281	1	0
1282	1	0
1283	1	0
1284	1	0
1285	1	0
1286	1	0
1287	1	0
1288	1	0
1289	1	0
1290	1	0
1291	1	0
1292	1	0
1293	1	0
1294	1	0
1295	1	0
1296	1	0
1297	1	0
1298	1	0
1299	1	0
1300	1	0
1301	1	0
1302	1	0
1303	1	0
1304	1	0
1305	1	0
1306	1	0
1307	1	0
1308	1	0
1309	1	0
1310	1	0
1311	1	0
1312	1	0
1313	1	0
1314	1	0
1315	1	0
1316	1	0
1317	1	0
1318	1	0
1319	1	0
1320	1	0
1321	1	0
1322	1	0
1323	1	0
1324	1	0
1325	1	0
1326	1	0
1327	1	0
1328	1	0
1329	1	0
1330	1	0
1331	1	0
1332	1	0
1333	1	0
1334	1	0
1335	1	0
1336	1	0
1337	1	0
1338	1	0
1339	1	0
1340	1	0
1341	1	0
1342	1	0
1343	1	0
1344	1	0
1345	1	0
1346	1	0
1347	1	0
1348	1	0
1349	1	0
1350	1	0
1351	1	0
1352	1	0
1353	1	0
1354	1	0
1355	1	0
1356	1	0
1357	1	0
1358	1	0
1359	1	0
1360	1	0
1361	1	0
1362	1	0
1363	1	0
1364	1	0
1365	1	0
1366	1	0
1367	1	0
1368	1	0
1369	1	0
1370	1	0
1371	1	0
1372	1	0
1373	1	0
1374	1	0
1375	1	0
1376	1	0
1377	1	0
1378	1	0
1379	1	0
1380	1	0
1381	1	0
1382	1	0
1383	0	0
1384	0	0
1385	0	0
1386	0	0
1387	0	0
1388	0	0
1389	0	0
1390	0	0
1391	0	0
1392	0	0
1393	0	0
1394	0	0
1395	0	0
1396	0	0
1397	0	0
1398	0	0
1399	1	0
1400	0	0
1401	0	0
1402	0	0
1403	0	0
1404	0	0
1405	0	0
1406	0	0
1407	0	0
1408	0	0
1409	0	0
1410	0	0
1411	0	0
1412	0	0
1413	0	0
1414	0	0
1415	1	0
1416	1	0
1417	1	0
1418	1	0
1419	1	0
1420	1	0
1421	1	0
1422	1	0
1423	1	0
1424	1	0
1425	1	0
1426	1	0
1427	0	0
1428	0	0
1429	0	0
1430	0	0
1431	0	0
1432	0	0
1433	0	0
1434	0	0
1435	1	0
1436	1	0
1437	1	0
1438	1	0
1439	1	0
1440	1	0
1441	1	0
1442	1	0
1443	1	0
1444	1	0
1445	1	0
1446	1	0
1447	1	0
1448	0	0
1449	0	0
1450	0	0
1451	0	0
1452	0	0
1453	0	0
1454	0	0
1455	0	0
1456	0	0
1457	0	0
1458	0	0
1459	0	0
1460	0	0
1461	1	0
1462	1	0
1463	1	0
1464	1	0
1465	1	0
1466	1	0
1467	1	0
1468	1	0
1469	1	0
1470	1	0
1471	1	0
1472	1	0
1473	1	0
1474	1	0
1475	1	0
1476	1	0
1477	1	0
1478	0	0
1479	0	0
1480	0	0
1481	0	0
1482	0	0
1483	0	0
1484	0	0
1485	0	0
1486	0	0
1487	0	0
1488	0	0
1489	0	0
1490	0	0
1491	0	0
1492	0	0
1493	1	0
1494	0	0
1495	0	0
1496	0	0
1497	0	0
1498	0	0
1499	0	0
1500	0	0
1501	0	0
1502	0	0
1503	0	0
1504	0	0
1505	0	0
1506	0	0
1507	0	0
1508	0	0
1509	0	0
1510	0	0
1511	0	0
1512	0	0
1513	0	0
1514	0	0
1515	0	0
1516	0	0
1517	0	0
1518	0	0
1519	0	0
1520	0	0
1521	0	0
1522	0	0
1523	0	0
1524	0	0
1525	0	0
1526	0	0
1527	0	0
1528	0	0
1529	0	0
1530	0	0
1531	0	0
1532	0	0
1533	0	0
1534	0	0
1535	0	0
1536	0	0
1537	0	0
1538	0	0
1539	0	0
1540	0	0
1541	0	0
1542	0	0
1543	0	0
1544	0	0
1545	0	0
1546	0	0
1547	0	0
1548	0	0
1549	0	0
1550	0	0
1551	0	0
1552	0	0
1553	0	0
1554	0	0
1555	0	0
1556	0	0
1557	0	0
1558	0	0
1559	0	0
1560	0	0
1561	0	0
1562	0	0
1563	0	0
1564	0	0
1565	0	0
1566	0	0
1567	0	0
1568	0	0
1569	0	0
1570	0	0
1571	0	0
1572	0	0
1573	0	0
1574	0	0
1575	1	0
1576	1	0
1577	1	0
1578	1	0
1579	1	0
1580	1	0
1581	1	0
1582	1	0
1583	1	0
1584	1	0
1585	1	0
1586	0	0
1587	0	0
1588	0	0
1589	0	0
1590	0	0
1591	0	0
1592	0	0
1593	0	0
1594	0	0
1595	0	0
1596	0	0
1597	0	0
1598	0	0
1599	0	0
1600	0	0
1601	0	0
1602	0	0
1603	0	0
1604	0	0
1605	0	0
1606	0	0
1607	0	0
1608	0	0
1609	0	0
1610	0	0
1611	0	0
1612	0	0
1613	0	0
1614	1	0
1615	0	0
1616	0	0
1617	0	0
1618	0	0
1619	0	0
1620	0	0
1621	0	0
1622	0	0
1623	0	0
1624	1	0
1625	1	0
1626	1	0
1627	1	0
1628	1	0
1629	0	0
1630	0	0
1631	0	0
1632	0	0
1633	1	0
1634	1	0
1635	1	0
1636	0	0
1637	0	0
1638	0	0
1639	0	0
1640	0	0
1641	0	0
1642	0	0
1643	0	0
1644	0	0
1645	0	0
1646	0	0
1647	0	0
1648	0	0
1649	0	0
1650	0	0
1651	0	0
1652	0	0
1653	0	0
1654	0	0
1655	0	0
1656	0	0
1657	0	0
1658	0	0
1659	0	0
1660	0	0
1661	0	0
1662	0	0
1663	0	0
1664	0	0
1665	0	0
1666	0	0
1667	0	0
1668	0	0
1669	0	0
1670	0	0
1671	0	0
1672	0	0
1673	0	0
1674	0	0
1675	0	0.333333
1676	0	0.333333
1677	0	0.333333
1678	0	0.822789
1679	0	0.333333
1680	0	0.333333
1681	0	0.333333
1682	0	0.333333
1683	0	1
1684	0	1
1685	0	1
1686	1	1
1687	0	1
1688	0	1
1689	0	1
1690	0	1
1691	0	0.824365
1692	0	0.822772
1693	0	0
1694	0	0
1695	0	0
1696	0	0
1697	0	0
1698	0	0
1699	0	0
1700	0	0
1701	0	0
1702	0	0
1703	0	0
1704	0	0
1705	0	0
1706	0	0
1707	0	0
1708	0	0
1709	0	0
1710	0	0
1711	0	0
1712	0	0
1713	0	0
1714	0	0
1715	0	0
1716	0	0
1717	0	0
1718	0	0
1719	0	0
1720	0	0
1721	0	0
1722	0	0
1723	0	0
1724	0	0
1725	0	0
1726	0	0
1727	0	0
1728	0	0
1729	0	0
1730	0	0
1731	0	0
1732	0	0
1733	0	0
1734	0	0
1735	0	0
1736	0	0
1737	0	0
1738	0	0
1739	0	0
1740	0	0
1741	0	0
1742	0	0
1743	0	0
1744	0	0
1745	0	0
1746	0	0
1747	0	0
1748	0	0
1749	0	0
1750	0	0
1751	0	0
1752	0	0
1753	0	0
1754	0	0
1755	0	0
1756	0	0
1757	0	0
1758	0	0
1759	0	0
1760	0	0
1761	0	0
1762	0	0
1763	0	0
1764	0	0
1765	0	0
1766	0	0
1767	0	0
1768	0	0
1769	0	0
1770	0	0
1771	0	0
1772	0	0
1773	0	0
1774	0	0
1775	0	0
1776	0	0
1777	0	0
1778	0	0
1779	0	0
1780	0	0
1781	0	0
1782	0	0
1783	0	0
1784	0	0
1785	0	0
1786	0	0
1787	0	0
1788	0	0
1789	0	0
1790	0	0
1791	0	0
1792	0	0
1793	0	0
1794	0	0
1795	0	0
1796	0	0
1797	0	0
1798	0	0
1799	0	0
1800	0	0.822203
1801	0	0
1802	0	0
1803	0	0
1804	0	0
1805	0	0
1806	0	0
1807	0	0
1808	0	0
1809	0	0
1810	0	0
1811	0	0
1812	0	0
1813	0	0
1814	0	0
1815	0	0
1816	0	0
1817	0	0
1818	0	0
1819	0	0
1820	0	0
1821	0	0
1822	0	0
1823	0	0
1824	0	0
1825	0	0
1826	0	0
1827	1	0
1828	1	0
1829	1	0
1830	1	0
1831	1	0
1832	1	0
1833	1	0
1834	1	0
1835	0	0.828839
1836	0	0.826301
1837	0	0.819432
1838	0	1
1839	0	1
1840	0	1
1841	0	1
1842	0	1
1843	0	1
1844	0	1
1845	0	1
1846	0	1
1847	0	1
1848	0	1
1849	0	1
1850	0	1
1851	0	1
1852	0	1
1853	0	1
1854	0	1
1855	0	1
1856	0	1
1857	0	1
1858	0	1
1859	0	1
1860	0	1
1861	0	1
1862	0	1
1863	0	1
1864	0	1
1865	0	1
1866	0	1
1867	0	1
1868	0	1
1869	0	1
1870	0	1
1871	0	1
1872	0	1
1873	0	1
1874	0	0.333333
1875	0	0.333333
1876	0	0.166667
1877	0	0.166667
1878	0	0.166667
1879	0	0.166667
1880	0	0.166667
1881	0	0.166667
1882	0	0.166667
1883	0	0.166667
1884	0	0.166667
1885	0	0.166667
1886	0	0.166667
1887	0	0.166667
1888	0	0.820565
1889	0	0.1
1890	0	0.819166
1891	0	0.932508
1892	0	0.932508
1893	0	0.932508
1894	0	0.644643
1895	0	0.647574
1896	0	1
1897	0	1
1898	0	1
1899	0	1
1900	0	1
1901	0	1
1902	0	1
1903	0	1
1904	0	1
1905	0	1
1906	0	1
1907	0	1
1908	0	1
1909	0	1
1910	0	1
1911	0	1
1912	0	1
1913	0	1
1914	0	1
1915	0	1
1916	0	1
1917	0	1
1918	0	1
1919	0	1
1920	0	1
1921	0	1
1922	0	1
1923	0	1
1924	0	1
1925	0	1
1926	0	1
1927	0	1
1928	0	1
1929	0	1
1930	0	1
1931	0	1
1932	0	1
1933	0	1
1934	0	1
1935	0	1
1936	0	1
1937	0	1
1938	0	1
1939	0	1
1940	0	1
1941	0	1
1942	0	1
1943	0	1
1944	0	1
1945	0	1
1946	0	1
1947	0	1
1948	0	1
1949	0	1
1950	0	1
1951	0	1
1952	0	1
1953	0	1
1954	0	1
1955	0	1
1956	0	1
1957	0	1
1958	0	0
1959	0	0.75
1960	0	0.75
1961	0	0.75
1962	0	0.75
1963	0	0.75
1964	0	0.75
1965	0	1
1966	0	1
1967	0	1
1968	0	1
1969	0	1
1970	0	1
1971	0	1
1972	0	1
1973	0	1
1974	0	1
1975	0	1
1976	0	1
1977	0	1
1978	0	1
1979	0	1
1980	0	1
1981	0	1
1982	0	1
1983	0	1
1984	0	0.8
1985	0	0.8
1986	0	0.8
1987	0	0.8
1988	0	0.8
1989	0	0.8
1990	0	0.8
1991	0	0.8
1992	0	0.622222
1993	0	0.622222
1994	0	0.8
1995	0	0.8
1996	0	0.8
1997	0	0.8
1998	0	0.8
1999	0	0.8
2000	0	0.622222
2001	0	0.622222
2002	0	0.622222
2003	0	0.622222
2004	0	0.622222
2005	0	0.654545
2006	0	0.654545
2007	0	0.654545
2008	0	0.654545
2009	0	0.654545
2010	0	0.654545
2011	0	0.654545
2012	0	0.654545
2013	0	0.654545
2014	0	0.654545
2015	0	0.654545
2016	0	0.818182
2017	0	0.818182
2018	0	0.818182
2019	0	0.681818
2020	0	0.681818
2021	0	0.681818
2022	0	0.681818
2023	0	0.681818
2024	0	0.681818
2025	0	0.681818
2026	0	0.681818
2027	0	0.681818
2028	0	0.681818
2029	0	0.681818
2030	0	0.681818
2031	0	0.681818
2032	0	0.681818
2033	0	0.681818
2034	0	0.681818
2035	0	0.681818
2036	0	0.681818
2037	0	0.598404
2038	0	0.598404
2039	0	0.625086
2040	0	0
2041	0	0
2042	0	0.946437
2043	0	0.739158
2044	0	0.561265
2045	0	0.540056
2046	0	0
2047	0	0
2048	0	0
2049	0	0
2050	0	0
2051	0	0
2052	0	0
2053	1	0
2054	1	0
2055	1	0
2056	1	0
2057	1	0
2058	1	0
2059	1	0
2060	1	0
2061	1	0
2062	1	0
2063	0	0
2064	0	0
2065	0	0.544974
2066	0	0.178571
2067	0	0.178571
2068	0	0.238095
2069	0	0.238095
2070	0	0.238095
2071	0	0.238095
2072	0	0.238095
2073	0	0.238095
2074	0	0.238095
2075	0	0.285714
2076	0	0.333333
2077	0	0.333333
2078	0	0.333333
2079	0	0.333333
2080	0	0.333333
2081	0	0.333333
2082	0	0.333333
2083	0	0.333333
2084	0	0.333333
2085	0	0.333333
2086	0	0.333333
2087	0	0.333333
2088	0	0.333333
2089	0	0.333333
2090	0	0.333333
2091	0	0.333333
2092	0	0.333333
2093	0	0.333333
2094	0	0.166667
2095	0	0.166667
2096	0	0.333333
2097	0	0.333333
2098	0	0.333333
2099	0	0.333333
2100	0	0.333333
2101	0	0.333333
2102	0	0.333333
2103	0	1
2104	0	1
2105	0	1
2106	0	1
2107	0	1
2108	0	1
2109	0	1
2110	0	1
2111	0	1
2112	0	1
2113	0	1
2114	0	1
2115	0	1
2116	0	1
2117	0	1
2118	0	1
2119	0	1
2120	0	1
2121	0	1
2122	0	1
2123	0	1
2124	0	1
2125	0	1
2126	0	1
2127	0	1
2128	0	1
2129	0	1
2130	0	1
2131	0	1
2132	0	1
2133	0	1
2134	0	1
2135	0	1
2136	0	1
2137	0	1
2138	0	1
2139	0	1
2140	0	1
2141	0	1
2142	0	1
2143	0	1
2144	0	1
2145	0	1
2146	0	1
2147	0	1
2148	0	1
2149	0	1
2150	0	1
2151	0	1
2152	0	1
2153	0	1
2154	0	1
2155	0	1
2156	0	1
2157	0	1
2158	0	0.897818
2159	0	0.855379
2160	0	0.133333
2161	0	0.307692
2162	0	0.0833333
2163	0	0.0833333
2164	0	0.818952
2165	0	1
2166	0	1
2167	0	1
2168	0	1
2169	0	1
2170	0	1
2171	0	1
2172	0	1
2173	0	1
2174	0	1
2175	0	1
2176	0	1
2177	0	1
2178	0	1
2179	0	1
2180	0	1
2181	0	1
2182	0	1
2183	0	1
2184	0	1
2185	0	1
2186	0	1
2187	0	1
2188	0	1
2189	0	1
2190	0	1
2191	0	1
2192	0	1
2193	0	1
2194	0	1
2195	0	1
2196	0	1
2197	0	1
2198	0	1
2199	0	1
2200	0	1
2201	0	1
2202	0	1
2203	0	1
2204	0	1
2205	0	1
2206	0	1
2207	0	1
2208	0	1
2209	0	1
2210	0	1
2211	0	1
2212	0	1
2213	0	1
2214	0	1
2215	0	1
2216	0	1
2217	0	1
2218	0	1
2219	0	1
2220	0	1
2221	0	1
2222	0	1
2223	0	1
2224	0	1
2225	0	1
2226	0	0.333333
2227	0	0.333333
2228	0	0.333333
2229	0	0.333333
2230	0	0.333333
2231	0	0.333333
2232	0	0.333333
2233	0	0.333333
2234	0	0.333333
2235	0	0.333333
2236	0	0.333333
2237	0	0.333333
2238	0	0.333333
2239	0	0.333333
2240	0	0.333333
2241	0	0.333333
2242	0	0
2243	0	0
2244	0	0
2245	0	0
2246	0	0
2247	0	0
2248	0	0
2249	0	0
2250	0	0
2251	0	0
2252	0	0
2253	0	0
2254	0	0
2255	0	0.5
2256	0	0.5
2257	0	0.6
2258	0	0.810468
2259	0	0.0952381
2260	0	0.0666667
2261	0	0.921212
2262	0	0
2263	0	0
2264	0	0
2265	0	0
2266	0	0
2267	0	0
2268	0	0
2269	0	0
2270	0	0
2271	0	0
2272	0	0
2273	0	0
2274	0	0
2275	0	0
2276	0	0.843576
2277	0	0.254902
2278	0	0.24183
2279	0	0.272059
2280	0	0.272059
2281	0	0.272059
2282	0	0.272059
2283	0	0.205882
2284	0	0.233333
2285	0	0.3
2286	0	0.3
2287	0	0.3
2288	0	0.3
2289	0	0.342857
2290	0	0.342857
2291	0	0.342857
2292	0	0.342857
2293	0	0.342857
2294	0	0.342857
2295	0	0.342857
2296	0	0.342857
2297	0	0.342857
2298	0	0.395604
2299	0	0.395604
2300	0	0.395604
2301	0	0.395604
2302	0	0.395604
2303	0	0.395604
2304	0	0.395604
2305	0	0.395604
2306	0	0.395604
2307	0	0.395604
2308	0	0.395604
2309	0	0.395604
2310	0	0.395604
2311	0	0.395604
2312	0	0.395604
2313	0	0.395604
2314	0	0.395604
2315	0	0.395604
2316	0	0.395604
2317	0	0.395604
2318	0	0.395604
2319	0	0.395604
2320	0	0.395604
2321	0	0.395604
2322	0	0.395604
2323	0	0.395604
2324	0	0.395604
2325	0	0.395604
2326	0	0.395604
2327	0	0.395604
2328	0	0.395604
2329	0	0.395604
2330	0	0.395604
2331	0	0.395604
2332	0	0.395604
2333	0	0.395604
2334	0	0.395604
2335	0	0.395604
2336	0	0.395604
2337	0	0.395604
2338	0	0.342857
2339	0	0.342857
2340	0	0.342857
2341	0	0.395604
2342	0	0.395604
2343	0	0.395604
2344	0	0.395604
2345	0	0.395604
2346	0	0.395604
2347	0	0.395604
2348	0	0.395604
2349	0	0.395604
2350	0	0.307692
2351	0	0.307692
2352	0	0.307692
2353	0	0.307692
2354	0	0.266667
2355	0	0.266667
2356	0	0.342857
2357	0	0.342857
2358	0	0.342857
2359	0	0.342857
2360	0	0.342857
2361	0	0.342857
2362	0	0.342857
2363	0	0.342857
2364	0	0.308333
2365	0	0.308333
2366	0	0.308333
2367	0	0.308333
2368	0	0.308333
2369	0	0.308333
2370	0	0.308333
2371	0	0.308333
2372	0	0.352381
2373	0	0.352381
2374	0	0.352381
2375	0	0.352381
2376	0	0.352381
2377	0	0.352381
2378	0	0.352381
2379	0	0.545455
2380	0	0.545455
2381	0	0.545455
2382	0	0.545455
2383	0	0.545455
2384	0	0.545455
2385	0	0.545455
2386	0	0.545455
2387	0	0.604396
2388	0	0.494505
2389	0	0.494505
2390	0	0.494505
2391	0	0.494505
2392	0	0.494505
2393	0	0.494505
2394	0	0.494505
2395	0	0.494505
2396	0	0.494505
2397	0	0.494505
2398	0	0.494505
2399	0	0.494505
2400	0	0.494505
2401	0	0.494505
2402	0	0.494505
2403	0	0.494505
2404	0	0.494505
2405	0	0.494505
2406	0	0.395604
2407	0	0.395604
2408	0	0.395604
2409	0	0.395604
2410	0	0.461538
2411	0	0.461538
2412	0	0.461538
2413	0	0.461538
2414	0	0.461538
2415	0	0.461538
2416	0	0.461538
2417	0	0.461538
2418	0	0.461538
2419	0	0.461538
2420	0	0.461538
2421	0	0.461538
2422	0	0.461538
2423	0	0.461538
2424	0	0.461538
2425	0	0.461538
2426	0	0.358974
2427	0	0.358974
2428	0	0.358974
2429	0	0.358974
2430	0	0.358974
2431	0	0.358974
2432	0	0.358974
2433	0	0.358974
2434	0	0.358974
2435	0	0.358974
2436	0	0.358974
2437	0	0.358974
2438	0	0.358974
2439	0	0.358974
2440	0	0.358974
2441	0	0
2442	0	0
2443	0	0
2444	0	0
2445	0	0
2446	0	0
2447	0	0
2448	0	0
2449	0	0
2450	0	0
2451	0	0
2452	0	0
2453	0	0
2454	0	0
2455	0	0
2456	0	0
2457	0	0
2458	0	0
2459	0	0
2460	0	0
2461	0	0
2462	0	0
2463	0	0
2464	0	0
2465	0	0
2466	0	0
2467	0	0
2468	0	0
2469	0	0
2470	0	0
2471	0	0
2472	0	0
2473	0	0
2474	0	0
2475	0	0.73084
2476	0	0
2477	0	0
2478	0	0
2479	0	0
2480	0	0
2481	0	0
2482	0	0
2483	0	0
2484	0	0
2485	0	0
2486	0	0
2487	0	0
2488	0	0
2489	0	0
2490	0	0
2491	0	0
2492	0	0
2493	0	0
2494	0	0
2495	0	0
2496	0	0
2497	0	0
2498	0	0
2499	0	0
2500	0	0
2501	0	0
2502	0	0
2503	0	0
2504	0	0
2505	0	0
2506	0	0
2507	0	0
2508	0	0
2509	0	0
2510	0	0
2511	0	0
2512	0	0
2513	0	0
2514	0	0
2515	0	0
2516	0	0
2517	0	0
2518	0	0
2519	0	0
2520	0	0
2521	0	0
2522	0	0
2523	0	0
2524	0	0
2525	0	0
2526	0	0
2527	0	0
2528	0	0
2529	0	0
2530	0	0
2531	0	0
2532	0	0
2533	0	0
2534	0	0
2535	0	0
2536	0	0
2537	0	0
2538	0	0
2539	0	0
2540	0	0
2541	0	0
2542	0	0
2543	0	0
2544	0	0
2545	0	0
2546	0	0
2547	0	0
2548	0	0
2549	0	0
2550	0	0
2551	0	0
2552	0	0
2553	0	0
2554	0	0
2555	0	0
2556	0	0
2557	0	0
2558	0	0
2559	0	0
2560	0	0
2561	0	0
2562	0	0
2563	0	0
2564	0	0
2565	0	0
2566	0	0
2567	0	0
2568	0	0
2569	0	0
2570	0	0
2571	0	0
2572	0	0
2573	0	0
2574	0	0
2575	0	0
2576	0	0
2577	0	0
2578	0	0
2579	0	0
2580	0	0
2581	0	0
2582	0	0
2583	0	0
2584	0	0
2585	0	0
2586	0	0
2587	0	0
2588	0	0
2589	0	0
2590	0	0
2591	0	1
2592	0	1
2593	0	1
2594	0	1
2595	0	1
2596	0	1
2597	0	1
2598	0	1
2599	0	1
2600	0	1
2601	0	1
2602	0	1
2603	0	1
2604	0	1
2605	0	1
2606	0	1
2607	0	1
2608	0	1
2609	0	0
2610	0	0
2611	0	1
2612	0	1
2613	0	1
2614	0	1
2615	0	1
2616	0	1
2617	0	1
2618	0	1
2619	0	1
2620	0	1
2621	0	1
2622	0	1
2623	0	1
2624	0	1
2625	0	1
2626	0	0
2627	0	0
2628	0	0
2629	0	0
2630	0	0
2631	0	0
2632	0	0
2633	0	0
2634	0	0
2635	0	0
2636	0	0
2637	0	0
2638	0	0
2639	0	0
2640	0	0
2641	0	0
2642	0	0
2643	0	0
2644	0	0
2645	0	0
2646	0	0
2647	0	0
2648	0	0
2649	0	0
2650	0	0
2651	0	0
2652	0	0
2653	0	0
2654	0	0
2655	0	0
2656	0	0
2657	0	0
2658	0	0
2659	0	0
2660	0	0
2661	0	0
2662	0	0
2663	0	0
2664	0	0
2665	0	0
2666	0	0
2667	0	0
2668	0	0
2669	0	0
2670	0	0
2671	0	0
2672	0	0
2673	0	0
2674	0	0
2675	0	0
2676	0	0
2677	0	0
2678	0	1
2679	0	1
2680	0	1
2681	0	1
2682	0	0.420711
2683	0	0.488889
2684	0	0.444444
2685	0	0.133333
2686	0	0.107143
2687	0	0.047619
2688	0	0.047619
2689	0	0.142857
2690	0	0.142857
2691	0	0.142857
2692	0	0.142857
2693	0	0.142857
2694	0	0.142857
2695	0	0.0888889
2696	0	0.142857
2697	0	0.0833333
2698	0	0.0888889
2699	0	0.0727273
2700	0	0.136364
2701	0	0.128205
2702	0	0.255411
2703	0	0.576298
2704	0	0.332308
2705	0	0.439394
2706	0	0.3
2707	0	0.2
2708	0	0.3
2709	0	0.6
2710	0	0.990584
2711	0	0.990584
2712	0	0.992464
2713	0	0
2714	0	0
2715	0	0
2716	0	0
2717	0	0
2718	0	0
2719	0	0
2720	0	0
2721	0	0
2722	0	0
2723	0	0
2724	0	0
2725	0	0
2726	0	0
2727	0	0
2728	0	0
2729	0	0
2730	0	0
2731	0	0
2732	0	0
2733	0	0
2734	0	0
2735	0	0
2736	0	0
2737	0	0
2738	0	0
2739	0	0
2740	0	0
2741	0	0
2742	0	0
2743	0	0.99811
2744	0	0.996225
2745	0	0.998111
2746	0	0.998111
2747	0	0.998111
2748	0	0
2749	0	0
2750	0	0
2751	0	0
2752	0	0
2753	0	0
2754	0	0
2755	0	0
2756	0	0
2757	0	0
2758	0	0
2759	0	0
2760	0	0
2761	0	0
2762	0	0
2763	0	0
2764	0	0
2765	0	0
2766	0	0
2767	0	0
2768	0	0
2769	0	0
2770	0	0
2771	0	0
2772	0	0
2773	0	0
2774	0	0
2775	0	0
2776	0	0
2777	0	0
2778	0	0
2779	0	0
2780	0	0
2781	0	0
2782	0	0
2783	0	0
2784	0	0
2785	0	0
2786	0	0
2787	0	0
2788	0	0.99435
2789	0	0.994356
2790	0	0.994356
2791	0	0.996239
2792	0	0.996239
2793	0	0.996242
2794	0	0.996246
2795	0	0.996246
2796	0	0.996246
2797	0	0
2798	0	0
2799	0	0
2800	0	0
2801	0	0
2802	0	0
2803	0	0
2804	0	0
2805	0	0
2806	0	0
2807	0	0
2808	0	0
2809	0	0
2810	0	0
2811	0	0
2812	0	0
2813	0	0
2814	0	0
2815	0	0
2816	0	0
2817	0	0
2818	0	0
2819	0	0
2820	0	0
2821	0	0
2822	0	0
2823	0	0
2824	0	0
2825	0	0
2826	0	0
2827	0	0
2828	0	0
2829	0	0
2830	0	0
2831	0	0
2832	0	0
2833	0	0
2834	0	0
2835	0	0
2836	0	0
2837	0	0
2838	0	0
2839	0	0
2840	0	0
2841	0	0
2842	0	0
2843	0	0
2844	0	0
2845	0	0
2846	1	0
2847	1	0
2848	1	0
2849	1	0
2850	1	0
2851	1	0
2852	1	0
2853	1	0
2854	1	0
2855	1	0
2856	1	0
2857	1	0
2858	1	0
2859	1	0
2860	1	0
2861	0	0
2862	1	0
2863	1	0
2864	1	0
2865	0	0
2866	0	0
2867	0	0
2868	0	0
2869	0	0
2870	0	0
2871	0	0
2872	0	0
2873	0	0
2874	0	0
2875	0	0
2876	0	0
2877	0	0
2878	0	0
2879	0	0
2880	0	0
2881	0	0
2882	0	0
2883	0	0
2884	0	0
2885	0	0
2886	0	0
2887	0	0
2888	0	0
2889	0	0
2890	0	0
2891	0	0
2892	0	0
2893	0	0
2894	0	0
2895	0	0
2896	0	0
2897	0	0
2898	0	0
2899	0	0
2900	0	0
2901	0	0
2902	0	0
2903	0	0
2904	0	0
2905	0	0
2906	0	0
2907	0	0
2908	0	0
2909	0	0
2910	0	0
2911	0	0
2912	0	0
2913	0	0
2914	0	0
2915	0	0
2916	0	0
2917	0	0
2918	0	0
2919	0	0
2920	0	0
2921	0	0
2922	0	0
2923	0	0
2924	0	0
2925	0	0
2926	0	0
2927	0	0
2928	0	0
2929	0	0
2930	0	0
2931	0	0
2932	0	0
2933	0	0
2934	0	0
2935	0	0
2936	0	0
2937	0	0
2938	0	0
2939	0	0
2940	0	0
2941	0	0
2942	0	0
2943	0	0
2944	0	0
2945	0	0
2946	0	0
2947	0	0
2948	0	0
2949	0	0
2950	0	0
2951	0	0
2952	0	0
2953	0	0
2954	0	0
2955	0	0.99812
2956	0	0.99812
2957	0	0.99812
2958	0	0.99812
2959	0	0.99812
2960	0	0.996242
2961	0	0.996242
2962	0	0.996242
2963	0	0
2964	0	0
2965	0	0
2966	0	0
2967	0	0
2968	0	0
2969	0	0
2970	0	0
2971	0	0
2972	0	0
2973	0	0
2974	0	0
2975	0	0
2976	0	0
2977	0	0
2978	0	0
2979	0	0
2980	0	0
2981	0	0
2982	0	0
2983	0	0
2984	0	0
2985	0	0
2986	0	0
2987	0	0
2988	0	0
2989	0	0
2990	0	0
2991	0	0
2992	0	0
2993	0	0
2994	0	0
2995	0	0
2996	0	0
2997	0	0
2998	0	0
2999	0	0
3000	0	0
3001	0	0
3002	0	0
3003	0	0
3004	0	0
3005	0	0
3006	0	0
3007	0	0
3008	0	0
3009	0	0
3010	0	0
3011	0	0
3012	0	0
3013	0	0
3014	0	0
3015	0	0
3016	0	0
3017	0	0
3018	0	0
3019	0	0
3020	0	0
3021	0	0
3022	0	0
3023	0	0
3024	0	0
3025	0	0
3026	0	0
3027	0	0
3028	0	0
3029	0	0
3030	0	0
3031	0	0
3032	0	0
3033	0	0
3034	0	0
3035	0	0
3036	0	0
3037	0	0
3038	0	0
3039	0	0
3040	0	0
3041	0	0
3042	0	0
3043	0	0
3044	0	0
3045	0	0
3046	0	0
3047	0	0
3048	0	0
3049	0	0
3050	0	0
3051	0	0
3052	0	0
3053	0	0
3054	0	0
3055	0	0
3056	0	0
3057	0	0
3058	0	0
3059	0	0
3060	0	0
3061	0	0
3062	0	0
3063	0	0
3064	0	0
3065	0	0
3066	0	0
3067	0	0
3068	0	0
3069	0	0
3070	0	0
3071	0	0
3072	0	0
3073	0	0
3074	0	0
3075	0	0
3076	0	0
3077	0	0
3078	0	0
3079	0	0
3080	0	0
3081	0	0
3082	0	0
3083	0	0
3084	0	0
3085	0	0
3086	0	0
3087	0	0
3088	0	0
3089	0	0
3090	0	0
3091	0	0.0666667
3092	0	0.047619
3093	0	0.047619
3094	0	0.0555556
3095	0	0.0357143
3096	0	0.0277778
3097	0	0.0363636
3098	0	0.852758
3099	0	0.749998
3100	0	0.371542
3101	0	0.371542
3102	0	0
3103	0	0
3104	0	0
3105	0	0
3106	0	0
3107	0	0
3108	0	0.316667
3109	0	0
3110	0	0
3111	0	0
3112	0	0
3113	0	0
3114	0	0
3115	0	0
3116	0	0
3117	0	0
3118	0	0
3119	0	0
3120	0	0
3121	0	0
3122	0	0
3123	0	0
3124	0	0
3125	0	0
3126	0	0
3127	0	0
3128	0	0
3129	0	0
3130	0	0
3131	0	0
3132	0	0
3133	0	0
3134	0	0
3135	0	0
3136	0	0
3137	0	0
3138	0	0
3139	0	0
3140	0	0
3141	0	0
3142	0	0
3143	0	0.173333
3144	0	0.15
3145	0	0.166667
3146	0	0.100529
3147	0	0.662921
3148	0	0.5
3149	0	0.709815
3150	0	0.709815
3151	0	0.802969
3152	0	0.798009
3153	0	0.842342
3154	0	0.361185
3155	0	0.329808
3156	0	0.288889
3157	0	0.282583
3158	0	0.398327
3159	0	0.274537
3160	0	0.336933
3161	0	0.281578
3162	0	0.941176
3163	0	0.941176
3164	0	0.941176
3165	0	0.941176
3166	0	0.941176
3167	0	0.941176
3168	0	0.309605
3169	0	0.302162
3170	0	0.28572
3171	0	0
3172	0	0
3173	0	0
3174	0	0
3175	0	0
3176	0	0
3177	0	0
3178	0	0
3179	0	0
3180	0	0
3181	0	0
3182	0	0.487805
3183	0	0.0285714
3184	0	0.0210526
3185	0	0.0196078
3186	0	0.0326797
3187	0	0.0350877
3188	0	0.0315789
3189	0	0.33127
3190	0	0
3191	0	0
3192	0	0
3193	0	0
3194	0	0
3195	0	0
3196	0	0
3197	0	0
3198	0	0
3199	0	0
3200	0	0
3201	0	0
3202	0	0
3203	0	0
3204	0	0
3205	0	0
3206	0	0
3207	0	0
3208	0	0
3209	0	0
3210	0	0
3211	0	0
3212	0	0
3213	0	0.985714
3214	0	0.406154
3215	0	0.4
3216	0	0.4
3217	0	0.463226
3218	0	0
3219	0	0
3220	0	0
3221	0	0.333333
3222	0	0.333333
3223	0	0.333333
3224	0	0.5
3225	0	0.5
3226	0	0.5
3227	0	0.3
3228	0	0.295485
3229	0	0.404706
3230	0	0.388386
3231	0	0
3232	0	0
3233	0	0.364037
3234	0	0.75
3235	0	0.75
3236	0	0.75
3237	0	0.75
3238	0	0.75
3239	0	0
3240	0	0
3241	0	0
3242	0	0
3243	0	0
3244	0	0
3245	0	0
3246	0	0
3247	0	0
3248	0	0
3249	0	0
3250	0	0
3251	0	0
3252	0	0
3253	0	0
3254	0	0
3255	0	0.36584
3256	0	0.384239
3257	0	0.388977
3258	0	0.385731
3259	0	0.385691
3260	0	0.488035
3261	0	0.508204
3262	0	0.495807
3263	0	0.500972
3264	0	0.511546
3265	0	0.516848
3266	0	0.257862
3267	0	0.254717
3268	0	0.264706
3269	0	0.308511
3270	0	0.304965
3271	0	0.310823
3272	0	0.312673
3273	0	0.312673
3274	0	0.458037
3275	0	0.509524
3276	0	0.509524
3277	0	0.509524
3278	0	0.539496
3279	0	0.466667
3280	0	0.583333
3281	0	0.583333
3282	0	0.583333
3283	0	0.75
3284	0	0.75
3285	0	0.75
3286	0	0.614404
3287	0	0.0181818
3288	0	0.0222222
3289	0	0.662538
3290	0	0.660346
3291	0	0.660533
3292	0	0.533333
3293	0	0.326316
3294	0	0.655626
3295	0	0.657147
3296	0	0
3297	0	0
3298	0	0
3299	0	0
3300	0	0
3301	0	0
3302	0	0
3303	0	0.1
3304	0	0.76859
3305	0	0.0363636
3306	0	0.0277778
3307	0	0.0222222
3308	0	0.0222222
3309	0	0
3310	0	0.489851
3311	0	0.402064
3312	0	0.398826
3313	0	0.381444
3314	0	0.108108
3315	0	0.102564
3316	0	0.0897436
3317	0	0.0882695
3318	0	0.0645864
3319	0	0.530873
3320	0	0.461538
3321	0	0.0578089
3322	0	0.517088
3323	0	0.0440967
3324	0	0.0455192
3325	0	0.0549451
3326	0	0.0497866
3327	0	0.0440967
3328	0	0.0384615
3329	0	0.35355
3330	0	0.349297
3331	0	0
3332	0	0.347034
3333	0	0.527473
3334	0	0.527473
3335	0	0.296703
3336	0	0.132254
3337	0	0.126923
3338	0	0.111538
3339	0	0.0809524
3340	0	0.0407192
3341	0	0.140605
3342	0	0.423255
3343	0	0.408426
3344	0	0.72
3345	0	0.664615
3346	0	0.71
3347	0	0.408687
3348	0	0.82983
3349	0	0.654545
3350	0	0.654545
3351	0	0.421599
3352	0	0.217029
3353	0	0.199172
3354	0	0
3355	0	0
3356	0	0.47619
3357	0	0.47619
3358	0	0.357143
3359	0	0.357143
3360	0	0.357143
3361	0	0.357143
3362	0	0.357143
3363	0	0.277778
3364	0	0.269231
3365	0	0.205128
3366	0	0.166667
3367	0	0.104575
3368	0	0.102941
3369	0	0.181287
3370	0	0.164637
3371	0	0.15913
3372	0	0.162438
3373	0	0.0659537
3374	0	0.0584677
3375	0	0.0569801
3376	0	0.0569801
3377	0	0.0569801
3378	0	0.123854
3379	0	0.107445
3380	0	0.104202
3381	0	0.11954
3382	0	0.0822511
3383	0	0.180188
3384	0	0.126026
3385	0	0.0993964
3386	0	0.126111
3387	0	0.148402
3388	0	0.15361
3389	0	0.228434
3390	0	0.227018
3391	0	0.254178
3392	0	0.470937
3393	0	0.595193
3394	0	0.166667
3395	0	0.166667
3396	0	0.166667
3397	0	0.333333
3398	0	0.333333
3399	0	0.333333
3400	0	0.333333
3401	0	0.333333
3402	0	0.333333
3403	0	0.604596
3404	0	0.459625
3405	0	0.46184
3406	0	0.461126
3407	0	0.462366
3408	0	0.355556
3409	0	0.439394
3410	0	0.538462
3411	0	0.333333
3412	0	0.333333
3413	0	0.333333
3414	0	0.246313
3415	0	0
3416	0	0
3417	0	0
3418	0	0
3419	0	0
3420	0	0
3421	0	0
3422	0	0
3423	0	0
3424	0	0
3425	0	0
3426	0	0
3427	0	0
3428	0	0
3429	0	0.8
3430	0	0.900722
3431	0	0.396724
3432	0	0.66129
3433	0	0.754023
3434	0	1
3435	0	1
3436	0	1
3437	0	1
3438	0	1
3439	0	1
3440	0	1
3441	0	1
3442	0	1
3443	0	1
3444	0	0.5
3445	0	0.232872
3446	0	0.154412
3447	0	0.154412
3448	0	0.175
3449	0	0.175
3450	0	0.190731
3451	0	0.14795
3452	0	0.25925
3453	0	0.253973
3454	0	0.255787
3455	0	0.294785
3456	0	0.25977
3457	0	0.300493
3458	0	0.300493
3459	0	0.266667
3460	0	0.266667
3461	0	0.271264
3462	0	0.271264
3463	0	0.262069
3464	0	0.231855
3465	0	0.231855
3466	0	0.217803
3467	0	0.127273
3468	0	0.483579
3469	0	0.4
3470	0	0.273564
3471	0	0.271624
3472	0	0
3473	0	0
3474	0	0.0666667
3475	0	0.158559
3476	0	0.152632
3477	0	0.146187
3478	0	0.56663
3479	0	0.425108
3480	0	0.0714286
3481	0	0.0714286
3482	0	0.0714286
3483	0	0.0714286
3484	0	0.0714286
3485	0	0.464394
3486	0	0.23674
3487	0	0.0666667
3488	0	0.251082
3489	0	0.047619
3490	0	0.047619
3491	0	0.0666667
3492	0	0.0666667
3493	0	0.0952381
3494	0	0.0714286
3495	0	0
3496	0	0
3497	0	0
3498	0	0.107143
3499	0	0.32805
3500	0	0.0431894
3501	0	0.490316
3502	0	0.333333
3503	0	0.333333
3504	0	0.333333
3505	0	0.333333
3506	0	0.333333
3507	0	0.333333
3508	0	0.333333
3509	0	0.698696
3510	0	0.72127
3511	0	0.710161
3512	0	0.710161
3513	0	0.710911
3514	0	0.0666667
3515	0	0.0666667
3516	0	0.0666667
3517	0	0.0571429
3518	0	0.047619
3519	0	0.047619
3520	0	0.0761905
3521	0	0.42455
3522	0	0.397505
3523	0	0.153369
3524	0	0.156915
3525	0	0.173759
3526	0	0.452335
3527	0	1
3528	0	0
3529	0	0
3530	0	0.768887
3531	0	0.553957
3532	0	0.873236
3533	0	0.0714286
3534	0	0.0714286
3535	0	0.047619
3536	0	0.285714
3537	0	0.277778
3538	0	0
3539	0	0
3540	0	0.166667
3541	0	0.166667
3542	0	0.166667
3543	0	0.989189
3544	0	0.989418
3545	0	0.556908
3546	0	0.188462
3547	0	0.142308
3548	0	0.165385
3549	0	0.170513
3550	0	0.54903
3551	0	0
3552	0	0
3553	0	0
3554	0	0.273288
3555	0	0.433228
3556	0	0.47057
3557	0	0.490521
3558	0	0.490641
3559	0	0
3560	0	0.847029
3561	0	0
3562	0	0
3563	0	0
3564	0	0
3565	0	0
3566	0	0.863464
3567	0	0.533154
3568	0	0.333333
3569	0	0.333333
3570	0	0.794635
3571	0	0.788775
3572	0	0.792064
3573	0	0.41902
3574	0	0.835825
3575	0	0.659407
3576	0	0.662842
3577	0	0.584131
3578	0	0.584087
3579	0	0.266667
3580	0	0.266667
3581	0	0.4
3582	0	0.2
3583	0	0.2
3584	0	0.333333
3585	0	0.333333
3586	0	0.333333
3587	0	0.333333
3588	0	0.333333
3589	0	0.333333
3590	0	0.333333
3591	0	0.333333
3592	0	0.478041
3593	0	0.848989
3594	0	0.676471
3595	0	0.477941
3596	0	0.992386
3597	0	0
3598	0	0.166667
3599	0	0
3600	0	0
3601	0	0
3602	0	0
3603	0	0
3604	0	0
3605	0	0
3606	0	0.998129
3607	1	1
3608	1	1
3609	1	1
3610	1	1
3611	1	1
3612	0	1
3613	1	1
3614	1	1
3615	1	1
3616	1	1
3617	1	1
3618	0	0.998134
3619	0	0.994231
3620	0	0.788406
3621	0	0.493206
3622	0	0.802189
3623	0	0.469319
3624	0	0.603644
3625	0	0.279923
3626	0	0.533259
3627	0	0.559817
3628	0	0.559817
3629	0	1
3630	0	1
3631	0	0.714286
3632	0	0.714286
3633	0	0.994233
3634	0	0.99626
3635	0	0.99626
3636	0	0.99626
3637	1	0
3638	1	0
3639	1	0
3640	1	0
3641	1	0
3642	1	0
3643	1	0
3644	1	0
3645	1	0
3646	1	0
3647	1	0
3648	1	0
3649	1	0
3650	1	0
3651	0	0
3652	0	0
3653	0	0.996265
3654	1	1
3655	1	1
3656	1	1
3657	1	1
3658	1	1
3659	1	1
3660	1	1
3661	1	1
3662	0	0.998133
3663	1	1
3664	1	1
3665	1	1
3666	1	1
3667	1	1
3668	1	1
3669	1	1
3670	1	1
3671	1	1
3672	1	1
3673	0	1
3674	0	1
3675	0	0.998134
3676	0	0.998134
3677	1	1
3678	1	1
3679	1	1
3680	1	0
3681	1	0
3682	1	1
3683	1	1
3684	1	1
3685	1	1
3686	1	1
3687	1	1
3688	1	1
3689	1	1
3690	1	1
3691	1	1
3692	1	1
3693	1	1
3694	0	1
3695	1	1
3696	1	1
3697	1	1
3698	1	1
3699	1	1
3700	1	1
3701	0	0.521547
3702	0	0.505116
3703	0	0.517304
3704	0	0.843844
3705	0	0.518124
3706	0	0.80403
3707	0	0.622222
3708	0	0.709036
3709	0	0.936038
3710	0	1
3711	1	1
3712	1	1
3713	1	1
3714	1	1
3715	1	1
3716	1	1
3717	1	1
3718	1	1
3719	1	1
3720	1	1
3721	1	1
3722	0	1
3723	0	1
3724	0	1
3725	1	1
3726	1	1
3727	1	1
3728	1	1
3729	1	1
3730	0	1
3731	0	1
3732	0	1
3733	0	0.567251
3734	0	0.492893
3735	0	0
3736	0	0
3737	0	0
3738	0	0
3739	0	0
3740	0	0
3741	0	0
3742	0	0
3743	0	0
3744	0	0
3745	0	0
3746	0	0.986081
3747	0	0.752381
3748	0	0.752381
3749	0	0.752381
3750	0	0.4
3751	0	0.4
3752	0	0.466667
3753	0	0.819955
3754	0	0.616499
3755	0	0.447987
3756	0	0.374186
3757	0	0.313812
3758	0	0.384859
3759	0	0.34935
3760	0	0.34171
3761	0	0.275829
3762	0	0.274589
3763	0	0.226066
3764	0	0.306858
3765	0	0.385851
3766	0	0.216698
3767	0	0.199274
3768	0	0.199458
3769	0	0.21397
3770	0	0.210737
3771	0	0.21491
3772	0	0.240924
3773	0	0.238788
3774	0	0.200219
3775	0	0.206405
3776	0	0.175446
3777	0	0.168007
3778	0	0.0981456
3779	0	0.100233
3780	0	0.247619
3781	0	0.134424
3782	0	0.135593
3783	0	0.168168
3784	0	0.204598
3785	0	0.204598
3786	0	0.2
3787	0	0.157895
3788	0	0.147692
3789	0	0.236923
3790	0	0.431938
3791	0	0.5
3792	0	0.452117
3793	0	1
3794	0	1
3795	0	1
3796	0	1
3797	0	1
3798	0	0.473001
3799	0	0.3
3800	0	0.3
3801	0	0.3
3802	0	0.3
3803	0	0.3
3804	0	0.3
3805	0	0.3
3806	0	0.3
3807	0	0.3
3808	0	0.6
3809	0	0.6
3810	0	0.6
3811	0	0.6
3812	0	0.6
3813	0	1
3814	0	1
3815	0	1
3816	0	1
3817	0	1
3818	0	1
3819	0	1
3820	0	1
3821	0	1
3822	0	1
3823	0	1
3824	0	1
3825	0	1
3826	0	1
3827	0	1
3828	0	0.571429
3829	0	0.571429
3830	0	1
3831	0	1
3832	0	1
3833	0	1
3834	0	0.90394
3835	0	0.975964
3836	0	1
3837	0	1
3838	0	1
3839	0	1
3840	0	1
3841	0	1
3842	0	1
3843	0	1
3844	0	1
3845	0	1
3846	0	1
3847	0	1
3848	0	1
3849	0	0.996262
3850	0	0.996262
3851	0	0.996262
3852	0	0.996258
3853	0	0.996258
3854	0	0.996258
3855	0	0.996255
3856	0	0.994384
3857	0	0.994384
3858	0	1
3859	0	1
3860	0	1
3861	0	1
3862	0	1
3863	0	1
3864	0	0
3865	0	0
3866	0	0.989238
3867	0	0.855524
3868	0	0.9142
3869	0	0.894737
3870	0	0.894737
3871	0	0.894737
3872	0	0.894737
3873	0	0.888889
3874	0	0.904021
3875	0	0.458824
3876	0	0.433333
3877	0	0.298413
3878	0	0.491192
3879	0	0.4847
3880	0	0
3881	0	0
3882	0	0
3883	0	0
3884	0	0
3885	0	0
3886	0	0
3887	0	0
3888	0	0
3889	0	0
3890	0	0
3891	0	0
3892	0	0
3893	0	0
3894	0	0
3895	0	0
3896	0	0.51382
3897	0	0.494442
3898	0	0.480068
3899	0	0.724703
3900	0	0.666667
3901	0	0.4
3902	0	0.166667
3903	0	0
3904	0	0
3905	0	0
3906	0	0
3907	0	0
3908	0	0
3909	0	0
3910	0	0
3911	0	0
3912	0	0
3913	0	0
3914	0	0.729735
3915	0	0.453789
3916	0	0.435078
3917	0	0.405249
3918	0	0.514538
3919	0	0
3920	0	0
3921	0	0
3922	0	0
3923	0	0.1
3924	0	0.289773
3925	0	0.224028
3926	0	0.230651
3927	0	0.178337
3928	0	0.181416
3929	0	0.144543
3930	0	0.115139
3931	0	0.126144
3932	0	0.126839
3933	0	0.124026
3934	0	0.145253
3935	0	0.0689223
3936	0	0.0365854
3937	0	0.135198
3938	0	0.0954319
3939	0	0.0894216
3940	0	0.329794
3941	0	0.0376712
3942	0	0.0711752
3943	0	0.0629228
3944	0	0.17963
3945	0	0.159924
3946	0	0.136549
3947	0	0.114167
3948	0	0.107407
3949	0	0.103305
3950	0	0.0567608
3951	0	0.0574986
3952	0	0.0549314
3953	0	0.0811327
3954	0	0.0788469
3955	0	0.0599099
3956	0	0.0584046
3957	0	0.0578499
3958	0	0.146067
3959	0	0.0380952
3960	0	0.0380952
3961	0	0.0947368
3962	0	0.0947368
3963	0	0.0894737
3964	0	0.0842984
3965	0	0.0790808
3966	0	0.139772
3967	0	0.202586
3968	0	0.196258
3969	0	0.0511034
3970	0	0.0481036
3971	0	0.0416667
3972	0	0.16143
3973	0	0.150096
3974	0	0.152012
3975	0	0.044335
3976	0	0.044335
3977	0	0.0502646
3978	0	0.0634921
3979	0	0.0689655
3980	0	0.0685624
3981	0	0.0645714
3982	0	0.0783217
3983	0	0.0665962
3984	0	0.0509413
3985	0	0.0531915
3986	0	0.0828373
3987	0	0.129301
3988	0	0.0937712
3989	0	0.0723122
3990	0	0.0404992
3991	0	0.0384397
3992	0	0.0324427
3993	0	0.0314168
3994	0	0.0323237
3995	0	0.0352053
3996	0	0.037056
3997	0	0.0349545
3998	0	0.0410637
3999	0	0.0389458
4000	0	0.0415461
4001	0	0.061872
4002	0	0.0989136
4003	0	0.100478
4004	0	0.110313
4005	0	0.0525633
4006	0	0.0491766
4007	0	0.0505023
4008	0	0.0509725
4009	0	0.0546442
4010	0	0.063633
4011	0	0.0363636
4012	0	0.0363636
4013	0	0.0549451
4014	0	0.0980392
4015	0	0.100594
4016	0	0.0836835
4017	0	0.0805788
4018	0	0
4019	0	0
4020	0	0
4021	0	0
4022	0	0
4023	0	0
4024	0	0
4025	0	0
4026	0	0
4027	0	0
4028	0	0
4029	0	0
4030	0	0
4031	0	0
4032	0	0.466667
4033	0	0.0712441
4034	0	0.0876809
4035	0	0.0820626
4036	0	0.0855461
4037	0	0.0739639
4038	0	0.119433
4039	0	0.094776
4040	0	0
4041	0	0
4042	0	0
4043	0	0
4044	0	0
4045	0	0
4046	0	0
4047	0	0
4048	0	0
4049	0	0
4050	0	0
4051	0	0
4052	0	0
4053	0	0
4054	0	0
4055	0	0
4056	0	0
4057	0	0
4058	0	0.234956
4059	0	0.250117
4060	0	0
4061	0	0.462462
4062	0	0.53003
4063	0	0
4064	0	0
4065	0	0
4066	0	0
4067	0	0
4068	0	0
4069	0	0
4070	0	0
4071	0	0.166667
4072	0	0.166667
4073	0	0.166667
4074	0	0.166667
4075	0	0.120767
4076	0	0.256516
4077	0	0.201511
4078	0	0.177241
4079	0	0.204397
4080	0	0.166881
4081	0	0.156863
4082	0	0.131213
4083	0	0.176982
4084	0	0.269275
4085	0	0.304557
4086	0	0.426208
4087	0	0.44232
4088	0	0.230655
4089	0	0.238095
4090	0	0.196581
4091	0	0.212308
4092	0	0.246377
4093	0	0.247619
4094	0	0.171429
4095	0	0.266667
4096	0	0.392857
4097	0	0.392857
4098	0	0.333333
4099	0	1
4100	0	1
4101	0	1
4102	0	1
4103	0	1
4104	0	1
4105	0	0.425067
4106	0	0.426451
4107	0	0.294624
4108	0	0.211494
4109	0	0.252308
4110	0	0.14
4111	0	0.104575
4112	0	0.195652
4113	0	0.286232
4114	0	0.397436
4115	0	0.426471
4116	0	0.398693
4117	0	0.368421
4118	0	0.34086
4119	0	0.244819
4120	0	0.296966
4121	0	0.300034
4122	0	0.362651
4123	0	0.315272
4124	0	0.304776
4125	0	0.31536
4126	0	0.0924731
4127	0	0.0985222
4128	0	0.114943
4129	0	0.114625
4130	0	0.0988142
4131	0	0.0988142
4132	0	0.169231
4133	0	0.347112
4134	0	0.613523
4135	0	0.350251
4136	0	0.478836
4137	0	0.47379
4138	0	0.927371
4139	0	0.916581
4140	0	0.943033
4141	0	0.943033
4142	0	1
4143	0	1
4144	0	0.752894
4145	0	0.75305
4146	0	0.75305
4147	0	0.756265
4148	0	0.756265
4149	0	0.753242
4150	0	0.753242
4151	0	0.754656
4152	0	0.754656
4153	0	0.754656
4154	0	0.754656
4155	0	0.745314
4156	0	1
4157	0	0.996249
4158	0	0.996253
4159	0	0.996253
4160	0	0.996253
4161	0	0.996253
4162	0	0.996253
4163	0	1
4164	0	0.990656
4165	0	0.990656
4166	0	0.990654
4167	0	0.6
4168	0	0.994382
4169	0	0.994382
4170	0	1
4171	0	1
4172	0	1
4173	0	0.945741
4174	0	0.942646
4175	0	0.942477
4176	0	0.630303
4177	0	0.420202
4178	0	0.343844
4179	0	0.882949
4180	0	0.717949
4181	0	0.717949
4182	0	0.923984
4183	0	0.333333
4184	0	0.333333
4185	0	0.333333
4186	0	0.70906
4187	0	0.888889
4188	0	0.795322
4189	0	0.803972
4190	0	0.810876
4191	0	0.451965
4192	0	0.535714
4193	0	0.714286
4194	0	0
4195	0	0
4196	0	0.354577
4197	0	0.413329
4198	0	0.426334
4199	0	0.799431
4200	0	0
4201	0	0
4202	0	0
4203	0	0
4204	0	0
4205	0	0.827859
4206	0	0.727374
4207	0	0.70356
4208	0	0.842002
4209	0	0.86426
4210	0	0.869376
4211	0	1
4212	0	1
4213	0	0.883503
4214	0	0.883503
4215	0	0.883503
4216	0	0.883503
4217	0	0.882989
4218	0	0.874628
4219	0	0.872996
4220	0	1
4221	0	1
4222	0	1
4223	0	1
4224	0	0.858835
4225	0	0.5
4226	0	0.5
4227	0	0.5
4228	0	0.5
4229	0	0.5
4230	0	0.5
4231	0	0.5
4232	0	0.5
4233	0	0.5
4234	0	0.5
4235	0	0.5
4236	0	0.809762
4237	0	0
4238	0	0.79208
4239	0	0.0666667
4240	0	0.0952381
4241	0	0.0952381
4242	0	0.878727
4243	0	0.880535
4244	0	0.1
4245	0	0
4246	0	0
4247	0	0
4248	0	0
4249	0	0
4250	0	0
4251	0	0
4252	0	0
4253	0	0.753268
4254	0	0.751338
4255	0	0.747789
4256	0	1
4257	0	0.4
4258	0	1
4259	0	1
4260	0	1
4261	0	1
4262	0	1
4263	0	1
4264	0	1
4265	0	1
4266	0	1
4267	0	1
4268	0	0
4269	0	0
4270	0	0
4271	0	0
4272	0	0
4273	0	0
4274	0	0.1
4275	0	0
4276	0	0
4277	0	0
4278	0	0
4279	0	0
4280	0	0
4281	0	0
4282	0	0
4283	0	0
4284	0	0
4285	0	0
4286	0	0
4287	0	0
4288	0	0.607604
4289	0	0
4290	0	0
4291	0	0.166667
4292	0	0.590084
4293	0	0.166667
4294	0	0.551901
4295	0	0.423409
4296	0	0.467754
4297	0	0.549018
4298	0	0.547161
4299	0	0.663127
4300	0	0.648873
4301	0	0.3
4302	0	0.3
4303	0	0.3
4304	0	0.3
4305	0	0.3
4306	0	0.3
4307	0	0.3
4308	0	0.3
4309	0	0.190476
4310	0	0.3
4311	0	0
4312	0	0
4313	0	0
4314	0	0
4315	0	0.645006
4316	0	0
4317	0	0
4318	0	0
4319	0	0
4320	0	0
4321	0	0
4322	0	0.578456
4323	0	0.431841
4324	0	0.0363636
4325	0	0.0277778
4326	0	0.0444444
4327	0	0.867799
4328	0	0
4329	0	0
4330	0	0
4331	0	0.0666667
4332	0	0.0666667
4333	0	0.0666667
4334	0	0.0666667
4335	0	0.0666667
4336	0	0.138889
4337	0	0.111111
4338	0	0.771331
4339	0	0.710728
4340	0	0.711175
4341	0	0.669027
4342	0	0.669749
4343	0	0.710206
4344	0	0.711826
4345	0	0.596235
4346	0	0.814676
4347	0	0.811606
4348	0	0.816214
4349	0	0.817918
4350	0	0.817918
4351	0	0.5
4352	0	0.5
4353	0	0.5
4354	0	0.5
4355	0	0.5
4356	0	0.5
4357	0	0.666667
4358	0	0.666667
4359	0	0.666667
4360	0	0.714286
4361	0	0.808941
4362	0	0.81046
4363	0	0.81046
4364	0	0.812146
4365	0	0
4366	0	0.808493
4367	0	0.960904
4368	0	0.964528
4369	0	0.266667
4370	0	0.266667
4371	0	0.266667
4372	0	0.964619
4373	0	0.964652
4374	0	0.964652
4375	0	0.964652
4376	0	0.964652
4377	0	0.964652
4378	0	0
4379	0	0
4380	0	0
4381	0	0
4382	0	0
4383	0	0
4384	0	0
4385	0	0
4386	0	0.968311
4387	0	0
4388	0	0
4389	0	0.970185
4390	0	0.968333
4391	0	0.968323
4392	0	0.871819
4393	0	0.606723
4394	0	0.820293
4395	0	0.904103
4396	0	0.47619
4397	0	0.666667
4398	0	0.666667
4399	0	0.793
4400	0	0.3
4401	0	0.80774
4402	0	0.806221
4403	0	0.947834
4404	0	0.947834
4405	0	0
4406	0	0
4407	0	0.992506
4408	0	0.992506
4409	0	0
4410	0	0
4411	0	0
4412	0	0
4413	0	0
4414	0	0
4415	0	0
4416	0	0
4417	0	0
4418	0	0.994356
4419	0	0.994356
4420	0	0.994356
4421	0	0.994356
4422	0	0.994356
4423	0	0
4424	0	0.990619
4425	0	0.988759
4426	0	0
4427	0	0
4428	0	0.996235
4429	0	0.994361
4430	0	0.994361
4431	0	0.994361
4432	0	0.994361
4433	0	0.994361
4434	0	0.994361
4435	0	0.996235
4436	0	0.996235
4437	0	0.996235
4438	0	0.996232
4439	0	0.996232
4440	0	0.996232
4441	0	0.996232
4442	0	0.996232
4443	0	0.996232
4444	0	0.996228
4445	0	0.996228
4446	0	0.996228
4447	0	0.996225
4448	0	0.996225
4449	0	0.996225
4450	0	0.996225
4451	0	0.996225
4452	0	0.996225
4453	0	0.99434
4454	0	0.99434
4455	0	0.992456
4456	0	0.992464
4457	0	0.992464
4458	0	0.992464
4459	0	0
4460	0	0
4461	0	0
4462	0	0
4463	0	0
4464	0	0
4465	0	0
4466	0	0
4467	0	0
4468	0	0
4469	0	0
4470	0	0
4471	0	0
4472	0	0
4473	0	0
4474	0	0
4475	0	0
4476	0	0
4477	0	0
4478	0	0
4479	0	0
4480	0	0
4481	0	0
4482	0	0
4483	0	0
4484	0	0
4485	0	0
4486	0	0
4487	0	0
4488	0	0
4489	0	0
4490	0	0
4491	0	0
4492	0	0
4493	0	0
4494	0	0
4495	0	0
4496	0	0
4497	0	0
4498	0	0
4499	0	0
4500	0	0.992464
4501	0	0.992464
4502	0	0.992464
4503	0	0.988708
4504	0	0.988708
4505	0	0.817216
4506	0	0.817216
4507	0	0.518275
4508	0	0.518275
4509	0	0.5
4510	0	0.634014
4511	0	0.984463
4512	0	0.984463
4513	0	0.984463
4514	0	0.984463
4515	0	0.953698
4516	0	0.941939
4517	0	0.770833
4518	0	0.768939
4519	0	0.762097
4520	0	0.657258
4521	0	0.657258
4522	0	0.462174
4523	0	0.492754
4524	0	0.496377
4525	0	0.456667
4526	0	0.403333
4527	0	0.273333
4528	0	0.323237
4529	0	0.324035
4530	0	0.419482
4531	0	0.420766
4532	0	0.414454
4533	0	0.4232
4534	0	0.381395
4535	0	0.244444
4536	0	0.155556
4537	0	0.155556
4538	0	0.194444
4539	0	0.242424
4540	0	0.277778
4541	0	0.111111
4542	0	0.111111
4543	0	0.111111
4544	0	0.373016
4545	0	0.17619
4546	0	0.205263
4547	0	0.0285714
4548	0	0.109
4549	0	0.123077
4550	0	0.113942
4551	0	0.304957
4552	0	0.303176
4553	0	0.424712
4554	0	0.399752
4555	0	0.0807108
4556	0	0.124213
4557	0	0.129582
4558	0	0.185714
4559	0	0.166667
4560	0	0.161905
4561	0	0.192982
4562	0	0.192982
4563	0	0.181287
4564	0	0.175439
4565	0	0.348837
4566	0	0.365449
4567	0	0.349593
4568	0	0.431452
4569	0	0.407197
4570	0	0.361345
4571	0	0.148179
4572	0	0.129644
4573	0	0.380145
4574	0	0.345192
4575	0	0.0929597
4576	0	0.48557
4577	0	0.122152
4578	0	0.117722
4579	0	0.146519
4580	0	0.124054
4581	0	0.0887299
4582	0	0.106594
4583	0	0.125591
4584	0	0.12089
4585	0	0.108896
4586	0	0.0800076
4587	0	0.0764243
4588	0	0.304205
4589	0	0.280652
4590	0	0.327478
4591	0	0.454008
4592	0	0.443721
4593	0	0.428758
4594	0	0.439682
4595	0	0.17098
4596	0	0.423482
4597	0	0.694759
4598	0	0.537273
4599	0	0.559033
4600	0	0.541414
4601	0	0.541414
4602	0	0.865015
4603	0	0.882566
4604	0	0.882566
4605	0	0.863628
4606	0	0.217949
4607	0	0.141026
4608	0	0.181818
4609	0	0.25
4610	0	0.25
4611	0	0.25
4612	0	0.25
4613	0	0.3
4614	0	0.3
4615	0	0.3
4616	0	0.3
4617	0	0.3
4618	0	0.3
4619	0	0.3
4620	0	0.3
4621	0	0.3
4622	0	0.3
4623	0	0.3
4624	0	0.3
4625	0	0.6
4626	0	0.6
4627	0	0.714286
4628	0	0.714286
4629	0	0.714286
4630	0	1
4631	0	1
4632	0	1
4633	0	1
4634	0	1
4635	0	0.990132
4636	0	0.990536
4637	0	0.990536
4638	0	0.990566
4639	0	0.990683
4640	0	0.990741
4641	0	0.987683
4642	0	0.993048
4643	0	0.994329
4644	0	0.99434
4645	0	0.99434
4646	0	0.99434
4647	0	0.99434
4648	0	0.99434
4649	0	0.996225
4650	0	0.996225
4651	0	0.996221
4652	0	0.990593
4653	0	0.990593
4654	0	0.990593
4655	0	0
4656	0	0
4657	0	0
4658	0	0
4659	0	0
4660	0	0
4661	0	0
4662	0	0
4663	0	0
4664	0	0
4665	0	0
4666	0	0
4667	0	0
4668	0	0
4669	0	0
4670	0	0
4671	0	0
4672	0	0
4673	0	0
4674	0	0
4675	0	0
4676	0	0
4677	0	0
4678	0	0
4679	0	0.986842
4680	0	0.986842
4681	0	0.984984
4682	0	0
4683	0	0
4684	0	0
4685	0	0.988633
4686	0	0.979324
4687	0	0.977453
4688	0	0.142857
4689	0	0.142857
4690	0	0.142857
4691	0	0.986807
4692	0	0.990548
4693	0	0.988697
4694	0	0.990568
4695	0	0.990568
4696	0	0.990568
4697	0	0.990568
4698	0	0
4699	0	0
4700	0	0
4701	0	0
4702	0	0
4703	0	0
4704	0	0
4705	0	0
4706	0	0
4707	0	0
4708	0	0
4709	0	0
4710	0	0
4711	0	0
4712	0	0
4713	0	0
4714	0	0
4715	0	0
4716	0	0
4717	0	0
4718	0	0
4719	0	0
4720	0	0
4721	0	0
4722	0	0
4723	0	0
4724	0	0
4725	0	0
4726	0	0
4727	0	0
4728	0	0
4729	0	0
4730	0	0
4731	0	0
4732	0	0
4733	0	0
4734	0	0
4735	0	0
4736	0	0
4737	0	0
4738	0	0
4739	0	0
4740	0	0
4741	0	0
4742	0	0
4743	0	0
4744	0	0
4745	0	0
4746	0	0
4747	0	0
4748	0	0
4749	0	0
4750	0	0
4751	0	0
4752	0	0
4753	0	0
4754	0	0
4755	0	0
4756	0	0
4757	0	0
4758	0	0
4759	0	0
4760	0	0
4761	0	0
4762	0	0
4763	0	0
4764	0	0
4765	0	0
4766	0	0
4767	0	0
4768	0	0
4769	0	0
4770	0	0
4771	0	0
4772	0	0
4773	0	0
4774	0	0
4775	0	0
4776	0	0
4777	0	0
4778	0	0
4779	0	0
4780	0	0
4781	0	0
4782	0	0
4783	0	0
4784	0	0
4785	0	0
4786	0	0
4787	0	0
4788	0	0
4789	0	0
4790	0	0
4791	0	0
4792	0	0
4793	0	0
4794	0	0
4795	0	0
4796	0	0
4797	0	0
4798	0	0
4799	0	0
4800	0	0
4801	0	0
4802	0	0
4803	0	0
4804	0	0
4805	0	0
4806	0	0
4807	0	0
4808	0	0
4809	0	0
4810	0	0
4811	0	0
4812	0	0
4813	0	0
4814	0	0
4815	0	0
4816	0	0
4817	0	0
4818	0	0
4819	0	0
4820	0	0
4821	0	0
4822	0	0
4823	0	0
4824	0	0
4825	0	0
4826	0	0
4827	0	0
4828	0	0
4829	0	0
4830	0	0
4831	0	0
4832	0	0
4833	0	0
4834	0	0
4835	0	0
4836	0	0
4837	0	0
4838	0	0
4839	0	0
4840	0	0
4841	0	0
4842	0	0
4843	0	0
4844	0	0
4845	0	0
4846	0	0
4847	0	0
4848	0	0
4849	0	0
4850	0	0
4851	0	0
4852	0	0
4853	0	0
4854	0	0
4855	0	0
4856	0	0
4857	0	0
4858	0	0
4859	0	0.990925
4860	0	0.710764
4861	0	0.70161
4862	0	0.439505
4863	0	0.659337
4864	0	0
4865	0	0
4866	0	0
4867	0	0
4868	0	0
4869	0	0
4870	0	0
4871	0	0
4872	0	0
4873	0	0
4874	0	0
4875	0	0
4876	0	0
4877	0	0
4878	0	0
4879	0	0
4880	0	0
4881	0	0
4882	0	0
4883	0	0
4884	0	0
4885	0	0
4886	0	0
4887	0	0
4888	0	0
4889	0	0
4890	0	0
4891	0	0
4892	0	0
4893	0	0
4894	0	0
4895	0	0
4896	0	0
4897	0	0
4898	0	0
4899	0	0
4900	0	0
4901	0	0
4902	0	0
4903	0	0
4904	0	0
4905	0	0
4906	0	0
4907	0	0
4908	0	0
4909	0	0
4910	0	0
4911	0	0
4912	0	0
4913	0	0
4914	0	0
4915	0	0
4916	0	0
4917	0	0
4918	0	0
4919	0	0
4920	0	0
4921	0	0
4922	0	0
4923	0	0
4924	0	0
4925	0	0
4926	0	0
4927	0	0
4928	0	0
4929	0	0
4930	0	0
4931	0	0
4932	0	0
4933	0	0
4934	0	0
4935	0	0
4936	0	0
4937	0	0
4938	0	0
4939	0	0
4940	0	0
4941	0	0
4942	0	0
4943	0	0
4944	0	0
4945	0	0
4946	0	0
4947	0	0
4948	0	0
4949	0	0
4950	0	0
4951	0	0
4952	0	0
4953	0	0
4954	0	0
4955	0	0
4956	0	0
4957	0	0
4958	0	0
4959	0	0
4960	0	0
4961	0	0
4962	0	0
4963	0	0
4964	0	0
4965	0	0
4966	0	0
4967	0	0
4968	0	0
4969	0	0
4970	0	0
4971	0	0
4972	0	0
4973	0	0
4974	0	0
4975	0	0
4976	0	0
4977	0	0
4978	0	0
4979	0	0
4980	0	0
4981	0	0
4982	0	0
4983	0	0
4984	0	0
4985	0	0
4986	0	0
4987	0	0
4988	0	0
4989	0	0
4990	0	0
4991	0	0
4992	0	0
4993	0	0
4994	0	0
4995	0	0
4996	0	0
4997	0	0
4998	0	0
4999	0	0
5000	0	0
5001	0	0
5002	1	0
5003	1	0
5004	1	0
5005	0	0
5006	0	0
5007	0	0
5008	0	0
5009	0	0
5010	0	0
5011	0	0
5012	0	0
5013	0	0
5014	0	0
5015	0	0
5016	0	0
5017	0	0
5018	0	0
5019	0	0
5020	0	0
5021	0	0
5022	0	0
5023	0	0
5024	0	0
5025	0	0
5026	0	0
5027	0	0
5028	0	0
5029	0	0
5030	0	0
5031	0	0
5032	0	0
5033	0	0
5034	0	0
5035	0	0
5036	0	0
5037	0	0
5038	0	0
5039	0	0
5040	0	0
5041	0	0
5042	0	0
5043	0	0
5044	0	0
5045	0	0.704509
5046	0	0.982035
5047	0	0.984943
5048	0	0.983085
5049	0	0.983085
5050	0	0.983085
5051	0	0
5052	0	0
5053	0	0
5054	0	0
5055	0	0
5056	0	0
5057	0	0
5058	0	0
5059	0	0
5060	0	0
5061	0	0
5062	0	0
5063	0	0
5064	0	0
5065	0	0
5066	0	0
5067	0	0
5068	0	0
5069	0	0
5070	0	0
5071	0	0
5072	0	0
5073	0	0
5074	0	0
5075	0	0
5076	0	0
5077	0	0
5078	0	0
5079	0	0
5080	0	0
5081	0	0
5082	0	0
5083	0	0
5084	0	0
5085	0	0
5086	0	0
5087	0	0
5088	0	0
5089	0	0
5090	0	0
5091	0	0
5092	1	0
5093	0	0
5094	0	0
5095	0	0
5096	0	0
5097	0	0
5098	0	0
5099	0	0
5100	0	0
5101	0	0
5102	0	0
5103	0	0
5104	0	0
5105	0	0
5106	0	0
5107	0	0
5108	0	0
5109	0	0
5110	0	0
5111	0	0
5112	0	0
5113	0	0
5114	0	0
5115	0	0
5116	0	0
5117	0	0
5118	0	0
5119	0	0
5120	0	0
5121	0	0
5122	0	0
5123	0	0
5124	0	0
5125	0	0
5126	0	0
5127	0	0
5128	0	0
5129	0	0
5130	0	0
5131	0	0
5132	0	0
5133	0	0
5134	0	0
5135	0	0
5136	0	0
5137	0	0
5138	0	0
5139	0	0
5140	0	0
5141	0	0
5142	0	0
5143	0	0
5144	0	0
5145	0	0
5146	0	0
5147	0	0
5148	0	0
5149	0	0
5150	0	0
5151	0	0
5152	0	0
5153	0	0
5154	0	0
5155	0	0
5156	0	0
5157	0	0
5158	0	0
5159	0	0
5160	0	0
5161	0	0
5162	0	0
5163	0	0
5164	0	0
5165	0	0
5166	0	0
5167	0	0
5168	0	0
5169	0	0.984941
5170	0	0.986805
5171	0	0.333333
5172	0	0.333333
5173	0	0.988642
5174	0	0.988642
5175	0	0.984872
5176	0	0
5177	0	0
5178	0	0
5179	0	0
5180	0	0
5181	0	0
5182	0	0
5183	0	0
5184	0	0
5185	0	0
5186	0	0
5187	0	0
5188	0	0
5189	0	0
5190	0	0
5191	0	0
5192	0	0
5193	0	0
5194	0	0
5195	0	0
5196	0	0
5197	0	0
5198	0	0
5199	0	0
5200	0	0
5201	0	0
5202	0	0.047619
5203	0	0.047619
5204	0	0.973045
5205	0	0.969231
5206	0	0.966667
5207	0	0.846154
5208	0	0.545455
5209	0	0.545455
5210	0	0.236364
5211	0	0.4
5212	0	0.4
5213	0	0.166667
5214	0	0.166667
5215	0	0.333333
5216	0	0.333333
5217	0	0.333333
5218	0	0.333333
5219	0	0.305556
5220	0	0.266667
5221	0	0.138889
5222	0	0.111111
5223	0	0.138889
5224	0	0.831062
5225	0	0.830098
5226	0	0.424242
5227	0	0.509091
5228	0	0.509091
5229	0	0.509091
5230	0	0.509091
5231	0	0.340659
5232	0	0.2
5233	0	0.183824
5234	0	0.191176
5235	0	0.630591
5236	0	0.674584
5237	0	0.1
5238	0	0.1
5239	0	0.1
5240	0	0.1
5241	0	0.1
5242	0	0.1
5243	0	0.1
5244	0	0
5245	0	0
5246	0	0
5247	0	0
5248	0	0.827682
5249	0	0.795086
5250	0	0.768173
5251	0	0.768331
5252	0	0.71677
5253	0	0.718963
5254	0	0.707449
5255	0	0.707449
5256	0	0.684711
5257	0	0.10989
5258	0	0.10989
5259	0	0.0952381
5260	0	0.0588235
5261	0	0.0631579
5262	0	0.645587
5263	0	0.610853
5264	0	0.548031
5265	0	0.212193
5266	0	0.0947414
5267	0	0.487368
5268	0	0.477536
5269	0	0.476994
5270	0	0.477884
5271	0	0.0660661
5272	0	0.0660661
5273	0	0.0711238
5274	0	0.0674764
5275	0	0.0687104
5276	0	0.477065
5277	0	0.481168
5278	0	0.476504
5279	0	0.34127
5280	0	0.423522
5281	0	0.151515
5282	0	0.151515
5283	0	0.69643
5284	0	0
5285	0	0
5286	0	0
5287	0	0
5288	0	0
5289	0	0
5290	0	0
5291	0	0
5292	0	0
5293	0	0
5294	0	0
5295	0	0
5296	0	0
5297	0	0
5298	0	0
5299	0	0
5300	0	0
5301	0	0
5302	0	0
5303	0	0
5304	0	0
5305	0	0
5306	0	0
5307	0	0
5308	0	0
5309	0	0
5310	0	0
5311	0	0
5312	0	0
5313	0	0
5314	0	0
5315	0	0
5316	0	0
5317	0	0
5318	0	0
5319	0	0
5320	0	0
5321	0	0
5322	0	0
5323	0	0
5324	0	0
5325	0	0
5326	0	0
5327	0	0
5328	0	0.333333
5329	0	0.333333
5330	0	0.333333
5331	0	0.333333
5332	0	0.333333
5333	0	0.333333
5334	0	0.333333
5335	0	0.333333
5336	0	0.333333
5337	0	0.333333
5338	0	0.333333
5339	0	0.333333
5340	0	0.333333
5341	0	0.333333
5342	0	0.333333
5343	0	0.333333
5344	0	0.333333
5345	0	0.333333
5346	0	0.333333
5347	0	0.333333
5348	0	0.333333
5349	0	0.333333
5350	0	0.333333
5351	0	0.333333
5352	0	0.333333
5353	0	0.333333
5354	0	0.333333
5355	0	0.333333
5356	0	0.166667
5357	0	0.1
5358	0	0.0666667
5359	0	0.0666667
5360	0	0.047619
5361	0	0.161905
5362	0	0.141667
5363	0	0.0661765
5364	0	0.261185
5365	0	0.238825
5366	0	0.129831
5367	0	0.262803
5368	0	0.257771
5369	0	0.18064
5370	0	0.335979
5371	0	0.402174
5372	0	0.339181
5373	0	0.272727
5374	0	0
5375	0	0
5376	0	0
5377	0	0
5378	0	0
5379	0	0
5380	0	0
5381	0	0
5382	0	0
5383	0	0
5384	0	0
5385	0	0
5386	0	0
5387	0	0
5388	0	0
5389	0	0
5390	0	0
5391	0	0
5392	0	0
5393	0	0
5394	0	0
5395	0	0
5396	0	0
5397	0	1
5398	0	1
5399	0	1
5400	0	1
5401	0	1
5402	0	1
5403	0	1
5404	0	1
5405	0	1
5406	0	1
5407	0	1
5408	0	1
5409	0	1
5410	0	1
5411	0	1
5412	0	1
5413	0	1
5414	0	1
5415	0	1
5416	0	1
5417	0	1
5418	0	1
5419	0	1
5420	0	1
5421	0	1
5422	0	1
5423	0	1
5424	0	1
5425	0	1
5426	0	1
5427	0	1
5428	0	1
5429	0	1
5430	0	1
5431	0	1
5432	0	1
5433	0	1
5434	0	1
5435	0	1
5436	0	1
5437	0	1
5438	0	1
5439	0	1
5440	0	1
5441	0	1
5442	0	1
5443	0	1
5444	0	1
5445	0	1
5446	0	1
5447	0	1
5448	0	1
5449	0	1
5450	0	1
5451	0	1
5452	0	1
5453	0	1
5454	0	1
5455	0	1
5456	0	1
5457	0	1
5458	0	1
5459	0	1
5460	0	1
5461	0	1
5462	0	1
5463	0	1
5464	0	1
5465	0	1
5466	0	1
5467	0	1
5468	0	1
5469	0	1
5470	0	1
5471	0	1
5472	0	0
5473	0	0
5474	0	1
5475	0	1
5476	0	1
5477	0	1
5478	0	1
5479	0	1
5480	0	1
5481	0	1
5482	0	1
5483	0	1
5484	0	1
5485	0	1
5486	0	1
5487	0	1
5488	0	1
5489	0	1
5490	0	1
5491	0	1
5492	0	1
5493	0	1
5494	0	1
5495	0	1
5496	0	1
5497	0	1
5498	0	1
5499	0	1
5500	0	1
5501	0	1
5502	0	1
5503	0	1
5504	0	1
5505	0	1
5506	0	1
5507	0	1
5508	0	1
5509	0	1
5510	0	1
5511	0	1
5512	1	1
5513	1	1
5514	1	1
5515	1	1
5516	1	1
5517	1	1
5518	1	1
5519	1	1
5520	1	1
5521	1	1
5522	1	1
5523	1	1
5524	0	1
5525	0	1
5526	0	1
5527	0	1
5528	0	1
5529	0	1
5530	0	1
5531	0	1
5532	0	1
5533	0	1
5534	0	1
5535	0	1
5536	0	1
5537	0	1
5538	0	1
5539	0	1
5540	0	1
5541	0	1
5542	0	1
5543	0	1
5544	0	1
5545	0	1
5546	0	1
5547	0	1
5548	1	1
5549	0	1
5550	0	1
5551	0	1
5552	0	1
5553	0	1
5554	0	1
5555	0	1
5556	0	1
5557	0	1
5558	0	1
5559	0	1
5560	0	1
5561	0	1
5562	0	1
5563	0	1
5564	0	1
5565	0	1
5566	0	1
5567	0	1
5568	0	1
5569	1	1
5570	1	1
5571	1	1
5572	1	1
5573	1	1
5574	0	1
5575	0	1
5576	0	1
5577	0	1
5578	0	1
5579	0	1
5580	0	1
5581	0	1
5582	0	1
5583	0	1
5584	0	1
5585	0	1
5586	0	1
5587	0	1
5588	0	1
5589	0	1
5590	0	1
5591	0	1
5592	0	1
5593	0	1
5594	0	1
5595	0	1
5596	0	1
5597	0	1
5598	0	1
5599	0	1
5600	0	1
5601	0	1
5602	0	1
5603	0	1
5604	0	1
5605	0	1
5606	0	1
5607	0	1
5608	0	1
5609	0	1
5610	1	1
5611	1	1
5612	1	1
5613	1	0
5614	1	0
5615	0	1
5616	0	1
5617	0	1
5618	0	1
5619	0	1
5620	0	1
5621	0	1
5622	1	1
5623	1	1
5624	0	1
5625	0	1
5626	0	1
5627	0	1
5628	0	1
5629	0	1
5630	0	1
5631	0	1
5632	0	1
5633	0	1
5634	0	1
5635	0	1
5636	0	1
5637	0	1
5638	1	1
5639	1	1
5640	0	1
5641	0	1
5642	0	1
5643	0	1
5644	0	1
5645	0	1
5646	0	1
5647	0	1
5648	0	1
5649	0	1
5650	0	1
5651	0	1
5652	0	1
5653	0	1
5654	0	1
5655	0	1
5656	0	1
5657	0	1
5658	0	1
5659	0	1
5660	0	1
5661	1	1
5662	0	1
5663	1	1
5664	1	1
5665	1	1
5666	1	1
5667	1	1
5668	1	1
5669	1	1
5670	1	1
5671	1	1
5672	1	1
5673	0	1
5674	0	1
5675	0	1
5676	0	1
5677	0	1
5678	0	1
5679	0	1
5680	0	1
5681	0	1
5682	0	1
5683	0	1
5684	0	1
5685	0	1
5686	0	1
5687	0	1
5688	0	1
5689	0	1
5690	0	1
5691	0	1
5692	0	1
5693	0	1
5694	0	1
5695	0	1
5696	0	1
5697	0	1
5698	0	1
5699	0	1
5700	0	1
5701	0	1
5702	0	1
5703	0	1
5704	0	1
5705	0	1
5706	0	1
5707	0	1
5708	0	1
5709	0	1
5710	0	1
5711	0	1
5712	0	1
5713	0	1
5714	1	1
5715	1	1
5716	1	1
5717	1	1
5718	1	1
5719	1	1
5720	1	1
5721	1	1
5722	0	1
5723	0	1
5724	0	1
5725	0	1
5726	0	1
5727	1	1
5728	1	1
5729	1	1
5730	1	1
5731	1	1
5732	1	1
5733	1	1
5734	0	0
5735	0	0
5736	1	0
5737	1	0
5738	1	0
5739	0	0
5740	0	0
5741	1	1
5742	1	1
5743	1	1
5744	1	1
5745	1	1
5746	0	0.333333
5747	0	0.333333
5748	0	0.333333
5749	0	0.333333
5750	0	0.333333
5751	0	0.333333
5752	0	0.333333
5753	0	0.333333
5754	0	0.333333
5755	0	0.333333
5756	0	0.333333
5757	0	0.333333
5758	0	0.333333
5759	0	0.333333
5760	0	0.333333
5761	0	0.333333
5762	0	0.333333
5763	0	0.333333
5764	0	0.333333
5765	0	0.333333
5766	0	0.333333
5767	0	0.333333
5768	0	0.333333
5769	0	0.333333
5770	0	0.333333
5771	0	0.333333
5772	0	0.333333
5773	0	0.333333
5774	0	0.417339
5775	0	0.417339
5776	0	0.417339
5777	0	0.365722
5778	0	0.196667
5779	0	0.166667
5780	0	0.25
5781	0	0.25
5782	0	0.190476
5783	0	0.0952381
5784	0	0.0952381
5785	0	0.0952381
5786	0	0.133333
5787	0	0.2
5788	0	0.2
5789	0	0.2
5790	0	0.2
5791	0	0.2
5792	0	0.2
5793	0	0.293134
5794	0	0.459033
5795	0	0.426474
5796	0	0.266667
5797	0	0.190476
5798	0	0.190476
5799	0	0.333333
5800	0	0.333333
5801	0	0.333333
5802	0	0.333333
5803	0	0.333333
5804	0	0.333333
5805	0	0.333333
5806	0	0.25
5807	0	0.25
5808	0	0.25
5809	0	0.25
5810	0	0.25
5811	0	0.25
5812	0	0.194444
5813	0	0.194444
5814	0	0.155556
5815	0	0.145455
5816	0	0.190476
5817	0	0.141538
5818	0	0.100985
5819	0	0.0666667
5820	0	0.0575758
5821	0	0.057971
5822	0	0.0541063
5823	0	0.0469858
5824	0	0.0416327
5825	0	0.0320629
5826	0	0.035431
5827	0	0.0324726
5828	0	0.0290499
5829	0	0.0294039
5830	0	0.0336996
5831	0	0.0288239
5832	0	0.166967
5833	0	0.141632
5834	0	0.140012
5835	0	0.114553
5836	0	0.061956
5837	0	0.0593958
5838	0	0.047619
5839	0	0.0456349
5840	0	0.0441468
5841	0	0.0426587
5842	0	0.0411449
5843	0	0.038202
5844	0	0.0527865
5845	0	0.0296656
5846	0	0.0304135
5847	0	0.0282851
5848	0	0.0286444
5849	0	0.0269104
5850	0	0.0258826
5851	0	0.0374635
5852	0	0.0349862
5853	0	0.0305159
5854	0	0.0337358
5855	0	0.03168
5856	0	0.030471
5857	0	0.0286107
5858	0	0.0315666
5859	0	0.0388612
5860	0	0.058373
5861	0	0.0655111
5862	0	0.0752487
5863	0	0.081244
5864	0	0.0849088
5865	0	0.0887839
5866	0	0.0899952
5867	0	0.0878445
5868	0	0.0898065
5869	0	0.0912667
5870	0	0.0864149
5871	0	0.0904959
5872	0	0.0591062
5873	0	0.0434276
5874	0	0.0900237
5875	0	0.109994
5876	0	0.117947
5877	0	0.124125
5878	0	0.119763
5879	0	0.134595
5880	0	0.052729
5881	0	0.0697674
5882	0	0.0731707
5883	0	0.0782051
5884	0	0.0434783
5885	0	0.0261438
5886	0	0.00833333
5887	0	0.0190476
5888	0	0.00952381
5889	0	0
5890	0	0.0181818
5891	0	0.0181818
5892	0	0.0222222
5893	0	0.047619
5894	0	0.047619
5895	0	0.0666667
5896	0	0
5897	0	0
5898	0	0
5899	0	0.206496
5900	0	0.0764224
5901	0	0.0502825
5902	0	0.0480519
5903	0	0.0775194
5904	0	0.0884615
5905	0	0.102683
5906	0	0.12605
5907	0	0.15121
5908	0	0.144828
5909	0	0.130542
5910	0	0.130542
5911	0	0.142857
5912	0	0.151724
5913	0	0.174877
5914	0	0.173964
5915	0	0.107962
5916	0	0.148105
5917	0	0.153688
5918	0	0.147734
5919	0	0.157214
5920	0	0.181785
5921	0	0.104575
5922	0	0.104575
5923	0	0.125
5924	0	0.104762
5925	0	0.104762
5926	0	0.104762
5927	0	0.121212
5928	0	0.121212
5929	0	0.121212
5930	0	0.121212
5931	0	0.121212
5932	0	0.145455
5933	0	0.218001
5934	0	0.216766
5935	0	0.21875
5936	0	0.217262
5937	0	0.217262
5938	0	0.231095
5939	0	0.0822511
5940	0	0.253599
5941	0	0.253599
5942	0	0.262485
5943	0	0.26597
5944	0	0.111111
5945	0	0.111111
5946	0	0.125
5947	0	0.141667
5948	0	0.141667
5949	0	0.141667
5950	0	0.141667
5951	0	0.142857
5952	0	0.142857
5953	0	0.153846
5954	0	0.153846
5955	0	0.19697
5956	0	0.194444
5957	0	0.194444
5958	0	0.151515
5959	0	0.151515
5960	0	0.25
5961	0	0.25
5962	0	0.25
5963	0	0.25
5964	0	0.25
5965	0	0.25
5966	0	0.25
5967	0	0.25
5968	0	0.25
5969	0	0.25
5970	0	0.25
5971	0	0.333333
5972	0	0.333333
5973	0	0.333333
5974	0	0.333333
5975	0	0.333333
5976	0	0.333333
5977	0	0.333333
5978	0	0.333333
5979	0	0.333333
5980	0	0.333333
5981	0	0.333333
5982	0	0.333333
5983	0	0.333333
5984	0	0.333333
5985	0	0.333333
5986	0	0.333333
5987	0	0.333333
5988	0	0.333333
5989	0	0.333333
5990	0	0.333333
5991	0	0.333333
5992	0	0.333333
5993	0	0.333333
5994	0	0.333333
5995	0	0.333333
5996	0	0.333333
5997	0	0.333333
5998	0	0
5999	0	0
6000	0	0
6001	0	0
6002	0	0
6003	0	0
6004	0	0.333333
6005	0	0.333333
6006	0	0.333333
6007	0	0.333333
6008	0	0.333333
6009	0	0.333333
6010	0	0.333333
6011	0	0.333333
6012	0	0.333333
6013	0	0.333333
6014	0	0.333333
6015	0	0.333333
6016	0	0.333333
6017	0	0.333333
6018	0	0.333333
6019	0	0.333333
6020	0	0.333333
6021	0	0.333333
6022	0	0.333333
6023	0	0.333333
6024	0	0.333333
6025	0	0.333333
6026	0	0.333333
6027	0	0.333333
6028	0	0.333333
6029	0	0.333333
6030	0	0.333333
6031	0	0.333333
6032	0	0.333333
6033	0	0.333333
6034	0	0.333333
6035	0	0.333333
6036	0	0.333333
6037	0	0.333333
6038	0	0.333333
6039	0	0.333333
6040	0	0.333333
6041	0	0.333333
6042	0	0.333333
6043	0	0.333333
6044	0	0.333333
6045	0	0.333333
6046	0	0.333333
6047	0	0.333333
6048	0	0.333333
6049	0	0.333333
6050	0	0.333333
6051	0	0.333333
6052	0	0.333333
6053	0	0.333333
6054	0	0.333333
6055	0	0.333333
6056	0	0.333333
6057	0	0.333333
6058	0	0.333333
6059	0	0.333333
6060	0	0.333333
6061	0	0.333333
6062	0	0.333333
6063	0	0.333333
6064	0	0.333333
6065	0	0.333333
6066	0	0.333333
6067	0	0.333333
6068	0	0
6069	0	0
6070	0	0
6071	0	0
6072	0	0.333333
6073	0	0.333333
6074	0	0.333333
6075	0	0.333333
6076	0	0.333333
6077	0	0.333333
6078	0	0.333333
6079	0	0.333333
6080	0	0.333333
6081	0	0.333333
6082	0	0.333333
6083	0	0.333333
6084	0	0.333333
6085	0	0.333333
6086	0	0.333333
6087	0	0.333333
6088	0	0.333333
6089	0	0.333333
6090	0	0.333333
6091	0	0.333333
6092	0	0.333333
6093	0	0.333333
6094	0	0.333333
6095	0	0.333333
6096	0	0.333333
6097	0	0.333333
6098	0	0.333333
6099	0	0.333333
6100	0	0.333333
6101	0	0.333333
6102	0	0.333333
6103	0	0.333333
6104	0	0.333333
6105	0	0.333333
6106	0	0.333333
6107	0	0.333333
6108	0	0.333333
6109	0	0.333333
6110	1	1
6111	1	1
6112	1	1
6113	1	1
6114	1	1
6115	1	1
6116	1	1
6117	1	1
6118	1	1
6119	1	1
6120	1	1
6121	0	1
6122	0	1
6123	0	1
6124	0	1
6125	0	1
6126	0	1
6127	0	1
6128	0	1
6129	0	1
6130	0	1
6131	0	1
6132	0	1
6133	0	1
6134	0	1
6135	0	1
6136	0	1
6137	0	1
6138	0	1
6139	1	1
6140	1	1
6141	1	1
6142	0	1
6143	0	1
6144	0	1
6145	0	1
6146	0	1
6147	0	1
6148	0	1
6149	0	1
6150	0	1
6151	0	1
6152	0	1
6153	0	1
6154	0	1
6155	0	0
6156	0	0
6157	1	0
6158	1	0
6159	1	0
6160	1	0
6161	1	0
6162	0	0
6163	0	0
6164	0	0
6165	0	0
6166	0	0
6167	0	0
6168	0	0
6169	0	0
6170	0	0
6171	0	0
6172	0	0
6173	0	0
6174	0	0
6175	0	0
6176	0	0
6177	0	0
6178	0	0
6179	0	0
6180	0	0
6181	0	0
6182	0	0
6183	0	0
6184	0	0
6185	0	0
6186	0	0
6187	0	0
6188	0	0
6189	1	0
6190	1	0
6191	1	0
6192	1	0
6193	1	0
6194	1	0
6195	1	0
6196	1	0
6197	1	0
6198	1	0
6199	1	0
6200	0	0
6201	0	0
6202	0	0
6203	0	0
6204	0	0
6205	0	0
6206	0	0
6207	0	0
6208	0	0
6209	0	0
6210	0	0
6211	0	0
6212	0	0
6213	0	0
6214	0	0
6215	0	0
6216	0	0
6217	0	0
6218	0	0
6219	0	0
6220	0	0
6221	0	0
6222	0	0
6223	0	0
6224	0	0
6225	0	0
6226	0	0
6227	0	0
6228	0	0
6229	0	0
6230	0	0
6231	0	0
6232	0	0
6233	0	0
6234	0	0
6235	0	0
6236	0	0
6237	0	0
6238	0	0
6239	0	0
6240	0	0
6241	0	0
6242	0	0
6243	0	0
6244	0	0
6245	0	0
6246	0	0
6247	0	0
6248	0	0
6249	0	0
6250	0	0
6251	0	0
6252	0	0
6253	0	0
6254	0	0
6255	0	0
6256	0	0
6257	0	0
6258	0	0
6259	0	0
6260	0	0
6261	0	0
6262	0	0
6263	0	0
6264	0	0
6265	0	0
6266	0	0
6267	1	0
6268	1	0
6269	1	0
6270	0	0
6271	0	0
6272	0	0
6273	0	0
6274	0	0
6275	0	0
6276	0	0
6277	0	0
6278	0	0
6279	0	0
6280	0	0
6281	0	0
6282	0	0
6283	1	0
6284	1	0
6285	1	0
6286	1	0
6287	1	0
6288	1	0
6289	1	0
6290	1	0
6291	1	0
6292	1	0
6293	1	0
6294	1	0
6295	1	0
6296	0	0
6297	0	0
6298	0	0
6299	0	0
6300	0	0
6301	0	0
6302	0	0
6303	0	0
6304	0	0
6305	0	0
6306	0	0
6307	0	0
6308	0	0
6309	0	0
6310	0	0
6311	0	0
6312	0	0
6313	0	0
6314	0	0
6315	0	0
6316	0	0
6317	0	0
6318	0	0
6319	0	0
6320	0	0
6321	1	0
6322	0	0
6323	0	0
6324	0	0
6325	0	0
6326	0	0
6327	0	0
6328	0	0
6329	0	0
6330	0	0
6331	0	0
6332	0	0
6333	0	0
6334	0	0
6335	0	0
6336	0	0
6337	0	0
6338	0	0
6339	0	0
6340	0	0
6341	0	0
6342	0	0
6343	1	0
6344	1	0
6345	1	0
6346	1	0
6347	1	0
6348	1	0
6349	0	0
6350	0	0
6351	0	0
6352	0	0
6353	0	0
6354	0	0
6355	0	0
6356	0	0
6357	0	0
6358	0	0
6359	0	0
6360	0	0
6361	0	0
6362	0	0
6363	0	0
6364	0	0
6365	0	0
6366	0	0
6367	0	0
6368	0	0
6369	0	0
6370	0	0
6371	0	0
6372	0	0
6373	0	0
6374	1	0
6375	1	0
6376	1	0
6377	1	0
6378	1	0
6379	1	0
6380	1	0
6381	1	0
6382	1	0
6383	1	0
6384	1	0
6385	1	0
6386	1	0
6387	1	0
6388	1	0
6389	0	0
6390	0	0
6391	0	0
6392	0	0
6393	0	0
6394	0	0
6395	0	0
6396	0	0
6397	1	0
6398	1	0
6399	1	0
6400	1	0
6401	1	0
6402	1	0
6403	1	0
6404	1	0
6405	1	0
6406	1	0
6407	1	0
6408	1	0
6409	1	0
6410	1	0
6411	1	0
6412	1	0
6413	1	0
6414	1	0
6415	1	0
6416	1	0
6417	1	0
6418	1	0
6419	1	0
6420	1	0
6421	1	0
6422	1	0
6423	1	0
6424	1	0
6425	1	0
6426	1	0
6427	1	0
6428	1	0
6429	1	0
6430	1	0
6431	1	0
6432	1	0
6433	1	0
6434	1	0
6435	1	0
6436	1	0
6437	1	0
6438	1	0
6439	1	0
6440	1	0
6441	1	0
6442	1	0
6443	1	0
6444	1	0
6445	1	0
6446	1	0
6447	1	0
6448	1	0
6449	1	0
6450	1	0
6451	1	0
6452	1	0
6453	1	0
6454	1	0
6455	1	0
6456	1	0
6457	1	0
6458	1	0
6459	1	0
6460	1	0
6461	1	0
6462	1	0
6463	1	0
6464	1	0
6465	1	0
6466	1	0
6467	1	0
6468	1	0
6469	1	0
6470	1	0
6471	1	0
6472	1	0
6473	1	0
6474	1	0
6475	1	0
6476	1	0
6477	1	0
6478	1	0
6479	1	0
6480	1	0
6481	1	0
6482	1	0
6483	1	0
6484	1	0
6485	1	0
6486	1	0
6487	1	0
6488	1	0
6489	1	0
6490	1	0
6491	1	0
6492	1	0
6493	1	0
6494	1	0
6495	1	0
6496	1	0
6497	1	0
6498	1	0
6499	1	0
6500	1	0
6501	1	0
6502	1	0
6503	1	0
6504	1	0
6505	1	0
6506	1	0
6507	1	0
6508	1	0
6509	1	0
6510	1	0
6511	1	0
6512	1	0
6513	1	0
6514	1	0
6515	1	0
6516	1	0
6517	1	0
6518	1	0
6519	1	0
6520	1	0
6521	1	0
6522	1	0
6523	1	0
6524	1	0
6525	1	0
6526	1	0
6527	1	0
6528	1	0
6529	1	0
6530	1	0
6531	1	0
6532	1	0
6533	1	0
6534	1	0
6535	1	0
6536	1	0
6537	1	0
6538	1	0
6539	1	0
6540	1	0
6541	1	0
6542	1	0
6543	1	0
6544	1	0
6545	1	0
6546	1	0
6547	1	0
6548	1	0
6549	1	0
6550	1	0
6551	1	0
6552	1	0
6553	1	0
6554	1	0
6555	1	0
6556	1	0
6557	1	0
6558	1	0
6559	1	0
6560	1	0
6561	1	0
6562	1	0
6563	1	0
6564	1	0
6565	1	0
6566	1	0
6567	1	0
6568	1	0
6569	1	0
6570	1	0
6571	1	0
6572	1	0
6573	1	0
6574	1	0
6575	1	0
6576	1	0
6577	1	0
6578	1	0
6579	1	0
6580	1	0
6581	1	0
6582	1	0
6583	1	0
6584	1	0
6585	1	0
6586	1	0
6587	1	0
6588	1	0
6589	1	0
6590	1	0
6591	1	0
6592	1	0
6593	1	0
6594	1	0
6595	1	0
6596	1	0
6597	1	0
6598	1	0
6599	1	0
6600	1	0
6601	1	0
6602	1	0
6603	1	0
6604	1	0
6605	1	0
6606	1	0
6607	1	0
6608	1	0
6609	1	0
6610	1	0
6611	1	0
6612	1	0
6613	1	0
6614	1	0
6615	1	0
6616	1	0
6617	1	0
6618	1	0
6619	1	0
6620	1	0
6621	1	0
6622	1	0
6623	1	0
6624	1	0
6625	1	0
6626	1	0
6627	1	0
6628	1	0
6629	1	0
6630	1	0
6631	1	0
6632	1	0
6633	1	0
6634	1	0
6635	1	0
6636	1	0
6637	1	0
6638	1	0
6639	1	0
6640	1	0
6641	1	0
6642	1	0
6643	1	0
6644	1	0
6645	1	0
6646	1	0
6647	1	0
6648	1	0
6649	1	0
6650	1	0
6651	1	0
6652	1	0
6653	1	0
6654	1	0
6655	1	0
6656	1	0
6657	1	0
6658	1	0
6659	1	0
6660	1	0
6661	1	0
6662	1	0
6663	1	0
6664	1	0
6665	1	0
6666	1	0
6667	1	0
6668	1	0
6669	1	0
6670	1	0
6671	1	0
6672	1	0
6673	1	0
6674	1	0
6675	1	0
6676	1	0
6677	1	0
6678	1	0
6679	1	0
6680	1	0
6681	1	0
6682	1	0
6683	1	0
6684	1	0
6685	1	0
6686	1	0
6687	1	0
6688	1	0
6689	1	0
6690	1	0
6691	1	0
6692	1	0
6693	1	0
6694	1	0
6695	1	0
6696	1	0
6697	1	0
6698	1	0
6699	1	0
6700	1	0
6701	1	0
6702	1	0
6703	1	0
6704	1	0
6705	1	0
6706	1	0
6707	1	0
6708	1	0
6709	1	0
6710	1	0
6711	1	0
6712	1	0
6713	1	0
6714	1	0
6715	1	0
6716	1	0
6717	1	0
6718	1	0
6719	1	0
6720	1	0
6721	1	0
6722	1	0
6723	1	0
6724	1	0
6725	1	0
6726	1	0
6727	1	0
6728	1	0
6729	1	0
6730	1	0
6731	1	0
6732	1	0
6733	1	0
6734	1	0
6735	1	0
6736	1	0
6737	1	0
6738	1	0
6739	1	0
6740	1	0
6741	1	0
6742	1	0
6743	1	0
6744	1	0
6745	1	0
6746	1	0
6747	1	0
6748	1	0
6749	1	0
6750	1	0
6751	1	0
6752	1	0
6753	1	0
6754	1	0
6755	1	0
6756	1	0
6757	1	0
6758	1	0
6759	1	0
6760	1	0
6761	1	0
6762	1	0
6763	1	0
6764	1	0
6765	1	0
6766	1	0
6767	1	0
6768	1	0
6769	1	0
6770	1	0
6771	1	0
6772	1	0
6773	1	0
6774	1	0
6775	1	0
6776	1	0
6777	1	0
6778	1	0
6779	1	0
6780	1	0
6781	1	0
6782	1	0
6783	1	0
6784	1	0
6785	1	0
6786	1	0
6787	1	0
6788	1	0
6789	1	0
6790	1	0
6791	1	0
6792	1	0
6793	1	0
6794	1	0
6795	1	0
6796	1	0
6797	1	0
6798	1	0
6799	1	0
6800	1	0
6801	1	0
6802	1	0
6803	1	0
6804	1	0
6805	1	0
6806	1	0
6807	1	0
6808	1	0
6809	1	0
6810	1	0
6811	1	0
6812	1	0
6813	1	0
6814	1	0
6815	1	0
6816	1	0
6817	1	0
6818	1	0
6819	1	0
6820	1	0
6821	1	0
6822	1	0
6823	1	0
6824	1	0
6825	1	0
6826	1	0
6827	1	0
6828	1	0
6829	1	0
6830	1	0
6831	1	0
6832	1	0
6833	1	0
6834	1	0
6835	1	0
6836	1	0
6837	1	0
6838	1	0
6839	1	0
6840	1	0
6841	1	0
6842	1	0
6843	1	0
6844	1	0
6845	1	0
6846	1	0
6847	1	0
6848	1	0
6849	1	0
6850	1	0
6851	1	0
6852	1	0
6853	1	0
6854	1	0
6855	1	0
6856	1	0
6857	1	0
6858	1	0
6859	1	0
6860	1	0
6861	1	0
6862	1	0
6863	1	0
6864	1	0
6865	1	0
6866	1	0
6867	1	0
6868	1	0
6869	1	0
6870	1	0
6871	1	0
6872	1	0
6873	1	0
6874	1	0
6875	1	0
6876	1	0
6877	1	0
6878	1	0
6879	1	0
6880	1	0
6881	1	0
6882	1	0
6883	1	0
6884	1	0
6885	1	0
6886	1	0
6887	1	0
6888	1	0
6889	1	0
6890	1	0
6891	1	0
6892	1	0
6893	1	0
6894	1	0
6895	1	0
6896	1	0
6897	1	0
6898	1	0
6899	1	0
6900	1	0
6901	1	0
6902	1	0
6903	1	0
6904	1	0
6905	1	0
6906	1	0
6907	1	0
6908	1	0
6909	1	0
6910	1	0
6911	1	0
6912	1	0
6913	1	0
6914	1	0
6915	1	0
6916	1	0
6917	1	0
6918	1	0
6919	1	0
6920	1	0
6921	1	0
6922	1	0
6923	1	0
6924	1	0
6925	1	0
6926	1	0
6927	1	0
6928	1	0
6929	1	0
6930	1	0
6931	1	0
6932	1	0
6933	1	0
6934	1	0
6935	1	0
6936	1	0
6937	1	0
6938	1	0
6939	1	0
6940	1	0
6941	1	0
6942	1	0
6943	1	0
6944	1	0
6945	1	0
6946	1	0
6947	1	0
6948	1	0
6949	1	0
6950	1	0
6951	1	0
6952	1	0
6953	1	0
6954	1	0
6955	1	0
6956	1	0
6957	1	0
6958	1	0
6959	1	0
6960	1	0
6961	1	0
6962	1	0
6963	1	0
6964	1	0
6965	1	0
6966	1	0
6967	1	0
6968	1	0
6969	1	0
6970	1	0
6971	1	0
6972	1	0
6973	1	0
6974	1	0
6975	1	0
6976	1	0
6977	1	0
6978	1	0
6979	1	0
6980	1	0
6981	1	0
6982	1	0
6983	1	0
6984	1	0
6985	1	0
6986	1	0
6987	1	0
6988	1	0
6989	1	0
6990	1	0
6991	1	0
6992	1	0
6993	1	0
6994	1	0
6995	1	0
6996	1	0
6997	1	0
6998	1	0
6999	1	0
7000	1	0
7001	1	0
7002	1	0
7003	1	0
7004	1	0
7005	1	0
7006	1	0
7007	1	0
7008	1	0
7009	1	0
7010	1	0
7011	1	0
7012	1	0
7013	1	0
7014	1	0
7015	1	0
7016	1	0
7017	1	0
7018	1	0
7019	1	0
7020	1	0
7021	1	0
7022	1	0
7023	1	0
7024	1	0
7025	1	0
7026	1	0
7027	1	0
7028	1	0
7029	1	0
7030	1	0
7031	1	0
7032	1	0
7033	1	0
7034	1	0
7035	1	0
7036	1	0
7037	1	0
7038	1	0
7039	1	0
7040	1	0
7041	1	0
7042	1	0
7043	1	0
7044	1	0
7045	1	0
7046	1	0
7047	1	0
7048	1	0
7049	1	0
7050	1	0
7051	1	0
7052	1	0
7053	1	0
7054	1	0
7055	1	0
7056	1	0
7057	1	0
7058	1	0
7059	1	0
7060	1	0
7061	1	0
7062	1	0
7063	1	0
7064	1	0
7065	1	0
7066	1	0
7067	1	0
7068	1	0
7069	1	0
7070	1	0
7071	1	0
7072	1	0
7073	1	0
7074	1	0
7075	1	0
7076	1	0
7077	1	0
7078	1	0
7079	1	0
7080	1	0
7081	1	0
7082	1	0
7083	1	0
7084	1	0
7085	1	0
7086	1	0
7087	1	0
7088	1	0
7089	1	0
7090	1	0
7091	1	0
7092	1	0
7093	1	0
7094	1	0
7095	1	0
7096	1	0
7097	1	0
7098	1	0
7099	1	0
7100	1	0
7101	1	0
7102	1	0
7103	1	0
7104	1	0
7105	1	0
7106	1	0
7107	1	0
7108	1	0
7109	1	0
7110	1	0
7111	1	0
7112	1	0
7113	1	0
7114	1	0
7115	1	0
7116	1	0
7117	1	0
7118	1	0
7119	1	0
7120	1	0
7121	1	0
7122	1	0
7123	1	0
7124	1	0
7125	1	0
7126	1	0
7127	1	0
7128	1	0
7129	1	0
7130	1	0
7131	1	0
7132	1	0
7133	1	0
7134	1	0
7135	1	0
7136	1	0
7137	1	0
7138	1	0
7139	1	0
7140	1	0
7141	1	0
7142	1	0
7143	1	0
7144	1	0
7145	1	0
7146	1	0
7147	1	0
7148	1	0
7149	1	0
7150	1	0
7151	1	0
7152	1	0
7153	1	0
7154	1	0
7155	1	0
7156	1	0
7157	1	0
7158	1	0
7159	1	0
7160	1	0
7161	1	0
7162	1	0
7163	1	0
7164	1	0
7165	1	0
7166	1	0
7167	1	0
7168	1	0
7169	1	0
7170	1	0
7171	1	0
7172	1	0
7173	1	0
7174	1	0
7175	1	0
7176	1	0
7177	1	0
7178	1	0
7179	1	0
7180	1	0
7181	1	0
7182	1	0
7183	1	0
7184	1	0
7185	1	0
7186	1	0
7187	1	0
7188	1	0
7189	1	0
7190	1	0
7191	1	0
7192	1	0
7193	1	0
7194	1	0
7195	1	0
7196	1	0
7197	1	0
7198	1	0
7199	1	0
7200	1	0
7201	1	0
7202	1	0
7203	1	0
7204	1	0
7205	1	0
7206	1	0
7207	1	0
7208	1	0
7209	1	0
7210	1	0
7211	1	0
7212	1	0
7213	1	0
7214	1	0
7215	1	0
7216	1	0
7217	1	0
7218	1	0
7219	1	0
7220	1	0
7221	1	0
7222	1	0
7223	1	0
7224	1	0
7225	1	0
7226	1	0
7227	1	0
7228	1	0
7229	1	0
7230	1	0
7231	1	0
7232	1	0
7233	1	0
7234	1	0
7235	1	0
7236	1	0
7237	1	0
7238	1	0
7239	1	0
7240	1	0
7241	1	0
7242	1	0
7243	1	0
7244	1	0
7245	1	0
7246	1	0
7247	1	0
7248	1	0
7249	1	0
7250	1	0
7251	1	0
7252	1	0
7253	1	0
7254	1	0
7255	1	0
7256	1	0
7257	1	0
7258	1	0
7259	1	0
7260	1	0
7261	1	0
7262	1	0
7263	1	0
7264	1	0
7265	1	0
7266	1	0
7267	1	0
7268	1	0
7269	1	0
7270	1	0
7271	1	0
7272	1	0
7273	1	0
7274	1	0
7275	1	0
7276	1	0
7277	1	0
7278	1	0
7279	1	0
7280	1	0
7281	1	0
7282	1	0
7283	1	0
7284	1	0
7285	1	0
7286	1	0
7287	1	0
7288	1	0
7289	1	0
7290	1	0
7291	1	0
7292	1	0
7293	1	0
7294	1	0
7295	1	0
7296	1	0
7297	1	0
7298	1	0
7299	1	0
7300	1	0
7301	1	0
7302	1	0
7303	1	0
7304	1	0
7305	1	0
7306	1	0
7307	1	0
7308	1	0
7309	1	0
7310	1	0
7311	1	0
7312	1	0
7313	1	0
7314	1	0
7315	1	0
7316	1	0
7317	1	0
7318	1	0
7319	1	0
7320	1	0
7321	1	0
7322	1	0
7323	1	0
7324	1	0
7325	1	0
7326	1	0
7327	1	0
7328	1	0
7329	1	0
7330	1	0
7331	1	0
7332	1	0
7333	1	0
7334	1	0
7335	1	0
7336	1	0
7337	1	0
7338	1	0
7339	1	0
7340	1	0
7341	1	0
7342	1	0
7343	1	0
7344	1	0
7345	1	0
7346	1	0
7347	1	0
7348	1	0
7349	1	0
7350	1	0
7351	1	0
7352	1	0
7353	1	0
7354	1	0
7355	1	0
7356	1	0
7357	1	0
7358	1	0
7359	1	0
7360	1	0
7361	1	0
7362	1	0
7363	1	0
7364	1	0
7365	1	0
7366	1	0
7367	1	0
7368	1	0
7369	1	0
7370	1	0
7371	1	0
7372	1	0
7373	1	0
7374	1	0
7375	1	0
7376	1	0
7377	1	0
7378	1	0
7379	1	0
7380	1	0
7381	1	0
7382	1	0
7383	1	0
7384	1	0
7385	1	0
7386	1	0
7387	1	0
7388	1	0
7389	1	0
7390	1	0
7391	1	0
7392	1	0
7393	1	0
7394	1	0
7395	1	0
7396	1	0
7397	1	0
7398	1	0
7399	1	0
7400	1	0
7401	1	0
7402	1	0
7403	1	0
7404	1	0
7405	1	0
7406	1	0
7407	1	0
7408	1	0
7409	1	0
7410	1	0
7411	1	0
7412	1	0
7413	1	0
7414	1	0
7415	1	0
7416	1	0
7417	1	0
7418	1	0
7419	1	0
7420	1	0
7421	1	0
7422	1	0
7423	1	0
7424	1	0
7425	1	0
7426	1	0
7427	1	0
7428	1	0
7429	1	0
7430	1	0
7431	1	0
7432	1	0
7433	1	0
7434	1	0
7435	1	0
7436	1	0
7437	1	0
7438	1	0
7439	1	0
7440	1	0
7441	1	0
7442	1	0
7443	1	0
7444	1	0
7445	1	0
7446	1	0
7447	1	0
7448	1	0
7449	1	0
7450	1	0
7451	1	0
7452	1	0
7453	1	0
7454	1	0
7455	1	0
7456	1	0
7457	1	0
7458	1	0
7459	1	0
7460	1	0
7461	1	0
7462	1	0
7463	1	0
7464	1	0
7465	1	0
7466	1	0
7467	1	0
7468	1	0
7469	1	0
7470	1	0
7471	1	0
7472	1	0
7473	1	0
7474	1	0
7475	1	0
7476	1	0
7477	1	0
7478	1	0
7479	1	0
7480	1	0
7481	1	0
