Site	ColumnScore	SumOfPairsScore
1	1	0
2	1	0
3	1	0
4	1	0
5	1	0
6	1	0
7	1	0
8	1	0
9	1	0
10	1	0
11	1	0
12	1	0
13	1	0
14	1	0
15	1	0
16	1	0
17	1	0
18	1	0
19	1	0
20	1	0
21	1	0
22	1	0
23	1	0
24	1	0
25	1	0
26	1	0
27	1	0
28	1	0
29	1	0
30	1	0
31	1	0
32	1	0
33	1	0
34	1	0
35	1	0
36	1	0
37	1	0
38	1	0
39	1	0
40	1	0
41	1	0
42	1	0
43	1	0
44	1	0
45	1	0
46	1	0
47	1	0
48	1	0
49	1	0
50	1	0
51	1	0
52	1	0
53	1	0
54	1	0
55	1	0
56	1	0
57	1	0
58	1	0
59	1	0
60	1	0
61	1	0
62	1	0
63	1	0
64	1	0
65	1	0
66	1	0
67	1	0
68	1	0
69	1	0
70	1	0
71	1	0
72	1	0
73	1	0
74	1	0
75	1	0
76	1	0
77	1	0
78	1	0
79	1	0
80	1	0
81	1	0
82	1	0
83	1	0
84	1	0
85	1	0
86	1	0
87	1	0
88	1	0
89	1	0
90	1	0
91	1	0
92	1	0
93	1	0
94	1	0
95	1	0
96	1	0
97	1	0
98	1	0
99	1	0
100	1	0
101	1	0
102	1	0
103	1	0
104	1	0
105	1	0
106	1	0
107	1	0
108	1	0
109	1	0
110	1	0
111	1	0
112	1	0
113	1	0
114	1	0
115	1	0
116	1	0
117	1	0
118	1	0
119	1	0
120	1	0
121	1	0
122	1	0
123	1	0
124	1	0
125	1	0
126	1	0
127	1	0
128	1	0
129	1	0
130	1	0
131	1	0
132	1	0
133	1	0
134	1	0
135	1	0
136	1	0
137	1	0
138	1	0
139	1	0
140	1	0
141	1	0
142	1	0
143	1	0
144	1	0
145	1	0
146	1	0
147	1	0
148	1	0
149	1	0
150	1	0
151	1	0
152	1	0
153	1	0
154	1	0
155	1	0
156	1	0
157	1	0
158	1	0
159	1	0
160	1	0
161	1	0
162	1	0
163	1	0
164	1	0
165	1	0
166	1	0
167	1	0
168	1	0
169	1	0
170	1	0
171	1	0
172	1	0
173	1	0
174	1	0
175	1	0
176	1	0
177	1	0
178	1	0
179	1	0
180	1	0
181	1	0
182	1	0
183	1	0
184	1	0
185	1	0
186	1	0
187	1	0
188	1	0
189	1	0
190	1	0
191	1	0
192	1	0
193	1	0
194	1	0
195	1	0
196	1	0
197	1	0
198	1	0
199	1	0
200	1	0
201	1	0
202	1	0
203	1	0
204	1	0
205	1	0
206	1	0
207	1	0
208	1	0
209	1	0
210	1	0
211	1	0
212	1	0
213	1	0
214	1	0
215	1	0
216	1	0
217	1	0
218	1	0
219	1	0
220	1	0
221	1	0
222	1	0
223	1	0
224	1	0
225	1	0
226	1	0
227	1	0
228	1	0
229	1	0
230	1	0
231	1	0
232	1	0
233	1	0
234	1	0
235	1	0
236	1	0
237	1	0
238	1	0
239	1	0
240	1	0
241	1	0
242	1	0
243	1	0
244	1	0
245	1	0
246	1	0
247	1	0
248	1	0
249	1	0
250	1	0
251	1	0
252	1	0
253	1	0
254	1	0
255	1	0
256	1	0
257	1	0
258	1	0
259	1	0
260	1	0
261	1	0
262	1	0
263	1	0
264	1	0
265	1	0
266	1	0
267	1	0
268	1	0
269	1	0
270	1	0
271	1	0
272	1	0
273	1	0
274	1	0
275	1	0
276	1	0
277	1	0
278	1	0
279	1	0
280	1	0
281	1	0
282	1	0
283	1	0
284	1	0
285	1	0
286	1	0
287	1	0
288	1	0
289	1	0
290	1	0
291	1	0
292	1	0
293	1	0
294	1	0
295	1	0
296	1	0
297	1	0
298	1	0
299	1	0
300	1	0
301	1	0
302	1	0
303	1	0
304	1	0
305	1	0
306	1	0
307	1	0
308	1	0
309	1	0
310	1	0
311	1	0
312	1	0
313	1	0
314	1	0
315	1	0
316	1	0
317	1	0
318	1	0
319	1	0
320	1	0
321	1	0
322	1	0
323	1	0
324	1	0
325	1	0
326	1	0
327	1	0
328	1	0
329	1	0
330	1	0
331	1	0
332	1	0
333	1	0
334	1	0
335	1	0
336	1	0
337	1	0
338	1	0
339	1	0
340	1	0
341	1	0
342	1	0
343	1	0
344	1	0
345	1	0
346	1	0
347	1	0
348	1	0
349	1	0
350	1	0
351	1	0
352	1	0
353	1	0
354	1	0
355	1	0
356	1	0
357	1	0
358	1	0
359	1	0
360	1	0
361	1	0
362	1	0
363	1	0
364	1	0
365	1	0
366	1	0
367	1	0
368	1	0
369	1	0
370	1	0
371	1	0
372	1	0
373	1	0
374	1	0
375	1	0
376	1	0
377	1	0
378	1	0
379	1	0
380	1	0
381	1	0
382	1	0
383	1	0
384	1	0
385	1	0
386	1	0
387	1	0
388	1	0
389	1	0
390	1	0
391	1	0
392	1	0
393	1	0
394	1	0
395	1	0
396	1	0
397	1	0
398	1	0
399	1	0
400	1	0
401	1	0
402	1	0
403	1	0
404	1	0
405	1	0
406	1	0
407	1	0
408	1	0
409	1	0
410	1	0
411	1	0
412	1	0
413	1	0
414	1	0
415	1	0
416	1	0
417	1	0
418	1	0
419	1	0
420	1	0
421	1	0
422	1	0
423	1	0
424	1	0
425	1	0
426	1	0
427	1	0
428	1	0
429	1	0
430	1	0
431	1	0
432	1	0
433	1	0
434	1	0
435	1	0
436	1	0
437	1	0
438	1	0
439	1	0
440	1	0
441	1	0
442	1	0
443	1	0
444	1	0
445	1	0
446	1	0
447	1	0
448	1	0
449	1	0
450	1	0
451	1	0
452	1	0
453	1	0
454	1	0
455	1	0
456	1	0
457	1	0
458	1	0
459	1	0
460	1	0
461	1	0
462	1	0
463	1	0
464	1	0
465	1	0
466	1	0
467	1	0
468	1	0
469	1	0
470	1	0
471	1	0
472	1	0
473	1	0
474	1	0
475	1	0
476	1	0
477	1	0
478	1	0
479	1	0
480	1	0
481	1	0
482	1	0
483	1	0
484	1	0
485	1	0
486	1	0
487	1	0
488	1	0
489	1	0
490	1	0
491	1	0
492	1	0
493	1	0
494	1	0
495	1	0
496	1	0
497	1	0
498	1	0
499	1	0
500	1	0
501	1	0
502	1	0
503	1	0
504	1	0
505	1	0
506	1	0
507	1	0
508	1	0
509	1	0
510	1	0
511	1	0
512	1	0
513	1	0
514	1	0
515	1	0
516	1	0
517	1	0
518	1	0
519	1	0
520	1	0
521	1	0
522	1	0
523	1	0
524	1	0
525	1	0
526	1	0
527	1	0
528	1	0
529	1	0
530	1	0
531	1	0
532	1	0
533	1	0
534	1	0
535	1	0
536	1	0
537	1	0
538	1	0
539	1	0
540	1	0
541	1	0
542	1	0
543	1	0
544	1	0
545	1	0
546	1	0
547	1	0
548	1	0
549	1	0
550	1	0
551	1	0
552	1	0
553	1	0
554	1	0
555	1	0
556	1	0
557	1	0
558	1	0
559	1	0
560	1	0
561	1	0
562	1	0
563	1	0
564	1	0
565	1	0
566	1	0
567	1	0
568	1	0
569	1	0
570	1	0
571	1	0
572	1	0
573	1	0
574	1	0
575	1	0
576	1	0
577	1	0
578	1	0
579	1	0
580	1	0
581	1	0
582	1	0
583	1	0
584	1	0
585	1	0
586	1	0
587	1	0
588	1	0
589	1	0
590	1	0
591	1	0
592	1	0
593	1	0
594	1	0
595	1	0
596	1	0
597	1	0
598	1	0
599	1	0
600	1	0
601	1	0
602	1	0
603	1	0
604	1	0
605	1	0
606	1	0
607	1	0
608	1	0
609	1	0
610	1	0
611	1	0
612	1	0
613	1	0
614	1	0
615	1	0
616	1	0
617	1	0
618	1	0
619	1	0
620	1	0
621	1	0
622	1	0
623	1	0
624	1	0
625	1	0
626	1	0
627	1	0
628	1	0
629	1	0
630	1	0
631	1	0
632	1	0
633	1	0
634	1	0
635	1	0
636	1	0
637	1	0
638	1	0
639	1	0
640	1	0
641	1	0
642	1	0
643	1	0
644	1	0
645	1	0
646	1	0
647	1	0
648	1	0
649	1	0
650	1	0
651	1	0
652	1	0
653	1	0
654	1	0
655	1	0
656	1	0
657	1	0
658	1	0
659	1	0
660	1	0
661	1	0
662	1	0
663	1	0
664	1	0
665	1	0
666	1	0
667	1	0
668	1	0
669	1	0
670	1	0
671	1	0
672	1	0
673	1	0
674	1	0
675	1	0
676	1	0
677	1	0
678	1	0
679	1	0
680	1	0
681	1	0
682	1	0
683	1	0
684	1	0
685	1	0
686	1	0
687	1	0
688	1	0
689	1	0
690	1	0
691	1	0
692	1	0
693	1	0
694	1	0
695	1	0
696	1	0
697	1	0
698	1	0
699	1	0
700	1	0
701	1	0
702	1	0
703	1	0
704	1	0
705	1	0
706	1	0
707	1	0
708	1	0
709	1	0
710	1	0
711	1	0
712	1	0
713	1	0
714	1	0
715	1	0
716	1	0
717	1	0
718	1	0
719	1	0
720	1	0
721	1	0
722	1	0
723	1	0
724	1	0
725	1	0
726	1	0
727	1	0
728	1	0
729	1	0
730	1	0
731	1	0
732	1	0
733	1	0
734	1	0
735	1	0
736	1	0
737	1	0
738	1	0
739	1	0
740	1	0
741	1	0
742	1	0
743	1	0
744	1	0
745	1	0
746	1	0
747	1	0
748	1	0
749	1	0
750	1	0
751	1	0
752	1	0
753	1	0
754	1	0
755	1	0
756	1	0
757	1	0
758	1	0
759	1	0
760	1	0
761	1	0
762	1	0
763	1	0
764	1	0
765	1	0
766	1	0
767	1	0
768	1	0
769	1	0
770	1	0
771	1	0
772	1	0
773	1	0
774	1	0
775	1	0
776	1	0
777	1	0
778	1	0
779	1	0
780	1	0
781	1	0
782	1	0
783	1	0
784	1	0
785	1	0
786	1	0
787	1	0
788	1	0
789	1	0
790	1	0
791	1	0
792	1	0
793	1	0
794	1	0
795	1	0
796	1	0
797	1	0
798	1	0
799	1	0
800	1	0
801	1	0
802	1	0
803	1	0
804	1	0
805	1	0
806	1	0
807	1	0
808	1	0
809	1	0
810	1	0
811	1	0
812	1	0
813	1	0
814	1	0
815	1	0
816	1	0
817	1	0
818	1	0
819	1	0
820	1	0
821	1	0
822	1	0
823	1	0
824	1	0
825	1	0
826	1	0
827	1	0
828	1	0
829	1	0
830	1	0
831	1	0
832	1	0
833	1	0
834	1	0
835	1	0
836	1	0
837	1	0
838	1	0
839	1	0
840	1	0
841	1	0
842	1	0
843	1	0
844	1	0
845	1	0
846	1	0
847	1	0
848	1	0
849	1	0
850	1	0
851	1	0
852	1	0
853	1	0
854	1	0
855	1	0
856	1	0
857	1	0
858	1	0
859	1	0
860	1	0
861	1	0
862	1	0
863	1	0
864	1	0
865	1	0
866	1	0
867	1	0
868	1	0
869	1	0
870	1	0
871	1	0
872	1	0
873	1	0
874	1	0
875	1	0
876	1	0
877	1	0
878	1	0
879	1	0
880	1	0
881	1	0
882	1	0
883	1	0
884	1	0
885	1	0
886	1	0
887	1	0
888	1	0
889	1	0
890	1	0
891	1	0
892	1	0
893	1	0
894	1	0
895	1	0
896	1	0
897	1	0
898	1	0
899	1	0
900	1	0
901	1	0
902	1	0
903	1	0
904	1	0
905	1	0
906	1	0
907	1	0
908	1	0
909	1	0
910	1	0
911	1	0
912	1	0
913	1	0
914	1	0
915	1	0
916	1	0
917	1	0
918	1	0
919	1	0
920	1	0
921	1	0
922	1	0
923	1	0
924	1	0
925	1	0
926	1	0
927	1	0
928	1	0
929	1	0
930	1	0
931	1	0
932	1	0
933	1	0
934	1	0
935	1	0
936	1	0
937	1	0
938	1	0
939	1	0
940	1	0
941	1	0
942	1	0
943	1	0
944	1	0
945	1	0
946	1	0
947	1	0
948	1	0
949	1	0
950	1	0
951	1	0
952	1	0
953	1	0
954	1	0
955	1	0
956	1	0
957	1	0
958	1	0
959	1	0
960	1	0
961	1	0
962	1	0
963	1	0
964	1	0
965	1	0
966	1	0
967	1	0
968	1	0
969	1	0
970	1	0
971	1	0
972	1	0
973	1	0
974	1	0
975	1	0
976	1	0
977	1	0
978	1	0
979	1	0
980	1	0
981	1	0
982	1	0
983	1	0
984	1	0
985	1	0
986	1	0
987	1	0
988	1	0
989	1	0
990	1	0
991	1	0
992	1	0
993	1	0
994	1	0
995	1	0
996	1	0
997	1	0
998	1	0
999	1	0
1000	1	0
1001	1	0
1002	1	0
1003	1	0
1004	1	0
1005	1	0
1006	1	0
1007	1	0
1008	1	0
1009	1	0
1010	1	0
1011	1	0
1012	1	0
1013	1	0
1014	1	0
1015	1	0
1016	1	0
1017	1	0
1018	1	0
1019	1	0
1020	1	0
1021	1	0
1022	1	0
1023	1	0
1024	1	0
1025	1	0
1026	1	0
1027	1	0
1028	1	0
1029	1	0
1030	1	0
1031	1	0
1032	1	0
1033	1	0
1034	1	0
1035	1	0
1036	1	0
1037	1	0
1038	1	0
1039	1	0
1040	1	0
1041	1	0
1042	1	0
1043	1	0
1044	1	0
1045	1	0
1046	1	0
1047	1	0
1048	1	0
1049	1	0
1050	1	0
1051	1	0
1052	1	0
1053	1	0
1054	1	0
1055	1	0
1056	1	0
1057	1	0
1058	1	0
1059	1	0
1060	1	0
1061	1	0
1062	1	0
1063	1	0
1064	1	0
1065	1	0
1066	1	0
1067	1	0
1068	1	0
1069	1	0
1070	1	0
1071	1	0
1072	1	0
1073	1	0
1074	1	0
1075	1	0
1076	1	0
1077	1	0
1078	1	0
1079	1	0
1080	1	0
1081	1	0
1082	1	0
1083	1	0
1084	1	0
1085	1	0
1086	1	0
1087	1	0
1088	1	0
1089	1	0
1090	1	0
1091	1	0
1092	1	0
1093	1	0
1094	1	0
1095	1	0
1096	1	0
1097	1	0
1098	1	0
1099	1	0
1100	1	0
1101	1	0
1102	1	0
1103	1	0
1104	1	0
1105	1	0
1106	1	0
1107	1	0
1108	1	0
1109	1	0
1110	1	0
1111	1	0
1112	1	0
1113	1	0
1114	1	0
1115	1	0
1116	1	0
1117	1	0
1118	1	0
1119	1	0
1120	1	0
1121	1	0
1122	1	0
1123	1	0
1124	1	0
1125	1	0
1126	1	0
1127	1	0
1128	1	0
1129	1	0
1130	1	0
1131	1	0
1132	1	0
1133	1	0
1134	1	0
1135	1	0
1136	1	0
1137	1	0
1138	1	0
1139	1	0
1140	1	0
1141	1	0
1142	1	0
1143	1	0
1144	1	0
1145	1	0
1146	1	0
1147	1	0
1148	1	0
1149	1	0
1150	1	0
1151	1	0
1152	1	0
1153	1	0
1154	1	0
1155	1	0
1156	1	0
1157	1	0
1158	1	0
1159	1	0
1160	1	0
1161	1	0
1162	1	0
1163	1	0
1164	1	0
1165	1	0
1166	1	0
1167	1	0
1168	1	0
1169	1	0
1170	1	0
1171	1	0
1172	1	0
1173	1	0
1174	1	0
1175	1	0
1176	1	0
1177	1	0
1178	1	0
1179	1	0
1180	1	0
1181	1	0
1182	1	0
1183	1	0
1184	1	0
1185	1	0
1186	1	0
1187	1	0
1188	1	0
1189	1	0
1190	1	0
1191	1	0
1192	1	0
1193	1	0
1194	1	0
1195	1	0
1196	1	0
1197	1	0
1198	1	0
1199	1	0
1200	1	0
1201	1	0
1202	1	0
1203	1	0
1204	1	0
1205	1	0
1206	1	0
1207	1	0
1208	1	0
1209	1	0
1210	1	0
1211	1	0
1212	1	0
1213	1	0
1214	1	0
1215	1	0
1216	1	0
1217	1	0
1218	1	0
1219	1	0
1220	1	0
1221	1	0
1222	1	0
1223	1	0
1224	1	0
1225	1	0
1226	1	0
1227	1	0
1228	1	0
1229	1	0
1230	1	0
1231	1	0
1232	1	0
1233	1	0
1234	1	0
1235	1	0
1236	1	0
1237	1	0
1238	1	0
1239	1	0
1240	1	0
1241	1	0
1242	1	0
1243	1	0
1244	1	0
1245	1	0
1246	1	0
1247	1	0
1248	1	0
1249	1	0
1250	1	0
1251	1	0
1252	1	0
1253	1	0
1254	1	0
1255	1	0
1256	1	0
1257	1	0
1258	1	0
1259	1	0
1260	1	0
1261	1	0
1262	1	0
1263	1	0
1264	1	0
1265	1	0
1266	1	0
1267	1	0
1268	1	0
1269	1	0
1270	1	0
1271	1	0
1272	1	0
1273	1	0
1274	1	0
1275	1	0
1276	1	0
1277	1	0
1278	1	0
1279	1	0
1280	1	0
1281	1	0
1282	1	0
1283	1	0
1284	1	0
1285	1	0
1286	1	0
1287	1	0
1288	1	0
1289	1	0
1290	1	0
1291	1	0
1292	1	0
1293	1	0
1294	1	0
1295	1	0
1296	1	0
1297	1	0
1298	1	0
1299	1	0
1300	1	0
1301	1	0
1302	1	0
1303	1	0
1304	1	0
1305	1	0
1306	1	0
1307	1	0
1308	1	0
1309	1	0
1310	1	0
1311	1	0
1312	1	0
1313	1	0
1314	1	0
1315	1	0
1316	1	0
1317	1	0
1318	1	0
1319	1	0
1320	1	0
1321	1	0
1322	1	0
1323	1	0
1324	1	0
1325	1	0
1326	1	0
1327	1	0
1328	1	0
1329	1	0
1330	1	0
1331	1	0
1332	1	0
1333	1	0
1334	1	0
1335	1	0
1336	1	0
1337	1	0
1338	1	0
1339	1	0
1340	1	0
1341	1	0
1342	1	0
1343	1	0
1344	1	0
1345	1	0
1346	1	0
1347	1	0
1348	1	0
1349	1	0
1350	1	0
1351	1	0
1352	1	0
1353	1	0
1354	1	0
1355	1	0
1356	1	0
1357	1	0
1358	1	0
1359	1	0
1360	1	0
1361	1	0
1362	1	0
1363	1	0
1364	1	0
1365	1	0
1366	1	0
1367	1	0
1368	1	0
1369	1	0
1370	1	0
1371	1	0
1372	1	0
1373	1	0
1374	1	0
1375	1	0
1376	1	0
1377	1	0
1378	1	0
1379	1	0
1380	1	0
1381	1	0
1382	1	0
1383	1	0
1384	1	0
1385	1	0
1386	1	0
1387	1	0
1388	1	0
1389	1	0
1390	1	0
1391	1	0
1392	1	0
1393	1	0
1394	1	0
1395	1	0
1396	1	0
1397	1	0
1398	1	0
1399	1	0
1400	1	0
1401	1	0
1402	1	0
1403	1	0
1404	1	0
1405	1	0
1406	1	0
1407	1	0
1408	1	0
1409	1	0
1410	1	0
1411	1	0
1412	1	0
1413	1	0
1414	1	0
1415	1	0
1416	1	0
1417	1	0
1418	1	0
1419	1	0
1420	1	0
1421	1	0
1422	1	0
1423	1	0
1424	1	0
1425	1	0
1426	1	0
1427	1	0
1428	1	0
1429	1	0
1430	1	0
1431	1	0
1432	1	0
1433	1	0
1434	1	0
1435	1	0
1436	1	0
1437	1	0
1438	1	0
1439	1	0
1440	1	0
1441	1	0
1442	1	0
1443	1	0
1444	1	0
1445	1	0
1446	1	0
1447	1	0
1448	1	0
1449	1	0
1450	1	0
1451	1	0
1452	1	0
1453	1	0
1454	1	0
1455	1	0
1456	1	0
1457	1	0
1458	1	0
1459	1	0
1460	1	0
1461	1	0
1462	1	0
1463	1	0
1464	1	0
1465	1	0
1466	1	0
1467	1	0
1468	1	0
1469	1	0
1470	1	0
1471	1	0
1472	1	0
1473	1	0
1474	1	0
1475	1	0
1476	1	0
1477	1	0
1478	1	0
1479	1	0
1480	1	0
1481	1	0
1482	1	0
1483	1	0
1484	1	0
1485	1	0
1486	1	0
1487	1	0
1488	1	0
1489	1	0
1490	1	0
1491	1	0
1492	1	0
1493	1	0
1494	1	0
1495	1	0
1496	1	0
1497	1	0
1498	1	0
1499	1	0
1500	1	0
1501	1	0
1502	1	0
1503	1	0
1504	1	0
1505	1	0
1506	1	0
1507	1	0
1508	1	0
1509	1	0
1510	1	0
1511	1	0
1512	1	0
1513	1	0
1514	1	0
1515	1	0
1516	1	0
1517	1	0
1518	1	0
1519	1	0
1520	1	0
1521	1	0
1522	1	0
1523	1	0
1524	1	0
1525	1	0
1526	1	0
1527	1	0
1528	1	0
1529	1	0
1530	1	0
1531	1	0
1532	1	0
1533	1	0
1534	1	0
1535	1	0
1536	1	0
1537	1	0
1538	1	0
1539	1	0
1540	1	0
1541	1	0
1542	1	0
1543	1	0
1544	1	0
1545	1	0
1546	1	0
1547	1	0
1548	1	0
1549	1	0
1550	1	0
1551	1	0
1552	1	0
1553	1	0
1554	1	0
1555	1	0
1556	1	0
1557	1	0
1558	1	0
1559	1	0
1560	1	0
1561	1	0
1562	1	0
1563	1	0
1564	1	0
1565	1	0
1566	1	0
1567	1	0
1568	1	0
1569	1	0
1570	1	0
1571	1	0
1572	1	0
1573	1	0
1574	1	0
1575	1	0
1576	1	0
1577	1	0
1578	1	0
1579	1	0
1580	1	0
1581	1	0
1582	1	0
1583	1	0
1584	1	0
1585	1	0
1586	1	0
1587	1	0
1588	1	0
1589	1	0
1590	1	0
1591	1	0
1592	1	0
1593	1	0
1594	1	0
1595	1	0
1596	1	0
1597	1	0
1598	1	0
1599	1	0
1600	1	0
1601	1	0
1602	1	0
1603	1	0
1604	1	0
1605	1	0
1606	1	0
1607	1	0
1608	1	0
1609	1	0
1610	1	0
1611	1	0
1612	1	0
1613	1	0
1614	1	0
1615	1	0
1616	1	0
1617	1	0
1618	1	0
1619	1	0
1620	1	0
1621	1	0
1622	1	0
1623	1	0
1624	1	0
1625	1	0
1626	1	0
1627	1	0
1628	1	0
1629	1	0
1630	1	0
1631	1	0
1632	1	0
1633	1	0
1634	1	0
1635	1	0
1636	1	0
1637	1	0
1638	1	0
1639	1	0
1640	1	0
1641	1	0
1642	1	0
1643	1	0
1644	1	0
1645	1	0
1646	1	0
1647	1	0
1648	1	0
1649	1	0
1650	1	0
1651	1	0
1652	1	0
1653	1	0
1654	1	0
1655	1	0
1656	1	0
1657	1	0
1658	1	0
1659	1	0
1660	1	0
1661	1	0
1662	1	0
1663	1	0
1664	1	0
1665	1	0
1666	1	0
1667	1	0
1668	1	0
1669	1	0
1670	1	0
1671	1	0
1672	1	0
1673	1	0
1674	1	0
1675	1	0
1676	1	0
1677	1	0
1678	1	0
1679	1	0
1680	1	0
1681	1	0
1682	1	0
1683	1	0
1684	1	0
1685	1	0
1686	1	0
1687	1	0
1688	1	0
1689	1	0
1690	1	0
1691	1	0
1692	1	0
1693	1	0
1694	1	0
1695	1	0
1696	1	0
1697	1	0
1698	1	0
1699	1	0
1700	1	0
1701	1	0
1702	1	0
1703	1	0
1704	1	0
1705	1	0
1706	1	0
1707	1	0
1708	1	0
1709	1	0
1710	1	0
1711	1	0
1712	1	0
1713	1	0
1714	1	0
1715	1	0
1716	1	0
1717	1	0
1718	1	0
1719	1	0
1720	1	0
1721	1	0
1722	1	0
1723	1	0
1724	1	0
1725	1	0
1726	1	0
1727	1	0
1728	1	0
1729	1	0
1730	1	0
1731	1	0
1732	1	0
1733	1	0
1734	1	0
1735	1	0
1736	1	0
1737	1	0
1738	1	0
1739	1	0
1740	1	0
1741	1	0
1742	1	0
1743	1	0
1744	1	0
1745	1	0
1746	1	0
1747	1	0
1748	1	0
1749	1	0
1750	1	0
1751	1	0
1752	1	0
1753	1	0
1754	1	0
1755	1	0
1756	1	0
1757	1	0
1758	1	0
1759	1	0
1760	1	0
1761	1	0
1762	1	0
1763	1	0
1764	1	0
1765	1	0
1766	1	0
1767	1	0
1768	1	0
1769	1	0
1770	1	0
1771	1	0
1772	1	0
1773	1	0
1774	1	0
1775	1	0
1776	1	0
1777	1	0
1778	1	0
1779	1	0
1780	1	0
1781	1	0
1782	1	0
1783	1	0
1784	1	0
1785	1	0
1786	1	0
1787	1	0
1788	1	0
1789	1	0
1790	1	0
1791	1	0
1792	1	0
1793	1	0
1794	1	0
1795	1	0
1796	1	0
1797	1	0
1798	1	0
1799	1	0
1800	1	0
1801	1	0
1802	1	0
1803	1	0
1804	1	0
1805	1	0
1806	1	0
1807	1	0
1808	1	0
1809	1	0
1810	1	0
1811	1	0
1812	1	0
1813	1	0
1814	1	0
1815	1	0
1816	1	0
1817	1	0
1818	1	0
1819	1	0
1820	1	0
1821	1	0
1822	1	0
1823	1	0
1824	1	0
1825	1	0
1826	1	0
1827	1	0
1828	1	0
1829	1	0
1830	1	0
1831	1	0
1832	1	0
1833	1	0
1834	1	0
1835	1	0
1836	1	0
1837	1	0
1838	1	0
1839	1	0
1840	1	0
1841	1	0
1842	1	0
1843	1	0
1844	1	0
1845	1	0
1846	1	0
1847	1	0
1848	1	0
1849	1	0
1850	1	0
1851	1	0
1852	1	0
1853	1	0
1854	1	0
1855	1	0
1856	1	0
1857	1	0
1858	1	0
1859	1	0
1860	1	0
1861	1	0
1862	1	0
1863	1	0
1864	1	0
1865	1	0
1866	1	0
1867	1	0
1868	1	0
1869	1	0
1870	1	0
1871	1	0
1872	1	0
1873	1	0
1874	1	0
1875	1	0
1876	1	0
1877	1	0
1878	1	0
1879	1	0
1880	1	0
1881	1	0
1882	1	0
1883	1	0
1884	1	0
1885	1	0
1886	1	0
1887	1	0
1888	1	0
1889	1	0
1890	1	0
1891	1	0
1892	1	0
1893	1	0
1894	1	0
1895	1	0
1896	1	0
1897	1	0
1898	1	0
1899	1	0
1900	1	0
1901	1	0
1902	1	0
1903	1	0
1904	1	0
1905	1	0
1906	1	0
1907	1	0
1908	1	0
1909	1	0
1910	1	0
1911	1	0
1912	1	0
1913	1	0
1914	1	0
1915	1	0
1916	1	0
1917	1	0
1918	1	0
1919	1	0
1920	1	0
1921	1	0
1922	1	0
1923	1	0
1924	1	0
1925	1	0
1926	1	0
1927	1	0
1928	1	0
1929	1	0
1930	1	0
1931	1	0
1932	1	0
1933	1	0
1934	1	0
1935	1	0
1936	1	0
1937	1	0
1938	1	0
1939	1	0
1940	1	0
1941	1	0
1942	1	0
1943	1	0
1944	1	0
1945	1	0
1946	1	0
1947	1	0
1948	1	0
1949	1	0
1950	1	0
1951	1	0
1952	1	0
1953	1	0
1954	1	0
1955	1	0
1956	1	0
1957	1	0
1958	1	0
1959	1	0
1960	1	0
1961	1	0
1962	1	0
1963	1	0
1964	1	0
1965	1	0
1966	1	0
1967	1	0
1968	1	0
1969	1	0
1970	1	0
1971	1	0
1972	1	0
1973	1	0
1974	1	0
1975	1	0
1976	1	0
1977	1	0
1978	1	0
1979	1	0
1980	1	0
1981	1	0
1982	1	0
1983	1	0
1984	1	0
1985	1	0
1986	1	0
1987	1	0
1988	1	0
1989	1	0
1990	1	0
1991	1	0
1992	1	0
1993	1	0
1994	1	0
1995	1	0
1996	1	0
1997	1	0
1998	1	0
1999	0	0
2000	0	0
2001	0	0
2002	0	0
2003	0	0
2004	0	0
2005	0	0
2006	0	0
2007	0	0
2008	0	0
2009	0	0
2010	0	0
2011	0	0
2012	0	0
2013	0	0
2014	0	0
2015	0	0
2016	0	0
2017	0	0
2018	0	0
2019	0	0
2020	0	0
2021	0	0
2022	0	0
2023	0	0
2024	0	0
2025	0	0
2026	0	0
2027	0	0
2028	0	0
2029	0	0
2030	0	0
2031	0	0
2032	0	0
2033	0	0
2034	0	0
2035	0	0
2036	0	0
2037	0	0
2038	0	0
2039	0	0
2040	0	0
2041	0	0
2042	0	0
2043	0	0
2044	0	0
2045	0	0
2046	0	0
2047	0	0
2048	0	0
2049	0	0
2050	0	0
2051	0	0
2052	0	0
2053	0	0
2054	0	0
2055	0	0
2056	0	0
2057	0	0
2058	0	0
2059	0	0
2060	0	0
2061	0	0
2062	0	0
2063	0	0
2064	0	0
2065	0	0
2066	0	0
2067	0	0
2068	0	0
2069	0	0
2070	0	0
2071	0	0
2072	0	0
2073	0	0
2074	0	0
2075	0	0
2076	0	0
2077	0	0
2078	0	0
2079	0	0
2080	0	0
2081	0	0
2082	0	0
2083	0	0
2084	0	0
2085	0	0
2086	0	0
2087	0	0
2088	0	0
2089	0	0
2090	0	0
2091	0	0
2092	0	0
2093	0	0
2094	0	0
2095	0	0
2096	0	0
2097	0	0
2098	0	0
2099	0	0
2100	0	0
2101	0	0
2102	0	0
2103	0	0
2104	0	0
2105	0	0
2106	0	0
2107	0	0
2108	0	0
2109	0	0
2110	0	0
2111	0	0
2112	0	0
2113	0	0
2114	0	0
2115	0	0
2116	0	0
2117	0	0
2118	0	0
2119	0	0
2120	0	0
2121	0	0
2122	0	0
2123	0	0
2124	0	0
2125	0	0
2126	0	0
2127	0	0
2128	0	0
2129	0	0
2130	0	0
2131	0	0
2132	0	0
2133	0	0
2134	0	0
2135	0	0
2136	0	0
2137	0	0
2138	0	0
2139	0	0
2140	0	0
2141	0	0
2142	0	0
2143	0	0
2144	0	0
2145	0	0
2146	0	0
2147	0	0
2148	0	0
2149	0	0
2150	0	0
2151	0	0
2152	0	0
2153	0	0
2154	0	0
2155	0	0
2156	0	0
2157	0	0
2158	0	0
2159	0	0
2160	0	0
2161	0	0
2162	0	0
2163	0	0
2164	0	0
2165	0	0
2166	0	0
2167	0	0
2168	0	0
2169	0	0
2170	0	0
2171	0	0
2172	0	0
2173	0	0
2174	0	0
2175	0	0
2176	0	0
2177	0	0
2178	0	0
2179	0	0
2180	0	0
2181	0	0
2182	0	0
2183	0	0
2184	0	0
2185	0	0
2186	0	0
2187	0	0
2188	0	0
2189	0	0
2190	0	0
2191	0	0
2192	0	0
2193	0	0
2194	0	0
2195	0	0.1
2196	0	0.1
2197	0	0.1
2198	0	0.1
2199	0	0.1
2200	0	0.1
2201	0	0.1
2202	0	0.1
2203	0	0
2204	0	0
2205	0	0
2206	0	0
2207	0	0
2208	0	0
2209	0	0
2210	0	0
2211	0	0
2212	0	0
2213	0	0
2214	0	0
2215	0	0
2216	0	0
2217	0	0
2218	0	0
2219	0	0
2220	0	0
2221	0	0
2222	0	0
2223	0	0
2224	0	0
2225	0	0
2226	0	0
2227	0	0
2228	0	0
2229	0	0
2230	0	0
2231	0	0
2232	0	0
2233	0	0
2234	0	0
2235	0	0.1
2236	0	0.1
2237	0	0.1
2238	0	0
2239	0	0.1
2240	0	0.1
2241	0	0.1
2242	0	0.0666667
2243	0	0.0666667
2244	0	0.0666667
2245	0	0.0666667
2246	0	0.0666667
2247	0	0.0666667
2248	0	0.0666667
2249	0	0.0666667
2250	0	0.0666667
2251	0	0.0666667
2252	0	0.047619
2253	0	0.047619
2254	0	0.047619
2255	0	0.047619
2256	0	0.0357143
2257	0	0.0357143
2258	0	0.0357143
2259	0	0.0357143
2260	0	0.0357143
2261	0	0.0357143
2262	0	0.0357143
2263	0	0.0357143
2264	0	0.0357143
2265	0	0.0357143
2266	0	0.0357143
2267	0	0.0357143
2268	0	0.0357143
2269	0	0.0357143
2270	0	0.0357143
2271	0	0.0357143
2272	0	0.0357143
2273	0	0.0277778
2274	0	0.0277778
2275	0	0.0277778
2276	0	0.0277778
2277	0	0.0222222
2278	0	0.0222222
2279	0	0.0222222
2280	0	0.0222222
2281	0	0.0222222
2282	0	0.0222222
2283	0	0.0222222
2284	0	0.0222222
2285	0	0.0222222
2286	0	0.189723
2287	0	0.189723
2288	0	0.189723
2289	0	0.173913
2290	0	0.173913
2291	0	0.0222222
2292	0	0.0512821
2293	0	0.184615
2294	0	0.173789
2295	0	0.173789
2296	0	0.173789
2297	0	0.173789
2298	0	0.173789
2299	0	0.173789
2300	0	0.156923
2301	0	0.156923
2302	0	0.150997
2303	0	0.150997
2304	0	0.0588235
2305	0	0.0588235
2306	0	0.0643275
2307	0	0.0643275
2308	0	0.0578947
2309	0	0.0562771
2310	0	0.0562771
2311	0	0.182796
2312	0	0.149194
2313	0	0.155242
2314	0	0.165591
2315	0	0.0984615
2316	0	0.17931
2317	0	0.236559
2318	0	0.236559
2319	0	0.221774
2320	0	0.252016
2321	0	0.252016
2322	0	0.275269
2323	0	0.275269
2324	0	0.275269
2325	0	0.102564
2326	0	0.472906
2327	0	0.047619
2328	0	0.047619
2329	0	0.047619
2330	0	0.047619
2331	0	0.0952381
2332	0	0.0952381
2333	0	0.0952381
2334	0	0.0952381
2335	0	0.0952381
2336	0	0.0952381
2337	0	0.0952381
2338	0	0.0952381
2339	0	0.0952381
2340	0	0.0952381
2341	0	0.047619
2342	0	0.047619
2343	0	0.047619
2344	0	0.047619
2345	0	0.047619
2346	0	0.047619
2347	0	0.047619
2348	0	0.047619
2349	0	0.047619
2350	0	0.047619
2351	0	0.047619
2352	0	0.047619
2353	0	0.047619
2354	0	0.047619
2355	0	0.047619
2356	0	0.047619
2357	0	0.047619
2358	0	0.047619
2359	0	0.047619
2360	0	0.047619
2361	0	0.047619
2362	0	0.047619
2363	0	0.047619
2364	0	0.047619
2365	0	0.047619
2366	0	0.047619
2367	0	0.047619
2368	0	0.047619
2369	0	0.047619
2370	0	0.047619
2371	0	0.047619
2372	0	0.047619
2373	0	0.047619
2374	0	0.047619
2375	0	0.047619
2376	0	0.047619
2377	0	0.047619
2378	0	0.047619
2379	0	0.047619
2380	0	0.047619
2381	0	0.047619
2382	0	0.047619
2383	0	0.047619
2384	0	0.047619
2385	0	0.047619
2386	0	0.047619
2387	0	0.047619
2388	0	0.047619
2389	0	0.047619
2390	0	0.047619
2391	0	0.047619
2392	0	0.047619
2393	0	0.047619
2394	0	0.047619
2395	0	0.047619
2396	0	0.047619
2397	0	0.047619
2398	0	0.047619
2399	0	0.047619
2400	0	0.047619
2401	0	0.047619
2402	0	0.047619
2403	0	0.047619
2404	0	0.047619
2405	0	0.047619
2406	0	0.047619
2407	0	0.047619
2408	0	0.047619
2409	0	0.047619
2410	0	0.047619
2411	0	0.047619
2412	0	0.047619
2413	0	0.047619
2414	0	0.047619
2415	0	0.047619
2416	0	0.047619
2417	0	0.047619
2418	0	0.047619
2419	0	0.047619
2420	0	0.047619
2421	0	0.047619
2422	0	0.047619
2423	0	0.047619
2424	0	0.047619
2425	0	0.047619
2426	0	0.047619
2427	0	0.047619
2428	0	0.047619
2429	0	0.047619
2430	0	0.047619
2431	0	0.047619
2432	0	0.047619
2433	0	0.047619
2434	0	0.047619
2435	0	0.047619
2436	0	0.047619
2437	0	0.047619
2438	0	0.047619
2439	0	0.047619
2440	0	0.047619
2441	0	0.047619
2442	0	0.047619
2443	0	0.047619
2444	0	0.047619
2445	0	0.047619
2446	0	0.047619
2447	0	0.047619
2448	0	0.047619
2449	0	0.047619
2450	0	0.047619
2451	0	0.047619
2452	0	0.047619
2453	0	0.047619
2454	0	0.047619
2455	0	0.047619
2456	0	0.047619
2457	0	0.047619
2458	0	0.047619
2459	0	0.047619
2460	0	0.0952381
2461	0	0.0952381
2462	0	0.0952381
2463	0	0.0952381
2464	0	0.0952381
2465	0	0.0952381
2466	0	0.0952381
2467	0	0.0952381
2468	0	0.0952381
2469	0	0.0952381
2470	0	0.0952381
2471	0	0.0952381
2472	0	0.0952381
2473	0	0.0952381
2474	0	0.0952381
2475	0	0.0952381
2476	0	0.047619
2477	0	0.0357143
2478	0	0.0357143
2479	0	0.0357143
2480	0	0.0357143
2481	0	0.0357143
2482	0	0.0357143
2483	0	0.0357143
2484	0	0.0357143
2485	0	0.0357143
2486	0	0.0357143
2487	0	0.0357143
2488	0	0.0357143
2489	0	0.0357143
2490	0	0.0357143
2491	0	0.0357143
2492	0	0.0357143
2493	0	0.0357143
2494	0	0.0357143
2495	0	0.0357143
2496	0	0.0714286
2497	0	0.0714286
2498	0	0.0714286
2499	0	0.0714286
2500	0	0.0714286
2501	0	0.0714286
2502	0	0.0714286
2503	0	0.0714286
2504	0	0.0714286
2505	0	0.0714286
2506	0	0.0714286
2507	0	0.0357143
2508	0	0.0357143
2509	0	0.0357143
2510	0	0.0357143
2511	0	0.0277778
2512	0	0.0277778
2513	0	0.0277778
2514	0	0.0277778
2515	0	0.0277778
2516	0	0.41533
2517	0	0.454545
2518	0	0.454545
2519	0	0.454545
2520	0	0.454545
2521	0	0.454545
2522	0	0.454545
2523	0	0.454545
2524	0	0.454545
2525	0	0.454545
2526	0	0.454545
2527	0	0.454545
2528	0	0.454545
2529	0	0.512097
2530	0	0.0222222
2531	0	0.0181818
2532	0	0.0181818
2533	0	0.0181818
2534	0	0.391597
2535	0	0.428571
2536	0	0.428571
2537	0	0.0222222
2538	0	0.0222222
2539	0	0.0222222
2540	0	0.0222222
2541	0	0.0222222
2542	0	0.0222222
2543	0	0.0222222
2544	0	0.0277778
2545	0	0.0277778
2546	0	0.0277778
2547	0	0.0277778
2548	0	0.0277778
2549	0	0.0277778
2550	0	0.0277778
2551	0	0.0277778
2552	0	0.0277778
2553	0	0.0277778
2554	0	0.0277778
2555	0	0.0277778
2556	0	0.0277778
2557	0	0.0277778
2558	0	0.0277778
2559	0	0.0277778
2560	0	0.0277778
2561	0	0.0277778
2562	0	0.0277778
2563	0	0.0277778
2564	0	0.0606061
2565	0	0.0606061
2566	0	0.0606061
2567	0	0.0606061
2568	0	0.0277778
2569	0	0.0277778
2570	0	0.0277778
2571	0	0.0277778
2572	0	0.0277778
2573	0	0.0277778
2574	0	0.0277778
2575	0	0.0277778
2576	0	0.0277778
2577	0	0.0277778
2578	0	0.0277778
2579	0	0.0277778
2580	0	0.0277778
2581	0	0.0277778
2582	0	0.0277778
2583	0	0.0277778
2584	0	0.0277778
2585	0	0.0277778
2586	0	0.0277778
2587	0	0.0277778
2588	0	0.0277778
2589	0	0.0277778
2590	0	0.0277778
2591	0	0.0277778
2592	0	0.0277778
2593	0	0.0277778
2594	0	0.0277778
2595	0	0.0277778
2596	0	0.0277778
2597	0	0.0277778
2598	0	0.0277778
2599	0	0.0277778
2600	0	0.0277778
2601	0	0.0277778
2602	0	0.0277778
2603	0	0.0277778
2604	0	0.0277778
2605	0	0.0277778
2606	0	0.0277778
2607	0	0.0277778
2608	0	0.0277778
2609	0	0.0277778
2610	0	0.0277778
2611	0	0.0277778
2612	0	0.0277778
2613	0	0.0277778
2614	0	0.0277778
2615	0	0.0277778
2616	0	0.0277778
2617	0	0.0277778
2618	0	0.0277778
2619	0	0.0277778
2620	0	0.0277778
2621	0	0.0277778
2622	0	0.0277778
2623	0	0.0277778
2624	0	0.0277778
2625	0	0.0277778
2626	0	0.0277778
2627	0	0.0277778
2628	0	0.0222222
2629	0	0.0222222
2630	0	0.0222222
2631	0	0.0222222
2632	0	0.0222222
2633	0	0.0222222
2634	0	0.0222222
2635	0	0.0222222
2636	0	0.0222222
2637	0	0.0222222
2638	0	0.0222222
2639	0	0.0222222
2640	0	0.0222222
2641	0	0.0222222
2642	0	0.0222222
2643	0	0.0222222
2644	0	0.0222222
2645	0	0.0222222
2646	0	0.0222222
2647	0	0.0181818
2648	0	0.0222222
2649	0	0.0222222
2650	0	0.0222222
2651	0	0
2652	0	0
2653	0	0
2654	0	0
2655	0	0.0222222
2656	0	0.0222222
2657	0	0.0222222
2658	0	0
2659	0	0
2660	0	0
2661	0	0
2662	0	0
2663	0	0
2664	0	0
2665	0	0
2666	0	0
2667	0	0
2668	0	0
2669	0	0
2670	0	0
2671	0	0
2672	0	0
2673	0	0
2674	0	0
2675	0	0
2676	0	0
2677	0	0
2678	0	0
2679	0	0
2680	0	0
2681	0	0
2682	0	0
2683	0	0
2684	0	0
2685	0	0
2686	0	0
2687	0	0
2688	0	0
2689	0	0
2690	0	0
2691	0	0
2692	0	0
2693	0	0
2694	0	0.0294118
2695	0	0.0294118
2696	0	0.0294118
2697	0	0.0294118
2698	0	0.0294118
2699	0	0.0326797
2700	0	0.0326797
2701	0	0.0233918
2702	0	0.0233918
2703	0	0.0326797
2704	0	0.0261438
2705	0	0.0263158
2706	0	0.0263158
2707	0	0.0285714
2708	0	0.0175439
2709	0	0.0366667
2710	0	0.034188
2711	0	0.034188
2712	0	0.031339
2713	0	0.048433
2714	0	0.0449735
2715	0	0.047619
2716	0	0.0436782
2717	0	0.0408602
2718	0	0.0383065
2719	0	0.0302419
2720	0	0.220811
2721	0	0.205082
2722	0	0.209921
2723	0	0.209921
2724	0	0.214286
2725	0	0.206897
2726	0	0.196045
2727	0	0.18403
2728	0	0.162295
2729	0	0.136409
2730	0	0.12483
2731	0	0.110262
2732	0	0.107981
2733	0	0.0916667
2734	0	0.0862027
2735	0	0.0793408
2736	0	0.0580607
2737	0	0.0612383
2738	0	0.247817
2739	0	0.243047
2740	0	0.251623
2741	0	0.301911
2742	0	0.29139
2743	0	0.287417
2744	0	0.286489
2745	0	0.279424
2746	0	0.290734
2747	0	0.316929
2748	0	0.523035
2749	0	0.521418
2750	0	0.475485
2751	0	0.412469
2752	0	0.371768
2753	0	0.335446
2754	0	0.0363636
2755	0	0.0363636
2756	0	0.0512821
2757	0	0.0512821
2758	0	0.047619
2759	0	0.104762
2760	0	0.104762
2761	0	0.1
2762	0	0.0849673
2763	0	0.0684211
2764	0	0.055336
2765	0	0.170293
2766	0	0.141931
2767	0	0.140615
2768	0	0.107769
2769	0	0.113925
2770	0	0.121986
2771	0	0.114303
2772	0	0
2773	0	0
2774	0	0
2775	0	0
2776	0	0
2777	0	0
2778	0	0
2779	0	0
2780	0	0
2781	0	0
2782	0	0
2783	0	0
2784	0	0
2785	0	0.385965
2786	0	0.444444
2787	0	0
2788	0	0.4
2789	0	0.4
2790	0	0.333333
2791	0	0.333333
2792	0	0.333333
2793	0	0.115498
2794	0	0.121292
2795	0	0.127028
2796	0	0.0666667
2797	0	0.1
2798	0	0
2799	0	0
2800	0	0
2801	0	0
2802	0	0
2803	0	0
2804	0	0
2805	0	0
2806	0	0
2807	0	0
2808	0	0
2809	0	0
2810	0	0
2811	0	0
2812	0	0
2813	0	0
2814	0	0
2815	0	0
2816	0	0
2817	0	0
2818	0	0
2819	0	0
2820	0	0
2821	0	0
2822	0	0
2823	0	0
2824	0	0
2825	0	0
2826	0	0
2827	0	0
2828	0	0
2829	0	0
2830	0	0
2831	0	0
2832	0	0
2833	0	0
2834	0	0
2835	0	0
2836	0	0
2837	0	0
2838	0	0
2839	0	0
2840	0	0
2841	0	0
2842	0	0
2843	0	0
2844	0	0
2845	0	0
2846	0	0
2847	0	0
2848	0	0
2849	0	0
2850	0	0
2851	0	0
2852	0	0
2853	0	0
2854	0	0
2855	0	0
2856	0	0
2857	0	0
2858	0	0
2859	0	0
2860	0	0
2861	0	0
2862	0	0
2863	0	0
2864	0	0
2865	0	0
2866	0	0
2867	0	0
2868	0	0
2869	0	0
2870	0	0
2871	0	0
2872	0	0
2873	0	0
2874	0	0
2875	0	0
2876	0	0
2877	0	0
2878	0	0
2879	0	0
2880	0	0
2881	0	0
2882	0	0
2883	0	0
2884	0	0
2885	0	0
2886	0	0
2887	0	0
2888	0	0
2889	0	0
2890	0	0
2891	0	0
2892	0	0
2893	0	0
2894	0	0
2895	0	0
2896	0	0
2897	0	0
2898	0	0
2899	0	0
2900	0	0
2901	0	0
2902	0	0
2903	0	0
2904	0	0
2905	0	0
2906	0	0
2907	0	0
2908	0	0
2909	0	0
2910	0	0
2911	0	0
2912	0	0
2913	0	0
2914	0	0
2915	0	0
2916	0	0
2917	0	0
2918	0	0
2919	0	0
2920	0	0
2921	0	0
2922	0	0
2923	0	0
2924	0	0
2925	0	0
2926	0	0
2927	0	0
2928	0	0
2929	0	0
2930	0	0
2931	0	0
2932	0	0
2933	0	0
2934	0	0
2935	0	0
2936	0	0
2937	0	0
2938	0	0
2939	0	0
2940	0	0
2941	0	0
2942	0	0
2943	0	0
2944	0	0
2945	0	0
2946	0	0
2947	0	0
2948	0	0
2949	0	0
2950	0	0
2951	0	0
2952	0	0
2953	0	0
2954	0	0
2955	0	0
2956	0	0
2957	0	0
2958	0	0
2959	0	0
2960	0	0
2961	0	0
2962	0	0
2963	0	0
2964	0	0
2965	0	0
2966	0	0
2967	0	0
2968	0	0
2969	0	0
2970	0	0
2971	0	0
2972	0	0
2973	0	0
2974	0	0
2975	0	0
2976	0	0
2977	0	0
2978	0	0
2979	0	0
2980	0	0
2981	0	0
2982	0	0
2983	0	0
2984	0	0
2985	0	0
2986	0	0
2987	0	0
2988	0	0
2989	0	0
2990	0	0
2991	0	0
2992	0	0
2993	0	0
2994	0	0
2995	0	0
2996	0	0
2997	0	0
2998	0	0
2999	0	0
3000	0	0
3001	0	0
3002	0	0
3003	0	0
3004	0	0
3005	0	0
3006	0	0
3007	0	0
3008	0	0
3009	0	0
3010	0	0
3011	0	0
3012	0	0
3013	0	0.850679
3014	0	0.874141
3015	0	0.196396
3016	0	0
3017	0	0
3018	0	0
3019	0	0
3020	0	0
3021	0	0
3022	0	0
3023	0	0
3024	0	0
3025	0	0
3026	0	0
3027	0	0
3028	0	0
3029	0	0
3030	0	0
3031	0	0
3032	0	0
3033	0	0
3034	0	0
3035	0	0
3036	0	0
3037	0	0
3038	0	0
3039	0	0
3040	0	0
3041	0	0
3042	0	0
3043	0	0
3044	0	0
3045	0	0.0666667
3046	0	0.0666667
3047	0	0.047619
3048	0	0.047619
3049	0	0.047619
3050	0	0.047619
3051	0	0.174509
3052	0	0.1827
3053	0	0.169167
3054	0	0.0803891
3055	0	0.025
3056	0	0.0333333
3057	0	0.025
3058	0	0.025
3059	0	0.0166667
3060	0	0.0166667
3061	0	0.0147059
3062	0	0.0130719
3063	0	0.0196078
3064	0	0.0196078
3065	0	0.0233918
3066	0	0.0233918
3067	0	0.0292398
3068	0	0.581329
3069	0	0.374008
3070	0	0.281159
3071	0	0.176278
3072	0	0.177658
3073	0	0.181023
3074	0	0.239194
3075	0	0.237877
3076	0	0.233028
3077	0	0.227796
3078	0	0.226152
3079	0	0.275666
3080	0	0.348183
3081	0	0.35521
3082	0	0.347619
3083	0	0.347619
3084	0	0.316017
3085	0	0.542609
3086	0	0.811927
3087	0	0.864494
3088	0	0.864494
3089	0	0
3090	0	0
3091	0	0
3092	0	0
3093	0	0
3094	0	0
3095	0	0
3096	0	0
3097	0	0
3098	0	0
3099	0	0
3100	0	0
3101	0	0
3102	0	0
3103	0	0
3104	0	0
3105	0	0
3106	0	0
3107	0	0
3108	0	0
3109	0	0
3110	0	0
3111	0	0
3112	0	0
3113	0	0
3114	0	0
3115	0	0
3116	0	0
3117	0	0
3118	0	0
3119	0	0
3120	0	0
3121	0	0
3122	0	0
3123	0	0
3124	0	0
3125	0	0
3126	0	0
3127	0	0
3128	0	0
3129	0	0
3130	0	0
3131	0	0
3132	0	0
3133	0	0
3134	0	0
3135	0	0
3136	0	0
3137	0	0
3138	0	0
3139	0	0
3140	0	0
3141	0	0
3142	0	0
3143	0	0
3144	0	0
3145	0	0
3146	0	0
3147	0	0
3148	0	0
3149	0	0
3150	0	0
3151	0	0
3152	0	0
3153	0	0
3154	0	0
3155	0	0
3156	0	0
3157	0	0
3158	0	0
3159	0	0
3160	0	0
3161	0	0
3162	0	0
3163	0	0
3164	0	0
3165	0	0
3166	0	0
3167	0	0
3168	0	0
3169	0	0
3170	0	0
3171	0	0
3172	0	0
3173	0	0
3174	0	0
3175	0	0
3176	0	0
3177	0	0
3178	0	0
3179	0	0
3180	0	0
3181	0	0
3182	0	0
3183	0	0
3184	0	0
3185	0	0
3186	0	0
3187	0	0
3188	0	0
3189	0	0
3190	0	0
3191	0	0
3192	0	0
3193	0	0
3194	0	0
3195	0	0
3196	0	0
3197	0	0
3198	0	0
3199	0	0
3200	0	0
3201	0	0
3202	0	0
3203	0	0
3204	0	0
3205	0	0
3206	0	0
3207	0	0
3208	0	0
3209	0	0
3210	0	0
3211	0	0
3212	0	0
3213	0	0
3214	0	0
3215	0	0
3216	0	0
3217	0	0
3218	0	0
3219	0	0
3220	0	0
3221	0	0
3222	0	0
3223	0	0
3224	0	0
3225	0	0
3226	0	0
3227	0	0
3228	0	0
3229	0	0
3230	0	0
3231	0	0
3232	0	0
3233	0	0
3234	0	0
3235	0	0
3236	0	0
3237	0	0
3238	0	0
3239	0	0
3240	0	0
3241	0	0
3242	0	0
3243	0	0
3244	0	0
3245	0	0
3246	0	0
3247	0	0
3248	0	0
3249	0	0
3250	0	0
3251	0	0
3252	0	0
3253	0	0
3254	0	0
3255	0	0
3256	0	0
3257	0	0
3258	0	0
3259	0	0
3260	0	0
3261	0	0
3262	0	0
3263	0	0
3264	0	0
3265	0	0
3266	0	0
3267	0	0
3268	0	0
3269	0	0
3270	0	0
3271	0	0
3272	0	0
3273	0	0
3274	0	0
3275	0	0
3276	0	0
3277	0	0
3278	0	0
3279	0	0
3280	0	0
3281	0	0
3282	0	0
3283	0	0
3284	0	0
3285	0	0
3286	0	0
3287	0	0
3288	0	0
3289	0	0
3290	0	0
3291	0	0
3292	0	0
3293	0	0
3294	0	0
3295	0	0
3296	0	0
3297	0	0
3298	0	0
3299	0	0
3300	0	0
3301	0	0
3302	0	0
3303	0	0
3304	0	0
3305	0	0
3306	0	0
3307	0	0
3308	0	0
3309	0	0
3310	0	0
3311	0	0
3312	0	0
3313	0	0
3314	0	0
3315	0	0
3316	0	0.984564
3317	0	0.981152
3318	0	0.986262
3319	0	0.986262
3320	0	0.986262
3321	0	0.98626
3322	0	0.986237
3323	0	0
3324	0	0
3325	0	0
3326	0	0
3327	0	0
3328	0	0
3329	0	0
3330	0	0
3331	0	0
3332	0	0
3333	0	0
3334	0	0
3335	0	0
3336	0	0
3337	0	0
3338	0	0
3339	0	0
3340	0	0
3341	0	0
3342	0	0.986238
3343	0	0.98625
3344	0	0.98625
3345	0	0.98625
3346	0	0.98966
3347	0	0.0357143
3348	0	0.0357143
3349	0	0
3350	0	0
3351	0	0
3352	0	0
3353	0	0
3354	0	0
3355	0	0
3356	0	0
3357	0	0
3358	0	0
3359	0	0.984525
3360	0	0
3361	0	0
3362	0	0
3363	0	0
3364	0	0
3365	0	0
3366	0	0
3367	0	0
3368	0	0
3369	0	0
3370	0	0
3371	0	0
3372	0	0
3373	0	0
3374	0	0
3375	0	0
3376	0	0
3377	0	0
3378	0	0
3379	0	0
3380	0	0
3381	0	0
3382	0	0
3383	0	0
3384	0	0
3385	0	0
3386	0	0
3387	0	0
3388	0	0
3389	0	0
3390	0	0
3391	0	0
3392	0	0
3393	0	0
3394	0	0
3395	0	0
3396	0	0
3397	0	0
3398	0	0
3399	0	0
3400	0	0
3401	0	0
3402	0	0
3403	0	0
3404	0	0
3405	0	0
3406	0	0
3407	0	0
3408	0	0
3409	0	0
3410	0	0
3411	0	0
3412	0	0
3413	0	0
3414	0	0
3415	0	0
3416	0	0
3417	0	0
3418	0	0
3419	0	0
3420	0	0
3421	0	0
3422	0	0
3423	0	0
3424	0	0
3425	0	0
3426	0	0
3427	0	0
3428	0	0
3429	0	0
3430	0	0
3431	0	0
3432	0	0
3433	0	0
3434	0	0
3435	0	0
3436	0	0
3437	0	0
3438	0	0
3439	0	0
3440	0	0
3441	0	0
3442	0	0
3443	0	0
3444	0	0
3445	0	0
3446	0	0
3447	0	0
3448	0	0
3449	0	0
3450	0	0
3451	0	0
3452	0	0
3453	0	0
3454	0	0
3455	0	0
3456	0	0
3457	0	0
3458	0	0
3459	0	0
3460	0	0
3461	0	0
3462	0	0
3463	0	0
3464	0	0
3465	0	0
3466	0	0
3467	0	0
3468	0	0
3469	0	0
3470	0	0
3471	0	0
3472	0	0
3473	0	0
3474	0	0
3475	0	0
3476	0	0
3477	0	0
3478	0	0
3479	0	0
3480	0	0
3481	0	0
3482	0	0
3483	0	0
3484	0	0
3485	0	0
3486	0	0
3487	0	0
3488	0	0
3489	0	0
3490	0	0
3491	0	0
3492	0	0
3493	0	0
3494	0	0
3495	0	0
3496	0	0
3497	0	0
3498	0	0
3499	0	0
3500	0	0
3501	0	0
3502	0	0
3503	0	0
3504	0	0
3505	0	0
3506	0	0
3507	0	0
3508	0	0
3509	0	0
3510	0	0
3511	0	0
3512	0	0
3513	0	0
3514	0	0
3515	0	0
3516	0	0
3517	0	0
3518	0	0
3519	0	0
3520	0	0
3521	0	0
3522	0	0
3523	0	0
3524	0	0
3525	0	0
3526	0	0
3527	0	0
3528	0	0
3529	0	0
3530	0	0
3531	0	0
3532	0	0
3533	0	0
3534	0	0
3535	0	0
3536	0	0
3537	0	0
3538	0	0
3539	0	0
3540	0	0
3541	0	0
3542	0	0
3543	0	0
3544	0	0
3545	0	0
3546	0	0
3547	0	0
3548	0	0
3549	0	0
3550	0	0
3551	0	0
3552	0	0
3553	0	0
3554	0	0
3555	0	0
3556	0	0
3557	0	0
3558	0	0
3559	0	0
3560	0	0
3561	0	0
3562	0	0
3563	0	0
3564	0	0.991388
3565	0	0.991388
3566	0	0.991388
3567	0	0.991388
3568	0	0.991388
3569	0	0.993108
3570	0	0.993108
3571	0	0.333333
3572	0	0.333333
3573	0	0.333333
3574	0	0.333333
3575	0	0.333333
3576	0	0.333333
3577	0	0.166667
3578	0	0.1
3579	0	0.1
3580	0	0.989589
3581	0	0.989589
3582	0	0
3583	0	0
3584	0	0
3585	0	0
3586	0	0.703333
3587	0	0.921908
3588	0	0
3589	0	0
3590	0	0
3591	0	0
3592	0	0.594771
3593	0	0.846296
3594	0	0.444444
3595	0	0.575364
3596	0	0.400424
3597	0	0.616729
3598	0	0.309876
3599	0	0
3600	0	0
3601	0	0
3602	0	0
3603	0	0
3604	0	0
3605	0	0
3606	0	0
3607	0	0
3608	0	0
3609	0	0
3610	0	0
3611	0	0
3612	0	0
3613	0	0
3614	0	0
3615	0	0
3616	0	0
3617	0	0
3618	0	0
3619	0	0
3620	0	0
3621	0	0
3622	0	0
3623	0	0
3624	0	0
3625	0	0
3626	0	0
3627	0	0
3628	0	0
3629	0	0
3630	0	0
3631	0	0
3632	0	0
3633	0	0
3634	0	0.65
3635	0	0.403499
3636	0	0.829037
3637	0	0.829037
3638	0	0.880682
3639	0	0.939394
3640	0	0.959169
3641	0	0.965954
3642	0	0.965954
3643	0	0.438095
3644	0	0.1
3645	0	0
3646	0	0
3647	0	0
3648	0	0
3649	0	0
3650	0	0
3651	0	0
3652	0	0.991409
3653	0	0.991409
3654	0	0.991409
3655	0	0
3656	0	0
3657	0	0
3658	0	0
3659	0	0
3660	0	0
3661	0	0
3662	0	0
3663	0	0
3664	0	0
3665	0	0
3666	0	0
3667	0	0
3668	0	0
3669	0	0
3670	0	0
3671	0	0
3672	0	0
3673	0	0
3674	0	0
3675	0	0
3676	0	0
3677	0	0
3678	0	0
3679	0	0
3680	0	0
3681	0	0
3682	0	0
3683	0	0
3684	0	0
3685	0	0
3686	0	0
3687	0	0
3688	0	0
3689	0	0
3690	0	0
3691	0	0
3692	0	0
3693	0	0
3694	0	0
3695	0	0
3696	0	0
3697	0	0
3698	0	0
3699	0	0
3700	0	0
3701	0	0
3702	0	0
3703	0	0
3704	0	0
3705	0	0
3706	0	0
3707	0	0
3708	0	0
3709	0	0
3710	0	0
3711	0	0
3712	0	0
3713	0	0
3714	0	0
3715	0	0
3716	0	0
3717	0	0
3718	0	0
3719	0	0
3720	0	0
3721	0	0
3722	0	0
3723	0	0
3724	0	0
3725	0	0
3726	0	0
3727	0	0
3728	0	0
3729	0	0
3730	0	0
3731	0	0
3732	0	0
3733	0	0
3734	0	0
3735	0	0
3736	0	0
3737	0	0
3738	0	0
3739	0	0
3740	0	0
3741	0	0
3742	0	0
3743	0	0
3744	0	0
3745	0	0
3746	0	0
3747	0	0
3748	0	0
3749	0	0
3750	0	0
3751	0	0
3752	0	0
3753	0	0
3754	0	0
3755	0	0
3756	0	0
3757	0	0
3758	0	0
3759	0	0
3760	0	0
3761	0	0
3762	0	0
3763	0	0
3764	0	0
3765	0	0
3766	0	0
3767	0	0
3768	0	0
3769	0	0
3770	0	0
3771	0	0
3772	0	0
3773	0	0
3774	0	0
3775	0	0
3776	0	0
3777	0	0
3778	0	0
3779	0	0
3780	0	0
3781	0	0
3782	0	0
3783	0	0
3784	0	0
3785	0	0
3786	0	0
3787	0	0
3788	0	0
3789	0	0
3790	0	0
3791	0	0
3792	0	0
3793	0	0
3794	0	0
3795	0	0
3796	0	0
3797	0	0
3798	0	0
3799	0	0
3800	0	0
3801	0	0
3802	0	0
3803	0	0
3804	0	0
3805	0	0
3806	0	0
3807	0	0
3808	0	0
3809	0	0
3810	0	0
3811	0	0
3812	0	0
3813	0	0
3814	0	0
3815	0	0
3816	0	0
3817	0	0
3818	0	0
3819	0	0
3820	0	0
3821	0	0
3822	0	0
3823	0	0
3824	0	0
3825	0	0
3826	0	0
3827	0	0
3828	0	0
3829	0	0
3830	0	0
3831	0	0
3832	0	0
3833	0	0
3834	0	0
3835	0	0
3836	0	0
3837	0	0
3838	0	0
3839	0	0
3840	0	0
3841	0	0
3842	0	0
3843	0	1
3844	0	1
3845	0	1
3846	0	1
3847	0	1
3848	0	1
3849	0	1
3850	0	1
3851	0	1
3852	0	1
3853	0	1
3854	0	1
3855	0	1
3856	0	1
3857	0	1
3858	0	1
3859	0	1
3860	0	1
3861	0	1
3862	0	1
3863	0	1
3864	0	1
3865	0	1
3866	0	0.993124
3867	0	0.984572
3868	0	0.3
3869	0	0.3
3870	0	0.3
3871	0	0.5
3872	0	0.5
3873	0	0
3874	0	0
3875	0	0
3876	0	0
3877	0	0
3878	0	0
3879	0	0
3880	0	0
3881	0	0
3882	0	0
3883	0	0
3884	0	0
3885	0	0
3886	0	0
3887	0	0
3888	0	0
3889	0	0
3890	0	0
3891	0	0
3892	0	0
3893	0	0
3894	0	0
3895	0	0
3896	0	0
3897	0	0
3898	0	0
3899	0	0
3900	0	0
3901	0	0
3902	0	0
3903	0	0
3904	0	0
3905	0	0
3906	0	0
3907	0	0
3908	0	0
3909	0	0
3910	0	0
3911	0	0
3912	0	0
3913	0	0
3914	0	0
3915	0	0
3916	0	0
3917	0	0
3918	0	0
3919	0	0.333333
3920	0	0.333333
3921	0	0.333333
3922	0	0.333333
3923	0	0.333333
3924	0	0.333333
3925	0	0.333333
3926	0	0.333333
3927	0	0.333333
3928	0	0.333333
3929	0	0.333333
3930	0	0.333333
3931	0	0.996559
3932	0	0.996559
3933	0	0.996559
3934	0	0.996559
3935	0	0.998277
3936	0	0.993124
3937	0	0.993124
3938	0	0.6
3939	0	0.6
3940	0	0.6
3941	0	0.6
3942	0	0.6
3943	0	0.6
3944	0	0.6
3945	0	0.6
3946	0	0.6
3947	0	0.6
3948	0	0.6
3949	0	0.6
3950	0	0.6
3951	0	0.6
3952	0	0.6
3953	0	0.6
3954	0	0.6
3955	0	0.6
3956	0	0.6
3957	0	0.522626
3958	0	0
3959	0	0
3960	0	0.989713
3961	0	0.988024
3962	0	0.991431
3963	0	0.991431
3964	0	0
3965	0	0
3966	0	0
3967	0	0
3968	0	0
3969	0	0
3970	0	0
3971	0	0
3972	0	0
3973	0	0
3974	0	0
3975	0	0
3976	0	0
3977	0	0
3978	0	0
3979	0	0
3980	0	0
3981	0	0
3982	0	0
3983	0	0
3984	0	0
3985	0	0
3986	0	0
3987	0	0
3988	0	0
3989	0	0.994841
3990	0	0.996559
3991	0	0.996559
3992	0	0.996559
3993	0	0.996559
3994	0	0
3995	0	0
3996	1	0
3997	1	0
3998	1	0
3999	1	0
4000	1	0
4001	1	0
4002	1	0
4003	1	0
4004	1	0
4005	1	0
4006	1	0
4007	1	0
4008	1	0
4009	1	0
4010	1	0
4011	1	0
4012	1	0
4013	1	0
4014	1	0
4015	1	0
4016	1	0
4017	1	0
4018	1	0
4019	1	0
4020	1	0
4021	1	0
4022	1	0
4023	1	0
4024	1	0
4025	1	0
4026	1	0
4027	1	0
4028	1	0
4029	1	0
4030	1	0
4031	1	0
4032	1	0
4033	1	0
4034	1	0
4035	0	0.996559
4036	0	0.994841
4037	0	0
4038	0	0
4039	0	0
4040	0	0
4041	0	0
4042	0	0
4043	0	0
4044	0	0
4045	0	0
4046	0	0
4047	0	0
4048	0	0
4049	0	0
4050	0	0
4051	0	0.991409
4052	0	0.989686
4053	0	0
4054	0	0
4055	0	0
4056	0	0
4057	0	0
4058	0	0
4059	0	0
4060	0	0.166667
4061	0	0.166667
4062	0	0.166667
4063	0	0.991402
4064	0	0
4065	0	0
4066	0	0
4067	0	0
4068	0	0.993124
4069	0	0.993124
4070	0	0.994836
4071	0	0.994836
4072	0	0.994836
4073	0	0.994836
4074	0	0.994836
4075	0	0.994841
4076	0	0.986281
4077	0	0.1
4078	0	0
4079	0	0
4080	0	0.1
4081	0	0.1
4082	0	0
4083	0	0.988005
4084	0	0.991424
4085	0	0
4086	0	0
4087	0	0
4088	0	0
4089	0	0
4090	0	0
4091	0	0.99313
4092	0	0.714286
4093	0	0.714286
4094	0	0
4095	0	0.690084
4096	0	0.904666
4097	0	0.894737
4098	0	0.996541
4099	0	0.996541
4100	0	0.996541
4101	0	0.996541
4102	0	0.994819
4103	0	0.994823
4104	0	0.994823
4105	0	0.994823
4106	0	0.994828
4107	0	0.996547
4108	0	0.996544
4109	0	0.994823
4110	0	0.994823
4111	0	0.993112
4112	0	0.994828
4113	0	0.993114
4114	0	0.998274
4115	0	0.998274
4116	0	0.996553
4117	0	0.99655
4118	0	0.996559
4119	0	0.65
4120	0	0.962145
4121	0	0.710769
4122	0	0.75587
4123	0	0.761451
4124	0	0.765396
4125	0	0.974442
4126	0	0.989739
4127	0	0.989739
4128	0	0.989739
4129	0	0.989739
4130	0	0.989739
4131	0	0.988033
4132	0	0
4133	0	0
4134	0	0
4135	0	0
4136	0	0
4137	0	0
4138	0	0
4139	0	0
4140	0	0
4141	0	0
4142	0	0
4143	0	0
4144	0	0
4145	0	0
4146	0	0
4147	0	0
4148	0	0.864532
4149	0	0.864532
4150	0	0.697946
4151	0	0.405324
4152	0	0.631123
4153	0	0.603704
4154	0	0.242424
4155	0	0.290909
4156	0	0.242424
4157	0	0.0757576
4158	0	0.0757576
4159	0	0.0512821
4160	0	0.446107
4161	0	0
4162	0	0
4163	0	0
4164	0	0
4165	0	0
4166	0	0
4167	0	0
4168	0	0
4169	0	0
4170	0	0
4171	0	0
4172	0	0
4173	0	0.356004
4174	0	0.698599
4175	0	0.391141
4176	0	0.398661
4177	0	0.406087
4178	0	0.344818
4179	0	0.368498
4180	0	0.277155
4181	0	0.118349
4182	0	0.108293
4183	0	0.129187
4184	0	0.132075
4185	0	0.13643
4186	0	0.186583
4187	0	0.22933
4188	0	0.24078
4189	0	0.5
4190	0	0.5
4191	0	1
4192	0	0
4193	0	0
4194	0	0
4195	0	0.333333
4196	0	0.333333
4197	0	0.3
4198	0	0.3
4199	0	0.5
4200	0	0
4201	0	0
4202	0	0
4203	0	0
4204	0	0
4205	0	0
4206	0	0
4207	0	0
4208	0	0
4209	0	0
4210	0	0
4211	0	0
4212	0	0
4213	0	0.1
4214	0	0
4215	0	0
4216	0	0
4217	0	0
4218	0	0
4219	0	0
4220	0	0
4221	0	0
4222	0	0
4223	0	0
4224	0	0
4225	0	0
4226	0	0.192308
4227	0	0.510638
4228	0	0.53284
4229	0	0.441931
4230	0	0.466939
4231	0	0.415094
4232	0	0.319696
4233	0	0.319696
4234	0	0.129804
4235	0	0.0277778
4236	0	0.272059
4237	0	0.0444444
4238	0	0.0444444
4239	0	0.0363636
4240	0	0.0151515
4241	0	0.047619
4242	0	0.0735294
4243	0	0.0684211
4244	0	0.0633333
4245	0	0.0633333
4246	0	0.0529101
4247	0	0.086357
4248	0	0.0821549
4249	0	0.32327
4250	0	0.228156
4251	0	0.22331
4252	0	0.21804
4253	0	0.14891
4254	0	0.151481
4255	0	0.466667
4256	0	0.334282
4257	0	0.315613
4258	0	0.259808
4259	0	0.215491
4260	0	0.190391
4261	0	0.172549
4262	0	0.100987
4263	0	0.0905136
4264	0	0.0606456
4265	0	0.111965
4266	0	0.0654227
4267	0	0.0818863
4268	0	0.0849511
4269	0	0.159827
4270	0	0.236364
4271	0	0.290909
4272	0	0.47619
4273	0	0.259745
4274	0	0.173203
4275	0	0.578039
4276	0	0.0863388
4277	0	0.0895342
4278	0	0.105458
4279	0	0.103448
4280	0	0.12069
4281	0	0.185185
4282	0	0.264822
4283	0	0.294372
4284	0	0.458874
4285	0	0.458874
4286	0	0.541502
4287	0	0.513333
4288	0	0.682266
4289	0	0.741379
4290	0	0.859788
4291	0	0.859788
4292	0	0.868498
4293	0	0.66826
4294	0	0.672299
4295	0	1
4296	0	1
4297	0	1
4298	0	0.744589
4299	0	0.666667
4300	0	0.666667
4301	0	0.675325
4302	0	0.675325
4303	0	0.675325
4304	0	0.675325
4305	0	0.896112
4306	0	0.307692
4307	0	0.865361
4308	0	0
4309	0	0
4310	0	0
4311	0	0
4312	0	0
4313	0	0
4314	0	0
4315	0	0
4316	0	0
4317	0	0
4318	0	0
4319	0	0
4320	0	0
4321	0	0
4322	0	0
4323	0	0
4324	0	0
4325	0	0
4326	0	0
4327	0	0
4328	0	0
4329	0	0
4330	0	0
4331	0	0
4332	0	0
4333	0	0
4334	0	0
4335	0	0
4336	0	0
4337	0	0
4338	0	0
4339	0	0
4340	0	0
4341	0	0
4342	0	0
4343	0	0
4344	0	0
4345	0	0
4346	0	0
4347	0	0
4348	0	0.461538
4349	0	0.897193
4350	0	0.9181
4351	0	0.931288
4352	0	0.942825
4353	0	0.942826
4354	0	0
4355	0	1
4356	0	1
4357	0	1
4358	0	1
4359	0	1
4360	0	1
4361	0	1
4362	0	1
4363	0	1
4364	0	1
4365	0	1
4366	0	0.428571
4367	0	1
4368	0	0.984499
4369	0	0.305556
4370	0	0.288889
4371	0	0.288889
4372	0	0.977889
4373	0	0.977889
4374	0	0.977889
4375	0	0.977889
4376	0	0
4377	0	0
4378	0	0
4379	0	0
4380	0	0
4381	0	0
4382	0	0
4383	0	0
4384	0	0
4385	0	0.977909
4386	0	0.977909
4387	0	0.977909
4388	0	0.977909
4389	0	0.943474
4390	0	0.777177
4391	0	0.778179
4392	0	0
4393	0	0
4394	0	0
4395	0	0
4396	0	0
4397	0	0
4398	0	0
4399	0	0
4400	0	0
4401	0	0
4402	0	0
4403	0	0
4404	0	0
4405	0	0
4406	0	0
4407	0	0
4408	0	0
4409	0	0
4410	0	0
4411	0	0
4412	0	0
4413	0	0
4414	0	0
4415	0	0
4416	0	0
4417	0	0
4418	0	0
4419	0	0.784692
4420	0	0.989735
4421	0	0.989735
4422	0	0.977868
4423	0	0
4424	0	0
4425	0	0
4426	0	0
4427	0	0.333333
4428	0	0.333333
4429	0	0.988023
4430	0	0.994859
4431	0	0.996591
4432	0	0.996591
4433	0	0.996591
4434	0	0.996591
4435	0	0.996591
4436	0	0.998294
4437	0	0
4438	0	0
4439	0	0
4440	0	0
4441	0	0
4442	0	0
4443	0	0
4444	0	0
4445	0	0
4446	0	0
4447	0	0
4448	0	0
4449	0	0
4450	0	0
4451	0	0
4452	0	0
4453	0	0
4454	0	0
4455	0	0
4456	0	0
4457	0	0
4458	0	0
4459	0	0
4460	0	0
4461	0	0
4462	0	0
4463	0	0
4464	0	0
4465	0	0
4466	0	0
4467	0	0
4468	0	0
4469	0	0
4470	0	0
4471	0	0
4472	0	0
4473	0	0
4474	0	0
4475	0	0
4476	0	0
4477	0	0
4478	0	0
4479	0	0
4480	0	0
4481	0	0
4482	0	0
4483	0	0
4484	0	0
4485	0	0
4486	0	0
4487	0	0
4488	0	0
4489	0	0
4490	0	0.998294
4491	0	0.998294
4492	0	0.998294
4493	0	0.998294
4494	0	0.998294
4495	0	0.998294
4496	0	0.998294
4497	0	0.996591
4498	0	0.996591
4499	0	0.998295
4500	0	0.998295
4501	0	0.998295
4502	0	0.998295
4503	0	0.998295
4504	0	0.998295
4505	0	0.998295
4506	0	0.998295
4507	0	0
4508	0	0
4509	0	0
4510	0	0.47619
4511	0	0.666667
4512	0	0.142857
4513	0	0.986288
4514	0	0.846154
4515	0	0.846154
4516	0	0.846154
4517	0	0.846154
4518	0	0.846154
4519	0	0.846154
4520	0	0.725275
4521	0	0.65
4522	0	0.723681
4523	0	0.856119
4524	0	0.194444
4525	0	0.285714
4526	0	0.787436
4527	0	0.214286
4528	0	0.994894
4529	0	0.994894
4530	0	0.996594
4531	0	0.996594
4532	0	0.996594
4533	0	0
4534	0	0
4535	0	0
4536	0	0
4537	0	0
4538	0	0
4539	0	0
4540	0	0
4541	0	0
4542	0	0
4543	0	0
4544	0	0
4545	0	0.996597
4546	0	0.996597
4547	0	0.996594
4548	0	0.996594
4549	0	0.996594
4550	0	0.996591
4551	0	0.996591
4552	0	0.996591
4553	0	0.996591
4554	0	0.996591
4555	0	0
4556	0	0
4557	0	0
4558	0	0
4559	0	0
4560	0	0.996591
4561	0	0.996591
4562	0	0.996591
4563	0	0.996591
4564	0	0
4565	0	0
4566	0	0
4567	0	0
4568	0	0
4569	0	0
4570	0	0
4571	0	0
4572	0	0
4573	0	0
4574	0	0
4575	0	0
4576	0	0
4577	0	0
4578	0	0
4579	0	0
4580	0	0
4581	0	0
4582	0	0
4583	0	0
4584	0	0
4585	0	0
4586	0	0
4587	0	0
4588	0	0
4589	0	0
4590	0	0
4591	0	0
4592	0	0
4593	0	0
4594	0	0
4595	0	0
4596	0	0
4597	0	0
4598	0	0
4599	0	0
4600	0	0
4601	0	0
4602	0	0
4603	0	0
4604	0	0
4605	0	0
4606	0	0
4607	0	0
4608	0	0
4609	0	0
4610	0	0
4611	0	0
4612	0	0
4613	0	0
4614	0	0
4615	0	0
4616	0	0
4617	0	0
4618	0	0
4619	0	0
4620	0	0
4621	0	0
4622	0	0
4623	1	0
4624	1	0
4625	1	0
4626	1	0
4627	1	0
4628	1	0
4629	1	0
4630	1	0
4631	1	0
4632	1	0
4633	1	0
4634	1	0
4635	1	0
4636	1	0
4637	1	0
4638	1	0
4639	1	0
4640	1	0
4641	1	0
4642	1	0
4643	1	0
4644	1	0
4645	1	0
4646	1	0
4647	1	0
4648	1	0
4649	1	0
4650	1	0
4651	0	0
4652	0	0
4653	0	0
4654	0	0
4655	0	0
4656	0	0
4657	0	0
4658	0	0
4659	0	0
4660	0	0
4661	0	0
4662	0	0
4663	0	0
4664	0	0
4665	0	0
4666	0	0
4667	0	0
4668	0	0
4669	0	0
4670	0	0
4671	0	0
4672	0	0
4673	0	0
4674	0	0
4675	0	0
4676	0	0
4677	0	0
4678	0	0
4679	0	0
4680	0	0.996588
4681	0	0.996588
4682	0	0
4683	0	0
4684	0	0
4685	0	0
4686	0	0
4687	0	0
4688	0	0
4689	0	0
4690	0	0
4691	1	0
4692	1	0
4693	1	0
4694	1	0
4695	1	0
4696	1	0
4697	0	0
4698	0	0
4699	0	0
4700	0	0
4701	0	0
4702	0	0
4703	0	0
4704	0	0
4705	0	0
4706	0	0.166667
4707	0	0.5
4708	0	0.6
4709	0	0.6
4710	0	0.6
4711	0	0.6
4712	0	0.6
4713	0	0.6
4714	0	0.742294
4715	0	0.99658
4716	0	0.99658
4717	0	0.99658
4718	0	0.99658
4719	0	0.99658
4720	0	0.996577
4721	0	0.8
4722	0	0.654545
4723	0	0.654545
4724	0	0.4
4725	0	0.96806
4726	0	0.47619
4727	0	0.47619
4728	0	0.47619
4729	0	0.47619
4730	0	0.285714
4731	0	0.614211
4732	0	0.705128
4733	0	0.705128
4734	0	0.705128
4735	0	0.705128
4736	0	0.705128
4737	0	0.681818
4738	0	0.681818
4739	0	0.257576
4740	0	0.257576
4741	0	0.879871
4742	0	0.87438
4743	0	0.377143
4744	0	0.377143
4745	0	0.8245
4746	0	0.803156
4747	0	0.587795
4748	0	0.466548
4749	0	0.2
4750	0	0.333333
4751	0	0
4752	0	0
4753	0	0
4754	0	0
4755	0	0
4756	0	0
4757	0	0.3
4758	0	0.3
4759	0	0.3
4760	0	0.3
4761	0	0.3
4762	0	0.3
4763	0	0.41741
4764	0	0.305792
4765	0	0.262233
4766	0	0.23168
4767	0	0.214499
4768	0	0.134586
4769	0	0.161662
4770	0	0.20683
4771	0	0.255168
4772	0	0.221119
4773	0	0.188367
4774	0	0.216482
4775	0	0.221275
4776	0	0.104822
4777	0	0.129481
4778	0	0
4779	0	0
4780	0	0
4781	0	0
4782	0	0
4783	0	0
4784	0	0.068981
4785	0	0.0804598
4786	0	0.184391
4787	0	0.037037
4788	0	0.0474308
4789	0	0.167925
4790	0	0.0666667
4791	0	0.0666667
4792	0	0
4793	0	0.431373
4794	0	0.265993
4795	0	0.279461
4796	0	0.279461
4797	0	0.279461
4798	0	0.365419
4799	0	0.360071
4800	0	0.360071
4801	0	0.360071
4802	0	0.295875
4803	0	0.295875
4804	0	0.145424
4805	0	0.066306
4806	0	0.215924
4807	0	0.12963
4808	0	0.110837
4809	0	0.100985
4810	0	0.130435
4811	0	0.164502
4812	0	0.147619
4813	0	0.147619
4814	0	0.139785
4815	0	0.148148
4816	0	0.168091
4817	0	0.212121
4818	0	0.246753
4819	0	0.389113
4820	0	0.329412
4821	0	0.329412
4822	0	0.208333
4823	0	0.105263
4824	0	0.583333
4825	0	0.583333
4826	0	0.583333
4827	0	0.583333
4828	0	0.583333
4829	0	0.466667
4830	0	0
4831	0	0
4832	0	0.105323
4833	0	0.11592
4834	0	0.116187
4835	0	0.137033
4836	0	0.14129
4837	0	0.147094
4838	0	0.182757
4839	0	0.185223
4840	0	0.196084
4841	0	0.186862
4842	0	0.129671
4843	0	0.1429
4844	0	0.0666667
4845	0	0.0666667
4846	0	0.111111
4847	0	0.138889
4848	0	0.138889
4849	0	0.128205
4850	0	0.236364
4851	0	0.236364
4852	0	0.236364
4853	0	0.288889
4854	0	0.737805
4855	0	0.737805
4856	0	0.411215
4857	0	0.428644
4858	0	0.333333
4859	0	0.333333
4860	0	0.6
4861	0	0.6
4862	0	0.6
4863	0	0.6
4864	0	0.6
4865	0	0.6
4866	0	0.6
4867	0	0.6
4868	0	0.6
4869	0	0.6
4870	0	0.6
4871	0	0.2
4872	0	0.2
4873	0	0.2
4874	0	0.333333
4875	0	0.333333
4876	0	0.333333
4877	0	0.333333
4878	0	0.333333
4879	0	0.6
4880	0	0.6
4881	0	0.6
4882	0	0.4
4883	0	0.4
4884	0	0.550379
4885	0	0.3
4886	0	0.4
4887	0	0.513834
4888	0	0.169043
4889	0	0.149061
4890	0	0.148608
4891	0	0.159592
4892	0	0.186813
4893	0	0.186813
4894	0	0.208791
4895	0	0.192308
4896	0	0.192308
4897	0	0.166667
4898	0	0.166667
4899	0	0.166667
4900	0	0.166667
4901	0	0.121212
4902	0	0.102564
4903	0	0.111111
4904	0	0.120879
4905	0	0.20357
4906	0	0.204477
4907	0	0.20487
4908	0	0.205914
4909	0	0.197228
4910	0	0.174387
4911	0	0.20858
4912	0	0.225305
4913	0	0.28309
4914	0	0.0739496
4915	0	0.0797721
4916	0	0.0826211
4917	0	0.13834
4918	0	0.151515
4919	0	0.17619
4920	0	0.17316
4921	0	0.36044
4922	0	0.458543
4923	0	0.339744
4924	0	0.39359
4925	0	0.737493
4926	0	0.829841
4927	0	0.225379
4928	0	0.336667
4929	0	0.181818
4930	0	0.175824
4931	0	0.208791
4932	0	0.263736
4933	0	0.25
4934	0	0.457143
4935	0	0.469697
4936	0	1
4937	0	1
4938	0	1
4939	0	0.8
4940	0	1
4941	0	0.900377
4942	0	0.971474
4943	0	0.911795
4944	0	0.998294
4945	0	0.998294
4946	0	0.998295
4947	0	0.998295
4948	0	0.998295
4949	0	0.998295
4950	0	0.998295
4951	0	0
4952	0	0
4953	0	0
4954	0	0.998294
4955	0	0.998294
4956	0	0.998294
4957	0	0.998294
4958	0	1
4959	1	1
4960	1	1
4961	1	1
4962	1	1
4963	0	1
4964	0	1
4965	0	0.996567
4966	0	1
4967	0	1
4968	0	1
4969	0	0.958424
4970	0	1
4971	0	0.784884
4972	0	0.535867
4973	0	0.991968
4974	0	0.996571
4975	0	0.996571
4976	0	0.996571
4977	0	0.996571
4978	0	0.996571
4979	0	0.996571
4980	0	0.333333
4981	0	0.333333
4982	0	0.333333
4983	0	0
4984	0	0
4985	0	0
4986	0	0
4987	0	0
4988	0	0
4989	0	0
4990	0	0.333333
4991	0	0.333333
4992	0	0.333333
4993	0	0.333333
4994	0	0.333333
4995	0	0.166667
4996	0	0.1
4997	0	0.3
4998	0	0.986357
4999	0	0.994867
5000	0	0.996577
5001	0	0.996577
5002	0	0.996577
5003	1	0
5004	1	0
5005	1	0
5006	1	0
5007	1	0
5008	1	0
5009	1	0
5010	1	0
5011	1	0
5012	1	0
5013	1	0
5014	1	0
5015	1	0
5016	1	0
5017	1	0
5018	1	0
5019	1	0
5020	1	0
5021	1	0
5022	1	0
5023	1	0
5024	1	0
5025	1	0
5026	1	0
5027	1	0
5028	1	0
5029	1	0
5030	1	0
5031	1	0
5032	1	0
5033	1	0
5034	1	0
5035	1	0
5036	1	0
5037	1	0
5038	1	0
5039	1	0
5040	1	0
5041	1	0
5042	1	0
5043	1	0
5044	0	0.996583
5045	0	0.996583
5046	0	0.996583
5047	0	0.996583
5048	0	0.996583
5049	0	0.996583
5050	0	0.996583
5051	0	0.996583
5052	0	0.996583
5053	0	0.996583
5054	0	0.996583
5055	0	0.996583
5056	0	0.996583
5057	0	0.99658
5058	0	0.99658
5059	0	0.99658
5060	0	0.99658
5061	0	0.99658
5062	0	1
5063	0	1
5064	0	1
5065	0	0
5066	0	0
5067	0	0
5068	0	0
5069	0	0
5070	0	0
5071	0	0
5072	0	0
5073	0	0
5074	0	0
5075	0	0
5076	0	0
5077	0	0
5078	0	0
5079	0	0
5080	0	0
5081	0	0
5082	0	0
5083	0	0
5084	0	0
5085	0	0
5086	0	0
5087	0	0
5088	0	0
5089	0	0
5090	0	0
5091	0	0
5092	0	0
5093	0	0
5094	0	0
5095	0	0
5096	0	0
5097	0	0
5098	0	0
5099	0	0
5100	0	0
5101	0	0
5102	0	0
5103	0	0
5104	0	0
5105	0	0
5106	0	0
5107	0	0.993154
5108	0	0.993154
5109	0	0.991453
5110	0	0.991453
5111	0	0.993154
5112	0	0.993154
5113	0	0.993154
5114	0	0.993154
5115	0	0.993148
5116	0	0.993148
5117	0	0
5118	0	0
5119	0	0
5120	0	0
5121	0	0
5122	0	0
5123	0	0
5124	0	0
5125	0	0
5126	0	0
5127	0	0
5128	0	0
5129	0	0
5130	0	0
5131	0	0
5132	0	0
5133	0	0
5134	0	0
5135	0	0
5136	0	0
5137	0	0
5138	0	0
5139	0	0
5140	0	0
5141	0	0
5142	0	0
5143	0	0
5144	0	0
5145	0	0
5146	0	0
5147	0	0
5148	0	0
5149	0	0
5150	0	0
5151	0	0
5152	0	0
5153	0	0
5154	0	0
5155	0	0
5156	0	0
5157	0	0
5158	0	0
5159	0	0
5160	0	0
5161	0	0
5162	0	0
5163	0	0
5164	0	0
5165	0	0
5166	0	0
5167	0	0
5168	0	0
5169	0	0
5170	0	0
5171	0	0
5172	0	0
5173	0	0
5174	0	0
5175	0	0
5176	0	0
5177	0	0
5178	0	0
5179	0	0
5180	0	0
5181	0	0
5182	0	0
5183	0	0
5184	0	0
5185	0	0
5186	0	0
5187	0	0
5188	0	0
5189	0	0
5190	0	0
5191	0	0
5192	0	0
5193	0	0
5194	0	0
5195	0	0
5196	0	0
5197	0	0
5198	0	0
5199	0	0
5200	0	0
5201	0	0
5202	0	0
5203	0	0
5204	0	0
5205	0	0
5206	0	0
5207	0	0
5208	0	0
5209	0	0
5210	0	0
5211	0	0
5212	0	0
5213	0	0
5214	0	0
5215	0	0
5216	0	0
5217	0	0
5218	0	0
5219	0	0
5220	0	0
5221	0	0
5222	0	0
5223	0	0
5224	0	0
5225	0	0
5226	0	0
5227	0	0
5228	0	0
5229	0	0
5230	0	0
5231	0	0
5232	0	0
5233	0	0
5234	0	0
5235	0	0
5236	0	0
5237	0	0
5238	0	0
5239	0	0
5240	0	0
5241	0	0
5242	0	0
5243	0	0
5244	0	0
5245	0	0
5246	0	0
5247	0	0
5248	0	0
5249	0	0
5250	0	0
5251	0	0
5252	0	0
5253	0	0
5254	0	0
5255	0	0
5256	0	0
5257	0	0
5258	0	0
5259	0	0
5260	0	0
5261	0	0
5262	0	0
5263	0	0
5264	0	0
5265	0	0
5266	0	0
5267	0	0
5268	0	0
5269	0	0
5270	0	0
5271	0	0
5272	0	0
5273	0	0
5274	0	0
5275	0	0
5276	0	0.5
5277	0	0.5
5278	0	0.5
5279	0	0.989717
5280	0	0.989717
5281	0	0.989717
5282	0	0.222222
5283	0	0.222222
5284	0	0.986283
5285	0	0
5286	0	0
5287	0	0
5288	0	0
5289	0	0
5290	0	0
5291	0	0
5292	0	0
5293	0	0
5294	0	0
5295	0	0
5296	0	0
5297	0	0
5298	0	0
5299	0	0
5300	0	0
5301	0	0
5302	0	0
5303	0	0
5304	0	0
5305	0	0
5306	0	0
5307	0	0
5308	0	0
5309	0	0
5310	0	0
5311	0	0
5312	0	0
5313	0	0
5314	0	0
5315	0	0
5316	0	0
5317	0	0
5318	0	0
5319	0	0
5320	0	0
5321	0	0
5322	0	0
5323	0	0
5324	0	0
5325	0	0
5326	0	0
5327	0	0
5328	0	0
5329	0	0
5330	0	0
5331	0	0
5332	0	0
5333	0	0
5334	0	0
5335	0	0
5336	0	0
5337	0	0
5338	0	0
5339	0	0
5340	0	0
5341	0	0
5342	0	0
5343	0	0
5344	0	0
5345	0	0
5346	0	0
5347	0	0
5348	0	0
5349	0	0
5350	0	0
5351	0	0
5352	0	0
5353	0	0
5354	0	0
5355	0	0
5356	0	0
5357	0	0
5358	0	0
5359	0	0
5360	0	0
5361	0	0
5362	0	0
5363	0	0
5364	0	0
5365	0	0
5366	0	0
5367	0	0
5368	0	0
5369	0	0
5370	0	0
5371	0	0
5372	0	0
5373	0	0
5374	0	0
5375	0	0
5376	0	0
5377	0	0
5378	0	0
5379	0	0
5380	0	0
5381	0	0
5382	0	0.986266
5383	0	0.729345
5384	0	0.729345
5385	0	0.729345
5386	0	0.934639
5387	0	0.934639
5388	0	1
5389	0	0.615385
5390	0	0.527473
5391	0	0.405405
5392	0	0.27907
5393	0	0.214912
5394	0	0.435792
5395	0	0.375723
5396	0	0.258503
5397	0	0.685107
5398	0	0.238095
5399	0	0.219048
5400	0	0.219048
5401	0	0.114286
5402	0	0.0761905
5403	0	0.0857143
5404	0	0.047619
5405	0	0.047619
5406	0	0.025
5407	0	0.689344
5408	0	0.733474
5409	0	0.1
5410	0	0
5411	0	0
5412	0	0
5413	0	0
5414	0	0
5415	0	0
5416	0	0
5417	0	0
5418	0	0
5419	0	0
5420	0	0
5421	0	0
5422	0	0
5423	0	0
5424	0	0
5425	0	0
5426	0	0
5427	0	0
5428	0	0
5429	0	0
5430	0	0.285714
5431	0	0.285714
5432	0	0.047619
5433	0	0
5434	0	0
5435	0	0
5436	0	0
5437	0	0
5438	0	0.166667
5439	0	0.166667
5440	0	0
5441	0	0
5442	0	0
5443	0	0
5444	0	0
5445	0	0
5446	0	0
5447	0	0
5448	0	0
5449	0	0
5450	0	0
5451	0	0
5452	0	0
5453	0	0
5454	0	0
5455	0	0
5456	0	0
5457	0	0
5458	0	0
5459	0	0.0666667
5460	0	0.0666667
5461	0	0.047619
5462	0	0.047619
5463	0	0.142857
5464	0	0.107143
5465	0	0.0357143
5466	0	0.0444444
5467	0	0.0606061
5468	0	0.0606061
5469	0	0.0641026
5470	0	0.043956
5471	0	0.0441176
5472	0	0.0467836
5473	0	0.0316206
5474	0	0.242424
5475	0	0.224792
5476	0	0.199468
5477	0	0.16492
5478	0	0.156902
5479	0	0.132787
5480	0	0.115891
5481	0	0.104406
5482	0	0.102703
5483	0	0.0813988
5484	0	0.0742369
5485	0	0.0705937
5486	0	0.0652921
5487	0	0.0576618
5488	0	0.0586137
5489	0	0.0588418
5490	0	0.0559776
5491	0	0.0559332
5492	0	0.0605664
5493	0	0.101216
5494	0	0.131418
5495	0	0.130112
5496	0	0.16106
5497	0	0.169745
5498	0	0.252289
5499	0	0.291833
5500	0	0.335926
5501	0	0.297377
5502	0	0.242049
5503	0	0.243951
5504	0	0.19102
5505	0	0.466667
5506	0	0.466667
5507	0	0.466667
5508	0	1
5509	0	0.442037
5510	0	0.750991
5511	0	0.825701
5512	0	0.827839
5513	0	0.430135
5514	0	0.789284
5515	0	0.237955
5516	0	0.65
5517	0	0.669118
5518	0	0.538978
5519	0	0.557522
5520	0	0.1133
5521	0	0.133333
5522	0	0.15415
5523	0	0.17316
5524	0	0.168831
5525	0	0.207792
5526	0	0.189723
5527	0	0.197628
5528	0	0.141935
5529	0	0.144086
5530	0	0.15121
5531	0	0.151515
5532	0	0.151515
5533	0	0.157197
5534	0	0.160428
5535	0	0.530446
5536	0	0
5537	0	0
5538	0	0
5539	0	0
5540	0	0
5541	0	0
5542	0	0
5543	0	0
5544	0	0
5545	0	0
5546	0	0
5547	0	0
5548	0	0
5549	0	0
5550	0	0
5551	0	0
5552	0	0
5553	0	0.722747
5554	0	0.402058
5555	0	0.25
5556	0	0.558333
5557	0	0.558333
5558	0	0.558333
5559	0	0
5560	0	0
5561	0	0
5562	0	0
5563	0	0
5564	0	0
5565	0	0
5566	0	0
5567	0	0
5568	0	0
5569	0	0
5570	0	0
5571	0	0
5572	0	0
5573	0	0
5574	0	0.857143
5575	0	0.857143
5576	0	0.857143
5577	0	0.857143
5578	0	0.857143
5579	0	0.907994
5580	0	0.904999
5581	0	0.904999
5582	0	0
5583	0	0
5584	0	0
5585	0	0.890949
5586	0	0.890856
5587	0	0.822511
5588	0	0.822511
5589	0	0.675889
5590	0	0.426122
5591	0	0.272817
5592	0	0.591067
5593	0	0.511806
5594	0	0
5595	0	0
5596	0	0
5597	0	0
5598	0	0
5599	0	0
5600	0	0.65812
5601	0	0.613757
5602	0	0.422915
5603	0	0
5604	0	0
5605	0	0
5606	0	0
5607	0	0
5608	0	0
5609	0	0
5610	0	0
5611	0	0
5612	0	0
5613	0	0
5614	0	0
5615	0	0
5616	0	0
5617	0	0
5618	0	0
5619	0	0
5620	0	0
5621	0	0
5622	0	0
5623	0	0
5624	0	0
5625	0	0
5626	0	0
5627	0	0
5628	0	0
5629	0	0
5630	0	0
5631	0	0
5632	0	0
5633	0	0
5634	0	0
5635	0	0
5636	0	0
5637	0	0
5638	0	0
5639	0	0
5640	0	0
5641	0	0
5642	0	0
5643	0	0
5644	0	0
5645	0	0
5646	0	0
5647	0	0
5648	0	0
5649	0	0
5650	0	0
5651	0	0
5652	0	0
5653	0	0
5654	0	0
5655	0	0
5656	0	0
5657	0	0
5658	0	0
5659	0	0
5660	0	0
5661	0	0
5662	0	0
5663	0	0
5664	0	0
5665	0	0
5666	0	0
5667	0	0
5668	0	0
5669	0	0
5670	0	0
5671	0	0
5672	0	0
5673	0	0
5674	0	0
5675	0	0
5676	0	0
5677	0	0
5678	0	0
5679	0	0
5680	0	0
5681	0	0
5682	0	0
5683	0	0
5684	0	0
5685	0	0
5686	0	0
5687	0	0
5688	0	0
5689	0	0
5690	0	0
5691	0	0
5692	0	0
5693	0	0
5694	0	0
5695	0	0
5696	0	0
5697	0	0
5698	0	0
5699	0	0
5700	0	0
5701	0	0
5702	0	0
5703	0	0
5704	0	0
5705	0	0
5706	0	0
5707	0	0
5708	0	0
5709	0	0
5710	0	0
5711	0	0
5712	0	0
5713	0	0
5714	0	0
5715	0	0
5716	0	0
5717	0	0
5718	0	0
5719	0	0
5720	0	0
5721	0	0
5722	0	0
5723	0	0
5724	0	0
5725	0	0
5726	0	0
5727	0	0
5728	0	0
5729	0	0
5730	0	0
5731	0	0
5732	0	0
5733	0	0
5734	0	0
5735	0	0
5736	0	0
5737	0	0
5738	0	0
5739	0	0
5740	0	0
5741	0	0
5742	0	0
5743	0	0
5744	0	0
5745	0	0
5746	0	0
5747	0	0
5748	0	0
5749	0	0
5750	0	0
5751	0	0
5752	0	0
5753	0	0
5754	0	0
5755	0	0
5756	0	0
5757	0	0
5758	0	0
5759	0	0
5760	0	0
5761	0	0
5762	0	0
5763	0	0
5764	0	0
5765	0	0
5766	0	0
5767	0	0
5768	0	0
5769	0	0
5770	0	0
5771	0	0
5772	0	0
5773	0	0
5774	0	0
5775	0	0
5776	0	0
5777	0	0
5778	0	0
5779	0	0
5780	0	0
5781	0	0
5782	0	0
5783	0	0
5784	0	0
5785	0	0
5786	0	0
5787	0	0
5788	0	0
5789	0	0
5790	0	0
5791	0	0
5792	0	0
5793	0	0
5794	0	0
5795	0	0
5796	0	0
5797	0	0
5798	0	0
5799	0	0
5800	0	0
5801	0	0
5802	0	0
5803	0	0
5804	0	0
5805	0	0
5806	0	0
5807	0	0
5808	0	0
5809	0	0
5810	0	0
5811	0	0
5812	0	0
5813	0	0
5814	0	0
5815	0	0
5816	0	0
5817	0	0
5818	0	0
5819	0	0
5820	0	0
5821	0	0
5822	0	0
5823	0	0
5824	0	0
5825	0	0
5826	0	0
5827	0	0
5828	0	0
5829	0	0
5830	0	0
5831	0	0
5832	0	0
5833	0	0
5834	0	0
5835	0	0
5836	0	0
5837	0	0
5838	0	0
5839	0	0
5840	0	0
5841	0	0
5842	0	0
5843	0	0
5844	0	0
5845	0	0
5846	0	0
5847	0	0
5848	0	0
5849	0	0
5850	0	0
5851	0	0
5852	0	0
5853	0	0
5854	0	0
5855	0	0
5856	0	0
5857	0	0
5858	0	0
5859	0	0
5860	0	0
5861	0	0
5862	0	0
5863	0	0
5864	0	0
5865	0	0
5866	0	0
5867	0	0
5868	0	0
5869	0	0
5870	0	0
5871	0	0
5872	0	0
5873	0	0
5874	0	0
5875	0	0
5876	0	0
5877	0	0
5878	0	0
5879	0	0
5880	0	0
5881	0	0
5882	0	0
5883	0	0
5884	0	0
5885	0	0
5886	0	0
5887	0	0
5888	0	0
5889	0	0
5890	0	0
5891	0	0
5892	0	0
5893	0	0
5894	0	0
5895	0	0
5896	0	0
5897	0	0
5898	0	0
5899	0	0
5900	0	0
5901	0	0
5902	0	0
5903	0	0
5904	0	0
5905	0	0
5906	0	0
5907	0	0
5908	0	0
5909	0	0
5910	0	0
5911	0	0
5912	0	0
5913	0	0
5914	0	0
5915	0	0
5916	0	0
5917	0	0
5918	0	0
5919	0	0
5920	0	0
5921	0	0
5922	0	0
5923	0	0
5924	0	0
5925	0	0
5926	0	0
5927	0	0
5928	0	0
5929	0	0
5930	0	0
5931	0	0
5932	0	0
5933	0	0
5934	0	0
5935	0	0
5936	0	0
5937	0	0
5938	0	0
5939	0	0
5940	0	0
5941	0	0
5942	0	0
5943	0	0
5944	0	0
5945	0	0
5946	0	0
5947	0	0
5948	0	0
5949	0	0
5950	0	0
5951	0	0
5952	0	0
5953	0	0
5954	0	0
5955	0	0
5956	0	0
5957	0	0
5958	0	0
5959	0	0
5960	0	0
5961	0	0
5962	0	0
5963	0	0
5964	0	0
5965	0	0
5966	0	0
5967	0	0
5968	0	0
5969	0	0
5970	0	0
5971	0	0
5972	0	0
5973	0	0
5974	0	0
5975	0	0
5976	0	0
5977	0	0
5978	0	0
5979	0	0
5980	0	0
5981	0	0
5982	0	0
5983	0	0
5984	0	0
5985	0	0
5986	0	0
5987	0	0
5988	0	0
5989	0	0
5990	0	0.198529
5991	0	0
5992	0	0
5993	0	0
5994	0	0
5995	0	0
5996	0	0
5997	0	0
5998	0	0.634714
5999	0	0
6000	0	0
6001	0	0
6002	0	0
6003	0	0
6004	0	0
6005	0	0
6006	0	0
6007	0	0
6008	0	0
6009	0	0
6010	0	0
6011	0	0
6012	0	0
6013	0	0
6014	0	0
6015	0	0
6016	0	0
6017	0	0
6018	0	0
6019	0	0
6020	0	0
6021	0	0
6022	0	0
6023	0	0
6024	0	0
6025	0	0.0357143
6026	0	0.258333
6027	0	0.258333
6028	0	0.227941
6029	0	0.227941
6030	0	0.852186
6031	0	0
6032	0	0
6033	0	0
6034	0	0
6035	0	0
6036	0	0
6037	0	0.428571
6038	0	0.428571
6039	0	0.812673
6040	0	0.760144
6041	0	0.762635
6042	0	0.273333
6043	0	0.236667
6044	0	0.257246
6045	0	0.257246
6046	0	0.236667
6047	0	0.233202
6048	0	0.233202
6049	0	0.166667
6050	0	0.134921
6051	0	0.633948
6052	0	0.606514
6053	0	0.603249
6054	0	0.184135
6055	0	0.184135
6056	0	0.149825
6057	0	0.137609
6058	0	0.133092
6059	0	0.169426
6060	0	0.54387
6061	0	0.5358
6062	0	0.592065
6063	0	0.417245
6064	0	0.385877
6065	0	0.381614
6066	0	0.38151
6067	0	0.390045
6068	0	0.554344
6069	0	0.326955
6070	0	0
6071	0	0
6072	0	0
6073	0	0
6074	0	0
6075	0	0
6076	0	0.163415
6077	0	0.162821
6078	0	0.055336
6079	0	0.052381
6080	0	0.0261438
6081	0	0.0175439
6082	0	0.0190476
6083	0	0.12253
6084	0	0.167852
6085	0	0
6086	0	0.269231
6087	0	0
6088	0	0
6089	0	0.157143
6090	0	0.148649
6091	0	0.142248
6092	0	0.117386
6093	0	0.0986395
6094	0	0.042042
6095	0	0.0881954
6096	0	0.189532
6097	0	0.0985356
6098	0	0.0929915
6099	0	0.135236
6100	0	0.0796586
6101	0	0.117936
6102	0	0.110982
6103	0	0.114363
6104	0	0.333333
6105	0	0.333333
6106	0	0.333333
6107	0	0
6108	0	0
6109	0	0
6110	0	0
6111	0	0
6112	0	0
6113	0	0
6114	0	0
6115	0	0
6116	0	0
6117	0	0
6118	0	0
6119	0	0
6120	0	0
6121	0	0
6122	0	0
6123	0	0
6124	0	0
6125	0	0
6126	0	0
6127	0	0
6128	0	0
6129	0	0
6130	0	0
6131	0	0
6132	0	0
6133	0	0
6134	0	0
6135	0	0
6136	0	0
6137	0	0
6138	0	0
6139	0	0
6140	0	0
6141	0	0
6142	0	0
6143	0	0
6144	0	0
6145	0	0
6146	0	0
6147	0	0
6148	0	0
6149	0	0
6150	0	0
6151	0	0
6152	0	0
6153	0	0
6154	0	0
6155	0	0
6156	0	0
6157	0	0
6158	0	0
6159	0	0
6160	0	0
6161	0	0
6162	0	0
6163	0	0
6164	0	0
6165	0	0
6166	0	0
6167	0	0
6168	0	0
6169	0	0
6170	0	0
6171	0	0
6172	0	0
6173	0	0
6174	0	0
6175	0	0
6176	0	0
6177	0	0
6178	0	0
6179	0	0
6180	0	0
6181	0	0
6182	0	0
6183	0	0
6184	0	0
6185	1	0
6186	1	0
6187	1	0
6188	1	0
6189	0	0
6190	0	0
6191	0	0
6192	0	0
6193	0	0
6194	1	0
6195	0	0
6196	1	0
6197	1	0
6198	1	0
6199	1	0
6200	1	0
6201	1	0
6202	1	0
6203	1	0
6204	1	0
6205	0	0
6206	0	0
6207	0	0
6208	0	0
6209	0	0
6210	0	0
6211	0	0
6212	0	0
6213	0	0
6214	0	0
6215	0	0
6216	0	0
6217	0	0
6218	0	0
6219	0	0
6220	0	0
6221	0	0
6222	0	0
6223	0	0
6224	0	0
6225	0	0
6226	0	0
6227	0	0
6228	0	0
6229	0	0
6230	0	0
6231	0	0
6232	0	0
6233	0	0
6234	0	0
6235	0	0
6236	0	0
6237	0	0
6238	0	0
6239	0	0
6240	0	0
6241	0	0
6242	0	0
6243	0	0
6244	0	0
6245	0	0
6246	0	0
6247	0	0
6248	0	0
6249	0	0
6250	0	0
6251	0	0
6252	0	0
6253	0	0
6254	0	0
6255	0	0
6256	0	0
6257	0	0
6258	0	0
6259	0	0
6260	0	0
6261	0	0
6262	0	0
6263	0	0
6264	0	0
6265	0	0
6266	0	0
6267	0	0
6268	0	0
6269	0	0
6270	0	0
6271	0	0
6272	0	0
6273	0	0
6274	1	0
6275	1	0
6276	1	0
6277	1	0
6278	1	0
6279	1	0
6280	1	0
6281	1	0
6282	1	0
6283	1	0
6284	0	0
6285	0	0
6286	1	0
6287	1	0
6288	1	0
6289	1	0
6290	1	0
6291	0	0
6292	0	0
6293	0	0
6294	1	0
6295	1	0
6296	1	0
6297	1	0
6298	1	0
6299	1	0
6300	1	0
6301	1	0
6302	0	0
6303	0	0
6304	0	0
6305	0	0
6306	0	0
6307	0	0
6308	0	0
6309	0	0
6310	0	0
6311	0	0
6312	0	0
6313	0	0
6314	0	0
6315	0	0
6316	0	0
6317	0	0
6318	0	0
6319	0	0
6320	0	0
6321	0	0
6322	0	0
6323	0	0
6324	0	0
6325	0	0
6326	0	0
6327	0	0
6328	0	0
6329	0	0
6330	0	0
6331	0	0
6332	0	0
6333	0	0
6334	0	0
6335	0	0
6336	0	0
6337	0	0
6338	0	0
6339	0	0
6340	0	0
6341	0	0
6342	0	0
6343	0	0
6344	0	0
6345	0	0
6346	0	0
6347	0	0
6348	0	0
6349	0	0
6350	0	0
6351	0	0
6352	0	0
6353	0	0
6354	0	0
6355	0	0
6356	0	0
6357	0	0
6358	0	0
6359	0	0
6360	0	0
6361	0	0
6362	0	0
6363	0	0
6364	0	0
6365	0	0
6366	0	0
6367	0	0
6368	0	0
6369	0	0
6370	0	0
6371	0	0
6372	0	0
6373	0	0
6374	0	0
6375	0	0
6376	0	0
6377	0	0.141129
6378	0	0.123083
6379	0	0.0995921
6380	0	0.348358
6381	0	0.256315
6382	0	0.126984
6383	0	0.108466
6384	0	0.134387
6385	0	0.147186
6386	0	0.181287
6387	0	0.181287
6388	0	0.146199
6389	0	0.183824
6390	0	0.183824
6391	0	0.125
6392	0	0.125
6393	0	0.205128
6394	0	0.272727
6395	0	0.367589
6396	0	0.367589
6397	0	0.384058
6398	0	0.301994
6399	0	0.264957
6400	0	0.160822
6401	0	0.188292
6402	0	0.183604
6403	0	0.208305
6404	0	0.206771
6405	0	0.210197
6406	0	0.220198
6407	0	0.214059
6408	0	0.191729
6409	0	0.158175
6410	0	0.20915
6411	0	0.206006
6412	0	0.0833333
6413	0	0
6414	0	0
6415	0	0
6416	0	0
6417	0	0
6418	0	0
6419	0	0
6420	0	0
6421	0	0
6422	0	0
6423	0	0
6424	0	0
6425	0	0
6426	0	0
6427	0	0
6428	0	0
6429	0	0
6430	0	0
6431	0	0
6432	0	0
6433	0	0
6434	0	0
6435	0	0
6436	0	0
6437	0	0
6438	0	0
6439	0	0
6440	0	0
6441	0	0
6442	0	0
6443	0	0
6444	0	0
6445	1	0
6446	0	0
6447	0	0
6448	0	0
6449	0	0
6450	0	0
6451	0	0
6452	0	0
6453	0	0
6454	0	0
6455	0	0
6456	0	0
6457	0	0
6458	0	0
6459	0	0
6460	0	0
6461	0	0
6462	0	0
6463	0	0
6464	0	0
6465	0	0
6466	0	0
6467	0	0
6468	0	0
6469	0	0
6470	0	0
6471	0	0
6472	0	0
6473	0	0
6474	0	0
6475	0	0
6476	0	0
6477	0	0
6478	0	0
6479	0	0
6480	0	0
6481	0	0
6482	0	0
6483	0	0
6484	0	0
6485	0	0
6486	0	0
6487	0	0
6488	0	0
6489	0	0
6490	0	0
6491	0	0
6492	0	0
6493	0	0
6494	0	0
6495	0	0
6496	0	0
6497	0	0
6498	0	0
6499	0	0
6500	0	0
6501	0	0
6502	0	0
6503	0	0
6504	0	0
6505	0	0
6506	0	0
6507	0	0
6508	0	0
6509	0	0
6510	0	0
6511	0	0
6512	0	0
6513	0	0
6514	0	0
6515	0	0
6516	0	0
6517	0	0
6518	0	0
6519	0	0
6520	0	0
6521	0	0
6522	0	0
6523	0	0
6524	0	0
6525	0	0
6526	0	0
6527	0	0
6528	0	0
6529	0	0
6530	0	0
6531	0	0
6532	0	0
6533	0	0
6534	0	0
6535	0	0
6536	0	0
6537	0	0
6538	0	0
6539	0	0
6540	0	0
6541	0	0
6542	0	0
6543	0	0
6544	0	0
6545	0	0
6546	0	0
6547	0	0
6548	0	0
6549	0	0
6550	0	0
6551	0	0
6552	0	0
6553	0	0
6554	0	0
6555	0	0
6556	0	0
6557	0	0
6558	0	0
6559	0	0
6560	0	0
6561	0	0
6562	0	0
6563	0	0
6564	0	0
6565	0	0
6566	0	0
6567	0	0
6568	0	0
6569	0	0
6570	0	0
6571	0	0
6572	0	0
6573	0	0
6574	0	0
6575	0	0
6576	0	0
6577	0	0
6578	0	0
6579	0	0
6580	0	0
6581	0	0
6582	0	0
6583	0	0
6584	0	0
6585	0	0
6586	0	0
6587	0	0
6588	0	0
6589	0	0
6590	0	0
6591	0	0
6592	0	0
6593	0	0
6594	0	0
6595	0	0
6596	0	0
6597	0	0
6598	0	0
6599	0	0
6600	0	0
6601	0	0
6602	0	0
6603	0	0
6604	0	0
6605	0	0
6606	0	0
6607	0	0
6608	0	0
6609	0	0
6610	0	0
6611	0	0
6612	0	0
6613	0	0
6614	0	0
6615	0	0
6616	0	0
6617	0	0
6618	0	0
6619	0	0
6620	0	0
6621	0	0
6622	0	0
6623	0	0
6624	0	0
6625	0	0
6626	0	0
6627	0	0
6628	0	0
6629	0	0
6630	0	0
6631	0	0
6632	0	0
6633	0	0
6634	0	0
6635	0	0
6636	0	0.2
6637	0	0.285714
6638	0	0.285714
6639	0	0.285714
6640	0	0.154623
6641	0	0.172985
6642	0	0.206158
6643	0	0
6644	0	0
6645	0	0
6646	0	0
6647	0	0
6648	0	0
6649	0	0
6650	0	0
6651	0	0
6652	0	0
6653	0	0
6654	0	0
6655	0	0
6656	0	0
6657	0	0.263946
6658	0	0.272727
6659	0	0.272727
6660	0	0.32381
6661	0	0.391813
6662	0	0.352632
6663	0	0.0357143
6664	0	0.047619
6665	0	0.532164
6666	0	0.221774
6667	0	0.163492
6668	0	0.230918
6669	0	0.186508
6670	0	0.205004
6671	0	0.326514
6672	0	0.349725
6673	0	0.329412
6674	0	0.349504
6675	0	0.358367
6676	0	0.354209
6677	0	0.419592
6678	0	0.654655
6679	0	0.720798
6680	0	0.76784
6681	0	0.85899
6682	0	0.879881
6683	0	0.272727
6684	0	0.416667
6685	0	0.416667
6686	0	0.416667
6687	0	0.973838
6688	0	0
6689	0	0
6690	0	0
6691	0	0
6692	0	0
6693	0	0
6694	0	0
6695	0	0
6696	0	0.959203
6697	0	0.976122
6698	0	0.976122
6699	0	0.976122
6700	0	0.976122
6701	0	0.977818
6702	0	0.979496
6703	0	0.981181
6704	0	0.979496
6705	0	0.979496
6706	0	0.981181
6707	0	0.981181
6708	0	0
6709	0	0
6710	0	0
6711	0	0
6712	0	0
6713	0	0
6714	0	0
6715	0	0
6716	0	0
6717	0	0
6718	0	0
6719	0	0.981165
6720	0	0.981165
6721	0	0.979461
6722	0	0.977778
6723	0	0.977778
6724	0	0.97269
6725	0	0.97269
6726	0	0.333333
6727	0	0.333333
6728	0	0.97403
6729	0	0.431373
6730	0	0.431373
6731	0	0.431373
6732	0	0.431373
6733	0	0.431373
6734	0	0.431373
6735	0	0.933296
6736	0	0.638095
6737	0	0.638095
6738	0	0.638095
6739	0	0.638095
6740	0	0.638095
6741	0	0.638095
6742	0	0.910402
6743	0	0.5
6744	0	0.5
6745	0	0.5
6746	0	0.5
6747	0	0.5
6748	0	0.5
6749	0	0.5
6750	0	0.5
6751	0	0.5
6752	0	0.166667
6753	0	0
6754	0	0.928026
6755	0	0.333333
6756	0	0
6757	1	0
6758	0	0
6759	1	0
6760	1	0
6761	1	0
6762	0	0
6763	0	0
6764	0	0
6765	0	0
6766	0	0
6767	0	0
6768	0	0
6769	0	0
6770	0	0
6771	0	0
6772	0	0
6773	0	0
6774	0	0
6775	0	0
6776	0	0
6777	0	0
6778	0	0
6779	0	0
6780	0	0
6781	0	0
6782	0	0
6783	0	0
6784	0	0
6785	0	0
6786	0	0
6787	0	0
6788	0	0
6789	0	0
6790	0	0
6791	0	0
6792	0	0
6793	0	0
6794	0	0
6795	0	0
6796	0	0
6797	0	0
6798	0	0
6799	0	0
6800	0	0
6801	0	0
6802	0	0
6803	0	0
6804	0	0
6805	0	0
6806	0	0
6807	0	0
6808	1	0
6809	1	0
6810	1	0
6811	0	0
6812	0	0
6813	0	0
6814	0	0
6815	0	0
6816	0	0
6817	0	0
6818	0	0
6819	0	0
6820	0	0
6821	0	0
6822	0	0
6823	0	0
6824	0	0
6825	0	0
6826	0	0
6827	0	0
6828	0	0
6829	0	0
6830	0	0
6831	0	0
6832	0	0
6833	0	0
6834	0	0
6835	0	0
6836	0	0
6837	0	0
6838	1	0
6839	0	0
6840	0	0
6841	0	0
6842	0	0
6843	0	0
6844	0	0
6845	0	0
6846	0	0
6847	0	0
6848	0	0
6849	0	0
6850	0	0
6851	0	0
6852	0	0
6853	0	0
6854	0	0
6855	0	0
6856	0	0
6857	0	0
6858	0	0
6859	0	0
6860	0	0
6861	0	0
6862	0	0
6863	0	0
6864	0	0
6865	0	0
6866	0	0
6867	0	0
6868	0	0
6869	0	0
6870	0	0
6871	0	0
6872	0	0
6873	0	0
6874	0	0
6875	0	0
6876	0	0
6877	0	0
6878	0	0
6879	0	0
6880	0	0
6881	0	0
6882	0	0
6883	0	0
6884	0	0
6885	0	0
6886	0	0
6887	0	0
6888	0	0
6889	0	0
6890	0	0
6891	0	0
6892	0	0
6893	0	0
6894	0	0
6895	0	0
6896	0	0
6897	0	0
6898	0	0
6899	0	0
6900	0	0
6901	0	0
6902	0	0
6903	0	0
6904	0	0
6905	0	0
6906	0	0
6907	0	0
6908	0	0
6909	0	0
6910	0	0
6911	0	0
6912	0	0
6913	0	0
6914	0	0
6915	0	0
6916	0	0
6917	0	0
6918	0	0
6919	0	0
6920	0	0
6921	0	0
6922	0	0
6923	0	0
6924	0	0
6925	0	0
6926	0	0
6927	0	0
6928	0	0
6929	0	0
6930	0	0
6931	0	0
6932	0	0
6933	0	0
6934	0	0
6935	0	0
6936	0	0
6937	0	0
6938	0	0
6939	0	0
6940	0	0
6941	0	0
6942	0	0
6943	0	0
6944	0	0
6945	0	0
6946	0	0
6947	0	0
6948	0	0
6949	0	0
6950	0	0
6951	0	0
6952	0	0
6953	0	0
6954	0	0
6955	0	0
6956	0	0
6957	0	0
6958	0	0
6959	0	0
6960	0	0
6961	0	0
6962	0	0
6963	0	0
6964	0	0
6965	0	0
6966	0	0
6967	0	0
6968	0	0
6969	0	0
6970	0	0
6971	0	0
6972	0	0
6973	0	0
6974	0	0
6975	0	0
6976	0	0
6977	0	0
6978	0	0
6979	0	0
6980	0	0
6981	0	0
6982	0	0
6983	0	0
6984	0	0
6985	0	0
6986	0	0
6987	0	0
6988	0	0
6989	0	0
6990	0	0
6991	0	0
6992	0	0
6993	0	0
6994	0	0
6995	0	0
6996	0	0
6997	0	0
6998	0	0
6999	0	0
7000	0	0
7001	0	0
7002	0	0
7003	0	0
7004	0	0
7005	0	0
7006	0	0
7007	0	0
7008	0	0
7009	0	0
7010	0	0
7011	0	0
7012	0	0
7013	0	0
7014	0	0
7015	0	0
7016	0	0
7017	0	0
7018	0	0
7019	0	0
7020	0	0
7021	0	0
7022	0	0
7023	0	0
7024	0	0
7025	0	0
7026	0	0
7027	0	0
7028	0	0
7029	0	0
7030	0	0
7031	0	0
7032	0	0
7033	0	0
7034	0	0
7035	0	0
7036	0	0
7037	0	0
7038	0	0
7039	0	0
7040	0	0
7041	0	0
7042	0	0
7043	0	0
7044	0	0
7045	0	0
7046	0	0
7047	0	0
7048	0	0
7049	0	0
7050	0	0
7051	0	0
7052	0	0
7053	0	0
7054	0	0
7055	0	0
7056	0	0
7057	0	0
7058	0	0
7059	0	0
7060	0	0
7061	0	0
7062	0	0
7063	0	0
7064	0	0
7065	0	0
7066	0	0
7067	0	0
7068	0	0
7069	0	0
7070	0	0
7071	0	0
7072	0	0
7073	0	0
7074	0	0
7075	0	0
7076	0	0
7077	0	0
7078	0	0
7079	0	0
7080	0	0
7081	0	0
7082	0	0
7083	0	0
7084	0	0
7085	0	0
7086	1	0
7087	0	0
7088	0	0
7089	0	0
7090	0	0
7091	0	0
7092	0	0
7093	0	0
7094	0	0
7095	0	0
7096	0	0
7097	1	0
7098	0	0
7099	0	0
7100	0	0
7101	0	0
7102	0	0
7103	0	0
7104	0	0
7105	0	0
7106	0	0
7107	0	0
7108	0	0
7109	0	0
7110	0	0
7111	0	0
7112	0	0
7113	0	0
7114	0	0
7115	0	0
7116	0	0
7117	0	0
7118	0	0
7119	0	0
7120	0	0
7121	0	0
7122	0	0
7123	0	0
7124	0	0
7125	0	0
7126	0	0
7127	0	0
7128	0	0
7129	0	0
7130	0	0
7131	0	0
7132	0	0
7133	0	0
7134	0	0
7135	0	0
7136	0	0
7137	0	0
7138	0	0
7139	0	0
7140	0	0
7141	0	0
7142	0	0
7143	0	0
7144	0	0
7145	0	0
7146	0	0
7147	0	0
7148	0	0
7149	0	0
7150	0	0
7151	0	0
7152	0	0
7153	0	0
7154	0	0
7155	0	0
7156	0	0
7157	0	0
7158	0	0
7159	0	0
7160	0	0
7161	0	0
7162	0	0
7163	0	0
7164	0	0
7165	0	0
7166	0	0
7167	0	0
7168	0	0
7169	0	0
7170	0	0
7171	0	0
7172	0	0
7173	0	0
7174	0	0
7175	0	0
7176	0	0
7177	0	0
7178	0	0
7179	0	0
7180	0	0
7181	0	0
7182	0	0.576555
7183	0	0.269006
7184	0	0.54754
7185	0	0
7186	0	0
7187	0	0
7188	0	0
7189	0	0
7190	0	0
7191	0	0
7192	0	0
7193	0	0
7194	0	0
7195	0	0
7196	0	0
7197	0	0
7198	0	0
7199	0	0
7200	0	0
7201	0	0
7202	0	0
7203	0	0
7204	0	0
7205	0	0
7206	0	0
7207	0	0
7208	0	0
7209	0	0
7210	0	0
7211	0	0
7212	0	0
7213	0	0
7214	0	0
7215	0	0
7216	0	0
7217	0	0
7218	0	0
7219	0	0
7220	0	0
7221	0	0
7222	0	0
7223	1	0
7224	1	0
7225	1	0
7226	1	0
7227	1	0
7228	1	0
7229	1	0
7230	1	0
7231	0	0
7232	0	0
7233	0	0
7234	0	0
7235	0	0
7236	0	0
7237	0	0
7238	0	0
7239	0	0
7240	0	0
7241	0	0
7242	0	0
7243	0	0
7244	0	0
7245	0	0
7246	0	0
7247	0	0
7248	0	0
7249	0	0
7250	0	0
7251	0	0
7252	0	0
7253	0	0
7254	0	0
7255	0	0
7256	0	0
7257	0	0
7258	0	0
7259	0	0
7260	0	0
7261	1	0
7262	1	0
7263	1	0
7264	1	0
7265	1	0
7266	1	0
7267	1	0
7268	1	0
7269	0	0
7270	0	0
7271	0	0
7272	0	0
7273	0	0
7274	0	0
7275	0	0
7276	0	0
7277	0	0
7278	0	0
7279	0	0
7280	0	0
7281	0	0
7282	0	0
7283	0	0
7284	0	0
7285	0	0
7286	0	0
7287	0	0
7288	0	0
7289	0	0
7290	0	0
7291	0	0
7292	0	0
7293	0	0
7294	0	0
7295	0	0
7296	0	0
7297	0	0
7298	0	0
7299	0	0
7300	0	0
7301	0	0
7302	0	0
7303	0	0
7304	0	0
7305	0	0
7306	0	0
7307	0	0
7308	0	0
7309	0	0
7310	0	0
7311	0	0
7312	0	0
7313	0	0
7314	0	0
7315	0	0
7316	0	0
7317	0	0
7318	0	0
7319	0	0
7320	0	0
7321	0	0
7322	0	0
7323	0	0
7324	0	0
7325	0	0
7326	0	0
7327	0	0
7328	0	0
7329	0	0
7330	0	0
7331	0	0
7332	0	0
7333	0	0
7334	0	0
7335	0	0
7336	0	0
7337	0	0
7338	0	0
7339	0	0
7340	0	0
7341	0	0
7342	0	0
7343	0	0
7344	0	0
7345	0	0
7346	0	0
7347	0	0
7348	0	0
7349	0	0
7350	0	0
7351	0	0
7352	0	0
7353	0	0
7354	0	0
7355	0	0
7356	0	0
7357	0	0
7358	0	0
7359	0	0
7360	0	0
7361	0	0
7362	0	0
7363	0	0
7364	0	0
7365	1	0
7366	0	0
7367	0	0
7368	0	0
7369	0	0
7370	0	0
7371	0	0
7372	0	0
7373	0	0
7374	0	0
7375	0	0
7376	0	0
7377	0	0
7378	0	0
7379	0	0
7380	0	0
7381	0	0
7382	0	0
7383	0	0
7384	0	0
7385	0	0
7386	0	0
7387	0	0
7388	0	0
7389	0	0
7390	0	0
7391	0	0
7392	0	0
7393	0	0
7394	0	0
7395	0	0
7396	0	0
7397	0	0
7398	0	0
7399	0	0
7400	0	0
7401	0	0
7402	0	0
7403	0	0
7404	0	0
7405	0	0
7406	0	0
7407	0	0
7408	0	0
7409	0	0
7410	0	0
7411	0	0
7412	0	0
7413	0	0
7414	0	0
7415	0	0
7416	0	0
7417	0	0
7418	0	0
7419	0	0
7420	0	0
7421	0	0
7422	0	0
7423	0	0
7424	0	0
7425	0	0
7426	0	0
7427	0	0
7428	0	0
7429	0	0
7430	0	0
7431	0	0
7432	0	0
7433	0	0
7434	0	0
7435	0	0
7436	0	0
7437	0	0
7438	0	0
7439	0	0
7440	0	0
7441	0	0
7442	0	0
7443	0	0
7444	0	0
7445	0	0
7446	0	0
7447	0	0
7448	0	0
7449	0	0
7450	0	0
7451	0	0
7452	0	0
7453	0	0
7454	0	0
7455	0	0
7456	0	0
7457	0	0
7458	0	0
7459	0	0
7460	0	0
7461	0	0
7462	0	0
7463	0	0
7464	0	0
7465	0	0
7466	0	0
7467	0	0
7468	0	0
7469	0	0
7470	0	0
7471	0	0
7472	0	0
7473	0	0
7474	0	0
7475	0	0
7476	0	0
7477	0	0
7478	0	0
7479	0	0
7480	0	0
7481	0	0
7482	0	0
7483	0	0
7484	1	0
7485	1	0
7486	1	0
7487	1	0
7488	1	0
7489	1	0
7490	1	0
7491	0	0
7492	0	0
7493	0	0
7494	1	0
7495	1	0
7496	1	0
7497	1	0
7498	1	0
7499	1	0
7500	1	0
7501	1	0
7502	1	0
7503	1	0
7504	1	0
7505	1	0
7506	1	0
7507	1	0
7508	1	0
7509	1	0
7510	1	0
7511	1	0
7512	1	0
7513	0	0
7514	0	0
7515	0	0
7516	0	0
7517	0	0
7518	0	0
7519	0	0
7520	0	0
7521	0	0
7522	0	0
7523	0	0
7524	0	0
7525	0	0
7526	0	0
7527	0	0
7528	1	0
7529	1	0
7530	0	0
7531	0	0
7532	0	0
7533	0	0
7534	0	0
7535	0	0
7536	0	0
7537	0	0
7538	0	0
7539	0	0
7540	0	0
7541	0	0
7542	0	0
7543	0	0
7544	0	0
7545	0	0
7546	0	0
7547	0	0
7548	0	0
7549	0	0
7550	0	0
7551	0	0
7552	0	0
7553	0	0
7554	0	0
7555	0	0
7556	0	0
7557	0	0
7558	0	0
7559	0	0
7560	0	0
7561	0	0
7562	0	0
7563	0	0
7564	0	0
7565	0	0
7566	0	0
7567	0	0
7568	0	0
7569	0	0
7570	0	0
7571	0	0
7572	0	0
7573	0	0
7574	0	0
7575	0	0
7576	0	0
7577	0	0
7578	0	0
7579	0	0
7580	0	0
7581	0	0
7582	0	0
7583	0	0
7584	0	0
7585	0	0
7586	0	0
7587	0	0
7588	0	0
7589	0	0
7590	0	0
7591	0	0
7592	0	0
7593	0	0
7594	0	0
7595	0	0
7596	0	0
7597	0	0
7598	0	0
7599	0	0
7600	0	0
7601	0	0
7602	0	0
7603	0	0
7604	0	0
7605	0	0
7606	0	0
7607	0	0
7608	0	0
7609	0	0
7610	1	0
7611	0	0
7612	0	0
7613	0	0.331896
7614	0	0.604543
7615	0	0.333333
7616	0	0.781538
7617	0	0.781538
7618	0	0.781538
7619	0	0.333333
7620	0	0.485736
7621	0	0.425543
7622	0	0.355332
7623	0	0.439687
7624	0	0.237077
7625	0	0.464508
7626	0	0.305126
7627	0	0.385458
7628	0	0.315068
7629	0	0.276031
7630	0	0.314141
7631	0	0.244745
7632	0	0.22381
7633	0	0.248366
7634	0	0.183007
7635	0	0.141667
7636	0	0.12381
7637	0	0.166667
7638	0	0.19697
7639	0	0.19697
7640	0	0.106061
7641	0	0.0545455
7642	0	0.0545455
7643	0	0.0545455
7644	0	0.0555556
7645	0	0.0555556
7646	0	0.111111
7647	0	0.0952381
7648	0	0.0952381
7649	0	0.0952381
7650	0	0.0952381
7651	0	0
7652	0	0
7653	0	0
7654	0	0
7655	0	0
7656	0	0
7657	0	0
7658	0	0
7659	0	0
7660	0	0
7661	0	0
7662	0	0
7663	0	0
7664	0	0
7665	0	0
7666	0	0
7667	0	0
7668	0	0
7669	0	0
7670	0	0
7671	0	0
7672	0	0
7673	0	0
7674	0	0
7675	0	0
7676	0	0
7677	0	0
7678	0	0
7679	0	0
7680	0	0
7681	0	0
7682	0	0
7683	0	0
7684	0	0
7685	0	0
7686	0	0
7687	0	0
7688	0	0
7689	0	0
7690	0	0
7691	0	0
7692	0	0
7693	0	0
7694	0	0
7695	0	0
7696	0	0
7697	0	0
7698	0	0
7699	0	0
7700	0	0
7701	0	0
7702	0	0
7703	0	0
7704	0	0
7705	0	0
7706	0	0
7707	0	0
7708	0	0
7709	0	0
7710	0	0
7711	0	0
7712	0	0
7713	0	0
7714	0	0
7715	0	0
7716	0	0
7717	0	0
7718	0	0
7719	0	0
7720	0	0
7721	0	0
7722	0	0
7723	0	0
7724	0	0
7725	0	0
7726	0	0
7727	0	0
7728	0	0
7729	0	0
7730	0	0
7731	0	0
7732	0	0
7733	0	0
7734	0	0
7735	0	0
7736	0	0
7737	0	0
7738	0	0
7739	0	0
7740	0	0
7741	0	0
7742	0	0
7743	0	0
7744	0	0
7745	0	0
7746	0	0
7747	0	0
7748	0	0
7749	0	0
7750	0	0
7751	0	0
7752	0	0
7753	0	0
7754	0	0
7755	0	0
7756	0	0
7757	0	0
7758	0	0
7759	0	0
7760	0	0
7761	0	0
7762	0	0
7763	0	0
7764	0	0
7765	0	0
7766	0	0
7767	0	0
7768	0	0
7769	0	0
7770	0	0
7771	0	0
7772	0	0
7773	0	0
7774	0	0
7775	0	0
7776	0	0
7777	0	0
7778	0	0
7779	0	0
7780	0	0
7781	0	0
7782	0	0
7783	0	0
7784	0	0
7785	0	0
7786	0	0
7787	0	0
7788	0	0
7789	0	0
7790	0	0
7791	0	0
7792	0	0
7793	0	0
7794	0	0
7795	0	0
7796	0	0
7797	0	0
7798	0	0
7799	0	0
7800	0	0
7801	0	0
7802	0	0
7803	0	0
7804	0	0
7805	0	0
7806	0	0
7807	0	0
7808	0	0
7809	0	0
7810	0	0
7811	0	0
7812	0	0
7813	0	0
7814	0	0
7815	0	0
7816	0	0
7817	0	0
7818	0	0
7819	0	0
7820	0	0
7821	0	0
7822	0	0
7823	0	0
7824	0	0
7825	0	0
7826	0	0
7827	0	0
7828	0	0
7829	0	0
7830	0	0
7831	0	0
7832	0	0
7833	0	0
7834	0	0
7835	0	0
7836	0	0
7837	0	0
7838	0	0
7839	0	0
7840	0	0
7841	0	0
7842	0	0
7843	0	0
7844	0	0
7845	0	0
7846	0	0
7847	0	0
7848	0	0
7849	0	0
7850	0	0
7851	0	0
7852	0	0
7853	0	0
7854	0	0
7855	0	0
7856	0	0
7857	0	0
7858	0	0
7859	0	0
7860	0	0
7861	0	0
7862	0	0
7863	0	0
7864	0	0
7865	0	0
7866	0	0
7867	0	0
7868	0	0
7869	0	0
7870	0	0
7871	0	0
7872	0	0
7873	0	0
7874	0	0
7875	0	0
7876	0	0
7877	0	0
7878	0	0
7879	0	0
7880	0	0
7881	0	0
7882	0	0
7883	0	0
7884	0	0
7885	0	0
7886	0	0
7887	0	0
7888	0	0
7889	0	0
7890	0	0
7891	0	0
7892	0	0
7893	0	0
7894	0	0
7895	0	0
7896	0	0
7897	0	0
7898	0	0
7899	0	0
7900	0	0
7901	0	0
7902	0	0
7903	0	0
7904	0	0
7905	0	0
7906	0	0
7907	0	0
7908	0	0
7909	0	0
7910	0	0
7911	0	0
7912	0	0
7913	0	0
7914	0	0
7915	0	0
7916	0	0.3
7917	0	0.3
7918	0	0.166667
7919	0	0
7920	0	0
7921	0	0
7922	0	0
7923	0	0
7924	0	0
7925	0	0
7926	0	0
7927	0	0
7928	0	0
7929	0	0
7930	0	0
7931	0	0
7932	0	0
7933	0	0
7934	0	0
7935	0	0
7936	0	0
7937	0	0
7938	0	0
7939	0	0
7940	0	0
7941	0	0
7942	0	0
7943	0	0
7944	0	0
7945	0	0
7946	0	0
7947	0	0
7948	0	0
7949	0	0
7950	0	0
7951	0	0
7952	0	0
7953	0	0
7954	0	0
7955	0	0
7956	0	0
7957	0	0
7958	0	0
7959	0	0
7960	0	0
7961	0	0
7962	0	0
7963	0	0
7964	0	0
7965	0	0
7966	0	0
7967	0	0
7968	0	0
7969	0	0
7970	0	0
7971	0	0
7972	0	0
7973	0	0
7974	0	0
7975	0	0
7976	0	0
7977	0	0
7978	0	0
7979	0	0
7980	0	0
7981	0	0
7982	0	0
7983	0	0
7984	0	0
7985	0	0
7986	0	0
7987	0	0
7988	0	0
7989	0	0
7990	0	0
7991	0	0
7992	0	0
7993	0	0
7994	0	0
7995	0	0
7996	0	0
7997	0	0
7998	0	0
7999	0	0
8000	0	0
8001	0	0
8002	0	0
8003	0	0
8004	0	0
8005	0	0
8006	0	0
8007	0	0
8008	0	0
8009	0	0
8010	0	0
8011	0	0
8012	0	0
8013	0	0
8014	0	0
8015	0	0
8016	0	0
8017	0	0
8018	0	0
8019	0	0
8020	0	0
8021	0	0
8022	0	0
8023	0	0
8024	0	0
8025	0	0
8026	0	0
8027	0	0
8028	0	0
8029	0	0
8030	0	0
8031	0	0
8032	0	0
8033	0	0
8034	0	0
8035	0	0
8036	0	0
8037	0	0
8038	0	0
8039	0	0
8040	0	0
8041	0	0
8042	0	0
8043	0	0
8044	0	0
8045	0	0
8046	0	0
8047	0	0
8048	0	0
8049	0	0
8050	0	0
8051	0	0
8052	0	0
8053	0	0
8054	0	0
8055	0	0
8056	0	0
8057	0	0
8058	0	0
8059	0	0
8060	0	0
8061	0	0
8062	0	0
8063	0	0
8064	0	0
8065	0	0
8066	0	0
8067	0	0
8068	0	0
8069	0	0
8070	0	0
8071	0	0
8072	0	0
8073	0	0
8074	0	0
8075	0	0
8076	0	0
8077	0	0
8078	0	0
8079	0	0
8080	0	0
8081	0	0
8082	0	0
8083	0	0
8084	0	0
8085	0	0
8086	0	0
8087	0	0
8088	0	0
8089	0	0
8090	0	0
8091	0	0
8092	0	0
8093	0	0
8094	0	0
8095	0	0
8096	0	0
8097	0	0
8098	0	0
8099	0	0
8100	0	0
8101	0	0
8102	0	0
8103	0	0
8104	0	0
8105	0	0
8106	0	0
8107	0	0
8108	0	0
8109	0	0
8110	0	0
8111	0	0
8112	0	0
8113	0	0
8114	0	0
8115	0	0
8116	0	0
8117	0	0
8118	0	0
8119	0	0
8120	0	0
8121	0	0
8122	0	0
8123	0	0
8124	0	0
8125	0	0
8126	0	0
8127	0	0
8128	0	0
8129	0	0
8130	0	0
8131	0	0
8132	0	0
8133	0	0
8134	0	0
8135	0	0
8136	0	0
8137	0	0
8138	0	0
8139	0	0
8140	0	0
8141	0	0
8142	0	0
8143	0	0
8144	0	0
8145	0	0
8146	0	0
8147	0	0
8148	0	0
8149	0	0
8150	0	0
8151	0	0
8152	0	0
8153	0	0
8154	0	0
8155	0	0
8156	0	0
8157	0	0
8158	0	0
8159	0	0
8160	0	0
8161	0	0
8162	0	0
8163	0	0
8164	0	0
8165	0	0
8166	0	0
8167	0	0
8168	0	0
8169	0	0
8170	0	0
8171	0	0
8172	0	0
8173	0	0
8174	0	0
8175	0	0
8176	0	0
8177	0	0
8178	0	0
8179	0	0
8180	0	0
8181	0	0
8182	0	0
8183	0	0
8184	0	0
8185	0	0
8186	0	0
8187	0	0
8188	0	0
8189	0	0
8190	0	0
8191	0	0
8192	0	0
8193	0	0
8194	0	0
8195	0	0
8196	0	0
8197	0	0
8198	0	0
8199	0	0
8200	0	0
8201	0	0
8202	0	0
8203	0	0
8204	0	0
8205	0	0
8206	0	0
8207	0	0
8208	0	0
8209	0	0
8210	0	0
8211	0	0
8212	0	0
8213	0	0
8214	0	0
8215	0	0
8216	0	0
8217	0	0
8218	0	0
8219	0	0
8220	0	0
8221	0	0
8222	0	0
8223	0	0
8224	0	0
8225	0	0
8226	0	0
8227	0	0
8228	0	0
8229	0	0
8230	0	0
8231	0	0
8232	0	0
8233	0	0
8234	0	0
8235	0	0
8236	0	0
8237	0	0
8238	0	0
8239	0	0
8240	0	0
8241	0	0
8242	0	0
8243	0	0
8244	0	0
8245	0	0
8246	0	0
8247	0	0
8248	0	0
8249	0	0
8250	0	0
8251	0	0
8252	0	0
8253	0	0
8254	0	0
8255	0	0
8256	0	0
8257	0	0
8258	0	0
8259	0	0
8260	0	0
8261	0	0
8262	0	0
8263	0	0
8264	0	0
8265	0	0
8266	0	0
8267	0	0
8268	0	0
8269	0	0
8270	0	0
8271	0	0
8272	0	0
8273	0	0
8274	0	0
8275	0	0
8276	0	0
8277	0	0
8278	0	0
8279	0	0
8280	0	0
8281	0	0
8282	0	0
8283	0	0
8284	0	0
8285	0	0
8286	0	0
8287	0	0
8288	0	0
8289	0	0
8290	0	0
8291	0	0
8292	0	0
8293	0	0
8294	0	0
8295	0	0
8296	0	0
8297	0	0
8298	0	0
8299	0	0
8300	0	0
8301	1	0
8302	1	0
8303	1	0
8304	1	0
8305	1	0
8306	1	0
8307	0	0
8308	0	0
8309	0	0
8310	0	0
8311	0	0
8312	0	0
8313	0	0
8314	0	0
8315	0	0
8316	0	0
8317	0	0
8318	0	0
8319	0	0
8320	0	0
8321	0	0
8322	0	0
8323	0	0
8324	0	0
8325	0	0
8326	0	0
8327	0	0
8328	0	0
8329	0	0
8330	0	0
8331	0	0
8332	0	0
8333	0	0
8334	0	0
8335	0	0
8336	0	0
8337	0	0
8338	0	0
8339	1	0
8340	0	0
8341	0	0
8342	0	0
8343	0	0
8344	0	0
8345	0	0
8346	0	0
8347	0	0
8348	0	0
8349	0	0
8350	0	0
8351	0	0
8352	0	0
8353	0	0
8354	0	0
8355	0	0
8356	0	0
8357	0	0
8358	0	0
8359	0	0
8360	0	0
8361	0	0
8362	0	0
8363	0	0
8364	0	0
8365	0	0
8366	0	0
8367	0	0
8368	0	0
8369	0	0
8370	0	0
8371	0	0
8372	0	0
8373	0	0
8374	0	0
8375	0	0
8376	0	0
8377	0	0
8378	0	0
8379	0	0
8380	0	0
8381	0	0
8382	0	0
8383	0	0
8384	0	0
8385	0	0
8386	0	0
8387	0	0
8388	0	0
8389	0	0
8390	0	0
8391	0	0
8392	0	0
8393	0	0
8394	0	0
8395	0	0
8396	0	0
8397	0	0
8398	0	0
8399	0	0
8400	0	0
8401	0	0
8402	0	0
8403	0	0
8404	0	0
8405	0	0
8406	0	0
8407	0	0
8408	0	0
8409	0	0
8410	0	0
8411	0	0
8412	0	0
8413	0	0
8414	0	0
8415	0	0
8416	0	0
8417	0	0
8418	0	0
8419	0	0
8420	0	0
8421	0	0
8422	0	0
8423	0	0
8424	0	0
8425	0	0
8426	0	0
8427	0	0
8428	0	0
8429	0	0
8430	0	0
8431	0	0
8432	0	0
8433	0	0
8434	0	0
8435	0	0
8436	0	0
8437	0	0
8438	0	0
8439	0	0
8440	0	0
8441	0	0
8442	0	0
8443	0	0
8444	0	0
8445	0	0
8446	0	0
8447	0	0
8448	0	0
8449	0	0
8450	0	0
8451	0	0
8452	0	0
8453	0	0
8454	0	0
8455	0	0
8456	0	0
8457	0	0
8458	0	0
8459	0	0
8460	0	0
8461	0	0
8462	0	0
8463	0	0
8464	0	0
8465	0	0
8466	0	0
8467	0	0
8468	0	0
8469	0	0
8470	0	0
8471	0	0
8472	0	0
8473	0	0
8474	0	0
8475	0	0
8476	0	0
8477	0	0
8478	0	0
8479	0	0
8480	0	0
8481	0	0
8482	0	0
8483	0	0
8484	0	0
8485	0	0
8486	1	0
8487	0	0
8488	0	0
8489	0	0
8490	0	0
8491	0	0
8492	0	0
8493	0	0
8494	0	0
8495	0	0
8496	0	0
8497	0	0
8498	0	0
8499	1	0
8500	1	0
8501	1	0
8502	1	0
8503	0	0
8504	0	0
8505	0	0
8506	0	0
8507	0	0
8508	0	0
8509	0	0
8510	0	0
8511	0	0
8512	0	0
8513	0	0
8514	0	0
8515	0	0
8516	0	0
8517	0	0
8518	0	0
8519	0	0
8520	0	0
8521	0	0
8522	0	0
8523	0	0
8524	0	0
8525	0	0
8526	0	0
8527	0	0
8528	0	0
8529	0	0
8530	0	0
8531	0	0
8532	0	0
8533	0	0
8534	0	0
8535	0	0
8536	0	0
8537	0	0
8538	0	0
8539	0	0
8540	0	0
8541	0	0
8542	0	0
8543	0	0
8544	0	0
8545	0	0
8546	0	0
8547	0	0
8548	0	0
8549	0	0
8550	0	0
8551	0	0
8552	0	0
8553	0	0
8554	0	0
8555	0	0
8556	0	0
8557	0	0
8558	0	0
8559	0	0
8560	0	0
8561	0	0
8562	0	0
8563	0	0
8564	0	0
8565	0	0
8566	0	0
8567	0	0
8568	0	0
8569	0	0
8570	0	0
8571	0	0
8572	0	0
8573	0	0
8574	0	0
8575	0	0
8576	0	0
8577	0	0
8578	0	0
8579	0	0
8580	0	0
8581	0	0
8582	0	0
8583	0	0
8584	0	0
8585	0	0
8586	0	0
8587	0	0
8588	0	0
8589	0	0
8590	0	0
8591	0	0
8592	0	0
8593	0	0
8594	0	0
8595	0	0
8596	0	0
8597	0	0
8598	0	0
8599	0	0
8600	0	0
8601	0	0
8602	0	0
8603	0	0
8604	0	0
8605	0	0
8606	0	0
8607	0	0
8608	0	0
8609	0	0
8610	0	0
8611	0	0
8612	0	0
8613	0	0
8614	0	0
8615	0	0
8616	0	0
8617	0	0
8618	0	0
8619	0	0
8620	0	0
8621	0	0
8622	0	0
8623	0	0
8624	0	0
8625	0	0
8626	0	0
8627	0	0
8628	0	0
8629	0	0
8630	0	0
8631	0	0
8632	0	0
8633	0	0
8634	0	0
8635	0	0
8636	0	0
8637	0	0
8638	0	0
8639	0	0
8640	0	0
8641	0	0
8642	0	0
8643	0	0
8644	0	0
8645	0	0
8646	0	0
8647	0	0
8648	0	0
8649	0	0
8650	0	0
8651	0	0
8652	0	0
8653	0	0
8654	0	0
8655	0	0
8656	0	0
8657	0	0
8658	0	0
8659	0	0
8660	0	0
8661	0	0
8662	0	0
8663	0	0
8664	0	0
8665	0	0
8666	0	0
8667	0	0
8668	0	0
8669	0	0
8670	0	0
8671	0	0
8672	0	0
8673	0	0
8674	0	0
8675	0	0
8676	0	0
8677	0	0
8678	0	0
8679	0	0
8680	0	0
8681	0	0
8682	0	0
8683	0	0
8684	0	0
8685	0	0
8686	0	0
8687	0	0
8688	0	0
8689	0	0
8690	0	0
8691	0	0
8692	0	0
8693	0	0
8694	0	0
8695	0	0
8696	0	0
8697	0	0
8698	0	0
8699	0	0
8700	0	0
8701	0	0
8702	0	0
8703	0	0
8704	0	0
8705	0	0
8706	0	0
8707	0	0
8708	0	0
8709	0	0
8710	0	0
8711	0	0
8712	0	0
8713	0	0
8714	0	0
8715	0	0
8716	0	0
8717	0	0
8718	0	0
8719	0	0
8720	0	0
8721	0	0
8722	0	0
8723	0	0
8724	0	0
8725	0	0
8726	0	0
8727	0	0
8728	0	0
8729	0	0
8730	0	0
8731	0	0
8732	0	0
8733	0	0
8734	0	0
8735	0	0
8736	0	0
