Site	ColumnScore	SumOfPairsScore
1	1	0
2	1	0
3	1	0
4	1	0
5	1	0
6	1	0
7	1	0
8	1	0
9	1	0
10	1	0
11	1	0
12	1	0
13	1	0
14	1	0
15	1	0
16	1	0
17	1	0
18	1	0
19	1	0
20	1	0
21	1	0
22	1	0
23	1	0
24	1	0
25	1	0
26	1	0
27	1	0
28	1	0
29	1	0
30	1	0
31	1	0
32	1	0
33	1	0
34	1	0
35	1	0
36	1	0
37	1	0
38	1	0
39	1	0
40	1	0
41	1	0
42	1	0
43	1	0
44	1	0
45	1	0
46	1	0
47	1	0
48	1	0
49	1	0
50	1	0
51	1	0
52	1	0
53	1	0
54	1	0
55	1	0
56	1	0
57	1	0
58	1	0
59	1	0
60	1	0
61	1	0
62	1	0
63	1	0
64	1	0
65	1	0
66	1	0
67	1	0
68	1	0
69	0	0
70	0	0
71	0	0
72	0	0
73	0	0
74	0	0
75	0	0
76	0	0
77	0	0
78	0	0
79	0	0
80	0	0
81	0	0
82	0	0
83	0	0
84	0	0
85	0	0
86	0	0
87	0	0
88	0	0
89	0	0
90	0	0
91	0	0
92	0	0
93	0	0
94	0	0
95	0	0
96	0	0
97	0	0
98	0	0
99	0	0
100	0	0
101	0	0
102	0	0
103	0	0
104	0	0
105	0	0
106	0	0
107	0	0
108	0	0
109	0	0
110	0	0
111	0	0
112	0	0
113	0	0
114	0	0
115	0	0
116	0	0
117	0	0
118	0	0
119	0	0
120	0	0
121	0	0
122	0	0
123	0	0
124	0	0
125	0	0
126	0	0
127	0	0
128	0	0
129	0	0
130	0	0
131	0	0
132	0	0
133	0	0
134	0	0
135	0	0
136	0	0
137	0	0
138	0	0
139	0	0
140	0	0
141	0	0
142	0	0
143	0	0
144	0	0
145	0	0
146	0	0
147	0	0
148	0	0
149	0	0
150	0	0
151	0	0
152	0	0
153	0	0
154	0	0
155	0	0
156	0	0
157	0	0
158	0	0
159	0	0
160	0	0
161	0	0
162	0	0
163	0	0
164	0	0
165	0	0
166	0	0
167	0	0
168	0	0
169	0	0
170	0	0
171	0	0
172	0	0
173	0	0
174	0	0
175	0	0
176	0	0
177	0	0
178	0	0
179	0	0
180	0	0
181	0	0
182	0	0
183	0	0
184	0	0
185	0	0
186	0	0
187	0	0
188	0	0
189	0	0
190	0	0
191	0	0
192	0	0
193	0	0
194	0	0
195	0	0
196	0	0
197	0	0
198	0	0
199	0	0
200	0	0
201	0	0
202	0	0
203	0	0
204	0	0
205	0	0
206	0	0
207	0	0
208	0	0
209	0	0
210	0	0
211	0	0
212	0	0
213	0	0
214	0	0
215	0	0
216	0	0
217	0	0
218	0	0
219	0	0
220	0	0
221	0	0
222	0	0
223	0	0
224	0	0
225	0	0
226	0	0
227	0	0
228	0	0
229	0	0
230	0	0
231	0	0
232	0	0
233	0	0
234	0	0
235	0	0
236	0	0
237	0	0
238	0	0
239	0	0
240	0	0
241	0	0
242	0	0
243	0	0
244	0	0
245	0	0
246	0	0
247	0	0
248	0	0
249	0	0
250	0	0
251	0	0
252	0	0
253	0	0
254	0	0
255	0	0
256	0	0
257	0	0
258	0	0
259	0	0
260	0	0
261	0	0
262	0	0
263	0	0
264	0	0
265	0	0
266	0	0
267	0	0
268	0	0
269	0	0
270	0	0
271	0	0
272	0	0
273	0	0
274	0	0
275	0	0
276	0	0
277	0	0
278	0	0
279	0	0
280	0	0
281	0	0
282	0	0
283	0	0
284	0	0
285	0	0
286	0	0
287	0	0
288	0	0
289	0	0
290	0	0
291	0	0
292	0	0
293	0	0
294	0	0
295	0	0
296	0	0
297	0	0
298	0	0
299	0	0
300	0	0
301	0	0
302	0	0
303	0	0
304	0	0
305	0	0
306	0	0
307	0	0
308	0	0
309	0	0
310	0	0
311	0	0
312	0	0
313	0	0
314	0	0
315	0	0
316	0	0
317	0	0
318	0	0
319	0	0
320	0	0
321	0	0
322	0	0
323	0	0
324	0	0
325	0	0
326	0	0
327	0	0
328	0	0
329	0	0
330	0	0
331	0	0
332	0	0
333	0	0
334	0	0
335	0	0
336	0	0
337	0	0
338	0	0
339	0	0
340	0	0
341	0	0
342	0	0
343	0	0
344	0	0
345	0	0
346	0	0
347	0	0
348	0	0
349	0	0
350	0	0
351	0	0
352	0	0
353	0	0
354	0	0
355	0	0
356	0	0
357	0	0
358	0	0
359	0	0
360	0	0
361	0	0
362	0	0
363	0	0
364	0	0
365	0	0
366	0	0
367	0	0
368	0	0
369	0	0
370	0	0
371	0	0
372	0	0
373	0	0
374	0	0
375	0	0
376	0	0
377	0	0
378	0	0
379	0	0
380	0	0
381	0	0
382	0	0
383	0	0
384	0	0
385	0	0
386	0	0
387	0	0
388	0	0
389	0	0
390	0	0
391	0	0
392	0	0
393	0	0
394	0	0
395	0	0
396	0	0
397	0	0
398	0	0
399	0	0
400	0	0
401	0	0
402	0	0
403	0	0
404	0	0
405	0	0
406	0	0
407	0	0
408	0	0
409	0	0
410	0	0
411	0	0
412	0	0
413	0	0
414	0	0
415	0	0
416	0	0
417	0	0
418	0	0
419	0	0
420	0	0
421	0	0
422	0	0
423	0	0
424	0	0
425	0	0
426	0	0
427	0	0
428	0	0
429	0	0
430	0	0
431	0	0
432	0	0
433	0	0
434	0	0
435	0	0
436	0	0
437	0	0
438	0	0
439	0	0
440	0	0
441	0	0
442	0	0
443	0	0
444	0	0
445	0	0
446	0	0
447	0	0
448	0	0
449	0	0
450	0	0
451	0	0
452	0	0
453	0	0
454	0	0
455	0	0
456	0	0
457	0	0
458	0	0
459	0	0
460	0	0
461	0	0
462	0	0
463	0	0
464	0	0
465	0	0
466	0	0
467	0	0
468	0	0
469	0	0
470	0	0.0277778
471	0	0.0277778
472	0	0.0222222
473	0	0.0222222
474	0	0.0222222
475	0	0.0222222
476	0	0.0222222
477	0	0.0222222
478	0	0.0222222
479	0	0.0222222
480	0	0.0222222
481	0	0.0222222
482	0	0.0222222
483	0	0.0222222
484	0	0.0222222
485	0	0.0222222
486	0	0.0222222
487	0	0.0222222
488	0	0.0222222
489	0	0.0222222
490	0	0.0222222
491	0	0.0222222
492	0	0.0222222
493	0	0
494	0	0
495	0	0
496	0	0
497	0	0
498	0	0
499	0	0
500	0	0
501	0	0
502	0	0
503	0	0
504	0	0
505	0	0
506	0	0
507	0	0
508	0	0.0128205
509	0	0.0128205
510	0	0.0128205
511	0	0
512	0	0
513	0	0
514	0	0
515	0	0
516	0	0
517	0	0
518	0	0
519	0	0
520	0	0
521	0	0
522	0	0
523	0	0
524	0	0
525	0	0
526	0	0
527	0	0
528	0	0
529	0	0.00833333
530	0	0.00833333
531	0	0.00833333
532	0	0
533	0	0
534	0	0
535	0	0
536	0	0
537	0	0
538	0	0
539	0	0
540	0	0
541	0	0
542	0	0
543	0	0
544	0	0
545	0	0
546	0	0.00653595
547	0	0.00653595
548	0	0
549	0	0
550	0	0.00653595
551	0	0.0130719
552	0	0.0130719
553	0	0.0130719
554	0	0.0130719
555	0	0.0130719
556	0	0
557	0	0
558	0	0.00584795
559	0	0.00584795
560	0	0.00584795
561	0	0.00584795
562	0	0.00584795
563	0	0
564	0	0.004329
565	0	0.00362319
566	0	0.00362319
567	0	0
568	0	0
569	0	0.00362319
570	0	0.0108696
571	0	0.01
572	0	0.0133333
573	0	0.025641
574	0	0.037037
575	0	0.0449735
576	0	0.0591133
577	0	0.088172
578	0	0.088172
579	0	0.135484
580	0	0.182796
581	0	0.212903
582	0	0.266667
583	0	0.496774
584	0	0.544086
585	0	0.544086
586	0	0.604839
587	0	0.606855
588	0	0.659574
589	0	0.753552
590	0	0.799299
591	0	0.882784
592	0	0.887694
593	0	0
594	0	0
595	0	0
596	0	0
597	0	0
598	0	0
599	0	0
600	0	0
601	0	0
602	0	0
603	0	0
604	0	0
605	0	0
606	0	0
607	0	0
608	0	0
609	0	0
610	0	0
611	0	0
612	0	0
613	0	0
614	0	0
615	0	0
616	0	0
617	0	0
618	0	0
619	0	0
620	0	0
621	0	0
622	0	0
623	0	0
624	0	0
625	0	0
626	0	0
627	0	0
628	0	0
629	0	0
630	0	0
631	0	0
632	0	0
633	0	0
634	0	0
635	0	0
636	0	0
637	0	0
638	0	0
639	0	0
640	0	0
641	0	0
642	0	0
643	0	0
644	0	0
645	0	0
646	0	0
647	0	0
648	0	0
649	0	0
650	0	0
651	0	0
652	0	0
653	0	0
654	0	0.545455
655	0	0.545455
656	0	0.395604
657	0	0.910867
658	0	0.84356
659	0	0.840738
660	0	0
661	0	0
662	0	0
663	0	0
664	0	0
665	0	0
666	0	0
667	0	0
668	0	0
669	0	0
670	0	0
671	0	0
672	0	0
673	0	0
674	0	0
675	0	0
676	0	0
677	0	0
678	0	0
679	0	0
680	0	0
681	0	0
682	0	0
683	0	0
684	0	0
685	0	0
686	0	0
687	0	0
688	0	0
689	0	0
690	0	0
691	0	0
692	0	0
693	0	0
694	0	0
695	0	0
696	0	0
697	0	0
698	0	0
699	0	0
700	0	0
701	0	0
702	0	0
703	0	0
704	0	0
705	0	0
706	0	0
707	0	0
708	0	0
709	0	0
710	0	0
711	0	0
712	0	0
713	0	0
714	0	0
715	0	0
716	0	0
717	0	0
718	0	0
719	0	0
720	0	0
721	0	0
722	0	0
723	0	0
724	0	0
725	0	0
726	0	0
727	0	0
728	0	0
729	0	0
730	0	0
731	0	0
732	0	0
733	0	0
734	0	0
735	0	0
736	0	0
737	0	0
738	0	0
739	0	0
740	0	0
741	0	0
742	0	0
743	0	0
744	0	0
745	0	0
746	0	0
747	0	0
748	0	0
749	0	0
750	0	0
751	0	0
752	0	0
753	0	0
754	0	0
755	0	0
756	0	0
757	0	0
758	0	0
759	0	0
760	0	0
761	0	0
762	0	0
763	0	0
764	0	0
765	0	0
766	0	0
767	0	0
768	0	0
769	0	0
770	0	0
771	0	0
772	0	0
773	0	0
774	0	0
775	0	0
776	0	0
777	0	0
778	0	0
779	0	0
780	0	0
781	0	0
782	0	0
783	0	0
784	0	0
785	0	0
786	0	0
787	0	0
788	0	0
789	0	0
790	0	0
791	0	0
792	0	0
793	0	0
794	0	0
795	0	0
796	0	0
797	0	0
798	0	0
799	0	0
800	0	0
801	0	0
802	0	0
803	0	0
804	0	0
805	0	0
806	0	0
807	0	0
808	0	0
809	0	0
810	0	0
811	0	0
812	0	0
813	0	0
814	0	0
815	0	0
816	0	0
817	0	0
818	0	0
819	0	0
820	0	0
821	0	0
822	0	0
823	0	0
824	0	0
825	0	0
826	0	0
827	0	0
828	0	0
829	0	0
830	0	0
831	0	0
832	0	0
833	0	0
834	0	0
835	0	0
836	0	0
837	0	0
838	0	0
839	0	0
840	0	0
841	0	0
842	0	0
843	0	0
844	0	0
845	0	0
846	0	0
847	0	0
848	0	0
849	0	0
850	0	0
851	0	0
852	0	0
853	0	0
854	0	0
855	0	0
856	0	0
857	0	0
858	0	0
859	0	0
860	0	0
861	0	0
862	0	0
863	0	0
864	0	0
865	0	0
866	0	0
867	0	0
868	0	0
869	0	0
870	0	0
871	0	0
872	0	0
873	0	0
874	0	0
875	0	0
876	0	0
877	0	0
878	0	0
879	0	0
880	0	0
881	0	0
882	0	0
883	0	0
884	0	0
885	0	0
886	0	0
887	0	0
888	0	0
889	0	0
890	0	0
891	0	0
892	0	0
893	0	0
894	0	0
895	0	0
896	0	0
897	0	0
898	0	0
899	0	0
900	0	0
901	0	0
902	0	0
903	0	0
904	0	0
905	0	0
906	0	0
907	0	0
908	0	0
909	0	0
910	0	0
911	0	0
912	0	0
913	0	0
914	0	0
915	0	0
916	0	0
917	0	0
918	0	0
919	0	0
920	0	0
921	0	0
922	0	0
923	0	0
924	0	0
925	0	0
926	0	0
927	0	0
928	0	0
929	0	0
930	0	0
931	0	0
932	0	0
933	0	0
934	0	0
935	0	0
936	0	0
937	0	0
938	0	0
939	0	0
940	0	0
941	0	0
942	0	0
943	0	0
944	0	0
945	0	0
946	0	0
947	0	0
948	0	0
949	0	0
950	0	0
951	0	0
952	0	0
953	0	0
954	0	0
955	0	0
956	0	0
957	0	0
958	0	0
959	0	0
960	0	0
961	0	0
962	0	0
963	0	0
964	0	0
965	0	0
966	0	0
967	0	0
968	0	0
969	0	0
970	0	0.1
971	0	0.1
972	0	0.1
973	0	0.1
974	0	0.1
975	0	0.1
976	0	0.1
977	0	0.1
978	0	0.1
979	0	0.0666667
980	0	0
981	0	0
982	0	0
983	0	0
984	0	0
985	0	0.0666667
986	0	0.879518
987	0	0
988	0	0
989	0	0
990	0	0
991	0	0
992	0	0
993	0	0.1
994	0	0
995	0	0.166667
996	0	0.166667
997	0	0.849013
998	0	0.842475
999	0	0
1000	0	0
1001	0	0
1002	0	0
1003	0	0
1004	0	0
1005	0	0
1006	0	0
1007	0	0
1008	0	0
1009	0	0
1010	0	0
1011	0	0
1012	0	0
1013	0	0
1014	0	0
1015	0	0
1016	0	0
1017	0	0
1018	0	0
1019	0	0
1020	0	0
1021	0	0
1022	0	0
1023	0	0
1024	0	0
1025	0	0
1026	0	0
1027	0	0
1028	0	0
1029	0	0
1030	0	0
1031	0	0
1032	0	0
1033	0	0
1034	0	0
1035	0	0
1036	0	0.1
1037	0	0.0666667
1038	0	0.047619
1039	0	0.0555556
1040	0	0.0555556
1041	0	0.0555556
1042	0	0.833982
1043	0	0.834671
1044	0	0
1045	0	0
1046	0	0
1047	0	0
1048	0	0
1049	0	0
1050	0	0
1051	0	0
1052	0	0
1053	0	0
1054	0	0
1055	0	0
1056	0	0
1057	0	0
1058	0	0
1059	0	0
1060	0	0
1061	0	0.734346
1062	0	0
1063	0	0
1064	0	0
1065	0	0
1066	0	0
1067	0	0
1068	0	0
1069	0	0
1070	0	0
1071	0	0
1072	0	0
1073	0	0
1074	0	0
1075	0	0
1076	0	0
1077	0	0
1078	0	0
1079	0	0
1080	0	0
1081	0	0
1082	0	0
1083	0	0
1084	0	0
1085	0	0
1086	0	0
1087	0	0
1088	0	0
1089	0	0
1090	0	0.746938
1091	0	0.333333
1092	0	0.333333
1093	0	0.998208
1094	0	0.998208
1095	0	0.998208
1096	0	0.998208
1097	0	0.998208
1098	0	0.998208
1099	0	0.998206
1100	0	0.994628
1101	1	0
1102	1	0
1103	1	0
1104	1	0
1105	1	0
1106	1	0
1107	1	0
1108	1	0
1109	1	0
1110	1	0
1111	1	0
1112	1	0
1113	1	0
1114	1	0
1115	1	0
1116	1	0
1117	1	0
1118	1	0
1119	1	0
1120	1	0
1121	0	0.333333
1122	0	0.991055
1123	0	0.992835
1124	0	0.992835
1125	0	0.992835
1126	0	0.992835
1127	0	0.991047
1128	0	0.992828
1129	0	0
1130	0	0
1131	0	0
1132	0	0
1133	0	0
1134	0	0
1135	0	0
1136	0	0
1137	0	0
1138	0	0
1139	0	0
1140	0	0
1141	0	0
1142	0	0
1143	0	0
1144	0	0
1145	0	0
1146	0	0
1147	0	0
1148	0	0
1149	0	0
1150	0	0
1151	0	0
1152	0	0
1153	0	0
1154	0	0
1155	0	0
1156	0	0
1157	0	0
1158	0	0
1159	0	0
1160	0	0
1161	0	0
1162	0	0
1163	0	0
1164	0	0
1165	0	0
1166	0	0
1167	0	0
1168	0	0
1169	0	0
1170	0	0
1171	0	0
1172	0	0
1173	0	0
1174	0	0
1175	0	0
1176	0	0
1177	0	0
1178	0	0
1179	0	0
1180	0	0
1181	0	0
1182	0	0
1183	0	0
1184	0	0
1185	0	0
1186	0	0
1187	0	0
1188	0	0
1189	0	0
1190	0	0
1191	0	0
1192	0	0
1193	0	0
1194	0	0
1195	0	0
1196	0	0
1197	0	0
1198	0	0
1199	0	0
1200	0	0
1201	0	0
1202	0	0
1203	0	0
1204	0	0
1205	0	0
1206	0	0
1207	0	0
1208	0	0
1209	0	0
1210	0	0
1211	0	0
1212	0	0
1213	0	0
1214	0	0
1215	0	0
1216	0	0
1217	0	0
1218	0	0
1219	0	0
1220	0	0
1221	0	0
1222	0	0
1223	0	0
1224	0	0
1225	0	0
1226	0	0
1227	0	0
1228	0	0
1229	0	0
1230	0	0
1231	0	0
1232	0	0
1233	0	0
1234	0	0
1235	0	0
1236	0	0
1237	0	0
1238	0	0
1239	0	0
1240	0	0
1241	0	0
1242	0	0
1243	0	0
1244	0	0
1245	0	0
1246	0	0
1247	0	0
1248	0	0
1249	0	0
1250	0	0
1251	0	0
1252	0	0
1253	0	0
1254	0	0
1255	0	0
1256	0	0
1257	0	0
1258	0	0
1259	0	0
1260	0	0
1261	0	0
1262	0	0
1263	0	0
1264	0	0
1265	0	0
1266	0	0
1267	0	0
1268	0	0
1269	0	0
1270	0	0
1271	0	0
1272	0	0
1273	0	0
1274	0	0
1275	0	0
1276	0	0
1277	0	0
1278	0	0
1279	0	0
1280	0	0
1281	0	0
1282	0	0
1283	0	0
1284	0	0
1285	0	0
1286	0	0
1287	0	0
1288	0	0
1289	0	0
1290	0	0
1291	0	0
1292	0	0
1293	0	0
1294	0	0
1295	0	0
1296	0	0
1297	0	0
1298	0	0
1299	0	0
1300	0	0
1301	0	0
1302	0	0
1303	0	0
1304	0	0
1305	0	0
1306	0	0
1307	0	0
1308	0	0
1309	0	0
1310	0	0
1311	0	0
1312	0	0
1313	0	0
1314	0	0
1315	0	0
1316	0	0
1317	0	0
1318	0	0
1319	0	0
1320	0	0
1321	0	0
1322	0	0
1323	0	0
1324	0	0
1325	0	0
1326	0	0
1327	0	0
1328	0	0.989263
1329	0	0.553853
1330	0	0.980369
1331	0	0
1332	0	0
1333	0	0
1334	0	0
1335	0	0
1336	0	0
1337	0	0
1338	0	0
1339	0	0
1340	0	0
1341	0	0
1342	0	0
1343	0	0
1344	0	0
1345	0	0
1346	0	0
1347	0	0
1348	0	0
1349	0	0
1350	0	0
1351	0	0
1352	0	0
1353	0	0
1354	0	0
1355	0	0
1356	0	0
1357	0	0
1358	0	0
1359	0	0
1360	0	0
1361	0	0
1362	0	0
1363	0	0
1364	0	0
1365	0	0
1366	0	0
1367	0	0
1368	0	0
1369	0	0
1370	0	0.0952381
1371	0	0.974937
1372	0	0
1373	0	0
1374	0	0
1375	0	0
1376	0	0.974913
1377	0	0.973157
1378	0	1
1379	0	0.97674
1380	0	0
1381	0	0
1382	0	0
1383	0	0
1384	0	0
1385	0	0
1386	0	0
1387	0	0
1388	0	0
1389	0	0
1390	0	0
1391	0	0
1392	0	0
1393	0	0
1394	0	0
1395	0	0
1396	0	0
1397	0	0
1398	0	0
1399	0	0
1400	0	0
1401	0	0
1402	0	0
1403	0	0
1404	0	0
1405	0	0
1406	0	0
1407	0	0
1408	0	0
1409	0	0
1410	0	0
1411	0	0
1412	0	0
1413	0	0
1414	0	0
1415	0	0
1416	0	0
1417	0	0
1418	0	0
1419	0	0
1420	0	0
1421	0	0
1422	0	0
1423	0	0
1424	0	0
1425	0	0
1426	0	0
1427	0	0
1428	0	0
1429	0	0
1430	0	0
1431	0	0
1432	0	0
1433	0	0
1434	0	0
1435	0	0
1436	0	0
1437	0	0
1438	0	0
1439	0	0
1440	0	0
1441	0	0
1442	0	0
1443	0	0
1444	0	0
1445	0	0
1446	0	0
1447	0	0
1448	0	0
1449	0	0
1450	0	0
1451	0	0
1452	0	0
1453	0	0
1454	0	0
1455	0	0
1456	0	0
1457	0	0
1458	0	0
1459	0	0.166667
1460	0	0.166667
1461	0	0.166667
1462	0	0.5
1463	0	0.5
1464	0	0.5
1465	0	0.5
1466	0	0.3
1467	0	0.3
1468	0	0.3
1469	0	0.3
1470	0	0.3
1471	0	0.3
1472	0	0.974787
1473	0	0
1474	0	0
1475	0	0
1476	0	0
1477	0	0
1478	0	1
1479	0	1
1480	0	1
1481	0	0.333333
1482	0	0.166667
1483	0	0.5
1484	0	0.964205
1485	0	0.333333
1486	0	0.333333
1487	0	0.333333
1488	0	0.333333
1489	0	0.333333
1490	0	0.333333
1491	0	0
1492	0	0
1493	0	0
1494	0	0
1495	0	0
1496	0	0
1497	0	0
1498	0	0
1499	0	0
1500	0	0
1501	0	0
1502	0	0
1503	0	0
1504	0	0
1505	0	0
1506	0	0
1507	0	0
1508	0	0
1509	0	0
1510	0	0
1511	0	0
1512	0	0
1513	0	0
1514	0	1
1515	0	1
1516	0	1
1517	0	1
1518	0	1
1519	0	1
1520	0	1
1521	0	1
1522	0	1
1523	0	1
1524	0	1
1525	0	1
1526	0	1
1527	0	1
1528	0	1
1529	0	1
1530	0	1
1531	0	1
1532	0	1
1533	0	0.333333
1534	0	0.333333
1535	0	0.333333
1536	0	0.333333
1537	0	0.333333
1538	0	0.333333
1539	0	0.333333
1540	0	0.333333
1541	0	0.333333
1542	0	0.333333
1543	0	0.333333
1544	0	0.333333
1545	0	0.333333
1546	0	0
1547	0	0
1548	0	0
1549	0	0
1550	0	0
1551	0	0
1552	0	0
1553	0	0
1554	0	0
1555	0	0
1556	0	0
1557	0	0
1558	0	0
1559	0	0
1560	0	0
1561	0	0
1562	0	0
1563	0	0
1564	0	0
1565	0	0
1566	0	0
1567	0	0.333333
1568	0	0.333333
1569	0	0.333333
1570	0	0.333333
1571	0	0.333333
1572	0	0
1573	0	0
1574	0	0
1575	0	0
1576	0	0
1577	0	0
1578	0	0
1579	0	0
1580	0	0
1581	0	0
1582	0	0
1583	0	0
1584	0	0
1585	0	0.900784
1586	0	0.982212
1587	0	0.982212
1588	0	0
1589	0	0
1590	0	0
1591	0	0
1592	0	0
1593	0	0
1594	0	0
1595	0	0
1596	0	0
1597	0	0
1598	0	0
1599	0	0
1600	0	0
1601	0	0
1602	0	0
1603	0	0
1604	0	0
1605	0	0
1606	0	0
1607	0	0
1608	0	0
1609	0	0
1610	0	0
1611	0	0
1612	0	0
1613	0	0
1614	0	0
1615	0	0
1616	0	0
1617	0	0
1618	0	0
1619	0	0
1620	0	0
1621	0	0
1622	0	0
1623	0	0
1624	0	0.996421
1625	0	0.996421
1626	0	0.994633
1627	0	0.996417
1628	0	0.996417
1629	0	0.998206
1630	0	0.998206
1631	0	0.998206
1632	0	0.998206
1633	0	0.998206
1634	0	0.998206
1635	0	0.998206
1636	0	0.998206
1637	1	0
1638	0	0
1639	0	1
1640	0	0.998209
1641	0	0.998209
1642	0	0.998209
1643	0	0.994635
1644	1	0
1645	0	1
1646	0	1
1647	0	1
1648	0	1
1649	0	1
1650	0	0.998208
1651	0	0.998208
1652	0	0.998209
1653	1	0
1654	1	0
1655	1	0
1656	1	0
1657	1	0
1658	1	0
1659	1	0
1660	0	0
1661	0	0.998211
1662	1	1
1663	1	1
1664	1	1
1665	1	1
1666	1	1
1667	1	1
1668	1	1
1669	1	1
1670	1	0
1671	1	0
1672	1	0
1673	1	0
1674	1	0
1675	1	0
1676	1	0
1677	1	0
1678	1	0
1679	1	0
1680	0	0.998213
1681	1	1
1682	0	1
1683	0	1
1684	0	0.333333
1685	0	0.2
1686	0	0.557626
1687	0	0.557626
1688	0	0.557626
1689	0	0.635897
1690	0	0.719918
1691	0	0.777778
1692	0	0.873862
1693	0	0.984017
1694	0	0.998213
1695	0	0.998213
1696	0	0.998213
1697	0	0.998213
1698	0	0
1699	0	0
1700	0	0
1701	0	0
1702	1	1
1703	1	1
1704	0	0
1705	0	0
1706	0	0
1707	0	0
1708	0	0
1709	0	0
1710	0	0
1711	0	0.998213
1712	0	0.998213
1713	0	0.998213
1714	0	0.998213
1715	0	0.998213
1716	0	0.998213
1717	0	0.996429
1718	0	0.996429
1719	0	0.996429
1720	1	0
1721	1	0
1722	1	0
1723	0	0
1724	1	0
1725	1	0
1726	1	0
1727	1	0
1728	0	0
1729	0	0
1730	0	0
1731	0	0
1732	0	0.996424
1733	0	0.998213
1734	0	0.998213
1735	0	0.99643
1736	0	0.998214
1737	0	1
1738	0	1
1739	0	0.998213
1740	1	0
1741	1	0
1742	1	0
1743	1	0
1744	1	0
1745	1	0
1746	1	0
1747	1	0
1748	1	0
1749	1	0
1750	1	0
1751	1	0
1752	1	0
1753	1	0
1754	1	0
1755	1	0
1756	1	0
1757	1	1
1758	0	0
1759	1	0
1760	1	0
1761	1	0
1762	0	0.998213
1763	1	1
1764	1	1
1765	1	1
1766	1	1
1767	1	1
1768	1	1
1769	1	1
1770	0	0
1771	0	0
1772	0	0
1773	0	0
1774	0	0
1775	0	0
1776	1	0
1777	0	0
1778	0	0.914551
1779	0	0.9113
1780	0	0.998213
1781	0	0
1782	0	0
1783	0	0
1784	0	0
1785	0	0
1786	0	0
1787	0	0
1788	0	1
1789	0	1
1790	0	1
1791	0	0.998214
1792	0	0.998214
1793	0	0.998214
1794	0	0.998214
1795	0	0.998219
1796	0	0.998219
1797	0	0.998219
1798	0	1
1799	0	1
1800	0	1
1801	0	1
1802	0	0
1803	0	0
1804	0	0.998214
1805	0	0.992891
1806	0	0.984057
1807	0	0.991118
1808	0	0
1809	0	0
1810	1	0
1811	1	0
1812	1	0
1813	1	0
1814	1	0
1815	1	0
1816	1	0
1817	1	0
1818	1	0
1819	1	0
1820	1	0
1821	1	0
1822	1	0
1823	1	0
1824	1	0
1825	1	0
1826	1	0
1827	1	0
1828	1	0
1829	1	0
1830	1	0
1831	1	0
1832	1	0
1833	1	0
1834	1	0
1835	1	0
1836	1	0
1837	1	0
1838	1	0
1839	1	0
1840	1	0
1841	1	0
1842	1	0
1843	1	0
1844	1	0
1845	1	0
1846	1	0
1847	1	0
1848	1	0
1849	1	0
1850	1	0
1851	1	0
1852	1	0
1853	1	0
1854	1	0
1855	1	0
1856	1	0
1857	1	0
1858	1	0
1859	0	0.333333
1860	0	0.6
1861	0	1
1862	1	1
1863	1	1
1864	0	0.998219
1865	0	1
1866	1	1
1867	1	1
1868	1	1
1869	1	1
1870	1	1
1871	1	1
1872	1	1
1873	0	1
1874	0	1
1875	0	1
1876	0	1
1877	1	1
1878	0	0.998216
1879	1	1
1880	0	0.998214
1881	1	1
1882	1	1
1883	1	1
1884	1	1
1885	1	1
1886	1	1
1887	1	1
1888	0	1
1889	1	1
1890	1	1
1891	1	1
1892	1	1
1893	1	1
1894	1	1
1895	1	1
1896	1	1
1897	1	1
1898	1	1
1899	1	1
1900	1	1
1901	1	1
1902	1	1
1903	1	0
1904	1	0
1905	1	0
1906	1	0
1907	1	0
1908	1	0
1909	1	0
1910	1	1
1911	1	1
1912	1	1
1913	1	1
1914	1	1
1915	1	0
1916	1	0
1917	1	0
1918	1	0
1919	1	0
1920	1	0
1921	1	0
1922	1	0
1923	1	0
1924	1	0
1925	1	0
1926	1	0
1927	1	1
1928	1	1
1929	1	1
1930	1	1
1931	1	1
1932	1	1
1933	1	1
1934	1	1
1935	1	1
1936	0	0.992878
1937	0	0.994652
1938	0	1
1939	0	1
1940	0	0
1941	0	0
1942	1	0
1943	1	0
1944	1	0
1945	0	0.998214
1946	0	0.998214
1947	0	0.998214
1948	0	0.998214
1949	1	1
1950	0	1
1951	0	1
1952	1	1
1953	1	1
1954	1	1
1955	1	1
1956	1	1
1957	1	1
1958	1	1
1959	0	1
1960	1	1
1961	0	0.998213
1962	1	1
1963	1	1
1964	1	1
1965	1	1
1966	1	1
1967	1	1
1968	0	0.998213
1969	0	0
1970	1	1
1971	1	1
1972	1	1
1973	1	1
1974	1	1
1975	1	1
1976	1	1
1977	1	1
1978	0	0.998217
1979	0	0
1980	0	0
1981	1	0
1982	1	0
1983	1	0
1984	1	0
1985	0	0
1986	0	0
1987	0	0
1988	0	0
1989	0	0
1990	0	0
1991	0	0
1992	0	0
1993	0	0
1994	0	0
1995	0	0
1996	0	0
1997	0	0
1998	0	0.998217
1999	0	0.991119
2000	0	0
2001	1	1
2002	1	1
2003	1	1
2004	0	1
2005	0	0.81002
2006	0	0.992876
2007	0	0.994643
2008	0	0.998213
2009	0	1
2010	1	1
2011	1	1
2012	1	1
2013	1	1
2014	1	1
2015	1	0
2016	1	0
2017	1	0
2018	1	0
2019	1	0
2020	1	0
2021	0	0
2022	0	0
2023	0	0
2024	0	0
2025	0	0.998213
2026	0	0.998213
2027	0	0.998213
2028	0	0.998214
2029	0	0.998214
2030	0	0.998214
2031	0	0.998214
2032	0	0.998214
2033	0	0.998214
2034	0	1
2035	0	1
2036	0	1
2037	0	0.975278
2038	0	0.70554
2039	0	0.705937
2040	0	0.527273
2041	0	0.672727
2042	0	0.560606
2043	0	0.406593
2044	0	0.428571
2045	0	0.461538
2046	0	0.69751
2047	0	0.541667
2048	0	0.313153
2049	0	0.21
2050	0	0.117647
2051	0	0.460256
2052	0	0.544828
2053	0	0.655314
2054	0	0.333333
2055	0	0.611111
2056	0	0.611111
2057	0	0.611111
2058	0	0.611111
2059	0	0.611111
2060	0	0.611111
2061	0	0.611111
2062	0	0.611111
2063	0	0.611111
2064	0	0.611111
2065	0	0.611111
2066	0	0.611111
2067	0	0.611111
2068	0	0.611111
2069	0	0.880536
2070	0	0.681818
2071	0	0.681818
2072	0	0.898405
2073	0	0.898405
2074	0	0.996433
2075	0	0
2076	0	0
2077	0	0
2078	0	0
2079	0	1
2080	0	1
2081	0	1
2082	0	1
2083	0	1
2084	0	1
2085	0	0.998214
2086	0	0
2087	0	0.998216
2088	0	0.998214
2089	0	0.998214
2090	0	0.998214
2091	1	0
2092	1	0
2093	1	0
2094	1	0
2095	1	0
2096	1	0
2097	1	0
2098	1	0
2099	1	0
2100	1	0
2101	0	1
2102	0	1
2103	0	1
2104	0	0.998213
2105	0	1
2106	1	1
2107	1	1
2108	1	1
2109	1	1
2110	1	1
2111	1	1
2112	0	1
2113	0	1
2114	0	1
2115	0	1
2116	0	1
2117	0	0.998211
2118	0	0.996424
2119	0	0
2120	0	0
2121	0	0
2122	0	0
2123	0	0
2124	0	0
2125	0	0
2126	0	0
2127	0	0
2128	0	0
2129	0	0
2130	0	0
2131	0	0
2132	0	0
2133	0	0
2134	0	0
2135	0	0
2136	0	0
2137	0	0
2138	0	0
2139	1	0
2140	1	0
2141	1	0
2142	0	0.998211
2143	0	0.998211
2144	0	0.998209
2145	0	0.998209
2146	0	0.998209
2147	0	0.998208
2148	0	0.998208
2149	0	0.996424
2150	0	0.996427
2151	0	0.996427
2152	0	0.996427
2153	0	0.996427
2154	0	0.996427
2155	0	0.998211
2156	0	0
2157	0	0
2158	0	0.998213
2159	0	0.996427
2160	0	0.998211
2161	0	0.998211
2162	0	0.998211
2163	0	0.998209
2164	0	0.998209
2165	0	0.998214
2166	0	0.998214
2167	0	0.998214
2168	0	0.998214
2169	0	0.998214
2170	0	0.998214
2171	0	0.998214
2172	0	0.998213
2173	0	0.998214
2174	0	1
2175	0	0.998213
2176	0	0.99643
2177	0	0.99643
2178	0	0
2179	0	0
2180	0	0.333333
2181	0	0.584704
2182	0	0.97348
2183	0	0.982225
2184	0	1
2185	0	0
2186	0	0.996427
2187	0	0.99643
2188	0	0.99643
2189	0	0.996433
2190	0	0.99643
2191	0	0
2192	0	0
2193	1	0
2194	1	0
2195	1	0
2196	1	0
2197	1	0
2198	1	0
2199	0	0
2200	0	0
2201	0	0
2202	0	0
2203	0	0
2204	0	0
2205	0	0
2206	0	0
2207	0	0.998214
2208	0	0.998214
2209	0	0.998214
2210	1	0
2211	0	0.99643
2212	0	0.99643
2213	0	0
2214	0	0
2215	0	0
2216	0	0
2217	0	0
2218	0	0
2219	0	0
2220	0	0
2221	0	0
2222	0	0
2223	0	0
2224	0	0
2225	0	0
2226	0	0
2227	0	0
2228	1	0
2229	1	0
2230	1	0
2231	0	0
2232	0	0
2233	0	0
2234	0	0
2235	0	0
2236	0	0
2237	0	0
2238	0	0
2239	0	0.994648
2240	0	0.994648
2241	0	0
2242	0	0
2243	0	0
2244	0	0
2245	0	0
2246	0	0
2247	0	0
2248	0	0
2249	0	0
2250	0	0
2251	0	0
2252	0	0
2253	0	0
2254	0	0
2255	0	0
2256	0	0
2257	0	0
2258	0	0
2259	0	0
2260	0	0
2261	0	0
2262	0	0
2263	0	0
2264	0	0
2265	0	0
2266	0	0
2267	0	0
2268	0	0
2269	0	0
2270	0	0
2271	0	0
2272	0	0
2273	0	0
2274	0	0
2275	0	0
2276	0	0
2277	0	0
2278	0	0
2279	0	0
2280	0	0
2281	0	0
2282	0	0
2283	0	0
2284	0	0
2285	0	0
2286	0	0
2287	0	0
2288	0	0
2289	0	0
2290	0	0
2291	0	0
2292	0	0
2293	0	0
2294	0	0
2295	0	0
2296	0	0
2297	0	0
2298	0	0
2299	0	0
2300	0	0
2301	0	0
2302	0	0
2303	0	0
2304	0	0
2305	0	0
2306	0	0
2307	0	0
2308	0	0
2309	0	0
2310	0	0
2311	0	0
2312	0	0
2313	0	0
2314	0	0
2315	0	0
2316	0	0
2317	0	0
2318	0	0
2319	0	0
2320	0	0
2321	0	0
2322	0	0
2323	0	0
2324	0	0
2325	0	0
2326	0	0
2327	0	0
2328	0	0
2329	0	0
2330	0	0
2331	0	0
2332	0	0
2333	0	0
2334	0	0
2335	0	0
2336	0	0
2337	0	0
2338	0	0
2339	0	0
2340	0	0
2341	0	0
2342	0	0
2343	0	0
2344	0	0
2345	0	0
2346	0	0
2347	0	0
2348	0	0
2349	0	0
2350	0	0
2351	0	0
2352	0	0
2353	0	0
2354	0	0
2355	0	0
2356	0	0
2357	0	0
2358	0	0
2359	0	0
2360	0	0
2361	0	0
2362	0	0
2363	0	0
2364	0	0
2365	0	0
2366	0	0
2367	0	0
2368	0	0
2369	0	0
2370	0	0
2371	0	0
2372	0	0
2373	0	0
2374	0	0
2375	0	0
2376	0	0
2377	0	0
2378	0	0
2379	0	0
2380	0	0
2381	0	0
2382	0	0
2383	0	0
2384	0	0
2385	0	0
2386	0	0
2387	0	0
2388	0	0
2389	0	0
2390	0	0
2391	0	0
2392	0	0
2393	0	0
2394	0	0
2395	0	0
2396	0	0
2397	0	0
2398	0	0
2399	0	0
2400	0	0
2401	0	0
2402	0	0
2403	0	0
2404	0	0
2405	0	0
2406	0	0
2407	0	0
2408	0	0
2409	0	0
2410	0	0
2411	0	0
2412	0	0
2413	0	0
2414	0	0
2415	0	0
2416	0	0
2417	0	0
2418	0	0
2419	0	0
2420	0	0
2421	0	0
2422	0	0
2423	0	0
2424	0	0
2425	0	0
2426	0	0
2427	0	0
2428	0	0
2429	0	0
2430	0	0
2431	0	0
2432	0	0
2433	0	0
2434	0	0
2435	0	0
2436	0	0
2437	0	0
2438	0	0
2439	0	0
2440	0	0
2441	0	0
2442	0	0
2443	0	0
2444	0	0
2445	0	0
2446	0	0
2447	0	0
2448	0	0
2449	0	0
2450	0	0
2451	0	0
2452	0	0
2453	0	0
2454	0	0
2455	0	0
2456	0	0
2457	0	0
2458	0	0
2459	0	0
2460	0	0
2461	0	0
2462	0	0
2463	0	0
2464	0	0
2465	0	0
2466	0	0
2467	0	0
2468	0	0
2469	0	0
2470	0	0
2471	0	0
2472	0	0
2473	0	0
2474	0	0
2475	0	0
2476	0	0
2477	0	0
2478	0	0
2479	0	0
2480	0	0
2481	0	0
2482	0	0
2483	0	0
2484	0	0
2485	0	0
2486	0	0.99286
2487	0	0.99286
2488	0	0
2489	0	0.991081
2490	0	0.989321
2491	0	0.989321
2492	0	0
2493	0	0
2494	0	0
2495	0	0
2496	0	0
2497	0	0
2498	0	0
2499	0	0
2500	0	0
2501	0	0
2502	0	0
2503	0	0
2504	0	0
2505	0	0
2506	0	0
2507	0	0
2508	0	0
2509	0	0
2510	0	0
2511	0	0
2512	0	0
2513	0	0
2514	0	0
2515	0	0
2516	0	0
2517	0	0
2518	0	0
2519	0	0
2520	0	0
2521	0	0
2522	0	0
2523	0	0
2524	0	0
2525	0	0
2526	0	0
2527	0	0
2528	0	0
2529	0	0
2530	0	0
2531	0	0
2532	0	0
2533	0	0
2534	0	0
2535	0	0
2536	0	0
2537	0	0
2538	0	0
2539	0	0
2540	0	0
2541	0	0
2542	0	0
2543	0	0
2544	0	0
2545	0	0
2546	0	0
2547	0	0
2548	0	0
2549	0	0
2550	0	0
2551	0	0
2552	0	0
2553	0	0
2554	0	0
2555	0	0
2556	0	0.989321
2557	0	0.989321
2558	0	0.985775
2559	0	0.985775
2560	0	0.985775
2561	0	0.989321
2562	0	0.99286
2563	0	0.99286
2564	0	0.99286
2565	0	0.99286
2566	0	0
2567	0	0
2568	0	0
2569	0	0
2570	0	0
2571	0	0
2572	0	0
2573	0	0
2574	0	0
2575	0	0
2576	0	0
2577	0	0
2578	0	0
2579	0	0
2580	0	0
2581	0	0
2582	0	0
2583	0	0
2584	0	0
2585	0	0
2586	0	0
2587	0	0
2588	0	0
2589	0	0
2590	0	0
2591	0	0
2592	0	0
2593	0	0
2594	0	0
2595	0	0
2596	0	0
2597	0	0
2598	0	0
2599	0	0
2600	0	0
2601	0	0
2602	0	0
2603	0	0
2604	0	0
2605	0	0
2606	0	0
2607	0	0
2608	0	0
2609	0	0
2610	0	0
2611	0	0
2612	0	0
2613	0	0
2614	0	0
2615	0	0
2616	0	0
2617	0	0
2618	0	0
2619	0	0
2620	0	0
2621	0	0
2622	0	0
2623	0	0
2624	0	0
2625	0	0
2626	0	0
2627	0	0
2628	0	0
2629	0	0
2630	0	0.9893
2631	0	0
2632	0	0
2633	0	0
2634	0	0
2635	0	0
2636	0	0
2637	0	0
2638	0	0.991079
2639	0	0.991079
2640	0	0.991079
2641	0	0
2642	0	0
2643	0	0
2644	0	0
2645	0	0
2646	0	0.98931
2647	0	0.98931
2648	0	0
2649	0	0
2650	0	0
2651	0	0
2652	0	0
2653	0	0
2654	0	0
2655	0	0
2656	0	0
2657	0	0
2658	0	0
2659	0	0
2660	0	0
2661	0	0
2662	0	0
2663	0	0
2664	0	0
2665	0	0
2666	0	0
2667	0	0
2668	0	0
2669	0	0
2670	0	0
2671	0	0
2672	0	0
2673	0	0
2674	0	0
2675	0	0
2676	0	0
2677	0	0
2678	0	0
2679	0	0
2680	0	0
2681	0	0
2682	0	0
2683	0	0
2684	0	0
2685	0	0
2686	0	0
2687	0	0
2688	0	0
2689	0	0
2690	0	0
2691	0	0
2692	0	0
2693	0	0
2694	0	0
2695	0	0
2696	0	0
2697	0	0
2698	0	0
2699	0	0
2700	0	0
2701	0	0
2702	0	0
2703	0	0
2704	0	0
2705	0	0
2706	0	0
2707	0	0
2708	0	0
2709	0	0
2710	0	0
2711	0	0
2712	0	0
2713	0	0
2714	0	0
2715	0	0
2716	0	0
2717	0	0
2718	0	0
2719	0	0
2720	0	0
2721	0	0
2722	0	0
2723	0	0
2724	0	0
2725	0	0
2726	0	0
2727	0	0
2728	0	0
2729	0	0
2730	0	0
2731	0	0
2732	0	0
2733	0	0
2734	0	0
2735	0	0
2736	0	0
2737	0	0
2738	0	0
2739	0	0
2740	0	0
2741	0	0
2742	0	0
2743	0	0
2744	0	0
2745	0	0
2746	0	0
2747	0	0
2748	0	0
2749	0	0
2750	0	0
2751	0	0
2752	0	0
2753	0	0
2754	0	0
2755	0	0
2756	0	0
2757	0	0
2758	0	0
2759	0	0
2760	0	0
2761	0	0
2762	0	0
2763	0	0
2764	0	0
2765	0	0
2766	0	0
2767	0	0
2768	0	0
2769	0	0
2770	0	0
2771	0	0
2772	0	0
2773	0	0
2774	0	0
2775	0	0
2776	0	0
2777	0	0
2778	0	0
2779	0	0
2780	0	0
2781	0	0
2782	0	0
2783	0	0
2784	0	0
2785	0	0
2786	0	0
2787	0	0
2788	0	0
2789	1	0
2790	1	0
2791	0	0
2792	0	0
2793	0	0
2794	0	0
2795	0	0
2796	0	0
2797	0	0
2798	0	0
2799	0	0
2800	0	0
2801	0	0
2802	0	0
2803	0	0
2804	0	0
2805	0	0
2806	0	0
2807	0	0
2808	0	0
2809	0	0
2810	0	0
2811	0	0
2812	0	0
2813	0	0
2814	0	0
2815	0	0
2816	0	0
2817	0	0
2818	0	0
2819	0	0
2820	0	0
2821	0	0
2822	0	0
2823	0	0
2824	0	0
2825	0	0
2826	0	0
2827	0	0
2828	0	0
2829	0	0
2830	0	0
2831	0	0
2832	0	0
2833	0	0
2834	0	0
2835	0	0
2836	0	0
2837	0	0
2838	0	0
2839	0	0
2840	0	0
2841	0	0
2842	0	0
2843	0	0
2844	0	0
2845	0	0
2846	0	0
2847	0	0
2848	0	0
2849	0	0
2850	0	0
2851	0	0
2852	0	0
2853	0	0
2854	0	0
2855	0	0
2856	0	0
2857	0	0
2858	0	0
2859	0	0
2860	0	0
2861	0	0
2862	0	0
2863	0	0
2864	0	0
2865	0	0
2866	0	0
2867	0	0
2868	0	0
2869	0	0
2870	0	0
2871	0	0
2872	0	0
2873	0	0
2874	0	0
2875	0	0
2876	0	0
2877	1	0
2878	1	0
2879	0	0
2880	0	0
2881	0	0
2882	0	0
2883	0	0
2884	0	0
2885	0	0
2886	0	0
2887	0	0
2888	0	0
2889	0	0
2890	0	0
2891	0	0
2892	0	0
2893	0	0
2894	0	0
2895	0	0
2896	0	0
2897	0	0
2898	0	0
2899	0	0
2900	0	0
2901	0	0
2902	0	0
2903	0	0
2904	0	0
2905	0	0
2906	0	0
2907	0	0
2908	0	0
2909	0	0
2910	0	0
2911	0	0
2912	0	0
2913	0	0
2914	0	0
2915	0	0
2916	0	0
2917	0	0
2918	0	0
2919	0	0
2920	0	0
2921	0	0
2922	0	0
2923	0	0
2924	0	0
2925	0	0
2926	0	0
2927	0	0
2928	0	0
2929	0	0
2930	0	0
2931	0	0
2932	0	0
2933	0	0
2934	0	0
2935	0	0
2936	0	0
2937	0	0
2938	0	0
2939	0	0
2940	0	0
2941	0	0
2942	0	0
2943	0	0
2944	0	0
2945	0	0
2946	0	0
2947	0	0
2948	0	0
2949	0	0
2950	0	0
2951	0	0
2952	0	0
2953	0	0
2954	0	0
2955	0	0
2956	0	0
2957	0	0
2958	0	0
2959	0	0
2960	0	0
2961	0	0
2962	0	0
2963	0	0
2964	0	0
2965	0	0
2966	0	0
2967	0	0
2968	0	0
2969	0	0
2970	0	0
2971	0	0
2972	0	0
2973	0	0
2974	0	0
2975	0	0
2976	0	0
2977	0	0
2978	0	0
2979	0	0
2980	0	0
2981	0	0
2982	0	0
2983	0	0.985735
2984	0	0.5
2985	0	0.5
2986	0	0.3
2987	0	0.3
2988	0	0.3
2989	0	0.166667
2990	0	0.166667
2991	0	0.166667
2992	0	0.5
2993	0	0.5
2994	0	0.166667
2995	0	0.166667
2996	0	0.166667
2997	0	0.166667
2998	0	0.166667
2999	0	0.166667
3000	0	0.166667
3001	0	0.166667
3002	0	0.166667
3003	0	0.166667
3004	0	0.166667
3005	0	0
3006	0	0
3007	0	0
3008	0	0
3009	0	0
3010	0	0
3011	0	0
3012	0	0
3013	0	0
3014	0	0
3015	0	0
3016	0	0
3017	0	0
3018	0	0
3019	0	0
3020	0	0
3021	0	0
3022	0	0
3023	0	0
3024	0	0
3025	0	0
3026	0	0
3027	0	0
3028	0	0
3029	0	0
3030	0	0
3031	0	0
3032	0	0
3033	0	0
3034	0	0
3035	0	0
3036	0	0
3037	0	0
3038	0	0
3039	0	0
3040	0	0
3041	0	0
3042	0	0
3043	0	0
3044	0	0
3045	0	0
3046	0	0
3047	0	0
3048	0	0
3049	0	0
3050	0	0
3051	0	0
3052	0	0
3053	0	0
3054	0	0
3055	0	0
3056	0	0
3057	0	0
3058	0	0
3059	0	0
3060	0	0
3061	0	0
3062	0	0
3063	0	0
3064	0	0
3065	0	0
3066	0	0
3067	0	0
3068	0	0
3069	0	0
3070	0	0
3071	0	0
3072	0	0
3073	0	0
3074	0	0
3075	0	0
3076	0	0
3077	0	0
3078	0	0
3079	0	0
3080	0	0
3081	0	0
3082	0	0
3083	0	0
3084	0	0
3085	0	0
3086	0	0
3087	0	0
3088	0	0
3089	0	0
3090	0	0
3091	0	0
3092	0	0
3093	0	0
3094	0	0
3095	0	0
3096	0	0
3097	0	0
3098	0	0
3099	0	0
3100	0	0
3101	0	0
3102	0	0
3103	0	0
3104	0	0
3105	0	0
3106	0	0
3107	0	0
3108	0	0
3109	0	0
3110	0	0
3111	0	0
3112	0	0
3113	0	0
3114	0	0
3115	0	0
3116	0	0
3117	0	0
3118	0	0
3119	0	0
3120	0	0
3121	0	0
3122	0	0
3123	0	0
3124	0	0
3125	0	0
3126	0	0
3127	0	0
3128	0	0
3129	0	0
3130	0	0
3131	0	0
3132	0	0
3133	0	0
3134	0	0
3135	0	0
3136	0	0
3137	0	0
3138	0	0
3139	0	0
3140	0	0
3141	0	0
3142	0	0
3143	0	0
3144	0	0
3145	0	0
3146	0	0
3147	0	0
3148	0	0
3149	0	0
3150	0	0
3151	0	0
3152	0	0
3153	0	0
3154	0	0
3155	0	0
3156	0	0
3157	0	0
3158	0	0
3159	0	0
3160	0	0
3161	0	0
3162	0	0
3163	0	0
3164	0	0
3165	0	0
3166	0	0
3167	0	0
3168	0	0
3169	0	0
3170	0	0
3171	0	0
3172	0	0
3173	0	0
3174	0	0
3175	0	0
3176	0	0
3177	0	0
3178	0	0
3179	0	0
3180	0	0
3181	0	0
3182	0	0
3183	0	0
3184	0	0
3185	0	0
3186	0	0
3187	0	0
3188	0	0
3189	0	0
3190	0	0
3191	0	0
3192	0	0
3193	0	0
3194	0	0
3195	0	0
3196	0	0
3197	0	0
3198	0	0
3199	0	0
3200	0	0
3201	0	0
3202	0	0
3203	0	0
3204	0	0
3205	0	0
3206	0	0
3207	0	0
3208	0	0
3209	0	0
3210	0	0
3211	0	0
3212	0	0
3213	0	0
3214	0	0
3215	0	0
3216	0	0
3217	0	0
3218	0	0
3219	0	0
3220	0	0
3221	0	0
3222	0	0
3223	0	0
3224	0	0
3225	0	0
3226	0	0
3227	0	0
3228	0	0
3229	0	0
3230	0	0
3231	0	0
3232	0	0
3233	0	0
3234	0	0
3235	0	0
3236	0	0
3237	0	0
3238	0	0
3239	0	0
3240	0	0
3241	0	0
3242	0	0
3243	0	0
3244	0	0
3245	0	0
3246	0	0
3247	0	0
3248	0	0
3249	0	0
3250	0	0
3251	0	0
3252	0	0.978645
3253	0	0.978645
3254	0	0.969745
3255	0	0.618871
3256	0	0.429435
3257	0	0.29803
3258	0	0.115789
3259	0	0.128655
3260	0	0.104575
3261	0	0.110294
3262	0	0.125
3263	0	0.0833333
3264	0	0.032967
3265	0	0.025641
3266	0	0.025641
3267	0	0.030303
3268	0	0.030303
3269	0	0.030303
3270	0	0.0181818
3271	0	0.0181818
3272	0	0.0181818
3273	0	0.0151515
3274	0	0.0151515
3275	0	0.0151515
3276	0	0.0151515
3277	0	0.030303
3278	0	0.0151515
3279	0	0.0128205
3280	0	0.0128205
3281	0	0.0384615
3282	0	0.0384615
3283	0	0.0512821
3284	0	0.0512821
3285	0	0.0512821
3286	0	0.0512821
3287	0	0.0512821
3288	0	0.0606061
3289	0	0.0606061
3290	0	0.0606061
3291	0	0.0549451
3292	0	0.0549451
3293	0	0.0549451
3294	0	0.0549451
3295	0	0.05
3296	0	0.05
3297	0	0.05
3298	0	0.05
3299	0	0.0571429
3300	0	0.0571429
3301	0	0.0571429
3302	0	0.0571429
3303	0	0.0571429
3304	0	0.0571429
3305	0	0.0666667
3306	0	0.0666667
3307	0	0.0666667
3308	0	0.0666667
3309	0	0.0666667
3310	0	0.0666667
3311	0	0.0666667
3312	0	0.047619
3313	0	0.047619
3314	0	0.0441176
3315	0	0.0441176
3316	0	0.0441176
3317	0	0.0441176
3318	0	0.0441176
3319	0	0.0441176
3320	0	0.0441176
3321	0	0.0441176
3322	0	0.0441176
3323	0	0.05
3324	0	0.05
3325	0	0.05
3326	0	0.05
3327	0	0.05
3328	0	0.05
3329	0	0.05
3330	0	0.05
3331	0	0.0441176
3332	0	0.0441176
3333	0	0.0441176
3334	0	0.05
3335	0	0.05
3336	0	0.05
3337	0	0.05
3338	0	0.0571429
3339	0	0.0571429
3340	0	0.0571429
3341	0	0.0659341
3342	0	0.0659341
3343	0	0.0659341
3344	0	0.0659341
3345	0	0.0659341
3346	0	0.0659341
3347	0	0.0659341
3348	0	0.0659341
3349	0	0.0659341
3350	0	0.0659341
3351	0	0.0659341
3352	0	0.0769231
3353	0	0.0769231
3354	0	0.0769231
3355	0	0.0769231
3356	0	0.0769231
3357	0	0.0769231
3358	0	0.0769231
3359	0	0.0769231
3360	0	0.0769231
3361	0	0.0769231
3362	0	0.0769231
3363	0	0.0769231
3364	0	0.0769231
3365	0	0.0769231
3366	0	0.0769231
3367	0	0.0769231
3368	0	0.0769231
3369	0	0.0769231
3370	0	0.0769231
3371	0	0.0769231
3372	0	0.0909091
3373	0	0.0909091
3374	0	0.0909091
3375	0	0.0909091
3376	0	0.0909091
3377	0	0.0909091
3378	0	0.0909091
3379	0	0.0909091
3380	0	0.0909091
3381	0	0.0909091
3382	0	0.0909091
3383	0	0.0909091
3384	0	0.0909091
3385	0	0.0909091
3386	0	0.0909091
3387	0	0.0909091
3388	0	0.0909091
3389	0	0.0909091
3390	0	0.0909091
3391	0	0.0909091
3392	0	0.0909091
3393	0	0.0909091
3394	0	0.0909091
3395	0	0.0909091
3396	0	0.0909091
3397	0	0.0909091
3398	0	0.0909091
3399	0	0.0909091
3400	0	0.0909091
3401	0	0.0769231
3402	0	0.164835
3403	0	0.274725
3404	0	0.274725
3405	0	0.274725
3406	0	0.274725
3407	0	0.428571
3408	0	0.428571
3409	0	0.428571
3410	0	0.428571
3411	0	0.428571
3412	0	0.428571
3413	0	0.428571
3414	0	0.428571
3415	0	0.428571
3416	0	0.428571
3417	0	0.428571
3418	0	0.428571
3419	0	0.428571
3420	0	0.428571
3421	0	0.428571
3422	0	0.428571
3423	0	0.428571
3424	0	0.428571
3425	0	0.428571
3426	0	0.428571
3427	0	0.428571
3428	0	0.428571
3429	0	0.428571
3430	0	0.428571
3431	0	0.428571
3432	0	0.428571
3433	0	0.428571
3434	0	0.428571
3435	0	0.428571
3436	0	0.428571
3437	0	0.428571
3438	0	0.428571
3439	0	0.428571
3440	0	0.428571
3441	0	0.428571
3442	0	0.428571
3443	0	0.428571
3444	0	0.406593
3445	0	0.406593
3446	0	0.428571
3447	0	0.428571
3448	0	0.428571
3449	0	0.428571
3450	0	0.428571
3451	0	0.428571
3452	0	0.428571
3453	0	0.428571
3454	0	0.428571
3455	0	0.428571
3456	0	0.428571
3457	0	0.428571
3458	0	0.428571
3459	0	0.428571
3460	0	0.428571
3461	0	0.428571
3462	0	0.428571
3463	0	0.428571
3464	0	0.428571
3465	0	0.428571
3466	0	0.428571
3467	0	0.428571
3468	0	0.428571
3469	0	0.428571
3470	0	0.428571
3471	0	0.428571
3472	0	0.428571
3473	0	0.428571
3474	0	0.428571
3475	0	0.428571
3476	0	0.428571
3477	0	0.428571
3478	0	0.428571
3479	0	0.428571
3480	0	0.428571
3481	0	0.428571
3482	0	0.428571
3483	0	0.428571
3484	0	0.428571
3485	0	0.428571
3486	0	0.428571
3487	0	0.428571
3488	0	0.428571
3489	0	0.428571
3490	0	0.428571
3491	0	0.428571
3492	0	0.428571
3493	0	0.428571
3494	0	0.428571
3495	0	0.428571
3496	0	0.428571
3497	0	0.428571
3498	0	0.428571
3499	0	0.428571
3500	0	0.428571
3501	0	0.428571
3502	0	0.428571
3503	0	0.428571
3504	0	0.428571
3505	0	0.428571
3506	0	0.428571
3507	0	0.428571
3508	0	0.428571
3509	0	0.428571
3510	0	0.428571
3511	0	0.428571
3512	0	0.428571
3513	0	0.428571
3514	0	0.428571
3515	0	0.428571
3516	0	0.428571
3517	0	0.428571
3518	0	0.428571
3519	0	0.428571
3520	0	0.428571
3521	0	0.428571
3522	0	0.428571
3523	0	0.428571
3524	0	0.428571
3525	0	0.428571
3526	0	0.428571
3527	0	0.428571
3528	0	0.428571
3529	0	0.428571
3530	0	0.428571
3531	0	0.5
3532	0	0.5
3533	0	0.5
3534	0	0.5
3535	0	0.5
3536	0	0.5
3537	0	0.5
3538	0	0.5
3539	0	0.5
3540	0	0.5
3541	0	0.5
3542	0	0.5
3543	0	0.5
3544	0	0.5
3545	0	0.5
3546	0	0.5
3547	0	0.5
3548	0	0.5
3549	0	0.5
3550	0	0.5
3551	0	0.5
3552	0	0.5
3553	0	0.5
3554	0	0.5
3555	0	0.5
3556	0	0.5
3557	0	0.5
3558	0	0.5
3559	0	0.5
3560	0	0.5
3561	0	0.5
3562	0	0.5
3563	0	0.5
3564	0	0.5
3565	0	0.5
3566	0	0.5
3567	0	0.5
3568	0	0.5
3569	0	0.5
3570	0	0.5
3571	0	0.5
3572	0	0.5
3573	0	0.5
3574	0	0.5
3575	0	0.5
3576	0	0.5
3577	0	0.5
3578	0	0.5
3579	0	0.5
3580	0	0.5
3581	0	0.5
3582	0	0.5
3583	0	0.5
3584	0	0.5
3585	0	0.5
3586	0	0.5
3587	0	0.5
3588	0	0.5
3589	0	0.5
3590	0	0.5
3591	0	0.5
3592	0	0.5
3593	0	0.5
3594	0	0.5
3595	0	0.5
3596	0	0.5
3597	0	0.5
3598	0	0.5
3599	0	0.5
3600	0	0.5
3601	0	0.5
3602	0	0.5
3603	0	0.5
3604	0	0.5
3605	0	0.5
3606	0	0.5
3607	0	0.5
3608	0	0.5
3609	0	0.5
3610	0	0.5
3611	0	0.5
3612	0	0.5
3613	0	0.5
3614	0	0.5
3615	0	0.5
3616	0	0.5
3617	0	0.5
3618	0	0.474359
3619	0	0.474359
3620	0	0.474359
3621	0	0.474359
3622	0	0.474359
3623	0	0.474359
3624	0	0.474359
3625	0	0.474359
3626	0	0.474359
3627	0	0.474359
3628	0	0.474359
3629	0	0.474359
3630	0	0.474359
3631	0	0.474359
3632	0	0.474359
3633	0	0.474359
3634	0	0.560606
3635	0	0.560606
3636	0	0.560606
3637	0	0.560606
3638	0	0.560606
3639	0	0.560606
3640	0	0.560606
3641	0	0.560606
3642	0	0.560606
3643	0	0.560606
3644	0	0.560606
3645	0	0.560606
3646	0	0.560606
3647	0	0.560606
3648	0	0.560606
3649	0	0.560606
3650	0	0.560606
3651	0	0.560606
3652	0	0.560606
3653	0	0.560606
3654	0	0.560606
3655	0	0.560606
3656	0	0.560606
3657	0	0.560606
3658	0	0.560606
3659	0	0.560606
3660	0	0.560606
3661	0	0.560606
3662	0	0.560606
3663	0	0.560606
3664	0	0.560606
3665	0	0.560606
3666	0	0.560606
3667	0	0.560606
3668	0	0.560606
3669	0	0.560606
3670	0	0.560606
3671	0	0.560606
3672	0	0.560606
3673	0	0.560606
3674	0	0.560606
3675	0	0.560606
3676	0	0.560606
3677	0	0.560606
3678	0	0.560606
3679	0	0.560606
3680	0	0.560606
3681	0	0.560606
3682	0	0.560606
3683	0	0.560606
3684	0	0.560606
3685	0	0.560606
3686	0	0.560606
3687	0	0.560606
3688	0	0.560606
3689	0	0.560606
3690	0	0.560606
3691	0	0.560606
3692	0	0.560606
3693	0	0.560606
3694	0	0.560606
3695	0	0.560606
3696	0	0.560606
3697	0	0.560606
3698	0	0.560606
3699	0	0.560606
3700	0	0.560606
3701	0	0.560606
3702	0	0.560606
3703	0	0.560606
3704	0	0.545455
3705	0	0.545455
3706	0	0.545455
3707	0	0.545455
3708	0	0.654545
3709	0	0.654545
3710	0	0.654545
3711	0	0.654545
3712	0	0.654545
3713	0	0.654545
3714	0	0.654545
3715	0	0.654545
3716	0	0.654545
3717	0	0.654545
3718	0	0.8
3719	0	0.8
3720	0	0.8
3721	0	0.8
3722	0	0.8
3723	0	0.8
3724	0	1
3725	0	1
3726	0	1
3727	0	1
3728	0	1
3729	0	1
3730	0	1
3731	0	1
3732	0	1
3733	0	1
3734	0	1
3735	0	1
3736	0	1
3737	0	1
3738	0	1
3739	0	1
3740	0	1
3741	0	1
3742	0	1
3743	0	1
3744	0	1
3745	0	1
3746	0	1
3747	0	1
3748	0	1
3749	0	1
3750	0	1
3751	0	1
3752	0	1
3753	0	1
3754	0	1
3755	0	1
3756	0	1
3757	0	1
3758	0	1
3759	0	1
3760	0	1
3761	0	1
3762	0	1
3763	0	1
3764	0	1
3765	0	1
3766	0	1
3767	0	1
3768	0	1
3769	0	1
3770	0	1
3771	0	1
3772	0	1
3773	0	1
3774	0	1
3775	0	1
3776	0	1
3777	0	1
3778	0	1
3779	0	1
3780	0	1
3781	0	1
3782	0	1
3783	0	1
3784	0	1
3785	0	1
3786	0	1
3787	0	1
3788	0	1
3789	0	1
3790	0	1
3791	0	1
3792	0	1
3793	0	1
3794	0	1
3795	0	1
3796	0	1
3797	0	1
3798	0	1
3799	0	1
3800	0	1
