Site	ColumnScore	SumOfPairsScore
1	0	0
2	0	0
3	0	0
4	0	0
5	0	0
6	0	0
7	0	0
8	0	0
9	0	0
10	0	0
11	0	0
12	0	0
13	0	0
14	0	0
15	0	0
16	0	0
17	0	0
18	0	0
19	0	0
20	0	0
21	0	0
22	0	0
23	0	0
24	0	0
25	0	0
26	0	0
27	0	0
28	0	0
29	0	0
30	0	0
31	0	0
32	0	0
33	0	0
34	0	0
35	0	0
36	0	0
37	0	0
38	0	0
39	0	0
40	0	0
41	1	0
42	0	0
43	0	0
44	0	0
45	0	0
46	0	0
47	0	0
48	0	0
49	0	0
50	0	0
51	0	0
52	0	0
53	0	0
54	0	0
55	0	0
56	0	0
57	0	0
58	0	0
59	0	0
60	0	0
61	0	0
62	0	0
63	0	0.166667
64	0	0.166667
65	0	0.166667
66	0	0.166667
67	0	0.166667
68	0	0.166667
69	0	0.166667
70	0	0.166667
71	0	0.166667
72	0	0.166667
73	0	0.166667
74	0	0.166667
75	0	0.166667
76	0	0.166667
77	0	0.166667
78	0	0.166667
79	0	0.166667
80	0	0.166667
81	0	0.166667
82	0	0.166667
83	0	0.166667
84	0	0.166667
85	0	0.166667
86	0	0.166667
87	0	0.166667
88	0	0.166667
89	0	0.166667
90	0	0.166667
91	0	0.166667
92	0	0.166667
93	0	0.166667
94	0	0.166667
95	0	0.166667
96	0	0.166667
97	0	0.166667
98	0	0.166667
99	0	0.166667
100	0	0.166667
101	0	0.166667
102	0	0.166667
103	0	0.166667
104	0	0.166667
105	0	0.166667
106	0	0.166667
107	0	0.166667
108	0	0.166667
109	0	0.166667
110	0	0.166667
111	0	0.166667
112	0	0.166667
113	0	0.166667
114	0	0.166667
115	0	0.166667
116	0	0.166667
117	0	0.166667
118	0	0.166667
119	0	0.166667
120	0	0.166667
121	0	0.166667
122	0	0.166667
123	0	0.166667
124	0	0.166667
125	0	0.166667
126	0	0.166667
127	0	0.166667
128	0	0.166667
129	0	0.166667
130	0	0.166667
131	0	0.166667
132	0	0.166667
133	0	0.166667
134	0	0.166667
135	0	0.166667
136	0	0.166667
137	0	0.166667
138	0	0.166667
139	0	0.166667
140	0	0.166667
141	0	0.166667
142	0	0.166667
143	0	0.166667
144	0	0.166667
145	0	0.166667
146	0	0.166667
147	0	0.166667
148	0	0.1
149	0	0.1
150	0	0.1
151	0	0.3
152	0	0.3
153	0	0.3
154	0	0.3
155	0	0.3
156	0	0.3
157	0	0.3
158	0	0.3
159	0	0.3
160	0	0.3
161	0	0.3
162	0	0.3
163	0	0.3
164	0	0.3
165	0	0.3
166	0	0.3
167	0	0.3
168	0	0.3
169	0	0.1
170	0	0.1
171	0	0.1
172	0	0.1
173	0	0.1
174	0	0.1
175	0	0.1
176	0	0.1
177	0	0.1
178	0	0.1
179	0	0.1
180	0	0.1
181	0	0.1
182	0	0.1
183	0	0.1
184	0	0.1
185	0	0.1
186	0	0.1
187	0	0.1
188	0	0.1
189	0	0.1
190	0	0.1
191	0	0.1
192	0	0.1
193	0	0.1
194	0	0.1
195	0	0.1
196	0	0.1
197	0	0.1
198	0	0.1
199	0	0.1
200	0	0.1
201	0	0.1
202	0	0.1
203	0	0.1
204	0	0.1
205	0	0.1
206	0	0.1
207	0	0.1
208	0	0.1
209	0	0.1
210	0	0.1
211	0	0.1
212	0	0.1
213	0	0.1
214	0	0.1
215	0	0.1
216	0	0.1
217	0	0.1
218	0	0.1
219	0	0.1
220	0	0.1
221	0	0.1
222	0	0.1
223	0	0.1
224	0	0.1
225	0	0.1
226	0	0.1
227	0	0.1
228	0	0.1
229	0	0.1
230	0	0.1
231	0	0.1
232	0	0.1
233	0	0.1
234	0	0.1
235	0	0.1
236	0	0.1
237	0	0.1
238	0	0.1
239	0	0.1
240	0	0.1
241	0	0.1
242	0	0.1
243	0	0.1
244	0	0.1
245	0	0.1
246	0	0.1
247	0	0.1
248	0	0.1
249	0	0.1
250	0	0.1
251	0	0.1
252	0	0.1
253	0	0.1
254	0	0.1
255	0	0.1
256	0	0.1
257	0	0.1
258	0	0.1
259	0	0.1
260	0	0.1
261	0	0.1
262	0	0.1
263	0	0.1
264	0	0.1
265	0	0.1
266	0	0.1
267	0	0.1
268	0	0.1
269	0	0.1
270	0	0.1
271	0	0.1
272	0	0.1
273	0	0.1
274	0	0.1
275	0	0.1
276	0	0.1
277	0	0.1
278	0	0.1
279	0	0.1
280	0	0.1
281	0	0.1
282	0	0.1
283	0	0.1
284	0	0.1
285	0	0.1
286	0	0.1
287	0	0.1
288	0	0.1
289	0	0.1
290	0	0.1
291	0	0.1
292	0	0.1
293	0	0.1
294	0	0.1
295	0	0.1
296	0	0.1
297	0	0.1
298	0	0.1
299	0	0.1
300	0	0.1
301	0	0.1
302	0	0.1
303	0	0.1
304	0	0.1
305	0	0.1
306	0	0.1
307	0	0.1
308	0	0.1
309	0	0.1
310	0	0.1
311	0	0.1
312	0	0.1
313	0	0.1
314	0	0.1
315	0	0.1
316	0	0.1
317	0	0.3
318	0	0.3
319	0	0.3
320	0	0.3
321	0	0.3
322	0	0.3
323	0	0.3
324	0	0.3
325	0	0.3
326	0	0.3
327	0	0.3
328	0	0.1
329	0	0.1
330	0	0.1
331	0	0.1
332	0	0.1
333	0	0.1
334	0	0.1
335	0	0.1
336	0	0.1
337	0	0.1
338	0	0.1
339	0	0.1
340	0	0.1
341	0	0.1
342	0	0.1
343	0	0.1
344	0	0.1
345	0	0.1
346	0	0.1
347	0	0.1
348	0	0.1
349	0	0.1
350	0	0.1
351	0	0.1
352	0	0.1
353	0	0.1
354	0	0.1
355	0	0.1
356	0	0.1
357	0	0.1
358	0	0.1
359	0	0.1
360	0	0.1
361	0	0.1
362	0	0.1
363	0	0.1
364	0	0.1
365	0	0.1
366	0	0.1
367	0	0.1
368	0	0.1
369	0	0.1
370	0	0.1
371	0	0.1
372	0	0.1
373	0	0.1
374	0	0.1
375	0	0.1
376	0	0.1
377	0	0.1
378	0	0.1
379	0	0.1
380	0	0.1
381	0	0.1
382	0	0.1
383	0	0.1
384	0	0.1
385	0	0.1
386	0	0.1
387	0	0.1
388	0	0.1
389	0	0.1
390	0	0.1
391	0	0.1
392	0	0.1
393	0	0.1
394	0	0.1
395	0	0.1
396	0	0.1
397	0	0.1
398	0	0.1
399	0	0.1
400	0	0.1
401	0	0.0666667
402	0	0.0666667
403	0	0.0666667
404	0	0.0666667
405	0	0.0666667
406	0	0.0666667
407	0	0.0666667
408	0	0.0666667
409	0	0.0666667
410	0	0.0666667
411	0	0.0666667
412	0	0.0666667
413	0	0.0666667
414	0	0.0666667
415	0	0.0666667
416	0	0.0666667
417	0	0.0666667
418	0	0.0666667
419	0	0.0666667
420	0	0.0666667
421	0	0.0666667
422	0	0.133333
423	0	0.133333
424	0	0.133333
425	0	0.133333
426	0	0.133333
427	0	0.133333
428	0	0.133333
429	0	0.133333
430	0	0.133333
431	0	0.133333
432	0	0.133333
433	0	0.133333
434	0	0.133333
435	0	0.133333
436	0	0.133333
437	0	0.0666667
438	0	0.0666667
439	0	0.0666667
440	0	0.0666667
441	0	0.0666667
442	0	0.0666667
443	0	0.0666667
444	0	0.0666667
445	0	0.0666667
446	0	0.0666667
447	0	0.0666667
448	0	0.0666667
449	0	0.0666667
450	0	0.0666667
451	0	0.0666667
452	0	0.0666667
453	0	0.0666667
454	0	0.0666667
455	0	0.0666667
456	0	0.0666667
457	0	0.0666667
458	0	0.0666667
459	0	0.0666667
460	0	0.0666667
461	0	0.0666667
462	0	0.0666667
463	0	0.0666667
464	0	0.0666667
465	0	0.0666667
466	0	0.0666667
467	0	0.0666667
468	0	0.0666667
469	0	0.0666667
470	0	0.047619
471	0	0.047619
472	0	0.047619
473	0	0.047619
474	0	0.047619
475	0	0.047619
476	0	0.047619
477	0	0.047619
478	0	0.047619
479	0	0.047619
480	0	0.047619
481	0	0.047619
482	0	0.047619
483	0	0.047619
484	0	0.047619
485	0	0.047619
486	0	0.047619
487	0	0.047619
488	0	0.047619
489	0	0.047619
490	0	0.047619
491	0	0.047619
492	0	0.047619
493	0	0.047619
494	0	0.047619
495	0	0.047619
496	0	0.047619
497	0	0.047619
498	0	0.047619
499	0	0.047619
500	0	0.047619
501	0	0.047619
502	0	0.047619
503	0	0.047619
504	0	0.047619
505	0	0.047619
506	0	0.047619
507	0	0.047619
508	0	0.047619
509	0	0.047619
510	0	0.047619
511	0	0.047619
512	0	0.047619
513	0	0.047619
514	0	0.047619
515	0	0.047619
516	0	0.047619
517	0	0.047619
518	0	0.047619
519	0	0.047619
520	0	0.047619
521	0	0.047619
522	0	0.047619
523	0	0.047619
524	0	0.047619
525	0	0.047619
526	0	0.047619
527	0	0.047619
528	0	0.047619
529	0	0.047619
530	0	0.047619
531	0	0.047619
532	0	0.047619
533	0	0.047619
534	0	0.047619
535	0	0.047619
536	0	0.047619
537	0	0.047619
538	0	0.047619
539	0	0.047619
540	0	0.047619
541	0	0.047619
542	0	0.047619
543	0	0.047619
544	0	0.047619
545	0	0.047619
546	0	0.0357143
547	0	0.0357143
548	0	0.0357143
549	0	0.0357143
550	0	0.0277778
551	0	0.0277778
552	0	0.0277778
553	0	0.0277778
554	0	0.0277778
555	0	0.0277778
556	0	0.0277778
557	0	0.0222222
558	0	0.0222222
559	0	0.0222222
560	0	0.0222222
561	0	0.0222222
562	0	0.0222222
563	0	0.0222222
564	0	0.0222222
565	0	0.0222222
566	0	0.0222222
567	0	0.0222222
568	0	0.0222222
569	0	0.0222222
570	0	0.0222222
571	0	0.0222222
572	0	0.0222222
573	0	0.0222222
574	0	0.0222222
575	0	0.0222222
576	0	0.0222222
577	0	0.0222222
578	0	0.0181818
579	0	0.0666667
580	0	0.0666667
581	0	0.0666667
582	0	0.0666667
583	0	0.0666667
584	0	0.0666667
585	0	0.0666667
586	0	0.0666667
587	0	0.0666667
588	0	0.0583333
589	0	0.0916667
590	0	0.0916667
591	0	0.0916667
592	0	0.0916667
593	0	0.0916667
594	0	0.0916667
595	0	0.0916667
596	0	0.0583333
597	0	0.0583333
598	0	0.0583333
599	0	0.0583333
600	0	0.0583333
601	0	0.0583333
602	0	0.0583333
603	0	0.0583333
604	0	0.0583333
605	0	0.0583333
606	0	0.0583333
607	0	0.0583333
608	0	0.0583333
609	0	0.0583333
610	0	0.0583333
611	0	0.0583333
612	0	0.0583333
613	0	0.0583333
614	0	0.0583333
615	0	0.0583333
616	0	0.0583333
617	0	0.0583333
618	0	0.0583333
619	0	0.0583333
620	0	0.0583333
621	0	0.0583333
622	0	0.0583333
623	0	0.0583333
624	0	0.0583333
625	0	0.0583333
626	0	0.0583333
627	0	0.0583333
628	0	0.0583333
629	0	0.0583333
630	0	0.0583333
631	0	0.0583333
632	0	0.0583333
633	0	0.0583333
634	0	0.0583333
635	0	0.0666667
636	0	0.0666667
637	0	0.0666667
638	0	0.0666667
639	0	0.0666667
640	0	0.0666667
641	0	0.0583333
642	0	0.0583333
643	0	0.0583333
644	0	0.0583333
645	0	0.0583333
646	0	0.0583333
647	0	0.0583333
648	0	0.0583333
649	0	0.0583333
650	0	0.0583333
651	0	0.0583333
652	0	0.0583333
653	0	0.0583333
654	0	0.0583333
655	0	0.0583333
656	0	0.0583333
657	0	0.0583333
658	0	0.0583333
659	0	0.0583333
660	0	0.0583333
661	0	0.0583333
662	0	0.0583333
663	0	0.0583333
664	0	0.0583333
665	0	0.0583333
666	0	0.0583333
667	0	0.0583333
668	0	0.0583333
669	0	0.0583333
670	0	0.0583333
671	0	0.0583333
672	0	0.0583333
673	0	0.0583333
674	0	0.0583333
675	0	0.0583333
676	0	0.0583333
677	0	0.0583333
678	0	0.0583333
679	0	0.0583333
680	0	0.0583333
681	0	0.0583333
682	0	0.0583333
683	0	0.0583333
684	0	0.0583333
685	0	0.0583333
686	0	0.0583333
687	0	0.0583333
688	0	0.0583333
689	0	0.0583333
690	0	0.0583333
691	0	0.0583333
692	0	0.0666667
693	0	0.0588235
694	0	0.0588235
695	0	0.0588235
696	0	0.0588235
697	0	0.0588235
698	0	0.0588235
699	0	0.0588235
700	0	0.0588235
701	0	0.0588235
702	0	0.0588235
703	0	0.0588235
704	0	0.0588235
705	0	0.0588235
706	0	0.0588235
707	0	0.0588235
708	0	0.0588235
709	0	0.0588235
710	0	0.0588235
711	0	0.0588235
712	0	0.0588235
713	0	0.0522876
714	0	0.0522876
715	0	0.0522876
716	0	0.0522876
717	0	0.0522876
718	0	0.0522876
719	0	0.0588235
720	0	0.0588235
721	0	0.0588235
722	0	0.0588235
723	0	0.0588235
724	0	0.0588235
725	0	0.0588235
726	0	0.0653595
727	0	0.0653595
728	0	0.0653595
729	0	0.0588235
730	0	0.0522876
731	0	0.0522876
732	0	0.0522876
733	0	0.0522876
734	0	0.0522876
735	0	0.0522876
736	0	0.0522876
737	0	0.0522876
738	0	0.0522876
739	0	0.0522876
740	0	0.0653595
741	0	0.0653595
742	0	0.0653595
743	0	0.0653595
744	0	0.0653595
745	0	0.0653595
746	0	0.0718954
747	0	0.0718954
748	0	0.0718954
749	0	0.0718954
750	0	0.0653595
751	0	0.0653595
752	0	0.0653595
753	0	0.0653595
754	0	0.0584795
755	0	0.0584795
756	0	0.0526316
757	0	0.0584795
758	0	0.0584795
759	0	0.0584795
760	0	0.0584795
761	0	0.0818713
762	0	0.0736842
763	0	0.0666667
764	0	0.0666667
765	0	0.0788177
766	0	0.0665025
767	0	0.0806452
768	0	0.182724
769	0	0.205687
770	0	0.230465
771	0	0.217391
772	0	0.218634
773	0	0.20892
774	0	0.20892
775	0	0.205099
776	0	0.205099
777	0	0.213995
778	0	0.212144
779	0	0.207928
780	0	0.196172
781	0	0.194805
782	0	0.198135
783	0	0.19647
784	0	0.197136
785	0	0.184031
786	0	0.207076
787	0	0.215514
788	0	0.217722
789	0	0.212753
790	0	0.208262
791	0	0.201933
792	0	0.202442
793	0	0.191032
794	0	0.184211
795	0	0.197172
796	0	0.19604
797	0	0.183127
798	0	0.18819
799	0	0.231422
800	0	0.224844
801	0	0.224613
802	0	0.245207
803	0	0.255925
804	0	0.243553
805	0	0.238743
806	0	0.242581
807	0	0.256301
808	0	0.282132
809	0	0.549048
810	0	0.615023
811	0	0.709535
812	0	0.750917
813	0	0.693803
814	0	0.703415
815	0	0.716582
816	0	0.744733
817	0	0.745389
818	0	0.745389
819	0	0.769854
820	0	0.769854
821	0	0.878759
822	0	0
823	0	0
824	0	0
825	0	0
826	0	0
827	0	0
828	0	0
829	0	0
830	0	0
831	0	0
832	0	0
833	0	0
834	0	0
835	0	0
836	0	0
837	0	0
838	0	0
839	0	0
840	0	0
841	0	0
842	0	0
843	0	0
844	0	0
845	0	0
846	0	0
847	0	0
848	0	0
849	0	0.877092
850	0	0.877203
851	0	0.980991
852	0	0.666667
853	0	0.666667
854	0	0.666667
855	0	0.666667
856	0	0.666667
857	0	0.666667
858	0	0.666667
859	0	0.666667
860	0	0.666667
861	0	0.666667
862	0	0.666667
863	0	0.666667
864	0	0.988568
865	0	0.988566
866	0	0.990458
867	0	0.990458
868	0	0
869	0	0
870	0	0
871	0	0
872	0	0
873	0	0
874	0	0
875	0	0
876	0	0
877	0	0
878	0	0
879	0	0
880	0	0
881	0	0.992365
882	0	0.996178
883	0	0.996178
884	0	0.996178
885	0	0.996178
886	0	0.998086
887	0	0
888	0	0
889	0	0
890	0	0
891	0	0
892	0	0
893	0	0
894	0	0
895	0	0
896	0	0
897	0	0
898	0	0
899	1	1
900	1	1
901	0	0.990485
902	0	0.990485
903	0	0.990485
904	0	0.992381
905	0	0.992381
906	0	1
907	0	0
908	0	0
909	0	0
910	0	0.984809
911	0	0.984809
912	0	1
913	0	0.701985
914	0	0.947368
915	0	0.532059
916	0	0
917	0	0.943407
918	0	0
919	0	0.358067
920	0	0.815854
921	0	0.70151
922	0	0.771114
923	0	0.5
924	0	1
925	0	1
926	0	1
927	0	0.873027
928	0	0.979119
929	0	1
930	0	1
931	0	0.998086
932	0	0.998088
933	0	0.998088
934	0	0.998088
935	0	0.998088
936	0	0
937	0	0
938	0	0
939	0	0
940	0	0
941	0	0
942	0	0
943	0	0
944	0	0
945	0	0
946	0	0
947	0	0
948	0	0
949	0	0
950	0	0
951	0	0
952	0	0
953	0	0
954	0	0
955	0	0
956	0	0
957	0	0
958	0	0
959	0	0
960	0	0
961	0	0
962	0	0
963	0	0
964	0	0
965	0	0
966	0	0
967	0	0.992343
968	0	1
969	0	0.5
970	0	0.1
971	0	0.0952381
972	0	0.0952381
973	0	0.984627
974	0	0.1
975	0	0.1
976	0	0
977	0	0
978	0	0
979	0	0
980	0	0
981	0	0
982	0	0.980783
983	0	0
984	0	0
985	0	0
986	0	0
987	0	0
988	0	0
989	0	0
990	0	0
991	0	0
992	0	0
993	0	0
994	0	0
995	0	0
996	0	0
997	0	0.486701
998	0	0.601294
999	0	0.653131
1000	0	0.1
1001	0	0.1
1002	0	0
1003	0	0
1004	0	0
1005	0	0
1006	0	0
1007	0	0
1008	0	0
1009	0	0
1010	0	0
1011	0	0
1012	0	0
1013	0	0
1014	0	0
1015	0	0
1016	0	0
1017	0	0
1018	0	0
1019	0	0.658182
1020	0	0
1021	0	0
1022	0	0
1023	0	0
1024	0	0
1025	0	0.980825
1026	0	0
1027	0	0
1028	0	0
1029	0	0
1030	0	0
1031	0	0.988436
1032	0	0.990359
1033	0	0.990357
1034	0	0.990366
1035	0	0
1036	0	0
1037	0	0
1038	0	0
1039	0	0
1040	0	0
1041	0	0
1042	0	0
1043	0	0
1044	0	0
1045	0	0
1046	0	0.994209
1047	0	0.990387
1048	0	0.990387
1049	0	0.996159
1050	0	0.996163
1051	0	0.996167
1052	0	0.992355
1053	0	0.994264
1054	0	0.99237
1055	0	0.996178
1056	0	0.996178
1057	0	0.994275
1058	0	0.99237
1059	0	0.99237
1060	0	0
1061	0	0.992372
1062	0	0.992372
1063	0	0
1064	0	0
1065	0	0
1066	0	0
1067	0	0
1068	0	0
1069	0	0
1070	0	0
1071	0	0
1072	0	0
1073	0	0
1074	0	0.641137
1075	0	0.982845
1076	0	0
1077	0	0.1
1078	0	0.1
1079	0	0.1
1080	0	0.1
1081	0	0.1
1082	0	0.0666667
1083	0	0.982799
1084	0	0.982799
1085	0	0
1086	0	0
1087	0	0
1088	0	0
1089	0	0
1090	0	0
1091	0	0
1092	0	0
1093	0	0
1094	0	0
1095	0	0
1096	0	0
1097	0	0
1098	0	0
1099	0	0.984715
1100	0	0.969595
1101	0	0
1102	0	0
1103	0	0
1104	0	0
1105	0	0
1106	0	0
1107	0	0
1108	0	0
1109	0	0
1110	0	0
1111	0	0
1112	0	0
1113	0	0
1114	0	0
1115	0	0
1116	0	0
1117	0	0
1118	0	0
1119	0	0
1120	0	0
1121	0	0
1122	0	0
1123	0	0
1124	0	0
1125	0	0
1126	0	0
1127	0	0
1128	0	0
1129	0	0
1130	0	0
1131	0	0
1132	0	0
1133	0	0
1134	0	0
1135	0	0
1136	0	0
1137	0	0
1138	0	0
1139	0	0
1140	0	0
1141	0	0
1142	0	0
1143	0	0
1144	0	0
1145	0	0
1146	0	0
1147	0	0
1148	0	0
1149	0	0
1150	0	0.5
1151	0	0.3
1152	0	0.3
1153	0	0.984629
1154	0	0.416667
1155	0	0.416667
1156	0	0.305556
1157	0	0.333333
1158	0	0.190476
1159	0	0.333333
1160	0	0.333333
1161	1	1
1162	1	1
1163	1	1
1164	1	1
1165	1	1
1166	1	1
1167	1	1
1168	1	1
1169	0	1
1170	0	1
1171	0	0.99231
1172	0	0.998073
1173	0	0.998073
1174	0	0.998071
1175	0	0.998071
1176	0	0.998071
1177	1	1
1178	1	1
1179	1	1
1180	1	1
1181	1	1
1182	1	1
1183	1	1
1184	1	1
1185	1	1
1186	1	1
1187	1	1
1188	1	1
1189	1	1
1190	1	1
1191	1	1
1192	1	1
1193	1	1
1194	1	1
1195	1	1
1196	1	1
1197	1	1
1198	1	1
1199	0	0.996148
1200	0	0.996148
1201	0	0.333333
1202	0	0.333333
1203	0	0.990414
1204	0	0.996159
1205	0	0.992334
1206	0	0
1207	1	0
1208	1	0
1209	1	0
1210	1	0
1211	1	0
1212	0	0.996159
1213	0	1
1214	0	0.998081
1215	0	0.998081
1216	0	0.99617
1217	0	0.99617
1218	0	0.99617
1219	0	0.998084
1220	0	0.998084
1221	0	0.998084
1222	0	0.998084
1223	0	0.998084
1224	0	0.998084
1225	0	0.998084
1226	0	0.998084
1227	0	0.998084
1228	0	0.998084
1229	0	0.998099
1230	0	0.998097
1231	0	0.644444
1232	0	0.912121
1233	0	0.981138
1234	0	0.981138
1235	0	0.983006
1236	0	0.777778
1237	0	0.979296
1238	0	0.837052
1239	0	0.735081
1240	0	0.735081
1241	0	1
1242	0	1
1243	1	1
1244	1	1
1245	1	1
1246	1	1
1247	0	1
1248	0	1
1249	0	1
1250	0	1
1251	0	1
1252	0	1
1253	0	1
1254	1	1
1255	1	1
1256	0	1
1257	0	1
1258	0	1
1259	0	0.923077
1260	0	0.998102
1261	0	0.998102
1262	0	0
1263	0	0
1264	1	0
1265	1	0
1266	1	0
1267	0	0
1268	0	0
1269	0	1
1270	0	1
1271	0	1
1272	0	1
1273	1	1
1274	1	1
1275	1	1
1276	1	1
1277	1	1
1278	1	1
1279	1	1
1280	1	1
1281	1	1
1282	0	1
1283	1	1
1284	1	1
1285	1	1
1286	1	1
1287	1	1
1288	1	1
1289	0	0.998101
1290	1	1
1291	1	1
1292	0	1
1293	1	1
1294	1	1
1295	0	1
1296	0	0.998095
1297	0	0.998095
1298	0	0.998095
1299	0	0.996192
1300	0	0.996192
1301	0	0.996284
1302	0	0.996281
1303	0	0.996277
1304	0	0.996281
1305	0	0.996281
1306	0	0.99814
1307	0	0.99814
1308	0	0
1309	0	0
1310	0	0
1311	1	0
1312	1	0
1313	1	0
1314	1	0
1315	1	0
1316	1	0
1317	1	0
1318	1	0
1319	1	0
1320	1	0
1321	1	0
1322	1	0
1323	1	0
1324	0	0
1325	0	0
1326	0	0.996281
1327	0	0.996281
1328	0	0
1329	0	0
1330	0	0
1331	0	0
1332	0	0.688131
1333	0	0.996295
1334	0	0.996295
1335	0	0.996295
1336	0	0.998146
1337	0	0.998146
1338	0	0.998146
1339	0	0.998146
1340	0	0.998145
1341	0	0.998145
1342	0	0.998145
1343	0	0.998145
1344	0	0.998145
1345	0	0.998145
1346	0	0.998145
1347	0	0
1348	1	0
1349	1	0
1350	1	0
1351	1	0
1352	1	0
1353	1	0
1354	0	0.998145
1355	0	1
1356	0	1
1357	0	1
1358	1	1
1359	1	1
1360	1	1
1361	1	1
1362	0	0
1363	0	0
1364	0	0
1365	0	0
1366	0	0
1367	1	0
1368	1	0
1369	1	0
1370	1	0
1371	1	0
1372	1	0
1373	1	0
1374	0	0
1375	0	0
1376	0	0
1377	0	0
1378	0	0
1379	0	0.990725
1380	0	0.998141
1381	0	0.996288
1382	0	0.998143
1383	0	1
1384	0	0.998145
1385	0	0.998145
1386	0	0.998145
1387	0	0.998145
1388	0	0.998146
1389	0	0.998146
1390	0	0.998146
1391	0	0.998146
1392	0	0.998146
1393	0	1
1394	0	1
1395	0	1
1396	0	1
1397	0	1
1398	0	1
1399	0	1
1400	1	1
1401	1	1
1402	1	1
1403	1	1
1404	1	1
1405	1	1
1406	1	1
1407	1	1
1408	1	1
1409	1	1
1410	1	1
1411	1	1
1412	0	0.666667
1413	0	0.996291
1414	1	1
1415	1	1
1416	0	0.998146
1417	0	0.998146
1418	0	0.998146
1419	0	0.998146
1420	0	0.998146
1421	0	0.998145
1422	0	0.998145
1423	0	0.998145
1424	0	0.998145
1425	0	0
1426	0	0.994236
1427	0	0.65515
1428	0	0.998143
1429	0	0.998143
1430	0	0.998143
1431	0	0.998143
1432	0	0.998141
1433	0	0.998141
1434	0	0.998141
1435	0	1
1436	0	0.464286
1437	0	0.979706
1438	0	0.833992
1439	0	0.333333
1440	0	0.333333
1441	0	0.333333
1442	1	1
1443	1	1
1444	0	0
1445	0	0
1446	0	0
1447	0	0
1448	0	0.849746
1449	0	0.166667
1450	0	0.166667
1451	0	0.333333
1452	1	0
1453	0	0
1454	0	0
1455	0	0
1456	0	0
1457	0	0
1458	0	0.994434
1459	0	0.992582
1460	0	0.998141
1461	1	1
1462	1	1
1463	1	1
1464	1	1
1465	1	1
1466	1	1
1467	0	0.998143
1468	1	1
1469	0	1
1470	1	1
1471	1	1
1472	1	1
1473	1	1
1474	1	1
1475	1	1
1476	1	1
1477	1	1
1478	1	1
1479	1	1
1480	1	1
1481	1	1
1482	1	1
1483	0	0.507872
1484	0	0
1485	0	0.99256
1486	0	1
1487	0	1
1488	0	0.992572
1489	0	0.990732
1490	0	1
1491	0	1
1492	0	1
1493	1	1
1494	1	1
1495	1	1
1496	1	1
1497	1	1
1498	1	1
1499	1	1
1500	0	0.998145
1501	0	0.998145
1502	0	0.998145
1503	0	0.998145
1504	0	0.998145
1505	1	1
1506	0	0.998145
1507	0	0.998141
1508	0	0
1509	0	1
1510	0	0
1511	0	0
1512	0	0.879624
1513	0	1
1514	0	0.2
1515	0	0.333333
1516	0	0.333333
1517	0	0.333333
1518	0	0.333333
1519	0	0
1520	0	0
1521	0	0
1522	0	0
1523	0	0
1524	0	0
1525	0	0
1526	0	0
1527	0	0.416667
1528	0	0.424242
1529	0	0.495968
1530	0	0.369412
1531	0	0.27136
1532	0	0.286226
1533	0	0.223423
1534	0	0.179408
1535	0	0.165211
1536	0	0.153451
1537	0	0.197959
1538	0	0.187823
1539	0	0.185973
1540	0	0.18275
1541	0	0.176415
1542	0	0.168856
1543	0	0.156767
1544	0	0.154921
1545	0	0.209281
1546	0	0.30311
1547	0	0.383016
1548	0	0.752879
1549	0	0.776305
1550	0	0.763579
1551	0	0.744029
1552	0	0.586945
1553	0	0.505405
1554	0	0.357187
1555	0	0.279243
1556	0	0
1557	0	0
1558	0	0
1559	0	0.315789
1560	0	0.293857
1561	0	0.287197
1562	0	0.296574
1563	0	0.308617
1564	0	0.152381
1565	0	0.181818
1566	0	0.181818
1567	0	0.164835
1568	0	0.587227
1569	0	0.92133
1570	0	0.947384
1571	0	0.964372
1572	0	0.97544
1573	0	1
1574	0	1
1575	0	1
1576	0	1
1577	0	0.992594
1578	0	0.992594
1579	0	0.992594
1580	0	0.992594
1581	0	0.985221
1582	0	0
1583	0	0.51567
1584	0	0.887736
1585	0	0.656466
1586	0	0
1587	0	0
1588	0	0.463609
1589	0	0.495836
1590	0	0
1591	0	0
1592	0	0.621431
1593	0	0.917933
1594	0	0.824903
1595	0	1
1596	0	0.52381
1597	0	0.818044
1598	0	0.79303
1599	0	0.852308
1600	0	1
1601	0	1
1602	0	1
1603	0	1
1604	0	1
1605	0	1
1606	0	1
1607	0	1
1608	0	1
1609	1	1
1610	0	0.998141
1611	0	0.998141
1612	0	0.996284
1613	0	0.994424
1614	0	0.994424
1615	0	1
1616	0	1
1617	0	1
1618	0	1
1619	0	1
1620	0	1
1621	0	1
1622	0	1
1623	0	0.495856
1624	1	1
1625	1	1
1626	1	1
1627	1	1
1628	1	1
1629	1	1
1630	1	1
1631	1	1
1632	1	1
1633	1	1
1634	1	1
1635	1	1
1636	1	1
1637	1	1
1638	1	1
1639	1	1
1640	0	1
1641	0	1
1642	0	1
1643	0	1
1644	0	0.333333
1645	0	0.333333
1646	0	0.333333
1647	0	1
1648	0	0.994415
1649	0	0.998136
1650	0	0.998136
1651	0	0
1652	0	0
1653	0	0
1654	1	0
1655	1	0
1656	1	0
1657	1	0
1658	1	0
1659	1	0
1660	1	0
1661	1	0
1662	0	0.992562
1663	0	0.992562
1664	0	0.992562
1665	0	0.994419
1666	0	0.994419
1667	0	0.994419
1668	0	0.994413
1669	0	0.994413
1670	0	0.994413
1671	0	0.994413
1672	0	0.994413
1673	0	0.996274
1674	0	0.996274
1675	0	0.99627
1676	0	0.99627
1677	0	0.998133
1678	0	0.998133
1679	0	1
1680	0	1
1681	0	1
1682	0	0.983272
1683	0	0.9796
1684	0	0.973968
1685	0	0.986565
1686	0	0.983277
1687	0	0.985119
1688	0	0.981453
1689	0	0.996267
1690	0	0.996267
1691	0	0.998131
1692	0	0.998133
1693	0	0.99627
1694	0	0.994413
1695	0	0.994413
1696	0	0.992555
1697	0	0.990706
1698	0	0
1699	0	0
1700	0	0
1701	0	0
1702	0	0
1703	0	0
1704	0	0
1705	0	0
1706	0	0
1707	0	0
1708	0	0
1709	0	0
1710	0	0
1711	0	0
1712	0	0
1713	0	0
1714	0	0
1715	0	0
1716	0	0
1717	0	0
1718	0	0
1719	0	0.985082
1720	0	0.979537
1721	0	0.97767
1722	0	1
1723	0	0.729055
1724	0	0.760566
1725	0	0.266667
1726	0	0.266667
1727	0	0.266667
1728	0	0.266667
1729	0	0.133333
1730	0	0.133333
1731	0	0.133333
1732	0	0.133333
1733	0	0.133333
1734	0	0.0952381
1735	0	0.0952381
1736	0	0.0952381
1737	0	0.0952381
1738	0	0.0714286
1739	0	0.0714286
1740	0	0.0714286
1741	0	0.0555556
1742	0	0.0555556
1743	0	0.0555556
1744	0	0.0555556
1745	0	0.0555556
1746	0	0.0555556
1747	0	0.0555556
1748	0	0.111111
1749	0	0.0909091
1750	0	0.0757576
1751	0	0.640385
1752	0	0.432552
1753	0	0.29968
1754	0	0.347457
1755	0	0.333333
1756	0	0.347436
1757	0	0.235897
1758	0	0.212544
1759	0	0.237974
1760	0	0.211926
1761	0	0
1762	0	0
1763	0	0
1764	0	0
1765	0	0.456439
1766	0	0.19452
1767	0	0.182863
1768	0	0.135729
1769	0	0.131025
1770	0	0.13412
1771	0	0.13463
1772	0	0.038961
1773	0	0.0519481
1774	0	0.0672269
1775	0	0.0538462
1776	0	0.146914
1777	0	0.157972
1778	0	0.0333333
1779	0	0.0583333
1780	0	0.0583333
1781	0	0.0514706
1782	0	0.0522876
1783	0	0.0522876
1784	0	0.0457516
1785	0	0.0457516
1786	0	0.0368421
1787	0	0.0571429
1788	0	0.0606061
1789	0	0.0592885
1790	0	0.0543478
1791	0	0.0615385
1792	0	0.0541311
1793	0	0.0714286
1794	0	0.0602151
1795	0	0.0487179
1796	0	0.0498339
1797	0	0.533254
1798	0	0.0909895
1799	0	0.09861
1800	0	0.300518
1801	0	0.373749
1802	0	0.338226
1803	0	0.539739
1804	0	0.575076
1805	0	0.584819
1806	0	0.554239
1807	0	0.114286
1808	0	0.1
1809	0	0.1
1810	0	0.1
1811	0	0.0904762
1812	0	0.0904762
1813	0	0.0904762
1814	0	0.0822511
1815	0	0.0822511
1816	0	0.0750988
1817	0	0.076087
1818	0	0.0655271
1819	0	0.0566502
1820	0	0.0483871
1821	0	0.554961
1822	0	0.523497
1823	0	0.487019
1824	0	0
1825	0	0
1826	0	0
1827	0	0
1828	0	0
1829	0	0
1830	0	0
1831	0	0
1832	0	0
1833	0	0
1834	0	0
1835	0	0
1836	0	0
1837	0	0
1838	0	0
1839	0	0
1840	0	0
1841	0	0
1842	0	0
1843	0	0.163636
1844	0	0.139706
1845	0	0.153846
1846	0	0.078629
1847	0	0.0705645
1848	0	0.218532
1849	0	0.146052
1850	0	0.13266
1851	0	0.112429
1852	0	0.129798
1853	0	0.278712
1854	0	0
1855	0	0
1856	0	0
1857	0	0
1858	0	0
1859	0	0
1860	0	0
1861	0	0
1862	0	0
1863	0	0
1864	0	0
1865	0	0
1866	0	0
1867	0	0
1868	0	0
1869	0	0
1870	0	0
1871	0	0
1872	0	0
1873	0	0
1874	0	0
1875	0	0
1876	0	0
1877	0	0
1878	0	0
1879	0	0
1880	0	0
1881	0	0
1882	1	0
1883	1	0
1884	1	0
1885	0	0
1886	0	0
1887	0	0
1888	0	0
1889	0	0
1890	0	0
1891	0	0
1892	0	0
1893	0	0
1894	0	0
1895	0	0
1896	0	0
1897	0	0
1898	0	0
1899	0	0
1900	0	0
1901	0	0
1902	0	0
1903	0	0
1904	0	0
1905	0	0
1906	0	0
1907	0	0
1908	0	0
1909	0	0
1910	0	0
1911	0	0
1912	0	0
1913	0	0
1914	0	0
1915	0	0
1916	0	0
1917	0	0
1918	0	0
1919	0	0
1920	0	0
1921	0	0
1922	0	0
1923	0	0
1924	0	0
1925	0	0
1926	0	0
1927	0	0
1928	0	0
1929	0	0
1930	0	0
1931	0	0
1932	0	0
1933	0	0
1934	0	0
1935	0	0
1936	0	0
1937	0	0
1938	0	0
1939	0	0
1940	0	0
1941	0	0
1942	0	0
1943	0	0
1944	0	0
1945	0	0
1946	0	0
1947	0	0
1948	0	0
1949	0	0
1950	0	0
1951	0	0
1952	0	0
1953	0	0
1954	0	0
1955	0	0
1956	0	0
1957	0	0
1958	0	0
1959	0	0
1960	0	0
1961	0	0
1962	0	0
1963	0	0
1964	0	0
1965	0	0
1966	0	0
1967	0	0
1968	0	0
1969	0	0
1970	0	0
1971	0	0
1972	0	0
1973	0	0
1974	0	0
1975	0	0
1976	0	0
1977	0	0
1978	0	0
1979	1	0
1980	1	0
1981	1	0
1982	1	0
1983	0	0
1984	0	0
1985	0	0
1986	0	0
1987	0	0
1988	0	0
1989	1	0
1990	0	0
1991	0	0
1992	0	0
1993	0	0
1994	0	0
1995	0	0
1996	0	0
1997	0	0
1998	0	0
1999	0	0
2000	0	0
2001	0	0
2002	0	0
2003	0	0
2004	0	0
2005	0	0
2006	0	0
2007	0	0
2008	0	0
2009	0	0
2010	0	0
2011	0	0
2012	0	0
2013	0	0
2014	0	0
2015	0	0
2016	0	0
2017	0	0
2018	0	0
2019	0	0
2020	0	0
2021	0	0
2022	0	0
2023	0	0
2024	0	0
2025	0	0
2026	0	0
2027	0	0
2028	0	0
2029	0	0
2030	0	0
2031	0	0
2032	0	0
2033	0	0
2034	0	0
2035	0	0
2036	0	0
2037	0	0
2038	0	0
2039	0	0
2040	0	0
2041	0	0
2042	0	0
2043	0	0
2044	0	0
2045	0	0
2046	0	0
2047	0	0
2048	0	0
2049	0	0
2050	0	0
2051	0	0
2052	0	0
2053	0	0
2054	0	0
2055	0	0
2056	0	0
2057	0	0
2058	0	0
2059	0	0
2060	0	0
2061	0	0
2062	0	0
2063	0	0
2064	0	0
2065	0	0
2066	0	0
2067	0	0
2068	0	0
2069	0	0
2070	0	0
2071	0	0
2072	0	0
2073	0	0
2074	0	0
2075	0	0
2076	0	0
2077	0	0
2078	0	0
2079	0	0
2080	0	0
2081	0	0
2082	0	0
2083	1	0
2084	1	0
2085	0	0
2086	1	0
2087	0	0
2088	0	0
2089	0	0
2090	0	0
2091	0	0
2092	0	0
2093	0	0
2094	0	0
2095	0	0
2096	0	0
2097	0	0
2098	0	0
2099	0	0
2100	0	0
2101	0	0
2102	0	0
2103	0	0
2104	0	0
2105	0	0
2106	0	0
2107	0	0
2108	0	0
2109	0	0
2110	0	0
2111	0	0
2112	0	0
2113	0	0
2114	0	0
2115	0	0
2116	0	0
2117	0	0
2118	0	0
2119	0	0
2120	0	0
2121	0	0
2122	0	0
2123	0	0
2124	0	0
2125	0	0
2126	0	0
2127	0	0
2128	0	0
2129	0	0
2130	0	0
2131	0	0
2132	0	0
2133	0	0
2134	0	0
2135	0	0
2136	0	0
2137	0	0
2138	0	0
2139	0	0
2140	0	0
2141	0	0
2142	0	0
2143	0	0
2144	0	0
2145	0	0
2146	0	0
2147	0	0
2148	0	0
2149	0	0
2150	0	0
2151	0	0
2152	0	0
2153	0	0
2154	0	0
2155	0	0
2156	0	0
2157	0	0
2158	0	0
2159	0	0
2160	0	0
2161	0	0
2162	0	0
2163	0	0
2164	0	0
2165	0	0
2166	0	0
2167	0	0
2168	0	0
2169	0	0
2170	0	0
2171	0	0
2172	0	0
2173	0	0
2174	0	0
2175	0	0
2176	1	0
2177	1	0
2178	1	0
2179	1	0
2180	0	0
2181	0	0
2182	0	0
2183	0	0
2184	0	0
2185	0	0
2186	0	0
2187	0	0
2188	0	0
2189	0	0
2190	0	0
2191	0	0
2192	0	0
2193	0	0
2194	0	0
2195	0	0
2196	0	0
2197	0	0
2198	0	0
2199	0	0
2200	0	0
2201	0	0
2202	0	0
2203	0	0
2204	0	0
2205	1	0
2206	1	0
2207	1	0
2208	1	0
2209	0	0
2210	0	0
2211	1	0
2212	1	0
2213	1	0
2214	0	0
2215	0	0
2216	0	0
2217	0	0
2218	0	0
2219	0	0
2220	0	0
2221	0	0
2222	0	0
2223	0	0
2224	0	0
2225	0	0
2226	0	0
2227	1	0
2228	0	0
2229	0	0
2230	0	0
2231	0	0
2232	0	0
2233	0	0
2234	0	0
2235	0	0
2236	0	0
2237	0	0
2238	0	0
2239	0	0
2240	0	0
2241	0	0
2242	0	0
2243	0	0
2244	0	0
2245	0	0
2246	0	0
2247	0	0
2248	0	0
2249	0	0
2250	0	0
2251	0	0
2252	0	0
2253	0	0
2254	0	0
2255	0	0
2256	0	0
2257	0	0
2258	0	0
2259	0	0
2260	0	0
2261	0	0
2262	0	0
2263	0	0
2264	0	0
2265	0	0
2266	0	0
2267	0	0
2268	0	0
2269	1	0
2270	1	0
2271	1	0
2272	1	0
2273	1	0
2274	1	0
2275	1	0
2276	1	0
2277	0	0
2278	0	0
2279	0	0
2280	0	0
2281	0	0
2282	0	0
2283	1	0
2284	1	0
2285	1	0
2286	1	0
2287	1	0
2288	1	0
2289	1	0
2290	1	0
2291	1	0
2292	1	0
2293	0	0
2294	0	0
2295	0	0
2296	0	0
2297	0	0
2298	0	0
2299	0	0
2300	0	0
2301	0	0
2302	0	0
2303	0	0
2304	1	0
2305	1	0
2306	1	0
2307	1	0
2308	1	0
2309	1	0
2310	1	0
2311	1	0
2312	1	0
2313	1	0
2314	1	0
2315	1	0
2316	1	0
2317	1	0
2318	1	0
2319	1	0
2320	1	0
2321	1	0
2322	1	0
2323	1	0
2324	1	0
2325	1	0
2326	0	0
2327	0	0
2328	0	0
2329	0	0
2330	0	0
2331	0	0
2332	0	0
2333	0	0
2334	0	0
2335	0	0
2336	0	0
2337	0	0
2338	0	0
2339	0	0
2340	0	0
2341	0	0
2342	0	0
2343	0	0
2344	0	0
2345	0	0
2346	0	0
2347	0	0
2348	0	0
2349	0	0
2350	0	0
2351	0	0
2352	0	0
2353	0	0
2354	0	0
2355	0	0
2356	0	0
2357	0	0
2358	0	0
2359	0	0
2360	0	0
2361	0	0
2362	0	0
2363	0	0
2364	0	0
2365	0	0
2366	0	0
2367	1	0
2368	1	0
2369	1	0
2370	1	0
2371	1	0
2372	1	0
2373	1	0
2374	0	0
2375	0	0
2376	0	0
2377	0	0
2378	0	0
2379	0	0
2380	0	0
2381	0	0
2382	0	0
2383	0	0
2384	0	0
2385	0	0
2386	0	0
2387	1	0
2388	0	0
2389	0	0
2390	0	0
2391	0	0
2392	0	0
2393	0	0
2394	0	0
2395	0	0
2396	0	0
2397	0	0
2398	0	0
2399	0	0
2400	0	0
2401	0	0
2402	0	0
2403	0	0
2404	0	0
2405	0	0
2406	0	0
2407	0	0
2408	0	0
2409	0	0
2410	0	0
2411	0	0
2412	0	0
2413	1	0
2414	1	0
2415	1	0
2416	1	0
2417	1	0
2418	1	0
2419	1	0
2420	1	0
2421	1	0
2422	1	0
2423	1	0
2424	1	0
2425	1	0
2426	1	0
2427	1	0
2428	1	0
2429	1	0
2430	0	0
2431	0	0
2432	0	0
2433	0	0
2434	0	0
2435	0	0
2436	0	0
2437	0	0
2438	0	0
2439	1	0
2440	1	0
2441	1	0
2442	1	0
2443	1	0
2444	1	0
2445	1	0
2446	1	0
2447	1	0
2448	1	0
2449	1	0
2450	1	0
2451	1	0
2452	1	0
2453	1	0
2454	1	0
2455	1	0
2456	1	0
2457	1	0
2458	1	0
2459	1	0
2460	1	0
2461	1	0
2462	1	0
2463	1	0
2464	1	0
2465	1	0
2466	1	0
2467	1	0
2468	1	0
2469	1	0
2470	1	0
2471	1	0
2472	1	0
2473	1	0
2474	1	0
2475	1	0
2476	1	0
2477	1	0
2478	1	0
2479	1	0
2480	1	0
2481	1	0
2482	1	0
2483	1	0
2484	1	0
2485	1	0
2486	1	0
2487	1	0
2488	1	0
2489	1	0
2490	1	0
2491	1	0
2492	1	0
2493	1	0
2494	1	0
2495	1	0
2496	1	0
2497	1	0
2498	1	0
2499	1	0
2500	1	0
2501	1	0
2502	1	0
2503	1	0
2504	1	0
2505	1	0
2506	1	0
2507	1	0
2508	1	0
2509	1	0
2510	1	0
2511	1	0
2512	1	0
2513	1	0
2514	1	0
2515	1	0
2516	0	0.357143
2517	0	0.47619
2518	0	0.288889
2519	0	0.236364
2520	0	0.236364
2521	0	0.588506
2522	0	0.588506
2523	0	0.630542
2524	0	0.630542
2525	0	0.47619
2526	0	0.47619
2527	0	0.762097
2528	0	0.673797
2529	0	0.601587
2530	0	0.409662
2531	0	0.394504
2532	0	0.394504
2533	0	0.37037
2534	0	0.345238
2535	0	0.345238
2536	0	0.345238
2537	0	0.345238
2538	0	0.333333
2539	0	0.333333
2540	0	0.33388
2541	0	0.33388
2542	0	0.33388
2543	0	0.345902
2544	0	0.345902
2545	0	0.331148
2546	0	0.331148
2547	0	0.331148
2548	0	0.331148
2549	0	0.331148
2550	0	0.331148
2551	0	0.331148
2552	0	0.331148
2553	0	0.331148
2554	0	0.331148
2555	0	0.322069
2556	0	0.322069
2557	0	0.294639
2558	0	0.294639
2559	0	0.294639
2560	0	0.265268
2561	0	0.265268
2562	0	0.265268
2563	0	0.25735
2564	0	0.242967
2565	0	0.242967
2566	0	0.240644
2567	0	0.227549
2568	0	0.217658
2569	0	0.212281
2570	0	0.206793
2571	0	0.20362
2572	0	0.20362
2573	0	0.194485
2574	0	0.194485
2575	0	0.187282
2576	0	0.157062
2577	0	0.157627
2578	0	0.156831
2579	0	0.159563
2580	0	0.155146
2581	0	0.181488
2582	0	0.178843
2583	0	0.289266
2584	0	0.462927
2585	0	0.452285
2586	0	0.461696
2587	0	0.424965
2588	0	0.427302
2589	0	0.298867
2590	0	0.396406
2591	0	0.386171
2592	0	0.359513
2593	0	0.252722
2594	0	0.213657
2595	0	0.196994
2596	0	0.192279
2597	0	0.179325
2598	0	0.140267
2599	0	0.132544
2600	0	0.130101
2601	0	0.11141
2602	0	0.12069
2603	0	0.116411
2604	0	0.105306
2605	0	0.10023
2606	0	0.101829
2607	0	0.0749791
2608	0	0.0696391
2609	0	0.0679113
2610	0	0.0844458
2611	0	0.0961498
2612	0	0.125158
2613	0	0.0877193
2614	0	0.0935673
2615	0	0.0877193
2616	0	0.0877193
2617	0	0.0877193
2618	0	0.0331169
2619	0	0.0337662
2620	0	0.0337662
2621	0	0.0331169
2622	0	0.088296
2623	0	0.0879239
2624	0	0.0666667
2625	0	0.104762
2626	0	0.104762
2627	0	0.104762
2628	0	0.0857143
2629	0	0.0952381
2630	0	0.0444574
2631	0	0.0452339
2632	0	0.0475636
2633	0	0.0493108
2634	0	0.0691089
2635	0	0.0675248
2636	0	0.105208
2637	0	0.042735
2638	0	0.045977
2639	0	0.046798
2640	0	0.0492611
2641	0	0.0769231
2642	0	0.0380952
2643	0	0.0333333
2644	0	0.0294118
2645	0	0.00833333
2646	0	0.0333333
2647	0	0.0349869
2648	0	0.0196751
2649	0	0.0319516
2650	0	0.0311949
2651	0	0.0306635
2652	0	0.0700567
2653	0	0.0555556
2654	0	0.0714286
2655	0	0.047619
2656	0	0.0357143
2657	0	0.0714286
2658	0	0.129979
2659	0	0.0869847
2660	0	0.0407349
2661	0	0.060308
2662	0	0.0601003
2663	0	0.0579737
2664	0	0
2665	0	0.0333333
2666	0	0.025
2667	0	0.025
2668	0	0.0571429
2669	0	0.108731
2670	0	0.058018
2671	0	0.0583784
2672	0	0.0583784
2673	0	0.122253
2674	0	0.887042
2675	0	0.890141
2676	0	0.890141
2677	0	0.890141
2678	0	0.890141
2679	0	0.890141
2680	0	0.841705
2681	0	0.841705
2682	0	0.865415
2683	0	0.865415
2684	0	0.865415
2685	0	0.865415
2686	0	0.865415
2687	0	0.865415
2688	0	0.865415
2689	0	0.890141
2690	0	0.890141
2691	0	0.888613
2692	0	0.888613
2693	0	0.888613
2694	0	0.914749
2695	0	0.914749
2696	0	0.914749
2697	0	0.914749
2698	0	0.914749
2699	0	0.914749
2700	0	0.914749
2701	0	0.914749
2702	0	0.914749
2703	0	0.914749
2704	0	0.914749
2705	0	0.914749
2706	0	0.914749
2707	0	0.914749
2708	0	0.914749
2709	0	0.914749
2710	0	0.914749
2711	0	0.914749
2712	0	0.914749
2713	0	0.914749
2714	0	0.914749
2715	0	0.914749
2716	0	0.914749
2717	0	0.914749
2718	0	0.914749
2719	0	0.914749
2720	0	0.914749
2721	0	0.914749
2722	0	0.914749
2723	0	0.914749
2724	0	0.914749
2725	0	0.914749
2726	0	0.969697
2727	0	0.535714
2728	0	0.714286
2729	0	0.714286
2730	0	0.714286
2731	0	0
2732	0	0
2733	0	0
2734	0	0.884668
2735	0	0.884668
2736	0	0.884668
2737	0	0.884668
2738	0	0.884668
2739	0	0.884668
2740	0	0.884668
2741	0	0.970149
2742	0	0.970149
2743	0	0.970149
2744	0	0.970149
2745	0	0.970149
2746	0	0.970149
2747	0	0.970149
2748	0	0.970149
2749	0	0.970149
2750	0	0.970149
2751	0	0.970149
2752	0	0.970149
2753	0	0.970149
2754	0	0.970149
2755	0	0.970149
2756	0	0.970149
2757	0	0.970149
2758	0	0.970149
2759	0	0.970149
2760	0	0.970149
2761	0	0.970149
2762	0	0.970149
2763	0	0.970149
2764	0	0.970149
2765	0	0.970149
2766	0	0.970149
2767	0	0.970149
2768	0	0.970149
2769	0	0.970149
2770	0	0.970149
2771	0	0.970149
2772	0	0.970149
2773	0	0.970149
2774	0	0.970149
2775	0	0.970149
2776	0	0.970149
2777	0	0.970149
2778	0	0.970149
2779	0	0.970149
2780	0	0.970149
2781	0	0.970149
2782	0	0.970149
2783	0	0.970149
2784	0	0.970149
2785	0	0.970149
2786	0	0.970149
2787	0	0.970149
2788	0	0.970149
2789	0	0.970149
2790	0	0.970149
2791	0	0.970149
2792	0	0.970149
2793	0	0.970149
2794	0	0.970149
2795	0	0.970149
2796	0	0.970149
2797	0	0.970149
2798	0	0.941615
2799	0	0.941615
2800	0	0.941615
2801	0	0.941615
2802	0	0.941615
2803	0	0.941615
2804	0	0.941615
2805	0	0.941615
2806	0	0.202069
2807	0	0.203427
2808	0	0.204816
2809	0	0.201469
2810	0	0.665123
2811	0	0.524808
2812	0	0.471014
2813	0	0.784314
2814	0	0.784314
2815	0	0.705128
2816	0	0.705128
2817	0	0.705128
2818	0	0.705128
2819	0	0.705128
2820	0	0
2821	0	0
2822	0	0
2823	0	0
2824	0	0
2825	0	0
2826	0	0
2827	0	0
2828	0	0
2829	0	0
2830	0	0
2831	0	0
2832	0	0
2833	0	0.107996
2834	0	0.177145
2835	0	0.189279
2836	0	0
2837	0	0
2838	0	0
2839	0	0
2840	0	0
2841	0	0
2842	0	0
2843	0	0
2844	0	0
2845	0	0
2846	0	0
2847	0	0
2848	0	0
2849	0	0
2850	0	0
2851	0	0
2852	0	0
2853	0	0
2854	0	0
2855	0	0
2856	0	0
2857	0	0
2858	0	0
2859	0	0.133333
2860	0	0.133333
2861	0	0.0666667
2862	0	0.0545455
2863	0	0.0641026
2864	0	0.141026
2865	0	0.0736842
2866	0	0.0363437
2867	0	0.034998
2868	0	0.0284061
2869	0	0.0280567
2870	0	0.0298706
2871	0	0.0888889
2872	0	0.142857
2873	0	0.1
2874	0	0.3
2875	0	0.2
2876	0	0.3
2877	0	0.3
2878	0	0.3
2879	0	0.3
2880	0	0.105078
2881	0	0.132255
2882	0	0.138661
2883	0	0.143474
2884	0	0.0850537
2885	0	0.0838485
2886	0	0.0903974
2887	0	0.113098
2888	0	0.132703
2889	0	0.1593
2890	0	0.142799
2891	0	0.19215
2892	0	0.252711
2893	0	0.272597
2894	0	0.278022
2895	0	0.294312
2896	0	0.294312
2897	0	0.3
2898	0	0.147083
2899	0	0.150616
2900	0	0.169907
2901	0	0.0526316
2902	0	0.0526316
2903	0	0.0588235
2904	0	0.0879121
2905	0	0.106061
2906	0	0.047619
2907	0	0.0666667
2908	0	0.0666667
2909	0	0.0666667
2910	0	0.0666667
2911	0	0.0666667
2912	0	0.0666667
2913	0	0.1
2914	0	0
2915	0	0
2916	0	0
2917	0	0
2918	0	0
2919	0	0
2920	0	0
2921	0	0
2922	0	0
2923	0	0
2924	0	0
2925	0	0
2926	0	0
2927	0	0
2928	0	0
2929	0	0
2930	0	0
2931	0	0
2932	0	0
2933	0	0
2934	0	0
2935	0	0
2936	0	0
2937	0	0
2938	0	0
2939	0	0
2940	0	0
2941	0	0
2942	0	0
2943	0	0
2944	0	0.077813
2945	0	0.0913656
2946	0	0.0927492
2947	0	0.0921877
2948	0	0.0892634
2949	0	0.0904066
2950	0	0.109179
2951	0	0.109091
2952	0	0.105314
2953	0	0.108213
2954	0	0.0807863
2955	0	0.0602875
2956	0	0.0542375
2957	0	0.0449714
2958	0	0.0366861
2959	0	0.0350318
2960	0	0.0407116
2961	0	0.0543852
2962	0	0.0751958
2963	0	0.0902938
2964	0	0.0889894
2965	0	0.120507
2966	0	0.144872
2967	0	0.154655
2968	0	0.180036
2969	0	0.242424
2970	0	0.242424
2971	0	0.242424
2972	0	0.271284
2973	0	0.308263
2974	0	0.359378
2975	0	0.386881
2976	0	0.432673
2977	0	0.441212
2978	0	0.478728
2979	0	0.521261
2980	0	0.532845
2981	0	0.532845
2982	0	0.532845
2983	0	0.532845
2984	0	0.532845
2985	0	0.556946
2986	0	0.556946
2987	0	0.569749
2988	0	0.569749
2989	0	0.569749
2990	0	0.582999
2991	0	0.596717
2992	0	0.596717
2993	0	0.775789
2994	0	0.775789
2995	0	0.775789
2996	0	0.775789
2997	0	0.705946
2998	0	0.745434
2999	0	0.745434
3000	0	0.765258
3001	0	0.765258
3002	0	0.787123
3003	0	0.76338
3004	0	0.715091
3005	0	0.715091
3006	0	0.0666667
3007	0	0.846902
3008	0	0.906298
3009	0	0.909135
3010	0	0.914322
3011	0	0.914322
3012	0	0.888199
3013	0	0.888199
3014	0	0.888199
3015	0	0.888199
3016	0	0.888199
3017	0	0.888199
3018	0	0.888199
3019	0	0.888199
3020	0	0.888199
3021	0	0.888199
3022	0	0.888199
3023	0	0.888199
3024	0	0.888199
3025	0	0.888199
3026	0	0.888199
3027	0	0.888199
3028	0	0.888199
3029	0	0.888199
3030	0	0.888199
3031	0	0.888199
3032	0	0.888199
3033	0	0.863179
3034	0	0.888199
3035	0	0.888199
3036	0	0.888199
3037	0	0.888199
3038	0	0.888199
3039	0	0.888199
3040	0	0.888199
3041	0	0.888199
3042	0	0.888199
3043	0	0.888199
3044	0	0.888199
3045	0	0.888199
3046	0	0.888199
3047	0	0.888199
3048	0	0.888199
3049	0	0.888199
3050	0	0.888199
3051	0	0.888199
3052	0	0.888199
3053	0	0.888199
3054	0	0.888199
3055	0	0.861284
3056	0	0.861284
3057	0	0.861284
3058	0	0.861284
3059	0	0.861284
3060	0	0.861284
3061	0	0.861284
3062	0	0.861284
3063	0	0.861284
3064	0	0.861284
3065	0	0.861284
3066	0	0.861284
3067	0	0.861284
3068	0	0.861284
3069	0	0.861284
3070	0	0.861284
3071	0	0.861284
3072	0	0.861284
3073	0	0.861284
3074	0	0.861284
3075	0	0.861284
3076	0	0.861284
3077	0	0.861284
3078	0	0.861284
3079	0	0.861284
3080	0	0.861284
3081	0	0.861284
3082	0	0.861284
3083	0	0.861284
3084	0	0.861284
3085	0	0.861284
3086	0	0.861284
3087	0	0.886616
3088	0	0.884987
3089	0	0.876088
3090	0	0.932788
3091	0	0.932788
3092	0	0.932788
3093	0	0.905923
3094	0	0.905923
3095	0	0.905923
3096	0	0.905923
3097	0	0.905923
3098	0	0.905923
3099	0	0.905923
3100	0	0.592683
3101	0	0.592683
3102	0	0.592683
3103	0	0.592683
3104	0	0.592683
3105	0	0.592683
3106	0	0.592683
3107	0	0.592683
3108	0	0.592683
3109	0	0.592683
3110	0	0.592683
3111	0	0.565621
3112	0	0.565621
3113	0	0.565621
3114	0	0.565621
3115	0	0.565621
3116	0	0.565621
3117	0	0.565621
3118	0	0.558653
3119	0	0.558653
3120	0	0.244444
3121	0	0.244444
3122	0	0.142857
3123	0	0.142857
3124	0	0.142857
3125	0	0.142857
3126	0	0.142857
3127	0	0.142857
3128	0	0.142857
3129	0	0.142857
3130	0	0.142857
3131	0	0.2
3132	0	0.2
3133	0	0.2
3134	0	0.2
3135	0	0.2
3136	0	0.2
3137	0	0.2
3138	0	0.2
3139	0	0.2
3140	0	0.2
3141	0	0.2
3142	0	0.2
3143	0	0.2
3144	0	0.2
3145	0	0.2
3146	0	0.2
3147	0	0.2
3148	0	0.2
3149	0	0.2
3150	0	0.2
3151	0	0.2
3152	0	0.2
3153	0	0.3
3154	0	0.3
3155	0	0.3
3156	0	0
3157	0	0
3158	0	0
3159	0	0
3160	0	0
3161	0	0
3162	0	0
3163	0	0
3164	0	0
3165	0	0
3166	0	0
3167	0	0
3168	0	0
3169	0	0
3170	0	0
3171	0	0
3172	0	0
3173	0	0
3174	0	0
3175	0	0
3176	0	0
3177	0	0
3178	0	0
3179	0	0
3180	0	0
3181	0	0
3182	0	0
3183	0	0
3184	0	0
3185	0	0
3186	0	0
3187	0	0
3188	0	0
3189	0	0
3190	0	0
3191	0	0
3192	0	0
3193	0	0
3194	0	0
3195	0	0
3196	0	0
3197	0	0
3198	0	0
3199	0	0
3200	0	0
3201	0	0
3202	0	0
3203	0	0
3204	0	0
3205	0	0
3206	0	0
3207	0	0
3208	0	0
3209	0	0
3210	0	0
3211	0	0
3212	0	0
3213	0	0
3214	0	0
3215	0	0
3216	0	0
3217	0	0
3218	0	0
3219	0	0
3220	0	0
3221	0	0
3222	0	0
3223	0	0
3224	0	0
3225	0	0
3226	0	0
3227	0	0
3228	0	0
3229	0	0
3230	0	0
3231	0	0
3232	0	0
3233	0	0
3234	0	0
3235	0	0
3236	0	0
3237	0	0
3238	0	0
3239	0	0
3240	0	0
3241	0	0
3242	0	0
3243	0	0
3244	0	0
3245	0	0
3246	0	0
3247	0	0
3248	0	0
3249	0	0
3250	0	0
3251	0	0
3252	0	0
3253	0	0
3254	0	0
3255	0	0
3256	0	0
3257	0	0
3258	0	0
3259	0	0
3260	0	0
3261	0	0
3262	1	0
3263	1	0
3264	1	0
3265	1	0
3266	1	0
3267	1	0
3268	1	0
3269	1	0
3270	1	0
3271	1	0
3272	1	0
3273	1	0
3274	1	0
3275	1	0
3276	1	0
3277	1	0
3278	1	0
3279	1	0
3280	1	0
3281	1	0
3282	1	0
3283	1	0
3284	1	0
3285	1	0
3286	1	0
3287	1	0
3288	1	0
3289	1	0
3290	1	0
3291	1	0
3292	1	0
3293	1	0
3294	1	0
3295	1	0
3296	1	0
3297	1	0
3298	1	0
3299	1	0
3300	1	0
3301	1	0
3302	1	0
3303	1	0
3304	1	0
3305	1	0
3306	1	0
3307	1	0
3308	1	0
3309	1	0
3310	1	0
3311	1	0
3312	1	0
3313	1	0
3314	1	0
3315	1	0
3316	1	0
3317	1	0
3318	1	0
3319	1	0
3320	1	0
3321	1	0
3322	1	0
3323	1	0
3324	1	0
3325	1	0
3326	1	0
3327	1	0
3328	1	0
3329	1	0
3330	1	0
3331	1	0
3332	1	0
3333	1	0
3334	1	0
3335	1	0
3336	1	0
3337	1	0
3338	1	0
3339	1	0
3340	1	0
3341	1	0
3342	1	0
3343	1	0
3344	1	0
3345	1	0
3346	1	0
3347	1	0
3348	1	0
3349	1	0
3350	1	0
3351	1	0
3352	1	0
3353	1	0
3354	1	0
3355	1	0
3356	1	0
3357	1	0
3358	1	0
3359	1	0
3360	1	0
3361	1	0
3362	1	0
3363	1	0
3364	1	0
3365	1	0
3366	1	0
3367	1	0
3368	1	0
3369	1	0
3370	1	0
3371	1	0
3372	1	0
3373	1	0
3374	1	0
3375	1	0
3376	1	0
3377	1	0
3378	1	0
3379	1	0
3380	1	0
3381	1	0
3382	1	0
3383	1	0
3384	1	0
3385	1	0
3386	1	0
3387	1	0
3388	1	0
3389	1	0
3390	1	0
3391	1	0
3392	1	0
3393	1	0
3394	1	0
3395	1	0
3396	1	0
3397	1	0
3398	1	0
3399	1	0
3400	1	0
3401	1	0
3402	1	0
3403	1	0
3404	1	0
3405	1	0
3406	1	0
3407	1	0
3408	1	0
3409	1	0
3410	1	0
3411	1	0
3412	1	0
3413	1	0
3414	1	0
3415	1	0
3416	1	0
3417	1	0
3418	1	0
3419	1	0
3420	1	0
3421	1	0
3422	1	0
3423	1	0
3424	1	0
3425	1	0
3426	1	0
3427	1	0
3428	1	0
3429	1	0
3430	1	0
3431	1	0
3432	1	0
3433	1	0
3434	1	0
3435	1	0
3436	1	0
3437	1	0
3438	1	0
3439	1	0
3440	1	0
3441	1	0
3442	1	0
3443	1	0
3444	1	0
3445	1	0
3446	1	0
3447	1	0
3448	1	0
3449	1	0
3450	1	0
3451	1	0
3452	1	0
3453	1	0
3454	1	0
3455	1	0
3456	1	0
3457	1	0
3458	1	0
3459	1	0
3460	1	0
3461	1	0
3462	1	0
3463	1	0
3464	1	0
3465	1	0
3466	1	0
3467	1	0
3468	1	0
3469	1	0
3470	1	0
3471	1	0
3472	1	0
3473	1	0
3474	1	0
3475	1	0
3476	1	0
3477	1	0
3478	1	0
3479	1	0
3480	1	0
3481	1	0
3482	1	0
3483	1	0
3484	1	0
3485	1	0
3486	1	0
3487	1	0
3488	1	0
3489	1	0
3490	1	0
3491	1	0
3492	1	0
3493	1	0
3494	1	0
3495	1	0
3496	1	0
3497	1	0
3498	1	0
3499	1	0
3500	1	0
3501	1	0
3502	1	0
3503	1	0
3504	1	0
3505	1	0
3506	1	0
3507	1	0
3508	1	0
3509	1	0
3510	1	0
3511	1	0
3512	1	0
3513	1	0
3514	1	0
3515	1	0
3516	1	0
3517	1	0
3518	1	0
3519	1	0
3520	1	0
3521	1	0
3522	1	0
3523	1	0
3524	1	0
3525	1	0
3526	1	0
3527	1	0
3528	1	0
3529	1	0
3530	1	0
3531	1	0
3532	1	0
3533	1	0
3534	1	0
3535	1	0
3536	1	0
3537	1	0
3538	1	0
3539	1	0
3540	1	0
3541	1	0
3542	1	0
3543	1	0
3544	1	0
3545	1	0
3546	1	0
3547	1	0
3548	1	0
3549	1	0
3550	1	0
3551	1	0
3552	1	0
3553	1	0
3554	1	0
3555	1	0
3556	1	0
3557	1	0
3558	1	0
3559	1	0
3560	1	0
3561	1	0
3562	1	0
3563	1	0
3564	1	0
3565	1	0
3566	1	0
3567	1	0
3568	1	0
3569	1	0
3570	1	0
3571	1	0
3572	1	0
3573	1	0
3574	1	0
3575	1	0
3576	1	0
3577	1	0
3578	1	0
3579	1	0
3580	1	0
3581	1	0
3582	1	0
3583	1	0
3584	1	0
3585	1	0
3586	1	0
3587	1	0
3588	1	0
3589	1	0
3590	1	0
3591	1	0
3592	1	0
3593	1	0
3594	1	0
3595	1	0
3596	1	0
3597	1	0
3598	1	0
3599	1	0
3600	1	0
3601	1	0
3602	1	0
3603	1	0
3604	1	0
3605	1	0
3606	1	0
3607	1	0
3608	1	0
3609	1	0
3610	1	0
3611	1	0
3612	1	0
3613	1	0
3614	1	0
3615	1	0
3616	1	0
3617	1	0
3618	1	0
3619	1	0
3620	1	0
3621	1	0
3622	1	0
3623	1	0
3624	1	0
3625	1	0
3626	1	0
3627	1	0
3628	1	0
3629	1	0
3630	1	0
3631	1	0
3632	1	0
3633	1	0
3634	1	0
3635	1	0
3636	1	0
3637	1	0
3638	1	0
3639	1	0
3640	1	0
3641	1	0
3642	1	0
3643	1	0
3644	1	0
3645	1	0
3646	1	0
3647	1	0
3648	1	0
3649	1	0
3650	1	0
3651	1	0
3652	1	0
3653	1	0
3654	1	0
3655	1	0
3656	1	0
3657	1	0
3658	1	0
3659	1	0
3660	1	0
3661	1	0
3662	1	0
3663	1	0
3664	1	0
3665	1	0
3666	1	0
3667	1	0
3668	1	0
3669	1	0
3670	1	0
3671	1	0
3672	1	0
3673	1	0
3674	1	0
3675	1	0
3676	1	0
3677	1	0
3678	1	0
3679	1	0
3680	1	0
3681	1	0
3682	1	0
3683	1	0
3684	1	0
3685	1	0
3686	1	0
3687	1	0
3688	1	0
3689	1	0
3690	1	0
3691	1	0
3692	1	0
3693	1	0
3694	1	0
3695	1	0
3696	1	0
3697	1	0
3698	1	0
3699	1	0
3700	1	0
3701	1	0
3702	1	0
3703	1	0
3704	1	0
3705	1	0
3706	1	0
3707	1	0
3708	1	0
3709	1	0
3710	1	0
3711	1	0
3712	1	0
3713	1	0
3714	1	0
3715	1	0
3716	1	0
3717	1	0
3718	1	0
3719	1	0
3720	1	0
3721	1	0
3722	1	0
3723	1	0
3724	1	0
3725	1	0
3726	1	0
3727	1	0
3728	1	0
3729	1	0
3730	1	0
3731	1	0
3732	1	0
3733	1	0
3734	1	0
3735	1	0
3736	1	0
3737	1	0
3738	1	0
3739	1	0
3740	1	0
3741	1	0
3742	1	0
3743	1	0
3744	1	0
3745	1	0
3746	1	0
3747	1	0
3748	1	0
3749	1	0
3750	1	0
3751	1	0
3752	1	0
3753	1	0
3754	1	0
3755	1	0
3756	1	0
3757	1	0
3758	1	0
3759	1	0
3760	1	0
3761	1	0
3762	1	0
3763	1	0
3764	1	0
3765	1	0
3766	1	0
3767	1	0
3768	1	0
3769	1	0
3770	1	0
3771	1	0
3772	1	0
3773	1	0
3774	1	0
3775	1	0
3776	1	0
3777	1	0
3778	1	0
3779	1	0
3780	1	0
3781	1	0
3782	1	0
3783	1	0
3784	1	0
3785	1	0
3786	1	0
3787	1	0
3788	1	0
3789	1	0
3790	1	0
3791	1	0
3792	1	0
3793	1	0
3794	1	0
3795	1	0
3796	1	0
3797	1	0
3798	1	0
3799	1	0
3800	1	0
3801	1	0
3802	1	0
3803	1	0
3804	1	0
3805	1	0
3806	1	0
3807	1	0
3808	1	0
3809	1	0
3810	1	0
3811	1	0
3812	1	0
3813	1	0
3814	1	0
3815	1	0
3816	1	0
3817	1	0
3818	1	0
3819	1	0
3820	1	0
3821	1	0
3822	1	0
3823	1	0
3824	1	0
3825	1	0
3826	1	0
3827	1	0
3828	1	0
3829	1	0
3830	1	0
3831	1	0
3832	1	0
3833	1	0
3834	1	0
3835	1	0
3836	1	0
3837	1	0
3838	1	0
3839	1	0
3840	1	0
3841	1	0
3842	1	0
3843	1	0
3844	1	0
3845	1	0
3846	1	0
3847	1	0
3848	1	0
3849	1	0
3850	1	0
3851	1	0
3852	1	0
3853	1	0
3854	1	0
3855	1	0
3856	1	0
3857	1	0
3858	1	0
3859	1	0
3860	1	0
3861	1	0
3862	1	0
3863	1	0
3864	1	0
3865	1	0
3866	1	0
3867	1	0
3868	1	0
3869	1	0
3870	1	0
3871	1	0
3872	1	0
3873	1	0
3874	1	0
3875	1	0
3876	1	0
3877	1	0
3878	1	0
3879	1	0
3880	1	0
3881	1	0
3882	1	0
3883	1	0
3884	1	0
3885	1	0
3886	1	0
3887	1	0
3888	1	0
3889	1	0
3890	1	0
3891	1	0
3892	1	0
3893	1	0
3894	1	0
3895	1	0
3896	1	0
3897	1	0
3898	1	0
3899	1	0
3900	1	0
3901	1	0
3902	1	0
3903	1	0
3904	1	0
3905	1	0
3906	1	0
3907	1	0
3908	1	0
3909	1	0
3910	1	0
3911	1	0
3912	1	0
3913	1	0
3914	1	0
3915	1	0
3916	1	0
3917	1	0
3918	1	0
3919	1	0
3920	1	0
3921	1	0
3922	1	0
3923	1	0
3924	1	0
3925	1	0
3926	1	0
3927	1	0
3928	1	0
3929	1	0
3930	1	0
3931	1	0
3932	1	0
3933	1	0
3934	1	0
3935	1	0
3936	1	0
3937	1	0
3938	1	0
3939	1	0
3940	1	0
3941	1	0
3942	1	0
3943	1	0
3944	1	0
3945	1	0
3946	1	0
3947	1	0
3948	1	0
3949	1	0
3950	1	0
3951	1	0
3952	1	0
3953	1	0
3954	1	0
3955	1	0
3956	1	0
3957	1	0
3958	1	0
3959	1	0
3960	1	0
3961	1	0
3962	1	0
3963	1	0
3964	1	0
3965	1	0
3966	1	0
3967	1	0
3968	1	0
3969	1	0
3970	1	0
3971	1	0
3972	1	0
3973	1	0
3974	1	0
3975	1	0
3976	1	0
3977	1	0
3978	1	0
3979	1	0
3980	1	0
3981	1	0
3982	1	0
3983	1	0
3984	1	0
3985	1	0
3986	1	0
3987	1	0
3988	1	0
3989	1	0
3990	1	0
3991	1	0
3992	1	0
3993	1	0
3994	1	0
3995	1	0
3996	1	0
3997	1	0
3998	1	0
3999	1	0
4000	1	0
4001	1	0
4002	1	0
4003	1	0
4004	1	0
4005	1	0
4006	1	0
4007	1	0
4008	1	0
4009	1	0
4010	1	0
4011	1	0
4012	1	0
4013	1	0
4014	1	0
4015	1	0
4016	1	0
4017	1	0
4018	1	0
4019	1	0
4020	1	0
4021	1	0
4022	1	0
4023	1	0
4024	1	0
4025	1	0
4026	1	0
4027	1	0
4028	1	0
4029	1	0
4030	1	0
4031	1	0
4032	1	0
4033	1	0
4034	1	0
4035	1	0
4036	1	0
4037	1	0
4038	1	0
4039	1	0
4040	1	0
4041	1	0
4042	1	0
4043	1	0
4044	1	0
4045	1	0
4046	1	0
4047	1	0
4048	1	0
4049	1	0
4050	1	0
4051	1	0
4052	1	0
4053	1	0
4054	1	0
4055	1	0
4056	1	0
4057	1	0
4058	1	0
4059	1	0
4060	1	0
4061	1	0
4062	1	0
4063	1	0
4064	1	0
4065	1	0
4066	1	0
4067	1	0
4068	1	0
4069	1	0
4070	1	0
4071	1	0
4072	1	0
4073	1	0
4074	1	0
4075	1	0
4076	1	0
4077	1	0
4078	1	0
4079	1	0
4080	1	0
4081	1	0
4082	1	0
4083	1	0
4084	1	0
4085	1	0
4086	1	0
4087	1	0
4088	1	0
4089	1	0
4090	1	0
4091	1	0
4092	1	0
4093	1	0
4094	1	0
4095	1	0
4096	1	0
4097	1	0
4098	1	0
4099	1	0
4100	1	0
4101	1	0
4102	1	0
4103	1	0
4104	1	0
4105	1	0
4106	1	0
4107	1	0
4108	1	0
4109	1	0
4110	1	0
4111	1	0
4112	1	0
4113	1	0
4114	1	0
4115	1	0
4116	1	0
4117	1	0
4118	1	0
4119	1	0
4120	1	0
4121	1	0
4122	1	0
4123	1	0
4124	1	0
4125	1	0
4126	1	0
4127	1	0
4128	1	0
4129	1	0
4130	1	0
4131	1	0
4132	1	0
4133	1	0
4134	1	0
4135	1	0
4136	1	0
4137	1	0
4138	1	0
4139	1	0
4140	1	0
4141	1	0
4142	1	0
4143	1	0
4144	1	0
4145	1	0
4146	1	0
4147	1	0
4148	1	0
4149	1	0
4150	1	0
4151	1	0
4152	1	0
4153	1	0
4154	1	0
4155	1	0
4156	1	0
4157	1	0
4158	1	0
4159	1	0
4160	1	0
4161	1	0
4162	1	0
4163	1	0
4164	1	0
4165	1	0
4166	1	0
4167	1	0
4168	1	0
4169	1	0
4170	1	0
4171	1	0
4172	1	0
4173	1	0
4174	1	0
4175	1	0
4176	1	0
4177	1	0
4178	1	0
4179	1	0
4180	1	0
4181	1	0
4182	1	0
4183	1	0
4184	1	0
4185	1	0
4186	1	0
4187	1	0
4188	1	0
4189	1	0
4190	1	0
4191	1	0
4192	1	0
4193	1	0
4194	1	0
4195	1	0
4196	1	0
4197	1	0
4198	1	0
4199	1	0
4200	1	0
4201	1	0
4202	1	0
4203	1	0
4204	1	0
4205	1	0
4206	1	0
4207	1	0
4208	1	0
4209	1	0
4210	1	0
4211	1	0
4212	1	0
4213	1	0
4214	1	0
4215	1	0
4216	1	0
4217	1	0
4218	1	0
4219	1	0
4220	1	0
4221	1	0
4222	1	0
4223	1	0
4224	1	0
4225	1	0
4226	1	0
4227	1	0
4228	1	0
4229	1	0
4230	1	0
4231	1	0
4232	1	0
4233	1	0
4234	1	0
4235	1	0
4236	1	0
4237	1	0
4238	1	0
4239	1	0
4240	1	0
4241	1	0
4242	1	0
4243	1	0
4244	1	0
4245	1	0
4246	1	0
4247	1	0
4248	1	0
4249	1	0
4250	1	0
4251	1	0
4252	1	0
4253	1	0
4254	1	0
4255	1	0
4256	1	0
4257	1	0
4258	1	0
4259	1	0
4260	1	0
4261	1	0
4262	1	0
4263	1	0
4264	1	0
4265	1	0
4266	1	0
4267	1	0
4268	1	0
4269	1	0
4270	1	0
4271	1	0
4272	1	0
4273	1	0
4274	1	0
4275	1	0
4276	1	0
4277	1	0
4278	1	0
4279	1	0
4280	1	0
4281	1	0
4282	1	0
4283	1	0
4284	1	0
4285	1	0
4286	1	0
4287	1	0
4288	1	0
4289	1	0
4290	1	0
4291	1	0
4292	1	0
4293	1	0
4294	1	0
4295	1	0
4296	1	0
4297	1	0
4298	1	0
4299	1	0
4300	1	0
4301	1	0
4302	1	0
4303	1	0
4304	1	0
4305	1	0
4306	1	0
4307	1	0
4308	1	0
