Site	ColumnScore	SumOfPairsScore
1	0	0
2	0	0
3	0	0
4	0	0
5	0	0
6	0	0
7	0	0
8	0	0
9	0	0
10	0	0
11	0	0
12	0	0
13	0	0
14	0	0
15	0	0
16	0	0
17	0	0
18	0	0
19	0	0
20	0	0
21	0	0
22	0	0
23	0	0
24	0	0
25	0	0
26	1	0
27	1	0
28	1	0
29	1	0
30	1	0
31	1	0
32	0	0
33	0	0
34	0	0
35	0	0
36	0	0
37	0	0
38	0	0
39	0	0
40	0	0
41	0	0
42	0	0
43	0	0
44	0	0
45	0	0
46	0	0
47	0	0
48	0	0
49	0	0
50	0	0
51	0	0
52	0	0
53	0	0
54	0	0
55	0	0
56	0	0
57	0	0
58	0	0
59	0	0
60	1	0
61	1	0
62	1	0
63	1	0
64	1	0
65	0	0
66	0	0
67	0	0
68	0	0
69	0	0
70	0	0
71	0	0
72	0	0
73	0	0
74	0	0
75	0	0
76	0	0
77	0	0
78	0	0
79	0	0
80	0	0
81	0	0
82	0	0
83	0	0
84	0	0
85	0	0
86	0	0
87	0	0
88	0	0
89	0	0
90	0	0
91	0	0
92	0	0
93	0	0
94	0	0
95	0	0
96	0	0
97	0	0
98	0	0
99	0	0
100	0	0
101	0	0
102	0	0
103	0	0
104	0	0
105	0	0
106	0	0
107	0	0
108	0	0
109	0	0
110	0	0
111	0	0
112	0	0
113	0	0
114	0	0
115	0	0
116	0	0
117	0	0
118	0	0
119	0	0
120	0	0
121	0	0
122	0	0
123	0	0
124	0	0
125	0	0
126	0	0
127	0	0
128	0	0
129	0	0
130	0	0
131	0	0
132	0	0
133	0	0
134	0	0
135	0	0
136	0	0
137	0	0
138	0	0
139	0	0
140	0	0
141	0	0
142	0	0
143	0	0
144	0	0
145	0	0
146	0	0
147	0	0
148	0	0
149	0	0
150	0	0
151	0	0
152	0	0
153	0	0
154	0	0
155	0	0
156	0	0
157	0	0
158	0	0
159	0	0
160	0	0
161	0	0
162	0	0
163	0	0
164	0	0
165	0	0
166	0	0
167	0	0
168	0	0
169	0	0
170	0	0
171	0	0
172	0	0
173	0	0
174	0	0
175	0	0
176	0	0
177	0	0
178	0	0
179	0	0
180	0	0
181	0	0
182	0	0
183	0	0
184	0	0
185	0	0
186	0	0
187	0	0
188	0	0
189	0	0
190	0	0
191	0	0
192	0	0
193	0	0
194	0	0
195	0	0
196	0	0
197	0	0
198	0	0
199	0	0
200	0	0
201	0	0
202	0	0
203	0	0
204	0	0
205	0	0
206	0	0
207	0	0
208	0	0
209	0	0
210	0	0
211	0	0
212	0	0
213	0	0
214	0	0
215	0	0
216	0	0
217	0	0
218	0	0
219	0	0
220	0	0
221	0	0
222	0	0
223	0	0
224	0	0
225	0	0
226	0	0
227	0	0
228	0	0
229	0	0
230	0	0
231	0	0
232	0	0
233	0	0
234	0	0
235	0	0
236	0	0
237	0	0
238	0	0
239	0	0
240	0	0
241	0	0
242	0	0
243	0	0
244	0	0
245	0	0
246	0	0
247	0	0
248	0	0
249	0	0
250	0	0
251	0	0
252	0	0
253	0	0
254	0	0
255	0	0
256	0	0
257	0	0
258	0	0
259	0	0
260	0	0
261	0	0
262	0	0
263	0	0
264	0	0
265	0	0
266	0	0
267	0	0
268	0	0
269	0	0
270	0	0
271	0	0
272	0	0
273	0	0
274	0	0
275	0	0
276	0	0
277	0	0
278	0	0
279	0	0
280	0	0
281	0	0
282	0	0
283	0	0
284	0	0
285	0	0
286	0	0
287	0	0
288	0	0
289	0	0
290	0	0
291	0	0
292	0	0
293	0	0
294	0	0
295	0	0
296	0	0
297	0	0
298	0	0
299	0	0.047619
300	0	0.047619
301	0	0.047619
302	0	0.047619
303	0	0.047619
304	0	0.047619
305	0	0.047619
306	0	0.047619
307	0	0.0357143
308	0	0.0357143
309	0	0.0357143
310	0	0.0277778
311	0	0.0277778
312	0	0.0277778
313	0	0.0277778
314	0	0.0277778
315	0	0.0277778
316	0	0.0277778
317	0	0.0277778
318	0	0.0222222
319	0	0.0222222
320	0	0.0222222
321	0	0.0222222
322	0	0.0222222
323	0	0.0222222
324	0	0.0181818
325	0	0.0181818
326	0	0.0181818
327	0	0.0363636
328	0	0.0363636
329	0	0.0363636
330	0	0.030303
331	0	0.030303
332	0	0.030303
333	0	0.030303
334	0	0.032967
335	0	0.0285714
336	0	0.0380952
337	0	0.025
338	0	0.0416667
339	0	0.025
340	0	0.025
341	0	0.0220588
342	0	0.0196078
343	0	0.0196078
344	0	0.0196078
345	0	0.0175439
346	0	0.0175439
347	0	0.0175439
348	0	0.0175439
349	0	0.0292398
350	0	0.0643275
351	0	0.0631579
352	0	0.0631579
353	0	0.0894737
354	0	0.0809524
355	0	0.0809524
356	0	0.0809524
357	0	0.0904762
358	0	0.0904762
359	0	0.0904762
360	0	0.0904762
361	0	0.0904762
362	0	0.0822511
363	0	0.0995671
364	0	0.101449
365	0	0.116935
366	0	0.129268
367	0	0.144314
368	0	0.233737
369	0	0.324947
370	0	0.327773
371	0	0.330537
372	0	0.394933
373	0	0.666188
374	0	0.155556
375	0	0.190476
376	0	0.1
377	0	0.1
378	0	0.1
379	0	0.1
380	0	0.1
381	0	0.1
382	0	0.1
383	0	0.1
384	0	0.1
385	0	0.1
386	0	0.1
387	0	0.1
388	0	0.1
389	0	0.1
390	0	0.1
391	0	0.1
392	0	0.1
393	0	0.1
394	0	0.1
395	0	0.0666667
396	0	0.754149
397	0	0.111111
398	0	0.111111
399	0	0.111111
400	0	0.111111
401	0	0.181818
402	0	0.252747
403	0	0.294872
404	0	0.294872
405	0	0.85538
406	0	0.868422
407	0	0.2
408	0	0.2
409	0	0.333333
410	0	0.333333
411	0	1
412	0	1
413	0	1
414	0	1
415	0	1
416	0	1
417	0	1
418	0	1
419	0	1
420	0	1
421	0	1
422	0	1
423	0	1
424	0	1
425	0	1
426	0	1
427	0	1
428	0	1
429	0	1
430	0	1
431	0	1
432	0	1
433	0	1
434	0	1
435	0	1
436	0	0.868561
437	0	0.868561
438	0	0
439	0	0
440	0	0
441	0	0
442	0	0
443	0	0
444	0	0
445	0	0
446	0	0
447	0	0
448	0	0
449	0	0
450	0	0
451	0	0
452	0	0
453	0	0.166667
454	0	0.272727
455	0	0.885032
456	0	0
457	0	0
458	0	0
459	0	0
460	0	0
461	0	0
462	0	0
463	0	0
464	0	0.0666667
465	0	0
466	0	0
467	0	0.166667
468	0	0
469	0	0
470	0	0
471	0	0
472	0	0
473	0	0
474	0	0
475	0	0
476	0	0
477	0	0
478	0	0
479	0	0
480	0	0
481	0	0
482	0	0
483	0	0
484	0	0
485	0	0
486	0	0
487	0	0
488	0	0
489	0	0
490	0	0
491	0	0
492	0	0
493	0	0
494	0	0
495	0	0
496	0	0
497	0	0
498	0	0
499	0	0
500	0	0
501	0	0
502	0	0
503	0	0
504	0	0
505	0	0
506	0	0
507	0	0
508	0	0
509	0	0
510	0	0
511	0	0
512	0	0
513	0	0
514	0	0
515	0	0
516	0	0
517	0	0
518	0	0
519	0	0
520	0	0
521	0	0
522	0	0
523	0	0
524	0	0
525	0	0
526	0	0
527	0	0
528	0	0
529	0	0
530	0	0
531	0	0
532	0	0
533	0	0.787221
534	0	0
535	0	0
536	0	0
537	0	0
538	0	0
539	0	0
540	0	0
541	0	0
542	0	0
543	0	0
544	0	0
545	0	0
546	0	0
547	0	0
548	0	0
549	0	0.0357143
550	0	0.107143
551	0	0.166667
552	0	0.166667
553	0	0.166667
554	0	0.133333
555	0	0.127273
556	0	0.145455
557	0	0.121212
558	0	0.153846
559	0	0.133333
560	0	0.161905
561	0	0.161905
562	0	0.2
563	0	0.216667
564	0	0.434353
565	0	0.142857
566	0	0.142857
567	0	0.242424
568	0	0.981935
569	0	0.980244
570	0	0.98025
571	0	0
572	0	0
573	0	0
574	0	0.97315
575	0	0.97315
576	0	0.543458
577	0	0.2
578	0	0.285714
579	0	0.524187
580	0	0.371722
581	0	0.25
582	0	0.214286
583	0	0.867124
584	0	0.736447
585	0	0.392857
586	0	0.948065
587	0	0.333333
588	0	0.238095
589	0	0.617993
590	0	0.888714
591	0	0.535714
592	0	0.940562
593	0	1
594	0	1
595	0	1
596	0	0.577467
597	0	0.1
598	0	0.728571
599	0	0.516923
600	0	0.601713
601	0	1
602	0	0.648718
603	0	0.612141
604	0	0.615689
605	0	0.227273
606	0	0.396856
607	0	0.52381
608	0	0.326668
609	0	0.845189
610	0	0.976776
611	0	0.980447
612	0	0.998208
613	0	0.998208
614	0	0.998208
615	0	0.998208
616	0	0.998208
617	0	0.998208
618	0	0.998208
619	0	0.998208
620	0	0.998208
621	0	0.998208
622	0	0
623	1	0
624	0	0.996417
625	0	0.998208
626	0	0.998208
627	0	0.998208
628	0	0.998208
629	0	0.998208
630	0	0
631	0	0
632	0	0
633	0	0
634	0	0
635	0	0.991055
636	0	0.991063
637	0	0.991063
638	0	0.991063
639	0	0.654545
640	0	0.654545
641	0	0.654545
642	0	0.8
643	0	0.8
644	0	0.8
645	0	0.622222
646	0	0.488889
647	0	0.488889
648	0	0.222222
649	0	0.973327
650	0	1
651	0	1
652	0	1
653	0	1
654	0	1
655	0	1
656	0	1
657	0	0.333333
658	0	0.333333
659	0	0.333333
660	0	0.333333
661	0	0.333333
662	0	0.333333
663	0	0.333333
664	0	0.2
665	0	0.2
666	0	0.2
667	0	0.133333
668	0	0.133333
669	0	0.133333
670	0	0.133333
671	0	0.133333
672	0	0.133333
673	0	0.133333
674	0	0.266667
675	0	0.266667
676	0	0.266667
677	0	0.266667
678	0	0.190476
679	0	0.190476
680	0	0.190476
681	0	0.333333
682	0	0.32967
683	0	0.285714
684	0	0.25
685	0	0.35
686	0	0.466667
687	0	0.558333
688	0	0.558333
689	0	0.9
690	0	0.530646
691	0	0.166667
692	0	0
693	0	0
694	0	0.166667
695	0	0.166667
696	0	0.333333
697	0	1
698	0	1
699	0	1
700	0	1
701	0	1
702	0	1
703	0	1
704	0	0.505126
705	0	0.992881
706	0	0
707	0	0
708	0	0
709	0	0.996443
710	0	0.996443
711	0	0.996449
712	0	0.996449
713	0	0.996449
714	0	0.996449
715	0	0.714286
716	0	0.987623
717	0	0.987623
718	0	0.987623
719	0	0.987623
720	0	0.987623
721	0	0.998214
722	0	0.974404
723	0	0.852118
724	0	0.857015
725	0	0.855494
726	0	0.926345
727	0	0.926408
728	0	0.926407
729	0	1
730	0	1
731	0	0.998225
732	0	0.998227
733	0	0.998227
734	0	0.998227
735	0	0.998227
736	0	0.996455
737	0	0.998225
738	0	1
739	0	1
740	0	1
741	0	1
742	0	1
743	1	0
744	1	0
745	0	0.998225
746	0	0.998225
747	0	0.998225
748	0	1
749	0	1
750	0	0.989392
751	0	1
752	0	1
753	0	1
754	0	0.989362
755	0	0
756	0	0
757	0	0
758	0	0
759	0	0
760	0	0
761	0	1
762	0	1
763	0	0.971634
764	0	0.771914
765	0	0.721219
766	0	0
767	0	0
768	0	0
769	0	0
770	0	0
771	0	0.777778
772	0	0
773	0	0
774	1	0
775	0	0
776	0	0
777	0	0.65213
778	0	0
779	0	0
780	0	0
781	0	0
782	0	0
783	0	0
784	0	0
785	0	0
786	0	0
787	0	0
788	0	0
789	0	0
790	1	0
791	1	0
792	1	0
793	1	0
794	1	0
795	1	0
796	1	0
797	1	0
798	1	0
799	1	0
800	1	0
801	1	0
802	1	0
803	1	0
804	0	0.55
805	0	0.244444
806	0	0.3
807	0	1
808	0	1
809	0	1
810	0	0.74761
811	0	1
812	0	1
813	0	1
814	1	1
815	1	1
816	1	1
817	1	1
818	1	1
819	0	1
820	0	1
821	0	1
822	0	0.98067
823	0	0.98067
824	0	0.98067
825	0	0.98067
826	0	0.98067
827	0	0.98067
828	1	0
829	1	0
830	1	0
831	1	0
832	1	0
833	1	0
834	0	0
835	0	0
836	0	0
837	0	0.907985
838	0	1
839	0	1
840	1	1
841	1	1
842	1	1
843	1	1
844	1	1
845	1	1
846	1	1
847	1	1
848	1	1
849	0	1
850	0	1
851	0	1
852	0	1
853	0	1
854	1	1
855	1	1
856	0	0.99823
857	0	0.996419
858	0	0.980059
859	0	0.809081
860	0	0
861	0	0
862	0	0.166667
863	0	0
864	0	0.802412
865	0	0.987667
866	0	1
867	1	1
868	1	1
869	1	1
870	1	1
871	1	1
872	0	0
873	0	0
874	0	0
875	0	0
876	0	0.991168
877	0	0
878	0	0
879	0	0
880	0	0.989424
881	0	0
882	0	0
883	0	0
884	0	0
885	0	0
886	0	0
887	0	0
888	0	0.333333
889	0	0.333333
890	0	1
891	1	1
892	1	1
893	1	1
894	1	1
895	1	1
896	1	1
897	1	1
898	1	1
899	1	1
900	1	1
901	0	0.9947
902	0	0
903	0	0
904	0	0
905	0	0
906	0	0
907	0	0
908	0	0
909	0	0
910	0	0
911	0	0
912	0	0
913	0	0.996452
914	0	0
915	0	0
916	0	0
917	0	0
918	0	0.994687
919	0	0.994692
920	0	0.994687
921	0	0.994664
922	0	0.994664
923	0	0.994664
924	0	0.994664
925	0	0
926	0	0
927	0	0
928	0	0
929	0	0
930	0	0
931	0	0.790813
932	0	0
933	0	0
934	0	0
935	0	0
936	0	0
937	0	0
938	0	0
939	0	0
940	0	0
941	0	0.333333
942	0	0.2
943	0	0.2
944	0	0.2
945	0	0.989322
946	0	0.333333
947	0	0.333333
948	0	0.333333
949	0	1
950	1	1
951	1	1
952	1	1
953	1	1
954	1	1
955	1	1
956	0	0.998229
957	1	1
958	1	1
959	1	1
960	1	1
961	0	1
962	0	1
963	0	0.98417
964	0	0.984148
965	0	0.511307
966	0	0.333333
967	0	0.333333
968	0	0.333333
969	0	0.333333
970	0	0.2
971	0	0.6
972	0	0.817105
973	0	0.812716
974	0	0
975	0	0
976	0	0
977	0	0
978	0	0
979	0	0
980	1	0
981	1	0
982	1	0
983	1	0
984	1	0
985	1	0
986	1	0
987	1	0
988	1	0
989	1	0
990	1	0
991	1	0
992	1	0
993	1	0
994	1	0
995	1	0
996	1	0
997	1	0
998	1	0
999	1	0
1000	1	0
1001	1	0
1002	0	0.6
1003	0	0.941615
1004	0	0.916603
1005	0	1
1006	0	1
1007	0	1
1008	0	1
1009	0	1
1010	1	1
1011	1	1
1012	1	1
1013	1	1
1014	1	1
1015	0	0.998229
1016	0	0.996459
1017	0	0.998229
1018	1	1
1019	1	1
1020	1	1
1021	1	1
1022	0	1
1023	0	1
1024	0	1
1025	0	1
1026	1	1
1027	1	1
1028	0	0.998227
1029	0	0.998225
1030	0	0.996459
1031	0	0.998227
1032	0	0.998227
1033	0	1
1034	0	1
1035	1	1
1036	1	1
1037	1	1
1038	1	1
1039	1	1
1040	1	1
1041	1	1
1042	1	1
1043	0	0.998229
1044	1	1
1045	1	1
1046	1	1
1047	0	1
1048	0	0.968506
1049	0	0.379794
1050	0	0
1051	0	0
1052	0	0
1053	0	0
1054	0	0
1055	0	0
1056	0	0
1057	0	0
1058	0	0
1059	0	0
1060	0	0
1061	0	0
1062	0	0
1063	0	0
1064	0	0.563017
1065	0	0.5
1066	0	0.5
1067	0	0.5
1068	0	0.5
1069	0	0.5
1070	0	0.333333
1071	0	0.166667
1072	0	0
1073	0	0
1074	0	0.996455
1075	0	0.996455
1076	0	0.99469
1077	0	0.99469
1078	0	0.99469
1079	0	0.99469
1080	0	0.99469
1081	0	0.99469
1082	0	0.99469
1083	0	0.166667
1084	0	0.50056
1085	0	0.982373
1086	1	0
1087	1	0
1088	1	0
1089	1	0
1090	1	0
1091	1	0
1092	1	0
1093	1	0
1094	1	0
1095	1	0
1096	1	0
1097	1	0
1098	1	0
1099	0	0
1100	0	0
1101	0	1
1102	0	0.996455
1103	0	1
1104	0	1
1105	0	1
1106	0	0.991144
1107	0	0.987634
1108	0	0.985874
1109	0	0.987633
1110	0	0
1111	0	0
1112	0	0.991143
1113	0	0
1114	0	0
1115	0	0
1116	0	0
1117	0	0
1118	0	0
1119	0	0
1120	0	0
1121	0	0
1122	0	0
1123	0	0
1124	0	0
1125	0	0
1126	0	0
1127	0	0
1128	0	0
1129	0	0
1130	1	0
1131	1	0
1132	1	0
1133	1	0
1134	1	0
1135	1	0
1136	1	0
1137	1	0
1138	1	0
1139	0	0.992905
1140	0	0.994671
1141	0	0.75
1142	0	0
1143	0	0
1144	0	0
1145	0	0.794301
1146	0	0.499053
1147	0	0.498112
1148	0	0
1149	0	0
1150	0	0
1151	0	0
1152	0	0
1153	0	0
1154	0	0
1155	0	0.498139
1156	0	0.994686
1157	0	0
1158	0	0
1159	0	0
1160	0	0
1161	0	0
1162	0	0
1163	0	0
1164	0	0.994686
1165	0	0.994686
1166	0	0
1167	0	0.992919
1168	0	0.878611
1169	0	0.878511
1170	0	0.877065
1171	0	0.992917
1172	0	0.992917
1173	0	0
1174	0	0
1175	0	0
1176	0	0
1177	0	0
1178	0	0
1179	0	0.996452
1180	0	0.998225
1181	0	0.998225
1182	0	0.998225
1183	0	0.996452
1184	0	0.996452
1185	0	0.996452
1186	0	0
1187	0	0
1188	0	0
1189	0	0
1190	0	0
1191	0	0.996449
1192	0	0.998222
1193	0	0.998222
1194	0	1
1195	0	0.998222
1196	0	0.996449
1197	0	0.996449
1198	0	0.994681
1199	0	0.992911
1200	0	0
1201	0	0
1202	0	0
1203	0	0
1204	1	0
1205	1	0
1206	1	0
1207	1	0
1208	1	0
1209	1	0
1210	1	0
1211	1	0
1212	1	0
1213	1	0
1214	1	0
1215	1	0
1216	0	0
1217	0	0.998221
1218	0	0.996443
1219	0	0.99644
1220	0	0
1221	0	0.994673
1222	0	0
1223	0	0
1224	0	0
1225	0	0
1226	0	0
1227	0	0
1228	0	0
1229	0	0
1230	0	0
1231	0	0
1232	0	0
1233	0	0
1234	0	0
1235	0	0
1236	0	0
1237	0	0
1238	0	0
1239	0	0
1240	0	0
1241	0	0
1242	0	0
1243	0	0
1244	0	0
1245	0	0
1246	0	0
1247	0	0
1248	0	0
1249	0	0
1250	0	0
1251	0	0
1252	0	0
1253	0	0
1254	0	0
1255	0	0
1256	0	0
1257	0	0
1258	0	0
1259	0	0
1260	0	0
1261	0	0
1262	0	0
1263	0	0
1264	0	0
1265	0	0
1266	0	0
1267	0	0
1268	0	0
1269	0	0
1270	0	0
1271	0	0
1272	0	0
1273	0	0
1274	0	0
1275	0	0
1276	0	0
1277	0	0
1278	0	0
1279	0	0
1280	0	0
1281	0	0
1282	0	0
1283	0	0
1284	0	0
1285	0	0
1286	0	0
1287	0	0
1288	0	0
1289	0	0
1290	0	0
1291	0	0
1292	0	0
1293	0	0
1294	0	0
1295	0	0
1296	0	0
1297	0	0
1298	0	0
1299	0	0
1300	0	0
1301	0	0
1302	0	0
1303	0	0
1304	0	0
1305	0	0
1306	0	0
1307	0	0
1308	0	0
1309	0	0
1310	0	0
1311	0	0
1312	0	0
1313	0	0
1314	0	0
1315	0	0
1316	0	0
1317	0	0
1318	0	0
1319	0	0
1320	0	0
1321	0	0
1322	0	0
1323	0	0
1324	0	0
1325	0	0
1326	0	0
1327	0	0
1328	0	0.989377
1329	0	0.991144
1330	0	0.991144
1331	0	0.992911
1332	0	0.992911
1333	0	0
1334	0	0
1335	0	0
1336	0	0
1337	0	0
1338	0	0
1339	0	0
1340	0	0
1341	0	0
1342	0	0
1343	0	0
1344	0	0
1345	0	0
1346	0	0
1347	0	0
1348	0	0
1349	0	0
1350	0	0
1351	0	0
1352	0	0
1353	0	0
1354	0	0
1355	0	0
1356	0	0
1357	0	0
1358	0	0
1359	0	0
1360	0	0
1361	0	0
1362	0	0
1363	0	0
1364	0	0
1365	0	0
1366	0	0
1367	0	0
1368	0	0
1369	0	0
1370	0	0
1371	0	0
1372	0	0
1373	0	0
1374	0	0
1375	0	0
1376	0	0
1377	0	0
1378	0	0
1379	0	0
1380	0	0
1381	0	0
1382	0	0
1383	0	0
1384	0	0
1385	0	0
1386	0	0
1387	0	0
1388	0	0
1389	0	0
1390	0	0
1391	0	0
1392	0	0
1393	0	0
1394	0	0
1395	0	0
1396	0	0
1397	0	0
1398	0	0.996449
1399	0	0.994681
1400	0	0.994681
1401	0	0
1402	0	0
1403	0	0
1404	0	0
1405	0	0
1406	0	0
1407	0	0
1408	0	0
1409	0	0
1410	0	0.992905
1411	0	0.994671
1412	0	0.994667
1413	0	0.992898
1414	0	0.992898
1415	0	0
1416	0	0
1417	0	0
1418	0	0
1419	0	0
1420	0	0
1421	0	0
1422	0	0
1423	0	0
1424	0	0
1425	0	0
1426	0	0
1427	0	0
1428	0	0
1429	0	0
1430	0	0
1431	0	0
1432	0	0
1433	0	0
1434	0	0
1435	0	0
1436	0	0
1437	0	0
1438	0	0
1439	0	0
1440	0	0
1441	0	0
1442	0	0
1443	0	0
1444	0	0
1445	0	0
1446	0	0
1447	0	0
1448	0	0
1449	0	0
1450	0	0
1451	0	0
1452	0	0
1453	0	0
1454	0	0
1455	0	0
1456	0	0
1457	0	0
1458	0	0
1459	0	0
1460	0	0
1461	0	0
1462	0	0
1463	0	0
1464	0	0
1465	0	0
1466	0	0
1467	0	0
1468	0	0
1469	0	0
1470	0	0
1471	0	0
1472	0	0
1473	0	0
1474	0	0
1475	0	0
1476	0	0
1477	0	0
1478	0	0
1479	0	0
1480	0	0
1481	0	0
1482	0	0
1483	0	0
1484	0	0
1485	0	0
1486	0	0
1487	0	0
1488	0	0
1489	0	0
1490	0	0
1491	0	0
1492	0	0
1493	0	0
1494	0	0
1495	0	0
1496	0	0
1497	0	0
1498	0	0
1499	0	0
1500	0	0
1501	0	0
1502	0	0
1503	0	0
1504	0	0
1505	0	0
1506	0	0.987611
1507	0	0
1508	0	0
1509	0	0
1510	0	0
1511	0	0
1512	0	0
1513	0	0
1514	0	0
1515	0	0
1516	0	0.982309
1517	0	0.982309
1518	0	0
1519	0	0
1520	0	0
1521	0	0
1522	0	0
1523	0	0
1524	0	0.982278
1525	0	0
1526	0	0
1527	0	0
1528	0	0
1529	0	0
1530	0	0
1531	0	0
1532	0	0
1533	0	0
1534	0	0
1535	0	0
1536	0	0
1537	0	0
1538	0	0
1539	0	0
1540	0	0
1541	0	0
1542	0	0
1543	0	0
1544	0	0
1545	0	0
1546	0	0
1547	0	0
1548	0	0
1549	0	0
1550	0	0
1551	0	0
1552	0	0
1553	0	0
1554	0	0
1555	0	0
1556	0	0
1557	0	0
1558	0	0
1559	0	0
1560	0	0
1561	0	0
1562	0	0
1563	0	0
1564	0	0
1565	0	0
1566	0	0
1567	0	0
1568	0	0
1569	0	0
1570	0	0
1571	0	0
1572	0	0
1573	0	0
1574	0	0
1575	0	0
1576	0	0
1577	0	0
1578	0	0
1579	0	0
1580	0	0
1581	0	0
1582	0	0
1583	0	0
1584	0	0
1585	0	0
1586	0	0
1587	0	0
1588	0	0
1589	0	0
1590	0	0
1591	0	0
1592	0	0
1593	0	0
1594	0	0
1595	0	0
1596	0	0
1597	0	0
1598	0	0
1599	0	0
1600	0	0
1601	0	0
1602	0	0
1603	0	0
1604	0	0
1605	0	0
1606	0	0
1607	0	0
1608	0	0
1609	0	0
1610	0	0
1611	0	0
1612	0	0
1613	0	0
1614	0	0
1615	0	0
1616	0	0
1617	0	0
1618	0	0
1619	0	0
1620	0	0
1621	0	0
1622	0	0
1623	0	0
1624	0	0
1625	0	0
1626	0	0
1627	0	0
1628	0	0
1629	0	0
1630	0	0
1631	0	0
1632	0	0
1633	0	0
1634	0	0
1635	0	0
1636	0	0
1637	0	0
1638	0	0
1639	0	0
1640	0	0
1641	0	0
1642	0	0
1643	0	0
1644	0	0
1645	0	0
1646	0	0
1647	0	0
1648	0	0
1649	0	0
1650	0	0
1651	0	0
1652	0	0
1653	0	0
1654	0	0
1655	0	0
1656	0	0
1657	0	0
1658	0	0
1659	0	0
1660	0	0
1661	0	0
1662	0	0
1663	0	0
1664	0	0
1665	0	0
1666	0	0
1667	0	0
1668	0	0
1669	0	0
1670	0	0
1671	0	0
1672	0	0
1673	0	0
1674	0	0
1675	0	0
1676	0	0
1677	0	0
1678	0	0
1679	0	0
1680	0	0
1681	0	0
1682	0	0
1683	0	0
1684	0	0.980514
1685	0	0
1686	0	0
1687	0	0
1688	0	0
1689	0	0
1690	0	0
1691	0	0
1692	0	0
1693	0	0
1694	0	0
1695	0	0.0666667
1696	0	0.970022
1697	0	0
1698	0	0.142857
1699	0	0.0666667
1700	0	0.0666667
1701	0	0.0666667
1702	0	0.0666667
1703	0	0
1704	0	0
1705	0	0
1706	0	0
1707	0	0
1708	0	0
1709	0	0
1710	0	0
1711	0	0
1712	0	0
1713	0	0
1714	0	0.519481
1715	0	0
1716	0	0
1717	0	0
1718	0	0
1719	0	0
1720	0	0
1721	0	0
1722	0	0
1723	0	0
1724	0	0
1725	0	0
1726	0	0
1727	0	0
1728	0	0
1729	0	0
1730	0	0
1731	0	0
1732	0	0
1733	0	0
1734	0	0
1735	0	0
1736	0	0
1737	0	0
1738	0	0
1739	0	0
1740	0	0
1741	0	0
1742	0	0.751067
1743	0	0
1744	0	0
1745	0	0
1746	0	0
1747	0	0
1748	0	0.107143
1749	0	0.107143
1750	0	0.107143
1751	0	0
1752	0	0.133333
1753	0	0.131868
1754	0	0.114286
1755	0	0.153846
1756	0	0.839547
1757	0	0.838
1758	0	0
1759	0	0
1760	0	0
1761	0	0
1762	0	0
1763	0	0
1764	0	0
1765	0	0
1766	0	0
1767	0	0
1768	0	0
1769	0	0
1770	0	0
1771	0	0
1772	0	0
1773	0	0
1774	0	0
1775	0	0
1776	0	0
1777	0	0
1778	0	0
1779	0	0
1780	0	0
1781	0	0
1782	0	0
1783	0	0
1784	0	0
1785	0	0
1786	0	0
1787	0	0
1788	0	0
1789	0	0
1790	0	0
1791	0	0
1792	0	0
1793	0	0
1794	0	0
1795	0	0
1796	0	0
1797	0	0
1798	0	0
1799	0	0
1800	0	0
1801	0	0
1802	0	0
1803	0	0
1804	0	0.1
1805	0	0.0666667
1806	0	0.0757576
1807	0	0.0357143
1808	0	0.241758
1809	0	0.790647
1810	0	0.461538
1811	0	0.461538
1812	0	0.381818
1813	0	0.381818
1814	0	0
1815	0	0
1816	0	0
1817	0	0
1818	0	0
1819	0	0.468806
1820	0	0.41994
1821	0	0.344743
1822	0	0.371542
1823	0	0.0357143
1824	0	0.0357143
1825	0	0.0357143
1826	0	0.59376
1827	0	0.242424
1828	0	0.152381
1829	0	0.0277778
1830	0	0.0357143
1831	0	0.0277778
1832	0	0.0277778
1833	0	0
1834	0	0.576308
1835	0	0.572534
1836	0	0
1837	0	0
1838	0	0
1839	0	0
1840	0	0
1841	0	0
1842	0	0
1843	0	0
1844	0	0
1845	0	0
1846	0	0
1847	0	0
1848	0	0
1849	0	0
1850	0	0
1851	0	0
1852	0	0
1853	0	0
1854	0	0
1855	0	0
1856	0	0
1857	0	0
1858	0	0
1859	0	0
1860	0	0
1861	0	0
1862	0	0
1863	0	0
1864	0	0
1865	0	0
1866	0	0
1867	0	0
1868	0	0
1869	0	0
1870	0	0
1871	0	0
1872	0	0
1873	0	0
1874	0	0
1875	0	0
1876	0	0
1877	0	0
1878	0	0
1879	0	0
1880	0	0
1881	0	0
1882	0	0
1883	0	0
1884	0	0
1885	0	0
1886	0	0
1887	0	0
1888	0	0
1889	0	0
1890	0	0
1891	0	0
1892	0	0
1893	0	0
1894	0	0
1895	0	0
1896	0	0
1897	0	0
1898	0	0
1899	0	0
1900	0	0
1901	0	0
1902	0	0
1903	0	0
1904	0	0
1905	0	0
1906	0	0
1907	0	0
1908	0	0
1909	0	0
1910	0	0
1911	0	0
1912	0	0
1913	0	0
1914	0	0
1915	0	0
1916	0	0
1917	0	0
1918	0	0
1919	0	0
1920	0	0
1921	0	0
1922	0	0
1923	0	0
1924	0	0
1925	0	0
1926	0	0
1927	0	0
1928	0	0
1929	0	0
1930	0	0
1931	0	0
1932	0	0
1933	0	0
1934	0	0
1935	0	0
1936	0	0
1937	0	0
1938	0	0
1939	0	0
1940	0	0
1941	0	0
1942	0	0
1943	0	0
1944	0	0
1945	0	0
1946	0	0
1947	0	0
1948	0	0
1949	0	0
1950	0	0
1951	0	0
1952	0	0
1953	0	0
1954	0	0
1955	0	0
1956	0	0
1957	0	0
1958	0	0
1959	0	0
1960	0	0
1961	0	0
1962	0	0
1963	0	0
1964	0	0
1965	0	0
1966	0	0
1967	0	0
1968	0	0
1969	0	0
1970	0	0
1971	0	0
1972	0	0
1973	0	0
1974	0	0
1975	0	0
1976	0	0
1977	0	0
1978	0	0
1979	0	0
1980	0	0
1981	0	0
1982	0	0
1983	0	0
1984	0	0
1985	0	0
1986	0	0
1987	0	0
1988	0	0
1989	0	0
1990	0	0
1991	0	0
1992	0	0
1993	0	0
1994	0	0
1995	0	0
1996	0	0
1997	0	0
1998	0	0
1999	0	0
2000	0	0
2001	0	0
2002	0	0
2003	0	0
2004	0	0
2005	0	0
2006	0	0
2007	0	0
2008	0	0
2009	0	0
2010	0	0
2011	0	0
2012	0	0
2013	0	0
2014	0	0
2015	0	0
2016	0	0
2017	0	0
2018	0	0
2019	0	0
2020	0	0
2021	0	0
2022	0	0
2023	0	0
2024	0	0
2025	0	0
2026	0	0
2027	0	0
2028	0	0
2029	0	0
2030	0	0
2031	0	0
2032	0	0
2033	0	0
2034	0	0
2035	0	0
2036	0	0
2037	0	0
2038	0	0
2039	0	0
2040	0	0
2041	0	0
2042	0	0
2043	0	0
2044	0	0
2045	0	0
2046	0	0
2047	0	0
2048	0	0
2049	0	0
2050	0	0
2051	0	0
2052	0	0
2053	0	0
2054	0	0
2055	0	0
2056	0	0
2057	0	0
2058	0	0
2059	0	0
2060	0	0
2061	0	0
2062	0	0
2063	0	0
2064	0	0
2065	0	0
2066	0	0
2067	0	0
2068	0	0
2069	0	0
2070	0	0
2071	0	0
2072	0	0
2073	0	0
2074	0	0
2075	0	0
2076	0	0
2077	0	0
2078	0	0
2079	0	0
2080	0	0
2081	0	0
2082	0	0
2083	0	0
2084	0	0
2085	0	0
2086	0	0
2087	0	0
2088	0	0
2089	0	0
2090	0	0
2091	0	0
2092	0	0
2093	0	0
2094	0	0
2095	0	0
2096	0	0
2097	0	0
2098	0	0
2099	0	0
2100	0	0
2101	0	0
2102	0	0
2103	0	0
2104	0	0
2105	0	0
2106	0	0
2107	0	0
2108	0	0
2109	0	0
2110	0	0
2111	0	0
2112	0	0
2113	0	0
2114	0	0
2115	0	0
2116	0	0
2117	0	0
2118	0	0
2119	0	0
2120	0	0
2121	0	0
2122	0	0
2123	0	0
2124	0	0
2125	0	0
2126	0	0
2127	0	0
2128	0	0
2129	0	0
2130	0	0
2131	0	0
2132	0	0
2133	0	0
2134	0	0
2135	0	0
2136	0	0
2137	0	0
2138	0	0
2139	0	0
2140	0	0
2141	0	0
2142	0	0
2143	0	0
2144	0	0
2145	0	0
2146	0	0
2147	0	0
2148	0	0
2149	0	0
2150	0	0
2151	0	0
2152	0	0
2153	0	0
2154	0	0
2155	0	0
2156	0	0
2157	0	0
2158	0	0
2159	0	0
2160	0	0
2161	0	0
2162	0	0
2163	0	0
2164	0	0
2165	0	0
2166	0	0
2167	0	0
2168	0	0
2169	0	0
2170	0	0
2171	0	0
2172	0	0
2173	0	0
2174	0	0
2175	0	0
2176	0	0
2177	0	0
2178	0	0
2179	0	0
2180	0	0
2181	0	0
2182	0	0
2183	0	0
2184	0	0
2185	0	0
2186	0	0
2187	0	0
2188	0	0
2189	0	0
2190	0	0
2191	0	0
2192	0	0
2193	0	0
2194	0	0
2195	0	0
2196	0	0
2197	0	0
2198	0	0
2199	0	0
2200	0	0
2201	0	0
2202	0	0
2203	0	0
2204	0	0
2205	0	0
2206	0	0
2207	0	0
2208	0	0
2209	0	0
2210	0	0
2211	0	0
2212	0	0
2213	0	0
2214	0	0
2215	0	0
2216	0	0
2217	0	0
2218	0	0
2219	0	0
2220	0	0
2221	0	0
2222	0	0
2223	0	0
2224	0	0
2225	0	0
2226	0	0
2227	0	0
2228	0	0
2229	0	0
2230	0	0
2231	0	0
2232	0	0
2233	0	0
2234	0	0
2235	0	0
2236	0	0
2237	0	0
2238	0	0
2239	0	0
2240	0	0
2241	0	0
2242	0	0
2243	0	0
2244	0	0
2245	0	0
2246	0	0
2247	0	0
2248	0	0
2249	0	0
2250	0	0
2251	0	0
2252	0	0
2253	0	0
2254	0	0
2255	0	0
2256	0	0
2257	0	0
2258	0	0
2259	0	0
2260	0	0
2261	0	0
2262	0	0
2263	0	0
2264	0	0
2265	0	0
2266	0	0
2267	0	0
2268	0	0
2269	0	0
2270	0	0
2271	0	0
2272	0	0
2273	0	0
2274	0	0
2275	0	0
2276	0	0
2277	0	0
2278	0	0
2279	0	0
2280	0	0
2281	0	0
2282	0	0
2283	0	0
2284	0	0
2285	0	0
2286	0	0
2287	0	0
2288	0	0
2289	0	0
2290	0	0
2291	0	0
2292	0	0
2293	0	0
2294	0	0
2295	0	0
2296	0	0
2297	0	0
2298	0	0
2299	0	0
2300	0	0
2301	0	0
2302	0	0
2303	0	0
2304	0	0
2305	0	0
2306	0	0
2307	0	0
2308	0	0
2309	0	0
2310	0	0
2311	0	0
2312	0	0
2313	0	0
2314	0	0
2315	0	0
2316	0	0
2317	0	0
2318	0	0
2319	0	0
2320	0	0
2321	0	0
2322	0	0
2323	0	0
2324	0	0
2325	0	0
2326	0	0
2327	0	0
2328	0	0
2329	0	0
2330	0	0
2331	0	0
2332	0	0
2333	0	0
2334	0	0
2335	0	0
2336	0	0
2337	0	0
2338	0	0
2339	0	0
2340	0	0
2341	0	0
2342	0	0
2343	0	0
2344	0	0
2345	0	0
2346	0	0
2347	0	0
2348	0	0
2349	0	0
2350	0	0
2351	0	0
2352	0	0
2353	0	0
2354	0	0
2355	0	0
2356	0	0
2357	0	0
2358	0	0
2359	0	0
2360	0	0
2361	0	0
2362	0	0
2363	0	0
2364	0	0
2365	0	0
2366	0	0
2367	0	0
2368	0	0
2369	0	0
2370	0	0
2371	0	0
2372	0	0
2373	0	0
2374	0	0
2375	0	0
2376	0	0
2377	0	0
2378	0	0
2379	0	0
2380	0	0
2381	0	0
2382	0	0
2383	0	0
2384	0	0
2385	0	0
2386	0	0
2387	0	0
2388	0	0
2389	0	0
2390	0	0
2391	0	0
2392	0	0
2393	0	0
2394	0	0
2395	0	0
2396	0	0
2397	0	0
2398	0	0
2399	0	0
2400	0	0
2401	0	0
2402	0	0
2403	0	0
2404	0	0
2405	0	0
2406	0	0
2407	0	0
2408	0	0
2409	0	0
2410	0	0
2411	0	0
2412	0	0
2413	0	0
2414	0	0
2415	0	0
2416	0	0
2417	0	0
2418	0	0
2419	0	0
2420	0	0
2421	0	0
2422	0	0
2423	0	0
2424	0	0
2425	0	0
2426	0	0
2427	0	0
2428	0	0
2429	0	0
2430	0	0
2431	0	0
2432	0	0
2433	0	0
2434	0	0
2435	0	0
2436	0	0
2437	0	0
2438	0	0
2439	0	0
2440	0	0
2441	0	0
2442	0	0
2443	0	0
2444	0	0
2445	0	0
2446	0	0
2447	0	0
2448	0	0
2449	0	0
2450	0	0
2451	0	0
2452	0	0
2453	0	0
2454	0	0
2455	0	0
2456	0	0
2457	0	0
2458	0	0
2459	0	0
2460	0	0
2461	0	0
2462	0	0
2463	0	0
2464	0	0
2465	0	0
2466	0	0
2467	0	0
2468	0	0
2469	0	0
2470	0	0
2471	0	0
2472	0	0
2473	0	0
2474	0	0
2475	0	0
2476	0	0
2477	0	0
2478	0	0
2479	0	0
2480	0	0
2481	0	0
2482	0	0
2483	0	0
2484	0	0
2485	0	0
2486	0	0
2487	0	0
2488	0	0
2489	0	0
2490	0	0
2491	0	0
2492	0	0
2493	0	0
2494	0	0
2495	0	0
2496	0	0
2497	0	0
2498	0	0
2499	0	0
2500	0	0
2501	0	0
2502	0	0
2503	0	0
2504	0	0
2505	0	0
2506	0	0
2507	0	0
2508	0	0
2509	0	0
2510	0	0
2511	0	0
2512	0	0
2513	0	0
2514	0	0
2515	0	0
2516	0	0
2517	0	0
2518	0	0
2519	0	0
2520	0	0
2521	1	0
2522	1	0
2523	1	0
2524	1	0
2525	1	0
2526	1	0
2527	0	0
2528	0	0
2529	0	0
2530	0	0
2531	0	0
2532	0	0
2533	0	0
2534	0	0
2535	0	0
2536	0	0
2537	0	0
2538	0	0
2539	0	0
2540	0	0
2541	0	0
2542	0	0
2543	0	0
2544	0	0
2545	0	0
2546	0	0
2547	0	0
2548	0	0
2549	0	0
2550	0	0
2551	1	0
2552	1	0
2553	1	0
2554	1	0
2555	1	0
2556	1	0
2557	1	0
2558	1	0
2559	1	0
2560	1	0
2561	1	0
2562	1	0
2563	1	0
2564	1	0
2565	1	0
2566	1	0
2567	1	0
2568	1	0
2569	1	0
2570	1	0
2571	1	0
2572	1	0
2573	1	0
2574	1	0
2575	1	0
2576	1	0
2577	0	0
2578	0	0
2579	0	0
2580	0	0
2581	0	0
2582	1	0
2583	1	0
2584	1	0
2585	1	0
2586	1	0
2587	1	0
2588	1	0
2589	1	0
2590	1	0
2591	1	0
2592	1	0
2593	1	0
2594	0	0
2595	0	0
2596	0	0
2597	0	0
2598	0	0
2599	0	0
2600	1	0
2601	1	0
2602	1	0
2603	1	0
2604	1	0
2605	1	0
2606	1	0
2607	0	0
2608	0	0
2609	0	0
2610	0	0
2611	0	0
2612	1	0
2613	1	0
2614	0	0
2615	0	0
2616	0	0
2617	0	0
2618	0	0
2619	0	0
2620	0	0
2621	0	0
2622	0	0
2623	0	0
2624	0	0
2625	0	0
2626	0	0
2627	0	0
2628	0	0
2629	0	0
2630	0	0
2631	1	0
2632	1	0
2633	1	0
2634	1	0
2635	1	0
2636	1	0
2637	1	0
2638	1	0
2639	1	0
2640	1	0
2641	1	0
2642	1	0
2643	1	0
2644	1	0
2645	1	0
2646	0	0
2647	0	0
2648	0	0
2649	0	0
2650	0	0
2651	0	0
2652	0	0
2653	0	0
2654	0	0
2655	0	0
2656	0	0
2657	0	0
2658	0	0
2659	0	0
2660	0	0
2661	0	0
2662	0	0
2663	0	0
2664	0	0
2665	0	0
2666	0	0
2667	0	0
2668	0	0
2669	0	0
2670	0	0
2671	0	0
2672	0	0
2673	0	0
2674	0	0
2675	0	0
2676	0	0
2677	0	0
2678	0	0
2679	0	0
2680	0	0
2681	0	0
2682	0	0
2683	0	0
2684	0	0
2685	0	0
2686	0	0
2687	0	0
2688	0	0
2689	0	0
2690	0	0
2691	0	0
2692	0	0
2693	0	0
2694	0	0
2695	0	0
2696	0	0
2697	0	0
2698	0	0
2699	0	0
2700	0	0
2701	0	0
2702	0	0
2703	0	0
2704	1	0
2705	1	0
2706	0	0
2707	0	0
2708	0	0
2709	0	0
2710	1	0
2711	1	0
2712	1	0
2713	1	0
2714	1	0
2715	1	0
2716	1	0
2717	0	0
2718	0	0
2719	0	0
2720	0	0
2721	0	0
2722	0	0
2723	0	0
2724	0	0
2725	0	0
2726	0	0
2727	0	0
2728	0	0
2729	0	0
2730	0	0
2731	0	0
2732	1	0
2733	1	0
2734	1	0
2735	1	0
2736	1	0
2737	1	0
2738	1	0
2739	1	0
2740	1	0
2741	1	0
2742	1	0
2743	1	0
2744	1	0
2745	1	0
2746	1	0
2747	1	0
2748	1	0
2749	1	0
2750	1	0
2751	1	0
2752	1	0
2753	1	0
2754	1	0
2755	1	0
2756	1	0
2757	1	0
2758	1	0
2759	1	0
2760	1	0
2761	1	0
2762	1	0
2763	1	0
2764	1	0
2765	1	0
2766	1	0
2767	1	0
2768	1	0
2769	1	0
2770	1	0
2771	1	0
2772	1	0
2773	1	0
2774	1	0
2775	1	0
2776	1	0
2777	1	0
2778	1	0
2779	1	0
2780	1	0
2781	1	0
2782	1	0
2783	1	0
2784	1	0
2785	1	0
2786	1	0
2787	1	0
2788	1	0
2789	1	0
2790	1	0
2791	1	0
2792	1	0
2793	1	0
2794	1	0
2795	1	0
2796	1	0
2797	1	0
2798	1	0
2799	1	0
2800	1	0
2801	1	0
2802	1	0
2803	1	0
2804	1	0
2805	1	0
2806	1	0
2807	1	0
2808	1	0
2809	1	0
2810	1	0
2811	1	0
2812	1	0
2813	1	0
2814	1	0
2815	1	0
2816	1	0
2817	1	0
2818	1	0
2819	1	0
2820	1	0
2821	1	0
2822	1	0
2823	1	0
2824	1	0
2825	1	0
2826	1	0
2827	1	0
2828	1	0
2829	1	0
2830	1	0
2831	1	0
2832	1	0
2833	1	0
2834	1	0
2835	1	0
2836	1	0
2837	1	0
2838	1	0
2839	1	0
2840	1	0
2841	1	0
2842	1	0
2843	1	0
2844	1	0
2845	1	0
2846	1	0
2847	1	0
2848	1	0
2849	1	0
2850	1	0
2851	1	0
2852	1	0
2853	1	0
2854	1	0
2855	1	0
2856	1	0
2857	1	0
2858	1	0
2859	1	0
2860	1	0
2861	1	0
2862	1	0
2863	1	0
2864	1	0
2865	1	0
2866	1	0
2867	1	0
2868	1	0
2869	1	0
2870	1	0
2871	1	0
2872	1	0
2873	1	0
2874	1	0
2875	1	0
2876	1	0
2877	1	0
2878	1	0
2879	1	0
2880	1	0
2881	1	0
2882	1	0
2883	1	0
2884	1	0
2885	1	0
2886	1	0
2887	1	0
2888	1	0
2889	1	0
2890	1	0
2891	1	0
2892	1	0
2893	1	0
2894	1	0
2895	1	0
2896	1	0
2897	1	0
2898	1	0
2899	1	0
2900	1	0
2901	1	0
2902	1	0
2903	1	0
2904	1	0
2905	1	0
2906	1	0
2907	1	0
2908	1	0
2909	1	0
2910	1	0
2911	1	0
2912	1	0
2913	1	0
2914	1	0
2915	1	0
2916	1	0
2917	1	0
2918	1	0
2919	1	0
2920	1	0
2921	1	0
