Site	ColumnScore	SumOfPairsScore
1	1	0
2	1	0
3	1	0
4	1	0
5	1	0
6	1	0
7	1	0
8	1	0
9	1	0
10	1	0
11	1	0
12	1	0
13	1	0
14	1	0
15	1	0
16	1	0
17	1	0
18	1	0
19	1	0
20	1	0
21	1	0
22	1	0
23	1	0
24	1	0
25	1	0
26	1	0
27	1	0
28	1	0
29	1	0
30	1	0
31	1	0
32	1	0
33	1	0
34	1	0
35	1	0
36	1	0
37	1	0
38	1	0
39	1	0
40	1	0
41	1	0
42	1	0
43	1	0
44	0	0
45	0	0
46	0	0
47	0	0
48	0	0
49	0	0
50	1	0
51	1	0
52	1	0
53	1	0
54	1	0
55	1	0
56	1	0
57	1	0
58	1	0
59	1	0
60	1	0
61	1	0
62	1	0
63	1	0
64	1	0
65	1	0
66	1	0
67	1	0
68	1	0
69	1	0
70	1	0
71	1	0
72	1	0
73	1	0
74	1	0
75	1	0
76	1	0
77	1	0
78	0	0
79	0	0
80	0	0
81	0	0
82	1	0
83	1	0
84	1	0
85	1	0
86	1	0
87	0	0
88	0	0
89	0	0
90	0	0
91	0	0
92	0	0
93	0	0
94	0	0
95	0	0
96	0	0
97	0	0
98	0	0
99	0	0
100	0	0
101	0	0
102	0	0
103	0	0
104	0	0
105	1	0
106	1	0
107	1	0
108	0	0
109	0	0
110	0	0
111	0	0
112	0	0
113	0	0
114	0	0
115	0	0
116	0	0
117	0	0
118	0	0
119	0	0
120	0	0
121	0	0
122	0	0
123	0	0
124	0	0
125	0	0
126	0	0
127	0	0
128	0	0
129	1	0
130	1	0
131	1	0
132	1	0
133	1	0
134	1	0
135	1	0
136	1	0
137	1	0
138	1	0
139	1	0
140	1	0
141	1	0
142	1	0
143	1	0
144	1	0
145	1	0
146	0	0
147	0	0
148	0	0
149	0	0
150	0	0
151	0	0
152	0	0
153	0	0
154	0	0
155	0	0
156	0	0
157	0	0
158	0	0
159	0	0
160	0	0
161	0	0
162	0	0
163	0	0
164	0	0
165	0	0
166	0	0
167	1	0
168	1	0
169	1	0
170	1	0
171	0	0
172	0	0
173	0	0
174	1	0
175	1	0
176	1	0
177	1	0
178	1	0
179	1	0
180	1	0
181	0	0
182	0	0
183	0	0
184	0	0
185	0	0
186	1	0
187	1	0
188	1	0
189	1	0
190	1	0
191	1	0
192	1	0
193	1	0
194	1	0
195	1	0
196	1	0
197	1	0
198	1	0
199	0	0
200	0	0
201	0	0
202	0	0
203	0	0
204	0	0
205	0	0
206	0	0
207	0	0
208	0	0
209	0	0
210	0	0
211	0	0
212	0	0
213	0	0
214	0	0
215	0	0
216	0	0
217	0	0
218	0	0
219	0	0
220	0	0
221	0	0
222	0	0
223	0	0
224	0	0
225	0	0
226	0	0
227	0	0
228	0	0
229	0	0
230	0	0
231	0	0
232	0	0
233	0	0
234	0	0
235	0	0
236	1	0
237	0	0
238	0	0
239	0	0
240	0	0
241	0	0
242	0	0
243	0	0
244	0	0
245	0	0
246	0	0
247	0	0
248	0	0
249	0	0
250	0	0
251	0	0
252	0	0
253	0	0
254	0	0
255	0	0
256	0	0
257	0	0
258	0	0
259	0	0
260	0	0
261	0	0
262	0	0
263	0	0
264	0	0
265	0	0
266	0	0
267	0	0
268	0	0
269	0	0
270	0	0
271	0	0
272	1	0
273	0	0
274	0	0
275	0	0
276	0	0
277	0	0
278	0	0
279	0	0
280	0	0
281	0	0
282	0	0
283	0	0
284	0	0
285	0	0
286	0	0
287	0	0
288	0	0
289	0	0
290	0	0
291	1	0
292	1	0
293	1	0
294	1	0
295	1	0
296	1	0
297	1	0
298	1	0
299	1	0
300	1	0
301	1	0
302	1	0
303	0	0
304	0	0
305	0	0
306	0	0
307	0	0
308	0	0
309	0	0
310	0	0
311	0	0
312	0	0
313	0	0
314	0	0
315	0	0
316	0	0
317	0	0
318	0	0
319	0	0
320	0	0
321	0	0
322	0	0
323	0	0
324	0	0
325	0	0
326	0	0
327	0	0
328	0	0
329	0	0
330	0	0
331	0	0
332	0	0
333	0	0
334	0	0
335	0	0
336	0	0
337	0	0
338	0	0
339	0	0
340	0	0
341	0	0
342	0	0
343	0	0
344	0	0
345	0	0
346	0	0
347	0	0
348	0	0
349	0	0
350	0	0
351	0	0
352	0	0
353	0	0
354	0	0
355	0	0
356	0	0
357	0	0
358	0	0
359	0	0
360	0	0
361	0	0
362	0	0
363	0	0
364	0	0
365	0	0
366	0	0
367	0	0
368	0	0
369	0	0
370	0	0
371	0	0
372	0	0
373	0	0
374	0	0
375	0	0
376	0	0
377	0	0
378	0	0
379	0	0
380	0	0
381	0	0
382	0	0
383	0	0
384	0	0
385	0	0
386	0	0
387	0	0
388	0	0
389	0	0
390	0	0
391	0	0
392	0	0
393	0	0
394	0	0
395	0	0
396	0	0
397	0	0
398	0	0
399	0	0
400	0	0
401	0	0
402	1	0
403	1	0
404	1	0
405	1	0
406	0	0
407	0	0
408	0	0
409	0	0
410	0	0
411	0	0
412	0	0
413	0	0
414	1	0
415	1	0
416	1	0
417	1	0
418	1	0
419	1	0
420	1	0
421	1	0
422	0	0
423	0	0
424	0	0
425	0	0
426	0	0
427	0	0
428	0	0
429	0	0
430	0	0
431	0	0
432	0	0
433	0	0
434	0	0
435	0	0
436	0	0
437	0	0
438	0	0
439	0	0
440	0	0
441	0	0
442	0	0
443	0	0
444	0	0
445	0	0
446	0	0
447	0	0
448	0	0
449	0	0
450	0	0
451	0	0
452	0	0
453	0	0
454	0	0
455	0	0
456	0	0
457	0	0
458	0	0
459	0	0
460	0	0
461	0	0
462	0	0
463	0	0
464	0	0
465	0	0
466	0	0
467	0	0
468	0	0
469	0	0
470	0	0
471	0	0
472	0	0
473	0	0
474	0	0
475	0	0
476	0	0
477	0	0
478	0	0
479	0	0
480	0	0
481	0	0
482	0	0
483	0	0
484	0	0
485	0	0
486	0	0.166667
487	0	0.166667
488	0	0.166667
489	0	0.166667
490	0	0.166667
491	0	0.166667
492	0	0.166667
493	0	0.166667
494	0	0.166667
495	0	0.166667
496	0	0.166667
497	0	0.166667
498	0	0.166667
499	0	0.166667
500	0	0.166667
501	0	0.166667
502	0	0.166667
503	0	0.166667
504	0	0.166667
505	0	0.166667
506	0	0.166667
507	0	0.166667
508	0	0.166667
509	0	0.166667
510	0	0.166667
511	0	0.166667
512	0	0.166667
513	0	0.166667
514	0	0.166667
515	0	0.166667
516	0	0.166667
517	0	0.166667
518	0	0.166667
519	0	0.166667
520	0	0.166667
521	0	0.166667
522	0	0.166667
523	0	0.166667
524	0	0.166667
525	0	0.166667
526	0	0.166667
527	0	0.166667
528	0	0.166667
529	0	0.166667
530	0	0.166667
531	0	0.166667
532	0	0.166667
533	0	0.166667
534	0	0.166667
535	0	0.166667
536	0	0.166667
537	0	0.166667
538	0	0.166667
539	0	0.166667
540	0	0.166667
541	0	0.166667
542	0	0.166667
543	0	0.166667
544	0	0.166667
545	0	0.166667
546	0	0.166667
547	0	0.166667
548	0	0.166667
549	0	0.166667
550	0	0.166667
551	0	0.166667
552	0	0.166667
553	0	0.166667
554	0	0.166667
555	0	0.166667
556	0	0.166667
557	0	0.166667
558	0	0.166667
559	0	0.166667
560	0	0.166667
561	0	0.166667
562	0	0.166667
563	0	0.166667
564	0	0.1
565	0	0.1
566	0	0.1
567	0	0.1
568	0	0.1
569	0	0.0666667
570	0	0.0666667
571	0	0.047619
572	0	0.047619
573	0	0.0555556
574	0	0.0444444
575	0	0.0444444
576	0	0.0444444
577	0	0.0444444
578	0	0.0444444
579	0	0.0444444
580	0	0.0444444
581	0	0.0444444
582	0	0.0444444
583	0	0.0444444
584	0	0.0444444
585	0	0.0444444
586	0	0.0444444
587	0	0.0444444
588	0	0.0363636
589	0	0.0363636
590	0	0.0363636
591	0	0.0454545
592	0	0.0454545
593	0	0.0454545
594	0	0.0454545
595	0	0.0384615
596	0	0.0151515
597	0	0.0128205
598	0	0.025641
599	0	0.025641
600	0	0.0285714
601	0	0.025
602	0	0.0261438
603	0	0.0261438
604	0	0.0233918
605	0	0.0233918
606	0	0.0233918
607	0	0.0190476
608	0	0.0253623
609	0	0.031339
610	0	0.0427807
611	0	0.341138
612	0	0.272925
613	0	0.146131
614	0	0.12421
615	0	0.183024
616	0	0.164268
617	0	0.13914
618	0	0.140295
619	0	0.138363
620	0	0.134445
621	0	0.136787
622	0	0.154691
623	0	0.155297
624	0	0.159627
625	0	0.175048
626	0	0.201095
627	0	0.201095
628	0	0.409662
629	0	0.409662
630	0	0.409662
631	0	0.280908
632	0	0.282344
633	0	0.260221
634	0	0.265954
635	0	0.264921
636	0	0.194444
637	0	0.25
638	0	0.25
639	0	0.25
640	0	0.166667
641	0	0.166667
642	0	0.166667
643	0	0.166667
644	0	0.166667
645	0	0.166667
646	0	0.166667
647	0	0.166667
648	0	0.166667
649	0	0.166667
650	0	0.166667
651	0	0.166667
652	0	0.166667
653	0	0.166667
654	0	0.166667
655	0	0.166667
656	0	0.166667
657	0	0.166667
658	0	0.166667
659	0	0.166667
660	0	0.166667
661	0	0.166667
662	0	0.166667
663	0	0.166667
664	0	0.166667
665	0	0.166667
666	0	0.166667
667	0	0.166667
668	0	0.166667
669	0	0.166667
670	0	0.166667
671	0	0.166667
672	0	0.166667
673	0	0.166667
674	0	0.166667
675	0	0.166667
676	0	0.166667
677	0	0.166667
678	0	0.166667
679	0	0.166667
680	0	0.166667
681	0	0.166667
682	0	0.166667
683	0	0.166667
684	0	0.166667
685	0	0.166667
686	0	0.5
687	0	0.5
688	0	0.5
689	0	0.5
690	0	0.5
691	0	0.5
692	0	0.5
693	0	0.5
694	0	0.5
695	0	0.5
696	0	0.5
697	0	0.5
698	0	0.5
699	0	0.5
700	0	0.5
701	0	0.5
702	0	0.5
703	0	0.5
704	0	0.5
705	0	0.5
706	0	0.5
707	0	0.5
708	0	0.5
709	0	0.5
710	0	0.5
711	0	0.5
712	0	0.5
713	0	0.5
714	0	0.5
715	0	0.5
716	0	0.5
717	0	0.5
718	0	0.5
719	0	0.5
720	0	0.5
721	0	0.5
722	0	0.5
723	0	0.5
724	0	0.5
725	0	0.5
726	0	0.5
727	0	0.5
728	0	0.5
729	0	0.5
730	0	0.5
731	0	0.5
732	0	0.5
733	0	0.5
734	0	0.5
735	0	0.5
736	0	0.5
737	0	0.5
738	0	0.5
739	0	0.5
740	0	1
741	0	1
742	0	0.5
743	0	0.5
744	0	0.5
745	0	0.5
746	0	0.5
747	0	0.5
748	0	0.5
749	0	0.5
750	0	0.5
751	0	0.5
752	0	0.5
753	0	0.5
754	0	0.5
755	0	0.5
756	0	0.5
757	0	0.5
758	0	0.5
759	0	0.5
760	0	0.5
761	0	0.5
762	0	0.5
763	0	0.5
764	0	0.5
765	0	0.5
766	0	0.3
767	0	0.266667
768	0	0.190476
769	0	0.521059
770	0	0.521059
771	0	0.517566
772	0	0.514118
773	0	0.181818
774	0	0.138889
775	0	0.142857
776	0	0.3
777	0	0.3
778	0	0.3
779	0	0.655385
780	0	0.655385
781	0	0.655385
782	0	0.5
783	0	0.5
784	0	0.5
785	0	0.5123
786	0	0.5123
787	0	0.2
788	0	0.2
789	0	0.2
790	0	0.2
791	0	0.2
792	0	0.2
793	0	0.2
794	0	0.2
795	0	0.2
796	0	0.2
797	0	0.3
798	0	0.3
799	0	0.3
800	0	0.3
801	0	0.3
802	0	0.3
803	0	0.3
804	0	0.3
805	0	0.3
806	0	0.3
807	0	0
808	0	0
809	0	0
810	0	0
811	0	0
812	0	0
813	0	0
814	0	0
815	0	0
816	0	0
817	0	0
818	0	0
819	0	0
820	0	0
821	0	0
822	0	0
823	0	0
824	0	0
825	0	0
826	0	0
827	0	0
828	0	0
829	0	0
830	0	0
831	0	0
832	0	0
833	0	0
834	0	0
835	0	0
836	0	0
837	0	0
838	0	0
839	0	0
840	0	0
841	0	0
842	0	0
843	0	0
844	0	0
845	0	0
846	0	0
847	0	0
848	0	0
849	0	0
850	0	0
851	0	0
852	0	0
853	0	0
854	0	0
855	0	0
856	0	0
857	0	0
858	0	0
859	0	0
860	0	0
861	0	0
862	0	0
863	0	0
864	0	0
865	0	0
866	0	0
867	0	0
868	0	0
869	0	0
870	0	0
871	0	0
872	0	0
873	0	0
874	0	0
875	0	0
876	0	0
877	0	0
878	0	0
879	0	0
880	0	0
881	0	0
882	0	0
883	0	0
884	0	0
885	0	0
886	0	0
887	0	0
888	0	0
889	0	0
890	0	0
891	0	0
892	0	0
893	0	0
894	0	0
895	0	0
896	0	0
897	0	0
898	0	0
899	0	0
900	0	0
901	0	0
902	0	0
903	0	0
904	0	0
905	0	0
906	0	0
907	0	0
908	0	0
909	0	0
910	0	0
911	0	0
912	0	0
913	0	0
914	0	0
915	0	0
916	0	0
917	0	0
918	1	0
919	1	0
920	0	0
921	0	0
922	0	0
923	0	0
924	0	0
925	0	0
926	0	0
927	0	0
928	0	0
929	0	0
930	0	0
931	0	0
932	0	0
933	0	0
934	0	0
935	0	0
936	0	0
937	0	0
938	0	0
939	0	0
940	0	0
941	0	0
942	0	0
943	0	0
944	0	0
945	0	0
946	0	0
947	0	0
948	0	0
949	0	0
950	0	0
951	0	0
952	0	0
953	0	0
954	0	0
955	0	0
956	0	0
957	0	0
958	0	0
959	0	0
960	0	0
961	0	0
962	0	0
963	0	0
964	0	0
965	0	0
966	0	0
967	0	0
968	0	0
969	0	0
970	0	0
971	0	0
972	0	0
973	0	0
974	0	0
975	0	0
976	0	0
977	0	0
978	0	0
979	0	0
980	0	0
981	0	0
982	0	0
983	0	0
984	0	0
985	0	0
986	0	0
987	0	0
988	0	0
989	0	0
990	0	0
991	0	0
992	0	0
993	0	0
994	0	0
995	0	0
996	0	0
997	0	0
998	0	0.166667
999	0	0.166667
1000	0	0.166667
1001	0	0.166667
1002	0	0.166667
1003	0	0.166667
1004	0	0.166667
1005	0	0.166667
1006	0	0.166667
1007	0	0.166667
1008	0	0.166667
1009	0	0.333333
1010	0	0.194737
1011	0	0.299499
1012	0	0.291941
1013	0	0.293386
1014	0	0.359594
1015	0	0.360645
1016	0	0.358472
1017	0	0.362762
1018	0	0.359713
1019	0	0.361542
1020	0	0.363885
1021	0	0.358125
1022	0	0.339236
1023	0	0
1024	0	0
1025	0	0
1026	0	0
1027	0	0
1028	0	0
1029	0	0
1030	0	0.185538
1031	0	0.198529
1032	0	0.163636
1033	0	0.0666667
1034	0	0.0666667
1035	0	0
1036	0	0
1037	0	0
1038	0	0
1039	0	0
1040	0	0
1041	0	0
1042	0	0.0833333
1043	0	0.227941
1044	0	0.270588
1045	0	0.241742
1046	0	0.101001
1047	0	0.0763722
1048	0	0.0639998
1049	0	0.0647362
1050	0	0.101624
1051	0	0.116773
1052	0	0.0792752
1053	0	0.0738785
1054	0	0.0595576
1055	0	0.0580719
1056	0	0.058779
1057	0	0.0556199
1058	0	0.223673
1059	0	0.204082
1060	0	0.193469
1061	0	0.06621
1062	0	0.0682342
1063	0	0.0608671
1064	0	0.0418503
1065	0	0.0388297
1066	0	0.0326786
1067	0	0.0360775
1068	0	0.0397045
1069	0	0.0420779
1070	0	0.0471327
1071	0	0.0525226
1072	0	0.178862
1073	0	0.2
1074	0	0.180837
1075	0	0.168691
1076	0	0.275641
1077	0	0.325641
1078	0	0.325641
1079	0	0.0666128
1080	0	0.0705216
1081	0	0.0720326
1082	0	0.3
1083	0	0.5
1084	0	0.5
1085	0	0.5
1086	0	1
1087	0	1
1088	0	1
1089	0	0.156617
1090	0	0.245714
1091	0	0.293052
1092	0	0.0408602
1093	0	0.220211
1094	0	0.385145
1095	0	0.398603
1096	0	0
1097	0	0
1098	0	0
1099	0	0
1100	0	0
1101	0	0
1102	0	0
1103	0	0
1104	0	0
1105	0	0
1106	0	0
1107	0	0
1108	0	0
1109	0	0
1110	0	0
1111	0	0
1112	0	0
1113	0	0
1114	0	0
1115	0	0
1116	0	0
1117	0	0
1118	0	0
1119	0	0
1120	0	0
1121	0	0
1122	0	0
1123	0	0
1124	0	0
1125	0	0
1126	0	0
1127	0	0
1128	0	0
1129	0	0
1130	0	0
1131	0	0
1132	0	0
1133	0	0
1134	0	0
1135	0	0
1136	0	0
1137	0	0
1138	0	0
1139	0	0
1140	0	0
1141	0	0
1142	0	0
1143	0	0
1144	0	0
1145	0	0
1146	0	0
1147	0	0
1148	0	0
1149	0	0
1150	0	0
1151	0	0
1152	0	0
1153	0	0
1154	0	0
1155	0	0
1156	0	0
1157	0	0
1158	0	0
1159	0	0
1160	0	0
1161	0	0
1162	0	0
1163	0	0
1164	0	0
1165	0	0
1166	0	0
1167	0	0
1168	0	0
1169	0	0
1170	0	0
1171	0	0
1172	0	0
1173	0	0
1174	0	0
1175	0	0
1176	0	0
1177	0	0
1178	0	0
1179	0	0
1180	0	0
1181	0	0
1182	0	0
1183	0	0
1184	0	0
1185	0	0
1186	0	0
1187	0	0
1188	0	0
1189	0	0
1190	0	0
1191	0	0
1192	0	0
1193	0	0
1194	0	0
1195	0	0
1196	0	0
1197	0	0
1198	0	0
1199	0	0
1200	0	0
1201	0	0
1202	0	0
1203	0	0
1204	0	0
1205	0	0
1206	0	0
1207	0	0
1208	0	0
1209	0	0
1210	0	0
1211	0	0
1212	0	0
1213	0	0
1214	0	0
1215	0	0
1216	0	0
1217	0	0
1218	0	0
1219	0	0
1220	0	0
1221	0	0
1222	0	0
1223	0	0
1224	0	0
1225	0	0
1226	0	0
1227	0	0
1228	0	0
1229	0	0
1230	0	0
1231	0	0
1232	0	0
1233	0	0
1234	0	0
1235	0	0
1236	0	0
1237	0	0
1238	0	0
1239	0	0
1240	0	0
1241	0	0
1242	0	0
1243	0	0
1244	0	0
1245	0	0
1246	0	0
1247	0	0
1248	0	0
1249	0	0
1250	0	0
1251	0	0
1252	0	0
1253	0	0
1254	0	0
1255	0	0
1256	0	0
1257	0	0
1258	0	0
1259	0	0
1260	0	0
1261	0	0
1262	0	0
1263	0	0
1264	0	0
1265	0	0
1266	0	0
1267	0	0
1268	0	0
1269	0	0
1270	0	0
1271	0	0
1272	0	0
1273	0	0
1274	0	0
1275	0	0
1276	0	0
1277	0	0
1278	0	0
1279	0	0
1280	0	0
1281	0	0
1282	0	0
1283	0	0
1284	0	0
1285	0	0
1286	0	0
1287	0	0
1288	0	0
1289	0	0
1290	0	0
1291	0	0.601261
1292	0	0.601261
1293	0	0
1294	0	0
1295	0	0
1296	0	0
1297	0	0
1298	0	0
1299	0	0
1300	0	0
1301	0	0
1302	0	0
1303	0	0
1304	0	0
1305	0	0
1306	0	0
1307	0	0
1308	0	0
1309	0	0
1310	0	0
1311	0	0
1312	0	0
1313	0	0
1314	0	0
1315	0	0
1316	0	0
1317	0	0
1318	0	0
1319	0	0
1320	0	0
1321	0	0
1322	0	0
1323	0	0
1324	0	0
1325	0	0
1326	0	0
1327	0	0
1328	0	0
1329	0	0
1330	0	0
1331	0	0
1332	0	0
1333	0	0
1334	0	0
1335	0	0
1336	0	0
1337	0	0
1338	0	0
1339	0	0
1340	0	0
1341	0	0
1342	0	0
1343	0	0
1344	0	0
1345	0	0
1346	0	0
1347	0	0
1348	0	0
1349	0	0
1350	0	0
1351	0	0
1352	0	0
1353	0	0
1354	0	0
1355	0	0
1356	0	0
1357	0	0
1358	0	0
1359	0	0
1360	0	0
1361	0	0
1362	0	0
1363	0	0
1364	0	0
1365	0	0
1366	0	0
1367	0	0
1368	0	0
1369	0	0
1370	0	0
1371	0	0
1372	0	0
1373	0	0
1374	0	0
1375	0	0
1376	0	0
1377	0	0
1378	0	0
1379	0	0
1380	0	0
1381	0	0
1382	0	0
1383	0	0
1384	0	0
1385	0	0
1386	0	0
1387	0	0
1388	0	0
1389	0	0
1390	0	0
1391	0	0
1392	0	0
1393	0	0
1394	0	0
1395	0	0
1396	0	0
1397	0	0
1398	0	0
1399	0	0
1400	0	0
1401	0	0
1402	0	0
1403	0	0
1404	0	0
1405	0	0
1406	0	0
1407	0	0
1408	0	0
1409	0	0
1410	0	0
1411	0	0
1412	0	0
1413	0	0
1414	0	0
1415	0	0
1416	0	0
1417	0	0
1418	0	0
1419	0	0
1420	0	0
1421	0	0
1422	0	0
1423	0	0
1424	0	0
1425	0	0
1426	0	0
1427	0	0
1428	0	0
1429	0	0
1430	0	0
1431	0	0
1432	0	0
1433	0	0
1434	0	0
1435	0	0
1436	0	0
1437	0	0
1438	0	0
1439	0	0
1440	0	0
1441	0	0
1442	0	0
1443	0	0
1444	0	0
1445	0	0
1446	0	0
1447	0	0
1448	0	0.595248
1449	0	0.41902
1450	0	0.338328
1451	0	0.3147
1452	0	0.102564
1453	0	0.0666667
1454	0	0.0545455
1455	0	0.0454545
1456	0	0.0606061
1457	0	0.357757
1458	0	0.214286
1459	0	0.10656
1460	0	0.077325
1461	0	0.101832
1462	0	0.0666667
1463	0	0.05
1464	0	0.0549451
1465	0	0.0641026
1466	0	0.0727273
1467	0	0.0727273
1468	0	0.0909091
1469	0	0.144066
1470	0	0.439837
1471	0	0.516799
1472	0	0.166667
1473	0	0.166667
1474	0	0.166667
1475	0	0.166667
1476	0	0.166667
1477	0	0
1478	0	0
1479	0	0
1480	0	0
1481	0	0
1482	0	0
1483	0	0.166667
1484	0	0.166667
1485	0	0.166667
1486	0	0.166667
1487	0	0.166667
1488	0	0.166667
1489	0	0.166667
1490	0	0.166667
1491	0	0.166667
1492	0	0.166667
1493	0	0.166667
1494	0	0.166667
1495	0	0.166667
1496	0	0.166667
1497	0	0.166667
1498	0	0.166667
1499	0	0.166667
1500	0	0.166667
1501	0	0.166667
1502	0	0.166667
1503	0	0
1504	0	0
1505	0	0
1506	0	0
1507	0	0
1508	0	0
1509	0	0
1510	0	0
1511	0	0
1512	0	0.1
1513	0	0.1
1514	0	0.1
1515	0	0.1
1516	0	0.1
1517	0	0.1
1518	0	0.1
1519	0	0.1
1520	0	0.1
1521	0	0.1
1522	0	0.1
1523	0	0.1
1524	0	0.1
1525	0	0.1
1526	0	0.1
1527	0	0.1
1528	0	0
1529	0	0
1530	0	0
1531	0	0
1532	0	0
1533	0	0
1534	0	0
1535	0	0
1536	0	0
1537	0	0
1538	0	0
1539	0	0
1540	0	0
1541	0	0
1542	0	0
1543	0	0
1544	0	0
1545	0	0
1546	0	0
1547	0	0
1548	0	0
1549	0	0.00952381
1550	0	0.0738916
1551	0	0.218546
1552	0	0.231761
1553	0	0.191635
1554	0	0.158352
1555	0	0.17345
1556	0	0.164984
1557	0	0.125014
1558	0	0.104516
1559	0	0.0990559
1560	0	0.0696049
1561	0	0.0710092
1562	0	0.0695364
1563	0	0.091369
1564	0	0.0826896
1565	0	0.0946854
1566	0	0.161829
1567	0	0.190476
1568	0	0.0434783
1569	0	0.0434783
1570	0	0.0571429
1571	0	0.0285714
1572	0	0.0285714
1573	0	0.0285714
1574	0	0.047619
1575	0	0.047619
1576	0	0.0717359
1577	0	0.235294
1578	0	0.219048
1579	0	0.297407
1580	0	0.294225
1581	0	0.710034
1582	0	0.663233
1583	0	0.709841
1584	0	0.384513
1585	0	0.423827
1586	0	0.425274
1587	0	0.430975
1588	0	0.4375
1589	0	0.235294
1590	0	0.318182
1591	0	0.269231
1592	0	0.282051
1593	0	0.37489
1594	0	0.75
1595	0	0.75
1596	0	0.75
1597	0	0.203508
1598	0	0.160094
1599	0	0.0846251
1600	0	0.0941674
1601	0	0.122566
1602	0	0.118593
1603	0	0.142958
1604	0	0.247141
1605	0	0.282177
1606	0	0.302094
1607	0	0.444249
1608	0	0.504475
1609	0	0.641921
1610	0	0.105413
1611	0	0.0935673
1612	0	0.121212
1613	0	0.145455
1614	0	0.0666667
1615	0	0
1616	0	0
1617	0	0
1618	0	0
1619	0	0
1620	0	0.264792
1621	0	0.389386
1622	0	0.434079
1623	0	0.461517
1624	0	0.465829
1625	0	0.486196
1626	0	0.487263
1627	0	0
1628	0	0
1629	0	0
1630	0	0
1631	0	0
1632	0	0
1633	0	0
1634	0	0
1635	0	0.742857
1636	0	0
1637	0	0
1638	0	0
1639	0	0
1640	0	0.420278
1641	0	0.30084
1642	0	0.501282
1643	0	0.469593
1644	0	0.444587
1645	0	0.443734
1646	0	0.47533
1647	0	0.71353
1648	0	0.439821
1649	0	0.418277
1650	0	0.843577
1651	0	0.846011
1652	0	0.671099
1653	0	0.294872
1654	0	0.133333
1655	0	0.166667
1656	0	0.166667
1657	0	0.333333
1658	0	0.333333
1659	0	0.333333
1660	0	0
1661	0	0
1662	0	0
1663	0	0
1664	0	0
1665	0	0
1666	0	0
1667	0	0.1
1668	0	0.166667
1669	0	0.1
1670	0	0.628466
1671	0	0.634107
1672	0	0.142857
1673	0	0.0270936
1674	0	0.619448
1675	0	0.618156
1676	0	0.618912
1677	0	0.618939
1678	0	0.618931
1679	0	0.61892
1680	0	0.616303
1681	0	0.616261
1682	0	0
1683	0	0
1684	0	0
1685	0	0
1686	0	0
1687	0	0
1688	0	0
1689	0	0
1690	0	0
1691	0	0
1692	0	0
1693	0	0
1694	0	0.925951
1695	0	0.841737
1696	0	0.656271
1697	0	0.342746
1698	0	0.340659
1699	0	0.296703
1700	0	0.208333
1701	0	0.199134
1702	0	0.199134
1703	0	0.17029
1704	0	0.150769
1705	0	0.148148
1706	0	0.250636
1707	0	0.217977
1708	0	0.175678
1709	0	0.172345
1710	0	0.17091
1711	0	0.0944742
1712	0	0.100985
1713	0	0.0818713
1714	0	0.0915033
1715	0	0.0915033
1716	0	0.0789474
1717	0	0.0514706
1718	0	0.235146
1719	0	0.195279
1720	0	0.178322
1721	0	0.169186
1722	0	0.165266
1723	0	0.101106
1724	0	0.112721
1725	0	0.0924455
1726	0	0.0796037
1727	0	0.0871054
1728	0	0.3
1729	0	0
1730	0	0
1731	0	0
1732	0	0
1733	0	0
1734	0	0.0714286
1735	0	0.0444444
1736	0	0.0444444
1737	0	0.0952011
1738	0	0.118154
1739	0	0.181997
1740	0	0.11522
1741	0	0.190883
1742	0	0.428571
1743	0	0.3
1744	0	0.3
1745	0	0.5
1746	0	0
1747	0	0
1748	0	0
1749	0	0
1750	0	0.759889
1751	0	0.759889
1752	0	0.534062
1753	0	0.2
1754	0	0.2
1755	0	0.155556
1756	0	0.155556
1757	0	0.155556
1758	0	0.127273
1759	0	0.127273
1760	0	0.106061
1761	0	0.0897436
1762	0	0.610157
1763	0	0.150997
1764	0	0.231933
1765	0	0.396423
1766	0	0.119048
1767	0	0.116667
1768	0	0.132353
1769	0	0.164502
1770	0	0.240909
1771	0	0.159748
1772	0	0.166845
1773	0	0.173348
1774	0	0.260735
1775	0	0.321627
1776	0	0.334554
1777	0	0.408721
1778	0	0
1779	0	0
1780	0	0
1781	0	0
1782	0	0
1783	0	0
1784	0	0
1785	0	0
1786	0	0
1787	0	0
1788	0	0
1789	0	0
1790	0	0.0952381
1791	0	0.715513
1792	0	0.579245
1793	0	0.777358
1794	0	0.205128
1795	0	0.295238
1796	0	0.325
1797	0	0.325
1798	0	0.342803
1799	0	0.322638
1800	0	0.60961
1801	0	0.446491
1802	0	0.474956
1803	0	0.47976
1804	0	0.480919
1805	0	0.481072
1806	0	0.790603
1807	0	0.790603
1808	0	0.35428
1809	0	0.349976
1810	0	0.227907
1811	0	0.487956
1812	0	0.447025
1813	0	0.290037
1814	0	0.287669
1815	0	0.666667
1816	0	0.357143
1817	0	0.47619
1818	0	0.47619
1819	0	0.47619
1820	0	0.47619
1821	0	0.47619
1822	0	0.383527
1823	0	0.284409
1824	0	0.462462
1825	0	0.381818
1826	0	0.381818
1827	0	0.381818
1828	0	0.305556
1829	0	0.305556
1830	0	0.25
1831	0	0.25
1832	0	0.190476
1833	0	0.190476
1834	0	0.190476
1835	0	0.190476
1836	0	0.2
1837	0	0.2
1838	0	0.142857
1839	0	0.142857
1840	0	0.0888889
1841	0	0.227823
1842	0	0.26293
1843	0	0.251525
1844	0	0.0666667
1845	0	0.0357143
1846	0	0.225552
1847	0	0.137634
1848	0	0.12043
1849	0	0.193693
1850	0	0.127342
1851	0	0.105344
1852	0	0.0642907
1853	0	0.0587808
1854	0	0.0689223
1855	0	0.0514624
1856	0	0.0537114
1857	0	0.0360777
1858	0	0.0457143
1859	0	0.0868072
1860	0	0.111542
1861	0	0.0371795
1862	0	0.0585859
1863	0	0.021978
1864	0	0.0147059
1865	0	0.121383
1866	0	0.146349
1867	0	0.188728
1868	0	0.208255
1869	0	0.322718
1870	0	0.515701
1871	0	0.0357143
1872	0	0.0357143
1873	0	0.047619
1874	0	0.034632
1875	0	0.047619
1876	0	0.0608466
1877	0	0.235849
1878	0	0.364081
1879	0	0.717803
1880	0	0.768707
1881	0	0.986577
1882	0	0.973423
1883	0	0.500893
1884	0	0.371605
1885	0	0.432259
1886	0	0.363337
1887	0	0.414347
1888	0	0.414762
1889	0	0.416222
1890	0	0.551645
1891	0	0.222942
1892	0	0.222942
1893	0	0.240404
1894	0	0.630382
1895	0	0.166667
1896	0	0.166667
1897	0	0.333333
1898	0	0.333333
1899	0	0.333333
1900	0	0.333333
1901	0	0.333333
1902	0	0.333333
1903	0	0.333333
1904	0	0.333333
1905	0	0.333333
1906	0	0.333333
1907	0	0.333333
1908	0	0.333333
1909	0	0.333333
1910	0	1
1911	0	1
1912	0	1
1913	0	1
1914	0	1
1915	0	1
1916	0	1
1917	0	1
1918	0	1
1919	0	0.582297
1920	0	0.581267
1921	0	0.58129
1922	0	0.561501
1923	0	0.559698
1924	0	0.218182
1925	0	0.796825
1926	0	0.842033
1927	0	0.842155
1928	0	0.823825
1929	0	0.82396
1930	0	0.831669
1931	0	0.893867
1932	0	0.359477
1933	0	0.883452
1934	0	0.717934
1935	0	0.4
1936	0	0.772492
1937	0	1
1938	0	1
1939	0	1
1940	0	0.485244
1941	0	0.725275
1942	0	0.604396
1943	0	0.24898
1944	0	0.183673
1945	0	0.319275
1946	0	0.256563
1947	0	0.333333
1948	0	0
1949	0	0.816492
1950	0	0.52466
1951	0	0.204172
1952	0	0
1953	0	0
1954	0	0
1955	0	0
1956	0	0
1957	0	0
1958	0	0
1959	0	0.606532
1960	0	0.608477
1961	0	1
1962	0	0.333333
1963	0	0
1964	0	0
1965	0	0
1966	0	0
1967	0	0
1968	0	0
1969	0	0
1970	0	0
1971	0	0
1972	0	0.31988
1973	0	0.22168
1974	0	0.154808
1975	0	0.142857
1976	0	0.165733
1977	0	0.189027
1978	0	0.234028
1979	0	0.162226
1980	0	0.164363
1981	0	0.161819
1982	0	0.188525
1983	0	0.183908
1984	0	0.199038
1985	0	0.177404
1986	0	0.34856
1987	0	0.337401
1988	0	0.25452
1989	0	0.266229
1990	0	0.319748
1991	0	0.326393
1992	0	0.151354
1993	0	0.164583
1994	0	0.139899
1995	0	0
1996	0	0
1997	0	0
1998	0	0
1999	0	0
2000	0	0.132238
2001	0	0.111538
2002	0	0
2003	0	0
2004	0	0
2005	0	0
2006	0	0.149705
2007	0	0.153439
2008	0	0.162393
2009	0	0.138698
2010	0	0.180059
2011	0	0.305263
2012	0	0.288889
2013	0	0.221386
2014	0	0.262118
2015	0	0.302615
2016	0	0
2017	0	0.333333
2018	0	0.333333
2019	0	0.333333
2020	0	0
2021	0	0
2022	0	0
2023	0	0
2024	0	0
2025	0	0
2026	0	0.333333
2027	0	0.333333
2028	0	0.428571
2029	0	0.766667
2030	0	0.9375
2031	0	0.580815
2032	0	0.808383
2033	0	0.983624
2034	0	0.214286
2035	0	0.25
2036	0	0.428571
2037	0	0.428571
2038	0	1
2039	0	1
2040	0	0.993257
2041	0	0.993257
2042	0	0
2043	0	0.996626
2044	0	0.996626
2045	0	0.996626
2046	0	0.996626
2047	0	0.996626
2048	0	0.998311
2049	0	0.998311
2050	0	0.998311
2051	0	0.996626
2052	0	0.996626
2053	0	0.996626
2054	0	0.996626
2055	0	0.996626
2056	0	0.996626
2057	0	0.998311
2058	0	0.998314
2059	0	0.998315
2060	0	0.998315
2061	0	0.998315
2062	0	0.998314
2063	0	0.998315
2064	0	0.998316
2065	0	0.998316
2066	0	0.998316
2067	0	0.996637
2068	0	0.996637
2069	0	0.998314
2070	0	0
2071	0	0.996632
2072	0	0.996632
2073	0	0.996632
2074	0	0.996632
2075	0	0.996632
2076	0	0.996629
2077	0	0.996617
2078	0	0.99662
2079	0	0.99662
2080	0	0.99662
2081	0	0.99662
2082	0	0.99662
2083	0	1
2084	0	1
2085	0	1
2086	0	1
2087	1	1
2088	0	0.5
2089	0	0.5
2090	0	0.5
2091	0	0.5
2092	1	1
2093	1	1
2094	1	1
2095	1	1
2096	1	1
2097	0	0.991544
2098	0	0.996609
2099	0	0.996606
2100	0	0.993217
2101	0	0.993217
2102	0	0
2103	0	0
2104	0	0
2105	0	0.993065
2106	0	0.981131
2107	0	0.948387
2108	0	1
2109	0	1
2110	0	1
2111	0	1
2112	0	0.947444
2113	0	0.868035
2114	0	0.750545
2115	0	0.762406
2116	0	0.704593
2117	0	0.710195
2118	0	0.588405
2119	0	0.49978
2120	0	0.494479
2121	0	0.50555
2122	0	0.522168
2123	0	0.146237
2124	0	0.149425
2125	0	0.144828
2126	0	0.0808824
2127	0	0.0916667
2128	0	0.0833333
2129	0	0.0989011
2130	0	0.0989011
2131	0	0.0989011
2132	0	0.0761905
2133	0	0.0315789
2134	0	0.0512821
2135	0	0.025641
2136	0	0.0512821
2137	0	0.0369231
2138	0	0.483321
2139	0	0.298551
2140	0	0.276956
2141	0	0.0769231
2142	0	0.0528736
2143	0	0.120567
2144	0	0.077381
2145	0	0.0624093
2146	0	0.426051
2147	0	0.348378
2148	0	0.314887
2149	0	0.234146
2150	0	0.228044
2151	0	0.214863
2152	0	0.18712
2153	0	0.171365
2154	0	0.158879
2155	0	0.163552
2156	0	0.30027
2157	0	0.394832
2158	0	0.103422
2159	0	0.115406
2160	0	0.147642
2161	0	0.172316
2162	0	0.211879
2163	0	0.276276
2164	0	0.220779
2165	0	0.233766
2166	0	0.3
2167	0	0.321429
2168	0	0.662728
2169	0	0.84024
2170	0	0.203765
2171	0	0.260081
2172	0	0.121053
2173	0	0.0897436
2174	0	0.0757576
2175	0	0.0909091
2176	0	0.151515
2177	0	0.181818
2178	0	0.24359
2179	0	0.24359
2180	0	0.190476
2181	0	0.190476
2182	0	0.190476
2183	0	0.190476
2184	0	0.190476
2185	0	0.190476
2186	0	0.3
2187	0	0.3
2188	0	0.3
2189	0	0.3
2190	0	0.3
2191	0	0.3
2192	0	0.333333
2193	0	0
2194	0	0
2195	0	0
2196	0	0
2197	0	0.166667
2198	0	0.333333
2199	0	0.333333
2200	0	0.333333
2201	0	0.333333
2202	0	0.333333
2203	0	0.333333
2204	0	0.5
2205	0	0.5
2206	0	0.5
2207	0	0.5
2208	0	0.5
2209	0	0
2210	0	0
2211	0	0
2212	0	0
2213	0	0
2214	0	0
2215	0	0
2216	0	0
2217	0	0
2218	0	0
2219	0	0
2220	0	0
2221	0	0
2222	0	1
2223	0	1
2224	0	1
2225	0	1
2226	0	0.899441
2227	0	0.320261
2228	0	0.385621
2229	0	0.614379
2230	0	0.614379
2231	0	0.614379
2232	0	1
2233	0	1
2234	0	1
2235	1	1
2236	1	1
2237	0	0.998314
2238	0	0.998314
2239	0	0.998315
2240	0	0.996632
2241	1	0
2242	1	0
2243	1	0
2244	0	0
2245	0	0.998315
2246	0	0.998315
2247	1	1
2248	1	1
2249	1	1
2250	0	0.998316
2251	0	0.998316
2252	0	0.998316
2253	0	0.998316
2254	0	0.998316
2255	0	0.998314
2256	0	0.996629
2257	0	0.998312
2258	0	0.998312
2259	0	0.998312
2260	0	0.996623
2261	0	0.996623
2262	0	0.99662
2263	0	0.994937
2264	0	1
2265	0	0.989872
2266	0	0.984908
2267	0	0.988244
2268	0	0.988244
2269	0	0.522584
2270	0	0.530241
2271	0	0
2272	0	0.945227
2273	0	0.978245
2274	0	0.998312
2275	0	0.998315
2276	0	0.998315
2277	0	0.998316
2278	0	0.998319
2279	0	0.998319
2280	0	0.998319
2281	0	0.998319
2282	0	0.998319
2283	0	0.998319
2284	0	0.998319
2285	0	0.998319
2286	0	0.998319
2287	0	0.998319
2288	0	0.996643
2289	0	0.996643
2290	0	0.998319
2291	0	0.998319
2292	0	0.998319
2293	0	0.998319
2294	0	0.998319
2295	0	0.991622
2296	0	0.991629
2297	0	0.991629
2298	0	0.962814
2299	0	0.996646
2300	0	0.998321
2301	0	0.998321
2302	0	0.998321
2303	0	0.998321
2304	0	0.996646
2305	0	0.996646
2306	0	0.996646
2307	0	0.996646
2308	0	0.996643
2309	0	0.996643
2310	0	0.996643
2311	0	0.996643
2312	0	0.996643
2313	0	0.996643
2314	0	0.996643
2315	0	0.996643
2316	0	0.998319
2317	0	0.998319
2318	0	0.998319
2319	0	0.542857
2320	0	0.717949
2321	0	0.155556
2322	0	0.683768
2323	0	0.47619
2324	0	0.949838
2325	0	0.333333
2326	1	0
2327	1	0
2328	1	0
2329	1	0
2330	1	0
2331	1	0
2332	0	0.938912
2333	0	0
2334	0	0.545455
2335	0	0.964105
2336	0	0.3
2337	0	0.5
2338	0	0.5
2339	0	0.5
2340	0	1
2341	0	0.948882
2342	0	0.795322
2343	0	0.166667
2344	0	0.333333
2345	0	0.333333
2346	0	0
2347	0	0
2348	0	0
2349	0	0
2350	0	0
2351	0	0
2352	0	0
2353	0	0
2354	0	0
2355	0	0
2356	0	0
2357	0	0
2358	0	0
2359	0	0
2360	0	0
2361	0	0
2362	0	0
2363	0	0
2364	0	0
2365	0	0
2366	0	0
2367	0	0
2368	1	1
2369	0	1
2370	0	0.794898
2371	0	0.998322
2372	0	0.998322
2373	0	0.998322
2374	0	0.998322
2375	0	0.998322
2376	0	0.998322
2377	0	1
2378	0	1
2379	0	1
2380	0	0.857143
2381	0	0.857143
2382	0	0.742857
2383	0	0.975049
2384	0	1
2385	0	1
2386	0	1
2387	0	1
2388	0	1
2389	0	0.932638
2390	0	0.932638
2391	0	0.504708
2392	0	0.754057
2393	0	0.503774
2394	0	0.785564
2395	0	0.387042
2396	0	0.711425
2397	0	0.62439
2398	0	0.566802
2399	0	0.339744
2400	0	0
2401	0	0
2402	0	0
2403	0	0
2404	0	0
2405	0	0
2406	0	0.3
2407	0	0
2408	0	0
2409	0	0
2410	0	0
2411	0	0.333333
2412	0	0.333333
2413	0	0.5
2414	0	0.25
2415	0	0.339869
2416	0	0.248427
2417	0	0.561226
2418	0	0.483365
2419	0	0.294839
2420	0	0.234408
2421	0	0.267013
2422	0	0.352442
2423	0	0.353748
2424	0	0.466137
2425	0	0.595973
2426	0	0.345269
2427	0	0.498575
2428	0	0.275362
2429	0	0.304348
2430	0	0.628458
2431	0	0.644269
2432	0	0.644269
2433	0	0.351029
2434	0	0.794094
2435	0	1
2436	0	1
2437	0	1
2438	0	1
2439	0	1
2440	0	1
2441	0	0.783817
2442	0	0.938749
2443	0	0.138258
2444	0	0.182266
2445	0	0.111111
2446	0	0
2447	0	0.102564
2448	0	0.227273
2449	0	0.361111
2450	0	0.464286
2451	0	1
2452	0	1
2453	0	1
2454	0	1
2455	0	0.998316
2456	0	0.998318
2457	0	0.998318
2458	0	0.998318
2459	0	0.998318
2460	0	0.998318
2461	0	0.998318
2462	0	0.99664
2463	1	1
2464	0	0.998319
2465	0	0.998319
2466	0	0.998319
2467	0	0.998319
2468	0	0.998319
2469	0	0.998321
2470	0	0.998319
2471	0	0.998318
2472	0	0.998318
2473	0	0.998318
2474	0	0.998318
2475	0	0.99664
2476	0	0.998318
2477	0	0.998318
2478	0	0.998318
2479	0	0.998318
2480	0	0.998318
2481	0	0.998315
2482	0	0.998316
2483	0	0.998316
2484	0	0.998316
2485	0	0.998316
2486	0	0.993286
2487	0	0.994966
2488	0	0.994966
2489	0	1
2490	0	0
2491	0	0.905824
2492	0	1
2493	0	1
2494	0	0.777778
2495	0	0.622222
2496	0	0.622222
2497	0	0.509091
2498	0	0.318182
2499	0	0.241758
2500	0	0.191667
2501	0	0.191667
2502	0	0.108333
2503	0	0
2504	0	0
2505	0	1
2506	0	1
2507	0	1
2508	0	0.0808824
2509	0	0.0661765
2510	0	0.0522876
2511	0	0.0522876
2512	0	0.0292398
2513	0	0.0315789
2514	0	0.0263158
2515	0	0.0263158
2516	0	0.0210526
2517	0	0.0367647
2518	0	0.0277778
2519	0	0.0444444
2520	0	0.0666667
2521	0	0.0545455
2522	0	0.0584795
2523	0	0.0818713
2524	0	0.116959
2525	0	0.187135
2526	0	0.28655
2527	0	0.473684
2528	0	0.491228
2529	0	0.491228
2530	0	0.528571
2531	0	0.547619
2532	0	0.619048
2533	0	0.619048
2534	0	0.619048
2535	0	0.6
2536	0	0.6
2537	0	0.6
2538	0	0.6
2539	0	0.6
2540	0	1
2541	0	1
2542	0	1
2543	0	1
2544	0	1
2545	0	1
2546	0	0.909091
2547	0	0.996633
2548	0	1
2549	0	1
2550	0	1
2551	0	1
2552	1	1
2553	0	0
2554	0	0
2555	0	0
2556	0	0
2557	0	0
2558	0	0
2559	0	0
2560	0	0
2561	0	0
2562	0	0
2563	0	0
2564	0	0
2565	0	0
2566	0	0
2567	1	0
2568	1	0
2569	1	0
2570	1	0
2571	1	0
2572	1	0
2573	1	0
2574	1	0
2575	1	0
2576	1	0
2577	0	0.996637
2578	0	0.996637
2579	0	0.996637
2580	0	0.996637
2581	0	0.996637
2582	0	0.994962
2583	0	0.99664
2584	0	0.99664
2585	0	0.996643
2586	0	0.998319
2587	0	0.998319
2588	0	0.998319
2589	0	0.998319
2590	0	0.998319
2591	1	1
2592	1	1
2593	1	1
2594	1	1
2595	1	1
2596	0	0.998319
2597	0	0.998319
2598	0	0.998319
2599	0	0.998319
2600	0	0.998318
2601	0	0.998318
2602	0	0.998319
2603	1	1
2604	1	1
2605	0	1
2606	0	0.904087
2607	0	0.902173
2608	0	0.4
2609	0	0.285714
2610	0	0.893675
2611	0	0.333333
2612	0	0.333333
2613	0	0.454545
2614	0	0.925672
2615	0	0.190476
2616	0	0.1
2617	0	0.1
2618	0	0.166667
2619	0	0
2620	0	0
2621	0	0
2622	0	0
2623	0	0
2624	0	0
2625	0	0
2626	0	0
2627	0	0
2628	0	0
2629	0	0
2630	1	0
2631	1	0
2632	1	0
2633	1	0
2634	1	0
2635	0	0.819048
2636	0	1
2637	0	1
2638	0	0.756684
2639	0	0.3
2640	0	0
2641	0	0
2642	0	0.893438
2643	0	1
2644	0	0.996634
2645	0	0.998316
2646	0	0.998316
2647	0	0.998316
2648	0	0.996637
2649	0	0.994958
2650	0	0.994958
2651	0	0.994958
2652	0	0.994954
2653	0	0.998314
2654	0	0.998314
2655	0	1
2656	0	1
2657	0	0.5
2658	0	0.976646
2659	0	0
2660	0	0
2661	0	0
2662	0	0
2663	0	0
2664	0	0
2665	0	0
2666	0	0
2667	0	0
2668	0	0
2669	0	0
2670	0	0
2671	0	0
2672	0	0
2673	0	0
2674	0	0
2675	0	0
2676	0	0
2677	0	0.991935
2678	0	0.991903
2679	0	0.958563
2680	0	0.866995
2681	0	0.925926
2682	0	1
2683	0	0.849231
2684	0	0.814286
2685	0	0.805263
2686	0	0.894737
2687	0	0.805263
2688	0	0.805263
2689	0	0.805263
2690	0	0.805263
2691	0	0.805263
2692	0	0
2693	0	0
2694	0	0
2695	0	0.974442
2696	0	0.961542
2697	0	0.814286
2698	0	0.404762
2699	0	0.366667
2700	0	0.266667
2701	0	0.184783
2702	0	0.540713
2703	0	0.116809
2704	0	0.214286
2705	0	0.285714
2706	0	0.214286
2707	0	0.285714
2708	0	0.285714
2709	0	0.25
2710	0	0.25
2711	0	0.25
2712	0	0.25
2713	0	0.2
2714	0	0.2
2715	0	0.2
2716	0	0.2
2717	0	0.163636
2718	0	0.441532
2719	0	0.441532
2720	0	0.435484
2721	0	0.106061
2722	0	0.106061
2723	0	0.106061
2724	0	0.0909091
2725	0	0.0909091
2726	0	0.0909091
2727	0	0.3867
2728	0	0.3867
2729	0	0.0727273
2730	0	0.0727273
2731	0	0.0727273
2732	0	0.0727273
2733	0	0.445977
2734	0	0.445977
2735	0	0.441379
2736	0	0.36553
2737	0	0.36553
2738	0	0.146617
2739	0	0.113481
2740	0	0.0963855
2741	0	0.0894324
2742	0	0.0929584
2743	0	0
2744	0	0
2745	0	0
2746	0	0
2747	0	0
2748	0	0
2749	0	0
2750	0	0.0874242
2751	0	0.0947205
2752	0	0
2753	0	0
2754	0	0
2755	0	0
2756	0	0
2757	0	0.333333
2758	0	0.166667
2759	0	0.1
2760	0	0.0555556
2761	0	0.0666667
2762	0	0.0666667
2763	0	0.381009
2764	0	0.693763
2765	0	0.346076
2766	0	0.346076
2767	0	0.357143
2768	0	0.283753
2769	0	0.219048
2770	0	0.155347
2771	0	0.161457
2772	0	0.132432
2773	0	0.0938309
2774	0	0.105921
2775	0	0.118758
2776	0	0.078528
2777	0	0.107288
2778	0	0.242424
2779	0	0.106061
2780	0	0.106061
2781	0	0.121212
2782	0	0.106061
2783	0	0.111111
2784	0	0.127536
2785	0	0.0880068
2786	0	0.464286
2787	0	0.428571
2788	0	0.285714
2789	0	0.285714
2790	0	0.285714
2791	0	0.285714
2792	0	0.285714
2793	0	0.285714
2794	0	0.285714
2795	0	0.285714
2796	0	0.285714
2797	0	0.205128
2798	0	0.128205
2799	0	0.10989
2800	0	0.104762
2801	0	0.106061
2802	0	0.528453
2803	0	0.544216
2804	0	0.188182
2805	0	0.129197
2806	0	0.882353
2807	0	0.304238
2808	0	0.882353
2809	0	0.772059
2810	0	0.882353
2811	0	0.882353
2812	0	0.102904
2813	0	0.354156
2814	0	0.209898
2815	0	0.403699
2816	0	0.40452
2817	0	0.111985
2818	0	0.0237154
2819	0	0.0237154
2820	0	0.025974
2821	0	0.025974
2822	0	0.017316
2823	0	0.017316
2824	0	0.017316
2825	0	0.017316
2826	0	0.0333333
2827	0	0.0638655
2828	0	0.0640114
2829	0	0.10453
2830	0	0.106459
2831	0	0.710526
2832	0	0.563492
2833	0	0.501317
2834	0	0.503073
2835	0	0.502634
2836	0	0.199816
2837	0	0.114078
2838	0	0.165223
2839	0	0.184252
2840	0	0.100392
2841	0	0.132285
2842	0	0.168409
2843	0	0.205575
2844	0	0.31529
2845	0	0.0181818
2846	0	0.0181818
2847	0	0.0181818
2848	0	0.0916667
2849	0	0.0916667
2850	0	0.0916667
2851	0	0.104762
2852	0	0.104762
2853	0	0.0222222
2854	0	0.0222222
2855	0	0.0222222
2856	0	0.0222222
2857	0	0.0222222
2858	0	0.0222222
2859	0	0.0222222
2860	0	0.0222222
2861	0	0.31398
2862	0	0.31387
2863	0	0.166667
2864	0	0.166667
2865	0	0.166667
2866	0	0.166667
2867	0	0.166667
2868	0	0
2869	0	0
2870	0	0
2871	0	0
2872	0	0
2873	0	0
2874	0	0
2875	0	0
2876	0	0
2877	0	0
2878	0	0
2879	0	1
2880	0	1
2881	0	1
2882	0	1
2883	0	1
2884	0	1
2885	0	1
2886	0	0.333333
2887	0	0.333333
2888	0	0.333333
2889	0	0.333333
2890	0	0.333333
2891	0	0.333333
2892	0	0.333333
2893	0	0.333333
2894	0	0.333333
2895	0	0.333333
2896	0	0.333333
2897	0	0.333333
2898	0	0.333333
2899	0	0.333333
2900	0	0.333333
2901	0	0.466667
2902	0	0.466667
2903	0	0.466667
2904	0	0.489139
2905	0	0.873118
2906	0	0.660317
2907	0	0.660317
2908	0	0.660317
2909	0	0.544297
2910	0	0.784306
2911	0	0.784346
2912	0	0.047619
2913	0	0.047619
2914	0	0.047619
2915	0	0.047619
2916	0	0.1
2917	0	0.1
2918	0	0.1
2919	0	0.1
2920	0	0.1
2921	0	0.1
2922	0	0.2
2923	0	0.2
2924	0	0.2
2925	0	0.133333
2926	0	0.4
2927	0	0.4
2928	0	0.214286
2929	0	0.357143
2930	0	0.714286
2931	0	0.714286
2932	0	0.75
2933	0	0.622222
2934	0	0.622222
2935	0	0.622222
2936	0	0.705128
2937	0	0.705128
2938	0	0.705128
2939	0	0.271739
2940	0	0.296443
2941	0	0.276923
2942	0	0.25641
2943	0	0.198864
2944	0	0.799214
2945	0	0.796006
2946	0	0.209524
2947	0	0.175
2948	0	0.116959
2949	0	0.804376
2950	0	0.802687
2951	0	0.233918
2952	0	0.227941
2953	0	0.21978
2954	0	0.230769
2955	0	0.181818
2956	0	0.181818
2957	0	0.153846
2958	0	0.2
2959	0	0.166667
2960	0	0.153846
2961	0	0.0769231
2962	0	0.0659341
2963	0	0.0584795
2964	0	0.0473684
2965	0	0.333333
2966	0	0.333333
2967	0	0.333333
2968	0	0.333333
2969	0	0.333333
2970	0	0.754533
2971	0	0.671296
2972	0	0
2973	0	0
2974	0	0
2975	0	0
2976	0	0
2977	0	0
2978	0	0
2979	0	0
2980	0	0
2981	0	0
2982	0	0
2983	0	0
2984	0	0
2985	0	0
2986	0	0
2987	0	0
2988	0	0
2989	0	0
2990	0	0.025641
2991	0	0.105072
2992	0	0.762336
2993	0	0.729622
2994	0	0.634597
2995	0	0.300851
2996	0	0.59009
2997	0	0.59009
2998	0	0.44808
2999	0	0.225166
3000	0	0.190476
3001	0	0.190476
3002	0	0.142857
3003	0	0.142857
3004	0	0.275114
3005	0	0.249239
3006	0	0.0931142
3007	0	0.16265
3008	0	0
3009	0	0
3010	0	0
3011	0	0
3012	0	0
3013	0	0
3014	0	0
3015	0	0
3016	0	0
3017	0	0
3018	0	0
3019	0	0
3020	0	0
3021	0	0
3022	0	0
3023	0	0
3024	0	0
3025	0	0.447069
3026	0	0.36012
3027	0	0.356525
3028	0	0.328191
3029	0	0.217308
3030	0	0.189071
3031	0	0.122222
3032	0	0.114634
3033	0	0.110661
3034	0	0.0566802
3035	0	0.0512821
3036	0	0.0376523
3037	0	0.0338164
3038	0	0.13035
3039	0	0.246667
3040	0	0.369565
3041	0	0.434783
3042	0	0.606452
3043	0	0.76087
3044	0	0.76087
3045	0	0.76087
3046	0	0.76087
3047	0	0.470968
3048	0	0.0688452
3049	0	0.213333
3050	0	0.144928
3051	0	0.0942029
3052	0	0.186766
3053	0	0.28344
3054	0	0.318498
3055	0	0.40915
3056	0	0.532583
3057	0	0.269488
3058	0	0.318088
3059	0	0.339912
3060	0	0.13698
3061	0	0.0952381
3062	0	0.179498
3063	0	0.284477
3064	0	0.325629
3065	0	0.347403
3066	0	0.193797
3067	0	0
3068	0	0
3069	0	0
3070	0	0
3071	0	0
3072	0	0
3073	0	0
3074	0	0.0521885
3075	0	0.0572034
3076	0	0.064644
3077	0	0.0758234
3078	0	0.0745812
3079	0	0.0548246
3080	0	0.103627
3081	0	0.112072
3082	0	0.138005
3083	0	0.150739
3084	0	0.161185
3085	0	0.190177
3086	0	0.190067
3087	0	0.193555
3088	0	0.413129
3089	0	0.459249
3090	0	0.477753
3091	0	0.459064
3092	0	0.0520487
3093	0	0.0732207
3094	0	0.0803808
3095	0	0.105442
3096	0	0.186939
3097	0	0.214286
3098	0	0.232192
3099	0	0.368687
3100	0	0.373737
3101	0	0.406061
3102	0	0.785569
3103	0	0.831557
3104	0	0.527273
3105	0	0.672727
3106	0	0.672727
3107	0	0.672727
3108	0	0.92344
3109	0	0.925126
3110	0	1
3111	0	0.996629
3112	0	0.996629
3113	0	0.996629
3114	0	0.996629
3115	0	0.996629
3116	0	0.996629
3117	0	0.996629
3118	0	0.996629
3119	0	0.996629
3120	0	0.996629
3121	0	0.996629
3122	0	0
3123	0	0
3124	0	0
3125	0	0
3126	0	0
3127	0	0
3128	0	0
3129	0	0
3130	0	0
3131	0	0
3132	0	0
3133	0	0
3134	0	0
3135	0	0
3136	1	0
3137	1	0
3138	1	0
3139	1	0
3140	1	0
3141	1	0
3142	1	0
3143	1	0
3144	1	0
3145	0	0
3146	0	0
3147	0	0
3148	0	0
3149	0	0
3150	0	0
3151	0	0
3152	0	0
3153	0	0
3154	0	0
3155	0	0
3156	0	0
3157	0	0
3158	0	0
3159	0	0
3160	0	0
3161	0	0
3162	0	0.998312
3163	0	0.996629
3164	0	0.996629
3165	0	0.996629
3166	0	0.996629
3167	1	1
3168	1	1
3169	0	0.99793
3170	0	0.99587
3171	0	0.994934
3172	0	0.996612
3173	0	0.998305
3174	0	0.998307
3175	0	0.993236
3176	0	0.986509
3177	0	0.984818
3178	0	0.98311
3179	0	0.974708
3180	0	0.333333
3181	0	0
3182	0	0
3183	0	0.333333
3184	0	0.333333
3185	0	0.333333
3186	0	0.333333
3187	0	0
3188	0	0
3189	0	0
3190	0	0
3191	0	0
3192	0	0
3193	0	0
3194	0	0
3195	0	0
3196	0	0
3197	0	0
3198	0	0
3199	0	0
3200	0	0
3201	0	0
3202	0	0
3203	0	0
3204	0	0
3205	0	0
3206	0	0
3207	0	0
3208	0	0
3209	0	0
3210	0	0
3211	0	0
3212	0	0
3213	0	0.166667
3214	0	0.1
3215	0	0.0666667
3216	0	0.2
3217	0	0.2
3218	0	0.2
3219	0	0.2
3220	0	0.236364
3221	0	0.942563
3222	0	0.608696
3223	0	0.529412
3224	0	0.840183
3225	0	0.813048
3226	0	0.560374
3227	0	0.285714
3228	0	0.142857
3229	0	0.142857
3230	0	0.142857
3231	0	0.142857
3232	0	0.142857
3233	0	0.107143
3234	0	0.107143
3235	0	0.107143
3236	0	0.107143
3237	0	0.0833333
3238	0	0.766455
3239	0	0.634521
3240	0	0.659875
3241	0	0.166667
3242	0	0
3243	0	0
3244	0	0
3245	0	0
3246	0	0
3247	0	0
3248	0	0
3249	0	0
3250	0	0
3251	0	0
3252	0	0
3253	0	0
3254	0	0
3255	0	0
3256	0	0
3257	0	0
3258	0	0
3259	0	0
3260	0	0.976918
3261	0	0.669008
3262	0	0.672439
3263	0	0.959799
3264	0	0.958174
3265	0	0.958104
3266	0	0
3267	0	0
3268	0	0
3269	0	0
3270	0	0.7
3271	0	0.7
3272	0	0.536392
3273	0	0.536392
3274	0	0.840799
3275	0	0
3276	0	0
3277	0	0
3278	0	0
3279	0	0
3280	0	0
3281	0	0
3282	0	0
3283	0	0
3284	0	0
3285	0	0
3286	0	0
3287	0	0
3288	0	0
3289	0	0
3290	0	0
3291	0	0
3292	0	0
3293	0	0
3294	0	0
3295	0	0.876096
3296	0	0.876096
3297	0	0
3298	0	0
3299	0	0
3300	0	0
3301	0	0
3302	0	0
3303	0	0
3304	0	0
3305	0	0
3306	0	0
3307	0	0
3308	0	0
3309	0	0
3310	0	0
3311	0	0
3312	0	0
3313	0	0
3314	0	0
3315	0	0
3316	0	0
3317	0	0
3318	0	0
3319	0	0
3320	0	0
3321	0	0
3322	0	0
3323	0	0.864691
3324	0	0.701438
3325	0	0.733204
3326	0	0.849231
3327	0	0.786325
3328	0	0.730159
3329	0	0.669312
3330	0	0.623153
3331	0	0.623153
3332	0	0.0357143
3333	0	0.0357143
3334	0	0.0666667
3335	0	0.0181818
3336	0	0.67563
3337	0	0.615307
3338	0	0.594583
3339	0	0.108696
3340	0	0.103333
3341	0	0.11943
3342	0	0.18902
3343	0	0.187451
3344	0	0.173446
3345	0	0.138399
3346	0	0.125553
3347	0	0.0969733
3348	0	0.0603175
3349	0	0.0588523
3350	0	0.0518445
3351	0	0.440549
3352	0	0.409287
3353	0	0.393583
3354	0	0.326437
3355	0	0.326437
3356	0	0.324138
3357	0	0.255172
3358	0	0.255172
3359	0	0.23871
3360	0	0.255172
3361	0	0.223444
3362	0	0.162845
3363	0	0.149874
3364	0	0.147154
3365	0	0.14227
3366	0	0.134232
3367	0	0.1176
3368	0	0.227448
3369	0	0.19616
3370	0	0.191889
3371	0	0.200054
3372	0	0.191046
3373	0	0.189421
3374	0	0.458203
3375	0	0.533951
3376	0	0.498765
3377	0	0.135167
3378	0	0.128299
3379	0	0.0747475
3380	0	0.074746
3381	0	0.0501701
3382	0	0.0459184
3383	0	0.165701
3384	0	0.162937
3385	0	0.227273
3386	0	0
3387	0	0
3388	0	0
3389	0	0
3390	0	0
3391	0	0
3392	0	0
3393	0	0
3394	0	0
3395	0	0
3396	0	0
3397	0	0
3398	0	0
3399	0	0
3400	0	0
3401	0	0
3402	0	0
3403	0	0
3404	0	0
3405	0	0
3406	0	0
3407	0	0
3408	0	0
3409	0	0
3410	0	0
3411	0	0
3412	0	0
3413	0	0
3414	0	0
3415	0	0
3416	0	0
3417	0	0
3418	0	0
3419	0	0
3420	0	0
3421	0	0
3422	0	0
3423	0	0
3424	0	0
3425	0	0
3426	0	0
3427	0	0
3428	0	0
3429	0	0
3430	0	0
3431	0	0
3432	0	0
3433	0	0
3434	0	0
3435	0	0
3436	0	0
3437	0	0
3438	0	0
3439	0	0
3440	0	0
3441	0	0
3442	0	0
3443	0	0
3444	0	0
3445	0	0
3446	0	0
3447	0	0
3448	0	0
3449	0	0
3450	0	0
3451	0	0
3452	0	0
3453	0	0
3454	0	0
3455	0	0
3456	0	0
3457	0	0
3458	0	0
3459	0	0
3460	0	0.0644769
3461	0	0.0602203
3462	0	0.0558047
3463	0	0.242424
3464	0	0.248078
3465	0	0.231169
3466	0	0.231169
3467	0	0.202825
3468	0	0.131373
3469	0	0.133964
3470	0	0.149482
3471	0	0.155584
3472	0	0.160667
3473	0	0.144757
3474	0	0.116667
3475	0	0.114506
3476	0	0.100052
3477	0	0.0864502
3478	0	0.0728155
3479	0	0.0465769
3480	0	0
3481	0	0
3482	0	0
3483	0	0.102767
3484	0	0.102767
3485	0	0.0427722
3486	0	0
3487	0	0
3488	0	0
3489	0	0
3490	0	0
3491	0	0
3492	0	0.119565
3493	0	0.119565
3494	0	0.119565
3495	0	0.0359737
3496	0	0.0892308
3497	0	0.0953846
3498	0	0.0355066
3499	0	0.0330468
3500	0	0.0613898
3501	0	0.0653728
3502	0	0.0332819
3503	0	0.115385
3504	0	0.10989
3505	0	0.2
3506	0	0.2
3507	0	0.2
3508	0	0.2
3509	0	0.20903
3510	0	0.216138
3511	0	0.02783
3512	0	0.0261298
3513	0	0.0260294
3514	0	0.0259603
3515	0	0.0352062
3516	0	0.0515152
3517	0	0.0237209
3518	0	0.0783673
3519	0	0.0664452
3520	0	0.0377321
3521	0	0.0389643
3522	0	0.25
3523	0	0.194444
3524	0	0.25
3525	0	0.190476
3526	0	0.190476
3527	0	0.190476
3528	0	0.0494984
3529	0	0.0455969
3530	0	0.0370255
3531	0	0.0650449
3532	0	0.0613432
3533	0	0.0430108
3534	0	0.0403226
3535	0	0.0916377
3536	0	1
3537	0	1
3538	0	0
3539	0	0
3540	0	0
3541	0	0
3542	0	0
3543	0	0
3544	0	0
3545	0	0
3546	0	0
3547	0	0
3548	0	0
3549	0	0
3550	0	0
3551	0	0
3552	0	1
3553	0	0.2
3554	0	0.1
3555	0	0.0334494
3556	0	0.208791
3557	0	0.0873418
3558	0	0.282051
3559	0	0.0366104
3560	0	0.497984
3561	0	0.497984
3562	0	0.212549
3563	0	0.220965
3564	0	0.0372161
3565	0	0
3566	0	0
3567	0	0
3568	0	0
3569	0	0
3570	0	0
3571	0	0
3572	0	0
3573	0	0
3574	0	0
3575	0	0.0769231
3576	0	0.0769231
3577	0	0.190476
3578	0	0.190476
3579	0	0.214286
3580	0	0.0586621
3581	0	0.0566597
3582	0	0.047619
3583	0	0.030303
3584	0	0.0285714
3585	0	0.0380952
3586	0	0.0380952
3587	0	0.0333333
3588	0	0.0692602
3589	0	0.109091
3590	0	0.109091
3591	0	0.0909091
3592	0	0.128205
3593	0	0.0849673
3594	0	0.0441546
3595	0	0
3596	0	0
3597	0	0
3598	0	0
3599	0	0
3600	0	0
3601	0	0
3602	0	0
3603	0	0
3604	0	0
3605	0	0.113776
3606	0	0.122226
3607	0	0.34058
3608	0	0.34058
3609	0	0.371542
3610	0	0.371542
3611	0	0.371542
3612	0	0.330011
3613	0	0.330011
3614	0	0.330011
3615	0	0.094382
3616	0	0.0955056
3617	0	0.0993361
3618	0	0.118861
3619	0	0.105864
3620	0	0.131671
3621	0	0.14041
3622	0	0.310541
3623	0	0.335385
3624	0	0.37
3625	0	0.37
3626	0	0.37
3627	0	0.37
3628	0	0.373333
3629	0	0.146087
3630	0	0.28836
3631	0	0.296296
3632	0	0.291005
3633	0	0.293651
3634	0	0.0534693
3635	0	0.494505
3636	0	0.345588
3637	0	0.135484
3638	0	0.190883
3639	0	0.185185
3640	0	0.0545798
3641	0	0
3642	0	0
3643	0	0
3644	0	0
3645	0	0
3646	0	0.5
3647	0	0.143791
3648	0	0.100423
3649	0	0.0486194
3650	0	0.232143
3651	0	0.232143
3652	0	0.232143
3653	0	0.081251
3654	0	0.0674998
3655	0	0.0775473
3656	0	0.0569249
3657	0	0.0761905
3658	0	0.0761905
3659	0	0.0761905
3660	0	0.104762
3661	0	0.0571429
3662	0	0.0615389
3663	0	0.0222222
3664	0	0.111111
3665	0	0.117647
3666	0	0.0893769
3667	0	0.0508542
3668	0	0.0654455
3669	0	0.0698901
3670	0	0.55
3671	0	0.0833333
3672	0	0.120879
3673	0	0.0570985
3674	0	0.109593
3675	0	0.0811881
3676	0	0.0785908
3677	0	0.0869979
3678	0	0.103072
3679	0	0.0957481
3680	0	0.0992341
3681	0	0.0855431
3682	0	0.142857
3683	0	0.0555556
3684	0	0.098018
3685	0	0.107108
3686	0	0.108333
3687	0	0.1002
3688	0	0.167117
3689	0	0.12937
3690	0	0.230108
3691	0	0.282051
3692	0	0.270655
3693	0	0.270655
3694	0	0.12873
3695	0	0.0952381
3696	0	0
3697	0	0
3698	0	0.326927
3699	0	0.346526
3700	0	0.367077
3701	0	0.522162
3702	0	0.55964
3703	0	0.514198
3704	0	0.159754
3705	0	0.3
3706	0	0.3
3707	0	0.3
3708	0	0.3
3709	0	0.3
3710	0	0.3
3711	0	0.3
3712	0	0.3
3713	0	0.363636
3714	0	0.166408
3715	0	0.851433
3716	0	0.854136
3717	0	0.379081
3718	0	0.379081
3719	0	0.195963
3720	0	0.0666667
3721	0	0.047619
3722	0	0.366988
3723	0	0
3724	0	0
3725	0	0
3726	0	0
3727	0	0
3728	0	0.333333
3729	0	1
3730	0	1
3731	0	1
3732	0	1
3733	0	0.333333
3734	0	0.333333
3735	0	0.450017
3736	0	1
3737	0	1
3738	0	0.595588
3739	0	0.5
3740	0	0.647783
3741	0	0.660099
3742	0	0.367075
3743	0	0.445565
3744	0	0.2
3745	0	0.2
3746	0	0.166667
3747	0	0.47619
3748	0	0.494505
3749	0	0.907509
3750	0	0.339576
3751	0	0.644197
3752	0	0.273684
3753	0	0.353846
3754	0	0.474359
3755	0	0.474359
3756	0	0.474359
3757	0	0.474359
3758	0	0.590678
3759	0	0.589275
3760	0	0.52207
3761	0	0.690781
3762	0	0.851912
3763	0	0
3764	0	0
3765	0	0
3766	0	0
3767	0	0
3768	0	0.853777
3769	0	0.929963
3770	0	0.964347
3771	0	0.25
3772	0	0.52381
3773	0	0.52381
3774	0	1
3775	0	1
3776	0	0.981402
3777	0	0.981418
3778	0	0.981418
3779	0	0
3780	1	0
3781	1	0
3782	1	0
3783	1	0
3784	1	0
3785	1	0
3786	1	0
3787	1	0
3788	1	0
3789	1	0
3790	1	0
3791	1	0
3792	1	0
3793	1	0
3794	1	0
3795	1	0
3796	1	0
3797	1	0
3798	1	0
3799	1	0
3800	1	0
3801	1	0
3802	1	0
3803	1	0
3804	1	0
3805	1	0
3806	1	0
3807	1	0
3808	1	0
3809	1	0
3810	1	0
3811	1	0
3812	1	0
3813	1	0
3814	1	0
3815	1	0
3816	1	0
3817	1	0
3818	1	0
3819	1	0
3820	1	0
3821	1	0
3822	1	0
3823	1	0
3824	1	0
3825	1	0
3826	1	0
3827	0	0
3828	0	0
3829	0	0
3830	0	0
3831	0	0
3832	0	0.976436
3833	0	0.978111
3834	0	0.978111
3835	0	0.978129
3836	0	0.978129
3837	0	0.976456
3838	0	0.976456
3839	0	0.705128
3840	0	0.378788
3841	0	0.378788
3842	0	0.381818
3843	0	0.355556
3844	0	0.355556
3845	0	0.355556
3846	0	0.266667
3847	0	0.266667
3848	0	0.222222
3849	0	0.285714
3850	0	0.285714
3851	0	0.142857
3852	0	0.142857
3853	0	0.0555556
3854	0	0.0555556
3855	0	0.0555556
3856	0	0.047619
3857	1	0
3858	1	0
3859	1	0
3860	1	0
3861	0	0
3862	0	0
3863	0	0
3864	0	0
3865	0	0
3866	0	0
3867	0	0
3868	0	0
3869	0	0.133333
3870	0	0.906572
3871	0	0.606154
3872	0	0.606154
3873	0	0.641304
3874	0	0.630435
3875	0	0.402174
3876	0	0.375494
3877	0	0.452381
3878	0	0.601307
3879	0	0.492647
3880	0	0.279412
3881	0	0.279412
3882	0	0.27619
3883	0	0.219048
3884	0	0.133333
3885	0	0.133333
3886	0	0.166667
3887	0	0.2
3888	0	0.0666667
3889	0	0.0666667
3890	0	0.0666667
3891	0	0.1
3892	0	0.166667
3893	0	0.333333
3894	0	0.333333
3895	0	0.960438
3896	0	0.965554
3897	0	0.5
3898	0	0.5
3899	0	0.945719
3900	0	0.944014
3901	0	0.947361
3902	0	0
3903	0	0
3904	0	0
3905	0	0
3906	0	0
3907	0	0
3908	0	0
3909	0	0
3910	0	0
3911	0	0
3912	0	0
3913	0	0.3
3914	0	0.2
3915	0	0.361111
3916	0	0.777778
3917	0	0.777778
3918	0	0.777778
3919	0	0.777778
3920	0	0.777778
3921	0	0.777778
3922	0	0.777778
3923	0	0.918111
3924	0	1
3925	0	1
3926	0	1
3927	0	1
3928	0	1
3929	0	1
3930	0	1
3931	0	1
3932	0	1
3933	0	0.917532
3934	0	0.91431
3935	0	0.914238
3936	0	0.230769
3937	0	0.230769
3938	0	0.230769
3939	0	0.924021
3940	0	0.919064
3941	0	0.915764
3942	0	0
3943	0	0
3944	0	0.1
3945	0	0.1
3946	0	0.1
3947	0	0.1
3948	0	0.940081
3949	0	0
3950	0	0
3951	0	0
3952	0	0
3953	0	0
3954	0	0
3955	0	0
3956	0	0.936716
3957	0	0.0357143
3958	0	0.928644
3959	0	0.925375
3960	0	0.91887
3961	0	0.922186
3962	0	0.923849
3963	0	0.928771
3964	0	0.930379
3965	0	0.930178
3966	0	0.931792
3967	0	0
3968	0	0
3969	0	0
3970	0	0
3971	0	0
3972	0	0
3973	0	0
3974	0	0.923622
3975	0	0.920178
3976	0	0.915208
3977	0	0.5
3978	0	0.333333
3979	0	0.333333
3980	0	0.166667
3981	0	0.166667
3982	0	0.166667
3983	0	0.166667
3984	0	0.166667
3985	0	0.166667
3986	0	0.166667
3987	0	0.166667
3988	0	0.166667
3989	0	0.166667
3990	0	0.166667
3991	0	0.166667
3992	0	0.166667
3993	0	0.166667
3994	0	0.166667
3995	0	0.166667
3996	0	0.166667
3997	0	0.3
3998	0	0.3
3999	0	0.2
4000	0	0.2
4001	0	0.906363
4002	0	0.4
4003	0	0.4
4004	0	0.4
4005	0	0.4
4006	0	0.4
4007	0	0.604024
4008	0	0.638534
4009	0	0.637681
4010	0	0.602414
4011	0	0.565476
4012	0	0.684125
4013	0	0.0666667
4014	0	0.0666667
4015	0	0.0666667
4016	0	0.0666667
4017	0	0.0666667
4018	0	0.0666667
4019	0	0.133333
4020	0	0.133333
4021	0	0.133333
4022	0	0.133333
4023	0	0.133333
4024	0	0.133333
4025	0	0.133333
4026	0	0.133333
4027	0	0.133333
4028	0	0.133333
4029	0	0.0666667
4030	0	0.0666667
4031	0	0.0666667
4032	0	0.0666667
4033	0	0.0666667
4034	0	0.0666667
4035	0	0.0666667
4036	0	0.0666667
4037	0	0
4038	0	0
4039	0	0
4040	0	0
4041	0	0
4042	0	0
4043	0	0.0666667
4044	0	0.0666667
4045	0	0.0666667
4046	0	0.0666667
4047	0	0.0666667
4048	0	0.0666667
4049	0	0.0666667
4050	0	0.0666667
4051	0	0.0666667
4052	0	0.566267
4053	0	0.27619
4054	0	0.0555556
4055	0	0.0555556
4056	0	0.0555556
4057	0	0.0555556
4058	0	0.0555556
4059	0	0.0277778
4060	0	0
4061	0	0
4062	0	0.506568
4063	0	0.506284
4064	0	0.0357143
4065	0	0.0357143
4066	0	0.0357143
4067	0	0.0357143
4068	0	0.0357143
4069	0	0
4070	0	0
4071	0	0
4072	0	0
4073	0	0
4074	0	0
4075	0	0
4076	0	0
4077	0	0
4078	0	0.126316
4079	0	0.0367647
4080	0	0.573538
4081	0	0.553015
4082	0	0.532589
4083	0	0.282205
4084	0	0
4085	0	0
4086	0	0
4087	0	0
4088	0	0
4089	0	0
4090	0	0
4091	0	0
4092	0	0
4093	0	0
4094	0	0
4095	0	0
4096	0	0
4097	0	0.0277778
4098	0	0.0277778
4099	0	0.0277778
4100	0	0.0277778
4101	0	0.0277778
4102	0	0.0277778
4103	0	0.0277778
4104	0	0
4105	0	0
4106	0	0
4107	0	0.383572
4108	0	0.0294118
4109	0	0.0392157
4110	0	0.0666667
4111	0	0.0684211
4112	0	0.583447
4113	0	0.345213
4114	0	0.0292398
4115	0	0.0294118
4116	0	0.0166667
4117	0	0.0190476
4118	0	0.0190476
4119	0	0.0190476
4120	0	0.0190476
4121	0	0.0190476
4122	0	0.0190476
4123	0	0.0190476
4124	0	0.00952381
4125	0	0.00952381
4126	0	0.010989
4127	0	0.010989
4128	0	0.010989
4129	0	0.010989
4130	0	0.010989
4131	0	0.010989
4132	0	0.0128205
4133	0	0
4134	0	0
4135	0	0
4136	0	0
4137	0	0
4138	0	0
4139	0	0
4140	0	0
4141	0	0
4142	0	0
4143	0	0
4144	0	0
4145	0	0.0277778
4146	0	0.0277778
4147	0	0.0357143
4148	0	0
4149	0	0
4150	0	0
4151	0	0
4152	0	0
4153	0	0
4154	0	0
4155	0	0
4156	0	0
4157	0	0
4158	0	0
4159	0	0
4160	0	0
4161	0	0
4162	0	0
4163	0	0
4164	0	0
4165	0	0
4166	0	0
4167	0	0
4168	0	0
4169	0	0
4170	0	0
4171	0	0
4172	0	0
4173	0	0
4174	0	0
4175	0	0.0666667
4176	0	0.0666667
4177	0	0.0666667
4178	0	0.0666667
4179	0	0.0666667
4180	0	0.0666667
4181	0	0.0666667
4182	0	0.0666667
4183	0	0.0666667
4184	0	0.0666667
4185	0	0
4186	0	0
4187	0	0
4188	0	0
4189	0	0
4190	0	0
4191	0	0
4192	0	0
4193	0	0
4194	0	0
4195	0	0
4196	0	0
4197	0	0
4198	0	0
4199	0	0
4200	0	0
4201	0	0
4202	0	0
4203	0	0
4204	0	0
4205	0	0
4206	0	0
4207	0	0
4208	0	0
4209	0	0
4210	0	0
4211	0	0
4212	0	0
4213	0	0
4214	0	0
4215	0	0
4216	0	0
4217	0	0
4218	0	0
4219	0	0
4220	0	0
4221	0	0
4222	0	0
4223	0	0
4224	0	0
4225	0	0
4226	0	0
4227	0	0
4228	0	0
4229	0	0
4230	0	0
4231	0	0
4232	0	0
4233	0	0
4234	0	0
4235	0	0
4236	0	0
4237	0	0
4238	0	0
4239	0	0
4240	0	0
4241	0	0
4242	0	0
4243	0	0
4244	0	0
4245	0	0
4246	0	0
4247	0	0
4248	0	0
4249	0	0
4250	0	0
4251	0	0
4252	0	0
4253	0	0
4254	0	0
4255	0	0
4256	0	0
4257	0	0
4258	0	0
4259	0	0
4260	0	0
4261	0	0
4262	0	0
4263	0	0
4264	0	0
4265	0	0
4266	0	0
4267	0	0
4268	0	0
4269	0	0
4270	0	0
4271	0	0
4272	0	0
4273	0	0
4274	0	0
4275	0	0
4276	0	0
4277	0	0
4278	0	0
4279	0	0
4280	0	0
4281	0	0
4282	0	0
4283	0	0
4284	0	0
4285	0	0
4286	0	0
4287	0	0
4288	0	0
4289	0	0
4290	0	0
4291	0	0
4292	0	0
4293	0	0
4294	0	0
4295	0	0
4296	0	0
4297	0	0
4298	0	0
4299	0	0
4300	0	0
4301	0	0
4302	0	0
4303	0	0
4304	0	0
4305	0	0
4306	0	0
4307	0	0
4308	0	0
4309	0	0
4310	0	0
4311	0	0
4312	0	0
4313	0	0
4314	0	0
4315	0	0
4316	0	0
4317	0	0
4318	0	0
4319	0	0
4320	0	0
4321	0	0
4322	0	0
4323	0	0
4324	0	0
4325	0	0
4326	0	0
4327	0	0
4328	0	0
4329	0	0
4330	0	0
4331	0	0
4332	0	0
4333	0	0
4334	0	0
4335	0	0
4336	0	0
4337	0	0
4338	0	0
4339	0	0
4340	0	0
4341	0	0
4342	0	0
4343	0	0
4344	0	0
4345	0	0
4346	0	0
4347	0	0
4348	0	0
4349	0	0
4350	0	0
4351	0	0
4352	0	0
4353	0	0
4354	0	0
4355	0	0
4356	0	0
4357	0	0
4358	0	0
4359	0	0
4360	0	0
4361	0	0
4362	0	0
4363	0	0
4364	0	0
4365	0	0
4366	0	0
4367	0	0
4368	0	0
4369	0	0
4370	0	0
4371	0	0
4372	0	0
4373	0	0
4374	0	0
4375	0	0
4376	0	0
4377	0	0
4378	0	0
4379	0	0
4380	0	0
4381	0	0
4382	0	0
4383	0	0
4384	0	0
4385	0	0
4386	0	0
4387	0	0
4388	0	0
4389	0	0
4390	0	0
4391	0	0
4392	0	0
4393	0	0
4394	0	0
4395	0	0
4396	0	0
4397	0	0
4398	0	0
4399	0	0
4400	0	0
4401	0	0
4402	0	0
4403	0	0
4404	0	0
4405	0	0
4406	0	0
4407	0	0
4408	0	0
4409	0	0
4410	0	0
4411	0	0
4412	0	0
4413	0	0
4414	0	0
4415	0	0
4416	0	0
4417	0	0
4418	0	0
4419	0	0
4420	0	0
4421	0	0
4422	1	0
4423	1	0
4424	0	0
4425	0	0
4426	0	0
4427	0	0
4428	0	0
4429	0	0
4430	0	0
4431	0	0
4432	0	0
4433	0	0
4434	0	0
4435	0	0
4436	0	0
4437	0	0
4438	0	0
4439	0	0
4440	0	0
4441	0	0
4442	0	0
4443	0	0
4444	0	0
4445	0	0
4446	0	0
4447	0	0
4448	0	0
4449	0	0
4450	0	0
4451	0	0
4452	0	0
4453	0	0
4454	0	0
4455	0	0
4456	0	0
4457	0	0
4458	0	0
4459	0	0
4460	0	0
4461	0	0
4462	0	0
4463	0	0
4464	0	0
4465	0	0
4466	0	0
4467	0	0
4468	0	0
4469	0	0
4470	0	0
4471	0	0
4472	0	0
4473	0	0
4474	0	0
4475	0	0
4476	0	0
4477	0	0
4478	0	0
4479	0	0
4480	0	0
4481	0	0
4482	0	0
4483	0	0
4484	0	0
4485	0	0
4486	0	0
4487	0	0
4488	0	0
4489	0	0
4490	0	0
4491	0	0
4492	0	0
4493	0	0
4494	0	0
4495	1	0
4496	1	0
4497	1	0
4498	1	0
4499	1	0
4500	1	0
4501	1	0
4502	1	0
4503	1	0
4504	1	0
4505	1	0
4506	1	0
4507	1	0
4508	1	0
4509	1	0
4510	1	0
4511	1	0
4512	1	0
4513	1	0
4514	1	0
4515	1	0
4516	1	0
4517	1	0
4518	1	0
4519	1	0
4520	1	0
4521	1	0
4522	1	0
4523	1	0
4524	1	0
4525	1	0
4526	1	0
4527	1	0
4528	1	0
4529	1	0
4530	1	0
4531	1	0
4532	1	0
4533	1	0
4534	1	0
4535	1	0
4536	1	0
4537	1	0
4538	1	0
4539	1	0
4540	1	0
4541	1	0
4542	1	0
4543	1	0
4544	1	0
4545	1	0
4546	1	0
4547	1	0
4548	1	0
4549	1	0
4550	1	0
4551	1	0
4552	1	0
4553	1	0
4554	1	0
4555	1	0
4556	1	0
4557	1	0
4558	1	0
4559	1	0
4560	1	0
4561	1	0
4562	1	0
4563	1	0
4564	1	0
4565	1	0
4566	1	0
4567	1	0
4568	1	0
4569	1	0
4570	1	0
4571	1	0
4572	1	0
4573	1	0
4574	1	0
4575	1	0
4576	1	0
4577	1	0
4578	1	0
4579	1	0
4580	1	0
4581	1	0
4582	1	0
4583	1	0
4584	1	0
4585	1	0
4586	1	0
4587	1	0
4588	1	0
4589	1	0
4590	1	0
4591	1	0
4592	1	0
4593	1	0
4594	1	0
4595	1	0
4596	1	0
4597	1	0
4598	1	0
4599	1	0
4600	1	0
4601	1	0
4602	1	0
4603	1	0
4604	1	0
4605	1	0
4606	1	0
4607	1	0
4608	1	0
4609	1	0
4610	1	0
4611	1	0
4612	1	0
4613	1	0
4614	1	0
4615	1	0
4616	1	0
4617	1	0
4618	1	0
4619	1	0
4620	1	0
4621	1	0
4622	1	0
4623	1	0
4624	1	0
4625	1	0
4626	1	0
4627	1	0
4628	1	0
4629	1	0
4630	1	0
4631	1	0
4632	1	0
4633	1	0
4634	1	0
4635	1	0
4636	1	0
4637	1	0
4638	1	0
4639	1	0
4640	1	0
4641	1	0
4642	1	0
4643	1	0
4644	1	0
4645	1	0
4646	1	0
4647	1	0
4648	1	0
4649	1	0
4650	1	0
4651	1	0
4652	1	0
4653	1	0
4654	1	0
4655	1	0
4656	1	0
4657	1	0
4658	1	0
4659	1	0
4660	1	0
4661	1	0
4662	1	0
4663	1	0
4664	1	0
4665	1	0
4666	1	0
4667	1	0
4668	1	0
4669	1	0
4670	1	0
4671	1	0
4672	1	0
4673	1	0
4674	1	0
4675	1	0
4676	1	0
4677	1	0
4678	1	0
4679	1	0
4680	1	0
4681	1	0
4682	1	0
4683	1	0
4684	1	0
4685	1	0
4686	1	0
4687	1	0
4688	1	0
4689	1	0
4690	1	0
4691	1	0
4692	1	0
4693	1	0
4694	1	0
4695	1	0
4696	1	0
4697	1	0
4698	1	0
4699	1	0
4700	1	0
4701	1	0
4702	1	0
4703	1	0
4704	1	0
4705	1	0
4706	1	0
4707	1	0
4708	1	0
4709	1	0
4710	1	0
4711	1	0
4712	1	0
4713	1	0
4714	1	0
4715	1	0
4716	1	0
4717	1	0
4718	1	0
4719	1	0
4720	1	0
4721	1	0
4722	1	0
4723	1	0
4724	1	0
4725	1	0
4726	1	0
4727	1	0
4728	1	0
4729	1	0
4730	1	0
4731	1	0
4732	1	0
4733	1	0
4734	1	0
4735	1	0
4736	1	0
4737	1	0
4738	1	0
4739	1	0
4740	1	0
4741	1	0
4742	1	0
4743	1	0
4744	1	0
4745	1	0
4746	1	0
4747	1	0
4748	1	0
4749	1	0
4750	1	0
4751	1	0
4752	1	0
4753	1	0
4754	1	0
4755	1	0
4756	1	0
4757	1	0
4758	1	0
4759	1	0
4760	1	0
4761	1	0
4762	1	0
4763	1	0
4764	1	0
4765	1	0
4766	1	0
4767	1	0
4768	1	0
4769	1	0
4770	1	0
4771	1	0
4772	1	0
4773	1	0
4774	1	0
4775	1	0
4776	1	0
4777	1	0
4778	1	0
4779	1	0
4780	1	0
4781	1	0
4782	1	0
4783	1	0
4784	1	0
4785	1	0
4786	1	0
4787	1	0
4788	1	0
4789	1	0
4790	1	0
4791	1	0
4792	1	0
4793	1	0
4794	1	0
4795	1	0
4796	1	0
4797	1	0
4798	1	0
4799	1	0
4800	1	0
4801	1	0
4802	1	0
4803	1	0
4804	1	0
4805	1	0
4806	1	0
4807	1	0
4808	1	0
4809	1	0
4810	1	0
4811	1	0
4812	1	0
4813	1	0
4814	1	0
4815	1	0
4816	1	0
4817	1	0
4818	1	0
4819	1	0
4820	1	0
4821	1	0
4822	1	0
4823	1	0
4824	1	0
4825	1	0
4826	1	0
4827	1	0
4828	1	0
4829	1	0
4830	1	0
4831	1	0
4832	1	0
4833	1	0
4834	1	0
4835	1	0
4836	1	0
4837	1	0
4838	1	0
4839	1	0
4840	1	0
4841	1	0
4842	1	0
4843	1	0
4844	1	0
4845	1	0
4846	1	0
4847	1	0
4848	1	0
4849	1	0
4850	1	0
4851	1	0
4852	1	0
4853	1	0
4854	1	0
4855	1	0
4856	1	0
4857	1	0
4858	1	0
4859	1	0
4860	1	0
4861	1	0
4862	1	0
4863	1	0
4864	1	0
4865	1	0
4866	1	0
4867	1	0
4868	1	0
4869	1	0
4870	1	0
4871	1	0
4872	1	0
4873	1	0
4874	1	0
4875	1	0
4876	1	0
4877	1	0
4878	1	0
4879	1	0
4880	1	0
4881	1	0
4882	1	0
4883	1	0
4884	1	0
4885	1	0
4886	1	0
4887	1	0
4888	1	0
4889	1	0
4890	1	0
4891	1	0
4892	1	0
4893	1	0
4894	1	0
4895	1	0
4896	1	0
4897	1	0
4898	1	0
4899	1	0
4900	1	0
4901	1	0
4902	1	0
4903	1	0
4904	1	0
4905	1	0
4906	1	0
4907	1	0
4908	1	0
4909	1	0
4910	1	0
4911	1	0
4912	1	0
4913	1	0
4914	1	0
4915	1	0
4916	1	0
4917	1	0
4918	1	0
4919	1	0
4920	1	0
4921	1	0
4922	1	0
4923	1	0
4924	1	0
4925	1	0
4926	1	0
4927	1	0
4928	1	0
4929	1	0
4930	1	0
4931	1	0
4932	1	0
4933	1	0
4934	1	0
4935	1	0
4936	1	0
4937	1	0
4938	1	0
4939	1	0
4940	1	0
4941	1	0
4942	1	0
4943	1	0
4944	1	0
4945	1	0
4946	1	0
4947	1	0
4948	1	0
4949	1	0
4950	1	0
4951	1	0
4952	1	0
4953	1	0
4954	1	0
4955	1	0
4956	1	0
4957	1	0
4958	1	0
4959	1	0
4960	1	0
4961	1	0
4962	1	0
4963	1	0
4964	1	0
4965	1	0
4966	1	0
4967	1	0
4968	1	0
4969	1	0
4970	1	0
4971	1	0
4972	1	0
4973	1	0
4974	1	0
4975	1	0
4976	1	0
4977	1	0
4978	1	0
4979	1	0
4980	1	0
4981	1	0
4982	1	0
4983	1	0
4984	1	0
4985	1	0
4986	1	0
4987	1	0
4988	1	0
4989	1	0
4990	1	0
4991	1	0
4992	1	0
4993	1	0
4994	1	0
4995	1	0
4996	1	0
4997	1	0
4998	1	0
4999	1	0
5000	1	0
5001	1	0
5002	1	0
5003	1	0
5004	1	0
5005	1	0
5006	1	0
5007	1	0
5008	1	0
5009	1	0
5010	1	0
5011	1	0
5012	1	0
5013	1	0
5014	1	0
5015	1	0
5016	1	0
5017	1	0
5018	1	0
5019	1	0
5020	1	0
5021	1	0
5022	1	0
5023	1	0
5024	1	0
5025	1	0
5026	1	0
5027	1	0
5028	1	0
5029	1	0
5030	1	0
5031	1	0
5032	1	0
5033	1	0
5034	1	0
5035	1	0
5036	1	0
5037	1	0
5038	1	0
5039	1	0
5040	1	0
5041	1	0
5042	1	0
5043	1	0
5044	1	0
5045	1	0
5046	1	0
5047	1	0
5048	1	0
5049	1	0
5050	1	0
5051	1	0
5052	1	0
5053	1	0
5054	1	0
5055	1	0
5056	1	0
5057	1	0
5058	1	0
5059	1	0
5060	1	0
5061	1	0
5062	1	0
5063	1	0
5064	1	0
5065	1	0
5066	1	0
5067	1	0
5068	1	0
5069	1	0
5070	1	0
5071	1	0
5072	1	0
5073	1	0
5074	1	0
5075	1	0
5076	1	0
5077	1	0
5078	1	0
5079	1	0
5080	1	0
5081	1	0
5082	1	0
5083	1	0
5084	1	0
5085	1	0
5086	1	0
5087	1	0
5088	1	0
5089	1	0
5090	1	0
5091	1	0
5092	1	0
5093	1	0
5094	1	0
5095	1	0
5096	1	0
5097	1	0
5098	1	0
5099	1	0
5100	1	0
5101	1	0
5102	1	0
5103	1	0
5104	1	0
5105	1	0
5106	1	0
5107	1	0
5108	1	0
5109	1	0
5110	1	0
5111	1	0
5112	1	0
5113	1	0
5114	1	0
5115	1	0
5116	1	0
5117	1	0
5118	1	0
5119	1	0
5120	1	0
5121	1	0
5122	1	0
5123	1	0
5124	1	0
5125	1	0
5126	1	0
5127	1	0
5128	1	0
5129	1	0
5130	1	0
5131	1	0
5132	1	0
5133	1	0
5134	1	0
5135	1	0
5136	1	0
5137	1	0
5138	1	0
5139	1	0
5140	1	0
5141	1	0
5142	1	0
5143	1	0
5144	1	0
5145	1	0
5146	1	0
5147	1	0
5148	1	0
5149	1	0
5150	1	0
5151	1	0
5152	1	0
5153	1	0
5154	1	0
5155	1	0
5156	1	0
5157	1	0
5158	1	0
5159	1	0
5160	1	0
5161	1	0
5162	1	0
5163	1	0
5164	1	0
5165	1	0
5166	1	0
5167	1	0
5168	1	0
5169	1	0
5170	1	0
5171	1	0
5172	1	0
5173	1	0
5174	1	0
5175	1	0
5176	1	0
5177	1	0
5178	1	0
5179	1	0
5180	1	0
5181	1	0
5182	1	0
5183	1	0
5184	1	0
5185	1	0
5186	1	0
5187	1	0
5188	1	0
5189	1	0
5190	1	0
5191	1	0
5192	1	0
5193	1	0
5194	1	0
5195	1	0
5196	1	0
5197	1	0
5198	1	0
5199	1	0
5200	1	0
5201	1	0
5202	1	0
5203	1	0
5204	1	0
5205	1	0
5206	1	0
5207	1	0
5208	1	0
5209	1	0
5210	1	0
5211	1	0
5212	1	0
5213	1	0
5214	1	0
5215	1	0
5216	1	0
5217	1	0
5218	1	0
5219	1	0
5220	1	0
5221	1	0
5222	1	0
5223	1	0
5224	1	0
5225	1	0
