Site	ColumnScore	SumOfPairsScore
1	1	0
2	1	0
3	1	0
4	1	0
5	1	0
6	1	0
7	1	0
8	1	0
9	1	0
10	1	0
11	1	0
12	1	0
13	1	0
14	1	0
15	1	0
16	1	0
17	1	0
18	1	0
19	1	0
20	1	0
21	1	0
22	0	0.333333
23	0	0.333333
24	0	0.333333
25	0	0.333333
26	0	0.333333
27	0	0.333333
28	0	0.333333
29	0	0
30	0	0
31	0	0
32	0	0
33	0	0.333333
34	0	0.333333
35	0	0.333333
36	0	0.333333
37	0	0.333333
38	0	0.333333
39	0	0.333333
40	0	0.333333
41	0	0.333333
42	0	0.333333
43	0	0.333333
44	0	0.333333
45	0	0.333333
46	0	0.333333
47	0	0.333333
48	0	0.333333
49	0	0.333333
50	0	0.333333
51	0	0.333333
52	0	0.333333
53	0	0.333333
54	0	0.333333
55	0	0.166667
56	0	0.166667
57	0	0.166667
58	0	0.166667
59	0	0.166667
60	0	0.166667
61	0	0.166667
62	0	0.166667
63	0	0.166667
64	0	0.166667
65	0	0.166667
66	0	0.166667
67	0	0.166667
68	0	0.166667
69	0	0.166667
70	0	0.166667
71	0	0.166667
72	0	0.166667
73	0	0.166667
74	0	0.166667
75	0	0.1
76	0	0.0666667
77	0	0.0666667
78	0	0.0666667
79	0	0.0666667
80	0	0.0666667
81	0	0.0666667
82	0	0.0666667
83	0	0.0666667
84	0	0.0666667
85	0	0.0666667
86	0	0.0666667
87	0	0.0666667
88	0	0.0666667
89	0	0.0666667
90	0	0
91	0	0
92	0	0
93	0	0
94	0	0
95	0	0
96	0	0
97	0	0
98	0	0
99	0	0
100	0	0
101	0	0
102	0	0
103	0	0
104	0	0
105	0	0.0357143
106	0	0.0357143
107	0	0.0357143
108	0	0.0357143
109	0	0.0357143
110	0	0.0357143
111	0	0.0277778
112	0	0.0277778
113	0	0.0277778
114	0	0.0277778
115	0	0.0277778
116	0	0.0277778
117	0	0.0277778
118	0	0.0277778
119	0	0.0222222
120	0	0.0222222
121	0	0.0222222
122	0	0.0222222
123	0	0.0181818
124	0	0.0181818
125	0	0.0151515
126	0	0.0151515
127	0	0.0151515
128	0	0.025641
129	0	0.025641
130	0	0.021978
131	0	0.021978
132	0	0.021978
133	0	0.0190476
134	0	0.0147059
135	0	0.0130719
136	0	0.0130719
137	0	0.0130719
138	0	0.0157895
139	0	0.021645
140	0	0.0253623
141	0	0.0266667
142	0	0.0266667
143	0	0.0266667
144	0	0.0276923
145	0	0.0246154
146	0	0.0276923
147	0	0.0276923
148	0	0.0246154
149	0	0.0215385
150	0	0.0184615
151	0	0.0276923
152	0	0.0185185
153	0	0.016092
154	0	0.016092
155	0	0.0129032
156	0	0.0129032
157	0	0.0172043
158	0	0.0141129
159	0	0.0172043
160	0	0.016129
161	0	0.0181452
162	0	0.0189394
163	0	0.0189394
164	0	0.0530303
165	0	0.0530303
166	0	0.0470588
167	0	0.0504202
168	0	0.0412518
169	0	0.0391363
170	0	0.0384615
171	0	0.0538462
172	0	0.0628205
173	0	0.0597561
174	0	0.068525
175	0	0.0985604
176	0	0.10461
177	0	0.0995918
178	0	0.0794613
179	0	0.0750151
180	0	0.0883131
181	0	0.07277
182	0	0.092827
183	0	0.0764453
184	0	0.0613648
185	0	0.0496188
186	0	0.0324256
187	0	0.263146
188	0	0.262143
189	0	0.256321
190	0	0.256342
191	0	0.261177
192	0	0.262973
193	0	0.29109
194	0	0.293
195	0	0.300153
196	0	0.301434
197	0	0.308376
198	0	0.311168
199	0	0.249493
200	0	0
201	0	0
202	0	0
203	0	0
204	0	0
205	0	0
206	0	0
207	0	0
208	0	0
209	0	0
210	0	0
211	0	0
212	0	0
213	0	0
214	0	0
215	0	0
216	0	0
217	0	0
218	0	0
219	0	0
220	0	0
221	0	0
222	0	0
223	0	0
224	0	0.0211538
225	0	0.0205128
226	0	0.0221154
227	0	0.0218254
228	0	0.0223214
229	0	0.0225294
230	0	0.015377
231	0	0.012664
232	0	0.0128364
233	0	0.0144391
234	0	0.0246465
235	0	0.381741
236	0	0.344864
237	0	0.33969
238	0	0.327702
239	0	0.320949
240	0	0.319575
241	0	0.322845
242	0	0.3178
243	0	0.280003
244	0	0.279045
245	0	0.276082
246	0	0.202537
247	0	0.179498
248	0	0.144264
249	0	0.133757
250	0	0.106566
251	0	0.0932564
252	0	0.0732879
253	0	0.0672309
254	0	0.072526
255	0	0.0793307
256	0	0.0759953
257	0	0.0747863
258	0	0.0854632
259	0	0.116933
260	0	0.128694
261	0	0.157595
262	0	0.187976
263	0	0.227743
264	0	0.251922
265	0	0.361702
266	0	0.394203
267	0	0.0166667
268	0	0.0151515
269	0	0.0222222
270	0	0
271	0	0
272	0	0
273	0	0
274	0	0
275	0	0
276	0	0
277	0	0
278	0	0
279	0	0
280	0	0
281	0	0
282	0	0
283	0	0
284	0	0
285	0	0
286	0	0
287	0	0
288	0	0
289	0	0
290	0	0
291	0	0
292	0	0
293	0	0
294	0	0
295	0	0
296	0	0
297	0	0
298	0	0
299	0	0
300	0	0
301	0	0
302	0	0
303	0	0
304	0	0
305	0	0
306	0	0
307	0	0
308	0	0
309	0	0
310	0	0
311	0	0
312	0	0
313	0	0
314	0	0
315	0	0
316	0	0
317	0	0
318	0	0
319	0	0
320	0	0
321	0	0.0277778
322	0	0.0444444
323	0	0.0222222
324	0	0.0222222
325	0	0.0222222
326	0	0.0222222
327	0	0
328	0	0.032967
329	0	0.0583333
330	0	0
331	0	0
332	0	0
333	0	0
334	0	0
335	0	0
336	0	0
337	0	0.166667
338	0	0.166667
339	0	0.166667
340	0	0.166667
341	0	0.166667
342	0	0.1
343	0	0.1
344	0	0.1
345	0	0.1
346	0	0.205128
347	0	0.415789
348	0	0
349	0	0
350	0	0
351	0	0
352	0	0
353	0	0
354	0	0
355	0	0
356	0	0
357	0	0
358	0	0
359	0	0
360	0	0
361	0	0
362	0	0
363	0	0
364	0	0
365	0	0
366	0	0
367	0	0
368	0	0
369	0	0
370	0	0
371	0	0
372	0	0
373	0	0
374	0	0
375	0	0
376	0	0
377	0	0
378	0	0
379	0	0
380	0	0
381	0	0
382	0	0
383	0	0
384	0	0
385	0	0
386	0	0
387	0	0
388	0	0
389	0	0
390	0	0
391	0	0
392	0	0
393	0	0
394	0	0
395	0	0
396	0	0
397	0	0
398	0	0
399	0	0
400	0	0
401	0	0
402	0	0
403	0	0
404	0	0
405	0	0
406	0	0
407	0	0
408	0	0
409	0	0
410	0	0
411	0	0
412	0	0
413	0	0
414	0	0
415	0	0
416	0	0
417	0	0
418	0	0
419	0	0
420	0	0
421	0	0
422	0	0
423	0	0
424	0	0
425	0	0
426	0	0
427	0	0
428	0	0
429	0	0
430	0	0
431	0	0
432	0	0
433	0	0
434	0	0
435	0	0
436	0	0
437	0	0
438	0	0
439	0	0
440	0	0
441	0	0
442	0	0
443	0	0
444	0	0
445	0	0
446	0	0
447	0	0
448	0	0
449	0	0
450	0	0
451	0	0
452	0	0
453	0	0
454	0	0
455	0	0
456	0	0
457	0	0
458	0	0.0588235
459	0	0.0995733
460	0	0.0839318
461	0	0.104507
462	0	0.13839
463	0	0.157152
464	0	0.152146
465	0	0.158832
466	0	0.0714286
467	0	0.0555556
468	0	0.1
469	0	0.1
470	0	0.1
471	0	0.1
472	0	0.1
473	0	0.1
474	0	0.0666667
475	0	0.0666667
476	0	0.0666667
477	0	0.0666667
478	0	0.0666667
479	0	0.0666667
480	0	0.0666667
481	0	0
482	0	0
483	0	0
484	0	0
485	0	0
486	0	0
487	0	0
488	0	0
489	0	0
490	0	0
491	0	0
492	0	0
493	0	0
494	0	0
495	0	0
496	0	0
497	0	0
498	0	0
499	0	0
500	0	0
501	0	0
502	0	0
503	0	0
504	0	0
505	0	0
506	0	0
507	0	0
508	0	0
509	0	0
510	0	0
511	0	0
512	0	0
513	0	0
514	0	0.0277778
515	0	0.0181818
516	0	0.0588235
517	0	0.0526316
518	0	0.105911
519	0	0.116144
520	0	0.134135
521	0	0.418102
522	0	0.489862
523	0	0.497477
524	0	0.506538
525	0	0.396104
526	0	0.424878
527	0	0.0784314
528	0	0.0808824
529	0	0.117647
530	0	0.117647
531	0	0.161765
532	0	0.230053
533	0	0.0933333
534	0	0.110672
535	0	0.110672
536	0	0.110672
537	0	0.108696
538	0	0.161765
539	0	0.161765
540	0	0.183333
541	0	0.183333
542	0	0.183333
543	0	0.183333
544	0	0.245059
545	0	0.540859
546	0	0.589113
547	0	0.783179
548	0	0.183712
549	0	0.205128
550	0	0.24
551	0	0.366667
552	0	0.41
553	0	0.670978
554	0	0.674991
555	0	0.683218
556	0	0.885486
557	0	0
558	0	0
559	0	0
560	0	0
561	0	0
562	0	0
563	0	0
564	0	0
565	0	0
566	0	0
567	0	0
568	0	0
569	0	0
570	0	0
571	0	0
572	0	0
573	0	0
574	0	0
575	0	0
576	0	0
577	0	0
578	0	0
579	0	0
580	0	0
581	0	0
582	0	0
583	0	0
584	0	0
585	0	0
586	0	0
587	0	0
588	0	0
589	0	0
590	0	0
591	0	0
592	0	0
593	0	0
594	0	0
595	0	0
596	0	0
597	0	0
598	0	0
599	0	0
600	0	0
601	0	0
602	0	0
603	0	0
604	0	0
605	0	0
606	0	0
607	0	0
608	0	0
609	0	0
610	0	0
611	0	0
612	0	0
613	0	0
614	0	0
615	0	0
616	0	0
617	0	0
618	0	0
619	0	0
620	0	0
621	0	0
622	0	0
623	0	0
624	0	0
625	0	0
626	0	0
627	0	0
628	0	0
629	0	0
630	0	0
631	0	0
632	0	0
633	0	0
634	0	0
635	0	0
636	0	0
637	0	0
638	0	0
639	0	0
640	0	0
641	0	0
642	0	0
643	0	0
644	0	0
645	0	0
646	0	0
647	0	0
648	0	0
649	0	0
650	0	0
651	0	0
652	0	0
653	0	0
654	0	0
655	0	0
656	0	0
657	0	0
658	0	0
659	0	0
660	0	0
661	0	0
662	0	0
663	0	0
664	0	0
665	0	0
666	0	0
667	0	0
668	0	0
669	0	0
670	0	0
671	0	0
672	0	0
673	0	0
674	0	0
675	0	0
676	0	0
677	0	0
678	0	0
679	0	0
680	0	0
681	0	0
682	0	0
683	0	0
684	0	0
685	0	0
686	0	0
687	0	0
688	0	0
689	0	0
690	0	0
691	0	0
692	0	0
693	0	0
694	0	0
695	0	0
696	0	0
697	0	0
698	0	0
699	0	0
700	0	0
701	0	0
702	0	0
703	0	0
704	0	0
705	0	0
706	0	0
707	0	0
708	0	0
709	0	0
710	0	0
711	0	0
712	0	0
713	0	0
714	0	0
715	0	0
716	0	0
717	0	0
718	0	0
719	0	0
720	0	0
721	0	0
722	0	0
723	0	0
724	0	0
725	0	0
726	0	0
727	0	0
728	0	0
729	0	0
730	0	0
731	0	0
732	0	0
733	0	0
734	0	0
735	0	0
736	0	0
737	0	0
738	0	0
739	0	0
740	0	0
741	0	0
742	0	0
743	0	0
744	0	0
745	0	0
746	0	0
747	0	0
748	1	0
749	1	0
750	1	0
751	0	0
752	0	0
753	0	0
754	0	0
755	0	0
756	0	0
757	0	0
758	0	0
759	0	0
760	0	0
761	0	0
762	0	0
763	0	0
764	0	0
765	0	0
766	0	0
767	0	0
768	0	0
769	0	0
770	0	0
771	0	0
772	0	0
773	0	0
774	0	0
775	0	0
776	0	0
777	0	0
778	0	0
779	0	0
780	0	0
781	0	0
782	0	0
783	0	0
784	0	0
785	0	0
786	0	0
787	0	0
788	0	0
789	0	0
790	0	0
791	0	0
792	0	0
793	0	0
794	0	0
795	0	0
796	0	0
797	0	0
798	0	0
799	0	0
800	0	0
801	0	0
802	0	0
803	0	0
804	0	0
805	0	0
806	0	0
807	0	0
808	0	0
809	0	0
810	0	0
811	0	0
812	0	0
813	0	0
814	0	0
815	0	0
816	0	0
817	0	0
818	0	0
819	0	0
820	0	0
821	0	0
822	0	0
823	0	0
824	0	0
825	0	0
826	0	0
827	0	0
828	0	0
829	0	0
830	0	0
831	0	0
832	0	0
833	0	0
834	0	0
835	0	0
836	0	0
837	0	0
838	0	0
839	0	0
840	0	0
841	0	0
842	0	0
843	0	0
844	0	0
845	0	0
846	0	0
847	0	0
848	0	0
849	0	0
850	0	0
851	0	0
852	0	0
853	0	0
854	0	0
855	0	0
856	0	0
857	0	0
858	0	0
859	0	0
860	0	0
861	0	0
862	0	0
863	0	0
864	0	0
865	0	0
866	0	0
867	0	0
868	0	0
869	0	0
870	0	0
871	0	0
872	0	0
873	0	0
874	0	0
875	0	0
876	0	0
877	0	0
878	0	0
879	0	0
880	0	0
881	0	0
882	0	0.86801
883	0	0.86872
884	0	0.867078
885	0	0.867078
886	0	0.883611
887	0	0.47619
888	0	0.893548
889	0	0.89524
890	0	0
891	0	0
892	0	0
893	0	0
894	0	0
895	0	0
896	0	0
897	0	0
898	0	0
899	0	0
900	0	0
901	0	0
902	0	0
903	0	0
904	0	0
905	0	0
906	0	0
907	0	0
908	0	0
909	0	0
910	0	0
911	0	0
912	0	0
913	0	0
914	0	0
915	0	0
916	0	0.896851
917	0	0
918	0	0
919	0	0
920	0	0
921	0	0
922	0	0
923	0	0
924	0	0
925	0	0
926	0	0
927	0	0
928	0	0
929	0	0
930	0	0
931	0	0
932	0	0
933	0	0
934	0	0
935	0	0
936	0	0
937	0	0
938	0	0
939	0	0
940	0	0
941	0	0
942	0	0
943	0	0
944	0	0
945	0	0
946	0	0
947	0	0
948	0	0
949	0	0
950	0	0
951	0	0.0666667
952	0	0.0666667
953	0	0.0666667
954	0	0.895238
955	0	0.895238
956	0	0.893065
957	0	0
958	0	0
959	0	0
960	0	0
961	0	0
962	0	0
963	0	0
964	0	0
965	0	0
966	0	0
967	0	0
968	0	0
969	0	0
970	0	0
971	0	0
972	0	0
973	0	0
974	0	0
975	0	0
976	0	0
977	0	0
978	0	0
979	0	0
980	0	0
981	0	0
982	0	0
983	0	0
984	0	0
985	0	0
986	0	0
987	0	0.892871
988	0	0.889283
989	0	0.889283
990	0	0.889383
991	0	0
992	0	0
993	0	0
994	0	0
995	0	0
996	0	0
997	0	0
998	0	0
999	0	0
1000	0	0
1001	0	0
1002	0	0
1003	0	0
1004	0	0
1005	0	0
1006	0	0
1007	0	0
1008	0	0
1009	0	0
1010	0	0
1011	0	0
1012	0	0
1013	0	0
1014	0	0
1015	0	0
1016	0	0
1017	0	0.166667
1018	0	0.166667
1019	0	0
1020	0	0
1021	0	0
1022	0	0
1023	0	0
1024	0	0
1025	0	0
1026	0	0.1
1027	0	0.1
1028	0	0.1
1029	0	0.0666667
1030	0	0.047619
1031	0	0.0833333
1032	0	0.391038
1033	0	0.3
1034	0	0.3
1035	0	0.1
1036	0	0.166667
1037	0	0.166667
1038	0	0.166667
1039	0	0.166667
1040	0	0.166667
1041	0	0.166667
1042	0	0.166667
1043	0	0.166667
1044	0	0.166667
1045	0	0.166667
1046	0	0.166667
1047	0	0.166667
1048	0	0.166667
1049	0	0.166667
1050	0	0.166667
1051	0	0
1052	0	0
1053	0	0
1054	0	0
1055	0	0
1056	0	0
1057	0	0
1058	0	0
1059	0	0
1060	0	0
1061	0	0
1062	0	0
1063	0	0
1064	0	0
1065	0	0
1066	0	0
1067	0	0
1068	0	0
1069	0	0
1070	0	0
1071	0	0
1072	0	0
1073	0	0
1074	0	0
1075	0	0
1076	0	0
1077	0	0
1078	0	0
1079	0	0
1080	0	0
1081	0	0
1082	0	0
1083	0	0
1084	0	0
1085	0	0
1086	0	0
1087	0	0
1088	0	0
1089	0	0
1090	0	0
1091	0	0
1092	0	0
1093	0	0
1094	0	0
1095	0	0
1096	0	0
1097	0	0
1098	0	0
1099	0	0
1100	0	0
1101	0	0
1102	0	0
1103	0	0
1104	0	0
1105	0	0
1106	0	0
1107	0	0
1108	0	0
1109	0	0
1110	0	0
1111	0	0
1112	0	0
1113	0	0
1114	0	0
1115	0	0
1116	0	0
1117	0	0
1118	0	0
1119	0	0
1120	0	0
1121	0	0
1122	0	0
1123	0	0
1124	0	0
1125	0	0
1126	0	0
1127	0	0
1128	0	0
1129	0	0
1130	0	0
1131	0	0
1132	0	0
1133	0	0
1134	0	0
1135	0	0
1136	0	0
1137	0	0
1138	0	0
1139	0	0
1140	0	0
1141	0	0
1142	0	0
1143	0	0
1144	0	0
1145	0	0
1146	0	0
1147	0	0
1148	0	0
1149	0	0
1150	0	0
1151	0	0
1152	0	0
1153	0	0
1154	0	0
1155	0	0
1156	0	0
1157	0	0
1158	0	0
1159	0	0
1160	0	0
1161	0	0
1162	0	0
1163	0	0
1164	0	0
1165	0	0
1166	0	0
1167	0	0
1168	0	0
1169	0	0
1170	0	0
1171	0	0
1172	0	0
1173	0	0
1174	0	0
1175	0	0
1176	0	0
1177	0	0
1178	0	0
1179	0	0
1180	0	0
1181	0	0
1182	0	0
1183	0	0
1184	0	0
1185	0	0
1186	0	0
1187	0	0
1188	0	0
1189	0	0
1190	0	0
1191	0	0
1192	0	0
1193	0	0
1194	0	0
1195	0	0
1196	0	0
1197	0	0
1198	0	0
1199	0	0
1200	0	0
1201	0	0
1202	0	0
1203	0	0
1204	0	0
1205	0	0
1206	0	0
1207	0	0
1208	0	0
1209	0	0
1210	0	0
1211	0	0
1212	0	0
1213	0	0
1214	0	0
1215	0	0
1216	0	0
1217	0	0
1218	0	0
1219	0	0
1220	0	0
1221	0	0
1222	0	0
1223	0	0
1224	0	0
1225	0	0
1226	0	0
1227	0	0
1228	0	0
1229	0	0
1230	0	0
1231	0	0
1232	0	0
1233	0	0
1234	0	0
1235	0	0
1236	0	0
1237	0	0
1238	0	0
1239	0	0
1240	0	0
1241	0	0
1242	0	0
1243	0	0
1244	0	0
1245	0	0
1246	0	0
1247	0	0
1248	0	0
1249	0	0
1250	0	0
1251	0	0
1252	0	0
1253	0	0
1254	0	0
1255	0	0
1256	0	0
1257	0	0
1258	0	0
1259	0	0
1260	0	0
1261	0	0
1262	0	0
1263	0	0
1264	0	0
1265	0	0
1266	0	0
1267	0	0
1268	0	0
1269	0	0
1270	0	0
1271	0	0
1272	0	0
1273	0	0
1274	0	0
1275	0	0
1276	0	0
1277	0	0
1278	0	0
1279	0	0
1280	0	0
1281	0	0
1282	0	0
1283	0	0
1284	0	0
1285	0	0
1286	0	0
1287	0	0
1288	0	0
1289	0	0
1290	0	0
1291	0	0
1292	0	0
1293	0	0
1294	0	0
1295	0	0
1296	0	0
1297	0	0
1298	0	0
1299	0	0
1300	0	0
1301	0	0
1302	0	0
1303	0	0
1304	0	0
1305	0	0
1306	0	0
1307	0	0
1308	0	0
1309	0	0
1310	0	0
1311	0	0
1312	0	0
1313	0	0
1314	0	0
1315	0	0
1316	0	0
1317	0	0
1318	0	0
1319	0	0
1320	0	0
1321	0	0
1322	0	0
1323	0	0
1324	0	0
1325	0	0
1326	0	0
1327	0	0
1328	0	0
1329	0	0
1330	0	0
1331	0	0
1332	0	0
1333	0	0
1334	0	0
1335	0	0
1336	0	0
1337	0	0.388648
1338	0	0.491124
1339	0	0.0555556
1340	0	0.107143
1341	0	0.107143
1342	0	0.190476
1343	0	0.1
1344	0	0.1
1345	0	0.1
1346	0	0.1
1347	0	0.166667
1348	0	0.166667
1349	0	0.166667
1350	0	0.166667
1351	0	0.802737
1352	0	0.895429
1353	0	0.895429
1354	0	0.89456
1355	0	0.884554
1356	0	0
1357	0	0
1358	0	0
1359	0	0
1360	0	0
1361	0	0.892968
1362	0	0.891272
1363	0	0.891272
1364	0	0.892968
1365	0	0.893065
1366	0	0
1367	0	0
1368	0	0
1369	0	0
1370	0	0.888003
1371	0	0.87766
1372	0	0.812871
1373	0	0.807777
1374	0	0.884344
1375	0	0.885921
1376	0	0.127273
1377	0	0.151515
1378	0	0.181818
1379	0	0.181818
1380	0	0
1381	0	0
1382	0	0
1383	0	0
1384	0	0
1385	0	0
1386	0	0
1387	0	0
1388	0	0
1389	0	0
1390	0	0
1391	0	0
1392	0	0
1393	0	0
1394	0	0
1395	0	0
1396	0	0
1397	0	0
1398	0	0
1399	0	0
1400	0	0
1401	0	0
1402	0	0
1403	0	0.845314
1404	0	0
1405	0	0
1406	0	0
1407	0	0
1408	0	0
1409	0	0
1410	0	0
1411	0	0
1412	0	0
1413	0	0
1414	0	0
1415	0	0
1416	0	0
1417	0	0
1418	0	0
1419	0	0
1420	0	0
1421	0	0
1422	0	0
1423	0	0
1424	0	0
1425	0	0
1426	0	0
1427	0	0
1428	0	0
1429	0	0
1430	0	0
1431	0	0
1432	0	0
1433	0	0
1434	0	0
1435	0	0
1436	0	0
1437	0	0
1438	0	0
1439	0	0
1440	0	0
1441	0	0
1442	0	0
1443	0	0
1444	0	0
1445	0	0
1446	0	0
1447	0	0
1448	0	0
1449	0	0
1450	0	0
1451	1	0
1452	1	0
1453	1	0
1454	1	0
1455	1	0
1456	0	0
1457	0	0
1458	0	0
1459	0	0
1460	0	0.904053
1461	0	0
1462	0	0.8
1463	0	0.8
1464	0	0.8
1465	0	0.8
1466	0	0.8
1467	0	0.8
1468	0	0.8
1469	0	0.8
1470	0	0.8
1471	1	1
1472	1	1
1473	1	1
1474	1	1
1475	1	1
1476	1	1
1477	1	1
1478	1	1
1479	1	1
1480	1	1
1481	0	0.903979
1482	0	0.903979
1483	0	0.902381
1484	0	0
1485	0	0
1486	0	0
1487	0	0
1488	0	0
1489	0	0.907589
1490	0	0.909359
1491	0	0.91121
1492	0	0.91121
1493	0	0.91121
1494	0	0.91121
1495	0	0.91121
1496	0	0.911132
1497	0	0.911132
1498	0	0.912828
1499	0	0
1500	0	0
1501	0	0
1502	0	0
1503	0	0
1504	0	0
1505	0	0
1506	0	0
1507	0	0
1508	0	0
1509	0	0
1510	0	0
1511	0	0
1512	0	0
1513	0	0
1514	0	0
1515	0	0
1516	0	0
1517	0	0
1518	0	0
1519	0	0
1520	0	0
1521	0	0
1522	0	0
1523	0	0
1524	0	0
1525	0	0
1526	0	0
1527	0	0
1528	0	0
1529	0	0
1530	0	0
1531	0	0
1532	0	0
1533	0	0
1534	0	0
1535	0	0
1536	0	0
1537	0	0
1538	0	0
1539	0	0
1540	0	0
1541	0	0
1542	0	0
1543	0	0
1544	1	0
1545	1	0
1546	1	0
1547	0	0
1548	0	0
1549	0	0
1550	0	0
1551	0	0
1552	1	0
1553	1	0
1554	1	0
1555	1	0
1556	0	0
1557	0	0
1558	0	0
1559	0	0
1560	0	0
1561	0	0
1562	0	0
1563	0	0
1564	0	0
1565	0	0
1566	0	0
1567	0	0
1568	0	0
1569	0	0
1570	0	0
1571	0	0
1572	0	0
1573	0	0
1574	0	0
1575	0	0
1576	0	0
1577	0	0
1578	0	0
1579	0	0
1580	0	0
1581	0	0
1582	0	0
1583	0	0
1584	0	0
1585	0	0
1586	0	0
1587	0	0
1588	0	0
1589	0	0
1590	0	0
1591	0	0
1592	0	0
1593	0	0
1594	0	0
1595	0	0
1596	0	0
1597	0	0
1598	0	0
1599	0	0
1600	0	0
1601	0	0
1602	0	0
1603	0	0
1604	0	0
1605	0	0
1606	0	0
1607	0	0
1608	0	0
1609	0	0
1610	0	0
1611	0	0
1612	0	0
1613	0	0
1614	0	0
1615	0	0
1616	0	0
1617	0	0
1618	0	0
1619	0	0
1620	0	0
1621	0	0
1622	0	0
1623	0	0
1624	0	0
1625	0	0
1626	0	0
1627	0	0
1628	0	0
1629	0	0
1630	0	0
1631	0	0
1632	0	0
1633	0	0
1634	0	0
1635	0	0
1636	0	0
1637	0	0
1638	0	0
1639	0	0
1640	0	0
1641	0	0
1642	0	0
1643	0	0
1644	0	0
1645	0	0
1646	0	0
1647	0	0
1648	0	0
1649	0	0
1650	0	0
1651	0	0
1652	0	0.90952
1653	0	0.90952
1654	0	0.90952
1655	0	0.907834
1656	0	0.907834
1657	0	1
1658	0	1
1659	0	0
1660	0	0
1661	0	0
1662	0	0
1663	0	0
1664	0	0
1665	0	0
1666	0	0
1667	0	0
1668	0	0.895255
1669	0	0.890384
1670	0	0.839683
1671	0	0.797297
1672	0	0.841329
1673	0	0.355556
1674	0	0.666667
1675	0	1
1676	0	0.909919
1677	0	0.908159
1678	0	0.908324
1679	0	0.908324
1680	0	0.893317
1681	0	0
1682	0	0
1683	0	0
1684	0	0
1685	0	0
1686	0	0.901389
1687	0	0.897894
1688	0	0.5
1689	0	0.5
1690	0	0.166667
1691	0	0.166667
1692	0	0.894406
1693	0	1
1694	0	1
1695	0	1
1696	0	1
1697	0	1
1698	0	0.4
1699	0	0.2
1700	0	0.1
1701	0	0.1
1702	0	0.479601
1703	0	0
1704	0	0
1705	0	0
1706	0	0
1707	0	0
1708	0	0
1709	0	1
1710	0	1
1711	0	0.892231
1712	0	0.894009
1713	0	0.894009
1714	0	0
1715	1	0
1716	1	0
1717	1	0
1718	1	0
1719	0	0.898996
1720	0	0.901057
1721	0	0.881682
1722	0	0.589744
1723	0	0.589744
1724	0	0.69697
1725	0	1
1726	0	0.488889
1727	0	0.488889
1728	0	0.244444
1729	0	0.244444
1730	0	0.177778
1731	0	0.111111
1732	0	0.111111
1733	0	0.0666667
1734	0	0.0833333
1735	0	0.107143
1736	0	0.107143
1737	0	0.138889
1738	0	0.190476
1739	0	0.266667
1740	0	0.266667
1741	0	0.266667
1742	0	0.333333
1743	0	0.333333
1744	0	1
1745	0	1
1746	0	1
1747	0	1
1748	0	1
1749	0	1
1750	0	1
1751	0	1
1752	0	1
1753	0	1
1754	0	0
1755	0	0
1756	0	0
1757	0	0
1758	0	0
1759	0	0
1760	0	0
1761	0	0
1762	0	0
1763	0	0
1764	0	0
1765	0	0
1766	0	0
1767	0	0
1768	0	0
1769	0	0
1770	0	0
1771	0	0
1772	1	1
1773	1	1
1774	1	1
1775	0	1
1776	0	1
1777	0	1
1778	0	1
1779	0	1
1780	0	1
1781	0	1
1782	0	1
1783	0	1
1784	0	1
1785	0	1
1786	0	1
1787	0	1
1788	0	1
1789	0	1
1790	0	1
1791	0	0.903312
1792	0	0.901564
1793	0	0.903228
1794	0	0.901479
1795	1	0
1796	1	0
1797	1	0
1798	1	0
1799	1	0
1800	1	0
1801	1	0
1802	1	0
1803	1	0
1804	1	0
1805	1	0
1806	1	0
1807	1	0
1808	1	0
1809	1	0
1810	1	0
1811	0	0.899731
1812	0	0.898073
1813	0	0.90481
1814	0	0.905061
1815	0	0.906812
1816	0	0.906975
1817	0	0.906975
1818	0	0.910478
1819	0	0.910556
1820	0	1
1821	0	0
1822	0	0
1823	0	0
1824	0	0.535714
1825	0	0.274725
1826	0	0.889789
1827	0	0.822019
1828	0	0.800493
1829	0	0.90564
1830	0	0.90564
1831	0	0.905722
1832	0	0.907462
1833	0	0.907462
1834	0	0.907462
1835	0	0
1836	0	0.908965
1837	0	0.908965
1838	0	0.908965
1839	0	0.908965
1840	0	1
1841	0	0.902009
1842	0	0.903659
1843	0	1
1844	0	0.590643
1845	0	0.849837
1846	0	0.842666
1847	0	0.741943
1848	0	1
1849	0	0.352227
1850	0	0.586285
1851	0	0
1852	0	0
1853	0	0.352381
1854	0	0.248366
1855	0	0.673865
1856	0	0.673592
1857	0	0
1858	0	0
1859	0	0
1860	0	0
1861	0	0
1862	0	0.0646154
1863	0	0.399199
1864	0	0.533854
1865	0	0.393853
1866	0	0.396713
1867	0	0.12951
1868	0	0.505145
1869	0	0.511823
1870	0	0.508307
1871	0	0.508726
1872	0	0.617532
1873	0	0.394368
1874	0	0.399879
1875	0	0.405669
1876	0	0.40304
1877	1	0
1878	1	0
1879	1	0
1880	0	0
1881	0	0
1882	0	0
1883	0	0
1884	0	0
1885	0	0
1886	0	0
1887	0	0
1888	0	0
1889	0	0
1890	0	0
1891	0	0
1892	0	0
1893	0	0
1894	0	0.495726
1895	0	0.259259
1896	0	0.512698
1897	0	0.510647
1898	0	0.120879
1899	0	0.120879
1900	0	0.142857
1901	0	0.2
1902	0	0.691756
1903	0	0.688843
1904	0	0.358329
1905	0	0.66113
1906	0	0.764103
1907	0	0.896115
1908	0	0.896115
1909	0	0.166667
1910	0	0.333333
1911	0	0.333333
1912	0	0.333333
1913	0	0.333333
1914	0	0.2
1915	0	0.2
1916	0	0.2
1917	0	0.6
1918	0	0.90722
1919	0	0.90722
1920	0	0.90722
1921	0	0.166667
1922	0	0.166667
1923	0	0.166667
1924	0	0.909282
1925	0	0.909361
1926	0	0.909282
1927	0	0.909282
1928	0	0.909282
1929	0	0.907623
1930	0	0
1931	0	0
1932	0	0
1933	0	0
1934	0	0
1935	0	0.92
1936	0	0.92
1937	0	0.92
1938	0	1
1939	0	1
1940	0	0.852308
1941	0	0.682266
1942	0	0.58871
1943	0	0.363946
1944	0	0.881444
1945	0	0.81187
1946	0	0.795122
1947	0	0
1948	0	0
1949	0	0
1950	0	0
1951	0	0
1952	0	0
1953	0	0
1954	0	0
1955	0	0
1956	0	0
1957	0	0
1958	0	0
1959	0	0
1960	0	0.439394
1961	0	0.439394
1962	0	0.371795
1963	0	0.354497
1964	0	0.779267
1965	0	0.774684
1966	0	0.508529
1967	0	0.68441
1968	0	0.746249
1969	0	0.708081
1970	0	0.645631
1971	0	0.770851
1972	0	0.37931
1973	0	0.859788
1974	0	0.862817
1975	0	0.864717
1976	0	0.866563
1977	0	0.90061
1978	0	0.900702
1979	0	0.89897
1980	0	0.898439
1981	0	0.4
1982	0	0.909279
1983	0	0.910941
1984	0	0.910941
1985	1	0
1986	1	0
1987	1	0
1988	1	0
1989	1	0
1990	1	0
1991	1	0
1992	1	0
1993	1	0
1994	1	0
1995	1	0
1996	1	0
1997	1	0
1998	1	0
1999	1	0
2000	1	0
2001	1	0
2002	1	0
2003	1	0
2004	1	0
2005	0	0.91428
2006	0	0.91428
2007	0	0.915875
2008	0	0.914124
2009	0	0.914124
2010	0	0.914124
2011	0	0.908883
2012	0	0.907301
2013	0	0.906483
2014	0	0
2015	0	0
2016	0	0.90738
2017	0	0.90738
2018	0	0.90738
2019	0	0.909042
2020	0	0.90564
2021	0	0.90564
2022	0	0.90564
2023	0	0
2024	0	0
2025	0	0
2026	0	0
2027	0	0
2028	0	0
2029	0	0
2030	0	0
2031	0	0
2032	0	0.912226
2033	0	0.910708
2034	0	0.910708
2035	0	0.909042
2036	0	0.909042
2037	0	0
2038	0	0
2039	0	0
2040	0	0
2041	0	0
2042	0	0
2043	0	0
2044	0	0
2045	0	0.908803
2046	0	0.908803
2047	0	0.908803
2048	0	0.905475
2049	0	0.777778
2050	0	0.888179
2051	0	0.89688
2052	0	0.89688
2053	0	0.935484
2054	0	0.84423
2055	0	0.842582
2056	0	0.547434
2057	0	0.630207
2058	0	0
2059	0	0
2060	0	0
2061	0	0
2062	0	0
2063	0	0
2064	0	0.574692
2065	0	0.0666667
2066	0	0
2067	0	0
2068	0	0
2069	0	0
2070	0	0.0952381
2071	0	0
2072	0	0.0666667
2073	0	0.0666667
2074	0	0.0666667
2075	0	0.550047
2076	0	0.541825
2077	0	0.818182
2078	0	0.758946
2079	0	0.804055
2080	0	0.557188
2081	0	0.524417
2082	0	0.52772
2083	0	0.1
2084	0	0.1
2085	0	0.522748
2086	0	0.441163
2087	0	0.374425
2088	0	0
2089	0	0
2090	0	0
2091	0	0
2092	0	0
2093	0	0
2094	0	0
2095	0	0
2096	0	0
2097	0	0
2098	0	0
2099	0	0
2100	0	0
2101	0	0
2102	0	0
2103	1	0
2104	1	0
2105	1	0
2106	1	0
2107	1	0
2108	1	0
2109	0	0.145306
2110	0	0.285415
2111	0	0
2112	0	0
2113	0	0
2114	0	0
2115	0	0
2116	0	0
2117	0	0
2118	0	0
2119	0	0
2120	0	0
2121	0	0
2122	0	0
2123	0	0
2124	0	0
2125	0	0.166667
2126	0	0.166667
2127	0	0.166667
2128	0	0.760282
2129	0	0.816949
2130	0	0.1
2131	0	0
2132	0	0
2133	0	0
2134	0	0
2135	0	0
2136	0	0
2137	0	0
2138	0	0
2139	0	0
2140	0	0
2141	0	0
2142	0	0.842347
2143	0	0.852459
2144	0	0.2
2145	0	0
2146	0	0
2147	0	0
2148	0	0
2149	0	0
2150	0	0
2151	0	0
2152	0	0
2153	0	0
2154	0	0
2155	0	0.838776
2156	0	0.840461
2157	0	0.0666667
2158	0	0.384236
2159	0	0.827053
2160	0	0.828863
2161	0	0.828863
2162	0	0.828863
2163	0	0.828863
2164	0	0
2165	1	0
2166	1	0
2167	1	0
2168	1	0
2169	1	0
2170	1	0
2171	1	0
2172	1	0
2173	1	0
2174	1	0
2175	1	0
2176	1	0
2177	0	0.899801
2178	0	0
2179	0	0
2180	0	0.910868
2181	0	0.914049
2182	0	0.914049
2183	0	0.914049
2184	0	0.914049
2185	0	0.914049
2186	0	0.914049
2187	0	0.914049
2188	0	0.909042
2189	0	0.909042
2190	0	0.909042
2191	0	0.909042
2192	0	0
2193	0	0
2194	0	0.907139
2195	0	0.907139
2196	0	0
2197	0	0.6
2198	0	0.89895
2199	0	0.814304
2200	0	0.825937
2201	0	0.693531
2202	0	0.693531
2203	0	0.6934
2204	0	0.693377
2205	0	0.602218
2206	0	0
2207	0	0.285714
2208	0	0.614379
2209	0	0.529412
2210	0	0.78593
2211	0	0.687783
2212	0	0.687783
2213	0	0.912121
2214	0	0.912121
2215	0	0.89595
2216	0	1
2217	0	0.866667
2218	0	0.910785
2219	0	0.909042
2220	0	0.910629
2221	0	0.910629
2222	0	0.910551
2223	0	0.910551
2224	0	0.90722
2225	0	0.90722
2226	0	1
2227	0	1
2228	0	0.69697
2229	0	0.466667
2230	0	0.333333
2231	0	0.333333
2232	0	0
2233	0	0
2234	0	0
2235	0	0
2236	0	0
2237	0	0
2238	0	0
2239	0	0
2240	0	0
2241	0	0.166667
2242	0	0.166667
2243	0	0.314286
2244	0	0.345455
2245	0	0.870793
2246	0	0
2247	0	0
2248	0	0
2249	0	0
2250	0	0
2251	0	0
2252	0	0
2253	0	0
2254	0	0.047619
2255	0	0.111111
2256	0	0.733657
2257	0	0.392857
2258	0	0.392857
2259	0	0.392857
2260	0	0.0952381
2261	0	0.190476
2262	0	0.693268
2263	0	0.333333
2264	0	0.333333
2265	0	0.333333
2266	0	0.333333
2267	0	0.333333
2268	0	0.333333
2269	0	0.333333
2270	0	0.333333
2271	0	0.333333
2272	0	0.333333
2273	0	0.333333
2274	0	0.333333
2275	0	0.333333
2276	0	0.333333
2277	0	0.333333
2278	0	0.166667
2279	0	0.166667
2280	0	0.0952381
2281	0	0.875585
2282	0	0.285714
2283	0	0.285714
2284	0	0.285714
2285	0	0.666667
2286	0	0.793145
2287	0	0.617936
2288	0	0.617953
2289	0	0.581439
2290	0	0.658065
2291	0	0.822798
2292	0	0.907381
2293	0	0.909044
2294	0	0.909044
2295	0	0.909044
2296	0	1
2297	0	1
2298	0	0.333333
2299	0	0.166667
2300	0	0.732804
2301	0	0.732804
2302	0	0.802956
2303	0	0.704261
2304	0	0.656764
2305	0	0.642889
2306	0	0
2307	0	0
2308	0	0
2309	0	0
2310	0	0
2311	0	0
2312	0	0
2313	0	0
2314	0	0
2315	0	0
2316	0	0
2317	0	0
2318	0	0
2319	0	0
2320	0	0
2321	0	0
2322	0	0
2323	0	0
2324	0	0
2325	0	0
2326	0	0.190476
2327	0	0.142857
2328	0	0.409357
2329	0	0.336842
2330	0	0.587501
2331	0	0
2332	0	0
2333	0	0.333333
2334	0	0.333333
2335	0	0.333333
2336	0	0.333333
2337	0	0.333333
2338	0	0.333333
2339	0	0.333333
2340	0	0.190476
2341	0	0.142857
2342	0	0.142857
2343	0	0.142857
2344	0	0.179487
2345	0	0.141667
2346	0	0.133333
2347	0	0.121212
2348	0	0.103333
2349	0	0.113333
2350	0	0.18
2351	0	0.286667
2352	0	0.476923
2353	0	0.425806
2354	0	0.34958
2355	0	0.277295
2356	0	0.286531
2357	0	0.45979
2358	0	0.469868
2359	0	0.873461
2360	0	0.141667
2361	0	0.133333
2362	0	0.153846
2363	0	0.179487
2364	0	0.190476
2365	0	0.047619
2366	0	0.047619
2367	0	0.0666667
2368	0	0.0666667
2369	0	0.0666667
2370	0	0.0666667
2371	0	0.047619
2372	0	0.047619
2373	0	0
2374	0	0
2375	0	0
2376	0	0
2377	0	0
2378	0	0
2379	0	0
2380	0	0
2381	0	0
2382	0	0
2383	0	0
2384	0	0
2385	0	0
2386	0	0
2387	0	0
2388	0	0
2389	0	0
2390	0	0
2391	0	0
2392	0	0
2393	0	0
2394	0	0
2395	0	0
2396	0	0.166667
2397	0	0.1
2398	0	0.1
2399	0	0.1
2400	0	0.1
2401	0	0.4
2402	0	0.4
2403	0	0.4
2404	0	0.4
2405	0	0.4
2406	0	0.285714
2407	0	0.47619
2408	0	0.47619
2409	0	0.47619
2410	0	0.416667
2411	0	0.535714
2412	0	0.535714
2413	0	0.892168
2414	0	0.895618
2415	0	0.897964
2416	0	0.897569
2417	0	0.899527
2418	0	0.899527
2419	0	0.897874
2420	0	0.897874
2421	0	0.897874
2422	0	0.897874
2423	0	0.897874
2424	0	0.897874
2425	0	0.859788
2426	0	0.800493
2427	0	0.862973
2428	0	0.8563
2429	0	0
2430	0	0
2431	0	0
2432	0	0
2433	0	0.705128
2434	0	0.725275
2435	0	0.893375
2436	0	0.890068
2437	0	0.888539
2438	0	0.888243
2439	0	0.886397
2440	0	0.1
2441	0	0.1
2442	0	0.1
2443	0	0.1
2444	0	0.371795
2445	0	0.318681
2446	0	0.0952381
2447	0	0.0444444
2448	0	0.0454545
2449	0	0.471869
2450	0	0.427869
2451	0	0.784679
2452	0	0.366013
2453	0	0.207898
2454	0	0.161565
2455	0	0.142857
2456	0	0.137143
2457	0	0.596811
2458	0	0
2459	0	0
2460	0	0
2461	0	0
2462	0	0
2463	0	0.381818
2464	0	0.381818
2465	0	0.357143
2466	0	0.357143
2467	0	0.357143
2468	0	0.357143
2469	0	0.357143
2470	0	0.357143
2471	0	0.357143
2472	0	0.357143
2473	0	0.357143
2474	0	0.277778
2475	0	0.244444
2476	0	0.2
2477	0	0.2
2478	0	0.131868
2479	0	0.553688
2480	0	0.136842
2481	0	0.136842
2482	0	0.106719
2483	0	0.106719
2484	0	0.0869565
2485	0	0.0530303
2486	0	0.057041
2487	0	0.0534759
2488	0	0.0571429
2489	0	0.185356
2490	0	0.497809
2491	0	0
2492	0	0
2493	0	0
2494	0	0
2495	0	0
2496	0	0
2497	0	0
2498	0	0
2499	0	0
2500	0	0
2501	0	0
2502	0	0
2503	0	0
2504	0	0
2505	0	0
2506	0	0
2507	0	0
2508	0	0
2509	0	0
2510	0	0
2511	0	0
2512	0	0
2513	0	0
2514	0	0
2515	0	0
2516	0	0
2517	0	0
2518	0	0
2519	0	0
2520	0	0
2521	0	0
2522	0	0
2523	0	0
2524	0	0
2525	0	0
2526	0	0
2527	0	0
2528	0	0
2529	0	0
2530	0	0
2531	0	0
2532	0	0
2533	0	0
2534	0	0
2535	0	0
2536	0	0
2537	0	0
2538	0	0
2539	0	0
2540	0	0
2541	0	0
2542	0	0
2543	0	0
2544	0	0
2545	0	0
2546	0	0
2547	0	0
2548	0	0
2549	0	0
2550	0	0
2551	0	0
2552	0	0
2553	0	0
2554	0	0
2555	0	0
2556	0	0
2557	0	0
2558	0	0
2559	0	0
2560	0	0
2561	0	0
2562	0	0
2563	0	0
2564	0	0
2565	0	0
2566	0	0
2567	0	0
2568	0	0
2569	0	0
2570	0	0
2571	0	0
2572	0	0
2573	0	0
2574	0	0
2575	0	0
2576	0	0
2577	0	0
2578	0	0
2579	0	0
2580	0	0
2581	0	0
2582	0	0
2583	0	0
2584	0	0
2585	0	0
2586	0	0
2587	0	0
2588	0	0
2589	0	0
2590	0	0
2591	0	0
2592	0	0
2593	0	0
2594	0	0
2595	0	0
2596	0	0
2597	0	0
2598	0	0
2599	0	0
2600	0	0
2601	0	0
2602	0	0
2603	0	0
2604	0	0
2605	0	0
2606	0	0
2607	0	0
2608	0	0
2609	0	0
2610	0	0
2611	0	0.142857
2612	0	0.0666667
2613	0	0
2614	0	0.815098
2615	0	0.665158
2616	0	0.548759
2617	0	0.415385
2618	0	0.387387
2619	0	0.494737
2620	0	0.549708
2621	0	0.3
2622	0	0.3
2623	0	0.166667
2624	0	0.166667
2625	0	0.166667
2626	0	0
2627	0	0
2628	0	0
2629	0	0
2630	0	0
2631	0	0
2632	0	0
2633	0	0
2634	0	0
2635	0	0
2636	0	0
2637	0	0
2638	0	0
2639	0	0
2640	0	0
2641	0	0
2642	0	0
2643	0	0
2644	0	0
2645	0	0
2646	0	0
2647	0	0
2648	0	0
2649	0	0
2650	0	0
2651	0	0
2652	0	0
2653	0	0
2654	0	0
2655	0	0
2656	0	0
2657	0	0
2658	0	0
2659	0	0
2660	0	0
2661	0	0
2662	0	0
2663	0	0
2664	0	0
2665	0	0
2666	0	0
2667	0	0
2668	0	0
2669	0	0
2670	0	0
2671	0	0
2672	0	0
2673	0	0.1
2674	0	0.1
2675	0	0.1
2676	0	0.1
2677	0	0.1
2678	0	0.1
2679	0	0.1
2680	0	0.1
2681	0	0.1
2682	0	0.1
2683	0	0.1
2684	0	0.1
2685	0	0.1
2686	0	0.1
2687	0	0.1
2688	0	0.1
2689	0	0.1
2690	0	0.1
2691	0	0.1
2692	0	0.1
2693	0	0.1
2694	0	0.1
2695	0	0.1
2696	0	0.1
2697	0	0.1
2698	0	0.1
2699	0	0.1
2700	0	0.1
2701	0	0.1
2702	0	0.1
2703	0	0.1
2704	0	0.1
2705	0	0.1
2706	0	0.1
2707	0	0.1
2708	0	0.1
2709	0	0.1
2710	0	0.1
2711	0	0.1
2712	0	0.1
2713	0	0.0666667
2714	0	0.0666667
2715	0	0.0666667
2716	0	0.0666667
2717	0	0.0666667
2718	0	0.0666667
2719	0	0.0666667
2720	0	0.0666667
2721	0	0.0666667
2722	0	0.0666667
2723	0	0.0666667
2724	0	0.0666667
2725	0	0.0666667
2726	0	0.0666667
2727	0	0.0666667
2728	0	0.0666667
2729	0	0.0666667
2730	0	0.0666667
2731	0	0.047619
2732	0	0.047619
2733	0	0.047619
2734	0	0.047619
2735	0	0.047619
2736	0	0.047619
2737	0	0.0555556
2738	0	0.0555556
2739	0	0.0555556
2740	0	0.0555556
2741	0	0.0555556
2742	0	0.0555556
2743	0	0.0555556
2744	0	0.131868
2745	0	0.0955882
2746	0	0.0736842
2747	0	0.0666667
2748	0	0.0626781
2749	0	0.0626781
2750	0	0.214438
2751	0	0.211753
2752	0	0.0545791
2753	0	0.0351526
2754	0	0.0333333
2755	0	0.0331633
2756	0	0.0342276
2757	0	0.0333025
2758	0	0.0360777
2759	0	0.0338164
2760	0	0.0328502
2761	0	0.0274823
2762	0	0.212984
2763	0	0.160799
2764	0	0.157509
2765	0	0.15007
2766	0	0.149394
2767	0	0.146249
2768	0	0.150908
2769	0	0.144978
2770	0	0.12623
2771	0	0.230417
2772	0	0.0204082
2773	0	0.0228571
2774	0	0.0269388
2775	0	0.0261224
2776	0	0.0226244
2777	0	0.0232221
2778	0	0.022362
2779	0	0.127504
2780	0	0.125803
2781	0	0
2782	0	0
2783	0	0
2784	0	0
2785	0	0
2786	0	0
2787	0	0
2788	0	0
2789	0	0
2790	0	0.22272
2791	0	0
2792	0	0
2793	0	0
2794	0	0
2795	0	0
2796	0	0
2797	0	0
2798	0	0
2799	0	0
2800	0	0
2801	0	0
2802	0	0
2803	0	0
2804	0	0
2805	0	0
2806	0	0
2807	0	0
2808	0	0
2809	0	0
2810	0	0
2811	0	0
2812	0	0
2813	0	0
2814	0	0
2815	0	0
2816	0	0
2817	0	0
2818	0	0
2819	0	0
2820	0	0
2821	0	0
2822	1	0
2823	1	0
2824	0	0
2825	0	0
2826	0	0
2827	0	0
2828	0	0
2829	0	0
2830	0	0
2831	0	0
2832	0	0
2833	0	0
2834	0	0
2835	0	0
2836	0	0
2837	0	0
2838	0	0
2839	0	0
2840	0	0
2841	0	0
2842	0	0
2843	0	0
2844	0	0
2845	0	0
2846	0	0
2847	0	0
2848	0	0
2849	0	0
2850	0	0
2851	0	0
2852	0	0
2853	0	0
2854	0	0
2855	0	0
2856	0	0
2857	0	0
2858	0	0
2859	0	0
2860	0	0
2861	0	0
2862	0	0
2863	0	0
2864	0	0
2865	0	0
2866	0	0
2867	0	0
2868	0	0
2869	0	0
2870	0	0
2871	0	0
2872	0	0
2873	0	0
2874	0	0
2875	0	0
2876	0	0
2877	0	0
2878	0	0
2879	0	0
2880	0	0
2881	0	0
2882	0	0
2883	0	0
2884	0	0
2885	0	0
2886	0	0
2887	0	0
2888	0	0
2889	0	0
2890	0	0
2891	0	0
2892	0	0
2893	0	0
2894	0	0
2895	0	0
2896	0	0
2897	0	0
2898	0	0
2899	0	0
2900	0	0
2901	0	0
2902	0	0
2903	0	0
2904	0	0
2905	0	0
2906	0	0
2907	0	0
2908	0	0
2909	0	0
2910	0	0
2911	0	0
2912	0	0
2913	0	0
2914	0	0
2915	0	0
2916	0	0
2917	0	0
2918	0	0
2919	0	0
2920	0	0
2921	0	0
2922	0	0
2923	0	0
2924	0	0
2925	0	0
2926	0	0
2927	0	0
2928	0	0
2929	0	0
2930	0	0
2931	0	0
2932	0	0
2933	0	0
2934	0	0
2935	0	0
2936	0	0
2937	0	0
2938	0	0
2939	0	0
2940	0	0
2941	0	0
2942	0	0
2943	0	0
2944	0	0
2945	0	0
2946	0	0
2947	0	0
2948	0	0
2949	0	0
2950	0	0
2951	0	0
2952	0	0
2953	0	0
2954	0	0
2955	0	0
2956	0	0
2957	0	0
2958	0	0
2959	0	0
2960	0	0
2961	0	0
2962	0	0
2963	0	0
2964	0	0
2965	0	0
2966	0	0.0555556
2967	0	0.0666667
2968	0	0.0666667
2969	0	0.1
2970	0	0.3
2971	0	0.3
2972	0	0.2
2973	0	0.2
2974	0	0.2
2975	0	0.2
2976	0	0.522222
2977	0	0
2978	0	0
2979	0	0
2980	0	0
2981	0	0
2982	0	0
2983	0	0
2984	0	0
2985	0	0
2986	0	0
2987	0	0
2988	0	0
2989	0	0
2990	0	0
2991	0	0
2992	0	0
2993	0	0
2994	0	0
2995	0	0
2996	0	0
2997	0	0
2998	0	0
2999	0	0
3000	0	0
3001	0	0
3002	0	0
3003	0	0
3004	0	0
3005	0	0
3006	0	0
3007	0	0
3008	0	0
3009	0	0
3010	0	0
3011	0	0
3012	0	0
3013	0	0
3014	0	0
3015	0	0
3016	0	0
3017	0	0
3018	0	0
3019	0	0
3020	0	0
3021	0	0
3022	0	0
3023	0	0
3024	0	0
3025	0	0
3026	0	0
3027	0	0
3028	0	0
3029	0	0
3030	0	0
3031	0	0
3032	0	0
3033	0	0
3034	0	0
3035	0	0
3036	0	0
3037	0	0
3038	0	0
3039	0	0
3040	0	0
3041	0	0
3042	0	0
3043	0	0
3044	0	0
3045	0	0
3046	0	0
3047	0	0
3048	0	0
3049	0	0
3050	0	0
3051	0	0
3052	0	0
3053	0	0
3054	0	0
3055	0	0
3056	0	0
3057	0	0
3058	0	0
3059	0	0
3060	0	0
3061	0	0
3062	0	0
3063	0	0
3064	0	0
3065	0	0
3066	0	0
3067	0	0
3068	0	0
3069	0	0
3070	0	0
3071	0	0
3072	0	0
3073	0	0
3074	0	0
3075	0	0
3076	0	0
3077	0	0
3078	0	0
3079	0	0
3080	0	0
3081	0	0
3082	0	0
3083	0	0
3084	0	0
3085	0	0
3086	0	0
3087	0	0
3088	0	0
3089	0	0
3090	0	0
3091	0	0
3092	0	0
3093	0	0
3094	0	0
3095	0	0
3096	0	0
3097	0	0
3098	0	0
3099	0	0
3100	0	0
3101	0	0
3102	0	0
3103	0	0
3104	0	0
3105	0	0
3106	0	0
3107	0	0
3108	0	0
3109	0	0
3110	0	0
3111	0	0
3112	0	0
3113	0	0
3114	0	0
3115	0	0
3116	0	0
3117	0	0
3118	0	0
3119	0	0
3120	0	0
3121	0	0
3122	0	0
3123	0	0
3124	0	0
3125	0	0
3126	0	0
3127	0	0
3128	0	0
3129	0	0
3130	0	0
3131	0	0
3132	0	0
3133	0	0
3134	0	0
3135	0	0
3136	0	0
3137	0	0
3138	0	0
3139	0	0
3140	0	0
3141	0	0
3142	0	0
3143	0	0
3144	0	0
3145	0	0
3146	0	0.266667
3147	0	0.168831
3148	0	0.115764
3149	0	0.190856
3150	0	0.190856
3151	0	0.132056
3152	0	0.134109
3153	0	0.132947
3154	0	0.200762
3155	0	0.204158
3156	0	0.242685
3157	0	0.281007
3158	0	0.144928
3159	0	0.0684211
3160	0	0
3161	0	0
3162	0	0
3163	0	0
3164	0	0
3165	0	0
3166	0	0
3167	0	0
3168	0	0
3169	0	0
3170	0	0
3171	0	0
3172	0	0
3173	0	0
3174	0	0
3175	0	0
3176	0	0
3177	0	0
3178	0	0
3179	0	0
3180	0	0
3181	0	0
3182	0	0
3183	0	0
3184	0	0
3185	0	0
3186	0	0
3187	0	0
3188	0	0
3189	0	0
3190	0	0
3191	0	0
3192	0	0
3193	0	0
3194	0	0
3195	0	0
3196	0	0
3197	0	0
3198	0	0
3199	0	0
3200	0	0
3201	0	0
3202	0	0
3203	0	0
3204	0	0
3205	0	0
3206	0	0
3207	0	0
3208	0	0
3209	0	0
3210	0	0
3211	0	0
3212	0	0
3213	0	0
3214	0	0
3215	0	0
3216	0	0
3217	0	0
3218	0	0
3219	0	0
3220	0	0
3221	0	0
3222	0	0
3223	0	0
3224	0	0
3225	0	0
3226	0	0
3227	0	0
3228	0	0
3229	0	0
3230	0	0
3231	0	0
3232	0	0
3233	0	0
3234	0	0
3235	0	0
3236	0	0
3237	0	0
3238	0	0
3239	0	0
3240	0	0
3241	0	0
3242	0	0
3243	0	0
3244	0	0
3245	0	0
3246	0	0
3247	0	0
3248	0	0
3249	0	0
3250	0	0
3251	0	0
3252	0	0
3253	0	0
3254	0	0
3255	0	0
3256	0	0
3257	0	0
3258	0	0
3259	0	0
3260	0	0
3261	0	0
3262	0	0
3263	0	0
3264	0	0
3265	0	0
3266	0	0
3267	0	0
3268	0	0
3269	0	0
3270	0	0
3271	0	0
3272	0	0
3273	0	0
3274	0	0
3275	0	0
3276	0	0
3277	0	0
3278	0	0
3279	0	0
3280	0	0
3281	0	0
3282	0	0
3283	0	0
3284	0	0
3285	0	0
3286	0	0
3287	0	0
3288	0	0
3289	0	0
3290	0	0
3291	0	0
3292	0	0
3293	0	0
3294	0	0
3295	0	0
3296	0	0
3297	0	0
3298	0	0
3299	0	0
3300	0	0
3301	0	0
3302	0	0
3303	0	0
3304	0	0
3305	0	0
3306	0	0
3307	0	0
3308	0	0
3309	0	0
3310	0	0
3311	0	0
3312	0	0
3313	0	0
3314	0	0
3315	0	0
3316	0	0
3317	0	0
3318	0	0
3319	0	0
3320	0	0
3321	0	0
3322	0	0
3323	0	0
3324	0	0
3325	0	0
3326	0	0
3327	0	0
3328	0	0
3329	0	0.110361
3330	0	0.0879931
3331	0	0.0764018
3332	0	0.0855177
3333	0	0.0990162
3334	0	0.114077
3335	0	0.032656
3336	0	0.0265781
3337	0	0.0225225
3338	0	0.0172414
3339	0	0.0181159
3340	0	0.017316
3341	0	0.0175439
3342	0	0.00735294
3343	0	0.00952381
3344	0	0
3345	0	0
3346	0	0
3347	0	0
3348	0	0
3349	0	0
3350	0	0
3351	0	0
3352	0	0
3353	0	0
3354	0	0
3355	0	0
3356	0	0
3357	0	0
3358	0	0
3359	0	0
3360	0	0
3361	0	0
3362	0	0
3363	0	0
3364	0	0
3365	0	0
3366	0	0
3367	0	0
3368	0	0
3369	0	0
3370	0	0
3371	0	0
3372	0	0
3373	0	0
3374	0	0
3375	0	0
3376	0	0
3377	0	0
3378	0	0
3379	0	0
3380	0	0
3381	0	0
3382	0	0
3383	0	0
3384	0	0
3385	0	0
3386	0	0
3387	0	0
3388	0	0
3389	0	0
3390	0	0
3391	0	0
3392	0	0
3393	0	0
3394	0	0
3395	0	0
3396	0	0
3397	0	0
3398	0	0
3399	0	0
3400	0	0
3401	0	0
3402	0	0
3403	0	0
3404	0	0
3405	0	0
3406	0	0
3407	0	0
3408	0	0
3409	0	0
3410	0	0
3411	0	0
3412	0	0
3413	0	0
3414	0	0
3415	0	0
3416	0	0
3417	0	0
3418	0	0
3419	0	0
3420	0	0
3421	0	0
3422	0	0
3423	0	0
3424	0	0
3425	0	0
3426	0	0
3427	0	0
3428	0	0
3429	0	0
3430	0	0
3431	0	0
3432	0	0
3433	0	0
3434	0	0
3435	0	0
3436	0	0
3437	0	0
3438	0	0
3439	0	0
3440	0	0
3441	0	0
3442	0	0
3443	0	0
3444	0	0
3445	0	0
3446	0	0
3447	0	0
3448	0	0
3449	0	0
3450	0	0
3451	0	0
3452	0	0
3453	0	0
3454	0	0
3455	0	0
3456	0	0
3457	0	0
3458	0	0
3459	0	0
3460	0	0
3461	0	0
3462	0	0
3463	0	0
3464	0	0
3465	0	0
3466	0	0
3467	0	0
3468	0	0
3469	0	0
3470	0	0
3471	0	0
3472	0	0
3473	0	0
3474	0	0
3475	0	0
3476	0	0
3477	0	0
3478	0	0
3479	0	0
3480	0	0
3481	0	0
3482	0	0
3483	0	0
3484	0	0
3485	0	0
3486	0	0
3487	0	0
3488	0	0
3489	0	0
3490	0	0
3491	0	0
3492	0	0
3493	0	0
3494	0	0
3495	0	0
3496	0	0
3497	0	0
3498	0	0
3499	0	0
3500	0	0
3501	0	0
3502	0	0
3503	0	0
3504	0	0
3505	0	0
3506	0	0
3507	0	0
3508	0	0
3509	0	0
3510	0	0
3511	0	0
3512	0	0
3513	0	0
3514	0	0
3515	0	0
3516	0	0
3517	0	0
3518	0	0
3519	0	0
3520	0	0
3521	0	0
3522	0	0
3523	0	0
3524	0	0
3525	0	0
3526	0	0
3527	0	0
3528	0	0
3529	0	0
3530	0	0
3531	0	0
3532	0	0
3533	0	0
3534	0	0
3535	0	0
3536	0	0
3537	0	0
3538	0	0
3539	0	0
3540	0	0
3541	0	0
3542	0	0
3543	0	0
3544	0	0
3545	0	0
3546	0	0
3547	0	0
3548	0	0
3549	0	0
3550	0	0
3551	0	0
3552	0	0
3553	0	0
3554	0	0
3555	0	0
3556	0	0
3557	0	0
3558	0	0
3559	0	0
3560	0	0
3561	0	0
3562	0	0
3563	0	0
3564	0	0
3565	0	0
3566	0	0
3567	0	0
3568	0	0
3569	0	0
3570	0	0
3571	0	0
3572	0	0
3573	0	0
3574	0	0
3575	0	0
3576	0	0
3577	0	0
3578	0	0
3579	0	0
3580	0	0
3581	0	0
3582	0	0
3583	0	0
3584	0	0
3585	0	0
3586	0	0
3587	0	0
3588	0	0
3589	0	0
3590	0	0
3591	0	0
3592	0	0
3593	0	0
3594	0	0
3595	0	0
3596	0	0
3597	0	0
3598	0	0
3599	0	0
3600	0	0
3601	0	0
3602	0	0
3603	0	0
3604	0	0
3605	0	0
3606	0	0
3607	0	0
3608	0	0
3609	0	0
3610	0	0
3611	0	0
3612	0	0
3613	0	0
3614	0	0
3615	0	0
3616	0	0
3617	0	0
3618	0	0
3619	0	0
3620	0	0
3621	0	0
3622	0	0
3623	0	0
3624	0	0
3625	0	0
3626	0	0
3627	0	0
3628	0	0
3629	0	0
3630	0	0
3631	0	0
3632	0	0
3633	0	0
3634	0	0
3635	0	0
3636	0	0
3637	0	0
3638	0	0
3639	0	0
3640	0	0
3641	0	0
3642	0	0
3643	0	0
3644	0	0
3645	0	0
3646	0	0
3647	0	0
3648	0	0
3649	0	0
3650	0	0
3651	0	0
3652	0	0
3653	0	0
3654	0	0
3655	0	0
3656	0	0
3657	0	0
3658	0	0
3659	0	0
3660	0	0
3661	0	0
3662	0	0
3663	0	0
3664	0	0
3665	0	0
3666	0	0
3667	0	0
3668	0	0
3669	0	0
3670	0	0
3671	0	0
3672	0	0
3673	0	0
3674	0	0
3675	0	0
3676	0	0
3677	0	0
3678	0	0
3679	0	0
3680	0	0
3681	0	0
3682	0	0
3683	0	0
3684	0	0
3685	0	0
3686	0	0
3687	0	0
3688	0	0
3689	0	0
3690	0	0
3691	0	0
3692	0	0
3693	0	0
3694	0	0
3695	0	0
3696	0	0
3697	0	0
3698	0	0
3699	0	0
3700	0	0
3701	0	0
3702	0	0
3703	0	0
3704	0	0
3705	0	0
3706	0	0
3707	0	0
3708	0	0
3709	0	0
3710	0	0
3711	0	0
3712	0	0
3713	0	0
3714	0	0
3715	0	0
3716	0	0
3717	0	0
3718	0	0
3719	0	0
3720	0	0
3721	0	0
3722	0	0
3723	0	0
3724	0	0
3725	0	0
3726	0	0
3727	0	0
3728	0	0
3729	0	0
3730	0	0
3731	0	0
3732	0	0
3733	0	0
3734	0	0
3735	0	0
3736	0	0
3737	0	0
3738	0	0
3739	0	0
3740	0	0
3741	0	0
3742	0	0
3743	0	0
3744	0	0
3745	0	0
3746	0	0
3747	0	0
3748	0	0
3749	0	0
3750	0	0
3751	0	0
3752	0	0
3753	0	0
3754	0	0
3755	0	0
3756	0	0
3757	0	0
3758	0	0
3759	0	0
3760	0	0
3761	0	0
3762	0	0
3763	0	0
3764	0	0
3765	0	0
3766	0	0
3767	0	0
3768	0	0
3769	0	0
3770	0	0
3771	0	0
3772	0	0
3773	0	0
3774	0	0
3775	0	0
3776	0	0
3777	0	0
3778	0	0
3779	0	0
3780	0	0
3781	0	0
3782	0	0
3783	0	0
3784	0	0
3785	0	0
3786	0	0
3787	0	0
3788	0	0
3789	0	0
3790	0	0
3791	0	0
3792	0	0
3793	0	0
3794	0	0
3795	0	0
3796	0	0
3797	0	0
3798	0	0
3799	0	0
3800	0	0
3801	0	0
3802	0	0
3803	0	0
3804	0	0
3805	0	0
3806	0	0
3807	0	0
3808	0	0
3809	0	0
3810	0	0
3811	0	0
3812	0	0
3813	0	0
3814	0	0
3815	0	0
3816	0	0
3817	0	0
3818	0	0
3819	0	0
3820	0	0
3821	0	0
