Site	ColumnScore	SumOfPairsScore
1	0	0
2	0	0
3	0	0
4	0	0
5	0	0
6	0	0
7	0	0
8	0	0
9	0	0
10	0	0
11	0	0
12	0	0
13	0	0
14	0	0
15	0	0
16	0	0
17	0	0
18	0	0
19	0	0
20	0	0
21	0	0
22	0	0
23	0	0
24	0	0
25	0	0
26	0	0
27	0	0
28	0	0
29	0	0
30	0	0
31	0	0
32	0	0
33	0	0
34	0	0
35	0	0
36	0	0
37	0	0
38	0	0
39	0	0
40	0	0
41	0	0
42	0	0
43	0	0
44	0	0
45	0	0
46	0	0
47	0	0
48	0	0
49	0	0
50	0	0
51	0	0
52	0	0
53	0	0
54	0	0
55	0	0
56	0	0
57	1	0
58	1	0
59	1	0
60	1	0
61	1	0
62	1	0
63	1	0
64	1	0
65	0	0
66	0	0
67	0	0
68	0	0
69	0	0
70	0	0
71	0	0
72	0	0
73	0	0
74	0	0
75	0	0
76	0	0
77	0	0
78	0	0
79	0	0
80	0	0
81	0	0
82	0	0
83	0	0
84	0	0
85	0	0
86	0	0
87	0	0
88	0	0
89	0	0
90	0	0
91	0	0
92	0	0
93	0	0
94	0	0
95	0	0
96	0	0
97	0	0
98	0	0
99	0	0
100	0	0
101	0	0
102	0	0
103	0	0
104	0	0
105	0	0
106	0	0
107	0	0
108	0	0
109	0	0
110	0	0
111	0	0
112	0	0
113	0	0
114	0	0
115	0	0
116	0	0
117	0	0
118	0	0
119	0	0
120	0	0
121	0	0
122	0	0
123	0	0
124	0	0
125	0	0
126	0	0
127	0	0
128	0	0
129	0	0
130	0	0
131	0	0
132	0	0
133	0	0
134	0	0
135	0	0
136	0	0
137	0	0
138	0	0
139	0	0
140	0	0
141	0	0
142	0	0
143	0	0
144	0	0
145	0	0
146	0	0
147	0	0
148	0	0
149	0	0
150	0	0
151	0	0
152	0	0
153	0	0
154	0	0
155	0	0
156	0	0
157	0	0
158	0	0
159	0	0
160	0	0
161	0	0
162	0	0
163	0	0
164	0	0
165	0	0
166	0	0
167	0	0
168	0	0
169	0	0
170	0	0
171	0	0
172	0	0
173	0	0
174	0	0
175	0	0
176	0	0
177	0	0
178	0	0
179	0	0
180	0	0
181	0	0
182	0	0
183	0	0
184	0	0
185	0	0
186	0	0
187	0	0
188	0	0
189	0	0
190	0	0
191	0	0
192	0	0
193	0	0
194	0	0
195	0	0
196	0	0
197	0	0
198	0	0
199	1	0
200	1	0
201	0	0
202	0	0
203	0	0
204	0	0
205	0	0
206	0	0
207	0	0
208	0	0
209	0	0
210	0	0
211	0	0
212	0	0
213	0	0
214	0	0
215	0	0
216	0	0
217	0	0
218	0	0
219	0	0
220	0	0
221	1	0
222	1	0
223	0	0
224	0	0
225	0	0
226	0	0
227	0	0
228	0	0
229	0	0
230	0	0
231	0	0
232	0	0
233	0	0
234	0	0
235	0	0
236	0	0
237	0	0
238	0	0
239	0	0
240	0	0
241	0	0
242	0	0
243	0	0
244	0	0
245	0	0
246	0	0
247	0	0
248	0	0
249	0	0
250	0	0
251	0	0
252	0	0
253	0	0
254	0	0
255	0	0
256	0	0
257	0	0
258	0	0
259	0	0
260	0	0
261	0	0
262	0	0
263	0	0
264	0	0
265	0	0
266	0	0
267	0	0
268	0	0
269	0	0
270	0	0
271	0	0
272	0	0
273	0	0
274	0	0
275	0	0
276	0	0
277	0	0
278	0	0
279	0	0
280	0	0
281	0	0
282	0	0
283	0	0
284	0	0
285	0	0
286	0	0
287	0	0
288	0	0
289	0	0
290	0	0
291	0	0
292	0	0
293	0	0
294	0	0
295	0	0
296	0	0
297	0	0
298	0	0
299	0	0
300	0	0
301	0	0
302	0	0
303	0	0
304	0	0
305	0	0
306	0	0
307	0	0
308	0	0
309	0	0
310	0	0
311	0	0
312	0	0
313	0	0
314	0	0
315	0	0
316	0	0
317	0	0
318	0	0
319	0	0
320	0	0
321	0	0.0277778
322	0	0.0277778
323	0	0.0277778
324	0	0.0444444
325	0	0.0363636
326	0	0.0363636
327	0	0.0363636
328	0	0.0606061
329	0	0.0512821
330	0	0.0769231
331	0	0.0769231
332	0	0.0769231
333	0	0.0769231
334	0	0.0769231
335	0	0.0659341
336	0	0.0659341
337	0	0.125
338	0	0.125
339	0	0.125
340	0	0.110294
341	0	0.110294
342	0	0.0980392
343	0	0.0980392
344	0	0.0980392
345	0	0.104575
346	0	0.104575
347	0	0.104575
348	0	0.104575
349	0	0.104575
350	0	0.104575
351	0	0.104575
352	0	0.0980392
353	0	0.0980392
354	0	0.0980392
355	0	0.104575
356	0	0.104575
357	0	0.104575
358	0	0.104575
359	0	0.104575
360	0	0.104575
361	0	0.104575
362	0	0.104575
363	0	0.104575
364	0	0.104575
365	0	0.104575
366	0	0.0935673
367	0	0.0935673
368	0	0.0935673
369	0	0.0935673
370	0	0.0935673
371	0	0.0935673
372	0	0.0701754
373	0	0.0701754
374	0	0.0701754
375	0	0.0701754
376	0	0.0643275
377	0	0.0643275
378	0	0.0701754
379	0	0.0631579
380	0	0.0631579
381	0	0.0631579
382	0	0.0631579
383	0	0.0631579
384	0	0.0631579
385	0	0.0631579
386	0	0.0631579
387	0	0.0631579
388	0	0.0631579
389	0	0.0631579
390	0	0.0571429
391	0	0.0571429
392	0	0.0571429
393	0	0.0571429
394	0	0.0619048
395	0	0.0619048
396	0	0.0619048
397	0	0.0619048
398	0	0.0619048
399	0	0.0619048
400	0	0.0619048
401	0	0.0619048
402	0	0.0619048
403	0	0.0619048
404	0	0.0619048
405	0	0.0619048
406	0	0.0619048
407	0	0.052381
408	0	0.052381
409	0	0.052381
410	0	0.052381
411	0	0.14127
412	0	0.153298
413	0	0.1875
414	0	0.181513
415	0	0.181513
416	0	0.181513
417	0	0.179832
418	0	0.158645
419	0	0.170455
420	0	0.131034
421	0	0.124731
422	0	0.124731
423	0	0.112644
424	0	0.0809524
425	0	0.0809524
426	0	0.0809524
427	0	0.0809524
428	0	0.0809524
429	0	0.0809524
430	0	0.109524
431	0	0.0809524
432	0	0.0735931
433	0	0.0735931
434	0	0.0735931
435	0	0.0779221
436	0	0.0995671
437	0	0.0995671
438	0	0.0995671
439	0	0.0995671
440	0	0.0995671
441	0	0.0952381
442	0	0.0995671
443	0	0.0909091
444	0	0.0988142
445	0	0.0988142
446	0	0.0988142
447	0	0.0988142
448	0	0.0988142
449	0	0.0988142
450	0	0.0988142
451	0	0.0988142
452	0	0.0988142
453	0	0.0988142
454	0	0.0988142
455	0	0.0988142
456	0	0.0988142
457	0	0.0988142
458	0	0.0988142
459	0	0.0988142
460	0	0.0988142
461	0	0.0988142
462	0	0.0988142
463	0	0.0988142
464	0	0.0988142
465	0	0.0988142
466	0	0.0988142
467	0	0.0988142
468	0	0.0988142
469	0	0.0988142
470	0	0.0988142
471	0	0.0988142
472	0	0.0988142
473	0	0.0988142
474	0	0.0988142
475	0	0.0988142
476	0	0.0988142
477	0	0.0988142
478	0	0.0988142
479	0	0.0988142
480	0	0.0988142
481	0	0.0988142
482	0	0.0905797
483	0	0.0905797
484	0	0.0905797
485	0	0.0905797
486	0	0.0905797
487	0	0.0905797
488	0	0.0905797
489	0	0.0905797
490	0	0.0905797
491	0	0.0905797
492	0	0.0905797
493	0	0.0905797
494	0	0.0905797
495	0	0.0905797
496	0	0.0905797
497	0	0.0905797
498	0	0.0905797
499	0	0.0905797
500	0	0.0905797
501	0	0.0905797
502	0	0.0905797
503	0	0.0905797
504	0	0.0905797
505	0	0.0905797
506	0	0.0905797
507	0	0.0905797
508	0	0.0905797
509	0	0.0905797
510	0	0.0905797
511	0	0.0905797
512	0	0.0905797
513	0	0.0905797
514	0	0.0833333
515	0	0.0833333
516	0	0.0833333
517	0	0.0833333
518	0	0.0833333
519	0	0.0833333
520	0	0.0833333
521	0	0.0833333
522	0	0.0833333
523	0	0.0833333
524	0	0.0833333
525	0	0.0833333
526	0	0.0833333
527	0	0.0833333
528	0	0.0833333
529	0	0.0769231
530	0	0.0769231
531	0	0.0833333
532	0	0.0833333
533	0	0.0833333
534	0	0.0833333
535	0	0.0833333
536	0	0.0833333
537	0	0.0833333
538	0	0.0833333
539	0	0.0833333
540	0	0.0833333
541	0	0.0833333
542	0	0.0833333
543	0	0.09
544	0	0.09
545	0	0.09
546	0	0.09
547	0	0.09
548	0	0.09
549	0	0.09
550	0	0.09
551	0	0.09
552	0	0.09
553	0	0.09
554	0	0.0861538
555	0	0.0861538
556	0	0.0861538
557	0	0.0861538
558	0	0.0861538
559	0	0.0861538
560	0	0.0861538
561	0	0.0861538
562	0	0.0861538
563	0	0.0861538
564	0	0.0861538
565	0	0.0861538
566	0	0.0861538
567	0	0.0861538
568	0	0.0861538
569	0	0.0861538
570	0	0.0861538
571	0	0.0797721
572	0	0.0797721
573	0	0.0797721
574	0	0.0689655
575	0	0.0689655
576	0	0.0643678
577	0	0.0689655
578	0	0.0689655
579	0	0.0643678
580	0	0.0643678
581	0	0.0602151
582	0	0.0602151
583	0	0.0602151
584	0	0.0602151
585	0	0.0246154
586	0	0.0246154
587	0	0.0246154
588	0	0.0246154
589	0	0.0246154
590	0	0.0709677
591	0	0.0709677
592	0	0.0709677
593	0	0.0709677
594	0	0.0394089
595	0	0.0369458
596	0	0.0369458
597	0	0.0369458
598	0	0.088172
599	0	0.104839
600	0	0.104839
601	0	0.104839
602	0	0.0984848
603	0	0.0909091
604	0	0.0909091
605	0	0.0926916
606	0	0.0857143
607	0	0.0857143
608	0	0.0857143
609	0	0.0809524
610	0	0.079798
611	0	0.0758557
612	0	0.0758557
613	0	0.0735816
614	0	0.067451
615	0	0.0656109
616	0	0.124022
617	0	0.107278
618	0	0.0811881
619	0	0.100917
620	0	0.0970252
621	0	0.07969
622	0	0.0658385
623	0	0.0571205
624	0	0.0519298
625	0	0.0540541
626	0	0.0804899
627	0	0.0661017
628	0	0.0629397
629	0	0.0793452
630	0	0.0912641
631	0	0.0557018
632	0	0.0554124
633	0	0.0813968
634	0	0.0749455
635	0	0.171144
636	0	0.150527
637	0	0.141523
638	0	0.255334
639	0	0.261421
640	0	0.258157
641	0	0.287543
642	0	0.234288
643	0	0.221774
644	0	0.364972
645	0	0.344807
646	0	0.339361
647	0	0.24889
648	0	0.263349
649	0	0.131183
650	0	0.14023
651	0	0.230769
652	0	0.257895
653	0	0.257895
654	0	0.552632
655	0	0.614035
656	0	0.614035
657	0	0.614035
658	0	0.614035
659	0	0.614035
660	0	0.614035
661	0	0.614035
662	0	0.614035
663	0	0.614035
664	0	0.614035
665	0	0.614035
666	0	0.614035
667	0	0.614035
668	0	0.614035
669	0	0.614035
670	0	0.614035
671	0	0.614035
672	0	0.614035
673	0	0.614035
674	0	0.614035
675	0	0.614035
676	0	0.614035
677	0	0.614035
678	0	0.614035
679	0	0.614035
680	0	0.614035
681	0	0.614035
682	0	0.614035
683	0	0.614035
684	0	0.614035
685	0	0.614035
686	0	0.614035
687	0	0.614035
688	0	0.614035
689	0	0.614035
690	0	0.614035
691	0	0.614035
692	0	0.614035
693	0	0.614035
694	0	0.614035
695	0	0.614035
696	0	0.614035
697	0	0.614035
698	0	0.614035
699	0	0.614035
700	0	0.614035
701	0	0.614035
702	0	0.686275
703	0	0.686275
704	0	0.686275
705	0	0.686275
706	0	0.686275
707	0	0.686275
708	0	0.686275
709	0	0.686275
710	0	0.686275
711	0	0.686275
712	0	0.686275
713	0	0.686275
714	0	0.686275
715	0	0.686275
716	0	0.686275
717	0	0.686275
718	0	0.686275
719	0	0.686275
720	0	0.686275
721	0	0.686275
722	0	0.686275
723	0	0.686275
724	0	0.686275
725	0	0.686275
726	0	0.686275
727	0	0.686275
728	0	0.686275
729	0	0.686275
730	0	0.686275
731	0	0.686275
732	0	0.686275
733	0	0.686275
734	0	0.686275
735	0	0.686275
736	0	0.686275
737	0	0.686275
738	0	0.686275
739	0	0.686275
740	0	0.686275
741	0	0.686275
742	0	0.686275
743	0	0.686275
744	0	0.686275
745	0	0.686275
746	0	0.686275
747	0	0.686275
748	0	0.686275
749	0	0.686275
750	0	0.686275
751	0	0.686275
752	0	0.686275
753	0	0.686275
754	0	0.686275
755	0	0.686275
756	0	0.686275
757	0	0.686275
758	0	0.686275
759	0	0.686275
760	0	0.686275
761	0	0.686275
762	0	0.686275
763	0	0.686275
764	0	0.686275
765	0	0.686275
766	0	0.686275
767	0	0.686275
768	0	0.686275
769	0	0.686275
770	0	0.686275
771	0	0.686275
772	0	0.686275
773	0	0.686275
774	0	0.686275
775	0	0.686275
776	0	0.686275
777	0	0.686275
778	0	0.686275
779	0	0.686275
780	0	0.686275
781	0	0.686275
782	0	0.686275
783	0	0.686275
784	0	0.686275
785	0	0.686275
786	0	0.686275
787	0	0.686275
788	0	0.686275
789	0	0.686275
790	0	0.686275
791	0	0.686275
792	0	0.686275
793	0	0.686275
794	0	0.686275
795	0	0.686275
796	0	0.686275
797	0	0.686275
798	0	0.686275
799	0	0.686275
800	0	0.686275
801	0	0.686275
802	0	0.686275
803	0	0.686275
804	0	0.686275
805	0	0.686275
806	0	0.686275
807	0	0.686275
808	0	0.686275
809	0	0.686275
810	0	0.686275
811	0	0.686275
812	0	0.686275
813	0	0.686275
814	0	0.686275
815	0	0.686275
816	0	0.686275
817	0	0.686275
818	0	0.686275
819	0	0.686275
820	0	0.686275
821	0	0.686275
822	0	0.686275
823	0	0.686275
824	0	0.686275
825	0	0.686275
826	0	0.686275
827	0	0.686275
828	0	0.686275
829	0	0.686275
830	0	0.686275
831	0	0.594771
832	0	0.594771
833	0	0.594771
834	0	0.340659
835	0	0.45098
836	0	0.45098
837	0	0.45098
838	0	0.45098
839	0	0.45098
840	0	0.45098
841	0	0.45098
842	0	0.45098
843	0	0.45098
844	0	0.45098
845	0	0.45098
846	0	0.45098
847	0	0.45098
848	0	0.45098
849	0	0.45098
850	0	0.45098
851	0	0.45098
852	0	0.45098
853	0	0.45098
854	0	0.45098
855	0	0.45098
856	0	0.45098
857	0	0.45098
858	0	0.45098
859	0	0.45098
860	0	0.45098
861	0	0.45098
862	0	0.45098
863	0	0.45098
864	0	0.45098
865	0	0.507353
866	0	0.507353
867	0	0.507353
868	0	0.507353
869	0	0.507353
870	0	0.507353
871	0	0.507353
872	0	0.507353
873	0	0.507353
874	0	0.507353
875	0	0.507353
876	0	0.507353
877	0	0.507353
878	0	0.507353
879	0	0.507353
880	0	0.507353
881	0	0.507353
882	0	0.507353
883	0	0.507353
884	0	0.507353
885	0	0.507353
886	0	0.507353
887	0	0.507353
888	0	0.507353
889	0	0.507353
890	0	0.507353
891	0	0.507353
892	0	0.507353
893	0	0.507353
894	0	0.507353
895	0	0.507353
896	0	0.507353
897	0	0.507353
898	0	0.507353
899	0	0.507353
900	0	0.507353
901	0	0.507353
902	0	0.507353
903	0	0.507353
904	0	0.507353
905	0	0.507353
906	0	0.507353
907	0	0.507353
908	0	0.507353
909	0	0.507353
910	0	0.507353
911	0	0.507353
912	0	0.507353
913	0	0.507353
914	0	0.507353
915	0	0.507353
916	0	0.507353
917	0	0.507353
918	0	0.507353
919	0	0.507353
920	0	0.507353
921	0	0.507353
922	0	0.507353
923	0	0.507353
924	0	0.507353
925	0	0.507353
926	0	0.507353
927	0	0.507353
928	0	0.507353
929	0	0.507353
930	0	0.507353
931	0	0.507353
932	0	0.507353
933	0	0.507353
934	0	0.507353
935	0	0.507353
936	0	0.507353
937	0	0.360294
938	0	0.457143
939	0	0.457143
940	0	0.507353
941	0	0.507353
942	0	0.507353
943	0	0.507353
944	0	0.507353
945	0	0.507353
946	0	0.507353
947	0	0.507353
948	0	0.507353
949	0	0.507353
950	0	0.507353
951	0	0.507353
952	0	0.507353
953	0	0.507353
954	0	0.507353
955	0	0.507353
956	0	0.507353
957	0	0.507353
958	0	0.507353
959	0	0.507353
960	0	0.507353
961	0	0.507353
962	0	0.507353
963	0	0.507353
964	0	0.507353
965	0	0.507353
966	0	0.507353
967	0	0.507353
968	0	0.507353
969	0	0.507353
970	0	0.507353
971	0	0.507353
972	0	0.507353
973	0	0.507353
974	0	0.507353
975	0	0.507353
976	0	0.507353
977	0	0.507353
978	0	0.507353
979	0	0.507353
980	0	0.507353
981	0	0.507353
982	0	0.507353
983	0	0.507353
984	0	0.507353
985	0	0.507353
986	0	0.507353
987	0	0.507353
988	0	0.507353
989	0	0.507353
990	0	0.507353
991	0	0.507353
992	0	0.507353
993	0	0.507353
994	0	0.507353
995	0	0.507353
996	0	0.507353
997	0	0.507353
998	0	0.507353
999	0	0.507353
1000	0	0.507353
1001	0	0.507353
1002	0	0.507353
1003	0	0.507353
1004	0	0.507353
1005	0	0.507353
1006	0	0.507353
1007	0	0.507353
1008	0	0.507353
1009	0	0.507353
1010	0	0.507353
1011	0	0.507353
1012	0	0.507353
1013	0	0.507353
1014	0	0.507353
1015	0	0.507353
1016	0	0.483333
1017	0	0.483333
1018	0	0.483333
1019	0	0.483333
1020	0	0.483333
1021	0	0.483333
1022	0	0.483333
1023	0	0.483333
1024	0	0.425
1025	0	0.425
1026	0	0.25
1027	0	0.25
1028	0	0.138889
1029	0	0.138889
1030	0	0.138889
1031	0	0.111111
1032	0	0.0555556
1033	0	0.0555556
1034	0	0.0444444
1035	0	0.0444444
1036	0	0.0363636
1037	0	0.0549451
1038	0	0.0549451
1039	0	0.0549451
1040	0	0.0549451
1041	0	0.0549451
1042	0	0.0549451
1043	0	0.047619
1044	0	0.0416667
1045	0	0.05
1046	0	0.05
1047	0	0.0333333
1048	0	0.0333333
1049	0	0.025
1050	0	0.025
1051	0	0.025
1052	0	0.025
1053	0	0.0333333
1054	0	0.0416667
1055	0	0.0416667
1056	0	0.05
1057	0	0.05
1058	0	0.0916667
1059	0	0.0916667
1060	0	0.0916667
1061	0	0.158333
1062	0	0.158333
1063	0	0.15
1064	0	0.158333
1065	0	0.158333
1066	0	0.158333
1067	0	0.158333
1068	0	0.158333
1069	0	0.208333
1070	0	0.258333
1071	0	0.258333
1072	0	0.258333
1073	0	0.258333
1074	0	0.258333
1075	0	0.258333
1076	0	0.258333
1077	0	0.295238
1078	0	0.295238
1079	0	0.295238
1080	0	0.295238
1081	0	0.295238
1082	0	0.295238
1083	0	0.295238
1084	0	0.295238
1085	0	0.295238
1086	0	0.340659
1087	0	0.340659
1088	0	0.340659
1089	0	0.340659
1090	0	0.340659
1091	0	0.371795
1092	0	0.371795
1093	0	0.318681
1094	0	0.318681
1095	0	0.318681
1096	0	0.358974
1097	0	0.358974
1098	0	0.358974
1099	0	0.358974
1100	0	0.358974
1101	0	0.358974
1102	0	0.358974
1103	0	0.358974
1104	0	0.358974
1105	0	0.371795
1106	0	0.371795
1107	0	0.371795
1108	0	0.424242
1109	0	0.424242
1110	0	0.424242
1111	0	0.509091
1112	0	0.509091
1113	0	0.509091
1114	0	0.466667
1115	0	0.466667
1116	0	0.466667
1117	0	0.466667
1118	0	0.466667
1119	0	0.466667
1120	0	0.466667
1121	0	0.466667
1122	0	0.466667
1123	0	0.466667
1124	0	0.466667
1125	0	0.466667
1126	0	0.466667
1127	0	0.466667
1128	0	0.466667
1129	0	0.466667
1130	0	0.466667
1131	0	0.466667
1132	0	0.416667
1133	0	0.285714
1134	0	0.142857
1135	0	0.2
1136	0	0.2
1137	0	0.2
1138	0	0.1
1139	0	0.1
1140	0	0.1
1141	0	0.1
1142	0	0.1
1143	0	0.1
1144	0	0.1
1145	0	0.1
1146	0	0.1
1147	0	0.1
1148	0	0.1
1149	0	0.1
1150	0	0.1
1151	0	0.1
1152	0	0.1
1153	0	0.1
1154	0	0.1
1155	0	0.1
1156	0	0.1
1157	0	0.1
1158	0	0.1
1159	0	0.1
1160	0	0.1
1161	0	0.1
1162	0	0.1
1163	0	0
1164	0	0
1165	0	0
1166	0	0
1167	0	0
1168	0	0
1169	0	0
1170	0	0
1171	0	0
1172	0	0
1173	0	0
1174	0	0
1175	0	0.0555556
1176	0	0.0454545
1177	0	0.0757576
1178	0	0.0757576
1179	0	0.0757576
1180	0	0.0888889
1181	0	0.272727
1182	0	0.230769
1183	0	0
1184	0	0
1185	0	0
1186	0	0
1187	0	0
1188	0	0.4
1189	0	0.428571
1190	0	0.418561
1191	0	0.508788
1192	0	0.413521
1193	0	0.335238
1194	0	0.342884
1195	0	0.0320197
1196	0	0.0343915
1197	0	0.0366667
1198	0	0.038961
1199	0	0.0428571
1200	0	0.0380952
1201	0	0.047619
1202	0	0.0380952
1203	0	0.0380952
1204	0	0.0421053
1205	0	0.0421053
1206	0	0.0421053
1207	0	0.0421053
1208	0	0.0421053
1209	0	0.0421053
1210	0	0.0526316
1211	0	0.0526316
1212	0	0.0526316
1213	0	0.0578947
1214	0	0.0441176
1215	0	0.0441176
1216	0	0.444648
1217	0	0.129032
1218	0	0.129032
1219	0	0.120879
1220	0	0.0769231
1221	0	0.0761905
1222	0	0.0761905
1223	0	0.0761905
1224	0	0.0761905
1225	0	0.0761905
1226	0	0.0761905
1227	0	0.0761905
1228	0	0.0761905
1229	0	0.0857143
1230	0	0.0857143
1231	0	0.0549451
1232	0	0.0571429
1233	0	0.114286
1234	0	0.114286
1235	0	0.307692
1236	0	0.471696
1237	0	0.0666667
1238	0	0.0666667
1239	0	0.0666667
1240	0	0.217073
1241	0	0.228049
1242	0	0.345661
1243	0	0.445946
1244	0	0.426743
1245	0	0.478979
1246	0	0.56328
1247	0	0.52296
1248	0	0.3
1249	0	0.6
1250	0	0.6
1251	0	0.4
1252	0	0.6
1253	0	0.6
1254	0	0.47619
1255	0	0.526175
1256	0	0
1257	0	0
1258	0	0
1259	0	0
1260	0	0
1261	0	0
1262	0	0
1263	0	0
1264	0	0
1265	0	0
1266	0	0
1267	0	0
1268	0	0
1269	0	0
1270	0	0
1271	0	0
1272	0	0
1273	0	0
1274	0	0
1275	0	0
1276	0	0
1277	0	0
1278	0	0
1279	0	0
1280	0	0
1281	0	0
1282	0	0
1283	0	0
1284	0	0
1285	0	0
1286	0	0
1287	0	0
1288	0	0
1289	0	0
1290	0	0
1291	0	0
1292	0	0
1293	0	0
1294	0	0
1295	0	0
1296	0	0
1297	0	0.333333
1298	0	0.333333
1299	0	0.333333
1300	0	0.333333
1301	0	0.333333
1302	0	0.333333
1303	0	0.333333
1304	0	0.333333
1305	0	0.533423
1306	0	0.0948617
1307	0	0.533689
1308	0	0
1309	0	0
1310	0	0
1311	0	0
1312	0	0
1313	0	0
1314	0	0
1315	0	0
1316	0	0
1317	0	0
1318	0	0
1319	0	0
1320	0	0
1321	0	0
1322	0	0
1323	0	0
1324	0	0
1325	0	0.166667
1326	0	0.166667
1327	0	0.166667
1328	0	0.166667
1329	0	0.166667
1330	0	0.166667
1331	0	0.166667
1332	0	0.1
1333	0	0.133333
1334	0	0.784314
1335	0	0.549072
1336	0	0.548564
1337	0	0.548251
1338	0	0.544201
1339	0	0.531627
1340	0	0
1341	0	0
1342	0	0
1343	0	0
1344	0	0
1345	0	0
1346	0	0
1347	0	0
1348	0	0
1349	0	0
1350	0	0
1351	0	0
1352	0	0
1353	0	0
1354	0	0
1355	0	0
1356	0	0
1357	0	0
1358	0	0
1359	0	0
1360	0	0
1361	0	0
1362	0	0
1363	0	0
1364	0	0
1365	0	0
1366	0	0
1367	0	0
1368	0	0
1369	0	0
1370	0	0
1371	0	0
1372	0	0
1373	0	0
1374	0	0
1375	0	0
1376	0	0
1377	0	0
1378	0	0
1379	0	0
1380	0	0
1381	0	0
1382	0	0
1383	0	0
1384	0	0
1385	0	0
1386	0	0
1387	0	0
1388	0	0
1389	0	0
1390	0	0
1391	0	0
1392	0	0
1393	0	0
1394	0	0
1395	0	0
1396	0	0
1397	0	0.1
1398	0	0.541856
1399	0	0.543808
1400	0	1
1401	0	1
1402	0	0.375866
1403	0	0
1404	0	0
1405	0	0
1406	0	0
1407	0	0
1408	0	0
1409	0	0
1410	0	0
1411	0	0
1412	0	0
1413	0	0.233532
1414	0	0.0666667
1415	0	0.161422
1416	0	0.200351
1417	0	0.205335
1418	0	0.1
1419	0	0.1
1420	0	0.1
1421	0	0.1
1422	0	0.0666667
1423	0	0.0666667
1424	0	0.0666667
1425	0	0.047619
1426	0	0.047619
1427	0	0.047619
1428	0	0.0357143
1429	0	0.0357143
1430	0	0.0357143
1431	0	0.0277778
1432	0	0.0277778
1433	0	0.0555556
1434	0	0.869645
1435	0	0.869645
1436	0	0.484638
1437	0	0
1438	0	0
1439	0	0
1440	0	0
1441	0	0
1442	0	0
1443	0	0
1444	0	0
1445	0	0
1446	0	0
1447	0	0
1448	0	0
1449	0	0
1450	0	0.166667
1451	0	0.166667
1452	0	0.166667
1453	0	0.166667
1454	0	0.166667
1455	0	0.166667
1456	0	0.166667
1457	0	0.166667
1458	0	0.166667
1459	0	0.166667
1460	0	0.166667
1461	0	0.333333
1462	0	0.333333
1463	0	0.333333
1464	0	0.333333
1465	0	0.333333
1466	0	0.333333
1467	0	0.333333
1468	0	0.333333
1469	0	0.333333
1470	0	0.333333
1471	0	0.333333
1472	0	0.333333
1473	0	0.333333
1474	0	0.333333
1475	0	0.333333
1476	0	0.333333
1477	0	1
1478	0	1
1479	0	1
1480	0	1
1481	0	1
1482	0	1
1483	0	1
1484	0	1
1485	0	0.592768
1486	0	0
1487	0	0
1488	0	0
1489	0	0
1490	0	0
1491	0	0
1492	0	0
1493	0	0
1494	0	0
1495	0	0
1496	0	0
1497	0	0
1498	0	0
1499	0	0.609505
1500	0	0.61261
1501	0	0.61261
1502	0	0.608373
1503	0	0.60886
1504	0	0.60886
1505	0	0.60886
1506	0	0.607686
1507	0	0.4
1508	0	0.608934
1509	0	0.608934
1510	0	0.608934
1511	0	0.608934
1512	0	0
1513	0	0
1514	0	0
1515	0	0
1516	0	0
1517	0	1
1518	0	1
1519	0	0.614814
1520	0	0.614814
1521	0	0.613629
1522	0	0
1523	0	0
1524	0	0
1525	0	0
1526	0	0
1527	0	0
1528	0	0
1529	0	0
1530	0	0
1531	0	0
1532	0	0
1533	0	0
1534	0	0
1535	0	0
1536	0	0
1537	0	0
1538	0	0.61863
1539	0	0.61863
1540	0	0.617436
1541	0	0.617436
1542	0	0.616245
1543	0	0.615545
1544	0	0.615545
1545	0	0.615545
1546	0	0.615545
1547	0	0.615545
1548	0	0.615545
1549	0	0.615545
1550	0	0.615054
1551	0	0
1552	0	0
1553	0	0.610764
1554	0	0.609596
1555	1	0
1556	1	0
1557	1	0
1558	1	0
1559	1	0
1560	1	0
1561	1	0
1562	1	0
1563	1	0
1564	1	0
1565	0	0
1566	0	0
1567	0	0
1568	0	0
1569	0	0
1570	0	0.611022
1571	0	0.610774
1572	0	0.4
1573	0	0.611506
1574	0	0.610083
1575	0	0.612685
1576	0	0.614114
1577	0	0.61342
1578	0	0.61342
1579	0	0.61342
1580	0	0.61342
1581	0	0.609695
1582	0	0
1583	0	0.611363
1584	0	0.611363
1585	0	0.610439
1586	0	0.610439
1587	0	0.610433
1588	0	0.610433
1589	0	0.610433
1590	0	0.609262
1591	0	0.606933
1592	0	0.606933
1593	0	0.608095
1594	0	0.608095
1595	0	0.333333
1596	0	0.333333
1597	0	0
1598	0	0
1599	0	0
1600	0	0.583284
1601	0	0.262691
1602	0	0.482732
1603	0	0.824038
1604	0	0.3
1605	0	0
1606	0	0
1607	0	0
1608	0	0
1609	0	0
1610	0	0
1611	0	0
1612	0	0.610431
1613	0	0.610431
1614	0	0.610431
1615	0	0
1616	1	0
1617	1	0
1618	1	0
1619	1	0
1620	1	0
1621	1	0
1622	1	0
1623	1	0
1624	1	0
1625	0	0
1626	0	0
1627	0	0
1628	0	0
1629	0	0
1630	0	0
1631	0	0
1632	0	0
1633	0	0
1634	0	0
1635	0	0
1636	0	0
1637	0	0
1638	0	0
1639	0	0.266667
1640	0	0.266667
1641	0	0.266667
1642	0	0.266667
1643	0	0.466667
1644	0	0.550443
1645	0	0.550443
1646	0	0.611849
1647	0	0.611849
1648	0	0.61092
1649	0	0.609262
1650	0	0.956522
1651	0	0.539372
1652	0	0.358131
1653	1	0
1654	0	0
1655	0	0
1656	0	0.543547
1657	0	0.613691
1658	0	0.615872
1659	0	0.615872
1660	0	0.615872
1661	0	0.615389
1662	0	0.615389
1663	0	0.615389
1664	0	0.615389
1665	0	0.615389
1666	0	0.615389
1667	0	0.614702
1668	0	0.614702
1669	0	0.614702
1670	0	0.613521
1671	0	0
1672	0	0
1673	0	0
1674	0	0.613071
1675	0	0.613071
1676	0	0.613071
1677	0	0.613071
1678	0	0.610488
1679	0	0
1680	0	0.611414
1681	0	0.611414
1682	0	0.612586
1683	0	0.612586
1684	0	0.612586
1685	0	0.612586
1686	0	0.612586
1687	0	0
1688	0	0
1689	0	0.977011
1690	0	0.742698
1691	0	0.484079
1692	0	0.688312
1693	0	0
1694	0	0
1695	0	0
1696	0	0
1697	0	0
1698	0	0
1699	0	0
1700	0	0
1701	0	0
1702	0	0
1703	0	0
1704	0	0
1705	0	0
1706	0	0.296471
1707	0	0.272605
1708	0	0.272605
1709	0	0.266667
1710	0	0.266667
1711	0	0.137805
1712	0	0.103529
1713	0	0.441253
1714	0	1
1715	0	0.504505
1716	0	0.333333
1717	0	1
1718	0	1
1719	0	1
1720	0	0.794294
1721	0	0.348088
1722	0	0.320594
1723	0	0.4
1724	0	0.3
1725	0	0.5
1726	0	1
1727	0	0
1728	0	0
1729	0	0.332869
1730	0	0.635081
1731	0	0.711828
1732	0	0.4
1733	0	0.4
1734	0	0.1
1735	0	0.1
1736	0	0
1737	0	0
1738	0	0.17018
1739	0	0.27875
1740	0	0.290105
1741	0	0.321288
1742	0	0.25
1743	0	0.266667
1744	0	0.0952381
1745	0	0.047619
1746	0	0.371795
1747	0	0.358974
1748	0	0.381818
1749	0	0.205128
1750	0	0.125
1751	0	0.138889
1752	0	0.371626
1753	0	0.379588
1754	0	0.383617
1755	0	0.0955808
1756	0	0.241758
1757	0	0.333333
1758	0	0.180247
1759	0	0.269231
1760	0	0.461538
1761	0	0.461538
1762	0	0.261438
1763	0	0.151457
1764	0	0.148246
1765	0	0.100355
1766	0	0.396787
1767	0	0.366252
1768	0	0.42946
1769	0	0.231646
1770	0	0.117352
1771	0	0.192872
1772	0	0.157895
1773	0	0.136842
1774	0	0.217949
1775	0	0.197802
1776	0	0.107143
1777	0	0.142857
1778	0	0.0952381
1779	0	0.206452
1780	0	0.56575
1781	0	0.319267
1782	0	0.191071
1783	0	0.165024
1784	0	0.167092
1785	0	0.25237
1786	0	0.332444
1787	0	0.515873
1788	0	0.515873
1789	0	0.515873
1790	0	0.515873
1791	0	0.171447
1792	0	0.189116
1793	0	0.187824
1794	0	0.328871
1795	0	0.12381
1796	0	0.186813
1797	0	0.25
1798	0	0.25
1799	0	0.426471
1800	0	0.339181
1801	0	0.281385
1802	0	0.259259
1803	0	0.379832
1804	0	0.375201
1805	0	1
1806	0	1
1807	0	1
1808	0	1
1809	0	0.333333
1810	0	0.333333
1811	0	0.333333
1812	0	0.333333
1813	0	0.266667
1814	0	0.466667
1815	0	0.333333
1816	0	0.503079
1817	0	0.213768
1818	0	0.233202
1819	0	0.545455
1820	0	0.552707
1821	0	0.796296
1822	0	0.581479
1823	0	0.145455
1824	0	0.194444
1825	0	0.47619
1826	0	0.47619
1827	0	0
1828	0	0
1829	0	0
1830	0	0
1831	0	0
1832	0	0
1833	0	0.606025
1834	0	0.606025
1835	0	0
1836	0	0
1837	0	0.333333
1838	0	0.333333
1839	0	0.5
1840	0	0.5
1841	0	1
1842	0	1
1843	0	0.613081
1844	0	0.613081
1845	0	0.613081
1846	0	0.613081
1847	0	0.613081
1848	0	0.613081
1849	0	0.613081
1850	0	0.611906
1851	0	0.610492
1852	0	1
1853	0	1
1854	1	1
1855	0	0.602073
1856	0	0.603476
1857	0	0.603476
1858	0	0.603476
1859	0	0.602321
1860	0	0.602321
1861	0	0.602321
1862	0	0.47619
1863	0	0.748305
1864	0	0.467897
1865	0	0.333333
1866	0	0
1867	0	0
1868	0	0
1869	0	0
1870	0	0
1871	0	0
1872	0	0
1873	0	0
1874	0	0
1875	0	0.4
1876	0	0.304094
1877	0	0.19883
1878	0	0.452659
1879	0	0.4
1880	0	0.4
1881	0	0.2
1882	0	0.2
1883	0	0.474359
1884	0	0.338235
1885	0	0.191463
1886	0	0.182875
1887	0	0.231411
1888	0	0.192002
1889	0	0.362074
1890	0	0.304762
1891	0	0.311594
1892	0	0.338095
1893	0	0.583625
1894	0	0.150189
1895	0	0.1586
1896	0	0.253815
1897	0	0.15032
1898	0	1
1899	0	1
1900	0	1
1901	0	0.819048
1902	0	1
1903	0	1
1904	0	1
1905	0	1
1906	0	0.2515
1907	0	0.278791
1908	0	0.428571
1909	0	0.654545
1910	0	0
1911	0	0.333333
1912	0	0.333333
1913	0	0.333333
1914	0	0.554691
1915	0	0.228758
1916	0	0.53881
1917	0	0.184946
1918	0	0
1919	0	0.423656
1920	0	0.691954
1921	0	0.698851
1922	0	0.501415
1923	0	0.549599
1924	0	0.613564
1925	0	0.613564
1926	0	0.614981
1927	0	0.614981
1928	0	0.614981
1929	0	0.614981
1930	0	0.614981
1931	0	0.615258
1932	0	0.615736
1933	0	0.614567
1934	0	0.614567
1935	0	0.410738
1936	0	0.410738
1937	0	0.614567
1938	1	0
1939	1	0
1940	1	0
1941	1	0
1942	1	0
1943	1	0
1944	1	0
1945	1	0
1946	1	0
1947	1	0
1948	1	0
1949	1	0
1950	1	0
1951	1	0
1952	1	0
1953	1	0
1954	1	0
1955	0	0.615975
1956	0	0.615975
1957	0	0.615975
1958	0	0.615975
1959	0	0.61316
1960	1	0
1961	0	0
1962	0	0.615975
1963	0	0.615975
1964	0	0.615975
1965	0	0.615975
1966	0	0.615497
1967	0	1
1968	0	0.333333
1969	0	0.843537
1970	0	0.333333
1971	0	0.307692
1972	0	0.535046
1973	0	0.850126
1974	0	0.429774
1975	0	0.24359
1976	0	0.24359
1977	0	0.24359
1978	0	0.208791
1979	0	0.430499
1980	0	0.369338
1981	0	0.379731
1982	0	0.37859
1983	0	1
1984	0	0.69697
1985	0	0.439153
1986	0	0.439153
1987	0	0.42735
1988	0	0
1989	0	0
1990	0	0
1991	0	0
1992	0	0
1993	0	0
1994	0	0
1995	0	0
1996	0	0
1997	0	0
1998	1	0
1999	1	0
2000	1	0
2001	1	0
2002	1	0
2003	1	0
2004	0	0.164502
2005	0	0.481518
2006	0	0.206774
2007	0	0.225071
2008	0	0.359788
2009	0	0.374384
2010	0	0.446154
2011	0	0.925926
2012	0	1
2013	0	0.337028
2014	0	0
2015	0	0
2016	0	0
2017	0	0
2018	0	0
2019	0	0.107143
2020	0	0.0727273
2021	0	0.137681
2022	0	0.383986
2023	0	0.346519
2024	0	0.19737
2025	0	0.232909
2026	0	0.27021
2027	0	0.373077
2028	0	0.543385
2029	0	0.764103
2030	0	0.26606
2031	0	0.240404
2032	0	0.237743
2033	0	0.163265
2034	0	0.147475
2035	0	0.194949
2036	0	0.217518
2037	0	0.212269
2038	0	0.228875
2039	0	0.289515
2040	0	0.400719
2041	0	0.443153
2042	0	0.476115
2043	0	0.959827
2044	0	0.917488
2045	0	0.601969
2046	0	0.613323
2047	0	0.615727
2048	0	0.615727
2049	0	0.615727
2050	0	0.615727
2051	0	0.615727
2052	0	0.615727
2053	0	0.616898
2054	0	0.617136
2055	0	0.617136
2056	0	0.615284
2057	0	0.615284
2058	0	0.615284
2059	0	0.615284
2060	0	0.615284
2061	0	0.615284
2062	0	0.615284
2063	0	0.615284
2064	0	0.615284
2065	0	0.615284
2066	0	0.615284
2067	0	0.615284
2068	0	1
2069	0	0.61248
2070	0	0.615284
2071	0	0.615284
2072	0	0.615284
2073	0	0.615284
2074	0	0.616452
2075	0	0.616452
2076	0	0
2077	0	0
2078	0	0
2079	0	0
2080	0	0
2081	0	0
2082	0	0
2083	0	0
2084	0	0
2085	0	0
2086	0	0
2087	0	0
2088	0	0.616452
2089	0	0.616452
2090	0	0.6
2091	0	0.6
2092	0	1
2093	0	0.5
2094	0	0.5
2095	0	0.5
2096	0	0.5
2097	0	0.5
2098	0	0.5
2099	1	1
2100	0	0.333333
2101	0	0
2102	0	0
2103	0	0
2104	0	0
2105	0	0
2106	0	0
2107	0	0
2108	0	0
2109	0	0.59373
2110	0	0.5
2111	0	0
2112	0	0.61669
2113	0	0.61669
2114	0	0.61669
2115	0	0.61669
2116	0	0.616246
2117	0	0.616246
2118	0	0.616009
2119	0	0.616009
2120	0	0.616009
2121	0	0.616009
2122	0	0.616009
2123	0	0.615771
2124	0	0.612967
2125	0	1
2126	0	1
2127	0	1
2128	0	1
2129	0	1
2130	0	1
2131	0	1
2132	0	1
2133	0	1
2134	0	1
2135	0	1
2136	0	1
2137	0	1
2138	0	1
2139	0	0.534746
2140	0	0.590682
2141	0	1
2142	0	1
2143	0	1
2144	0	0.590022
2145	0	0.615295
2146	0	0.616009
2147	0	0.616009
2148	0	0.616009
2149	0	0.616009
2150	0	0.616009
2151	0	0.616009
2152	0	0.616009
2153	0	0.614606
2154	1	1
2155	1	1
2156	1	1
2157	0	0
2158	0	0
2159	0	1
2160	0	0.615533
2161	0	0.615533
2162	0	0.615533
2163	1	0
2164	0	0.979221
2165	0	0.377642
2166	0	0.61095
2167	0	0.615975
2168	0	0.615975
2169	0	0.615975
2170	0	0.615727
2171	0	0.614518
2172	0	0.615687
2173	0	0.614518
2174	0	0.615687
2175	0	0.61686
2176	0	0.618276
2177	0	0.615928
2178	0	0.615928
2179	0	0.615446
2180	0	0.616617
2181	0	0.616617
2182	0	0.616617
2183	0	0.615894
2184	0	0.614721
2185	0	0.617764
2186	0	0.617764
2187	0	0.617764
2188	0	0.515152
2189	0	0.515152
2190	0	0.515152
2191	0	0.515152
2192	0	0.515152
2193	0	0.515152
2194	0	0.599967
2195	0	0.599957
2196	0	0.599966
2197	0	0
2198	0	0
2199	0	0
2200	0	0
2201	0	0
2202	0	0
2203	0	0
2204	0	0.809195
2205	0	0.612903
2206	0	0.381643
2207	0	0.245852
2208	0	0.194485
2209	0	0.171209
2210	0	0.17776
2211	0	0.320513
2212	0	0.216524
2213	0	0.267677
2214	0	0.187884
2215	0	0.195804
2216	0	0.187879
2217	0	0.152872
2218	0	0.407091
2219	0	1
2220	0	1
2221	0	1
2222	0	1
2223	0	0.254545
2224	0	0.215385
2225	0	0.18042
2226	0	0.159135
2227	0	0.372295
2228	0	0.835294
2229	0	0.833613
2230	0	0.833613
2231	0	0.369024
2232	0	0.326345
2233	0	0.239744
2234	0	0.252848
2235	0	0.411937
2236	0	0.313257
2237	0	0
2238	0	0
2239	0	0
2240	0	0
2241	0	0.1
2242	0	0.333333
2243	0	0.420213
2244	0	0.47993
2245	0	0.242695
2246	0	0.171532
2247	0	0.203664
2248	0	0.193253
2249	0	0.220915
2250	0	0.204154
2251	0	0.184594
2252	0	0.120974
2253	0	0.195973
2254	0	0.221876
2255	0	0.325163
2256	0	0.180705
2257	0	0.464634
2258	0	0.458537
2259	0	0.482051
2260	0	0.233333
2261	0	0.190476
2262	0	0.190476
2263	0	0.340659
2264	0	0.340659
2265	0	0.366667
2266	0	0.366667
2267	0	0.143022
2268	0	0.169943
2269	0	0.198529
2270	0	0.186441
2271	0	0.228469
2272	0	0.234514
2273	0	0.202429
2274	0	0.125735
2275	0	0.159242
2276	0	0.160714
2277	0	0.142029
2278	0	0.117883
2279	0	0.113102
2280	0	0.109293
2281	0	0.286181
2282	0	0.367146
2283	0	0.19697
2284	0	0.19697
2285	0	0.212121
2286	0	0.153846
2287	0	0.252747
2288	0	0.113636
2289	0	0.144258
2290	0	0.473249
2291	0	0.428219
2292	0	0.302445
2293	0	0.376162
2294	0	0.540981
2295	0	0
2296	0	0
2297	0	0
2298	0	0.882353
2299	0	0
2300	0	0
2301	0	0
2302	0	0.357041
2303	0	0.357041
2304	0	0.357041
2305	0	0.644723
2306	0	0.642982
2307	0	0.609622
2308	0	0.610783
2309	0	0.610783
2310	0	0.611948
2311	0	0.611948
2312	0	0.988571
2313	0	0.418926
2314	0	0.420591
2315	0	0.421683
2316	0	0.420901
2317	0	0.421992
2318	0	0.421992
2319	0	0
2320	0	0
2321	0	0
2322	0	0
2323	0	0.610108
2324	0	0.610108
2325	0	0.613116
2326	0	0.611948
2327	0	0.604283
2328	0	0.60847
2329	0	0.60847
2330	0	0
2331	0	0.666667
2332	0	0.47619
2333	0	0.363636
2334	0	0.692788
2335	0	0.469407
2336	0	1
2337	0	1
2338	0	1
2339	0	1
2340	0	1
2341	0	1
2342	0	0
2343	0	0
2344	0	0
2345	0	0
2346	0	0.333333
2347	0	1
2348	0	1
2349	0	1
2350	0	1
2351	0	1
2352	0	0.2
2353	0	0.2
2354	0	0.607937
2355	0	0.178571
2356	0	0.25
2357	0	0.25
2358	0	0.291667
2359	0	0.235294
2360	0	0.214286
2361	0	0.254545
2362	0	0.209409
2363	0	0.379719
2364	0	0.173935
2365	0	0.156328
2366	0	0.236453
2367	0	0.184192
2368	0	0.175595
2369	0	0.142526
2370	0	0.151803
2371	0	0.15298
2372	0	0.161616
2373	0	0.363501
2374	0	0.363501
2375	0	0.289072
2376	0	0.395668
2377	0	0.379556
2378	0	0.414023
2379	0	0.19055
2380	0	0.3
2381	0	0.3
2382	0	0.5
2383	0	0.5
2384	0	0.5
2385	0	0.5
2386	0	1
2387	0	1
2388	0	1
2389	0	0.5
2390	0	0.5
2391	0	0.208198
2392	0	0.404161
2393	0	0.293926
2394	0	0.468956
2395	0	0
2396	0	0.819303
2397	0	0.854136
2398	0	0.854136
2399	0	0.44645
2400	0	1
2401	0	1
2402	0	1
2403	0	1
2404	0	1
2405	0	1
2406	0	0.408967
2407	0	0.771739
2408	0	0.611948
2409	0	0.611026
2410	0	0.612431
2411	0	0.612431
2412	0	0.613598
2413	0	0.613598
2414	0	0.613839
2415	0	0.613839
2416	0	0.613839
2417	0	0.613839
2418	0	0.613839
2419	0	0.613839
2420	0	0.61151
2421	0	0
2422	0	0
2423	0	0
2424	0	0
2425	0	0
2426	0	0
2427	0	0
2428	0	0
2429	0	0
2430	0	0
2431	0	0
2432	0	0
2433	0	0
2434	0	0
2435	0	1
2436	0	1
2437	0	1
2438	0	1
2439	0	1
2440	0	1
2441	0	1
2442	0	0.612789
2443	0	0
2444	0	0.60511
2445	0	0.604884
2446	0	0.1
2447	0	0.0666667
2448	0	0.0666667
2449	0	0
2450	0	0.047619
2451	0	0.047619
2452	0	0.047619
2453	0	0.047619
2454	0	0.047619
2455	0	0.605308
2456	0	0
2457	0	0
2458	0	0
2459	0	0
2460	0	0
2461	0	0
2462	0	0
2463	0	0
2464	0	0
2465	0	0
2466	0	0
2467	0	0
2468	0	0
2469	0	0
2470	0	0.60903
2471	0	0
2472	0	0
2473	0	0
2474	0	0
2475	0	0
2476	0	0
2477	0	0
2478	0	0
2479	0	0
2480	0	0
2481	0	0
2482	0	0
2483	0	0
2484	0	0
2485	0	0
2486	0	0
2487	0	0
2488	0	0
2489	0	0
2490	0	0
2491	0	0
2492	0	0
2493	0	0
2494	0	0
2495	0	0
2496	0	0
2497	0	0
2498	0	0
2499	0	0
2500	0	0
2501	0	0
2502	0	0
2503	0	0.333333
2504	0	0.333333
2505	0	0.333333
2506	0	0.166667
2507	0	0.166667
2508	0	0.166667
2509	0	0.166667
2510	0	0.166667
2511	0	0.166667
2512	0	0.166667
2513	0	0.166667
2514	0	0.166667
2515	0	0.166667
2516	0	0.1
2517	0	0.0666667
2518	0	0.133333
2519	0	0.133333
2520	0	0.133333
2521	0	0.0714286
2522	0	0.0714286
2523	0	0.0714286
2524	0	0.0555556
2525	0	0.0555556
2526	0	0.0444444
2527	0	0.0444444
2528	0	0.0444444
2529	0	0.0444444
2530	0	0.0888889
2531	0	0.603671
2532	0	0.603671
2533	0	0.429587
2534	0	0.586177
2535	0	0.1
2536	0	0.1
2537	0	0.1
2538	0	0.0666667
2539	0	0.246154
2540	0	0.183908
2541	0	0.416205
2542	0	0.14958
2543	0	0.128205
2544	0	0.420501
2545	0	0.363667
2546	0	0.181159
2547	0	0.293748
2548	0	0.280339
2549	0	0.301851
2550	0	0.328889
2551	0	0.319048
2552	0	0.371921
2553	0	0.298462
2554	0	0.290476
2555	0	0.222222
2556	0	0.222222
2557	0	0.225
2558	0	0.2
2559	0	0.175824
2560	0	0.142857
2561	0	0.142857
2562	0	0.142857
2563	0	0.142857
2564	0	0.142857
2565	0	0.120879
2566	0	0.120879
2567	0	0.10989
2568	0	0.10989
2569	0	0.10989
2570	0	0.10989
2571	0	0.10989
2572	0	0.10989
2573	0	0.10989
2574	0	0.10989
2575	0	0.10989
2576	0	0.10989
2577	0	0.10989
2578	0	0.10989
2579	0	0.10989
2580	0	0.10989
2581	0	0.10989
2582	0	0.120879
2583	0	0.120879
2584	0	0.120879
2585	0	0.104762
2586	0	0.0916667
2587	0	0.0808824
2588	0	0.0643275
2589	0	0.0578947
2590	0	0.0513834
2591	0	0.0492308
2592	0	0.305379
2593	0	0.274141
2594	0	0.188739
2595	0	0.176946
2596	0	0.166771
2597	0	0.1591
2598	0	0.146427
2599	0	0.135103
2600	0	0.112601
2601	0	0.112358
2602	0	0.0905983
2603	0	0.076006
2604	0	0.0573966
2605	0	0.0567288
2606	0	0.0539841
2607	0	0.0503294
2608	0	0.0540107
2609	0	0.0530269
2610	0	0.0553072
2611	0	0.0759212
2612	0	0.0760105
2613	0	0.0785714
2614	0	0.0762698
2615	0	0.0785841
2616	0	0.0776984
2617	0	0.0798581
2618	0	0.0819005
2619	0	0.0818593
2620	0	0.0825998
2621	0	0.0828975
2622	0	0.0883773
2623	0	0.0982926
2624	0	0.103087
2625	0	0.108659
2626	0	0.116943
2627	0	0.128855
2628	0	0.133324
2629	0	0.138832
2630	0	0.152158
2631	0	0.154571
2632	0	0.168018
2633	0	0.179103
2634	0	0.179103
2635	0	0.186008
2636	0	0.189993
2637	0	0.189993
2638	0	0.210687
2639	0	0.210335
2640	0	0.219488
2641	0	0.232101
2642	0	0.250677
2643	0	0.246359
2644	0	0.254672
2645	0	0.251674
2646	0	0.251674
2647	0	0.260094
2648	0	0.264618
2649	0	0.26926
2650	0	0.28314
2651	0	0.28314
2652	0	0.292911
2653	0	0.292911
2654	0	0.303911
2655	0	0.315364
2656	0	0.352121
2657	0	0.352121
2658	0	0.352121
2659	0	0.357658
2660	0	0.330668
2661	0	0.349899
2662	0	0.371778
2663	0	0.379386
2664	0	0.374468
2665	0	0.374468
2666	0	0.390837
2667	0	0.399427
2668	0	0.424897
2669	0	0.429719
2670	0	0.429719
2671	0	0.450166
2672	0	0.450166
2673	0	0.429145
2674	0	0.439612
2675	0	0.471937
2676	0	0.483288
2677	0	0.49537
2678	0	0.49537
2679	0	0.49537
2680	0	0.49537
2681	0	0.533467
2682	0	0.561754
2683	0	0.547163
2684	0	0.561754
2685	0	0.597117
2686	0	0.618018
2687	0	0.652207
2688	0	0.0666667
2689	0	0.0666667
2690	0	0
2691	0	0
2692	0	0
2693	0	0
2694	0	0
2695	0	0
2696	0	0
2697	0	0
2698	0	0.903279
2699	0	0.903279
2700	0	0.903279
2701	0	0.934973
2702	0	0.934973
2703	0	0.934973
2704	0	0.903279
2705	0	0.903279
2706	0	0.903279
2707	0	0.903279
2708	0	0
2709	0	0
2710	0	0
2711	0	0
2712	0	0
2713	0	0
2714	0	0
2715	0	0
2716	0	0
2717	0	0.874141
2718	0	0.874141
2719	0	0.874141
2720	0	0.874141
2721	0	0
2722	0	0
2723	0	0.901695
2724	0	0.904812
2725	0	0.904812
2726	0	0.904812
2727	0	0.904812
2728	0	0.904812
2729	0	0.876088
2730	0	0.876088
2731	0	0.876088
2732	0	0.876088
2733	0	0.84871
2734	0	0.84871
2735	0	0.84871
2736	0	0.822596
2737	0	0.797669
2738	0	0.797669
2739	0	0.794712
2740	0	0.740865
2741	0	0.581961
2742	0	0.643169
2743	0	0.606234
2744	0	0
2745	0	0
2746	0	0
2747	0	0
2748	0	0
2749	0	0.2
2750	0	0.142857
2751	0	0.166667
2752	0	0.166667
2753	0	0.166667
2754	0	0.383053
2755	0	0.110887
2756	0	0.109848
2757	0	0.0825397
2758	0	0.0780781
2759	0	0.0674764
2760	0	0.24265
2761	0	0.235903
2762	0	0.232129
2763	0	0.23065
2764	0	0.200709
2765	0	0.193633
2766	0	0.19519
2767	0	0.194872
2768	0	0.184479
2769	0	0.190873
2770	0	0.207523
2771	0	0.205214
2772	0	0.221926
2773	0	0.265219
2774	0	0.338658
2775	0	0.361405
2776	0	0.36686
2777	0	0.37368
2778	0	0.377797
2779	0	0.379164
2780	0	0.375088
2781	0	0.37514
2782	0	0.379217
2783	0	0.379217
2784	0	0.379425
2785	0	0.379295
2786	0	0.379165
2787	0	0.381874
2788	0	0.381874
2789	0	0.381874
2790	0	0.385868
2791	0	0.383122
2792	0	0.384921
2793	0	0.38679
2794	0	0.397945
2795	0	0.397945
2796	0	0.397945
2797	0	0.397945
2798	0	0.397945
2799	0	0.400765
2800	0	0.39785
2801	0	0.39363
2802	0	0.389436
2803	0	0.389436
2804	0	0.371675
2805	0	0.371675
2806	0	0.296677
2807	0	0.279735
2808	0	0.199009
2809	0	0.226837
2810	0	0.238672
2811	0	0.242119
2812	0	0.316488
2813	0	0.336806
2814	0	0.34767
2815	0	0.383051
2816	0	0.395675
2817	0	0.451852
2818	0	0.367257
2819	0	0.358249
2820	0	0.358249
2821	0	0.358407
2822	0	0.358407
2823	0	0.364865
2824	0	0.358249
2825	0	0.358565
2826	0	0.359967
2827	0	0.347651
2828	0	0.356017
2829	0	0.356338
2830	0	0.404726
2831	0	0.401649
2832	0	0.406747
2833	0	0.408289
2834	0	0.412667
2835	0	0.411179
2836	0	0.411179
2837	0	0.411179
2838	0	0.412191
2839	0	0.412191
2840	0	0.412191
2841	0	0.415255
2842	0	0.58409
2843	0	0.411141
2844	0	0.427924
2845	0	0.427924
2846	0	0.427924
2847	0	0.427924
2848	0	0.427924
2849	0	0
2850	0	0
2851	0	0
2852	0	0
2853	0	0
2854	0	0
2855	0	0
2856	0	0
2857	0	0
2858	0	0
2859	0	0.640336
2860	0	0.631016
2861	0	0.479455
2862	0	0.479455
2863	0	0.483761
2864	0	0.4804
2865	0	0.474157
2866	0	0.738095
2867	0	0.754645
2868	0	0.754645
2869	0	0.776739
2870	0	0.776739
2871	0	0.765584
2872	0	0.748869
2873	0	0.748869
2874	0	0.778824
2875	0	0.236364
2876	0	0.2
2877	0	0.2
2878	0	0.2
2879	0	0.2
2880	0	0.2
2881	0	0.163636
2882	0	0.163636
2883	0	0.163636
2884	0	0.163636
2885	0	0.163636
2886	0	0.163636
2887	0	0.2
2888	0	0.2
2889	0	0.125
2890	0	0.32914
2891	0	0.188034
2892	0	0.449718
2893	0	0.540113
2894	0	0.540113
2895	0	0.194444
2896	0	0.1
2897	0	0.1
2898	0	0.1
2899	0	0.673224
2900	0	0.673224
2901	0	0.673224
2902	0	0.673224
2903	0	0.512568
2904	0	0.512568
2905	0	0.366013
2906	0	0.20915
2907	0	0.698907
2908	0	0.698907
2909	0	0.698907
2910	0	0.698907
2911	0	0.722599
2912	0	0.722599
2913	0	0.722599
2914	0	0.471178
2915	0	0.28655
2916	0	0.514904
2917	0	0.588545
2918	0	0.0989011
2919	0	0.121212
2920	0	0.121212
2921	0	0.115385
2922	0	0.115385
2923	0	0.115385
2924	0	0
2925	0	0
2926	0	0
2927	0	0.505495
2928	0	0.505495
2929	0	0.505495
2930	0	0.872678
2931	0	0.872678
2932	0	0.166667
2933	0	0.934973
2934	0	0.934973
2935	0	0.934973
2936	0	0.934973
2937	0	0.934973
2938	0	0.934973
2939	0	0.934973
2940	0	0.934973
2941	0	0.934973
2942	0	0.934973
2943	0	0.934973
2944	0	0.934973
2945	0	0.934973
2946	0	0.934973
2947	0	0.904812
2948	0	0.904812
2949	0	0.904812
2950	0	0.904812
2951	0	0.490002
2952	0	0.490002
2953	0	0.490002
2954	0	0.490002
2955	0	0.483772
2956	0	0.448904
2957	0	0.448904
2958	0	0.448465
2959	0	0.738649
2960	0	0.738649
2961	0	0.738649
2962	0	0.774681
2963	0	0.437426
2964	0	0.421093
2965	0	0.38814
2966	0	0.38814
2967	0	0.327291
2968	0	0.578776
2969	0	0.411905
2970	0	0.396755
2971	0	0.389408
2972	0	0.389408
2973	0	0.389408
2974	0	0.389408
2975	0	0.389062
2976	0	0.375146
2977	0	0.368387
2978	0	0.368387
2979	0	0.477441
2980	0	0.358174
2981	0	0.357206
2982	0	0.351152
2983	0	0.319171
2984	0	0.243447
2985	0	0.22836
2986	0	0.225822
2987	0	0.187746
2988	0	0.184593
2989	0	0.186491
2990	0	0.186632
2991	0	0.363142
2992	0	0.366558
2993	0	0.367955
2994	0	0.306909
2995	0	0.408226
2996	0	0.262735
2997	0	0.271831
2998	0	0.428374
2999	0	0.42965
3000	0	0.42965
3001	0	0.42965
3002	0	0.42965
3003	0	0.42965
3004	0	0.42965
3005	0	0.42965
3006	0	0.42965
3007	0	0.423925
3008	0	0.423925
3009	0	0.396765
3010	0	0.380224
3011	0	0.287879
3012	0	0.259489
3013	0	0.176513
3014	0	0.149275
3015	0	0.168384
3016	0	0.207466
3017	0	0.269174
3018	0	0.275821
3019	0	0.296981
3020	0	0.335061
3021	0	0.467563
3022	0	0.500627
3023	0	0.614902
3024	0	0.692376
3025	0	0.692376
3026	0	0.722479
3027	0	0.722479
3028	0	0.722479
3029	0	0.410633
3030	0	0.415026
3031	0	0.423897
3032	0	0.427096
3033	0	0.427096
3034	0	0.428374
3035	0	0.428374
3036	0	0.428374
3037	0	0.428374
3038	0	0.428374
3039	0	0.43288
3040	0	0.43288
3041	0	0.43288
3042	0	0.43288
3043	0	0.43288
3044	0	0.428559
3045	0	0.428559
3046	0	0.428559
3047	0	0.428559
3048	0	0.428559
3049	0	0.428559
3050	0	0.423808
3051	0	0.0277778
3052	0	0.183333
3053	0	0.467331
3054	0	0.541667
3055	0	0.541667
3056	0	0.541667
3057	0	0.541667
3058	0	0.437456
3059	0	0.345849
3060	0	0.293679
3061	0	0.25324
3062	0	0.253993
3063	0	0.211332
3064	0	0.190873
3065	0	0.183502
3066	0	0.177811
3067	0	0.181339
3068	0	0.165633
3069	0	0.2022
3070	0	0.265981
3071	0	0.280923
3072	0	0.288948
3073	0	0.259829
3074	0	0.260607
3075	0	0.371054
3076	0	0.391833
3077	0	0.421739
3078	0	0.421739
3079	0	0.424898
3080	0	0.424898
3081	0	0.424898
3082	0	0.424898
3083	0	0.425819
3084	0	0.425819
3085	0	0.425819
3086	0	0.412399
3087	0	0.357347
3088	0	0.33579
3089	0	0.505682
3090	0	0.326677
3091	0	0.403456
3092	0	0.582828
3093	0	0.582828
3094	0	0.638981
3095	0	0.670151
3096	0	0.670151
3097	0	0.670151
3098	0	0.670151
3099	0	0.670151
3100	0	0.670151
3101	0	0.670151
3102	0	0.670151
3103	0	0.670151
3104	0	0.670151
3105	0	0.670151
3106	0	0.670151
3107	0	0.670151
3108	0	0.670151
3109	0	0.907085
3110	0	0.907085
3111	0	0.907085
3112	0	0.907085
3113	0	0.907085
3114	0	0.907085
3115	0	0.907085
3116	0	0.907085
3117	0	0.907085
3118	0	0.907085
3119	0	0.907085
3120	0	0.907085
3121	0	0.907085
3122	0	0.907085
3123	0	0.907085
3124	0	0.907085
3125	0	0.907085
3126	0	0.907085
3127	0	0.907085
3128	0	0.907085
3129	0	0.907085
3130	0	0.907085
3131	0	0.907085
3132	0	0.907085
3133	0	0.907085
3134	0	0.907085
3135	0	0.907085
3136	0	0.907085
3137	0	0.907085
3138	0	0.907085
3139	0	0.907085
3140	0	0.907085
3141	0	0.907085
3142	0	0.907085
3143	0	0.907085
3144	0	0.433604
3145	0	0.434877
3146	0	0.436147
3147	0	0.436147
3148	0	0.436147
3149	0	0.436147
3150	0	0.436147
3151	0	0.436147
3152	0	0.43288
3153	0	0.43288
3154	0	0.43288
3155	0	0.43288
3156	0	0.43288
3157	0	0.420761
3158	0	0.420817
3159	0	0.64
3160	0	0.4246
3161	0	0.4246
3162	0	0.4246
3163	0	0.4246
3164	0	0.4246
3165	0	0.4246
3166	0	0.4246
3167	0	0.4246
3168	0	0.4246
3169	0	0.4246
3170	0	0.4246
3171	0	0.415111
3172	0	0.412464
3173	0	0.412464
3174	0	0.415572
3175	0	0.415572
3176	0	0.415572
3177	0	0.411136
3178	0	0
3179	0	0
3180	0	0
3181	0	0
3182	0	0
3183	0	0
3184	0	0
3185	0	0
3186	0	0
3187	0	0
3188	0	0
3189	0	0
3190	0	0
3191	0	0
3192	0	0
3193	0	0
3194	0	0
3195	0	0
3196	0	0
3197	0	0.905923
3198	0	0.905923
3199	0	0.905923
3200	0	0.905923
3201	0	0.905923
3202	0	0.905923
3203	0	0.905923
3204	0	0.905923
3205	0	0.905923
3206	0	0.905923
3207	0	0.905923
3208	0	0.905923
3209	0	0.905923
3210	0	0.905923
3211	0	0.905923
3212	0	0.905923
3213	0	0.905923
3214	0	0.905923
3215	0	0.905923
3216	0	0.905923
3217	0	0.905923
3218	0	0.905923
3219	0	0.905923
3220	0	0.905923
3221	0	0.905923
3222	0	0.905923
3223	0	0.905923
3224	0	0.905923
3225	0	0.905923
3226	0	0.905923
3227	0	0.905923
3228	0	0.905923
3229	0	0.905923
3230	0	0.905923
3231	0	0.863787
3232	0	0.863787
3233	0	0.824524
3234	0	0.824524
3235	0	0.824524
3236	0	0.787879
3237	0	0.787879
3238	0	0.787879
3239	0	0.787879
3240	0	0.787879
3241	0	0.788889
3242	0	0.754589
3243	0	0.754589
3244	0	0.754589
3245	0	0.723404
3246	0	0.665816
3247	0	0.639184
3248	0	0.620392
3249	0	0.620392
3250	0	0.596531
3251	0	0.415089
3252	0	0.243434
3253	0	0.423879
3254	0	0.425169
3255	0	0.425169
3256	0	0.425169
3257	0	0.421924
3258	0	0.421924
3259	0	0.421924
3260	0	0.421924
3261	0	0.423214
3262	0	0.423214
3263	0	0.274519
3264	0	0.280759
3265	0	0.278585
3266	0	0.352632
3267	0	0.22334
3268	0	0.211263
3269	0	0.201042
3270	0	0.248817
3271	0	0.19668
3272	0	0.308396
3273	0	0.308396
3274	0	0.283074
3275	0	0.282922
3276	0	0.282922
3277	0	0.282922
3278	0	0.267014
3279	0	0.247649
3280	0	0.235879
3281	0	0.224093
3282	0	0.22378
3283	0	0.17099
3284	0	0.206893
3285	0	0.170646
3286	0	0.17444
3287	0	0.322429
3288	0	0.293737
3289	0	0.286447
3290	0	0.294304
3291	0	0.273425
3292	0	0.160576
3293	0	0.108466
3294	0	0.1
3295	0	0.0980392
3296	0	0.0980392
3297	0	0.0980392
3298	0	0.110294
3299	0	0.0916667
3300	0	0.0380952
3301	0	0.0380952
3302	0	0.021978
3303	0	0.021978
3304	0	0.021978
3305	0	0.021978
3306	0	0.021978
3307	0	0.021978
3308	0	0.021978
3309	0	0.021978
3310	0	0.025641
3311	0	0.025641
3312	0	0.0151515
3313	0	0.0151515
3314	0	0.0151515
3315	0	0.0151515
3316	0	0.0151515
3317	0	0.0181818
3318	0	0.0181818
3319	0	0
3320	0	0
3321	0	0
3322	0	0
3323	0	0
3324	0	0
3325	0	0
3326	0	0
3327	0	0
3328	0	0
3329	0	0
3330	0	0
3331	0	0
3332	0	0
3333	0	0
3334	0	0
3335	0	0
3336	0	0
3337	0	0
3338	0	0
3339	0	0
3340	0	0
3341	0	0
3342	0	0
3343	0	0
3344	0	0
3345	0	0
3346	0	0
3347	0	0
3348	0	0
3349	0	0
3350	0	0
3351	0	0
3352	0	0
3353	0	0
3354	0	0
3355	0	0
3356	0	0
3357	0	0
3358	0	0
3359	0	0
3360	0	0
3361	0	0
3362	0	0
3363	0	0
3364	0	0
3365	0	0
3366	0	0
3367	0	0
3368	0	0
3369	0	0
3370	0	0
3371	0	0
3372	0	0
3373	0	0
3374	0	0
3375	0	0
3376	0	0
3377	0	0
3378	0	0
3379	0	0
3380	0	0
3381	0	0
3382	0	0
3383	0	0
3384	0	0
3385	0	0
3386	0	0
3387	0	0
3388	0	0
3389	0	0
3390	0	0
3391	0	0
3392	0	0
3393	0	0
3394	0	0
3395	0	0
3396	0	0
3397	0	0
3398	0	0
3399	0	0
3400	0	0
3401	0	0
3402	0	0
3403	0	0
3404	0	0
3405	0	0
3406	0	0
3407	0	0
3408	0	0
3409	0	0
3410	0	0
3411	0	0
3412	0	0
3413	0	0
3414	0	0
3415	0	0
3416	0	0
3417	0	0
3418	0	0
3419	0	0
3420	0	0
3421	0	0.747626
3422	0	0.747626
3423	0	0.747626
3424	0	0.773858
3425	0	0.773858
3426	0	0.773858
3427	0	0.747626
3428	0	0.747626
3429	0	0.747626
3430	0	0.418462
3431	0	0.10989
3432	0	0.0454545
3433	0	0
3434	0	0
3435	0	0
3436	0	0
3437	0	0
3438	0	0
3439	0	0
3440	0	0
3441	0	0
3442	0	0
3443	0	0
3444	0	0
3445	0	0
3446	0	0
3447	0	0
3448	0	0
3449	0	0
3450	0	0
3451	0	0
3452	0	0
3453	0	0
3454	0	0
3455	0	0
3456	0	0
3457	0	0
3458	0	0
3459	0	0
3460	0	0
3461	0	0
3462	0	0
3463	0	0
3464	0	0
3465	0	0
3466	0	0
3467	0	0
3468	0	0
3469	0	0
3470	0	0
3471	0	0.0277778
3472	0	0.0277778
3473	0	0
3474	0	0
3475	0	0
3476	0	0
3477	0	0
3478	0	0
3479	0	0
3480	0	0
3481	0	0
3482	0	0
3483	0	0
3484	0	0
3485	0	0
3486	0	0
3487	0	0
3488	0	0
3489	0	0
3490	0	0
3491	0	0
3492	0	0
3493	0	0
3494	0	0
3495	0	0
3496	0	0
3497	0	0
3498	0	0
3499	0	0
3500	0	0
3501	0	0
3502	0	0
3503	0	0
3504	0	0
3505	0	0
3506	0	0
3507	0	0
3508	0	0
3509	0	0
3510	0	0
3511	0	0
3512	0	0
3513	0	0
3514	0	0
3515	0	0
3516	0	0
3517	0	0
3518	0	0
3519	0	0
3520	0	0
3521	0	0
3522	0	0
3523	0	0
3524	0	0
3525	0	0
3526	0	0
3527	0	0
3528	0	0
3529	0	0
3530	0	0
3531	0	0
3532	0	0
3533	0	0
3534	0	0
3535	0	0
3536	0	0
3537	0	0
3538	0	0
3539	0	0
3540	0	0
3541	0	0
3542	0	0
3543	0	0
3544	0	0
3545	0	0
3546	0	0
3547	0	0
3548	0	0
3549	0	0
3550	0	0
3551	0	0
3552	0	0
3553	0	0
3554	0	0
3555	0	0
3556	0	0
3557	0	0
3558	0	0
3559	0	0
3560	0	0
3561	0	0
3562	0	0
3563	0	0
3564	0	0
3565	0	0
3566	0	0
3567	0	0
3568	0	0
3569	0	0
3570	0	0
3571	0	0
3572	0	0
3573	0	0
3574	0	0
3575	0	0
3576	0	0
3577	0	0
3578	0	0
3579	0	0
3580	0	0
3581	0	0
3582	0	0
3583	0	0
3584	0	0
3585	0	0
3586	0	0
3587	0	0
3588	0	0
3589	0	0
3590	0	0
3591	0	0
3592	0	0
3593	0	0
3594	0	0
3595	0	0
3596	0	0
3597	0	0
3598	0	0
3599	0	0
3600	0	0
3601	0	0
3602	0	0
3603	0	0
3604	0	0
3605	0	0
3606	0	0
3607	0	0
3608	0	0
3609	0	0
3610	0	0
3611	0	0
3612	0	0
3613	0	0
3614	0	0
3615	0	0
3616	0	0
3617	0	0
3618	0	0
3619	0	0
3620	0	0
3621	0	0
3622	0	0
3623	0	0
3624	0	0
3625	0	0
3626	0	0
3627	0	0
3628	0	0
3629	0	0
3630	0	0
3631	0	0
3632	0	0
3633	0	0
3634	0	0
3635	0	0
3636	0	0
3637	0	0
3638	0	0
3639	0	0
3640	0	0
3641	0	0
3642	0	0
3643	0	0
3644	0	0
3645	0	0
3646	0	0
3647	0	0
3648	0	0
3649	0	0
3650	0	0
3651	0	0
3652	0	0
3653	0	0
3654	0	0
3655	0	0
3656	0	0
3657	0	0
3658	0	0
3659	0	0
3660	0	0
3661	0	0
3662	0	0
3663	0	0
3664	0	0
3665	0	0
3666	0	0
3667	0	0
3668	0	0
3669	0	0.2
3670	0	0.2
3671	0	0.2
3672	0	0.2
3673	0	0.2
3674	0	0.2
3675	0	0.2
3676	0	0.2
3677	0	0.230769
3678	0	0.2
3679	0	0.2
3680	0	0.2
3681	0	0.2
3682	0	0.2
3683	0	0.2
3684	0	0.2
3685	0	0.2
3686	0	0.2
3687	0	0.2
3688	0	0.2
3689	0	0.2
3690	0	0.2
3691	0	0.54878
3692	0	0.623529
3693	0	0.623529
3694	0	0.623529
3695	0	0.623529
3696	0	0.623529
3697	0	0.623529
3698	0	0.623529
3699	0	0.623529
3700	0	0.623529
3701	0	0.623529
3702	0	0.623529
3703	0	0.619608
3704	0	0.619608
3705	0	0.619608
3706	0	0.619608
3707	0	0.619608
3708	0	0.619608
3709	0	0.619608
3710	0	0.623529
3711	0	0.623529
3712	0	0.623529
3713	0	0.623529
3714	0	0.623529
3715	0	0.623529
3716	0	0.623529
3717	0	0.628235
3718	0	0.628235
3719	0	0.628235
3720	0	0.628235
3721	0	0.628235
3722	0	0.628235
3723	0	0.628235
3724	0	0.628235
3725	0	0.628235
3726	0	0.628235
3727	0	0.628235
3728	0	0.628235
3729	0	0.628235
3730	0	0.628235
3731	0	0.628235
3732	0	0.628235
3733	0	0.628235
3734	0	0.628235
3735	0	0.628235
3736	0	0.628235
3737	0	0.628235
3738	0	0.628235
3739	0	0.628235
3740	0	0.628235
3741	0	0.628235
3742	0	0.628235
3743	0	0.628235
3744	0	0.628235
3745	0	0.628235
3746	0	0.628235
3747	0	0.628235
3748	0	0.628235
3749	0	0.628235
3750	0	0.628235
3751	0	0.628235
3752	0	0.628235
3753	0	0.628235
3754	0	0.628235
3755	0	0.62902
3756	0	0.62902
3757	0	0.628235
3758	0	0.628235
3759	0	0.628235
3760	0	0.628235
3761	0	0.628235
3762	0	0.628235
3763	0	0.628235
3764	0	0.628235
3765	0	0.628235
3766	0	0.628235
3767	0	0.628235
3768	0	0.628235
3769	0	0.62902
3770	0	0.628235
3771	0	0.628235
3772	0	0.628235
3773	0	0.628235
3774	0	0.628235
3775	0	0.628235
3776	0	0.628235
3777	0	0.628235
3778	0	0.628235
3779	0	0.628235
3780	0	0.628235
3781	0	0.628235
3782	0	0.628235
3783	0	0.628235
3784	0	0.628235
3785	0	0.628235
3786	0	0.628235
3787	0	0.628235
3788	0	0.628235
3789	0	0.628235
3790	0	0.628235
3791	0	0.628235
3792	0	0.628235
3793	0	0.628235
3794	0	0.628235
3795	0	0.628235
3796	0	0.628235
3797	0	0.628235
3798	0	0.628235
3799	0	0.628235
3800	0	0.628235
3801	0	0.628235
3802	0	0.628235
3803	0	0.628235
3804	0	0.628235
3805	0	0.628235
3806	0	0.628235
3807	0	0.628235
3808	0	0.628235
3809	0	0.628235
3810	0	0.628235
3811	0	0.628235
3812	0	0.628235
3813	0	0.628235
3814	0	0.628235
3815	0	0.628235
3816	0	0.628235
3817	0	0.628235
3818	0	0.628235
3819	0	0.628235
3820	0	0.628235
3821	0	0.628235
3822	0	0.628235
3823	0	0.628235
3824	0	0.628235
3825	0	0.628235
3826	0	0.628235
3827	0	0.628235
3828	0	0.628235
3829	0	0.628235
3830	0	0.628235
3831	0	0.628235
3832	0	0.628235
3833	0	0.628235
3834	0	0.628235
3835	0	0.628235
3836	0	0.628235
3837	0	0.628235
3838	0	0.628235
3839	0	0.628235
3840	0	0.628235
3841	0	0.628235
3842	0	0.628235
3843	0	0.628235
3844	0	0.628235
3845	0	0.628235
3846	0	0.628235
3847	0	0.628235
3848	0	0.628235
3849	0	0.628235
3850	0	0.628235
3851	0	0.628235
3852	0	0.628235
3853	0	0.628235
3854	0	0.628235
3855	0	0.628235
3856	0	0.628235
3857	0	0.628235
3858	0	0.623529
3859	0	0.623529
3860	0	0.623529
3861	0	0.623529
3862	0	0.623529
3863	0	0.623529
3864	0	0.623529
3865	0	0.623529
3866	0	0.623529
3867	0	0.623529
3868	0	0.623529
3869	0	0.623529
3870	0	0.623529
3871	0	0.623529
3872	0	0.623529
3873	0	0.623529
3874	0	0.623529
3875	0	0.623529
3876	0	0.623529
3877	0	0.623529
3878	0	0.623529
3879	0	0.623529
3880	0	0.623529
3881	0	0.623529
3882	0	0.623529
3883	0	0.623529
3884	0	0.623529
3885	0	0.623529
3886	0	0.623529
3887	0	0.623529
3888	0	0.623529
3889	0	0.623529
3890	0	0.623529
3891	0	0.623529
3892	0	0.619608
3893	0	0.619608
3894	0	0.619608
3895	0	0.619608
3896	0	0.619608
3897	0	0.619608
3898	0	0.619608
3899	0	0.619608
3900	0	0.619608
3901	0	0.619608
3902	0	0.619608
3903	0	0.619608
3904	0	0.619608
3905	0	0.619608
3906	0	0.619608
3907	0	0.56
3908	0	0.56
3909	0	0.425882
3910	0	0.400784
3911	0	0.33098
3912	0	0.214118
3913	0	0.180392
3914	0	0.0792157
3915	0	0.0572549
3916	0	0.0666667
3917	0	0.0666667
3918	0	0.0627451
3919	0	0.0658824
3920	0	0.0611765
3921	0	0.0627451
3922	0	0.0627451
3923	0	0.065098
3924	0	0.0611765
3925	0	0.0517647
3926	0	0.0352941
3927	0	0.0345098
3928	0	0.0305882
3929	0	0.0360784
3930	0	0.0368627
3931	0	0.0376471
3932	0	0.0376471
3933	0	0.0368627
3934	0	0.0478431
3935	0	0.0478431
3936	0	0.0478431
3937	0	0.0478431
3938	0	0.0494118
3939	0	0.0337255
3940	0	0.0352941
3941	0	0.0392157
3942	0	0.0368627
3943	0	0.0376471
3944	0	0.0368627
3945	0	0.0392157
3946	0	0.0509804
3947	0	0.0517647
3948	0	0.0517647
3949	0	0.0533333
3950	0	0.0533333
3951	0	0.0533333
3952	0	0.0556863
3953	0	0.0556863
3954	0	0.0541176
3955	0	0.0517647
3956	0	0.0517647
3957	0	0.0517647
3958	0	0.0517647
3959	0	0.0517647
3960	0	0.0517647
3961	0	0.0517647
3962	0	0.0517647
3963	0	0.0517647
3964	0	0.0517647
3965	0	0.0517647
3966	0	0.0517647
3967	0	0.0517647
3968	0	0.0517647
3969	0	0.0517647
3970	0	0.0517647
3971	0	0.0517647
3972	0	0.0517647
3973	0	0.0517647
3974	0	0.0517647
3975	0	0.0517647
3976	0	0.0517647
3977	0	0.0517647
3978	0	0.0517647
3979	0	0.0517647
3980	0	0.0517647
3981	0	0.0517647
3982	0	0.0517647
3983	0	0.0517647
3984	0	0.0517647
3985	0	0.0517647
3986	0	0.0517647
3987	0	0.0517647
3988	0	0.0517647
3989	0	0.0517647
3990	0	0.0517647
3991	0	0.0517647
3992	0	0.0517647
3993	0	0.0517647
3994	0	0.0517647
3995	0	0.0517647
3996	0	0.0517647
3997	0	0.0517647
3998	0	0.0517647
3999	0	0.0517647
4000	0	0.0517647
4001	0	0.0517647
4002	0	0.0517647
4003	0	0.0517647
4004	0	0.0517647
4005	0	0.0517647
4006	0	0.0517647
4007	0	0.0360784
4008	0	0.0360784
4009	0	0.0352941
4010	0	0.0352941
4011	0	0.0352941
4012	0	0.0329412
4013	0	0.0392157
4014	0	0.0392157
4015	0	0.0392157
4016	0	0.0407843
4017	0	0.0407843
4018	0	0.0407843
4019	0	0.042449
4020	0	0.042449
4021	0	0.042449
4022	0	0.0444444
4023	0	0.0464646
4024	0	0.0464646
4025	0	0.0499419
4026	0	0.0495495
4027	0	0.052381
4028	0	0.0495495
4029	0	0.0571429
4030	0	0.0571429
4031	0	0.046798
4032	0	0.0433333
4033	0	0.0333333
4034	0	0.0261438
4035	0	0.0261438
4036	0	0.0294118
4037	0	0.0333333
4038	0	0.0333333
4039	0	0.0333333
4040	0	0.0333333
4041	0	0.0380952
4042	0	0.0380952
4043	0	0.0380952
4044	0	0.0380952
4045	0	0.0380952
4046	0	0.0380952
4047	0	0.0380952
4048	0	0.0454545
4049	0	0.0454545
4050	0	0.0454545
4051	0	0.0545455
4052	0	0.0545455
4053	0	0.0545455
4054	0	0.0545455
4055	0	0.0545455
4056	0	0.0545455
4057	0	0.0545455
4058	0	0.0545455
4059	0	0.0666667
4060	0	0.0666667
4061	0	0.0666667
4062	0	0.0666667
4063	0	0.0666667
4064	0	0.0666667
4065	0	0.0666667
4066	0	0.0833333
4067	0	0.0833333
4068	0	0.0833333
4069	0	0.0833333
4070	0	0.0833333
4071	0	0.0833333
4072	0	0.0833333
4073	0	0.0833333
4074	0	0.0277778
4075	0	0.0277778
4076	0	0.0277778
4077	0	0.0277778
4078	0	0.0277778
4079	0	0.0277778
4080	0	0.0277778
4081	0	0.0277778
4082	0	0.0833333
4083	0	0.0833333
4084	0	0.0833333
4085	0	0.0833333
4086	0	0.0833333
4087	0	0.0833333
4088	0	0.0833333
4089	0	0.0833333
4090	0	0.0833333
4091	0	0.0833333
4092	0	0.0833333
4093	0	0.0833333
4094	0	0.0833333
4095	0	0.0833333
4096	0	0.0833333
4097	0	0.0833333
4098	0	0.0833333
4099	0	0.0833333
4100	0	0.0833333
4101	0	0.0833333
4102	0	0.0833333
4103	0	0.0833333
4104	0	0.0833333
4105	0	0.0833333
4106	0	0.0833333
4107	0	0.0833333
4108	0	0.0833333
4109	0	0.0833333
4110	0	0.0833333
4111	0	0.0833333
4112	0	0.0833333
4113	0	0.0833333
4114	0	0.0833333
4115	0	0.0833333
4116	0	0.0833333
4117	0	0.0833333
4118	0	0.0833333
4119	0	0.0833333
4120	0	0.0833333
4121	0	0.0833333
4122	0	0.0833333
4123	0	0.0833333
4124	0	0.0833333
4125	0	0.0833333
4126	0	0.0833333
4127	0	0.0833333
4128	0	0.0833333
4129	0	0.0833333
4130	0	0.0833333
4131	0	0.0833333
4132	0	0.0277778
4133	0	0.0277778
4134	0	0.0277778
4135	0	0.0277778
4136	0	0.0277778
4137	0	0.0277778
4138	0	0.0277778
4139	0	0.0277778
4140	0	0.0277778
4141	0	0.0277778
4142	0	0.0277778
4143	0	0.0277778
4144	0	0.0277778
4145	0	0.0277778
4146	0	0.0277778
4147	0	0
4148	0	0
4149	0	0
4150	0	0
4151	0	0
4152	0	0
4153	0	0
4154	0	0
4155	0	0
4156	0	0
4157	0	0
4158	0	0
4159	0	0
4160	0	0
4161	0	0
4162	0	0
4163	0	0
4164	0	0
4165	0	0
4166	0	0
4167	0	0
4168	0	0
4169	0	0
4170	0	0
4171	0	0
4172	0	0
4173	0	0
4174	0	0
4175	0	0
4176	0	0
4177	0	0
4178	0	0
4179	0	0
4180	0	0
4181	0	0
4182	0	0
4183	0	0
4184	0	0
4185	0	0
4186	0	0
4187	0	0
4188	0	0
4189	0	0
4190	0	0
4191	0	0
4192	0	0
4193	0	0
4194	0	0
4195	0	0
4196	0	0
4197	0	0
4198	0	0
4199	0	0
4200	0	0
4201	0	0
4202	0	0
4203	0	0
4204	0	0
4205	0	0
4206	0	0
4207	0	0
4208	0	0
4209	0	0
4210	0	0
4211	0	0
4212	0	0
4213	0	0
4214	0	0
4215	0	0
4216	0	0
4217	0	0
4218	0	0
4219	0	0
4220	0	0
4221	0	0
4222	0	0
4223	0	0
4224	0	0
4225	0	0
4226	0	0
4227	0	0
4228	0	0
4229	0	0
4230	0	0
4231	0	0
4232	0	0
4233	0	0
4234	0	0
4235	0	0
4236	0	0
4237	0	0
4238	0	0
4239	0	0
4240	0	0
4241	0	0
4242	0	0
4243	0	0
4244	0	0
4245	0	0
4246	0	0
4247	0	0
4248	0	0
4249	0	0
4250	0	0
4251	0	0
4252	0	0
4253	0	0
4254	0	0
4255	0	0
4256	0	0
4257	0	0
4258	0	0
4259	0	0
4260	0	0
4261	0	0
4262	0	0
4263	0	0
4264	0	0
4265	0	0
4266	0	0
4267	0	0
4268	0	0
4269	0	0
4270	0	0
4271	0	0
4272	0	0
4273	0	0
4274	0	0
4275	0	0
4276	0	0
4277	0	0
4278	0	0
4279	0	0
4280	0	0
4281	0	0
4282	0	0
4283	0	0
4284	0	0
4285	0	0
4286	0	0
4287	0	0
4288	0	0
4289	1	0
4290	1	0
4291	1	0
4292	1	0
4293	1	0
4294	1	0
4295	1	0
4296	1	0
4297	1	0
4298	1	0
4299	1	0
4300	1	0
4301	1	0
4302	1	0
4303	1	0
4304	1	0
4305	1	0
4306	1	0
4307	1	0
4308	1	0
4309	1	0
4310	1	0
4311	1	0
4312	1	0
4313	1	0
4314	1	0
4315	1	0
4316	1	0
4317	1	0
4318	1	0
4319	1	0
4320	1	0
4321	1	0
4322	1	0
4323	1	0
4324	1	0
4325	1	0
4326	1	0
4327	1	0
4328	1	0
4329	1	0
4330	1	0
4331	1	0
4332	1	0
4333	1	0
4334	1	0
4335	1	0
4336	1	0
4337	1	0
4338	1	0
4339	1	0
4340	1	0
4341	1	0
4342	1	0
4343	1	0
4344	1	0
4345	1	0
4346	1	0
4347	1	0
4348	1	0
4349	1	0
4350	1	0
4351	1	0
4352	1	0
4353	1	0
4354	1	0
4355	1	0
4356	1	0
4357	1	0
4358	1	0
4359	1	0
4360	1	0
4361	1	0
4362	1	0
4363	1	0
4364	1	0
4365	1	0
4366	1	0
4367	1	0
4368	1	0
4369	1	0
4370	1	0
4371	1	0
4372	1	0
4373	1	0
4374	1	0
4375	1	0
4376	1	0
4377	1	0
4378	1	0
4379	1	0
4380	1	0
4381	1	0
4382	1	0
4383	1	0
4384	1	0
4385	1	0
4386	1	0
4387	1	0
4388	1	0
4389	1	0
4390	1	0
4391	1	0
4392	1	0
4393	1	0
4394	1	0
4395	1	0
4396	1	0
4397	1	0
4398	1	0
4399	1	0
4400	1	0
4401	1	0
4402	1	0
4403	1	0
4404	1	0
4405	1	0
4406	1	0
4407	1	0
4408	1	0
4409	1	0
4410	1	0
4411	1	0
4412	1	0
4413	1	0
4414	1	0
4415	1	0
4416	1	0
4417	1	0
4418	1	0
4419	1	0
4420	1	0
4421	1	0
4422	1	0
4423	1	0
4424	1	0
4425	1	0
4426	1	0
4427	1	0
4428	1	0
4429	1	0
4430	1	0
4431	1	0
4432	1	0
4433	1	0
4434	1	0
4435	1	0
4436	1	0
4437	1	0
4438	1	0
4439	1	0
4440	1	0
4441	1	0
4442	1	0
4443	1	0
4444	1	0
4445	1	0
4446	1	0
4447	1	0
4448	1	0
4449	1	0
4450	1	0
4451	1	0
4452	1	0
4453	1	0
4454	1	0
4455	1	0
4456	1	0
4457	1	0
4458	1	0
4459	1	0
4460	1	0
4461	1	0
4462	1	0
4463	1	0
4464	1	0
4465	1	0
4466	1	0
4467	1	0
4468	1	0
4469	1	0
4470	1	0
4471	1	0
4472	1	0
4473	1	0
4474	1	0
4475	1	0
4476	1	0
4477	1	0
4478	1	0
4479	1	0
4480	1	0
4481	1	0
4482	1	0
4483	1	0
4484	1	0
4485	1	0
4486	1	0
4487	1	0
4488	1	0
4489	1	0
4490	1	0
4491	1	0
4492	1	0
4493	1	0
4494	1	0
4495	1	0
4496	1	0
4497	1	0
4498	1	0
4499	1	0
4500	1	0
4501	1	0
4502	1	0
4503	1	0
4504	1	0
4505	1	0
4506	1	0
4507	1	0
4508	1	0
4509	1	0
4510	1	0
4511	1	0
4512	1	0
4513	1	0
4514	1	0
4515	1	0
4516	1	0
4517	1	0
4518	1	0
4519	1	0
4520	1	0
4521	1	0
4522	1	0
4523	1	0
4524	1	0
4525	1	0
4526	1	0
4527	1	0
4528	1	0
4529	1	0
4530	1	0
4531	1	0
4532	1	0
4533	1	0
4534	1	0
4535	1	0
4536	1	0
4537	1	0
4538	1	0
4539	1	0
4540	1	0
4541	1	0
4542	1	0
4543	1	0
4544	1	0
4545	1	0
4546	1	0
4547	1	0
4548	1	0
4549	1	0
4550	1	0
4551	1	0
4552	1	0
4553	1	0
4554	1	0
4555	1	0
4556	1	0
4557	1	0
4558	1	0
4559	1	0
4560	1	0
4561	1	0
4562	1	0
4563	1	0
4564	1	0
4565	1	0
4566	1	0
4567	1	0
4568	1	0
4569	1	0
4570	1	0
4571	1	0
4572	1	0
4573	1	0
4574	1	0
4575	1	0
4576	1	0
4577	1	0
4578	1	0
4579	1	0
4580	1	0
4581	1	0
4582	1	0
4583	1	0
4584	1	0
4585	1	0
4586	1	0
4587	1	0
4588	1	0
4589	1	0
4590	1	0
4591	1	0
4592	1	0
4593	1	0
4594	1	0
4595	1	0
4596	1	0
4597	1	0
4598	1	0
4599	1	0
4600	1	0
4601	1	0
4602	1	0
4603	1	0
4604	1	0
4605	1	0
4606	1	0
4607	1	0
4608	1	0
4609	1	0
4610	1	0
4611	1	0
4612	1	0
4613	1	0
4614	1	0
4615	1	0
4616	1	0
4617	1	0
4618	1	0
4619	1	0
4620	1	0
4621	1	0
4622	1	0
4623	1	0
4624	1	0
4625	1	0
4626	1	0
4627	1	0
4628	1	0
4629	1	0
4630	1	0
4631	1	0
4632	1	0
4633	1	0
4634	1	0
4635	1	0
4636	1	0
4637	1	0
4638	1	0
4639	1	0
4640	1	0
4641	1	0
4642	1	0
4643	1	0
4644	1	0
4645	1	0
4646	1	0
4647	1	0
4648	1	0
4649	1	0
4650	1	0
4651	1	0
4652	1	0
4653	1	0
4654	1	0
4655	1	0
4656	1	0
4657	1	0
4658	1	0
4659	1	0
4660	1	0
4661	1	0
4662	1	0
4663	1	0
4664	1	0
4665	1	0
4666	1	0
4667	1	0
4668	1	0
4669	1	0
4670	1	0
4671	1	0
4672	1	0
4673	1	0
4674	1	0
4675	1	0
4676	1	0
4677	1	0
4678	1	0
4679	1	0
4680	1	0
4681	1	0
4682	1	0
4683	1	0
4684	1	0
4685	1	0
4686	1	0
4687	1	0
4688	1	0
4689	1	0
4690	1	0
4691	1	0
4692	1	0
4693	1	0
4694	1	0
4695	1	0
4696	1	0
4697	1	0
4698	1	0
4699	1	0
4700	1	0
4701	1	0
4702	1	0
4703	1	0
4704	1	0
4705	1	0
4706	1	0
4707	1	0
4708	1	0
4709	1	0
4710	1	0
4711	1	0
4712	1	0
4713	1	0
4714	1	0
4715	1	0
4716	1	0
4717	1	0
4718	1	0
4719	1	0
4720	1	0
4721	1	0
4722	1	0
4723	1	0
4724	1	0
4725	1	0
4726	1	0
4727	1	0
4728	1	0
4729	1	0
4730	1	0
4731	1	0
4732	1	0
4733	1	0
4734	1	0
4735	1	0
4736	1	0
4737	1	0
4738	1	0
4739	1	0
4740	1	0
4741	1	0
4742	1	0
4743	1	0
4744	1	0
4745	1	0
4746	1	0
4747	1	0
4748	1	0
4749	1	0
4750	1	0
4751	1	0
4752	1	0
4753	1	0
4754	1	0
4755	1	0
4756	1	0
4757	1	0
4758	1	0
4759	1	0
4760	1	0
4761	1	0
4762	1	0
4763	1	0
4764	1	0
4765	1	0
4766	1	0
4767	1	0
4768	1	0
4769	1	0
4770	1	0
4771	1	0
4772	1	0
4773	1	0
4774	1	0
4775	1	0
4776	1	0
4777	1	0
4778	1	0
4779	1	0
4780	1	0
4781	1	0
4782	1	0
4783	1	0
4784	1	0
4785	1	0
4786	1	0
4787	1	0
4788	1	0
4789	1	0
4790	1	0
4791	1	0
4792	1	0
4793	1	0
4794	1	0
4795	1	0
4796	1	0
4797	1	0
4798	1	0
4799	1	0
4800	1	0
4801	1	0
4802	1	0
4803	1	0
4804	1	0
4805	1	0
4806	1	0
4807	1	0
4808	1	0
4809	1	0
4810	1	0
4811	1	0
4812	1	0
4813	1	0
4814	1	0
4815	1	0
4816	1	0
4817	1	0
4818	1	0
4819	1	0
4820	1	0
4821	1	0
4822	1	0
4823	1	0
4824	1	0
4825	1	0
4826	1	0
4827	1	0
4828	1	0
4829	1	0
4830	1	0
4831	1	0
4832	1	0
4833	1	0
4834	1	0
4835	1	0
4836	1	0
4837	1	0
4838	1	0
4839	1	0
4840	1	0
4841	1	0
4842	1	0
4843	1	0
4844	1	0
4845	1	0
4846	1	0
4847	1	0
4848	1	0
4849	1	0
4850	1	0
4851	1	0
4852	1	0
4853	1	0
4854	1	0
4855	1	0
4856	1	0
4857	1	0
4858	1	0
4859	1	0
4860	1	0
4861	1	0
4862	1	0
4863	1	0
4864	1	0
4865	1	0
4866	1	0
4867	1	0
4868	1	0
4869	1	0
4870	1	0
4871	1	0
4872	1	0
4873	1	0
4874	1	0
4875	1	0
4876	1	0
4877	1	0
4878	1	0
4879	1	0
4880	1	0
4881	1	0
4882	1	0
4883	1	0
4884	1	0
4885	1	0
4886	1	0
4887	1	0
4888	1	0
4889	1	0
4890	1	0
4891	1	0
4892	1	0
4893	1	0
4894	1	0
4895	1	0
4896	1	0
4897	1	0
4898	1	0
4899	1	0
4900	1	0
4901	1	0
4902	1	0
4903	1	0
4904	1	0
4905	1	0
4906	1	0
4907	1	0
4908	1	0
4909	1	0
4910	1	0
4911	1	0
4912	1	0
4913	1	0
4914	1	0
4915	1	0
4916	1	0
4917	1	0
4918	1	0
4919	1	0
4920	1	0
4921	1	0
4922	1	0
4923	1	0
4924	1	0
4925	1	0
4926	1	0
4927	1	0
4928	1	0
4929	1	0
4930	1	0
4931	1	0
4932	1	0
4933	1	0
4934	1	0
4935	1	0
4936	1	0
4937	1	0
4938	1	0
4939	1	0
4940	1	0
4941	1	0
4942	1	0
4943	1	0
4944	1	0
4945	1	0
4946	1	0
4947	1	0
4948	1	0
4949	1	0
4950	1	0
4951	1	0
4952	1	0
4953	1	0
4954	1	0
4955	1	0
4956	1	0
4957	1	0
4958	1	0
4959	1	0
4960	1	0
4961	1	0
4962	1	0
4963	1	0
4964	1	0
4965	1	0
4966	1	0
4967	1	0
4968	1	0
4969	1	0
4970	1	0
4971	1	0
4972	1	0
4973	1	0
4974	1	0
4975	1	0
4976	1	0
4977	1	0
4978	1	0
4979	1	0
4980	1	0
4981	1	0
4982	1	0
4983	1	0
4984	1	0
4985	1	0
4986	1	0
4987	1	0
4988	1	0
4989	1	0
4990	1	0
4991	1	0
4992	1	0
4993	1	0
4994	1	0
4995	1	0
4996	1	0
4997	1	0
4998	1	0
4999	1	0
5000	1	0
5001	1	0
5002	1	0
5003	1	0
5004	1	0
5005	1	0
5006	1	0
5007	1	0
5008	1	0
5009	1	0
5010	1	0
5011	1	0
5012	1	0
5013	1	0
5014	1	0
5015	1	0
5016	1	0
5017	1	0
5018	1	0
5019	1	0
5020	1	0
5021	1	0
5022	1	0
5023	1	0
5024	1	0
5025	1	0
5026	1	0
5027	1	0
5028	1	0
5029	1	0
5030	1	0
5031	1	0
5032	1	0
5033	1	0
5034	1	0
5035	1	0
5036	1	0
5037	1	0
5038	1	0
5039	1	0
5040	1	0
5041	1	0
5042	1	0
5043	1	0
5044	1	0
5045	1	0
5046	1	0
5047	1	0
5048	1	0
5049	1	0
5050	1	0
5051	1	0
5052	1	0
5053	1	0
5054	1	0
5055	1	0
5056	1	0
5057	1	0
5058	1	0
5059	1	0
5060	1	0
5061	1	0
5062	1	0
5063	1	0
5064	1	0
5065	1	0
5066	1	0
5067	1	0
5068	1	0
5069	1	0
5070	1	0
5071	1	0
5072	1	0
5073	1	0
5074	1	0
5075	1	0
5076	1	0
5077	1	0
5078	1	0
5079	1	0
5080	1	0
5081	1	0
5082	1	0
5083	1	0
5084	1	0
5085	1	0
5086	1	0
5087	1	0
5088	1	0
5089	1	0
5090	1	0
5091	1	0
5092	1	0
5093	1	0
5094	1	0
5095	1	0
5096	1	0
5097	1	0
5098	1	0
5099	1	0
5100	1	0
5101	1	0
5102	1	0
5103	1	0
5104	1	0
5105	1	0
5106	1	0
5107	1	0
5108	1	0
5109	1	0
5110	1	0
5111	1	0
5112	1	0
5113	1	0
5114	1	0
5115	1	0
5116	1	0
5117	1	0
5118	1	0
5119	1	0
5120	1	0
5121	1	0
5122	1	0
5123	1	0
5124	1	0
5125	1	0
5126	1	0
5127	1	0
5128	1	0
5129	1	0
5130	1	0
5131	1	0
5132	1	0
5133	1	0
5134	1	0
5135	1	0
5136	1	0
5137	1	0
5138	1	0
5139	1	0
5140	1	0
5141	1	0
5142	1	0
5143	1	0
5144	1	0
5145	1	0
5146	1	0
5147	1	0
5148	1	0
5149	1	0
5150	1	0
5151	1	0
5152	1	0
5153	1	0
5154	1	0
5155	1	0
5156	1	0
5157	1	0
5158	1	0
5159	1	0
5160	1	0
5161	1	0
5162	1	0
5163	1	0
5164	1	0
5165	1	0
5166	1	0
5167	1	0
5168	1	0
5169	1	0
5170	1	0
5171	1	0
5172	1	0
5173	1	0
5174	1	0
5175	1	0
5176	1	0
5177	1	0
5178	1	0
5179	1	0
5180	1	0
5181	1	0
5182	1	0
5183	1	0
5184	1	0
5185	1	0
5186	1	0
5187	1	0
5188	1	0
5189	1	0
5190	1	0
5191	1	0
5192	1	0
5193	1	0
5194	1	0
5195	1	0
5196	1	0
5197	1	0
5198	1	0
5199	1	0
5200	1	0
5201	1	0
5202	1	0
5203	1	0
5204	1	0
5205	1	0
5206	1	0
5207	1	0
5208	1	0
5209	1	0
5210	1	0
5211	1	0
5212	1	0
5213	1	0
5214	1	0
5215	1	0
5216	1	0
5217	1	0
5218	1	0
5219	1	0
5220	1	0
5221	1	0
5222	1	0
5223	1	0
5224	1	0
5225	1	0
5226	1	0
5227	1	0
5228	1	0
5229	1	0
5230	1	0
5231	1	0
5232	1	0
5233	1	0
5234	1	0
5235	1	0
5236	1	0
5237	1	0
5238	1	0
5239	1	0
5240	1	0
5241	1	0
5242	1	0
5243	1	0
5244	1	0
5245	1	0
5246	1	0
5247	1	0
5248	1	0
5249	1	0
5250	1	0
5251	1	0
5252	1	0
5253	1	0
5254	1	0
5255	1	0
5256	1	0
5257	1	0
5258	1	0
5259	1	0
5260	1	0
5261	1	0
5262	1	0
5263	1	0
5264	1	0
5265	1	0
5266	1	0
5267	1	0
5268	1	0
5269	1	0
5270	1	0
5271	1	0
5272	1	0
5273	1	0
5274	1	0
5275	1	0
5276	1	0
5277	1	0
5278	1	0
5279	1	0
5280	1	0
5281	1	0
5282	1	0
5283	1	0
5284	1	0
5285	1	0
5286	1	0
5287	1	0
5288	1	0
5289	1	0
5290	1	0
5291	1	0
5292	1	0
5293	1	0
5294	1	0
5295	1	0
5296	1	0
5297	1	0
5298	1	0
5299	1	0
5300	1	0
5301	1	0
5302	1	0
5303	1	0
5304	1	0
5305	1	0
5306	1	0
5307	1	0
5308	1	0
5309	1	0
5310	1	0
5311	1	0
5312	1	0
5313	1	0
5314	1	0
5315	1	0
5316	1	0
5317	1	0
5318	1	0
5319	1	0
5320	1	0
5321	1	0
5322	1	0
5323	1	0
5324	1	0
5325	1	0
5326	1	0
5327	1	0
5328	1	0
5329	1	0
5330	1	0
5331	1	0
5332	1	0
5333	1	0
5334	1	0
5335	1	0
5336	1	0
5337	1	0
5338	1	0
5339	1	0
5340	1	0
5341	1	0
5342	1	0
5343	1	0
5344	1	0
5345	1	0
5346	1	0
5347	1	0
5348	1	0
5349	1	0
5350	1	0
5351	1	0
5352	1	0
5353	1	0
5354	1	0
5355	1	0
5356	1	0
5357	1	0
5358	1	0
5359	1	0
5360	1	0
5361	1	0
5362	1	0
5363	1	0
5364	1	0
5365	1	0
5366	1	0
5367	1	0
5368	1	0
5369	1	0
5370	1	0
5371	1	0
5372	1	0
5373	1	0
5374	1	0
5375	1	0
5376	1	0
5377	1	0
5378	1	0
5379	1	0
5380	1	0
5381	1	0
5382	1	0
5383	1	0
5384	1	0
5385	1	0
5386	1	0
5387	1	0
5388	1	0
5389	1	0
5390	1	0
5391	1	0
5392	1	0
5393	1	0
5394	1	0
5395	1	0
5396	1	0
5397	1	0
5398	1	0
5399	1	0
5400	1	0
5401	1	0
5402	1	0
5403	1	0
5404	1	0
5405	1	0
5406	1	0
5407	1	0
5408	1	0
5409	1	0
5410	1	0
5411	1	0
5412	1	0
5413	1	0
5414	1	0
5415	1	0
5416	1	0
5417	1	0
5418	1	0
5419	1	0
5420	1	0
5421	1	0
5422	1	0
5423	1	0
5424	1	0
5425	1	0
5426	1	0
5427	1	0
5428	1	0
5429	1	0
5430	1	0
5431	1	0
5432	1	0
5433	1	0
5434	1	0
5435	1	0
5436	1	0
5437	1	0
5438	1	0
5439	1	0
5440	1	0
5441	1	0
5442	1	0
5443	1	0
5444	1	0
5445	1	0
5446	1	0
5447	1	0
5448	1	0
5449	1	0
5450	1	0
5451	1	0
5452	1	0
5453	1	0
5454	1	0
5455	1	0
5456	1	0
5457	1	0
5458	1	0
5459	1	0
5460	1	0
5461	1	0
5462	1	0
5463	1	0
5464	1	0
5465	1	0
5466	1	0
5467	1	0
5468	1	0
5469	1	0
5470	1	0
5471	1	0
5472	1	0
5473	1	0
5474	1	0
5475	1	0
5476	1	0
5477	1	0
5478	1	0
5479	1	0
5480	1	0
5481	1	0
5482	1	0
5483	1	0
5484	1	0
5485	1	0
5486	1	0
5487	1	0
5488	1	0
5489	1	0
5490	1	0
5491	1	0
5492	1	0
5493	1	0
5494	1	0
5495	1	0
5496	1	0
5497	1	0
5498	1	0
5499	1	0
5500	1	0
5501	1	0
5502	1	0
5503	1	0
5504	1	0
5505	1	0
5506	1	0
5507	1	0
5508	1	0
5509	1	0
5510	1	0
5511	1	0
5512	1	0
5513	1	0
5514	1	0
5515	1	0
5516	1	0
5517	1	0
5518	1	0
5519	1	0
5520	1	0
5521	1	0
5522	1	0
5523	1	0
5524	1	0
5525	1	0
5526	1	0
5527	1	0
5528	1	0
5529	1	0
5530	1	0
5531	1	0
5532	1	0
5533	1	0
5534	1	0
5535	1	0
5536	1	0
5537	1	0
5538	1	0
5539	1	0
5540	1	0
5541	1	0
5542	1	0
5543	1	0
5544	1	0
5545	1	0
5546	1	0
5547	1	0
5548	1	0
5549	1	0
5550	1	0
5551	1	0
5552	1	0
5553	1	0
5554	1	0
5555	1	0
5556	1	0
5557	1	0
5558	1	0
5559	1	0
5560	1	0
5561	1	0
5562	1	0
5563	1	0
5564	1	0
5565	1	0
5566	1	0
5567	1	0
5568	1	0
5569	1	0
5570	1	0
5571	1	0
5572	1	0
5573	1	0
5574	1	0
5575	1	0
5576	1	0
5577	1	0
5578	1	0
5579	1	0
5580	1	0
5581	1	0
5582	1	0
5583	1	0
5584	1	0
5585	1	0
5586	1	0
5587	1	0
5588	1	0
5589	1	0
5590	1	0
5591	1	0
5592	1	0
5593	1	0
5594	1	0
5595	1	0
5596	1	0
5597	1	0
5598	1	0
5599	1	0
5600	1	0
5601	1	0
5602	1	0
5603	1	0
5604	1	0
5605	1	0
5606	1	0
5607	1	0
5608	1	0
5609	1	0
5610	1	0
5611	1	0
5612	1	0
5613	1	0
5614	1	0
5615	1	0
5616	1	0
5617	1	0
5618	1	0
5619	1	0
5620	1	0
5621	1	0
5622	1	0
5623	1	0
5624	1	0
5625	1	0
5626	1	0
5627	1	0
5628	1	0
5629	1	0
5630	1	0
5631	1	0
5632	1	0
5633	1	0
5634	1	0
5635	1	0
5636	1	0
5637	1	0
5638	1	0
5639	1	0
5640	1	0
5641	1	0
5642	1	0
5643	1	0
5644	1	0
5645	1	0
5646	1	0
5647	1	0
5648	1	0
5649	1	0
5650	1	0
5651	1	0
5652	1	0
5653	1	0
5654	1	0
5655	1	0
5656	1	0
5657	1	0
5658	1	0
5659	1	0
5660	1	0
5661	1	0
5662	1	0
5663	1	0
5664	1	0
5665	1	0
5666	1	0
5667	1	0
5668	1	0
5669	1	0
5670	1	0
5671	1	0
5672	1	0
5673	1	0
5674	1	0
5675	1	0
5676	1	0
5677	1	0
5678	1	0
5679	1	0
5680	1	0
5681	1	0
5682	1	0
5683	1	0
5684	1	0
5685	1	0
5686	1	0
5687	1	0
5688	1	0
5689	1	0
5690	1	0
5691	1	0
5692	1	0
5693	1	0
5694	1	0
5695	1	0
5696	1	0
5697	1	0
5698	1	0
5699	1	0
5700	1	0
5701	1	0
5702	1	0
5703	1	0
5704	1	0
5705	1	0
5706	1	0
5707	1	0
5708	1	0
5709	1	0
5710	1	0
5711	1	0
5712	1	0
5713	1	0
5714	1	0
5715	1	0
5716	1	0
5717	1	0
5718	1	0
5719	1	0
5720	1	0
5721	1	0
5722	1	0
5723	1	0
5724	1	0
5725	1	0
5726	1	0
5727	1	0
5728	1	0
5729	1	0
5730	1	0
5731	1	0
5732	1	0
5733	1	0
5734	1	0
5735	1	0
5736	1	0
5737	1	0
5738	1	0
5739	1	0
5740	1	0
5741	1	0
5742	1	0
5743	1	0
5744	1	0
5745	1	0
5746	1	0
5747	1	0
5748	1	0
5749	1	0
5750	1	0
5751	1	0
5752	1	0
5753	1	0
5754	1	0
5755	1	0
5756	1	0
5757	1	0
5758	1	0
5759	1	0
5760	1	0
5761	1	0
5762	1	0
5763	1	0
5764	1	0
5765	1	0
5766	1	0
5767	1	0
5768	1	0
5769	1	0
5770	1	0
5771	1	0
5772	1	0
5773	1	0
5774	1	0
5775	1	0
5776	1	0
5777	1	0
5778	1	0
5779	1	0
5780	1	0
5781	1	0
5782	1	0
5783	1	0
5784	1	0
5785	1	0
5786	1	0
5787	1	0
5788	1	0
5789	1	0
5790	1	0
5791	1	0
5792	1	0
5793	1	0
5794	1	0
5795	1	0
5796	1	0
5797	1	0
5798	1	0
5799	1	0
5800	1	0
5801	1	0
5802	1	0
5803	1	0
5804	1	0
5805	1	0
5806	1	0
5807	1	0
5808	1	0
5809	1	0
5810	1	0
5811	1	0
5812	1	0
5813	1	0
5814	1	0
5815	1	0
5816	1	0
5817	1	0
5818	1	0
5819	1	0
5820	1	0
5821	1	0
5822	1	0
5823	1	0
5824	1	0
5825	1	0
5826	1	0
5827	1	0
5828	1	0
5829	1	0
5830	1	0
5831	1	0
5832	1	0
5833	1	0
5834	1	0
5835	1	0
5836	1	0
5837	1	0
5838	1	0
5839	1	0
5840	1	0
5841	1	0
5842	1	0
5843	1	0
5844	1	0
5845	1	0
5846	1	0
5847	1	0
5848	1	0
5849	1	0
5850	1	0
5851	1	0
5852	1	0
5853	1	0
5854	1	0
5855	1	0
5856	1	0
5857	1	0
5858	1	0
