Site	ColumnScore	SumOfPairsScore
1	1	0
2	1	0
3	1	0
4	1	0
5	1	0
6	1	0
7	1	0
8	1	0
9	1	0
10	1	0
11	1	0
12	1	0
13	1	0
14	1	0
15	1	0
16	1	0
17	1	0
18	1	0
19	1	0
20	1	0
21	1	0
22	1	0
23	1	0
24	1	0
25	1	0
26	1	0
27	1	0
28	1	0
29	1	0
30	1	0
31	1	0
32	1	0
33	1	0
34	1	0
35	1	0
36	1	0
37	1	0
38	1	0
39	1	0
40	1	0
41	1	0
42	1	0
43	1	0
44	1	0
45	1	0
46	1	0
47	1	0
48	1	0
49	0	0
50	0	0
51	0	0
52	0	0
53	0	0
54	1	0
55	1	0
56	0	0
57	0	0
58	0	0
59	0	0
60	0	0
61	0	0
62	0	0
63	0	0
64	0	0
65	0	0
66	0	0
67	0	0
68	0	0
69	0	0
70	1	0
71	1	0
72	1	0
73	1	0
74	1	0
75	1	0
76	1	0
77	1	0
78	1	0
79	1	0
80	1	0
81	1	0
82	0	0
83	0	0
84	0	0
85	0	0
86	0	0
87	0	0
88	1	0
89	1	0
90	0	0
91	0	0
92	1	0
93	1	0
94	1	0
95	1	0
96	0	0
97	0	0
98	0	0
99	0	0
100	0	0
101	0	0
102	1	0
103	1	0
104	1	0
105	1	0
106	1	0
107	1	0
108	1	0
109	1	0
110	0	0
111	0	0
112	0	0
113	0	0
114	0	0
115	0	0
116	0	0
117	0	0
118	0	0
119	0	0
120	0	0
121	0	0
122	0	0
123	0	0
124	0	0
125	0	0
126	0	0
127	0	0
128	0	0
129	0	0
130	0	0
131	0	0
132	0	0
133	0	0
134	0	0
135	0	0
136	0	0
137	0	0
138	0	0
139	0	0
140	0	0
141	0	0
142	0	0
143	0	0
144	0	0
145	0	0
146	0	0
147	0	0
148	0	0
149	0	0
150	0	0
151	0	0
152	0	0
153	0	0
154	0	0.166667
155	0	0.166667
156	0	0.166667
157	0	0.166667
158	0	0.166667
159	0	0.166667
160	0	0.166667
161	0	0.166667
162	0	0.166667
163	0	0.166667
164	0	0.166667
165	0	0.166667
166	0	0.166667
167	0	0.166667
168	0	0.166667
169	0	0.166667
170	0	0.166667
171	0	0.166667
172	0	0.166667
173	0	0.166667
174	0	0.166667
175	0	0.166667
176	0	0.166667
177	0	0.166667
178	0	0.166667
179	0	0.166667
180	0	0.166667
181	0	0
182	0	0
183	0	0
184	0	0
185	0	0
186	0	0
187	0	0
188	0	0
189	0	0
190	0	0
191	0	0
192	0	0
193	0	0
194	0	0
195	0	0
196	0	0
197	0	0
198	0	0
199	0	0
200	0	0
201	0	0
202	0	0
203	0	0
204	0	0
205	0	0
206	0	0
207	0	0
208	0	0
209	0	0
210	0	0
211	0	0
212	0	0
213	0	0
214	0	0
215	0	0
216	0	0
217	0	0
218	0	0
219	0	0
220	0	0
221	0	0
222	0	0
223	0	0
224	0	0
225	0	0
226	0	0
227	0	0
228	0	0
229	0	0
230	0	0
231	0	0
232	0	0
233	0	0
234	0	0
235	0	0
236	0	0
237	0	0
238	0	0
239	0	0
240	0	0
241	0	0
242	0	0
243	0	0
244	0	0
245	0	0
246	0	0
247	0	0
248	0	0
249	0	0
250	0	0
251	0	0
252	0	0
253	0	0
254	0	0
255	0	0
256	0	0
257	0	0
258	0	0
259	0	0
260	0	0
261	0	0
262	0	0
263	0	0
264	0	0
265	0	0
266	0	0
267	0	0
268	0	0
269	0	0
270	0	0
271	0	0
272	0	0
273	0	0
274	0	0
275	0	0
276	0	0
277	0	0
278	0	0
279	0	0
280	0	0
281	0	0
282	0	0
283	0	0
284	0	0
285	0	0
286	0	0
287	0	0
288	0	0
289	0	0
290	0	0
291	0	0
292	0	0
293	0	0
294	0	0
295	0	0
296	0	0.166667
297	0	0.166667
298	0	0.166667
299	0	0.166667
300	0	0.166667
301	0	0.166667
302	0	0.166667
303	0	0.166667
304	0	0.166667
305	0	0.166667
306	0	0.166667
307	0	0
308	0	0
309	0	0
310	0	0
311	0	0
312	0	0
313	0	0
314	0	0
315	0	0
316	0	0
317	0	0
318	0	0
319	0	0
320	0	0
321	0	0
322	0	0
323	0	0
324	0	0
325	0	0
326	0	0
327	0	0
328	0	0
329	0	0
330	0	0
331	0	0
332	0	0
333	0	0
334	0	0
335	0	0
336	0	0
337	0	0
338	0	0
339	0	0
340	0	0
341	0	0
342	0	0
343	0	0
344	0	0
345	0	0
346	0	0
347	0	0
348	0	0
349	0	0
350	0	0
351	0	0
352	0	0
353	0	0
354	0	0
355	0	0
356	0	0
357	0	0
358	0	0
359	0	0
360	0	0
361	0	0
362	0	0
363	0	0
364	0	0
365	0	0
366	0	0
367	0	0
368	0	0
369	0	0
370	0	0
371	0	0.1
372	0	0.1
373	0	0.1
374	0	0.1
375	0	0.1
376	0	0.1
377	0	0.1
378	0	0
379	0	0
380	0	0
381	0	0
382	0	0
383	0	0
384	0	0
385	0	0
386	0	0
387	0	0
388	0	0
389	0	0
390	0	0
391	0	0
392	0	0.1
393	0	0.0666667
394	0	0.0666667
395	0	0
396	0	0
397	0	0
398	0	0
399	0	0
400	0	0
401	0	0
402	0	0
403	0	0
404	0	0
405	0	0
406	0	0
407	0	0
408	0	0
409	0	0
410	0	0
411	0	0
412	0	0
413	0	0
414	0	0
415	0	0
416	0	0
417	0	0
418	0	0
419	0	0
420	0	0
421	0	0
422	0	0
423	0	0
424	0	0
425	0	0
426	0	0
427	0	0
428	0	0
429	0	0
430	0	0
431	0	0
432	0	0
433	0	0
434	0	0
435	0	0
436	0	0
437	0	0
438	0	0
439	0	0
440	0	0
441	0	0
442	0	0
443	0	0
444	0	0
445	0	0
446	0	0
447	0	0
448	0	0
449	0	0
450	0	0
451	0	0
452	0	0
453	0	0
454	0	0
455	0	0
456	0	0
457	0	0
458	0	0
459	0	0
460	0	0
461	0	0
462	0	0
463	0	0
464	0	0
465	0	0
466	0	0
467	0	0
468	0	0
469	0	0
470	0	0
471	0	0
472	0	0
473	0	0
474	0	0
475	0	0
476	0	0
477	0	0
478	0	0
479	0	0
480	0	0
481	0	0.010989
482	0	0.010989
483	0	0
484	0	0
485	0	0
486	0	0
487	0	0
488	0	0
489	0	0.00833333
490	0	0.00833333
491	0	0.00833333
492	0	0.00735294
493	0	0.00735294
494	0	0.00735294
495	0	0.00735294
496	0	0.0147059
497	0	0.00735294
498	0	0.00833333
499	0	0.0166667
500	0	0.0166667
501	0	0.0166667
502	0	0.0294118
503	0	0.0294118
504	0	0.0294118
505	0	0.0261438
506	0	0.0261438
507	0	0.0326797
508	0	0.0326797
509	0	0.0326797
510	0	0.0233918
511	0	0.0350877
512	0	0.0467836
513	0	0.0473684
514	0	0.0380952
515	0	0.0285714
516	0	0.025974
517	0	0.034632
518	0	0.0474308
519	0	0.0316206
520	0	0.0398551
521	0	0.057971
522	0	0.0640394
523	0	0.0625
524	0	0.0806723
525	0	0.112957
526	0	0.231529
527	0	0.377967
528	0	0.513589
529	0	0.623693
530	0	0.650065
531	0	0.405231
532	0	0.803138
533	0	0.128205
534	0	0.128205
535	0	0.128205
536	0	0.102564
537	0	0.102564
538	0	0.102564
539	0	0.121212
540	0	0.121212
541	0	0.121212
542	0	0.883115
543	0	0.140351
544	0	0.175
545	0	0.227273
546	0	0.269231
547	0	0.945923
548	0	0.0666667
549	0	0.0833333
550	0	0.0833333
551	0	0.0833333
552	0	0.0666667
553	0	0.0666667
554	0	0.0833333
555	0	0.0833333
556	0	0.111111
557	0	0.111111
558	0	0.111111
559	0	0.0555556
560	0	0.0555556
561	0	0.111111
562	0	0.142857
563	0	0.25
564	0	0.305556
565	0	0.371795
566	0	0.32967
567	0	0.384615
568	0	0.384615
569	0	0.417582
570	0	0.382353
571	0	0.967284
572	0	0.969022
573	0	0
574	0	0
575	0	0
576	0	0
577	0	0
578	0	0
579	0	0
580	0	0
581	0	0
582	0	0
583	0	0
584	0	0
585	0	0
586	0	0
587	0	0
588	0	0
589	0	0.989606
590	0	0
591	0	0
592	0	0
593	0	0
594	0	0
595	0	0
596	0	0
597	0	0
598	0	0
599	0	0
600	0	0
601	0	0
602	0	0
603	0	0
604	0	0
605	0	0
606	0	0
607	0	0
608	0	0
609	0	0
610	0	0
611	0	0
612	0	0
613	0	0
614	0	0
615	0	0
616	0	0
617	0	0
618	0	0
619	0	0
620	0	0
621	0	0
622	0	0
623	0	0
624	0	0
625	0	0
626	0	0
627	0	0
628	0	0
629	0	0
630	0	0
631	0	0
632	0	0
633	0	0
634	0	0
635	0	0
636	0	0
637	0	0
638	0	0
639	0	0
640	0	0
641	0	0
642	0	0
643	0	0
644	0	0
645	0	0
646	0	0
647	0	0
648	0	0
649	0	0
650	0	0
651	0	0
652	0	0
653	0	0
654	0	0
655	0	0
656	0	0
657	0	0
658	0	0
659	0	0
660	0	0
661	0	0
662	0	0
663	0	0
664	0	0
665	0	0
666	0	0
667	0	0
668	0	0
669	0	0
670	0	0
671	0	0
672	0	0
673	0	0
674	0	0
675	0	0
676	0	0
677	0	0
678	0	0
679	0	0
680	0	0
681	0	0
682	0	0
683	0	0
684	0	0
685	0	0
686	0	0
687	0	0
688	0	0
689	0	0
690	0	0
691	0	0
692	0	0
693	0	0
694	0	0
695	0	0
696	0	0
697	0	0
698	0	0
699	0	0
700	0	0
701	0	0
702	0	0
703	0	0
704	0	0
705	0	1
706	0	1
707	0	1
708	0	1
709	0	1
710	0	1
711	0	1
712	1	1
713	0	0.996546
714	0	0.996546
715	0	0.989661
716	0	0.670675
717	0	0.987963
718	0	0.987963
719	0	0.998271
720	0	0
721	0	0.986312
722	1	1
723	0	0.998273
724	0	0.998273
725	0	0.998273
726	1	1
727	1	1
728	0	1
729	0	1
730	1	1
731	1	1
732	1	1
733	1	1
734	1	1
735	1	1
736	1	1
737	1	1
738	1	1
739	0	1
740	0	0
741	0	0.991413
742	0	0.991413
743	0	0.991413
744	0	1
745	0	0.333333
746	0	0.333333
747	0	0.333333
748	0	0.333333
749	1	0
750	1	0
751	1	0
752	1	0
753	1	0
754	1	0
755	1	0
756	1	0
757	1	0
758	1	0
759	1	0
760	1	0
761	0	0.993114
762	0	0.996555
763	0	0.996555
764	0	0.994834
765	0	0.996552
766	0	0.996552
767	0	0.4
768	0	0.977831
769	0	1
770	0	0.980697
771	0	0.979384
772	0	0
773	0	0
774	0	0
775	0	0
776	0	0
777	0	0
778	0	0
779	0	0
780	0	0
781	0	0
782	0	0
783	0	0
784	0	0
785	0	0
786	0	0
787	0	0.735336
788	0	0
789	0	0.763371
790	0	0.780902
791	0	1
792	0	1
793	0	0.798924
794	0	0
795	0	0
796	0	0
797	0	0
798	0	0
799	0	0
800	0	0
801	0	0
802	0	0
803	0	0
804	0	0
805	0	0.798804
806	0	0
807	0	0.6
808	0	0.787505
809	0	0.784643
810	1	0
811	1	0
812	1	0
813	1	0
814	1	0
815	1	0
816	1	0
817	1	0
818	1	0
819	1	0
820	1	0
821	1	0
822	1	0
823	1	0
824	1	0
825	1	0
826	1	0
827	1	0
828	0	0
829	0	0
830	0	0
831	0	0
832	0	0
833	0	0
834	0	0
835	0	0
836	0	0
837	0	0
838	0	0.764952
839	0	0.691568
840	0	0.760983
841	0	0.766931
842	0	0.44335
843	0	0.727622
844	0	0.835338
845	0	0.691171
846	0	0.856858
847	0	0.4
848	0	0.4
849	0	0.837661
850	0	0.839096
851	0	1
852	0	1
853	0	1
854	0	0.972421
855	0	0.992506
856	0	0.3
857	0	0.3
858	0	0.3
859	0	0.3
860	0	0.984519
861	0	0.984519
862	0	0
863	0	0
864	0	0
865	0	0
866	0	0
867	0	0.965933
868	0	0.984598
869	0	0
870	0	0
871	0	0
872	0	0.991416
873	0	0
874	0	0
875	0	0
876	0	0
877	0	0
878	0	0
879	0	0
880	0	0.994876
881	0	0.996583
882	0	0.996583
883	0	0.99658
884	0	0
885	0	0
886	0	0.978083
887	0	0.491164
888	0	0.347874
889	0	0.385226
890	0	0.26627
891	0	0.379414
892	0	0.519442
893	0	0.597621
894	0	0.407268
895	0	0.590533
896	0	0.590247
897	0	0.591411
898	0	0.384615
899	0	0.601519
900	0	0.915288
901	0	0.927199
902	0	0.945776
903	0	0
904	0	0
905	0	0
906	0	0.977691
907	0	0
908	0	0
909	0	0
910	0	0
911	0	0
912	0	0
913	0	0
914	0	0
915	0	0
916	0	0
917	0	0
918	0	0
919	0	0
920	0	0.981302
921	0	0.986383
922	0	0.986406
923	0	0.986406
924	0	0.989795
925	0	0.989793
926	0	1
927	0	0.333333
928	0	0
929	0	0
930	0	0
931	0	0
932	0	0
933	0	0
934	0	0
935	0	0
936	0	0
937	0	0
938	0	0
939	0	0
940	0	0
941	0	0
942	0	0
943	0	0
944	0	0
945	0	0
946	0	0.986403
947	0	0
948	0	0
949	0	0
950	0	0.989739
951	0	0.523333
952	0	0.694659
953	0	0.684661
954	0	0.683262
955	0	0.756849
956	0	0.756327
957	0	0.754874
958	0	0
959	0	0
960	0	0
961	0	0
962	0	0
963	0	0.742927
964	0	0.736602
965	0	0.1
966	0	0.1
967	0	0.666384
968	0	0.0909091
969	0	0.0666667
970	0	0.0666667
971	0	0.1
972	0	0.869602
973	0	0.560606
974	0	0.833333
975	0	0.984553
976	0	0.984553
977	0	0.2
978	0	0.3
979	0	1
980	0	1
981	0	1
982	0	0.996586
983	0	0.996586
984	0	0.996586
985	0	0.996586
986	0	0.996583
987	0	0.996583
988	0	0.996583
989	1	0
990	1	0
991	1	0
992	0	0
993	0	0
994	0	0
995	0	0
996	0	0
997	0	0
998	1	1
999	1	1
1000	1	1
1001	1	1
1002	1	1
1003	1	1
1004	1	1
1005	1	1
1006	1	1
1007	1	1
1008	0	0.998298
1009	0	0.998299
1010	0	0.998299
1011	0	0.998299
1012	0	0.998299
1013	0	0.9966
1014	0	0
1015	0	0.998298
1016	0	0.998298
1017	0	0.998298
1018	0	0.998298
1019	0	0.998298
1020	0	0.996597
1021	0	0.994898
1022	0	1
1023	0	0.266667
1024	0	0.433824
1025	0	0.968491
1026	0	0.466667
1027	0	0.3
1028	0	0.166667
1029	0	0.333333
1030	0	0.885265
1031	0	0.888207
1032	0	0
1033	0	0
1034	0	0
1035	0	0
1036	0	0
1037	0	0.833333
1038	0	0.833333
1039	0	0.637363
1040	0	0.331579
1041	0	0.277056
1042	0	0.231073
1043	0	0.177788
1044	0	0.744756
1045	0	0.722334
1046	0	1
1047	0	1
1048	0	1
1049	0	1
1050	0	0
1051	0	0
1052	1	0
1053	1	0
1054	1	0
1055	1	0
1056	1	0
1057	1	0
1058	1	0
1059	1	0
1060	1	0
1061	1	0
1062	1	0
1063	1	0
1064	1	0
1065	1	0
1066	1	0
1067	1	0
1068	1	0
1069	1	0
1070	1	0
1071	1	0
1072	1	0
1073	1	0
1074	1	0
1075	1	0
1076	1	0
1077	0	0
1078	0	0
1079	0	0
1080	0	0.937647
1081	0	0.741625
1082	0	0.466667
1083	0	0.378788
1084	0	0.398717
1085	0	0.301546
1086	0	0.154354
1087	0	0.16793
1088	0	0.151575
1089	0	0.334942
1090	0	0.304348
1091	0	0.202151
1092	0	0.397417
1093	0	0.419337
1094	0	0.450193
1095	0	0.151649
1096	0	0.445283
1097	0	0.240152
1098	0	0.221225
1099	0	0.108374
1100	0	0.0806452
1101	0	0.0745968
1102	0	0.219626
1103	0	0.137764
1104	0	0.126958
1105	0	0.357143
1106	0	0.214286
1107	0	0.118194
1108	0	0.235114
1109	0	0
1110	0	0
1111	0	0.784314
1112	0	0.3
1113	0	0
1114	0	0.166667
1115	0	0.601307
1116	0	0
1117	0	0.24436
1118	0	0
1119	0	0
1120	0	0
1121	0	0
1122	0	0
1123	0	0
1124	0	0.188653
1125	0	0.25
1126	0	0.137655
1127	0	0.195159
1128	0	0.166667
1129	0	0.166667
1130	0	0.1
1131	0	1
1132	0	1
1133	0	0.260079
1134	0	0
1135	0	0
1136	0	0
1137	0	0.56281
1138	0	0.729406
1139	0	0
1140	0	0
1141	0	0.142857
1142	0	0.768999
1143	0	0.222816
1144	0	0.430216
1145	0	0.446021
1146	0	0.351724
1147	0	0.601426
1148	0	0.570177
1149	0	0.564818
1150	0	0.888889
1151	0	0
1152	0	0
1153	0	0
1154	0	0
1155	0	0
1156	0	0
1157	0	0.959919
1158	0	0.266667
1159	0	0.4
1160	0	0
1161	0	0
1162	0	0
1163	0	0
1164	0	0
1165	0	0
1166	0	0.992494
1167	0	0.998296
1168	0	0.998298
1169	0	0.998298
1170	0	0.998299
1171	0	0.998299
1172	0	0.998299
1173	0	0.998299
1174	0	0.998299
1175	0	0.998299
1176	0	0.998301
1177	0	0.998301
1178	0	0.998301
1179	0	1
1180	0	0
1181	0	0
1182	0	0.996477
1183	0	0.930719
1184	0	0.705837
1185	0	0.710976
1186	0	0.979221
1187	0	0.991514
1188	0	0.991514
1189	0	0
1190	0	0.993212
1191	1	0
1192	1	0
1193	1	0
1194	1	0
1195	0	0
1196	0	0
1197	0	0
1198	0	0
1199	0	0
1200	0	0
1201	0	0
1202	0	0.994911
1203	0	0.994911
1204	0	0.996603
1205	0	0
1206	1	0
1207	1	0
1208	1	0
1209	0	0.998302
1210	0	0.998302
1211	0	0.998302
1212	0	0.998302
1213	0	0
1214	0	0
1215	0	0
1216	0	0
1217	0	0
1218	0	0
1219	1	0
1220	1	0
1221	1	0
1222	1	0
1223	1	0
1224	1	0
1225	1	0
1226	1	0
1227	1	0
1228	0	0.994911
1229	0	0
1230	0	0
1231	0	0
1232	0	0.996606
1233	0	0.996606
1234	0	0.996606
1235	0	0.996606
1236	0	0.996603
1237	0	0.996603
1238	0	0.996603
1239	0	0.994907
1240	0	0.994907
1241	0	0.994907
1242	0	0.926625
1243	0	0.926625
1244	0	0.910409
1245	0	0.888081
1246	0	0.658462
1247	0	0.580952
1248	0	0.580952
1249	0	0.379447
1250	0	0.790328
1251	0	0.585447
1252	0	0.1
1253	0	0.1
1254	0	0.1
1255	0	0.1
1256	0	0.0666667
1257	0	0.1
1258	0	0.5
1259	0	0.278114
1260	0	0
1261	0	0
1262	0	0
1263	0	0
1264	0	0.0666667
1265	0	0.0666667
1266	0	0.533333
1267	0	0.548183
1268	0	0.333333
1269	0	0.285714
1270	0	0.227273
1271	0	0.175
1272	0	0.152381
1273	0	0.141304
1274	0	0.171958
1275	0	0.165775
1276	0	0.830442
1277	0	0.139601
1278	0	0.141129
1279	0	0.205042
1280	0	0.230159
1281	0	0.4
1282	0	0.860739
1283	0	0.208791
1284	0	0.625614
1285	0	1
1286	0	1
1287	0	0.984747
1288	0	0.986425
1289	0	0.986425
1290	0	0.988107
1291	0	0.3
1292	0	0
1293	0	0
1294	0	0
1295	0	0
1296	0	0
1297	0	0
1298	0	0
1299	0	0.333333
1300	0	0.333333
1301	0	0.333333
1302	0	0.333333
1303	0	0.989813
1304	0	0.996597
1305	0	0.996597
1306	0	0.996597
1307	0	0.996597
1308	0	0.996597
1309	0	0.996597
1310	0	0.994902
1311	0	0.994902
1312	0	0.994902
1313	0	0.994902
1314	0	0.994902
1315	0	0.994902
1316	0	0.993206
1317	0	0.993206
1318	0	1
1319	0	0.461538
1320	0	0.333333
1321	0	0.285714
1322	0	0.225
1323	0	0.121212
1324	0	0.954276
1325	0	0.747305
1326	0	0.1
1327	0	0.1
1328	0	0.1
1329	0	0.1
1330	0	0.1
1331	0	0.1
1332	0	0.142857
1333	0	0.142857
1334	0	0.151515
1335	0	0.124183
1336	0	0.257923
1337	0	0.234102
1338	0	0.123904
1339	0	0.36664
1340	0	0
1341	0	0
1342	0	0
1343	0	0
1344	0	0
1345	0	0.162055
1346	0	0.138528
1347	0	0.134199
1348	0	0.415584
1349	0	0.467532
1350	0	0.386847
1351	0	0.25
1352	0	0.187135
1353	0	0.19883
1354	0	0.157895
1355	0	0.157895
1356	0	0.222222
1357	0	0.286765
1358	0	0.18235
1359	0	0.217417
1360	0	0.128431
1361	0	0.115087
1362	0	0.628367
1363	0	0.140704
1364	0	0.124054
1365	0	0.121118
1366	0	0.0764045
1367	0	0.10028
1368	0	0.131002
1369	0	0.163842
1370	0	0.192271
1371	0	0.704091
1372	0	0.0896159
1373	0	0.20404
1374	0	0.285535
1375	0	0.264046
1376	0	0.451811
1377	0	0.402702
1378	0	0.0666667
1379	0	0.0666667
1380	0	0.0666667
1381	0	0.417603
1382	0	0.197215
1383	0	0.169619
1384	0	0.214196
1385	0	0.298853
1386	0	0.348984
1387	0	0.458333
1388	0	0
1389	0	0
1390	0	0
1391	0	0
1392	0	0
1393	0	0
1394	0	0
1395	0	0
1396	0	0
1397	0	0
1398	0	0.333333
1399	0	0.333333
1400	0	0.25
1401	0	0.19697
1402	0	0.284211
1403	0	0.284211
1404	0	0.285714
1405	0	0.470269
1406	0	0.425905
1407	0	0.421242
1408	0	0.529218
1409	0	0.537963
1410	0	0.539168
1411	0	0.356026
1412	0	0.382012
1413	0	0.155516
1414	0	0.230643
1415	0	0.390706
1416	0	0.737963
1417	0	0.972222
1418	0	1
1419	0	0.966337
1420	0	0.957932
1421	0	0.464286
1422	0	1
1423	0	0.996593
1424	0	0.993215
1425	0	0.777677
1426	0	0.996132
1427	0	0.996602
1428	0	0.996602
1429	0	0.998298
1430	0	0.998301
1431	0	0.998301
1432	0	0.998301
1433	0	0.998301
1434	0	1
1435	0	1
1436	0	1
1437	0	0.69792
1438	0	1
1439	0	0.717949
1440	0	0.776694
1441	0	0.714286
1442	0	0.714286
1443	0	0.715992
1444	0	0.698281
1445	0	0.691866
1446	0	0.578995
1447	0	0
1448	0	0
1449	0	0.787273
1450	0	0.824323
1451	0	0.819651
1452	0	0.71387
1453	0	0.67746
1454	0	0.673581
1455	0	0.788216
1456	0	0.791061
1457	0	0.79367
1458	0	0.792823
1459	0	0.781223
1460	1	1
1461	1	1
1462	1	1
1463	1	1
1464	1	1
1465	1	1
1466	0	0.998302
1467	0	0.998302
1468	0	0.998302
1469	0	0.909091
1470	0	0.963285
1471	0	0.963187
1472	0	0.969834
1473	0	0
1474	0	0
1475	1	0
1476	1	0
1477	0	0
1478	0	0.996603
1479	0	0.998301
1480	1	1
1481	1	1
1482	1	1
1483	1	1
1484	1	1
1485	1	1
1486	1	1
1487	0	1
1488	0	0.994907
1489	0	0
1490	0	0
1491	0	0
1492	0	0
1493	0	0
1494	0	0
1495	0	0
1496	0	0
1497	0	0
1498	0	0
1499	0	0
1500	0	0
1501	0	0
1502	1	0
1503	1	0
1504	0	0
1505	0	0
1506	0	0.9966
1507	0	0.9966
1508	0	0.9966
1509	0	0.9966
1510	0	0.9966
1511	0	0
1512	0	0.998299
1513	0	0.998299
1514	0	0.998299
1515	0	0.998296
1516	0	0.998296
1517	0	0.998296
1518	0	0.998296
1519	0	0.998296
1520	0	0.996594
1521	0	0
1522	0	1
1523	0	1
1524	0	1
1525	0	1
1526	0	0.998298
1527	0	0.998298
1528	0	0.998298
1529	0	1
1530	0	1
1531	0	1
1532	0	1
1533	0	1
1534	0	1
1535	0	1
1536	0	1
1537	0	1
1538	1	1
1539	1	1
1540	1	1
1541	1	1
1542	1	1
1543	0	1
1544	1	0
1545	1	0
1546	1	0
1547	1	0
1548	1	0
1549	1	0
1550	1	1
1551	1	1
1552	1	1
1553	1	1
1554	0	1
1555	0	1
1556	0	1
1557	0	1
1558	1	1
1559	1	1
1560	0	0.996604
1561	1	1
1562	1	1
1563	1	1
1564	1	1
1565	1	1
1566	1	1
1567	0	1
1568	0	1
1569	1	1
1570	1	1
1571	1	1
1572	1	1
1573	0	0.998299
1574	0	0
1575	0	0
1576	0	0
1577	0	0.998301
1578	0	0.998301
1579	0	0.998301
1580	0	0.998301
1581	0	0.998301
1582	0	0.998301
1583	0	0.998301
1584	0	0.998301
1585	1	1
1586	1	1
1587	1	1
1588	1	1
1589	1	1
1590	1	1
1591	1	1
1592	1	1
1593	1	1
1594	1	1
1595	1	1
1596	1	1
1597	1	1
1598	1	1
1599	1	1
1600	1	1
1601	1	1
1602	1	1
1603	1	1
1604	1	1
1605	1	1
1606	0	0.998301
1607	1	1
1608	1	1
1609	1	1
1610	0	1
1611	0	0.996602
1612	0	1
1613	0	0.989789
1614	0	0.983084
1615	0	0.983084
1616	0	0.981414
1617	0	0.981414
1618	0	0.981414
1619	0	0.981414
1620	0	0.979679
1621	0	0.97472
1622	0	0.973046
1623	0	0.978053
1624	0	0.978053
1625	0	0.976373
1626	0	0.976373
1627	0	0
1628	0	0
1629	0	0
1630	0	0
1631	0	0
1632	0	0
1633	0	0
1634	0	0
1635	0	0
1636	0	0
1637	0	0
1638	0	0
1639	0	0
1640	0	0.75
1641	0	0.355556
1642	0	0.290909
1643	0	0.290909
1644	0	0.961442
1645	0	0.887165
1646	0	0.827808
1647	0	0.714286
1648	0	0.714286
1649	0	0.714286
1650	0	0.714286
1651	0	1
1652	0	1
1653	0	0.558201
1654	0	0.522167
1655	0	0.778799
1656	0	0
1657	0	0
1658	0	0
1659	0	0
1660	0	0
1661	0	0.410774
1662	0	0.258998
1663	0	0.738891
1664	0	0
1665	0	0
1666	0	0
1667	0	0
1668	0	0
1669	0	0
1670	0	0
1671	0	0
1672	0	0
1673	0	0
1674	0	0
1675	0	0
1676	0	0
1677	0	0
1678	0	0
1679	0	0
1680	0	0.0676923
1681	0	0.06
1682	0	0.0433333
1683	0	0.0434783
1684	0	0.0362319
1685	0	0.0451613
1686	0	0.272761
1687	0	0.245221
1688	0	0.249331
1689	0	0.4
1690	0	0.6
1691	0	0.6
1692	0	0.6
1693	0	0.266667
1694	0	0.1
1695	0	0.1
1696	0	0.166667
1697	0	0.166667
1698	0	0.1
1699	0	0.211949
1700	0	0.113829
1701	0	0.100241
1702	0	0.300096
1703	0	0.182189
1704	0	0.0789474
1705	0	0.0789474
1706	0	0.0789474
1707	0	0.0789474
1708	0	0.0761905
1709	0	0.0562771
1710	0	0.0326087
1711	0	0.03
1712	0	0.207454
1713	0	0.230586
1714	0	0.0835769
1715	0	0.0829924
1716	0	0.0859044
1717	0	0.0824859
1718	0	0.169725
1719	0	0.277975
1720	0	0.047619
1721	0	0
1722	0	0
1723	0	0
1724	0	0
1725	0	0
1726	0	0
1727	0	0
1728	0	0.0607173
1729	0	0.0543817
1730	0	0.156838
1731	0	0.139565
1732	0	0.0291883
1733	0	0.0196268
1734	0	0.152744
1735	0	0.14007
1736	0	0.176203
1737	0	0.0659341
1738	0	0.0371585
1739	0	0.0361582
1740	0	0.0290381
1741	0	0.0245924
1742	0	0.0282147
1743	0	0.241261
1744	0	0.109091
1745	0	0.4
1746	0	0.4
1747	0	0.4
1748	0	0.4
1749	0	0.4
1750	0	0.0522572
1751	0	0.0593963
1752	0	0.0567327
1753	0	0.052973
1754	0	0.0740019
1755	0	0.070526
1756	0	0.167597
1757	0	0.0284332
1758	0	0.0286382
1759	0	0.0299435
1760	0	0.0338798
1761	0	0.0599379
1762	0	0.168643
1763	0	0.246608
1764	0	0.247687
1765	0	1
1766	0	1
1767	0	1
1768	0	1
1769	0	1
1770	0	0.643098
1771	0	0.643098
1772	0	0.643098
1773	0	0.57958
1774	0	0
1775	0	0
1776	0	0
1777	0	0
1778	0	0
1779	0	0
1780	0	0
1781	0	0
1782	0	0
1783	0	0
1784	0	0.5
1785	0	0.5
1786	0	0.3
1787	0	0.2
1788	0	0.690087
1789	0	0
1790	0	0
1791	0	0
1792	0	0
1793	0	0
1794	0	0
1795	0	0
1796	0	0
1797	0	0
1798	0	0
1799	0	0
1800	0	0
1801	0	0
1802	0	0
1803	0	0
1804	0	0
1805	0	0
1806	0	0
1807	0	0
1808	0	0
1809	0	0.584906
1810	0	0.63178
1811	0	0.639921
1812	0	0.283626
1813	0	0.234262
1814	0	1
1815	0	1
1816	0	0
1817	0	0
1818	0	0.6
1819	0	0.6
1820	0	0.4
1821	0	1
1822	0	0.52381
1823	0	0.52381
1824	0	0.190912
1825	0	0.2
1826	0	0.133333
1827	0	0.166667
1828	0	0
1829	0	0.328885
1830	0	0.325467
1831	0	0.318592
1832	0	0.75
1833	0	0.75
1834	0	0.585602
1835	0	0.71102
1836	0	0.152381
1837	0	0.152381
1838	0	0.152381
1839	0	0.247492
1840	0	0
1841	0	0
1842	0	0
1843	0	0
1844	0	0.167419
1845	0	0.321429
1846	0	0.199597
1847	0	0.172414
1848	0	0.140394
1849	0	0.30645
1850	0	0.246548
1851	0	0.178571
1852	0	0.190476
1853	0	0.190476
1854	0	0.169525
1855	0	0.254036
1856	0	0.207508
1857	0	0.114964
1858	0	0.117623
1859	0	0.124199
1860	0	0.156039
1861	0	0.10842
1862	0	0.156646
1863	0	0.481366
1864	0	0.400449
1865	0	0.571429
1866	0	0.485222
1867	0	0.452874
1868	0	0.438424
1869	0	0.411494
1870	0	0.44424
1871	0	0.318293
1872	0	0.675325
1873	0	0.5
1874	0	0.416667
1875	0	0.416667
1876	0	0.313978
1877	0	0.482759
1878	0	0.544828
1879	0	0.37619
1880	0	0.216807
1881	0	0.228892
1882	0	0.0357143
1883	0	0.0357143
1884	0	0.0357143
1885	0	0.0357143
1886	0	0.0714286
1887	0	0.0564103
1888	0	0.0569031
1889	0	0.306678
1890	0	0.313436
1891	0	0.34826
1892	0	0.398134
1893	0	0.402718
1894	0	0.177778
1895	0	0.222222
1896	0	0.222222
1897	0	0.2
1898	0	0.2
1899	0	0.2
1900	0	0.0892719
1901	0	0.0782269
1902	0	0.0837317
1903	0	0.137753
1904	0	0.121228
1905	0	0.162124
1906	0	0.343113
1907	0	0.0357143
1908	0	0.0357143
1909	0	0.0669051
1910	0	0.392543
1911	0	0.391044
1912	0	0.418937
1913	0	0.113219
1914	0	0
1915	0	0
1916	0	0.166667
1917	0	0.180301
1918	0	0.250616
1919	0	0.204253
1920	0	0.482941
1921	0	0.479709
1922	0	0.0445633
1923	0	0.0671053
1924	0	0.387778
1925	0	0.383817
1926	0	0.0190476
1927	0	0.0190476
1928	0	0.391216
1929	0	0.391887
1930	0	0
1931	0	0.047619
1932	0	0.110256
1933	0	0.153846
1934	0	0.189189
1935	0	0.201587
1936	0	0.225397
1937	0	0.728348
1938	0	0.281377
1939	0	0.290526
1940	0	0.302364
1941	0	0.312815
1942	0	0.75496
1943	0	0.76055
1944	0	0
1945	0	0
1946	0	0
1947	0	0
1948	0	1
1949	0	1
1950	0	1
1951	0	1
1952	0	1
1953	0	1
1954	0	1
1955	0	1
1956	0	1
1957	0	1
1958	0	0.529656
1959	0	0.166667
1960	0	0.166667
1961	0	0.166667
1962	0	0.166667
1963	0	0.527388
1964	0	0.266667
1965	0	0.333333
1966	0	0.52381
1967	0	0.52381
1968	0	0.147059
1969	0	0.117647
1970	0	0.51819
1971	0	0.518628
1972	0	0.519411
1973	0	0.542398
1974	0	0.54385
1975	0	0.544047
1976	0	0.544311
1977	0	0.543087
1978	0	0.543087
1979	0	0.368051
1980	0	0.424397
1981	0	0.672304
1982	0	0.881615
1983	0	0.881605
1984	0	0.881703
1985	0	0.8818
1986	0	0.884909
1987	0	0.392157
1988	0	0.535714
1989	0	0.846827
1990	0	0.851429
1991	0	0.852612
1992	0	0
1993	0	0.77
1994	0	0
1995	0	0.347692
1996	0	0.802317
1997	0	0.798237
1998	0	0.715789
1999	0	0.805263
2000	0	0.543333
2001	0	0.247619
2002	0	0.562096
2003	0	0.833259
2004	0	0.840993
2005	0	0.750988
2006	0	0.732804
2007	0	0.741379
2008	0	0.885813
2009	0	0.887258
2010	0	1
2011	0	1
2012	0	1
2013	0	0.998225
2014	0	0.998296
2015	0	0.998296
2016	0	0.998296
2017	0	0.998296
2018	0	0.998298
2019	0	0.998298
2020	0	0.998296
2021	0	0.994895
2022	0	0.998294
2023	1	0
2024	1	0
2025	1	0
2026	1	0
2027	1	0
2028	1	0
2029	1	0
2030	1	0
2031	1	0
2032	1	0
2033	1	0
2034	1	0
2035	1	0
2036	1	0
2037	1	0
2038	1	0
2039	1	0
2040	1	0
2041	1	0
2042	0	0.996591
2043	0	0.994894
2044	0	0.994894
2045	0	0.994894
2046	0	0.994894
2047	0	0.994894
2048	0	0.994894
2049	0	0.994894
2050	0	0.996591
2051	0	0.996591
2052	0	0.998294
2053	0	0.998294
2054	0	0.998292
2055	0	0.998292
2056	0	0.998292
2057	0	0.998292
2058	0	0.998292
2059	0	0.998292
2060	0	0.998292
2061	0	1
2062	0	1
2063	0	1
2064	0	0.548387
2065	0	0.459677
2066	0	0.431818
2067	0	0.940629
2068	0	1
2069	0	1
2070	0	1
2071	0	1
2072	0	0.605263
2073	0	0
2074	0	0.647368
2075	0	0.647368
2076	0	0.585714
2077	0	0.876626
2078	0	0.166667
2079	0	0.166667
2080	0	0.166667
2081	0	0.166667
2082	0	0.166667
2083	0	0.166667
2084	0	0.528139
2085	0	0.393846
2086	0	0.285714
2087	0	0.220168
2088	0	0.212776
2089	0	0.653624
2090	0	0.725275
2091	0	0.725275
2092	0	0.451604
2093	0	0.32102
2094	0	0.136667
2095	0	0.112319
2096	0	0.0833333
2097	0	0.076087
2098	0	0.155295
2099	0	0.143799
2100	0	0.397078
2101	0	0.389578
2102	0	0.274577
2103	0	0.102041
2104	0	0.111139
2105	0	0.0988203
2106	0	0.0962055
2107	0	0.0949171
2108	0	0.387006
2109	0	0.443533
2110	0	0.467267
2111	0	0
2112	0	0
2113	0	0
2114	0	0
2115	0	0.0658307
2116	0	0.0544243
2117	0	0.0614574
2118	0	0.0796646
2119	0	0.0908213
2120	0	0.0951374
2121	0	0.100775
2122	0	0.102207
2123	0	0.119488
2124	0	0.118619
2125	0	0.739913
2126	0	0.76868
2127	0	0.0454545
2128	0	0
2129	0	0
2130	0	0
2131	0	0
2132	0	0
2133	0	0
2134	0	0
2135	0	0
2136	0	0
2137	0	0
2138	0	0
2139	0	0
2140	0	0
2141	0	0
2142	0	0
2143	0	0
2144	0	0
2145	0	0.1
2146	0	0.1
2147	0	0.1
2148	0	0.1
2149	0	0.1
2150	0	0.133333
2151	0	0.133333
2152	0	0.133333
2153	0	0.0952381
2154	0	0.133333
2155	0	0.133333
2156	0	0.133333
2157	0	0.666667
2158	0	0.666667
2159	0	1
2160	0	1
2161	0	1
2162	0	1
2163	0	0.679055
2164	0	0.216198
2165	0	0.285464
2166	0	0.298213
2167	0	0.484211
2168	0	0.484211
2169	0	0.385538
2170	0	0.388432
2171	0	0.823847
2172	0	0.819778
2173	0	0.1
2174	0	0.166667
2175	0	0.166667
2176	0	0.333333
2177	0	0.333333
2178	0	0.333333
2179	0	0.333333
2180	0	0.333333
2181	0	0.333333
2182	0	0.333333
2183	0	0.864875
2184	0	0.333333
2185	0	0.333333
2186	0	0
2187	0	0
2188	0	0
2189	0	0
2190	0	0
2191	0	0
2192	0	0
2193	0	0.6
2194	0	0.974359
2195	0	0.994876
2196	0	0.994876
2197	0	0.994876
2198	0	1
2199	0	0.994881
2200	0	0.996586
2201	0	0.996586
2202	1	1
2203	1	1
2204	1	1
2205	1	1
2206	1	1
2207	1	1
2208	1	1
2209	0	0
2210	0	0
2211	0	0
2212	0	0
2213	0	0
2214	0	0
2215	1	0
2216	1	0
2217	1	0
2218	1	0
2219	1	0
2220	1	0
2221	1	0
2222	1	0
2223	1	0
2224	1	0
2225	1	0
2226	1	0
2227	1	0
2228	1	0
2229	1	0
2230	1	0
2231	1	0
2232	1	0
2233	1	0
2234	1	0
2235	1	0
2236	1	0
2237	1	0
2238	1	0
2239	1	0
2240	1	0
2241	1	0
2242	1	0
2243	1	0
2244	1	0
2245	1	0
2246	1	0
2247	1	0
2248	1	0
2249	1	0
2250	1	0
2251	1	0
2252	1	0
2253	1	0
2254	1	0
2255	1	0
2256	1	0
2257	1	0
2258	1	0
2259	1	0
2260	1	0
2261	1	0
2262	1	0
2263	1	0
2264	1	0
2265	1	0
2266	1	0
2267	1	0
2268	0	0
2269	0	0
2270	0	0
2271	0	0
2272	0	0
2273	0	0
2274	0	0.996591
2275	0	0.996591
2276	0	0.994894
2277	0	0.994894
2278	0	0.996591
2279	0	0.996591
2280	0	0.996591
2281	0	0.996588
2282	0	0.996586
2283	0	0.996583
2284	0	0.996583
2285	0	0.996583
2286	0	0.996583
2287	0	0.996583
2288	0	0.996583
2289	0	0.996583
2290	0	0.993183
2291	0	0.5
2292	0	0.993167
2293	0	0.5
2294	0	0.166667
2295	0	0.166667
2296	0	0.166667
2297	0	0.166667
2298	0	0.166667
2299	0	0.166667
2300	0	0.166667
2301	0	0.166667
2302	0	0.166667
2303	0	0.166667
2304	0	0.166667
2305	0	0
2306	0	0
2307	0	0
2308	0	0
2309	0	0
2310	0	0
2311	0	0
2312	0	0
2313	0	0
2314	0	0
2315	0	0
2316	0	0
2317	0	0
2318	0	0
2319	0	0
2320	0	0
2321	0	0
2322	0	0
2323	0	0
2324	0	0
2325	0	0
2326	0	0
2327	0	0
2328	0	0
2329	0	0
2330	0	0
2331	0	0
2332	0	0
2333	0	0
2334	0	0
2335	0	0
2336	0	0
2337	0	0
2338	0	0
2339	0	0
2340	0	0
2341	0	0
2342	0	0
2343	0	0
2344	0	0
2345	0	0
2346	0	0
2347	0	0
2348	0	0
2349	0	0
2350	0	0
2351	0	0
2352	0	0
2353	0	0
2354	0	0
2355	0	0
2356	0	0
2357	0	0
2358	0	0
2359	0	0
2360	0	0
2361	0	0
2362	0	0
2363	0	0
2364	0	0
2365	0	0
2366	0	0
2367	0	0
2368	0	0
2369	0	0
2370	0	0
2371	0	0
2372	0	0
2373	0	0
2374	0	0
2375	0	0
2376	0	0
2377	0	0
2378	0	0
2379	0	0
2380	0	0
2381	0	0
2382	0	0
2383	0	0
2384	0	0
2385	0	0
2386	0	0
2387	0	0
2388	0	0
2389	0	0
2390	0	0
2391	0	0
2392	0	0
2393	0	0
2394	0	0
2395	0	0
2396	0	0
2397	0	0
2398	0	0
2399	0	0
2400	0	0
2401	0	0
2402	0	0
2403	0	0
2404	0	0
2405	0	0
2406	0	0
2407	0	0
2408	0	0
2409	0	0
2410	0	0
2411	0	0
2412	0	0
2413	0	0
2414	0	0
2415	0	0
2416	0	0
2417	0	0
2418	0	0
2419	0	0
2420	0	0
2421	0	0
2422	0	0
2423	0	0
2424	0	0
2425	0	0
2426	0	0
2427	0	0
2428	0	0
2429	0	0
2430	0	0
2431	0	0
2432	0	0
2433	0	0
2434	0	0
2435	0	0
2436	0	0
2437	0	0
2438	0	0
2439	0	0
2440	0	0
2441	0	0
2442	0	0
2443	0	0
2444	0	0
2445	0	0
2446	0	0
2447	0	0
2448	0	0
2449	0	0
2450	0	0
2451	0	0
2452	0	0.981278
2453	0	0
2454	0	0
2455	0	0
2456	0	0
2457	0	0
2458	0	0
2459	0	0
2460	0	0
2461	0	0
2462	1	0
2463	1	0
2464	1	0
2465	1	0
2466	0	0
2467	0	0
2468	0	0
2469	1	0
2470	1	0
2471	1	0
2472	0	0
2473	0	0
2474	0	0
2475	0	0
2476	1	0
2477	1	0
2478	0	0
2479	0	0
2480	0	0
2481	0	0
2482	0	0
2483	0	0.977892
2484	0	0
2485	0	0
2486	0	0
2487	0	0
2488	0	0
2489	0	0
2490	0	0
2491	0	0
2492	0	0
2493	0	0
2494	0	0
2495	0	0
2496	0	0
2497	0	0
2498	0	0
2499	0	0
2500	0	0
2501	0	0
2502	0	0
2503	0	0
2504	0	0
2505	0	0
2506	0	0
2507	0	0
2508	0	0
2509	0	0
2510	0	0.972782
2511	0	0.133333
2512	0	0.133333
2513	0	0.974492
2514	0	0
2515	0	0
2516	0	0
2517	0	0
2518	0	0
2519	0	0
2520	0	0
2521	0	0
2522	0	0
2523	0	0
2524	0	0
2525	0	0
2526	0	0
2527	0	0
2528	0	0
2529	0	0
2530	0	0
2531	0	0
2532	0	0
2533	0	0
2534	0	0
2535	0	0
2536	0	0
2537	0	0
2538	0	0
2539	0	0
2540	0	0
2541	0	0
2542	0	0
2543	0	0
2544	0	0
2545	0	0
2546	0	0
2547	0	0
2548	0	0
2549	0	0
2550	0	0
2551	0	0
2552	0	0
2553	0	0
2554	0	0
2555	0	0
2556	0	0
2557	0	0
2558	0	0
2559	0	0
2560	0	0
2561	0	0
2562	0	0
2563	0	0
2564	0	0
2565	0	0
2566	0	0
2567	0	0
2568	0	0
2569	0	0
2570	0	0.976142
2571	0	0.977818
2572	0	0
2573	0	0
2574	0	0
2575	0	0
2576	0	0
2577	0	0
2578	0	0
2579	0	0
2580	0	0
2581	0	0
2582	0	0
2583	0	0
2584	0	0
2585	0	0
2586	0	0
2587	0	0
2588	0	0
2589	0	0
2590	0	0
2591	0	0
2592	0	0
2593	0	0
2594	0	0
2595	0	0
2596	0	0
2597	0	0
2598	0	0
2599	0	0
2600	0	0
2601	0	0
2602	0	0
2603	0	0
2604	0	0
2605	0	0
2606	0	0
2607	0	0
2608	0	0
2609	0	0
2610	0	0
2611	0	0
2612	0	0
2613	0	0
2614	0	0
2615	0	0
2616	0	0
2617	0	0
2618	0	0
2619	0	0
2620	0	0
2621	0	0
2622	0	0
2623	0	0
2624	0	0
2625	0	0
2626	0	0
2627	0	0
2628	0	0
2629	0	0
2630	0	0
2631	0	0
2632	0	0
2633	0	0.333333
2634	0	0.333333
2635	0	0.333333
2636	0	0.333333
2637	0	0.333333
2638	0	0.333333
2639	0	0.333333
2640	0	0.333333
2641	0	0.333333
2642	0	0.333333
2643	0	0.333333
2644	0	0.333333
2645	0	0.333333
2646	0	0.333333
2647	0	0.333333
2648	0	0.333333
2649	0	0.333333
2650	0	0.333333
2651	0	0.333333
2652	0	0.333333
2653	0	0.166667
2654	0	0.166667
2655	0	0
2656	0	0.972732
2657	0	0.166667
2658	0	0.166667
2659	0	0.166667
2660	0	0
2661	0	0
2662	0	0.966034
2663	0	0
2664	0	0
2665	0	0
2666	0	0
2667	0	0
2668	0	0
2669	0	0
2670	0	0
2671	0	0
2672	0	0
2673	0	0
2674	0	0
2675	0	0
2676	0	0
2677	0	0.967692
2678	0	0
2679	0	0
2680	0	0
2681	0	0
2682	0	0
2683	0	0
2684	0	0
2685	0	0
2686	0	0
2687	0	0
2688	0	0
2689	0	0
2690	0	0
2691	0	0
2692	0	0
2693	0	0
2694	0	0
2695	0	0
2696	0	0
2697	0	0
2698	0	0
2699	0	0
2700	0	0
2701	0	0
2702	0	0
2703	0	0
2704	0	0
2705	0	0
2706	0	0
2707	0	0
2708	0	0
2709	0	0
2710	0	0
2711	0	0
2712	0	0
2713	0	0
2714	0	0
2715	0	0
2716	0	0
2717	0	0
2718	0	0
2719	0	0
2720	0	0
2721	0	0
2722	0	0
2723	0	0
2724	0	0
2725	0	0
2726	0	0
2727	0	0
2728	0	0
2729	0	0
2730	0	0
2731	0	0
2732	0	0
2733	0	0
2734	0	0
2735	0	0
2736	0	0
2737	0	0
2738	0	0
2739	0	0
2740	0	0
2741	0	0
2742	0	0
2743	0	0
2744	0	0
2745	0	0
2746	0	0
2747	0	0
2748	0	0
2749	0	0
2750	0	0
2751	0	0
2752	0	0
2753	0	0
2754	0	0
2755	0	0
2756	0	0
2757	0	0
2758	0	0
2759	0	0
2760	0	0
2761	0	0
2762	0	0
2763	0	0
2764	0	0
2765	0	0
2766	0	0
2767	0	0
2768	0	0
2769	0	0
2770	0	0
2771	0	0
2772	0	0
2773	0	0
2774	0	0
2775	0	0
2776	0	0
2777	0	0
2778	0	0
2779	0	0
2780	0	0
2781	0	0
2782	0	0
2783	0	0
2784	0	0
2785	0	0
2786	0	0
2787	0	0
2788	0	0
2789	0	0
2790	0	0
2791	0	0
2792	0	0
2793	0	0
2794	0	0
2795	0	0
2796	0	0
2797	0	0
2798	0	0
2799	0	0
2800	0	0
2801	0	0
2802	0	0
2803	0	0
2804	0	0
2805	0	0
2806	0	0
2807	0	0
2808	0	0
2809	0	0
2810	0	0
2811	0	0
2812	0	0
2813	0	0
2814	0	0
2815	0	0
2816	0	0
2817	0	0
2818	0	0
2819	0	0
2820	0	0
2821	0	0
2822	0	0
2823	0	0
2824	0	0
2825	0	0
2826	0	0
2827	0	0
2828	0	0
2829	0	0
2830	0	0
2831	0	0
2832	0	0
2833	0	0
2834	0	0
2835	0	0
2836	0	0
2837	0	0
2838	0	0
2839	0	0
2840	0	0
2841	0	0
2842	0	0
2843	0	0
2844	0	0
2845	0	0
2846	0	0
2847	0	0
2848	0	0
2849	0	0
2850	0	0
2851	0	0
2852	0	0.827845
2853	0	0.976079
2854	0	0
2855	0	0
2856	0	0
2857	0	0
2858	0	0
2859	0	0
2860	0	0
2861	0	0
2862	0	0
2863	0	0
2864	0	0
2865	0	0
2866	0	0
2867	0	0
2868	0	0
2869	0	0
2870	0	0
2871	0	0
2872	0	0
2873	0	0
2874	0	0
2875	0	0
2876	0	0
2877	0	0
2878	0	0
2879	0	0
2880	0	0
2881	0	0
2882	0	0
2883	0	0
2884	0	0
2885	0	0
2886	0	0
2887	0	0
2888	0	0
2889	0	0
2890	0	0
2891	0	0
2892	0	0
2893	0	0
2894	0	0
2895	0	0
2896	0	0
2897	0	0
2898	0	0
2899	0	0
2900	0	0
2901	0	0
2902	0	0
2903	0	0
2904	0	0
2905	0	0.964258
2906	0	0
2907	0	0
2908	0	0
2909	0	0
2910	0	0
2911	1	0
2912	0	0
2913	0	0
2914	0	0
2915	0	0
2916	0	0
2917	0	0
2918	0	0
2919	0	0
2920	0	0
2921	0	0
2922	0	0
2923	0	0
2924	0	0
2925	0	0
2926	0	0
2927	0	0
2928	0	0
2929	0	0
2930	0	0
2931	0	0
2932	0	0
2933	0	0
2934	0	0
2935	0	0
2936	0	0
2937	0	0
2938	0	0
2939	0	0
2940	0	0
2941	0	0
2942	0	0
2943	0	0
2944	0	0
2945	0	0
2946	0	0
2947	0	0
2948	0	0
2949	0	0
2950	0	0
2951	0	0
2952	0	0
2953	0	0
2954	0	0
2955	0	0
2956	0	0
2957	0	0
2958	0	0
2959	0	0
2960	0	0
2961	0	0
2962	0	0
2963	0	0
2964	0	0
2965	0	0
2966	0	0
2967	0	0
2968	0	0
2969	0	0
2970	0	0
2971	0	0
2972	0	0
2973	0	0
2974	0	0
2975	0	0
2976	0	0
2977	0	0
2978	0	0
2979	0	0
2980	0	0
2981	0	0
2982	0	0
2983	0	0
2984	0	0
2985	0	0
2986	0	0
2987	0	0
2988	0	0
2989	0	0
2990	0	0
2991	0	0
2992	0	0
2993	0	0
2994	0	0
2995	0	0
2996	0	0
2997	0	0
2998	0	0
2999	0	0
3000	0	0
3001	0	0
3002	0	0
3003	0	0
3004	0	0
3005	0	0
3006	0	0
3007	0	0
3008	0	0
3009	0	0
3010	0	0
3011	0	0
3012	0	0
3013	0	0
3014	0	0
3015	0	0
3016	0	0
3017	0	0
3018	0	0
3019	0	0
3020	0	0
3021	0	0
3022	0	0
3023	0	0
3024	0	0
3025	0	0
3026	1	0
3027	1	0
3028	0	0
3029	0	0
3030	0	0
3031	0	0
3032	0	0
3033	0	0
3034	0	0
3035	0	0
3036	0	0
3037	0	0
3038	0	0
3039	0	0
3040	0	0
3041	0	0
3042	0	0
3043	0	0
3044	0	0
3045	0	0
3046	0	0
3047	0	0
3048	0	0
3049	0	0
3050	0	0
3051	0	0
3052	0	0
3053	0	0
3054	0	0
3055	0	0
3056	0	0
3057	0	0
3058	0	0
3059	0	0
3060	0	0
3061	0	0
3062	0	0
3063	0	0
3064	0	0
3065	0	0
3066	0	0
3067	0	0
3068	0	0
3069	0	0
3070	0	0
3071	0	0
3072	0	0
3073	0	0
3074	0	0
3075	0	0
3076	0	0
3077	0	0
3078	0	0
3079	0	0
3080	0	0
3081	0	0
3082	0	0
3083	0	0
3084	0	0
3085	0	0
3086	0	0
3087	0	0
3088	0	0
3089	0	0
3090	0	0
3091	0	0
3092	0	0
3093	0	0
3094	0	0
3095	0	0
3096	0	0
3097	0	0
3098	0	0
3099	0	0
3100	0	0
3101	0	0
3102	0	0
3103	0	0
3104	0	0
3105	0	0
3106	0	0
3107	0	0
3108	0	0
3109	0	0
3110	0	0
3111	0	0
3112	0	0.1
3113	0	0.1
3114	0	0.285714
3115	0	0.955978
3116	0	0
3117	0	0.333333
3118	0	0
3119	0	0
3120	0	0
3121	0	0
3122	0	0
3123	0	0
3124	0	0
3125	0	0
3126	0	0
3127	0	0
3128	0	0
3129	0	0
3130	1	0
3131	1	0
3132	1	0
3133	1	0
3134	1	0
3135	0	0
3136	0	0
3137	0	0
3138	0	0
3139	0	0
3140	0	0
3141	0	0
3142	0	0
3143	0	0
3144	0	0
3145	0	0
3146	0	0
3147	0	0
3148	0	0
3149	0	0
3150	0	0
3151	1	0
3152	0	0
3153	0	0
3154	0	0
3155	0	0
3156	0	0
3157	0	0
3158	0	0
3159	0	0
3160	0	0
3161	0	0
3162	0	0
3163	0	0
3164	0	0
3165	0	0
3166	0	0
3167	0	0
3168	0	0
3169	0	0
3170	0	0
3171	0	0
3172	0	0
3173	0	0
3174	0	0
3175	0	0
3176	0	0
3177	0	0
3178	0	0
3179	0	0
3180	0	0
3181	0	0
3182	0	0
3183	0	0
3184	1	0
3185	1	0
3186	0	0
3187	0	0
3188	0	0
3189	0	0
3190	0	0
3191	0	0
3192	0	0
3193	0	0
3194	0	0
3195	0	0
3196	0	0
3197	0	0
3198	0	0
3199	0	0
3200	0	0
3201	0	0
3202	0	0
3203	0	0
3204	0	0
3205	0	0
3206	0	0
3207	0	0
3208	0	0
3209	0	0
3210	0	0
3211	0	0
3212	0	0
3213	0	0
3214	0	0
3215	0	0
3216	0	0
3217	0	0
3218	0	0
3219	0	0
3220	0	0
3221	0	0
3222	0	0
3223	0	0
3224	0	0
3225	0	0
3226	0	0
3227	0	0
3228	0	0
3229	0	0
3230	0	0
3231	0	0
3232	0	0
3233	0	0
3234	0	0
3235	0	0
3236	0	0
3237	0	0
3238	0	0
3239	0	0
3240	0	0
3241	0	0
3242	0	0
3243	0	0
3244	0	0
3245	0	0
3246	0	0
3247	0	0
3248	0	0
3249	0	0
3250	0	0
3251	0	0
3252	0	0
3253	0	0
3254	0	0
3255	0	0
3256	0	0
3257	0	0
3258	0	0
3259	0	0
3260	0	0
3261	0	0
3262	0	0
3263	0	0
3264	0	0
3265	0	0
3266	0	0
3267	0	0
3268	0	0
3269	0	0
3270	0	0
3271	0	0
3272	0	0
3273	0	0
3274	0	0
3275	0	0
3276	0	0
3277	0	0
3278	0	0
3279	0	0
3280	0	0
3281	0	0
3282	0	0
3283	0	0
3284	0	0
3285	0	0
3286	0	0
3287	0	0
3288	0	0
3289	0	0
3290	0	0
3291	0	0
3292	0	0
3293	0	0
3294	0	0
3295	0	0
3296	0	0
3297	0	0
3298	0	0
3299	0	0
3300	0	0
3301	0	0
3302	0	0
3303	0	0
3304	0	0
3305	0	0
3306	0	0
3307	0	0
3308	0	0
3309	0	0
3310	0	0
3311	0	0
3312	0	0
3313	0	0
3314	0	0
3315	0	0
3316	0	0
3317	0	0
3318	0	0
3319	0	0
3320	0	0
3321	0	0
3322	0	0
3323	0	0
3324	0	0
3325	0	0
3326	0	0
3327	0	0
3328	0	0
3329	0	0
3330	0	0
3331	0	0
3332	0	0
3333	0	0
3334	0	0
3335	0	0
3336	0	0
3337	0	0
3338	0	0
3339	0	0
3340	0	0
3341	0	0
3342	0	0
3343	0	0
3344	0	0
3345	0	0
3346	0	0
3347	0	0
3348	0	0
3349	0	0
3350	0	0
3351	0	0
3352	0	0
3353	0	0
3354	0	0
3355	0	0
3356	0	0
3357	0	0
3358	0	0
3359	0	0
3360	0	0
3361	0	0
3362	0	0
3363	0	0
3364	0	0
3365	0	0
3366	0	0
3367	0	0
3368	0	0
3369	0	0
3370	0	0
3371	0	0
3372	0	0
3373	0	0
3374	0	0
3375	0	0
3376	0	0
3377	0	0
3378	0	0
3379	0	0
3380	0	0
3381	0	0
3382	0	0
3383	0	0
3384	0	0
3385	0	0
3386	0	0
3387	0	0
3388	0	0
3389	0	0
3390	0	0
3391	0	0
3392	0	0
3393	0	0
3394	0	0
3395	0	0
3396	0	0
3397	0	0
3398	1	0
3399	1	0
3400	1	0
3401	1	0
3402	1	0
3403	0	0
3404	0	0
3405	0	0
3406	0	0
3407	0	0
3408	0	0
3409	0	0.964231
3410	0	0
3411	0	0
3412	0	0
3413	0	0
3414	0	0
3415	0	0
3416	0	0
3417	0	0
3418	0	0
3419	0	0
3420	0	0
3421	0	0
3422	0	0
3423	0	0
3424	0	0
3425	0	0
3426	0	0
3427	0	0
3428	0	0
3429	0	0
3430	0	0
3431	0	0
3432	0	0
3433	0	0
3434	0	0
3435	0	0
3436	0	0
3437	0	0
3438	0	0
3439	0	0
3440	0	0
3441	0	0
3442	0	0
3443	0	0
3444	0	0
3445	0	0
3446	0	0
3447	0	0
3448	0	0
3449	0	0
3450	0	0
3451	0	0
3452	0	0
3453	0	0
3454	0	0
3455	0	0
3456	0	0
3457	0	0
3458	0	0
3459	0	0
3460	0	0
3461	0	0
3462	0	0
3463	0	0
3464	0	0
3465	0	0
3466	0	0
3467	0	0
3468	0	0
3469	0	0
3470	0	0
3471	0	0
3472	0	0
3473	0	0
3474	0	0
3475	0	0
3476	0	0
3477	0	0
3478	0	0
3479	0	0
3480	0	0
3481	0	0
3482	0	0
3483	0	0
3484	0	0
3485	0	0
3486	0	0
3487	0	0
3488	0	0
3489	0	0
3490	0	0
3491	0	0
3492	0	0
3493	0	0
3494	0	0
3495	0	0
3496	0	0
3497	0	0
3498	0	0
3499	0	0
3500	0	0.0181818
3501	0	0.0454545
3502	0	0.0955882
3503	0	0.05
3504	0	0.510997
3505	0	0
3506	0	0
3507	0	0
3508	0	0
3509	0	0
3510	0	0
3511	0	0
3512	0	0
3513	0	0
3514	0	0
3515	0	0
3516	0	0
3517	0	0
3518	0	0
3519	0	0
3520	0	0
3521	0	0
3522	0	0
3523	0	0
3524	0	0
3525	0	0
3526	0	0
3527	0	0
3528	0	0
3529	0	0
3530	0	0
3531	0	0
3532	0	0
3533	0	0
3534	0	0
3535	0	0
3536	0	0
3537	0	0
3538	0	0
3539	0	0
3540	0	0.0357143
3541	0	0.0833333
3542	0	0.0833333
3543	0	0.481564
3544	0	0
3545	0	0
3546	0	0.4
3547	0	0.436912
3548	0	0.453341
3549	0	0.711979
3550	0	0.0879121
3551	0	0.493761
3552	0	0.0357143
3553	0	0
3554	0	0
3555	0	0
3556	0	0
3557	0	0
3558	0	0
3559	0	0
3560	0	0
3561	0	0
3562	0	0
3563	0	0
3564	0	0
3565	0	0
3566	0	0
3567	0	0
3568	0	0
3569	0	0
3570	0	0
3571	0	0
3572	0	0
3573	0	0
3574	0	0
3575	0	0
3576	0	0
3577	0	0
3578	0	0
3579	0	0
3580	0	0
3581	0	0
3582	0	0
3583	0	0
3584	0	0
3585	0	0
3586	0	0
3587	0	0
3588	0	0
3589	0	0
3590	0	0
3591	0	0
3592	0	0
3593	0	0
3594	0	0
3595	0	0
3596	0	0
3597	0	0
3598	0	0
3599	0	0
3600	0	0
3601	0	0
3602	0	0
3603	0	0
3604	0	0
3605	0	0
3606	0	0
3607	0	0
3608	0	0
3609	0	0
3610	0	0.920512
3611	0	0
3612	0	0
3613	0	0
3614	0	0
3615	0	0
3616	0	0
3617	0	0
3618	0	0
3619	0	0
3620	0	0
3621	0	0
3622	0	0
3623	0	0
3624	0	0
3625	0	0
3626	0	0
3627	0	0
3628	0	0
3629	0	0
3630	0	0
3631	0	0
3632	0	0
3633	0	0
3634	0	0
3635	0	0
3636	0	0
3637	0	0
3638	0	0
3639	0	0
3640	0	0
3641	0	0
3642	0	0
3643	0	0
3644	0	0
3645	0	0
3646	0	0
3647	0	0
3648	0	0
3649	0	0
3650	0	0
3651	0	0
3652	0	0
3653	0	0
3654	0	0
3655	0	0
3656	0	0
3657	0	0
3658	0	0
3659	0	0
3660	0	0
3661	0	0
3662	0	0
3663	0	0
3664	0	0
3665	0	0
3666	0	0
3667	0	0
3668	0	0
3669	0	0
3670	0	0
3671	0	0
3672	0	0
3673	0	0
3674	0	0
3675	0	0
3676	0	0
3677	0	0
3678	0	0
3679	0	0
3680	0	0
3681	0	0
3682	0	0
3683	0	0
3684	0	0
3685	0	0
3686	0	0
3687	0	0
3688	0	0
3689	0	0
3690	0	0
3691	0	0
3692	0	0
3693	0	0
3694	0	0
3695	0	0
3696	0	0
3697	0	0
3698	0	0
3699	0	0
3700	0	0
3701	0	0
3702	0	0
3703	0	0
3704	0	0
3705	0	0
3706	0	0
3707	0	0
3708	0	0
3709	0	0
3710	0	0
3711	0	0
3712	0	0
3713	0	0
3714	0	0
3715	0	0
3716	0	0
3717	0	0
3718	0	0
3719	0	0
3720	0	0
3721	0	0
3722	0	0
3723	0	0
3724	0	0
3725	0	0
3726	0	0
3727	0	0
3728	0	0
3729	0	0
3730	0	0
3731	0	0
3732	0	0
3733	0	0
3734	0	0
3735	0	0
3736	0	0
3737	0	0
3738	0	0
3739	0	0
3740	0	0
3741	0	0
3742	0	0
3743	0	0
3744	0	0
3745	0	0
3746	0	0
3747	0	0
3748	0	0
3749	0	0
3750	0	0
3751	0	0
3752	0	0
3753	0	0
3754	0	0
3755	0	0
3756	0	0
3757	0	0
3758	0	0
3759	0	0
3760	0	0
3761	0	0
3762	0	0
3763	0	0
3764	0	0
3765	0	0
3766	0	0
3767	0	0
3768	0	0
3769	0	0
3770	0	0
3771	0	0
3772	0	0
3773	0	0
3774	0	0
3775	0	0
3776	0	0
3777	0	0
3778	0	0
3779	0	0
3780	0	0
3781	0	0
3782	0	0
3783	0	0
3784	0	0
3785	0	0
3786	0	0
3787	0	0
3788	0	0
3789	0	0
3790	0	0
3791	0	0
3792	0	0
3793	0	0
3794	0	0
3795	0	0
3796	0	0
3797	0	0
3798	0	0
3799	0	0
3800	0	0
3801	0	0
3802	0	0
3803	0	0
3804	0	0
3805	0	0
3806	0	0
3807	0	0
3808	0	0
3809	0	0
3810	0	0
3811	0	0
3812	0	0
3813	0	0
3814	0	0
3815	0	0
3816	0	0
3817	0	0
3818	0	0
3819	0	0
3820	0	0
3821	0	0
3822	0	0
3823	0	0
3824	0	0
3825	0	0
3826	0	0
3827	0	0
3828	0	0
3829	0	0
3830	0	0
3831	0	0
3832	0	0
3833	0	0
3834	0	0
3835	0	0
3836	0	0
3837	0	0
3838	0	0
3839	0	0
3840	0	0
3841	0	0
3842	0	0
3843	0	0
3844	0	0
3845	0	0
3846	0	0
3847	0	0
3848	0	0
3849	0	0
3850	0	0
3851	0	0
3852	0	0
3853	0	0
3854	0	0
3855	0	0
3856	0	0
3857	0	0
3858	0	0
3859	0	0
3860	0	0
3861	0	0
3862	0	0
3863	0	0
3864	0	0
3865	0	0
3866	0	0
3867	0	0
3868	0	0
3869	0	0
3870	0	0
3871	0	0
3872	0	0
3873	0	0
3874	0	0
3875	0	0
3876	0	0
3877	0	0
3878	0	0
3879	0	0
3880	0	0
3881	0	0
3882	0	0
3883	0	0
3884	0	0
3885	0	0
3886	0	0
3887	0	0
3888	0	0
3889	0	0
3890	0	0
3891	0	0
3892	0	0
3893	0	0
3894	0	0
3895	0	0
3896	0	0
3897	0	0
3898	0	0
3899	0	0
3900	0	0
3901	0	0
3902	0	0
3903	0	0
3904	0	0
3905	0	0
3906	0	0
3907	0	0
3908	0	0
3909	0	0
3910	0	0
3911	0	0
3912	0	0
3913	0	0
3914	0	0
3915	0	0
3916	0	0
3917	0	0
3918	0	0
3919	0	0
3920	0	0
3921	0	0
3922	0	0
3923	0	0
3924	0	0
3925	0	0
3926	0	0
3927	0	0
3928	0	0
3929	0	0
3930	0	0
3931	0	0
3932	0	0
3933	0	0
3934	0	0
3935	0	0
3936	0	0
3937	0	0
3938	0	0
3939	0	0
3940	0	0
3941	0	0
3942	0	0
3943	0	0
3944	0	0
3945	0	0
3946	0	0
3947	0	0
3948	0	0
3949	0	0
3950	0	0
3951	0	0
3952	0	0
3953	0	0
3954	0	0
3955	0	0
3956	0	0
3957	0	0
3958	0	0
3959	0	0
3960	0	0
3961	0	0
3962	0	0
3963	0	0
3964	0	0
3965	0	0
3966	0	0
3967	0	0
3968	0	0
3969	0	0
3970	0	0
3971	0	0
3972	0	0
3973	0	0
3974	0	0
3975	0	0
3976	0	0
3977	0	0
3978	0	0
3979	0	0
3980	0	0
3981	0	0
3982	0	0
3983	0	0
3984	0	0
3985	0	0
3986	0	0
3987	0	0
3988	0	0
3989	0	0
3990	0	0
3991	0	0
3992	0	0
3993	0	0
3994	0	0
3995	0	0
3996	0	0
3997	0	0
3998	0	0
3999	0	0
4000	0	0
4001	0	0
4002	0	0
4003	0	0
4004	0	0
4005	0	0
4006	0	0
4007	0	0
4008	0	0
4009	0	0
4010	0	0
4011	0	0
4012	0	0
4013	0	0
4014	0	0
4015	0	0
4016	0	0
4017	0	0
4018	0	0
4019	0	0
4020	0	0
4021	0	0
4022	0	0
4023	0	0
4024	0	0
4025	0	0
4026	0	0
4027	0	0
4028	0	0
4029	0	0
4030	0	0
4031	0	0
4032	0	0
4033	0	0
4034	0	0
4035	0	0
4036	0	0
4037	0	0
4038	0	0
4039	0	0
4040	0	0
4041	0	0
4042	0	0
4043	0	0
4044	0	0
4045	0	0
4046	0	0
4047	0	0
4048	0	0
4049	0	0
4050	0	0
4051	0	0
4052	0	0
4053	0	0
4054	0	0
4055	0	0
4056	0	0
4057	0	0
4058	0	0
4059	0	0
4060	0	0
4061	0	0
4062	0	0
4063	0	0
4064	0	0
4065	0	0
4066	0	0
4067	0	0
4068	0	0
4069	0	0
4070	0	0
4071	0	0
4072	0	0
4073	0	0
4074	0	0
4075	0	0
4076	0	0
4077	0	0
4078	0	0
4079	0	0
4080	0	0
4081	0	0
4082	0	0
4083	0	0
4084	0	0
4085	0	0
4086	0	0
4087	0	0
4088	0	0.55
4089	0	0.573529
4090	0	0.7
4091	0	0.836545
4092	0	0.785576
4093	0	0.783392
4094	0	0.761348
4095	0	0.751462
4096	0	0.672749
4097	0	0.607837
4098	0	0.335404
4099	0	0.394915
4100	0	0.285714
4101	0	0.252381
4102	0	0.204762
4103	0	0.267806
4104	0	0.150327
4105	0	0.191667
4106	0	0.191667
4107	0	0.175824
4108	0	0.0444444
4109	0	0.0444444
4110	0	0.0444444
4111	0	0.0444444
4112	0	0.0222222
4113	0	0
4114	0	0
4115	0	0
4116	0	0
4117	0	0
4118	0	0
4119	0	0
4120	0	0
4121	0	0
4122	0	0
4123	0	0
4124	0	0
4125	0	0
4126	0	0
4127	0	0
4128	0	0
4129	0	0
4130	0	0
4131	0	0
4132	0	0
4133	0	0
4134	0	0
4135	0	0
4136	0	0
4137	0	0
4138	0	0
4139	0	0
4140	0	0
4141	0	0
4142	0	0
4143	0	0
4144	0	0.0666667
4145	0	0.0666667
4146	0	0.0666667
4147	0	0.0666667
4148	0	0.0666667
4149	0	0.0666667
4150	0	0.0666667
4151	0	0.0666667
4152	0	0.0666667
4153	0	0.0666667
4154	0	0.0666667
4155	0	0.0666667
4156	0	0.0666667
4157	0	0.0666667
4158	0	0.0666667
4159	0	0.0666667
4160	0	0.0666667
4161	0	0.0666667
4162	0	0.0666667
4163	0	0.0666667
4164	0	0.0666667
4165	0	0
4166	0	0
4167	0	0
4168	0	0
4169	0	0
4170	0	0
4171	0	0
4172	0	0
4173	0	0
4174	0	0
4175	0	0
4176	0	0
4177	0	0
4178	0	0
4179	0	0
4180	0	0
4181	0	0
4182	0	0
4183	0	0
4184	0	0
4185	0	0
4186	0	0
4187	0	0
4188	0	0
4189	0	0
4190	0	0
4191	0	0
4192	0	0
4193	0	0
4194	0	0
4195	0	0
4196	0	0
4197	0	0
4198	0	0
4199	0	0
4200	0	0
4201	0	0
4202	0	0
4203	0	0
4204	0	0
4205	0	0
4206	0	0
4207	0	0
4208	0	0
4209	0	0
4210	0	0
4211	0	0
4212	0	0
4213	0	0
4214	0	0
4215	0	0
4216	0	0
4217	0	0
4218	0	0
4219	0	0
4220	0	0
4221	0	0
4222	0	0
4223	0	0
4224	0	0
4225	0	0
4226	0	0
4227	0	0
4228	0	0
4229	0	0
4230	0	0
4231	0	0
4232	0	0
4233	0	0
4234	0	0
4235	0	0
4236	0	0
4237	0	0
4238	0	0
4239	0	0
4240	0	0
4241	0	0
4242	0	0
4243	0	0
4244	0	0
4245	0	0
4246	0	0
4247	0	0
4248	0	0
4249	0	0
4250	0	0
4251	0	0
4252	0	0
4253	0	0
4254	0	0
4255	0	0
4256	0	0
4257	0	0
4258	0	0
4259	0	0
4260	0	0
4261	0	0
4262	0	0
4263	0	0
4264	0	0
4265	0	0
4266	0	0
4267	0	0
4268	0	0
4269	0	0
4270	0	0
4271	0	0
4272	0	0
4273	0	0
4274	0	0
4275	0	0
4276	0	0
4277	0	0
4278	0	0
4279	0	0
4280	0	0
4281	0	0
4282	0	0
4283	0	0
4284	0	0
4285	0	0
4286	0	0
4287	0	0
4288	0	0
4289	0	0
4290	0	0
4291	0	0
4292	0	0
4293	0	0
4294	0	0
4295	0	0
4296	0	0
4297	0	0
4298	0	0
4299	0	0
4300	0	0
4301	0	0
4302	0	0
4303	0	0
4304	0	0
4305	0	0
4306	0	0
4307	0	0
4308	0	0
4309	0	0
4310	0	0
4311	0	0
4312	0	0
4313	0	0
4314	0	0
4315	0	0
4316	0	0
4317	0	0
4318	0	0
4319	0	0
4320	0	0
4321	0	0
4322	0	0
4323	0	0
4324	0	0
4325	0	0
4326	0	0.582427
4327	0	0.331951
4328	0	0.438858
4329	0	0.621554
4330	0	0.372043
4331	0	0.304843
4332	0	0.180952
4333	0	0.157895
4334	0	0.157895
4335	0	0.111111
4336	0	0.111111
4337	0	0.111111
4338	0	0.1
4339	0	0.05
4340	0	0.025641
4341	0	0.030303
4342	0	0.0606061
4343	0	0.0606061
4344	0	0.0606061
4345	0	0.0606061
4346	0	0.0606061
4347	0	0.0666667
4348	0	0.0666667
4349	0	0.0666667
4350	0	0.0666667
4351	0	0.0666667
4352	0	0.0222222
4353	0	0.0222222
4354	0	0.0222222
4355	0	0.0222222
4356	0	0.0222222
4357	0	0.0222222
4358	0	0.0769231
4359	0	0.0363636
4360	0	0.0363636
4361	0	0.0222222
4362	0	0.0222222
4363	0	0.0222222
4364	0	0.0222222
4365	0	0.0222222
4366	0	0.0277778
4367	0	0.0277778
4368	0	0.0277778
4369	0	0.0277778
4370	0	0.0277778
4371	0	0.0277778
4372	0	0.0277778
4373	0	0.0277778
4374	0	0.0277778
4375	0	0.0277778
4376	0	0.0277778
4377	0	0.0277778
4378	0	0.0277778
4379	0	0.0277778
4380	0	0.0277778
4381	0	0.0277778
4382	0	0.0277778
4383	0	0.0277778
4384	0	0.0277778
4385	0	0.0277778
4386	0	0.0277778
4387	0	0
4388	0	0.0277778
4389	0	0.0277778
4390	0	0.0277778
4391	0	0.0363636
4392	0	0.0727273
4393	0	0.0727273
4394	0	0.127273
4395	0	0.127273
4396	0	0.127273
4397	0	0.127273
4398	0	0.127273
4399	0	0.155556
4400	0	0.155556
4401	0	0.155556
4402	0	0.155556
4403	0	0.155556
4404	0	0.155556
4405	0	0.155556
4406	0	0.155556
4407	0	0.155556
4408	0	0.155556
4409	0	0.155556
4410	0	0.155556
4411	0	0.155556
4412	0	0.155556
4413	0	0.155556
4414	0	0.155556
4415	0	0.155556
4416	0	0.155556
4417	0	0.155556
4418	0	0.155556
4419	0	0.155556
4420	0	0.155556
4421	0	0.155556
4422	0	0.155556
4423	0	0.155556
4424	0	0.155556
4425	0	0.155556
4426	0	0.155556
4427	0	0.155556
4428	0	0.155556
4429	0	0.155556
4430	0	0.155556
4431	0	0.155556
4432	0	0.155556
4433	0	0.155556
4434	0	0.155556
4435	0	0.155556
4436	0	0.155556
4437	0	0.155556
4438	0	0.155556
4439	0	0.155556
4440	0	0.155556
4441	0	0.155556
4442	0	0.155556
4443	0	0.155556
4444	0	0.155556
4445	0	0.155556
4446	0	0.155556
4447	0	0.155556
4448	0	0.155556
4449	0	0.155556
4450	0	0.155556
4451	0	0.155556
4452	0	0.155556
4453	0	0.155556
4454	0	0.155556
4455	0	0.155556
4456	0	0.155556
4457	0	0.155556
4458	0	0.155556
4459	0	0.155556
4460	0	0.155556
4461	0	0.155556
4462	0	0.127273
4463	0	0.127273
4464	0	0.127273
4465	0	0.127273
4466	0	0.155556
4467	0	0.145455
4468	0	0.145455
4469	0	0.145455
4470	0	0.145455
4471	0	0.145455
4472	0	0.145455
4473	0	0.145455
4474	0	0.145455
4475	0	0.145455
4476	0	0.145455
4477	0	0.145455
4478	0	0.145455
4479	0	0.145455
4480	0	0.145455
4481	0	0.145455
4482	0	0.145455
4483	0	0.145455
4484	0	0.145455
4485	0	0.145455
4486	0	0.145455
4487	0	0.145455
4488	0	0.145455
4489	0	0.145455
4490	0	0.145455
4491	0	0.145455
4492	0	0.145455
4493	0	0.145455
4494	0	0.145455
4495	0	0.145455
4496	0	0.145455
4497	0	0.145455
4498	0	0.145455
4499	0	0.145455
4500	0	0.145455
4501	0	0.145455
4502	0	0.145455
4503	0	0.145455
4504	0	0.145455
4505	0	0.145455
4506	0	0.145455
4507	0	0.145455
4508	0	0.145455
4509	0	0.145455
4510	0	0.145455
4511	0	0.145455
4512	0	0.145455
4513	0	0.145455
4514	0	0.145455
4515	0	0.145455
4516	0	0.145455
4517	0	0.145455
4518	0	0.145455
4519	0	0.145455
4520	0	0.145455
4521	0	0.145455
4522	0	0.155556
4523	0	0.155556
4524	0	0.155556
4525	0	0.145455
4526	0	0.145455
4527	0	0.145455
4528	0	0.145455
4529	0	0.145455
4530	0	0.145455
4531	0	0.145455
4532	0	0.145455
4533	0	0.145455
4534	0	0.145455
4535	0	0.145455
4536	0	0.145455
4537	0	0.145455
4538	0	0.145455
4539	0	0.145455
4540	0	0.145455
4541	0	0.145455
4542	0	0.145455
4543	0	0.145455
4544	0	0.145455
4545	0	0.145455
4546	0	0.145455
4547	0	0.145455
4548	0	0.145455
4549	0	0.145455
4550	0	0.145455
4551	0	0.145455
4552	0	0.145455
4553	0	0.145455
4554	0	0.145455
4555	0	0.145455
4556	0	0.145455
4557	0	0.145455
4558	0	0.145455
4559	0	0.145455
4560	0	0.145455
4561	0	0.145455
4562	0	0.145455
4563	0	0.145455
4564	0	0.145455
4565	0	0.145455
4566	0	0.145455
4567	0	0.145455
4568	0	0.145455
4569	0	0.145455
4570	0	0.145455
4571	0	0.145455
4572	0	0.145455
4573	0	0.145455
4574	0	0.120879
4575	0	0.0989011
4576	0	0.0989011
4577	0	0.0989011
4578	0	0.0989011
4579	0	0.194444
4580	0	0.194444
4581	0	0.194444
4582	0	0.194444
4583	0	0.25
4584	0	0.25
4585	0	0.25
4586	0	0.25
4587	0	0.25
4588	0	0.25
4589	0	0.25
4590	0	0.25
4591	0	0.25
4592	0	0.25
4593	0	0.25
4594	0	0.25
4595	0	0.25
4596	0	0.25
4597	0	0.25
4598	0	0.25
4599	0	0.25
4600	0	0.25
4601	0	0.25
4602	0	0.25
4603	0	0.25
4604	0	0.25
4605	0	0.25
4606	0	0.25
4607	0	0.25
4608	0	0.25
4609	0	0.25
4610	0	0.25
4611	0	0.25
4612	0	0.25
4613	0	0.25
4614	0	0.25
4615	0	0.25
4616	0	0.25
4617	0	0.25
4618	0	0.25
4619	0	0.25
4620	0	0.25
4621	0	0.25
4622	0	0.25
4623	0	0.25
4624	0	0.25
4625	0	0.166667
4626	0	0.166667
4627	0	0.166667
4628	0	0
4629	0	0
4630	0	0.166667
4631	0	0.166667
4632	0	0.166667
4633	0	0.166667
4634	0	0.166667
4635	0	0.166667
4636	0	0.166667
4637	0	0.166667
4638	0	0.166667
4639	0	0.166667
4640	0	0.166667
4641	0	0.166667
4642	0	0.166667
4643	0	0.166667
4644	0	0.166667
4645	0	0.166667
4646	0	0.166667
4647	0	0.166667
4648	0	0.166667
4649	0	0.166667
4650	0	0.166667
4651	0	0.166667
4652	0	0.166667
4653	0	0.166667
4654	0	0.166667
4655	0	0.166667
4656	0	0.166667
4657	0	0.166667
4658	0	0.166667
4659	0	0.166667
4660	0	0.166667
4661	0	0.166667
4662	0	0.166667
4663	0	0.166667
4664	0	0.166667
4665	0	0.166667
4666	0	0.166667
4667	0	0.166667
4668	0	0.166667
4669	0	0.166667
4670	0	0.166667
4671	0	0.166667
4672	0	0.166667
4673	0	0.166667
4674	0	0.166667
4675	0	0.166667
4676	0	0.166667
4677	0	0.166667
4678	0	0.166667
4679	0	0.166667
4680	0	0.166667
4681	0	0.166667
4682	0	0.166667
4683	0	0.166667
4684	0	0.166667
4685	0	0.166667
4686	0	0.166667
4687	0	0.166667
4688	0	0.166667
4689	0	0.166667
4690	0	0.166667
4691	0	0.166667
4692	0	0.166667
4693	0	0.166667
4694	0	0.166667
4695	0	0.166667
4696	0	0.166667
4697	0	0.166667
4698	0	0.166667
4699	0	0.166667
4700	0	0.166667
4701	0	0.166667
4702	0	0.166667
4703	0	0.166667
4704	0	0.166667
4705	0	0.166667
4706	0	0.166667
4707	0	0.166667
4708	0	0.166667
4709	0	0.166667
4710	0	0.166667
4711	0	0.166667
4712	0	0.166667
4713	0	0.166667
4714	0	0.166667
4715	0	0.166667
4716	0	0.166667
4717	0	0.166667
4718	0	0.166667
4719	0	0.166667
4720	0	0.166667
4721	0	0.166667
4722	0	0.166667
4723	0	0.166667
4724	0	0.166667
4725	0	0.166667
4726	0	0.166667
4727	0	0.166667
4728	0	0.166667
4729	0	0.166667
4730	0	0.166667
4731	0	0.166667
4732	0	0.166667
4733	0	0.166667
4734	0	0.166667
4735	0	0.166667
4736	0	0.166667
4737	0	0.166667
4738	0	0.166667
4739	0	0.166667
4740	0	0.166667
4741	0	0.166667
4742	0	0.166667
4743	0	0.166667
4744	0	0.166667
4745	0	0.166667
4746	0	0.166667
4747	0	0.166667
4748	0	0.166667
4749	0	0.166667
4750	0	0.166667
4751	0	0.166667
4752	0	0.166667
4753	0	0.166667
4754	0	0.166667
4755	0	0.166667
4756	0	0.166667
4757	0	0.166667
4758	0	0.166667
4759	0	0.166667
4760	0	0.166667
4761	0	0.166667
4762	0	0.166667
4763	0	0.166667
4764	0	0.166667
4765	0	0.166667
4766	0	0.166667
4767	0	0.166667
4768	0	0.166667
4769	0	0.166667
4770	0	0.166667
4771	0	0.166667
4772	0	0.166667
4773	0	0.166667
4774	0	0.166667
4775	0	0.166667
4776	0	0.166667
4777	0	0.166667
4778	0	0.166667
4779	0	0.166667
4780	0	0.166667
4781	0	0.166667
4782	0	0.166667
4783	0	0.166667
4784	0	0.166667
4785	0	0.166667
4786	0	0.166667
4787	0	0.166667
4788	0	0.166667
4789	0	0.166667
4790	0	0.166667
4791	0	0.166667
4792	0	0.166667
4793	0	0.166667
4794	0	0.166667
4795	0	0.166667
4796	0	0.166667
4797	0	0.166667
4798	0	0.166667
4799	0	0.166667
4800	0	0.166667
4801	0	0.166667
4802	0	0.166667
4803	0	0.166667
4804	0	0.166667
4805	0	0.166667
4806	0	0.166667
4807	0	0.166667
4808	0	0.166667
4809	0	0.166667
4810	0	0.166667
4811	0	0.166667
4812	0	0.166667
4813	0	0.166667
4814	0	0.166667
4815	0	0.166667
4816	0	0.166667
4817	0	0.166667
4818	0	0.166667
4819	0	0.166667
4820	0	0.166667
4821	0	0.166667
4822	0	0.166667
4823	0	0.166667
4824	0	0.166667
4825	0	0.166667
4826	0	0.166667
4827	0	0.166667
4828	0	0.166667
4829	0	0.166667
4830	0	0.166667
4831	0	0.166667
4832	0	0.166667
4833	0	0.166667
4834	0	0.166667
4835	0	0.166667
4836	0	0.166667
4837	0	0.166667
4838	0	0.166667
4839	0	0.166667
4840	0	0.166667
4841	0	0.166667
4842	0	0.166667
4843	0	0.166667
4844	0	0.166667
4845	0	0.166667
4846	0	0.166667
4847	0	0.166667
4848	0	0.166667
4849	0	0.166667
4850	0	0.166667
4851	0	0.166667
4852	0	0.166667
4853	0	0.166667
4854	0	0.166667
4855	0	0.166667
4856	0	0.166667
4857	0	0.166667
4858	0	0.166667
4859	0	0
4860	0	0
4861	0	0
4862	0	0
4863	0	0
4864	0	0
4865	0	0
4866	0	0
4867	0	0
4868	0	0
4869	0	0
4870	0	0
4871	0	0
4872	0	0
4873	0	0
4874	0	0
4875	0	0
4876	0	0
4877	0	0
4878	0	0
4879	0	0
4880	0	0
4881	0	0
4882	0	0
4883	0	0
4884	0	0
4885	0	0
4886	0	0
4887	0	0
4888	0	0
4889	0	0
4890	0	0
4891	0	0
4892	0	0
4893	0	0
4894	0	0
4895	0	0
4896	0	0
4897	0	0
4898	0	0
4899	0	0
4900	0	0
4901	0	0
4902	0	0
4903	0	0
4904	0	0
4905	0	0
4906	0	0
4907	0	0
4908	0	0
4909	0	0
4910	0	0
4911	0	0
4912	0	0
4913	0	0
4914	0	0
4915	0	0
4916	0	0
4917	0	0
4918	0	0
4919	0	0
4920	0	0
4921	0	0
4922	0	0
4923	0	0
4924	0	0
4925	0	0
4926	0	0
4927	0	0
4928	0	0
4929	0	0
4930	0	0
4931	0	0
4932	0	0
4933	0	0
4934	0	0
4935	0	0
4936	0	0
4937	0	0
4938	0	1
4939	0	1
4940	0	1
4941	0	1
4942	0	1
4943	0	1
4944	0	1
4945	0	1
4946	0	1
4947	0	1
4948	0	1
4949	0	1
4950	0	1
4951	0	1
4952	0	1
4953	0	1
4954	0	1
4955	0	1
4956	0	1
4957	0	1
4958	0	1
4959	0	1
4960	0	1
4961	0	1
4962	0	1
4963	0	1
4964	0	1
4965	0	1
4966	0	1
4967	0	1
4968	0	1
4969	0	1
4970	0	1
4971	0	1
4972	0	1
4973	0	1
4974	0	1
4975	0	1
4976	0	1
4977	0	1
4978	0	1
4979	0	1
4980	0	1
4981	0	1
4982	0	1
4983	0	1
4984	0	1
4985	0	1
4986	0	1
4987	0	1
4988	0	1
4989	0	1
4990	0	1
4991	0	1
4992	0	1
4993	0	1
4994	0	1
4995	0	1
4996	0	1
4997	0	1
4998	0	1
4999	0	1
5000	0	1
5001	0	1
5002	0	1
5003	0	1
5004	0	1
5005	0	1
5006	0	1
5007	0	1
5008	0	1
5009	0	1
5010	0	1
5011	0	1
5012	0	1
5013	0	1
5014	0	1
5015	0	1
5016	0	1
5017	0	1
5018	0	1
5019	0	1
5020	0	1
5021	0	1
5022	0	1
5023	0	1
5024	0	1
5025	0	1
5026	0	1
5027	0	1
5028	0	1
5029	0	1
5030	0	1
5031	0	1
5032	0	1
5033	0	0
5034	0	0
5035	0	0
5036	0	0
5037	0	0
5038	0	0
5039	0	0
5040	0	0
5041	0	0
5042	0	0
5043	0	0
5044	0	0
5045	0	0
5046	0	0
5047	0	0
5048	0	0
5049	0	0
5050	0	0
5051	0	0
5052	0	0
5053	0	0
5054	0	0
5055	0	0
5056	0	0
5057	0	0
5058	0	0
5059	0	0
5060	0	0
5061	0	0
5062	0	0
5063	0	0
5064	0	0
5065	0	0
5066	0	0
5067	0	0
5068	0	0
5069	0	0
5070	0	0
5071	0	0
5072	0	0
5073	0	0
5074	0	0
5075	0	0
5076	0	0
5077	0	0
