Site	ColumnScore	SumOfPairsScore
1	0	0
2	0	0
3	0	0
4	0	0
5	0	0
6	0	0
7	0	0
8	0	0
9	0	0
10	0	0
11	0	0
12	0	0
13	0	0
14	0	0
15	0	0
16	0	0
17	0	0
18	0	0
19	0	0
20	0	0
21	0	0
22	0	0
23	0	0
24	0	0
25	0	0
26	0	0
27	0	0
28	0	0
29	0	0
30	0	0
31	0	0
32	0	0
33	0	0
34	0	0
35	0	0
36	0	0
37	0	0
38	0	0
39	0	0
40	0	0
41	0	0
42	0	0
43	0	0
44	0	0
45	0	0
46	1	0
47	1	0
48	1	0
49	1	0
50	0	0
51	0	0
52	0	0
53	0	0
54	0	0
55	0	0
56	0	0
57	0	0
58	0	0
59	0	0
60	0	0
61	0	0
62	0	0
63	0	0
64	0	0
65	0	0
66	0	0
67	0	0
68	0	0
69	0	0
70	0	0
71	0	0
72	0	0
73	0	0
74	0	0
75	0	0
76	0	0
77	0	0
78	0	0
79	0	0
80	0	0
81	0	0
82	0	0
83	0	0
84	0	0
85	0	0
86	0	0
87	0	0
88	0	0
89	0	0
90	0	0
91	0	0
92	0	0
93	0	0
94	0	0
95	0	0
96	0	0
97	0	0
98	0	0
99	0	0
100	0	0
101	0	0
102	0	0
103	0	0
104	0	0
105	0	0
106	0	0
107	0	0
108	0	0
109	0	0
110	0	0
111	0	0
112	0	0
113	0	0
114	0	0
115	0	0
116	0	0
117	0	0
118	0	0
119	0	0
120	0	0
121	0	0
122	0	0
123	0	0
124	0	0
125	0	0
126	0	0
127	0	0
128	0	0
129	0	0
130	0	0
131	0	0
132	0	0
133	0	0
134	0	0
135	0	0
136	0	0
137	0	0
138	0	0
139	0	0
140	0	0
141	0	0
142	0	0
143	0	0
144	0	0
145	0	0
146	0	0
147	0	0
148	0	0
149	0	0
150	0	0
151	0	0
152	0	0
153	0	0
154	0	0
155	0	0
156	0	0
157	0	0
158	0	0
159	0	0
160	0	0
161	0	0
162	0	0
163	0	0
164	0	0
165	0	0
166	0	0
167	0	0
168	0	0
169	0	0
170	0	0
171	0	0
172	0	0
173	0	0
174	0	0
175	0	0
176	0	0
177	0	0
178	0	0
179	0	0
180	0	0
181	0	0
182	0	0
183	0	0
184	0	0
185	0	0
186	0	0
187	0	0
188	0	0
189	0	0
190	0	0
191	0	0
192	0	0
193	0	0
194	0	0
195	0	0
196	0	0
197	0	0
198	0	0
199	0	0
200	0	0
201	0	0
202	0	0
203	0	0
204	0	0
205	0	0
206	0	0
207	0	0
208	0	0
209	0	0
210	0	0
211	0	0
212	0	0
213	0	0
214	0	0
215	0	0
216	0	0
217	0	0
218	0	0
219	0	0
220	0	0
221	0	0
222	0	0
223	0	0
224	0	0
225	0	0
226	0	0
227	0	0
228	0	0
229	0	0
230	0	0
231	0	0
232	0	0
233	0	0
234	0	0
235	0	0
236	0	0
237	0	0
238	0	0
239	0	0
240	0	0
241	0	0
242	0	0
243	0	0
244	0	0
245	0	0
246	0	0
247	0	0
248	0	0
249	0	0
250	0	0
251	1	0
252	1	0
253	1	0
254	1	0
255	1	0
256	1	0
257	0	0
258	0	0
259	0	0
260	0	0
261	0	0
262	0	0
263	0	0
264	0	0
265	0	0
266	0	0
267	0	0
268	0	0
269	0	0
270	0	0
271	0	0
272	0	0
273	0	0
274	0	0
275	0	0
276	0	0
277	0	0
278	0	0
279	0	0
280	0	0
281	0	0
282	0	0
283	0	0
284	0	0
285	0	0
286	0	0
287	0	0
288	0	0
289	0	0
290	0	0
291	0	0
292	0	0
293	0	0
294	0	0
295	0	0
296	0	0
297	0	0
298	0	0
299	0	0
300	0	0
301	0	0
302	0	0
303	0	0
304	0	0
305	0	0
306	0	0
307	0	0
308	0	0
309	0	0
310	0	0
311	0	0
312	0	0
313	0	0
314	0	0
315	0	0
316	0	0
317	0	0
318	0	0
319	0	0
320	0	0
321	0	0
322	0	0
323	0	0
324	0	0
325	0	0
326	0	0
327	0	0
328	0	0
329	0	0
330	0	0
331	0	0
332	0	0
333	0	0
334	0	0
335	0	0.166667
336	0	0.166667
337	0	0.166667
338	0	0.166667
339	0	0.166667
340	0	0.166667
341	0	0.166667
342	0	0.166667
343	0	0.166667
344	0	0.166667
345	0	0.166667
346	0	0.166667
347	0	0.166667
348	0	0.166667
349	0	0.166667
350	0	0.166667
351	0	0.166667
352	0	0.166667
353	0	0.166667
354	0	0.166667
355	0	0.166667
356	0	0.166667
357	0	0.166667
358	0	0.166667
359	0	0.166667
360	0	0.166667
361	0	0.166667
362	0	0.166667
363	0	0.166667
364	0	0.166667
365	0	0.166667
366	0	0.166667
367	0	0.166667
368	0	0.166667
369	0	0.166667
370	0	0.166667
371	0	0.166667
372	0	0.166667
373	0	0.166667
374	0	0.166667
375	0	0.166667
376	0	0.166667
377	0	0.166667
378	0	0.166667
379	0	0.166667
380	0	0.166667
381	0	0.166667
382	0	0.166667
383	0	0.166667
384	0	0.166667
385	0	0.166667
386	0	0.166667
387	0	0.166667
388	0	0.166667
389	0	0.166667
390	0	0.166667
391	0	0.166667
392	0	0.166667
393	0	0.166667
394	0	0.166667
395	0	0.166667
396	0	0.166667
397	0	0.166667
398	0	0.166667
399	0	0.166667
400	0	0.166667
401	0	0.166667
402	0	0.166667
403	0	0.166667
404	0	0.166667
405	0	0.166667
406	0	0.166667
407	0	0.166667
408	0	0.166667
409	0	0.166667
410	0	0.166667
411	0	0.166667
412	0	0.166667
413	0	0.166667
414	0	0.166667
415	0	0.166667
416	0	0.166667
417	0	0.166667
418	0	0.166667
419	0	0.166667
420	0	0.166667
421	0	0.166667
422	0	0.166667
423	0	0.3
424	0	0.3
425	0	0.3
426	0	0.3
427	0	0.3
428	0	0.3
429	0	0.3
430	0	0.3
431	0	0.3
432	0	0.3
433	0	0.3
434	0	0.3
435	0	0.2
436	0	0.2
437	0	0.142857
438	0	0.142857
439	0	0.142857
440	0	0.142857
441	0	0.142857
442	0	0.142857
443	0	0.142857
444	0	0.142857
445	0	0.142857
446	0	0.142857
447	0	0.142857
448	0	0.142857
449	0	0.142857
450	0	0.142857
451	0	0.142857
452	0	0.142857
453	0	0.142857
454	0	0.142857
455	0	0.142857
456	0	0.142857
457	0	0.142857
458	0	0.142857
459	0	0.142857
460	0	0.142857
461	0	0.142857
462	0	0.142857
463	0	0.142857
464	0	0.142857
465	0	0.142857
466	0	0.142857
467	0	0.142857
468	0	0.142857
469	0	0.142857
470	0	0.142857
471	0	0.142857
472	0	0.142857
473	0	0.142857
474	0	0.142857
475	0	0.142857
476	0	0.142857
477	0	0.142857
478	0	0.142857
479	0	0.142857
480	0	0.142857
481	0	0.142857
482	0	0.142857
483	0	0.142857
484	0	0.142857
485	0	0.142857
486	0	0.142857
487	0	0.142857
488	0	0.142857
489	0	0.142857
490	0	0.142857
491	0	0.142857
492	0	0.142857
493	0	0.142857
494	0	0.142857
495	0	0.142857
496	0	0.142857
497	0	0.142857
498	0	0.142857
499	0	0.142857
500	0	0.142857
501	0	0.142857
502	0	0.142857
503	0	0.142857
504	0	0.111111
505	0	0.111111
506	0	0.111111
507	0	0.111111
508	0	0.111111
509	0	0.111111
510	0	0.111111
511	0	0.111111
512	0	0.111111
513	0	0.111111
514	0	0.111111
515	0	0.111111
516	0	0.111111
517	0	0.0888889
518	0	0.0888889
519	0	0.0888889
520	0	0.0888889
521	0	0.0888889
522	0	0.0888889
523	0	0.0888889
524	0	0.0888889
525	0	0.0888889
526	0	0.0888889
527	0	0.0888889
528	0	0.0888889
529	0	0.0888889
530	0	0.0888889
531	0	0.0888889
532	0	0.0888889
533	0	0.0888889
534	0	0.0888889
535	0	0.0888889
536	0	0.0888889
537	0	0.0888889
538	0	0.0888889
539	0	0.0888889
540	0	0.0888889
541	0	0.0888889
542	0	0.0888889
543	0	0.0888889
544	0	0.0888889
545	0	0.0888889
546	0	0.0888889
547	0	0.0888889
548	0	0.0888889
549	0	0.0888889
550	0	0.0888889
551	0	0.0888889
552	0	0.0888889
553	0	0.0909091
554	0	0.0909091
555	0	0.0909091
556	0	0.0727273
557	0	0.0888889
558	0	0.0888889
559	0	0.0888889
560	0	0.0888889
561	0	0.0888889
562	0	0.0888889
563	0	0.0888889
564	0	0.0888889
565	0	0.0888889
566	0	0.0888889
567	0	0.0888889
568	0	0.0888889
569	0	0.0888889
570	0	0.0888889
571	0	0.0888889
572	0	0.0888889
573	0	0.0888889
574	0	0.0888889
575	0	0.0888889
576	0	0.0888889
577	0	0.0888889
578	0	0.0888889
579	0	0.0888889
580	0	0.0888889
581	0	0.0888889
582	0	0.0888889
583	0	0.0888889
584	0	0.0888889
585	0	0.0888889
586	0	0.0888889
587	0	0.0888889
588	0	0.0888889
589	0	0.0888889
590	0	0.0888889
591	0	0.0888889
592	0	0.0888889
593	0	0.0888889
594	0	0.0888889
595	0	0.0888889
596	0	0.0888889
597	0	0.0888889
598	0	0.111111
599	0	0.111111
600	0	0.111111
601	0	0.111111
602	0	0.111111
603	0	0.111111
604	0	0.111111
605	0	0.111111
606	0	0.111111
607	0	0.111111
608	0	0.111111
609	0	0.111111
610	0	0.111111
611	0	0.111111
612	0	0.111111
613	0	0.111111
614	0	0.111111
615	0	0.111111
616	0	0.111111
617	0	0.111111
618	0	0.111111
619	0	0.111111
620	0	0.111111
621	0	0.111111
622	0	0.111111
623	0	0.111111
624	0	0.111111
625	0	0.111111
626	0	0.111111
627	0	0.111111
628	0	0.0888889
629	0	0.0888889
630	0	0.0888889
631	0	0.0888889
632	0	0.0888889
633	0	0.0888889
634	0	0.0888889
635	0	0.0888889
636	0	0.0888889
637	0	0.0888889
638	0	0.0888889
639	0	0.0888889
640	0	0.0888889
641	0	0.0888889
642	0	0.0555556
643	0	0.047619
644	0	0.047619
645	0	0.047619
646	0	0.047619
647	0	0.047619
648	0	0.0952381
649	0	0.0952381
650	0	0.138889
651	0	0.138889
652	0	0.138889
653	0	0.138889
654	0	0.138889
655	0	0.138889
656	0	0.138889
657	0	0.138889
658	0	0.138889
659	0	0.138889
660	0	0.138889
661	0	0.138889
662	0	0.138889
663	0	0.138889
664	0	0.138889
665	0	0.111111
666	0	0.111111
667	0	0.111111
668	0	0.111111
669	0	0.111111
670	0	0.111111
671	0	0.111111
672	0	0.111111
673	0	0.111111
674	0	0.111111
675	0	0.111111
676	0	0.111111
677	0	0.111111
678	0	0.111111
679	0	0.111111
680	0	0.111111
681	0	0.111111
682	0	0.111111
683	0	0.111111
684	0	0.111111
685	0	0.111111
686	0	0.111111
687	0	0.111111
688	0	0.142857
689	0	0.142857
690	0	0.0888889
691	0	0.0888889
692	0	0.0888889
693	0	0.0888889
694	0	0.0888889
695	0	0.0888889
696	0	0.0888889
697	0	0.0888889
698	0	0.0888889
699	0	0.0888889
700	0	0.0888889
701	0	0.0888889
702	0	0.0888889
703	0	0.0888889
704	0	0.0888889
705	0	0.0888889
706	0	0.0888889
707	0	0.0888889
708	0	0.0888889
709	0	0.0888889
710	0	0.0888889
711	0	0.0888889
712	0	0.0888889
713	0	0.0888889
714	0	0.0727273
715	0	0.0727273
716	0	0.0727273
717	0	0.0727273
718	0	0.0444444
719	0	0.0444444
720	0	0.0444444
721	0	0.0444444
722	0	0.0444444
723	0	0.0444444
724	0	0.0444444
725	0	0.0444444
726	0	0.0444444
727	0	0.0277778
728	0	0.0277778
729	0	0.0277778
730	0	0.0277778
731	0	0.0277778
732	0	0.0277778
733	0	0.0277778
734	0	0.0277778
735	0	0.0277778
736	0	0.0277778
737	0	0.0277778
738	0	0.0277778
739	0	0.0277778
740	0	0.0277778
741	0	0.0277778
742	0	0.0277778
743	0	0.0277778
744	0	0.0277778
745	0	0.0277778
746	0	0.0277778
747	0	0.0277778
748	0	0.0277778
749	0	0.0222222
750	0	0.0222222
751	0	0.0222222
752	0	0.0222222
753	0	0.0222222
754	0	0.0222222
755	0	0.0222222
756	0	0.0222222
757	0	0.0363636
758	0	0.0363636
759	0	0.0363636
760	0	0.0363636
761	0	0.0363636
762	0	0.0363636
763	0	0.0363636
764	0	0.0363636
765	0	0.0545455
766	0	0.0363636
767	0	0.0363636
768	0	0.0363636
769	0	0.0363636
770	0	0.0384615
771	0	0.025641
772	0	0.025641
773	0	0.025641
774	0	0.032967
775	0	0.043956
776	0	0.032967
777	0	0.032967
778	0	0.021978
779	0	0.021978
780	0	0.021978
781	0	0.021978
782	0	0.021978
783	0	0.0190476
784	0	0.0190476
785	0	0.0285714
786	0	0.0285714
787	0	0.0285714
788	0	0.0285714
789	0	0.0285714
790	0	0.0190476
791	0	0.0190476
792	0	0.0190476
793	0	0.0190476
794	0	0.0190476
795	0	0.0190476
796	0	0.0292398
797	0	0.0292398
798	0	0.0292398
799	0	0.0326797
800	0	0.0326797
801	0	0.0292398
802	0	0.0292398
803	0	0.0350877
804	0	0.0350877
805	0	0.0350877
806	0	0.0292398
807	0	0.0292398
808	0	0.0292398
809	0	0.0175439
810	0	0.0175439
811	0	0.0142857
812	0	0.0142857
813	0	0.0238095
814	0	0.0238095
815	0	0.0238095
816	0	0.0238095
817	0	0.0238095
818	0	0.034632
819	0	0.0316206
820	0	0.0316206
821	0	0.0326087
822	0	0.0326087
823	0	0.0276923
824	0	0.0276923
825	0	0.0276923
826	0	0.0276923
827	0	0.026455
828	0	0.102564
829	0	0.102564
830	0	0.0974359
831	0	0.146154
832	0	0.146154
833	0	0.139024
834	0	0.115152
835	0	0.130303
836	0	0.134135
837	0	0.137755
838	0	0.153061
839	0	0.12459
840	0	0.105286
841	0	0.116298
842	0	0.11035
843	0	0.0948509
844	0	0.0893769
845	0	0.0783838
846	0	0.0684676
847	0	0.0531346
848	0	0.0467849
849	0	0.230261
850	0	0.34094
851	0	0.339843
852	0	0.0618401
853	0	0.104202
854	0	0.156695
855	0	0.217391
856	0	0.238095
857	0	0.261905
858	0	0
859	0	0
860	0	0
861	0	0
862	0	0
863	0	0
864	0	0
865	0	0
866	0	0
867	0	0
868	0	0
869	0	0
870	0	0
871	0	0
872	0	0
873	0	0
874	0	0
875	0	0
876	0	0
877	0	0
878	0	0
879	0	0
880	0	0
881	0	0
882	0	0
883	0	0
884	0	0
885	0	0
886	0	0
887	0	0
888	0	0
889	0	0
890	0	0
891	0	0
892	0	0
893	0	0
894	0	0
895	0	0
896	0	0
897	0	0
898	0	0
899	0	0
900	0	0
901	0	0
902	0	0
903	0	0
904	0	0
905	0	0
906	0	0
907	0	0.339109
908	0	0.337473
909	0	0.311444
910	0	0.313154
911	0	0.311203
912	0	0.310329
913	0	0.0504038
914	0	0.231264
915	0	0.231493
916	0	0
917	0	0
918	0	0
919	0	0.0455576
920	0	0.0428778
921	0	0.389102
922	0	0.047619
923	0	0
924	0	0
925	0	0
926	0	0
927	0	0
928	0	0
929	0	0
930	0	0
931	0	0
932	0	0
933	0	0
934	0	0
935	0	0
936	0	0
937	0	0
938	0	0
939	0	0
940	0	0
941	0	0
942	0	0
943	0	0
944	0	0
945	0	0
946	0	0
947	0	0
948	0	0
949	0	0
950	0	0
951	0	0
952	0	0
953	0	0
954	0	0
955	0	0
956	0	0
957	0	0
958	0	0
959	0	0
960	0	0
961	0	0
962	0	0
963	0	0
964	0	0
965	0	0
966	0	0
967	0	0
968	0	0
969	0	0
970	0	0
971	0	0
972	0	0
973	0	0
974	0	0
975	0	0
976	0	0
977	0	0
978	0	0
979	0	0
980	0	0
981	0	0
982	0	0
983	0	0
984	0	0
985	0	0
986	0	0
987	0	0
988	0	0
989	0	0
990	0	0
991	0	0
992	0	0
993	0	0
994	0	0
995	0	0
996	0	0
997	0	0
998	0	0
999	0	0
1000	0	0
1001	0	0
1002	0	0
1003	0	0
1004	0	0
1005	0	0
1006	0	0
1007	0	0
1008	0	0
1009	0	0
1010	0	0
1011	0	0
1012	0	0
1013	0	0
1014	0	0
1015	0	0
1016	0	0
1017	0	0
1018	0	0
1019	0	0
1020	0	0
1021	0	0
1022	0	0
1023	0	0
1024	0	0
1025	0	0
1026	0	0
1027	0	0
1028	0	0
1029	0	0
1030	0	0
1031	0	0
1032	0	0
1033	0	0
1034	0	0
1035	0	0
1036	0	0
1037	0	0
1038	0	0
1039	0	0
1040	0	0
1041	0	0
1042	0	0
1043	0	0
1044	0	0
1045	0	0
1046	0	0
1047	0	0
1048	0	0
1049	0	0
1050	0	0
1051	0	0
1052	0	0
1053	0	0
1054	0	0
1055	0	0
1056	0	0
1057	0	0
1058	0	0
1059	0	0
1060	0	0
1061	0	0
1062	0	0
1063	0	0
1064	0	0
1065	0	0
1066	0	0
1067	0	0
1068	0	0
1069	0	0
1070	0	0
1071	0	0
1072	0	0
1073	0	0
1074	0	0
1075	0	0
1076	0	0
1077	0	0
1078	0	0
1079	0	0
1080	0	0
1081	0	0
1082	0	0
1083	0	0
1084	0	0
1085	0	0
1086	0	0
1087	0	0
1088	0	0
1089	0	0
1090	0	0
1091	0	0
1092	0	0
1093	0	0
1094	0	0
1095	0	0
1096	0	0
1097	0	0
1098	0	0
1099	0	0
1100	0	0
1101	0	0
1102	0	0
1103	0	0
1104	0	0
1105	0	0
1106	0	0
1107	0	0
1108	0	0
1109	0	0
1110	0	0
1111	0	0
1112	0	0
1113	0	0
1114	0	0
1115	0	0
1116	0	0
1117	0	0
1118	0	0
1119	0	0
1120	0	0
1121	0	0
1122	0	0
1123	0	0
1124	0	0
1125	0	0
1126	0	0
1127	0	0
1128	0	0
1129	0	0
1130	0	0
1131	0	0
1132	0	0
1133	0	0
1134	0	0
1135	0	0.0666667
1136	0	0.142857
1137	0	0.345995
1138	0	0.335449
1139	0	0.329284
1140	0	0.333333
1141	0	0.333333
1142	0	0.333333
1143	0	0.333333
1144	0	0.333333
1145	0	0.333333
1146	0	0.333333
1147	0	0.333333
1148	0	0.333333
1149	0	0.0524451
1150	0	0.0462596
1151	0	0.280473
1152	0	0.438095
1153	0	0.0298552
1154	0	0.22901
1155	0	0.2223
1156	0	0.0777778
1157	0	0.0628019
1158	0	0.0705128
1159	0	0.0692308
1160	0	0.0794872
1161	0	0.0605042
1162	0	0.0420168
1163	0	0.0473485
1164	0	0.0412698
1165	0	0.333586
1166	0	0.309672
1167	0	0.223442
1168	0	0.0412698
1169	0	0.0412698
1170	0	0.0428571
1171	0	0.0428571
1172	0	0.0470588
1173	0	0.0444444
1174	0	0.045045
1175	0	0.148936
1176	0	0.230304
1177	0	0.222574
1178	0	0.0730241
1179	0	0.274738
1180	0	0.0522876
1181	0	0.0666667
1182	0	0.0666667
1183	0	0.0761905
1184	0	0.0879121
1185	0	0.0879121
1186	0	0.0897436
1187	0	0.0897436
1188	0	0.0897436
1189	0	0.0897436
1190	0	0.127273
1191	0	0.127273
1192	0	0.127273
1193	0	0.127273
1194	0	0.127273
1195	0	0.127273
1196	0	0.127273
1197	0	0.127273
1198	0	0.127273
1199	0	0.127273
1200	0	0.127273
1201	0	0.155556
1202	0	0.155556
1203	0	0.155556
1204	0	0.155556
1205	0	0.166667
1206	0	0.166667
1207	0	0.214286
1208	0	0.214286
1209	0	0.214286
1210	0	0.214286
1211	0	0.214286
1212	0	0.214286
1213	0	0.285714
1214	0	0.285714
1215	0	0.285714
1216	0	0.285714
1217	0	0.285714
1218	0	0.4
1219	0	0.4
1220	0	0.4
1221	0	0.4
1222	0	0.4
1223	0	0.4
1224	0	0.4
1225	0	0.4
1226	0	0.4
1227	0	0.4
1228	0	0.4
1229	0	0.6
1230	0	0.6
1231	0	0.6
1232	0	0.6
1233	0	0.6
1234	0	0.6
1235	0	0.6
1236	0	0.6
1237	0	0.6
1238	0	0.6
1239	0	0.6
1240	0	0.6
1241	0	0.6
1242	0	0.6
1243	0	0.6
1244	0	0.6
1245	0	0.6
1246	0	0.6
1247	0	0.6
1248	0	0.6
1249	0	0.6
1250	0	0.6
1251	0	0.6
1252	0	0.6
1253	0	0.6
1254	0	1
1255	0	1
1256	0	1
1257	0	1
1258	0	1
1259	0	1
1260	0	1
1261	0	1
1262	0	1
1263	0	1
1264	0	1
1265	0	1
1266	0	1
1267	0	1
1268	0	1
1269	0	1
1270	0	1
1271	0	1
1272	0	1
1273	0	1
1274	0	1
1275	0	1
1276	0	1
1277	0	1
1278	0	1
1279	0	1
1280	0	1
1281	0	1
1282	0	1
1283	0	1
1284	0	1
1285	0	1
1286	0	1
1287	0	1
1288	0	1
1289	0	1
1290	0	1
1291	0	1
1292	0	1
1293	0	1
1294	0	1
1295	0	1
1296	0	1
1297	0	1
1298	0	1
1299	0	1
1300	0	0
1301	0	0
1302	0	0
1303	0	0
1304	0	0
1305	0	0
1306	0	0
1307	0	0
1308	0	0
1309	0	0
1310	0	0
1311	0	0
1312	0	0
1313	0	0
1314	0	0
1315	0	0
1316	0	0
1317	0	0
1318	0	0
1319	0	0
1320	0	0
1321	0	0
1322	0	0
1323	0	0
1324	0	0
1325	0	0
1326	0	0
1327	0	0
1328	0	0
1329	0	0
1330	0	0
1331	0	0
1332	0	0
1333	0	1
1334	0	1
1335	0	1
1336	0	1
1337	0	1
1338	0	1
1339	0	1
1340	0	1
1341	0	1
1342	0	1
1343	0	1
1344	0	1
1345	0	1
1346	0	1
1347	0	1
1348	0	1
1349	0	1
1350	0	1
1351	0	1
1352	0	1
1353	0	1
1354	0	1
1355	0	1
1356	0	1
1357	0	1
1358	0	1
1359	0	1
1360	0	1
1361	0	1
1362	0	1
1363	0	1
1364	0	1
1365	0	1
1366	0	1
1367	0	1
1368	0	1
1369	0	1
1370	0	1
1371	0	1
1372	0	1
1373	0	1
1374	0	0.316993
1375	0	0.0376549
1376	0	0.049166
1377	0	0.0384615
1378	0	0.0659341
1379	0	0.0659341
1380	0	0.0542334
1381	0	0.0639257
1382	0	0.188003
1383	0	0.174316
1384	0	0.180259
1385	0	0.0329336
1386	0	0.0271792
1387	0	0.0252747
1388	0	0.319722
1389	0	0
1390	0	0
1391	0	0
1392	0	0
1393	0	0
1394	0	0
1395	0	0
1396	0	0
1397	0	0
1398	0	0
1399	0	0
1400	0	0
1401	0	0
1402	0	0
1403	0	0.0128205
1404	0	0.0514706
1405	0	0.0409357
1406	0	0.195036
1407	0	0.120023
1408	0	0.0518559
1409	0	0.0588014
1410	0	0.0854907
1411	0	0.100832
1412	0	0.096868
1413	0	0.220613
1414	0	0.275451
1415	0	0.0277778
1416	0	0.1
1417	0	0.0553463
1418	0	0.399808
1419	0	0.244444
1420	0	0.244444
1421	0	0.244444
1422	0	0.244444
1423	0	0.244444
1424	0	0.244444
1425	0	0.166667
1426	0	0.166667
1427	0	0.166667
1428	0	0.166667
1429	0	0.166667
1430	0	0.166667
1431	0	0.141026
1432	0	0.559651
1433	0	0.563038
1434	0	0.0357143
1435	0	0.0357143
1436	0	0.0357143
1437	0	0.0357143
1438	0	0.0357143
1439	0	0.0357143
1440	0	0.0357143
1441	0	0.0357143
1442	0	0.0357143
1443	0	0.348984
1444	0	0.35851
1445	0	0.169799
1446	0	0.107078
1447	0	0.00584795
1448	0	0.00653595
1449	0	0.00653595
1450	0	0.00653595
1451	0	0.00653595
1452	0	0.00653595
1453	0	0.00653595
1454	0	0.0474308
1455	0	0.0434783
1456	0	0.0398551
1457	0	0.0434783
1458	0	0.0434783
1459	0	0.0434783
1460	0	0.093254
1461	0	0.0707804
1462	0	0.0733083
1463	0	0.273858
1464	0	0.225414
1465	0	0.215506
1466	0	0.203821
1467	0	0.194975
1468	0	0.0230352
1469	0	0.0217528
1470	0	0.0813556
1471	0	0.064747
1472	0	0.0313883
1473	0	0.0312989
1474	0	0.0195617
1475	0	0.0171725
1476	0	0.0156917
1477	0	0.0152451
1478	0	0.0147518
1479	0	0.0154918
1480	0	0.0145525
1481	0	0.0141437
1482	0	0.0141241
1483	0	0.0150995
1484	0	0.0178153
1485	0	0.0203288
1486	0	0.019352
1487	0	0.020132
1488	0	0.0283092
1489	0	0.0298904
1490	0	0.0276565
1491	0	0.0252233
1492	0	0.0319174
1493	0	0.0327324
1494	0	0.0286904
1495	0	0.0240228
1496	0	0.028752
1497	0	0.0211474
1498	0	0.0309413
1499	0	0
1500	0	0
1501	0	0
1502	0	0
1503	0	0
1504	0	0
1505	0	0
1506	0	0
1507	0	0
1508	0	0.0373835
1509	0	0.0328964
1510	0	0.011611
1511	0	0.0130624
1512	0	0.0137881
1513	0	0.0137881
1514	0	0.0137881
1515	0	0.0145138
1516	0	0.0137881
1517	0	0.0123367
1518	0	0.0132774
1519	0	0.0322211
1520	0	0.0359379
1521	0	0.0339418
1522	0	0.0344774
1523	0	0.0358138
1524	0	0.0421672
1525	0	0.0401491
1526	0	0.0404052
1527	0	0.0482924
1528	0	0
1529	0	0
1530	0	0
1531	0	0
1532	0	0
1533	0	0.0828339
1534	0	0.100947
1535	0	0.117883
1536	0	0.113558
1537	0	0.133356
1538	0	0.0155938
1539	0	0.0158465
1540	0	0.0155556
1541	0	0.025668
1542	0	0.0292723
1543	0	0.0312576
1544	0	0.296523
1545	0	0.327557
1546	0	0.0535994
1547	0	0.0551308
1548	0	0.0567288
1549	0	0.0661189
1550	0	0.0731612
1551	0	0.0766383
1552	0	0.0729825
1553	0	0.0729825
1554	0	0.0566483
1555	0	0.0609524
1556	0	0.344521
1557	0	0.347981
1558	0	0.0153846
1559	0	0.01
1560	0	0.01
1561	0	0.699531
1562	0	0.716409
1563	0	0.735678
1564	0	0.00865801
1565	0	0.0047619
1566	0	0.0047619
1567	0	0.565281
1568	0	0.00952381
1569	0	0.00952381
1570	0	0.00952381
1571	0	0.00952381
1572	0	0.00952381
1573	0	0.00952381
1574	0	0.00952381
1575	0	0.00952381
1576	0	0.00952381
1577	0	0.35997
1578	0	0.0277778
1579	0	0.0277778
1580	0	0.0277778
1581	0	0.0277778
1582	0	0.444515
1583	0	0.444576
1584	0	0.438693
1585	0	0.220513
1586	0	0
1587	0	0
1588	0	0
1589	0	0
1590	0	0
1591	0	0
1592	0	0
1593	0	0
1594	0	0
1595	0	0
1596	0	0.219061
1597	0	0.0105263
1598	0	0.653242
1599	0	0.65825
1600	0	0.547359
1601	0	0.270762
1602	0	0.20404
1603	0	0.183499
1604	0	0.178253
1605	0	0.187075
1606	0	0.201932
1607	0	0.187692
1608	0	0.187692
1609	0	0.201581
1610	0	0.2
1611	0	0.131054
1612	0	0.135385
1613	0	0.101449
1614	0	0.105458
1615	0	0.255047
1616	0	0.0662879
1617	0	0.103333
1618	0	0.0643275
1619	0	0.0735294
1620	0	0.0735294
1621	0	0.115385
1622	0	0.163636
1623	0	0.163636
1624	0	0.0705882
1625	0	0.167816
1626	0	0.137634
1627	0	0.4
1628	0	0.4
1629	0	0.4
1630	0	0.4
1631	0	0.4
1632	0	0.4
1633	0	0.4
1634	0	0.6
1635	0	0.6
1636	0	0.6
1637	0	0.6
1638	0	0.6
1639	0	0.6
1640	0	0.6
1641	0	0.6
1642	0	0.6
1643	0	0.6
1644	0	0.6
1645	0	0.6
1646	0	0.6
1647	0	0.6
1648	0	0.6
1649	0	0.6
1650	0	0.6
1651	0	0.6
1652	0	0.6
1653	0	0.6
1654	0	0.6
1655	0	0.6
1656	0	0.6
1657	0	0.6
1658	0	0.6
1659	0	0.6
1660	0	0.6
1661	0	0.6
1662	0	0.6
1663	0	0.6
1664	0	0.6
1665	0	0.6
1666	0	0.6
1667	0	0.6
1668	0	0.6
1669	0	0.6
1670	0	0.6
1671	0	0.6
1672	0	0.6
1673	0	0.6
1674	0	0.6
1675	0	0.6
1676	0	0.6
1677	0	0.6
1678	0	0.6
1679	0	0.6
1680	0	0.6
1681	0	0.6
1682	0	0.6
1683	0	0.6
1684	0	0.6
1685	0	0.6
1686	0	0.6
1687	0	0.6
1688	0	0.6
1689	0	0.6
1690	0	0.6
1691	0	0.6
1692	0	0.6
1693	0	0.6
1694	0	0.6
1695	0	0.6
1696	0	0.6
1697	0	0.6
1698	0	0.6
1699	0	0.6
1700	0	0.6
1701	0	0.6
1702	0	0.6
1703	0	0.6
1704	0	0.6
1705	0	0.6
1706	0	0.6
1707	0	0.6
1708	0	0.6
1709	0	0.6
1710	0	0.6
1711	0	0.6
1712	0	0.6
1713	0	0.6
1714	0	0.6
1715	0	0.6
1716	0	0.6
1717	0	0.6
1718	0	0.6
1719	0	0.6
1720	0	0.6
1721	0	0.6
1722	0	0.6
1723	0	0.6
1724	0	0.6
1725	0	0.6
1726	0	0.6
1727	0	0.6
1728	0	0.6
1729	0	0.6
1730	0	0.6
1731	0	0.6
1732	0	0.6
1733	0	0.6
1734	0	0.6
1735	0	0.6
1736	0	0.6
1737	0	0.6
1738	0	0.6
1739	0	0.6
1740	0	0.6
1741	0	0.6
1742	0	0.6
1743	0	0.6
1744	0	0.6
1745	0	0.6
1746	0	0.6
1747	0	0.6
1748	0	0.6
1749	0	0.6
1750	0	0.6
1751	0	0.6
1752	0	0.6
1753	0	0.6
1754	0	0.6
1755	0	0.6
1756	0	0.6
1757	0	0.6
1758	0	0.6
1759	0	0.6
1760	0	0.6
1761	0	0.6
1762	0	0.6
1763	0	0.6
1764	0	0.6
1765	0	0.6
1766	0	0.6
1767	0	0.6
1768	0	0.6
1769	0	0.6
1770	0	0.122222
1771	0	0.139696
1772	0	0.135832
1773	0	0.0481967
1774	0	0.0429009
1775	0	0.0421348
1776	0	0.0482635
1777	0	0.0459426
1778	0	0.101714
1779	0	0.112975
1780	0	0.151933
1781	0	0.149692
1782	0	0.148837
1783	0	0.654545
1784	0	0.406593
1785	0	0.290909
1786	0	0.535714
1787	0	0.355556
1788	0	0.309091
1789	0	0.309091
1790	0	0.145455
1791	0	0.145455
1792	0	0.145455
1793	0	0.0451613
1794	0	0.105971
1795	0	0.0743398
1796	0	0.0390805
1797	0	0.0418719
1798	0	0.0418719
1799	0	0.0344828
1800	0	0.0320197
1801	0	0.0320197
1802	0	0.0320197
1803	0	0.0320197
1804	0	0.0320197
1805	0	0.0320197
1806	0	0.0295567
1807	0	0.0295567
1808	0	0.0275862
1809	0	0.0275862
1810	0	0.0238095
1811	0	0.203299
1812	0	0.226041
1813	0	0.241513
1814	0	0.217637
1815	0	0.146029
1816	0	0.150605
1817	0	0.17498
1818	0	0.173824
1819	0	0.194072
1820	0	0.0215924
1821	0	0.0181452
1822	0	0.0181452
1823	0	0.0181452
1824	0	0.0172043
1825	0	0.0193548
1826	0	0.0183908
1827	0	0.0183908
1828	0	0.0183908
1829	0	0.0206897
1830	0	0.0206897
1831	0	0.0193548
1832	0	0.0134454
1833	0	0.0202429
1834	0	0.0221987
1835	0	0.0279525
1836	0	0.025856
1837	0	0.0237425
1838	0	0.0527612
1839	0	0.0508535
1840	0	0.0521616
1841	0	0.0404608
1842	0	0
1843	0	0
1844	0	0
1845	0	0
1846	0	0.0284807
1847	0	0.0218188
1848	0	0.0194492
1849	0	0.018863
1850	0	0.0360496
1851	0	0
1852	0	0
1853	0	0
1854	0	0
1855	0	0
1856	0	0
1857	0	0
1858	0	0
1859	0	0
1860	0	0
1861	0	0
1862	0	0
1863	0	0
1864	0	0
1865	0	0
1866	0	0.0339886
1867	0	0.0363808
1868	0	0
1869	0	0
1870	0	0
1871	0	0
1872	0	0
1873	0	0
1874	0	0
1875	0	0
1876	0	0
1877	0	0
1878	0	0
1879	0	0
1880	0	0.0382358
1881	0	0.0379358
1882	0	0.0649351
1883	0	0.0649351
1884	0	0.0652174
1885	0	0.0175439
1886	0	0.0175439
1887	0	0.0196078
1888	0	0.00833333
1889	0	0.126984
1890	0	0.0441176
1891	0	0.0441176
1892	0	0.142292
1893	0	0.177866
1894	0	0.177866
1895	0	0.177866
1896	0	0.177866
1897	0	0.155844
1898	0	0.155844
1899	0	0.0909091
1900	0	0.0866667
1901	0	0.0655271
1902	0	0.0591133
1903	0	0.0516129
1904	0	0.0588235
1905	0	0.0484544
1906	0	0.0519921
1907	0	0.0215924
1908	0	0.0256046
1909	0	0.0227596
1910	0	0.024024
1911	0	0.0165165
1912	0	0.075102
1913	0	0.0242915
1914	0	0.0228741
1915	0	0.0358974
1916	0	0.0219375
1917	0	0.0244081
1918	0	0.0230622
1919	0	0.0915033
1920	0	0.0227376
1921	0	0.126667
1922	0	0.126667
1923	0	0.183055
1924	0	0.291524
1925	0	0.307027
1926	0	0
1927	0	0
1928	0	0
1929	0	0
1930	0	0
1931	0	0
1932	0	0
1933	0	0
1934	0	0
1935	0	0
1936	0	0
1937	0	0
1938	0	0
1939	0	0
1940	0	0
1941	0	0
1942	0	0
1943	0	0
1944	0	0
1945	0	0
1946	0	0
1947	0	0.0283925
1948	0	0.0284438
1949	0	0.0322918
1950	0	0.0124542
1951	0	0.0135161
1952	0	0.0148487
1953	0	0.333333
1954	0	0.333333
1955	0	0.214286
1956	0	0.166667
1957	0	0.214286
1958	0	0.0139194
1959	0	0.0128205
1960	0	0.0640629
1961	0	0.0633756
1962	0	0.0620903
1963	0	0.0288199
1964	0	0.0321766
1965	0	0.0180828
1966	0	0.0231801
1967	0	0.0244334
1968	0	0.0246579
1969	0	0.0265568
1970	0	0.0334205
1971	0	0.0224719
1972	0	0.0216823
1973	0	0.0320326
1974	0	0.0306435
1975	0	0.0248171
1976	0	0.0604919
1977	0	0.0519693
1978	0	0.0962763
1979	0	0.0820001
1980	0	0.077037
1981	0	0.0752949
1982	0	0.0814048
1983	0	0.0249158
1984	0	0.0181818
1985	0	0.0143965
1986	0	0.0134953
1987	0	0.0116144
1988	0	0.0170697
1989	0	0.0201681
1990	0	0.0142602
1991	0	0.0113636
1992	0	0.0126984
1993	0	0.0270531
1994	0	0.0249769
1995	0	0.0607832
1996	0	0.0587571
1997	0	0.1254
1998	0	0.0963481
1999	0	0.0868567
2000	0	0.0854268
2001	0	0.137012
2002	0	0.148106
2003	0	0.132617
2004	0	0.0680567
2005	0	0.0662402
2006	0	0.105727
2007	0	0.112539
2008	0	0.117004
2009	0	0.021164
2010	0	0.0238095
2011	0	0.0238095
2012	0	0.021164
2013	0	0.021164
2014	0	0.146053
2015	0	0.14407
2016	0	0.144099
2017	0	0.0704728
2018	0	0.0793073
2019	0	0.300654
2020	0	0.300654
2021	0	0.300654
2022	0	0.300654
2023	0	0.0904646
2024	0	0.151515
2025	0	0.0380952
2026	0	0.0380952
2027	0	0.0735294
2028	0	0.0735294
2029	0	0.0735294
2030	0	0.412415
2031	0	0.1
2032	0	0.1
2033	0	0.1
2034	0	0.166667
2035	0	0
2036	0	0
2037	0	0
2038	0	0
2039	0	0
2040	0	0
2041	0	0
2042	0	0
2043	0	0
2044	0	0
2045	0	0
2046	0	0
2047	0	0
2048	0	0
2049	0	0
2050	0	0
2051	0	0
2052	0	0
2053	0	0
2054	0	0
2055	0	0
2056	0	0
2057	0	0
2058	0	0
2059	0	0
2060	0	0
2061	0	0
2062	0	0
2063	0	0
2064	0	0
2065	0	0
2066	0	0
2067	0	0
2068	0	0
2069	0	0
2070	0	0
2071	0	0
2072	0	0
2073	0	0
2074	0	0
2075	0	0
2076	0	0
2077	0	0
2078	0	0
2079	0	0.166667
2080	0	0.166667
2081	0	0.166667
2082	0	0.166667
2083	0	0.166667
2084	0	0.166667
2085	0	0.1
2086	0	0.1
2087	0	0.0666667
2088	0	0.142857
2089	0	0.277778
2090	0	0.21978
2091	0	0.223653
2092	0	0.187556
2093	0	0.188889
2094	0	0.720908
2095	0	0.0769231
2096	0	0.0769231
2097	0	0.143791
2098	0	0.143791
2099	0	0.878567
2100	0	0
2101	0	0.047619
2102	0	0.047619
2103	0	0.047619
2104	0	0.047619
2105	0	0.047619
2106	0	0.047619
2107	0	0.047619
2108	0	0.047619
2109	0	0.047619
2110	0	0.0666667
2111	0	0.0666667
2112	0	0.142857
2113	0	0.142857
2114	0	0.142857
2115	0	0.107143
2116	0	0.142857
2117	0	0.142857
2118	0	0.142857
2119	0	0.142857
2120	0	0.142857
2121	0	0.107143
2122	0	0.107143
2123	0	0.142857
2124	0	0.142857
2125	0	0.142857
2126	0	0
2127	0	0.308103
2128	0	0.0274823
2129	0	0.0274823
2130	0	0.166667
2131	0	0.166667
2132	0	0.166667
2133	0	0.166667
2134	0	0.166667
2135	0	0.166667
2136	0	0.0310284
2137	0	0.256127
2138	0	0.257456
2139	0	0.0441176
2140	0	0.0441176
2141	0	0.0392157
2142	0	0.0457516
2143	0	0.0584795
2144	0	0.0473684
2145	0	0.0492308
2146	0	0.295516
2147	0	0.0367647
2148	0	0.0770898
2149	0	0.0661157
2150	0	0.0539222
2151	0	0.0388836
2152	0	0.251346
2153	0	0.240681
2154	0	0.243529
2155	0	0.108696
2156	0	0.108696
2157	0	0.114625
2158	0	0.121212
2159	0	0.133333
2160	0	0.114625
2161	0	0.114625
2162	0	0.15
2163	0	0.318662
2164	0	0.0403226
2165	0	0.0408602
2166	0	0.0413793
2167	0	0.0413793
2168	0	0.0499109
2169	0	0.166706
2170	0	0.157084
2171	0	0
2172	0	0.052381
2173	0	0.0428571
2174	0	0.0428571
2175	0	0.0619048
2176	0	0.288176
2177	0	0.406926
2178	0	0.406926
2179	0	0
2180	0	0
2181	0	0
2182	0	0
2183	0	0
2184	0	0
2185	0	0
2186	0	0
2187	0	0
2188	0	0
2189	0	0
2190	0	0
2191	0	0
2192	0	0
2193	0	0
2194	0	0
2195	0	0
2196	0	0
2197	0	0.229383
2198	0	0.162626
2199	0	0.178647
2200	0	0.150925
2201	0	0.160531
2202	0	0
2203	0	0.253954
2204	0	0.0344828
2205	0	0.0502646
2206	0	0.0461538
2207	0	0.0725806
2208	0	0.767563
2209	0	0.0724638
2210	0	0.101449
2211	0	0.110672
2212	0	0.138528
2213	0	0.12253
2214	0	0.12253
2215	0	0.366742
2216	0	0.352068
2217	0	0.507805
2218	0	0.506987
2219	0	0.24559
2220	0	0.331429
2221	0	0.429679
2222	0	0.0666667
2223	0	0.0879121
2224	0	0.0879121
2225	0	0.0444444
2226	0	0
2227	0	0
2228	0	0
2229	0	0
2230	0	0
2231	0	0
2232	0	0
2233	0	0
2234	0	0
2235	0	0.333333
2236	0	0
2237	0	0
2238	0	0
2239	0	0
2240	0	0
2241	0	0
2242	0	0
2243	0	0
2244	0	0
2245	0	0
2246	0	0.60313
2247	0	0.812877
2248	0	0.812877
2249	0	0.815336
2250	0	0.756223
2251	0	0.901866
2252	0	0.962529
2253	0	1
2254	0	1
2255	0	0.47619
2256	0	0.978357
2257	0	0.986129
2258	0	0.986184
2259	0	0.990111
2260	0	0.99013
2261	0	0.99014
2262	0	0.992107
2263	0	0.992114
2264	0	0.992114
2265	0	0.992114
2266	0	0.988206
2267	0	0.988206
2268	0	0.333333
2269	1	1
2270	0	0.824731
2271	0	0.658333
2272	0	0.700542
2273	0	0.4
2274	0	0.267159
2275	0	0.267402
2276	0	0.265403
2277	0	0.458155
2278	0	0.651604
2279	0	0.693894
2280	0	0.969697
2281	0	0.994165
2282	0	0.994165
2283	0	0.996099
2284	0	0.994158
2285	0	0.994158
2286	0	0.992229
2287	0	0.994163
2288	0	0.994163
2289	0	0.994163
2290	0	0.994163
2291	0	0.992222
2292	0	0
2293	0	0
2294	0	0
2295	0	0
2296	0	0
2297	0	0
2298	0	0
2299	0	0
2300	0	0
2301	0	0
2302	0	0
2303	0	0
2304	0	0.942857
2305	0	0.846154
2306	0	0.705128
2307	0	1
2308	0	1
2309	0	1
2310	0	1
2311	0	1
2312	0	1
2313	0	1
2314	0	1
2315	0	0.333333
2316	0	0.488889
2317	0	0.4
2318	0	0.266667
2319	0	0.266667
2320	0	0.235294
2321	0	0.20915
2322	0	0.187135
2323	0	0.179894
2324	0	0.880325
2325	0	1
2326	0	1
2327	0	1
2328	0	1
2329	0	1
2330	0	1
2331	0	1
2332	0	1
2333	0	1
2334	0	0.4
2335	0	0.4
2336	0	0.5
2337	0	1
2338	0	1
2339	0	1
2340	0	1
2341	0	1
2342	0	1
2343	0	1
2344	0	1
2345	0	1
2346	0	1
2347	0	1
2348	0	1
2349	0	1
2350	0	1
2351	0	1
2352	0	1
2353	0	1
2354	0	1
2355	0	1
2356	0	1
2357	0	1
2358	0	1
2359	0	0.78451
2360	0	0.604111
2361	0	0
2362	0	0
2363	0	0
2364	0	0
2365	0	0
2366	0	0.649412
2367	0	0.718841
2368	0	0.709815
2369	0	0.49878
2370	0	0.663344
2371	0	0.429965
2372	0	0.507003
2373	0	0.280702
2374	0	0.221053
2375	0	0.447619
2376	0	0.728571
2377	0	0.22372
2378	0	0.761238
2379	0	0.176623
2380	0	0.190856
2381	0	0.20549
2382	0	0.345661
2383	0	0.307624
2384	0	0.330674
2385	0	0.513131
2386	0	0.608081
2387	0	0.606061
2388	0	0.611111
2389	0	0.618357
2390	0	0.871903
2391	0	0.871922
2392	0	0.220588
2393	0	0.2
2394	0	0.3
2395	0	0
2396	0	0
2397	0	0
2398	0	0
2399	0	0
2400	0	0
2401	0	0.333333
2402	0	1
2403	0	1
2404	0	1
2405	0	1
2406	0	0.940352
2407	0	0.180952
2408	0	0.274725
2409	0	0.294872
2410	0	0.488889
2411	0	0.488889
2412	0	0.466667
2413	0	0.583333
2414	0	0.967134
2415	0	0.967146
2416	0	0.967146
2417	0	1
2418	0	1
2419	0	1
2420	0	1
2421	0	0.998047
2422	0	0.996099
2423	0	0.996103
2424	0	0.996103
2425	0	0
2426	0	0.994169
2427	0	0.994169
2428	0	0.994169
2429	0	0.99418
2430	0	0.99418
2431	0	0.99418
2432	0	0.99418
2433	0	0.99418
2434	0	0
2435	1	0
2436	1	0
2437	0	0
2438	0	0.998062
2439	0	0.998062
2440	1	0
2441	1	0
2442	1	0
2443	1	0
2444	1	0
2445	1	0
2446	1	0
2447	1	0
2448	1	0
2449	1	0
2450	1	0
2451	1	0
2452	1	0
2453	1	0
2454	1	0
2455	1	0
2456	0	0.99613
2457	0	0.996126
2458	0	0.996126
2459	0	0.996126
2460	0	0.994197
2461	0	0.994197
2462	0	0.994197
2463	0	0.994197
2464	0	0.994197
2465	0	0.994197
2466	0	0.994197
2467	0	1
2468	0	1
2469	0	1
2470	0	1
2471	0	1
2472	0	0.533333
2473	0	0.936964
2474	0	0.927789
2475	0	0.586749
2476	0	0.586757
2477	0	1
2478	0	1
2479	0	1
2480	0	1
2481	0	1
2482	0	1
2483	0	0.777778
2484	0	0.777778
2485	0	0.583333
2486	0	0.507937
2487	0	0.458128
2488	0	0.362903
2489	0	0.362903
2490	0	0.339015
2491	0	0.314286
2492	0	0.242525
2493	0	0.495238
2494	0	0.56044
2495	0	0.56044
2496	0	0.485714
2497	0	0.485714
2498	0	0.382353
2499	0	0.325397
2500	0	0.268398
2501	0	0.696433
2502	0	0.630989
2503	0	0.654735
2504	0	0.600439
2505	0	0.379318
2506	0	0.488844
2507	0	0.266667
2508	0	0.257143
2509	0	0.257143
2510	0	0.257143
2511	0	0.257143
2512	0	0.228571
2513	0	0.152381
2514	0	0.160173
2515	0	0.160173
2516	0	0.160173
2517	0	0.160173
2518	0	0.134199
2519	0	0.0935961
2520	0	0.256622
2521	0	0.205548
2522	0	0.11796
2523	0	0.120281
2524	0	0.113014
2525	0	0.104518
2526	0	0.100137
2527	0	0.0925926
2528	0	0.417888
2529	0	0.310227
2530	0	0.301458
2531	0	0.298177
2532	0	0.2762
2533	0	0.298289
2534	0	0
2535	0	0
2536	0	0
2537	0	0
2538	0	0
2539	0	0
2540	0	0
2541	0	0
2542	0	0
2543	0	0
2544	0	0
2545	0	0
2546	0	0
2547	0	0
2548	0	0
2549	0	0
2550	0	0
2551	0	0
2552	0	0
2553	0	0
2554	0	0
2555	0	0
2556	0	0.32355
2557	0	0.362353
2558	0	0.166667
2559	0	0.166667
2560	0	0.166667
2561	0	0.214286
2562	0	0.285714
2563	0	0.285714
2564	0	0.4
2565	0	0.4
2566	0	0.4
2567	0	0.155734
2568	0	0.201011
2569	0	0.114286
2570	0	0.0666667
2571	0	0.0714286
2572	0	0.0952381
2573	0	0.0952381
2574	0	0.1
2575	0	0.1
2576	0	0.1
2577	0	0.1
2578	0	0.409195
2579	0	0.355692
2580	0	0.107143
2581	0	0.2
2582	0	0.2
2583	0	0.2
2584	0	0
2585	0	0
2586	0	0
2587	0	0
2588	0	0
2589	0	0
2590	0	0
2591	0	0
2592	0	0
2593	0	0
2594	0	0
2595	0	0.166667
2596	0	0.166667
2597	0	0.305556
2598	0	0.305556
2599	0	0.305556
2600	0	0.47541
2601	0	0.166667
2602	0	0.166667
2603	0	0.166667
2604	0	0.1
2605	0	0.1
2606	0	0.1
2607	0	0.0666667
2608	0	0.208976
2609	0	0.352381
2610	0	0.352381
2611	0	0.136996
2612	0	0.0769231
2613	0	0.0769231
2614	0	0.0769231
2615	0	0.0606061
2616	0	0.0606061
2617	0	0.0606061
2618	0	0.0606061
2619	0	0.0512821
2620	0	0.0761905
2621	0	0.05
2622	0	0.316768
2623	0	0.340567
2624	0	0.366931
2625	0	0.37646
2626	0	0.387421
2627	0	0.392876
2628	0	0.529877
2629	0	0.509402
2630	0	0.290043
2631	0	0.667007
2632	0	0.669816
2633	0	0.492647
2634	0	0.492647
2635	0	0.911712
2636	0	0.850825
2637	0	0.417383
2638	0	0.4
2639	0	0.285714
2640	0	0.285714
2641	0	0.266667
2642	0	0.266667
2643	0	0.288889
2644	0	0.288889
2645	0	0.288889
2646	0	0.288889
2647	0	0.288889
2648	0	0.222222
2649	0	0.236364
2650	0	0.236364
2651	0	0.19697
2652	0	0.19697
2653	0	0.19697
2654	0	0.181818
2655	0	0.181818
2656	0	0.181818
2657	0	0.181818
2658	0	0.181818
2659	0	0.166667
2660	0	0.166667
2661	0	0.166667
2662	0	0.166667
2663	0	0.179487
2664	0	0.179487
2665	0	0.179487
2666	0	0.197802
2667	0	0.197802
2668	0	0.197802
2669	0	0.197802
2670	0	0.197802
2671	0	0.197802
2672	0	0.197802
2673	0	0.197802
2674	0	0.252747
2675	0	0.252747
2676	0	0.252747
2677	0	0.252747
2678	0	0.252747
2679	0	0.252747
2680	0	0.252747
2681	0	0.252747
2682	0	0.215686
2683	0	0.38961
2684	0	0.503333
2685	0	0.503333
2686	0	0.464615
2687	0	0.483077
2688	0	0.590769
2689	0	0.590769
2690	0	0.590769
2691	0	0.590769
2692	0	0.566952
2693	0	0.566952
2694	0	0.566952
2695	0	0.509852
2696	0	0.509852
2697	0	0.509852
2698	0	0.53202
2699	0	0.496212
2700	0	0.489489
2701	0	0.465465
2702	0	0.945946
2703	0	1
2704	0	1
2705	0	1
2706	0	0.835851
2707	0	0.990312
2708	0	0.986475
2709	0	0.988391
2710	0	0.988391
2711	0	0.988402
2712	0	0.987726
2713	0	0
2714	0	0
2715	0	0
2716	0	0
2717	0	0.88287
2718	0	0.879676
2719	0	0.879676
2720	0	0.879785
2721	0	0.879676
2722	0	0.967742
2723	0	0.994188
2724	0	0.998062
2725	0	0.998062
2726	0	0.998062
2727	0	0.998062
2728	0	0.994194
2729	0	0.994192
2730	0	0.996122
2731	0	0.99613
2732	0	0.994203
2733	0	0.994203
2734	0	0
2735	0	0
2736	0	0.996133
2737	0	0.996133
2738	0	0.994203
2739	0	0.990349
2740	0	0.988436
2741	0	0.988436
2742	0	0
2743	0	0
2744	0	0.452659
2745	0	0.681818
2746	0	0.545455
2747	0	0.424242
2748	0	0.509091
2749	0	0.381818
2750	0	0.466667
2751	0	0.466667
2752	0	0.466667
2753	0	0.466667
2754	0	0.466667
2755	0	0.466667
2756	0	0.466667
2757	0	0.466667
2758	0	0.466667
2759	0	0.381818
2760	0	0.381818
2761	0	0.285714
2762	0	0
2763	0	0
2764	0	0
2765	0	0
2766	0	0
2767	0	0
2768	0	0
2769	0	0
2770	0	0
2771	0	0
2772	0	0
2773	0	0.47619
2774	0	0
2775	0	0.939919
2776	0	0.939919
2777	0	1
2778	0	0.9
2779	0	1
2780	0	1
2781	0	0.954545
2782	0	0.954545
2783	0	0
2784	0	0
2785	0	0
2786	0	0
2787	0	0
2788	0	0
2789	0	0
2790	0	0
2791	0	0
2792	0	0
2793	0	0
2794	0	0
2795	0	0.974974
2796	0	0.996122
2797	0	0.994197
2798	0	0.994197
2799	0	0.994197
2800	0	0.99613
2801	0	0.996122
2802	0	0.996122
2803	0	0.994186
2804	0	0.333333
2805	0	0
2806	0	0.988395
2807	0	0.681056
2808	0	0.882975
2809	0	0
2810	0	0.967213
2811	0	0.967213
2812	0	0.967213
2813	0	0.988436
2814	0	0
2815	0	0
2816	0	0
2817	0	0
2818	0	0.333333
2819	0	0.996137
2820	0	0.996133
2821	0	0.996133
2822	0	0.996133
2823	0	0.996133
2824	0	0.996133
2825	0	0.994209
2826	0	0.994209
2827	0	0.992282
2828	0	0.992282
2829	1	1
2830	0	0.99613
2831	0	0.99613
2832	0	0.99613
2833	0	0.99613
2834	0	0.998058
2835	0	0.99806
2836	0	0.996122
2837	1	0
2838	1	0
2839	0	0
2840	0	1
2841	0	1
2842	0	1
2843	0	1
2844	0	0.998054
2845	0	0.998053
2846	0	0.998053
2847	0	0.998053
2848	0	0.997994
2849	0	0.838655
2850	0	0.838655
2851	0	0.928237
2852	0	0.990259
2853	0	0.5
2854	0	0.5
2855	0	1
2856	0	0.333333
2857	0	0.988346
2858	0	0.333333
2859	0	0.333333
2860	0	0.333333
2861	0	0.333333
2862	0	0.333333
2863	0	0.333333
2864	0	0.333333
2865	0	0.986399
2866	0	0.910377
2867	0	0.3
2868	0	0.990272
2869	0	0
2870	0	0
2871	0	0
2872	0	0
2873	0	0
2874	0	0.994152
2875	0	0.996103
2876	0	0.996103
2877	0	0.996103
2878	0	0.994163
2879	0	0
2880	0	0.990291
2881	0	0.990291
2882	0	0.990291
2883	0	0.990291
2884	0	0.992229
2885	0	0.992229
2886	0	0.994163
2887	0	0.996103
2888	0	0.998049
2889	0	0.998049
2890	0	0.998049
2891	0	0.998047
2892	0	0.998047
2893	0	1
2894	0	0
2895	0	0
2896	0	0
2897	0	0
2898	0	0.416667
2899	0	0.405263
2900	0	0.31982
2901	0	0.918809
2902	0	0.666667
2903	0	0.21645
2904	0	0.408081
2905	0	0.4
2906	0	0.696906
2907	0	0.67453
2908	0	0.367534
2909	0	0.190507
2910	0	0.892234
2911	0	0.225296
2912	0	0.27619
2913	0	0.346154
2914	0	0.846154
2915	0	0.951367
2916	0	0.230769
2917	0	0.361111
2918	0	0.5
2919	0	0.5
2920	0	0.5
2921	0	0.5
2922	0	0.5
2923	0	0.5
2924	0	0.5
2925	0	0.5
2926	0	0.980653
2927	0	0.982579
2928	0	0.972984
2929	0	0.972991
2930	0	0
2931	0	0
2932	0	0
2933	0	0
2934	0	0.3
2935	0	0.980613
2936	0	0.98256
2937	0	0.98256
2938	0	0
2939	0	0
2940	0	0
2941	0	0
2942	0	0
2943	0	0
2944	0	0
2945	0	0.986397
2946	0	0.986397
2947	0	0
2948	0	0
2949	0	0
2950	0	0
2951	0	0
2952	0	0
2953	0	0
2954	0	0
2955	0	0
2956	0	0.98641
2957	0	1
2958	0	0.333333
2959	0	0.988268
2960	0	0.988268
2961	0	0
2962	0	0.970966
2963	0	0.970973
2964	0	0.967145
2965	0	0.967145
2966	0	0.622222
2967	0	0.622222
2968	0	0.9883
2969	0	0.98637
2970	0	0.990234
2971	0	0.990234
2972	0	0.990244
2973	0	0
2974	1	0
2975	1	0
2976	1	0
2977	1	0
2978	1	0
2979	1	0
2980	1	0
2981	1	0
2982	1	0
2983	1	0
2984	1	0
2985	1	0
2986	1	0
2987	1	0
2988	1	0
2989	1	0
2990	1	0
2991	1	0
2992	1	0
2993	1	0
2994	1	0
2995	1	0
2996	1	0
2997	1	0
2998	1	0
2999	0	0.988264
3000	0	0.988276
3001	0	0.988276
3002	0	0.990215
3003	0	0.992161
3004	0	0.990225
3005	0	0.984413
3006	0	0
3007	0	0
3008	0	0
3009	0	0
3010	0	0
3011	0	0.978641
3012	0	0.1
3013	0	0.978537
3014	0	0
3015	0	0
3016	0	0
3017	0	0
3018	0	0
3019	0	0
3020	0	0
3021	0	0
3022	0	0
3023	0	0
3024	0	0
3025	0	0
3026	0	0
3027	0	0
3028	0	0
3029	0	0
3030	0	0
3031	0	0
3032	0	0
3033	0	0
3034	0	0
3035	0	0
3036	0	0
3037	0	0
3038	0	0
3039	0	0
3040	0	0
3041	0	0
3042	0	0
3043	0	0
3044	0	0
3045	0	0
3046	0	0
3047	0	0
3048	0	0
3049	0	0
3050	0	0
3051	0	0
3052	0	0.333333
3053	0	0.333333
3054	0	0.3
3055	0	0.3
3056	0	0.976586
3057	0	0.976581
3058	0	0.666667
3059	0	0
3060	0	0
3061	0	0
3062	0	0
3063	0	0
3064	0	0.964879
3065	0	0.963088
3066	0	0.481801
3067	0	0.593846
3068	0	0.679842
3069	0	0.166667
3070	0	0.166667
3071	0	0.166667
3072	0	0.166667
3073	0	0.955244
3074	0	0.955242
3075	0	0
3076	0	0
3077	0	0
3078	0	0
3079	0	0
3080	0	0
3081	0	0
3082	0	0
3083	0	0
3084	0	0.959046
3085	0	0.0833333
3086	0	0.133333
3087	0	0.968801
3088	0	0
3089	0	0
3090	0	0
3091	0	0
3092	0	0
3093	0	0
3094	0	0
3095	0	0
3096	0	0
3097	0	0
3098	0	0
3099	0	0
3100	0	0
3101	0	0
3102	0	0
3103	0	0
3104	0	0
3105	0	0
3106	0	0
3107	0	0
3108	0	0
3109	0	0
3110	0	0
3111	0	0
3112	0	0
3113	0	0
3114	0	0
3115	0	0
3116	0	0
3117	0	0
3118	0	0
3119	0	0
3120	0	0
3121	0	0
3122	0	0
3123	0	0
3124	0	0
3125	0	0
3126	0	0
3127	0	0
3128	0	0
3129	0	0
3130	0	0
3131	0	0
3132	0	0
3133	0	0.966839
3134	0	0
3135	0	0
3136	0	0
3137	0	0
3138	0	0
3139	0	0
3140	0	0
3141	0	0
3142	0	0.96871
3143	0	0
3144	0	0
3145	0	0
3146	0	0
3147	0	0
3148	0	0
3149	0	0
3150	0	0
3151	0	0.968739
3152	0	0.968739
3153	0	0.5
3154	0	0.5
3155	0	0.5
3156	0	0.166667
3157	0	0
3158	0	0
3159	0	0
3160	0	0
3161	0	0
3162	0	0.952368
3163	0	0.458333
3164	0	0.458333
3165	0	0.375
3166	0	0.342857
3167	0	0.875193
3168	0	0.785052
3169	0	0
3170	0	0
3171	0	0.122807
3172	0	0.0842105
3173	0	0.468468
3174	0	0.112554
3175	0	0.604724
3176	0	0
3177	0	0
3178	0	0
3179	0	0
3180	0	0
3181	0	0
3182	0	0
3183	0	0
3184	0	0.962274
3185	0	0
3186	0	0
3187	0	0
3188	0	0
3189	0	0
3190	0	0
3191	0	0
3192	0	0
3193	0	0
3194	0	0
3195	0	0
3196	0	0
3197	0	0
3198	0	0
3199	0	0
3200	0	0
3201	0	0
3202	0	0
3203	0	0
3204	0	0
3205	0	0
3206	0	0
3207	0	0
3208	0	0
3209	0	0
3210	0	0
3211	0	0
3212	0	0
3213	0	0
3214	0	0
3215	0	0
3216	0	0
3217	0	0
3218	0	0
3219	0	0
3220	0	0
3221	0	0
3222	0	0
3223	0	0
3224	0	0
3225	0	0
3226	0	0
3227	0	0
3228	0	0
3229	0	0
3230	0	0
3231	0	0
3232	0	0
3233	0	0
3234	0	0
3235	0	0
3236	0	0
3237	0	0
3238	0	0
3239	0	0
3240	0	0
3241	0	0
3242	0	0
3243	0	0
3244	0	0
3245	0	0
3246	0	0
3247	0	0
3248	0	0
3249	0	0
3250	0	0
3251	0	0
3252	0	0
3253	0	0
3254	0	0
3255	0	0
3256	0	0
3257	0	0.955438
3258	0	0.961078
3259	0	0.961076
3260	0	0.854701
3261	0	0.854701
3262	0	0.854701
3263	0	0.534483
3264	0	0.468817
3265	0	0.337815
3266	0	0.290185
3267	0	0.887115
3268	0	0.884539
3269	0	0.628571
3270	0	0.494505
3271	0	0.340659
3272	0	0.17619
3273	0	0.408864
3274	0	0.193297
3275	0	0.632648
3276	0	0.567918
3277	0	0
3278	0	0
3279	0	0
3280	0	0
3281	0	0
3282	0	0
3283	0	0
3284	0	0
3285	0	0
3286	0	0
3287	0	0
3288	0	0
3289	0	0
3290	0	0.402852
3291	0	0.402852
3292	0	0.381513
3293	0	0.381513
3294	0	0.274633
3295	0	0.709455
3296	0	0
3297	0	0
3298	0	0
3299	0	0
3300	0	0
3301	0	0
3302	0	0
3303	0	0
3304	0	0
3305	0	0
3306	0	0
3307	0	0
3308	0	0
3309	0	0
3310	0	0
3311	0	0
3312	0	0
3313	0	0
3314	0	0
3315	0	0
3316	0	0
3317	0	0
3318	0	0
3319	0	0
3320	0	0
3321	0	0
3322	0	0
3323	0	0
3324	0	0
3325	0	0
3326	0	0
3327	0	0
3328	0	0
3329	0	0.460591
3330	0	0.460591
3331	0	0.460591
3332	0	0.460591
3333	0	0.460591
3334	0	0.460591
3335	0	0.429885
3336	0	0.429885
3337	0	0.429885
3338	0	0.311373
3339	0	0.288099
3340	0	0.288099
3341	0	0.594633
3342	0	0.584727
3343	0	0.586764
3344	0	0.232787
3345	0	0.297436
3346	0	0.270513
3347	0	0.2861
3348	0	0.258537
3349	0	0.284146
3350	0	0.259756
3351	0	0.246225
3352	0	0.246225
3353	0	0.270616
3354	0	0.247357
3355	0	0.236364
3356	0	0.195294
3357	0	0.159774
3358	0	0.127092
3359	0	0.116197
3360	0	0.281098
3361	0	0.102717
3362	0	0.181927
3363	0	0.160165
3364	0	0
3365	0	0
3366	0	0
3367	0	0
3368	0	0
3369	0	0
3370	0	0
3371	0	0
3372	0	0
3373	0	0
3374	0	0
3375	0	0
3376	0	0
3377	0	0
3378	0	0
3379	0	0
3380	0	0
3381	0	0
3382	0	0
3383	0	0.166667
3384	0	0.0790709
3385	0	0.075868
3386	0	0.180906
3387	0	0.165472
3388	0	0
3389	0	0
3390	0	0
3391	0	0
3392	0	0
3393	0	0
3394	0	0
3395	0	0
3396	0	0
3397	0	0
3398	0	0
3399	0	0
3400	0	0
3401	0	0
3402	0	0
3403	0	0
3404	0	0
3405	0	0
3406	0	0
3407	0	0
3408	0	0
3409	0	0
3410	0	0
3411	0	0
3412	0	0
3413	0	0
3414	0	0
3415	0	0
3416	0	0
3417	0	0
3418	0	0
3419	0	0
3420	0	0
3421	0	0
3422	0	0
3423	0	0.106595
3424	0	0.103007
3425	0	0.0873494
3426	0	0.0776305
3427	0	0.0108696
3428	0	0
3429	0	0
3430	0	0.0181818
3431	0	0.0222222
3432	0	0
3433	0	0
3434	0	0
3435	0	0
3436	0	0
3437	0	0
3438	0	0
3439	0	0
3440	0	0
3441	0	0.5297
3442	0	0.497097
3443	0	0.471698
3444	0	0.597242
3445	0	0.620664
3446	0	0.494505
3447	0	0.428571
3448	0	0
3449	0	0
3450	0	0
3451	0	0
3452	0	0
3453	0	0
3454	0	0
3455	0	0
3456	0	0
3457	0	0
3458	0	0
3459	0	0
3460	0	0
3461	0	0
3462	0	0
3463	0	0
3464	0	0
3465	0	0
3466	0	0
3467	0	0
3468	0	0
3469	0	0
3470	0	0
3471	0	0.047619
3472	0	0.047619
3473	0	0.047619
3474	0	0.047619
3475	0	0.047619
3476	0	0
3477	0	0
3478	0	0
3479	0	0
3480	0	0
3481	0	0.133333
3482	0	0.115385
3483	0	0.0909091
3484	0	0.0909091
3485	0	0.0909091
3486	0	0.0909091
3487	0	0.136364
3488	0	0.136364
3489	0	0.136364
3490	0	0.136364
3491	0	0.136364
3492	0	0.136364
3493	0	0.136364
3494	0	0.136364
3495	0	0.136364
3496	0	0.136364
3497	0	0.136364
3498	0	0.136364
3499	0	0.19697
3500	0	0.19697
3501	0	0.139706
3502	0	0.124183
3503	0	0.327485
3504	0	0.269006
3505	0	0.269006
3506	0	0.269006
3507	0	0.209524
3508	0	0.269231
3509	0	0.269231
3510	0	0.358974
3511	0	0.358974
3512	0	0.307692
3513	0	0.307692
3514	0	0.307692
3515	0	0.266667
3516	0	0.266667
3517	0	0.27619
3518	0	0.27619
3519	0	0.285714
3520	0	0.32967
3521	0	0.290909
3522	0	0.175824
3523	0	0.230769
3524	0	0.230769
3525	0	0.230769
3526	0	0.230769
3527	0	0.241758
3528	0	0.183824
3529	0	0.25
3530	0	0.25
3531	0	0.281046
3532	0	0.251462
3533	0	0.251462
3534	0	0.251462
3535	0	0.226316
3536	0	0.226316
3537	0	0.204762
3538	0	0.199134
3539	0	0.199134
3540	0	0.231061
3541	0	0.238859
3542	0	0.241742
3543	0	0.239958
3544	0	0.268687
3545	0	0.281184
3546	0	0.278746
3547	0	0.381713
3548	0	0.174206
3549	0	0.154688
3550	0	0.172721
3551	0	0.157902
3552	0	0.102219
3553	0	0.0636917
3554	0	0.0689711
3555	0	0.066612
3556	0	0.0652898
3557	0	0.0625912
3558	0	0.0606414
3559	0	0.0889787
3560	0	0.0771058
3561	0	0.0654874
3562	0	0.0681966
3563	0	0.0651615
3564	0	0.0648613
3565	0	0.0486449
3566	0	0.0464963
3567	0	0.0474619
3568	0	0.0352295
3569	0	0.041808
3570	0	0.0532447
3571	0	0.0546448
3572	0	0.0654825
3573	0	0.0689414
3574	0	0.0750968
3575	0	0.0685459
3576	0	0.0690384
3577	0	0.0629703
3578	0	0.0658586
3579	0	0.0882353
3580	0	0.0846395
3581	0	0.0320629
3582	0	0.0272109
3583	0	0.0333025
3584	0	0.0343434
3585	0	0.0317125
3586	0	0.0317125
3587	0	0.0317125
3588	0	0.0292683
3589	0	0.026087
3590	0	0.026087
3591	0	0.026087
3592	0	0.0272727
3593	0	0.0338266
3594	0	0.0338266
3595	0	0.0338266
3596	0	0.0323774
3597	0	0.0323774
3598	0	0.0390071
3599	0	0.0319149
3600	0	0.104542
3601	0	0.10264
3602	0	0.113806
3603	0	0.131941
3604	0	0.0608466
3605	0	0.0608466
3606	0	0.0707692
3607	0	0.0707692
3608	0	0.048433
3609	0	0.0512821
3610	0	0.0512821
3611	0	0.214961
3612	0	0.0935673
3613	0	0.0935673
3614	0	0.0935673
3615	0	0.0935673
3616	0	0.0935673
3617	0	0.0935673
3618	0	0.0935673
3619	0	0.0935673
3620	0	0.0935673
3621	0	0.0935673
3622	0	0.0935673
3623	0	0.0935673
3624	0	0.0935673
3625	0	0.0935673
3626	0	0.0935673
3627	0	0.0935673
3628	0	0.0935673
3629	0	0.0935673
3630	0	0.0935673
3631	0	0.0935673
3632	0	0.0935673
3633	0	0.0842105
3634	0	0.0947368
3635	0	0.0947368
3636	0	0.0947368
3637	0	0.0947368
3638	0	0.0947368
3639	0	0.0333333
3640	0	0.0333333
3641	0	0.0333333
3642	0	0.0333333
3643	0	0.0333333
3644	0	0.0333333
3645	0	0.0333333
3646	0	0.0333333
3647	0	0.0333333
3648	0	0.0333333
3649	0	0.0333333
3650	0	0.0333333
3651	0	0.0333333
3652	0	0.0333333
3653	0	0.0333333
3654	0	0.0333333
3655	0	0.0333333
3656	0	0.0333333
3657	0	0.0333333
3658	0	0.0333333
3659	0	0.0526316
3660	0	0.0526316
3661	0	0.0526316
3662	0	0.1
3663	0	0.1
3664	0	0.0578947
3665	0	0.047619
3666	0	0.0294118
3667	0	0.0857143
3668	0	0.0857143
3669	0	0.0779221
3670	0	0.0779221
3671	0	0.0779221
3672	0	0.0779221
3673	0	0.0779221
3674	0	0.0779221
3675	0	0.0779221
3676	0	0.161345
3677	0	0.130769
3678	0	0.12439
3679	0	0.12439
3680	0	0.143288
3681	0	0.143288
3682	0	0.133473
3683	0	0.12862
3684	0	0.157384
3685	0	0.0683473
3686	0	0.116869
3687	0	0.116231
3688	0	0.116231
3689	0	0.116231
3690	0	0.0708899
3691	0	0.0819252
3692	0	0.0798771
3693	0	0.0798771
3694	0	0.108551
3695	0	0.109063
3696	0	0.193548
3697	0	0.193036
3698	0	0.193036
3699	0	0.314388
3700	0	0.332309
3701	0	0.256651
3702	0	0.19071
3703	0	0.19071
3704	0	0.19071
3705	0	0.184558
3706	0	0.184558
3707	0	0.139298
3708	0	0.153465
3709	0	0.156566
3710	0	0.153861
3711	0	0.0481057
3712	0	0.0456066
3713	0	0.0240103
3714	0	0.0244497
3715	0	0.0148744
3716	0	0.0140201
3717	0	0.016722
3718	0	0.0160849
3719	0	0.0160958
3720	0	0.0164662
3721	0	0.0232199
3722	0	0.0224124
3723	0	0.0211054
3724	0	0.02
3725	0	0.0196794
3726	0	0.0566667
3727	0	0.0566667
3728	0	0.0566667
3729	0	0.0188641
3730	0	0.021064
3731	0	0.0220143
3732	0	0.0121816
3733	0	0.0121816
3734	0	0.0111111
3735	0	0.010101
3736	0	0.010101
3737	0	0.0105708
3738	0	0.0105708
3739	0	0.0105708
3740	0	0.0105708
3741	0	0.0116279
3742	0	0.0116279
3743	0	0.0116279
3744	0	0.012685
3745	0	0.0147992
3746	0	0.0489257
3747	0	0.0444994
3748	0	0.0395593
3749	0	0.037637
3750	0	0.0128205
3751	0	0.0128205
3752	0	0.0151515
3753	0	0.0151515
3754	0	0.0128205
3755	0	0
3756	0	0
3757	0	0.00952381
3758	0	0.00952381
3759	0	0.00952381
3760	0	0.00952381
3761	0	1
3762	0	1
3763	0	0.00952381
3764	0	0.00833333
3765	0	0.00735294
3766	0	0.0190476
3767	0	0.0181159
3768	0	0.0421498
3769	0	0.041762
3770	0	0.0434466
3771	0	0.0441779
3772	0	0.0611896
3773	0	0.0713159
3774	0	0.0721094
3775	0	0.0857537
3776	0	0.0855844
3777	0	0.0809742
3778	0	0.0817066
3779	0	0.0765979
3780	0	0.0706816
3781	0	0.0890789
3782	0	0.00307692
3783	0	0
3784	0	0
3785	0	0
3786	0	0
3787	0	0
3788	0	0
3789	0	0
3790	0	0
3791	0	0
3792	0	0
3793	0	0
3794	0	0
3795	0	0
3796	0	0
3797	0	0
3798	0	0
3799	0	0
3800	0	0
3801	0	0
3802	0	0
3803	0	0
3804	0	0
3805	0	0
3806	0	0
3807	0	0
3808	0	0.451952
3809	0	0
3810	0	0
3811	0	0
3812	0	0
3813	0	0
3814	0	0
3815	0	0
3816	0	0.445035
3817	0	0.426871
3818	0	0.435918
3819	0	0
3820	0	0
3821	0	0
3822	0	0
3823	0	0
3824	0	0
3825	0	0
3826	0	0
3827	0	0
3828	0	0
3829	0	0
3830	0	0
3831	0	0
3832	0	0
3833	0	0
3834	0	0
3835	0	0
3836	0	0
3837	0	0
3838	0	0
3839	0	0
3840	0	0
3841	0	0
3842	0	0
3843	0	0
3844	0	0
3845	0	0
3846	0	0
3847	0	0.032967
3848	0	0.032967
3849	0	0.0286369
3850	0	0.0255863
3851	0	0.0265006
3852	0	0.0152454
3853	0	0.0142294
3854	0	0.0142294
3855	0	0.0199955
3856	0	0
3857	0	0
3858	0	0
3859	0	0
3860	0	0.333333
3861	0	0.333333
3862	0	0.333333
3863	0	0.333333
3864	0	0.333333
3865	0	0.333333
3866	0	0.333333
3867	0	0
3868	0	0
3869	0	0
3870	0	0
3871	0	0
3872	0	0
3873	0	0
3874	0	0
3875	0	0
3876	0	0
3877	0	0
3878	0	0
3879	0	0.0159383
3880	0	0.0155427
3881	0	0.0157882
3882	0	0
3883	0	0
3884	0	0
3885	0	0.0145092
3886	0	0.0119913
3887	0	0.0125346
3888	0	0.0119979
3889	0	0.0160997
3890	0	0.0227872
3891	0	0.0229
3892	0	0.0231143
3893	0	0.0236569
3894	0	0.0253063
3895	0	0.0254539
3896	0	0.0273692
3897	0	0.0216522
3898	0	0.0221665
3899	0	0.0230354
3900	0	0.0237974
3901	0	0.0298797
3902	0	0.0309988
3903	0	0.0888889
3904	0	0.047619
3905	0	0.1
3906	0	0.1
3907	0	0.1
3908	0	0.1
3909	0	0.1
3910	0	0.1
3911	0	0
3912	0	0
3913	0	0
3914	0	0
3915	0	0
3916	0	0
3917	0	0
3918	0	0.0389705
3919	0	0.0442122
3920	0	0.0518217
3921	0	0.061704
3922	0	0.0535693
3923	0	0.106941
3924	0	0.147337
3925	0	0.189356
3926	0	0.236842
3927	0	0.270423
3928	0	0.294996
3929	0	0.303935
3930	0	0.341014
3931	0	0.333157
3932	0	0.344262
3933	0	0.389246
3934	0	0.402904
3935	0	0.417293
3936	0	0.417293
3937	0	0.432468
3938	0	0
3939	0	0
3940	0	0
3941	0	0.404898
3942	0	0.422619
3943	0	0.392157
3944	0	0.522353
3945	0	0.543673
3946	0	0.543673
3947	0	0.543673
3948	0	0.543673
3949	0	0.566327
3950	0	0.566327
3951	0	0.566327
3952	0	0.590426
3953	0	0.590426
3954	0	0.616096
3955	0	0.616096
3956	0	0.643478
3957	0	0.643478
3958	0	0.643478
3959	0	0.643478
3960	0	0.643478
3961	0	0.643478
3962	0	0.643478
3963	0	0.643478
3964	0	0.643478
3965	0	0.643478
3966	0	0.643478
3967	0	0.643478
3968	0	0.643478
3969	0	0.643478
3970	0	0.643478
3971	0	0.643478
3972	0	0.643478
3973	0	0.643478
3974	0	0.643478
3975	0	0.643478
3976	0	0.643478
3977	0	0.643478
3978	0	0.643478
3979	0	0.643478
3980	0	0.616096
3981	0	0.616096
3982	0	0.616096
3983	0	0.616096
3984	0	0.616096
3985	0	0.616096
3986	0	0.616096
3987	0	0.616096
3988	0	0.643478
3989	0	0.643478
3990	0	0.643478
3991	0	0.643478
3992	0	0.643478
3993	0	0.643478
3994	0	0.643478
3995	0	0.672727
3996	0	0.672727
3997	0	0.672727
3998	0	0.672727
3999	0	0.672727
4000	0	0.672727
4001	0	0.672727
4002	0	0.672727
4003	0	0.672727
4004	0	0.672727
4005	0	0.672727
4006	0	0.672727
4007	0	0.0277778
4008	0	0.0277778
4009	0	0
4010	0	0
4011	0	0
4012	0	0
4013	0	0
4014	0	0
4015	0	0
4016	0	0
4017	0	0
4018	0	0
4019	0	0
4020	0	0
4021	0	0
4022	0	0
4023	0	0
4024	0	0
4025	0	0
4026	0	0
4027	0	0
4028	0	0
4029	0	0
4030	0	0
4031	0	0
4032	0	0
4033	0	0
4034	0	0
4035	0	0
4036	0	0
4037	0	0
4038	0	0
4039	0	0
4040	0	0
4041	0	0
4042	0	0
4043	0	0
4044	0	0
4045	0	0
4046	0	0
4047	0	0
4048	0	0
4049	0	0
4050	0	0
4051	0	0
4052	0	0
4053	0	0
4054	0	0
4055	0	0
4056	0	0
4057	0	0.434783
4058	0	0.434783
4059	0	0.209494
4060	0	0.235817
4061	0	0.49878
4062	0	0.49878
4063	0	0.524359
4064	0	0.524359
4065	0	0.524359
4066	0	0.524359
4067	0	0.524359
4068	0	0.47619
4069	0	0.47619
4070	0	0.47619
4071	0	0.47619
4072	0	0.47619
4073	0	0.47619
4074	0	0.47619
4075	0	0.47619
4076	0	0.47619
4077	0	0.47619
4078	0	0.0879121
4079	0	0.233871
4080	0	0.384437
4081	0	0.368771
4082	0	0.45515
4083	0	0.551495
4084	0	0.551495
4085	0	0.551495
4086	0	0.270684
4087	0	0.279367
4088	0	0.50303
4089	0	0.50303
4090	0	0.50303
4091	0	0.50303
4092	0	0.50303
4093	0	0.50303
4094	0	0.50303
4095	0	0.50303
4096	0	0.50303
4097	0	0.50303
4098	0	0.50303
4099	0	0.481159
4100	0	0.481159
4101	0	0.550388
4102	0	0.550388
4103	0	0.559197
4104	0	0.559197
4105	0	0.559197
4106	0	0.559197
4107	0	0.567677
4108	0	0.567677
4109	0	0.567677
4110	0	0.567677
4111	0	0.452763
4112	0	0.452763
4113	0	0.312121
4114	0	0.312121
4115	0	0.50303
4116	0	0.50303
4117	0	0.50303
4118	0	0.50303
4119	0	0.030303
4120	0	0.030303
4121	0	0.030303
4122	0	0.030303
4123	0	0.0909091
4124	0	0.0909091
4125	0	0.371212
4126	0	0.269454
4127	0	0.269454
4128	0	0.240404
4129	0	0.240404
4130	0	0.241414
4131	0	0.241414
4132	0	0.232558
4133	0	0.231313
4134	0	0.123232
4135	0	0.123232
4136	0	0.193846
4137	0	0.193846
4138	0	0.17759
4139	0	0.258586
4140	0	0.570076
4141	0	0.601587
4142	0	0.601587
4143	0	0.601587
4144	0	0.601587
4145	0	0.686401
4146	0	0.716908
4147	0	0.716908
4148	0	0.716908
4149	0	0.716908
4150	0	0.716908
4151	0	0.716908
4152	0	0.716908
4153	0	0.716908
4154	0	0.716908
4155	0	0.716908
4156	0	0.716908
4157	0	0.716908
4158	0	0.716908
4159	0	0.716908
4160	0	0.686401
4161	0	0.686401
4162	0	0.686401
4163	0	0.686401
4164	0	0.300336
4165	0	0.300336
4166	0	0.300336
4167	0	0.716908
4168	0	0.716908
4169	0	0.716908
4170	0	0.716908
4171	0	0.716908
4172	0	0.716908
4173	0	0.716908
4174	0	0.716908
4175	0	0.716908
4176	0	0.716908
4177	0	0.716908
4178	0	0.716908
4179	0	0.716908
4180	0	0.716908
4181	0	0.716908
4182	0	0.716908
4183	0	0.716908
4184	0	0.716908
4185	0	0.716908
4186	0	0.716908
4187	0	0.716908
4188	0	0.716908
4189	0	0.716908
4190	0	0.716908
4191	0	0.716908
4192	0	0.716908
4193	0	0.716908
4194	0	0.716908
4195	0	0.716908
4196	0	0.716908
4197	0	0.716908
4198	0	0.716908
4199	0	0.716908
4200	0	0.716908
4201	0	0.716908
4202	0	0.716908
4203	0	0.716908
4204	0	0.716908
4205	0	0.716908
4206	0	0.716908
4207	0	0.716908
4208	0	0.716908
4209	0	0.716908
4210	0	0.716908
4211	0	0.716908
4212	0	0.716908
4213	0	0.716908
4214	0	0.716908
4215	0	0.716908
4216	0	0.716908
4217	0	0.716908
4218	0	0.716908
4219	0	0.716908
4220	0	0.716908
4221	0	0.716908
4222	0	0.716908
4223	0	0.716908
4224	0	0.716908
4225	0	0.716908
4226	0	0.716908
4227	0	0.716908
4228	0	0.716908
4229	0	0.716908
4230	0	0.716908
4231	0	0.716908
4232	0	0.716908
4233	0	0.716908
4234	0	0.716908
4235	0	0.716908
4236	0	0.716908
4237	0	0.716908
4238	0	0.716908
4239	0	0.716908
4240	0	0.645411
4241	0	0.645411
4242	0	0.645411
4243	0	0.584644
4244	0	0.553191
4245	0	0.617946
4246	0	0.644444
4247	0	0.141667
4248	0	0.556892
4249	0	0.581643
4250	0	0.581643
4251	0	0.581643
4252	0	0.581643
4253	0	0.581643
4254	0	0.581643
4255	0	0.581643
4256	0	0.581643
4257	0	0.155372
4258	0	0.168966
4259	0	0.155923
4260	0	0.157323
4261	0	0.144663
4262	0	0.144663
4263	0	0.161983
4264	0	0.183648
4265	0	0.186619
4266	0	0.205002
4267	0	0.205002
4268	0	0.204035
4269	0	0.246575
4270	0	0.279631
4271	0	0.385338
4272	0	0.385338
4273	0	0.398701
4274	0	0.398701
4275	0	0.398701
4276	0	0.384712
4277	0	0.384712
4278	0	0.384712
4279	0	0.413468
4280	0	0.326689
4281	0	0.244584
4282	0	0.244584
4283	0	0.429071
4284	0	0.105263
4285	0	0.216702
4286	0	0.116809
4287	0	0.225689
4288	0	0.225689
4289	0	0.23454
4290	0	0.391121
4291	0	0.501961
4292	0	0.470972
4293	0	0.489442
4294	0	0.489442
4295	0	0.489442
4296	0	0.470972
4297	0	0.470972
4298	0	0.470972
4299	0	0.470972
4300	0	0.470972
4301	0	0.50902
4302	0	0.50902
4303	0	0.50902
4304	0	0.50902
4305	0	0.50902
4306	0	0.50902
4307	0	0.489442
4308	0	0.489442
4309	0	0.470972
4310	0	0.470972
4311	0	0.489442
4312	0	0.463047
4313	0	0.489442
4314	0	0.489442
4315	0	0.489442
4316	0	0.489442
4317	0	0.489442
4318	0	0.489442
4319	0	0.489442
4320	0	0.489442
4321	0	0.489442
4322	0	0.489442
4323	0	0.489442
4324	0	0.489442
4325	0	0.489442
4326	0	0.489442
4327	0	0.465167
4328	0	0.269429
4329	0	0.269429
4330	0	0.277656
4331	0	0.325397
4332	0	0.22417
4333	0	0.228858
4334	0	0.248597
4335	0	0.369796
4336	0	0.369796
4337	0	0.311373
4338	0	0.252525
4339	0	0.264271
4340	0	0.253599
4341	0	0.124031
4342	0	0.166827
4343	0	0.167428
4344	0	0.167428
4345	0	0.152191
4346	0	0.151408
4347	0	0.166667
4348	0	0.135965
4349	0	0.138478
4350	0	0.147503
4351	0	0.164642
4352	0	0.173542
4353	0	0.178495
4354	0	0.216931
4355	0	0.18
4356	0	0.188406
4357	0	0.173913
4358	0	0.272727
4359	0	0.333333
4360	0	0.416667
4361	0	0.416667
4362	0	0.416667
4363	0	0.416667
4364	0	0.416667
4365	0	0.416667
4366	0	0.416667
4367	0	0.416667
4368	0	0.416667
4369	0	0.416667
4370	0	0.416667
4371	0	0.416667
4372	0	0.333333
4373	0	0.333333
4374	0	0.333333
4375	0	0.333333
4376	0	0.333333
4377	0	0.333333
4378	0	0.333333
4379	0	0.333333
4380	0	0.416667
4381	0	0.416667
4382	0	0.416667
4383	0	0.416667
4384	0	0.416667
4385	0	0.416667
4386	0	0.416667
4387	0	0.416667
4388	0	0.416667
4389	0	0.416667
4390	0	0.416667
4391	0	0.416667
4392	0	0.416667
4393	0	0.416667
4394	0	0.416667
4395	0	0.416667
4396	0	0.416667
4397	0	0.416667
4398	0	0.416667
4399	0	0.416667
4400	0	0.416667
4401	0	0.416667
4402	0	0.535714
4403	0	0.535714
4404	0	0.535714
4405	0	0.535714
4406	0	0.535714
4407	0	0.535714
4408	0	0.535714
4409	0	0.535714
4410	0	0.535714
4411	0	0.535714
4412	0	0.166667
4413	0	0.25
4414	0	0.25
4415	0	0.25
4416	0	0.535714
4417	0	0.535714
4418	0	0.535714
4419	0	0.535714
4420	0	0.166667
4421	0	0.25
4422	0	0.25
4423	0	0.25
4424	0	0.25
4425	0	0.25
4426	0	0.25
4427	0	0.4
4428	0	0.535714
4429	0	0.535714
4430	0	0.535714
4431	0	0.535714
4432	0	0.535714
4433	0	0.535714
4434	0	0.535714
4435	0	0.535714
4436	0	0.535714
4437	0	0.535714
4438	0	0.535714
4439	0	0.535714
4440	0	0.535714
4441	0	0.535714
4442	0	0.535714
4443	0	0.535714
4444	0	0
4445	0	0
4446	0	0
4447	0	0
4448	0	0
4449	0	0
4450	0	0
4451	0	0
4452	0	0
4453	0	0
4454	0	0
4455	0	0
4456	0	0
4457	0	0
4458	0	0
4459	0	0
4460	0	0
4461	0	0
4462	0	0
4463	0	0
4464	0	0
4465	0	0
4466	0	0
4467	0	0
4468	0	0
4469	0	0
4470	0	0
4471	0	0
4472	0	0
4473	0	0
4474	0	0
4475	0	0
4476	0	0
4477	0	0
4478	0	0
4479	0	0
4480	0	0
4481	0	0
4482	0	0
4483	0	0
4484	0	0
4485	0	0
4486	0	0
4487	0	0
4488	0	0
4489	0	0
4490	0	0
4491	0	0
4492	1	0
4493	0	0
4494	0	0
4495	0	0
4496	0	0
4497	1	0
4498	1	0
4499	1	0
4500	1	0
4501	1	0
4502	0	0
4503	0	0
4504	0	0
4505	0	0
4506	0	0
4507	0	0
4508	0	0
4509	0	0
4510	0	0
4511	0	0
4512	0	0
4513	0	0
4514	0	0
4515	0	0
4516	0	0
4517	0	0
4518	0	0
4519	0	0
4520	0	0
4521	0	0
4522	0	0
4523	0	0
4524	0	0
4525	0	0
4526	0	0
4527	0	0
4528	0	0
4529	0	0
4530	0	0
4531	0	0
4532	0	0
4533	0	0
4534	0	0
4535	0	0
4536	0	0
4537	0	0
4538	0	0
4539	0	0
4540	0	0
4541	0	0
4542	0	0
4543	0	0
4544	0	0
4545	0	0
4546	0	0
4547	0	0
4548	0	0
4549	0	0
4550	0	0
4551	0	0
4552	0	0
4553	0	0
4554	1	0
4555	1	0
4556	1	0
4557	0	0
4558	0	0
4559	0	0
4560	0	0
4561	0	0
4562	0	0
4563	0	0
4564	0	0
4565	0	0
4566	0	0
4567	0	0
4568	0	0
4569	0	0
4570	0	0
4571	0	0
4572	0	0
4573	0	0
4574	0	0
4575	0	0
4576	0	0
4577	0	0
4578	0	0
4579	0	0
4580	0	0
4581	0	0
4582	0	0
4583	0	0
4584	0	0
4585	0	0
4586	0	0
4587	0	0
4588	0	0
4589	0	0
4590	0	0
4591	0	0
4592	0	0
4593	0	0
4594	0	0
4595	0	0
4596	0	0
4597	0	0
4598	0	0
4599	0	0
4600	0	0
4601	0	0
4602	0	0
4603	0	0
4604	0	0
4605	0	0
4606	0	0
4607	0	0
4608	0	0
4609	0	0
4610	0	0
4611	0	0
4612	0	0
4613	0	0
4614	0	0
4615	0	0
4616	0	0
4617	0	0
4618	0	0
4619	0	0
4620	0	0
4621	0	0
4622	0	0
4623	0	0
4624	0	0
4625	0	0
4626	0	0
4627	0	0
4628	0	0
4629	0	0
4630	0	0
4631	0	0
4632	0	0
4633	0	0
4634	0	0
4635	0	0
4636	0	0
4637	0	0
4638	0	0
4639	0	0
4640	0	0
4641	0	0
4642	0	0
4643	0	0
4644	0	0
4645	0	0
4646	0	0
4647	0	0
4648	0	0
4649	0	0
4650	0	0
4651	0	0
4652	0	0
4653	0	0
4654	0	0
4655	0	0
4656	0	0
4657	0	0
4658	0	0
4659	0	0
4660	0	0
4661	0	0
4662	0	0
4663	0	0
4664	0	0
4665	0	0
4666	0	0
4667	0	0
4668	0	0
4669	0	0
4670	0	0
4671	0	0
4672	0	0
4673	0	0
4674	0	0
4675	0	0
4676	0	0
4677	0	0
4678	0	0
4679	0	0
4680	0	0
4681	0	0
4682	0	0
4683	0	0
4684	0	0
4685	0	0
4686	0	0
4687	0	0
4688	0	0
4689	0	0
4690	0	0
4691	0	0
4692	0	0
4693	0	0
4694	0	0
4695	0	0
4696	0	0
4697	0	0
4698	0	0
4699	0	0
4700	0	0
4701	0	0
4702	0	0
4703	0	0
4704	0	0
4705	0	0
4706	0	0
4707	0	0
4708	0	0
4709	0	0
4710	0	0
4711	0	0
4712	0	0
4713	0	0
4714	0	0
4715	0	0
4716	0	0
4717	0	0
4718	0	0
4719	0	0
4720	0	0
4721	0	0
4722	0	0
4723	0	0
4724	0	0
4725	0	0
4726	0	0
4727	0	0
4728	0	0
4729	0	0
4730	0	0
4731	0	0
4732	0	0
4733	0	0
4734	0	0
4735	0	0
4736	0	0
4737	0	0
4738	0	0
4739	0	0
4740	0	0
4741	0	0
4742	0	0
4743	0	0
4744	0	0
4745	0	0
4746	0	0
4747	0	0
4748	0	0
4749	0	0
4750	0	0
4751	0	0
4752	0	0
4753	0	0
4754	0	0
4755	0	0
4756	0	0
4757	0	0
4758	0	0
4759	0	0
4760	0	0
4761	0	0
4762	0	0
4763	0	0
4764	0	0
4765	0	0
4766	0	0
4767	0	0
4768	0	0
4769	0	0
4770	0	0
4771	0	0
4772	0	0
4773	0	0
4774	0	0
4775	0	0
4776	0	0
4777	0	0
4778	0	0
4779	0	0
4780	0	0
4781	0	0
4782	0	0
4783	0	0
4784	0	0
4785	0	0
4786	0	0
4787	0	0
4788	0	0
4789	0	0
4790	0	0
4791	0	0
4792	0	0
4793	0	0
4794	0	0
4795	0	0
4796	0	0
4797	0	0
4798	0	0
4799	0	0
4800	0	0
4801	0	0
4802	0	0
4803	0	0
4804	0	0
4805	0	0
4806	0	0
4807	0	0
4808	0	0
4809	0	0
4810	0	0
4811	0	0
4812	0	0
4813	0	0
4814	0	0
4815	0	0
4816	0	0
4817	0	0
4818	0	0
4819	0	0
4820	0	0
4821	0	0
4822	0	0
4823	0	0
4824	0	0
4825	0	0
4826	0	0
4827	0	0
4828	0	0
4829	0	0
4830	1	0
4831	1	0
4832	1	0
4833	1	0
4834	1	0
4835	1	0
4836	1	0
4837	1	0
4838	1	0
4839	1	0
4840	1	0
4841	0	0
4842	0	0
4843	1	0
4844	1	0
4845	0	0
4846	0	0
4847	0	0
4848	0	0
4849	0	0
4850	0	0
4851	0	0
4852	0	0
4853	0	0
4854	0	0
