Site	ColumnScore	SumOfPairsScore
1	0	0
2	0	0
3	0	0
4	0	0
5	0	0
6	0	0
7	0	0
8	0	0
9	0	0
10	0	0
11	0	0
12	0	0
13	0	0
14	0	0
15	0	0
16	0	0
17	0	0
18	0	0
19	0	0
20	0	0
21	0	0
22	0	0
23	0	0
24	0	0
25	0	0
26	0	0
27	0	0
28	0	0
29	0	0
30	0	0
31	0	0
32	0	0
33	0	0
34	0	0
35	0	0
36	0	0
37	0	0
38	0	0
39	0	0
40	0	0
41	0	0
42	0	0
43	0	0
44	0	0
45	0	0
46	0	0
47	0	0
48	0	0
49	0	0
50	0	0
51	0	0
52	0	0
53	0	0
54	0	0
55	0	0
56	0	0
57	0	0
58	0	0
59	0	0
60	0	0
61	0	0
62	1	0
63	1	0
64	0	0
65	0	0
66	0	0
67	0	0
68	0	0
69	0	0
70	0	0
71	0	0
72	0	0
73	0	0
74	0	0
75	0	0
76	0	0
77	0	0
78	0	0
79	0	0
80	0	0
81	0	0
82	0	0
83	0	0
84	0	0
85	0	0
86	0	0
87	0	0
88	0	0
89	0	0
90	0	0
91	0	0
92	0	0
93	0	0
94	0	0
95	0	0
96	0	0
97	0	0
98	0	0
99	0	0
100	0	0
101	0	0
102	0	0
103	0	0
104	0	0
105	0	0
106	0	0
107	0	0
108	0	0
109	0	0
110	0	0
111	0	0
112	0	0
113	0	0
114	0	0
115	0	0
116	0	0
117	0	0
118	0	0
119	0	0
120	0	0
121	0	0
122	0	0
123	0	0
124	0	0
125	0	0
126	0	0
127	0	0
128	0	0
129	0	0
130	0	0
131	0	0
132	0	0
133	0	0
134	0	0
135	0	0
136	0	0
137	0	0
138	0	0
139	0	0
140	0	0
141	0	0
142	0	0
143	0	0
144	0	0
145	0	0
146	0	0
147	0	0
148	0	0
149	0	0
150	0	0
151	0	0
152	0	0
153	0	0
154	0	0
155	0	0
156	0	0
157	0	0
158	0	0
159	0	0
160	0	0
161	0	0
162	0	0
163	0	0
164	0	0
165	0	0
166	0	0
167	0	0
168	0	0
169	0	0
170	0	0
171	0	0
172	0	0
173	0	0
174	0	0
175	0	0
176	0	0
177	0	0
178	0	0
179	0	0
180	0	0
181	0	0
182	0	0
183	0	0
184	0	0
185	0	0
186	0	0
187	0	0
188	0	0
189	0	0
190	0	0
191	0	0
192	0	0
193	0	0
194	0	0
195	0	0
196	0	0
197	0	0
198	0	0
199	0	0
200	0	0
201	0	0
202	0	0
203	0	0
204	0	0
205	0	0
206	0	0
207	0	0
208	0	0
209	0	0
210	0	0
211	0	0
212	0	0
213	0	0
214	0	0
215	0	0
216	0	0
217	0	0
218	0	0
219	0	0.166667
220	0	0.166667
221	0	0.166667
222	0	0.166667
223	0	0.190476
224	0	0.190476
225	0	0.142857
226	0	0.142857
227	0	0.142857
228	0	0.142857
229	0	0.142857
230	0	0.142857
231	0	0.142857
232	0	0.142857
233	0	0.111111
234	0	0.111111
235	0	0.111111
236	0	0.2
237	0	0.2
238	0	0.2
239	0	0.2
240	0	0.136364
241	0	0.0808824
242	0	0.0643275
243	0	0.293451
244	0	0.306327
245	0	0.0952381
246	0	0.546237
247	0	0.546237
248	0	0.546237
249	0	0.64565
250	0	0.333333
251	0	0.333333
252	0	0.333333
253	0	0.333333
254	0	0.333333
255	0	0.333333
256	0	0.333333
257	0	0.333333
258	0	0.333333
259	0	0.333333
260	0	0.333333
261	0	0.333333
262	0	0.333333
263	0	0.333333
264	0	0.333333
265	0	0.333333
266	0	0.333333
267	0	0.333333
268	0	0.333333
269	0	0.333333
270	0	0.333333
271	0	0.333333
272	0	0.333333
273	0	0.333333
274	0	0.333333
275	0	0.333333
276	0	0.333333
277	0	0.333333
278	0	0.333333
279	0	0.333333
280	0	0.333333
281	0	0.166667
282	0	0.166667
283	0	0
284	0	0
285	0	0
286	0	0
287	0	0
288	0	0
289	0	0.166667
290	0	0.166667
291	0	0.166667
292	0	0.166667
293	0	0.166667
294	0	0.166667
295	0	0.166667
296	0	0.166667
297	0	0.166667
298	0	0.166667
299	0	0.166667
300	0	0.166667
301	0	0.166667
302	0	0.166667
303	0	0.166667
304	0	0.166667
305	0	0.166667
306	0	0.166667
307	0	0.166667
308	0	0.166667
309	0	0.166667
310	0	0.166667
311	0	0.166667
312	0	0.166667
313	0	0.166667
314	0	0.166667
315	0	0.166667
316	0	0.166667
317	0	0.166667
318	0	0.166667
319	0	0.166667
320	0	0.166667
321	0	0.166667
322	0	0.166667
323	0	0.166667
324	0	0.166667
325	0	0.166667
326	0	0.166667
327	0	0.166667
328	0	0.166667
329	0	0.166667
330	0	0.166667
331	0	0.166667
332	0	0.166667
333	0	0.1
334	0	0.1
335	0	0.739985
336	0	0.0549451
337	0	0.0549451
338	0	0.0761905
339	0	0.335332
340	0	0.368168
341	0	0.378071
342	0	0.471642
343	0	0.673324
344	0	0.727679
345	0	0.4
346	0	0.4
347	0	0.4
348	0	0.166667
349	0	0.166667
350	0	0.166667
351	0	0.166667
352	0	0.166667
353	0	0.166667
354	0	0.166667
355	0	0.166667
356	0	0.166667
357	0	0.166667
358	0	0.166667
359	0	0.166667
360	0	0.166667
361	0	0.166667
362	0	0.166667
363	0	0.166667
364	0	0.166667
365	0	0.166667
366	0	0.166667
367	0	0.166667
368	0	0.166667
369	0	0.166667
370	0	0.166667
371	0	0.166667
372	0	0.166667
373	0	0.166667
374	0	0.166667
375	0	0.166667
376	0	0.166667
377	0	0.166667
378	0	0.333333
379	0	0.333333
380	0	0.333333
381	0	0.333333
382	0	0.333333
383	0	0.333333
384	0	0.333333
385	0	0.333333
386	0	0.333333
387	0	0.166667
388	0	0.166667
389	0	0.333333
390	0	0.333333
391	0	0.333333
392	0	0.333333
393	0	0.333333
394	0	0.333333
395	0	0.333333
396	0	0.333333
397	0	0.333333
398	0	0.333333
399	0	0.333333
400	0	0.333333
401	0	0.333333
402	0	0.333333
403	0	0.333333
404	0	0.333333
405	0	0.333333
406	0	0.333333
407	0	0.333333
408	0	0
409	0	0
410	0	0
411	0	0
412	0	0
413	0	0
414	0	0
415	0	0
416	0	0
417	0	0
418	0	0
419	0	0
420	0	0
421	0	0
422	0	0
423	0	0
424	0	0
425	0	0
426	0	0
427	0	0
428	0	0
429	0	0
430	0	0
431	0	0
432	0	0
433	0	0
434	0	0
435	0	0
436	0	0
437	0	0
438	0	0
439	0	0.166667
440	0	0.166667
441	0	0.166667
442	0	0.166667
443	0	0.676753
444	0	0.393103
445	0	0.361793
446	0	0.0714286
447	0	0.0952381
448	0	0.0666667
449	0	0.1
450	0	0
451	0	0
452	0	0
453	0	0
454	0	0
455	0	0
456	0	0
457	0	0
458	0	0
459	0	0
460	0	0
461	0	0
462	0	0
463	0	0
464	0	0
465	0	0
466	0	0
467	0	0
468	0	0
469	0	0
470	0	0
471	0	0
472	0	0
473	0	0
474	0	0.578744
475	0	0.577054
476	0	0.566732
477	0	0.566152
478	0	0.621163
479	0	0.6158
480	0	0.578654
481	0	0.252543
482	0	0
483	0	0
484	0	0
485	0	0.253362
486	0	0.176095
487	0	0.15973
488	0	0.163981
489	0	0.145115
490	0	0.0965519
491	0	0.0849564
492	0	0.190605
493	0	0.304348
494	0	0.0761558
495	0	0.0796292
496	0	0.0868898
497	0	0.0966667
498	0	0.0869565
499	0	0.043956
500	0	0.025641
501	0	0.025641
502	0	0.0222222
503	0	0.0222222
504	0	0.0277778
505	0	0.0833333
506	0	0.0833333
507	0	0.0357143
508	0	0
509	0	0
510	0	0
511	0	0
512	0	0
513	0	0
514	0	0
515	0	0
516	0	0
517	0	0.0638482
518	0	0.0569867
519	0	0.0553112
520	0	0.285355
521	0	0.0511951
522	0	0.04957
523	0	0.0471464
524	0	0.0440478
525	0	0.0470518
526	0	0.0465231
527	0	0.0466092
528	0	0.1
529	0	0
530	0	0.744745
531	0	0.357143
532	0	0.357143
533	0	0
534	0	0
535	0	0
536	0	0
537	0	0.214286
538	0	0.214286
539	0	0.0509082
540	0	0.0450872
541	0	0.048764
542	0	0.0608004
543	0	0.0894737
544	0	0.0865801
545	0	0.0865801
546	0	0.0769003
547	0	0.0730781
548	0	0.0524109
549	0	0.055905
550	0	0.0776471
551	0	0.0776471
552	0	0.0732946
553	0	0.0669985
554	0	0.0772319
555	0	0.085618
556	0	0.0856301
557	0	0.089973
558	0	0.0873945
559	0	0
560	0	0.486166
561	0	0.467532
562	0	0.406926
563	0	0.0666667
564	0	0
565	0	0
566	0	0
567	0	0
568	0	0
569	0	0
570	0	0
571	0	0
572	0	0
573	0	0
574	0	0
575	0	0
576	0	0
577	0	0
578	0	0
579	0	0
580	0	0
581	0	0
582	0	0
583	0	0
584	0	0
585	0	0
586	0	0
587	0	0
588	0	0
589	0	0
590	0	0
591	0	0
592	0	0
593	0	0
594	0	0
595	0	0
596	0	0
597	0	0
598	0	0
599	0	0
600	0	0
601	0	0
602	0	0
603	0	0
604	0	0
605	0	0
606	0	0
607	0	0
608	0	0
609	0	0
610	0	0
611	0	0
612	0	0
613	0	0
614	0	0
615	0	0
616	0	0
617	0	0
618	0	0
619	0	0
620	0	0
621	0	0
622	0	0
623	0	0
624	0	0
625	0	0
626	0	0
627	0	0
628	0	0
629	0	0
630	0	0
631	0	0
632	0	0
633	0	0
634	0	0
635	0	0
636	0	0
637	0	0
638	0	0
639	0	0
640	0	0
641	0	0
642	0	0
643	0	0
644	0	0
645	0	0
646	0	0
647	0	0
648	0	0
649	0	0
650	0	0
651	0	0
652	0	0
653	0	0
654	0	0
655	0	0
656	0	0
657	0	0
658	0	0
659	0	0
660	0	0
661	0	0
662	0	0
663	0	0
664	0	0
665	0	0
666	0	0
667	0	0
668	0	0
669	0	0
670	0	0
671	0	0
672	0	0
673	0	0
674	0	0
675	0	0
676	0	0
677	0	0
678	0	0
679	0	0
680	0	0
681	0	0
682	0	0
683	0	0
684	0	0
685	0	0
686	0	0
687	0	0
688	0	0
689	0	0
690	0	0
691	0	0
692	0	0
693	0	0
694	0	0
695	0	0
696	0	0
697	0	0
698	0	0
699	0	0
700	0	0
701	0	0
702	0	0
703	0	0
704	0	0
705	0	0
706	0	0
707	0	0
708	0	0
709	0	0
710	0	0
711	0	0
712	0	0
713	0	0
714	0	0
715	0	0
716	0	0
717	0	0
718	0	0
719	0	0
720	0	0
721	0	0
722	0	0
723	0	0
724	0	0
725	0	0
726	0	0
727	0	0.3
728	0	0.3
729	0	0.3
730	0	0.3
731	0	0.3
732	0	0.3
733	0	0.3
734	0	0.3
735	0	0.3
736	0	0.3
737	0	0.3
738	0	0.3
739	0	0.3
740	0	0.3
741	0	0.190476
742	0	0.142857
743	0	0.142857
744	0	0.142857
745	0	0.25
746	0	0.194444
747	0	0.2
748	0	0.127273
749	0	0.2
750	0	0.2
751	0	0.290909
752	0	0.290909
753	0	0.242424
754	0	0.260244
755	0	0.0984615
756	0	0.0995918
757	0	0.0988917
758	0	0.134997
759	0	0.398022
760	0	0.284866
761	0	0.30663
762	0	0.224365
763	0	0.224062
764	0	0.225749
765	0	0.343614
766	0	0.449628
767	0	0.503054
768	0	0.584772
769	0	0.783748
770	0	0.819166
771	0	0.760509
772	0	0.764978
773	0	0.84121
774	0	0.857988
775	0	0.106061
776	0	0.166667
777	0	0
778	0	0
779	0	0
780	0	0
781	0	0
782	0	0
783	0	0
784	0	0
785	0	0
786	0	0
787	0	0
788	0	0
789	0	0
790	0	0
791	0	0
792	0	0
793	0	0
794	0	0
795	0	0
796	0	0
797	0	0
798	0	0
799	0	0
800	0	0
801	0	0
802	0	0
803	0	0
804	0	0
805	0	0
806	0	0
807	0	0
808	0	0
809	0	0
810	0	0
811	0	0
812	0	0
813	0	0
814	0	0
815	0	0
816	0	0
817	0	0
818	0	0
819	0	0
820	0	0
821	0	0
822	0	0
823	0	0
824	0	0
825	0	0
826	0	0
827	0	0
828	0	0
829	0	0
830	0	0
831	0	0
832	0	0
833	0	0
834	0	0
835	0	0
836	0	0
837	0	0
838	0	0
839	0	0
840	0	0
841	0	0
842	0	0
843	0	0
844	0	0
845	0	0
846	0	0
847	0	0
848	0	0
849	0	0
850	0	0
851	0	0.923464
852	0	0.923464
853	0	0
854	0	0
855	0	0
856	0	0
857	0	0
858	0	0.90672
859	0	0.910489
860	0	0.214286
861	0	0.214286
862	0	0.214286
863	0	0.214286
864	0	0.648767
865	0	0.649124
866	0	0.1
867	0	0.1
868	0	0.1
869	0	0.1
870	0	0.1
871	0	0.822826
872	0	0.818256
873	0	0.812498
874	0	0.810231
875	0	0.804763
876	0	0.813716
877	0	0.0512821
878	0	0.633088
879	0	0.6255
880	0	0.447755
881	0	0.462504
882	0	0.558433
883	0	0.557177
884	0	0.0285205
885	0	0.026738
886	0	0.676279
887	0	0.675217
888	0	0.687827
889	0	0.60723
890	0	0.618051
891	0	1
892	0	0
893	0	0
894	0	0
895	0	0
896	0	0
897	0	0
898	0	0
899	0	0
900	0	0
901	0	0
902	0	0
903	0	0
904	0	0
905	0	0
906	0	0
907	0	0
908	0	0
909	0	0
910	0	0
911	0	0
912	0	0
913	0	0
914	0	0
915	0	0
916	0	0
917	0	0
918	0	0
919	0	0
920	0	0
921	0	0
922	0	0
923	0	0
924	0	0
925	0	0
926	0	0
927	0	0
928	0	0
929	0	0
930	0	0
931	0	0
932	0	0
933	0	0
934	0	0
935	0	0
936	0	0
937	0	0
938	0	0
939	0	0
940	0	0
941	0	0.715789
942	0	0.647619
943	0	0.57619
944	0	0.585714
945	0	0.585714
946	0	0.652381
947	0	0.728571
948	0	0.662338
949	0	0.662338
950	0	0.647619
951	0	0.728571
952	0	0.647619
953	0	0.389247
954	0	0.389247
955	0	0.389247
956	0	0.373016
957	0	0.047619
958	0	0.0357143
959	0	0.0277778
960	0	0.824984
961	0	0.756005
962	0	0.756135
963	0	0.685521
964	0	0.615929
965	0	0.516426
966	0	0.209524
967	0	0.501429
968	0	0.499841
969	0	0.423818
970	0	0.437473
971	0	0.310782
972	0	0.523189
973	0	0.251872
974	0	0.239408
975	0	0.249613
976	0	0.338452
977	0	0.223486
978	0	0.312871
979	0	0.210335
980	0	0.261175
981	0	0.377278
982	0	0.397199
983	0	0.119157
984	0	0.123563
985	0	0
986	0	0
987	0	0.1
988	0	0.1
989	0	0.764184
990	0	0.686275
991	0	0.4
992	0	0.166667
993	0	0.333333
994	0	0
995	0	0
996	0	0
997	0	0
998	0	0
999	0	0
1000	0	0.511828
1001	0	0.436559
1002	0	0.418561
1003	0	0.333333
1004	0	0.342803
1005	0	0.25
1006	0	0.25
1007	0	0.4
1008	0	0.25
1009	0	0
1010	0	0
1011	0	0.259592
1012	0	0.559184
1013	0	0.654949
1014	0	0.619796
1015	0	0.429769
1016	0	0.482879
1017	0	0.508735
1018	0	0.536688
1019	0	0.530702
1020	0	0.558897
1021	0	0.558897
1022	0	0.558897
1023	0	0.558897
1024	0	0.740646
1025	0	0.740646
1026	0	0.740646
1027	0	0.772163
1028	0	0.740646
1029	0	0.740646
1030	0	0.583117
1031	0	0.580827
1032	0	0.964912
1033	0	0.964912
1034	0	0.965517
1035	0	0.965517
1036	0	0.965517
1037	0	0.965517
1038	0	0.965517
1039	0	0.965517
1040	0	0.965517
1041	0	0.170562
1042	0	0.76087
1043	0	0.76087
1044	0	0.357143
1045	0	0.164829
1046	0	0.178435
1047	0	0.187133
1048	0	0.163704
1049	0	0.168941
1050	0	0.166232
1051	0	0.129603
1052	0	0.159491
1053	0	0.161348
1054	0	0.245844
1055	0	0.268826
1056	0	0.188981
1057	0	0.232333
1058	0	0.165749
1059	0	0.413303
1060	0	0.376986
1061	0	0.181818
1062	0	0
1063	0	0
1064	0	0
1065	0	0
1066	0	0
1067	0	0
1068	0	0
1069	0	0
1070	0	0
1071	0	0
1072	0	0
1073	0	0
1074	0	0
1075	0	0
1076	0	0
1077	0	0
1078	0	0
1079	0	0
1080	0	0
1081	0	0
1082	0	0
1083	0	0
1084	0	0
1085	0	0
1086	0	0
1087	0	0
1088	0	0
1089	0	0
1090	0	0
1091	0	0
1092	0	0
1093	0	0
1094	0	0
1095	0	0
1096	0	0
1097	0	0
1098	0	0
1099	0	0
1100	0	0
1101	0	0
1102	0	0
1103	0	0
1104	0	0.257923
1105	0	0.0151515
1106	0	0.244145
1107	0	0.257645
1108	0	0.278823
1109	0	0.224605
1110	0	0.282263
1111	0	0.270285
1112	0	0.256337
1113	0	0
1114	0	0
1115	0	0
1116	0	0
1117	0	0
1118	0	0
1119	0	0
1120	0	0
1121	0	0
1122	0	0
1123	0	0
1124	0	0
1125	0	0
1126	0	0
1127	0	0
1128	0	0
1129	0	0
1130	0	0
1131	0	0
1132	0	0
1133	0	0
1134	0	0
1135	0	0
1136	0	0
1137	0	0
1138	0	0
1139	0	0
1140	0	0
1141	0	0
1142	0	0
1143	0	0
1144	0	0
1145	0	0
1146	0	0
1147	0	0
1148	0	0
1149	0	0
1150	0	0
1151	0	0
1152	0	0
1153	0	0
1154	0	0
1155	0	0
1156	0	0
1157	0	0
1158	0	0
1159	0	0
1160	0	0
1161	0	0
1162	0	0
1163	0	0
1164	0	0
1165	0	0
1166	0	0
1167	0	0
1168	0	0
1169	0	0
1170	0	0
1171	0	0
1172	0	0
1173	0	0
1174	0	0
1175	0	0
1176	0	0
1177	0	0
1178	0	0
1179	0	0
1180	0	0
1181	0	0
1182	0	0
1183	0	0
1184	0	0
1185	0	0
1186	0	0.1
1187	0	0.679842
1188	0	0.824327
1189	0	0.861751
1190	0	0.883205
1191	0	0.196078
1192	0	0.228571
1193	0	0.263736
1194	0	0.285714
1195	0	0.285714
1196	0	0.285714
1197	0	0
1198	0	0
1199	0	0
1200	0	0.87847
1201	0	0.875789
1202	0	0.121212
1203	0	0.181818
1204	0	0.891631
1205	0	0.194444
1206	0	0.194444
1207	0	0.194444
1208	0	0.47619
1209	0	0.47619
1210	0	0.47619
1211	0	0.773679
1212	0	0.776429
1213	0	0.77457
1214	0	0.77457
1215	0	0.768185
1216	0	0.758891
1217	0	0.767298
1218	0	0.771253
1219	0	0.777721
1220	0	0.209302
1221	0	0.271795
1222	0	0.779931
1223	0	0.784377
1224	0	0.786497
1225	0	0.782104
1226	0	0.78458
1227	0	0.657386
1228	0	0.76491
1229	0	0.744862
1230	0	0.0984275
1231	0	0.457719
1232	0	0.455543
1233	0	0.450976
1234	0	0.455653
1235	0	0.452864
1236	0	0.459531
1237	0	0.0749339
1238	0	0.706363
1239	0	0.708473
1240	0	0.697411
1241	0	0.715311
1242	0	0.721083
1243	0	0.718804
1244	0	0.723617
1245	0	0.718003
1246	0	0.711379
1247	0	0.553915
1248	0	0.542445
1249	0	0.4048
1250	0	0.374538
1251	0	0.357778
1252	0	0.131502
1253	0	0.434772
1254	0	0.700627
1255	0	0.707041
1256	0	0.674728
1257	0	0.689058
1258	0	0.71503
1259	0	0.723751
1260	0	0.782154
1261	0	0.783578
1262	0	0.776891
1263	0	0.152882
1264	0	0.362514
1265	0	0.358365
1266	0	0.356433
1267	0	0.355512
1268	0	0.358639
1269	0	0.360199
1270	0	0.356038
1271	0	0.133713
1272	0	0.808353
1273	0	0.807538
1274	0	0.807521
1275	0	0.0444444
1276	0	0.0641026
1277	0	0.0522876
1278	0	0.826415
1279	0	0.808665
1280	0	0.804205
1281	0	0.799497
1282	0	0.761883
1283	0	0.749706
1284	0	0.738962
1285	0	0.71581
1286	0	0.655798
1287	0	0.66385
1288	0	0.626162
1289	0	0
1290	0	0
1291	0	0
1292	0	0.745467
1293	0	0.642931
1294	0	0.506985
1295	0	0.508922
1296	0	0.471467
1297	0	0.358973
1298	0	0.529993
1299	0	0.472694
1300	0	0.481425
1301	0	0.502818
1302	0	0.399016
1303	0	0.220335
1304	0	0.181456
1305	0	0.206488
1306	0	0.211044
1307	0	0.37619
1308	0	0.509804
1309	0	0.509804
1310	0	0.509804
1311	0	0.509804
1312	0	0.271246
1313	0	0.27934
1314	0	0.27165
1315	0	0.391453
1316	0	0.0818027
1317	0	0.268421
1318	0	0.102631
1319	0	0.100391
1320	0	0.392857
1321	0	0.392857
1322	0	0.114162
1323	0	0.189967
1324	0	0.240303
1325	0	0.0666667
1326	0	0.0952381
1327	0	0.0952381
1328	0	0.297496
1329	0	0.566667
1330	0	0.566667
1331	0	0.566667
1332	0	0.566667
1333	0	0.576823
1334	0	0.125
1335	0	0.125
1336	0	0.125
1337	0	0.105263
1338	0	0.105263
1339	0	0.260368
1340	0	0.262251
1341	0	0.075
1342	0	0.343462
1343	0	0.459691
1344	0	0.670944
1345	0	0.6633
1346	0	0.700328
1347	0	0.277778
1348	0	0.870971
1349	0	0.871179
1350	0	0.0222222
1351	0	0.0222222
1352	0	0.0222222
1353	0	0.0222222
1354	0	0.755306
1355	0	0.10989
1356	0	0.10989
1357	0	0.166667
1358	0	0.166667
1359	0	0.166667
1360	0	0.166667
1361	0	0.166667
1362	0	0.166667
1363	0	0.166667
1364	0	0.166667
1365	0	0.166667
1366	0	0.166667
1367	0	0.1
1368	0	0.736845
1369	0	0.753595
1370	0	0.754733
1371	0	0.755683
1372	0	0.744598
1373	0	0.748943
1374	0	0.748716
1375	0	0.111111
1376	0	0.111111
1377	0	0.0555556
1378	0	0.0555556
1379	0	0.0555556
1380	0	0.887141
1381	0	0.887466
1382	0	0.366338
1383	0	0.19519
1384	0	0.342088
1385	0	0.357111
1386	0	0.0946939
1387	0	0.289149
1388	0	0.476802
1389	0	0.489361
1390	0	0.471872
1391	0	0.557292
1392	0	0.442029
1393	0	0.411765
1394	0	0.404412
1395	0	0.404412
1396	0	0.404412
1397	0	0.3
1398	0	0.153439
1399	0	0.182336
1400	0	0.636401
1401	0	0.626642
1402	0	0.410299
1403	0	0.349237
1404	0	0.108527
1405	0	0.416318
1406	0	0.0656566
1407	0	0.0618357
1408	0	0.278706
1409	0	0.398268
1410	0	0.396152
1411	0	0.38263
1412	0	0.405591
1413	0	0.395021
1414	0	0.235294
1415	0	0.133333
1416	0	0.152632
1417	0	0.19883
1418	0	0.19883
1419	0	0.169591
1420	0	0.163158
1421	0	0.189474
1422	0	0.485137
1423	0	0.378788
1424	0	0.378788
1425	0	0.378788
1426	0	0.378788
1427	0	0.378788
1428	0	0.378788
1429	0	0.378788
1430	0	0.378788
1431	0	0.378788
1432	0	0.378788
1433	0	0.409315
1434	0	0.390385
1435	0	0.449063
1436	0	0.260028
1437	0	0.206629
1438	0	0.132172
1439	0	0.333333
1440	0	0.333333
1441	0	0.166667
1442	0	0.166667
1443	0	0.439394
1444	0	0.120887
1445	0	0.0995613
1446	0	0.0820308
1447	0	0.0641171
1448	0	0.0585123
1449	0	0.0642579
1450	0	0.0806573
1451	0	0.090949
1452	0	0
1453	0	0.116326
1454	0	0.186837
1455	0	0.196749
1456	0	0.0497175
1457	0	0.0517121
1458	0	0.0489796
1459	0	0.0545455
1460	0	0.0501253
1461	0	0.062987
1462	0	0.34959
1463	0	0.121951
1464	0	0.120513
1465	0	0.152381
1466	0	0.15015
1467	0	0.177419
1468	0	0.194581
1469	0	0.357868
1470	0	0.38104
1471	0	0.389007
1472	0	0.443432
1473	0	0.502295
1474	0	0.50468
1475	0	0.405128
1476	0	0.324597
1477	0	0.65014
1478	0	0.666113
1479	0	0.659428
1480	0	0.764385
1481	0	0.955898
1482	0	0.956121
1483	0	0.0952381
1484	0	0.142857
1485	0	0.111111
1486	0	0.194444
1487	0	0.25
1488	0	0.25
1489	0	0.333333
1490	0	0.333333
1491	0	0.466667
1492	0	1
1493	0	1
1494	0	1
1495	0	0.961915
1496	0	0.5
1497	0	1
1498	0	1
1499	0	1
1500	0	0.968202
1501	0	0.973659
1502	0	0.973682
1503	0	0.973682
1504	0	0.973682
1505	0	1
1506	0	0.975584
1507	0	0.977305
1508	0	0.977305
1509	0	0.991227
1510	0	0.996534
1511	0	0.996534
1512	0	0.996537
1513	0	1
1514	0	1
1515	0	1
1516	0	1
1517	0	1
1518	1	1
1519	1	1
1520	1	1
1521	0	1
1522	0	1
1523	0	1
1524	1	1
1525	1	1
1526	1	1
1527	0	1
1528	0	1
1529	0	1
1530	0	1
1531	1	1
1532	0	1
1533	0	1
1534	0	1
1535	0	1
1536	0	1
1537	1	1
1538	0	0.998277
1539	0	0.998277
1540	0	0.998277
1541	0	0.998277
1542	0	0.998279
1543	0	0.998279
1544	0	0.998279
1545	0	0.998279
1546	0	0.996562
1547	0	0.99828
1548	0	0.99828
1549	0	0.998282
1550	0	0.998282
1551	0	0.998282
1552	0	0.998282
1553	0	0.998282
1554	0	0.998282
1555	0	0.998282
1556	0	0.998282
1557	0	0.998282
1558	0	0.998282
1559	0	0.99828
1560	0	0.996565
1561	0	0.996565
1562	0	0.714286
1563	0	0.998282
1564	0	0.998282
1565	0	0.998282
1566	0	0.996565
1567	0	0.99828
1568	0	1
1569	0	1
1570	0	1
1571	0	1
1572	0	1
1573	0	1
1574	0	1
1575	0	1
1576	0	1
1577	1	1
1578	1	1
1579	1	1
1580	1	1
1581	1	1
1582	1	1
1583	1	1
1584	1	1
1585	0	1
1586	0	1
1587	1	1
1588	1	1
1589	1	1
1590	0	0.994859
1591	0	0.994819
1592	0	0.779412
1593	0	0.968995
1594	0	0.875
1595	0	0.875
1596	0	0.849971
1597	0	0.516897
1598	0	0.576773
1599	0	0.926989
1600	0	0.984362
1601	0	1
1602	0	1
1603	0	1
1604	0	1
1605	0	1
1606	0	0.99828
1607	0	1
1608	0	1
1609	0	1
1610	0	1
1611	0	1
1612	0	1
1613	0	1
1614	0	1
1615	0	0.4
1616	0	0.5
1617	0	0.5
1618	0	0.964094
1619	0	0.962391
1620	0	0.962391
1621	0	0
1622	0	0
1623	0	0
1624	0	0
1625	0	0.784314
1626	0	0.915088
1627	0	1
1628	0	1
1629	0	1
1630	0	1
1631	0	0.333333
1632	0	0.333333
1633	0	0
1634	0	0.798036
1635	0	0.724456
1636	0	0.577297
1637	0	0.49525
1638	0	0.527666
1639	0	0.489728
1640	0	0.301816
1641	0	0.294693
1642	0	0.464286
1643	0	0.464286
1644	0	0.464286
1645	0	0.321429
1646	0	0.274714
1647	0	0.498305
1648	0	0.499435
1649	0	0.494915
1650	0	0.415851
1651	0	0.381036
1652	0	0.403432
1653	0	0.10816
1654	0	0.135227
1655	0	0.131619
1656	0	0.125641
1657	0	0.109175
1658	0	0.390268
1659	0	0.414688
1660	0	0.183639
1661	0	0.192524
1662	0	0.529325
1663	0	0.19738
1664	0	0.513062
1665	0	0.259206
1666	0	0.735609
1667	0	0.23001
1668	0	0.521598
1669	0	0.522308
1670	0	0.527297
1671	0	0.55461
1672	0	0.656085
1673	0	0.10989
1674	0	0.136364
1675	0	0.142857
1676	0	0.142857
1677	0	0.142857
1678	0	0.861282
1679	0	0.0357143
1680	0	0.0357143
1681	0	0.860144
1682	0	0.858728
1683	0	0.850628
1684	0	0
1685	0	0
1686	0	0
1687	0	0
1688	0	0.494505
1689	0	0.91642
1690	0	0
1691	0	0
1692	0	0.8
1693	0	0.8
1694	0	0.654545
1695	0	0.654545
1696	0	0.671053
1697	0	0.698308
1698	0	0.822813
1699	0	0.451531
1700	0	0.382745
1701	0	0.434691
1702	0	0.64805
1703	0	0.498316
1704	0	0.266667
1705	0	0.5
1706	0	0.3
1707	0	0.258333
1708	0	0.196667
1709	0	0.415888
1710	0	0.293721
1711	0	0.197498
1712	0	0.263763
1713	0	0.218303
1714	0	0.214997
1715	0	0.224585
1716	0	0.315852
1717	0	0.317599
1718	0	0.180031
1719	0	0.270416
1720	0	0.0750766
1721	0	0.0836707
1722	0	0.0593792
1723	0	0.0764045
1724	0	0.305971
1725	0	0.436002
1726	0	0.189685
1727	0	0.234067
1728	0	0.443293
1729	0	0.444177
1730	0	0.445697
1731	0	0.441333
1732	0	0.030303
1733	0	0.501356
1734	0	0.50641
1735	0	0.416664
1736	0	0
1737	0	0
1738	0	0
1739	0	0
1740	0	0
1741	0	0
1742	0	0
1743	0	0
1744	0	0.797843
1745	0	0.11396
1746	0	0.152381
1747	0	0.0761905
1748	0	0.0952381
1749	0	0.0952381
1750	0	0.0952381
1751	0	0.384774
1752	0	0.380191
1753	0	0.344151
1754	0	0.164095
1755	0	0.333333
1756	0	0.333333
1757	0	0.333333
1758	0	0.333333
1759	0	0
1760	0	0
1761	0	0
1762	0	0
1763	0	0.129663
1764	0	0.127877
1765	0	0.103744
1766	0	0.737959
1767	0	0.737959
1768	0	0.737959
1769	0	0.737959
1770	0	0.70902
1771	0	0.68175
1772	0	0.656023
1773	0	0.129368
1774	0	0.138992
1775	0	0.105843
1776	0	0.142857
1777	0	0.142857
1778	0	0.142857
1779	0	0.2
1780	0	0.2
1781	0	0.2
1782	0	0.2
1783	0	0.2
1784	0	0.2
1785	0	0.47619
1786	0	0.277778
1787	0	0.788959
1788	0	0.0969673
1789	0	0.102017
1790	0	0.113937
1791	0	0.0666667
1792	0	0.047619
1793	0	0.142857
1794	0	0.178571
1795	0	0.138889
1796	0	0.419862
1797	0	0.426532
1798	0	0.130352
1799	0	0.139043
1800	0	0.156194
1801	0	0.121057
1802	0	0.0666667
1803	0	0.0666667
1804	0	0
1805	0	0
1806	0	0
1807	0	0.166667
1808	0	0.166667
1809	0	0.166667
1810	0	0.1
1811	0	0.0666667
1812	0	0.0666667
1813	0	0.315919
1814	0	0.561879
1815	0	0.604124
1816	0	0.346847
1817	0	0.301471
1818	0	0.309091
1819	0	0.355556
1820	0	0.355556
1821	0	0.765692
1822	0	0.777621
1823	0	0.815507
1824	0	0.820267
1825	0	0.82759
1826	0	0.555655
1827	0	1
1828	0	1
1829	0	0.987925
1830	0	0.989642
1831	0	0.989642
1832	0	0.987936
1833	0	0.987936
1834	0	0.989648
1835	0	0.989648
1836	0	0.989648
1837	0	1
1838	0	1
1839	0	1
1840	0	0.6
1841	0	0.998267
1842	0	1
1843	0	0.998268
1844	0	0.998268
1845	0	0.99827
1846	0	0.99827
1847	0	1
1848	0	1
1849	0	0.998273
1850	0	0.998274
1851	1	1
1852	1	1
1853	0	1
1854	0	1
1855	1	1
1856	1	1
1857	1	1
1858	1	1
1859	1	1
1860	1	1
1861	1	1
1862	1	1
1863	0	0.998277
1864	0	0.998277
1865	0	0.998277
1866	0	0.996562
1867	0	0.996562
1868	0	0.996562
1869	0	0.996562
1870	0	0.996562
1871	0	0.99485
1872	0	0.99485
1873	0	0.99485
1874	0	0.986305
1875	1	0
1876	1	0
1877	1	0
1878	1	0
1879	1	0
1880	1	0
1881	1	0
1882	1	0
1883	1	0
1884	1	0
1885	1	0
1886	1	0
1887	1	0
1888	1	0
1889	1	0
1890	1	0
1891	1	0
1892	1	0
1893	0	0
1894	0	0
1895	0	0.333333
1896	0	0.991384
1897	0	0.989651
1898	0	0.984539
1899	0	0.981156
1900	0	0.444444
1901	0	1
1902	0	0.996553
1903	0	0.996553
1904	0	0.996553
1905	0	0.998274
1906	0	0.998274
1907	0	1
1908	0	1
1909	0	1
1910	0	1
1911	0	1
1912	0	1
1913	0	1
1914	1	1
1915	0	0.998274
1916	0	0.998274
1917	0	0.998274
1918	0	0.998274
1919	0	0.998273
1920	0	0.99655
1921	0	0.99655
1922	0	0.998273
1923	0	0.998273
1924	0	0.998273
1925	0	0.998273
1926	0	0.998271
1927	0	0.998271
1928	0	0.998271
1929	0	0.998271
1930	0	0.998271
1931	0	0.998271
1932	0	0.850444
1933	0	0.56044
1934	0	0.56044
1935	0	0.56044
1936	0	0.438095
1937	0	0.438095
1938	0	0.505495
1939	0	0.406593
1940	0	0.406593
1941	0	0.252747
1942	0	0.333333
1943	0	0.333333
1944	0	0.121212
1945	0	0.121212
1946	0	0.121212
1947	0	0.121212
1948	0	0.121212
1949	0	0.121212
1950	0	0.121212
1951	0	0.121212
1952	0	0
1953	0	0
1954	0	0
1955	0	0
1956	0	0
1957	0	0
1958	0	0
1959	0	0
1960	0	0
1961	0	0
1962	0	0
1963	0	0
1964	0	0
1965	0	0
1966	0	0
1967	0	0.982683
1968	0	0.266667
1969	0	0
1970	0	0
1971	0	0
1972	0	0
1973	0	0
1974	0	0
1975	0	0
1976	0	0
1977	0	0
1978	0	0
1979	0	0
1980	0	0
1981	0	0
1982	0	0
1983	0	0
1984	0	0
1985	0	0
1986	0	0
1987	0	0
1988	0	0
1989	0	0
1990	0	0
1991	0	0
1992	0	0
1993	0	0
1994	0	0
1995	0	0
1996	0	0
1997	0	0
1998	0	0
1999	0	0
2000	0	0
2001	0	0
2002	0	0
2003	0	0
2004	0	0
2005	0	0
2006	0	0
2007	0	0
2008	0	0
2009	0	0
2010	0	0
2011	0	0
2012	0	0
2013	0	0
2014	0	0
2015	0	0
2016	0	0
2017	0	0
2018	0	0
2019	0	0
2020	0	0
2021	0	0
2022	0	0
2023	0	0
2024	0	0
2025	0	0
2026	0	0
2027	0	0
2028	0	0.979269
2029	0	0.979251
2030	0	0.977591
2031	0	0.977591
2032	0	0.975899
2033	0	0.979303
2034	0	0.981004
2035	0	0.166667
2036	0	0.166667
2037	0	0.166667
2038	0	0.166667
2039	0	0.166667
2040	0	0.166667
2041	0	0.166667
2042	0	0.166667
2043	0	0.166667
2044	0	0.166667
2045	0	0.166667
2046	0	0.166667
2047	0	0.166667
2048	0	0.979306
2049	0	0.979306
2050	0	0
2051	0	0
2052	0	0
2053	0	0
2054	0	0
2055	0	0
2056	0	0
2057	0	0
2058	0	0
2059	0	0
2060	0	0
2061	0	0
2062	0	0
2063	0	0
2064	0	0
2065	0	0
2066	0	0
2067	0	0
2068	0	0
2069	0	0
2070	0	0
2071	0	0
2072	0	0
2073	0	0
2074	0	0
2075	0	0
2076	0	0
2077	0	0
2078	0	0
2079	0	0
2080	0	0
2081	0	0
2082	0	0
2083	0	0
2084	0	0
2085	0	0
2086	0	0
2087	0	0
2088	0	0
2089	0	0
2090	0	0
2091	0	0
2092	0	0
2093	0	0
2094	0	0
2095	0	0
2096	0	0
2097	0	0
2098	0	0
2099	0	0
2100	0	0
2101	0	0
2102	0	0
2103	0	0
2104	0	0
2105	0	0.979303
2106	0	0.266667
2107	0	0.266667
2108	0	0.266667
2109	0	0.266667
2110	0	0.266667
2111	0	0.266667
2112	0	0.266667
2113	0	0.3
2114	0	0.3
2115	0	0.3
2116	0	0.3
2117	0	0.3
2118	0	0.3
2119	0	0.3
2120	0	0.166667
2121	0	0.166667
2122	0	0.166667
2123	0	0.166667
2124	0	0
2125	0	0
2126	0	0
2127	0	0
2128	0	0
2129	0	0
2130	0	0
2131	0	0
2132	0	0
2133	0	0
2134	0	0
2135	0	0
2136	0	0
2137	0	0
2138	0	0
2139	0	0
2140	0	0
2141	0	0
2142	0	0
2143	0	0
2144	0	0
2145	0	0
2146	0	0
2147	0	0
2148	0	0
2149	0	0
2150	0	0
2151	0	0
2152	0	0
2153	0	0
2154	0	0
2155	0	0
2156	0	0
2157	0	0
2158	0	0
2159	0	0
2160	0	0
2161	0	0
2162	0	0
2163	0	0
2164	0	0
2165	0	0
2166	0	0
2167	0	0
2168	0	0
2169	0	0
2170	0	0
2171	0	0.974185
2172	0	0.974185
2173	0	0.974163
2174	0	0
2175	0	0
2176	0	0
2177	0	0
2178	0	0
2179	0	0
2180	0	0.941705
2181	0	0.47619
2182	0	0.47619
2183	0	0.666667
2184	0	0.666667
2185	0	0.5
2186	0	0.5
2187	0	0.5
2188	0	0.5
2189	0	0.5
2190	0	0.5
2191	0	0.5
2192	0	0.5
2193	0	0.5
2194	0	0.5
2195	0	0.5
2196	0	0.5
2197	0	0.5
2198	0	0.5
2199	0	0
2200	0	0
2201	0	0
2202	0	0
2203	0	0
2204	0	0
2205	0	0.921895
2206	0	0.921895
2207	0	1
2208	0	0.0666667
2209	0	0.1
2210	0	0.1
2211	0	0.9201
2212	0	0.166667
2213	0	0.166667
2214	0	0.166667
2215	0	0.166667
2216	0	0.904998
2217	0	0
2218	0	0
2219	0	0
2220	0	0.573333
2221	0	0.623188
2222	0	0.865921
2223	0	0.864326
2224	0	0.166667
2225	0	0.166667
2226	0	0.166667
2227	0	0.166667
2228	0	0.166667
2229	0	0.166667
2230	0	0.166667
2231	0	0.166667
2232	0	0
2233	0	0
2234	0	0
2235	0	0
2236	0	0
2237	0	0
2238	0	0
2239	0	0
2240	0	0
2241	0	0
2242	0	0
2243	0	0
2244	0	0
2245	0	0
2246	0	0
2247	0	0
2248	0	0
2249	0	0
2250	0	0
2251	0	0
2252	0	0
2253	0	0
2254	0	0
2255	0	0
2256	0	0
2257	0	0
2258	0	0
2259	0	0
2260	0	0
2261	0	0
2262	0	0
2263	0	0
2264	0	0
2265	0	0
2266	0	0
2267	0	0
2268	0	0
2269	0	0
2270	0	0
2271	0	0
2272	0	0
2273	0	0
2274	0	0
2275	0	0
2276	0	0
2277	0	0.183007
2278	0	0.172308
2279	0	0.715083
2280	0	0.525648
2281	0	0.480576
2282	0	0.296366
2283	0	0.242424
2284	0	0.13557
2285	0	0.131377
2286	0	0.11181
2287	0	0.128581
2288	0	0.113131
2289	0	0.109091
2290	0	0.318012
2291	0	0.306658
2292	0	0.315556
2293	0	0.308442
2294	0	0.173603
2295	0	0.154243
2296	0	0.153012
2297	0	0.160678
2298	0	0.124557
2299	0	0.0735294
2300	0	0.0744516
2301	0	0.0686657
2302	0	0.0701465
2303	0	0.0768317
2304	0	0.0818976
2305	0	0.0803922
2306	0	0.0753165
2307	0	0.0665906
2308	0	0.0674603
2309	0	0.0507519
2310	0	0.0354374
2311	0	0.0346154
2312	0	0.0218487
2313	0	0.0170455
2314	0	0.0185185
2315	0	0.0184615
2316	0	0.02
2317	0	0.0181159
2318	0	0.0197628
2319	0	0.0142857
2320	0	0.0147059
2321	0	0.0220588
2322	0	0.0166667
2323	0	0.0166667
2324	0	0.0166667
2325	0	0.0190476
2326	0	0.0190476
2327	0	0.0190476
2328	0	0.00952381
2329	0	0.00952381
2330	0	0.00952381
2331	0	0.0190476
2332	0	0.0190476
2333	0	0.00952381
2334	0	0.00952381
2335	0	0.00952381
2336	0	0.00952381
2337	0	0.010989
2338	0	0.010989
2339	0	0.010989
2340	0	0.010989
2341	0	0.010989
2342	0	0.010989
2343	0	0.010989
2344	0	0.010989
2345	0	0.010989
2346	0	0.010989
2347	0	0.010989
2348	0	0.010989
2349	0	0.0128205
2350	0	0.0128205
2351	0	0.0128205
2352	0	0.0151515
2353	0	0.0222222
2354	0	0.0222222
2355	0	0.0222222
2356	0	0.0222222
2357	0	0.0222222
2358	0	0.0277778
2359	0	0.0277778
2360	0	0
2361	0	0
2362	0	0
2363	0	0
2364	0	0
2365	0	0
2366	0	0
2367	0	0
2368	0	0
2369	0	0
2370	0	0
2371	0	0
2372	0	0
2373	0	0
2374	0	0
2375	0	0
2376	0	0
2377	0	0
2378	0	0
2379	0	0
2380	0	0
2381	0	0
2382	0	0
2383	0	0
2384	0	0
2385	0	0
2386	0	0
2387	0	0
2388	0	0
2389	0	0
2390	0	0
2391	0	0
2392	0	0
2393	0	0
2394	0	0
2395	0	0
2396	0	0
2397	0	0
2398	0	0
2399	0	0
2400	0	0
2401	0	0
2402	0	0
2403	0	0
2404	0	0
2405	0	0
2406	0	0
2407	0	0
2408	0	0
2409	0	0
2410	0	0
2411	0	0
2412	0	0
2413	0	0
2414	0	0
2415	0	0.1
2416	0	0.1
2417	0	0.1
2418	0	0.1
2419	0	0.1
2420	0	0
2421	0	0
2422	0	0
2423	0	0
2424	0	0
2425	0	0
2426	0	0
2427	0	0
2428	0	0
2429	0	0
2430	0	0
2431	0	0
2432	0	0
2433	0	0
2434	0	0
2435	0	0
2436	0	0
2437	0	0
2438	0	0
2439	0	0
2440	0	0
2441	0	0
2442	0	0
2443	0	0
2444	0	0
2445	0	0
2446	0	0
2447	0	0
2448	0	0
2449	0	0
2450	0	0
2451	0	0
2452	0	0
2453	0	0
2454	0	0
2455	0	0
2456	0	0
2457	0	0
2458	0	0
2459	0	0
2460	0	0
2461	0	0
2462	0	0
2463	0	0
2464	0	0
2465	0	0
2466	0	0
2467	0	0
2468	0	0
2469	0	0
2470	0	0
2471	0	0
2472	0	0
2473	0	0
2474	0	0
2475	0	0
2476	0	0
2477	0	0
2478	0	0
2479	0	0
2480	0	0
2481	0	0
2482	0	0
2483	0	0
2484	0	0
2485	0	0
2486	0	0
2487	0	0
2488	0	0
2489	0	0
2490	0	0
2491	0	0
2492	0	0
2493	0	0
2494	0	0
2495	0	0
2496	0	0
2497	0	0
2498	0	0
2499	0	0
2500	0	0
2501	0	0
2502	0	0
2503	0	0
2504	0	0
2505	0	0
2506	0	0
2507	0	0
2508	0	0
2509	0	0
2510	0	0
2511	0	0
2512	0	0
2513	0	0
2514	0	0
2515	0	0
2516	0	0
2517	0	0
2518	0	0
2519	0	0
2520	0	0
2521	0	0
2522	0	0
2523	0	0
2524	0	0
2525	0	0
2526	0	0
2527	0	0
2528	0	0
2529	0	0
2530	0	0
2531	0	0
2532	0	0
2533	0	0
2534	0	0
2535	0	0
2536	0	0
2537	0	0
2538	0	0
2539	0	0
2540	0	0
2541	0	0
2542	0	0
2543	0	0
2544	0	0
2545	0	0
2546	0	0
2547	0	0
2548	0	0
2549	0	0
2550	0	0
2551	0	0
2552	0	0
2553	0	0
2554	0	0
2555	0	0
2556	0	0
2557	0	0
2558	0	0
2559	0	0
2560	0	0
2561	0	0
2562	0	0
2563	0	0
2564	0	0
2565	0	0
2566	0	0
2567	0	0
2568	0	0
2569	0	0
2570	0	0
2571	0	0
2572	0	0
2573	0	0
2574	0	0
2575	0	0
2576	0	0
2577	0	0
2578	0	0
2579	0	0
2580	0	0
2581	0	0
2582	0	0
2583	0	0
2584	0	0
2585	0	0
2586	0	0
2587	0	0
2588	0	0
2589	0	0
2590	0	0
2591	0	0
2592	0	0
2593	0	0
2594	0	0
2595	0	0
2596	0	0
2597	0	0
2598	0	0
2599	0	0
2600	0	0
2601	0	0
2602	0	0
2603	0	0
2604	0	0
2605	0	0
2606	0	0
2607	0	0
2608	0	0
2609	0	0
2610	0	0
2611	0	0
2612	0	0
2613	0	0
2614	0	0
2615	0	0
2616	0	0
2617	0	0
2618	0	0
2619	0	0
2620	0	0
2621	0	0
2622	0	0
2623	0	0
2624	0	0
2625	0	0
2626	0	0
2627	0	0
2628	0	0
2629	0	0
2630	0	0
2631	0	0
2632	0	0
2633	0	0
2634	0	0
2635	0	0
2636	0	0
2637	0	0
2638	0	0
2639	0	0
2640	0	0
2641	0	0
2642	0	0
2643	0	0
2644	0	0
2645	0	0
2646	0	0
2647	0	0
2648	0	0
2649	0	0
2650	0	0
2651	0	0
2652	0	0
2653	0	0
2654	0	0
2655	0	0
2656	0	0
2657	0	0
2658	0	0
2659	0	0
2660	0	0
2661	0	0
2662	0	0
2663	0	0
2664	0	0
2665	0	0
2666	0	0
2667	0	0
2668	0	0
2669	0	0
2670	0	0
2671	0	0
2672	0	0
2673	0	0
2674	0	0
2675	0	0
2676	0	0
2677	0	0
2678	0	0
2679	0	0
2680	0	0
2681	0	0
2682	0	0
2683	0	0
2684	0	0
2685	0	0
2686	0	0
2687	0	0
2688	0	0
2689	0	0
2690	0	0
2691	0	0
2692	0	0
2693	0	0
2694	0	0
2695	0	0
2696	0	0
2697	0	0
2698	0	0
2699	0	0
2700	0	0
2701	0	0
2702	0	0
2703	0	0
2704	0	0
2705	0	0
2706	0	0
2707	0	0
2708	0	0
2709	0	0
2710	0	0
2711	0	0
2712	0	0
2713	0	0
2714	0	0
2715	0	0
2716	0	0
2717	0	0
2718	0	0
2719	0	0
2720	0	0
2721	0	0
2722	0	0
2723	0	0
2724	0	0
2725	0	0
2726	0	0
2727	0	0
2728	0	0
2729	0	0
2730	0	0
2731	0	0
2732	0	0
2733	0	0
2734	0	0
2735	0	0
2736	0	0
2737	0	0
2738	0	0
2739	0	0
2740	0	0
2741	0	0
2742	0	0
2743	0	0
2744	0	0
2745	0	0
2746	0	0
2747	0	0
2748	0	0
2749	0	0
2750	0	0
2751	0	0
2752	0	0
2753	0	0
2754	0	0
2755	0	0
2756	0	0
2757	0	0
2758	0	0
2759	0	0
2760	0	0
2761	0	0
2762	0	0
2763	0	0
2764	0	0
2765	0	0
2766	0	0
2767	0	0
2768	0	0
2769	0	0
2770	0	0
2771	0	0
2772	0	0
2773	0	0
2774	0	0
2775	0	0
2776	0	0
2777	0	0
2778	0	0
2779	0	0
2780	0	0
2781	0	0
2782	0	0
2783	0	0
2784	0	0
2785	0	0
2786	0	0
2787	0	0
2788	0	0
2789	0	0
2790	0	0
2791	0	0
2792	0	0
2793	0	0
2794	0	0
2795	0	0
2796	0	0
2797	0	0
2798	0	0
2799	0	0
2800	0	0
2801	0	0
2802	0	0
2803	0	0
2804	0	0
2805	0	0
2806	0	0
2807	0	0
2808	0	0
2809	0	0
2810	0	0
2811	0	0
2812	0	0
2813	0	0
2814	0	0
2815	0	0
2816	0	0
2817	0	0
2818	0	0
2819	0	0
2820	0	0
2821	0	0
2822	0	0
2823	0	0
2824	0	0
2825	0	0
2826	0	0
2827	0	0
2828	0	0
2829	0	0
2830	0	0
2831	0	0
2832	0	0
2833	0	0
2834	0	0
2835	0	0
2836	0	0
2837	0	0
2838	0	0
2839	0	0
2840	0	0
2841	0	0
2842	0	0
2843	0	0
2844	0	0
2845	0	0
2846	0	0
2847	0	0
2848	0	0
2849	0	0
2850	0	0
2851	0	0
2852	0	0
2853	0	0
2854	0	0
2855	0	0
2856	0	0
2857	0	0
2858	0	0
2859	0	0
2860	0	0
2861	0	0
2862	0	0
2863	0	0
2864	0	0
2865	0	0
2866	0	0
2867	0	0
2868	0	0
2869	0	0
2870	0	0
2871	0	0
2872	0	0
2873	0	0
2874	0	0
2875	0	0
2876	0	0
2877	0	0
2878	0	0
2879	0	0
2880	0	0
2881	0	0
2882	0	0
2883	0	0
2884	0	0
2885	0	0
2886	0	0
2887	0	0
2888	0	0
2889	0	0
2890	0	0
2891	0	0
2892	0	0
2893	0	0
2894	0	0
2895	0	0
2896	0	0
2897	0	0
2898	0	0
2899	0	0
2900	0	0
2901	0	0
2902	0	0
2903	0	0
2904	0	0
2905	0	0
2906	0	0
2907	0	0
2908	0	0
2909	0	0
2910	0	0
2911	0	0
2912	0	0
2913	0	0
2914	0	0
2915	0	0
2916	0	0
2917	0	0
2918	0	0
2919	0	0
2920	0	0
2921	0	0
2922	0	0
2923	0	0
2924	0	0
2925	0	0
2926	0	0
2927	0	0
2928	0	0
2929	0	0
2930	0	0
2931	1	0
2932	0	0
2933	0	0
2934	0	0
2935	0	0
2936	0	0
2937	0	0
2938	0	0
2939	0	0
2940	0	0
2941	0	0
2942	0	0
2943	0	0
2944	0	0
2945	0	0
2946	0	0
2947	0	0
2948	0	0
2949	1	0
2950	1	0
2951	1	0
2952	1	0
2953	1	0
2954	1	0
2955	1	0
2956	1	0
2957	1	0
2958	1	0
2959	1	0
2960	1	0
2961	1	0
2962	1	0
2963	1	0
2964	1	0
2965	1	0
2966	1	0
2967	1	0
2968	1	0
2969	1	0
2970	1	0
2971	1	0
2972	1	0
2973	1	0
2974	0	0
2975	0	0
2976	0	0
2977	0	0
2978	0	0
2979	0	0
2980	0	0
2981	0	0
2982	0	0
2983	0	0
2984	0	0
2985	0	0
2986	0	0
2987	0	0
2988	0	0
2989	0	0
2990	0	0
2991	0	0
2992	0	0
2993	0	0
2994	0	0
2995	0	0
2996	0	0
2997	0	0
2998	0	0
2999	0	0
3000	0	0
3001	0	0
3002	0	0
3003	0	0
3004	0	0
3005	0	0
3006	0	0
3007	0	0
3008	0	0
3009	0	0
3010	0	0
3011	0	0
3012	0	0
3013	0	0
3014	0	0
3015	0	0
3016	0	0
3017	0	0
3018	0	0
3019	0	0
3020	0	0
3021	0	0
3022	0	0
3023	0	0
3024	0	0
3025	0	0
3026	0	0
3027	0	0
3028	0	0
3029	0	0
3030	0	0
3031	0	0
3032	0	0
3033	0	0
3034	0	0
3035	0	0
3036	0	0
3037	0	0
3038	0	0
3039	0	0
3040	0	0
3041	0	0
3042	0	0
3043	0	0
3044	0	0
3045	0	0
3046	0	0
3047	0	0
3048	0	0
3049	1	0
3050	0	0
3051	0	0
3052	0	0
3053	0	0
3054	0	0
3055	0	0
3056	0	0
3057	1	0
3058	1	0
3059	0	0
3060	0	0
3061	0	0
3062	0	0
3063	0	0
3064	0	0
3065	0	0
3066	0	0
3067	0	0
3068	0	0
3069	0	0
3070	0	0
3071	0	0
3072	0	0
3073	0	0
3074	0	0
3075	0	0
3076	0	0
3077	0	0
3078	0	0
3079	0	0
3080	0	0
3081	0	0
3082	0	0
3083	0	0
3084	0	0
3085	0	0
3086	0	0
3087	0	0
3088	0	0
3089	0	0
3090	0	0
3091	0	0
3092	0	0
3093	0	0
3094	0	0
3095	0	0
3096	0	0
3097	0	0
3098	0	0
3099	0	0
3100	0	0
3101	0	0
3102	0	0
3103	0	0
3104	0	0
3105	0	0
3106	0	0
3107	0	0
3108	0	0
3109	0	0
3110	0	0
