Site	ColumnScore	SumOfPairsScore
1	0	0
2	0	0
3	0	0
4	0	0
5	0	0
6	0	0
7	0	0
8	0	0
9	0	0
10	0	0
11	1	0
12	1	0
13	1	0
14	1	0
15	0	0
16	0	0
17	0	0
18	0	0
19	0	0
20	0	0
21	0	0
22	0	0
23	0	0
24	0	0
25	0	0
26	0	0
27	0	0
28	0	0
29	0	0
30	0	0
31	0	0
32	0	0
33	0	0
34	0	0
35	0	0
36	0	0
37	0	0
38	0	0
39	0	0
40	0	0
41	0	0
42	0	0
43	0	0
44	0	0
45	0	0
46	0	0
47	0	0
48	0	0
49	0	0
50	0	0
51	1	0
52	1	0
53	1	0
54	0	0
55	0	0
56	0	0
57	0	0
58	0	0
59	0	0
60	0	0
61	0	0
62	1	0
63	1	0
64	1	0
65	1	0
66	1	0
67	0	0
68	0	0
69	0	0
70	0	0
71	0	0
72	0	0
73	0	0
74	0	0
75	0	0
76	0	0
77	0	0
78	1	0
79	1	0
80	0	0
81	0	0
82	0	0
83	0	0
84	0	0
85	0	0
86	0	0
87	0	0
88	0	0
89	0	0
90	0	0
91	0	0
92	0	0
93	0	0
94	0	0
95	0	0
96	0	0
97	0	0
98	0	0
99	0	0
100	0	0
101	0	0
102	0	0
103	0	0
104	0	0
105	0	0
106	0	0
107	0	0
108	0	0
109	0	0
110	0	0
111	0	0
112	0	0
113	0	0
114	0	0
115	0	0
116	0	0
117	0	0
118	0	0
119	0	0
120	0	0
121	0	0
122	0	0
123	0	0
124	0	0
125	0	0
126	0	0
127	0	0
128	0	0
129	0	0
130	0	0
131	0	0
132	0	0
133	0	0
134	0	0
135	0	0
136	0	0
137	0	0
138	0	0
139	0	0
140	0	0
141	0	0
142	0	0
143	0	0
144	0	0
145	0	0
146	0	0
147	0	0
148	0	0
149	0	0
150	0	0
151	0	0
152	0	0
153	1	0
154	0	0
155	0	0
156	0	0
157	0	0
158	0	0
159	0	0
160	0	0
161	0	0
162	0	0
163	0	0
164	0	0
165	0	0
166	0	0
167	0	0
168	0	0
169	0	0
170	0	0
171	0	0
172	0	0
173	0	0
174	0	0
175	0	0
176	0	0
177	0	0
178	0	0
179	0	0
180	0	0
181	0	0
182	0	0
183	0	0
184	0	0
185	0	0
186	0	0
187	0	0
188	0	0
189	0	0
190	0	0
191	0	0
192	0	0
193	0	0
194	0	0
195	0	0
196	0	0
197	0	0
198	1	0
199	0	0
200	0	0
201	0	0
202	0	0
203	0	0
204	0	0
205	0	0
206	0	0
207	0	0
208	0	0
209	0	0
210	0	0
211	0	0
212	0	0
213	0	0
214	0	0
215	0	0
216	0	0
217	0	0
218	0	0
219	0	0
220	0	0
221	0	0
222	0	0
223	0	0
224	0	0
225	0	0
226	0	0
227	0	0
228	0	0
229	0	0
230	0	0
231	0	0
232	0	0
233	0	0
234	0	0
235	0	0
236	0	0
237	0	0
238	0	0
239	0	0
240	0	0
241	0	0
242	0	0
243	0	0
244	0	0
245	0	0
246	0	0
247	0	0
248	0	0
249	0	0
250	0	0
251	0	0
252	0	0
253	0	0
254	0	0
255	0	0
256	0	0
257	0	0
258	0	0
259	0	0
260	1	0
261	1	0
262	1	0
263	1	0
264	1	0
265	1	0
266	0	0
267	0	0
268	0	0
269	0	0
270	0	0
271	0	0
272	0	0
273	0	0
274	0	0
275	0	0
276	0	0
277	0	0
278	0	0
279	0	0
280	0	0
281	0	0
282	0	0
283	0	0
284	1	0
285	0	0
286	0	0
287	0	0
288	0	0
289	0	0
290	0	0
291	0	0
292	0	0
293	0	0
294	0	0
295	0	0
296	0	0
297	0	0
298	0	0
299	0	0
300	0	0
301	0	0
302	1	0
303	0	0
304	0	0
305	0	0
306	0	0
307	0	0
308	0	0
309	0	0
310	0	0
311	0	0
312	0	0
313	0	0
314	0	0
315	0	0
316	0	0
317	0	0
318	0	0
319	0	0
320	0	0
321	0	0
322	0	0
323	0	0
324	0	0
325	0	0
326	0	0
327	0	0
328	0	0
329	0	0
330	0	0
331	0	0
332	0	0
333	0	0
334	0	0
335	0	0
336	1	0
337	0	0
338	0	0
339	0	0
340	0	0
341	0	0
342	0	0
343	0	0
344	0	0
345	0	0
346	0	0
347	0	0
348	0	0
349	1	0
350	0	0
351	1	0
352	0	0
353	0	0
354	0	0
355	0	0
356	0	0
357	0	0
358	0	0
359	0	0
360	0	0
361	0	0
362	0	0
363	0	0
364	0	0
365	0	0
366	0	0
367	0	0
368	0	0
369	0	0
370	0	0
371	0	0
372	1	0
373	1	0
374	1	0
375	1	0
376	1	0
377	1	0
378	1	0
379	1	0
380	1	0
381	1	0
382	1	0
383	1	0
384	1	0
385	1	0
386	1	0
387	0	0
388	0	0
389	1	0
390	1	0
391	1	0
392	1	0
393	0	0
394	0	0
395	0	0
396	0	0
397	0	0
398	0	0
399	0	0
400	0	0
401	0	0
402	0	0
403	0	0
404	0	0
405	0	0
406	0	0
407	0	0
408	0	0
409	0	0
410	0	0
411	0	0
412	0	0
413	0	0
414	0	0
415	0	0
416	0	0
417	0	0
418	0	0
419	0	0
420	0	0
421	0	0
422	0	0
423	0	0
424	0	0
425	0	0
426	0	0
427	0	0
428	0	0
429	0	0
430	0	0
431	0	0
432	0	0
433	0	0
434	0	0
435	0	0
436	0	0
437	0	0
438	0	0
439	0	0
440	0	0
441	0	0
442	0	0
443	1	0
444	1	0
445	1	0
446	1	0
447	0	0
448	0	0
449	0	0
450	0	0
451	0	0
452	0	0
453	0	0
454	0	0
455	0	0
456	0	0
457	0	0
458	0	0
459	0	0
460	0	0
461	0	0
462	0	0
463	0	0
464	1	0
465	1	0
466	1	0
467	1	0
468	1	0
469	1	0
470	1	0
471	0	0
472	0	0
473	0	0
474	0	0
475	0	0
476	0	0
477	0	0
478	0	0
479	0	0
480	0	0
481	0	0
482	0	0
483	0	0
484	1	0
485	1	0
486	1	0
487	1	0
488	1	0
489	1	0
490	1	0
491	1	0
492	1	0
493	1	0
494	1	0
495	1	0
496	1	0
497	1	0
498	1	0
499	1	0
500	1	0
501	0	0
502	0	0
503	0	0
504	0	0
505	0	0
506	0	0
507	0	0
508	0	0
509	0	0
510	0	0
511	1	0
512	1	0
513	1	0
514	1	0
515	0	0
516	0	0
517	0	0
518	0	0
519	0	0
520	0	0
521	0	0
522	0	0
523	0	0
524	0	0
525	0	0
526	0	0
527	0	0
528	0	0
529	0	0
530	0	0
531	0	0
532	0	0
533	0	0
534	0	0
535	0	0
536	0	0
537	0	0
538	0	0
539	0	0
540	0	0
541	0	0
542	0	0
543	0	0
544	0	0
545	0	0
546	0	0
547	0	0
548	0	0
549	0	0
550	0	0
551	0	0
552	0	0
553	0	0
554	0	0
555	0	0
556	0	0
557	0	0
558	0	0
559	0	0
560	0	0
561	0	0
562	0	0
563	0	0
564	0	0
565	0	0
566	0	0
567	0	0
568	0	0
569	0	0
570	0	0
571	0	0
572	0	0
573	0	0
574	1	0
575	1	0
576	0	0
577	0	0
578	0	0
579	0	0
580	0	0
581	0	0
582	0	0
583	0	0
584	0	0
585	0	0
586	0	0
587	0	0
588	0	0
589	0	0
590	1	0
591	1	0
592	1	0
593	1	0
594	1	0
595	1	0
596	0	0
597	0	0
598	0	0
599	0	0
600	0	0
601	0	0
602	0	0
603	0	0
604	0	0
605	0	0
606	0	0
607	0	0
608	0	0
609	0	0
610	0	0
611	0	0
612	0	0
613	0	0
614	0	0
615	0	0
616	0	0
617	0	0
618	0	0
619	0	0
620	0	0
621	1	0
622	1	0
623	1	0
624	1	0
625	1	0
626	1	0
627	1	0
628	1	0
629	1	0
630	1	0
631	1	0
632	1	0
633	1	0
634	1	0
635	1	0
636	0	0
637	0	0
638	0	0
639	0	0
640	0	0
641	0	0
642	0	0
643	0	0
644	0	0
645	0	0
646	0	0
647	0	0
648	0	0
649	0	0
650	0	0
651	0	0
652	0	0
653	0	0
654	0	0
655	0	0
656	0	0
657	0	0
658	0	0
659	0	0
660	0	0
661	0	0
662	0	0
663	0	0
664	0	0
665	0	0
666	0	0
667	0	0
668	0	0
669	0	0
670	0	0
671	0	0
672	0	0
673	0	0
674	0	0
675	0	0
676	0	0
677	0	0
678	0	0
679	0	0
680	0	0
681	0	0
682	0	0
683	0	0
684	0	0
685	0	0
686	0	0
687	0	0
688	0	0
689	0	0
690	0	0
691	0	0
692	0	0
693	0	0
694	0	0
695	0	0
696	0	0
697	0	0
698	0	0
699	0	0
700	0	0
701	0	0
702	0	0
703	0	0
704	0	0
705	0	0
706	0	0
707	0	0
708	0	0
709	0	0
710	0	0
711	0	0
712	0	0
713	0	0
714	0	0
715	0	0
716	0	0
717	0	0
718	0	0
719	0	0
720	0	0
721	0	0
722	0	0
723	0	0
724	0	0
725	0	0
726	0	0
727	0	0
728	0	0
729	0	0
730	0	0
731	0	0
732	0	0
733	0	0
734	0	0
735	0	0
736	0	0
737	0	0
738	0	0
739	0	0
740	0	0
741	0	0
742	0	0
743	0	0
744	0	0
745	0	0
746	0	0
747	0	0
748	0	0
749	0	0
750	0	0
751	0	0
752	0	0
753	0	0
754	0	0
755	0	0
756	0	0
757	0	0
758	0	0
759	0	0
760	0	0
761	0	0
762	0	0
763	0	0
764	0	0
765	0	0
766	0	0
767	0	0
768	0	0
769	0	0
770	0	0
771	0	0
772	0	0
773	0	0
774	0	0
775	0	0
776	0	0
777	0	0
778	0	0
779	0	0
780	0	0
781	0	0
782	0	0
783	0	0
784	0	0
785	0	0
786	0	0
787	0	0
788	0	0
789	0	0
790	0	0
791	0	0
792	0	0
793	0	0
794	0	0
795	0	0
796	0	0
797	0	0
798	0	0
799	0	0
800	0	0
801	0	0
802	0	0
803	0	0
804	0	0
805	0	0
806	0	0
807	0	0
808	0	0
809	0	0
810	0	0
811	0	0
812	0	0
813	0	0
814	0	0
815	0	0
816	0	0
817	0	0
818	0	0
819	0	0
820	0	0
821	0	0
822	0	0
823	0	0
824	0	0
825	0	0
826	0	0
827	0	0
828	0	0
829	0	0
830	0	0
831	0	0
832	0	0
833	0	0
834	0	0
835	0	0
836	0	0
837	0	0
838	0	0
839	0	0
840	0	0.0222222
841	0	0.030303
842	0	0.025641
843	0	0.025641
844	0	0.025641
845	0	0.025641
846	0	0.025641
847	0	0.025641
848	0	0.025641
849	0	0.010989
850	0	0.032967
851	0	0.032967
852	0	0.032967
853	0	0.032967
854	0	0.032967
855	0	0.032967
856	0	0.0571429
857	0	0.0571429
858	0	0.0571429
859	0	0.05
860	0	0.0457516
861	0	0.0457516
862	0	0.0457516
863	0	0.0457516
864	0	0.0457516
865	0	0.0457516
866	0	0.0457516
867	0	0.0409357
868	0	0.0368421
869	0	0.0368421
870	0	0.0210526
871	0	0.0210526
872	0	0.0210526
873	0	0.0210526
874	0	0.0190476
875	0	0.0190476
876	0	0.017316
877	0	0.021645
878	0	0.021645
879	0	0.021645
880	0	0.021645
881	0	0.021645
882	0	0.021645
883	0	0.021645
884	0	0.021645
885	0	0.021645
886	0	0.021645
887	0	0.021645
888	0	0.021645
889	0	0.0197628
890	0	0.0197628
891	0	0.0197628
892	0	0.0181159
893	0	0.0166667
894	0	0.0166667
895	0	0.0166667
896	0	0.0166667
897	0	0.0133333
898	0	0.0133333
899	0	0.0133333
900	0	0.0133333
901	0	0.0133333
902	0	0.0133333
903	0	0.0133333
904	0	0.0123077
905	0	0.0123077
906	0	0.0123077
907	0	0.0123077
908	0	0.0123077
909	0	0.011396
910	0	0.011396
911	0	0.011396
912	0	0.011396
913	0	0.016092
914	0	0.016092
915	0	0.016092
916	0	0.016092
917	0	0.016092
918	0	0.016092
919	0	0.016092
920	0	0.016092
921	0	0.016092
922	0	0.016092
923	0	0.016092
924	0	0.016092
925	0	0.016092
926	0	0.016092
927	0	0.016092
928	0	0.016092
929	0	0.016092
930	0	0.0150538
931	0	0.0150538
932	0	0.0150538
933	0	0.0150538
934	0	0.0150538
935	0	0.0150538
936	0	0.0150538
937	0	0.0150538
938	0	0.0150538
939	0	0.0150538
940	0	0.0150538
941	0	0.0150538
942	0	0.0150538
943	0	0.0150538
944	0	0.0150538
945	0	0.0150538
946	0	0.0150538
947	0	0.0150538
948	0	0.0150538
949	0	0.0150538
950	0	0.0150538
951	0	0.0150538
952	0	0.0150538
953	0	0.0150538
954	0	0.0150538
955	0	0.0150538
956	0	0.0150538
957	0	0.0150538
958	0	0.0150538
959	0	0.0150538
960	0	0.0150538
961	0	0.0150538
962	0	0.0150538
963	0	0.0150538
964	0	0.0150538
965	0	0.0150538
966	0	0.0150538
967	0	0.0150538
968	0	0.0150538
969	0	0.0150538
970	0	0.0150538
971	0	0.0150538
972	0	0.0150538
973	0	0.0150538
974	0	0.0141129
975	0	0.0141129
976	0	0.0141129
977	0	0.0141129
978	0	0.0141129
979	0	0.0141129
980	0	0.0141129
981	0	0.0141129
982	0	0.0141129
983	0	0.0141129
984	0	0.0100806
985	0	0.0100806
986	0	0.0100806
987	0	0.0100806
988	0	0.0120968
989	0	0.0120968
990	0	0.0141129
991	0	0.0141129
992	0	0.0141129
993	0	0.0141129
994	0	0.0141129
995	0	0.0141129
996	0	0.0141129
997	0	0.016129
998	0	0.016129
999	0	0.016129
1000	0	0.016129
1001	0	0.016129
1002	0	0.016129
1003	0	0.016129
1004	0	0.016129
1005	0	0.016129
1006	0	0.016129
1007	0	0.016129
1008	0	0.016129
1009	0	0.016129
1010	0	0.016129
1011	0	0.016129
1012	0	0.016129
1013	0	0.016129
1014	0	0.016129
1015	0	0.016129
1016	0	0.016129
1017	0	0.016129
1018	0	0.016129
1019	0	0.016129
1020	0	0.016129
1021	0	0.016129
1022	0	0.016129
1023	0	0.016129
1024	0	0.016129
1025	0	0.016129
1026	0	0.016129
1027	0	0.016129
1028	0	0.016129
1029	0	0.0181452
1030	0	0.0181452
1031	0	0.0181452
1032	0	0.0181452
1033	0	0.0181452
1034	0	0.0181452
1035	0	0.0181452
1036	0	0.0181452
1037	0	0.0181452
1038	0	0.0181452
1039	0	0.0181452
1040	0	0.0181452
1041	0	0.0181452
1042	0	0.0181452
1043	0	0.0181452
1044	0	0.0181452
1045	0	0.0181452
1046	0	0.0181452
1047	0	0.0181452
1048	0	0.0181452
1049	0	0.0141129
1050	0	0.0141129
1051	0	0.0141129
1052	0	0.0141129
1053	0	0.0141129
1054	0	0.0141129
1055	0	0.0141129
1056	0	0.0141129
1057	0	0.0141129
1058	0	0.0141129
1059	0	0.0141129
1060	0	0.0141129
1061	0	0.0141129
1062	0	0.0141129
1063	0	0.0141129
1064	0	0.0141129
1065	0	0.0141129
1066	0	0.0141129
1067	0	0.0141129
1068	0	0.0132576
1069	0	0.0132576
1070	0	0.0206349
1071	0	0.0206349
1072	0	0.0206349
1073	0	0.0206349
1074	0	0.0206349
1075	0	0.0206349
1076	0	0.0206349
1077	0	0.0206349
1078	0	0.0206349
1079	0	0.015873
1080	0	0.0175439
1081	0	0.0175439
1082	0	0.0175439
1083	0	0.0175439
1084	0	0.0175439
1085	0	0.0175439
1086	0	0.0175439
1087	0	0.015873
1088	0	0.015015
1089	0	0.0126984
1090	0	0.0126984
1091	0	0.0126984
1092	0	0.0126984
1093	0	0.015015
1094	0	0.015015
1095	0	0.015015
1096	0	0.0184922
1097	0	0.0184922
1098	0	0.0184922
1099	0	0.0184922
1100	0	0.0175439
1101	0	0.0166667
1102	0	0.0166667
1103	0	0.0166667
1104	0	0.0166667
1105	0	0.0166667
1106	0	0.0148448
1107	0	0.0179487
1108	0	0.0179487
1109	0	0.0179487
1110	0	0.0128023
1111	0	0.0128023
1112	0	0.0135135
1113	0	0.0135135
1114	0	0.0121457
1115	0	0.0121457
1116	0	0.0107962
1117	0	0.0107962
1118	0	0.0107962
1119	0	0.0134953
1120	0	0.0115385
1121	0	0.0205128
1122	0	0.0269231
1123	0	0.0320513
1124	0	0.0307692
1125	0	0.0307692
1126	0	0.0307692
1127	0	0.0307692
1128	0	0.0307692
1129	0	0.0307692
1130	0	0.0307692
1131	0	0.0307692
1132	0	0.0307692
1133	0	0.0307692
1134	0	0.0384615
1135	0	0.0384615
1136	0	0.0384615
1137	0	0.0307692
1138	0	0.0323887
1139	0	0.0404858
1140	0	0.0474359
1141	0	0.0474359
1142	0	0.0474359
1143	0	0.0474359
1144	0	0.0474359
1145	0	0.0474359
1146	0	0.0474359
1147	0	0.0474359
1148	0	0.0474359
1149	0	0.045122
1150	0	0.045122
1151	0	0.045122
1152	0	0.0439024
1153	0	0.0439024
1154	0	0.0439024
1155	0	0.0439024
1156	0	0.0439024
1157	0	0.0474359
1158	0	0.045122
1159	0	0.045122
1160	0	0.045122
1161	0	0.045122
1162	0	0.045122
1163	0	0.0268293
1164	0	0.0206349
1165	0	0.0184874
1166	0	0.0463415
1167	0	0.0463415
1168	0	0.0463415
1169	0	0.0463415
1170	0	0.0463415
1171	0	0.0463415
1172	0	0.0463415
1173	0	0.0463415
1174	0	0.0463415
1175	0	0.0463415
1176	0	0.0463415
1177	0	0.0463415
1178	0	0.0441347
1179	0	0.0441347
1180	0	0.0441347
1181	0	0.0441347
1182	0	0.0429733
1183	0	0.0429733
1184	0	0.0429733
1185	0	0.0429733
1186	0	0.0429733
1187	0	0.0383275
1188	0	0.0365449
1189	0	0.0369979
1190	0	0.038055
1191	0	0.038055
1192	0	0.038055
1193	0	0.038055
1194	0	0.038055
1195	0	0.0363636
1196	0	0.0363636
1197	0	0.0363636
1198	0	0.0363636
1199	0	0.0363636
1200	0	0.0363636
1201	0	0.0363636
1202	0	0.0363636
1203	0	0.0363636
1204	0	0.0363636
1205	0	0.0363636
1206	0	0.0373737
1207	0	0.0393939
1208	0	0.0383838
1209	0	0.0360777
1210	0	0.0360777
1211	0	0.0360777
1212	0	0.0360777
1213	0	0.0370028
1214	0	0.0370028
1215	0	0.0370028
1216	0	0.0360777
1217	0	0.0360777
1218	0	0.0360777
1219	0	0.0351526
1220	0	0.0351526
1221	0	0.0360777
1222	0	0.035461
1223	0	0.035461
1224	0	0.035461
1225	0	0.035461
1226	0	0.0345745
1227	0	0.0345745
1228	0	0.035461
1229	0	0.0310284
1230	0	0.0310284
1231	0	0.0310284
1232	0	0.0301418
1233	0	0.0301418
1234	0	0.0283688
1235	0	0.0283688
1236	0	0.0283688
1237	0	0.0283688
1238	0	0.0274823
1239	0	0.0274823
1240	0	0.0283688
1241	0	0.0292553
1242	0	0.0292553
1243	0	0.0283688
1244	0	0.0283688
1245	0	0.0292553
1246	0	0.0283688
1247	0	0.0283688
1248	0	0.0283688
1249	0	0.0301418
1250	0	0.0301418
1251	0	0.0301418
1252	0	0.0301418
1253	0	0.0301418
1254	0	0.0301418
1255	0	0.0301418
1256	0	0.0301418
1257	0	0.0301418
1258	0	0.0301418
1259	0	0.0301418
1260	0	0.0301418
1261	0	0.0310284
1262	0	0.0310284
1263	0	0.0310284
1264	0	0.0310284
1265	0	0.0310284
1266	0	0.0310284
1267	0	0.0310284
1268	0	0.0310284
1269	0	0.0310284
1270	0	0.0310284
1271	0	0.0310284
1272	0	0.0310284
1273	0	0.0310284
1274	0	0.0310284
1275	0	0.0310284
1276	0	0.0310284
1277	0	0.0310284
1278	0	0.0301418
1279	0	0.0301418
1280	0	0.0301418
1281	0	0.0301418
1282	0	0.0301418
1283	0	0.0301418
1284	0	0.0289116
1285	0	0.0289116
1286	0	0.0289116
1287	0	0.0314626
1288	0	0.0289116
1289	0	0.0289116
1290	0	0.0289116
1291	0	0.0289116
1292	0	0.0289116
1293	0	0.0289116
1294	0	0.0289116
1295	0	0.0297619
1296	0	0.0297619
1297	0	0.0297619
1298	0	0.0297619
1299	0	0.0297619
1300	0	0.0297619
1301	0	0.0297619
1302	0	0.0297619
1303	0	0.0297619
1304	0	0.0314626
1305	0	0.0306122
1306	0	0.0306122
1307	0	0.0306122
1308	0	0.0306122
1309	0	0.0306122
1310	0	0.0306122
1311	0	0.0306122
1312	0	0.0306122
1313	0	0.0306122
1314	0	0.0306122
1315	0	0.0306122
1316	0	0.0306122
1317	0	0.0293878
1318	0	0.0293878
1319	0	0.0293878
1320	0	0.0293878
1321	0	0.0293878
1322	0	0.0293878
1323	0	0.0293878
1324	0	0.0293878
1325	0	0.0293878
1326	0	0.0293878
1327	0	0.0293878
1328	0	0.0293878
1329	0	0.0293878
1330	0	0.0293878
1331	0	0.0293878
1332	0	0.0293878
1333	0	0.0293878
1334	0	0.0318367
1335	0	0.0310204
1336	0	0.0310204
1337	0	0.0263605
1338	0	0.0263605
1339	0	0.0263605
1340	0	0.0263605
1341	0	0.0263605
1342	0	0.0263605
1343	0	0.0263605
1344	0	0.0263605
1345	0	0.0263605
1346	0	0.0263605
1347	0	0.0263605
1348	0	0.0263605
1349	0	0.0263605
1350	0	0.0263605
1351	0	0.0280612
1352	0	0.0280612
1353	0	0.0280612
1354	0	0.0280612
1355	0	0.0280612
1356	0	0.0280612
1357	0	0.0280612
1358	0	0.0280612
1359	0	0.0280612
1360	0	0.0280612
1361	0	0.0269388
1362	0	0.0334694
1363	0	0.0334694
1364	0	0.0334694
1365	0	0.0334694
1366	0	0.0334694
1367	0	0.0334694
1368	0	0.0334694
1369	0	0.0334694
1370	0	0.0334694
1371	0	0.0334694
1372	0	0.0334694
1373	0	0.0334694
1374	0	0.0334694
1375	0	0.0334694
1376	0	0.0334694
1377	0	0.0334694
1378	0	0.0334694
1379	0	0.0334694
1380	0	0.0334694
1381	0	0.0334694
1382	0	0.0334694
1383	0	0.0334694
1384	0	0.0334694
1385	0	0.0334694
1386	0	0.0334694
1387	0	0.0334694
1388	0	0.0334694
1389	0	0.0334694
1390	0	0.0334694
1391	0	0.0334694
1392	0	0.0334694
1393	0	0.0334694
1394	0	0.0334694
1395	0	0.0334694
1396	0	0.0334694
1397	0	0.0334694
1398	0	0.0334694
1399	0	0.0334694
1400	0	0.0334694
1401	0	0.0334694
1402	0	0.0334694
1403	0	0.0334694
1404	0	0.0334694
1405	0	0.0334694
1406	0	0.0334694
1407	0	0.0334694
1408	0	0.0334694
1409	0	0.0334694
1410	0	0.0334694
1411	0	0.0154589
1412	0	0.0161616
1413	0	0.0161616
1414	0	0.0289116
1415	0	0.0334694
1416	0	0.0342857
1417	0	0.0342857
1418	0	0.0342857
1419	0	0.0342857
1420	0	0.0342857
1421	0	0.0342857
1422	0	0.0342857
1423	0	0.0342857
1424	0	0.0342857
1425	0	0.0342857
1426	0	0.0342857
1427	0	0.0342857
1428	0	0.0342857
1429	0	0.0342857
1430	0	0.0342857
1431	0	0.0342857
1432	0	0.0342857
1433	0	0.0342857
1434	0	0.0342857
1435	0	0.0342857
1436	0	0.0238095
1437	0	0.0277551
1438	0	0.0236735
1439	0	0.0236735
1440	0	0.0236735
1441	0	0.0154589
1442	0	0.0228571
1443	0	0.0228571
1444	0	0.0238095
1445	0	0.0277551
1446	0	0.0277551
1447	0	0.0277551
1448	0	0.0277551
1449	0	0.0277551
1450	0	0.0277551
1451	0	0.0277551
1452	0	0.0277551
1453	0	0.0277551
1454	0	0.0277551
1455	0	0.0285714
1456	0	0.0147992
1457	0	0.0147992
1458	0	0.0147992
1459	0	0.0147992
1460	0	0.0155039
1461	0	0.0155039
1462	0	0.0155039
1463	0	0.0155039
1464	0	0.0155039
1465	0	0.0155039
1466	0	0.0155039
1467	0	0.0155039
1468	0	0.0155039
1469	0	0.0155039
1470	0	0.0155039
1471	0	0.0155039
1472	0	0.0155039
1473	0	0.0329412
1474	0	0.0329412
1475	0	0.0321569
1476	0	0.0321569
1477	0	0.0321569
1478	0	0.0321569
1479	0	0.0321569
1480	0	0.0321569
1481	0	0.0321569
1482	0	0.0321569
1483	0	0.0321569
1484	0	0.0309201
1485	0	0.0309201
1486	0	0.0309201
1487	0	0.0309201
1488	0	0.0309201
1489	0	0.0309201
1490	0	0.0309201
1491	0	0.0309201
1492	0	0.0309201
1493	0	0.0309201
1494	0	0.0309201
1495	0	0.0309201
1496	0	0.0309201
1497	0	0.0309201
1498	0	0.0309201
1499	0	0.0309201
1500	0	0.0309201
1501	0	0.0309201
1502	0	0.0309201
1503	0	0.0309201
1504	0	0.0309201
1505	0	0.0309201
1506	0	0.0309201
1507	0	0.0309201
1508	0	0.0309201
1509	0	0.0309201
1510	0	0.0309201
1511	0	0.0309201
1512	0	0.0309201
1513	0	0.0309201
1514	0	0.0309201
1515	0	0.0309201
1516	0	0.0309201
1517	0	0.0309201
1518	0	0.0309201
1519	0	0.0309201
1520	0	0.0309201
1521	0	0.0309201
1522	0	0.0309201
1523	0	0.0309201
1524	0	0.0309201
1525	0	0.0309201
1526	0	0.0309201
1527	0	0.0309201
1528	0	0.0309201
1529	0	0.0309201
1530	0	0.0309201
1531	0	0.0309201
1532	0	0.0309201
1533	0	0.0135266
1534	0	0.0131313
1535	0	0.0131313
1536	0	0.0131313
1537	0	0.0125604
1538	0	0.0125604
1539	0	0.0125604
1540	0	0.0125604
1541	0	0.0125604
1542	0	0.0125604
1543	0	0.0125604
1544	0	0.0125604
1545	0	0.0125604
1546	0	0.0125604
1547	0	0.0125604
1548	0	0.0125604
1549	0	0.0125604
1550	0	0.025641
1551	0	0.025641
1552	0	0.025641
1553	0	0.025641
1554	0	0.025641
1555	0	0.025641
1556	0	0.0263952
1557	0	0.0263952
1558	0	0.0263952
1559	0	0.0263952
1560	0	0.0263952
1561	0	0.0263952
1562	0	0.0263952
1563	0	0.025641
1564	0	0.025641
1565	0	0.025641
1566	0	0.0263952
1567	0	0.0263952
1568	0	0.0271493
1569	0	0.0271493
1570	0	0.0263952
1571	0	0.0263952
1572	0	0.0263952
1573	0	0.0253991
1574	0	0.0253991
1575	0	0.0253991
1576	0	0.0253991
1577	0	0.0253991
1578	0	0.0253991
1579	0	0.0268505
1580	0	0.0275762
1581	0	0.0275762
1582	0	0.0261248
1583	0	0.0253991
1584	0	0.0253991
1585	0	0.0253991
1586	0	0.0253991
1587	0	0.0268505
1588	0	0.0268505
1589	0	0.0268505
1590	0	0.0268505
1591	0	0.0268505
1592	0	0.0224964
1593	0	0.0224964
1594	0	0.0224964
1595	0	0.0224964
1596	0	0.0188679
1597	0	0.0188679
1598	0	0.0188679
1599	0	0.0196078
1600	0	0.0196078
1601	0	0.0196078
1602	0	0.0196078
1603	0	0.0196078
1604	0	0.0196078
1605	0	0.0196078
1606	0	0.0196078
1607	0	0.0165913
1608	0	0.0143288
1609	0	0.0143288
1610	0	0.0143288
1611	0	0.014902
1612	0	0.0133333
1613	0	0.0133333
1614	0	0.0138776
1615	0	0.0138776
1616	0	0.0128205
1617	0	0.0135747
1618	0	0.0135747
1619	0	0.0135747
1620	0	0.0135747
1621	0	0.0138776
1622	0	0.0130612
1623	0	0.0138776
1624	0	0.0133333
1625	0	0.012549
1626	0	0.0143288
1627	0	0.0143288
1628	0	0.0137881
1629	0	0.0137881
1630	0	0.0137881
1631	0	0.0137881
1632	0	0.0137881
1633	0	0.0137881
1634	0	0.0145138
1635	0	0.0145138
1636	0	0.0145138
1637	0	0.0145138
1638	0	0.0145138
1639	0	0.0145138
1640	0	0.0145138
1641	0	0.0152395
1642	0	0.0152395
1643	0	0.0152395
1644	0	0.0146751
1645	0	0.0146751
1646	0	0.0146751
1647	0	0.0146751
1648	0	0.0146751
1649	0	0.0139762
1650	0	0.013468
1651	0	0.0141414
1652	0	0.0148148
1653	0	0.0148148
1654	0	0.0148148
1655	0	0.0287698
1656	0	0.0288462
1657	0	0.027972
1658	0	0.0242424
1659	0	0.0242424
1660	0	0.0242424
1661	0	0.0234442
1662	0	0.0215321
1663	0	0.0233247
1664	0	0.0243531
1665	0	0.0237838
1666	0	0.0237838
1667	0	0.0209009
1668	0	0.0207018
1669	0	0.021312
1670	0	0.020979
1671	0	0.022644
1672	0	0.0207725
1673	0	0.027035
1674	0	0.0331053
1675	0	0.0392943
1676	0	0.0826263
1677	0	0.0976509
1678	0	0.176998
1679	0	0.202336
1680	0	0.192629
1681	0	0.272045
1682	0	0.263728
1683	0	0.28596
1684	0	0.410698
1685	0	0.448207
1686	0	0.469249
1687	0	0.513468
1688	0	0.545166
1689	0	0.750044
1690	0	0.749523
1691	0	0.929902
1692	0	0.932277
1693	0	0.0526316
1694	0	0.0526316
1695	0	0.0526316
1696	0	0.0818713
1697	0	0.0915033
1698	0	0.0915033
1699	0	0.163399
1700	0	0.196078
1701	0	0.437908
1702	0	0.437908
1703	0	0.437908
1704	0	0.437908
1705	0	0.969584
1706	0	0.969641
1707	0	0.967761
1708	0	0.969641
1709	0	0.0666667
1710	0	0.0666667
1711	0	0.0666667
1712	0	0.0666667
1713	0	0.0666667
1714	0	0.0666667
1715	0	0.0666667
1716	0	0.0666667
1717	0	0.0666667
1718	0	0.0666667
1719	0	0.0666667
1720	0	0.0666667
1721	0	0.0666667
1722	0	0.0666667
1723	0	0.0666667
1724	0	0.0666667
1725	0	0.0666667
1726	0	0.0666667
1727	0	0.0666667
1728	0	0.0666667
1729	0	0.0666667
1730	0	0.0666667
1731	0	0.0666667
1732	0	0.0666667
1733	0	0.0666667
1734	0	0.0666667
1735	0	0.0666667
1736	0	0.0666667
1737	0	0.0666667
1738	0	0.1
1739	0	0.1
1740	0	0.1
1741	0	0.1
1742	0	0.1
1743	0	0.1
1744	0	0.1
1745	0	0.1
1746	0	0.1
1747	0	0.1
1748	0	0.1
1749	0	0.1
1750	0	0.1
1751	0	0.1
1752	0	0.1
1753	0	0.1
1754	0	0.1
1755	0	0.1
1756	0	0.1
1757	0	0.1
1758	0	0.1
1759	0	0.1
1760	0	0.1
1761	0	0.1
1762	0	0.1
1763	0	0
1764	0	0
1765	0	0
1766	0	0
1767	0	0
1768	0	0
1769	0	0
1770	0	0
1771	0	0
1772	0	0
1773	0	0
1774	0	0
1775	0	0
1776	0	0
1777	0	0
1778	0	0
1779	0	0
1780	0	0
1781	0	0
1782	0	0
1783	0	0
1784	0	0
1785	0	0
1786	0	0
1787	0	0
1788	0	0
1789	0	0
1790	0	0
1791	0	0
1792	0	0
1793	0	0
1794	0	0
1795	0	0
1796	0	0
1797	0	0
1798	0	0
1799	0	0
1800	0	0
1801	0	0
1802	0	0
1803	0	0
1804	0	0
1805	0	0
1806	0	0
1807	0	0
1808	0	0
1809	0	0
1810	0	0
1811	0	0
1812	0	0
1813	0	0
1814	0	0
1815	0	0
1816	0	0
1817	0	0
1818	0	0
1819	0	0
1820	0	0
1821	0	0
1822	0	0
1823	0	0
1824	0	0
1825	0	0
1826	0	0
1827	0	0
1828	0	0
1829	0	0
1830	0	0
1831	0	0
1832	0	0
1833	0	0
1834	0	0
1835	0	0
1836	0	0
1837	0	0
1838	0	0
1839	0	0
1840	0	0
1841	0	0
1842	0	0
1843	0	0
1844	0	0
1845	0	0
1846	0	0
1847	0	0
1848	0	0
1849	0	0
1850	0	0
1851	0	0
1852	0	0
1853	0	0
1854	0	0
1855	0	0
1856	0	0
1857	0	0
1858	0	0
1859	0	0
1860	0	0
1861	0	0
1862	0	0
1863	0	0
1864	0	0
1865	0	0
1866	0	0
1867	0	0
1868	0	0
1869	0	0
1870	0	0
1871	0	0
1872	0	0
1873	0	0
1874	0	0
1875	0	0
1876	0	0
1877	0	0
1878	0	0
1879	0	0
1880	0	0
1881	0	0
1882	0	0
1883	0	0
1884	0	0
1885	0	0
1886	0	0
1887	0	0
1888	0	0
1889	0	0
1890	0	0
1891	0	0
1892	0	0
1893	0	0
1894	0	0
1895	0	0
1896	0	0
1897	0	0
1898	0	0
1899	0	0
1900	0	0
1901	0	0
1902	0	0
1903	0	0
1904	0	0
1905	0	0
1906	0	0
1907	0	0
1908	0	0
1909	0	0
1910	0	0
1911	0	0
1912	0	0
1913	0	0
1914	0	0
1915	0	0
1916	0	0
1917	0	0
1918	0	0
1919	0	0
1920	0	0
1921	0	0
1922	0	0
1923	0	0
1924	0	0
1925	0	0
1926	0	0
1927	0	0
1928	0	0
1929	0	0
1930	0	0
1931	0	0
1932	0	0
1933	0	0
1934	0	0
1935	0	0
1936	0	0
1937	0	0
1938	0	0
1939	0	0
1940	0	0
1941	0	0
1942	0	0
1943	0	0
1944	0	0
1945	0	0
1946	0	0
1947	0	0
1948	0	0
1949	0	0
1950	0	0
1951	0	0
1952	0	0
1953	0	0
1954	0	0
1955	0	0
1956	0	0
1957	0	0
1958	0	0
1959	0	0
1960	0	0
1961	0	0
1962	0	0
1963	0	0
1964	0	0
1965	0	0
1966	0	0
1967	0	0
1968	0	0
1969	0	0
1970	0	0
1971	0	0
1972	0	0
1973	0	0
1974	0	0
1975	0	0
1976	0	0
1977	0	0
1978	0	0
1979	0	0
1980	0	0
1981	0	0
1982	0	0
1983	0	0
1984	0	0
1985	0	0
1986	0	0
1987	0	0
1988	0	0
1989	0	0
1990	0	0
1991	0	0
1992	0	0
1993	0	0
1994	0	0
1995	0	0
1996	0	0
1997	0	0
1998	0	0
1999	0	0
2000	0	0
2001	0	0
2002	0	0
2003	0	0
2004	0	0
2005	0	0
2006	0	0
2007	0	0
2008	0	0
2009	0	0
2010	0	0
2011	0	0
2012	0	0
2013	0	0
2014	0	0
2015	0	0
2016	0	0
2017	0	0
2018	0	0
2019	0	0
2020	0	0
2021	0	0
2022	0	0
2023	0	0
2024	0	0
2025	0	0
2026	0	0
2027	0	0
2028	0	0
2029	0	0
2030	0	0
2031	0	0
2032	0	0
2033	0	0
2034	0	0
2035	0	0
2036	0	0
2037	0	0
2038	0	0
2039	0	0
2040	0	0
2041	0	0
2042	0	0
2043	0	0
2044	0	0
2045	0	0
2046	0	0
2047	0	0.960664
2048	0	0.958828
2049	0	0.949793
2050	0	0.333333
2051	0	0.714286
2052	0	0.984957
2053	0	0.984957
2054	0	0.981251
2055	0	0.981251
2056	0	0.981251
2057	0	0
2058	0	0
2059	0	0
2060	0	0
2061	0	0
2062	0	0
2063	0	0
2064	0	0
2065	0	0
2066	0	0
2067	0	0
2068	0	0
2069	0	0
2070	0	0
2071	0	0
2072	0	0
2073	0	0
2074	0	0
2075	0	0
2076	0	0
2077	0	0
2078	0	0
2079	0	0
2080	0	0
2081	0	0
2082	0	0
2083	0	0
2084	0	0
2085	0	0
2086	0	0
2087	0	0
2088	0	0
2089	0	0
2090	0	0
2091	0	0
2092	0	0
2093	0	0
2094	0	0
2095	0	0
2096	0	0
2097	0	0
2098	0	0
2099	0	0
2100	0	0
2101	0	0
2102	0	0
2103	0	0
2104	0	0
2105	0	0
2106	0	0
2107	0	0
2108	0	0
2109	0	0
2110	0	0
2111	0	0
2112	0	0
2113	0	0
2114	0	0
2115	0	0
2116	0	0
2117	0	0
2118	0	0
2119	0	0
2120	0	0
2121	0	0
2122	0	0
2123	0	0
2124	0	0
2125	0	0
2126	0	0
2127	0	0
2128	0	0
2129	0	0
2130	0	0
2131	0	0
2132	0	0
2133	0	0
2134	0	0
2135	0	0
2136	0	0
2137	0	0
2138	0	0
2139	0	0
2140	0	0
2141	0	0
2142	0	0
2143	0	0
2144	0	0
2145	0	0
2146	0	0
2147	0	0
2148	0	0
2149	0	0
2150	0	0
2151	0	0
2152	0	0
2153	0	0
2154	0	0
2155	0	0
2156	0	0
2157	0	0
2158	0	0
2159	0	0
2160	0	0
2161	0	0
2162	0	0
2163	0	0
2164	0	0
2165	0	0
2166	0	0
2167	0	0
2168	0	0
2169	0	0
2170	0	0
2171	0	0
2172	0	0
2173	0	0
2174	0	0
2175	0	0
2176	0	0
2177	0	0
2178	0	0
2179	0	0
2180	0	0
2181	0	0
2182	0	0
2183	0	0
2184	0	0
2185	0	0
2186	0	0
2187	0	0
2188	0	0
2189	0	0
2190	0	0
2191	0	0
2192	0	0
2193	0	0
2194	0	0
2195	0	0
2196	0	0
2197	0	0
2198	0	0
2199	0	0
2200	0	0
2201	0	0
2202	0	0
2203	0	0
2204	0	0
2205	0	0
2206	0	0
2207	0	0
2208	0	0
2209	0	0
2210	0	0
2211	0	0
2212	0	0
2213	0	0
2214	0	0
2215	0	0
2216	0	0
2217	0	0
2218	0	0
2219	0	0
2220	0	0
2221	0	0
2222	0	0
2223	0	0
2224	0	0
2225	0	0
2226	0	0
2227	0	0
2228	0	0.981247
2229	0	0.981247
2230	0	0.981247
2231	0	0.981247
2232	0	0.983099
2233	0	0
2234	0	0
2235	0	0.984956
2236	0	0.984956
2237	0	0.984956
2238	0	0.98683
2239	0	0.986817
2240	0	0.98683
2241	0	0
2242	0	0
2243	0	0
2244	0	0
2245	0	0
2246	0	0
2247	0	0
2248	0	0
2249	0	0
2250	0	0
2251	0	0
2252	0	0
2253	0	0
2254	0	0
2255	0	0
2256	0	0
2257	0	0
2258	0	0
2259	0	0
2260	0	0
2261	0	0
2262	0	0
2263	0	0
2264	0	0
2265	0	0
2266	0	0
2267	0	0
2268	0	0
2269	0	0
2270	0	0.979384
2271	0	0.973779
2272	0	1
2273	0	1
2274	0	1
2275	0	0.5
2276	0	0.166667
2277	0	0
2278	0	0
2279	0	0
2280	0	0
2281	0	0
2282	0	0
2283	0	0
2284	0	0
2285	0	0
2286	0	0
2287	0	0
2288	0	0
2289	0	0
2290	0	0
2291	0	0
2292	0	0
2293	0	0
2294	0	0
2295	0	0
2296	0	0
2297	0	1
2298	0	1
2299	0	0.6
2300	0	1
2301	0	1
2302	0	1
2303	0	1
2304	0	1
2305	0	0.971803
2306	0	0.836957
2307	0	0.1
2308	0	0
2309	0	0.877298
2310	0	1
2311	0	0.539952
2312	0	0.166667
2313	0	0.166667
2314	0	0.166667
2315	0	0.166667
2316	0	0.166667
2317	0	0.166667
2318	0	0
2319	0	0
2320	0	0
2321	0	0
2322	0	0
2323	0	0
2324	0	0
2325	0	0
2326	0	0
2327	0	0
2328	0	0
2329	0	0
2330	0	0
2331	0	0
2332	0	0
2333	0	0
2334	0	0
2335	0	0
2336	0	0
2337	0	0
2338	0	0
2339	0	0
2340	0	0
2341	0	0
2342	0	0
2343	0	0
2344	0	0
2345	0	0
2346	0	0
2347	0	0
2348	0	0
2349	0	0
2350	0	0.53444
2351	0	0.533431
2352	0	0.133333
2353	0	0.133333
2354	0	0.0952381
2355	0	0.0952381
2356	0	0.0952381
2357	0	0.0952381
2358	0	0.0952381
2359	0	0.107143
2360	0	0.605051
2361	0	0.0714286
2362	0	0.0714286
2363	0	0.0714286
2364	0	0.442683
2365	0	0.338462
2366	0	0.428571
2367	0	0.0545455
2368	0	0.0444444
2369	0	0.256039
2370	0	0.192691
2371	0	0.163898
2372	0	0.0357143
2373	0	0.0357143
2374	0	0.0357143
2375	0	0.0277778
2376	0	0.0277778
2377	0	0.0277778
2378	0	0.0222222
2379	0	0.186235
2380	0	0.0526316
2381	0	0.0583333
2382	0	0.043956
2383	0	0.030303
2384	0	0.047619
2385	0	0.0643275
2386	0	0.0578947
2387	0	0.558386
2388	0	0.694564
2389	0	0.166667
2390	0	0.166667
2391	0	0.166667
2392	0	0.166667
2393	0	0.166667
2394	0	0.1
2395	0	0
2396	0	0.1
2397	0	0.411825
2398	0	0.220886
2399	0	0.630175
2400	0	0.538012
2401	0	0.538012
2402	0	0.601307
2403	0	0.601307
2404	0	0.601307
2405	0	0.601307
2406	0	0.601307
2407	0	0.601307
2408	0	0.444444
2409	0	0.444444
2410	0	0.444444
2411	0	0.444444
2412	0	0.444444
2413	0	0.444444
2414	0	0.444444
2415	0	0.397661
2416	0	0.397661
2417	0	0.397661
2418	0	0.600214
2419	0	0.15873
2420	0	0.12
2421	0	0.12
2422	0	0.12
2423	0	0.13
2424	0	0.13
2425	0	0.13
2426	0	0.184783
2427	0	0.436402
2428	0	0.213919
2429	0	0.214652
2430	0	0.260526
2431	0	0.528635
2432	0	0.473766
2433	0	0.493994
2434	0	0.646032
2435	0	0.0357143
2436	0	0.0357143
2437	0	0.0357143
2438	0	0
2439	0	0
2440	0	0
2441	0	0
2442	0	0
2443	0	0
2444	0	0
2445	0	0
2446	0	0
2447	0	0.1
2448	0	0.1
2449	0	0.1
2450	0	0.1
2451	0	0.1
2452	0	0.1
2453	0	0.1
2454	0	0.1
2455	0	0.1
2456	0	0.1
2457	0	0.166667
2458	0	0.333333
2459	0	0
2460	0	0
2461	0	0
2462	0	0
2463	0	0
2464	0	0
2465	0	0
2466	0	0
2467	0	0
2468	0	0
2469	0	0
2470	0	0
2471	0	0
2472	0	0
2473	0	0
2474	0	0
2475	0	0
2476	0	0
2477	0	0
2478	0	0
2479	0	0
2480	0	0
2481	0	0
2482	0	0
2483	0	0
2484	0	0
2485	0	0
2486	0	0
2487	0	0
2488	0	0
2489	0	0
2490	0	0
2491	0	0
2492	0	0
2493	0	0
2494	0	0
2495	0	0
2496	0	0
2497	0	0
2498	0	0
2499	0	0.166667
2500	0	0
2501	0	0
2502	0	0
2503	0	0
2504	0	0
2505	0	0
2506	0	0
2507	0	0
2508	0	0
2509	0	0
2510	0	0
2511	0	0
2512	0	0
2513	0	0
2514	0	0
2515	0	0
2516	0	0
2517	0	0
2518	0	0
2519	0	0
2520	0	0
2521	0	0
2522	0	0
2523	0	0
2524	0	0
2525	0	0
2526	0	0
2527	0	0
2528	0	0
2529	0	0
2530	0	0
2531	0	0
2532	0	0
2533	0	0
2534	0	0.986778
2535	0	0.988653
2536	0	0.986766
2537	0	0.988653
2538	0	0.988653
2539	0	0.988653
2540	0	0
2541	0	0.992413
2542	0	0.992442
2543	0	0
2544	0	0
2545	0	0
2546	0	0
2547	0	0
2548	0	0
2549	0	0
2550	0	0
2551	0	0
2552	0	0
2553	0	0
2554	0	0
2555	0	0
2556	0	0
2557	0	0
2558	0	0
2559	0	0
2560	0	0
2561	0	0
2562	1	0
2563	1	0
2564	1	0
2565	1	0
2566	1	0
2567	1	0
2568	1	0
2569	1	0
2570	1	0
2571	1	0
2572	1	0
2573	1	0
2574	1	0
2575	0	0
2576	0	0
2577	0	0
2578	0	0
2579	0	0
2580	0	0
2581	0	0
2582	0	0
2583	0	0
2584	0	0
2585	0	0
2586	0	0
2587	0	0.142857
2588	0	0.969925
2589	0	1
2590	0	0.333333
2591	0	0.333333
2592	0	0
2593	0	0.566138
2594	0	0.934391
2595	0	0.57619
2596	0	0.484211
2597	0	0
2598	0	0.1
2599	0	0.1
2600	0	0.1
2601	0	0.1
2602	0	0.1
2603	0	0.1
2604	0	0.361905
2605	0	0.294872
2606	0	0.219048
2607	0	0.219048
2608	0	0.157895
2609	0	0.146199
2610	0	0.12381
2611	0	0.0761905
2612	0	0.0711462
2613	0	0.166008
2614	0	0.237154
2615	0	0.203333
2616	0	0.283333
2617	0	0.367589
2618	0	0.573333
2619	0	0.59
2620	0	0.615385
2621	0	0.569801
2622	0	0.569801
2623	0	0.822511
2624	0	0.866886
2625	0	0.363636
2626	0	0.3
2627	0	0.840185
2628	0	0.518715
2629	0	0.524254
2630	0	0
2631	0	0
2632	0	0
2633	0	0
2634	0	0.166667
2635	0	0.675214
2636	0	0.675214
2637	0	0.881563
2638	0	0.916667
2639	0	0.983162
2640	0	0.983162
2641	0	0.983162
2642	0	0.986879
2643	0	0.990628
2644	0	0.988769
2645	0	0.990628
2646	0	0.990654
2647	0	0
2648	0	0.992513
2649	0	0.992513
2650	0	0.992513
2651	0	0.333333
2652	0	0.333333
2653	0	0
2654	0	0
2655	0	0
2656	0	0
2657	0	0
2658	0	0
2659	0	0
2660	0	0
2661	0	0
2662	0	0
2663	0	0
2664	0	0
2665	0	0
2666	0	0
2667	0	0
2668	0	0
2669	0	0
2670	0	0.987003
2671	0	0.988863
2672	0	0.988863
2673	0	0.990706
2674	0	0.990706
2675	0	0
2676	0	0.166667
2677	0	0.166667
2678	0	0.979773
2679	0	0.979755
2680	0	0
2681	0	0
2682	0	0
2683	0	0
2684	0	0
2685	0	0
2686	0	0
2687	0	0
2688	0	0
2689	0	0
2690	0	0
2691	0	0
2692	0	0
2693	0	0
2694	0	0
2695	0	0
2696	0	0
2697	0	0
2698	0	0
2699	0	0
2700	0	0.1
2701	0	0
2702	0	0.981473
2703	0	0.1
2704	0	0
2705	0	0.981475
2706	0	0.977758
2707	0	0.744106
2708	0	0
2709	0	0
2710	0	0
2711	0	0
2712	0	0
2713	0	0
2714	0	0
2715	0	0
2716	0	0
2717	0	0
2718	0	0
2719	0	0
2720	0	0
2721	0	0
2722	0	0
2723	0	0
2724	0	0
2725	0	0
2726	0	0
2727	0	0
2728	0	0
2729	0	0
2730	0	0
2731	0	0
2732	0	0
2733	0	0
2734	1	1
2735	1	1
2736	1	1
2737	1	1
2738	1	1
2739	1	1
2740	1	1
2741	0	1
2742	0	1
2743	0	1
2744	0	1
2745	0	0.5
2746	0	1
2747	0	0.895768
2748	0	0.988884
2749	0	0.987037
2750	0	0.990715
2751	0	0.990706
2752	0	0.990706
2753	0	0.990715
2754	0	0.990715
2755	0	0.333333
2756	0	0.466667
2757	0	0.837767
2758	0	0.458774
2759	0	0.428019
2760	0	0.652912
2761	0	0.467741
2762	0	0.4
2763	0	0.4
2764	0	0.603077
2765	0	0.603077
2766	0	0.603077
2767	0	0.603077
2768	0	0.307692
2769	0	0.307692
2770	0	0
2771	0	0
2772	0	0
2773	0	0
2774	0	0
2775	0	0
2776	0	0.466667
2777	0	0.681667
2778	0	0.639922
2779	0	0.633388
2780	0	0.895044
2781	0	0.1
2782	0	0.1
2783	0	0
2784	0	0.206606
2785	0	0.489029
2786	0	0.488889
2787	0	0.559284
2788	0	0.7129
2789	0	0.643082
2790	0	0
2791	0	0
2792	0	0
2793	0	0
2794	0	0
2795	0	0
2796	0	0
2797	0	0.166667
2798	0	0.771764
2799	0	0.362589
2800	0	0.72561
2801	0	0.681818
2802	0	0.681818
2803	0	0.420003
2804	0	0.728502
2805	0	0.730897
2806	0	0.726607
2807	0	0.528649
2808	0	0.386667
2809	0	0.19697
2810	0	0
2811	0	0
2812	0	0
2813	0	0
2814	0	0.43047
2815	0	0.350427
2816	0	0.418803
2817	0	0.985194
2818	0	0.985194
2819	0	0
2820	0	0
2821	0	0.333333
2822	0	0.333333
2823	0	0.5
2824	0	0.998143
2825	0	0.998143
2826	0	0.996291
2827	0	0.996291
2828	0	0.996291
2829	0	0.996291
2830	0	0.988904
2831	0	0.996277
2832	0	0.988904
2833	0	0.988904
2834	0	0.988863
2835	0	0.988843
2836	0	1
2837	0	0.599593
2838	0	0.25
2839	0	0.258065
2840	0	0.483204
2841	0	0.495158
2842	0	0.496077
2843	0	1
2844	0	0.989829
2845	0	0.490909
2846	0	0.998143
2847	0	0.998143
2848	0	0.998143
2849	0	0.998143
2850	0	0
2851	0	0.994434
2852	0	0.994434
2853	0	1
2854	0	0.508974
2855	0	0.571429
2856	0	0.977873
2857	0	0.996288
2858	0	0.998143
2859	0	0.998143
2860	0	1
2861	0	1
2862	0	0.998146
2863	0	0.99815
2864	0	0.99815
2865	0	0.996305
2866	0	0.996288
2867	0	0.996288
2868	0	0.996288
2869	0	0.333333
2870	0	0.985254
2871	0	0.712951
2872	0	0.714272
2873	0	0
2874	0	0.981528
2875	0	0.714286
2876	0	0.99814
2877	0	0.99814
2878	0	0.99814
2879	0	0.99814
2880	0	0.996281
2881	0	1
2882	0	1
2883	0	1
2884	0	1
2885	0	1
2886	0	0.985139
2887	0	0.970453
2888	0	0
2889	0	0
2890	0	0
2891	0	0
2892	0	0
2893	0	0
2894	0	0.6
2895	0	0.6
2896	0	0.6
2897	0	0.6
2898	0	0.4
2899	0	0.4
2900	0	0.333333
2901	0	0.333333
2902	0	0.307692
2903	0	0.25
2904	0	0.25
2905	0	0.2
2906	0	0.183333
2907	0	0.15942
2908	0	0.132275
2909	0	0.741218
2910	0	0.146277
2911	0	0.124706
2912	0	0.106473
2913	0	0.561861
2914	0	1
2915	0	1
2916	0	1
2917	0	1
2918	0	1
2919	0	1
2920	0	1
2921	0	1
2922	0	1
2923	0	0
2924	0	0
2925	0	0
2926	0	0
2927	0	0
2928	0	0.333333
2929	0	0.333333
2930	0	0.333333
2931	0	0.333333
2932	0	0.333333
2933	0	0.333333
2934	0	0.333333
2935	0	0.166667
2936	0	0.305556
2937	0	0.305556
2938	0	0.305556
2939	0	0.305556
2940	0	0.305556
2941	0	0.305556
2942	0	0.305556
2943	0	0.305556
2944	0	0.305556
2945	0	0.305556
2946	0	0.305556
2947	0	0.244444
2948	0	0.218182
2949	0	0.218182
2950	0	0.218182
2951	0	0.0769231
2952	0	0.0833333
2953	0	0.0454545
2954	0	0.108046
2955	0	0.104167
2956	0	0.103226
2957	0	0.42264
2958	0	0.218947
2959	0	0.215135
2960	0	0.212632
2961	0	0.21045
2962	0	0.187719
2963	0	0.172591
2964	0	0.100076
2965	0	0.0881255
2966	0	0.0719027
2967	0	0.291405
2968	0	1
2969	0	1
2970	0	1
2971	0	1
2972	0	0.333333
2973	0	0
2974	0	0
2975	0	0
2976	0	0
2977	0	0
2978	0	0
2979	0	0
2980	0	0
2981	0	0
2982	0	0
2983	0	0
2984	0	0
2985	0	0
2986	0	0
2987	0	0
2988	0	0
2989	0	0
2990	0	0
2991	0	0.103448
2992	0	0.200162
2993	0	1
2994	0	1
2995	0	1
2996	0	1
2997	0	0.333333
2998	0	0.333333
2999	0	1
3000	0	1
3001	0	0.333333
3002	0	0
3003	0	0
3004	0	0.135088
3005	0	0.0959944
3006	0	0.047619
3007	0	0.047619
3008	0	0.047619
3009	0	0.142857
3010	0	0.201935
3011	0	0.4
3012	0	0.4
3013	0	0.4
3014	0	0.4
3015	0	0.4
3016	0	0.4
3017	0	0.0994387
3018	0	0.0971787
3019	0	0.0906175
3020	0	0.0782238
3021	0	0.178744
3022	0	0.183575
3023	0	0.151691
3024	0	0.217391
3025	0	0.226678
3026	0	0.149321
3027	0	0.115332
3028	0	0.115013
3029	0	0.137401
3030	0	0.208482
3031	0	0.275239
3032	0	0.324111
3033	0	0.111111
3034	0	0.142857
3035	0	0.1
3036	0	0.166667
3037	0	0
3038	0	0
3039	0	0
3040	0	0
3041	0	0
3042	0	0
3043	0	0
3044	0	0
3045	0	0
3046	0	0
3047	0	0
3048	0	0
3049	0	0
3050	0	0
3051	0	0
3052	0	0
3053	0	0
3054	0	0
3055	0	0
3056	0	0.420635
3057	0	0.59919
3058	0	0.656214
3059	0	0.266667
3060	0	0.738649
3061	0	0
3062	0	0
3063	0	0.702104
3064	0	0.781838
3065	0	0.781838
3066	0	0.781838
3067	0	0.702104
3068	0	0.82392
3069	0	0
3070	0	0
3071	0	0
3072	0	0
3073	0	0
3074	0	0
3075	0	0
3076	0	0
3077	0	0
3078	0	0
3079	0	0
3080	0	0
3081	0	0.171404
3082	0	0.156478
3083	0	0.181818
3084	0	0.181818
3085	0	0.305556
3086	0	0.305556
3087	0	0.305556
3088	0	0.392857
3089	0	0.47619
3090	0	0.47619
3091	0	0.47619
3092	0	0.47619
3093	0	0.47619
3094	0	0.24183
3095	0	0.357143
3096	0	0.179487
3097	0	0.369369
3098	0	0.133333
3099	0	0.110672
3100	0	0.0890152
3101	0	0.0851064
3102	0	0.0761705
3103	0	0.0689655
3104	0	0.0920148
3105	0	0.155556
3106	0	0.20029
3107	0	0.141052
3108	0	0.123094
3109	0	0.253481
3110	0	0.403242
3111	0	0.188571
3112	0	0.745193
3113	0	0.357143
3114	0	0.357143
3115	0	0.1
3116	0	0.1
3117	0	0.1
3118	0	0
3119	0	0
3120	0	0
3121	0	0
3122	0	0.333333
3123	0	0.333333
3124	0	0.333333
3125	0	0.5
3126	0	0.285714
3127	0	0.285714
3128	0	0.285714
3129	0	0.142857
3130	0	0.2
3131	0	0.142857
3132	0	0.142857
3133	0	0.333333
3134	0	0.333333
3135	0	0.321429
3136	0	0.321429
3137	0	0.206621
3138	0	0.206621
3139	0	0.36553
3140	0	0.363636
3141	0	0.363636
3142	0	0.579545
3143	0	0.370983
3144	0	0.376266
3145	0	0
3146	0	0.246032
3147	0	0.266667
3148	0	0.266667
3149	0	0.266667
3150	0	0.377778
3151	0	0.377778
3152	0	0.287879
3153	0	0.287879
3154	0	0.345455
3155	0	0.433468
3156	0	0.810526
3157	0	0.810526
3158	0	0.911208
3159	0	0.916456
3160	0	0.923403
3161	0	0.285714
3162	0	0.466667
3163	0	0.466667
3164	0	0.515152
3165	0	0.487179
3166	0	0.541667
3167	0	0.541667
3168	0	0.496732
3169	0	0.888889
3170	0	0.843844
3171	0	0.847795
3172	0	0.988908
3173	0	0.987077
3174	0	0.988916
3175	0	0.99076
3176	0	0.990819
3177	0	0.990802
3178	0	0
3179	0	0
3180	0	0
3181	0	0
3182	0	0
3183	0	0
3184	0	0
3185	0	0
3186	0	0
3187	0	0
3188	0	0.994475
3189	0	0.554098
3190	0	0.539548
3191	0	0.559836
3192	0	0.333333
3193	0	0.333333
3194	0	0.333333
3195	0	1
3196	0	1
3197	0	1
3198	0	0
3199	0	0
3200	0	0
3201	0	0
3202	0	0.560522
3203	0	0.610174
3204	0	0.277778
3205	0	0.416667
3206	0	0.655453
3207	0	0.742857
3208	0	0.742857
3209	0	0.628571
3210	0	0.628571
3211	0	0.558333
3212	0	0.558333
3213	0	0.758333
3214	0	0.758333
3215	0	0.758333
3216	0	0.866667
3217	0	0.866667
3218	0	1
3219	0	1
3220	0	1
3221	0	1
3222	0	1
3223	0	1
3224	0	1
3225	0	1
3226	0	1
3227	0	1
3228	0	1
3229	0	1
3230	0	1
3231	0	1
3232	0	1
3233	0	1
3234	0	0.940038
3235	0	0.835642
3236	0	0.798599
3237	0	0.47619
3238	0	0.356725
3239	0	0.755705
3240	0	0.397294
3241	0	0.918799
3242	1	1
3243	1	1
3244	1	1
3245	1	1
3246	1	1
3247	1	1
3248	1	1
3249	1	1
3250	1	1
3251	1	1
3252	1	1
3253	1	1
3254	1	1
3255	1	1
3256	1	1
3257	1	1
3258	0	1
3259	1	1
3260	1	1
3261	1	1
3262	1	1
3263	1	1
3264	1	1
3265	1	1
3266	1	1
3267	0	1
3268	0	1
3269	0	1
3270	0	1
3271	0	1
3272	0	0.998162
3273	0	1
3274	0	1
3275	1	0
3276	1	0
3277	1	0
3278	1	0
3279	1	0
3280	0	0.998163
3281	0	0.998163
3282	0	0.998162
3283	0	0.998162
3284	0	0.998162
3285	0	0.998162
3286	1	1
3287	1	1
3288	1	1
3289	1	1
3290	1	1
3291	1	1
3292	1	1
3293	1	1
3294	1	1
3295	0	1
3296	0	1
3297	1	1
3298	1	1
3299	1	1
3300	1	1
3301	1	1
3302	1	1
3303	1	1
3304	1	1
3305	1	1
3306	1	1
3307	1	0
3308	1	0
3309	1	0
3310	1	0
3311	1	0
3312	1	0
3313	1	0
3314	1	0
3315	1	0
3316	1	0
3317	1	0
3318	1	1
3319	1	1
3320	1	1
3321	1	1
3322	1	1
3323	1	1
3324	0	0.989013
3325	0	0.998162
3326	0	0.998162
3327	0	0.998162
3328	0	0.998162
3329	0	1
3330	1	1
3331	0	0.992661
3332	1	1
3333	1	1
3334	1	1
3335	1	1
3336	0	0.998162
3337	0	0.99816
3338	0	0.998158
3339	0	0.998158
3340	0	0.996322
3341	0	0.996322
3342	0	0.996322
3343	0	0.996322
3344	0	0.996322
3345	0	0.996322
3346	0	0.92
3347	0	0.92
3348	0	0.954897
3349	0	1
3350	0	1
3351	0	1
3352	0	1
3353	0	1
3354	0	1
3355	0	1
3356	0	1
3357	0	0
3358	0	0
3359	0	0
3360	0	0
3361	0	0
3362	0	0
3363	0	0
3364	0	0
3365	0	0
3366	0	0
3367	0	0
3368	0	0
3369	0	0
3370	0	0.714286
3371	0	0.714286
3372	0	0.714286
3373	0	0.957118
3374	0	0
3375	0	0
3376	0	1
3377	0	0.488889
3378	0	0.714286
3379	0	0.714286
3380	0	0.190476
3381	0	0.142857
3382	0	0.54023
3383	0	0.443678
3384	0	0.197561
3385	0	0.108475
3386	0	0.284181
3387	0	0.115991
3388	0	0.69763
3389	0	0.433774
3390	0	0.181041
3391	0	0.405674
3392	0	0.351072
3393	0	0.164652
3394	0	0.181187
3395	0	0.168987
3396	0	0.371058
3397	0	0.419255
3398	0	0.422971
3399	0	0.432584
3400	0	0.276667
3401	0	0.505571
3402	0	0.685185
3403	0	0.34328
3404	0	0.363633
3405	0	0.688406
3406	0	0.694289
3407	0	0.800448
3408	0	0.848423
3409	0	0.262097
3410	0	0.213439
3411	0	0.258333
3412	0	0.107143
3413	0	0.214286
3414	0	0.285714
3415	0	0.285714
3416	0	0.285714
3417	0	0.285714
3418	0	0.285714
3419	0	0.4
3420	0	0.4
3421	0	0.4
3422	0	0.4
3423	0	0.583333
3424	0	0.583333
3425	0	0.535714
3426	0	0
3427	0	0
3428	0	0
3429	0	0
3430	0	0
3431	0	0
3432	0	0
3433	0	0
3434	0	0
3435	0	0
3436	0	0
3437	0	0
3438	0	0
3439	0	0
3440	0	0.666667
3441	0	0.719904
3442	0	0
3443	0	0.366667
3444	0	0.357143
3445	0	0
3446	0	0
3447	0	0
3448	0	0
3449	0	0.166667
3450	0	0.4
3451	0	0.381818
3452	0	0.685897
3453	0	0.254545
3454	0	0.348485
3455	0	0.833333
3456	0	1
3457	0	0.827751
3458	0	0.962088
3459	0	0.982143
3460	0	0.976192
3461	0	0.222222
3462	0	0.4
3463	0	0.8
3464	0	1
3465	0	1
3466	0	1
3467	0	1
3468	0	0.99448
3469	0	0.996318
3470	0	0.998157
3471	0	0.998158
3472	0	0.998158
3473	0	0.998158
3474	0	0.998158
3475	0	0.998134
3476	0	0.998134
3477	0	0.998134
3478	0	0.998134
3479	0	0.998134
3480	1	0
3481	0	0.998134
3482	0	0.998134
3483	0	0.998133
3484	0	0.998133
3485	0	0.998133
3486	0	0.998133
3487	0	0.998133
3488	0	0.998133
3489	0	0.998133
3490	0	0.998133
3491	0	0.99627
3492	0	0.998136
3493	0	0.998134
3494	0	0.998134
3495	0	0.998134
3496	0	0.998134
3497	0	1
3498	0	1
3499	0	0.3125
3500	0	0.590552
3501	0	1
3502	0	1
3503	0	1
3504	0	0.904762
3505	0	0.557895
3506	0	1
3507	0	0.333333
3508	0	0
3509	0	0
3510	0	0
3511	0	0.333333
3512	0	0.333333
3513	0	0.488889
3514	0	0.488889
3515	0	0.688445
3516	0	0.60074
3517	0	0.635301
3518	0	0.608416
3519	0	0.142857
3520	0	0.107143
3521	0	0.107143
3522	0	0.138889
3523	0	0.424925
3524	0	0.10989
3525	0	0.256757
3526	0	0.195195
3527	0	0.298246
3528	0	0.149502
3529	0	0.0909091
3530	0	0.281553
3531	0	0.257323
3532	0	0.0833333
3533	0	0.0861538
3534	0	0.0873016
3535	0	0.132308
3536	0	0.101449
3537	0	0.253066
3538	0	0.216166
3539	0	0.198133
3540	0	0.206848
3541	0	0.37809
3542	0	0.357143
3543	0	0.545788
3544	0	0.42073
3545	0	0.222222
3546	0	0.4
3547	0	0.488889
3548	0	0.8
3549	0	0.8
3550	0	1
3551	0	0.589744
3552	0	0.846154
3553	0	0.427419
3554	0	0.914211
3555	0	0.236364
3556	0	0.236364
3557	0	0.288889
3558	0	0.25
3559	0	0.111111
3560	0	0.142857
3561	0	0.142857
3562	0	0.142857
3563	0	0.142857
3564	0	0.214286
3565	0	0.285714
3566	0	0.428571
3567	0	0.428571
3568	0	0.428571
3569	0	0.428571
3570	0	0.428571
3571	0	0.428571
3572	0	0.964533
3573	0	1
3574	0	1
3575	0	0.998133
3576	0	0.998133
3577	0	0.998133
3578	0	0.998133
3579	0	0.998131
3580	0	0.998131
3581	0	0
3582	1	0
3583	0	0
3584	0	0
3585	0	0
3586	0	0.992506
3587	0	0.992541
3588	0	0.99068
3589	1	0
3590	0	0
3591	0	0.996253
3592	1	0
3593	1	0
3594	1	0
3595	1	0
3596	1	0
3597	1	0
3598	1	0
3599	1	0
3600	1	0
3601	1	0
3602	1	0
3603	1	0
3604	1	0
3605	1	0
3606	1	0
3607	0	0
3608	0	0
3609	0	0.998127
3610	0	0.998126
3611	0	0.998126
3612	0	0.998127
3613	0	0.998127
3614	0	0.998127
3615	0	0
3616	0	0.996256
3617	0	0.99626
3618	0	0.994398
3619	0	0.994398
3620	0	0.994366
3621	0	1
3622	0	0.705882
3623	0	0.544643
3624	0	0.869584
3625	0	0
3626	0	0
3627	0	0
3628	0	0
3629	0	0.675214
3630	0	0.675214
3631	0	0.72
3632	0	0.478261
3633	0	0.633987
3634	0	0.661905
3635	0	0.532468
3636	0	0.585714
3637	0	0.413333
3638	0	0.353276
3639	0	0.31339
3640	0	0.261905
3641	0	0.604035
3642	0	0.393269
3643	0	0.338983
3644	0	0.24547
3645	0	0.572328
3646	0	0.47619
3647	0	0.47619
3648	0	0.47619
3649	0	0.462857
3650	0	0.225641
3651	0	0.494308
3652	0	0.229018
3653	0	0.265525
3654	0	0.2
3655	0	0.0857143
3656	0	0.0808824
3657	0	0.421769
3658	0	0.430374
3659	0	0.221344
3660	0	0.193732
3661	0	0.19943
3662	0	0.0952381
3663	0	0.170485
3664	0	0.157428
3665	0	0
3666	0	0
3667	0	0.522876
3668	0	0.888889
3669	0	0.888889
3670	0	0.524684
3671	0	0.744589
3672	0	0.814286
3673	0	0.741379
3674	0	0.746305
3675	0	0.332034
3676	0	0.190476
3677	0	0.190476
3678	0	0.0952381
3679	0	0.302675
3680	0	0.160173
3681	0	0.132308
3682	0	0.138095
3683	0	0.131089
3684	0	0.274957
3685	0	0
3686	0	0
3687	0	0.126236
3688	0	0.135736
3689	0	0.293867
3690	0	0.192218
3691	0	0.355556
3692	0	0.355556
3693	0	0.355556
3694	0	0.355556
3695	0	0.355556
3696	0	0.409091
3697	0	0.344056
3698	0	0.519339
3699	0	0.393066
3700	0	0.571429
3701	0	0.217355
3702	0	0.156749
3703	0	0.409341
3704	0	0.16221
3705	0	0.167558
3706	0	0.400146
3707	0	0.250617
3708	0	0.244136
3709	0	0.417724
3710	0	0.418093
3711	0	0.127273
3712	0	0
3713	0	0.0357143
3714	0	0.047619
3715	0	0.047619
3716	0	0.0952381
3717	0	0.503238
3718	0	0.503238
3719	0	0.459038
3720	0	0
3721	0	0
3722	0	0
3723	0	0
3724	0	0
3725	0	0
3726	0	0
3727	0	0
3728	0	0
3729	0	0
3730	0	0
3731	0	0
3732	0	1
3733	0	1
3734	0	0.392857
3735	0	0.333333
3736	0	0.431887
3737	0	0.431887
3738	0	0.333333
3739	0	0.333333
3740	0	0.333333
3741	0	0
3742	0	0
3743	0	0
3744	0	0
3745	0	0
3746	0	0
3747	0	1
3748	0	0
3749	0	0
3750	0	0
3751	0	0
3752	0	0
3753	0	0
3754	0	0
3755	0	0
3756	0	0
3757	0	0
3758	0	0.3
3759	0	0.3
3760	0	0.463068
3761	0	0
3762	0	0
3763	0	0
3764	0	0
3765	0	0
3766	0	0
3767	0	0
3768	0	0
3769	0	0
3770	0	0
3771	0	0
3772	0	0
3773	0	0
3774	0	0
3775	0	0
3776	0	0.351143
3777	0	0
3778	0	0
3779	0	0
3780	0	0
3781	0	0
3782	0	0
3783	0	0
3784	0	0
3785	0	0
3786	0	0.6
3787	0	0
3788	0	0.333333
3789	0	0.368687
3790	0	0.1
3791	0	0.1
3792	0	0.1
3793	0	0.1
3794	0	0.2
3795	0	0.2
3796	0	0.6
3797	0	0.6
3798	0	0.6
3799	0	0.6
3800	0	1
3801	0	1
3802	0	1
3803	0	1
3804	0	1
3805	0	0.666667
3806	0	0.508743
3807	0	0.857855
3808	0	0.95047
3809	0	0.444444
3810	0	1
3811	0	1
3812	0	0.983094
3813	0	0.983094
3814	0	0
3815	0	0.99434
3816	0	0.992506
3817	0	0
3818	0	0
3819	0	0
3820	0	0
3821	0	0
3822	0	0
3823	0	0.986996
3824	0	0.986996
3825	0	0.987008
3826	0	0.994398
3827	0	0.998126
3828	0	0.998126
3829	0	1
3830	0	0.998127
3831	0	0.998127
3832	0	0.998129
3833	0	0.998129
3834	0	0.998129
3835	0	0.998129
3836	0	0.998129
3837	0	1
3838	0	1
3839	0	1
3840	0	0.998131
3841	0	0.998131
3842	0	0.998131
3843	0	0.998131
3844	0	0.998131
3845	0	0.998131
3846	0	0.998131
3847	0	0.994408
3848	0	0.990708
3849	0	0.994405
3850	0	0.996265
3851	0	0.996265
3852	0	0.996265
3853	0	0.996265
3854	1	1
3855	0	0.992551
3856	0	0.992551
3857	0	0.992543
3858	0	1
3859	0	1
3860	0	1
3861	0	1
3862	0	1
3863	0	0
3864	0	0
3865	0	0
3866	0	0
3867	0	0
3868	0	0
3869	0	0
3870	0	0
3871	0	0
3872	0	0
3873	0	0
3874	0	0
3875	0	0
3876	1	0
3877	1	0
3878	1	0
3879	1	0
3880	1	0
3881	1	0
3882	1	0
3883	1	0
3884	1	0
3885	0	0.943375
3886	0	0.939715
3887	0	0
3888	0	0.672727
3889	0	0.426316
3890	0	0.355556
3891	0	0.404412
3892	0	0.910348
3893	0	0.311828
3894	0	0.311828
3895	0	0.222222
3896	0	0.163333
3897	0	0.116667
3898	0	0.116667
3899	0	0.685413
3900	0	0.1
3901	0	0.1
3902	0	0.1
3903	0	0.1
3904	0	0.1
3905	0	0.1
3906	0	0.106061
3907	0	0.212121
3908	0	0.362953
3909	0	0.333073
3910	0	0.0826211
3911	0	0.114286
3912	0	0.114286
3913	0	0.209195
3914	0	0.245977
3915	0	0.285714
3916	0	0.251232
3917	0	0.251232
3918	0	0.269841
3919	0	0.141026
3920	0	0.177778
3921	0	0.218182
3922	0	0.535632
3923	0	0.63908
3924	0	0.63908
3925	0	0.845421
3926	0	0.0714286
3927	0	0.142857
3928	0	0.142857
3929	0	0.107143
3930	0	0.142857
3931	0	0.142857
3932	0	0.142857
3933	0	0.4
3934	0	0.321429
3935	0	0.25
3936	0	0.25
3937	0	0.321429
3938	0	0.321429
3939	0	0.321429
3940	0	0.696825
3941	0	0.742857
3942	0	0.742857
3943	0	0.939516
3944	0	0.428571
3945	0	0.4
3946	0	0.321429
3947	0	0.321429
3948	0	0.25
3949	0	0.25
3950	0	0.4
3951	0	0.25
3952	0	0.466667
3953	0	0.466667
3954	0	0.466667
3955	0	0.52381
3956	0	0.52381
3957	0	0.560606
3958	0	0.589744
3959	0	0.9738
3960	0	0
3961	0	0
3962	0	1
3963	0	1
3964	0	1
3965	0	1
3966	0	1
3967	0	1
3968	0	0.956042
3969	0	0.956042
3970	0	0.75
3971	0	0.75
3972	0	0.979798
3973	0	0.958978
3974	0	0.826056
3975	0	0.808472
3976	1	0
3977	0	1
3978	0	1
3979	0	1
3980	0	1
3981	0	1
3982	0	1
3983	0	0.988823
3984	0	0.990665
3985	0	0.990673
3986	0	0.990673
3987	0	0.990673
3988	0	0.975857
3989	1	1
3990	1	1
3991	0	1
3992	0	0.990628
3993	0	0.990593
3994	0	0.990566
3995	0	1
3996	0	1
3997	0	0
3998	0	0
3999	0	0
4000	0	0
4001	0	0
4002	0	0
4003	0	0
4004	1	0
4005	0	0.988642
4006	0	0.984884
4007	0	0.988642
4008	0	0.988642
4009	0	0.977501
4010	0	0
4011	0	0
4012	0	0
4013	0	0
4014	0	0
4015	0	0
4016	0	0
4017	0	0
4018	0	0
4019	0	0
4020	0	0
4021	0	0
4022	0	0
4023	0	0
4024	0	0
4025	0	0
4026	0	0
4027	0	0
4028	0	0.956979
4029	0	1
4030	0	1
4031	0	1
4032	0	1
4033	0	1
4034	0	1
4035	0	0
4036	0	0
4037	0	0
4038	0	0
4039	0	0
4040	0	0
4041	0	0
4042	0	0
4043	0	0
4044	0	0
4045	0	0
4046	0	0
4047	0	0.142857
4048	0	0.107143
4049	0	0.934839
4050	0	0
4051	0	0
4052	0	0
4053	0	0
4054	0	0
4055	0	0
4056	0	0
4057	0	0
4058	0	0
4059	0	0
4060	0	0
4061	0	0
4062	0	0
4063	0	0
4064	0	0
4065	0	0
4066	0	0
4067	0	0
4068	0	0.574605
4069	0	0
4070	0	0
4071	0	0
4072	0	0
4073	0	0
4074	0	0
4075	0	0
4076	0	0
4077	0	0
4078	0	0
4079	1	0
4080	1	0
4081	1	0
4082	1	0
4083	1	0
4084	1	0
4085	1	0
4086	1	0
4087	1	0
4088	1	0
4089	1	0
4090	1	0
4091	0	0
4092	0	0
4093	0	0
4094	0	0
4095	0	0
4096	0	0
4097	0	0
4098	0	0
4099	0	0
4100	0	0
4101	0	0
4102	0	0
4103	0	0
4104	0	0
4105	0	0
4106	0	0.982899
4107	0	0.982896
4108	0	0
4109	0	0
4110	0	0
4111	0	0
4112	0	0
4113	0	0
4114	0	0
4115	0	0
4116	0	0
4117	0	0
4118	0	0
4119	0	0
4120	0	0
4121	0	0
4122	0	0.333333
4123	0	0.333333
4124	0	0.166667
4125	0	0.5
4126	0	0.969672
4127	0	0.967761
4128	0	0.1
4129	0	0.973335
4130	0	0.958264
4131	0	0.952724
4132	0	0.952769
4133	0	0
4134	0	0
4135	0	0
4136	0	0
4137	0	0
4138	0	0
4139	0	0
4140	0	0
4141	0	0
4142	0	0
4143	0	0.333333
4144	0	0
4145	0	0
4146	0	0
4147	0	0.5
4148	0	0.2
4149	0	0.111111
4150	0	0.0888889
4151	0	0.59551
4152	0	0.522811
4153	0	0.83049
4154	0	0.1
4155	0	0.707188
4156	0	0.707188
4157	0	0.67019
4158	0	0
4159	0	0.619565
4160	0	0.55102
4161	0	0.393665
4162	0	0.431866
4163	0	0.416162
4164	0	0.387845
4165	0	0.416926
4166	0	0.725468
4167	0	0.236988
4168	0	0.643413
4169	0	0.628069
4170	0	0.627962
4171	0	0
4172	0	0
4173	0	0
4174	0	0
4175	0	0
4176	0	0.460606
4177	0	0.457014
4178	0	0
4179	0	0
4180	0	0
4181	0	0
4182	0	0
4183	0	0
4184	0	0
4185	0	0
4186	0	0
4187	0	0
4188	0	0
4189	0	0
4190	0	0
4191	0	0
4192	0	0
4193	0	0
4194	0	0
4195	0	0
4196	0	0
4197	0	0
4198	0	0
4199	0	0
4200	0	0.333333
4201	0	0.333333
4202	0	0
4203	0	0
4204	0	0
4205	0	0
4206	0	0
4207	0	0
4208	0	0
4209	0	0
4210	0	0
4211	0	0
4212	0	0
4213	0	0
4214	0	0
4215	0	0
4216	0	0
4217	0	0
4218	0	0
4219	0	0
4220	0	0.416667
4221	0	0.285714
4222	0	0.214286
4223	0	0.164835
4224	0	0.181818
4225	0	0.260017
4226	0	0.241758
4227	0	0.208791
4228	0	0.519265
4229	0	0.198529
4230	0	0.198529
4231	0	0.094719
4232	0	0.0677708
4233	0	0.477056
4234	0	0.273684
4235	0	0.273684
4236	0	0.273684
4237	0	0.300945
4238	0	0.300945
4239	0	0.299595
4240	0	0.300945
4241	0	0.270732
4242	0	0.270732
4243	0	0.336585
4244	0	0.0678629
4245	0	0.0632307
4246	0	0.250172
4247	0	0.236388
4248	0	0.234964
4249	0	0.317212
4250	0	0.384236
4251	0	0.240398
4252	0	0.238976
4253	0	0.159317
4254	0	0.159317
4255	0	0.148649
4256	0	0.141141
4257	0	0.142643
4258	0	0.305398
4259	0	0.0706605
4260	0	0.0944144
4261	0	0.0766234
4262	0	0.0597403
4263	0	0.056391
4264	0	0.0688525
4265	0	0.0423729
4266	0	0.0366581
4267	0	0.473577
4268	0	0.342488
4269	0	0.336168
4270	0	0.0410774
4271	0	0.118954
4272	0	0.108581
4273	0	0.0493402
4274	0	0.0573024
4275	0	0.0572761
4276	0	0.3044
4277	0	0.177433
4278	0	0.156388
4279	0	0
4280	0	0
4281	0	0
4282	0	0
4283	0	0
4284	0	0
4285	0	0
4286	0	0
4287	0	0
4288	0	0
4289	0	0
4290	0	0
4291	0	0
4292	0	0
4293	0	0
4294	0	0
4295	0	0
4296	0	0
4297	0	0
4298	0	0
4299	0	0
4300	0	0
4301	0	0
4302	0	0
4303	0	0
4304	0	0
4305	0	0
4306	0	0
4307	0	0
4308	0	0
4309	0	0
4310	0	0
4311	0	0
4312	0	0
4313	0	0
4314	0	0
4315	0	0
4316	0	0
4317	0	0
4318	0	0
4319	0	0
4320	0	0
4321	0	0
4322	0	0
4323	0	0
4324	0	0
4325	0	0
4326	0	0
4327	0	0
4328	0	0
4329	0	0
4330	0	0.333333
4331	0	0.333333
4332	0	0.333333
4333	0	0.333333
4334	0	0.333333
4335	0	0.333333
4336	0	0.333333
4337	0	0.333333
4338	0	0.333333
4339	0	0.333333
4340	0	0.333333
4341	0	0.333333
4342	0	0.333333
4343	0	0.333333
4344	0	0.333333
4345	0	0.333333
4346	0	0.333333
4347	0	0.333333
4348	0	0.333333
4349	0	0.333333
4350	0	0.333333
4351	0	0.333333
4352	0	0.333333
4353	0	0.333333
4354	0	0.333333
4355	0	0.333333
4356	0	0.333333
4357	0	0.333333
4358	0	0.333333
4359	0	0.333333
4360	0	0.333333
4361	0	0.333333
4362	0	0.333333
4363	0	0.333333
4364	0	0.333333
4365	0	0.333333
4366	0	0.333333
4367	0	0.333333
4368	0	0.333333
4369	0	0.333333
4370	0	0.333333
4371	0	0.333333
4372	0	0.333333
4373	0	0.333333
4374	0	0.333333
4375	0	0.333333
4376	0	0.333333
4377	0	0.2
4378	0	0.0571429
4379	0	0.0952381
4380	0	0.181818
4381	0	0.0952381
4382	0	0.0952381
4383	0	0.43908
4384	0	0.470443
4385	0	0.0363636
4386	0	0.416698
4387	0	0.266968
4388	0	0.125874
4389	0	0.142857
4390	0	0.171928
4391	0	0.240988
4392	0	0.44306
4393	0	0.335992
4394	0	0.0684211
4395	0	0.0684211
4396	0	0.0578947
4397	0	0.0643275
4398	0	0.133005
4399	0	0.281087
4400	0	0.114634
4401	0	0.109756
4402	0	0.0707317
4403	0	0.0688259
4404	0	0.0531561
4405	0	0.057036
4406	0	0.0820477
4407	0	0.0786268
4408	0	0.271272
4409	0	0.286602
4410	0	0.1
4411	0	0.1
4412	0	0.1
4413	0	0.1
4414	0	0.1
4415	0	0.102263
4416	0	0.205541
4417	0	0.24183
4418	0	0.272059
4419	0	0.338235
4420	0	0.338235
4421	0	0.338235
4422	0	0.298246
4423	0	0.342857
4424	0	0.370927
4425	0	0.26922
4426	0	0.161905
4427	0	0.243077
4428	0	0.385714
4429	0	0.4
4430	0	0.461538
4431	0	0.89272
4432	0	0.166667
4433	0	0.166667
4434	0	0.166667
4435	0	0.166667
4436	0	0.865116
4437	0	0.166667
4438	0	0.333333
4439	0	0.333333
4440	0	0.333333
4441	0	0.333333
4442	0	0.333333
4443	0	0.333333
4444	0	0.333333
4445	0	0.333333
4446	0	0.333333
4447	0	0.333333
4448	0	0.333333
4449	0	0.333333
4450	0	1
4451	0	1
4452	0	1
4453	0	1
4454	0	1
4455	0	1
4456	0	1
4457	0	1
4458	0	1
4459	0	1
4460	0	1
4461	0	1
4462	0	1
4463	0	1
4464	0	1
4465	0	1
4466	0	1
4467	0	1
4468	0	1
4469	0	0
4470	0	0
4471	0	0
4472	0	1
4473	0	1
4474	0	1
4475	0	1
4476	0	1
4477	0	1
4478	0	1
4479	0	1
4480	0	1
4481	0	1
4482	0	1
4483	0	1
4484	0	1
4485	0	1
4486	0	1
4487	0	1
4488	0	1
4489	0	1
4490	0	1
4491	0	1
4492	0	1
4493	0	1
4494	0	1
4495	0	1
4496	0	1
4497	0	1
4498	0	1
4499	0	0.456092
4500	0	0.327485
4501	0	0.327485
4502	0	0.333333
4503	0	0.3
4504	0	0.752648
4505	0	0.718249
4506	0	0.299652
4507	0	0.299652
4508	0	0.285714
4509	0	0.55814
4510	0	0.588235
4511	0	0.899731
4512	0	0.904246
4513	0	0.907891
4514	0	0
4515	0	0
4516	0	0
4517	0	0
4518	0	0
4519	0	0
4520	0	0
4521	0	0
4522	0	0
4523	0	0
4524	0	0
4525	0	0
4526	0	0
4527	0	0
4528	0	0
4529	0	0
4530	0	0
4531	0	0
4532	0	0.1
4533	0	0.2
4534	0	0.715789
4535	0	0.728571
4536	0	0.948457
4537	0	0.944744
4538	0	0.937482
4539	0	0.937482
4540	0	0
4541	0	0
4542	0	0
4543	0	0
4544	0	0
4545	0	0
4546	0	0
4547	0	0
4548	0	0
4549	0	0
4550	0	0
4551	0	0
4552	0	0
4553	0	0
4554	0	0
4555	0	0
4556	0	0
4557	0	0
4558	0	0
4559	0	0
4560	0	0
4561	0	0
4562	0	0
4563	0	0
4564	0	0
4565	0	0
4566	0	0
4567	0	0
4568	0	0
4569	0	0
4570	0	0
4571	0	0
4572	0	0
4573	0	0
4574	0	0
4575	0	0
4576	0	0
4577	0	0
4578	0	0
4579	0	0
4580	0	0
4581	0	0
4582	0	0
4583	0	0
4584	0	0
4585	0	0
4586	0	0
4587	0	0
4588	0	0
4589	0	0
4590	0	0
4591	0	0
4592	0	0
4593	0	0
4594	0	0
4595	0	0
4596	0	0
4597	0	0
4598	0	0
4599	0	0
4600	0	0
4601	0	0
4602	0	0
4603	0	0
4604	0	0
4605	0	0
4606	0	0
4607	0	0
4608	0	0
4609	0	0
4610	0	0
4611	0	0
4612	0	0
4613	0	0
4614	0	0
4615	0	0
4616	0	0
4617	0	0
4618	0	0
4619	0	0
4620	0	0
4621	0	0
4622	0	0
4623	0	0
4624	0	0
4625	0	0
4626	0	0
4627	0	0
4628	0	0
4629	0	0
4630	0	0
4631	0	0
4632	0	0
4633	0	0
4634	0	0
4635	0	0
4636	0	0
4637	0	0
4638	0	0
4639	0	0
4640	0	0
4641	0	0
4642	0	0
4643	0	0
4644	0	0
4645	0	0
4646	0	0
4647	0	0
4648	0	0
4649	0	0
4650	0	0
4651	0	0
4652	0	0
4653	0	0
4654	0	0
4655	0	0
4656	0	0
4657	0	0
4658	0	0
4659	0	0
4660	0	0
4661	0	0
4662	0	0
4663	0	0
4664	0	0
4665	0	0
4666	0	0
4667	0	0
4668	0	0
4669	0	0
4670	0	0
4671	0	0
4672	0	0
4673	0	0
4674	0	0
4675	0	0
4676	0	0
4677	0	0
4678	0	0
4679	0	0
4680	0	0
4681	0	0
4682	0	0
4683	0	0
4684	0	0
4685	0	0
4686	0	0
4687	0	0
4688	0	0
4689	0	0
4690	0	0
4691	0	0
4692	0	0
4693	0	0
4694	0	0
4695	0	0
4696	0	0
4697	0	0
4698	0	0
4699	0	0
4700	0	0
4701	0	0
4702	0	0
4703	0	0
4704	0	0
4705	0	0
4706	0	0
4707	0	0
4708	0	0
4709	0	0
4710	0	0
4711	0	0
4712	0	0
4713	0	0
4714	0	0
4715	0	0
4716	0	0
4717	0	0
4718	0	0
4719	0	0
4720	0	0
4721	0	0
4722	0	0
4723	0	0
4724	0	0
4725	0	0
4726	0	0
4727	0	0
4728	0	0
4729	0	0
4730	0	0
4731	0	0
4732	0	0
4733	0	0
4734	0	0
4735	0	0
4736	0	0
4737	0	0
4738	0	0
4739	0	0
4740	0	0
4741	0	0
4742	0	0
4743	0	0
4744	0	0
4745	0	0
4746	0	0
4747	0	0
4748	0	0
4749	0	0
4750	0	0
4751	0	0
4752	0	0
4753	0	0
4754	0	0
4755	0	0
4756	0	0
4757	0	0
4758	0	0
4759	0	0
4760	0	0
4761	0	0
4762	0	0
4763	0	0
4764	0	0
4765	0	0
4766	0	0
4767	0	0
4768	0	0
4769	0	0
4770	0	0
4771	0	0
4772	0	0
4773	0	0
4774	0	0
4775	0	0
4776	0	0
4777	0	0
4778	0	0
4779	0	0
4780	0	0
4781	0	0
4782	0	0
4783	0	0
4784	0	0
4785	0	0
4786	0	0
4787	0	0
4788	0	0
4789	0	0
4790	0	0
4791	0	0
4792	0	0
4793	0	0
4794	0	0
4795	0	0
4796	0	0
4797	0	0
4798	0	0
4799	0	0
4800	0	0
4801	0	0
4802	0	0
4803	0	0
4804	0	0
4805	0	0
4806	0	0
4807	0	0
4808	0	0
4809	0	0
4810	0	0
4811	0	0
4812	0	0
4813	0	0
4814	0	0
4815	0	0
4816	0	0
4817	0	0
4818	0	0
4819	0	0
4820	0	0
4821	0	0
4822	0	0
4823	0	0
4824	0	0
4825	0	0
4826	0	0
4827	0	0
4828	0	0
4829	0	0
4830	1	0
4831	1	0
4832	1	0
4833	0	0
4834	1	0
4835	1	0
4836	1	0
4837	1	0
4838	1	0
4839	1	0
4840	1	0
4841	1	0
4842	0	0
4843	0	0
4844	0	0
4845	0	0
4846	0	0
4847	0	0
4848	0	0
4849	0	0
4850	0	0
4851	0	0
4852	0	0
4853	0	0
4854	0	0
4855	0	0
4856	0	0
4857	0	0
4858	0	0
4859	0	0
4860	0	0
4861	0	0
4862	0	0
4863	0	0
4864	0	0
4865	0	0
4866	0	0
4867	0	0
4868	0	0
4869	0	0
4870	0	0
4871	0	0
4872	0	0
4873	0	0
4874	0	0
4875	0	0
4876	0	0
4877	1	0
4878	0	0
4879	0	0
4880	0	0
4881	0	0
4882	0	0
4883	0	0
4884	0	0
4885	0	0
4886	0	0
4887	0	0
4888	0	0
4889	0	0
4890	0	0
4891	0	0
4892	0	0
4893	0	0
4894	0	0
4895	0	0
4896	0	0
4897	0	0
4898	0	0
4899	0	0
4900	0	0
4901	0	0
4902	0	0
4903	0	0
4904	0	0
4905	0	0
4906	0	0
4907	0	0
4908	0	0
4909	0	0
4910	0	0
4911	0	0
4912	0	0
4913	0	0
4914	0	0
4915	0	0
4916	0	0
4917	0	0
4918	0	0
4919	0	0
4920	0	0
4921	0	0
4922	0	0
4923	0	0
4924	0	0
4925	0	0
4926	0	0
4927	0	0
4928	0	0
4929	0	0
4930	0	0
4931	0	0
4932	0	0
4933	0	0
4934	0	0
4935	0	0
4936	0	0
4937	0	0
4938	1	0
4939	1	0
4940	1	0
4941	1	0
4942	1	0
4943	0	0
4944	0	0
4945	0	0
4946	0	0
4947	0	0
4948	0	0
4949	0	0
4950	0	0
4951	0	0
4952	0	0
4953	0	0
4954	0	0
4955	0	0
4956	0	0
4957	0	0
4958	0	0
4959	0	0
4960	0	0
4961	0	0
4962	0	0
4963	0	0
4964	0	0
4965	0	0
4966	0	0
4967	0	0
4968	0	0
4969	0	0
4970	0	0
4971	0	0
4972	0	0
4973	0	0
4974	0	0
4975	0	0
4976	0	0
4977	0	0
4978	0	0
4979	0	0
4980	0	0
4981	0	0
4982	0	0
4983	0	0
4984	1	0
4985	0	0
4986	0	0
4987	0	0
4988	0	0
4989	0	0
4990	0	0
4991	0	0
4992	0	0
4993	0	0
4994	0	0
4995	0	0
4996	0	0
4997	0	0
4998	0	0
4999	0	0
5000	0	0
5001	0	0
5002	0	0
5003	0	0
5004	0	0
5005	0	0
5006	0	0
5007	0	0
5008	0	0
5009	0	0
5010	0	0
5011	0	0
5012	0	0
5013	0	0
5014	0	0
5015	0	0
5016	0	0
5017	0	0
5018	0	0
5019	0	0
5020	0	0
5021	0	0
5022	0	0
5023	0	0
5024	0	0
5025	0	0
5026	0	0
5027	1	0
5028	1	0
5029	0	0
5030	0	0
5031	0	0
5032	0	0
5033	0	0
5034	0	0
5035	0	0
5036	0	0
5037	0	0
5038	1	0
5039	1	0
5040	1	0
5041	1	0
5042	1	0
5043	1	0
5044	0	0
5045	0	0
5046	0	0
5047	0	0
5048	0	0
5049	0	0
5050	0	0
5051	0	0
5052	0	0
5053	0	0
5054	1	0
5055	1	0
5056	1	0
5057	0	0
5058	0	0
5059	0	0
5060	0	0
5061	0	0
5062	0	0
5063	0	0
5064	0	0
5065	0	0
5066	0	0
5067	0	0
5068	0	0
5069	0	0
5070	0	0
5071	0	0
5072	0	0
5073	0	0
5074	0	0
5075	0	0
5076	0	0
5077	0	0
5078	0	0
5079	0	0
5080	0	0
5081	0	0
5082	0	0
5083	0	0
5084	0	0
5085	0	0
5086	0	0
5087	0	0
5088	0	0
5089	0	0
5090	0	0
5091	0	0
5092	0	0
5093	0	0
5094	0	0
5095	0	0
5096	0	0
5097	0	0
5098	0	0
5099	0	0
5100	0	0
5101	0	0
5102	0	0
5103	0	0
5104	0	0
5105	0	0
5106	0	0
5107	0	0
5108	0	0
5109	0	0
5110	0	0
5111	0	0
5112	0	0
5113	0	0
5114	0	0
5115	0	0
5116	0	0
5117	0	0
5118	0	0
5119	0	0
5120	0	0
5121	0	0
5122	0	0
5123	0	0
5124	0	0
5125	0	0
5126	0	0
5127	0	0
5128	0	0
5129	0	0
5130	0	0
5131	0	0
5132	0	0
5133	0	0
5134	0	0
5135	0	0
5136	0	0
5137	0	0
5138	0	0
5139	0	0
5140	0	0
5141	0	0
5142	0	0
5143	0	0
5144	0	0
5145	0	0
5146	0	0
5147	0	0
5148	0	0
5149	0	0
5150	0	0
5151	0	0
5152	0	0
5153	0	0
5154	0	0
5155	0	0
5156	0	0
5157	0	0
5158	0	0
5159	0	0
5160	0	0
5161	0	0
5162	0	0
5163	0	0
5164	0	0
5165	0	0
5166	0	0
5167	0	0
5168	0	0
5169	0	0
5170	0	0
5171	0	0
5172	0	0
5173	0	0
5174	0	0
5175	0	0
5176	0	0
5177	0	0
5178	0	0
5179	0	0
5180	0	0
5181	0	0
5182	0	0
5183	0	0
5184	0	0
5185	0	0
5186	0	0
5187	0	0
5188	0	0
5189	0	0
5190	0	0
5191	0	0
5192	0	0
5193	0	0
5194	0	0
5195	0	0
5196	0	0
5197	0	0
5198	0	0
5199	0	0
5200	0	0
5201	0	0
5202	0	0
5203	0	0
5204	0	0
5205	0	0
5206	0	0
5207	0	0
5208	0	0
5209	0	0
5210	0	0
5211	0	0
5212	0	0
5213	0	0
5214	0	0
5215	0	0
5216	0	0
5217	0	0
5218	0	0
5219	0	0
5220	0	0
5221	0	0
5222	0	0
5223	0	0
5224	0	0
5225	0	0
5226	0	0
5227	0	0
5228	0	0
5229	0	0
5230	0	0
5231	0	0
5232	0	0
5233	0	0
5234	0	0
5235	0	0
5236	0	0
5237	0	0
5238	0	0
5239	0	0
5240	0	0
5241	0	0
5242	0	0
5243	0	0
5244	0	0
5245	0	0
5246	0	0
5247	0	0
5248	0	0
5249	0	0
5250	0	0
5251	0	0
5252	0	0
5253	0	0
5254	0	0
5255	0	0
5256	0	0
5257	0	0
5258	0	0
5259	0	0
5260	0	0
5261	0	0
5262	0	0
5263	0	0
5264	0	0
5265	0	0
5266	0	0
5267	0	0
5268	0	0
5269	0	0
5270	0	0
5271	0	0
5272	0	0
5273	0	0
5274	0	0
5275	0	0
5276	0	0
5277	0	0
5278	0	0
5279	0	0
5280	0	0
5281	0	0
5282	0	0
5283	0	0
5284	0	0
5285	0	0
5286	0	0
5287	0	0
5288	0	0
5289	0	0
5290	0	0
5291	0	0
5292	0	0
5293	0	0
5294	0	0
5295	0	0
5296	0	0
5297	0	0
5298	0	0
5299	0	0
5300	0	0
5301	0	0
5302	0	0
5303	0	0
5304	0	0
5305	0	0
5306	0	0
5307	0	0
5308	0	0
5309	0	0
5310	0	0
5311	0	0
5312	0	0
5313	0	0
5314	0	0
5315	0	0
5316	0	0
5317	0	0
5318	0	0
5319	0	0
5320	0	0
5321	0	0
5322	0	0
5323	0	0
5324	0	0
5325	0	0
5326	0	0
5327	0	0
5328	0	0
5329	0	0
5330	0	0
5331	0	0
5332	0	0
5333	0	0
5334	0	0
5335	0	0
5336	0	0
5337	0	0
5338	0	0
5339	0	0
5340	0	0
5341	0	0
5342	0	0
5343	0	0
5344	0	0
5345	0	0
5346	0	0
5347	0	0
5348	0	0
5349	0	0
5350	0	0
5351	0	0
5352	0	0
5353	0	0
5354	0	0
5355	0	0
5356	0	0
5357	0	0
5358	0	0
5359	0	0
5360	0	0
5361	0	0
5362	0	0
5363	0	0
5364	0	0
5365	0	0
5366	0	0
5367	0	0
5368	0	0
5369	0	0
5370	0	0
5371	0	0
5372	0	0
5373	0	0
5374	0	0
5375	0	0
5376	0	0
5377	0	0
5378	0	0
5379	0	0
5380	0	0
5381	0	0
5382	0	0
5383	0	0
5384	0	0
5385	0	0
5386	0	0
5387	0	0
5388	0	0
5389	0	0
5390	0	0
5391	0	0
5392	0	0
5393	0	0
5394	0	0
5395	0	0
5396	0	0
5397	0	0
5398	0	0
5399	0	0
5400	0	0.1
5401	0	0.1
5402	0	0.1
5403	0	0.1
5404	0	0.1
5405	0	0.1
5406	0	0.0666667
5407	0	0.0666667
5408	0	0.0666667
5409	0	0.0666667
5410	0	0.0666667
5411	0	0.047619
5412	0	0.047619
5413	0	0.047619
5414	0	0.047619
5415	0	0.0357143
5416	0	0.0357143
5417	0	0.0357143
5418	0	0.0357143
5419	0	0.0357143
5420	0	0.0277778
5421	0	0.0181818
5422	0	0.025641
5423	0	0.025641
5424	0	0.0285714
5425	0	0.0285714
5426	0	0.025
5427	0	0.0220588
5428	0	0.0367647
5429	0	0.0367647
5430	0	0.0292398
5431	0	0.0292398
5432	0	0.878045
5433	0	0.163743
5434	0	0.122807
5435	0	0.137255
5436	0	0.137255
5437	0	0.0952381
5438	0	0.843022
5439	0	0.151261
5440	0	0.151261
5441	0	0.14958
5442	0	0.14958
5443	0	0.14958
5444	0	0.14958
5445	0	0.133333
5446	0	0.119488
5447	0	0.110953
5448	0	0.105263
5449	0	0.102564
5450	0	0.824301
5451	0	0.75
5452	0	0.333333
5453	0	0.333333
5454	0	0.333333
5455	0	0.333333
5456	0	0.333333
5457	0	0.333333
5458	0	0
5459	0	0
5460	0	0
5461	0	0
5462	0	0
5463	0	0
5464	0	0
5465	0	0
5466	0	0
5467	0	0
5468	0	0
5469	0	0
5470	0	0
5471	0	0
5472	0	0
5473	0	0
5474	0	0
5475	0	0
5476	0	0
5477	0	0
5478	0	0
5479	0	0
5480	0	0
5481	0	0
5482	0	0
5483	0	0
5484	0	0
5485	0	0
5486	0	0
5487	0	0
5488	0	0
5489	0	0
5490	0	0
5491	0	0
5492	0	0
5493	0	0
5494	0	0
5495	0	0
5496	0	0
5497	0	0
5498	0	0
5499	0	0
5500	0	0
5501	0	0
5502	0	0
5503	0	0
5504	0	0
5505	0	0
5506	0	0.181818
5507	0	0.181818
5508	0	0.155556
5509	0	0.333333
5510	0	0.333333
5511	0	0.333333
5512	0	0.333333
5513	0	0.333333
5514	0	0.333333
5515	0	0.047619
5516	0	0.047619
5517	0	0.047619
5518	0	0.852976
5519	0	0.2
5520	0	0.222222
5521	0	0.222222
5522	0	0
5523	0	0
5524	0	0
5525	0	0
5526	0	0
5527	0	0
5528	0	0
5529	0	0
5530	0	0
5531	0	0
5532	0	0
5533	0	0
5534	0	0
5535	0	0
5536	0	0
5537	0	0
5538	0	0
5539	0	0
5540	0	0
5541	0	0
5542	0	0
5543	0	0
5544	0	0
5545	0	0
5546	0	0
5547	0	0
5548	0	0
5549	0	0
5550	0	0
5551	0	0
5552	0	0
5553	0	0
5554	0	0
5555	0	0
5556	0	0
5557	0	0
5558	0	0
5559	0	0
5560	0	0
5561	0	0
5562	0	0
5563	0	0
5564	0	0
5565	0	0
5566	0	0
5567	0	0
5568	0	0
5569	0	0
5570	0	0
5571	0	0
5572	0	0
5573	0	0
5574	0	0
5575	0	0
5576	0	0
5577	0	0
5578	0	0
5579	0	0
5580	0	0
5581	0	0
5582	0	0
5583	0	0
5584	0	0
5585	0	0
5586	0	0
5587	0	0
5588	0	0
5589	0	0
5590	0	0
5591	0	0
5592	0	0
5593	0	0
5594	0	0
5595	0	0
5596	0	0
5597	0	0
5598	0	0
5599	0	0
5600	0	0
5601	0	0
5602	0	0
5603	0	0
5604	0	0
5605	0	0
5606	0	0
5607	0	0
5608	0	0
5609	0	0
5610	0	0
5611	0	0
5612	0	0
5613	0	0
5614	0	0
5615	0	0
5616	0	0
5617	0	0
5618	0	0
5619	0	0
5620	0	0
5621	0	0
5622	0	0
5623	0	0
5624	0	0
5625	0	0
5626	0	0
5627	0	0
5628	0	0
5629	0	0
5630	0	0
5631	0	0
5632	0	0
5633	0	0
5634	0	0
5635	0	0
5636	0	0
5637	0	0
5638	0	0
5639	0	0
5640	0	0
5641	0	0
5642	0	0
5643	0	0
5644	0	0
5645	0	0
5646	0	0
5647	0	0
5648	0	0
5649	0	0
5650	0	0
5651	0	0
5652	0	0
5653	0	0
5654	0	0
5655	0	0
5656	0	0
5657	0	0
5658	0	0
5659	0	0
5660	0	0
5661	0	0
5662	0	0
5663	0	0
5664	0	0
5665	0	0
5666	0	0
5667	0	0
5668	0	0
5669	0	0
5670	0	0
5671	0	0
5672	0	0
5673	0	0
5674	0	0
5675	0	0
5676	0	0
5677	0	0
5678	0	0
5679	0	0
5680	0	0
5681	0	0
5682	0	0
5683	0	0
5684	0	0
5685	0	0
5686	0	0
5687	0	0
5688	0	0
5689	0	0
5690	0	0
5691	0	0
5692	0	0
5693	0	0
5694	0	0
5695	0	0
5696	0	0
5697	0	0
5698	0	0
5699	0	0
5700	0	0
5701	0	0
5702	0	0
5703	0	0
5704	0	0
5705	0	0
5706	0	0
5707	0	0
5708	0	0
5709	0	0
5710	0	0
5711	1	0
5712	0	0
5713	0	0
5714	0	0
5715	0	0
5716	0	0
5717	0	0
5718	0	0
5719	0	0
5720	0	0
5721	0	0
5722	0	0
5723	0	0
5724	0	0
5725	0	0
5726	0	0
5727	0	0
5728	0	0
5729	0	0
5730	0	0
5731	0	0
5732	0	0
5733	0	0
5734	0	0
5735	0	0
5736	0	0
5737	0	0
5738	0	0
5739	0	0
5740	0	0
5741	0	0
5742	0	0
5743	0	0
5744	0	0
5745	0	0
5746	0	0
5747	0	0
5748	0	0
5749	0	0
5750	0	0
5751	0	0
5752	0	0
5753	0	0
5754	0	0
5755	0	0
5756	0	0
5757	1	0
5758	1	0
5759	1	0
5760	1	0
5761	1	0
5762	1	0
5763	1	0
5764	1	0
5765	1	0
5766	1	0
5767	1	0
5768	1	0
5769	1	0
5770	1	0
5771	1	0
5772	1	0
5773	1	0
5774	1	0
5775	1	0
5776	1	0
5777	1	0
5778	1	0
5779	1	0
5780	1	0
5781	1	0
5782	1	0
5783	1	0
5784	1	0
5785	1	0
5786	1	0
5787	1	0
5788	1	0
5789	1	0
5790	1	0
5791	1	0
5792	1	0
5793	1	0
5794	1	0
5795	1	0
5796	1	0
5797	1	0
5798	1	0
5799	1	0
5800	1	0
5801	1	0
5802	1	0
5803	1	0
5804	1	0
5805	1	0
5806	1	0
5807	1	0
5808	1	0
5809	1	0
5810	1	0
5811	1	0
5812	1	0
5813	1	0
5814	1	0
5815	1	0
5816	1	0
5817	1	0
5818	1	0
5819	1	0
5820	1	0
5821	1	0
5822	1	0
5823	1	0
5824	1	0
5825	1	0
5826	1	0
5827	1	0
5828	1	0
5829	1	0
5830	1	0
5831	1	0
5832	1	0
5833	1	0
5834	1	0
5835	1	0
5836	1	0
5837	1	0
5838	1	0
5839	1	0
5840	1	0
5841	1	0
5842	1	0
5843	1	0
5844	1	0
5845	1	0
5846	1	0
5847	1	0
5848	0	0
5849	0	0
5850	0	0
5851	0	0
5852	0	0
5853	0	0
5854	0	0
5855	0	0
5856	1	0
5857	1	0
5858	1	0
5859	1	0
5860	1	0
5861	1	0
5862	1	0
5863	1	0
5864	1	0
5865	1	0
5866	1	0
5867	1	0
5868	1	0
5869	1	0
5870	1	0
5871	1	0
5872	1	0
5873	1	0
5874	1	0
5875	1	0
5876	1	0
5877	1	0
5878	1	0
5879	1	0
5880	1	0
5881	1	0
5882	1	0
5883	1	0
5884	1	0
5885	1	0
5886	1	0
5887	1	0
5888	1	0
5889	1	0
5890	1	0
5891	1	0
5892	1	0
5893	1	0
5894	1	0
5895	1	0
5896	1	0
5897	1	0
5898	1	0
5899	1	0
5900	1	0
5901	1	0
5902	1	0
5903	1	0
5904	1	0
5905	1	0
5906	1	0
5907	1	0
5908	1	0
5909	1	0
5910	1	0
5911	1	0
5912	1	0
5913	1	0
5914	1	0
5915	1	0
5916	1	0
5917	1	0
5918	1	0
5919	1	0
5920	1	0
5921	1	0
5922	1	0
5923	1	0
5924	1	0
5925	1	0
5926	1	0
5927	1	0
5928	1	0
5929	1	0
5930	1	0
5931	1	0
5932	1	0
5933	1	0
5934	1	0
5935	1	0
5936	1	0
5937	1	0
5938	1	0
5939	1	0
5940	1	0
5941	1	0
5942	1	0
5943	1	0
5944	1	0
5945	1	0
5946	1	0
5947	1	0
5948	1	0
5949	1	0
5950	1	0
5951	1	0
5952	1	0
5953	1	0
5954	1	0
5955	1	0
5956	1	0
5957	1	0
5958	1	0
5959	1	0
5960	1	0
5961	1	0
5962	1	0
5963	1	0
5964	1	0
5965	1	0
5966	1	0
5967	1	0
5968	1	0
5969	1	0
5970	1	0
5971	1	0
5972	1	0
5973	1	0
5974	1	0
5975	1	0
5976	1	0
5977	1	0
5978	1	0
5979	1	0
5980	1	0
5981	1	0
5982	1	0
5983	1	0
5984	1	0
5985	1	0
5986	1	0
5987	1	0
5988	1	0
5989	1	0
5990	1	0
5991	1	0
5992	1	0
5993	1	0
5994	1	0
5995	1	0
5996	1	0
5997	1	0
5998	1	0
5999	1	0
6000	1	0
6001	1	0
6002	1	0
6003	0	0.671159
6004	0	0.667936
6005	0	0.233333
6006	0	0.0277778
6007	0	0.0277778
6008	0	0.0277778
6009	0	0.0357143
6010	0	0.0357143
6011	0	0.0357143
6012	0	0.0357143
6013	0	0.0357143
6014	0	0.0357143
6015	0	0.0357143
6016	0	0.0357143
6017	0	0.0357143
6018	0	0.0357143
6019	0	0.0357143
6020	0	0
6021	0	0
6022	0	0
6023	0	0
6024	0	0
6025	0	0
6026	0	0
6027	0	0
6028	0	0.0128205
6029	0	0.631422
6030	0	0.622315
6031	0	0.315836
6032	0	0.317166
6033	0	0.323627
6034	0	0.177954
6035	0	0.172631
6036	0	0.15641
6037	0	0.135418
6038	0	0.132973
6039	0	0.128359
6040	0	0.117127
6041	0	0.114286
6042	0	0.113761
6043	0	0.103509
6044	0	0.0839506
6045	0	0.0832998
6046	0	0.089071
6047	0	0.0552189
6048	0	0.048218
6049	0	0.0482655
6050	0	0.0270531
6051	0	0.0264271
6052	0	0.0192308
6053	0	0.0195195
6054	0	0.0190476
6055	0	0.0238095
6056	0	0.46222
6057	0	0.442274
6058	0	0.393448
6059	0	0.416922
6060	0	0.372009
6061	0	0.305729
6062	0	0.307059
6063	0	0.282856
6064	0	0.270284
6065	0	0.207449
6066	0	0.232671
6067	0	0.272269
6068	0	0.244077
6069	0	0.249468
6070	0	0.131286
6071	0	0.113394
6072	0	0.105769
6073	0	0.120219
6074	0	0.102825
6075	0	0.067451
6076	0	0.0663265
6077	0	0.116728
6078	0	0.015015
6079	0	0.015873
6080	0	0.0170455
6081	0	0.0151515
6082	0	0.016129
6083	0	0.110443
6084	0	0.108642
6085	0	0.0938375
6086	0	0.0913165
6087	0	0.101087
6088	0	0.0879444
6089	0	0.0857143
6090	0	0.10224
6091	0	0.0972599
6092	0	0.0731013
6093	0	0.0711137
6094	0	0.0681636
6095	0	0.0520127
6096	0	0.0738714
6097	0	0.0512821
6098	0	0.0491551
6099	0	0.0520164
6100	0	0.0514319
6101	0	0.0551378
6102	0	0.0579125
6103	0	0.0562162
6104	0	0.0529471
6105	0	0.0551787
6106	0	0.0377524
6107	0	0.039627
6108	0	0.0416667
6109	0	0.0179487
6110	0	0.0184922
6111	0	0.0275862
6112	0	0.0246305
6113	0	0.02849
6114	0	0.0333333
6115	0	0.0369231
6116	0	0.0513834
6117	0	0.055336
6118	0	0.0592885
6119	0	0.0760234
6120	0	0.0760234
6121	0	0.0760234
6122	0	0.0760234
6123	0	0.0849673
6124	0	0.0849673
6125	0	0.0849673
6126	0	0.0718954
6127	0	0.0718954
6128	0	0.0718954
6129	0	0.0718954
6130	0	0.0784314
6131	0	0.0784314
6132	0	0.0784314
6133	0	0.0784314
6134	0	0.0718954
6135	0	0.0808824
6136	0	0.0808824
6137	0	0.0808824
6138	0	0.0181818
6139	0	0.0181818
6140	0	0.0181818
6141	0	0.0181818
6142	0	0.0181818
6143	0	0.0222222
6144	0	0.0222222
6145	0	0.0222222
6146	0	0.0222222
6147	0	0.0277778
6148	0	0
6149	0	0
6150	0	0
6151	0	0
6152	0	0
6153	0	0
6154	0	0
6155	0	0
6156	0	0
6157	0	0
6158	0	0
6159	0	0
6160	0	0
6161	0	0
6162	0	0
6163	0	0
6164	0	0
6165	0	0
6166	0	0
6167	0	0
6168	0	0
6169	0	0
6170	0	0
6171	0	0
6172	0	0
6173	0	0
6174	0	0
6175	0	0
6176	0	0
6177	0	0
6178	0	0
6179	0	0
6180	0	0
6181	0	0
6182	0	0
6183	0	0
6184	0	0
6185	0	0
6186	0	0
6187	0	0
6188	0	0
6189	0	0
6190	0	0
6191	0	0
6192	0	0
6193	0	0
6194	0	0
6195	0	0
6196	0	0
6197	0	0
6198	0	0
6199	0	0
6200	0	0
6201	0	0
6202	0	0
6203	0	0
6204	0	0
6205	0	0
6206	0	0
6207	0	0
6208	0	0
6209	0	0
6210	0	0.604743
6211	0	0.588745
6212	0	0.532164
6213	0	0.532164
6214	0	0.532164
6215	0	0.573529
6216	0	0.573529
6217	0	0.428571
6218	0	0.318182
6219	0	0.181818
6220	0	0.181818
6221	0	0.0833333
6222	0	0.0833333
6223	0	0.142857
6224	0	0.142857
6225	0	0.142857
6226	0	0.142857
6227	0	0.142857
6228	0	0.142857
6229	0	0
6230	0	0
6231	0	0
6232	0	0
6233	0	0
6234	0	0
6235	0	0
6236	0	0
6237	0	0
6238	0	0
6239	0	0
6240	0	0
6241	0	0
6242	0	0
6243	0	0
6244	0	0
6245	0	0
6246	0	0
6247	0	0
6248	0	0
6249	0	0
6250	0	0
6251	0	0
6252	0	0
6253	0	0
6254	0	0
6255	0	0
6256	0	0
6257	0	0
6258	0	0
6259	0	0
6260	0	0
6261	0	0
6262	0	0
6263	0	0
6264	0	0
6265	0	0
6266	0	0
6267	0	0
6268	0	0
6269	0	0
6270	0	0
6271	0	0
6272	0	0
6273	0	0
6274	0	0
6275	0	0
6276	0	0
6277	0	0
6278	0	0
6279	0	0
6280	0	0
6281	0	0
6282	0	0
6283	0	0
6284	0	0
6285	0	0
6286	0	0
6287	0	0
6288	0	0
6289	0	0
6290	0	0
6291	0	0
6292	0	0
6293	0	0
6294	0	0
