Site	ColumnScore	SumOfPairsScore
1	1	0
2	1	0
3	1	0
4	1	0
5	1	0
6	1	0
7	1	0
8	1	0
9	1	0
10	1	0
11	1	0
12	1	0
13	1	0
14	1	0
15	1	0
16	1	0
17	1	0
18	1	0
19	1	0
20	1	0
21	1	0
22	1	0
23	1	0
24	1	0
25	1	0
26	1	0
27	1	0
28	1	0
29	1	0
30	1	0
31	1	0
32	1	0
33	1	0
34	1	0
35	1	0
36	1	0
37	1	0
38	1	0
39	1	0
40	1	0
41	1	0
42	1	0
43	1	0
44	1	0
45	1	0
46	1	0
47	1	0
48	1	0
49	1	0
50	1	0
51	1	0
52	1	0
53	1	0
54	1	0
55	1	0
56	1	0
57	1	0
58	1	0
59	1	0
60	1	0
61	1	0
62	1	0
63	1	0
64	1	0
65	1	0
66	1	0
67	1	0
68	1	0
69	1	0
70	1	0
71	1	0
72	1	0
73	1	0
74	1	0
75	1	0
76	1	0
77	1	0
78	1	0
79	1	0
80	1	0
81	1	0
82	1	0
83	1	0
84	1	0
85	1	0
86	1	0
87	1	0
88	1	0
89	1	0
90	1	0
91	1	0
92	1	0
93	1	0
94	1	0
95	1	0
96	1	0
97	1	0
98	1	0
99	1	0
100	1	0
101	1	0
102	1	0
103	1	0
104	1	0
105	1	0
106	1	0
107	1	0
108	1	0
109	1	0
110	1	0
111	1	0
112	1	0
113	1	0
114	1	0
115	1	0
116	1	0
117	1	0
118	1	0
119	1	0
120	1	0
121	1	0
122	1	0
123	1	0
124	1	0
125	1	0
126	1	0
127	1	0
128	1	0
129	1	0
130	1	0
131	1	0
132	1	0
133	1	0
134	1	0
135	1	0
136	1	0
137	1	0
138	1	0
139	1	0
140	1	0
141	1	0
142	1	0
143	1	0
144	1	0
145	1	0
146	1	0
147	1	0
148	1	0
149	1	0
150	1	0
151	1	0
152	1	0
153	1	0
154	1	0
155	1	0
156	1	0
157	1	0
158	1	0
159	1	0
160	1	0
161	1	0
162	1	0
163	1	0
164	1	0
165	1	0
166	1	0
167	1	0
168	1	0
169	1	0
170	1	0
171	1	0
172	1	0
173	1	0
174	1	0
175	1	0
176	1	0
177	1	0
178	1	0
179	1	0
180	1	0
181	1	0
182	1	0
183	1	0
184	1	0
185	1	0
186	1	0
187	1	0
188	1	0
189	1	0
190	1	0
191	1	0
192	1	0
193	1	0
194	1	0
195	1	0
196	1	0
197	1	0
198	1	0
199	1	0
200	1	0
201	1	0
202	1	0
203	1	0
204	1	0
205	1	0
206	1	0
207	1	0
208	1	0
209	1	0
210	1	0
211	1	0
212	1	0
213	1	0
214	1	0
215	1	0
216	1	0
217	1	0
218	1	0
219	1	0
220	1	0
221	1	0
222	1	0
223	1	0
224	1	0
225	1	0
226	1	0
227	1	0
228	1	0
229	1	0
230	1	0
231	1	0
232	1	0
233	1	0
234	1	0
235	1	0
236	1	0
237	1	0
238	1	0
239	1	0
240	1	0
241	1	0
242	1	0
243	1	0
244	1	0
245	1	0
246	1	0
247	1	0
248	1	0
249	1	0
250	1	0
251	1	0
252	1	0
253	1	0
254	1	0
255	1	0
256	1	0
257	1	0
258	1	0
259	1	0
260	1	0
261	1	0
262	1	0
263	1	0
264	1	0
265	1	0
266	1	0
267	1	0
268	1	0
269	1	0
270	1	0
271	1	0
272	1	0
273	1	0
274	1	0
275	1	0
276	1	0
277	1	0
278	1	0
279	1	0
280	1	0
281	1	0
282	1	0
283	1	0
284	1	0
285	1	0
286	1	0
287	1	0
288	1	0
289	1	0
290	1	0
291	1	0
292	1	0
293	1	0
294	1	0
295	1	0
296	1	0
297	1	0
298	1	0
299	1	0
300	1	0
301	1	0
302	1	0
303	1	0
304	1	0
305	1	0
306	1	0
307	1	0
308	1	0
309	1	0
310	1	0
311	1	0
312	1	0
313	1	0
314	1	0
315	0	0.333333
316	0	0.333333
317	0	0.333333
318	0	0.333333
319	0	0.333333
320	0	0.2
321	0	0.2
322	0	0.2
323	0	0.2
324	0	0.133333
325	0	0.133333
326	0	0.107143
327	0	0.107143
328	0	0.107143
329	0	0.0833333
330	0	0.0833333
331	0	0.0833333
332	0	0.0833333
333	0	0.0833333
334	0	0.0833333
335	0	0.0833333
336	0	0.0833333
337	0	0.0833333
338	0	0.0833333
339	0	0.0727273
340	0	0.0727273
341	0	0.0727273
342	0	0.0606061
343	0	0.0512821
344	0	0.043956
345	0	0.043956
346	0	0.043956
347	0	0.043956
348	0	0.043956
349	0	0.043956
350	0	0.043956
351	0	0.043956
352	0	0.0512821
353	0	0.043956
354	0	0.043956
355	0	0.043956
356	0	0.043956
357	0	0.043956
358	0	0.043956
359	0	0.043956
360	0	0.0659341
361	0	0.0659341
362	0	0.0659341
363	0	0.0659341
364	0	0.0659341
365	0	0.0659341
366	0	0.0659341
367	0	0.0769231
368	0	0.0769231
369	0	0.0659341
370	0	0.0659341
371	0	0.0659341
372	0	0.0659341
373	0	0.0659341
374	0	0.0512821
375	0	0.0512821
376	0	0.0512821
377	0	0.0512821
378	0	0.0512821
379	0	0.0512821
380	0	0.043956
381	0	0.043956
382	0	0.043956
383	0	0.043956
384	0	0.043956
385	0	0.043956
386	0	0.043956
387	0	0.043956
388	0	0.0659341
389	0	0.043956
390	0	0.043956
391	0	0.043956
392	0	0.0380952
393	0	0.0380952
394	0	0.0380952
395	0	0.0380952
396	0	0.0380952
397	0	0.0380952
398	0	0.0380952
399	0	0.0380952
400	0	0.0380952
401	0	0.0380952
402	0	0.0380952
403	0	0.0380952
404	0	0.047619
405	0	0.047619
406	0	0.047619
407	0	0.047619
408	0	0.047619
409	0	0.047619
410	0	0.047619
411	0	0.047619
412	0	0.047619
413	0	0.047619
414	0	0.047619
415	0	0.047619
416	0	0.047619
417	0	0.047619
418	0	0.047619
419	0	0.047619
420	0	0.0571429
421	0	0.0571429
422	0	0.0571429
423	0	0.0571429
424	0	0.0571429
425	0	0.0571429
426	0	0.0571429
427	0	0.0571429
428	0	0.0571429
429	0	0.047619
430	0	0.047619
431	0	0.047619
432	0	0.047619
433	0	0.0416667
434	0	0.0416667
435	0	0.047619
436	0	0.047619
437	0	0.047619
438	0	0.047619
439	0	0.05
440	0	0.05
441	0	0.05
442	0	0.05
443	0	0.05
444	0	0.05
445	0	0.05
446	0	0.05
447	0	0.05
448	0	0.05
449	0	0.05
450	0	0.05
451	0	0.05
452	0	0.05
453	0	0.05
454	0	0.05
455	0	0.05
456	0	0.05
457	0	0.05
458	0	0.05
459	0	0.05
460	0	0.05
461	0	0.05
462	0	0.05
463	0	0.05
464	0	0.05
465	0	0.05
466	0	0.05
467	0	0.05
468	0	0.05
469	0	0.05
470	0	0.05
471	0	0.05
472	0	0.05
473	0	0.05
474	0	0.047619
475	0	0.0416667
476	0	0.0416667
477	0	0.0416667
478	0	0.0416667
479	0	0.047619
480	0	0.047619
481	0	0.05
482	0	0.05
483	0	0.05
484	0	0.0549451
485	0	0.0659341
486	0	0.0659341
487	0	0.0659341
488	0	0.158333
489	0	0.158333
490	0	0.158333
491	0	0.158333
492	0	0.158333
493	0	0.158333
494	0	0.158333
495	0	0.158333
496	0	0.158333
497	0	0.158333
498	0	0.158333
499	0	0.158333
500	0	0.158333
501	0	0.158333
502	0	0.158333
503	0	0.158333
504	0	0.158333
505	0	0.158333
506	0	0.158333
507	0	0.158333
508	0	0.158333
509	0	0.158333
510	0	0.158333
511	0	0.158333
512	0	0.158333
513	0	0.158333
514	0	0.158333
515	0	0.158333
516	0	0.158333
517	0	0.158333
518	0	0.158333
519	0	0.158333
520	0	0.158333
521	0	0.132353
522	0	0.132353
523	0	0.132353
524	0	0.132353
525	0	0.171429
526	0	0.171429
527	0	0.171429
528	0	0.171429
529	0	0.15
530	0	0.15
531	0	0.139706
532	0	0.139706
533	0	0.139706
534	0	0.139706
535	0	0.139706
536	0	0.139706
537	0	0.139706
538	0	0.139706
539	0	0.139706
540	0	0.139706
541	0	0.139706
542	0	0.139706
543	0	0.139706
544	0	0.139706
545	0	0.139706
546	0	0.139706
547	0	0.139706
548	0	0.137255
549	0	0.122807
550	0	0.122807
551	0	0.122807
552	0	0.122807
553	0	0.122807
554	0	0.146199
555	0	0.28655
556	0	0.257895
557	0	0.257895
558	0	0.257895
559	0	0.257895
560	0	0.257895
561	0	0.257895
562	0	0.257895
563	0	0.257895
564	0	0.257895
565	0	0.257895
566	0	0.257895
567	0	0.257895
568	0	0.257895
569	0	0.257895
570	0	0.257895
571	0	0.257895
572	0	0.257895
573	0	0.257895
574	0	0.257895
575	0	0.257895
576	0	0.257895
577	0	0.257895
578	0	0.257895
579	0	0.257895
580	0	0.257895
581	0	0.257895
582	0	0.257895
583	0	0.257895
584	0	0.257895
585	0	0.257895
586	0	0.257895
587	0	0.257895
588	0	0.257895
589	0	0.257895
590	0	0.257895
591	0	0.257895
592	0	0.257895
593	0	0.257895
594	0	0.247368
595	0	0.274854
596	0	0.274854
597	0	0.274854
598	0	0.300654
599	0	0.338235
600	0	0.257895
601	0	0.257895
602	0	0.257895
603	0	0.257895
604	0	0.257895
605	0	0.257895
606	0	0.257895
607	0	0.257895
608	0	0.257895
609	0	0.257895
610	0	0.257895
611	0	0.257895
612	0	0.257895
613	0	0.257895
614	0	0.257895
615	0	0.257895
616	0	0.257895
617	0	0.257895
618	0	0.257895
619	0	0.257895
620	0	0.257895
621	0	0.257895
622	0	0.257895
623	0	0.257895
624	0	0.257895
625	0	0.257895
626	0	0.363158
627	0	0.328571
628	0	0.328571
629	0	0.319048
630	0	0.319048
631	0	0.319048
632	0	0.319048
633	0	0.319048
634	0	0.319048
635	0	0.319048
636	0	0.319048
637	0	0.352632
638	0	0.352632
639	0	0.352632
640	0	0.352632
641	0	0.352632
642	0	0.352632
643	0	0.352632
644	0	0.352632
645	0	0.352632
646	0	0.485294
647	0	0.485294
648	0	0.485294
649	0	0.485294
650	0	0.485294
651	0	0.485294
652	0	0.485294
653	0	0.352632
654	0	0.352632
655	0	0.352632
656	0	0.352632
657	0	0.352632
658	0	0.385965
659	0	0.347368
660	0	0.352632
661	0	0.363158
662	0	0.363158
663	0	0.363158
664	0	0.363158
665	0	0.363158
666	0	0.363158
667	0	0.363158
668	0	0.363158
669	0	0.363158
670	0	0.363158
671	0	0.363158
672	0	0.363158
673	0	0.363158
674	0	0.363158
675	0	0.363158
676	0	0.363158
677	0	0.298701
678	0	0.272727
679	0	0.272727
680	0	0.314286
681	0	0.314286
682	0	0.314286
683	0	0.314286
684	0	0.385965
685	0	0.385965
686	0	0.342857
687	0	0.342857
688	0	0.342857
689	0	0.342857
690	0	0.342857
691	0	0.284585
692	0	0.311688
693	0	0.311688
694	0	0.342857
695	0	0.342857
696	0	0.311688
697	0	0.342857
698	0	0.342857
699	0	0.342857
700	0	0.342857
701	0	0.311688
702	0	0.311688
703	0	0.311688
704	0	0.342857
705	0	0.342857
706	0	0.342857
707	0	0.342857
708	0	0.311688
709	0	0.311688
710	0	0.311688
711	0	0.311688
712	0	0.284585
713	0	0.284585
714	0	0.284585
715	0	0.284585
716	0	0.284585
717	0	0.284585
718	0	0.26087
719	0	0.26087
720	0	0.26087
721	0	0.26087
722	0	0.26087
723	0	0.24
724	0	0.221538
725	0	0.221538
726	0	0.221538
727	0	0.179803
728	0	0.179803
729	0	0.167816
730	0	0.165517
731	0	0.165517
732	0	0.154839
733	0	0.12381
734	0	0.101282
735	0	0.0902357
736	0	0.0614574
737	0	0.0508892
738	0	0.038835
739	0	0.0370331
740	0	0.0372503
741	0	0.0267415
742	0	0.0311886
743	0	0.0398789
744	0	0.0350636
745	0	0.0306847
746	0	0.029997
747	0	0.0516514
748	0	0.0482906
749	0	0.040612
750	0	0.0428462
751	0	0.034744
752	0	0.0331799
753	0	0.040798
754	0	0.0408215
755	0	0.0500644
756	0	0.0503941
757	0	0.0406318
758	0	0.0442266
759	0	0.0426149
760	0	0.0462645
761	0	0.0478214
762	0	0.0647067
763	0	0.065144
764	0	0.0679372
765	0	0.0770485
766	0	0.0352741
767	0	0.0438455
768	0	0.0506873
769	0	0.0579276
770	0	0.068469
771	0	0.0716049
772	0	0.0694444
773	0	0.0718354
774	0	0.0688088
775	0	0.0650407
776	0	0.0616753
777	0	0.0590971
778	0	0.182041
779	0	0.182041
780	0	0.176471
781	0	0.174902
782	0	0.0589768
783	0	0.0596867
784	0	0.0599642
785	0	0.576923
786	0	0.628571
787	0	0.628571
788	0	0.628571
789	0	0.628571
790	0	0.628571
791	0	0.628571
792	0	0.628571
793	0	0.628571
794	0	0.628571
795	0	0.55
796	0	0.55
797	0	0.55
798	0	0.55
799	0	0.55
800	0	0.55
801	0	0.55
802	0	0.0699383
803	0	0.0609463
804	0	0.0259877
805	0	0.0457875
806	0	0.0425749
807	0	0.0425873
808	0	0.0420808
809	0	0.0397951
810	0	0.0534884
811	0	0.0569944
812	0	0.0360957
813	0	0.0336969
814	0	0.0373406
815	0	0.0362565
816	0	0.0357115
817	0	0.036246
818	0	0.0344973
819	0	0.0504488
820	0	0.0505184
821	0	0.0479168
822	0	0.0462962
823	0	0.0462045
824	0	0.0462737
825	0	0
826	1	0
827	1	0
828	1	0
829	1	0
830	1	0
831	1	0
832	1	0
833	1	0
834	1	0
835	1	0
836	1	0
837	1	0
838	1	0
839	1	0
840	1	0
841	1	0
842	1	0
843	1	0
844	1	0
845	1	0
846	1	0
847	1	0
848	1	0
849	1	0
850	1	0
851	1	0
852	1	0
853	1	0
854	1	0
855	1	0
856	1	0
857	1	0
858	1	0
859	1	0
860	1	0
861	1	0
862	1	0
863	1	0
864	1	0
865	1	0
866	1	0
867	1	0
868	1	0
869	1	0
870	1	0
871	1	0
872	1	0
873	1	0
874	1	0
875	1	0
876	1	0
877	1	0
878	1	0
879	1	0
880	1	0
881	1	0
882	1	0
883	1	0
884	1	0
885	1	0
886	1	0
887	1	0
888	1	0
889	1	0
890	1	0
891	1	0
892	1	0
893	1	0
894	1	0
895	1	0
896	1	0
897	1	0
898	1	0
899	1	0
900	1	0
901	1	0
902	1	0
903	1	0
904	1	0
905	1	0
906	1	0
907	1	0
908	1	0
909	1	0
910	1	0
911	1	0
912	1	0
913	1	0
914	1	0
915	1	0
916	1	0
917	1	0
918	1	0
919	1	0
920	1	0
921	1	0
922	1	0
923	1	0
924	1	0
925	1	0
926	1	0
927	1	0
928	1	0
929	1	0
930	1	0
931	1	0
932	1	0
933	1	0
934	1	0
935	1	0
936	1	0
937	1	0
938	1	0
939	1	0
940	1	0
941	1	0
942	1	0
943	1	0
944	1	0
945	1	0
946	1	0
947	1	0
948	1	0
949	1	0
950	1	0
951	1	0
952	1	0
953	1	0
954	1	0
955	1	0
956	1	0
957	1	0
958	1	0
959	1	0
960	1	0
961	1	0
962	1	0
963	1	0
964	1	0
965	1	0
966	1	0
967	1	0
968	1	0
969	1	0
970	1	0
971	1	0
972	1	0
973	1	0
974	1	0
975	1	0
976	1	0
977	1	0
978	1	0
979	1	0
980	1	0
981	1	0
982	1	0
983	1	0
984	1	0
985	1	0
986	1	0
987	1	0
988	1	0
989	1	0
990	1	0
991	1	0
992	1	0
993	1	0
994	1	0
995	1	0
996	1	0
997	1	0
998	1	0
999	1	0
1000	1	0
1001	1	0
1002	1	0
1003	1	0
1004	1	0
1005	1	0
1006	1	0
1007	1	0
1008	1	0
1009	1	0
1010	1	0
1011	1	0
1012	1	0
1013	1	0
1014	1	0
1015	1	0
1016	1	0
1017	1	0
1018	1	0
1019	1	0
1020	1	0
1021	1	0
1022	1	0
1023	1	0
1024	1	0
1025	1	0
1026	1	0
1027	1	0
1028	1	0
1029	1	0
1030	1	0
1031	1	0
1032	1	0
1033	1	0
1034	1	0
1035	1	0
1036	1	0
1037	1	0
1038	1	0
1039	1	0
1040	1	0
1041	1	0
1042	1	0
1043	1	0
1044	1	0
1045	1	0
1046	1	0
1047	1	0
1048	1	0
1049	1	0
1050	1	0
1051	1	0
1052	1	0
1053	1	0
1054	1	0
1055	1	0
1056	1	0
1057	1	0
1058	1	0
1059	1	0
1060	1	0
1061	1	0
1062	1	0
1063	1	0
1064	1	0
1065	1	0
1066	1	0
1067	1	0
1068	1	0
1069	1	0
1070	1	0
1071	1	0
1072	1	0
1073	1	0
1074	1	0
1075	1	0
1076	1	0
1077	1	0
1078	1	0
1079	1	0
1080	1	0
1081	1	0
1082	1	0
1083	1	0
1084	1	0
1085	1	0
1086	1	0
1087	1	0
1088	1	0
1089	1	0
1090	1	0
1091	1	0
1092	1	0
1093	1	0
1094	1	0
1095	1	0
1096	1	0
1097	1	0
1098	1	0
1099	1	0
1100	1	0
1101	1	0
1102	1	0
1103	1	0
1104	1	0
1105	1	0
1106	1	0
1107	1	0
1108	1	0
1109	1	0
1110	1	0
1111	1	0
1112	1	0
1113	1	0
1114	1	0
1115	1	0
1116	1	0
1117	1	0
1118	1	0
1119	1	0
1120	1	0
1121	1	0
1122	1	0
1123	1	0
1124	1	0
1125	1	0
1126	1	0
1127	1	0
1128	1	0
1129	1	0
1130	1	0
1131	1	0
1132	1	0
1133	1	0
1134	1	0
1135	1	0
1136	1	0
1137	1	0
1138	1	0
1139	1	0
1140	1	0
1141	1	0
1142	1	0
1143	1	0
1144	1	0
1145	1	0
1146	1	0
1147	1	0
1148	1	0
1149	1	0
1150	1	0
1151	1	0
1152	1	0
1153	1	0
1154	1	0
1155	1	0
1156	1	0
1157	1	0
1158	1	0
1159	1	0
1160	1	0
1161	1	0
1162	1	0
1163	1	0
1164	1	0
1165	1	0
1166	1	0
1167	1	0
1168	1	0
1169	1	0
1170	1	0
1171	1	0
1172	1	0
1173	1	0
1174	1	0
1175	1	0
1176	1	0
1177	1	0
1178	1	0
1179	1	0
1180	1	0
1181	1	0
1182	1	0
1183	1	0
1184	1	0
1185	1	0
1186	1	0
1187	1	0
1188	1	0
1189	1	0
1190	1	0
1191	1	0
1192	1	0
1193	1	0
1194	1	0
1195	1	0
1196	1	0
1197	1	0
1198	1	0
1199	1	0
1200	1	0
1201	1	0
1202	1	0
1203	1	0
1204	1	0
1205	1	0
1206	1	0
1207	1	0
1208	1	0
1209	1	0
1210	1	0
1211	1	0
1212	1	0
1213	1	0
1214	1	0
1215	1	0
1216	1	0
1217	1	0
1218	1	0
1219	1	0
1220	1	0
1221	1	0
1222	0	0.0958206
1223	0	0.0285714
1224	0	0.0285714
1225	0	0.0285714
1226	0	0.0285714
1227	0	0.0468204
1228	0	0.0461216
1229	1	0
1230	1	0
1231	1	0
1232	1	0
1233	0	0
1234	0	0.166667
1235	0	0.166667
1236	0	0.166667
1237	1	0
1238	1	0
1239	1	0
1240	1	0
1241	1	0
1242	1	0
1243	1	0
1244	1	0
1245	1	0
1246	1	0
1247	1	0
1248	1	0
1249	0	0
1250	0	0
1251	0	0
1252	0	0
1253	0	0.0414051
1254	0	0.0422199
1255	0	0.04191
1256	0	0.010989
1257	0	0.010989
1258	0	0.0128205
1259	0	0.0128205
1260	0	0.0128205
1261	0	0.0128205
1262	0	0.0320513
1263	0	0
1264	0	0
1265	0	0
1266	0	0
1267	0	0.166667
1268	0	0.166667
1269	0	0.166667
1270	0	0.166667
1271	0	0.166667
1272	0	0.166667
1273	0	0.166667
1274	0	0.5
1275	0	0.5
1276	0	0.5
1277	0	0.5
1278	0	0.5
1279	0	0.5
1280	0	0.5
1281	0	0.5
1282	0	0.5
1283	0	0.5
1284	0	0.5
1285	0	0.5
1286	0	0.5
1287	0	0.5
1288	0	0.5
1289	0	0.5
1290	0	0.5
1291	0	0.5
1292	0	0.5
1293	0	0.5
1294	0	0.5
1295	0	0.5
1296	0	0.5
1297	0	0.5
1298	0	0.5
1299	0	0.5
1300	0	0.5
1301	0	0.5
1302	0	0.5
1303	0	0.5
1304	0	0.5
1305	0	0.5
1306	0	0.5
1307	0	0.5
1308	0	0.5
1309	0	0.5
1310	0	0.5
1311	0	0.5
1312	0	0
1313	0	0
1314	0	0
1315	0	0
1316	0	0
1317	0	0
1318	0	0
1319	0	0
1320	0	0
1321	0	0
1322	0	0
1323	0	0.333333
1324	0	0.333333
1325	0	0.333333
1326	0	0.333333
1327	0	0.333333
1328	0	0.5
1329	0	0.3
1330	0	0.3
1331	0	0.3
1332	0	0.3
1333	0	0.3
1334	0	0.3
1335	0	0.3
1336	0	0.3
1337	0	0.3
1338	0	0.3
1339	0	0.3
1340	0	0.3
1341	0	0.3
1342	0	0.3
1343	0	0.3
1344	0	0.3
1345	0	0.6
1346	0	0.6
1347	0	0.6
1348	0	0.6
1349	0	0.6
1350	0	0.6
1351	0	0.6
1352	0	0.6
1353	0	0.6
1354	0	0.6
1355	0	0.6
1356	0	0.6
1357	0	0.6
1358	0	0.6
1359	0	0.6
1360	0	0.6
1361	0	0.6
1362	0	0.6
1363	0	0.6
1364	0	0.6
1365	0	0.6
1366	0	0.6
1367	0	0.6
1368	0	0.6
1369	0	0.6
1370	0	0.6
1371	0	0.6
1372	0	0.6
1373	0	0.6
1374	0	0.6
1375	0	0.6
1376	0	0.6
1377	0	0.6
1378	0	0.6
1379	0	0.6
1380	0	0.6
1381	0	0.6
1382	0	0.6
1383	0	0.6
1384	0	0.6
1385	0	0.6
1386	0	0.6
1387	0	0.6
1388	0	0.6
1389	0	0.6
1390	0	0.6
1391	0	0.6
1392	0	0.666667
1393	0	0.666667
1394	0	0.666667
1395	0	0.666667
1396	0	0.666667
1397	0	0.666667
1398	0	0.666667
1399	0	0.666667
1400	0	0.666667
1401	0	0.666667
1402	0	0.666667
1403	0	0.666667
1404	0	0.666667
1405	0	0.666667
1406	0	0.666667
1407	0	0.666667
1408	0	0.666667
1409	0	0.666667
1410	0	0.666667
1411	0	0.666667
1412	0	0.666667
1413	0	0.666667
1414	0	0.666667
1415	0	0.705128
1416	0	0.705128
1417	0	0.705128
1418	0	0.705128
1419	0	0.705128
1420	0	0.705128
1421	0	0.705128
1422	0	0.705128
1423	0	0.705128
1424	0	0.705128
1425	0	0.705128
1426	0	0.705128
1427	0	0.705128
1428	0	0.705128
1429	0	0.705128
1430	0	0.705128
1431	0	0.705128
1432	0	0.705128
1433	0	0.705128
1434	0	0.705128
1435	0	0.705128
1436	0	0.705128
1437	0	0.705128
1438	0	0.772059
1439	0	0.772059
1440	0	0.772059
1441	0	0.772059
1442	0	0.772059
1443	0	0.772059
1444	0	0.772059
1445	0	0.772059
1446	0	0.772059
1447	0	0.772059
1448	0	0.772059
1449	0	0.772059
1450	0	0.772059
1451	0	0.882353
1452	0	0.882353
1453	0	0.882353
1454	0	0.882353
1455	0	0.882353
1456	0	0.882353
1457	0	0.882353
1458	0	0.784314
1459	0	0.784314
1460	0	0.784314
1461	0	0.784314
1462	0	0.784314
1463	0	0.784314
1464	0	0.784314
1465	0	0.784314
1466	0	0.784314
1467	0	0.784314
1468	0	0.784314
1469	0	0.784314
1470	0	0.784314
1471	0	0.784314
1472	0	0.784314
1473	0	0.784314
1474	0	0.784314
1475	0	0.784314
1476	0	0.784314
1477	0	0.784314
1478	0	0.784314
1479	0	0.784314
1480	0	0.784314
1481	0	0.784314
1482	0	0.784314
1483	0	0.784314
1484	0	0.784314
1485	0	0.784314
1486	0	0.784314
1487	0	0.784314
1488	0	0.784314
1489	0	0.784314
1490	0	0.784314
1491	0	0.784314
1492	0	0.784314
1493	0	0.784314
1494	0	0.784314
1495	0	0.784314
1496	0	0.784314
1497	0	0.784314
1498	0	0.784314
1499	0	0.784314
1500	0	0.784314
1501	0	0.784314
1502	0	0.784314
1503	0	0.784314
1504	0	0.784314
1505	0	0.784314
1506	0	0.784314
1507	0	0.784314
1508	0	0.784314
1509	0	0.784314
1510	0	0.784314
1511	0	0.784314
1512	0	0.784314
1513	0	0.784314
1514	0	0.784314
1515	0	0.784314
1516	0	0.784314
1517	0	0.784314
1518	0	0.784314
1519	0	0.784314
1520	0	0.784314
1521	0	0.784314
1522	0	0.772059
1523	0	0.784314
1524	0	0.784314
1525	0	0.784314
1526	0	0.784314
1527	0	0.784314
1528	0	0.784314
1529	0	0.784314
1530	0	0.784314
1531	0	0.784314
1532	0	0.784314
1533	0	0.784314
1534	0	0.784314
1535	0	0.784314
1536	0	0.784314
1537	0	0.784314
1538	0	0.784314
1539	0	0.784314
1540	0	0.784314
1541	0	0.784314
1542	0	0.784314
1543	0	0.784314
1544	0	0.784314
1545	0	0.784314
1546	0	0.784314
1547	0	0.784314
1548	0	0.784314
1549	0	0.784314
1550	0	0.784314
1551	0	0.784314
1552	0	0.784314
1553	0	0.784314
1554	0	0.784314
1555	0	0.784314
1556	0	0.784314
1557	0	0.784314
1558	0	0.784314
1559	0	0.784314
1560	0	0.784314
1561	0	0.784314
1562	0	0.784314
1563	0	0.784314
1564	0	0.686275
1565	0	0.784314
1566	0	0.784314
1567	0	0.784314
1568	0	0.784314
1569	0	0.784314
1570	0	0.784314
1571	0	0.784314
1572	0	0.784314
1573	0	0.686275
1574	0	0.686275
1575	0	0.686275
1576	0	0.686275
1577	0	0.686275
1578	0	0.686275
1579	0	0.686275
1580	0	0.686275
1581	0	0.772059
1582	0	0.772059
1583	0	0.772059
1584	0	0.772059
1585	0	0.772059
1586	0	0.758333
1587	0	0.457143
1588	0	0.181818
1589	0	0.181818
1590	0	0.181818
1591	0	0.163636
1592	0	0.155556
1593	0	0.155556
1594	0	0.138889
1595	0	0.138889
1596	0	0.138889
1597	0	0.138889
1598	0	0.0888889
1599	0	0.0888889
1600	0	0.0555556
1601	0	0.0555556
1602	0	0.0555556
1603	0	0.0555556
1604	0	0.0555556
1605	0	0.0555556
1606	0	0.0833333
1607	0	0.0714286
1608	0	0.0714286
1609	0	0.047619
1610	0	0.0666667
1611	0	0.1
1612	0	0.1
1613	0	0.166667
1614	0	0.166667
1615	0	0.166667
1616	0	0.166667
1617	0	0.166667
1618	0	0.166667
1619	0	0.166667
1620	0	0.166667
1621	0	0.166667
1622	0	0.166667
1623	0	0.166667
1624	0	0.166667
1625	0	0.166667
1626	0	0.166667
1627	0	0
1628	0	0
1629	0	0
1630	0	0
1631	0	0
1632	0	0
1633	0	0
1634	0	0
1635	0	0
1636	0	0
1637	0	0
1638	0	0
1639	0	0.166667
1640	0	0.166667
1641	0	0.166667
1642	0	0.166667
1643	0	0.166667
1644	0	0
1645	0	0
1646	0	0
1647	0	0
1648	0	0
1649	0	0
1650	0	0
1651	0	0
1652	0	0.0706306
1653	0	0.0724324
1654	0	0
1655	0	0
1656	0	0
1657	0	0
1658	0	0
1659	0	0
1660	0	0
1661	0	0
1662	0	0
1663	0	0
1664	0	0
1665	0	0
1666	0	0
1667	0	0
1668	0	0
1669	0	0
1670	0	0
1671	0	0
1672	0	0
1673	0	0
1674	0	0
1675	0	0
1676	0	0
1677	0	0
1678	0	0
1679	0	0
1680	0	0
1681	0	0
1682	0	0
1683	0	0
1684	0	0
1685	0	0
1686	0	0
1687	0	0
1688	0	0
1689	0	0
1690	0	0
1691	0	0
1692	0	0
1693	0	0
1694	0	0.175
1695	0	0.175
1696	0	0.175
1697	0	0.175
1698	0	0.154412
1699	0	0.183007
1700	0	0
1701	0	0
1702	0	0
1703	0	0
1704	0	0
1705	0	0
1706	0	0
1707	0	0
1708	0	0
1709	0	0
1710	0	0
1711	0	0
1712	0	0
1713	0	0
1714	0	0.047619
1715	0	0.047619
1716	0	0
1717	0	0.0222222
1718	0	0.0417334
1719	0	0.0413033
1720	0	0.0366973
1721	0	0.031339
1722	0	0.037037
1723	0	0.037037
1724	0	0.034188
1725	0	0.02849
1726	0	0.0291005
1727	0	0.0291005
1728	0	0.0390805
1729	0	0.0345345
1730	0	0.033033
1731	0	0.0255517
1732	0	0.0333333
1733	0	0.0354449
1734	0	0.0344262
1735	0	0.0313883
1736	0	0.0310574
1737	0	0.046019
1738	0	0.0381574
1739	0	0.0366399
1740	0	0.0420322
1741	0	0.0441766
1742	0	0.046482
1743	0	0.0543014
1744	0	0.0552137
1745	0	0.0576948
1746	0	0.063862
1747	0	0.0434552
1748	0	0.0410688
1749	0	0.0442494
1750	0	0.0469714
1751	0	0.0481541
1752	0	0.0498156
1753	0	0.0537298
1754	0	0.0597786
1755	0	0.089776
1756	0	0.0923029
1757	0	0.097019
1758	0	0.0996523
1759	0	0.108728
1760	0	0.114439
1761	0	0.141427
1762	0	0.143335
1763	0	0.144595
1764	0	0.145084
1765	0	0.165104
1766	0	0.167607
1767	0	0.168151
1768	0	0
1769	0	0
1770	0	0
1771	0	0
1772	0	0
1773	0	0.1
1774	0	0
1775	0	0
1776	0	0
1777	0	0
1778	0	0
1779	0	0.166667
1780	0	0.166667
1781	0	0.166667
1782	0	0.0769231
1783	0	0.10989
1784	0	0.166667
1785	0	0.166667
1786	0	0.0666667
1787	0	0.128205
1788	0	0.218182
1789	0	0.133333
1790	0	0.133333
1791	0	0.133333
1792	0	0.142857
1793	0	0.111111
1794	0	0.047619
1795	0	0.0666667
1796	0	0.0666667
1797	0	0
1798	0	0
1799	0	0
1800	0	0
1801	0	0
1802	0	0
1803	0	0
1804	0	0
1805	0	0
1806	0	0
1807	0	0
1808	0	0.0277778
1809	0	0.0606061
1810	0	0.0588235
1811	0	0.083004
1812	0	0.0724638
1813	0	0.105911
1814	0	0.12043
1815	0	0.122689
1816	0	0.140825
1817	0	0.191532
1818	0	0.234234
1819	0	0.210993
1820	0	0.297619
1821	0	0.325657
1822	0	0.384242
1823	0	0.429385
1824	0	0.514157
1825	0	0.619935
1826	0	0.57407
1827	0	0.723289
1828	0	0.709826
1829	0	0.777743
1830	0	0.596214
1831	0	0.952947
1832	0	0.956961
1833	0	0
1834	0	0
1835	0	0
1836	0	1
1837	0	1
1838	0	0.962689
1839	0	0.962689
1840	0	0
1841	0	0
1842	0	0
1843	0	0
1844	0	0.966147
1845	0	0
1846	0	0
1847	0	0
1848	0	0
1849	0	0
1850	0	0
1851	0	0
1852	0	0
1853	1	0
1854	1	0
1855	1	0
1856	1	0
1857	1	0
1858	1	0
1859	1	0
1860	1	0
1861	1	0
1862	1	0
1863	0	0
1864	0	0
1865	0	0
1866	0	0
1867	0	0
1868	0	0
1869	0	0
1870	0	0
1871	0	0
1872	0	0
1873	0	0
1874	0	0
1875	0	0
1876	0	0
1877	0	0
1878	0	0
1879	0	0
1880	0	0
1881	0	0
1882	0	0
1883	0	0
1884	0	0
1885	0	0
1886	0	0
1887	0	0
1888	0	0
1889	0	0
1890	0	0
1891	0	0
1892	0	0
1893	0	0
1894	0	0
1895	0	0
1896	0	0
1897	0	0
1898	0	0
1899	0	0
1900	0	0
1901	0	0
1902	0	0
1903	1	0
1904	1	0
1905	1	0
1906	1	0
1907	1	0
1908	0	0
1909	0	0
1910	0	0
1911	0	0
1912	0	0
1913	0	0
1914	0	0
1915	0	0
1916	0	0
1917	0	0
1918	0	0
1919	1	0
1920	0	0
1921	0	0
1922	0	0
1923	0	0
1924	0	0
1925	0	0
1926	0	0
1927	0	0
1928	0	0
1929	0	0
1930	0	0
1931	0	0
1932	0	0
1933	0	0
1934	0	0
1935	0	0
1936	0	0
1937	0	0
1938	0	0
1939	0	0
1940	0	0
1941	0	0
1942	0	0
1943	0	0
1944	0	0
1945	0	0
1946	0	0
1947	0	0
1948	0	0
1949	0	0
1950	0	0
1951	0	0
1952	0	0
1953	0	0
1954	0	0
1955	0	0
1956	0	0
1957	0	0
1958	0	0
1959	0	0
1960	0	0
1961	0	0
1962	0	0
1963	0	0
1964	1	0
1965	1	0
1966	1	0
1967	1	0
1968	0	0
1969	0	0
1970	0	0
1971	0	0
1972	0	0
1973	0	0
1974	0	0
1975	1	0
1976	1	0
1977	1	0
1978	1	0
1979	0	0
1980	0	0
1981	1	0
1982	1	0
1983	1	0
1984	1	0
1985	1	0
1986	1	0
1987	1	0
1988	1	0
1989	1	0
1990	1	0
1991	1	0
1992	1	0
1993	1	0
1994	1	0
1995	1	0
1996	1	0
1997	1	0
1998	1	0
1999	1	0
2000	0	0
2001	0	0
2002	0	0
2003	0	0
2004	0	0
2005	0	0
2006	1	0
2007	1	0
2008	1	0
2009	0	0
2010	0	0
2011	0	0
2012	0	0
2013	0	0
2014	0	0
2015	0	0
2016	0	0
2017	0	0
2018	0	0
2019	0	0
2020	0	0
2021	0	0
2022	0	0
2023	0	0
2024	0	0
2025	0	0
2026	0	0
2027	0	0
2028	0	0
2029	0	0
2030	1	0
2031	1	0
2032	0	0
2033	0	0
2034	0	0
2035	0	0
2036	0	0
2037	0	0
2038	0	0
2039	0	0
2040	0	0
2041	0	0
2042	0	0
2043	0	0
2044	0	0
2045	0	0
2046	0	0
2047	0	0
2048	0	0
2049	0	0
2050	0	0
2051	0	0
2052	0	0
2053	0	0
2054	0	0
2055	0	0
2056	0	0
2057	0	0
2058	0	0
2059	0	0
2060	0	0
2061	0	0
2062	0	0
2063	0	0
2064	0	0
2065	0	0
2066	0	0
2067	0	0
2068	0	0
2069	0	0
2070	0	0
2071	0	0
2072	0	0
2073	0	0
2074	0	0
2075	0	0
2076	0	0
2077	0	0
2078	0	0
2079	0	0
2080	0	0
2081	0	0
2082	0	0
2083	0	0
2084	0	0
2085	0	0
2086	0	0
2087	0	0
2088	0	0
2089	0	0
2090	0	0
2091	0	0
2092	0	0
2093	0	0
2094	0	0
2095	0	0
2096	0	0
2097	0	0
2098	0	0
2099	0	0
2100	0	0
2101	0	0
2102	0	0
2103	0	0
2104	0	0
2105	0	0
2106	0	0
2107	0	0
2108	0	0
2109	0	0
2110	0	0
2111	0	0
2112	0	0
2113	0	0
2114	0	0
2115	0	0
2116	0	0
2117	0	0
2118	0	0
2119	0	0
2120	0	0
2121	0	0
2122	0	0
2123	0	0
2124	0	0
2125	0	0
2126	0	0
2127	0	0
2128	0	0
2129	0	0
2130	0	0
2131	0	0
2132	0	0
2133	0	0
2134	0	0
2135	0	0
2136	0	0
2137	0	0
2138	0	0
2139	0	0
2140	0	0
2141	0	0
2142	0	0
2143	0	0
2144	0	0
2145	0	0
2146	0	0
2147	0	0
2148	0	0
2149	0	0
2150	0	0
2151	0	0
2152	0	0
2153	0	0
2154	0	0
2155	0	0
2156	0	0
2157	0	0
2158	0	0
2159	0	0
2160	0	0
2161	0	0
2162	0	0
2163	0	0
2164	0	0
2165	1	0
2166	1	0
2167	1	0
2168	0	0
2169	0	0
2170	0	0
2171	0	0
2172	0	0
2173	0	0
2174	0	0
2175	0	0
2176	0	0
2177	0	0
2178	0	0
2179	0	0
2180	0	0
2181	0	0
2182	0	0
2183	0	0
2184	1	0
2185	1	0
2186	1	0
2187	0	0
2188	0	0
2189	0	0
2190	0	0
2191	0	0
2192	0	0
2193	0	0
2194	0	0
2195	0	0
2196	0	0
2197	0	0
2198	0	0
2199	0	0
2200	0	0
2201	0	0
2202	0	0
2203	0	0
2204	0	0
2205	0	0
2206	0	0
2207	0	0
2208	0	0
2209	0	0
2210	0	0
2211	0	0
2212	0	0
2213	0	0
2214	0	0
2215	0	0
2216	0	0
2217	0	0
2218	0	0
2219	0	0
2220	0	0
2221	0	0
2222	0	0
2223	0	0
2224	0	0
2225	0	0
2226	0	0
2227	0	0
2228	0	0
2229	0	0
2230	0	0
2231	0	0
2232	0	0
2233	0	0
2234	0	0
2235	0	0
2236	0	0
2237	0	0
2238	0	0
2239	0	0
2240	0	0
2241	0	0
2242	0	0
2243	0	0
2244	0	0
2245	0	0
2246	0	0
2247	0	0
2248	0	0
2249	0	0
2250	0	0
2251	0	0
2252	0	0
2253	0	0
2254	0	0
2255	0	0
2256	0	0
2257	0	0
2258	0	0
2259	0	0
2260	0	0
2261	0	0
2262	0	0
2263	0	0
2264	0	0
2265	0	0
2266	0	0
2267	0	0
2268	0	0
2269	0	0
2270	0	0
2271	0	0
2272	0	0
2273	0	0
2274	0	0
2275	0	0
2276	0	0
2277	0	0
2278	0	0
2279	0	0
2280	0	0
2281	0	0
2282	0	0
2283	0	0
2284	0	0
2285	0	0
2286	0	0
2287	0	0
2288	0	0
2289	0	0
2290	0	0
2291	0	0
2292	0	0
2293	0	0
2294	0	0
2295	0	0
2296	0	0
2297	0	0
2298	0	0
2299	0	0
2300	0	0
2301	0	0
2302	0	0
2303	0	0
2304	0	0
2305	0	0
2306	0	0
2307	0	0
2308	0	0
2309	0	0
2310	0	0
2311	0	0
2312	0	0
2313	0	0
2314	0	0
2315	0	0
2316	0	0
2317	0	0
2318	0	0
2319	0	0
2320	0	0
2321	0	0
2322	0	0
2323	0	0
2324	0	0
2325	0	0
2326	0	0
2327	0	0
2328	0	0
2329	0	0
2330	0	0
2331	0	0
2332	0	0
2333	0	0
2334	0	0
2335	0	0
2336	0	0
2337	0	0
2338	0	0
2339	0	0
2340	0	0
2341	0	0
2342	0	0
2343	0	0
2344	0	0
2345	0	0
2346	0	0
2347	0	0
2348	0	0
2349	0	0
2350	0	0
2351	0	0
2352	0	0
2353	0	0
2354	0	0
2355	0	0
2356	0	0
2357	0	0
2358	0	0
2359	0	0
2360	0	0
2361	0	0
2362	0	0
2363	0	0
2364	0	0
2365	0	0
2366	0	0
2367	0	0
2368	0	0
2369	0	0
2370	0	0
2371	0	0
2372	0	0
2373	0	0
2374	0	0
2375	0	0
2376	0	0
2377	0	0
2378	0	0
2379	0	0
2380	0	0
2381	0	0
2382	0	0
2383	0	0
2384	0	0
2385	0	0
2386	0	0
2387	0	0
2388	0	0
2389	0	0
2390	0	0
2391	0	0
2392	0	0
2393	0	0
2394	0	0
2395	0	0
2396	0	0
2397	0	0
2398	0	0
2399	0	0
2400	0	0
2401	0	0
2402	0	0
2403	0	0
2404	0	0
2405	0	0
2406	0	0
2407	0	0
2408	0	0
2409	0	0
2410	0	0
2411	0	0
2412	0	0
2413	0	0
2414	0	0
2415	0	0
2416	0	0
2417	0	0
2418	0	0
2419	0	0
2420	0	0
2421	0	0
2422	0	0
2423	0	0
2424	0	0.962709
2425	0	0.962709
2426	0	0.962709
2427	0	0.166667
2428	0	0.964557
2429	0	0.966315
2430	0	0.969822
2431	0	0.97156
2432	0	0.333333
2433	0	0.975047
2434	0	0.155556
2435	0	0.155556
2436	0	0.194444
2437	0	0.194444
2438	0	0.25
2439	0	0.166667
2440	0	0.166667
2441	0	0.166667
2442	0	0.166667
2443	0	0.166667
2444	0	0.166667
2445	0	0.166667
2446	0	1
2447	0	1
2448	0	1
2449	0	1
2450	0	1
2451	0	1
2452	0	1
2453	0	1
2454	0	1
2455	0	1
2456	0	1
2457	0	0.991113
2458	0	0.991113
2459	0	0.991113
2460	0	0.991113
2461	0	0.9911
2462	1	0
2463	1	0
2464	1	0
2465	1	0
2466	1	0
2467	1	0
2468	1	0
2469	1	0
2470	1	0
2471	1	0
2472	1	0
2473	0	0
2474	0	0.998213
2475	0	0.998214
2476	0	0.998216
2477	0	0.998216
2478	0	1
2479	0	1
2480	0	0.998217
2481	0	0.998217
2482	0	0.998217
2483	0	0.998217
2484	0	0.998219
2485	0	0.998219
2486	0	0.998219
2487	0	0.996449
2488	0	0.996449
2489	0	0.996449
2490	0	0.994676
2491	0	0
2492	0	0.622222
2493	0	0.910296
2494	0	0.775206
2495	0	0.742546
2496	0	0.975343
2497	0	0.978832
2498	0	0.98937
2499	0	0.991136
2500	0	0.992906
2501	0	0.992906
2502	0	1
2503	0	1
2504	0	1
2505	0	0.989409
2506	0	0.989409
2507	0	0.989455
2508	0	0
2509	0	0
2510	0	0.94327
2511	0	0
2512	0	0
2513	0	0
2514	0	0
2515	0	0
2516	0	0
2517	0	0
2518	0	0
2519	0	0
2520	0	0
2521	1	1
2522	1	1
2523	1	1
2524	1	1
2525	1	1
2526	0	0.333333
2527	0	0.333333
2528	0	0.333333
2529	0	0.166667
2530	0	0.5
2531	0	1
2532	0	0.998235
2533	0	0.998246
2534	0	0.998246
2535	0	0.998247
2536	1	1
2537	1	1
2538	1	1
2539	1	1
2540	1	1
2541	1	1
2542	1	1
2543	1	1
2544	0	0.998249
2545	0	0.998249
2546	0	0.998249
2547	0	0.998249
2548	0	0.99476
2549	0	0.99476
2550	0	0.99476
2551	0	0.996505
2552	0	0.996505
2553	0	0.99825
2554	0	0.998249
2555	0	0.996502
2556	0	0.996502
2557	0	0.99303
2558	0	0.993042
2559	0	0.993042
2560	0	0.993042
2561	0	0.991306
2562	0	0.989591
2563	0	0.989591
2564	0	0.989591
2565	0	0.989591
2566	0	0.989591
2567	0	0.989591
2568	0	0.989591
2569	0	0.991313
2570	0	0.991316
2571	0	0.991316
2572	0	0.991316
2573	0	0.991316
2574	0	0.991316
2575	0	0.991316
2576	0	0.991347
2577	0	0.991347
2578	0	0.991347
2579	0	0.991347
2580	0	0.991347
2581	0	0.989619
2582	0	0.989619
2583	0	0.989619
2584	0	0.989619
2585	0	0.989619
2586	0	0.989619
2587	0	0.989619
2588	0	0.989619
2589	0	0.989619
2590	0	0.991336
2591	0	0.994787
2592	0	0.993059
2593	0	0.993065
2594	0	0.993066
2595	0	0.993066
2596	0	0.993066
2597	0	0.99306
2598	0	0.99306
2599	0	1
2600	0	1
2601	0	1
2602	0	1
2603	0	1
2604	1	1
2605	0	0.333333
2606	0	0.333333
2607	0	0.166667
2608	0	0.166667
2609	0	0.166667
2610	0	0.5
2611	0	0.5
2612	0	0.5
2613	0	0.5
2614	1	1
2615	1	1
2616	1	1
2617	1	1
2618	1	1
2619	1	1
2620	1	1
2621	1	1
2622	1	1
2623	1	1
2624	1	1
2625	0	0.998253
2626	0	0.998253
2627	0	0.998253
2628	0	0.998253
2629	0	1
2630	0	0.994711
2631	0	0.987013
2632	0	0.986486
2633	0	1
2634	0	1
2635	0	1
2636	0	0.737667
2637	0	0.731758
2638	0	0.583886
2639	0	0.488889
2640	0	0.25
2641	0	0.179487
2642	0	0.179487
2643	0	0.779874
2644	0	0.528571
2645	0	0.269841
2646	0	0.241821
2647	0	0.297306
2648	0	0.503268
2649	0	0.269106
2650	0	0.202865
2651	0	0.19865
2652	0	0
2653	0	0
2654	0	0
2655	0	0
2656	0	0
2657	0	0
2658	0	0.272727
2659	0	0.327273
2660	0	0.327273
2661	0	0.327273
2662	0	0.327273
2663	0	0.355556
2664	0	0.166667
2665	0	0.333333
2666	0	0.333333
2667	0	1
2668	0	1
2669	0	0
2670	0	0
2671	0	0
2672	0	0
2673	0	0
2674	0	0
2675	0	0
2676	0	0
2677	0	0
2678	0	0
2679	0	0
2680	0	0
2681	0	0
2682	0	0
2683	0	0
2684	0	0
2685	0	0
2686	0	0
2687	0	0
2688	0	0
2689	0	0
2690	0	0
2691	0	0
2692	0	0
2693	0	0
2694	0	0
2695	0	0
2696	0	0
2697	0	0
2698	0	0
2699	0	1
2700	0	1
2701	0	1
2702	0	0.333333
2703	0	0.333333
2704	0	0.333333
2705	0	0.333333
2706	0	0.333333
2707	0	0.333333
2708	0	0.333333
2709	0	0.4
2710	0	0.266667
2711	0	0.380952
2712	0	0.380952
2713	0	0.427871
2714	0	0.140394
2715	0	0.3433
2716	0	0.320202
2717	0	0.221176
2718	0	0.162712
2719	0	0.134328
2720	0	0.30516
2721	0	0.239344
2722	0	0.234641
2723	0	0.232794
2724	0	0.282298
2725	0	0.326296
2726	0	0.40854
2727	0	0.429144
2728	0	0.130719
2729	0	0.125
2730	0	0.142857
2731	0	0.161905
2732	0	0.791474
2733	0	0.836052
2734	0	0.878561
2735	0	0.134953
2736	0	0.162162
2737	0	0.191597
2738	0	0.233871
2739	0	0.197581
2740	0	0.556989
2741	0	0.913043
2742	0	0.913043
2743	0	0.913043
2744	0	1
2745	0	1
2746	0	0.916667
2747	0	0.901917
2748	0	0.945229
2749	0	0.982651
2750	0	0.986108
2751	0	0.986108
2752	0	0
2753	0	0.994769
2754	0	0.994778
2755	0	0.994778
2756	0	0.994778
2757	0	0.994778
2758	0	0.994778
2759	0	0.994778
2760	0	0.994778
2761	0	0.993045
2762	0	0.993045
2763	0	0.993045
2764	0	0.993045
2765	0	0.993045
2766	0	0.993045
2767	0	0.991316
2768	0	0.991316
2769	0	0
2770	0	0
2771	0	0
2772	0	0
2773	0	0
2774	0	0.984434
2775	0	0.984434
2776	0	0.984434
2777	0	0.982711
2778	0	0
2779	0	0
2780	0	0
2781	0	0
2782	0	0
2783	0	0
2784	0	0
2785	0	0
2786	0	0
2787	0	0
2788	0	0
2789	0	0
2790	0	0
2791	0	0
2792	0	0
2793	0	0
2794	0	0
2795	0	0
2796	0	0
2797	0	0
2798	0	0
2799	0	0
2800	0	0
2801	0	0
2802	0	0
2803	0	0
2804	0	0
2805	0	0
2806	0	0
2807	0	0
2808	0	0
2809	0	0
2810	0	0
2811	0	0
2812	0	0
2813	0	0
2814	0	0
2815	0	0
2816	0	0
2817	0	0
2818	0	0
2819	0	0
2820	0	0
2821	0	0
2822	0	0
2823	0	0
2824	0	0
2825	0	0
2826	0	0
2827	0	0
2828	0	0
2829	0	0
2830	0	0
2831	0	0
2832	0	0
2833	0	0
2834	0	0
2835	0	0
2836	0	0
2837	0	0
2838	0	0
2839	0	0
2840	0	0
2841	0	0
2842	0	0
2843	0	0
2844	0	0
2845	0	0
2846	0	0
2847	0	0
2848	0	0
2849	0	0
2850	0	0
2851	0	0
2852	0	0
2853	0	0
2854	0	0
2855	0	0
2856	0	0
2857	0	0
2858	0	0
2859	0	0
2860	0	0
2861	0	0
2862	0	0
2863	0	0
2864	0	0
2865	0	0
2866	0	0
2867	0	0
2868	0	0
2869	0	0
2870	0	0
2871	0	0
2872	0	0
2873	0	0
2874	0	0
2875	0	0
2876	0	0
2877	0	0
2878	0	0
2879	0	0
2880	0	0
2881	0	0
2882	0	0
2883	0	0
2884	0	0
2885	0	0
2886	0	0
2887	0	0
2888	0	0
2889	0	0
2890	0	0
2891	0	0
2892	0	0
2893	0	0
2894	0	0
2895	0	0
2896	0	0
2897	0	0
2898	0	0
2899	0	0
2900	0	0
2901	0	0
2902	0	0
2903	0	0
2904	0	0
2905	0	0
2906	0	0
2907	0	0
2908	0	0
2909	0	0
2910	0	0.991291
2911	0	0.428571
2912	0	0.982648
2913	0	0.986105
2914	0	0.984389
2915	0	0.984389
2916	0	0.984389
2917	0	0.986129
2918	0	0.986129
2919	0	0.986117
2920	0	0.986117
2921	0	0.984402
2922	0	0
2923	0	0
2924	0	0
2925	0	0
2926	0	0
2927	0	0
2928	0	0
2929	0	0
2930	0	0
2931	0	0
2932	0	0
2933	0	0
2934	0	0
2935	0	0
2936	0	0
2937	0	0
2938	0	0
2939	0	0
2940	0	0
2941	0	0
2942	0	0
2943	0	0
2944	0	0
2945	0	0
2946	0	0
2947	0	0
2948	0	0
2949	0	0
2950	0	0
2951	0	0
2952	0	0
2953	0	0
2954	0	0
2955	0	0
2956	0	0
2957	0	0
2958	0	0
2959	0	0
2960	0	0
2961	0	0
2962	0	0
2963	0	0
2964	0	0
2965	0	0
2966	0	0
2967	0	0
2968	0	0
2969	0	0
2970	0	0
2971	0	0
2972	0	0
2973	0	0
2974	0	0
2975	0	0
2976	0	0
2977	0	0
2978	0	0
2979	0	0
2980	0	0
2981	0	0
2982	0	0
2983	0	0
2984	0	0
2985	0	0
2986	0	0
2987	0	0
2988	0	0
2989	0	0
2990	0	0
2991	0	0
2992	0	0
2993	0	0
2994	0	0
2995	0	0
2996	0	0
2997	0	0
2998	0	0
2999	0	0
3000	0	0
3001	0	0
3002	0	0
3003	0	0
3004	0	0
3005	0	0
3006	0	0
3007	0	0
3008	0	0
3009	0	0
3010	0	0
3011	0	0
3012	0	0
3013	0	0
3014	0	0
3015	0	0
3016	0	0
3017	0	0
3018	0	0
3019	0	0
3020	0	0
3021	0	0
3022	0	0
3023	0	0
3024	0	0
3025	0	0
3026	0	0
3027	0	0
3028	0	0
3029	0	0
3030	0	0
3031	0	0
3032	0	0
3033	0	0
3034	0	0
3035	0	0
3036	0	0
3037	0	0
3038	0	0
3039	0	0
3040	0	0
3041	0	0
3042	0	0
3043	0	0
3044	0	0
3045	0	0
3046	0	0
3047	0	0
3048	0	0
3049	0	0
3050	0	0
3051	0	0
3052	0	0.98439
3053	0	0.98439
3054	0	0
3055	0	0
3056	0	0
3057	0	0
3058	0	0
3059	0	0
3060	0	0
3061	0	0
3062	0	0
3063	0	0
3064	0	0
3065	0	0
3066	0	0
3067	0	0
3068	0	0
3069	0	0
3070	0	0
3071	0	0
3072	0	0
3073	0	0
3074	0	0
3075	0	0
3076	0	0
3077	0	0
3078	0	0
3079	0	0
3080	0	0
3081	0	0
3082	0	0
3083	0	0
3084	0	0
3085	0	0
3086	0	0
3087	0	0
3088	0	0
3089	0	0
3090	0	0
3091	0	0
3092	0	0
3093	0	0
3094	0	0
3095	0	0
3096	0	0
3097	0	0
3098	0	0
3099	0	0
3100	0	0
3101	0	0
3102	0	0
3103	0	0
3104	0	0
3105	0	0
3106	0	0
3107	0	0
3108	0	0
3109	0	0
3110	0	0
3111	0	0
3112	0	0
3113	0	0
3114	0	0
3115	0	0
3116	0	0
3117	0	0
3118	0	0
3119	0	0
3120	0	0
3121	0	0
3122	0	0
3123	0	0
3124	0	0
3125	0	0
3126	0	0
3127	0	0
3128	0	0
3129	0	0
3130	0	0
3131	0	0
3132	0	0
3133	0	0
3134	0	0
3135	0	0
3136	0	0
3137	0	0
3138	0	0
3139	0	0
3140	0	0
3141	0	0
3142	0	0
3143	0	0
3144	0	0
3145	0	0
3146	0	0
3147	0	0
3148	0	0
3149	0	0
3150	0	0
3151	0	0
3152	0	0
3153	0	0
3154	0	0
3155	0	0
3156	0	0
3157	0	0
3158	0	0
3159	0	0
3160	0	0
3161	0	0
3162	0	0
3163	0	0
3164	0	0
3165	0	0
3166	0	0
3167	0	0
3168	0	0
3169	0	0
3170	0	0
3171	0	0
3172	0	0
3173	0	0
3174	0	0
3175	0	0
3176	0	0
3177	0	0
3178	0	0
3179	0	0
3180	1	0
3181	0	0
3182	0	0
3183	0	0
3184	0	0
3185	0	0
3186	0	0
3187	0	0
3188	0	0
3189	0	0
3190	0	0
3191	0	0
3192	0	0
3193	0	0
3194	0	0
3195	0	0
3196	0	0
3197	0	0
3198	0	0
3199	0	0
3200	0	0
3201	0	0
3202	0	0
3203	0	0
3204	0	0
3205	0	0
3206	0	0
3207	0	0
3208	0	0
3209	0	0
3210	0	0
3211	0	0
3212	0	0
3213	0	0
3214	0	0
3215	0	0
3216	0	0
3217	0	0
3218	0	0
3219	0	0
3220	0	0
3221	0	0
3222	0	0
3223	0	0
3224	0	0
3225	0	0
3226	0	0
3227	0	0
3228	0	0
3229	0	0
3230	0	0
3231	0	0
3232	0	0
3233	0	0
3234	0	0
3235	0	0
3236	0	0
3237	0	0
3238	0	0
3239	0	0
3240	0	0
3241	0	0
3242	0	0
3243	0	0
3244	0	0
3245	0	0
3246	0	0
3247	0	0
3248	0	0
3249	0	0
3250	0	0
3251	1	0
3252	1	0
3253	0	0
3254	0	0
3255	0	0
3256	0	0
3257	0	0
3258	0	0
3259	0	0
3260	0	0
3261	0	0
3262	0	0
3263	0	0
3264	0	0
3265	0	0
3266	0	0
3267	0	0
3268	0	0
3269	0	0
3270	0	0
3271	0	0
3272	0	0
3273	0	0
3274	0	0
3275	0	0
3276	0	0
3277	0	0
3278	0	0
3279	0	0
3280	0	0
3281	0	0
3282	0	0
3283	0	0
3284	0	0
3285	0	0
3286	0	0
3287	0	0
3288	0	0
3289	0	0
3290	0	0.987826
3291	0	0.986093
3292	0	0.987816
3293	0	0.989552
3294	0	0.986105
3295	0	0.986105
3296	0	0.986093
3297	0	0.986093
3298	0	0.1
3299	0	0.1
3300	0	0.1
3301	0	0.1
3302	0	0.1
3303	0	0.1
3304	0	0.1
3305	0	0.1
3306	0	0
3307	0	0
3308	0	0
3309	0	0
3310	0	0
3311	0	0
3312	0	0
3313	0	0
3314	0	0
3315	0	0
3316	0	0
3317	0	0
3318	0	0
3319	0	0
3320	0	0
3321	0	0
3322	0	0
3323	0	0
3324	0	0
3325	0	0
3326	0	0
3327	0	0
3328	0	0
3329	0	0
3330	0	0
3331	0	0
3332	0	0
3333	0	0
3334	0	0
3335	0	0.166667
3336	0	0.166667
3337	0	0
3338	0	0
3339	0	0
3340	0	0
3341	0	0
3342	0	0
3343	0	0
3344	0	0
3345	0	0
3346	0	0
3347	0	0
3348	0	0
3349	0	0
3350	0	0
3351	0	0
3352	0	0
3353	0	0
3354	0	0
3355	0	0
3356	0	0
3357	0	0
3358	0	0
3359	0	0
3360	0	0
3361	0	0
3362	0	0
3363	0	0
3364	0	0
3365	0	0
3366	0	0
3367	0	0
3368	0	0
3369	0	0.333333
3370	0	0.333333
3371	0	0.333333
3372	0	0.333333
3373	0	0.333333
3374	0	0.333333
3375	0	0.333333
3376	0	0.333333
3377	0	0.333333
3378	0	0.333333
3379	0	0.333333
3380	0	0
3381	0	0
3382	0	0
3383	0	0
3384	0	0
3385	0	0
3386	0	0
3387	0	0
3388	0	0
3389	0	0
3390	0	0
3391	0	0
3392	0	0
3393	0	0
3394	0	0
3395	0	0
3396	0	0
3397	0	0
3398	0	0
3399	0	0
3400	0	0
3401	0	0
3402	0	0
3403	0	0
3404	0	0
3405	0	0
3406	0	0
3407	0	0
3408	0	0
3409	0	0
3410	0	0
3411	0	0
3412	0	0
3413	0	0
3414	0	0
3415	0	0
3416	0	0
3417	0	0
3418	0	0
3419	0	0
3420	0	0
3421	0	0
3422	0	0
3423	0	0
3424	0	0
3425	0	0
3426	0	0
3427	0	0
3428	0	0
3429	0	0
3430	0	0
3431	0	0
3432	0	0
3433	0	0
3434	0	0
3435	0	0
3436	0	0
3437	0	0
3438	0	0
3439	0	0
3440	0	0
3441	0	0
3442	0	0
3443	0	0
3444	0	0
3445	0	0
3446	0	0
3447	0	0
3448	0	0
3449	0	0
3450	0	0
3451	0	0
3452	0	0
3453	0	0
3454	0	0
3455	0	0
3456	0	0
3457	0	0
3458	0	0
3459	0	0
3460	0	0
3461	0	0
3462	0	0
3463	0	0
3464	0	0
3465	0	0
3466	0	0
3467	0	0
3468	0	0
3469	0	0
3470	0	0
3471	0	0
3472	0	0
3473	0	0
3474	0	0
3475	0	0
3476	0	0
3477	0	0
3478	0	0
3479	0	0
3480	0	0
3481	0	0
3482	0	0
3483	0	0
3484	0	0
3485	0	0
3486	0	0
3487	0	0
3488	0	0
3489	0	0
3490	0	0
3491	0	0
3492	0	0
3493	0	0
3494	0	0
3495	0	0
3496	0	0
3497	0	0
3498	0	0
3499	0	0
3500	0	0
3501	0	0
3502	0	0
3503	0	0
3504	0	0
3505	0	0
3506	1	0
3507	1	0
3508	1	0
3509	0	0
3510	0	0
3511	0	0
3512	0	0
3513	0	0
3514	0	0
3515	0	0
3516	0	0
3517	0	0
3518	0	0
3519	0	0
3520	0	0
3521	0	0
3522	0	0
3523	0	0
3524	0	0
3525	0	0
3526	0	0
3527	0	0
3528	0	0
3529	0	0
3530	0	0
3531	0	0
3532	0	0
3533	0	0
3534	0	0
3535	0	0
3536	0	0
3537	0	0
3538	0	0
3539	0	0
3540	0	0
3541	0	0
3542	0	0
3543	0	0
3544	0	0
3545	0	0
3546	0	0
3547	0	0
3548	1	0
3549	0	0.986086
3550	0	0
3551	0	0
3552	0	0
3553	0	0
3554	0	0
3555	0	0
3556	0	0
3557	0	0
3558	0	0
3559	0	0
3560	0	0
3561	0	0
3562	0	0
3563	0	0
3564	0	0
3565	0	0
3566	0	0
3567	0	0
3568	0	0
3569	0	0
3570	0	0
3571	0	0
3572	0	0
3573	0	0
3574	0	0
3575	0	0
3576	0	0
3577	0	0
3578	0	0
3579	0	0
3580	0	0
3581	0	0
3582	0	0
3583	0	0
3584	0	0
3585	0	0
3586	0	0
3587	0	0
3588	0	0
3589	0	0
3590	0	0
3591	0	0
3592	0	0
3593	0	0
3594	0	0
3595	0	0
3596	0	0
3597	0	0
3598	0	0
3599	0	0
3600	0	0
3601	0	0
3602	0	0
3603	0	0
3604	0	0
3605	0	0
3606	0	0
3607	0	0
3608	0	0
3609	0	0
3610	0	0
3611	0	0
3612	0	0
3613	0	0
3614	0	0
3615	0	0
3616	0	0
3617	0	0.982647
3618	0	0.984362
3619	0	0
3620	0	0
3621	0	0
3622	0	0.982647
3623	0	0.982648
3624	0	0.982648
3625	0	0.357143
3626	0	0.357143
3627	0	0.357143
3628	0	0.277778
3629	0	0.277778
3630	0	0.277778
3631	0	0.277778
3632	0	0.277778
3633	0	0.277778
3634	0	0.277778
3635	0	0.277778
3636	0	0.277778
3637	0	0.277778
3638	0	0.0666667
3639	0	0.0666667
3640	0	0.0666667
3641	0	0.0666667
3642	0	0.0666667
3643	0	0.0666667
3644	0	0.0666667
3645	0	0.0222222
3646	0	0.970464
3647	0	0.333333
3648	0	0.333333
3649	0	0.333333
3650	0	0.333333
3651	0	0.333333
3652	0	0.333333
3653	0	0.333333
3654	0	0.333333
3655	0	0.333333
3656	0	0.333333
3657	0	0.333333
3658	0	0.333333
3659	0	0.333333
3660	0	0.333333
3661	0	0.333333
3662	0	0
3663	0	0
3664	0	0
3665	0	0
3666	0	0
3667	0	0
3668	0	0
3669	0	0
3670	0	0
3671	0	0
3672	0	0
3673	0	0
3674	0	0
3675	0	0
3676	0	0
3677	0	0
3678	0	0
3679	0	0
3680	0	0
3681	0	0
3682	0	0
3683	0	0
3684	0	0
3685	0	0
3686	0	0
3687	0	0
3688	0	0
3689	0	0
3690	0	0
3691	0	0
3692	0	0
3693	0	0
3694	0	0
3695	0	0
3696	0	0
3697	0	0
3698	0	0
3699	0	0
3700	0	0
3701	0	0
3702	0	0
3703	0	0
3704	0	0
3705	0	0
3706	0	0
3707	0	0
3708	0	0
3709	0	0
3710	0	0
3711	0	0
3712	0	0
3713	0	0
3714	0	0
3715	0	0
3716	0	0
3717	0	0
3718	0	0
3719	0	0
3720	0	0
3721	0	0
3722	0	0
3723	0	0
3724	0	0
3725	0	0
3726	0	0
3727	0	0
3728	0	0
3729	0	0
3730	0	0
3731	0	0
3732	0	0
3733	0	0
3734	0	0
3735	0	0
3736	0	0
3737	0	0
3738	0	0
3739	0	0
3740	0	0
3741	0	0
3742	0	0
3743	0	0
3744	0	0
3745	0	0
3746	0	0
3747	0	0
3748	0	0
3749	0	0
3750	0	0
3751	0	0
3752	0	0
3753	0	0
3754	0	0
3755	0	0
3756	0	0
3757	0	0
3758	0	0
3759	0	0
3760	0	0
3761	0	0
3762	0	0
3763	0	0
3764	0	0
3765	0	0
3766	0	0
3767	0	0
3768	0	0
3769	0	0
3770	0	0
3771	0	0
3772	0	0
3773	0	0
3774	0	0
3775	0	0
3776	0	0
3777	0	0
3778	0	0
3779	0	0
3780	0	0
3781	0	0
3782	0	0
3783	0	0
3784	0	0
3785	0	0
3786	0	0
3787	0	0
3788	0	0
3789	0	0
3790	0	0
3791	0	0
3792	0	0
3793	0	0
3794	0	0
3795	0	0
3796	0	0
3797	0	0
3798	0	0
3799	0	0
3800	0	0
3801	0	0
3802	0	0
3803	0	0
3804	0	0
3805	0	0
3806	0	0
3807	0	0
3808	0	0
3809	0	0
3810	0	0
3811	0	0
3812	0	0.0833333
3813	0	0.0666667
3814	0	0.0666667
3815	0	0.0666667
3816	0	0.0666667
3817	0	0.0666667
3818	0	0.0666667
3819	0	0.0888889
3820	0	0.953261
3821	0	0
3822	0	0
3823	0	0
3824	0	0
3825	0	0
3826	0	0
3827	0	0
3828	0	0
3829	0	0
3830	0	0
3831	0	0
3832	0	0
3833	0	0
3834	0	0
3835	0	0
3836	0	0
3837	0	0
3838	0	0
3839	0	0
3840	0	0
3841	0	0
3842	0	0
3843	0	0
3844	0	0
3845	0	0
3846	0	0
3847	0	0
3848	0	0
3849	0	0
3850	0	0
3851	0	0
3852	0	0
3853	0	0
3854	0	0
3855	0	0
3856	0	0
3857	0	0
3858	0	0
3859	0	0
3860	0	0
3861	0	0
3862	0	0
3863	0	0
3864	0	0
3865	0	0
3866	0	0
3867	0	0
3868	0	0
3869	0	0
3870	0	0
3871	0	0
3872	0	0
3873	0	0
3874	0	0
3875	0	0
3876	0	0
3877	0	0
3878	0	0
3879	0	0
3880	0	0
3881	0	0
3882	0	0
3883	0	0
3884	0	0
3885	0	0
3886	0	0
3887	0	0
3888	0	0
3889	0	0
3890	0	0
3891	0	0
3892	0	0
3893	0	0
3894	0	0
3895	0	0
3896	0	0
3897	0	0
3898	0	0
3899	0	0
3900	0	0
3901	0	0
3902	0	0
3903	0	0
3904	0	0
3905	0	0
3906	0	0
3907	0	0
3908	0	0
3909	0	0
3910	0	0
3911	0	0
3912	0	0
3913	0	0
3914	0	0
3915	0	0
3916	0	0
3917	0	0
3918	0	0
3919	0	0
3920	0	0
3921	0	0
3922	0	0
3923	0	0
3924	0	0
3925	0	0
3926	0	0
3927	0	0
3928	0	0
3929	0	0
3930	0	0
3931	0	0
3932	0	0
3933	0	0
3934	0	0
3935	0	0
3936	0	0
3937	0	0
3938	0	0
3939	0	0
3940	0	0
3941	0	0
3942	0	0
3943	0	0
3944	0	0
3945	0	0
3946	0	0
3947	0	0
3948	0	0
3949	0	0
3950	0	0
3951	0	0
3952	0	0
3953	0	0
3954	0	0
3955	0	0
3956	0	0
3957	0	0
3958	0	0
3959	0	0
3960	0	0
3961	0	0
3962	0	0
3963	0	0
3964	0	0
3965	0	0
3966	0	0
3967	0	0
3968	0	0
3969	0	0
3970	0	0.956612
3971	0	0.192308
3972	0	0.192308
3973	0	0.192308
3974	0	0.164835
3975	0	0.164835
3976	0	0.15
3977	0	0.938162
3978	0	0.938109
3979	0	0.0541311
3980	0	0.0541311
3981	0	0.0362319
3982	0	0.0395257
3983	0	0.047619
3984	0	0.047619
3985	0	0.0526316
3986	0	0.0526316
3987	0	0.0350877
3988	0	0.0261438
3989	0	0.0261438
3990	0	0.0196078
3991	0	0.0196078
3992	0	0.0196078
3993	0	0.0196078
3994	0	0.0220588
3995	0	0.025
3996	0	0.025
3997	0	0.025
3998	0	0.025
3999	0	0.0333333
4000	0	0.0380952
4001	0	0.0285714
4002	0	0.032967
4003	0	0.032967
4004	0	0.032967
4005	0	0
4006	0	0
4007	0	0
4008	0	0
4009	0	0
4010	0	0
4011	0	0
4012	0	0
4013	0	0
4014	0	0
4015	0	0
4016	0	0
4017	0	0
4018	0	0
4019	0	0
4020	0	0
4021	0	0
4022	0	0
4023	0	0
4024	0	0
4025	0	0
4026	0	0
4027	0	0
4028	0	0
4029	0	0
4030	0	0
4031	0	0
4032	0	0
4033	0	0
4034	0	0
4035	0	0
4036	0	0
4037	0	0
4038	0	0
4039	0	0
4040	0	0
4041	0	0
4042	0	0
4043	0	0
4044	0	0
4045	0	0
4046	0	0
4047	0	0
4048	0	0
4049	0	0
4050	0	0
4051	0	0
4052	0	0
4053	0	0
4054	0	0
4055	0	0
4056	0	0
4057	0	0
4058	0	0
4059	0	0
4060	0	0
4061	0	0
4062	0	0
4063	0	0
4064	0	0
4065	0	0
4066	0	0
4067	0	0
4068	0	0
4069	0	0
4070	0	0
4071	0	0
4072	0	0
4073	0	0
4074	0	0
4075	0	0
4076	0	0
4077	0	0
4078	0	0
4079	0	0
4080	0	0
4081	0	0
4082	0	0
4083	0	0
4084	0	0
4085	0	0
4086	0	0
4087	0	0
4088	0	0
4089	0	0
4090	0	0
4091	0	0
4092	0	0
4093	0	0
4094	0	0
4095	0	0
4096	0	0
4097	0	0
4098	0	0
4099	0	0
4100	0	0
4101	0	0
4102	0	0
4103	0	0
4104	0	0
4105	0	0
4106	0	0
4107	0	0
4108	0	0
4109	0	0
4110	0	0
4111	0	0
4112	0	0
4113	0	0
4114	0	0
4115	0	0
4116	0	0
4117	0	0
4118	0	0
4119	0	0
4120	0	0
4121	0	0
4122	0	0
4123	0	0
4124	0	0
4125	0	0
4126	0	0
4127	0	0
4128	0	0
4129	0	0
4130	0	0
4131	0	0
4132	0	0
4133	0	0
4134	0	0
4135	0	0
4136	0	0
4137	0	0
4138	0	0
4139	0	0
4140	0	0
4141	0	0
4142	0	0
4143	0	0
4144	0	0
4145	0	0
4146	0	0
4147	0	0
4148	0	0
4149	0	0
4150	0	0
4151	0	0
4152	0	0
4153	0	0
4154	0	0
4155	0	0
4156	0	0
4157	0	0
4158	0	0
4159	0	0
4160	0	0
4161	0	0
4162	0	0
4163	0	0
4164	0	0
4165	0	0
4166	0	0
4167	0	0
4168	0	0
4169	0	0
4170	0	0
4171	0	0
4172	0	0
4173	0	0
4174	0	0
4175	0	0
4176	0	0
4177	0	0
4178	0	0
4179	0	0
4180	0	0
4181	0	0
4182	0	0
4183	0	0
4184	0	0
4185	0	0
4186	0	0
4187	0	0
4188	0	0
4189	0	0
4190	0	0
4191	0	0
4192	0	0
4193	0	0
4194	0	0
4195	0	0
4196	0	0
4197	0	0
4198	0	0
4199	0	0
4200	0	0
4201	0	0
4202	0	0
4203	0	0
4204	0	0
4205	0	0
4206	0	0
4207	0	0
4208	0	0
4209	0	0
4210	0	0
4211	0	0
4212	0	0
4213	0	0
4214	0	0
4215	0	0
4216	0	0
4217	0	0
4218	0	0
4219	0	0
4220	0	0
4221	0	0
4222	0	0
4223	0	0
4224	0	0
4225	0	0
4226	0	0
4227	0	0
4228	0	0
4229	0	0
4230	0	0
4231	0	0
4232	0	0
4233	0	0
4234	0	0
4235	0	0
4236	0	0
4237	0	0
4238	0	0
4239	0	0
4240	0	0
4241	0	0
4242	0	0
4243	0	0
4244	0	0
4245	0	0
4246	0	0
4247	0	0
4248	0	0
4249	0	0
4250	0	0
4251	0	0
4252	0	0
4253	0	0
4254	0	0
4255	0	0
4256	0	0
4257	0	0
4258	0	0
4259	0	0
4260	0	0
4261	0	0
4262	0	0
4263	0	0
4264	0	0
4265	0	0
4266	0	0
4267	0	0
4268	0	0
4269	0	0
4270	0	0
4271	0	0
4272	0	0
4273	0	0
4274	0	0
4275	0	0
4276	0	0
4277	0	0
4278	0	0
4279	0	0
4280	0	0
4281	0	0
4282	0	0
4283	0	0
4284	0	0
4285	0	0
4286	0	0
4287	0	0
4288	0	0
4289	0	0
4290	0	0
4291	0	0
4292	0	0
4293	0	0
4294	0	0
4295	0	0
4296	0	0
4297	0	0
4298	0	0
4299	0	0
4300	0	0
4301	0	0
4302	0	0
4303	0	0
4304	0	0
4305	0	0
4306	0	0
4307	0	0
4308	0	0
4309	0	0
4310	0	0
4311	0	0
4312	0	0
4313	0	0
4314	0	0
4315	0	0
4316	0	0
4317	0	0
4318	0	0
4319	0	0
4320	0	0
4321	0	0
4322	0	0
4323	0	0
4324	0	0
4325	0	0
4326	0	0
4327	0	0
4328	0	0
4329	0	0
4330	0	0
4331	0	0
4332	0	0
4333	0	0
4334	0	0
4335	0	0
4336	0	0
4337	0	0
4338	0	0
4339	0	0
4340	1	0
4341	1	0
4342	1	0
4343	1	0
4344	1	0
4345	1	0
4346	1	0
4347	1	0
4348	1	0
4349	1	0
4350	0	0
4351	0	0
4352	0	0
4353	0	0
4354	0	0
4355	0	0
4356	0	0
4357	0	0
4358	0	0
4359	0	0
4360	0	0
4361	0	0
4362	0	0
4363	0	0
4364	0	0
4365	1	0
4366	1	0
4367	1	0
4368	1	0
4369	1	0
4370	1	0
4371	1	0
4372	1	0
4373	1	0
4374	1	0
4375	1	0
4376	1	0
4377	1	0
4378	1	0
4379	1	0
4380	1	0
4381	1	0
4382	1	0
4383	1	0
4384	1	0
4385	1	0
4386	1	0
4387	1	0
4388	1	0
4389	1	0
4390	1	0
4391	1	0
4392	1	0
4393	1	0
4394	1	0
4395	1	0
4396	1	0
4397	1	0
4398	1	0
4399	1	0
4400	1	0
4401	1	0
4402	1	0
4403	0	0
4404	0	0
4405	0	0
4406	0	0
4407	0	0
4408	0	0
4409	0	0
4410	0	0
4411	0	0
4412	0	0
4413	0	0
4414	1	0
4415	1	0
4416	1	0
4417	1	0
4418	1	0
4419	0	0
4420	0	0
4421	0	0
4422	0	0
4423	0	0
4424	0	0
4425	0	0
4426	0	0
4427	0	0
4428	0	0
4429	0	0
4430	0	0
4431	0	0
4432	1	0
4433	0	0
4434	0	0
4435	0	0
4436	0	0
4437	0	0
4438	0	0
4439	0	0
4440	0	0
4441	0	0
4442	0	0
4443	0	0
4444	0	0
4445	0	0
4446	0	0
4447	0	0
4448	0	0
4449	0	0
4450	0	0
4451	0	0
4452	0	0
4453	0	0
4454	0	0
4455	0	0
4456	0	0
4457	0	0
4458	0	0
4459	0	0
4460	0	0
4461	0	0
4462	0	0
4463	0	0
4464	0	0
4465	0	0
4466	0	0
4467	0	0
4468	0	0
4469	0	0
4470	0	0
4471	0	0
4472	0	0
4473	0	0
4474	0	0
4475	0	0
4476	0	0
4477	0	0
4478	0	0
4479	0	0
4480	0	0
4481	0	0
4482	0	0
4483	0	0
4484	0	0
4485	0	0
4486	0	0
4487	0	0
4488	0	0
4489	0	0
4490	0	0
4491	0	0
4492	0	0
4493	0	0
4494	0	0
4495	0	0
4496	0	0
4497	0	0
4498	0	0
4499	0	0
4500	0	0
4501	0	0
4502	0	0
4503	0	0
4504	0	0
4505	0	0
4506	0	0
4507	0	0
4508	0	0
4509	0	0
4510	0	0
4511	0	0
4512	0	0
4513	0	0
4514	0	0
4515	0	0
4516	0	0
4517	0	0
4518	0	0
4519	0	0
4520	0	0
4521	0	0
4522	0	0
4523	0	0
4524	0	0
4525	0	0
4526	0	0
4527	1	0
4528	1	0
4529	1	0
4530	0	0
4531	0	0
4532	0	0
4533	0	0
4534	0	0
4535	0	0
4536	0	0
4537	0	0
4538	0	0
4539	0	0
4540	0	0
4541	0	0
4542	0	0
4543	0	0
4544	0	0
4545	0	0
4546	0	0
4547	0	0
4548	0	0
4549	0	0
4550	0	0
4551	0	0
4552	0	0
4553	0	0
4554	0	0
4555	0	0
4556	0	0
4557	0	0
4558	0	0
4559	0	0
4560	0	0
4561	0	0
4562	0	0
4563	0	0
4564	1	0
4565	1	0
4566	1	0
4567	1	0
4568	1	0
4569	1	0
4570	0	0
4571	1	0
4572	1	0
4573	1	0
4574	1	0
4575	1	0
4576	1	0
4577	1	0
4578	1	0
4579	1	0
4580	1	0
4581	1	0
4582	1	0
4583	1	0
4584	1	0
4585	1	0
4586	1	0
4587	1	0
4588	0	0
4589	0	0
4590	0	0
4591	0	0
4592	0	0
4593	0	0
4594	0	0
4595	0	0
4596	0	0
4597	0	0
4598	0	0
4599	0	0
4600	0	0
4601	0	0
4602	0	0
4603	0	0
4604	0	0
4605	0	0
4606	0	0
4607	0	0
4608	0	0
4609	0	0
4610	0	0
4611	0	0
4612	0	0
4613	0	0
4614	0	0
4615	0	0
4616	0	0
4617	0	0
4618	0	0
4619	0	0
4620	0	0
4621	0	0
4622	0	0
4623	0	0
4624	0	0
4625	0	0
4626	0	0
4627	0	0
4628	0	0
4629	0	0
4630	0	0
4631	0	0
4632	0	0
4633	0	0
4634	0	0
4635	0	0
4636	0	0
4637	0	0
4638	0	0
4639	0	0
4640	0	0
4641	0	0
4642	0	0
4643	0	0
4644	0	0
4645	0	0
4646	0	0
4647	0	0
4648	0	0
4649	0	0
4650	0	0
4651	0	0
4652	0	0
4653	0	0
4654	0	0
4655	0	0
4656	0	0
4657	0	0
4658	0	0
4659	0	0
4660	1	0
4661	1	0
4662	1	0
4663	1	0
4664	1	0
4665	1	0
4666	1	0
4667	1	0
4668	0	0
4669	0	0
4670	0	0
4671	0	0
4672	0	0
4673	1	0
4674	1	0
4675	1	0
4676	1	0
4677	1	0
4678	1	0
4679	1	0
4680	1	0
4681	1	0
4682	1	0
4683	1	0
4684	1	0
4685	0	0
4686	0	0
4687	0	0
4688	0	0
4689	0	0
4690	0	0
4691	1	0
4692	0	0
4693	0	0
4694	0	0
4695	0	0
4696	0	0
4697	0	0
4698	0	0
4699	0	0
4700	0	0
4701	0	0
4702	0	0
4703	0	0
4704	0	0
4705	0	0
4706	0	0
4707	0	0
4708	0	0
4709	0	0
4710	0	0
4711	0	0
4712	0	0
4713	0	0
4714	0	0
4715	0	0
4716	0	0
4717	0	0
4718	0	0
4719	0	0
4720	0	0
4721	0	0
4722	0	0
4723	0	0
4724	0	0
4725	0	0
4726	0	0
4727	0	0
4728	0	0
4729	0	0
4730	0	0
4731	0	0
4732	0	0
4733	0	0
4734	0	0
4735	0	0
4736	0	0
4737	0	0
4738	0	0
4739	0	0
4740	0	0
4741	0	0
4742	0	0
4743	0	0
4744	0	0
4745	0	0
4746	0	0
4747	0	0
4748	0	0
4749	0	0
4750	0	0
4751	0	0
4752	0	0
4753	0	0
4754	0	0
4755	0	0
4756	0	0
4757	0	0
4758	0	0
4759	0	0
4760	0	0
4761	0	0
4762	0	0
4763	0	0
4764	0	0
4765	0	0
4766	0	0
4767	0	0
4768	0	0
4769	0	0
4770	0	0
4771	0	0
4772	0	0
4773	0	0
4774	0	0
4775	0	0
4776	0	0
4777	0	0
4778	0	0
4779	0	0
4780	0	0
4781	0	0
4782	0	0
4783	0	0
4784	0	0
4785	0	0
4786	0	0
4787	0	0
4788	0	0
4789	0	0
4790	0	0
4791	0	0
4792	0	0
4793	0	0
4794	0	0
4795	0	0
4796	0	0
4797	0	0
4798	0	0
4799	0	0
4800	0	0
4801	0	0
4802	0	0
4803	0	0
4804	0	0
4805	0	0
4806	0	0
4807	0	0
4808	0	0
4809	0	0
4810	0	0
4811	1	0
4812	1	0
4813	1	0
4814	1	0
4815	0	0
4816	0	0
4817	0	0
4818	0	0
4819	0	0
4820	0	0
4821	0	0
4822	0	0
4823	0	0
4824	0	0
4825	0	0
4826	0	0
4827	0	0
4828	0	0
4829	0	0
4830	0	0
4831	0	0
4832	0	0
4833	0	0
4834	0	0
4835	0	0
4836	0	0
4837	0	0
4838	0	0
4839	0	0
4840	0	0
4841	0	0
4842	0	0
4843	0	0
4844	1	0
4845	1	0
4846	1	0
4847	1	0
4848	1	0
4849	1	0
4850	1	0
4851	1	0
4852	1	0
4853	1	0
4854	1	0
4855	1	0
4856	1	0
4857	1	0
4858	1	0
4859	1	0
4860	1	0
4861	0	0
4862	0	0
4863	0	0
4864	0	0
4865	0	0
4866	0	0
4867	0	0
4868	0	0
4869	0	0
4870	0	0
4871	0	0
4872	0	0
4873	0	0
4874	0	0
4875	0	0
4876	0	0
4877	0	0
4878	0	0
4879	0	0
4880	0	0
4881	0	0
4882	0	0
4883	0	0
4884	0	0
4885	0	0
4886	0	0
4887	0	0
4888	0	0
4889	0	0
4890	0	0
4891	0	0
4892	0	0
4893	0	0
4894	0	0
4895	0	0
4896	0	0
4897	0	0
4898	0	0
4899	0	0
4900	0	0
4901	0	0
4902	0	0
4903	0	0
4904	0	0
4905	0	0
4906	0	0
4907	0	0
4908	0	0
4909	0	0
4910	0	0
