Site	ColumnScore	SumOfPairsScore
1	1	0
2	1	0
3	0	0
4	0	0
5	0	0
6	0	0
7	0	0
8	0	0
9	0	0
10	0	0
11	0	0
12	0	0
13	0	0
14	0	0
15	0	0
16	0	0
17	0	0
18	0	0
19	0	0
20	0	0
21	0	0
22	0	0
23	0	0
24	0	0
25	0	0
26	0	0
27	0	0
28	0	0
29	0	0
30	0	0
31	0	0
32	0	0
33	0	0
34	0	0
35	0	0
36	0	0
37	0	0
38	0	0
39	0	0
40	0	0
41	0	0
42	0	0
43	0	0
44	0	0
45	0	0
46	0	0
47	0	0
48	0	0
49	0	0
50	0	0
51	0	0
52	0	0
53	0	0
54	0	0
55	0	0
56	0	0
57	0	0
58	0	0
59	0	0
60	0	0
61	0	0
62	0	0
63	0	0
64	0	0
65	0	0
66	0	0
67	0	0
68	0	0
69	0	0
70	0	0
71	0	0
72	0	0
73	0	0
74	0	0
75	0	0
76	0	0
77	0	0
78	0	0
79	0	0
80	0	0
81	0	0
82	0	0
83	0	0
84	0	0
85	0	0
86	0	0
87	0	0
88	0	0
89	0	0
90	0	0
91	0	0
92	0	0
93	0	0
94	0	0
95	0	0
96	0	0
97	0	0
98	0	0
99	0	0
100	0	0
101	0	0
102	0	0
103	0	0
104	0	0
105	0	0
106	0	0
107	0	0
108	0	0
109	0	0
110	0	0
111	0	0
112	0	0
113	0	0
114	0	0
115	0	0
116	0	0
117	0	0
118	0	0
119	0	0
120	0	0
121	0	0
122	0	0
123	0	0
124	0	0
125	0	0
126	0	0
127	0	0
128	0	0
129	0	0
130	0	0
131	0	0
132	0	0
133	0	0
134	0	0
135	0	0
136	0	0
137	0	0
138	0	0
139	0	0
140	0	0
141	0	0
142	0	0
143	0	0
144	0	0
145	0	0
146	0	0
147	0	0
148	0	0
149	0	0
150	0	0
151	0	0
152	0	0
153	0	0
154	0	0
155	0	0
156	0	0
157	0	0
158	0	0
159	0	0
160	0	0
161	0	0
162	0	0
163	0	0
164	0	0
165	0	0
166	0	0
167	0	0
168	0	0
169	0	0
170	0	0
171	0	0
172	0	0
173	0	0
174	0	0
175	0	0
176	0	0
177	0	0
178	0	0
179	0	0
180	0	0
181	0	0
182	0	0
183	0	0
184	0	0
185	0	0
186	0	0
187	0	0
188	0	0
189	0	0
190	0	0
191	0	0
192	0	0
193	0	0
194	0	0
195	0	0
196	0	0
197	0	0
198	0	0
199	0	0
200	0	0
201	0	0.1
202	0	0.1
203	0	0.1
204	0	0.1
205	0	0.1
206	0	0.1
207	0	0.1
208	0	0.1
209	0	0.1
210	0	0.1
211	0	0.1
212	0	0.1
213	0	0.1
214	0	0
215	0	0
216	0	0
217	0	0
218	0	0
219	0	0
220	0	0
221	0	0
222	0	0
223	0	0
224	0	0
225	0	0
226	0	0
227	0	0
228	0	0
229	0	0
230	0	0
231	0	0
232	0	0
233	0	0
234	0	0
235	0	0
236	0	0
237	0	0
238	0	0
239	0	0
240	0	0
241	0	0
242	0	0
243	0	0
244	0	0
245	0	0
246	0	0
247	0	0
248	0	0
249	0	0
250	0	0
251	0	0
252	0	0
253	0	0
254	0	0
255	0	0
256	0	0
257	0	0
258	0	0
259	0	0
260	0	0
261	0	0
262	0	0.0151515
263	0	0.025641
264	0	0.0128205
265	0	0.0128205
266	0	0.0128205
267	0	0.010989
268	0	0.010989
269	0	0.010989
270	0	0.010989
271	0	0.010989
272	0	0.010989
273	0	0.010989
274	0	0.010989
275	0	0.010989
276	0	0.00952381
277	0	0.00952381
278	0	0.0190476
279	0	0.0190476
280	0	0.0190476
281	0	0.0190476
282	0	0.025
283	0	0.0166667
284	0	0.0220588
285	0	0.0220588
286	0	0.0220588
287	0	0.0220588
288	0	0.0326797
289	0	0.0326797
290	0	0.0326797
291	0	0.0233918
292	0	0.0233918
293	0	0.0233918
294	0	0.0210526
295	0	0.0190476
296	0	0.0285714
297	0	0.0238095
298	0	0.0238095
299	0	0.0238095
300	0	0.0285714
301	0	0.0285714
302	0	0.0285714
303	0	0.0285714
304	0	0.0428571
305	0	0.0474308
306	0	0.0474308
307	0	0.055336
308	0	0.055336
309	0	0.055336
310	0	0.0671937
311	0	0.0671937
312	0	0.076087
313	0	0.177536
314	0	0.151724
315	0	0.174713
316	0	0.145833
317	0	0.137255
318	0	0.142643
319	0	0.135135
320	0	0.203765
321	0	0.176391
322	0	0.205063
323	0	0.404473
324	0	0.382222
325	0	0.374851
326	0	0.34857
327	0	0.33895
328	0	0.466955
329	0	0.473242
330	0	0.279412
331	0	0.279412
332	0	0.0967742
333	0	0.116402
334	0	0.131054
335	0	0.518014
336	0	0.519289
337	0	0.596904
338	0	0.229909
339	0	0.17029
340	0	0.203463
341	0	0.272059
342	0	0.0357143
343	0	0.047619
344	0	0
345	0	0
346	0	0
347	0	0
348	0	0.1
349	0	0.1
350	0	0
351	0	0
352	0	0
353	0	0
354	0	0
355	0	0
356	0	0
357	0	0
358	0	0
359	0	0
360	0	0
361	0	0
362	0	0
363	0	0
364	0	0
365	0	0
366	0	0
367	0	0
368	0	0
369	0	0
370	0	0
371	0	0
372	0	0
373	0	0
374	0	0
375	0	0
376	0	0
377	0	0
378	0	0
379	0	0
380	0	0
381	0	0
382	0	0
383	0	0
384	0	0
385	0	0
386	0	0
387	0	0
388	0	0
389	0	0
390	0	0
391	0	0
392	0	0
393	0	0
394	0	0
395	0	0
396	0	0
397	0	0
398	0	0
399	0	0
400	0	0
401	0	0
402	0	0
403	0	0
404	0	0
405	0	0
406	0	0
407	0	0
408	0	0
409	0	0
410	0	0
411	0	0.586427
412	0	0.591515
413	0	0
414	0	0
415	0	0
416	0	0
417	0	0
418	0	0
419	0	0
420	0	0
421	0	0
422	0	0
423	0	0
424	0	0
425	0	0
426	0	0
427	0	0
428	0	0
429	0	0
430	0	0
431	0	0
432	0	0
433	0	0
434	0	0
435	0	0
436	0	0
437	0	0
438	0	0
439	0	0
440	0	0
441	0	0
442	0	0
443	0	0
444	0	0
445	0	0
446	0	0
447	0	0
448	0	0
449	0	0
450	0	0
451	0	0
452	0	0
453	0	0
454	0	0
455	0	0
456	0	0
457	0	0
458	0	0
459	0	0
460	0	0
461	0	0
462	0	0
463	0	0
464	0	0
465	0	0
466	0	0
467	0	0
468	0	0
469	0	0
470	0	0
471	0	0
472	0	0
473	0	0
474	0	0
475	0	0
476	0	0
477	0	0.166667
478	0	0.166667
479	0	0.166667
480	0	0.166667
481	0	0.166667
482	0	0.166667
483	0	0.5
484	0	0.5
485	0	0.5
486	0	0.897945
487	0	0.127273
488	0	0.3
489	0	0.6
490	0	0.666667
491	0	0.666667
492	0	0.714286
493	0	0.714286
494	0	0.94386
495	0	0.953746
496	0	0.955693
497	0	0.952005
498	0	0.962005
499	0	0.962031
500	0	0.307692
501	0	0.363636
502	0	0.363636
503	0	0.469697
504	0	0.622222
505	0	0.622222
506	0	0.8
507	0	0.989498
508	0	0.989535
509	0	0.987807
510	0	0.989553
511	0	0.993034
512	0	0.993034
513	0	0
514	0	0
515	0	0
516	0	0
517	0	0
518	0	0
519	0	0
520	0	0
521	0	0
522	0	0
523	0	0
524	0	0
525	0	0
526	0	0
527	0	0
528	0	0
529	0	0
530	0	0
531	0	0
532	0	0
533	0	0
534	0	0
535	0	0
536	0	0
537	0	0
538	0	0
539	0	0
540	0	0
541	0	0
542	0	0
543	0	0
544	0	0
545	0	0
546	0	0
547	0	0
548	1	0
549	1	0
550	0	0
551	0	0
552	1	0
553	0	0
554	0	0
555	0	0
556	0	0
557	0	0
558	0	0
559	0	0
560	0	0
561	0	0
562	0	0
563	0	0
564	0	0
565	0	0
566	0	0
567	0	0
568	0	0
569	0	0
570	0	0
571	0	0
572	0	0
573	0	0
574	0	0
575	0	0
576	0	0
577	0	0
578	0	0
579	0	0
580	0	0
581	0	0
582	0	0
583	0	0
584	0	0
585	0	0
586	0	0
587	0	0
588	0	0
589	0	0
590	0	0
591	0	0
592	0	0
593	0	0
594	0	0
595	0	0
596	0	0
597	0	0
598	0	0
599	0	0
600	0	0
601	0	0
602	0	0
603	0	0
604	0	0
605	0	0
606	0	0
607	0	0
608	0	0
609	0	0
610	0	0
611	0	0
612	0	0
613	0	0
614	0	0
615	0	0
616	0	0
617	0	0
618	0	0
619	0	0
620	0	0
621	0	0
622	0	0
623	0	0
624	0	0
625	0	0
626	0	0
627	0	0
628	0	0
629	0	0
630	0	0
631	0	0
632	0	0
633	0	0
634	0	0
635	0	0
636	0	0
637	0	0
638	0	0
639	0	0
640	0	0
641	0	0
642	0	0
643	0	0
644	0	0.993054
645	0	0.993054
646	0	0.99306
647	0	0.993066
648	0	0.993066
649	0	0.993066
650	0	0.993066
651	0	0.166667
652	0	0.994784
653	0	0.993054
654	0	0.984461
655	0	0.984461
656	0	0.982749
657	0	0.477823
658	0	0.513949
659	0	0.24359
660	0	0.912496
661	0	0.922266
662	0	0.922266
663	0	0.710145
664	0	0.96198
665	0	0.982659
666	0	0.982664
667	0	1
668	0	1
669	1	1
670	1	1
671	0	0.998262
672	0	0.998261
673	0	0.998261
674	0	0.996523
675	0	0.996523
676	0	0.996523
677	0	0.994792
678	1	0
679	1	0
680	1	0
681	1	0
682	1	0
683	1	0
684	1	0
685	1	0
686	1	0
687	1	0
688	1	0
689	1	0
690	0	0
691	0	0.998261
692	0	0.998261
693	0	0.998261
694	0	0.998261
695	0	0.998261
696	1	1
697	0	1
698	1	1
699	1	1
700	0	1
701	0	1
702	0	1
703	0	1
704	0	0.998262
705	0	0.998262
706	0	0.996526
707	0	0.996526
708	0	0.996526
709	0	0.996526
710	0	0.996526
711	0	0.996526
712	0	0.996526
713	0	0.994787
714	1	0
715	1	0
716	1	0
717	1	0
718	1	0
719	1	0
720	1	0
721	1	0
722	1	0
723	1	0
724	1	0
725	1	0
726	1	0
727	1	0
728	1	0
729	1	0
730	1	0
731	1	0
732	1	0
733	1	0
734	1	0
735	1	0
736	1	0
737	1	0
738	1	0
739	0	0
740	0	0.998262
741	0	0.998265
742	0	0.998267
743	0	0.998267
744	0	0.998267
745	0	0.998267
746	0	0.998265
747	0	0.998265
748	0	0.998265
749	0	0.998264
750	0	0.998264
751	0	0.998264
752	0	0.998264
753	0	0.919999
754	0	1
755	0	0.996532
756	0	0.998265
757	0	0.998267
758	0	0.998268
759	0	0.998268
760	1	0
761	1	0
762	1	0
763	1	0
764	1	0
765	1	0
766	1	0
767	1	0
768	1	0
769	1	0
770	1	0
771	0	0.994819
772	0	0.994819
773	0	0.994819
774	0	0.998271
775	0	0.998271
776	0	0.998271
777	0	0.996547
778	0	0.998273
779	0	0.998273
780	0	0.998273
781	0	0.998273
782	0	0.998273
783	0	0.998273
784	0	0.998273
785	0	0.998271
786	0	0
787	0	1
788	0	1
789	0	1
790	1	1
791	0	1
792	1	1
793	1	1
794	0	0.92192
795	0	0.998271
796	1	1
797	1	1
798	1	1
799	1	1
800	1	0
801	1	0
802	1	0
803	1	1
804	0	1
805	1	1
806	1	1
807	1	1
808	1	1
809	1	1
810	1	1
811	1	1
812	1	1
813	1	1
814	1	1
815	0	0.998273
816	0	0.998273
817	0	0.998273
818	0	0.998273
819	0	0.998273
820	0	0.998273
821	0	0
822	0	0
823	0	0
824	0	0
825	0	0
826	0	0.998273
827	0	0.998273
828	0	0.998274
829	1	1
830	1	1
831	1	1
832	1	1
833	0	0.998274
834	0	0.998274
835	0	0.998274
836	0	0.998274
837	0	0.998274
838	0	0.998274
839	0	0.998273
840	0	0.998273
841	0	0.998273
842	1	0
843	1	0
844	1	0
845	1	0
846	1	0
847	1	0
848	1	0
849	1	0
850	1	0
851	1	0
852	1	0
853	0	0
854	0	0
855	0	0
856	0	0.998271
857	0	0.998271
858	0	0.998271
859	0	0.998273
860	0	0.998273
861	0	0.998273
862	0	0.998273
863	0	0.998273
864	0	0.99655
865	0	0.994832
866	0	0.994832
867	0	0.996553
868	0	0.996553
869	0	0.99655
870	0	0.99655
871	0	0.998273
872	0	0.998273
873	0	0.998273
874	0	0.998273
875	0	0.998274
876	0	1
877	0	1
878	0	1
879	0	0.994834
880	0	0.994834
881	0	0.996555
882	1	1
883	1	1
884	1	1
885	1	1
886	0	1
887	0	1
888	1	1
889	1	1
890	1	1
891	1	1
892	0	0.998276
893	1	1
894	0	0.998277
895	0	0.998277
896	1	1
897	0	0.998277
898	1	0
899	1	0
900	1	0
901	1	0
902	1	0
903	1	0
904	1	0
905	1	0
906	1	0
907	1	0
908	1	0
909	1	0
910	1	0
911	1	0
912	1	0
913	1	0
914	1	0
915	1	0
916	0	0
917	1	1
918	1	1
919	1	1
920	0	0.998277
921	0	0.998277
922	0	0.996556
923	0	0
924	0	0.994836
925	0	0.994841
926	0	0.994832
927	0	0.99655
928	0	0.994828
929	0	0.996547
930	0	0.99655
931	0	0.99655
932	0	0
933	0	0.99655
934	0	0.99655
935	0	0.998274
936	0	0.993111
937	1	1
938	1	1
939	1	1
940	1	1
941	1	1
942	1	1
943	1	1
944	1	1
945	1	1
946	1	1
947	1	1
948	1	1
949	1	1
950	1	1
951	1	1
952	0	1
953	0	0.993132
954	0	0.993132
955	0	0.994841
956	0	0.994841
957	0	0.994841
958	0	0.996556
959	0	0.996556
960	0	1
961	0	0.989691
962	0	0.989688
963	1	0
964	1	0
965	1	0
966	1	0
967	1	0
968	1	0
969	1	0
970	1	0
971	1	0
972	1	0
973	1	0
974	1	0
975	1	0
976	1	0
977	1	0
978	1	0
979	1	0
980	1	0
981	1	0
982	1	0
983	1	0
984	1	0
985	1	0
986	1	0
987	1	0
988	1	0
989	1	0
990	1	0
991	1	0
992	1	0
993	1	0
994	0	0
995	0	0
996	0	0
997	0	0
998	0	0
999	0	0
1000	0	0
1001	0	0
1002	0	0
1003	0	0
1004	0	0
1005	0	0
1006	0	0
1007	0	0
1008	0	0
1009	0	0
1010	0	0.777778
1011	0	0.527273
1012	0	0.527273
1013	0	0.4
1014	0	0.333333
1015	0	0.333333
1016	0	0.974299
1017	0	0.972619
1018	0	0.972621
1019	0	0.926411
1020	0	0.924754
1021	0	0.924742
1022	0	1
1023	0	0.936093
1024	0	1
1025	0	1
1026	0	0.998277
1027	0	0.998277
1028	0	0.998277
1029	0	0.998277
1030	0	0.993123
1031	0	0.996556
1032	1	0
1033	1	0
1034	1	0
1035	1	0
1036	1	0
1037	1	0
1038	1	0
1039	1	0
1040	1	0
1041	1	0
1042	1	0
1043	1	0
1044	0	0
1045	0	0
1046	0	1
1047	0	1
1048	0	1
1049	0	1
1050	0	1
1051	0	1
1052	0	0.866667
1053	0	0.972751
1054	0	1
1055	0	0.949602
1056	0	0.949602
1057	0	0
1058	0	0
1059	0	0
1060	0	0
1061	0	0
1062	0	0.932084
1063	0	0.596337
1064	0	0.596589
1065	0	0
1066	0	0.333333
1067	0	0.333333
1068	0	0.615385
1069	0	0.615385
1070	0	0.354497
1071	0	0.255061
1072	0	0.222997
1073	0	0.192177
1074	0	0.487386
1075	0	0.478197
1076	0	0.425796
1077	0	0.403987
1078	0	0.38786
1079	0	0.384435
1080	0	0.685114
1081	0	0.687833
1082	0	0
1083	0	0
1084	1	0
1085	1	0
1086	1	0
1087	1	0
1088	1	0
1089	0	0
1090	0	0
1091	0	0
1092	0	0
1093	0	0
1094	0	0.166667
1095	0	0.138889
1096	0	0.831161
1097	0	0.830636
1098	0	0.705782
1099	0	0.759602
1100	0	0.839593
1101	0	0.580882
1102	0	0.743472
1103	0	0.743472
1104	0	0.652327
1105	0	0
1106	0	0
1107	0	0
1108	0	0
1109	0	0.705128
1110	0	0.705128
1111	0	0.604396
1112	0	0.546988
1113	0	0.535788
1114	0	0
1115	0	0
1116	0	0
1117	0	0
1118	0	0.166667
1119	0	0.3
1120	0	0.3
1121	0	0.5
1122	0	0.3
1123	0	0.582795
1124	0	0
1125	0	0
1126	0	0
1127	0	0
1128	0	0.529412
1129	0	0.784314
1130	0	0.805263
1131	0	0.626781
1132	0	0.342803
1133	0	0.571532
1134	0	0.767581
1135	0	0.83004
1136	0	0
1137	0	0
1138	0	0
1139	0	0.439072
1140	0	0.450794
1141	0	0.466059
1142	0	0.865288
1143	0	0.904918
1144	0	0.917907
1145	0	0.988014
1146	0	0.988014
1147	0	0.988014
1148	0	0.988014
1149	0	1
1150	0	1
1151	0	1
1152	0	1
1153	0	1
1154	0	1
1155	0	1
1156	0	0
1157	0	0.99828
1158	0	0.99828
1159	0	0.996559
1160	1	0
1161	1	0
1162	1	0
1163	0	0
1164	0	0.996559
1165	0	0.996559
1166	0	0.996559
1167	0	0.998277
1168	0	0.998279
1169	0	0.998279
1170	0	0.998279
1171	0	0.998279
1172	0	0.998279
1173	0	0.998279
1174	1	0
1175	1	0
1176	1	0
1177	1	0
1178	0	0
1179	0	0.998271
1180	0	0.996547
1181	0	0.996547
1182	0	0.996547
1183	0	0.880682
1184	0	0.747619
1185	0	0.470985
1186	0	0.445122
1187	0	0.930904
1188	0	0.926171
1189	0	0.942904
1190	0	0.935004
1191	0	0.879615
1192	0	0.772727
1193	0	1
1194	0	0.689023
1195	0	0.890766
1196	0	0.991402
1197	0	0.991402
1198	0	0.993124
1199	0	0.994841
1200	0	0.994841
1201	0	0.994841
1202	0	0
1203	0	0
1204	0	0
1205	0	0
1206	0	0
1207	0	0
1208	0	0
1209	0	0.996559
1210	0	0.996559
1211	0	0.996559
1212	0	0.998277
1213	0	0.994838
1214	0	0
1215	0	0.333333
1216	0	0.99485
1217	0	0.996565
1218	0	0.996565
1219	0	0.996565
1220	0	0.818182
1221	0	0.909437
1222	0	0.989713
1223	0	0.989713
1224	0	0.993127
1225	0	0.99655
1226	0	0.998274
1227	0	0.998279
1228	0	0.99828
1229	0	1
1230	0	1
1231	1	1
1232	1	1
1233	1	1
1234	1	1
1235	1	1
1236	1	1
1237	1	1
1238	1	1
1239	1	1
1240	1	0
1241	1	0
1242	1	0
1243	1	0
1244	1	0
1245	1	0
1246	1	0
1247	1	0
1248	1	0
1249	1	0
1250	1	0
1251	1	0
1252	1	0
1253	1	0
1254	1	0
1255	1	1
1256	1	1
1257	1	1
1258	1	1
1259	0	0.991425
1260	0	0
1261	0	1
1262	0	0.166667
1263	0	0.321429
1264	0	0.275
1265	0	0.295238
1266	0	0.969411
1267	0	0.974495
1268	0	1
1269	1	1
1270	1	1
1271	1	1
1272	1	1
1273	1	1
1274	1	1
1275	1	1
1276	1	1
1277	1	1
1278	1	1
1279	1	1
1280	0	1
1281	0	0.674429
1282	0	0.721311
1283	0	0.721311
1284	0	0.720033
1285	0	0.450133
1286	0	0.367768
1287	0	0.439477
1288	0	0.720545
1289	0	0.598762
1290	0	0.469487
1291	0	0.469487
1292	0	0.432501
1293	0	0.583471
1294	0	0.325151
1295	0	0.296423
1296	0	0.29414
1297	0	0.256942
1298	0	0.248056
1299	0	0.230655
1300	0	0.184877
1301	0	0.609041
1302	0	0.173638
1303	0	0.1814
1304	0	0.157438
1305	0	0.161717
1306	0	0.191858
1307	0	0.223301
1308	0	0.191646
1309	0	0.212982
1310	0	0.486667
1311	0	0.590152
1312	0	0.661972
1313	0	0.661972
1314	0	1
1315	0	0.69507
1316	0	0.69386
1317	0	0.69386
1318	0	0.69386
1319	0	0.692667
1320	0	0.780061
1321	0	0.98631
1322	0	0
1323	0	0
1324	0	0.987977
1325	0	0.8
1326	0	0.904667
1327	0	0.904745
1328	0	0.166667
1329	0	0.1
1330	0	0.878817
1331	0	0.794179
1332	0	0.794373
1333	0	0.794373
1334	0	0.794219
1335	0	0.791535
1336	0	0.54902
1337	0	0.76399
1338	0	0.82795
1339	0	0.670034
1340	0	0
1341	0	0
1342	1	0
1343	1	0
1344	1	0
1345	1	0
1346	1	0
1347	1	0
1348	1	0
1349	1	0
1350	1	0
1351	1	0
1352	1	0
1353	0	0
1354	0	0
1355	0	0.879835
1356	0	0.932265
1357	0	1
1358	1	0
1359	0	0.467692
1360	0	0.444444
1361	0	0.622222
1362	0	0
1363	0	0
1364	0	0
1365	0	1
1366	0	1
1367	0	1
1368	0	1
1369	0	1
1370	0	1
1371	0	1
1372	0	1
1373	0	1
1374	0	1
1375	0	1
1376	0	1
1377	0	1
1378	0	1
1379	0	1
1380	1	1
1381	1	1
1382	1	1
1383	0	1
1384	0	0.98967
1385	0	0.988007
1386	0	0.996552
1387	0	0.99828
1388	0	0.99828
1389	0	0.998279
1390	0	0.998279
1391	0	0.998279
1392	0	0.996562
1393	0	0.996562
1394	0	0.998279
1395	0	0
1396	0	0
1397	0	0
1398	0	0
1399	0	0
1400	0	0
1401	0	0
1402	0	0
1403	0	0
1404	0	0
1405	0	0
1406	0	0
1407	0	0
1408	0	0
1409	0	0
1410	0	0
1411	0	0
1412	0	0
1413	0	0
1414	0	0
1415	0	0
1416	0	0
1417	0	0
1418	0	0
1419	0	0
1420	1	0
1421	1	0
1422	1	0
1423	1	0
1424	1	0
1425	1	0
1426	1	0
1427	1	0
1428	1	0
1429	1	0
1430	1	0
1431	1	0
1432	1	0
1433	1	0
1434	1	0
1435	1	0
1436	1	0
1437	1	0
1438	1	0
1439	1	0
1440	1	0
1441	1	0
1442	1	0
1443	1	0
1444	1	0
1445	1	0
1446	1	0
1447	1	0
1448	1	0
1449	1	0
1450	1	0
1451	0	0
1452	1	0
1453	1	0
1454	0	0
1455	1	0
1456	1	0
1457	0	0
1458	1	0
1459	1	0
1460	1	0
1461	0	0
1462	0	0
1463	0	0
1464	0	0
1465	1	0
1466	1	0
1467	0	0
1468	1	0
1469	0	0
1470	0	0
1471	0	0
1472	0	0
1473	0	0
1474	0	0
1475	0	0
1476	0	0
1477	0	0
1478	1	0
1479	1	0
1480	1	0
1481	0	0
1482	1	0
1483	1	0
1484	0	0
1485	1	0
1486	1	0
1487	0	0
1488	1	0
1489	1	0
1490	1	0
1491	0	0
1492	1	0
1493	1	0
1494	0	0
1495	1	0
1496	1	0
1497	1	0
1498	0	0
1499	1	0
1500	0	0.99828
1501	0	0.99828
1502	0	0.99828
1503	0	0.99828
1504	0	0.998279
1505	0	1
1506	0	0.785019
1507	0	0.996562
1508	0	0.996562
1509	0	0
1510	0	0.994845
1511	0	0.994819
1512	0	1
1513	0	0.996559
1514	0	0.998279
1515	0	0.998279
1516	0	0.998279
1517	0	0.998279
1518	0	0.998279
1519	0	0.998279
1520	0	0.998277
1521	0	0.998277
1522	0	0.998277
1523	0	0.998277
1524	0	0.998277
1525	0	0.998277
1526	0	0.998277
1527	0	0.998277
1528	0	0.998277
1529	0	0.998277
1530	0	0.998277
1531	0	1
1532	0	0.956071
1533	0	0.694999
1534	0	0.888889
1535	0	1
1536	0	1
1537	0	0.689799
1538	0	0
1539	0	0
1540	0	0
1541	0	0.681818
1542	0	0.862434
1543	0	0.984572
1544	0	0
1545	0	0.849902
1546	0	0.850797
1547	0	0.998276
1548	0	0.998265
1549	0	0.998265
1550	0	0.996532
1551	0	0.998264
1552	0	0.998264
1553	0	0.998264
1554	0	0.998264
1555	0	0.998264
1556	0	0.994798
1557	0	0
1558	0	0
1559	0	0
1560	0	0
1561	0	0.833333
1562	0	0.705128
1563	0	0.705128
1564	0	0.438406
1565	0	0.955496
1566	0	0.952158
1567	0	0.833333
1568	0	0.725275
1569	0	0.866667
1570	0	0.939281
1571	0	0.764493
1572	0	0.84058
1573	0	0.722004
1574	0	0.723259
1575	0	0.724711
1576	0	0.909091
1577	0	1
1578	0	0.998261
1579	1	1
1580	1	1
1581	1	1
1582	1	1
1583	1	1
1584	1	1
1585	1	1
1586	0	1
1587	0	1
1588	0	1
1589	0	0
1590	0	0
1591	1	0
1592	1	0
1593	1	0
1594	1	0
1595	1	0
1596	1	0
1597	1	0
1598	1	0
1599	1	0
1600	1	0
1601	0	0
1602	0	0
1603	1	1
1604	1	1
1605	1	1
1606	1	1
1607	1	1
1608	1	1
1609	1	1
1610	1	1
1611	1	1
1612	1	1
1613	1	1
1614	0	1
1615	1	1
1616	1	1
1617	1	1
1618	1	1
1619	1	1
1620	1	1
1621	1	1
1622	1	1
1623	1	1
1624	0	0.818182
1625	0	0.777778
1626	0	0.75
1627	0	0.75
1628	0	0.5
1629	0	0.5
1630	0	0.333333
1631	1	0
1632	1	0
1633	1	0
1634	1	0
1635	1	0
1636	1	0
1637	1	0
1638	1	0
1639	1	0
1640	1	0
1641	0	0.982719
1642	0	0.98614
1643	0	0.913043
1644	0	0.490476
1645	0	0.490476
1646	0	0.925578
1647	0	0.925578
1648	0	0.920577
1649	0	0.922123
1650	0	0
1651	0	0
1652	0	0
1653	0	0
1654	0	0
1655	0	0.925395
1656	0	0.925397
1657	0	0.953131
1658	0	0.24359
1659	0	0.4
1660	0	0.535714
1661	0	0.714286
1662	0	0.926523
1663	0	1
1664	0	1
1665	0	0.996538
1666	0	0.996538
1667	0	0.996538
1668	0	0.996538
1669	0	0.996538
1670	0	0.996538
1671	0	0.996538
1672	0	0.982791
1673	0	1
1674	1	1
1675	1	1
1676	1	1
1677	1	1
1678	1	1
1679	0	0.998265
1680	1	1
1681	1	1
1682	1	1
1683	1	1
1684	1	1
1685	1	1
1686	1	1
1687	1	1
1688	0	1
1689	0	1
1690	0	0.968608
1691	0	0.5
1692	0	0.511538
1693	0	0.889375
1694	0	0.826157
1695	0	0.482048
1696	0	0.466667
1697	0	1
1698	0	1
1699	0	0.5
1700	0	0.5
1701	0	0.166667
1702	0	0.1
1703	0	0.1
1704	0	0.669937
1705	0	1
1706	0	1
1707	0	1
1708	0	1
1709	0	0.166667
1710	0	0.166667
1711	0	0.611111
1712	0	0.8
1713	0	0.681818
1714	0	0.705128
1715	0	0.507353
1716	0	0.928227
1717	0	0.241758
1718	0	0.208791
1719	0	0.699574
1720	0	0.1
1721	0	0.1
1722	0	0
1723	0	0
1724	0	0.0666667
1725	0	0.133333
1726	0	0.0952381
1727	0	0.0952381
1728	0	0.700096
1729	0	0.700361
1730	0	0.5
1731	0	0.707899
1732	0	0.859788
1733	0	0.862434
1734	0	0.802956
1735	0	0.671321
1736	0	0.707311
1737	0	0.715882
1738	0	0.988827
1739	0	0.988889
1740	0	0.993016
1741	0	0.993047
1742	0	0.993047
1743	0	0.989597
1744	0	0.987882
1745	0	0.987882
1746	0	0
1747	0	0.989607
1748	0	0.989607
1749	0	0.333333
1750	0	0.333333
1751	0	1
1752	0	1
1753	0	1
1754	0	0.994792
1755	0	0.993059
1756	0	0.994787
1757	0	0
1758	0	0
1759	0	0
1760	0	0
1761	0	0
1762	0	0
1763	0	0.992986
1764	0	0.666667
1765	0	0.666667
1766	0	0.472312
1767	0	0.506152
1768	0	0.730969
1769	0	1
1770	0	0
1771	0	0
1772	1	0
1773	1	0
1774	1	0
1775	1	0
1776	1	0
1777	0	0.965706
1778	0	0.361111
1779	0	0.194444
1780	0	1
1781	0	1
1782	0	1
1783	0	1
1784	0	1
1785	0	0.993057
1786	0	0.993057
1787	0	1
1788	0	1
1789	0	1
1790	0	1
1791	0	0.996526
1792	0	0.996526
1793	0	0.984541
1794	0	0.984541
1795	0	0.984541
1796	0	0.984541
1797	0	0.984541
1798	0	0
1799	0	0
1800	0	0.996523
1801	0	0.996523
1802	0	0.996523
1803	0	0.996523
1804	0	0.996523
1805	0	0.986135
1806	0	0.676471
1807	0	0.720165
1808	0	0.986207
1809	0	0.994783
1810	0	0.994783
1811	0	0.994783
1812	0	0.996526
1813	0	0.996526
1814	0	0.996526
1815	0	0.996526
1816	0	0.996526
1817	0	0.996526
1818	0	0.996526
1819	0	0.996526
1820	0	0.996526
1821	0	0
1822	0	0
1823	0	0
1824	0	0.956522
1825	0	0.955556
1826	0	1
1827	0	0.917994
1828	0	0.914595
1829	0	1
1830	0	1
1831	0	0.823153
1832	0	0.524194
1833	0	0.77509
1834	0	0.761517
1835	0	0
1836	0	0
1837	0	0
1838	0	0
1839	0	0.409722
1840	0	0.404506
1841	0	0.354978
1842	0	0.497992
1843	0	0.474197
1844	0	0.28223
1845	0	0.221774
1846	0	0.208333
1847	0	0.178182
1848	0	0.249329
1849	0	0.200511
1850	0	0.351648
1851	0	0.261438
1852	0	0.233918
1853	0	0.403028
1854	0	0.339561
1855	0	0.33281
1856	0	0.270332
1857	0	0.146696
1858	0	0.160016
1859	0	0.159279
1860	0	0.169426
1861	0	0.212289
1862	0	0.215424
1863	0	0.180796
1864	0	0.155269
1865	0	0.138783
1866	0	0.117512
1867	0	0.103906
1868	0	0.178571
1869	0	0.178571
1870	0	0.178571
1871	0	0.0888889
1872	0	0.0888889
1873	0	0.0822656
1874	0	0
1875	0	0
1876	0	0
1877	0	0
1878	0	0
1879	0	0
1880	0	0
1881	0	0
1882	0	0
1883	0	0
1884	0	0
1885	0	0
1886	0	0
1887	0	0
1888	0	0
1889	0	0.166667
1890	0	0.133333
1891	0	0.13104
1892	0	0.0994553
1893	0	0.0980473
1894	0	0.123306
1895	0	0.182487
1896	0	0.091133
1897	0	0.115764
1898	0	0.261151
1899	0	0
1900	0	0
1901	0	0
1902	0	0.392857
1903	0	0.194444
1904	0	0.25
1905	0	0.222222
1906	0	0.222222
1907	0	0.290909
1908	0	0.290909
1909	0	0.242424
1910	0	0.242424
1911	0	0.0666667
1912	0	0.163636
1913	0	0.382866
1914	0	0.5
1915	0	0.2
1916	0	0.263736
1917	0	0.330882
1918	0	0.301027
1919	0	0
1920	0	0
1921	0	0.390911
1922	0	0.398178
1923	0	0.142857
1924	0	0.12381
1925	0	0.356531
1926	0	0.0757576
1927	0	0.0818713
1928	0	0.0467836
1929	0	0.173802
1930	0	0.218812
1931	0	0.209991
1932	0	0.457737
1933	0	0.142857
1934	0	0.142857
1935	0	0.142857
1936	0	0.136134
1937	0	0.161345
1938	0	0.504469
1939	0	0.772167
1940	0	0.803501
1941	0	0.88607
1942	0	0.8568
1943	0	0.848085
1944	0	0.857555
1945	0	0.888792
1946	0	0.906775
1947	0	0.906704
1948	0	1
1949	0	1
1950	0	1
1951	0	1
1952	0	1
1953	0	1
1954	0	1
1955	0	1
1956	0	1
1957	0	1
1958	0	1
1959	0	0.934639
1960	0	0.934639
1961	0	0.593596
1962	0	0.593596
1963	0	0.192308
1964	0	0.254545
1965	0	0.392857
1966	0	0.392857
1967	0	0.666667
1968	0	0.666667
1969	0	1
1970	0	1
1971	0	0.998258
1972	0	0.998258
1973	0	0.998258
1974	0	0.998258
1975	0	0.998258
1976	0	0.998256
1977	0	0.998256
1978	0	0.998256
1979	0	0.998256
1980	0	0.998256
1981	0	0.998256
1982	0	0.998256
1983	0	0.998256
1984	0	0.989576
1985	0	1
1986	0	1
1987	0	1
1988	0	1
1989	0	1
1990	0	1
1991	0	0.5
1992	0	0.5
1993	0	0.5
1994	0	1
1995	0	1
1996	0	0.97562
1997	0	0.444444
1998	0	0.333333
1999	0	0.534932
2000	0	0
2001	0	0
2002	0	0
2003	0	0
2004	0	1
2005	0	1
2006	0	1
2007	0	1
2008	0	1
2009	0	1
2010	0	1
2011	0	1
2012	0	1
2013	0	1
2014	0	0.970282
2015	0	0.971998
2016	0	1
2017	0	0.986086
2018	0	0.982623
2019	0	0.355556
2020	0	0.355556
2021	0	0.535714
2022	0	0.535714
2023	0	0.714286
2024	0	1
2025	0	1
2026	0	1
2027	0	0.666667
2028	0	0.266667
2029	0	0.4
2030	0	0.4
2031	0	0.4
2032	0	0.4
2033	0	0.4
2034	0	0.4
2035	0	0.333333
2036	0	0.166667
2037	0	0.333333
2038	0	0.993054
2039	0	0.993054
2040	0	0.993054
2041	0	0.994783
2042	0	0
2043	0	0
2044	0	0
2045	0	0
2046	0	0
2047	0	0
2048	0	0
2049	0	0
2050	0	0
2051	0	0
2052	0	0
2053	0	0
2054	0	0
2055	0	0
2056	0	0
2057	0	0
2058	0	0
2059	0	0
2060	0	0
2061	0	0
2062	0	0.994783
2063	0	0.994783
2064	0	0.994783
2065	0	0.994783
2066	0	0.99652
2067	0	0.99652
2068	0	0.99652
2069	0	0.99652
2070	0	0.99652
2071	0	0.99652
2072	0	0.993053
2073	0	0
2074	0	0
2075	0	0
2076	0	0
2077	0	0
2078	0	0
2079	0	0.99304
2080	0	0.989588
2081	0	0.937411
2082	0	0.972402
2083	0	0.974113
2084	0	0.355556
2085	0	0.428571
2086	0	1
2087	0	1
2088	0	1
2089	0	1
2090	0	1
2091	0	0.6
2092	0	0.1
2093	0	0.1
2094	0	0.1
2095	0	0
2096	0	0
2097	0	0.166667
2098	0	1
2099	0	1
2100	0	1
2101	0	0.993047
2102	0	0.99304
2103	0	0.993047
2104	0	0.993047
2105	0	0.993047
2106	0	0
2107	0	0.991304
2108	0	0.989579
2109	0	0
2110	0	0.986129
2111	0	0.986129
2112	0	0
2113	0	0
2114	0	0
2115	0	0
2116	0	0.784314
2117	0	0.636842
2118	0	0.955405
2119	0	0.906178
2120	0	0
2121	0	0
2122	0	0
2123	0	0
2124	0	0
2125	0	0
2126	0	0
2127	0	0
2128	0	0
2129	0	0
2130	0	0
2131	0	0
2132	0	0
2133	0	0
2134	0	0
2135	0	0
2136	0	0.897701
2137	0	0.897748
2138	0	0
2139	0	0
2140	0	0
2141	0	0
2142	0	0
2143	0	0
2144	0	0
2145	0	0
2146	0	0
2147	0	0
2148	0	0
2149	0	0
2150	0	0
2151	0	0
2152	0	0
2153	0	0
2154	0	0
2155	0	0
2156	0	0
2157	0	0
2158	0	0
2159	0	0
2160	0	0
2161	0	0.5
2162	0	0.904678
2163	0	0.861668
2164	0	0.85982
2165	0	0.620854
2166	0	0.56044
2167	0	0.433333
2168	0	0.433333
2169	0	0.433333
2170	0	0.5
2171	0	0.612206
2172	0	0.669118
2173	0	0.669118
2174	0	0.236842
2175	0	0.199134
2176	0	0.0968661
2177	0	0.142602
2178	0	0.430192
2179	0	0.307971
2180	0	0.21978
2181	0	0.133333
2182	0	0.2
2183	0	0.214286
2184	0	0.142857
2185	0	0.142857
2186	0	0.2
2187	0	0.285714
2188	0	0.285714
2189	0	0.411894
2190	0	0.4
2191	0	0.333333
2192	0	0.2
2193	0	0.4
2194	0	0.5
2195	0	0.5
2196	0	0.614384
2197	0	0
2198	0	0
2199	0	0
2200	0	0
2201	0	0.333333
2202	0	1
2203	0	0.441146
2204	0	0.426374
2205	0	0.418357
2206	0	0.394805
2207	0	0.768436
2208	0	0.545225
2209	0	0.612676
2210	0	0.116959
2211	0	0.345029
2212	0	0.409357
2213	0	0.497076
2214	0	0.754941
2215	0	0.909091
2216	0	0.895927
2217	0	0.895859
2218	0	0.897517
2219	0	0
2220	0	0
2221	0	0
2222	0	0
2223	0	0
2224	0	0
2225	0	0
2226	0	0
2227	0	0
2228	0	0
2229	0	0
2230	0	0
2231	0	0
2232	0	0
2233	0	0
2234	0	0.6
2235	0	0.982026
2236	0	0.986034
2237	0	0.987817
2238	0	0.987838
2239	0	0.989562
2240	0	0
2241	0	0
2242	0	0.993028
2243	0	0.98957
2244	0	0
2245	0	0
2246	0	0.805263
2247	0	0.805263
2248	0	0.948447
2249	0	0.6
2250	0	0.6
2251	0	0.6
2252	0	0.6
2253	0	0.6
2254	0	0.6
2255	0	1
2256	0	1
2257	0	0.2
2258	0	0.538817
2259	0	0.333333
2260	0	0.333333
2261	0	0
2262	0	0
2263	0	0
2264	0	0
2265	0	0
2266	0	0
2267	0	0
2268	0	0
2269	0	0
2270	0	0
2271	0	0
2272	0	0
2273	0	0
2274	0	0
2275	0	0
2276	0	0
2277	0	0
2278	0	0
2279	0	0
2280	0	0
2281	0	0
2282	0	0
2283	0	0
2284	0	0.242424
2285	0	0.520244
2286	0	0.166667
2287	0	0.166667
2288	0	0.166667
2289	0	0.403509
2290	0	0.32381
2291	0	0.290043
2292	0	0.516538
2293	0	0.218182
2294	0	0.218182
2295	0	0.109091
2296	0	0.158333
2297	0	0.504111
2298	0	0.41657
2299	0	0.105413
2300	0	0.0757576
2301	0	0.0888889
2302	0	0.155556
2303	0	0.244444
2304	0	0.4
2305	0	0.334181
2306	0	0.434467
2307	0	0.458994
2308	0	0
2309	0	0
2310	0	0.333333
2311	0	0.882353
2312	0	0.833992
2313	0	0.879032
2314	0	0.945439
2315	0	0.970526
2316	0	0.974038
2317	0	0.974038
2318	0	0.974038
2319	0	0.974038
2320	0	0.974039
2321	0	0.980923
2322	0	0.980923
2323	0	0.980923
2324	0	0.98089
2325	0	0
2326	0	0.989451
2327	0	0
2328	0	0
2329	0	0
2330	0	0.5
2331	0	0
2332	0	0
2333	0	0
2334	0	0
2335	0	0.5
2336	0	0.5
2337	0	0.949766
2338	0	0.333333
2339	0	0.333333
2340	0	0.333333
2341	0	0.92844
2342	0	0.895455
2343	0	0.895455
2344	0	0.892929
2345	0	0
2346	0	0
2347	0	0
2348	0	0
2349	0	0
2350	0	0
2351	0	0
2352	0	0
2353	0	0
2354	0	0.333333
2355	0	0.186813
2356	0	0.134503
2357	0	0.121212
2358	0	0.0909091
2359	0	0.0766667
2360	0	0.0822511
2361	0	0.0857143
2362	0	0.0714286
2363	0	0.1
2364	0	0.156863
2365	0	0.176471
2366	0	0.2
2367	0	0.175824
2368	0	0.133333
2369	0	0.0879121
2370	0	0.0769231
2371	0	0.0769231
2372	0	0.0909091
2373	0	0.0757576
2374	0	0.0606061
2375	0	0.0606061
2376	0	0.0727273
2377	0	0.030303
2378	0	0.0384615
2379	0	0.0333333
2380	0	0.0562771
2381	0	0.309524
2382	0	0.226107
2383	0	0.187043
2384	0	0.173003
2385	0	0.147517
2386	0	0.130264
2387	0	0.170883
2388	0	0.15249
2389	0	0.140897
2390	0	0.22073
2391	0	0.194956
2392	0	0.328108
2393	0	0.31243
2394	0	0.282195
2395	0	0.283917
2396	0	0.228144
2397	0	0.146441
2398	0	0.15116
2399	0	0.119803
2400	0	0.123344
2401	0	0.0788052
2402	0	0.0763826
2403	0	0.0685097
2404	0	0.0604051
2405	0	0.157508
2406	0	0.157508
2407	0	0.0545432
2408	0	0.0496343
2409	0	0.0523891
2410	0	0.119585
2411	0	0.0549846
2412	0	0.050296
2413	0	0.0533662
2414	0	0.0550653
2415	0	0.0403504
2416	0	0.041181
2417	0	0.0206584
2418	0	0.0162465
2419	0	0.0332517
2420	0	0.0331361
2421	0	0.0322746
2422	0	0.0315444
2423	0	0.0308204
2424	0	0.0289328
2425	0	0.0295807
2426	0	0.0317421
2427	0	0.0359252
2428	0	0.028486
2429	0	0.0263087
2430	0	0.0165731
2431	0	0.0155745
2432	0	0.0161392
2433	0	0.0301824
2434	0	0.0217473
2435	0	0.0233548
2436	0	0.0282972
2437	0	0.0312907
2438	0	0.0334096
2439	0	0.0285653
2440	0	0.020904
2441	0	0.0246212
2442	0	0.0150538
2443	0	0.0206897
2444	0	0.022792
2445	0	0.0108696
2446	0	0.0118577
2447	0	0.0142857
2448	0	0.0157895
2449	0	0.0157895
2450	0	0.0292398
2451	0	0.0294118
2452	0	0.0294118
2453	0	0.0269906
2454	0	0.033033
2455	0	0.0333333
2456	0	0.0255255
2457	0	0.0227596
2458	0	0.0345345
2459	0	0.0355619
2460	0	0.0341394
2461	0	0.0323887
2462	0	0.0286772
2463	0	0.0286772
2464	0	0.030303
2465	0	0.105179
2466	0	0.0997332
2467	0	0.0992859
2468	0	0.0797101
2469	0	0.0869565
2470	0	0.0948617
2471	0	0.0923077
2472	0	0.0923077
2473	0	0.0738916
2474	0	0.0492424
2475	0	0.103741
2476	0	0.122372
2477	0	0.199595
2478	0	0.18733
2479	0	0.0813954
2480	0	0.163636
2481	0	0.163636
2482	0	0.131868
2483	0	0.127273
2484	0	0.0666667
2485	0	0.1
2486	0	0.1
2487	0	0.1
2488	0	0.152806
2489	0	0.160802
2490	0	0.180702
2491	0	0.183784
2492	0	0.160839
2493	0	0.168421
2494	0	0.180429
2495	0	0.161442
2496	0	0.0988292
2497	0	0.0483871
2498	0	0.07
2499	0	0.0692641
2500	0	0.05
2501	0	0.0571429
2502	0	0.0571429
2503	0	0.0769231
2504	0	0.0909091
2505	0	0.109091
2506	0	0.109091
2507	0	0
2508	0	0
2509	0	0
2510	0	0
2511	0	0
2512	0	0.0666667
2513	0	0.0666667
2514	0	0.1
2515	0	0
2516	0	0
2517	0	0
2518	0	0
2519	0	0
2520	0	0
2521	0	0
2522	0	0
2523	0	0
2524	0	0
2525	0	0
2526	0	0
2527	0	0
2528	0	0
2529	0	0
2530	0	0
2531	0	0
2532	0	0
2533	0	0
2534	0	0
2535	0	0
2536	0	0
2537	0	0
2538	0	0
2539	0	0
2540	0	0
2541	0	0
2542	0	0
2543	0	0
2544	0	0
2545	0	0
2546	0	0
2547	0	0
2548	0	0
2549	0	0
2550	0	0
2551	0	0
2552	0	0
2553	0	0
2554	0	0.333333
2555	0	0.211765
2556	0	0.333333
2557	0	0.333333
2558	0	0.333333
2559	0	0.333333
2560	0	0.333333
2561	0	0.333333
2562	0	0.333333
2563	0	0
2564	0	0
2565	0	0
2566	0	0
2567	0	0
2568	0	0.1
2569	0	0.265657
2570	0	0
2571	0	0
2572	0	0
2573	0	0
2574	0	0
2575	0	0
2576	0	0
2577	0	0
2578	0	0
2579	0	0
2580	0	0
2581	0	0
2582	0	0
2583	0	0
2584	0	0
2585	0	0
2586	0	0
2587	0	0
2588	0	0
2589	0	0
2590	0	0
2591	0	0
2592	0	0
2593	0	0
2594	0	0
2595	0	0.0841584
2596	0	0.0964591
2597	0	0.106443
2598	0	0.0822803
2599	0	0.0863356
2600	0	0.0794178
2601	0	0.0832501
2602	0	0.0740113
2603	0	0.0396135
2604	0	0.0384068
2605	0	0.0449735
2606	0	0.0466667
2607	0	0.0142857
2608	0	0.00952381
2609	0	0
2610	0	0
2611	0	0
2612	0	0
2613	0	0
2614	0	0
2615	0	0
2616	0	0
2617	0	0
2618	0	0
2619	0	0
2620	0	0
2621	0	0
2622	0	0
2623	0	0
2624	0	0
2625	0	0
2626	0	0
2627	0	0
2628	0	0
2629	0	0
2630	0	0
2631	0	0
2632	0	0
2633	0	0
2634	0	0
2635	0	0
2636	0	0
2637	0	0
2638	0	0
2639	0	0
2640	0	0
2641	0	0
2642	0	0
2643	0	0
2644	0	0
2645	0	0
2646	0	0
2647	0	0
2648	0	0
2649	0	0
2650	0	0
2651	0	0
2652	0	0
2653	0	0
2654	0	0
2655	0	0
2656	0	0
2657	0	0
2658	0	0
2659	0	0
2660	0	0
2661	0	0
2662	0	0
2663	0	0
2664	0	0
2665	0	0
2666	0	0
2667	0	0
2668	0	0
2669	0	0
2670	0	0
2671	0	0
2672	0	0
2673	0	0
2674	0	0
2675	0	0
2676	0	0
2677	0	0
2678	0	0
2679	0	0
2680	0	0
2681	0	0
2682	0	0
2683	0	0
2684	0	0
2685	0	0
2686	0	0
2687	0	0
2688	0	0
2689	0	0
2690	0	0
2691	0	0
2692	0	0
2693	0	0
2694	0	0
2695	0	0
2696	0	0
2697	0	0
2698	0	0
2699	0	0
2700	0	0
2701	0	0
2702	0	0
2703	0	0
2704	0	0
2705	0	0
2706	0	0
2707	0	0
2708	0	0
2709	0	0
2710	0	0
2711	0	0
2712	0	0
2713	0	0
2714	0	0
2715	0	0
2716	0	0
2717	0	0
2718	0	0
2719	0	0
2720	0	0
2721	0	0
2722	0	0
2723	0	0
2724	0	0
2725	0	0
2726	0	0
2727	0	0
2728	0	0
2729	0	0
2730	0	0
2731	0	0
2732	0	0
2733	0	0
2734	0	0
2735	0	0
2736	0	0
2737	0	0
2738	0	0
2739	0	0
2740	0	0
2741	0	0
2742	0	0
2743	0	0
2744	0	0
2745	0	0
2746	0	0
2747	0	0
2748	0	0
2749	0	0
2750	0	0
2751	0	0
2752	0	0
2753	0	0
2754	0	0
2755	0	0
2756	0	0
2757	0	0
2758	0	0
2759	0	0
2760	0	0
2761	0	0
2762	0	0
2763	0	0
2764	0	0
2765	0	0
2766	0	0
2767	0	0
2768	0	0
2769	0	0
2770	0	0
2771	0	0
2772	0	0
2773	0	0
2774	0	0
2775	0	0
2776	0	0
2777	0	0
2778	0	0
2779	0	0
2780	0	0
2781	0	0
2782	0	0
2783	0	0
2784	0	0
2785	0	0
2786	0	0
2787	0	0
2788	0	0
2789	0	0
2790	0	0
2791	0	0
2792	0	0
2793	0	0
2794	0	0
2795	0	0
2796	0	0
2797	0	0
2798	0	0
2799	0	0
2800	0	0
2801	0	0
2802	0	0
2803	0	0
2804	0	0
2805	0	0
2806	0	0
2807	0	0
2808	0	0
2809	0	0
2810	0	0
2811	0	0
2812	0	0
2813	0	0
2814	0	0
2815	0	0
2816	0	0
2817	0	0
2818	0	0
2819	0	0
2820	0	0
2821	0	0
2822	0	0
2823	0	0
2824	0	0
2825	0	0
2826	0	0
2827	0	0
2828	0	0
2829	0	0
2830	0	0
2831	0	0
2832	0	0
2833	0	0
2834	0	0
2835	0	0
2836	0	0
2837	0	0
2838	0	0
2839	0	0
2840	0	0
2841	0	0
2842	0	0
2843	0	0
2844	0	0
2845	0	0
2846	0	0
2847	0	0
2848	0	0
2849	0	0
2850	0	0
2851	0	0
2852	0	0
2853	0	0
2854	0	0
2855	0	0
2856	0	0
2857	0	0
2858	0	0
2859	0	0
2860	0	0
2861	0	0
2862	0	0
2863	0	0
2864	0	0
2865	0	0
2866	0	0
2867	0	0
2868	0	0
2869	0	0
2870	0	0
2871	0	0
2872	0	0
2873	0	0
2874	0	0
2875	0	0
2876	0	0
2877	0	0
2878	0	0
2879	0	0
2880	0	0
2881	0	0
2882	0	0
2883	0	0
2884	0	0
2885	0	0
2886	0	0
2887	0	0
2888	0	0
2889	0	0
2890	0	0
2891	0	0
2892	0	0
2893	0	0
2894	0	0
2895	0	0
2896	0	0
2897	0	0
2898	0	0
2899	0	0
2900	0	0
2901	0	0
2902	0	0
2903	0	0
2904	0	0
2905	0	0
2906	0	0
2907	0	0
2908	0	0
2909	0	0
2910	0	0
2911	0	0
2912	0	0
2913	0	0
2914	0	0
2915	0	0
2916	0	0
2917	0	0
2918	0	0
2919	0	0
2920	0	0
2921	0	0
2922	0	0
2923	0	0
2924	0	0
2925	0	0
2926	0	0
2927	0	0
2928	0	0
2929	0	0
2930	0	0
2931	0	0
2932	0	0
2933	0	0
2934	0	0
2935	0	0
2936	0	0
2937	0	0
2938	0	0
2939	0	0
2940	0	0
2941	0	0
2942	0	0
2943	0	0
2944	0	0
2945	0	0
2946	0	0
2947	0	0
2948	0	0
2949	0	0
2950	0	0
2951	0	0
2952	0	0
2953	0	0
2954	0	0
2955	0	0
2956	0	0
2957	0	0
2958	0	0
2959	0	0
2960	0	0
2961	0	0
2962	0	0
2963	0	0
2964	0	0
2965	0	0
2966	0	0
2967	0	0
2968	0	0
2969	0	0
2970	0	0
2971	0	0
2972	0	0
2973	0	0
2974	0	0
2975	0	0
2976	0	0
2977	0	0
2978	0	0
2979	0	0
2980	0	0
2981	0	0
2982	0	0
2983	0	0
2984	0	0
2985	0	0
2986	0	0
2987	0	0
2988	0	0
2989	0	0
2990	0	0
2991	0	0
2992	1	0
2993	1	0
2994	1	0
2995	1	0
2996	1	0
2997	1	0
2998	1	0
2999	1	0
3000	1	0
3001	1	0
3002	1	0
3003	1	0
3004	1	0
3005	1	0
3006	1	0
3007	1	0
3008	1	0
3009	1	0
3010	1	0
3011	1	0
3012	1	0
3013	1	0
3014	1	0
3015	1	0
3016	1	0
3017	1	0
3018	1	0
3019	1	0
3020	1	0
3021	1	0
3022	1	0
3023	1	0
3024	1	0
3025	1	0
3026	1	0
3027	1	0
3028	1	0
3029	1	0
3030	1	0
3031	1	0
3032	1	0
3033	1	0
3034	1	0
3035	1	0
3036	1	0
3037	1	0
3038	1	0
3039	1	0
3040	1	0
3041	1	0
3042	1	0
3043	1	0
3044	1	0
3045	1	0
3046	1	0
3047	1	0
3048	1	0
3049	1	0
3050	1	0
3051	1	0
3052	1	0
3053	1	0
3054	1	0
3055	1	0
3056	1	0
3057	1	0
3058	1	0
3059	1	0
3060	1	0
3061	1	0
3062	1	0
3063	1	0
3064	1	0
3065	1	0
3066	1	0
3067	1	0
3068	1	0
3069	1	0
3070	1	0
3071	1	0
3072	1	0
3073	1	0
3074	1	0
3075	1	0
3076	1	0
3077	1	0
3078	1	0
3079	1	0
3080	1	0
3081	1	0
3082	1	0
3083	1	0
3084	1	0
3085	1	0
3086	1	0
3087	1	0
3088	1	0
3089	0	0
3090	0	0
3091	0	0
3092	0	0
3093	0	0
3094	0	0
3095	0	0
3096	0	0
3097	0	0
3098	0	0
3099	0	0
3100	0	0
3101	0	0
3102	0	0
3103	0	0
3104	0	0
3105	1	0
3106	1	0
3107	0	0
3108	0	0
3109	0	0
3110	0	0
3111	1	0
3112	1	0
3113	1	0
3114	1	0
3115	1	0
3116	1	0
3117	1	0
3118	1	0
3119	1	0
3120	1	0
3121	1	0
3122	1	0
3123	1	0
3124	1	0
3125	1	0
3126	1	0
3127	1	0
3128	1	0
3129	1	0
3130	1	0
3131	1	0
3132	1	0
3133	1	0
3134	1	0
3135	1	0
3136	1	0
3137	1	0
3138	1	0
3139	1	0
3140	1	0
3141	1	0
3142	1	0
3143	1	0
3144	1	0
3145	1	0
3146	1	0
3147	1	0
3148	1	0
3149	1	0
3150	1	0
3151	1	0
3152	1	0
3153	1	0
