Site	ColumnScore	SumOfPairsScore
1	1	0
2	1	0
3	1	0
4	1	0
5	1	0
6	1	0
7	1	0
8	1	0
9	1	0
10	1	0
11	1	0
12	1	0
13	1	0
14	1	0
15	1	0
16	1	0
17	1	0
18	1	0
19	1	0
20	1	0
21	1	0
22	1	0
23	1	0
24	1	0
25	1	0
26	1	0
27	1	0
28	1	0
29	1	0
30	1	0
31	1	0
32	1	0
33	1	0
34	1	0
35	1	0
36	1	0
37	1	0
38	1	0
39	1	0
40	1	0
41	1	0
42	1	0
43	1	0
44	1	0
45	1	0
46	1	0
47	1	0
48	1	0
49	1	0
50	1	0
51	1	0
52	1	0
53	1	0
54	1	0
55	1	0
56	0	0
57	0	0
58	0	0
59	0	0
60	0	0
61	0	0
62	0	0
63	0	0
64	0	0
65	0	0
66	0	0
67	0	0
68	0	0
69	0	0
70	0	0
71	0	0
72	0	0
73	0	0
74	0	0
75	0	0
76	0	0
77	0	0
78	0	0
79	0	0
80	0	0
81	0	0
82	0	0
83	0	0
84	0	0
85	0	0
86	0	0
87	0	0
88	0	0
89	0	0
90	0	0
91	0	0
92	1	0
93	1	0
94	0	0
95	1	0
96	0	0
97	0	0
98	0	0
99	0	0
100	0	0
101	0	0
102	0	0
103	0	0
104	0	0
105	0	0
106	0	0
107	0	0
108	0	0
109	0	0
110	1	0
111	1	0
112	1	0
113	1	0
114	1	0
115	1	0
116	0	0
117	0	0
118	0	0
119	0	0
120	0	0
121	0	0
122	0	0
123	0	0
124	0	0
125	0	0
126	0	0
127	0	0
128	0	0
129	0	0
130	0	0
131	0	0
132	0	0
133	0	0
134	0	0
135	0	0
136	0	0
137	0	0
138	0	0
139	0	0
140	0	0
141	0	0
142	0	0
143	0	0
144	0	0
145	0	0
146	0	0
147	0	0
148	0	0
149	0	0
150	0	0
151	0	0
152	0	0
153	1	0
154	1	0
155	1	0
156	1	0
157	1	0
158	1	0
159	1	0
160	1	0
161	1	0
162	1	0
163	1	0
164	1	0
165	1	0
166	1	0
167	1	0
168	1	0
169	1	0
170	1	0
171	1	0
172	1	0
173	1	0
174	1	0
175	1	0
176	1	0
177	1	0
178	1	0
179	1	0
180	1	0
181	1	0
182	1	0
183	1	0
184	1	0
185	1	0
186	1	0
187	1	0
188	1	0
189	1	0
190	1	0
191	1	0
192	1	0
193	0	0
194	0	0
195	0	0
196	0	0
197	0	0
198	0	0
199	0	0
200	0	0
201	0	0
202	0	0
203	0	0
204	0	0
205	0	0
206	0	0
207	0	0
208	0	0
209	0	0
210	0	0
211	0	0
212	0	0
213	0	0
214	0	0
215	0	0
216	0	0
217	0	0
218	0	0
219	0	0
220	0	0
221	0	0
222	0	0
223	0	0
224	0	0
225	0	0
226	0	0
227	0	0
228	0	0
229	0	0
230	0	0
231	0	0
232	0	0
233	0	0
234	0	0
235	0	0
236	0	0
237	0	0
238	0	0
239	0	0
240	0	0
241	0	0
242	0	0
243	0	0
244	0	0
245	0	0
246	0	0
247	0	0
248	0	0
249	0	0
250	0	0
251	0	0
252	0	0
253	0	0
254	0	0
255	0	0
256	0	0
257	0	0
258	0	0
259	0	0
260	0	0
261	0	0
262	0	0
263	1	0
264	0	0
265	0	0
266	0	0
267	0	0
268	0	0
269	0	0
270	0	0
271	0	0
272	0	0
273	0	0
274	0	0
275	0	0
276	0	0
277	0	0
278	0	0
279	0	0
280	0	0
281	0	0
282	0	0
283	0	0
284	0	0
285	0	0
286	0	0
287	0	0
288	0	0
289	0	0
290	0	0
291	0	0
292	0	0
293	0	0
294	0	0
295	0	0
296	0	0
297	0	0
298	0	0
299	0	0
300	0	0
301	0	0
302	0	0
303	0	0
304	0	0
305	0	0
306	0	0
307	0	0
308	0	0
309	0	0
310	0	0
311	0	0
312	0	0
313	0	0
314	0	0
315	0	0
316	0	0
317	0	0
318	0	0
319	0	0
320	0	0
321	0	0
322	0	0
323	0	0
324	0	0
325	0	0
326	0	0
327	0	0
328	0	0
329	0	0
330	0	0
331	0	0
332	0	0
333	0	0
334	0	0
335	0	0
336	0	0
337	0	0
338	0	0
339	0	0
340	0	0
341	0	0
342	0	0
343	0	0
344	0	0
345	0	0
346	0	0
347	0	0
348	0	0
349	0	0
350	0	0
351	0	0
352	0	0
353	0	0
354	0	0
355	0	0
356	0	0
357	0	0
358	0	0
359	0	0
360	0	0
361	0	0
362	0	0
363	0	0
364	0	0
365	0	0
366	0	0
367	0	0
368	0	0
369	0	0
370	0	0
371	0	0
372	0	0
373	0	0
374	1	0
375	1	0
376	1	0
377	1	0
378	1	0
379	0	0
380	0	0
381	0	0
382	0	0
383	0	0
384	0	0
385	0	0
386	0	0
387	1	0
388	0	0
389	0	0
390	0	0
391	0	0
392	0	0
393	0	0
394	0	0
395	0	0
396	0	0
397	0	0
398	0	0
399	0	0
400	0	0
401	0	0
402	0	0
403	0	0
404	0	0
405	0	0
406	0	0
407	0	0
408	0	0
409	0	0
410	0	0
411	0	0
412	0	0
413	0	0
414	0	0
415	0	0
416	0	0
417	0	0
418	0	0
419	0	0
420	0	0
421	0	0
422	1	0
423	1	0
424	0	0
425	0	0
426	0	0
427	0	0
428	0	0
429	0	0
430	0	0
431	0	0
432	0	0
433	1	0
434	0	0
435	0	0
436	0	0
437	0	0
438	0	0
439	0	0
440	0	0
441	0	0
442	0	0
443	0	0
444	0	0
445	0	0
446	0	0
447	0	0
448	0	0
449	0	0
450	0	0
451	0	0
452	0	0
453	0	0
454	0	0
455	0	0
456	0	0
457	0	0
458	0	0
459	0	0
460	0	0
461	0	0
462	0	0
463	0	0
464	0	0
465	0	0
466	0	0
467	0	0
468	0	0
469	0	0
470	0	0
471	0	0
472	0	0
473	0	0
474	0	0
475	0	0
476	0	0
477	0	0
478	0	0
479	0	0
480	0	0
481	0	0
482	0	0
483	0	0
484	0	0
485	0	0
486	0	0
487	0	0
488	0	0
489	0	0
490	0	0
491	0	0
492	0	0
493	0	0
494	0	0
495	0	0
496	0	0
497	0	0
498	0	0
499	0	0
500	0	0
501	0	0
502	0	0
503	0	0
504	0	0
505	0	0
506	0	0
507	0	0
508	0	0
509	0	0
510	0	0
511	0	0
512	0	0
513	0	0
514	0	0
515	0	0
516	0	0
517	0	0
518	0	0
519	0	0
520	0	0
521	0	0
522	0	0
523	0	0
524	0	0
525	0	0
526	0	0
527	0	0
528	0	0
529	0	0
530	0	0
531	0	0
532	0	0
533	0	0
534	0	0
535	0	0
536	0	0
537	0	0
538	0	0
539	0	0
540	0	0
541	0	0
542	0	0
543	0	0
544	0	0
545	0	0
546	0	0
547	0	0
548	0	0
549	0	0
550	0	0
551	0	0
552	0	0
553	0	0
554	0	0
555	0	0
556	0	0
557	0	0
558	0	0
559	0	0
560	0	0
561	0	0
562	0	0
563	0	0
564	0	0
565	0	0
566	0	0
567	0	0
568	0	0
569	0	0
570	0	0
571	0	0
572	0	0
573	0	0
574	0	0
575	0	0
576	0	0
577	0	0
578	0	0
579	0	0
580	0	0
581	0	0
582	0	0
583	0	0
584	0	0
585	0	0
586	0	0
587	0	0
588	0	0
589	0	0
590	0	0
591	0	0
592	0	0
593	0	0
594	0	0
595	0	0
596	0	0
597	0	0
598	0	0
599	0	0
600	0	0
601	0	0
602	0	0
603	0	0
604	0	0
605	0	0
606	0	0
607	0	0
608	0	0
609	0	0
610	0	0
611	0	0
612	0	0
613	0	0
614	0	0
615	0	0
616	0	0
617	0	0
618	0	0
619	0	0
620	0	0
621	0	0
622	0	0
623	0	0
624	0	0
625	0	0
626	0	0
627	0	0
628	0	0
629	0	0
630	0	0
631	0	0
632	0	0
633	0	0
634	0	0
635	0	0
636	0	0
637	0	0
638	0	0
639	0	0
640	0	0
641	0	0
642	0	0
643	0	0
644	0	0
645	0	0
646	0	0
647	0	0
648	0	0
649	0	0
650	0	0
651	0	0
652	0	0
653	0	0
654	0	0
655	0	0
656	0	0
657	0	0
658	0	0
659	0	0
660	0	0
661	0	0
662	0	0
663	0	0
664	0	0
665	0	0
666	0	0
667	0	0
668	0	0
669	0	0
670	0	0
671	0	0
672	0	0
673	0	0
674	0	0
675	0	0
676	0	0
677	0	0
678	0	0
679	0	0
680	0	0
681	0	0
682	0	0
683	0	0
684	0	0
685	0	0
686	0	0
687	0	0
688	0	0
689	0	0
690	0	0
691	0	0
692	0	0
693	0	0
694	0	0
695	0	0
696	0	0
697	0	0
698	0	0
699	0	0
700	0	0
701	0	0
702	0	0
703	0	0
704	0	0
705	0	0
706	0	0
707	0	0
708	0	0
709	0	0
710	0	0
711	0	0
712	0	0
713	0	0
714	0	0
715	0	0
716	0	0
717	0	0
718	0	0
719	0	0
720	0	0
721	0	0
722	0	0
723	0	0
724	0	0
725	0	0
726	0	0
727	0	0
728	0	0
729	0	0
730	0	0
731	0	0
732	0	0
733	0	0
734	0	0
735	0	0
736	0	0
737	0	0
738	0	0
739	0	0
740	0	0
741	0	0
742	0	0
743	0	0
744	0	0
745	0	0
746	0	0
747	0	0
748	0	0
749	0	0
750	0	0
751	0	0
752	0	0
753	0	0
754	0	0
755	0	0
756	0	0
757	0	0
758	0	0
759	0	0
760	0	0
761	0	0
762	0	0
763	0	0
764	0	0
765	0	0
766	0	0
767	0	0
768	0	0
769	0	0
770	0	0
771	0	0
772	0	0
773	0	0
774	0	0
775	0	0
776	0	0
777	0	0
778	0	0
779	0	0
780	0	0
781	0	0
782	0	0
783	0	0
784	0	0
785	0	0
786	0	0
787	0	0
788	0	0
789	0	0
790	0	0
791	0	0
792	0	0
793	0	0
794	0	0
795	0	0
796	0	0
797	0	0
798	0	0
799	0	0
800	0	0
801	0	0
802	0	0
803	0	0
804	0	0
805	0	0
806	0	0
807	0	0
808	0	0
809	0	0
810	0	0
811	0	0
812	0	0
813	0	0
814	0	0
815	0	0
816	0	0
817	0	0
818	0	0
819	0	0
820	0	0
821	0	0
822	0	0
823	0	0
824	0	0
825	0	0
826	0	0
827	0	0
828	0	0
829	0	0
830	0	0
831	0	0
832	0	0
833	0	0
834	0	0
835	0	0
836	0	0
837	0	0
838	0	0
839	0	0
840	0	0
841	0	0
842	0	0
843	0	0
844	0	0
845	0	0
846	0	0
847	0	0
848	0	0
849	0	0
850	0	0
851	0	0
852	0	0
853	0	0
854	0	0
855	0	0
856	0	0
857	0	0
858	0	0
859	0	0
860	0	0
861	0	0
862	0	0
863	0	0
864	0	0
865	0	0
866	0	0
867	0	0
868	0	0
869	0	0
870	0	0
871	0	0
872	0	0
873	0	0
874	0	0
875	0	0
876	0	0
877	0	0
878	0	0
879	0	0
880	0	0
881	0	0
882	0	0
883	0	0
884	0	0
885	0	0
886	0	0
887	0	0
888	0	0
889	0	0
890	0	0
891	0	0
892	0	0
893	0	0
894	0	0
895	0	0
896	0	0
897	0	0
898	0	0
899	0	0
900	0	0
901	0	0
902	0	0
903	0	0
904	0	0
905	0	0
906	0	0
907	0	0
908	0	0
909	0	0
910	0	0
911	0	0
912	0	0
913	0	0
914	0	0
915	0	0
916	0	0
917	0	0
918	0	0
919	0	0
920	0	0
921	0	0
922	0	0
923	0	0
924	0	0
925	0	0
926	0	0
927	0	0
928	0	0
929	0	0
930	0	0
931	0	0
932	0	0
933	0	0
934	0	0
935	0	0
936	0	0
937	0	0
938	0	0
939	0	0
940	0	0
941	0	0
942	0	0
943	0	0
944	0	0
945	0	0
946	0	0
947	0	0
948	0	0
949	0	0
950	0	0
951	0	0
952	0	0
953	0	0
954	0	0
955	0	0
956	0	0
957	0	0
958	0	0
959	0	0
960	0	0
961	0	0
962	0	0
963	0	0
964	0	0
965	0	0
966	0	0
967	0	0
968	0	0
969	0	0
970	0	0
971	0	0
972	0	0
973	0	0
974	0	0
975	0	0
976	0	0
977	0	0
978	0	0
979	0	0
980	0	0
981	0	0.010989
982	0	0.010989
983	0	0.010989
984	0	0.010989
985	0	0.010989
986	0	0.010989
987	0	0.010989
988	0	0.010989
989	0	0.010989
990	0	0.010989
991	0	0.010989
992	0	0.010989
993	0	0.0457516
994	0	0.0457516
995	0	0.0457516
996	0	0.0457516
997	0	0.0457516
998	0	0.0457516
999	0	0.0457516
1000	0	0.0457516
1001	0	0.0457516
1002	0	0.0457516
1003	0	0.0457516
1004	0	0.0457516
1005	0	0.0457516
1006	0	0.0457516
1007	0	0.0457516
1008	0	0.0457516
1009	0	0.0457516
1010	0	0.0457516
1011	0	0.0457516
1012	0	0.0980392
1013	0	0.0980392
1014	0	0.0980392
1015	0	0.0980392
1016	0	0.0980392
1017	0	0.0980392
1018	0	0.0980392
1019	0	0.0980392
1020	0	0.0980392
1021	0	0.0980392
1022	0	0.0980392
1023	0	0.0980392
1024	0	0.0980392
1025	0	0.0980392
1026	0	0.0980392
1027	0	0.0980392
1028	0	0.0980392
1029	0	0.0980392
1030	0	0.0980392
1031	0	0.0980392
1032	0	0.0980392
1033	0	0.0980392
1034	0	0.0980392
1035	0	0.0980392
1036	0	0.0980392
1037	0	0.0980392
1038	0	0.0980392
1039	0	0.0980392
1040	0	0.0980392
1041	0	0.0980392
1042	0	0.0980392
1043	0	0.0980392
1044	0	0.0980392
1045	0	0.0980392
1046	0	0.0980392
1047	0	0.0980392
1048	0	0.0980392
1049	0	0.0980392
1050	0	0.0980392
1051	0	0.0980392
1052	0	0.0980392
1053	0	0.0980392
1054	0	0.0980392
1055	0	0.0980392
1056	0	0.0980392
1057	0	0.0980392
1058	0	0.0980392
1059	0	0.0980392
1060	0	0.0980392
1061	0	0.0980392
1062	0	0.0980392
1063	0	0.0980392
1064	0	0.0980392
1065	0	0.0980392
1066	0	0.0980392
1067	0	0.0980392
1068	0	0.0980392
1069	0	0.0980392
1070	0	0.0980392
1071	0	0.0980392
1072	0	0.0980392
1073	0	0.0980392
1074	0	0.0980392
1075	0	0.0980392
1076	0	0.0980392
1077	0	0.0980392
1078	0	0.0980392
1079	0	0.0980392
1080	0	0.0980392
1081	0	0.0980392
1082	0	0.0980392
1083	0	0.0980392
1084	0	0.0980392
1085	0	0.0980392
1086	0	0.0980392
1087	0	0.0980392
1088	0	0.0980392
1089	0	0.0980392
1090	0	0.0980392
1091	0	0.0980392
1092	0	0.0980392
1093	0	0.0980392
1094	0	0.0980392
1095	0	0.0980392
1096	0	0.0980392
1097	0	0.0980392
1098	0	0.0980392
1099	0	0.0980392
1100	0	0.0980392
1101	0	0.0980392
1102	0	0.0980392
1103	0	0.0980392
1104	0	0.0980392
1105	0	0.0980392
1106	0	0.0980392
1107	0	0.0980392
1108	0	0.0980392
1109	0	0.0980392
1110	0	0.0980392
1111	0	0.0980392
1112	0	0.0980392
1113	0	0.0980392
1114	0	0.0980392
1115	0	0.0980392
1116	0	0.137255
1117	0	0.137255
1118	0	0.137255
1119	0	0.137255
1120	0	0.137255
1121	0	0.137255
1122	0	0.137255
1123	0	0.137255
1124	0	0.0980392
1125	0	0.0980392
1126	0	0.0980392
1127	0	0.0980392
1128	0	0.0980392
1129	0	0.0980392
1130	0	0.0980392
1131	0	0.0980392
1132	0	0.0980392
1133	0	0.0980392
1134	0	0.0980392
1135	0	0.0980392
1136	0	0.0457516
1137	0	0.010989
1138	0	0.0980392
1139	0	0.0980392
1140	0	0.0980392
1141	0	0.0980392
1142	0	0.0980392
1143	0	0.0980392
1144	0	0.104575
1145	0	0.104575
1146	0	0.104575
1147	0	0.104575
1148	0	0.104575
1149	0	0.104575
1150	0	0.104575
1151	0	0.104575
1152	0	0.104575
1153	0	0.104575
1154	0	0.104575
1155	0	0.104575
1156	0	0.104575
1157	0	0.104575
1158	0	0.104575
1159	0	0.104575
1160	0	0.104575
1161	0	0.104575
1162	0	0.104575
1163	0	0.104575
1164	0	0.104575
1165	0	0.104575
1166	0	0.104575
1167	0	0.104575
1168	0	0.104575
1169	0	0.104575
1170	0	0.104575
1171	0	0.104575
1172	0	0.104575
1173	0	0.111111
1174	0	0.111111
1175	0	0.111111
1176	0	0.117647
1177	0	0.105263
1178	0	0.105263
1179	0	0.105263
1180	0	0.105263
1181	0	0.105263
1182	0	0.105263
1183	0	0.105263
1184	0	0.105263
1185	0	0.105263
1186	0	0.105263
1187	0	0.105263
1188	0	0.105263
1189	0	0.105263
1190	0	0.105263
1191	0	0.105263
1192	0	0.105263
1193	0	0.105263
1194	0	0.105263
1195	0	0.105263
1196	0	0.0935673
1197	0	0.0935673
1198	0	0.0935673
1199	0	0.0935673
1200	0	0.0935673
1201	0	0.0935673
1202	0	0.0935673
1203	0	0.0935673
1204	0	0.0935673
1205	0	0.0935673
1206	0	0.0935673
1207	0	0.0935673
1208	0	0.0935673
1209	0	0.0935673
1210	0	0.0935673
1211	0	0.0935673
1212	0	0.0935673
1213	0	0.0935673
1214	0	0.0935673
1215	0	0.0935673
1216	0	0.0935673
1217	0	0.0935673
1218	0	0.0935673
1219	0	0.0935673
1220	0	0.0935673
1221	0	0.0935673
1222	0	0.0935673
1223	0	0.0935673
1224	0	0.0935673
1225	0	0.0935673
1226	0	0.0935673
1227	0	0.0935673
1228	0	0.0935673
1229	0	0.0935673
1230	0	0.0935673
1231	0	0.0935673
1232	0	0.0935673
1233	0	0.128655
1234	0	0.128655
1235	0	0.128655
1236	0	0.128655
1237	0	0.128655
1238	0	0.128655
1239	0	0.128655
1240	0	0.128655
1241	0	0.0935673
1242	0	0.0935673
1243	0	0.0935673
1244	0	0.0935673
1245	0	0.0935673
1246	0	0.0935673
1247	0	0.0935673
1248	0	0.0935673
1249	0	0.0935673
1250	0	0.0935673
1251	0	0.0935673
1252	0	0.0935673
1253	0	0.0935673
1254	0	0.0935673
1255	0	0.0935673
1256	0	0.0935673
1257	0	0.0935673
1258	0	0.0935673
1259	0	0.0935673
1260	0	0.0935673
1261	0	0.0935673
1262	0	0.0935673
1263	0	0.0935673
1264	0	0.0935673
1265	0	0.0935673
1266	0	0.0935673
1267	0	0.0935673
1268	0	0.0935673
1269	0	0.0935673
1270	0	0.0935673
1271	0	0.0935673
1272	0	0.0935673
1273	0	0.0935673
1274	0	0.0935673
1275	0	0.0935673
1276	0	0.0935673
1277	0	0.0842105
1278	0	0.0842105
1279	0	0.0842105
1280	0	0.0842105
1281	0	0.0842105
1282	0	0.0842105
1283	0	0.0842105
1284	0	0.0842105
1285	0	0.0842105
1286	0	0.0842105
1287	0	0.0789474
1288	0	0.0789474
1289	0	0.0789474
1290	0	0.0789474
1291	0	0.0714286
1292	0	0.0714286
1293	0	0.0714286
1294	0	0.0714286
1295	0	0.0714286
1296	0	0.0649351
1297	0	0.0649351
1298	0	0.0649351
1299	0	0.0649351
1300	0	0.0649351
1301	0	0.0649351
1302	0	0.0649351
1303	0	0.0649351
1304	0	0.0649351
1305	0	0.0649351
1306	0	0.0649351
1307	0	0.0649351
1308	0	0.0649351
1309	0	0.0649351
1310	0	0.0649351
1311	0	0.0649351
1312	0	0.0649351
1313	0	0.0649351
1314	0	0.0649351
1315	0	0.0649351
1316	0	0.0649351
1317	0	0.0649351
1318	0	0.0692641
1319	0	0.0692641
1320	0	0.0692641
1321	0	0.0692641
1322	0	0.0692641
1323	0	0.0692641
1324	0	0.0649351
1325	0	0.0649351
1326	0	0.0649351
1327	0	0.0649351
1328	0	0.0649351
1329	0	0.0649351
1330	0	0.0649351
1331	0	0.0649351
1332	0	0.0649351
1333	0	0.0649351
1334	0	0.0649351
1335	0	0.0649351
1336	0	0.0649351
1337	0	0.0649351
1338	0	0.0649351
1339	0	0.0649351
1340	0	0.0649351
1341	0	0.0649351
1342	0	0.0649351
1343	0	0.0649351
1344	0	0.0649351
1345	0	0.0649351
1346	0	0.0692641
1347	0	0.0692641
1348	0	0.0692641
1349	0	0.0632411
1350	0	0.0632411
1351	0	0.0632411
1352	0	0.0632411
1353	0	0.0632411
1354	0	0.0632411
1355	0	0.0632411
1356	0	0.0592885
1357	0	0.0592885
1358	0	0.0592885
1359	0	0.0592885
1360	0	0.0592885
1361	0	0.0592885
1362	0	0.0592885
1363	0	0.0592885
1364	0	0.0592885
1365	0	0.0592885
1366	0	0.0592885
1367	0	0.0592885
1368	0	0.0592885
1369	0	0.0592885
1370	0	0.0592885
1371	0	0.0592885
1372	0	0.0592885
1373	0	0.0592885
1374	0	0.0592885
1375	0	0.0592885
1376	0	0.0592885
1377	0	0.0592885
1378	0	0.0592885
1379	0	0.0592885
1380	0	0.0592885
1381	0	0.0592885
1382	0	0.0592885
1383	0	0.0592885
1384	0	0.0543478
1385	0	0.0543478
1386	0	0.0543478
1387	0	0.0543478
1388	0	0.0543478
1389	0	0.0543478
1390	0	0.0543478
1391	0	0.0543478
1392	0	0.0543478
1393	0	0.057971
1394	0	0.057971
1395	0	0.057971
1396	0	0.057971
1397	0	0.057971
1398	0	0.057971
1399	0	0.057971
1400	0	0.057971
1401	0	0.057971
1402	0	0.057971
1403	0	0.057971
1404	0	0.057971
1405	0	0.0543478
1406	0	0.0543478
1407	0	0.0543478
1408	0	0.0543478
1409	0	0.0543478
1410	0	0.0543478
1411	0	0.0543478
1412	0	0.0543478
1413	0	0.0543478
1414	0	0.0543478
1415	0	0.0543478
1416	0	0.0543478
1417	0	0.0543478
1418	0	0.0543478
1419	0	0.0543478
1420	0	0.0543478
1421	0	0.0543478
1422	0	0.0543478
1423	0	0.0543478
1424	0	0.0543478
1425	0	0.0543478
1426	0	0.0543478
1427	0	0.05
1428	0	0.0533333
1429	0	0.0533333
1430	0	0.0533333
1431	0	0.0492308
1432	0	0.0492308
1433	0	0.0492308
1434	0	0.0492308
1435	0	0.0461538
1436	0	0.0461538
1437	0	0.042735
1438	0	0.042735
1439	0	0.042735
1440	0	0.042735
1441	0	0.042735
1442	0	0.042735
1443	0	0.042735
1444	0	0.045584
1445	0	0.045584
1446	0	0.045584
1447	0	0.048433
1448	0	0.048433
1449	0	0.0512821
1450	0	0.0512821
1451	0	0.0512821
1452	0	0.0512821
1453	0	0.0512821
1454	0	0.048433
1455	0	0.045584
1456	0	0.045584
1457	0	0.042735
1458	0	0.042735
1459	0	0.042735
1460	0	0.042735
1461	0	0.042735
1462	0	0.042735
1463	0	0.045584
1464	0	0.045584
1465	0	0.045584
1466	0	0.0582011
1467	0	0.0608466
1468	0	0.0608466
1469	0	0.0608466
1470	0	0.0608466
1471	0	0.0608466
1472	0	0.0528736
1473	0	0.0551724
1474	0	0.0551724
1475	0	0.0551724
1476	0	0.0551724
1477	0	0.0551724
1478	0	0.0551724
1479	0	0.0551724
1480	0	0.0551724
1481	0	0.201016
1482	0	0.192872
1483	0	0.192872
1484	0	0.173559
1485	0	0.161894
1486	0	0.162478
1487	0	0.158192
1488	0	0.157627
1489	0	0.158192
1490	0	0.154802
1491	0	0.158757
1492	0	0.172881
1493	0	0.170492
1494	0	0.158234
1495	0	0.180769
1496	0	0.180769
1497	0	0.181352
1498	0	0.191608
1499	0	0.179557
1500	0	0.183933
1501	0	0.186128
1502	0	0.197586
1503	0	0.383191
1504	0	0.411579
1505	0	0.420511
1506	0	0.441971
1507	0	0.284394
1508	0	0.376733
1509	0	0.412692
1510	0	0.647247
1511	0	0.774477
1512	0	0.783142
1513	0	0.548079
1514	0	0.567898
1515	0	0.556241
1516	0	0.454916
1517	0	0.448865
1518	0	0.451356
1519	0	0.449583
1520	0	0.690969
1521	0	0
1522	0	0
1523	0	0
1524	0	0
1525	0	0
1526	0	0
1527	0	0
1528	0	0
1529	0	0
1530	0	0
1531	0	0
1532	0	0
1533	0	0
1534	0	0
1535	0	0
1536	0	0
1537	0	0
1538	0	0
1539	0	0
1540	0	0
1541	0	0
1542	0	0
1543	0	0
1544	0	0
1545	0	0
1546	0	0
1547	0	0
1548	0	0
1549	0	0
1550	0	0
1551	0	0
1552	0	0
1553	0	0
1554	0	0
1555	0	0
1556	0	0
1557	0	0
1558	0	0
1559	0	0
1560	0	0
1561	0	0
1562	0	0
1563	0	0
1564	0	0
1565	0	0
1566	0	0
1567	0	0
1568	0	0
1569	0	0
1570	0	0
1571	0	0
1572	0	0
1573	0	0
1574	0	0
1575	0	0
1576	0	0
1577	0	0
1578	0	0
1579	0	0
1580	0	0
1581	0	0
1582	0	0
1583	0	0
1584	0	0
1585	0	0
1586	0	0
1587	0	0
1588	0	0
1589	0	0
1590	0	0
1591	0	0
1592	0	0
1593	0	0
1594	0	0
1595	0	0
1596	0	0
1597	0	0
1598	0	0
1599	0	0
1600	0	0
1601	0	0
1602	0	0
1603	0	0
1604	0	0
1605	0	0
1606	0	0
1607	0	0
1608	0	0
1609	0	0
1610	0	0
1611	0	0
1612	0	0
1613	0	0
1614	0	0
1615	0	0
1616	0	0
1617	0	0
1618	0	0
1619	0	0
1620	0	0
1621	0	0
1622	0	0
1623	0	0
1624	0	0
1625	0	0
1626	0	0.968407
1627	0	0.968407
1628	0	0
1629	0	0
1630	0	0
1631	0	0
1632	0	0
1633	0	0
1634	0	0
1635	0	0
1636	0	0
1637	0	0
1638	0	0
1639	0	0
1640	0	0
1641	0	0
1642	0	0
1643	0	0
1644	0	0
1645	0	0
1646	0	0
1647	0	0
1648	0	0
1649	0	0
1650	0	0
1651	0	0
1652	0	0
1653	0	0
1654	0	0
1655	0	0
1656	0	0
1657	0	0
1658	0	0
1659	0	0
1660	0	0
1661	0	0
1662	0	0
1663	0	0
1664	0	0
1665	0	0
1666	0	0
1667	0	0
1668	0	0
1669	0	0
1670	0	0
1671	0	0
1672	0	0
1673	0	0
1674	0	0
1675	0	0
1676	0	0
1677	0	0
1678	0	0
1679	0	0
1680	0	0
1681	0	0
1682	0	0
1683	0	0
1684	0	0
1685	0	0
1686	0	0
1687	0	0
1688	0	0
1689	0	0
1690	0	0
1691	0	0
1692	0	0
1693	0	0
1694	0	0
1695	0	0
1696	0	0
1697	0	0
1698	0	0
1699	0	0
1700	0	0
1701	0	0
1702	0	0
1703	0	0
1704	0	0
1705	0	0
1706	0	0
1707	0	0
1708	0	0
1709	0	0
1710	0	0
1711	0	0
1712	0	0
1713	0	0
1714	0	0
1715	0	0
1716	0	0
1717	0	0
1718	0	0
1719	0	0
1720	0	0
1721	0	0
1722	0	0
1723	0	0
1724	0	0
1725	0	0
1726	0	0
1727	0	0
1728	0	0
1729	0	0
1730	0	0
1731	0	0
1732	0	0
1733	0	0
1734	0	0
1735	0	0
1736	0	0
1737	0	0
1738	0	0
1739	0	0
1740	0	0
1741	0	0
1742	0	0
1743	0	0
1744	0	0
1745	0	0
1746	0	0
1747	0	0
1748	0	0
1749	0	0
1750	0	0
1751	0	0
1752	0	0
1753	0	0
1754	0	0
1755	0	0
1756	0	0
1757	0	0
1758	0	0
1759	0	0
1760	0	0
1761	0	0
1762	0	0
1763	0	0
1764	0	0
1765	0	0
1766	0	0
1767	0	0
1768	0	0
1769	0	0
1770	0	0
1771	0	0
1772	0	0
1773	0	0
1774	0	0
1775	0	0
1776	0	0
1777	0	0
1778	0	0
1779	0	0
1780	0	0
1781	0	0
1782	0	0
1783	0	0
1784	0	0
1785	0	0
1786	0	0
1787	0	0
1788	0	0
1789	0	0
1790	0	0
1791	0	0
1792	0	0
1793	0	0
1794	0	0
1795	0	0
1796	0	0
1797	0	0
1798	0	0
1799	0	0
1800	0	0
1801	0	0
1802	0	0
1803	0	0
1804	0	0
1805	0	0
1806	0	0
1807	0	0
1808	0	0
1809	0	0
1810	0	0
1811	0	0
1812	0	0
1813	0	0
1814	0	0
1815	0	0
1816	0	0
1817	0	0
1818	0	0
1819	0	0
1820	0	0
1821	0	0
1822	0	0
1823	0	0
1824	0	0
1825	0	0
1826	0	0
1827	0	0
1828	0	0
1829	0	0
1830	0	0
1831	0	0
1832	0	0
1833	0	0
1834	0	0
1835	0	0
1836	0	0
1837	0	0
1838	0	0
1839	0	0
1840	0	0
1841	0	0
1842	0	0
1843	0	0
1844	0	0
1845	0	0
1846	0	0
1847	0	0
1848	0	0
1849	0	0
1850	0	0
1851	0	0
1852	0	0
1853	0	0
1854	0	0
1855	0	0
1856	0	0
1857	0	0
1858	0	0
1859	0	0
1860	0	0
1861	0	0
1862	0	0
1863	0	0
1864	0	0
1865	0	0
1866	0	0
1867	0	0
1868	0	0
1869	0	0
1870	0	0
1871	0	0
1872	0	0
1873	0	0
1874	0	0
1875	0	0
1876	0	0
1877	0	0
1878	0	0
1879	0	0.984016
1880	0	0
1881	0	0
1882	0	0
1883	0	0
1884	0	0
1885	0	0
1886	0	0
1887	0	0
1888	0	0
1889	0	0
1890	0	0
1891	0	0
1892	0	0
1893	0	0
1894	0	0
1895	0	0
1896	0	0
1897	0	0
1898	0	0
1899	0	0
1900	0	0
1901	0	0
1902	0	0
1903	0	0
1904	0	0
1905	0	0
1906	0	0
1907	0	0
1908	0	0
1909	0	0
1910	0	0
1911	0	0
1912	0	0
1913	0	0
1914	0	0
1915	0	0
1916	0	0.957732
1917	0	0.957694
1918	0	0.992731
1919	0	0.990917
1920	0	0.951619
1921	0	0
1922	0	0
1923	0	0
1924	0	0
1925	0	0
1926	0	0
1927	0	0
1928	0	0.792307
1929	0	0.598945
1930	0	0.599915
1931	0	0.994648
1932	0	0.994648
1933	0	0.99643
1934	0	0.99643
1935	0	0.994648
1936	0	0.994643
1937	0	0.992867
1938	0	0.992867
1939	0	0.992867
1940	0	0.994648
1941	0	0.994648
1942	0	0
1943	0	0
1944	0	0
1945	0	0
1946	0	0
1947	0	0.994681
1948	0	0.994681
1949	0	0.994681
1950	0	0.994681
1951	0	0.994681
1952	0	0.994681
1953	0	0.994681
1954	0	0
1955	0	0
1956	0	0
1957	0	0
1958	0	0.996449
1959	0	0.996449
1960	0	0.996449
1961	0	0.996449
1962	0	0.996449
1963	0	0.996449
1964	0	0
1965	0	0.996452
1966	0	0.996452
1967	0	0.996452
1968	0	0.998224
1969	0	0.998224
1970	0	0.998224
1971	0	0.998224
1972	0	0
1973	0	0
1974	0	0
1975	0	0
1976	0	0
1977	0	0
1978	0	1
1979	0	0.994695
1980	0	0.994695
1981	0	0.982378
1982	0	1
1983	0	1
1984	0	1
1985	1	1
1986	1	1
1987	1	1
1988	1	1
1989	1	1
1990	1	1
1991	1	1
1992	1	1
1993	1	1
1994	1	1
1995	0	1
1996	1	1
1997	1	1
1998	1	1
1999	1	1
2000	1	1
2001	1	1
2002	1	1
2003	1	1
2004	1	1
2005	1	1
2006	0	0.333333
2007	0	0.333333
2008	0	0.333333
2009	0	0.333333
2010	1	1
2011	1	1
2012	1	1
2013	1	1
2014	1	1
2015	1	1
2016	1	1
2017	1	1
2018	1	1
2019	1	1
2020	1	1
2021	0	1
2022	0	0.998219
2023	0	0.998219
2024	0	0.998221
2025	0	0.998221
2026	0	0
2027	0	0
2028	0	0
2029	0	0
2030	0	0
2031	0	0
2032	0	0
2033	0	0
2034	0	0
2035	0	0
2036	0	0
2037	0	0
2038	0	0
2039	0	0
2040	0	0.998183
2041	0	0.971332
2042	0	0.971332
2043	0	0.969514
2044	0	0
2045	0	0
2046	0	0
2047	0	0
2048	0	0
2049	0	0
2050	0	0
2051	1	0
2052	1	0
2053	1	0
2054	1	0
2055	1	0
2056	1	0
2057	1	0
2058	1	0
2059	1	0
2060	1	0
2061	1	0
2062	1	0
2063	1	0
2064	1	0
2065	1	0
2066	1	0
2067	1	0
2068	1	0
2069	1	0
2070	1	0
2071	1	0
2072	1	0
2073	1	0
2074	1	0
2075	1	0
2076	1	0
2077	1	0
2078	1	0
2079	1	0
2080	1	0
2081	1	0
2082	0	0
2083	0	0
2084	0	0
2085	0	0
2086	0	0
2087	0	0
2088	0	0.166667
2089	0	0.962385
2090	0	0.266667
2091	0	0.4
2092	0	1
2093	0	0.9947
2094	0	0.996465
2095	0	0.996462
2096	0	0.996462
2097	0	0.996465
2098	0	0.996462
2099	0	1
2100	0	1
2101	0	1
2102	0	1
2103	0	0.333333
2104	0	0.333333
2105	0	0.989341
2106	0	0.977149
2107	0	0.977148
2108	0	0.4
2109	0	0.2
2110	0	0.975336
2111	0	0.975336
2112	0	0.671581
2113	0	0.890102
2114	0	0.671182
2115	0	0.671195
2116	0	0.937558
2117	0	0.937558
2118	0	0.937558
2119	0	0.937558
2120	0	0.998229
2121	0	0.998229
2122	0	0.998229
2123	0	0.998229
2124	0	0.998229
2125	0	0.998229
2126	0	0.99823
2127	0	0.99823
2128	1	0
2129	1	0
2130	0	0.99823
2131	0	0.998232
2132	0	0.998232
2133	0	0.998232
2134	0	0.996468
2135	0	0.998232
2136	0	0.998232
2137	0	0.998233
2138	0	0.998233
2139	0	0.998233
2140	0	0.998233
2141	0	1
2142	0	1
2143	0	1
2144	0	0.996471
2145	0	1
2146	0	1
2147	0	1
2148	0	1
2149	0	1
2150	0	0.5
2151	0	0.5
2152	0	0.166667
2153	0	0.1
2154	0	0.0666667
2155	0	0.2
2156	0	0.2
2157	0	0.2
2158	1	0
2159	1	0
2160	1	0
2161	1	0
2162	0	0
2163	0	0
2164	0	0
2165	0	0
2166	0	0
2167	0	0
2168	0	0.666667
2169	0	0.666667
2170	0	0.666667
2171	0	0.666667
2172	0	1
2173	0	0.817265
2174	0	0
2175	0	0
2176	0	0
2177	0	0
2178	0	0
2179	0	0
2180	0	0
2181	0	0
2182	0	0
2183	0	0
2184	0	0
2185	0	0
2186	0	0
2187	0	0
2188	0	0
2189	0	0
2190	0	0
2191	0	0
2192	0	0
2193	0	0
2194	0	0.998233
2195	1	1
2196	1	1
2197	1	1
2198	1	1
2199	1	1
2200	1	1
2201	0	1
2202	0	1
2203	0	1
2204	0	1
2205	0	1
2206	0	1
2207	0	1
2208	1	1
2209	0	1
2210	1	1
2211	1	1
2212	1	1
2213	1	1
2214	1	1
2215	1	1
2216	1	1
2217	1	1
2218	0	1
2219	0	1
2220	0	1
2221	0	1
2222	0	1
2223	0	1
2224	0	1
2225	0	1
2226	0	0.998233
2227	0	1
2228	0	0.998233
2229	0	0.998232
2230	0	0.998232
2231	0	0.998232
2232	0	0.998232
2233	0	1
2234	0	1
2235	0	1
2236	0	1
2237	0	0.624625
2238	0	0.61342
2239	0	0.609736
2240	0	0.528588
2241	0	0.413488
2242	0	0.407516
2243	0	0.517211
2244	0	0.447994
2245	0	0.527004
2246	0	0.527027
2247	0	0.524512
2248	0	0.492398
2249	0	0.519643
2250	0	0.451541
2251	0	0.601329
2252	0	0.600331
2253	0	0.600331
2254	0	0.597204
2255	0	0.588229
2256	0	0.588229
2257	0	0.589586
2258	0	0.576711
2259	0	0.582705
2260	0	0.582361
2261	0	0.578431
2262	0	0.576864
2263	0	0.577128
2264	0	0.557742
2265	0	0.55738
2266	0	0.552524
2267	0	0.47905
2268	0	0.476071
2269	0	0.454297
2270	0	0.434142
2271	0	0.407943
2272	0	0.387691
2273	0	0.371599
2274	0	0.311597
2275	0	0.293993
2276	0	0.23085
2277	0	0.216711
2278	0	0
2279	0	0
2280	0	0
2281	0	0
2282	0	0
2283	0	0
2284	0	0
2285	0	0
2286	0	0
2287	0	0
2288	0	0
2289	0	0
2290	0	0
2291	0	0
2292	0	0
2293	0	0
2294	0	0
2295	0	0
2296	0	0
2297	0	0
2298	0	0
2299	0	0
2300	0	0
2301	0	0
2302	0	0
2303	0	0
2304	0	0
2305	0	0
2306	0	0
2307	0	0
2308	0	0
2309	0	0
2310	0	0
2311	0	0
2312	0	0
2313	0	0
2314	0	0
2315	0	0
2316	0	0
2317	0	0
2318	0	0
2319	0	0
2320	0	0
2321	0	0
2322	0	0
2323	0	0
2324	0	0
2325	0	0
2326	0	0
2327	0	0
2328	0	0
2329	0	0
2330	0	0
2331	0	0
2332	0	0
2333	0	0
2334	0	0
2335	0	0
2336	0	0
2337	0	0
2338	0	0
2339	0	0
2340	0	0
2341	0	0.1
2342	0	0.133333
2343	0	0.2
2344	0	0.133333
2345	0	0.111111
2346	0	0.111111
2347	0	0.111111
2348	0	0.111111
2349	0	0.0909091
2350	0	0.0769231
2351	0	0.0769231
2352	0	0.0769231
2353	0	0.0571429
2354	0	0.0583333
2355	0	0.0514706
2356	0	0.0409357
2357	0	0.0368421
2358	0	0.0428571
2359	0	0.0428571
2360	0	0.034632
2361	0	0.0316206
2362	0	0.062069
2363	0	0.0685484
2364	0	0.0725806
2365	0	0.0887097
2366	0	0.092803
2367	0	0.0739687
2368	0	0.0809717
2369	0	0.0730897
2370	0	0.0708245
2371	0	0.0708749
2372	0	0.0637681
2373	0	0.0628019
2374	0	0.0501961
2375	0	0.0463277
2376	0	0.0447552
2377	0	0.0750213
2378	0	0.0768645
2379	0	0.0963973
2380	0	0.0774032
2381	0	0.0627723
2382	0	0.0685157
2383	0	0.0852405
2384	0	0.0676329
2385	0	0.0812253
2386	0	0.12407
2387	0	0.196145
2388	0	0.277884
2389	0	0.300824
2390	0	0.31953
2391	0	0.416278
2392	0	0.425185
2393	0	0.49038
2394	0	0.498076
2395	0	0.51324
2396	0	0.532208
2397	0	0.532401
2398	0	0.487894
2399	0	0.485327
2400	0	0.487727
2401	0	0.494927
2402	0	0.494927
2403	0	0.494927
2404	0	0.495586
2405	0	0.531543
2406	0	0.509724
2407	0	0.391493
2408	0	0.391493
2409	0	0.391493
2410	0	0.490349
2411	0	0.493584
2412	0	0.491731
2413	0	0.491802
2414	0	0.486123
2415	0	0.486123
2416	0	0.30829
2417	0	0.311527
2418	0	0.298098
2419	0	0.567977
2420	0	0.575726
2421	0	0.575726
2422	0	0.578772
2423	0	0.578772
2424	0	0.578772
2425	0	0.576259
2426	0	0.575952
2427	0	0.575952
2428	0	0.575379
2429	0	0.573746
2430	0	0.552768
2431	0	0.549367
2432	0	0.548663
2433	0	0.517437
2434	0	0.407213
2435	0	0.26208
2436	0	0.323454
2437	0	0.373533
2438	0	0.573479
2439	0	0.599778
2440	0	0.662404
2441	0	0.186813
2442	0	0.212121
2443	0	0.254545
2444	0	0.254545
2445	0	0.392857
2446	0	0.666667
2447	0	0.666667
2448	0	0.666667
2449	0	0.666667
2450	0	0.666667
2451	0	0.666667
2452	1	1
2453	1	1
2454	1	1
2455	0	0.6
2456	0	0.666667
2457	0	0.666667
2458	0	0.666667
2459	0	0.666667
2460	0	0.666667
2461	0	0.666667
2462	0	0.666667
2463	0	0.666667
2464	0	0.666667
2465	0	0.666667
2466	0	0.666667
2467	0	0.666667
2468	0	0.4
2469	0	0.4
2470	0	0.4
2471	0	0.4
2472	0	0.4
2473	0	0.2
2474	0	0
2475	0	0
2476	0	0
2477	0	0
2478	0	0
2479	0	0
2480	0	0
2481	0	0
2482	0	0
2483	0	0
2484	0	0
2485	0	0
2486	0	0
2487	0	0
2488	0	0
2489	0	0.277778
2490	0	0.603261
2491	0	0.910037
2492	0	0.904943
2493	0	0.903059
2494	0	0.953604
2495	0	0.555071
2496	0	0.755622
2497	0	0.454706
2498	0	0.317856
2499	0	0.312192
2500	0	0.303552
2501	0	0.334528
2502	0	0.254953
2503	0	0.248831
2504	0	0.50031
2505	0	0.638095
2506	0	0.628571
2507	0	0.628571
2508	0	0.402174
2509	0	0.29932
2510	0	0.182278
2511	0	0.950926
2512	0	0.817376
2513	0	0.818417
2514	0	0.857099
2515	0	1
2516	0	1
2517	0	1
2518	0	1
2519	0	0.991182
2520	0	0.992942
2521	0	0.992942
2522	0	0.992942
2523	0	0.992942
2524	0	0.992942
2525	0	0.992942
2526	0	0.992942
2527	0	0.992942
2528	0	0.992942
2529	0	0.992936
2530	0	0.992936
2531	0	0.9947
2532	0	0.9947
2533	0	0.9947
2534	0	0
2535	0	0.644047
2536	0	1
2537	0	0.658
2538	0	0.992942
2539	0	0.992936
2540	0	0.992936
2541	0	0.991182
2542	0	0.992942
2543	0	0.992942
2544	0	0
2545	0	0
2546	0	0
2547	0	0
2548	0	0
2549	0	0
2550	0	0
2551	0	0
2552	0	0
2553	0	0
2554	0	0
2555	0	0
2556	0	0
2557	0	0
2558	0	0
2559	0	0
2560	0	0
2561	0	0
2562	0	0
2563	0	0
2564	0	0
2565	0	0
2566	0	0
2567	0	0
2568	0	0
2569	0	0
2570	0	0
2571	0	0
2572	1	0
2573	1	0
2574	1	0
2575	1	0
2576	0	0
2577	0	0
2578	0	0
2579	0	0
2580	0	0
2581	0	0
2582	0	0
2583	0	0
2584	0	0
2585	0	0
2586	0	0
2587	0	0
2588	0	0
2589	0	0
2590	0	0
2591	0	0
2592	0	0
2593	0	0
2594	0	0
2595	0	0
2596	0	0
2597	0	0
2598	0	0
2599	0	0
2600	0	0
2601	0	0
2602	1	0
2603	1	0
2604	1	0
2605	0	0
2606	0	0
2607	0	0
2608	0	0
2609	0	0
2610	0	0
2611	0	0
2612	0	0
2613	0	0
2614	0	0
2615	0	0
2616	0	0
2617	0	0
2618	0	0
2619	0	0
2620	0	0.996468
2621	0	0.996468
2622	0	0.996468
2623	0	0.996468
2624	0	0.996468
2625	0	0.996468
2626	0	0.994704
2627	0	0
2628	0	0.333333
2629	0	1
2630	0	0.919014
2631	0	0.931265
2632	0	0.934538
2633	1	0
2634	0	0
2635	0	0
2636	0	0
2637	0	0
2638	0	1
2639	0	0.987637
2640	0	0.166667
2641	0	0.333333
2642	0	0.996465
2643	0	0.99823
2644	0	0.99823
2645	0	0.99823
2646	0	0.99823
2647	0	0.998229
2648	0	0.998229
2649	0	0.998229
2650	0	1
2651	0	1
2652	0	0.992887
2653	0	0.5
2654	0	0.97363
2655	0	0.219048
2656	0	0.971214
2657	0	1
2658	0	1
2659	0	0.464286
2660	0	0.464286
2661	0	0.464286
2662	0	0.464286
2663	0	0.464286
2664	0	0.333333
2665	0	0.266667
2666	0	0.937816
2667	0	0
2668	0	0
2669	0	0
2670	0	0
2671	0	0
2672	0	0.622222
2673	0	0.622222
2674	0	0.622222
2675	0	0.75
2676	0	0.333333
2677	0	0.333333
2678	0	0
2679	0	0
2680	0	0.285714
2681	0	0.285714
2682	0	0
2683	0	0
2684	0	0.655874
2685	0	1
2686	0	1
2687	0	1
2688	0	1
2689	0	1
2690	0	1
2691	0	1
2692	0	0.333333
2693	0	0.333333
2694	0	0.2
2695	0	0.2
2696	0	0.266667
2697	0	0.617508
2698	0	0.632143
2699	0	0.46164
2700	0	0.407517
2701	0	0.377802
2702	0	0.319909
2703	0	0.297869
2704	0	0.192912
2705	0	0.215947
2706	0	0.247912
2707	0	0.347696
2708	0	0.642955
2709	0	0.666285
2710	0	0.271195
2711	0	0.128192
2712	0	0.116129
2713	0	0.119536
2714	0	0.171242
2715	0	0.211484
2716	0	0.233766
2717	0	0.258503
2718	0	0.25641
2719	0	0.333333
2720	0	0.533333
2721	0	0.736264
2722	0	0.736264
2723	0	0.857143
2724	0	1
2725	0	1
2726	0	0.942705
2727	0	0.942705
2728	0	0
2729	0	0
2730	0	0.732804
2731	0	0.166667
2732	0	0
2733	0	0
2734	0	0
2735	0	0
2736	0	0
2737	0	1
2738	0	1
2739	0	0.996459
2740	0	0.996459
2741	0	0.996459
2742	0	0.996459
2743	0	0.994695
2744	0	0.994695
2745	0	0
2746	0	0
2747	0	0
2748	0	0
2749	0	0.99293
2750	0	0.99293
2751	0	0.99293
2752	0	0
2753	0	0
2754	0	0
2755	0	0
2756	0	0
2757	0	0
2758	0	0
2759	0	0
2760	0	0
2761	0	0
2762	0	0
2763	0	0
2764	0	0
2765	1	0
2766	1	0
2767	1	0
2768	1	0
2769	1	0
2770	1	0
2771	1	0
2772	1	0
2773	1	0
2774	1	0
2775	1	0
2776	0	0.991166
2777	0	0
2778	0	0
2779	0	0
2780	0	0
2781	0	0
2782	0	0
2783	0	0
2784	0	0
2785	0	0.576923
2786	0	0.818182
2787	0	0.818182
2788	0	0.681818
2789	0	0.534413
2790	0	0.792155
2791	0	0.778889
2792	0	0.741358
2793	0	0.731797
2794	0	0.527459
2795	0	0
2796	0	0
2797	0	0
2798	0	0
2799	0	0
2800	0	0
2801	0	0.357143
2802	0	0.277778
2803	0	0.242424
2804	0	0.205128
2805	0	0.220588
2806	0	0.202614
2807	0	0.142857
2808	0	0.115942
2809	0	0.0953846
2810	0	0.191288
2811	0	0.38425
2812	0	0.313867
2813	0	0.519754
2814	0	0.452997
2815	0	0.536232
2816	0	0.536232
2817	0	0.559367
2818	0	0.60729
2819	0	0.831347
2820	0	0.70697
2821	0	0.0666667
2822	0	0
2823	0	0
2824	0	0
2825	0	0.166667
2826	0	0.214286
2827	0	0.3
2828	0	0.190476
2829	0	0.166667
2830	0	0.166667
2831	0	0.166667
2832	0	0.166667
2833	0	0.166667
2834	0	0.166667
2835	0	0
2836	0	0.166667
2837	0	0
2838	0	0.47619
2839	0	0.47619
2840	0	0.47619
2841	0	0.47619
2842	0	0.47619
2843	0	0.964754
2844	0	0.166667
2845	0	0.3
2846	0	0.2
2847	0	0.6
2848	0	1
2849	0	1
2850	0	1
2851	0	1
2852	0	1
2853	0	0.992936
2854	0	0.992936
2855	0	0.992936
2856	0	0.992942
2857	0	0.992936
2858	0	0.994695
2859	0	0.994695
2860	0	0.994695
2861	0	0.992936
2862	0	0.992936
2863	0	0.992936
2864	0	0.994695
2865	0	0.994695
2866	0	0.985888
2867	0	0.985075
2868	0	0.949779
2869	0	0.956547
2870	0	0.994695
2871	0	0.994695
2872	0	0.994695
2873	0	0.994695
2874	0	0.994695
2875	0	0.992936
2876	0	0.992936
2877	0	0.99293
2878	0	0
2879	0	0
2880	0	0
2881	0	0
2882	0	0
2883	0	0
2884	0	0
2885	0	0.991182
2886	0	0.991182
2887	0	0.991182
2888	0	0
2889	0	0
2890	0	0
2891	0	0
2892	0	0
2893	0	0
2894	0	0
2895	0	0
2896	0	0
2897	0	0
2898	0	0
2899	0	0
2900	0	0
2901	0	0
2902	0	0
2903	0	0
2904	0	0
2905	0	0
2906	0	0
2907	0	0
2908	0	0
2909	0	0
2910	0	0
2911	0	0
2912	0	0
2913	0	0
2914	0	0
2915	0	0
2916	0	0
2917	0	0
2918	0	0
2919	0	0
2920	0	0
2921	0	0
2922	0	0
2923	0	0
2924	0	0
2925	0	0
2926	0	0
2927	0	0
2928	0	0
2929	0	0
2930	0	0
2931	0	0
2932	0	0
2933	0	0
2934	0	0
2935	0	0
2936	0	0
2937	0	0
2938	0	0
2939	0	0
2940	0	0
2941	0	0
2942	0	0
2943	0	0
2944	0	0
2945	0	0
2946	0	0
2947	0	0
2948	0	0
2949	0	0
2950	0	0
2951	0	0
2952	0	0
2953	0	0
2954	0	0
2955	0	0.989423
2956	0	0.989423
2957	0	0.6
2958	0	0.6
2959	0	0.333333
2960	0	0
2961	0	0.686275
2962	0	0.686275
2963	0	0.434783
2964	0	0.350427
2965	0	0.325397
2966	0	0.290323
2967	0	0.247059
2968	0	0.201282
2969	0	0.282225
2970	0	0.2311
2971	0	0.257849
2972	0	0.218607
2973	0	0.242149
2974	0	0.376958
2975	0	0.375249
2976	0	0.373737
2977	0	0.306312
2978	0	0
2979	0	0
2980	0	0
2981	0	0
2982	0	0
2983	0	0
2984	0	0
2985	0	0
2986	0	0
2987	0	0
2988	0	0
2989	0	0
2990	0	0
2991	0	0
2992	0	0
2993	0	0
2994	0	0
2995	0	0
2996	0	0
2997	0	0
2998	0	0
2999	0	0
3000	0	0
3001	0	0
3002	0	0
3003	0	0
3004	0	0
3005	0	0
3006	0	0
3007	0	0
3008	0	0
3009	0	0
3010	0	0
3011	0	0
3012	0	0
3013	0	0
3014	0	0
3015	0	0
3016	0	0
3017	0	0
3018	0	0
3019	0	0
3020	0	0
3021	0	0
3022	0	0
3023	0	0
3024	0	0
3025	0	0
3026	0	0
3027	0	0
3028	0	0
3029	0	0
3030	0	0
3031	0	0
3032	0	0
3033	0	0
3034	0	0
3035	0	0
3036	0	0
3037	0	0
3038	0	0
3039	0	0
3040	0	0
3041	0	0
3042	0	0.810527
3043	0	0.672348
3044	0	0.680927
3045	0	0.757488
3046	0	0.725254
3047	0	0.740408
3048	0	0.913123
3049	0	0
3050	0	0
3051	0	0
3052	0	0
3053	0	0
3054	0	0
3055	0	0
3056	0	0
3057	0	0
3058	0	0
3059	0	0
3060	0	0
3061	0	0
3062	0	0
3063	0	0
3064	0	0
3065	0	0
3066	0	0
3067	0	0
3068	0	0
3069	0	0
3070	0	0
3071	0	0
3072	0	0
3073	0	0
3074	0	0
3075	0	0
3076	0	0
3077	0	0
3078	0	0
3079	0	0
3080	0	0
3081	0	0
3082	0	0
3083	0	0
3084	0	0
3085	0	0
3086	0	0.927025
3087	0	0.927025
3088	0	0.419913
3089	0	0.419913
3090	0	0.438735
3091	0	0.438735
3092	0	0.438735
3093	0	0.438735
3094	0	0.954512
3095	0	0
3096	0	0
3097	0	1
3098	0	1
3099	0	1
3100	0	1
3101	0	1
3102	0	1
3103	0	1
3104	0	0.960824
3105	0	0
3106	0	0
3107	0	0
3108	0	0
3109	0	0
3110	0	0
3111	0	0
3112	0	0
3113	0	0
3114	0	0
3115	0	0
3116	0	0
3117	0	0
3118	0	0
3119	0	0
3120	0	0
3121	0	0
3122	0	0
3123	0	0
3124	0	0
3125	0	0
3126	0	0
3127	0	0
3128	0	0
3129	0	0
3130	0	0
3131	0	0
3132	0	0
3133	0	0
3134	0	0
3135	0	0
3136	0	0
3137	0	0
3138	0	0
3139	0	0
3140	0	0
3141	0	0
3142	0	0
3143	0	0
3144	0	0
3145	0	0
3146	0	0.937322
3147	0	1
3148	0	0.984079
3149	0	1
3150	0	1
3151	0	1
3152	0	1
3153	0	0.987647
3154	0	0.987647
3155	0	0.987636
3156	0	0.987636
3157	0	0.991152
3158	0	0.991152
3159	0	0.991152
3160	0	0.991136
3161	0	0
3162	0	0
3163	0	0
3164	0	0
3165	0	0
3166	0	0
3167	0	0
3168	0	0
3169	0	0
3170	0	0
3171	0	0
3172	0	0
3173	0	0
3174	0	0
3175	0	0
3176	0	0
3177	0	0
3178	0	0
3179	0	0
3180	0	0
3181	0	0
3182	0	0
3183	0	0
3184	0	0
3185	0	0
3186	0	0
3187	0	0
3188	0	0
3189	0	0
3190	0	0
3191	0	0
3192	0	0
3193	0	0
3194	0	0
3195	0	0
3196	0	0
3197	0	0
3198	0	0
3199	0	0
3200	0	0
3201	0	0
3202	0	0
3203	0	0
3204	0	0
3205	0	0
3206	0	0
3207	0	0
3208	0	0
3209	0	0
3210	0	0
3211	0	0
3212	0	0
3213	0	0
3214	0	0
3215	0	0
3216	0	0
3217	0	0
3218	0	0
3219	0	0
3220	0	0
3221	0	0
3222	0	0
3223	0	0
3224	0	0
3225	0	0
3226	0	0
3227	0	0
3228	0	0
3229	0	0
3230	0	0
3231	0	0
3232	0	0
3233	0	0
3234	0	0
3235	0	0
3236	0	0
3237	0	0
3238	0	0
3239	0	0
3240	0	0
3241	0	0
3242	0	0
3243	0	0
3244	0	0
3245	0	0
3246	0	0
3247	0	0
3248	0	0.0357143
3249	0	0.951075
3250	0	0.942551
3251	0	0.854184
3252	0	0.327273
3253	0	0.236364
3254	0	0.163636
3255	0	0.2
3256	0	0.2
3257	0	0.2
3258	0	0.2
3259	0	0.2
3260	0	0.2
3261	0	0.2
3262	0	0.133333
3263	0	0.133333
3264	0	0.133333
3265	0	0.0888889
3266	0	0.0888889
3267	0	0.0888889
3268	0	0.0888889
3269	0	0.0888889
3270	0	0.0888889
3271	0	0.0888889
3272	0	0.0888889
3273	0	0.0888889
3274	0	0.0888889
3275	0	0.0888889
3276	0	0.0888889
3277	0	0.0888889
3278	0	0.0888889
3279	0	0.0666667
3280	0	0.0666667
3281	0	0.0545455
3282	0	0.0545455
3283	0	0.0454545
3284	0	0.0571429
3285	0	0.0514706
3286	0	0.0409357
3287	0	0.829484
3288	0	0
3289	1	0
3290	1	0
3291	1	0
3292	1	0
3293	0	0
3294	0	0
3295	0	0
3296	0	0
3297	0	0
3298	0	0
3299	0	0
3300	0	0
3301	0	0
3302	0	0
3303	0	0
3304	0	0
3305	0	0
3306	0	0
3307	0	0
3308	0	0
3309	0	0
3310	0	0
3311	0	0
3312	0	0
3313	0	0
3314	0	0
3315	0	0
3316	0	0
3317	0	0
3318	0	0
3319	0	0
3320	0	0
3321	0	0
3322	0	0
3323	0	0
3324	0	0
3325	0	0
3326	0	0
3327	0	0
3328	0	0
3329	0	0
3330	0	0
3331	0	0
3332	0	0
3333	0	0
3334	0	0
3335	0	0
3336	0	0
3337	0	0
3338	0	0
3339	0	0
3340	0	0
3341	0	0
3342	0	0
3343	0	0
3344	0	0
3345	0	0
3346	0	0
3347	0	0
3348	0	0
3349	0	0
3350	0	0
3351	0	0
3352	0	0
3353	1	0
3354	1	0
3355	1	0
3356	1	0
3357	1	0
3358	0	0
3359	0	0
3360	0	0
3361	0	0
3362	0	0
3363	0	0
3364	0	0
3365	0	0
3366	0	0
3367	0	0
3368	0	0
3369	0	0
3370	0	0
3371	0	0
3372	0	0
3373	0	0
3374	0	0
3375	0	0
3376	0	0
3377	0	0
3378	0	0
3379	0	0
3380	0	0
3381	0	0
3382	0	0
3383	0	0
3384	0	0
3385	0	0
3386	0	0
3387	0	0
3388	0	0
3389	1	0
3390	1	0
3391	0	0
3392	0	0
3393	0	0
3394	0	0
3395	0	0
3396	0	0
3397	0	0
3398	0	0
3399	0	0
3400	0	0
3401	0	0
3402	0	0
3403	0	0
3404	0	0
3405	0	0
3406	0	0
3407	0	0
3408	0	0
3409	0	0
3410	0	0
3411	0	0
3412	0	0
3413	0	0
3414	0	0
3415	0	0
3416	0	0
3417	0	0
3418	0	0.1
3419	0	0.1
3420	0	0.808913
3421	0	0.767788
3422	0	0.37474
3423	0	0.342052
3424	0	0.349248
3425	0	0.386515
3426	0	0.481659
3427	0	0.2174
3428	0	0.177049
3429	0	0.212821
3430	0	0.215126
3431	0	0.126154
3432	0	0.0701754
3433	0	0.0526316
3434	0	0.0588235
3435	0	0.0661765
3436	0	0.0666667
3437	0	0.0761905
3438	0	0.0761905
3439	0	0.0879121
3440	0	0.102564
3441	0	0.102564
3442	0	0.0897436
3443	0	0.106061
3444	0	0.106061
3445	0	0.106061
3446	0	0.106061
3447	0	0.106061
3448	0	0.106061
3449	0	0.106061
3450	0	0.127273
3451	0	0.2
3452	0	0.2
3453	0	0.2
3454	0	0.2
3455	0	0.2
3456	0	0.2
3457	0	0.127273
3458	0	0.127273
3459	0	0.102564
3460	0	0.102564
3461	0	0.102564
3462	0	0.127273
3463	0	0.127273
3464	0	0.106061
3465	0	0.0897436
3466	0	0.0897436
3467	0	0.0897436
3468	0	0.0897436
3469	0	0.1
3470	0	0.1
3471	0	0.1
3472	0	0.0955882
3473	0	0.0955882
3474	0	0.0955882
3475	0	0.0955882
3476	0	0.0955882
3477	0	0.0955882
3478	0	0.0955882
3479	0	0.0955882
3480	0	0.0955882
3481	0	0.0955882
3482	0	0.108333
3483	0	0.108333
3484	0	0.108333
3485	0	0.108333
3486	0	0.108333
3487	0	0.108333
3488	0	0.108333
3489	0	0.108333
3490	0	0.108333
3491	0	0.108333
3492	0	0.108333
3493	0	0.108333
3494	0	0.108333
3495	0	0.0955882
3496	0	0.0955882
3497	0	0.0849673
3498	0	0.0849673
3499	0	0.0849673
3500	0	0.0849673
3501	0	0.0849673
3502	0	0.0849673
3503	0	0.0849673
3504	0	0.0849673
3505	0	0.0849673
3506	0	0.0849673
3507	0	0.0994152
3508	0	0.0994152
3509	0	0.0994152
3510	0	0.0994152
3511	0	0.0994152
3512	0	0.0994152
3513	0	0.0994152
3514	0	0.0994152
3515	0	0.0994152
3516	0	0.0894737
3517	0	0.0894737
3518	0	0.0894737
3519	0	0.0894737
3520	0	0.0894737
3521	0	0.0894737
3522	0	0.0894737
3523	0	0.0894737
3524	0	0.0894737
3525	0	0.0894737
3526	0	0.0894737
3527	0	0.0894737
3528	0	0.0894737
3529	0	0.0894737
3530	0	0.0894737
3531	0	0.0894737
3532	0	0.0894737
3533	0	0.0894737
3534	0	0.0894737
3535	0	0.0894737
3536	0	0.0894737
3537	0	0.0894737
3538	0	0.0809524
3539	0	0.0809524
3540	0	0.0809524
3541	0	0.0809524
3542	0	0.0809524
3543	0	0.0809524
3544	0	0.0809524
3545	0	0.0894737
3546	0	0.0894737
3547	0	0.0894737
3548	0	0.0809524
3549	0	0.0809524
3550	0	0.0809524
3551	0	0.0809524
3552	0	0.0809524
3553	0	0.0809524
3554	0	0.0809524
3555	0	0.0809524
3556	0	0.0809524
3557	0	0.0735931
3558	0	0.0779221
3559	0	0.0711462
3560	0	0.06
3561	0	0.06
3562	0	0.133333
3563	0	0.133333
3564	0	0.133333
3565	0	0.144144
3566	0	0.144144
3567	0	0.144144
3568	0	0.144144
3569	0	0.144144
3570	0	0.144144
3571	0	0.144144
3572	0	0.144144
3573	0	0.144144
3574	0	0.144144
3575	0	0.144144
3576	0	0.144144
3577	0	0.144144
3578	0	0.144144
3579	0	0.144144
3580	0	0.135135
3581	0	0.135135
3582	0	0.135135
3583	0	0.135135
3584	0	0.135135
3585	0	0.135135
3586	0	0.135135
3587	0	0.135135
3588	0	0.135135
3589	0	0.128205
3590	0	0.135135
3591	0	0.135135
3592	0	0.135135
3593	0	0.128205
3594	0	0.138462
3595	0	0.138462
3596	0	0.138462
3597	0	0.138462
3598	0	0.138462
3599	0	0.138462
3600	0	0.138462
3601	0	0.139744
3602	0	0.12892
3603	0	0.12892
3604	0	0.127758
3605	0	0.116279
3606	0	0.116279
3607	0	0.116279
3608	0	0.116279
3609	0	0.116279
3610	0	0.116279
3611	0	0.116279
3612	0	0.116279
3613	0	0.111111
3614	0	0.111111
3615	0	0.111111
3616	0	0.111111
3617	0	0.111111
3618	0	0.125253
3619	0	0.125253
3620	0	0.127273
3621	0	0.128283
3622	0	0.128283
3623	0	0.128283
3624	0	0.128283
3625	0	0.128283
3626	0	0.128283
3627	0	0.128283
3628	0	0.133333
3629	0	0.133333
3630	0	0.133333
3631	0	0.134343
3632	0	0.142424
3633	0	0.142424
3634	0	0.142424
3635	0	0.142424
3636	0	0.142424
3637	0	0.136232
3638	0	0.136232
3639	0	0.136232
3640	0	0.136232
3641	0	0.136232
3642	0	0.136232
3643	0	0.136232
3644	0	0.142424
3645	0	0.142424
3646	0	0.142424
3647	0	0.141414
3648	0	0.144444
3649	0	0.144444
3650	0	0.144444
3651	0	0.150505
3652	0	0.150505
3653	0	0.150505
3654	0	0.150505
3655	0	0.150505
3656	0	0.150505
3657	0	0.150505
3658	0	0.150505
3659	0	0.150505
3660	0	0.150505
3661	0	0.150505
3662	0	0.145455
3663	0	0.139394
3664	0	0.139394
3665	0	0.181818
3666	0	0.181818
3667	0	0.181818
3668	0	0.167677
3669	0	0.167677
3670	0	0.167677
3671	0	0.170707
3672	0	0.235354
3673	0	0.235354
3674	0	0.235354
3675	0	0.235354
3676	0	0.2463
3677	0	0.2463
3678	0	0.2463
3679	0	0.2463
3680	0	0.2463
3681	0	0.2463
3682	0	0.2463
3683	0	0.2463
3684	0	0.2463
3685	0	0.267442
3686	0	0.267442
3687	0	0.267442
3688	0	0.267442
3689	0	0.267442
3690	0	0.267442
3691	0	0.2463
3692	0	0.2463
3693	0	0.2463
3694	0	0.2463
3695	0	0.2463
3696	0	0.2463
3697	0	0.244186
3698	0	0.244186
3699	0	0.244186
3700	0	0.249169
3701	0	0.258985
3702	0	0.258985
3703	0	0.258985
3704	0	0.258985
3705	0	0.250505
3706	0	0.284848
3707	0	0.272464
3708	0	0.272464
3709	0	0.272464
3710	0	0.272464
3711	0	0.272464
3712	0	0.272464
3713	0	0.272464
3714	0	0.272464
3715	0	0.272464
3716	0	0.272464
3717	0	0.272464
3718	0	0.272464
3719	0	0.272464
3720	0	0.272464
3721	0	0.272464
3722	0	0.272464
3723	0	0.272464
3724	0	0.272464
3725	0	0.272464
3726	0	0.272464
3727	0	0.272464
3728	0	0.272464
3729	0	0.272464
3730	0	0.272464
3731	0	0.272464
3732	0	0.272464
3733	0	0.272464
3734	0	0.272464
3735	0	0.272464
3736	0	0.272464
3737	0	0.272464
3738	0	0.25314
3739	0	0.25314
3740	0	0.25314
3741	0	0.25314
3742	0	0.25314
3743	0	0.25314
3744	0	0.25314
3745	0	0.25314
3746	0	0.25314
3747	0	0.25314
3748	0	0.25314
3749	0	0.25314
3750	0	0.25314
3751	0	0.25314
3752	0	0.25314
3753	0	0.25314
3754	0	0.25314
3755	0	0.25314
3756	0	0.25314
3757	0	0.25314
3758	0	0.25314
3759	0	0.25314
3760	0	0.25314
3761	0	0.25314
3762	0	0.25314
3763	0	0.25314
3764	0	0.25314
3765	0	0.25314
3766	0	0.25314
3767	0	0.25314
3768	0	0.25314
3769	0	0.25314
3770	0	0.25314
3771	0	0.25314
3772	0	0.272464
3773	0	0.272464
3774	0	0.290698
3775	0	0.290698
3776	0	0.266667
3777	0	0.266667
3778	0	0.272464
3779	0	0.272464
3780	0	0.272464
3781	0	0.272464
3782	0	0.272464
3783	0	0.272464
3784	0	0.272464
3785	0	0.272464
3786	0	0.272464
3787	0	0.272464
3788	0	0.272464
3789	0	0.272464
3790	0	0.272464
3791	0	0.272464
3792	0	0.272464
3793	0	0.272464
3794	0	0.272464
3795	0	0.25314
3796	0	0.272464
3797	0	0.272464
3798	0	0.272464
3799	0	0.272464
3800	0	0.272464
3801	0	0.272464
3802	0	0.272464
3803	0	0.272464
3804	0	0.272464
3805	0	0.272464
3806	0	0.272464
3807	0	0.272464
3808	0	0.272464
3809	0	0.272464
3810	0	0.272464
3811	0	0.272464
3812	0	0.272464
3813	0	0.272464
3814	0	0.272464
3815	0	0.272464
3816	0	0.272464
3817	0	0.272464
3818	0	0.272464
3819	0	0.29372
3820	0	0.29372
3821	0	0.29372
3822	0	0.29372
3823	0	0.29372
3824	0	0.29372
3825	0	0.29372
3826	0	0.29372
3827	0	0.29372
3828	0	0.29372
3829	0	0.29372
3830	0	0.29372
3831	0	0.29372
3832	0	0.29372
3833	0	0.29372
3834	0	0.29372
3835	0	0.29372
3836	0	0.29372
3837	0	0.29372
3838	0	0.29372
3839	0	0.29372
3840	0	0.29372
3841	0	0.29372
3842	0	0.29372
3843	0	0.29372
3844	0	0.25314
3845	0	0.247343
3846	0	0.247343
3847	0	0.282126
3848	0	0.282126
3849	0	0.282126
3850	0	0.282126
3851	0	0.282126
3852	0	0.282126
3853	0	0.282126
3854	0	0.282126
3855	0	0.282126
3856	0	0.282126
3857	0	0.282126
3858	0	0.229952
3859	0	0.229952
3860	0	0.262802
3861	0	0.262802
3862	0	0.262802
3863	0	0.262802
3864	0	0.262802
3865	0	0.262802
3866	0	0.262802
3867	0	0.251619
3868	0	0.251619
3869	0	0.251619
3870	0	0.262802
3871	0	0.262802
3872	0	0.262802
3873	0	0.262802
3874	0	0.262802
3875	0	0.262802
3876	0	0.262802
3877	0	0.262802
3878	0	0.262802
3879	0	0.262802
3880	0	0.262802
3881	0	0.262802
3882	0	0.262802
3883	0	0.262802
3884	0	0.262802
3885	0	0.262802
3886	0	0.262802
3887	0	0.252174
3888	0	0.252174
3889	0	0.252174
3890	0	0.252174
3891	0	0.252174
3892	0	0.252174
3893	0	0.252174
3894	0	0.252174
3895	0	0.233816
3896	0	0.233816
3897	0	0.233816
3898	0	0.296167
3899	0	0.296167
3900	0	0.310976
3901	0	0.310976
3902	0	0.310976
3903	0	0.310976
3904	0	0.310976
3905	0	0.27439
3906	0	0.27439
3907	0	0.310976
3908	0	0.310976
3909	0	0.310976
3910	0	0.310976
3911	0	0.310976
3912	0	0.29878
3913	0	0.29878
3914	0	0.29878
3915	0	0.29878
3916	0	0.29878
3917	0	0.29878
3918	0	0.29878
3919	0	0.29878
3920	0	0.29878
3921	0	0.29878
3922	0	0.29878
3923	0	0.29878
3924	0	0.263415
3925	0	0.263415
3926	0	0.263415
3927	0	0.263415
3928	0	0.284146
3929	0	0.186585
3930	0	0.186585
3931	0	0.186585
3932	0	0.186585
3933	0	0.181707
3934	0	0.181707
3935	0	0.179268
3936	0	0.179268
3937	0	0.179268
3938	0	0.173171
3939	0	0.173171
3940	0	0.173171
3941	0	0.173171
3942	0	0.173171
3943	0	0.173171
3944	0	0.173171
3945	0	0.182051
3946	0	0.182051
3947	0	0.182051
3948	0	0.182051
3949	0	0.182051
3950	0	0.182051
3951	0	0.191633
3952	0	0.192982
3953	0	0.192982
3954	0	0.192982
3955	0	0.203414
3956	0	0.225397
3957	0	0.22381
3958	0	0.236975
3959	0	0.251337
3960	0	0.251337
3961	0	0.251337
3962	0	0.251337
3963	0	0.251337
3964	0	0.253119
3965	0	0.253119
3966	0	0.253119
3967	0	0.253119
3968	0	0.254902
3969	0	0.272727
3970	0	0.272727
3971	0	0.272727
3972	0	0.272727
3973	0	0.272727
3974	0	0.272727
3975	0	0.272727
3976	0	0.289773
3977	0	0.289773
3978	0	0.289773
3979	0	0.296371
3980	0	0.296371
3981	0	0.316129
3982	0	0.316129
3983	0	0.316129
3984	0	0.316129
3985	0	0.316129
3986	0	0.305376
3987	0	0.347291
3988	0	0.347291
3989	0	0.347291
3990	0	0.347291
3991	0	0.347291
3992	0	0.347291
3993	0	0.347291
3994	0	0.347291
3995	0	0.347291
3996	0	0.347291
3997	0	0.347291
3998	0	0.347291
3999	0	0.347291
4000	0	0.347291
4001	0	0.332512
4002	0	0.332512
4003	0	0.381766
4004	0	0.381766
4005	0	0.381766
4006	0	0.381766
4007	0	0.381766
4008	0	0.381766
4009	0	0.381766
4010	0	0.381766
4011	0	0.381766
4012	0	0.381766
4013	0	0.381766
4014	0	0.381766
4015	0	0.381766
4016	0	0.381766
4017	0	0.381766
4018	0	0.381766
4019	0	0.381766
4020	0	0.381766
4021	0	0.381766
4022	0	0.381766
4023	0	0.381766
4024	0	0.381766
4025	0	0.376068
4026	0	0.376068
4027	0	0.376068
4028	0	0.376068
4029	0	0.376068
4030	0	0.376068
4031	0	0.376068
4032	0	0.376068
4033	0	0.376068
4034	0	0.376068
4035	0	0.376068
4036	0	0.376068
4037	0	0.376068
4038	0	0.376068
4039	0	0.376068
4040	0	0.376068
4041	0	0.376068
4042	0	0.376068
4043	0	0.376068
4044	0	0.376068
4045	0	0.376068
4046	0	0.376068
4047	0	0.376068
4048	0	0.376068
4049	0	0.376068
4050	0	0.376068
4051	0	0.376068
4052	0	0.376068
4053	0	0.376068
4054	0	0.376068
4055	0	0.376068
4056	0	0.376068
4057	0	0.376068
4058	0	0.376068
4059	0	0.376068
4060	0	0.376068
4061	0	0.376068
4062	0	0.376068
4063	0	0.376068
4064	0	0.376068
4065	0	0.376068
4066	0	0.376068
4067	0	0.376068
4068	0	0.376068
4069	0	0.376068
4070	0	0.376068
4071	0	0.376068
4072	0	0.376068
4073	0	0.376068
4074	0	0.376068
4075	0	0.376068
4076	0	0.376068
4077	0	0.376068
4078	0	0.376068
4079	0	0.376068
4080	0	0.376068
4081	0	0.376068
4082	0	0.376068
4083	0	0.376068
4084	0	0.416667
4085	0	0.358974
4086	0	0.358974
4087	0	0.376068
4088	0	0.376068
4089	0	0.376068
4090	0	0.376068
4091	0	0.376068
4092	0	0.376068
4093	0	0.376068
4094	0	0.376068
4095	0	0.376068
4096	0	0.376068
4097	0	0.376068
4098	0	0.376068
4099	0	0.376068
4100	0	0.376068
4101	0	0.376068
4102	0	0.376068
4103	0	0.376068
4104	0	0.376068
4105	0	0.376068
4106	0	0.376068
4107	0	0.376068
4108	0	0.376068
4109	0	0.376068
4110	0	0.376068
4111	0	0.376068
4112	0	0.376068
4113	0	0.349206
4114	0	0.349206
4115	0	0.349206
4116	0	0.349206
4117	0	0.349206
4118	0	0.364672
4119	0	0.364672
4120	0	0.364672
4121	0	0.364672
4122	0	0.364672
4123	0	0.364672
4124	0	0.364672
4125	0	0.364672
4126	0	0.364672
4127	0	0.364672
4128	0	0.364672
4129	0	0.364672
4130	0	0.364672
4131	0	0.364672
4132	0	0.364672
4133	0	0.364672
4134	0	0.364672
4135	0	0.364672
4136	0	0.364672
4137	0	0.364672
4138	0	0.364672
4139	0	0.364672
4140	0	0.364672
4141	0	0.364672
4142	0	0.364672
4143	0	0.364672
4144	0	0.45584
4145	0	0.367521
4146	0	0.37037
4147	0	0.327635
4148	0	0.327635
4149	0	0.327635
4150	0	0.327635
4151	0	0.327635
4152	0	0.327635
4153	0	0.327635
4154	0	0.45584
4155	0	0.45584
4156	0	0.407407
4157	0	0.407407
4158	0	0.236467
4159	0	0.236467
4160	0	0.233618
4161	0	0.205128
4162	0	0.205128
4163	0	0.159544
4164	0	0.159544
4165	0	0.159544
4166	0	0.159544
4167	0	0.159544
4168	0	0.159544
4169	0	0.159544
4170	0	0.159544
4171	0	0.159544
4172	0	0.14245
4173	0	0.14245
4174	0	0.14245
4175	0	0.14245
4176	0	0.14245
4177	0	0.14245
4178	0	0.14245
4179	0	0.14245
4180	0	0.14245
4181	0	0.14245
4182	0	0.14245
4183	0	0.14245
4184	0	0.14245
4185	0	0.14245
4186	0	0.14245
4187	0	0.14245
4188	0	0.14245
4189	0	0.14245
4190	0	0.14245
4191	0	0.14245
4192	0	0.14245
4193	0	0.14245
4194	0	0.14245
4195	0	0.14245
4196	0	0.14245
4197	0	0.14245
4198	0	0.14245
4199	0	0.14245
4200	0	0.14245
4201	0	0.14245
4202	0	0.14245
4203	0	0.14245
4204	0	0.14245
4205	0	0.14245
4206	0	0.14245
4207	0	0.14245
4208	0	0.14245
4209	0	0.14245
4210	0	0.14245
4211	0	0.14245
4212	0	0.14245
4213	0	0.14245
4214	0	0.14245
4215	0	0.14245
4216	0	0.14245
4217	0	0.14245
4218	0	0.14245
4219	0	0.159544
4220	0	0.14245
4221	0	0.14245
4222	0	0.14245
4223	0	0.14245
4224	0	0.14245
4225	0	0.14245
4226	0	0.14245
4227	0	0.14245
4228	0	0.14245
4229	0	0.14245
4230	0	0.14245
4231	0	0.15
4232	0	0.163043
4233	0	0.163043
4234	0	0.163043
4235	0	0.163043
4236	0	0.163043
4237	0	0.163043
4238	0	0.163043
4239	0	0.163043
4240	0	0.163043
4241	0	0.163043
4242	0	0.163043
4243	0	0.163043
4244	0	0.163043
4245	0	0.163043
4246	0	0.163043
4247	0	0.15942
4248	0	0.15942
4249	0	0.15942
4250	0	0.15942
4251	0	0.15942
4252	0	0.163043
4253	0	0.163043
4254	0	0.163043
4255	0	0.163043
4256	0	0.177866
4257	0	0.177866
4258	0	0.220588
4259	0	0.0555556
4260	0	0.0555556
4261	0	0.0555556
4262	0	0.0714286
4263	0	0.047619
4264	0	0.047619
4265	0	0
4266	0	0
4267	0	0
4268	0	0
4269	0	0
4270	0	0
4271	0	0
4272	0	0
4273	0	0
4274	0	0
4275	0	0
4276	0	0
4277	0	0
4278	0	0
4279	0	0
4280	0	0
4281	0	0
4282	0	0
4283	0	0
4284	0	0
4285	0	0
4286	0	0
4287	0	0
4288	0	0
4289	0	0
4290	0	0
4291	0	0.333333
4292	0	0.333333
4293	0	0.333333
4294	0	0.333333
4295	0	0.333333
4296	0	0.333333
4297	0	0.333333
4298	0	0.333333
4299	0	0.333333
4300	0	0.333333
4301	0	0.333333
4302	0	0.333333
4303	0	0.333333
4304	0	0.333333
4305	0	0.333333
4306	0	0.333333
4307	0	0.333333
4308	0	0.333333
4309	0	0.333333
4310	0	0.333333
4311	0	0.333333
4312	0	0.333333
4313	0	0.333333
4314	0	0.333333
4315	0	0.333333
4316	0	0.333333
4317	0	0.333333
4318	0	0.333333
4319	0	0.333333
4320	0	0.333333
4321	0	0.333333
4322	0	0.333333
4323	0	0.333333
4324	0	0.333333
4325	0	0.333333
4326	0	0.333333
4327	0	0.333333
4328	0	0.333333
4329	0	0.333333
4330	0	0.333333
4331	0	0.333333
4332	0	0.333333
4333	0	0.333333
4334	0	0.333333
4335	0	0.333333
4336	0	0.333333
4337	0	0.333333
4338	0	0.333333
4339	0	0.333333
4340	0	0.333333
4341	0	0.333333
4342	0	0.333333
4343	0	0.333333
4344	0	0.333333
4345	0	0.333333
4346	0	0.333333
4347	0	0.333333
4348	0	0.333333
4349	0	0.333333
4350	0	0.333333
4351	0	0.333333
4352	0	0.333333
4353	0	0.333333
4354	0	0.333333
4355	0	0.333333
4356	0	0.333333
4357	0	0.333333
4358	0	0.333333
4359	0	0.333333
4360	0	0.333333
4361	0	0.333333
4362	0	0.333333
4363	0	0.333333
4364	0	0.333333
4365	0	0.333333
4366	0	0.333333
4367	0	0.333333
4368	0	0.333333
4369	0	0.333333
4370	0	0.333333
4371	0	0.333333
4372	0	0.333333
4373	0	0.333333
4374	0	0.333333
4375	0	0.333333
4376	0	0.333333
4377	0	0.333333
4378	0	0.333333
4379	0	0.333333
4380	0	0.333333
4381	0	0.333333
4382	0	0.333333
4383	0	0.333333
4384	0	0.333333
4385	0	0.333333
4386	0	0.333333
4387	0	0.333333
4388	0	0.333333
4389	0	0.333333
4390	0	0.333333
4391	0	0.333333
4392	0	0.333333
4393	0	0.333333
4394	0	0.333333
4395	0	0.333333
4396	0	0.333333
4397	0	0.333333
4398	0	0.333333
4399	0	0.333333
4400	0	0.333333
4401	0	0.333333
4402	0	0.333333
4403	0	0.333333
4404	0	0.333333
4405	0	0.333333
4406	0	0.333333
4407	0	0.333333
4408	0	0.333333
4409	0	0.333333
4410	0	0.333333
4411	0	0.333333
4412	0	0.333333
4413	0	0.333333
4414	0	0.333333
4415	0	0.333333
4416	0	0.333333
4417	0	0.333333
4418	0	0.333333
4419	0	0.333333
4420	0	0.333333
4421	0	0.333333
4422	0	0.333333
4423	0	0.333333
4424	0	0.333333
4425	0	0.333333
4426	0	0.333333
4427	0	0.333333
4428	0	0.333333
4429	0	0.333333
4430	0	0.333333
4431	0	0.333333
4432	0	0.333333
4433	0	0.333333
4434	0	0.333333
4435	0	0.333333
4436	0	0.333333
4437	0	0.333333
4438	0	0.333333
4439	0	0.333333
4440	0	0.333333
4441	0	0.333333
4442	0	0.333333
4443	0	0.333333
4444	0	0.333333
4445	0	0.333333
4446	0	0.333333
4447	0	0.333333
4448	0	0.333333
4449	0	0.333333
4450	0	0.333333
4451	0	0.333333
4452	0	0.333333
4453	0	0.333333
4454	0	0.333333
4455	0	0.333333
4456	0	0.333333
4457	0	0.333333
4458	0	0.333333
4459	0	0.333333
4460	0	0.333333
4461	0	0.333333
4462	0	0.333333
4463	0	0.333333
4464	0	0.333333
4465	0	0.333333
4466	0	0.333333
4467	0	0.333333
4468	0	0.333333
4469	0	0.333333
4470	0	0.333333
4471	0	0.333333
4472	0	0.333333
4473	0	0.333333
4474	0	0.333333
4475	0	0.333333
4476	0	0.333333
4477	0	0.333333
4478	0	0.333333
