Site	ColumnScore	SumOfPairsScore
1	1	0
2	1	0
3	1	0
4	1	0
5	1	0
6	1	0
7	1	0
8	1	0
9	1	0
10	1	0
11	1	0
12	1	0
13	1	0
14	1	0
15	1	0
16	1	0
17	1	0
18	1	0
19	1	0
20	1	0
21	1	0
22	1	0
23	1	0
24	0	0
25	0	0
26	0	0
27	0	0
28	0	0
29	0	0
30	0	0
31	0	0
32	0	0
33	0	0
34	0	0
35	0	0
36	0	0
37	0	0
38	0	0
39	0	0
40	0	0
41	0	0
42	0	0
43	0	0
44	0	0
45	0	0
46	0	0
47	0	0
48	0	0
49	0	0
50	0	0
51	0	0
52	0	0
53	0	0
54	0	0
55	0	0
56	0	0
57	0	0
58	0	0
59	0	0
60	0	0
61	0	0
62	0	0
63	0	0
64	0	0
65	0	0
66	0	0
67	0	0
68	0	0
69	0	0
70	0	0
71	0	0
72	1	0
73	1	0
74	1	0
75	1	0
76	1	0
77	0	0
78	0	0
79	0	0
80	0	0
81	0	0
82	0	0
83	0	0
84	0	0
85	0	0
86	0	0
87	0	0
88	0	0
89	0	0.846154
90	0	0.846154
91	0	0.846154
92	0	0.846154
93	0	0.846154
94	0	0.846154
95	0	0.846154
96	0	0.846154
97	0	0.846154
98	0	0.846154
99	0	0.846154
100	0	0.846154
101	0	0.846154
102	0	0.846154
103	0	0.846154
104	0	0.846154
105	0	0.846154
106	0	0.846154
107	0	0.846154
108	0	0.846154
109	0	0.846154
110	0	0.846154
111	0	0.846154
112	0	0.846154
113	0	0.846154
114	0	0.846154
115	0	0.846154
116	0	0.846154
117	0	0.846154
118	0	0.846154
119	0	0.846154
120	0	0.846154
121	0	0.846154
122	0	0.846154
123	0	0.846154
124	0	0.846154
125	0	0.846154
126	0	0.846154
127	0	0.846154
128	0	0.846154
129	0	0.846154
130	0	0.846154
131	0	0.846154
132	0	0.846154
133	0	0.846154
134	0	0.846154
135	0	0.818182
136	0	0.846154
137	0	0.846154
138	0	0.846154
139	0	0.846154
140	0	0.846154
141	0	0.846154
142	0	0.846154
143	0	0.846154
144	0	0.846154
145	0	0.846154
146	0	0.846154
147	0	0.846154
148	0	0.846154
149	0	0.846154
150	0	0.846154
151	0	0.846154
152	0	0.846154
153	0	0.846154
154	0	0.846154
155	0	0.846154
156	0	0.846154
157	0	0.846154
158	0	0.846154
159	0	0.846154
160	0	0.846154
161	0	0.846154
162	0	0.846154
163	0	0.846154
164	0	0.846154
165	0	0.846154
166	0	0.846154
167	0	0.846154
168	0	0.846154
169	0	0.846154
170	0	0.846154
171	0	0.846154
172	0	0.846154
173	0	0.846154
174	0	0.846154
175	0	0.846154
176	0	0.846154
177	0	0.846154
178	0	0.846154
179	0	0.846154
180	0	0.846154
181	0	0.846154
182	0	0.846154
183	0	0.846154
184	0	0.846154
185	0	0.846154
186	0	0.846154
187	0	0.846154
188	0	0.846154
189	0	0.846154
190	0	0.846154
191	0	0.846154
192	0	0.846154
193	0	0.846154
194	0	0.846154
195	0	0.846154
196	0	0.846154
197	0	0.846154
198	0	0.333333
199	0	0.589744
200	0	0.846154
201	0	0.846154
202	0	0.846154
203	0	0.846154
204	0	0.846154
205	0	0.846154
206	0	0.846154
207	0	0.846154
208	0	0.846154
209	0	0.846154
210	0	0.846154
211	0	0.435897
212	0	0.589744
213	0	0.333333
214	0	0.846154
215	0	0.846154
216	0	0.846154
217	0	0.846154
218	0	0.846154
219	0	0.846154
220	0	0.846154
221	0	0.846154
222	0	0.846154
223	0	0.846154
224	0	0.846154
225	0	0.846154
226	0	0.846154
227	0	0.846154
228	0	0.846154
229	0	0.846154
230	0	0.846154
231	0	0.846154
232	0	0.846154
233	0	0.846154
234	0	0.846154
235	0	0.846154
236	0	0.846154
237	0	0.846154
238	0	0.846154
239	0	0.846154
240	0	0.846154
241	0	0.846154
242	0	0.846154
243	0	0.846154
244	0	0.846154
245	0	0.846154
246	0	0.846154
247	0	0.846154
248	0	0.846154
249	0	0.846154
250	0	0.846154
251	0	0.846154
252	0	0.846154
253	0	0.846154
254	0	0.846154
255	0	0.846154
256	0	0.846154
257	0	0.846154
258	0	0.846154
259	0	0.846154
260	0	0.846154
261	0	0.846154
262	0	0.846154
263	0	0.846154
264	0	0.846154
265	0	0.846154
266	0	0.846154
267	0	0.846154
268	0	0.846154
269	0	0.846154
270	0	0.846154
271	0	0.846154
272	0	0.846154
273	0	0.846154
274	0	0.846154
275	0	0.846154
276	0	0.846154
277	0	0.846154
278	0	0.846154
279	0	0.846154
280	0	0.846154
281	0	0.846154
282	0	0.846154
283	0	0.846154
284	0	0.846154
285	0	0.846154
286	0	0.846154
287	0	0.846154
288	0	0.846154
289	0	0.846154
290	0	0.846154
291	0	0.846154
292	0	0.846154
293	0	0.846154
294	0	0.846154
295	0	0.846154
296	0	0.846154
297	0	0.846154
298	0	0.846154
299	0	0.846154
300	0	0.846154
301	0	0.846154
302	0	0.846154
303	0	0.846154
304	0	0.846154
305	0	0.846154
306	0	0.846154
307	0	0.846154
308	0	0.846154
309	0	0.846154
310	0	0.846154
311	0	0.846154
312	0	0.846154
313	0	0.846154
314	0	0.846154
315	0	0.846154
316	0	0.846154
317	0	0.846154
318	0	0.846154
319	0	0.846154
320	0	0.846154
321	0	0.846154
322	0	0.846154
323	0	0.846154
324	0	0.846154
325	0	0.833333
326	0	0.705128
327	0	0.846154
328	0	0.846154
329	0	0.846154
330	0	0.846154
331	0	0.846154
332	0	0.705128
333	0	0
334	0	0.846154
335	0	0.846154
336	0	0.846154
337	0	0.846154
338	0	0.846154
339	0	0.846154
340	0	0.846154
341	0	0.846154
342	0	0.846154
343	0	0.846154
344	0	0.846154
345	0	0.846154
346	0	0.846154
347	0	0.846154
348	0	0.846154
349	0	0.846154
350	0	0.846154
351	0	0.846154
352	0	0.846154
353	0	0.846154
354	0	0.846154
355	0	0.846154
356	0	0.846154
357	0	0.846154
358	0	0.846154
359	0	0.846154
360	0	0.846154
361	0	0.846154
362	0	0.846154
363	0	0.846154
364	0	0.846154
365	0	0.846154
366	0	0.846154
367	0	0.846154
368	0	0.846154
369	0	0.846154
370	0	0.846154
371	0	0.818182
372	0	0.818182
373	0	0.846154
374	0	0.846154
375	0	0.846154
376	0	0.846154
377	0	0.846154
378	0	0.846154
379	0	0.846154
380	0	0.846154
381	0	0.846154
382	0	0.846154
383	0	0.846154
384	0	0.846154
385	0	0.846154
386	0	0.846154
387	0	0.846154
388	0	0.846154
389	0	0.846154
390	0	0.846154
391	0	0.846154
392	0	0.846154
393	0	0.846154
394	0	0.846154
395	0	0.846154
396	0	0.846154
397	0	0.846154
398	0	0.846154
399	0	0.846154
400	0	0.846154
401	0	0.846154
402	0	0.846154
403	0	0.846154
404	0	0.846154
405	0	0.846154
406	0	0.846154
407	0	0.846154
408	0	0.846154
409	0	0.846154
410	0	0.846154
411	0	0.846154
412	0	0.846154
413	0	0.846154
414	0	0.846154
415	0	0.846154
416	0	0.846154
417	0	0.846154
418	0	0.846154
419	0	0.846154
420	0	0.846154
421	0	0.846154
422	0	0.846154
423	0	0.846154
424	0	0.846154
425	0	0.846154
426	0	0.846154
427	0	0.846154
428	0	0.846154
429	0	0.846154
430	0	0.846154
431	0	0.846154
432	0	0.846154
433	0	0.846154
434	0	0.846154
435	0	0.846154
436	0	0.846154
437	0	0.846154
438	0	0.846154
439	0	0.846154
440	0	0.846154
441	0	0.846154
442	0	0.846154
443	0	0.846154
444	0	0.846154
445	0	0.846154
446	0	0.846154
447	0	0.846154
448	0	0.846154
449	0	0.846154
450	0	0.846154
451	0	0.846154
452	0	0.846154
453	0	0.846154
454	0	0.846154
455	0	0.846154
456	0	0.846154
457	0	0.846154
458	0	0.846154
459	0	0.846154
460	0	0.846154
461	0	0.846154
462	0	0.846154
463	0	0.846154
464	0	0.846154
465	0	0.846154
466	0	0.846154
467	0	0.846154
468	0	0.846154
469	0	0.846154
470	0	0.846154
471	0	0.846154
472	0	0.846154
473	0	0.846154
474	0	0.846154
475	0	0.846154
476	0	0.846154
477	0	0.846154
478	0	0.846154
479	0	0.846154
480	0	0.846154
481	0	0.846154
482	0	0.846154
483	0	0.846154
484	0	0.846154
485	0	0.846154
486	0	0.846154
487	0	0.846154
488	0	0.846154
489	0	0.846154
490	0	0.846154
491	0	0.846154
492	0	0.846154
493	0	0.846154
494	0	0.846154
495	0	0.846154
496	0	0.846154
497	0	0.846154
498	0	0.846154
499	0	0.846154
500	0	0.846154
501	0	0.846154
502	0	0.846154
503	0	0.846154
504	0	0.846154
505	0	0.846154
506	0	0.846154
507	0	0.846154
508	0	0.846154
509	0	0.846154
510	0	0.846154
511	0	0.846154
512	0	0.846154
513	0	0.846154
514	0	0.846154
515	0	0.846154
516	0	0.846154
517	0	0.846154
518	0	0.846154
519	0	0.846154
520	0	0.846154
521	0	0.846154
522	0	0.846154
523	0	0.846154
524	0	0.846154
525	0	0.846154
526	0	0.846154
527	0	0.846154
528	0	0.846154
529	0	0.846154
530	0	0.846154
531	0	0.846154
532	0	0.846154
533	0	0.846154
534	0	0.846154
535	0	0.846154
536	0	0.846154
537	0	0.846154
538	0	0.846154
539	0	0.846154
540	0	0.846154
541	0	0.846154
542	0	0.846154
543	0	0.846154
544	0	0.846154
545	0	0.846154
546	0	0.846154
547	0	0.846154
548	0	0.846154
549	0	0.846154
550	0	0.846154
551	0	0.846154
552	0	0.846154
553	0	0.846154
554	0	0.846154
555	0	0.846154
556	0	0.846154
557	0	0.846154
558	0	0.846154
559	0	0.846154
560	0	0.846154
561	0	0.846154
562	0	0.846154
563	0	0.846154
564	0	0.846154
565	0	0.846154
566	0	0.846154
567	0	0.846154
568	0	0.846154
569	0	0.846154
570	0	0.846154
571	0	0.846154
572	0	0.846154
573	0	0.846154
574	0	0.846154
575	0	0.846154
576	0	0.846154
577	0	0.846154
578	0	0.846154
579	0	0.846154
580	0	0.846154
581	0	0.846154
582	0	0.846154
583	0	0.846154
584	0	0.846154
585	0	0.846154
586	0	0.846154
587	0	0.846154
588	0	0.846154
589	0	0.846154
590	0	0.846154
591	0	0.846154
592	0	0.846154
593	0	0.846154
594	0	0.846154
595	0	0.846154
596	0	0.846154
597	0	0.846154
598	0	0.846154
599	0	0.846154
600	0	0.846154
601	0	0.846154
602	0	0.846154
603	0	0.846154
604	0	0.725275
605	0	0.725275
606	0	0.725275
607	0	0.725275
608	0	0.725275
609	0	0.725275
610	0	0.725275
611	0	0.725275
612	0	0.725275
613	0	0.725275
614	0	0.725275
615	0	0.725275
616	0	0.725275
617	0	0.628571
618	0	0.628571
619	0	0.628571
620	0	0.628571
621	0	0.628571
622	0	0.628571
623	0	0.628571
624	0	0.628571
625	0	0.628571
626	0	0.628571
627	0	0.628571
628	0	0.628571
629	0	0.628571
630	0	0.628571
631	0	0.628571
632	0	0.628571
633	0	0.628571
634	0	0.628571
635	0	0.628571
636	0	0.628571
637	0	0.628571
638	0	0.628571
639	0	0.628571
640	0	0.628571
641	0	0.628571
642	0	0.628571
643	0	0.628571
644	0	0.628571
645	0	0.628571
646	0	0.628571
647	0	0.628571
648	0	0.628571
649	0	0.628571
650	0	0.628571
651	0	0.628571
652	0	0.628571
653	0	0.628571
654	0	0.628571
655	0	0.628571
656	0	0.628571
657	0	0.628571
658	0	0.628571
659	0	0.628571
660	0	0.628571
661	0	0.628571
662	0	0.628571
663	0	0.628571
664	0	0.628571
665	0	0.628571
666	0	0.628571
667	0	0.628571
668	0	0.628571
669	0	0.628571
670	0	0.628571
671	0	0.628571
672	0	0.628571
673	0	0.628571
674	0	0.628571
675	0	0.628571
676	0	0.628571
677	0	0.628571
678	0	0.628571
679	0	0.628571
680	0	0.628571
681	0	0.628571
682	0	0.628571
683	0	0.628571
684	0	0.628571
685	0	0.628571
686	0	0.628571
687	0	0.628571
688	0	0.628571
689	0	0.628571
690	0	0.628571
691	0	0.604396
692	0	0.628571
693	0	0.628571
694	0	0.628571
695	0	0.628571
696	0	0.628571
697	0	0.628571
698	0	0.628571
699	0	0.628571
700	0	0.628571
701	0	0.628571
702	0	0.628571
703	0	0.55
704	0	0.55
705	0	0.55
706	0	0.55
707	0	0.55
708	0	0.492647
709	0	0.492647
710	0	0.492647
711	0	0.492647
712	0	0.492647
713	0	0.492647
714	0	0.492647
715	0	0.492647
716	0	0.466667
717	0	0.492647
718	0	0.492647
719	0	0.492647
720	0	0.492647
721	0	0.492647
722	0	0.492647
723	0	0.492647
724	0	0.492647
725	0	0.492647
726	0	0.492647
727	0	0.492647
728	0	0.492647
729	0	0.492647
730	0	0.492647
731	0	0.492647
732	0	0.492647
733	0	0.492647
734	0	0.492647
735	0	0.492647
736	0	0.492647
737	0	0.492647
738	0	0.492647
739	0	0.492647
740	0	0.492647
741	0	0.492647
742	0	0.492647
743	0	0.492647
744	0	0.492647
745	0	0.492647
746	0	0.437908
747	0	0.437908
748	0	0.437908
749	0	0.437908
750	0	0.437908
751	0	0.437908
752	0	0.437908
753	0	0.437908
754	0	0.437908
755	0	0.437908
756	0	0.437908
757	0	0.437908
758	0	0.485294
759	0	0.431373
760	0	0.437908
761	0	0.391813
762	0	0.391813
763	0	0.391813
764	0	0.391813
765	0	0.391813
766	0	0.391813
767	0	0.391813
768	0	0.391813
769	0	0.391813
770	0	0.391813
771	0	0.391813
772	0	0.391813
773	0	0.391813
774	0	0.391813
775	0	0.391813
776	0	0.391813
777	0	0.391813
778	0	0.391813
779	0	0.391813
780	0	0.391813
781	0	0.391813
782	0	0.391813
783	0	0.391813
784	0	0.391813
785	0	0.397661
786	0	0.397661
787	0	0.397661
788	0	0.397661
789	0	0.391813
790	0	0.391813
791	0	0.391813
792	0	0.391813
793	0	0.391813
794	0	0.391813
795	0	0.391813
796	0	0.391813
797	0	0.391813
798	0	0.352632
799	0	0.352632
800	0	0.352632
801	0	0.352632
802	0	0.352632
803	0	0.352632
804	0	0.352632
805	0	0.352632
806	0	0.352632
807	0	0.352632
808	0	0.352632
809	0	0.352632
810	0	0.352632
811	0	0.352632
812	0	0.352632
813	0	0.352632
814	0	0.352632
815	0	0.352632
816	0	0.352632
817	0	0.352632
818	0	0.352632
819	0	0.352632
820	0	0.352632
821	0	0.352632
822	0	0.352632
823	0	0.352632
824	0	0.352632
825	0	0.352632
826	0	0.352632
827	0	0.352632
828	0	0.352632
829	0	0.352632
830	0	0.352632
831	0	0.352632
832	0	0.352632
833	0	0.352632
834	0	0.352632
835	0	0.352632
836	0	0.319048
837	0	0.319048
838	0	0.319048
839	0	0.319048
840	0	0.319048
841	0	0.319048
842	0	0.319048
843	0	0.319048
844	0	0.319048
845	0	0.319048
846	0	0.319048
847	0	0.319048
848	0	0.319048
849	0	0.319048
850	0	0.319048
851	0	0.319048
852	0	0.319048
853	0	0.319048
854	0	0.319048
855	0	0.319048
856	0	0.290043
857	0	0.290043
858	0	0.290043
859	0	0.290043
860	0	0.290043
861	0	0.290043
862	0	0.290043
863	0	0.290043
864	0	0.341991
865	0	0.290043
866	0	0.290043
867	0	0.290043
868	0	0.290043
869	0	0.290043
870	0	0.264822
871	0	0.264822
872	0	0.264822
873	0	0.264822
874	0	0.264822
875	0	0.264822
876	0	0.264822
877	0	0.264822
878	0	0.264822
879	0	0.264822
880	0	0.264822
881	0	0.272727
882	0	0.272727
883	0	0.272727
884	0	0.272727
885	0	0.25
886	0	0.242754
887	0	0.242754
888	0	0.242754
889	0	0.242754
890	0	0.242754
891	0	0.242754
892	0	0.242754
893	0	0.242754
894	0	0.223333
895	0	0.223333
896	0	0.223333
897	0	0.206154
898	0	0.206154
899	0	0.206154
900	0	0.206154
901	0	0.206154
902	0	0.190883
903	0	0.177249
904	0	0.177249
905	0	0.177249
906	0	0.177249
907	0	0.177249
908	0	0.177249
909	0	0.177249
910	0	0.177249
911	0	0.179894
912	0	0.179894
913	0	0.177249
914	0	0.177249
915	0	0.177249
916	0	0.177249
917	0	0.179894
918	0	0.167488
919	0	0.167488
920	0	0.167488
921	0	0.167488
922	0	0.167488
923	0	0.165025
924	0	0.165025
925	0	0.165025
926	0	0.165025
927	0	0.167488
928	0	0.16092
929	0	0.16092
930	0	0.16092
931	0	0.156322
932	0	0.158621
933	0	0.156322
934	0	0.156322
935	0	0.140394
936	0	0.140394
937	0	0.140394
938	0	0.140394
939	0	0.140394
940	0	0.140394
941	0	0.150794
942	0	0.134921
943	0	0.134921
944	0	0.129129
945	0	0.130631
946	0	0.103604
947	0	0.106952
948	0	0.112605
949	0	0.112605
950	0	0.112605
951	0	0.114286
952	0	0.114286
953	0	0.156472
954	0	0.157895
955	0	0.157895
956	0	0.20259
957	0	0.218316
958	0	0.20922
959	0	0.203231
960	0	0.203231
961	0	0.194286
962	0	0.837406
963	0	0.803649
964	0	0.417112
965	0	0.495544
966	0	0.493761
967	0	0.534759
968	0	0.557143
969	0	0.557143
970	0	0.567568
971	0	0.567568
972	0	0.618777
973	0	0.618777
974	0	0.658915
975	0	0.630021
976	0	0.637374
977	0	0.651249
978	0	0.651249
979	0	0.664116
980	0	0.664966
981	0	0.672653
982	0	0.901581
983	0	0.898424
984	0	0.894819
985	0	0.894819
986	0	0.879977
987	0	0.830946
988	0	0.43214
989	0	0
990	0	0
991	0	0
992	0	0
993	0	0
994	0	0
995	0	0
996	0	0
997	0	0
998	0	0
999	0	0
1000	0	0
1001	0	0
1002	0	0
1003	0	0
1004	0	0
1005	0	0.5
1006	0	0.5
1007	0	0.45128
1008	0	0.371429
1009	0	0.466632
1010	0	0.470041
1011	0	0.470041
1012	0	0.470041
1013	0	0
1014	0	0
1015	0	0
1016	0	0
1017	0	0
1018	0	0.934099
1019	0	0.974677
1020	0	0.9747
1021	0	0.985501
1022	0	0.985501
1023	0	0.985488
1024	0	0.985488
1025	0	0
1026	0	0
1027	0	0
1028	0	0
1029	0	0
1030	0	0
1031	0	0.989116
1032	0	0.985553
1033	0	0.985553
1034	0	0
1035	0	0.606333
1036	0	0.357143
1037	0	0.587264
1038	0	0.395257
1039	0	0.511197
1040	0	0
1041	0	0
1042	0	0
1043	0	0
1044	0	0
1045	0	0
1046	0	0
1047	0	0
1048	0	0
1049	0	0
1050	0	0
1051	0	0.503772
1052	0	0.5
1053	0	0.5
1054	0	0.5
1055	0	0.5
1056	0	0.5
1057	0	0.5
1058	0	0.5
1059	0	0.5
1060	0	0.5
1061	0	0.5
1062	0	0.266667
1063	0	0.5
1064	0	0.190476
1065	0	0.291381
1066	0	0
1067	0	0
1068	0	0.1
1069	0	0.1
1070	0	0.1
1071	0	0.1
1072	0	0.1
1073	0	0.1
1074	0	0.0666667
1075	0	0.0666667
1076	0	0.107143
1077	0	0.107143
1078	0	0.107143
1079	0	0.107143
1080	0	0.107143
1081	0	0.107143
1082	0	0.107143
1083	0	0.107143
1084	0	0.107143
1085	0	0.142857
1086	0	0.142857
1087	0	0.142857
1088	0	0.190476
1089	0	0.190476
1090	0	0.25
1091	0	0.25
1092	0	0.476288
1093	0	0.166667
1094	0	0.166667
1095	0	0.166667
1096	0	0.142857
1097	0	0.142857
1098	0	0.107143
1099	0	0.107143
1100	0	0.214286
1101	0	0.277778
1102	0	0.19697
1103	0	0.466667
1104	0	0.742794
1105	0	0.907598
1106	0	0
1107	0	0.357143
1108	0	0.357143
1109	0	0.893934
1110	0	0.9329
1111	0	0.9329
1112	0	0.934701
1113	0	0.934761
1114	0	0.936619
1115	0	0.933313
1116	0	0.909849
1117	0	0
1118	0	0
1119	0	0
1120	0	0
1121	0	0
1122	0	0
1123	0	0
1124	0	0
1125	0	0
1126	0	0
1127	0	0
1128	0	0
1129	0	0
1130	0	0
1131	0	0
1132	0	0
1133	0	0
1134	0	0
1135	0	0
1136	0	0
1137	0	0
1138	0	0
1139	0	0
1140	0	0.747171
1141	0	0
1142	0	0
1143	0	0
1144	0	0
1145	0	0
1146	0	0
1147	0	0
1148	0	0
1149	0	0
1150	0	0
1151	0	0
1152	0	0
1153	0	0
1154	0	0
1155	0	0
1156	0	0
1157	0	0
1158	0	0
1159	0	0
1160	0	0
1161	0	0
1162	0	0
1163	0	0
1164	0	0
1165	0	0
1166	0	0
1167	0	0
1168	0	0
1169	0	0.752321
1170	0	0.987422
1171	0	0
1172	0	0
1173	0	0
1174	0	0
1175	0	0
1176	0	0
1177	0	0
1178	0	0
1179	0	0
1180	0	0
1181	0	0
1182	0	0
1183	0	0
1184	0	0
1185	0	0
1186	0	0
1187	0	0
1188	0	0.989204
1189	0	0.987422
1190	0	0
1191	0	0
1192	0	0
1193	0	0
1194	0	0
1195	0	0.989194
1196	0	0.98741
1197	0	0.985631
1198	0	0.989214
1199	0	0.990999
1200	0	0.992796
1201	0	0
1202	0	0
1203	0	0
1204	0	0
1205	0	0
1206	0	0
1207	0	0
1208	0	0
1209	0	0
1210	0	0
1211	0	0
1212	0	0
1213	0	0
1214	0	0
1215	0	0
1216	0	0
1217	0	0
1218	0	0
1219	0	0
1220	0	0
1221	0	0
1222	0	0
1223	0	0
1224	0	0
1225	0	0
1226	0	0
1227	0	0
1228	0	0
1229	0	0
1230	0	0
1231	0	0
1232	0	0
1233	0	0
1234	0	0
1235	0	0
1236	0	0
1237	0	0
1238	0	0
1239	0	0
1240	0	0
1241	0	0
1242	0	0
1243	0	0
1244	0	0
1245	0	0.99459
1246	0	0.989223
1247	0	0.989223
1248	0	0.989223
1249	0	0.987444
1250	0	0.987444
1251	0	0.987434
1252	0	0.987423
1253	0	0.987426
1254	0	0.987426
1255	0	0.786617
1256	0	0.786617
1257	0	1
1258	0	1
1259	0	0.775199
1260	0	0
1261	0	0
1262	0	0
1263	0	0
1264	0	0
1265	0	0
1266	0	0
1267	0	0
1268	0	0
1269	0	0
1270	0	0
1271	0	0
1272	0	0
1273	0	0
1274	0	0
1275	0	0
1276	0	0
1277	0	0
1278	0	0
1279	0	0
1280	0	0
1281	0	0
1282	0	0
1283	0	0
1284	0	0
1285	0	0
1286	0	0
1287	0	0
1288	0	0
1289	0	0
1290	0	0
1291	0	0
1292	0	0
1293	0	0
1294	0	0
1295	0	0
1296	0	0
1297	0	0
1298	0	0.333333
1299	0	0.1
1300	0	0.1
1301	0	0.142857
1302	0	0.111111
1303	0	0.111111
1304	0	0.111111
1305	0	0.111111
1306	0	0.111111
1307	0	0.266667
1308	0	0.589603
1309	0	0
1310	0	0
1311	0	0
1312	0	0
1313	0	0
1314	0	0
1315	0	0
1316	0	0.1
1317	0	0.1
1318	0	0.0952381
1319	0	0.0714286
1320	0	0.0666667
1321	0	0.0545455
1322	0	0.0909091
1323	0	0.0909091
1324	0	0.290909
1325	0	0.290909
1326	0	0.654545
1327	0	0.818182
1328	0	0.833333
1329	0	0.705128
1330	0	0.604396
1331	0	0.725275
1332	0	0.725275
1333	0	0.693249
1334	0	0.987355
1335	0	0.990942
1336	0	0
1337	0	0
1338	0	0
1339	0	0
1340	0	0
1341	0	0
1342	0	0
1343	0	0
1344	0	0
1345	0	0
1346	0	0
1347	0	0
1348	0	0
1349	0	0
1350	0	0
1351	0	0.990975
1352	0	0.989194
1353	0	0.990983
1354	0	0.990983
1355	0	0.989184
1356	0	0.987399
1357	0	0
1358	0	0
1359	0	0
1360	0	0
1361	0	0
1362	0	0
1363	0	0
1364	0	0
1365	0	0
1366	0	0
1367	0	0
1368	0	0
1369	0	0.983852
1370	0	0.98742
1371	0	0.98742
1372	0	0.990996
1373	0	0.989209
1374	0	1
1375	0	1
1376	0	0
1377	0	0.982033
1378	0	0.99279
1379	0	0.991001
1380	0	0.983854
1381	0	0.982099
1382	0	0.982099
1383	0	0.98034
1384	0	0.97333
1385	0	0.978523
1386	0	0.305556
1387	0	0.244444
1388	0	0.305556
1389	0	0.305556
1390	0	0.666667
1391	0	1
1392	0	1
1393	0	1
1394	0	1
1395	0	1
1396	0	1
1397	1	1
1398	1	1
1399	0	0.6
1400	0	0.6
1401	0	0.6
1402	0	0.6
1403	0	0.6
1404	0	0.6
1405	0	0.6
1406	0	0.6
1407	0	0.6
1408	0	0.6
1409	0	0
1410	0	0
1411	0	0
1412	0	0
1413	0	0
1414	0	0
1415	0	0
1416	0	0.743794
1417	0	0
1418	0	0
1419	0	0
1420	0	0
1421	0	0
1422	1	1
1423	1	1
1424	1	0
1425	1	0
1426	1	0
1427	1	0
1428	1	1
1429	1	1
1430	1	1
1431	1	1
1432	1	1
1433	0	1
1434	0	1
1435	0	1
1436	0	1
1437	0	1
1438	0	1
1439	0	1
1440	1	1
1441	0	0.998219
1442	0	0.996441
1443	0	0.996429
1444	0	0.998211
1445	0	0.998213
1446	1	0
1447	1	0
1448	1	0
1449	1	0
1450	0	1
1451	1	1
1452	1	1
1453	1	1
1454	1	1
1455	1	1
1456	1	1
1457	1	1
1458	1	1
1459	1	1
1460	0	1
1461	0	1
1462	1	1
1463	0	0.998219
1464	0	1
1465	0	1
1466	0	1
1467	0	1
1468	1	1
1469	1	1
1470	1	1
1471	1	1
1472	1	1
1473	0	0.166667
1474	0	0
1475	0	0
1476	0	0
1477	0	0
1478	0	0
1479	0	0
1480	0	0
1481	0	0
1482	0	0
1483	0	0
1484	0	0
1485	0	0.855054
1486	0	0.858075
1487	0	0.858326
1488	0	0.856914
1489	1	1
1490	1	1
1491	1	1
1492	1	1
1493	1	1
1494	1	1
1495	1	1
1496	1	1
1497	1	1
1498	1	1
1499	1	1
1500	1	1
1501	1	1
1502	1	1
1503	1	1
1504	1	1
1505	1	1
1506	1	1
1507	1	1
1508	1	1
1509	1	1
1510	1	1
1511	1	1
1512	1	1
1513	1	1
1514	1	1
1515	1	1
1516	1	1
1517	0	1
1518	1	1
1519	1	1
1520	1	1
1521	1	1
1522	1	1
1523	1	1
1524	1	1
1525	1	1
1526	1	1
1527	1	1
1528	1	1
1529	1	1
1530	1	1
1531	1	1
1532	1	1
1533	1	1
1534	1	1
1535	1	1
1536	1	1
1537	1	1
1538	1	1
1539	1	1
1540	1	1
1541	1	1
1542	1	1
1543	1	1
1544	1	1
1545	1	1
1546	1	1
1547	0	0.99469
1548	0	0
1549	0	0
1550	0	0
1551	0	0
1552	0	0
1553	0	0
1554	0	0.333333
1555	1	1
1556	1	1
1557	1	1
1558	1	1
1559	0	1
1560	1	1
1561	0	1
1562	1	1
1563	1	1
1564	1	1
1565	1	1
1566	1	1
1567	1	1
1568	1	1
1569	1	1
1570	1	1
1571	1	1
1572	1	1
1573	1	1
1574	1	1
1575	0	1
1576	0	0.992927
1577	0	0.992927
1578	1	1
1579	1	1
1580	1	1
1581	1	1
1582	1	1
1583	1	1
1584	1	1
1585	1	1
1586	1	1
1587	1	1
1588	1	1
1589	1	1
1590	1	1
1591	1	1
1592	1	1
1593	1	1
1594	1	1
1595	0	1
1596	1	1
1597	1	1
1598	1	1
1599	1	1
1600	1	1
1601	0	0.998227
1602	0	1
1603	1	1
1604	1	1
1605	1	1
1606	0	0.998225
1607	0	0.998225
1608	0	1
1609	0	0.856144
1610	0	0.790628
1611	0	0.57442
1612	0	0.567868
1613	1	1
1614	1	1
1615	1	1
1616	1	1
1617	1	1
1618	1	1
1619	1	1
1620	1	1
1621	0	0.992908
1622	1	1
1623	0	0.333333
1624	1	0
1625	1	0
1626	1	0
1627	1	0
1628	1	0
1629	1	0
1630	1	0
1631	1	0
1632	1	0
1633	1	0
1634	1	0
1635	1	0
1636	1	0
1637	1	0
1638	1	0
1639	1	0
1640	1	0
1641	1	0
1642	1	0
1643	1	0
1644	1	0
1645	1	0
1646	1	0
1647	0	0.998222
1648	0	0.998224
1649	1	1
1650	1	1
1651	1	1
1652	1	1
1653	1	1
1654	1	1
1655	1	1
1656	1	1
1657	1	1
1658	1	1
1659	1	1
1660	1	1
1661	1	1
1662	1	1
1663	0	0.998225
1664	1	1
1665	1	1
1666	1	1
1667	1	1
1668	1	1
1669	0	1
1670	0	0.914445
1671	0	0
1672	0	0
1673	0	0
1674	0	0
1675	0	0
1676	1	0
1677	0	0.967742
1678	0	0.581463
1679	0	0.53198
1680	0	0.75615
1681	0	0.468131
1682	0	0.458115
1683	0	0.33963
1684	0	0.309355
1685	0	0.658077
1686	0	0.912243
1687	0	0.1
1688	0	0.333333
1689	0	0
1690	0	0
1691	0	0
1692	0	0.949597
1693	0	0.949684
1694	0	0.998225
1695	0	0.998225
1696	0	1
1697	0	1
1698	0	1
1699	1	1
1700	1	1
1701	1	1
1702	1	1
1703	1	1
1704	1	1
1705	1	1
1706	1	1
1707	1	1
1708	0	1
1709	0	0.786568
1710	1	1
1711	1	1
1712	1	1
1713	1	1
1714	1	1
1715	1	1
1716	0	1
1717	1	1
1718	0	0.68798
1719	1	1
1720	1	1
1721	1	1
1722	0	0.998232
1723	0	0.998232
1724	1	1
1725	1	1
1726	1	1
1727	0	1
1728	1	1
1729	0	0.998232
1730	1	1
1731	1	1
1732	1	1
1733	1	1
1734	1	1
1735	1	1
1736	1	1
1737	1	1
1738	1	1
1739	1	1
1740	1	1
1741	0	1
1742	1	1
1743	1	1
1744	1	1
1745	1	1
1746	1	1
1747	1	1
1748	1	1
1749	1	1
1750	1	1
1751	1	1
1752	1	1
1753	0	1
1754	0	1
1755	0	1
1756	0	1
1757	0	1
1758	0	1
1759	0	0.5
1760	0	0.5
1761	0	0.5
1762	0	0.166667
1763	0	0
1764	0	0
1765	0	0
1766	0	0
1767	0	0
1768	0	0
1769	0	0
1770	0	0
1771	0	0
1772	0	0
1773	0	0
1774	0	0
1775	0	0
1776	0	0
1777	0	0
1778	0	0.333333
1779	0	1
1780	0	0.508716
1781	0	0.508716
1782	0	0.508716
1783	0	1
1784	0	0.529412
1785	0	0.529412
1786	0	0.496732
1787	0	0.444444
1788	0	0.434852
1789	0	0.664138
1790	0	0.689507
1791	0	0.690726
1792	0	0
1793	0	0
1794	0	0
1795	0	0
1796	0	0
1797	0	0
1798	0	0
1799	0	0
1800	0	0
1801	1	0
1802	1	0
1803	1	0
1804	0	0
1805	0	0
1806	0	0
1807	0	0
1808	0	0
1809	0	0
1810	0	0
1811	0	0
1812	0	0
1813	0	0
1814	0	0
1815	0	0
1816	0	1
1817	0	1
1818	1	1
1819	1	1
1820	1	1
1821	1	1
1822	1	1
1823	1	1
1824	1	1
1825	1	1
1826	1	1
1827	1	1
1828	1	1
1829	1	1
1830	1	1
1831	1	1
1832	1	1
1833	1	1
1834	1	1
1835	1	1
1836	1	1
1837	1	1
1838	1	1
1839	1	1
1840	1	1
1841	1	1
1842	1	1
1843	1	1
1844	1	1
1845	1	1
1846	1	1
1847	1	1
1848	1	1
1849	1	1
1850	1	1
1851	1	1
1852	1	1
1853	1	1
1854	1	1
1855	1	1
1856	1	1
1857	1	1
1858	0	0.996466
1859	0	0
1860	0	0.998227
1861	0	0.996459
1862	0	0.996455
1863	0	0
1864	0	0
1865	0	0
1866	0	0
1867	0	0
1868	0	0
1869	0	0.5
1870	0	0.5
1871	0	0.2
1872	0	0.133333
1873	0	0.987502
1874	0	0.89442
1875	0	0.166667
1876	0	0.290909
1877	0	0.879899
1878	0	0.490286
1879	0	0.341991
1880	0	0.239766
1881	0	0.522876
1882	0	0.658333
1883	0	0.498762
1884	0	0.966545
1885	0	0.968294
1886	0	0.318182
1887	0	0.209524
1888	0	0.964097
1889	0	0.929417
1890	0	0.404045
1891	0	0.153846
1892	0	0.383631
1893	0	0.333333
1894	0	0.166667
1895	0	0.719101
1896	0	0
1897	0	0
1898	0	0
1899	0	0
1900	0	0
1901	0	0
1902	0	0
1903	0	0
1904	0	0
1905	0	0.825872
1906	0	0.621561
1907	0	0.380117
1908	0	0.490996
1909	0	0.24359
1910	0	0.25641
1911	0	0.206522
1912	0	0.270713
1913	0	0.339701
1914	0	0.331016
1915	0	0.870707
1916	0	0.492138
1917	0	1
1918	0	0.689655
1919	0	0.219692
1920	0	0.283333
1921	0	0.169118
1922	0	0.198529
1923	0	0.261438
1924	0	0.303715
1925	0	0.347927
1926	0	0.185367
1927	0	0.454646
1928	0	0.565347
1929	0	0.268116
1930	0	0.663673
1931	0	0.681418
1932	0	0.219185
1933	0	0.625744
1934	0	0.628525
1935	0	0.743604
1936	0	0.750958
1937	0	0.69697
1938	0	0.831962
1939	0	0.916625
1940	0	0.898734
1941	0	0.898847
1942	0	0.321429
1943	0	0.321429
1944	0	0.277778
1945	0	0.277778
1946	0	0.266667
1947	0	0.956265
1948	0	0.310526
1949	0	0.715467
1950	0	0.882353
1951	0	0.9911
1952	0	0.994695
1953	0	0.994695
1954	0	0.994695
1955	0	0.994695
1956	0	0.5
1957	1	1
1958	1	1
1959	1	1
1960	1	1
1961	1	1
1962	1	1
1963	1	1
1964	1	1
1965	1	1
1966	1	1
1967	1	1
1968	1	1
1969	1	1
1970	1	1
1971	1	1
1972	1	1
1973	0	1
1974	1	1
1975	1	1
1976	1	1
1977	1	1
1978	1	0
1979	1	0
1980	1	0
1981	1	0
1982	1	0
1983	1	0
1984	1	0
1985	1	0
1986	1	0
1987	1	0
1988	1	0
1989	1	0
1990	1	0
1991	1	0
1992	1	0
1993	1	0
1994	1	0
1995	1	0
1996	1	0
1997	1	0
1998	1	0
1999	1	0
2000	1	0
2001	1	0
2002	1	0
2003	1	0
2004	1	0
2005	1	0
2006	0	0.998233
2007	1	1
2008	1	1
2009	1	1
2010	1	1
2011	1	1
2012	1	1
2013	1	1
2014	1	1
2015	1	1
2016	1	1
2017	1	1
2018	1	1
2019	1	1
2020	1	1
2021	1	1
2022	1	1
2023	1	1
2024	1	1
2025	1	1
2026	1	1
2027	1	1
2028	1	1
2029	1	1
2030	1	1
2031	1	1
2032	1	1
2033	1	1
2034	1	1
2035	1	1
2036	1	1
2037	1	1
2038	1	1
2039	1	1
2040	1	1
2041	1	1
2042	1	1
2043	1	1
2044	1	1
2045	1	1
2046	1	1
2047	1	1
2048	1	1
2049	1	1
2050	1	1
2051	1	1
2052	0	0
2053	1	0
2054	1	0
2055	1	0
2056	1	0
2057	1	0
2058	1	0
2059	1	0
2060	1	0
2061	1	0
2062	1	0
2063	1	0
2064	1	0
2065	1	0
2066	1	0
2067	1	0
2068	1	0
2069	1	0
2070	1	0
2071	1	0
2072	1	0
2073	1	0
2074	1	0
2075	1	0
2076	0	0.998235
2077	1	1
2078	1	1
2079	1	1
2080	0	0.998235
2081	0	0.998235
2082	0	0.998235
2083	0	0.998235
2084	1	0
2085	1	0
2086	1	0
2087	1	0
2088	1	0
2089	1	0
2090	1	0
2091	1	1
2092	1	1
2093	1	1
2094	1	1
2095	1	1
2096	1	1
2097	1	1
2098	1	1
2099	1	1
2100	1	1
2101	1	1
2102	1	1
2103	1	1
2104	1	1
2105	1	1
2106	1	1
2107	1	1
2108	1	1
2109	1	1
2110	1	1
2111	1	1
2112	1	1
2113	1	1
2114	1	1
2115	1	1
2116	0	0
2117	1	0
2118	1	0
2119	1	0
2120	1	0
2121	0	0
2122	0	0.883774
2123	0	1
2124	0	1
2125	1	1
2126	1	1
2127	1	1
2128	1	1
2129	1	1
2130	1	1
2131	1	1
2132	1	1
2133	1	1
2134	1	1
2135	1	1
2136	1	1
2137	1	1
2138	1	1
2139	1	1
2140	1	1
2141	1	1
2142	1	1
2143	1	1
2144	1	1
2145	0	1
2146	1	1
2147	1	1
2148	1	1
2149	1	1
2150	1	1
2151	1	1
2152	1	1
2153	1	1
2154	1	1
2155	1	1
2156	1	1
2157	1	1
2158	1	1
2159	1	1
2160	1	1
2161	1	1
2162	0	1
2163	0	1
2164	0	1
2165	0	1
2166	1	1
2167	1	1
2168	1	1
2169	1	1
2170	1	1
2171	1	1
2172	1	1
2173	1	1
2174	1	1
2175	1	1
2176	1	1
2177	1	1
2178	1	1
2179	1	1
2180	0	0.998233
2181	1	1
2182	1	1
2183	1	1
2184	1	1
2185	1	1
2186	1	1
2187	1	1
2188	1	1
2189	1	1
2190	1	1
2191	1	1
2192	1	1
2193	1	1
2194	0	1
2195	0	1
2196	0	0.666667
2197	0	0.666667
2198	0	1
2199	0	1
2200	0	1
2201	0	1
2202	0	0.6
2203	0	0.6
2204	0	0.4
2205	0	0.3
2206	0	0.3
2207	0	0.3
2208	0	0.3
2209	0	0.3
2210	0	0.3
2211	0	0.288889
2212	0	0
2213	0	0
2214	0	0
2215	0	0
2216	0	0
2217	0	0
2218	0	0
2219	0	0
2220	0	0
2221	0	0
2222	0	0
2223	0	0
2224	0	0
2225	0	0
2226	0	0.601715
2227	0	0
2228	0	0
2229	0	0
2230	0	0
2231	0	0
2232	0	0
2233	0	0
2234	0	0
2235	0	0
2236	0	0
2237	0	1
2238	0	1
2239	0	1
2240	0	1
2241	0	1
2242	0	0.788937
2243	0	1
2244	1	1
2245	1	1
2246	1	1
2247	1	1
2248	1	1
2249	1	1
2250	1	1
2251	1	1
2252	1	1
2253	1	1
2254	1	1
2255	1	1
2256	1	1
2257	1	1
2258	1	1
2259	1	1
2260	1	1
2261	1	1
2262	1	1
2263	1	1
2264	1	1
2265	1	1
2266	1	1
2267	1	1
2268	1	1
2269	1	1
2270	1	1
2271	1	1
2272	1	1
2273	1	1
2274	0	0
2275	0	0.998235
2276	1	1
2277	1	1
2278	1	1
2279	1	1
2280	1	1
2281	1	1
2282	1	1
2283	1	1
2284	1	1
2285	1	1
2286	1	1
2287	1	1
2288	1	1
2289	1	1
2290	1	1
2291	1	1
2292	1	1
2293	1	0
2294	1	0
2295	1	0
2296	1	0
2297	1	0
2298	1	0
2299	1	0
2300	1	0
2301	1	1
2302	1	1
2303	1	1
2304	1	1
2305	1	1
2306	1	1
2307	1	1
2308	1	1
2309	1	1
2310	1	1
2311	1	1
2312	0	0.998236
2313	1	1
2314	1	1
2315	1	1
2316	1	1
2317	1	1
2318	1	1
2319	1	1
2320	1	1
2321	1	1
2322	1	1
2323	1	1
2324	1	1
2325	1	1
2326	1	1
2327	1	1
2328	1	1
2329	1	1
2330	1	1
2331	1	1
2332	1	1
2333	1	1
2334	1	1
2335	0	0.998235
2336	1	0
2337	1	0
2338	1	0
2339	1	0
2340	1	0
2341	1	0
2342	1	0
2343	1	0
2344	1	0
2345	1	0
2346	1	0
2347	1	0
2348	1	0
2349	1	0
2350	1	0
2351	1	0
2352	1	0
2353	1	0
2354	1	0
2355	1	0
2356	1	0
2357	1	0
2358	0	0
2359	0	1
2360	1	1
2361	1	1
2362	1	1
2363	1	1
2364	1	1
2365	1	1
2366	1	1
2367	1	1
2368	0	0.756876
2369	0	1
2370	0	0.790723
2371	0	0.996463
2372	0	0.333333
2373	0	0.998232
2374	0	0.998232
2375	0	0.998232
2376	0	0.998232
2377	1	1
2378	1	1
2379	1	1
2380	1	1
2381	1	1
2382	1	1
2383	1	1
2384	1	1
2385	0	1
2386	0	1
2387	1	1
2388	1	1
2389	1	1
2390	1	1
2391	0	0.998219
2392	1	1
2393	1	1
2394	1	1
2395	1	1
2396	0	1
2397	1	1
2398	1	1
2399	1	1
2400	1	1
2401	1	1
2402	1	1
2403	1	1
2404	1	1
2405	1	1
2406	0	1
2407	1	1
2408	1	1
2409	1	1
2410	1	1
2411	1	1
2412	1	1
2413	1	1
2414	1	1
2415	1	1
2416	1	1
2417	1	1
2418	1	1
2419	1	1
2420	1	1
2421	1	1
2422	1	1
2423	1	1
2424	1	1
2425	1	1
2426	0	0.998211
2427	0	0.998209
2428	1	1
2429	1	1
2430	1	1
2431	0	0.50278
2432	0	0
2433	0	0
2434	0	0
2435	0	0
2436	0	0
2437	0	0
2438	0	0
2439	1	0
2440	1	0
2441	1	0
2442	0	0
2443	0	0.888889
2444	0	0.652381
2445	0	0.483126
2446	0	0
2447	0	0
2448	0	0
2449	0	0
2450	0	0
2451	0	0
2452	0	0
2453	0	1
2454	0	1
2455	0	1
2456	0	0.516392
2457	0	0.998229
2458	0	0.998229
2459	0	0.996462
2460	1	1
2461	1	1
2462	1	1
2463	0	1
2464	1	1
2465	1	1
2466	1	1
2467	1	1
2468	1	1
2469	1	1
2470	1	1
2471	0	0.998233
2472	1	1
2473	1	1
2474	1	1
2475	1	1
2476	1	1
2477	1	1
2478	1	1
2479	1	1
2480	1	1
2481	1	1
2482	1	1
2483	1	1
2484	0	1
2485	0	1
2486	0	0.992952
2487	0	0.639215
2488	0	0.639215
2489	0	1
2490	0	0.681187
2491	0	0
2492	1	0
2493	1	0
2494	1	0
2495	1	0
2496	1	0
2497	1	0
2498	0	1
2499	1	1
2500	1	1
2501	1	1
2502	0	0.998233
2503	0	0.998233
2504	0	1
2505	1	1
2506	1	1
2507	0	0.998233
2508	0	0.998233
2509	1	1
2510	1	1
2511	1	1
2512	1	1
2513	1	1
2514	1	1
2515	0	1
2516	0	1
2517	1	1
2518	1	1
2519	1	1
2520	1	1
2521	1	1
2522	1	1
2523	1	1
2524	0	1
2525	0	1
2526	1	1
2527	1	1
2528	1	1
2529	1	1
2530	1	1
2531	0	0.998233
2532	0	0.998233
2533	1	1
2534	1	1
2535	1	1
2536	1	1
2537	1	1
2538	1	1
2539	0	0.996466
2540	0	0.9947
2541	0	0
2542	0	0
2543	0	0.938257
2544	0	0.938257
2545	0	1
2546	0	1
2547	0	1
2548	0	1
2549	0	1
2550	0	1
2551	0	1
2552	0	1
2553	0	1
2554	0	1
2555	0	0.333333
2556	0	0.333333
2557	0	0.333333
2558	0	0.333333
2559	0	0.333333
2560	0	0.333333
2561	0	0.333333
2562	0	0.333333
2563	0	0.333333
2564	0	0.910429
2565	0	0.714286
2566	0	0.714286
2567	0	0.714286
2568	0	0.714286
2569	0	0.714286
2570	0	0.714286
2571	0	0.714286
2572	0	0.714286
2573	0	0.714286
2574	0	0.714286
2575	0	0.47619
2576	0	0.666667
2577	0	0.4
2578	0	0.3
2579	0	0.3
2580	0	0.333333
2581	0	0.333333
2582	0	0.333333
2583	0	0.333333
2584	0	0.333333
2585	0	1
2586	0	1
2587	0	1
2588	0	1
2589	0	1
2590	0	1
2591	0	1
2592	1	1
2593	1	1
2594	1	1
2595	1	1
2596	0	0
2597	0	0.998232
2598	0	0.998232
2599	1	1
2600	1	1
2601	1	1
2602	1	1
2603	1	1
2604	1	1
2605	1	1
2606	1	1
2607	1	1
2608	1	1
2609	1	1
2610	1	1
2611	1	1
2612	1	1
2613	1	1
2614	1	1
2615	1	1
2616	1	1
2617	1	1
2618	1	1
2619	1	1
2620	1	1
2621	1	1
2622	1	1
2623	1	1
2624	1	1
2625	1	1
2626	1	1
2627	1	1
2628	1	1
2629	1	1
2630	1	1
2631	1	1
2632	1	1
2633	1	1
2634	1	1
2635	1	1
2636	1	1
2637	1	1
2638	1	1
2639	0	0.998235
2640	1	1
2641	1	1
2642	0	1
2643	1	1
2644	1	1
2645	0	0.666667
2646	1	1
2647	0	0.6
2648	0	0.6
2649	0	0.6
2650	0	0.6
2651	0	0.5
2652	0	0.5
2653	0	0.5
2654	0	0.5
2655	0	0.5
2656	0	0.5
2657	0	0.5
2658	0	1
2659	0	0.532065
2660	0	1
2661	0	1
2662	0	0.998232
2663	0	0.998232
2664	0	0.998232
2665	0	0.998232
2666	0	0.998232
2667	0	0.998232
2668	0	0.998232
2669	0	0.998232
2670	0	0.998232
2671	0	0.998232
2672	0	0.998232
2673	0	0.998232
2674	0	0.998232
2675	0	0.998232
2676	0	0.998232
2677	1	1
2678	1	1
2679	1	1
2680	1	1
2681	1	1
2682	1	1
2683	1	1
2684	1	1
2685	1	1
2686	1	1
2687	1	1
2688	1	1
2689	1	1
2690	1	1
2691	1	1
2692	1	1
2693	1	1
2694	1	1
2695	1	1
2696	1	1
2697	1	1
2698	1	1
2699	1	1
2700	1	1
2701	0	1
2702	0	1
2703	0	1
2704	0	0.976611
2705	0	0.532062
2706	1	1
2707	0	1
2708	0	0.464286
2709	0	0.786748
2710	0	0.901523
2711	0	1
2712	0	1
2713	0	0.996459
2714	0	0.998232
2715	0	0.998232
2716	0	0.998232
2717	0	0.998232
2718	0	0.998232
2719	1	1
2720	1	1
2721	1	1
2722	1	1
2723	1	1
2724	1	1
2725	1	1
2726	1	1
2727	1	1
2728	1	1
2729	1	1
2730	1	1
2731	1	1
2732	1	1
2733	1	1
2734	0	1
2735	0	1
2736	0	1
2737	0	1
2738	0	1
2739	0	1
2740	1	1
2741	0	0
2742	0	0
2743	0	0
2744	0	0
2745	1	0
2746	1	0
2747	1	0
2748	1	0
2749	1	0
2750	1	0
2751	1	0
2752	1	0
2753	1	0
2754	0	0
2755	0	0
2756	0	0.996466
2757	0	0.989438
2758	0	0
2759	0	0
2760	0	0
2761	1	1
2762	1	1
2763	1	1
2764	1	1
2765	1	1
2766	1	1
2767	1	1
2768	1	1
2769	1	1
2770	1	1
2771	1	1
2772	1	1
2773	1	1
2774	1	1
2775	1	1
2776	1	1
2777	1	1
2778	0	0.606507
2779	1	1
2780	1	1
2781	1	1
2782	0	0.993399
2783	0	1
2784	1	1
2785	1	1
2786	1	1
2787	0	0.998229
2788	0	0.6
2789	0	0.992933
2790	0	0.992933
2791	0	0.991095
2792	0	0.989305
2793	0	0
2794	0	0.777778
2795	0	0.792924
2796	0	0.490771
2797	0	0.49013
2798	0	0.639433
2799	0	0
2800	0	0
2801	0	0.958333
2802	0	0.529847
2803	0	0.662566
2804	0	0.664903
2805	0	0.588661
2806	0	0.841941
2807	0	0.285714
2808	0	0.955105
2809	0	0.466667
2810	0	1
2811	0	0.998229
2812	0	1
2813	1	1
2814	1	1
2815	1	1
2816	1	1
2817	0	1
2818	0	1
2819	0	1
2820	1	1
2821	1	1
2822	1	1
2823	1	1
2824	0	0.984156
2825	0	0.984156
2826	0	0.994657
2827	0	1
2828	0	1
2829	1	1
2830	0	1
2831	1	0
2832	0	1
2833	0	0
2834	0	0
2835	0	0
2836	0	0
2837	0	0
2838	0	0
2839	0	0
2840	0	0
2841	0	0
2842	0	0
2843	0	0.996449
2844	0	0.996449
2845	0	0.996452
2846	0	0
2847	0	0
2848	0	0
2849	0	0
2850	0	0
2851	0	0
2852	0	0
2853	0	0
2854	0	0
2855	0	0.998229
2856	1	1
2857	1	1
2858	1	1
2859	1	1
2860	1	1
2861	1	1
2862	1	1
2863	1	1
2864	1	1
2865	1	1
2866	0	0.996463
2867	0	0.996463
2868	0	0.996463
2869	1	1
2870	1	1
2871	1	1
2872	1	1
2873	1	1
2874	1	1
2875	1	1
2876	1	1
2877	1	1
2878	1	1
2879	1	1
2880	1	1
2881	1	1
2882	1	1
2883	1	1
2884	1	1
2885	1	1
2886	1	1
2887	1	1
2888	1	1
2889	1	1
2890	1	1
2891	1	1
2892	1	1
2893	1	1
2894	1	1
2895	1	1
2896	0	0.996463
2897	0	0.996463
2898	0	0.996463
2899	0	1
2900	0	1
2901	0	1
2902	0	0.333333
2903	0	0.998229
2904	0	1
2905	0	1
2906	0	1
2907	0	1
2908	0	1
2909	0	1
2910	0	1
2911	0	1
2912	0	1
2913	1	1
2914	1	1
2915	1	1
2916	1	1
2917	1	1
2918	1	1
2919	1	1
2920	0	0
2921	0	1
2922	0	1
2923	0	1
2924	0	0.538306
2925	0	0.917538
2926	0	0.833333
2927	0	0.3
2928	0	0.488355
2929	0	0.710206
2930	0	0.427957
2931	0	0.384615
2932	0	0.290909
2933	0	0.444444
2934	0	0.466667
2935	0	0.277778
2936	0	0.367647
2937	0	0.521712
2938	0	0.526262
2939	0	1
2940	0	1
2941	0	1
2942	0	1
2943	0	1
2944	1	1
2945	1	1
2946	1	1
2947	0	0.6
2948	0	0.6
2949	0	0.5
2950	0	0.5
2951	0	0.5
2952	0	0.648764
2953	0	0.47619
2954	0	1
2955	0	0.665705
2956	0	0.5
2957	0	0.6
2958	0	1
2959	0	1
2960	0	0.994671
2961	0	0.994671
2962	0	0
2963	0	0.98762
2964	0	0.989385
2965	0	0.989385
2966	0	0.994686
2967	0	0.992928
2968	0	0.992928
2969	0	0.991163
2970	0	0.991163
2971	0	0.992922
2972	0	0.989392
2973	0	0.992909
2974	0	0.99114
2975	0	0.989382
2976	0	0.99114
2977	0	0.984106
2978	0	0.984106
2979	0	0.982353
2980	0	0.994657
2981	0	0.994662
2982	0	0.994662
2983	0	1
2984	0	0
2985	0	0
2986	0	0
2987	0	0
2988	0	0
2989	0	0
2990	0	0
2991	0	0
2992	0	0
2993	0	0
2994	0	0
2995	0	0
2996	0	0
2997	0	0
2998	0	0
2999	0	0
3000	0	0
3001	0	0
3002	0	0
3003	0	0
3004	0	0
3005	0	0
3006	0	0
3007	0	0
3008	0	0
3009	0	0
3010	0	0
3011	0	0
3012	0	0
3013	0	0
3014	0	0
3015	0	0
3016	0	0
3017	0	0
3018	0	0
3019	0	0
3020	0	0
3021	1	0
3022	0	0
3023	0	0
3024	0	0
3025	0	0
3026	0	0
3027	0	0
3028	0	0
3029	0	0
3030	0	0
3031	0	0
3032	0	0
3033	0	0
3034	0	0
3035	0	0
3036	0	0
3037	0	0
3038	0	0
3039	0	0
3040	0	0
3041	0	0
3042	0	0
3043	0	0
3044	0	0
3045	0	0
3046	0	0
3047	0	0
3048	0	0
3049	0	0
3050	0	0
3051	0	0
3052	0	0
3053	0	0
3054	0	0
3055	0	0
3056	0	0
3057	0	0
3058	1	0
3059	1	0
3060	0	0
3061	0	0
3062	0	0
3063	0	0
3064	0	0
3065	0	0
3066	0	0
3067	0	0
3068	0	0
3069	0	0
3070	0	0
3071	0	0
3072	0	0
3073	0	0
3074	1	0
3075	1	0
3076	1	0
3077	1	0
3078	1	0
3079	1	0
3080	1	0
3081	1	0
3082	1	0
3083	1	0
3084	1	0
3085	1	0
3086	1	0
3087	1	0
3088	1	0
3089	1	0
3090	0	0
3091	0	0
3092	0	0
3093	0	0
3094	0	0
3095	0	0
3096	0	0
3097	0	0
3098	0	0
3099	0	0
3100	0	0
3101	0	0
3102	0	0
3103	0	0
3104	0	0
3105	0	0
3106	0	0
3107	0	0
3108	0	0
3109	0	0
3110	0	0
3111	0	0
3112	0	0
3113	0	0
3114	0	0
3115	0	0
3116	0	0
3117	0	0
3118	0	0
3119	0	0
3120	0	0
3121	0	0
3122	0	0
3123	0	0
3124	0	0
3125	0	0
3126	0	0
3127	0	0
3128	0	0
3129	0	0
3130	0	0
3131	0	0
3132	0	0
3133	0	0
3134	0	0
3135	0	0
3136	0	0
3137	0	0
3138	0	0
3139	0	0
3140	0	0
3141	0	0
3142	0	0
3143	0	0
3144	0	0
3145	0	0
3146	0	0
3147	0	0
3148	0	0
3149	0	0
3150	0	0
3151	0	0
3152	0	0
3153	0	0
3154	0	0
3155	0	0
3156	0	0
3157	0	0
3158	0	0
3159	0	0
3160	0	0
3161	0	0
3162	0	0
3163	0	0
3164	0	0
3165	0	0.998225
3166	0	0.998225
3167	0	1
3168	0	1
3169	0	1
3170	0	1
3171	0	1
3172	0	1
3173	0	1
3174	0	1
3175	0	1
3176	0	1
3177	0	1
3178	0	1
3179	0	1
3180	0	1
3181	0	0.99116
3182	0	0.99116
3183	0	0
3184	0	0
3185	0	0
3186	0	0
3187	0	0
3188	0	0
3189	0	0
3190	0	0
3191	0	0
3192	0	0
3193	0	0
3194	0	0
3195	0	0
3196	0	0
3197	0	0
3198	0	0
3199	0	0
3200	0	0
3201	0	0
3202	0	0
3203	0	0
3204	0	0
3205	0	0
3206	0	0
3207	0	0
3208	0	0
3209	0	0
3210	0	0
3211	0	0
3212	0	0
3213	0	0
3214	0	0
3215	0	0
3216	0	0
3217	0	0
3218	0	0
3219	0	0
3220	0	0
3221	0	0
3222	0	0
3223	0	0
3224	0	0
3225	0	0
3226	0	0
3227	0	0
3228	0	0
3229	0	0
3230	0	0
3231	0	0
3232	0	0
3233	0	0
3234	0	0
3235	0	0
3236	0	0
3237	0	0
3238	0	0
3239	0	0
3240	0	0
3241	0	0
3242	0	0
3243	0	0
3244	0	0
3245	0	0
3246	0	0
3247	0	0
3248	0	0
3249	0	0
3250	0	0
3251	0	0
3252	0	0
3253	0	0
3254	0	0
3255	0	0
3256	0	0
3257	0	0
3258	0	0
3259	0	0
3260	0	0
3261	0	0
3262	0	0
3263	0	0
3264	0	0
3265	0	0
3266	0	0
3267	0	0
3268	0	0
3269	0	0
3270	0	0
3271	0	0
3272	0	0
3273	0	0
3274	0	0
3275	0	0
3276	0	0
3277	1	0
3278	1	0
3279	1	0
3280	1	0
3281	1	0
3282	1	0
3283	1	0
3284	0	0
3285	0	0
3286	0	0
3287	0	0
3288	0	0
3289	0	0
3290	0	0
3291	0	0
3292	0	0
3293	0	0
3294	0	0
3295	0	0
3296	0	0
3297	0	0
3298	0	0
3299	0	0
3300	0	0
3301	0	0
3302	0	0
3303	0	0
3304	0	0
3305	0	0
3306	0	0
3307	0	0
3308	0	0
3309	0	0
3310	1	0
3311	1	0
3312	1	0
3313	1	0
3314	1	0
3315	1	0
3316	1	0
3317	1	0
3318	1	0
3319	1	0
3320	1	0
3321	1	0
3322	1	0
3323	0	0
3324	0	0
3325	0	0
3326	0	0
3327	0	0
3328	0	0
3329	0	0
3330	0	0
3331	0	0
3332	0	0
3333	0	0
3334	0	0
3335	0	0
3336	0	0
3337	0	0
3338	0	0
3339	0	0
3340	0	0
3341	0	0
3342	1	0
3343	1	0
3344	1	0
3345	1	0
3346	1	0
3347	1	0
3348	0	0
3349	0	0
3350	0	0
3351	1	0
3352	1	0
3353	1	0
3354	1	0
3355	0	0
3356	0	0
3357	0	0
3358	0	0
3359	0	0
3360	1	0
3361	1	0
3362	1	0
3363	1	0
3364	1	0
3365	1	0
3366	0	0
3367	0	0
3368	0	0
3369	0	0
3370	0	0
3371	0	0
3372	0	0
3373	0	0
3374	0	0
3375	0	0
3376	0	0
3377	0	0
3378	0	0
3379	0	0
3380	0	0
3381	0	0
3382	0	0
3383	0	0
3384	0	0
3385	0	0
3386	0	0
3387	0	0
3388	0	0
3389	0	0
3390	1	0
3391	1	0
3392	1	0
3393	1	0
3394	1	0
3395	1	0
3396	1	0
3397	1	0
3398	1	0
3399	1	0
3400	0	0
3401	0	0
3402	0	0
3403	0	0
3404	0	0
3405	0	0
3406	0	0
3407	0	0
3408	0	0
3409	0	0
3410	0	0
3411	0	0
3412	0	0
3413	0	0
3414	0	0
3415	0	0
3416	0	0
3417	0	0
3418	0	0
3419	1	0
3420	0	0
3421	0	0
3422	0	0
3423	0	0
3424	0	0
3425	0	0
3426	0	0
3427	0	0
3428	0	0
3429	0	0
3430	0	0
3431	0	0
3432	0	0
3433	0	0
3434	0	0
3435	0	0
3436	0	0
3437	0	0
3438	0	0
3439	0	0
3440	0	0
3441	0	0
3442	1	0
3443	1	0
3444	1	0
3445	1	0
3446	1	0
3447	1	0
3448	0	0
3449	1	0
3450	1	0
3451	1	0
3452	0	0
3453	0	0
3454	0	0
3455	0	0
3456	0	0
3457	0	0
3458	0	0
3459	0	0
3460	0	0
3461	0	0
3462	0	0
3463	0	0
3464	0	0
3465	1	0
3466	1	0
3467	1	0
3468	1	0
3469	1	0
3470	1	0
3471	1	0
3472	1	0
3473	1	0
3474	1	0
3475	1	0
3476	1	0
3477	0	0
3478	0	0
3479	0	0
3480	0	0
3481	0	0
3482	0	0
3483	0	0
3484	0	0
3485	0	0
3486	0	0
3487	0	0
3488	0	0
3489	0	0
3490	0	0
3491	0	0
3492	0	0
3493	0	0
3494	0	0
3495	0	0
3496	0	0
3497	0	0
3498	0	0
3499	0	0
3500	0	0
3501	0	0
3502	0	0
3503	0	0
3504	0	0
3505	0	0
3506	0	0
3507	0	0
3508	0	0
3509	0	0
3510	0	0
3511	0	0
3512	1	0
3513	1	0
3514	1	0
3515	1	0
3516	1	0
3517	1	0
3518	1	0
3519	1	0
3520	1	0
3521	1	0
3522	1	0
3523	1	0
3524	1	0
3525	1	0
3526	1	0
3527	1	0
3528	1	0
3529	1	0
3530	1	0
3531	1	0
3532	1	0
3533	1	0
3534	1	0
3535	1	0
3536	1	0
3537	1	0
3538	1	0
3539	1	0
3540	1	0
3541	1	0
3542	1	0
3543	1	0
3544	1	0
3545	1	0
3546	1	0
3547	1	0
3548	1	0
3549	1	0
3550	1	0
3551	1	0
3552	1	0
3553	1	0
3554	1	0
3555	1	0
3556	1	0
3557	1	0
3558	1	0
3559	1	0
3560	1	0
3561	1	0
3562	1	0
3563	1	0
3564	1	0
3565	1	0
3566	0	0
3567	0	0
3568	0	0
3569	0	0
3570	0	0
3571	0	0
3572	0	0
3573	0	0
3574	0	0
3575	0	0
3576	0	0
3577	0	0
3578	0	0
3579	0	0
3580	0	0
3581	0	0
3582	0	0
3583	0	0
3584	1	0
3585	1	0
3586	1	0
3587	1	0
3588	1	0
3589	1	0
3590	1	0
3591	1	0
3592	1	0
3593	0	0
3594	0	0
3595	0	0
3596	0	0
3597	0	0
3598	0	0
3599	0	0
3600	0	0
3601	0	0
3602	0	0
3603	0	0
3604	0	0
3605	0	0
3606	0	0
3607	1	0
3608	1	0
3609	1	0
3610	0	0
3611	0	0
3612	0	0
3613	0	0
3614	0	0
3615	0	0
3616	0	0
3617	1	0
3618	1	0
3619	0	0
3620	0	0
3621	0	0
3622	0	0
3623	1	0
3624	0	0
3625	0	0
3626	0	0
3627	0	0
3628	0	0
3629	0	0
3630	0	0
3631	1	0
3632	1	0
3633	1	0
3634	1	0
3635	1	0
3636	1	0
3637	1	0
3638	1	0
3639	1	0
3640	1	0
3641	1	0
3642	1	0
3643	1	0
3644	1	0
3645	1	0
3646	1	0
3647	1	0
3648	1	0
3649	1	0
3650	1	0
3651	1	0
3652	1	0
3653	0	0
3654	0	0
3655	0	0
3656	0	0
3657	0	0
3658	0	0
3659	0	0
3660	0	0
3661	0	0
3662	0	0
3663	0	0
3664	0	0
3665	0	0
3666	1	0
3667	1	0
3668	1	0
3669	1	0
3670	1	0
3671	1	0
3672	1	0
3673	1	0
3674	0	0
3675	0	0
3676	0	0
3677	0	0
3678	0	0
3679	0	0
3680	0	0
3681	0	0
3682	0	0
3683	0	0
3684	0	0
3685	0	0
3686	1	0
3687	0	0
3688	0	0
3689	0	0
3690	0	0
3691	0	0
3692	0	0
3693	0	0
3694	0	0
3695	0	0
3696	0	0
3697	0	0
3698	0	0
3699	0	0
3700	0	0
3701	0	0
3702	0	0
3703	0	0
3704	0	0
3705	0	0
3706	0	0
3707	0	0
3708	0	0
3709	0	0
3710	0	0
3711	0	0
3712	0	0
3713	0	0
3714	0	0
3715	0	0
3716	0	0
3717	0	0
3718	0	0
3719	0	0
3720	0	0
3721	0	0
3722	0	0
3723	0	0
3724	0	0
3725	0	0
3726	0	0
3727	0	0
3728	0	0
3729	0	0
3730	0	0
3731	0	0
3732	0	0
3733	0	0
3734	0	0
3735	0	0
3736	0	0
3737	0	0
3738	0	0
3739	0	0
3740	0	0
3741	0	0
3742	0	0
3743	0	0
3744	0	0
3745	0	0
3746	0	0
3747	0	0
3748	0	0
3749	0	0
3750	0	0
3751	0	0
3752	0	0
3753	0	0
3754	0	0
3755	0	0
3756	0	0
3757	0	0
3758	0	0
3759	0	0
3760	0	0
3761	0	0
3762	0	0
3763	0	0
3764	0	0
3765	0	0
3766	0	0
3767	0	0
3768	0	0
3769	0	0
3770	0	0
3771	0	0
3772	0	0
3773	0	0
3774	0	0
3775	0	0
3776	0	0
3777	0	0
3778	1	0
3779	1	0
3780	1	0
3781	1	0
3782	1	0
3783	1	0
3784	1	0
3785	1	0
3786	0	0
3787	0	0
3788	0	0
3789	0	0
3790	0	0
3791	0	0
3792	0	0
3793	0	0
3794	0	0
3795	0	0
3796	1	0
3797	1	0
3798	1	0
3799	1	0
3800	1	0
3801	1	0
3802	1	0
3803	1	0
3804	1	0
3805	1	0
3806	1	0
3807	1	0
3808	1	0
3809	1	0
3810	1	0
3811	1	0
3812	1	0
3813	1	0
3814	1	0
3815	1	0
3816	1	0
3817	1	0
3818	1	0
3819	1	0
3820	1	0
3821	1	0
3822	1	0
3823	1	0
3824	1	0
3825	1	0
3826	1	0
3827	1	0
3828	1	0
3829	1	0
3830	1	0
3831	1	0
3832	1	0
3833	1	0
3834	1	0
3835	1	0
3836	1	0
3837	1	0
3838	1	0
3839	1	0
3840	1	0
3841	1	0
3842	1	0
3843	1	0
3844	1	0
3845	1	0
3846	1	0
3847	1	0
3848	1	0
3849	1	0
3850	1	0
3851	1	0
3852	1	0
3853	1	0
3854	1	0
3855	1	0
3856	1	0
3857	1	0
3858	1	0
3859	1	0
3860	1	0
3861	1	0
3862	1	0
3863	1	0
3864	1	0
3865	1	0
3866	1	0
3867	1	0
3868	1	0
3869	1	0
3870	1	0
3871	1	0
3872	1	0
3873	1	0
3874	1	0
3875	1	0
3876	1	0
3877	1	0
3878	1	0
3879	1	0
3880	1	0
3881	1	0
3882	1	0
3883	1	0
3884	1	0
3885	1	0
3886	1	0
3887	1	0
3888	1	0
3889	1	0
3890	1	0
3891	1	0
3892	1	0
3893	1	0
3894	1	0
3895	1	0
3896	1	0
3897	1	0
3898	1	0
3899	1	0
3900	1	0
3901	1	0
3902	1	0
3903	1	0
3904	1	0
3905	1	0
3906	1	0
3907	1	0
3908	1	0
3909	1	0
3910	1	0
3911	1	0
3912	1	0
3913	1	0
3914	1	0
3915	1	0
3916	1	0
3917	1	0
3918	1	0
3919	1	0
3920	1	0
3921	1	0
3922	1	0
3923	1	0
3924	1	0
3925	1	0
3926	1	0
3927	1	0
3928	1	0
3929	1	0
3930	1	0
3931	1	0
3932	1	0
3933	1	0
3934	1	0
3935	1	0
3936	1	0
3937	1	0
3938	1	0
3939	1	0
3940	1	0
3941	1	0
3942	1	0
3943	1	0
3944	1	0
3945	1	0
3946	1	0
3947	1	0
3948	1	0
3949	1	0
3950	1	0
3951	1	0
3952	1	0
3953	1	0
3954	1	0
3955	1	0
3956	1	0
3957	1	0
3958	1	0
3959	1	0
3960	1	0
3961	1	0
3962	1	0
3963	1	0
3964	1	0
3965	1	0
3966	1	0
3967	1	0
3968	1	0
3969	1	0
3970	1	0
3971	1	0
3972	1	0
3973	1	0
3974	1	0
3975	1	0
3976	1	0
3977	1	0
3978	1	0
3979	1	0
3980	1	0
3981	1	0
3982	1	0
3983	1	0
3984	1	0
3985	1	0
3986	1	0
3987	1	0
3988	1	0
3989	1	0
3990	1	0
3991	1	0
3992	1	0
3993	1	0
3994	1	0
3995	1	0
3996	1	0
3997	1	0
3998	1	0
3999	1	0
4000	1	0
4001	1	0
4002	1	0
4003	1	0
4004	1	0
4005	1	0
4006	1	0
4007	1	0
4008	1	0
4009	1	0
4010	1	0
4011	1	0
4012	1	0
4013	1	0
4014	1	0
4015	1	0
4016	1	0
4017	1	0
4018	1	0
4019	1	0
4020	1	0
4021	1	0
4022	1	0
4023	1	0
4024	1	0
4025	1	0
4026	1	0
4027	1	0
4028	1	0
4029	1	0
4030	1	0
4031	1	0
4032	1	0
4033	1	0
4034	1	0
4035	1	0
4036	1	0
4037	1	0
4038	1	0
4039	1	0
4040	1	0
4041	1	0
4042	1	0
4043	1	0
4044	1	0
4045	1	0
4046	1	0
4047	1	0
4048	1	0
4049	1	0
4050	1	0
4051	1	0
4052	1	0
4053	1	0
4054	1	0
4055	1	0
4056	1	0
4057	1	0
4058	1	0
4059	1	0
4060	1	0
4061	0	0
4062	0	0
4063	0	0
4064	0	0
4065	0	0
4066	0	0
4067	0	0
4068	0	0
4069	0	0
4070	0	0
4071	0	0
4072	0	0
4073	0	0
4074	0	0
4075	0	0
4076	0	0
4077	0	0
4078	0	0
4079	0	0
4080	0	0
4081	0	0
4082	0	0
4083	0	0
4084	0	0
4085	0	0
4086	0	0
4087	0	0
4088	0	0
4089	0	0.985886
4090	0	0.985899
4091	0	0.985899
4092	0	0
4093	0	0
4094	0	0.985874
4095	0	0.966716
4096	0	0
4097	0	0
4098	0	0
4099	0	0
4100	0	0
4101	0	0
4102	0	0
4103	0	0
4104	0	0
4105	0	0
4106	0	0
4107	0	0
4108	0	0
4109	0	0
4110	0	0
4111	0	0
4112	0	0
4113	0	0
4114	0	0
4115	0	0
4116	0	0
4117	0	0.5
4118	0	0.968249
4119	0	0.5
4120	0	0.43956
4121	0	0.396761
4122	0	0.371795
4123	0	0.285714
4124	0	0.698505
4125	0	0.535491
4126	0	0.699367
4127	0	0.654545
4128	0	0.375
4129	0	0.868988
4130	0	0.332097
4131	0	0.285714
4132	0	0.266667
4133	0	0.815417
4134	0	0.505631
4135	0	0.257188
4136	0	0.214286
4137	0	0
4138	0	0
4139	0	0
4140	0	0
4141	0	0
4142	0	0
4143	0	0
4144	0	0
4145	0	0
4146	0	0
4147	0	0
4148	0	0
4149	0	0
4150	0	0
4151	0	0
4152	0	0
4153	0	0
4154	0	0.0666667
4155	0	0.166667
4156	0	0.2
4157	0	0.619888
4158	0	0.28812
4159	0	0.288027
4160	0	0.319088
4161	0	0.0879121
4162	0	0
4163	0	0
4164	0	0
4165	0	0
4166	0	0
4167	0	0
4168	0	0
4169	0	0
4170	0	0
4171	0	0
4172	0	0
4173	0	0
4174	0	0
4175	0	0
4176	0	0
4177	0	0
4178	0	0
4179	0	0
4180	0	0
4181	0	0
4182	0	0
4183	0	0
4184	0	0
4185	0	0
4186	0	0
4187	0	0
4188	0	0
4189	0	0
4190	0	0
4191	0	0
4192	0	0
4193	0	0
4194	0	0
4195	0	0
4196	0	0
4197	0	0
4198	0	0
4199	0	0
4200	0	0
4201	0	0
4202	0	0
4203	0	0
4204	0	0
4205	0	0
4206	0	0
4207	0	0
4208	0	0
4209	0	0
4210	0	0
4211	0	0
4212	0	0
4213	0	0
4214	0	0
4215	0	0
4216	0	0
4217	0	0
4218	0	0
4219	0	0
4220	0	0
4221	0	0
4222	0	0
4223	0	0
4224	0	0
4225	0	0
4226	0	0
4227	0	0
4228	0	0
4229	0	0
4230	0	0
4231	0	0
4232	0	0
4233	0	0
4234	0	0
4235	0	0
4236	0	0
4237	0	0
4238	0	0
4239	0	0
4240	0	0
4241	0	0
4242	0	0
4243	0	0
4244	0	0
4245	0	0
4246	0	0
4247	0	0
4248	0	0
4249	0	0
4250	0	0
4251	0	0
4252	0	0
4253	0	0
4254	0	0
4255	0	0
4256	0	0
4257	0	0
4258	0	0
4259	0	0
4260	0	0
4261	0	0
4262	0	0
4263	0	0
4264	0	0
4265	0	0
4266	0	0
4267	0	0
4268	0	0
4269	0	0
4270	0	0
4271	0	0
4272	0	0
4273	0	0
4274	0	0
4275	0	0
4276	0	0
4277	0	0
4278	0	0
4279	0	0
4280	0	0
4281	0	0
4282	0	0
4283	0	0
4284	0	0
4285	0	0
4286	0	0
4287	0	0
4288	0	0
4289	0	0
4290	0	0
4291	0	0
4292	0	0
4293	0	0
4294	0	0
4295	0	0
4296	0	0
4297	0	0
4298	0	0
4299	0	0
4300	0	0
4301	0	0
4302	0	0
4303	0	0
4304	0	0
4305	0	0
4306	0	0
4307	0	0
4308	0	0
4309	0	0
4310	0	0
4311	0	0
4312	0	0
4313	0	0
4314	0	0
4315	0	0
4316	0	0
4317	0	0
4318	0	0
4319	0	0
4320	0	0
4321	0	0
4322	0	0
4323	0	0
4324	0	0
4325	0	0
4326	0	0
4327	0	0
4328	0	0
4329	0	0
4330	0	0
4331	0	0
4332	0	0
4333	0	0
4334	0	0
4335	0	0
4336	1	0
4337	1	0
4338	1	0
4339	1	0
4340	1	0
4341	1	0
4342	1	0
4343	1	0
4344	1	0
4345	1	0
4346	1	0
4347	1	0
4348	1	0
4349	1	0
4350	1	0
4351	1	0
4352	1	0
4353	1	0
4354	1	0
4355	1	0
4356	1	0
4357	1	0
4358	1	0
4359	1	0
4360	1	0
4361	0	0
4362	0	0
4363	0	0
4364	0	0
4365	0	0
4366	0	0
4367	1	0
4368	0	0
4369	0	0
4370	0	0
4371	0	0
4372	0	0
4373	0	0
4374	0	0
4375	0	0
4376	0	0
4377	0	0
4378	0	0
4379	0	0
4380	0	0
4381	0	0
4382	0	0
4383	0	0
4384	0	0
4385	0	0
4386	0	0
4387	0	0
4388	0	0
4389	0	0
4390	0	0
4391	0	0
4392	0	0
4393	0	0
4394	0	0
4395	0	0
4396	0	0
4397	0	0
4398	0	0
4399	0	0
4400	0	0
4401	0	0
4402	0	0
4403	0	0
4404	0	0
4405	0	0
4406	0	0
