Site	ColumnScore	SumOfPairsScore
1	0	0
2	0	0
3	0	0
4	0	0
5	0	0
6	0	0
7	0	0
8	0	0
9	0	0
10	0	0
11	0	0
12	0	0
13	0	0
14	0	0
15	0	0
16	0	0
17	0	0
18	0	0
19	0	0
20	0	0
21	0	0
22	0	0
23	0	0
24	0	0
25	0	0
26	0	0
27	0	0
28	0	0
29	0	0
30	0	0
31	0	0
32	0	0
33	0	0
34	0	0
35	0	0
36	0	0
37	0	0
38	0	0
39	0	0
40	0	0
41	0	0
42	0	0
43	0	0
44	0	0
45	0	0
46	0	0
47	0	0
48	0	0
49	0	0
50	0	0
51	0	0
52	0	0
53	0	0
54	0	0
55	0	0
56	0	0
57	0	0
58	0	0
59	0	0
60	0	0
61	0	0
62	0	0
63	0	0
64	0	0
65	0	0
66	0	0
67	0	0
68	0	0
69	0	0
70	0	0
71	0	0
72	0	0
73	0	0
74	0	0
75	0	0
76	0	0
77	0	0
78	0	0
79	0	0
80	0	0
81	0	0
82	0	0
83	0	0
84	0	0
85	0	0
86	0	0
87	0	0
88	0	0
89	0	0
90	0	0
91	0	0
92	0	0
93	0	0
94	0	0
95	0	0
96	0	0
97	0	0
98	0	0
99	0	0
100	0	0
101	0	0
102	0	0
103	0	0
104	0	0
105	0	0
106	0	0
107	0	0
108	0	0
109	0	0
110	0	0
111	0	0
112	0	0
113	0	0
114	0	0
115	0	0
116	0	0
117	0	0
118	0	0
119	0	0
120	0	0
121	0	0
122	0	0
123	0	0
124	0	0
125	0	0
126	0	0
127	0	0
128	0	0
129	0	0
130	0	0
131	0	0
132	0	0
133	0	0
134	0	0
135	0	0
136	0	0
137	0	0
138	0	0
139	0	0
140	0	0
141	0	0
142	0	0
143	0	0
144	0	0
145	0	0
146	0	0
147	0	0
148	0	0
149	0	0
150	0	0
151	0	0
152	0	0
153	0	0
154	0	0
155	0	0
156	0	0
157	0	0
158	0	0
159	0	0
160	0	0
161	0	0
162	0	0
163	0	0
164	0	0
165	0	0
166	0	0
167	0	0
168	0	0
169	0	0
170	0	0
171	0	0
172	0	0
173	0	0
174	0	0
175	0	0
176	0	0
177	0	0
178	0	0
179	0	0
180	0	0
181	0	0
182	0	0
183	0	0
184	0	0
185	0	0
186	0	0
187	0	0
188	0	0
189	0	0
190	0	0
191	0	0
192	0	0
193	0	0
194	0	0
195	0	0
196	0	0
197	0	0
198	0	0
199	0	0
200	0	0
201	0	0
202	0	0
203	0	0
204	0	0
205	0	0
206	0	0
207	0	0
208	0	0
209	0	0
210	0	0
211	0	0
212	0	0
213	0	0
214	0	0
215	0	0
216	0	0
217	0	0
218	0	0
219	0	0
220	0	0
221	0	0
222	0	0
223	0	0
224	0	0
225	0	0
226	0	0
227	0	0
228	0	0
229	0	0
230	0	0
231	0	0
232	0	0
233	0	0
234	0	0
235	0	0
236	0	0
237	0	0
238	0	0
239	0	0
240	0	0
241	0	0
242	0	0
243	0	0
244	0	0
245	0	0
246	0	0
247	0	0
248	0	0
249	0	0
250	0	0
251	0	0
252	0	0
253	0	0
254	0	0
255	0	0
256	0	0
257	0	0
258	0	0
259	0	0
260	0	0
261	0	0
262	0	0
263	0	0
264	0	0
265	0	0
266	0	0
267	0	0
268	0	0
269	0	0
270	0	0
271	0	0
272	0	0
273	0	0
274	0	0
275	0	0
276	0	0
277	0	0
278	0	0
279	0	0
280	0	0
281	0	0
282	0	0
283	0	0
284	0	0
285	0	0
286	0	0
287	0	0
288	0	0
289	0	0
290	0	0
291	0	0
292	0	0
293	0	0
294	0	0
295	0	0
296	0	0
297	0	0
298	0	0
299	0	0
300	0	0
301	0	0
302	0	0
303	0	0
304	0	0
305	0	0
306	0	0
307	0	0
308	0	0
309	0	0
310	0	0
311	0	0
312	0	0
313	0	0
314	0	0
315	0	0
316	0	0
317	0	0
318	0	0
319	0	0
320	0	0
321	0	0
322	0	0
323	0	0
324	0	0
325	0	0
326	0	0
327	0	0
328	0	0
329	0	0
330	0	0
331	0	0
332	0	0
333	0	0
334	0	0
335	0	0
336	0	0
337	0	0
338	0	0
339	0	0
340	0	0
341	0	0
342	0	0
343	0	0
344	0	0
345	0	0
346	0	0
347	0	0
348	0	0
349	0	0
350	0	0
351	0	0
352	0	0
353	0	0
354	0	0
355	0	0
356	0	0
357	0	0
358	0	0
359	0	0
360	0	0
361	0	0
362	0	0
363	0	0
364	0	0
365	0	0
366	0	0
367	0	0
368	0	0
369	0	0
370	0	0.1
371	0	0.1
372	0	0.1
373	0	0.1
374	0	0.1
375	0	0.1
376	0	0.1
377	0	0.1
378	0	0.1
379	0	0.1
380	0	0.1
381	0	0.1
382	0	0.1
383	0	0.1
384	0	0.1
385	0	0.1
386	0	0.1
387	0	0.1
388	0	0.1
389	0	0.1
390	0	0.1
391	0	0.1
392	0	0.1
393	0	0.1
394	0	0.1
395	0	0.1
396	0	0.1
397	0	0.1
398	0	0.1
399	0	0.1
400	0	0.1
401	0	0.1
402	0	0.1
403	0	0.1
404	0	0.1
405	0	0.1
406	0	0.1
407	0	0.1
408	0	0.1
409	0	0.1
410	0	0.1
411	0	0.1
412	0	0.1
413	0	0.1
414	0	0.1
415	0	0.1
416	0	0.1
417	0	0.1
418	0	0.1
419	0	0.1
420	0	0.1
421	0	0.1
422	0	0.1
423	0	0.1
424	0	0.1
425	0	0.1
426	0	0.1
427	0	0.1
428	0	0.1
429	0	0.1
430	0	0.1
431	0	0.1
432	0	0.1
433	0	0.1
434	0	0.1
435	0	0.1
436	0	0.1
437	0	0.1
438	0	0.1
439	0	0.1
440	0	0.1
441	0	0.1
442	0	0.1
443	0	0.1
444	0	0.1
445	0	0.1
446	0	0.1
447	0	0.1
448	0	0.1
449	0	0.1
450	0	0.1
451	0	0.1
452	0	0.1
453	0	0.1
454	0	0.1
455	0	0.1
456	0	0.1
457	0	0.1
458	0	0.1
459	0	0.1
460	0	0.1
461	0	0.1
462	0	0.1
463	0	0.1
464	0	0.1
465	0	0.1
466	0	0.1
467	0	0.1
468	0	0.1
469	0	0.1
470	0	0.1
471	0	0.1
472	0	0.1
473	0	0.1
474	0	0.1
475	0	0.1
476	0	0.1
477	0	0.1
478	0	0.1
479	0	0.0666667
480	0	0.0666667
481	0	0.0666667
482	0	0.0666667
483	0	0.0666667
484	0	0.0666667
485	0	0.0666667
486	0	0.0666667
487	0	0.0666667
488	0	0.0666667
489	0	0.0666667
490	0	0.0666667
491	0	0.0666667
492	0	0.0666667
493	0	0.0666667
494	0	0.0666667
495	0	0.0666667
496	0	0.0666667
497	0	0.0666667
498	0	0.0666667
499	0	0.0666667
500	0	0.0666667
501	0	0.0666667
502	0	0.0666667
503	0	0.0666667
504	0	0.0666667
505	0	0.0666667
506	0	0.0666667
507	0	0.0666667
508	0	0.0666667
509	0	0.0666667
510	0	0.0666667
511	0	0.0666667
512	0	0.0666667
513	0	0.0666667
514	0	0.0666667
515	0	0.0666667
516	0	0.0666667
517	0	0.0666667
518	0	0.0666667
519	0	0.0666667
520	0	0.0666667
521	0	0.0666667
522	0	0.0666667
523	0	0.0666667
524	0	0.0666667
525	0	0.0666667
526	0	0.0666667
527	0	0.0666667
528	0	0.0666667
529	0	0.0666667
530	0	0.0666667
531	0	0.0666667
532	0	0.0666667
533	0	0.0666667
534	0	0.0666667
535	0	0.0666667
536	0	0.0666667
537	0	0.0666667
538	0	0.0666667
539	0	0.0666667
540	0	0.0666667
541	0	0.0666667
542	0	0.0666667
543	0	0.0666667
544	0	0.0666667
545	0	0.0666667
546	0	0.0666667
547	0	0.0666667
548	0	0.0666667
549	0	0.0666667
550	0	0.0666667
551	0	0.0666667
552	0	0.0666667
553	0	0.0666667
554	0	0.0666667
555	0	0.0666667
556	0	0.0666667
557	0	0.0666667
558	0	0.0666667
559	0	0.0666667
560	0	0.0666667
561	0	0.0666667
562	0	0.0666667
563	0	0.0666667
564	0	0.0666667
565	0	0.0666667
566	0	0.0666667
567	0	0.0666667
568	0	0.0666667
569	0	0.0666667
570	0	0.0666667
571	0	0.0666667
572	0	0.0666667
573	0	0.0666667
574	0	0.0666667
575	0	0.0666667
576	0	0.047619
577	0	0.0666667
578	0	0.0666667
579	0	0.0666667
580	0	0.0666667
581	0	0.0666667
582	0	0.0666667
583	0	0.0666667
584	0	0.0666667
585	0	0.0666667
586	0	0.0666667
587	0	0.0666667
588	0	0.0666667
589	0	0.0666667
590	0	0.0666667
591	0	0.2
592	0	0.2
593	0	0.2
594	0	0.2
595	0	0.2
596	0	0.2
597	0	0.2
598	0	0.2
599	0	0.2
600	0	0.2
601	0	0.2
602	0	0.047619
603	0	0.047619
604	0	0.047619
605	0	0.047619
606	0	0.047619
607	0	0.047619
608	0	0.047619
609	0	0.047619
610	0	0.047619
611	0	0.047619
612	0	0.047619
613	0	0.047619
614	0	0.047619
615	0	0.047619
616	0	0.047619
617	0	0.047619
618	0	0.047619
619	0	0.047619
620	0	0.047619
621	0	0.047619
622	0	0.047619
623	0	0.047619
624	0	0.047619
625	0	0.047619
626	0	0.047619
627	0	0.047619
628	0	0.047619
629	0	0.047619
630	0	0.047619
631	0	0.047619
632	0	0.047619
633	0	0.047619
634	0	0.047619
635	0	0.047619
636	0	0.047619
637	0	0.047619
638	0	0.047619
639	0	0.047619
640	0	0.047619
641	0	0.047619
642	0	0.047619
643	0	0.047619
644	0	0.047619
645	0	0.047619
646	0	0.047619
647	0	0.047619
648	0	0.047619
649	0	0.047619
650	0	0.047619
651	0	0.047619
652	0	0.047619
653	0	0.047619
654	0	0.047619
655	0	0.047619
656	0	0.047619
657	0	0.047619
658	0	0.047619
659	0	0.047619
660	0	0.047619
661	0	0.047619
662	0	0.047619
663	0	0.047619
664	0	0.047619
665	0	0.047619
666	0	0.047619
667	0	0.047619
668	0	0.047619
669	0	0.047619
670	0	0.047619
671	0	0.047619
672	0	0.047619
673	0	0.047619
674	0	0.047619
675	0	0.047619
676	0	0.047619
677	0	0.047619
678	0	0.047619
679	0	0.047619
680	0	0.047619
681	0	0.047619
682	0	0.047619
683	0	0.047619
684	0	0.0714286
685	0	0.0714286
686	0	0.0714286
687	0	0.0714286
688	0	0.0714286
689	0	0.0714286
690	0	0.0714286
691	0	0.0714286
692	0	0.0714286
693	0	0.0714286
694	0	0.0714286
695	0	0.0714286
696	0	0.0714286
697	0	0.0714286
698	0	0.0714286
699	0	0.0714286
700	0	0.0714286
701	0	0.0714286
702	0	0.0714286
703	0	0.0714286
704	0	0.0714286
705	0	0.0714286
706	0	0.0714286
707	0	0.0714286
708	0	0.0714286
709	0	0.0714286
710	0	0.0714286
711	0	0.0714286
712	0	0.0714286
713	0	0.0714286
714	0	0.0714286
715	0	0.0714286
716	0	0.0714286
717	0	0.0714286
718	0	0.0714286
719	0	0.0714286
720	0	0.0714286
721	0	0.0714286
722	0	0.0714286
723	0	0.0714286
724	0	0.0714286
725	0	0.0714286
726	0	0.0714286
727	0	0.0714286
728	0	0.0714286
729	0	0.0714286
730	0	0.0714286
731	0	0.0714286
732	0	0.0714286
733	0	0.0714286
734	0	0.0714286
735	0	0.0714286
736	0	0.0714286
737	0	0.0714286
738	0	0.0714286
739	0	0.0714286
740	0	0.0714286
741	0	0.0714286
742	0	0.0714286
743	0	0.0714286
744	0	0.0714286
745	0	0.0714286
746	0	0.0714286
747	0	0.0714286
748	0	0.0714286
749	0	0.0714286
750	0	0.0714286
751	0	0.0714286
752	0	0.0714286
753	0	0.0714286
754	0	0.0714286
755	0	0.0714286
756	0	0.0714286
757	0	0.0714286
758	0	0.0714286
759	0	0.0714286
760	0	0.0714286
761	0	0.0714286
762	0	0.0714286
763	0	0.0714286
764	0	0.0714286
765	0	0.0714286
766	0	0.0714286
767	0	0.0714286
768	0	0.0555556
769	0	0.0555556
770	0	0.0555556
771	0	0.0555556
772	0	0.0555556
773	0	0.0555556
774	0	0.0555556
775	0	0.0555556
776	0	0.0555556
777	0	0.0555556
778	0	0.0555556
779	0	0.0555556
780	0	0.0555556
781	0	0.0555556
782	0	0.0555556
783	0	0.0555556
784	0	0.0555556
785	0	0.0555556
786	0	0.0555556
787	0	0.0555556
788	0	0.0555556
789	0	0.0555556
790	0	0.0555556
791	0	0.0555556
792	0	0.0555556
793	0	0.0555556
794	0	0.0555556
795	0	0.0555556
796	0	0.0555556
797	0	0.0555556
798	0	0.0555556
799	0	0.0555556
800	0	0.0555556
801	0	0.0555556
802	0	0.0555556
803	0	0.0555556
804	0	0.0555556
805	0	0.0555556
806	0	0.0555556
807	0	0.0555556
808	0	0.0363636
809	0	0.0363636
810	0	0.0363636
811	0	0.0363636
812	0	0.0363636
813	0	0.0363636
814	0	0.0363636
815	0	0.0363636
816	0	0.0363636
817	0	0.0363636
818	0	0.0363636
819	0	0.0363636
820	0	0.0363636
821	0	0.0363636
822	0	0.0363636
823	0	0.0363636
824	0	0.0363636
825	0	0.0363636
826	0	0.0363636
827	0	0.0363636
828	0	0.0363636
829	0	0.0363636
830	0	0.0363636
831	0	0.0363636
832	0	0.0363636
833	0	0.0363636
834	0	0.030303
835	0	0.030303
836	0	0.030303
837	0	0.030303
838	0	0.030303
839	0	0.030303
840	0	0.030303
841	0	0.030303
842	0	0.030303
843	0	0.030303
844	0	0.030303
845	0	0.030303
846	0	0.030303
847	0	0.030303
848	0	0.030303
849	0	0.030303
850	0	0.030303
851	0	0.030303
852	0	0.030303
853	0	0.030303
854	0	0.030303
855	0	0.030303
856	0	0.030303
857	0	0.030303
858	0	0.030303
859	0	0.030303
860	0	0.030303
861	0	0.030303
862	0	0.030303
863	0	0.030303
864	0	0.030303
865	0	0.030303
866	0	0.030303
867	0	0.030303
868	0	0.030303
869	0	0.030303
870	0	0.030303
871	0	0.030303
872	0	0.030303
873	0	0.030303
874	0	0.030303
875	0	0.030303
876	0	0.030303
877	0	0.030303
878	0	0.030303
879	0	0.030303
880	0	0.030303
881	0	0.030303
882	0	0.030303
883	0	0.030303
884	0	0.030303
885	0	0.030303
886	0	0.030303
887	0	0.030303
888	0	0.030303
889	0	0.025641
890	0	0.0190476
891	0	0.0190476
892	0	0.0190476
893	0	0.0190476
894	0	0.0190476
895	0	0.0190476
896	0	0.0190476
897	0	0.0190476
898	0	0.0190476
899	0	0.0190476
900	0	0.0190476
901	0	0.0166667
902	0	0.0166667
903	0	0.0166667
904	0	0.0166667
905	0	0.0166667
906	0	0.0166667
907	0	0.0166667
908	0	0.025
909	0	0.025
910	0	0.025
911	0	0.025
912	0	0.0166667
913	0	0.0166667
914	0	0.0166667
915	0	0.0166667
916	0	0.0166667
917	0	0.0166667
918	0	0.0166667
919	0	0.0166667
920	0	0.0166667
921	0	0.0166667
922	0	0.0166667
923	0	0.0166667
924	0	0.0166667
925	0	0.0166667
926	0	0.0166667
927	0	0.0166667
928	0	0.0166667
929	0	0.0166667
930	0	0.0166667
931	0	0.0166667
932	0	0.0166667
933	0	0.0166667
934	0	0.0166667
935	0	0.0166667
936	0	0.0166667
937	0	0.0166667
938	0	0.0166667
939	0	0.0166667
940	0	0.0166667
941	0	0.0166667
942	0	0.0147059
943	0	0.0147059
944	0	0.0147059
945	0	0.0147059
946	0	0.0147059
947	0	0.0147059
948	0	0.0147059
949	0	0.0147059
950	0	0.0147059
951	0	0.0147059
952	0	0.0147059
953	0	0.0147059
954	0	0.0147059
955	0	0.0147059
956	0	0.0147059
957	0	0.0130719
958	0	0.0130719
959	0	0.0130719
960	0	0.0130719
961	0	0.0130719
962	0	0.0130719
963	0	0.0130719
964	0	0.0130719
965	0	0.0130719
966	0	0.0130719
967	0	0.0130719
968	0	0.0130719
969	0	0.0130719
970	0	0.0130719
971	0	0.0130719
972	0	0.0196078
973	0	0.0175439
974	0	0.0175439
975	0	0.0233918
976	0	0.0175439
977	0	0.0175439
978	0	0.0175439
979	0	0.0175439
980	0	0.0175439
981	0	0.0116959
982	0	0.0105263
983	0	0.0105263
984	0	0.0105263
985	0	0.0105263
986	0	0.0105263
987	0	0.00952381
988	0	0.00865801
989	0	0.00865801
990	0	0.00865801
991	0	0.00865801
992	0	0.00865801
993	0	0.00865801
994	0	0.00865801
995	0	0.00865801
996	0	0.00790514
997	0	0.00724638
998	0	0.01
999	0	0.01
1000	0	0.00923077
1001	0	0.00923077
1002	0	0.00923077
1003	0	0.00923077
1004	0	0.0206897
1005	0	0.0215054
1006	0	0.0193548
1007	0	0.0172043
1008	0	0.0181452
1009	0	0.0341394
1010	0	0.0341394
1011	0	0.029872
1012	0	0.0310391
1013	0	0.0310391
1014	0	0.0282051
1015	0	0.0282051
1016	0	0.0280488
1017	0	0.0317073
1018	0	0.0292683
1019	0	0.0304878
1020	0	0.0348432
1021	0	0.0332226
1022	0	0.0359408
1023	0	0.0425532
1024	0	0.0473469
1025	0	0.0422323
1026	0	0.0370102
1027	0	0.0538961
1028	0	0.0540984
1029	0	0.0542755
1030	0	0.057758
1031	0	0.0596206
1032	0	0.15117
1033	0	0.165397
1034	0	0.177831
1035	0	0.247829
1036	0	0.27451
1037	0	0.400886
1038	0	0.447939
1039	0	0.737469
1040	0	0.205757
1041	0	0.223112
1042	0	0.212663
1043	0	0.0583333
1044	0	0.0583333
1045	0	0.0583333
1046	0	0.0583333
1047	0	0.0583333
1048	0	0.0583333
1049	0	0.429707
1050	0	0
1051	0	0
1052	0	0
1053	0	0
1054	0	0
1055	0	0
1056	0	0
1057	0	0
1058	0	0
1059	0	0
1060	0	0
1061	0	0
1062	0	0
1063	0	0
1064	0	0
1065	0	0
1066	0	0
1067	0	0
1068	0	0
1069	0	0
1070	0	0
1071	0	0
1072	0	0
1073	0	0
1074	0	0
1075	0	0
1076	0	0
1077	0	0
1078	0	0
1079	0	0
1080	0	0
1081	0	0
1082	0	0
1083	0	0
1084	0	0
1085	0	0
1086	0	0
1087	0	0
1088	0	0
1089	0	0
1090	0	0
1091	0	0
1092	0	0
1093	0	0
1094	0	0
1095	0	0
1096	0	0
1097	0	0
1098	0	0
1099	0	0
1100	0	0
1101	0	0
1102	0	0
1103	0	0
1104	0	0
1105	0	0
1106	0	0
1107	0	0
1108	0	0
1109	0	0
1110	0	0
1111	0	0
1112	0	0
1113	0	0
1114	0	0
1115	0	0
1116	0	0
1117	0	0
1118	0	0
1119	0	0
1120	0	0
1121	0	0
1122	0	0
1123	0	0
1124	0	0
1125	0	0
1126	0	0
1127	0	0
1128	0	0
1129	0	0
1130	0	0
1131	0	0
1132	0	0
1133	0	0
1134	0	0
1135	0	0
1136	0	0
1137	0	0
1138	0	0
1139	0	0
1140	0	0
1141	0	0
1142	0	0
1143	0	0
1144	0	0
1145	0	0
1146	0	0
1147	0	0
1148	0	0
1149	0	0
1150	0	0
1151	0	0
1152	0	0
1153	0	0
1154	0	0
1155	0	0
1156	0	0
1157	0	0
1158	0	0
1159	0	0
1160	0	0
1161	0	0
1162	0	0
1163	0	0
1164	0	0
1165	0	0
1166	0	0
1167	0	0
1168	0	0
1169	0	0
1170	0	0
1171	0	0
1172	0	0
1173	0	0
1174	0	0
1175	0	0
1176	0	0
1177	0	0
1178	0	0
1179	0	0
1180	0	0
1181	0	0
1182	0	0
1183	0	0
1184	0	0
1185	0	0
1186	0	0
1187	0	0
1188	0	0
1189	0	0
1190	0	0
1191	0	0
1192	0	0
1193	0	0
1194	0	0
1195	0	0
1196	0	0
1197	0	0
1198	0	0
1199	0	0
1200	0	0
1201	0	0
1202	0	0
1203	0	0
1204	0	0
1205	0	0
1206	0	0
1207	0	0
1208	0	0
1209	0	0
1210	0	0
1211	0	0
1212	0	0
1213	0	0
1214	0	0
1215	0	0
1216	0	0
1217	0	0
1218	0	0
1219	0	0
1220	0	0
1221	0	0
1222	0	0
1223	0	0
1224	0	0
1225	0	0
1226	0	0
1227	0	0
1228	0	0
1229	0	0
1230	0	0
1231	0	0
1232	0	0
1233	0	0
1234	0	0
1235	0	0
1236	0	0
1237	0	0
1238	0	0
1239	0	0
1240	0	0
1241	0	0
1242	0	0
1243	0	0
1244	0	0
1245	0	0
1246	0	0
1247	0	0
1248	0	0
1249	0	0
1250	0	0
1251	0	0
1252	0	0
1253	0	0
1254	0	0
1255	0	0
1256	0	0
1257	0	0
1258	0	0
1259	0	0
1260	0	0
1261	0	0
1262	0	0
1263	0	0
1264	0	0
1265	0	0
1266	0	0
1267	0	0
1268	0	0
1269	0	0
1270	0	0
1271	0	0
1272	0	0
1273	0	0
1274	0	0
1275	0	0
1276	0	0
1277	0	0
1278	0	0
1279	0	0
1280	0	0
1281	0	0
1282	0	0
1283	0	0
1284	0	0
1285	0	0
1286	0	0
1287	0	0
1288	0	0
1289	0	0
1290	0	0
1291	0	0
1292	0	0
1293	0	0
1294	0	0
1295	0	0
1296	0	0
1297	0	0
1298	0	0
1299	0	0
1300	0	0
1301	0	0
1302	0	0
1303	0	0
1304	0	0
1305	0	0
1306	0	0
1307	0	0
1308	0	0
1309	0	0
1310	0	0
1311	0	0
1312	0	0
1313	0	0
1314	0	0
1315	0	0
1316	0	0
1317	0	0
1318	0	0
1319	0	0
1320	0	0
1321	0	0
1322	0	0
1323	0	0
1324	0	0
1325	0	0
1326	0	0
1327	0	0
1328	0	0
1329	0	0
1330	0	0
1331	0	0
1332	0	0
1333	0	0
1334	0	0
1335	0	0
1336	0	0
1337	0	0
1338	0	0
1339	0	0
1340	0	0
1341	0	0
1342	0	0
1343	0	0
1344	0	0
1345	0	0
1346	0	0
1347	0	0
1348	0	0
1349	0	0
1350	0	0
1351	0	0
1352	0	0
1353	0	0
1354	0	0
1355	0	0
1356	0	0
1357	0	0
1358	0	0
1359	0	0
1360	0	0
1361	0	0
1362	0	0
1363	0	0
1364	0	0
1365	0	0
1366	0	0
1367	0	0
1368	0	0
1369	0	0
1370	0	0
1371	0	0
1372	0	0
1373	0	0
1374	0	0
1375	0	0
1376	0	0
1377	0	0
1378	0	0
1379	0	0
1380	0	0
1381	0	0
1382	0	0
1383	0	0
1384	0	0
1385	0	0
1386	0	0
1387	0	0
1388	0	0
1389	0	0
1390	0	0
1391	0	0
1392	0	0
1393	0	0
1394	0	0
1395	0	0
1396	0	0
1397	0	0
1398	0	0
1399	0	0
1400	0	0
1401	0	0
1402	0	0
1403	0	0
1404	0	0
1405	0	0
1406	0	0
1407	0	0
1408	0	0
1409	0	0
1410	0	0
1411	0	0
1412	0	0
1413	0	0
1414	0	0
1415	0	0
1416	0	0
1417	0	0
1418	0	0
1419	0	0
1420	0	0
1421	0	0
1422	0	0
1423	0	0
1424	0	0
1425	0	0
1426	0	0
1427	0	0
1428	0	0
1429	0	0
1430	0	0
1431	0	0
1432	0	0
1433	0	0
1434	0	0
1435	0	0
1436	0	0
1437	0	0
1438	0	0
1439	0	0
1440	0	0
1441	0	0
1442	0	0
1443	0	0
1444	0	0
1445	0	0
1446	0	0
1447	0	0
1448	0	0
1449	0	0
1450	0	0
1451	0	0
1452	0	0
1453	0	0
1454	0	0
1455	0	0
1456	0	0
1457	0	0
1458	0	0
1459	0	0
1460	0	0
1461	0	0
1462	0	0
1463	0	0
1464	0	0
1465	0	0
1466	0	0
1467	0	0
1468	0	0
1469	0	0
1470	0	0
1471	0	0
1472	0	0
1473	0	0
1474	0	0
1475	0	0
1476	0	0
1477	0	0
1478	0	0
1479	0	0
1480	0	0
1481	0	0
1482	0	0
1483	0	0
1484	0	0
1485	0	0
1486	0	0
1487	0	0
1488	0	0
1489	0	0
1490	0	0
1491	0	0
1492	0	0
1493	0	0
1494	0	0
1495	0	0
1496	0	0
1497	0	0
1498	0	0
1499	0	0
1500	0	0
1501	0	0
1502	0	0
1503	0	0
1504	0	0
1505	0	0
1506	0	0
1507	0	0
1508	0	0
1509	0	0
1510	0	0
1511	0	0
1512	0	0
1513	0	0
1514	0	0
1515	0	0
1516	0	0
1517	0	0
1518	0	0
1519	0	0
1520	0	0
1521	0	0
1522	0	0
1523	0	0
1524	0	0
1525	0	0
1526	0	0
1527	0	0
1528	0	0
1529	0	0
1530	0	0
1531	0	0
1532	0	0
1533	0	0
1534	0	0
1535	0	0
1536	0	0
1537	0	0
1538	0	0
1539	0	0
1540	0	0
1541	0	0
1542	0	0
1543	0	0
1544	0	0
1545	0	0
1546	0	0
1547	0	0
1548	0	0
1549	0	0
1550	0	0
1551	0	0
1552	0	0
1553	0	0
1554	0	0
1555	0	0
1556	0	0
1557	0	0
1558	0	0
1559	0	0
1560	0	0
1561	0	0
1562	0	0
1563	0	0
1564	0	0
1565	0	0
1566	0	0
1567	0	0
1568	0	0
1569	0	0
1570	0	0
1571	0	0
1572	0	0
1573	0	0
1574	0	0
1575	0	0
1576	0	0
1577	0	0
1578	0	0
1579	0	0
1580	0	0
1581	0	0
1582	0	0
1583	0	0
1584	0	0
1585	0	0
1586	0	0
1587	0	0
1588	0	0
1589	0	0
1590	0	0
1591	0	0
1592	0	0
1593	0	0
1594	0	0
1595	0	0
1596	0	0
1597	0	0
1598	0	0
1599	0	0
1600	0	0
1601	0	0
1602	0	0
1603	0	0
1604	0	0
1605	0	0
1606	0	0
1607	0	0
1608	0	0
1609	0	0.113757
1610	0	0.156667
1611	0	0.166667
1612	0	0.480488
1613	0	0.685716
1614	0	0.822627
1615	0	0.598145
1616	0	0.0666667
1617	0	0.0666667
1618	0	0.0666667
1619	0	0.0666667
1620	0	0.0666667
1621	0	0.0666667
1622	0	0.0666667
1623	0	0.0666667
1624	0	0.0666667
1625	0	0.0666667
1626	0	0.0666667
1627	0	0.0666667
1628	0	0.0666667
1629	0	0.0666667
1630	0	0.0666667
1631	0	0.0666667
1632	0	0.0666667
1633	0	0.0666667
1634	0	0.0666667
1635	0	0.0666667
1636	0	0.0666667
1637	0	0.0666667
1638	0	0.0666667
1639	0	0.0666667
1640	0	0.0666667
1641	0	0.0666667
1642	0	0.0444444
1643	0	0.0444444
1644	0	0.0444444
1645	0	0.0444444
1646	0	0.0444444
1647	0	0.0444444
1648	0	0.0444444
1649	0	0.0444444
1650	0	0.0444444
1651	0	0.0444444
1652	0	0.0444444
1653	0	0.0444444
1654	0	0.0444444
1655	0	0.0444444
1656	0	0.0444444
1657	0	0.0444444
1658	0	0.0444444
1659	0	0.0444444
1660	0	0.0444444
1661	0	0.0444444
1662	0	0.0444444
1663	0	0.0444444
1664	0	0.0444444
1665	0	0.0444444
1666	0	0.0444444
1667	0	0.0444444
1668	0	0.0444444
1669	0	0.267355
1670	0	0.0363636
1671	0	0.0363636
1672	0	0.0363636
1673	0	0.0363636
1674	0	0.0363636
1675	0	0.0363636
1676	0	0.0363636
1677	0	0.0363636
1678	0	0.0363636
1679	0	0.0363636
1680	0	0.0363636
1681	0	0.0363636
1682	0	0.0363636
1683	0	0.0363636
1684	0	0.0363636
1685	0	0.0363636
1686	0	0.0363636
1687	0	0.0363636
1688	0	0.316892
1689	0	0.0666667
1690	0	0.0666667
1691	0	0.0666667
1692	0	0.56338
1693	0	0.583158
1694	0	0.587833
1695	0	0.0761905
1696	0	0.2
1697	0	0.22381
1698	0	0.22381
1699	0	0.690273
1700	0	0.0363636
1701	0	0.0363636
1702	0	0.0363636
1703	0	0.0363636
1704	0	0.0363636
1705	0	0.0363636
1706	0	0.0363636
1707	0	0.0363636
1708	0	0.0363636
1709	0	0.0363636
1710	0	0.0363636
1711	0	0.0363636
1712	0	0.0363636
1713	0	0.0363636
1714	0	0.0363636
1715	0	0.0363636
1716	0	0.0363636
1717	0	0.0363636
1718	0	0.0363636
1719	0	0.0363636
1720	0	0.0363636
1721	0	0.0363636
1722	0	0.0363636
1723	0	0.0363636
1724	0	0.0363636
1725	0	0.047619
1726	0	0.0444444
1727	0	0.0444444
1728	0	0.0277778
1729	0	0.0277778
1730	0	0.0357143
1731	0	0.0357143
1732	0	0.0357143
1733	0	0.0357143
1734	0	0.0357143
1735	0	0.0357143
1736	0	0.0357143
1737	0	0.0357143
1738	0	0.0357143
1739	0	0.0357143
1740	0	0.0357143
1741	0	0.0357143
1742	0	0
1743	0	0
1744	0	0
1745	0	0
1746	0	0
1747	0	0
1748	0	0
1749	0	0
1750	0	0
1751	0	0
1752	0	0
1753	0	0
1754	0	0
1755	0	0
1756	0	0
1757	0	0
1758	0	0.0666667
1759	0	0
1760	0	0
1761	0	0
1762	0	0
1763	0	0
1764	0	0
1765	0	0
1766	0	0
1767	0	0
1768	0	0
1769	0	0
1770	0	0
1771	0	0
1772	0	0
1773	0	0
1774	0	0
1775	0	0
1776	0	0
1777	0	0
1778	0	0
1779	0	0
1780	0	0
1781	0	0
1782	0	0
1783	0	0
1784	0	0
1785	0	0
1786	0	0
1787	0	0
1788	0	0
1789	0	0
1790	0	0
1791	0	0
1792	0	0
1793	0	0
1794	0	0
1795	0	0
1796	0	0
1797	0	0
1798	0	0
1799	0	0
1800	0	0.0666667
1801	0	0.214286
1802	0	0
1803	0	0
1804	0	0
1805	0	0
1806	0	0
1807	0	0
1808	0	0
1809	0	0
1810	0	0
1811	0	0
1812	0	0
1813	0	0
1814	0	0
1815	0	0
1816	0	0
1817	0	0
1818	0	0
1819	0	0
1820	0	0
1821	0	0
1822	0	0
1823	0	0
1824	0	0
1825	0	0
1826	0	0
1827	0	0
1828	0	0
1829	0	0
1830	0	0
1831	0	0
1832	0	0
1833	0	0
1834	0	0
1835	0	0
1836	0	0
1837	0	0
1838	0	0
1839	0	0
1840	0	0
1841	0	0
1842	0	0
1843	0	0
1844	0	0
1845	0	0
1846	0	0
1847	0	0
1848	0	0
1849	0	0
1850	0	0
1851	0	0
1852	0	0
1853	0	0
1854	0	0
1855	0	0
1856	0	0
1857	0	0
1858	0	0
1859	0	0
1860	0	0
1861	0	0
1862	0	0
1863	0	0
1864	0	0
1865	0	0
1866	0	0
1867	0	0
1868	0	0
1869	0	0
1870	0	0
1871	0	0
1872	0	0
1873	0	0
1874	0	0
1875	0	0
1876	0	0
1877	0	0
1878	0	0.920816
1879	0	0
1880	0	0
1881	0	0
1882	0	0
1883	0	0
1884	0	0
1885	0	0
1886	0	0
1887	0	0
1888	0	0
1889	0	0
1890	0	0
1891	0	0
1892	0	0
1893	0	0
1894	0	0
1895	0	0
1896	0	0
1897	0	0
1898	0	0
1899	0	0
1900	0	0
1901	0	0
1902	0	0
1903	0	0
1904	0	0
1905	0	0
1906	0	0
1907	0	0
1908	0	0
1909	0	0
1910	0	0
1911	0	0
1912	0	0
1913	0	0
1914	0	0
1915	0	0
1916	0	0
1917	0	0
1918	0	0
1919	0	0
1920	0	0
1921	0	0
1922	0	0
1923	0	0
1924	0	0
1925	0	0
1926	0	0
1927	0	0
1928	0	0
1929	0	0
1930	0	0
1931	0	0
1932	0	0
1933	0	0
1934	0	0
1935	0	0
1936	0	0
1937	0	0
1938	0	0
1939	0	0
1940	0	0
1941	0	0
1942	0	0
1943	0	0
1944	0	0
1945	0	0
1946	0	0
1947	0	0
1948	0	0
1949	0	0
1950	0	0
1951	0	0
1952	0	0
1953	0	0
1954	0	0
1955	0	0
1956	0	0
1957	0	0
1958	0	0
1959	0	0
1960	0	0
1961	0	0
1962	0	0
1963	0	0
1964	0	0
1965	0	0
1966	0	0
1967	0	1
1968	0	1
1969	0	1
1970	0	1
1971	0	1
1972	0	1
1973	0	1
1974	0	1
1975	0	1
1976	0	1
1977	0	1
1978	0	1
1979	0	0.919014
1980	0	0.92114
1981	0	1
1982	0	1
1983	0	1
1984	0	0.870403
1985	0	0.892386
1986	0	0.536542
1987	0	0.939969
1988	0	0.0545455
1989	0	0.0545455
1990	0	0
1991	0	0
1992	0	0
1993	0	0
1994	0	0
1995	0	0
1996	0	0
1997	0	0
1998	0	0
1999	0	0
2000	0	0
2001	0	0
2002	0	0.955187
2003	0	0.874216
2004	0	0.938013
2005	0	0.938013
2006	0	0.957115
2007	0	0.857791
2008	0	0.72783
2009	0	0.72783
2010	0	0.727836
2011	0	0.72565
2012	0	0
2013	0	0
2014	0	0
2015	0	0
2016	0	0
2017	0	0
2018	0	0
2019	0	0
2020	0	0
2021	0	0
2022	0	0
2023	0	0
2024	0	0
2025	0	0
2026	0	0
2027	0	0
2028	0	0
2029	0	0
2030	0	0
2031	0	0
2032	0	0
2033	0	0
2034	0	0
2035	0	0
2036	0	0
2037	0	0
2038	0	0
2039	0	0
2040	0	0
2041	0	0
2042	0	0
2043	0	0
2044	0	0
2045	0	0
2046	0	0
2047	0	0
2048	0	0
2049	0	0
2050	0	0
2051	0	0
2052	0	0
2053	0	0
2054	0	0
2055	0	0
2056	0	0
2057	0	0
2058	0	0
2059	0	0
2060	0	0
2061	0	0
2062	0	0
2063	0	0
2064	0	0
2065	0	0
2066	0	0
2067	0	0
2068	0	0
2069	0	0
2070	0	0
2071	0	0
2072	0	0
2073	0	0
2074	0	0
2075	0	0
2076	0	0
2077	0	0
2078	0	0
2079	0	0
2080	0	0
2081	0	0.166667
2082	0	0.166667
2083	0	0.166667
2084	0	0.166667
2085	0	0.166667
2086	0	0.1
2087	0	0.1
2088	0	0.1
2089	0	0.1
2090	0	0.1
2091	0	0.1
2092	0	0.1
2093	0	0.1
2094	0	0.1
2095	0	0.1
2096	0	0.1
2097	0	0.1
2098	0	0.1
2099	0	0.1
2100	0	0.1
2101	0	0.1
2102	0	0.1
2103	0	0.1
2104	0	0.1
2105	0	0.1
2106	0	0.1
2107	0	0.1
2108	0	0.1
2109	0	0.1
2110	0	0.1
2111	0	0.1
2112	0	0.1
2113	0	0.1
2114	0	0.1
2115	0	0.1
2116	0	0.1
2117	0	0.1
2118	0	0.1
2119	0	0.0666667
2120	0	0.0666667
2121	0	0.0666667
2122	0	0.0666667
2123	0	0.0666667
2124	0	0.0666667
2125	0	0.0666667
2126	0	0.047619
2127	0	0.047619
2128	0	0.047619
2129	0	0.047619
2130	0	0.047619
2131	0	0.047619
2132	0	0.047619
2133	0	0.047619
2134	0	0.047619
2135	0	0.047619
2136	0	0.0357143
2137	0	0.047619
2138	0	0.047619
2139	0	0.047619
2140	0	0.047619
2141	0	0.047619
2142	0	0.047619
2143	0	0.047619
2144	0	0.047619
2145	0	0.047619
2146	0	0.047619
2147	0	0.047619
2148	0	0.047619
2149	0	0.047619
2150	0	0.047619
2151	0	0.047619
2152	0	0.047619
2153	0	0.047619
2154	0	0.047619
2155	0	0.047619
2156	0	0.047619
2157	0	0.047619
2158	0	0.047619
2159	0	0.047619
2160	0	0.047619
2161	0	0.047619
2162	0	0.047619
2163	0	0.047619
2164	0	0.047619
2165	0	0.047619
2166	0	0.047619
2167	0	0.047619
2168	0	0.047619
2169	0	0.047619
2170	0	0.047619
2171	0	0.0952381
2172	0	0.0714286
2173	0	0.0555556
2174	0	0.607317
2175	0	0.578397
2176	0	0.445035
2177	0	0.396863
2178	0	0.289683
2179	0	0.278788
2180	0	0.270014
2181	0	0.218596
2182	0	0.205128
2183	0	0.178666
2184	0	0.180429
2185	0	0.596056
2186	0	0.575791
2187	0	0
2188	0	0
2189	0	0
2190	0	0.281028
2191	0	0.125356
2192	0	0.126482
2193	0	0.0852713
2194	0	0.0775194
2195	0	0.135588
2196	0	0.098888
2197	0	0.38741
2198	0	0.272727
2199	0	0.272727
2200	0	0.272727
2201	0	0.272727
2202	0	0.272727
2203	0	0.173114
2204	0	0.162517
2205	0	0.162467
2206	0	0.156889
2207	0	0.136568
2208	0	0.190406
2209	0	0.16053
2210	0	0.165649
2211	0	0.448664
2212	0	0.508445
2213	0	0.240508
2214	0	0.231241
2215	0	0.119836
2216	0	0.137346
2217	0	0.140337
2218	0	0.213026
2219	0	0.259651
2220	0	0.29383
2221	0	0.38449
2222	0	0.437307
2223	0	0.451933
2224	0	0.268852
2225	0	0.319865
2226	0	0.0362319
2227	0	0.0649351
2228	0	0.0714286
2229	0	0.0818713
2230	0	0.0833333
2231	0	0
2232	0	0
2233	0	0
2234	0	0
2235	0	0
2236	0	0
2237	0	0
2238	0	0.0555556
2239	0	0.0277778
2240	0	0.0277778
2241	0	0.0277778
2242	0	0.0277778
2243	0	0.0277778
2244	0	0.0277778
2245	0	0.0277778
2246	0	0.0277778
2247	0	0.0277778
2248	0	0
2249	0	0
2250	0	0
2251	0	0
2252	0	0
2253	0	0
2254	0	0
2255	0	0
2256	0	0
2257	0	0
2258	0	0
2259	0	0
2260	0	0
2261	0	0
2262	0	0
2263	0	0
2264	0	0
2265	0	0
2266	0	0
2267	0	0
2268	0	0
2269	0	0
2270	0	0
2271	0	0
2272	0	0.665962
2273	0	0.704017
2274	0	0.704017
2275	0	0.904453
2276	0	0.911103
2277	0	0.0666667
2278	0	0.0666667
2279	0	0.0666667
2280	0	0.0833333
2281	0	0.0833333
2282	0	0.0833333
2283	0	0.166667
2284	0	0.166667
2285	0	0.166667
2286	0	0.166667
2287	0	0.166667
2288	0	0.166667
2289	0	0.277778
2290	0	0.277778
2291	0	0.277778
2292	0	0.277778
2293	0	0
2294	0	0
2295	0	0
2296	0	0
2297	0	0
2298	0	0
2299	0	0
2300	0	0
2301	0	0
2302	0	0
2303	0	0
2304	0	0
2305	0	0
2306	0	0
2307	0	0
2308	0	0
2309	0	0
2310	0	0
2311	0	0
2312	0	0
2313	0	0
2314	0	0
2315	0	0
2316	0	0
2317	0	0
2318	0	0
2319	0	0
2320	0	0
2321	0	0
2322	0	0
2323	0	0
2324	0	0
2325	0	0
2326	0	0
2327	0	0
2328	0	0
2329	0	0
2330	0	0
2331	0	0
2332	0	0
2333	0	0
2334	0	0
2335	0	0
2336	0	0
2337	0	0
2338	0	0
2339	0	0
2340	0	0
2341	0	0
2342	0	0
2343	0	0
2344	0	0
2345	0	0
2346	0	0
2347	0	0
2348	0	0
2349	0	0
2350	0	0
2351	0	0
2352	0	0
2353	0	0
2354	0	0
2355	0	0
2356	0	0
2357	0	0
2358	0	0
2359	0	0
2360	0	0
2361	0	0
2362	0	0
2363	0	0
2364	0	0
2365	0	0
2366	0	0
2367	0	0
2368	0	0
2369	0	0
2370	0	0
2371	0	0
2372	0	0
2373	0	0
2374	0	0
2375	0	0
2376	0	0
2377	0	0
2378	0	0
2379	0	0
2380	0	0
2381	0	0
2382	0	0
2383	0	0
2384	0	0
2385	0	0
2386	0	0
2387	0	0
2388	0	0
2389	0	0
2390	0	0
2391	0	0
2392	0	0
2393	0	0
2394	0	0
2395	0	0
2396	0	0
2397	0	0
2398	0	0
2399	0	0
2400	0	0
2401	0	0
2402	0	0
2403	0	0
2404	0	0
2405	0	0
2406	0	0
2407	0	0
2408	0	0
2409	0	0
2410	0	0
2411	0	0
2412	0	0
2413	0	0
2414	0	0
2415	0	0
2416	0	0
2417	0	0
2418	0	0
2419	0	0
2420	0	0
2421	0	0
2422	0	0
2423	0	0
2424	0	0
2425	0	0
2426	0	0
2427	0	0
2428	0	0
2429	0	0
2430	0	0
2431	0	0
2432	0	0
2433	0	0
2434	0	0
2435	0	0
2436	0	0
2437	0	0
2438	0	0
2439	0	0
2440	0	0
2441	0	0
2442	0	0
2443	0	0
2444	0	0
2445	0	0
2446	0	0
2447	0	0
2448	0	0
2449	0	0
2450	0	0
2451	0	0
2452	0	0
2453	0	0
2454	0	0
2455	0	0
2456	0	0
2457	0	0
2458	0	0
2459	0	0
2460	0	0
2461	0	0
2462	0	0
2463	0	0
2464	0	0
2465	0	0
2466	0	0
2467	0	0
2468	0	0
2469	0	0
2470	0	0
2471	0	0
2472	0	0
2473	0	0
2474	0	0
2475	0	0
2476	0	0
2477	0	0
2478	0	0
2479	0	0
2480	0	0
2481	0	0
2482	0	0
2483	0	0
2484	0	0
2485	0	0
2486	0	0
2487	0	0
2488	0	0
2489	0	0
2490	0	0
2491	0	0
2492	0	0
2493	0	0
2494	0	0
2495	0	0
2496	0	0
2497	0	0
2498	0	0
2499	0	0
2500	0	0
2501	0	0
2502	0	0
2503	0	0
2504	0	0
2505	0	0
2506	0	0.962864
2507	0	0.615385
2508	0	0.615385
2509	0	1
2510	0	1
2511	0	0.988218
2512	0	0.988264
2513	0	0.988264
2514	0	0.988264
2515	0	0.988276
2516	0	0.988276
2517	0	0.988276
2518	0	0.988276
2519	0	0
2520	0	0
2521	0	0.988287
2522	0	0.988287
2523	0	0.988287
2524	0	1
2525	0	0
2526	0	0
2527	0	0.7485
2528	0	0.74725
2529	0	0.214286
2530	0	0.214286
2531	0	0.214286
2532	0	0.975265
2533	0	0.98637
2534	0	0.98637
2535	0	0.990253
2536	0	0.988344
2537	0	0.988344
2538	0	0.988344
2539	0	0.990272
2540	0	0.990272
2541	0	0.990272
2542	0	0.990272
2543	0	0.990177
2544	0	0
2545	0	0
2546	0	0
2547	0	0
2548	0	0
2549	0	0
2550	0	0.166667
2551	0	0.166667
2552	0	0.190476
2553	0	0.142857
2554	0	0.190476
2555	0	0.138889
2556	0	0.109091
2557	0	0.0909091
2558	0	0.0882353
2559	0	0.0789474
2560	0	0.0714286
2561	0	0.791432
2562	0	0.328629
2563	0	0.233449
2564	0	0.230343
2565	0	0.67035
2566	0	0.456792
2567	0	0.310241
2568	0	0.274076
2569	0	0.23513
2570	0	0.367582
2571	0	0.674139
2572	0	0.235294
2573	0	0.191176
2574	0	0.257576
2575	0	0.466667
2576	0	0.333333
2577	0	1
2578	0	1
2579	0	0.6
2580	0	1
2581	0	1
2582	0	1
2583	0	1
2584	0	1
2585	0	1
2586	0	1
2587	0	1
2588	0	1
2589	0	0.992229
2590	0	0.992229
2591	0	0.988367
2592	0	0.988367
2593	0	0.988367
2594	0	0.988367
2595	0	0.988355
2596	0	0.988355
2597	0	0.986421
2598	0	0
2599	0	0.951619
2600	0	0.740806
2601	0	0
2602	0	0.382081
2603	0	0.485772
2604	0	0.982566
2605	0	0.982566
2606	0	0.992222
2607	0	0.986461
2608	0	0.982628
2609	0	0.986462
2610	0	0.988391
2611	0	0.988395
2612	0	0.988439
2613	0	0.988447
2614	0	0.988447
2615	1	0
2616	0	0
2617	0	0
2618	0	0
2619	0	0
2620	0	0
2621	0	0
2622	0	0
2623	0	0
2624	0	0
2625	0	0
2626	0	0
2627	0	0
2628	0	0
2629	0	0
2630	0	0
2631	0	0
2632	0	0.166667
2633	0	0.994182
2634	0	0.986511
2635	0	0.986511
2636	0	0.986511
2637	0	0
2638	0	0
2639	0	0
2640	0	0
2641	0	0.988439
2642	0	0.988439
2643	0	0.986518
2644	0	0.986518
2645	0	0.986518
2646	0	1
2647	0	0.855128
2648	0	0.917375
2649	0	0.380488
2650	0	0.364488
2651	0	0.229388
2652	0	0.35883
2653	0	0.194805
2654	0	0.842181
2655	0	0.222222
2656	0	0.575702
2657	0	0.742317
2658	0	0.905923
2659	0	0.95122
2660	0	0.95122
2661	0	0.95122
2662	0	0.95122
2663	0	0.95122
2664	0	0.490823
2665	0	0.876172
2666	0	0.969697
2667	0	0.99422
2668	0	0.99422
2669	0	0.99422
2670	0	0
2671	0	0
2672	0	0.996141
2673	0	0.998068
2674	0	0.998068
2675	0	0.998068
2676	0	0.998068
2677	0	0.998068
2678	0	0.998068
2679	0	0.998068
2680	0	0.998066
2681	0	0.998066
2682	0	0.998066
2683	0	0.998066
2684	0	0.998066
2685	0	0
2686	0	0.942868
2687	0	0.89888
2688	0	0.926625
2689	0	0.990349
2690	0	0.869914
2691	0	0.869797
2692	0	0.333333
2693	0	0.525792
2694	0	0.742364
2695	0	0.46013
2696	0	0.2
2697	0	0.982656
2698	0	0.988428
2699	0	0.990366
2700	0	0.990366
2701	0	0
2702	1	0
2703	1	0
2704	1	0
2705	1	0
2706	1	0
2707	1	0
2708	1	0
2709	1	0
2710	1	0
2711	1	0
2712	1	0
2713	1	0
2714	1	0
2715	1	0
2716	1	0
2717	1	0
2718	1	0
2719	1	0
2720	1	0
2721	0	0
2722	0	0.988462
2723	1	1
2724	1	1
2725	0	1
2726	0	0.998068
2727	0	0.998068
2728	0	0.998068
2729	0	0.998068
2730	0	0.998068
2731	0	0.998068
2732	0	0.998068
2733	0	0.998066
2734	0	0.996137
2735	0	0.996141
2736	0	0.998068
2737	0	0.998064
2738	0	0.998068
2739	0	0.998066
2740	0	1
2741	0	1
2742	0	0.672727
2743	0	0.672727
2744	0	1
2745	0	1
2746	0	1
2747	0	0
2748	1	0
2749	1	0
2750	0	0
2751	0	0
2752	0	0
2753	0	0
2754	0	0.969463
2755	0	0.97136
2756	0	0.930443
2757	0	0
2758	0	0.622222
2759	0	0.266667
2760	0	0.641065
2761	0	0.758738
2762	0	0.500754
2763	0	0.87191
2764	0	0.6
2765	0	0.80064
2766	0	0.825149
2767	0	0.826877
2768	0	0.99809
2769	0	0.99809
2770	1	1
2771	1	1
2772	1	1
2773	0	0.99809
2774	0	0.99809
2775	0	0.99809
2776	0	0.998088
2777	1	1
2778	0	1
2779	0	1
2780	0	0.998092
2781	0	0.998092
2782	0	0.998092
2783	0	0.996185
2784	0	0.99809
2785	0	0.99809
2786	0	0.99809
2787	0	0.99809
2788	0	0.998093
2789	0	0.998093
2790	0	0.998093
2791	0	0.998093
2792	0	0.998093
2793	0	0.998092
2794	0	0.998092
2795	0	0.998093
2796	0	0.998093
2797	0	0.998093
2798	0	0.998093
2799	0	0.998093
2800	0	0.998093
2801	0	1
2802	0	0.333333
2803	0	0.333333
2804	0	0.333333
2805	0	0.333333
2806	0	0.333333
2807	0	0.392857
2808	0	0.254545
2809	0	0.254545
2810	0	0.97903
2811	0	0.962114
2812	0	0
2813	0	0
2814	0	0
2815	0	0
2816	0	0
2817	0	0
2818	0	0.285714
2819	0	0.194444
2820	0	0.405797
2821	0	0.293333
2822	0	0.174688
2823	0	0.139001
2824	0	0.112121
2825	0	0.0979592
2826	0	0.140845
2827	0	0.137037
2828	0	0.796303
2829	0	0.755564
2830	0	0.382634
2831	0	0.658333
2832	0	0.278947
2833	0	0.205263
2834	0	0.275
2835	0	0.164404
2836	0	0.185675
2837	0	0
2838	0	0
2839	0	0
2840	0	0
2841	0	0.166008
2842	0	0.185771
2843	0	0.43083
2844	0	0.43083
2845	0	0.281903
2846	0	0.179487
2847	0	0.133333
2848	0	0.133333
2849	0	0.0666667
2850	0	0.047619
2851	0	0.047619
2852	0	0
2853	0	0.047619
2854	0	0.285714
2855	0	0.290909
2856	0	0.247772
2857	0	0.289855
2858	0	0.836263
2859	0	0.78417
2860	1	0
2861	1	0
2862	1	0
2863	0	0
2864	0	0
2865	0	0
2866	1	0
2867	1	0
2868	1	0
2869	1	0
2870	0	0
2871	0	0
2872	0	0
2873	0	0
2874	0	0
2875	0	0
2876	0	0
2877	0	0
2878	0	0
2879	0	0.107143
2880	0	0.205882
2881	0	0.183007
2882	0	0.123188
2883	0	0.25
2884	0	0.19798
2885	0	0.516679
2886	0	0.638932
2887	0	0.866663
2888	0	1
2889	0	0.99809
2890	0	1
2891	0	1
2892	0	0.998092
2893	0	0.996189
2894	0	0.996189
2895	0	0.996189
2896	0	0.996189
2897	0	0.996189
2898	0	0.996189
2899	0	0.996189
2900	0	0.996189
2901	0	0.990491
2902	0	0.988582
2903	0	0
2904	0	0.988582
2905	0	0.988582
2906	0	0.988582
2907	0	1
2908	0	0.692437
2909	0	0.793959
2910	0	0.783403
2911	0	0.771142
2912	0	0.750579
2913	0	0.285885
2914	0	0
2915	0	0.818182
2916	0	0
2917	0	0.666667
2918	0	0
2919	0	0
2920	0	0
2921	0	0.444444
2922	0	0.546718
2923	0	0.314237
2924	0	0.6
2925	0	0.556259
2926	0	0.549751
2927	0	0.647368
2928	0	0.647368
2929	0	0.553119
2930	0	1
2931	0	1
2932	0	1
2933	0	1
2934	0	0.935049
2935	0	1
2936	0	0.764493
2937	0	0.909091
2938	0	0.849231
2939	0	1
2940	0	0.971579
2941	0	0.971579
2942	0	0.971579
2943	0	0.794444
2944	0	0.854409
2945	0	0.830485
2946	0	0.854005
2947	0	0.853416
2948	0	0.479663
2949	0	0.508609
2950	0	0.244444
2951	0	0.192308
2952	0	0.533153
2953	0	0.244444
2954	0	0.600272
2955	0	0.365123
2956	0	0.757601
2957	0	0.111111
2958	0	0.97704
2959	0	0.25
2960	0	0.25
2961	0	0.4
2962	0	0.4
2963	0	0.4
2964	0	0.4
2965	0	0.4
2966	0	0.4
2967	0	0.4
2968	0	1
2969	0	1
2970	0	1
2971	0	1
2972	0	1
2973	0	1
2974	0	1
2975	0	0.998095
2976	0	0.998095
2977	0	0.998095
2978	0	0.998095
2979	0	0.998095
2980	0	0.998095
2981	0	0
2982	0	0
2983	0	0
2984	0	0
2985	0	0
2986	0	0
2987	0	0
2988	0	0
2989	0	0.998095
2990	0	0.998095
2991	1	1
2992	1	1
2993	1	1
2994	1	1
2995	1	1
2996	1	1
2997	1	1
2998	1	1
2999	1	1
3000	1	1
3001	1	1
3002	1	1
3003	0	1
3004	0	1
3005	0	1
3006	0	1
3007	1	1
3008	1	1
3009	1	1
3010	1	1
3011	1	1
3012	1	1
3013	1	1
3014	0	0
3015	1	0
3016	0	0.996196
3017	0	0.996196
3018	0	0.996196
3019	0	0.996196
3020	0	0.996196
3021	1	0
3022	0	0
3023	0	0
3024	0	1
3025	0	1
3026	0	1
3027	1	1
3028	1	1
3029	1	1
3030	1	1
3031	1	1
3032	1	1
3033	0	0.998097
3034	0	0.998097
3035	0	0.998097
3036	0	0.998097
3037	1	1
3038	1	1
3039	1	1
3040	1	1
3041	1	1
3042	1	1
3043	1	1
3044	1	1
3045	1	1
3046	1	1
3047	1	1
3048	1	1
3049	1	1
3050	1	1
3051	1	1
3052	0	0.998102
3053	0	0
3054	0	0
3055	0	0
3056	0	0
3057	0	0
3058	0	0.99428
3059	0	0.777778
3060	0	0.777778
3061	0	0.361111
3062	0	0.777778
3063	0	0.777778
3064	0	0.870112
3065	0	0.9375
3066	0	0.998102
3067	0	0.998102
3068	0	0.998102
3069	0	0.998102
3070	0	0.996207
3071	0	0.996207
3072	0	0.998101
3073	0	0.998101
3074	0	0.998101
3075	0	0.998101
3076	0	0.998101
3077	0	0.998101
3078	0	0.998099
3079	0	0.998099
3080	0	1
3081	0	1
3082	0	0.966394
3083	0	0.578966
3084	0	0.3
3085	0	0
3086	0	0.2
3087	0	0.2
3088	0	0.275522
3089	0	0.661802
3090	0	0.721612
3091	0	0.863581
3092	0	0.914322
3093	0	0.914322
3094	0	0.941615
3095	0	0.941615
3096	0	0.941615
3097	0	0.941615
3098	0	0.942054
3099	0	0.941203
3100	0	0.913521
3101	0	0.887042
3102	0	0.942455
3103	0	0.942455
3104	0	0.915528
3105	0	0.915528
3106	0	0.744513
3107	0	0.744513
3108	0	0.8
3109	0	0.52381
3110	0	0.571429
3111	0	0.944467
3112	0	1
3113	0	1
3114	0	0.788894
3115	0	0.788894
3116	0	0.788894
3117	0	1
3118	0	0.998101
3119	0	0.998101
3120	0	0.998101
3121	0	0.998101
3122	0	0.998101
3123	0	0.998101
3124	0	0.998101
3125	0	0.998101
3126	0	0.998101
3127	0	0.998101
3128	0	0.998099
3129	0	0.9962
3130	0	0.9962
3131	0	0.992408
3132	0	0.814693
3133	0	0.333333
3134	0	0.333333
3135	1	1
3136	1	1
3137	1	1
3138	1	1
3139	1	1
3140	1	1
3141	0	0.333333
3142	0	0.333333
3143	0	0.333333
3144	0	1
3145	0	0.992386
3146	0	1
3147	1	1
3148	1	1
3149	1	1
3150	1	1
3151	1	1
3152	1	1
3153	0	1
3154	1	1
3155	1	1
3156	1	1
3157	1	1
3158	1	1
3159	1	1
3160	1	1
3161	1	1
3162	1	1
3163	1	1
3164	1	1
3165	1	1
3166	0	1
3167	0	1
3168	0	1
3169	0	1
3170	0	1
3171	0	1
3172	0	1
3173	0	1
3174	0	1
3175	0	1
3176	0	1
3177	1	1
3178	1	1
3179	1	1
3180	1	1
3181	1	1
3182	1	1
3183	1	1
3184	1	1
3185	1	1
3186	1	1
3187	1	1
3188	1	1
3189	1	1
3190	1	1
3191	1	1
3192	1	1
3193	1	1
3194	1	1
3195	1	1
3196	1	1
3197	1	1
3198	1	1
3199	1	1
3200	1	1
3201	1	1
3202	1	1
3203	1	1
3204	1	1
3205	1	1
3206	1	1
3207	1	1
3208	0	0.998099
3209	0	0.998099
3210	0	1
3211	0	0
3212	0	0
3213	0	0
3214	0	0
3215	1	0
3216	1	0
3217	1	0
3218	1	0
3219	1	0
3220	1	0
3221	1	0
3222	1	0
3223	1	0
3224	1	0
3225	1	0
3226	1	0
3227	1	0
3228	1	0
3229	1	0
3230	1	0
3231	1	0
3232	1	0
3233	1	0
3234	1	0
3235	1	0
3236	1	0
3237	1	0
3238	0	0.996203
3239	0	0.996203
3240	0	0.996203
3241	0	0.996203
3242	0	0
3243	0	0
3244	0	0.998101
3245	0	0.998101
3246	0	0.998101
3247	1	1
3248	1	1
3249	1	1
3250	1	1
3251	1	1
3252	1	1
3253	0	1
3254	0	1
3255	0	1
3256	1	1
3257	1	1
3258	1	1
3259	1	1
3260	0	0.998101
3261	0	0.998101
3262	0	0.998095
3263	1	1
3264	1	1
3265	1	1
3266	1	1
3267	1	1
3268	1	1
3269	1	1
3270	1	1
3271	1	1
3272	1	1
3273	1	1
3274	0	0.994313
3275	1	1
3276	1	1
3277	1	1
3278	0	1
3279	0	1
3280	0	0
3281	0	0.998099
3282	0	0.998099
3283	0	0.998097
3284	0	0.998097
3285	0	0.998095
3286	0	0.996189
3287	0	0.996189
3288	0	0.994291
3289	0	0.994291
3290	0	0.597659
3291	0	0.597659
3292	0	1
3293	0	0.894779
3294	0	0.885833
3295	0	0.544398
3296	0	0.539226
3297	0	0.430525
3298	0	0.193887
3299	0	1
3300	0	1
3301	0	0.333333
3302	0	0.333333
3303	0	0.333333
3304	0	0.333333
3305	0	0.333333
3306	0	0.401943
3307	0	1
3308	0	0.425749
3309	0	0.801447
3310	0	0.826107
3311	0	0.0833333
3312	0	0.333333
3313	0	0.853613
3314	0	0.910956
3315	0	0.918232
3316	0	0.934831
3317	0	0.566745
3318	0	0.583722
3319	0	0.6091
3320	0	0.614748
3321	0	0.647505
3322	0	0.942335
3323	0	0.945994
3324	0	0.992385
3325	0	0.992385
3326	0	0
3327	0	0.990485
3328	0	0.992386
3329	0	0.994282
3330	0	0.994288
3331	0	0.994288
3332	0	0.996185
3333	0	0.996185
3334	0	0.99809
3335	0	0.99809
3336	0	0.99809
3337	0	0.996181
3338	0	1
3339	0	0.333333
3340	0	0.333333
3341	0	0.333333
3342	0	0.333333
3343	0	0
3344	0	0
3345	0	0.333333
3346	0	1
3347	0	1
3348	0	1
3349	0	0.988555
3350	0	0.994264
3351	0	0.99617
3352	0	0.99617
3353	0	0.994264
3354	0	0
3355	0	1
3356	0	1
3357	0	1
3358	1	1
3359	1	1
3360	1	1
3361	1	1
3362	1	1
3363	1	1
3364	1	1
3365	1	1
3366	1	1
3367	1	1
3368	1	1
3369	1	1
3370	1	1
3371	1	1
3372	1	1
3373	1	1
3374	1	1
3375	1	1
3376	1	1
3377	0	0.998088
3378	0	0.99809
3379	0	0.99809
3380	0	0.998088
3381	0	0.998088
3382	0	0.996178
3383	0	0.994275
3384	0	0.994275
3385	0	0.994275
3386	0	0.994275
3387	0	0.994275
3388	0	0.994275
3389	0	0.992377
3390	0	0.988577
3391	0	0.990458
3392	0	0.990458
3393	0	0.994258
3394	0	0.996167
3395	0	0.994258
3396	0	0.994258
3397	0	0.994253
3398	0	0.994247
3399	0	0
3400	0	0
3401	0	0
3402	0	0
3403	0	0
3404	0	0
3405	0	0
3406	0	0
3407	0	0.986616
3408	0	0.986603
3409	0	0.984711
3410	0	0.984697
3411	0	1
3412	0	1
3413	0	1
3414	0	1
3415	0	1
3416	0	1
3417	0	1
3418	0	0
3419	0	0
3420	0	0
3421	0	0
3422	0	0
3423	0	0.980853
3424	0	0.980853
3425	0	0.980853
3426	0	0.980834
3427	0	0.980834
3428	0	0.984638
3429	0	1
3430	0	1
3431	0	0.5
3432	0	1
3433	0	1
3434	0	1
3435	0	1
3436	0	0.865596
3437	0	0
3438	0	0
3439	0	0
3440	0	0
3441	0	0
3442	0	0
3443	0	0
3444	0	0
3445	0	0
3446	0	0
3447	0	0
3448	0	0
3449	0	0
3450	0	0
3451	0	0
3452	0	0
3453	0	0
3454	0	0
3455	0	0
3456	0	0
3457	0	0
3458	0	0
3459	0	0
3460	0	0
3461	0	0
3462	0	0
3463	0	0
3464	0	0
3465	0	0
3466	0	0
3467	0	0
3468	0	0
3469	0	0
3470	0	0
3471	0	0
3472	0	0
3473	0	0
3474	0	0
3475	0	0
3476	0	0
3477	0	0
3478	0	0
3479	0	0
3480	0	0
3481	0	0
3482	0	0
3483	0	0
3484	0	0
3485	0	0
3486	0	0
3487	0	0
3488	0	0
3489	0	0
3490	0	0
3491	0	0
3492	0	0
3493	0	0
3494	0	0
3495	0	0
3496	0	0
3497	0	0
3498	0	0
3499	0	0
3500	0	0
3501	0	0
3502	0	0
3503	0	0
3504	0	0
3505	0	0
3506	0	0
3507	0	0
3508	0	0
3509	0	0
3510	0	0
3511	0	0
3512	0	0
3513	0	0
3514	0	0
3515	0	0
3516	0	0
3517	0	0
3518	0	0
3519	0	0
3520	0	0
3521	0	0
3522	0	0
3523	0	0
3524	0	0
3525	0	0
3526	0	0
3527	0	0
3528	0	0
3529	0	0
3530	0	0
3531	0	0
3532	0	0
3533	0	0
3534	0	0
3535	0	0
3536	0	0
3537	0	0
3538	0	0
3539	0	0
3540	0	0
3541	0	0
3542	0	0
3543	0	0
3544	0	0
3545	0	0
3546	0	0
3547	0	0
3548	0	0
3549	0	0
3550	0	0
3551	0	0
3552	0	0
3553	0	0
3554	0	0
3555	0	0
3556	0	0
3557	0	0
3558	0	0
3559	0	0
3560	0	0
3561	0	0
3562	0	0
3563	0	0
3564	0	0
3565	0	0
3566	0	0
3567	0	0
3568	0	0
3569	0	0
3570	0	0
3571	0	0
3572	0	0
3573	0	0
3574	0	0
3575	0	0
3576	0	0
3577	0	0
3578	0	0
3579	0	0
3580	0	0
3581	0	0
3582	0	0
3583	0	0
3584	0	0
3585	0	0
3586	0	0
3587	0	0
3588	0	0
3589	0	0
3590	0	0
3591	0	0
3592	0	0
3593	0	0
3594	0	0
3595	0	0
3596	0	0
3597	0	0
3598	0	0
3599	0	0
3600	0	0
3601	0	0
3602	0	0
3603	0	0
3604	0	0
3605	0	0
3606	0	0
3607	0	0
3608	0	0
3609	0	0
3610	0	0
3611	0	0
3612	0	0
3613	0	0
3614	0	0
3615	0	0
3616	0	0
3617	0	0
3618	0	0
3619	0	0
3620	0	0
3621	0	0
3622	0	0
3623	0	0
3624	0	0
3625	0	0.0277778
3626	0	0.0222222
3627	0	0.0181818
3628	0	0.0151515
3629	0	0.152632
3630	0	0.490313
3631	0	0.937021
3632	0	0
3633	0	0
3634	0	0
3635	0	0
3636	0	0
3637	0	0
3638	0	0
3639	0	0
3640	0	0
3641	0	0
3642	0	0
3643	0	0
3644	0	0
3645	0	0
3646	0	0
3647	0	0
3648	0	0
3649	0	0
3650	0	0
3651	0	0
3652	0	0
3653	0	0
3654	0	0
3655	0	0
3656	0	0
3657	0	0
3658	0	0
3659	0	0
3660	0	0
3661	0	0
3662	0	0
3663	0	0
3664	0	0
3665	0	0
3666	0	0
3667	0	0
3668	0	0
3669	0	0
3670	0	0
3671	0	0
3672	0	0
3673	0	0
3674	0	0
3675	0	0
3676	0	0
3677	0	0
3678	0	0
3679	0	0
3680	0	0
3681	0	0
3682	0	0
3683	0	0
3684	0	0
3685	0	0
3686	0	0
3687	0	0
3688	0	0
3689	0	0
3690	0	0
3691	0	0
3692	0	0
3693	0	0
3694	0	0
3695	0	0
3696	0	0
3697	0	0
3698	0	0
3699	0	0
3700	0	0
3701	0	0
3702	0	0
3703	0	0
3704	0	0
3705	0	0
3706	0	0
3707	0	0
3708	0	0
3709	0	0
3710	0	0
3711	0	0
3712	0	0
3713	0	0
3714	0	0
3715	0	0
3716	0	0
3717	0	0
3718	0	0
3719	0	0
3720	0	0
3721	0	0
3722	0	0
3723	0	0
3724	0	0
3725	0	0
3726	0	0
3727	0	0
3728	0	0
3729	0	0
3730	0	0
3731	0	0
3732	0	0
3733	0	0
3734	0	0
3735	0	0
3736	0	0
3737	0	0
3738	0	0
3739	0	0
3740	0	0
3741	0	0
3742	0	0
3743	0	0
3744	0	0
3745	0	0
3746	0	0
3747	0	0
3748	0	0
3749	0	0
3750	0	0
3751	0	0
3752	0	0
3753	0	0
3754	0	0
3755	0	0
3756	0	0
3757	0	0
3758	0	0
3759	0	0
3760	0	0
3761	0	0
3762	0	0
3763	0	0
3764	0	0
3765	0	0
3766	0	0
3767	0	0
3768	0	0
3769	0	0
3770	0	0
3771	0	0
3772	0	0
3773	0	0
3774	0	0
3775	0	0
3776	0	0
3777	0	0
3778	0	0
3779	0	0
3780	0	0
3781	0	0
3782	0	0
3783	0	0
3784	0	0
3785	0	0
3786	0	0
3787	0	0
3788	0	0
3789	0	0
3790	0	0
3791	0	0
3792	0	0
3793	0	0
3794	0	0
3795	0	0
3796	0	0
3797	0	0
3798	0	0
3799	0	0
3800	0	0
3801	0	0
3802	0	0
3803	0	0
3804	0	0
3805	0	0
3806	0	0
3807	0	0
3808	0	0
3809	0	0
3810	0	0
3811	0	0
3812	0	0
3813	0	0
3814	0	0
3815	0	0
3816	0	0
3817	0	0
3818	0	0
3819	0	0
3820	0	0
3821	0	0
3822	0	0
3823	0	0
3824	0	0
3825	0	0
3826	0	0
3827	0	0
3828	0	0
3829	0	0
3830	0	0
3831	0	0
3832	0	0
3833	0	0
3834	0	0
3835	0	0
3836	0	0
3837	0	0
3838	0	0
3839	0	0.865023
3840	0	0.841324
3841	0	0.818586
3842	0	0.813772
3843	0	0.813772
3844	0	0
3845	0	0.0659341
3846	0	0.799502
3847	0	0.792648
3848	0	0.786947
3849	0	0
3850	0	0
3851	0	0
3852	0	0
3853	0	0
3854	0	0
3855	0	0
3856	0	0
3857	0	0
3858	0	0
3859	0	0
3860	0	0
3861	0	0
3862	0	0
3863	0	0
3864	0	0
3865	0	0
3866	0	0
3867	0	0
3868	0	0
3869	0	0
3870	0	0.166667
3871	0	0.780256
3872	0	0.769145
3873	0	0.142857
3874	0	0.142857
3875	0	0.142857
3876	0	0.142857
3877	0	0.142857
3878	0	0.142857
3879	0	0.111111
3880	0	0.133333
3881	0	0.0833333
3882	0	0.0833333
3883	0	0.0555556
3884	0	0.0444444
3885	0	0.0454545
3886	0	0.0277778
3887	0	0.025641
3888	0	0.025641
3889	0	0.025641
3890	0	0.032967
3891	0	0.032967
3892	0	0.043956
3893	0	0.043956
3894	0	0.0555556
3895	0	0.0555556
3896	0	0.0555556
3897	0	0.0555556
3898	0	0.0555556
3899	0	0.0555556
3900	0	0.0555556
3901	0	0.0555556
3902	0	0.0555556
3903	0	0.0555556
3904	0	0.0555556
3905	0	0.0444444
3906	0	0.414434
3907	0	0.191176
3908	0	0.169935
3909	0	0.169935
3910	0	0.169935
3911	0	0.169935
3912	0	0.169935
3913	0	0.137255
3914	0	0.0980392
3915	0	0.0980392
3916	0	0.0980392
3917	0	0.295676
3918	0	0.32228
3919	0	0.391682
3920	0	0.48789
3921	0	0.306054
3922	0	0.285041
3923	0	0.25831
3924	0	0.20498
3925	0	0.182305
3926	0	0.145762
3927	0	0.146396
3928	0	0.111475
3929	0	0.117823
3930	0	0.135251
3931	0	0.141564
3932	0	0.0484923
3933	0	0.0444444
3934	0	0.0494425
3935	0	0.0464969
3936	0	0.0385806
3937	0	0.118413
3938	0	0.125277
3939	0	0.128058
3940	0	0.139841
3941	0	0.149287
3942	0	0.0574074
3943	0	0.0633099
3944	0	0.0614241
3945	0	0.0779661
3946	0	0.0255255
3947	0	0.0249554
3948	0	0.0301075
3949	0	0.0301075
3950	0	0.0261438
3951	0	0.0261438
3952	0	0.0147059
3953	0	0.0147059
3954	0	0.0147059
3955	0	0.0147059
3956	0	0.0147059
3957	0	0.0166667
3958	0	0.147475
3959	0	0.14116
3960	0	0.157647
3961	0	0.166909
3962	0	0.195578
3963	0	0.142857
3964	0	0.152597
3965	0	0.152597
3966	0	0.152597
3967	0	0.152597
3968	0	0.150218
3969	0	0.134694
3970	0	0.125178
3971	0	0.125178
3972	0	0.0210526
3973	0	0.0210526
3974	0	0.0233918
3975	0	0.145646
3976	0	0.28979
3977	0	0.28979
3978	0	0.292793
3979	0	0.292793
3980	0	0.292793
3981	0	0.32605
3982	0	0.23399
3983	0	0.043956
3984	0	0.043956
3985	0	0.043956
3986	0	0.043956
3987	0	0.0512821
3988	0	0.0512821
3989	0	0.0512821
3990	0	0.0512821
3991	0	0.0512821
3992	0	0.0512821
3993	0	0.025641
3994	0	0.025641
3995	0	0.025641
3996	0	0.025641
3997	0	0.025641
3998	0	0.025641
3999	0	0.025641
4000	0	0.025641
4001	0	0.025641
4002	0	0.025641
4003	0	0.300493
4004	0	0.283069
4005	0	0.0955882
4006	0	0.0955882
4007	0	0.05
4008	0	0.0380952
4009	0	0.302956
4010	0	0.304843
4011	0	0.030303
4012	0	0.0454545
4013	0	0.0454545
4014	0	0.0454545
4015	0	0.0545455
4016	0	0.0545455
4017	0	0.0545455
4018	0	0.0545455
4019	0	0.0545455
4020	0	0.0363636
4021	0	0.0363636
4022	0	0.0363636
4023	0	0.0363636
4024	0	0.0363636
4025	0	0.0363636
4026	0	0.0363636
4027	0	0.0363636
4028	0	0.0363636
4029	0	0.0363636
4030	0	0.0473684
4031	0	0.0473684
4032	0	0.0473684
4033	0	0.0392157
4034	0	0.0363636
4035	0	0.0363636
4036	0	0.0363636
4037	0	0.0363636
4038	0	0.0363636
4039	0	0.0363636
4040	0	0.0363636
4041	0	0.0363636
4042	0	0.0363636
4043	0	0.0363636
4044	0	0.0363636
4045	0	0.0363636
4046	0	0.0363636
4047	0	0.0363636
4048	0	0.0363636
4049	0	0.0363636
4050	0	0.0363636
4051	0	0.0363636
4052	0	0.0363636
4053	0	0.0363636
4054	0	0.0363636
4055	0	0.0363636
4056	0	0.0363636
4057	0	0.0363636
4058	0	0.0363636
4059	0	0.0363636
4060	0	0.0363636
4061	0	0.0363636
4062	0	0.0363636
4063	0	0.0363636
4064	0	0.0363636
4065	0	0.0363636
4066	0	0.0363636
4067	0	0.0444444
4068	0	0.0444444
4069	0	0.0444444
4070	0	0.0444444
4071	0	0.0444444
4072	0	0.0444444
4073	0	0.0444444
4074	0	0.0444444
4075	0	0.0444444
4076	0	0.0444444
4077	0	0.0444444
4078	0	0.0444444
4079	0	0.0444444
4080	0	0.0363636
4081	0	0.0363636
4082	0	0.0363636
4083	0	0.0363636
4084	0	0.0363636
4085	0	0.0444444
4086	0	0.0444444
4087	0	0.0444444
4088	0	0.0444444
4089	0	0.0444444
4090	0	0.0444444
4091	0	0.0444444
4092	0	0.0444444
4093	0	0.0444444
4094	0	0.0444444
4095	0	0.0444444
4096	0	0.0444444
4097	0	0.0444444
4098	0	0.0444444
4099	0	0.0444444
4100	0	0.0444444
4101	0	0.0444444
4102	0	0.0444444
4103	0	0.0444444
4104	0	0.0444444
4105	0	0.0444444
4106	0	0.0444444
4107	0	0.0444444
4108	0	0.0444444
4109	0	0.0444444
4110	0	0.0444444
4111	0	0.0444444
4112	0	0.0555556
4113	0	0.0555556
4114	0	0.0555556
4115	0	0.0555556
4116	0	0.0555556
4117	0	0.0555556
4118	0	0.0555556
4119	0	0.0555556
4120	0	0.0555556
4121	0	0.0555556
4122	0	0.0555556
4123	0	0.0555556
4124	0	0.0555556
4125	0	0.0555556
4126	0	0.0555556
4127	0	0.0555556
4128	0	0.0555556
4129	0	0.0555556
4130	0	0.0555556
4131	0	0.0555556
4132	0	0.0555556
4133	0	0.0555556
4134	0	0.0555556
4135	0	0.0555556
4136	0	0.0555556
4137	0	0.0555556
4138	0	0.0555556
4139	0	0.0555556
4140	0	0.0555556
4141	0	0.0833333
4142	0	0.0833333
4143	0	0.0952381
4144	0	0.190476
4145	0	0.190476
4146	0	0.190476
4147	0	0.190476
4148	0	0.190476
4149	0	0.190476
4150	0	0.190476
4151	0	0.190476
4152	0	0.190476
4153	0	0.190476
4154	0	0.190476
4155	0	0.190476
4156	0	0.190476
4157	0	0.266667
4158	0	0.133333
4159	0	0.133333
4160	0	0.133333
4161	0	0.133333
4162	0	0.133333
4163	0	0.133333
4164	0	0.133333
4165	0	0.133333
4166	0	0.133333
4167	0	0.133333
4168	0	0.133333
4169	0	0.133333
4170	0	0.133333
4171	0	0.133333
4172	0	0.0666667
4173	0	0.0666667
4174	0	0.0666667
4175	0	0.0666667
4176	0	0.0666667
4177	0	0.0666667
4178	0	0.0666667
4179	0	0.0666667
4180	0	0.0666667
4181	0	0.0666667
4182	0	0.0666667
4183	0	0.0666667
4184	0	0.0666667
4185	0	0.0666667
4186	0	0.0666667
4187	0	0.0666667
4188	0	0.0666667
4189	0	0.0666667
4190	0	0.0666667
4191	0	0.0666667
4192	0	0.0666667
4193	0	0.0666667
4194	0	0.0666667
4195	0	0.0666667
4196	0	0.0666667
4197	0	0.0666667
4198	0	0.0666667
4199	0	0.0666667
4200	0	0.0666667
4201	0	0.0666667
4202	0	0.0666667
4203	0	0.0666667
4204	0	0.0666667
4205	0	0.1
4206	0	0.1
4207	0	0.1
4208	0	0.1
4209	0	0.1
4210	0	0.1
4211	0	0.1
4212	0	0.1
4213	0	0.1
4214	0	0.1
4215	0	0.1
4216	0	0.1
4217	0	0.1
4218	0	0.1
4219	0	0.1
4220	0	0.1
4221	0	0.1
4222	0	0.1
4223	0	0.1
4224	0	0.1
4225	0	0.1
4226	0	0.1
4227	0	0.1
4228	0	0.1
4229	0	0.1
4230	0	0.1
4231	0	0.1
4232	0	0.1
4233	0	0.1
4234	0	0.1
4235	0	0.1
4236	0	0.1
4237	0	0.1
4238	0	0.1
4239	0	0.1
4240	0	0.1
4241	0	0.1
4242	0	0.1
4243	0	0.1
4244	0	0.1
4245	0	0.1
4246	0	0.1
4247	0	0.1
4248	0	0.1
4249	0	0.1
4250	0	0.1
4251	0	0.1
4252	0	0.1
4253	0	0.1
4254	0	0.1
4255	0	0.1
4256	0	0.1
4257	0	0.1
4258	0	0.1
4259	0	0.1
4260	0	0.1
4261	0	0.1
4262	0	0.1
4263	0	0.1
4264	0	0.1
4265	0	0.1
4266	0	0.1
4267	0	0.1
4268	0	0.1
4269	0	0.1
4270	0	0.1
4271	0	0.1
4272	0	0.1
4273	0	0.1
4274	0	0.1
4275	0	0.1
4276	0	0.1
4277	0	0.1
4278	0	0.1
4279	0	0.1
4280	0	0.1
4281	0	0.1
4282	0	0.1
4283	0	0.1
4284	0	0.1
4285	0	0.1
4286	0	0.1
4287	0	0.1
4288	0	0.1
4289	0	0.1
4290	0	0.1
4291	0	0.1
4292	0	0.1
4293	0	0.1
4294	0	0.1
4295	0	0.1
4296	0	0.1
4297	0	0.1
4298	0	0.1
4299	0	0.1
4300	0	0.1
4301	0	0.1
4302	0	0.1
4303	0	0.1
4304	0	0.1
4305	0	0.1
4306	0	0.1
4307	0	0.1
4308	0	0.1
4309	0	0.1
4310	0	0.1
4311	0	0.1
4312	0	0.1
4313	0	0.1
4314	0	0.1
4315	0	0.1
4316	0	0.1
4317	0	0.1
4318	0	0.1
4319	0	0.1
4320	0	0.1
4321	0	0.1
4322	0	0.1
4323	0	0.1
4324	0	0.1
4325	0	0.1
4326	0	0.1
4327	0	0.1
4328	0	0.1
4329	0	0.1
4330	0	0.1
4331	0	0.1
4332	0	0.1
4333	0	0.1
4334	0	0.1
4335	0	0.1
4336	0	0.1
4337	0	0.1
4338	0	0.1
4339	0	0.1
4340	0	0.1
4341	0	0.1
4342	0	0.1
4343	0	0.1
4344	0	0.1
4345	0	0.1
4346	0	0.1
4347	0	0.1
4348	0	0.1
4349	0	0.1
4350	0	0.1
4351	0	0.1
4352	0	0.1
4353	0	0.1
4354	0	0.1
4355	0	0.1
4356	0	0.1
4357	0	0.166667
4358	0	0.166667
4359	0	0.166667
4360	0	0.166667
4361	0	0.166667
4362	0	0.166667
4363	0	0.166667
4364	0	0.166667
4365	0	0.166667
4366	0	0
4367	0	0
4368	0	0
4369	0	0
4370	0	0
4371	0	0
4372	0	0
4373	0	0
4374	0	0
4375	0	0
4376	0	0
4377	0	0
4378	0	0
4379	0	0
4380	0	0
4381	0	0
4382	0	0
4383	0	0
4384	0	0
4385	0	0
4386	0	0
4387	0	0
4388	0	0
4389	0	0
4390	0	0
4391	0	0
4392	0	0
4393	0	0
4394	0	0
4395	0	0
4396	0	0
4397	0	0
4398	0	0
4399	0	0
4400	0	0
4401	0	0
4402	0	0
4403	0	0
4404	0	0
4405	0	0
4406	0	0
4407	0	0
4408	0	0
4409	0	0
4410	0	0
4411	0	0
4412	0	0
4413	0	0
4414	0	0
4415	0	0
4416	0	0
4417	0	0
4418	0	0
4419	0	0
4420	0	0
4421	0	0
4422	0	0
4423	0	0
4424	0	0
4425	0	0
4426	0	0
4427	0	0
4428	0	0
4429	0	0
4430	0	0
4431	0	0
4432	0	0
4433	0	0
4434	0	0
4435	0	0
4436	0	0
4437	0	0
4438	0	0
4439	0	0
4440	0	0
4441	0	0
4442	0	0
4443	0	0
4444	0	0
4445	0	0
4446	0	0
4447	0	0
4448	0	0
4449	0	0
4450	0	0
4451	0	0
4452	0	0
4453	0	0
4454	0	0
4455	0	0
4456	0	0
4457	0	0
4458	0	0
4459	0	0
4460	0	0
4461	0	0
4462	0	0
4463	0	0
4464	0	0
4465	0	0
4466	0	0
4467	0	0
4468	0	0
4469	0	0
4470	0	0
4471	0	0
4472	0	0
4473	0	0
4474	0	0
4475	0	0
4476	0	0
4477	0	0
4478	0	0
4479	0	0
4480	0	0
4481	0	0
4482	0	0
4483	0	0
4484	0	0
4485	0	0
4486	0	0
4487	0	0
4488	0	0
4489	0	0
4490	0	0
4491	0	0
4492	0	0
4493	0	0
4494	0	0
4495	0	0
4496	0	0
4497	0	0
4498	0	0
4499	0	0
4500	0	0
4501	0	0
4502	0	0
4503	0	0
4504	0	0
4505	0	0
4506	0	0
4507	0	0
4508	0	0
4509	0	0
4510	0	0
4511	0	0
4512	0	0
4513	0	0
4514	0	0
4515	0	0
4516	0	0
4517	0	0
4518	0	0
4519	0	0
4520	0	0
4521	0	0
4522	0	0
4523	0	0
4524	0	0
4525	0	0
4526	0	0
4527	0	0
4528	0	0
4529	0	0
4530	0	0
4531	0	0
4532	0	0
4533	0	0
4534	0	0
4535	0	0
4536	0	0
4537	0	0
4538	0	0
4539	0	0
4540	0	0
4541	0	0
4542	0	0
4543	0	0
4544	0	0
4545	0	0
4546	0	0
4547	0	0
4548	0	0
4549	0	0
4550	0	0
4551	0	0
4552	0	0
4553	0	0
4554	0	0
4555	0	0
4556	0	0
4557	0	0
4558	0	0
4559	0	0
4560	0	0
4561	0	0
4562	0	0
4563	0	0
4564	0	0
4565	0	0
4566	0	0
4567	0	0
4568	0	0
4569	0	0
4570	0	0
4571	0	0
4572	0	0
4573	0	0
4574	0	0
4575	0	0
4576	0	0
4577	0	0
4578	0	0
4579	0	0
4580	0	0
4581	0	0
4582	0	0
4583	0	0
4584	0	0
4585	0	0
4586	0	0
4587	0	0
4588	0	0
4589	0	0
4590	0	0
4591	0	0
4592	0	0
4593	0	0
4594	0	0
4595	0	0
4596	0	0
4597	0	0
4598	0	0
4599	0	0
4600	0	0
4601	0	0
4602	0	0
4603	0	0
4604	0	0
4605	0	0
4606	0	0
4607	0	0
4608	0	0
4609	0	0
4610	0	0
4611	0	0
4612	0	0
4613	0	0
4614	0	0
4615	0	0
4616	0	0
4617	0	0
4618	0	0
4619	0	0
4620	0	0
4621	0	0
4622	0	0
4623	0	0
4624	0	0
4625	0	0
4626	0	0
4627	0	0
4628	0	0
4629	0	0
4630	0	0
4631	0	0
4632	0	0
4633	0	0
4634	0	0
4635	0	0
4636	0	0
4637	0	0
4638	0	0
4639	0	0
4640	0	0
4641	0	0
4642	0	0
4643	0	0
4644	0	0
4645	0	0
4646	0	0
4647	0	0
4648	0	0
4649	0	0
4650	0	0
4651	0	0
4652	0	0
4653	0	0
4654	0	0
4655	0	0
4656	0	0
4657	0	0
4658	0	0
4659	0	0
4660	0	0
4661	0	0
4662	0	0
4663	0	0
4664	0	0
4665	0	0
4666	0	0
4667	0	0
4668	0	0
4669	0	0
4670	0	0
4671	0	0
4672	0	0
4673	0	0
4674	0	0
4675	0	0
4676	0	0
4677	0	0
4678	0	0
4679	0	0
4680	0	0
4681	0	0
4682	0	0
4683	0	0
4684	0	0
4685	0	0
4686	0	0
4687	0	0
4688	0	0
4689	0	0
4690	0	0
4691	0	0
4692	0	0
4693	0	0
4694	0	0
4695	0	0
4696	0	0
4697	0	0
4698	0	0
4699	0	0
4700	0	0
4701	0	0
4702	0	0
4703	0	0
4704	0	0
4705	0	0
4706	0	0
4707	0	0
4708	0	0
4709	0	0
4710	0	0
4711	0	0
4712	0	0
4713	0	0
4714	0	0
4715	0	0
4716	0	0
4717	0	0
4718	0	0
4719	0	0
4720	0	0
4721	0	0
4722	0	0
4723	0	0
4724	0	0
4725	0	0
4726	0	0
4727	0	0
4728	0	0
4729	0	0
4730	0	0
4731	0	0
4732	0	0
4733	0	0
4734	0	0
4735	0	0
4736	0	0
4737	0	0
4738	0	0
4739	0	0
4740	0	0
4741	0	0
4742	0	0
4743	0	0
4744	0	0
4745	0	0
4746	0	0
4747	0	0
4748	0	0
4749	0	0
4750	0	0
4751	0	0
4752	0	0
4753	0	0
4754	0	0
4755	0	0
4756	0	0
4757	0	0
4758	0	0
4759	0	0
4760	0	0
4761	0	0
4762	0	0
4763	0	0
4764	0	0
4765	0	0
4766	0	0
4767	0	0
4768	0	0
4769	0	0
4770	0	0
4771	0	0
4772	0	0
4773	0	0
4774	0	0
4775	0	0
4776	0	0
4777	0	0
4778	0	0
4779	0	0
4780	0	0
4781	0	0
4782	0	0
4783	0	0
4784	0	0
4785	0	0
4786	0	0
4787	0	0
4788	0	0
4789	0	0
4790	0	0
4791	0	0
4792	0	0
4793	0	0
4794	0	0
4795	0	0
4796	0	0
4797	0	0
4798	0	0
4799	0	0
4800	0	0
4801	0	0
4802	0	0
4803	0	0
4804	0	0
4805	0	0
4806	0	0
4807	0	0
4808	0	0
4809	0	0
4810	0	0
4811	0	0
4812	0	0
4813	0	0
4814	0	0
4815	0	0
4816	0	0
4817	0	0
4818	0	0
4819	0	0
4820	0	0
4821	0	0
4822	0	0
4823	0	0
4824	0	0
4825	0	0
4826	0	0
4827	0	0
4828	0	0
4829	0	0
4830	0	0
