Site	ColumnScore	SumOfPairsScore
1	0	0
2	0	0
3	0	0
4	0	0
5	0	0
6	0	0
7	0	0
8	0	0
9	0	0
10	0	0
11	0	0
12	0	0
13	0	0
14	0	0
15	0	0
16	0	0
17	1	0
18	1	0
19	1	0
20	1	0
21	1	0
22	0	0
23	0	0
24	0	0
25	0	0
26	0	0
27	0	0
28	0	0
29	0	0
30	0	0
31	0	0
32	0	0
33	0	0
34	0	0
35	0	0
36	0	0
37	1	0
38	1	0
39	0	0
40	0	0
41	0	0
42	0	0
43	0	0
44	0	0
45	0	0
46	0	0
47	0	0
48	0	0
49	0	0
50	0	0
51	0	0
52	0	0
53	0	0
54	0	0
55	0	0
56	0	0
57	0	0
58	0	0
59	0	0
60	0	0
61	0	0
62	0	0
63	0	0
64	0	0
65	0	0
66	0	0
67	0	0
68	0	0
69	0	0
70	0	0
71	0	0
72	0	0
73	0	0
74	0	0
75	0	0
76	0	0
77	0	0
78	0	0
79	0	0
80	0	0
81	0	0
82	0	0
83	0	0
84	0	0
85	0	0
86	0	0
87	0	0
88	0	0
89	0	0
90	0	0
91	0	0
92	0	0
93	0	0
94	0	0
95	0	0
96	0	0
97	0	0
98	0	0
99	0	0
100	0	0
101	0	0
102	0	0
103	0	0
104	0	0
105	0	0
106	0	0
107	0	0
108	0	0
109	0	0
110	0	0
111	0	0
112	0	0
113	0	0
114	0	0
115	0	0
116	0	0
117	0	0
118	0	0
119	0	0
120	0	0
121	0	0
122	0	0
123	0	0
124	0	0
125	0	0
126	0	0
127	0	0
128	0	0
129	0	0
130	0	0
131	0	0
132	0	0
133	0	0
134	0	0
135	0	0
136	0	0
137	0	0
138	0	0
139	0	0
140	0	0
141	0	0
142	0	0
143	0	0
144	0	0
145	0	0
146	0	0
147	0	0
148	0	0
149	0	0
150	0	0
151	0	0
152	0	0
153	0	0
154	0	0
155	0	0
156	0	0
157	0	0
158	0	0
159	0	0
160	0	0
161	0	0
162	0	0
163	0	0
164	0	0
165	0	0
166	0	0
167	0	0
168	0	0
169	0	0
170	0	0
171	0	0
172	0	0
173	0	0
174	0	0
175	0	0
176	0	0
177	0	0
178	0	0
179	0	0
180	0	0
181	0	0
182	0	0
183	0	0
184	0	0
185	0	0
186	0	0
187	0	0
188	0	0
189	0	0
190	0	0
191	0	0
192	0	0
193	0	0
194	0	0
195	0	0
196	0	0
197	0	0
198	0	0
199	0	0
200	0	0
201	0	0
202	0	0
203	0	0
204	0	0
205	0	0
206	0	0
207	0	0
208	0	0
209	0	0
210	0	0
211	0	0
212	0	0
213	0	0
214	0	0
215	0	0
216	0	0
217	0	0
218	0	0
219	0	0.1
220	0	0.1
221	0	0.1
222	0	0.1
223	0	0.1
224	0	0.1
225	0	0.1
226	0	0.0666667
227	0	0.0888889
228	0	0.133333
229	0	0.2
230	0	0.2
231	0	0.288889
232	0	0.288889
233	0	0.288889
234	0	0.288889
235	0	0.288889
236	0	0.288889
237	0	0.288889
238	0	0.288889
239	0	0.4
240	0	0.4
241	0	0.4
242	0	0.4
243	0	0.301471
244	0	0.330484
245	0	0.692973
246	0	0.76956
247	0	0.850513
248	0	0.864153
249	0	0.880425
250	0	0.892488
251	0	0.905923
252	0	0.994398
253	0	0.994398
254	0	0.992541
255	0	0.992541
256	0	0.992541
257	0	0.992541
258	1	0
259	1	0
260	1	0
261	1	0
262	1	0
263	1	0
264	1	0
265	1	0
266	1	0
267	1	0
268	1	0
269	1	0
270	1	0
271	1	0
272	1	0
273	1	0
274	1	0
275	1	0
276	1	0
277	1	0
278	1	0
279	1	0
280	1	0
281	1	0
282	1	0
283	1	0
284	1	0
285	1	0
286	1	0
287	1	0
288	1	0
289	1	0
290	1	0
291	1	0
292	1	0
293	1	0
294	1	0
295	1	0
296	1	0
297	1	0
298	1	0
299	1	0
300	1	0
301	1	0
302	1	0
303	1	0
304	1	0
305	1	0
306	1	0
307	1	0
308	1	0
309	1	0
310	1	0
311	1	0
312	1	0
313	1	0
314	1	0
315	1	0
316	1	0
317	1	0
318	1	0
319	1	0
320	1	0
321	1	0
322	1	0
323	1	0
324	1	0
325	1	0
326	1	0
327	1	0
328	1	0
329	1	0
330	1	0
331	1	0
332	1	0
333	1	0
334	1	0
335	1	0
336	1	0
337	1	0
338	1	0
339	1	0
340	1	0
341	1	0
342	1	0
343	1	0
344	1	0
345	1	0
346	1	0
347	1	0
348	1	0
349	1	0
350	1	0
351	1	0
352	1	0
353	1	0
354	1	0
355	1	0
356	1	0
357	1	0
358	1	0
359	1	0
360	1	0
361	1	0
362	1	0
363	1	0
364	1	0
365	1	0
366	1	0
367	1	0
368	1	0
369	1	0
370	1	0
371	1	0
372	1	0
373	1	0
374	1	0
375	1	0
376	1	0
377	1	0
378	1	0
379	1	0
380	1	0
381	1	0
382	1	0
383	1	0
384	1	0
385	1	0
386	1	0
387	1	0
388	1	0
389	1	0
390	1	0
391	1	0
392	1	0
393	1	0
394	1	0
395	1	0
396	1	0
397	1	0
398	1	0
399	1	0
400	1	0
401	1	0
402	1	0
403	1	0
404	1	0
405	1	0
406	1	0
407	1	0
408	1	0
409	1	0
410	1	0
411	1	0
412	1	0
413	1	0
414	1	0
415	1	0
416	1	0
417	1	0
418	1	0
419	1	0
420	1	0
421	1	0
422	1	0
423	1	0
424	1	0
425	1	0
426	1	0
427	1	0
428	1	0
429	1	0
430	1	0
431	1	0
432	1	0
433	1	0
434	1	0
435	1	0
436	1	0
437	1	0
438	1	0
439	1	0
440	1	0
441	1	0
442	1	0
443	1	0
444	1	0
445	1	0
446	0	0
447	0	0
448	1	0
449	1	0
450	1	0
451	0	0
452	0	0
453	0	0
454	0	0
455	0	0
456	0	0
457	0	0
458	0	0
459	0	0
460	0	0
461	0	0.992541
462	0	0.99068
463	0	0.99068
464	0	0.988832
465	0	0
466	0	0
467	0	0
468	0	0
469	0	0
470	0	0
471	0	0
472	0	0
473	0	0
474	0	0
475	0	0
476	0	0
477	0	0
478	0	0
479	0	0
480	0	0
481	0	0
482	0	0
483	0	0
484	0	0
485	0	0
486	0	0
487	0	0
488	0	0
489	0	0
490	1	0
491	1	0
492	1	0
493	1	0
494	1	0
495	1	0
496	1	0
497	1	0
498	1	0
499	1	0
500	1	0
501	1	0
502	1	0
503	1	0
504	1	0
505	1	0
506	1	0
507	1	0
508	0	0
509	0	0
510	0	0
511	0	0
512	0	0
513	0	0
514	0	0
515	0	0
516	0	0
517	0	0
518	0	0
519	0	0
520	0	0
521	0	0
522	0	0
523	0	0
524	0	0
525	0	0
526	0	0
527	0	0
528	0	0
529	0	0
530	0	0
531	0	0
532	0	0
533	0	0
534	0	0
535	0	0
536	0	0
537	0	0
538	0	0
539	1	0
540	1	0
541	1	0
542	1	0
543	1	0
544	1	0
545	1	0
546	1	0
547	1	0
548	1	0
549	1	0
550	1	0
551	1	0
552	1	0
553	1	0
554	1	0
555	1	0
556	1	0
557	1	0
558	0	0
559	0	0
560	0	0
561	0	0
562	0	0
563	0	0
564	0	0
565	0	0
566	0	0
567	0	0
568	0	0
569	0	0
570	0	0
571	0	0
572	0	0
573	0	0
574	1	0
575	1	0
576	0	0
577	0	0
578	0	0
579	0	0
580	0	0
581	0	0
582	0	0
583	0	0
584	0	0
585	0	0
586	0	0
587	0	0
588	0	0
589	1	0
590	1	0
591	1	0
592	0	0
593	0	0
594	0	0
595	0	0
596	0	0
597	0	0
598	0	0
599	0	0
600	0	0
601	0	0
602	0	0
603	0	0
604	1	0
605	1	0
606	1	0
607	1	0
608	1	0
609	1	0
610	1	0
611	0	0
612	0	0
613	0	0
614	0	0
615	0	0
616	0	0
617	0	0
618	0	0
619	0	0
620	0	0
621	0	0
622	0	0
623	0	0
624	0	0
625	0	0
626	0	0
627	0	0
628	0	0
629	0	0
630	0	0
631	0	0.166667
632	0	0.166667
633	0	0.1
634	0	0.1
635	0	0.0666667
636	0	0.0666667
637	0	0.0666667
638	0	0.0666667
639	0	0.0666667
640	0	0.968557
641	0	0.966666
642	0	0
643	0	0
644	0	0.970002
645	0	0.628571
646	0	0.848776
647	0	0.5
648	0	0.5
649	0	0.5
650	0	0
651	0	0
652	0	0
653	0	0
654	0	0
655	0	0
656	0	0
657	0	0
658	0	0
659	0	0
660	0	0
661	0	0
662	0	0
663	0	0
664	0	0
665	0	0
666	0	0
667	0	0
668	0	0
669	0	0
670	0	0
671	0	0
672	0	0.750988
673	0	0.413445
674	0	0.404364
675	0	0.394249
676	0	0.568113
677	0	0.563794
678	0	0
679	0	0
680	0	0
681	0	0
682	0	0
683	0	0
684	0	0
685	0	0
686	0	0
687	0	0
688	0	0
689	0	0
690	0	0
691	0	0.304603
692	0	0
693	0	0
694	0	0
695	0	0
696	0	0
697	0	0
698	0	0
699	0	0
700	0	0
701	0	0
702	0	0.1
703	0	0.1
704	0	0.358974
705	0	0.358974
706	0	0.202614
707	0	0.177025
708	0	0.0857143
709	0	0.0857143
710	0	0.075
711	0	0.075
712	0	0.0701754
713	0	0.207771
714	0	0.198427
715	0	0.139836
716	0	0
717	0	0
718	0	0
719	0	0
720	0	0
721	0	0.109091
722	0	0.288538
723	0	0.290698
724	0	0.159594
725	0	0.104671
726	0	0.415816
727	0	0.0918806
728	0	0.288889
729	0	0.288889
730	0	0.395644
731	0	0.310145
732	0	0.113387
733	0	1
734	0	1
735	0	1
736	0	1
737	0	0.933333
738	0	0.933333
739	0	0.818548
740	0	0.373227
741	0	0.225446
742	0	0.0661765
743	0	0.0285714
744	0	0.00833333
745	0	0
746	0	0.0285714
747	0	0.030303
748	0	0.0266667
749	0	0.0732424
750	0	0.0683761
751	0	0.0687987
752	0	0.0627097
753	0	0.0720266
754	0	0.0567603
755	0	0.0561479
756	0	0.106061
757	0	0.106061
758	0	0.106061
759	0	0.127273
760	0	0.145455
761	0	0.109091
762	0	0.0802885
763	0	0.0927182
764	0	0.0903868
765	0	0.128537
766	0	0.173514
767	0	0.210957
768	0	0.152906
769	0	0.163249
770	0	0
771	0	0
772	0	0
773	0	0
774	0	0.241821
775	0	0.317626
776	0	0.274375
777	0	0.0666667
778	0	0.2
779	0	0.4
780	0	0.4
781	0	0.4
782	0	0.4
783	0	0.666667
784	0	0.666667
785	0	0.666667
786	0	0.777778
787	0	0.909091
788	0	0.913043
789	0	0.821507
790	0	0.652555
791	0	0.676071
792	0	0.521537
793	0	0.309524
794	0	0.327731
795	0	0.152353
796	0	0.100355
797	0	0.0927377
798	0	0.17881
799	0	0.226156
800	0	0.238182
801	0	0.244073
802	0	0.249947
803	0	0.254081
804	0	0.19656
805	0	0.203194
806	0	0.213657
807	0	0.213592
808	0	0.248026
809	0	0.296221
810	0	0.30981
811	0	0.376282
812	0	0.420852
813	0	0.429969
814	0	0.4
815	0	0.4
816	0	0.401441
817	0	0.41244
818	0	0.415031
819	0	0.415772
820	0	0.415772
821	0	0.415772
822	0	0.384142
823	0	0.384142
824	0	0.375291
825	0	0.373293
826	0	0.368763
827	0	0.334877
828	0	0.329419
829	0	0.329419
830	0	0.329419
831	0	0.32972
832	0	0.32972
833	0	0.314722
834	0	0.478846
835	0	0.478846
836	0	0.478846
837	0	0.480769
838	0	0.496528
839	0	0.512545
840	0	0.330233
841	0	0.334884
842	0	0.345007
843	0	0.161376
844	0	0.0769231
845	0	0.0666667
846	0	0.0666667
847	0	0.0666667
848	0	0.0666667
849	0	0.0666667
850	0	0.0714286
851	0	0.0714286
852	0	0.0714286
853	0	0.0714286
854	0	0.0714286
855	0	0.0952381
856	0	0.0952381
857	0	0.0952381
858	0	0.0952381
859	0	0.619883
860	0	0.749425
861	0	0.166667
862	0	0.166667
863	0	0.333333
864	0	1
865	0	1
866	0	1
867	0	1
868	0	1
869	0	0.937562
870	0	0.992562
871	0	0.992569
872	0	0.992569
873	0	0.992569
874	0	0.990732
875	0	0.990732
876	0	0.990732
877	0	0.990732
878	0	0.992575
879	0	0.75
880	0	0.583333
881	0	0.908349
882	0	0.787793
883	0	0.465163
884	0	0.742969
885	0	0.560606
886	0	0.382609
887	0	0.324902
888	0	0.379534
889	0	0.166667
890	0	0.631823
891	0	0.819303
892	0	0.96506
893	0	0.527473
894	0	0.996284
895	0	0.994434
896	0	0.994434
897	0	0.992584
898	0	0.994429
899	0	0.996295
900	0	0.996295
901	0	0.996298
902	0	0
903	1	0
904	1	0
905	1	0
906	1	0
907	1	0
908	1	0
909	0	0.994455
910	0	0.994455
911	0	0.994455
912	0	0.994455
913	0	0.98709
914	0	0.333333
915	0	0.2
916	0	0.1
917	0	0.290909
918	0	0.788959
919	0	0.540786
920	0	0.504221
921	0	0.679906
922	0	1
923	0	0.6
924	0	0.6
925	0	0.6
926	0	1
927	0	1
928	0	1
929	0	1
930	0	1
931	0	1
932	0	1
933	0	1
934	1	1
935	1	1
936	0	0.6
937	0	0.6
938	0	0.6
939	0	0.6
940	0	0.599483
941	0	0.627312
942	0	0.268418
943	0	0.25636
944	0	0.319239
945	0	0.386555
946	0	0.520599
947	0	0.484642
948	0	0.688445
949	0	0.801948
950	0	0.860238
951	0	0.515861
952	0	0.142857
953	0	0.142857
954	0	0.333333
955	0	0.333333
956	0	0.976067
957	0	0.777778
958	0	0
959	0	0
960	0	0
961	0	0
962	0	0
963	0	0
964	0	0
965	0	0
966	0	0
967	0	0
968	0	0
969	0	0
970	0	0
971	1	1
972	1	1
973	1	1
974	1	1
975	1	1
976	1	1
977	1	1
978	1	1
979	1	1
980	1	1
981	1	1
982	1	1
983	0	1
984	1	0
985	1	0
986	1	0
987	1	0
988	1	0
989	1	0
990	1	0
991	1	0
992	1	0
993	1	0
994	1	0
995	1	0
996	1	0
997	1	0
998	1	0
999	1	0
1000	1	0
1001	1	0
1002	1	0
1003	1	0
1004	1	0
1005	1	0
1006	1	1
1007	1	1
1008	1	1
1009	1	1
1010	1	1
1011	1	1
1012	1	1
1013	1	1
1014	1	1
1015	1	0
1016	1	0
1017	1	0
1018	1	0
1019	1	0
1020	1	0
1021	1	0
1022	1	0
1023	1	0
1024	1	0
1025	1	0
1026	1	0
1027	1	0
1028	1	0
1029	1	0
1030	1	0
1031	1	0
1032	1	0
1033	0	0.998157
1034	0	0.998157
1035	0	0
1036	0	0
1037	0	0
1038	0	0
1039	1	0
1040	1	0
1041	1	0
1042	1	0
1043	0	0.99815
1044	0	0.994462
1045	0	0.990785
1046	0	0
1047	0	0
1048	0	0
1049	0	0
1050	0	0
1051	0	0.990797
1052	0	0.333333
1053	0	1
1054	0	1
1055	0	1
1056	0	1
1057	0	1
1058	1	1
1059	1	1
1060	1	1
1061	1	1
1062	0	1
1063	0	0.330196
1064	0	0.908054
1065	0	0.5
1066	0	0.678036
1067	0	0.475574
1068	0	0
1069	0	0
1070	0	0
1071	0	0.2
1072	0	0.683602
1073	0	0.333333
1074	0	1
1075	0	1
1076	0	1
1077	1	1
1078	1	1
1079	1	1
1080	1	1
1081	1	1
1082	1	1
1083	1	1
1084	1	1
1085	1	1
1086	1	1
1087	1	1
1088	1	1
1089	1	1
1090	1	1
1091	1	1
1092	1	1
1093	0	1
1094	0	1
1095	0	1
1096	0	0.861003
1097	0	0.541725
1098	0	1
1099	0	0.985187
1100	0	1
1101	0	1
1102	0	1
1103	0	1
1104	0	1
1105	0	1
1106	0	1
1107	0	1
1108	0	1
1109	0	1
1110	0	1
1111	0	1
1112	0	1
1113	0	1
1114	1	1
1115	1	1
1116	1	1
1117	1	1
1118	1	1
1119	1	1
1120	1	1
1121	0	1
1122	1	1
1123	0	1
1124	0	1
1125	0	0.333333
1126	0	0.166667
1127	0	0.166667
1128	0	0.166667
1129	0	0.166667
1130	0	0
1131	0	0
1132	0	0
1133	0	0
1134	0	0
1135	0	0
1136	0	0
1137	0	0
1138	0	0
1139	0	1
1140	0	1
1141	0	1
1142	0	1
1143	0	0.992582
1144	0	0.994434
1145	0	0.992582
1146	0	0.372549
1147	0	0.931319
1148	0	0.355556
1149	0	0.305556
1150	0	0.305556
1151	0	0.494709
1152	0	0.166667
1153	0	0.166667
1154	0	0.166667
1155	0	0.333333
1156	0	1
1157	0	1
1158	0	1
1159	0	1
1160	0	0.320926
1161	0	0.634615
1162	0	0.648123
1163	0	0.981542
1164	0	0.98338
1165	0	0.983382
1166	0	0
1167	0	0
1168	0	0
1169	0	0
1170	0	0
1171	0	0
1172	0	0
1173	0	0
1174	0	0
1175	0	0
1176	0	0
1177	0	0
1178	0	0
1179	0	0
1180	0	0
1181	0	0
1182	0	0
1183	0	0
1184	0	0
1185	0	0
1186	0	0.988874
1187	0	0.988874
1188	0	0.988874
1189	0	0.987027
1190	0	0.92
1191	0	0.843333
1192	0	0.515152
1193	0	0.490509
1194	0	0
1195	0	0.91844
1196	0	0.658333
1197	0	0.588235
1198	0	0.580882
1199	0	0.51634
1200	0	0.476735
1201	0	0.471651
1202	0	0.75
1203	0	0.75
1204	0	0.75
1205	0	0.75
1206	0	0.75
1207	0	0.75
1208	0	0.75
1209	0	0.75
1210	0	0.75
1211	0	0.75
1212	0	0.535714
1213	0	0.535714
1214	0	0.535714
1215	0	0.535714
1216	0	0.535714
1217	0	0.25
1218	0	0.142857
1219	0	0.424369
1220	0	1
1221	0	1
1222	0	1
1223	0	1
1224	0	1
1225	0	1
1226	0	1
1227	0	1
1228	0	1
1229	0	1
1230	0	0.333333
1231	0	1
1232	0	1
1233	0	1
1234	0	1
1235	0	0.5
1236	0	1
1237	0	1
1238	0	1
1239	0	0.72
1240	0	1
1241	0	1
1242	0	1
1243	0	1
1244	0	1
1245	0	0.6
1246	0	0.6
1247	0	0.6
1248	0	0.6
1249	0	0.6
1250	0	0.6
1251	0	0.6
1252	0	0.409091
1253	0	0.386958
1254	0	0.21978
1255	0	0.21978
1256	0	0.274725
1257	0	0.274725
1258	0	0.238095
1259	0	0.238095
1260	0	0.2
1261	0	0.180952
1262	0	0.180952
1263	0	0.143791
1264	0	0.250871
1265	0	0.357605
1266	0	0.558827
1267	0	0.733333
1268	0	0.423529
1269	0	0.209524
1270	0	0.290909
1271	0	0.290909
1272	0	0.290909
1273	0	0.290909
1274	0	0.142857
1275	0	0.127273
1276	0	0.166667
1277	0	0.238095
1278	0	0.2
1279	0	0.52381
1280	0	0.52381
1281	0	0.333333
1282	0	0.333333
1283	0	0.333333
1284	0	0.190476
1285	0	0.190476
1286	0	0.190476
1287	0	0.190476
1288	0	0.190476
1289	0	0.190476
1290	0	0.190476
1291	0	0.190476
1292	0	0.266667
1293	0	0.4
1294	0	0.4
1295	0	0.4
1296	0	0.4
1297	0	0.4
1298	0	0.4
1299	0	0.4
1300	0	0.4
1301	0	0.4
1302	0	0.4
1303	0	0.4
1304	0	0.4
1305	0	0.4
1306	0	0.4
1307	0	0.4
1308	0	0.4
1309	0	0.4
1310	0	0.4
1311	0	0.4
1312	0	0.343738
1313	0	0
1314	0	0.13289
1315	0	0.233401
1316	0	0.615385
1317	0	0.552381
1318	0	0.555777
1319	0	0.374934
1320	0	0.377368
1321	0	0.724664
1322	0	0.987018
1323	0	0.992575
1324	0	0.992575
1325	0	0.992575
1326	0	0.992575
1327	0	0.992575
1328	0	0.992569
1329	0	0.992569
1330	0	0.992569
1331	0	0.992562
1332	0	0
1333	0	0
1334	0	0
1335	0	0
1336	0	0
1337	0	0
1338	0	0
1339	0	0
1340	0	0
1341	0	0
1342	0	0
1343	0	0
1344	0	0
1345	0	0
1346	0	0
1347	0	0
1348	0	0
1349	0	0
1350	0	0
1351	0	0
1352	0	0
1353	0	0
1354	0	0
1355	0	0
1356	0	0
1357	0	0
1358	0	0
1359	0	0
1360	0	0
1361	0	0
1362	0	0
1363	0	0
1364	0	0
1365	0	0
1366	0	0
1367	0	0
1368	0	0
1369	0	0
1370	0	0
1371	0	0
1372	0	0
1373	0	0
1374	0	0
1375	0	0
1376	0	0
1377	0	0
1378	0	0
1379	0	0
1380	0	0
1381	0	0
1382	0	0
1383	0	0
1384	0	0
1385	0	0
1386	0	0
1387	0	0
1388	0	0
1389	0	0
1390	0	0
1391	0	0
1392	0	0
1393	0	0
1394	0	0
1395	0	0
1396	0	0
1397	0	0
1398	0	0
1399	0	0
1400	0	0
1401	0	0
1402	0	0
1403	0	0
1404	0	0
1405	0	0
1406	0	0
1407	0	0
1408	0	0
1409	0	0
1410	0	0
1411	0	0
1412	0	0
1413	0	0
1414	0	0
1415	0	0
1416	0	0
1417	0	0
1418	0	0
1419	0	0
1420	0	0
1421	0	0
1422	0	0
1423	0	0
1424	0	0
1425	0	0
1426	0	0
1427	0	0
1428	0	0
1429	0	0
1430	0	0
1431	0	0
1432	0	0
1433	0	0
1434	0	0
1435	0	0
1436	0	0
1437	0	0
1438	0	0
1439	0	0
1440	0	0
1441	0	0
1442	0	0
1443	0	0
1444	0	0
1445	0	0
1446	0	0
1447	0	0
1448	0	0
1449	0	0
1450	0	0
1451	0	0
1452	0	0
1453	0	0
1454	0	0
1455	0	0
1456	0	0
1457	0	0
1458	0	0
1459	0	0
1460	0	0
1461	0	0
1462	0	0
1463	0	0
1464	0	0
1465	0	0
1466	0	0
1467	0	0
1468	0	0
1469	0	0
1470	0	0
1471	0	0
1472	0	0
1473	0	0
1474	0	0
1475	0	0
1476	0	0
1477	0	0
1478	0	0
1479	0	0
1480	0	0
1481	0	0
1482	0	0
1483	0	0
1484	0	0
1485	0	0
1486	0	0
1487	0	0
1488	0	0
1489	0	0
1490	0	0
1491	0	0
1492	0	0
1493	0	0
1494	0	0
1495	0	0
1496	0	0
1497	0	0
1498	0	0
1499	0	0
1500	0	0
1501	0	0
1502	1	0
1503	1	0
1504	0	0
1505	0	0
1506	0	0
1507	0	0
1508	0	0
1509	0	0
1510	0	0
1511	0	0
1512	0	0
1513	0	0
1514	0	0
1515	0	0
1516	0	0
1517	1	0
1518	1	0
1519	1	0
1520	1	0
1521	1	0
1522	1	0
1523	1	0
1524	1	0
1525	1	0
1526	1	0
1527	1	0
1528	1	0
1529	0	0
1530	0	0
1531	0	0
1532	0	0
1533	0	0
1534	0	0
1535	0	0
1536	0	0
1537	0	0
1538	0	0
1539	0	0
1540	0	0
1541	0	0
1542	0	0
1543	0	0
1544	0	0
1545	0	0
1546	0	0
1547	0	0
1548	0	0
1549	0	0
1550	0	0
1551	0	0
1552	0	0
1553	0	0
1554	0	0
1555	0	0
1556	0	0
1557	0	0
1558	0	0
1559	0	0
1560	0	0
1561	0	0
1562	0	0
1563	0	0
1564	0	0
1565	0	0
1566	0	0
1567	0	0
1568	0	0
1569	0	0
1570	0	0.990706
1571	0	0.990706
1572	0	0.990706
1573	0	0.988853
1574	0	0.988842
1575	0	0.990698
1576	0	0
1577	0	0
1578	0	0
1579	0	0
1580	0	0
1581	0	0
1582	0	0
1583	0	0
1584	0	0
1585	0	0
1586	0	0
1587	0	0
1588	0	0
1589	0	0
1590	0	0
1591	0	0
1592	0	0
1593	0	0
1594	0	0
1595	0	0
1596	0	0
1597	0	0
1598	0	0
1599	0	0
1600	0	0
1601	1	0
1602	0	0
1603	1	0
1604	0	0
1605	0	0
1606	0	0
1607	0	0
1608	0	0
1609	0	0
1610	0	0
1611	0	0
1612	0	0
1613	0	0
1614	0	0
1615	0	0
1616	0	0
1617	0	0
1618	0	0
1619	0	0
1620	0	0
1621	0	0
1622	0	0
1623	0	0
1624	0	0
1625	0	0
1626	0	0
1627	0	0
1628	0	0
1629	0	0
1630	0	0
1631	0	0
1632	0	0
1633	0	0
1634	0	0
1635	0	0
1636	0	0
1637	0	0
1638	0	0
1639	0	0
1640	0	0
1641	0	0
1642	0	0
1643	0	0
1644	0	0
1645	0	0
1646	0	0
1647	0	0
1648	0	0
1649	0	0
1650	0	0
1651	0	0
1652	0	0
1653	0	0
1654	0	0
1655	0	0
1656	0	0
1657	0	0
1658	0	0
1659	0	0
1660	0	0
1661	0	0
1662	0	0
1663	1	0
1664	1	0
1665	0	0
1666	0	0
1667	0	0
1668	0	0
1669	0	0
1670	0	0
1671	0	0
1672	0	0
1673	0	0
1674	0	0
1675	0	0
1676	0	0
1677	0	0
1678	0	0
1679	0	0
1680	0	0
1681	0	0
1682	0	0
1683	0	0
1684	0	0
1685	0	0
1686	0	0.983303
1687	0	0.985151
1688	0	0.985151
1689	0	0.875
1690	0	0.875
1691	0	0.875
1692	0	0.579574
1693	0	0.574675
1694	0	0.574675
1695	0	0.885756
1696	0	0.885648
1697	0	0.885658
1698	0	0.991525
1699	0	0.991525
1700	0	0.991525
1701	0	0.991525
1702	0	0.5
1703	0	0.466667
1704	0	0.466667
1705	0	0.466667
1706	0	0.466667
1707	0	0.333333
1708	0	0.333333
1709	0	1
1710	0	1
1711	0	1
1712	0	1
1713	0	1
1714	0	1
1715	0	1
1716	0	1
1717	0	1
1718	0	0.96975
1719	0	1
1720	0	1
1721	0	1
1722	0	1
1723	0	1
1724	0	1
1725	0	1
1726	0	1
1727	0	1
1728	1	1
1729	1	1
1730	0	1
1731	0	1
1732	0	1
1733	0	1
1734	0	1
1735	0	1
1736	0	1
1737	0	1
1738	0	1
1739	0	1
1740	0	1
1741	0	1
1742	0	1
1743	0	1
1744	0	1
1745	0	1
1746	0	1
1747	0	1
1748	0	1
1749	0	1
1750	0	1
1751	0	1
1752	0	1
1753	0	1
1754	0	1
1755	0	1
1756	0	1
1757	0	1
1758	0	1
1759	0	1
1760	0	0.333333
1761	0	0.333333
1762	0	0.488889
1763	0	0.25731
1764	0	0.209524
1765	0	0.320865
1766	0	0.283654
1767	0	0.336913
1768	0	0.312821
1769	0	0.348635
1770	0	0.449135
1771	0	0.750667
1772	0	1
1773	0	1
1774	0	1
1775	0	1
1776	0	1
1777	0	1
1778	0	1
1779	0	1
1780	0	0.931283
1781	0	0.881206
1782	0	0.885405
1783	0	0.440348
1784	0	0.380148
1785	0	0.547126
1786	0	0.555758
1787	0	0.64
1788	0	0.626812
1789	0	0.626812
1790	0	0.626812
1791	0	0.683794
1792	0	0.623188
1793	0	0.573333
1794	0	0.529231
1795	0	0.529231
1796	0	0.529231
1797	0	0.460317
1798	0	0.422989
1799	0	0.29372
1800	0	0.29372
1801	0	0.29372
1802	0	0.29372
1803	0	0.29372
1804	0	0.29372
1805	0	0.246599
1806	0	0.316805
1807	0	0.602946
1808	0	0.599335
1809	0	0.601373
1810	0	0.336723
1811	0	0.562105
1812	0	0.439655
1813	0	0.805471
1814	0	0.886672
1815	0	0.882191
1816	0	0.881989
1817	0	0.882013
1818	0	0.882013
1819	0	0.882013
1820	0	0.882013
1821	0	0.882013
1822	0	0.886326
1823	0	0.886326
1824	0	0.886326
1825	0	0.886326
1826	0	0.886326
1827	0	0.890671
1828	0	0.889091
1829	0	0.877701
1830	0	0.689979
1831	0	0.631659
1832	0	0.612958
1833	0	0.600633
1834	0	0.549445
1835	0	0.403367
1836	0	0.298258
1837	0	0.118431
1838	0	0.0791837
1839	0	0.0656028
1840	0	0.0333333
1841	0	0.0282828
1842	0	0.0243632
1843	0	0.0232558
1844	0	0.0209059
1845	0	0.0192308
1846	0	0.0188934
1847	0	0.494446
1848	0	0.350877
1849	0	0.339001
1850	0	0.43758
1851	0	0.0249554
1852	0	0.0236559
1853	0	0.0221675
1854	0	0.0197044
1855	0	0.019943
1856	0	0.019943
1857	0	0.0215385
1858	0	0.0153846
1859	0	0.0133333
1860	0	0.0133333
1861	0	0.0158103
1862	0	0.0158103
1863	0	0.0158103
1864	0	0.0158103
1865	0	0.012987
1866	0	0.0190476
1867	0	0.0190476
1868	0	0.0210526
1869	0	0.0210526
1870	0	0.0263158
1871	0	0.0263158
1872	0	0.0210526
1873	0	0.0315789
1874	0	0.0292398
1875	0	0.0292398
1876	0	0.0292398
1877	0	0.585907
1878	0	0.586767
1879	0	0.501277
1880	0	0.491847
1881	0	0.491847
1882	0	0.429001
1883	0	0.429001
1884	0	0.451671
1885	0	0.461871
1886	0	0.491798
1887	0	0.517477
1888	0	0.531655
1889	0	0.561424
1890	0	0.561424
1891	0	0.439045
1892	0	0.451712
1893	0	0.475991
1894	0	0.531465
1895	0	0.529878
1896	0	0.545355
1897	0	0.562147
1898	0	0.562147
1899	0	0.021978
1900	0	0.0128205
1901	0	0.030303
1902	0	0.0222222
1903	0	0.0222222
1904	0	0
1905	0	0
1906	0	0
1907	0	0
1908	0	0
1909	0	0
1910	0	0
1911	0	0
1912	0	0
1913	0	0
1914	0	0
1915	0	0
1916	0	0
1917	0	0
1918	0	0
1919	0	0
1920	0	0
1921	0	0
1922	0	0
1923	0	0
1924	0	0
1925	0	0
1926	0	0
1927	0	0
1928	0	0
1929	0	0
1930	0	0
1931	0	0
1932	0	0
1933	0	0
1934	0	0
1935	0	0
1936	0	0
1937	0	0
1938	0	0
1939	0	0
1940	0	0
1941	0	0
1942	0	0
1943	0	0
1944	0	0
1945	0	0
1946	0	0
1947	0	0
1948	0	0
1949	0	0
1950	0	0
1951	0	0
1952	0	0
1953	0	0
1954	0	0
1955	0	0
1956	0	1
1957	0	1
1958	0	1
1959	0	1
1960	0	1
1961	0	1
1962	0	0.860089
1963	0	0.583524
1964	0	0.872004
1965	0	0.136364
1966	0	0.89051
1967	0	0.398782
1968	0	0.426418
1969	0	0.0361111
1970	0	0.0361111
1971	0	0.0344234
1972	0	0.0319328
1973	0	0.032493
1974	0	0.0355742
1975	0	0.0298222
1976	0	0.0372093
1977	0	0.0450373
1978	0	0.0434174
1979	0	0.0374829
1980	0	0.0413133
1981	0	0.0430366
1982	0	0.0497193
1983	0	0.0470462
1984	0	0.0515905
1985	0	0.0506792
1986	0	0.0506792
1987	0	0.425965
1988	0	0.424366
1989	0	0.423992
1990	0	0.415851
1991	0	0.413991
1992	0	0.047619
1993	0	0.0555556
1994	0	0.0222222
1995	0	0.0690691
1996	0	0.0573171
1997	0	0.0444444
1998	0	0.0407712
1999	0	0.0402746
2000	0	0.0364318
2001	0	0.369164
2002	0	0
2003	0	0
2004	0	0
2005	0	0
2006	0	0
2007	0	0
2008	0	0
2009	0	0
2010	0	0
2011	0	0
2012	0	0
2013	0	0
2014	0	0
2015	0	0
2016	0	0
2017	0	0
2018	0	0
2019	0	0
2020	0	0
2021	0	0
2022	0	0
2023	0	0
2024	0	0
2025	0	0
2026	0	0
2027	0	0
2028	0	0
2029	0	0
2030	0	0
2031	0	0
2032	0	0
2033	0	0
2034	0	0
2035	0	0
2036	0	0
2037	0	0
2038	0	0
2039	0	0
2040	0	0
2041	0	0
2042	0	0
2043	0	0
2044	0	0
2045	0	0
2046	0	0
2047	0	0
2048	0	0
2049	0	0
2050	0	0
2051	0	0
2052	0	0
2053	0	0
2054	0	0
2055	0	0
2056	0	0
2057	0	0
2058	0	0
2059	0	0
2060	0	0
2061	0	0
2062	0	0
2063	0	0
2064	0	0
2065	0	0
2066	0	0
2067	0	0
2068	0	0
2069	0	0
2070	0	0
2071	0	0
2072	0	0
2073	0	0
2074	0	0
2075	0	0
2076	0	0
2077	0	0
2078	0	0
2079	0	0
2080	0	0
2081	0	0
2082	0	0
2083	0	0
2084	0	0
2085	0	0
2086	0	0
2087	0	0
2088	0	0
2089	0	0
2090	0	0
2091	0	0
2092	0	0
2093	0	0
2094	0	0
2095	0	0
2096	0	0
2097	0	0
2098	0	0
2099	0	0
2100	0	0
2101	0	0
2102	0	0
2103	0	0
2104	0	0
2105	0	0
2106	0	0
2107	0	0
2108	0	0
2109	0	0
2110	0	0
2111	0	0
2112	0	0
2113	0	0
2114	0	0
2115	0	0
2116	0	0
2117	0	0
2118	0	0
2119	1	0
2120	1	0
2121	1	0
2122	1	0
2123	0	0
2124	0	0
2125	0	0
2126	0	0
2127	0	0
2128	0	0
2129	0	0
2130	0	0
2131	0	0
2132	0	0
2133	0	0
2134	0	0
2135	0	0
2136	0	0
2137	0	0
2138	0	0
2139	0	0
2140	0	0
2141	0	0
2142	0	0
2143	0	0
2144	0	0
2145	0	0
2146	0	0
2147	0	0
2148	0	0
2149	0	0
2150	0	0
2151	0	0
2152	0	0
2153	0	0
2154	0	0
2155	0	0
2156	0	0
2157	0	0
2158	0	0
2159	0	0
2160	1	0
2161	1	0
2162	1	0
2163	1	0
2164	1	0
2165	1	0
2166	1	0
2167	1	0
2168	1	0
2169	1	0
2170	1	0
2171	1	0
2172	1	0
2173	1	0
2174	1	0
2175	1	0
2176	1	0
2177	1	0
2178	1	0
2179	1	0
2180	1	0
2181	1	0
2182	1	0
2183	1	0
2184	1	0
2185	1	0
2186	1	0
2187	1	0
2188	1	0
2189	1	0
2190	1	0
2191	0	0
2192	0	0
2193	0	0
2194	0	0
2195	0	0
2196	0	0
2197	0	0
2198	0	0
2199	0	0
2200	0	0
2201	0	0
2202	0	0
2203	0	0
2204	0	0
2205	0	0
2206	0	0
2207	0	0
2208	0	0
2209	0	0
2210	0	0
2211	0	0
2212	0	0
2213	0	0
2214	0	0
2215	0	0
2216	0	0
2217	0	0
2218	0	0
2219	1	0
2220	1	0
2221	1	0
2222	1	0
2223	1	0
2224	1	0
2225	1	0
2226	0	0
2227	0	0
2228	0	0
2229	1	0
2230	1	0
2231	1	0
2232	0	0
2233	0	0
2234	0	0
2235	0	0
2236	0	0
2237	0	0
2238	0	0
2239	0	0
2240	0	0
2241	0	0
2242	0	0
2243	0	0
2244	0	0
2245	0	0
2246	0	0
2247	0	0
2248	0	0
2249	0	0
2250	0	0
2251	0	0
2252	0	0
2253	0	0
2254	0	0
2255	0	0
2256	0	0
2257	0	0
2258	0	0
2259	0	0
2260	0	0
2261	0	0
2262	0	0
2263	0	0
2264	0	0
2265	0	0
2266	0	0
2267	0	0
2268	0	0
2269	0	0
2270	0	0
2271	0	0
2272	0	0
2273	0	0
2274	0	0
2275	1	0
2276	1	0
2277	0	0
2278	0	0
2279	0	0
2280	0	0
2281	0	0
2282	1	0
2283	0	0
2284	0	0
2285	0	0
2286	0	0
2287	0	0
2288	0	0
2289	0	0
2290	1	0
2291	1	0
2292	1	0
2293	1	0
2294	1	0
2295	1	0
2296	1	0
2297	1	0
2298	1	0
2299	1	0
2300	0	0
2301	0	0
2302	0	0
2303	0	0
2304	0	0
2305	0	0
2306	0	0
2307	0	0
2308	0	0
2309	0	0
2310	0	0
2311	0	0
2312	0	0
2313	0	0
2314	0	0
2315	0	0
2316	0	0
2317	0	0
2318	0	0
2319	0	0
2320	0	0
2321	0	0
2322	0	0
2323	0	0
2324	0	0
2325	0	0
2326	0	0
2327	0	0
2328	0	0
2329	0	0
2330	0	0
2331	0	0
2332	0	0
2333	0	0
2334	0	0
2335	0	0
2336	0	0
2337	0	0
2338	0	0
2339	0	0
2340	0	0
2341	0	0
2342	0	0
2343	0	0
2344	0	0
2345	0	0
2346	0	0
2347	0	0
2348	0	0
2349	0	0
2350	0	0
2351	0	0
2352	0	0
2353	0	0
2354	0	0
2355	0	0
2356	0	0
2357	0	0
2358	0	0
2359	0	0
2360	0	0
2361	0	0
2362	0	0
2363	0	0
2364	0	0
2365	0	0
2366	0	0
2367	0	0
2368	1	0
2369	1	0
2370	1	0
2371	1	0
2372	1	0
2373	1	0
2374	1	0
2375	1	0
2376	1	0
2377	0	0
2378	0	0
2379	0	0
2380	0	0
2381	0	0
2382	0	0
2383	0	0
2384	0	0
2385	0	0
2386	0	0
2387	0	0
2388	0	0
2389	0	0
2390	0	0
2391	0	0
2392	0	0
2393	0	0
2394	0	0
2395	0	0
2396	0	0
2397	0	0
2398	0	0
2399	1	0
2400	1	0
2401	1	0
2402	1	0
2403	1	0
2404	1	0
2405	1	0
2406	1	0
2407	0	0
2408	0	0
2409	0	0
2410	0	0
2411	0	0
2412	0	0
2413	0	0
2414	0	0
2415	0	0
2416	0	0
2417	0	0
2418	0	0
2419	0	0
2420	0	0
2421	1	0
2422	1	0
2423	1	0
2424	0	0
2425	0	0
2426	0	0
2427	0	0
2428	0	0
2429	0	0
2430	1	0
2431	1	0
2432	0	0
2433	0	0
2434	0	0
2435	1	0
2436	1	0
2437	0	0
2438	0	0
2439	0	0
2440	0	0
2441	0	0
2442	0	0
2443	0	0
2444	0	0
2445	0	0
2446	0	0
2447	0	0
2448	0	0
2449	0	0
2450	0	0
2451	0	0
2452	0	0
2453	0	0
2454	0	0
2455	1	0
2456	1	0
2457	1	0
2458	1	0
2459	1	0
2460	1	0
2461	1	0
2462	1	0
2463	1	0
2464	1	0
2465	1	0
2466	1	0
2467	1	0
2468	1	0
2469	1	0
2470	1	0
2471	1	0
2472	1	0
2473	1	0
2474	1	0
2475	1	0
2476	1	0
2477	1	0
2478	1	0
2479	1	0
2480	1	0
2481	0	0
2482	0	0
2483	0	0
2484	0	0
2485	0	0
2486	0	0
2487	0	0
2488	0	0
2489	0	0
2490	0	0
2491	0	0
2492	0	0
2493	0	0
2494	0	0
2495	0	0
2496	0	0
2497	0	0
2498	0	0
2499	0	0
2500	0	0
2501	0	0
2502	0	0
2503	0	0
2504	0	0
2505	0	0
2506	0	0
2507	0	0
2508	0	0
2509	0	0
2510	0	0
2511	0	0
2512	0	0
2513	0	0
2514	0	0
2515	0	0
2516	1	0
2517	0	0
2518	0	0
2519	0	0
2520	0	0
2521	0	0
2522	0	0
2523	0	0
2524	0	0
2525	0	0
2526	0	0
2527	0	0
2528	0	0
2529	0	0
2530	0	0
2531	0	0
2532	0	0
2533	0	0
2534	0	0
2535	0	0
2536	0	0
2537	0	0
2538	0	0
2539	0	0
2540	0	0
2541	1	0
2542	1	0
2543	0	0
2544	0	0
2545	0	0
2546	0	0
2547	0	0
2548	0	0
2549	0	0
2550	0	0
2551	0	0
2552	0	0
2553	0	0
2554	0	0
2555	0	0
2556	0	0
2557	0	0
2558	0	0
2559	0	0
2560	0	0
2561	0	0
2562	0	0
2563	0	0
2564	0	0
2565	0	0
2566	0	0
2567	0	0
2568	0	0
2569	0	0
2570	0	0
2571	0	0
2572	1	0
2573	1	0
2574	1	0
2575	1	0
2576	1	0
2577	0	0
2578	0	0
2579	0	0
2580	0	0
2581	1	0
2582	0	0
2583	0	0
2584	0	0
2585	0	0
2586	0	0
2587	0	0
2588	0	0
2589	0	0
2590	0	0
2591	0	0
2592	0	0
2593	0	0
2594	0	0
2595	0	0
2596	0	0
2597	0	0
2598	0	0
2599	0	0
2600	0	0
2601	0	0
2602	0	0
2603	0	0
2604	0	0
2605	0	0
2606	0	0
2607	0	0
2608	0	0
2609	0	0
2610	0	0
2611	0	0
2612	0	0
2613	0	0
2614	0	0
2615	0	0
2616	1	0
2617	1	0
2618	1	0
2619	1	0
2620	1	0
2621	0	0
2622	0	0
2623	0	0
2624	0	0
2625	0	0
2626	0	0
2627	0	0
2628	0	0
2629	0	0
2630	0	0
2631	0	0
2632	0	0
2633	0	0
2634	0	0
2635	0	0
2636	0	0
2637	0	0
2638	0	0
2639	0	0
2640	0	0
2641	0	0
2642	0	0
2643	0	0
2644	0	0
2645	0	0
2646	0	0
2647	0	0
2648	0	0
2649	1	0
2650	1	0
2651	1	0
2652	1	0
2653	1	0
2654	1	0
2655	1	0
2656	1	0
2657	1	0
2658	1	0
2659	1	0
2660	1	0
2661	1	0
2662	1	0
2663	1	0
2664	1	0
2665	1	0
2666	1	0
2667	1	0
2668	1	0
2669	1	0
2670	1	0
2671	1	0
2672	1	0
2673	1	0
2674	1	0
2675	1	0
2676	1	0
2677	1	0
2678	1	0
2679	1	0
2680	1	0
2681	1	0
2682	1	0
2683	1	0
2684	1	0
2685	1	0
2686	1	0
2687	1	0
2688	1	0
2689	1	0
2690	1	0
2691	1	0
2692	1	0
2693	1	0
2694	1	0
2695	1	0
2696	1	0
2697	1	0
2698	1	0
2699	1	0
2700	1	0
2701	1	0
2702	1	0
2703	1	0
2704	1	0
2705	1	0
2706	1	0
2707	1	0
2708	1	0
2709	1	0
2710	1	0
2711	1	0
2712	1	0
2713	1	0
2714	1	0
2715	1	0
2716	1	0
2717	1	0
2718	1	0
2719	1	0
2720	1	0
2721	1	0
2722	1	0
2723	1	0
2724	1	0
2725	1	0
2726	1	0
2727	1	0
2728	1	0
2729	1	0
2730	1	0
2731	1	0
2732	1	0
2733	1	0
2734	1	0
2735	1	0
2736	1	0
2737	1	0
2738	1	0
2739	1	0
2740	1	0
2741	1	0
2742	1	0
2743	1	0
2744	1	0
2745	1	0
2746	1	0
2747	1	0
2748	1	0
2749	1	0
2750	1	0
2751	1	0
2752	1	0
2753	1	0
2754	1	0
2755	1	0
2756	1	0
2757	1	0
2758	1	0
2759	1	0
2760	1	0
2761	1	0
2762	1	0
2763	1	0
2764	1	0
2765	1	0
2766	1	0
2767	1	0
2768	1	0
2769	1	0
2770	1	0
2771	1	0
2772	1	0
2773	1	0
2774	1	0
2775	1	0
2776	1	0
2777	1	0
2778	1	0
2779	1	0
2780	1	0
2781	1	0
2782	1	0
2783	1	0
2784	1	0
2785	1	0
2786	1	0
2787	1	0
2788	1	0
2789	1	0
2790	1	0
2791	1	0
2792	1	0
2793	1	0
2794	1	0
2795	1	0
2796	1	0
2797	1	0
2798	1	0
2799	1	0
2800	1	0
2801	1	0
2802	1	0
2803	1	0
2804	1	0
2805	1	0
2806	1	0
2807	1	0
2808	1	0
2809	1	0
2810	1	0
2811	1	0
2812	1	0
2813	1	0
2814	1	0
2815	1	0
2816	1	0
2817	1	0
2818	1	0
2819	1	0
2820	1	0
2821	1	0
2822	1	0
2823	1	0
2824	1	0
2825	1	0
2826	1	0
2827	1	0
2828	1	0
2829	1	0
2830	1	0
2831	1	0
2832	1	0
2833	1	0
2834	1	0
2835	1	0
2836	1	0
2837	1	0
2838	1	0
2839	1	0
2840	1	0
2841	1	0
2842	1	0
2843	1	0
2844	1	0
2845	1	0
2846	1	0
2847	1	0
2848	1	0
2849	1	0
2850	1	0
2851	1	0
2852	1	0
2853	1	0
2854	1	0
2855	1	0
2856	1	0
2857	1	0
2858	1	0
2859	1	0
2860	1	0
2861	1	0
2862	1	0
2863	1	0
2864	1	0
2865	1	0
2866	1	0
2867	1	0
2868	1	0
2869	1	0
2870	1	0
2871	1	0
2872	1	0
2873	1	0
2874	1	0
2875	1	0
2876	1	0
2877	1	0
2878	1	0
2879	1	0
2880	0	0
2881	0	0
2882	0	0
2883	0	0
2884	0	0.228956
2885	0	0.117845
2886	0	0.193103
2887	0	0.178495
2888	0	0.0798701
2889	0	0.316163
2890	0	0.192962
2891	0	0
2892	0	0
2893	0	0
2894	0	0
2895	0	0
2896	0	0
2897	0	0
2898	0	0.911809
2899	0	0
2900	0	0
2901	0	0
2902	0	0
2903	0	0.876364
2904	0	0.876364
2905	0	0.867814
2906	0	0.859389
2907	0	0.859389
2908	0	0.851086
2909	0	0.851086
2910	0	0.834077
2911	0	0.834077
2912	0	0.826095
2913	0	0.047619
2914	0	0.0584795
2915	0	0.0526316
2916	0	0.0175439
2917	0	0
2918	0	0
2919	0	0
2920	0	0
2921	0	0.0222222
2922	0	0.0222222
2923	0	0.0181818
2924	0	0.0181818
2925	0	0.0128205
2926	0	0.0128205
2927	0	0.0128205
2928	0	0.0128205
2929	0	0.0128205
2930	0	0.0128205
2931	0	0.021978
2932	0	0.043956
2933	0	0.043956
2934	0	0.043956
2935	0	0.043956
2936	0	0.043956
2937	0	0.0367647
2938	0	0.0441176
2939	0	0.0514706
2940	0	0.0514706
2941	0	0.0392157
2942	0	0.0421053
2943	0	0.0421053
2944	0	0.0421053
2945	0	0.0421053
2946	0	0.0421053
2947	0	0.034632
2948	0	0.0289855
2949	0	0.0221675
2950	0	0.0221675
2951	0	0.0236559
2952	0	0.0265152
2953	0	0.0268908
2954	0	0.022942
2955	0	0.0190275
2956	0	0.155161
2957	0	0.124608
2958	0	0.109034
2959	0	0.103192
2960	0	0.0936639
2961	0	0.0886248
2962	0	0.0864235
2963	0	0.0820054
2964	0	0.0799927
2965	0	0.0758648
2966	0	0.0731652
2967	0	0.343008
2968	0	0.223106
2969	0	0.223412
2970	0	0.0850401
2971	0	0.33494
2972	0	0.297007
2973	0	0.282646
2974	0	0.192437
2975	0	0.182662
2976	0	0.177853
2977	0	0.0746606
2978	0	0.0724896
2979	0	0.0731962
2980	0	0.0584546
2981	0	0.0671892
2982	0	0.135274
2983	0	0.148941
2984	0	0
2985	0	0
2986	0	0
2987	0	0
2988	0	0
2989	0	0
2990	0	0
2991	0	0
2992	0	0
2993	0	0
2994	0	0
2995	0	0.0520129
2996	0	0.0535983
2997	0	0.0367647
2998	0	0.0441176
2999	0	0.062249
3000	0	0.0590935
3001	0	0.166199
3002	0	0.163817
3003	0	0.159139
3004	0	0.156985
3005	0	0.310126
3006	0	0.310115
3007	0	0.308573
3008	0	0.308562
3009	0	0.306839
3010	0	0.304127
3011	0	0.148271
3012	0	0.0384506
3013	0	0.0470923
3014	0	0.067952
3015	0	0.0588569
3016	0	0.191181
3017	0	0.0232558
3018	0	0.0254707
3019	0	0.0255517
3020	0	0.0255517
3021	0	0.0255517
3022	0	0.0383838
3023	0	0.0369979
3024	0	0.0251142
3025	0	0.0345946
3026	0	0.0635854
3027	0	0.448436
3028	0	0.424671
3029	0	0.390534
3030	0	0.351835
3031	0	0.414254
3032	0	0.228804
3033	0	0.252564
3034	0	0.252564
3035	0	0.252564
3036	0	0.252564
3037	0	0.252564
3038	0	0.240244
3039	0	0.247436
3040	0	0.247436
3041	0	0.259109
3042	0	0.271693
3043	0	0.271693
3044	0	0.286787
3045	0	0.316817
3046	0	0.287449
3047	0	0.429415
3048	0	0.429732
3049	0	0.430247
3050	0	0.436894
3051	0	0.436946
3052	0	0.437767
3053	0	0.437769
3054	0	0.437778
3055	0	0.132353
3056	0	0.105263
3057	0	0.1
3058	0	0.104615
3059	0	0.104615
3060	0	0.104615
3061	0	0.11396
3062	0	0.10582
3063	0	0.10582
3064	0	0.0985222
3065	0	0.0985222
3066	0	0.091954
3067	0	0.091954
3068	0	0.091954
3069	0	0.0739496
3070	0	0.0739496
3071	0	0.666795
3072	0	0.662056
3073	0	0.656801
3074	0	0.651421
3075	0	0.646292
3076	0	0.0890269
3077	0	0.0923395
3078	0	0.0489168
3079	0	0.0497091
3080	0	0.0497091
3081	0	0.561763
3082	0	0.540391
3083	0	0.408632
3084	0	0.0355731
3085	0	0.0395257
3086	0	0.0395257
3087	0	0.0395257
3088	0	0.0395257
3089	0	0.0395257
3090	0	0.398999
3091	0	0.0526316
3092	0	0.0526316
3093	0	0.0526316
3094	0	0.0526316
3095	0	0.0526316
3096	0	0.0368421
3097	0	0.0684211
3098	0	0.0692641
3099	0	0.0632411
3100	0	0.0416667
3101	0	0.38082
3102	0	0.399823
3103	0	0.381627
3104	0	0.1
3105	0	0.1
3106	0	0.0666667
3107	0	0.0666667
3108	0	0.142857
3109	0	0.142857
3110	0	0.0888889
3111	0	0.0888889
3112	0	0.0512821
3113	0	0.0879121
3114	0	0.0879121
3115	0	0.0879121
3116	0	0.0761905
3117	0	0.161905
3118	0	0.141667
3119	0	0.141667
3120	0	0.191667
3121	0	0.169118
3122	0	0.125
3123	0	0.111111
3124	0	0.0994152
3125	0	0.0994152
3126	0	0.0894737
3127	0	0.0809524
3128	0	0.0830769
3129	0	0.394054
3130	0	0.471333
3131	0	0.492634
3132	0	0.50383
3133	0	0.41522
3134	0	0.37264
3135	0	0.408913
3136	0	0.49462
3137	0	0.50568
3138	0	0.532126
3139	0	0.532126
3140	0	0.0441176
3141	0	0.0441176
3142	0	0.0514706
3143	0	0.0659341
3144	0	0.0659341
3145	0	0.0659341
3146	0	0.0659341
3147	0	0.0769231
3148	0	0.0769231
3149	0	0.0769231
3150	0	0.0909091
3151	0	0.0909091
3152	0	0.0909091
3153	0	0.0909091
3154	0	0.178571
3155	0	0.178571
3156	0	0.178571
3157	0	0.178571
3158	0	0.178571
3159	0	0.178571
3160	0	0.142857
3161	0	0.142857
3162	0	0.142857
3163	0	0.142857
3164	0	0.142857
3165	0	0.142857
3166	0	0.142857
3167	0	0.142857
3168	0	0.142857
3169	0	0.142857
3170	0	0.142857
3171	0	0.2
3172	0	0.2
3173	0	0.2
3174	0	0.2
3175	0	0.2
3176	0	0.333333
3177	0	0.333333
3178	0	0.378
3179	0	0.395815
3180	0	0.395048
3181	0	0.0882353
3182	0	0.0882353
3183	0	0.0784314
3184	0	0.0784314
3185	0	0.0784314
3186	0	0.0784314
3187	0	0.0784314
3188	0	0.0784314
3189	0	0.0522876
3190	0	0.0326797
3191	0	0.0326797
3192	0	0.0326797
3193	0	0.0326797
3194	0	0.0326797
3195	0	0.0326797
3196	0	0.0326797
3197	0	0.0326797
3198	0	0.0350877
3199	0	0.0350877
3200	0	0.0350877
3201	0	0.180952
3202	0	0.398963
3203	0	0.166667
3204	0	0.166667
3205	0	0.114141
3206	0	0.0987805
3207	0	0.0684211
3208	0	0.0631579
3209	0	0.0701754
3210	0	0.0233918
3211	0	0.0292398
3212	0	0.0292398
3213	0	0.0292398
3214	0	0.0292398
3215	0	0.0409357
3216	0	0.0409357
3217	0	0.0368421
3218	0	0.0368421
3219	0	0.362349
3220	0	0.0665025
3221	0	0.0640394
3222	0	0.0566502
3223	0	0.0492611
3224	0	0.046798
3225	0	0.046798
3226	0	0.102564
3227	0	0.113876
3228	0	0.109579
3229	0	0.0872554
3230	0	0.0745637
3231	0	0.0732207
3232	0	0.358122
3233	0	0
3234	0	0
3235	0	0
3236	0	0
3237	0	0
3238	0	0
3239	0	0
3240	0	0
3241	0	0.689655
3242	0	0
3243	0	0
3244	0	0
3245	0	0
3246	0	0
3247	0	0
3248	0	0
3249	0	0
3250	0	0
3251	0	0
3252	0	0
3253	0	0
3254	0	0
3255	0	0
3256	0	0
3257	0	0
3258	0	0
3259	0	0
3260	0	0
3261	0	0
3262	0	0
3263	0	0
3264	0	0
3265	0	0
3266	0	0
3267	0	0
3268	0	0
3269	0	0
3270	0	0
3271	0	0
3272	0	0
3273	0	0
3274	0	0
3275	0	0
3276	0	0
3277	0	0
3278	0	0
3279	0	0
3280	0	0
3281	0	0
3282	0	0
3283	0	0
3284	0	0
3285	0	0
3286	0	0
3287	0	0
3288	0	0
3289	0	0
3290	0	0
3291	0	0
3292	0	0
3293	0	0
3294	0	0
3295	0	0
3296	0	0
3297	0	0
3298	0	0
3299	0	0
3300	0	0
3301	0	0
3302	0	0
3303	0	0
3304	0	0
3305	0	0
3306	0	0
3307	0	0
3308	0	0
3309	0	0
3310	0	0
3311	0	0
3312	0	0
3313	0	0
3314	0	0
3315	0	0
3316	0	0
3317	0	0
3318	0	0
3319	0	0
3320	0	0
3321	0	0
3322	0	0
3323	0	0
3324	0	0
3325	0	0
3326	0	0
3327	0	0
3328	0	0
3329	0	0
3330	0	0
3331	0	0
3332	0	0
3333	0	0
3334	0	0
3335	0	0
3336	0	0
3337	0	0
3338	0	0
3339	0	0
3340	0	0
3341	0	0
3342	0	0
3343	0	0
3344	0	0
3345	0	0
3346	0	0
3347	0	0
3348	0	0
3349	0	0
3350	0	0
3351	0	0
3352	0	0
3353	0	0
3354	0	0
3355	0	0
3356	0	0
3357	0	0
3358	0	0
3359	0	0
3360	0	0
3361	0	0
3362	0	0
3363	0	0
3364	0	0
3365	0	0
3366	0	0
3367	0	0
3368	0	0
3369	0	0
3370	0	0
3371	0	0
3372	0	0
3373	0	0
3374	0	0
3375	0	0
3376	0	0
3377	0	0
3378	0	0
3379	0	0
3380	0	0
3381	0	0
3382	0	0
3383	0	0
3384	0	0
3385	0	0
3386	0	0
3387	0	0
3388	0	0
3389	0	0
3390	0	0
3391	0	0
3392	0	0
3393	0	0
3394	0	0
3395	0	0
3396	0	0
3397	0	0
3398	0	0
3399	0	0
3400	0	0.381818
3401	0	0.27619
3402	0	0.173913
3403	0	0.154839
3404	0	0.128023
3405	0	0.230341
3406	0	0.214486
3407	0	0.249417
3408	0	0.249417
3409	0	0.124971
3410	0	0.124977
3411	0	0.0395257
3412	0	0.0395257
3413	0	0.0395257
3414	0	0.0333333
3415	0	0.0333333
3416	0	0.151515
3417	0	0.13229
3418	0	0.134691
3419	0	0.0639269
3420	0	0.0607646
3421	0	0.0371585
3422	0	0.478143
3423	0	0.535104
3424	0	0.579689
3425	0	0.636531
3426	0	0.648949
3427	0	0.478492
3428	0	0.402067
3429	0	0.0470588
3430	0	0.0414634
3431	0	0.0460317
3432	0	0.0499109
3433	0	0.0537634
3434	0	0.0537634
3435	0	0.05
3436	0	0.05
3437	0	0.055336
3438	0	0.0643275
3439	0	0.0718954
3440	0	0.0718954
3441	0	0.0833333
3442	0	0.043956
3443	0	0.043956
3444	0	0.109091
3445	0	0.277778
3446	0	0.277778
3447	0	0.2
3448	0	0.2
3449	0	0.1
3450	0	0
3451	0	0
3452	0	0
3453	0	0
3454	0	0
3455	0	0
3456	0	0
3457	0	0
3458	0	0
3459	0	0
3460	0	0
3461	0	0
3462	0	0
3463	0	0
3464	0	0
3465	0	0
3466	0	0
3467	0	0
3468	0	0
3469	0	0
3470	0	0
3471	0	0
3472	0	0
3473	0	0
3474	0	0
3475	0	0
3476	0	0
3477	0	0
3478	0	0
3479	0	0
3480	0	0
3481	0	0
3482	0	0
3483	0	0
3484	0	0
3485	0	0
3486	0	0
3487	0	0
3488	0	0
3489	0	0
3490	0	0
3491	0	0
3492	0	0
3493	0	0
3494	0	0
3495	0	0
3496	0	0
3497	0	0
3498	0	0
3499	0	0
3500	0	0
3501	0	0
3502	0	0
3503	0	0
3504	0	0
3505	0	0
3506	0	0
3507	0	0
3508	0	0
3509	0	0
3510	0	0
3511	0	0
3512	0	0
3513	0	0
3514	0	0
3515	0	0
3516	0	0
3517	0	0
3518	0	0
3519	0	0
3520	0	0
3521	0	0
3522	0	0
3523	0	0
3524	0	0
3525	0	0
3526	0	0
3527	0	0
3528	0	0
3529	0	0
3530	0	0
3531	0	0
3532	0	0
3533	0	0
3534	0	0
3535	0	0
3536	0	0
3537	0	0
3538	0	0
3539	0	0
3540	0	0
3541	0	0
3542	0	0
3543	0	0
3544	0	0
3545	0	0
3546	0	0
3547	0	0
3548	0	0
