Site	ColumnScore	SumOfPairsScore
1	1	0
2	1	0
3	1	0
4	1	0
5	1	0
6	1	0
7	1	0
8	1	0
9	1	0
10	1	0
11	1	0
12	1	0
13	1	0
14	1	0
15	1	0
16	1	0
17	1	0
18	1	0
19	1	0
20	1	0
21	1	0
22	1	0
23	1	0
24	1	0
25	1	0
26	1	0
27	1	0
28	1	0
29	1	0
30	1	0
31	1	0
32	1	0
33	1	0
34	1	0
35	1	0
36	1	0
37	1	0
38	1	0
39	1	0
40	1	0
41	1	0
42	1	0
43	1	0
44	1	0
45	1	0
46	1	0
47	1	0
48	1	0
49	1	0
50	1	0
51	1	0
52	1	0
53	1	0
54	1	0
55	1	0
56	1	0
57	1	0
58	1	0
59	1	0
60	1	0
61	1	0
62	1	0
63	1	0
64	1	0
65	1	0
66	1	0
67	1	0
68	1	0
69	1	0
70	1	0
71	1	0
72	1	0
73	1	0
74	1	0
75	1	0
76	1	0
77	1	0
78	1	0
79	1	0
80	1	0
81	1	0
82	1	0
83	1	0
84	1	0
85	1	0
86	1	0
87	1	0
88	1	0
89	1	0
90	1	0
91	1	0
92	1	0
93	1	0
94	1	0
95	1	0
96	1	0
97	1	0
98	1	0
99	1	0
100	1	0
101	1	0
102	1	0
103	1	0
104	1	0
105	1	0
106	1	0
107	1	0
108	1	0
109	1	0
110	1	0
111	1	0
112	1	0
113	1	0
114	1	0
115	1	0
116	1	0
117	1	0
118	1	0
119	1	0
120	1	0
121	1	0
122	1	0
123	1	0
124	1	0
125	1	0
126	1	0
127	1	0
128	1	0
129	1	0
130	1	0
131	1	0
132	1	0
133	1	0
134	1	0
135	1	0
136	1	0
137	1	0
138	1	0
139	1	0
140	1	0
141	1	0
142	1	0
143	1	0
144	1	0
145	1	0
146	1	0
147	1	0
148	1	0
149	1	0
150	1	0
151	1	0
152	1	0
153	1	0
154	1	0
155	1	0
156	1	0
157	1	0
158	1	0
159	1	0
160	1	0
161	1	0
162	1	0
163	1	0
164	1	0
165	1	0
166	1	0
167	1	0
168	1	0
169	1	0
170	1	0
171	1	0
172	1	0
173	1	0
174	1	0
175	1	0
176	1	0
177	1	0
178	1	0
179	1	0
180	1	0
181	1	0
182	1	0
183	1	0
184	1	0
185	1	0
186	1	0
187	1	0
188	1	0
189	1	0
190	1	0
191	1	0
192	1	0
193	1	0
194	1	0
195	1	0
196	1	0
197	1	0
198	1	0
199	1	0
200	1	0
201	1	0
202	1	0
203	1	0
204	1	0
205	1	0
206	1	0
207	1	0
208	1	0
209	1	0
210	1	0
211	1	0
212	1	0
213	1	0
214	1	0
215	1	0
216	1	0
217	1	0
218	1	0
219	1	0
220	1	0
221	1	0
222	1	0
223	1	0
224	1	0
225	1	0
226	1	0
227	1	0
228	1	0
229	1	0
230	1	0
231	1	0
232	1	0
233	1	0
234	1	0
235	1	0
236	1	0
237	1	0
238	1	0
239	1	0
240	1	0
241	1	0
242	1	0
243	1	0
244	1	0
245	1	0
246	1	0
247	1	0
248	1	0
249	1	0
250	1	0
251	1	0
252	1	0
253	1	0
254	1	0
255	1	0
256	1	0
257	1	0
258	1	0
259	1	0
260	1	0
261	1	0
262	1	0
263	1	0
264	1	0
265	1	0
266	1	0
267	1	0
268	1	0
269	1	0
270	1	0
271	1	0
272	1	0
273	1	0
274	1	0
275	1	0
276	1	0
277	1	0
278	1	0
279	1	0
280	1	0
281	1	0
282	1	0
283	1	0
284	1	0
285	1	0
286	1	0
287	1	0
288	1	0
289	1	0
290	1	0
291	1	0
292	1	0
293	1	0
294	1	0
295	1	0
296	1	0
297	1	0
298	1	0
299	1	0
300	1	0
301	1	0
302	1	0
303	1	0
304	1	0
305	1	0
306	1	0
307	1	0
308	1	0
309	1	0
310	1	0
311	1	0
312	1	0
313	1	0
314	1	0
315	1	0
316	1	0
317	1	0
318	1	0
319	1	0
320	1	0
321	1	0
322	1	0
323	1	0
324	1	0
325	1	0
326	1	0
327	1	0
328	1	0
329	1	0
330	1	0
331	1	0
332	1	0
333	1	0
334	1	0
335	1	0
336	1	0
337	1	0
338	1	0
339	1	0
340	1	0
341	1	0
342	1	0
343	1	0
344	1	0
345	1	0
346	1	0
347	1	0
348	1	0
349	1	0
350	1	0
351	1	0
352	1	0
353	1	0
354	1	0
355	1	0
356	1	0
357	1	0
358	1	0
359	1	0
360	1	0
361	1	0
362	1	0
363	1	0
364	1	0
365	1	0
366	1	0
367	1	0
368	1	0
369	1	0
370	1	0
371	1	0
372	1	0
373	1	0
374	1	0
375	1	0
376	1	0
377	1	0
378	1	0
379	1	0
380	1	0
381	1	0
382	1	0
383	1	0
384	1	0
385	1	0
386	1	0
387	1	0
388	1	0
389	1	0
390	1	0
391	1	0
392	1	0
393	1	0
394	1	0
395	1	0
396	1	0
397	1	0
398	1	0
399	1	0
400	1	0
401	1	0
402	1	0
403	1	0
404	1	0
405	1	0
406	1	0
407	1	0
408	1	0
409	1	0
410	1	0
411	1	0
412	1	0
413	1	0
414	1	0
415	1	0
416	1	0
417	1	0
418	1	0
419	1	0
420	1	0
421	1	0
422	1	0
423	1	0
424	1	0
425	1	0
426	1	0
427	1	0
428	1	0
429	1	0
430	1	0
431	1	0
432	1	0
433	1	0
434	1	0
435	1	0
436	1	0
437	1	0
438	1	0
439	1	0
440	1	0
441	1	0
442	1	0
443	1	0
444	1	0
445	1	0
446	1	0
447	1	0
448	1	0
449	1	0
450	1	0
451	1	0
452	1	0
453	1	0
454	1	0
455	1	0
456	1	0
457	1	0
458	1	0
459	1	0
460	1	0
461	1	0
462	1	0
463	1	0
464	1	0
465	1	0
466	1	0
467	1	0
468	1	0
469	1	0
470	1	0
471	1	0
472	1	0
473	1	0
474	1	0
475	1	0
476	1	0
477	1	0
478	1	0
479	1	0
480	1	0
481	1	0
482	1	0
483	1	0
484	1	0
485	1	0
486	1	0
487	1	0
488	1	0
489	1	0
490	1	0
491	1	0
492	1	0
493	1	0
494	1	0
495	1	0
496	1	0
497	1	0
498	1	0
499	1	0
500	1	0
501	1	0
502	1	0
503	1	0
504	1	0
505	1	0
506	1	0
507	1	0
508	1	0
509	1	0
510	1	0
511	1	0
512	1	0
513	1	0
514	1	0
515	1	0
516	1	0
517	1	0
518	1	0
519	1	0
520	1	0
521	1	0
522	1	0
523	1	0
524	1	0
525	1	0
526	1	0
527	1	0
528	1	0
529	1	0
530	1	0
531	1	0
532	1	0
533	1	0
534	1	0
535	1	0
536	1	0
537	1	0
538	1	0
539	1	0
540	1	0
541	1	0
542	1	0
543	1	0
544	1	0
545	1	0
546	1	0
547	1	0
548	1	0
549	1	0
550	1	0
551	1	0
552	1	0
553	1	0
554	1	0
555	1	0
556	1	0
557	1	0
558	1	0
559	1	0
560	1	0
561	1	0
562	1	0
563	1	0
564	1	0
565	1	0
566	1	0
567	1	0
568	1	0
569	1	0
570	1	0
571	1	0
572	1	0
573	1	0
574	1	0
575	1	0
576	1	0
577	1	0
578	1	0
579	1	0
580	1	0
581	1	0
582	1	0
583	1	0
584	1	0
585	1	0
586	1	0
587	1	0
588	1	0
589	1	0
590	1	0
591	1	0
592	1	0
593	1	0
594	1	0
595	1	0
596	1	0
597	1	0
598	1	0
599	1	0
600	1	0
601	1	0
602	1	0
603	1	0
604	1	0
605	1	0
606	1	0
607	1	0
608	1	0
609	1	0
610	1	0
611	1	0
612	1	0
613	1	0
614	1	0
615	1	0
616	1	0
617	1	0
618	1	0
619	1	0
620	1	0
621	1	0
622	1	0
623	1	0
624	1	0
625	1	0
626	1	0
627	1	0
628	1	0
629	1	0
630	1	0
631	1	0
632	1	0
633	1	0
634	1	0
635	1	0
636	1	0
637	1	0
638	1	0
639	1	0
640	1	0
641	1	0
642	1	0
643	1	0
644	1	0
645	1	0
646	1	0
647	1	0
648	1	0
649	1	0
650	1	0
651	1	0
652	1	0
653	1	0
654	1	0
655	1	0
656	1	0
657	1	0
658	1	0
659	1	0
660	1	0
661	1	0
662	1	0
663	1	0
664	1	0
665	1	0
666	1	0
667	1	0
668	1	0
669	1	0
670	1	0
671	1	0
672	1	0
673	1	0
674	1	0
675	1	0
676	1	0
677	1	0
678	1	0
679	1	0
680	1	0
681	1	0
682	1	0
683	1	0
684	1	0
685	1	0
686	1	0
687	1	0
688	1	0
689	1	0
690	1	0
691	1	0
692	1	0
693	1	0
694	1	0
695	1	0
696	1	0
697	1	0
698	1	0
699	1	0
700	1	0
701	1	0
702	1	0
703	1	0
704	1	0
705	1	0
706	1	0
707	1	0
708	1	0
709	1	0
710	1	0
711	1	0
712	1	0
713	1	0
714	1	0
715	1	0
716	1	0
717	1	0
718	1	0
719	1	0
720	1	0
721	1	0
722	1	0
723	1	0
724	1	0
725	1	0
726	1	0
727	1	0
728	1	0
729	1	0
730	1	0
731	1	0
732	1	0
733	1	0
734	1	0
735	1	0
736	1	0
737	1	0
738	1	0
739	1	0
740	1	0
741	1	0
742	1	0
743	1	0
744	1	0
745	1	0
746	1	0
747	1	0
748	1	0
749	1	0
750	1	0
751	1	0
752	1	0
753	1	0
754	1	0
755	1	0
756	1	0
757	1	0
758	1	0
759	1	0
760	1	0
761	1	0
762	1	0
763	1	0
764	1	0
765	1	0
766	1	0
767	1	0
768	1	0
769	1	0
770	1	0
771	1	0
772	1	0
773	1	0
774	1	0
775	1	0
776	1	0
777	1	0
778	1	0
779	1	0
780	1	0
781	1	0
782	1	0
783	1	0
784	1	0
785	1	0
786	1	0
787	1	0
788	1	0
789	1	0
790	1	0
791	1	0
792	1	0
793	1	0
794	1	0
795	1	0
796	1	0
797	1	0
798	1	0
799	1	0
800	1	0
801	1	0
802	1	0
803	1	0
804	1	0
805	1	0
806	1	0
807	1	0
808	1	0
809	1	0
810	1	0
811	1	0
812	1	0
813	1	0
814	1	0
815	1	0
816	1	0
817	1	0
818	1	0
819	1	0
820	1	0
821	1	0
822	1	0
823	1	0
824	1	0
825	1	0
826	1	0
827	1	0
828	1	0
829	1	0
830	1	0
831	1	0
832	1	0
833	1	0
834	1	0
835	1	0
836	1	0
837	1	0
838	1	0
839	1	0
840	1	0
841	1	0
842	1	0
843	1	0
844	0	0
845	0	0
846	0	0
847	1	0
848	1	0
849	1	0
850	1	0
851	0	0
852	0	0
853	0	0
854	0	0
855	0	0
856	0	0
857	0	0
858	0	0
859	0	0
860	0	0
861	0	0
862	0	0
863	0	0
864	0	0
865	0	0
866	0	0
867	0	0
868	0	0
869	0	0
870	0	0
871	0	0
872	0	0
873	0	0
874	0	0
875	0	0
876	0	0
877	1	0
878	1	0
879	1	0
880	1	0
881	1	0
882	1	0
883	1	0
884	1	0
885	1	0
886	1	0
887	1	0
888	0	0
889	0	0
890	0	0
891	0	0
892	0	0
893	0	0
894	0	0
895	0	0
896	0	0
897	0	0
898	0	0
899	0	0
900	0	0
901	0	0
902	0	0
903	1	0
904	0	0
905	0	0
906	0	0
907	0	0
908	1	0
909	1	0
910	1	0
911	1	0
912	1	0
913	1	0
914	1	0
915	1	0
916	0	0
917	1	0
918	1	0
919	0	0
920	0	0
921	1	0
922	1	0
923	1	0
924	1	0
925	1	0
926	0	0
927	0	0
928	0	0
929	0	0
930	0	0
931	0	0
932	0	0
933	0	0
934	0	0
935	0	0
936	0	0
937	0	0
938	0	0
939	0	0
940	1	0
941	1	0
942	1	0
943	1	0
944	1	0
945	1	0
946	0	0
947	0	0
948	0	0
949	0	0
950	0	0
951	0	0
952	1	0
953	1	0
954	1	0
955	0	0
956	0	0
957	0	0
958	0	0
959	0	0
960	0	0
961	0	0
962	0	0
963	0	0
964	0	0
965	1	0
966	1	0
967	0	0
968	0	0
969	0	0
970	0	0
971	0	0
972	0	0
973	0	0
974	0	0
975	0	0
976	0	0
977	0	0
978	0	0
979	0	0
980	0	0
981	0	0
982	0	0
983	0	0
984	0	0
985	0	0
986	0	0
987	0	0
988	0	0
989	0	0
990	0	0
991	0	0
992	0	0
993	0	0
994	0	0
995	0	0
996	0	0
997	0	0
998	0	0
999	0	0
1000	0	0
1001	0	0
1002	0	0
1003	0	0
1004	0	0
1005	0	0
1006	0	0
1007	0	0
1008	0	0
1009	0	0
1010	0	0
1011	0	0
1012	0	0
1013	0	0
1014	0	0
1015	0	0
1016	0	0
1017	0	0
1018	0	0
1019	0	0
1020	0	0
1021	0	0
1022	0	0
1023	0	0
1024	0	0
1025	0	0
1026	0	0
1027	0	0
1028	0	0
1029	0	0
1030	0	0
1031	0	0
1032	0	0
1033	0	0
1034	0	0
1035	0	0
1036	0	0
1037	0	0
1038	0	0
1039	0	0
1040	0	0
1041	0	0
1042	0	0
1043	0	0
1044	0	0
1045	0	0
1046	0	0
1047	0	0
1048	0	0
1049	0	0
1050	0	0
1051	0	0
1052	0	0
1053	0	0
1054	0	0
1055	0	0
1056	0	0
1057	0	0
1058	0	0
1059	0	0
1060	0	0
1061	0	0
1062	0	0
1063	0	0
1064	0	0
1065	0	0
1066	0	0
1067	0	0
1068	0	0
1069	0	0
1070	0	0
1071	0	0
1072	0	0
1073	0	0
1074	0	0
1075	0	0
1076	0	0
1077	0	0
1078	0	0
1079	0	0
1080	0	0
1081	0	0
1082	0	0
1083	0	0
1084	0	0
1085	0	0
1086	0	0
1087	0	0
1088	0	0
1089	0	0
1090	0	0
1091	0	0
1092	0	0
1093	0	0
1094	0	0
1095	0	0
1096	0	0
1097	0	0
1098	0	0
1099	0	0
1100	0	0
1101	0	0
1102	0	0
1103	0	0
1104	0	0
1105	0	0
1106	0	0
1107	0	0
1108	0	0
1109	0	0
1110	0	0
1111	0	0
1112	0	0
1113	0	0
1114	0	0
1115	0	0
1116	0	0
1117	0	0
1118	0	0
1119	0	0
1120	0	0
1121	0	0
1122	0	0
1123	0	0
1124	0	0
1125	0	0
1126	0	0
1127	0	0
1128	0	0
1129	0	0
1130	0	0
1131	0	0
1132	0	0
1133	0	0
1134	0	0
1135	0	0
1136	0	0
1137	0	0
1138	0	0
1139	0	0
1140	0	0
1141	0	0
1142	0	0
1143	0	0
1144	0	0
1145	0	0
1146	0	0
1147	0	0
1148	0	0
1149	0	0
1150	0	0
1151	0	0
1152	0	0
1153	0	0
1154	0	0
1155	0	0
1156	0	0
1157	0	0
1158	0	0
1159	0	0
1160	0	0
1161	0	0
1162	0	0
1163	0	0
1164	0	0
1165	0	0
1166	0	0
1167	0	0
1168	0	0
1169	0	0
1170	0	0
1171	0	0
1172	0	0
1173	0	0
1174	0	0
1175	0	0
1176	0	0
1177	0	0
1178	0	0
1179	0	0
1180	0	0
1181	0	0
1182	0	0
1183	0	0
1184	0	0
1185	0	0
1186	0	0
1187	0	0
1188	0	0
1189	0	0
1190	0	0
1191	0	0
1192	0	0
1193	0	0
1194	0	0
1195	0	0
1196	0	0
1197	0	0
1198	0	0
1199	0	0
1200	0	0
1201	0	0
1202	0	0
1203	0	0
1204	0	0
1205	0	0
1206	0	0
1207	0	0
1208	0	0
1209	0	0
1210	0	0
1211	0	0
1212	0	0
1213	0	0
1214	0	0
1215	0	0
1216	0	0.0666667
1217	0	0.0666667
1218	0	0.0666667
1219	0	0.0666667
1220	0	0.0666667
1221	0	0.0666667
1222	0	0.0666667
1223	0	0.0666667
1224	0	0.0666667
1225	0	0.047619
1226	0	0.0357143
1227	0	0.0357143
1228	0	0.0357143
1229	0	0.0357143
1230	0	0.0357143
1231	0	0.0357143
1232	0	0.0277778
1233	0	0.0277778
1234	0	0
1235	0	0
1236	0	0.0277778
1237	0	0.0444444
1238	0	0.0444444
1239	0	0.0545455
1240	0	0.0545455
1241	0	0.0181818
1242	0	0.0181818
1243	0	0.0545455
1244	0	0.0545455
1245	0	0
1246	0	0.025641
1247	0	0.025641
1248	0	0.025641
1249	0	0.0285714
1250	0	0.0285714
1251	0	0.0285714
1252	0	0.0441176
1253	0	0.0392157
1254	0	0.0175439
1255	0	0.0315789
1256	0	0.021645
1257	0	0.02
1258	0	0.205926
1259	0	0.219951
1260	0	0.150707
1261	0	0.142362
1262	0	0.042735
1263	0	0.241216
1264	0	0.0175439
1265	0	0.243617
1266	0	0.0263158
1267	0	0.0333333
1268	0	0.289778
1269	0	0.0560386
1270	0	0.0664894
1271	0	0.139246
1272	0	0.141448
1273	0	0.161243
1274	0	0.148132
1275	0	0.161469
1276	0	0.141026
1277	0	0.146663
1278	0	0.150556
1279	0	0.14962
1280	0	0.122848
1281	0	0.144971
1282	0	0.14497
1283	0	0.162364
1284	0	0.159057
1285	0	0.333333
1286	0	0.516192
1287	0	0.333333
1288	0	0.333333
1289	0	0.333333
1290	0	0.333333
1291	0	0.198442
1292	0	0.804318
1293	0	0.777003
1294	0	0.777003
1295	0	0.585954
1296	0	0
1297	0	0
1298	0	0
1299	0	0
1300	0	0
1301	0	0
1302	0	0
1303	0	0
1304	0	0
1305	0	0
1306	0	0
1307	0	0.333333
1308	0	0.333333
1309	0	0.333333
1310	0	0.333333
1311	0	0.833333
1312	0	0.769697
1313	0	0.888998
1314	0	0.930858
1315	0	0.941386
1316	0	0.945671
1317	0	0.94979
1318	0	0.166667
1319	0	0
1320	0	0
1321	0	0
1322	0	0
1323	0	0
1324	0	0
1325	0	0
1326	0	0
1327	0	0
1328	0	0
1329	0	0
1330	0	0
1331	0	0
1332	0	0
1333	0	0
1334	0	0
1335	0	0
1336	0	0
1337	0	0
1338	0	0
1339	0	0
1340	0	0
1341	0	1
1342	0	1
1343	0	1
1344	0	1
1345	0	0.95034
1346	0	0.950383
1347	0	0.818182
1348	0	0.857143
1349	0	1
1350	0	0.987888
1351	0	0.98795
1352	0	0.988002
1353	0	0.988012
1354	0	0.989739
1355	0	0.989792
1356	0	0.989792
1357	0	1
1358	0	1
1359	0	0.998295
1360	0	0.998295
1361	0	0.998295
1362	0	0.998295
1363	0	0.998295
1364	0	0.998295
1365	0	0.998295
1366	0	0.998296
1367	0	0.998298
1368	0	0.998298
1369	0	0.998298
1370	0	0.998298
1371	0	0.998298
1372	0	1
1373	0	0.953772
1374	0	0
1375	0	0
1376	0	0
1377	0	0
1378	0	0.898667
1379	0	0.777082
1380	0	1
1381	0	1
1382	0	0.666667
1383	0	0.298308
1384	0	0.260882
1385	0	0.245355
1386	0	0.298526
1387	0	0.3207
1388	0	0.549597
1389	0	0.546528
1390	0	0.483613
1391	0	0.853242
1392	0	1
1393	0	0.893427
1394	0	0.91498
1395	0	0.9966
1396	0	0.9966
1397	0	0.998298
1398	0	0.998298
1399	0	0.998299
1400	0	0.998299
1401	0	0.998299
1402	0	0
1403	0	0.996597
1404	0	0.998298
1405	0	0.998302
1406	0	0.998302
1407	0	0.998302
1408	0	0.998302
1409	0	0.996609
1410	0	0.996609
1411	0	0.998302
1412	0	0.998302
1413	0	0.998302
1414	0	0.998302
1415	0	0.998302
1416	0	0.998304
1417	0	0.996612
1418	0	0.998305
1419	0	0.998305
1420	0	0.998305
1421	0	0.998305
1422	0	0.998305
1423	0	0.998305
1424	0	0.998305
1425	0	0.998305
1426	0	0.998305
1427	0	1
1428	1	1
1429	0	0.989866
1430	0	0.998305
1431	0	0.998305
1432	0	0.998305
1433	0	0.998305
1434	0	0.998305
1435	0	0
1436	0	0
1437	0	0.996612
1438	0	0.996612
1439	0	0.996612
1440	0	0.996612
1441	0	0.996612
1442	0	0.996612
1443	0	0.996612
1444	0	0.996612
1445	0	0
1446	0	0.503072
1447	0	1
1448	0	1
1449	0	1
1450	0	1
1451	0	0
1452	0	0.496846
1453	0	0
1454	0	0
1455	0	0
1456	0	0
1457	0	0.166667
1458	0	0.166667
1459	0	0.166667
1460	0	0.166667
1461	0	0.166667
1462	0	0.5
1463	1	1
1464	1	1
1465	1	1
1466	1	1
1467	1	1
1468	0	1
1469	0	1
1470	0	0.523092
1471	0	0.994872
1472	0	0.994872
1473	0	0.994872
1474	0	0.994885
1475	0	0.994885
1476	0	0
1477	0	0
1478	0	0
1479	0	0.994867
1480	0	0.994867
1481	0	0.994867
1482	0	0.994867
1483	0	0.994867
1484	0	0.993165
1485	0	0.993159
1486	0	0.99146
1487	1	0
1488	1	0
1489	1	0
1490	0	0
1491	0	0.994869
1492	0	0.998288
1493	0	0.998288
1494	0	0.994869
1495	0	0.994869
1496	0	0.991462
1497	0	0.994863
1498	0	0.994872
1499	0	0.994872
1500	0	0.994876
1501	0	0.994876
1502	0	0.994876
1503	0	0.994876
1504	0	0
1505	0	0
1506	0	0.991497
1507	0	0
1508	0	0
1509	0	0
1510	0	0
1511	0	0
1512	0	0.998292
1513	0	0.998292
1514	0	0.996588
1515	0	0.996588
1516	0	0.996591
1517	0	0.994889
1518	0	0.993194
1519	0	0.996591
1520	0	0.996591
1521	0	0.998294
1522	0	0.998294
1523	0	0.998294
1524	0	0.998294
1525	0	0.998295
1526	0	0.998295
1527	0	0.998295
1528	0	0.998295
1529	0	0.998295
1530	1	0
1531	1	0
1532	1	0
1533	1	0
1534	1	0
1535	1	0
1536	1	0
1537	1	0
1538	1	0
1539	1	0
1540	1	0
1541	1	0
1542	1	0
1543	1	0
1544	1	0
1545	1	0
1546	1	0
1547	1	0
1548	1	0
1549	1	0
1550	1	0
1551	1	0
1552	1	0
1553	0	0.993206
1554	0	0.994898
1555	0	0.996594
1556	0	0.996594
1557	0	0.996594
1558	0	0.996594
1559	0	0.996597
1560	0	0.996597
1561	0	0.996597
1562	0	0.996597
1563	0	0.996597
1564	0	0.996597
1565	0	0.994898
1566	1	0
1567	0	0
1568	0	0.998296
1569	0	0.996597
1570	0	0.996597
1571	0	0.996597
1572	0	0.996597
1573	0	0.996597
1574	0	0.996597
1575	0	0.996597
1576	0	0.996597
1577	0	0.996597
1578	0	0.9966
1579	0	0.9966
1580	0	0.9966
1581	0	0.9966
1582	0	0.9966
1583	0	0.9966
1584	0	0.9966
1585	0	0.9966
1586	0	0.9966
1587	0	0.9966
1588	0	0.996597
1589	0	0
1590	0	0
1591	0	0
1592	0	0
1593	1	0
1594	1	0
1595	0	0
1596	0	0
1597	0	0
1598	0	0
1599	0	0
1600	0	0
1601	0	0
1602	0	0
1603	0	0
1604	0	0
1605	0	0
1606	0	0
1607	0	0
1608	0	0.996594
1609	0	0.843876
1610	0	0
1611	0	0
1612	0	0
1613	0	0
1614	0	1
1615	0	0.9966
1616	0	0.9966
1617	0	0.994902
1618	0	0.994902
1619	0	0.994902
1620	0	0.9966
1621	0	0.9966
1622	0	0.9966
1623	0	0.9966
1624	0	0.9966
1625	0	0.9966
1626	0	0.9966
1627	0	0.9966
1628	0	0.9966
1629	0	0.998298
1630	0	0.998298
1631	0	0.998298
1632	0	0.9966
1633	0	0.996603
1634	0	0.996603
1635	0	0.996603
1636	0	0.996603
1637	0	0.998299
1638	0	0.998299
1639	0	0.996603
1640	0	0.996603
1641	0	0.996603
1642	0	0.996603
1643	0	0.996603
1644	0	0.996603
1645	0	0.996603
1646	0	0.996603
1647	0	0
1648	0	0.989757
1649	0	0
1650	0	0
1651	1	0
1652	1	0
1653	1	0
1654	1	0
1655	1	0
1656	1	0
1657	1	0
1658	1	0
1659	1	0
1660	0	0.491287
1661	0	0.605723
1662	0	0.857143
1663	0	0.996603
1664	0	0.996603
1665	0	0.996603
1666	0	0.996603
1667	0	0.996603
1668	0	0.996603
1669	0	0
1670	0	0
1671	0	0
1672	0	0
1673	0	0
1674	0	0
1675	0	0
1676	0	0
1677	0	0
1678	0	0.989843
1679	0	0
1680	0	0
1681	0	0
1682	0	0
1683	0	0
1684	0	0
1685	0	0
1686	0	0
1687	0	0
1688	0	0
1689	0	0
1690	0	0
1691	0	0
1692	0	0.994898
1693	0	0.994898
1694	0	0.994898
1695	0	0.993206
1696	0	0.994902
1697	0	0.994902
1698	0	0.9966
1699	0	0.9966
1700	0	0.9966
1701	0	0.996597
1702	0	0.996597
1703	0	0.998296
1704	0	0.998296
1705	0	0.998296
1706	0	0.996597
1707	0	0.996597
1708	0	0.996597
1709	0	0.996594
1710	0	0.998295
1711	0	0.998295
1712	0	0.998295
1713	0	0.998295
1714	0	0.996594
1715	0	0.998295
1716	0	0.996591
1717	0	0.996591
1718	0	0
1719	0	0
1720	0	0
1721	0	0
1722	0	1
1723	0	0.991494
1724	0	0.996597
1725	0	0.996597
1726	0	0.996597
1727	0	0.994899
1728	0	0.994899
1729	0	0.994899
1730	0	0.994895
1731	0	0.993196
1732	0	0.994891
1733	0	0.994891
1734	0	0.996588
1735	0	0.996588
1736	0	0.994889
1737	0	0.996591
1738	0	0.998294
1739	0	0.998295
1740	0	0.994898
1741	0	0.994898
1742	0	0.994898
1743	0	0.994898
1744	0	0.994898
1745	0	0.994898
1746	0	0.994894
1747	0	0.994894
1748	0	0.994894
1749	0	0.994894
1750	0	0.994894
1751	0	0.996594
1752	0	0.996594
1753	0	0.996594
1754	0	0.996594
1755	0	0.996594
1756	0	0
1757	0	0
1758	0	0
1759	0	0
1760	0	0
1761	0	0.9966
1762	0	0.9966
1763	0	0.9966
1764	0	0.9966
1765	0	0.9966
1766	0	0.9966
1767	0	0.9966
1768	0	0.9966
1769	0	0.9966
1770	0	0.9966
1771	0	0.996597
1772	0	0.996597
1773	0	0.998296
1774	0	0.998296
1775	0	0.998296
1776	0	0.998296
1777	0	0.998296
1778	0	0.998296
1779	0	0.998296
1780	0	0.998296
1781	0	0.996597
1782	0	0.996597
1783	0	0.998296
1784	0	0.998296
1785	0	0.998296
1786	0	0.998296
1787	0	0.998294
1788	0	0.998294
1789	0	0.998294
1790	0	0.998294
1791	0	0.996591
1792	0	0.996591
1793	0	0.996591
1794	0	0.996591
1795	0	0.996591
1796	0	0.994894
1797	0	0.994894
1798	0	0.996594
1799	0	0.996594
1800	0	0.996594
1801	0	0.996594
1802	0	0.996594
1803	0	0.994898
1804	0	0.996597
1805	0	0.996597
1806	0	0
1807	0	0
1808	0	0
1809	0	0
1810	0	0
1811	0	0
1812	0	0
1813	0	0
1814	0	0
1815	0	0
1816	0	0
1817	0	0
1818	0	0
1819	0	0
1820	0	0
1821	0	0
1822	0	0.996591
1823	0	0.996591
1824	0	0.996591
1825	0	0.996591
1826	0	0.996591
1827	0	0.994894
1828	0	0.994894
1829	0	0.996591
1830	0	0.996591
1831	0	0.996591
1832	0	0.996591
1833	0	0.996591
1834	0	0.996591
1835	0	0.996591
1836	0	0.996591
1837	0	0.996591
1838	0	0.996591
1839	0	0.996591
1840	0	0.996591
1841	0	0.996591
1842	0	0.996591
1843	0	0.996591
1844	0	0.996591
1845	0	0.996591
1846	0	0.996591
1847	0	0.993202
1848	0	0.994898
1849	0	0.996597
1850	0	0.9966
1851	0	0.9966
1852	0	0.9966
1853	0	0.9966
1854	0	0.998298
1855	0	0.998298
1856	0	0.998298
1857	0	0.9966
1858	0	0.9966
1859	0	0.9966
1860	0	0.998298
1861	0	0.9966
1862	0	0.9966
1863	0	0.9966
1864	0	0.9966
1865	0	0.9966
1866	0	0.9966
1867	0	0.9966
1868	0	0.9966
1869	0	0.9966
1870	0	0.9966
1871	0	0.9966
1872	0	0.9966
1873	0	0.9966
1874	0	0.996597
1875	0	0.996597
1876	0	0.996597
1877	0	0.998296
1878	0	0
1879	0	0
1880	0	0
1881	0	0
1882	0	0
1883	0	0
1884	0	0
1885	0	0
1886	0	0
1887	0	0
1888	0	0
1889	0	0
1890	0	0
1891	0	0
1892	0	0
1893	0	0
1894	0	0
1895	0	0.998295
1896	0	0.996594
1897	0	0.996594
1898	0	0.996594
1899	0	0.996597
1900	0	0.996597
1901	0	0.996597
1902	0	0.996597
1903	0	0.996597
1904	0	0.9966
1905	0	0.9966
1906	0	0.998298
1907	0	0.9966
1908	0	0.9966
1909	0	0.983051
1910	0	0.998296
1911	0	0.998296
1912	0	0.998296
1913	0	0.998296
1914	0	0.998296
1915	0	0.998296
1916	0	0.998296
1917	0	0.998296
1918	0	0.998296
1919	0	0.996597
1920	0	0.996597
1921	0	0.996597
1922	0	0.9966
1923	0	0.9966
1924	0	0.9966
1925	0	0.9966
1926	0	0.998298
1927	0	0.998298
1928	0	0.998298
1929	0	0.998298
1930	0	0.998296
1931	0	0.996597
1932	0	0.996594
1933	0	0.996594
1934	0	0.998295
1935	0	0.998294
1936	0	0.998294
1937	0	0.998295
1938	0	0.998295
1939	0	0.998295
1940	0	0.998295
1941	0	0.998295
1942	0	0.998295
1943	0	0.998295
1944	0	0.996594
1945	0	0.996597
1946	0	0.994902
1947	0	0.994902
1948	0	0.994898
1949	0	0.994898
1950	0	0.994898
1951	0	0
1952	0	0
1953	0	0
1954	0	0
1955	0	0
1956	0	0
1957	0	0
1958	0	0
1959	0	0
1960	0	0
1961	0	0
1962	0	0
1963	0	0
1964	0	0
1965	0	0
1966	0	0
1967	0	0
1968	0	0
1969	0	0
1970	0	0
1971	0	0
1972	0	0
1973	0	0
1974	0	0
1975	0	0
1976	0	0
1977	0	0
1978	0	0
1979	0	0
1980	0	0
1981	0	0
1982	0	0
1983	0	0
1984	0	0
1985	0	0
1986	0	0.996597
1987	0	0.996591
1988	0	0.996591
1989	0	0.998294
1990	0	0.996594
1991	0	0.994898
1992	0	0.996597
1993	0	0.996597
1994	0	0.998296
1995	0	0.998298
1996	0	0.998296
1997	0	0.996597
1998	0	0.996597
1999	0	0.994902
2000	0	0.994902
2001	0	0.994902
2002	0	0.994898
2003	0	0.994898
2004	0	0
2005	0	0
2006	0	0
2007	0	0.994898
2008	0	0.994898
2009	0	0.993206
2010	0	0.993206
2011	0	0.993206
2012	0	0.993206
2013	0	0.994902
2014	0	0.994902
2015	0	0.996597
2016	0	0.994902
2017	0	0.994902
2018	0	0.994902
2019	0	0.994902
2020	0	0.994902
2021	0	0.994898
2022	0	0.994898
2023	0	0.991527
2024	0	0.991527
2025	0	0
2026	0	0
2027	0	0
2028	0	0.333333
2029	0	0.333333
2030	0	0.994582
2031	0	0.880703
2032	0	0.967838
2033	0	0.994894
2034	0	0.994898
2035	0	0.994898
2036	0	0.994898
2037	0	0.996594
2038	0	0.993196
2039	0	1
2040	0	0.923077
2041	0	1
2042	0	1
2043	0	0.466667
2044	0	0.466667
2045	0	0.94296
2046	0	0.86141
2047	0	0
2048	0	0
2049	0	0
2050	0	0.8
2051	0	0.416667
2052	0	0.409357
2053	0	0.516069
2054	0	0.604396
2055	0	0.3
2056	0	0.1
2057	0	0.505495
2058	0	0.166667
2059	0	0.133333
2060	0	0.0666667
2061	0	0.0666667
2062	0	0.0666667
2063	0	0.142857
2064	0	0.138889
2065	0	0.109091
2066	0	0.290366
2067	0	0.534191
2068	0	0.496503
2069	0	0.735818
2070	0	0.1
2071	0	0.0952381
2072	0	0.190476
2073	0	0.190476
2074	0	0.707641
2075	0	0.36655
2076	0	0.753521
2077	0	0.436585
2078	0	0.436585
2079	0	0.849267
2080	0	0
2081	0	0
2082	0	0
2083	0	0.333333
2084	0	0.333333
2085	0	0.166667
2086	0	0.5
2087	0	0.5
2088	0	0.846154
2089	0	0.575
2090	0	0.866667
2091	0	0.866667
2092	0	0.866667
2093	0	0.994889
2094	0	0.993194
2095	0	0.994894
2096	0	0.996591
2097	0	0.996591
2098	0	0.996591
2099	0	0.996591
2100	0	0.994881
2101	0	0.994876
2102	0	0.994876
2103	0	0.994876
2104	0	0.994876
2105	0	0.993177
2106	0	0.991482
2107	0	0.991482
2108	0	0
2109	0	0
2110	0	0
2111	0	0
2112	0	0
2113	0	0
2114	0	0
2115	0	0
2116	0	0
2117	0	0
2118	0	0
2119	0	0
2120	0	0
2121	0	0
2122	0	0
2123	0	0.991475
2124	0	0.991475
2125	0	0.993171
2126	0	0.993171
2127	0	0.993171
2128	0	0.993171
2129	0	0.993171
2130	0	0.993171
2131	0	0.991475
2132	0	0.991475
2133	0	0.991475
2134	0	0.994872
2135	1	0
2136	1	0
2137	1	0
2138	1	0
2139	1	0
2140	1	0
2141	1	0
2142	1	0
2143	1	0
2144	1	0
2145	1	0
2146	1	0
2147	1	0
2148	1	0
2149	1	0
2150	1	0
2151	1	0
2152	1	0
2153	1	0
2154	1	0
2155	1	0
2156	1	0
2157	1	0
2158	1	0
2159	1	0
2160	1	0
2161	1	0
2162	1	0
2163	1	0
2164	1	0
2165	0	0.993165
2166	0	0.991468
2167	0	0.991468
2168	0	0.991468
2169	0	0.991468
2170	0	0.991468
2171	0	0.993165
2172	0	0.993165
2173	0	0.993165
2174	0	0.993165
2175	0	0.993165
2176	0	0.993165
2177	0	0
2178	0	0
2179	0	0
2180	0	0
2181	0	0.993165
2182	0	0.993165
2183	0	0.991468
2184	0	0.991468
2185	0	0.991468
2186	0	0.991468
2187	0	0.991468
2188	0	0.991468
2189	0	0.991468
2190	0	0.989774
2191	0	0.989774
2192	0	0.989774
2193	0	0.989774
2194	0	0.989774
2195	0	0.984683
2196	0	0
2197	0	0
2198	0	0
2199	0	0
2200	0	0
2201	0	0
2202	0	0
2203	0	0
2204	0	0
2205	0	0
2206	0	0.976256
2207	0	0
2208	0	0
2209	0	0
2210	0	0
2211	0	0
2212	0	0
2213	0	0
2214	0	0
2215	0	0
2216	0	0
2217	0	0
2218	0	0
2219	0	0
2220	0	0
2221	0	0
2222	0	0
2223	0	0
2224	0	0
2225	0	0
2226	0	0
2227	0	0
2228	0	0
2229	0	0
2230	0	0
2231	0	0
2232	0	0
2233	0	0
2234	0	0
2235	0	0
2236	0	0
2237	0	0
2238	0	0
2239	0	0
2240	0	0
2241	0	0
2242	0	0
2243	0	0
2244	0	0
2245	0	0
2246	0	0
2247	0	0
2248	0	0
2249	0	0
2250	0	0
2251	0	0
2252	0	0
2253	0	0
2254	0	0
2255	0	0
2256	0	0
2257	0	0
2258	0	0
2259	0	0
2260	0	0
2261	0	0
2262	0	0
2263	0	0
2264	0	0
2265	0	0
2266	0	0
2267	0	0
2268	0	0
2269	0	0
2270	0	0
2271	0	0
2272	0	0
2273	0	0
2274	0	0
2275	0	0
2276	0	0
2277	0	0
2278	0	0
2279	0	0
2280	0	0
2281	0	0
2282	0	0
2283	0	0
2284	0	0
2285	0	0
2286	0	0
2287	0	0
2288	0	0
2289	0	0
2290	0	0
2291	0	0
2292	0	0
2293	0	0
2294	0	0
2295	0	0
2296	0	0
2297	0	0
2298	0	0
2299	0	0
2300	0	0
2301	0	0
2302	0	0
2303	0	0
2304	0	0
2305	0	0
2306	0	0
2307	0	0
2308	0	0
2309	0	0
2310	0	0
2311	0	0
2312	0	0
2313	0	0
2314	0	0
2315	0	0
2316	0	0.979592
2317	0	0.979592
2318	0	0
2319	0	0
2320	0	0
2321	0	0
2322	0	0
2323	0	0
2324	0	0
2325	0	0
2326	0	0
2327	0	0
2328	0	0
2329	0	0
2330	0	0
2331	0	0
2332	0	0
2333	0	0
2334	0	0
2335	0	0
2336	0	0
2337	0	0
2338	0	0
2339	0	0
2340	0	0
2341	0	0
2342	0	0
2343	0	0
2344	0	0
2345	0	0
2346	0	0.984669
2347	0	0
2348	0	0
2349	0	0
2350	0	0
2351	0	0
2352	0	0
2353	0	0
2354	0	0
2355	0	0
2356	1	0
2357	0	0
2358	0	0
2359	0	0
2360	0	0
2361	0	0
2362	0	0
2363	0	0
2364	0	0
2365	0	0
2366	0	0
2367	0	0
2368	0	0
2369	0	0
2370	0	0
2371	0	0
2372	0	0
2373	0	0
2374	0	0
2375	0	0
2376	0	0
2377	0	0
2378	0	0
2379	0	0
2380	0	0
2381	0	0
2382	0	0
2383	0	0
2384	0	0
2385	0	0
2386	0	0
2387	0	0
2388	0	0
2389	0	0
2390	0	0
2391	0	0
2392	0	0
2393	0	0
2394	0	0
2395	0	0
2396	0	0
2397	0	0
2398	0	0
2399	0	0
2400	0	0
2401	0	0
2402	0	0
2403	0	0
2404	0	0
2405	0	0
2406	0	0
2407	0	0
2408	0	0
2409	0	0
2410	0	0
2411	0	0
2412	0	0.981309
2413	0	0.982986
2414	0	0
2415	0	0
2416	0	0
2417	0	0
2418	0	0
2419	0	0
2420	0	0
2421	0	0
2422	0	0
2423	0	0
2424	0	0
2425	0	0
2426	0	0
2427	0	0
2428	0	0
2429	0	0
2430	0	0
2431	0	0
2432	0	0
2433	0	0
2434	0	0
2435	0	0
2436	0	0
2437	0	0
2438	0	0
2439	0	0
2440	0	0
2441	0	0
2442	0	0
2443	0	0
2444	0	0
2445	0	0
2446	0	0
2447	0	0
2448	0	0
2449	0	0
2450	0	0
2451	0	0
2452	0	0
2453	0	0
2454	0	0
2455	0	0
2456	0	0.979618
2457	0	0.981293
2458	0	0.984668
2459	0	0.986366
2460	0	0
2461	0	0
2462	0	0
2463	0	0
2464	0	0
2465	0	0
2466	0	0
2467	0	0
2468	0	0
2469	0	0
2470	0	0
2471	0	0
2472	0	0
2473	0	0
2474	0	0
2475	0	0
2476	0	0
2477	0	0
2478	0	0
2479	0	0
2480	0	0
2481	0	0
2482	0	0
2483	0	0
2484	0	0
2485	0	0
2486	0	0
2487	0	0
2488	0	0
2489	0	0
2490	0	0
2491	0	0
2492	0	0
2493	0	0
2494	0	0
2495	0	0
2496	0	0
2497	0	0
2498	0	0
2499	0	0
2500	0	0
2501	0	0
2502	0	0
2503	0	0
2504	0	0
2505	0	0.986356
2506	0	0.988046
2507	0	0
2508	0	0
2509	0	0
2510	0	0
2511	0	0
2512	0	0
2513	0	0
2514	0	0
2515	0	0
2516	0	0
2517	0	0
2518	0	0
2519	0	0
2520	0	0
2521	0	0
2522	0	0
2523	0	0
2524	0	0
2525	0	0
2526	0	0
2527	0	0
2528	0	0
2529	0	0
2530	0	0
2531	0	0
2532	0	0
2533	0	0
2534	0	0
2535	0	0
2536	0	0
2537	0	0
2538	0	0
2539	0	0
2540	0	0
2541	0	0
2542	0	0
2543	0	0
2544	0	0
2545	0	0
2546	0	0
2547	0	0
2548	0	0
2549	0	0
2550	0	0
2551	0	0
2552	0	0
2553	0	0
2554	0	0
2555	0	0
2556	0	0
2557	0	0
2558	0	0
2559	0	0
2560	0	0
2561	0	0
2562	0	0
2563	0	0
2564	0	0
2565	0	0
2566	0	0
2567	0	0
2568	0	0
2569	0	0
2570	0	0
2571	0	0
2572	0	0
2573	0	0
2574	0	0
2575	0	0
2576	0	0
2577	0	0
2578	0	0
2579	0	0
2580	0	0
2581	0	0
2582	0	0
2583	0	0
2584	0	0
2585	0	0
2586	0	0
2587	0	0
2588	0	0
2589	0	0
2590	0	0
2591	0	0
2592	0	0
2593	0	0
2594	0	0
2595	0	0
2596	0	0
2597	0	0
2598	0	0
2599	0	0
2600	0	0
2601	0	0
2602	0	0
2603	0	0
2604	0	0
2605	0	0
2606	0	0
2607	0	0
2608	0	0
2609	0	0
2610	0	0
2611	0	0
2612	0	0
2613	0	0
2614	0	0
2615	0	0
2616	0	0
2617	0	0
2618	0	0
2619	0	0
2620	0	0
2621	0	0
2622	0	0
2623	0	0
2624	0	0
2625	0	0
2626	0	0
2627	0	0
2628	0	0
2629	0	0
2630	0	0
2631	0	0
2632	0	0
2633	0	0
2634	0	0
2635	0	0
2636	0	0
2637	0	0
2638	0	0
2639	0	0
2640	0	0
2641	0	0
2642	0	0
2643	0	0
2644	0	0
2645	0	0
2646	0	0
2647	0	0
2648	0	0
2649	0	0
2650	0	0
2651	0	0
2652	0	0
2653	0	0
2654	0	0
2655	0	0
2656	0	0
2657	0	0
2658	0	0
2659	0	0
2660	0	0
2661	0	0
2662	0	0
2663	0	0
2664	0	0
2665	0	0
2666	0	0
2667	0	0
2668	0	0
2669	0	0
2670	0	0.984669
2671	0	0.984656
2672	0	0
2673	0	0
2674	0	0
2675	0	0
2676	0	0
2677	0	0
2678	0	0
2679	0	0
2680	0	0
2681	0	0
2682	0	0
2683	0	0
2684	0	0
2685	0	0
2686	0	0
2687	0	0
2688	0	0
2689	0	0
2690	0	0
2691	0	0
2692	0	0
2693	0	0
2694	0	0
2695	0	0
2696	0	0
2697	0	0
2698	0	0
2699	0	0
2700	0	0
2701	0	0
2702	0	0
2703	0	0
2704	0	0
2705	0	0
2706	0	0
2707	0	0
2708	0	0
2709	0	0
2710	0	0
2711	0	0
2712	0	0
2713	0	0
2714	0	0
2715	0	0
2716	0	0
2717	0	0
2718	0	0
2719	0	0
2720	0	0
2721	0	0
2722	0	0
2723	0	0
2724	0	0
2725	0	0
2726	0	0
2727	0	0
2728	0	0
2729	0	0
2730	0	0
2731	0	0
2732	0	0
2733	0	0
2734	0	0
2735	0	0
2736	0	0
2737	0	0
2738	0	0
2739	0	0
2740	0	0
2741	0	0
2742	0	0
2743	0	0
2744	0	0
2745	0	0
2746	0	0
2747	0	0
2748	0	0
2749	0	0
2750	0	0
2751	0	0
2752	0	0
2753	0	0
2754	0	0
2755	0	0
2756	0	0
2757	0	0
2758	0	0
2759	0	0
2760	0	0
2761	0	0
2762	0	0
2763	0	0
2764	0	0
2765	0	0
2766	0	0
2767	0	0
2768	0	0
2769	0	0
2770	0	0
2771	0	0
2772	0	0
2773	0	0
2774	0	0
2775	0	0
2776	0	0
2777	0	0
2778	0	0
2779	0	0
2780	0	0
2781	0	0
2782	0	0
2783	0	0
2784	0	0
2785	0	0
2786	0	0
2787	0	0
2788	0	0
2789	0	0
2790	0	0
2791	0	0
2792	0	0
2793	0	0
2794	0	0
2795	0	0
2796	0	0
2797	0	0
2798	0	0
2799	0	0
2800	0	0
2801	0	0
2802	0	0
2803	0	0
2804	0	0
2805	0	0
2806	0	0
2807	0	0
2808	0	0
2809	0	0
2810	0	0
2811	0	0
2812	0	0
2813	0	0
2814	0	0
2815	0	0
2816	0	0
2817	0	0
2818	0	0
2819	0	0
2820	0	0
2821	0	0
2822	0	0
2823	0	0
2824	0	0
2825	0	0
2826	0	0
2827	0	0
2828	0	0
2829	0	0
2830	0	0
2831	0	0
2832	0	0
2833	0	0
2834	0	0
2835	0	0
2836	0	0
2837	0	0
2838	0	0
2839	0	0
2840	0	0
2841	0	0
2842	0	0
2843	0	0
2844	0	0
2845	0	0
2846	0	0
2847	0	0
2848	0	0
2849	0	0
2850	0	0
2851	0	0
2852	0	0
2853	0	0
2854	0	0
2855	0	0
2856	0	0
2857	0	0
2858	0	0
2859	0	0
2860	0	0
2861	0	0
2862	0	0
2863	0	0
2864	0	0
2865	0	0
2866	0	0
2867	0	0
2868	0	0
2869	0	0
2870	0	0
2871	0	0
2872	0	0
2873	0	0
2874	0	0
2875	0	0
2876	0	0
2877	0	0
2878	0	0
2879	0	0
2880	0	0
2881	0	0
2882	0	0
2883	0	0
2884	0	0
2885	0	0
2886	0	0
2887	0	0
2888	0	0
2889	0	0
2890	0	0
2891	0	0
2892	0	0
2893	0	0
2894	0	0
2895	0	0
2896	0	0
2897	0	0
2898	0	0
2899	0	0
2900	0	0
2901	0	0
2902	0	0
2903	0	0
2904	0	0
2905	0	0
2906	0	0
2907	0	0
2908	0	0
2909	0	0
2910	0	0
2911	0	0
2912	0	0
2913	0	0
2914	0	0
2915	0	0
2916	0	0
2917	0	0
2918	0	0
2919	0	0
2920	0	0
2921	0	0
2922	1	0
2923	1	0
2924	0	0
2925	0	0
2926	0	0
2927	0	0
2928	0	0
2929	0	0
2930	0	0
2931	0	0
2932	0	0
2933	0	0
2934	0	0
2935	0	0
2936	0	0
2937	0	0
2938	0	0
2939	0	0
2940	0	0
2941	0	0
2942	0	0
2943	0	0
2944	0	0
2945	0	0
2946	0	0
2947	0	0
2948	0	0
2949	0	0
2950	0	0
2951	0	0
2952	0	0
2953	0	0
2954	0	0
2955	0	0
2956	0	0
2957	0	0
2958	0	0
2959	0	0
2960	0	0
2961	0	0
2962	0	0
2963	0	0
2964	0	0
2965	0	0
2966	0	0
2967	0	0
2968	0	0
2969	0	0
2970	0	0
2971	0	0
2972	0	0
2973	0	0
2974	0	0
2975	0	0
2976	0	0
2977	0	0
2978	0	0
2979	0	0
2980	0	0
2981	0	0
2982	0	0
2983	0	0
2984	0	0
2985	0	0
2986	1	0
2987	1	0
2988	0	0
2989	0	0
2990	0	0
2991	0	0
2992	0	0
2993	0	0
2994	0	0
2995	0	0
2996	0	0
2997	0	0
2998	0	0
2999	0	0
3000	0	0
3001	0	0
3002	0	0
3003	0	0
3004	0	0
3005	0	0
3006	0	0
3007	0	0
3008	0	0
3009	0	0
3010	0	0
3011	0	0
3012	0	0
3013	0	0
3014	0	0
3015	0	0
3016	0	0
3017	1	0
3018	1	0
3019	1	0
3020	0	0
3021	0	0
3022	0	0
3023	0	0
3024	0	0
3025	0	0
3026	0	0
3027	0	0
3028	0	0
3029	0	0
3030	0	0
3031	0	0
3032	0	0
3033	0	0
3034	0	0
3035	0	0
3036	0	0
3037	0	0
3038	0	0
3039	0	0
3040	0	0
3041	0	0
3042	0	0
3043	0	0
3044	0	0
3045	0	0
3046	0	0
3047	0	0
3048	0	0
3049	0	0
3050	0	0
3051	0	0
3052	0	0
3053	0	0
3054	0	0
3055	0	0
3056	0	0
3057	0	0
3058	0	0
3059	0	0
3060	0	0
3061	0	0
3062	0	0
3063	0	0
3064	0	0
3065	0	0
3066	0	0
3067	0	0
3068	0	0
3069	0	0
3070	0	0
3071	0	0
3072	0	0
3073	0	0
3074	0	0
3075	0	0
3076	0	0
3077	0	0
3078	0	0
3079	0	0
3080	0	0
3081	0	0
3082	0	0
3083	0	0
3084	0	0
3085	0	0
3086	1	0
3087	0	0
3088	0	0
3089	0	0
3090	0	0
3091	0	0
3092	0	0
3093	0	0
3094	0	0
3095	0	0
3096	0	0
3097	0	0
3098	0	0
3099	0	0
3100	0	0
3101	0	0
3102	1	0
3103	1	0
3104	0	0
3105	0	0
3106	0	0
3107	0	0
3108	0	0
3109	0	0
3110	0	0
3111	0	0
3112	1	0
3113	0	0
3114	0	0
3115	0	0
3116	0	0
3117	0	0
3118	0	0
3119	0	0
3120	0	0
3121	0	0
3122	0	0
3123	0	0
3124	0	0
3125	0	0
3126	0	0
3127	1	0
3128	1	0
3129	1	0
3130	1	0
3131	0	0
3132	0	0
3133	0	0
3134	0	0
3135	0	0
3136	0	0
3137	0	0
3138	0	0
3139	0	0
3140	0	0
3141	0	0
3142	0	0
3143	0	0
3144	0	0
3145	0	0
3146	0	0
3147	0	0
3148	0	0
3149	0	0
3150	0	0
3151	0	0
3152	0	0
3153	0	0
3154	0	0
3155	0	0
3156	0	0
3157	0	0
3158	0	0
3159	0	0
3160	0	0
3161	0	0
3162	0	0
3163	0	0
3164	0	0
3165	0	0
3166	0	0
3167	0	0
3168	0	0
3169	0	0
3170	0	0
3171	0	0
3172	0	0
3173	0	0
3174	0	0
3175	0	0
3176	0	0
3177	0	0
3178	0	0
3179	0	0
3180	0	0
3181	0	0
3182	0	0
3183	0	0
3184	0	0
3185	0	0
3186	0	0
3187	0	0
3188	0	0
3189	0	0
3190	0	0
3191	0	0
3192	0	0
3193	0	0
3194	0	0
3195	0	0
3196	0	0
3197	0	0
3198	0	0
3199	0	0
3200	0	0
3201	0	0
3202	0	0
3203	0	0
3204	0	0
3205	0	0
3206	0	0
3207	0	0
3208	0	0
3209	0	0
3210	0	0
3211	0	0
3212	0	0
3213	0	0
3214	0	0
3215	0	0
3216	0	0
3217	0	0
3218	0	0
3219	0	0
3220	0	0
3221	0	0
3222	0	0
3223	0	0
3224	0	0
3225	0	0
3226	0	0
3227	0	0
3228	0	0
3229	0	0
3230	0	0
3231	0	0
3232	0	0
3233	0	0
3234	0	0
3235	0	0
3236	0	0
3237	0	0
3238	0	0
3239	0	0
3240	0	0
3241	0	0
3242	0	0
3243	0	0
3244	0	0
3245	0	0
3246	0	0
3247	0	0
3248	0	0
3249	0	0
3250	0	0
3251	0	0
3252	0	0
3253	0	0
3254	0	0
3255	0	0
3256	0	0
3257	0	0
3258	0	0
3259	0	0
3260	0	0
3261	0	0
3262	0	0
3263	0	0
3264	0	0
3265	0	0
3266	0	0
3267	0	0
3268	0	0
3269	0	0
3270	0	0
3271	0	0
3272	0	0
3273	0	0
3274	0	0
3275	0	0
3276	0	0
3277	0	0
3278	0	0
3279	0	0
3280	0	0
3281	0	0
3282	0	0
3283	0	0
3284	0	0
3285	0	0
3286	0	0
3287	0	0
3288	0	0
3289	0	0
3290	0	0
3291	0	0
3292	0	0
3293	0	0
3294	0	0
3295	0	0
3296	0	0
3297	0	0
3298	0	0
3299	0	0
3300	0	0
3301	0	0
3302	0	0
3303	0	0
3304	0	0
3305	0	0
3306	0	0
3307	0	0
3308	0	0
3309	0	0
3310	0	0
3311	0	0
3312	0	0
3313	0	0
3314	0	0
3315	0	0
3316	0	0
3317	0	0
3318	0	0
3319	0	0
3320	0	0
3321	0	0
3322	0	0
3323	0	0
3324	0	0
3325	0	0
3326	0	0
3327	0	0
3328	0	0
3329	0	0
3330	0	0
3331	0	0
3332	0	0
3333	0	0
3334	0	0
3335	0	0
3336	0	0
3337	0	0
3338	0	0
3339	0	0
3340	0	0
3341	0	0
3342	0	0
3343	0	0
3344	1	0
3345	1	0
3346	0	0
3347	0	0
3348	0	0
3349	0	0
3350	0	0
3351	0	0
3352	0	0
3353	0	0
3354	0	0
3355	0	0
3356	0	0
3357	0	0
3358	0	0
3359	0	0
3360	0	0
3361	0	0
3362	0	0
3363	0	0
3364	0	0
3365	0	0
3366	0	0
3367	0	0
3368	0	0
3369	0	0
3370	0	0
3371	0	0
3372	0	0
3373	0	0
3374	0	0
3375	0	0
3376	0	0
3377	0	0
3378	0	0
3379	0	0
3380	0	0
3381	0	0
3382	0	0
3383	0	0
3384	0	0
3385	0	0
3386	0	0
3387	0	0
3388	0	0
3389	0	0
3390	0	0
3391	0	0
3392	0	0
3393	0	0
3394	0	0
3395	0	0
3396	0	0
3397	0	0
3398	0	0
3399	0	0
3400	0	0
3401	0	0
3402	0	0
3403	0	0
3404	0	0
3405	0	0
3406	0	0
3407	0	0
3408	0	0
3409	0	0
3410	0	0
3411	0	0
3412	0	0
3413	0	0
3414	0	0
3415	0	0
3416	0	0
3417	0	0
3418	0	0
3419	0	0
3420	0	0
3421	0	0
3422	0	0
3423	0	0
3424	0	0
3425	0	0
3426	0	0
3427	0	0
3428	0	0
3429	0	0
3430	0	0
3431	0	0
3432	0	0
3433	0	0
3434	0	0
3435	0	0
3436	0	0
3437	0	0
3438	0	0
3439	0	0
3440	0	0
3441	0	0
3442	0	0
3443	0	0
3444	0	0
3445	0	0
3446	0	0
3447	0	0
3448	0	0
3449	0	0
3450	0	0
3451	0	0
3452	0	0
3453	0	0
3454	0	0
3455	0	0
3456	0	0
3457	0	0
3458	0	0
3459	0	0
3460	0	0
3461	0	0
3462	0	0
3463	0	0
3464	0	0
3465	0	0
3466	0	0
3467	0	0
3468	0	0
3469	0	0
3470	0	0
3471	0	0
3472	0	0
3473	0	0
3474	0	0
3475	0	0
3476	0	0
3477	0	0
3478	0	0
3479	0	0
3480	0	0
3481	0	0
3482	0	0
3483	0	0
3484	0	0
3485	0	0
3486	0	0
3487	0	0
3488	0	0
3489	0	0
3490	0	0
3491	0	0
3492	0	0
3493	0	0
3494	0	0
3495	0	0
3496	0	0
3497	0	0
3498	0	0
3499	0	0
3500	0	0
3501	0	0
3502	0	0
3503	0	0
3504	0	0
3505	0	0
3506	0	0
3507	0	0
3508	0	0
3509	0	0
3510	0	0.976245
3511	0	0
3512	0	0
3513	0	0
3514	0	0
3515	0	0
3516	0	0
3517	0	0
3518	0	0
3519	0	0
3520	0	0
3521	0	0
3522	0	0
3523	0	0
3524	0	0
3525	0	0
3526	0	0
3527	0	0
3528	0	0
3529	0	0
3530	0	0
3531	0	0
3532	0	0
3533	0	0
3534	0	0
3535	0	0
3536	0	0
3537	0	0
3538	0	0
3539	0	0
3540	0	0
3541	0	0
3542	0	0
3543	0	0
3544	0	0
3545	0	0
3546	0	0
3547	0	0
3548	0	0
3549	0	0
3550	0	0
3551	0	0
3552	0	0
3553	0	0
3554	0	0
3555	0	0
3556	0	0
3557	0	0
3558	0	0
3559	0	0
3560	0	0
3561	0	0
3562	0	0
3563	0	0
3564	0	0
3565	0	0
3566	0	0
3567	0	0
3568	0	0
3569	0	0
3570	0	0
3571	0	0
3572	0	0
3573	0	0
3574	0	0
3575	0	0
3576	0	0
3577	0	0
3578	0	0
3579	0	0
3580	0	0
3581	0	0
3582	0	0
3583	0	0
3584	0	0
3585	0	0
3586	0	0
3587	0	0
3588	0	0
3589	0	0
3590	0	0
3591	0	0
3592	0	0
3593	0	0
3594	0	0
3595	0	0
3596	0	0
3597	0	0
3598	0	0
3599	0	0
3600	0	0
3601	0	0
3602	0	0
3603	0	0
3604	0	0
3605	0	0
3606	0	0
3607	0	0
3608	0	0
3609	0	0
3610	0	0
3611	0	0
3612	0	0
3613	0	0
3614	0	0
3615	0	0
3616	0	0
3617	0	0
3618	0	0
3619	0	0
3620	0	0
3621	0	0
3622	0	0
3623	0	0
3624	0	0
3625	0	0
3626	0	0
3627	0	0
3628	0	0
3629	0	0
3630	0	0
3631	0	0
3632	0	0
3633	0	0
3634	0	0
3635	0	0
3636	0	0
3637	0	0
3638	0	0
3639	0	0
3640	0	0
3641	0	0
3642	0	0
3643	0	0
3644	0	0
3645	0	0
3646	0	0
3647	0	0
3648	0	0
3649	0	0
3650	0	0
3651	0	0
3652	0	0
3653	0	0
3654	0	0
3655	0	0
3656	0	0
3657	0	0
3658	0	0
3659	0	0
3660	0	0
3661	0	0
3662	0	0
3663	0	0
3664	0	0
3665	0	0
3666	0	0
3667	0	0
3668	0	0
3669	0	0
3670	0	0
3671	0	0
3672	0	0
3673	0	0
3674	0	0
3675	0	0
3676	0	0
3677	0	0
3678	0	0
3679	0	0
3680	0	0
3681	0	0
3682	0	0
3683	0	0
3684	0	0
3685	0	0
3686	0	0
3687	0	0
3688	0	0
3689	0	0
3690	0	0
3691	0	0
3692	0	0
3693	0	0
3694	0	0
3695	0	0
3696	0	0
3697	0	0
3698	0	0
3699	0	0
3700	0	0
3701	0	0
3702	0	0
3703	0	0
3704	0	0
3705	0	0
3706	0	0
3707	0	0
3708	0	0
3709	0	0
3710	0	0
3711	0	0
3712	0	0
3713	0	0
3714	0	0
3715	0	0
3716	0	0
3717	0	0
3718	0	0
3719	0	0
3720	0	0
3721	0	0
3722	0	0
3723	0	0
3724	0	0
3725	0	0
3726	0	0
3727	0	0
3728	0	0
3729	0	0
3730	0	0
3731	0	0
3732	0	0
3733	0	0
3734	0	0
3735	0	0
3736	0	0
3737	0	0
3738	0	0
3739	0	0
3740	0	0
3741	0	0
3742	0	0
3743	0	0
3744	0	0
3745	0	0
3746	0	0
3747	0	0
3748	0	0
3749	0	0
3750	0	0
3751	0	0
3752	0	0
3753	0	0
3754	0	0
3755	0	0
3756	0	0
3757	0	0
3758	0	0
3759	0	0
3760	0	0
3761	0	0
3762	0	0
3763	0	0
3764	0	0
3765	0	0
3766	0	0
3767	0	0
3768	0	0
3769	0	0
3770	0	0
3771	0	0
3772	0	0
3773	0	0
3774	0	0
3775	0	0
3776	0	0
3777	0	0
3778	0	0
3779	0	0
3780	0	0
3781	0	0
3782	0	0
3783	0	0
3784	0	0
3785	0	0
3786	0	0
3787	0	0
3788	0	0
3789	0	0
3790	0	0
3791	0	0
3792	0	0
3793	0	0
3794	1	0
3795	1	0
3796	0	0
3797	0	0
3798	0	0
3799	0	0
3800	0	0
3801	0	0
3802	0	0
3803	0	0
3804	0	0
3805	0	0
3806	0	0
3807	0	0
3808	0	0
3809	0	0
3810	0	0
3811	0	0
3812	0	0
3813	0	0
3814	0	0
3815	0	0
3816	0	0
3817	1	0
3818	1	0
3819	1	0
3820	1	0
3821	1	0
3822	1	0
3823	1	0
3824	0	0
3825	0	0
3826	0	0
3827	0	0
3828	0	0
3829	0	0
3830	1	0
3831	0	0
3832	0	0
3833	0	0
3834	0	0
3835	0	0
3836	0	0
3837	0	0
3838	0	0
3839	0	0
3840	0	0
3841	0	0
3842	0	0
3843	0	0
3844	0	0
3845	0	0
3846	0	0
3847	0	0
3848	0	0
3849	0	0
3850	0	0
3851	0	0
3852	0	0
3853	0	0
3854	0	0
3855	0	0
3856	0	0
3857	0	0
3858	0	0
3859	0	0
3860	0	0
3861	0	0
3862	0	0
3863	0	0
3864	0	0
3865	0	0
3866	0	0
3867	0	0
3868	0	0
3869	0	0
3870	0	0
3871	0	0
3872	0	0
3873	0	0
3874	0	0
3875	0	0
3876	0	0
3877	0	0
3878	0	0
3879	0	0
3880	0	0
3881	0	0
3882	0	0
3883	0	0
3884	0	0
3885	0	0
3886	0	0
3887	0	0
3888	0	0
3889	0	0
3890	0	0
3891	0	0
3892	0	0
3893	0	0
3894	0	0
3895	0	0
3896	0	0
3897	0	0
3898	0	0
3899	0	0
3900	0	0
3901	0	0
3902	0	0
3903	0	0
3904	0	0
3905	0	0
3906	0	0
3907	0	0
3908	0	0
3909	0	0
3910	0	0
3911	0	0
3912	0	0
3913	0	0
3914	0	0
3915	0	0
3916	0	0
3917	0	0
3918	0	0
3919	0	0
3920	0	0
3921	0	0
3922	0	0
3923	0	0
3924	0	0
3925	0	0
3926	0	0
3927	0	0
3928	0	0
3929	0	0
3930	0	0
3931	0	0
3932	0	0
3933	0	0
3934	0	0
3935	0	0
3936	0	0
3937	0	0
3938	0	0
3939	0	0
3940	0	0
3941	0	0
3942	0	0
3943	0	0
3944	0	0
3945	0	0
3946	0	0
3947	0	0
3948	0	0
3949	0	0
3950	0	0
3951	0	0
3952	0	0
3953	0	0
3954	0	0
3955	0	0
3956	0	0
3957	0	0
3958	0	0
3959	0	0
3960	0	0
3961	0	0
3962	0	0.986307
3963	0	0.3
3964	0	0.967769
3965	0	0
3966	0	0
3967	0	0
3968	0	0
3969	0	0
3970	0	0
3971	0	0
3972	0	0
3973	0	0
3974	0	0
3975	0	0
3976	0	0
3977	0	0
3978	0	0
3979	0	0
3980	0	0
3981	0	0
3982	0	0
3983	0	0
3984	0	0
3985	0	0
3986	0	0
3987	0	0
3988	0	0
3989	0	0
3990	0	0
3991	0	0
3992	0	0
3993	0	0
3994	0	0
3995	0	0
3996	0	0
3997	0	0
3998	0	0
3999	0	0
4000	0	0
4001	0	0
4002	0	0
4003	0	0
4004	0	0
4005	0	0
4006	0	0
4007	0	0
4008	0	0
4009	0	0
4010	0	0
4011	0	0
4012	0	0
4013	0	0
4014	0	0
4015	0	0
4016	0	0
4017	0	0
4018	0	0
4019	0	0
4020	0	0
4021	0	0
4022	0	0
4023	0	0
4024	0	0
4025	0	0
4026	0	0
4027	0	0
4028	0	0
4029	0	0
4030	0	0
4031	0	0
4032	0	0
4033	0	0
4034	0	0
4035	0	0
4036	0	0
4037	0	0
4038	0	0
4039	0	0
4040	0	0
4041	0	0
4042	0	0
4043	0	0
4044	0	0
4045	0	0
4046	0	0
4047	0	0
4048	0	0
4049	0	0
4050	0	0
4051	0	0
4052	0	0
4053	0	0
4054	0	0
4055	0	0
4056	0	0
4057	0	0
4058	0	0
4059	0	0
4060	0	0
4061	0	0
4062	0	0
4063	0	0
4064	0	0
4065	0	0
4066	0	0
4067	0	0
4068	0	0
4069	0	0
4070	0	0
4071	0	0
4072	0	0
4073	0	0
4074	0	0
4075	0	0
4076	0	0
4077	0	0
4078	0	0
4079	0	0
4080	0	0
4081	0	0
4082	0	0
4083	0	0
4084	0	0
4085	0	0
4086	0	0
4087	0	0
4088	0	0
4089	0	0
4090	0	0
4091	0	0
4092	0	0
4093	0	0
4094	0	0
4095	0	0
4096	0	0
4097	0	0
4098	0	0
4099	0	0
4100	0	0
4101	0	0
4102	0	0
4103	0	0
4104	0	0
4105	0	0
4106	0	0
4107	0	0
4108	0	0
4109	0	0
4110	0	0
4111	0	0
4112	0	0
4113	0	0
4114	0	0
4115	0	0
4116	0	0
4117	0	0
4118	0	0
4119	0	0
4120	0	0
4121	0	0
4122	0	0
4123	0	0
4124	0	0
4125	0	0
4126	0	0
4127	0	0
4128	0	0
4129	0	0
4130	0	0
4131	0	0
4132	0	0
4133	0	0
4134	0	0
4135	0	0
4136	0	0
4137	0	0
4138	0	0
4139	0	0
4140	0	0
4141	0	0
4142	0	0
4143	0	0
4144	0	0
4145	0	0
4146	0	0
4147	0	0.97778
4148	0	0.981181
4149	0	0.981181
4150	0	0
4151	0	0
4152	0	0
4153	0	0
4154	0	0
4155	0	0
4156	0	0
4157	0	0
4158	0	0
4159	0	0
4160	0	0
4161	0	0
4162	0	0
4163	0	0
4164	0	0
4165	0	0
4166	0	0
4167	0	0
4168	0	0
4169	0	0
4170	0	0
4171	0	0
4172	0	0
4173	0	0
4174	0	0
4175	0	0
4176	0	0
4177	0	0
4178	0	0
4179	0	0
4180	0	0
4181	0	0
4182	0	0
4183	0	0
4184	0	0
4185	0	0
4186	0	0
4187	0	0
4188	0	0
4189	0	0
4190	0	0
4191	0	0
4192	0	0
4193	0	0
4194	0	0
4195	0	0
4196	0	0
4197	0	0
4198	0	0
4199	0	0
4200	0	0
4201	0	0
4202	0	0
4203	0	0
4204	0	0
4205	0	0
4206	0	0
4207	0	0
4208	0	0
4209	0	0
4210	0	0
4211	0	0
4212	0	0
4213	0	0
4214	0	0
4215	0	0
4216	0	0
4217	0	0
4218	0	0
4219	0	0
4220	0	0
4221	0	0
4222	0	0
4223	0	0
4224	0	0
4225	0	0
4226	0	0
4227	0	0
4228	0	0
4229	0	0
4230	0	0
4231	0	0
4232	0	0
4233	0	0
4234	0	0
4235	0	0
4236	0	0
4237	0	0
4238	0	0
4239	0	0
4240	0	0
4241	0	0
4242	0	0
4243	0	0
4244	0	0
4245	0	0
4246	0	0
4247	0	0
4248	0	0
4249	0	0
4250	0	0
4251	0	0
4252	0	0
4253	0	0
4254	0	0
4255	0	0
4256	0	0
4257	0	0
4258	0	0
4259	0	0
4260	0	0
4261	0	0
4262	0	0
4263	0	0
4264	0	0
4265	0	0
4266	0	0
4267	0	0
4268	0	0
4269	0	0
4270	0	0
4271	0	0
4272	0	0
4273	0	0
4274	0	0
4275	0	0
4276	0	0
4277	0	0
4278	0	0
4279	0	0
4280	0	0
4281	0	0
4282	0	0
4283	0	0
4284	0	0
4285	0	0
4286	0	0
4287	0	0
4288	0	0
4289	0	0
4290	0	0
4291	0	0
4292	0	0
4293	0	0
4294	0	0
4295	0	0
4296	0	0
4297	0	0
4298	0	0
4299	0	0
4300	0	0
4301	0	0
4302	0	0
4303	0	0
4304	0	0
4305	0	0
4306	0	0
4307	0	0
4308	0	0
4309	0	0
4310	0	0
4311	0	0
4312	0	0
4313	0	0
4314	0	0
4315	0	0
4316	0	0
4317	0	0
4318	0	0
4319	0	0.971116
4320	0	0
4321	0	0
4322	0	0
4323	0	0
4324	0	0
4325	0	0
4326	0	0
4327	0	0
4328	0	0
4329	0	0
4330	0	0
4331	0	0
4332	0	0
4333	0	0
4334	0	0
4335	0	0
4336	0	0
4337	0	0
4338	0	0
4339	0	0
4340	0	0
4341	0	0
4342	0	0
4343	0	0
4344	0	0
4345	0	0
4346	0	0
4347	0	0
4348	0	0
4349	0	0
4350	0	0
4351	0	0
4352	0	0
4353	0	0
4354	0	0
4355	0	0
4356	0	0
4357	0	0
4358	0	0
4359	0	0
4360	0	0
4361	0	0
4362	0	0
4363	0	0
4364	0	0
4365	0	0
4366	0	0
4367	0	0
4368	0	0
4369	0	0
4370	0	0
4371	0	0
4372	0	0
4373	0	0
4374	0	0
4375	0	0
4376	0	0
4377	0	0
4378	0	0
4379	0	0
4380	0	0
4381	0	0
4382	0	0
4383	0	0
4384	0	0
4385	0	0
4386	0	0
4387	0	0
4388	0	0
4389	0	0
4390	0	0
4391	0	0
4392	0	0
4393	0	0
4394	0	0
4395	0	0
4396	0	0
4397	0	0
4398	0	0
4399	0	0
4400	0	0
4401	0	0
4402	0	0
4403	0	0
4404	0	0
4405	0	0
4406	0	0
4407	0	0
4408	0	0
4409	0	0
4410	0	0
4411	0	0
4412	0	0
4413	0	0
4414	0	0
4415	0	0
4416	0	0
4417	0	0
4418	0	0
4419	0	0
4420	0	0
4421	0	0
4422	0	0
4423	0	0
4424	0	0
4425	0	0
4426	0	0
4427	0	0
4428	0	0
4429	0	0
4430	0	0
4431	0	0
4432	0	0
4433	0	0
4434	0	0
4435	0	0
4436	0	0
4437	0	0
4438	0	0
4439	0	0
4440	0	0
4441	0	0
4442	0	0
4443	0	0
4444	0	0
4445	0	0
4446	0	0
4447	0	0
4448	0	0
4449	0	0
4450	0	0
4451	0	0
4452	0	0
4453	0	0
4454	0	0
4455	0	0
4456	0	0
4457	0	0
4458	0	0
4459	0	0
4460	0	0
4461	0	0
4462	0	0
4463	0	0
4464	0	0
4465	0	0
4466	0	0
4467	0	0
4468	0	0
4469	0	0
4470	0	0
4471	0	0
4472	0	0
4473	0	0
4474	0	0
4475	0	0
4476	0	0
4477	0	0
4478	0	0
4479	0	0
4480	0	0
4481	0	0
4482	0	0
4483	0	0
4484	0	0
4485	0	0
4486	0	0
4487	0	0
4488	0	0
4489	0	0
4490	0	0
4491	0	0
4492	0	0
4493	0	0
4494	0	0
4495	0	0
4496	0	0
4497	0	0
4498	0	0
4499	0	0
4500	0	0
4501	0	0
4502	0	0
4503	0	0
4504	0	0
4505	0	0
4506	0	0
4507	0	0
4508	0	0
4509	0	0
4510	0	0
4511	0	0
4512	0	0
4513	0	0
4514	0	0
4515	0	0
4516	0	0
4517	0	0
4518	0	0
4519	0	0
4520	0	0
4521	0	0
4522	0	0
4523	0	0
4524	0	0
4525	0	0
4526	0	0
4527	0	0
4528	0	0
4529	0	0
4530	0	0
4531	0	0
4532	0	0
4533	0	0
4534	0	0
4535	0	0
4536	0	0
4537	0	0
4538	0	0
4539	0	0
4540	0	0
4541	0	0
4542	0	0
4543	0	0
4544	0	0
4545	0	0
4546	0	0
4547	0	0
4548	0	0
4549	0	0
4550	0	0
4551	0	0
4552	0	0
4553	0	0
4554	0	0
4555	0	0
4556	0	0
4557	0	0
4558	0	0
4559	0	0
4560	0	0
4561	0	0
4562	0	0
4563	0	0
4564	0	0
4565	0	0
4566	0	0
4567	0	0
4568	0	0
4569	0	0
4570	0	0
4571	0	0
4572	0	0
4573	0	0
4574	0	0
4575	0	0
4576	0	0
4577	0	0
4578	0	0
4579	0	0
4580	0	0
4581	0	0
4582	0	0
4583	0	0
4584	0	0
4585	0	0
4586	0	0
4587	0	0
4588	0	0
4589	0	0
4590	0	0
4591	0	0
4592	0	0
4593	0	0
4594	0	0
4595	0	0
4596	0	0
4597	0	0
4598	0	0
4599	0	0
4600	0	0
4601	0	0
4602	0	0
4603	0	0
4604	0	0
4605	0	0
4606	0	0
4607	0	0
4608	0	0
4609	0	0
4610	0	0
4611	0	0
4612	0	0
4613	0	0
4614	0	0
4615	0	0
4616	0	0
4617	0	0
4618	0	0
4619	0	0
4620	0	0
4621	0	0
4622	0	0
4623	0	0
4624	0	0
4625	0	0
4626	0	0
4627	0	0
4628	0	0
4629	0	0
4630	0	0
4631	0	0
4632	0	0
4633	0	0
4634	0	0
4635	0	0
4636	0	0
4637	0	0
4638	0	0
4639	0	0
4640	0	0
4641	0	0
4642	0	0
4643	0	0
4644	0	0
4645	0	0
4646	0	0
4647	0	0
4648	0	0
4649	0	0
4650	0	0
4651	0	0
4652	0	0
4653	0	0
4654	0	0
4655	0	0
4656	0	0
4657	0	0
4658	0	0
4659	0	0
4660	0	0
4661	0	0
4662	0	0
4663	0	0
4664	0	0
4665	0	0
4666	0	0
4667	0	0
4668	0	0
4669	0	0
4670	0	0
4671	0	0
4672	0	0
4673	0	0
4674	0	0
4675	0	0
4676	0	0
4677	0	0
4678	0	0
4679	0	0
4680	0	0
4681	0	0
4682	0	0
4683	0	0
4684	0	0
4685	0	0
4686	0	0
4687	0	0
4688	0	0
4689	0	0
4690	0	0
4691	0	0
4692	0	0
4693	0	0
4694	0	0
4695	0	0
4696	0	0
4697	0	0
4698	0	0
4699	0	0
4700	0	0
4701	0	0
4702	0	0
4703	0	0
4704	0	0
4705	0	0
4706	0	0
4707	0	0
4708	0	0
4709	0	0
4710	0	0
4711	0	0
4712	0	0
4713	0	0
4714	0	0
4715	0	0
4716	0	0
4717	0	0
4718	0	0
4719	0	0
4720	0	0
4721	0	0
4722	0	0
4723	0	0
4724	0	0
4725	0	0
4726	0	0
4727	0	0
4728	0	0
4729	0	0
4730	0	0
4731	0	0
4732	0	0
4733	0	0
4734	0	0
4735	0	0
4736	0	0
4737	0	0
4738	0	0
4739	0	0
4740	0	0
4741	0	0
4742	0	0
4743	0	0
4744	0	0
4745	0	0
4746	0	0
4747	0	0
4748	0	0
4749	0	0
4750	0	0
4751	0	0
4752	0	0
4753	0	0
4754	0	0
4755	0	0
4756	0	0
4757	0	0
4758	0	0
4759	0	0
4760	0	0
4761	0	0
4762	0	0
4763	0	0
4764	0	0
4765	0	0
4766	0	0
4767	0	0
4768	0	0
4769	0	0
4770	0	0
4771	0	0
4772	0	0
4773	0	0
4774	0	0
4775	0	0
4776	0	0
4777	0	0
4778	0	0
4779	0	0
4780	0	0
4781	0	0.966005
4782	0	0.4
4783	0	0.4
4784	0	0.3
4785	0	0.3
4786	0	0.3
4787	0	0.166667
4788	0	0.166667
4789	0	0.166667
4790	0	0
4791	0	0
4792	0	0
4793	0	0
4794	0	0
4795	0	0
4796	0	0
4797	0	0
4798	0	0
4799	0	0
4800	0	0
4801	0	0
4802	0	0
4803	0	0
4804	0	0
4805	0	0
4806	0	0
4807	0	0
4808	0	0
4809	0	0
4810	0	0
4811	0	0
4812	0	0
4813	0	0
4814	0	0
4815	0	0
4816	0	0
4817	0	0
4818	0	0
4819	0	0
4820	0	0
4821	0	0
4822	0	0
4823	0	0
4824	0	0
4825	0	0
4826	0	0
4827	0	0
4828	0	0
4829	0	0
4830	0	0
4831	0	0
4832	0	0
4833	0	0
4834	0	0
4835	0	0
4836	0	0
4837	0	0
4838	0	0
4839	0	0
4840	0	0
4841	0	0
4842	0	0
4843	0	0.959208
4844	0	0.571429
4845	0	0.571429
4846	0	0.571429
4847	0	0.937325
4848	0	0.928343
4849	0	0.765789
4850	0	0.804196
4851	0	0.808696
4852	0	0.751089
4853	0	0.109091
4854	0	0.0357143
4855	0	0.0357143
4856	0	0.0357143
4857	0	0
4858	0	0
4859	0	0
4860	0	0.047619
4861	0	0.047619
4862	0	0.047619
4863	0	0.0666667
4864	0	0.0666667
4865	0	0
4866	0	0
4867	0	0
4868	0	0
4869	0	0
4870	0	0
4871	0	0
4872	0	0
4873	0	0
4874	0	0
4875	0	0
4876	0	0
4877	0	0
4878	0	0
4879	0	0
4880	0	0
4881	0	0
4882	0	0
4883	0	0
4884	0	0
4885	0	0
4886	0	0
4887	0	0
4888	0	0
4889	0	0
4890	0	0
4891	0	0
4892	0	0
4893	0	0
4894	0	0
4895	0	0
4896	0	0
4897	0	0
4898	0	0
4899	0	0
4900	0	0
4901	0	0
4902	0	0
4903	0	0
4904	0	0
4905	0	0
4906	0	0
4907	0	0
4908	0	0
4909	0	0
4910	0	0
4911	0	0
4912	0	0
4913	0	0
4914	0	0
4915	0	0
4916	0	0
4917	0	0
4918	0	0
4919	0	0
4920	0	0
4921	0	0
4922	0	0
4923	0	0
4924	0	0
4925	0	0
4926	0	0
4927	0	0
4928	0	0
4929	0	0
4930	0	0
4931	0	0
4932	0	0
4933	0	0
4934	0	0
4935	0	0
4936	0	0
4937	0	0
4938	0	0
4939	0	0
4940	0	0
4941	0	0
4942	0	0
4943	0	0
4944	0	0
4945	0	0
4946	0	0
4947	0	0
4948	0	0
4949	0	0
4950	0	0
4951	0	0
4952	0	0
4953	0	0
4954	0	0
4955	0	0
4956	0	0
4957	0	0
4958	0	0
4959	0	0
4960	0	0
4961	0	0
4962	0	0
4963	0	0
4964	0	0
4965	0	0
4966	0	0
4967	0	0
4968	0	0
4969	0	0
4970	0	0
4971	0	0
4972	0	0
4973	0	0
4974	0	0
4975	0	0
4976	0	0
4977	0	0
4978	0	0
4979	0	0
4980	0	0
4981	0	0
4982	0	0
4983	0	0
4984	0	0
4985	0	0
4986	0	0
4987	0	0
4988	0	0
4989	0	0
4990	0	0
4991	0	0
4992	0	0
4993	0	0
4994	0	0
4995	0	0
4996	0	0
4997	0	0
4998	0	0
4999	0	0
5000	0	0
5001	0	0
5002	0	0
5003	0	0
5004	0	0
5005	0	0
5006	0	0
5007	0	0
5008	0	0
5009	0	0
5010	0	0
5011	0	0
5012	0	0
5013	0	0
5014	0	0
5015	0	0
5016	0	0
5017	0	0
5018	0	0
5019	0	0.517241
5020	0	0.517241
5021	0	0.0222222
5022	0	0
5023	0	0
5024	0	0
5025	0	0.0222222
5026	0	0.0222222
5027	0	0.0222222
5028	0	0.0222222
5029	0	0.0222222
5030	0	0.0222222
5031	0	0.0222222
5032	0	0.0222222
5033	0	0.0222222
5034	0	0.0222222
5035	0	0.0222222
5036	0	0.0222222
5037	0	0.0222222
5038	0	0.0222222
5039	0	0.0222222
5040	0	0.0222222
5041	0	0.0222222
5042	0	0.0222222
5043	0	0.0222222
5044	0	0.0222222
5045	0	0.0222222
5046	0	0.0222222
5047	0	0.0222222
5048	0	0.0222222
5049	0	0.0222222
5050	0	0.0222222
5051	0	0.0181818
5052	0	0.0181818
5053	0	0.0181818
5054	0	0.0181818
5055	0	0.0181818
5056	0	0.0181818
5057	0	0.0181818
5058	0	0.0181818
5059	0	0.0181818
5060	0	0.0181818
5061	0	0.0380952
5062	0	0.043956
5063	0	0.043956
5064	0	0
5065	0	0
5066	0	0
5067	0	0
5068	0	0
5069	0	0.0222222
5070	0	0.0222222
5071	0	0.0222222
5072	0	0.0222222
5073	0	0.0222222
5074	0	0.0222222
5075	0	0.0222222
5076	0	0.0222222
5077	0	0.0222222
5078	0	0.0222222
5079	0	0.0222222
5080	0	0.0222222
5081	0	0.0222222
5082	0	0.0277778
5083	0	0.0222222
5084	0	0.0222222
5085	0	0.0277778
5086	0	0.0222222
5087	0	0.0444444
5088	0	0.0555556
5089	0	0.0833333
5090	0	0.0833333
5091	0	0.0555556
5092	0	0.0555556
5093	0	0.0555556
5094	0	0.0555556
5095	0	0.0555556
5096	0	0.0277778
5097	0	0.0277778
5098	0	0.0277778
5099	0	0.0277778
5100	0	0.0277778
5101	0	0.0277778
5102	0	0.0277778
5103	0	0.0277778
5104	0	0.0277778
5105	0	0.0277778
5106	0	0.890199
5107	0	0.0606061
5108	0	0.0363636
5109	0	0.0363636
5110	0	0.0363636
5111	0	0.0363636
5112	0	0.0222222
5113	0	0.0222222
5114	0	0.860507
5115	0	0.0181818
5116	0	0.0181818
5117	0	0.0181818
5118	0	0
5119	0	0
5120	0	0
5121	0	0
5122	0	0
5123	0	0
5124	0	0
5125	0	0
5126	0	0
5127	0	0
5128	0	0.0181818
5129	0	0.0181818
5130	0	0.0181818
5131	0	0.0181818
5132	0	0.0181818
5133	0	0.0181818
5134	0	0.0181818
5135	0	0.0181818
5136	0	0.0181818
5137	0	0.0181818
5138	0	0.0181818
5139	0	0.0181818
5140	0	0.0181818
5141	0	0.0181818
5142	0	0.0181818
5143	0	0.0181818
5144	0	0.0181818
5145	0	0.0181818
5146	0	0.0181818
5147	0	0.0181818
5148	0	0.0181818
5149	0	0.0181818
5150	0	0.0181818
5151	0	0.0181818
5152	0	0.0181818
5153	0	0.0181818
5154	0	0.0181818
5155	0	0.0181818
5156	0	0.0181818
5157	0	0.0181818
5158	0	0.0181818
5159	0	0.0181818
5160	0	0.0181818
5161	0	0.0181818
5162	0	0.0181818
5163	0	0.0181818
5164	0	0.0181818
5165	0	0.0181818
5166	0	0.0363636
5167	0	0.0363636
5168	0	0.0363636
5169	0	0.0363636
5170	0	0.0363636
5171	0	0.745988
5172	0	0.745988
5173	0	0.025641
5174	0	0.0181818
5175	0	0.0181818
5176	0	0.0181818
5177	0	0.0181818
5178	0	0.0181818
5179	0	0.0181818
5180	0	0.0181818
5181	0	0.0181818
5182	0	0.0181818
5183	0	0.0181818
5184	0	0.0181818
5185	0	0.0181818
5186	0	0.0181818
5187	0	0.0181818
5188	0	0.0181818
5189	0	0.0181818
5190	0	0.0181818
5191	0	0.0181818
5192	0	0.0181818
5193	0	0.0181818
5194	0	0.0181818
5195	0	0.0181818
5196	0	0.0181818
5197	0	0.0181818
5198	0	0.0181818
5199	0	0.0181818
5200	0	0.0181818
5201	0	0.0181818
5202	0	0.0181818
5203	0	0.0181818
5204	0	0.0181818
5205	0	0.0181818
5206	0	0
5207	0	0
5208	0	0
5209	0	0
5210	0	0
5211	0	0
5212	0	0
5213	0	0
5214	0	0
5215	0	0
5216	0	0
5217	0	0
5218	0	0
5219	0	0
5220	0	0
5221	0	0
5222	0	0
5223	0	0
5224	0	0
5225	0	0
5226	0	0
5227	0	0
5228	0	0
5229	0	0
5230	0	0
5231	0	0
5232	0	0
5233	0	0
5234	0	0
5235	0	0
5236	0	0
5237	0	0
5238	0	0
5239	0	0
5240	0	0
5241	0	0
5242	0	0.0151515
5243	0	0.0151515
5244	0	0.0151515
5245	0	0.427637
5246	0	0.429339
5247	0	0.0779221
5248	0	0.154622
5249	0	0.137815
5250	0	0.124625
5251	0	0.318028
5252	0	0.247096
5253	0	0.010989
5254	0	0.010989
5255	0	0.00952381
5256	0	0.00952381
5257	0	0.00735294
5258	0	0.00735294
5259	0	0.00653595
5260	0	0.0190476
5261	0	0.017316
5262	0	0.017316
5263	0	0.0158103
5264	0	0.0158103
5265	0	0.0266667
5266	0	0.0246154
5267	0	0.0246154
5268	0	0.0238095
5269	0	0.0863698
5270	0	0.304195
5271	0	0.692864
5272	0	0.650816
5273	0	0.650333
5274	0	0.205777
5275	0	0.200389
5276	0	0.204561
5277	0	0.197671
5278	0	0.241111
5279	0	0.287711
5280	0	0.145736
5281	0	0.124304
5282	0	0.0837022
5283	0	0.0409117
5284	0	0.0462745
5285	0	0.0487805
5286	0	0.0661269
5287	0	0.0585586
5288	0	0.0585586
5289	0	0.0677362
5290	0	0.00724638
5291	0	0.004329
5292	0	0.004329
5293	0	0.00952381
5294	0	0.0047619
5295	0	0.0047619
5296	0	0.00526316
5297	0	0.00584795
5298	0	0.00584795
5299	0	0.00584795
5300	0	0.00584795
5301	0	0.00653595
5302	0	0.00653595
5303	0	0.00584795
5304	0	0.00653595
5305	0	0.0130719
5306	0	0.0130719
5307	0	0.0147059
5308	0	0.0147059
5309	0	0.0147059
5310	0	0.0147059
5311	0	0.0190476
5312	0	0.010989
5313	0	0.010989
5314	0	0.010989
5315	0	0
5316	0	0
5317	0	0
5318	0	0
5319	0	0
5320	0	0
5321	0	0
5322	0	0
5323	0	0
5324	0	0
5325	0	0
5326	0	0
5327	0	0
5328	0	0
5329	0	0
5330	0	0
5331	0	0
5332	0	0
5333	0	0
5334	0	0
5335	0	0
5336	0	0
5337	0	0
5338	0	0
5339	0	0
5340	0	0
5341	0	0
5342	0	0
5343	0	0
5344	0	0
5345	0	0
5346	0	0
5347	0	0
5348	0	0
5349	0	0
5350	0	0
5351	0	0
5352	0	0
5353	0	0
5354	0	0
5355	0	0
5356	0	0
5357	0	0
5358	0	0
5359	0	0
5360	0	0
5361	0	0.0357143
5362	0	0.0357143
5363	0	0.0357143
5364	0	0.0357143
5365	0	0.0357143
5366	0	0.0357143
5367	0	0.0357143
5368	0	0.0357143
5369	0	0.0357143
5370	0	0.0357143
5371	0	0.0357143
5372	0	0.0357143
5373	0	0.0357143
5374	0	0.0357143
5375	0	0.0357143
5376	0	0.0357143
5377	0	0.0357143
5378	0	0.0357143
5379	0	0.0357143
5380	0	0.0357143
5381	0	0.0357143
5382	0	0.0357143
5383	0	0.0357143
5384	0	0.0357143
5385	0	0.0357143
5386	0	0.0357143
5387	0	0.0357143
5388	0	0.0357143
5389	0	0.0357143
5390	0	0.047619
5391	0	0.047619
5392	0	0.047619
5393	0	0.047619
5394	0	0.047619
5395	0	0.047619
5396	0	0.047619
5397	0	0.047619
5398	0	0.047619
5399	0	0.047619
5400	0	0.0666667
5401	0	0.0666667
5402	0	0.0666667
5403	0	0.0666667
5404	0	0.0666667
5405	0	0.0666667
5406	0	0.0666667
5407	0	0.0666667
5408	0	0.0666667
5409	0	0.0666667
5410	0	0.0666667
5411	0	0.0666667
5412	0	0.0666667
5413	0	0.0666667
5414	0	0.0666667
5415	0	0.0666667
5416	0	0.0666667
5417	0	0.0666667
5418	0	0.0666667
5419	0	0.0666667
5420	0	0.0666667
5421	0	0.0666667
5422	0	0.0666667
5423	0	0.0666667
5424	0	0.0666667
5425	0	0.0666667
5426	0	0.0666667
5427	0	0.0666667
5428	0	0.0666667
5429	0	0.0666667
5430	0	0.0666667
5431	0	0.0666667
5432	0	0.0666667
5433	0	0.0666667
5434	0	0.0666667
5435	0	0.0666667
5436	0	0.0666667
5437	0	0.0666667
5438	0	0.0666667
5439	0	0.0666667
5440	0	0.0666667
5441	0	0.0666667
5442	0	0.0666667
5443	0	0.0666667
5444	0	0.0666667
5445	0	0.0666667
5446	0	0.0666667
5447	0	0.0666667
5448	0	0.0666667
5449	0	0.0666667
5450	0	0.0666667
5451	0	0.0666667
5452	0	0.0666667
5453	0	0.0666667
5454	0	0.0666667
5455	0	0.0666667
5456	0	0.0666667
5457	0	0.0666667
5458	0	0.0666667
5459	0	0.0666667
5460	0	0.0666667
5461	0	0.0666667
5462	0	0.0666667
5463	0	0.0666667
5464	0	0.0666667
5465	0	0.0666667
5466	0	0.0666667
5467	0	0.0666667
5468	0	0.0666667
5469	0	0.0666667
5470	0	0.0666667
5471	0	0.0666667
5472	0	0.0666667
5473	0	0.0666667
5474	0	0.0666667
5475	0	0.0666667
5476	0	0.0666667
5477	0	0.1
5478	0	0.1
5479	0	0.1
5480	0	0.1
5481	0	0.1
5482	0	0.1
5483	0	0.1
5484	0	0.1
5485	0	0.1
5486	0	0.1
5487	0	0.1
5488	0	0.1
5489	0	0.1
5490	0	0.1
5491	0	0.1
5492	0	0.1
5493	0	0.1
5494	0	0.1
5495	0	0.1
5496	0	0.1
5497	0	0.1
5498	0	0.1
5499	0	0.1
5500	0	0.1
5501	0	0.1
5502	0	0.1
5503	0	0.1
5504	0	0.1
5505	0	0.1
5506	0	0.1
5507	0	0.1
5508	0	0.1
5509	0	0.1
5510	0	0.1
5511	0	0.1
5512	0	0.1
5513	0	0.1
5514	0	0.1
5515	0	0.1
5516	0	0.1
5517	0	0.1
5518	0	0.1
5519	0	0.1
5520	0	0.1
5521	0	0.1
5522	0	0.1
5523	0	0.1
5524	0	0.1
5525	0	0.1
5526	0	0.1
5527	0	0.1
5528	0	0.1
5529	0	0.1
5530	0	0.1
5531	0	0.1
5532	0	0
5533	0	0
5534	0	0
5535	0	0
5536	0	0
5537	0	0
5538	0	0
5539	0	0
5540	0	0
5541	0	0
5542	0	0
5543	0	0
5544	0	0
5545	0	0
5546	0	0
5547	0	0
5548	0	0
5549	0	0
5550	0	0
5551	0	0
5552	0	0
5553	0	0.1
5554	0	0.1
5555	0	0.1
5556	0	0.1
5557	0	0.1
5558	0	0.1
5559	0	0.1
5560	0	0.1
5561	0	0.1
5562	0	0.1
5563	0	0.1
5564	0	0.1
5565	0	0.1
5566	0	0.1
5567	0	0.1
5568	0	0.1
5569	0	0.1
5570	0	0.1
5571	0	0.1
5572	0	0.1
5573	0	0.1
5574	0	0.1
5575	0	0.1
5576	0	0.166667
5577	0	0.166667
5578	0	0.333333
5579	0	0.333333
5580	0	0.333333
5581	0	0.333333
5582	0	0.333333
5583	0	0.333333
5584	0	0.333333
5585	0	0.333333
5586	0	0.333333
5587	0	0.333333
5588	0	0.333333
5589	0	0.333333
5590	0	0.333333
5591	0	0.333333
5592	0	0.333333
5593	0	0.333333
5594	0	0.333333
5595	0	0.333333
5596	0	0.333333
5597	0	0.333333
5598	0	0.333333
5599	0	0.333333
5600	0	0.333333
5601	0	0.333333
5602	0	0.333333
5603	0	0.333333
5604	0	0.333333
5605	0	0.333333
5606	0	0.333333
5607	0	0.333333
5608	0	0.333333
5609	0	0.333333
5610	0	0.333333
5611	0	0.333333
5612	0	0.333333
5613	0	0.333333
5614	0	0.333333
5615	0	0.333333
5616	0	0.333333
5617	0	0
5618	0	0
5619	0	0
5620	0	0
5621	0	0
5622	0	0
5623	0	0
5624	0	0
5625	0	0
5626	0	0.333333
5627	0	0.333333
5628	0	0.333333
5629	0	0
5630	0	0
5631	0	0
5632	0	0
5633	0	0
5634	0	0
5635	1	0
5636	1	0
5637	1	0
5638	1	0
5639	1	0
5640	1	0
5641	1	0
5642	1	0
5643	1	0
5644	0	0
5645	0	0
5646	0	0
5647	0	0
5648	0	0
5649	0	0
5650	0	0
5651	0	0
5652	0	0
5653	0	0
5654	0	0
5655	0	0
5656	0	0
5657	0	0
5658	0	0
5659	0	0
5660	0	0
5661	0	0
5662	0	0
5663	0	0
5664	0	0
5665	0	0
5666	0	0
5667	0	0
5668	0	0
5669	0	0
5670	0	0
5671	0	0
5672	0	0
5673	0	0
5674	0	0
5675	0	0
5676	0	0
5677	0	0
5678	0	0
5679	0	0
5680	0	0
5681	0	0
5682	0	0
5683	0	0
5684	0	0
5685	0	0
5686	0	0
5687	0	0
5688	0	0
5689	0	0
5690	0	0
5691	0	0
5692	0	0
5693	0	0
5694	0	0
5695	0	0
5696	0	0
5697	0	0
5698	0	0
5699	0	0
5700	0	0
5701	0	0
5702	0	0
5703	0	0
5704	0	0
5705	0	0
5706	0	0
5707	0	0
5708	0	0
5709	0	0
5710	0	0
5711	0	0
5712	0	0
5713	1	0
5714	1	0
5715	1	0
5716	1	0
5717	1	0
5718	1	0
5719	1	0
5720	1	0
5721	1	0
5722	1	0
5723	1	0
5724	1	0
5725	1	0
5726	1	0
5727	1	0
5728	1	0
5729	1	0
5730	1	0
5731	1	0
5732	1	0
5733	1	0
5734	1	0
5735	1	0
5736	1	0
5737	1	0
5738	1	0
5739	1	0
5740	1	0
5741	1	0
5742	1	0
5743	1	0
5744	1	0
5745	1	0
5746	1	0
5747	0	0
5748	0	0
5749	0	0
5750	0	0
5751	0	0
5752	0	0
5753	0	0
5754	0	0
5755	0	0
5756	0	0
5757	0	0
5758	0	0
5759	0	0
5760	0	0
5761	0	0
5762	0	0
5763	0	0
5764	0	0
5765	0	0
5766	0	0
5767	0	0
5768	0	0
5769	0	0
5770	0	0
5771	0	0
5772	0	0
5773	0	0
5774	0	0
5775	0	0
5776	0	0
5777	0	0
5778	0	0
5779	0	0
5780	0	0
5781	0	0
5782	0	0
5783	0	0
5784	0	0
5785	0	0
5786	0	0
5787	0	0
5788	0	0
5789	0	0
5790	0	0
5791	0	0
5792	0	0
5793	0	0
5794	0	0
5795	0	0
5796	0	0
5797	0	0
5798	0	0
5799	0	0
5800	0	0
5801	0	0
5802	0	0
5803	0	0
5804	0	0
5805	0	0
5806	0	0
5807	0	0
5808	0	0
5809	0	0
5810	0	0
5811	0	0
5812	0	0
5813	0	0
5814	0	0
5815	0	0
5816	0	0
5817	0	0
5818	0	0
5819	0	0
5820	0	0
5821	0	0
5822	0	0
5823	0	0
