Site	ColumnScore	SumOfPairsScore
1	0	0
2	0	0
3	0	0
4	0	0
5	0	0
6	0	0
7	0	0
8	0	0
9	0	0
10	0	0
11	0	0
12	0	0
13	0	0
14	0	0
15	0	0
16	0	0
17	0	0
18	0	0
19	0	0
20	0	0
21	0	0
22	0	0
23	0	0
24	0	0
25	0	0
26	0	0
27	0	0
28	1	0
29	1	0
30	1	0
31	1	0
32	1	0
33	0	0
34	0	0
35	0	0
36	0	0
37	0	0
38	0	0
39	0	0
40	0	0
41	0	0
42	0	0
43	0	0
44	0	0
45	0	0
46	0	0
47	0	0
48	0	0
49	0	0
50	0	0
51	0	0
52	0	0
53	0	0
54	0	0
55	0	0
56	0	0
57	0	0
58	0	0
59	0	0
60	0	0
61	0	0
62	0	0
63	0	0
64	0	0
65	0	0
66	0	0
67	0	0
68	0	0
69	0	0
70	0	0
71	0	0
72	0	0
73	0	0
74	0	0.0833333
75	0	0.0833333
76	0	0.0833333
77	0	0.0833333
78	0	0.0833333
79	0	0.0833333
80	0	0.0833333
81	0	0.0833333
82	0	0.0833333
83	0	0.0833333
84	0	0.0833333
85	0	0.0833333
86	0	0.0833333
87	0	0.0666667
88	0	0.0666667
89	0	0.0666667
90	0	0.0666667
91	0	0.0545455
92	0	0.0545455
93	0	0.0545455
94	0	0.0545455
95	0	0.0545455
96	0	0.0545455
97	0	0.0545455
98	0	0.0545455
99	0	0.0545455
100	0	0.0545455
101	0	0.0545455
102	0	0.0545455
103	0	0.0545455
104	0	0.0545455
105	0	0.0545455
106	0	0.0545455
107	0	0.0545455
108	0	0.0545455
109	0	0.0545455
110	0	0.0181818
111	0	0.0808824
112	0	0.0808824
113	0	0.0808824
114	0	0.0808824
115	0	0.0808824
116	0	0.0808824
117	0	0.0808824
118	0	0.0808824
119	0	0.0808824
120	0	0.0808824
121	0	0.0808824
122	0	0.0808824
123	0	0.0808824
124	0	0.0808824
125	0	0.0808824
126	0	0.0808824
127	0	0.0718954
128	0	0.0718954
129	0	0.0718954
130	0	0.0718954
131	0	0.0718954
132	0	0.0718954
133	0	0.0718954
134	0	0.0718954
135	0	0.0718954
136	0	0.0718954
137	0	0.0718954
138	0	0.0718954
139	0	0.0718954
140	0	0.0718954
141	0	0.0718954
142	0	0.0718954
143	0	0.0718954
144	0	0.0718954
145	0	0.0718954
146	0	0.0718954
147	0	0.104575
148	0	0.104575
149	0	0.104575
150	0	0.104575
151	0	0.104575
152	0	0.104575
153	0	0.104575
154	0	0.104575
155	0	0.104575
156	0	0.104575
157	0	0.104575
158	0	0.104575
159	0	0.104575
160	0	0.104575
161	0	0.104575
162	0	0.104575
163	0	0.104575
164	0	0.104575
165	0	0.104575
166	0	0.0935673
167	0	0.0935673
168	0	0.0935673
169	0	0.0935673
170	0	0.0935673
171	0	0.0935673
172	0	0.0935673
173	0	0.0935673
174	0	0.0935673
175	0	0.0935673
176	0	0.0935673
177	0	0.0935673
178	0	0.0935673
179	0	0.0935673
180	0	0.0935673
181	0	0.0842105
182	0	0.0842105
183	0	0.0578947
184	0	0.0578947
185	0	0.0578947
186	0	0.0578947
187	0	0.0578947
188	0	0.0578947
189	0	0.0578947
190	0	0.0578947
191	0	0.0578947
192	0	0.0578947
193	0	0.0578947
194	0	0.0578947
195	0	0.0578947
196	0	0.0578947
197	0	0.0578947
198	0	0.0578947
199	0	0.0578947
200	0	0.0578947
201	0	0.0578947
202	0	0.0578947
203	0	0.0578947
204	0	0.0578947
205	0	0.0578947
206	0	0.0578947
207	0	0.0578947
208	0	0.0578947
209	0	0.0578947
210	0	0.0578947
211	0	0.052381
212	0	0.052381
213	0	0.052381
214	0	0.052381
215	0	0.052381
216	0	0.052381
217	0	0.047619
218	0	0.047619
219	0	0.047619
220	0	0.047619
221	0	0.047619
222	0	0.0434783
223	0	0.0434783
224	0	0.0896552
225	0	0.0896552
226	0	0.0896552
227	0	0.0896552
228	0	0.0896552
229	0	0.0896552
230	0	0.0896552
231	0	0.0896552
232	0	0.0896552
233	0	0.0896552
234	0	0.0896552
235	0	0.0896552
236	0	0.0896552
237	0	0.0896552
238	0	0.0896552
239	0	0.0896552
240	0	0.0896552
241	0	0.0896552
242	0	0.078629
243	0	0.078629
244	0	0.078629
245	0	0.078629
246	0	0.078629
247	0	0.078629
248	0	0.0695187
249	0	0.0695187
250	0	0.0695187
251	0	0.0695187
252	0	0.0695187
253	0	0.0695187
254	0	0.0695187
255	0	0.0695187
256	0	0.0695187
257	0	0.0695187
258	0	0.0695187
259	0	0.0695187
260	0	0.0695187
261	0	0.0695187
262	0	0.0695187
263	0	0.0695187
264	0	0.0695187
265	0	0.0655462
266	0	0.0655462
267	0	0.0655462
268	0	0.0655462
269	0	0.0655462
270	0	0.0655462
271	0	0.0655462
272	0	0.0655462
273	0	0.0655462
274	0	0.0655462
275	0	0.0655462
276	0	0.0655462
277	0	0.0655462
278	0	0.0655462
279	0	0.0655462
280	0	0.0655462
281	0	0.0655462
282	0	0.0655462
283	0	0.0655462
284	0	0.0655462
285	0	0.0655462
286	0	0.0655462
287	0	0.0655462
288	0	0.0619048
289	0	0.0619048
290	0	0.0619048
291	0	0.0507937
292	0	0.0507937
293	0	0.0507937
294	0	0.0507937
295	0	0.0507937
296	0	0.0507937
297	0	0.0507937
298	0	0.0507937
299	0	0.0507937
300	0	0.048048
301	0	0.048048
302	0	0.0455192
303	0	0.0431849
304	0	0.0431849
305	0	0.0410256
306	0	0.0410256
307	0	0.0236559
308	0	0.0258065
309	0	0.0258065
310	0	0.0258065
311	0	0.0258065
312	0	0.0258065
313	0	0.0258065
314	0	0.0258065
315	0	0.0236559
316	0	0.0236559
317	0	0.0236559
318	0	0.0258065
319	0	0.0258065
320	0	0.0258065
321	0	0.0258065
322	0	0.0258065
323	0	0.0258065
324	0	0.0258065
325	0	0.0258065
326	0	0.0258065
327	0	0.0258065
328	0	0.0258065
329	0	0.0258065
330	0	0.0258065
331	0	0.027957
332	0	0.027957
333	0	0.0262097
334	0	0.0262097
335	0	0.0262097
336	0	0.0376523
337	0	0.0376523
338	0	0.0376523
339	0	0.0376523
340	0	0.0376523
341	0	0.0376523
342	0	0.0376523
343	0	0.0376523
344	0	0.0376523
345	0	0.0376523
346	0	0.0376523
347	0	0.0376523
348	0	0.0376523
349	0	0.0376523
350	0	0.0376523
351	0	0.0246212
352	0	0.0246212
353	0	0.0246212
354	0	0.0246212
355	0	0.0246212
356	0	0.0246212
357	0	0.0246212
358	0	0.0246212
359	0	0.0246212
360	0	0.0246212
361	0	0.0246212
362	0	0.0246212
363	0	0.0246212
364	0	0.0246212
365	0	0.0265152
366	0	0.0265152
367	0	0.0265152
368	0	0.0265152
369	0	0.0265152
370	0	0.0265152
371	0	0.0265152
372	0	0.0265152
373	0	0.0265152
374	0	0.0265152
375	0	0.0252101
376	0	0.0252101
377	0	0.0238095
378	0	0.0238095
379	0	0.0225225
380	0	0.0250627
381	0	0.0241984
382	0	0.0229885
383	0	0.0229885
384	0	0.0223835
385	0	0.0223835
386	0	0.0223835
387	0	0.0223835
388	0	0.0223835
389	0	0.0223835
390	0	0.0223835
391	0	0.0223835
392	0	0.0223835
393	0	0.0223835
394	0	0.0229885
395	0	0.0223835
396	0	0.0229885
397	0	0.0229885
398	0	0.0223835
399	0	0.0216248
400	0	0.0216248
401	0	0.023183
402	0	0.0238095
403	0	0.0249158
404	0	0.0249158
405	0	0.038055
406	0	0.0387597
407	0	0.0387597
408	0	0.0406504
409	0	0.0406504
410	0	0.0406504
411	0	0.0406504
412	0	0.0406504
413	0	0.0249554
414	0	0.0338681
415	0	0.0338681
416	0	0.0464576
417	0	0.0464576
418	0	0.0487805
419	0	0.0487805
420	0	0.105263
421	0	0.105263
422	0	0.105263
423	0	0.105263
424	0	0.105263
425	0	0.105263
426	0	0.105263
427	0	0.105263
428	0	0.105263
429	0	0.105263
430	0	0.105263
431	0	0.105263
432	0	0.105263
433	0	0.105263
434	0	0.105263
435	0	0.105263
436	0	0.0947368
437	0	0.0947368
438	0	0.0947368
439	0	0.0947368
440	0	0.0947368
441	0	0.0947368
442	0	0.0947368
443	0	0.0947368
444	0	0.0947368
445	0	0.0947368
446	0	0.0947368
447	0	0.0947368
448	0	0.0947368
449	0	0.0947368
450	0	0.0947368
451	0	0.0947368
452	0	0.0947368
453	0	0.0947368
454	0	0.0947368
455	0	0.0947368
456	0	0.0947368
457	0	0.0947368
458	0	0.0947368
459	0	0.0947368
460	0	0.0947368
461	0	0.0947368
462	0	0.0947368
463	0	0.0947368
464	0	0.0947368
465	0	0.0947368
466	0	0.0947368
467	0	0.0947368
468	0	0.0947368
469	0	0.0947368
470	0	0.0947368
471	0	0.0947368
472	0	0.0947368
473	0	0.0947368
474	0	0.0947368
475	0	0.0947368
476	0	0.0947368
477	0	0.0947368
478	0	0.0947368
479	0	0.0947368
480	0	0.0947368
481	0	0.0947368
482	0	0.0947368
483	0	0.0947368
484	0	0.0947368
485	0	0.0947368
486	0	0.0947368
487	0	0.0947368
488	0	0.0947368
489	0	0.0947368
490	0	0.0947368
491	0	0.0947368
492	0	0.0947368
493	0	0.0947368
494	0	0.0947368
495	0	0.0947368
496	0	0.0947368
497	0	0.0947368
498	0	0.0947368
499	0	0.0947368
500	0	0.0947368
501	0	0.0947368
502	0	0.105263
503	0	0.105263
504	0	0.105263
505	0	0.105263
506	0	0.105263
507	0	0.105263
508	0	0.105263
509	0	0.105263
510	0	0.105263
511	0	0.105263
512	0	0.105263
513	0	0.105263
514	0	0.105263
515	0	0.105263
516	0	0.105263
517	0	0.105263
518	0	0.105263
519	0	0.105263
520	0	0.105263
521	0	0.105263
522	0	0.105263
523	0	0.105263
524	0	0.105263
525	0	0.105263
526	0	0.105263
527	0	0.105263
528	0	0.105263
529	0	0.105263
530	0	0.105263
531	0	0.105263
532	0	0.105263
533	0	0.105263
534	0	0.105263
535	0	0.105263
536	0	0.105263
537	0	0.105263
538	0	0.105263
539	0	0.105263
540	0	0.105263
541	0	0.105263
542	0	0.105263
543	0	0.105263
544	0	0.105263
545	0	0.105263
546	0	0.105263
547	0	0.105263
548	0	0.105263
549	0	0.105263
550	0	0.105263
551	0	0.105263
552	0	0.105263
553	0	0.105263
554	0	0.105263
555	0	0.105263
556	0	0.105263
557	0	0.105263
558	0	0.105263
559	0	0.105263
560	0	0.105263
561	0	0.105263
562	0	0.105263
563	0	0.105263
564	0	0.105263
565	0	0.105263
566	0	0.105263
567	0	0.105263
568	0	0.105263
569	0	0.105263
570	0	0.105263
571	0	0.105263
572	0	0.105263
573	0	0.105263
574	0	0.105263
575	0	0.105263
576	0	0.105263
577	0	0.105263
578	0	0.105263
579	0	0.105263
580	0	0.105263
581	0	0.105263
582	0	0.105263
583	0	0.105263
584	0	0.105263
585	0	0.105263
586	0	0.105263
587	0	0.105263
588	0	0.105263
589	0	0.105263
590	0	0.105263
591	0	0.105263
592	0	0.105263
593	0	0.105263
594	0	0.105263
595	0	0.105263
596	0	0.105263
597	0	0.105263
598	0	0.105263
599	0	0.105263
600	0	0.105263
601	0	0.105263
602	0	0.105263
603	0	0.105263
604	0	0.105263
605	0	0.105263
606	0	0.105263
607	0	0.105263
608	0	0.0952381
609	0	0.0952381
610	0	0.0952381
611	0	0.0952381
612	0	0.0952381
613	0	0.0952381
614	0	0.0952381
615	0	0.0952381
616	0	0.105263
617	0	0.105263
618	0	0.105263
619	0	0.105263
620	0	0.105263
621	0	0.105263
622	0	0.105263
623	0	0.105263
624	0	0.105263
625	0	0.105263
626	0	0.105263
627	0	0.105263
628	0	0.105263
629	0	0.105263
630	0	0.105263
631	0	0.105263
632	0	0.105263
633	0	0.105263
634	0	0.105263
635	0	0.105263
636	0	0.105263
637	0	0.105263
638	0	0.105263
639	0	0.105263
640	0	0.105263
641	0	0.105263
642	0	0.105263
643	0	0.105263
644	0	0.105263
645	0	0.105263
646	0	0.105263
647	0	0.105263
648	0	0.105263
649	0	0.105263
650	0	0.105263
651	0	0.105263
652	0	0.105263
653	0	0.105263
654	0	0.105263
655	0	0.105263
656	0	0.105263
657	0	0.105263
658	0	0.105263
659	0	0.105263
660	0	0.105263
661	0	0.105263
662	0	0.105263
663	0	0.105263
664	0	0.105263
665	0	0.105263
666	0	0.105263
667	0	0.105263
668	0	0.105263
669	0	0.105263
670	0	0.105263
671	0	0.105263
672	0	0.105263
673	0	0.0952381
674	0	0.0952381
675	0	0.0952381
676	0	0.0952381
677	0	0.0952381
678	0	0.0952381
679	0	0.0952381
680	0	0.0952381
681	0	0.0952381
682	0	0.0952381
683	0	0.0952381
684	0	0.0952381
685	0	0.0952381
686	0	0.0952381
687	0	0.0952381
688	0	0.0952381
689	0	0.0952381
690	0	0.0952381
691	0	0.0952381
692	0	0.0952381
693	0	0.0952381
694	0	0.0952381
695	0	0.0952381
696	0	0.12381
697	0	0.12381
698	0	0.12381
699	0	0.12381
700	0	0.12381
701	0	0.12381
702	0	0.12381
703	0	0.12381
704	0	0.12381
705	0	0.12381
706	0	0.12381
707	0	0.12381
708	0	0.0952381
709	0	0.0952381
710	0	0.0952381
711	0	0.0952381
712	0	0.0952381
713	0	0.0952381
714	0	0.0952381
715	0	0.0952381
716	0	0.0952381
717	0	0.0952381
718	0	0.0952381
719	0	0.0952381
720	0	0.0952381
721	0	0.0952381
722	0	0.0952381
723	0	0.0952381
724	0	0.0952381
725	0	0.0952381
726	0	0.0952381
727	0	0.0952381
728	0	0.0952381
729	0	0.0952381
730	0	0.0952381
731	0	0.0865801
732	0	0.0865801
733	0	0.0865801
734	0	0.0865801
735	0	0.0865801
736	0	0.0865801
737	0	0.0865801
738	0	0.0865801
739	0	0.0865801
740	0	0.0865801
741	0	0.0865801
742	0	0.0865801
743	0	0.0790514
744	0	0.0790514
745	0	0.0790514
746	0	0.0790514
747	0	0.0790514
748	0	0.0790514
749	0	0.0790514
750	0	0.0790514
751	0	0.0724638
752	0	0.0724638
753	0	0.0776515
754	0	0.0776515
755	0	0.0776515
756	0	0.0730838
757	0	0.0730838
758	0	0.0730838
759	0	0.0730838
760	0	0.0730838
761	0	0.0730838
762	0	0.0730838
763	0	0.0730838
764	0	0.0730838
765	0	0.0730838
766	0	0.0730838
767	0	0.0730838
768	0	0.0689076
769	0	0.0689076
770	0	0.0689076
771	0	0.0689076
772	0	0.0689076
773	0	0.0689076
774	0	0.0689076
775	0	0.0689076
776	0	0.0689076
777	0	0.0650794
778	0	0.0650794
779	0	0.0650794
780	0	0.0650794
781	0	0.0761905
782	0	0.0761905
783	0	0.0761905
784	0	0.0761905
785	0	0.0761905
786	0	0.0761905
787	0	0.0761905
788	0	0.0761905
789	0	0.0761905
790	0	0.0761905
791	0	0.0761905
792	0	0.0761905
793	0	0.0761905
794	0	0.0761905
795	0	0.0761905
796	0	0.0761905
797	0	0.0761905
798	0	0.0761905
799	0	0.0761905
800	0	0.0806723
801	0	0.0806723
802	0	0.0806723
803	0	0.0806723
804	0	0.0761905
805	0	0.0761905
806	0	0.0761905
807	0	0.0761905
808	0	0.0761905
809	0	0.0761905
810	0	0.0761905
811	0	0.0761905
812	0	0.0761905
813	0	0.0761905
814	0	0.0761905
815	0	0.0761905
816	0	0.0761905
817	0	0.0761905
818	0	0.0761905
819	0	0.0761905
820	0	0.0761905
821	0	0.0761905
822	0	0.0761905
823	0	0.0761905
824	0	0.0761905
825	0	0.0761905
826	0	0.0761905
827	0	0.0761905
828	0	0.0720721
829	0	0.0720721
830	0	0.0720721
831	0	0.0720721
832	0	0.0720721
833	0	0.0720721
834	0	0.0720721
835	0	0.0720721
836	0	0.0720721
837	0	0.0720721
838	0	0.0720721
839	0	0.0720721
840	0	0.0720721
841	0	0.0720721
842	0	0.0720721
843	0	0.0720721
844	0	0.0720721
845	0	0.0720721
846	0	0.0720721
847	0	0.0720721
848	0	0.0720721
849	0	0.0720721
850	0	0.0735736
851	0	0.0735736
852	0	0.0735736
853	0	0.0735736
854	0	0.0735736
855	0	0.0735736
856	0	0.0735736
857	0	0.0735736
858	0	0.0735736
859	0	0.0735736
860	0	0.0735736
861	0	0.0855856
862	0	0.0735736
863	0	0.0735736
864	0	0.0735736
865	0	0.0735736
866	0	0.0735736
867	0	0.0735736
868	0	0.0735736
869	0	0.0674764
870	0	0.0674764
871	0	0.0674764
872	0	0.0674764
873	0	0.0674764
874	0	0.0674764
875	0	0.0674764
876	0	0.0674764
877	0	0.0674764
878	0	0.0674764
879	0	0.0611664
880	0	0.0611664
881	0	0.0611664
882	0	0.0611664
883	0	0.0674764
884	0	0.0674764
885	0	0.0674764
886	0	0.0674764
887	0	0.0674764
888	0	0.0661269
889	0	0.0661269
890	0	0.0661269
891	0	0.0674764
892	0	0.0674764
893	0	0.0674764
894	0	0.0674764
895	0	0.0674764
896	0	0.0674764
897	0	0.0661269
898	0	0.0661269
899	0	0.0661269
900	0	0.0661269
901	0	0.0661269
902	0	0.0661269
903	0	0.0661269
904	0	0.0661269
905	0	0.0661269
906	0	0.0661269
907	0	0.0661269
908	0	0.0661269
909	0	0.0661269
910	0	0.0634278
911	0	0.0634278
912	0	0.0634278
913	0	0.0634278
914	0	0.0634278
915	0	0.0634278
916	0	0.0634278
917	0	0.0634278
918	0	0.0634278
919	0	0.0634278
920	0	0.0634278
921	0	0.0634278
922	0	0.0383065
923	0	0.0383065
924	0	0.0634278
925	0	0.0634278
926	0	0.0634278
927	0	0.0634278
928	0	0.0634278
929	0	0.0634278
930	0	0.0634278
931	0	0.0634278
932	0	0.0634278
933	0	0.0634278
934	0	0.0634278
935	0	0.0634278
936	0	0.0634278
937	0	0.0634278
938	0	0.0634278
939	0	0.0383065
940	0	0.0539811
941	0	0.0634278
942	0	0.0634278
943	0	0.0634278
944	0	0.0634278
945	0	0.0634278
946	0	0.0602564
947	0	0.0602564
948	0	0.0573171
949	0	0.0573171
950	0	0.0573171
951	0	0.0573171
952	0	0.0573171
953	0	0.0573171
954	0	0.0573171
955	0	0.0573171
956	0	0.0573171
957	0	0.0573171
958	0	0.0573171
959	0	0.0573171
960	0	0.0573171
961	0	0.0573171
962	0	0.0573171
963	0	0.0573171
964	0	0.0573171
965	0	0.0573171
966	0	0.0573171
967	0	0.0573171
968	0	0.0573171
969	0	0.0573171
970	0	0.0573171
971	0	0.0573171
972	0	0.0573171
973	0	0.0573171
974	0	0.0573171
975	0	0.0573171
976	0	0.0573171
977	0	0.0573171
978	0	0.0573171
979	0	0.0573171
980	0	0.0573171
981	0	0.0573171
982	0	0.0560976
983	0	0.0560976
984	0	0.0560976
985	0	0.0573171
986	0	0.0573171
987	0	0.0560976
988	0	0.0560976
989	0	0.0560976
990	0	0.0560976
991	0	0.0560976
992	0	0.0560976
993	0	0.0560976
994	0	0.0560976
995	0	0.0560976
996	0	0.0560976
997	0	0.0560976
998	0	0.0560976
999	0	0.0560976
1000	0	0.0560976
1001	0	0.0560976
1002	0	0.0560976
1003	0	0.0560976
1004	0	0.0585366
1005	0	0.0573171
1006	0	0.0573171
1007	0	0.054878
1008	0	0.0560976
1009	0	0.0560976
1010	0	0.0560976
1011	0	0.0560976
1012	0	0.054878
1013	0	0.054878
1014	0	0.0725689
1015	0	0.0725689
1016	0	0.0725689
1017	0	0.0698812
1018	0	0.0698812
1019	0	0.0698812
1020	0	0.0698812
1021	0	0.0698812
1022	0	0.0698812
1023	0	0.0698812
1024	0	0.0698812
1025	0	0.0698812
1026	0	0.0698812
1027	0	0.0698812
1028	0	0.0673401
1029	0	0.0673401
1030	0	0.0680135
1031	0	0.0680135
1032	0	0.0680135
1033	0	0.0686869
1034	0	0.0714286
1035	0	0.0714286
1036	0	0.0714286
1037	0	0.0714286
1038	0	0.0663871
1039	0	0.0663871
1040	0	0.0645864
1041	0	0.0580014
1042	0	0.0604082
1043	0	0.0580392
1044	0	0.0580392
1045	0	0.053701
1046	0	0.053701
1047	0	0.0498316
1048	0	0.0487013
1049	0	0.0498316
1050	0	0.0498316
1051	0	0.0498316
1052	0	0.0480519
1053	0	0.0480519
1054	0	0.0480519
1055	0	0.0429379
1056	0	0.0446328
1057	0	0.0404506
1058	0	0.0391865
1059	0	0.0357304
1060	0	0.0356025
1061	0	0.0336912
1062	0	0.030303
1063	0	0.0229885
1064	0	0.0199742
1065	0	0.0192206
1066	0	0.0169228
1067	0	0.0146407
1068	0	0.0135019
1069	0	0.0123
1070	0	0.0180334
1071	0	0.0156206
1072	0	0.0220386
1073	0	0.017666
1074	0	0.014962
1075	0	0.0141622
1076	0	0.013751
1077	0	0.0135336
1078	0	0.038659
1079	0	0.0357275
1080	0	0.0340763
1081	0	0.0318862
1082	0	0.0316041
1083	0	0.0303106
1084	0	0.0291272
1085	0	0.0289107
1086	0	0.0286172
1087	0	0.0278186
1088	0	0.0289006
1089	0	0.0289549
1090	0	0.0284706
1091	0	0.0311819
1092	0	0.0307808
1093	0	0.0287787
1094	0	0.0295993
1095	0	0.0298877
1096	0	0.0304924
1097	0	0.0299282
1098	0	0.0730838
1099	0	0.0730838
1100	0	0.0730838
1101	0	0.0730838
1102	0	0.0730838
1103	0	0.0730838
1104	0	0.0730838
1105	0	0.0730838
1106	0	0.0730838
1107	0	0.0713012
1108	0	0.0713012
1109	0	0.0713012
1110	0	0.0713012
1111	0	0.0713012
1112	0	0.0713012
1113	0	0.0713012
1114	0	0.0713012
1115	0	0.0713012
1116	0	0.0634921
1117	0	0.0634921
1118	0	0.0634921
1119	0	0.0634921
1120	0	0.0666667
1121	0	0.0630631
1122	0	0.0630631
1123	0	0.0630631
1124	0	0.0539811
1125	0	0.0539811
1126	0	0.0465116
1127	0	0.0408163
1128	0	0.0356902
1129	0	0.0321449
1130	0	0.0107962
1131	0	0.00988758
1132	0	0.00961659
1133	0	0.011481
1134	0	0.0113188
1135	0	0.0112925
1136	0	0.0108762
1137	0	0.0106612
1138	0	0.0113546
1139	0	0.0294886
1140	0	0.0300387
1141	0	0.030884
1142	0	0.0312381
1143	0	0.0327794
1144	0	0.0330639
1145	0	0.0346686
1146	0	0.0221987
1147	0	0.0243902
1148	0	0.0269906
1149	0	0.0235294
1150	0	0.0265152
1151	0	0.0301075
1152	0	0.0343915
1153	0	0.0343915
1154	0	0.031339
1155	0	0.031339
1156	0	0.031339
1157	0	0.031339
1158	0	0.0338462
1159	0	0.0366667
1160	0	0.04
1161	0	0.04
1162	0	0.04
1163	0	0.04
1164	0	0.04
1165	0	0.04
1166	0	0.04
1167	0	0.04
1168	0	0.04
1169	0	0.04
1170	0	0.04
1171	0	0.04
1172	0	0.0434783
1173	0	0.0434783
1174	0	0.0434783
1175	0	0.0434783
1176	0	0.0362319
1177	0	0.0398551
1178	0	0.0398551
1179	0	0.0326087
1180	0	0.0326087
1181	0	0.0326087
1182	0	0.0326087
1183	0	0.0289855
1184	0	0.0289855
1185	0	0.0289855
1186	0	0.0266667
1187	0	0.0381575
1188	0	0.0388178
1189	0	0.0389191
1190	0	0.0407775
1191	0	0.0411347
1192	0	0.0414796
1193	0	0.024547
1194	0	0.0254083
1195	0	0.0260133
1196	0	0.0266183
1197	0	0.0241984
1198	0	0.0290381
1199	0	0.0296431
1200	0	0.030853
1201	0	0.030853
1202	0	0.0190657
1203	0	0.0195032
1204	0	0.0227571
1205	0	0.0226203
1206	0	0.0238525
1207	0	0.0313043
1208	0	0.0323606
1209	0	0.0321118
1210	0	0.0300942
1211	0	0.061372
1212	0	0.0629262
1213	0	0.0641993
1214	0	0.0350085
1215	0	0.0320583
1216	0	0.0348224
1217	0	0.0385976
1218	0	0.0401077
1219	0	0.0433951
1220	0	0.0485356
1221	0	0.0258353
1222	0	0.0230885
1223	0	0.0327432
1224	0	0.0183592
1225	0	0.0153644
1226	0	0.0174091
1227	0	0.0194572
1228	0	0.020765
1229	0	0.023183
1230	0	0.0253247
1231	0	0.0275762
1232	0	0.0275762
1233	0	0.0275762
1234	0	0.0275762
1235	0	0.0268505
1236	0	0.0271493
1237	0	0.0282353
1238	0	0.0293878
1239	0	0.0306122
1240	0	0.0310284
1241	0	0.0342276
1242	0	0.0314524
1243	0	0.0314524
1244	0	0.0338164
1245	0	0.0338164
1246	0	0.0359408
1247	0	0.0359408
1248	0	0.0359408
1249	0	0.0359408
1250	0	0.0359408
1251	0	0.0359408
1252	0	0.0359408
1253	0	0.0359408
1254	0	0.0359408
1255	0	0.0343434
1256	0	0.0359408
1257	0	0.0359408
1258	0	0.0359408
1259	0	0.0359408
1260	0	0.0359408
1261	0	0.0369979
1262	0	0.0359408
1263	0	0.0359408
1264	0	0.0359408
1265	0	0.0359408
1266	0	0.0359408
1267	0	0.0359408
1268	0	0.0359408
1269	0	0.0359408
1270	0	0.0359408
1271	0	0.0338266
1272	0	0.0338266
1273	0	0.0338266
1274	0	0.0348837
1275	0	0.0328502
1276	0	0.0314524
1277	0	0.259442
1278	0	0.14482
1279	0	0.14482
1280	0	0.144928
1281	0	0.453634
1282	0	0.604084
1283	0	0.635013
1284	0	0.639531
1285	0	0.658701
1286	0	0.70955
1287	0	0.722132
1288	0	0.724689
1289	0	0.0301418
1290	0	0.0318841
1291	0	0.0310078
1292	0	0.0111111
1293	0	0.0134454
1294	0	0.0160428
1295	0	0.0189394
1296	0	0.0189394
1297	0	0.0189394
1298	0	0.0201613
1299	0	0.0215054
1300	0	0.0229885
1301	0	0.0229885
1302	0	0.0229885
1303	0	0.0246154
1304	0	0.0246154
1305	0	0.0246154
1306	0	0.0266667
1307	0	0.0289855
1308	0	0.0289855
1309	0	0.0289855
1310	0	0.0289855
1311	0	0.0289855
1312	0	0.0289855
1313	0	0.0289855
1314	0	0.0289855
1315	0	0.0289855
1316	0	0.0289855
1317	0	0.0289855
1318	0	0.0289855
1319	0	0.0289855
1320	0	0.0289855
1321	0	0.0289855
1322	0	0.0289855
1323	0	0.0289855
1324	0	0.0289855
1325	0	0.0289855
1326	0	0.0289855
1327	0	0.0289855
1328	0	0.0289855
1329	0	0.0289855
1330	0	0.0289855
1331	0	0.0289855
1332	0	0.0289855
1333	0	0.0316206
1334	0	0.0316206
1335	0	0.0316206
1336	0	0.0316206
1337	0	0.0316206
1338	0	0.0316206
1339	0	0.0316206
1340	0	0.0316206
1341	0	0.0316206
1342	0	0.0316206
1343	0	0.034632
1344	0	0.034632
1345	0	0.034632
1346	0	0.0380952
1347	0	0.0380952
1348	0	0.0380952
1349	0	0.0380952
1350	0	0.0380952
1351	0	0.0380952
1352	0	0.0380952
1353	0	0.0380952
1354	0	0.0380952
1355	0	0.0380952
1356	0	0.0380952
1357	0	0.0380952
1358	0	0.0380952
1359	0	0.0380952
1360	0	0.0380952
1361	0	0.0380952
1362	0	0.0380952
1363	0	0.0380952
1364	0	0.0380952
1365	0	0.0380952
1366	0	0.0380952
1367	0	0.0380952
1368	0	0.0380952
1369	0	0.0380952
1370	0	0.0380952
1371	0	0.0380952
1372	0	0.0380952
1373	0	0.0380952
1374	0	0.0380952
1375	0	0.0380952
1376	0	0.0380952
1377	0	0.0380952
1378	0	0.0380952
1379	0	0.0380952
1380	0	0.0380952
1381	0	0.0421053
1382	0	0.0421053
1383	0	0.0467836
1384	0	0.0467836
1385	0	0.0467836
1386	0	0.0467836
1387	0	0.0467836
1388	0	0.0467836
1389	0	0.0467836
1390	0	0.0467836
1391	0	0.0467836
1392	0	0.0467836
1393	0	0.0467836
1394	0	0.0467836
1395	0	0.0467836
1396	0	0.0467836
1397	0	0.0467836
1398	0	0.0467836
1399	0	0.0467836
1400	0	0.0467836
1401	0	0.0522876
1402	0	0.0522876
1403	0	0.0522876
1404	0	0.0522876
1405	0	0.0522876
1406	0	0.0522876
1407	0	0.0522876
1408	0	0.0522876
1409	0	0.0522876
1410	0	0.0522876
1411	0	0.0522876
1412	0	0.0522876
1413	0	0.0522876
1414	0	0.0522876
1415	0	0.0522876
1416	0	0.0522876
1417	0	0.0522876
1418	0	0.0457516
1419	0	0.0457516
1420	0	0.0457516
1421	0	0.0457516
1422	0	0.0522876
1423	0	0.0522876
1424	0	0.0522876
1425	0	0.0522876
1426	0	0.0522876
1427	0	0.0514706
1428	0	0.0514706
1429	0	0.0514706
1430	0	0.0514706
1431	0	0.0514706
1432	0	0.0514706
1433	0	0.0514706
1434	0	0.0514706
1435	0	0.0514706
1436	0	0.0514706
1437	0	0.0514706
1438	0	0.0514706
1439	0	0.0514706
1440	0	0.0514706
1441	0	0.0514706
1442	0	0.0514706
1443	0	0.0514706
1444	0	0.0514706
1445	0	0.0514706
1446	0	0.0514706
1447	0	0.0514706
1448	0	0.0514706
1449	0	0.0514706
1450	0	0.0514706
1451	0	0.0514706
1452	0	0.0514706
1453	0	0.0514706
1454	0	0.0514706
1455	0	0.0514706
1456	0	0.0514706
1457	0	0.0514706
1458	0	0.0514706
1459	0	0.0514706
1460	0	0.0514706
1461	0	0.0514706
1462	0	0.0514706
1463	0	0.0514706
1464	0	0.0514706
1465	0	0.0514706
1466	0	0.0514706
1467	0	0.0514706
1468	0	0.0514706
1469	0	0.0514706
1470	0	0.0514706
1471	0	0.0514706
1472	0	0.0514706
1473	0	0.0514706
1474	0	0.0514706
1475	0	0.0514706
1476	0	0.0514706
1477	0	0.0514706
1478	0	0.0514706
1479	0	0.0514706
1480	0	0.0514706
1481	0	0.0514706
1482	0	0.0514706
1483	0	0.0514706
1484	0	0.0514706
1485	0	0.0514706
1486	0	0.0514706
1487	0	0.0514706
1488	0	0.0514706
1489	0	0.0514706
1490	0	0.0514706
1491	0	0.0514706
1492	0	0.0514706
1493	0	0.0514706
1494	0	0.0514706
1495	0	0.0514706
1496	0	0.0514706
1497	0	0.0514706
1498	0	0.0514706
1499	0	0.0514706
1500	0	0.0514706
1501	0	0.0514706
1502	0	0.0514706
1503	0	0.0514706
1504	0	0.0514706
1505	0	0.0514706
1506	0	0.0514706
1507	0	0.0514706
1508	0	0.0514706
1509	0	0.0514706
1510	0	0.0514706
1511	0	0.0514706
1512	0	0.0514706
1513	0	0.0514706
1514	0	0.0514706
1515	0	0.0514706
1516	0	0.0514706
1517	0	0.0514706
1518	0	0.0514706
1519	0	0.0514706
1520	0	0.0514706
1521	0	0.0514706
1522	0	0.0514706
1523	0	0.0514706
1524	0	0.0514706
1525	0	0.0514706
1526	0	0.0514706
1527	0	0.0514706
1528	0	0.0514706
1529	0	0.0514706
1530	0	0.0514706
1531	0	0.0514706
1532	0	0.0514706
1533	0	0.0514706
1534	0	0.0514706
1535	0	0.0514706
1536	0	0.0514706
1537	0	0.0514706
1538	0	0.0514706
1539	0	0.0514706
1540	0	0.0514706
1541	0	0.0514706
1542	0	0.0514706
1543	0	0.0514706
1544	0	0.0514706
1545	0	0.0514706
1546	0	0.0514706
1547	0	0.0514706
1548	0	0.0514706
1549	0	0.0514706
1550	0	0.0514706
1551	0	0.0514706
1552	0	0.0514706
1553	0	0.0514706
1554	0	0.0514706
1555	0	0.0514706
1556	0	0.0514706
1557	0	0.0514706
1558	0	0.0514706
1559	0	0.0514706
1560	0	0.0514706
1561	0	0.0514706
1562	0	0.0514706
1563	0	0.0514706
1564	0	0.0514706
1565	0	0.0514706
1566	0	0.0514706
1567	0	0.0514706
1568	0	0.0514706
1569	0	0.0514706
1570	0	0.0514706
1571	0	0.0514706
1572	0	0.0514706
1573	0	0.0514706
1574	0	0.0514706
1575	0	0.0514706
1576	0	0.0514706
1577	0	0.0514706
1578	0	0.0514706
1579	0	0.0514706
1580	0	0.0514706
1581	0	0.0514706
1582	0	0.0514706
1583	0	0.0514706
1584	0	0.0514706
1585	0	0.0514706
1586	0	0.0514706
1587	0	0.0514706
1588	0	0.0514706
1589	0	0.0514706
1590	0	0.0514706
1591	0	0.0514706
1592	0	0.0514706
1593	0	0.0514706
1594	0	0.0514706
1595	0	0.0514706
1596	0	0.0514706
1597	0	0.0514706
1598	0	0.0514706
1599	0	0.0514706
1600	0	0.0514706
1601	0	0.0514706
1602	0	0.0514706
1603	0	0.0514706
1604	0	0.0514706
1605	0	0.0514706
1606	0	0.0514706
1607	0	0.0514706
1608	0	0.0514706
1609	0	0.0514706
1610	0	0.0514706
1611	0	0.0514706
1612	0	0.0514706
1613	0	0.0514706
1614	0	0.0514706
1615	0	0.0514706
1616	0	0.0514706
1617	0	0.0514706
1618	0	0.0514706
1619	0	0.0514706
1620	0	0.0514706
1621	0	0.0514706
1622	0	0.0514706
1623	0	0.0514706
1624	0	0.0514706
1625	0	0.0514706
1626	0	0.0514706
1627	0	0.0514706
1628	0	0.0514706
1629	0	0.0514706
1630	0	0.0514706
1631	0	0.0514706
1632	0	0.0514706
1633	0	0.0514706
1634	0	0.0514706
1635	0	0.0514706
1636	0	0.0514706
1637	0	0.0514706
1638	0	0.0514706
1639	0	0.0514706
1640	0	0.0514706
1641	0	0.0514706
1642	0	0.0514706
1643	0	0.0514706
1644	0	0.0514706
1645	0	0.0514706
1646	0	0.0514706
1647	0	0.0514706
1648	0	0.0514706
1649	0	0.0514706
1650	0	0.0514706
1651	0	0.0514706
1652	0	0.0514706
1653	0	0.0514706
1654	0	0.0514706
1655	0	0.0514706
1656	0	0.0514706
1657	0	0.0514706
1658	0	0.0514706
1659	0	0.0514706
1660	0	0.0514706
1661	0	0.0514706
1662	0	0.0514706
1663	0	0.0514706
1664	0	0.0514706
1665	0	0.0514706
1666	0	0.0514706
1667	0	0.0514706
1668	0	0.0514706
1669	0	0.0514706
1670	0	0.0514706
1671	0	0.0514706
1672	0	0.0514706
1673	0	0.0514706
1674	0	0.0514706
1675	0	0.0514706
1676	0	0.0514706
1677	0	0.0514706
1678	0	0.0514706
1679	0	0.0514706
1680	0	0.0514706
1681	0	0.0661765
1682	0	0.0661765
1683	0	0.0661765
1684	0	0.0661765
1685	0	0.0661765
1686	0	0.0661765
1687	0	0.0661765
1688	0	0.0661765
1689	0	0.0661765
1690	0	0.0661765
1691	0	0.0661765
1692	0	0.0661765
1693	0	0.0661765
1694	0	0.0661765
1695	0	0.0661765
1696	0	0.0661765
1697	0	0.0661765
1698	0	0.0661765
1699	0	0.0661765
1700	0	0.0661765
1701	0	0.0661765
1702	0	0.0661765
1703	0	0.0661765
1704	0	0.0661765
1705	0	0.0661765
1706	0	0.0661765
1707	0	0.0661765
1708	0	0.0661765
1709	0	0.0661765
1710	0	0.0661765
1711	0	0.0514706
1712	0	0.0661765
1713	0	0.0661765
1714	0	0.0661765
1715	0	0.0661765
1716	0	0.0661765
1717	0	0.0661765
1718	0	0.0661765
1719	0	0.075
1720	0	0.075
1721	0	0.075
1722	0	0.0857143
1723	0	0.0857143
1724	0	0.0857143
1725	0	0.0857143
1726	0	0.0857143
1727	0	0.0857143
1728	0	0.0857143
1729	0	0.0857143
1730	0	0.0857143
1731	0	0.0857143
1732	0	0.0857143
1733	0	0.0857143
1734	0	0.0857143
1735	0	0.0857143
1736	0	0.0666667
1737	0	0.0666667
1738	0	0.0666667
1739	0	0.0666667
1740	0	0.0666667
1741	0	0.0666667
1742	0	0.0666667
1743	0	0.0522876
1744	0	0.0653595
1745	0	0.0653595
1746	0	0.0653595
1747	0	0.0653595
1748	0	0.0653595
1749	0	0.0653595
1750	0	0.0653595
1751	0	0.0522876
1752	0	0.0522876
1753	0	0.0522876
1754	0	0.0583333
1755	0	0.0380952
1756	0	0.0380952
1757	0	0.0380952
1758	0	0.0380952
1759	0	0.043956
1760	0	0.043956
1761	0	0.043956
1762	0	0.032967
1763	0	0
1764	0	0
1765	0	0
1766	0	0
1767	0	0
1768	0	0
1769	0	0
1770	0	0
1771	0	0
1772	0	0
1773	0	0
1774	0	0
1775	0	0
1776	0	0
1777	0	0
1778	0	0
1779	0	0
1780	0	0
1781	0	0
1782	0	0.0277778
1783	0	0
1784	0	0
1785	0	0
1786	0	0
1787	0	0
1788	0	0
1789	0	0
1790	0	0
1791	0	0
1792	0	0
1793	0	0
1794	0	0
1795	0	0
1796	0	0
1797	0	0
1798	0	0
1799	0	0
1800	0	0
1801	0	0
1802	0	0
1803	0	0
1804	0	0
1805	0	0
1806	0	0
1807	0	0
1808	0	0
1809	0	0
1810	0	0
1811	0	0
1812	0	0
1813	0	0
1814	0	0
1815	0	0
1816	0	0
1817	0	0
1818	0	0
1819	0	0
1820	0	0
1821	0	0
1822	0	0
1823	0	0
1824	0	0
1825	0	0
1826	0	0
1827	0	0
1828	0	0
1829	0	0
1830	0	0
1831	0	0
1832	0	0
1833	0	0
1834	0	0
1835	0	0
1836	0	0
1837	0	0
1838	0	0
1839	0	0
1840	0	0
1841	0	0
1842	0	0
1843	0	0
1844	0	0
1845	0	0
1846	0	0
1847	0	0
1848	0	0
1849	0	0
1850	0	0
1851	0	0
1852	0	0
1853	0	0
1854	0	0
1855	0	0
1856	0	0
1857	0	0
1858	0	0
1859	0	0
1860	0	0
1861	0	0
1862	0	0
1863	0	0
1864	0	0
1865	0	0
1866	0	0
1867	0	0
1868	0	0
1869	0	0
1870	0	0
1871	0	0
1872	0	0
1873	0	0
1874	0	0
1875	0	0
1876	0	0
1877	0	0
1878	0	0
1879	0	0
1880	0	0
1881	0	0
1882	0	0
1883	0	0
1884	0	0
1885	0	0
1886	0	0
1887	0	0
1888	0	0
1889	0	0
1890	0	0
1891	0	0
1892	0	0
1893	0	0
1894	0	0
1895	0	0
1896	0	0
1897	0	0
1898	0	0
1899	0	0
1900	0	0
1901	0	0
1902	0	0
1903	0	0
1904	0	0
1905	0	0
1906	0	0
1907	0	0
1908	0	0
1909	0	0
1910	0	0
1911	0	0
1912	0	0
1913	0	0
1914	0	0
1915	0	0
1916	0	0
1917	0	0
1918	0	0
1919	0	0
1920	0	0
1921	0	0
1922	0	0
1923	0	0
1924	0	0
1925	0	0
1926	0	0
1927	0	0
1928	0	0
1929	0	0
1930	0	0
1931	0	0
1932	0	0
1933	0	0
1934	0	0
1935	0	0
1936	0	0
1937	0	0
1938	0	0
1939	0	0
1940	0	0
1941	0	0
1942	0	0
1943	0	0
1944	0	0
1945	0	0
1946	0	0
1947	0	0
1948	0	0
1949	0	0
1950	0	0
1951	0	0
1952	0	0
1953	0	0
1954	0	0
1955	0	0
1956	0	0
1957	0	0
1958	0	0
1959	0	0
1960	0	1
1961	0	1
1962	0	1
1963	0	1
1964	0	1
1965	0	1
1966	0	1
1967	0	1
1968	0	1
1969	0	1
1970	0	1
1971	0	1
1972	0	1
1973	0	1
1974	0	1
1975	0	1
1976	0	1
1977	0	1
1978	0	1
1979	0	1
1980	0	0.777778
1981	0	0.877287
1982	0	0.873716
1983	0	0.883783
1984	0	0.881922
1985	0	0
1986	0	0
1987	0	0
1988	0	0
1989	0	0
1990	0	0.622222
1991	0	0.622222
1992	0	0.622222
1993	0	0.622222
1994	0	0.622222
1995	0	0.622222
1996	0	0.622222
1997	0	0.622222
1998	0	0.509091
1999	0	0.509091
2000	0	0.509091
2001	0	0.509091
2002	0	0.509091
2003	0	0.509091
2004	0	0.509091
2005	0	0.509091
2006	0	0.509091
2007	0	0.904399
2008	0	0.898762
2009	0	0.900667
2010	0	0.545455
2011	0	0.545455
2012	0	0.545455
2013	0	0.545455
2014	0	0.545455
2015	0	0.545455
2016	0	0.545455
2017	0	0.545455
2018	0	0.545455
2019	0	0.545455
2020	0	0.545455
2021	0	0.545455
2022	0	0.545455
2023	0	0.545455
2024	0	0.461538
2025	0	0.461538
2026	0	0.461538
2027	0	0.461538
2028	0	0.461538
2029	0	0.461538
2030	0	0.395604
2031	0	0.873061
2032	0	0.873067
2033	0	0.873067
2034	0	0.371795
2035	0	0.474359
2036	0	0.474359
2037	0	0.474359
2038	0	0.474359
2039	0	0.474359
2040	0	0.474359
2041	0	0.5
2042	0	0.5
2043	0	0.5
2044	0	0.5
2045	0	0.5
2046	0	0.5
2047	0	0.5
2048	0	0.461538
2049	0	0.92662
2050	0	0
2051	0	0
2052	0	0
2053	0	0
2054	0	0
2055	0	0
2056	0	0
2057	0	0
2058	0	0
2059	0	0
2060	0	0
2061	0	0
2062	0	0.949851
2063	0	0.594027
2064	0	0.909763
2065	0	0.905855
2066	0	0.905855
2067	0	0.905769
2068	0	0.272059
2069	0	0.213235
2070	0	0.914646
2071	0	0.914746
2072	0	0.912807
2073	0	0.91466
2074	0	0
2075	0	0
2076	0	0
2077	0	0
2078	0	0
2079	0	0
2080	0	0
2081	0	0
2082	0	0
2083	0	0
2084	0	0
2085	0	0
2086	0	0
2087	0	0
2088	0	0
2089	0	0
2090	0	0
2091	0	0
2092	0	0
2093	0	0
2094	0	0
2095	0	0
2096	0	0
2097	0	0
2098	0	0
2099	0	0
2100	0	0
2101	0	0
2102	0	0
2103	0	0
2104	0	0
2105	0	0
2106	0	0
2107	0	0
2108	0	0
2109	0	0
2110	0	0
2111	0	0
2112	0	0
2113	0	0
2114	0	0
2115	0	0
2116	0	0
2117	0	0
2118	0	0
2119	0	0
2120	0	0
2121	0	0
2122	0	0
2123	0	0
2124	0	0
2125	0	0
2126	0	0
2127	0	0
2128	0	0
2129	0	0
2130	0	0
2131	0	0
2132	0	0
2133	0	0
2134	0	0
2135	0	0
2136	0	0
2137	0	0
2138	0	0
2139	0	0
2140	0	0
2141	0	0
2142	0	0
2143	0	0
2144	0	0
2145	0	0
2146	0	0
2147	0	0
2148	0	0
2149	0	0
2150	0	0
2151	0	0
2152	0	0
2153	0	0
2154	0	0
2155	0	0
2156	0	0
2157	0	0
2158	0	0
2159	0	0
2160	0	0
2161	0	0
2162	0	0
2163	0	0
2164	0	0
2165	0	0
2166	0	0
2167	0	0
2168	0	0
2169	0	0
2170	0	0
2171	0	0
2172	0	0
2173	0	0
2174	0	0
2175	0	0
2176	0	0
2177	0	0
2178	0	0
2179	0	0
2180	0	0
2181	0	0
2182	0	0
2183	0	0
2184	0	0
2185	0	0
2186	0	0
2187	0	0
2188	0	0
2189	0	0
2190	0	0
2191	0	0
2192	0	0
2193	0	0
2194	0	0
2195	0	0
2196	0	0
2197	0	0
2198	0	0
2199	0	0
2200	0	0
2201	0	0
2202	0	0
2203	0	0
2204	0	0
2205	0	0
2206	0	0
2207	0	0
2208	0	0
2209	0	0
2210	0	0
2211	0	0
2212	0	0
2213	0	0
2214	0	0
2215	0	0
2216	0	0
2217	0	0
2218	0	0
2219	0	0
2220	0	0
2221	0	0
2222	0	0
2223	0	0
2224	0	0
2225	0	0
2226	0	0
2227	0	0
2228	0	0
2229	0	0
2230	0	0
2231	0	0
2232	0	0
2233	0	0
2234	0	0
2235	0	0
2236	0	0
2237	0	0
2238	0	0
2239	0	0
2240	0	0
2241	0	0
2242	0	0
2243	0	0
2244	0	0
2245	0	0
2246	0	0
2247	0	0
2248	0	0
2249	0	0
2250	0	0
2251	0	0
2252	0	0
2253	0	0
2254	0	0
2255	0	0
2256	0	0
2257	0	0
2258	0	0
2259	0	0
2260	0	0
2261	0	0
2262	0	0
2263	0	0
2264	0	0
2265	0	0
2266	0	0
2267	0	0
2268	0	0
2269	0	0
2270	0	0
2271	0	0
2272	0	0
2273	0	0
2274	0	0
2275	0	0
2276	0	0
2277	0	0
2278	0	0
2279	0	0
2280	0	0
2281	0	0
2282	0	0
2283	0	0
2284	0	0
2285	0	0
2286	0	0
2287	0	0
2288	0	0
2289	0	0
2290	0	0
2291	0	0
2292	0	0
2293	0	0
2294	0	0
2295	0	0
2296	0	0
2297	0	0
2298	0	0
2299	0	0
2300	0	0
2301	0	0
2302	0	0
2303	0	0
2304	0	0
2305	0	0
2306	0	0
2307	0	0
2308	0	0
2309	0	0
2310	0	0
2311	0	0
2312	0	0
2313	0	0
2314	0	0
2315	0	0
2316	0	0
2317	0	0
2318	0	0
2319	0	0
2320	0	0
2321	0	0
2322	0	0
2323	0	0
2324	0	0
2325	0	0
2326	0	0
2327	0	0
2328	0	0
2329	0	0
2330	0	0
2331	0	0
2332	0	0
2333	0	0
2334	0	0
2335	0	0
2336	0	0
2337	0	0
2338	0	0
2339	0	0
2340	0	0
2341	0	0
2342	0	0
2343	0	0
2344	0	0
2345	0	0
2346	0	0
2347	0	0
2348	0	0
2349	0	0
2350	0	0
2351	0	0
2352	0	0
2353	0	0
2354	0	0
2355	0	0
2356	0	0
2357	0	0
2358	0	0
2359	0	0
2360	0	0
2361	0	0
2362	0	0
2363	0	0
2364	0	0
2365	0	0
2366	0	0
2367	0	0
2368	0	0
2369	0	0
2370	0	0
2371	0	0
2372	0	0
2373	0	0
2374	0	0
2375	0	0
2376	0	0
2377	0	0
2378	0	0
2379	0	0
2380	0	0
2381	0	0
2382	0	0
2383	0	0
2384	0	0
2385	0	0
2386	0	0
2387	0	0
2388	0	0
2389	0	0
2390	0	0
2391	0	0
2392	0	0
2393	0	0
2394	0	0
2395	0	0
2396	0	0
2397	0	0
2398	0	0
2399	0	0
2400	0	0
2401	0	0
2402	0	0
2403	0	0
2404	0	0
2405	0	0
2406	0	0
2407	0	0
2408	0	0
2409	0	0
2410	0	0
2411	0	0
2412	0	0
2413	0	0
2414	0	0
2415	0	0
2416	0	0
2417	0	0
2418	0	0
2419	0	0
2420	0	0
2421	0	0
2422	0	0
2423	0	0
2424	0	0
2425	0	0
2426	0	0
2427	0	0
2428	0	0
2429	0	0
2430	0	0
2431	0	0
2432	0	0
2433	0	0
2434	0	0
2435	0	0
2436	0	0
2437	0	0
2438	0	0
2439	0	0
2440	0	0
2441	0	0
2442	0	0
2443	0	0
2444	0	0
2445	0	0
2446	0	0
2447	0	0
2448	0	0
2449	0	0
2450	0	0.922368
2451	0	0.918352
2452	0	0.381818
2453	0	0.381818
2454	0	0.381818
2455	0	0.381818
2456	0	0.466667
2457	0	0.466667
2458	0	0.583333
2459	0	0.583333
2460	0	0
2461	0	0
2462	0	0
2463	0	0
2464	0	0.909129
2465	0	0.903284
2466	0	0.907105
2467	0	0.910961
2468	0	0.17619
2469	0	0.202614
2470	0	0.235294
2471	0	0.266667
2472	0	0.266667
2473	0	0.340659
2474	0	0.340659
2475	0	0.340659
2476	0	0.340659
2477	0	0.340659
2478	0	0.340659
2479	0	0.340659
2480	0	0.340659
2481	0	0.340659
2482	0	0.283333
2483	0	0.340659
2484	0	0.340659
2485	0	0.340659
2486	0	0.340659
2487	0	0.340659
2488	0	0.340659
2489	0	0.509091
2490	0	0.927873
2491	0	0.111111
2492	0	0.107143
2493	0	0.142857
2494	0	0
2495	0	0
2496	0	0
2497	0	0
2498	0	0
2499	0	0
2500	0	0
2501	0	0
2502	0	0
2503	0	0
2504	0	0
2505	0	0
2506	0	0
2507	0	0
2508	0	0
2509	0	0.938281
2510	0	0.93797
2511	0	0.936068
2512	0	0.934171
2513	0	0.936068
2514	0	0.934304
2515	0	0.473461
2516	0	0.611111
2517	0	0.611111
2518	0	0.444444
2519	0	0.444444
2520	0	0.444444
2521	0	0.444444
2522	0	0.444444
2523	0	0.444444
2524	0	0.403333
2525	0	0.372308
2526	0	0.372308
2527	0	0.239744
2528	0	0.189899
2529	0	0.167347
2530	0	0.150516
2531	0	0.107937
2532	0	0.104825
2533	0	0.415355
2534	0	0.178388
2535	0	0.176314
2536	0	0.143015
2537	0	0.165782
2538	0	0.167008
2539	0	0.422984
2540	0	0.382917
2541	0	0.0718816
2542	0	0.0850202
2543	0	0.100806
2544	0	0.110837
2545	0	0.0857143
2546	0	0.0980392
2547	0	0.12381
2548	0	0.12381
2549	0	0.141026
2550	0	0.141026
2551	0	0.141026
2552	0	0.33321
2553	0	0.133333
2554	0	0.104762
2555	0	0.0952381
2556	0	0
2557	0	0.0277778
2558	0	0
2559	0	0
2560	0	0
2561	0	0
2562	0	0
2563	0	0
2564	0	0
2565	0	0
2566	0	0
2567	0	0
2568	0	0
2569	0	0.1
2570	0	0.809265
2571	0	0.813644
2572	0	0.238095
2573	0	0.253561
2574	0	0.377897
2575	0	0.857217
2576	0	0.123333
2577	0	0.134058
2578	0	0.131868
2579	0	0.0879121
2580	0	0.106061
2581	0	0.155556
2582	0	0.111111
2583	0	0.142857
2584	0	0.190476
2585	0	0.333333
2586	0	0.466667
2587	0	0.466667
2588	0	0.6
2589	0	0.619267
2590	0	0.890061
2591	0	0.943879
2592	0	0.944094
2593	0	0.944094
2594	0	0.942304
2595	0	0.942304
2596	0	0.942304
2597	0	0.295238
2598	0	0.951715
2599	0	0.949854
2600	0	0.951713
2601	0	0.569069
2602	0	0.569069
2603	0	0.569069
2604	0	0.492492
2605	0	0.881072
2606	0	0.470588
2607	0	0.470588
2608	0	0.470588
2609	0	0.470588
2610	0	0.411765
2611	0	0.411765
2612	0	0.366013
2613	0	0.384211
2614	0	0.899962
2615	0	0.466667
2616	0	0.466667
2617	0	0.466667
2618	0	0.4
2619	0	0.6
2620	0	0.6
2621	0	0.6
2622	0	0.6
2623	0	0.355556
2624	0	0.355556
2625	0	1
2626	0	1
2627	0	1
2628	0	1
2629	0	1
2630	0	1
2631	0	1
2632	0	0.6
2633	0	0.6
2634	0	0.6
2635	0	0.6
2636	0	0.6
2637	0	0.6
2638	0	0.6
2639	0	0.6
2640	0	0.4
2641	0	0.4
2642	0	0.4
2643	0	0.4
2644	0	0.4
2645	0	0.285714
2646	0	0.285714
2647	0	0.285714
2648	0	0.285714
2649	0	0.285714
2650	0	0.285714
2651	0	0.285714
2652	0	0.285714
2653	0	0.285714
2654	0	0.157983
2655	0	0.136364
2656	0	0.136364
2657	0	0.0909091
2658	0	0.214286
2659	0	0.107143
2660	0	0.107143
2661	0	0.0833333
2662	0	0.0833333
2663	0	0.0727273
2664	0	0.0727273
2665	0	0.0727273
2666	0	0.0727273
2667	0	0.0727273
2668	0	0.0606061
2669	0	0.075
2670	0	0.0833333
2671	0	0.0653595
2672	0	0.710689
2673	0	0.712766
2674	0	0.668365
2675	0	0.405212
2676	0	0.571991
2677	0	0.377813
2678	0	0.403235
2679	0	0.347306
2680	0	0.303017
2681	0	0.193419
2682	0	0.239085
2683	0	0.310692
2684	0	0.392533
2685	0	0.438944
2686	0	0.115385
2687	0	0.115385
2688	0	0.109091
2689	0	0.111111
2690	0	0.142857
2691	0	0.142857
2692	0	0.142857
2693	0	0
2694	0	0.1
2695	0	0
2696	0	0
2697	0	0.166667
2698	0	0.166667
2699	0	0.166667
2700	0	0.142857
2701	0	0.1
2702	0	0.1
2703	0	0.1
2704	0	0.1
2705	0	0.1
2706	0	0.1
2707	0	0.1
2708	0	0.1
2709	0	0.190476
2710	0	0.166667
2711	0	0.166667
2712	0	0.166667
2713	0	0.166667
2714	0	0.166667
2715	0	0.166667
2716	0	0.166667
2717	0	0.166667
2718	0	0.166667
2719	0	0.166667
2720	0	0.166667
2721	0	0.333333
2722	0	0.333333
2723	0	0.510458
2724	0	0.511582
2725	0	0.510948
2726	0	0.510106
2727	0	0.511283
2728	0	0.521402
2729	0	0.994286
2730	0	0.994286
2731	0	0.99428
2732	0	0.99428
2733	0	0.99428
2734	0	0.986705
2735	0	0.980973
2736	0	0
2737	0	0
2738	0	0
2739	0	0
2740	0	0
2741	1	0
2742	1	0
2743	1	0
2744	1	0
2745	1	0
2746	1	0
2747	1	0
2748	1	0
2749	1	0
2750	1	0
2751	0	0
2752	0	0
2753	0	0
2754	0	0.969853
2755	0	0.968012
2756	0	0.6
2757	0	0.992377
2758	0	0.992377
2759	0	0.986723
2760	0	0.996192
2761	0	0.9962
2762	0	0.996203
2763	0	0.996207
2764	0	0.994318
2765	0	0.994324
2766	0	0.994324
2767	0	0.994324
2768	0	0.994324
2769	0	0.994324
2770	0	0.99621
2771	0	0.998102
2772	0	0.996207
2773	0	0.996207
2774	0	0.994318
2775	0	0.992428
2776	0	0.992428
2777	0	0.992428
2778	0	0.992421
2779	0	0.992428
2780	0	0.992428
2781	0	0.992428
2782	0	0.992428
2783	0	1
2784	0	1
2785	0	0.666667
2786	0	0.666667
2787	0	0.666667
2788	0	0.4
2789	0	0.4
2790	0	0.4
2791	0	0.4
2792	0	0.285714
2793	0	0.214286
2794	0	0.155556
2795	0	0.177778
2796	0	0.213235
2797	0	0.213235
2798	0	0.152381
2799	0	0.951178
2800	0	0.951177
2801	0	1
2802	0	1
2803	0	0.70073
2804	0	0.610498
2805	0	1
2806	0	1
2807	0	1
2808	0	1
2809	0	0.333333
2810	0	0.166667
2811	0	0.166667
2812	0	0.166667
2813	0	0.166667
2814	0	0.166667
2815	0	0.190476
2816	0	0.142857
2817	0	0.047619
2818	0	0
2819	0	0
2820	0	0.1
2821	0	0.1
2822	0	0.1
2823	0	0.1
2824	0	0.047619
2825	0	0.0555556
2826	0	0.043956
2827	0	0.134387
2828	0	0.144828
2829	0	0.122689
2830	0	0.156534
2831	0	0.139269
2832	0	0.181845
2833	0	0.160534
2834	0	0.142157
2835	0	0.1286
2836	0	0.111254
2837	0	0.109453
2838	0	0.110951
2839	0	0.202883
2840	0	0.287053
2841	0	0.278171
2842	0	0.364791
2843	0	0.412286
2844	0	0.333333
2845	0	0.166667
2846	0	0.166667
2847	0	0.166667
2848	0	0.166667
2849	0	0.333333
2850	0	0.333333
2851	0	0.333333
2852	0	0.333333
2853	0	0.333333
2854	0	0.333333
2855	0	0.166667
2856	0	0.166667
2857	0	0.166667
2858	0	0.166667
2859	0	0.166667
2860	0	0.166667
2861	0	0.166667
2862	0	0.383333
2863	0	0.1
2864	0	0
2865	0	0
2866	0	0.1
2867	0	0.0666667
2868	0	0.047619
2869	0	0.142857
2870	0	0.214286
2871	0	0.19427
2872	0	0.257164
2873	0	0
2874	0	0
2875	0	0.333333
2876	0	0.333333
2877	0	0.333333
2878	0	0.333333
2879	0	0.333333
2880	0	0.327919
2881	0	0
2882	0	0
2883	0	0
2884	0	0
2885	0	0
2886	0	0
2887	0	0
2888	0	0
2889	0	0
2890	0	0
2891	0	0
2892	0	0
2893	0	0
2894	0	0
2895	0	0.1
2896	0	0.0888889
2897	0	0.205128
2898	0	0.241667
2899	0	0.964915
2900	0	0.851647
2901	0	0.803346
2902	0	0.989463
2903	0	0.998092
2904	0	0.998113
2905	0	0.998115
2906	0	0.998115
2907	0	0.996239
2908	0	0.996239
2909	0	0.996239
2910	0	0.996235
2911	0	0.996235
2912	0	0.996235
2913	0	0.996239
2914	0	0.996235
2915	0	0.996235
2916	0	0.996235
2917	0	0.996235
2918	0	0.5
2919	0	0.5
2920	0	0.98878
2921	0	0.98878
2922	1	0
2923	1	0
2924	1	0
2925	1	0
2926	0	0
2927	0	0
2928	0	0.992506
2929	0	0.994398
2930	0	0.994398
2931	0	0.994398
2932	0	0.994398
2933	0	0.994403
2934	1	0
2935	1	0
2936	1	0
2937	0	0.994408
2938	0	0.994408
2939	0	0.992555
2940	0	0.992555
2941	0	0.992555
2942	0	0.994413
2943	0	0.994413
2944	0	0.994413
2945	0	0.994413
2946	0	0.994413
2947	0	0.994413
2948	0	0.994413
2949	0	0.994413
2950	0	0.994413
2951	0	0.994413
2952	0	0.994413
2953	0	0.992555
2954	0	0.992555
2955	0	0.990698
2956	0	0.990689
2957	0	0.990689
2958	0	1
2959	0	0.4
2960	0	0.4
2961	0	0.2
2962	0	0.0666667
2963	0	0.047619
2964	0	0.0666667
2965	0	0.0666667
2966	0	0.0666667
2967	0	0.4
2968	0	0.97947
2969	0	0.508333
2970	0	0.508333
2971	0	0.35
2972	0	0.161765
2973	0	0.949981
2974	0	0.886775
2975	0	0
2976	0	0
2977	0	0
2978	0	0
2979	0	0
2980	0	0
2981	0	0
2982	0	0
2983	0	0
2984	1	1
2985	0	1
2986	0	0.333333
2987	0	0.333333
2988	0	0.2
2989	0	0.4
2990	0	0.3
2991	0	0.3
2992	0	0.6
2993	0	0.729272
2994	0	0.25
2995	0	1
2996	0	1
2997	0	1
2998	0	0.946739
2999	0	0.990672
3000	0	0.988822
3001	0	0.990682
3002	0	0.992536
3003	0	0
3004	0	1
3005	0	1
3006	0	1
3007	0	0.994408
3008	0	0.994408
3009	0	0.996267
3010	0	0.996267
3011	0	0.996267
3012	0	0.996267
3013	0	0.996267
3014	0	0.996267
3015	0	0.996267
3016	0	0
3017	0	0.998133
3018	0	0.998133
3019	0	0.998133
3020	0	0.998133
3021	0	0.998133
3022	0	0.99627
3023	0	0.996274
3024	0	0.996277
3025	0	0.996277
3026	0	0.996277
3027	0	0.994419
3028	0	0.994419
3029	0	0.994419
3030	0	0.994419
3031	0	0.983329
3032	0	0.931034
3033	0	0.942215
3034	0	0.877393
3035	0	0.83294
3036	0	0.769448
3037	0	0.959832
3038	0	0
3039	0	0
3040	0	0.624397
3041	0	0.558145
3042	0	0.536227
3043	0	0.673042
3044	0	0
3045	0	0
3046	0	0
3047	0	0
3048	0	0
3049	0	0
3050	0	0
3051	0	0
3052	0	0.917168
3053	0	0.917249
3054	0	0.923243
3055	0	0.333333
3056	0	1
3057	0	1
3058	0	1
3059	0	1
3060	1	1
3061	1	1
3062	1	1
3063	1	1
3064	1	1
3065	1	1
3066	1	1
3067	1	1
3068	0	0.948015
3069	0	0.966053
3070	0	0.964176
3071	0	0.777332
3072	0	0.3
3073	0	0.5
3074	0	1
3075	0	0.957418
3076	0	0.981339
3077	0	0.983181
3078	0	0.983213
3079	0	1
3080	0	1
3081	0	1
3082	0	1
3083	0	0.975821
3084	0	0.973993
3085	0	0.972171
3086	0	0.972171
3087	0	0.972171
3088	0	0.972171
3089	0	0
3090	0	0
3091	0	0
3092	0	0
3093	0	0
3094	0	0
3095	0	0
3096	0	0
3097	0	0.970311
3098	0	0.970311
3099	0	0.972158
3100	0	0.975811
3101	0	0.973957
3102	0	0.973957
3103	0	0.436364
3104	0	0.436364
3105	0	0.436364
3106	0	0.436364
3107	0	0.392857
3108	0	0.392857
3109	0	0.333333
3110	0	0.6
3111	0	0.6
3112	0	0.6
3113	0	0.6
3114	0	0.166667
3115	0	0.166667
3116	0	0.166667
3117	0	0.333333
3118	0	0.333333
3119	0	0.333333
3120	0	0.333333
3121	0	0.333333
3122	0	0.333333
3123	0	0.333333
3124	0	0.333333
3125	0	0.333333
3126	0	0.966533
3127	0	0.964688
3128	0	0.964694
3129	0	0.964696
3130	0	0.141667
3131	0	0.180952
3132	0	0.155556
3133	0	0.127273
3134	0	0.127273
3135	0	0.25
3136	0	0.25
3137	0	0.25
3138	0	0.333333
3139	0	0.333333
3140	0	0.333333
3141	0	0.6
3142	0	1
3143	0	0.996256
3144	0	0.996256
3145	0	0.994393
3146	0	0.996256
3147	0	0.996256
3148	0	0.996256
3149	0	0.994387
3150	0	0.994382
3151	0	0.99252
3152	0	0.994387
3153	0	0.994387
3154	0	0.994387
3155	0	0.994387
3156	0	0.99252
3157	0	0.99252
3158	0	0.99252
3159	0	0.99252
3160	0	0.99252
3161	0	0.994382
3162	0	0.996249
3163	0	0.996246
3164	0	0.994377
3165	0	0.994382
3166	0	0.994377
3167	0	0.994377
3168	0	0.994377
3169	0	1
3170	0	1
3171	0	1
3172	0	1
3173	0	1
3174	0	1
3175	0	1
3176	0	1
3177	0	1
3178	0	1
3179	0	1
3180	0	1
3181	0	1
3182	0	0.333333
3183	0	0.333333
3184	0	0.333333
3185	0	0
3186	0	0
3187	0	0
3188	0	0
3189	0	0.990628
3190	0	0.47619
3191	0	0
3192	0	0
3193	0	0
3194	0	0
3195	0	0
3196	0	0
3197	0	0
3198	0	0
3199	0	0
3200	0	0
3201	0	0
3202	0	0
3203	0	0
3204	0	0
3205	0	0
3206	1	0
3207	0	0
3208	0	0
3209	0	0
3210	0	0
3211	0	0
3212	1	0
3213	1	0
3214	1	0
3215	1	0
3216	0	0
3217	0	0
3218	0	0
3219	0	0
3220	0	0
3221	0	0
3222	0	0
3223	0	1
3224	0	0.822934
3225	0	0.988837
3226	0	0.994408
3227	0	0.994408
3228	0	0.994408
3229	0	0.994408
3230	0	0.994408
3231	0	0.994408
3232	0	0.994408
3233	0	0.992555
3234	0	0.994408
3235	0	0.992555
3236	0	0.992555
3237	0	0.994408
3238	0	0.994403
3239	0	0.994403
3240	0	0.994403
3241	0	0.996263
3242	0	0.996263
3243	0	0.998129
3244	0	0.996263
3245	0	0.996263
3246	0	0.996263
3247	0	0.996263
3248	0	0.994403
3249	0	0.992541
3250	0	0.994403
3251	0	0.994398
3252	0	0.994398
3253	0	0.994393
3254	0	0.994398
3255	0	0.994398
3256	0	0.994393
3257	0	0.994398
3258	0	0.994398
3259	0	0.994398
3260	0	0.994403
3261	0	0.994403
3262	0	0.992541
3263	0	0
3264	0	0
3265	0	0
3266	0	0
3267	0	0
3268	0	0
3269	0	0
3270	0	0
3271	0	0
3272	0	0
3273	0	0
3274	0	0
3275	0	0
3276	0	0.5
3277	0	0.5
3278	0	0.965184
3279	0	0.80117
3280	0	0.49234
3281	0	0.450477
3282	0	0.368792
3283	0	0.364302
3284	0	0.390415
3285	0	0.307071
3286	0	0.10181
3287	0	0.0818713
3288	0	0.116667
3289	0	0.0952381
3290	0	0.0653846
3291	0	0.0758557
3292	0	0.0811594
3293	0	0.0910256
3294	0	0.075641
3295	0	0.133333
3296	0	0.166667
3297	0	0.107143
3298	0	0.142857
3299	0	0.285714
3300	0	0
3301	0	0
3302	0	0
3303	0	0.121212
3304	0	0.133333
3305	0	0
3306	0	0
3307	0	0
3308	0	0
3309	0	0
3310	0	0
3311	0	0.390545
3312	0	0.390545
3313	0	0.351799
3314	0	0.347893
3315	0	0.398452
3316	0	0.364411
3317	0	0.348807
3318	0	0.263355
3319	0	0.279107
3320	0	0.290727
3321	0	0.576923
3322	0	0
3323	0	0
3324	0	0
3325	0	0
3326	0	0
3327	0	0
3328	0	0
3329	0	0
3330	0	0
3331	0	0
3332	0	0
3333	0	0
3334	0	0.576923
3335	0	0.494505
3336	0	0
3337	0	0
3338	0	0
3339	0	0.383333
3340	0	0.047619
3341	0	0.0888889
3342	0	0.0757576
3343	0	0.0641026
3344	0	0.0549451
3345	0	0.0701754
3346	0	0.0797101
3347	0	0.0788177
3348	0	0.0735632
3349	0	0.138605
3350	0	0.242958
3351	0	0.195322
3352	0	0.213147
3353	0	0.211091
3354	0	0.1829
3355	0	0.15488
3356	0	0.139741
3357	0	0.105611
3358	0	0.135791
3359	0	0.215258
3360	0	0.231717
3361	0	0.446912
3362	0	0.393715
3363	0	0.372617
3364	0	0.364999
3365	0	0.41389
3366	0	0.43522
3367	0	0
3368	0	0.444444
3369	0	0.0714286
3370	0	0.166667
3371	0	0.166667
3372	0	0.166667
3373	0	0.166667
3374	0	0.166667
3375	0	0.166667
3376	0	0.333333
3377	0	0.511006
3378	0	0.981389
3379	0	0
3380	0	0
3381	0	0.166667
3382	0	0.166667
3383	0	0
3384	0	0
3385	0	0
3386	0	0
3387	0	0
3388	0	0
3389	0	0
3390	0	0
3391	0	0
3392	0	0
3393	0	0
3394	0	0.992527
3395	0	0.992527
3396	0	0.992527
3397	0	0.992534
3398	0	0.99068
3399	0	0.988822
3400	0	0.988822
3401	0	0.988822
3402	0	0.988811
3403	0	1
3404	0	1
3405	0	1
3406	0	1
3407	0	1
3408	0	0
3409	0	0
3410	0	0
3411	0	0
3412	1	0
3413	1	0
3414	1	0
3415	1	0
3416	1	0
3417	1	0
3418	1	0
3419	1	0
3420	1	0
3421	1	0
3422	1	0
3423	1	0
3424	1	0
3425	1	0
3426	1	0
3427	1	0
3428	1	0
3429	1	0
3430	1	0
3431	1	0
3432	1	0
3433	1	0
3434	1	0
3435	1	0
3436	1	0
3437	1	0
3438	1	0
3439	1	0
3440	1	0
3441	1	0
3442	1	0
3443	0	0
3444	0	0
3445	0	0
3446	0	0
3447	0	0
3448	0	0
3449	0	0
3450	0	0
3451	0	0
3452	0	0
3453	0	0
3454	0	0
3455	0	0
3456	0	0
3457	0	0.981389
3458	0	0.981389
3459	0	0.813881
3460	0	0
3461	0	0
3462	0	0
3463	0	0
3464	0	0.798388
3465	0	0.798388
3466	0	0.986904
3467	0	0.988769
3468	0	0.98878
3469	0	0.98878
3470	0	0.98878
3471	0	0.98878
3472	0	0.986928
3473	0	0.986928
3474	0	0.985054
3475	0	0.985054
3476	0	0
3477	0	0.857143
3478	0	0.857143
3479	0	0.333333
3480	0	0.333333
3481	0	0.166667
3482	0	0.166667
3483	0	0.1
3484	0	0.0666667
3485	0	0.402597
3486	0	0.848996
3487	0	0.848996
3488	0	0
3489	0	0
3490	0	0
3491	0	0
3492	0	0
3493	0	0
3494	0	0
3495	0	0
3496	0	0
3497	0	0
3498	0	0
3499	0	0
3500	0	0
3501	0	0
3502	0	0
3503	0	0
3504	0	0
3505	0	0
3506	0	0
3507	0	0
3508	0	0
3509	0	0
3510	0	0
3511	0	0
3512	0	0
3513	0	0
3514	0	0
3515	0	0
3516	0	0
3517	0	0
3518	0	0
3519	0	0
3520	0	0
3521	0	0
3522	0	0.714286
3523	0	0.714286
3524	0	0.714286
3525	0	0.714286
3526	0	0.535714
3527	0	0.355556
3528	0	0.244444
3529	0	0.181818
3530	0	0.121212
3531	0	0.132353
3532	0	0.130435
3533	0	0.277211
3534	0	0.217788
3535	0	0.167807
3536	0	0.177982
3537	0	0.145447
3538	0	0.120352
3539	0	0.104981
3540	0	0
3541	0	0
3542	0	0
3543	0	0
3544	0	0
3545	0	0
3546	0	0
3547	0	0
3548	0	0
3549	0	0.545455
3550	0	0
3551	0	0
3552	0	0
3553	0	0
3554	0	0
3555	0	0
3556	0	0.461538
3557	0	0
3558	0	0
3559	0	0
3560	0	0
3561	0	0
3562	0	0
3563	0	0
3564	0	0
3565	0	0
3566	0	0
3567	0	0
3568	0	0.352381
3569	0	0.1
3570	0	0.1
3571	0	0.0952381
3572	0	0.047619
3573	0	0
3574	0	0
3575	0	0.185714
3576	0	0.0545455
3577	0	0.0545455
3578	0	0
3579	0	0
3580	0	0
3581	0	0.0285714
3582	0	0.17
3583	0	0
3584	0	0
3585	0	0
3586	0	0.109091
3587	0	0.0769231
3588	0	0.123077
3589	0	0.160985
3590	0	0.104762
3591	0	0.128447
3592	0	0.137681
3593	0	0.145455
3594	0	0.152381
3595	0	0.142857
3596	0	0.12381
3597	0	0.104575
3598	0	0.102767
3599	0	0.267633
3600	0	0.209273
3601	0	0.183007
3602	0	0.224158
3603	0	0.19903
3604	0	0.182839
3605	0	0.17244
3606	0	0.226708
3607	0	0.329937
3608	0	0.386747
3609	0	0.46028
3610	0	0.372766
3611	0	0.39369
3612	0	0.400003
3613	0	0.403767
3614	0	0.333333
3615	0	0.25
3616	0	0.285714
3617	0	0.285714
3618	0	0.285714
3619	0	0.285714
3620	0	0.285714
3621	0	0.285714
3622	0	0.285714
3623	0	0.166667
3624	0	0.166667
3625	0	0.133333
3626	0	0.141026
3627	0	0.690453
3628	0	0.0555556
3629	0	0.0666667
3630	0	0.111111
3631	0	0.111111
3632	0	0.138889
3633	0	0.0879121
3634	0	0.0659341
3635	0	0.0879121
3636	0	0.142857
3637	0	0.43289
3638	0	0.434215
3639	0	0.380178
3640	0	0.357143
3641	0	0.222222
3642	0	0.222222
3643	0	0.277778
3644	0	0.244444
3645	0	0.166667
3646	0	0.179487
3647	0	0.395019
3648	0	0.0423529
3649	0	0.0531915
3650	0	0.357195
3651	0	0.359561
3652	0	0
3653	0	0.0357143
3654	0	0
3655	0	0
3656	0	0
3657	0	0
3658	0	0
3659	0	0
3660	0	0.38051
3661	0	0.142857
3662	0	0.142857
3663	0	0.0357143
3664	0	0.408739
3665	0	0.411134
3666	0	0.0909373
3667	0	0.290627
3668	0	0
3669	0	0
3670	0	0
3671	0	0.0695187
3672	0	0.0730838
3673	0	0.495556
3674	0	0.442745
3675	0	0.414099
3676	0	0.302162
3677	0	0.684627
3678	0	0.693553
3679	0	0.557586
3680	0	0.44751
3681	0	0.356082
3682	0	0.256116
3683	0	0.305214
3684	0	0.490394
3685	0	0.047619
3686	0	0.047619
3687	0	0.047619
3688	0	0.047619
3689	0	0.232221
3690	0	0
3691	0	0
3692	0	0
3693	0	0
3694	0	0
3695	0	0
3696	0	0
3697	0	0
3698	0	0
3699	0	0.346097
3700	0	0
3701	0	0
3702	0	0
3703	0	0
3704	0	0
3705	0	0.959791
3706	0	0
3707	0	0
3708	0	0
3709	0	0
3710	0	0
3711	0	0
3712	0	0
3713	0	0
3714	0	0
3715	0	0.545455
3716	0	1
3717	0	1
3718	0	1
3719	0	0.985082
3720	0	0.985096
3721	0	0.985096
3722	0	0.985096
3723	0	0.985096
3724	0	0.983256
3725	0	0.983256
3726	0	0
3727	0	0
3728	0	0
3729	0	0
3730	0	0
3731	0	0
3732	0	0
3733	0	0
3734	0	0
3735	0	0
3736	0	0
3737	0	0
3738	0	0
3739	0	0
3740	0	0
3741	0	0
3742	0	0
3743	0	0
3744	0	0
3745	0	0
3746	0	0
3747	0	0
3748	0	0
3749	0	0
3750	0	0
3751	0	0
3752	0	0
3753	0	0
3754	0	0
3755	0	0
3756	0	0
3757	0	0
3758	0	0
3759	0	0
3760	0	0
3761	0	0
3762	0	0
3763	0	0
3764	0	0
3765	0	0
3766	0	0
3767	0	0
3768	0	0
3769	0	0
3770	0	0
3771	0	0
3772	0	0
3773	0	0
3774	0	0
3775	0	0
3776	0	0
3777	0	0
3778	0	0
3779	0	0
3780	0	0
3781	0	0
3782	0	0
3783	0	0
3784	0	0
3785	0	0
3786	0	0
3787	0	0
3788	0	0
3789	0	0
3790	0	0
3791	0	0
3792	0	0
3793	0	0
3794	0	0
3795	0	0
3796	0	0
3797	0	0
3798	0	0
3799	0	0
3800	0	0
3801	0	0
3802	0	0
3803	0	0
3804	0	0
3805	0	0
3806	0	0
3807	0	0
3808	0	0
3809	0	0
3810	0	0
3811	0	0
3812	0	0
3813	0	0
3814	0	0
3815	0	0
3816	0	0
3817	0	0
3818	0	0
3819	0	0
3820	0	0
3821	0	0
3822	0	0
3823	0	0
3824	0	0
3825	0	0
3826	0	0
3827	0	0
3828	0	0
3829	0	0
3830	0	0
3831	0	0
3832	0	0
3833	0	0
3834	0	0
3835	0	0
3836	0	0
3837	0	0
3838	0	0
3839	0	0
3840	0	0
3841	0	0
3842	0	0
3843	0	0
3844	0	0
3845	0	0
3846	0	0
3847	0	0
3848	0	0
3849	0	0
3850	0	0
3851	0	0
3852	0	0
3853	0	0
3854	0	0
3855	0	0
3856	0	0
3857	0	0
3858	0	0
3859	0	0
3860	0	0
3861	0	0
3862	0	0
3863	0	0
3864	0	0
3865	0	0
3866	0	0
3867	0	0
3868	0	0
3869	0	0
3870	0	0
3871	0	0
3872	0	0
3873	0	0
3874	0	0
3875	0	0
3876	0	0
3877	0	0
3878	0	0
3879	0	0
3880	0	0
3881	0	0
3882	0	0
3883	0	0
3884	0	0
3885	0	0
3886	0	0
3887	0	0
3888	0	0
3889	0	0
3890	0	0
3891	0	0
3892	0	0
3893	0	0
3894	0	0
3895	0	0
3896	0	0
3897	0	0
3898	0	0
3899	0	0
3900	0	0
3901	0	0
3902	0	0
3903	0	0
3904	0	0
3905	0	0
3906	0	0
3907	0	0
3908	0	0
3909	0	0
3910	0	0
3911	0	0
3912	0	0
3913	0	0
3914	0	0
3915	0	0
3916	0	0
3917	0	0
3918	0	0
3919	0	0
3920	0	0
3921	0	0
3922	0	0
3923	0	0
3924	0	0
3925	0	0
3926	0	0
3927	0	0
3928	0	0
3929	0	0
3930	0	0
3931	0	0
3932	0	0
3933	0	0
3934	0	0
3935	0	0
3936	0	0
3937	0	0
3938	0	0
3939	0	0
3940	0	0
3941	0	0
3942	0	0
3943	0	0
3944	0	0
3945	0	0
3946	0	0
3947	0	0
3948	0	0
3949	0	0
3950	0	0
3951	0	0
3952	0	0
3953	0	0
3954	0	0
3955	0	0
3956	0	0
3957	0	0
3958	0	0
3959	0	0
3960	0	0
3961	0	0
3962	0	0
3963	0	0
3964	0	0
3965	0	0
3966	0	0
3967	0	0
3968	0	0
3969	0	0
3970	0	0
3971	0	0
3972	0	0
3973	0	0
3974	0	0
3975	0	0
3976	0	0
3977	0	0
3978	0	0
3979	0	0
3980	0	0
3981	0	0
3982	0	0
3983	0	0
3984	0	0
3985	0	0
3986	0	0
3987	0	0
3988	0	0
3989	0	0
3990	0	0
3991	0	0
3992	0	0
3993	0	0
3994	0	0
3995	0	0
3996	0	0
3997	0	0
3998	0	0
3999	0	0
4000	0	0
4001	0	0
4002	0	0
4003	0	0
4004	0	0
4005	0	0
4006	0	0
4007	0	0
4008	0	0
4009	0	0
4010	0	0
4011	0	0
4012	0	0
4013	0	0
4014	0	0
4015	0	0
4016	0	0
4017	0	0
4018	0	0
4019	0	0
4020	0	0
4021	0	0
4022	0	0
4023	0	0
4024	0	0
4025	0	0
4026	0	0
4027	0	0
4028	0	0
4029	0	0
4030	0	0
4031	0	0
4032	0	0
4033	0	0
4034	0	0
4035	0	0
4036	0	0
4037	0	0
4038	0	0
4039	0	0
4040	0	0
4041	0	0
4042	0	0
4043	0	0
4044	0	0
4045	0	0
4046	0	0
4047	0	0
4048	0	0
4049	0	0
4050	0	0
4051	0	0
4052	0	0
4053	0	0
4054	0	0
4055	0	0
4056	0	0
4057	0	0
4058	0	0
4059	0	0
4060	0	0
4061	0	0
4062	0	0
4063	0	0
4064	0	0
4065	0	0
4066	0	0
4067	0	0
4068	0	0
4069	0	0
4070	0	0
4071	0	0
4072	0	0
4073	0	0
4074	0	0
4075	0	0
4076	0	0
4077	0	0
4078	0	0
4079	0	0
4080	0	0
4081	0	0
4082	0	0
4083	0	0
4084	0	0
4085	0	0
4086	0	0
4087	0	0
4088	0	0
4089	0	0
4090	0	0
4091	0	0
4092	0	0
4093	0	0
4094	0	0
4095	0	0
4096	0	0
4097	0	0
4098	0	0
4099	0	0
4100	0	0
4101	0	0
4102	0	0
4103	0	0
4104	0	0
4105	0	0
4106	0	0
4107	0	0
4108	0	0
4109	0	0
4110	0	0
4111	0	0
4112	0	0
4113	0	0
4114	0	0
4115	0	0
4116	0	0
4117	0	0
4118	0	0
4119	0	0
4120	0	0
4121	0	0
4122	0	0
4123	0	0
4124	0	0
4125	0	0
4126	0	0
4127	0	0
4128	0	0
4129	0	0
4130	0	0
4131	0	0
4132	0	0
4133	0	0
4134	0	0
4135	0	0
4136	0	0
4137	0	0
4138	0	0
4139	0	0
4140	0	0
4141	0	0
4142	0	0
4143	0	0
4144	0	0
4145	0	0
4146	0	0
4147	0	0
4148	0	0
4149	0	0
4150	0	0
4151	0	0
4152	0	0
4153	0	0
4154	0	0
4155	0	0
4156	0	0
4157	0	0
4158	0	0
4159	0	0
4160	0	0.985096
4161	0	0.985096
4162	0	0.985096
4163	0	0.947368
4164	0	0.630319
4165	0	0.598404
4166	0	0.590426
4167	0	0.893511
4168	0	0.720798
4169	0	0.660969
4170	0	0.660969
4171	0	0.415175
4172	0	0.220728
4173	0	0.166667
4174	0	0.107143
4175	0	0.107143
4176	0	0.107143
4177	0	0.247368
4178	0	0.111111
4179	0	0.0909091
4180	0	0.111111
4181	0	0.0888889
4182	0	0.0916667
4183	0	0.150246
4184	0	0.146179
4185	0	0.355538
4186	0	0.363636
4187	0	0.332016
4188	0	0.185383
4189	0	0.281104
4190	0	0.45072
4191	0	0.43265
4192	0	0.406149
4193	0	0.159549
4194	0	0.158373
4195	0	0.45098
4196	0	0.20915
4197	0	0.208333
4198	0	0.20915
4199	0	0.246009
4200	0	0.171192
4201	0	0.126485
4202	0	0.129462
4203	0	0.148476
4204	0	0.180992
4205	0	0.131243
4206	0	0.131243
4207	0	0.103594
4208	0	0.10101
4209	0	0.109589
4210	0	0.102848
4211	0	0.0970329
4212	0	0.0906367
4213	0	0.153639
4214	0	0.284324
4215	0	0.288187
4216	0	0.119512
4217	0	0.0840841
4218	0	0.103175
4219	0	0.122984
4220	0	0.255411
4221	0	0.188232
4222	0	0.194477
4223	0	0.371668
4224	0	0.269479
4225	0	0.268529
4226	0	0.0666667
4227	0	0.0666667
4228	0	0.0666667
4229	0	0.142857
4230	0	0.0879121
4231	0	0.0573171
4232	0	0.025641
4233	0	0.181818
4234	0	0.144385
4235	0	0.0944669
4236	0	0.265946
4237	0	0.265448
4238	0	0.675252
4239	0	0.395733
4240	0	0.286534
4241	0	0.139961
4242	0	0.0793934
4243	0	0.0222222
4244	0	0
4245	0	0
4246	0	0
4247	0	0.010989
4248	0	0.0441176
4249	0	0.208333
4250	0	0.310609
4251	0	0.246516
4252	0	0.198686
4253	0	0.174523
4254	0	0.197481
4255	0	0.197613
4256	0	0.119126
4257	0	0.181441
4258	0	0.181622
4259	0	0.20089
4260	0	0.194218
4261	0	0.125307
4262	0	0.126706
4263	0	0.132512
4264	0	0.143064
4265	0	0.118552
4266	0	0.114165
4267	0	0.130682
4268	0	0.155172
4269	0	0.16
4270	0	0.269297
4271	0	0.272791
4272	0	0.495984
4273	0	0.415147
4274	0	0.428939
4275	0	0.446351
4276	0	0.0769231
4277	0	0.0879121
4278	0	0.350649
4279	0	0
4280	0	0
4281	0	0
4282	0	0
4283	0	0
4284	0	0
4285	0	0
4286	0	0
4287	0	0
4288	0	0
4289	0	0
4290	0	0.2
4291	0	0.364738
4292	0	0.257692
4293	0	0.373077
4294	0	0.39359
4295	0	0.415385
4296	0	0.428283
4297	0	0.503203
4298	0	0.503211
4299	0	0.503209
4300	0	0.501321
4301	0	0.498315
4302	0	0.890476
4303	0	0.595376
4304	0	0.380172
4305	0	0.373884
4306	0	0.3
4307	0	0.166667
4308	0	0.166667
4309	0	0.166667
4310	0	0.166667
4311	0	0.166667
4312	0	0.166667
4313	0	0.166667
4314	0	0
4315	0	0
4316	0	0
4317	0	0
4318	0	0
4319	0	0
4320	0	0.269006
4321	0	0.303272
4322	0	0
4323	0	0
4324	0	0
4325	0	0
4326	0	0
4327	0	0
4328	0	0
4329	0	0
4330	0	0
4331	0	0
4332	0	0
4333	0	0
4334	0	0
4335	0	0
4336	0	0
4337	0	0
4338	0	0
4339	0	0
4340	0	0.428571
4341	0	0.428571
4342	0	0.428571
4343	0	0
4344	0	0
4345	0	0
4346	0	0
4347	0	0
4348	0	0
4349	0	0
4350	0	0
4351	0	0
4352	0	0.3
4353	0	0.375
4354	0	0.375
4355	0	0
4356	0	0
4357	0	0
4358	0	0.1
4359	0	0.1
4360	0	0.1
4361	0	0
4362	0	0
4363	0	0
4364	0	0
4365	0	0
4366	0	0
4367	0	0
4368	0	0
4369	0	0
4370	0	0
4371	0	0
4372	0	0
4373	0	0.0357143
4374	0	0.0444444
4375	0	0.0363636
4376	0	0.030303
4377	0	0.270936
4378	0	0.199147
4379	0	0.15863
4380	0	0.133333
4381	0	0.134831
4382	0	0.12421
4383	0	0.149327
4384	0	0.238945
4385	0	0.214502
4386	0	0.186928
4387	0	0.188337
4388	0	0.176197
4389	0	0.169462
4390	0	0.1374
4391	0	0.263736
4392	0	0.502736
4393	0	0.652529
4394	0	0.371616
4395	0	0.208451
4396	0	0.281573
4397	0	0.075
4398	0	0.0583333
4399	0	0.0666667
4400	0	0.0857143
4401	0	0.166667
4402	0	0.166667
4403	0	0.416667
4404	0	0.416667
4405	0	0.535714
4406	0	0.535714
4407	0	0.535714
4408	0	0.535714
4409	0	0.681818
4410	0	0.681818
4411	0	0.681818
4412	0	0.681818
4413	0	0.402144
4414	0	0.414252
4415	0	0.0316206
4416	0	0.0368421
4417	0	0.0526316
4418	0	0.0588235
4419	0	0.108333
4420	0	0.108333
4421	0	0.15
4422	0	0.15
4423	0	0.455502
4424	0	0.391129
4425	0	0.0606061
4426	0	0.0909091
4427	0	0.121212
4428	0	0.185185
4429	0	0.865786
4430	0	0.223077
4431	0	0.234818
4432	0	0.505495
4433	0	0.615385
4434	0	0.944438
4435	0	0.948104
4436	0	0.948104
4437	0	0.948104
4438	0	0.948104
4439	0	0
4440	0	0
4441	0	0
4442	0	0
4443	0	0
4444	0	0
4445	0	0
4446	0	0
4447	0	0
4448	0	0
4449	0	0
4450	0	0
4451	0	0
4452	0	0
4453	0	0
4454	0	0
4455	0	0
4456	0	0
4457	0	0
4458	0	0
4459	0	0
4460	0	0
4461	0	0
4462	0	0
4463	0	0
4464	0	0
4465	0	0
4466	0	0
4467	0	0
4468	0	0
4469	0	0
4470	0	0
4471	0	0
4472	0	0
4473	0	0
4474	0	0
4475	0	0
4476	0	0.5
4477	0	0.3
4478	0	0.3
4479	0	0.835038
4480	0	0.829479
4481	0	0.624675
4482	0	0.852369
4483	0	0.474505
4484	0	0.474505
4485	0	0.854701
4486	0	0.854701
4487	0	0
4488	0	0
4489	0	0.813518
4490	0	0.813518
4491	0	0.4
4492	0	0.4
4493	0	0.4
4494	0	0.808785
4495	0	0.807414
4496	0	0.810753
4497	0	0.535714
4498	0	0.214286
4499	0	0.142857
4500	0	0.216667
4501	0	0.1
4502	0	0.0882353
4503	0	0
4504	0	0.864488
4505	0	0.5
4506	0	0.266667
4507	0	0.266667
4508	0	0.4
4509	0	0.5
4510	0	0.2
4511	0	0.155556
4512	0	0.155556
4513	0	0.166667
4514	0	0.706159
4515	0	0.705815
4516	0	0.57764
4517	0	0.57764
4518	0	0.57764
4519	0	0.57764
4520	0	0.566046
4521	0	0.535818
4522	0	0.520911
4523	0	0.614902
4524	0	0.461538
4525	0	0.545455
4526	0	0.545455
4527	0	0.545455
4528	0	0.545455
4529	0	0.545455
4530	0	0.4
4531	0	0.216667
4532	0	0.15
4533	0	0.132353
4534	0	0.132353
4535	0	0.354186
4536	0	0.297655
4537	0	0.305766
4538	0	0.307692
4539	0	0.325966
4540	0	0.267159
4541	0	0.225171
4542	0	0.229315
4543	0	0.15192
4544	0	0.156566
4545	0	0.176557
4546	0	0.181052
4547	0	0.191245
4548	0	0.188497
4549	0	0.197014
4550	0	0.179933
4551	0	0.194805
4552	0	0.20202
4553	0	0.235102
4554	0	0.263645
4555	0	0.306755
4556	0	0.321719
4557	0	0.353846
4558	0	0.36611
4559	0	0.459367
4560	0	0.464537
4561	0	0.298175
4562	0	0.27512
4563	0	0.20463
4564	0	0.204154
4565	0	0.223784
4566	0	0.241408
4567	0	0.248082
4568	0	0.292883
4569	0	0.320904
4570	0	0.342408
4571	0	0.503171
4572	0	0.141026
4573	0	0.0357143
4574	0	0.047619
4575	0	0.0666667
4576	0	0.1
4577	0	0.0666667
4578	0	0.1
4579	0	0.1
4580	0	0
4581	0	0
4582	0	0
4583	0	0
4584	0	0
4585	0	0
4586	0	0
4587	0	0
4588	0	0.0571429
4589	0	0.123077
4590	0	0.12766
4591	0	0.153846
4592	0	0.204758
4593	0	0.298769
4594	0	0.314381
4595	0	0.42101
4596	0	0.440185
4597	0	0.580062
4598	0	0.580062
4599	0	0.862613
4600	0	0.847819
4601	0	0.85367
4602	0	0.4
4603	0	0.2
4604	0	0.2
4605	0	0.2
4606	0	0.2
4607	0	0.2
4608	0	0.2
4609	0	0
4610	0	0
4611	0	0
4612	0	0
4613	0	0
4614	0	0
4615	0	0
4616	0	0
4617	0	0
4618	0	0
4619	0	0
4620	0	0
4621	0	0
4622	0	0
4623	0	0
4624	0	0
4625	0	0
4626	0	0.535778
4627	0	0.185757
4628	0	0.635901
4629	0	0.818643
4630	0	0.187302
4631	0	0.196825
4632	0	0.222222
4633	0	0.687395
4634	0	0.846373
4635	0	0.905923
4636	0	0.929562
4637	0	0.929623
4638	0	0.476667
4639	0	0.25
4640	0	0.25
4641	0	0.25
4642	0	0.25
4643	0	0.4
4644	0	0.4
4645	0	0.4
4646	0	0.4
4647	0	0.4
4648	0	0.535714
4649	0	0.979382
4650	0	0.979401
4651	0	0.981247
4652	0	0.981265
4653	0	0.981265
4654	0	0.98497
4655	0	0.988695
4656	0	0.988685
4657	0	0
4658	0	0
4659	0	0
4660	0	0
4661	0	0
4662	0	0
4663	0	0
4664	0	0
4665	0	0
4666	0	0
4667	0	0
4668	0	0
4669	0	0
4670	0	0
4671	0	0
4672	0	0
4673	0	0
4674	0	0
4675	0	0
4676	0	0
4677	0	0
4678	0	0
4679	0	0
4680	0	0
4681	0	0
4682	0	0
4683	0	0
4684	0	0
4685	0	0
4686	0	0
4687	0	0
4688	0	0
4689	0	0
4690	0	0
4691	0	0
4692	0	0
4693	0	0
4694	0	0
4695	0	0
4696	0	0
4697	0	0
4698	0	0
4699	0	0
4700	0	0
4701	0	0
4702	0	0
4703	0	0
4704	0	0
4705	0	0
4706	0	0
4707	0	0
4708	0	0
4709	0	0
4710	0	0
4711	0	0
4712	0	0
4713	0	0
4714	0	0
4715	0	0
4716	0	0
4717	0	0
4718	0	0
4719	0	0
4720	0	0
4721	0	0
4722	0	0
4723	0	0
4724	0	0
4725	0	0
4726	0	0
4727	0	0
4728	0	0
4729	0	0
4730	0	0
4731	0	0
4732	0	0
4733	0	0
4734	0	0
4735	0	0
4736	0	0
4737	0	0
4738	0	0
4739	0	0
4740	0	0
4741	0	0
4742	0	0
4743	0	0
4744	0	0
4745	0	0
4746	0	0
4747	0	0
4748	0	0
4749	0	0
4750	0	0
4751	0	0
4752	0	0
4753	0	0
4754	0	0
4755	0	0
4756	0	0
4757	0	0
4758	0	0
4759	0	0
4760	0	0
4761	0	0
4762	0	0
4763	0	0
4764	0	0
4765	0	0
4766	0	0
4767	0	0
4768	0	0
4769	0	0
4770	0	0
4771	0	0
4772	0	0
4773	0	0
4774	0	0
4775	0	0
4776	0	0
4777	0	0
4778	0	0
4779	0	0
4780	0	0
4781	0	0
4782	0	0
4783	0	0
4784	0	0
4785	0	0
4786	0	0
4787	0	0
4788	0	0
4789	0	0
4790	0	0
4791	0	0
4792	0	0
4793	0	0
4794	0	0
4795	0	0
4796	0	0
4797	0	0
4798	0	0
4799	0	0
4800	0	0
4801	0	0
4802	0	0
4803	0	0
4804	0	0
4805	0	0
4806	0	0
4807	0	0
4808	0	0
4809	0	0
4810	0	0
4811	0	0
4812	0	0
4813	0	0
4814	0	0
4815	0	0
4816	0	0
4817	0	0
4818	0	0
4819	0	0
4820	0	0
4821	0	0
4822	0	0
4823	0	0
4824	0	0
4825	0	0
4826	0	0
4827	0	0
4828	0	0
4829	0	0
4830	0	0
4831	0	0
4832	0	0
4833	0	0
4834	0	0
4835	0	0
4836	0	0
4837	0	0
4838	0	0
4839	0	0
4840	0	0
4841	0	0
4842	0	0
4843	0	0
4844	0	0
4845	0	0
4846	0	0
4847	0	0
4848	0	0
4849	0	0
4850	0	0
4851	0	0
4852	0	0
4853	0	0
4854	0	0
4855	0	0
4856	0	0
4857	0	0
4858	0	0
4859	0	0
4860	0	0
4861	0	0
4862	0	0
4863	0	0
4864	0	0
4865	0	0
4866	0	0
4867	0	0.98123
4868	0	0.98123
4869	0	0.98123
4870	0	0.98123
4871	0	0.983083
4872	0	0.950726
4873	0	0.644837
4874	0	0
4875	0	0
4876	0	0
4877	0	0
4878	0	0
4879	0	0
4880	0	0
4881	0	0
4882	0	0
4883	0	0
4884	0	0
4885	0	0
4886	0	0
4887	0	0
4888	0	0
4889	0	0
4890	0	0
4891	0	0
4892	0	0
4893	0	0
4894	0	0
4895	0	0
4896	0	0
4897	0	0
4898	1	0
4899	1	0
4900	1	0
4901	1	0
4902	1	0
4903	1	0
4904	1	0
4905	1	0
4906	1	0
4907	1	0
4908	1	0
4909	1	0
4910	1	0
4911	1	0
4912	1	0
4913	0	0
4914	0	0
4915	0	0
4916	0	0
4917	0	0
4918	0	0
4919	0	0
4920	0	0
4921	0	0
4922	0	0
4923	0	0
4924	1	0
4925	1	0
4926	1	0
4927	1	0
4928	0	0
4929	0	0
4930	0	0.655565
4931	0	0.657034
4932	0	0.657273
4933	0	0.984927
4934	0	0.983051
4935	0	0.983051
4936	0	0.535714
4937	0	0.714286
4938	0	0.6
4939	0	0.166667
4940	0	0.968174
4941	0	0.964463
4942	0	0.960764
4943	0	1
4944	0	0.736264
4945	0	0.69697
4946	0	0
4947	0	0
4948	0	0
4949	0	0.424242
4950	0	0.318182
4951	0	0.318182
4952	0	0.166667
4953	0	0
4954	0	0
4955	0	0
4956	0	0
4957	0	0
4958	0	0
4959	0	0
4960	0	0
4961	0	0
4962	0	0
4963	0	0
4964	0	0.760368
4965	0	1
4966	0	0
4967	0	0
4968	0	0
4969	0	0
4970	0	0
4971	0	0
4972	0	0
4973	0	0
4974	0	0
4975	0	0
4976	0	0
4977	0	0
4978	0	0
4979	0	0
4980	0	0
4981	0	0
4982	0	0
4983	0	0
4984	0	0
4985	0	0
4986	0	0
4987	0	0
4988	0	0
4989	0	0.419384
4990	0	0
4991	0	0
4992	0	0
4993	0	0
4994	0	0
4995	0	0
4996	0	0
4997	0	0
4998	0	0
4999	0	0
5000	0	0
5001	0	0
5002	0	0
5003	0	0
5004	0	0
5005	0	0
5006	0	0
5007	0	0
5008	0	0
5009	0	0
5010	0	0
5011	0	0
5012	0	0
5013	0	0
5014	0	0
5015	0	0
5016	0	0
5017	0	0
5018	0	0
5019	0	0
5020	0	0
5021	0	0
5022	0	0
5023	0	0
5024	0	0
5025	0	0
5026	0	0
5027	0	0
5028	0	0
5029	0	0
5030	0	0
5031	0	0
5032	0	0
5033	0	0
5034	0	0
5035	0	0
5036	0	0
5037	0	0
5038	0	0
5039	0	0
5040	0	0
5041	0	0
5042	0	0
5043	0	0
5044	0	0
5045	0	0
5046	0	0.0357143
5047	0	0.352632
5048	0	0.0444444
5049	0	0.0444444
5050	0	0.0444444
5051	0	0.0444444
5052	0	0.0444444
5053	0	0.0879121
5054	0	0.0879121
5055	0	0.102564
5056	0	0.0897436
5057	0	0.0666667
5058	0	0.0583333
5059	0	0.0583333
5060	0	0.0583333
5061	0	0.0514706
5062	0	0.0514706
5063	0	0.0514706
5064	0	0.0514706
5065	0	0.0457516
5066	0	0.122222
5067	0	0.0529101
5068	0	0.0523077
5069	0	0.0523077
5070	0	0.0553846
5071	0	0.039886
5072	0	0.037037
5073	0	0.0344828
5074	0	0.059744
5075	0	0.0585586
5076	0	0.0291005
5077	0	0.0270936
5078	0	0.032197
5079	0	0.030303
5080	0	0.030303
5081	0	0.030303
5082	0	0.0499419
5083	0	0.0540541
5084	0	0.0483642
5085	0	0.0426743
5086	0	0.0455192
5087	0	0.0567308
5088	0	0.155556
5089	0	0.127273
5090	0	0.127273
5091	0	0.127273
5092	0	0.127273
5093	0	0.106061
5094	0	0.106061
5095	0	0.106061
5096	0	0.0897436
5097	0	0.0897436
5098	0	0.0897436
5099	0	0.0897436
5100	0	0.0897436
5101	0	0.0897436
5102	0	0.0897436
5103	0	0.0833333
5104	0	0.111111
5105	0	0.111111
5106	0	0.0947368
5107	0	0.0947368
5108	0	0.108046
5109	0	0.106061
5110	0	0.105263
5111	0	0.0829268
5112	0	0.0707071
5113	0	0.076679
5114	0	0.0720497
5115	0	0.090495
5116	0	0.102723
5117	0	0.101981
5118	0	0.0921934
5119	0	0.0800235
5120	0	0.0760864
5121	0	0.0711333
5122	0	0.0623093
5123	0	0.0557948
5124	0	0.0517633
5125	0	0.0492308
5126	0	0.0505153
5127	0	0.0496176
5128	0	0.0546571
5129	0	0.0699323
5130	0	0.07986
5131	0	0.0761124
5132	0	0.126125
5133	0	0.131954
5134	0	0.170509
5135	0	0.183601
5136	0	0.165807
5137	0	0.2108
5138	0	0.320284
5139	0	0.390896
5140	0	0.385355
5141	0	0.401124
5142	0	0
5143	0	0
5144	0	0.0357143
5145	0	0.0357143
5146	0	0.0714286
5147	0	0.0714286
5148	0	0.0357143
5149	0	0.0357143
5150	0	0.0357143
5151	0	0.0357143
5152	0	0.0357143
5153	0	0.0357143
5154	0	0.0277778
5155	0	0.0277778
5156	0	0.0277778
5157	0	0.0277778
5158	0	0.0444444
5159	0	0.453441
5160	0	0.0555556
5161	0	0.142857
5162	0	0.142857
5163	0	0.194444
5164	0	0.318681
5165	0	0.318681
5166	0	0.826275
5167	0	0.510582
5168	0	0.588506
5169	0	0.744745
5170	0	0.414902
5171	0	0.82768
5172	0	0.795631
5173	0	0.850308
5174	0	0.948394
5175	0	0.973708
5176	0	0.975576
5177	0	0.98678
5178	0	0.988653
5179	0	0.988653
5180	0	0.98678
5181	0	0.98678
5182	0	0.98678
5183	0	0.984913
5184	0	0.983051
5185	0	0.983051
5186	0	0
5187	0	0
5188	0	0
5189	0	0
5190	0	0
5191	0	0
5192	0	0
5193	0	0
5194	0	0
5195	0	0
5196	0	0
5197	0	0
5198	0	0
5199	0	0
5200	0	0
5201	0	0
5202	0	0
5203	0	0
5204	0	0
5205	0	0
5206	0	0
5207	0	0
5208	0	0
5209	0	0
5210	0	0
5211	0	0
5212	0	0
5213	0	0
5214	0	0
5215	0	0
5216	0	0
5217	0	0
5218	0	0
5219	0	0
5220	0	0
5221	0	0
5222	0	0
5223	0	0
5224	0	0
5225	0	0
5226	0	0
5227	0	0
5228	0	0
5229	0	0
5230	0	0
5231	0	0
5232	0	0
5233	0	0
5234	0	0
5235	0	0
5236	0	0
5237	0	0
5238	0	0
5239	0	0
5240	0	0
5241	0	0
5242	0	0
5243	0	0
5244	0	0
5245	0	0
5246	0	0
5247	0	0
5248	0	0
5249	0	0
5250	0	0
5251	0	0
5252	0	0.983019
5253	0	0.983003
5254	0	0.983003
5255	0	0.983003
5256	0	0.983003
5257	0	0.983003
5258	0	0.973747
5259	0	0.973747
5260	0	0
5261	0	0
5262	0	0
5263	0	0
5264	0	0
5265	0	0
5266	0	0
5267	0	0
5268	0	0
5269	0	0
5270	0	0
5271	0	0
5272	0	0
5273	0	0
5274	0	0
5275	0	0
5276	0	0
5277	0	0
5278	0	0
5279	0	0
5280	0	0
5281	0	0
5282	0	0
5283	0	0
5284	0	0
5285	0	0
5286	0	0
5287	0	0
5288	0	0
5289	0	0
5290	0	0
5291	0	0
5292	0	0
5293	0	0
5294	0	0
5295	0	0
5296	0	0
5297	0	0
5298	0	0
5299	0	0
5300	0	0
5301	0	0
5302	0	0
5303	0	0
5304	0	0
5305	0	0
5306	0	0
5307	0	0
5308	0	0
5309	0	0
5310	0	0
5311	0	0
5312	0	0
5313	0	0
5314	0	0
5315	0	0
5316	0	0
5317	0	0
5318	0	0
5319	0	0
5320	0	0
5321	0	0
5322	0	0
5323	0	0
5324	0	0
5325	0	0
5326	0	0
5327	0	0
5328	0	0
5329	0	0
5330	0	0
5331	0	0
5332	0	0
5333	0	0
5334	0	0
5335	0	0
5336	0	0
5337	0	0
5338	0	0
5339	0	0
5340	0	0
5341	0	0
5342	0	0
5343	0	0.970025
5344	0	0.333333
5345	0	0.333333
5346	0	0.333333
5347	0	0
5348	0	0
5349	0	0
5350	0	0
5351	0	0.966247
5352	0	0.809072
5353	0	0.285714
5354	0	0.285714
5355	0	0.2
5356	0	0.3
5357	0	0.1
5358	0	0.0666667
5359	0	0.0666667
5360	0	0.0666667
5361	0	0.516975
5362	0	0
5363	0	0
5364	0	0
5365	0	0
5366	0	0
5367	0	0
5368	0	0
5369	0	0
5370	0	0
5371	0	0
5372	0	0
5373	0	0
5374	0	0
5375	0	0
5376	0	0
5377	0	0
5378	0	0
5379	0	0
5380	0	0
5381	0	0.440628
5382	0	0.887857
5383	0	0.351792
5384	0	0.445029
5385	0	0.382401
5386	0	0.859413
5387	0	0.925584
5388	0	0.934455
5389	0	0
5390	0	0
5391	0	0.909091
5392	0	0.909091
5393	0	0.977243
5394	0	0.975385
5395	0	0.973554
5396	0	0.973554
5397	0	0
5398	0	0
5399	0	0
5400	0	0
5401	0	0
5402	0	0
5403	0	0
5404	0	0
5405	0	0
5406	0	0
5407	0	0
5408	0	0
5409	0	0
5410	0	0
5411	0	0
5412	0	0
5413	0	0
5414	0	0
5415	0	0
5416	0	0
5417	0	0
5418	0	0
5419	0	0
5420	0	0
5421	0	0
5422	0	0
5423	0	0
5424	0	0
5425	0	0
5426	0	0
5427	0	0
5428	0	0
5429	0	0
5430	0	0
5431	0	0
5432	0	0
5433	0	0
5434	0	0
5435	0	0
5436	0	0
5437	0	0
5438	0	0
5439	0	0
5440	0	0
5441	0	0
5442	0	0
5443	0	0
5444	0	0
5445	0	0
5446	0	0
5447	0	0
5448	0	0
5449	0	0
5450	0	0
5451	0	0
5452	0	0
5453	0	0
5454	0	0
5455	0	0
5456	0	0
5457	0	0
5458	0	0
5459	0	0
5460	0	0
5461	0	0
5462	0	0
5463	0	0
5464	0	0.971646
5465	0	0.971646
5466	0	0
5467	0	0
5468	0	0
5469	0	0
5470	0	0
5471	0	0
5472	0	0
5473	0	0
5474	0	0
5475	0	0
5476	0	0
5477	0	0
5478	0	0
5479	0	0
5480	0	0
5481	0	0
5482	0	0
5483	0	0
5484	0	0
5485	0	0
5486	0	0
5487	0	0
5488	0	0
5489	0	0
5490	0	0
5491	0	0
5492	0	0
5493	0	0
5494	0	0
5495	0	0
5496	0	0
5497	0	0
5498	0	0
5499	0	0
5500	0	0
5501	0	0
5502	0	0
5503	0	0
5504	0	0
5505	0	0
5506	0	0
5507	0	0
5508	0	0
5509	0	0
5510	0	0
5511	0	0
5512	0	0
5513	0	0
5514	0	0
5515	0	0
5516	0	0
5517	0	0
5518	0	0
5519	0	0
5520	0	0
5521	0	0
5522	0	0
5523	0	0
5524	0	0
5525	0	0
5526	0	0
5527	0	0
5528	0	0
5529	0	0
5530	0	0
5531	0	0
5532	0	0
5533	0	0
5534	0	0
5535	0	0
5536	0	0
5537	0	0
5538	0	0
5539	0	0
5540	0	0
5541	0	0
5542	0	0
5543	0	0
5544	0	0
5545	0	0
5546	0	0
5547	0	0
5548	0	0
5549	0	0
5550	0	0
5551	0	0
5552	0	0
5553	0	0.1
5554	0	0.1
5555	0	0.1
5556	0	0.1
5557	0	0.1
5558	0	0.1
5559	0	0
5560	0	0
5561	0	0
5562	0	0
5563	0	0
5564	0	0
5565	0	0
5566	0	0
5567	0	0
5568	0	0
5569	0	0
5570	0	0
5571	0	0
5572	0	0
5573	0	0
5574	0	0
5575	0	0
5576	0	0
5577	0	0
5578	0	0
5579	0	0
5580	0	0
5581	0	0
5582	0	0
5583	0	0
5584	0	0
5585	0	0
5586	0	0
5587	0	0
5588	0	0
5589	0	0
5590	0	0
5591	0	0
5592	0	0
5593	0	0
5594	0	0
5595	0	0
5596	0	0
5597	0	0
5598	0	0
5599	0	0
5600	0	0
5601	0	0
5602	0	0
5603	0	0
5604	0	0
5605	0	0
5606	0	0
5607	0	0
5608	0	0
5609	0	0
5610	0	0
5611	0	0
5612	0	0
5613	0	0
5614	0	0
5615	0	0
5616	0	0
5617	0	0
5618	0	0
5619	0	0
5620	0	0
5621	0	0
5622	0	0
5623	0	0
5624	0	0
5625	0	0
5626	0	0
5627	0	0
5628	0	0
5629	0	0
5630	0	0
5631	0	0
5632	0	0
5633	0	0
5634	0	0
5635	0	0
5636	0	0
5637	0	0
5638	0	0
5639	0	0
5640	0	0
5641	0	0
5642	0	0
5643	0	0
5644	0	0
5645	0	0
5646	0	0
5647	0	0
5648	0	0
5649	0	0
5650	0	0
5651	0	0
5652	0	0
5653	0	0
5654	0	0
5655	0	0
5656	0	0
5657	0	0
5658	0	0
5659	0	0
5660	0	0
5661	0	0
5662	0	0
5663	0	0
5664	0	0
5665	0	0
5666	0	0
5667	0	0
5668	0	0
5669	0	0
5670	0	0
5671	0	0
5672	0	0
5673	0	0
5674	0	0
5675	0	0
5676	0	0
5677	0	0
5678	0	0
5679	0	0
5680	0	0
5681	0	0
5682	0	0
5683	0	0
5684	0	0
5685	0	0
5686	0	0
5687	0	0
5688	0	0
5689	0	0
5690	0	0
5691	0	0
5692	0	0
5693	0	0
5694	0	0
5695	0	0
5696	0	0
5697	0	0
5698	0	0
5699	0	0
5700	0	0
5701	0	0
5702	0	0
5703	0	0
5704	0	0
5705	0	0
5706	0	0
5707	0	0
5708	0	0
5709	0	0
5710	0	0
5711	0	0
5712	0	0
5713	0	0
5714	0	0
5715	0	0
5716	0	0
5717	0	0
5718	0	0
5719	0	0
5720	0	0
5721	0	0
5722	0	0
5723	0	0
5724	0	0
5725	0	0
5726	0	0
5727	0	0
5728	0	0
5729	0	0
5730	0	0
5731	0	0
5732	0	0
5733	0	0
5734	0	0
5735	0	0
5736	0	0
5737	0	0
5738	0	0
5739	0	0
5740	0	0
5741	0	0
5742	0	0
5743	0	0
5744	0	0
5745	0	0
5746	0	0
5747	0	0
5748	0	0
5749	0	0
5750	0	0
5751	0	0
5752	0	0
5753	0	0
5754	0	0.964188
5755	0	0.962356
5756	0	0
5757	0	0
5758	0	0
5759	0	0
5760	0	0
5761	0	0
5762	0	0
5763	0	0
5764	0	0
5765	0	0
5766	0	0
5767	0	0
5768	0	0
5769	0	0
5770	0	0
5771	0	0
5772	0	0
5773	0	0
5774	0	0
5775	0	0
5776	0	0
5777	0	0
5778	0	0
5779	0	0
5780	0	0
5781	0	0
5782	0	0
5783	0	0
5784	0	0
5785	0	0
5786	0	0
5787	0	0
5788	0	0
5789	0	0
5790	0	0
5791	0	0
5792	0	0
5793	0	0
5794	0	0
5795	0	0.946062
5796	0	0.944178
5797	0	0
5798	0	0
5799	0	0
5800	0	0
5801	0	0
5802	0	0
5803	0	0
5804	0	0
5805	0	0
5806	0	0
5807	0	0
5808	0	0
5809	0	0
5810	0	0
5811	0	0
5812	0	0
5813	0	0
5814	0	0
5815	0	0
5816	0	0
5817	0	0
5818	0	0
5819	0	0
5820	0	0
5821	0	0
5822	0	0
5823	0	0
5824	0	0
5825	0	0
5826	0	0
5827	0	0
5828	0	0
5829	0	0
5830	0	0
5831	0	0
5832	0	0
5833	0	0
5834	0	0
5835	0	0
5836	0	0
5837	0	0
5838	0	0
5839	0	0
5840	0	0
5841	0	0
5842	0	0
5843	0	0
5844	0	0
5845	0	0
5846	0	0
5847	0	0
5848	0	0
5849	0	0
5850	0	0
5851	0	0
5852	0	0
5853	0	0
5854	0	0
5855	0	0
5856	0	0
5857	0	0
5858	0	0
5859	0	0
5860	0	0
5861	0	0
5862	0	0
5863	0	0
5864	0	0
5865	0	0
5866	0	0
5867	0	0
5868	0	0
5869	0	0
5870	0	0
5871	0	0
5872	0	0
5873	0	0
5874	0	0
5875	0	0
5876	0	0
5877	0	0
5878	0	0
5879	0	0
5880	0	0
5881	0	0
5882	0	0
5883	0	0
5884	0	0
5885	0	0
5886	0	0
5887	0	0
5888	0	0
5889	0	0
5890	0	0
5891	0	0
5892	0	0
5893	0	0
5894	0	0
5895	0	0
5896	0	0
5897	0	0
5898	0	0
5899	0	0
5900	0	0
5901	0	0
5902	0	0
5903	0	0
5904	0	0
5905	0	0
5906	0	0
5907	0	0
5908	0	0
5909	0	0
5910	0	0
5911	0	0
5912	0	0
5913	0	0
5914	0	0
5915	0	0
5916	0	0
5917	0	0
5918	0	0
5919	0	0
5920	0	0
5921	0	0
5922	0	0
5923	0	0
5924	0	0
5925	0	0
5926	0	0
5927	0	0
5928	0	0
5929	0	0
5930	0	0
5931	0	0.0151515
5932	0	0.0151515
5933	0	0.0128205
5934	0	0.0128205
5935	0	0.010989
5936	0	0.010989
5937	0	0.010989
5938	0	0.010989
5939	0	0.942612
5940	0	0.154412
5941	0	0.154412
5942	0	0.161765
5943	0	0.0735294
5944	0	0.0619048
5945	0	0.0619048
5946	0	0.0578947
5947	0	0.0326797
5948	0	0.0261438
5949	0	0.0333333
5950	0	0.0584795
5951	0	0.0653595
5952	0	0.0526316
5953	0	0.0526316
5954	0	0.038961
5955	0	0.04329
5956	0	0.0395257
5957	0	0.900139
5958	0	0.909646
5959	0	0.133333
5960	0	0.133333
5961	0	0.0978836
5962	0	0.0883191
5963	0	0.09
5964	0	0.09
5965	0	0.09
5966	0	0.101449
5967	0	0.0988142
5968	0	0.0294118
5969	0	0.021978
5970	0	0.021978
5971	0	0.025641
5972	0	0.025641
5973	0	0.025641
5974	0	0.0181818
5975	0	0.0181818
5976	0	0.0181818
5977	0	0.0181818
5978	0	0.0181818
5979	0	0.0181818
5980	0	0.0181818
5981	0	0
5982	0	0
5983	0	0
5984	0	0
5985	0	0
5986	0	0
5987	0	0
5988	0	0
5989	0	0
5990	0	0
5991	0	0
5992	0	0
5993	0	0
5994	0	0
5995	0	0
5996	0	0
5997	0	0
5998	0	0
5999	0	0
6000	0	0
6001	0	0
6002	0	0
6003	0	0
6004	0	0
6005	0	0
6006	0	0
6007	0	0
6008	0	0
6009	0	0
6010	0	0
6011	0	0
6012	0	0
6013	0	0
6014	0	0
6015	0	0
6016	0	0
6017	0	0
6018	0	0
6019	0	0
6020	0	0
6021	0	0
6022	0	0
6023	0	0
6024	0	0
6025	0	0
6026	0	0
6027	0	0
6028	0	0
6029	0	0
6030	0	0
6031	0	0
6032	0	0
6033	0	0
6034	0	0
6035	0	0
6036	0	0
6037	0	0
6038	0	0
6039	0	0
6040	0	0
6041	0	0
6042	0	0
6043	0	0
6044	0	0
6045	0	0
6046	0	0
6047	0	0
6048	0	0
6049	0	0
6050	0	0
6051	0	0
6052	0	0
6053	0	0
6054	0	0
6055	0	0
6056	0	0
6057	0	0
6058	0	0
6059	0	0
6060	0	0
6061	0	0
6062	0	0
6063	0	0
6064	0	0
6065	0	0
6066	0	0
6067	0	0
6068	0	0
6069	0	0
6070	0	0
6071	0	0
6072	0	0
6073	0	0
6074	0	0
6075	0	0
6076	0	0
6077	0	0
6078	0	0
6079	0	0
6080	0	0
6081	0	0
6082	0	0
6083	0	0
6084	0	0
6085	0	0
6086	0	0
6087	0	0
6088	0	0
6089	0	0
6090	0	0
6091	0	0
6092	0	0
6093	0	0
6094	0	0
6095	0	0
6096	0	0
6097	0	0
6098	0	0
6099	0	0
6100	0	0
6101	0	0
6102	0	0
6103	0	0
6104	0	0
6105	0	0
6106	0	0
6107	0	0
6108	0	0
6109	0	0
6110	0	0
6111	0	0
6112	0	0
6113	0	0
6114	0	0
6115	0	0
6116	0	0
6117	0	0
6118	0	0
6119	0	0
6120	0	0
6121	0	0
6122	0	0
6123	0	0
6124	0	0
6125	0	0
6126	0	0
6127	0	0
6128	0	0
6129	0	0
6130	0	0
6131	0	0
6132	0	0
6133	0	0
6134	0	0
6135	0	0
6136	0	0
6137	0	0
6138	0	0.943242
6139	0	0.922034
6140	0	0.187135
6141	0	0.169935
6142	0	0.154412
6143	0	0.190476
6144	0	0.190476
6145	0	0.2
6146	0	0.2
6147	0	0.133333
6148	0	0.0833333
6149	0	0.0833333
6150	0	0.0833333
6151	0	0.0277778
6152	0	0.0277778
6153	0	0.0277778
6154	0	0.0357143
6155	0	0.047619
6156	0	0
6157	0	0
6158	0	0
6159	0	0
6160	0	0
6161	0	0
6162	0	0
6163	0	0
6164	0	0
6165	0	0
6166	0	0
6167	0	0
6168	0	0
6169	0	0
6170	0	0
6171	0	0
6172	0	0
6173	0	0
6174	0	0
6175	0	0
6176	0	0
6177	0	0
6178	0	0
6179	0	0
6180	0	0
6181	0	0
6182	0	0
6183	0	0
6184	0	0
6185	0	0
6186	0	0
6187	0	0
6188	0	0
6189	0	0
6190	0	0
6191	0	0
6192	0	0
6193	0	0
6194	0	0
6195	0	0
6196	0	0
6197	0	0
6198	0	0
6199	0	0
6200	0	0
6201	0	0
6202	0	0
6203	0	0
6204	0	0
6205	0	0
6206	0	0
6207	0	0
6208	0	0
6209	0	0
6210	0	0
6211	0	0
6212	0	0
6213	0	0
6214	0	0
6215	0	0
6216	0	0
6217	0	0
6218	0	0
6219	0	0
6220	0	0
6221	0	0
6222	0	0
6223	0	0
6224	0	0
6225	0	0
6226	0	0
6227	0	0
6228	0	0
6229	0	0
6230	0	0
6231	0	0
6232	0	0
6233	0	0
6234	0	0
6235	0	0
6236	0	0
6237	0	0
6238	0	0
6239	0	0
6240	0	0
6241	0	0
6242	0	0
6243	0	0
6244	0	0
6245	0	0
6246	0	0
6247	0	0
6248	0	0
6249	0	0
6250	0	0
6251	0	0
6252	0	0
6253	0	0
6254	0	0
6255	0	0
6256	0	0
6257	0	0
6258	0	0
6259	0	0
6260	0	0
6261	0	0
6262	0	0
6263	0	0
6264	0	0
6265	0	0
6266	0	0
6267	0	0
6268	0	0
6269	0	0
6270	0	0
6271	0	0
6272	0	0
6273	0	0
6274	0	0
6275	0	0
6276	0	0
6277	0	0
6278	0	0
6279	0	0
6280	0	0
6281	0	0
6282	0	0
6283	0	0
6284	0	0
6285	0	0
6286	0	0
6287	0	0
6288	0	0
6289	0	0
6290	0	0
6291	0	0
6292	0	0
6293	0	0
6294	0	0
6295	0	0
6296	0	0
6297	0	0
6298	0	0
6299	0	0
6300	0	0
6301	0	0
6302	0	0
6303	0	0
6304	0	0
6305	0	0
6306	0	0
6307	0	0
6308	0	0
6309	0	0
6310	0	0
6311	0	0
6312	0	0
6313	0	0
6314	0	0
6315	0	0
6316	0	0
6317	0	0
6318	0	0
6319	0	0
6320	0	0
6321	0	0
6322	0	0
6323	0	0
6324	0	0
6325	0	0
6326	0	0
6327	0	0
6328	0	0
6329	0	0
6330	0	0
6331	0	0
6332	0	0
6333	0	0
6334	0	0
6335	0	0
6336	0	0
6337	0	0
6338	0	0
6339	0	0
6340	0	0
6341	0	0
6342	0	0
6343	0	0
6344	0	0
6345	0	0
6346	0	0
6347	0	0
6348	0	0
6349	0	0
6350	0	0
6351	0	0
6352	0	0
6353	0	0
6354	0	0
6355	0	0
6356	0	0
6357	0	0
6358	0	0
6359	0	0
6360	0	0
6361	0	0
6362	0	0
6363	0	0
6364	0	0
6365	0	0
6366	0	0
6367	0	0
6368	0	0
6369	0	0
6370	0	0
6371	0	0
6372	0	0
6373	0	0
6374	0	0
6375	0	0
6376	0	0
6377	0	0
6378	0	0
6379	0	0
6380	0	0
6381	0	0
6382	0	0
6383	0	0
6384	0	0
6385	0	0
6386	0	0
6387	0	0
6388	0	0
6389	0	0
6390	0	0
6391	0	0
6392	0	0
6393	0	0
6394	0	0
6395	0	0
6396	0	0
6397	0	0
6398	0	0
6399	0	0
6400	0	0
6401	0	0
6402	0	0
6403	0	0
6404	0	0
6405	0	0
6406	0	0
6407	0	0
6408	0	0
6409	0	0
6410	0	0
6411	0	0
6412	0	0
6413	0	0
6414	0	0
6415	0	0
6416	0	0
6417	0	0
6418	0	0
6419	0	0
6420	0	0
6421	0	0
6422	0	0
6423	0	0
6424	0	0
6425	0	0
6426	0	0
6427	0	0
6428	0	0
6429	0	0
6430	0	0
6431	0	0
6432	0	0
6433	0	0
6434	0	0
6435	0	0
6436	0	0
6437	0	0
6438	0	0
6439	0	0
6440	0	0
6441	0	0
6442	0	0
6443	0	0
6444	0	0
6445	0	0
6446	0	0
6447	0	0
6448	0	0
6449	0	0
6450	0	0
6451	0	0
6452	0	0
6453	0	0
6454	0	0
6455	0	0
6456	0	0
6457	0	0
6458	0	0
6459	0	0
6460	0	0
6461	0	0
6462	0	0
6463	0	0
6464	0	0
6465	0	0
6466	0	0
6467	0	0
6468	0	0
6469	0	0
6470	0	0
6471	0	0
6472	0	0
6473	0	0
6474	0	0
6475	0	0
6476	0	0
6477	0	0
6478	0	0
6479	0	0
6480	0	0
6481	0	0
6482	0	0
6483	0	0
6484	0	0
6485	0	0
6486	0	0.166667
6487	0	0.166667
6488	0	0.166667
6489	0	0.166667
6490	0	0.166667
6491	0	0.166667
6492	0	0.166667
6493	0	0.166667
6494	0	0.166667
6495	0	0.166667
6496	0	0.166667
6497	0	0.166667
6498	0	0.166667
6499	0	0
6500	0	0
6501	0	0
6502	0	0
6503	0	0
6504	0	0
6505	0	0
6506	0	0
6507	0	0
6508	0	0
6509	0	0
6510	0	0
6511	0	0
6512	0	0
6513	0	0
6514	0	0
6515	0	0
6516	0	0
6517	0	0
6518	0	0
6519	0	0
6520	0	0
6521	0	0
6522	0	0
6523	0	0
6524	0	0
6525	0	0
6526	0	0
6527	0	0
6528	0	0
6529	0	0
6530	0	0
6531	0	0
6532	0	0
6533	0	0
6534	0	0
6535	0	0
6536	0	0
6537	0	0
6538	0	0
6539	0	0
6540	0	0
6541	0	0
6542	0	0
6543	0	0
6544	0	0
6545	0	0
6546	0	0
6547	0	0
6548	0	0
6549	0	0
6550	0	0
6551	0	0
6552	0	0
6553	0	0
6554	0	0
6555	0	0
6556	0	0
6557	0	0
6558	0	0
6559	0	0
6560	0	0
6561	0	0
6562	0	0
6563	0	0
6564	0	0
6565	0	0
6566	0	0
6567	0	0
6568	0	0
6569	0	0
6570	0	0
6571	0	0
6572	0	0
6573	0	0
6574	0	0
6575	0	0
6576	0	0
6577	0	0
6578	0	0
6579	0	0
6580	0	0
6581	0	0
6582	0	0
6583	0	0
6584	0	0
6585	0	0
6586	0	0
6587	0	0
6588	0	0
6589	0	0
6590	0	0
6591	0	0
6592	0	0
6593	0	0
6594	0	0
6595	0	0
6596	0	0
6597	0	0
6598	0	0
6599	0	0
6600	0	0
6601	0	0
6602	0	0
6603	0	0
6604	0	0
6605	0	0
6606	0	0
6607	0	0
6608	0	0
6609	0	0
6610	0	0
6611	0	0
6612	0	0
6613	0	0
6614	0	0
6615	0	0
6616	0	0
6617	0	0
6618	0	0
6619	0	0
6620	0	0
6621	0	0
6622	0	0
6623	0	0
6624	0	0
6625	0	0
6626	0	0
6627	0	0
6628	0	0
6629	0	0
6630	0	0
6631	0	0
6632	0	0
6633	0	0
6634	0	0
6635	0	0
6636	0	0
6637	0	0
6638	0	0
6639	0	0
6640	0	0
6641	0	0
6642	0	0
6643	0	0
6644	0	0
6645	0	0
6646	0	0
6647	0	0
6648	0	0
6649	0	0
6650	0	0
6651	0	0
6652	0	0
6653	0	0
6654	0	0
6655	0	0
6656	0	0
6657	0	0
6658	0	0
6659	0	0
6660	0	0
6661	0	0
6662	0	0
6663	0	0
6664	0	0
6665	0	0
6666	0	0
6667	0	0
6668	0	0
6669	0	0
6670	0	0
6671	0	0
6672	0	0
6673	0	0
6674	0	0
6675	0	0
6676	0	0
6677	0	0
6678	0	0
6679	0	0
6680	0	0
6681	0	0
6682	0	0
6683	0	0
6684	0	0
6685	0	0
6686	0	0
6687	0	0
6688	0	0
6689	0	0
6690	0	0
6691	0	0
6692	0	0
6693	0	0
6694	0	0
6695	0	0
6696	0	0
6697	0	0
6698	0	0
6699	0	0
6700	0	0
6701	0	0
6702	0	0
6703	0	0
6704	0	0
6705	0	0
6706	0	0
6707	0	0
6708	0	0
6709	0	0
6710	0	0
6711	0	0
6712	0	0
6713	0	0
6714	0	0
6715	0	0
6716	0	0
6717	0	0
6718	0	0
6719	0	0
6720	0	0
6721	0	0
6722	0	0
6723	0	0
6724	0	0
6725	0	0
6726	0	0
6727	0	0
6728	0	0
6729	0	0
6730	0	0
6731	0	0
6732	0	0
6733	0	0
6734	0	0
6735	0	0
6736	0	0
6737	0	0
6738	0	0
6739	0	0
6740	0	0
6741	0	0
6742	0	0
6743	0	0
6744	0	0
6745	0	0
6746	0	0
6747	0	0
6748	0	0
6749	0	0
6750	0	0
6751	0	0
6752	0	0
6753	0	0
6754	0	0
6755	0	0
6756	0	0
6757	0	0
6758	0	0
6759	0	0
6760	0	0
6761	0	0
6762	0	0
6763	0	0
6764	0	0
6765	0	0
6766	0	0
6767	0	0
6768	0	0
6769	0	0
6770	0	0
6771	0	0
6772	0	0
6773	0	0
6774	0	0
6775	0	0
6776	0	0
6777	0	0
6778	0	0
6779	0	0
6780	0	0
6781	0	0
6782	0	0
6783	0	0
6784	0	0
6785	0	0
6786	0	0
6787	0	0
6788	0	0
6789	0	0
6790	0	0
6791	0	0
6792	0	0
6793	0	0
6794	0	0
6795	0	0
6796	0	0
6797	0	0
6798	0	0
6799	0	0
6800	0	0
6801	0	0
6802	0	0
6803	0	0
6804	0	0
6805	0	0
6806	0	0
6807	0	0
6808	0	0
6809	0	0
6810	0	0
6811	0	0
6812	0	0
6813	0	0
6814	0	0
6815	0	0
6816	0	0
6817	0	0
6818	0	0
6819	0	0
6820	0	0
6821	0	0
6822	0	0
6823	0	0
6824	0	0
6825	0	0
6826	0	0
6827	0	0
6828	0	0
6829	0	0
6830	0	0
6831	0	0
6832	0	0
6833	0	0
6834	0	0
6835	0	0
6836	0	0
6837	0	0
6838	0	0
6839	0	0
6840	0	0
6841	0	0
6842	0	0
6843	0	0
6844	0	0
6845	0	0
6846	0	0
6847	0	0
6848	0	0
6849	0	0
6850	0	0
6851	0	0
6852	0	0
6853	0	0
6854	0	0
6855	0	0
6856	0	0
6857	0	0
6858	0	0
6859	0	0
6860	0	0
6861	0	0
6862	0	0
6863	0	0
6864	0	0
6865	0	0
6866	0	0
6867	0	0
6868	0	0
6869	0	0
6870	0	0
6871	0	0
6872	0	0
6873	0	0
6874	0	0
6875	0	0
6876	0	0
6877	0	0
6878	0	0
6879	0	0
6880	0	0
6881	0	0
6882	0	0
6883	0	0
6884	0	0
6885	0	0
6886	0	0
6887	0	0
6888	0	0
6889	0	0
6890	0	0
6891	0	0
6892	0	0
6893	0	0
6894	0	0
6895	0	0
6896	0	0
6897	0	0
6898	0	0
6899	0	0
6900	0	0
6901	0	0
6902	0	0
6903	0	0
6904	0	0
6905	0	0
6906	0	0
6907	0	0
6908	0	0
6909	0	0
6910	0	0
6911	0	0
6912	0	0
6913	0	0
6914	0	0
6915	0	0
6916	0	0
6917	0	0
6918	0	0
6919	0	0
6920	0	0
6921	0	0
6922	0	0
6923	0	0
6924	0	0
6925	0	0
6926	0	0
6927	0	0
6928	0	0
6929	0	0
6930	0	0
6931	0	0
6932	0	0
6933	0	0
6934	0	0
6935	0	0
6936	0	0
6937	0	0
6938	0	0
6939	0	0
6940	0	0
6941	0	0
6942	0	0
6943	0	0
6944	0	0
6945	0	0
6946	0	0
6947	0	0
6948	0	0
6949	0	0
6950	0	0
6951	0	0
6952	0	0
6953	0	0
6954	0	0.166667
6955	0	0
6956	0	0
6957	0	0.166667
6958	0	0.166667
6959	0	0.166667
6960	0	0.166667
6961	0	0.166667
6962	0	0.166667
6963	0	0.166667
6964	0	0.166667
6965	0	0.166667
6966	0	0.166667
6967	0	0.166667
6968	0	0
6969	0	0
6970	0	0
6971	0	0
6972	0	0
6973	0	0
6974	0	0
6975	0	0
6976	0	0
6977	0	0
6978	0	0
6979	0	0
6980	0	0
6981	0	0
6982	0	0
6983	0	0
6984	0	0
6985	0	0
6986	0	0
6987	0	0
6988	0	0
6989	0	0
6990	0	0
6991	0	0
6992	0	0
6993	0	0
6994	0	0
6995	0	0
6996	0	0
6997	0	0
6998	0	0
6999	0	0
7000	0	0
7001	0	0
7002	0	0
7003	0	0
7004	0	0
7005	0	0
7006	0	0
7007	0	0
7008	0	0
7009	0	0
7010	0	0
7011	0	0
7012	0	0
7013	0	0
7014	0	0
7015	0	0
7016	0	0
7017	0	0
7018	0	0
7019	0	0
7020	0	0
7021	0	0
7022	0	0
7023	0	0
7024	0	0
7025	0	0
7026	0	0
7027	0	0
7028	0	0
7029	0	0
7030	0	0
7031	0	0
7032	0	0
7033	0	0
7034	0	0
7035	0	0
7036	0	0
7037	0	0
7038	0	0
7039	0	0
7040	0	0
7041	0	0
7042	0	0
7043	0	0
7044	0	0
7045	0	0
7046	0	0
7047	0	0
7048	0	0
7049	0	0
7050	0	0
7051	0	0
7052	0	0
7053	0	0
7054	0	0
7055	0	0
7056	0	0
7057	0	0
7058	0	0
7059	0	0
7060	0	0
7061	0	0
7062	0	0
7063	0	0
7064	0	0
7065	0	0
7066	0	0
7067	0	0
7068	0	0
7069	0	0
7070	0	0
7071	0	0
7072	0	0
7073	0	0
7074	0	0
7075	0	0
7076	0	0
7077	0	0
7078	0	0
7079	0	0
7080	0	0
7081	0	0
7082	0	0
7083	0	0
7084	0	0
7085	0	0
7086	0	0
7087	0	0
7088	0	0
7089	0	0
7090	0	0
7091	0	0
7092	0	0
7093	0	0
7094	0	0
7095	0	0
7096	0	0
7097	0	0
7098	0	0
7099	0	0
7100	0	0
7101	0	0
7102	0	0
7103	0	0
7104	0	0
7105	0	0
7106	0	0
7107	0	0
7108	0	0
7109	0	0
7110	0	0
7111	0	0
7112	0	0
7113	0	0
7114	0	0
7115	0	0
7116	0	0
7117	0	0
7118	0	0
7119	0	0
7120	0	0
7121	0	0
7122	0	0
7123	0	0
7124	0	0
7125	0	0
7126	0	0
7127	0	0
7128	0	0
7129	0	0
7130	0	0
7131	0	0
7132	0	0
7133	0	0
7134	0	0
7135	0	0
7136	0	0
7137	0	0
7138	0	0
7139	0	0
7140	0	0
7141	0	0
7142	0	0
7143	0	0
7144	0	0
7145	0	0
7146	0	0
7147	1	0
7148	1	0
7149	0	0
7150	0	0
7151	0	0
7152	0	0
7153	0	0
7154	0	0
7155	0	0
7156	0	0
7157	0	0
7158	0	0
7159	0	0
7160	0	0
7161	0	0
7162	0	0
7163	0	0
7164	0	0
7165	0	0
7166	0	0
7167	0	0
7168	0	0
7169	0	0
7170	0	0
7171	0	0
7172	0	0
7173	0	0
7174	0	0
7175	0	0
7176	0	0
7177	0	0
7178	0	0
7179	0	0
7180	0	0
7181	0	0
7182	0	0
7183	0	0
7184	0	0
7185	0	0
7186	0	0
7187	0	0
7188	0	0
7189	0	0
7190	0	0
7191	0	0
7192	0	0
7193	0	0
7194	0	0
7195	0	0
7196	0	0
7197	0	0
7198	0	0
7199	0	0
7200	0	0
7201	0	0
7202	0	0
7203	0	0
7204	0	0
7205	0	0
7206	0	0
7207	0	0
7208	0	0
7209	1	0
7210	0	0
7211	0	0
7212	0	0
7213	0	0
7214	0	0
7215	0	0
7216	0	0
7217	0	0
7218	0	0
7219	0	0
7220	0	0
7221	0	0
7222	0	0
7223	0	0
7224	0	0
7225	0	0
7226	0	0
7227	0	0
7228	0	0
7229	0	0
7230	0	0
7231	0	0
7232	0	0
7233	0	0
7234	0	0
7235	0	0
7236	0	0
7237	0	0
7238	0	0
7239	0	0
7240	0	0
7241	0	0
7242	0	0
7243	0	0
7244	0	0
7245	0	0
7246	0	0
7247	0	0
7248	0	0
7249	0	0
7250	0	0
7251	0	0
7252	0	0
7253	0	0
7254	0	0
7255	0	0
7256	0	0
7257	0	0
7258	0	0
7259	0	0
7260	0	0
7261	0	0
7262	0	0
7263	0	0
7264	0	0
7265	0	0
7266	0	0
7267	0	0
7268	0	0
7269	0	0
7270	0	0
7271	0	0
7272	0	0
7273	0	0
7274	0	0
7275	0	0
7276	0	0
7277	0	0
7278	0	0
7279	0	0
7280	0	0
7281	0	0
7282	0	0
7283	0	0
7284	0	0
7285	0	0
7286	0	0
7287	0	0
7288	0	0
7289	0	0
7290	0	0
7291	0	0
7292	0	0
7293	0	0
7294	0	0
7295	0	0
7296	0	0
7297	0	0
7298	0	0
7299	0	0
7300	0	0
7301	0	0
7302	0	0
7303	0	0
7304	0	0
7305	1	0
7306	1	0
7307	1	0
7308	1	0
7309	0	0
7310	0	0
7311	0	0
7312	0	0
7313	0	0
7314	0	0
7315	0	0
7316	0	0
7317	0	0
7318	0	0
7319	0	0
7320	0	0
7321	0	0
7322	0	0
7323	0	0
7324	0	0
7325	0	0
7326	0	0
7327	0	0
7328	0	0
7329	0	0
7330	0	0
7331	0	0
7332	0	0
7333	0	0
7334	0	0
7335	0	0
7336	0	0
7337	0	0
7338	0	0
7339	0	0
7340	0	0
7341	0	0
7342	0	0
7343	1	0
7344	0	0
7345	0	0
7346	0	0
7347	0	0
7348	0	0
7349	0	0
7350	0	0
7351	0	0
7352	0	0
7353	0	0
7354	0	0
7355	0	0
7356	0	0
7357	0	0
7358	0	0
7359	0	0
7360	0	0
7361	0	0
7362	0	0
7363	0	0
7364	0	0
7365	0	0
7366	0	0
7367	0	0
7368	0	0
7369	0	0
7370	0	0
7371	0	0
7372	0	0
7373	0	0
7374	0	0
7375	0	0
7376	0	0
7377	0	0
7378	0	0
7379	0	0
7380	0	0
7381	0	0
7382	0	0
7383	0	0
7384	0	0
7385	0	0
7386	0	0
7387	0	0
7388	0	0
7389	0	0
7390	0	0
7391	0	0
7392	0	0
7393	0	0
7394	0	0
7395	0	0
7396	0	0
7397	0	0
7398	0	0
7399	0	0
7400	0	0
7401	0	0
7402	0	0
7403	0	0
7404	0	0
7405	0	0
7406	0	0
7407	0	0
7408	0	0
7409	0	0
7410	0	0
7411	0	0
7412	0	0
7413	0	0
7414	0	0
7415	0	0
7416	0	0
7417	0	0
7418	0	0
7419	0	0
7420	0	0
7421	0	0
7422	0	0
7423	0	0
7424	0	0
7425	0	0
7426	0	0
7427	0	0
7428	0	0
7429	0	0
7430	0	0
7431	0	0
7432	0	0
7433	0	0
7434	0	0
7435	0	0
7436	0	0
7437	0	0
7438	0	0
7439	0	0
7440	0	0
7441	0	0
7442	0	0
7443	0	0
7444	0	0
7445	0	0
7446	0	0
7447	0	0
7448	0	0
7449	0	0
7450	0	0
7451	0	0
7452	0	0
7453	0	0
7454	0	0
7455	0	0
7456	0	0
7457	0	0
7458	0	0
7459	0	0
7460	0	0
7461	0	0
7462	0	0
7463	0	0
7464	0	0
7465	0	0
7466	0	0
7467	0	0
7468	0	0
7469	0	0
7470	0	0
7471	0	0
7472	0	0
7473	0	0
7474	0	0
7475	0	0
7476	0	0
7477	0	0
7478	1	0
7479	0	0
7480	0	0
7481	0	0
7482	0	0
7483	0	0
7484	0	0
7485	0	0
7486	0	0
7487	0	0
7488	0	0
7489	0	0
7490	0	0
7491	0	0
7492	0	0
7493	0	0
7494	0	0
7495	0	0
7496	0	0
7497	0	0
7498	0	0
7499	0	0
7500	0	0
7501	0	0
7502	0	0
7503	0	0
7504	0	0
7505	0	0
7506	0	0
7507	0	0
7508	0	0
7509	0	0
7510	0	0
7511	0	0
7512	0	0
7513	0	0
7514	0	0
7515	0	0
7516	0	0
7517	0	0
7518	0	0
7519	0	0
7520	0	0
7521	0	0
7522	0	0
7523	0	0
7524	0	0
7525	0	0
7526	0	0
7527	0	0
7528	0	0
7529	0	0
7530	0	0
7531	0	0
7532	0	0
7533	0	0
7534	0	0
7535	0	0
7536	0	0
7537	0	0
7538	0	0
7539	0	0
7540	0	0
7541	0	0
7542	0	0
7543	0	0
7544	0	0
7545	0	0
7546	0	0
7547	0	0
7548	0	0
7549	0	0
7550	0	0
7551	0	0
7552	0	0
7553	0	0
7554	0	0
7555	0	0
7556	0	0
7557	0	0
7558	0	0
7559	0	0
7560	0	0
7561	0	0
7562	0	0
7563	0	0
7564	0	0
7565	0	0
7566	0	0
7567	0	0
7568	0	0
7569	0	0
7570	0	0
7571	0	0
7572	0	0
7573	0	0
7574	0	0
7575	0	0
7576	0	0
7577	0	0
7578	0	0
7579	0	0
7580	0	0
7581	0	0
7582	0	0
7583	0	0
7584	0	0
7585	0	0
7586	0	0
7587	0	0
7588	0	0
7589	0	0
7590	0	0
7591	0	0
7592	0	0
7593	0	0
7594	0	0
7595	0	0
7596	0	0
7597	0	0
7598	0	0
7599	0	0
7600	0	0
7601	0	0
7602	0	0
7603	0	0
7604	0	0
7605	0	0
7606	0	0
7607	0	0
7608	0	0
7609	0	0
7610	0	0
7611	0	0
7612	0	0
7613	0	0
7614	0	0
7615	0	0
7616	0	0
7617	0	0
7618	0	0
7619	0	0
7620	0	0
7621	0	0
7622	0	0
7623	0	0
7624	0	0
7625	0	0
7626	0	0
7627	0	0
7628	0	0
7629	0	0
7630	0	0
7631	0	0
7632	0	0
7633	0	0
7634	0	0
7635	0	0
7636	0	0
7637	0	0
7638	0	0
7639	0	0
7640	0	0
7641	0	0
7642	0	0
7643	0	0
7644	0	0
7645	0	0
7646	0	0
7647	0	0
7648	0	0
7649	0	0
7650	0	0
7651	0	0
7652	0	0
7653	0	0
7654	0	0
7655	0	0
7656	0	0
7657	0	0
7658	0	0
7659	0	0
7660	0	0
7661	0	0
7662	0	0
7663	0	0
7664	0	0
7665	0	0
7666	0	0
7667	0	0
7668	0	0
7669	0	0
7670	0	0
7671	0	0
7672	0	0
7673	0	0
7674	0	0
7675	0	0
7676	0	0
7677	0	0
7678	0	0
7679	0	0
7680	0	0
7681	0	0
7682	0	0
7683	0	0
7684	0	0
7685	0	0
7686	0	0
7687	0	0
7688	0	0
7689	0	0
7690	0	0
7691	0	0
7692	0	0
7693	0	0
7694	0	0
7695	0	0
7696	0	0
7697	0	0
7698	0	0
7699	0	0
7700	0	0
7701	0	0
7702	0	0
7703	0	0
7704	0	0
7705	0	0
7706	0	0
7707	0	0
7708	0	0
7709	0	0
7710	0	0
7711	0	0
7712	0	0
7713	0	0
7714	0	0
7715	0	0
7716	0	0
7717	0	0
7718	0	0
7719	0	0
7720	0	0
7721	0	0
7722	0	0
7723	0	0
7724	0	0
7725	0	0
7726	0	0
7727	0	0
7728	0	0
7729	0	0
7730	0	0
7731	0	0
7732	0	0
7733	0	0
7734	0	0
7735	0	0
7736	0	0
7737	0	0
7738	0	0
7739	0	0
7740	0	0
7741	0	0
7742	0	0
7743	0	0
7744	0	0
7745	0	0
7746	0	0
7747	0	0
7748	0	0
7749	0	0
7750	0	0
7751	0	0
7752	0	0
7753	0	0
7754	0	0
7755	0	0
7756	0	0
7757	0	0
7758	0	0
7759	0	0
