Site	ColumnScore	SumOfPairsScore
1	0	0
2	0	0
3	0	0
4	0	0
5	1	0
6	1	0
7	1	0
8	1	0
9	1	0
10	1	0
11	1	0
12	1	0
13	1	0
14	1	0
15	1	0
16	1	0
17	1	0
18	0	0
19	0	0
20	0	0
21	0	0
22	1	0
23	1	0
24	1	0
25	1	0
26	1	0
27	1	0
28	1	0
29	0	0
30	0	0
31	0	0
32	0	0
33	0	0
34	0	0
35	0	0
36	0	0
37	0	0
38	0	0
39	0	0
40	1	0
41	1	0
42	1	0
43	1	0
44	1	0
45	1	0
46	1	0
47	1	0
48	1	0
49	1	0
50	0	0
51	0	0
52	0	0
53	0	0
54	0	0
55	0	0
56	0	0
57	0	0
58	0	0
59	0	0
60	0	0
61	0	0
62	0	0
63	0	0
64	0	0
65	0	0
66	0	0
67	0	0
68	0	0
69	0	0
70	0	0
71	0	0
72	0	0
73	0	0
74	0	0
75	0	0
76	0	0
77	0	0
78	0	0
79	0	0
80	0	0
81	0	0
82	0	0
83	0	0
84	0	0
85	0	0
86	0	0
87	0	0
88	0	0
89	0	0
90	0	0
91	0	0
92	0	0
93	0	0
94	0	0
95	0	0
96	0	0
97	0	0
98	0	0
99	0	0
100	0	0
101	0	0
102	0	0
103	0	0
104	0	0
105	0	0
106	0	0
107	0	0
108	0	0
109	0	0
110	0	0
111	0	0
112	0	0
113	0	0
114	0	0
115	0	0
116	0	0
117	0	0
118	0	0
119	0	0
120	0	0
121	0	0
122	0	0
123	0	0
124	0	0
125	0	0
126	0	0
127	0	0
128	0	0
129	0	0
130	0	0
131	0	0
132	0	0
133	0	0
134	0	0
135	0	0
136	0	0
137	0	0
138	0	0
139	0	0
140	0	0
141	0	0
142	0	0
143	0	0
144	0	0
145	0	0
146	0	0
147	0	0
148	0	0
149	0	0
150	0	0
151	0	0
152	0	0
153	0	0
154	0	0
155	0	0
156	0	0
157	0	0
158	0	0
159	0	0
160	0	0
161	0	0
162	0	0
163	0	0
164	0	0
165	0	0
166	0	0
167	0	0
168	0	0
169	0	0
170	0	0
171	0	0
172	0	0
173	0	0
174	0	0
175	0	0
176	0	0
177	0	0
178	0	0
179	0	0
180	0	0
181	0	0
182	0	0
183	0	0
184	0	0
185	0	0
186	0	0
187	0	0
188	0	0
189	0	0
190	0	0
191	0	0
192	0	0
193	0	0.166667
194	0	0.166667
195	0	0.166667
196	0	0.166667
197	0	0.166667
198	0	0
199	0	0
200	0	0
201	0	0
202	0	0
203	0	0
204	0	0
205	0	0
206	0	0
207	0	0
208	0	0
209	0	0
210	0	0
211	0	0
212	0	0
213	0	0
214	0	0
215	0	0
216	0	0.166667
217	0	0.166667
218	0	0.166667
219	0	0.166667
220	0	0.166667
221	0	0.166667
222	0	0.166667
223	0	0.166667
224	0	0.166667
225	0	0.166667
226	0	0.166667
227	0	0.166667
228	0	0.166667
229	0	0.333333
230	0	0.333333
231	0	0.333333
232	0	0.333333
233	0	0.333333
234	0	0.333333
235	0	0
236	0	0.333333
237	0	0.333333
238	0	0.333333
239	0	0.333333
240	0	0.333333
241	0	0.333333
242	0	0.333333
243	0	0.333333
244	0	0.333333
245	0	0.333333
246	0	0.333333
247	0	0.333333
248	0	0.333333
249	0	0.333333
250	0	0.333333
251	0	0.333333
252	0	0.333333
253	0	0.333333
254	0	0.333333
255	0	0.333333
256	0	0.333333
257	0	0.5
258	0	0.6
259	0	0.6
260	0	0.6
261	0	0.6
262	0	0.6
263	0	0.6
264	0	0.6
265	0	0.6
266	0	0.6
267	0	0.6
268	0	0.6
269	0	0.6
270	0	0.6
271	0	0.6
272	0	0.6
273	0	0.6
274	0	0.5
275	0	0.5
276	0	0.5
277	0	0.3
278	0	0.6
279	0	0.4
280	0	0.4
281	0	0.4
282	0	0.4
283	0	0.4
284	0	0.4
285	0	0.4
286	0	0.4
287	0	0.4
288	0	0.4
289	0	0.4
290	0	0.4
291	0	0.4
292	0	0.166667
293	0	0.166667
294	0	0.133333
295	0	0.4
296	0	0.4
297	0	0.4
298	0	0.4
299	0	0.4
300	0	0.4
301	0	0.4
302	0	0.4
303	0	0.4
304	0	0.4
305	0	0.4
306	0	0.4
307	0	0.25
308	0	0.25
309	0	0.25
310	0	0.25
311	0	0.25
312	0	0.25
313	0	0.25
314	0	0.25
315	0	0.25
316	0	0.25
317	0	0.25
318	0	0.25
319	0	0.25
320	0	0.25
321	0	0.25
322	0	0.25
323	0	0.25
324	0	0.25
325	0	0.25
326	0	0.25
327	0	0.25
328	0	0.25
329	0	0.25
330	0	0.25
331	0	0.194444
332	0	0.194444
333	0	0.194444
334	0	0.194444
335	0	0.194444
336	0	0.194444
337	0	0.194444
338	0	0.194444
339	0	0.194444
340	0	0.194444
341	0	0.194444
342	0	0.194444
343	0	0.194444
344	0	0.155556
345	0	0.155556
346	0	0.155556
347	0	0.155556
348	0	0.155556
349	0	0.155556
350	0	0.155556
351	0	0.155556
352	0	0.155556
353	0	0.155556
354	0	0.155556
355	0	0.155556
356	0	0.155556
357	0	0.155556
358	0	0.155556
359	0	0.155556
360	0	0.155556
361	0	0.155556
362	0	0.155556
363	0	0.155556
364	0	0.155556
365	0	0.155556
366	0	0.155556
367	0	0.155556
368	0	0.155556
369	0	0.155556
370	0	0.155556
371	0	0.155556
372	0	0.155556
373	0	0.155556
374	0	0.155556
375	0	0.155556
376	0	0.155556
377	0	0.155556
378	0	0.155556
379	0	0.155556
380	0	0.155556
381	0	0.155556
382	0	0.155556
383	0	0.155556
384	0	0.155556
385	0	0.155556
386	0	0.155556
387	0	0.155556
388	0	0.155556
389	0	0.155556
390	0	0.155556
391	0	0.155556
392	0	0.155556
393	0	0.155556
394	0	0.155556
395	0	0.155556
396	0	0.155556
397	0	0.155556
398	0	0.155556
399	0	0.155556
400	0	0.155556
401	0	0.155556
402	0	0.155556
403	0	0.155556
404	0	0.155556
405	0	0.127273
406	0	0.127273
407	0	0.127273
408	0	0.127273
409	0	0.127273
410	0	0.127273
411	0	0.127273
412	0	0.127273
413	0	0.127273
414	0	0.127273
415	0	0.127273
416	0	0.127273
417	0	0.127273
418	0	0.127273
419	0	0.127273
420	0	0.127273
421	0	0.127273
422	0	0.127273
423	0	0.106061
424	0	0.106061
425	0	0.106061
426	0	0.106061
427	0	0.106061
428	0	0.106061
429	0	0.106061
430	0	0.106061
431	0	0.106061
432	0	0.106061
433	0	0.106061
434	0	0.106061
435	0	0.106061
436	0	0.106061
437	0	0.106061
438	0	0.106061
439	0	0.106061
440	0	0.106061
441	0	0.106061
442	0	0.106061
443	0	0.106061
444	0	0.106061
445	0	0.106061
446	0	0.106061
447	0	0.106061
448	0	0.106061
449	0	0.106061
450	0	0.106061
451	0	0.0897436
452	0	0.0897436
453	0	0.0897436
454	0	0.0897436
455	0	0.0897436
456	0	0.0897436
457	0	0.0897436
458	0	0.0897436
459	0	0.0897436
460	0	0.0897436
461	0	0.0897436
462	0	0.0897436
463	0	0.0897436
464	0	0.0897436
465	0	0.0897436
466	0	0.0769231
467	0	0.0769231
468	0	0.0769231
469	0	0.0769231
470	0	0.0769231
471	0	0.0769231
472	0	0.0769231
473	0	0.0769231
474	0	0.0769231
475	0	0.0769231
476	0	0.0769231
477	0	0.0769231
478	0	0.0769231
479	0	0.0666667
480	0	0.0666667
481	0	0.0666667
482	0	0.0583333
483	0	0.0514706
484	0	0.0514706
485	0	0.0514706
486	0	0.0514706
487	0	0.0514706
488	0	0.0514706
489	0	0.0514706
490	0	0.0514706
491	0	0.0514706
492	0	0.0514706
493	0	0.0514706
494	0	0.0514706
495	0	0.0514706
496	0	0.0514706
497	0	0.0514706
498	0	0.0514706
499	0	0.0514706
500	0	0.0514706
501	0	0.0457516
502	0	0.0457516
503	0	0.0457516
504	0	0.0457516
505	0	0.0457516
506	0	0.0457516
507	0	0.0457516
508	0	0.0457516
509	0	0.0261438
510	0	0.0261438
511	0	0.0261438
512	0	0.0261438
513	0	0.0261438
514	0	0.0261438
515	0	0.0261438
516	0	0.0261438
517	0	0.0261438
518	0	0.0233918
519	0	0.0210526
520	0	0.0210526
521	0	0.0210526
522	0	0.0210526
523	0	0.0210526
524	0	0.0105263
525	0	0.0130719
526	0	0.0196078
527	0	0.0285714
528	0	0.0285714
529	0	0.0285714
530	0	0.0285714
531	0	0.0285714
532	0	0.0237154
533	0	0.0237154
534	0	0.027668
535	0	0.027668
536	0	0.0197628
537	0	0.0197628
538	0	0.0197628
539	0	0.0197628
540	0	0.0197628
541	0	0.0197628
542	0	0.0197628
543	0	0.0197628
544	0	0.0158103
545	0	0.0158103
546	0	0.0158103
547	0	0.0158103
548	0	0.0181159
549	0	0.0181159
550	0	0.0233333
551	0	0.0233333
552	0	0.025641
553	0	0.0301075
554	0	0.0282258
555	0	0.0246212
556	0	0.0196078
557	0	0.0196078
558	0	0.0160428
559	0	0.0160428
560	0	0.0184874
561	0	0.0165165
562	0	0.0148448
563	0	0.0153846
564	0	0.0188261
565	0	0.0229592
566	0	0.0242424
567	0	0.0228956
568	0	0.0228956
569	0	0.023569
570	0	0.0263158
571	0	0.025716
572	0	0.0208333
573	0	0.0201932
574	0	0.0185965
575	0	0.0303297
576	0	0.0271709
577	0	0.023746
578	0	0.0249187
579	0	0.0245293
580	0	0.0217391
581	0	0.0212696
582	0	0.0853084
583	0	0.0786717
584	0	0.0641721
585	0	0.0564668
586	0	0.0421818
587	0	0.0405185
588	0	0.0322834
589	0	0.0341103
590	0	0.0355613
591	0	0.0334755
592	0	0.0305775
593	0	0.0422281
594	0	0.0410696
595	0	0.0888889
596	0	0.0888889
597	0	0.0888889
598	0	0.0383289
599	0	0.0369012
600	0	0.0347496
601	0	0.0406069
602	0	0.0388212
603	0	0.0398466
604	0	0
605	0	0
606	0	0
607	0	0
608	0	0
609	0	0
610	0	0
611	0	0
612	0	0
613	0	1
614	0	1
615	0	1
616	0	1
617	0	1
618	0	1
619	0	1
620	0	1
621	0	1
622	0	0.0228819
623	0	0.0263863
624	0	0.0265925
625	0	0.0368235
626	0	0.0354867
627	0	0.035688
628	0	0.0357685
629	0	0.0301251
630	0	0.0701754
631	0	0.0701754
632	0	0.0701754
633	0	0.0701754
634	0	0.0760234
635	0	0.0760234
636	0	0.0701754
637	0	0.0701754
638	0	0.0701754
639	0	0.0701754
640	0	0.0701754
641	0	0.0499109
642	0	0.0409982
643	0	0.0409982
644	0	0.0409982
645	0	0.0409982
646	0	0.0357143
647	0	0.0269699
648	0	0.0684211
649	0	0.0684211
650	0	0.0684211
651	0	0.0684211
652	0	0.0684211
653	0	0.0684211
654	0	0.0684211
655	0	0.0684211
656	0	0.0684211
657	0	0.0684211
658	0	0.0684211
659	0	0.0684211
660	0	0.0684211
661	0	0.0684211
662	0	0.0684211
663	0	0.0684211
664	0	0.0684211
665	0	0.0631579
666	0	0.0631579
667	0	0.0684211
668	0	0.0684211
669	0	0.0684211
670	0	0.0684211
671	0	0.0684211
672	0	0.0684211
673	0	0.0684211
674	0	0.0684211
675	0	0.0684211
676	0	0.0684211
677	0	0.0684211
678	0	0.0684211
679	0	0.0684211
680	0	0.0684211
681	0	0.0684211
682	0	0.0684211
683	0	0.0684211
684	0	0.0684211
685	0	0.0684211
686	0	0.0684211
687	0	0.0684211
688	0	0.0684211
689	0	0.0606061
690	0	0.0711462
691	0	0.0711462
692	0	0.0711462
693	0	0.055336
694	0	0.0507246
695	0	0.0430769
696	0	0.0430769
697	0	0.0430769
698	0	0.0369458
699	0	0.0344828
700	0	0.0322581
701	0	0.0681818
702	0	0.0655738
703	0	0.0290911
704	0	0.0301166
705	0	0.0249352
706	0	0.0179704
707	0	0.0179704
708	0	0.0179704
709	0	0.0169133
710	0	0.0169133
711	0	0.0169133
712	0	0.0158562
713	0	0.0158562
714	0	0.0158562
715	0	0.0158562
716	0	0.0166113
717	0	0.0166113
718	0	0.0166113
719	0	0.0159574
720	0	0.0170732
721	0	0.0182927
722	0	0.0221484
723	0	0.0221484
724	0	0.0265781
725	0	0.0265781
726	0	0.0243632
727	0	0.0243632
728	0	0.0243632
729	0	0.0243129
730	0	0.0243129
731	0	0.0181818
732	0	0.0181818
733	0	0.0181818
734	0	0.0191919
735	0	0.0183575
736	0	0.0177305
737	0	0.0177305
738	0	0.0155102
739	0	0.0180392
740	0	0.0180392
741	0	0.0180392
742	0	0.0172549
743	0	0.0179592
744	0	0.0172549
745	0	0.0145138
746	0	0.0152395
747	0	0.0141414
748	0	0.0141414
749	0	0.0142857
750	0	0.0137845
751	0	0.0139141
752	0	0.0134424
753	0	0.0125874
754	0	0.0166605
755	0	0.0194444
756	0	0.0175103
757	0	0.0244613
758	0	0.020592
759	0	0.0179063
760	0	0.0191489
761	0	0.0208835
762	0	0.0315035
763	0	0.028661
764	0	0.346016
765	0	0.34525
766	0	0.351358
767	0	0.341636
768	0	0.340904
769	0	0.0319789
770	0	0.0334343
771	0	0.0384136
772	0	0.0862626
773	0	0.104699
774	0	0.122553
775	0	0.127207
776	0	0.0301974
777	0	0.0301974
778	0	0.109579
779	0	0.11463
780	0	0.0686275
781	0	0.105496
782	0	0.0269841
783	0	0.0320197
784	0	0.0307692
785	0	0.0307692
786	0	0.0333333
787	0	0.0333333
788	0	0.0333333
789	0	0.0333333
790	0	0.0362319
791	0	0.038961
792	0	0.038961
793	0	0.038961
794	0	0.038961
795	0	0.038961
796	0	0.038961
797	0	0.038961
798	0	0.038961
799	0	0.0428571
800	0	0.0421053
801	0	0.0421053
802	0	0.0467836
803	0	0.0467836
804	0	0.0467836
805	0	0.0701754
806	0	0.0701754
807	0	0.0701754
808	0	0.0467836
809	0	0.0522876
810	0	0.0522876
811	0	0.0588235
812	0	0.0666667
813	0	0.0666667
814	0	0.0761905
815	0	0.0761905
816	0	0.0761905
817	0	0.0761905
818	0	0.0761905
819	0	0.0761905
820	0	0.0761905
821	0	0.0761905
822	0	0.0761905
823	0	0.0761905
824	0	0.0761905
825	0	0.0761905
826	0	0.0761905
827	0	0.0761905
828	0	0.0761905
829	0	0.0761905
830	0	0.0761905
831	0	0.0769231
832	0	0.0769231
833	0	0.0769231
834	0	0.0769231
835	0	0.0769231
836	0	0.0769231
837	0	0.0769231
838	0	0.0769231
839	0	0.0769231
840	0	0.0769231
841	0	0.0769231
842	0	0.0769231
843	0	0.0769231
844	0	0.0769231
845	0	0.0769231
846	0	0.0769231
847	0	0.0769231
848	0	0.0769231
849	0	0.0769231
850	0	0.0769231
851	0	0.0769231
852	0	0.0769231
853	0	0.0769231
854	0	0.0769231
855	0	0.0769231
856	0	0.0769231
857	0	0.0769231
858	0	0.0769231
859	0	0.0769231
860	0	0.0769231
861	0	0.0769231
862	0	0.0769231
863	0	0.0769231
864	0	0.0769231
865	0	0.0769231
866	0	0.0769231
867	0	0.0769231
868	0	0.0769231
869	0	0.0769231
870	0	0.0769231
871	0	0.0769231
872	0	0.0666667
873	0	0.0360312
874	0	0.0373009
875	0	0.0397505
876	0	0.292836
877	0	0.232058
878	0	0.02537
879	0	0.0205128
880	0	0.0142857
881	0	0.0160428
882	0	0.00569801
883	0	0.00333333
884	0	0.00333333
885	0	0.00647549
886	0	0.00483092
887	0	0.0135266
888	0	0.00966184
889	0	0.0111111
890	0	0.00808081
891	0	0.00739958
892	0	0.0132275
893	0	0.0132275
894	0	0.010582
895	0	0.010582
896	0	0.010582
897	0	0.00996678
898	0	0.00739958
899	0	0.022921
900	0	0.00952381
901	0	0.00952381
902	0	0.0208754
903	0	0.0216632
904	0	0.0332341
905	0	0.0181818
906	0	0.0181818
907	0	0
908	0	0
909	0	0
910	0	0
911	0	0
912	0	0
913	0	0
914	0	0
915	0	0
916	0	0
917	0	0
918	0	0
919	0	0
920	0	0
921	0	0
922	0	0
923	0	0
924	0	0
925	0	0
926	0	0
927	0	0
928	0	0
929	0	0
930	0	0
931	0	0
932	0	0
933	0	0
934	0	0
935	0	0
936	0	0
937	0	0
938	0	0
939	0	0
940	0	0
941	0	0
942	0	0
943	0	0
944	0	0
945	0	0
946	0	0
947	0	0
948	0	0
949	0	0
950	0	0
951	0	0
952	0	0
953	0	0
954	0	0
955	0	0
956	0	0
957	0	0
958	0	0
959	0	0
960	0	0
961	0	0
962	0	0
963	0	0
964	0	0
965	0	0
966	0	0
967	0	0
968	0	0
969	0	0
970	0	0
971	0	0
972	0	0
973	0	0
974	0	0
975	0	0
976	0	0
977	0	0
978	0	0
979	0	0
980	0	0
981	0	0
982	0	0
983	0	0
984	0	0
985	0	0
986	0	0
987	0	0
988	0	0
989	0	0
990	0	0
991	0	0
992	0	0
993	0	0
994	0	0
995	0	0
996	0	0
997	0	0
998	0	0
999	0	0
1000	0	0
1001	0	0
1002	0	0
1003	0	0
1004	0	0
1005	0	0
1006	0	0
1007	0	0
1008	0	0
1009	0	0
1010	0	0
1011	0	0
1012	0	0
1013	0	0
1014	0	0
1015	0	0
1016	0	0
1017	0	0
1018	0	0
1019	0	0
1020	0	0
1021	0	0
1022	0	0
1023	0	0
1024	0	0
1025	0	0
1026	0	0
1027	0	0
1028	0	0
1029	0	0
1030	0	0
1031	0	0
1032	0	0
1033	0	0
1034	0	0
1035	0	0
1036	0	0
1037	0	0
1038	0	0
1039	0	0
1040	0	0
1041	0	0
1042	0	0
1043	0	0
1044	0	0
1045	0	0
1046	0	0
1047	0	0
1048	0	0
1049	0	0
1050	0	0
1051	0	0
1052	0	0
1053	0	0
1054	0	0
1055	0	0
1056	0	0
1057	0	0
1058	0	0
1059	0	0
1060	0	0
1061	0	0
1062	0	0
1063	0	0
1064	0	0
1065	0	0
1066	0	0
1067	0	0
1068	0	0
1069	0	0
1070	0	0
1071	0	0
1072	0	0
1073	0	0
1074	0	0
1075	0	0
1076	0	0
1077	0	0
1078	0	0
1079	0	0
1080	0	0
1081	0	0
1082	0	0
1083	0	0
1084	0	0
1085	0	0
1086	0	0
1087	0	0
1088	0	0
1089	0	0
1090	0	0
1091	0	0
1092	0	0
1093	0	0
1094	0	0
1095	0	0
1096	0	0
1097	0	0
1098	0	0
1099	0	0
1100	0	0
1101	0	0
1102	0	0
1103	0	0
1104	0	0
1105	0	0
1106	0	0
1107	0	0
1108	0	0
1109	0	0
1110	0	0
1111	0	0
1112	0	0
1113	0	0
1114	0	0
1115	0	0
1116	0	0
1117	0	0
1118	0	0
1119	0	0
1120	0	0
1121	0	0
1122	0	0
1123	0	0
1124	0	0
1125	0	0
1126	0	0
1127	0	0
1128	0	0
1129	0	0
1130	0	0
1131	0	0
1132	0	0
1133	0	0
1134	0	0
1135	0	0
1136	0	0
1137	0	0
1138	0	0
1139	0	0
1140	0	0
1141	0	0
1142	0	0
1143	0	0
1144	0	0
1145	0	0
1146	0	0
1147	0	0
1148	0	0
1149	0	0
1150	0	0
1151	0	0
1152	0	0
1153	0	0
1154	0	0
1155	0	0
1156	0	0
1157	0	0
1158	0	0.166667
1159	0	0.166667
1160	0	0.166667
1161	0	0.0181818
1162	0	0.0277778
1163	0	0.0277778
1164	0	0.0277778
1165	0	0.0222222
1166	0	0
1167	0	0.0128205
1168	0	0.025
1169	0	0.193732
1170	0	0.0688406
1171	0	0.0461977
1172	0	0.0493469
1173	0	0.0642914
1174	0	0.0589966
1175	0	0.0727891
1176	0	0.0741414
1177	0	0
1178	0	0
1179	0	0
1180	0	0
1181	0	0
1182	0	0
1183	0	0
1184	0	0
1185	0	0
1186	0	0
1187	0	0
1188	0	0
1189	0	0
1190	0	0
1191	0	0
1192	0	0
1193	0	0
1194	0	0
1195	0	0
1196	0	0
1197	0	0
1198	0	0
1199	0	0
1200	0	0
1201	0	0
1202	0	0
1203	0	0
1204	0	0
1205	0	0
1206	0	0
1207	0	0
1208	0	0
1209	0	0
1210	0	0
1211	0	0
1212	0	0
1213	0	0
1214	0	0
1215	0	0
1216	0	0
1217	0	0
1218	0	0
1219	0	0
1220	0	0
1221	0	0
1222	0	0
1223	0	0
1224	0	0
1225	0	0
1226	0	0
1227	0	0
1228	0	0
1229	0	0
1230	0	0
1231	0	0
1232	0	0
1233	0	0
1234	0	0
1235	0	0
1236	0	0
1237	0	0
1238	0	0
1239	0	0
1240	0	0
1241	0	0
1242	0	0
1243	0	0
1244	0	0
1245	0	0
1246	0	0
1247	0	0
1248	0	0
1249	0	0
1250	0	0
1251	0	0
1252	0	0
1253	0	0
1254	0	0
1255	0	0
1256	0	0
1257	0	0
1258	0	0
1259	0	0
1260	0	0
1261	0	0
1262	0	0
1263	0	0
1264	0	0
1265	0	0
1266	0	0
1267	0	0
1268	0	0
1269	0	0
1270	0	0
1271	0	0
1272	0	0
1273	0	0
1274	0	0
1275	0	0
1276	0	0
1277	0	0
1278	0	0
1279	0	0
1280	0	0
1281	0	0
1282	0	0
1283	0	0
1284	0	0
1285	0	0
1286	0	0
1287	0	0
1288	0	0
1289	0	0
1290	0	0
1291	0	0
1292	0	0
1293	0	0
1294	0	0
1295	0	0
1296	0	0
1297	0	0
1298	0	0.00952381
1299	0	0.0147059
1300	0	0.0175439
1301	0	0.0276923
1302	0	0.0320197
1303	0	0.0549242
1304	0	0.0987805
1305	0	0.0858586
1306	0	0.0816327
1307	0	0.0745098
1308	0	0.100871
1309	0	0.0772078
1310	0	0.085041
1311	0	0.0573543
1312	0	0.0505319
1313	0	0.06232
1314	0	0.0530857
1315	0	0.0472514
1316	0	0.0454887
1317	0	0.0366144
1318	0	0.044949
1319	0	0.0505275
1320	0	0.0523615
1321	0	0.0518148
1322	0	0.0556136
1323	0	0.0566502
1324	0	0
1325	0	0
1326	0	0
1327	0	0
1328	0	0
1329	0	0
1330	0	0
1331	0	0
1332	0	0
1333	0	0
1334	0	0
1335	0	0
1336	0	0
1337	0	0
1338	0	0
1339	0	0
1340	0	0
1341	0	0.0699446
1342	0	0.0723836
1343	0	0.0915833
1344	0	0
1345	0	0
1346	0	0
1347	0	0
1348	0	0
1349	0	0
1350	0	0
1351	0	0
1352	0	0
1353	0	0
1354	0	0
1355	0	0
1356	0	0
1357	0	0
1358	0	0
1359	0	0
1360	0	0
1361	0	0
1362	0	0
1363	0	0
1364	0	0
1365	0	0
1366	0	0
1367	0	0
1368	0	0
1369	0	0
1370	0	0
1371	0	0
1372	0	0
1373	0	0
1374	0	0
1375	0	0
1376	0	0
1377	0	0
1378	0	0
1379	0	0
1380	0	0
1381	0	0
1382	0	0
1383	0	0
1384	0	0
1385	0	0
1386	0	0
1387	0	0
1388	0	0.0357143
1389	0	0.0357143
1390	0	0.0357143
1391	0	0.0357143
1392	0	0.0357143
1393	0	0.0357143
1394	0	0.0277778
1395	0	0.0545455
1396	0	0.0606061
1397	0	0.0606061
1398	0	0.0989011
1399	0	0.307692
1400	0	0.266667
1401	0	0.233333
1402	0	0.272059
1403	0	0.22807
1404	0	0.22807
1405	0	0.22807
1406	0	0.22807
1407	0	0.22807
1408	0	0
1409	0	0
1410	0	0
1411	0	0
1412	0	0
1413	0	0
1414	0	0
1415	0	0
1416	0	0
1417	0	0
1418	0	0
1419	0	0
1420	0	0
1421	0	0
1422	0	0
1423	0	0
1424	0	0.5
1425	0	0.5
1426	0	0.5
1427	0	0.5
1428	0	0.3
1429	0	0.3
1430	0	0.3
1431	0	0.3
1432	0	0.3
1433	0	0.3
1434	0	0.3
1435	0	0.3
1436	0	0.3
1437	0	0.4
1438	0	0.214286
1439	0	0.214286
1440	0	0.133333
1441	0	0.0545455
1442	0	0.0545455
1443	0	0.0545455
1444	0	0.025
1445	0	0.0294118
1446	0	0.0294118
1447	0	0.0294118
1448	0	0.0220588
1449	0	0.0220588
1450	0	0.0562771
1451	0	0.176344
1452	0	0.139683
1453	0	0.118467
1454	0	0.183258
1455	0	0.194444
1456	0	0.204769
1457	0	0.193465
1458	0	0.20984
1459	0	0.244369
1460	0	0.226537
1461	0	0.240157
1462	0	0.263476
1463	0	0.285153
1464	0	0.50778
1465	0	0.504751
1466	0	0.731692
1467	0	0.764139
1468	0	0.794184
1469	0	0.799346
1470	0	0.790056
1471	0	0.787611
1472	0	0.791096
1473	0	0.701584
1474	0	0.700207
1475	0	0.78146
1476	0	0.664102
1477	0	0.66788
1478	0	0.684483
1479	0	0.684583
1480	0	0.0666667
1481	0	0.0583333
1482	0	0.0514706
1483	0	0.0514706
1484	0	0.0514706
1485	0	0.0514706
1486	0	0.0842105
1487	0	0.692808
1488	0	0.682634
1489	0	0.105263
1490	0	0.105263
1491	0	0.111111
1492	0	0.1
1493	0	0.0904762
1494	0	0.0865801
1495	0	0.70802
1496	0	0.244444
1497	0	0.244444
1498	0	0.311344
1499	0	0.31166
1500	0	0.186281
1501	0	0.190096
1502	0	0.175496
1503	0	0.237796
1504	0	0.333333
1505	0	0.333333
1506	0	0.333333
1507	0	0
1508	0	0
1509	0	0.216318
1510	0	0.218899
1511	0	0.365039
1512	0	0.387675
1513	0	0
1514	0	0
1515	0	0
1516	0	0.1
1517	0	0.1
1518	0	0.1
1519	0	0.1
1520	0	0.285714
1521	0	0.447409
1522	0	0.445532
1523	0	0.498227
1524	0	0.488095
1525	0	0.801418
1526	0	0.805272
1527	0	0.699511
1528	0	0.466284
1529	0	0.615049
1530	0	0.967319
1531	0	0.969389
1532	0	0.985629
1533	0	0.991774
1534	0	0.993827
1535	0	0.995883
1536	0	0.995887
1537	0	0.981633
1538	0	0.527473
1539	0	0.97953
1540	0	0.537906
1541	0	0.831053
1542	0	0.814286
1543	0	0.99587
1544	0	0.995853
1545	0	0.975418
1546	0	0.98363
1547	0	0.97962
1548	0	0.980322
1549	0	0.982286
1550	0	0.980322
1551	0	0.978381
1552	0	0.978381
1553	0	1
1554	0	0.652381
1555	0	1
1556	0	0.68661
1557	0	0.925926
1558	0	0.900124
1559	0	0.378788
1560	0	0.523325
1561	0	0.482059
1562	0	0.811267
1563	0	0.527273
1564	0	0.166667
1565	0	0.707602
1566	0	0.968548
1567	0	1
1568	0	1
1569	0	1
1570	0	1
1571	0	0.611111
1572	0	0.611111
1573	1	1
1574	0	0.75
1575	0	0.75
1576	0	0.75
1577	0	1
1578	0	1
1579	0	0.996053
1580	0	0.998026
1581	0	0.998026
1582	0	0.998026
1583	0	0.998026
1584	0	0.998026
1585	0	0.998024
1586	0	0.998024
1587	0	0.998024
1588	0	0.998024
1589	0	0.998028
1590	0	0.99803
1591	0	0.99803
1592	0	0.577814
1593	0	0.957594
1594	0	0.96938
1595	0	0.984487
1596	0	0.963368
1597	0	0.863464
1598	0	0.938492
1599	0	0.846422
1600	0	0.677685
1601	0	0.733257
1602	0	0.986263
1603	0	0.982413
1604	0	1
1605	0	1
1606	0	0.6
1607	0	0.970797
1608	0	0.970768
1609	0	1
1610	0	0.2
1611	0	0.178571
1612	0	0.411255
1613	0	0.931684
1614	0	0.547276
1615	0	0.828283
1616	0	0.685197
1617	0	0.349636
1618	0	0.299828
1619	0	0.216125
1620	0	0.151502
1621	0	0.157794
1622	0	0.164209
1623	0	0.703673
1624	0	0.564103
1625	0	0.621418
1626	0	0.683258
1627	0	0.295027
1628	0	0.279276
1629	0	0.298246
1630	0	0.244361
1631	0	0.732804
1632	0	0.333333
1633	0	0.333333
1634	0	0.333333
1635	0	0.333333
1636	0	0.333333
1637	0	0.5
1638	0	0.5
1639	0	0.5
1640	0	0.757639
1641	0	0.65664
1642	0	0.392857
1643	0	0.945825
1644	0	0.947669
1645	0	0.947696
1646	0	0.333333
1647	0	0.444444
1648	0	0.974319
1649	0	0
1650	0	1
1651	0	0.984373
1652	0	0.984373
1653	0	0.4
1654	0	0.972774
1655	0	0.961208
1656	0	1
1657	0	1
1658	0	1
1659	0	1
1660	0	1
1661	0	0.6
1662	0	0.6
1663	0	0.6
1664	0	0.6
1665	0	0.454619
1666	0	0.194444
1667	0	0.488889
1668	0	0.488889
1669	0	0.590909
1670	0	0.986326
1671	0	1
1672	0	1
1673	0	0.998041
1674	0	0.998041
1675	0	0.998041
1676	0	0.998041
1677	0	0.998041
1678	0	0.998041
1679	1	1
1680	1	1
1681	0	0.998041
1682	0	0.998041
1683	0	0.998041
1684	0	0.998041
1685	0	0.998041
1686	0	0.998041
1687	0	0.998041
1688	0	0.998041
1689	0	1
1690	0	1
1691	0	0
1692	0	0.996084
1693	0	0.996084
1694	0	0.998041
1695	0	0.998041
1696	0	1
1697	0	0.5
1698	0	0.5
1699	0	0.980523
1700	0	0.978606
1701	0	0.978606
1702	0	0.967083
1703	0	0.970879
1704	0	1
1705	0	1
1706	0	1
1707	1	1
1708	1	1
1709	1	1
1710	1	1
1711	0	0.998037
1712	0	0.998037
1713	0	0.998037
1714	0	0.99608
1715	0	0
1716	0	0
1717	0	0
1718	0	0
1719	0	0.992168
1720	0	0
1721	0	0
1722	0	0
1723	0	0
1724	0	0
1725	0	0
1726	0	0
1727	0	0
1728	0	0
1729	0	0
1730	0	0
1731	0	0
1732	0	0.998039
1733	0	0.998039
1734	0	0.998039
1735	1	1
1736	1	1
1737	1	1
1738	1	1
1739	1	1
1740	1	1
1741	0	1
1742	0	1
1743	0	1
1744	1	1
1745	1	1
1746	1	1
1747	1	1
1748	1	1
1749	1	1
1750	1	1
1751	1	1
1752	0	1
1753	0	1
1754	0	1
1755	0	1
1756	0	0.998041
1757	0	0.998041
1758	0	0.998043
1759	0	0.998043
1760	0	0.998043
1761	0	0.996088
1762	0	0.996088
1763	0	0.996088
1764	0	0.996084
1765	0	0.996084
1766	0	0.996084
1767	0	0.996086
1768	0	0.996086
1769	0	0
1770	0	0
1771	0	0.996065
1772	0	0.9941
1773	0	0.994094
1774	0	1
1775	0	0.919705
1776	0	0.56044
1777	0	0.56044
1778	0	0.899741
1779	0	0.818182
1780	0	0.654545
1781	0	0.654545
1782	0	0.654545
1783	0	0.230769
1784	0	0.230769
1785	0	0.180952
1786	0	0.881502
1787	0	0.868087
1788	0	0.4
1789	0	0.4
1790	0	0.4
1791	0	0.4
1792	0	0.3
1793	0	0.2
1794	0	0.2
1795	0	0.676617
1796	0	0.676165
1797	0	0.354779
1798	0	0.354779
1799	0	0.267133
1800	0	0.717576
1801	0	0.697784
1802	0	0.333333
1803	0	0.333333
1804	0	0.166667
1805	0	0.166667
1806	0	0
1807	0	0
1808	0	0
1809	0	0.241758
1810	0	0.0555556
1811	0	0.0444444
1812	0	0.0444444
1813	0	0.0222222
1814	0	0.233725
1815	0	0.297683
1816	0	0.831781
1817	0	0.783666
1818	0	0.440513
1819	0	0.440524
1820	0	0.410362
1821	0	0.404467
1822	0	0.405435
1823	0	0.576923
1824	0	0.576923
1825	0	0
1826	0	0
1827	0	0
1828	0	0
1829	0	0
1830	0	0
1831	0	0
1832	0	0.119813
1833	0	0.116891
1834	0	0.102857
1835	0	0.102857
1836	0	0.0996078
1837	0	0.0996078
1838	0	0.0996078
1839	0	0.293038
1840	0	0.27521
1841	0	0.550063
1842	0	0.535785
1843	0	0.100996
1844	0	0.0929152
1845	0	0.467909
1846	0	0.466345
1847	0	0.464226
1848	0	0.466806
1849	0	0.471974
1850	0	0.0555556
1851	0	0.0608466
1852	0	0.559066
1853	0	0.562146
1854	0	0.444996
1855	0	0.122066
1856	0	0.0856014
1857	0	0.0911748
1858	0	0.0946815
1859	0	0.0994898
1860	0	0.121816
1861	0	0.119601
1862	0	0.046798
1863	0	0.0418719
1864	0	0.0449735
1865	0	0.0492308
1866	0	0.042735
1867	0	0.708942
1868	0	0.851609
1869	0	0.865726
1870	0	0.0766667
1871	0	0.0653595
1872	0	0.0444444
1873	0	0.0555556
1874	0	0.0952381
1875	0	0.1
1876	0	0.1
1877	0	0
1878	0	0
1879	0	0
1880	0	0
1881	0	0
1882	0	0
1883	0	0
1884	0	0
1885	0	0.526295
1886	0	0.524601
1887	0	1
1888	0	1
1889	0	1
1890	0	1
1891	0	0.63703
1892	0	0.625143
1893	0	0.622253
1894	0	0.62463
1895	0	0.547692
1896	0	0.641304
1897	0	0.59
1898	0	0.603077
1899	0	0.871994
1900	0	0.142857
1901	0	0.2
1902	0	0.3
1903	0	0.5
1904	0	0.866304
1905	0	0.964912
1906	0	0.988264
1907	0	0.990215
1908	0	0.988276
1909	0	0
1910	0	0.992176
1911	0	0.996084
1912	0	0.996084
1913	0	0.998039
1914	0	0.996096
1915	0	0.998047
1916	0	0.998047
1917	0	0.998047
1918	0	0.998047
1919	0	0.998049
1920	0	0.998049
1921	0	0.998049
1922	0	0.998049
1923	0	0.998049
1924	0	0.998049
1925	0	0.980642
1926	0	0.778748
1927	0	0.971719
1928	0	0.984408
1929	0	0.6
1930	0	0.998043
1931	0	0.998043
1932	0	0.532182
1933	0	1
1934	1	1
1935	0	0.99689
1936	0	1
1937	1	1
1938	1	1
1939	1	1
1940	1	1
1941	1	1
1942	1	1
1943	1	1
1944	1	1
1945	1	1
1946	1	1
1947	0	1
1948	0	1
1949	0	0.992205
1950	0	0.992205
1951	0	0.998047
1952	0	0.998047
1953	1	1
1954	1	1
1955	1	1
1956	1	1
1957	1	1
1958	1	1
1959	1	1
1960	0	0.998049
1961	0	0.998049
1962	0	0.998049
1963	0	0.998049
1964	0	0.998049
1965	1	1
1966	1	1
1967	1	0
1968	0	0.996103
1969	0	1
1970	0	0.5
1971	0	0.5
1972	0	0.166667
1973	0	0.333333
1974	0	0.333333
1975	0	0.333333
1976	0	0
1977	1	0
1978	1	0
1979	1	0
1980	1	0
1981	1	0
1982	1	0
1983	1	0
1984	1	0
1985	1	0
1986	1	0
1987	0	0
1988	0	0
1989	0	1
1990	0	0.998047
1991	0	0.998047
1992	0	0.998047
1993	0	0.998049
1994	0	0.998049
1995	0	0.998049
1996	0	0.998049
1997	0	0.998049
1998	0	0.998049
1999	0	0.998049
2000	0	0.998049
2001	0	0.998049
2002	0	0.998049
2003	0	0.998049
2004	0	0.998049
2005	0	0.998049
2006	0	0.998049
2007	0	0.998049
2008	0	0.998049
2009	0	0.998049
2010	0	0.960784
2011	0	0.905252
2012	0	0.775391
2013	0	1
2014	0	1
2015	0	1
2016	0	1
2017	0	0.5
2018	0	0.5
2019	0	1
2020	0	1
2021	0	1
2022	0	1
2023	1	1
2024	0	0.5
2025	0	0.5
2026	0	0.5
2027	0	0.5
2028	0	0.5
2029	0	0.266667
2030	0	0.457516
2031	0	0.415584
2032	0	0.291005
2033	0	0.255738
2034	0	0.265784
2035	0	0.263928
2036	0	0.171438
2037	0	0.14643
2038	0	0.116616
2039	0	0.115957
2040	0	0.396097
2041	0	0.133333
2042	0	0.136364
2043	0	0.2
2044	0	0.2
2045	0	0.2
2046	0	0.2
2047	0	0.2
2048	0	0.266667
2049	0	0.190476
2050	0	0.190476
2051	0	0.321429
2052	0	0.464286
2053	0	0.380009
2054	0	0.28475
2055	0	0.290148
2056	0	0.285897
2057	0	0.362731
2058	0	0.358974
2059	0	0.641026
2060	0	0.34767
2061	0	0.393975
2062	0	0.8337
2063	0	0.447845
2064	0	0.371921
2065	0	0.452381
2066	0	0.406154
2067	0	0
2068	0	1
2069	0	1
2070	0	1
2071	0	0.97875
2072	0	0.962145
2073	0	0.285714
2074	0	0.4
2075	0	0.6
2076	0	1
2077	0	1
2078	0	1
2079	0	1
2080	0	1
2081	0	0.897301
2082	0	0
2083	0	0
2084	0	1
2085	0	1
2086	0	0.989798
2087	0	0.166667
2088	0	0.166667
2089	0	0
2090	0	0
2091	0	0
2092	0	0
2093	0	0
2094	0	0
2095	0	0
2096	0	0
2097	0	0
2098	0	0
2099	0	0
2100	1	1
2101	0	1
2102	1	1
2103	0	0.998051
2104	0	0.996099
2105	0	0.996099
2106	1	0
2107	1	0
2108	1	1
2109	1	1
2110	1	1
2111	0	0.533095
2112	0	1
2113	1	1
2114	1	1
2115	1	1
2116	0	1
2117	0	1
2118	1	1
2119	1	1
2120	1	1
2121	0	1
2122	0	1
2123	0	0.990282
2124	0	0
2125	1	0
2126	1	0
2127	1	0
2128	1	0
2129	1	0
2130	1	0
2131	1	0
2132	0	0.986423
2133	0	1
2134	0	0.986435
2135	1	1
2136	1	1
2137	1	1
2138	1	1
2139	1	1
2140	1	1
2141	1	1
2142	0	1
2143	0	1
2144	0	1
2145	0	1
2146	0	1
2147	0	1
2148	0	0.998047
2149	0	1
2150	0	0.998049
2151	0	0
2152	0	0
2153	0	0
2154	0	0.99681
2155	0	0.971893
2156	0	0.953581
2157	0	0.959529
2158	0	0.938649
2159	0	0.202299
2160	0	0.167742
2161	0	0.592965
2162	0	0.430103
2163	0	0.411715
2164	0	0.453832
2165	0	0.453734
2166	0	0.424507
2167	0	0.0666667
2168	0	0.0952381
2169	0	0.0760234
2170	0	0.627657
2171	0	0.546484
2172	0	0.542637
2173	0	0.571703
2174	0	0.2
2175	0	0.2
2176	0	0
2177	0	0
2178	0	0
2179	0	0
2180	0	0
2181	0	0
2182	0	0
2183	0	0
2184	0	0
2185	0	0
2186	0	0
2187	0	0
2188	0	0
2189	0	0
2190	0	0
2191	0	0
2192	0	0
2193	0	0
2194	0	0.871588
2195	0	0
2196	0	0
2197	0	0
2198	0	0
2199	0	0
2200	0	0
2201	0	0
2202	0	0
2203	0	0
2204	0	0
2205	0	0
2206	0	0
2207	0	0.980344
2208	0	0.360433
2209	0	0.597403
2210	0	0.438181
2211	0	0
2212	0	0
2213	0	0
2214	0	0.531579
2215	0	0.333333
2216	0	0.545956
2217	0	0.994148
2218	0	0.99416
2219	0	0.99416
2220	0	0.99416
2221	0	0.994158
2222	0	0.994158
2223	0	0.996099
2224	0	0.996099
2225	0	0.996099
2226	0	0.996099
2227	0	0.996099
2228	0	0.996099
2229	0	0.996099
2230	0	0.996099
2231	0	0.996099
2232	0	0.996099
2233	0	0.996092
2234	0	0.996092
2235	0	0.996092
2236	0	0.996092
2237	0	0.994141
2238	0	1
2239	0	1
2240	0	0.98444
2241	0	0.98444
2242	0	0.986361
2243	0	0.969024
2244	0	1
2245	0	1
2246	0	1
2247	0	0.52381
2248	0	0.52381
2249	0	1
2250	0	1
2251	0	1
2252	0	0.468421
2253	0	0.447368
2254	0	0.367965
2255	0	0.652826
2256	0	0.284034
2257	0	0.226216
2258	0	0.669232
2259	0	0.502794
2260	0	0.28515
2261	0	0.296719
2262	0	0
2263	0	0
2264	0	0
2265	0	0.320434
2266	0	0.295157
2267	0	0.268629
2268	0	0.295717
2269	0	0.336975
2270	0	0.332182
2271	0	0.29671
2272	0	0.242893
2273	0	0.228054
2274	0	0.1998
2275	0	0.191308
2276	0	0.201418
2277	0	0.212001
2278	0	0.262452
2279	0	0.108396
2280	0	0.123299
2281	0	0.135354
2282	0	0.142857
2283	0	0.159756
2284	0	0.159756
2285	0	0.159756
2286	0	0.161538
2287	0	0.161538
2288	0	0.157692
2289	0	0.155128
2290	0	0.157895
2291	0	0.157895
2292	0	0.157895
2293	0	0.148448
2294	0	0.144399
2295	0	0.128205
2296	0	0.128205
2297	0	0.136302
2298	0	0.139001
2299	0	0.124157
2300	0	0.129555
2301	0	0.129555
2302	0	0.129555
2303	0	0.129555
2304	0	0.129555
2305	0	0.129555
2306	0	0.129555
2307	0	0.118758
2308	0	0.118758
2309	0	0.118758
2310	0	0.118293
2311	0	0.118293
2312	0	0.11266
2313	0	0.11266
2314	0	0.11266
2315	0	0.11266
2316	0	0.11266
2317	0	0.11266
2318	0	0.11266
2319	0	0.103594
2320	0	0.103594
2321	0	0.0956522
2322	0	0.0956522
2323	0	0.0906568
2324	0	0.0906568
2325	0	0.0906568
2326	0	0.0868794
2327	0	0.0833333
2328	0	0.0841837
2329	0	0.0816327
2330	0	0.0719776
2331	0	0.0719776
2332	0	0.066416
2333	0	0.0601093
2334	0	0.0545455
2335	0	0.0501035
2336	0	0.0473684
2337	0	0.0447531
2338	0	0.0433161
2339	0	0.0358337
2340	0	0.0312203
2341	0	0.0319049
2342	0	0.0298851
2343	0	0.0284039
2344	0	0.0338828
2345	0	0.0283121
2346	0	0.0274364
2347	0	0.026792
2348	0	0.0306268
2349	0	0.034883
2350	0	0.0333628
2351	0	0.0425103
2352	0	0.0542866
2353	0	0.0510638
2354	0	0.0503318
2355	0	0.0445363
2356	0	0.0381109
2357	0	0.0375514
2358	0	0.0429042
2359	0	0.0499374
2360	0	0.0500959
2361	0	0.0464798
2362	0	0.0471097
2363	0	0.0495366
2364	0	0.0478584
2365	0	0.0465927
2366	0	0.0543203
2367	0	0.0560837
2368	0	0.0536221
2369	0	0.0515612
2370	0	0.0471896
2371	0	0.055376
2372	0	0.0551823
2373	0	0.0525619
2374	0	0.0536131
2375	0	0.0445239
2376	0	0.0431597
2377	0	0.0523771
2378	0	0.0553494
2379	0	0.0664701
2380	0	0.0693029
2381	0	0.0643236
2382	0	0.0665526
2383	0	0.0701257
2384	0	0.0751462
2385	0	0.0821235
2386	0	0.0889
2387	0	0.0974748
2388	0	0.103907
2389	0	0.108232
2390	0	0.0313466
2391	0	0.0342826
2392	0	0.0343733
2393	0	0.0357109
2394	0	0.0412194
2395	0	0.0443649
2396	0	0.0420645
2397	0	0.0440598
2398	0	0.0456578
2399	0	0.043761
2400	0	0.0444904
2401	0	0.0462717
2402	0	0.04836
2403	0	0.0428135
2404	0	0.0458636
2405	0	0.058047
2406	0	0.066173
2407	0	0.0683761
2408	0	0.0706617
2409	0	0.0739289
2410	0	0.076881
2411	0	0.0791738
2412	0	0.0886076
2413	0	0.0961771
2414	0	0.0986086
2415	0	0.0499419
2416	0	0.0539811
2417	0	0.0526316
2418	0	0.0526316
2419	0	0.0571429
2420	0	0.0625
2421	0	0.0665025
2422	0	0.07
2423	0	0.07
2424	0	0.0790514
2425	0	0.0909091
2426	0	0.105263
2427	0	0.125
2428	0	0.141667
2429	0	0.0444444
2430	0	0.0444444
2431	0	0.0444444
2432	0	0.0444444
2433	0	0.0444444
2434	0	0.0357143
2435	0	0.0357143
2436	0	0.0357143
2437	0	0.0357143
2438	0	0.047619
2439	0	0.047619
2440	0	0.047619
2441	0	0.047619
2442	0	0.047619
2443	0	0.047619
2444	0	0.047619
2445	0	0.047619
2446	0	0.047619
2447	0	0.047619
2448	0	0.047619
2449	0	0.047619
2450	0	0.0666667
2451	0	0.0666667
2452	0	0.0666667
2453	0	0.0666667
2454	0	0.0666667
2455	0	0.0666667
2456	0	0.0666667
2457	0	0.0666667
2458	0	0.0666667
2459	0	0.0666667
2460	0	0.0666667
2461	0	0.0666667
2462	0	0.0666667
2463	0	0.0666667
2464	0	0.0666667
2465	0	0.0666667
2466	0	0.0666667
2467	0	0.0666667
2468	0	0.0666667
2469	0	0.0666667
2470	0	0.0666667
2471	0	0.0666667
2472	0	0.0666667
2473	0	0.0666667
2474	0	0.0666667
2475	0	0.0666667
2476	0	0.0666667
2477	0	0.0666667
2478	0	0.0666667
2479	0	0.0666667
2480	0	0.0666667
2481	0	0.0666667
2482	0	0.0666667
2483	0	0.0666667
2484	0	0.0666667
2485	0	0.0666667
2486	0	0.0666667
2487	0	0.0666667
2488	0	0.1
2489	0	0.1
2490	0	0.1
2491	0	0.1
2492	0	0.1
2493	0	0.1
2494	0	0.1
2495	0	0.1
2496	0	0.166667
2497	0	0.166667
2498	0	0.166667
2499	0	0.166667
2500	0	0.166667
2501	0	0.166667
2502	0	0.166667
2503	0	0.166667
2504	0	0.166667
2505	0	0.166667
2506	0	0
2507	0	0
2508	0	0
2509	0	0
2510	0	0
2511	0	0
2512	0	0
2513	0	0
2514	0	0
2515	0	0
2516	1	0
2517	1	0
2518	0	0
2519	0	0
2520	0	0
2521	0	0
2522	0	0
2523	0	0
2524	1	0
2525	1	0
2526	1	0
2527	1	0
2528	1	0
2529	1	0
2530	1	0
2531	0	0
2532	0	0
2533	0	0
2534	0	0
2535	0	0
2536	0	0
2537	0	0
2538	0	0
2539	0	0
2540	0	0
2541	0	0
2542	0	0
2543	0	0
2544	0	0
2545	0	0
2546	0	0
2547	0	0
2548	0	0
2549	0	0
2550	0	0
2551	0	0
2552	0	0
2553	0	0
2554	0	0
2555	0	0
2556	0	0
2557	0	0
2558	0	0
2559	0	0
2560	0	0
2561	0	0.994141
2562	0	0.992199
2563	0	0.992199
2564	0	0.994141
2565	0	0.994141
2566	0	0.994141
2567	0	0.994146
2568	0	0.994146
2569	0	0.994146
2570	0	0.992207
2571	0	0.990263
2572	0	0.992199
2573	0	0.992199
2574	0	0.990263
2575	0	0.990272
2576	0	0.990272
2577	0	0.990272
2578	0	0.990272
2579	0	0.990272
2580	0	0
2581	0	0.992207
2582	0	0.990282
2583	0	0.994158
2584	0	0.994158
2585	0	0.994158
2586	0	0
2587	0	0
2588	0	0
2589	0	0
2590	0	0
2591	0	0
2592	0	0
2593	0	0
2594	0	0
2595	0	0
2596	0	0
2597	0	0
2598	0	0
2599	0	0
2600	0	0
2601	0	0
2602	0	0
2603	0	0
2604	0	0
2605	0	0
2606	0	0
2607	0	0
2608	0	0
2609	0	0
2610	0	0
2611	0	0
2612	0	0
2613	0	0
2614	0	0
2615	0	0
2616	0	0
2617	0	0
2618	0	0
2619	0	0
2620	0	0
2621	0	0
2622	0	0
2623	0	0
2624	0	0
2625	0	0
2626	0	0
2627	0	0
2628	0	0
2629	0	0
2630	0	0
2631	0	0
2632	0	0
2633	0	0
2634	0	0
2635	0	0
2636	0	0
2637	0	0
2638	0	0
2639	0	0
2640	0	0
2641	0	0
2642	0	0
2643	0	0
2644	0	0
2645	0	0
2646	0	0
2647	0	0
2648	0	0
2649	0	0
2650	0	0
2651	0	0
2652	0	0
2653	0	0
2654	0	0
2655	0	0
2656	0	0
2657	0	0
2658	0	0
2659	0	0
2660	0	0
2661	0	0
2662	0	0
2663	0	0
2664	0	0
2665	0	0
2666	0	0
2667	0	0
2668	0	0
2669	0	0
2670	0	0
2671	0	0
2672	0	0
2673	0	0
2674	0	0
2675	0	0
2676	0	0
2677	0	0
2678	0	0
2679	0	0
2680	0	0
2681	0	0
2682	0	0
2683	0	0
2684	0	0
2685	0	0
2686	0	0
2687	0	0
2688	0	0
2689	0	0
2690	0	0
2691	0	0
2692	0	0
2693	0	0
2694	0	0
2695	0	0
2696	0	0
2697	0	0
2698	0	0
2699	0	0
2700	0	0
2701	0	0
2702	0	0
2703	0	0
2704	0	0
2705	0	0
2706	0	0
2707	0	0
2708	0	0
2709	0	0
2710	0	0
2711	0	0
2712	0	0
2713	0	0
2714	0	0
2715	0	0
2716	0	0
2717	0	0
2718	0	0
2719	0	0
2720	0	0
2721	0	0.992207
2722	0	0.992207
2723	0	0.992207
2724	0	0
2725	0	0
2726	0	0
2727	0	0
2728	0	0
2729	0	0
2730	0	0
2731	0	0
2732	0	0
2733	0	0.990253
2734	0	0.992191
2735	0	0
2736	0	0
2737	0	0
2738	0	0
2739	0	0
2740	0	0
2741	0	0
2742	0	0
2743	0	0
2744	0	0
2745	0	0
2746	0	0.988321
2747	0	0.988321
2748	0	0.988321
2749	0	0
2750	0	0
2751	0	0
2752	0	0
2753	0	0
2754	0	0
2755	0	0
2756	0	0
2757	0	0
2758	0	0
2759	0	0.992138
2760	0	0.992138
2761	0	0.992138
2762	0	0.988243
2763	0	0.988243
2764	0	0.98437
2765	0	0.98437
2766	0	0.982428
2767	0	0.982424
2768	0	0
2769	0	0
2770	1	0
2771	1	0
2772	1	0
2773	1	0
2774	1	0
2775	1	0
2776	1	0
2777	1	0
2778	1	0
2779	1	0
2780	1	0
2781	1	0
2782	1	0
2783	1	0
2784	1	0
2785	0	0
2786	0	0
2787	0	0
2788	0	0
2789	0	0.980483
2790	0	0.904114
2791	0	0.982426
2792	0	0
2793	0	0
2794	0	0
2795	0	0
2796	0	0
2797	0	0
2798	0	0
2799	0	0
2800	0	0
2801	0	0
2802	0	0
2803	0	0
2804	0	0
2805	0	0
2806	0	0
2807	0	0
2808	0	0
2809	0	0
2810	0	0
2811	0	0
2812	0	0
2813	0	0
2814	0	0
2815	0	0
2816	0	0
2817	0	0
2818	0	0
2819	0	0
2820	0	0
2821	0	0
2822	0	0
2823	0	0
2824	0	0
2825	0	0
2826	0	0
2827	0	0
2828	0	0
2829	0	0
2830	0	0
2831	0	0
2832	0	0
2833	0	0
2834	0	0
2835	0	0
2836	0	0
2837	0	0
2838	0	0
2839	0	0
2840	0	0
2841	0	0
2842	0	0
2843	0	0
2844	0	0
2845	0	0
2846	0	0
2847	0	0
2848	0	0
2849	0	0
2850	0	0
2851	0	0
2852	0	0
2853	0	0
2854	0	0
2855	0	0
2856	0	0
2857	0	0
2858	0	0
2859	0	0
2860	0	0
2861	0	0
2862	0	0
2863	0	0
2864	0	0
2865	0	0
2866	0	0
2867	0	0
2868	0	0
2869	0	0
2870	0	0
2871	0	0
2872	0	0
2873	0	0
2874	0	0
2875	0	0
2876	0	0
2877	0	0
2878	0	0.986294
2879	0	0.986294
2880	0	0
2881	0	0
2882	0	0
2883	0	0
2884	0	0.98338
2885	0	0.972544
2886	0	0.972544
2887	0	0.972544
2888	0	0.52465
2889	0	0.6
2890	0	0.4
2891	0	0.4
2892	0	0.4
2893	0	0.4
2894	0	0.333333
2895	0	0.536562
2896	0	0.305263
2897	0	0.281046
2898	0	0.171429
2899	0	0.153846
2900	0	0.153846
2901	0	0.153846
2902	0	0.421764
2903	0	0.386671
2904	0	0.386463
2905	0	0
2906	0	0
2907	0	0
2908	0	0
2909	0	0
2910	0	0
2911	0	0
2912	0	0
2913	0	0
2914	0	0
2915	0	0
2916	0	0
2917	0	0
2918	0	0
2919	0	0
2920	0	0
2921	0	0
2922	0	0
2923	0	0
2924	0	0
2925	0	0
2926	0	0
2927	0	0
2928	0	0
2929	0	0
2930	0	0
2931	0	0
2932	0	0
2933	0	0
2934	0	0
2935	0	0
2936	0	0
2937	0	0
2938	0	0
2939	0	0
2940	0	0
2941	0	0
2942	0	0
2943	0	0
2944	0	0
2945	0	0
2946	0	0
2947	0	0
2948	0	0
2949	0	0
2950	0	0
2951	0	0
2952	0	0
2953	0	0
2954	0	0
2955	0	0
2956	0	0
2957	0	0
2958	0	0
2959	0	0
2960	0	0
2961	0	0
2962	0	0
2963	0	0
2964	0	0
2965	0	0
2966	0	0
2967	0	0
2968	0	0
2969	0	0
2970	0	0
2971	0	0
2972	0	0
2973	0	0
2974	0	0
2975	0	0
2976	0	0
2977	0	0
2978	0	0
2979	0	0
2980	0	0
2981	0	0
2982	0	0
2983	0	0
2984	0	0
2985	0	0
2986	0	0
2987	0	0
2988	0	0
2989	0	0
2990	0	0
2991	0	0
2992	0	0
2993	0	0
2994	0	0
2995	0	0
2996	0	0
2997	0	0
2998	0	0
2999	0	0
3000	0	0
3001	0	0.428571
3002	0	0.428571
3003	0	0.400434
3004	0	0
3005	0	0
3006	0	0
3007	0	0.285714
3008	0	0
3009	0	0.573333
3010	0	0.375494
3011	0	0.161376
3012	0	0.1
3013	0	0.1
3014	0	0.166667
3015	0	0.166667
3016	0	0.166667
3017	0	0.166667
3018	0	0.1
3019	0	0.1
3020	0	0.1
3021	0	0.0666667
3022	0	0.0666667
3023	0	0.0666667
3024	0	0.623188
3025	0	0.623188
3026	0	0.0555556
3027	0	0.0555556
3028	0	0.0555556
3029	0	0.0555556
3030	0	0.0444444
3031	0	0.114286
3032	0	0.152381
3033	0	0.161905
3034	0	0.138528
3035	0	0.225914
3036	0	0.180769
3037	0	0.188108
3038	0	0.140189
3039	0	0.175917
3040	0	0.148021
3041	0	0.120767
3042	0	0.136983
3043	0	0.167537
3044	0	0.350061
3045	0	0.296286
3046	0	0.251108
3047	0	0.2274
3048	0	0.232759
3049	0	0.212308
3050	0	0.295238
3051	0	0.366013
3052	0	0.404412
3053	0	0.404412
3054	0	0.404412
3055	0	0.327485
3056	0	0.305263
3057	0	0.305263
3058	0	0.233202
3059	0	0.233202
3060	0	0.669574
3061	0	0.660787
3062	0	0.657797
3063	0	0.657074
3064	0	0.900063
3065	0	0.918814
3066	0	0.891386
3067	0	0.787879
3068	0	0.658537
3069	0	0.65122
3070	0	0.639744
3071	0	0.591093
3072	0	0.553306
3073	0	0.551957
3074	0	0.43101
3075	0	0.341463
3076	0	0.286585
3077	0	0.492721
3078	0	0.506893
3079	0	0.512518
3080	0	0.425032
3081	0	0.302806
3082	0	0.173673
3083	0	0.174142
3084	0	0.183827
3085	0	0.188083
3086	0	0.186177
3087	0	0.18495
3088	0	0.272413
3089	0	0.288331
3090	0	0.28544
3091	0	0.270363
3092	0	0.328955
3093	0	0.322424
3094	0	0.315031
3095	0	0.256081
3096	0	0.259097
3097	0	0.259259
3098	0	0.259459
3099	0	0.265649
3100	0	0.172636
3101	0	0.131002
3102	0	0.0651289
3103	0	0.0642899
3104	0	0.0525424
3105	0	0.0789474
3106	0	0.0824675
3107	0	0.0907112
3108	0	0.0988235
3109	0	0.116497
3110	0	0.132979
3111	0	0.13321
3112	0	0.160976
3113	0	0.160976
3114	0	0.00952381
3115	0	0.010989
3116	0	0.0128205
3117	0	0.030303
3118	0	0.0363636
3119	0	0.0277778
3120	0	0
3121	0	0
3122	0	0
3123	0	0.0666667
3124	0	0.1
3125	0	0.1
3126	0	0.1
3127	0	0.1
3128	0	0.1
3129	0	0.1
3130	0	0.1
3131	0	0.1
3132	0	0.1
3133	0	0.1
3134	0	0.1
3135	0	0.1
3136	0	0.1
3137	0	0.1
3138	0	0.1
3139	0	0.1
3140	0	0.1
3141	0	0.1
3142	0	0.1
3143	0	0.1
3144	0	0.1
3145	0	0.1
3146	0	0.1
3147	0	0.1
3148	0	0.1
3149	0	0.1
3150	0	0.1
3151	0	0.1
3152	0	0.1
3153	0	0.1
3154	0	0.1
3155	0	0.1
3156	0	0.1
3157	0	0.1
3158	0	0.1
3159	0	0.1
3160	0	0.1
3161	0	0.1
3162	0	0.1
3163	0	0.1
3164	0	0.1
3165	0	0.1
3166	0	0.1
3167	0	0.1
3168	0	0.1
3169	0	0.1
3170	0	0.1
3171	0	0.1
3172	0	0.1
3173	0	0.1
3174	0	0.1
3175	0	0.1
3176	0	0.1
3177	0	0.1
3178	0	0.0952381
3179	0	0.0833333
3180	0	0.0666667
3181	0	0.0606061
3182	0	0.0666667
3183	0	0.0522876
3184	0	0.0606061
3185	0	0.0688406
3186	0	0.037037
3187	0	0.0582011
3188	0	0.0516129
3189	0	0.0544355
3190	0	0.0907112
3191	0	0.532288
3192	0	0.538149
3193	0	0.631641
3194	0	0.654428
3195	0	0.651359
3196	0	0.667816
3197	0	0.674902
3198	0	0.682104
3199	0	0.670356
3200	0	0.664577
3201	0	0.664577
3202	0	0.664577
3203	0	0.615735
3204	0	0.615735
3205	0	0.61566
3206	0	0.621568
3207	0	0.621568
3208	0	0.621682
3209	0	0.608088
3210	0	0.599709
3211	0	0.600054
3212	0	0.586685
3213	0	0.58513
3214	0	0.590074
3215	0	0.434369
3216	0	0.421795
3217	0	0.421795
3218	0	0.421795
3219	0	0.379365
3220	0	0.529231
3221	0	0.496377
3222	0	0.504762
3223	0	0.484211
3224	0	0.437908
3225	0	0.383333
3226	0	0.383333
3227	0	0.308333
3228	0	0.282051
3229	0	0.2
3230	0	0.0666667
3231	0	0.0666667
3232	0	0.0714286
3233	0	0.0714286
3234	0	0.0714286
3235	0	0.0714286
3236	0	0.0714286
3237	0	0.0714286
3238	0	0.0714286
3239	0	0.0714286
3240	0	0.244444
3241	0	0.244444
3242	0	0.236508
3243	0	0.223529
3244	0	0.183468
3245	0	0.154023
3246	0	0.152709
3247	0	0.105911
3248	0	0.0808824
3249	0	0.043956
3250	0	0.0512821
3251	0	0.025641
3252	0	0.025641
3253	0	0.0181818
3254	0	0.0444444
3255	0	0.0444444
3256	0	0.0357143
3257	0	0.0357143
3258	0	0.0357143
3259	0	0.0357143
3260	0	0.0357143
3261	0	0.0357143
3262	0	0.1
3263	0	0.1
3264	0	0.1
3265	0	0.166667
3266	0	0.166667
3267	0	0.166667
3268	0	0.166667
3269	0	0
3270	0	0
3271	0	0
3272	0	0
3273	0	0
3274	0	0
3275	0	0
3276	0	0
3277	0	0
3278	0	0
3279	0	0
3280	0	0
3281	0	0
3282	0	0
3283	0	0
3284	0	0
3285	0	0
3286	0	0
3287	0	0
3288	0	0
3289	0	0
3290	0	0
3291	0	0
3292	0	0
3293	0	0
3294	0	0
3295	0	0
3296	0	0
3297	0	0
3298	0	0
3299	0	0
3300	0	0
3301	0	0
3302	0	0
3303	0	0
3304	0	0
3305	0	0
3306	0	0
3307	0	0
3308	0	0
3309	0	0
3310	0	0
3311	0	0
3312	0	0
3313	0	0
3314	0	0
3315	0	0
3316	0	0
3317	0	0
3318	0	0
3319	0	0
3320	0	0
3321	0	0
3322	0	0
3323	0	0
3324	0	0
3325	0	0
3326	0	0
3327	0	0
3328	0	0
3329	0	0
3330	0	0
3331	0	0
3332	0	0
3333	0	0
3334	0	0
3335	0	0
3336	0	0
3337	0	0
3338	0	0
3339	0	0
3340	0	0
3341	0	0
3342	0	0
3343	0	0
3344	0	0
3345	0	0
3346	0	0
3347	0	0
3348	0	0
3349	0	0
3350	0	0
3351	0	0
3352	0	0
3353	0	0
3354	0	0
3355	0	0
3356	0	0
3357	0	0
3358	0	0.333333
3359	0	0.333333
3360	0	0.333333
3361	0	0.333333
3362	0	0.333333
3363	0	0.333333
3364	0	0.333333
3365	0	0.333333
3366	0	0.333333
3367	0	0.333333
3368	0	0.333333
3369	0	0.333333
3370	0	0.333333
3371	0	0.333333
3372	0	0.333333
3373	0	0.333333
3374	0	0.333333
3375	0	0.333333
3376	0	0.333333
3377	0	0.333333
3378	0	0.333333
3379	0	0.333333
3380	0	0.333333
3381	0	0.333333
3382	0	0.333333
3383	0	0.333333
3384	0	0.333333
3385	0	0.333333
3386	0	0.333333
3387	0	0.333333
3388	0	0.333333
3389	0	0.333333
3390	0	0.333333
3391	0	0.333333
3392	0	0.333333
3393	0	0.333333
3394	0	0.333333
3395	0	0.333333
3396	0	0.333333
3397	0	0.333333
3398	0	0.333333
3399	0	0.333333
3400	0	0.333333
3401	0	0.333333
3402	0	0.333333
3403	0	0.333333
3404	0	0.333333
3405	0	0.333333
3406	0	0.333333
3407	0	0.333333
3408	0	0.333333
3409	0	0.333333
3410	0	0.333333
3411	0	0.333333
3412	0	0.333333
3413	0	0.333333
3414	0	0.333333
3415	0	0.333333
3416	0	0.333333
3417	0	0.333333
3418	0	0.333333
3419	0	0.333333
3420	0	0.333333
3421	0	0.333333
3422	0	0.333333
3423	0	0.333333
3424	0	0.333333
3425	0	0.333333
3426	0	0.333333
3427	0	0.333333
3428	0	0.333333
3429	0	0.333333
3430	0	0.333333
3431	0	0.333333
3432	0	0.333333
3433	0	0.333333
3434	0	0.333333
3435	0	0.333333
3436	0	0.333333
3437	0	0.333333
3438	0	0.333333
3439	0	0.333333
3440	0	0.333333
3441	0	0.333333
3442	0	0.333333
3443	0	0.333333
3444	0	0.333333
3445	0	0.333333
3446	0	0.333333
3447	0	0.333333
3448	0	0.333333
3449	0	0.333333
3450	0	0.333333
3451	0	0.333333
3452	0	0.333333
3453	0	0.333333
3454	0	0.333333
3455	0	0.333333
3456	0	0.333333
3457	0	0.333333
3458	0	0.333333
3459	0	0.333333
3460	0	0.333333
3461	0	0.333333
3462	0	0.333333
3463	0	0.333333
3464	0	0.333333
3465	0	0.333333
3466	0	0.333333
3467	0	0.333333
3468	0	0.333333
3469	0	0.333333
3470	0	0.333333
3471	0	0.333333
3472	0	0.333333
3473	0	0.333333
3474	0	0.333333
3475	0	0.333333
3476	0	0.333333
3477	0	0.333333
3478	0	0.333333
3479	0	0.333333
3480	0	0.333333
3481	0	0.333333
3482	0	0.333333
3483	0	0.333333
3484	0	0.333333
3485	0	0.333333
3486	0	0.333333
3487	0	0.333333
3488	0	0.333333
3489	0	0.333333
3490	0	0.333333
3491	0	0.333333
3492	0	0.333333
3493	0	0.333333
3494	0	0.333333
3495	0	0.333333
3496	0	0.333333
3497	0	0.333333
3498	0	0.333333
3499	0	0.333333
3500	0	0.333333
3501	0	0.333333
3502	0	0.333333
3503	0	0.333333
3504	0	0.333333
3505	0	0.333333
3506	0	0.333333
3507	0	0.333333
3508	0	0.333333
3509	0	0.333333
3510	0	0.333333
3511	0	0.333333
3512	0	0.333333
3513	0	0.333333
3514	0	0.333333
3515	0	0.333333
3516	0	0.333333
3517	0	0.333333
3518	0	0.333333
3519	0	0.333333
3520	0	0.333333
3521	0	0.333333
3522	0	0.333333
3523	0	0.333333
3524	0	0.333333
3525	0	0.333333
3526	0	0.333333
3527	0	0.333333
3528	0	0.333333
3529	0	0.333333
3530	0	0.333333
3531	0	0.333333
3532	0	0.333333
3533	0	0.333333
3534	0	0.333333
3535	0	0.333333
3536	0	0.333333
3537	0	0.333333
3538	0	0.333333
3539	0	0.333333
3540	0	0.333333
3541	0	0.333333
3542	0	0.166667
3543	0	0.166667
3544	0	0.166667
3545	0	0.1
3546	0	0.1
3547	0	0.1
3548	0	0.1
3549	0	0.1
3550	0	0.0666667
3551	0	0.0666667
3552	0	0.0666667
3553	0	0.0666667
3554	0	0.0666667
3555	0	0.0666667
3556	0	0.0666667
3557	0	0.047619
3558	0	0.047619
3559	0	0.047619
3560	0	0.047619
3561	0	0.047619
3562	0	0.047619
3563	0	0.047619
3564	0	0.047619
3565	0	0.047619
3566	0	0.047619
3567	0	0.047619
3568	0	0.047619
3569	0	0.047619
3570	0	0.047619
3571	0	0.047619
3572	0	0.047619
3573	0	0.047619
3574	0	0.047619
3575	0	0.047619
3576	0	0.047619
3577	0	0.047619
3578	0	0.047619
3579	0	0.047619
3580	0	0.047619
3581	0	0.047619
3582	0	0.047619
3583	0	0.047619
3584	0	0.047619
3585	0	0.0357143
3586	0	0.0357143
3587	0	0.0277778
3588	0	0.0277778
3589	0	0.0277778
3590	0	0.0277778
3591	0	0.0277778
3592	0	0.0277778
3593	0	0.0277778
3594	0	0.0277778
3595	0	0.0277778
3596	0	0.0222222
3597	0	0.0222222
3598	0	0.0151515
3599	0	0.0151515
3600	0	0.0583333
3601	0	0.0583333
3602	0	0.0583333
3603	0	0.0514706
3604	0	0.0294118
3605	0	0.0294118
3606	0	0.0294118
3607	0	0.0294118
3608	0	0.0261438
3609	0	0.0261438
3610	0	0.0285714
3611	0	0.0237154
3612	0	0.0217391
3613	0	0.0166667
3614	0	0.0166667
3615	0	0.03
3616	0	0.0307692
3617	0	0.0295567
3618	0	0.183584
3619	0	0.159175
3620	0	0.127968
3621	0	0.10581
3622	0	0.0932906
3623	0	0.0869565
3624	0	0.0835526
3625	0	0.0783344
3626	0	0.0770297
3627	0	0.0698648
3628	0	0.0702456
3629	0	0.0744337
3630	0	0.0709485
3631	0	0.0702016
3632	0	0.0632525
3633	0	0.0633437
3634	0	0.0629976
3635	0	0.0598029
3636	0	0.0587156
3637	0	0.0627189
3638	0	0.0633862
3639	0	0.0622441
3640	0	0.0622441
3641	0	0.0588418
3642	0	0.0578185
3643	0	0.0543097
3644	0	0.0526237
3645	0	0.0530735
3646	0	0.0592204
3647	0	0.0226493
3648	0	0.0221917
3649	0	0.0253946
3650	0	0.0253946
3651	0	0.0241952
3652	0	0.0226757
3653	0	0.0241187
3654	0	0.0254579
3655	0	0.0280374
3656	0	0.0309073
3657	0	0.101681
3658	0	0.0989026
3659	0	0.0938291
3660	0	0.091529
3661	0	0.0878445
3662	0	0.0817719
3663	0	0.077451
3664	0	0.0742621
3665	0	0.0764645
3666	0	0.0711246
3667	0	0.0703226
3668	0	0.0719984
3669	0	0.0722611
3670	0	0.0785742
3671	0	0.0796426
3672	0	0.0803023
3673	0	0.0867114
3674	0	0.0853085
3675	0	0.081555
3676	0	0.0810877
3677	0	0.0753145
3678	0	0.0743012
3679	0	0.0736907
3680	0	0.0992956
3681	0	0.0970427
3682	0	0.0962395
3683	0	0.0911243
3684	0	0.0940769
3685	0	0.0920682
3686	0	0.0952172
3687	0	0.0940769
3688	0	0.0938605
3689	0	0.0937883
3690	0	0.0997623
3691	0	0.0989277
3692	0	0.0988471
3693	0	0.101666
3694	0	0.107929
3695	0	0.0974372
3696	0	0.0987278
3697	0	0.0996868
3698	0	0.101673
3699	0	0.102786
3700	0	0.108181
3701	0	0.111511
3702	0	0.112814
3703	0	0.114461
3704	0	0.114461
3705	0	0.116037
3706	0	0.117647
3707	0	0.124798
3708	0	0.132505
3709	0	0.134983
3710	0	0.126095
3711	0	0.128129
3712	0	0.128516
3713	0	0.109935
3714	0	0.0786352
3715	0	0.095651
3716	0	0.101928
3717	0	0.101791
3718	0	0.107423
3719	0	0.112143
3720	0	0.116095
3721	0	0.120101
3722	0	0.121943
3723	0	0.126609
3724	0	0.136206
3725	0	0.172323
3726	0	0.173333
3727	0	0.169901
3728	0	0.169901
3729	0	0.169901
3730	0	0.164158
3731	0	0.170893
3732	0	0.177077
3733	0	0.186842
3734	0	0.158772
3735	0	0.158772
3736	0	0.183908
3737	0	0.127551
3738	0	0.0197044
3739	0	0.021164
3740	0	0.0181159
3741	0	0.0158103
3742	0	0.0158103
3743	0	0.0158103
3744	0	0.0158103
3745	0	0.0158103
3746	0	0.0118577
3747	0	0.0118577
3748	0	0.0118577
3749	0	0.0118577
3750	0	0.0118577
3751	0	0.017316
3752	0	0.017316
3753	0	0.0190476
3754	0	0.0190476
3755	0	0.0233918
3756	0	0.0261438
3757	0	0.0294118
3758	0	0.0294118
3759	0	0.0294118
3760	0	0.0294118
3761	0	0.0294118
3762	0	0.0294118
3763	0	0.0294118
3764	0	0.0294118
3765	0	0.0294118
3766	0	0.0294118
3767	0	0.0294118
3768	0	0.0294118
3769	0	0.0367647
3770	0	0.0416667
3771	0	0.0416667
3772	0	0.043956
3773	0	0.0444444
3774	0	0.0444444
3775	0	0.0357143
3776	0	0.0357143
3777	0	0.0357143
3778	0	0.0357143
3779	0	0.0357143
3780	0	0.0357143
3781	0	0.0357143
3782	0	0.0357143
3783	0	0.0357143
3784	0	0.0357143
3785	0	0.0357143
3786	0	0.047619
3787	0	0.047619
3788	0	0.047619
3789	0	0.047619
3790	0	0.047619
3791	0	0.047619
3792	0	0.047619
3793	0	0.047619
3794	0	0.047619
3795	0	0.047619
3796	0	0.047619
3797	0	0.0666667
3798	0	0.1
3799	0	0.1
3800	0	0.1
3801	0	0.1
3802	0	0.1
3803	0	0.1
3804	0	0.166667
3805	0	0.166667
3806	0	0.166667
3807	0	0.166667
3808	0	0.166667
3809	0	0.166667
3810	0	0.166667
3811	0	0.166667
3812	0	0.166667
3813	0	0.166667
3814	0	0.166667
3815	0	0.166667
3816	0	0.333333
3817	0	0.333333
3818	0	0.333333
3819	0	0.333333
3820	0	0.333333
3821	0	0.333333
3822	0	0.333333
3823	0	0.333333
3824	0	0.333333
3825	0	0.333333
3826	0	0.333333
3827	0	1
3828	0	1
3829	0	1
3830	0	1
3831	0	1
3832	0	1
3833	0	1
3834	0	1
3835	0	1
3836	0	1
3837	0	1
3838	0	1
3839	0	1
3840	0	1
3841	0	1
3842	0	1
3843	0	1
3844	0	1
