Site	ColumnScore	SumOfPairsScore
1	1	0
2	1	0
3	1	0
4	1	0
5	1	0
6	1	0
7	1	0
8	1	0
9	1	0
10	1	0
11	1	0
12	1	0
13	1	0
14	1	0
15	1	0
16	1	0
17	1	0
18	1	0
19	1	0
20	1	0
21	1	0
22	1	0
23	1	0
24	1	0
25	1	0
26	1	0
27	1	0
28	1	0
29	1	0
30	1	0
31	1	0
32	1	0
33	1	0
34	1	0
35	1	0
36	1	0
37	1	0
38	1	0
39	0	0
40	0	0
41	0	0
42	1	0
43	0	0
44	0	0
45	0	0
46	0	0
47	0	0
48	0	0
49	0	0
50	0	0
51	0	0
52	0	0
53	0	0
54	0	0
55	0	0
56	0	0
57	0	0
58	0	0
59	0	0
60	0	0
61	0	0
62	0	0
63	0	0
64	1	0
65	1	0
66	0	0
67	0	0
68	0	0
69	0	0
70	0	0
71	0	0
72	0	0
73	0	0
74	0	0
75	0	0
76	0	0
77	0	0
78	0	0
79	0	0
80	0	0
81	0	0
82	0	0
83	0	0
84	0	0
85	0	0
86	0	0
87	0	0
88	0	0
89	0	0
90	0	0
91	0	0
92	0	0
93	0	0
94	0	0
95	0	0
96	0	0
97	0	0
98	0	0
99	0	0
100	1	0
101	1	0
102	1	0
103	1	0
104	1	0
105	1	0
106	1	0
107	0	0
108	0	0
109	0	0
110	0	0
111	0	0
112	1	0
113	1	0
114	1	0
115	1	0
116	1	0
117	0	0
118	0	0
119	0	0
120	0	0
121	0	0
122	0	0
123	0	0
124	0	0
125	0	0
126	0	0
127	0	0
128	0	0
129	0	0
130	0	0
131	0	0
132	0	0
133	0	0
134	0	0
135	0	0
136	0	0
137	0	0
138	0	0
139	0	0
140	0	0
141	0	0
142	0	0
143	0	0
144	0	0
145	0	0
146	0	0
147	1	0
148	0	0
149	0	0
150	1	0
151	1	0
152	0	0
153	0	0
154	0	0
155	0	0
156	0	0
157	0	0
158	0	0
159	0	0
160	0	0
161	0	0
162	0	0
163	0	0
164	0	0
165	0	0
166	0	0
167	0	0
168	0	0
169	0	0
170	0	0
171	0	0
172	0	0
173	0	0
174	0	0
175	0	0
176	0	0
177	0	0
178	0	0
179	0	0
180	0	0
181	0	0
182	0	0
183	0	0
184	0	0
185	0	0
186	0	0
187	0	0
188	0	0
189	0	0
190	0	0
191	0	0
192	0	0
193	0	0
194	0	0
195	0	0
196	0	0
197	0	0
198	0	0
199	0	0
200	0	0
201	1	0
202	1	0
203	1	0
204	1	0
205	1	0
206	1	0
207	1	0
208	1	0
209	1	0
210	1	0
211	1	0
212	1	0
213	1	0
214	1	0
215	1	0
216	1	0
217	1	0
218	1	0
219	1	0
220	1	0
221	1	0
222	1	0
223	1	0
224	1	0
225	1	0
226	1	0
227	1	0
228	1	0
229	1	0
230	1	0
231	1	0
232	1	0
233	1	0
234	1	0
235	1	0
236	1	0
237	1	0
238	1	0
239	1	0
240	0	0
241	0	0
242	0	0
243	0	0
244	0	0
245	0	0
246	0	0
247	1	0
248	1	0
249	0	0
250	0	0
251	0	0
252	0	0
253	0	0
254	0	0
255	0	0
256	0	0
257	0	0
258	0	0
259	0	0
260	0	0
261	0	0
262	0	0
263	0	0
264	0	0
265	0	0
266	0	0
267	0	0
268	0	0
269	0	0
270	0	0
271	0	0
272	0	0
273	0	0
274	0	0
275	0	0
276	0	0
277	0	0
278	0	0
279	0	0
280	0	0
281	0	0
282	0	0
283	0	0
284	0	0
285	0	0
286	0	0
287	0	0
288	0	0
289	0	0
290	0	0
291	1	0
292	0	0
293	0	0
294	0	0
295	0	0
296	0	0
297	0	0
298	0	0
299	0	0
300	0	0
301	0	0
302	0	0
303	0	0
304	0	0
305	0	0
306	0	0
307	0	0
308	0	0
309	0	0
310	0	0
311	0	0
312	0	0
313	0	0
314	0	0
315	0	0
316	0	0
317	0	0
318	0	0
319	0	0
320	0	0
321	0	0
322	0	0
323	0	0
324	0	0
325	0	0
326	0	0
327	0	0
328	0	0
329	0	0
330	0	0
331	0	0
332	0	0
333	0	0
334	0	0
335	0	0
336	0	0
337	0	0
338	0	0
339	0	0
340	0	0
341	0	0
342	0	0
343	0	0
344	0	0
345	0	0
346	0	0
347	0	0
348	0	0
349	0	0
350	0	0
351	0	0
352	0	0
353	0	0
354	0	0
355	0	0
356	0	0
357	0	0
358	0	0
359	0	0
360	0	0
361	0	0
362	0	0
363	0	0
364	0	0
365	0	0
366	0	0
367	0	0
368	0	0
369	0	0
370	0	0
371	0	0
372	0	0
373	0	0
374	0	0
375	0	0
376	0	0
377	0	0
378	0	0
379	0	0
380	0	0
381	0	0
382	0	0
383	0	0
384	0	0
385	0	0
386	0	0
387	0	0
388	0	0
389	0	0
390	0	0
391	0	0
392	0	0
393	0	0
394	0	0
395	0	0
396	0	0
397	0	0
398	0	0
399	0	0
400	0	0
401	0	0
402	0	0
403	0	0
404	0	0
405	0	0
406	0	0
407	0	0
408	0	0
409	0	0
410	0	0
411	0	0
412	0	0
413	0	0
414	0	0
415	0	0
416	0	0
417	0	0
418	0	0
419	0	0
420	0	0
421	0	0
422	0	0
423	0	0
424	0	0
425	0	0
426	0	0
427	0	0
428	0	0
429	0	0
430	0	0
431	0	0
432	0	0
433	0	0
434	0	0
435	0	0
436	0	0
437	0	0
438	0	0
439	0	0
440	0	0
441	0	0
442	0	0
443	0	0
444	0	0
445	0	0
446	0	0
447	0	0
448	0	0
449	0	0
450	0	0
451	0	0
452	0	0
453	0	0
454	0	0
455	0	0
456	0	0
457	0	0
458	0	0
459	0	0
460	0	0
461	0	0
462	0	0
463	0	0
464	0	0
465	0	0
466	0	0
467	0	0
468	0	0
469	0	0
470	0	0
471	0	0
472	0	0
473	0	0
474	0	0
475	0	0
476	0	0
477	0	0
478	0	0
479	0	0
480	0	0
481	0	0
482	0	0
483	0	0
484	0	0
485	0	0
486	0	0
487	0	0
488	0	0
489	0	0
490	0	0
491	0	0
492	0	0
493	0	0
494	0	0
495	0	0
496	0	0
497	0	0
498	0	0
499	0	0
500	0	0
501	0	0
502	0	0
503	0	0
504	0	0
505	0	0
506	0	0
507	0	0
508	0	0
509	0	0
510	0	0
511	0	0
512	0	0
513	0	0
514	0	0
515	0	0
516	0	0
517	0	0
518	0	0
519	0	0
520	0	0
521	0	0
522	0	0
523	0	0
524	0	0
525	0	0
526	0	0
527	0	0
528	0	0
529	0	0
530	0	0
531	0	0
532	0	0
533	0	0
534	0	0
535	0	0
536	0	0
537	0	0
538	0	0
539	0	0
540	0	0
541	0	0
542	0	0
543	0	0
544	0	0
545	0	0
546	0	0
547	0	0
548	0	0
549	0	0
550	0	0
551	0	0
552	0	0
553	0	0
554	0	0
555	0	0
556	0	0
557	0	0
558	0	0
559	0	0
560	0	0
561	0	0
562	0	0
563	0	0
564	0	0
565	0	0
566	0	0
567	0	0
568	0	0
569	0	0
570	0	0
571	0	0
572	0	0
573	0	0
574	0	0
575	0	0
576	0	0
577	0	0
578	0	0
579	0	0
580	0	0
581	0	0
582	0	0
583	0	0
584	0	0
585	0	0
586	0	0
587	0	0
588	0	0
589	0	0
590	0	0
591	0	0
592	0	0
593	0	0
594	0	0
595	0	0
596	0	0
597	0	0
598	0	0
599	0	0
600	0	0
601	0	0
602	0	0
603	0	0
604	0	0
605	0	0
606	0	0
607	0	0
608	0	0
609	0	0
610	0	0
611	0	0
612	0	0
613	0	0
614	0	0
615	0	0
616	0	0
617	0	0
618	0	0
619	0	0
620	0	0
621	0	0
622	0	0
623	0	0
624	0	0
625	0	0
626	0	0
627	0	0
628	0	0
629	0	0
630	0	0
631	0	0
632	0	0
633	0	0
634	0	0
635	0	0
636	0	0
637	0	0
638	0	0
639	0	0
640	0	0
641	0	0
642	0	0
643	0	0
644	0	0
645	0	0
646	0	0
647	0	0
648	0	0
649	0	0
650	0	0
651	0	0
652	0	0
653	0	0
654	0	0
655	0	0
656	0	0
657	0	0
658	0	0
659	0	0
660	0	0
661	0	0
662	0	0
663	0	0
664	0	0
665	0	0
666	0	0
667	0	0
668	0	0
669	0	0
670	0	0
671	0	0
672	0	0
673	0	0
674	0	0
675	0	0
676	0	0
677	0	0
678	0	0
679	0	0
680	0	0
681	0	0
682	0	0
683	0	0
684	0	0
685	0	0
686	0	0
687	0	0
688	0	0
689	0	0
690	0	0
691	0	0
692	0	0
693	0	0
694	0	0
695	0	0
696	0	0
697	0	0
698	0	0
699	0	0
700	0	0
701	0	0
702	0	0
703	0	0
704	0	0
705	0	0
706	0	0
707	0	0
708	0	0
709	0	0
710	0	0
711	0	0
712	0	0
713	0	0
714	0	0
715	0	0
716	0	0
717	0	0
718	0	0
719	0	0
720	0	0
721	0	0
722	0	0
723	0	0
724	0	0
725	0	0
726	0	0
727	0	0
728	0	0
729	0	0
730	0	0
731	0	0
732	0	0
733	0	0
734	0	0
735	0	0
736	0	0
737	0	0
738	0	0
739	0	0
740	0	0
741	0	0
742	0	0
743	0	0
744	0	0
745	0	0
746	0	0
747	0	0
748	0	0
749	0	0
750	0	0
751	0	0
752	0	0
753	0	0
754	0	0
755	0	0
756	0	0
757	0	0
758	0	0
759	0	0
760	0	0
761	0	0
762	0	0
763	0	0
764	0	0
765	0	0
766	0	0
767	0	0
768	0	0
769	0	0
770	0	0
771	0	0
772	0	0
773	0	0
774	0	0
775	0	0
776	0	0
777	0	0
778	0	0
779	0	0
780	0	0
781	0	0
782	0	0
783	0	0
784	0	0
785	0	0
786	0	0
787	0	0
788	0	0
789	0	0
790	0	0
791	0	0
792	0	0
793	0	0
794	0	0
795	0	0
796	0	0
797	0	0
798	0	0
799	0	0
800	0	0
801	0	0
802	0	0
803	0	0
804	0	0
805	0	0
806	0	0
807	0	0
808	0	0
809	0	0
810	0	0
811	0	0
812	0	0
813	0	0
814	0	0
815	0	0
816	0	0
817	0	0
818	0	0
819	0	0
820	0	0
821	0	0
822	0	0
823	0	0
824	0	0
825	0	0
826	0	0
827	0	0
828	0	0
829	0	0
830	0	0
831	0	0
832	0	0
833	0	0
834	0	0
835	0	0
836	0	0
837	0	0
838	0	0
839	0	0
840	0	0
841	0	0
842	0	0
843	0	0
844	0	0
845	0	0
846	0	0
847	0	0
848	0	0
849	0	0
850	0	0
851	0	0
852	0	0
853	0	0
854	0	0
855	0	0
856	0	0
857	0	0
858	0	0
859	0	0
860	0	0
861	0	0
862	0	0
863	0	0
864	0	0
865	0	0
866	0	0
867	0	0
868	0	0
869	0	0
870	0	0
871	0	0
872	0	0
873	0	0
874	0	0
875	0	0
876	0	0
877	0	0
878	0	0
879	0	0
880	0	0
881	0	0
882	0	0
883	0	0
884	0	0
885	0	0
886	0	0
887	0	0
888	0	0
889	0	0
890	0	0
891	0	0
892	0	0
893	0	0
894	0	0
895	0	0
896	0	0
897	0	0
898	0	0
899	0	0
900	0	0
901	0	0
902	0	0
903	0	0
904	0	0
905	0	0
906	0	0
907	0	0
908	0	0
909	0	0
910	0	0
911	0	0
912	0	0
913	0	0
914	0	0
915	0	0
916	0	0
917	0	0
918	0	0
919	0	0
920	0	0
921	0	0
922	0	0
923	0	0
924	0	0
925	0	0
926	0	0
927	0	0
928	0	0
929	0	0
930	0	0
931	0	0
932	0	0
933	0	0
934	0	0
935	0	0
936	0	0
937	0	0
938	0	0
939	0	0
940	0	0
941	0	0
942	0	0
943	0	0
944	0	0
945	0	0
946	0	0
947	0	0
948	0	0
949	0	0
950	0	0
951	0	0
952	0	0
953	0	0
954	0	0
955	0	0
956	0	0
957	0	0
958	0	0
959	0	0
960	0	0
961	0	0
962	0	0
963	0	0
964	0	0
965	0	0
966	0	0
967	0	0
968	0	0
969	0	0
970	0	0
971	0	0
972	0	0
973	0	0
974	0	0
975	0	0
976	0	0
977	0	0
978	0	0
979	0	0
980	0	0
981	0	0
982	0	0
983	0	0
984	0	0
985	0	0
986	0	0
987	0	0
988	0	0
989	0	0
990	0	0
991	0	0
992	0	0
993	0	0
994	0	0
995	0	0
996	0	0
997	0	0
998	0	0
999	0	0
1000	0	0
1001	0	0
1002	0	0
1003	0	0
1004	0	0
1005	0	0
1006	0	0
1007	0	0
1008	0	0
1009	0	0
1010	0	0
1011	0	0
1012	0	0
1013	0	0
1014	0	0
1015	0	0
1016	0	0
1017	0	0
1018	0	0
1019	0	0
1020	0	0
1021	0	0
1022	0	0
1023	0	0
1024	0	0
1025	0	0
1026	0	0
1027	0	0
1028	0	0
1029	0	0
1030	0	0
1031	0	0
1032	0	0
1033	0	0
1034	0	0
1035	0	0
1036	0	0
1037	0	0
1038	0	0
1039	0	0
1040	0	0
1041	0	0
1042	0	0
1043	0	0
1044	0	0
1045	0	0
1046	0	0
1047	0	0
1048	0	0
1049	0	0
1050	0	0
1051	0	0
1052	0	0
1053	0	0
1054	0	0
1055	0	0
1056	0	0
1057	0	0
1058	0	0
1059	0	0
1060	0	0
1061	0	0
1062	0	0
1063	0	0
1064	0	0
1065	0	0
1066	0	0
1067	0	0
1068	0	0
1069	0	0
1070	0	0
1071	0	0
1072	0	0
1073	0	0
1074	0	0
1075	0	0
1076	0	0
1077	0	0
1078	0	0
1079	0	0
1080	0	0
1081	0	0
1082	0	0
1083	0	0
1084	0	0
1085	0	0
1086	0	0
1087	0	0
1088	0	0
1089	0	0
1090	0	0
1091	0	0
1092	0	0
1093	0	0
1094	0	0
1095	0	0
1096	0	0
1097	0	0
1098	0	0
1099	0	0
1100	0	0
1101	0	0
1102	0	0
1103	0	0
1104	0	0
1105	0	0
1106	0	0
1107	0	0
1108	0	0
1109	0	0
1110	0	0
1111	0	0
1112	0	0
1113	0	0
1114	0	0
1115	0	0
1116	0	0
1117	0	0
1118	0	0
1119	0	0
1120	0	0
1121	0	0
1122	0	0
1123	0	0
1124	0	0
1125	0	0
1126	0	0
1127	0	0
1128	0	0
1129	0	0
1130	0	0
1131	0	0
1132	0	0
1133	0	0
1134	0	0
1135	0	0
1136	0	0
1137	0	0
1138	0	0
1139	0	0
1140	0	0
1141	0	0
1142	0	0
1143	0	0
1144	0	0
1145	0	0
1146	0	0
1147	0	0
1148	0	0
1149	0	0
1150	0	0.1
1151	0	0.1
1152	0	0.1
1153	0	0.1
1154	0	0.1
1155	0	0.1
1156	0	0
1157	0	0
1158	0	0
1159	0	0
1160	0	0
1161	0	0
1162	0	0
1163	0	0
1164	0	0
1165	0	0
1166	0	0
1167	0	0
1168	0	0
1169	0	0
1170	0	0
1171	0	0
1172	0	0
1173	0	0
1174	0	0
1175	0	0
1176	0	0
1177	0	0
1178	0	0
1179	0	0
1180	0	0
1181	0	0
1182	0	0
1183	0	0
1184	0	0
1185	0	0
1186	0	0.1
1187	0	0.1
1188	0	0.1
1189	0	0.1
1190	0	0.1
1191	0	0.1
1192	0	0
1193	0	0
1194	0	0
1195	0	0
1196	0	0
1197	0	0
1198	0	0
1199	0	0
1200	0	0
1201	0	0
1202	0	0
1203	0	0
1204	0	0
1205	0	0
1206	0	0
1207	0	0
1208	0	0
1209	0	0
1210	0	0
1211	0	0
1212	0	0
1213	0	0
1214	0	0
1215	0	0
1216	0	0
1217	0	0
1218	0	0
1219	0	0
1220	0	0
1221	0	0
1222	0	0
1223	0	0
1224	0	0
1225	0	0
1226	0	0
1227	0	0
1228	0	0
1229	0	0
1230	0	0
1231	0	0
1232	0	0
1233	0	0
1234	0	0
1235	0	0
1236	0	0
1237	0	0
1238	0	0
1239	0	0
1240	0	0
1241	0	0
1242	0	0
1243	0	0
1244	0	0
1245	0	0
1246	0	0
1247	0	0
1248	0	0
1249	0	0
1250	0	0
1251	0	0
1252	0	0
1253	0	0
1254	0	0
1255	0	0
1256	0	0
1257	0	0
1258	0	0
1259	0	0
1260	0	0
1261	0	0
1262	0	0
1263	0	0
1264	0	0
1265	0	0
1266	0	0
1267	0	0
1268	0	0
1269	0	0
1270	0	0
1271	0	0
1272	0	0
1273	0	0
1274	0	0
1275	0	0
1276	0	0
1277	0	0
1278	0	0
1279	0	0
1280	0	0
1281	0	0
1282	0	0
1283	0	0
1284	0	0
1285	0	0
1286	0	0
1287	0	0
1288	0	0
1289	0	0
1290	0	0
1291	0	0
1292	0	0
1293	0	0
1294	0	0
1295	0	0
1296	0	0
1297	0	0
1298	0	0
1299	0	0
1300	0	0
1301	0	0
1302	0	0
1303	0	0
1304	0	0
1305	0	0
1306	0	0
1307	0	0
1308	0	0
1309	0	0
1310	0	0
1311	0	0
1312	0	0
1313	0	0
1314	0	0
1315	0	0
1316	0	0
1317	0	0
1318	0	0
1319	0	0
1320	0	0
1321	0	0
1322	0	0
1323	0	0
1324	0	0
1325	0	0
1326	0	0
1327	0	0
1328	0	0
1329	0	0
1330	0	0
1331	0	0
1332	0	0
1333	0	0
1334	0	0
1335	0	0
1336	0	0
1337	0	0
1338	0	0
1339	0	0
1340	0	0
1341	0	0
1342	0	0
1343	0	0
1344	0	0
1345	0	0
1346	0	0
1347	0	0
1348	0	0
1349	0	0
1350	0	0
1351	0	0
1352	0	0
1353	0	0
1354	0	0
1355	0	0
1356	0	0
1357	0	0
1358	0	0
1359	0	0
1360	0	0
1361	0	0
1362	0	0
1363	0	0
1364	0	0
1365	0	0
1366	0	0
1367	0	0
1368	0	0
1369	0	0
1370	0	0
1371	0	0
1372	0	0
1373	0	0
1374	0	0
1375	0	0
1376	0	0
1377	0	0
1378	0	0
1379	0	0
1380	0	0
1381	0	0
1382	0	0
1383	0	0
1384	0	0
1385	0	0
1386	0	0
1387	0	0
1388	0	0
1389	0	0
1390	0	0
1391	0	0
1392	0	0
1393	0	0
1394	0	0
1395	0	0
1396	0	0
1397	0	0
1398	0	0
1399	0	0
1400	0	0
1401	0	0
1402	0	0
1403	0	0
1404	0	0
1405	0	0
1406	0	0
1407	0	0
1408	0	0
1409	0	0
1410	0	0
1411	0	0
1412	0	0
1413	0	0
1414	0	0
1415	0	0
1416	0	0
1417	0	0
1418	0	0
1419	0	0
1420	0	0
1421	0	0
1422	0	0
1423	0	0
1424	0	0.0666667
1425	0	0.0666667
1426	0	0.047619
1427	0	0.047619
1428	0	0.047619
1429	0	0.047619
1430	0	0.047619
1431	0	0.047619
1432	0	0.047619
1433	0	0.047619
1434	0	0.047619
1435	0	0.047619
1436	0	0.047619
1437	0	0.047619
1438	0	0.047619
1439	0	0.047619
1440	0	0.047619
1441	0	0.047619
1442	0	0.047619
1443	0	0.047619
1444	0	0.047619
1445	0	0.047619
1446	0	0.047619
1447	0	0
1448	0	0
1449	0	0
1450	0	0
1451	0	0
1452	0	0
1453	0	0
1454	0	0
1455	0	0
1456	0	0
1457	0	0
1458	0	0
1459	0	0
1460	0	0
1461	0	0
1462	0	0
1463	0	0
1464	0	0
1465	0	0
1466	0	0
1467	0	0
1468	0	0
1469	0	0
1470	0	0
1471	0	0
1472	0	0
1473	0	0
1474	0	0
1475	0	0
1476	0	0
1477	0	0
1478	0	0
1479	0	0
1480	0	0
1481	0	0
1482	0	0
1483	0	0
1484	0	0
1485	0	0
1486	0	0
1487	0	0
1488	0	0
1489	0	0
1490	0	0
1491	0	0
1492	0	0
1493	0	0
1494	0	0
1495	0	0
1496	0	0
1497	0	0
1498	0	0
1499	0	0
1500	0	0.0277778
1501	0	0.0277778
1502	0	0.0277778
1503	0	0.0277778
1504	0	0.0277778
1505	0	0.0277778
1506	0	0
1507	0	0
1508	0	0
1509	0	0
1510	0	0
1511	0	0
1512	0	0
1513	0	0
1514	0	0
1515	0	0
1516	0	0
1517	0	0
1518	0	0
1519	0	0
1520	0	0
1521	0	0
1522	0	0
1523	0	0
1524	0	0
1525	0	0
1526	0	0
1527	0	0
1528	0	0
1529	0	0
1530	0	0
1531	0	0
1532	0	0
1533	0	0.0190476
1534	0	0.0190476
1535	0	0.0190476
1536	0	0.0190476
1537	0	0.0190476
1538	0	0.0190476
1539	0	0.0190476
1540	0	0.0220588
1541	0	0.0147059
1542	0	0.0294118
1543	0	0.0294118
1544	0	0.0261438
1545	0	0.0315789
1546	0	0.0263158
1547	0	0.0368421
1548	0	0.0368421
1549	0	0.0578947
1550	0	0.0578947
1551	0	0.0578947
1552	0	0.0578947
1553	0	0.0526316
1554	0	0.0526316
1555	0	0.047619
1556	0	0.047619
1557	0	0.047619
1558	0	0.12381
1559	0	0.219048
1560	0	0.319048
1561	0	0.37619
1562	0	0.320158
1563	0	0.363636
1564	0	0.384058
1565	0	0.384058
1566	0	0.496377
1567	0	0.496377
1568	0	0.496377
1569	0	0.496377
1570	0	0.496377
1571	0	0.546237
1572	0	0.865016
1573	0	0.888365
1574	0	0.914417
1575	0	0.91649
1576	0	0.916461
1577	0	0
1578	0	0
1579	0	0
1580	0	0
1581	0	0
1582	0	0
1583	0	0
1584	0	0
1585	0	0
1586	0	0
1587	0	0
1588	0	0
1589	0	0
1590	0	0
1591	0	0
1592	0	0
1593	0	0
1594	0	0
1595	0	0
1596	0	0
1597	0	0
1598	0	0
1599	0	0
1600	0	0
1601	0	0
1602	0	0
1603	0	0
1604	0	0
1605	0	0
1606	0	0
1607	0	0
1608	0	0
1609	0	0
1610	0	0
1611	0	0
1612	0	0
1613	0	0
1614	0	0
1615	0	0
1616	0	0
1617	0	0
1618	0	0
1619	0	0
1620	0	0
1621	0	0
1622	0	0
1623	0	0
1624	0	0
1625	0	0
1626	0	0
1627	0	0
1628	0	0
1629	0	0
1630	0	0
1631	0	0
1632	0	0
1633	0	0
1634	0	0
1635	0	0
1636	0	0
1637	0	0
1638	0	0
1639	0	0
1640	0	0
1641	0	0
1642	0	0
1643	0	0
1644	0	0
1645	0	0
1646	0	0
1647	0	0
1648	0	0
1649	0	0
1650	0	0
1651	0	0
1652	0	0
1653	0	0
1654	0	0
1655	0	0
1656	0	0
1657	0	0
1658	0	0
1659	0	0
1660	0	0
1661	0	0
1662	0	0
1663	0	0
1664	0	0
1665	0	0
1666	0	0
1667	0	0
1668	0	0
1669	0	0
1670	0	0
1671	0	0
1672	0	0
1673	0	0
1674	0	0
1675	0	0
1676	0	0
1677	0	0
1678	0	0
1679	0	0
1680	0	0
1681	0	0
1682	0	0
1683	0	0
1684	0	0
1685	0	0
1686	0	0
1687	0	0
1688	0	0
1689	0	0
1690	0	0
1691	0	0
1692	0	0
1693	0	0
1694	0	0
1695	0	0
1696	0	0
1697	0	0
1698	0	0
1699	0	0
1700	0	0
1701	0	0
1702	0	0
1703	0	0
1704	0	0
1705	0	0
1706	0	0
1707	0	0
1708	0	0
1709	0	0
1710	0	0
1711	0	0
1712	0	0
1713	0	0
1714	0	0
1715	0	0
1716	0	0
1717	0	0
1718	0	0
1719	0	0
1720	0	0
1721	0	0
1722	0	0
1723	0	0
1724	0	0
1725	0	0
1726	0	0
1727	0	0
1728	0	0
1729	0	0
1730	0	0
1731	0	0
1732	0	0
1733	0	0
1734	0	0
1735	0	0
1736	0	0
1737	0	0
1738	0	0
1739	0	0
1740	0	0
1741	0	0
1742	0	0
1743	0	0
1744	0	0
1745	0	0
1746	0	0
1747	0	0
1748	0	0
1749	0	0
1750	0	0
1751	0	0
1752	0	0
1753	0	0
1754	0	0
1755	0	0
1756	0	0
1757	0	0
1758	0	0
1759	0	0
1760	0	0
1761	0	0
1762	0	0
1763	0	0
1764	0	0
1765	0	0
1766	0	0
1767	0	0
1768	0	0
1769	0	0
1770	0	0
1771	0	0
1772	0	0
1773	0	0
1774	0	0
1775	0	0
1776	0	0
1777	0	0
1778	0	0
1779	0	0
1780	0	0
1781	0	0
1782	0	0
1783	0	0
1784	0	0
1785	0	0
1786	0	0
1787	0	0
1788	0	0
1789	0	0
1790	0	0
1791	0	0
1792	0	0
1793	0	0
1794	0	0
1795	0	0
1796	0	0
1797	0	0
1798	0	0
1799	0	0
1800	0	0
1801	0	0
1802	0	0
1803	0	0
1804	0	0
1805	0	0
1806	0	0
1807	0	0
1808	0	0
1809	0	0
1810	0	0
1811	0	0
1812	0	0
1813	0	0
1814	0	0
1815	0	0
1816	0	0
1817	0	0
1818	0	0
1819	0	0
1820	0	0
1821	0	0
1822	0	0
1823	0	0
1824	0	0
1825	0	0
1826	0	0
1827	0	0
1828	0	0
1829	0	0
1830	0	0
1831	0	0
1832	0	0
1833	0	0
1834	0	0
1835	0	0
1836	0	0
1837	0	0
1838	0	0
1839	0	0
1840	0	0
1841	0	0
1842	0	0
1843	0	0
1844	0	0
1845	0	0
1846	0	0
1847	0	0
1848	0	0
1849	0	0
1850	0	0
1851	0	0
1852	0	0
1853	0	0
1854	0	0
1855	0	0
1856	0	0
1857	0	0
1858	0	0
1859	0	0
1860	0	0
1861	0	0
1862	0	0
1863	0	0
1864	0	0
1865	0	0
1866	0	0
1867	0	0
1868	0	0
1869	0	0
1870	0	0
1871	0	0
1872	0	0
1873	0	0
1874	0	0
1875	0	0
1876	0	0
1877	0	0
1878	0	0
1879	0	0
1880	0	0
1881	0	0
1882	0	0
1883	0	0
1884	0	0
1885	0	0
1886	0	0
1887	0	0
1888	0	0
1889	0	0
1890	0	0
1891	0	0
1892	0	0
1893	0	0
1894	0	0
1895	0	0
1896	0	0
1897	0	0
1898	0	0
1899	0	0
1900	0	0
1901	0	0
1902	0	0
1903	0	0
1904	0	0
1905	0	0
1906	0	0
1907	0	0
1908	0	0
1909	0	0
1910	0	0
1911	0	0
1912	0	0
1913	0	0
1914	0	0
1915	0	0
1916	0	0
1917	0	0
1918	0	0
1919	0	0
1920	0	0
1921	0	0
1922	0	0
1923	0	0
1924	0	0
1925	0	0
1926	0	0
1927	0	0
1928	0	0
1929	0	0
1930	0	0
1931	0	0
1932	0	0
1933	0	0
1934	0	0
1935	0	0
1936	0	0
1937	0	0
1938	0	0
1939	0	0
1940	0	0
1941	0	0
1942	0	0
1943	0	0
1944	0	0
1945	0	0
1946	0	0
1947	0	0
1948	0	0
1949	0	0
1950	0	0
1951	0	0
1952	0	0
1953	0	0
1954	0	0
1955	0	0
1956	0	0
1957	0	0
1958	0	0
1959	0	0
1960	0	0
1961	0	0
1962	0	0
1963	0	0
1964	0	0
1965	0	0
1966	0	0
1967	0	0
1968	0	0
1969	0	0
1970	0	0
1971	0	0
1972	0	0
1973	0	0
1974	0	0
1975	0	0
1976	0	0
1977	0	0
1978	0	0
1979	0	0
1980	0	0
1981	0	0
1982	0	0
1983	0	0
1984	0	0
1985	0	0
1986	0	0
1987	0	0
1988	0	0
1989	0	0
1990	0	0
1991	0	0
1992	0	0
1993	0	0
1994	0	0
1995	0	0
1996	0	0
1997	0	0
1998	0	0
1999	0	0
2000	0	0
2001	0	0
2002	0	0
2003	0	0
2004	0	0
2005	0	0
2006	0	0
2007	0	0
2008	0	0
2009	0	0
2010	0	0
2011	0	0
2012	0	0
2013	0	0
2014	0	0
2015	0	0
2016	0	0
2017	0	0
2018	0	0
2019	0	0
2020	0	0
2021	0	0
2022	0	0
2023	0	0
2024	0	0
2025	0	0
2026	0	0
2027	0	0
2028	0	0
2029	0	0
2030	0	0
2031	0	0
2032	0	0
2033	0	0
2034	0	0
2035	0	0
2036	0	0
2037	0	0
2038	0	0
2039	0	0
2040	0	0
2041	0	0
2042	0	0
2043	0	0
2044	0	0
2045	0	0
2046	0	0
2047	0	0
2048	0	0
2049	0	0
2050	0	0
2051	0	0
2052	0	0
2053	0	0
2054	0	0
2055	0	0
2056	0	0
2057	0	0
2058	0	0
2059	0	0
2060	0	0
2061	0	0
2062	0	0
2063	0	0
2064	0	0
2065	0	0
2066	0	0
2067	0	0
2068	0	0
2069	0	0
2070	0	0
2071	0	0
2072	0	0
2073	0	0
2074	0	0
2075	0	0
2076	0	0
2077	0	0
2078	0	0
2079	0	0
2080	0	0
2081	0	0.90716
2082	0	0.946364
2083	0	0
2084	0	0
2085	0	0
2086	0	0
2087	0	0.47619
2088	0	0
2089	0	0
2090	0	0.946864
2091	0	0.333333
2092	0	0.333333
2093	0	0.333333
2094	0	0.333333
2095	0	0.333333
2096	0	0.333333
2097	0	0.821925
2098	0	0
2099	0	0
2100	0	0
2101	0	0
2102	0	0.875727
2103	0	0.333333
2104	0	0.333333
2105	0	0.166667
2106	0	0.5
2107	0	0.5
2108	0	0.5
2109	0	0.5
2110	0	0.5
2111	0	0.5
2112	0	0.5
2113	0	0.5
2114	0	0.5
2115	0	0.5
2116	0	0.5
2117	0	0.5
2118	0	0.5
2119	0	0.5
2120	0	0.5
2121	0	0.851038
2122	0	0
2123	0	0
2124	0	0
2125	0	0
2126	0	0
2127	0	0
2128	0	0
2129	0	0
2130	0	0
2131	0	0
2132	0	0
2133	0	0
2134	0	0
2135	0	0
2136	0	0
2137	0	0
2138	0	0
2139	0	0
2140	0	0
2141	0	0
2142	0	0
2143	0	0
2144	0	0
2145	0	0
2146	0	0
2147	0	0
2148	0	0
2149	0	0
2150	0	0
2151	0	0
2152	0	0
2153	0	0
2154	0	0
2155	0	0
2156	0	0
2157	0	0
2158	0	0
2159	0	0
2160	0	0
2161	0	0
2162	0	0
2163	0	0
2164	0	0
2165	0	0
2166	0	0
2167	0	0
2168	0	0
2169	0	0
2170	0	0
2171	0	0
2172	0	0
2173	0	0
2174	0	0
2175	0	0
2176	0	0
2177	0	0
2178	0	0
2179	0	0
2180	0	0
2181	0	0
2182	0	0
2183	0	0
2184	0	0
2185	0	0
2186	0	0
2187	0	0
2188	0	0
2189	0	0
2190	0	0
2191	0	0
2192	0	0
2193	0	0
2194	0	0
2195	0	0
2196	0	0
2197	0	0
2198	0	0
2199	0	0
2200	0	0
2201	0	0
2202	0	0
2203	0	0
2204	0	0
2205	0	0
2206	0	0
2207	0	0
2208	0	0
2209	0	0
2210	0	0
2211	0	0
2212	0	0
2213	0	0
2214	0	0
2215	0	0
2216	0	0
2217	0	0
2218	0	0
2219	0	0
2220	0	0
2221	0	0
2222	0	0
2223	0	0
2224	0	0
2225	0	0
2226	0	0
2227	0	0
2228	0	0
2229	0	0
2230	0	0
2231	0	0
2232	0	0
2233	0	0
2234	0	0
2235	0	0
2236	0	0
2237	0	0
2238	0	0
2239	0	0
2240	0	0
2241	0	0
2242	0	0
2243	0	0
2244	0	0
2245	0	0
2246	0	0
2247	0	0
2248	0	0
2249	0	0
2250	0	0
2251	0	0
2252	0	0
2253	0	0
2254	0	0
2255	0	0
2256	0	0
2257	0	0
2258	0	0
2259	0	0
2260	0	0
2261	0	0
2262	0	0
2263	0	0
2264	0	0
2265	0	0
2266	0	0
2267	0	0
2268	0	0
2269	0	0
2270	0	0
2271	0	0
2272	0	0
2273	0	0
2274	0	0
2275	0	0
2276	0	0
2277	0	0
2278	0	0
2279	0	0
2280	0	0
2281	0	0
2282	0	0
2283	0	0
2284	0	0
2285	0	0
2286	0	0
2287	0	0
2288	0	0
2289	0	0
2290	0	0
2291	0	0
2292	0	0
2293	0	0
2294	0	0
2295	0	0
2296	0	0
2297	0	0
2298	0	0
2299	0	0
2300	0	0.1
2301	0	0.133333
2302	0	0.133333
2303	0	0.333333
2304	0	0.333333
2305	0	0.333333
2306	0	0.333333
2307	0	0.6
2308	0	0.6
2309	0	0.6
2310	0	0.6
2311	0	0.6
2312	0	0.6
2313	0	0.6
2314	0	1
2315	0	1
2316	0	1
2317	0	1
2318	0	1
2319	0	0.971305
2320	0	0.333333
2321	0	0.333333
2322	0	0.333333
2323	0	0.333333
2324	0	0.333333
2325	0	0.333333
2326	0	1
2327	0	1
2328	0	1
2329	0	1
2330	0	1
2331	0	1
2332	0	1
2333	0	1
2334	0	1
2335	0	1
2336	0	1
2337	0	1
2338	0	1
2339	0	1
2340	0	0.974721
2341	0	0.989832
2342	0	1
2343	0	1
2344	0	1
2345	0	0.993219
2346	0	0.996603
2347	0	0.996603
2348	0	0.996614
2349	0	0
2350	0	0
2351	0	0
2352	0	0
2353	0	0
2354	0	0
2355	0	0
2356	0	0
2357	0	0
2358	0	0
2359	0	1
2360	0	1
2361	0	1
2362	0	1
2363	0	1
2364	0	1
2365	0	0.998315
2366	0	0.998316
2367	0	0.998316
2368	0	0.998315
2369	0	1
2370	0	1
2371	1	1
2372	1	1
2373	1	1
2374	1	1
2375	1	1
2376	1	1
2377	1	1
2378	1	1
2379	1	1
2380	1	1
2381	1	1
2382	1	1
2383	0	1
2384	0	1
2385	0	0.998318
2386	1	0
2387	1	0
2388	1	0
2389	1	0
2390	1	0
2391	1	0
2392	1	0
2393	1	0
2394	1	0
2395	1	0
2396	1	0
2397	1	0
2398	1	0
2399	1	0
2400	1	0
2401	0	0
2402	1	1
2403	1	1
2404	0	0.998321
2405	0	0.998321
2406	0	0.998321
2407	0	0
2408	1	1
2409	1	1
2410	1	1
2411	1	1
2412	1	1
2413	0	0
2414	0	0.996263
2415	0	1
2416	0	0.333333
2417	0	0.333333
2418	0	0.806251
2419	0	0.953617
2420	0	0.417338
2421	0	0.996649
2422	0	0
2423	0	0
2424	1	0
2425	1	0
2426	1	0
2427	1	0
2428	1	0
2429	1	0
2430	1	0
2431	1	0
2432	1	0
2433	1	0
2434	1	0
2435	1	0
2436	1	0
2437	1	0
2438	1	0
2439	1	0
2440	0	0
2441	0	0.998324
2442	0	0.998325
2443	0	0.998325
2444	0	0.998325
2445	0	1
2446	0	1
2447	0	1
2448	0	1
2449	1	1
2450	1	1
2451	1	1
2452	1	1
2453	1	1
2454	0	1
2455	0	0.996656
2456	0	0.996654
2457	0	0.996654
2458	0	0.996654
2459	0	1
2460	0	1
2461	0	1
2462	0	0.960574
2463	0	1
2464	0	0.967027
2465	0	0.757413
2466	0	0
2467	0	0
2468	0	0.505244
2469	0	0.975446
2470	0	0.976789
2471	0	0.996654
2472	0	0.996654
2473	0	0.996654
2474	0	0.993315
2475	0	1
2476	0	0.996654
2477	0	0.996654
2478	0	0.996654
2479	0	0.996654
2480	1	0
2481	1	0
2482	1	0
2483	1	0
2484	1	0
2485	1	0
2486	1	0
2487	1	0
2488	1	0
2489	1	0
2490	1	0
2491	0	0
2492	0	0
2493	0	0
2494	0	0
2495	0	0
2496	0	0
2497	0	0.998326
2498	0	0.998326
2499	0	0.998326
2500	0	0.998325
2501	0	0.998325
2502	0	0
2503	0	0
2504	0	0
2505	0	0
2506	1	0
2507	1	0
2508	1	0
2509	1	0
2510	1	0
2511	1	0
2512	1	0
2513	1	0
2514	1	0
2515	1	0
2516	1	0
2517	1	0
2518	1	0
2519	1	0
2520	1	0
2521	1	0
2522	1	0
2523	1	0
2524	1	0
2525	1	0
2526	1	0
2527	0	0.895462
2528	1	0
2529	1	0
2530	1	0
2531	1	0
2532	1	0
2533	1	0
2534	0	1
2535	0	1
2536	0	1
2537	0	1
2538	0	0.998325
2539	0	1
2540	0	1
2541	0	0.998324
2542	0	0.998324
2543	0	1
2544	0	0.998324
2545	0	0.998325
2546	0	0.998325
2547	0	0.998325
2548	0	0.998325
2549	1	1
2550	1	1
2551	1	1
2552	1	1
2553	0	1
2554	0	1
2555	1	1
2556	0	0.998326
2557	0	0.998326
2558	0	0.998326
2559	0	0.998326
2560	0	0.998326
2561	0	1
2562	0	0.485714
2563	0	0.973297
2564	0	0.931034
2565	0	0.931034
2566	0	0.931034
2567	0	0.931034
2568	0	0.57085
2569	0	0.57085
2570	0	0.57085
2571	0	0.47473
2572	0	0.703011
2573	0	0.801833
2574	0	0.773608
2575	0	0.601549
2576	0	0.290909
2577	0	0.846154
2578	0	0.776106
2579	0	0.996654
2580	0	0.996654
2581	0	0
2582	0	0
2583	0	0
2584	0	0.998326
2585	0	0.998326
2586	0	0.998326
2587	0	0.998326
2588	0	0.998326
2589	0	0.998326
2590	0	0.996654
2591	0	0
2592	0	0.998324
2593	0	0.998324
2594	0	0.998324
2595	0	0.998324
2596	0	0.998324
2597	0	0.998322
2598	0	0.998322
2599	0	0.996646
2600	0	0.996646
2601	0	0.996646
2602	0	0.996646
2603	0	0.996646
2604	0	0.996646
2605	0	0.996646
2606	0	0.996646
2607	0	0.461538
2608	0	1
2609	0	1
2610	0	1
2611	0	1
2612	0	0
2613	0	0
2614	0	0
2615	0	0
2616	0	0.333333
2617	0	0.333333
2618	0	1
2619	0	0.4
2620	0	0.96623
2621	0	0.709849
2622	0	0.487285
2623	0	0.731515
2624	0	0.632694
2625	0	0.437033
2626	0	0.316288
2627	0	0.350649
2628	0	0.360294
2629	0	0.391667
2630	0	0.505495
2631	0	0.494505
2632	0	0.545455
2633	0	0.545455
2634	0	0.576923
2635	0	0.681818
2636	0	0.681818
2637	0	0.560606
2638	0	0.287879
2639	0	0.151515
2640	0	0.333333
2641	0	0.333333
2642	0	0.111111
2643	0	0.222222
2644	0	1
2645	0	1
2646	0	1
2647	0	0.76229
2648	0	0.799351
2649	0	0.792453
2650	0	0.521823
2651	0	0.994937
2652	0	0.996643
2653	0	0.998321
2654	0	0.998322
2655	0	0.998324
2656	0	0.998324
2657	0	0.998324
2658	0	0.998321
2659	0	0.998322
2660	0	0.998322
2661	0	0.998322
2662	0	0.924638
2663	0	0.68528
2664	0	1
2665	0	1
2666	0	1
2667	0	0.5
2668	0	0.5
2669	0	0.166667
2670	0	0.166667
2671	0	0.333333
2672	0	0.166667
2673	0	0.166667
2674	0	0
2675	0	0
2676	0	0
2677	0	0
2678	0	0.333333
2679	0	0.917357
2680	0	0.739927
2681	0	0.650526
2682	0	0.283396
2683	0	0.35571
2684	0	0.500665
2685	0	0.398036
2686	0	0
2687	0	0
2688	0	0
2689	0	0
2690	0	0
2691	0	0
2692	0	0
2693	0	0
2694	0	0
2695	0	0
2696	0	0
2697	0	0
2698	0	0
2699	0	0
2700	0	0
2701	0	0
2702	0	0
2703	0	0.683508
2704	0	0
2705	0	0
2706	0	0
2707	0	0
2708	0	0
2709	0	0
2710	0	0
2711	0	0.5
2712	0	0.2
2713	0	0.283333
2714	0	0.697072
2715	0	0
2716	0	0.333333
2717	0	0.333333
2718	0	0.333333
2719	0	0.333333
2720	0	0.333333
2721	0	0.333333
2722	0	0.981588
2723	0	0.986591
2724	0	0.986591
2725	0	0.986603
2726	0	0.986614
2727	0	0.991622
2728	0	0.991622
2729	0	0
2730	0	0
2731	0	0.988283
2732	0	0.290909
2733	0	0.986591
2734	0	0.714286
2735	0	0.893364
2736	0	0.527273
2737	0	0.90863
2738	0	0
2739	0	0
2740	0	0
2741	0	0
2742	0	0
2743	0	0
2744	0	0
2745	0	0.91023
2746	0	0.998321
2747	0	0.998321
2748	0	0.998321
2749	0	0.998321
2750	0	0.998319
2751	0	0.996643
2752	0	0.996643
2753	0	1
2754	0	1
2755	0	0.994954
2756	0	0.991612
2757	0	0.986552
2758	0	1
2759	0	0.637363
2760	0	0.968239
2761	0	1
2762	0	1
2763	0	1
2764	0	1
2765	0	1
2766	0	0.5
2767	0	0.312258
2768	0	0.754452
2769	0	0.755746
2770	0	1
2771	0	1
2772	0	0.5
2773	0	0.333333
2774	0	0.593577
2775	0	0.164835
2776	0	0.511874
2777	0	0.453535
2778	0	0.404832
2779	0	0.497804
2780	0	0.29255
2781	0	0.213783
2782	0	0.390314
2783	0	0
2784	0	0
2785	0	0
2786	0	0
2787	0	0
2788	0	0
2789	0	0
2790	0	0.318742
2791	0	0
2792	0	0
2793	0	0
2794	0	0
2795	0	0
2796	0	0
2797	0	0.290851
2798	0	0.313889
2799	0	0.335175
2800	0	0.191946
2801	0	0.16894
2802	0	0.153284
2803	0	0.529317
2804	0	0.138889
2805	0	0.178571
2806	0	0.190476
2807	0	0.244174
2808	0	0.211934
2809	0	0.247863
2810	0	0.101
2811	0	0.030303
2812	0	0.0606061
2813	0	0.0606061
2814	0	0.0659218
2815	0	0.075
2816	0	0.057969
2817	0	0.0776146
2818	0	0.0550262
2819	0	0.4
2820	0	0
2821	0	0
2822	0	0.0724638
2823	0	0.0883191
2824	0	0.0892308
2825	0	0.0598583
2826	0	0.105263
2827	0	0.178462
2828	0	0.153333
2829	0	0
2830	0	0
2831	0	0
2832	0	0
2833	0	0.213659
2834	0	0.319112
2835	0	0.141026
2836	0	0.155556
2837	0	0.0728252
2838	0	0.085033
2839	0	0.134456
2840	0	0.163285
2841	0	0.153535
2842	0	0.111111
2843	0	0.0757576
2844	0	0.110698
2845	0	0
2846	0	0
2847	0	0.2
2848	0	0.3
2849	0	0
2850	0	0.383065
2851	0	0.181169
2852	0	0.0891355
2853	0	0.0860164
2854	0	0.538324
2855	0	0.538324
2856	0	0.923077
2857	0	0
2858	0	0
2859	0	0.116749
2860	0	0
2861	0	0
2862	0	0
2863	0	0
2864	0	0
2865	0	0.192929
2866	0	0.14393
2867	0	0.162584
2868	0	0.333333
2869	0	0.333333
2870	0	0.170279
2871	0	0.157895
2872	0	0.252747
2873	0	0.5
2874	0	0.5
2875	0	0.5
2876	0	0.5
2877	0	0.231348
2878	0	0.243565
2879	0	0
2880	0	0
2881	0	0
2882	0	0
2883	0	0
2884	0	0
2885	0	0.297888
2886	0	0.359696
2887	0	0.560606
2888	0	0.560606
2889	0	0.484314
2890	0	0.277778
2891	0	0.333333
2892	0	0.466667
2893	0	0.466667
2894	0	0.466667
2895	0	1
2896	0	1
2897	0	1
2898	0	0.589985
2899	0	0.166667
2900	0	0.1
2901	0	0.1
2902	0	0.807046
2903	0	0.785435
2904	0	0.784946
2905	0	0.1
2906	0	0.0666667
2907	0	0.229249
2908	0	0.814977
2909	0	0.815866
2910	0	0
2911	0	0
2912	0	1
2913	0	1
2914	0	0.8
2915	0	0.890543
2916	0	0.956288
2917	0	0.973323
2918	0	0.9733
2919	0	0.973323
2920	0	0.974965
2921	0	0
2922	0	0
2923	0	0
2924	0	0
2925	0	0
2926	0	0
2927	0	0
2928	0	0
2929	0	0.857143
2930	0	0.857143
2931	0	0.998314
2932	0	0.996632
2933	0	0.996634
2934	0	0.994954
2935	0	0.994954
2936	0	0.996634
2937	0	0.996632
2938	0	0
2939	0	0
2940	0	0
2941	0	0
2942	0	0
2943	0	0
2944	0	0.991584
2945	0	0.991584
2946	0	0.991584
2947	0	0.991584
2948	0	0.991584
2949	0	0.991584
2950	0	0.989913
2951	0	0.989913
2952	0	0.988247
2953	0	0.986573
2954	0	0.989922
2955	0	0.989912
2956	0	0.986541
2957	0	0
2958	0	0
2959	0	0
2960	0	0
2961	1	0
2962	1	0
2963	1	0
2964	1	0
2965	1	0
2966	1	0
2967	1	0
2968	1	0
2969	1	0
2970	0	0
2971	0	0.166667
2972	0	0.966283
2973	0	0.967926
2974	0	0.974359
2975	0	0.973684
2976	0	0.84807
2977	0	0.833438
2978	0	0.486891
2979	0	0.295042
2980	0	0.20401
2981	0	0.406192
2982	0	0.315861
2983	0	0
2984	0	0
2985	0	0
2986	0	0
2987	0	0
2988	0	0
2989	0	0
2990	0	0
2991	0	0
2992	0	0
2993	0	0
2994	0	0
2995	0	0
2996	0	0
2997	0	0
2998	0	0.308347
2999	0	0.166667
3000	0	0.133333
3001	0	0.133333
3002	0	0.133333
3003	0	0.299866
3004	0	0.258824
3005	0	0.25977
3006	0	0.275862
3007	0	0.214286
3008	0	0.312348
3009	0	0
3010	0	0.2
3011	0	0.213768
3012	0	0.2
3013	0	0.19
3014	0	0.120513
3015	0	0.282517
3016	0	0
3017	0	0
3018	0	0
3019	0	0
3020	0	0
3021	0	0.487757
3022	0	0.273933
3023	0	0
3024	0	0
3025	0	0.1
3026	0	0.1
3027	0	0.1
3028	0	0.1
3029	0	0.1
3030	0	0.3
3031	0	0.3
3032	0	0.3
3033	0	0.3
3034	0	0.0666667
3035	0	0.1
3036	0	0.1
3037	0	0.1
3038	0	0.1
3039	0	0
3040	0	0
3041	0	0.320289
3042	0	0.131401
3043	0	0.18525
3044	0	0.0666667
3045	0	0.0611664
3046	0	0.0998839
3047	0	0.318208
3048	0	0.189276
3049	0	0.130345
3050	0	0.189432
3051	0	0.176068
3052	0	0.146887
3053	0	0.184615
3054	0	0.166456
3055	0	0.244614
3056	0	0
3057	0	0.276623
3058	0	0.23908
3059	0	0.23908
3060	0	0.272727
3061	0	0.14623
3062	0	0.351052
3063	0	0.115385
3064	0	0.115385
3065	0	0.115385
3066	0	0.475107
3067	0	0.429487
3068	0	0.106061
3069	0	0.434047
3070	0	0.411372
3071	0	0.414308
3072	0	0.411315
3073	0	0.413333
3074	0	0.237077
3075	0	0.223529
3076	0	0.142857
3077	0	0.142857
3078	0	0.155556
3079	0	0.202299
3080	0	0.202299
3081	0	0.14671
3082	0	0.286485
3083	0	0.188506
3084	0	0.188506
3085	0	0.29087
3086	0	0.504762
3087	0	0.504762
3088	0	0.504762
3089	0	0.504762
3090	0	0.504762
3091	0	0.504762
3092	0	0.504762
3093	0	0.0592972
3094	0	0.0558804
3095	0	0.217789
3096	0	0.0538796
3097	0	0.104593
3098	0	0.104762
3099	0	0.115289
3100	0	0.120352
3101	0	0.138282
3102	0	0.0767288
3103	0	0.0919923
3104	0	0.261053
3105	0	0.232432
3106	0	0.222488
3107	0	0.202778
3108	0	0.205247
3109	0	0.195391
3110	0	0.168908
3111	0	0.166979
3112	0	0.183627
3113	0	0.140893
3114	0	0.15568
3115	0	0.127726
3116	0	0.119363
3117	0	0.181164
3118	0	0.131579
3119	0	0.282158
3120	0	0.303546
3121	0	0.30554
3122	0	0.285985
3123	0	0
3124	0	0
3125	0	0
3126	0	0
3127	0	0
3128	0	0
3129	0	0
3130	0	0.214286
3131	0	0.409091
3132	0	0.705128
3133	0	0.705128
3134	0	0
3135	0	0
3136	0	0
3137	0	0
3138	0	0
3139	0	0
3140	0	0
3141	0	0
3142	0	0
3143	0	0
3144	0	0
3145	0	0.166667
3146	0	0.166667
3147	0	0.758333
3148	0	0.549708
3149	0	0.494737
3150	0	0.74026
3151	0	0.461538
3152	0	0.461538
3153	0	0.461538
3154	0	0.449875
3155	0	0.449875
3156	0	0.449875
3157	0	0.449875
3158	0	0.393989
3159	0	0.393989
3160	0	0.369176
3161	0	0.346635
3162	0	0.346635
3163	0	0.172228
3164	0	0.140645
3165	0	0.132169
3166	0	0.124466
3167	0	0.132431
3168	0	0.285714
3169	0	0.104255
3170	0	0.109353
3171	0	0.120761
3172	0	0.113938
3173	0	0.104949
3174	0	0.114736
3175	0	0.137143
3176	0	0.145498
3177	0	0.153949
3178	0	0.156188
3179	0	0.186343
3180	0	0.22723
3181	0	0.203114
3182	0	0.226558
3183	0	0.170059
3184	0	0.322634
3185	0	0.208206
3186	0	0.197715
3187	0	0.139577
3188	0	0.138373
3189	0	0.141191
3190	0	0.140776
3191	0	0.137116
3192	0	0.0899471
3193	0	0.101538
3194	0	0.0738462
3195	0	0.0966667
3196	0	0.109091
3197	0	0.109091
3198	0	0.109091
3199	0	0.0769231
3200	0	0.0769231
3201	0	0.141096
3202	0	0.163048
3203	0	0.1666
3204	0	0.210145
3205	0	0.14876
3206	0	0.141424
3207	0	0
3208	0	0
3209	0	0
3210	0	0
3211	0	0
3212	0	0
3213	0	0
3214	0	0
3215	0	0
3216	0	0
3217	0	0.141847
3218	0	0.413744
3219	0	0.422526
3220	0	0.432079
3221	0	0.50255
3222	0	0.355604
3223	0	0.146269
3224	0	0.104278
3225	0	0.109561
3226	0	0
3227	0	0
3228	0	0
3229	0	0
3230	0	0
3231	0	0
3232	0	0
3233	0	0
3234	0	0
3235	0	0
3236	0	0
3237	0	0
3238	0	0.119673
3239	0	0.128591
3240	0	0.0984153
3241	0	0.264473
3242	0	0.11519
3243	0	0.0489796
3244	0	0.157289
3245	0	0.174863
3246	0	0.201299
3247	0	0.225689
3248	0	0.0344086
3249	0	0.0746753
3250	0	0.0997483
3251	0	0.0961019
3252	0	0.0981999
3253	0	0.09195
3254	0	0.0595209
3255	0	0.0806293
3256	0	0.0936685
3257	0	0.0748314
3258	0	0.0681132
3259	0	0.0822027
3260	0	0.0708273
3261	0	0.134427
3262	0	0.141604
3263	0	0.0658158
3264	0	0.0465823
3265	0	0.0395858
3266	0	0.0347938
3267	0	0
3268	0	0
3269	0	0
3270	0	0
3271	0	0
3272	0	0
3273	0	0
3274	0	0
3275	0	0.0397568
3276	0	0.072897
3277	0	0.0653509
3278	0	0.0640611
3279	0	0.0644753
3280	0	0.0530246
3281	0	0.0569431
3282	0	0.0932692
3283	0	0.0955756
3284	0	0.0979448
3285	0	0.175877
3286	0	0.188789
3287	0	0.301748
3288	0	0.147059
3289	0	0.196013
3290	0	0.26272
3291	0	0.231267
3292	0	0.248309
3293	0	0.226507
3294	0	0.327453
3295	0	0.341843
3296	0	0.166667
3297	0	0.181818
3298	0	0.316431
3299	0	0.291855
3300	0	0.315918
3301	0	0.394089
3302	0	0.397177
3303	0	0.106061
3304	0	0.106061
3305	0	0.047619
3306	0	0.047619
3307	0	0.047619
3308	0	0.047619
3309	0	0.479365
3310	0	0.593277
3311	0	0.627451
3312	0	0.636975
3313	0	0.636975
3314	0	0.524295
3315	0	0.511747
3316	0	0.260745
3317	0	0.194444
3318	0	0.194444
3319	0	0.194444
3320	0	0.194444
3321	0	0.153846
3322	0	0.143791
3323	0	0.219447
3324	0	0.23572
3325	1	0
3326	1	0
3327	1	0
3328	1	0
3329	1	0
3330	1	0
3331	1	0
3332	1	0
3333	1	0
3334	0	0
3335	0	0.65812
3336	0	0.255785
3337	0	0.343574
3338	0	0.344402
3339	0	0.344255
3340	0	0.356179
3341	0	0.435831
3342	0	0.56847
3343	0	0.742583
3344	0	0.777435
3345	0	0.814224
3346	0	0.835691
3347	0	0.797452
3348	0	0.815741
3349	0	0.756133
3350	0	0.738611
3351	0	0.405676
3352	0	0.368641
3353	0	0.312239
3354	0	0.264907
3355	0	0.266243
3356	0	0.251393
3357	0	0.175998
3358	0	0.168165
3359	0	0.159148
3360	0	0.126701
3361	0	0.133566
3362	0	0.123227
3363	0	0.10727
3364	0	0.0924752
3365	0	0.0878518
3366	0	0.0774248
3367	0	0.0756329
3368	0	0.144444
3369	0	0.154412
3370	0	0.136364
3371	0	0.127273
3372	0	0.222222
3373	0	0.350877
3374	0	0.476383
3375	0	0.560256
3376	0	0.560256
3377	0	0.637179
3378	0	0.6
3379	0	0.476923
3380	0	0.503003
3381	0	0.497436
3382	0	0.682353
3383	0	0.719231
3384	0	0.757085
3385	0	0.757085
3386	0	0.757085
3387	0	0.757085
3388	0	0.757085
3389	0	0.802969
3390	0	0.802969
3391	0	0.802969
3392	0	0.802969
3393	0	0.846373
3394	0	0.893393
3395	0	0.893393
3396	0	0.893393
3397	0	0.893393
3398	0	0.893393
3399	0	0.893393
3400	0	0.893393
3401	0	0.47619
3402	0	0.404412
3403	0	0.308824
3404	0	0.3
3405	0	0.3
3406	0	0.2
3407	0	0.2
3408	0	0.2
3409	0	0.3
3410	0	0.3
3411	0	0.3
3412	0	0.3
3413	0	0.3
3414	0	0.686275
3415	0	0.293103
3416	0	0.308046
3417	0	0.275862
3418	0	0.275862
3419	0	0.275862
3420	0	0.333333
3421	0	0.333333
3422	0	0.129268
3423	0	0.128049
3424	0	0.109293
3425	0	0.124389
3426	0	0.10111
3427	0	0.0909091
3428	0	0.0827286
3429	0	0.0897959
3430	0	0.0747729
3431	0	0.0942685
3432	0	0.0987755
3433	0	0.14532
3434	0	0.12963
3435	0	0.139601
3436	0	0
3437	0	0
3438	0	0
3439	0	0
3440	0	0
3441	0	0
3442	0	0
3443	0	0
3444	0	0
3445	0	0
3446	0	0
3447	0	0
3448	0	0
3449	0	0
3450	0	0
3451	0	0
3452	0	0
3453	0	0
3454	0	0
3455	0	0
3456	0	0
3457	0	0
3458	0	0
3459	0	0
3460	0	0
3461	0	0
3462	0	0
3463	0	0
3464	0	0
3465	0	0
3466	0	0
3467	0	0
3468	0	0
3469	0	0
3470	0	0
3471	0	0
3472	0	0
3473	0	0
3474	0	0
3475	0	0
3476	0	0
3477	0	0
3478	0	0
3479	0	0
3480	0	0
3481	0	0
3482	0	0
3483	0	0
3484	0	0
3485	0	0
3486	0	0
3487	0	0
3488	0	0
3489	0	0
3490	0	0
3491	0	0
3492	0	0
3493	0	0
3494	0	0
3495	0	0
3496	0	0
3497	0	0
3498	0	0
3499	0	0
3500	0	0
3501	0	0
3502	0	0
3503	0	0
3504	0	0
3505	0	0
