Site	ColumnScore	SumOfPairsScore
1	1	0
2	1	0
3	1	0
4	1	0
5	1	0
6	1	0
7	1	0
8	1	0
9	1	0
10	1	0
11	1	0
12	1	0
13	1	0
14	1	0
15	1	0
16	1	0
17	1	0
18	1	0
19	1	0
20	1	0
21	1	0
22	1	0
23	1	0
24	1	0
25	1	0
26	1	0
27	1	0
28	1	0
29	1	0
30	0	0
31	0	0
32	0	0
33	0	0
34	0	0
35	1	0
36	1	0
37	1	0
38	1	0
39	1	0
40	0	0
41	0	0
42	0	0
43	0	0
44	0	0
45	0	0
46	1	0
47	1	0
48	1	0
49	1	0
50	1	0
51	0	0
52	0	0
53	0	0
54	0	0
55	0	0
56	0	0
57	0	0
58	0	0
59	0	0
60	0	0
61	0	0
62	0	0
63	0	0
64	0	0
65	0	0
66	0	0
67	0	0
68	0	0
69	0	0
70	0	0
71	0	0
72	0	0
73	0	0
74	0	0
75	0	0
76	0	0
77	0	0
78	0	0
79	0	0
80	0	0
81	0	0
82	0	0
83	0	0
84	0	0
85	0	0
86	0	0
87	0	0
88	0	0
89	0	0
90	0	0
91	0	0
92	0	0
93	0	0
94	0	0
95	0	0
96	0	0
97	0	0
98	0	0
99	0	0
100	0	0
101	0	0.0277778
102	0	0.0277778
103	0	0.0277778
104	0	0.0277778
105	0	0.0277778
106	0	0.0277778
107	0	0.0444444
108	0	0.0444444
109	0	0.0181818
110	0	0.0181818
111	0	0.0151515
112	0	0.021978
113	0	0.021978
114	0	0.021978
115	0	0.021978
116	0	0.021978
117	0	0.021978
118	0	0.0380952
119	0	0.047619
120	0	0.047619
121	0	0.0285714
122	0	0.0190476
123	0	0.0190476
124	0	0.0190476
125	0	0.0190476
126	0	0.0190476
127	0	0.0166667
128	0	0.0166667
129	0	0.0166667
130	0	0.025
131	0	0.025
132	0	0.0166667
133	0	0.025
134	0	0.0583333
135	0	0.1
136	0	0.1
137	0	0.114286
138	0	0.114286
139	0	0.12381
140	0	0.12381
141	0	0.108333
142	0	0.108333
143	0	0.108333
144	0	0.108333
145	0	0.108333
146	0	0.108333
147	0	0.108333
148	0	0.108333
149	0	0.0916667
150	0	0.0915033
151	0	0.0915033
152	0	0.0980392
153	0	0.0905797
154	0	0.09
155	0	0.104839
156	0	0.105882
157	0	0.399512
158	0	0.289937
159	0	0.322203
160	0	0.214554
161	0	0.217086
162	0	0.224397
163	0	0.231616
164	0	0.220392
165	0	0.262745
166	0	0.815126
167	0	0.882059
168	0	0.142857
169	0	0.2
170	0	0.2
171	0	0.2
172	0	0.2
173	0	0.424242
174	0	0.371429
175	0	0.65
176	0	0.803049
177	0	0.80035
178	0	0.812261
179	0	0.4
180	0	1
181	0	1
182	0	0.804476
183	0	0.803025
184	0	0
185	0	0
186	0	0
187	0	0
188	0	0
189	0	0
190	0	0
191	0	0
192	0	0
193	0	0
194	0	0
195	0	1
196	0	1
197	0	1
198	0	1
199	0	1
200	0	1
201	0	1
202	0	1
203	0	1
204	0	1
205	0	1
206	0	1
207	0	1
208	0	1
209	0	1
210	0	1
211	0	1
212	0	1
213	0	1
214	0	1
215	0	0.5
216	0	0.5
217	0	0.816456
218	0	0.815423
219	0	0.811494
220	0	0.804458
221	0	0.802491
222	0	0.615385
223	0	0.322464
224	0	0.6861
225	0	0.612084
226	0	0.614342
227	0	0.617028
228	0	0.946365
229	0	0.589744
230	0	0.873568
231	0	0.900058
232	0	0.978647
233	0	0.978685
234	0	0.978704
235	0	0.978704
236	0	0.978704
237	0	0.978741
238	0	0.977
239	0	0.97702
240	0	0.97702
241	0	0.973507
242	0	0.971753
243	0	0.97165
244	0	0
245	0	0
246	0	0
247	0	0
248	0	0.8
249	0	0.560606
250	0	0.380952
251	0	0.222222
252	0	0.166667
253	0	0.161765
254	0	0.134199
255	0	0.130159
256	0	0.141176
257	0	0.119048
258	0	0.835692
259	0	0.798174
260	0	0.771571
261	0	0.69281
262	0	0.496732
263	0	0.305376
264	0	0.323864
265	0	0.316532
266	0	0.295796
267	0	0.332927
268	0	0.244484
269	0	0.422975
270	0	0.364227
271	0	0.359973
272	0	0
273	0	0
274	0	0.421053
275	0	0.304615
276	0	0.278325
277	0	0.627874
278	0	0.556684
279	0	0.619839
280	0	0.634492
281	0	0.85797
282	0	0.883515
283	0	0.910993
284	0	0.915373
285	0	0.91027
286	0	0.886945
287	0	0.372549
288	0	0.601307
289	0	0.601307
290	0	0.875
291	0	0.925926
292	0	0.937162
293	0	0.938883
294	0	0.95268
295	0	0.962953
296	0	0.964704
297	0	0.318681
298	0	0.371795
299	0	0.439394
300	0	0.622222
301	0	0.622222
302	0	0
303	0	0
304	0	0.989348
305	0	0.989357
306	0	0.989385
307	0	0.989385
308	0	0.987633
309	0	0.987633
310	0	0
311	0	0
312	0	0
313	0	0
314	0	0
315	0	0
316	0	0.992898
317	0	0.992898
318	0	0.992898
319	0	0.992898
320	0	0.991119
321	0	0.991119
322	0	0.991111
323	0	0.991111
324	0	0.992879
325	0	0.992879
326	0	1
327	0	1
328	0	1
329	1	1
330	1	1
331	1	1
332	1	1
333	1	1
334	1	1
335	1	1
336	1	1
337	1	1
338	1	1
339	1	1
340	1	1
341	1	1
342	1	1
343	1	1
344	0	1
345	0	1
346	0	0.777778
347	0	0.777778
348	0	0.777778
349	0	0.911212
350	0	0
351	0	0
352	0	0
353	0	0
354	0	0
355	0	0
356	0	0
357	0	0
358	0	0.954578
359	0	0.992892
360	0	0.992892
361	0	0.994671
362	0	0.992911
363	0	0.992911
364	0	0.994676
365	0	0.994676
366	0	0.994676
367	0	0.994676
368	0	0.996446
369	0	0.996446
370	0	0.996446
371	0	0.994671
372	0	0.992894
373	0	0.9929
374	0	0.355556
375	0	0
376	0	0.989381
377	0	0.970185
378	0	0.996449
379	0	0.996449
380	1	0
381	0	0
382	0	0.994686
383	0	0.996452
384	0	0.998225
385	0	1
386	0	1
387	0	1
388	0	1
389	0	0
390	0	0
391	0	0
392	0	0
393	0	0.996443
394	0	0.982446
395	0	0.982446
396	0	0.980712
397	0	0.982446
398	0	0.982446
399	0	0.982446
400	0	0.982446
401	0	0.982415
402	0	1
403	0	1
404	0	1
405	0	1
406	0	1
407	0	0.52381
408	0	0.52381
409	0	0.52381
410	0	0.311111
411	0	0.288889
412	0	0.959354
413	0	0.957568
414	0	1
415	0	0.925926
416	0	0.925926
417	0	0.854701
418	0	0.612965
419	0	0.927331
420	0	0.3
421	0	0.3
422	0	0.3
423	0	0.5
424	0	0.166667
425	0	0.5
426	0	1
427	0	1
428	0	0.984067
429	0	0.666667
430	0	0
431	0	0
432	0	0
433	0	0
434	1	0
435	0	0
436	0	0
437	0	0
438	0	0
439	0	0
440	0	0
441	0	0
442	0	0
443	0	0
444	0	0
445	0	0
446	0	0.992906
447	0	0.994678
448	0	0.994678
449	0	0.998221
450	0	0.98418
451	0	0.98418
452	0	0.98418
453	0	0.98418
454	0	0.98418
455	0	0.98418
456	0	0.98418
457	0	0.984166
458	0	0.984166
459	0	0.987656
460	0	0.987656
461	0	0.987656
462	0	0.998219
463	0	0
464	0	0
465	0	0
466	0	0
467	1	0
468	1	0
469	1	0
470	1	0
471	0	0.994667
472	0	0.99644
473	0	0.99644
474	0	0.99644
475	0	0.99644
476	0	0.99644
477	0	0.99644
478	0	0.998217
479	0	0.998221
480	0	0.998221
481	0	0.996446
482	0	0.996446
483	0	0.996446
484	0	0.996446
485	0	0.996446
486	0	0.996446
487	0	0.996446
488	0	0.996446
489	0	0.996455
490	0	0.996455
491	0	0.6
492	0	0.991237
493	0	0.998243
494	0	0.998243
495	0	0.998243
496	0	0.998243
497	0	0.998243
498	0	0.998243
499	0	0.998244
500	0	0.998244
501	0	0.998244
502	0	0.998244
503	0	0.99649
504	0	0
505	0	1
506	0	1
507	0	1
508	0	1
509	0	1
510	0	1
511	0	1
512	0	0.998244
513	0	0.998244
514	0	0.998244
515	0	0.998244
516	0	0.998244
517	0	0.998244
518	0	0.998244
519	0	0.998247
520	0	0.998247
521	0	0.998247
522	0	0.998246
523	0	1
524	0	1
525	0	1
526	0	1
527	0	1
528	0	0.996493
529	0	0.998244
530	0	0.998244
531	0	0.99649
532	0	0.99649
533	0	0.99649
534	0	0.99649
535	0	0.99649
536	0	0.99649
537	0	0.99649
538	0	0.99649
539	0	0.998243
540	0	0.99649
541	1	0
542	1	0
543	1	0
544	1	0
545	1	0
546	1	0
547	1	0
548	1	0
549	1	0
550	1	0
551	1	0
552	0	0
553	0	0
554	0	0
555	0	0
556	0	0
557	0	0
558	0	0
559	0	0
560	0	0
561	0	0
562	0	0
563	0	0
564	0	0
565	0	0
566	0	0
567	0	0
568	0	0
569	1	0
570	0	0
571	0	0
572	0	0
573	0	0
574	0	0
575	0	0
576	0	0
577	0	0
578	0	0
579	0	0
580	0	0
581	0	0
582	0	0
583	0	0
584	0	0.166667
585	0	0.166667
586	0	0.166667
587	0	0.166667
588	0	0.166667
589	0	0.166667
590	0	0.3
591	0	0.868694
592	0	0.998243
593	0	0.998243
594	0	0.998243
595	0	0.998241
596	0	0.998241
597	0	0.998243
598	0	0.998243
599	0	0.998243
600	0	1
601	0	0.998241
602	0	0.998243
603	1	1
604	1	1
605	1	1
606	1	1
607	1	1
608	1	1
609	1	1
610	0	0.998241
611	0	0.998244
612	0	0.998244
613	0	0.998244
614	0	0.998246
615	0	0.998246
616	1	1
617	1	1
618	1	1
619	1	1
620	1	1
621	1	1
622	1	1
623	1	1
624	1	1
625	1	1
626	1	1
627	1	1
628	1	1
629	1	1
630	0	0.998243
631	0	0.998243
632	0	1
633	0	1
634	0	1
635	0	1
636	0	1
637	0	1
638	0	1
639	1	1
640	1	1
641	1	1
642	1	1
643	0	1
644	0	1
645	0	1
646	0	1
647	0	1
648	0	0.666667
649	0	0.666667
650	0	0.47619
651	0	0.3
652	0	0.3
653	0	0.1
654	0	0.1
655	0	0
656	0	0
657	0	0.635294
658	0	0.936044
659	0	0
660	0	0
661	0	0
662	0	0.1
663	0	0.1
664	0	0.51634
665	0	0.89276
666	0	0.4
667	0	0.25
668	0	0.138889
669	0	0.190476
670	0	0.142857
671	0	0.166667
672	0	0.166667
673	0	0.166667
674	0	0
675	0	0.0666667
676	0	0
677	0	0
678	0	0
679	0	0
680	0	0
681	0	0
682	0	0
683	0	0
684	0	0.047619
685	0	0.27619
686	0	0.163077
687	0	0.272727
688	0	0.818548
689	0	0.142857
690	0	0.142857
691	0	0.138889
692	0	0.142857
693	0	0.190476
694	0	0.142857
695	0	0.142857
696	0	0.470971
697	0	0.0757576
698	0	0.862222
699	0	0.846581
700	0	0.889511
701	0	0.142857
702	0	0.142857
703	0	0.142857
704	0	0.142857
705	0	0.142857
706	0	0.2
707	0	0.2
708	0	0.2
709	0	0.6
710	0	0.6
711	0	0.6
712	0	0.6
713	0	1
714	0	1
715	0	1
716	0	1
717	0	1
718	0	1
719	0	1
720	0	1
721	0	1
722	0	0.735704
723	0	0.849069
724	0	0.19697
725	0	0.327273
726	0	0.378788
727	0	0.8
728	0	0.8
729	0	1
730	0	0.994741
731	0	0.998246
732	0	0.998246
733	1	1
734	1	1
735	0	1
736	0	1
737	0	0.998247
738	0	0.998247
739	0	0.998247
740	0	0.998247
741	1	1
742	1	1
743	1	1
744	0	1
745	0	1
746	0	1
747	0	1
748	0	1
749	1	1
750	1	1
751	1	1
752	1	1
753	1	1
754	1	1
755	1	1
756	1	1
757	1	1
758	1	1
759	1	1
760	0	0.994743
761	0	0.333333
762	0	0.998247
763	1	1
764	1	0
765	1	0
766	1	0
767	1	1
768	1	1
769	0	0
770	0	0
771	0	0
772	0	0
773	0	0.5
774	0	0.992996
775	0	0.992996
776	0	0.99299
777	0	0.991245
778	0	1
779	0	0.987735
780	0	1
781	0	0.980825
782	0	0.779582
783	0	0.779582
784	0	0.779582
785	0	0.779582
786	0	0.779582
787	0	0.69302
788	0	0.525523
789	0	0.843749
790	0	0
791	0	0
792	0	0.845256
793	0	1
794	0	1
795	0	1
796	0	1
797	0	1
798	1	1
799	1	1
800	1	1
801	1	1
802	1	1
803	1	1
804	1	1
805	1	1
806	1	1
807	1	1
808	1	1
809	1	1
810	1	1
811	1	1
812	1	1
813	1	1
814	1	1
815	0	0.998241
816	0	0.998241
817	0	0.998241
818	1	1
819	1	1
820	0	0.99648
821	0	0.996474
822	0	0.9947
823	0	0.6
824	0	0.6
825	0	0.6
826	0	0.166667
827	0	0.166667
828	0	0.333333
829	0	0.333333
830	0	0.333333
831	0	0.333333
832	0	0
833	0	0
834	0	0
835	0	0
836	0	0
837	0	0
838	0	0
839	0	0
840	0	0
841	0	0
842	0	0
843	0	0
844	0	0
845	0	0
846	0	0
847	0	0
848	0	0
849	0	0.996455
850	0	0.996468
851	0	0.996465
852	0	0.992956
853	0	0
854	1	0
855	0	0
856	0	0.998233
857	0	1
858	0	1
859	0	1
860	0	1
861	0	1
862	0	0.998235
863	0	1
864	0	1
865	0	1
866	0	1
867	1	1
868	1	1
869	1	1
870	1	1
871	1	1
872	0	1
873	0	1
874	0	1
875	1	1
876	1	1
877	0	0.998243
878	0	0.998243
879	0	0.998243
880	0	0.998243
881	0	0.998243
882	0	0.998243
883	0	0.998243
884	0	0.998243
885	0	0.998243
886	0	0.998241
887	0	0.998241
888	1	1
889	1	1
890	0	1
891	1	1
892	1	1
893	1	1
894	1	1
895	0	0.998238
896	0	1
897	0	0.987709
898	0	1
899	0	1
900	0	1
901	0	1
902	0	1
903	0	1
904	0	1
905	0	1
906	0	1
907	0	1
908	0	1
909	0	1
910	0	1
911	0	1
912	0	1
913	0	1
914	0	1
915	0	1
916	0	1
917	0	1
918	0	1
919	0	1
920	0	1
921	0	1
922	0	1
923	1	1
924	1	1
925	0	0.99823
926	0	0.99823
927	0	0.99823
928	0	0.99823
929	0	0.99823
930	1	1
931	1	1
932	1	1
933	1	1
934	0	0.99823
935	0	0.994697
936	0	0.994697
937	0	0.994697
938	0	0
939	0	0
940	0	0
941	0	0
942	0	0
943	0	0
944	0	0
945	0	0
946	0	0
947	0	0
948	0	0
949	0	0
950	0	0
951	0	0
952	0	0
953	0	0
954	1	0
955	1	0
956	1	0
957	1	0
958	1	0
959	1	0
960	1	0
961	1	0
962	1	0
963	1	0
964	0	0
965	0	0
966	0	0
967	0	0
968	0	0
969	0	0
970	0	0
971	0	0
972	0	0
973	0	0
974	0	0
975	0	0
976	0	0
977	0	0
978	0	0
979	0	0
980	0	0
981	0	0
982	0	0
983	0	0
984	0	0
985	0	0
986	0	0
987	0	0
988	0	0
989	0	0
990	0	0
991	0	0.333333
992	0	0.333333
993	0	0.333333
994	0	0.166667
995	0	0.166667
996	0	0.1
997	0	0.989406
998	0	0.987656
999	0	0
1000	0	0
1001	0	0
1002	0	0
1003	0	0
1004	0	0.99115
1005	0	0.987645
1006	0	0.987645
1007	0	0.985886
1008	0	0.987645
1009	0	0.987645
1010	0	0.985899
1011	0	0.984157
1012	0	0.984157
1013	0	0.98239
1014	0	0.982342
1015	0	0.333333
1016	0	0.968365
1017	0	0
1018	0	0
1019	0	0
1020	0	0
1021	0	0
1022	0	0
1023	0	0
1024	0	0
1025	0	0
1026	0	0
1027	0	0
1028	0	0
1029	0	0
1030	0	0
1031	0	0
1032	0	0
1033	0	0
1034	0	0
1035	0	0
1036	0	0
1037	0	0
1038	0	0
1039	0	0
1040	0	0
1041	0	0
1042	0	0
1043	0	0
1044	0	0
1045	0	0
1046	0	0
1047	0	0
1048	0	0.5
1049	0	0.5
1050	0	0.5
1051	0	0.5
1052	0	0.5
1053	0	0.5
1054	0	0.5
1055	0	0.5
1056	0	0.5
1057	0	0.5
1058	0	0.5
1059	0	0.5
1060	0	0.5
1061	0	0.5
1062	0	0.5
1063	0	0.3
1064	0	0.2
1065	0	0.2
1066	0	0.2
1067	0	0.142857
1068	0	0.142857
1069	0	0.142857
1070	0	0.142857
1071	0	0.107143
1072	0	0.107143
1073	0	0.107143
1074	0	0.107143
1075	0	0.107143
1076	0	0.107143
1077	0	0.971731
1078	0	0
1079	0	0
1080	0	0
1081	0	0
1082	0	0
1083	0	0
1084	0	0
1085	0	0
1086	0	0.961398
1087	0	0.961398
1088	0	0
1089	0	0.959664
1090	0	0.957929
1091	0	0.943516
1092	0	0.225
1093	0	0.257143
1094	0	0.296703
1095	0	0.296703
1096	0	0.296703
1097	0	0.296703
1098	0	0.296703
1099	0	0.296703
1100	0	0.296703
1101	0	0.186813
1102	0	0.25
1103	0	0.266667
1104	0	0.266667
1105	0	0.5
1106	0	0.5
1107	0	1
1108	0	1
1109	0	1
1110	0	1
1111	0	1
1112	0	1
1113	0	1
1114	0	1
1115	0	0.525009
1116	0	0.509029
1117	0	0.2
1118	0	0.2
1119	0	0.2
1120	0	0.2
1121	0	0.2
1122	0	0.1
1123	0	0.1
1124	0	0.1
1125	0	0.1
1126	0	0.1
1127	0	0.1
1128	0	0
1129	0	0
1130	0	0
1131	0	0
1132	0	0
1133	0	0
1134	0	0
1135	0	0
1136	0	0.047619
1137	0	0.502059
1138	0	0.500698
1139	0	0.428571
1140	0	0.428571
1141	0	0.395604
1142	0	0.395604
1143	0	0.342857
1144	0	0.3
1145	0	0.3
1146	0	0.3
1147	0	0.492412
1148	0	0.486747
1149	0	0.483476
1150	0	0.227941
1151	0	0.242424
1152	0	0.2
1153	0	0.244444
1154	0	0.244444
1155	0	0.133333
1156	0	0.166667
1157	0	0.166667
1158	0	0.166667
1159	0	0.166667
1160	0	0.166667
1161	0	0.166667
1162	0	0.166667
1163	0	0.166667
1164	0	0.115385
1165	0	0.166667
1166	0	0.166667
1167	0	0.222222
1168	0	0.222222
1169	0	0.244444
1170	0	0.181818
1171	0	0.181818
1172	0	0.181818
1173	0	0.222222
1174	0	0.222222
1175	0	0.181818
1176	0	0.181818
1177	0	0.478947
1178	0	0.433333
1179	0	0.433333
1180	0	0.594771
1181	0	0.532164
1182	0	0.532164
1183	0	0.532164
1184	0	0.478947
1185	0	0.371542
1186	0	0.426877
1187	0	0.426877
1188	0	0.426877
1189	0	0.391304
1190	0	0.282759
1191	0	0.291005
1192	0	0.291005
1193	0	0.28836
1194	0	0.28836
1195	0	0.28836
1196	0	0.0512821
1197	0	0.025641
1198	0	0.217803
1199	0	0.206774
1200	0	0.204991
1201	0	0.179232
1202	0	0.180654
1203	0	0.161905
1204	0	0.141667
1205	0	0.554348
1206	0	0.57
1207	0	0.57
1208	0	0.315508
1209	0	0.383244
1210	0	0.329268
1211	0	0.329268
1212	0	0.447475
1213	0	0.493909
1214	0	0.483087
1215	0	0.692063
1216	0	0.513043
1217	0	0.513043
1218	0	0.524638
1219	0	0.87766
1220	0	0.87766
1221	0	0.87766
1222	0	0.87766
1223	0	0.87766
1224	0	0.87766
1225	0	0.882449
1226	0	0.882449
1227	0	0.882449
1228	0	0.882449
1229	0	0.882449
1230	0	0.847843
1231	0	0.815234
1232	0	0.815234
1233	0	0.698925
1234	0	0.811765
1235	0	0.811765
1236	0	0.811765
1237	0	0.818578
1238	0	0.815234
1239	0	0.815234
1240	0	0.815234
1241	0	0.815234
1242	0	0.815234
1243	0	0.815234
1244	0	0.815234
1245	0	0.78447
1246	0	0.785196
1247	0	0.785196
1248	0	0.777255
1249	0	0.751814
1250	0	0.751814
1251	0	0.46
1252	0	0.333091
1253	0	0.298701
1254	0	0.299351
1255	0	0.29026
1256	0	0.491855
1257	0	0.54198
1258	0	0.543233
1259	0	0.581145
1260	0	0.0363636
1261	0	0.0363636
1262	0	0.030303
1263	0	0.575122
1264	0	0.0384615
1265	0	0.0384615
1266	0	0.032967
1267	0	0.0769231
1268	0	0.610754
1269	0	0.590395
1270	0	0.590395
1271	0	0.616384
1272	0	0.616384
1273	0	0.598907
1274	0	0.579588
1275	0	0.579588
1276	0	0.579588
1277	0	0.579588
1278	0	0.2
1279	0	0.383924
1280	0	0.383924
1281	0	0.383924
1282	0	0.204125
1283	0	0.204125
1284	0	0.22
1285	0	0.19
1286	0	0.26
1287	0	0.444209
1288	0	0.843998
1289	0	0.843998
1290	0	0.843998
1291	0	0.843998
1292	0	0.843998
1293	0	0.843998
1294	0	0.843998
1295	0	0.843998
1296	0	0.843998
1297	0	0.850962
1298	0	0.850962
1299	0	0.850962
1300	0	0.850962
1301	0	0.850962
1302	0	0.850962
1303	0	0.850962
1304	0	0.850962
1305	0	0.850962
1306	0	0.850962
1307	0	0.850962
1308	0	0.850962
1309	0	0.825175
1310	0	0.773858
1311	0	0.773858
1312	0	0.773858
1313	0	0.773858
1314	0	0.800543
1315	0	0.800543
1316	0	0.800543
1317	0	0.800543
1318	0	0.800543
1319	0	0.800543
1320	0	0.800543
1321	0	0.800543
1322	0	0.803336
1323	0	0.803336
1324	0	0.780051
1325	0	0.780051
1326	0	0.780051
1327	0	0.780051
1328	0	0.780051
1329	0	0.780051
1330	0	0.780051
1331	0	0.780051
1332	0	0.780051
1333	0	0.780051
1334	0	0.780051
1335	0	0.780051
1336	0	0.780051
1337	0	0.780051
1338	0	0.806053
1339	0	0.806053
1340	0	0.806053
1341	0	0.806053
1342	0	0.806053
1343	0	0.806053
1344	0	0.780051
1345	0	0.780051
1346	0	0.780051
1347	0	0.780051
1348	0	0.806053
1349	0	0.780051
1350	0	0.780051
1351	0	0.780051
1352	0	0.780051
1353	0	0.780051
1354	0	0.780051
1355	0	0.780051
1356	0	0.780051
1357	0	0.780051
1358	0	0.780051
1359	0	0.803336
1360	0	0.803336
1361	0	0.803336
1362	0	0.803336
1363	0	0.803336
1364	0	0.830114
1365	0	0.830114
1366	0	0.855269
1367	0	0.855269
1368	0	0.855269
1369	0	0.855269
1370	0	0.855269
1371	0	0.855269
1372	0	0.820437
1373	0	0.462189
1374	0	0.481151
1375	0	0.496672
1376	0	0.214286
1377	0	0.375681
1378	0	0.442857
1379	0	0.730159
1380	0	0.45614
1381	0	0.45614
1382	0	0.331469
1383	0	0.825175
1384	0	0.825175
1385	0	0.825175
1386	0	0.825175
1387	0	0.825175
1388	0	0.825175
1389	0	0.825175
1390	0	0.825175
1391	0	0.825175
1392	0	0.825175
1393	0	0.825175
1394	0	0.825175
1395	0	0.800543
1396	0	0.800543
1397	0	0.825175
1398	0	0.825175
1399	0	0.825175
1400	0	0.825175
1401	0	0.825175
1402	0	0.825175
1403	0	0.825175
1404	0	0.825175
1405	0	0.825175
1406	0	0.825175
1407	0	0.825175
1408	0	0.825175
1409	0	0.825175
1410	0	0.825175
1411	0	0.825175
1412	0	0.825175
1413	0	0.772245
1414	0	0.772245
1415	0	0.617021
1416	0	0.151515
1417	0	0.206259
1418	0	0.169697
1419	0	0.172306
1420	0	0.142022
1421	0	0.214782
1422	0	0.291667
1423	0	0.335884
1424	0	0.322449
1425	0	0.322449
1426	0	0.368163
1427	0	0.2662
1428	0	0.489977
1429	0	0.489044
1430	0	0.489044
1431	0	0.504327
1432	0	0.504327
1433	0	0.520337
1434	0	0.519345
1435	0	0.587571
1436	0	0.651003
1437	0	0.651003
1438	0	0.634521
1439	0	0.652338
1440	0	0.377828
1441	0	0.521008
1442	0	0.689655
1443	0	0.593548
1444	0	0.354839
1445	0	0.428571
1446	0	0.428571
1447	0	0.823077
1448	0	0.823077
1449	0	0.825641
1450	0	0.825641
1451	0	0.825175
1452	0	0.825175
1453	0	0.825175
1454	0	0.825175
1455	0	0.825175
1456	0	0.825175
1457	0	0.825175
1458	0	0.825175
1459	0	0.825175
1460	0	0.825175
1461	0	0.825175
1462	0	0.825175
1463	0	0.825175
1464	0	0.825175
1465	0	0.825175
1466	0	0.825175
1467	0	0.825175
1468	0	0.825175
1469	0	0.825175
1470	0	0.825175
1471	0	0.825175
1472	0	0.825175
1473	0	0.825175
1474	0	0.797669
1475	0	0.798135
1476	0	0.798135
1477	0	0.798135
1478	0	0.798135
1479	0	0.798135
1480	0	0.798135
1481	0	0.798135
1482	0	0.798135
1483	0	0.798135
1484	0	0.798135
1485	0	0.798135
1486	0	0.798135
1487	0	0.798135
1488	0	0.798135
1489	0	0.798135
1490	0	0.798135
1491	0	0.798135
1492	0	0.0555556
1493	0	0.795192
1494	0	0.798135
1495	0	0.879808
1496	0	0.879808
1497	0	0.879808
1498	0	0.879808
1499	0	0.879808
1500	0	0.879808
1501	0	0.879808
1502	0	0.879808
1503	0	0.879808
1504	0	0.879808
1505	0	0.879808
1506	0	0.879808
1507	0	0.879808
1508	0	0.879808
1509	0	0.879808
1510	0	0.879808
1511	0	0.879808
1512	0	0.879808
1513	0	0.879808
1514	0	0.879808
1515	0	0.879808
1516	0	0.879808
1517	0	0.879808
1518	0	0.879808
1519	0	0.879808
1520	0	0.879808
1521	0	0.879808
1522	0	0.879808
1523	0	0.879808
1524	0	0.879808
1525	0	0.879808
1526	0	0.879808
1527	0	0.879808
1528	0	0.879808
1529	0	0.879808
1530	0	0.879808
1531	0	0.879808
1532	0	0.879808
1533	0	0.879808
1534	0	0.879808
1535	0	0.879808
1536	0	0.879808
1537	0	0.879808
1538	0	0.879808
1539	0	0.879808
1540	0	0.879808
1541	0	0.879808
1542	0	0.879808
1543	0	0.879808
1544	0	0.879808
1545	0	0.879808
1546	0	0.879808
1547	0	0.879808
1548	0	0.879808
1549	0	0.879808
1550	0	0.879808
1551	0	0.879808
1552	0	0.879808
1553	0	0.879808
1554	0	0.879808
1555	0	0.879808
1556	0	0.879808
1557	0	0.879808
1558	0	0.879808
1559	0	0.879808
1560	0	0.879808
1561	0	0.879808
1562	0	0.879808
1563	0	0.879808
1564	0	0.879808
1565	0	0.879808
1566	0	0.879808
1567	0	0.879808
1568	0	0.879808
1569	0	0.879808
1570	0	0.879808
1571	0	0.879808
1572	0	0.879808
1573	0	0.879808
1574	0	0.879808
1575	0	0.879808
1576	0	0.879808
1577	0	0.879808
1578	0	0.879808
1579	0	0.879808
1580	0	0.879808
1581	0	0.879808
1582	0	0.879808
1583	0	0.879808
1584	0	0.879808
1585	0	0.879808
1586	0	0.879808
1587	0	0.879808
1588	0	0.879808
1589	0	0.879808
1590	0	0.879808
1591	0	0.879808
1592	0	0.879808
1593	0	0.879808
1594	0	0.879808
1595	0	0.879808
1596	0	0.879808
1597	0	0.879808
1598	0	0.879808
1599	0	0.879808
1600	0	0.879808
1601	0	0.879808
1602	0	0.879808
1603	0	0.879808
1604	0	0.879808
1605	0	0.879808
1606	0	0.879808
1607	0	0.879808
1608	0	0.879808
1609	0	0.879808
1610	0	0.879808
1611	0	0.879808
1612	0	0.907738
1613	0	0.907738
1614	0	0.907738
1615	0	0.907738
1616	0	0.907738
1617	0	0.907738
1618	0	0.907738
1619	0	0.907738
1620	0	0.907738
1621	0	0.907738
1622	0	0.907738
1623	0	0.907738
1624	0	0.907738
1625	0	0.907738
1626	0	0
1627	0	0
1628	0	0
1629	0	0
1630	0	0
1631	0	0
1632	0	0
1633	0	0
1634	0	0
1635	0	0
1636	0	0
1637	0	0
1638	0	0
1639	0	0
1640	0	0
1641	0	0
1642	0	0
1643	0	0
1644	0	0
1645	0	0
1646	0	0
1647	0	0
1648	0	0
1649	0	0
1650	0	0
1651	0	0
1652	0	0
1653	0	0
1654	0	0
1655	0	0
1656	0	0
1657	0	0
1658	0	0
1659	0	0
1660	0	0
1661	0	0
1662	0	0
1663	0	0
1664	0	0
1665	0	0
1666	0	0
1667	0	0
1668	0	0
1669	0	0
1670	0	0
1671	0	0
1672	0	0
1673	0	0
1674	0	0
1675	0	0
1676	0	0
1677	0	0
1678	0	0
1679	0	0
1680	0	0
1681	0	0
1682	0	0
1683	0	0
1684	0	0.907738
1685	0	0.907738
1686	0	0.907738
1687	0	0.907738
1688	0	0.907738
1689	0	0.907738
1690	0	0.907738
1691	0	0.907738
1692	0	0.907738
1693	0	0.907738
1694	0	0.907738
1695	0	0.907738
1696	0	0.907738
1697	0	0.907738
1698	0	0.907738
1699	0	0.907738
1700	0	0.907738
1701	0	0.907738
1702	0	0.907738
1703	0	0.907738
1704	0	0.907738
1705	0	0.907738
1706	0	0.907738
1707	0	0.907738
1708	0	0.907738
1709	0	0.907738
1710	0	0.907738
1711	0	0.906298
1712	0	0.906298
1713	0	0.906298
1714	0	0.906298
1715	0	0.906298
1716	0	0.906298
1717	0	0.906298
1718	0	0.906298
1719	0	0.906298
1720	0	0.906298
1721	0	0.906298
1722	0	0.907738
1723	0	0.907738
1724	0	0.907738
1725	0	0.907738
1726	0	0.907738
1727	0	0.907738
1728	0	0.907738
1729	0	0.907738
1730	0	0.907738
1731	0	0.907738
1732	0	0.907738
1733	0	0.907738
1734	0	0.907738
1735	0	0.907738
1736	0	0.93702
1737	0	0.93702
1738	0	0.93702
1739	0	0.93702
1740	0	0.93702
1741	0	0.93702
1742	0	0.93702
1743	0	0.93702
1744	0	0.93702
1745	0	0.93702
1746	0	0.93702
1747	0	0.93702
1748	0	0.93702
1749	0	0.93702
1750	0	0.93702
1751	0	0.93702
1752	0	0.93702
1753	0	0.93702
1754	0	0.93702
1755	0	0.93702
1756	0	0.93702
1757	0	0.93702
1758	0	0.93702
1759	0	0.93702
1760	0	0.93702
1761	0	0.93702
1762	0	0.93702
1763	0	0.93702
1764	0	0.93702
1765	0	0.93702
1766	0	0.93702
1767	0	0.93702
1768	0	0.93702
1769	0	0.93702
1770	0	0.936013
1771	0	0.936013
1772	0	0.93702
1773	0	0.93702
1774	0	0.93702
1775	0	0.93702
1776	0	0.93702
1777	0	0.93702
1778	0	0.93702
1779	0	0.93702
1780	0	0.93702
1781	0	0.93702
1782	0	0.93702
1783	0	0.93702
1784	0	0.93702
1785	0	0.93702
1786	0	0.93702
1787	0	0.93702
1788	0	0.93702
1789	0	0.93702
1790	0	0.93702
1791	0	0.93702
1792	0	0.93702
1793	0	0.93702
1794	0	0.93702
1795	0	0.93702
1796	0	0.93702
1797	0	0.93702
1798	0	0.93702
1799	0	0.93702
1800	0	0.93702
1801	0	0.93702
1802	0	0.93702
1803	0	0.93702
1804	0	0.93702
1805	0	0.93702
1806	0	0.93702
1807	0	0.93702
1808	0	0.93702
1809	0	0.93702
1810	0	0.93702
1811	0	0.93702
1812	0	0.915819
1813	0	0.705128
1814	0	0.654545
1815	0	0
1816	0	0
1817	0	0
1818	0	0
1819	0	0
1820	0	0
1821	0	0
1822	0	0
1823	0	0
1824	0	0
1825	0	0
1826	0	0
1827	0	0
1828	0	0
1829	0	0
1830	0	0
1831	0	0
1832	0	0
1833	0	0
1834	0	0
1835	0	0
1836	0	0
1837	0	0
1838	0	0
1839	0	0
1840	0	0
1841	0	0
1842	0	0
1843	0	0
1844	0	0
1845	0	0
1846	0	0
1847	0	0
1848	0	0
1849	0	0
1850	0	0
1851	0	0
1852	0	0
1853	0	0
1854	0	0
1855	0	0
1856	0	0
1857	0	0
1858	0	0
1859	0	0
1860	0	0
1861	0	0
1862	0	0
1863	0	0
1864	0	0
1865	0	0
1866	0	0
1867	0	0
1868	0	0
1869	0	0
1870	0	0
1871	0	0
1872	0	0
1873	0	0
1874	0	0
1875	0	0
1876	0	0
1877	0	0
1878	0	0
1879	0	0
1880	0	0
1881	0	0
1882	0	0
1883	0	0
1884	0	0
1885	0	0
1886	0	0
1887	0	0
1888	0	0
1889	0	0
1890	0	0
1891	0	0
1892	0	0
1893	0	0
1894	0	0
1895	0	0
1896	0	0
1897	0	0
1898	0	0
1899	0	0
1900	0	0
1901	0	0
1902	0	0
1903	0	0
1904	0	0
1905	0	0
1906	0	0
1907	0	0
1908	0	0
1909	0	0
1910	0	0
1911	0	0
1912	0	0
1913	0	0
1914	0	0
1915	0	0
1916	0	0
1917	0	0
1918	0	0
1919	0	0
1920	0	0
1921	0	0
1922	0	0
1923	0	0
1924	0	0
1925	0	0
1926	0	0
1927	0	0
1928	0	0
1929	0	0
1930	0	0
1931	0	0
1932	0	0
1933	0	0
1934	0	0
1935	0	0
1936	0	0
1937	0	0
1938	0	0
1939	0	0
1940	0	0
1941	0	0
1942	0	0
1943	0	0
1944	0	0
1945	0	0
1946	0	0
1947	0	0
1948	0	0
1949	0	0
1950	0	0
1951	0	0
1952	0	0
1953	0	0
1954	0	0
1955	0	0
1956	0	0
1957	0	0
1958	0	0
1959	0	0
1960	0	0
1961	0	0
1962	0	0
1963	0	0
1964	0	0
1965	0	0
1966	0	0
1967	0	0
1968	0	0
1969	0	0
1970	0	0
1971	0	0
1972	0	0
1973	0	0
1974	0	0
1975	0	0
1976	0	0
1977	0	0
1978	0	0
1979	0	0
1980	0	0
1981	0	0
1982	0	0
1983	0	0
1984	0	0
1985	0	0
1986	0	0
1987	0	0
1988	0	0
1989	0	0
1990	0	0
1991	0	0
1992	0	0
1993	0	0
1994	0	0
1995	0	0
1996	0	0
1997	0	0
1998	0	0
1999	0	0
2000	0	0
2001	0	0
2002	0	0
2003	0	0
2004	0	0
2005	0	0
2006	0	0
2007	0	0
2008	0	0
2009	0	0
2010	0	0
2011	0	0
2012	0	0
2013	0	0
2014	0	0
2015	0	0
2016	0	0
2017	0	0
2018	0	0
2019	0	0
2020	0	0
2021	0	0
2022	0	0
2023	0	0
2024	0	0
2025	0	0
2026	0	0
2027	0	0
2028	0	0
2029	0	0
2030	0	0
2031	0	0
2032	0	0
2033	0	0
2034	0	0
2035	0	0
2036	0	0
2037	0	0
2038	0	0
2039	0	0
2040	0	0
2041	0	0
2042	0	0
2043	0	0
2044	0	0
2045	0	0
2046	0	0
2047	0	0
2048	0	0
2049	0	0
2050	0	0
2051	0	0
2052	0	0
2053	0	0
2054	0	0
2055	0	0
2056	0	0
2057	0	0
2058	0	0
2059	0	0
2060	0	0
2061	0	0
2062	0	0
2063	0	0
2064	0	0
2065	0	0
2066	0	0
2067	0	0
2068	0	0
2069	0	0
2070	0	0
2071	0	0
2072	0	0
2073	0	0
2074	0	0
2075	0	0
2076	0	0
2077	0	0
2078	0	0
2079	0	0
2080	0	0
2081	0	0
2082	0	0
2083	0	0
2084	0	0
2085	0	0
2086	0	0
2087	0	0
2088	0	0
2089	0	0
2090	0	0
2091	0	0
2092	0	0
2093	0	0
2094	0	0
2095	0	0
2096	0	0
2097	0	0
2098	0	0
2099	0	0
2100	0	0
2101	0	0
2102	0	0
2103	1	0
2104	1	0
2105	1	0
2106	1	0
2107	1	0
2108	1	0
2109	1	0
2110	1	0
2111	1	0
2112	1	0
2113	1	0
2114	1	0
2115	1	0
2116	1	0
2117	1	0
2118	1	0
2119	1	0
2120	1	0
2121	1	0
2122	1	0
2123	1	0
2124	1	0
2125	1	0
2126	1	0
2127	1	0
2128	1	0
2129	1	0
2130	1	0
2131	1	0
2132	1	0
2133	1	0
2134	1	0
2135	1	0
2136	1	0
2137	1	0
2138	1	0
2139	1	0
2140	1	0
2141	1	0
2142	1	0
2143	1	0
2144	1	0
2145	1	0
2146	1	0
2147	1	0
2148	1	0
2149	1	0
2150	1	0
2151	1	0
2152	1	0
2153	1	0
2154	1	0
2155	1	0
2156	1	0
2157	1	0
2158	1	0
2159	1	0
2160	1	0
2161	1	0
2162	1	0
2163	1	0
2164	1	0
2165	1	0
2166	1	0
2167	1	0
2168	1	0
2169	1	0
2170	1	0
2171	1	0
2172	1	0
2173	1	0
2174	1	0
2175	1	0
2176	1	0
2177	1	0
2178	1	0
2179	1	0
2180	1	0
2181	1	0
2182	1	0
2183	1	0
2184	1	0
2185	1	0
2186	1	0
2187	1	0
2188	1	0
2189	1	0
2190	1	0
2191	1	0
2192	1	0
2193	1	0
2194	1	0
2195	1	0
2196	1	0
2197	1	0
2198	1	0
2199	1	0
2200	1	0
2201	1	0
2202	1	0
2203	1	0
2204	1	0
2205	1	0
2206	1	0
2207	1	0
2208	1	0
2209	1	0
2210	1	0
2211	1	0
2212	1	0
2213	1	0
2214	1	0
2215	1	0
2216	1	0
2217	1	0
2218	1	0
2219	1	0
2220	1	0
2221	1	0
2222	1	0
2223	1	0
2224	1	0
2225	1	0
2226	1	0
2227	1	0
2228	1	0
2229	1	0
2230	1	0
2231	1	0
2232	1	0
2233	1	0
2234	1	0
2235	1	0
2236	1	0
2237	1	0
2238	1	0
2239	1	0
2240	1	0
2241	1	0
2242	1	0
2243	1	0
2244	1	0
2245	1	0
2246	1	0
2247	1	0
2248	1	0
2249	1	0
2250	1	0
2251	1	0
2252	1	0
2253	1	0
2254	1	0
2255	1	0
2256	1	0
2257	1	0
2258	1	0
2259	1	0
2260	1	0
2261	1	0
2262	1	0
2263	1	0
2264	1	0
2265	1	0
2266	1	0
2267	1	0
2268	1	0
2269	1	0
2270	1	0
2271	1	0
2272	1	0
2273	1	0
2274	1	0
2275	1	0
2276	1	0
2277	1	0
2278	1	0
2279	1	0
2280	1	0
2281	1	0
2282	1	0
2283	1	0
2284	1	0
2285	1	0
2286	1	0
2287	1	0
2288	1	0
2289	1	0
2290	1	0
2291	1	0
2292	1	0
2293	1	0
2294	1	0
2295	1	0
2296	1	0
2297	1	0
2298	1	0
2299	1	0
2300	1	0
2301	1	0
2302	1	0
2303	1	0
2304	1	0
2305	1	0
2306	1	0
2307	1	0
2308	1	0
2309	1	0
2310	1	0
2311	1	0
2312	1	0
2313	1	0
2314	1	0
2315	1	0
2316	1	0
2317	1	0
2318	1	0
2319	1	0
2320	1	0
2321	1	0
2322	1	0
2323	1	0
2324	1	0
2325	1	0
2326	1	0
2327	1	0
2328	1	0
2329	1	0
2330	1	0
2331	1	0
2332	1	0
2333	1	0
2334	1	0
2335	1	0
2336	1	0
2337	1	0
2338	1	0
2339	1	0
2340	1	0
2341	1	0
2342	1	0
2343	1	0
2344	1	0
2345	1	0
2346	1	0
2347	1	0
2348	1	0
2349	1	0
2350	1	0
2351	1	0
2352	1	0
2353	1	0
2354	1	0
2355	1	0
2356	1	0
2357	1	0
2358	1	0
2359	1	0
2360	1	0
2361	1	0
2362	1	0
2363	1	0
2364	1	0
2365	1	0
2366	1	0
2367	1	0
2368	1	0
2369	1	0
2370	1	0
2371	1	0
2372	1	0
2373	1	0
2374	1	0
2375	1	0
2376	1	0
2377	1	0
2378	1	0
2379	1	0
2380	1	0
2381	1	0
2382	1	0
2383	1	0
2384	1	0
2385	1	0
2386	1	0
2387	1	0
2388	1	0
2389	1	0
2390	1	0
2391	1	0
2392	1	0
2393	1	0
2394	1	0
2395	1	0
2396	1	0
2397	1	0
2398	1	0
2399	1	0
2400	1	0
2401	1	0
2402	1	0
2403	1	0
2404	1	0
2405	1	0
2406	1	0
2407	1	0
2408	1	0
2409	1	0
2410	1	0
2411	1	0
2412	1	0
2413	1	0
2414	1	0
2415	1	0
2416	1	0
2417	1	0
2418	1	0
2419	1	0
2420	1	0
2421	1	0
2422	1	0
2423	1	0
2424	1	0
2425	1	0
2426	1	0
2427	1	0
2428	1	0
2429	1	0
2430	1	0
2431	1	0
2432	1	0
2433	1	0
2434	1	0
2435	1	0
2436	1	0
2437	1	0
2438	1	0
2439	1	0
2440	1	0
2441	1	0
2442	1	0
2443	1	0
2444	1	0
2445	1	0
2446	1	0
2447	1	0
2448	1	0
2449	1	0
2450	1	0
2451	1	0
2452	1	0
2453	1	0
2454	1	0
2455	1	0
2456	1	0
2457	1	0
2458	1	0
2459	1	0
2460	1	0
2461	1	0
2462	1	0
2463	1	0
2464	1	0
2465	1	0
2466	1	0
2467	1	0
2468	1	0
2469	1	0
2470	1	0
2471	1	0
2472	1	0
2473	1	0
2474	1	0
2475	1	0
2476	1	0
2477	1	0
2478	1	0
2479	1	0
2480	1	0
2481	1	0
2482	1	0
2483	1	0
2484	1	0
2485	1	0
2486	1	0
2487	1	0
2488	1	0
2489	1	0
2490	1	0
2491	1	0
2492	1	0
2493	1	0
2494	1	0
2495	1	0
2496	1	0
2497	1	0
2498	1	0
2499	1	0
2500	1	0
2501	1	0
2502	1	0
2503	1	0
2504	1	0
2505	1	0
2506	1	0
2507	1	0
2508	1	0
2509	1	0
2510	1	0
2511	1	0
2512	1	0
2513	1	0
2514	1	0
2515	1	0
2516	1	0
2517	1	0
2518	1	0
2519	1	0
2520	1	0
2521	1	0
2522	1	0
2523	1	0
2524	1	0
2525	1	0
2526	1	0
2527	1	0
2528	1	0
2529	1	0
2530	1	0
2531	1	0
2532	1	0
2533	1	0
2534	1	0
2535	1	0
2536	1	0
2537	1	0
2538	1	0
2539	1	0
2540	1	0
2541	1	0
2542	1	0
2543	1	0
2544	1	0
2545	1	0
2546	1	0
2547	1	0
2548	1	0
2549	1	0
2550	1	0
2551	1	0
2552	1	0
2553	1	0
2554	1	0
2555	1	0
2556	1	0
2557	1	0
2558	1	0
2559	1	0
2560	1	0
2561	1	0
2562	1	0
2563	1	0
2564	1	0
2565	1	0
2566	1	0
2567	1	0
2568	1	0
2569	1	0
2570	1	0
2571	1	0
2572	1	0
2573	1	0
2574	1	0
2575	1	0
2576	1	0
2577	1	0
2578	1	0
2579	1	0
2580	1	0
2581	1	0
2582	1	0
2583	1	0
2584	1	0
2585	1	0
2586	1	0
2587	1	0
2588	1	0
2589	1	0
2590	1	0
2591	1	0
2592	1	0
2593	1	0
2594	1	0
2595	1	0
2596	1	0
2597	1	0
2598	1	0
2599	1	0
2600	1	0
2601	1	0
2602	1	0
2603	1	0
2604	1	0
2605	1	0
2606	1	0
2607	1	0
2608	1	0
2609	1	0
2610	1	0
2611	1	0
2612	1	0
2613	1	0
2614	1	0
2615	1	0
2616	1	0
2617	1	0
2618	1	0
2619	1	0
2620	1	0
2621	1	0
2622	1	0
2623	1	0
2624	1	0
2625	1	0
2626	1	0
2627	1	0
2628	1	0
2629	1	0
2630	1	0
2631	1	0
2632	1	0
2633	1	0
2634	1	0
2635	1	0
2636	1	0
2637	1	0
2638	1	0
2639	1	0
2640	1	0
2641	1	0
2642	1	0
2643	1	0
2644	1	0
2645	1	0
2646	1	0
2647	1	0
2648	1	0
2649	1	0
2650	1	0
2651	1	0
2652	1	0
2653	1	0
2654	1	0
2655	1	0
2656	1	0
2657	1	0
2658	1	0
2659	1	0
2660	1	0
2661	1	0
2662	1	0
2663	1	0
2664	1	0
2665	1	0
2666	1	0
2667	1	0
2668	1	0
2669	1	0
2670	1	0
2671	1	0
2672	1	0
2673	1	0
2674	1	0
2675	1	0
2676	1	0
2677	1	0
2678	1	0
2679	1	0
2680	1	0
2681	1	0
2682	1	0
2683	1	0
2684	1	0
2685	1	0
2686	1	0
2687	1	0
2688	1	0
2689	1	0
2690	1	0
2691	1	0
2692	1	0
2693	1	0
2694	1	0
2695	1	0
2696	1	0
2697	1	0
2698	1	0
2699	1	0
2700	1	0
2701	1	0
2702	1	0
2703	1	0
2704	1	0
2705	1	0
2706	1	0
2707	1	0
2708	1	0
2709	1	0
2710	1	0
2711	1	0
2712	1	0
2713	1	0
2714	1	0
2715	1	0
2716	1	0
2717	1	0
2718	1	0
2719	1	0
2720	1	0
2721	1	0
2722	1	0
2723	1	0
2724	1	0
2725	1	0
2726	1	0
2727	1	0
2728	1	0
2729	1	0
2730	1	0
2731	1	0
2732	1	0
2733	1	0
2734	1	0
2735	1	0
2736	1	0
2737	1	0
2738	1	0
2739	1	0
2740	1	0
2741	1	0
2742	1	0
2743	1	0
2744	1	0
2745	1	0
2746	1	0
2747	1	0
2748	1	0
2749	1	0
2750	1	0
2751	1	0
2752	1	0
2753	1	0
2754	1	0
2755	1	0
2756	1	0
2757	1	0
2758	1	0
2759	1	0
2760	1	0
2761	1	0
2762	1	0
2763	1	0
2764	1	0
2765	1	0
2766	1	0
2767	1	0
2768	1	0
2769	1	0
2770	1	0
2771	1	0
2772	1	0
2773	1	0
2774	1	0
2775	1	0
2776	1	0
2777	1	0
2778	1	0
2779	1	0
2780	1	0
2781	1	0
2782	1	0
2783	1	0
2784	1	0
2785	1	0
2786	1	0
2787	1	0
2788	1	0
2789	1	0
2790	1	0
2791	1	0
2792	1	0
2793	1	0
2794	1	0
2795	1	0
2796	1	0
2797	1	0
2798	1	0
2799	1	0
2800	1	0
2801	1	0
2802	1	0
2803	1	0
2804	1	0
2805	1	0
2806	1	0
2807	1	0
2808	1	0
2809	1	0
2810	1	0
2811	1	0
2812	1	0
2813	1	0
2814	1	0
2815	1	0
2816	1	0
2817	1	0
2818	1	0
2819	1	0
2820	1	0
2821	1	0
2822	1	0
2823	1	0
2824	1	0
2825	1	0
2826	1	0
2827	1	0
2828	1	0
2829	1	0
2830	1	0
2831	1	0
2832	1	0
2833	1	0
2834	1	0
2835	1	0
2836	1	0
2837	1	0
2838	1	0
2839	1	0
2840	1	0
2841	1	0
2842	1	0
2843	1	0
2844	1	0
2845	1	0
2846	1	0
2847	1	0
2848	1	0
2849	1	0
2850	1	0
2851	1	0
2852	1	0
2853	1	0
2854	1	0
2855	1	0
2856	1	0
2857	1	0
2858	1	0
2859	1	0
2860	1	0
2861	1	0
2862	1	0
2863	1	0
2864	1	0
2865	1	0
2866	1	0
2867	1	0
2868	1	0
2869	1	0
2870	1	0
2871	1	0
2872	1	0
2873	1	0
2874	1	0
2875	1	0
2876	1	0
2877	1	0
2878	1	0
2879	1	0
2880	1	0
2881	1	0
2882	1	0
2883	1	0
2884	1	0
2885	1	0
2886	1	0
2887	1	0
2888	1	0
2889	1	0
2890	1	0
2891	1	0
2892	1	0
2893	1	0
2894	1	0
2895	1	0
2896	1	0
2897	1	0
2898	1	0
2899	1	0
2900	1	0
2901	1	0
2902	1	0
2903	1	0
2904	1	0
2905	1	0
2906	1	0
2907	1	0
2908	1	0
2909	1	0
2910	1	0
2911	1	0
2912	1	0
2913	1	0
2914	1	0
2915	1	0
2916	1	0
2917	1	0
2918	1	0
2919	1	0
2920	1	0
2921	1	0
2922	1	0
2923	1	0
2924	1	0
2925	1	0
2926	1	0
2927	1	0
2928	1	0
2929	1	0
2930	1	0
2931	1	0
2932	1	0
2933	1	0
2934	1	0
2935	1	0
2936	1	0
2937	1	0
2938	1	0
2939	1	0
2940	1	0
2941	1	0
2942	1	0
2943	1	0
2944	1	0
2945	1	0
2946	1	0
2947	1	0
2948	1	0
2949	1	0
2950	1	0
2951	1	0
2952	1	0
2953	1	0
2954	1	0
2955	1	0
2956	1	0
2957	1	0
2958	1	0
2959	1	0
2960	1	0
2961	1	0
2962	1	0
2963	1	0
2964	1	0
2965	1	0
2966	1	0
2967	1	0
2968	1	0
2969	1	0
2970	1	0
2971	1	0
2972	1	0
2973	1	0
2974	1	0
2975	1	0
2976	1	0
2977	1	0
2978	1	0
2979	1	0
2980	1	0
2981	1	0
2982	1	0
2983	1	0
2984	1	0
2985	1	0
2986	1	0
2987	1	0
2988	1	0
2989	1	0
2990	1	0
2991	1	0
2992	1	0
2993	1	0
2994	1	0
2995	1	0
2996	1	0
2997	1	0
2998	1	0
2999	1	0
3000	1	0
3001	1	0
3002	1	0
3003	1	0
3004	1	0
3005	1	0
3006	1	0
3007	1	0
3008	1	0
3009	1	0
3010	1	0
3011	1	0
3012	1	0
3013	1	0
3014	1	0
3015	1	0
3016	1	0
3017	1	0
3018	1	0
3019	1	0
3020	1	0
3021	1	0
3022	1	0
3023	1	0
3024	1	0
3025	1	0
3026	1	0
3027	1	0
3028	1	0
3029	1	0
3030	1	0
3031	1	0
3032	1	0
3033	1	0
3034	1	0
3035	1	0
3036	1	0
3037	1	0
3038	1	0
3039	1	0
3040	1	0
3041	1	0
3042	1	0
3043	1	0
3044	1	0
3045	1	0
3046	1	0
3047	1	0
3048	1	0
3049	1	0
3050	1	0
3051	1	0
3052	1	0
3053	1	0
3054	1	0
3055	1	0
3056	1	0
3057	1	0
3058	1	0
3059	1	0
3060	1	0
3061	1	0
3062	1	0
3063	1	0
3064	1	0
3065	1	0
3066	1	0
3067	1	0
3068	1	0
3069	1	0
3070	1	0
3071	1	0
3072	1	0
3073	1	0
3074	1	0
3075	1	0
3076	1	0
3077	1	0
3078	1	0
3079	1	0
3080	1	0
3081	1	0
3082	1	0
3083	1	0
3084	1	0
3085	1	0
3086	1	0
3087	1	0
3088	1	0
3089	1	0
3090	1	0
3091	1	0
3092	1	0
3093	1	0
3094	1	0
3095	1	0
3096	1	0
3097	1	0
3098	1	0
3099	1	0
3100	1	0
3101	1	0
3102	1	0
3103	1	0
3104	1	0
3105	1	0
3106	1	0
3107	1	0
3108	1	0
3109	1	0
3110	1	0
3111	1	0
3112	1	0
3113	1	0
3114	1	0
3115	1	0
3116	1	0
3117	1	0
3118	1	0
3119	1	0
3120	1	0
3121	1	0
3122	1	0
3123	1	0
3124	1	0
3125	1	0
3126	1	0
3127	1	0
3128	1	0
3129	1	0
3130	1	0
3131	1	0
3132	1	0
3133	1	0
3134	1	0
3135	1	0
3136	1	0
3137	1	0
3138	1	0
3139	1	0
3140	1	0
3141	1	0
3142	1	0
3143	1	0
3144	1	0
3145	1	0
3146	1	0
3147	1	0
3148	1	0
3149	1	0
3150	1	0
3151	1	0
3152	1	0
3153	1	0
3154	1	0
3155	1	0
3156	1	0
3157	1	0
3158	1	0
3159	1	0
3160	1	0
3161	1	0
3162	1	0
3163	1	0
3164	1	0
3165	1	0
3166	1	0
3167	1	0
3168	1	0
3169	1	0
3170	1	0
3171	1	0
3172	1	0
3173	1	0
3174	1	0
3175	1	0
3176	1	0
3177	1	0
3178	1	0
3179	1	0
3180	1	0
3181	1	0
3182	1	0
3183	1	0
3184	1	0
3185	1	0
3186	1	0
3187	1	0
3188	1	0
3189	1	0
3190	1	0
3191	1	0
3192	1	0
3193	1	0
3194	1	0
3195	1	0
3196	1	0
3197	1	0
3198	1	0
3199	1	0
3200	1	0
3201	1	0
3202	1	0
3203	1	0
3204	1	0
3205	1	0
3206	1	0
3207	1	0
3208	1	0
3209	1	0
3210	1	0
3211	1	0
3212	1	0
3213	1	0
3214	1	0
3215	1	0
3216	1	0
3217	1	0
3218	1	0
3219	1	0
3220	1	0
3221	1	0
3222	1	0
3223	1	0
3224	1	0
3225	1	0
3226	1	0
3227	1	0
3228	1	0
3229	1	0
3230	1	0
3231	1	0
3232	1	0
3233	1	0
3234	1	0
3235	1	0
3236	1	0
3237	1	0
3238	1	0
3239	1	0
3240	1	0
3241	1	0
3242	1	0
3243	1	0
3244	1	0
3245	1	0
3246	1	0
3247	1	0
3248	1	0
3249	1	0
3250	1	0
3251	1	0
3252	1	0
3253	1	0
3254	1	0
3255	1	0
3256	1	0
3257	1	0
3258	1	0
3259	1	0
3260	1	0
3261	1	0
3262	1	0
3263	1	0
3264	1	0
3265	1	0
3266	1	0
3267	1	0
3268	1	0
3269	1	0
3270	1	0
3271	1	0
3272	1	0
3273	1	0
3274	1	0
3275	1	0
3276	1	0
3277	1	0
3278	1	0
3279	1	0
3280	1	0
3281	1	0
3282	1	0
3283	1	0
3284	1	0
3285	1	0
3286	1	0
3287	1	0
3288	1	0
3289	1	0
3290	1	0
3291	1	0
3292	1	0
3293	1	0
3294	1	0
3295	1	0
3296	1	0
3297	1	0
3298	1	0
3299	1	0
3300	1	0
3301	1	0
3302	1	0
3303	1	0
3304	1	0
3305	1	0
3306	1	0
3307	1	0
3308	1	0
3309	1	0
3310	1	0
3311	1	0
3312	1	0
3313	1	0
3314	1	0
3315	1	0
3316	1	0
3317	1	0
3318	1	0
3319	1	0
3320	1	0
3321	1	0
3322	1	0
3323	1	0
3324	1	0
3325	1	0
3326	1	0
3327	1	0
3328	1	0
3329	1	0
3330	1	0
3331	1	0
3332	1	0
3333	1	0
3334	1	0
3335	1	0
3336	1	0
3337	1	0
3338	1	0
3339	1	0
3340	1	0
3341	1	0
3342	1	0
3343	1	0
3344	1	0
3345	1	0
3346	1	0
3347	1	0
3348	1	0
3349	1	0
3350	1	0
3351	1	0
3352	1	0
3353	1	0
3354	1	0
3355	1	0
3356	1	0
3357	1	0
3358	1	0
3359	1	0
3360	1	0
3361	1	0
3362	1	0
3363	1	0
3364	1	0
3365	1	0
3366	1	0
3367	1	0
3368	1	0
3369	1	0
3370	1	0
3371	1	0
3372	1	0
3373	1	0
3374	1	0
3375	1	0
3376	1	0
3377	1	0
3378	1	0
3379	1	0
3380	1	0
3381	1	0
3382	1	0
3383	1	0
3384	1	0
3385	1	0
3386	1	0
3387	1	0
3388	1	0
3389	1	0
3390	1	0
3391	1	0
3392	1	0
3393	1	0
3394	1	0
3395	1	0
3396	1	0
3397	1	0
3398	1	0
3399	1	0
3400	1	0
3401	1	0
3402	1	0
3403	1	0
3404	1	0
3405	1	0
3406	1	0
3407	1	0
3408	1	0
3409	1	0
3410	1	0
3411	1	0
3412	1	0
3413	1	0
3414	1	0
3415	1	0
3416	1	0
3417	1	0
3418	1	0
3419	1	0
3420	1	0
3421	1	0
3422	1	0
3423	1	0
3424	1	0
3425	1	0
3426	1	0
3427	1	0
3428	1	0
3429	1	0
3430	1	0
3431	1	0
3432	1	0
3433	1	0
3434	1	0
3435	1	0
3436	1	0
3437	1	0
3438	1	0
3439	1	0
3440	1	0
3441	1	0
3442	1	0
3443	1	0
3444	1	0
3445	1	0
3446	1	0
3447	1	0
3448	1	0
3449	1	0
3450	1	0
3451	1	0
3452	1	0
3453	1	0
3454	1	0
3455	1	0
3456	1	0
3457	1	0
3458	1	0
3459	1	0
3460	1	0
3461	1	0
3462	1	0
3463	1	0
3464	1	0
3465	1	0
3466	1	0
3467	1	0
3468	1	0
3469	1	0
3470	1	0
3471	1	0
3472	1	0
3473	1	0
3474	1	0
3475	1	0
3476	1	0
3477	1	0
3478	1	0
3479	1	0
3480	1	0
3481	1	0
3482	1	0
3483	1	0
3484	1	0
3485	1	0
3486	1	0
3487	1	0
3488	1	0
3489	1	0
3490	1	0
3491	1	0
3492	1	0
3493	1	0
3494	1	0
3495	1	0
3496	1	0
3497	1	0
3498	1	0
3499	1	0
3500	1	0
3501	1	0
3502	1	0
3503	1	0
3504	1	0
3505	1	0
3506	1	0
3507	1	0
3508	1	0
3509	1	0
3510	1	0
3511	1	0
3512	1	0
3513	1	0
3514	1	0
3515	1	0
3516	1	0
3517	1	0
3518	1	0
3519	1	0
3520	1	0
3521	1	0
3522	1	0
3523	1	0
3524	1	0
3525	1	0
3526	1	0
3527	1	0
3528	1	0
3529	1	0
3530	1	0
3531	1	0
3532	1	0
3533	1	0
3534	1	0
3535	1	0
3536	1	0
3537	1	0
3538	1	0
3539	1	0
3540	1	0
3541	1	0
3542	1	0
3543	1	0
3544	1	0
3545	1	0
3546	1	0
3547	1	0
3548	1	0
3549	1	0
3550	1	0
3551	1	0
3552	1	0
3553	1	0
3554	1	0
3555	1	0
3556	1	0
3557	1	0
3558	1	0
3559	1	0
3560	1	0
3561	1	0
3562	1	0
3563	1	0
3564	1	0
3565	1	0
3566	1	0
3567	1	0
3568	1	0
3569	1	0
3570	1	0
3571	1	0
3572	1	0
3573	1	0
3574	1	0
3575	1	0
3576	1	0
3577	1	0
3578	1	0
3579	1	0
3580	1	0
3581	1	0
3582	1	0
3583	1	0
3584	1	0
3585	1	0
3586	1	0
3587	1	0
3588	1	0
3589	1	0
3590	1	0
3591	1	0
3592	1	0
3593	1	0
3594	1	0
3595	1	0
3596	1	0
3597	1	0
3598	1	0
3599	1	0
3600	1	0
3601	1	0
3602	1	0
3603	1	0
3604	1	0
3605	1	0
3606	1	0
3607	1	0
3608	1	0
3609	1	0
3610	1	0
3611	1	0
3612	1	0
3613	1	0
3614	1	0
3615	1	0
3616	1	0
3617	1	0
3618	1	0
3619	1	0
3620	1	0
3621	1	0
3622	1	0
3623	1	0
3624	1	0
3625	1	0
3626	1	0
3627	1	0
3628	1	0
3629	1	0
3630	1	0
3631	1	0
3632	1	0
3633	1	0
3634	1	0
3635	1	0
3636	1	0
3637	1	0
3638	1	0
3639	1	0
3640	1	0
3641	1	0
3642	1	0
3643	1	0
3644	1	0
3645	1	0
3646	1	0
3647	1	0
3648	1	0
3649	1	0
3650	1	0
3651	1	0
3652	1	0
3653	1	0
3654	1	0
3655	1	0
3656	1	0
3657	1	0
3658	1	0
3659	1	0
3660	1	0
3661	1	0
3662	1	0
3663	1	0
3664	1	0
3665	1	0
3666	1	0
3667	1	0
3668	1	0
3669	1	0
3670	1	0
3671	1	0
3672	1	0
3673	1	0
3674	1	0
3675	1	0
3676	1	0
3677	1	0
3678	1	0
3679	1	0
3680	1	0
3681	1	0
3682	1	0
3683	1	0
3684	1	0
3685	1	0
3686	1	0
3687	1	0
3688	1	0
3689	1	0
3690	1	0
3691	1	0
3692	1	0
3693	1	0
3694	1	0
3695	1	0
3696	1	0
3697	1	0
3698	1	0
3699	1	0
3700	1	0
3701	1	0
3702	1	0
3703	1	0
3704	1	0
3705	1	0
3706	1	0
3707	1	0
3708	1	0
3709	1	0
3710	1	0
3711	1	0
3712	1	0
3713	1	0
3714	1	0
3715	1	0
3716	1	0
3717	1	0
3718	1	0
3719	1	0
3720	1	0
3721	1	0
3722	1	0
3723	1	0
3724	1	0
3725	1	0
3726	1	0
3727	1	0
3728	1	0
3729	1	0
3730	1	0
3731	1	0
3732	1	0
3733	1	0
3734	1	0
3735	1	0
3736	1	0
3737	1	0
3738	1	0
3739	1	0
3740	1	0
3741	1	0
3742	1	0
3743	1	0
3744	1	0
3745	1	0
3746	1	0
3747	1	0
3748	1	0
3749	1	0
3750	1	0
3751	1	0
3752	1	0
3753	1	0
3754	1	0
3755	1	0
3756	1	0
3757	1	0
3758	1	0
3759	1	0
3760	1	0
3761	1	0
3762	1	0
3763	1	0
3764	1	0
3765	1	0
3766	1	0
3767	1	0
3768	1	0
3769	1	0
3770	1	0
3771	1	0
3772	1	0
3773	1	0
3774	1	0
3775	1	0
3776	1	0
3777	1	0
3778	1	0
3779	1	0
3780	1	0
3781	1	0
3782	1	0
3783	1	0
3784	1	0
3785	1	0
3786	1	0
3787	1	0
3788	1	0
3789	1	0
3790	1	0
3791	1	0
3792	1	0
3793	1	0
3794	1	0
3795	1	0
3796	1	0
3797	1	0
3798	1	0
3799	1	0
3800	1	0
3801	1	0
3802	1	0
3803	1	0
3804	1	0
3805	1	0
3806	1	0
3807	1	0
3808	1	0
3809	1	0
3810	1	0
3811	1	0
3812	1	0
3813	1	0
3814	1	0
3815	1	0
3816	1	0
3817	1	0
3818	1	0
3819	1	0
3820	1	0
3821	1	0
3822	1	0
