Site	ColumnScore	SumOfPairsScore
1	0	0
2	0	0
3	0	0
4	0	0
5	0	0
6	0	0
7	0	0
8	0	0
9	0	0
10	0	0
11	0	0
12	0	0
13	0	0
14	0	0
15	0	0
16	0	0
17	0	0
18	0	0
19	0	0
20	0	0
21	0	0
22	0	0
23	0	0
24	0	0
25	0	0
26	0	0
27	0	0
28	0	0
29	0	0
30	0	0
31	0	0
32	0	0
33	0	0
34	0	0
35	0	0
36	0	0
37	0	0
38	0	0
39	0	0
40	0	0
41	0	0
42	0	0
43	0	0
44	0	0
45	0	0
46	0	0
47	0	0
48	0	0
49	0	0
50	0	0
51	0	0
52	0	0
53	0	0
54	0	0
55	0	0
56	0	0
57	0	0
58	0	0
59	0	0
60	0	0
61	0	0
62	0	0
63	0	0
64	0	0
65	0	0
66	0	0.166667
67	0	0.25
68	0	0.194444
69	0	0.194444
70	0	0.194444
71	0	0.194444
72	0	0.194444
73	0	0.155556
74	0	0.127273
75	0	0.109091
76	0	0.109091
77	0	0.109091
78	0	0.109091
79	0	0.127273
80	0	0.127273
81	0	0.127273
82	0	0.145455
83	0	0.121212
84	0	0.121212
85	0	0.121212
86	0	0.106061
87	0	0.121212
88	0	0.121212
89	0	0.121212
90	0	0.102564
91	0	0.102564
92	0	0.102564
93	0	0.102564
94	0	0.102564
95	0	0.0879121
96	0	0.0879121
97	0	0.104762
98	0	0.117647
99	0	0.0789474
100	0	0.472293
101	0	0.455008
102	0	0.394289
103	0	0.386668
104	0	0.372167
105	0	0.374514
106	0	0.670021
107	0	0.453728
108	0	0.226174
109	0	0.158103
110	0	0.149206
111	0	0.155294
112	0	0.155412
113	0	0.261566
114	0	0.628571
115	0	0.510262
116	0	0.385669
117	0	0
118	0	0.292683
119	0	0.319048
120	0	0.333333
121	0	0.560872
122	0	0.567578
123	0	0.333333
124	0	0.333333
125	0	0.333333
126	0	0.333333
127	0	0.333333
128	0	0.333333
129	0	0.238496
130	0	0.258491
131	0	0.599219
132	0	0.59781
133	0	0.599195
134	0	0.619095
135	0	0
136	0	0.226316
137	0	0.286151
138	0	0.107143
139	0	0.258333
140	0	0.439121
141	0	0.333333
142	0	0.166667
143	0	0.1
144	0	0.296145
145	0	0.277973
146	0	0.31971
147	0	0.292165
148	1	0
149	1	0
150	1	0
151	1	0
152	1	0
153	1	0
154	1	0
155	1	0
156	1	0
157	1	0
158	1	0
159	1	0
160	1	0
161	1	0
162	1	0
163	1	0
164	1	0
165	1	0
166	1	0
167	1	0
168	1	0
169	1	0
170	1	0
171	1	0
172	1	0
173	1	0
174	1	0
175	1	0
176	1	0
177	1	0
178	1	0
179	1	0
180	1	0
181	1	0
182	1	0
183	1	0
184	1	0
185	1	0
186	1	0
187	1	0
188	1	0
189	1	0
190	1	0
191	1	0
192	1	0
193	1	0
194	1	0
195	1	0
196	1	0
197	1	0
198	1	0
199	1	0
200	1	0
201	1	0
202	1	0
203	1	0
204	1	0
205	1	0
206	1	0
207	1	0
208	1	0
209	1	0
210	1	0
211	1	0
212	1	0
213	1	0
214	1	0
215	1	0
216	1	0
217	1	0
218	1	0
219	1	0
220	1	0
221	1	0
222	1	0
223	1	0
224	1	0
225	1	0
226	1	0
227	1	0
228	1	0
229	1	0
230	1	0
231	1	0
232	1	0
233	1	0
234	1	0
235	1	0
236	1	0
237	1	0
238	1	0
239	1	0
240	1	0
241	1	0
242	1	0
243	1	0
244	1	0
245	1	0
246	1	0
247	1	0
248	1	0
249	1	0
250	1	0
251	1	0
252	1	0
253	1	0
254	1	0
255	1	0
256	1	0
257	1	0
258	1	0
259	1	0
260	1	0
261	1	0
262	0	0
263	0	0
264	0	0
265	0	0
266	0	0
267	0	0
268	0	0
269	0	0
270	0	0
271	0	0
272	0	0
273	0	0
274	0	0
275	0	0
276	1	0
277	0	0
278	0	0
279	0	0
280	0	0
281	0	0
282	0	0
283	0	0
284	0	0
285	0	0
286	1	0
287	0	0
288	0	0
289	0	0
290	0	0
291	0	0
292	0	0
293	0	0
294	0	0
295	0	0
296	0	0
297	0	0
298	0	0
299	0	0
300	0	0
301	0	0
302	0	0
303	0	0
304	0	0
305	0	0
306	0	0
307	0	0
308	0	0
309	0	0
310	0	0
311	0	0
312	0	0
313	0	0
314	0	0
315	0	0
316	0	0
317	0	0
318	0	0
319	0	0
320	0	0
321	0	0
322	0	0
323	0	0
324	0	0
325	0	0
326	0	0
327	0	0
328	0	0
329	0	0
330	0	0
331	0	0
332	0	0
333	0	0
334	0	0
335	0	0
336	0	0
337	0	0
338	0	0
339	0	0
340	1	0
341	1	0
342	1	0
343	0	0
344	0	0
345	0	0
346	0	0
347	0	0
348	0	0
349	0	0
350	0	0
351	0	0
352	0	0
353	0	0
354	0	0
355	0	0
356	0	0
357	0	0
358	0	0
359	0	0
360	0	0
361	0	0
362	0	0
363	0	0
364	0	0
365	0	0
366	0	0
367	0	0
368	0	0
369	0	0
370	0	0
371	0	0
372	0	0
373	0	0
374	0	0
375	0	0
376	0	0
377	0	0
378	0	0
379	0	0
380	0	0
381	0	0
382	0	0
383	0	0
384	0	0
385	0	0
386	0	0
387	0	0
388	0	0
389	0	0
390	0	0.889058
391	0	0.111111
392	0	0.111111
393	0	0.0989011
394	0	0.0916667
395	0	0.0641026
396	0	0.102941
397	0	0.216667
398	0	0.635324
399	0	0.579734
400	0	0.220162
401	0	0.292933
402	0	0.321158
403	0	0.301811
404	0	0.888889
405	0	0.631579
406	0	0.631579
407	0	0.185602
408	0	0.230769
409	0	0.230769
410	0	0.230769
411	0	0.160631
412	0	0.156667
413	0	0.139601
414	0	0.109677
415	0	0.161277
416	0	0.22384
417	0	0.214314
418	0	0.237914
419	0	0
420	0	0
421	0	0
422	0	0.666667
423	0	0.666667
424	0	0.5
425	0	0.283914
426	0	0.344737
427	0	0.351766
428	0	0
429	0	0
430	0	0.622599
431	0	0.755443
432	0	0.1
433	0	0.1
434	0	0.513206
435	0	0.514292
436	0	0.507353
437	0	0.78
438	0	0.78
439	0	0.73065
440	0	0.732478
441	0	0.982759
442	0	0.996038
443	0	0.996038
444	0	0.996118
445	0	0.994197
446	0	0.994209
447	0	0.994209
448	0	0.994214
449	0	0.988484
450	0	0.992302
451	0	0.992302
452	0	0.992302
453	0	0.99231
454	0	0.99231
455	0	0.99231
456	0	0.992317
457	0	0.979112
458	0	0.979092
459	0	0.97533
460	0	0.975303
461	0	0.971449
462	0	0.984496
463	0	0.984496
464	0	0.982549
465	0	0.622123
466	0	0.423645
467	0	0.545455
468	0	0.4
469	0	0.4
470	0	0.488889
471	0	0.488889
472	0	0.488889
473	0	0.177778
474	0	0.222222
475	0	0.222222
476	0	0.333333
477	0	0.333333
478	0	0.333333
479	0	0.333333
480	0	0.333333
481	0	0.333333
482	0	0.333333
483	0	0.333333
484	0	0.466667
485	0	0.466667
486	0	1
487	0	1
488	0	1
489	0	1
490	0	0.765578
491	0	0.941176
492	0	0.994236
493	0	0.996152
494	0	0.996152
495	0	0.998092
496	0	0.996189
497	0	0.996189
498	0	0.994297
499	0	0.996192
500	0	0.996181
501	0	0.990505
502	0	0.988568
503	0	0.992399
504	0	0.992399
505	0	0.560121
506	0	0
507	1	1
508	1	1
509	0	1
510	0	1
511	0	0
512	1	0
513	1	0
514	1	0
515	1	0
516	1	0
517	1	0
518	1	0
519	1	0
520	1	0
521	1	0
522	1	0
523	0	0
524	1	0
525	1	0
526	1	0
527	1	0
528	1	0
529	1	0
530	1	0
531	1	0
532	1	0
533	1	0
534	1	0
535	1	0
536	0	0.986768
537	0	0.986769
538	0	0.983037
539	0	0.983037
540	0	0
541	0	0
542	0	0
543	0	0.988653
544	0	0.166667
545	0	0.984915
546	0	0.986794
547	0	0.986793
548	0	0.990557
549	0	0.509091
550	0	0.622222
551	1	1
552	1	1
553	1	1
554	0	0.75
555	0	0.535714
556	0	0.535714
557	0	0.357143
558	0	0.190476
559	0	0.190476
560	0	0.266667
561	0	0.266667
562	0	0.266667
563	0	0.266667
564	0	0.466667
565	0	0.466667
566	0	1
567	0	1
568	0	0.990536
569	0	0.986773
570	0	0.992428
571	0	0.992428
572	0	0.994318
573	0	0.994318
574	0	0.994318
575	0	0.994324
576	0	0.994324
577	0	0.994324
578	0	0.994324
579	0	0.99621
580	0	0.996214
581	0	0.996214
582	0	0.996214
583	0	0.996214
584	0	0.994334
585	0	0.996217
586	0	0.996217
587	0	0.996217
588	0	0.996217
589	0	0.996221
590	0	0.996221
591	0	0.992464
592	0	0.992464
593	0	0.992464
594	0	0.992464
595	0	0.992464
596	0	0.992449
597	0	0.990548
598	0	0.990539
599	0	0.990476
600	0	0.977333
601	0	1
602	0	1
603	0	0.717949
604	0	0.717949
605	0	0.717949
606	0	0.672727
607	0	0.672727
608	0	0.417582
609	0	0.417582
610	0	0.352381
611	0	0.428571
612	0	0.948732
613	0	0.940112
614	0	0.870056
615	0	0.761905
616	0	0.756284
617	0	0.785246
618	0	0.53686
619	0	1
620	0	1
621	0	1
622	0	1
623	0	1
624	0	0
625	0	0
626	0	0
627	0	0
628	0	0.852966
629	0	0.79085
630	0	0.882353
631	0	0.632911
632	0	0.617405
633	0	0.385352
634	0	0.260809
635	0	0.256117
636	0	0.200552
637	0	0.217206
638	0	0.32036
639	0	0.24807
640	0	0.263425
641	0	0.191558
642	0	1
643	0	1
644	0	0
645	0	0
646	0	0
647	0	0
648	0	0
649	0	0
650	0	0
651	0	0.138519
652	0	0.140441
653	0	1
654	0	1
655	0	0.360134
656	0	0.116614
657	0	0.186147
658	0	0.17316
659	0	0.136261
660	0	0.131036
661	0	0.0958188
662	0	0.333333
663	0	0.333333
664	0	0.333333
665	0	0.123178
666	0	0.125022
667	0	0.116888
668	0	0.101148
669	0	0.337404
670	0	0
671	0	0
672	0	0
673	0	0.173109
674	0	0.146218
675	0	0.143434
676	0	0.201201
677	0	0.0965517
678	0	0.0677362
679	0	0.0677362
680	0	0.0756303
681	0	0.0809524
682	0	0.0934033
683	0	0.0364372
684	0	0.0377868
685	0	0.0296896
686	0	0.0671347
687	0	0.0486212
688	0	0.0667428
689	0	0.0660277
690	0	0.0658706
691	0	0.0694763
692	0	0
693	0	0
694	0	0
695	0	0
696	0	0
697	0	0
698	0	0
699	0	0
700	0	0.087534
701	0	0.0530303
702	0	0.0443548
703	0	0.0570571
704	0	0.0623886
705	0	0.0627451
706	0	0.110981
707	0	0.126117
708	0	0.123377
709	0	0.140909
710	0	0.153846
711	0	0.156443
712	0	0.140966
713	0	0.228758
714	0	0.281046
715	0	0.339869
716	0	0.339869
717	0	0.333333
718	0	0.425
719	0	0.448529
720	0	0.448529
721	0	0.217378
722	0	0.182694
723	0	0.172716
724	0	0.5
725	0	0.5
726	0	0.5
727	0	0.5
728	0	0.5
729	0	0.5
730	0	0.5
731	0	0.5
732	0	0.666667
733	0	0.266667
734	0	0.164223
735	0	0.20372
736	0	0.244698
737	0	0.246542
738	0	0.260452
739	0	0.437972
740	0	0.208791
741	0	0.166667
742	0	0.214286
743	0	0.3
744	0	0
745	0	0
746	0	0
747	0	0.333333
748	0	0.333333
749	0	0.267974
750	0	0.267974
751	0	0.300654
752	0	0.294118
753	0	0.294372
754	0	0.892063
755	0	0.351974
756	0	0.464099
757	0	0.685438
758	0	0.735203
759	0	1
760	0	1
761	0	1
762	0	0.444444
763	0	0.949692
764	0	1
765	0	0.984724
766	0	0.990538
767	0	0.994345
768	0	0.996237
769	0	0.996241
770	0	0.996241
771	0	1
772	1	1
773	1	1
774	1	1
775	1	1
776	1	1
777	1	1
778	1	1
779	1	1
780	1	1
781	1	1
782	1	1
783	1	1
784	0	0.841872
785	0	0
786	0	0
787	0	0.47619
788	0	0.357143
789	0	0.47619
790	0	0.47619
791	0	0.142857
792	0	0.2
793	0	0.2
794	0	0.4
795	0	0.4
796	0	0.4
797	0	0.6
798	0	0.6
799	0	1
800	0	1
801	0	1
802	0	1
803	0	1
804	0	1
805	0	0.998122
806	0	0.998122
807	0	0.998122
808	0	0.998122
809	0	0
810	1	0
811	1	0
812	1	0
813	1	0
814	0	0.996242
815	0	0.99812
816	0	0.99812
817	0	0.99812
818	0	1
819	0	0
820	0	0
821	1	0
822	0	0.996242
823	0	0.996242
824	0	0.925762
825	0	0.95122
826	0	0.99812
827	0	0.996239
828	0	0.996239
829	0	0.996235
830	0	0.984987
831	0	0.6
832	0	0.666667
833	0	0.666667
834	0	0.466667
835	0	0.466667
836	0	0.333333
837	0	0.392857
838	0	0.615722
839	0	0.620209
840	0	1
841	0	0.644444
842	0	0.357509
843	0	0.862687
844	0	0.874942
845	0	0.166667
846	0	0.809938
847	0	0.142857
848	0	0
849	0	0
850	0	0
851	0	0
852	0	1
853	0	1
854	0	1
855	0	0.986803
856	0	1
857	0	1
858	0	1
859	0	1
860	0	1
861	0	1
862	0	0.981225
863	0	0.981225
864	0	0.975655
865	0	0.977517
866	0	0.977517
867	0	0.977475
868	0	0
869	0	0
870	0	0
871	0	0
872	0	0
873	0	0
874	0	0
875	0	0
876	0	0
877	0	0
878	0	0
879	0	0
880	0	0
881	0	0
882	0	0
883	0	0
884	0	0
885	0	0
886	0	0
887	0	0
888	0	0
889	0	0
890	0	0
891	0	0
892	0	0
893	0	0
894	0	0
895	0	0
896	0	0
897	0	0
898	0	0
899	0	0
900	0	0
901	0	0
902	0	0
903	0	0
904	0	0
905	0	0
906	0	0
907	0	0
908	0	0
909	0	0
910	0	0
911	0	0
912	0	0
913	0	0
914	0	0
915	0	0
916	0	0
917	0	0
918	0	0
919	0	0
920	0	0
921	0	0
922	0	0
923	0	0
924	0	0
925	0	0
926	0	0
927	0	0
928	0	0
929	0	0
930	0	0
931	0	0
932	0	0
933	0	0
934	0	0
935	0	0
936	0	0
937	0	0
938	0	0
939	0	0
940	0	0
941	0	0
942	0	0
943	0	0
944	0	0
945	0	0
946	0	0
947	0	0
948	0	0
949	0	0
950	0	0
951	0	0
952	0	0
953	0	0
954	0	0
955	0	0
956	0	0
957	0	0
958	0	0
959	0	0
960	0	0
961	0	0
962	0	0
963	0	0.971856
964	0	0.966271
965	0	0.9644
966	0	0.960699
967	0	0.962602
968	0	0
969	0	0
970	0	0
971	0	0
972	0	0
973	0	0
974	0	0
975	0	0
976	0	0
977	0	0
978	0	0
979	0	0
980	0	0
981	0	0
982	0	0
983	0	0
984	0	0
985	0	0
986	0	0
987	0	0
988	0	0
989	0	0
990	0	0
991	0	0
992	0	0
993	0	0
994	0	0
995	0	0
996	0	0
997	0	0
998	0	0
999	0	0
1000	0	0
1001	0	0
1002	0	0
1003	0	0
1004	0	0
1005	0	0
1006	0	0
1007	0	0
1008	0	0
1009	0	0
1010	0	0
1011	0	0
1012	0	0
1013	0	0
1014	0	0
1015	0	0
1016	0	0
1017	0	0
1018	0	0
1019	0	0
1020	0	0
1021	0	0
1022	0	0
1023	0	0.975272
1024	0	0.4
1025	0	0.266667
1026	0	0.266667
1027	0	0.266667
1028	0	0.133333
1029	0	0.145455
1030	0	0.15
1031	0	0.1
1032	0	0.121212
1033	0	0.121212
1034	0	0.0989011
1035	0	0.0989011
1036	0	0.0879121
1037	0	0.10989
1038	0	0.131868
1039	0	0.0659341
1040	0	0.0659341
1041	0	0.0659341
1042	0	0.131868
1043	0	0.0842105
1044	0	0.0735931
1045	0	0.0952381
1046	0	0.0952381
1047	0	0.436124
1048	0	0.047619
1049	0	0.047619
1050	0	0.0416667
1051	0	0.775137
1052	0	0.115385
1053	0	0.0769231
1054	0	0.0769231
1055	0	0.0909091
1056	0	0.0909091
1057	0	0.030303
1058	0	0.0659341
1059	0	0.043956
1060	0	0.043956
1061	0	0.0666667
1062	0	0.0666667
1063	0	0.0666667
1064	0	0.0666667
1065	0	0.0666667
1066	0	0.0769231
1067	0	0.0769231
1068	0	0.0769231
1069	0	0.0769231
1070	0	0.0666667
1071	0	0.0666667
1072	0	0.37931
1073	0	0.815096
1074	0	0.813677
1075	0	0
1076	0	0
1077	0	0
1078	0	0
1079	0	0
1080	0	0.0666667
1081	0	0.1
1082	0	0.1
1083	0	0.1
1084	0	0.0666667
1085	0	0.0666667
1086	0	0.913291
1087	0	0.1
1088	0	0.1
1089	0	0.1
1090	0	0.1
1091	0	0.1
1092	0	0.1
1093	0	0.1
1094	0	0.1
1095	0	0.1
1096	0	0.1
1097	0	0.1
1098	0	0.1
1099	0	0.1
1100	0	0.1
1101	0	0.1
1102	0	0.1
1103	0	0.166667
1104	0	0.166667
1105	0	0.166667
1106	0	0.166667
1107	0	0.890352
1108	0	0
1109	0	0
1110	0	0
1111	0	0.878215
1112	0	0.0151515
1113	0	0
1114	0	0
1115	0	0.878425
1116	0	0.0357143
1117	0	0.0357143
1118	0	0.047619
1119	0	0.047619
1120	0	0.047619
1121	0	0.047619
1122	0	0.047619
1123	0	0.047619
1124	0	0.047619
1125	0	0.047619
1126	0	0.883259
1127	0	0.865912
1128	0	0
1129	0	0
1130	0	0
1131	0	0
1132	0	0
1133	0	0
1134	0	0
1135	0	0
1136	0	0
1137	0	0
1138	0	0
1139	0	0
1140	0	0
1141	0	0
1142	0	0
1143	0	0
1144	0	0
1145	0	0
1146	0	0
1147	0	0
1148	0	0
1149	0	0
1150	0	0
1151	0	0
1152	0	0
1153	0	0
1154	0	0
1155	0	0
1156	0	0
1157	0	0
1158	0	0
1159	0	0
1160	0	0
1161	0	0
1162	0	0
1163	0	0
1164	0	0
1165	0	0
1166	0	0
1167	0	0
1168	0	0
1169	0	0
1170	0	0
1171	0	0
1172	0	0
1173	0	0
1174	0	0
1175	0	0
1176	0	0
1177	0	0
1178	0	0
1179	0	0
1180	0	0
1181	0	0
1182	0	0
1183	0	0
1184	0	0
1185	0	0
1186	0	0
1187	0	0
1188	0	0
1189	0	0
1190	0	0
1191	0	0
1192	0	0
1193	0	0
1194	0	0
1195	0	0
1196	0	0
1197	0	0
1198	0	0
1199	0	0
1200	0	0
1201	0	0.409988
1202	0	0.0769231
1203	0	0.685073
1204	0	0.025641
1205	0	0.025641
1206	0	0.583373
1207	0	0.0181818
1208	0	0.0181818
1209	0	0.0181818
1210	0	0.0151515
1211	0	0.0514706
1212	0	0.0619048
1213	0	0.0797721
1214	0	0.0953058
1215	0	0.119766
1216	0	0.102128
1217	0	0.223494
1218	0	0.144211
1219	0	0
1220	0	0
1221	0	0.0769231
1222	0	0.0769231
1223	0	0.0909091
1224	0	0.109091
1225	0	0
1226	0	0
1227	0	0.0909091
1228	0	0.0909091
1229	0	0
1230	0	0
1231	0	0
1232	0	0.103114
1233	0	0.047619
1234	0	0
1235	0	0
1236	0	0
1237	0	0
1238	0	0
1239	0	0
1240	0	0
1241	0	0
1242	0	0
1243	0	0
1244	0	0
1245	0	0
1246	0	0
1247	0	0
1248	0	0
1249	0	0
1250	0	0
1251	0	0
1252	0	0
1253	0	0
1254	0	0
1255	0	0
1256	0	0
1257	0	0
1258	0	0
1259	0	0
1260	0	0
1261	0	0
1262	0	0
1263	0	0
1264	0	0
1265	0	0
1266	0	0
1267	0	0
1268	0	0
1269	0	0
1270	0	0
1271	0	0
1272	0	0
1273	0	0
1274	0	0
1275	0	0
1276	0	0
1277	0	0
1278	0	0
1279	0	0
1280	0	0
1281	0	0
1282	0	0
1283	0	0
1284	0	0
1285	0	0
1286	0	0
1287	0	0
1288	0	0
1289	0	0
1290	0	0
1291	0	0
1292	0	0
1293	0	0
1294	0	0
1295	0	0
1296	0	0
1297	0	0
1298	0	0
1299	0	0.259121
1300	0	0.116667
1301	0	0.0380952
1302	0	0.272349
1303	0	0.284022
1304	0	0.111111
1305	0	0.111111
1306	0	0.111111
1307	0	0.0909091
1308	0	0.127273
1309	0	0.127273
1310	0	0.127273
1311	0	0.106061
1312	0	0.110526
1313	0	0.157983
1314	0	0.271585
1315	0	0.423902
1316	0	0.492424
1317	0	0.297624
1318	0	0.166667
1319	0	0.318182
1320	0	0.381818
1321	0	0.442368
1322	0	0.472661
1323	0	0.50964
1324	0	0.559133
1325	0	0
1326	0	0
1327	0	0
1328	0	0
1329	0	0
1330	0	0
1331	0	0
1332	0	0
1333	0	0.794986
1334	0	0
1335	0	0
1336	0	0
1337	0	0.816862
1338	0	0.266667
1339	0	0.333333
1340	0	0.333333
1341	0	0.333333
1342	0	0.333333
1343	0	0.333333
1344	0	0.333333
1345	0	0.333333
1346	0	0.333333
1347	0	0.333333
1348	0	0.333333
1349	0	0.333333
1350	0	0.333333
1351	0	0.333333
1352	0	0.333333
1353	0	0.333333
1354	0	0.333333
1355	0	0.333333
1356	0	0.333333
1357	0	0.333333
1358	0	0.333333
1359	0	0.333333
1360	0	0.333333
1361	0	0.333333
1362	0	0.333333
1363	0	0.333333
1364	0	0.333333
1365	0	0.333333
1366	0	0.333333
1367	0	0.333333
1368	0	0.333333
1369	0	0.333333
1370	0	0.333333
1371	0	0.333333
1372	0	0.333333
1373	0	0.333333
1374	0	0.333333
1375	0	0.333333
1376	0	0.333333
1377	0	0.333333
1378	0	0.333333
1379	0	0.333333
1380	0	0.333333
1381	0	0.333333
1382	0	0.333333
1383	0	0.333333
1384	0	0.333333
1385	0	0.333333
1386	0	0.333333
1387	0	0.333333
1388	0	0.333333
1389	0	0.333333
1390	0	0.333333
1391	0	0.333333
1392	0	0.333333
1393	0	0.333333
1394	0	0.333333
1395	0	0.333333
1396	0	0.333333
1397	0	0.333333
1398	0	0.333333
1399	0	0.333333
1400	0	0.333333
1401	0	0.333333
1402	0	0.333333
1403	0	0.333333
1404	0	0.333333
1405	0	0.333333
1406	0	0.867824
1407	0	0
1408	0	0
1409	0	0
1410	0	0.133333
1411	0	0.2
1412	0	0.3
1413	0	0.3
1414	0	0.3
1415	0	0
1416	0	0
1417	0	0
1418	0	0
1419	0	0
1420	0	0
1421	0	0
1422	0	0
1423	0	0
1424	0	0
1425	0	0
1426	0	0.583333
1427	0	0.583333
1428	0	0
1429	0	0
1430	0	0
1431	0	0.3
1432	0	0.3
1433	0	0.88376
1434	0	0.885678
1435	0	0.87719
1436	0	0.875504
1437	0	0.0666667
1438	0	0.0666667
1439	0	0.0666667
1440	0	0.0666667
1441	0	0.0666667
1442	0	0.0666667
1443	0	0.047619
1444	0	0.884092
1445	0	0.869446
1446	0	0.827174
1447	0	0.290476
1448	0	0.264069
1449	0	0.268398
1450	0	0.268398
1451	0	0.223333
1452	0	0.882383
1453	0	0.196923
1454	0	0.190883
1455	0	0.241107
1456	0	0.241107
1457	0	0.264069
1458	0	0.264069
1459	0	0.109091
1460	0	0.109091
1461	0	0.151515
1462	0	0.181818
1463	0	0.181818
1464	0	0.181818
1465	0	0.181818
1466	0	0.181818
1467	0	0.151515
1468	0	0.151515
1469	0	0.181818
1470	0	0.181818
1471	0	0.181818
1472	0	0.181818
1473	0	0.222222
1474	0	0.277778
1475	0	0.277778
1476	0	0.277778
1477	0	0.277778
1478	0	0.277778
1479	0	0.277778
1480	0	0
1481	0	0
1482	0	0
1483	0	0
1484	0	0
1485	0	0
1486	0	0
1487	0	0
1488	0	0
1489	0	0
1490	0	0
1491	0	0
1492	0	0
1493	0	0
1494	0	0
1495	0	0
1496	0	0
1497	0	0
1498	0	0
1499	0	0
1500	0	0
1501	0	0
1502	0	0
1503	0	0
1504	0	0
1505	0	0
1506	0	0
1507	0	0
1508	0	0
1509	0	0
1510	0	0
1511	0	0
1512	0	0
1513	0	0
1514	0	0
1515	0	0
1516	0	0
1517	0	0
1518	0	0
1519	0	0
1520	0	0
1521	0	0
1522	0	0
1523	0	0
1524	0	0
1525	0	0
1526	0	0
1527	0	0
1528	0	0
1529	0	0
1530	0	0
1531	0	0
1532	0	0
1533	0	0
1534	0	0
1535	0	0
1536	0	0
1537	0	0
1538	0	0
1539	0	0
1540	0	0
1541	0	0
1542	0	0
1543	0	0
1544	0	0
1545	0	0
1546	0	0
1547	0	0
1548	0	0
1549	0	0
1550	0	0
1551	0	0
1552	0	0
1553	0	0
1554	0	0
1555	0	0
1556	1	1
1557	1	1
1558	0	1
1559	0	1
1560	0	1
1561	0	1
1562	0	1
1563	0	1
1564	0	1
1565	0	1
1566	0	1
1567	0	1
1568	0	1
1569	0	1
1570	0	1
1571	0	1
1572	0	1
1573	0	1
1574	0	1
1575	0	1
1576	0	1
1577	0	1
1578	0	1
1579	0	1
1580	0	1
1581	0	1
1582	0	1
1583	0	1
1584	1	1
1585	1	1
1586	1	1
1587	0	1
1588	0	1
1589	0	1
1590	0	1
1591	0	1
1592	0	1
1593	0	1
1594	0	1
1595	0	1
1596	0	1
1597	0	1
1598	0	1
1599	0	1
1600	0	1
1601	0	1
1602	0	1
1603	0	1
1604	0	1
1605	0	1
1606	0	0.898571
1607	0	0
1608	0	0
1609	0	0
1610	0	0
1611	0	0
1612	0	0
1613	0	0
1614	0	0
1615	0	0
1616	0	0
1617	0	0
1618	0	0
1619	0	0
1620	0	0
1621	0	0
1622	0	0
1623	0	0
1624	0	0
1625	0	0
1626	0	0
1627	0	0
1628	0	0
1629	0	0
1630	0	0
1631	0	0
1632	0	0
1633	0	0
1634	0	0
1635	0	0
1636	0	0
1637	0	0
1638	0	0
1639	0	0
1640	0	0
1641	0	0
1642	0	0
1643	0	0
1644	0	0
1645	0	0
1646	0	0
1647	0	0
1648	0	0
1649	0	0
1650	0	0
1651	0	0
1652	0	0
1653	0	0
1654	0	0
1655	0	0.0666667
1656	0	0.0666667
1657	0	0.0666667
1658	0	0.0666667
1659	0	0.0666667
1660	0	0.2
1661	0	0.285714
1662	0	0.285714
1663	0	0.285714
1664	0	0.285714
1665	0	0.285714
1666	0	0.285714
1667	0	0.285714
1668	0	0.285714
1669	0	0.285714
1670	0	0.285714
1671	0	0.285714
1672	0	0.285714
1673	0	0.214286
1674	0	0.214286
1675	0	0.133333
1676	0	0.109091
1677	0	0.0769231
1678	0	0.0583333
1679	0	0.88686
1680	0	0.47619
1681	0	0.714286
1682	0	0.416667
1683	0	0.416667
1684	0	0.416667
1685	0	0.416667
1686	0	0.416667
1687	0	0.416667
1688	0	0.416667
1689	0	0.416667
1690	0	0.277778
1691	0	0.277778
1692	0	0.277778
1693	0	0.383333
1694	0	0.383333
1695	0	0.867358
1696	0	0.870622
1697	0	0.392857
1698	0	0.392857
1699	0	0.392857
1700	0	0.178571
1701	0	0.178571
1702	0	0.142857
1703	0	0.142857
1704	0	0.0952381
1705	0	0.0952381
1706	0	0.0952381
1707	0	0.133333
1708	0	0.133333
1709	0	0.133333
1710	0	0.133333
1711	0	0.133333
1712	0	0
1713	0	0
1714	0	0
1715	0	0
1716	0	0
1717	0	0
1718	0	0
1719	0	0
1720	0	0
1721	0	0
1722	0	0
1723	0	0
1724	0	0
1725	0	0
1726	0	0
1727	0	0
1728	0	0
1729	0	0
1730	0	0
1731	0	0
1732	0	0
1733	0	0
1734	0	0
1735	0	0
1736	0	0
1737	0	0
1738	0	0
1739	0	0
1740	0	0
1741	0	0
1742	0	0
1743	0	0
1744	0	0
1745	0	0
1746	0	0
1747	0	0
1748	0	0
1749	0	0
1750	0	0
1751	0	0
1752	0	0
1753	0	0
1754	0	0
1755	0	0
1756	0	0
1757	0	0
1758	0	0
1759	0	0
1760	0	0
1761	0	0
1762	0	0
1763	0	0
1764	0	0
1765	0	0
1766	0	0
1767	0	0
1768	0	0
1769	0	0
1770	0	0
1771	0	0
1772	0	0
1773	0	0
1774	0	0
1775	0	0
1776	0	0
1777	0	0
1778	0	0
1779	0	0
1780	0	0
1781	0	0
1782	0	0
1783	0	0
1784	0	0
1785	0	0.868296
1786	0	0
1787	0	0
1788	0	0
1789	0	0
1790	0	0
1791	0	0
1792	0	0
1793	0	0
1794	0	0
1795	0	0
1796	0	0
1797	0	0
1798	0	0
1799	0	0
1800	0	0
1801	0	0
1802	0	0
1803	0	0
1804	0	0
1805	0	0
1806	0	0
1807	0	0
1808	0	0
1809	0	0
1810	0	0
1811	0	0
1812	0	0
1813	0	0
1814	0	0
1815	0	0
1816	0	0
1817	0	0
1818	0	0
1819	0	0
1820	0	0
1821	0	0
1822	0	0
1823	0	0
1824	0	0.865048
1825	0	0
1826	0	0
1827	0	0
1828	0	0
1829	0	0
1830	0	0
1831	0	0
1832	0	0
1833	0	0
1834	0	0
1835	0	0
1836	0	0
1837	0	0
1838	0	0
1839	0	0
1840	0	0
1841	0	0
1842	0	0
1843	0	0
1844	0	0
1845	0	0
1846	0	0
1847	0	0
1848	0	0
1849	0	0
1850	0	0
1851	0	0
1852	0	0
1853	0	0.166667
1854	0	0.166667
1855	0	0.166667
1856	0	0.166667
1857	0	0.1
1858	0	0.0952381
1859	0	0.0952381
1860	0	0.0952381
1861	0	0.0952381
1862	0	0.047619
1863	0	0.047619
1864	0	0.047619
1865	0	0.047619
1866	0	0.0714286
1867	0	0.0714286
1868	0	0.0714286
1869	0	0.214286
1870	0	0.214286
1871	0	0.214286
1872	0	0.357143
1873	0	0.357143
1874	0	0.357143
1875	0	0.535714
1876	0	0.535714
1877	0	0.535714
1878	0	0.535714
1879	0	0.535714
1880	0	0.535714
1881	0	0.535714
1882	0	0.571429
1883	0	0.571429
1884	0	0.611111
1885	0	0.611111
1886	0	0.611111
1887	0	0.488889
1888	0	0.488889
1889	0	0.527273
1890	0	0.439394
1891	0	0.439394
1892	0	0.439394
1893	0	0.439394
1894	0	0.439394
1895	0	0.439394
1896	0	0.439394
1897	0	0.439394
1898	0	0.483333
1899	0	0.758333
1900	0	0.758333
1901	0	0.669118
1902	0	0.669118
1903	0	0.594771
1904	0	0.594771
1905	0	0.594771
1906	0	0.532164
1907	0	0.532164
1908	0	0.532164
1909	0	0.532164
1910	0	0.532164
1911	0	0.433333
1912	0	0.433333
1913	0	0.433333
1914	0	0.433333
1915	0	0.363636
1916	0	0.333333
1917	0	0.333333
1918	0	0.842205
1919	0	0
1920	0	0
1921	0	0
1922	0	0
1923	0	0
1924	0	0
1925	0	0
1926	0	0
1927	0	0
1928	0	0
1929	0	0
1930	0	0
1931	0	0
1932	0	0.853665
1933	0	1
1934	0	0.866667
1935	0	0.866667
1936	0	0.866667
1937	0	0.866667
1938	0	0.866667
1939	0	0.866667
1940	0	0.866667
1941	0	0.866667
1942	0	0.866667
1943	0	0.758333
1944	0	0.669118
1945	0	0.669118
1946	0	0.669118
1947	0	0.669118
1948	0	0.669118
1949	0	0.669118
1950	0	0.669118
1951	0	0.669118
1952	0	0.669118
1953	0	0.669118
1954	0	0.669118
1955	0	0.669118
1956	0	0.669118
1957	0	0.494737
1958	0	0.494737
1959	0	0.538012
1960	0	0.452381
1961	0	0.452381
1962	0	0.452381
1963	0	0.452381
1964	0	0.411255
1965	0	0.375494
1966	0	0.375494
1967	0	0.375494
1968	0	0.383399
1969	0	0.383399
1970	0	0.383399
1971	0	0.8439
1972	0	0.0769231
1973	0	0.0909091
1974	0	0.111111
1975	0	0.142857
1976	0	0.0714286
1977	0	0.0714286
1978	0	0.0952381
1979	0	0.0952381
1980	0	0.0952381
1981	0	0.0952381
1982	0	0.0952381
1983	0	0.0666667
1984	0	0.0666667
1985	0	0.0666667
1986	0	0.0666667
1987	0	0.0666667
1988	0	0.1
1989	0	0.1
1990	0	0.1
1991	0	0.840181
1992	0	0.846749
1993	0	0.0549451
1994	0	0.0384615
1995	0	0.0384615
1996	0	0.0714286
1997	0	0.0952381
1998	0	0.133333
1999	0	0.133333
2000	0	0.133333
2001	0	0.333333
2002	0	0.333333
2003	0	0.333333
2004	0	0.333333
2005	0	0.333333
2006	0	0.333333
2007	0	0.333333
2008	0	0.333333
2009	0	0.333333
2010	0	0.333333
2011	0	0.333333
2012	0	0.333333
2013	0	0.333333
2014	0	0.333333
2015	0	0.333333
2016	0	0.0666667
2017	0	0.831566
2018	0	0.83643
2019	0	0.8379
2020	0	0.485714
2021	0	0.485714
2022	0	0.351449
2023	0	0.115385
2024	0	0.106061
2025	0	0.127273
2026	0	0.127273
2027	0	0.133333
2028	0	0.133333
2029	0	0.166667
2030	0	0.166667
2031	0	0.166667
2032	0	0.214286
2033	0	0.214286
2034	0	0.285714
2035	0	0.285714
2036	0	0.285714
2037	0	0.47619
2038	0	0.47619
2039	0	0
2040	0	0
2041	0	0
2042	0	0
2043	0	0
2044	0	0
2045	0	0
2046	0	0
2047	0	0
2048	0	0
2049	0	0
2050	1	0
2051	1	0
2052	1	0
2053	0	0
2054	0	0
2055	0	0
2056	0	0
2057	0	0
2058	0	0
2059	0	0
2060	0	0
2061	0	0
2062	0	0
2063	0	0
2064	0	0
2065	0	0
2066	0	0
2067	0	0
2068	0	0
2069	0	0
2070	0	0
2071	0	0
2072	0	0
2073	0	0
2074	0	0
2075	0	0
2076	0	0
2077	0	0
2078	0	0
2079	0	0
2080	0	0
2081	0	0
2082	0	0
2083	0	0
2084	0	0
2085	0	0
2086	0	0
2087	0	0
2088	0	0
2089	0	0
2090	0	0
2091	0	0
2092	0	0
2093	0	0
2094	0	0
2095	0	0
2096	0	0
2097	0	0
2098	0	0
2099	0	0
2100	0	0
2101	0	0
2102	0	0
2103	0	0
2104	0	0
2105	0	0
2106	0	0
2107	0	0
2108	0	0
2109	0	0
2110	0	0
2111	0	0
2112	0	0
2113	0	0
2114	0	0
2115	0	0
2116	0	0
2117	0	0
2118	0	0
2119	0	0
2120	0	0
2121	0	0
2122	0	0
2123	0	0
2124	0	0
2125	0	0
2126	0	0
2127	0	0
2128	0	0
2129	0	0
2130	0	0.166667
2131	0	0.166667
2132	0	0.166667
2133	0	0.5
2134	0	0.5
2135	0	0.5
2136	0	0.5
2137	0	0.5
2138	0	0.5
2139	0	0.5
2140	0	0.5
2141	0	0.5
2142	0	0.5
2143	0	0.5
2144	0	0.5
2145	0	0.5
2146	0	0.5
2147	0	0.5
2148	0	0.5
2149	0	0.5
2150	0	0.5
2151	0	0.5
2152	0	0.5
2153	0	0.5
2154	0	0.5
2155	0	0.5
2156	0	0.5
2157	0	0.5
2158	0	0.5
2159	0	0.5
2160	0	0.5
2161	0	0.5
2162	0	0.5
2163	0	0.5
2164	0	0.5
2165	0	0.5
2166	0	0.5
2167	0	0.5
2168	0	0.5
2169	0	0.5
2170	0	0.5
2171	0	0.5
2172	0	0.5
2173	0	0.5
2174	0	0.5
2175	0	0.5
2176	0	0.5
2177	0	0.5
2178	0	0.5
2179	0	0.5
2180	0	0.5
2181	0	0.5
2182	0	0.699917
2183	0	0.617308
2184	0	0.461538
2185	0	0.250196
2186	0	0.165323
2187	0	0.0833333
2188	0	0.0857143
2189	0	0.375661
2190	0	0.404558
2191	0	0.375661
2192	0	0.375661
2193	0	0.375661
2194	0	0.375661
2195	0	0.375661
2196	0	0.375661
2197	0	0.375661
2198	0	0.404558
2199	0	0.404558
2200	0	0.404558
2201	0	0.404558
2202	0	0.404558
2203	0	0.404558
2204	0	0.404558
2205	0	0.436923
2206	0	0.436923
2207	0	0.473333
2208	0	0.473333
2209	0	0.473333
2210	0	0.473333
2211	0	0.473333
2212	0	0.473333
2213	0	0.473333
2214	0	0.473333
2215	0	0.473333
2216	0	0.473333
2217	0	0.473333
2218	0	0.473333
2219	0	0.473333
2220	0	0.473333
2221	0	0.473333
2222	0	0.473333
2223	0	0.473333
2224	0	0.473333
2225	0	0.473333
2226	0	0.473333
2227	0	0.473333
2228	0	0.473333
2229	0	0.476667
2230	0	0.476667
2231	0	0.476667
2232	0	0.476667
2233	0	0.390769
2234	0	0.44
2235	0	0.44
2236	0	0.44
2237	0	0.44
2238	0	0.652381
2239	0	0.652381
2240	0	0.652381
2241	0	0.652381
2242	0	0.652381
2243	0	0.652381
2244	0	0.652381
2245	0	0.649231
2246	0	0.649231
2247	0	0.649231
2248	0	0.649231
2249	0	0.649231
2250	0	0.649231
2251	0	0.649231
2252	0	0.649231
2253	0	0.649231
2254	0	0.649231
2255	0	0.649231
2256	0	0.687327
2257	0	0.716908
2258	0	0.749495
2259	0	0.749495
2260	0	0.749495
2261	0	0.749495
2262	0	0.749495
2263	0	0.749495
2264	0	0.749495
2265	0	0.749495
2266	0	0.784355
2267	0	0.784355
2268	0	0.784355
2269	0	0.784355
2270	0	0.784355
2271	0	0.687327
2272	0	0.687327
2273	0	0.749495
2274	0	0.749495
2275	0	0.749495
2276	0	0.749495
2277	0	0.749495
2278	0	0.749495
2279	0	0.749495
2280	0	0.749495
2281	0	0.749495
2282	0	0.749495
2283	0	0.749495
2284	0	0.749495
2285	0	0.749495
2286	0	0.749495
2287	0	0.749495
2288	0	0.749495
2289	0	0.749495
2290	0	0.749495
2291	0	0.749495
2292	0	0.749495
2293	0	0.748485
2294	0	0.783298
2295	0	0.783298
2296	0	0.783298
2297	0	0.783298
2298	0	0.749495
2299	0	0.749495
2300	0	0.749495
2301	0	0.749495
2302	0	0.784355
2303	0	0.784355
2304	0	0.784355
2305	0	0.784355
2306	0	0.784355
2307	0	0.784355
2308	0	0.784355
2309	0	0.784355
2310	0	0.784355
2311	0	0.784355
2312	0	0.784355
2313	0	0.821705
2314	0	0.821705
2315	0	0.821705
2316	0	0.821705
2317	0	0.821705
2318	0	0.821705
2319	0	0.821705
2320	0	0.821705
2321	0	0.821705
2322	0	0.821705
2323	0	0.821705
2324	0	0.821705
2325	0	0.821705
2326	0	0.821705
2327	0	0.821705
2328	0	0.821705
2329	0	0.821705
2330	0	0.821705
2331	0	0.821705
2332	0	0.821705
2333	0	0.821705
2334	0	0.821705
2335	0	0.821705
2336	0	0.821705
2337	0	0.821705
2338	0	0.821705
2339	0	0.821705
2340	0	0.821705
2341	0	0.821705
2342	0	0.821705
2343	0	0.821705
2344	0	0.821705
2345	0	0.821705
2346	0	0.903659
2347	0	0.903659
2348	0	0.903659
2349	0	0.903659
2350	0	0.771951
2351	0	0.771951
2352	0	0.771951
2353	0	0.702104
2354	0	0.702104
2355	0	0.702104
2356	0	0.533333
2357	0	0.133333
2358	0	0.133333
2359	0	0.133333
2360	0	0.133333
2361	0	0.133333
2362	0	0.0666667
2363	0	0.0666667
2364	0	0.0666667
2365	0	0.0666667
2366	0	0.0666667
2367	0	0.0666667
2368	0	0.0666667
2369	0	0.0666667
2370	0	0.0666667
2371	0	0.0666667
2372	0	0.0666667
2373	0	0.0666667
2374	0	0.0666667
2375	0	0.0666667
2376	0	0.0666667
2377	0	0.0666667
2378	0	0.0666667
2379	0	0.0666667
2380	0	0.0666667
2381	0	0.0666667
2382	0	0.0666667
2383	0	0.0666667
2384	0	0.0666667
2385	0	0.0666667
2386	0	0.0666667
2387	0	0.0666667
2388	0	0.0666667
2389	0	0.0666667
2390	0	0.0666667
2391	0	0.0666667
2392	0	0.0666667
2393	0	0.0666667
2394	0	0.0666667
2395	0	0.0666667
2396	0	0.0666667
2397	0	0.0666667
2398	0	0.0666667
2399	0	0.0666667
2400	0	0.0666667
2401	0	0.1
2402	0	0.1
2403	0	0.1
2404	0	0.1
2405	0	0.1
2406	0	0.1
2407	0	0.1
2408	0	0.1
2409	0	0.166667
2410	0	0.166667
2411	0	0.166667
2412	0	0.166667
2413	0	0.166667
2414	0	0.166667
2415	0	0.166667
2416	0	0.166667
2417	0	0.166667
2418	0	0.166667
2419	0	0.166667
2420	0	0.166667
2421	0	0.166667
2422	0	0.166667
2423	0	0.166667
2424	0	0.166667
2425	0	0.166667
2426	0	0.166667
2427	0	0.166667
2428	0	0.166667
2429	0	0.166667
2430	0	0.166667
2431	0	0.166667
2432	0	0.166667
2433	0	0.166667
2434	0	0.166667
2435	0	0.166667
2436	0	0.166667
2437	0	0.166667
2438	0	0.166667
2439	0	0.166667
2440	0	0.166667
2441	0	0.166667
2442	0	0.166667
2443	0	0.166667
2444	0	0.166667
2445	0	0.166667
2446	0	0.166667
2447	0	0.166667
2448	0	0.166667
2449	0	0.166667
2450	0	0.166667
2451	0	0.166667
2452	0	0.166667
2453	0	0.166667
2454	0	0.166667
2455	0	0.166667
2456	0	0.166667
2457	0	0.166667
2458	0	0.166667
2459	0	0.166667
2460	0	0.166667
2461	0	0.166667
2462	0	0.166667
2463	0	0.1
2464	0	0
2465	0	0
2466	0	0
2467	0	0
2468	0	0
2469	0	0
2470	0	0
2471	0	0
2472	0	0
