Site	ColumnScore	SumOfPairsScore
1	0	0
2	0	0
3	0	0
4	0	0
5	0	0
6	0	0
7	0	0
8	0	0
9	0	0
10	0	0
11	0	0
12	0	0
13	0	0
14	0	0
15	0	0
16	0	0
17	0	0
18	0	0
19	0	0
20	0	0
21	0	0
22	0	0
23	0	0
24	0	0
25	0	0
26	0	0
27	0	0
28	0	0
29	0	0
30	0	0
31	0	0
32	0	0
33	0	0
34	0	0
35	0	0
36	0	0
37	0	0
38	0	0
39	0	0
40	0	0
41	0	0
42	0	0
43	0	0
44	0	0
45	0	0
46	0	0
47	0	0
48	0	0
49	0	0
50	0	0
51	0	0
52	0	0
53	0	0
54	0	0
55	0	0
56	0	0
57	0	0
58	0	0
59	0	0
60	0	0
61	0	0
62	0	0
63	0	0
64	0	0
65	0	0
66	0	0
67	0	0
68	0	0
69	0	0
70	0	0
71	0	0
72	0	0
73	0	0
74	0	0
75	0	0
76	0	0
77	0	0
78	0	0
79	0	0
80	0	0
81	0	0
82	0	0
83	0	0
84	0	0
85	0	0
86	0	0
87	0	0
88	0	0
89	0	0
90	0	0
91	0	0
92	0	0
93	0	0
94	0	0
95	0	0
96	0	0
97	0	0
98	0	0
99	0	0
100	0	0
101	0	0
102	0	0
103	0	0
104	0	0
105	0	0
106	0	0
107	0	0
108	0	0
109	0	0
110	0	0
111	0	0
112	0	0
113	0	0
114	0	0
115	0	0
116	0	0
117	0	0
118	0	0
119	0	0
120	0	0
121	0	0
122	0	0
123	0	0
124	0	0
125	0	0
126	0	0
127	0	0
128	0	0
129	0	0
130	0	0
131	0	0
132	0	0
133	0	0
134	0	0
135	0	0
136	0	0
137	0	0
138	0	0
139	0	0
140	0	0
141	0	0
142	0	0
143	0	0
144	0	0
145	0	0
146	0	0
147	0	0
148	0	0
149	0	0
150	0	0
151	0	0
152	0	0
153	0	0
154	0	0
155	0	0
156	0	0
157	0	0
158	0	0
159	0	0
160	0	0
161	0	0
162	0	0
163	0	0
164	0	0
165	0	0
166	0	0
167	0	0
168	0	0
169	0	0
170	0	0
171	0	0
172	0	0
173	0	0
174	0	0
175	0	0
176	0	0
177	0	0
178	0	0
179	0	0
180	0	0
181	0	0
182	0	0
183	0	0
184	0	0
185	0	0
186	0	0
187	0	0
188	0	0
189	0	0
190	0	0
191	0	0
192	0	0
193	0	0
194	0	0
195	0	0
196	0	0
197	0	0
198	0	0
199	0	0
200	0	0
201	0	0
202	0	0
203	0	0
204	0	0
205	0	0
206	0	0
207	0	0
208	0	0
209	0	0
210	0	0
211	0	0
212	0	0
213	0	0
214	0	0
215	0	0
216	0	0
217	0	0
218	0	0
219	0	0
220	0	0
221	0	0
222	0	0
223	0	0
224	0	0
225	0	0
226	0	0
227	0	0
228	0	0
229	0	0
230	0	0
231	0	0
232	0	0
233	0	0
234	0	0
235	0	0
236	0	0
237	0	0
238	0	0
239	0	0
240	0	0
241	0	0
242	0	0
243	0	0
244	0	0
245	0	0
246	0	0
247	0	0
248	0	0
249	0	0
250	0	0
251	0	0
252	0	0
253	0	0
254	0	0
255	0	0
256	0	0
257	0	0
258	0	0
259	0	0
260	0	0
261	0	0
262	0	0
263	0	0
264	0	0
265	0	0
266	0	0
267	0	0
268	0	0
269	0	0
270	0	0
271	0	0
272	0	0
273	0	0
274	0	0
275	0	0
276	0	0.333333
277	0	0.166667
278	0	0.166667
279	0	0.166667
280	0	0.166667
281	0	0.166667
282	0	0.166667
283	0	0.166667
284	0	0.166667
285	0	0.166667
286	0	0.166667
287	0	0.166667
288	0	0.166667
289	0	0.166667
290	0	0.166667
291	0	0.166667
292	0	0.166667
293	0	0.166667
294	0	0.166667
295	0	0.1
296	0	0.1
297	0	0.1
298	0	0.1
299	0	0.1
300	0	0.1
301	0	0.1
302	0	0.1
303	0	0.1
304	0	0.1
305	0	0.1
306	0	0.1
307	0	0.1
308	0	0.1
309	0	0.1
310	0	0.1
311	0	0.1
312	0	0.1
313	0	0
314	0	0
315	0	0
316	0	0
317	0	0
318	0	0
319	0	0
320	0	0
321	0	0
322	0	0
323	0	0
324	0	0
325	0	0
326	0	0
327	0	0
328	0	0
329	0	0
330	0	0
331	0	0
332	0	0
333	0	0
334	0	0
335	0	0
336	0	0
337	0	0
338	0	0
339	0	0
340	0	0
341	0	0
342	0	0
343	0	0
344	0	0
345	0	0
346	0	0
347	0	0
348	0	0
349	0	0
350	0	0
351	0	0
352	0	0
353	0	0
354	0	0
355	0	0.549258
356	0	0.549258
357	0	0.549258
358	0	0.549258
359	0	0.549258
360	0	0.549258
361	0	0.496341
362	0	0.496341
363	0	0.531707
364	0	0.531707
365	0	0.531707
366	0	0.531707
367	0	0.496341
368	0	0.496341
369	0	0.496341
370	0	0.496341
371	0	0.0151515
372	0	0.496341
373	0	0.472706
374	0	0.472706
375	0	0.472706
376	0	0.472706
377	0	0.472706
378	0	0.496341
379	0	0.496341
380	0	0.506388
381	0	0.506388
382	0	0.506388
383	0	0.574694
384	0	0.574694
385	0	0.574694
386	0	0.574694
387	0	0.574694
388	0	0.574694
389	0	0.574694
390	0	0.574694
391	0	0.626739
392	0	0.626739
393	0	0.626739
394	0	0.626739
395	0	0.626739
396	0	0.626739
397	0	0.626739
398	0	0.626739
399	0	0.626739
400	0	0.626739
401	0	0.626739
402	0	0.626739
403	0	0.626739
404	0	0.626739
405	0	0.626739
406	0	0.626739
407	0	0.626739
408	0	0.626739
409	0	0.626739
410	0	0.626739
411	0	0.626739
412	0	0.626739
413	0	0.626739
414	0	0.626739
415	0	0.626739
416	0	0.626739
417	0	0.626739
418	0	0.626739
419	0	0.605494
420	0	0.585311
421	0	0.585311
422	0	0.585311
423	0	0.585311
424	0	0.585311
425	0	0.585311
426	0	0.585311
427	0	0.566667
428	0	0.566667
429	0	0.566667
430	0	0.566667
431	0	0.566667
432	0	0.566667
433	0	0.566667
434	0	0.566667
435	0	0.566667
436	0	0.566667
437	0	0.566667
438	0	0.566667
439	0	0.566667
440	0	0.566667
441	0	0.566667
442	0	0.566667
443	0	0.530978
444	0	0.530978
445	0	0.530978
446	0	0.554531
447	0	0.554531
448	0	0.548387
449	0	0.548387
450	0	0.548387
451	0	0.548387
452	0	0.548387
453	0	0.514385
454	0	0.514385
455	0	0.514385
456	0	0.514385
457	0	0.514385
458	0	0.514385
459	0	0.499519
460	0	0.484382
461	0	0.456541
462	0	0.476734
463	0	0.490276
464	0	0.476295
465	0	0.476295
466	0	0.238095
467	0	0.261279
468	0	0.0298851
469	0	0.378054
470	0	0.360663
471	0	0.360663
472	0	0.367807
473	0	0.367807
474	0	0.367807
475	0	0.338393
476	0	0.338023
477	0	0.338023
478	0	0.338763
479	0	0.338763
480	0	0.339874
481	0	0.339874
482	0	0.32973
483	0	0.312714
484	0	0.312714
485	0	0.290506
486	0	0.276724
487	0	0.289241
488	0	0.289557
489	0	0
490	0	0
491	0	0
492	0	0
493	0	0
494	0	0
495	0	0
496	0	0
497	0	0
498	0	0
499	0	0
500	0	0
501	0	0
502	0	0
503	0	0
504	0	0
505	0	0
506	0	0
507	0	0
508	0	0
509	0	0
510	0	0
511	0	0
512	0	0
513	0	0
514	0	0
515	0	0
516	0	0
517	0	0
518	0	0
519	0	0
520	0	0
521	0	0
522	0	0
523	0	0
524	0	0
525	0	0
526	0	0
527	0	0
528	0	0
529	0	0
530	0	0
531	0	0
532	0	0
533	0	0.0222222
534	0	0.0222222
535	0	0.0222222
536	0	0.0222222
537	0	0.0181818
538	0	0.0151515
539	0	0.0151515
540	0	0.0151515
541	0	0.0151515
542	0	0.0454545
543	0	0.0454545
544	0	0.0454545
545	0	0.0128205
546	0	0.0128205
547	0	0.0128205
548	0	0.0128205
549	0	0.0128205
550	0	0.0128205
551	0	0.0128205
552	0	0.0190476
553	0	0.0220588
554	0	0.118227
555	0	0.110345
556	0	0.110345
557	0	0.110345
558	0	0.103226
559	0	0.103226
560	0	0.103226
561	0	0.103226
562	0	0.103226
563	0	0.114064
564	0	0.108879
565	0	0.0952821
566	0	0.0952821
567	0	0.0913121
568	0	0.084898
569	0	0.084898
570	0	0.0791855
571	0	0.0769231
572	0	0.0774411
573	0	0.0689655
574	0	0.0689655
575	0	0.0666667
576	0	0.0644809
577	0	0.0624008
578	0	0.0539947
579	0	0.0539947
580	0	0.0492958
581	0	0.116131
582	0	0.10119
583	0	0.122216
584	0	0.115126
585	0	0.11295
586	0	0.109708
587	0	0.10813
588	0	0.108178
589	0	0.106233
590	0	0.106139
591	0	0.101359
592	0	0.0995568
593	0	0.0969022
594	0	0.0958864
595	0	0.0957172
596	0	0.094618
597	0	0.094618
598	0	0.0714256
599	0	0.0726039
600	0	0.0696669
601	0	0.0688889
602	0	0.0680285
603	0	0.0681455
604	0	0.0625527
605	0	0.0609793
606	0	0.0603448
607	0	0.0604558
608	0	0.0599024
609	0	0.0628201
610	0	0.0623257
611	0	0.0633241
612	0	0.063078
613	0	0.0626912
614	0	0.0622385
615	0	0.0663555
616	0	0.0654015
617	0	0.064269
618	0	0.0626296
619	0	0.0635649
620	0	0.0612562
621	0	0.0613574
622	0	0.060823
623	0	0.0552514
624	0	0.0535458
625	0	0.0532452
626	0	0.0530442
627	0	0.0528193
628	0	0.0528578
629	0	0.0526696
630	0	0.0512524
631	0	0.0520303
632	0	0.0515625
633	0	0.0481444
634	0	0.0464387
635	0	0.0452149
636	0	0.0385594
637	0	0.0406306
638	0	0.0378671
639	0	0.0382604
640	0	0.0371272
641	0	0.0467465
642	0	0.0438101
643	0	0.0417346
644	0	0.0423282
645	0	0.0440345
646	0	0.0412695
647	0	0.0388312
648	0	0.0386026
649	0	0.0475204
650	0	0.0465172
651	0	0.0457769
652	0	0.0501833
653	0	0.0501998
654	0	0.0432125
655	0	0.0435705
656	0	0.0422104
657	0	0.0429792
658	0	0.041165
659	0	0.0425106
660	0	0.0459461
661	0	0.0478397
662	0	0.0527868
663	0	0.0522264
664	0	0.00750751
665	0	0.00750751
666	0	0.00750751
667	0	0.00750751
668	0	0.012012
669	0	0.012012
670	0	0.00750751
671	0	0.00750751
672	0	0.00750751
673	0	0.00750751
674	0	0.00750751
675	0	0.00750751
676	0	0.0105105
677	0	0.0105105
678	0	0.0105105
679	0	0.012012
680	0	0.012012
681	0	0.012012
682	0	0.015015
683	0	0.0165165
684	0	0.0285285
685	0	0.0285285
686	0	0.0285285
687	0	0.0285285
688	0	0.027027
689	0	0.024024
690	0	0.012012
691	0	0.012012
692	0	0.00900901
693	0	0.00900901
694	0	0.00750751
695	0	0.00600601
696	0	0.00600601
697	0	0.00600601
698	0	0.00600601
699	0	0.00600601
700	0	0.00900901
701	0	0.00600601
702	0	0.00600601
703	0	0.00900901
704	0	0.00900901
705	0	0.00900901
706	0	0.012012
707	0	0.0135135
708	0	0.0135135
709	0	0.012012
710	0	0.0126984
711	0	0.0142857
712	0	0.015015
713	0	0.015015
714	0	0.0165165
715	0	0.0165165
716	0	0.0165165
717	0	0.015015
718	0	0.0142248
719	0	0.0142248
720	0	0.0128023
721	0	0.0128023
722	0	0.0121457
723	0	0.0107962
724	0	0.0107962
725	0	0.0107962
726	0	0.0115385
727	0	0.0102564
728	0	0.0102564
729	0	0.0097561
730	0	0.0097561
731	0	0.0097561
732	0	0.00996678
733	0	0.0121816
734	0	0.0137421
735	0	0.0144928
736	0	0.0132979
737	0	0.0119048
738	0	0.0105581
739	0	0.00908456
740	0	0.00779221
741	0	0.00665457
742	0	0.0107226
743	0	0.00965759
744	0	0.0860509
745	0	0.0774832
746	0	0.0735549
747	0	0.0667598
748	0	0.0529654
749	0	0.0448234
750	0	0.0325118
751	0	0.0321627
752	0	0.0565649
753	0	0.0571986
754	0	0.0590187
755	0	0.0607287
756	0	0.0810735
757	0	0.0458606
758	0	0.0413488
759	0	0.0412383
760	0	0.0432283
761	0	0.04356
762	0	0.0522941
763	0	0.0377004
764	0	0.0383637
765	0	0.0385849
766	0	0.0409066
767	0	0.0410171
768	0	0.0415217
769	0	0.0416339
770	0	0.140404
771	0	0.0102951
772	0	0.00892244
773	0	0.0109815
774	0	0.0100663
775	0	0.0160146
776	0	0.0276825
777	0	0.0402654
778	0	0.0507893
779	0	0.0505605
780	0	0.0590254
781	0	0.0734386
782	0	0.0789293
783	0	0.173673
784	0	0.174937
785	0	0.175253
786	0	0.18565
787	0	0.185489
788	0	0.12034
789	0	0.121517
790	0	0
791	0	0
792	0	0
793	0	0
794	0	0
795	0	0
796	0	0
797	0	0
798	0	0
799	0	0
800	0	0
801	0	0
802	0	0
803	0	0
804	0	0
805	0	0
806	0	0
807	0	0
808	0	0
809	0	0
810	0	0
811	0	0
812	0	0
813	0	0
814	0	0
815	0	1
816	0	1
817	0	1
818	0	1
819	0	1
820	0	0.818182
821	0	0.833333
822	0	0.833333
823	0	0.145968
824	0	0.146697
825	0	0.123547
826	0	0.121648
827	0	0.119518
828	0	0.11727
829	0	0.113266
830	0	0.183704
831	0	0.113164
832	0	0.116405
833	0	0.11518
834	0	0.114855
835	0	0
836	0	0
837	0	0
838	0	0
839	0	0
840	0	0
841	0	0
842	0	0
843	0	0
844	0	0
845	0	0
846	0	0
847	0	0
848	0	0.1
849	0	0.1
850	0	0.0666667
851	0	0.0666667
852	0	0.0666667
853	0	0.0666667
854	0	0.0666667
855	0	0.0666667
856	0	0.0666667
857	0	0.409485
858	0	0.032967
859	0	0.032967
860	0	0.032967
861	0	0.032967
862	0	0.032967
863	0	0.032967
864	0	0.032967
865	0	0.032967
866	0	0.032967
867	0	0.032967
868	0	0.032967
869	0	0.032967
870	0	0.032967
871	0	0.032967
872	0	0.032967
873	0	0.032967
874	0	0.032967
875	0	0.0769231
876	0	0.0769231
877	0	0.0769231
878	0	0.0769231
879	0	0.0769231
880	0	0.0380952
881	0	0.0380952
882	0	0.0380952
883	0	0.0380952
884	0	0.0380952
885	0	0.0380952
886	0	0.0380952
887	0	0.0416667
888	0	0.0416667
889	0	0.0416667
890	0	0.0416667
891	0	0.0367647
892	0	0.0367647
893	0	0.0473684
894	0	0.0473684
895	0	0.471732
896	0	0.47128
897	0	0.444587
898	0	0.184615
899	0	0.181707
900	0	0.230228
901	0	0.403349
902	0	0.403729
903	0	0.437976
904	0	0.437976
905	0	0.457002
906	0	0.457002
907	0	0.462792
908	0	0.462051
909	0	0.462051
910	0	0.462792
911	0	0.451171
912	0	0.411879
913	0	0.411879
914	0	0.401582
915	0	0.403797
916	0	0.409568
917	0	0.40259
918	0	0.396121
919	0	0.389271
920	0	0.386555
921	0	0.392613
922	0	0.388132
923	0	0.370787
924	0	0.375383
925	0	0.376404
926	0	0.376404
927	0	0.376404
928	0	0.376404
929	0	0.315356
930	0	0.356305
931	0	0.357803
932	0	0.357803
933	0	0.348718
934	0	0.332876
935	0	0.32542
936	0	0.330571
937	0	0.14731
938	0	0.23422
939	0	0.223765
940	0	0.274977
941	0	0.340232
942	0	0
943	0	0
944	0	0
945	0	0
946	0	0
947	0	0
948	0	0.333333
949	0	0.459935
950	0	0.477998
951	0	0.492987
952	0	0.500366
953	0	0.511789
954	0	0.511954
955	0	0.511117
956	0	0.674987
957	0	0.684488
958	0	0.660376
959	0	0.474359
960	0	0.474359
961	0	0.474359
962	0	0.474359
963	0	0.474359
964	0	0.474359
965	0	0.474359
966	0	0.505495
967	0	0.628571
968	0	0.767002
969	0	0.944664
970	0	0.333333
971	0	0.333333
972	0	0.333333
973	0	0.333333
974	0	0.333333
975	0	1
976	0	0.983222
977	0	0.981179
978	0	0.981218
979	0	0.981218
980	0	0.981218
981	0	0
982	0	0.983255
983	0	0.979113
984	0	0.979091
985	0	0.974962
986	0	0.974725
987	0	0
988	0	0
989	0	0
990	0	0
991	0	0
992	0	0
993	0	0
994	0	0
995	0	0
996	0	0
997	0	0
998	0	0
999	0	0
1000	0	0
1001	0	0
1002	0	0
1003	0	0
1004	0	0
1005	0	0.945489
1006	0	0.496388
1007	0	0.453211
1008	0	0.406593
1009	0	0.391667
1010	0	0.552149
1011	0	0.815424
1012	0	1
1013	0	0.93894
1014	0	0.958963
1015	0	0
1016	0	0
1017	0	0
1018	0	0
1019	0	0.535714
1020	0	0.535714
1021	0	0.987546
1022	0	0.987533
1023	0	0
1024	0	0
1025	0	0
1026	0	0
1027	0	0
1028	0	0
1029	0	0
1030	0	0
1031	0	0
1032	0	0
1033	0	0
1034	0	0
1035	0	0
1036	0	0
1037	0	0
1038	0	0
1039	0	0
1040	0	0
1041	0	0
1042	0	0
1043	0	0
1044	0	0
1045	0	0
1046	0	0
1047	0	0
1048	0	0
1049	0	0
1050	0	0
1051	0	0
1052	0	0.987561
1053	0	0.987561
1054	0	0
1055	0	0.983724
1056	0	0.98369
1057	0	0.983707
1058	0	0.981697
1059	0	0.981697
1060	0	0.981697
1061	0	0
1062	0	0
1063	0	0
1064	0	0
1065	0	0.989746
1066	0	0.977517
1067	0	0.97345
1068	0	0.97345
1069	0	0.534137
1070	0	1
1071	0	1
1072	0	1
1073	0	1
1074	0	1
1075	0	1
1076	0	1
1077	0	1
1078	0	1
1079	0	1
1080	0	1
1081	0	1
1082	0	1
1083	0	1
1084	0	1
1085	0	0.333333
1086	0	0.333333
1087	0	0.333333
1088	0	0.333333
1089	0	0.333333
1090	0	0.333333
1091	0	0.333333
1092	0	0.333333
1093	0	0.333333
1094	0	0.333333
1095	0	0.333333
1096	0	0.333333
1097	0	0.333333
1098	0	0.333333
1099	0	0.333333
1100	0	0.333333
1101	0	0.333333
1102	0	0.333333
1103	0	0.333333
1104	0	0.333333
1105	0	0.333333
1106	0	0.333333
1107	0	0.333333
1108	0	0.333333
1109	0	1
1110	0	1
1111	0	1
1112	0	0.523672
1113	0	0.961707
1114	0	0
1115	0	0
1116	0	0.95782
1117	1	0
1118	1	0
1119	1	0
1120	1	0
1121	0	0
1122	0	0
1123	0	0
1124	0	0
1125	0	0
1126	0	0
1127	0	0.959764
1128	1	0
1129	1	0
1130	1	0
1131	1	0
1132	1	0
1133	1	0
1134	1	0
1135	1	0
1136	1	0
1137	1	0
1138	1	0
1139	1	0
1140	1	0
1141	1	0
1142	1	0
1143	1	0
1144	1	0
1145	0	0
1146	0	0.977621
1147	0	0.987688
1148	0	0.987713
1149	0	0.987713
1150	0	0
1151	0	0
1152	0	0
1153	0	0
1154	0	0
1155	0	0
1156	1	0
1157	1	0
1158	1	0
1159	1	0
1160	1	0
1161	1	0
1162	1	0
1163	0	0
1164	0	0
1165	0	0
1166	0	0
1167	0	0
1168	0	0
1169	0	0
1170	0	0
1171	0	0
1172	0	0
1173	0	0
1174	0	0
1175	0	0
1176	0	0
1177	0	0
1178	0	0
1179	1	0
1180	1	0
1181	1	0
1182	1	0
1183	0	0.987776
1184	0	0.98785
1185	0	0.983818
1186	0	0.983818
1187	0	1
1188	0	1
1189	1	1
1190	1	1
1191	1	1
1192	1	1
1193	0	1
1194	0	1
1195	0	1
1196	0	0.979934
1197	0	0.979932
1198	0	0.979853
1199	0	0.979833
1200	0	0
1201	0	0
1202	0	0
1203	0	0
1204	0	0
1205	0	0
1206	0	0
1207	0	0
1208	0	0
1209	0	0
1210	0	0
1211	0	0
1212	0	0
1213	0	0
1214	0	0
1215	0	0
1216	0	0.942458
1217	0	0.923634
1218	0	0.482102
1219	0	0.824838
1220	0	0.466667
1221	0	0.955907
1222	0	0.9
1223	0	0.996026
1224	0	0.996026
1225	0	0.996026
1226	0	0.996026
1227	0	0.994042
1228	0	0.994042
1229	0	0.996026
1230	0	0.996026
1231	0	0.994048
1232	0	0.994048
1233	0	0.994036
1234	0	0.99403
1235	0	0.99403
1236	0	0.996014
1237	0	0.996014
1238	1	0
1239	1	0
1240	0	0.994036
1241	0	0.994036
1242	0	0.992052
1243	1	0
1244	1	0
1245	1	0
1246	1	0
1247	1	0
1248	1	0
1249	1	0
1250	1	0
1251	1	0
1252	1	0
1253	1	0
1254	0	0
1255	0	0.99403
1256	0	0.992052
1257	0	0.996018
1258	0	0.998006
1259	0	0.998006
1260	0	0.998006
1261	0	0.996014
1262	0	0.802527
1263	0	0
1264	0	0
1265	0	0
1266	0	0
1267	0	0
1268	0	0
1269	0	0
1270	1	0
1271	1	0
1272	1	0
1273	1	0
1274	1	0
1275	1	0
1276	1	0
1277	1	0
1278	1	0
1279	1	0
1280	1	0
1281	1	0
1282	1	0
1283	1	0
1284	1	0
1285	1	0
1286	1	0
1287	1	0
1288	1	0
1289	1	0
1290	1	0
1291	1	0
1292	1	0
1293	0	0
1294	0	0
1295	0	0
1296	0	0
1297	0	0
1298	0	0
1299	0	0
1300	0	0.333333
1301	0	0.333333
1302	0	0.333333
1303	0	0.466667
1304	0	1
1305	0	0.996018
1306	0	0.996022
1307	0	0.996026
1308	0	0.996034
1309	0	0.996034
1310	0	0.996034
1311	0	0.996034
1312	0	0.994054
1313	0	0.980033
1314	0	0.912983
1315	0	0.378788
1316	0	0.289231
1317	0	0.403986
1318	0	0.24359
1319	0	0.436364
1320	0	1
1321	0	1
1322	0	0.960409
1323	0	0
1324	1	0
1325	1	0
1326	1	0
1327	1	0
1328	1	0
1329	1	0
1330	1	0
1331	1	0
1332	0	0
1333	0	0
1334	0	0
1335	0	0
1336	0	0
1337	0	0.69697
1338	0	0.986119
1339	0	0.992062
1340	0	0.996022
1341	0	0
1342	1	0
1343	1	0
1344	1	0
1345	1	0
1346	1	0
1347	1	0
1348	1	0
1349	1	0
1350	1	0
1351	1	0
1352	1	0
1353	1	0
1354	1	0
1355	1	0
1356	1	0
1357	1	0
1358	1	0
1359	1	0
1360	0	0.996038
1361	0	0.998018
1362	0	0.99802
1363	0	0.99802
1364	0	0.99802
1365	0	0.99802
1366	0	0.99802
1367	0	0.99802
1368	0	0.537585
1369	0	0.644944
1370	0	0.772288
1371	0	1
1372	0	1
1373	0	1
1374	0	1
1375	0	1
1376	0	1
1377	0	1
1378	0	0.994071
1379	0	0
1380	0	0
1381	0	0
1382	1	0
1383	1	0
1384	0	0
1385	0	0
1386	0	0
1387	0	0
1388	0	0.996045
1389	0	0.996045
1390	0	0
1391	0	0
1392	0	0
1393	0	0
1394	0	0
1395	0	0
1396	0	0
1397	0	0
1398	0	0
1399	0	0
1400	0	0
1401	0	0
1402	0	0
1403	0	0
1404	0	0
1405	0	0
1406	0	0
1407	0	0
1408	0	0
1409	0	0
1410	0	0
1411	0	0
1412	0	0.994077
1413	0	0.994083
1414	0	0.996053
1415	0	0.996053
1416	0	0.996053
1417	0	0.996053
1418	0	0.996053
1419	0	0
1420	0	0
1421	0	0
1422	0	0
1423	0	0
1424	0	0
1425	0	0.998024
1426	0	0.998024
1427	0	0.998024
1428	0	0.998024
1429	0	0.998024
1430	0	0
1431	0	0
1432	0	0
1433	0	0
1434	0	0
1435	0	0
1436	0	0
1437	0	0
1438	1	0
1439	1	0
1440	1	0
1441	0	0
1442	0	0.996053
1443	0	0.666667
1444	0	0.788084
1445	0	0.816471
1446	0	0.819759
1447	0	0.666183
1448	0	0.641146
1449	0	0.88409
1450	0	0.6
1451	0	0.6
1452	0	0.6
1453	0	0.6
1454	0	0.6
1455	0	0.6
1456	0	0.2
1457	0	0.2
1458	0	0.2
1459	0	0.142857
1460	0	0.662516
1461	0	0.628571
1462	0	0.481855
1463	0	0.537214
1464	0	0.214286
1465	0	0.330049
1466	0	0.357143
1467	0	0
1468	0	0
1469	0	0.333333
1470	0	0.333333
1471	0	0.333333
1472	0	0.800418
1473	0	0.49
1474	0	0.535385
1475	0	0.958908
1476	0	0.739649
1477	0	0.860012
1478	0	0.656269
1479	0	0.654237
1480	0	0.818182
1481	0	0.527473
1482	0	0.527473
1483	0	0.428571
1484	0	0.371429
1485	0	0.371429
1486	0	0.669199
1487	0	0.169591
1488	0	0.183333
1489	0	0.670327
1490	0	0.333333
1491	0	0
1492	0	0
1493	0	0
1494	0	0
1495	0	0
1496	0	0
1497	0	0
1498	0	0
1499	0	0.670371
1500	0	0.392857
1501	0	0.316667
1502	0	0.241379
1503	0	0.482641
1504	0	0.183333
1505	0	0.212121
1506	0	0.305556
1507	0	0.28475
1508	0	0.340659
1509	0	0.275
1510	0	0.275
1511	0	0.275
1512	0	0.238095
1513	0	0.4
1514	0	0.99388
1515	0	0.991988
1516	0	0.996042
1517	0	0.99802
1518	0	0.99802
1519	0	0.99802
1520	0	0.99802
1521	0	0.998022
1522	0	0.998022
1523	0	0.998022
1524	0	0.998022
1525	0	0.998022
1526	0	0.998022
1527	0	0.99802
1528	0	0.99802
1529	0	0.99802
1530	0	0.998022
1531	0	0.998022
1532	0	0.996045
1533	0	1
1534	0	1
1535	1	1
1536	1	1
1537	1	1
1538	1	1
1539	1	1
1540	1	1
1541	1	1
1542	0	0.99013
1543	0	0
1544	0	0
1545	0	0
1546	0	0
1547	0	0
1548	0	0
1549	0	0
1550	0	0
1551	0	0
1552	0	0
1553	0	0
1554	0	0
1555	0	0
1556	0	0
1557	0	0
1558	0	0
1559	0	0
1560	0	0.542526
1561	0	0
1562	0	0
1563	0	0
1564	0	0
1565	0	0
1566	0	0
1567	0	0
1568	1	0
1569	1	0
1570	0	0
1571	0	0
1572	0	0
1573	0	0
1574	0	0
1575	0	0
1576	0	0
1577	0	0
1578	0	0
1579	0	0
1580	0	0.542744
1581	0	0.994071
1582	0	0.994071
1583	0	0.994071
1584	0	0.996045
1585	0	0.978418
1586	0	0.978439
1587	1	1
1588	1	1
1589	1	1
1590	0	1
1591	0	1
1592	0	0.998018
1593	0	0.996042
1594	0	0.996042
1595	0	0.996042
1596	0	0
1597	0	0.992107
1598	0	0.992107
1599	0	0.857143
1600	0	0.5527
1601	0	0.996042
1602	0	0.996042
1603	0	0.998018
1604	0	0.998018
1605	0	0.996042
1606	0	0.996042
1607	0	0.996042
1608	0	0.996042
1609	0	1
1610	0	0.964855
1611	0	0.964855
1612	0	0.998016
1613	0	0.998016
1614	0	0.998018
1615	0	0
1616	0	0
1617	0	0
1618	0	0
1619	0	0
1620	0	0
1621	1	0
1622	1	0
1623	1	0
1624	1	0
1625	1	0
1626	0	0
1627	0	0
1628	0	0
1629	0	0.3
1630	0	0.2
1631	0	0.543564
1632	0	0.543564
1633	0	0.543564
1634	0	0.538861
1635	0	0.75
1636	0	0.75
1637	0	0.330882
1638	0	0.801723
1639	0	0.801723
1640	0	0.496683
1641	0	0.518832
1642	0	0.864388
1643	0	0.442857
1644	0	0.442857
1645	0	0.857143
1646	0	0.857143
1647	0	0.857143
1648	0	0.857143
1649	0	0.906433
1650	0	0.583333
1651	0	0
1652	0	0
1653	0	0
1654	0	0.996022
1655	0	0.996022
1656	0	0.996022
1657	0	0.997996
1658	0	0.980213
1659	0	0.998004
1660	0	0.996018
1661	0	0.996014
1662	0	0.996018
1663	0	0.996018
1664	0	0.996006
1665	0	1
1666	0	1
1667	0	0.333333
1668	0	0.333333
1669	0	0.333333
1670	0	0.333333
1671	0	0.333333
1672	0	0.333333
1673	0	0.333333
1674	1	1
1675	1	1
1676	1	1
1677	1	1
1678	1	1
1679	1	1
1680	1	1
1681	1	1
1682	1	1
1683	1	1
1684	0	0.981904
1685	0	0.958855
1686	0	0.992044
1687	0	0.99007
1688	0	0.990089
1689	0	0.990089
1690	1	0
1691	1	0
1692	1	0
1693	1	0
1694	1	0
1695	1	0
1696	1	0
1697	1	0
1698	1	0
1699	1	0
1700	1	0
1701	1	0
1702	1	0
1703	1	0
1704	1	0
1705	1	0
1706	1	0
1707	1	0
1708	1	0
1709	1	0
1710	0	0.990079
1711	0	0.992052
1712	0	0.992052
1713	1	0
1714	1	0
1715	1	0
1716	1	0
1717	1	0
1718	1	0
1719	1	0
1720	1	0
1721	1	0
1722	1	0
1723	0	0
1724	0	0
1725	0	0
1726	0	0
1727	1	0
1728	0	0.996014
1729	0	0.996014
1730	0	0.99403
1731	0	0.994024
1732	0	0.992044
1733	0	0.992036
1734	0	0.99005
1735	0	0.99005
1736	0	0.99004
1737	0	0
1738	0	0
1739	0	0.99005
1740	0	0.99005
1741	0	0.99005
1742	0	0
1743	0	0
1744	0	0
1745	0	0
1746	0	0
1747	0	0
1748	1	0
1749	1	0
1750	1	0
1751	1	0
1752	1	0
1753	1	0
1754	0	0.984056
1755	0	0.983944
1756	0	0.976055
1757	0	0.975863
1758	0	0.960356
1759	0	0.98997
1760	0	0.991972
1761	0	0.98998
1762	0	0
1763	0	0
1764	0	0
1765	0	0
1766	0	0
1767	0	0
1768	0	0
1769	1	0
1770	1	0
1771	1	0
1772	1	0
1773	1	0
1774	0	0
1775	0	0
1776	0	0
1777	0	0
1778	0	0
1779	0	0
1780	0	0
1781	0	0
1782	0	0
1783	0	0
1784	0	0
1785	0	0
1786	0	0
1787	0	0
1788	0	0
1789	0	0
1790	0	0
1791	0	0
1792	0	0
1793	0	0
1794	0	0
1795	0	0
1796	0	0
1797	0	0
1798	0	0
1799	0	0
1800	0	0
1801	0	0
1802	0	0
1803	0	0
1804	0	0
1805	0	0
1806	0	0
1807	0	0
1808	0	0
1809	0	0
1810	0	0
1811	0	0
1812	0	0
1813	0	0
1814	0	0
1815	0	0
1816	0	0
1817	0	0
1818	0	0
1819	0	0
1820	0	0
1821	0	0
1822	0	0
1823	0	0
1824	0	0
1825	0	0
1826	0	0
1827	0	0
1828	0	0
1829	0	0
1830	0	0
1831	0	0
1832	0	0
1833	0	0
1834	0	0
1835	0	0
1836	0	0
1837	0	0
1838	0	0
1839	0	0
1840	0	0
1841	0	0
1842	0	0
1843	0	0
1844	0	0
1845	0	0
1846	0	0
1847	0	0
1848	0	0
1849	0	0
1850	0	0
1851	0	0
1852	0	0
1853	0	0
1854	0	0
1855	0	0
1856	0	0
1857	0	0
1858	0	0
1859	0	0
1860	0	0
1861	0	0
1862	0	0
1863	0	0
1864	0	0
1865	0	0
1866	0	0
1867	0	0
1868	0	0
1869	0	0
1870	0	0
1871	0	0
1872	0	0
1873	0	0
1874	0	0
1875	0	0
1876	0	0
1877	0	0
1878	0	0
1879	0	0
1880	0	0
1881	0	0
1882	0	0
1883	0	0
1884	0	0
1885	0	0
1886	0	0
1887	0	0
1888	0	0
1889	0	0
1890	0	0
1891	0	0
1892	0	0
1893	0	0
1894	0	0
1895	0	0
1896	0	0
1897	0	0
1898	1	0
1899	0	0
1900	0	0
1901	0	0
1902	0	0
1903	0	0
1904	0	0
1905	0	0
1906	0	0
1907	0	0
1908	0	0
1909	0	0
1910	0	0
1911	0	0
1912	0	0
1913	0	0
1914	0	0
1915	0	0
1916	0	0
1917	0	0
1918	0	0
1919	0	0
1920	0	0
1921	0	0
1922	0	0
1923	0	0
1924	0	0
1925	0	0
1926	0	0
1927	0	0
1928	0	0
1929	0	0
1930	0	0
1931	0	0
1932	0	0
1933	0	0
1934	0	0
1935	0	0
1936	0	0
1937	0	0
1938	0	0
1939	0	0
1940	0	0
1941	0	0
1942	0	0
1943	0	0
1944	0	0
1945	0	0
1946	0	0
1947	0	0
1948	0	0
1949	0	0
1950	0	0
1951	0	0
1952	0	0
1953	0	0
1954	0	0
1955	0	0
1956	0	0.98797
1957	0	1
1958	0	1
1959	0	1
1960	0	0
1961	0	0
1962	0	0
1963	0	0
1964	0	0
1965	0	0
1966	0	0
1967	0	0
1968	0	0
1969	0	0
1970	0	0
1971	0	0.970283
1972	0	0.970283
1973	0	0
1974	0	0
1975	0	0
1976	0	0
1977	0	0
1978	0	0
1979	0	0
1980	0	0
1981	0	0
1982	0	0
1983	0	0
1984	0	0
1985	0	0
1986	0	0
1987	0	0
1988	0	0
1989	0	0
1990	0	0.982
1991	0	0.972074
1992	0	0.972074
1993	0	0.983976
1994	0	0.982002
1995	0	0.1
1996	0	0.98003
1997	1	0
1998	1	0
1999	1	0
2000	1	0
2001	1	0
2002	1	0
2003	1	0
2004	0	0
2005	0	0
2006	0	0
2007	0	0
2008	0	0
2009	0	0
2010	0	0
2011	0	0
2012	0	0
2013	0	0
2014	0	0.98003
2015	0	0.98003
2016	0	0.98001
2017	0	0.666667
2018	0	0.666667
2019	0	0.666667
2020	0	0.47619
2021	0	0.47619
2022	0	0.288889
2023	0	0.288889
2024	0	0.305263
2025	0	0.241107
2026	0	0.352187
2027	0	0.792572
2028	0	0
2029	0	1
2030	0	1
2031	0	0.9
2032	0	0.9
2033	0	0
2034	0	0
2035	0	0
2036	0	0
2037	0	0
2038	0	0
2039	0	0
2040	0	0.299435
2041	0	0.23027
2042	0	0.23027
2043	0	0.231396
2044	0	0.197477
2045	0	0.74288
2046	0	0.5
2047	0	0.5
2048	0	0.5
2049	0	0.5
2050	0	0.5
2051	0	0.3
2052	0	0.133333
2053	0	0.111111
2054	0	0.111111
2055	0	0.111111
2056	0	0.111111
2057	0	0.111111
2058	0	0.139706
2059	0	0.111111
2060	0	0.0862069
2061	0	0.0812808
2062	0	0.0795455
2063	0	0.0677362
2064	0	0.609139
2065	0	0.573781
2066	0	0.506513
2067	0	0.725275
2068	0	0.725275
2069	0	0.475703
2070	0	0.370986
2071	0	0.428442
2072	0	0.225886
2073	0	0.209441
2074	0	0.204769
2075	0	0.151176
2076	0	0.134951
2077	0	0.151418
2078	0	0.170407
2079	0	0.142178
2080	0	0.295584
2081	0	0.312412
2082	0	0.294737
2083	0	0.266667
2084	0	0.0277778
2085	0	0.0357143
2086	0	0
2087	0	0
2088	0	0
2089	0	0
2090	0	0.346218
2091	0	0.276515
2092	0	0.321053
2093	0	0.0545455
2094	0	0.0545455
2095	0	0.0555556
2096	0	0.0357143
2097	0	0.403929
2098	0	0.675897
2099	0	0.818813
2100	0	0.513333
2101	0	0.338235
2102	0	0.273333
2103	0	0.203333
2104	0	0.181818
2105	0	0.181818
2106	0	0.181818
2107	0	0.134387
2108	0	0.146199
2109	0	0.116959
2110	0	0.114286
2111	0	0.117647
2112	0	0.2
2113	0	0.166667
2114	0	0.166667
2115	0	0.225108
2116	0	0.225108
2117	0	0.225108
2118	0	0.406926
2119	0	0.406926
2120	0	0.406926
2121	0	0.406926
2122	0	0.276887
2123	0	0.219366
2124	0	0.235867
2125	0	0.257823
2126	0	0.669312
2127	0	0.604839
2128	0	0
2129	0	0
2130	0	0
2131	0	0
2132	0	0
2133	0	0
2134	0	0
2135	0	0
2136	0	0
2137	0	0
2138	0	0
2139	0	0
2140	0	0
2141	0	0
2142	0	0
2143	0	0
2144	0	0
2145	0	0
2146	0	0
2147	0	0
2148	0	0
2149	0	0
2150	0	0
2151	0	0
2152	0	0
2153	0	0
2154	0	0
2155	0	0
2156	0	0
2157	0	0
2158	0	0
2159	0	0
2160	0	0
2161	0	0
2162	0	0.214286
2163	0	0.51828
2164	0	0.453763
2165	0	0
2166	0	0
2167	0	0
2168	0	0
2169	0	0
2170	0	0
2171	0	0
2172	0	0
2173	0	0
2174	0	0
2175	0	0
2176	0	0
2177	0	0
2178	0	0
2179	0	0
2180	0	0
2181	0	0
2182	0	0
2183	0	0
2184	0	0
2185	0	0
2186	0	0
2187	0	0
2188	0	0
2189	0	0
2190	0	0
2191	0	0
2192	0	0
2193	0	0
2194	0	0
2195	0	0
2196	0	0
2197	0	0
2198	0	0
2199	0	0
2200	0	0
2201	0	0
2202	0	0
2203	0	0
2204	0	0
2205	0	0
2206	0	0
2207	0	0
2208	0	0
2209	0	0
2210	0	0
2211	0	0
2212	0	0
2213	0	0
2214	0	0
2215	0	0
2216	0	0
2217	0	0
2218	0	0
2219	0	0
2220	0	0
2221	0	0.166667
2222	0	0.166667
2223	0	0.1
2224	0	0.0576857
2225	0	0
2226	0	0
2227	0	0
2228	0	0
2229	0	0
2230	0	0
2231	0	0
2232	0	0
2233	0	0
2234	0	0
2235	0	0
2236	0	0.0630163
2237	0	1
2238	0	1
2239	0	1
2240	0	1
2241	0	1
2242	0	1
2243	0	1
2244	0	1
2245	0	1
2246	0	1
2247	0	1
2248	0	1
2249	0	1
2250	0	1
2251	0	1
2252	0	1
2253	0	1
2254	0	1
2255	0	0
2256	0	0
2257	0	0
2258	0	0
2259	0	0
2260	0	0
2261	0	0
2262	0	0
2263	0	0
2264	0	0
2265	0	0
2266	0	0
2267	0	0
2268	0	0
2269	0	0
2270	0	0
2271	0	0
2272	0	0
2273	0	0
2274	0	0
2275	0	0
2276	0	0
2277	0	0
2278	0	0
2279	0	0
2280	0	0
2281	0	0
2282	0	0
2283	0	0
2284	0	0
2285	0	0
2286	0	0
2287	0	0
2288	0	0
2289	0	0
2290	0	0
2291	0	0
2292	0	0
2293	0	0
2294	0	0
2295	0	0
2296	0	0
2297	0	0
2298	0	0
2299	0	0
2300	0	0
2301	0	0
2302	0	0
2303	0	0
2304	0	0
2305	0	0
2306	0	0
2307	0	0
2308	0	0
2309	0	0
2310	0	0
2311	0	0
2312	0	0.142788
2313	0	0.148077
2314	0	0.0737719
2315	0	0.0742833
2316	0	0.0394089
2317	0	0.0344086
2318	0	0.0387097
2319	0	0.0460317
2320	0	0.0345345
2321	0	0.0295983
2322	0	0.0246734
2323	0	0.0637901
2324	0	0.0639129
2325	0	0.0632735
2326	0	0.0633154
2327	0	0.0626396
2328	0	0.0658792
2329	0	0.056702
2330	0	0.0608395
2331	0	0.06492
2332	0	0.0669961
2333	0	0.072641
2334	0	0.072016
2335	0	0.0563749
2336	0	0.0547282
2337	0	0.0491814
2338	0	0.0511658
2339	0	0.0851536
2340	0	0.0988223
2341	0	0.127184
2342	0	0.016092
2343	0	0.0123153
2344	0	0.0123153
2345	0	0.0132275
2346	0	0.0123153
2347	0	0.0123153
2348	0	0.015873
2349	0	0.014245
2350	0	0.0166512
2351	0	0.0864906
2352	0	0.0970505
2353	0	0.0510707
2354	0	0.0523366
2355	0	0.0593377
2356	0	0.0904328
2357	0	0.0804598
2358	0	0.0930818
2359	0	0.0915004
2360	0	0.0669157
2361	0	0.062278
2362	0	0.0597508
2363	0	0.0886126
2364	0	0.1
2365	0	0.0666667
2366	0	0.066365
2367	0	0.0961538
2368	0	0.110887
2369	0	0.110887
2370	0	0.0380952
2371	0	0.0380952
2372	0	0.0380952
2373	0	0
2374	0	0
2375	0	0
2376	0	0
2377	0	0
2378	0	0
2379	0	0
2380	0	0
2381	0	0
2382	0	0
2383	0	0
2384	0	0
2385	0	0
2386	0	0
2387	0	0
2388	0	0
2389	0	0
2390	0	0
2391	0	0
2392	0	0
2393	0	0
2394	0	0
2395	0	0
2396	0	0
2397	0	0
2398	0	0
2399	0	0
2400	0	0
2401	0	0
2402	0	0
2403	0	0
2404	0	0
2405	0	0
2406	0	0
2407	0	0
2408	0	0
2409	0	0
2410	0	0
2411	0	0
2412	0	0
2413	0	0
2414	0	0
2415	0	0
2416	0	0
2417	0	0
2418	0	0
2419	0	0
2420	0	0
2421	0	0
2422	0	0
2423	0	0
2424	0	0
2425	0	0
2426	0	0
2427	0	0
2428	0	0
2429	0	0
2430	0	0
2431	0	0
2432	0	0
2433	0	0
2434	0	0
2435	0	0
2436	0	0
2437	0	0
2438	0	0
2439	0	0
2440	0	0
2441	0	0
2442	0	0
2443	0	0
2444	0	0
2445	0	0
2446	0	0
2447	0	0
2448	0	0
2449	0	0
2450	0	0
2451	0	0
2452	0	0
2453	0	0
2454	0	0
2455	0	0
2456	0	0
2457	0	0
2458	0	0
2459	0	0
2460	0	0
2461	0	0
2462	0	0
2463	0	0
2464	0	0
2465	0	0
2466	0	0
2467	0	0
2468	0	0
2469	0	0
2470	0	0
2471	0	0
2472	0	0
2473	0	0
2474	0	0
2475	0	0
2476	0	0
2477	0	0
2478	0	0
2479	0	0
2480	0	0
2481	0	0
2482	0	0
2483	0	0
2484	0	0
2485	0	0
2486	0	0
2487	0	0
2488	0	0
2489	0	0
2490	0	0
2491	0	0
2492	0	0
2493	0	0
2494	0	0
2495	0	0
2496	0	0
2497	0	0
2498	0	0
2499	0	0
2500	0	0
2501	0	0
2502	0	0
2503	0	0
2504	0	0
2505	0	0
2506	0	0
2507	0	0
2508	0	0
2509	0	0
2510	0	0
2511	0	0
2512	0	0
2513	0	0
2514	0	0
2515	0	0
2516	0	0
2517	0	0
2518	0	0
2519	0	0
2520	0	0
2521	0	0
2522	0	0
2523	0	0
2524	0	0
2525	0	0
2526	0	0
2527	0	0
2528	0	0
2529	0	0
2530	0	0
2531	0	0
2532	0	0
2533	0	0
2534	0	0
2535	0	0
2536	0	0
2537	0	0
2538	0	0
2539	0	0
2540	0	0
2541	0	0
2542	0	0
2543	0	0
2544	0	0
2545	0	0
2546	0	0
2547	0	0
2548	0	0
2549	0	0
2550	0	0
2551	0	0
2552	0	0
2553	0	0
2554	0	0
2555	0	0
2556	0	0
2557	0	0
2558	0	0
2559	0	0
2560	0	0
2561	0	0
2562	0	0
2563	0	0
2564	0	0
2565	0	0
2566	0	0
2567	0	0
2568	0	0
2569	0	0
2570	0	0
2571	0	0
2572	0	0
2573	0	0
2574	0	0
2575	0	0
2576	0	0
2577	0	0
2578	0	0
2579	0	0
2580	0	0
2581	0	0
2582	0	0
2583	0	0
2584	0	0
2585	0	0
2586	0	0
2587	0	0
2588	0	0
2589	0	0
2590	0	0
2591	0	0
2592	0	0
2593	0	0
2594	0	0
2595	0	0
2596	0	0
2597	0	0
2598	0	0
2599	0	0
2600	0	0
2601	0	0
2602	0	0
2603	0	0
2604	0	0
2605	0	0
2606	0	0
2607	0	0
2608	0	0
2609	0	0
2610	0	0
2611	0	0
2612	0	0
2613	0	0
2614	0	0
2615	0	0
2616	0	0
2617	0	0
2618	0	0
2619	0	0
2620	0	0
2621	0	0
2622	0	0
2623	0	0
2624	0	0
2625	0	0
2626	0	0
2627	0	0
2628	0	0
2629	0	0
2630	0	0
2631	0	0
2632	0	0
2633	0	0
2634	0	0
2635	0	0
2636	0	0
2637	0	0
2638	0	0
2639	0	0
2640	0	0
2641	0	0
2642	0	0
2643	0	0
2644	0	0
2645	0	0
2646	0	0
2647	0	0
2648	0	0
2649	0	0
2650	0	0
2651	0	0
2652	0	0
2653	0	0
2654	0	0
2655	0	0
2656	0	0
2657	0	0
2658	0	0
2659	0	0
2660	0	0
2661	0	0
2662	0	0
2663	0	0
2664	0	0
2665	0	0
2666	1	0
2667	1	0
2668	1	0
2669	1	0
2670	1	0
2671	1	0
2672	1	0
2673	1	0
2674	1	0
2675	1	0
2676	1	0
2677	1	0
2678	1	0
2679	1	0
2680	1	0
2681	0	0.502016
2682	0	0.445633
2683	0	0.445633
2684	0	0.445633
2685	0	1
2686	0	0
2687	0	0
2688	0	0
2689	0	0
2690	0	0
2691	0	0
2692	0	0
2693	0	0
