Site	ColumnScore	SumOfPairsScore
1	1	0
2	1	0
3	1	0
4	1	0
5	1	0
6	1	0
7	1	0
8	1	0
9	1	0
10	1	0
11	1	0
12	1	0
13	1	0
14	1	0
15	1	0
16	1	0
17	1	0
18	1	0
19	1	0
20	1	0
21	1	0
22	1	0
23	1	0
24	1	0
25	1	0
26	1	0
27	1	0
28	1	0
29	1	0
30	1	0
31	1	0
32	1	0
33	1	0
34	1	0
35	1	0
36	1	0
37	1	0
38	1	0
39	1	0
40	1	0
41	1	0
42	1	0
43	1	0
44	1	0
45	1	0
46	1	0
47	1	0
48	1	0
49	1	0
50	1	0
51	1	0
52	1	0
53	1	0
54	1	0
55	1	0
56	1	0
57	1	0
58	1	0
59	1	0
60	1	0
61	1	0
62	1	0
63	1	0
64	1	0
65	1	0
66	1	0
67	1	0
68	1	0
69	1	0
70	1	0
71	1	0
72	1	0
73	1	0
74	1	0
75	1	0
76	1	0
77	1	0
78	1	0
79	1	0
80	1	0
81	1	0
82	1	0
83	1	0
84	1	0
85	1	0
86	1	0
87	1	0
88	1	0
89	1	0
90	1	0
91	1	0
92	1	0
93	1	0
94	1	0
95	1	0
96	1	0
97	1	0
98	1	0
99	1	0
100	1	0
101	1	0
102	1	0
103	1	0
104	1	0
105	1	0
106	1	0
107	1	0
108	1	0
109	1	0
110	1	0
111	1	0
112	1	0
113	1	0
114	1	0
115	1	0
116	1	0
117	1	0
118	1	0
119	1	0
120	1	0
121	1	0
122	1	0
123	1	0
124	1	0
125	1	0
126	1	0
127	1	0
128	1	0
129	1	0
130	1	0
131	1	0
132	1	0
133	1	0
134	1	0
135	1	0
136	1	0
137	1	0
138	1	0
139	1	0
140	1	0
141	1	0
142	1	0
143	1	0
144	1	0
145	1	0
146	1	0
147	1	0
148	1	0
149	1	0
150	1	0
151	1	0
152	1	0
153	1	0
154	1	0
155	1	0
156	1	0
157	1	0
158	1	0
159	1	0
160	1	0
161	1	0
162	1	0
163	1	0
164	1	0
165	1	0
166	1	0
167	1	0
168	1	0
169	1	0
170	1	0
171	1	0
172	1	0
173	1	0
174	1	0
175	1	0
176	1	0
177	1	0
178	1	0
179	1	0
180	1	0
181	1	0
182	1	0
183	1	0
184	1	0
185	1	0
186	1	0
187	1	0
188	1	0
189	1	0
190	1	0
191	1	0
192	1	0
193	1	0
194	1	0
195	1	0
196	1	0
197	1	0
198	1	0
199	1	0
200	1	0
201	1	0
202	1	0
203	1	0
204	1	0
205	1	0
206	1	0
207	1	0
208	1	0
209	1	0
210	1	0
211	1	0
212	1	0
213	1	0
214	1	0
215	1	0
216	1	0
217	1	0
218	1	0
219	1	0
220	1	0
221	1	0
222	1	0
223	1	0
224	1	0
225	1	0
226	1	0
227	1	0
228	1	0
229	1	0
230	1	0
231	1	0
232	1	0
233	1	0
234	1	0
235	1	0
236	1	0
237	1	0
238	1	0
239	1	0
240	1	0
241	1	0
242	1	0
243	1	0
244	1	0
245	1	0
246	1	0
247	1	0
248	1	0
249	1	0
250	1	0
251	1	0
252	1	0
253	1	0
254	1	0
255	1	0
256	1	0
257	1	0
258	1	0
259	1	0
260	1	0
261	1	0
262	1	0
263	1	0
264	1	0
265	1	0
266	1	0
267	1	0
268	1	0
269	1	0
270	1	0
271	1	0
272	1	0
273	1	0
274	1	0
275	1	0
276	1	0
277	1	0
278	1	0
279	1	0
280	1	0
281	1	0
282	1	0
283	1	0
284	1	0
285	1	0
286	1	0
287	1	0
288	1	0
289	1	0
290	1	0
291	1	0
292	1	0
293	1	0
294	1	0
295	1	0
296	1	0
297	1	0
298	1	0
299	1	0
300	1	0
301	1	0
302	1	0
303	1	0
304	0	0
305	0	0
306	0	0
307	0	0
308	0	0
309	0	0
310	0	0
311	0	0
312	0	0
313	0	0
314	0	0
315	0	0
316	0	0
317	0	0
318	0	0
319	0	0
320	0	0
321	0	0
322	0	0
323	0	0
324	0	0
325	0	0
326	0	0
327	0	0
328	0	0
329	0	0
330	0	0
331	0	0
332	0	0
333	0	0
334	0	0
335	0	0
336	0	0
337	0	0
338	0	0
339	0	0
340	0	0
341	0	0
342	0	0
343	0	0
344	0	0
345	0	0
346	0	0
347	0	0
348	0	0
349	0	0
350	0	0
351	0	0
352	0	0
353	0	0
354	0	0
355	0	0
356	0	0
357	0	0
358	0	0
359	0	0
360	0	0
361	0	0
362	0	0.1
363	0	0.1
364	0	0.1
365	0	0.1
366	0	0.1
367	0	0.1
368	0	0.1
369	0	0.1
370	0	0.1
371	0	0.1
372	0	0.1
373	0	0.1
374	0	0.1
375	0	0.1
376	0	0.1
377	0	0.1
378	0	0.1
379	0	0.1
380	0	0.1
381	0	0.1
382	0	0.1
383	0	0.1
384	0	0.1
385	0	0
386	0	0
387	0	0
388	0	0
389	0	0
390	0	0
391	0	0
392	0	0
393	0	0
394	0	0
395	0	0
396	0	0
397	0	0
398	0	0
399	0	0
400	0	0
401	0	0
402	0	0
403	0	0
404	0	0
405	0	0
406	0	0
407	0	0
408	0	0
409	0	0
410	0	0
411	0	0
412	0	0
413	0	0
414	0	0
415	0	0
416	0	0
417	0	0
418	0	0
419	0	0
420	0	0
421	0	0
422	0	0
423	0	0
424	0	0
425	0	0
426	0	0
427	0	0
428	0	0
429	0	0
430	0	0
431	0	0
432	0	0
433	0	0
434	0	0
435	0	0
436	0	0
437	0	0
438	0	0
439	0	0
440	0	0
441	0	0
442	0	0
443	0	0
444	0	0
445	0	0
446	0	0
447	0	0
448	0	0
449	0	0
450	0	0
451	0	0
452	0	0
453	0	0
454	0	0
455	0	0
456	0	0
457	0	0
458	0	0
459	0	0
460	0	0
461	0	0
462	0	0
463	0	0
464	0	0
465	0	0
466	0	0
467	0	0
468	0	0
469	0	0
470	0	0
471	0	0
472	0	0
473	0	0
474	0	0
475	0	0
476	0	0
477	0	0
478	0	0
479	0	0
480	0	0
481	0	0
482	0	0
483	0	0
484	0	0
485	0	0
486	0	0
487	0	0
488	0	0
489	0	0
490	0	0
491	0	0
492	0	0
493	0	0
494	0	0
495	0	0
496	0	0
497	0	0
498	0	0
499	0	0
500	0	0
501	0	0
502	0	0
503	0	0
504	0	0
505	0	0
506	0	0
507	0	0
508	0	0
509	0	0
510	0	0
511	0	0
512	0	0
513	0	0
514	0	0
515	0	0
516	0	0
517	0	0
518	0	0
519	0	0
520	0	0
521	0	0
522	0	0
523	0	0
524	0	0
525	0	0
526	0	0
527	0	0
528	0	0
529	0	0
530	0	0
531	0	0
532	0	0.109091
533	0	0.109091
534	0	0.109091
535	0	0.0897436
536	0	0.0897436
537	0	0.141667
538	0	0.272059
539	0	0.272059
540	0	0.272059
541	0	0.272059
542	0	0.209524
543	0	0.209524
544	0	0.198529
545	0	0.198529
546	0	0.404412
547	0	0.404412
548	0	0.404412
549	0	0.404412
550	0	0.404412
551	0	0.404412
552	0	0.404412
553	0	0.404412
554	0	0.404412
555	0	0.404412
556	0	0.359477
557	0	0.359477
558	0	0.359477
559	0	0.359477
560	0	0.359477
561	0	0.359477
562	0	0.359477
563	0	0.359477
564	0	0.359477
565	0	0.359477
566	0	0.359477
567	0	0.359477
568	0	0.359477
569	0	0.359477
570	0	0.359477
571	0	0.359477
572	0	0.359477
573	0	0.359477
574	0	0.359477
575	0	0.359477
576	0	0.359477
577	0	0.359477
578	0	0.359477
579	0	0.359477
580	0	0.359477
581	0	0.359477
582	0	0.359477
583	0	0.359477
584	0	0.359477
585	0	0.359477
586	0	0.359477
587	0	0.359477
588	0	0.359477
589	0	0.359477
590	0	0.359477
591	0	0.359477
592	0	0.359477
593	0	0.359477
594	0	0.359477
595	0	0.366013
596	0	0.366013
597	0	0.366013
598	0	0.359477
599	0	0.359477
600	0	0.359477
601	0	0.359477
602	0	0.359477
603	0	0.359477
604	0	0.359477
605	0	0.359477
606	0	0.359477
607	0	0.359477
608	0	0.359477
609	0	0.359477
610	0	0.359477
611	0	0.359477
612	0	0.359477
613	0	0.359477
614	0	0.359477
615	0	0.359477
616	0	0.359477
617	0	0.359477
618	0	0.359477
619	0	0.359477
620	0	0.359477
621	0	0.359477
622	0	0.359477
623	0	0.359477
624	0	0.359477
625	0	0.359477
626	0	0.359477
627	0	0.359477
628	0	0.359477
629	0	0.359477
630	0	0.359477
631	0	0.359477
632	0	0.359477
633	0	0.359477
634	0	0.359477
635	0	0.359477
636	0	0.359477
637	0	0.359477
638	0	0.359477
639	0	0.359477
640	0	0.202614
641	0	0.431373
642	0	0.431373
643	0	0.359477
644	0	0.359477
645	0	0.359477
646	0	0.359477
647	0	0.359477
648	0	0.359477
649	0	0.359477
650	0	0.359477
651	0	0.359477
652	0	0.359477
653	0	0.359477
654	0	0.359477
655	0	0.359477
656	0	0.359477
657	0	0.359477
658	0	0.359477
659	0	0.359477
660	0	0.359477
661	0	0.359477
662	0	0.359477
663	0	0.359477
664	0	0.359477
665	0	0.359477
666	0	0.359477
667	0	0.359477
668	0	0.359477
669	0	0.359477
670	0	0.359477
671	0	0.359477
672	0	0.359477
673	0	0.359477
674	0	0.359477
675	0	0.359477
676	0	0.359477
677	0	0.359477
678	0	0.359477
679	0	0.359477
680	0	0.359477
681	0	0.359477
682	0	0.359477
683	0	0.359477
684	0	0.359477
685	0	0.359477
686	0	0.359477
687	0	0.359477
688	0	0.176471
689	0	0.176471
690	0	0.176471
691	0	0.176471
692	0	0.176471
693	0	0.321637
694	0	0.321637
695	0	0.321637
696	0	0.321637
697	0	0.321637
698	0	0.321637
699	0	0.321637
700	0	0.321637
701	0	0.321637
702	0	0.321637
703	0	0.321637
704	0	0.385965
705	0	0.385965
706	0	0.385965
707	0	0.385965
708	0	0.321637
709	0	0.321637
710	0	0.321637
711	0	0.146199
712	0	0.157895
713	0	0.321637
714	0	0.321637
715	0	0.321637
716	0	0.321637
717	0	0.321637
718	0	0.289474
719	0	0.289474
720	0	0.347368
721	0	0.347368
722	0	0.347368
723	0	0.347368
724	0	0.347368
725	0	0.385965
726	0	0.385965
727	0	0.385965
728	0	0.385965
729	0	0.289474
730	0	0.236842
731	0	0.236842
732	0	0.242105
733	0	0.242105
734	0	0.242105
735	0	0.236842
736	0	0.289474
737	0	0.289474
738	0	0.289474
739	0	0.242424
740	0	0.242424
741	0	0.242424
742	0	0.221344
743	0	0.221344
744	0	0.102767
745	0	0.181818
746	0	0.181818
747	0	0.185771
748	0	0.221344
749	0	0.225296
750	0	0.225296
751	0	0.225296
752	0	0.221344
753	0	0.221344
754	0	0.221344
755	0	0.221344
756	0	0.221344
757	0	0.217391
758	0	0.217391
759	0	0.217391
760	0	0.217391
761	0	0.217391
762	0	0.217391
763	0	0.202899
764	0	0.19
765	0	0.19
766	0	0.172308
767	0	0.0861538
768	0	0.0820106
769	0	0.0837438
770	0	0.0655271
771	0	0.0655271
772	0	0.0502646
773	0	0.042328
774	0	0.0582011
775	0	0.0502646
776	0	0.0263158
777	0	0.0398551
778	0	0.0767196
779	0	0.0793651
780	0	0.0582011
781	0	0.0582011
782	0	0.0574713
783	0	0.0795455
784	0	0.0855615
785	0	0.136302
786	0	0.253846
787	0	0.275261
788	0	0.363234
789	0	0.401691
790	0	0.440404
791	0	0.43129
792	0	0.483092
793	0	0.501773
794	0	0.53064
795	0	0.557569
796	0	0.697422
797	0	0.746296
798	0	0.730263
799	0	0.78626
800	0	0.876776
801	0	0.908221
802	0	0.917435
803	0	0.938625
804	0	0.948726
805	0	0.986331
806	0	0.988024
807	0	0.988024
808	0	0.986331
809	0	0.986331
810	0	0
811	0	0
812	0	0
813	0	0
814	0	0
815	0	0
816	0	0
817	0	0
818	0	0
819	0	0
820	0	0.986342
821	0	0.986342
822	0	0
823	0	0
824	0	0
825	0	0
826	0	0
827	0	0
828	0	0
829	0	0
830	0	0
831	0	0
832	0	0
833	0	0
834	0	0
835	0	0
836	0	0
837	0	0
838	0	0
839	0	0
840	0	0
841	0	0
842	0	0
843	0	0
844	0	0
845	0	0
846	0	0
847	0	0
848	0	0
849	0	0
850	0	0
851	0	0
852	0	0
853	0	0
854	0	0
855	0	0
856	0	0
857	0	0
858	0	0
859	0	0
860	0	0
861	0	0
862	0	0
863	0	0
864	0	0
865	0	0
866	0	0
867	0	0
868	0	0
869	0	0
870	0	0
871	0	0
872	0	0
873	0	0
874	0	0
875	0	0
876	0	0
877	0	0
878	0	0
879	0	0
880	0	0
881	0	0
882	0	0
883	0	0
884	0	0
885	0	0
886	0	0
887	0	0
888	0	0
889	0	0
890	0	0
891	0	0
892	0	0
893	0	0
894	0	0
895	0	0
896	0	0
897	0	0
898	0	0
899	0	0
900	0	0
901	0	0
902	0	0
903	0	0
904	0	0
905	0	0
906	0	0
907	0	0
908	0	0
909	0	0
910	0	0
911	0	0
912	0	0
913	0	0
914	0	0
915	0	0
916	0	0.988045
917	0	0.988045
918	0	0
919	0	0
920	0	0
921	0	0
922	0	0
923	0	0
924	0	0
925	0	0
926	0	0
927	0	0
928	0	0
929	0	0
930	0	0
931	0	0
932	0	0
933	0	0
934	0	0
935	0	0
936	0	0
937	0	0
938	0	0
939	0	0
940	0	0
941	0	0
942	0	0
943	0	0
944	0	0
945	0	0
946	0	0
947	0	0
948	0	0
949	0	0
950	0	0
951	0	0
952	0	0
953	0	0
954	0	0
955	0	0
956	0	0
957	0	0
958	0	0
959	0	0
960	0	0
961	0	0
962	0	0
963	0	0
964	0	0
965	0	0
966	0	0
967	0	0
968	0	1
969	0	1
970	0	1
971	0	1
972	0	1
973	0	0.998283
974	0	0.998283
975	0	0.998283
976	0	0.998286
977	0	0.998286
978	0	0.998288
979	0	0.998288
980	0	0.996577
981	0	0.996577
982	0	0
983	0	0
984	0	0
985	0	0
986	0	0
987	0	0
988	0	0
989	0	0
990	0	0
991	0	0
992	0	0
993	0	0
994	0	0
995	0	0
996	0	0
997	0	0
998	0	0
999	0	0
1000	0	0
1001	0	0
1002	0	0
1003	0	0
1004	0	0
1005	0	0
1006	0	0
1007	0	0
1008	0	0
1009	0	0
1010	0	0
1011	0	0
1012	0	0
1013	0	0
1014	0	0
1015	0	0
1016	0	0
1017	0	0
1018	0	0
1019	0	0
1020	0	0
1021	0	0
1022	0	0
1023	0	0
1024	0	0
1025	0	0
1026	0	0
1027	0	0
1028	0	0
1029	0	0
1030	0	0
1031	0	0
1032	0	0
1033	0	0
1034	0	0
1035	0	0
1036	0	0
1037	0	0
1038	0	0
1039	0	0
1040	0	0
1041	0	0
1042	0	0
1043	0	0
1044	0	0
1045	0	0
1046	0	0
1047	0	0
1048	0	0
1049	0	0
1050	0	0
1051	0	0
1052	0	0
1053	0	0
1054	0	0
1055	0	0
1056	0	0
1057	0	0
1058	0	0
1059	0	0
1060	0	0
1061	0	0
1062	0	0
1063	0	0
1064	0	0
1065	0	0
1066	0	0
1067	0	0
1068	0	0
1069	0	0
1070	0	0
1071	0	0
1072	0	0
1073	0	0
1074	0	0
1075	0	0
1076	0	0
1077	0	0
1078	0	0
1079	0	0
1080	0	0
1081	0	0
1082	0	0
1083	0	0
1084	0	0
1085	0	0
1086	0	0
1087	0	0
1088	0	0
1089	0	0
1090	0	0
1091	0	0
1092	0	0
1093	0	0
1094	0	0
1095	0	0
1096	0	0
1097	0	0
1098	0	0
1099	0	0
1100	0	0
1101	0	0
1102	0	0
1103	0	0
1104	0	0
1105	0	0
1106	0	0
1107	0	0
1108	0	0
1109	0	0
1110	0	0
1111	0	0
1112	0	0
1113	0	0
1114	0	0
1115	0	0
1116	0	0
1117	0	0
1118	0	0
1119	0	0.993154
1120	0	0.993154
1121	0	0.993154
1122	0	0.991438
1123	0	0.993142
1124	0	1
1125	0	1
1126	0	1
1127	0	1
1128	0	1
1129	0	0.515152
1130	0	0.435897
1131	0	0.515152
1132	0	0.435897
1133	0	0.397436
1134	0	0.25731
1135	0	0.163743
1136	0	0.168421
1137	0	0.946272
1138	0	0
1139	0	0
1140	0	0
1141	0	0
1142	0	0
1143	0	0
1144	0	0
1145	0	0
1146	0	0.666667
1147	0	0.862543
1148	0	1
1149	0	0.3
1150	0	0.141026
1151	0	0.469728
1152	0	0
1153	0	0
1154	0	0
1155	0	0
1156	0	0
1157	0	0
1158	0	0.266667
1159	0	0.433958
1160	0	0.6
1161	0	0.333333
1162	0	0.348485
1163	0	0.443678
1164	0	0.316585
1165	0	0.178571
1166	0	0.175824
1167	0	0.152047
1168	0	0.211694
1169	0	0.178049
1170	0	0.196608
1171	0	0.239785
1172	0	0.208583
1173	0	0.320799
1174	0	0.32185
1175	0	0.309636
1176	0	0.443314
1177	0	0.948314
1178	0	0.799544
1179	0	0.0666667
1180	0	0.047619
1181	0	0.0666667
1182	0	0.138889
1183	0	0.444444
1184	0	0.290909
1185	0	0.828868
1186	0	0.1
1187	0	0.107143
1188	0	0.178571
1189	0	0.222222
1190	0	0.571429
1191	0	1
1192	0	1
1193	0	0.993148
1194	0	0.991438
1195	0	0.993142
1196	0	0.993142
1197	0	0.993142
1198	0	0.99485
1199	0	0.959481
1200	0	0
1201	0	0
1202	0	0
1203	0	0
1204	0	0
1205	0	0
1206	0	0
1207	0	0
1208	0	0
1209	0	0
1210	0	0
1211	0	0
1212	0	0
1213	0	0
1214	0	0
1215	0	0
1216	0	0
1217	0	0
1218	0	0.166667
1219	0	0.166667
1220	0	0.166667
1221	0	0.166667
1222	0	0.5
1223	0	0.5
1224	0	0.4
1225	0	0.510914
1226	0	0.166667
1227	0	0
1228	0	0
1229	0	0
1230	0	0
1231	0	0
1232	0	0
1233	0	0
1234	0	0
1235	0	0
1236	0	0
1237	0	0
1238	0	0
1239	0	0
1240	0	0
1241	0	0
1242	0	0
1243	0	0
1244	0	0
1245	0	0
1246	0	0
1247	0	0
1248	0	0
1249	0	0
1250	0	0
1251	0	0
1252	0	0
1253	0	0
1254	0	0
1255	0	0
1256	0	0
1257	0	0
1258	0	0
1259	0	0
1260	0	0
1261	0	0
1262	0	0
1263	0	0
1264	0	0
1265	0	0
1266	0	0
1267	0	0
1268	0	0
1269	0	0
1270	0	0
1271	0	0
1272	0	0
1273	0	0
1274	0	0
1275	0	0
1276	0	0
1277	0	0
1278	0	0
1279	0	0
1280	0	0
1281	0	0
1282	0	0
1283	0	0
1284	0	0
1285	0	0
1286	0	0
1287	0	0
1288	0	0
1289	0	0
1290	0	0
1291	0	0
1292	0	0
1293	0	0
1294	0	0
1295	0	0
1296	0	0
1297	0	0
1298	0	0
1299	0	0
1300	0	0
1301	0	0
1302	0	0
1303	0	0
1304	0	0
1305	0	0
1306	0	0
1307	0	0
1308	0	0
1309	0	0
1310	0	0
1311	0	0
1312	0	0
1313	0	0
1314	0	0
1315	0	0
1316	0	0
1317	0	0
1318	0	0
1319	0	0
1320	0	0
1321	0	0
1322	0	0
1323	0	0
1324	0	0
1325	0	0
1326	0	0
1327	0	0
1328	0	0
1329	0	0
1330	0	0
1331	0	0
1332	0	0
1333	0	0
1334	0	0
1335	0	0
1336	0	0
1337	0	0
1338	0	0
1339	0	0
1340	0	0
1341	0	0
1342	0	0
1343	0	0
1344	0	0
1345	0	0
1346	0	0
1347	0	0
1348	0	0
1349	0	0
1350	0	0
1351	0	0
1352	0	0
1353	0	0
1354	0	0
1355	0	0
1356	0	0
1357	0	0
1358	0	0
1359	0	0
1360	0	0
1361	0	0
1362	0	0
1363	0	0
1364	0	0
1365	0	0
1366	0	0
1367	0	0
1368	0	0
1369	0	0
1370	0	0
1371	0	0
1372	0	0
1373	0	0
1374	0	0
1375	0	0
1376	0	0
1377	0	0
1378	0	0
1379	0	0
1380	0	0
1381	0	0
1382	0	0
1383	0	0
1384	0	0
1385	0	0
1386	0	0
1387	0	0
1388	0	0
1389	0	0
1390	0	0
1391	0	0
1392	0	0
1393	0	0
1394	0	0
1395	0	0
1396	0	0
1397	0	0
1398	0	0
1399	0	0
1400	0	0
1401	0	0
1402	0	0
1403	0	0
1404	0	0
1405	0	0
1406	0	0
1407	0	0
1408	0	0
1409	0	0
1410	0	0
1411	0	0
1412	0	0
1413	0	0
1414	0	0
1415	0	0
1416	0	0
1417	0	0
1418	0	0
1419	0	0
1420	0	0
1421	0	0
1422	0	0
1423	0	0
1424	0	0
1425	0	0
1426	0	0
1427	0	0
1428	0	0
1429	0	0
1430	0	0
1431	0	0
1432	0	0
1433	0	0
1434	0	0
1435	0	0
1436	0	0
1437	0	0
1438	0	0
1439	0	0
1440	0	0
1441	0	0
1442	0	0
1443	0	0
1444	0	0
1445	0	0
1446	0	0
1447	0	0
1448	0	0
1449	0	0
1450	0	0
1451	0	0
1452	0	0
1453	0	0
1454	0	0
1455	0	0
1456	0	0
1457	0	0
1458	0	0
1459	0	0
1460	0	0
1461	0	0
1462	0	0
1463	0	0
1464	0	0
1465	0	0
1466	0	0.2
1467	0	0.333333
1468	0	0.333333
1469	0	0.333333
1470	0	1
1471	0	1
1472	0	0.998285
1473	0	1
1474	1	1
1475	1	1
1476	1	1
1477	1	1
1478	1	1
1479	0	1
1480	0	0.998289
1481	0	0.998289
1482	0	0.998289
1483	0	1
1484	0	1
1485	0	1
1486	0	1
1487	0	1
1488	0	1
1489	0	1
1490	0	1
1491	0	1
1492	0	1
1493	0	1
1494	0	1
1495	0	1
1496	0	0.428571
1497	0	0
1498	0	0
1499	0	0
1500	0	0
1501	0	0
1502	0	0
1503	0	0
1504	0	0
1505	0	0
1506	1	0
1507	1	0
1508	1	0
1509	0	0.984746
1510	0	1
1511	0	1
1512	0	0.863407
1513	0	0.6
1514	0	0.679645
1515	0	0
1516	0	0
1517	0	0
1518	0	0
1519	0	0.4
1520	0	0.4
1521	0	0.972976
1522	0	0.976318
1523	0	0.979702
1524	0	0.611111
1525	0	1
1526	0	0.996603
1527	0	0.996603
1528	0	0.996603
1529	0	0.996606
1530	0	0.994911
1531	0	0.996603
1532	0	0.895377
1533	0	0.895377
1534	0	0.893857
1535	0	0
1536	0	0
1537	0	0
1538	0	0
1539	0	0
1540	0	0
1541	0	0
1542	0	0
1543	0	0
1544	0	0
1545	0	0
1546	0	0
1547	0	0
1548	0	0
1549	0	0
1550	0	0
1551	0	0
1552	0	0
1553	0	0
1554	0	0
1555	0	0
1556	0	0
1557	0	0.99152
1558	0	0
1559	0	0.333333
1560	0	0.333333
1561	0	0.333333
1562	0	0
1563	0	0
1564	0	0
1565	0	0.166667
1566	0	0.166667
1567	0	0.166667
1568	0	0.166667
1569	0	0.166667
1570	0	0.166667
1571	0	0.549032
1572	0	0.166667
1573	0	0.989823
1574	0	0.333333
1575	0	0.333333
1576	0	0.333333
1577	0	0.333333
1578	0	0.333333
1579	0	0.333333
1580	0	1
1581	0	1
1582	0	1
1583	0	1
1584	0	1
1585	0	1
1586	0	1
1587	0	1
1588	0	1
1589	0	1
1590	0	1
1591	0	0.998299
1592	0	0.998301
1593	0	0.998301
1594	0	0.998302
1595	0	0.996609
1596	0	0.996609
1597	0	0.994915
1598	0	0
1599	0	0
1600	0	0
1601	0	0.998299
1602	0	0.996603
1603	0	0.996603
1604	0	0.998301
1605	0	0.998301
1606	0	0.998301
1607	0	0.998299
1608	0	0.996604
1609	0	0.996604
1610	0	1
1611	0	0.658333
1612	0	0.964733
1613	0	0.961416
1614	0	0
1615	0	0
1616	0	0
1617	0	0
1618	0	0
1619	0	0
1620	0	0
1621	0	0.75
1622	0	0.835555
1623	0	0.238095
1624	0	0.461538
1625	0	0.687407
1626	0	0.676109
1627	0	0
1628	0	0
1629	0	0
1630	0	0
1631	0	0.506337
1632	0	0.676471
1633	0	0.758333
1634	0	0.658333
1635	0	0.580882
1636	0	0.419118
1637	0	0.286765
1638	0	0.320513
1639	0	0.320513
1640	0	0.24359
1641	0	0.115385
1642	0	0.115385
1643	0	0.115385
1644	0	0.114286
1645	0	0.128205
1646	0	0.107143
1647	0	0.107143
1648	0	0.111111
1649	0	0.142857
1650	0	0.290909
1651	0	0.290909
1652	0	0.355556
1653	0	0.166667
1654	0	0.166667
1655	0	0
1656	0	0
1657	0	0
1658	0	0
1659	0	0
1660	0	0.961296
1661	0	0
1662	0	0
1663	0	0
1664	0	0
1665	0	0
1666	0	0
1667	0	0
1668	0	0
1669	0	0
1670	0	0
1671	0	0
1672	1	0
1673	1	0
1674	1	0
1675	0	0
1676	0	0
1677	0	0
1678	0	0
1679	0	0
1680	0	0
1681	0	0
1682	0	0
1683	0	0
1684	0	0
1685	0	0
1686	0	0
1687	0	0
1688	0	0
1689	0	0
1690	0	0
1691	0	0
1692	0	0
1693	0	0
1694	0	0
1695	0	0
1696	0	0
1697	0	0
1698	0	0
1699	0	0
1700	0	0
1701	1	0
1702	1	0
1703	1	0
1704	1	0
1705	0	0.976314
1706	0	0.976334
1707	0	0.9932
1708	0	0.994894
1709	0	0.993194
1710	0	0.991497
1711	0	0
1712	0	0
1713	0	0
1714	0	0.9898
1715	0	0
1716	0	0
1717	0	0
1718	0	0
1719	0	0
1720	0	0
1721	0	0
1722	0	0.654545
1723	0	0.474359
1724	0	0.84093
1725	0	0.760551
1726	0	0.357143
1727	0	0.285714
1728	0	0.285714
1729	0	0.285714
1730	0	0.142857
1731	0	0.285714
1732	0	0.285714
1733	0	0.4
1734	0	0.738076
1735	0	0.333333
1736	0	0.333333
1737	0	0.333333
1738	0	0.166667
1739	0	0.190476
1740	0	0.178571
1741	0	0.730926
1742	0	0.374359
1743	0	0.367949
1744	0	0.477733
1745	0	0.909625
1746	0	0.716908
1747	0	0.919218
1748	0	0.991505
1749	0	0.497903
1750	0	0
1751	0	0
1752	0	0
1753	0	0
1754	0	0
1755	0	0.333333
1756	0	0.333333
1757	0	0.4988
1758	0	0.498902
1759	0	0.498902
1760	0	0.498902
1761	0	0.498902
1762	0	0
1763	0	0
1764	0	0
1765	1	0
1766	1	0
1767	1	0
1768	1	0
1769	1	0
1770	1	0
1771	1	0
1772	1	0
1773	1	0
1774	0	0.49906
1775	0	0.681264
1776	0	0.679443
1777	0	0.978064
1778	0	0.981401
1779	0	0.333333
1780	0	0.333333
1781	0	0.333333
1782	0	0.987987
1783	0	0.978771
1784	0	0.399705
1785	0	0.966925
1786	0	0.723607
1787	0	0.98815
1788	0	0.991511
1789	0	0
1790	0	0
1791	0	0
1792	0	0
1793	0	0
1794	0	0
1795	0	0
1796	0	0
1797	1	0
1798	1	0
1799	1	0
1800	1	0
1801	1	0
1802	1	0
1803	1	0
1804	1	0
1805	1	0
1806	1	0
1807	1	0
1808	1	0
1809	1	0
1810	0	0
1811	0	0
1812	0	0
1813	0	0.991504
1814	0	0.991504
1815	0	0.9932
1816	0	0.991518
1817	0	0
1818	0	0
1819	0	0
1820	0	0
1821	0	0
1822	0	0
1823	0	0
1824	0	0
1825	0	0
1826	0	0
1827	0	0
1828	0	0
1829	0	0
1830	0	0
1831	0	0
1832	0	0
1833	0	0
1834	0	0.988156
1835	0	0
1836	0	0
1837	0	0
1838	0	0
1839	0	0
1840	0	0
1841	0	1
1842	0	0.994876
1843	0	0.989776
1844	0	0.986413
1845	0	1
1846	0	1
1847	0	0
1848	0	0
1849	0	0
1850	0	0
1851	0	0.98695
1852	0	1
1853	0	1
1854	0	1
1855	0	1
1856	0	1
1857	0	1
1858	1	1
1859	1	1
1860	1	1
1861	0	0.5
1862	0	0.3
1863	0	0.597027
1864	0	0.732355
1865	0	0.410782
1866	0	0.559377
1867	0	0.312924
1868	0	0.185288
1869	0	0.189617
1870	0	0.277778
1871	0	0.355556
1872	0	0.457143
1873	0	0.656212
1874	0	0.541995
1875	0	0
1876	0	0
1877	0	0
1878	0	0
1879	0	0
1880	0	1
1881	0	0.916667
1882	0	1
1883	0	0.910956
1884	0	0.915443
1885	0	0.689076
1886	0	0.820565
1887	0	0.333333
1888	0	1
1889	0	1
1890	0	1
1891	0	1
1892	0	0.996574
1893	0	0.996571
1894	0	0.994863
1895	0	0
1896	0	0
1897	0	0
1898	0	0
1899	0	0
1900	0	0
1901	0	0
1902	0	0
1903	0	0
1904	0	0
1905	0	0
1906	0	0.5
1907	0	0.988039
1908	0	0.989752
1909	0	0.989752
1910	0	0.989744
1911	0	0.988039
1912	0	0.986347
1913	0	0.986347
1914	0	0.986347
1915	0	0.988043
1916	0	0.988039
1917	0	0.988049
1918	0	0.988049
1919	0	0
1920	0	0
1921	0	0
1922	0	0
1923	0	0
1924	0	0
1925	0	0
1926	0	0
1927	0	0
1928	0	0.984604
1929	0	0.984604
1930	0	0.653611
1931	0	0.58
1932	0	0.438735
1933	0	0.568421
1934	0	0.594771
1935	0	0.573529
1936	0	0.573529
1937	0	0.65
1938	0	0.758333
1939	0	0.458333
1940	0	0.458333
1941	0	0.325
1942	0	0.175
1943	0	0.1
1944	0	0.0761905
1945	0	0.0761905
1946	0	0.0818713
1947	0	0.143791
1948	0	0.106061
1949	0	0.106061
1950	0	0.142857
1951	0	0.1
1952	0	0.1
1953	0	0.1
1954	0	0.1
1955	0	0.166667
1956	0	0.166667
1957	0	0.166667
1958	0	0.333333
1959	0	0.333333
1960	0	0.333333
1961	0	0.333333
1962	0	0.333333
1963	0	0.333333
1964	0	0
1965	0	0
1966	0	0
1967	0	0
1968	0	0
1969	0	0
1970	0	0
1971	0	0.371526
1972	0	0.39518
1973	0	0.429944
1974	0	0.429944
1975	0	0
1976	0	0
1977	0	0
1978	0	0.688675
1979	0	0.689086
1980	0	0.991438
1981	0	0.986367
1982	0	0.984683
1983	0	0.986379
1984	1	0
1985	1	0
1986	1	0
1987	1	0
1988	1	0
1989	1	0
1990	1	0
1991	1	0
1992	1	0
1993	1	0
1994	1	0
1995	1	0
1996	1	0
1997	1	0
1998	1	0
1999	1	0
2000	0	0.988075
2001	0	0
2002	0	0
2003	0	0
2004	0	0
2005	0	0
2006	0	0.989793
2007	0	0.988107
2008	0	0.988107
2009	0	0.989792
2010	0	0.991482
2011	0	0.994876
2012	0	0.994881
2013	0	0.994894
2014	0	0.9932
2015	0	0.9932
2016	0	0.9932
2017	0	0.994894
2018	0	0.993194
2019	0	0.993194
2020	0	0.993194
2021	0	0.994889
2022	0	0.994889
2023	0	0.994889
2024	0	0.9932
2025	0	0.991511
2026	0	0.991511
2027	0	0.991511
2028	0	0.333333
2029	0	0.333333
2030	0	1
2031	0	1
2032	0	1
2033	0	1
2034	0	1
2035	0	1
2036	0	1
2037	0	1
2038	0	1
2039	0	1
2040	0	1
2041	0	1
2042	0	1
2043	0	1
2044	0	1
2045	0	1
2046	0	1
2047	0	1
2048	0	1
2049	0	0
2050	0	0
2051	0	0.979707
2052	0	0
2053	0	0
2054	0	0
2055	0	0
2056	0	0
2057	0	0
2058	0	0.979725
2059	0	0.981391
2060	0	0
2061	0	0
2062	0	0
2063	0	0
2064	0	0
2065	0	0
2066	0	0
2067	0	0
2068	0	0
2069	0	0.983088
2070	0	0.98476
2071	0	0
2072	0	0
2073	0	0
2074	0	0
2075	0	0
2076	0	0
2077	0	0
2078	0	0
2079	0	0
2080	0	0
2081	0	0
2082	0	0
2083	0	0
2084	0	0
2085	0	0.166667
2086	0	0.984696
2087	0	0.987952
2088	0	0.914418
2089	0	0.912821
2090	0	0.922883
2091	0	0.26087
2092	0	0.25
2093	0	0.2
2094	0	0.3
2095	0	0.5
2096	0	0.5
2097	0	1
2098	0	0
2099	0	0
2100	0	0
2101	0	0
2102	0	0
2103	0	0
2104	0	0
2105	0	0
2106	0	0
2107	0	0
2108	0	0
2109	0	0
2110	0	0
2111	0	0
2112	0	0
2113	0	0
2114	0	0
2115	0	0
2116	0	0.720733
2117	0	0.4
2118	0	0
2119	0	0
2120	0	0
2121	0	0
2122	0	0
2123	0	0
2124	0	0
2125	0	0
2126	0	0
2127	0	0
2128	0	0
2129	0	0
2130	0	0
2131	0	0
2132	0	0
2133	0	0
2134	0	0
2135	0	0
2136	0	0
2137	0	0
2138	0	0
2139	0	1
2140	0	0.921472
2141	0	0.449275
2142	0	0.688406
2143	0	0.675889
2144	0	0.675889
2145	0	0.918736
2146	0	0.920458
2147	0	0
2148	0	0
2149	0	0
2150	0	0
2151	0	0
2152	0	0
2153	0	0
2154	0	0
2155	0	0
2156	0	0
2157	0	0
2158	0	0
2159	0	0
2160	0	0
2161	1	0
2162	1	0
2163	1	0
2164	1	0
2165	1	0
2166	1	0
2167	1	0
2168	0	0
2169	0	0
2170	0	0
2171	0	0
2172	0	0
2173	0	0
2174	0	0
2175	0	0
2176	1	0
2177	1	0
2178	0	0
2179	0	0
2180	0	0
2181	0	0
2182	0	0
2183	0	0
2184	0	0
2185	0	0
2186	0	0
2187	0	0
2188	0	0
2189	0	0
2190	0	0
2191	0	0
2192	0	0
2193	0	0
2194	0	0
2195	0	0
2196	0	0
2197	0	0
2198	0	0
2199	0	0
2200	0	0
2201	0	0
2202	0	0
2203	0	0
2204	0	0
2205	0	0
2206	0	0
2207	0	0
2208	0	0
2209	0	0
2210	0	0
2211	0	0
2212	0	0
2213	0	0
2214	0	0
2215	0	0
2216	0	0
2217	0	0
2218	0	0
2219	0	0
2220	0	0
2221	0	0
2222	0	0
2223	0	0
2224	0	0
2225	0	0
2226	0	0
2227	0	0
2228	0	0
2229	0	0
2230	0	0
2231	0	0
2232	0	0
2233	0	0
2234	0	0
2235	0	0
2236	0	0
2237	0	0
2238	0	0
2239	0	0
2240	0	0
2241	0	0
2242	0	0
2243	0	0
2244	0	0
2245	0	0
2246	0	0
2247	0	0
2248	0	0
2249	0	0
2250	0	0.773333
2251	0	0.880682
2252	0	0.828877
2253	0	0.833613
2254	0	0.842342
2255	0	0.842342
2256	0	0.977994
2257	0	0.977994
2258	0	0.976344
2259	0	0.976344
2260	0	0.986424
2261	0	0.988095
2262	0	0.988095
2263	0	0.6
2264	0	0.6
2265	0	0.6
2266	0	0.6
2267	0	0.3
2268	0	0.1
2269	0	0.1
2270	0	0.1
2271	0	0.1
2272	0	0.166667
2273	0	0.166667
2274	0	0.166667
2275	0	0.166667
2276	0	0.166667
2277	0	0.166667
2278	0	0.166667
2279	0	0.166667
2280	0	1
2281	0	0.666427
2282	0	0
2283	0	0
2284	0	0
2285	0	0
2286	0	0
2287	0	0
2288	0	0
2289	0	0
2290	0	0
2291	0	0
2292	0	0
2293	0	0
2294	0	0
2295	0	0
2296	0	0
2297	0	0
2298	0	0
2299	0	0
2300	0	0
2301	0	0.981297
2302	0	0.981297
2303	0	0
2304	0	0
2305	0	0
2306	0	0
2307	0	0
2308	0	0
2309	0	0
2310	0	0
2311	0	0.976347
2312	0	0.976347
2313	0	0
2314	0	0
2315	0	0
2316	0	0
2317	0	0
2318	0	0
2319	0	0
2320	0	0
2321	0	0
2322	0	0
2323	0	0
2324	0	0
2325	0	0
2326	0	0
2327	0	0
2328	0	0
2329	0	0
2330	0	0
2331	0	0
2332	0	0
2333	0	0
2334	0	0
2335	0	0
2336	0	0
2337	0	0
2338	0	0
2339	0	0
2340	0	0
2341	0	0
2342	0	0.981329
2343	0	0.98302
2344	0	0.98302
2345	0	0.98302
2346	0	0.98302
2347	0	0
2348	0	0
2349	0	0
2350	0	0
2351	0	0.979623
2352	0	0.979623
2353	0	0.981281
2354	0	0.976266
2355	0	0.974603
2356	0	0.974603
2357	0	0.974603
2358	0	0.974603
2359	0	0
2360	0	0
2361	0	0
2362	0	0
2363	0	0
2364	0	0
2365	0	0
2366	0	0
2367	0	0
2368	0	0
2369	0	0
2370	0	0
2371	0	0
2372	0	0
2373	0	0
2374	0	0.976266
2375	0	0
2376	0	0
2377	0	0
2378	0	0.977938
2379	0	0.972971
2380	0	0
2381	0	0
2382	0	0
2383	0	0
2384	0	0
2385	0	0
2386	0	0
2387	0	0
2388	0	0
2389	0	0
2390	0	0
2391	0	0.333333
2392	0	0.333333
2393	0	0.969568
2394	0	0.047619
2395	0	0.047619
2396	0	0.971171
2397	0	0
2398	0	0
2399	0	0
2400	0	0
2401	0	0
2402	0	0
2403	0	0
2404	0	0
2405	0	0
2406	0	0.961259
2407	0	0
2408	0	0
2409	0	0
2410	0	0
2411	0	0
2412	0	0
2413	0	0
2414	0	0
2415	0	0
2416	0	0
2417	0	0
2418	0	0
2419	0	0
2420	0	0
2421	0	0
2422	0	0
2423	0	0
2424	0	0
2425	0	0
2426	0	0
2427	0	0
2428	0	0
2429	0	0
2430	0	0
2431	0	0
2432	0	0
2433	0	0
2434	0	0
2435	0	0
2436	0	0
2437	0	0
2438	0	0
2439	0	0
2440	0	0
2441	0	0
2442	0	0
2443	0	0.976145
2444	0	0.976145
2445	0	0.976145
2446	0	0.977821
2447	0	0.977821
2448	0	0
2449	0	0
2450	0	0
2451	0	0
2452	0	0
2453	0	0
2454	0	0
2455	0	0
2456	0	0
2457	0	0
2458	0	0
2459	0	0
2460	0	0
2461	0	0
2462	0	0
2463	0	0
2464	0	0
2465	0	0
2466	0	0
2467	0	0
2468	0	0
2469	0	0
2470	0	0
2471	0	0
2472	0	0
2473	0	0
2474	0	0
2475	0	0
2476	0	0
2477	0	0
2478	0	0
2479	0	0
2480	0	0
2481	0	0
2482	0	0
2483	0	0
2484	0	0
2485	0	0
2486	0	0
2487	0	0
2488	0	0
2489	0	0
2490	0	0
2491	0	0
2492	0	0
2493	0	0
2494	0	0
2495	0	0
2496	0	0
2497	0	0
2498	0	0
2499	0	0
2500	0	0
2501	0	0
2502	0	0
2503	0	0
2504	0	0
2505	0	0
2506	0	0
2507	0	0
2508	0	0
2509	0	0
2510	0	0
2511	0	0
2512	0	0
2513	0	0
2514	0	0
2515	0	0
2516	0	0.976043
2517	0	0.928088
2518	0	0.923292
2519	0	0
2520	0	0
2521	0	0
2522	0	0
2523	0	0
2524	0	0
2525	0	0
2526	0	0
2527	0	0
2528	0	0
2529	0	0
2530	0	0
2531	0	0
2532	0	0
2533	0	0
2534	0	0
2535	0	0
2536	0	0
2537	0	0
2538	0	0
2539	0	0
2540	0	0
2541	0	0
2542	0	0
2543	0	0
2544	0	0
2545	0	0.966792
2546	0	0
2547	0	0
2548	0	0
2549	0	0
2550	0	0
2551	0	0
2552	0	0
2553	0	0
2554	0	0.956114
2555	0	0
2556	0	0
2557	0	0.960959
2558	0	0
2559	0	0
2560	0	0
2561	0	0
2562	0	0
2563	0	0
2564	0	0
2565	0	0
2566	0	0
2567	0	0
2568	0	0
2569	0	0
2570	0	0
2571	0	0
2572	0	0
2573	0	0
2574	0	0
2575	0	0
2576	0	0
2577	0	0
2578	0	0
2579	0	0
2580	0	0
2581	0	0
2582	0	0
2583	0	0
2584	0	0
2585	0	0
2586	0	0
2587	0	0
2588	0	0
2589	0	0
2590	0	0
2591	0	0
2592	0	0
2593	0	0
2594	0	0
2595	0	0
2596	0	0
2597	0	0
2598	0	0
2599	0	0
2600	0	0
2601	0	0
2602	0	0
2603	0	0
2604	0	0
2605	0	0
2606	0	0
2607	0	0
2608	0	0
2609	0	0
2610	0	0
2611	0	0
2612	0	0
2613	0	0
2614	0	0
2615	0	0
2616	0	0
2617	0	0
2618	0	0
2619	0	0
2620	0	0
2621	0	0
2622	0	0
2623	0	0
2624	0	0
2625	0	0
2626	0	0
2627	0	0
2628	0	0
2629	0	0
2630	0	0
2631	0	0
2632	0	0
2633	0	0
2634	0	0
2635	0	0
2636	0	0
2637	0	0
2638	0	0
2639	0	0
2640	0	0
2641	0	0
2642	0	0
2643	0	0
2644	0	0
2645	0	0
2646	0	0
2647	0	0
2648	0	0
2649	0	0
2650	0	0
2651	0	0
2652	0	0
2653	0	0
2654	0	0
2655	0	0
2656	0	0
2657	0	0
2658	0	0
2659	0	0
2660	0	0
2661	0	0
2662	0	0
2663	0	0
2664	0	0
2665	0	0
2666	0	0
2667	0	0
2668	0	0
2669	0	0
2670	0	0
2671	0	0
2672	0	0
2673	0	0
2674	0	0
2675	0	0
2676	0	0
2677	0	0
2678	0	0
2679	0	0
2680	0	0
2681	0	0
2682	0	0
2683	0	0
2684	0	0
2685	0	0
2686	0	0
2687	0	0
2688	0	0
2689	0	0
2690	0	0
2691	0	0
2692	0	0
2693	0	0
2694	0	0
2695	0	0
2696	0	0
2697	0	0
2698	0	0
2699	0	0
2700	0	0
2701	0	0
2702	0	0
2703	0	0
2704	0	0
2705	0	0
2706	0	0
2707	0	0
2708	0	0
2709	0	0
2710	0	0
2711	0	0
2712	0	0
2713	0	0
2714	0	0
2715	0	0
2716	0	0
2717	0	0
2718	0	0
2719	0	0
2720	0	0
2721	0	0
2722	0	0
2723	0	0
2724	0	0
2725	0	0
2726	0	0
2727	0	0
2728	0	0
2729	0	0
2730	0	0
2731	0	0.955961
2732	0	0.583333
2733	0	0.535714
2734	0	0.535714
2735	0	0.535714
2736	0	0.535714
2737	0	0.535714
2738	0	0.535714
2739	0	0.357143
2740	0	0.357143
2741	0	0.357143
2742	0	0.357143
2743	0	0.357143
2744	0	0.357143
2745	0	0.285714
2746	0	0.285714
2747	0	0.4
2748	0	0.166667
2749	0	0.166667
2750	0	0
2751	0	0
2752	0	0
2753	0	0
2754	0	0
2755	0	0
2756	0	0
2757	0	0
2758	0	0
2759	0	0
2760	0	0
2761	0	0
2762	0	0
2763	0	0
2764	0	0
2765	0	0
2766	0	0
2767	0	0
2768	1	0
2769	0	0
2770	0	0
2771	0	0
2772	0	0
2773	0	0
2774	0	0
2775	0	0
2776	0	0
2777	0	0
2778	0	0
2779	0	0
2780	0	0
2781	0	0
2782	0	0
2783	0	0
2784	0	0
2785	0	0
2786	0	0
2787	0	0
2788	0	0
2789	0	0
2790	0	0
2791	0	0
2792	0	0
2793	0	0
2794	0	0
2795	0	0
2796	0	0
2797	0	0
2798	0	0
2799	0	0
2800	0	0
2801	0	0
2802	0	0
2803	0	0
2804	0	0
2805	0	0
2806	0	0
2807	0	0
2808	0	0
2809	0	0
2810	0	0
2811	0	0
2812	0	0
2813	0	0
2814	0	0
2815	0	0
2816	0	0.939289
2817	0	0
2818	0	0
2819	0	0
2820	0	0
2821	0	0
2822	0	0
2823	0	0
2824	0	0
2825	0	0
2826	0	0
2827	0	0
2828	0	0
2829	0	0
2830	0	0
2831	0	0
2832	0	0
2833	0	0
2834	0	0
2835	0	0
2836	0	0
2837	0	0
2838	0	0
2839	0	0.357143
2840	0	0.4
2841	0	0
2842	0	0
2843	0	0
2844	0	0
2845	0	0
2846	0	0
2847	0	0
2848	0	0
2849	0	0
2850	0	0
2851	0	0
2852	0	0
2853	0	0
2854	0	0
2855	0	0
2856	0	0
2857	0	0
2858	0	0
2859	0	0
2860	0	0
2861	0	0
2862	0	0
2863	0	0
2864	0	0
2865	0	0
2866	0	0
2867	0	0
2868	0	0
2869	0	0.107143
2870	0	0.107143
2871	0	0.107143
2872	0	0.107143
2873	0	0.0833333
2874	0	0.0833333
2875	0	0.0833333
2876	0	0.0666667
2877	0	0.0666667
2878	0	0.0666667
2879	0	0.0666667
2880	0	0.0666667
2881	0	0.0888889
2882	0	0.0888889
2883	0	0.0888889
2884	0	0.0888889
2885	0	0.0888889
2886	0	0.0727273
2887	0	0.0727273
2888	0	0.0727273
2889	0	0.0727273
2890	0	0.0727273
2891	0	0.0727273
2892	0	0.0727273
2893	0	0.0727273
2894	0	0.0727273
2895	0	0.0727273
2896	0	0.0727273
2897	0	0.0727273
2898	0	0.0727273
2899	0	0.0727273
2900	0	0.0727273
2901	0	0.0727273
2902	0	0.0727273
2903	0	0.0727273
2904	0	0.0727273
2905	0	0.0727273
2906	0	0.0727273
2907	0	0.0727273
2908	0	0.0549451
2909	0	0.047619
2910	0	0.047619
2911	0	0.047619
2912	0	0.047619
2913	0	0.047619
2914	0	0.047619
2915	0	0.935384
2916	0	0.932105
2917	0	0
2918	0	0
2919	0	0
2920	0	0
2921	0	0
2922	0	0
2923	0	0
2924	0	0
2925	0	0
2926	0	0
2927	0	0
2928	0	0
2929	0	0
2930	0	0
2931	0	0
2932	0	0
2933	0	0
2934	0	0
2935	0	0
2936	0	0
2937	0	0
2938	0	0
2939	0	0
2940	0	0
2941	0	0
2942	0	0
2943	0	0
2944	0	0
2945	0	0
2946	0	0
2947	0	0
2948	0	0
2949	0	0
2950	0	0
2951	0	0
2952	0	0
2953	0	0
2954	0	0
2955	0	0
2956	0	0
2957	0	0
2958	0	0
2959	0	0
2960	0	0
2961	0	0
2962	0	0
2963	0	0
2964	0	0
2965	0	0.647606
2966	0	0.722801
2967	0	0.722534
2968	0	0.706113
2969	0	0.646441
2970	0	0.646441
2971	0	0.542792
2972	0	0.166667
2973	0	0.127273
2974	0	0.0357143
2975	0	0.0357143
2976	0	0.0357143
2977	0	0.0357143
2978	0	0.0357143
2979	0	0.0357143
2980	0	0.0357143
2981	0	0.0357143
2982	0	0.0357143
2983	0	0.0357143
2984	0	0.0357143
2985	0	0.0357143
2986	0	0.0357143
2987	0	0.0357143
2988	0	0.0357143
2989	0	0.0357143
2990	0	0.0357143
2991	0	0.0357143
2992	0	0.526577
2993	0	0.1
2994	0	0.1
2995	0	0.1
2996	0	0.1
2997	0	0.0666667
2998	0	0.0714286
2999	0	0.12069
3000	0	0.114943
3001	0	0.0369231
3002	0	0.0473118
3003	0	0.093432
3004	0	0.0957501
3005	0	0.144567
3006	0	0.125247
3007	0	0.104466
3008	0	0.10209
3009	0	0.10807
3010	0	0.0988035
3011	0	0.257331
3012	0	0.111111
3013	0	0.111111
3014	0	0.111111
3015	0	0.111111
3016	0	0.111111
3017	0	0.0714286
3018	0	0.0714286
3019	0	0.0357143
3020	0	0.0357143
3021	0	0.0357143
3022	0	0.0357143
3023	0	0.0357143
3024	0	0.0714286
3025	0	0.0714286
3026	0	0.0714286
3027	0	0.0714286
3028	0	0.111111
3029	0	0.111111
3030	0	0.111111
3031	0	0.111111
3032	0	0.0909091
3033	0	0.0909091
3034	0	0.0909091
3035	0	0.0769231
3036	0	0.0571429
3037	0	0.0909091
3038	0	0.248251
3039	0	0.30303
3040	0	0.273118
3041	0	0.193676
3042	0	0.131579
3043	0	0.111111
3044	0	0.0915033
3045	0	0.0915033
3046	0	0.0735294
3047	0	0.0766129
3048	0	0.0766129
3049	0	0.0597701
3050	0	0.0396825
3051	0	0.0405405
3052	0	0.0340909
3053	0	0.0252874
3054	0	0.0265152
3055	0	0.372783
3056	0	0.0289855
3057	0	0.0116959
3058	0	0.0130719
3059	0	0.00735294
3060	0	0.00833333
3061	0	0.00952381
3062	0	0.00952381
3063	0	0.00952381
3064	0	0.00952381
3065	0	0.00952381
3066	0	0.544056
3067	0	0.346864
3068	0	0.282278
3069	0	0.18403
3070	0	0.122926
3071	0	0.107993
3072	0	0.0969697
3073	0	0.10122
3074	0	0.095122
3075	0	0.0528736
3076	0	0.046798
3077	0	0.0541311
3078	0	0.0512821
3079	0	0.0461538
3080	0	0.0355731
3081	0	0.0350877
3082	0	0.0261438
3083	0	0.0220588
3084	0	0.0294118
3085	0	0.025
3086	0	0.025
3087	0	0.0190476
3088	0	0.021978
3089	0	0.0380952
3090	0	0.0380952
3091	0	0.0380952
3092	0	0.043956
3093	0	0.043956
3094	0	0.043956
3095	0	0.0512821
3096	0	0.0512821
3097	0	0.0606061
3098	0	0.0606061
3099	0	0.0606061
3100	0	0.0606061
3101	0	0.0606061
3102	0	0.0606061
3103	0	0.0606061
3104	0	0.0606061
3105	0	0.0606061
3106	0	0.0727273
3107	0	0.0727273
3108	0	0.0727273
3109	0	0.0727273
3110	0	0.0727273
3111	0	0.0727273
3112	0	0.0727273
3113	0	0.0727273
3114	0	0.0727273
3115	0	0.0727273
3116	0	0.0727273
3117	0	0.0727273
3118	0	0.0727273
3119	0	0.0727273
3120	0	0.0727273
3121	0	0.0727273
3122	0	0.0727273
3123	0	0.0727273
3124	0	0.0727273
3125	0	0.0727273
3126	0	0.0727273
3127	0	0.0727273
3128	0	0.0727273
3129	0	0.0727273
3130	0	0.0727273
3131	0	0.0727273
3132	0	0.0727273
3133	0	0.0727273
3134	0	0.0727273
3135	0	0.0727273
3136	0	0.0727273
3137	0	0.0606061
3138	0	0.0606061
3139	0	0.0606061
3140	0	0.0606061
3141	0	0.0606061
3142	0	0.0606061
3143	0	0.0606061
3144	0	0.0606061
3145	0	0.0606061
3146	0	0.0606061
3147	0	0.106061
3148	0	0.106061
3149	0	0.106061
3150	0	0.106061
3151	0	0.106061
3152	0	0.106061
3153	0	0.106061
3154	0	0.106061
3155	0	0.106061
3156	0	0.106061
3157	0	0.0454545
3158	0	0.0606061
3159	0	0.0606061
3160	0	0.0454545
3161	0	0.0454545
3162	0	0.0606061
3163	0	0.0606061
3164	0	0.0606061
3165	0	0.0606061
3166	0	0.0606061
3167	0	0.0606061
3168	0	0.0606061
3169	0	0.0606061
3170	0	0.0606061
3171	0	0.0606061
3172	0	0.0606061
3173	0	0.0606061
3174	0	0.0606061
3175	0	0.0606061
3176	0	0.0606061
3177	0	0.0606061
3178	0	0.0727273
3179	0	0.0727273
3180	0	0.0727273
3181	0	0.0545455
3182	0	0.0727273
3183	0	0.0727273
3184	0	0.0727273
3185	0	0.0888889
3186	0	0.0888889
3187	0	0.0888889
3188	0	0.0888889
3189	0	0.0888889
3190	0	0.0888889
3191	0	0.0888889
3192	0	0.0888889
3193	0	0.155556
3194	0	0.155556
3195	0	0.155556
3196	0	0.133333
3197	0	0.214286
3198	0	0.214286
3199	0	0.214286
3200	0	0.214286
3201	0	0.214286
3202	0	0.214286
3203	0	0.214286
3204	0	0.107143
3205	0	0.107143
3206	0	0.107143
3207	0	0.107143
3208	0	0.107143
3209	0	0.107143
3210	0	0.107143
3211	0	0.107143
3212	0	0.142857
3213	0	0.142857
3214	0	0.142857
3215	0	0.142857
3216	0	0.142857
3217	0	0.142857
3218	0	0.142857
3219	0	0.142857
3220	0	0.142857
3221	0	0.142857
3222	0	0.142857
3223	0	0.142857
3224	0	0.142857
3225	0	0.142857
3226	0	0.142857
3227	0	0.142857
3228	0	0.142857
3229	0	0.142857
3230	0	0.142857
3231	0	0.142857
3232	0	0
3233	0	0
3234	0	0
3235	0	0
3236	0	0
3237	0	0
3238	0	0
3239	0	0
3240	0	0
3241	0	0
3242	0	0
3243	0	0
3244	0	0
3245	0	0
3246	0	0
3247	0	0
3248	0	0
3249	0	0.047619
3250	0	0
3251	0	0
3252	0	0
3253	0	0
3254	0	0
3255	0	0
3256	0	0
3257	0	0
3258	0	0
3259	0	0
3260	0	0
3261	0	0
3262	0	0
3263	0	0
3264	0	0
3265	0	0
3266	0	0
3267	0	0
3268	0	0
3269	0	0
3270	0	0
3271	0	0
3272	0	0
3273	0	0
3274	0	0
3275	0	0
3276	0	0
3277	0	0
3278	0	0
3279	0	0
3280	0	0
3281	0	0
3282	0	0
3283	0	0
3284	0	0
3285	0	0
3286	0	0
3287	0	0
3288	0	0
3289	0	0
3290	0	0
3291	0	0
3292	0	0
3293	0	0
3294	0	0
3295	0	0
3296	0	0
3297	0	0
3298	0	0
3299	0	0
3300	0	0
3301	0	0
3302	0	0
3303	0	0
3304	0	0
3305	0	0
3306	0	0
3307	0	0
3308	0	0
3309	0	0
3310	0	0
3311	0	0
3312	0	0
3313	0	0
3314	0	0
3315	0	0
3316	0	0
3317	0	0
3318	0	0
3319	0	0
3320	0	0
3321	0	0
3322	0	0
3323	0	0
3324	0	0
3325	0	0
3326	0	0
3327	0	0
3328	0	0
3329	0	0
3330	0	0
3331	0	0
3332	0	0
3333	0	0
3334	0	0
3335	0	0
3336	0	0
3337	0	0
3338	0	0
3339	0	0
3340	0	0
3341	0	0
3342	0	0
3343	0	0
3344	0	0
3345	0	0
3346	0	0
3347	0	0
3348	0	0
3349	0	0
3350	0	0
3351	0	0
3352	0	0
3353	0	0
3354	0	0
3355	0	0
3356	0	0
3357	0	0
3358	0	0
3359	0	0
3360	0	0
3361	0	0
3362	0	0
3363	0	0
3364	0	0
3365	0	0
3366	0	0
3367	0	0
3368	0	0
3369	0	0
3370	0	0
3371	0	0
3372	0	0
3373	0	0
3374	0	0
3375	0	0
3376	0	0
3377	0	0
3378	0	0
3379	0	0
3380	0	0
3381	0	0
3382	0	0
3383	0	0
3384	0	0
3385	0	0
3386	0	0
3387	0	0
3388	0	0
3389	0	0
3390	0	0
3391	0	0
3392	0	0
3393	0	0
3394	0	0
3395	0	0
3396	0	0
3397	0	0
3398	0	0
3399	0	0
3400	0	0
3401	0	0
3402	0	0
3403	0	0
3404	0	0
3405	0	0
3406	0	0
3407	0	0
3408	0	0
3409	0	0
3410	0	0
3411	0	0
3412	0	0
3413	0	0
3414	0	0
3415	0	0
3416	0	0
3417	0	0
3418	0	0
3419	0	0
3420	0	0
3421	0	0
3422	0	0
3423	0	0
3424	0	0
3425	0	0
3426	0	0
3427	0	0
3428	0	0
3429	0	0
3430	0	0
3431	0	0
3432	0	0
3433	0	0
3434	0	0
3435	0	0
3436	0	0
3437	0	0
3438	0	0
3439	0	0
3440	0	0
3441	0	0
3442	0	0
3443	0	0
3444	0	0
3445	0	0
3446	0	0
3447	0	0
3448	0	0
3449	0	0
3450	0	0
3451	0	0
3452	0	0
3453	0	0
3454	0	0
3455	0	0
3456	0	0
3457	0	0
3458	0	0
3459	0	0
3460	0	0
3461	0	0
3462	0	0
3463	0	0
3464	0	0
3465	0	0
3466	0	0
3467	0	0
3468	0	0
3469	0	0
3470	0	0
3471	0	0
3472	0	0
3473	0	0
3474	0	0
3475	0	0
3476	0	0
3477	0	0
3478	0	0
3479	0	0
3480	0	0
3481	0	0
3482	0	0
3483	0	0
3484	0	0
3485	0	0
3486	0	0
3487	0	0
3488	0	0
3489	0	0
3490	0	0
3491	0	0
3492	0	0
3493	0	0
3494	0	0
3495	0	0
3496	0	0
3497	0	0
3498	0	0
3499	0	0
3500	0	0
3501	0	0
3502	0	0
3503	0	0
3504	0	0
3505	0	0
3506	0	0
3507	0	0
3508	0	0
3509	0	0
3510	0	0
3511	0	0
3512	0	0
3513	0	0
3514	0	0
3515	0	0
3516	0	0
3517	0	0
3518	0	0
3519	0	0
3520	0	0
3521	0	0
3522	0	0
3523	0	0
3524	0	0
3525	0	0
3526	0	0
3527	0	0
3528	0	0
3529	0	0
3530	0	0
3531	0	0
3532	0	0
3533	0	0
3534	0	0
3535	0	0
3536	0	0
3537	0	0
3538	0	0
3539	0	0
3540	0	0
3541	0	0
3542	0	0
3543	0	0
3544	0	0
3545	0	0
3546	0	0
3547	0	0
3548	0	0
3549	0	0
3550	0	0
3551	0	0
3552	1	0
3553	1	0
3554	1	0
3555	1	0
3556	1	0
3557	1	0
3558	1	0
3559	1	0
3560	1	0
3561	1	0
3562	1	0
3563	1	0
3564	1	0
3565	1	0
3566	1	0
3567	1	0
3568	1	0
3569	1	0
3570	1	0
3571	1	0
3572	1	0
3573	1	0
3574	1	0
3575	1	0
3576	1	0
3577	1	0
3578	1	0
3579	1	0
3580	0	0
3581	0	0
3582	0	0
3583	0	0
3584	0	0
3585	0	0
3586	0	0
3587	0	0
3588	0	0
3589	0	0
3590	0	0
3591	0	0
3592	0	0
3593	0	0
3594	0	0
3595	0	0
3596	0	0
3597	0	0
3598	0	0
3599	0	0
3600	0	0
3601	0	0
3602	0	0
3603	0	0
3604	0	0
3605	0	0
3606	0	0
3607	0	0
3608	0	0
3609	0	0
3610	0	0
3611	0	0
3612	0	0
3613	0	0
3614	0	0
3615	0	0
3616	0	0
3617	0	0
3618	0	0
3619	0	0
3620	0	0
3621	0	0
3622	0	0
3623	0	0
3624	0	0
3625	0	0
3626	0	0
3627	0	0
3628	0	0
3629	0	0
3630	0	0
3631	0	0
3632	1	0
3633	1	0
3634	1	0
3635	1	0
3636	1	0
3637	1	0
3638	1	0
3639	1	0
3640	1	0
3641	1	0
3642	1	0
3643	1	0
3644	1	0
3645	1	0
3646	1	0
3647	1	0
3648	1	0
3649	1	0
3650	0	0
3651	0	0
3652	0	0
3653	0	0
3654	0	0
3655	0	0
3656	1	0
3657	1	0
3658	0	0
3659	0	0
3660	1	0
3661	1	0
3662	0	0
3663	0	0
3664	0	0
3665	0	0
3666	0	0
3667	0	0
3668	0	0
3669	0	0
3670	0	0
3671	0	0
3672	1	0
3673	1	0
3674	1	0
3675	1	0
3676	1	0
3677	1	0
3678	1	0
3679	1	0
3680	1	0
3681	1	0
3682	1	0
3683	1	0
3684	1	0
3685	1	0
3686	1	0
3687	1	0
3688	1	0
