Site	ColumnScore	SumOfPairsScore
1	1	1
2	1	1
3	1	1
4	1	1
5	1	1
6	1	1
7	1	1
8	1	1
9	1	1
10	1	1
11	1	1
12	1	1
13	1	1
14	1	1
15	1	1
16	1	1
17	1	1
18	1	1
19	1	1
20	1	1
21	1	1
22	1	1
23	1	1
24	1	1
25	1	1
26	0	1
27	0	1
28	0	1
29	0	1
30	1	1
31	1	1
32	1	1
33	1	1
34	1	1
35	1	1
36	1	1
37	1	1
38	1	1
39	1	1
40	1	1
41	1	1
42	1	1
43	1	1
44	1	1
45	1	1
46	1	1
47	1	1
48	1	1
49	1	1
50	1	1
51	1	1
52	1	1
53	1	1
54	1	1
55	1	1
56	1	1
57	1	1
58	1	1
59	1	1
60	1	1
61	1	1
62	1	1
63	1	1
64	1	1
65	1	1
66	1	1
67	1	1
68	1	1
69	1	1
70	1	1
71	1	1
72	1	1
73	1	1
74	1	1
75	1	1
76	1	1
77	1	1
78	1	1
79	1	1
80	1	1
81	1	1
82	1	1
83	1	1
84	1	1
85	1	1
86	1	1
87	1	1
88	1	1
89	1	1
90	0	1
91	0	1
92	0	1
93	0	1
94	0	1
95	0	1
96	0	1
97	0	1
98	0	1
99	0	1
100	0	1
101	0	1
102	0	1
103	0	1
104	0	1
105	0	1
106	0	1
107	0	1
108	0	1
109	0	1
110	1	1
111	1	1
112	1	1
113	1	1
114	1	1
115	0	1
116	0	1
117	0	1
118	0	1
119	0	1
120	0	1
121	0	1
122	0	1
123	0	1
124	0	1
125	0	1
126	0	1
127	0	1
128	0	1
129	0	1
130	0	1
131	0	1
132	1	1
133	1	1
134	1	1
135	1	1
136	1	1
137	1	1
138	1	1
139	1	1
140	1	1
141	1	1
142	0	1
143	0	1
144	0	1
145	0	1
146	0	1
147	0	1
148	1	1
149	1	1
150	1	1
151	0	1
152	0	1
153	0	1
154	0	1
155	0	1
156	0	1
157	0	1
158	0	1
159	0	1
160	0	1
161	0	1
162	0	1
163	0	1
164	0	1
165	0	1
166	0	1
167	0	1
168	1	1
169	1	1
170	0	1
171	0	1
172	0	1
173	0	1
174	0	1
175	0	1
176	0	1
177	0	1
178	0	1
179	0	1
180	0	1
181	0	1
182	0	1
183	0	1
184	0	1
185	0	1
186	0	1
187	0	1
188	0	1
189	0	1
190	0	1
191	0	1
192	0	1
193	0	1
194	0	1
195	0	1
196	0	1
197	0	1
198	0	1
199	0	1
200	1	1
201	1	1
202	1	1
203	1	1
204	1	1
205	1	1
206	1	1
207	1	1
208	1	1
209	1	1
210	1	1
211	1	1
212	1	1
213	1	1
214	1	1
215	1	1
216	1	1
217	0	1
218	0	1
219	0	1
220	0	1
221	0	1
222	0	1
223	0	1
224	0	1
225	1	1
226	1	1
227	1	1
228	1	1
229	1	1
230	1	1
231	1	1
232	1	1
233	1	1
234	1	1
235	1	1
236	1	1
237	1	1
238	1	1
239	1	1
240	0	1
241	0	1
242	1	1
243	0	1
244	1	1
245	1	1
246	1	1
247	1	1
248	0	1
249	0	1
250	0	1
251	0	1
252	0	1
253	0	1
254	0	1
255	0	1
256	0	1
257	0	1
258	0	1
259	0	1
260	0	1
261	0	1
262	0	1
263	0	1
264	0	1
265	0	1
266	0	1
267	0	1
268	0	1
269	0	1
270	0	1
271	0	1
272	0	1
273	0	1
274	0	1
275	0	1
276	0	1
277	0	1
278	0	1
279	1	1
280	0	1
281	0	1
282	0	1
283	0	1
284	1	1
285	1	1
286	1	1
287	1	1
288	1	1
289	1	1
290	1	1
291	1	1
292	1	1
293	1	1
294	1	1
295	1	1
296	1	1
297	1	1
298	1	1
299	1	1
300	1	1
301	1	1
302	1	1
303	1	1
304	1	1
305	0	1
306	0	1
307	0	1
308	0	1
309	0	1
310	0	1
311	0	1
312	0	1
313	0	1
314	0	1
315	0	1
316	0	1
317	0	1
318	0	1
319	0	1
320	0	1
321	0	1
322	0	1
323	0	1
324	0	1
325	0	1
326	0	1
327	0	1
328	0	0.333333
329	0	0.333333
330	0	0.333333
331	0	0.392857
332	0	0.392857
333	0	0.392857
334	0	0.392857
335	0	0.392857
336	0	0.392857
337	0	0.392857
338	0	0.392857
339	0	0.392857
340	0	0.392857
341	0	0.392857
342	0	0.392857
343	0	0.392857
344	0	0.392857
345	0	0.392857
346	0	0.392857
347	0	0.392857
348	0	0.392857
349	0	0.392857
350	0	0.392857
351	0	0.392857
352	0	0.392857
353	0	0.392857
354	0	0.392857
355	0	0.392857
356	0	0.392857
357	0	0.392857
358	0	0.392857
359	0	0.392857
360	0	0.392857
361	0	0.392857
362	0	0.392857
363	0	0.52381
364	0	0.52381
365	0	0.52381
366	0	0.52381
367	0	0.52381
368	0	0.52381
369	0	0.52381
370	0	0.52381
371	0	0.52381
372	0	0.52381
373	0	0.52381
374	0	0.52381
375	0	0.52381
376	0	0.52381
377	0	0.52381
378	0	0.52381
379	0	0.52381
380	0	0.52381
381	0	0.52381
382	0	0.52381
383	0	0.52381
384	0	0.52381
385	0	0.52381
386	0	0.52381
387	0	0.52381
388	0	0.52381
389	0	0.52381
390	0	0.52381
391	0	0.52381
392	0	0.52381
393	0	0.52381
394	0	0.52381
395	0	0.52381
396	0	0.52381
397	0	0.52381
398	0	0.52381
399	0	0.52381
400	0	0.52381
401	0	0.52381
402	0	0.52381
403	0	0.52381
404	0	0.52381
405	0	0.52381
406	0	0.52381
407	0	0.52381
408	0	0.52381
409	0	0.52381
410	0	0.52381
411	0	0.52381
412	0	0.52381
413	0	0.52381
414	0	0.52381
415	0	0.52381
416	0	0.52381
417	0	0.52381
418	0	0.52381
419	0	0.52381
420	0	0.52381
421	0	0.52381
422	0	0.52381
423	0	0.52381
424	0	0.52381
425	0	0.52381
426	0	0.52381
427	0	0.52381
428	0	0.52381
429	0	0.52381
430	0	0.52381
431	0	0.52381
432	0	0.52381
433	0	0.52381
434	0	0.52381
435	0	0.52381
436	0	0.52381
437	0	0.52381
438	0	0.52381
439	0	0.52381
440	0	0.52381
441	0	0.52381
442	0	0.52381
443	0	0.52381
444	0	0.666667
445	0	0.666667
446	0	0.666667
447	0	0.666667
448	0	0.666667
449	0	0.666667
450	0	0.47619
451	0	0.47619
452	0	0.47619
453	0	0.47619
454	0	0.47619
455	0	0.47619
456	0	0.47619
457	0	0.47619
458	0	0.47619
459	0	0.47619
460	0	0.47619
461	0	0.47619
462	0	0.47619
463	0	0.47619
464	0	0.47619
465	0	0.47619
466	0	0.47619
467	0	0.47619
468	0	0.47619
469	0	0.47619
470	0	0.47619
471	0	0.47619
472	0	0.47619
473	0	0.47619
474	0	0.47619
475	0	0.47619
476	0	0.392857
477	0	0.666667
478	0	0.666667
479	0	0.666667
480	0	0.666667
481	0	0.666667
482	0	0.666667
483	0	0.666667
484	0	0.666667
485	0	0.666667
486	0	0.666667
487	0	0.666667
488	0	0.666667
489	0	0.666667
490	0	0.666667
491	0	0.666667
492	0	0.666667
493	0	0.666667
494	0	0.666667
495	0	0.666667
496	0	0.666667
497	0	0.666667
498	0	0.666667
499	0	0.666667
500	0	0.666667
501	0	0.666667
502	0	0.666667
503	0	0.666667
504	0	0.666667
505	0	0.666667
506	0	0.666667
507	0	0.666667
508	0	0.666667
509	0	0.666667
510	0	0.666667
511	0	0.666667
512	0	0.666667
513	0	0.666667
514	0	0.666667
515	0	0.666667
516	0	0.666667
517	0	0.666667
518	0	0.666667
519	0	0.666667
520	0	0.666667
521	0	0.666667
522	0	0.666667
523	0	0.666667
524	0	0.666667
525	0	0.666667
526	0	0.666667
527	0	0.666667
528	0	0.666667
529	0	0.666667
530	0	0.666667
531	0	0.666667
532	0	0.666667
533	0	0.666667
534	0	0.666667
535	0	0.666667
536	0	0.666667
537	0	0.666667
538	0	0.666667
539	0	0.666667
540	0	0.666667
541	0	0.464286
542	0	0.464286
543	0	0.464286
544	0	0.464286
545	0	0.464286
546	0	0.464286
547	0	0.464286
548	0	0.464286
549	0	0.464286
550	0	0.464286
551	0	0.464286
552	0	0.464286
553	0	0.464286
554	0	0.464286
555	0	0.464286
556	0	0.464286
557	0	0.464286
558	0	0.464286
559	0	0.464286
560	0	0.464286
561	0	0.464286
562	0	0.464286
563	0	0.464286
564	0	0.464286
565	0	0.464286
566	0	0.464286
567	0	0.464286
568	0	0.5
569	0	0.464286
570	0	0.464286
571	0	0.464286
572	0	0.464286
573	0	0.464286
574	0	0.464286
575	0	0.464286
576	0	0.464286
577	0	0.52381
578	0	0.52381
579	0	0.52381
580	0	0.52381
581	0	0.52381
582	0	0.52381
583	0	0.52381
584	0	0.52381
585	0	0.52381
586	0	0.52381
587	0	0.464286
588	0	0.464286
589	0	0.464286
590	0	0.464286
591	0	0.464286
592	0	0.464286
593	0	0.464286
594	0	0.464286
595	0	0.464286
596	0	0.464286
597	0	0.464286
598	0	0.464286
599	0	0.464286
600	0	0.464286
601	0	0.464286
602	0	0.464286
603	0	0.464286
604	0	0.464286
605	0	0.464286
606	0	0.464286
607	0	0.464286
608	0	0.464286
609	0	0.464286
610	0	0.464286
611	0	0.464286
612	0	0.464286
613	0	0.464286
614	0	0.464286
615	0	0.464286
616	0	0.464286
617	0	0.464286
618	0	0.464286
619	0	0.464286
620	0	0.464286
621	0	0.464286
622	0	0.464286
623	0	0.464286
624	0	0.464286
625	0	0.464286
626	0	0.464286
627	0	0.464286
628	0	0.464286
629	0	0.464286
630	0	0.464286
631	0	0.464286
632	0	0.464286
633	0	0.464286
634	0	0.464286
635	0	0.464286
636	0	0.464286
637	0	0.464286
638	0	0.464286
639	0	0.464286
640	0	0.464286
641	0	0.464286
642	0	0.464286
643	0	0.464286
644	0	0.464286
645	0	0.464286
646	0	0.464286
647	0	0.464286
648	0	0.464286
649	0	0.464286
650	0	0.464286
651	0	0.464286
652	0	0.464286
653	0	0.464286
654	0	0.464286
655	0	0.464286
656	0	0.464286
657	0	0.464286
658	0	0.464286
659	0	0.464286
660	0	0.464286
661	0	0.464286
662	0	0.464286
663	0	0.464286
664	0	0.464286
665	0	0.464286
666	0	0.464286
667	0	0.464286
668	0	0.464286
669	0	0.464286
670	0	0.464286
671	0	0.464286
672	0	0.464286
673	0	0.464286
674	0	0.464286
675	0	0.464286
676	0	0.464286
677	0	0.464286
678	0	0.464286
679	0	0.464286
680	0	0.464286
681	0	0.464286
682	0	0.464286
683	0	0.464286
684	0	0.464286
685	0	0.464286
686	0	0.464286
687	0	0.464286
688	0	0.464286
689	0	0.464286
690	0	0.464286
691	0	0.464286
692	0	0.464286
693	0	0.464286
694	0	0.464286
695	0	0.464286
696	0	0.464286
697	0	0.464286
698	0	0.464286
699	0	0.464286
700	0	0.464286
701	0	0.464286
702	0	0.464286
703	0	0.464286
704	0	0.464286
705	0	0.464286
706	0	0.464286
707	0	0.464286
708	0	0.464286
709	0	0.464286
710	0	0.464286
711	0	0.464286
712	0	0.464286
713	0	0.464286
714	0	0.464286
715	0	0.464286
716	0	0.464286
717	0	0.464286
718	0	0.464286
719	0	0.464286
720	0	0.464286
721	0	0.464286
722	0	0.464286
723	0	0.464286
724	0	0.464286
725	0	0.464286
726	0	0.464286
727	0	0.464286
728	0	0.464286
729	0	0.464286
730	0	0.464286
731	0	0.464286
732	0	0.464286
733	0	0.464286
734	0	0.464286
735	0	0.464286
736	0	0.464286
737	0	0.464286
738	0	0.464286
739	0	0.464286
740	0	0.464286
741	0	0.464286
742	0	0.464286
743	0	0.464286
744	0	0.464286
745	0	0.464286
746	0	0.464286
747	0	0.464286
748	0	0.464286
749	0	0.464286
750	0	0.464286
751	0	0.464286
752	0	0.464286
753	0	0.464286
754	0	0.464286
755	0	0.464286
756	0	0.464286
757	0	0.464286
758	0	0.464286
759	0	0.464286
760	0	0.464286
761	0	0.464286
762	0	0.464286
763	0	0.464286
764	0	0.464286
765	0	0.464286
766	0	0.464286
767	0	0.464286
768	0	0.464286
769	0	0.464286
770	0	0.464286
771	0	0.464286
772	0	0.464286
773	0	0.464286
774	0	0.464286
775	0	0.464286
776	0	0.464286
777	0	0.464286
778	0	0.464286
779	0	0.464286
780	0	0.464286
781	0	0.464286
782	0	0.464286
783	0	0.464286
784	0	0.464286
785	0	0.464286
786	0	0.464286
787	0	0.464286
788	0	0.464286
789	0	0.464286
790	0	0.464286
791	0	0.464286
792	0	0.464286
793	0	0.464286
794	0	0.464286
795	0	0.464286
796	0	0.464286
797	0	0.464286
798	0	0.464286
799	0	0.464286
800	0	0.464286
801	0	0.464286
802	0	0.464286
803	0	0.464286
804	0	0.464286
805	0	0.464286
806	0	0.464286
807	0	0.464286
808	0	0.464286
809	0	0.464286
810	0	0.464286
811	0	0.464286
812	0	0.464286
813	0	0.464286
814	0	0.464286
815	0	0.464286
816	0	0.464286
817	0	0.464286
818	0	0.464286
819	0	0.464286
820	0	0.464286
821	0	0.464286
822	0	0.464286
823	0	0.464286
824	0	0.464286
825	0	0.464286
826	0	0.428571
827	0	0.464286
828	0	0.464286
829	0	0.464286
830	0	0.464286
831	0	0.464286
832	0	0.464286
833	0	0.464286
834	0	0.464286
835	0	0.464286
836	0	0.464286
837	0	0.464286
838	0	0.464286
839	0	0.464286
840	0	0.464286
841	0	0.464286
842	0	0.464286
843	0	0.464286
844	0	0.464286
845	0	0.464286
846	0	0.464286
847	0	0.464286
848	0	0.464286
849	0	0.464286
850	0	0.464286
851	0	0.464286
852	0	0.464286
853	0	0.464286
854	0	0.464286
855	0	0.464286
856	0	0.464286
857	0	0.464286
858	0	0.464286
859	0	0.464286
860	0	0.464286
861	0	0.464286
862	0	0.464286
863	0	0.464286
864	0	0.464286
865	0	0.464286
866	0	0.464286
867	0	0.464286
868	0	0.464286
869	0	0.464286
870	0	0.464286
871	0	0.464286
872	0	0.464286
873	0	0.464286
874	0	0.464286
875	0	0.464286
876	0	0.464286
877	0	0.464286
878	0	0.464286
879	0	0.464286
880	0	0.464286
881	0	0.464286
882	0	0.464286
883	0	0.464286
884	0	0.464286
885	0	0.464286
886	0	0.464286
887	0	0.464286
888	0	0.464286
889	0	0.464286
890	0	0.464286
891	0	0.464286
892	0	0.464286
893	0	0.464286
894	0	0.464286
895	0	0.464286
896	0	0.464286
897	0	0.464286
898	0	0.464286
899	0	0.464286
900	0	0.464286
901	0	0.464286
902	0	0.464286
903	0	0.464286
904	0	0.464286
905	0	0.464286
906	0	0.464286
907	0	0.464286
908	0	0.464286
909	0	0.464286
910	0	0.464286
911	0	0.464286
912	0	0.464286
913	0	0.464286
914	0	0.464286
915	0	0.464286
916	0	0.464286
917	0	0.464286
918	0	0.464286
919	0	0.464286
920	0	0.464286
921	0	0.464286
922	0	0.464286
923	0	0.464286
924	0	0.464286
925	0	0.464286
926	0	0.464286
927	0	0.464286
928	0	0.464286
929	0	0.464286
930	0	0.464286
931	0	0.464286
932	0	0.464286
933	0	0.464286
934	0	0.464286
935	0	0.464286
936	0	0.464286
937	0	0.464286
938	0	0.464286
939	0	0.464286
940	0	0.464286
941	0	0.464286
942	0	0.464286
943	0	0.464286
944	0	0.464286
945	0	0.464286
946	0	0.464286
947	0	0.464286
948	0	0.464286
949	0	0.464286
950	0	0.464286
951	0	0.464286
952	0	0.464286
953	0	0.464286
954	0	0.464286
955	0	0.464286
956	0	0.464286
957	0	0.464286
958	0	0.464286
959	0	0.464286
960	0	0.464286
961	0	0.464286
962	0	0.464286
963	0	0.464286
964	0	0.464286
965	0	0.464286
966	0	0.464286
967	0	0.464286
968	0	0.464286
969	0	0.464286
970	0	0.464286
971	0	0.464286
972	0	0.464286
973	0	0.464286
974	0	0.464286
975	0	0.464286
976	0	0.464286
977	0	0.464286
978	0	0.464286
979	0	0.464286
980	0	0.464286
981	0	0.464286
982	0	0.464286
983	0	0.464286
984	0	0.464286
985	0	0.464286
986	0	0.464286
987	0	0.464286
988	0	0.464286
989	0	0.464286
990	0	0.464286
991	0	0.464286
992	0	0.464286
993	0	0.464286
994	0	0.464286
995	0	0.464286
996	0	0.464286
997	0	0.464286
998	0	0.464286
999	0	0.464286
1000	0	0.464286
1001	0	0.464286
1002	0	0.464286
1003	0	0.464286
1004	0	0.464286
1005	0	0.464286
1006	0	0.464286
1007	0	0.464286
1008	0	0.464286
1009	0	0.464286
1010	0	0.464286
1011	0	0.464286
1012	0	0.464286
1013	0	0.464286
1014	0	0.464286
1015	0	0.464286
1016	0	0.464286
1017	0	0.464286
1018	0	0.464286
1019	0	0.464286
1020	0	0.464286
1021	0	0.464286
1022	0	0.464286
1023	0	0.464286
1024	0	0.464286
1025	0	0.464286
1026	0	0.464286
1027	0	0.464286
1028	0	0.464286
1029	0	0.464286
1030	0	0.464286
1031	0	0.464286
1032	0	0.464286
1033	0	0.464286
1034	0	0.464286
1035	0	0.464286
1036	0	0.464286
1037	0	0.464286
1038	0	0.464286
1039	0	0.464286
1040	0	0.464286
1041	0	0.464286
1042	0	0.464286
1043	0	0.464286
1044	0	0.464286
1045	0	0.464286
1046	0	0.464286
1047	0	0.464286
1048	0	0.464286
1049	0	0.464286
1050	0	0.464286
1051	0	0.464286
1052	0	0.464286
1053	0	0.464286
1054	0	0.464286
1055	0	0.464286
1056	0	0.464286
1057	0	0.464286
1058	0	0.464286
1059	0	0.464286
1060	0	0.464286
1061	0	0.464286
1062	0	0.464286
1063	0	0.464286
1064	0	0.464286
1065	0	0.464286
1066	0	0.464286
1067	0	0.464286
1068	0	0.464286
1069	0	0.464286
1070	0	0.464286
1071	0	0.464286
1072	0	0.464286
1073	0	0.464286
1074	0	0.464286
1075	0	0.464286
1076	0	0.464286
1077	0	0.464286
1078	0	0.464286
1079	0	0.464286
1080	0	0.361111
1081	0	0.361111
1082	0	0.361111
1083	0	0.361111
1084	0	0.361111
1085	0	0.361111
1086	0	0.361111
1087	0	0.361111
1088	0	0.361111
1089	0	0.361111
1090	0	0.361111
1091	0	0.361111
1092	0	0.361111
1093	0	0.361111
1094	0	0.361111
1095	0	0.361111
1096	0	0.288889
1097	0	0.288889
1098	0	0.288889
1099	0	0.288889
1100	0	0.288889
1101	0	0.288889
1102	0	0.288889
1103	0	0.288889
1104	0	0.288889
1105	0	0.288889
1106	0	0.288889
1107	0	0.288889
1108	0	0.288889
1109	0	0.288889
1110	0	0.288889
1111	0	0.288889
1112	0	0.288889
1113	0	0.288889
1114	0	0.288889
1115	0	0.288889
1116	0	0.288889
1117	0	0.288889
1118	0	0.288889
1119	0	0.288889
1120	0	0.288889
1121	0	0.288889
1122	0	0.2
1123	0	0.25
1124	0	0.214286
1125	0	0.214286
1126	0	0.214286
1127	0	0.25
1128	0	0.2
1129	0	0.2
1130	0	0.2
1131	0	0.2
1132	0	0.2
1133	0	0.2
1134	0	0.2
1135	0	0.2
1136	0	0.2
1137	0	0.2
1138	0	0.2
1139	0	0.2
1140	0	0.2
1141	0	0.2
1142	0	0.2
1143	0	0.2
1144	0	0.2
1145	0	0.1
1146	0	0.1
1147	0	0.1
1148	0	0.1
1149	0	0.1
1150	0	0.1
1151	0	0.549858
1152	0	0.549858
1153	0	0
1154	0	0
1155	0	0
1156	0	0.214286
1157	0	0.214286
1158	0	0.214286
1159	0	0.214286
1160	0	0.214286
1161	0	0.214286
1162	0	0.214286
1163	0	0.214286
1164	0	0.214286
1165	0	0.214286
1166	0	0.214286
1167	0	0.214286
1168	0	0.214286
1169	0	0.214286
1170	0	0.214286
1171	0	0.214286
1172	0	0.214286
1173	0	0.214286
1174	0	0.214286
1175	0	0.214286
1176	0	0.214286
1177	0	0.214286
1178	0	0.214286
1179	0	0.0666667
1180	0	0.0666667
1181	0	0.0666667
1182	0	0.0666667
1183	0	0.0666667
1184	0	0.0666667
1185	0	0.047619
1186	0	0.431452
1187	0	0.431452
1188	0	0.431452
1189	0	0.390374
1190	0	0.390374
1191	0	0.390374
1192	0	0.390374
1193	0	0.390374
1194	0	0.352657
1195	0	0.580768
1196	0	0.595584
1197	0	0.701181
1198	0	0.46708
1199	0	0.472989
1200	0	0.468271
1201	0	0.543269
1202	0	0.127273
1203	0	0.166667
1204	0	0.166667
1205	0	0.166667
1206	0	0.166667
1207	0	0.214286
1208	0	0.214286
1209	0	0.214286
1210	0	0.214286
1211	0	0.214286
1212	0	0.214286
1213	0	0.214286
1214	0	0.214286
1215	0	0.214286
1216	0	0.214286
1217	0	0.214286
1218	0	0.214286
1219	0	0.166667
1220	0	0.166667
1221	0	0.166667
1222	0	0.166667
1223	0	0.166667
1224	0	0.166667
1225	0	0
1226	0	0
1227	0	0
1228	0	0.609546
1229	0	0.609546
1230	0	0.609546
1231	0	0.470247
1232	0	0.492857
1233	0	0.492857
1234	0	0.492857
1235	0	0.422727
1236	0	0.295088
1237	0	0.475369
1238	0	0.470443
1239	0	0.541311
1240	0	0.526154
1241	0	0
1242	0	0
1243	0	0
1244	0	0
1245	0	0
1246	0	0.0357143
1247	0	0.0357143
1248	0	0.0357143
1249	0	0.0357143
1250	0	0.0357143
1251	0	0.0357143
1252	0	0.0357143
1253	0	0.0357143
1254	0	0.0357143
1255	0	0.0357143
1256	0	0.0714286
1257	0	0.0714286
1258	0	0.0714286
1259	0	0.0714286
1260	0	0.0666667
1261	0	0.0666667
1262	0	0.0666667
1263	0	0.0666667
1264	0	0.0666667
1265	0	0.128205
1266	0	0.179487
1267	0	0.179487
1268	0	0.179487
1269	0	0.294118
1270	0	0.239766
1271	0	0.414758
1272	0	0.340069
1273	0	0.344816
1274	0	0.381244
1275	0	0.725645
1276	0	0.72471
1277	0	0
1278	0	0
1279	0	0
1280	0	0
1281	0	0
1282	0	0
1283	0	0
1284	0	0
1285	0	0
1286	0	0
1287	0	0
1288	0	0
1289	0	0
1290	0	0
1291	0	0
1292	0	0
1293	0	0
1294	0	0
1295	0	0
1296	0	0
1297	0	0
1298	0	0
1299	0	0
1300	0	0
1301	0	0
1302	0	0
1303	0	0
1304	0	0
1305	0	0
1306	0	0
1307	0	0
1308	0	0
1309	0	0
1310	0	0
1311	0	0
1312	0	0
1313	0	0
1314	0	0
1315	0	0
1316	0	0
1317	0	0
1318	0	0
1319	0	0
1320	0	0
1321	0	0
1322	0	0
1323	0	0
1324	0	0
1325	0	0
1326	0	0
1327	0	0
1328	0	0
1329	0	0
1330	0	0
1331	0	0
1332	0	0
1333	0	0
1334	0	0
1335	0	0
1336	0	0
1337	0	0
1338	0	0
1339	0	0
1340	0	0
1341	0	0
1342	0	0
1343	0	0.672353
1344	0	0.665671
1345	0	0.701737
1346	0	0
1347	0	0
1348	0	0
1349	0	0
1350	0	0
1351	0	0
1352	0	0
1353	0	0
1354	0	0
1355	0	0.709263
1356	0	0.573736
1357	0	0.573736
1358	0	0.383486
1359	0	0.370531
1360	0	0.372628
1361	0	0.231293
1362	0	0.215541
1363	0	0.215541
1364	0	0.19889
1365	0	0.218932
1366	0	0.258053
1367	0	0.187793
1368	0	0.169014
1369	0	0.104202
1370	0	0.156942
1371	0	0.11746
1372	0	0.12437
1373	0	0.142857
1374	0	0.126437
1375	0	0.142857
1376	0	0.123153
1377	0	0.139601
1378	0	0.12963
1379	0	0.100379
1380	0	0.0945946
1381	0	0.0847851
1382	0	0.0747475
1383	0	0.276194
1384	0	0.124294
1385	0	0.18974
1386	0	0.236472
1387	0	0.191846
1388	0	0.139608
1389	0	0.139088
1390	0	0.124412
1391	0	0.116217
1392	0	0.108917
1393	0	0.139906
1394	0	0.169493
1395	0	0.189966
1396	0	0.431694
1397	0	0.431694
1398	0	0.446328
1399	0	0.446328
1400	0	0.446328
1401	0	0.446328
1402	0	0.446328
1403	0	0.446328
1404	0	0.446328
1405	0	0.319774
1406	0	0.331042
1407	0	0.479112
1408	0	0.547329
1409	0	0.547858
1410	0	0.513889
1411	0	0.513889
1412	0	0.234843
1413	0	0.258383
1414	0	0.218209
1415	0	0.216263
1416	0	0.239932
1417	0	0.22162
1418	0	0.215768
1419	0	0.215357
1420	0	0
1421	0	0
1422	0	0
1423	0	0
1424	0	0
1425	0	0
1426	0	0
1427	0	0
1428	0	0
1429	0	0
1430	0	0
1431	0	0
1432	0	0
1433	0	0
1434	0	0
1435	0	0
1436	0	0
1437	0	0
1438	0	0
1439	0	0
1440	0	0
1441	0	0
1442	0	0
1443	0	0
1444	0	0
1445	0	0
1446	0	0
1447	0	0
1448	0	0
1449	0	0
1450	0	0
1451	0	0
1452	0	0
1453	0	0
1454	0	0
1455	0	0
1456	0	0
1457	0	0
1458	0	0
1459	0	0
1460	0	0
1461	0	0
1462	0	0
1463	0	0
1464	0	0
1465	0	0
1466	0	0
1467	0	0
1468	0	0
1469	0	0
1470	0	0
1471	0	0
1472	0	0
1473	0	0
1474	0	0
1475	0	0
1476	0	0
1477	0	0
1478	0	0
1479	0	0
1480	0	0
1481	0	0
1482	0	0
1483	0	0
1484	0	0
1485	0	0
1486	0	0
1487	0	0
1488	0	0
1489	0	0.0181818
1490	0	0
1491	0	0.185005
1492	0	0.171041
1493	0	0.154114
1494	0	0.233304
1495	0	0.208313
1496	0	0.185049
1497	0	0.280017
1498	0	0.292079
1499	0	0.284953
1500	0	0.287527
1501	0	0.701071
1502	0	0.15433
1503	0	0.210212
1504	0	0.440884
1505	0	0.209195
1506	0	0
1507	0	0
1508	0	0
1509	0	0
1510	0	0
1511	0	0
1512	0	0
1513	0	0
1514	0	0
1515	0	0
1516	0	0
1517	0	0
1518	0	0
1519	0	0
1520	0	0
1521	0	0
1522	0	0
1523	0	0
1524	0	0
1525	0	0
1526	0	0
1527	0	0
1528	0	0
1529	0	0
1530	0	0
1531	0	0
1532	0	0
1533	0	0
1534	0	0
1535	0	0
1536	0	0
1537	0	0
1538	0	0
1539	0	0
1540	0	0.268398
1541	0	0.224638
1542	0	0.166667
1543	0	0.166667
1544	0	0.159834
1545	0	0.140295
1546	0	0.240516
1547	0	0.240948
1548	0	0.244144
1549	0	0.239582
1550	0	0.241128
1551	0	0.243174
1552	0	0.243842
1553	0	0.123347
1554	0	0.109451
1555	0	0.0786363
1556	0	0.0771339
1557	0	0.0737616
1558	0	0.074297
1559	0	0.0816917
1560	0	0.111271
1561	0	0.103583
1562	0	0.172439
1563	0	0.825175
1564	0	0.822596
1565	0	0.84871
1566	0	0.00738916
1567	0	0.010582
1568	0	0.010582
1569	0	0.146704
1570	0	0.169231
1571	0	0.0758738
1572	0	0.071185
1573	0	0.0828796
1574	0	0.088961
1575	0	0.0936408
1576	0	0.0965167
1577	0	0.166912
1578	0	0.167205
1579	0	0.142002
1580	0	0.166464
1581	0	0.16578
1582	0	0.195404
1583	0	0.136518
1584	0	0.442621
1585	0	0.0618793
1586	0	0.348854
1587	0	0.288871
1588	0	0.172531
1589	0	0.176266
1590	0	0.172222
1591	0	0.164561
1592	0	0.129662
1593	0	0.30485
1594	0	0.196408
1595	0	0.0603459
1596	0	0.151041
1597	0	0.070028
1598	0	0.0758953
1599	0	0.0824588
1600	0	0.0808344
1601	0	0.083958
1602	0	0.0866325
1603	0	0.0837017
1604	0	0.178427
1605	0	0.189594
1606	0	0.171923
1607	0	0.136134
1608	0	0.183908
1609	0	0.188506
1610	0	0.197044
1611	0	0.243077
1612	0	0.242754
1613	0	0.0151515
1614	0	0.0151515
1615	0	0.0151515
1616	0	0.0151515
1617	0	0.0151515
1618	0	0.030303
1619	0	0.0181818
1620	0	0.0181818
1621	0	0
1622	0	0
1623	0	0.190532
1624	0	0.190915
1625	0	0.100423
1626	0	0.110337
1627	0	0.0878049
1628	0	0.0935897
1629	0	0.0935897
1630	0	0.0878049
1631	0	0.0890244
1632	0	0.0935897
1633	0	0.137671
1634	0	0.139071
1635	0	0.123304
1636	0	0.202151
1637	0	0.189516
1638	0	0.189516
1639	0	0
1640	0	0.1875
1641	0	0.171123
1642	0	0.13299
1643	0	0.169079
1644	0	0.16781
1645	0	0.31632
1646	0	0.0818713
1647	0	0.0666667
1648	0	0.0606061
1649	0	0.0714286
1650	0	0.102212
1651	0	0.186051
1652	0	0.157818
1653	0	0.127473
1654	0	0.107252
1655	0	0.15312
1656	0	0.230628
1657	0	0.270059
1658	0	0.288982
1659	0	0.318187
1660	0	0.446002
1661	0	0.602246
1662	0	0.629463
1663	0	0.806556
1664	0	0.806556
1665	0	0.849624
1666	0	0
1667	0	0
1668	0	0
1669	0	0
1670	0	0
1671	0	0
1672	0	0
1673	0	0
1674	0	0
1675	0	0
1676	0	0
1677	0	0
1678	0	0
1679	0	0
1680	0	0
1681	0	0
1682	0	0
1683	0	0
1684	0	0
1685	0	0
1686	0	0
1687	0	0
1688	0	0
1689	0	0
1690	0	0
1691	0	0
1692	0	0
1693	0	0
1694	0	0
1695	0	0
1696	0	0
1697	0	0
1698	0	0
1699	0	0
1700	0	0
1701	0	0
1702	0	0
1703	0	0
1704	0	0
1705	0	0
1706	0	0
1707	0	0
1708	0	0
1709	0	0.6
1710	0	0.333333
1711	0	0.333333
1712	0	0.333333
1713	0	0.164835
1714	0	0.115633
1715	0	0.125807
1716	0	0.135719
1717	0	0.313725
1718	0	0.190283
1719	0	0.182051
1720	0	0.173171
1721	0	0.162791
1722	0	0.159715
1723	0	0.25
1724	0	0.285714
1725	0	0.0423945
1726	0	0.0429544
1727	0	0.0602564
1728	0	0.141026
1729	0	0.252747
1730	0	0.252747
1731	0	0.252747
1732	0	0.0500507
1733	0	0.144636
1734	0	0.841837
1735	0	0.880102
1736	0	0.193313
1737	0	0
1738	0	0
1739	0	0
1740	0	0
1741	0	0
1742	0	0
1743	0	0
1744	0	0
1745	0	0
1746	0	0
1747	0	0
1748	0	0
1749	0	0.0151515
1750	0	0.0782361
1751	0	0.0229814
1752	0	0.14191
1753	0	0.0661224
1754	0	0.102536
1755	0	0
1756	0	0
1757	0	0
1758	0	0
1759	0	0
1760	0	0
1761	0	0
1762	0	0
1763	0	0
1764	0	0
1765	0	0
1766	0	0
1767	0	0.125206
1768	0	0.0530055
1769	0	0.0505952
1770	0	0.0878955
1771	0	0.11488
1772	0	0.241342
1773	0	0
1774	0	0.0714286
1775	0	0.0201613
1776	0	0.0282258
1777	0	0.0160428
1778	0	0.0160428
1779	0	0.0196078
1780	0	0.0620155
1781	0	0.0807823
1782	0	0.198925
1783	0	0.140775
1784	0	0.116773
1785	0	0
1786	0	0
1787	0	0
1788	0	0
1789	0	0
1790	0	0
1791	0	0
1792	0	0
1793	0	0
1794	0	0
1795	0	0
1796	0	0
1797	0	0
1798	0	0
1799	0	0
1800	0	0
1801	0	0
1802	0	0
1803	0	0
1804	0	0
1805	0	0.255075
1806	0	0.111111
1807	0	0.380258
1808	0	0.391293
1809	0	0.36926
1810	0	0.110953
1811	0	0.479238
1812	0	1
1813	0	1
1814	0	0.464286
1815	0	0.464286
1816	0	1
1817	0	0.556574
1818	0	0.258039
1819	0	0.278912
1820	0	0.278912
1821	0	0.278912
1822	0	0.255952
1823	0	0.235544
1824	0	0.211916
1825	0	0.211916
1826	0	0.443945
1827	0	0.358974
1828	0	0
1829	0	0
1830	0	0
1831	0	0
1832	0	0
1833	0	0
1834	0	0
1835	0	0
1836	0	0
1837	0	0
1838	0	0
1839	0	0
1840	0	0
1841	0	0
1842	0	0
1843	0	0
1844	0	0
1845	0	0
1846	0	0
1847	0	0
1848	0	0
1849	0	0
1850	0	0
1851	0	0
1852	0	0
1853	0	0
1854	0	0
1855	0	0
1856	0	0
1857	0	0
1858	0	0
1859	0	0
1860	0	0
1861	0	0
1862	0	0
1863	0	0
1864	0	0.15467
1865	0	0.0998207
1866	0	0.098689
1867	0	0.106849
1868	0	0.0984881
1869	0	0.195161
1870	0	0.184724
1871	0	0.0285714
1872	0	0.0285714
1873	0	0.03003
1874	0	0.0315315
1875	0	0.0624864
1876	0	0.123386
1877	0	0
1878	0	0
1879	0	0
1880	0	0
1881	0	0
1882	0	0.557692
1883	0	0.557692
1884	0	0.557692
1885	0	0.557692
1886	0	0
1887	0	0
1888	0	0
1889	0	0
1890	0	0.505226
1891	0	0.131401
1892	0	0.133333
1893	0	0.133333
1894	0	0.0854701
1895	0	0.141152
1896	0	0
1897	0	0
1898	0	0
1899	0	0
1900	0	0
1901	0	0
1902	0	0
1903	0	0
1904	0	0
1905	0	0
1906	0	0
1907	0	0
1908	0	0
1909	0	0
1910	0	0
1911	0	0
1912	0	0
1913	0	0
1914	0	0
1915	0	0
1916	0	0
1917	0	0
1918	0	0
1919	0	0
1920	0	0
1921	0	0
1922	0	0
1923	0	0
1924	0	0
1925	0	0
1926	0	0.128177
1927	0	0
1928	0	0
1929	0	0
1930	0	0
1931	0	0
1932	0	0
1933	0	0
1934	0	0
1935	0	0
1936	0	0
1937	0	0
1938	0	0
1939	0	0
1940	0	0
1941	0	0
1942	0	0
1943	0	0
1944	0	0
1945	0	0.108682
1946	0	0.0666667
1947	0	0.0666667
1948	0	0
1949	0	0
1950	0	0
1951	0	0
1952	0	0
1953	0	0
1954	0	0
1955	0	0
1956	0	0
1957	0	0
1958	0	0
1959	0	0
1960	0	0
1961	0	0
1962	0	0
1963	0	0
1964	0	0
1965	0	0
1966	0	0
1967	0	0
1968	0	0
1969	0	0
1970	0	0
1971	0	0
1972	0	0
1973	0	0
1974	0	0
1975	0	0
1976	0	0
1977	0	0.192033
1978	0	0.933898
1979	0	0.933898
1980	0	0.162346
1981	0	0
1982	0	0
1983	0	0.179632
1984	0	0.121212
1985	0	0.0220588
1986	0	0.0196078
1987	0	0.0210526
1988	0	0.0233918
1989	0	0.0368421
1990	0	0.0368421
1991	0	0.0368421
1992	0	0.0368421
1993	0	0.147368
1994	0	0.147368
1995	0	0.133333
1996	0	0.133333
1997	0	0.121212
1998	0	0.104839
1999	0	0.227759
2000	0	0.0392157
2001	0	0.0392157
2002	0	0.0392157
2003	0	0.0196078
2004	0	0.0196078
2005	0	0.0196078
2006	0	0
2007	0	0.207207
2008	0	0.196302
2009	0	0.109263
2010	0	0.122468
2011	0	0
2012	0	0
2013	0	0
2014	0	0
2015	0	0.126804
2016	0	0.0197628
2017	0	0.02
2018	0	0.021645
2019	0	0.021645
2020	0	0.093381
2021	0	0.0918379
2022	0	0.0976128
2023	0	0.0942345
2024	0	0.0739699
2025	0	0.080594
2026	0	0.134477
2027	0	0.203081
2028	0	0.202521
2029	0	0.228481
2030	0	0.317839
2031	0	0.317538
2032	0	0.311216
2033	0	0.312054
2034	0	0.312152
2035	0	0.303013
2036	0	0.297035
2037	0	0.174913
2038	0	0.171974
2039	0	0
2040	0	0
2041	0	0
2042	0	0
2043	0	0.21619
2044	0	0
2045	0	0
2046	0	0
2047	0	0
2048	0	0
2049	0	0
2050	0	0
2051	0	0.0812303
2052	0	0.143049
2053	0	0.05
2054	0	0
2055	0	0
2056	0	0.0659341
2057	0	0.0659341
2058	0	0.100422
2059	0	0.179003
2060	0	0.0471523
2061	0	0.0484577
2062	0	0.0505079
2063	0	0.0503215
2064	0	0.107925
2065	0	0.110825
2066	0	0.0879121
2067	0	0.0659341
2068	0	0.0769231
2069	0	0.0571429
2070	0	0.0514706
2071	0	0.103931
2072	0	0.100345
2073	0	0.0936508
2074	0	0.114286
2075	0	0.109244
2076	0	0.101274
2077	0	0.166667
2078	0	0.166667
2079	0	0.355556
2080	0	0.355556
2081	0	0.290909
2082	0	0.290909
2083	0	0.290909
2084	0	0.242424
2085	0	0.242424
2086	0	0.175824
2087	0	0.122807
2088	0	0.116883
2089	0	0.106037
2090	0	0.127009
2091	0	0.0712303
2092	0	0.0801932
2093	0	0.0767808
2094	0	0.243525
2095	0	0.0644231
2096	0	0.305699
2097	0	0.326318
2098	0	0.605089
2099	0	0.591789
2100	0	0.0738916
2101	0	0.076087
2102	0	0.0666667
2103	0	0.0666667
2104	0	0.0666667
2105	0	0.0666667
2106	0	0.0416667
2107	0	0.047619
2108	0	0.0666667
2109	0	0.0666667
2110	0	0.0666667
2111	0	0.256537
2112	0	0.225121
2113	0	0
2114	0	0
2115	0	0
2116	0	0
2117	0	0
2118	0	0
2119	0	0
2120	0	0
2121	0	0
2122	0	0
2123	0	0
2124	0	0
2125	0	0
2126	0	0
2127	0	0
2128	0	0
2129	0	0.174891
2130	0	0.010989
2131	0	0.021978
2132	0	0.021978
2133	0	0.021978
2134	0	0.024129
2135	0	0.17382
2136	0	0.171288
2137	0	0.0990502
2138	0	0.108548
2139	0	0.118046
2140	0	0.118498
2141	0	0.280923
2142	0	0
2143	0	0
2144	0	0
2145	0	0
2146	0	0
2147	0	0
2148	0	0
2149	0	0.212596
2150	0	0.0454545
2151	0	0.0261438
2152	0	0.0915171
2153	0	0.199482
2154	0	0.42959
2155	0	0.142857
2156	0	0.0666667
2157	0	0.0666667
2158	0	0.0666667
2159	0	0.0666667
2160	0	0.0666667
2161	0	0.0666667
2162	0	0.0666667
2163	0	0.0666667
2164	0	0.0666667
2165	0	0.047619
2166	0	0.047619
2167	0	0.047619
2168	0	0.047619
2169	0	0.047619
2170	0	0.0357143
2171	0	0.546237
2172	0	0.191495
2173	0	0.0181818
2174	0	0
2175	0	0
2176	0	0
2177	0	0
2178	0	0
2179	0	0
2180	0	0
2181	0	0
2182	0	0
2183	0	0
2184	0	0.21286
2185	0	0
2186	0	0
2187	0	0
2188	0	0
2189	0	0
2190	0	0.235507
2191	0	0.151566
2192	0	0.148718
2193	0	0.32381
2194	0	0.0325372
2195	0	0.0899831
2196	0	0.187092
2197	0	0.0236559
2198	0	0.0258065
2199	0	0.027957
2200	0	0.0322581
2201	0	0.0322581
2202	0	0.0301075
2203	0	0.0301075
2204	0	0.222278
2205	0	0.30303
2206	0	0.0917471
2207	0	0.332342
2208	0	0.0250896
2209	0	0.0175325
2210	0	0.0994595
2211	0	0.383779
2212	0	0.164835
2213	0	0.164835
2214	0	0.484507
2215	0	0.0584615
2216	0	0.0380952
2217	0	0.0666667
2218	0	0.047619
2219	0	0.1
2220	0	0.1
2221	0	0
2222	0	0
2223	0	0.137895
2224	0	0.135021
2225	0	0.126496
2226	0	0.310183
2227	0	0
2228	0	0
2229	0	0
2230	0	0.0366667
2231	0	0.413818
2232	0	0.212757
2233	0	0.206869
2234	0	0.0371661
2235	0	0.172184
2236	0	0.051797
2237	0	0.190048
2238	0	0
2239	0	0
2240	0	0
2241	0	0
2242	0	0
2243	0	0
2244	0	0
2245	0	0
2246	0	0
2247	0	0.190264
2248	0	0.343596
2249	0	0.0534759
2250	0	0.0519481
2251	0	0.0392157
2252	0	0.0128205
2253	0	0
2254	0	0
2255	0	0
2256	0	0
2257	0	0
2258	0	0
2259	0	0
2260	0	0
2261	0	0
2262	0	0.136865
2263	0	0.167033
2264	0	0
2265	0	0.167553
2266	0	0.16902
2267	0	0.280632
2268	0	0.0310078
2269	0	0.0321152
2270	0	0.0301974
2271	0	0.108242
2272	0	0.115571
2273	0	0.114825
2274	0	0.161129
2275	0	0
2276	0	0
2277	0	0
2278	0	0
2279	0	0.617211
2280	0	0
2281	0	0
2282	0	0
2283	0	0
2284	0	0
2285	0	0
2286	0	0
2287	0	0
2288	0	0
2289	0	0
2290	0	0
2291	0	0
2292	0	0
2293	0	0
2294	0	0
2295	0	0
2296	0	0
2297	0	0
2298	0	0
2299	0	0.603745
2300	0	0.149021
2301	0	0.106061
2302	0	0.136364
2303	0	0.14731
2304	0	0.0957772
2305	0	0.100606
2306	0	0.0333157
2307	0	0.0525794
2308	0	0.0500992
2309	0	0.0826898
2310	0	0.123144
2311	0	0.112003
2312	0	0.285714
2313	0	0
2314	0	0
2315	0	0
2316	0	0
2317	0	0
2318	0	0
2319	0	0
2320	0	0
2321	0	0
2322	0	0
2323	0	0
2324	0	0
2325	0	0
2326	0	0
2327	0	0
2328	0	0
2329	0	0
2330	0	0
2331	0	0
2332	0	0
2333	0	0
2334	0	0
2335	0	0
2336	0	0
2337	0	0
2338	0	0
2339	0	0
2340	0	0
2341	0	0
2342	0	0
2343	0	0
2344	0	0
2345	0	0
2346	0	0
2347	0	0
2348	0	0
2349	0	0
2350	0	0
2351	0	0.110118
2352	0	0
2353	0	0
2354	0	0
2355	0	0
2356	0	0
2357	0	0
2358	0	0
2359	0	0
2360	0	0.5
2361	0	0.5
2362	0	0.0661376
2363	0	0
2364	0	0
2365	0	0
2366	0	0.0581779
2367	0	0.0761905
2368	0	0.108318
2369	0	0.386316
2370	0	0.265937
2371	0	0.126167
2372	0	0
2373	0	0
2374	0	0
2375	0	0
2376	0	0
2377	0	0
2378	0	0
2379	0	0
2380	0	0
2381	0	0
2382	0	0
2383	0	0
2384	0	0
2385	0	0
2386	0	0
2387	0	0
2388	0	0
2389	0	0
2390	0	0
2391	0	0
2392	0	0
2393	0	0
2394	0	0
2395	0	0.047619
2396	0	0.047619
2397	0	0.0555556
2398	0	0.0444444
2399	0	0.0444444
2400	0	0.102564
2401	0	0.531315
2402	0	0.303793
2403	0	0.306966
2404	0	0.133333
2405	0	0.171167
2406	0	0.576506
2407	0	0.241118
2408	0	0.184615
2409	0	0.288177
2410	0	0.309524
2411	0	0.324786
2412	0	0.350769
2413	0	0.480519
2414	0	0.480519
2415	0	0.39
2416	0	0.531445
2417	0	0.667047
2418	0	0.682848
2419	0	0.738904
2420	0	0.818132
2421	0	0.45398
2422	0	0.719694
2423	0	0.71968
2424	0	0.0277778
2425	0	0.0357143
2426	0	0.0357143
2427	0	0.0357143
2428	0	0.0357143
2429	0	0.0357143
2430	0	0.047619
2431	0	0.0666667
2432	0	0.0666667
2433	0	0.2
2434	0	0.2
2435	0	0.2
2436	0	0.333333
2437	0	0.333333
2438	0	0.739048
2439	0	0.739457
2440	0	0.953131
2441	0	0.968629
2442	0	0.968629
2443	0	0.968629
2444	0	0.968873
2445	0	0.968873
2446	0	0.968873
2447	0	0.984252
2448	0	0.984252
2449	0	0.984252
2450	0	0.984252
2451	0	0.972837
2452	0	0.972837
2453	0	0.1
2454	0	0
2455	0	0.924948
2456	0	0.923296
2457	0	0.923307
2458	0	0
2459	0	0.222222
2460	0	0.923004
2461	0	0.919713
2462	0	0.919716
2463	0	0.926296
2464	0	0
2465	0	0.915038
2466	0	0.915043
2467	0	0.91667
2468	0	0.622222
2469	0	0.622222
2470	0	0.622222
2471	0	0.266667
2472	0	0.266667
2473	0	0.266667
2474	0	0.218182
2475	0	0.918422
2476	0	0.343855
2477	0	0.346064
2478	0	0.153846
2479	0	0.153846
2480	0	0.914505
2481	0	0.920966
2482	0	0.826984
2483	0	0.913077
2484	0	0.46352
2485	0	0.6
2486	0	0.6
2487	0	0.6
2488	0	0.6
2489	0	0.6
2490	0	0.6
2491	0	0.6
2492	0	0.6
2493	0	0.6
2494	0	0.6
2495	0	0.333333
2496	0	0.333333
2497	0	0.194444
2498	0	0.850501
2499	0	0.51359
2500	0	0.469076
2501	0	0.714083
2502	0	0.25
2503	0	0.901808
2504	0	0.333333
2505	0	1
2506	0	1
2507	0	1
2508	0	0.906579
2509	0	0.90661
2510	0	0.909992
2511	0	0.908339
2512	0	0.908339
2513	0	0.458472
2514	0	0.862251
2515	0	0.862251
2516	0	0
2517	0	0
2518	0	0
2519	0	0
2520	0	0
2521	0	0
2522	0	0.859035
2523	0	1
2524	0	1
2525	0	1
2526	0	1
2527	0	1
2528	0	0.9
2529	0	0.9
2530	0	0.733855
2531	0	0.729176
2532	0	0.73592
2533	0	0.720773
2534	0	0.676012
2535	0	0.675918
2536	0	0.67309
2537	0	0.600072
2538	0	0.593642
2539	0	0.361111
2540	0	0.361111
2541	0	0.361111
2542	0	0.305556
2543	0	0.305556
2544	0	0.305556
2545	0	0.305556
2546	0	0.277778
2547	0	0.366184
2548	0	0.399577
2549	0	0.351526
2550	0	0.351526
2551	0	0.356152
2552	0	0.416667
2553	0	0.333333
2554	0	0.333333
2555	0	0.333333
2556	0	0.333333
2557	0	0.333333
2558	0	0.333333
2559	0	0.333333
2560	0	0.272727
2561	0	0.227273
2562	0	0.171429
2563	0	0.180952
2564	0	0.0947368
2565	0	0.0779221
2566	0	0.217486
2567	0	0.203373
2568	0	0.196621
2569	0	0.593892
2570	0	0.703333
2571	0	0.703333
2572	0	0.110526
2573	0	0.204732
2574	0	0.505499
2575	0	0.304348
2576	0	0.162162
2577	0	0.425699
2578	0	0.423586
2579	0	0.047619
2580	0	0.047619
2581	0	0.047619
2582	0	0.047619
2583	0	0.047619
2584	0	0.047619
2585	0	0.047619
2586	0	0.047619
2587	0	0
2588	0	0
2589	0	0
2590	0	0
2591	0	0
2592	0	0.216937
2593	0	0.213333
2594	0	0.196175
2595	0	0.196721
2596	0	0.145933
2597	0	0.149351
2598	0	0.140863
2599	0	0.147984
2600	0	0.147642
2601	0	0.147642
2602	0	0.173677
2603	0	0.163683
2604	0	0.128481
2605	0	0.128481
2606	0	0.419112
2607	0	0.487179
2608	0	0.260256
2609	0	0.357692
2610	0	0.364103
2611	0	0.364103
2612	0	0.364103
2613	0	0.364103
2614	0	0.366667
2615	0	0.460333
2616	0	0.64
2617	0	0.64
2618	0	1
2619	0	1
2620	0	1
2621	0	0
2622	0	0
2623	0	0
2624	0	0
2625	0	0
2626	0	0
2627	0	0
2628	0	0
2629	0	0
2630	0	0
2631	0	0
2632	0	0
2633	0	0
2634	0	0
2635	0	0
2636	0	0
2637	0	0
2638	0	0
2639	0	0
2640	0	0
2641	0	0
2642	0	0
2643	0	0
2644	0	0
2645	0	0
2646	0	0
2647	0	0
2648	0	0
2649	0	0
2650	0	0
2651	0	0
2652	0	0.945586
2653	0	0.945586
2654	0	0.895856
2655	0	0.895856
2656	0	0.872281
2657	0	0.872281
2658	0	0.872281
2659	0	0.827839
2660	0	0.787025
2661	0	0.787342
2662	0	0.749774
2663	0	0.638662
2664	0	0.639173
2665	0	0.612454
2666	0	0.625468
2667	0	0.180125
2668	0	0.3
2669	0	0.1
2670	0	0.1
2671	0	0
2672	0	0
2673	0	0
2674	0	0
2675	0	0
2676	0	0
2677	0	0
2678	0	0
2679	0	0
2680	0	0
2681	0	0
2682	0	0
2683	0	0
2684	0	0.107748
2685	0	0.185577
2686	0	0.185577
2687	0	0.1875
2688	0	0.180886
2689	0	0.191468
2690	0	0.204365
2691	0	0.0913417
2692	0	0.0408253
2693	0	0.0422078
2694	0	0.0401003
2695	0	0.0413534
2696	0	0.0444444
2697	0	0.0555556
2698	0	0.0555556
2699	0	0.0399274
2700	0	0.0444444
2701	0	0.0375076
2702	0	0.0327684
2703	0	0.0333333
2704	0	0.0333333
2705	0	0.0252874
2706	0	0.06866
2707	0	0.0372522
2708	0	0.035443
2709	0	0.0325581
2710	0	0.107629
2711	0	0.0991186
2712	0	0.089808
2713	0	0.0820443
2714	0	0.0845563
2715	0	0.0754717
2716	0	0.0489045
2717	0	0.0520127
2718	0	0.073384
2719	0	0
2720	0	0
2721	0	0
2722	0	0
2723	0	0
2724	0	0
2725	0	0
2726	0	0
2727	0	0
2728	0	0
2729	0	0
2730	0	0
2731	0	0
2732	0	0
2733	0	0
2734	0	0
2735	0	0
2736	0	0
2737	0	0
2738	0	0
2739	0	0.0561395
2740	0	0.0770736
2741	0	0.0746636
2742	0	0.0338462
2743	0	0.0338462
2744	0	0.0338462
2745	0	0.0430769
2746	0	0.0430769
2747	0	0.0430769
2748	0	0.0430769
2749	0	0.129987
2750	0	0.140619
2751	0	0.199306
2752	0	0.198898
2753	0	0.0263158
2754	0	0.0263158
2755	0	0.0467836
2756	0	0.0467836
2757	0	0.0467836
2758	0	0.0467836
2759	0	0.0467836
2760	0	0.0467836
2761	0	0.0467836
2762	0	0.0467836
2763	0	0.0467836
2764	0	0.0467836
2765	0	0.0467836
2766	0	0.222529
2767	0	0.221455
2768	0	0.221302
2769	0	0.221302
2770	0	0.226572
2771	0	0.226179
2772	0	0.226258
2773	0	0.017316
2774	0	0.0684129
2775	0	0.0769231
2776	0	0.0641026
2777	0	0.0641026
2778	0	0.0641026
2779	0	0.0897436
2780	0	0.0897436
2781	0	0.0897436
2782	0	0.020819
2783	0	0.0176161
2784	0	0.0833333
2785	0	0.0194464
2786	0	0.0212766
2787	0	0.0606152
2788	0	0.0763285
2789	0	0.0325681
2790	0	0.0339196
2791	0	0.0337298
2792	0	0.033482
2793	0	0.0340471
2794	0	0.0377054
2795	0	0.0372598
2796	0	0.059136
2797	0	0.135198
2798	0	0.027747
2799	0	0.0299542
2800	0	0.0796367
2801	0	1
2802	0	0
2803	0	0
2804	0	0.333333
2805	0	0
2806	0	0
2807	0	0.2
2808	0	0
2809	0	0.0124777
2810	0	0.018018
2811	0	0.0151261
2812	0	0.0178253
2813	0	0.0160428
2814	0	0.0208333
2815	0	0.0160428
2816	0	0.0151515
2817	0	0.0128023
2818	0	0.0135135
2819	0	0.0400947
2820	0	0.0391494
2821	0	0.0401809
2822	0	0.0613043
2823	0	0.1174
2824	0	0.0729595
2825	0	0.047619
2826	0	0.047619
2827	0	0.0426743
2828	0	0.0355619
2829	0	0.0355619
2830	0	0.0405405
2831	0	0.0405405
2832	0	0.0405405
2833	0	0.0405405
2834	0	0.081226
2835	0	0.0130624
2836	0	0.0188312
2837	0	0.0892562
2838	0	0.117575
2839	0	0.0357143
2840	0	0.0555556
2841	0	0
2842	0	0
2843	0	0
2844	0	0.0277778
2845	0	0.0222222
2846	0	0.0886139
2847	0	0.0915865
2848	0	0.0874891
2849	0	0.0939394
2850	0	0.0936639
2851	0	0.0911136
2852	0	0.0911136
2853	0	0.0790951
2854	0	0.0842105
2855	0	0.0761905
2856	0	0.0761905
2857	0	0.0842105
2858	0	0.0842105
2859	0	0.0842105
2860	0	0.0421032
2861	0	0.138572
2862	0	0
2863	0	0
2864	0	0
2865	0	0
2866	0	0
2867	0	0
2868	0	0
2869	0	0
2870	0	0
2871	0	0
2872	0	0
2873	0	0
2874	0	0
2875	0	0
2876	0	0
2877	0	0
2878	0	0.038961
2879	0	0.038961
2880	0	0.0428571
2881	0	0.0473101
2882	0	0.159146
2883	0	0
2884	0	0
2885	0	0
2886	0	0
2887	0	0
2888	0	0
2889	0	0
2890	0	0
2891	0	0
2892	0	0
2893	0	0
2894	0	0
2895	0	0
2896	0	0
2897	0	0
2898	0	0
2899	0	0
2900	0	0
2901	0	0
2902	0	0
2903	0	0
2904	0	0
2905	0	0
2906	0	0
2907	0	0
2908	0	0
2909	0	0
2910	0	0
2911	0	0.0512821
2912	0	0.0333333
2913	0	0.0261438
2914	0	0.0263158
2915	0	0.0238095
2916	0	0.021645
2917	0	0.025974
2918	0	0.0395257
2919	0	0.562939
2920	0	0.529994
2921	0	0.510099
2922	0	0.482076
2923	0	0.385629
2924	0	0.386643
2925	0	0.349548
2926	0	0.328367
2927	0	0.327035
2928	0	0.326914
2929	0	0.316735
2930	0	0.308612
2931	0	0.304567
2932	0	0.307059
2933	0	0.289865
2934	0	0.278035
2935	0	0.212085
2936	0	0.319865
2937	0	0.330116
2938	0	0.0888889
2939	0	0.0888889
2940	0	0.133333
2941	0	0.133333
2942	0	0.0888889
2943	0	0.109091
2944	0	0.109091
2945	0	0.0712888
2946	0	0.334846
2947	0	0.677349
2948	0	0.596737
2949	0	0.596737
2950	0	0.597203
2951	0	0.65489
2952	0	0.223489
2953	0	0
2954	0	0
2955	0	0.0436782
2956	0	0.0436782
2957	0	0.0436782
2958	0	0.0482759
2959	0	0.0482759
2960	0	0.0482759
2961	0	0.168404
2962	0	0.165622
2963	0	0.225404
2964	0	0.267607
2965	0	0.200127
2966	0	0.0768137
2967	0	0.0957983
2968	0	0.0761905
2969	0	0.0825397
2970	0	0.071525
2971	0	0.107143
2972	0	0.107143
2973	0	0.0725806
2974	0	0.155281
2975	0	0.0761689
2976	0	0.0901961
2977	0	0.0566802
2978	0	0.264303
2979	0	0.164095
2980	0	0.0525526
2981	0	0.0469417
2982	0	0.0495495
2983	0	0.0552585
2984	0	0.0623886
2985	0	0.158159
2986	0	0.265152
2987	0	0.256684
2988	0	0.241821
2989	0	0.184989
2990	0	0.174419
2991	0	0.238095
2992	0	0.135725
2993	0	0
2994	0	0
2995	0	0
2996	0	0
2997	0	0
2998	0	0
2999	0	0.0277778
3000	0	0.0277778
3001	0	0.0277778
3002	0	0.0277778
3003	0	0.175609
3004	0	0.369583
3005	0	0
3006	0	0
3007	0	0
3008	0	0
3009	0	0
3010	0	0
3011	0	0
3012	0	0
3013	0	0
3014	0	0
3015	0	0
3016	0	0
3017	0	0
3018	0	0
3019	0	0
3020	0	0
3021	0	0.701754
3022	0	0.701754
3023	0	0.701754
3024	0	0.571429
3025	0	0.434783
3026	0	0.374411
3027	0	0.418552
3028	0	0.404935
3029	0	0.431148
3030	0	0.379194
3031	0	0.284155
3032	0	0.194006
3033	0	0.193777
3034	0	0.174343
3035	0	0.187071
3036	0	0.287933
3037	0	0.280509
3038	0	0.28411
3039	0	0.211282
3040	0	0.286833
3041	0	0.284599
3042	0	0.285762
3043	0	0.286675
3044	0	0.286675
3045	0	0.286758
3046	0	0.320838
3047	0	0.328504
3048	0	0.329831
3049	0	0.3239
3050	0	0.31967
3051	0	0.337321
3052	0	0.335475
3053	0	0.302098
3054	0	0.208859
3055	0	0.414253
3056	0	0.468254
3057	0	0.468254
3058	0	0.219919
3059	0	0.225949
3060	0	0.465287
3061	0	0.178947
3062	0	0.178947
3063	0	0.173684
3064	0	0
3065	0	0.226316
3066	0	0.0666667
3067	0	0
3068	0	0
3069	0	0
3070	0	0
3071	0	0
3072	0	0.259259
3073	0	0.280788
3074	0	0.607458
3075	0	0.25
3076	0	0.25
3077	0	0.3
3078	0	0.6
3079	0	0.6
3080	0	0.6
3081	0	0.695105
3082	0	0.73408
3083	0	0.741124
3084	0	0
3085	0	0
3086	0	0
3087	0	0
3088	0	0
3089	0	0
3090	0	0
3091	0	0
3092	0	0
3093	0	0
3094	0	0
3095	0	0
3096	0	0
3097	0	0
3098	0	0
3099	0	0
3100	0	0
3101	0	0.630117
3102	0	0
3103	0	0
3104	0	0.663976
3105	0	0.749024
3106	0	0.804643
3107	0	0.84143
3108	0	0.93727
3109	0	0.937758
3110	0	0.952762
3111	0	0.952762
3112	0	0.968381
3113	0	0.968381
3114	0	0.968381
3115	0	0.968381
3116	0	0.953131
3117	0	0.952762
3118	0	0.952762
3119	0	0.952762
3120	0	0.952762
3121	0	0.954204
3122	0	0.954204
3123	0	0.954204
3124	0	0.954323
3125	0	0.939753
3126	0	0.939753
3127	0	1
3128	0	1
3129	0	1
3130	0	1
3131	0	0.970153
3132	0	0.970153
3133	0	1
3134	0	1
3135	0	1
3136	0	1
3137	0	1
3138	0	1
3139	0	0.998236
3140	0	0.998236
3141	0	0.998236
3142	0	0.998236
3143	1	1
3144	0	1
3145	0	1
3146	0	1
3147	0	1
3148	0	1
3149	0	1
3150	0	1
3151	0	1
3152	0	1
3153	0	0.996482
3154	0	0.996482
3155	0	0.840754
3156	0	1
3157	0	1
3158	0	0.998243
3159	0	0.998243
3160	0	0
3161	0	0
3162	0	0.892063
3163	0	0.894432
3164	0	1
3165	0	0.507143
3166	0	0.998243
3167	1	1
3168	1	1
3169	1	1
3170	1	1
3171	1	1
3172	1	1
3173	1	1
3174	1	1
3175	1	1
3176	1	1
3177	1	1
3178	1	1
3179	1	1
3180	1	1
3181	1	1
3182	1	1
3183	1	1
3184	1	1
3185	1	1
3186	1	1
3187	1	1
3188	1	1
3189	1	1
3190	1	1
3191	1	1
3192	1	1
3193	1	1
3194	1	1
3195	1	1
3196	1	1
3197	1	1
3198	1	1
3199	1	1
3200	1	1
3201	1	1
3202	1	1
3203	1	1
3204	1	1
3205	1	1
3206	1	1
3207	1	1
3208	1	1
3209	1	1
3210	1	1
3211	1	1
3212	1	1
3213	1	1
3214	1	1
3215	0	1
3216	0	1
3217	0	1
3218	1	1
3219	1	1
3220	1	1
3221	1	1
3222	1	1
3223	1	1
3224	1	1
3225	1	1
3226	1	1
3227	1	1
3228	1	1
3229	1	1
3230	1	1
3231	1	1
3232	1	1
3233	1	1
3234	1	1
3235	1	1
3236	1	1
3237	1	1
3238	0	0.998244
3239	0	0.998244
3240	0	0.998244
3241	0	0.998244
3242	0	0.998244
3243	0	0.998244
3244	0	0.998246
3245	0	0.998246
3246	0	0.998246
3247	0	0.8
3248	0	0.668328
3249	0	0.857809
3250	0	0.982237
3251	0	0.948414
3252	0	0.3
3253	0	0.3
3254	0	0.998246
3255	0	0.998246
3256	0	0.998246
3257	0	0.998246
3258	0	0.998246
3259	0	1
3260	0	1
3261	0	1
3262	0	1
3263	0	0.991256
3264	0	0.996496
3265	0	0
3266	0	0
3267	0	0
3268	0	0
3269	0	0
3270	0	0.996493
3271	0	0.996493
3272	0	0.996493
3273	0	0.996493
3274	0	0.998244
3275	0	0.998244
3276	0	0.998244
3277	0	0.998244
3278	0	0.998244
3279	0	0.998244
3280	0	1
3281	0	1
3282	0	1
3283	0	0.975628
3284	0	0.50835
3285	0	0.4
3286	0	0.4
3287	0	0.3
3288	0	0.5
3289	0	0.3
3290	0	0.3
3291	0	0.1
3292	0	0.1
3293	0	0.1
3294	0	0.1
3295	0	0.1
3296	0	0.0666667
3297	0	0.0666667
3298	0	0.0833333
3299	0	0.0666667
3300	0	0.1
3301	0	0.1
3302	0	0
3303	0	0
3304	0	0
3305	0	0.1
3306	0	0.1
3307	0	0.1
3308	0	0.1
3309	0	0.1
3310	0	0.1
3311	0	0.6
3312	0	0.6
3313	0	1
3314	0	1
3315	0	0.6
3316	0	0.6
3317	0	0.857248
3318	0	0.333333
3319	0	0.333333
3320	0	1
3321	0	0.872105
3322	0	0.996487
3323	0	0.998243
3324	0	0.998243
3325	0	0.998243
3326	0	0.998243
3327	0	0.998243
3328	0	0.998241
3329	0	1
3330	0	1
3331	0	1
3332	0	0.998239
3333	0	0
3334	0	0
3335	0	0
3336	0	0
3337	0	0
3338	0	0.666667
3339	0	0.666667
3340	0	0.666667
3341	0	0.666667
3342	0	0.355556
3343	0	0.241758
3344	0	0.194737
3345	0	0.158103
3346	0	0.144928
3347	0	0.95316
3348	0	1
3349	0	1
3350	0	1
3351	0	0.818182
3352	0	0.431373
3353	0	0.431373
3354	0	0.333333
3355	0	0.206522
3356	0	0.190769
3357	0	0.176638
3358	0	0.209302
3359	0	0.817698
3360	0	0
3361	0	0
3362	0	0
3363	0	0
3364	0	0
3365	0	0
3366	0	0
3367	0	0
3368	0	0.505682
3369	0	0.491979
3370	0	0.491979
3371	0	0.420677
3372	0	0.387387
3373	0	0.315789
3374	0	0.258537
3375	0	0.184687
3376	0	0.750749
3377	0	0.269006
3378	0	0.36
3379	0	0.278947
3380	0	0.207792
3381	0	0.18
3382	0	0.174603
3383	0	0.672795
3384	0	1
3385	0	1
3386	0	1
3387	0	1
3388	0	1
3389	0	1
3390	0	1
3391	0	1
3392	0	1
3393	0	1
3394	0	1
3395	0	1
3396	0	1
3397	0	1
3398	0	1
3399	0	1
3400	0	1
3401	0	1
3402	0	1
3403	0	1
3404	0	0.333333
3405	0	0.333333
3406	0	0.333333
3407	0	0.333333
3408	0	0.333333
3409	0	0.333333
3410	0	0.333333
3411	0	0.333333
3412	0	0.333333
3413	0	0.333333
3414	0	0.333333
3415	0	0.333333
3416	0	0.333333
3417	0	0.333333
3418	0	0.333333
3419	0	0.333333
3420	0	0.333333
3421	0	0.333333
3422	0	0.333333
3423	0	0.166667
3424	0	0.166667
3425	0	0.1
3426	0	0.1
3427	0	0.1
3428	0	0.1
3429	0	0.1
3430	0	0.1
3431	0	0.1
3432	0	0.2
3433	0	0.2
3434	0	0.2
3435	0	0.2
3436	0	0.142857
3437	0	0.163636
3438	0	0.163636
3439	0	0.125
3440	0	0.104575
3441	0	0.101449
3442	0	0.0892308
3443	0	0.0852273
3444	0	0.294992
3445	0	0.553109
3446	0	0.412459
3447	0	0.265519
3448	0	0.154612
3449	0	0.152226
3450	0	0.171025
3451	0	0.164169
3452	0	0.125874
3453	0	0.115458
3454	0	0.115263
3455	0	0.105044
3456	0	0.162647
3457	0	0.218743
3458	0	0.333333
3459	0	0.333333
3460	0	0.333333
3461	0	0.333333
3462	0	0.22807
3463	0	0.12987
3464	0	0.200466
3465	0	0.196737
3466	0	0.118964
3467	0	0.105795
3468	0	0.137535
3469	0	0.141423
3470	0	0.215
3471	0	0.265634
3472	0	0.23156
3473	0	0.313253
3474	0	0.237579
3475	0	0.319414
3476	0	0.222269
3477	0	0.247351
3478	0	0.0757576
3479	0	0.136364
3480	0	0.108333
3481	0	0.163636
3482	0	0.163636
3483	0	0.163636
3484	0	0.164731
3485	0	0.17852
3486	0	0.556411
3487	0	0.809488
3488	0	0.809488
3489	0	0.490034
3490	0	0.481155
3491	0	0.481155
3492	0	0.764935
3493	0	0.764935
3494	0	0.796753
3495	0	0.873691
3496	0	0.873691
3497	0	0.873691
3498	0	0.826357
3499	0	0.815171
3500	0	0.819912
3501	0	0.843817
3502	0	0.832414
3503	0	0.796904
3504	0	0.810535
3505	0	0.78546
3506	0	0.819497
3507	0	0.841447
3508	0	0.881144
3509	0	0.322823
3510	0	0.3101
3511	0	0.520635
3512	0	0.58804
3513	0	0.616725
3514	0	0.682051
3515	0	0.685897
3516	0	0.962945
3517	0	0.222222
3518	0	0.220588
3519	0	0.604396
3520	0	0.846154
3521	0	1
3522	0	1
3523	0	1
3524	0	1
3525	0	0.996487
3526	0	0.99649
3527	0	0.99649
3528	0	0.996493
3529	0	0.996493
3530	0	0.996493
3531	0	0.996493
3532	0	0.996493
3533	0	0.996493
3534	0	0.998244
3535	0	0.998244
3536	0	0.998244
3537	0	0.998241
3538	0	0.994738
3539	0	0.998243
3540	0	0.998243
3541	0	0.998244
3542	0	0.998244
3543	0	0.998244
3544	0	0.998244
3545	0	0.998244
3546	0	0.998244
3547	0	0.998244
3548	0	0.998244
3549	0	0.998244
3550	0	0.998244
3551	0	0.998244
3552	0	0.998244
3553	0	0.998244
3554	0	0.998244
3555	0	0.998244
3556	0	0.998244
3557	0	0.998244
3558	0	0.998244
3559	0	0.998244
3560	0	0.998244
3561	0	0.998244
3562	0	0.998244
3563	0	0.998244
3564	0	0.998244
3565	0	0.998244
3566	0	0.99649
3567	0	0.99649
3568	0	0.99649
3569	0	0.99649
3570	0	0.99649
3571	0	0.996484
3572	0	0.998239
3573	0	0.998239
3574	0	0.996484
3575	0	0
3576	1	0
3577	1	0
3578	1	0
3579	1	0
3580	1	0
3581	1	0
3582	1	0
3583	1	0
3584	1	0
3585	1	0
3586	1	0
3587	0	0
3588	1	1
3589	1	1
3590	1	1
3591	1	1
3592	1	1
3593	1	1
3594	1	1
3595	1	1
3596	1	1
3597	1	1
3598	0	0.994734
3599	0	0.996487
3600	0	0.998239
3601	0	0.998239
3602	0	0.998239
3603	0	0.998239
3604	0	0.998239
3605	0	0.998239
3606	0	0.998238
3607	0	0.998239
3608	0	0.998238
3609	0	0.998239
3610	0	0.989483
3611	0	0.333333
3612	0	0.991222
3613	0	0.991222
3614	0	0.991222
3615	0	0.989469
3616	0	0.985973
3617	0	0.622782
3618	0	0.961747
3619	0	0.9
3620	0	0
3621	0	1
3622	0	1
3623	0	1
3624	0	1
3625	0	1
3626	0	1
3627	0	1
3628	0	0.998239
3629	0	0.998239
3630	0	0.998239
3631	0	0.998239
3632	0	0.998239
3633	0	0.998239
3634	0	0.998238
3635	0	1
3636	0	0.90343
3637	0	0.815412
3638	0	0.538715
3639	0	0.688578
3640	0	0.88259
3641	0	0.987735
3642	0	0.987735
3643	0	1
3644	0	0.994732
3645	0	0.994732
3646	0	0.994732
3647	0	0.994732
3648	0	0.992979
3649	0	0.99648
3650	0	0.998238
3651	0	0.998238
3652	1	1
3653	1	1
3654	1	1
3655	0	0.998236
3656	1	0
3657	0	0
3658	1	1
3659	1	1
3660	1	1
3661	1	1
3662	1	1
3663	1	1
3664	1	1
3665	1	1
3666	1	1
3667	1	1
3668	1	1
3669	1	1
3670	1	1
3671	1	1
3672	1	1
3673	0	0.469697
3674	0	0.987709
3675	0	0
3676	0	0
3677	0	0.978994
3678	0	0.975563
3679	0	0
3680	1	0
3681	1	0
3682	0	0.333333
3683	0	0.982389
3684	0	0.5
3685	0	0.882504
3686	0	0.88095
3687	0	0.88095
3688	0	0.96896
3689	0	0.961843
3690	0	0.991086
3691	0	0.4
3692	0	1
3693	0	1
3694	1	1
3695	0	1
3696	1	1
3697	1	1
3698	1	1
3699	1	1
3700	1	1
3701	1	1
3702	1	1
3703	1	1
3704	1	1
3705	1	1
3706	1	1
3707	1	1
3708	1	1
3709	1	1
3710	1	1
3711	1	1
3712	0	0.998241
3713	0	0.998241
3714	0	1
3715	0	0.991224
3716	0	0.985977
3717	1	0
3718	1	0
3719	1	0
3720	0	0.989466
3721	0	0.4
3722	0	0.984242
3723	0	0.989475
3724	0	1
3725	0	0.998243
3726	0	0.998243
3727	0	0.998243
3728	0	0.998243
3729	0	0.998243
3730	0	0.998243
3731	0	0.998243
3732	0	0.998243
3733	0	0.998243
3734	0	0.998243
3735	0	0.998243
3736	0	0.998243
3737	0	1
3738	0	1
3739	0	0.998241
3740	0	0.998241
3741	0	1
3742	0	1
3743	0	1
3744	0	1
3745	1	1
3746	1	1
3747	1	1
3748	1	1
3749	1	1
3750	1	1
3751	1	1
3752	0	1
3753	0	1
3754	0	0.998241
3755	0	0.998241
3756	0	1
3757	0	1
3758	0	1
3759	0	1
3760	0	1
3761	0	1
3762	0	1
3763	0	1
3764	0	1
3765	0	0.99604
3766	0	0.99604
3767	0	0.992103
3768	0	0.992087
3769	0	0.978079
3770	0	0.968207
3771	0	0.911464
3772	0	0.833333
3773	0	0.595169
3774	0	0.595169
3775	0	0.831527
3776	0	0.880799
3777	0	0.880799
3778	0	0.609893
3779	0	0.238095
3780	0	0.228571
3781	0	0.5033
3782	0	0.217742
3783	0	0.15873
3784	0	0.400407
3785	0	0.166667
3786	0	0.166667
3787	0	0.166667
3788	0	0
3789	0	0
3790	0	0.328063
3791	0	0.288937
3792	0	0.259647
3793	0	0.338462
3794	0	0.338462
3795	0	0.338462
3796	0	0.335385
3797	0	0.130952
3798	0	0.575099
3799	0	0.576322
3800	0	0.577747
3801	0	1
3802	0	0.4
3803	0	1
3804	0	1
3805	0	1
3806	0	0.4
3807	0	0.5
3808	0	0.321429
3809	0	0.321429
3810	0	1
3811	0	0.285714
3812	0	0.25
3813	0	0.0633333
3814	0	0.0541311
3815	0	0.0502646
3816	0	0.471701
3817	0	0.158646
3818	0	0.15129
3819	0	0.15377
3820	0	0.133011
3821	0	0.374823
3822	0	0.260487
3823	0	0.118431
3824	0	0.108235
3825	0	0.101328
3826	0	0.101847
3827	0	0.0916667
3828	0	0.1
3829	0	0.0857143
3830	0	0.12381
3831	0	0.0954741
3832	0	0
3833	0	0
3834	0	0
3835	0	0
3836	0	0
3837	0	0
3838	0	0
3839	0	0.0644809
3840	0	0.0480874
3841	0	0.129909
3842	0	0
3843	0	0
3844	0	0
3845	0	0
3846	0	0.174859
3847	0	0.0936318
3848	0	0.138502
3849	0	0.152168
3850	0	0
3851	0	0
3852	0	0
3853	0	0
3854	0	0.166667
3855	0	0.166667
3856	0	0.166667
3857	0	0.166667
3858	0	0.1
3859	0	0.1
3860	0	0.0666667
3861	0	0
3862	0	0.201407
3863	0	0.177839
3864	0	0.147186
3865	0	0.116883
3866	0	0.101449
3867	0	0.115249
3868	0	0.159677
3869	0	0.154173
3870	0	0.168154
3871	0	0.192002
3872	0	0.274725
3873	0	0.274725
3874	0	0.157998
3875	0	0.370244
3876	0	0.369482
3877	0	0.368721
3878	0	0.218067
3879	0	0.252045
3880	0	0.157809
3881	0	0.366439
3882	0	0.122602
3883	0	0.570839
3884	0	0.122686
3885	0	0.247619
3886	0	0.247619
3887	0	0.247619
3888	0	0.247619
3889	0	0.295238
3890	0	0.275
3891	0	0.275
3892	0	0.519876
3893	0	0.578638
3894	0	0.155556
3895	0	0.155556
3896	0	0.1
3897	0	0.1
3898	0	0.0952381
3899	0	0.0952381
3900	0	0.241443
3901	0	0.237805
3902	0	0.569078
3903	0	0.111111
3904	0	0.142857
3905	0	0.190476
3906	0	0.25
3907	0	0.145455
3908	0	0.145455
3909	0	0.424242
3910	0	0.562201
3911	0	0.416667
3912	0	0.466667
3913	0	0.483077
3914	0	0.764095
3915	0	0.166667
3916	0	0.166667
3917	0	0.333333
3918	0	0.333333
3919	0	0.333333
3920	0	0.333333
3921	0	1
3922	0	1
3923	0	1
3924	0	1
3925	0	1
3926	0	1
3927	0	1
3928	0	1
3929	0	1
3930	0	1
3931	0	1
3932	0	1
3933	0	1
3934	0	1
3935	0	1
3936	0	1
3937	0	1
3938	0	1
3939	0	0.595305
3940	0	0.594239
3941	0	0.598141
3942	0	0.857692
3943	0	0.4
3944	0	0.4
3945	0	0.8
3946	0	0.654545
3947	0	0.3
3948	0	0.612328
3949	0	0.3
3950	0	0.910452
3951	0	0.803596
3952	0	0.500958
3953	0	1
3954	0	0.966144
3955	0	0.966769
3956	0	1
3957	0	1
3958	0	1
3959	0	0.996477
3960	0	0.996484
3961	0	0.996484
3962	0	0.996484
3963	0	0.996487
3964	0	0.996484
3965	0	0.996484
3966	0	0.996484
3967	0	0.996484
3968	0	0.994728
3969	0	0.994728
3970	0	0.994728
3971	0	0.99648
3972	0	0.99648
3973	0	0
3974	0	0
3975	0	0
3976	0	0
3977	0	0.987739
3978	0	0.6
3979	0	0.996484
3980	0	0.996487
3981	0	0.996487
3982	0	0
3983	0	0
3984	0	1
3985	0	1
3986	0	1
3987	0	1
3988	0	1
3989	0	1
3990	0	1
3991	0	0.998236
3992	0	0.990985
3993	0	0.923344
3994	0	0.788025
3995	0	0.998243
3996	0	0.998243
3997	0	0.998243
3998	0	0.998243
3999	0	0.998243
4000	0	0.998243
4001	0	0.998243
4002	1	1
4003	0	0.998243
4004	0	0.998243
4005	0	0.996487
4006	0	0.996484
4007	0	0.994729
4008	0	0.99648
4009	0	0.99648
4010	0	1
4011	0	1
4012	0	1
4013	0	1
4014	0	0.551511
4015	1	0
4016	1	0
4017	1	0
4018	1	0
4019	1	0
4020	1	0
4021	1	0
4022	0	0
4023	0	0
4024	0	0.550136
4025	0	0.361111
4026	0	0.361111
4027	0	0.994714
4028	0	1
4029	0	0.998238
4030	0	0.998238
4031	0	0.998238
4032	0	0.998238
4033	0	0.998238
4034	0	0.998238
4035	0	0.998238
4036	0	0.998238
4037	0	0.998238
4038	0	0.998239
4039	0	0.998239
4040	0	1
4041	0	1
4042	0	1
4043	0	1
4044	0	1
4045	0	0.333333
4046	0	0.333333
4047	0	0
4048	0	0
4049	0	0
4050	0	0.989348
4051	0	0
4052	0	0
4053	0	0
4054	0	0
4055	0	0.970214
4056	0	0.285714
4057	0	0.285714
4058	0	0.4
4059	0	0.849987
4060	0	0.623872
4061	0	0.441462
4062	0	0.808577
4063	0	0.856041
4064	0	0.859632
4065	0	0.032967
4066	0	0.0181818
4067	0	0.0222222
4068	0	0.0363636
4069	0	0.0363636
4070	0	0.0357143
4071	0	0.0357143
4072	0	0.047619
4073	0	0.047619
4074	0	0.047619
4075	0	0.047619
4076	0	0.047619
4077	0	0.047619
4078	0	0.047619
4079	0	0.047619
4080	0	0.047619
4081	0	0.047619
4082	0	0.047619
4083	0	0.047619
4084	0	0.047619
4085	0	0.047619
4086	0	0.047619
4087	0	0.047619
4088	0	0.047619
4089	0	0.047619
4090	0	0.047619
4091	0	0.047619
4092	0	0.047619
4093	0	0.047619
4094	0	0.047619
4095	0	0.047619
4096	0	0.047619
4097	0	0.047619
4098	0	0.047619
4099	0	0
4100	0	0
4101	0	0
4102	0	0
4103	0	0
4104	0	0
4105	0	0
4106	0	0
4107	0	0
4108	0	0
4109	0	0
4110	0	0
4111	0	0
4112	0	0
4113	0	0
4114	0	0
4115	0	0
4116	0	0
4117	0	0
4118	0	0
4119	0	0
4120	0	0
4121	0	0
4122	0	0
4123	0	0
4124	0	0
4125	0	0
4126	0	0
4127	0	0
4128	0	0
4129	0	0
4130	0	0
4131	0	0
4132	0	0.866396
4133	0	0.909091
4134	0	0.998238
4135	0	0.998239
4136	0	0.998239
4137	0	0.998239
4138	0	0.998239
4139	0	1
4140	0	1
4141	0	1
4142	0	1
4143	0	1
4144	0	1
4145	0	1
4146	0	1
4147	0	1
4148	1	1
4149	1	1
4150	1	1
4151	0	0.998238
4152	0	0.998238
4153	0	0.998238
4154	0	0.994723
4155	0	0.996477
4156	0	0
4157	1	0
4158	0	0
4159	0	0
4160	0	0
4161	0	0
4162	0	0
4163	0	0
4164	0	0
4165	0	0
4166	0	0
4167	0	0
4168	0	0
4169	0	0
4170	0	0
4171	0	0
4172	0	0
4173	0	0
4174	0	0
4175	0	0
4176	0	0
4177	0	0
4178	1	0
4179	1	0
4180	1	0
4181	1	0
4182	1	0
4183	1	0
4184	0	0
4185	0	0
4186	0	0
4187	0	0
4188	0	0
4189	0	0
4190	0	0
4191	0	0
4192	0	0
4193	0	0
4194	0	0
4195	0	0
4196	0	0
4197	0	0
4198	0	0
4199	0	0
4200	0	0
4201	0	0
4202	0	0
4203	0	0
4204	0	0
4205	0	0
4206	0	0
4207	0	0
4208	0	0
4209	0	0
4210	0	0
4211	0	0
4212	0	0
4213	0	0
4214	0	0
4215	0	0
4216	0	0
4217	0	0
4218	0	0
4219	0	0
4220	0	0
4221	0	0
4222	0	0
4223	0	0
4224	0	0
4225	0	0
4226	0	0
4227	0	0
4228	0	0
4229	0	0
4230	0	0
4231	0	0
4232	0	0
4233	0	0
4234	0	0
4235	0	0
4236	0	0
4237	0	0
4238	0	0
4239	0	0
4240	0	0
4241	0	0
4242	0	0
4243	0	0
4244	0	0
4245	0	0
4246	0	0
4247	0	0
4248	0	0
4249	0	0
4250	0	0
4251	0	0
4252	0	0
4253	0	0
4254	0	0
4255	0	0
4256	0	0
4257	0	0
4258	0	0
4259	0	0
4260	0	0
4261	0	0
4262	0	0
4263	0	0
4264	0	0
4265	0	0
4266	0	0
4267	0	0
4268	0	0
4269	0	0
4270	0	0
4271	0	0
4272	0	0
4273	0	0
4274	0	0
4275	0	0.994723
4276	0	0.994723
4277	0	0.99648
4278	0	0.99648
4279	0	0.99648
4280	0	0.99648
4281	0	0.99648
4282	0	0.99648
4283	0	0.994728
4284	0	0.994728
4285	0	0
4286	0	0
4287	0	0
4288	0	0
4289	0	0
4290	0	0
4291	0	0
4292	0	0
4293	0	0
4294	0	0
4295	0	0
4296	0	0
4297	0	0
4298	0	0
4299	0	0
4300	0	0
4301	0	0
4302	0	0
4303	0	0
4304	0	0
4305	0	0
4306	0	0
4307	0	0
4308	0	0
4309	0	0
4310	0	0
4311	0	0
4312	0	0
4313	0	0
4314	0	0
4315	0	0
4316	0	0
4317	0	0
4318	0	0
4319	0	0
4320	0	0
4321	0	0
4322	0	0
4323	0	0
4324	0	0
4325	0	0
4326	0	0
4327	0	0
4328	0	0
4329	0	0
4330	0	0
4331	0	0
4332	0	0
4333	0	0
4334	0	0
4335	0	0
4336	0	0
4337	0	0
4338	0	0
4339	0	0
4340	0	0
4341	0	0
4342	0	0
4343	0	0
4344	0	0
4345	0	0
4346	0	0
4347	0	0
4348	0	0
4349	0	0
4350	0	0
4351	0	0
4352	0	0
4353	0	0
4354	0	0
4355	0	0
4356	0	0
4357	0	0
4358	0	0
4359	0	0
4360	0	0
4361	0	0
4362	0	0
4363	0	0
4364	0	0
4365	0	0
4366	0	0
4367	0	0
4368	0	0
4369	0	0
4370	0	0
4371	0	0
4372	0	0
4373	0	0
4374	0	0
4375	0	0
4376	0	0
4377	0	0
4378	0	0
4379	0	0
4380	0	0
4381	0	0
4382	0	0
4383	0	0
4384	0	0
4385	0	0
4386	0	0
4387	0	0
4388	0	0
4389	0	0
4390	0	0
4391	0	0
4392	0	0
4393	0	0
4394	0	0
4395	0	0
4396	0	0
4397	0	0
4398	0	0
4399	0	0
4400	0	0
4401	0	0
4402	0	0
4403	0	0
4404	0	0
4405	0	0
4406	0	0
4407	0	0
4408	0	0
4409	0	0
4410	0	0
4411	0	0
4412	0	0
4413	0	0
4414	0	0
4415	0	0
4416	0	0
4417	0	0
4418	0	0
4419	0	0
4420	0	0
4421	0	0
4422	0	0
4423	0	0
4424	0	0
4425	0	0
4426	0	0
4427	0	0
4428	0	0
4429	0	0
4430	0	0
4431	0	0
4432	0	0
4433	0	0
4434	0	0
4435	0	0
4436	0	0
4437	0	0
4438	0	0
4439	0	0
4440	0	0
4441	0	0
4442	0	0
4443	0	0
4444	0	0
4445	0	0
4446	0	0
4447	0	0
4448	0	0
4449	0	0
4450	0	0
4451	0	0
4452	0	0
4453	0	0
4454	0	0
4455	0	0
4456	0	0
4457	0	0
4458	0	0
4459	0	0
4460	0	0
4461	0	0
4462	0	0
4463	0	0
4464	0	0
4465	0	0
4466	0	0
4467	0	0
4468	0	0
4469	0	0
4470	0	0
4471	0	0
4472	0	0
4473	0	0
4474	0	0
4475	0	0
4476	0	0
4477	0	0
4478	0	0
4479	0	0
4480	0	0
4481	0	0
4482	0	0
4483	0	0
4484	0	0
4485	0	0
4486	0	0
4487	0	0
4488	0	0
4489	0	0
4490	0	0
4491	0	0
4492	0	0
4493	0	0
4494	0	0
4495	0	0
4496	0	0
4497	0	0
4498	0	0
4499	0	0
4500	0	0
4501	0	0
4502	0	0
4503	0	0
4504	0	0
4505	0	0
4506	0	0
4507	0	0
4508	0	0
4509	0	0
4510	0	0
4511	0	0
4512	0	0
4513	0	0
4514	0	0
4515	0	0
4516	0	0
4517	0	0
4518	0	0
4519	0	0
4520	0	0
4521	0	0
4522	0	0
4523	0	0
4524	0	0
4525	0	0
4526	0	0
4527	0	0
4528	0	0
4529	0	0
4530	0	0
4531	0	0
4532	0	0
4533	0	0
4534	0	0
4535	0	0
4536	0	0
4537	0	0
4538	0	0
4539	0	0
4540	0	0
4541	0	0
4542	0	0
4543	0	0
4544	0	0
4545	0	0
4546	0	0
4547	0	0
4548	0	0
4549	0	0
4550	0	0
4551	0	0
4552	0	0
4553	0	0
4554	0	0
4555	0	0
4556	0	0
4557	0	0
4558	0	0
4559	0	0
4560	0	0
4561	0	0
4562	0	0
4563	0	0
4564	0	0
4565	0	0
4566	0	0
4567	0	0
4568	0	0
4569	0	0
4570	0	0
4571	0	0
4572	0	0
4573	0	0
4574	0	0
4575	0	0
4576	0	0
4577	0	0
4578	0	0
4579	0	0
4580	0	0
4581	0	0
4582	0	0
4583	0	0
4584	0	0
4585	0	0
4586	0	0
4587	0	0
4588	0	0
4589	0	0
4590	0	0
4591	0	0
4592	0	0
4593	0	0
4594	0	0
4595	0	0
4596	0	0
4597	0	0
4598	0	0
4599	0	0
4600	0	0
4601	0	0
4602	0	0
4603	0	0
4604	0	0
4605	0	0
4606	0	0
4607	0	0
4608	0	0
4609	0	0
4610	0	0
4611	0	0
4612	0	0
4613	0	0
4614	0	0
4615	1	0
4616	1	0
4617	1	0
4618	1	0
4619	1	0
4620	1	0
4621	1	0
4622	0	0
4623	0	0
4624	0	0
4625	0	0
4626	0	0
4627	0	0
4628	0	0
4629	0	0
4630	0	0
4631	0	0
4632	0	0
4633	0	0
4634	0	0
4635	0	0
4636	0	0
4637	0	0
4638	0	0
4639	0	0
4640	0	0
4641	0	0
4642	0	0
4643	0	0
4644	0	0
4645	0	0
4646	0	0
4647	0	0
4648	0	0
4649	1	0
4650	0	0
4651	0	0
4652	0	0
4653	0	0
4654	0	0
4655	0	0
4656	0	0
4657	0	0
4658	0	0
4659	0	0
4660	0	0
4661	0	0
4662	0	0
4663	0	0
4664	0	0
4665	0	0
4666	0	0
4667	0	0
4668	0	0
4669	0	0
4670	0	0
4671	0	0
4672	0	0
4673	0	0
4674	0	0
4675	0	0
4676	0	0
4677	0	0
4678	0	0
4679	0	0
4680	0	0
4681	0	0
4682	0	0
4683	0	0
4684	0	0
4685	0	0
4686	0	0
4687	0	0
4688	0	0
4689	0	0
4690	0	0
4691	0	0
4692	0	0
4693	0	0
4694	0	0
4695	0	0
4696	0	0
4697	1	0
4698	1	0
4699	0	0
4700	0	0
4701	0	0
4702	0	0
4703	0	0
4704	0	0
4705	0	0
4706	0	0
4707	0	0
4708	0	0
4709	0	0
4710	0	0
4711	0	0
4712	0	0
4713	0	0
4714	0	0
4715	0	0
4716	1	0
4717	1	0
4718	1	0
4719	1	0
4720	1	0
4721	1	0
4722	1	0
4723	1	0
4724	1	0
4725	0	0
4726	0	0
4727	0	0
4728	0	0
4729	1	0
4730	0	0
4731	0	0
4732	0	0
4733	1	0
4734	1	0
4735	0	0
4736	0	0
4737	0	0
4738	0	0
4739	0	0
4740	0	0
4741	0	0
4742	0	0
4743	0	0
4744	0	0
4745	0	0
4746	0	0
4747	0	0
4748	0	0
4749	0	0.998238
4750	0	0.998238
4751	0	0.998238
4752	0	0.998238
4753	0	0.998238
4754	0	0.998238
4755	0	0.998238
4756	0	0.998238
4757	0	0
4758	0	0
4759	0	0
4760	0	0
4761	0	0
4762	0	0
4763	0	0
4764	0	0
4765	1	0
4766	1	0
4767	1	0
4768	1	0
4769	1	0
4770	1	0
4771	1	0
4772	1	0
4773	1	0
4774	1	0
4775	0	0.996477
4776	0	0.996477
4777	0	0.996477
4778	0	0.996477
4779	0	0.998236
4780	0	0.998236
4781	0	0.998236
4782	0	0.998236
4783	0	0.998236
4784	0	0.998236
4785	0	0.996477
4786	0	0.996474
4787	0	0
4788	0	0
4789	0	0
4790	0	0
4791	0	0
4792	0	0
4793	0	0
4794	0	0
4795	0	0
4796	0	0
4797	0	0
4798	0	0
4799	0	0
4800	0	0
4801	0	0
4802	1	0
4803	1	0
4804	1	0
4805	1	0
4806	1	0
4807	1	0
4808	1	0
4809	1	0
4810	1	0
4811	1	0
4812	0	0.989366
4813	0	0.991127
4814	0	0.991127
4815	0	0
4816	0	0
4817	0	0
4818	0	0
4819	0	0
4820	0	0
4821	0	0
4822	0	0
4823	0	0
4824	0	0
4825	0	0
4826	0	0
4827	0	0
4828	0	0
4829	0	0
4830	0	0
4831	0	0
4832	0	0
4833	0	0
4834	0	0
4835	0	0
4836	0	0
4837	0	0
4838	0	0
4839	0	0
4840	0	0
4841	0	0
4842	0	0
4843	0	0
4844	0	0
4845	0	0
4846	0	0
4847	0	0
4848	0	0.994657
4849	0	0.994657
4850	0	0.994657
4851	0	1
4852	0	1
4853	0	0.98934
4854	0	0.98934
4855	0	0.98934
4856	0	0
4857	0	0
4858	0	0
4859	0	0
4860	0	0
4861	0	0
4862	0	0
4863	0	0
4864	0	0
4865	0	0
4866	0	0
4867	0	0
4868	0	0
4869	0	0
4870	0	0
4871	0	0
4872	0	0
4873	0	0
4874	0	0
4875	0	0
4876	0	0
4877	0	0
4878	0	0
4879	0	0
4880	0	0
4881	0	0
4882	0	0
4883	0	0
4884	0	0
4885	0	0
4886	0	0
4887	0	0
4888	0	0
4889	0	0
4890	0	0
4891	0	0
4892	0	0
4893	0	0
4894	0	0
4895	0	0
4896	0	0
4897	0	0.989319
4898	0	0
4899	0	0
4900	0	0
4901	0	0
4902	0	0
4903	0	0
4904	0	0
4905	0	0
4906	0	0
4907	0	0
4908	0	0
4909	0	0
4910	0	0
4911	0	0
4912	0	0
4913	0	0
4914	0	0
4915	1	0
4916	1	0
4917	1	0
4918	1	0
4919	1	0
4920	1	0
4921	1	0
4922	1	0
4923	1	0
4924	1	0
4925	1	0
4926	1	0
4927	1	0
4928	1	0
4929	1	0
4930	1	0
4931	0	0
4932	0	0
4933	0	0
4934	0	0
4935	0	0
4936	0	0
4937	0	0
4938	0	0
4939	0	0
4940	0	0
4941	0	0
4942	0	0
4943	0	0
4944	0	0
4945	0	0
4946	0	0
4947	0	0
4948	0	0
4949	0	0
4950	0	0
4951	0	0
4952	0	0
4953	0	0
4954	0	0
4955	1	0
4956	1	0
4957	1	0
4958	1	0
4959	0	0
4960	0	0
4961	0	0
4962	0	0
4963	0	0
4964	0	0
4965	0	0
4966	0	0
4967	0	0
4968	0	0
4969	0	0
4970	0	0
4971	0	0
4972	0	0
4973	0	0
4974	0	0
4975	0	0
4976	0	0
4977	0	0
4978	0	0
4979	0	0
4980	0	0
4981	0	0
4982	0	0
4983	0	0
4984	0	0
4985	0	0
4986	0	0
4987	0	0
4988	0	0
4989	0	0
4990	0	0
4991	0	0
4992	0	0
4993	0	0
4994	0	0
4995	0	0
4996	0	0
4997	0	0
4998	0	0
4999	0	0
5000	0	0
5001	0	0
5002	0	0
5003	0	0
5004	0	0
5005	0	0
5006	0	0
5007	0	0
5008	0	0
5009	0	0
5010	0	0
5011	0	0
5012	0	0.357143
5013	0	0.976278
5014	0	0.714083
5015	0	0.669986
5016	0	0.532669
5017	0	0.777778
5018	0	0.466667
5019	0	0.466667
5020	0	0.886841
5021	0	0.266667
5022	0	0.266667
5023	0	0.5
5024	0	0.333333
5025	0	0
5026	0	0
5027	0	0
5028	0	0
5029	0	0
5030	0	0
5031	0	0
5032	0	0
5033	0	0
5034	0	0
5035	0	0
5036	0	0
5037	0	1
5038	0	1
5039	0	1
5040	0	0
5041	0	0.594968
5042	0	0.585936
5043	0	0.363636
5044	0	0.212121
5045	0	0.151515
5046	0	0.109091
5047	0	0.109091
5048	0	0.218182
5049	0	0.218182
5050	0	0.181818
5051	0	0.181818
5052	0	0.623088
5053	0	0.0666667
5054	0	0.1
5055	0	0.632425
5056	0	0.546444
5057	0	0.191287
5058	0	0.439643
5059	0	0
5060	0	0
5061	0	0
5062	0	0
5063	0	0
5064	0	0
5065	0	0
5066	0	0
5067	0	0
5068	0	0
5069	0	0
5070	0	0
5071	0	0
5072	0	0
5073	0	0
5074	0	0
5075	0	0
5076	0	0
5077	0	0
5078	0	0
5079	0	0
5080	0	0
5081	0	0
5082	0	0
5083	0	0
5084	0	0
5085	0	0
5086	0	0
5087	0	0
5088	0	0
5089	0	0
5090	0	0
5091	0	0
5092	0	0
5093	0	0
5094	0	0
5095	0	0
5096	0	0
5097	0	0
5098	0	0
5099	0	0
5100	0	0
5101	0	0
5102	0	0
5103	0	0
5104	0	0
5105	0	0
5106	0	0
5107	0	0
5108	0	0
5109	0	0
5110	0	0
5111	0	0
5112	0	0
5113	0	0
5114	0	0
5115	0	0
5116	0	0
5117	0	0
5118	0	0
5119	0	0
5120	0	0
5121	0	0
5122	0	0
5123	0	0
5124	0	0
5125	0	0
5126	0	0
5127	0	0
5128	0	0
5129	0	0
5130	0	0
5131	0	0
5132	0	0
5133	0	0
5134	0	0
5135	0	0
5136	0	0
5137	0	0
5138	0	0
5139	0	0
5140	0	0
5141	0	0
5142	0	0
5143	0	0
5144	1	0
5145	0	0
5146	0	0
5147	0	0
5148	0	0
5149	0	0
5150	0	0
5151	0	0
5152	0	0
5153	0	0
5154	0	0
5155	0	0
5156	0	0.36097
5157	0	0.270898
5158	0	0.679503
5159	0	0.670807
5160	0	0.183824
5161	0	0.172983
5162	0	0.308656
5163	0	0.300427
5164	0	0.333333
5165	0	0.333333
5166	0	1
5167	0	1
5168	0	1
5169	0	1
5170	0	1
5171	0	1
5172	0	1
5173	0	1
5174	0	0
5175	0	0
5176	0	0
5177	0	0
5178	0	0
5179	0	0
5180	0	0
5181	0	0
5182	0	0
5183	0	0
5184	0	0
5185	0	0
5186	0	0
5187	0	0
5188	0	0
5189	0	0
5190	0	0
5191	0	0
5192	0	0
5193	0	0
5194	0	0
5195	0	0
5196	0	0
5197	0	0
5198	0	0
5199	0	0
5200	0	0
5201	0	0
5202	0	0
5203	0	0
5204	0	0
5205	0	0
5206	0	0
5207	0	0
5208	0	0
5209	0	0
5210	0	0
5211	0	0
5212	0	0
5213	0	0
5214	0	0
5215	0	0
5216	0	0
5217	0	0
5218	0	0
5219	0	0
5220	0	0
5221	0	0
5222	0	0
5223	0	0
5224	0	0
5225	0	0
5226	0	0
5227	0	0
5228	0	0
5229	0	0
5230	0	0
5231	0	0
5232	0	0
5233	0	0
5234	0	0
5235	0	0
5236	0	0
5237	0	0
5238	0	0
5239	0	0
5240	0	0
5241	0	0
5242	0	0
5243	0	0
5244	0	0
5245	0	0
5246	0	0
5247	0	0
5248	0	0
5249	0	0
5250	0	0
5251	0	0
5252	0	0
5253	0	0
5254	0	0
5255	0	0
5256	0	0
5257	0	0
5258	0	0
5259	0	0
5260	0	0
5261	0	0.4
5262	0	0.4
5263	0	0.4
5264	0	0.4
5265	0	0.4
5266	0	0.4
5267	0	0.3
5268	0	0.190476
5269	0	0.190476
5270	0	0.190476
5271	0	0.190476
5272	0	0.190476
5273	0	0.190476
5274	0	0.190476
5275	0	0.190476
5276	0	0.190476
5277	0	0.190476
5278	0	0.190476
5279	0	0.190476
5280	0	0.142857
5281	0	0.142857
5282	0	0.178571
5283	0	0.178571
5284	0	0.178571
5285	0	0.178571
5286	0	0.178571
5287	0	0.238095
5288	0	0.238095
5289	0	0.238095
5290	0	0.238095
5291	0	0.238095
5292	0	0.238095
5293	0	0.238095
5294	0	0.238095
5295	0	0.238095
5296	0	0.238095
5297	0	0.52381
5298	0	0.52381
5299	0	0.392857
5300	0	0.392857
5301	0	0.392857
5302	0	0.392857
5303	0	0.392857
5304	0	0.392857
5305	0	0.392857
5306	0	0.178571
5307	0	0.178571
5308	0	0.178571
5309	0	0.178571
5310	0	0.178571
5311	0	1
5312	0	1
5313	0	1
5314	0	1
5315	0	1
5316	0	1
5317	0	1
5318	0	1
5319	0	1
5320	0	1
5321	0	1
5322	0	1
5323	0	1
5324	0	1
5325	0	1
5326	0	1
5327	0	1
5328	0	1
5329	0	1
5330	0	1
5331	0	1
5332	0	1
5333	0	1
5334	0	1
5335	0	1
5336	0	1
5337	0	1
5338	0	1
5339	0	1
5340	0	1
5341	0	1
5342	0	1
5343	0	1
5344	0	1
5345	0	1
5346	0	1
5347	0	1
5348	0	1
5349	0	1
5350	0	1
5351	0	1
5352	0	1
5353	0	1
5354	0	0.428571
5355	0	0.466667
5356	0	0.466667
5357	0	0.488889
5358	0	0.8
5359	0	0.8
5360	0	0.8
5361	0	0.8
5362	0	0.8
5363	0	0.8
5364	0	0.8
5365	0	0.8
5366	0	0.488889
5367	0	0.488889
5368	0	0.488889
5369	0	0.288889
5370	0	1
5371	0	0.333333
5372	0	0.333333
5373	0	0.571429
5374	0	0.571429
5375	0	1
5376	0	1
5377	0	1
5378	0	1
5379	0	1
5380	0	1
5381	0	1
5382	0	1
5383	0	1
5384	0	1
5385	0	1
5386	0	1
5387	0	1
5388	0	1
5389	0	1
5390	0	1
5391	0	1
5392	0	1
5393	0	0.8
5394	0	1
5395	0	1
5396	0	1
5397	0	1
5398	0	1
5399	0	1
5400	0	1
5401	0	1
5402	0	1
5403	0	1
5404	0	1
5405	0	1
5406	0	1
5407	0	1
5408	0	1
5409	0	1
5410	0	1
5411	0	1
5412	0	1
5413	0	0.644444
5414	0	1
5415	0	1
5416	0	1
5417	0	1
5418	0	1
5419	0	1
5420	1	1
5421	1	1
5422	1	1
5423	1	1
5424	1	1
5425	1	1
5426	0	1
5427	0	1
5428	0	1
5429	0	1
5430	0	1
5431	0	1
5432	0	1
5433	0	1
5434	0	1
5435	0	1
5436	0	1
5437	0	1
5438	0	1
5439	0	1
5440	0	1
5441	0	1
5442	0	1
5443	0	1
5444	0	1
5445	0	1
5446	0	1
5447	0	1
5448	0	1
5449	0	1
5450	0	1
5451	0	1
5452	1	1
5453	0	1
5454	0	1
5455	0	1
5456	0	1
5457	0	1
5458	0	1
5459	0	1
5460	0	1
5461	0	1
5462	0	1
5463	0	1
5464	0	1
5465	0	1
5466	0	1
5467	0	1
5468	0	1
5469	0	1
5470	0	1
5471	0	1
5472	0	1
5473	0	1
5474	0	1
5475	0	1
5476	0	1
5477	0	1
5478	0	1
5479	0	1
5480	0	0.533333
5481	0	0.533333
5482	0	0.533333
5483	0	0.464286
5484	0	0.464286
5485	0	0.321429
5486	0	0.321429
5487	0	0.321429
5488	0	0.428571
5489	0	1
5490	0	1
5491	0	0.5
5492	0	0.333333
5493	0	0.333333
5494	0	0.333333
5495	0	0
5496	0	0
5497	0	0
5498	0	0
5499	0	0
5500	0	0
5501	0	0
5502	0	0
5503	0	0
5504	0	0
5505	0	0
5506	0	0.714286
5507	0	1
5508	0	1
5509	0	1
5510	0	1
5511	0	1
5512	0	1
5513	0	1
5514	0	1
5515	0	1
5516	0	0.8
5517	0	0.8
5518	0	0.8
5519	0	0.8
5520	0	0.8
5521	0	0.8
5522	0	0.8
5523	0	0.8
5524	0	1
5525	0	1
5526	0	1
5527	0	1
5528	0	1
5529	0	1
5530	0	1
5531	0	1
5532	0	1
5533	0	1
5534	0	1
5535	0	1
5536	0	1
5537	0	1
5538	0	1
5539	0	1
5540	0	1
5541	0	1
5542	0	1
5543	0	1
5544	0	1
5545	0	1
5546	0	1
5547	0	1
5548	0	1
5549	0	1
5550	0	1
5551	0	1
5552	0	1
5553	0	1
5554	0	1
5555	0	1
5556	1	1
5557	1	1
5558	1	1
5559	1	1
5560	1	1
5561	0	1
5562	0	1
5563	0	1
5564	0	1
5565	0	1
5566	0	1
5567	0	1
5568	0	1
5569	0	1
5570	0	1
5571	0	1
5572	0	1
5573	0	1
5574	0	1
5575	0	1
5576	0	1
5577	0	1
5578	0	1
5579	1	1
5580	1	1
5581	1	1
5582	1	1
5583	1	1
5584	1	1
5585	1	1
5586	0	1
5587	0	1
5588	0	1
5589	0	1
5590	0	1
5591	0	1
5592	0	1
5593	0	1
5594	0	1
5595	0	1
5596	0	1
5597	1	1
5598	1	1
5599	1	1
5600	1	1
5601	0	1
5602	1	1
5603	1	1
5604	1	1
5605	0	1
5606	0	1
5607	0	1
5608	0	1
5609	0	1
5610	0	1
5611	0	1
5612	0	1
5613	0	1
5614	0	1
5615	0	1
5616	0	1
5617	0	1
5618	0	1
5619	0	1
5620	0	1
5621	0	1
5622	0	1
5623	0	1
5624	0	1
5625	0	1
5626	0	1
5627	0	1
5628	0	1
5629	0	1
5630	0	1
5631	0	1
5632	0	1
5633	0	1
5634	0	1
5635	0	1
5636	0	1
5637	0	1
5638	0	1
5639	0	1
5640	0	1
5641	0	1
5642	0	1
5643	0	1
5644	0	1
5645	0	1
5646	0	1
5647	0	1
5648	0	1
5649	0	1
5650	0	1
5651	0	1
5652	0	1
5653	0	1
5654	0	1
5655	0	1
5656	0	1
5657	0	1
5658	0	1
5659	1	1
5660	0	1
5661	0	1
5662	0	1
5663	0	1
5664	0	1
5665	0	1
5666	0	1
5667	0	1
5668	0	1
5669	0	1
5670	0	1
5671	0	1
5672	0	1
5673	0	1
5674	0	1
5675	0	1
5676	0	1
5677	0	1
5678	0	1
5679	0	1
5680	0	1
5681	0	1
5682	0	1
5683	0	1
5684	0	1
5685	0	1
5686	0	1
5687	0	1
5688	0	1
5689	0	1
5690	0	1
5691	0	1
5692	0	1
5693	0	1
5694	0	1
5695	0	1
5696	0	1
5697	0	1
5698	0	1
5699	0	1
5700	0	1
5701	0	1
5702	0	1
5703	0	1
5704	0	1
5705	0	1
5706	0	1
5707	0	1
5708	0	1
5709	0	1
5710	0	1
5711	1	1
5712	0	1
5713	0	1
5714	0	1
5715	0	1
5716	0	1
5717	0	1
5718	0	1
5719	0	1
5720	0	1
5721	0	1
5722	0	1
5723	0	1
5724	0	1
5725	0	1
5726	0	1
5727	0	1
5728	0	1
5729	0	1
5730	0	1
5731	0	1
5732	0	1
5733	0	1
5734	0	1
5735	0	1
5736	0	1
5737	0	1
5738	0	1
5739	0	1
5740	0	1
5741	0	1
5742	0	1
5743	0	1
5744	0	1
5745	0	1
5746	0	1
5747	0	1
5748	0	1
5749	0	1
5750	0	1
5751	0	1
5752	0	1
5753	0	1
5754	0	1
5755	0	1
5756	0	1
5757	0	1
5758	0	1
5759	0	1
5760	0	1
5761	0	1
5762	0	1
5763	0	1
5764	0	1
5765	0	1
5766	0	1
5767	0	1
5768	0	1
5769	0	1
5770	0	1
5771	0	1
5772	0	1
5773	1	1
5774	1	1
5775	1	1
5776	1	1
5777	1	1
5778	1	1
5779	1	1
5780	1	1
5781	1	1
5782	0	1
5783	0	1
5784	0	1
5785	0	1
5786	0	1
5787	0	1
5788	0	1
5789	0	1
5790	0	1
5791	0	1
5792	0	1
5793	0	1
5794	0	1
5795	0	1
5796	0	1
5797	0	1
5798	0	1
5799	0	1
5800	0	1
5801	0	1
5802	0	1
5803	0	1
5804	0	1
5805	0	1
5806	0	1
5807	0	1
5808	0	1
5809	0	1
5810	0	1
5811	0	1
5812	0	1
5813	0	1
5814	0	1
5815	0	1
5816	0	1
5817	0	1
5818	0	1
5819	1	1
5820	0	1
5821	0	1
5822	0	1
5823	0	1
5824	0	1
5825	0	1
5826	0	1
5827	0	1
5828	0	1
5829	0	1
5830	0	0
5831	0	0
5832	0	0
5833	0	0
5834	0	0
5835	0	0
5836	0	0
5837	0	0
5838	0	0
5839	0	0.4
5840	0	0.4
5841	0	0.4
5842	0	1
5843	0	0.52381
5844	0	1
5845	0	1
5846	0	1
5847	0	1
5848	0	1
5849	0	1
5850	0	1
5851	0	1
5852	0	1
5853	0	1
5854	0	1
5855	0	1
5856	0	1
5857	0	1
5858	0	1
5859	0	1
5860	0	1
5861	0	1
5862	0	1
5863	0	1
5864	0	1
5865	0	1
5866	0	1
5867	0	1
5868	0	1
5869	0	1
5870	0	1
5871	0	1
5872	0	1
5873	0	1
5874	0	1
5875	0	1
5876	0	1
5877	0	1
5878	1	1
5879	1	1
5880	0	1
5881	0	1
5882	0	1
5883	0	1
5884	1	1
5885	1	1
5886	1	1
5887	1	1
5888	1	1
5889	1	1
5890	1	1
5891	1	1
5892	1	1
5893	1	1
5894	1	1
5895	1	1
5896	1	1
5897	1	1
5898	1	1
5899	1	1
5900	0	1
5901	0	1
5902	0	1
5903	0	1
5904	0	1
5905	0	1
5906	0	1
5907	0	1
5908	0	1
5909	0	1
5910	0	1
5911	0	1
5912	0	1
5913	0	1
5914	0	1
5915	0	1
5916	0	1
5917	0	1
5918	0	1
5919	0	1
5920	0	1
5921	0	1
5922	0	1
5923	1	1
5924	1	1
5925	1	1
5926	1	1
5927	1	1
5928	1	1
5929	1	1
5930	1	1
5931	1	1
5932	1	1
5933	0	1
5934	0	1
5935	0	1
5936	0	1
5937	0	1
5938	0	1
5939	0	1
5940	0	1
5941	0	1
5942	0	1
5943	0	1
5944	0	1
5945	0	1
5946	0	1
5947	0	1
5948	0	1
5949	0	1
5950	0	1
5951	0	1
5952	0	1
5953	0	1
5954	0	1
5955	0	1
5956	0	1
5957	0	1
5958	0	1
5959	0	1
5960	0	1
5961	0	1
5962	0	1
5963	0	1
5964	0	1
5965	0	1
5966	0	1
5967	0	1
5968	0	1
5969	0	1
5970	0	1
5971	0	1
5972	0	1
5973	0	1
5974	0	1
5975	0	1
5976	0	1
5977	0	1
5978	0	1
5979	0	1
5980	0	1
5981	1	1
5982	1	1
5983	1	1
5984	1	1
5985	1	1
5986	1	1
5987	1	1
5988	1	1
5989	1	1
5990	1	1
5991	1	1
5992	1	1
5993	1	1
5994	1	1
5995	1	1
5996	1	1
5997	1	1
5998	1	1
5999	1	1
6000	1	1
6001	1	1
6002	1	1
6003	1	1
6004	1	1
6005	1	1
6006	1	1
6007	1	1
6008	1	1
6009	1	1
6010	1	1
6011	1	1
6012	1	1
6013	1	1
6014	1	1
6015	1	1
6016	1	1
6017	1	1
6018	1	1
6019	1	1
6020	0	1
6021	0	1
6022	0	1
6023	1	1
6024	1	1
6025	1	1
6026	1	1
6027	1	1
6028	1	1
6029	1	1
6030	1	1
6031	1	1
6032	0	1
6033	0	1
6034	0	1
6035	0	1
6036	0	1
6037	1	1
6038	1	1
6039	1	1
6040	1	1
6041	0	1
6042	0	1
6043	0	1
6044	0	1
6045	0	1
6046	0	1
6047	0	1
6048	0	1
6049	0	1
6050	0	1
6051	0	1
6052	0	1
6053	0	1
6054	0	1
6055	0	1
6056	0	1
6057	0	1
6058	0	1
6059	0	1
6060	0	1
6061	0	1
6062	0	1
6063	0	1
6064	0	1
6065	0	1
6066	0	1
6067	0	1
6068	0	1
6069	0	1
6070	0	1
6071	0	1
6072	0	1
6073	0	1
6074	0	1
6075	0	1
6076	0	1
6077	0	1
6078	0	1
6079	1	1
6080	1	1
6081	1	1
6082	1	1
6083	0	1
6084	0	1
6085	0	1
6086	1	1
6087	1	1
6088	1	1
6089	0	1
6090	0	1
6091	0	1
6092	1	1
6093	1	1
6094	1	1
6095	1	1
6096	1	1
6097	1	1
6098	1	1
6099	1	1
6100	1	1
6101	1	1
6102	1	1
6103	1	1
6104	1	1
6105	1	1
6106	1	1
6107	1	1
6108	1	1
6109	1	1
6110	1	1
6111	1	1
6112	1	1
6113	1	1
6114	1	1
6115	1	1
6116	1	1
6117	1	1
6118	1	1
6119	1	1
6120	1	1
6121	1	1
6122	1	1
6123	0	1
6124	0	1
6125	0	1
6126	0	1
6127	0	1
6128	0	1
6129	0	1
6130	0	1
6131	0	1
6132	0	1
6133	0	1
6134	0	1
6135	0	1
6136	0	1
6137	0	1
6138	0	0.533333
6139	0	1
6140	0	1
6141	0	1
6142	0	1
6143	0	1
6144	0	1
6145	0	1
6146	0	1
6147	0	1
6148	0	1
6149	0	1
6150	0	1
6151	0	1
6152	0	1
6153	0	1
6154	0	1
6155	0	1
6156	0	1
6157	0	1
6158	1	1
6159	1	1
6160	1	1
6161	1	1
6162	1	1
6163	0	1
6164	0	1
6165	0	1
6166	0	1
6167	0	1
6168	0	1
6169	0	1
6170	0	1
6171	0	1
6172	0	1
6173	0	1
6174	0	1
6175	0	1
6176	0	1
6177	0	1
6178	0	1
6179	0	1
6180	0	1
6181	0	1
6182	1	1
6183	1	1
6184	1	1
6185	1	1
6186	1	1
6187	1	1
6188	1	1
6189	1	1
6190	1	1
6191	0	1
6192	0	1
6193	0	1
6194	0	1
6195	0	1
6196	0	1
6197	0	1
6198	0	1
6199	0	1
6200	0	1
6201	0	1
6202	1	1
6203	1	1
6204	1	1
6205	1	1
6206	1	1
6207	1	1
6208	1	1
6209	1	1
6210	1	1
6211	1	1
6212	1	1
6213	1	1
6214	1	1
6215	1	1
6216	1	1
6217	1	1
6218	1	1
6219	1	1
6220	1	1
6221	1	1
6222	1	1
6223	1	1
6224	1	1
6225	1	1
6226	1	1
6227	1	1
6228	1	1
6229	1	1
6230	1	1
6231	1	1
6232	1	1
6233	1	1
6234	1	1
6235	1	1
6236	1	1
6237	1	1
6238	1	1
6239	1	1
6240	1	1
6241	1	1
6242	1	1
6243	1	1
6244	1	1
6245	1	1
6246	1	1
6247	1	1
6248	1	1
6249	1	1
6250	1	1
6251	1	1
6252	1	1
6253	1	1
6254	1	1
6255	1	1
6256	1	1
6257	1	1
6258	1	1
6259	1	1
6260	1	1
6261	1	1
6262	1	1
6263	1	1
6264	1	1
6265	1	1
6266	1	1
6267	1	1
6268	1	1
6269	1	1
6270	1	1
6271	1	1
6272	1	1
6273	1	1
6274	1	1
6275	1	1
6276	1	1
6277	1	1
6278	1	1
6279	1	1
6280	1	1
6281	1	1
6282	1	1
6283	1	1
6284	1	1
6285	1	1
6286	1	1
6287	1	1
6288	1	1
6289	1	1
6290	1	1
6291	1	1
6292	1	1
6293	1	1
6294	1	1
6295	1	1
6296	1	1
6297	1	1
6298	1	1
6299	1	1
6300	1	1
6301	1	1
6302	1	1
6303	1	1
6304	1	1
6305	1	1
6306	1	1
6307	1	1
6308	1	1
6309	1	1
6310	1	1
6311	1	1
6312	1	1
6313	1	1
6314	1	1
6315	1	1
6316	1	1
6317	1	1
6318	1	1
6319	1	1
6320	1	1
6321	1	1
6322	1	1
6323	1	1
6324	1	1
6325	1	1
6326	1	1
6327	1	1
6328	1	1
6329	1	1
6330	1	1
6331	1	1
6332	1	1
6333	1	1
6334	1	1
6335	1	1
6336	1	1
6337	1	1
6338	1	1
6339	1	1
6340	1	1
6341	1	1
6342	1	1
6343	1	1
6344	1	1
6345	1	1
6346	1	1
6347	1	1
6348	1	1
6349	1	1
6350	1	1
6351	1	1
6352	1	1
6353	1	1
6354	1	1
6355	1	1
6356	1	1
6357	1	1
6358	1	1
6359	1	1
6360	1	1
6361	1	1
6362	1	1
6363	1	1
6364	1	1
6365	1	1
6366	1	1
6367	1	1
6368	1	1
6369	1	1
6370	1	1
6371	1	1
6372	1	1
6373	1	1
6374	1	1
6375	1	1
6376	1	1
6377	1	1
6378	1	1
6379	1	1
6380	1	1
6381	1	1
6382	1	1
6383	1	1
6384	1	1
6385	1	1
6386	1	1
6387	1	1
6388	1	1
6389	1	1
6390	1	1
6391	1	1
6392	1	1
6393	1	1
6394	1	1
6395	1	1
6396	1	1
6397	1	1
6398	1	1
6399	1	1
6400	1	1
6401	1	1
6402	1	1
6403	1	1
6404	1	1
6405	1	1
6406	1	1
6407	1	1
6408	0	1
6409	0	1
6410	0	0.141488
6411	0	0.437908
6412	0	0
6413	0	0
6414	0	0
6415	0	0
6416	0	0
6417	0	0
6418	0	0
6419	0	0
6420	0	0
6421	0	0
6422	0	0
6423	0	0
6424	0	0
6425	0	0
6426	0	0
6427	0	0
6428	0	0
6429	0	0
6430	0	0
6431	0	0
6432	0	0
6433	0	0
6434	0	0
6435	0	0
6436	0	0.340388
6437	0	0.287706
6438	0	0.0909091
6439	0	0.0909091
6440	0	0.0909091
6441	0	0.163966
6442	0	0.203776
6443	0	0.0822677
6444	0	0.104575
6445	0	0.111111
6446	0	0.111111
6447	0	0.124183
6448	0	0.124183
6449	0	0.301846
6450	0	0.190476
6451	0	0.190476
6452	0	0.305556
6453	0	0.305556
6454	0	0.25
6455	0	0.25
6456	0	0.25
6457	0	0.177778
6458	0	0.281046
6459	0	0.0774832
6460	0	0.124533
6461	0	0.44628
6462	0	0.472416
6463	0	0.121212
6464	0	0.121212
6465	0	0.127273
6466	0	0.127273
6467	0	0.214286
6468	0	0.214286
6469	0	0.1
6470	0	0
6471	0	0
6472	0	0
6473	0	0
6474	0	0
6475	0	0
6476	0	0
6477	0	0
6478	0	0
6479	0	0
6480	0	0
6481	0	0
6482	0	0
6483	0	0.0952381
6484	0	0.153846
6485	0	0.0980392
6486	0	0.38766
6487	0	0.290909
6488	0	0.272727
6489	0	0.272727
6490	0	0.230769
6491	0	0.190476
6492	0	0.0827286
6493	0	0.324669
6494	0	0.0952381
6495	0	0.0952381
6496	0	0.1
6497	0	0.1
6498	0	0.1
6499	0	0.1
6500	0	0.1
6501	0	0.1
6502	0	0.1
6503	0	0.1
6504	0	0.290909
6505	0	0.1
6506	0	0.1
6507	0	0.1
6508	0	0.1
6509	0	0.1
6510	0	0.1
6511	0	0.1
6512	0	0.1
6513	0	0.1
6514	0	0.1
6515	0	0.1
6516	0	0.1
6517	0	0.1
6518	0	0.1
6519	0	0.1
6520	0	0.047619
6521	0	0.613339
6522	0	0.265546
6523	0	0.263258
6524	0	0.224599
6525	0	0.204762
6526	0	0.153153
6527	0	0.117172
6528	0	0.109043
6529	0	0.092559
6530	0	0.236211
6531	0	0.221567
6532	0	0.188219
6533	0	0.185117
6534	0	0.164082
6535	0	0.021645
6536	0	0.00735294
6537	0	0.00952381
6538	0	0.010989
6539	0	0.0151515
6540	0	0.0181818
6541	0	0.0181818
6542	0	0.0181818
6543	0	0.0222222
6544	0	0.0222222
6545	0	0.0444444
6546	0	0.0444444
6547	0	0.0444444
6548	0	0.0444444
6549	0	0.0444444
6550	0	0.0277778
6551	0	0.0357143
6552	0	0.0357143
6553	0	0.0357143
6554	0	0.0357143
6555	0	0.0357143
6556	0	0.0357143
6557	0	0.0357143
6558	0	0.0714286
6559	0	0.0714286
6560	0	0.0714286
6561	0	0.0714286
6562	0	0.0714286
6563	0	0.0714286
6564	0	0.0714286
6565	0	0.0714286
6566	0	0.0714286
6567	0	0.0357143
6568	0	0.0357143
6569	0	0.047619
6570	0	0.047619
6571	0	0
6572	0	0
6573	0	0
6574	0	0
6575	0	0
6576	0	0
6577	0	0
6578	0	0
6579	0	0
6580	0	0
6581	0	0
6582	0	0
6583	0	0
6584	0	0
6585	0	0
6586	0	0
6587	0	0
6588	0	0
6589	0	0
6590	0	0
6591	0	0
6592	0	0
6593	0	0
6594	0	0
6595	0	0
6596	0	0
6597	0	0
6598	0	0
6599	0	0
6600	0	0
6601	0	0
6602	0	0
6603	0	0
6604	0	0
6605	0	0
6606	0	0
6607	0	0
6608	0	0
6609	0	0
6610	0	0
6611	0	0
6612	0	0
6613	0	0
6614	0	0
6615	0	0
6616	0	0
6617	0	0
6618	0	0
6619	0	0
6620	0	0
6621	0	0
6622	0	0
6623	0	0
6624	0	0
6625	0	0
6626	0	0
6627	0	0
6628	0	0
6629	0	0
6630	0	0
6631	0	0
6632	0	0
6633	0	0
6634	0	0
6635	0	0
6636	0	0
6637	0	0
6638	0	0
6639	0	0
6640	0	0
6641	0	0
6642	0	0
6643	0	0
6644	0	0
6645	0	0
6646	0	0
6647	0	0
6648	0	0
6649	0	0
6650	0	0
6651	0	0
6652	0	0
6653	0	0
6654	0	0
6655	0	0
6656	0	0
6657	0	0
6658	0	0
6659	0	0
6660	0	0
6661	0	0
6662	0	0
6663	0	0
6664	0	0
6665	0	0
6666	0	0
6667	0	0
6668	0	0
6669	0	0
6670	0	0
6671	0	0
6672	0	0
6673	0	0
6674	0	0
6675	0	0
6676	0	0
6677	0	0
6678	0	0
6679	0	0
6680	0	0
6681	0	0
6682	0	0
6683	0	0
6684	0	0
6685	0	0
6686	0	0
6687	0	0
6688	0	0
6689	0	0
6690	0	0
6691	0	0
6692	0	0
6693	0	0
6694	0	0
6695	0	0
6696	0	0
6697	0	0
6698	0	0
6699	0	0
6700	0	0
6701	0	0
6702	0	0
6703	0	0
6704	0	0
6705	0	0
6706	0	0
6707	0	0
6708	0	0
6709	0	0
6710	0	0
6711	0	0
6712	0	0
6713	0	0
6714	0	0
6715	0	0
6716	0	0
6717	0	0
6718	0	0
6719	0	0
6720	0	0
6721	0	0
6722	0	0
6723	0	0
6724	0	0
6725	0	0
6726	0	0
6727	0	0
6728	0	0
6729	0	0
6730	0	0
6731	0	0
6732	0	0
6733	0	0
6734	0	0
6735	0	0
6736	0	0
6737	0	0
6738	0	0
6739	0	0
6740	0	0
6741	0	0
6742	0	0
6743	0	0
6744	0	0
6745	0	0
6746	0	0
6747	0	0
6748	0	0
6749	0	0
6750	0	0
6751	0	0
6752	0	0
6753	0	0
6754	0	0
6755	0	0
6756	0	0
6757	0	0
6758	0	0
6759	0	0
6760	0	0
6761	0	0
6762	0	0
6763	0	0
6764	0	0
6765	0	0
6766	0	0
6767	0	0
6768	0	0
6769	0	0
6770	0	0
6771	0	0
6772	0	0
6773	0	0
6774	0	0
6775	0	0
6776	0	0
6777	0	0
6778	0	0
6779	0	0
6780	0	0
6781	0	0
6782	0	0
6783	0	0
6784	0	0
6785	0	0
6786	0	0
6787	0	0
6788	0	0
6789	0	0
6790	0	0
6791	0	0
6792	0	0
6793	0	0
6794	0	0
6795	0	0
6796	0	0
6797	0	0
6798	0	0
6799	0	0
6800	0	0
6801	0	0
6802	0	0
6803	0	0
6804	0	0
6805	0	0
6806	0	0
6807	0	0
6808	0	0
6809	0	0
6810	0	0
6811	0	0
6812	0	0
6813	0	0
6814	0	0
6815	0	0
6816	0	0
6817	0	0
6818	0	0
6819	0	0
6820	0	0
6821	0	0
6822	0	0
6823	0	0
6824	0	0
6825	0	0
6826	0	0
6827	0	0
6828	0	0
6829	0	0
6830	0	0
6831	0	0
6832	0	0
6833	0	0
6834	0	0
6835	0	0
6836	0	0
6837	0	0
6838	0	0
6839	0	0
6840	0	0
6841	0	0
6842	0	0
6843	0	0
6844	0	0
6845	0	0
6846	0	0
6847	0	0
6848	0	0
6849	0	0
6850	0	0
6851	0	0
6852	0	0
6853	0	0
6854	0	0
6855	0	0
6856	0	0
6857	0	0
6858	0	0
6859	0	0
6860	0	0
6861	0	0
6862	0	0
6863	0	0
6864	0	0
6865	0	0
6866	0	0
6867	0	0
6868	0	0
6869	0	0
6870	0	0
6871	0	0
6872	0	0
6873	0	0
6874	0	0
6875	0	0
6876	0	0
6877	0	0
6878	0	0
6879	0	0
6880	0	0
6881	0	0
6882	0	0
6883	0	0
6884	0	0
6885	0	0
6886	0	0
6887	0	0
6888	0	0
6889	0	0
6890	0	0
6891	0	0
6892	0	0
6893	0	0
6894	0	0
6895	0	0
6896	0	0
6897	0	0
6898	0	0
6899	0	0
6900	0	0
6901	0	0
6902	0	0
6903	0	0
6904	0	0
6905	0	0
6906	0	0
6907	0	0
6908	0	0
6909	0	0
6910	0	0
6911	0	0
6912	0	0
6913	0	0
6914	0	0
6915	0	0
6916	0	0
6917	0	0
6918	0	0
6919	0	0
6920	0	0
6921	0	0
6922	0	0
6923	0	0
6924	0	0
6925	0	0
6926	0	0
6927	0	0
6928	0	0
6929	0	0
6930	0	0
6931	0	0
6932	0	0
6933	0	0
6934	0	0
6935	0	0
6936	0	0
6937	0	0
6938	0	0
6939	0	0
6940	0	0
6941	0	0
6942	0	0
6943	0	0
6944	0	0
6945	0	0
6946	0	0
6947	0	0
6948	0	0
6949	0	0
6950	0	0
6951	0	0
6952	0	0
6953	0	0
6954	1	0
6955	1	0
6956	1	0
6957	1	0
6958	0	0
6959	0	0
6960	0	0
6961	0	0
6962	1	0
6963	1	0
6964	1	0
6965	1	0
6966	1	0
6967	1	0
6968	1	0
6969	1	0
6970	1	0
6971	1	0
6972	1	0
6973	1	0
6974	1	0
6975	0	0
6976	0	0
6977	0	0
6978	0	0
6979	0	0
6980	0	0
6981	0	0
6982	0	0
6983	0	0
6984	0	0
6985	0	0
6986	0	0
6987	0	0
6988	0	0
6989	0	0
6990	0	0
6991	0	0
6992	0	0
6993	0	0
6994	0	0
6995	0	0
6996	0	0
6997	0	0
6998	0	0
6999	0	0
7000	0	0
7001	0	0
7002	0	0
7003	0	0
7004	0	0
7005	0	0
7006	0	0
7007	0	0
7008	0	0
7009	0	0
7010	0	0
7011	0	0
7012	0	0
7013	0	0.166667
7014	0	0.166667
7015	0	0.166667
7016	0	0.111111
7017	0	0.284585
7018	0	0.178462
7019	0	0.0988236
7020	0	0.0996098
7021	0	0.101132
7022	0	0.102104
7023	0	0.0769138
7024	0	0.0727106
7025	0	0.107756
7026	0	0.06948
7027	0	0.0734007
7028	0	0.0987805
7029	0	0.103846
7030	0	0.133333
7031	0	0.140212
7032	0	0.140212
7033	0	0.132275
7034	0	0.14245
7035	0	0.145299
7036	0	0.219048
7037	0	0.263158
7038	0	0.330882
7039	0	0.375
7040	0	0.375
7041	0	0.375
7042	0	0.375
7043	0	0.375
7044	0	0.375
7045	0	0.375
7046	0	0.428571
7047	0	0.428571
7048	0	0.428571
7049	0	0.428571
7050	0	0.494505
7051	0	0.494505
7052	0	0.494505
7053	0	0.494505
7054	0	0.494505
7055	0	0.494505
7056	0	0.494505
7057	0	0.494505
7058	0	0.494505
7059	0	0.494505
7060	0	0.494505
7061	0	0.494505
7062	0	0.494505
7063	0	0.494505
7064	0	0.494505
7065	0	0.494505
7066	0	0.494505
7067	0	0.494505
7068	0	0.576923
7069	0	0.576923
7070	0	0.576923
7071	0	0.576923
7072	0	0.576923
7073	0	0.576923
7074	0	0.576923
7075	0	0.576923
7076	0	0.576923
7077	0	0.576923
7078	0	0.576923
7079	0	0.576923
7080	0	0.576923
7081	0	0.576923
7082	0	0.576923
7083	0	0.576923
7084	0	0.576923
7085	0	0.576923
7086	0	0.576923
7087	0	0.681818
7088	0	0.681818
7089	0	0.681818
7090	0	0.681818
7091	0	0.576923
7092	0	0.576923
7093	0	0.576923
7094	0	0.576923
7095	0	0.576923
7096	0	0.576923
7097	0	0.576923
7098	0	0.576923
7099	0	0.576923
7100	0	0.576923
7101	0	0.576923
7102	0	0.576923
7103	0	0.576923
7104	0	0.576923
7105	0	0.576923
7106	0	0.576923
7107	0	0.576923
7108	0	0.576923
7109	0	0.576923
7110	0	0.576923
7111	0	0.576923
7112	0	0.576923
7113	0	0.576923
7114	0	0.681818
7115	0	0.681818
7116	0	0.681818
7117	0	0.681818
7118	0	0.681818
7119	0	0.681818
7120	0	0.681818
7121	0	0.681818
7122	0	0.681818
7123	0	0.681818
7124	0	0.681818
7125	0	0.681818
7126	0	0.681818
7127	0	0.818182
7128	0	0.818182
7129	0	0.818182
7130	0	0.818182
7131	0	0.818182
7132	0	0.818182
7133	0	0.818182
7134	0	0.818182
7135	0	0.681818
7136	0	0.681818
7137	0	0.681818
7138	0	0.681818
7139	0	0.681818
7140	0	0.681818
7141	0	0.681818
7142	0	0.681818
7143	0	0.681818
7144	0	0.681818
7145	0	0.681818
7146	0	0.681818
7147	0	0.681818
7148	0	0.681818
7149	0	0.681818
7150	0	0.681818
7151	0	0.681818
7152	0	0.681818
7153	0	0.681818
7154	0	0.681818
7155	0	0.681818
7156	0	0.681818
7157	0	0.681818
7158	0	0.681818
7159	0	0.681818
7160	0	0.681818
7161	0	0.681818
7162	0	0.681818
7163	0	0.681818
7164	0	0.818182
7165	0	0.818182
7166	0	0.818182
7167	0	0.818182
7168	0	0.818182
7169	0	0.818182
7170	0	0.818182
7171	0	0.818182
7172	0	0.818182
7173	0	0.818182
7174	0	0.818182
7175	0	0.818182
7176	0	0.818182
7177	0	0.818182
7178	0	0.818182
7179	0	0.818182
7180	0	0.818182
7181	0	0.818182
7182	0	0.818182
7183	0	0.818182
7184	0	0.818182
7185	0	0.818182
7186	0	0.818182
7187	0	0.818182
7188	0	0.818182
7189	0	0.818182
7190	0	0.818182
7191	0	0.818182
7192	0	0.818182
7193	0	0.818182
7194	0	0.818182
7195	0	0.818182
7196	0	0.818182
7197	0	0.818182
7198	0	0.818182
7199	0	0.818182
7200	0	0.818182
7201	0	0.818182
7202	0	0.818182
7203	0	0.818182
7204	0	0.818182
7205	0	0.818182
7206	0	0.818182
7207	0	0.818182
7208	0	0.818182
7209	0	0.818182
7210	0	0.818182
7211	0	0.818182
7212	0	0.818182
7213	0	0.818182
7214	0	0.818182
7215	0	0.818182
7216	0	0.818182
7217	0	0.818182
7218	0	0.818182
7219	0	0.818182
7220	0	0.818182
7221	0	0.818182
7222	0	0.818182
7223	0	0.818182
7224	0	0.818182
7225	0	0.818182
7226	0	0.818182
7227	0	0.818182
7228	0	0.818182
7229	0	0.818182
7230	0	0.818182
7231	0	0.818182
7232	0	0.818182
7233	0	0.818182
7234	0	0.818182
7235	0	0.818182
7236	0	0.818182
7237	0	0.818182
7238	0	0.818182
7239	0	0.818182
7240	0	0.818182
7241	0	0.818182
7242	0	0.818182
7243	0	0.818182
7244	0	0.818182
7245	0	0.818182
7246	0	0.818182
7247	0	0.818182
7248	0	0.818182
7249	0	0.818182
7250	0	0.818182
7251	0	0.818182
7252	0	0.818182
7253	0	0.818182
7254	0	0.818182
7255	0	0.818182
7256	0	0.818182
7257	0	0.818182
7258	0	0.818182
7259	0	0.818182
7260	0	0.818182
7261	0	0.818182
7262	0	0.818182
7263	0	0.818182
7264	0	0.818182
7265	0	0.818182
7266	0	0.818182
7267	0	0.818182
7268	0	0.818182
7269	0	0.818182
7270	0	0.431373
7271	0	0.431373
