Site	ColumnScore	SumOfPairsScore
1	0	0
2	0	0
3	0	0
4	0	0
5	0	0
6	0	0
7	0	0
8	0	0
9	0	0
10	0	0
11	0	0
12	0	0
13	0	0
14	0	0
15	0	0
16	0	0
17	0	0
18	0	0
19	0	0
20	0	0
21	0	0
22	0	0
23	0	0
24	0	0
25	0	0
26	0	0
27	0	0
28	0	0
29	0	0
30	0	0
31	0	0
32	0	0
33	0	0
34	0	0
35	0	0
36	0	0
37	0	0
38	0	0
39	0	0
40	0	0
41	0	0
42	0	0
43	0	0
44	0	0
45	0	0
46	0	0
47	0	0
48	0	0
49	0	0
50	0	0
51	0	0
52	0	0
53	0	0
54	0	0
55	0	0
56	0	0
57	0	0
58	0	0
59	0	0
60	0	0
61	0	0
62	0	0
63	0	0
64	0	0
65	0	0
66	0	0
67	0	0
68	0	0
69	0	0
70	0	0
71	0	0
72	0	0
73	0	0
74	0	0
75	0	0
76	0	0
77	0	0
78	0	0
79	0	0
80	0	0
81	0	0
82	0	0
83	0	0
84	0	0
85	0	0
86	0	0
87	0	0
88	0	0
89	0	0
90	0	0
91	0	0
92	0	0
93	0	0
94	0	0
95	0	0
96	0	0
97	0	0
98	0	0
99	0	0
100	0	0
101	0	0
102	0	0
103	0	0
104	0	0
105	0	0
106	0	0
107	0	0
108	0	0
109	0	0
110	0	0
111	0	0
112	0	0
113	0	0
114	0	0
115	0	0
116	0	0
117	0	0
118	0	0
119	0	0
120	0	0
121	0	0
122	0	0
123	0	0
124	0	0
125	0	0
126	0	0
127	0	0
128	0	0
129	0	0
130	0	0
131	0	0
132	0	0
133	0	0
134	0	0
135	0	0
136	0	0
137	0	0
138	0	0
139	0	0
140	0	0
141	0	0
142	0	0
143	0	0
144	0	0
145	0	0
146	0	0
147	0	0
148	0	0
149	0	0
150	0	0
151	0	0
152	0	0
153	0	0
154	0	0
155	0	0
156	0	0
157	0	0
158	0	0
159	0	0
160	0	0
161	0	0
162	0	0
163	0	0
164	0	0
165	0	0
166	0	0
167	0	0
168	0	0
169	0	0
170	0	0
171	0	0
172	0	0
173	0	0
174	0	0
175	0	0
176	0	0
177	0	0
178	0	0
179	0	0
180	0	0
181	0	0
182	0	0
183	0	0
184	0	0
185	0	0
186	0	0
187	0	0
188	0	0
189	0	0
190	0	0
191	0	0
192	0	0
193	0	0
194	0	0
195	0	0
196	0	0
197	0	0
198	0	0
199	0	0
200	0	0
201	0	0
202	0	0
203	0	0
204	0	0
205	0	0
206	0	0
207	0	0
208	0	0
209	0	0
210	0	0
211	0	0
212	0	0
213	0	0
214	0	0
215	0	0
216	0	0
217	0	0
218	0	0
219	0	0
220	0	0
221	0	0
222	0	0
223	0	0
224	0	0
225	0	0
226	0	0
227	0	0
228	0	0
229	0	0
230	0	0
231	0	0
232	0	0
233	0	0
234	0	0
235	0	0
236	0	0
237	0	0
238	0	0
239	0	0
240	0	0
241	0	0
242	0	0
243	0	0
244	0	0
245	0	0
246	0	0
247	0	0
248	0	0
249	0	0
250	0	0
251	0	0
252	0	0
253	0	0
254	0	0
255	0	0
256	0	0
257	0	0
258	0	0
259	0	0
260	0	0
261	0	0
262	0	0
263	0	0
264	0	0
265	0	0
266	0	0
267	0	0
268	0	0
269	0	0
270	0	0
271	0	0
272	0	0
273	0	0
274	0	0
275	0	0
276	0	0
277	0	0
278	0	0
279	0	0
280	0	0
281	0	0
282	0	0
283	0	0
284	0	0
285	0	0
286	0	0
287	0	0
288	0	0
289	0	0
290	0	0
291	0	0
292	0	0
293	0	0
294	0	0
295	0	0
296	0	0
297	0	0
298	0	0
299	0	0
300	0	0
301	0	0
302	0	0
303	0	0
304	0	0
305	0	0
306	0	0
307	0	0
308	0	0
309	0	0
310	0	0
311	0	0
312	0	0
313	0	0
314	0	0
315	0	0
316	0	0
317	0	0
318	0	0
319	0	0
320	0	0
321	0	0
322	0	0
323	0	0
324	0	0
325	0	0
326	0	0
327	0	0
328	0	0
329	0	0
330	0	0.0196078
331	0	0.0175439
332	0	0.0157895
333	0	0.0157895
334	0	0.0157895
335	0	0.0142857
336	0	0.01
337	0	0.0193548
338	0	0.0160428
339	0	0.0365854
340	0	0.500253
341	0	0.482771
342	0	0.482771
343	0	0.477124
344	0	0.471576
345	0	0.45039
346	0	0.426014
347	0	0.399085
348	0	0.399204
349	0	0.320294
350	0	0.297003
351	0	0.283859
352	0	0.260079
353	0	0.170728
354	0	0.165233
355	0	0.151598
356	0	0.148597
357	0	0.138754
358	0	0.134861
359	0	0.123054
360	0	0.105323
361	0	0.1487
362	0	0.148084
363	0	0.153625
364	0	0.142019
365	0	0.0888889
366	0	0.0888889
367	0	0.0666667
368	0	0.0545455
369	0	0.0545455
370	0	0.0545455
371	0	0.0545455
372	0	0.0545455
373	0	0.0545455
374	0	0.0545455
375	0	0.0545455
376	0	0.0545455
377	0	0.0545455
378	0	0.0545455
379	0	0.0545455
380	0	0.0454545
381	0	0.0454545
382	0	0.0454545
383	0	0.0454545
384	0	0.0661765
385	0	0.533258
386	0	0.520991
387	0	0.520991
388	0	0.520991
389	0	0.520597
390	0	0.520597
391	0	0.520597
392	0	0.51413
393	0	0.496257
394	0	0.357093
395	0	0.360407
396	0	0.554287
397	0	0.516208
398	0	0.0588235
399	0	0.0588235
400	0	0.0588235
401	0	0.0588235
402	0	0.0588235
403	0	0.0588235
404	0	0.0588235
405	0	0.0588235
406	0	0.0588235
407	0	0.0588235
408	0	0.0588235
409	0	0.0661765
410	0	0.0661765
411	0	0.0661765
412	0	0.0661765
413	0	0.0661765
414	0	0.0661765
415	0	0.0661765
416	0	0.0661765
417	0	0.0661765
418	0	0.0661765
419	0	0.0661765
420	0	0.0661765
421	0	0.0661765
422	0	0.0661765
423	0	0.0661765
424	0	0.0661765
425	0	0.0661765
426	0	0.0661765
427	0	0.0661765
428	0	0.0661765
429	0	0.0661765
430	0	0.0661765
431	0	0.0661765
432	0	0.0661765
433	0	0.075
434	0	0.075
435	0	0.075
436	0	0.075
437	0	0.075
438	0	0.075
439	0	0.075
440	0	0.075
441	0	0.075
442	0	0.075
443	0	0.075
444	0	0.075
445	0	0.075
446	0	0.075
447	0	0.075
448	0	0.075
449	0	0.075
450	0	0.075
451	0	0.0865801
452	0	0.0865801
453	0	0.0865801
454	0	0.0865801
455	0	0.0865801
456	0	0.0790514
457	0	0.0724638
458	0	0.0666667
459	0	0.0615385
460	0	0.0473118
461	0	0.0443548
462	0	0.055371
463	0	0.0423529
464	0	0.037405
465	0	0.0299889
466	0	0.027921
467	0	0.208225
468	0	0.185735
469	0	0.175151
470	0	0.152704
471	0	0.136871
472	0	0.106207
473	0	0.0752575
474	0	0.0740999
475	0	0.0677777
476	0	0.0708447
477	0	0.0901269
478	0	0.0906587
479	0	0.0770516
480	0	0.0785728
481	0	0.0754629
482	0	0.0773074
483	0	0.0841076
484	0	0.0906565
485	0	0.0953213
486	0	0.19697
487	0	0.19697
488	0	0.19697
489	0	0.19697
490	0	0.19697
491	0	0.19697
492	0	0.19697
493	0	0.19697
494	0	0.19697
495	0	0.19697
496	0	0.19697
497	0	0.19697
498	0	0.19697
499	0	0.19697
500	0	0.19697
501	0	0.19697
502	0	0.19697
503	0	0.19697
504	0	0.19697
505	0	0.19697
506	0	0.19697
507	0	0.19697
508	0	0.19697
509	0	0.19697
510	0	0.19697
511	0	0.19697
512	0	0.19697
513	0	0.19697
514	0	0.272727
515	0	0.272727
516	0	0.272727
517	0	0.272727
518	0	0.272727
519	0	0.272727
520	0	0.272727
521	0	0.272727
522	0	0.272727
523	0	0.272727
524	0	0.272727
525	0	0.272727
526	0	0.272727
527	0	0.272727
528	0	0.272727
529	0	0.272727
530	0	0.272727
531	0	0.272727
532	0	0.272727
533	0	0.272727
534	0	0.272727
535	0	0.272727
536	0	0.272727
537	0	0.272727
538	0	0.272727
539	0	0.272727
540	0	0.272727
541	0	0.272727
542	0	0.272727
543	0	0.272727
544	0	0.272727
545	0	0.272727
546	0	0.272727
547	0	0.272727
548	0	0.272727
549	0	0.272727
550	0	0.272727
551	0	0.272727
552	0	0.272727
553	0	0.272727
554	0	0.272727
555	0	0.272727
556	0	0.272727
557	0	0.24359
558	0	0.24359
559	0	0.24359
560	0	0.24359
561	0	0.24359
562	0	0.24359
563	0	0.24359
564	0	0.24359
565	0	0.24359
566	0	0.208791
567	0	0.208791
568	0	0.180952
569	0	0.124
570	0	0.176449
571	0	0.284159
572	0	0.252315
573	0	0.0341365
574	0	0.0335628
575	0	0.0355277
576	0	0.0364384
577	0	0.3621
578	0	0.578544
579	0	0.459419
580	0	0.568455
581	0	0.568455
582	0	0.568455
583	0	0.583664
584	0	0.583753
585	0	0.583753
586	0	0.583753
587	0	0.583753
588	0	0.583753
589	0	0.583664
590	0	0.583664
591	0	0.584459
592	0	0.584459
593	0	0.592304
594	0	0.592304
595	0	0.592304
596	0	0.592304
597	0	0.592304
598	0	0.592304
599	0	0.600308
600	0	0.615972
601	0	0.615972
602	0	0.515978
603	0	0.158333
604	0	0.158333
605	0	0.158333
606	0	0.158333
607	0	0.139706
608	0	0.139706
609	0	0.139706
610	0	0.139706
611	0	0.139706
612	0	0.139706
613	0	0.139706
614	0	0.139706
615	0	0.139706
616	0	0.139706
617	0	0.124183
618	0	0.124183
619	0	0.124183
620	0	0.124183
621	0	0.631253
622	0	0.331101
623	0	0.221821
624	0	0.209582
625	0	0.131673
626	0	0.2093
627	0	0.0517647
628	0	0.0501961
629	0	0.0490196
630	0	0.0429864
631	0	0.0428157
632	0	0.0410774
633	0	0.183189
634	0	0.181591
635	0	0.181431
636	0	0.175035
637	0	0.2419
638	0	0.404505
639	0	0.409974
640	0	0.108734
641	0	0.110517
642	0	0.414456
643	0	0.41321
644	0	0.0797101
645	0	0.0711462
646	0	0.0632411
647	0	0.0632411
648	0	0.0632411
649	0	0.06
650	0	0.0502646
651	0	0.489488
652	0	0.147475
653	0	0.147475
654	0	0.141063
655	0	0.141063
656	0	0.141063
657	0	0.142029
658	0	0.142029
659	0	0.142029
660	0	0.142029
661	0	0.155245
662	0	0.159117
663	0	0.218511
664	0	0.218511
665	0	0.223787
666	0	0.160951
667	0	0.160951
668	0	0.174947
669	0	0.186952
670	0	0.173141
671	0	0.156913
672	0	0.152941
673	0	0.152941
674	0	0.136829
675	0	0.128331
676	0	0.128097
677	0	0.121272
678	0	0.319252
679	0	0.130176
680	0	0.121134
681	0	0.117089
682	0	0.121735
683	0	0.168202
684	0	0.0871032
685	0	0.133199
686	0	0.1589
687	0	0.121978
688	0	0.165568
689	0	0.275582
690	0	0.248115
691	0	0.204681
692	0	0.272727
693	0	0.272727
694	0	0.230769
695	0	0.230769
696	0	0.230769
697	0	0.230769
698	0	0.166667
699	0	0.166667
700	0	0.166667
701	0	0.166667
702	0	0.148551
703	0	0.108333
704	0	0.108333
705	0	0.0955882
706	0	0.102941
707	0	0.102941
708	0	0.102941
709	0	0.102941
710	0	0.102941
711	0	0.102941
712	0	0.371358
713	0	0.113968
714	0	0.12381
715	0	0.12381
716	0	0.12381
717	0	0.142857
718	0	0.142857
719	0	0.142857
720	0	0.142857
721	0	0.166667
722	0	0.142857
723	0	0.142857
724	0	0.142857
725	0	0.142857
726	0	0.142857
727	0	0.142857
728	0	0.133333
729	0	0.12381
730	0	0.152625
731	0	0.658273
732	0	0.651613
733	0	0.108333
734	0	0.12381
735	0	0.12381
736	0	0.133333
737	0	0.12381
738	0	0.12381
739	0	0.12381
740	0	0.12381
741	0	0.12381
742	0	0.12381
743	0	0.12381
744	0	0.12381
745	0	0.12381
746	0	0.12381
747	0	0.12381
748	0	0.108333
749	0	0.108333
750	0	0.830779
751	0	0.0955882
752	0	0.0955882
753	0	0.0955882
754	0	0.0955882
755	0	0.0955882
756	0	0.0955882
757	0	0.0955882
758	0	0.0955882
759	0	0.117647
760	0	0.117647
761	0	0.180952
762	0	0.7054
763	0	0.166667
764	0	0.166667
765	0	0.166667
766	0	0.166667
767	0	0.166667
768	0	0.166667
769	0	0.166667
770	0	0.166667
771	0	0.047619
772	0	0.047619
773	0	0.047619
774	0	0.047619
775	0	0.047619
776	0	0.047619
777	0	0.047619
778	0	0.047619
779	0	0.047619
780	0	0.241667
781	0	0.241667
782	0	0.241667
783	0	0.241667
784	0	0.0666667
785	0	0.0666667
786	0	0.0666667
787	0	0.0666667
788	0	0.0666667
789	0	0.0666667
790	0	0.0666667
791	0	0.563218
792	0	0.566735
793	0	0.571049
794	0	0.025641
795	0	0.025641
796	0	0.030303
797	0	0.0444444
798	0	0.0444444
799	0	0.0555556
800	0	0.0555556
801	0	0.0555556
802	0	0.047619
803	0	0.047619
804	0	0.047619
805	0	0.047619
806	0	0.047619
807	0	0.047619
808	0	0.047619
809	0	0.047619
810	0	0.047619
811	0	0.047619
812	0	0.047619
813	0	0.047619
814	0	0.047619
815	0	0.047619
816	0	0.047619
817	0	0.047619
818	0	0.0357143
819	0	0.0357143
820	0	0.514908
821	0	0.139885
822	0	0.131934
823	0	0.378266
824	0	0.442622
825	0	0.0492308
826	0	0.0492308
827	0	0.0461538
828	0	0.0615385
829	0	0.0646154
830	0	0.150769
831	0	0.712991
832	0	0.730879
833	0	0.510872
834	0	0.0363636
835	0	0.0363636
836	0	0.0444444
837	0	0.0888889
838	0	0.111111
839	0	0.0555556
840	0	0.0714286
841	0	0.0666667
842	0	0.2
843	0	0.2
844	0	0.142857
845	0	0.142857
846	0	0.142857
847	0	0.242424
848	0	0.923109
849	0	0.928841
850	0	0.163399
851	0	0.196078
852	0	0.257143
853	0	0.295238
854	0	0.435897
855	0	0.515152
856	0	0.717949
857	0	0.717949
858	0	0.782057
859	0	0.773289
860	0	0.772567
861	0	0.766989
862	0	0
863	0	0
864	0	0
865	0	0
866	0	0
867	0	0
868	0	0
869	0	0
870	1	0
871	1	0
872	1	0
873	1	0
874	1	0
875	1	0
876	1	0
877	1	0
878	1	0
879	1	0
880	1	0
881	1	0
882	0	0
883	0	0
884	0	0
885	0	0
886	0	0
887	0	0
888	0	0
889	0	0
890	0	0
891	0	0
892	0	0
893	0	0
894	0	0
895	0	0
896	0	0
897	0	0
898	0	0
899	0	0
900	0	0
901	0	0
902	0	0
903	0	0
904	0	0
905	0	0
906	0	0
907	0	0
908	0	0
909	0	0
910	0	0
911	0	0
912	0	0
913	0	0
914	0	0
915	0	0
916	0	0
917	0	0
918	0	0
919	0	0
920	0	0
921	0	0
922	0	0
923	0	0
924	0	0
925	0	0
926	0	0
927	0	0
928	0	0
929	0	0
930	0	0
931	0	0
932	0	0
933	0	0
934	0	0
935	0	0
936	0	0
937	0	0
938	0	0
939	0	0
940	0	0.1
941	0	0.133333
942	0	0.138889
943	0	0.845402
944	0	0.726312
945	0	0.166667
946	0	0
947	0	0
948	0	0
949	0	0
950	0	0
951	0	0
952	0	0
953	0	0
954	0	0.615385
955	0	0.417582
956	0	0.469697
957	0	0.469697
958	0	0.469697
959	0	0.24359
960	0	0.266667
961	0	0.266667
962	0	0.5
963	0	0.5
964	0	0.3
965	0	0.3
966	0	0.3
967	0	0.3
968	0	0.326427
969	0	0.63031
970	0	0.633973
971	0	0.639364
972	0	0
973	0	0
974	0	0
975	0	0
976	0	0
977	0	0
978	0	0
979	0	0
980	0	0
981	0	0
982	0	0
983	0	0
984	0	0
985	0	0
986	0	0
987	0	0
988	0	0
989	0	0
990	0	0
991	0	0
992	0	0
993	0	0
994	0	0
995	0	0
996	0	0
997	0	0
998	0	0
999	0	0
1000	0	0
1001	0	0
1002	0	0
1003	0	0
1004	0	0
1005	0	0
1006	0	0
1007	0	0
1008	0	0
1009	0	0
1010	0	0
1011	0	0
1012	0	0
1013	0	0
1014	0	0
1015	0	0
1016	0	0
1017	0	0
1018	0	0
1019	0	0
1020	0	0
1021	0	0
1022	0	0
1023	0	0
1024	0	0
1025	0	0
1026	0	0
1027	0	0
1028	0	0
1029	0	0
1030	0	0
1031	0	0
1032	0	0
1033	0	0
1034	0	0
1035	0	0
1036	0	0
1037	0	0
1038	0	0
1039	0	0
1040	0	0
1041	0	0
1042	0	0
1043	0	0
1044	0	0
1045	0	0
1046	0	0
1047	0	0
1048	0	0
1049	0	0
1050	0	0
1051	0	0
1052	0	0
1053	0	0
1054	0	0
1055	0	0
1056	0	0
1057	0	0
1058	0	0
1059	0	0
1060	0	0
1061	0	0
1062	0	0
1063	0	0
1064	0	0
1065	0	0
1066	0	0
1067	0	0
1068	0	0
1069	0	0
1070	0	0
1071	0	0
1072	0	0
1073	0	0
1074	0	0
1075	0	0
1076	0	0
1077	1	0
1078	0	0
1079	0	0
1080	0	0
1081	0	0
1082	0	0
1083	0	0
1084	0	0
1085	0	0
1086	0	0
1087	0	0
1088	0	0
1089	0	0
1090	0	0
1091	0	0
1092	0	0
1093	0	0
1094	0	0
1095	0	0
1096	0	0
1097	0	0
1098	1	0
1099	1	0
1100	0	0
1101	0	0
1102	0	0
1103	0	0
1104	0	0
1105	0	0
1106	0	0
1107	0	0
1108	0	0
1109	0	0
1110	0	0
1111	0	0
1112	0	0
1113	0	0
1114	0	0
1115	0	0
1116	0	0
1117	0	0
1118	0	0
1119	0	0
1120	0	0
1121	0	0
1122	0	0
1123	0	0
1124	0	0
1125	0	0
1126	0	0
1127	0	0
1128	0	0
1129	0	0
1130	0	0
1131	0	0
1132	0	0
1133	0	0
1134	0	0
1135	0	0
1136	0	0
1137	0	0
1138	0	0
1139	0	0
1140	0	0
1141	0	0
1142	0	0
1143	0	0
1144	1	0
1145	1	0
1146	1	0
1147	1	0
1148	1	0
1149	1	0
1150	1	0
1151	0	0
1152	0	0
1153	0	0
1154	0	0
1155	0	0
1156	0	0
1157	0	0
1158	0	0
1159	0	0
1160	0	0
1161	0	0
1162	0	0
1163	0	0
1164	0	0
1165	0	0
1166	0	0
1167	0	0
1168	0	0
1169	0	0
1170	0	0
1171	0	0
1172	0	0
1173	0	0
1174	0	0
1175	0	0
1176	0	0
1177	0	0
1178	0	0
1179	0	0
1180	0	0
1181	0	0
1182	0	0
1183	0	0
1184	0	0
1185	0	0
1186	0	0
1187	0	0
1188	0	0
1189	0	0
1190	0	0
1191	0	0
1192	0	0
1193	0	0
1194	0	0
1195	0	0
1196	0	0
1197	0	0
1198	0	0
1199	0	0
1200	0	0
1201	0	0
1202	0	0
1203	0	0
1204	0	0
1205	0	0
1206	0	0
1207	0	0
1208	0	0
1209	0	0
1210	0	0
1211	0	0
1212	0	0
1213	0	0
1214	0	0
1215	0	0
1216	0	0
1217	1	0
1218	1	0
1219	1	0
1220	1	0
1221	1	0
1222	0	0
1223	0	0
1224	0	0
1225	0	0
1226	0	0
1227	0	0
1228	0	0
1229	0	0
1230	0	0
1231	0	0
1232	0	0
1233	0	0
1234	0	0
1235	0	0
1236	0	0
1237	0	0
1238	0	0
1239	0	0
1240	0	0
1241	0	0
1242	0	0
1243	0	0
1244	0	0
1245	0	0
1246	0	0
1247	0	0
1248	0	0
1249	0	0
1250	0	0
1251	0	0
1252	0	0
1253	0	0
1254	0	0
1255	0	0
1256	0	0
1257	0	0
1258	0	0
1259	0	0
1260	0	0
1261	0	0
1262	0	0
1263	0	0
1264	0	0
1265	0	0
1266	0	0
1267	0	0
1268	0	0
1269	0	0
1270	0	0
1271	0	0
1272	0	0
1273	0	0
1274	0	0
1275	0	0
1276	0	0
1277	0	0
1278	0	0
1279	0	0
1280	0	0
1281	0	0
1282	0	0
1283	0	0
1284	0	0
1285	0	0
1286	0	0
1287	0	0
1288	0	0
1289	0	0
1290	0	0
1291	0	0
1292	0	0
1293	0	0
1294	0	0
1295	0	0
1296	0	0
1297	0	0
1298	0	0
1299	0	0
1300	0	0
1301	0	0
1302	0	0
1303	0	0
1304	0	0
1305	0	0
1306	0	0
1307	0	0
1308	0	0
1309	0	0
1310	0	0
1311	0	0
1312	0	0
1313	0	0
1314	0	0
1315	0	0
1316	0	0
1317	0	0
1318	0	0
1319	0	0
1320	0	0
1321	0	0
1322	0	0
1323	0	0
1324	0	0
1325	0	0
1326	0	0
1327	0	0
1328	0	0
1329	0	0
1330	0	0
1331	0	0
1332	0	0
1333	0	0
1334	0	0
1335	0	0
1336	0	0
1337	0	0
1338	0	0
1339	0	0
1340	0	0
1341	0	0
1342	0	0
1343	0	0
1344	0	0
1345	0	0
1346	0	0
1347	0	0
1348	0	0
1349	0	0
1350	0	0
1351	0	0
1352	0	0
1353	0	0
1354	0	0
1355	0	0
1356	0	0
1357	0	0
1358	0	0
1359	0	0
1360	0	0
1361	0	0
1362	0	0
1363	0	0
1364	0	0
1365	0	0
1366	0	0
1367	0	0
1368	0	0
1369	0	0
1370	0	0
1371	0	0
1372	0	0
1373	0	0
1374	0	0
1375	0	0
1376	0	0
1377	0	0
1378	0	0
1379	0	0
1380	0	0
1381	0	0
1382	0	0
1383	0	0
1384	0	0
1385	0	0
1386	0	0
1387	0	0
1388	0	0
1389	0	0
1390	0	0
1391	0	0
1392	0	0
1393	0	0
1394	0	0
1395	0	0
1396	0	0
1397	0	0
1398	0	0
1399	0	0
1400	0	0
1401	0	0
1402	0	0
1403	0	0
1404	0	0
1405	0	0
1406	0	0
1407	0	0
1408	0	0
1409	0	0
1410	0	0
1411	0	0
1412	0	0
1413	0	0
1414	0	0
1415	0	0
1416	0	0
1417	0	0
1418	0	0
1419	0	0
1420	0	0
1421	0	0
1422	0	0
1423	0	0
1424	0	0
1425	0	0
1426	0	0
1427	0	0
1428	0	0
1429	0	0
1430	0	0
1431	0	0
1432	0	0
1433	0	0
1434	0	0
1435	0	0
1436	0	0
1437	0	0
1438	0	0
1439	0	0
1440	0	0
1441	0	0
1442	0	0
1443	0	0
1444	0	0
1445	0	0
1446	0	0
1447	0	0
1448	0	0
1449	0	0
1450	0	0
1451	0	0
1452	0	0
1453	0	0
1454	0	0
1455	0	0
1456	0	0
1457	0	0
1458	0	0
1459	0	0
1460	0	0
1461	0	0
1462	0	0
1463	0	0
1464	0	0
1465	0	0
1466	0	0
1467	0	0
1468	0	0
1469	0	0
1470	0	0
1471	0	0
1472	0	0
1473	0	0
1474	0	0
1475	0	0
1476	0	0
1477	0	0
1478	0	0
1479	0	0
1480	0	0
1481	0	0.133333
1482	0	0.732272
1483	0	0.738941
1484	0	0.0666667
1485	0	0.133333
1486	0	0.691158
1487	0	0.68986
1488	0	0.194444
1489	0	0.194444
1490	0	0.861084
1491	0	0.954564
1492	0	0.956653
1493	0	0.958654
1494	0	0.235294
1495	0	0.3
1496	0	0.979834
1497	0	0.979834
1498	0	0.978028
1499	0	0.978068
1500	0	0.583333
1501	0	0.99265
1502	0	0.994485
1503	0	0.992657
1504	0	0.992657
1505	0	0.992657
1506	0	0.992657
1507	0	0.992657
1508	0	0.992657
1509	0	0.992657
1510	0	0.859788
1511	0	0.859788
1512	0	0.732804
1513	0	0.732804
1514	0	0.947583
1515	0	0.333333
1516	0	0.333333
1517	0	0.333333
1518	0	0.333333
1519	0	0.333333
1520	0	0.333333
1521	0	0.333333
1522	0	0.870612
1523	0	0.333333
1524	0	0.333333
1525	0	0.333333
1526	0	0.333333
1527	0	0.333333
1528	0	0.333333
1529	0	0.333333
1530	0	0.428571
1531	0	0.428571
1532	0	0.285714
1533	0	0.285714
1534	0	0.285714
1535	0	0.285714
1536	0	0.285714
1537	0	0.507108
1538	0	0.507108
1539	0	0.507108
1540	0	0.507108
1541	0	0.503046
1542	0	0.727463
1543	0	0.897042
1544	0	0.590586
1545	0	0
1546	0	0
1547	0	0
1548	0	0
1549	0	0
1550	0	0
1551	0	0.333333
1552	0	0.333333
1553	0	0.333333
1554	0	0.333333
1555	0	0.333333
1556	0	0.333333
1557	0	0.133333
1558	0	0.692029
1559	0	0.703333
1560	0	0.79321
1561	0	0.793221
1562	0	0.952827
1563	1	1
1564	1	1
1565	1	1
1566	1	1
1567	1	1
1568	1	1
1569	0	1
1570	0	1
1571	0	1
1572	0	1
1573	0	1
1574	0	1
1575	0	1
1576	0	1
1577	0	1
1578	0	1
1579	0	1
1580	0	1
1581	0	1
1582	0	1
1583	0	1
1584	0	1
1585	0	1
1586	0	1
1587	0	1
1588	0	1
1589	0	1
1590	0	1
1591	0	0.2
1592	0	0.5
1593	0	0.5
1594	0	0.5
1595	0	0.5
1596	0	0.5
1597	0	0.5
1598	0	0.5
1599	0	0.4
1600	0	0.4
1601	0	0.4
1602	0	0.4
1603	0	0.4
1604	0	0.4
1605	0	0.266667
1606	0	0.266667
1607	0	0.151515
1608	0	0.128205
1609	0	0.128205
1610	0	0.179487
1611	0	0.158333
1612	0	0.949802
1613	0	0.541667
1614	0	0.963562
1615	0	1
1616	0	0.333333
1617	0	0.333333
1618	0	0.333333
1619	0	0.333333
1620	0	0.333333
1621	0	0.333333
1622	0	0.333333
1623	0	0.333333
1624	0	0.333333
1625	0	0.333333
1626	0	0.333333
1627	0	0.333333
1628	0	0.2
1629	0	0.522876
1630	0	0.607843
1631	0	0.584687
1632	0	0.93011
1633	0	0.569801
1634	0	0.356566
1635	0	0.589015
1636	0	0.985143
1637	0	0.392857
1638	0	0.52381
1639	0	0.52381
1640	0	0.52381
1641	0	0.52381
1642	0	1
1643	0	1
1644	0	1
1645	0	1
1646	0	1
1647	0	1
1648	0	1
1649	0	1
1650	0	1
1651	0	1
1652	0	1
1653	0	1
1654	0	1
1655	0	1
1656	0	1
1657	0	1
1658	0	1
1659	0	1
1660	0	1
1661	0	1
1662	0	1
1663	0	1
1664	0	1
1665	0	1
1666	0	1
1667	0	1
1668	0	1
1669	0	1
1670	0	1
1671	0	1
1672	0	1
1673	0	1
1674	0	1
1675	0	0.994511
1676	0	0.994511
1677	0	0.996335
1678	0	0.998165
1679	0	0.996335
1680	0	0.996335
1681	0	0.996335
1682	0	0.996335
1683	0	0.996335
1684	0	0.996342
1685	0	0.996378
1686	0	0.99457
1687	0	0.989168
1688	0	0.989175
1689	0	0.989175
1690	0	0.4
1691	0	0.989135
1692	0	0.866667
1693	0	0.742857
1694	0	0.882973
1695	0	0.421053
1696	0	0.164835
1697	0	0.2
1698	0	0.3
1699	0	0.166667
1700	0	0.166667
1701	0	0.333333
1702	0	0.333333
1703	0	0.333333
1704	0	0
1705	0	0
1706	0	0
1707	0	0
1708	0	0
1709	0	0
1710	0	0
1711	0	0
1712	0	0
1713	0	0
1714	0	0
1715	0	0
1716	0	0.962262
1717	0	0.962226
1718	0	0.96398
1719	0	0.96219
1720	0	0.949742
1721	0	0.1
1722	0	0.1
1723	0	0.1
1724	0	0
1725	0	0
1726	0	0
1727	0	0
1728	0	0
1729	0	0
1730	0	0
1731	0	0
1732	0	0
1733	0	0
1734	0	0
1735	0	0
1736	0	0
1737	0	0
1738	0	0
1739	0	0
1740	0	0
1741	0	0
1742	0	0
1743	0	0.98733
1744	0	0
1745	0	0
1746	0	0
1747	0	0
1748	0	0.987365
1749	0	0.987365
1750	0	0
1751	0	0
1752	0	0
1753	0	0
1754	0	0
1755	0	0
1756	0	0
1757	0	0
1758	0	0
1759	0	0
1760	0	0
1761	0	0.987365
1762	0	0
1763	0	0
1764	0	0
1765	0	0
1766	0	0
1767	0	0
1768	0	0
1769	0	0
1770	0	0
1771	0	0
1772	0	0
1773	0	0
1774	0	0.989158
1775	0	0.989157
1776	0	0.99096
1777	0	0
1778	0	0
1779	0	0.992759
1780	0	0.992772
1781	0	0.333333
1782	0	0.333333
1783	0	0.333333
1784	0	0.333333
1785	0	0.333333
1786	0	0.333333
1787	0	0.333333
1788	0	0.333333
1789	0	0.990976
1790	0	0.996385
1791	0	0.992778
1792	0	0
1793	0	0
1794	0	0
1795	0	0
1796	0	0
1797	0	0
1798	0	0
1799	0	0
1800	0	0
1801	0	0
1802	0	0
1803	0	0
1804	0	0
1805	0	0
1806	0	0
1807	0	0
1808	0	0.996382
1809	0	0.996382
1810	0	0.99819
1811	1	0
1812	1	0
1813	1	0
1814	1	0
1815	1	0
1816	1	0
1817	0	0.99819
1818	0	0.996385
1819	0	0.998192
1820	0	0.998192
1821	0	0.998192
1822	0	0.998192
1823	0	0.998192
1824	0	0.998192
1825	0	0.998192
1826	0	0.998195
1827	0	0.998197
1828	0	0.998197
1829	0	0.998197
1830	0	0.998197
1831	0	0
1832	0	0
1833	0	0
1834	0	0
1835	0	0
1836	0	0.998197
1837	0	0.998197
1838	0	0.998197
1839	0	0.998197
1840	0	0.998197
1841	0	0.998198
1842	0	0.998198
1843	0	0.998198
1844	0	0.998198
1845	0	0.998198
1846	0	0.998198
1847	0	0.998198
1848	0	0.998198
1849	0	0.998198
1850	0	0.998198
1851	0	0
1852	0	0
1853	0	0
1854	0	0
1855	0	0
1856	0	0
1857	0	0
1858	0	0
1859	0	0
1860	0	0
1861	0	0
1862	0	0
1863	0	0
1864	0	0
1865	0	0
1866	0	0
1867	0	0
1868	0	0
1869	0	0
1870	0	0
1871	0	0
1872	0	0
1873	0	0
1874	0	0
1875	0	0
1876	0	0
1877	0	0
1878	0	0
1879	0	0
1880	0	0
1881	0	0
1882	0	0
1883	0	0
1884	0	0
1885	0	0.998197
1886	0	0.998197
1887	0	0.998197
1888	0	0.998197
1889	0	0.998197
1890	0	0.998197
1891	0	0.998197
1892	0	0
1893	0	0
1894	0	0
1895	0	0
1896	0	0
1897	0	0
1898	0	0
1899	0	0
1900	0	0
1901	0	0
1902	0	0
1903	0	0
1904	0	0
1905	0	0
1906	0	0
1907	0	0
1908	0	0
1909	0	0
1910	0	0
1911	0	0
1912	0	0
1913	0	0
1914	0	0
1915	0	0
1916	0	0
1917	0	0
1918	0	0
1919	0	0
1920	0	0.994595
1921	0	0.994595
1922	0	0.994585
1923	0	0.99279
1924	0	0.99279
1925	0	0.990893
1926	0	0.987263
1927	0	0
1928	0	0
1929	0	0
1930	0	0
1931	0	0
1932	0	0
1933	0	0
1934	0	0
1935	0	0
1936	0	0
1937	0	0
1938	0	0
1939	0	0
1940	0	0
1941	0	0
1942	0	0
1943	0	0
1944	0	0
1945	0	0
1946	0	0
1947	0	0
1948	0	0
1949	0	0
1950	0	0
1951	0	0
1952	0	0.166667
1953	0	0.166667
1954	0	0.133333
1955	0	0.133333
1956	0	0.971966
1957	0	1
1958	0	1
1959	0	1
1960	0	0.333333
1961	0	0.333333
1962	0	0.333333
1963	0	0.333333
1964	0	0.333333
1965	0	0.333333
1966	0	0.333333
1967	0	0.333333
1968	0	0.333333
1969	0	0.333333
1970	0	0.142857
1971	0	0.805992
1972	0	0.804916
1973	0	0.522388
1974	0	0.522388
1975	0	0.507024
1976	0	0.440639
1977	0	0.422755
1978	0	0.333053
1979	0	0.624682
1980	0	0.653455
1981	0	0.508588
1982	0	0.679842
1983	0	0.666667
1984	0	0.784314
1985	0	0.686275
1986	0	0.772059
1987	0	0
1988	0	0.1
1989	0	0.1
1990	0	0.1
1991	0	0.1
1992	0	0.166667
1993	0	0.166667
1994	0	0.166667
1995	0	0.166667
1996	0	0
1997	0	0
1998	0	0
1999	0	0
2000	0	0
2001	0	0
2002	0	0
2003	0	0
2004	0	0
2005	0	0
2006	0	0
2007	0	0
2008	0	0
2009	0	0.821034
2010	0	0
2011	0	0
2012	0	0
2013	0	0
2014	0	0
2015	0	0
2016	0	0
2017	0	0
2018	0	0
2019	0	0.1
2020	0	0.1
2021	0	0.1
2022	0	0.1
2023	0	0.1
2024	0	0.1
2025	0	0.222222
2026	0	0.222222
2027	0	0.2
2028	0	0.2
2029	0	0.163399
2030	0	0.282302
2031	0	0.265744
2032	0	0.245646
2033	0	0.216187
2034	0	0.0592885
2035	0	0.047619
2036	0	0.047619
2037	0	0.0428571
2038	0	0.0285714
2039	0	0.0142857
2040	0	0.0285714
2041	0	0.0315789
2042	0	0.0190476
2043	0	0.0142857
2044	0	0.0645161
2045	0	0.0606061
2046	0	0.0606061
2047	0	0.29115
2048	0	0.108039
2049	0	0.465815
2050	0	0.395719
2051	0	0.237309
2052	0	0.211029
2053	0	0
2054	0	0
2055	0	0
2056	0	0
2057	0	0
2058	0	0
2059	0	0
2060	0	0
2061	0	0
2062	0	0
2063	0	0
2064	0	0
2065	0	0
2066	0	0
2067	0	0
2068	0	0
2069	0	0
2070	0	0
2071	0	0
2072	0	0
2073	0	0
2074	0	0.187171
2075	0	0.15
2076	0	0.314286
2077	0	0.289474
2078	0	0.261905
2079	0	0.266667
2080	0	0.570142
2081	0	0.0222222
2082	0	0
2083	0	0
2084	0	0
2085	0	0
2086	0	0
2087	0	0
2088	0	0
2089	0	0
2090	0	0
2091	0	0
2092	0	0.0735055
2093	0	0.066964
2094	0	0.0639234
2095	0	0.0446727
2096	0	0.0489728
2097	0	0.046345
2098	0	0.0492321
2099	0	0.045445
2100	0	0.0436364
2101	0	0.0370013
2102	0	0.0499545
2103	0	0
2104	0	0
2105	0	0
2106	0	0.0504359
2107	0	0.138211
2108	0	0.120709
2109	0	0.0387873
2110	0	0.0309897
2111	0	0.0566529
2112	0	0.0718916
2113	0	0.0583333
2114	0	0.0897436
2115	0	0.0666667
2116	0	0
2117	0	0
2118	0	0
2119	0	0
2120	0	0
2121	0	0
2122	0	0
2123	0	0
2124	0	0
2125	0	0
2126	0	0
2127	0	0
2128	0	0
2129	0	0
2130	0	0
2131	0	0
2132	0	0
2133	0	0
2134	0	0
2135	0	0
2136	0	0
2137	0	0
2138	0	0
2139	0	0
2140	0	0
2141	0	0
2142	0	0.0812931
2143	0	0.0278101
2144	0	0.0330155
2145	0	0.0291398
2146	0	0.047619
2147	0	0.047619
2148	0	0.0571429
2149	0	0.129328
2150	0	0.226684
2151	0	0.23405
2152	0	0
2153	0	0
2154	0	0
2155	0	0
2156	0	0
2157	0	0
2158	0	0
2159	0	0
2160	0	0
2161	0	0
2162	0	0
2163	0	0
2164	0	0
2165	0	0
2166	0	0
2167	0	0
2168	0	0
2169	0	0
2170	0	0
2171	0	0
2172	0	0
2173	0	0
2174	0	0
2175	0	0
2176	0	0
2177	0	0
2178	0	0
2179	0	0
2180	0	0
2181	0	0
2182	0	0
2183	0	0
2184	0	0
2185	0	0
2186	0	0
2187	0	0
2188	0	0
2189	0	0
2190	0	0
2191	0	0
2192	0	0
2193	0	0
2194	0	0
2195	0	0
2196	0	0
2197	0	0
2198	0	0
2199	0	0
2200	0	0
2201	0	0
2202	0	0
2203	0	0
2204	0	0
2205	0	0
2206	0	0
2207	0	0
2208	0	0
2209	0	0
2210	0	0
2211	0	0.242807
2212	0	0.240989
2213	0	0.0285714
2214	0	0.0237154
2215	0	0.0237154
2216	0	0.0217391
2217	0	0.0217391
2218	0	0.0308871
2219	0	0.0273229
2220	0	0.0278248
2221	0	0.116663
2222	0	0
2223	0	0
2224	0	0
2225	0	0
2226	0	0
2227	0	0
2228	0	0
2229	0	0
2230	0	0
2231	0	0
2232	0	0
2233	0	0.0949317
2234	0	0.0345345
2235	0	0.038827
2236	0	0.021306
2237	0	0.0481752
2238	0	0.0652839
2239	0	0.0591598
2240	0	0
2241	0	0
2242	0	0
2243	0	0.00812672
2244	0	0.0084022
2245	0	0.0106061
2246	0	0.00853543
2247	0	0.00853543
2248	0	0.009996
2249	0	0.00877419
2250	0	0.00750969
2251	0	0.0388479
2252	0	0.144085
2253	0	0.142796
2254	0	0.0828565
2255	0	0.0685486
2256	0	0.0676815
2257	0	0.0243057
2258	0	0.0750107
2259	0	0.105825
2260	0	0.106832
2261	0	0.193122
2262	0	0.189542
2263	0	0.307692
2264	0	0.222222
2265	0	0.133333
2266	0	0.214286
2267	0	0
2268	0	0
2269	0	0
2270	0	0
2271	0	0
2272	0	0
2273	0	0
2274	0	0
2275	0	0
2276	0	0
2277	0	0
2278	0	0
2279	0	0
2280	0	0
2281	0	0
2282	0	0
2283	0	0
2284	0	0
2285	0	0
2286	0	0
2287	0	0
2288	0	0
2289	0	0
2290	0	0
2291	0	0
2292	0	0
2293	0	0.205882
2294	0	0.285714
2295	0	0.337662
2296	0	0.214224
2297	0	0.231971
2298	0	0.251074
2299	0	0.131471
2300	0	0.22157
2301	0	0.0469417
2302	0	0.0406504
2303	0	0.0665962
2304	0	0.322353
2305	0	0.184981
2306	0	0.122888
2307	0	0.147959
2308	0	0.0316206
2309	0	0.0380952
2310	0	0.0441176
2311	0	0.0441176
2312	0	0.0666667
2313	0	0.106061
2314	0	0.106061
2315	0	0.106061
2316	0	0.106061
2317	0	0.127273
2318	0	0.127273
2319	0	0.047619
2320	0	0
2321	0	0
2322	0	0
2323	0	0
2324	0	0
2325	0	0
2326	0	0
2327	0	0
2328	0	0
2329	0	0
2330	0	0
2331	0	0
2332	0	0
2333	0	0
2334	0	0
2335	0	0
2336	0	0
2337	0	0
2338	0	0
2339	0	0
2340	0	0
2341	0	0
2342	0	0
2343	0	0
2344	0	0
2345	0	0
2346	0	0
2347	0	0
2348	0	0
2349	0	0
2350	0	0
2351	0	0
2352	0	0
2353	0	0
2354	0	0
2355	0	0
2356	0	0
2357	0	0
2358	0	0
2359	0	0
2360	0	0
2361	0	0
2362	0	0
2363	0	0
2364	0	0
2365	0	0
2366	0	0
2367	0	0
2368	0	0
2369	0	0
2370	0	0
2371	0	0
2372	0	0
2373	0	0
2374	0	0
2375	0	0.406068
2376	0	0
2377	0	0
2378	0	0
2379	0	0
2380	0	0
2381	0	0.175786
2382	0	0.230717
2383	0	0.508406
2384	0	0.0220588
2385	0	0.1
2386	0	0.1
2387	0	0.1
2388	0	0
2389	0	0
2390	0	0
2391	0	0
2392	0	0
2393	0	0.468939
2394	0	0.378527
2395	0	0.263306
2396	0	0.0461957
2397	0	0.0508648
2398	0	0.0439045
2399	0	0.131091
2400	0	0.115966
2401	0	0.0284687
2402	0	0.0264259
2403	0	0.168555
2404	0	0.259543
2405	0	0.0214127
2406	0	0.0229506
2407	0	0.0258448
2408	0	0.0273961
2409	0	0.0296174
2410	0	0.266676
2411	0	0.268692
2412	0	0.213502
2413	0	0.0340696
2414	0	0.289042
2415	0	0.331642
2416	0	0.339687
2417	0	0.341304
2418	0	0.0222222
2419	0	0.0277778
2420	0	0.0277778
2421	0	0.0277778
2422	0	0.0277778
2423	0	0.280242
2424	0	0.0357143
2425	0	0.0357143
2426	0	0.0357143
2427	0	0.0357143
2428	0	0.0357143
2429	0	0.0277778
2430	0	0.0277778
2431	0	0.0222222
2432	0	0.0222222
2433	0	0.0222222
2434	0	0.0181818
2435	0	0.0128205
2436	0	0.0190476
2437	0	0.0147059
2438	0	0.648562
2439	0	0.635059
2440	0	0.0196078
2441	0	0.030303
2442	0	0.0157895
2443	0	0.0175439
2444	0	0.0175439
2445	0	0.0157895
2446	0	0.18315
2447	0	0.413609
2448	0	0.494018
2449	0	0
2450	0	0.00362319
2451	0	0
2452	0	0.00333333
2453	0	0.00615385
2454	0	0.00615385
2455	0	0.00738916
2456	0	0.0466819
2457	0	0.0440627
2458	0	0.0816507
2459	0	0.274227
2460	0	0.282019
2461	0	0.0887266
2462	0	0.415904
2463	0	0.416077
2464	0	0.0105764
2465	0	0.0107345
2466	0	0.0101695
2467	0	0.0141243
2468	0	0.0136612
2469	0	0.0225916
2470	0	0.0205479
2471	0	0.0179012
2472	0	0.513764
2473	0	0.510923
2474	0	0.0105634
2475	0	0.0120083
2476	0	0.0115942
2477	0	0.0129108
2478	0	0.0133284
2479	0	0.037323
2480	0	0.514373
2481	0	0.541657
2482	0	0.532087
2483	0	0.0047619
2484	0	0.00653595
2485	0	0.00952381
2486	0	0.010989
2487	0	0.0128205
2488	0	0.0151515
2489	0	0.0181818
2490	0	0.0181818
2491	0	0.0181818
2492	0	0.0181818
2493	0	0.0181818
2494	0	0.0222222
2495	0	0.0277778
2496	0	0
2497	0	0
2498	0	0
2499	0	0
2500	0	0
2501	0	0
2502	0	0
2503	0	0
2504	0	0
2505	0	0
2506	0	0
2507	0	0
2508	0	0
2509	0	0
2510	0	0
2511	0	0
2512	0	0
2513	0	0
2514	0	0
2515	0	0
2516	0	0
2517	0	0
2518	0	0
2519	0	0
2520	0	0
2521	0	0
2522	0	0.291632
2523	0	0.285571
2524	0	0.287172
2525	0	0.00587717
2526	0	0.00572117
2527	0	0.0112332
2528	0	0.01221
2529	0	0.00734646
2530	0	0.00683995
2531	0	0.289524
2532	0	0.0561274
2533	0	0.404384
2534	0	0.432756
2535	0	0.441523
2536	0	0.0933333
2537	0	0.110672
2538	0	0
2539	0	0
2540	0	0
2541	0	0
2542	0	0
2543	0	0.010989
2544	0	0.010989
2545	0	0.0933333
2546	0	0.0826211
2547	0	0.721782
2548	0	0.508978
2549	0	0.506471
2550	0	0.426856
2551	0	0.00284495
2552	0	0.0045045
2553	0	0.0045045
2554	0	0.00426743
2555	0	0.00426743
2556	0	0.00269906
2557	0	0.0286772
2558	0	0.32304
2559	0	0.0793651
2560	0	0.0918095
2561	0	0.10186
2562	0	0.10588
2563	0	0
2564	0	0
2565	0	0
2566	0	0
2567	0	0
2568	0	0
2569	0	0
2570	0	0
2571	0	0
2572	0	0
2573	0	0
2574	0	0.0277778
2575	0	0.0277778
2576	0	0.0277778
2577	0	0.0277778
2578	0	0.0222222
2579	0	0.0222222
2580	0	0.0222222
2581	0	0.0181818
2582	0	0.0151515
2583	0	0.010989
2584	0	0.00653595
2585	0	0.0210526
2586	0	0.0765306
2587	0	0.198755
2588	0	0.334989
2589	0	0.395841
2590	0	0.0460096
2591	0	0.206004
2592	0	0.041471
2593	0	0.117911
2594	0	0.108667
2595	0	0.0881737
2596	0	0.167069
2597	0	0.164588
2598	0	0.103557
2599	0	0.144084
2600	0	0.151382
2601	0	0.0440194
2602	0	0.0311152
2603	0	0.0305539
2604	0	0.0328422
2605	0	0.254169
2606	0	0.412306
2607	0	0.0228175
2608	0	0.0272232
2609	0	0.0288221
2610	0	0.0305195
2611	0	0.0453284
2612	0	0.0471785
2613	0	0.0531987
2614	0	0.0518519
2615	0	0.0518519
2616	0	0.0518519
2617	0	0.0580014
2618	0	0.366308
2619	0	0.208367
2620	0	0.112903
2621	0	0.0738916
2622	0	0.0738916
2623	0	0.00790514
2624	0	0.00790514
2625	0	0.0118577
2626	0	0.203487
2627	0	0.0920991
2628	0	0.0941233
2629	0	0.103716
2630	0	0.108527
2631	0	0.564962
2632	0	0.234955
2633	0	0.010989
2634	0	0
2635	0	0
2636	0	0
2637	0	0
2638	0	0
2639	0	0
2640	0	0
2641	0	0
2642	0	0
2643	0	0
2644	0	0
2645	0	0
2646	0	0
2647	0	0
2648	0	0
2649	0	0
2650	0	0
2651	0	0
2652	0	0
2653	0	0
2654	0	0
2655	0	0
2656	0	0
2657	0	0
2658	0	0
2659	0	0
2660	0	0
2661	0	0
2662	0	0
2663	0	0
2664	0	0
2665	0	0
2666	0	0.571946
2667	0	0.0897436
2668	0	0.106061
2669	0	0.106061
2670	0	0.0666667
2671	0	0.0666667
2672	0	0.0666667
2673	0	0.0666667
2674	0	0.0666667
2675	0	0.0666667
2676	0	0.0666667
2677	0	0.0666667
2678	0	0.0666667
2679	0	0.819649
2680	0	0
2681	0	0
2682	0	0
2683	0	0
2684	0	0
2685	0	0
2686	0	0
2687	0	0
2688	0	0
2689	0	0
2690	0	0
2691	0	0
2692	0	0
2693	0	0
2694	0	0
2695	0	0
2696	0	0
2697	0	0
2698	0	0
2699	0	0
2700	0	0
2701	0	0
2702	0	0
2703	0	0
2704	0	0
2705	0	0
2706	0	0
2707	0	0
2708	0	0
2709	0	0
2710	0	0
2711	0	0
2712	0	0
2713	0	0
2714	0	0
2715	0	0
2716	0	0
2717	0	0
2718	0	0
2719	0	0
2720	0	0
2721	0	0
2722	0	0
2723	0	0
2724	0	0
2725	0	0
2726	0	0.704336
2727	0	0.211475
2728	0	0.198157
2729	0	0.149507
2730	0	0.496701
2731	0	0.494628
2732	0	0.131054
2733	0	0.0363636
2734	0	0
2735	0	0
2736	0	0
2737	0	0
2738	0	0
2739	0	0
2740	0	0
2741	0	0
2742	0	0
2743	0	0
2744	0	0
2745	0	0
2746	0	0
2747	0	0
2748	0	0
2749	0	0
2750	0	0
2751	0	0
2752	0	0
2753	0	0
2754	0	0
2755	0	0
2756	0	0.0222222
2757	0	0.0222222
2758	0	0.0222222
2759	0	0
2760	0	0.0653595
2761	0	0.275862
2762	0	0.243952
2763	0	0.11396
2764	0	0.33815
2765	0	0.025
2766	0	0.025
2767	0	0.0220588
2768	0	0.0220588
2769	0	0.0220588
2770	0	0.0220588
2771	0	0.0220588
2772	0	0.0285714
2773	0	0.0474308
2774	0	0.177236
2775	0	0.0542467
2776	0	0.0594926
2777	0	0.0611984
2778	0	0.0626537
2779	0	0.0520504
2780	0	0.0476441
2781	0	0.0443322
2782	0	0.0440362
2783	0	0.0716846
2784	0	0.103919
2785	0	0.0547087
2786	0	0.0601889
2787	0	0.0801624
2788	0	0.0817394
2789	0	0.065348
2790	0	0.0716496
2791	0	0.0671961
2792	0	0.0653393
2793	0	0.0614231
2794	0	0.0710901
2795	0	0.069542
2796	0	0.0693045
2797	0	0.0637094
2798	0	0.0640357
2799	0	0.0580164
2800	0	0.06222
2801	0	0.0770218
2802	0	0.10188
2803	0	0.0516769
2804	0	0.158757
2805	0	0.0147992
2806	0	0.0134953
2807	0	0.0141129
2808	0	0.044335
2809	0	0.0398551
2810	0	0.047619
2811	0	0.0653595
2812	0	0.0653595
2813	0	0.0735294
2814	0	0.0735294
2815	0	0.0735294
2816	0	0.0735294
2817	0	0.0294118
2818	0	0.0333333
2819	0	0.0333333
2820	0	0.0333333
2821	0	0.0151515
2822	0	0.0151515
2823	0	0.0151515
2824	0	0.0151515
2825	0	0.0952381
2826	0	0.0952381
2827	0	0.0952381
2828	0	0.0952381
2829	0	0.0952381
2830	0	0.0952381
2831	0	0.0151515
2832	0	0.0151515
2833	0	0.0128205
2834	0	0.0128205
2835	0	0.0128205
2836	0	0.0128205
2837	0	0.0128205
2838	0	0.0128205
2839	0	0.0151515
2840	0	0
2841	0	0
2842	0	0
2843	0	0
2844	0	0
2845	0	0
2846	0	0
2847	0	0
2848	0	0
2849	0	0
2850	0	0
2851	0	0
2852	0	0
2853	0	0
2854	0	0
2855	0	0
2856	0	0
2857	0	0
2858	0	0
2859	0	0
2860	0	0
2861	0	0
2862	0	0
2863	0	0
2864	0	0
2865	0	0
2866	0	0
2867	0	0
2868	0	0
2869	0	0.104575
2870	0	0.104575
2871	0	0.212833
2872	0	0.23099
2873	0	0.241381
2874	0	0.233003
2875	0	0.235417
2876	0	0.228181
2877	0	0.232023
2878	0	0.237739
2879	0	0.214618
2880	0	0.241544
2881	0	0.340784
2882	0	0.36715
2883	0	0.37593
2884	0	0.39019
2885	0	0.391964
2886	0	0.41496
2887	0	0.0555042
2888	0	0.0105105
2889	0	0.00806452
2890	0	0.00985222
2891	0	0.00985222
2892	0	0.010582
2893	0	0.0123077
2894	0	0.0123077
2895	0	0.0123077
2896	0	0.0144928
2897	0	0.0158103
2898	0	0.0047619
2899	0	0.0047619
2900	0	0.0047619
2901	0	0.0047619
2902	0	0.004329
2903	0	0.0047619
2904	0	0.004329
2905	0	0.00526316
2906	0	0
2907	0	0
2908	0	0
2909	0	0
2910	0	0
2911	0	0
2912	0	0
2913	0	0
2914	0	0
2915	0	0
2916	0	0
2917	0	0
2918	0	0
2919	0	0
2920	0	0
2921	0	0
2922	0	0
2923	0	0
2924	0	0
2925	0	0
2926	0	0
2927	0	0
2928	0	0
2929	0	0
2930	0	0
2931	0	0
2932	0	0
2933	0	0
2934	0	0
2935	0	0
2936	0	0
2937	0	0
2938	0	0
2939	0	0
2940	0	0
2941	0	0
2942	0	0
2943	0	0
2944	0	0
2945	0	0
2946	0	0
2947	0	0
2948	0	0
2949	0	0
2950	0	0
2951	0	0
2952	0	0
2953	0	0
2954	0	0
2955	0	0
2956	0	0
2957	0	0
2958	0	0
2959	0	0
2960	0	0
2961	0	0
2962	0	0
2963	0	0
2964	0	0
2965	0	0
2966	0	0
2967	0	0
2968	0	0
2969	0	0
2970	0	0
2971	0	0
2972	0	0
2973	0	0
2974	0	0
2975	0	0
2976	0	0
2977	0	0
2978	0	0
2979	0	0
2980	0	0
2981	0	0
2982	0	0
2983	0	0
2984	0	0
2985	0	0
2986	0	0
2987	0	0
2988	0	0
2989	0	0
2990	0	0
2991	0	0
2992	0	0
2993	0	0
2994	0	0
2995	0	0
2996	0	0
2997	0	0
2998	0	0
2999	0	0
3000	0	0
3001	0	0
3002	0	0
3003	0	0
3004	0	0
3005	0	0
3006	0	0
3007	0	0
3008	0	0
3009	0	0
3010	0	0
3011	0	0
3012	0	0
3013	0	0
3014	0	0
3015	0	0
3016	0	0
3017	0	0
3018	0	0
3019	0	0
3020	0	0
3021	0	0
3022	0	0
3023	0	0
3024	0	0
3025	0	0
3026	0	0
3027	0	0
3028	0	0
3029	0	0
3030	0	0
3031	0	0
3032	0	0
3033	0	0
3034	0	0.047619
3035	0	0
3036	0	0
3037	0	0
3038	0	0
3039	0	0
3040	0	0
3041	0	0
3042	0	0
3043	0	0
3044	0	0
3045	0	0
3046	0	0
3047	0	0
3048	0	0
3049	0	0
3050	0	0
3051	0	0
3052	0	0
3053	0	0
3054	0	0
3055	0	0
3056	0	0
3057	0	0
3058	0	0
3059	0	0
3060	0	0
3061	0	0
3062	0	0
3063	0	0
3064	0	0
3065	0	0
3066	0	0
3067	0	0
3068	0	0
3069	0	0
3070	0	0
3071	0	0
3072	0	0
3073	0	0
3074	0	0
3075	0	0
3076	0	0
3077	0	0
3078	0	0
3079	0	0
3080	0	0
3081	0	0.047619
3082	0	0.047619
3083	0	0.047619
3084	0	0.047619
3085	0	0.047619
3086	0	0.047619
3087	0	0.047619
3088	0	0.047619
3089	0	0.047619
3090	0	0.047619
3091	0	0.047619
3092	0	0.047619
3093	0	0.047619
3094	0	0.047619
3095	0	0.047619
3096	0	0.047619
3097	0	0.047619
3098	0	0.047619
3099	0	0.047619
3100	0	0.047619
3101	0	0.047619
3102	0	0.047619
3103	0	0.0357143
3104	0	0.0357143
3105	0	0.0357143
3106	0	0.0357143
3107	0	0.0357143
3108	0	0.0357143
3109	0	0.0357143
3110	0	0.0357143
3111	0	0.047619
3112	0	0.047619
3113	0	0.047619
3114	0	0.0357143
3115	0	0.0357143
3116	0	0.0357143
3117	0	0.0357143
3118	0	0.0357143
3119	0	0
3120	0	0
3121	0	0
3122	0	0
3123	0	0
3124	0	0
3125	0	0
3126	0	0
3127	0	0
3128	0	0
3129	0	0
3130	0	0
3131	0	0
3132	0	0
3133	0	0
3134	0	0
3135	0	0
3136	0	0
3137	0	0
3138	0	0
3139	0	0
3140	0	0
3141	0	0
3142	0	0
3143	0	0
3144	0	0
3145	0	0
3146	0	0
3147	0	0
3148	0	0
3149	0	0
3150	0	0
3151	0	0
3152	0	0
3153	0	0
3154	0	0
3155	0	0
3156	0	0
3157	0	0
3158	0	0
3159	0	0
3160	0	0
3161	0	0
3162	0	0
3163	0	0
3164	0	0
3165	0	0
3166	0	0
3167	0	0
3168	0	0
3169	0	0
3170	0	0
3171	0	0
3172	0	0
3173	0	0
3174	0	0
3175	0	0
3176	0	0
3177	0	0
3178	0	0
3179	0	0
3180	0	0
3181	0	0
3182	0	0
3183	0	0
3184	0	0
3185	0	0
3186	0	0
3187	0	0
3188	0	0
3189	0	0
3190	0	0
3191	0	0
3192	0	0
3193	0	0
3194	0	0
3195	0	0
3196	0	0
3197	0	0
3198	0	0
3199	0	0
3200	0	0
3201	0	0
3202	0	0
3203	0	0
3204	0	0
3205	0	0
3206	0	0
3207	0	0
3208	0	0
3209	0	0
3210	0	0
3211	0	0
3212	0	0
3213	0	0
3214	0	0
3215	0	0
3216	0	0
3217	0	0
3218	0	0
3219	0	0
3220	0	0
3221	0	0
3222	0	0
3223	0	0
3224	0	0
3225	0	0
3226	0	0
3227	0	0
3228	0	0
3229	0	0
3230	0	0
3231	0	0
3232	0	0
3233	0	0
3234	0	0
3235	0	0
3236	0	0
3237	0	0
3238	0	0
3239	0	0
3240	0	0
3241	0	0
3242	0	0
3243	0	0
3244	0	0
3245	0	0
3246	0	0
3247	0	0
3248	0	0
3249	0	0
3250	0	0
3251	0	0
3252	0	0
3253	0	0
3254	0	0
3255	0	0
3256	0	0
3257	0	0
3258	0	0
3259	0	0
3260	0	0
3261	0	0
3262	0	0
3263	0	0
3264	0	0
3265	0	0
3266	0	0
3267	0	0
3268	0	0
3269	0	0
3270	0	0
3271	0	0
3272	0	0
3273	0	0
3274	0	0
3275	0	0
3276	0	0
3277	0	0
3278	0	0
3279	0	0
3280	0	0.333333
3281	0	0.333333
3282	0	0.333333
3283	0	0.333333
3284	0	0.333333
3285	0	0.333333
3286	0	0.333333
3287	0	0.333333
3288	0	0.333333
3289	0	0.333333
3290	0	0.333333
3291	0	0.333333
3292	0	0.333333
3293	0	0.333333
3294	0	0.333333
3295	0	0.333333
3296	0	0.333333
3297	0	0.333333
3298	0	0.333333
3299	0	0.333333
3300	0	0.333333
3301	0	0.333333
3302	0	0
3303	0	0
3304	0	0
3305	0	0
3306	0	0
3307	0	0
3308	0	0
3309	0	0
3310	0	0
3311	0	0
3312	0	0
3313	0	0
3314	0	0
3315	0	0
3316	0	0
3317	0	0
3318	0	0
3319	0	0.333333
3320	0	0.333333
3321	0	0.333333
3322	0	0.333333
3323	0	0.333333
3324	0	0.333333
3325	0	0.333333
3326	0	0.333333
3327	0	0.333333
3328	0	0
3329	0	0
3330	0	0
3331	0	0
3332	0	0
3333	0	0
3334	0	0
3335	0	0
3336	0	0
3337	0	0
3338	0	0
3339	0	0
3340	0	0
3341	0	0
3342	0	0
3343	0	0
3344	0	0
3345	0	0
3346	0	0
3347	0	0
3348	0	0
3349	0	0
3350	0	0
3351	0	0
3352	0	0
3353	0	0
3354	0	0
3355	0	0
3356	0	0
3357	0	0
3358	0	0
3359	0	0
3360	0	0
3361	0	0
3362	0	0
3363	0	0
3364	0	0
3365	0	0
3366	0	0
3367	0	0
3368	0	0
3369	0	0
3370	0	0
3371	0	0
3372	0	0
3373	0	0
3374	0	0
3375	0	0
3376	0	0
3377	0	0
3378	0	0
3379	0	0
3380	0	0
3381	0	0
3382	0	0
3383	0	0
3384	0	0
3385	0	0
3386	0	0
3387	0	0
3388	0	0
3389	0	0
3390	0	0
3391	0	0
3392	0	0
3393	0	0
3394	0	0
3395	0	0
3396	0	0
3397	0	0
3398	0	0
3399	0	0
3400	0	0
3401	0	0
3402	0	0
3403	0	0
3404	0	0
3405	0	0
3406	0	0
3407	0	0
3408	0	0
3409	0	0
3410	0	0
3411	0	0
3412	0	0
3413	0	0
3414	0	0
3415	0	0
3416	0	0
3417	0	0
3418	0	0
3419	0	0
3420	0	0
3421	0	0
3422	0	0
3423	0	0
3424	0	0
3425	0	0
3426	0	0
3427	0	0
3428	0	0
3429	0	0
3430	0	0
3431	0	0
3432	0	0
3433	0	0
3434	1	0
3435	0	0
3436	1	0
3437	1	0
3438	1	0
3439	1	0
3440	1	0
3441	1	0
3442	0	0
3443	0	0
3444	0	0
3445	0	0
3446	0	0
3447	0	0
3448	0	0
3449	1	0
3450	1	0
3451	1	0
3452	1	0
3453	1	0
3454	1	0
3455	0	0
3456	0	0
3457	0	0
3458	0	0
3459	0	0
3460	0	0
3461	0	0
3462	0	0
3463	0	0
3464	0	0
3465	0	0
3466	0	0
3467	0	0
3468	0	0
3469	0	0
3470	0	0
3471	0	0
3472	1	0
3473	1	0
3474	1	0
3475	1	0
3476	1	0
3477	1	0
3478	1	0
3479	1	0
3480	1	0
3481	1	0
3482	1	0
3483	1	0
3484	1	0
3485	1	0
3486	1	0
3487	1	0
3488	1	0
3489	1	0
3490	1	0
3491	1	0
3492	1	0
3493	1	0
3494	1	0
3495	1	0
3496	1	0
3497	1	0
3498	1	0
3499	1	0
3500	1	0
3501	1	0
3502	1	0
3503	1	0
3504	1	0
3505	1	0
3506	1	0
3507	1	0
3508	1	0
3509	1	0
3510	1	0
3511	1	0
3512	1	0
3513	1	0
3514	1	0
3515	0	0
3516	0	0
3517	0	0
3518	0	0
3519	0	0
3520	0	0
3521	0	0
3522	0	0
3523	0	0
3524	0	0
3525	0	0
3526	0	0
3527	0	0
3528	0	0
3529	0	0
3530	0	0
3531	0	0
3532	0	0
3533	0	0
3534	0	0
3535	0	0
3536	0	0
3537	0	0
3538	0	0
3539	0	0
3540	0	0
3541	1	0
3542	1	0
3543	1	0
3544	1	0
3545	1	0
3546	1	0
3547	1	0
3548	1	0
3549	1	0
3550	1	0
3551	1	0
3552	1	0
3553	1	0
3554	1	0
3555	1	0
3556	1	0
3557	1	0
3558	1	0
3559	1	0
3560	1	0
3561	1	0
3562	1	0
3563	1	0
3564	1	0
3565	1	0
3566	1	0
3567	1	0
3568	1	0
3569	1	0
3570	1	0
3571	1	0
3572	1	0
3573	1	0
3574	1	0
3575	1	0
3576	1	0
3577	1	0
3578	1	0
3579	1	0
3580	1	0
3581	1	0
3582	1	0
3583	1	0
3584	1	0
3585	1	0
3586	1	0
3587	1	0
3588	1	0
3589	1	0
3590	1	0
3591	1	0
3592	1	0
3593	1	0
3594	1	0
3595	1	0
3596	1	0
3597	1	0
3598	1	0
3599	1	0
3600	1	0
3601	1	0
3602	1	0
3603	1	0
3604	1	0
3605	1	0
3606	1	0
3607	1	0
3608	1	0
3609	1	0
3610	1	0
3611	1	0
3612	1	0
3613	1	0
3614	1	0
3615	1	0
3616	1	0
3617	1	0
3618	1	0
3619	1	0
3620	1	0
3621	1	0
3622	1	0
3623	1	0
3624	1	0
3625	1	0
3626	1	0
3627	1	0
3628	1	0
3629	1	0
3630	1	0
3631	1	0
3632	1	0
3633	1	0
3634	1	0
3635	1	0
3636	1	0
3637	1	0
3638	1	0
3639	1	0
3640	1	0
3641	1	0
3642	1	0
3643	1	0
3644	1	0
3645	1	0
3646	1	0
3647	1	0
3648	1	0
3649	1	0
3650	1	0
3651	1	0
3652	1	0
3653	1	0
3654	1	0
3655	1	0
3656	1	0
3657	1	0
3658	1	0
3659	1	0
3660	1	0
3661	1	0
3662	1	0
3663	1	0
3664	1	0
3665	1	0
3666	1	0
3667	1	0
3668	1	0
3669	1	0
3670	1	0
3671	1	0
3672	1	0
3673	1	0
3674	1	0
3675	1	0
3676	1	0
3677	1	0
3678	1	0
3679	1	0
3680	1	0
3681	1	0
3682	1	0
3683	1	0
3684	1	0
3685	1	0
3686	1	0
3687	1	0
3688	1	0
3689	1	0
3690	1	0
3691	1	0
3692	1	0
3693	1	0
3694	1	0
3695	1	0
3696	1	0
3697	1	0
3698	1	0
3699	1	0
3700	1	0
3701	1	0
3702	1	0
3703	1	0
3704	1	0
3705	1	0
3706	1	0
3707	1	0
3708	1	0
3709	1	0
3710	1	0
3711	1	0
3712	1	0
3713	1	0
3714	1	0
3715	1	0
3716	1	0
3717	1	0
3718	1	0
3719	1	0
3720	1	0
3721	1	0
3722	1	0
3723	1	0
3724	1	0
3725	1	0
3726	1	0
3727	1	0
3728	1	0
3729	1	0
3730	1	0
3731	1	0
3732	1	0
3733	1	0
3734	1	0
3735	1	0
3736	1	0
3737	1	0
3738	1	0
3739	1	0
3740	1	0
3741	1	0
3742	1	0
3743	1	0
3744	1	0
3745	1	0
3746	1	0
3747	1	0
3748	1	0
3749	1	0
3750	1	0
3751	1	0
3752	1	0
3753	1	0
3754	1	0
3755	1	0
3756	1	0
3757	1	0
3758	1	0
3759	1	0
3760	1	0
3761	1	0
3762	1	0
3763	1	0
3764	1	0
3765	1	0
3766	1	0
3767	1	0
3768	1	0
3769	1	0
3770	1	0
3771	1	0
3772	1	0
3773	1	0
3774	1	0
3775	1	0
3776	1	0
3777	1	0
3778	1	0
3779	1	0
3780	1	0
3781	1	0
3782	1	0
3783	1	0
3784	1	0
3785	1	0
3786	1	0
3787	1	0
3788	1	0
3789	1	0
3790	1	0
3791	1	0
3792	1	0
3793	1	0
3794	1	0
3795	1	0
3796	1	0
3797	1	0
3798	1	0
3799	1	0
3800	1	0
3801	1	0
3802	1	0
3803	1	0
3804	1	0
3805	1	0
3806	1	0
3807	1	0
3808	1	0
3809	1	0
3810	1	0
3811	1	0
3812	1	0
3813	1	0
3814	1	0
3815	1	0
3816	1	0
3817	1	0
3818	1	0
3819	1	0
3820	1	0
3821	1	0
3822	1	0
3823	1	0
3824	1	0
3825	1	0
3826	1	0
3827	1	0
3828	1	0
3829	1	0
3830	1	0
3831	1	0
3832	1	0
3833	1	0
3834	1	0
3835	1	0
3836	1	0
3837	1	0
3838	1	0
3839	1	0
3840	1	0
3841	1	0
3842	1	0
3843	1	0
3844	1	0
3845	1	0
3846	1	0
3847	1	0
3848	1	0
3849	1	0
3850	1	0
3851	1	0
3852	1	0
3853	1	0
3854	1	0
3855	1	0
3856	1	0
3857	1	0
3858	1	0
3859	1	0
3860	1	0
3861	1	0
3862	1	0
3863	1	0
3864	1	0
3865	1	0
3866	1	0
3867	1	0
3868	1	0
3869	1	0
3870	1	0
3871	1	0
3872	1	0
3873	1	0
3874	1	0
3875	1	0
3876	1	0
3877	1	0
3878	1	0
3879	1	0
3880	1	0
3881	1	0
3882	1	0
3883	1	0
3884	1	0
3885	1	0
3886	1	0
3887	1	0
3888	1	0
3889	1	0
3890	1	0
3891	1	0
3892	1	0
3893	1	0
3894	1	0
3895	1	0
3896	1	0
3897	1	0
3898	1	0
3899	1	0
3900	1	0
3901	1	0
3902	1	0
3903	1	0
3904	1	0
3905	1	0
3906	1	0
3907	1	0
3908	1	0
3909	1	0
3910	1	0
3911	1	0
3912	1	0
3913	1	0
3914	1	0
3915	1	0
3916	1	0
3917	1	0
3918	1	0
3919	1	0
3920	1	0
3921	1	0
3922	1	0
3923	1	0
3924	1	0
3925	1	0
3926	1	0
3927	1	0
3928	1	0
3929	1	0
3930	1	0
3931	1	0
3932	1	0
3933	1	0
3934	1	0
3935	1	0
3936	1	0
3937	1	0
3938	1	0
3939	1	0
3940	1	0
3941	1	0
3942	1	0
3943	1	0
3944	1	0
3945	1	0
3946	1	0
3947	1	0
3948	1	0
3949	1	0
3950	1	0
3951	1	0
3952	1	0
3953	1	0
3954	1	0
3955	1	0
3956	1	0
3957	1	0
3958	1	0
3959	1	0
3960	1	0
3961	1	0
3962	1	0
3963	1	0
3964	1	0
3965	1	0
3966	1	0
3967	1	0
3968	1	0
3969	1	0
3970	1	0
3971	1	0
3972	1	0
3973	1	0
3974	1	0
3975	1	0
3976	1	0
3977	1	0
3978	1	0
3979	1	0
3980	1	0
3981	1	0
3982	1	0
3983	1	0
3984	1	0
3985	1	0
3986	1	0
3987	1	0
3988	1	0
3989	1	0
3990	1	0
3991	1	0
3992	1	0
3993	1	0
3994	1	0
3995	1	0
3996	1	0
3997	1	0
3998	1	0
3999	1	0
4000	1	0
4001	1	0
4002	1	0
4003	1	0
4004	1	0
4005	1	0
4006	1	0
4007	1	0
4008	1	0
4009	1	0
4010	1	0
4011	1	0
4012	1	0
4013	1	0
4014	1	0
4015	1	0
4016	1	0
4017	1	0
4018	1	0
4019	1	0
4020	1	0
4021	1	0
4022	1	0
4023	1	0
4024	1	0
4025	1	0
4026	1	0
4027	1	0
4028	1	0
4029	1	0
4030	1	0
4031	1	0
4032	1	0
4033	1	0
4034	1	0
4035	1	0
4036	1	0
4037	1	0
4038	1	0
4039	1	0
4040	1	0
4041	1	0
4042	1	0
4043	1	0
4044	1	0
4045	1	0
4046	1	0
4047	1	0
4048	1	0
4049	1	0
4050	1	0
4051	1	0
4052	1	0
4053	1	0
4054	1	0
4055	1	0
4056	1	0
4057	1	0
4058	1	0
4059	1	0
4060	1	0
4061	1	0
4062	1	0
4063	1	0
4064	1	0
4065	1	0
4066	1	0
4067	1	0
4068	1	0
4069	1	0
4070	1	0
4071	1	0
4072	1	0
4073	1	0
4074	1	0
4075	1	0
4076	1	0
4077	1	0
4078	1	0
4079	1	0
4080	1	0
4081	1	0
4082	1	0
4083	1	0
4084	1	0
4085	1	0
4086	1	0
4087	1	0
4088	1	0
4089	1	0
4090	1	0
4091	1	0
4092	1	0
4093	1	0
4094	1	0
4095	1	0
4096	1	0
4097	1	0
4098	1	0
4099	1	0
4100	1	0
4101	1	0
4102	1	0
4103	1	0
4104	1	0
4105	1	0
4106	1	0
4107	1	0
4108	1	0
4109	1	0
4110	1	0
4111	1	0
4112	1	0
4113	1	0
4114	1	0
4115	1	0
4116	1	0
4117	1	0
4118	1	0
4119	1	0
4120	1	0
4121	1	0
4122	1	0
4123	1	0
4124	1	0
4125	1	0
4126	1	0
4127	1	0
4128	1	0
4129	1	0
4130	1	0
4131	1	0
4132	1	0
4133	1	0
4134	1	0
4135	1	0
4136	1	0
4137	1	0
4138	1	0
4139	1	0
4140	1	0
4141	1	0
4142	1	0
4143	1	0
4144	1	0
4145	1	0
4146	1	0
4147	1	0
4148	1	0
4149	1	0
4150	1	0
4151	1	0
4152	1	0
4153	1	0
4154	1	0
4155	1	0
4156	1	0
4157	1	0
4158	1	0
4159	1	0
4160	1	0
4161	1	0
4162	1	0
4163	1	0
4164	1	0
4165	1	0
4166	1	0
4167	1	0
4168	1	0
4169	1	0
4170	1	0
4171	1	0
4172	1	0
4173	1	0
4174	1	0
4175	1	0
4176	1	0
4177	1	0
4178	1	0
4179	1	0
4180	1	0
4181	1	0
4182	1	0
4183	1	0
4184	1	0
4185	1	0
4186	1	0
4187	1	0
4188	1	0
4189	1	0
4190	1	0
4191	1	0
4192	1	0
4193	1	0
4194	1	0
4195	1	0
4196	1	0
4197	1	0
4198	1	0
4199	1	0
4200	1	0
4201	1	0
4202	1	0
4203	1	0
4204	1	0
4205	1	0
4206	1	0
4207	1	0
4208	1	0
4209	1	0
4210	1	0
4211	1	0
4212	1	0
4213	1	0
4214	1	0
4215	1	0
4216	1	0
4217	1	0
4218	1	0
4219	1	0
4220	1	0
4221	1	0
4222	1	0
4223	1	0
4224	1	0
4225	1	0
4226	1	0
4227	1	0
4228	1	0
4229	1	0
4230	1	0
4231	1	0
4232	1	0
4233	1	0
4234	1	0
4235	1	0
4236	1	0
4237	1	0
4238	1	0
4239	1	0
4240	1	0
4241	1	0
4242	1	0
4243	1	0
4244	1	0
4245	1	0
4246	1	0
4247	1	0
4248	1	0
4249	1	0
4250	1	0
4251	1	0
4252	1	0
4253	1	0
4254	1	0
4255	1	0
4256	1	0
4257	1	0
4258	1	0
4259	1	0
4260	1	0
4261	1	0
4262	1	0
4263	1	0
4264	1	0
4265	1	0
4266	1	0
4267	1	0
4268	1	0
4269	1	0
4270	1	0
4271	1	0
4272	1	0
4273	1	0
4274	1	0
4275	1	0
4276	1	0
4277	1	0
4278	1	0
4279	1	0
4280	1	0
4281	1	0
4282	1	0
4283	1	0
4284	1	0
4285	1	0
4286	1	0
4287	1	0
4288	1	0
4289	1	0
4290	1	0
4291	1	0
4292	1	0
4293	1	0
4294	1	0
4295	1	0
4296	1	0
4297	1	0
4298	1	0
4299	1	0
4300	1	0
4301	1	0
4302	1	0
4303	1	0
4304	1	0
4305	1	0
4306	1	0
4307	1	0
4308	1	0
4309	1	0
4310	1	0
4311	1	0
4312	1	0
4313	1	0
4314	1	0
4315	1	0
4316	1	0
4317	1	0
4318	1	0
4319	1	0
4320	1	0
4321	1	0
4322	1	0
4323	1	0
4324	1	0
4325	1	0
4326	1	0
4327	1	0
4328	1	0
4329	1	0
4330	1	0
4331	1	0
4332	1	0
4333	1	0
4334	1	0
4335	1	0
4336	1	0
4337	1	0
4338	1	0
4339	1	0
4340	1	0
4341	1	0
4342	1	0
4343	1	0
4344	1	0
4345	1	0
4346	1	0
4347	1	0
4348	1	0
4349	1	0
4350	1	0
4351	1	0
4352	1	0
4353	1	0
4354	1	0
4355	1	0
4356	1	0
4357	1	0
4358	1	0
4359	1	0
4360	1	0
4361	1	0
4362	1	0
4363	1	0
4364	1	0
4365	1	0
4366	1	0
4367	1	0
4368	1	0
4369	1	0
4370	1	0
4371	1	0
4372	1	0
4373	1	0
4374	1	0
4375	1	0
4376	1	0
4377	1	0
4378	1	0
4379	1	0
4380	1	0
4381	1	0
4382	1	0
4383	1	0
4384	1	0
4385	1	0
4386	1	0
4387	1	0
4388	1	0
4389	1	0
4390	1	0
4391	1	0
4392	1	0
4393	1	0
4394	1	0
4395	1	0
4396	1	0
4397	1	0
4398	1	0
4399	1	0
4400	1	0
4401	1	0
4402	1	0
4403	1	0
4404	1	0
4405	1	0
4406	1	0
4407	1	0
4408	1	0
4409	1	0
4410	1	0
4411	1	0
4412	1	0
4413	1	0
4414	1	0
4415	1	0
4416	1	0
4417	1	0
4418	1	0
4419	1	0
4420	1	0
4421	1	0
4422	1	0
4423	1	0
4424	1	0
4425	1	0
4426	1	0
4427	1	0
4428	1	0
4429	1	0
4430	1	0
4431	1	0
4432	1	0
4433	1	0
4434	1	0
4435	1	0
4436	1	0
4437	1	0
4438	1	0
4439	1	0
4440	1	0
4441	1	0
4442	1	0
4443	1	0
4444	1	0
4445	1	0
4446	1	0
4447	1	0
4448	1	0
4449	1	0
4450	1	0
4451	1	0
4452	1	0
4453	1	0
4454	1	0
4455	1	0
4456	1	0
4457	1	0
4458	1	0
4459	1	0
4460	1	0
4461	1	0
4462	1	0
4463	1	0
4464	1	0
4465	1	0
4466	1	0
4467	1	0
4468	1	0
4469	1	0
4470	1	0
4471	1	0
4472	1	0
4473	1	0
4474	1	0
4475	1	0
4476	1	0
4477	1	0
4478	1	0
4479	1	0
4480	1	0
4481	1	0
4482	1	0
4483	1	0
4484	1	0
4485	1	0
4486	1	0
4487	1	0
4488	1	0
4489	1	0
4490	1	0
4491	1	0
4492	1	0
4493	1	0
4494	1	0
4495	1	0
4496	1	0
4497	1	0
4498	1	0
4499	1	0
4500	1	0
4501	1	0
4502	1	0
4503	1	0
4504	1	0
4505	1	0
4506	1	0
4507	1	0
4508	1	0
4509	1	0
4510	1	0
4511	1	0
4512	1	0
4513	1	0
4514	1	0
4515	1	0
4516	1	0
4517	1	0
4518	1	0
4519	1	0
4520	1	0
4521	1	0
4522	1	0
4523	1	0
4524	1	0
4525	1	0
4526	1	0
4527	1	0
4528	1	0
4529	1	0
4530	1	0
4531	1	0
4532	1	0
4533	1	0
4534	1	0
4535	1	0
4536	1	0
4537	1	0
4538	1	0
4539	1	0
4540	1	0
4541	1	0
4542	1	0
4543	1	0
4544	1	0
4545	1	0
4546	1	0
4547	1	0
4548	1	0
4549	1	0
4550	1	0
4551	1	0
4552	1	0
4553	1	0
4554	1	0
4555	1	0
4556	1	0
4557	1	0
4558	1	0
4559	1	0
4560	1	0
4561	1	0
4562	1	0
4563	1	0
4564	1	0
4565	1	0
4566	1	0
4567	1	0
4568	1	0
4569	1	0
4570	1	0
4571	1	0
4572	1	0
4573	1	0
4574	1	0
4575	1	0
4576	1	0
4577	1	0
4578	1	0
4579	1	0
4580	1	0
4581	1	0
4582	1	0
4583	1	0
4584	1	0
4585	1	0
4586	1	0
4587	1	0
4588	1	0
4589	1	0
4590	1	0
4591	1	0
4592	1	0
4593	1	0
4594	1	0
4595	1	0
4596	1	0
4597	1	0
4598	1	0
4599	1	0
4600	1	0
4601	1	0
4602	1	0
4603	1	0
4604	1	0
4605	1	0
4606	1	0
4607	1	0
4608	1	0
4609	1	0
4610	1	0
4611	1	0
4612	1	0
4613	1	0
4614	1	0
4615	1	0
4616	1	0
4617	1	0
4618	1	0
4619	1	0
4620	1	0
4621	1	0
4622	1	0
4623	1	0
4624	1	0
4625	1	0
4626	1	0
4627	1	0
4628	1	0
4629	1	0
4630	1	0
4631	1	0
4632	1	0
4633	1	0
4634	1	0
4635	1	0
4636	1	0
4637	1	0
4638	1	0
4639	1	0
4640	1	0
4641	1	0
4642	1	0
4643	1	0
4644	1	0
4645	1	0
4646	1	0
4647	1	0
4648	1	0
4649	1	0
4650	1	0
4651	1	0
4652	1	0
4653	1	0
4654	1	0
4655	1	0
4656	1	0
4657	1	0
4658	1	0
4659	1	0
4660	1	0
4661	1	0
4662	1	0
4663	1	0
4664	1	0
4665	1	0
4666	1	0
4667	1	0
4668	1	0
4669	1	0
4670	1	0
4671	1	0
4672	1	0
4673	1	0
4674	1	0
4675	1	0
4676	1	0
4677	1	0
4678	1	0
4679	1	0
4680	1	0
4681	1	0
4682	1	0
4683	1	0
4684	1	0
4685	1	0
4686	1	0
4687	1	0
4688	1	0
4689	1	0
4690	1	0
4691	1	0
4692	1	0
4693	1	0
4694	1	0
4695	1	0
4696	1	0
4697	1	0
4698	1	0
4699	1	0
4700	1	0
4701	1	0
4702	1	0
4703	1	0
4704	1	0
4705	1	0
4706	1	0
4707	1	0
4708	1	0
4709	1	0
4710	1	0
4711	1	0
4712	1	0
4713	1	0
4714	1	0
4715	1	0
4716	1	0
4717	1	0
4718	1	0
4719	1	0
4720	1	0
4721	1	0
4722	1	0
4723	1	0
4724	1	0
4725	1	0
4726	1	0
4727	1	0
4728	1	0
4729	1	0
4730	1	0
4731	1	0
4732	1	0
4733	1	0
4734	1	0
4735	1	0
4736	1	0
4737	1	0
4738	1	0
4739	1	0
4740	1	0
4741	1	0
4742	1	0
4743	1	0
4744	1	0
4745	1	0
4746	1	0
4747	1	0
4748	1	0
4749	1	0
4750	1	0
4751	1	0
4752	1	0
4753	1	0
4754	1	0
4755	1	0
4756	1	0
4757	1	0
4758	1	0
4759	1	0
4760	1	0
4761	1	0
4762	1	0
4763	1	0
4764	1	0
4765	1	0
4766	1	0
4767	1	0
4768	1	0
4769	1	0
4770	1	0
4771	1	0
4772	1	0
4773	1	0
4774	1	0
4775	1	0
4776	1	0
4777	1	0
4778	1	0
4779	1	0
4780	1	0
4781	1	0
4782	1	0
4783	1	0
4784	1	0
4785	1	0
4786	1	0
4787	1	0
4788	1	0
4789	1	0
4790	1	0
4791	1	0
4792	1	0
4793	1	0
4794	1	0
4795	1	0
4796	1	0
4797	1	0
4798	1	0
4799	1	0
4800	1	0
4801	1	0
4802	1	0
4803	1	0
4804	1	0
4805	1	0
4806	1	0
4807	1	0
4808	1	0
4809	1	0
4810	1	0
4811	1	0
4812	1	0
4813	1	0
4814	1	0
4815	1	0
4816	1	0
4817	1	0
4818	1	0
4819	1	0
4820	1	0
4821	1	0
4822	1	0
4823	1	0
4824	1	0
4825	1	0
4826	1	0
4827	1	0
4828	1	0
4829	1	0
4830	1	0
4831	1	0
4832	1	0
4833	1	0
4834	1	0
4835	1	0
4836	1	0
4837	1	0
4838	1	0
4839	1	0
4840	1	0
4841	1	0
4842	1	0
4843	1	0
4844	1	0
4845	1	0
4846	1	0
4847	1	0
4848	1	0
4849	1	0
4850	1	0
4851	1	0
4852	1	0
4853	1	0
4854	1	0
4855	1	0
4856	1	0
4857	1	0
4858	1	0
4859	1	0
4860	1	0
4861	1	0
4862	1	0
4863	1	0
4864	1	0
4865	1	0
4866	1	0
4867	1	0
4868	1	0
4869	1	0
4870	1	0
4871	1	0
4872	1	0
4873	1	0
4874	1	0
4875	1	0
4876	1	0
4877	1	0
4878	1	0
4879	1	0
4880	1	0
4881	1	0
4882	1	0
4883	1	0
4884	1	0
4885	1	0
4886	1	0
4887	1	0
4888	1	0
4889	1	0
4890	1	0
