Site	ColumnScore	SumOfPairsScore
1	0	0
2	0	0
3	0	0
4	0	0
5	0	0
6	0	0
7	0	0
8	0	0
9	0	0
10	0	0
11	0	0
12	0	0
13	0	0
14	0	0
15	0	0
16	0	0
17	0	0
18	0	0
19	0	0
20	0	0
21	0	0
22	0	0
23	0	0
24	0	0
25	0	0
26	0	0
27	0	0
28	0	0
29	0	0
30	0	0
31	0	0
32	0	0
33	0	0
34	0	0
35	0	0
36	0	0
37	0	0
38	0	0
39	0	0
40	0	0
41	0	0
42	0	0
43	0	0
44	0	0
45	0	0
46	0	0
47	0	0
48	0	0
49	0	0
50	0	0
51	0	0
52	0	0
53	0	0
54	0	0
55	0	0
56	0	0
57	0	0
58	0	0
59	0	0
60	0	0
61	0	0
62	0	0
63	0	0
64	0	0
65	0	0
66	0	0
67	0	0
68	0	0
69	0	0
70	0	0
71	0	0
72	0	0
73	0	0
74	0	0
75	0	0
76	0	0
77	0	0
78	0	0
79	0	0
80	0	0
81	0	0
82	0	0
83	0	0
84	0	0
85	0	0
86	0	0
87	0	0
88	0	0
89	0	0
90	0	0
91	0	0
92	0	0
93	0	0
94	0	0
95	0	0
96	0	0
97	0	0
98	0	0
99	0	0
100	0	0
101	0	0
102	0	0
103	0	0
104	0	0
105	0	0
106	0	0
107	0	0
108	0	0
109	0	0
110	0	0
111	0	0
112	0	0
113	0	0
114	0	0
115	0	0
116	0	0
117	0	0
118	0	0
119	0	0
120	0	0
121	0	0
122	0	0
123	0	0
124	0	0
125	0	0
126	0	0
127	0	0
128	0	0
129	0	0
130	0	0
131	0	0
132	0	0
133	0	0
134	0	0
135	0	0
136	0	0
137	0	0
138	0	0
139	0	0
140	0	0
141	0	0
142	1	0
143	1	0
144	1	0
145	1	0
146	1	0
147	1	0
148	1	0
149	1	0
150	1	0
151	1	0
152	1	0
153	1	0
154	1	0
155	1	0
156	1	0
157	1	0
158	1	0
159	1	0
160	1	0
161	1	0
162	1	0
163	1	0
164	1	0
165	1	0
166	1	0
167	1	0
168	1	0
169	1	0
170	1	0
171	1	0
172	1	0
173	1	0
174	1	0
175	1	0
176	1	0
177	1	0
178	1	0
179	1	0
180	1	0
181	1	0
182	1	0
183	1	0
184	1	0
185	1	0
186	1	0
187	1	0
188	1	0
189	1	0
190	1	0
191	1	0
192	1	0
193	1	0
194	1	0
195	1	0
196	1	0
197	1	0
198	1	0
199	1	0
200	1	0
201	1	0
202	1	0
203	1	0
204	1	0
205	1	0
206	1	0
207	1	0
208	1	0
209	1	0
210	1	0
211	1	0
212	1	0
213	1	0
214	1	0
215	1	0
216	1	0
217	1	0
218	1	0
219	1	0
220	1	0
221	1	0
222	1	0
223	1	0
224	1	0
225	1	0
226	1	0
227	1	0
228	1	0
229	1	0
230	1	0
231	1	0
232	1	0
233	1	0
234	1	0
235	1	0
236	1	0
237	1	0
238	1	0
239	1	0
240	0	0
241	0	0
242	0	0
243	0	0
244	0	0
245	0	0
246	0	0
247	0	0
248	0	0
249	0	0
250	0	0
251	0	0
252	0	0
253	0	0
254	0	0
255	0	0
256	0	0
257	1	0
258	0	0
259	0	0
260	0	0
261	0	0
262	0	0
263	0	0
264	0	0
265	0	0
266	0	0
267	0	0
268	0	0
269	0	0
270	0	0
271	0	0
272	0	0
273	0	0
274	0	0
275	0	0
276	0	0
277	0	0
278	0	0
279	0	0
280	0	0
281	0	0
282	0	0
283	0	0
284	0	0
285	0	0
286	0	0
287	0	0
288	0	0
289	0	0
290	0	0
291	0	0
292	0	0
293	0	0
294	0	0
295	0	0
296	0	0
297	0	0
298	0	0
299	0	0
300	0	0
301	0	0
302	0	0
303	0	0
304	0	0
305	0	0
306	0	0
307	0	0
308	0	0
309	0	0
310	0	0
311	0	0
312	0	0
313	0	0
314	0	0
315	0	0
316	0	0
317	0	0
318	0	0
319	0	0
320	0	0
321	0	0
322	0	0
323	0	0
324	0	0
325	0	0
326	0	0
327	0	0
328	0	0
329	0	0
330	0	0
331	0	0
332	0	0
333	0	0
334	0	0
335	0	0
336	0	0
337	0	0
338	0	0
339	0	0
340	0	0
341	0	0
342	0	0
343	0	0
344	0	0
345	0	0
346	0	0
347	0	0
348	0	0
349	0	0
350	0	0
351	0	0
352	0	0
353	0	0
354	0	0
355	0	0
356	0	0
357	0	0
358	0	0
359	0	0
360	0	0
361	0	0
362	0	0
363	0	0
364	0	0
365	0	0
366	0	0
367	0	0
368	0	0
369	0	0
370	0	0
371	0	0
372	0	0
373	0	0
374	0	0
375	0	0
376	0	0
377	0	0
378	0	0
379	0	0
380	0	0
381	0	0
382	0	0
383	0	0
384	0	0
385	0	0
386	0	0
387	0	0
388	0	0
389	0	0
390	0	0
391	0	0
392	0	0
393	0	0
394	0	0
395	0	0
396	0	0
397	0	0
398	0	0
399	0	0
400	0	0
401	0	0
402	0	0
403	0	0
404	0	0
405	0	0
406	0	0
407	0	0
408	0	0
409	0	0
410	0	0
411	0	0
412	0	0
413	0	0
414	0	0
415	0	0
416	0	0
417	0	0
418	0	0
419	0	0
420	0	0
421	0	0
422	0	0
423	0	0
424	0	0
425	0	0
426	0	0
427	0	0
428	0	0
429	0	0
430	0	0
431	0	0
432	0	0
433	0	0
434	0	0
435	0	0
436	0	0
437	0	0
438	0	0
439	0	0
440	0	0
441	0	0
442	0	0
443	0	0
444	0	0
445	0	0
446	0	0
447	0	0
448	0	0
449	0	0
450	0	0
451	0	0
452	0	0
453	0	0
454	0	0
455	0	0
456	0	0
457	0	0
458	0	0
459	0	0
460	0	0
461	0	0
462	0	0
463	0	0
464	0	0
465	0	0
466	0	0
467	0	0
468	0	0
469	0	0
470	0	0
471	0	0
472	0	0
473	0	0
474	0	0
475	0	0
476	0	0
477	0	0
478	0	0
479	0	0
480	0	0
481	0	0
482	0	0
483	0	0
484	0	0
485	0	0
486	0	0
487	0	0
488	0	0
489	0	0
490	0	0
491	0	0
492	0	0
493	0	0
494	0	0
495	0	0
496	0	0
497	0	0
498	0	0
499	0	0
500	0	0
501	0	0
502	0	0
503	0	0
504	0	0
505	0	0
506	0	0
507	0	0
508	0	0
509	0	0
510	0	0
511	0	0
512	0	0
513	0	0
514	0	0
515	0	0
516	0	0
517	0	0
518	0	0
519	0	0
520	0	0
521	0	0
522	0	0
523	0	0
524	0	0
525	0	0
526	0	0
527	0	0
528	0	0
529	0	0
530	0	0
531	0	0
532	0	0
533	0	0
534	0	0
535	0	0
536	0	0
537	0	0
538	0	0
539	0	0
540	0	0
541	0	0
542	0	0
543	0	0
544	0	0
545	0	0
546	0	0
547	0	0
548	0	0
549	0	0
550	0	0
551	0	0
552	0	0
553	0	0
554	0	0
555	0	0
556	0	0
557	0	0
558	0	0
559	0	0
560	0	0
561	0	0
562	0	0
563	0	0
564	0	0
565	0	0
566	0	0
567	0	0
568	0	0
569	0	0
570	0	0
571	0	0
572	0	0
573	0	0
574	0	0
575	0	0
576	0	0
577	0	0
578	0	0
579	0	0
580	0	0
581	0	0
582	0	0
583	0	0
584	0	0
585	0	0
586	0	0
587	0	0
588	0	0
589	0	0
590	0	0
591	0	0
592	0	0
593	0	0
594	0	0
595	0	0
596	0	0
597	0	0
598	0	0
599	0	0
600	0	0
601	0	0
602	0	0
603	0	0
604	0	0
605	0	0
606	0	0
607	0	0
608	0	0
609	0	0
610	0	0
611	0	0
612	0	0
613	0	0
614	0	0
615	0	0
616	0	0
617	0	0
618	0	0
619	0	0
620	0	0
621	0	0
622	0	0
623	0	0
624	0	0
625	0	0
626	0	0
627	0	0
628	0	0
629	0	0
630	0	0
631	0	0
632	0	0
633	0	0
634	0	0
635	0	0
636	0	0
637	0	0
638	0	0
639	0	0
640	0	0
641	0	0
642	0	0
643	0	0
644	0	0
645	0	0
646	0	0
647	0	0
648	0	0
649	0	0
650	0	0
651	0	0
652	0	0
653	0	0
654	0	0
655	0	0
656	0	0
657	0	0
658	0	0
659	0	0
660	0	0
661	0	0
662	0	0
663	0	0
664	0	0
665	0	0
666	0	0
667	0	0
668	0	0
669	0	0
670	0	0
671	0	0
672	0	0
673	0	0
674	0	0
675	0	0
676	0	0
677	0	0
678	0	0
679	0	0
680	0	0
681	0	0
682	0	0
683	0	0
684	0	0
685	0	0
686	0	0
687	0	0
688	0	0
689	0	0
690	0	0
691	0	0
692	0	0
693	0	0
694	0	0
695	0	0
696	0	0
697	0	0
698	0	0
699	0	0
700	0	0
701	0	0
702	0	0
703	0	0
704	0	0
705	0	0
706	0	0
707	0	0
708	0	0
709	0	0
710	0	0
711	0	0
712	0	0
713	0	0
714	0	0
715	0	0
716	0	0
717	0	0
718	0	0
719	0	0
720	0	0
721	0	0
722	0	0
723	0	0
724	0	0
725	0	0
726	0	0
727	0	0
728	0	0
729	0	0
730	0	0
731	0	0
732	0	0
733	0	0
734	0	0
735	0	0
736	0	0
737	0	0
738	0	0
739	0	0
740	0	0
741	0	0
742	0	0
743	0	0
744	0	0
745	0	0
746	0	0
747	0	0
748	0	0
749	0	0
750	0	0
751	0	0
752	0	0
753	0	0
754	0	0
755	0	0
756	0	0
757	0	0
758	0	0
759	0	0
760	0	0
761	0	0
762	0	0
763	0	0
764	0	0
765	0	0
766	0	0
767	0	0
768	0	0
769	0	0
770	0	0
771	0	0
772	0	0
773	0	0
774	0	0
775	0	0
776	0	0
777	0	0
778	0	0
779	0	0
780	0	0
781	0	0
782	0	0
783	0	0
784	0	0
785	0	0
786	0	0
787	0	0
788	0	0
789	0	0
790	0	0
791	0	0
792	0	0
793	0	0
794	0	0
795	0	0
796	0	0
797	0	0
798	0	0
799	0	0
800	0	0
801	0	0
802	0	0
803	0	0
804	0	0
805	0	0
806	0	0
807	0	0
808	0	0
809	0	0
810	0	0
811	0	0
812	0	0
813	0	0
814	0	0
815	0	0
816	0	0
817	0	0
818	0	0
819	0	0
820	0	0
821	0	0
822	0	0
823	0	0
824	0	0
825	0	0
826	0	0
827	0	0
828	0	0
829	0	0
830	0	0
831	0	0
832	0	0
833	0	0
834	0	0
835	0	0
836	0	0
837	0	0
838	0	0
839	0	0
840	0	0
841	0	0
842	0	0
843	0	0
844	0	0
845	0	0
846	0	0
847	0	0
848	0	0
849	0	0
850	0	0
851	0	0
852	0	0
853	0	0
854	0	0
855	0	0
856	0	0
857	0	0
858	0	0
859	0	0
860	0	0
861	0	0
862	0	0
863	0	0
864	0	0
865	0	0
866	0	0
867	0	0
868	0	0
869	0	0
870	0	0
871	0	0
872	0	0
873	0	0
874	0	0
875	0	0
876	0	0
877	0	0
878	0	0
879	0	0
880	0	0
881	0	0
882	0	0
883	0	0
884	0	0
885	0	0
886	0	0
887	0	0
888	0	0
889	0	0
890	0	0
891	0	0
892	0	0
893	0	0
894	0	0
895	0	0
896	0	0
897	0	0
898	0	0
899	0	0
900	0	0
901	0	0
902	0	0
903	0	0
904	0	0
905	0	0
906	0	0
907	0	0
908	0	0
909	0	0
910	0	0
911	0	0
912	0	0
913	0	0
914	0	0
915	0	0
916	0	0
917	0	0
918	0	0
919	0	0
920	0	0
921	0	0
922	0	0
923	0	0
924	0	0
925	0	0
926	0	0
927	0	0
928	0	0
929	0	0
930	0	0
931	0	0
932	0	0
933	0	0
934	0	0
935	0	0
936	0	0
937	0	0
938	0	0
939	0	0
940	0	0
941	0	0
942	0	0
943	0	0
944	0	0
945	0	0
946	0	0
947	0	0
948	0	0
949	0	0
950	0	0
951	0	0
952	0	0
953	0	0
954	0	0
955	0	0
956	0	0
957	0	0
958	0	0
959	0	0
960	0	0
961	0	0
962	0	0
963	0	0
964	0	0
965	0	0
966	0	0
967	0	0
968	0	0
969	0	0
970	0	0
971	0	0
972	0	0
973	0	0
974	0	0
975	0	0
976	0	0
977	0	0
978	0	0
979	0	0
980	0	0
981	0	0
982	0	0
983	0	0
984	0	0
985	0	0
986	0	0
987	0	0
988	0	0
989	0	0
990	0	0
991	0	0
992	0	0
993	0	0
994	0	0
995	0	0
996	0	0
997	0	0
998	0	0
999	0	0
1000	0	0
1001	0	0
1002	0	0
1003	0	0
1004	0	0
1005	0	0
1006	0	0
1007	0	0
1008	0	0
1009	0	0
1010	0	0
1011	0	0
1012	0	0
1013	0	0
1014	0	0
1015	0	0
1016	0	0
1017	0	0
1018	0	0
1019	0	0
1020	0	0
1021	0	0
1022	0	0
1023	0	0
1024	0	0
1025	0	0
1026	0	0
1027	0	0
1028	0	0
1029	0	0
1030	0	0
1031	0	0
1032	0	0
1033	0	0
1034	0	0
1035	0	0
1036	0	0
1037	0	0
1038	0	0
1039	0	0
1040	0	0
1041	0	0
1042	0	0
1043	0	0
1044	0	0
1045	0	0
1046	0	0
1047	0	0
1048	0	0
1049	0	0
1050	0	0
1051	0	0
1052	0	0
1053	0	0
1054	0	0
1055	0	0
1056	0	0
1057	0	0
1058	0	0
1059	0	0
1060	0	0
1061	0	0
1062	0	0
1063	0	0
1064	0	0
1065	0	0
1066	0	0
1067	0	0
1068	0	0
1069	0	0
1070	0	0
1071	0	0
1072	0	0
1073	0	0
1074	0	0
1075	0	0
1076	0	0
1077	0	0
1078	0	0
1079	0	0
1080	0	0
1081	0	0
1082	0	0
1083	0	0
1084	0	0
1085	0	0
1086	0	0
1087	0	0
1088	0	0
1089	0	0
1090	0	0
1091	0	0
1092	0	0
1093	0	0
1094	0	0
1095	0	0
1096	0	0
1097	0	0
1098	0	0
1099	0	0
1100	0	0
1101	0	0
1102	0	0
1103	0	0
1104	0	0
1105	0	0
1106	0	0
1107	0	0
1108	0	0
1109	0	0
1110	0	0
1111	0	0
1112	0	0
1113	0	0
1114	0	0
1115	0	0
1116	0	0
1117	0	0
1118	0	0
1119	0	0
1120	0	0
1121	0	0
1122	0	0
1123	0	0
1124	0	0
1125	0	0
1126	0	0
1127	0	0
1128	0	0
1129	0	0
1130	0	0
1131	0	0
1132	0	0
1133	0	0
1134	0	0
1135	0	0
1136	0	0
1137	0	0
1138	0	0
1139	0	0
1140	0	0
1141	0	0
1142	0	0
1143	0	0
1144	0	0
1145	0	0
1146	0	0
1147	0	0
1148	0	0
1149	0	0
1150	0	0
1151	0	0
1152	0	0
1153	0	0
1154	0	0
1155	0	0
1156	0	0
1157	0	0
1158	0	0
1159	0	0
1160	0	0
1161	0	0
1162	0	0
1163	0	0
1164	0	0
1165	0	0
1166	0	0
1167	0	0
1168	0	0
1169	0	0
1170	0	0
1171	0	0
1172	0	0
1173	0	0
1174	0	0
1175	0	0
1176	0	0
1177	0	0
1178	0	0
1179	0	0
1180	0	0
1181	0	0
1182	0	0
1183	0	0
1184	0	0
1185	0	0
1186	0	0
1187	0	0
1188	0	0
1189	0	0
1190	0	0
1191	0	0
1192	0	0
1193	0	0
1194	0	0
1195	0	0
1196	0	0
1197	0	0
1198	0	0
1199	0	0
1200	0	0
1201	0	0
1202	0	0
1203	0	0
1204	0	0
1205	0	0
1206	0	0
1207	0	0
1208	0	0
1209	0	0
1210	0	0
1211	0	0
1212	0	0
1213	0	0
1214	0	0
1215	0	0
1216	0	0
1217	0	0
1218	0	0
1219	0	0
1220	0	0
1221	0	0
1222	0	0
1223	0	0
1224	0	0
1225	0	0
1226	0	0
1227	0	0
1228	0	0
1229	0	0
1230	0	0
1231	0	0
1232	0	0
1233	0	0
1234	0	0
1235	0	0
1236	0	0
1237	0	0
1238	0	0
1239	0	0
1240	0	0
1241	0	0
1242	0	0
1243	0	0
1244	0	0
1245	0	0
1246	0	0
1247	0	0
1248	0	0
1249	0	0
1250	0	0
1251	0	0
1252	0	0
1253	0	0
1254	0	0
1255	0	0
1256	0	0
1257	0	0
1258	0	0
1259	0	0
1260	0	0
1261	0	0
1262	0	0
1263	0	0
1264	0	0
1265	0	0
1266	0	0
1267	0	0
1268	0	0
1269	0	0
1270	0	0
1271	0	0
1272	0	0
1273	0	0
1274	0	0
1275	0	0
1276	0	0
1277	0	0
1278	0	0
1279	0	0
1280	0	0
1281	0	0
1282	0	0
1283	0	0
1284	0	0
1285	0	0
1286	0	0
1287	0	0
1288	0	0
1289	0	0
1290	0	0
1291	0	0
1292	0	0
1293	0	0
1294	0	0
1295	0	0
1296	0	0
1297	0	0
1298	0	0
1299	0	0
1300	0	0
1301	0	0
1302	0	0
1303	0	0
1304	0	0
1305	0	0.0357143
1306	0	0.0357143
1307	0	0.0357143
1308	0	0.0357143
1309	0	0.0357143
1310	0	0.0357143
1311	0	0.0357143
1312	0	0.0357143
1313	0	0.0277778
1314	0	0.0277778
1315	0	0.0277778
1316	0	0.0277778
1317	0	0.0277778
1318	0	0.0277778
1319	0	0.0277778
1320	0	0.0277778
1321	0	0.0277778
1322	0	0.0363636
1323	0	0.0363636
1324	0	0.0363636
1325	0	0.0727273
1326	0	0.0454545
1327	0	0.0454545
1328	0	0.0454545
1329	0	0.0454545
1330	0	0.0606061
1331	0	0.0512821
1332	0	0.164835
1333	0	0.132353
1334	0	0.132353
1335	0	0.105263
1336	0	0.105263
1337	0	0.105263
1338	0	0.0904762
1339	0	0.126482
1340	0	0.119565
1341	0	0.133333
1342	0	0.169355
1343	0	0.232733
1344	0	0.261351
1345	0	0.27167
1346	0	0.503395
1347	0	0.370305
1348	0	0.363883
1349	0	0.474867
1350	0	0.558994
1351	0	0.545742
1352	0	0.511931
1353	0	0.459244
1354	0	0.398813
1355	0	0.522944
1356	0	0
1357	0	0
1358	0	0
1359	0	0
1360	0	0
1361	0	0
1362	0	0
1363	0	0
1364	0	0
1365	0	0
1366	0	0
1367	0	0
1368	0	0
1369	0	0
1370	0	0
1371	0	0
1372	0	0
1373	0	0
1374	0	0
1375	0	0
1376	0	0
1377	0	0
1378	0	0
1379	0	0
1380	0	0
1381	0	0
1382	0	0
1383	0	0
1384	0	0
1385	0	0
1386	0	0
1387	0	0
1388	0	0
1389	0	0
1390	0	0
1391	0	0
1392	0	0
1393	0	0
1394	0	0
1395	0	0
1396	0	0
1397	0	0
1398	0	0
1399	0	0
1400	0	0
1401	0	0
1402	0	0
1403	0	0
1404	0	0
1405	0	0
1406	0	0
1407	0	0
1408	0	0
1409	0	0
1410	0	0
1411	0	0
1412	0	0
1413	0	0
1414	0	0
1415	0	0
1416	0	0
1417	0	0
1418	0	0
1419	0	0
1420	0	0
1421	0	0
1422	0	0
1423	0	0
1424	0	0
1425	0	0
1426	0	0
1427	0	0
1428	0	0
1429	0	0
1430	0	0
1431	0	0
1432	0	0
1433	0	0
1434	0	0
1435	0	0
1436	0	0
1437	0	0
1438	0	0
1439	0	0
1440	0	0
1441	0	0
1442	0	0
1443	0	0
1444	0	0
1445	0	0
1446	0	0
1447	0	0
1448	0	0
1449	0	0
1450	0	0
1451	0	0
1452	0	0
1453	0	0
1454	0	0
1455	0	0
1456	0	0
1457	0	0
1458	0	0
1459	0	0
1460	0	0
1461	0	0
1462	0	0
1463	0	0
1464	0	0
1465	0	0
1466	0	0
1467	0	0
1468	0	0
1469	0	0
1470	0	0
1471	0	0
1472	0	0
1473	0	0
1474	0	0
1475	0	0
1476	0	0
1477	0	0
1478	0	0
1479	0	0
1480	0	0
1481	0	0
1482	0	0
1483	0	0
1484	0	0
1485	0	0
1486	0	0
1487	0	0
1488	0	0
1489	0	0
1490	0	0
1491	0	0
1492	0	0
1493	0	0
1494	0	0
1495	0	0
1496	0	0
1497	0	0
1498	0	0
1499	0	0
1500	0	0
1501	0	0
1502	0	0
1503	0	0
1504	0	0
1505	0	0
1506	0	0
1507	0	0
1508	0	0
1509	0	0
1510	0	0
1511	0	0
1512	0	0
1513	0	0
1514	0	0
1515	0	0
1516	0	0
1517	0	0
1518	0	0
1519	0	0
1520	0	0
1521	0	0
1522	0	0
1523	0	0
1524	0	0
1525	0	0
1526	0	0
1527	0	0
1528	0	0
1529	0	0
1530	0	0
1531	0	0
1532	0	0
1533	0	0
1534	0	0
1535	0	0
1536	0	0
1537	0	0
1538	0	0
1539	0	0
1540	0	0
1541	0	0
1542	0	0
1543	0	0
1544	0	0
1545	0	0
1546	0	0
1547	0	0
1548	0	0
1549	0	0
1550	0	0
1551	0	0
1552	0	0
1553	0	0
1554	0	0
1555	0	0
1556	0	0
1557	0	0
1558	0	0
1559	0	0
1560	0	0
1561	0	0
1562	0	0
1563	0	0
1564	0	0
1565	0	0
1566	0	0
1567	0	0
1568	0	0
1569	0	0
1570	0	0
1571	0	0
1572	0	0
1573	0	0
1574	0	0
1575	0	0
1576	0	0
1577	0	0
1578	0	0
1579	0	0
1580	0	0
1581	0	0
1582	0	0
1583	0	0
1584	0	0
1585	0	0
1586	0	0
1587	0	0
1588	0	0
1589	0	0
1590	0	0
1591	0	0
1592	0	0
1593	0	0
1594	0	0
1595	0	1
1596	0	1
1597	0	1
1598	0	1
1599	0	1
1600	0	1
1601	0	1
1602	0	1
1603	0	1
1604	0	1
1605	0	1
1606	0	1
1607	0	0.708613
1608	0	0.644912
1609	0	0.767784
1610	0	0.765689
1611	0	0.764186
1612	0	0.785452
1613	0	0.293651
1614	0	0.836278
1615	0	0.838253
1616	0	0
1617	0	0
1618	0	0
1619	0	0
1620	0	0
1621	0	0
1622	0	0
1623	0	0
1624	0	0
1625	0	0
1626	0	0
1627	0	0
1628	0	0
1629	0	0
1630	0	0
1631	0	0
1632	0	0
1633	0	0
1634	0	0
1635	0	0
1636	0	0
1637	0	0
1638	0	0
1639	0	0
1640	0	0
1641	0	0
1642	0	0
1643	0	0
1644	0	0
1645	0	0
1646	0	0
1647	0	0
1648	0	0
1649	0	0
1650	0	0
1651	0	0
1652	0	0
1653	0	0
1654	0	0
1655	0	0
1656	0	0
1657	0	0
1658	0	0
1659	0	0
1660	0	0
1661	0	0
1662	0	0
1663	0	0
1664	0	0
1665	0	0
1666	0	0
1667	0	0
1668	0	0
1669	0	0
1670	0	0
1671	0	0
1672	0	0
1673	0	0
1674	0	0
1675	0	0
1676	0	0
1677	0	0
1678	0	0
1679	0	0
1680	0	0
1681	0	0
1682	0	0
1683	0	0
1684	0	0
1685	0	0
1686	0	0
1687	0	0
1688	0	0
1689	0	0
1690	0	0
1691	0	0
1692	0	0
1693	0	0
1694	0	0
1695	0	0
1696	0	0
1697	0	0
1698	0	0
1699	0	0
1700	0	0
1701	0	0
1702	0	0
1703	0	0
1704	0	0
1705	0	0
1706	0	0
1707	0	0
1708	0	0
1709	0	0
1710	0	0
1711	0	0
1712	0	0
1713	0	0
1714	0	0
1715	0	0
1716	0	0
1717	0	0
1718	0	0
1719	0	0
1720	0	0
1721	0	0
1722	0	0
1723	0	0
1724	0	0
1725	0	0
1726	0	0
1727	0	0
1728	0	0
1729	0	0
1730	0	0
1731	0	0
1732	0	0
1733	0	0
1734	0	0
1735	0	0
1736	0	0
1737	0	0
1738	0	0
1739	0	0
1740	0	0
1741	0	0
1742	0	0
1743	0	0
1744	0	0
1745	0	0
1746	0	0
1747	0	0
1748	0	0
1749	0	0
1750	0	0
1751	0	0
1752	0	0
1753	0	0
1754	0	0
1755	0	0
1756	0	0
1757	0	0
1758	0	0
1759	0	0
1760	0	0
1761	0	0
1762	0	0
1763	0	0
1764	0	0
1765	0	0
1766	0	0
1767	0	0
1768	0	0
1769	0	0
1770	0	0
1771	0	0
1772	0	0
1773	0	0
1774	0	0
1775	0	0
1776	0	0
1777	0	0
1778	0	0
1779	0	0
1780	0	0
1781	0	0
1782	0	0
1783	0	0
1784	0	0
1785	0	0
1786	0	0
1787	0	0
1788	0	0
1789	0	0
1790	0	0
1791	0	0
1792	0	0
1793	0	0
1794	0	0
1795	0	0
1796	0	0
1797	0	0
1798	0	0
1799	0	0
1800	0	0
1801	0	0
1802	0	0
1803	0	0
1804	0	0
1805	0	0
1806	0	0
1807	0	0
1808	0	0
1809	0	0
1810	0	0
1811	0	0
1812	0	0
1813	0	0
1814	0	0
1815	0	0
1816	0	0
1817	0	0
1818	0	0
1819	0	0
1820	0	0
1821	0	0
1822	0	0
1823	0	0
1824	0	0
1825	0	0
1826	0	0
1827	0	0
1828	0	0
1829	0	0
1830	0	0
1831	0	0
1832	0	0
1833	0	0
1834	0	0
1835	0	0
1836	0	0
1837	0	0
1838	0	0
1839	0	0
1840	0	0
1841	0	0
1842	0	0
1843	0	0
1844	0	0
1845	0	0
1846	0	0
1847	0	0
1848	0	0
1849	0	0
1850	0	0
1851	0	0
1852	0	0
1853	0	0
1854	0	0
1855	0	0
1856	0	0
1857	0	0
1858	0	0
1859	0	0
1860	0	0
1861	0	0
1862	0	0
1863	0	0
1864	0	0
1865	0	0
1866	0	0
1867	0	0
1868	0	0
1869	0	0
1870	0	0
1871	0	0
1872	0	0
1873	0	0
1874	0	0
1875	0	0
1876	0	0
1877	0	0
1878	0	0
1879	0	0
1880	0	0
1881	0	0
1882	0	0
1883	0	0
1884	0	0
1885	0	0
1886	0	0
1887	0	0
1888	0	0
1889	0	0
1890	0	0
1891	0	0
1892	0	0
1893	0	0
1894	0	0
1895	0	0
1896	0	0
1897	0	0
1898	0	0
1899	0	0
1900	0	0
1901	0	0
1902	0	0
1903	0	0
1904	0	0
1905	0	0
1906	0	0
1907	0	0
1908	0	0
1909	0	0
1910	0	0
1911	0	0
1912	0	0
1913	0	0
1914	0	0
1915	0	0
1916	0	0
1917	0	0
1918	0	0
1919	0	0
1920	0	0
1921	0	0
1922	0	0
1923	0	0
1924	0	0
1925	0	0
1926	0	0
1927	0	0
1928	0	0
1929	0	0
1930	0	0
1931	0	0
1932	0	0
1933	0	0
1934	0	0
1935	0	0
1936	0	0
1937	0	0
1938	0	0
1939	0	0
1940	0	0
1941	0	0
1942	0	0
1943	0	0
1944	0	0
1945	0	0
1946	0	0
1947	0	0
1948	0	0
1949	0	0
1950	0	0
1951	0	0
1952	0	0
1953	0	0
1954	0	0
1955	0	0
1956	0	0
1957	0	0
1958	0	0
1959	0	0
1960	0	0
1961	0	0
1962	0	0
1963	0	0
1964	0	0
1965	0	0
1966	0	0
1967	0	0
1968	0	0
1969	0	0
1970	0	0
1971	0	0
1972	0	0
1973	0	0
1974	0	0
1975	0	0
1976	0	0
1977	0	0
1978	0	0
1979	0	0
1980	0	0
1981	0	0
1982	0	0
1983	0	0
1984	0	0
1985	0	0
1986	0	0
1987	0	0
1988	0	0
1989	0	0
1990	0	0
1991	0	0
1992	0	0
1993	0	0
1994	0	0
1995	0	0
1996	0	0
1997	0	0
1998	0	0
1999	0	0
2000	0	0
2001	0	0
2002	0	0
2003	0	0
2004	0	0
2005	0	0
2006	0	0
2007	0	0
2008	0	0
2009	0	0
2010	0	0
2011	0	0
2012	0	0
2013	0	0
2014	0	0
2015	0	0
2016	0	0
2017	0	0
2018	0	0
2019	0	0
2020	0	0
2021	0	0
2022	0	0
2023	0	0
2024	0	0
2025	0	0
2026	0	0
2027	0	0
2028	0	0
2029	0	0
2030	0	0
2031	0	0
2032	0	0
2033	0	0
2034	0	0
2035	0	0
2036	0	0
2037	0	0
2038	0	0
2039	0	0
2040	0	0
2041	0	0
2042	0	0
2043	0	0
2044	0	0
2045	0	0
2046	0	0
2047	0	0
2048	0	0
2049	0	0
2050	0	0
2051	0	0
2052	0	0
2053	0	0
2054	0	0
2055	0	0
2056	0	0
2057	0	0
2058	0	0
2059	0	0
2060	0	0
2061	0	0
2062	0	0
2063	0	0
2064	0	0
2065	0	0
2066	0	0
2067	0	0
2068	0	0
2069	0	0
2070	0	0
2071	0	0
2072	0	0
2073	0	0
2074	0	0
2075	0	0
2076	0	0
2077	0	0
2078	0	0
2079	0	0
2080	0	0
2081	0	0
2082	0	0
2083	0	0
2084	0	0
2085	0	0
2086	0	0
2087	0	0
2088	0	0
2089	0	0
2090	0	0
2091	0	0
2092	0	0
2093	0	0
2094	0	0
2095	0	0
2096	0	0
2097	0	0
2098	0	0
2099	0	0
2100	0	0
2101	0	0
2102	0	0
2103	0	0
2104	0	0
2105	0	0
2106	0	0
2107	0	0
2108	0	0
2109	0	0
2110	0	0
2111	0	0
2112	0	0
2113	0	0
2114	0	0
2115	0	0
2116	0	0
2117	0	0
2118	0	0
2119	0	0
2120	0	0
2121	0	0
2122	0	0
2123	0	0
2124	0	0
2125	0	0
2126	0	0
2127	0	0
2128	0	0
2129	0	0
2130	0	0
2131	0	0
2132	0	0
2133	0	0
2134	0	0
2135	0	0
2136	0	0
2137	0	0
2138	0	0
2139	0	0
2140	0	0
2141	0	0
2142	0	0
2143	0	0
2144	0	0
2145	0	0
2146	0	0
2147	0	0
2148	0	0
2149	0	0
2150	0	0
2151	0	0
2152	0	0
2153	0	0
2154	0	0
2155	0	0
2156	0	0
2157	0	0
2158	0	0
2159	0	0
2160	0	0
2161	0	0
2162	0	0
2163	0	0
2164	0	0
2165	0	0
2166	0	0
2167	0	0
2168	0	0
2169	0	0
2170	0	0
2171	0	0
2172	0	0
2173	0	0
2174	0	0
2175	0	0
2176	0	0
2177	0	0
2178	0	0
2179	0	0
2180	0	0
2181	0	0
2182	0	0
2183	0	0
2184	0	0
2185	0	0
2186	0	0
2187	0	0
2188	0	0
2189	0	0
2190	0	0
2191	0	0
2192	0	0
2193	0	0
2194	0	0
2195	0	0
2196	0	0
2197	0	0
2198	0	0
2199	0	0
2200	0	0
2201	0	0
2202	0	0
2203	0	0
2204	0	0
2205	0	0
2206	0	0
2207	0	0
2208	0	0
2209	0	0
2210	0	0
2211	0	0.4
2212	0	0.4
2213	0	0.4
2214	0	0.4
2215	0	0.4
2216	0	0.4
2217	0	0.4
2218	0	0.4
2219	0	0.4
2220	0	0.4
2221	0	0.4
2222	0	0.4
2223	0	0.4
2224	0	0.4
2225	0	0.622296
2226	0	0.61132
2227	0	0.758155
2228	0	0.6
2229	0	0.6
2230	0	0.47619
2231	0	0.89406
2232	0	0.549708
2233	0	0.499626
2234	0	0.992269
2235	0	0.996133
2236	0	0.996137
2237	0	0.996137
2238	0	0.996137
2239	0	0.99422
2240	0	0.99422
2241	0	0.99422
2242	0	0.99422
2243	0	0
2244	0	0
2245	0	0
2246	0	0
2247	0	0
2248	0	0
2249	0	0
2250	0	0
2251	0	0
2252	0	0
2253	0	0
2254	0	0
2255	0	0
2256	0	0
2257	0	0
2258	0	0
2259	0	0
2260	0	0
2261	0	0
2262	0	0
2263	0	0
2264	0	0
2265	0	0
2266	0	0
2267	0	0
2268	0	0
2269	0	0
2270	0	0
2271	0	0
2272	0	0
2273	0	0
2274	0	0
2275	0	0
2276	0	0
2277	0	0
2278	0	0
2279	0	0
2280	0	0
2281	0	0
2282	0	0
2283	0	0
2284	0	0
2285	0	0
2286	0	0
2287	0	0
2288	0	0
2289	0	0
2290	0	0
2291	0	0
2292	0	0
2293	0	0
2294	0	0
2295	0	0
2296	0	0
2297	0	0
2298	0	0
2299	0	0
2300	0	0
2301	0	0
2302	0	0
2303	0	0
2304	0	0
2305	0	0
2306	0	0
2307	0	0
2308	0	0
2309	0	0
2310	0	0
2311	0	0
2312	0	0
2313	0	0
2314	0	0
2315	0	0
2316	0	0
2317	0	0
2318	0	0
2319	0	0
2320	0	0
2321	0	0
2322	0	0
2323	0	0
2324	0	0
2325	0	0
2326	0	0
2327	0	0
2328	0	0
2329	0	0
2330	0	0
2331	0	0
2332	0	0
2333	0	0
2334	0	0
2335	0	0
2336	0	0
2337	0	0
2338	0	0
2339	0	0
2340	0	0
2341	0	0
2342	0	0
2343	0	0
2344	0	0
2345	0	0
2346	0	0
2347	0	0
2348	0	0
2349	0	0
2350	0	0
2351	0	0
2352	0	0
2353	0	0
2354	0	0
2355	0	0
2356	0	0
2357	0	0
2358	0	0
2359	0	0
2360	0	0
2361	0	0
2362	0	0
2363	0	0
2364	0	0
2365	0	0
2366	0	0
2367	0	0
2368	0	0
2369	0	0
2370	0	0
2371	0	0
2372	0	0
2373	0	0.988533
2374	0	0.988533
2375	0	0.988533
2376	0	0.990427
2377	0	0.990427
2378	0	0.990427
2379	0	0.996152
2380	0	0.996152
2381	0	0.994238
2382	0	0.994238
2383	0	0.928571
2384	0	0.928571
2385	0	0.916326
2386	0	0.893393
2387	0	0.846373
2388	0	0.7139
2389	0	0.336663
2390	0	0.310449
2391	0	0.799986
2392	0	0.436364
2393	0	0.299145
2394	0	0.207977
2395	0	0.125616
2396	0	0.247316
2397	0	0.75005
2398	0	0.383333
2399	0	0.494505
2400	0	0.19697
2401	0	0.110526
2402	0	0.909396
2403	0	0.905817
2404	0	0.902611
2405	0	0.85067
2406	0	0.897618
2407	0	0.898005
2408	0	0.3
2409	0	0.3
2410	0	0.3
2411	0	0.3
2412	0	0.3
2413	0	0.2
2414	0	0.2
2415	0	0.2
2416	0	0.163636
2417	0	0.337965
2418	0	0.336436
2419	0	0.240642
2420	0	0.222222
2421	0	0.201587
2422	0	0.228431
2423	0	0.438709
2424	0	0.333333
2425	0	0.148411
2426	0	0.307644
2427	0	0.390789
2428	0	0.732582
2429	0	0.855545
2430	0	0.301587
2431	0	0.395604
2432	0	0.75
2433	0	1
2434	0	1
2435	0	0.905505
2436	0	0.996156
2437	0	0.996165
2438	0	0.996165
2439	0	0.996165
2440	0	0.996165
2441	0	0.996165
2442	0	0.998077
2443	0	1
2444	0	1
2445	0	1
2446	0	1
2447	0	1
2448	0	1
2449	0	1
2450	1	1
2451	0	0.998075
2452	0	0.998077
2453	0	0.998077
2454	0	0.998077
2455	0	0.998077
2456	0	1
2457	0	1
2458	1	1
2459	1	1
2460	1	1
2461	1	1
2462	1	1
2463	1	1
2464	1	1
2465	1	1
2466	1	1
2467	1	1
2468	1	1
2469	1	1
2470	1	1
2471	1	1
2472	0	0.992324
2473	0	0.990418
2474	0	0.998077
2475	0	0.998077
2476	0	0.998077
2477	0	0.998077
2478	0	0.998079
2479	0	0.998079
2480	0	1
2481	0	1
2482	0	1
2483	0	1
2484	0	1
2485	0	0.998053
2486	0	0.996109
2487	0	0.998047
2488	0	1
2489	0	0.984376
2490	0	0
2491	0	0.839157
2492	0	0.982609
2493	0	0.933507
2494	0	0.499215
2495	0	0.992237
2496	0	0.994197
2497	0	0.99613
2498	0	0.996133
2499	0	0.996133
2500	0	0.996133
2501	0	0.996133
2502	0	0.996133
2503	0	0.333333
2504	0	0.986544
2505	0	0.952602
2506	0	0.783916
2507	0	1
2508	0	1
2509	0	1
2510	0	1
2511	1	1
2512	1	1
2513	1	1
2514	1	1
2515	0	0
2516	0	0
2517	0	0.166667
2518	0	0.166667
2519	0	0.166667
2520	0	0.5
2521	1	1
2522	1	1
2523	0	1
2524	0	1
2525	0	0.4
2526	0	0.866211
2527	0	0.862113
2528	0	0.483974
2529	0	0.515818
2530	0	0.561448
2531	0	0.63513
2532	0	0.658633
2533	0	0.663396
2534	0	1
2535	1	1
2536	0	0.998101
2537	0	0.998101
2538	0	0.998101
2539	0	0.998101
2540	0	1
2541	0	1
2542	0	1
2543	0	1
2544	0	1
2545	0	1
2546	0	0.990541
2547	0	0.990541
2548	0	0.990541
2549	0	1
2550	0	1
2551	0	0.789289
2552	0	0.766411
2553	0	0.868989
2554	0	0
2555	0	0
2556	0	0.442688
2557	0	0.833953
2558	0	0.823435
2559	0	1
2560	0	0.777778
2561	0	0.47619
2562	0	0.47619
2563	0	0.47619
2564	0	0.357143
2565	0	0.908026
2566	0	0.408613
2567	0	0.190476
2568	0	0.190476
2569	0	0.541929
2570	0	0.3
2571	0	0.507353
2572	0	0.530454
2573	0	0.471247
2574	0	0.333333
2575	0	0.316667
2576	0	0.107143
2577	0	0.107143
2578	0	0.254545
2579	0	0.560572
2580	0	0.146218
2581	0	0.124625
2582	0	0.11401
2583	0	0.378779
2584	0	0.311854
2585	0	0.285781
2586	0	0.326967
2587	0	0.372899
2588	0	0
2589	0	0
2590	0	0
2591	0	0
2592	0	0
2593	0	0
2594	0	0
2595	0	0
2596	0	0
2597	0	0
2598	0	0
2599	0	0
2600	0	0.758333
2601	0	0.772059
2602	0	0.166667
2603	0	0.666667
2604	0	0.491088
2605	0	1
2606	0	1
2607	0	1
2608	0	1
2609	0	1
2610	0	1
2611	0	1
2612	0	1
2613	0	1
2614	0	1
2615	0	0.333333
2616	0	0.333333
2617	0	0.333333
2618	0	0.333333
2619	0	1
2620	0	1
2621	0	1
2622	0	0.98984
2623	0	0
2624	0	0
2625	0	0
2626	0	0
2627	0	0
2628	0	0.974987
2629	0	0.943816
2630	0	0.945764
2631	0	1
2632	0	0.988559
2633	0	0.988613
2634	0	0.992401
2635	0	0.992401
2636	0	0.990559
2637	0	0.990559
2638	0	0.984957
2639	0	0.985
2640	0	0.985
2641	0	0.988718
2642	0	1
2643	0	1
2644	0	0.957
2645	0	0.619948
2646	0	0.618656
2647	0	0.608051
2648	0	0.889897
2649	0	0.296443
2650	0	0.25
2651	0	0.253469
2652	0	0.370766
2653	0	0.338703
2654	0	0
2655	0	0
2656	0	0
2657	0	0
2658	0	0.292131
2659	0	0.333574
2660	0	0.242647
2661	0	0.177778
2662	0	0.166667
2663	0	0.291163
2664	0	0.32148
2665	0	0.352298
2666	0	0.334482
2667	0	0.489405
2668	0	0.435862
2669	0	0.317014
2670	0	0.370707
2671	0	0.314976
2672	0	0.50101
2673	0	0.858231
2674	0	0.985012
2675	0	0.997001
2676	0	0.996246
2677	0	0.996246
2678	0	0.994382
2679	0	0.996253
2680	0	0.998126
2681	0	0.998122
2682	0	0.998122
2683	0	0.998122
2684	0	0.998122
2685	0	0.998122
2686	0	0.996249
2687	0	0.996249
2688	0	0.996251
2689	0	0
2690	0	0
2691	0	0
2692	0	0
2693	0	0
2694	0	0.98878
2695	0	0.98878
2696	0	0
2697	1	0
2698	1	0
2699	1	0
2700	1	0
2701	1	0
2702	1	0
2703	1	0
2704	1	0
2705	1	0
2706	1	0
2707	0	0.988769
2708	0	0.990637
2709	0	0.98878
2710	0	0.98878
2711	0	0.98878
2712	0	0.990637
2713	0	0.990637
2714	0	0.990646
2715	0	0.990646
2716	0	0.992513
2717	0	1
2718	0	1
2719	0	1
2720	0	1
2721	0	1
2722	0	1
2723	0	0
2724	0	0
2725	0	0
2726	0	0
2727	0	0
2728	0	0
2729	0	0
2730	0	0
2731	0	0
2732	0	0
2733	0	0
2734	0	0
2735	0	0
2736	0	0
2737	0	0.981168
2738	0	0
2739	0	0
2740	0	0
2741	0	0
2742	0	0.1
2743	0	0.634781
2744	0	0.303693
2745	0	0.300933
2746	0	0.558824
2747	0	0.558824
2748	0	0.558824
2749	0	0.434534
2750	0	0.445823
2751	0	0.184576
2752	0	0.192155
2753	0	0.256956
2754	0	0.750988
2755	0	0.750988
2756	0	0.857317
2757	0	0.860627
2758	0	0.783298
2759	0	0.444838
2760	0	0.319048
2761	0	0.236923
2762	0	0.300667
2763	0	0.111111
2764	0	0.111111
2765	0	0.38128
2766	0	0.638925
2767	0	0.41608
2768	0	0.169591
2769	0	0.137681
2770	0	0.100985
2771	0	0.199689
2772	0	0.164836
2773	0	0.165639
2774	0	1
2775	0	1
2776	0	0.888889
2777	0	0.888889
2778	0	0.888889
2779	0	0.888889
2780	0	0.333333
2781	0	0.333333
2782	0	0.333333
2783	0	0.151619
2784	0	0.15938
2785	0	0
2786	0	0
2787	0	0
2788	0	0
2789	0	0
2790	0	0
2791	0	0
2792	0	0
2793	0	0
2794	0	0.158688
2795	0	0.180317
2796	0	0.24608
2797	0	0.157219
2798	0	0.172017
2799	0	0.15225
2800	0	0
2801	0	0
2802	0	0
2803	0	0
2804	0	0
2805	0	0
2806	0	0
2807	0	0
2808	0	0.250761
2809	0	0.352955
2810	0	0.953221
2811	0	0.97619
2812	0	0
2813	0	0
2814	0	0
2815	0	0
2816	0	0
2817	0	0.6
2818	0	0.6
2819	0	0.6
2820	0	0
2821	0	0
2822	0	0
2823	0	0
2824	0	0.2
2825	0	0.2
2826	0	0.3
2827	0	0.361111
2828	0	0.361111
2829	0	0.361111
2830	0	0.5
2831	0	0.339204
2832	0	0.637289
2833	0	0.681854
2834	0	0.758862
2835	0	1
2836	0	1
2837	0	1
2838	0	0.985019
2839	0	0.985047
2840	0	1
2841	0	1
2842	0	0.994368
2843	0	0.994373
2844	0	0.992501
2845	0	0.992504
2846	0	1
2847	0	0.996256
2848	0	0.996256
2849	0	0.996256
2850	0	0.996256
2851	0	0.996256
2852	0	0.996256
2853	0	0
2854	0	0
2855	0	0
2856	0	0
2857	0	0.99626
2858	0	0.99626
2859	0	0.99626
2860	0	0.99626
2861	0	0.99626
2862	0	0.950626
2863	0	0.950626
2864	0	0
2865	0	0.947029
2866	0	0.94521
2867	0	0
2868	0	0
2869	0	0
2870	0	0
2871	0	0
2872	0	0
2873	0	0.988636
2874	0	0
2875	0	0
2876	0	0
2877	0	0
2878	0	0
2879	0	0
2880	0	0
2881	0	0
2882	0	0
2883	0	0
2884	0	0
2885	0	0.6
2886	0	0.435897
2887	0	0.308333
2888	0	0.201581
2889	0	0.614819
2890	0	0.890476
2891	0	0.456439
2892	0	0.454545
2893	0	0.594958
2894	0	0.394642
2895	0	0.276521
2896	0	0.239371
2897	0	0.351839
2898	0	0.332016
2899	0	0.249012
2900	0	0.242645
2901	0	0.160154
2902	0	0.202459
2903	0	0.155556
2904	0	0.155556
2905	0	0.162841
2906	0	0.143695
2907	0	0.260288
2908	0	0.227193
2909	0	0.0690196
2910	0	0.0897959
2911	0	0.523564
2912	0	0.56368
2913	0	0.339216
2914	0	0.215354
2915	0	0.191398
2916	0	0.472809
2917	0	0.146199
2918	0	0.157895
2919	0	0.168421
2920	0	0.168421
2921	0	0.756651
2922	0	1
2923	0	1
2924	0	0.17971
2925	0	0.362673
2926	0	0.562592
2927	0	0.529412
2928	0	0.622222
2929	0	0.622222
2930	0	0.777778
2931	0	0.311111
2932	0	0.114286
2933	0	0.170323
2934	0	0.236559
2935	0	0.298305
2936	0	0.383193
2937	0	0.783193
2938	0	0.941176
2939	0	0.99626
2940	0	0.996263
2941	0	0.998131
2942	0	0.998131
2943	0	0.998131
2944	0	0.998131
2945	0	0.998131
2946	0	0.998131
2947	0	0.998131
2948	0	0
2949	0	0
2950	0	0.996267
2951	0	0.996267
2952	0	0.996267
2953	0	0.996267
2954	0	0.996267
2955	0	0.996267
2956	0	0.996267
2957	0	0.996267
2958	0	0.994408
2959	0	0.996267
2960	0	0.996263
2961	0	0.996263
2962	0	0.996263
2963	0	0.994398
2964	0	1
2965	0	0.79085
2966	0	0.445344
2967	0	0.920096
2968	0	0.5
2969	0	0.166667
2970	0	0
2971	0	0
2972	0	0
2973	0	0
2974	0	0.381818
2975	0	0.613073
2976	0	0
2977	0	0
2978	0	0
2979	0	0
2980	0	1
2981	0	1
2982	0	1
2983	0	1
2984	0	1
2985	0	0.338967
2986	0	0.606978
2987	0	0.224291
2988	0	0.320346
2989	0	0.208791
2990	0	0.127273
2991	0	0.504456
2992	0	0.428571
2993	0	0.784314
2994	0	0.979644
2995	0	0.97586
2996	0	0.983237
2997	0	0.983253
2998	0	1
2999	0	1
3000	0	0.992534
3001	0	0.992534
3002	0	0.992534
3003	0	0.992527
3004	0	0.992527
3005	0	0
3006	0	0
3007	0	0
3008	0	0
3009	0	0
3010	0	0
3011	0	0
3012	0	0
3013	0	0
3014	0	0
3015	0	0
3016	0	0
3017	0	0
3018	0	0
3019	0	0
3020	0	0
3021	0	0
3022	0	0
3023	0	0
3024	0	0
3025	0	0
3026	0	0
3027	0	0.990663
3028	0	0.990663
3029	0	0.990663
3030	0	0.990663
3031	0	0.990654
3032	0	0.6
3033	0	0.97947
3034	0	0.97947
3035	0	0.964839
3036	0	0.964848
3037	0	1
3038	0	0.666667
3039	0	0.3
3040	0	0.236364
3041	0	0.943188
3042	0	0.887395
3043	0	0.817471
3044	0	0.309042
3045	0	0.424549
3046	0	0.334118
3047	0	0
3048	0	0.47619
3049	0	0.390113
3050	0	0.322179
3051	0	0
3052	0	0.595142
3053	0	0.299902
3054	0	0
3055	0	0
3056	0	0
3057	0	0
3058	0	0
3059	0	0
3060	1	0
3061	1	0
3062	1	0
3063	1	0
3064	0	0
3065	0	0.330483
3066	0	0.333333
3067	0	0.418926
3068	0	0.5
3069	0	0.5
3070	0	0.5
3071	0	0.5
3072	0	0.5
3073	0	0.5
3074	0	0.5
3075	0	0.5
3076	0	0.635685
3077	0	0.821701
3078	0	0.836437
3079	0	0.841326
3080	0	0.709294
3081	0	0.534878
3082	0	0.506354
3083	0	0.355556
3084	0	0.244444
3085	0	0.812359
3086	0	0.409195
3087	0	0.371542
3088	0	0.284585
3089	0	0.0724638
3090	0	0.125
3091	0	0.769333
3092	0	0.164964
3093	0	0.395277
3094	0	0.231198
3095	0	0.424675
3096	0	0.257567
3097	0	0.23647
3098	0	0.399503
3099	0	0.468258
3100	0	0.972195
3101	0	0.266667
3102	0	0.2
3103	0	0.266667
3104	0	0.466667
3105	0	0.571429
3106	0	1
3107	0	1
3108	0	1
3109	1	1
3110	1	1
3111	1	1
3112	1	1
3113	1	1
3114	1	1
3115	1	1
3116	1	1
3117	1	1
3118	1	1
3119	1	1
3120	1	1
3121	1	1
3122	1	1
3123	0	0.998133
3124	0	0.998133
3125	0	1
3126	0	1
3127	0	0.6
3128	0	0.6
3129	0	0.988445
3130	0	0.611111
3131	0	0.911588
3132	0	0.73403
3133	0	0.811063
3134	0	0.779032
3135	0	0.392897
3136	0	0.605226
3137	0	0.605226
3138	0	1
3139	0	1
3140	1	1
3141	1	1
3142	1	1
3143	1	1
3144	1	1
3145	1	1
3146	1	1
3147	1	1
3148	1	1
3149	1	1
3150	1	1
3151	1	1
3152	1	1
3153	1	1
3154	1	1
3155	1	1
3156	0	1
3157	0	1
3158	0	1
3159	0	1
3160	0	1
3161	0	1
3162	0	1
3163	0	1
3164	0	0.998127
3165	0	0.998127
3166	0	0.998127
3167	0	0.998127
3168	0	0.99626
3169	0	0.992527
3170	0	0.994393
3171	0	0.996256
3172	0	0.996256
3173	0	1
3174	0	0.910255
3175	0	0.910097
3176	0	0.898119
3177	0	0.666667
3178	0	0.875
3179	0	0
3180	0	0.652
3181	0	0.190476
3182	0	0.190476
3183	0	0.24359
3184	0	0.427405
3185	0	0.334883
3186	0	0.333333
3187	0	0.333333
3188	0	0.333333
3189	0	0.333333
3190	0	0
3191	0	0
3192	0	0
3193	0	0
3194	0	0
3195	0	0
3196	0	0.493213
3197	0	0.608665
3198	0	0.44937
3199	0	0.285714
3200	0	0.194444
3201	0	0.166667
3202	0	0.150327
3203	0	0.17316
3204	0	0.41396
3205	0	0.360331
3206	0	0.366733
3207	0	0.325507
3208	0	0.662983
3209	0	0.585227
3210	0	0.415916
3211	0	0.618619
3212	0	0.802969
3213	0	0.662026
3214	0	0.494831
3215	0	0.973911
3216	0	0.973911
3217	0	0.994366
3218	0	1
3219	0	1
3220	0	0.986878
3221	0	0.983136
3222	0	1
3223	0	1
3224	0	1
3225	0	1
3226	0	1
3227	0	1
3228	0	1
3229	0	1
3230	0	1
3231	0	1
3232	0	0.5
3233	0	0.893836
3234	0	0.893836
3235	0	0.894977
3236	0	0.467872
3237	0	0.328388
3238	0	0.283614
3239	0	0.493321
3240	0	0.433333
3241	0	0.42381
3242	0	0.42381
3243	0	0.419048
3244	0	0.204762
3245	0	0.2
3246	0	0.142857
3247	0	0.1
3248	0	0.1
3249	0	0.122581
3250	0	0.126126
3251	0	0.528622
3252	0	0
3253	0	0
3254	0	0
3255	0	0
3256	0	0
3257	0	0
3258	0	0
3259	0	0
3260	0	0
3261	0	0
3262	0	0
3263	0	0
3264	0	0
3265	0	0
3266	0	0
3267	0	0.166667
3268	0	0.392857
3269	0	0.623077
3270	0	0.446605
3271	0	0.405774
3272	0	0.436653
3273	0	0.366633
3274	0	0.326087
3275	0	0.261811
3276	0	0.321968
3277	0	0.482853
3278	0	0.375046
3279	0	0.158098
3280	0	0.233996
3281	0	0.2
3282	0	0.133333
3283	0	0.133333
3284	0	0.317125
3285	0	0.51183
3286	0	0.775773
3287	0	0.269231
3288	0	0.576923
3289	0	0.576923
3290	0	0.378788
3291	0	0.454545
3292	0	1
3293	0	1
3294	0	1
3295	0	1
3296	0	1
3297	0	1
3298	0	0.848704
3299	0	0.874448
3300	0	0.25
3301	0	0.925254
3302	0	0.967742
3303	0	1
3304	0	0.996239
3305	0	0.996239
3306	0	0.996239
3307	0	0.996239
3308	0	0.996239
3309	0	0.998117
3310	0	0.998117
3311	0	0.998117
3312	0	0.998117
3313	0	0.998117
3314	0	0.996239
3315	0	1
3316	0	1
3317	0	1
3318	0	1
3319	0	1
3320	0	1
3321	0	1
3322	0	1
3323	0	1
3324	0	1
3325	0	1
3326	0	1
3327	0	1
3328	0	0.986885
3329	0	0.986878
3330	0	0.810526
3331	0	0.439324
3332	0	0.346723
3333	0	0.317874
3334	0	0.317874
3335	0	0.267633
3336	0	0.197995
3337	0	0.854377
3338	0	0.426027
3339	0	0.665301
3340	0	0
3341	0	0
3342	0	0
3343	0	0
3344	0	0
3345	0	0
3346	0	0
3347	0	0
3348	0	0
3349	0	0
3350	1	0
3351	1	0
3352	1	0
3353	1	0
3354	1	0
3355	1	0
3356	1	0
3357	1	0
3358	0	0
3359	0	0
3360	0	0
3361	0	0
3362	0	0
3363	0	0
3364	0	0
3365	0	0.686275
3366	0	0.758333
3367	0	0.228758
3368	0	0.0852459
3369	0	0.613749
3370	0	0.133333
3371	0	0.131868
3372	0	0.0659341
3373	0	0.106061
3374	0	0.358317
3375	0	1
3376	0	1
3377	0	1
3378	0	1
3379	0	0.333333
3380	0	0.333333
3381	0	0.779575
3382	0	0
3383	0	0
3384	0	0
3385	0	0
3386	0	1
3387	0	1
3388	0	1
3389	0	0
3390	0	0
3391	0	0
3392	0	0
3393	0	0
3394	0	0
3395	0	0.0666667
3396	0	0.0666667
3397	0	0.25
3398	0	0.378788
3399	0	0.445946
3400	0	0.832027
3401	0	0.832026
3402	0	0.833919
3403	0	0
3404	0	0
3405	0	0.0549451
3406	0	0.0549451
3407	0	0.0761905
3408	0	0.867025
3409	0	0.250273
3410	0	0.814861
3411	0	0.811434
3412	0	0.819654
3413	0	0.368892
3414	0	0.426685
3415	0	0.5
3416	0	0.5
3417	0	0.41011
3418	0	0.609756
3419	0	0.55371
3420	0	0.639034
3421	0	0.726679
3422	0	0.939651
3423	0	0.121212
3424	0	0.121212
3425	0	0.32967
3426	0	0.965461
3427	0	0.288889
3428	0	0.288889
3429	0	0.288889
3430	0	0.288889
3431	0	0.288889
3432	0	0.3
3433	0	0.3
3434	0	0.3
3435	0	0.3
3436	0	0.5
3437	0	1
3438	0	1
3439	0	1
3440	0	1
3441	0	1
3442	0	1
3443	0	1
3444	0	1
3445	0	0.992456
3446	0	0.99434
3447	0	0.994345
3448	0	0.994345
3449	0	0.99435
3450	0	0.99435
3451	0	0.99435
3452	0	0.996228
3453	0	0.996228
3454	0	0.99435
3455	0	0.992456
3456	0	0.992449
3457	0	0
3458	0	0.998106
3459	0	0.998106
3460	0	0.998106
3461	0	0.998106
3462	0	0.998108
3463	0	0.998108
3464	0	0.998108
3465	0	0.998108
3466	0	0.998108
3467	0	0.998108
3468	0	0.998108
3469	0	0.998108
3470	0	0.998108
3471	0	1
3472	0	1
3473	0	1
3474	0	1
3475	0	1
3476	0	0.983064
3477	0	0.717949
3478	0	0.542857
3479	0	0.642254
3480	0	0.624413
3481	0	0.607306
3482	0	0.565405
3483	0	0.611073
3484	0	0.62987
3485	0	0.649351
3486	0	0.547619
3487	0	0.414554
3488	0	0.818597
3489	0	0
3490	0	0
3491	0	0
3492	0	0
3493	0	0
3494	0	0
3495	0	0
3496	0	0
3497	0	0
3498	0	0
3499	0	0
3500	1	0
3501	1	0
3502	1	0
3503	1	0
3504	1	0
3505	1	0
3506	0	0
3507	0	0
3508	0	0
3509	0	0
3510	0	0
3511	0	0
3512	0	0
3513	0	0
3514	0	0
3515	0	0.2
3516	0	0.2
3517	0	0.133333
3518	0	0.4
3519	0	0.666667
3520	0	0.666667
3521	0	0.355556
3522	0	0.208791
3523	0	0.208333
3524	0	0.202614
3525	0	0.192982
3526	0	0.277056
3527	0	0.281385
3528	0	0.335979
3529	0	0.920184
3530	0	0.383648
3531	0	0.609412
3532	0	0.946065
3533	0	0.953441
3534	0	0.94797
3535	0	0.95154
3536	0	0.190476
3537	0	0.190476
3538	0	0.0952381
3539	0	0.190476
3540	0	0.214286
3541	0	0.321429
3542	0	0.417582
3543	0	0.417582
3544	0	0.752381
3545	0	0.79085
3546	0	1
3547	0	1
3548	0	1
3549	0	1
3550	0	1
3551	0	1
3552	0	0.996217
3553	0	0.998106
3554	0	0.998106
3555	0	0.998106
3556	0	0.998106
3557	0	0.998106
3558	0	0.998106
3559	0	0.996217
3560	0	0.994334
3561	0	0.990566
3562	0	0.4
3563	0	0.966048
3564	0	0.494092
3565	0	0.583333
3566	0	0.874303
3567	0	0.838276
3568	0	0.882345
3569	0	0.882454
3570	0	0.887466
3571	0	0.889148
3572	0	0.992449
3573	0	0.884222
3574	0	1
3575	0	0.904762
3576	0	0.669705
3577	0	0.21
3578	0	0.271429
3579	0	0.182077
3580	0	0.305882
3581	0	0.3
3582	0	0.600367
3583	0	0.285714
3584	0	0.142857
3585	0	0.142857
3586	0	0.142857
3587	0	0.142857
3588	0	0.142857
3589	0	0
3590	0	0.166667
3591	0	0
3592	0	0
3593	0	0.333333
3594	0	0.333333
3595	0	0
3596	0	0
3597	0	0
3598	0	0
3599	0	0
3600	0	0
3601	0	0
3602	0	1
3603	0	1
3604	0	0.333333
3605	0	0.333333
3606	0	0.75
3607	0	0.582536
3608	0	0.516144
3609	0	0.363466
3610	0	0.350313
3611	0	0.33171
3612	0	0.111828
3613	0	0.176638
3614	0	0.17
3615	0	0.316017
3616	0	0.354978
3617	0	0.390476
3618	0	0.454102
3619	0	0.45668
3620	0	0.302857
3621	0	0.113798
3622	0	0.103175
3623	0	0.237154
3624	0	0.434783
3625	0	0.450593
3626	0	0.450593
3627	0	0.584211
3628	0	0.905587
3629	0	0.905751
3630	0	0.919218
3631	0	0.990557
3632	0	0.990557
3633	0	0.990557
3634	0	0.992435
3635	0	0.992435
3636	0	0.992435
3637	0	0.992435
3638	0	0.992435
3639	0	0.994318
3640	0	0.996207
3641	0	0.996207
3642	0	0.998101
3643	0	0.996203
3644	0	0.994307
3645	0	0.992421
3646	0	1
3647	0	1
3648	0	1
3649	0	1
3650	0	1
3651	0	1
3652	0	1
3653	0	1
3654	0	1
3655	0	1
3656	0	0
3657	0	0
3658	0	0
3659	0	0
3660	0	0
3661	0	0
3662	0	0
3663	0	0
3664	0	0.758333
3665	0	0.918328
3666	0	0.52381
3667	0	1
3668	0	0.6
3669	0	1
3670	0	1
3671	0	1
3672	0	1
3673	0	0.333333
3674	0	0.333333
3675	0	0.333333
3676	0	0.333333
3677	0	0.333333
3678	0	0
3679	0	0
3680	0	0
3681	0	0
3682	0	0
3683	0	0
3684	0	0
3685	0	0
3686	0	0
3687	0	0
3688	0	0
3689	0	0
3690	0	0
3691	0	0
3692	0	0
3693	0	0
3694	0	0
3695	0	0
3696	0	0
3697	0	0
3698	0	0
3699	0	0
3700	0	0
3701	0	0.166667
3702	0	0.166667
3703	0	0.166667
3704	0	0.166667
3705	0	0.166667
3706	0	0
3707	0	0.142857
3708	0	0.175824
3709	0	0.276923
3710	0	0.622309
3711	0	0.454187
3712	0	0.328156
3713	0	0.25192
3714	0	0.397849
3715	0	0.29833
3716	0	0.268272
3717	0	0.205882
3718	0	0.205882
3719	0	0.205882
3720	0	0.205882
3721	0	0.117647
3722	0	0.134921
3723	0	0.150794
3724	0	0.132979
3725	0	0.124113
3726	0	0.302202
3727	0	0.333333
3728	0	0.333333
3729	0	0.333333
3730	0	0.333333
3731	0	0.2
3732	0	0.240909
3733	0	0.255195
3734	0	0.350911
3735	0	0.274854
3736	0	0.305263
3737	0	0.620351
3738	0	0.419118
3739	0	0.0952381
3740	0	0.133333
3741	0	0.133333
3742	0	0
3743	0	0
3744	0	0
3745	0	0
3746	0	0
3747	0	0
3748	0	0
3749	0	0
3750	0	0
3751	0	0
3752	0	0.461728
3753	0	0
3754	0	0
3755	0	0.285714
3756	0	0.285714
3757	0	0.285714
3758	0	0.285714
3759	0	0
3760	0	0
3761	0	0
3762	0	0
3763	0	0
3764	0	0
3765	0	0
3766	0	0
3767	0	0
3768	0	0
3769	0	0
3770	0	0
3771	0	0
3772	0	0
3773	0	0
3774	0	0.333333
3775	0	0.333333
3776	0	0.549729
3777	0	0.0833333
3778	0	0.0952381
3779	0	0.0952381
3780	0	0.047619
3781	0	0.0571429
3782	0	0.032967
3783	0	0.043956
3784	0	0.10989
3785	0	0.4
3786	0	0.4
3787	0	0.4
3788	0	0.274725
3789	0	0.274725
3790	0	0.707367
3791	0	0.707598
3792	0	0.338624
3793	0	0.418487
3794	0	0.933778
3795	0	0.47619
3796	0	0
3797	0	0
3798	0	0
3799	0	0
3800	0	0
3801	0	0
3802	0	0.814918
3803	0	0.814067
3804	0	0.941759
3805	0	0.984913
3806	0	0.984913
3807	0	0.984913
3808	0	0
3809	0	0
3810	0	1
3811	0	1
3812	0	1
3813	0	0.984941
3814	0	0
3815	0	0.986805
3816	0	0
3817	0	0
3818	0	0
3819	0	0
3820	0	0
3821	0	0
3822	0	0
3823	0	0
3824	0	0
3825	0	0
3826	0	0
3827	0	0
3828	0	0
3829	0	0
3830	0	0
3831	0	0
3832	0	0
3833	0	0.988663
3834	0	0.988663
3835	0	0.988663
3836	0	0.990539
3837	0	0.992421
3838	0	0.992421
3839	0	0.994307
3840	0	0.994307
3841	0	0.994307
3842	0	0.994307
3843	0	0.994302
3844	0	0.994302
3845	0	0.994297
3846	0	0.994297
3847	0	0.994297
3848	0	0.994297
3849	0	0.5
3850	0	0
3851	0	0
3852	0	0
3853	0	0.982989
3854	0	1
3855	0	1
3856	0	1
3857	0	0.333333
3858	0	0.333333
3859	0	0.333333
3860	0	0.333333
3861	0	0.333333
3862	0	0.333333
3863	0	0.333333
3864	0	0.333333
3865	0	0
3866	0	0
3867	0	0
3868	0	0
3869	0	0
3870	0	0
3871	0	0
3872	0	0
3873	0	0
3874	0	0
3875	0	0
3876	0	0
3877	0	0
3878	0	0
3879	0	0
3880	0	0
3881	0	0
3882	0	0
3883	0	0
3884	0	0
3885	0	0
3886	0	0
3887	0	0
3888	0	0
3889	0	0.992145
3890	0	0.981088
3891	0	0.98107
3892	0	0
3893	0	0
3894	0	0
3895	0	0.9736
3896	0	0
3897	0	0
3898	0	0
3899	0	0
3900	0	0.973527
3901	0	0.973529
3902	0	0
3903	0	0
3904	0	0
3905	0	0
3906	0	0
3907	0	0
3908	0	0
3909	0	0
3910	0	0
3911	0	0
3912	0	0
3913	0	0
3914	0	0
3915	0	0
3916	0	0
3917	0	0
3918	0	0
3919	0	0
3920	0	0
3921	0	0
3922	0	0
3923	0	0
3924	0	0
3925	0	0
3926	0	0
3927	0	0
3928	0	0
3929	0	0
3930	0	0
3931	0	0
3932	0	0
3933	0	0
3934	0	0
3935	0	0
3936	0	0
3937	0	0
3938	0	0
3939	0	0
3940	0	0
3941	0	0
3942	0	0
3943	0	0
3944	0	0
3945	0	0
3946	0	0
3947	0	0
3948	0	0
3949	0	0
3950	0	0
3951	0	0
3952	0	0
3953	0	0
3954	0	0
3955	0	0
3956	0	0.977265
3957	0	0.977263
3958	0	0.333333
3959	0	0.333333
3960	0	0.333333
3961	0	0.333333
3962	0	0.333333
3963	0	0.333333
3964	0	0.333333
3965	0	0.333333
3966	0	0.333333
3967	0	0.333333
3968	0	0
3969	0	0
3970	0	0
3971	0	0
3972	0	0
3973	0	0
3974	0	0
3975	0	0
3976	0	0
3977	0	0
3978	0	0
3979	0	0
3980	0	0
3981	0	0
3982	0	0
3983	0	0
3984	0	0
3985	0	0
3986	0	0
3987	0	0
3988	0	0
3989	0	0
3990	0	0
3991	0	0
3992	0	0
3993	0	0
3994	0	0
3995	0	0
3996	0	0
3997	0	0
3998	0	0
3999	0	0
4000	0	0
4001	0	0
4002	0	0
4003	0	0
4004	0	0
4005	0	0
4006	0	0
4007	0	0
4008	0	0
4009	0	0
4010	0	0
4011	0	0
4012	0	0
4013	0	0
4014	0	0
4015	0	0
4016	0	0
4017	0	0
4018	0	0
4019	0	0
4020	0	0
4021	0	0
4022	0	0
4023	0	0
4024	0	0
4025	0	0
4026	0	0
4027	0	0
4028	0	0
4029	0	0
4030	0	0
4031	0	0
4032	0	0
4033	0	0
4034	0	0.333333
4035	0	0.333333
4036	0	0.333333
4037	0	0.333333
4038	0	0.333333
4039	0	0.333333
4040	0	0.333333
4041	0	0.333333
4042	0	0.333333
4043	0	0.333333
4044	0	0.333333
4045	0	0.333333
4046	0	0.333333
4047	0	0.333333
4048	0	0.333333
4049	0	0.333333
4050	0	0.333333
4051	0	0
4052	0	0
4053	0	0
4054	0	0
4055	0	0
4056	0	0
4057	0	0
4058	0	0
4059	0	0
4060	0	0
4061	0	0
4062	0	0
4063	0	0
4064	0	0
4065	0	0
4066	0	0
4067	0	0
4068	0	0
4069	0	0
4070	0	0
4071	0	0
4072	0	0
4073	0	0
4074	0	0
4075	0	0.973271
4076	0	0.93431
4077	0	0.451939
4078	0	0.48704
4079	0	0.470443
4080	0	0.438746
4081	0	0.456667
4082	0	0.37619
4083	0	0.352632
4084	0	0.431373
4085	0	0.404412
4086	0	0.404412
4087	0	0.404412
4088	0	0.269231
4089	0	0.227273
4090	0	0.181818
4091	0	0.181818
4092	0	0.181818
4093	0	0.222222
4094	0	0.222222
4095	0	0.222222
4096	0	0.107143
4097	0	0
4098	0	0
4099	0	0
4100	0	0
4101	0	0
4102	0	0
4103	0	0
4104	0	0
4105	0	0
4106	0	0
4107	0	0
4108	0	0
4109	0	0
4110	0	0
4111	0	0
4112	0	0.047619
4113	0	0
4114	0	0
4115	0	0
4116	0	0
4117	0	0
4118	0	0
4119	0	0
4120	0	0
4121	0	0
4122	0	0
4123	0	0
4124	0	0
4125	0	0
4126	0	0
4127	0	0
4128	0	0
4129	0	0
4130	0	0
4131	0	0
4132	0	0
4133	0	0
4134	0	0
4135	0	0
4136	0	0
4137	0	0
4138	0	0
4139	0	0
4140	0	0
4141	0	0
4142	0	0
4143	0	0
4144	0	0
4145	0	0
4146	0	0
4147	0	0
4148	0	0
4149	0	0
4150	0	0
4151	0	0
4152	0	0
4153	0	0
4154	0	0
4155	0	0
4156	0	0
4157	0	0
4158	0	0
4159	0	0
4160	0	0
4161	0	0
4162	0	0
4163	0	0
4164	0	0
4165	0	0
4166	0	0
4167	0	0
4168	0	0
4169	0	0
4170	0	0
4171	0	0
4172	0	0
4173	0	0
4174	0	0
4175	0	0
4176	0	0
4177	0	0
4178	0	0
4179	0	0
4180	0	0
4181	0	0
4182	0	0
4183	0	0
4184	0	0
4185	0	0
4186	0	0
4187	0	0
4188	0	0
4189	0	0
4190	0	0
4191	0	0
4192	0	0
4193	0	0
4194	0	0
4195	0	0
4196	0	0
4197	0	0
4198	0	0
4199	0	0
4200	0	0
4201	0	0
4202	0	0
4203	0	0
4204	0	0
4205	0	0
4206	0	0
4207	0	0
4208	0	0
4209	0	0
4210	0	0
4211	0	0
4212	0	0
4213	0	0
4214	0	0
4215	0	0
4216	0	0
4217	0	0
4218	0	0
4219	0	0
4220	0	0
4221	0	0
4222	0	0
4223	0	0
4224	0	0
4225	0	0
4226	0	0
4227	0	0
4228	0	0
4229	0	0
4230	0	0
4231	0	0
4232	0	0
4233	0	0
4234	0	0
4235	0	0
4236	0	0
4237	0	0
4238	0	0
4239	0	0
4240	0	0
4241	0	0
4242	0	0
4243	0	0
4244	0	0
4245	0	0
4246	0	0
4247	0	0
4248	0	0
4249	0	0
4250	0	0
4251	0	0
4252	0	0
4253	0	0
4254	0	0
4255	0	0
4256	0	0
4257	0	0
4258	0	0
4259	0	0
4260	0	0
4261	0	0
4262	0	0
4263	0	0
4264	0	0
4265	0	0
4266	0	0
4267	0	0
4268	0	0
4269	0	0
4270	0	0
4271	0	0
4272	0	0
4273	0	0
4274	0	0
4275	0	0
4276	0	0
4277	0	0
4278	0	0
4279	0	0
4280	0	0
4281	0	0
4282	0	0
4283	0	0
4284	0	0
4285	0	0
4286	0	0
4287	0	0
4288	0	0
4289	0	0
4290	0	0
4291	0	0
4292	0	0
4293	0	0
4294	0	0
4295	0	0
4296	0	0
4297	0	0
4298	0	0
4299	0	0
4300	0	0
4301	0	0
4302	0	0
4303	0	0
4304	0	0
4305	0	0
4306	0	0
4307	0	0
4308	0	0
4309	0	0
4310	0	0
4311	0	0
4312	0	0
4313	0	0
4314	0	0
4315	0	0
4316	0	0
4317	0	0
4318	0	0
4319	0	0
4320	0	0
4321	0	0
4322	0	0
4323	0	0
4324	0	0
4325	0	0
4326	0	0
4327	0	0
4328	0	0
4329	0	0
4330	0	0
4331	0	0
4332	0	0
4333	0	0
4334	0	0
4335	0	0
4336	0	0
4337	0	0
4338	0	0
4339	0	0
4340	0	0
4341	0	0
4342	0	0
4343	0	0
4344	0	0
4345	0	0
4346	0	0
4347	0	0
4348	0	0
4349	0	0
4350	0	0
4351	0	0
4352	0	0
4353	0	0
4354	0	0
4355	0	0
4356	0	0
4357	0	0
4358	0	0
4359	0	0
4360	0	0
4361	0	0
4362	0	0
4363	0	0
4364	0	0
4365	0	0
4366	0	0
4367	0	0
4368	0	0
4369	0	0
4370	0	0
4371	0	0
4372	0	0
4373	0	0
4374	0	0
4375	0	0
4376	0	0
4377	0	0
4378	0	0
4379	0	0
4380	0	0
4381	0	0
4382	0	0
4383	0	0
4384	0	0
4385	0	0
4386	0	0
4387	0	0
4388	0	0
4389	0	0
4390	0	0
4391	0	0
4392	0	0
4393	0	0
4394	0	0
4395	0	0
4396	0	0
4397	0	0
4398	0	0
4399	0	0
4400	0	0
4401	0	0
4402	0	0
4403	0	0
4404	0	0
4405	0	0
4406	0	0
4407	0	0
4408	0	0
4409	0	0
4410	0	0
4411	0	0
4412	0	0
4413	0	0
4414	0	0
4415	0	0
4416	0	0
4417	0	0
4418	0	0
4419	0	0
4420	0	0
4421	0	0
4422	0	0
4423	0	0
4424	0	0
4425	0	0
4426	0	0
4427	0	0
4428	0	0
4429	0	0
4430	0	0
4431	0	0
4432	0	0
4433	0	0
4434	0	0
4435	0	0
4436	0	0
4437	0	0
4438	0	0
4439	0	0
4440	0	0
4441	0	0
4442	0	0
4443	0	0
4444	0	0
4445	0	0
4446	0	0
4447	0	0
4448	0	0
4449	0	0
4450	0	0
4451	0	0
4452	0	0
4453	0	0
4454	0	0
4455	0	0
4456	0	0
4457	0	0
4458	0	0
4459	0	0
4460	0	0
4461	0	0
4462	0	0
4463	0	0
4464	0	0
4465	0	0
4466	0	0
4467	0	0.333333
4468	0	0.333333
4469	0	0.333333
4470	0	0.333333
4471	0	0
4472	0	0
4473	0	0
4474	0	0
4475	0	0
4476	0	0
4477	0	0
4478	0	0
4479	0	0
4480	0	0
4481	0	0
4482	0	0
4483	0	0
4484	0	0
4485	0	0
4486	0	0
4487	0	0
4488	0	0
4489	0	0
4490	0	0
4491	0	0
4492	0	0
4493	0	0
4494	0	0
4495	0	0
4496	0	0
4497	0	0
4498	0	0
4499	0	0
4500	0	0
4501	0	0
4502	0	0
4503	0	0
4504	0	0
4505	0	0
4506	0	0
4507	0	0
4508	0	0
4509	0	0
4510	0	0
4511	0	0
4512	0	0
4513	0	0
4514	0	0
4515	0	0
4516	0	0
4517	0	0
4518	0	0
4519	0	0
4520	0	0
4521	0	0
4522	0	0
4523	0	0
4524	0	0
4525	0	0
4526	0	0
4527	0	0
4528	0	0
4529	0	0
4530	0	0
4531	0	0
4532	0	0
4533	0	0
4534	0	0
4535	0	0
4536	0	0
4537	0	0
4538	0	0
4539	0	0
4540	0	0
4541	0	0
4542	0	0
4543	0	0
4544	0	0
4545	0	0
4546	0	0
4547	0	0
4548	0	0
4549	0	0
4550	0	0
4551	0	0
4552	0	0
4553	0	0
4554	0	0
4555	0	0
4556	0	0
4557	0	0
4558	0	0
4559	0	0
4560	0	0
4561	0	0
4562	0	0
4563	0	0
4564	0	0
4565	0	0
4566	0	0
4567	0	0
4568	0	0
4569	0	0
4570	0	0
4571	0	0
4572	0	0
4573	0	0
4574	0	0
4575	0	0
4576	0	0
4577	0	0
4578	0	0
4579	0	0
4580	0	0
4581	0	0
4582	0	0
4583	0	0
4584	0	0
4585	0	0
4586	0	0
4587	0	0
4588	0	0
4589	0	0
4590	0	0
4591	0	0
4592	0	0
4593	0	0
4594	0	0
4595	0	0
4596	0	0
4597	0	0
4598	0	0
4599	0	0
4600	0	0
4601	0	0
4602	0	0
4603	0	0
4604	0	0
4605	0	0
4606	0	0
4607	0	0
4608	0	0
4609	0	0
4610	0	0
4611	0	0
4612	0	0
4613	0	0
4614	0	0
4615	0	0
4616	0	0
4617	0	0
4618	0	0
4619	0	0
4620	0	0
4621	0	0
4622	0	0
4623	0	0
4624	0	0
4625	0	0
4626	0	0
4627	0	0
4628	0	0
4629	0	0
4630	0	0
4631	0	0
4632	0	0
4633	0	0
4634	0	0
4635	0	0
4636	0	0
4637	0	0
4638	0	0
4639	0	0
4640	0	0
4641	0	0
4642	0	0
4643	0	0
4644	0	0
4645	0	0
4646	0	0
4647	0	0
4648	0	0
4649	0	0
4650	0	0
4651	0	0
4652	0	0
4653	0	0
4654	0	0
4655	0	0
4656	0	0
4657	0	0
4658	0	0
4659	0	0
4660	0	0
4661	0	0
4662	0	0
4663	0	0
4664	0	0
4665	0	0
4666	0	0
4667	0	0
4668	0	0
4669	0	0
4670	0	0
4671	0	0
4672	0	0
4673	0	0
4674	0	0
4675	0	0
4676	0	0
4677	0	0
4678	0	0
4679	0	0
4680	0	0
4681	0	0
4682	0	0
4683	0	0
4684	0	0
4685	0	0
4686	0	0
4687	0	0
4688	0	0
4689	0	0
4690	0	0
4691	0	0
4692	0	0
4693	0	0
4694	0	0
4695	0	0
4696	0	0
4697	0	0
4698	0	0
4699	0	0
4700	0	0
4701	0	0
4702	0	0
4703	0	0
4704	0	0
4705	0	0
4706	0	0
4707	0	0
4708	0	0
4709	0	0
4710	0	0
4711	0	0
4712	0	0
4713	0	0
4714	0	0
4715	0	0
4716	0	0
4717	0	0
4718	0	0
4719	0	0
4720	0	0
4721	0	0
4722	0	0
4723	0	0
4724	0	0
4725	0	0
4726	0	0
4727	0	0
4728	0	0
4729	0	0
4730	0	0
4731	0	0
4732	0	0
4733	0	0
4734	0	0
4735	0	0
4736	0	0
4737	0	0
4738	0	0
4739	0	0
4740	0	0
4741	0	0
4742	0	0
4743	0	0
4744	0	0
4745	0	0
4746	0	0
4747	0	0
4748	0	0
4749	0	0
4750	0	0
4751	0	0
4752	0	0
4753	0	0
4754	0	0
4755	0	0
4756	0	0
4757	0	0
4758	0	0
4759	0	0
4760	0	0
4761	0	0
4762	0	0
4763	0	0
4764	0	0
4765	0	0
4766	0	0
4767	0	0
4768	0	0
4769	0	0
4770	0	0
4771	0	0
4772	0	0
4773	0	0
4774	0	0
4775	0	0
4776	0	0
4777	0	0
4778	0	0
4779	0	0
4780	0	0
4781	0	0
4782	0	0
4783	0	0
4784	0	0
4785	0	0
4786	0	0
4787	0	0
4788	0	0
4789	0	0
4790	0	0
4791	0	0
4792	0	0
4793	0	0
4794	0	0
4795	0	0
4796	0	0
4797	0	0
4798	0	0
4799	0	0
4800	0	0
4801	0	0
4802	0	0
4803	0	0
4804	0	0
4805	0	0
4806	0	0
4807	0	0
4808	0	0
4809	0	0
4810	0	0
4811	0	0
4812	0	0
4813	0	0
4814	0	0
4815	0	0
4816	0	0
4817	0	0
4818	0	0
4819	0	0
4820	0	0
4821	0	0
4822	0	0
4823	0	0
4824	0	0
4825	0	0
4826	0	0
4827	0	0
4828	0	0
4829	0	0
4830	0	0
4831	0	0
4832	0	0
4833	0	0
4834	0	0
4835	0	0
4836	0	0
4837	0	0
4838	0	0
4839	0	0
4840	0	0
4841	0	0
4842	0	0
4843	0	0
4844	0	0
4845	0	0
4846	0	0
4847	0	0
4848	0	0
4849	0	0
4850	0	0
4851	0	0
4852	0	0
4853	0	0
4854	0	0
4855	0	0
4856	0	0
4857	0	0
4858	0	0
4859	0	0
4860	0	0
4861	0	0
4862	0	0
4863	0	0
4864	0	0
4865	0	0
4866	0	0
4867	0	0
4868	0	0
4869	0	0
4870	0	0
4871	0	0
4872	0	0
4873	0	0
4874	0	0
4875	0	0
4876	0	0
4877	0	0
4878	0	0
4879	0	0
4880	0	0
4881	0	0
4882	0	0
4883	0	0
4884	0	0
4885	0	0
4886	0	0
4887	0	0
4888	0	0
4889	0	0
4890	0	0
4891	0	0
4892	0	0
4893	0	0
4894	0	0
4895	0	0
4896	0	0
4897	0	0
4898	0	0
4899	0	0
4900	0	0
4901	0	0
4902	0	0
4903	0	0
4904	0	0
4905	0	0
4906	0	0
4907	0	0
4908	0	0
4909	0	0
4910	0	0
4911	0	0
4912	0	0
4913	0	0
4914	0	0
4915	0	0
4916	0	0
4917	0	0
4918	0	0
4919	0	0
4920	0	0
4921	0	0
4922	0	0
4923	0	0
4924	0	0
4925	0	0
4926	0	0
4927	0	0
4928	0	0
4929	0	0
4930	0	0
4931	0	0
4932	0	0
4933	0	0
4934	0	0
4935	0	0
4936	0	0
4937	0	0
4938	0	0
4939	0	0
4940	0	0
4941	0	0
4942	0	0
4943	0	0
4944	0	0
4945	0	0
4946	0	0
4947	0	0
4948	0	0
4949	0	0
4950	0	0
4951	0	0
4952	0	0
4953	0	0
4954	0	0
4955	0	0
4956	0	0
4957	0	0
4958	0	0
4959	0	0
4960	0	0
4961	0	0
4962	0	0
4963	0	0
4964	0	0
4965	0	0
4966	0	0
4967	0	0
4968	0	0
4969	0	0
4970	0	0
4971	0	0
4972	0	0
4973	0	0
4974	0	0
4975	0	0
4976	0	0
4977	0	0
4978	0	0
4979	0	0
4980	0	0
4981	0	0
4982	0	0
4983	0	0
4984	0	0
4985	0	0
4986	0	0
4987	0	0
4988	0	0
4989	0	0
4990	0	0
4991	0	0
4992	0	0
4993	0	0
4994	0	0
4995	0	0
4996	0	0
4997	0	0
4998	0	0
4999	0	0
5000	0	0
5001	0	0
5002	0	0
5003	0	0
5004	0	0
5005	0	0
5006	0	0
5007	0	0
5008	0	0
5009	0	0
5010	0	0
5011	0	0
5012	0	0
5013	0	0
5014	0	0
5015	0	0
