Site	ColumnScore	SumOfPairsScore
1	1	0
2	1	0
3	1	0
4	1	0
5	1	0
6	0	0
7	0	0
8	0	0
9	0	0
10	0	0
11	0	0
12	0	0
13	0	0
14	0	0
15	0	0
16	0	0
17	0	0
18	0	0
19	0	0
20	0	0
21	0	0
22	0	0
23	0	0
24	0	0
25	0	0
26	0	0
27	0	0
28	0	0
29	0	0
30	0	0
31	0	0
32	0	0
33	0	0
34	0	0
35	0	0
36	0	0
37	1	0
38	1	0
39	1	0
40	1	0
41	1	0
42	1	0
43	1	0
44	1	0
45	1	0
46	1	0
47	1	0
48	1	0
49	1	0
50	1	0
51	1	0
52	1	0
53	1	0
54	0	0
55	0	0
56	0	0
57	0	0
58	0	0
59	0	0
60	0	0
61	0	0
62	0	0
63	0	0
64	0	0
65	0	0
66	0	0
67	0	0
68	0	0
69	0	0
70	0	0
71	0	0
72	0	0
73	0	0
74	0	0
75	0	0
76	0	0
77	0	0
78	0	0
79	0	0
80	0	0
81	0	0
82	0	0
83	0	0
84	0	0
85	0	0
86	0	0
87	0	0
88	0	0
89	0	0
90	0	0
91	0	0
92	0	0
93	0	0
94	0	0
95	0	0
96	0	0
97	0	0
98	0	0
99	0	0
100	0	0
101	0	0
102	0	0
103	0	0
104	0	0
105	0	0
106	0	0
107	0	0
108	0	0
109	0	0
110	0	0
111	0	0
112	0	0
113	0	0
114	0	0
115	0	0
116	0	0
117	0	0
118	0	0
119	0	0
120	0	0
121	0	0
122	0	0
123	0	0
124	0	0
125	0	0
126	0	0
127	0	0
128	0	0
129	0	0
130	0	0
131	0	0
132	0	0
133	0	0
134	0	0
135	0	0
136	0	0
137	0	0
138	0	0
139	0	0
140	0	0
141	0	0
142	0	0
143	0	0
144	0	0
145	0	0
146	0	0
147	0	0
148	0	0
149	0	0
150	0	0
151	0	0
152	0	0
153	0	0
154	0	0
155	0	0
156	0	0
157	0	0
158	0	0
159	0	0
160	0	0
161	0	0
162	0	0
163	0	0
164	0	0
165	0	0
166	0	0
167	0	0
168	0	0
169	0	0
170	0	0
171	0	0
172	0	0
173	0	0
174	0	0
175	0	0
176	0	0
177	0	0
178	0	0
179	0	0
180	0	0
181	0	0
182	0	0
183	0	0
184	0	0
185	0	0
186	0	0
187	0	0
188	0	0
189	0	0
190	0	0
191	0	0
192	0	0
193	0	0
194	0	0
195	0	0
196	0	0
197	0	0
198	0	0
199	0	0
200	0	0
201	0	0
202	0	0
203	0	0
204	0	0
205	0	0
206	0	0
207	0	0
208	0	0
209	0	0
210	0	0
211	0	0
212	0	0
213	0	0
214	0	0
215	0	0
216	0	0
217	0	0
218	0	0
219	0	0
220	0	0
221	0	0
222	0	0
223	0	0
224	0	0
225	0	0
226	0	0
227	0	0
228	0	0
229	0	0
230	0	0
231	0	0
232	0	0
233	0	0
234	0	0
235	0	0
236	0	0
237	0	0
238	0	0
239	0	0
240	0	0
241	0	0
242	0	0
243	0	0
244	0	0
245	0	0
246	0	0
247	0	0
248	0	0
249	0	0
250	0	0
251	0	0
252	0	0
253	0	0
254	0	0
255	0	0
256	0	0
257	0	0
258	0	0
259	0	0
260	0	0
261	0	0
262	0	0
263	0	0
264	0	0
265	0	0
266	0	0
267	0	0
268	0	0
269	0	0
270	0	0
271	0	0
272	0	0
273	0	0
274	0	0
275	0	0
276	0	0
277	0	0
278	0	0
279	0	0
280	0	0
281	0	0
282	0	0
283	0	0
284	0	0
285	0	0
286	0	0
287	0	0
288	0	0
289	0	0
290	0	0
291	0	0
292	0	0
293	0	0
294	0	0
295	0	0
296	0	0
297	0	0
298	0	0
299	0	0
300	0	0
301	0	0
302	0	0
303	0	0
304	0	0
305	0	0
306	0	0
307	0	0
308	0	0
309	0	0
310	0	0
311	0	0
312	0	0
313	0	0
314	0	0
315	0	0
316	0	0
317	0	0
318	0	0
319	0	0
320	0	0
321	0	0
322	0	0
323	0	0
324	0	0
325	0	0
326	0	0
327	0	0
328	0	0
329	0	0
330	0	0
331	0	0
332	0	0
333	0	0
334	0	0
335	0	0
336	0	0
337	0	0
338	0	0
339	0	0
340	0	0
341	0	0
342	0	0
343	0	0
344	0	0
345	0	0
346	0	0
347	0	0
348	0	0
349	0	0
350	0	0
351	0	0
352	0	0
353	0	0
354	0	0
355	0	0
356	0	0
357	0	0
358	0	0
359	0	0
360	0	0
361	0	0
362	0	0
363	0	0
364	0	0
365	0	0
366	0	0
367	0	0
368	0	0
369	0	0
370	0	0
371	0	0
372	0	0
373	0	0
374	0	0
375	0	0
376	0	0
377	0	0
378	0	0
379	0	0
380	0	0
381	0	0
382	0	0
383	0	0
384	0	0
385	0	0
386	0	0
387	0	0
388	0	0
389	0	0
390	0	0
391	0	0
392	0	0
393	0	0
394	0	0
395	0	0
396	0	0
397	0	0
398	0	0
399	0	0
400	0	0
401	0	0
402	0	0
403	0	0
404	0	0
405	0	0
406	0	0
407	0	0
408	0	0
409	0	0
410	0	0
411	0	0.333333
412	0	0.333333
413	0	0.333333
414	0	0.333333
415	0	0.333333
416	0	0.333333
417	0	0.333333
418	0	0.333333
419	0	0.333333
420	0	0.333333
421	0	0.333333
422	0	0
423	0	0
424	0	0
425	0	0
426	0	0
427	0	0
428	0	0
429	0	0
430	0	0
431	0	0
432	0	0
433	0	0
434	0	0
435	0	0
436	0	0
437	0	0
438	0	0
439	0	0
440	0	0
441	0	0
442	0	0
443	0	0
444	0	0
445	0	0
446	0	0
447	0	0
448	0	0
449	0	0
450	0	0
451	0	0
452	0	0
453	0	0
454	0	0
455	0	0
456	0	0
457	0	0
458	0	0
459	0	0
460	0	0
461	0	0
462	0	0
463	0	0
464	0	0
465	0	0
466	0	0
467	0	0
468	0	0
469	0	0
470	0	0
471	0	0
472	0	0
473	0	0
474	0	0
475	0	0
476	0	0
477	0	0
478	0	0
479	0	0
480	0	0
481	0	0
482	0	0
483	0	0
484	0	0
485	0	0
486	0	0
487	0	0
488	0	0
489	0	0
490	0	0
491	0	0
492	0	0
493	0	0
494	0	0
495	0	0
496	0	0
497	0	0
498	0	0
499	0	0
500	0	0
501	0	0
502	0	0
503	0	0
504	0	0
505	0	0
506	0	0
507	0	0
508	0	0
509	0	0
510	0	0
511	0	0
512	0	0
513	0	0
514	0	0
515	0	0
516	0	0
517	0	0
518	0	0
519	0	0
520	0	0
521	0	0
522	0	0
523	0	0
524	0	0
525	0	0
526	0	0
527	0	0
528	0	0
529	0	0
530	0	0
531	0	0
532	0	0
533	0	0
534	0	0
535	0	0
536	0	0
537	0	0
538	0	0
539	0	0
540	0	0
541	0	0
542	0	0
543	0	0
544	0	0
545	0	0
546	0	0
547	0	0
548	0	0
549	0	0
550	0	0
551	0	0
552	0	0
553	0	0
554	0	0
555	0	0
556	0	0
557	0	0
558	0	0
559	0	0
560	0	0
561	0	0
562	0	0
563	0	0
564	0	0
565	0	0
566	0	0
567	0	0
568	0	0
569	0	0
570	0	0
571	0	0
572	0	0
573	0	0
574	0	0
575	0	0
576	0	0
577	0	0
578	0	0
579	0	0
580	0	0
581	0	0
582	0	0
583	0	0
584	0	0
585	0	0
586	0	0
587	0	0
588	0	0
589	0	0
590	0	0
591	0	0
592	0	0
593	0	0
594	0	0
595	0	0
596	0	0
597	0	0
598	0	0
599	0	0
600	0	0
601	0	0
602	0	0
603	0	0
604	0	0
605	0	0
606	0	0
607	0	0
608	0	0
609	0	0
610	0	0
611	0	0
612	0	0
613	0	0
614	0	0
615	0	0
616	0	0
617	0	0
618	0	0
619	0	0
620	0	0
621	0	0
622	0	0
623	0	0
624	0	0
625	0	0
626	0	0
627	0	0
628	0	0
629	0	0
630	0	0
631	0	0
632	0	0
633	0	0
634	0	0
635	0	0
636	0	0
637	0	0
638	0	0
639	0	0
640	0	0
641	0	0
642	0	0
643	0	0
644	0	0
645	0	0
646	0	0
647	0	0
648	0	0
649	0	0
650	0	0
651	0	0
652	0	0
653	0	0
654	0	0
655	0	0
656	0	0
657	0	0
658	0	0
659	0	0
660	0	0
661	0	0
662	0	0
663	0	0
664	0	0
665	0	0
666	0	0
667	0	0
668	0	0
669	0	0
670	0	0
671	0	0
672	0	0
673	0	0
674	0	0
675	0	0
676	0	0
677	0	0
678	0	0
679	0	0
680	0	0
681	0	0
682	0	0
683	0	0
684	0	0
685	0	0
686	0	0
687	0	0
688	0	0
689	0	0
690	0	0.151515
691	0	0.151515
692	0	0.151515
693	0	0.230769
694	0	0.230769
695	0	0.230769
696	0	0.230769
697	0	0.230769
698	0	0.230769
699	0	0.2
700	0	0.264706
701	0	0.264706
702	0	0.264706
703	0	0.264706
704	0	0.264706
705	0	0.264706
706	0	0.272059
707	0	0.272059
708	0	0.272059
709	0	0.272059
710	0	0.272059
711	0	0.272059
712	0	0.272059
713	0	0.272059
714	0	0.272059
715	0	0.272059
716	0	0.264706
717	0	0.117647
718	0	0.117647
719	0	0
720	0	0.264706
721	0	0.264706
722	0	0.264706
723	0	0.264706
724	0	0.235294
725	0	0.235294
726	0	0.24183
727	0	0.24183
728	0	0.24183
729	0	0.24183
730	0	0.24183
731	0	0.24183
732	0	0.24183
733	0	0.24183
734	0	0.235294
735	0	0.205882
736	0	0.205882
737	0	0.235294
738	0	0.210526
739	0	0.210526
740	0	0.210526
741	0	0.210526
742	0	0.210526
743	0	0.194737
744	0	0.194737
745	0	0.189474
746	0	0.189474
747	0	0.189474
748	0	0.189474
749	0	0.189474
750	0	0.189474
751	0	0.189474
752	0	0.189474
753	0	0.189474
754	0	0.17619
755	0	0.17619
756	0	0.17619
757	0	0.17619
758	0	0.17619
759	0	0.17619
760	0	0.17619
761	0	0.17619
762	0	0.168831
763	0	0.168831
764	0	0.181818
765	0	0.168831
766	0	0.168831
767	0	0.168831
768	0	0.168831
769	0	0.17316
770	0	0.17316
771	0	0.166008
772	0	0.185771
773	0	0.185771
774	0	0.252964
775	0	0.252964
776	0	0.252964
777	0	0.252964
778	0	0.24
779	0	0.221538
780	0	0.165165
781	0	0.152497
782	0	0.147436
783	0	0.130021
784	0	0.0969697
785	0	0.320067
786	0	0.266088
787	0	0.463553
788	0	0.466724
789	0	0.45439
790	0	0.44805
791	0	0.453781
792	0	0.20226
793	0	0.402436
794	0	0.406978
795	0	0
796	0	0
797	0	0
798	0	0
799	0	0
800	0	0
801	0	0
802	0	0
803	0	0
804	0	0
805	0	0
806	0	0
807	0	0
808	0	0
809	0	0
810	0	0
811	0	0
812	0	0
813	0	0
814	0	0
815	0	0
816	0	0
817	0	0
818	0	0
819	0	0
820	0	0
821	0	0
822	0	0
823	0	0
824	0	0
825	0	0
826	0	0
827	0	0
828	0	0
829	0	0
830	0	0
831	0	0
832	0	0
833	0	0
834	0	0
835	0	0
836	0	0
837	0	0
838	0	0
839	0	0
840	0	0
841	0	0
842	0	0
843	0	0
844	0	0
845	0	0
846	0	0
847	0	0
848	0	0
849	0	0
850	0	0
851	0	0
852	0	0
853	0	0
854	0	0
855	0	0
856	0	0
857	0	0
858	0	0
859	0	0
860	0	0
861	0	0
862	0	0
863	0	0
864	0	0
865	0	0
866	0	0
867	0	0
868	0	0
869	0	0
870	0	0
871	0	0
872	0	0
873	0	0
874	0	0
875	0	0
876	0	0
877	0	0
878	0	0
879	0	0
880	0	0
881	0	0
882	0	0
883	0	0
884	0	0
885	0	0
886	0	0
887	0	0
888	0	0
889	0	0
890	0	0
891	0	0
892	0	0
893	0	0
894	0	0
895	0	0
896	0	0
897	0	0
898	0	0
899	0	0
900	0	0
901	0	0
902	0	0
903	0	0
904	0	0
905	0	0
906	0	0
907	0	0
908	0	0
909	0	0
910	0	0
911	0	0
912	0	0
913	0	0
914	0	0
915	0	0
916	0	0
917	0	0
918	0	0
919	0	0
920	0	0
921	0	0
922	0	0
923	0	0
924	0	0
925	0	0
926	0	0
927	0	0
928	0	0
929	0	0
930	0	0
931	0	0
932	0	0
933	0	0
934	0	0
935	0	0
936	0	0
937	0	0
938	0	0
939	0	0
940	0	0
941	0	0
942	0	0
943	0	0
944	0	0
945	0	0
946	0	0
947	0	0
948	0	0
949	0	0
950	0	0
951	0	0
952	0	0
953	0	0
954	0	0
955	0	0
956	0	0
957	0	0
958	0	0
959	0	0.400628
960	0	0.377039
961	0	0
962	0	0
963	0	0
964	0	0
965	0	0
966	0	0.358744
967	0	0.372737
968	0	0.2
969	0	0.349617
970	0	1
971	0	1
972	0	1
973	0	1
974	0	1
975	0	1
976	0	1
977	0	1
978	0	1
979	0	1
980	0	1
981	0	1
982	0	1
983	0	1
984	0	1
985	0	1
986	0	1
987	0	1
988	0	1
989	0	1
990	0	1
991	0	1
992	0	1
993	0	1
994	0	1
995	0	1
996	0	1
997	0	1
998	0	1
999	0	1
1000	0	1
1001	0	1
1002	0	1
1003	0	1
1004	0	1
1005	0	1
1006	0	1
1007	0	1
1008	0	1
1009	0	1
1010	0	1
1011	0	1
1012	0	1
1013	0	0.398828
1014	0	0.560606
1015	0	0.560606
1016	0	0.545455
1017	0	0.654545
1018	0	0.654545
1019	0	0.654545
1020	0	0.654545
1021	0	0.654545
1022	0	0.654545
1023	0	0.545455
1024	0	0.331202
1025	0	0.8
1026	0	0.8
1027	0	0.8
1028	0	0.8
1029	0	0.8
1030	0	0.8
1031	0	0.8
1032	0	0.8
1033	0	0.8
1034	0	0.8
1035	0	0.8
1036	0	0.8
1037	0	0.8
1038	0	0.8
1039	0	0.8
1040	0	0.8
1041	0	0.8
1042	0	0.8
1043	0	0.8
1044	0	0.8
1045	0	0.8
1046	0	0.8
1047	0	0.8
1048	0	0.8
1049	0	0.8
1050	0	0.8
1051	0	0.8
1052	0	0.8
1053	0	0.8
1054	0	0.8
1055	0	0.8
1056	0	0.8
1057	0	0.8
1058	0	0.8
1059	0	0.8
1060	0	0.8
1061	0	0.8
1062	0	0.8
1063	0	0.8
1064	0	0.8
1065	0	0.8
1066	0	0.8
1067	0	0.8
1068	0	0.8
1069	0	0.8
1070	0	0.8
1071	0	0.8
1072	0	0.8
1073	0	0.8
1074	0	0.8
1075	0	0.8
1076	0	0.8
1077	0	0.8
1078	0	0.8
1079	0	0.8
1080	0	0.8
1081	0	0.8
1082	0	0.8
1083	0	0.478417
1084	0	0.456615
1085	0	0.428571
1086	0	0.352381
1087	0	0.14843
1088	0	0.141426
1089	0	0.433824
1090	0	0.29
1091	0	0.316667
1092	0	0.527273
1093	0	0.527273
1094	0	0.509091
1095	0	0.509091
1096	0	0.406593
1097	0	0.164866
1098	0	0.134218
1099	0	0.238866
1100	0	0.249663
1101	0	0.249663
1102	0	0.179669
1103	0	0.5
1104	0	0
1105	0	0
1106	0	0
1107	0	0
1108	0	0
1109	0	0
1110	0	0
1111	0	0.865699
1112	0	0
1113	0	0
1114	0	0
1115	1	0
1116	1	0
1117	1	0
1118	1	0
1119	1	0
1120	0	0
1121	0	0
1122	0	0
1123	0	0
1124	0	0
1125	0	0
1126	0	0
1127	0	0
1128	0	0
1129	1	0
1130	0	0
1131	0	0
1132	0	0
1133	0	0
1134	0	0
1135	0	0
1136	0	0
1137	0	0
1138	0	0
1139	0	0
1140	0	0
1141	0	0
1142	0	0
1143	0	0
1144	1	0
1145	1	0
1146	1	0
1147	1	0
1148	1	0
1149	1	0
1150	1	0
1151	1	0
1152	1	0
1153	1	0
1154	1	0
1155	1	0
1156	1	0
1157	1	0
1158	1	0
1159	1	0
1160	1	0
1161	1	0
1162	1	0
1163	1	0
1164	1	0
1165	1	0
1166	1	0
1167	1	0
1168	0	0
1169	0	0
1170	0	0
1171	0	0
1172	0	0
1173	0	0
1174	0	0
1175	0	0
1176	0	0
1177	0	0
1178	1	0
1179	1	0
1180	1	0
1181	0	0
1182	0	0
1183	0	0
1184	0	0
1185	0	0
1186	0	0
1187	0	0
1188	0	0
1189	0	0
1190	0	0
1191	0	0
1192	1	0
1193	1	0
1194	1	0
1195	1	0
1196	1	0
1197	1	0
1198	1	0
1199	1	0
1200	1	0
1201	1	0
1202	1	0
1203	0	0
1204	0	0
1205	0	0
1206	0	0
1207	0	0
1208	0	0
1209	0	0
1210	0	0
1211	0	0
1212	0	0
1213	0	0
1214	0	0
1215	0	0
1216	0	0
1217	0	0
1218	0	0
1219	0	0
1220	0	0
1221	0	0
1222	0	0
1223	0	0
1224	0	0
1225	0	0
1226	0	0
1227	0	0
1228	0	0
1229	0	0
1230	0	0
1231	0	0
1232	0	0
1233	0	0
1234	0	0
1235	0	0
1236	0	0
1237	0	0
1238	0	0
1239	0	0
1240	0	0
1241	0	0
1242	0	0
1243	0	0
1244	0	0
1245	0	0
1246	0	0
1247	0	0
1248	0	0
1249	0	0
1250	0	0
1251	0	0
1252	0	0
1253	0	0
1254	0	0
1255	0	0
1256	0	0
1257	0	0
1258	0	0
1259	0	0
1260	0	0
1261	0	0
1262	0	0
1263	0	0
1264	0	0
1265	0	0
1266	0	0
1267	0	0
1268	0	0
1269	0	0
1270	0	0
1271	0	0
1272	0	0
1273	1	0
1274	1	0
1275	1	0
1276	1	0
1277	1	0
1278	1	0
1279	1	0
1280	1	0
1281	1	0
1282	1	0
1283	1	0
1284	1	0
1285	1	0
1286	1	0
1287	1	0
1288	1	0
1289	1	0
1290	1	0
1291	1	0
1292	1	0
1293	0	0
1294	0	0
1295	0	0
1296	0	0
1297	0	0
1298	0	0
1299	0	0
1300	0	0
1301	0	0
1302	0	0
1303	0	0
1304	0	0
1305	0	0
1306	0	0
1307	0	0
1308	0	0
1309	0	0
1310	0	0
1311	0	0
1312	0	0
1313	0	0
1314	0	0
1315	0	0
1316	0	0
1317	0	0
1318	0	0
1319	0	0
1320	0	0
1321	0	0
1322	0	0
1323	0	0
1324	0	0
1325	0	0
1326	0	0
1327	0	0
1328	0	0
1329	0	0
1330	0	0
1331	0	0
1332	0	0
1333	0	0
1334	0	0
1335	0	0
1336	0	0
1337	0	0
1338	0	0
1339	0	0
1340	0	0
1341	0	0
1342	0	0
1343	0	0
1344	0	0
1345	0	0
1346	0	0
1347	0	0
1348	0	0
1349	0	0
1350	0	0
1351	0	0
1352	0	0
1353	0	0
1354	0	0
1355	0	0
1356	0	0
1357	0	0
1358	0	0
1359	0	0
1360	0	0
1361	0	0
1362	0	0
1363	0	0
1364	0	0
1365	0	0
1366	0	0
1367	0	0
1368	0	0
1369	0	0
1370	0	0
1371	0	0
1372	0	0
1373	0	0
1374	0	0
1375	0	0
1376	0	0
1377	0	0
1378	0	0
1379	0	0
1380	0	0
1381	0	0
1382	0	0
1383	0	0
1384	0	0
1385	0	0
1386	0	0
1387	0	0
1388	0	0
1389	0	0
1390	0	0
1391	0	0
1392	1	0
1393	1	0
1394	1	0
1395	0	0
1396	0	0
1397	0	0
1398	0	0
1399	0	0
1400	0	0
1401	0	0
1402	0	0
1403	0	0
1404	0	0
1405	0	0
1406	0	0
1407	0	0
1408	0	0
1409	0	0
1410	0	0
1411	0	0
1412	0	0
1413	0	0
1414	0	0
1415	0	0
1416	0	0
1417	0	0
1418	1	0
1419	1	0
1420	1	0
1421	1	0
1422	1	0
1423	1	0
1424	1	0
1425	1	0
1426	1	0
1427	1	0
1428	1	0
1429	1	0
1430	0	0
1431	0	0
1432	0	0
1433	0	0
1434	0	0
1435	0	0
1436	0	0
1437	0	0
1438	0	0
1439	0	0
1440	0	0
1441	0	0
1442	0	0
1443	0	0
1444	0	0
1445	0	0
1446	0	0
1447	0	0
1448	0	0
1449	0	0
1450	0	0
1451	0	0
1452	0	0
1453	0	0
1454	0	0
1455	1	0
1456	1	0
1457	1	0
1458	1	0
1459	1	0
1460	0	0
1461	0	0
1462	0	0
1463	0	0
1464	0	0
1465	0	0
1466	0	0
1467	0	0
1468	0	0
1469	0	0
1470	0	0
1471	0	0
1472	0	0
1473	0	0
1474	0	0
1475	0	0
1476	0	0
1477	0	0
1478	0	0
1479	0	0
1480	0	0
1481	0	0
1482	0	0
1483	0	0
1484	0	0
1485	0	0
1486	0	0
1487	0	0
1488	0	0
1489	0	0
1490	0	0
1491	0	0
1492	0	0
1493	0	0
1494	0	0
1495	0	0
1496	0	0
1497	0	0
1498	0	0
1499	0	0
1500	0	0
1501	0	0
1502	0	0
1503	0	0
1504	0	0
1505	0	0
1506	0	0
1507	0	0
1508	0	0
1509	0	0
1510	0	0
1511	0	0
1512	0	0
1513	0	0
1514	0	0
1515	0	0
1516	0	0
1517	0	0
1518	0	0
1519	0	0
1520	0	0
1521	0	0
1522	0	0
1523	0	0
1524	0	0
1525	0	0
1526	0	0
1527	0	0
1528	0	0
1529	0	0
1530	0	0
1531	0	0
1532	0	0
1533	0	0
1534	0	0
1535	0	0
1536	0	0
1537	0	0
1538	0	0
1539	0	0
1540	0	0
1541	0	0
1542	0	0
1543	0	0
1544	0	0
1545	0	0
1546	0	0
1547	0	0
1548	0	0
1549	0	0
1550	0	0
1551	0	0
1552	0	0
1553	0	0
1554	0	0
1555	0	0
1556	0	0
1557	0	0
1558	0	0
1559	0	0
1560	0	0
1561	0	0
1562	0	0
1563	0	0
1564	0	0
1565	0	0
1566	0	0
1567	0	0
1568	0	0
1569	0	0
1570	0	0
1571	0	0
1572	0	0
1573	0	0
1574	0	0
1575	0	0
1576	0	0
1577	0	0
1578	0	0
1579	0	0
1580	0	0
1581	0	0
1582	0	0
1583	0	0
1584	0	0
1585	0	0
1586	0	0
1587	0	0
1588	0	0
1589	0	0
1590	0	0
1591	0	0
1592	0	0
1593	0	0
1594	0	0
1595	0	0
1596	0	0
1597	0	0
1598	0	0
1599	0	0
1600	0	0
1601	0	0
1602	0	0
1603	0	0
1604	0	0
1605	0	0
1606	0	0
1607	0	0
1608	1	0
1609	1	0
1610	1	0
1611	1	0
1612	0	0
1613	0	0
1614	0	0
1615	0	0
1616	0	0
1617	0	0
1618	0	0
1619	0	0
1620	0	0
1621	0	0
1622	0	0
1623	0	0
1624	0	0
1625	0	0
1626	0	0
1627	0	0
1628	0	0
1629	0	0
1630	0	0
1631	0	0
1632	0	0
1633	0	0
1634	0	0
1635	0	0
1636	0	0
1637	0	0
1638	0	0
1639	0	0
1640	0	0
1641	0	0
1642	0	0
1643	0	0
1644	0	0
1645	0	0
1646	0	0
1647	0	0
1648	0	0
1649	0	0
1650	0	0
1651	0	0
1652	0	0
1653	0	0
1654	0	0
1655	0	0
1656	0	0
1657	0	0
1658	0	0
1659	0	0
1660	0	0
1661	0	0
1662	0	0
1663	0	0
1664	0	0.184013
1665	0	0.182113
1666	0	0.1
1667	0	0.1
1668	0	0.156322
1669	0	0.0747441
1670	0	0.0906319
1671	0	0.0952381
1672	0	0.0952381
1673	0	0.0952381
1674	0	0.0952381
1675	0	0.0952381
1676	0	0.0952381
1677	0	0.0951188
1678	0	0.0850459
1679	0	0.0794557
1680	0	0.0750658
1681	0	0.0699793
1682	0	0.0790455
1683	0	0.0804778
1684	0	0
1685	0	0
1686	0	0
1687	0	0.0895062
1688	0	0.115789
1689	0	0.105263
1690	0	0.0780039
1691	0	0.0746915
1692	0	0.333333
1693	0	0.333333
1694	0	0.333333
1695	0	0.085704
1696	0	0
1697	0	0
1698	0	0
1699	0	0.333333
1700	0	0.333333
1701	0	0.166667
1702	0	0.166667
1703	0	0.1
1704	0	0.1
1705	0	0.0812825
1706	0	0.0749671
1707	0	0.0772402
1708	0	0.125138
1709	0	0.111849
1710	0	0.107317
1711	0	0.080292
1712	0	0.082819
1713	0	0.0819237
1714	0	0.0532216
1715	0	0.0647368
1716	0	0.1
1717	0	0.1
1718	0	0.142857
1719	0	0.142857
1720	0	0.142857
1721	0	0.0732069
1722	0	0.0930724
1723	0	0.0525641
1724	0	0.0558608
1725	0	0.0409068
1726	0	0.092141
1727	0	0.10093
1728	0	0.103335
1729	0	0.104564
1730	0	0.15863
1731	0	0.0841558
1732	0	0.118663
1733	0	0.137034
1734	0	0.126044
1735	0	0.0909091
1736	0	0.127273
1737	0	0.149839
1738	0	0.286765
1739	0	0.286765
1740	0	1
1741	0	1
1742	0	1
1743	0	1
1744	0	1
1745	0	1
1746	0	1
1747	0	1
1748	0	1
1749	0	1
1750	1	1
1751	1	1
1752	1	1
1753	1	1
1754	1	1
1755	1	1
1756	1	1
1757	1	1
1758	1	1
1759	0	1
1760	0	1
1761	0	1
1762	0	1
1763	0	1
1764	0	1
1765	0	1
1766	1	1
1767	1	1
1768	0	1
1769	0	1
1770	0	1
1771	0	1
1772	0	0.444444
1773	0	1
1774	0	1
1775	0	1
1776	0	1
1777	0	1
1778	0	1
1779	0	1
1780	0	1
1781	0	1
1782	0	1
1783	0	1
1784	0	1
1785	0	1
1786	0	1
1787	0	1
1788	0	1
1789	0	1
1790	0	1
1791	0	1
1792	0	1
1793	0	1
1794	0	1
1795	0	1
1796	0	1
1797	0	1
1798	0	1
1799	0	1
1800	0	1
1801	0	1
1802	0	1
1803	0	1
1804	0	1
1805	0	1
1806	0	1
1807	0	1
1808	0	1
1809	0	1
1810	0	1
1811	0	1
1812	0	1
1813	0	1
1814	0	1
1815	0	1
1816	0	1
1817	0	1
1818	0	1
1819	0	1
1820	0	1
1821	0	1
1822	0	1
1823	0	1
1824	0	1
1825	0	1
1826	0	1
1827	0	1
1828	0	1
1829	0	1
1830	0	1
1831	0	1
1832	0	1
1833	0	1
1834	0	1
1835	0	1
1836	0	1
1837	0	1
1838	0	1
1839	0	1
1840	0	1
1841	0	1
1842	0	1
1843	0	1
1844	0	1
1845	0	1
1846	0	1
1847	0	1
1848	0	1
1849	0	1
1850	0	1
1851	0	1
1852	0	1
1853	0	1
1854	0	1
1855	0	1
1856	0	1
1857	0	1
1858	0	1
1859	0	1
1860	0	1
1861	0	1
1862	0	1
1863	0	1
1864	0	1
1865	0	1
1866	0	1
1867	0	1
1868	0	1
1869	0	1
1870	0	1
1871	0	1
1872	0	1
1873	0	1
1874	0	1
1875	0	1
1876	0	1
1877	0	1
1878	0	1
1879	0	1
1880	0	1
1881	0	1
1882	0	1
1883	0	1
1884	0	1
1885	0	1
1886	0	1
1887	0	1
1888	0	1
1889	0	1
1890	0	1
1891	0	1
1892	0	1
1893	0	1
1894	0	1
1895	0	1
1896	0	1
1897	0	1
1898	0	1
1899	0	1
1900	0	1
1901	0	1
1902	0	1
1903	0	1
1904	0	1
1905	0	1
1906	0	1
1907	0	1
1908	0	1
1909	0	1
1910	0	1
1911	0	1
1912	0	1
1913	0	1
1914	0	1
1915	0	1
1916	0	1
1917	0	1
1918	0	1
1919	0	1
1920	0	1
1921	0	1
1922	0	1
1923	0	1
1924	0	1
1925	0	1
1926	0	1
1927	0	1
1928	0	1
1929	0	1
1930	0	1
1931	0	1
1932	0	1
1933	0	1
1934	0	1
1935	0	1
1936	0	1
1937	0	1
1938	0	1
1939	0	1
1940	0	1
1941	0	1
1942	0	1
1943	0	1
1944	0	1
1945	0	1
1946	0	1
1947	0	1
1948	0	1
1949	0	1
1950	0	1
1951	0	1
1952	0	1
1953	0	1
1954	0	1
1955	0	1
1956	0	1
1957	0	1
1958	0	1
1959	0	1
1960	0	1
1961	0	1
1962	0	1
1963	0	1
1964	0	1
1965	0	1
1966	0	1
1967	0	1
1968	0	1
1969	0	1
1970	0	1
1971	0	1
1972	0	1
1973	0	1
1974	0	1
1975	0	1
1976	0	0.8
1977	0	0.8
1978	0	0.8
1979	0	0.8
1980	0	0.8
1981	0	0.75
1982	0	0.75
1983	0	0.75
1984	0	0.75
1985	0	0.75
1986	0	0.75
1987	0	0.75
1988	0	0.75
1989	0	0.75
1990	0	0.75
1991	0	0.75
1992	0	0.75
1993	0	0.75
1994	0	0.75
1995	0	0.75
1996	0	0.75
1997	0	0.75
1998	0	0.75
1999	0	0.163743
2000	0	0.087344
2001	0	0.0802034
2002	0	0.108859
2003	0	0.0932341
2004	0	0.0867695
2005	0	0.0820875
2006	0	0.10248
2007	0	0.0885831
2008	0	0.189542
2009	0	0.133903
2010	0	0.160173
2011	0	0.160173
2012	0	0.140445
2013	0	0.342495
2014	0	0.13638
2015	0	0.182436
2016	0	0.227003
2017	0	0.209786
2018	0	0.201282
2019	0	0.230159
2020	0	0.133333
2021	0	0.155556
2022	0	0.253788
2023	0	0.240336
2024	0	0.147059
2025	0	0.283583
2026	0	0.286102
2027	0	0.389285
2028	0	0.525539
2029	0	0.48023
2030	0	0.479487
2031	0	0.769083
2032	0	0.881635
2033	0	0.895802
2034	0	0.893967
2035	0	1
2036	0	0.305556
2037	0	0.333333
2038	0	0.428571
2039	0	1
2040	0	1
2041	0	0.889347
2042	0	0.142857
2043	0	0.142857
2044	0	0.142857
2045	0	0.142857
2046	0	0.142857
2047	0	0.142857
2048	0	0.142857
2049	0	0.866799
2050	0	1
2051	0	0.428571
2052	0	0.640394
2053	0	0.285714
2054	0	0
2055	0	0.2
2056	0	0.882605
2057	0	0
2058	0	0
2059	0	0.2
2060	0	0.606838
2061	0	0.58
2062	0	0.351273
2063	0	0.342471
2064	0	0.363228
2065	0	0
2066	0	0
2067	0	0
2068	0	0
2069	0	0
2070	0	0
2071	0	0
2072	0	0
2073	0	0
2074	0	0
2075	0	0
2076	0	0
2077	0	0
2078	0	0
2079	0	0
2080	0	0
2081	0	0
2082	0	0
2083	0	0
2084	0	0
2085	0	0
2086	0	0
2087	0	0
2088	0	0
2089	0	0
2090	0	0
2091	0	0
2092	0	0
2093	0	0
2094	0	0
2095	0	0
2096	0	0
2097	0	0
2098	0	0
2099	0	0.234265
2100	0	0.161954
2101	0	0
2102	0	0
2103	0	0
2104	0	0
2105	0	0
2106	0	0
2107	0	0.419324
2108	0	0.289966
2109	0	0.163823
2110	0	0.167329
2111	0	0.155076
2112	0	0.206692
2113	0	0.190323
2114	0	0
2115	0	0.5
2116	0	0
2117	0	0
2118	0	0
2119	0	0
2120	0	0
2121	0	0
2122	0	0.5
2123	0	0
2124	0	0
2125	0	0
2126	0	0
2127	0	0
2128	0	0
2129	0	0
2130	0	0
2131	0	0.193676
2132	0	0
2133	0	0
2134	0	0
2135	0	0
2136	0	0
2137	0	0
2138	0	0
2139	0	0
2140	0	0
2141	0	0
2142	0	0
2143	0	0
2144	0	0
2145	0	0.380263
2146	0	0.358071
2147	0	0.137556
2148	0	0.129029
2149	0	0.127396
2150	0	0.125362
2151	0	0.203728
2152	0	0.19888
2153	0	0.196751
2154	0	0.188578
2155	0	0.179843
2156	0	0.173246
2157	0	0.164912
2158	0	0.132984
2159	0	0.078223
2160	0	0.210339
2161	0	0.129231
2162	0	0.129231
2163	0	0.139037
2164	0	0.0669452
2165	0	1
2166	0	1
2167	0	0
2168	0	0
2169	0	0.168624
2170	0	0.165614
2171	0	0.16237
2172	0	0.233469
2173	0	0.22449
2174	0	0.22619
2175	0	0.239362
2176	0	0.30444
2177	0	0.322259
2178	0	0.12853
2179	0	0.091186
2180	0	0.0585941
2181	0	0.0594256
2182	0	0.0714286
2183	0	0.107143
2184	0	0.107143
2185	0	0
2186	0	0.107143
2187	0	0.0357143
2188	0	0.162733
2189	0	0.179028
2190	0	0.197988
2191	0	0.0582582
2192	0	0
2193	0	0
2194	0	0
2195	0	0
2196	0	0
2197	0	0
2198	0	0
2199	0	0
2200	0	0.0606061
2201	0	0.0539963
2202	0	0.0503083
2203	0	0.0428432
2204	0	0.0597646
2205	0	0.0665507
2206	0	1
2207	0	1
2208	0	1
2209	0	1
2210	0	1
2211	0	1
2212	0	1
2213	0	0
2214	0	0.169806
2215	0	0.158342
2216	0	0.152994
2217	0	0.176136
2218	0	0.0877193
2219	0	0.0661765
2220	0	0.133333
2221	0	0.133333
2222	0	0.166667
2223	0	0.166667
2224	0	0.166667
2225	0	0.103522
2226	0	0.0878152
2227	0	0
2228	0	0
2229	0	0
2230	0	0
2231	0	0
2232	0	0
2233	0	0.047619
2234	0	0.266667
2235	0	0.391304
2236	0	0.332016
2237	0	0.226316
2238	0	0.204762
2239	0	0.0735294
2240	0	0.122686
2241	0	0.106294
2242	0	0.126984
2243	0	0.123091
2244	0	0.138998
2245	0	0.12782
2246	0	0.125609
2247	0	0.155178
2248	0	1
2249	0	1
2250	0	1
2251	0	1
2252	0	0.444444
2253	0	0.5
2254	0	0.5
2255	0	1
2256	0	1
2257	0	1
2258	0	1
2259	0	1
2260	0	1
2261	0	1
2262	0	1
2263	0	1
2264	0	1
2265	0	0.246716
2266	0	0
2267	0	0
2268	0	0
2269	0	0.333333
2270	0	0.333333
2271	0	0.333333
2272	0	0.231983
2273	0	0.196764
2274	0	0.0409357
2275	0	0.0526316
2276	0	0.105263
2277	0	0.124183
2278	0	0.196078
2279	0	0.196078
2280	0	0.205882
2281	0	0.204678
2282	0	0.227963
2283	0	0.177305
2284	0	0.176418
2285	0	0.178538
2286	0	0.130559
2287	0	0.294127
2288	0	0.0659341
2289	0	0.0666667
2290	0	0.0583333
2291	0	0.188889
2292	0	0.133333
2293	0	0.134199
2294	0	0.12253
2295	0	0.375746
2296	0	0.0545455
2297	0	0.142857
2298	0	0.142857
2299	0	0.2
2300	0	0.2
2301	0	0.285714
2302	0	0.346154
2303	0	0.25
2304	0	0.4
2305	0	0.4
2306	0	0.4
2307	0	0.490332
2308	0	0.322689
2309	0	0.567157
2310	0	0
2311	0	0.153846
2312	0	0.216028
2313	0	0.227642
2314	0	0.233302
2315	0	0.666245
2316	0	0
2317	0	0.333333
2318	0	0
2319	0	0
2320	0	0
2321	0	0
2322	0	0
2323	0	0
2324	0	0
2325	0	0.678543
2326	0	0.4
2327	0	0.551136
2328	0	0.720656
2329	0	0
2330	0	0
2331	0	0
2332	0	0.336134
2333	0	0.338796
2334	0	0.721212
2335	0	0.889849
2336	0	0.891862
2337	0	0
2338	0	0
2339	0	0
2340	0	0
2341	0	0
2342	0	0
2343	0	0
2344	0	0
2345	0	0
2346	0	1
2347	0	1
2348	0	1
2349	0	0.930825
2350	0	0.25
2351	0	0.321429
2352	0	0.916117
2353	0	0.535714
2354	0	0.535714
2355	0	0.535714
2356	0	0.6
2357	0	0.6
2358	0	0.6
2359	0	0.938227
2360	0	0.938285
2361	0	0.938285
2362	0	0.913043
2363	0	0.913043
2364	0	0.913043
2365	0	0.925926
2366	0	0.986656
2367	0	0.986656
2368	0	0.986656
2369	0	0.988557
2370	0	0.988557
2371	0	0.988557
2372	0	1
2373	0	1
2374	0	1
2375	0	1
2376	0	1
2377	0	1
2378	0	1
2379	0	0.992363
2380	0	0.929666
2381	0	0
2382	0	0
2383	0	0
2384	0	0
2385	0	0.935193
2386	0	1
2387	0	1
2388	0	1
2389	0	1
2390	0	1
2391	0	1
2392	0	1
2393	0	0
2394	0	0
2395	0	0
2396	0	0
2397	0	0.494766
2398	0	0.47619
2399	0	0.47619
2400	0	0.333333
2401	0	0.6
2402	0	0.4
2403	0	0.3
2404	0	0.3
2405	0	0.3
2406	0	0.3
2407	0	0.3
2408	0	0.5
2409	0	0.5
2410	0	0.5
2411	0	0.5
2412	0	0.5
2413	0	0.166667
2414	0	0
2415	0	0
2416	0	0
2417	0	0.166667
2418	0	0.333333
2419	0	0.333333
2420	0	1
2421	0	1
2422	0	1
2423	0	0.99617
2424	0	0.996178
2425	0	0.996185
2426	0	0.996185
2427	0	0
2428	0	0
2429	0	0
2430	0	0
2431	0	0
2432	0	0
2433	0	0
2434	0	0
2435	0	0
2436	0	0
2437	0	0
2438	0	0
2439	0	0
2440	0	0
2441	0	0
2442	0	0
2443	0	0
2444	0	0
2445	0	0
2446	0	0.998092
2447	0	1
2448	0	1
2449	1	1
2450	1	1
2451	0	1
2452	0	1
2453	1	1
2454	1	1
2455	1	1
2456	1	1
2457	1	1
2458	1	1
2459	1	1
2460	1	1
2461	1	1
2462	0	1
2463	0	1
2464	1	1
2465	1	1
2466	1	1
2467	1	1
2468	1	1
2469	1	1
2470	1	1
2471	1	1
2472	1	1
2473	1	1
2474	1	1
2475	1	1
2476	1	1
2477	1	1
2478	1	1
2479	1	1
2480	1	1
2481	1	1
2482	1	1
2483	1	1
2484	1	1
2485	1	1
2486	1	1
2487	1	1
2488	1	1
2489	1	1
2490	0	1
2491	0	1
2492	0	1
2493	0	1
2494	0	1
2495	0	0
2496	0	0
2497	0	0
2498	0	0.954996
2499	0	1
2500	0	0.879829
2501	0	0.87793
2502	0	1
2503	0	1
2504	0	0.333333
2505	0	0.333333
2506	0	0.333333
2507	0	0.938942
2508	0	0.938942
2509	0	0.909135
2510	0	0.831884
2511	0	0.701075
2512	0	0.556303
2513	0	0.360071
2514	0	0.331551
2515	0	0.277778
2516	0	0.179592
2517	0	0.161688
2518	0	0.156015
2519	0	0.805752
2520	0	0.69697
2521	0	0.69697
2522	0	0.69697
2523	0	0.780572
2524	0	0.769214
2525	0	0
2526	0	0
2527	0	0
2528	0	0
2529	0	0
2530	0	0.859788
2531	0	0.83004
2532	0	0.190476
2533	0	0.339031
2534	0	0.196078
2535	0	0.176471
2536	0	0.22792
2537	0	0.611707
2538	0	1
2539	0	1
2540	0	1
2541	0	1
2542	0	0
2543	0	0
2544	0	0
2545	0	1
2546	0	1
2547	0	0.348566
2548	0	0
2549	0	1
2550	0	0.5
2551	0	1
2552	0	0.19309
2553	0	0.0541369
2554	0	0.183333
2555	0	0.166008
2556	0	0.179487
2557	0	0.0605023
2558	0	0.0670886
2559	0	0.0797721
2560	0	0.108696
2561	0	0.163743
2562	0	0.144444
2563	0	0.134249
2564	0	0.145877
2565	0	0.143386
2566	0	0.16715
2567	0	0.275862
2568	0	0.295567
2569	0	0.319357
2570	0	0.392753
2571	0	0.407139
2572	0	0.413462
2573	0	0.392982
2574	0	0.193182
2575	0	0.291507
2576	0	0.383819
2577	0	0.319779
2578	0	0.280588
2579	0	0.582094
2580	0	0.399642
2581	0	0
2582	0	0
2583	0	0
2584	0	0
2585	0	0
2586	0	0.333333
2587	0	0.333333
2588	0	0.333333
2589	0	0.333333
2590	0	0.166667
2591	0	0.166667
2592	0	0.338745
2593	0	0.404823
2594	0	0.0422833
2595	0	0.0444444
2596	0	0.393116
2597	0	0.505837
2598	0	0.554076
2599	0	0.591859
2600	0	0.351683
2601	0	0.229387
2602	0	0.344444
2603	0	0.363025
2604	0	0.577652
2605	0	0.818548
2606	0	0.873118
2607	0	0.875269
2608	0	0.879032
2609	0	0.956345
2610	0	0.2
2611	0	0.166667
2612	0	0.166667
2613	0	0.166667
2614	0	0.218182
2615	0	0.428571
2616	0	0.714286
2617	0	1
2618	0	1
2619	0	1
2620	0	1
2621	0	1
2622	0	0.998086
2623	0	0.998092
2624	0	0.998092
2625	0	0.998092
2626	0	0.998095
2627	0	0
2628	1	1
2629	1	1
2630	1	1
2631	1	1
2632	1	1
2633	1	1
2634	0	1
2635	0	1
2636	0	1
2637	0	1
2638	1	1
2639	1	1
2640	1	1
2641	1	1
2642	1	1
2643	1	1
2644	1	1
2645	1	1
2646	1	1
2647	1	1
2648	1	1
2649	1	1
2650	1	1
2651	1	1
2652	1	1
2653	1	1
2654	0	1
2655	0	0.571881
2656	1	0
2657	1	0
2658	0	1
2659	0	0.501299
2660	0	0.771494
2661	1	1
2662	1	1
2663	0	0.447605
2664	0	0.555982
2665	1	1
2666	1	1
2667	1	1
2668	1	1
2669	1	1
2670	1	1
2671	1	1
2672	1	1
2673	1	1
2674	1	1
2675	1	1
2676	1	1
2677	1	1
2678	1	1
2679	1	1
2680	1	1
2681	0	1
2682	0	0.992417
2683	0	0.5
2684	0	0.5
2685	0	0.5
2686	0	0.992412
2687	0	0.994307
2688	0	0.994307
2689	0	0.994307
2690	0	0.994307
2691	0	0.994307
2692	0	1
2693	0	1
2694	0	1
2695	0	1
2696	0	1
2697	0	1
2698	1	1
2699	1	1
2700	1	1
2701	1	1
2702	1	1
2703	1	1
2704	1	1
2705	1	1
2706	1	1
2707	1	1
2708	1	1
2709	1	1
2710	1	1
2711	1	1
2712	1	1
2713	1	1
2714	1	1
2715	0	1
2716	0	1
2717	0	0
2718	0	0
2719	0	0
2720	0	0.998088
2721	0	0
2722	0	0
2723	0	0
2724	0	0
2725	0	0
2726	0	0
2727	0	0
2728	0	0
2729	0	0
2730	0	0
2731	0	0
2732	0	0
2733	0	0
2734	0	0
2735	0	0
2736	0	0
2737	0	0
2738	0	0
2739	0	0
2740	0	0
2741	0	0
2742	0	0
2743	1	0
2744	1	0
2745	1	0
2746	1	0
2747	1	0
2748	1	0
2749	1	0
2750	1	0
2751	1	0
2752	1	0
2753	1	0
2754	1	0
2755	1	0
2756	1	0
2757	1	0
2758	1	0
2759	0	0
2760	0	0
2761	0	0
2762	0	0
2763	0	0
2764	0	0
2765	0	0
2766	0	0
2767	0	0
2768	0	0
2769	0	0
2770	0	0
2771	0	0
2772	0	0
2773	0	0
2774	0	0
2775	1	0
2776	1	0
2777	1	0
2778	1	0
2779	1	0
2780	1	0
2781	1	0
2782	1	0
2783	1	0
2784	1	0
2785	1	0
2786	1	0
2787	1	0
2788	0	0
2789	0	0
2790	0	0
2791	0	0
2792	0	0
2793	0	0
2794	0	0
2795	0	0
2796	0	0
2797	0	0
2798	0	0
2799	0	0
2800	0	0
2801	0	0
2802	0	0
2803	0	0
2804	0	0
2805	0	0
2806	0	0
2807	0	0
2808	0	0
2809	0	0
2810	0	0
2811	0	0
2812	0	0
2813	0	0
2814	0	0
2815	0	0
2816	0	0
2817	0	0
2818	0	0
2819	0	0
2820	0	0
2821	0	0
2822	0	0
2823	0	0
2824	0	0
2825	0	0
2826	1	0
2827	0	0
2828	0	0
2829	0	0
2830	0	0
2831	0	0
2832	0	0
2833	0	0
2834	0	0
2835	0	0
2836	0	0
2837	0	0
2838	0	0
2839	0	0
2840	0	0
2841	0	0
2842	0	0
2843	0	0
2844	0	0
2845	0	0
2846	0	0
2847	0	0
2848	0	0
2849	0	0
2850	0	0
2851	0	0
2852	0	0
2853	0	0
2854	0	0
2855	1	0
2856	1	0
2857	1	0
2858	1	0
2859	1	0
2860	1	0
2861	1	0
2862	1	0
2863	1	0
2864	0	0
2865	0	0
2866	0	0
2867	0	0
2868	0	0
2869	0	0
2870	0	0
2871	0	0
2872	0	0
2873	0	0
2874	0	0
2875	0	0
2876	1	0
2877	1	0
2878	1	0
2879	1	0
2880	1	0
2881	1	0
2882	0	0
2883	0	0
2884	0	0
2885	0	0
2886	0	0
2887	0	0
2888	1	0
2889	1	0
2890	1	0
2891	1	0
2892	1	0
2893	0	0
2894	0	0
2895	0	0
2896	0	0
2897	0	0
2898	0	0
2899	0	0
2900	0	0
2901	0	0
2902	0	0
2903	0	0
2904	0	0
2905	0	0
2906	1	0
2907	0	0
2908	0	0
2909	0	0
2910	0	0
2911	0	0
2912	0	0
2913	0	0
2914	0	0
2915	0	0
2916	0	0
2917	0	0
2918	0	0
2919	0	0
2920	0	0
2921	0	0
2922	0	0
2923	0	0
2924	0	0
2925	0	0
2926	1	0
2927	0	0
2928	0	0
2929	0	0
2930	0	0
2931	0	0
2932	0	0
2933	0	0
2934	0	0
2935	0	0
2936	0	0
2937	0	0
2938	0	0
2939	0	0
2940	0	0
2941	0	0
2942	0	0
2943	1	0
2944	1	0
2945	1	0
2946	1	0
2947	1	0
2948	0	0
2949	0	0
2950	0	0
2951	0	0
2952	1	0
2953	1	0
2954	1	0
2955	1	0
2956	1	0
2957	1	0
2958	1	0
2959	1	0
2960	1	0
2961	1	0
2962	0	0
2963	0	0
2964	0	0
2965	0	0
2966	0	0
2967	0	0
2968	0	0
2969	0	0
2970	0	0
2971	0	0
2972	0	0
2973	0	0
2974	0	0
2975	0	0
2976	0	0
2977	0	0
2978	0	0
2979	0	0
2980	0	0
2981	0	0
2982	1	0
2983	1	0
2984	1	0
2985	1	0
2986	1	0
2987	0	0
2988	0	0
2989	0	0
2990	0	0
2991	0	0
2992	0	0
2993	0	0
2994	0	0
2995	0	0
2996	0	0
2997	0	0
2998	0	0
2999	0	0
3000	0	0
3001	0	0
3002	0	0
3003	0	0
3004	0	0
3005	0	0
3006	0	0
3007	0	0
3008	0	0
3009	1	0
3010	1	0
3011	1	0
3012	1	0
3013	1	0
3014	1	0
3015	1	0
3016	1	0
3017	1	0
3018	1	0
3019	0	0
3020	0	0
3021	0	0
3022	0	0
3023	0	0
3024	0	0
3025	0	0
3026	0	0
3027	0	0
3028	0	0
3029	0	0
3030	0	0
3031	0	0
3032	0	0
3033	0	0
3034	0	0
3035	0	0
3036	0	0
3037	0	0
3038	0	0
3039	0	0
3040	1	0
3041	1	0
3042	1	0
3043	1	0
3044	1	0
3045	1	0
3046	0	0
3047	0	0
3048	0	0
3049	0	0
3050	0	0
3051	0	0
3052	0	0
3053	0	0
3054	0	0
3055	0	0
3056	1	0
3057	1	0
3058	1	0
3059	1	0
3060	1	0
3061	1	0
3062	1	0
3063	1	0
3064	1	0
3065	0	0
3066	0	0
3067	0	0
3068	0	0
3069	0	0
3070	0	0
3071	0	0
3072	0	0
3073	0	0
3074	0	0
3075	0	0
3076	0	0
3077	0	0
3078	0	0
3079	0	0
3080	0	0
3081	0	0
3082	0	0
3083	0	0
3084	0	0
3085	0	0
3086	0	0
3087	0	0
3088	0	0
3089	0	0
3090	0	0
3091	0	0
3092	0	0
3093	0	0
3094	0	0
3095	0	0
3096	0	0
3097	0	0
3098	0	0
3099	0	0
3100	0	0
3101	0	0
3102	0	0
3103	0	0
3104	0	0
3105	0	0
3106	0	0
3107	0	0
3108	0	0
3109	0	0
3110	0	0
3111	0	0
3112	0	0
3113	0	0
3114	0	0
3115	0	0
3116	0	0
3117	0	0
3118	0	0
3119	0	0
3120	0	0
3121	0	0
3122	0	0
3123	0	0
3124	0	0
3125	0	0
3126	0	0
3127	0	0
3128	0	0
3129	0	0
3130	1	0
3131	1	0
3132	1	0
3133	1	0
3134	1	0
3135	1	0
3136	1	0
3137	1	0
3138	1	0
3139	1	0
3140	1	0
3141	1	0
3142	1	0
3143	1	0
3144	1	0
3145	1	0
3146	1	0
3147	1	0
3148	1	0
3149	1	0
3150	1	0
3151	1	0
3152	1	0
3153	1	0
3154	1	0
3155	1	0
3156	1	0
3157	1	0
3158	1	0
3159	1	0
3160	1	0
3161	1	0
3162	1	0
3163	1	0
3164	1	0
3165	1	0
3166	1	0
3167	1	0
3168	1	0
3169	1	0
3170	1	0
3171	1	0
3172	0	0
3173	0	0
3174	0	0
3175	0	0
3176	0	0
3177	0	0
3178	0	0
3179	0	0
3180	0	0
3181	0	0
3182	0	0
3183	0	0
3184	0	0
3185	0	0
3186	0	0
3187	0	0
3188	0	0
3189	0	0
3190	0	0
3191	0	0
3192	0	0
3193	0	0
3194	0	0
3195	0	0
3196	0	0
3197	0	0
3198	0	0
3199	0	0
3200	0	0
3201	0	0
3202	0	0
3203	0	0
3204	0	0
3205	0	0
3206	0	0
3207	0	0
3208	0	0
3209	0	0
3210	0	0
3211	0	0
3212	0	0
3213	0	0
3214	0	0
3215	0	0
3216	0	0
3217	0	0
3218	0	0
3219	0	0
3220	0	0
3221	0	0
3222	1	0
3223	0	0
3224	0	0
3225	0	0
3226	0	0
3227	0	0
3228	0	0
3229	0	0
3230	0	0
3231	1	0
3232	1	0
3233	1	0
3234	1	0
3235	1	0
3236	1	0
3237	1	0
3238	1	0
3239	1	0
3240	1	0
3241	1	0
3242	0	0
3243	0	0
3244	0	0
3245	0	0
3246	0	0
3247	0	0
3248	0	0
3249	0	0
3250	0	0
3251	0	0
3252	0	0
3253	0	0
3254	0	0
3255	0	0
3256	0	0
3257	0	0
3258	0	0
3259	0	0
3260	0	0
3261	0	0
3262	0	0
3263	0	0
3264	0	0
3265	0	0
3266	0	0
3267	0	0
3268	0	0
3269	0	0
3270	0	0
3271	0	0
3272	0	0
3273	0	0
3274	0	0
3275	0	0
3276	0	0
3277	0	0
3278	0	0
3279	0	0
3280	0	0
3281	0	0
3282	0	0
3283	0	0
3284	0	0
3285	0	0
3286	0	0
3287	0	0
3288	0	0
3289	0	0
3290	0	0
3291	0	0
3292	0	0
3293	1	0
3294	1	0
3295	1	0
3296	1	0
3297	1	0
3298	1	0
3299	1	0
3300	1	0
3301	1	0
3302	1	0
3303	1	0
3304	1	0
3305	1	0
3306	1	0
3307	1	0
3308	1	0
3309	1	0
3310	0	0
3311	0	0
3312	0	0
3313	0	0
3314	0	0
3315	0	0
3316	0	0.992363
3317	0	0.988579
3318	0	0.988579
3319	0	0.988579
3320	0	0.988513
3321	1	0
3322	1	0
3323	1	0
3324	1	0
3325	1	0
3326	1	0
3327	1	0
3328	1	0
3329	1	0
3330	1	0
3331	1	0
3332	1	0
3333	0	0.333333
3334	0	0.333333
3335	0	0.333333
3336	0	0.333333
3337	0	0.333333
3338	0	0.333333
3339	0	0.1
3340	0	0.0666667
3341	0	0.0666667
3342	0	0.155556
3343	0	0.142857
3344	0	0.519594
3345	0	0.619942
3346	0	0.382903
3347	0	0.456162
3348	0	0.436425
3349	0	0.488889
3350	0	0.444444
3351	0	0.392857
3352	0	0.333333
3353	0	0.266667
3354	0	0.2
3355	0	0.2
3356	0	0.1
3357	0	0
3358	0	0
3359	0	0
3360	0	0
3361	0	0
3362	0	0
3363	0	0
3364	0	0
3365	0	0
3366	0	0
3367	0	0
3368	0	0
3369	0	0
3370	0	0
3371	0	0
3372	0	0
3373	0	0
3374	0	0
3375	0	0
3376	0	0
3377	0	0
3378	0	0
3379	0	0
3380	0	0
3381	0	0
3382	0	0
3383	0	0
3384	0	0
3385	0	0
3386	0	0
3387	0	0
3388	0	0
3389	0	0
3390	0	0
3391	0	0
3392	0	0
3393	0	0
3394	0	0
3395	0	0
3396	0	0
3397	0	0
3398	0	0
3399	0	0
3400	0	0
3401	0	0
3402	0	0
3403	0	0
3404	0	0
3405	0	0
3406	0	0
3407	0	0
3408	0	0
3409	0	0
3410	0	0
3411	0	0
3412	0	0
3413	0	0
3414	0	0
3415	0	0
3416	0	0
3417	0	0
3418	0	0
3419	0	0
3420	0	0
3421	0	0
3422	0	0
3423	0	0
3424	0	0
3425	0	0
3426	0	0
3427	0	0
3428	0	0
3429	0	0
3430	0	0
3431	0	0
3432	0	0
3433	0	0
3434	0	0
3435	0	0
3436	0	0
3437	0	0
3438	0	0
3439	0	0
3440	0	0
3441	0	0
3442	0	0
3443	0	0
3444	0	0
3445	0	0
3446	0	0
3447	0	0
3448	0	0
3449	0	0
3450	0	0
3451	0	0
3452	0	0
3453	0	0
3454	0	0
3455	0	0
3456	0	0
3457	0	0
3458	0	0
3459	0	0
3460	0	0
3461	0	0
3462	0	0
3463	0	0
3464	0	0
3465	0	0
3466	0	0
3467	0	0
3468	0	0
3469	0	0
3470	0	0
3471	0	0
3472	0	0
3473	0	0
3474	1	0
3475	1	0
3476	1	0
3477	1	0
3478	1	0
3479	1	0
3480	1	0
3481	0	0
3482	0	0
3483	0	0
3484	0	0
3485	0	0
3486	0	0
3487	0	0
3488	0	0
3489	0	0
3490	0	0
3491	0	0
3492	0	0
3493	0	0
3494	0	0
3495	1	0
3496	0	0
3497	0	0
3498	0	0
3499	0	0
3500	0	0
3501	0	0
3502	0	0
3503	0	0
3504	0	0
3505	0	0
3506	0	0
3507	0	0
3508	0	0
3509	0	0
3510	0	0
3511	0	0
3512	0	0
3513	0	0
3514	0	0
3515	0	0
3516	0	0
3517	0	0
3518	0	0
3519	0	0
3520	0	0
3521	0	0
3522	0	0
3523	0	0
3524	0	0
3525	0	0
3526	0	0
3527	0	0
3528	0	0
3529	0	0
3530	0	0
3531	0	0
3532	0	0
3533	0	0
3534	0	0
3535	0	0
3536	0	0
3537	0	0
3538	0	0
3539	0	0
3540	0	0
3541	0	0
3542	0	0
3543	0	0
3544	0	0
3545	0	0
3546	0	0
3547	0	0
3548	0	0
3549	0	0
3550	0	0
3551	0	0
3552	0	0
3553	0	0
3554	0	0
3555	0	0
3556	0	0
3557	0	0
3558	0	0
3559	0	0
3560	0	0
3561	0	0
3562	0	0
3563	0	0
3564	0	0
3565	0	0
3566	0	0
3567	0	0
3568	0	0
3569	0	0
3570	0	0
3571	0	0
3572	0	0
3573	0	0
3574	0	0
3575	0	0
3576	0	0
3577	0	0
3578	0	0
3579	0	0
3580	0	0
3581	0	0
3582	0	0
3583	0	0
3584	0	0
3585	0	0
3586	0	0
3587	0	0
3588	0	0
3589	0	0
3590	0	0
3591	0	0
3592	0	0
3593	0	0
3594	0	0
3595	0	0
3596	0	0
3597	0	0
3598	0	0
3599	0	0
3600	0	0
3601	0	0
3602	0	0
3603	0	0
3604	0	0
3605	0	0
3606	0	0
3607	0	0
3608	0	0
3609	0	0
3610	0	0
3611	0	0
3612	0	0
3613	0	0
3614	0	0
3615	0	0
3616	0	0
3617	0	0
3618	0	0
3619	0	0
3620	0	0
3621	0	0
3622	0	0
3623	0	0
3624	0	0
3625	0	0
3626	0	0
3627	0	0
3628	0	0
3629	0	0
3630	0	0
3631	0	0
3632	0	0
3633	0	0
3634	0	0
3635	0	0
3636	0	0
3637	0	0
3638	0	0
3639	0	0
3640	0	0
3641	0	0
3642	0	0
3643	0	0
3644	0	0
3645	0	0
3646	0	0
3647	0	0
3648	0	0
3649	0	0
3650	0	0
3651	0	0
3652	0	0
3653	0	0
3654	0	0
3655	0	0
3656	0	0
3657	0	0
3658	0	0
3659	1	0
3660	1	0
3661	1	0
3662	1	0
3663	0	0
3664	0	0
3665	0	0
3666	0	0
3667	0	0
3668	1	0
3669	1	0
3670	0	0
3671	0	0
3672	0	0
3673	0	0
3674	0	0
3675	0	0
3676	0	0
3677	0	0
3678	0	0
3679	0	0
3680	1	0
3681	0	0
3682	0	0
3683	0	0
3684	0	0
3685	0	0
3686	0	0
3687	0	0
3688	0	0
3689	0	0
3690	0	0
3691	0	0
3692	0	0
3693	0	0
3694	0	0
3695	0	0
3696	0	0
3697	0	0
3698	0	0
3699	0	0
3700	0	0
3701	0	0
3702	0	0
3703	0	0
3704	0	0
3705	0	0
3706	0	0
3707	0	0
3708	0	0
3709	0	0
3710	0	0
3711	0	0
3712	0	0
3713	0	0
3714	0	0
3715	0	0
3716	0	0
3717	0	0
3718	0	0
3719	0	0
3720	0	0
3721	0	0
3722	0	0
3723	0	0
3724	0	0
3725	0	0
3726	0	0
3727	0	0
3728	0	0
3729	0	0
3730	0	0
3731	0	0
3732	0	0
3733	0	0
3734	0	0
3735	0	0
3736	0	0
3737	0	0
3738	0	0
3739	0	0
3740	0	0
3741	0	0
3742	1	0
3743	1	0
3744	1	0
3745	1	0
3746	0	0
3747	0	0
3748	0	0
3749	0	0
3750	0	0
3751	0	0
3752	0	0
3753	0	0
3754	0	0
3755	0	0
3756	0	0
3757	0	0
3758	0	0
3759	0	0
3760	0	0
3761	0	0
3762	0	0
3763	0	0
3764	0	0
3765	0	0
3766	0	0
3767	0	0
