Site	ColumnScore	SumOfPairsScore
1	1	1
2	1	1
3	0	0
4	0	0
5	0	0
6	0	0
7	0	0
8	0	0
9	0	0
10	0	0
11	0	0
12	0	0
13	0	0
14	0	0
15	0	0
16	0	0
17	0	0
18	0	0
19	0	0
20	0	0
21	0	0
22	0	0
23	0	0
24	0	0
25	0	0
26	0	0
27	0	0
28	0	0
29	0	0
30	0	0
31	0	0
32	0	0
33	0	0
34	0	0
35	0	0.333333
36	0	0.333333
37	0	0.333333
38	0	0.333333
39	0	0.333333
40	0	0.333333
41	0	0.333333
42	0	0.333333
43	0	0.333333
44	0	0.333333
45	0	0.333333
46	0	0.333333
47	0	0.333333
48	0	0.333333
49	0	0.333333
50	0	0.333333
51	0	0.333333
52	0	0.333333
53	0	0
54	0	0
55	0	0
56	0	0
57	0	0
58	0	0
59	0	0
60	0	0
61	0	0
62	0	0
63	0	0
64	0	0
65	0	0
66	0	0
67	0	0
68	0	0
69	0	0
70	0	0
71	0	0
72	0	0
73	0	0
74	0	0
75	0	0
76	0	0
77	0	0
78	0	0
79	0	0
80	0	0
81	0	0
82	0	0
83	0	0
84	0	0
85	0	0
86	0	0
87	0	0
88	0	0
89	0	0
90	0	0
91	0	0
92	0	0
93	0	0
94	0	0
95	0	0
96	0	0
97	0	0
98	0	0
99	0	0
100	0	0
101	0	0
102	0	0
103	0	0
104	0	0
105	0	0
106	0	0
107	0	0
108	0	0
109	0	0
110	0	0
111	0	0
112	0	0
113	0	0
114	0	0
115	0	0
116	0	0
117	0	0
118	0	0
119	0	0
120	0	0
121	0	0
122	0	0
123	0	0
124	0	0
125	0	0
126	0	0
127	0	0
128	0	0
129	0	0
130	0	0
131	0	0
132	0	0
133	0	0
134	0	0
135	0	0
136	0	0
137	0	0
138	0	0
139	0	0
140	0	0
141	0	0
142	0	0
143	0	0
144	0	0
145	0	0
146	0	0
147	0	0
148	0	0
149	0	0
150	0	0
151	0	0
152	0	0
153	0	0
154	0	0
155	0	0
156	0	0
157	0	0
158	0	0
159	0	0
160	0	0
161	0	0
162	0	0
163	0	0
164	0	0
165	0	0
166	0	0
167	0	0
168	0	0
169	0	0
170	0	0
171	0	0
172	0	0
173	0	0
174	0	0
175	0	0
176	0	0
177	0	0
178	0	0
179	0	0
180	0	0
181	0	0
182	0	0
183	0	0
184	0	0
185	0	0
186	0	0
187	0	0
188	0	0
189	0	0
190	0	0
191	0	0
192	0	0
193	0	0
194	0	0
195	0	0
196	0	0
197	0	0
198	0	0
199	0	0
200	0	0
201	0	0
202	0	0
203	0	0
204	0	0
205	0	0
206	0	0
207	0	0
208	0	0
209	0	0
210	0	0
211	0	0
212	0	0
213	0	0
214	0	0
215	0	0
216	0	0
217	0	0
218	0	0
219	0	0
220	0	0
221	0	0
222	0	0
223	0	0
224	0	0
225	0	0
226	0	0
227	0	0
228	0	0
229	0	0
230	0	0
231	0	0
232	0	0
233	0	0
234	0	0
235	0	0
236	0	0
237	0	0
238	0	0
239	0	0
240	0	0
241	0	0
242	0	0
243	0	0
244	0	0
245	0	0
246	0	0
247	0	0
248	0	0
249	0	0
250	0	0
251	0	0
252	0	0
253	0	0
254	0	0
255	0	0
256	0	0
257	0	0
258	0	0
259	0	0
260	0	0
261	0	0
262	0	0
263	0	0
264	0	0
265	0	0
266	0	0
267	0	0
268	0	0
269	0	0
270	0	0
271	0	0
272	0	0
273	0	0
274	0	0
275	0	0
276	0	0
277	0	0
278	0	0
279	0	0
280	0	0
281	0	0
282	0	0
283	0	0
284	0	0
285	0	0
286	0	0
287	0	0
288	0	0
289	0	0
290	0	0
291	0	0
292	0	0
293	0	0
294	0	0
295	0	0
296	0	0
297	0	0
298	0	0
299	0	0
300	0	0
301	0	0
302	0	0
303	0	0
304	0	0
305	0	0
306	0	0
307	0	0
308	0	0
309	0	0
310	0	0
311	0	0
312	0	0
313	0	0
314	0	0
315	0	0
316	0	0
317	0	0
318	0	0
319	0	0
320	0	0
321	0	0
322	0	0
323	0	0
324	0	0
325	0	0
326	0	0
327	0	0
328	0	0
329	0	0
330	0	0
331	0	0
332	0	0
333	0	0
334	0	0
335	0	0
336	0	0
337	0	0
338	0	0
339	0	0
340	0	0
341	0	0
342	0	0
343	0	0
344	0	0
345	0	0
346	0	0
347	0	0
348	0	0
349	0	0
350	0	0
351	0	0
352	0	0
353	0	0
354	0	0
355	0	0
356	0	0
357	0	0
358	0	0
359	0	0
360	0	0
361	0	0
362	0	0
363	0	0
364	0	0
365	0	0
366	0	0
367	0	0
368	0	0
369	0	0
370	0	0
371	0	0
372	0	0
373	0	0
374	0	0
375	0	0
376	0	0
377	0	0
378	0	0
379	0	0
380	0	0
381	0	0
382	0	0
383	0	0
384	0	0
385	0	0
386	0	0
387	0	0
388	0	0
389	0	0
390	0	0
391	0	0
392	0	0
393	0	0
394	0	0
395	0	0
396	0	0
397	0	0
398	0	0
399	0	0
400	0	0
401	0	0
402	0	0
403	0	0
404	0	0
405	0	0
406	0	0
407	0	0
408	0	0
409	0	0
410	0	0
411	0	0
412	0	0
413	0	0
414	0	0
415	0	0
416	0	0
417	0	0
418	0	0
419	0	0
420	0	0
421	0	0
422	0	0
423	0	0
424	0	0
425	0	0
426	0	0
427	0	0
428	0	0
429	0	0
430	0	0
431	0	0
432	0	0
433	0	0
434	0	0
435	0	0
436	0	0
437	0	0
438	0	0
439	0	0
440	0	0
441	0	0
442	0	0
443	0	0
444	0	0
445	0	0
446	0	0
447	0	0
448	0	0
449	0	0
450	0	0
451	0	0
452	0	0
453	0	0
454	0	0
455	0	0.0357143
456	0	0.0357143
457	0	0
458	0	0
459	0	0
460	0	0
461	0	0
462	0	0
463	0	0
464	0	0
465	0	0
466	0	0
467	0	0
468	0	0
469	0	0
470	0	0
471	0	0
472	0	0
473	0	0
474	0	0
475	0	0
476	0	0
477	0	0
478	0	0
479	0	0
480	0	0
481	0	0
482	0	0
483	0	0
484	0	0
485	0	0
486	0	0.0222222
487	0	0.0666667
488	0	0.0666667
489	0	0.0666667
490	0	0.0666667
491	0	0.0666667
492	0	0.0888889
493	0	0.0888889
494	0	0.0888889
495	0	0.0888889
496	0	0.0888889
497	0	0.0888889
498	0	0.0363636
499	0	0.0181818
500	0	0.0181818
501	0	0.0222222
502	0	0.0222222
503	0	0.0222222
504	0	0.0181818
505	0	0.0181818
506	0	0.0181818
507	0	0
508	0	0
509	0	0
510	0	0
511	0	0
512	0	0.0181818
513	0	0.0181818
514	0	0.0181818
515	0	0
516	0	0.0181818
517	0	0.0181818
518	0	0.0181818
519	0	0.0181818
520	0	0.0181818
521	0	0
522	0	0
523	0	0
524	0	0
525	0	0
526	0	0
527	0	0
528	0	0.0151515
529	0	0.0128205
530	0	0.0128205
531	0	0.0128205
532	0	0.0128205
533	0	0.0128205
534	0	0.021978
535	0	0.021978
536	0	0.021978
537	0	0.021978
538	0	0.021978
539	0	0.0190476
540	0	0.0285714
541	0	0.0380952
542	0	0.0380952
543	0	0.0380952
544	0	0.0392157
545	0	0.0350877
546	0	0.0584795
547	0	0.052381
548	0	0.052381
549	0	0.0822511
550	0	0.0797101
551	0	0.0942029
552	0	0.09
553	0	0.104615
554	0	0.135385
555	0	0.163077
556	0	0.166154
557	0	0.210826
558	0	0.20197
559	0	0.288177
560	0	0.303448
561	0	0.354839
562	0	0.346591
563	0	0.368067
564	0	0.360606
565	0	0.339286
566	0	0.372131
567	0	0.522797
568	0	0.479734
569	0	0.483503
570	0	0.581052
571	0	0.583881
572	0	0.142857
573	0	0.142857
574	0	0.142857
575	0	0.142857
576	0	0.2
577	0	0.2
578	0	0.2
579	0	0.2
580	0	0.923049
581	0	0.285057
582	0	0.0512821
583	0	0.0512821
584	0	0.0606061
585	0	0.0757576
586	0	0.0545455
587	0	0.0545455
588	0	0.0641026
589	0	0.127273
590	0	0.155556
591	0	0.0888889
592	0	0.111111
593	0	0.127273
594	0	0.127273
595	0	0.127273
596	0	0.142857
597	0	0.4
598	0	0.4
599	0	0.4
600	0	0.4
601	0	0.4
602	0	0.6
603	0	0.6
604	0	0.6
605	0	0.6
606	0	0.6
607	0	1
608	0	1
609	0	1
610	0	1
611	0	1
612	0	0.975542
613	0	1
614	0	1
615	0	1
616	0	1
617	0	1
618	0	1
619	0	1
620	0	1
621	0	1
622	0	1
623	0	1
624	0	1
625	0	1
626	0	0.984268
627	0	0.986034
628	0	0.986034
629	0	0.986034
630	0	0.986034
631	0	0.984295
632	0	0.986022
633	1	0
634	1	0
635	1	0
636	1	0
637	1	0
638	1	0
639	1	0
640	1	0
641	1	0
642	1	0
643	1	0
644	1	0
645	1	0
646	1	0
647	1	0
648	1	0
649	1	0
650	1	0
651	1	0
652	1	0
653	1	1
654	0	0.980855
655	1	0
656	1	0
657	1	0
658	1	0
659	1	0
660	1	0
661	1	0
662	1	0
663	1	0
664	1	0
665	0	0
666	0	0
667	0	0
668	0	0.987765
669	0	0.987765
670	0	0.986023
671	0	0.986034
672	0	0
673	0	0
674	0	0
675	0	0
676	0	0
677	0	0
678	0	0
679	0	0
680	0	0
681	0	0
682	0	0
683	0	0
684	0	0
685	0	0
686	0	0
687	0	0
688	0	0
689	0	0
690	0	0
691	0	0
692	0	0
693	0	0
694	0	0
695	0	0
696	0	0
697	0	0
698	0	0
699	0	0
700	0	0
701	0	0
702	0	0
703	0	0
704	0	0
705	0	0
706	0	0
707	0	0
708	0	0
709	0	0.984309
710	0	0.986046
711	0	0.986058
712	0	0.984336
713	0	0.984336
714	0	0.984336
715	0	0.987785
716	0	0.986058
717	0	0.987796
718	0	0.987796
719	0	0.333333
720	0	0.333333
721	0	0.333333
722	0	0.333333
723	0	0.333333
724	0	0.986058
725	0	0.986061
726	0	0.703125
727	0	1
728	0	1
729	0	0.936918
730	0	0.37897
731	0	0.81714
732	0	0
733	1	0
734	1	0
735	1	0
736	1	0
737	1	0
738	1	0
739	1	0
740	1	0
741	1	0
742	1	0
743	1	0
744	0	0
745	1	1
746	1	1
747	1	1
748	1	1
749	1	1
750	1	1
751	0	0.863315
752	0	0.190476
753	0	1
754	0	1
755	0	0.989396
756	0	0.991253
757	0	0.991268
758	0	0.991268
759	0	0.989535
760	0	0.989535
761	0	0.989535
762	0	0.989535
763	0	0.972282
764	0	0
765	0	0
766	0	0
767	0	0
768	0	0.333333
769	0	0.333333
770	0	0.333333
771	0	0.333333
772	0	0.333333
773	0	0.333333
774	0	0.333333
775	0	0.333333
776	0	0.333333
777	0	0.333333
778	0	0.333333
779	0	0.333333
780	0	0.166667
781	0	0.166667
782	0	0
783	0	0
784	0	0
785	0	0.97894
786	0	0.971961
787	0	0.857317
788	0	0.624855
789	0	0.575053
790	0	0.821727
791	0	0.489758
792	0	0.761628
793	0	0.595816
794	0	0.315011
795	0	0.35
796	0	0.360256
797	0	0.355128
798	0	0.355128
799	0	0.222921
800	0	0.865578
801	0	0.859631
802	0	0.369844
803	0	0.387387
804	0	0.330769
805	0	0.329487
806	0	0.329487
807	0	0.329487
808	0	0.328205
809	0	0.328205
810	0	0.346829
811	0	0.382883
812	0	0.426891
813	0	0.481061
814	0	0.516129
815	0	0.550538
816	0	0.550538
817	0	0.550538
818	0	0.550538
819	0	0.546237
820	0	0.550538
821	0	0.550538
822	0	0.550538
823	0	0.588506
824	0	0.588506
825	0	0.588506
826	0	0.537931
827	0	0.537931
828	0	0.243011
829	0	0.275862
830	0	0.275862
831	0	0.275862
832	0	0.293651
833	0	0.24086
834	0	0.243011
835	0	0.25977
836	0	0.25977
837	0	0.433824
838	0	0.475
839	0	0.2
840	0	1
841	0	1
842	0	1
843	0	1
844	0	1
845	0	1
846	0	1
847	0	1
848	0	1
849	0	1
850	0	1
851	0	1
852	0	1
853	0	1
854	0	1
855	0	1
856	0	1
857	0	1
858	0	0.486401
859	0	0.400949
860	0	0.470773
861	0	0.857734
862	0	0.376523
863	0	0.548108
864	0	0.673797
865	0	0.673797
866	0	0.617424
867	0	0.597855
868	0	0
869	0	0
870	0	0.333333
871	0	0.333333
872	0	0.333333
873	0	1
874	0	1
875	0	1
876	0	1
877	0	1
878	0	1
879	0	1
880	0	1
881	0	1
882	0	1
883	0	1
884	0	1
885	0	1
886	0	1
887	0	0.963868
888	0	0.514021
889	0	0.99477
890	0	0.996513
891	0	0.996513
892	0	0.996513
893	0	0.996513
894	0	0.912993
895	0	1
896	0	0.333333
897	0	0.333333
898	0	0.333333
899	0	0.333333
900	0	0.2
901	0	0.166667
902	0	0.166667
903	0	0.333333
904	0	0.333333
905	0	0.980795
906	0	0.333333
907	0	0.111111
908	0	0.932998
909	0	0.3
910	0	0.3
911	0	0.3
912	0	0.4
913	0	0.4
914	0	0.4
915	0	0.4
916	0	0.4
917	0	0.4
918	0	0.4
919	0	0.4
920	0	0.741748
921	0	0.979151
922	0	0.977422
923	0	0.980861
924	0	0.2
925	0	0.3
926	0	0.5
927	0	0.5
928	0	0.5
929	0	0.5
930	0	0.5
931	0	0.5
932	0	0.5
933	0	0.5
934	0	0.5
935	0	0.5
936	0	0.5
937	0	0.5
938	0	0.5
939	0	0.5
940	0	1
941	0	1
942	0	1
943	0	1
944	0	1
945	0	1
946	0	1
947	0	1
948	0	0.994774
949	0	0.994774
950	0	0.994774
951	0	0.994774
952	0	0.994774
953	0	0.99304
954	0	0.994774
955	0	0
956	0	0.998256
957	0	0.998256
958	0	0.998256
959	0	0.996517
960	0	0.996517
961	0	0.996517
962	0	0.996517
963	0	0.996517
964	0	0.998256
965	0	0.998258
966	0	0.998258
967	1	0
968	1	0
969	1	0
970	1	0
971	1	0
972	1	0
973	1	0
974	1	0
975	1	0
976	1	0
977	1	0
978	1	0
979	1	0
980	1	0
981	1	0
982	1	0
983	1	0
984	0	0.992908
985	0	0.992908
986	0	0.998258
987	0	0.998259
988	0	0.996523
989	0	0.998262
990	0	0.998261
991	0	0.998261
992	0	0.998262
993	0	0.998262
994	1	1
995	1	1
996	0	0.996519
997	0	1
998	1	1
999	0	0.998256
1000	1	1
1001	0	0.998256
1002	1	1
1003	1	1
1004	0	1
1005	0	1
1006	1	1
1007	0	0.989606
1008	0	0.989606
1009	1	1
1010	1	1
1011	1	1
1012	1	1
1013	1	1
1014	1	1
1015	1	1
1016	1	1
1017	1	1
1018	1	1
1019	1	1
1020	1	1
1021	1	1
1022	1	1
1023	1	1
1024	1	1
1025	1	1
1026	1	1
1027	1	1
1028	1	1
1029	1	1
1030	1	1
1031	1	1
1032	1	1
1033	1	1
1034	1	1
1035	1	1
1036	1	1
1037	1	1
1038	1	1
1039	1	1
1040	1	1
1041	1	1
1042	1	1
1043	1	1
1044	1	1
1045	1	1
1046	1	1
1047	1	1
1048	1	1
1049	1	1
1050	0	0.986158
1051	0	0.5
1052	0	0.5
1053	0	0.5
1054	0	0.5
1055	0	0.5
1056	0	0.5
1057	0	0.5
1058	0	0.5
1059	0	0.6
1060	0	0.6
1061	0	0.802971
1062	0	0
1063	0	0
1064	1	0
1065	1	0
1066	1	0
1067	1	0
1068	1	0
1069	1	0
1070	1	0
1071	1	0
1072	1	0
1073	1	0
1074	0	0
1075	0	0
1076	0	0
1077	0	0
1078	0	0
1079	0	0
1080	0	0
1081	0	0
1082	0	0.996526
1083	0	1
1084	0	1
1085	0	1
1086	0	1
1087	0	0.998261
1088	0	0.998261
1089	0	0.998261
1090	0	0.949142
1091	0	1
1092	0	1
1093	0	1
1094	0	1
1095	0	1
1096	0	1
1097	0	1
1098	0	0.333333
1099	0	0.333333
1100	0	0.937384
1101	0	0
1102	0	0
1103	0	0
1104	0	0
1105	0	0
1106	0	0
1107	0	0.3
1108	0	0.190476
1109	0	0.142857
1110	0	0.111111
1111	0	0.923479
1112	0	0.919301
1113	0	0
1114	0	0
1115	0	0
1116	0	0
1117	0	0
1118	0	0
1119	0	0
1120	0	0
1121	0	0
1122	0	0
1123	0	0
1124	0	0
1125	0	0
1126	0	0.8
1127	0	0
1128	0	0
1129	0	0.3
1130	0	0.3
1131	0	0.5
1132	0	0.5
1133	0	0.3
1134	0	0.3
1135	0	0.3
1136	0	0.3
1137	0	0.142857
1138	0	0.177778
1139	0	0.294118
1140	0	0.294118
1141	0	0.261438
1142	0	0.157895
1143	0	0.130435
1144	0	0.465468
1145	0	0.214286
1146	0	0.328869
1147	0	0.314589
1148	0	0.370518
1149	0	0.668064
1150	0	0.720829
1151	0	0.708664
1152	0	0.705882
1153	0	0.702377
1154	0	0.692048
1155	0	0.690105
1156	0	0.739967
1157	0	0.728248
1158	0	0.717102
1159	0	0.697345
1160	0	0.621471
1161	0	0.344263
1162	0	0
1163	0	0
1164	0	0
1165	0	0
1166	0	0
1167	0	0
1168	0	0
1169	0	0
1170	0	0
1171	0	0
1172	0	0
1173	0	0
1174	0	1
1175	0	0.333333
1176	0	0.333333
1177	0	0.333333
1178	0	0.25
1179	0	0.277778
1180	0	0.254545
1181	0	0.25641
1182	0	0.854962
1183	0	0.846071
1184	0	0.337432
1185	0	0.548483
1186	0	0.558393
1187	0	0.327273
1188	0	0.527273
1189	0	0.527273
1190	0	0.527273
1191	0	0.818182
1192	0	0.818182
1193	0	0.818182
1194	0	0.818182
1195	0	0.833333
1196	0	0.568678
1197	0	0.563379
1198	0	0.570799
1199	0	0.583231
1200	0	1
1201	0	1
1202	0	0.838655
1203	0	0.993053
1204	0	0
1205	0	0
1206	0	0.998261
1207	0	0.998264
1208	0	0.998264
1209	0	0.998264
1210	0	0.998264
1211	0	0
1212	1	0
1213	1	0
1214	1	0
1215	0	0.998265
1216	1	1
1217	1	1
1218	1	1
1219	1	1
1220	1	0
1221	1	0
1222	1	0
1223	1	0
1224	1	0
1225	1	0
1226	1	0
1227	1	0
1228	1	0
1229	1	0
1230	1	0
1231	1	0
1232	1	0
1233	1	0
1234	0	0.996546
1235	0	1
1236	0	0
1237	0	0
1238	0	0
1239	1	0
1240	1	0
1241	0	0.993102
1242	0	0.994828
1243	0	0.994828
1244	0	0.991396
1245	0	0
1246	0	0.998273
1247	0	0.998273
1248	0	0.998273
1249	0	0.998273
1250	0	0.998273
1251	0	0
1252	0	0
1253	1	0
1254	1	0
1255	1	0
1256	1	0
1257	1	0
1258	1	0
1259	1	0
1260	1	0
1261	1	0
1262	1	0
1263	1	0
1264	1	0
1265	0	0.998271
1266	0	0.998271
1267	1	1
1268	0	1
1269	0	0.998271
1270	0	0.993099
1271	1	1
1272	1	1
1273	1	1
1274	1	1
1275	0	1
1276	0	0.998271
1277	1	1
1278	1	1
1279	1	1
1280	1	1
1281	1	1
1282	1	1
1283	1	1
1284	1	1
1285	1	1
1286	1	1
1287	1	1
1288	1	1
1289	1	1
1290	1	1
1291	1	1
1292	0	1
1293	1	1
1294	1	1
1295	1	1
1296	1	1
1297	1	1
1298	0	0.998271
1299	0	0
1300	1	0
1301	1	0
1302	1	0
1303	1	0
1304	1	0
1305	1	0
1306	1	0
1307	1	0
1308	1	0
1309	1	0
1310	1	0
1311	1	0
1312	1	0
1313	1	0
1314	1	0
1315	1	0
1316	1	0
1317	0	0.998271
1318	1	1
1319	1	1
1320	1	1
1321	1	1
1322	1	1
1323	0	1
1324	0	1
1325	0	0.998271
1326	0	1
1327	0	1
1328	0	1
1329	0	1
1330	0	1
1331	0	1
1332	0	1
1333	0	1
1334	0	1
1335	0	0.998273
1336	0	0.998273
1337	0	0.998273
1338	0	0.998273
1339	0	0.998273
1340	0	0.998273
1341	0	0.998273
1342	0	0.998271
1343	0	0.998271
1344	0	0.998271
1345	0	0.998271
1346	0	0.998273
1347	1	1
1348	1	1
1349	1	1
1350	0	0
1351	0	0
1352	0	0
1353	0	0
1354	0	0
1355	0	0
1356	0	0
1357	0	0
1358	1	0
1359	1	0
1360	1	0
1361	1	0
1362	1	0
1363	1	0
1364	1	0
1365	1	0
1366	1	0
1367	1	0
1368	1	0
1369	0	0.333333
1370	0	0
1371	0	0
1372	0	0
1373	0	0
1374	0	0
1375	1	1
1376	1	1
1377	1	1
1378	1	1
1379	1	1
1380	1	1
1381	1	1
1382	1	1
1383	1	1
1384	1	1
1385	1	1
1386	0	0.98799
1387	0	0.333333
1388	0	0.333333
1389	0	0.333333
1390	0	0.333333
1391	0	0.333333
1392	0	0.333333
1393	0	0.333333
1394	0	0.333333
1395	0	0.99827
1396	0	0.99827
1397	0	0.99827
1398	0	0.996544
1399	0	1
1400	0	0.986229
1401	0	0
1402	0	0
1403	0	0
1404	0	0
1405	0	0.5026
1406	0	0.991357
1407	0	0.991357
1408	0	0.991357
1409	0	0.991357
1410	0	0.991364
1411	0	0.991372
1412	0	0.991372
1413	0	0.991372
1414	0	0.991364
1415	0	0.991364
1416	0	0.991364
1417	0	0.991364
1418	0	0.991364
1419	0	0.989642
1420	0	0.989642
1421	0	1
1422	0	1
1423	0	0.85064
1424	0	0.85064
1425	0	0.85064
1426	0	0.85064
1427	0	0.85064
1428	0	0.730488
1429	0	0.532549
1430	0	0.512066
1431	0	0.534694
1432	0	0.51451
1433	0	0.530612
1434	0	0.503529
1435	0	0.409502
1436	0	0.897422
1437	0	0
1438	0	0
1439	0	0
1440	0	0
1441	0	0
1442	0	0
1443	0	0
1444	0	0
1445	0	0
1446	0	0
1447	0	0
1448	0	0
1449	0	0
1450	0	0
1451	0	0
1452	0	0
1453	0	0
1454	0	0
1455	0	0
1456	0	0
1457	0	0
1458	0	0
1459	0	0
1460	0	0
1461	0	0
1462	0	0
1463	0	0
1464	0	0
1465	0	0
1466	0	0
1467	0	0
1468	0	0
1469	0	0
1470	0	0
1471	0	0
1472	0	0
1473	0	0
1474	0	0
1475	0	0
1476	0	0
1477	0	0
1478	0	0
1479	0	0
1480	0	0
1481	0	0
1482	0	0
1483	0	0
1484	0	0
1485	0	0
1486	0	0
1487	0	0
1488	0	0
1489	0	0
1490	0	0
1491	0	0
1492	0	0
1493	0	0
1494	0	0
1495	0	0
1496	0	0
1497	0	0
1498	0	0
1499	0	0.666667
1500	0	0
1501	0	0.728571
1502	0	0.728571
1503	0	0.447312
1504	0	0.447312
1505	0	0.447312
1506	0	0.334835
1507	0	0.598862
1508	0	0.825968
1509	0	0.314286
1510	0	0.314286
1511	0	0.314286
1512	0	0.314286
1513	0	0.233846
1514	0	0.194337
1515	0	0.194848
1516	0	0.23071
1517	0	0.185812
1518	0	0.281486
1519	0	0.275467
1520	0	0.281094
1521	0	0.278916
1522	0	0.260653
1523	0	0.261393
1524	0	0.240797
1525	0	0.237122
1526	0	0.283389
1527	0	0.298042
1528	0	0.293806
1529	0	0.341062
1530	0	0.29604
1531	0	0.296435
1532	0	0.333837
1533	0	0
1534	0	0
1535	0	0
1536	0	0
1537	0	0
1538	0	0
1539	0	0
1540	0	0
1541	0	0
1542	0	0
1543	0	0
1544	0	0.2
1545	0	0.142857
1546	0	0.142857
1547	0	0.107143
1548	0	0.107143
1549	0	0.216694
1550	0	0
1551	0	0.166667
1552	0	0.279798
1553	0	0.293651
1554	0	0.293651
1555	0	0.357143
1556	0	0.352217
1557	0	0.349754
1558	0	0.384236
1559	0	0.384236
1560	0	0.337634
1561	0	0.337634
1562	0	0.182796
1563	0	0.163441
1564	0	0.15914
1565	0	0.16092
1566	0	0.16092
1567	0	0.16092
1568	0	0.16092
1569	0	0.16092
1570	0	0.163218
1571	0	0.167816
1572	0	0.156989
1573	0	0.167742
1574	0	0.167742
1575	0	0.167742
1576	0	0.184946
1577	0	0.171371
1578	0	0.171371
1579	0	0.168067
1580	0	0.237284
1581	0	0.151515
1582	0	0.142857
1583	0	0.07343
1584	0	0.0740056
1585	0	0.40547
1586	0	0.419205
1587	0	0.463583
1588	0	0.11861
1589	0	0.152294
1590	0	0.19661
1591	0	0.0907258
1592	0	0.0826211
1593	0	0.0736842
1594	0	0.0849673
1595	0	0.0735294
1596	0	0.0769231
1597	0	0.0909091
1598	0	0.133333
1599	0	0.133333
1600	0	0.133333
1601	0	0.166667
1602	0	0.166667
1603	0	0.214286
1604	0	0.214286
1605	0	0.285714
1606	0	0.285714
1607	0	0.285714
1608	0	0.4
1609	0	0.4
1610	0	0.4
1611	0	0.4
1612	0	0.4
1613	0	0.4
1614	0	0.266667
1615	0	0.266667
1616	0	0.266667
1617	0	0.266667
1618	0	0.266667
1619	0	0.266667
1620	0	0.266667
1621	0	0.266667
1622	0	0.266667
1623	0	0.5
1624	0	0.5
1625	0	0.5
1626	0	0.5
1627	1	1
1628	1	1
1629	1	1
1630	1	1
1631	1	1
1632	1	1
1633	1	1
1634	1	1
1635	1	1
1636	0	1
1637	0	1
1638	0	1
1639	0	1
1640	0	1
1641	0	1
1642	0	1
1643	0	1
1644	0	0.5
1645	0	0.5
1646	0	0.5
1647	0	0.5
1648	0	0.5
1649	0	0.5
1650	0	0.5
1651	0	0.5
1652	0	0.5
1653	0	0.5
1654	0	0.5
1655	0	0.3
1656	0	0.3
1657	0	0.3
1658	0	0.3
1659	0	0.3
1660	0	0.3
1661	0	0.3
1662	0	0.0757576
1663	0	0.2
1664	0	0.3
1665	0	0.3
1666	0	0.3
1667	0	0.2
1668	0	0.2
1669	0	0.142857
1670	0	0.142857
1671	0	0.142857
1672	0	0.142857
1673	0	0.142857
1674	0	0.142857
1675	0	0.357143
1676	0	0.357143
1677	0	0.357143
1678	0	0.357143
1679	0	0.357143
1680	0	0.357143
1681	0	0.333333
1682	0	0.333333
1683	0	0.333333
1684	0	0.238095
1685	0	0.238095
1686	0	0.291667
1687	0	0.235294
1688	0	0.25731
1689	0	0.416807
1690	0	0.44127
1691	0	0.493761
1692	0	0.493761
1693	0	0.493761
1694	0	0.806045
1695	0	0.944977
1696	0	0.0555556
1697	0	0.0555556
1698	0	0.0714286
1699	0	0.190476
1700	0	0.190476
1701	0	0.190476
1702	0	0.0952381
1703	0	0.285714
1704	0	0.285714
1705	0	0.285714
1706	0	0.285714
1707	0	0.285714
1708	0	0.285714
1709	0	0.6
1710	0	0.975816
1711	0	0.290909
1712	0	0.0666667
1713	0	0.0666667
1714	0	0.166667
1715	0	0.166667
1716	0	0.333333
1717	0	0.333333
1718	0	0.333333
1719	0	1
1720	0	1
1721	0	1
1722	0	0.996546
1723	0	0.996546
1724	0	0.996546
1725	0	0.8017
1726	0	1
1727	0	1
1728	0	0.998273
1729	0	0.998273
1730	0	0.998273
1731	1	1
1732	0	0.998273
1733	0	0.998273
1734	0	0.998273
1735	0	1
1736	0	1
1737	0	1
1738	0	1
1739	0	1
1740	0	0.998274
1741	0	0.998274
1742	1	1
1743	1	1
1744	1	1
1745	1	1
1746	1	1
1747	1	1
1748	1	1
1749	1	1
1750	1	1
1751	1	1
1752	1	1
1753	1	1
1754	1	1
1755	1	1
1756	0	0.998277
1757	0	0.998277
1758	0	0.998277
1759	0	0.998277
1760	0	0.998277
1761	0	0.998277
1762	0	0.998279
1763	0	0
1764	0	0
1765	0	0
1766	0	0
1767	0	0
1768	0	0
1769	0	0
1770	0	0
1771	0	0
1772	0	0
1773	0	0
1774	0	0
1775	0	0
1776	0	0
1777	0	0
1778	0	0.998277
1779	0	0.998277
1780	0	0.998277
1781	0	0.998277
1782	0	0.998276
1783	0	0.996556
1784	0	0
1785	1	0
1786	1	0
1787	1	0
1788	0	0
1789	0	0
1790	0	0
1791	0	0
1792	0	0
1793	0	0
1794	0	0
1795	0	0
1796	0	0
1797	0	0
1798	0	0
1799	0	0
1800	1	0
1801	1	0
1802	1	0
1803	0	0.946258
1804	0	1
1805	0	0.998277
1806	0	0.998279
1807	0	1
1808	0	1
1809	0	0.624253
1810	0	0.584457
1811	0	0.994842
1812	0	0.333333
1813	0	0
1814	0	0
1815	1	1
1816	1	1
1817	1	1
1818	1	1
1819	1	1
1820	1	1
1821	1	1
1822	1	1
1823	1	1
1824	1	1
1825	1	1
1826	0	1
1827	1	1
1828	0	1
1829	0	1
1830	0	1
1831	0	1
1832	0	1
1833	1	1
1834	1	1
1835	1	1
1836	1	1
1837	1	1
1838	1	1
1839	1	1
1840	0	0
1841	0	0
1842	1	0
1843	1	0
1844	0	0
1845	0	0
1846	1	1
1847	1	1
1848	1	1
1849	1	1
1850	0	0.99828
1851	0	0.99828
1852	0	0.99828
1853	0	0.99828
1854	0	0.99828
1855	1	1
1856	1	1
1857	1	1
1858	1	1
1859	1	1
1860	1	1
1861	1	1
1862	0	0.496477
1863	0	0.617631
1864	0	0.617631
1865	0	0.254545
1866	0	0.647341
1867	0	0.4
1868	0	0.6
1869	0	0.6
1870	0	1
1871	0	0.6
1872	0	1
1873	0	0.986893
1874	0	0.993478
1875	0	0.99485
1876	0	0.99485
1877	0	0.99485
1878	0	1
1879	0	1
1880	0	1
1881	0	0
1882	1	0
1883	1	0
1884	1	0
1885	1	0
1886	1	0
1887	1	0
1888	1	0
1889	1	0
1890	1	0
1891	1	0
1892	1	0
1893	1	0
1894	1	0
1895	1	0
1896	1	0
1897	1	0
1898	1	0
1899	1	0
1900	1	0
1901	1	0
1902	0	0.994805
1903	0	0.766283
1904	0	0.603955
1905	0	0.166667
1906	0	0.982725
1907	0	1
1908	0	1
1909	0	0.996541
1910	0	0.994805
1911	0	0.777778
1912	0	0.972577
1913	0	0.986262
1914	0	0.987971
1915	0	0.986271
1916	0	0.987983
1917	0	0.996558
1918	0	1
1919	0	1
1920	0	0.998279
1921	0	0.998279
1922	0	0.998277
1923	0	0.998277
1924	0	0.998277
1925	0	0.998277
1926	0	0.998279
1927	0	0.998267
1928	1	1
1929	1	1
1930	1	1
1931	1	1
1932	0	0
1933	1	0
1934	1	0
1935	1	0
1936	1	0
1937	0	0.984591
1938	1	1
1939	1	1
1940	0	1
1941	0	1
1942	0	1
1943	0	1
1944	0	1
1945	0	1
1946	0	1
1947	1	1
1948	0	1
1949	0	1
1950	0	1
1951	0	1
1952	0	0.998279
1953	1	1
1954	0	1
1955	0	1
1956	0	0.998279
1957	0	1
1958	0	1
1959	0	1
1960	0	0.5
1961	0	0.285714
1962	0	0.285714
1963	0	0.285714
1964	0	0.285714
1965	0	0.285714
1966	0	0.285714
1967	0	0.285714
1968	0	0.4
1969	0	0.4
1970	0	0.4
1971	0	0.3
1972	0	0.166667
1973	0	0.166667
1974	0	0.166667
1975	0	0
1976	0	0
1977	0	0
1978	0	0
1979	0	0
1980	0	0
1981	0	0
1982	0	0
1983	0	0
1984	0	0
1985	0	0
1986	0	0
1987	0	0
1988	0	0
1989	0	0
1990	0	0
1991	0	0
1992	0	0
1993	0	0
1994	0	0
1995	0	0
1996	0	0
1997	0	0
1998	0	0
1999	0	0
2000	0	0
2001	0	0
2002	0	0
2003	0	0
2004	0	0
2005	0	0
2006	0	0
2007	0	0
2008	0	0
2009	0	0
2010	0	0
2011	0	0
2012	0	0
2013	0	0
2014	0	0
2015	0	0
2016	0	0.4
2017	0	0.4
2018	0	0.4
2019	0	0.4
2020	0	0.4
2021	0	0.4
2022	0	0.576087
2023	0	0.381129
2024	0	0.869348
2025	0	0.720798
2026	0	0.675889
2027	0	0.662338
2028	0	0.504762
2029	0	0.594771
2030	0	0.594771
2031	0	0.594771
2032	0	0.431373
2033	0	0.347368
2034	0	0.294737
2035	0	0.294737
2036	0	0.463807
2037	0	0.460759
2038	0	0.703846
2039	0	0.38849
2040	0	0.390256
2041	0	0.249204
2042	0	0.196073
2043	0	0.296313
2044	0	0.225806
2045	0	0.223656
2046	0	0.223656
2047	0	0.223656
2048	0	0.301248
2049	0	0.0848485
2050	0	0.0703919
2051	0	0.0660377
2052	0	0.125635
2053	0	0.0921859
2054	0	0.463265
2055	0	0.0915916
2056	0	0.339767
2057	0	0.0592044
2058	0	0.539569
2059	0	0.0807692
2060	0	0.071525
2061	0	0.074224
2062	0	0.0924609
2063	0	0.0924609
2064	0	0.0840841
2065	0	0.0885886
2066	0	0.0545791
2067	0	0.0606061
2068	0	0.0565657
2069	0	0.0658537
2070	0	0.0692308
2071	0	0.0730769
2072	0	0.074224
2073	0	0.0782361
2074	0	0.0924609
2075	0	0.026455
2076	0	0.0108696
2077	0	0.012987
2078	0	0.0142857
2079	0	0.0105263
2080	0	0.0175439
2081	0	0.0196078
2082	0	0.0166667
2083	0	0.0190476
2084	0	0.0190476
2085	0	0.0190476
2086	0	0.010989
2087	0	0.0128205
2088	0	0.0151515
2089	0	0.0363636
2090	0	0.0277778
2091	0	0.0357143
2092	0	0.0357143
2093	0	0.0357143
2094	0	0.0357143
2095	0	0.0357143
2096	0	0.047619
2097	0	0.142857
2098	0	0.142857
2099	0	0.142857
2100	0	0.142857
2101	0	0.142857
2102	0	0.285714
2103	0	0.285714
2104	0	0.285714
2105	0	0.285714
2106	0	0.49871
2107	0	0.632104
2108	0	0.24359
2109	0	0.24359
2110	0	0.217949
2111	0	0.24359
2112	0	0.230159
2113	0	0.25641
2114	0	0.251232
2115	0	0.333333
2116	0	0.438406
2117	0	0.438406
2118	0	0.916667
2119	0	0.939321
2120	0	0.947647
2121	0	0.949321
2122	0	0.949321
2123	0	0.949343
2124	0	0.950992
2125	0	0.951015
2126	0	0.955939
2127	0	0.75
2128	0	0.972648
2129	0	0.166667
2130	0	0
2131	0	0.967594
2132	0	0
2133	0	0
2134	0	0
2135	0	0
2136	0	0
2137	0	0
2138	0	0
2139	0	0
2140	0	0
2141	0	0
2142	0	0
2143	0	0
2144	0	0
2145	1	0
2146	0	0
2147	0	0
2148	0	0
2149	0	0
2150	0	0
2151	0	0
2152	0	0
2153	0	0
2154	0	0
2155	0	0
2156	0	0
2157	0	0
2158	0	0
2159	0	0
2160	0	0
2161	0	0
2162	0	0
2163	0	0
2164	0	0
2165	0	0
2166	0	0
2167	0	0
2168	0	0
2169	0	0
2170	0	0.929279
2171	0	0.889966
2172	0	0
2173	0	0
2174	0	0
2175	0	0
2176	0	0
2177	0	0
2178	0	0
2179	0	0.535714
2180	0	0.447619
2181	0	0.806316
2182	0	0.142857
2183	0	0.111111
2184	0	0.0909091
2185	0	0.0757576
2186	0	0.731461
2187	0	0
2188	0	0
2189	0	0
2190	0	0
2191	0	0
2192	0	0
2193	0	0
2194	0	0
2195	0	0
2196	0	0
2197	0	0
2198	0	0
2199	0	0
2200	0	0
2201	0	0
2202	0	0
2203	0	0
2204	0	0
2205	0	0
2206	0	0
2207	0	0
2208	0	0
2209	0	0
2210	0	0
2211	0	0
2212	0	0
2213	0	0
2214	0	0
2215	0	0
2216	0	0
2217	0	0
2218	0	0.222222
2219	0	0.400221
2220	0	0.166667
2221	0	0.166667
2222	0	0.166667
2223	0	0.166667
2224	0	0.133333
2225	0	0.133333
2226	0	0.133333
2227	0	0.0952381
2228	0	0.0714286
2229	0	0.0714286
2230	0	0.0714286
2231	0	0.0714286
2232	0	0.107143
2233	0	0.107143
2234	0	0.430534
2235	0	0.703333
2236	0	0.401166
2237	0	0.210339
2238	0	0.646627
2239	0	0.111111
2240	0	0.155556
2241	0	0.152632
2242	0	0.674486
2243	0	0.912274
2244	0	0.913037
2245	0	0.913037
2246	0	0.913037
2247	0	0.954882
2248	0	0.964646
2249	0	0.982759
2250	0	1
2251	0	1
2252	0	0.994828
2253	0	0.994828
2254	0	0.994828
2255	0	0.994828
2256	0	0.994828
2257	0	0.993112
2258	0	0
2259	0	0
2260	0	0
2261	0	0
2262	0	0
2263	0	0
2264	0	0
2265	0	0
2266	0	0.991403
2267	0	0.991403
2268	0	0.994828
2269	0	0.994828
2270	0	0.994832
2271	0	0.994832
2272	0	0.989706
2273	0	0.991418
2274	0	0.991418
2275	0	0.994836
2276	0	0
2277	0	0
2278	0	0
2279	1	0
2280	1	0
2281	1	0
2282	1	0
2283	1	0
2284	1	0
2285	1	0
2286	1	0
2287	1	0
2288	0	0
2289	0	0
2290	0	0
2291	0	0
2292	0	0
2293	0	0
2294	0	0
2295	0	0
2296	0	0
2297	0	0
2298	0	0.996553
2299	0	0.996553
2300	0	0.996553
2301	0	0.996553
2302	0	0.996553
2303	0	0.996553
2304	0	0.996553
2305	0	1
2306	0	1
2307	0	1
2308	0	1
2309	0	1
2310	0	1
2311	0	1
2312	0	1
2313	0	1
2314	0	1
2315	0	1
2316	0	1
2317	0	1
2318	0	1
2319	0	1
2320	0	1
2321	0	1
2322	0	1
2323	0	1
2324	0	0.991391
2325	0	0.989686
2326	0	0.982854
2327	0	0
2328	0	0
2329	0	0
2330	0	0
2331	0	0
2332	0	0
2333	0	0
2334	0	0
2335	0	0.5
2336	0	0.5
2337	0	1
2338	0	1
2339	0	1
2340	0	0.333333
2341	0	0.333333
2342	0	0.977702
2343	0	0.976017
2344	0	1
2345	0	1
2346	0	1
2347	0	1
2348	0	1
2349	0	0.333333
2350	0	0.333333
2351	0	0.333333
2352	0	0.333333
2353	0	0.738095
2354	0	0.735544
2355	0	0.705306
2356	0	0.651584
2357	0	0.60861
2358	0	0.751599
2359	0	0
2360	0	0
2361	0	0
2362	0	0
2363	0	0
2364	0	0
2365	0	0
2366	0	0
2367	0	0
2368	0	0
2369	0	0
2370	0	0
2371	0	0
2372	0	0
2373	0	0
2374	0	0
2375	0	0
2376	0	0
2377	0	0
2378	0	0
2379	0	0
2380	0	0
2381	0	0
2382	0	0
2383	0	0
2384	0	0
2385	0	0.1
2386	0	0.1
2387	0	0.1
2388	0	0.0666667
2389	0	0.0666667
2390	0	0.111111
2391	0	0.0641026
2392	0	0.0659341
2393	0	0.364919
2394	0	0.372984
2395	0	0.331551
2396	0	0.286787
2397	0	0.741835
2398	0	0.459849
2399	0	0.780371
2400	0	0.866968
2401	0	0.957211
2402	0	0.955605
2403	0	0.962332
2404	0	0.964096
2405	0	0.346154
2406	0	0.942771
2407	0	0.898209
2408	0	0.333333
2409	0	1
2410	0	1
2411	0	1
2412	0	1
2413	0	1
2414	0	1
2415	0	1
2416	0	1
2417	0	1
2418	0	1
2419	0	1
2420	0	1
2421	0	1
2422	0	1
2423	0	1
2424	0	1
2425	0	1
2426	0	1
2427	0	1
2428	0	1
2429	0	1
2430	0	1
2431	0	1
2432	0	1
2433	0	1
2434	0	0.903112
2435	0	0.994832
2436	0	0.994832
2437	0	0.994832
2438	0	0.994832
2439	0	0.994832
2440	0	0.993118
2441	0	0.993118
2442	1	0
2443	1	0
2444	1	0
2445	1	0
2446	1	0
2447	1	0
2448	1	0
2449	1	0
2450	1	0
2451	1	0
2452	1	0
2453	1	0
2454	0	0
2455	0	0
2456	0	0
2457	0	0
2458	0	0
2459	0	0
2460	0	0
2461	0	0
2462	0	0
2463	0	0.994814
2464	0	0
2465	0	0.986382
2466	0	0
2467	0	0.624492
2468	0	0.986293
2469	0	0.991416
2470	0	0.99313
2471	0	0.99313
2472	0	0
2473	0	0
2474	0	0
2475	0	0
2476	0	0
2477	0	0
2478	0	0.996556
2479	0	0.996556
2480	0	0.996556
2481	0	0.166667
2482	0	0.166667
2483	0	0
2484	0	0
2485	0	0
2486	0	0
2487	0	0
2488	0	0.987989
2489	0	0.987989
2490	0	0.9897
2491	0	0.9897
2492	0	0
2493	0	0
2494	0	0
2495	0	0
2496	0	0
2497	0	0.989637
2498	0	0.981136
2499	0	0.957181
2500	0	0.623613
2501	0	0.911216
2502	0	0.772059
2503	0	0.928049
2504	0	0.787302
2505	0	0.986275
2506	0	0.99141
2507	0	0.994841
2508	0	0.994841
2509	0	0.994841
2510	0	0.994832
2511	0	0
2512	0	0
2513	0	0
2514	0	0
2515	0	0
2516	0	0
2517	0	0
2518	0	0
2519	0	0
2520	0	0
2521	0	0
2522	0	0
2523	0	0
2524	0	0
2525	0	0
2526	0	0.9897
2527	0	0.9897
2528	0	0.928043
2529	0	0.61937
2530	0	0
2531	0	0
2532	0	0
2533	0	0
2534	0	0
2535	0	0.333333
2536	0	0.986294
2537	0	0.993111
2538	0	0.333333
2539	0	0.333333
2540	0	0.99828
2541	0	0.99828
2542	0	0.99828
2543	0	0.99828
2544	0	0.998279
2545	0	0.998279
2546	0	0
2547	0	0
2548	0	0
2549	0	0
2550	0	0
2551	0	0
2552	0	0
2553	0	0
2554	0	0
2555	0	0
2556	0	0
2557	0	0
2558	0	0
2559	0	0
2560	0	0
2561	0	0
2562	0	0
2563	0	0
2564	0	0
2565	0	0
2566	0	0
2567	0	0
2568	0	0
2569	0	0
2570	0	0
2571	0	0
2572	0	0
2573	0	0
2574	0	0
2575	0	0
2576	0	0
2577	0	0
2578	0	0
2579	0	0
2580	0	0
2581	0	0
2582	0	0
2583	0	0
2584	0	0
2585	0	0
2586	0	0
2587	0	0
2588	0	0
2589	0	0
2590	0	0
2591	0	0
2592	0	0
2593	0	0
2594	0	0
2595	0	0
2596	0	0
2597	0	0
2598	0	0
2599	0	0
2600	0	0
2601	0	0
2602	0	0
2603	0	0
2604	0	0.998279
2605	0	0.998279
2606	0	0.998279
2607	0	0.998279
2608	0	0.998279
2609	0	0.998279
2610	0	0.998279
2611	0	0.998279
2612	0	0.998279
2613	0	0.998279
2614	0	0.998279
2615	0	0.998279
2616	0	0.998279
2617	0	0.998279
2618	0	0.998279
2619	0	0.998279
2620	0	0.998279
2621	0	0
2622	0	0
2623	0	0
2624	0	0
2625	0	0
2626	0	0
2627	0	0
2628	0	0
2629	0	0
2630	1	0
2631	1	0
2632	1	0
2633	0	0.333333
2634	0	0.994802
2635	0	0.993084
2636	0	0.714286
2637	0	0.214286
2638	0	0.75
2639	0	0.975354
2640	0	0
2641	0	0
2642	0	0
2643	0	0
2644	0	0
2645	0	0
2646	0	0
2647	0	0
2648	0	0
2649	0	0
2650	0	0
2651	0	0
2652	0	0
2653	0	0
2654	0	0.214286
2655	0	0.214286
2656	0	0.454411
2657	0	0
2658	0	0
2659	0	0
2660	0	0
2661	0	0
2662	0	0
2663	0	0
2664	0	0
2665	0	0.333333
2666	0	0.7997
2667	0	0.590327
2668	0	0.846373
2669	0	0.952381
2670	0	0.923255
2671	0	0.993089
2672	0	0.993089
2673	0	0.98966
2674	0	0
2675	0	0
2676	1	0
2677	1	0
2678	1	0
2679	1	0
2680	1	0
2681	1	0
2682	1	0
2683	1	0
2684	1	0
2685	1	0
2686	1	0
2687	1	0
2688	1	0
2689	1	0
2690	1	0
2691	1	0
2692	1	0
2693	1	0
2694	1	0
2695	1	0
2696	1	0
2697	1	0
2698	1	0
2699	1	0
2700	1	0
2701	1	0
2702	1	0
2703	1	0
2704	1	0
2705	1	0
2706	1	0
2707	1	0
2708	1	0
2709	1	0
2710	1	0
2711	1	0
2712	1	0
2713	1	0
2714	1	0
2715	1	0
2716	1	0
2717	1	0
2718	0	0
2719	0	0
2720	0	0
2721	0	0
2722	0	0
2723	0	0
2724	0	0
2725	0	0
2726	0	0
2727	0	0
2728	0	0
2729	0	0
2730	0	0
2731	0	0.994823
2732	0	0.994823
2733	0	0.994823
2734	0	0.994823
2735	0	0.994823
2736	0	0.994823
2737	0	0.994823
2738	0	0.994823
2739	0	0
2740	0	0
2741	0	0
2742	0	0
2743	0	0.994823
2744	0	0.994823
2745	0	0.994823
2746	0	0.5
2747	0	0.5
2748	0	1
2749	0	1
2750	0	1
2751	0	1
2752	0	1
2753	0	1
2754	0	1
2755	0	1
2756	0	1
2757	0	1
2758	0	1
2759	0	1
2760	0	1
2761	0	1
2762	0	1
2763	0	1
2764	0	1
2765	0	1
2766	1	1
2767	0	1
2768	1	1
2769	1	1
2770	1	1
2771	1	1
2772	1	1
2773	1	1
2774	1	1
2775	1	1
2776	1	1
2777	1	1
2778	1	1
2779	0	1
2780	0	1
2781	0	1
2782	0	1
2783	0	1
2784	0	1
2785	0	1
2786	0	1
2787	0	1
2788	0	1
2789	0	1
2790	0	1
2791	0	1
2792	0	1
2793	0	1
2794	0	1
2795	0	1
2796	0	1
2797	0	1
2798	0	1
2799	0	1
2800	0	1
2801	0	1
2802	0	1
2803	0	1
2804	0	1
2805	0	1
2806	0	1
2807	0	1
2808	0	1
2809	0	1
2810	0	0.987956
2811	0	0.987956
2812	0	0.987956
2813	0	0.166667
2814	0	0.984516
2815	0	0
2816	0	0
2817	0	0
2818	0	0
2819	0	0
2820	0	0
2821	0	0
2822	0	0
2823	0	0
2824	0	0
2825	0	0
2826	0	0
2827	0	0
2828	0	0
2829	0	0
2830	0	0
2831	0	0
2832	0	0
2833	0	0
2834	0	0
2835	0	0
2836	0	0.2
2837	0	0.2
2838	0	0.2
2839	0	0.2
2840	0	0.142857
2841	0	0.142857
2842	0	0.107143
2843	0	0.107143
2844	0	0.142857
2845	0	0.142857
2846	0	0.955802
2847	0	0.986217
2848	0	0.3
2849	0	0.5
2850	0	0.5
2851	0	0.5
2852	0	0.5
2853	0	0.5
2854	0	0.5
2855	0	0.5
2856	0	0.5
2857	0	0.5
2858	0	0.5
2859	0	0.5
2860	0	0.5
2861	0	0.5
2862	0	0.5
2863	0	0.5
2864	0	0.5
2865	0	0.5
2866	0	0.5
2867	0	0.5
2868	0	0.5
2869	0	0.5
2870	0	0.5
2871	0	0.5
2872	0	0.5
2873	0	0.5
2874	0	0.5
2875	0	0.5
2876	0	0.3
2877	0	0.3
2878	0	0.991381
2879	0	1
2880	0	1
2881	0	1
2882	0	1
2883	0	1
2884	0	1
2885	0	1
2886	0	1
2887	0	1
2888	0	1
2889	0	1
2890	0	1
2891	0	1
2892	0	1
2893	0	1
2894	0	1
2895	0	1
2896	0	1
2897	0	1
2898	0	1
2899	0	1
2900	0	1
2901	0	1
2902	0	0
2903	0	1
2904	0	1
2905	0	1
2906	0	1
2907	0	1
2908	0	1
2909	0	1
2910	0	1
2911	0	1
2912	0	1
2913	0	1
2914	0	1
2915	0	1
2916	0	1
2917	0	1
2918	0	1
2919	0	1
2920	0	0.989661
2921	0	0.166667
2922	0	0.991373
2923	0	0.993096
2924	0	0.993096
2925	0	1
2926	0	1
2927	0	1
2928	0	1
2929	0	1
2930	0	1
2931	0	1
2932	0	1
2933	0	1
2934	0	1
2935	0	1
2936	0	1
2937	0	1
2938	0	1
2939	0	1
2940	0	1
2941	0	1
2942	0	0.991384
2943	0	0.991384
2944	0	0.991384
2945	0	0.991384
2946	0	0.991384
2947	0	0.464286
2948	0	0.972632
2949	0	0.498089
2950	0	0.497294
2951	0	0
2952	0	0.41724
2953	0	1
2954	0	0.478792
2955	0	1
2956	0	1
2957	0	1
2958	0	1
2959	0	1
2960	0	1
2961	0	1
2962	0	0.4
2963	0	0.4
2964	0	0.4
2965	0	0.647949
2966	0	0.417514
2967	0	0.776591
2968	0	0.946208
2969	0	0.468254
2970	0	0.539773
2971	0	0.539773
2972	0	0.539773
2973	0	0.25
2974	0	0.25
2975	0	0.5
2976	0	0.5
2977	0	0.934495
2978	0	0.628343
2979	0	0.627259
2980	0	0.627259
2981	0	0.627259
2982	0	0.627259
2983	0	0
2984	0	0
2985	0	0
2986	0	0
2987	0	0
2988	0	0
2989	0	0
2990	0	0
2991	0	0
2992	0	0
2993	0	0
2994	0	0
2995	0	0
2996	0	0
2997	0	0
2998	0	0
2999	0	0
3000	0	0
3001	0	0
3002	0	0
3003	0	0
3004	0	0
3005	0	0
3006	0	0
3007	0	0
3008	0	0
3009	0	0
3010	0	0
3011	0	0
3012	0	0
3013	0	0
3014	0	0
3015	0	0
3016	0	0
3017	0	0.142857
3018	0	0.142857
3019	0	0.142857
3020	0	0.142857
3021	0	0.142857
3022	0	0.142857
3023	0	0.623391
3024	0	0.25
3025	0	0.25
3026	0	0.623094
3027	0	0.947955
3028	0	0
3029	0	0
3030	0	0
3031	0	0
3032	0	0
3033	0	0
3034	0	0
3035	0	0
3036	0	0
3037	0	0
3038	0	0
3039	0	0
3040	0	0
3041	0	0
3042	0	0
3043	0	0
3044	0	1
3045	0	0.501224
3046	0	0.894774
3047	0	0.989646
3048	0	0.989646
3049	0	0.989646
3050	0	0.987925
3051	0	0.987925
3052	0	0.987925
3053	0	0.987925
3054	0	0.987915
3055	0	0.96746
3056	0	0
3057	1	0
3058	1	0
3059	1	0
3060	1	0
3061	1	0
3062	1	0
3063	1	0
3064	1	0
3065	1	0
3066	1	0
3067	1	0
3068	1	0
3069	1	0
3070	1	0
3071	0	0
3072	0	0.974109
3073	0	0.987862
3074	0	0.987862
3075	0	0.5
3076	0	0.5
3077	0	0.5
3078	0	0.5
3079	0	0.5
3080	0	0.5
3081	0	0.5
3082	0	0.5
3083	0	0.5
3084	0	0.5
3085	0	0.5
3086	0	0.5
3087	0	1
3088	0	1
3089	0	1
3090	0	1
3091	0	1
3092	0	1
3093	0	0.991309
3094	0	0.987862
3095	0	0.851744
3096	0	0.691176
3097	0	0.691176
3098	0	0.533333
3099	0	0.4
3100	0	0.4
3101	0	0.2
3102	0	0.1
3103	0	0.166667
3104	0	0.166667
3105	0	0.166667
3106	0	0.166667
3107	0	0.166667
3108	0	0.166667
3109	0	0.166667
3110	0	0.166667
3111	0	0.166667
3112	0	0.166667
3113	0	0.166667
3114	0	0.166667
3115	0	0
3116	0	0.832637
3117	0	0.831173
3118	0	0.832905
3119	0	0.831701
3120	0	0.830106
3121	0	0.830106
3122	0	0.328063
3123	0	0.328063
3124	0	0.328063
3125	0	0.202151
3126	0	0.189516
3127	0	0.182796
3128	0	0.899887
3129	0	0.544304
3130	0	0.142857
3131	0	0.142857
3132	0	0.230769
3133	0	0.269231
3134	0	0.269231
3135	0	0.269231
3136	0	0.269231
3137	0	0.269231
3138	0	0.227273
3139	0	0.181818
3140	0	0.181818
3141	0	0.222222
3142	0	0.222222
3143	0	0.222222
3144	0	0.222222
3145	0	0.222222
3146	0	0.222222
3147	0	0.222222
3148	0	0.222222
3149	0	0.222222
3150	0	0.222222
3151	0	0.222222
3152	0	0.222222
3153	0	0.222222
3154	0	0.222222
3155	0	0.0888889
3156	0	0.0888889
3157	0	0.0444444
3158	0	0.0888889
3159	0	0.0888889
3160	0	0.0888889
3161	0	0.0666667
3162	0	0.0277778
3163	0	0
3164	0	0
3165	0	0
3166	0	0
3167	0	0
3168	0	0
3169	0	0
3170	0	0
3171	0	0
3172	0	0
3173	0	0
3174	0	0
3175	0	0
3176	0	0
3177	0	0
3178	0	0
3179	0	0
3180	0	0
3181	0	0
3182	0	0
3183	0	0
3184	0	0
3185	0	0
3186	0	0
3187	0	0
3188	0	0
3189	0	0
3190	0	0
3191	0	0
3192	0	0
3193	0	0
3194	0	0
3195	0	0
3196	0	0
3197	0	0
3198	0	0
3199	0	0
3200	0	0
3201	0	0
3202	0	0.371435
3203	0	0.5
3204	0	0.527273
3205	0	0.297352
3206	0	0.278339
3207	0	0.281036
3208	0	0.268107
3209	0	0.191921
3210	0	0.226641
3211	0	0.0363636
3212	0	0.0363636
3213	0	0.0363636
3214	0	0.0363636
3215	0	0.0363636
3216	0	0.0363636
3217	0	0.0355731
3218	0	0.0526316
3219	0	0.0526316
3220	0	0.025641
3221	0	0.0147059
3222	0	0.0147059
3223	0	0.0147059
3224	0	0.0147059
3225	0	0.0116959
3226	0	0.0116959
3227	0	0.00952381
3228	0	0.00952381
3229	0	0.022792
3230	0	0.381879
3231	0	0.0727273
3232	0	0.0727273
3233	0	0.109091
3234	0	0.163636
3235	0	0.163636
3236	0	0.163636
3237	0	0.163636
3238	0	0.163636
3239	0	0.163636
3240	0	0.163636
3241	0	0.163636
3242	0	0.163636
3243	0	0.163636
3244	0	0.163636
3245	0	0.163636
3246	0	0.163636
3247	0	0.163636
3248	0	0.163636
3249	0	0.163636
3250	0	0.163636
3251	0	0.163636
3252	0	0.163636
3253	0	0.163636
3254	0	0.163636
3255	0	0.163636
3256	0	0.163636
3257	0	0.163636
3258	0	0.163636
3259	0	0.163636
3260	0	0.163636
3261	0	0.163636
3262	0	0.163636
3263	0	0.163636
3264	0	0.163636
3265	0	0.136364
3266	0	0.0757576
3267	0	0.15942
3268	0	0.156522
3269	0	0.14273
3270	0	0.164109
3271	0	0.270786
3272	0	0.123034
3273	0	0.410046
3274	0	0.120879
3275	0	0.0277778
3276	0	0.0222222
3277	0	0.0555556
3278	0	0.0555556
3279	0	0.0555556
3280	0	0.0444444
3281	0	0.309263
3282	0	0.0705882
3283	0	0.0705882
3284	0	0.0705882
3285	0	0.0705882
3286	0	0.0666667
3287	0	0.0862069
3288	0	0.0862069
3289	0	0.0804598
3290	0	0.0752688
3291	0	0.0681818
3292	0	0.0587302
3293	0	0.0508788
3294	0	0.0683761
3295	0	0.088114
3296	0	0.259971
3297	0	0.165517
3298	0	0.16512
3299	0	0.116422
3300	0	0.129357
3301	0	0.142595
3302	0	0.373017
3303	0	0.376188
3304	0	0.745763
3305	0	0.796104
3306	0	0
3307	0	0
3308	0	0
3309	0	0
3310	0	0
3311	0	0
3312	0	0
3313	0	0
3314	0	0
3315	0	0
3316	0	0
3317	0	0
3318	0	0
3319	0	0
3320	0	0
3321	0	0
3322	0	0
3323	0	0
3324	0	0
3325	0	0
3326	0	0
3327	0	0
3328	0	0
3329	0	0
3330	0	0
3331	0	0
3332	0	0
3333	0	0
3334	0	0
3335	0	0
3336	0	0
3337	0	0
3338	0	0
3339	0	0
3340	0	0
3341	0	0
3342	0	0
3343	0	0.107143
3344	0	0.107143
3345	0	0.107143
3346	0	0.107143
3347	0	0.107143
3348	0	0.378599
3349	0	0.379106
3350	0	0
3351	0	0
3352	0	0
3353	0	0
3354	0	0
3355	0	0
3356	0	0
3357	0	0
3358	0	0
3359	0	0
3360	0	0
3361	0	0
3362	0	0
3363	0	0
3364	0	0
3365	0	0
3366	0	0
3367	0	0
3368	0	0
3369	0	0
3370	0	0
3371	0	0
3372	0	0
3373	0	0
3374	0	0
3375	0	0
3376	0	0
3377	0	0
3378	0	0
3379	0	0
3380	0	0
3381	0	0
3382	0	0
3383	0	0
3384	0	0
3385	0	0
3386	0	0
3387	0	0
3388	0	0
3389	0	0
3390	0	0
3391	0	0
3392	0	0
3393	0	0
3394	0	0
3395	0	0
3396	0	0
3397	0	0
3398	0	0
3399	0	0
3400	0	0
3401	0	0
3402	0	0
3403	0	0
3404	0	0
3405	0	0
3406	0	0
3407	0	0
3408	0	0
3409	0	0
3410	0	0
3411	0	0.1
3412	0	0.439394
3413	0	0.439394
3414	0	0.439394
3415	0	0.527273
3416	0	0.527273
3417	0	0.371795
3418	0	0.371795
3419	0	0.371795
3420	0	0.371795
3421	0	0.371795
3422	0	0.371795
3423	0	0.371795
3424	0	0.371795
3425	0	0.371795
3426	0	0.371795
3427	0	0.371795
3428	0	0.509091
3429	0	0.509091
3430	0	0.545455
3431	0	0.545455
3432	0	0.545455
3433	0	0.545455
3434	0	0.545455
3435	0	0.406593
3436	0	0.406593
3437	0	0.406593
3438	0	0.406593
3439	0	0.352381
3440	0	0.352381
3441	0	0.352381
3442	0	0.279412
3443	0	0.279412
3444	0	0.248366
3445	0	0.254902
3446	0	0.254902
3447	0	0.254902
3448	0	0.254902
3449	0	0.254902
3450	0	0.254902
3451	0	0.254902
3452	0	0.254902
3453	0	0.254902
3454	0	0.254902
3455	0	0.254902
3456	0	0.22807
3457	0	0.22807
3458	0	0.22807
3459	0	0.22807
3460	0	0.22807
3461	0	0.22807
3462	0	0.22807
3463	0	0.22807
3464	0	0.22807
3465	0	0.22807
3466	0	0.22807
3467	0	0.22807
3468	0	0.22807
3469	0	0.22807
3470	0	0.205263
3471	0	0.205263
3472	0	0.205263
3473	0	0.228571
3474	0	0.207792
3475	0	0.203463
3476	0	0.203463
3477	0	0.203463
3478	0	0.185771
3479	0	0.193676
3480	0	0.193676
3481	0	0.201581
3482	0	0.201581
3483	0	0.201581
3484	0	0.201581
3485	0	0.201581
3486	0	0.201581
3487	0	0.201581
3488	0	0.201581
3489	0	0.201581
3490	0	0.201581
3491	0	0.201581
3492	0	0.201581
3493	0	0.201581
3494	0	0.209486
3495	0	0.209486
3496	0	0.209486
3497	0	0.209486
3498	0	0.209486
3499	0	0.209486
3500	0	0.209486
3501	0	0.233202
3502	0	0.27619
3503	0	0.27619
3504	0	0.23
3505	0	0.23
3506	0	0.196581
3507	0	0.196581
3508	0	0.196581
3509	0	0.18254
3510	0	0.16092
3511	0	0.154839
3512	0	0.112821
3513	0	0.102564
3514	0	0.0941307
3515	0	0.0952821
3516	0	0.409227
3517	0	0.361905
3518	0	0.361905
3519	0	0.461538
3520	0	0.545455
3521	0	0
3522	0	0
3523	0	0
3524	0	0
3525	0	0
3526	0	0
3527	0	0
3528	0	0
3529	0	0
3530	0	0
3531	0	0
3532	0	0
3533	0	0
3534	0	0
3535	0	0
3536	0	0
3537	0	0
3538	0	0
3539	0	0
3540	0	0
3541	0	0
3542	0	0
3543	0	0
3544	0	0
3545	0	0
3546	0	0
3547	0	0
3548	0	0
3549	0	0
3550	0	0
3551	0	0
3552	0	0
3553	0	0
3554	0	0
3555	0	0
3556	0	0
3557	0	0
3558	0	0
3559	0	0
3560	0	0
3561	0	0
3562	0	0
3563	0	0
3564	0	0
3565	0	0
3566	0	0
3567	0	0
3568	0	0
3569	0	0
3570	0	0
3571	0	0
3572	0	0
3573	0	0
3574	0	0
3575	0	0
3576	0	0
3577	0	0
3578	0	0
3579	0	0
3580	0	0
3581	0	0
3582	0	0
3583	0	0
3584	0	0
3585	0	0
3586	0	0
3587	0	0
3588	0	0
3589	0	0
3590	0	0
3591	0	0
3592	0	0
3593	0	0
3594	0	0
3595	0	0
3596	0	0
3597	0	0
3598	0	0
3599	0	0
3600	0	0
3601	0	0
3602	0	0
3603	0	0
3604	0	0
3605	0	0
3606	0	0
3607	0	0
3608	0	0
3609	0	0
3610	0	0
3611	0	0
3612	0	0
3613	0	0
3614	0	0
3615	0	0
3616	0	0
3617	0	0
3618	0	0
3619	0	0
3620	0	0
3621	0	0
3622	0	0
3623	0	0
3624	0	0
3625	0	0
3626	0	0
3627	0	0
3628	0	0
3629	0	0
3630	0	0
3631	0	0
3632	0	0
3633	0	0
3634	0	0
3635	0	0
3636	0	0
3637	0	0
3638	0	0
3639	0	0
3640	0	0
3641	0	0
3642	0	0
3643	0	0
3644	0	0
3645	0	0
3646	0	0
3647	0	0
3648	0	0
3649	0	0
3650	0	0
3651	0	0
3652	0	0
3653	0	0
3654	0	0
3655	0	0.397089
3656	0	0.397578
3657	0	0
3658	0	0
3659	0	0
3660	0	0
3661	0	0
3662	0	0
3663	0	0
3664	0	0
3665	0	0
3666	0	0
3667	0	0
3668	0	0
3669	0	0
3670	0	0
3671	0	0
3672	0	0
3673	0	0
3674	0	0
3675	0	0
3676	0	0
3677	0	0
3678	0	0
3679	0	0
3680	0	0
3681	0	0
3682	0	0
3683	0	0
3684	0	0
3685	0	0
3686	0	0
3687	0	0
3688	0	0
3689	0	0
3690	0	0
3691	0	0
3692	0	0
3693	0	0
3694	0	0
3695	0	0
3696	0	0
3697	0	0
3698	0	0
3699	0	0
3700	0	0
3701	0	0
3702	0	0
3703	0	0
3704	0	0
3705	0	0
3706	0	0
3707	0	0
3708	0	0
3709	0	0
3710	0	0
3711	0	0
3712	0	0
3713	0	0
3714	0	0
3715	0	0
3716	0	0
3717	0	0
3718	0	0
3719	0	0
3720	0	0
3721	0	0
3722	0	0
3723	0	0
3724	0	0
3725	0	0
3726	0	0
3727	0	0
3728	0	0
3729	0	0
3730	0	0
3731	0	0
3732	0	0
3733	0	0
3734	0	0
3735	0	0
3736	0	0
3737	0	0
3738	0	0
3739	0	0
3740	0	0
3741	0	0
3742	0	0
3743	0	0
3744	0	0
3745	0	0
3746	0	0
3747	0	0
3748	0	0
3749	0	0
3750	0	0
3751	0	0
3752	0	0
3753	0	0
3754	0	0
3755	0	0
3756	0	0
3757	0	0
3758	0	0
3759	0	0
3760	0	0
3761	0	0
3762	0	0
3763	0	0
3764	0	0
3765	0	0
3766	0	0
3767	0	0
3768	0	0.576398
3769	0	0.44537
3770	0	0.311894
3771	0	0.249208
3772	0	0.387822
3773	0	0.385668
3774	0	0.190476
3775	0	0.190476
3776	0	0.190476
3777	0	0.190476
3778	0	0.190476
3779	0	0.190476
3780	0	0.190476
3781	0	0.1
3782	0	0.1
3783	0	0.1
3784	0	0.1
3785	0	0.1
3786	0	0.1
3787	0	0.1
3788	0	0.1
3789	0	0.1
3790	0	0.1
3791	0	0.1
3792	0	0.1
3793	0	0.1
3794	0	0.1
3795	0	0.0666667
3796	0	0.0666667
3797	0	0.394529
3798	0	0.334156
3799	0	1
3800	0	1
3801	0	1
3802	0	1
3803	0	1
3804	0	1
3805	0	1
3806	0	1
3807	0	1
3808	0	1
3809	0	1
3810	0	1
3811	0	1
3812	0	1
3813	0	1
3814	0	1
3815	0	1
3816	0	1
3817	0	1
3818	0	1
3819	0	1
3820	0	1
3821	0	1
3822	0	1
3823	0	1
3824	0	1
3825	0	1
3826	0	1
3827	0	1
3828	0	1
3829	0	1
3830	0	1
3831	0	1
3832	0	1
3833	0	1
3834	0	1
3835	0	1
3836	0	1
3837	0	1
3838	0	1
3839	0	1
3840	0	1
3841	0	1
3842	0	1
3843	0	1
3844	0	1
3845	0	1
3846	0	1
3847	0	1
3848	0	1
3849	0	1
3850	0	1
3851	0	1
3852	0	1
3853	0	1
3854	0	1
3855	0	1
3856	0	1
3857	0	1
3858	0	1
3859	0	1
3860	0	1
3861	0	1
3862	0	1
3863	0	1
3864	0	1
3865	0	1
3866	0	1
3867	0	1
3868	0	1
3869	0	1
3870	0	1
3871	0	1
3872	0	1
3873	0	1
3874	0	1
3875	0	1
3876	0	1
3877	0	1
3878	0	1
3879	0	1
3880	0	1
3881	0	1
3882	0	1
3883	0	1
3884	0	1
3885	0	1
3886	0	1
3887	0	1
3888	0	1
3889	0	1
3890	0	1
3891	0	1
3892	0	1
3893	0	1
3894	0	1
3895	0	1
3896	0	1
3897	0	1
3898	0	1
3899	0	1
3900	0	1
3901	0	1
3902	0	1
3903	0	1
3904	0	1
3905	0	1
3906	0	1
3907	0	1
3908	0	1
3909	0	1
3910	0	1
3911	0	1
3912	0	1
3913	0	1
3914	0	1
3915	0	1
3916	0	1
3917	0	0.5
3918	0	0.5
3919	0	0.5
3920	0	0.5
3921	0	0.5
3922	0	0.5
3923	0	0.5
3924	0	0.5
3925	0	0.5
3926	0	0.5
3927	0	0.5
3928	0	0.5
3929	0	0.5
3930	0	0.5
3931	0	0.5
3932	0	0.5
3933	0	0.5
3934	0	0.5
3935	0	0.5
3936	0	0.5
3937	0	0.5
3938	0	0.5
3939	0	0.5
3940	0	0.5
3941	0	0.5
3942	0	0.5
3943	0	0.5
3944	0	0.5
3945	0	0.5
3946	0	0.5
3947	0	0.5
3948	0	0.5
3949	0	0.5
3950	0	0.5
3951	0	0.5
3952	0	0.285714
3953	0	0.285714
3954	0	0.3
3955	0	0.3
3956	0	0.3
3957	0	0.3
3958	0	0.3
3959	0	0.3
3960	0	0.3
3961	0	0.3
3962	0	0.2
3963	0	0.2
3964	0	0.2
3965	0	0.2
3966	0	0.2
3967	0	0.2
3968	0	0.2
3969	0	0.142857
3970	0	0.142857
3971	0	0.142857
3972	0	0.142857
3973	0	0.111111
3974	0	0.111111
3975	0	0.111111
3976	0	0.0888889
3977	0	0.0888889
3978	0	0.33311
3979	0	0.152381
3980	0	0.152381
3981	0	0.152381
3982	0	0.198529
3983	0	0.198529
3984	0	0.198529
3985	0	0.198529
3986	0	0.198529
3987	0	0.198529
3988	0	0.198529
3989	0	0.198529
3990	0	0.198529
3991	0	0.198529
3992	0	0.176471
3993	0	0.176471
3994	0	0.176471
3995	0	0.157895
3996	0	0.157895
3997	0	0.157895
3998	0	0.133333
3999	0	0.133333
4000	0	0.121212
4001	0	0.110672
4002	0	0.0925926
4003	0	0.14359
4004	0	0.131243
4005	0	0.0928882
4006	0	0.423502
4007	0	0.445921
4008	0	0.714286
4009	0	0.714286
4010	0	0.714286
4011	0	0.714286
4012	0	0.714286
4013	0	0.714286
4014	0	0.47619
4015	0	0.714286
4016	0	0.714286
4017	0	0.714286
4018	0	0.714286
4019	0	0.714286
4020	0	0.714286
4021	0	0.714286
4022	0	0.714286
4023	0	0.714286
4024	0	0.714286
4025	0	0.714286
4026	0	0.714286
4027	0	0.714286
4028	0	0.714286
4029	0	0.714286
4030	0	0.714286
4031	0	0.714286
4032	0	0.714286
4033	0	0.714286
4034	0	0.714286
4035	0	0.714286
4036	0	0.714286
4037	0	0.714286
4038	0	0.714286
4039	0	0.714286
4040	0	0.0953846
4041	0	0.103333
4042	0	0.112319
4043	0	0.112319
4044	0	0.12253
4045	0	0.12253
4046	0	0.106719
4047	0	0.12253
4048	0	0.12253
4049	0	0.12253
4050	0	0.12253
4051	0	0.12253
4052	0	0.12253
4053	0	0.12253
4054	0	0.12253
4055	0	0.12253
4056	0	0.12253
4057	0	0.12253
4058	0	0.12253
4059	0	0.12253
4060	0	0.175
4061	0	0.175
4062	0	0.175
4063	0	0.175
4064	0	0.175
4065	0	0.314104
4066	0	0
4067	0	0
4068	0	0
4069	0	0
4070	0	0
4071	0	0
4072	0	0
4073	0	0
4074	0	0
4075	0	0
4076	0	0
4077	0	0
4078	0	0
4079	0	0.628571
4080	0	0.628571
4081	0	0.628571
4082	0	0.149621
4083	0	0.149621
4084	0	0.149621
4085	0	0.149621
4086	0	0.149621
4087	0	0.149621
4088	0	0.159274
4089	0	0.153226
4090	0	0.143939
4091	0	0.125397
4092	0	0.315307
4093	0	0.318182
4094	0	0.318182
4095	0	0.318182
4096	0	0.318182
4097	0	0.318182
4098	0	0.318182
4099	0	0.318182
4100	0	0.318182
4101	0	0.318182
4102	0	0.318182
4103	0	0.318182
4104	0	0.318182
4105	0	0.318182
4106	0	0.318182
4107	0	0.318182
4108	0	0.318182
4109	0	0.318182
4110	0	0.318182
4111	0	0.318182
4112	0	0.318182
4113	0	0.318182
4114	0	0.318182
4115	0	0.318182
4116	0	0.318182
4117	0	0.318182
4118	0	0.318182
4119	0	0.318182
4120	0	0.318182
4121	0	0.318182
4122	0	0.318182
4123	0	0.318182
4124	0	0.318182
4125	0	0.318182
4126	0	0.318182
4127	0	0.318182
4128	0	0.318182
4129	0	0.318182
4130	0	0.318182
4131	0	0.318182
4132	0	0.318182
4133	0	0.318182
4134	0	0.318182
4135	0	0.318182
4136	0	0.318182
4137	0	0.318182
4138	0	0.318182
4139	0	0.318182
4140	0	0.318182
4141	0	0.318182
4142	0	0.318182
4143	0	0.318182
4144	0	0.318182
4145	0	0.318182
4146	0	0.318182
4147	0	0.318182
4148	0	0.318182
4149	0	0.318182
4150	0	0.318182
4151	0	0.318182
4152	0	0.318182
4153	0	0.318182
4154	0	0.318182
4155	0	0.318182
4156	0	0.318182
4157	0	0.318182
4158	0	0.318182
4159	0	0.318182
4160	0	0.318182
4161	0	0.318182
4162	0	0.318182
4163	0	0.318182
4164	0	0.318182
4165	0	0.318182
4166	0	0.318182
4167	0	0.318182
4168	0	0.318182
4169	0	0.318182
4170	0	0.318182
4171	0	0.318182
4172	0	0.318182
4173	0	0.318182
4174	0	0.318182
4175	0	0.318182
4176	0	0.318182
4177	0	0.318182
4178	0	0.318182
4179	0	0.318182
4180	0	0.318182
4181	0	0.318182
4182	0	0.318182
4183	0	0.318182
4184	0	0.318182
4185	0	0.318182
4186	0	0.318182
4187	0	0.318182
4188	0	0.883935
4189	0	0
4190	0	0
4191	0	0
4192	0	0
4193	0	0
4194	0	0
4195	0	0
4196	0	0
4197	0	0
4198	0	0
4199	0	0
4200	0	0
4201	0	0
4202	0	0
4203	0	0
4204	0	0
4205	0	0
4206	0	0
4207	0	0
4208	0	0
4209	0	0
4210	0	0
4211	0	0
4212	0	0
4213	0	0
4214	0	0
4215	0	0
4216	0	0
4217	0	0
4218	0	0
4219	0	0
4220	0	0
4221	0	0
4222	0	0
4223	0	0
4224	0	0
4225	0	0
4226	0	0
4227	0	0
4228	0	0
4229	0	0
4230	0	0
4231	0	0
4232	0	0
4233	0	0
4234	0	0
4235	0	0
4236	0	0
4237	0	0
4238	0	0
4239	0	0
4240	0	0
4241	0	0
4242	0	0
4243	0	0
4244	0	0
4245	0	0
4246	0	0
4247	0	0
4248	0	0
4249	0	0
4250	0	0
4251	0	0
4252	0	0
4253	0	0
4254	0	0
4255	0	0
4256	0	0
4257	0	0
4258	0	0
4259	0	0
4260	0	0
4261	0	0
4262	0	0
4263	0	0
4264	0	0
4265	0	0
4266	0	0
4267	0	0
4268	0	0
4269	0	0
4270	0	0
4271	0	0
4272	0	0
4273	0	0
4274	0	0
4275	0	0
4276	0	0
4277	0	0
4278	0	0
4279	0	0
4280	0	0
4281	0	0
4282	0	0
4283	0	0
4284	0	0
4285	0	0
4286	0	0
4287	0	0
4288	0	0
4289	0	0
4290	0	0
4291	0	0
4292	0	0
4293	0	0
4294	0	0
4295	0	0
4296	0	0
4297	0	0
4298	0	0
4299	0	0
4300	0	0
4301	0	0
4302	0	0
4303	0	0
4304	0	0
4305	0	0
4306	0	0
4307	0	0
4308	0	0
4309	0	0
4310	0	0
4311	0	0
4312	0	0
4313	0	0
4314	0	0
4315	0	0
4316	0	0
4317	0	0
4318	0	0
4319	0	0
4320	0	0
4321	0	0
4322	0	0
4323	0	0
4324	0	0
4325	0	0
4326	0	0
4327	0	0
4328	0	0
4329	0	0
4330	0	0
4331	0	0
4332	0	0
4333	0	0
4334	0	0
4335	0	0
4336	0	0
4337	0	0
4338	0	0
4339	0	0
4340	0	0
4341	0	0
4342	0	0
4343	0	0
4344	0	0
4345	0	0
4346	0	0
4347	0	0
4348	0	0
4349	0	0
4350	0	0
4351	0	0
4352	0	0
4353	0	0
4354	0	0
4355	0	0
4356	0	0
4357	0	0
4358	0	0
4359	0	0
4360	0	0
4361	0	0
4362	0	0
4363	0	0
4364	0	0
4365	0	0
4366	0	0
4367	0	0
4368	0	0
4369	0	0
4370	0	0
4371	0	0
4372	0	0
4373	0	0
4374	0	0
4375	0	0
4376	0	0
4377	0	0
4378	0	0
4379	0	0
4380	0	0
4381	0	0
4382	0	0
4383	0	0
4384	0	0
4385	0	0
4386	0	0
4387	0	0
4388	0	0
4389	0	0
4390	0	0
4391	0	0
4392	0	0
4393	0	0
4394	0	0
4395	0	0
4396	0	0
4397	0	0
4398	0	0
4399	0	0
4400	0	0
4401	0	0
4402	0	0
4403	0	0
4404	0	0.310678
4405	0	0.0736597
4406	0	0.0702371
4407	0	0.071115
4408	0	0.071115
4409	0	0.0759438
4410	0	0.290332
4411	0	0
4412	0	0
4413	0	0
4414	0	0
4415	0	0
4416	0	0
4417	0	0
4418	0	0
4419	0	0
4420	0	0
4421	0	0
4422	0	0
4423	0	0
4424	0	0
4425	0	0
4426	0	0
4427	0	0
4428	0	0
4429	0	0
4430	0	0
4431	0	0
4432	0	0
4433	0	0
4434	0	0
4435	0	0
4436	0	0
4437	0	0
4438	0	0
4439	0	0
4440	0	0
4441	0	0
4442	0	0
4443	0	0
4444	0	0
4445	0	0
4446	0	0
4447	0	0
4448	0	0
4449	0	0
4450	0	0
4451	0	0
4452	0	0
4453	0	0
4454	0	0
4455	0	0
4456	0	0
4457	0	0
4458	0	0
4459	0	0
4460	0	0
4461	0	0
4462	0	0
4463	0	0
4464	0	0
4465	0	0
4466	0	0
4467	0	0
4468	0	0
4469	0	0
4470	0	0
4471	0	0
4472	0	0
4473	0	0
4474	0	0
4475	0	0
4476	0	0
4477	0	0
4478	0	0
4479	0	0
4480	0	0
4481	0	0
4482	0	0
4483	0	0
4484	0	0
4485	0	0
4486	0	0
4487	0	0
4488	0	0
4489	0	0
4490	0	0
4491	0	0
4492	0	0
4493	0	0
4494	0	0
4495	0	0
4496	0	0
4497	0	0
4498	0	0
4499	0	0
4500	0	0
4501	0	0
4502	0	0
4503	0	0
4504	0	0
4505	0	0
4506	0	0
4507	0	0
4508	0	0
4509	0	0
4510	0	0
4511	0	0
4512	0	0
4513	0	0
4514	0	0
4515	0	0
4516	0	0
4517	0	0
4518	0	0
4519	0	0
4520	0	0
4521	0	0
4522	0	0
4523	0	0
4524	0	0
4525	0	0
4526	0	0
4527	0	0
4528	0	0
4529	0	0
4530	0	0
4531	0	0
4532	0	0
4533	0	0
4534	0	0
4535	0	0
4536	0	0
4537	0	0
4538	0	0
4539	0	0
4540	0	0
4541	0	0
4542	0	0
4543	0	0
4544	0	0
4545	0	0
4546	0	0
4547	0	0
4548	0	0
4549	0	0
4550	0	0
4551	0	0
4552	0	0
4553	0	0
4554	0	0
4555	0	0
4556	0	0
4557	0	0
4558	0	0
4559	0	0
4560	0	0
4561	0	0
4562	0	0
4563	0	0
4564	0	0
4565	0	0
4566	0	0
4567	0	0
4568	0	0
4569	0	0
4570	0	0
4571	0	0
4572	0	0
4573	0	0
4574	0	0
4575	0	0
4576	0	0
4577	0	0
4578	0	0
4579	0	0
4580	0	0
4581	0	0
4582	0	0
4583	0	0
4584	0	0
4585	0	0
4586	0	0
4587	0	0
4588	0	0
4589	0	0
4590	0	0
4591	0	0
4592	0	0
4593	0	0
4594	0	0
4595	0	0
4596	0	0
4597	0	0
4598	0	0
4599	0	0
4600	0	0
4601	0	0
4602	0	0
4603	0	0
4604	0	0
4605	0	0
4606	0	0
4607	0	0
4608	0	0
4609	0	0
4610	0	0
4611	0	0
4612	0	0
4613	0	0
4614	0	0
4615	0	0
4616	0	0
4617	1	0
4618	1	0
4619	1	0
4620	0	0
4621	0	0
4622	0	0
4623	0	0
4624	0	0
4625	0	0
4626	0	0
4627	0	0
4628	0	0
4629	0	0
4630	0	0
4631	0	0
4632	0	0
4633	0	0
4634	0	0
4635	0	0
4636	0	0
4637	0	0
4638	0	0
4639	0	0
4640	0	0
4641	0	0
4642	0	0
4643	0	0
4644	0	0
4645	0	0
4646	0	0
4647	0	0
4648	0	0
4649	0	0
4650	0	0
4651	0	0
4652	0	0
4653	0	0
4654	0	0
4655	0	0
4656	0	0
4657	0	0
4658	0	0
4659	0	0
4660	0	0
4661	0	0
4662	0	0
4663	0	0
4664	0	0
4665	0	0
4666	0	0
4667	0	0
4668	0	0
4669	0	0
4670	0	0
4671	0	0
4672	0	0
4673	0	0
4674	0	0
4675	0	0
4676	0	0
4677	0	0
4678	0	0
4679	0	0
4680	0	0
4681	0	0
4682	0	0
4683	0	0
4684	0	0
4685	0	0
4686	0	0
4687	0	0
4688	0	0
4689	0	0
4690	0	0
4691	0	0
4692	0	0
4693	0	0
4694	0	0
4695	0	0
4696	0	0
4697	0	0
4698	0	0
4699	0	0
4700	0	0
4701	0	0
4702	0	0
4703	0	0
4704	0	0
4705	0	0
4706	0	0
4707	0	0
4708	0	0
4709	0	0
4710	0	0
4711	0	0
4712	0	0
4713	0	0
4714	0	0
4715	0	0
4716	0	0
4717	0	0
4718	0	0
4719	0	0
4720	0	0
4721	0	0
4722	0	0
4723	0	0
4724	0	0
4725	0	0
4726	0	0
4727	0	0
4728	0	0
4729	0	0
4730	0	0
4731	0	0
4732	0	0
4733	0	0
4734	0	0
4735	0	0
4736	0	0
4737	0	0
4738	0	0
4739	0	0
4740	0	0
4741	0	0
4742	0	0
4743	0	0
4744	0	0
4745	0	0
4746	0	0
4747	0	0
4748	0	0
4749	0	0
4750	0	0
4751	0	0
4752	0	0
4753	0	0
4754	0	0
4755	0	0
4756	0	0
4757	0	0
4758	0	0
4759	0	0.0454545
4760	0	0.0769231
4761	0	0.104575
4762	0	0.0935673
4763	0	0.0935673
4764	0	0.0935673
4765	0	0.117647
4766	0	0.117647
4767	0	0.133333
4768	0	0.133333
4769	0	0.133333
4770	0	0.133333
4771	0	0.152381
4772	0	0.133333
4773	0	0.133333
4774	0	0.125
4775	0	0.294092
4776	0	0.0386555
4777	0	0.0320197
4778	0	0.0421053
4779	0	0.0409357
4780	0	0.0409357
4781	0	0.0409357
4782	0	0.0409357
4783	0	0.0457516
4784	0	0.0457516
4785	0	0.0514706
4786	0	0.0514706
4787	0	0.0583333
4788	0	0.0583333
4789	0	0.0583333
4790	0	0.0583333
4791	0	0.0583333
4792	0	0.0583333
4793	0	0.0514706
4794	0	0.0514706
4795	0	0.0514706
4796	0	0.0514706
4797	0	0.0514706
4798	0	0.0514706
4799	0	0.0514706
4800	0	0.0514706
4801	0	0.0514706
4802	0	0.0514706
4803	0	0.0514706
4804	0	0.0514706
4805	0	0.0514706
4806	0	0.0514706
4807	0	0.0514706
4808	0	0.0457516
4809	0	0.0457516
4810	0	0.0457516
4811	0	0.33798
4812	0	0
4813	0	0
4814	0	0
4815	0	0
4816	0	0
4817	0	0
4818	0	0
4819	0	0
4820	0	0
4821	0	0
4822	0	0
4823	0	0
4824	0	0
4825	0	0
4826	0	0
4827	0	0
4828	0	0
4829	0	0
4830	0	0
4831	0	0
4832	0	0
4833	0	0
4834	0	0
4835	0	0
4836	0	0
4837	0	0
4838	0	0
4839	0	0
4840	0	0
4841	0	0
4842	0	0
4843	0	0
4844	0	0
4845	0	0
4846	0	0
4847	0	0
4848	0	0
4849	0	0
4850	0	0
4851	0	0
4852	0	0
4853	0	0
4854	0	0
4855	0	0
4856	0	0
4857	0	0
4858	0	0
4859	0	0
4860	0	0
4861	0	0
4862	0	0
4863	0	0
4864	0	0
4865	0	0
4866	0	0
4867	0	0
4868	0	0
4869	0	0
4870	0	0
4871	0	0
4872	0	0
4873	0	0
4874	0	0
4875	0	0
4876	0	0
4877	0	0
4878	0	0
4879	0	0
4880	0	0
4881	0	0
4882	0	0
4883	0	0
4884	0	0
4885	0	0
4886	0	0
4887	0	0
4888	0	0
4889	0	0
4890	0	0
4891	0	0
4892	0	0
4893	0	0
4894	0	0
4895	0	0
4896	0	0
4897	0	0
4898	0	0
4899	0	0
4900	0	0
4901	0	0
4902	0	0
4903	0	0
4904	0	0
4905	0	0
4906	0	0
4907	0	0
4908	0	0
4909	0	0
4910	0	0
4911	0	0
4912	0	0
4913	0	0
4914	0	0
4915	0	0
4916	0	0
4917	0	0
4918	0	0
4919	0	0
4920	0	0
4921	0	0
4922	0	0
4923	0	0
4924	0	0
4925	0	0
4926	0	0
4927	0	0
4928	0	0
4929	0	0
4930	0	0
4931	0	0
4932	0	0
4933	0	0
4934	0	0
4935	0	0
4936	0	0
4937	0	0
4938	0	0
4939	0	0
4940	0	0
4941	0	0
4942	0	0
4943	0	0
4944	0	0
4945	0	0
4946	0	0
4947	0	0
4948	0	0
4949	0	0
4950	0	0
4951	0	0
4952	0	0
4953	0	0
4954	0	0
4955	0	0
4956	0	0
4957	0	0
4958	0	0
4959	0	0
4960	0	0
4961	0	0
4962	0	0
4963	0	0
4964	0	0
4965	0	0
4966	0	0
4967	0	0
4968	0	0
4969	0	0
4970	0	0
4971	0	0
4972	0	0
4973	0	0
4974	0	0
4975	0	0
4976	0	0
4977	0	0
4978	0	0
4979	0	0
4980	0	0
4981	0	0
4982	0	0
4983	0	0
4984	0	0
4985	0	0
4986	0	0
4987	0	0
4988	0	0
4989	0	0
4990	0	0
4991	0	0
4992	0	0
4993	0	0
4994	0	0
4995	0	0
4996	0	0
4997	0	0
4998	0	0
4999	0	0
5000	0	0
5001	0	0
5002	0	0
5003	0	0
5004	0	0
5005	0	0
5006	0	0
5007	0	0
5008	0	0
5009	0	0
5010	0	0
5011	0	0
5012	0	0
5013	0	0
5014	0	0
5015	0	0
5016	0	0
5017	0	0
5018	0	0
5019	0	0
5020	0	0
5021	0	0
5022	0	0
5023	0	0
5024	0	0
5025	0	0
5026	0	0
5027	0	0
5028	0	0
5029	0	0
5030	0	0
5031	0	0
5032	0	0
5033	0	0.0545455
5034	0	0.0545455
5035	0	0.0545455
5036	0	0.0545455
5037	0	0.0549451
5038	0	0.0760234
5039	0	0.0562771
5040	0	0.180837
5041	0	0.41309
5042	0	0.434343
5043	0	0.0877193
5044	0	0.0849673
5045	0	0.0784314
5046	0	0.0808824
5047	0	0.104762
5048	0	0.104762
5049	0	0.1
5050	0	0.12381
5051	0	0.12381
5052	0	0.120879
5053	0	0.120879
5054	0	0.141026
5055	0	0.141026
5056	0	0.141026
5057	0	0.166667
5058	0	0.166667
5059	0	0.166667
5060	0	0.166667
5061	0	0.166667
5062	0	0.166667
5063	0	0.166667
5064	0	0.166667
5065	0	0.166667
5066	0	0.141026
5067	0	0.0936408
5068	0	0.0420819
5069	0	0.0465116
5070	0	0.0465116
5071	0	0.0463415
5072	0	0.0487179
5073	0	0.0431849
5074	0	0.0404858
5075	0	0.0445344
5076	0	0.0458839
5077	0	0.0512821
5078	0	0.0472335
5079	0	0.0497866
5080	0	0.0472335
5081	0	0.0472335
5082	0	0.0474359
5083	0	0.0474359
5084	0	0.104762
5085	0	0.104762
5086	0	0.104762
5087	0	0.104762
5088	0	0.104762
5089	0	0.373781
5090	0	1
5091	0	1
5092	0	1
5093	0	1
5094	0	1
5095	0	1
5096	0	1
5097	0	1
5098	0	1
5099	0	1
5100	0	1
5101	0	1
5102	0	1
5103	0	1
5104	0	1
5105	0	1
5106	0	1
5107	0	1
5108	0	1
5109	0	1
5110	0	1
5111	0	1
5112	0	1
5113	0	1
5114	0	1
5115	0	1
5116	0	1
5117	0	1
5118	0	1
5119	0	1
5120	0	1
5121	0	1
5122	0	1
5123	0	1
5124	0	1
5125	0	1
5126	0	1
5127	0	1
5128	0	1
5129	0	1
5130	0	1
5131	0	1
5132	0	1
5133	0	1
5134	0	1
5135	0	1
5136	0	1
5137	0	1
5138	0	1
5139	0	1
5140	0	1
5141	0	1
5142	0	1
5143	0	1
5144	0	1
5145	0	1
5146	0	1
5147	0	1
5148	0	1
5149	0	1
5150	0	1
5151	0	1
5152	0	1
5153	0	1
5154	0	1
5155	0	1
5156	0	1
5157	0	1
5158	0	1
5159	0	1
5160	0	1
5161	0	1
5162	0	1
5163	0	1
5164	0	1
5165	0	1
5166	0	1
5167	0	1
5168	0	1
5169	0	1
5170	0	1
5171	0	1
5172	0	1
5173	0	1
5174	0	1
5175	0	1
5176	0	1
5177	0	1
5178	0	1
5179	0	1
5180	0	1
5181	0	1
5182	0	1
5183	0	1
5184	0	1
5185	0	1
5186	0	1
5187	0	1
5188	0	1
5189	0	1
5190	0	1
5191	0	1
5192	0	1
5193	0	1
5194	0	1
5195	0	1
5196	0	1
5197	0	0.75
5198	0	0.75
5199	0	0.75
5200	0	0.583333
5201	0	0.583333
5202	0	0.583333
5203	0	0.583333
5204	0	0.583333
5205	0	0.583333
5206	0	0.583333
5207	0	0.583333
5208	0	0.583333
5209	0	0.583333
5210	0	0.583333
5211	0	0.583333
5212	0	0.583333
5213	0	0.583333
5214	0	0.583333
5215	0	0.583333
5216	0	0.583333
5217	0	0.583333
5218	0	0.583333
5219	0	0.583333
5220	0	0.583333
5221	0	0.583333
5222	0	0.583333
5223	0	0.583333
5224	0	0.583333
5225	0	0.583333
5226	0	0.583333
5227	0	0.583333
5228	0	0.583333
5229	0	0.583333
5230	0	0.583333
5231	0	0.583333
5232	0	0.583333
5233	0	0.583333
5234	0	0.583333
5235	0	0.583333
5236	0	0.583333
5237	0	0.583333
5238	0	0.583333
5239	0	0.583333
5240	0	0.583333
5241	0	0.583333
5242	0	0.583333
5243	0	0.583333
5244	0	0.583333
5245	0	0.583333
5246	0	0.583333
5247	0	0.583333
5248	0	0.583333
5249	0	0.466667
5250	0	0.333333
5251	0	0.333333
5252	0	0.333333
5253	0	0.333333
5254	0	0.333333
5255	0	0.333333
5256	0	0.318182
5257	0	0.318182
5258	0	0.269231
5259	0	0.269231
5260	0	0.230769
5261	0	0.230769
5262	0	0.230769
5263	0	0.230769
5264	0	0.230769
5265	0	0.230769
5266	0	0.230769
5267	0	0.2
5268	0	0.2
5269	0	0.2
5270	0	0.2
5271	0	0.2
5272	0	0.2
5273	0	0.2
5274	0	0.2
5275	0	0.2
5276	0	0.2
5277	0	0.175
5278	0	0.175
5279	0	0.175
5280	0	0.175
5281	0	0.175
5282	0	0.175
5283	0	0.175
5284	0	0.183333
5285	0	0.183333
5286	0	0.183333
5287	0	0.183333
5288	0	0.183333
5289	0	0.161765
5290	0	0.161765
5291	0	0.126812
5292	0	0.144928
5293	0	0.133333
5294	0	0.143333
5295	0	0.13
5296	0	0.13
5297	0	0.13
5298	0	0.143333
5299	0	0.143333
5300	0	0.143333
5301	0	0.143333
5302	0	0.16
5303	0	0.16
5304	0	0.16
5305	0	0.16
5306	0	0.16
5307	0	0.16
5308	0	0.16
5309	0	0.16
5310	0	0.16
5311	0	0.16
5312	0	0.16
5313	0	0.16
5314	0	0.16
5315	0	0.16
5316	0	0.16
5317	0	0.16
5318	0	0.16
5319	0	0.16
5320	0	0.16
5321	0	0.16
5322	0	0.16
5323	0	0.16
5324	0	0.16
5325	0	0.16
5326	0	0.147692
5327	0	0.147692
5328	0	0.147692
5329	0	0.153846
5330	0	0.153846
5331	0	0.153846
5332	0	0.153846
5333	0	0.153846
5334	0	0.153846
5335	0	0.153846
5336	0	0.153846
5337	0	0.153846
5338	0	0.153846
5339	0	0.138462
5340	0	0.138462
5341	0	0.138462
5342	0	0.163077
5343	0	0.163077
5344	0	0.163077
5345	0	0.163077
5346	0	0.163077
5347	0	0.163077
5348	0	0.163077
5349	0	0.163077
5350	0	0.163077
5351	0	0.163077
5352	0	0.163077
5353	0	0.163077
5354	0	0.163077
5355	0	0.163077
5356	0	0.163077
5357	0	0.163077
5358	0	0.163077
5359	0	0.163077
5360	0	0.163077
5361	0	0.152174
5362	0	0.152174
5363	0	0.163077
5364	0	0.163077
5365	0	0.163077
5366	0	0.163077
5367	0	0.163077
5368	0	0.166154
5369	0	0.166154
5370	0	0.166154
5371	0	0.166154
5372	0	0.166154
5373	0	0.166154
5374	0	0.150997
5375	0	0.150997
5376	0	0.150997
5377	0	0.150997
5378	0	0.150997
5379	0	0.150997
5380	0	0.150997
5381	0	0.150997
5382	0	0.150997
5383	0	0.150997
5384	0	0.150997
5385	0	0.140212
5386	0	0.140212
5387	0	0.140212
5388	0	0.140212
5389	0	0.140212
5390	0	0.140212
5391	0	0.140212
5392	0	0.140212
5393	0	0.140212
5394	0	0.140212
5395	0	0.140212
5396	0	0.140212
5397	0	0.140212
5398	0	0.140212
5399	0	0.140212
5400	0	0.140212
5401	0	0.140212
5402	0	0.140212
5403	0	0.140212
5404	0	0.140212
5405	0	0.140212
5406	0	0.140212
5407	0	0.140212
5408	0	0.140212
5409	0	0.140212
5410	0	0.140212
5411	0	0.140212
5412	0	0.140212
5413	0	0.140212
5414	0	0.140212
5415	0	0.140212
5416	0	0.130542
5417	0	0.130542
5418	0	0.130542
5419	0	0.130542
5420	0	0.130542
5421	0	0.130542
5422	0	0.133005
5423	0	0.133005
5424	0	0.133005
5425	0	0.133005
5426	0	0.133005
5427	0	0.133005
5428	0	0.14532
5429	0	0.14532
5430	0	0.14532
5431	0	0.14532
5432	0	0.14532
5433	0	0.14532
5434	0	0.14532
5435	0	0.14532
5436	0	0.14532
5437	0	0.14532
5438	0	0.14532
5439	0	0.14532
5440	0	0.14532
5441	0	0.14532
5442	0	0.14532
5443	0	0.14532
5444	0	0.147783
5445	0	0.147783
5446	0	0.147783
5447	0	0.147783
5448	0	0.147783
5449	0	0.147783
5450	0	0.147783
5451	0	0.147783
5452	0	0.147783
5453	0	0.147783
5454	0	0.147783
5455	0	0.147783
5456	0	0.147783
5457	0	0.147783
5458	0	0.147783
5459	0	0.147783
5460	0	0.147783
5461	0	0.147783
5462	0	0.15873
5463	0	0.15873
5464	0	0.15873
5465	0	0.15873
5466	0	0.15873
5467	0	0.15873
5468	0	0.156085
5469	0	0.156085
5470	0	0.156085
5471	0	0.156085
5472	0	0.169312
5473	0	0.169312
5474	0	0.169312
5475	0	0.156085
5476	0	0.156085
5477	0	0.156085
5478	0	0.156085
5479	0	0.156085
5480	0	0.15873
5481	0	0.15873
5482	0	0.15873
5483	0	0.15873
5484	0	0.15873
5485	0	0.15873
5486	0	0.15873
5487	0	0.147783
5488	0	0.147783
5489	0	0.147783
5490	0	0.147783
5491	0	0.147783
5492	0	0.147783
5493	0	0.147783
5494	0	0.147783
5495	0	0.147783
5496	0	0.147783
5497	0	0.147783
5498	0	0.147783
5499	0	0.147783
5500	0	0.147783
5501	0	0.147783
5502	0	0.147783
5503	0	0.147783
5504	0	0.147783
5505	0	0.147783
5506	0	0.147783
5507	0	0.147783
5508	0	0.147783
5509	0	0.147783
5510	0	0.147783
5511	0	0.147783
5512	0	0.147783
5513	0	0.147783
5514	0	0.147783
5515	0	0.14532
5516	0	0.14532
5517	0	0.14532
5518	0	0.14532
5519	0	0.14532
5520	0	0.14532
5521	0	0.14532
5522	0	0.14532
5523	0	0.14532
5524	0	0.135632
5525	0	0.135632
5526	0	0.135632
5527	0	0.135632
5528	0	0.135632
5529	0	0.137634
5530	0	0.137634
5531	0	0.137634
5532	0	0.150538
5533	0	0.139785
5534	0	0.139785
5535	0	0.139785
5536	0	0.139785
5537	0	0.139785
5538	0	0.139785
5539	0	0.139785
5540	0	0.139785
5541	0	0.139785
5542	0	0.139785
5543	0	0.139785
5544	0	0.139785
5545	0	0.139785
5546	0	0.139785
5547	0	0.139785
5548	0	0.139785
5549	0	0.139785
5550	0	0.139785
5551	0	0.139785
5552	0	0.139785
5553	0	0.139785
5554	0	0.11943
5555	0	0.121212
5556	0	0.11943
5557	0	0.11943
5558	0	0.11943
5559	0	0.11943
5560	0	0.11553
5561	0	0.108734
5562	0	0.108734
5563	0	0.108734
5564	0	0.108734
5565	0	0.108734
5566	0	0.108734
5567	0	0.108734
5568	0	0.108734
5569	0	0.108734
5570	0	0.108734
5571	0	0.108734
5572	0	0.108734
5573	0	0.108734
5574	0	0.108734
5575	0	0.104839
5576	0	0.104839
5577	0	0.104839
5578	0	0.104839
5579	0	0.104839
5580	0	0.104839
5581	0	0.104839
5582	0	0.104839
5583	0	0.104839
5584	0	0.104839
5585	0	0.104839
5586	0	0.104839
5587	0	0.104839
5588	0	0.104839
5589	0	0.104839
5590	0	0.104839
5591	0	0.104839
5592	0	0.104839
5593	0	0.104839
5594	0	0.110887
5595	0	0.118952
5596	0	0.116129
5597	0	0.111742
5598	0	0.111742
5599	0	0.111742
5600	0	0.202652
5601	0	0.229167
5602	0	0.229167
5603	0	0.229167
5604	0	0.229167
5605	0	0.229167
5606	0	0.229167
5607	0	0.257576
5608	0	0.257576
5609	0	0.257576
5610	0	0.244207
5611	0	0.244207
5612	0	0.244207
5613	0	0.242424
5614	0	0.242424
5615	0	0.264113
5616	0	0.198319
5617	0	0.203361
5618	0	0.192063
5619	0	0.192063
5620	0	0.192063
5621	0	0.192063
5622	0	0.192063
5623	0	0.192063
5624	0	0.192063
5625	0	0.204204
5626	0	0.204204
5627	0	0.193457
5628	0	0.193457
5629	0	0.193457
5630	0	0.193457
5631	0	0.184885
5632	0	0.184885
5633	0	0.187767
5634	0	0.160279
5635	0	0.160279
5636	0	0.152824
5637	0	0.145877
5638	0	0.139394
5639	0	0.133333
5640	0	0.133333
5641	0	0.133333
5642	0	0.133333
5643	0	0.12234
5644	0	0.121454
5645	0	0.121454
5646	0	0.107451
5647	0	0.107451
5648	0	0.103318
5649	0	0.103318
5650	0	0.0929293
5651	0	0.0929293
5652	0	0.0852995
5653	0	0.076679
5654	0	0.117603
5655	0	0.105482
5656	0	0.0938511
5657	0	0.0842369
5658	0	0.0787185
5659	0	0.573759
5660	0	0.142857
5661	0	0.142857
5662	0	0.0963365
5663	0	0.0532646
5664	0	0.0507071
5665	0	0.0511894
5666	0	0.0462206
5667	0	0.0438384
5668	0	0.0354545
5669	0	0.315252
5670	0	0.3
5671	0	0.3
5672	0	0.784314
5673	0	0.166667
5674	0	0.166667
5675	0	0.166667
5676	0	0.166667
5677	0	0.166667
5678	0	0.166667
5679	0	0.166667
5680	0	0.166667
5681	0	0.166667
5682	0	0.166667
5683	0	0.166667
5684	0	0.166667
5685	0	0.166667
5686	0	0.859259
5687	0	0.825589
5688	0	0.1
5689	0	0.1
5690	0	0.1
5691	0	0.1
5692	0	0.1
5693	0	0.1
5694	0	0.1
5695	0	0.1
5696	0	0.1
5697	0	0.1
5698	0	0.1
5699	0	0.1
5700	0	0.1
5701	0	0.1
5702	0	0.1
5703	0	0.1
5704	0	0.1
5705	0	0.1
5706	0	0.1
5707	0	0.1
5708	0	0.1
5709	0	0.1
5710	0	0.1
5711	0	0.1
5712	0	0.1
5713	0	0.1
5714	0	0.1
5715	0	0.1
5716	0	0.1
5717	0	0.1
5718	0	0.1
5719	0	0.1
5720	0	0.1
5721	0	0.1
5722	0	0.1
5723	0	0.1
5724	0	0.1
5725	0	0.1
5726	0	0.1
5727	0	0.1
5728	0	0.1
5729	0	0.1
5730	0	0.1
5731	0	0.1
5732	0	0.1
5733	0	0.1
5734	0	0.1
5735	0	0.1
5736	0	0.1
5737	0	0.1
5738	0	0.1
5739	0	0.1
5740	0	0.1
5741	0	0.1
5742	0	0.1
5743	0	0.1
5744	0	0.1
5745	0	0.1
5746	0	0.1
5747	0	0.1
5748	0	0.1
5749	0	0.1
5750	0	0.1
5751	0	0.1
5752	0	0.1
5753	0	0.1
5754	0	0.1
5755	0	0.1
5756	0	0.1
5757	0	0.1
5758	0	0.1
5759	0	0.1
5760	0	0.1
5761	0	0.1
5762	0	0.1
5763	0	0.1
5764	0	0.1
5765	0	0.1
5766	0	0.1
5767	0	0.1
5768	0	0.1
5769	0	0.1
5770	0	0.1
5771	0	0.1
5772	0	0.1
5773	0	0.1
5774	0	0.1
5775	0	0.1
5776	0	0.1
5777	0	0.1
5778	0	0.1
5779	0	0.1
5780	0	0.1
5781	0	0.1
5782	0	0.1
5783	0	0.1
5784	0	0.1
5785	0	0.1
5786	0	0.1
5787	0	0.1
5788	0	0.1
5789	0	0.1
5790	0	0.1
5791	0	0.1
5792	0	0.1
5793	0	0.1
5794	0	0.1
5795	0	0.1
5796	0	0.1
5797	0	0.1
5798	0	0.1
5799	0	0.1
5800	0	0.1
5801	0	0.1
5802	0	0.0666667
5803	0	0.426108
5804	0	0.397701
5805	0	0.397701
5806	0	0.0363636
5807	0	0.497922
5808	0	0.0769231
5809	0	0.0222222
5810	0	0.0277778
5811	0	0.0714286
5812	0	0
5813	0	0
5814	0	0
5815	0	0
5816	0	0
5817	0	0
5818	0	0
5819	0	0
5820	0	0
5821	0	0
5822	0	0
5823	0	0
5824	0	0
5825	0	0
5826	0	0
5827	0	0
5828	0	0
5829	0	0
5830	0	0
5831	0	0
5832	0	0
5833	0	0
5834	0	0
5835	0	0
5836	0	0
5837	0	0
5838	0	0
5839	0	0
5840	0	0
5841	0	0
5842	0	0
5843	0	0
5844	0	0
5845	0	0
5846	0	0
5847	0	0
5848	0	0
5849	0	0
5850	0	0
5851	0	0
5852	0	0
5853	0	0
5854	0	0
5855	0	0
5856	0	0.421538
5857	0	0.362434
5858	0	0.362434
5859	0	0.201581
5860	0	0.199145
5861	0	0
5862	0	0
5863	0	0
5864	0	0
5865	0	0
5866	0	0
5867	0	0
5868	0	0
5869	0	0
5870	0	0
5871	0	0
5872	0	0
5873	0	0
5874	0	0
5875	0	0
5876	0	0
5877	0	0
5878	0	0
5879	0	0
5880	0	0
5881	0	0
5882	0	0
5883	0	0
5884	0	0
5885	0	0
5886	0	0
5887	0	0
5888	0	0
5889	0	0
5890	0	0
5891	0	0
5892	0	0
5893	0	0
5894	0	0
5895	0	0
5896	0	0
5897	0	0
5898	0	0.166667
5899	0	0.166667
5900	0	0.166667
5901	0	0.166667
5902	0	0.166667
5903	0	0.166667
5904	0	0.166667
5905	0	0.166667
5906	0	0.166667
5907	0	0.166667
5908	0	0.166667
5909	0	0.166667
5910	0	0.166667
5911	0	0.166667
5912	0	0.166667
5913	0	0.166667
5914	0	0.166667
5915	0	0.166667
5916	0	0.166667
5917	0	0.166667
5918	0	0.166667
5919	0	0.1
5920	0	0.1
5921	0	0.1
5922	0	0.1
5923	0	0.1
5924	0	0.1
5925	0	0.1
5926	0	0.1
5927	0	0.1
5928	0	0.1
5929	0	0.1
5930	0	0.1
5931	0	0.1
5932	0	0.1
5933	0	0.1
5934	0	0.1
5935	0	0.1
5936	0	0.1
5937	0	0.1
5938	0	0.1
5939	0	0.1
5940	0	0.1
5941	0	0.1
5942	0	0.1
5943	0	0.1
5944	0	0.1
5945	0	0.1
5946	0	0.1
5947	0	0.1
5948	0	0.1
5949	0	0.1
5950	0	0.1
5951	0	0.0357143
5952	0	0.790239
5953	0	0.775739
5954	0	0.198041
5955	0	0.0719697
5956	0	0.0719697
5957	0	0.0766129
5958	0	0.0745968
5959	0	0.0700758
5960	0	0.0377104
5961	0	0.0384347
5962	0	0.0376623
5963	0	0.0367232
5964	0	0.0367232
5965	0	0.22624
5966	0	0
5967	0	0
5968	0	0
5969	0	0
5970	0	0
5971	0	0
5972	0	0
5973	0	0
5974	0	0
5975	0	0
5976	0	0
5977	0	0
5978	0	0
5979	0	0
5980	0	0
5981	0	0
5982	0	0
5983	0	0
5984	0	0
5985	0	0
5986	0	0
5987	0	0
5988	0	0
5989	0	0
5990	0	0
5991	0	0
5992	0	0
5993	0	0
5994	0	0
5995	0	0
5996	0	0
5997	0	0
5998	0	0
5999	0	0
6000	0	0
6001	0	0
6002	0	0
6003	0	0
6004	0	0
6005	0	0
6006	0	0
6007	0	0
6008	0	0
6009	0	0
6010	0	0
6011	0	0
6012	0	0
6013	0	0
6014	0	0
6015	0	0
6016	0	0
6017	0	0
6018	0	0
6019	0	0
6020	0	0
6021	0	0
6022	0	0
6023	0	0
6024	0	0
6025	0	0
6026	0	0
6027	0	0
6028	0	0
6029	0	0
6030	0	0
6031	0	0
6032	0	0.1
6033	0	0.1
6034	0	0.1
6035	0	0.1
6036	0	0.1
6037	0	0.2
6038	0	0.285714
6039	0	0.285714
6040	0	0.357143
6041	0	0.357143
6042	0	0.357143
6043	0	0.357143
6044	0	0.357143
6045	0	0.357143
6046	0	0.357143
6047	0	0.357143
6048	0	0.305556
6049	0	0.305556
6050	0	0.305556
6051	0	0.305556
6052	0	0.305556
6053	0	0.218182
6054	0	0.218182
6055	0	0.132353
6056	0	0.108696
6057	0	0.1133
6058	0	0.1133
6059	0	0.0748782
6060	0	0.0742076
6061	0	0.0822184
6062	0	0.0849958
6063	0	0.0851998
6064	0	0.0913546
6065	0	0.0811798
6066	0	0.082239
6067	0	0.0759074
6068	0	0.0836428
6069	0	0.0850903
6070	0	0.099069
6071	0	0.0982711
6072	0	0.0977814
6073	0	0.101228
6074	0	0.0503396
6075	0	0.0553516
6076	0	0.0546764
6077	0	0.0625166
6078	0	0.0803998
6079	0	0.0875237
6080	0	0.116662
6081	0	0.159834
6082	0	0.159834
6083	0	0.169447
6084	0	0.169447
6085	0	0.185577
6086	0	0.160577
6087	0	0.171019
6088	0	0.208743
6089	0	0.186441
6090	0	0.185876
6091	0	0.185876
6092	0	0.166667
6093	0	0.166667
6094	0	0.215819
6095	0	0.215819
6096	0	0.215819
6097	0	0.215819
6098	0	0.20929
6099	0	0.20929
6100	0	0.20929
6101	0	0.20929
6102	0	0.20929
6103	0	0.223261
6104	0	0.222677
6105	0	0.222677
6106	0	0.222677
6107	0	0.222677
6108	0	0.222677
6109	0	0.23049
6110	0	0.23049
6111	0	0.23049
6112	0	0.23049
6113	0	0.204654
6114	0	0.204654
6115	0	0.204654
6116	0	0.209836
6117	0	0.23049
6118	0	0.23049
6119	0	0.238722
6120	0	0.256566
6121	0	0.296471
6122	0	0.308571
6123	0	0.335106
6124	0	0.335106
6125	0	0.335106
6126	0	0.335106
6127	0	0.335106
6128	0	0.335106
6129	0	0.335106
6130	0	0.349676
6131	0	0.349676
6132	0	0.349676
6133	0	0.349676
6134	0	0.349676
6135	0	0.349676
6136	0	0.349676
6137	0	0.301573
6138	0	0.301573
6139	0	0.301573
6140	0	0.301573
6141	0	0.301573
6142	0	0.301573
6143	0	0.217391
6144	0	0.217391
6145	0	0.185939
6146	0	0.185939
6147	0	0.194203
6148	0	0.194203
6149	0	0.194203
6150	0	0.20303
6151	0	0.20303
6152	0	0.20303
6153	0	0.20303
6154	0	0.20303
6155	0	0.20303
6156	0	0.211416
6157	0	0.191332
6158	0	0.207188
6159	0	0.207188
6160	0	0.207188
6161	0	0.207188
6162	0	0.207188
6163	0	0.207188
6164	0	0.207188
6165	0	0.207188
6166	0	0.207188
6167	0	0.207188
6168	0	0.207188
6169	0	0.207188
6170	0	0.207188
6171	0	0.207188
6172	0	0.207188
6173	0	0.207188
6174	0	0.207188
6175	0	0.207188
6176	0	0.207188
6177	0	0.207188
6178	0	0.207188
6179	0	0.207188
6180	0	0.217054
6181	0	0.217054
6182	0	0.196013
6183	0	0.196013
6184	0	0.196013
6185	0	0.196013
6186	0	0.196013
6187	0	0.196013
6188	0	0.196013
6189	0	0.196013
6190	0	0.196013
6191	0	0.196013
6192	0	0.205575
6193	0	0.205575
6194	0	0.205575
6195	0	0.205575
6196	0	0.205575
6197	0	0.205575
6198	0	0.205575
6199	0	0.205575
6200	0	0.205575
6201	0	0.205575
6202	0	0.205575
6203	0	0.205575
6204	0	0.205575
6205	0	0.205575
6206	0	0.205575
6207	0	0.205575
6208	0	0.205575
6209	0	0.205575
6210	0	0.205575
6211	0	0.205575
6212	0	0.205575
6213	0	0.205575
6214	0	0.205575
6215	0	0.205575
6216	0	0.205575
6217	0	0.205575
6218	0	0.205575
6219	0	0.205575
6220	0	0.205575
6221	0	0.205575
6222	0	0.205575
6223	0	0.205575
6224	0	0.205575
6225	0	0.205575
6226	0	0.205575
6227	0	0.205575
6228	0	0.205575
6229	0	0.215854
6230	0	0.226923
6231	0	0.238866
6232	0	0.238866
6233	0	0.238866
6234	0	0.226174
6235	0	0.226174
6236	0	0.226174
6237	0	0.226174
6238	0	0.226174
6239	0	0.226174
6240	0	0.226174
6241	0	0.226174
6242	0	0.226174
6243	0	0.226174
6244	0	0.238739
6245	0	0.238739
6246	0	0.238739
6247	0	0.238739
6248	0	0.214715
6249	0	0.201587
6250	0	0.174688
6251	0	0.185606
6252	0	0.174688
6253	0	0.0891266
6254	0	0.0980392
6255	0	0.100379
6256	0	0.100379
6257	0	0.106855
6258	0	0.106855
6259	0	0.106855
6260	0	0.106855
6261	0	0.106855
6262	0	0.113978
6263	0	0.113978
6264	0	0.111828
6265	0	0.111828
6266	0	0.0967742
6267	0	0.0946237
6268	0	0.083871
6269	0	0.083871
6270	0	0.083871
6271	0	0.0960591
6272	0	0.0960591
6273	0	0.0960591
6274	0	0.0948617
6275	0	0.0948617
6276	0	0.0948617
6277	0	0.1
6278	0	0.110526
6279	0	0
6280	0	0
6281	0	0
6282	0	0
6283	0	0
6284	0	0
6285	0	0
6286	0	0
6287	0	0
6288	0	0
6289	0	0
6290	0	0
6291	0	0
6292	0	0
6293	0	0
6294	0	0
6295	0	0
6296	0	0
6297	0	0
6298	0	0
6299	0	0
6300	0	0
6301	0	0
6302	0	0
6303	0	0
6304	0	0
6305	0	0
6306	0	0
6307	0	0
6308	0	0
6309	0	0
6310	0	0
6311	0	0
6312	0	0
6313	0	0
6314	0	0
6315	0	0
6316	0	0
6317	0	0
6318	0	0
6319	0	0
6320	0	0
6321	0	0
6322	0	0
6323	0	0
6324	0	0
6325	0	0
6326	0	0
6327	0	0
6328	0	0
6329	0	0
6330	0	0
6331	0	0
6332	0	0
6333	0	0
6334	0	0.047619
6335	0	0
6336	0	0
6337	0	0
6338	0	0
6339	0	0
6340	0	0
6341	0	0
6342	0	0
6343	0	0
6344	0	0
6345	0	0
6346	0	0
6347	0	0
6348	0	0
6349	0	0
6350	0	0
6351	0	0
6352	0	0
6353	0	0
6354	0	0
6355	0	0
6356	0	0
6357	0	0
6358	0	0
6359	0	0
6360	0	0
6361	0	0
6362	0	0
6363	0	0
6364	0	0
6365	0	0
6366	0	0
6367	0	0
6368	0	0
6369	0	0
6370	0	0
6371	0	0
6372	0	0
6373	0	0
6374	0	0
6375	0	0
6376	0	0
6377	0	0
6378	0	0
6379	0	0
6380	0	0
6381	0	0
6382	0	0
6383	0	0
6384	0	0
6385	0	0
6386	0	0
6387	0	0
6388	0	0
6389	0	0
6390	0	0
6391	0	0
6392	0	0
6393	0	0
6394	0	0
6395	0	0
6396	0	0
6397	0	0
6398	0	0
6399	0	0
6400	0	0
6401	0	0
6402	0	0
6403	0	0
6404	0	0
6405	0	0
6406	0	0
6407	0	0
6408	0	0
6409	0	0
6410	0	0
6411	0	0
6412	0	0
6413	0	0
6414	0	0
6415	0	0
6416	0	0
6417	0	0
6418	0	0
6419	0	0
6420	0	0
6421	0	0
6422	0	0
6423	0	0
6424	0	0
6425	0	0
6426	0	0
6427	0	0
6428	0	0
6429	0	0
6430	0	0
6431	0	0
6432	0	0
6433	0	0
6434	0	0
6435	0	0
6436	0	0
6437	0	0
6438	0	0
6439	0	0
6440	0	0
6441	0	0
6442	0	0
6443	0	0
6444	0	0
6445	0	0
6446	0	0
6447	0	0
6448	0	0
6449	0	0
6450	0	0
6451	0	0
6452	0	0
6453	0	0
6454	0	0
6455	0	0
6456	0	0
6457	0	0
6458	0	0
6459	0	0
6460	0	0
6461	0	0
6462	0	0
6463	0	0
6464	0	0
6465	0	0
6466	0	0
6467	0	0
6468	0	0
6469	0	0
6470	0	0
6471	0	0
6472	0	0
6473	0	0
6474	0	0
6475	0	0
6476	0	0
6477	0	0
6478	0	0
6479	0	0
6480	0	0
6481	0	0
6482	0	0
6483	0	0
6484	0	0
6485	0	0
6486	0	0
6487	0	0
6488	0	0
6489	0	0
6490	0	0
6491	0	0
6492	0	0
6493	0	0
6494	0	0
6495	0	0
6496	0	0
6497	0	0
6498	0	0
6499	0	0
6500	0	0
6501	0	0
6502	0	0
6503	0	0
6504	0	0
6505	0	0
6506	0	0
6507	0	0
6508	0	0
6509	0	0
6510	0	0
6511	0	0
6512	0	0
6513	0	0
6514	0	0
6515	0	0
6516	0	0
6517	0	0
6518	0	0
6519	0	0
6520	0	0
6521	0	0
6522	0	0
6523	0	0
6524	0	0
6525	0	0
6526	0	0
6527	0	0
6528	0	0
6529	0	0
6530	0	0
6531	0	0
6532	0	0
6533	0	0
6534	0	0
6535	0	0
6536	0	0
6537	0	0
6538	0	0
6539	0	0
6540	0	0
6541	0	0
6542	0	0
6543	0	0
6544	0	0
6545	0	0
6546	0	0
6547	0	0
6548	0	0
6549	0	0
6550	0	0
6551	0	0
6552	0	0
6553	0	0
6554	0	0
6555	0	0
6556	0	0
6557	0	0
6558	0	0
6559	0	0
6560	0	0
6561	0	0
6562	0	0
6563	0	0
6564	0	0
6565	0	0
6566	0	0
6567	0	0
6568	0	0
6569	0	0
6570	0	0
6571	0	0
6572	0	0
6573	0	0
6574	0	0
6575	0	0
6576	0	0
6577	0	0
6578	0	0
6579	0	0
6580	0	0
6581	0	0
6582	0	0
6583	0	0
6584	0	0
6585	0	0
6586	0	0
6587	0	0
6588	0	0
6589	0	0
6590	0	0
6591	0	0
6592	0	0
6593	0	0
6594	0	0
6595	0	0
6596	0	0
6597	0	0
6598	0	0
6599	0	0
6600	0	0
6601	0	0
6602	0	0
6603	0	0
6604	0	0
6605	0	0
6606	0	0
6607	0	0
6608	0	0
6609	0	0
6610	0	0
6611	0	0
6612	0	0
6613	0	0
6614	0	0
6615	0	0
6616	0	0
6617	0	0
6618	0	0
6619	0	0
6620	0	0
6621	0	0
6622	0	0
6623	0	0
6624	0	0
6625	0	0
6626	0	0
6627	0	0
6628	0	0
6629	0	0
6630	0	0
6631	0	0
6632	0	0
6633	0	0
6634	0	0
6635	0	0
6636	0	0
6637	0	0
6638	0	0
6639	0	0
6640	0	0
6641	0	0
6642	0	0
6643	0	0
6644	0	0
6645	0	0
6646	0	0
6647	0	0
6648	0	0
6649	0	0
6650	0	0
6651	0	0
6652	0	0
6653	0	0
6654	0	0
6655	0	0
6656	0	0
6657	0	0.631579
6658	0	0.631579
6659	0	0.631579
6660	0	0.631579
6661	0	0.701754
6662	0	0
6663	0	0
6664	0	0
6665	0	0
6666	0	0
6667	0	0
6668	0	0
6669	0	0
6670	0	0
6671	0	0
6672	0	0
6673	0	0
6674	0	0
6675	0	0
6676	0	0
6677	0	0
6678	0	0
6679	0	0
6680	0	0
6681	0	0
6682	0	0
6683	0	0
6684	0	0
6685	0	0
6686	0	0
6687	0	0
6688	0	0
6689	0	0
6690	0	0
6691	0	0
6692	0	0
6693	0	0
6694	0	0
6695	0	0
6696	0	0
6697	0	0
6698	0	0
6699	0	0
6700	0	0
6701	0	0
6702	0	0
6703	0	0
6704	0	0
6705	0	0
6706	0	0
6707	0	0
6708	0	0
6709	0	0
6710	0	0
6711	0	0
6712	0	0
6713	0	0
6714	0	0
6715	0	0
6716	0	0
6717	0	0
6718	0	0
6719	0	0
6720	0	0
6721	0	0
6722	0	0
6723	0	0
6724	0	0
6725	0	0
6726	0	0
6727	0	0
6728	0	0
6729	0	0
6730	0	0
6731	0	0
6732	0	0
6733	0	0
6734	0	0
6735	0	0
6736	0	0
6737	0	0
6738	0	0
6739	0	0
6740	0	0
6741	0	0
6742	0	0
6743	0	0
6744	0	0
6745	0	0
6746	0	0
6747	0	0
6748	0	0
6749	0	0
6750	0	0
6751	0	0
6752	0	0
6753	0	0
6754	0	0
6755	0	0
6756	0	0
6757	0	0
6758	0	0
6759	0	0
6760	0	0
6761	0	0
6762	0	0
6763	0	0
6764	0	0
6765	0	0
6766	0	0
6767	0	0
6768	0	0
6769	0	0
6770	0	0
6771	0	0
6772	0	0
6773	1	0
6774	1	0
6775	0	0
6776	0	0
6777	0	0
6778	0	0
6779	0	0
6780	0	0
6781	0	0
6782	0	0
6783	0	0
6784	0	0
6785	0	0
6786	0	0
6787	0	0
6788	0	0
6789	0	0
6790	0	0
6791	0	0
6792	0	0
6793	0	0
6794	0	0
6795	0	0
6796	0	0
6797	0	0
6798	0	0
6799	0	0
6800	0	0
6801	0	0
6802	0	0
6803	0	0
6804	0	0
6805	0	0
6806	0	0
6807	0	0
6808	0	0
