Site	ColumnScore	SumOfPairsScore
1	0	0
2	0	0
3	0	0
4	0	0
5	0	0
6	0	0
7	0	0
8	0	0
9	0	0
10	0	0
11	0	0
12	0	0
13	0	0
14	0	0
15	0	0
16	0	0
17	0	0
18	0	0
19	0	0
20	0	0
21	0	0
22	0	0
23	0	0
24	0	0
25	0	0
26	0	0
27	0	0
28	0	0
29	0	0
30	0	0
31	0	0
32	0	0
33	0	0
34	0	0
35	0	0
36	0	0
37	0	0
38	0	0
39	0	0
40	1	0
41	0	0
42	0	0
43	0	0
44	0	0
45	0	0
46	0	0
47	0	0
48	0	0
49	0	0
50	0	0
51	0	0
52	0	0
53	0	0
54	0	0
55	0	0
56	0	0
57	0	0
58	0	0
59	0	0
60	0	0
61	0	0
62	0	0
63	0	0
64	0	0
65	0	0
66	0	0
67	0	0
68	0	0
69	0	0
70	0	0
71	0	0
72	0	0
73	0	0
74	0	0
75	0	0
76	0	0
77	0	0
78	0	0
79	0	0
80	0	0
81	0	0
82	0	0
83	0	0
84	0	0
85	0	0
86	0	0
87	0	0
88	0	0
89	0	0
90	0	0
91	0	0
92	0	0
93	0	0
94	0	0
95	1	0
96	1	0
97	1	0
98	1	0
99	1	0
100	1	0
101	1	0
102	1	0
103	1	0
104	1	0
105	1	0
106	1	0
107	0	0
108	0	0
109	0	0
110	0	0
111	0	0
112	0	0
113	0	0
114	0	0
115	0	0
116	0	0
117	0	0
118	0	0
119	0	0
120	0	0
121	0	0
122	0	0
123	0	0
124	0	0
125	0	0
126	0	0
127	0	0
128	0	0
129	0	0
130	0	0
131	0	0
132	0	0
133	0	0
134	0	0
135	0	0
136	0	0
137	0	0
138	0	0
139	0	0
140	0	0
141	0	0
142	0	0
143	0	0
144	0	0
145	0	0
146	0	0
147	0	0
148	0	0
149	0	0
150	0	0
151	0	0
152	0	0
153	0	0
154	0	0
155	0	0
156	0	0
157	0	0
158	0	0
159	0	0
160	0	0
161	0	0
162	0	0
163	0	0
164	0	0
165	0	0.333333
166	0	0.333333
167	0	0.333333
168	0	0.333333
169	0	0.333333
170	0	0.333333
171	0	0.333333
172	0	0.333333
173	0	0.333333
174	0	0.333333
175	0	0.333333
176	0	0.333333
177	0	0.333333
178	0	0.333333
179	0	0.333333
180	0	0.333333
181	0	0.333333
182	0	0.333333
183	0	0.333333
184	0	0.333333
185	0	0.333333
186	0	0.333333
187	0	0.333333
188	0	0.333333
189	0	0.333333
190	0	0.333333
191	0	0.333333
192	0	0.333333
193	0	0.333333
194	0	0.333333
195	0	0.333333
196	0	0.333333
197	0	0.333333
198	0	0.333333
199	0	0.333333
200	0	0.333333
201	0	0.333333
202	0	0.333333
203	0	0.333333
204	0	0.333333
205	0	0.333333
206	0	0.333333
207	0	0.333333
208	0	0.333333
209	0	0.333333
210	0	0.333333
211	0	0.333333
212	0	0.333333
213	0	0.333333
214	0	0.333333
215	0	0.333333
216	0	0.333333
217	0	0.333333
218	0	0.333333
219	0	0.333333
220	0	0.333333
221	0	0.333333
222	0	0.333333
223	0	0.333333
224	0	0.333333
225	0	0.333333
226	0	0.333333
227	0	0.333333
228	0	0.333333
229	0	0.333333
230	0	0.333333
231	0	0.333333
232	0	0.333333
233	0	0.333333
234	0	0.333333
235	0	0.333333
236	0	0.333333
237	0	0.333333
238	0	0.333333
239	0	0.333333
240	0	0.333333
241	0	0.333333
242	0	0.333333
243	0	0.333333
244	0	0
245	0	0
246	0	0
247	0	0
248	0	0
249	0	0
250	0	0
251	0	0
252	0	0
253	0	0
254	0	0
255	0	0
256	0	0
257	0	0
258	0	0
259	0	0
260	0	0
261	0	0
262	0	0
263	0	0
264	0	0
265	0	0
266	0	0.333333
267	0	0.333333
268	0	0.333333
269	0	0.333333
270	0	0.333333
271	0	0.333333
272	0	0.333333
273	0	0.333333
274	0	0.333333
275	0	0.333333
276	0	0.333333
277	0	0.333333
278	0	0.333333
279	0	0.166667
280	0	0.166667
281	0	0.166667
282	0	0.166667
283	0	0.166667
284	0	0.166667
285	0	0.166667
286	0	0.166667
287	0	0.166667
288	0	0.166667
289	0	0.1
290	0	0.1
291	0	0.1
292	0	0.1
293	0	0.1
294	0	0.1
295	0	0.1
296	0	0.1
297	0	0.1
298	0	0.1
299	0	0.1
300	0	0.1
301	0	0.1
302	0	0.1
303	0	0.1
304	0	0.1
305	0	0.1
306	0	0.0666667
307	0	0.0666667
308	0	0.0666667
309	0	0.0666667
310	0	0.0666667
311	0	0.0666667
312	0	0.0666667
313	0	0.0666667
314	0	0.0666667
315	0	0.0666667
316	0	0.0666667
317	0	0.0666667
318	0	0.0666667
319	0	0.0666667
320	0	0.0666667
321	0	0.0666667
322	0	0.0666667
323	0	0.0666667
324	0	0.0666667
325	0	0.0666667
326	0	0.0666667
327	0	0.0666667
328	0	0.0666667
329	0	0.0666667
330	0	0.0666667
331	0	0.0666667
332	0	0.0666667
333	0	0.0666667
334	0	0.0666667
335	0	0.0666667
336	0	0.0666667
337	0	0.0666667
338	0	0.0666667
339	0	0.0666667
340	0	0.0666667
341	0	0.0666667
342	0	0.0666667
343	0	0.0666667
344	0	0.0666667
345	0	0.0666667
346	0	0.0666667
347	0	0.0666667
348	0	0.0666667
349	0	0.0666667
350	0	0.0666667
351	0	0.0666667
352	0	0.0666667
353	0	0.0666667
354	0	0.0666667
355	0	0.0666667
356	0	0.0666667
357	0	0.0666667
358	0	0.0666667
359	0	0.0666667
360	0	0.0666667
361	0	0.0666667
362	0	0.0666667
363	0	0.0666667
364	0	0.0666667
365	0	0.0666667
366	0	0.0666667
367	0	0.0666667
368	0	0.0666667
369	0	0.0666667
370	0	0.0666667
371	0	0.0666667
372	0	0.0666667
373	0	0.0666667
374	0	0.0666667
375	0	0.0666667
376	0	0.0666667
377	0	0.0666667
378	0	0.0666667
379	0	0.0666667
380	0	0.0666667
381	0	0.0666667
382	0	0.0666667
383	0	0.0666667
384	0	0.0666667
385	0	0.0666667
386	0	0.0666667
387	0	0.0666667
388	0	0.047619
389	0	0.047619
390	0	0.047619
391	0	0.047619
392	0	0.047619
393	0	0.047619
394	0	0.047619
395	0	0.047619
396	0	0.047619
397	0	0.047619
398	0	0.047619
399	0	0.047619
400	0	0.047619
401	0	0.047619
402	0	0.047619
403	0	0.047619
404	0	0.047619
405	0	0.0357143
406	0	0.0357143
407	0	0.0357143
408	0	0.0357143
409	0	0.0714286
410	0	0.0666667
411	0	0.0666667
412	0	0.0666667
413	0	0.0444444
414	0	0.0444444
415	0	0.0444444
416	0	0.0444444
417	0	0.0444444
418	0	0.0444444
419	0	0.0444444
420	0	0.0444444
421	0	0.0444444
422	0	0.0444444
423	0	0.0444444
424	0	0.0444444
425	0	0.0444444
426	0	0.0444444
427	0	0.0444444
428	0	0.0444444
429	0	0.0222222
430	0	0.0222222
431	0	0.0363636
432	0	0.0363636
433	0	0.0363636
434	0	0.0363636
435	0	0.0363636
436	0	0.0363636
437	0	0.0363636
438	0	0.0727273
439	0	0.0727273
440	0	0.0727273
441	0	0.0606061
442	0	0.0606061
443	0	0.0454545
444	0	0.0454545
445	0	0.0909091
446	0	0.0769231
447	0	0.0659341
448	0	0.0659341
449	0	0.0659341
450	0	0.0659341
451	0	0.0769231
452	0	0.0916667
453	0	0.117647
454	0	0.169591
455	0	0.169591
456	0	0.12987
457	0	0.123106
458	0	0.0859466
459	0	0.105834
460	0	0.146631
461	0	0.132442
462	0	0.0847484
463	0	0.235676
464	0	0.216638
465	0	0.296105
466	0	0.292405
467	0	0
468	0	0
469	0	0.0307692
470	0	0.03
471	0	0.0210526
472	0	0.0157895
473	0	0.0157895
474	0	0.0333333
475	0	0.034188
476	0	0.30318
477	0	0.300649
478	0	0
479	0	0
480	0	0
481	0	0
482	0	0
483	0	0
484	0	0
485	0	0
486	0	0
487	0	0
488	0	0
489	0	0
490	0	0
491	1	0
492	1	0
493	1	0
494	1	0
495	1	0
496	1	0
497	1	0
498	1	0
499	1	0
500	1	0
501	1	0
502	1	0
503	1	0
504	1	0
505	1	0
506	1	0
507	0	0
508	0	0
509	0	0
510	0	0
511	0	0
512	0	0
513	1	0
514	1	0
515	1	0
516	1	0
517	1	0
518	1	0
519	0	0
520	0	0
521	0	0
522	0	0
523	0	0
524	1	0
525	1	0
526	1	0
527	1	0
528	1	0
529	0	0
530	0	0
531	0	0
532	0	0
533	0	0
534	0	0
535	0	0
536	0	0
537	0	0
538	0	0
539	0	0
540	0	0
541	0	0
542	1	0
543	1	0
544	1	0
545	1	0
546	1	0
547	1	0
548	1	0
549	1	0
550	1	0
551	1	0
552	1	0
553	1	0
554	0	0
555	0	0
556	0	0
557	0	0
558	0	0
559	0	0
560	0	0
561	0	0
562	0	0
563	0	0
564	0	0
565	0	0
566	0	0
567	0	0
568	0	0
569	0	0
570	0	0
571	0	0
572	0	0
573	0	0
574	0	0
575	0	0
576	0	0
577	0	0
578	0	0
579	0	0
580	0	0
581	0	0
582	0	0
583	0	0
584	0	0
585	0	0
586	0	0
587	0	0
588	0	0
589	0	0
590	0	0
591	0	0
592	0	0
593	0	0
594	0	0
595	0	0
596	0	0
597	0	0
598	0	0
599	0	0
600	0	0
601	0	0
602	0	0
603	0	0
604	0	0
605	0	0
606	0	0
607	0	0
608	0	0
609	0	0
610	0	0
611	0	0
612	0	0
613	0	0
614	0	0
615	0	0
616	0	0
617	0	0
618	0	0
619	0	0
620	0	0
621	0	0
622	0	0
623	0	0
624	0	0
625	0	0
626	0	0
627	0	0
628	0	0
629	0	0
630	0	0
631	0	0
632	0	0
633	0	0
634	0	0
635	0	0
636	0	0
637	0	0
638	0	0
639	0	0
640	0	0
641	0	0
642	0	0
643	0	0
644	0	0
645	0	0
646	0	0
647	0	0
648	0	0
649	0	0
650	0	0
651	0	0
652	0	0
653	0	0
654	0	0
655	0	0
656	0	0
657	0	0
658	0	0
659	0	0
660	0	0
661	0	0
662	0	0
663	0	0
664	0	0
665	0	0
666	1	0
667	1	0
668	1	0
669	1	0
670	1	0
671	1	0
672	1	0
673	0	0
674	0	0
675	0	0
676	0	0
677	0	0
678	0	0
679	0	0
680	0	0
681	0	0
682	0	0
683	0	0
684	0	0
685	0	0
686	0	0
687	0	0
688	0	0
689	0	0
690	0	0
691	0	0
692	0	0
693	0	0
694	0	0
695	0	0
696	0	0
697	0	0
698	0	0
699	0	0
700	0	0
701	0	0
702	0	0
703	0	0
704	0	0
705	0	0
706	0	0
707	0	0
708	0	0
709	0	0
710	0	0
711	0	0
712	0	0
713	0	0
714	0	0
715	0	0
716	0	0
717	0	0
718	0	0
719	0	0
720	0	0
721	0	0
722	0	0
723	0	0
724	0	0
725	0	0
726	0	0
727	1	0
728	0	0
729	0	0
730	0	0
731	0	0
732	0	0
733	0	0
734	0	0
735	0	0
736	0	0
737	0	0
738	0	0
739	0	0
740	0	0
741	0	0
742	0	0
743	0	0
744	0	0
745	0	0
746	0	0
747	0	0
748	0	0
749	0	0
750	0	0
751	0	0
752	0	0
753	0	0
754	0	0
755	0	0
756	0	0
757	0	0
758	0	0
759	0	0
760	0	0
761	0	0
762	0	0
763	0	0
764	0	0
765	0	0
766	0	0
767	0	0
768	0	0
769	0	0
770	0	0
771	0	0
772	0	0
773	0	0
774	0	0
775	0	0
776	0	0
777	0	0
778	0	0
779	0	0
780	0	0
781	0	0
782	0	0
783	0	0
784	0	0
785	0	0
786	0	0
787	0	0
788	0	0
789	0	0
790	0	0
791	0	0
792	0	0
793	0	0
794	0	0
795	0	0
796	0	0
797	0	0
798	0	0
799	0	0
800	0	0
801	0	0
802	0	0
803	0	0
804	0	0
805	0	0
806	0	0
807	0	0
808	0	0
809	0	0
810	0	0
811	0	0
812	0	0
813	0	0
814	0	0
815	0	0
816	0	0
817	0	0
818	0	0
819	0	0
820	0	0
821	0	0
822	0	0
823	0	0
824	0	0
825	0	0
826	0	0
827	0	0
828	0	0
829	0	0
830	0	0
831	0	0
832	0	0
833	0	0
834	0	0
835	0	0
836	0	0
837	0	0
838	0	0
839	0	0
840	0	0
841	0	0
842	0	0
843	0	0
844	0	0
845	0	0
846	0	0
847	0	0
848	0	0
849	0	0
850	0	0
851	0	0
852	0	0
853	0	0
854	0	0
855	0	0
856	0	0
857	0	0
858	0	0
859	0	0
860	0	0
861	0	0
862	0	0
863	0	0
864	0	0
865	0	0
866	0	0
867	0	0
868	0	0
869	0	0
870	0	0
871	0	0
872	0	0
873	0	0
874	0	0
875	0	0
876	0	0
877	0	0
878	0	0
879	0	0
880	0	0
881	0	0
882	0	0
883	0	0
884	0	0
885	0	0
886	0	0
887	0	0
888	0	0
889	0	0
890	0	0
891	0	0
892	0	0
893	0	0
894	0	0
895	0	0
896	0	0
897	0	0
898	0	0
899	0	0
900	0	0
901	0	0
902	0	0
903	0	0
904	0	0
905	0	0
906	0	0
907	0	0
908	0	0
909	0	0
910	0	0
911	0	0
912	0	0
913	0	0
914	0	0
915	0	0
916	0	0
917	0	0
918	0	0
919	0	0
920	0	0
921	0	0
922	0	0
923	0	0
924	0	0
925	0	0
926	0	0
927	0	0
928	0	0
929	0	0
930	0	0
931	0	0
932	0	0
933	0	0
934	0	0
935	0	0
936	0	0
937	0	0
938	0	0
939	0	0
940	0	0
941	0	0
942	0	0
943	0	0
944	0	0
945	0	0
946	0	0
947	0	0
948	0	0
949	0	0
950	0	0
951	0	0
952	0	0
953	0	0
954	0	0
955	0	0
956	0	0
957	0	0
958	0	0
959	0	0
960	0	0
961	0	0
962	0	0
963	0	0
964	0	0
965	0	0
966	0	0
967	0	0
968	0	0
969	0	0
970	0	0
971	0	0
972	0	0
973	0	0
974	0	0
975	0	0
976	0	0
977	0	0
978	0	0
979	0	0
980	0	0
981	0	0
982	0	0
983	0	0
984	0	0
985	0	0
986	0	0
987	0	0
988	0	0
989	0	0
990	0	0
991	0	0
992	0	0
993	0	0
994	0	0
995	0	0
996	0	0
997	0	0
998	0	0
999	0	0
1000	0	0
1001	0	0
1002	0	0
1003	0	0
1004	0	0
1005	0	0
1006	0	0
1007	0	0
1008	0	0
1009	0	0
1010	0	0
1011	0	0
1012	0	0
1013	0	0
1014	0	0
1015	0	0
1016	0	0
1017	0	0
1018	0	0
1019	0	0
1020	0	0
1021	0	0
1022	0	0
1023	0	0
1024	0	0
1025	0	0
1026	0	0.2
1027	0	0.1
1028	0	0.1
1029	0	0.1
1030	0	0.0666667
1031	0	0.0666667
1032	0	0.142857
1033	0	0.047619
1034	0	0.0952381
1035	0	0.0714286
1036	0	0.0444444
1037	0	0.0879121
1038	0	0.0606061
1039	0	0.272924
1040	0	0
1041	0	0
1042	0	0.0409357
1043	0	0.0467836
1044	0	0
1045	0	0.166667
1046	0	0.0292398
1047	0	0.0292398
1048	0	0.0196078
1049	0	0.0261438
1050	0	0.0190476
1051	0	0.021645
1052	0	0.247948
1053	0	0.165683
1054	0	0.27013
1055	0	0.272078
1056	0	0.263158
1057	0	0.262531
1058	0	0.297619
1059	0	0.118353
1060	0	0.047619
1061	0	0.047619
1062	0	0.0952381
1063	0	0.0666667
1064	0	0.0520344
1065	0	0.138312
1066	0	0
1067	0	0
1068	0	0
1069	0	0
1070	0	0
1071	0	0
1072	0	0
1073	0	0
1074	0	0
1075	0	0
1076	0	0
1077	0	0
1078	0	0
1079	0	0
1080	0	0
1081	0	0
1082	0	0
1083	0	0
1084	0	0
1085	0	0
1086	0	0
1087	0	0
1088	0	0
1089	0	0
1090	0	0.246338
1091	0	0.19251
1092	0	0
1093	0	0
1094	0	0
1095	0	0
1096	0	0
1097	0	0
1098	0	0
1099	0	0
1100	0	0
1101	0	0
1102	0	0
1103	0	0
1104	0	0
1105	0	0
1106	0	0
1107	0	0
1108	0	0
1109	0	0
1110	0	0
1111	0	0
1112	0	0
1113	0	0
1114	0	0
1115	0	0
1116	0	0
1117	0	0
1118	0	0
1119	0	0
1120	0	0
1121	0	0
1122	0	0.123086
1123	0	0
1124	0	0
1125	0	0
1126	0	0
1127	0	0
1128	0	0
1129	0	0.0316206
1130	0	0.038961
1131	0	0.14845
1132	0	0.243478
1133	0	0.240994
1134	0	0.262148
1135	0	0.276215
1136	0	0.281826
1137	0	0.281387
1138	0	0.139131
1139	0	0.278788
1140	0	0.182148
1141	0	0.293363
1142	0	0.293363
1143	0	0.302745
1144	0	0.21447
1145	0	0.193431
1146	0	0.183554
1147	0	0.0606061
1148	0	0.0277778
1149	0	0
1150	0	0
1151	0	0
1152	0	0
1153	0	0
1154	0	0
1155	0	0
1156	0	0.311232
1157	0	0.0277778
1158	0	0.0277778
1159	0	0.0277778
1160	0	0.0277778
1161	0	0.0277778
1162	0	0.0277778
1163	0	0
1164	0	0
1165	0	0.0277778
1166	0	0.378571
1167	0	0.289002
1168	0	0.229436
1169	0	0.215431
1170	0	0.599797
1171	0	0.602343
1172	0	0.0952381
1173	0	0.0952381
1174	0	0.0952381
1175	0	0.0952381
1176	0	0.0916667
1177	0	0.160216
1178	0	0.0384615
1179	0	0.0384615
1180	0	0.0384615
1181	0	0.142857
1182	0	0.125
1183	0	0.200238
1184	0	0.0337662
1185	0	0.0341074
1186	0	0.0388529
1187	0	0.0460705
1188	0	0.0472222
1189	0	0.0500782
1190	0	0.0494737
1191	0	0.0699793
1192	0	0.0769724
1193	0	0.210291
1194	0	0.0932839
1195	0	0.121273
1196	0	0.0222222
1197	0	0.0357143
1198	0	0.0357143
1199	0	0.0666667
1200	0	0.0666667
1201	0	0.0357143
1202	0	0.151203
1203	0	0.418876
1204	0	0.0885756
1205	0	0.0915824
1206	0	0.0914918
1207	0	0.222397
1208	0	0.641704
1209	0	0.672101
1210	0	0.0714286
1211	0	0.0916667
1212	0	0
1213	0	0
1214	0	0
1215	0	0
1216	0	0
1217	0	0
1218	0	0
1219	0	0
1220	0	0.420392
1221	0	0.0869565
1222	0	0.125
1223	0	0.125
1224	0	0.142857
1225	0	0.152381
1226	0	0.152381
1227	0	0.152381
1228	0	0.047619
1229	0	0
1230	0	0
1231	0	0
1232	0	0
1233	0	0
1234	0	0
1235	0	0
1236	0	0
1237	0	0
1238	0	0
1239	0	0
1240	0	0
1241	0	0
1242	0	0
1243	0	0
1244	0	0
1245	0	0
1246	0	0
1247	0	0
1248	0	0
1249	0	0
1250	0	0
1251	0	0
1252	0	0
1253	0	0
1254	0	0
1255	0	0
1256	0	0
1257	0	0
1258	0	0
1259	0	0
1260	0	0
1261	0	0
1262	0	0
1263	0	0
1264	0	0
1265	0	0
1266	0	0
1267	0	0.46858
1268	0	0.498223
1269	0	0
1270	0	0
1271	0	0
1272	0	0
1273	0	0
1274	0	0.505487
1275	0	0.470448
1276	0	0.24183
1277	0	0.63986
1278	0	0
1279	0	0
1280	0	0
1281	0	0
1282	0	0
1283	0	0
1284	0	0
1285	0	0
1286	0	0
1287	0	0
1288	0	0
1289	0	0
1290	0	0
1291	0	0
1292	0	0
1293	0	0
1294	0	0
1295	0	0
1296	0	0
1297	0	0
1298	0	0
1299	0	0
1300	0	0
1301	0	0
1302	0	0
1303	0	0
1304	0	0
1305	0	0
1306	0	0
1307	0	0
1308	0	0
1309	0	0
1310	0	0
1311	0	0
1312	0	0
1313	0	0
1314	0	0
1315	0	0
1316	0	0
1317	0	0
1318	0	0
1319	0	0
1320	0	0
1321	0	0
1322	0	0
1323	0	0
1324	0	0
1325	0	0
1326	0	0
1327	0	0
1328	0	0
1329	0	0
1330	0	0
1331	0	0
1332	0	0
1333	0	0
1334	0	0
1335	0	0
1336	0	0
1337	0	0
1338	0	0
1339	0	0
1340	0	0
1341	0	0
1342	0	0
1343	0	0
1344	0	0
1345	0	0
1346	0	0
1347	0	0
1348	0	0
1349	0	0
1350	0	0
1351	0	0
1352	0	0
1353	0	0
1354	0	0
1355	0	0
1356	0	0
1357	0	0
1358	0	0
1359	0	0
1360	0	0
1361	0	0
1362	0	0
1363	0	0
1364	0	0
1365	0	0
1366	0	0
1367	0	0
1368	0	0
1369	0	0
1370	0	0
1371	0	0
1372	0	0
1373	0	0
1374	0	0
1375	0	0
1376	0	0
1377	0	0
1378	0	0
1379	0	0
1380	0	0
1381	0	0
1382	0	0
1383	0	0
1384	0	0
1385	0	0
1386	0	0
1387	0	0
1388	0	0
1389	0	0
1390	0	0
1391	0	0
1392	0	0
1393	0	0
1394	0	0
1395	0	0
1396	0	0
1397	0	0
1398	0	0
1399	0	0
1400	0	0
1401	0	0
1402	0	0
1403	0	0
1404	0	0
1405	0	0
1406	0	0
1407	0	0
1408	0	0
1409	0	0
1410	0	0
1411	0	0
1412	0	0
1413	0	0
1414	0	0
1415	0	0
1416	0	0
1417	0	0
1418	0	0
1419	0	0
1420	0	0
1421	0	0
1422	0	0
1423	0	0
1424	0	0
1425	0	0
1426	0	0
1427	0	0
1428	0	0
1429	0	0
1430	0	0
1431	0	0
1432	0	0
1433	0	0
1434	0	0
1435	0	0
1436	0	0
1437	0	0
1438	0	0
1439	0	0
1440	0	0
1441	0	0
1442	0	0.355556
1443	0	0.217949
1444	0	0
1445	0	0
1446	0	0
1447	0	0
1448	0	0
1449	0	0
1450	0	0
1451	0	0
1452	0	0
1453	0	0
1454	0	0
1455	0	0
1456	0	0
1457	0	0
1458	0	0
1459	0	0
1460	0	0
1461	0	0
1462	0	0
1463	0	0
1464	0	0
1465	0	0
1466	0	0
1467	0	0
1468	0	0
1469	0	0
1470	0	0
1471	0	0
1472	0	0
1473	0	0
1474	0	0
1475	0	0
1476	0	0
1477	0	0
1478	0	0.333333
1479	0	0.333333
1480	0	0.333333
1481	0	0
1482	0	0
1483	0	0
1484	0	0
1485	0	0
1486	0	0
1487	0	0
1488	0	0
1489	0	0
1490	0	0
1491	0	0.137411
1492	0	0.580067
1493	0	0.52748
1494	0	0.0641026
1495	0	0.370691
1496	0	0.394214
1497	0	0.385156
1498	0	0.531845
1499	0	0.334862
1500	0	0.278581
1501	0	0.212039
1502	0	0.209518
1503	0	0.250164
1504	0	0.305686
1505	0	0.460819
1506	0	0.447094
1507	0	0.430106
1508	0	0.701772
1509	0	0.452413
1510	0	0.413659
1511	0	0.453354
1512	0	0.354519
1513	0	0.28696
1514	0	0.354194
1515	0	0.24235
1516	0	0.308392
1517	0	0.288656
1518	0	0.284743
1519	0	0.267867
1520	0	0.278231
1521	0	0.245843
1522	0	0.211175
1523	0	0.158074
1524	0	0.145374
1525	0	0.147941
1526	0	0.209018
1527	0	0.217994
1528	0	0.20982
1529	0	0.213622
1530	0	0
1531	0	0
1532	0	0
1533	0	0
1534	0	0
1535	0	0
1536	0	0
1537	0	0
1538	0	0.851737
1539	0	0.574679
1540	0	0
1541	0	0.166667
1542	0	0.166667
1543	0	0.166667
1544	0	0.166667
1545	0	0.1
1546	0	0.142857
1547	0	0.214286
1548	0	0.192982
1549	0	0.189474
1550	0	0.503378
1551	0	0.329418
1552	0	0.32545
1553	0	0.486831
1554	0	0.528268
1555	0	0.650143
1556	0	0.656168
1557	0	0.665917
1558	0	0.893819
1559	0	0.91145
1560	0	0.980918
1561	0	0
1562	0	0
1563	0	0
1564	0	0
1565	0	0
1566	0	0
1567	0	0
1568	0	0
1569	0	0.994814
1570	0	0.994836
1571	0	0.994836
1572	0	0.994836
1573	0	0.994836
1574	0	0.993124
1575	0	0.993124
1576	0	0
1577	0	0
1578	0	0
1579	0	0
1580	0	0
1581	0	0
1582	0	0
1583	0	0
1584	0	0
1585	0	0
1586	0	0
1587	0	0
1588	0	0
1589	0	0
1590	0	0
1591	0	0
1592	0	0
1593	0	0
1594	0	0
1595	0	0
1596	0	0
1597	0	0
1598	0	0
1599	0	0
1600	0	0
1601	0	0
1602	0	0
1603	0	0
1604	0	0
1605	0	0
1606	0	0
1607	0	0
1608	0	0
1609	0	0
1610	0	0
1611	0	0
1612	0	0
1613	0	0
1614	0	0
1615	0	0
1616	0	0
1617	0	0
1618	0	0
1619	0	0
1620	0	0
1621	0	0
1622	0	0
1623	0	0
1624	0	0
1625	0	0
1626	0	0
1627	0	0
1628	0	0
1629	0	0
1630	0	0
1631	0	0
1632	0	0
1633	0	0
1634	1	0
1635	1	0
1636	0	0
1637	0	0
1638	0	0.996553
1639	0	0.996553
1640	1	0
1641	0	0
1642	0	0
1643	0	0
1644	0	0
1645	0	0
1646	0	0
1647	0	0
1648	0	0
1649	0	0
1650	0	0
1651	0	0
1652	0	0.166667
1653	0	0.996559
1654	0	0.996559
1655	0	0.998279
1656	0	0.998279
1657	0	0.998279
1658	0	0.998279
1659	0	0.998279
1660	0	0.998279
1661	0	0.998279
1662	0	0.998279
1663	1	1
1664	1	1
1665	1	1
1666	1	1
1667	1	1
1668	1	1
1669	1	1
1670	1	1
1671	1	1
1672	1	1
1673	1	1
1674	1	1
1675	1	1
1676	1	1
1677	1	0
1678	1	0
1679	1	0
1680	1	0
1681	1	0
1682	1	1
1683	1	1
1684	1	1
1685	1	1
1686	1	1
1687	0	1
1688	1	1
1689	0	0.996578
1690	1	1
1691	1	1
1692	1	1
1693	1	1
1694	1	1
1695	1	1
1696	1	1
1697	1	1
1698	0	0.998289
1699	0	0.998289
1700	0	0.998289
1701	0	0.998289
1702	0	0.998288
1703	0	0.998286
1704	1	1
1705	1	1
1706	1	1
1707	1	1
1708	1	1
1709	1	1
1710	1	1
1711	1	1
1712	1	1
1713	1	1
1714	1	1
1715	1	1
1716	1	1
1717	1	1
1718	1	1
1719	0	0
1720	0	0.996574
1721	0	0.998286
1722	0	0.998286
1723	0	0.998286
1724	0	0.998286
1725	0	0.998286
1726	0	0.996577
1727	0	0.996583
1728	0	0.996583
1729	0	0.996577
1730	0	0.994845
1731	0	0.993009
1732	0	0.967001
1733	0	1
1734	0	0.885065
1735	0	0.947497
1736	0	0.998285
1737	0	0.998283
1738	0	0.998283
1739	0	0.998283
1740	0	0.998285
1741	0	0.996574
1742	0	0.996574
1743	0	0.996574
1744	0	0.996574
1745	1	1
1746	1	1
1747	1	1
1748	1	1
1749	1	1
1750	1	1
1751	0	0.333333
1752	0	0.333333
1753	0	0
1754	0	0
1755	0	0
1756	0	0
1757	0	0
1758	0	0
1759	0	0
1760	0	0
1761	0	0.991465
1762	0	0
1763	0	0
1764	0	0
1765	0	0
1766	0	0
1767	0	0
1768	0	0
1769	0	0
1770	0	0
1771	0	0.996574
1772	0	0.996574
1773	0	0.998285
1774	0	0.998285
1775	0	0.998286
1776	0	0.998286
1777	0	0.998286
1778	0	0.998286
1779	0	0.998286
1780	0	0.998286
1781	0	0.994873
1782	0	0.998289
1783	0	1
1784	0	1
1785	0	1
1786	1	1
1787	1	1
1788	1	1
1789	1	1
1790	0	1
1791	0	1
1792	0	0.998291
1793	0	0.998291
1794	1	1
1795	1	1
1796	1	1
1797	0	0.988085
1798	0	0.969576
1799	0	1
1800	0	0.966966
1801	0	0.333333
1802	0	0.333333
1803	0	0.920243
1804	0	0.775188
1805	0	0.455961
1806	0	0
1807	0	0
1808	0	0
1809	0	0
1810	0	0
1811	0	0.955364
1812	0	0
1813	1	0
1814	1	0
1815	0	0.5
1816	0	0.5
1817	0	0.5
1818	0	0.5
1819	0	0.5
1820	0	0.5
1821	0	0.361111
1822	0	0.910747
1823	0	0
1824	0	0
1825	0	0.996571
1826	0	0.996571
1827	0	0.998285
1828	0	0.998285
1829	1	0
1830	0	1
1831	0	1
1832	0	1
1833	0	1
1834	0	1
1835	0	1
1836	0	1
1837	0	1
1838	0	1
1839	0	1
1840	0	1
1841	0	1
1842	0	0.998276
1843	0	0.998274
1844	0	0.998274
1845	0	0.998274
1846	0	0.998274
1847	0	0.998274
1848	0	0.998274
1849	0	0.998274
1850	0	0.996553
1851	0	0.996553
1852	0	0.994836
1853	0	0.994836
1854	0	0.994836
1855	0	0.994838
1856	0	0.994851
1857	0	1
1858	0	1
1859	0	1
1860	0	1
1861	0	1
1862	0	1
1863	0	0.998283
1864	0	0.994859
1865	0	1
1866	1	1
1867	1	1
1868	1	1
1869	1	1
1870	0	0.998283
1871	1	1
1872	1	1
1873	0	1
1874	1	1
1875	1	1
1876	0	1
1877	0	1
1878	0	1
1879	1	1
1880	1	1
1881	0	0.998285
1882	0	0.998285
1883	0	0.998285
1884	0	0.998285
1885	0	0.998285
1886	0	0.998285
1887	0	0.998285
1888	0	0.998285
1889	0	0.998285
1890	0	0.998285
1891	1	1
1892	1	1
1893	1	1
1894	1	1
1895	1	1
1896	0	0
1897	0	0
1898	0	0
1899	0	0
1900	0	0
1901	0	0
1902	1	0
1903	0	0
1904	0	0
1905	1	0
1906	1	0
1907	1	0
1908	1	0
1909	0	0
1910	0	0
1911	0	0
1912	0	0
1913	0	0
1914	0	0
1915	0	0
1916	0	0
1917	0	0
1918	0	0
1919	0	0
1920	0	0.998283
1921	0	0.998283
1922	0	0.996571
1923	0	0.993159
1924	0	0.993159
1925	0	0
1926	0	0
1927	0	0
1928	0	0
1929	0	0
1930	0	0
1931	0	0
1932	0	0
1933	0	0
1934	0	0
1935	0	0
1936	0	0
1937	0	0
1938	0	0
1939	0	0
1940	0	0
1941	0	0
1942	0	0
1943	0	0
1944	0	0
1945	0	0
1946	0	0
1947	0	0
1948	0	0
1949	0	0
1950	0	0
1951	0	0
1952	0	0
1953	0	0
1954	0	0
1955	0	0
1956	0	0
1957	0	0
1958	0	0
1959	0	0
1960	0	0
1961	0	0
1962	0	0
1963	0	0
1964	0	0
1965	0	0
1966	0	0
1967	0	0
1968	0	0
1969	0	0
1970	0	0
1971	0	0
1972	0	0
1973	0	0.989739
1974	0	0
1975	0	0
1976	0	0
1977	0	0
1978	0	0
1979	0	0
1980	0	0
1981	0	0
1982	0	0
1983	0	0
1984	0	0
1985	0	0
1986	0	0
1987	0	0
1988	0	0
1989	0	0
1990	0	0
1991	0	0
1992	0	0
1993	0	0
1994	0	0
1995	0	0
1996	0	0
1997	0	0
1998	0	0
1999	0	0
2000	0	0
2001	0	0
2002	0	0
2003	0	0
2004	0	0
2005	0	0
2006	0	0
2007	0	0
2008	0	0
2009	0	0
2010	0	0
2011	0	0
2012	0	0
2013	0	0
2014	1	0
2015	1	0
2016	1	0
2017	1	0
2018	1	0
2019	1	0
2020	1	0
2021	1	0
2022	1	0
2023	1	0
2024	1	0
2025	0	0.984642
2026	0	0.984642
2027	0	0
2028	0	0
2029	1	0
2030	0	0
2031	0	0
2032	0	0
2033	0	0
2034	0	0
2035	0	0
2036	0	0
2037	0	0
2038	0	0
2039	0	0
2040	0	0
2041	0	0
2042	0	0
2043	0	0
2044	0	0
2045	0	0
2046	0	0
2047	0	0
2048	0	0
2049	0	0
2050	0	0
2051	0	0
2052	0	0
2053	0	0
2054	0	0
2055	0	0
2056	0	0
2057	0	0
2058	0	0
2059	0	0
2060	0	0
2061	0	0
2062	0	0
2063	0	0
2064	0	0
2065	0	0
2066	0	0
2067	0	0
2068	0	0
2069	0	0
2070	0	0
2071	0	0
2072	0	0
2073	0	0
2074	0	0
2075	0	0
2076	0	0
2077	0	0
2078	0	0
2079	0	0
2080	0	0
2081	0	0
2082	0	0
2083	0	0
2084	0	0
2085	0	0
2086	0	0
2087	0	0
2088	0	0
2089	0	0
2090	0	0
2091	0	0
2092	0	0
2093	0	0
2094	0	0
2095	0	0
2096	0	0
2097	0	0
2098	0	0
2099	0	0
2100	0	0
2101	0	0
2102	0	0
2103	0	0
2104	0	0
2105	0	0
2106	0	0
2107	0	0
2108	0	0
2109	0	0
2110	0	0
2111	0	0
2112	1	0
2113	1	0
2114	1	0
2115	1	0
2116	0	0
2117	0	0
2118	0	0
2119	0	0
2120	0	0
2121	0	0
2122	0	0
2123	0	0
2124	0	0
2125	0	0
2126	0	0
2127	0	0
2128	0	0
2129	0	0
2130	0	0
2131	0	0
2132	0	0
2133	0	0
2134	0	0
2135	0	0
2136	0	0
2137	0	0
2138	0	0
2139	0	0
2140	0	0
2141	0	0
2142	0	0
2143	0	0
2144	0	0
2145	0	0
2146	0	0
2147	0	0
2148	0	0
2149	0	0
2150	0	0
2151	0	0
2152	0	0
2153	0	0
2154	0	0
2155	0	0
2156	0	0
2157	0	0
2158	0	0
2159	0	0
2160	0	0
2161	0	0
2162	0	0
2163	0	0
2164	0	0
2165	0	0
2166	0	0
2167	0	0
2168	0	0
2169	0	0
2170	0	0
2171	0	0
2172	0	0.333333
2173	0	0.333333
2174	0	0.333333
2175	0	0.333333
2176	0	0.333333
2177	0	0.333333
2178	0	0.333333
2179	0	0.333333
2180	0	0.333333
2181	0	0.333333
2182	0	0.333333
2183	0	0.333333
2184	0	0.333333
2185	0	0.333333
2186	0	0.333333
2187	0	0.333333
2188	0	0.333333
2189	0	0.333333
2190	0	0.333333
2191	0	0.333333
2192	0	0.333333
2193	0	0.333333
2194	0	0.333333
2195	0	0.333333
2196	0	0.333333
2197	0	0.333333
2198	0	0.333333
2199	0	0.333333
2200	0	0.333333
2201	0	0.333333
2202	0	0.333333
2203	0	0.333333
2204	0	0.333333
2205	0	0.333333
2206	0	0.333333
2207	0	0.333333
2208	0	0.333333
2209	0	0.333333
2210	0	0.333333
2211	0	0.333333
2212	0	0.333333
2213	0	0.333333
2214	0	0.333333
2215	0	0.333333
2216	0	0.333333
2217	0	0.333333
2218	0	0.333333
2219	0	0.333333
2220	0	0.333333
2221	0	0.333333
2222	0	0.988026
2223	0	0.988026
2224	0	0.988026
2225	0	0.97953
2226	0	0
2227	0	0
2228	0	0
2229	0	0
2230	0	0
2231	0	0
2232	0	0
2233	0	0
2234	0	0
2235	0	0
2236	0	0
2237	0	0
2238	0	0
2239	0	0
2240	0	0
2241	0	0
2242	0	0
2243	0	0
2244	0	0
2245	0	0
2246	0	0
2247	0	0
2248	0	0
2249	0	0
2250	0	0
2251	0	0
2252	0	0
2253	0	0
2254	0	0
2255	0	0
2256	0	0
2257	0	0
2258	0	0
2259	0	0
2260	0	0
2261	0	0
2262	0	0
2263	0	0
2264	0	0
2265	0	0
2266	0	0
2267	0	0
2268	0	0
2269	0	0
2270	0	0
2271	0	0
2272	0	0
2273	0	0
2274	0	0
2275	0	0
2276	0	0
2277	0	0
2278	0	0
2279	0	0
2280	0	0
2281	0	0
2282	0	0
2283	0	0
2284	0	0
2285	0	0
2286	0	0
2287	0	0
2288	0	0
2289	0	0
2290	0	0
2291	0	0
2292	0	0
2293	0	0
2294	0	0
2295	0	0
2296	0	0
2297	0	0
2298	0	0
2299	0	0
2300	0	0
2301	0	0
2302	0	0
2303	0	0
2304	1	0
2305	1	0
2306	1	0
2307	1	0
2308	1	0
2309	1	0
2310	1	0
2311	1	0
2312	1	0
2313	1	0
2314	0	0
2315	0	0
2316	0	0
2317	0	0
2318	0	0
2319	0	0
2320	0	0
2321	0	0
2322	0	0
2323	0	0
2324	0	0
2325	0	0
2326	0	0
2327	0	0
2328	0	0
2329	0	0
2330	0	0
2331	0	0
2332	0	0
2333	0	0
2334	0	0
2335	0	0
2336	0	0
2337	0	0
2338	0	0
2339	0	0
2340	0	0
2341	0	0
2342	0	0
2343	0	0
2344	0	0
2345	0	0
2346	0	0
2347	0	0
2348	0	0
2349	0	0
2350	0	0
2351	0	0
2352	0	0
2353	0	0
2354	0	0
2355	0	0
2356	0	0
2357	0	0
2358	0	0
2359	0	0
2360	0	0
2361	0	0
2362	0	0
2363	0	0
2364	0	0
2365	0	0
2366	0	0
2367	0	0
2368	0	0
2369	0	0
2370	0	0
2371	0	0
2372	0	0
2373	0	0
2374	0	0
2375	0	0
2376	0	0
2377	0	0
2378	0	0
2379	0	0
2380	0	0
2381	0	0
2382	0	0
2383	0	0
2384	0	0
2385	0	0
2386	0	0
2387	0	0
2388	0	0
2389	0	0
2390	0	0
2391	0	0
2392	0	0
2393	0	0
2394	0	0
2395	0	0
2396	0	0
2397	0	0
2398	0	0
2399	0	0
2400	0	0
2401	0	0
2402	0	0
2403	0	0
2404	0	0
2405	0	0
2406	0	0
2407	0	0
2408	0	0
2409	0	0
2410	0	0
2411	0	0
2412	0	0
2413	0	0
2414	0	0
2415	0	0
2416	0	0
2417	0	0
2418	0	0
2419	0	0
2420	0	0
2421	0	0.166667
2422	0	0.166667
2423	0	0.166667
2424	0	0.166667
2425	0	0.166667
2426	0	0.166667
2427	0	0.166667
2428	0	0.166667
2429	0	0.166667
2430	0	0.166667
2431	0	0.5
2432	0	0.5
2433	0	0.5
2434	0	0.5
2435	0	0.5
2436	0	0.5
2437	0	0.5
2438	0	0.986312
2439	0	0.98462
2440	0	0.285714
2441	0	0.266667
2442	0	0.266667
2443	0	0.266667
2444	0	0.266667
2445	0	0.333333
2446	0	0.333333
2447	0	0.333333
2448	0	0
2449	0	0
2450	1	0
2451	1	0
2452	1	0
2453	1	0
2454	1	0
2455	1	0
2456	1	0
2457	1	0
2458	1	0
2459	1	0
2460	1	0
2461	1	0
2462	1	0
2463	1	0
2464	1	0
2465	1	0
2466	1	0
2467	1	0
2468	1	0
2469	1	0
2470	1	0
2471	1	0
2472	1	0
2473	1	0
2474	1	0
2475	1	0
2476	1	0
2477	1	0
2478	1	0
2479	1	0
2480	1	0
2481	1	0
2482	1	0
2483	1	0
2484	1	0
2485	1	0
2486	1	0
2487	1	0
2488	1	0
2489	1	0
2490	1	0
2491	1	0
2492	1	0
2493	1	0
2494	1	0
2495	1	0
2496	1	0
2497	1	0
2498	1	0
2499	1	0
2500	1	0
2501	1	0
2502	1	0
2503	1	0
2504	1	0
2505	1	0
2506	1	0
2507	1	0
2508	1	0
2509	1	0
2510	0	0
2511	0	0
2512	0	0.979543
2513	0	0.981254
2514	0	0.982937
2515	0	0
2516	0	0
2517	0	0
2518	0	0.982952
2519	0	0.982952
2520	0	0.982952
2521	0	0
2522	0	0
2523	0	0
2524	0	0
2525	0	0
2526	0	0
2527	0	0
2528	0	0
2529	0	0
2530	0	0
2531	0	0
2532	0	0
2533	0	0
2534	0	0
2535	0	0
2536	0	0
2537	0	0
2538	0	0
2539	0	0
2540	0	0
2541	0	0
2542	0	0
2543	0	0
2544	0	0
2545	0	0
2546	0	0
2547	0	0
2548	0	0
2549	0	0
2550	0	0
2551	0	0
2552	0	0
2553	0	0
2554	0	0
2555	0	0
2556	0	0
2557	0	0
2558	0	0
2559	0	0
2560	0	0
2561	0	0
2562	0	0
2563	0	0
2564	0	0
2565	0	0
2566	0	0
2567	0	0
2568	0	0
2569	0	0
2570	0	0
2571	0	0
2572	0	0
2573	1	0
2574	1	0
2575	0	0
2576	0	0
2577	0	0
2578	0	0
2579	0	0
2580	0	0
2581	0	0
2582	0	0
2583	0	0
2584	0	0
2585	0	0
2586	0	0
2587	0	0
2588	0	0
2589	0	0
2590	0	0
2591	0	0
2592	0	0
2593	0	0
2594	0	0
2595	0	0
2596	0	0
2597	0	0
2598	0	0
2599	0	0
2600	0	0
2601	0	0
2602	0	0
2603	0	0
2604	0	0
2605	0	0
2606	0	0
2607	0	0
2608	0	0
2609	0	0
2610	0	0
2611	0	0
2612	0	0
2613	0	0
2614	0	0
2615	0	0
2616	0	0
2617	0	0
2618	0	0
2619	0	0
2620	0	0
2621	0	0
2622	0	0
2623	0	0
2624	0	0
2625	0	0
2626	0	0
2627	0	0
2628	0	0
2629	0	0
2630	0	0.4
2631	0	0.4
2632	0	0.4
2633	0	0.4
2634	0	0.4
2635	0	0.4
2636	0	0.4
2637	0	0.4
2638	0	0.4
2639	0	0.4
2640	0	0.4
2641	0	0.4
2642	0	0.4
2643	0	0.4
2644	0	0.4
2645	0	0.4
2646	0	0.4
2647	0	0.4
2648	0	0.4
2649	0	0.4
2650	0	0.4
2651	0	0.4
2652	0	0.4
2653	0	0.4
2654	0	0.4
2655	0	0.4
2656	0	0.4
2657	0	0.4
2658	0	0.4
2659	0	0.4
2660	0	0.4
2661	0	0.666667
2662	0	0.666667
2663	0	0.666667
2664	0	0.666667
2665	0	0.666667
2666	0	0.666667
2667	0	0.666667
2668	0	0.666667
2669	0	0.47619
2670	0	0.98463
2671	0	0.98463
2672	0	0.986322
2673	0	0.986322
2674	0	0.986322
2675	0	0.986322
2676	0	0.47619
2677	0	0.47619
2678	0	0.47619
2679	0	0.47619
2680	0	0.4
2681	0	0.4
2682	0	0.4
2683	0	0.4
2684	0	0.4
2685	0	0.6
2686	0	0.6
2687	0	0.6
2688	0	0.6
2689	0	0.333333
2690	0	0.333333
2691	0	0.333333
2692	0	0.333333
2693	0	0.333333
2694	0	0.333333
2695	0	0
2696	0	0
2697	0	0
2698	0	0
2699	0	0
2700	0	0
2701	0	0
2702	0	0
2703	0	0
2704	0	0
2705	0	0
2706	0	0
2707	0	0
2708	0	0
2709	0	0
2710	0	0
2711	0	0
2712	1	0
2713	1	0
2714	0	0
2715	0	0
2716	0	0
2717	0	0
2718	0	0
2719	0	0
2720	0	0
2721	0	0
2722	0	0
2723	0	0
2724	0	0
2725	0	0
2726	0	0
2727	0	0
2728	0	0
2729	1	0
2730	1	0
2731	1	0
2732	1	0
2733	1	0
2734	1	0
2735	1	0
2736	1	0
2737	1	0
2738	1	0
2739	1	0
2740	1	0
2741	1	0
2742	0	0.986309
2743	0	0.986309
2744	0	0.984617
2745	0	0.984617
2746	0	0.984617
2747	0	0.984604
2748	0	0.9812
2749	0	0.9812
2750	1	0
2751	1	0
2752	1	0
2753	1	0
2754	0	0
2755	0	0
2756	0	0
2757	0	0
2758	0	0
2759	0	0
2760	0	0
2761	0	0
2762	0	0
2763	0	0
2764	0	0
2765	0	0
2766	0	0
2767	0	0
2768	0	0
2769	0	0
2770	0	0
2771	0	0
2772	0	0
2773	0	0
2774	0	0
2775	0	0
2776	0	0
2777	0	0
2778	0	0
2779	0	0
2780	0	0
2781	0	0
2782	0	0
2783	0	0
2784	0	0
2785	0	0
2786	0	0
2787	0	0
2788	0	0
2789	0	0
2790	0	0
2791	0	0
2792	0	0
2793	0	0
2794	0	0
2795	0	0
2796	0	0
2797	0	0
2798	0	0
2799	0	0
2800	0	0.333333
2801	0	0.333333
2802	0	0.333333
2803	0	0.333333
2804	0	0.333333
2805	0	0.333333
2806	0	0.333333
2807	0	0.333333
2808	0	0.333333
2809	0	0.333333
2810	0	0.333333
2811	0	0.333333
2812	0	0.333333
2813	0	0.333333
2814	0	0.333333
2815	0	0.333333
2816	0	0.333333
2817	0	0.333333
2818	0	0.333333
2819	0	0.333333
2820	0	0.333333
2821	0	0.333333
2822	0	0.333333
2823	0	0.333333
2824	0	0.333333
2825	0	0.333333
2826	0	0.333333
2827	0	0.333333
2828	0	0.333333
2829	0	0.333333
2830	0	0.333333
2831	0	0.333333
2832	0	0.333333
2833	0	0.333333
2834	0	0.333333
2835	0	0.333333
2836	0	0.333333
2837	0	0.333333
2838	0	0.333333
2839	0	0.333333
2840	0	0.333333
2841	0	0.333333
2842	0	0.333333
2843	0	0.333333
2844	0	0.333333
2845	0	0.333333
2846	0	0.333333
2847	0	0.333333
2848	0	0.333333
2849	0	0.333333
2850	0	0.333333
2851	0	0.333333
2852	0	0.333333
2853	0	0.333333
2854	0	0.333333
2855	0	0.333333
2856	0	0.333333
2857	0	0.333333
2858	0	0.333333
2859	0	0.333333
2860	0	0.333333
2861	0	0.333333
2862	0	0.333333
2863	0	0.333333
2864	0	0.333333
2865	0	0.333333
2866	0	0.333333
2867	0	0.333333
2868	0	0.333333
2869	0	0.333333
2870	0	0.333333
2871	0	0.333333
2872	0	0.333333
2873	0	0.333333
2874	0	0.333333
2875	0	0.333333
2876	0	0.333333
2877	0	0.333333
2878	0	0.333333
2879	0	0.333333
2880	0	0.333333
2881	0	0.333333
2882	0	0.333333
2883	0	0.333333
2884	0	0.333333
2885	0	0.333333
2886	0	0.333333
2887	0	0.333333
2888	0	0.333333
2889	0	0.333333
2890	0	0.333333
2891	0	0.333333
2892	0	0.333333
2893	0	0.333333
2894	0	0.333333
2895	0	0.333333
2896	0	0.333333
2897	0	0.333333
2898	0	0.333333
2899	0	0.333333
2900	0	0.333333
2901	0	0.333333
2902	0	0.333333
2903	0	0.333333
2904	0	0.333333
2905	0	0.333333
2906	0	0.333333
2907	0	0.333333
2908	0	0.333333
2909	0	0.333333
2910	0	0.333333
2911	0	0.333333
2912	0	0.333333
2913	0	0.333333
2914	0	0.333333
2915	0	0.333333
2916	0	0.333333
2917	0	0.333333
2918	0	0.333333
2919	0	0.333333
2920	0	0.333333
2921	0	0.333333
2922	0	0.333333
2923	0	0.333333
2924	0	0.333333
2925	0	0
2926	0	0
2927	0	0
2928	0	0
2929	0	0
2930	0	0
2931	0	0
2932	0	0
2933	0	0
2934	0	0
2935	0	0
2936	0	0
2937	0	0
2938	0	0
2939	0	0
2940	0	0
2941	0	0
2942	0	0
2943	0	0
2944	0	1
2945	0	0.333333
2946	0	0.166667
2947	0	0.166667
2948	0	0.166667
2949	0	0.5
2950	0	0.5
2951	0	0.5
2952	0	0.3
2953	0	0.3
2954	0	0.3
2955	0	0.3
2956	0	0.3
2957	0	0.3
2958	0	0.3
2959	0	0.3
2960	0	0.3
2961	0	0.3
2962	0	0.3
2963	0	0.3
2964	0	0.3
2965	0	0.3
2966	0	0.3
2967	0	0.3
2968	0	0.3
2969	0	0.3
2970	0	0.3
2971	0	0.3
2972	0	0.974411
2973	0	0.976066
2974	0	0.0666667
2975	0	0.972576
2976	0	0.960445
2977	0	0.891694
2978	0	0.571585
2979	0	0.550664
2980	0	0.316327
2981	0	0.312075
2982	0	0.298469
2983	0	0.295068
2984	0	0.295068
2985	0	0.288622
2986	0	0.288622
2987	0	0.288622
2988	0	0.283838
2989	0	0.250356
2990	0	0.192982
2991	0	0.104762
2992	0	0.104762
2993	0	0.0769231
2994	0	0.0769231
2995	0	0.0641026
2996	0	0.0727273
2997	0	0.0727273
2998	0	0.0727273
2999	0	0.0888889
3000	0	0.111111
3001	0	0.142857
3002	0	0.142857
3003	0	0.142857
3004	0	0.2
3005	0	0.2
3006	0	0.2
3007	0	0.2
3008	0	0.2
3009	0	0.2
3010	0	0.2
3011	0	0.2
3012	0	0.2
3013	0	0.2
3014	0	0.2
3015	0	0.2
3016	0	0.2
3017	0	0.2
3018	0	0.1
3019	0	0.1
3020	0	0.1
3021	0	0.1
3022	0	0.1
3023	0	0.1
3024	0	0.1
3025	0	0.1
3026	0	0.1
3027	0	0.1
3028	0	0.1
3029	0	0.1
3030	0	0.1
3031	0	0
3032	0	0
3033	0	0
3034	0	0
3035	0	0
3036	0	0
3037	0	0
3038	0	0
3039	0	0
3040	0	0
3041	0	0
3042	0	0
3043	0	0
3044	0	0
3045	0	0
3046	0	0
3047	0	0
3048	0	0
3049	0	0
3050	0	0
3051	0	0
3052	0	0
3053	0	0
3054	0	0
3055	0	0
3056	0	0
3057	0	0
3058	0	0
3059	0	0
3060	0	0
3061	0	0
3062	0	0
3063	0	0
3064	0	0
3065	0	0
3066	0	0
3067	0	0
3068	0	0
3069	0	0
3070	0	0
3071	0	0
3072	0	0
3073	0	0
3074	0	0
3075	0	0
3076	0	0
3077	0	0
3078	0	0
3079	0	0
3080	0	0
3081	0	0
3082	0	0
3083	0	0
3084	0	0
3085	0	0
3086	0	0
3087	0	0
3088	0	0
3089	0	0
3090	0	0
3091	0	0
3092	0	0
3093	0	0
3094	0	0
3095	0	0
3096	0	0
3097	0	0
3098	0	0
3099	0	0
3100	0	0
3101	0	0
3102	0	0
3103	0	0
3104	0	0
3105	0	0
3106	0	0
3107	0	0
3108	0	0
3109	0	0
3110	0	0
3111	0	0
3112	0	0
3113	0	0
3114	0	0
3115	0	0
3116	0	0
3117	0	0
3118	0	0
3119	0	0
3120	0	0
3121	0	0
3122	0	0
3123	0	0
3124	0	0
3125	0	0
3126	0	0
3127	0	0
3128	0	0
3129	0	0
3130	0	0
3131	0	0
3132	0	0
3133	0	0
3134	0	0
3135	0	0
3136	0	0
3137	0	0
3138	0	0
3139	0	0
3140	0	0
3141	0	0
3142	0	0
3143	0	0
3144	0	0
3145	0	0
3146	0	0
3147	0	0
3148	0	0
3149	0	0
3150	0	0
3151	0	0
3152	0	0
3153	0	0
3154	0	0
3155	0	0
3156	0	0
3157	0	0
3158	0	0
3159	0	0
3160	0	0
3161	0	0
3162	0	0
3163	0	0
3164	0	0
3165	0	0
3166	0	0
3167	0	0
3168	0	0
3169	0	0
3170	0	0
3171	0	0
3172	0	0
3173	0	0
3174	0	0
3175	0	0
3176	0	0
3177	0	0
3178	0	0
3179	0	0
3180	0	0
3181	0	0
3182	0	0
3183	0	0
3184	0	0
3185	0	0
3186	0	0
3187	0	0
3188	0	0
3189	0	0
3190	0	0
3191	0	0
3192	0	0
3193	0	0
3194	0	0
3195	0	0
3196	0	0
3197	0	0
3198	0	0
3199	0	0
3200	0	0
3201	0	0
3202	0	0
3203	0	0
3204	0	0
3205	0	0
3206	0	0
3207	0	0
3208	0	0
3209	0	0
3210	0	0
3211	0	0
3212	0	0
3213	0	0
3214	0	0
3215	0	0
3216	0	0
3217	0	0
3218	0	0
3219	0	0
3220	0	0
3221	0	0
3222	0	0
3223	0	0
3224	0	0
3225	0	0
3226	0	0
3227	0	0
3228	0	0
3229	0	0
3230	0	0
3231	0	0
3232	0	0
3233	0	0
3234	0	0
3235	0	0
3236	0	0
3237	0	0
3238	0	0
3239	0	0
3240	0	0
3241	0	0
3242	0	0
3243	0	0
3244	0	0
3245	0	0
3246	0	0
3247	0	0
3248	0	0
3249	0	0
3250	0	0
3251	1	0
3252	1	0
3253	1	0
3254	0	0
3255	0	0
3256	0	0
3257	0	0
3258	0	0
3259	0	0
3260	0	0
3261	0	0
3262	0	0
3263	0	0
3264	0	0
3265	0	0
3266	0	0
3267	0	0
3268	0	0
3269	0	0
3270	0	0
3271	0	0
3272	0	0
3273	0	0
3274	0	0
3275	0	0
3276	0	0
3277	0	0
3278	0	0
3279	0	0
3280	0	0
3281	0	0
3282	0	0
3283	0	0
3284	0	0
3285	0	0
3286	0	0
3287	0	0
3288	0	0
3289	0	0
3290	0	0
3291	1	0
3292	0	0
3293	0	0
3294	0	0
3295	0	0
3296	0	0
3297	0	0
3298	0	0
3299	0	0
3300	0	0
3301	0	0
3302	0	0
3303	0	0
3304	0	0
3305	0	0
3306	0	0
3307	0	0
3308	0	0
3309	0	0
3310	0	0
3311	0	0
3312	0	0
3313	0	0
3314	0	0
3315	0	0
3316	0	0
3317	0	0
3318	0	0
3319	0	0
3320	0	0
3321	0	0
3322	0	0
3323	0	0
3324	0	0
3325	0	0
3326	0	0
3327	0	0
3328	0	0
3329	0	0
3330	0	0
3331	0	0
3332	0	0
3333	0	0
3334	0	0
3335	0	0
3336	0	0
3337	0	0
3338	0	0
3339	0	0
3340	0	0
3341	0	0
3342	0	0
3343	0	0
3344	0	0
3345	0	0
3346	0	0
3347	0	0
3348	0	0
3349	0	0
3350	0	0
3351	0	0
3352	0	0
3353	0	0
3354	0	0
3355	0	0
3356	0	0
3357	0	0
3358	0	0
3359	0	0
3360	0	0
