Site	ColumnScore	SumOfPairsScore
1	0	0
2	0	0
3	0	0
4	0	0
5	0	0
6	0	0
7	0	0
8	0	0
9	0	0
10	0	0
11	0	0
12	0	0
13	0	0
14	0	0
15	0	0
16	0	0
17	0	0
18	0	0
19	0	0
20	0	0
21	0	0
22	0	0
23	0	0
24	0	0
25	0	0
26	0	0
27	0	0
28	0	0
29	0	0
30	0	0
31	0	0
32	0	0
33	0	0
34	0	0
35	0	0
36	0	0
37	0	0
38	0	0
39	0	0
40	0	0
41	0	0
42	0	0
43	0	0
44	0	0
45	0	0
46	0	0
47	0	0
48	0	0
49	0	0
50	0	0
51	0	0
52	0	0
53	0	0
54	0	0
55	0	0
56	0	0
57	0	0
58	0	0
59	0	0
60	0	0
61	0	0
62	0	0
63	0	0
64	0	0
65	0	0
66	0	0
67	0	0
68	0	0
69	0	0
70	0	0
71	0	0
72	0	0
73	0	0
74	0	0
75	0	0
76	0	0
77	0	0
78	0	0
79	0	0
80	0	0
81	0	0
82	0	0
83	0	0
84	0	0
85	0	0
86	0	0
87	0	0
88	0	0
89	0	0
90	0	0
91	0	0
92	0	0
93	0	0
94	0	0
95	0	0
96	0	0
97	0	0
98	0	0
99	0	0
100	0	0
101	0	0
102	0	0
103	0	0
104	0	0
105	0	0
106	0	0
107	0	0
108	0	0
109	0	0
110	0	0
111	0	0
112	0	0
113	0	0
114	0	0
115	0	0
116	0	0
117	0	0
118	0	0
119	0	0
120	0	0
121	0	0
122	0	0
123	0	0
124	0	0
125	0	0
126	0	0
127	0	0
128	0	0
129	0	0
130	0	0
131	0	0
132	0	0
133	0	0
134	0	0
135	0	0
136	0	0
137	0	0
138	0	0
139	0	0
140	0	0
141	0	0
142	0	0
143	0	0
144	0	0
145	0	0
146	0	0
147	0	0
148	0	0
149	0	0
150	0	0
151	0	0
152	0	0
153	0	0
154	0	0
155	0	0
156	0	0
157	0	0
158	0	0
159	0	0
160	0	0
161	0	0
162	0	0
163	0	0
164	0	0
165	0	0
166	0	0
167	0	0
168	0	0
169	0	0
170	0	0
171	0	0
172	0	0
173	0	0
174	0	0
175	0	0
176	0	0
177	0	0
178	0	0
179	0	0
180	0	0
181	0	0
182	0	0
183	0	0
184	0	0
185	0	0
186	0	0
187	0	0
188	0	0
189	0	0
190	0	0
191	0	0
192	0	0
193	0	0
194	0	0
195	0	0
196	0	0
197	0	0
198	0	0
199	0	0
200	0	0
201	0	0
202	0	0
203	0	0
204	0	0
205	0	0
206	0	0
207	0	0
208	0	0
209	0	0
210	0	0
211	0	0
212	0	0
213	0	0
214	0	0
215	0	0
216	0	0
217	0	0
218	0	0
219	0	0
220	0	0
221	0	0
222	0	0
223	0	0
224	0	0
225	0	0
226	0	0
227	0	0
228	0	0
229	0	0
230	0	0
231	0	0
232	0	0
233	0	0
234	0	0
235	0	0
236	0	0
237	0	0
238	0	0
239	0	0
240	0	0
241	0	0
242	0	0
243	0	0
244	0	0
245	0	0
246	0	0
247	0	0
248	0	0
249	0	0
250	0	0
251	0	0
252	0	0
253	0	0
254	0	0
255	0	0
256	0	0
257	0	0
258	0	0
259	0	0
260	0	0
261	0	0
262	0	0
263	0	0
264	0	0
265	0	0
266	0	0
267	0	0
268	0	0
269	0	0
270	0	0
271	0	0
272	0	0
273	0	0
274	0	0.0666667
275	0	0.0666667
276	0	0.2
277	0	0.142857
278	0	0.624585
279	0	0.483265
280	0	0.483265
281	0	0.491765
282	0	0.499246
283	0	0.499246
284	0	0.499246
285	0	0.499246
286	0	0.499246
287	0	0.499246
288	0	0.499246
289	0	0.499246
290	0	0.499246
291	0	0.499246
292	0	0.499246
293	0	0.499246
294	0	0.499246
295	0	0.491765
296	0	0.266667
297	0	0.668367
298	0	0.696809
299	0	0.803191
300	0	0.770408
301	0	0.745098
302	0	0.817496
303	0	0.817496
304	0	0.817496
305	0	0.817496
306	0	0.817496
307	0	0.817496
308	0	0.817496
309	0	0.817496
310	0	0.817496
311	0	0.817496
312	0	0.817496
313	0	0.817496
314	0	0.817496
315	0	0.817496
316	0	0.817496
317	0	0.817496
318	0	0.817496
319	0	0.817496
320	0	0.817496
321	0	0.817496
322	0	0.817496
323	0	0.817496
324	0	0.817496
325	0	0.817496
326	0	0.817496
327	0	0.817496
328	0	0.817496
329	0	0.817496
330	0	0.817496
331	0	0.817496
332	0	0.817496
333	0	0.817496
334	0	0.817496
335	0	0.817496
336	0	0.817496
337	0	0.817496
338	0	0.817496
339	0	0.817496
340	0	0.817496
341	0	0.817496
342	0	0.817496
343	0	0.817496
344	0	0.817496
345	0	0.817496
346	0	0.817496
347	0	0.817496
348	0	0.817496
349	0	0.817496
350	0	0.817496
351	0	0.817496
352	0	0.817496
353	0	0.817496
354	0	0.817496
355	0	0.817496
356	0	0.817496
357	0	0.817496
358	0	0.817496
359	0	0.817496
360	0	0.817496
361	0	0.817496
362	0	0.817496
363	0	0.817496
364	0	0.817496
365	0	0.817496
366	0	0.817496
367	0	0.817496
368	0	0.817496
369	0	0.817496
370	0	0.817496
371	0	0.817496
372	0	0.817496
373	0	0.817496
374	0	0.817496
375	0	0.817496
376	0	0.817496
377	0	0.817496
378	0	0.817496
379	0	0.817496
380	0	0.817496
381	0	0.817496
382	0	0.817496
383	0	0.817496
384	0	0.817496
385	0	0.817496
386	0	0.817496
387	0	0.782805
388	0	0.748869
389	0	0.748869
390	0	0.748869
391	0	0.748869
392	0	0.748869
393	0	0.748869
394	0	0.748869
395	0	0.748869
396	0	0.748869
397	0	0.748869
398	0	0.748869
399	0	0.748869
400	0	0.748869
401	0	0.748869
402	0	0.748869
403	0	0.748869
404	0	0.748869
405	0	0.748869
406	0	0.748869
407	0	0.748869
408	0	0.748869
409	0	0.748869
410	0	0.748869
411	0	0.748869
412	0	0.748869
413	0	0.748869
414	0	0.748869
415	0	0.748869
416	0	0.748869
417	0	0.748869
418	0	0.748869
419	0	0.748869
420	0	0.778824
421	0	0.778824
422	0	0.778824
423	0	0.778824
424	0	0.778824
425	0	0.778824
426	0	0.778824
427	0	0.778824
428	0	0.778824
429	0	0.778824
430	0	0.810612
431	0	0.810612
432	0	0.810612
433	0	0.810612
434	0	0.810612
435	0	0.810612
436	0	0.810612
437	0	0.810612
438	0	0.810612
439	0	0.810612
440	0	0.810612
441	0	0.810612
442	0	0.810612
443	0	0.810612
444	0	0.810612
445	0	0.810612
446	0	0.810612
447	0	0.810612
448	0	0.810612
449	0	0.622222
450	0	0.622222
451	0	0.554965
452	0	0.531915
453	0	0.490612
454	0	0.486531
455	0	0.486531
456	0	0.128205
457	0	0.247619
458	0	0.447398
459	0	0.305556
460	0	0.838652
461	0	0.917553
462	0	0.848627
463	0	0.922353
464	0	0.922353
465	0	0.922353
466	0	0.922353
467	0	0.922353
468	0	0.922353
469	0	0.922353
470	0	0.922353
471	0	0.922353
472	0	0.922353
473	0	0.922353
474	0	0.922353
475	0	0.922353
476	0	0.922353
477	0	0.886878
478	0	0.886878
479	0	0.886878
480	0	0.886878
481	0	0.886878
482	0	0.886878
483	0	0.886878
484	0	0.886878
485	0	0.886878
486	0	0.853411
487	0	0.853411
488	0	0.853411
489	0	0.853411
490	0	0.853411
491	0	0.853411
492	0	0.853411
493	0	0.853411
494	0	0.853411
495	0	0.853411
496	0	0.853411
497	0	0.853411
498	0	0.853411
499	0	0.821803
500	0	0.821803
501	0	0.821803
502	0	0.821803
503	0	0.821803
504	0	0.821803
505	0	0.821803
506	0	0.821803
507	0	0.821803
508	0	0.821803
509	0	0.821803
510	0	0.821803
511	0	0.821803
512	0	0.821803
513	0	0.821803
514	0	0.821803
515	0	0.821803
516	0	0.821803
517	0	0.821803
518	0	0.821803
519	0	0.821803
520	0	0.821803
521	0	0.821803
522	0	0.821803
523	0	0.821803
524	0	0.821803
525	0	0.821803
526	0	0.821803
527	0	0.821803
528	0	0.821803
529	0	0.821803
530	0	0.821803
531	0	0.821803
532	0	0.821803
533	0	0.78826
534	0	0.78826
535	0	0.78826
536	0	0.78826
537	0	0.78826
538	0	0.78826
539	0	0.78826
540	0	0.78826
541	0	0.78826
542	0	0.78826
543	0	0.78826
544	0	0.78826
545	0	0.78826
546	0	0.818578
547	0	0.818578
548	0	0.818578
549	0	0.818578
550	0	0.778516
551	0	0.743129
552	0	0.78826
553	0	0.78826
554	0	0.78826
555	0	0.78826
556	0	0.78826
557	0	0.57
558	0	0.390636
559	0	0.358974
560	0	0.612159
561	0	0.60587
562	0	0.60587
563	0	0.60587
564	0	0.60587
565	0	0.60587
566	0	0.60587
567	0	0.60587
568	0	0.60587
569	0	0.60587
570	0	0.60587
571	0	0.60587
572	0	0.60587
573	0	0.579315
574	0	0.579315
575	0	0.579315
576	0	0.459459
577	0	0.60587
578	0	0.60587
579	0	0.577219
580	0	0.577219
581	0	0.577219
582	0	0.556229
583	0	0.556229
584	0	0.555556
585	0	0.555556
586	0	0.555556
587	0	0.555556
588	0	0.555556
589	0	0.555556
590	0	0.555556
591	0	0.555556
592	0	0.555556
593	0	0.555556
594	0	0.555556
595	0	0.555556
596	0	0.555556
597	0	0.555556
598	0	0.575122
599	0	0.574423
600	0	0.581145
601	0	0.581145
602	0	0.535065
603	0	0.535065
604	0	0.535065
605	0	0.487013
606	0	0.35974
607	0	0.355195
608	0	0.355195
609	0	0.355195
610	0	0.355195
611	0	0.185714
612	0	0.169312
613	0	0.262338
614	0	0.246753
615	0	0.239057
616	0	0.230519
617	0	0.239057
618	0	0.162124
619	0	0.146128
620	0	0.211041
621	0	0.092437
622	0	0.290706
623	0	0.312971
624	0	0.312971
625	0	0.304314
626	0	0.298643
627	0	0.19521
628	0	0.248548
629	0	0.226216
630	0	0.227273
631	0	0.0953846
632	0	0.0809524
633	0	0.0735931
634	0	0.0519481
635	0	0.0474308
636	0	0.0507246
637	0	0.0237154
638	0	0.0366667
639	0	0.0597701
640	0	0.0604839
641	0	0.145161
642	0	0.129293
643	0	0.159864
644	0	0.242836
645	0	0.233083
646	0	0.232028
647	0	0.43793
648	0	0.421429
649	0	0.392436
650	0	0.236707
651	0	0.560171
652	0	0.534722
653	0	0.589666
654	0	0.591682
655	0	0.612926
656	0	0.116643
657	0	0.124731
658	0	0.12963
659	0	0.12963
660	0	0.119658
661	0	0.0935673
662	0	0.0666667
663	0	0.0909091
664	0	0.0909091
665	0	0.109091
666	0	0.109091
667	0	0.109091
668	0	0.109091
669	0	0
670	0	0
671	0	0
672	0	0
673	0	0
674	0	0
675	0	0
676	0	0
677	0	0
678	0	0.450872
679	0	0.449767
680	0	0.344731
681	0	0.345618
682	0	0
683	0	0
684	0	0
685	0	0
686	0	0
687	0	0
688	0	0
689	0	0
690	0	0
691	0	0
692	0	0
693	0	0
694	0	0
695	0	0
696	0	0
697	0	0
698	0	0
699	0	0.025
700	0	0.0513834
701	0	0.330027
702	0	0.296431
703	0	0.396667
704	0	0.306215
705	0	0.306215
706	0	0.296175
707	0	0.219843
708	0	0.1734
709	0	0.375494
710	0	0.375494
711	0	0.0914286
712	0	0.0842491
713	0	0.0758839
714	0	0.0759554
715	0	0.0675978
716	0	0.127545
717	0	0.107477
718	0	0.339785
719	0	0.318548
720	0	0.273118
721	0	0.256048
722	0	0.22379
723	0	0.22379
724	0	0.136717
725	0	0.0843817
726	0	0.299145
727	0	0.267196
728	0	0.267196
729	0	0.126612
730	0	0.0974671
731	0	0.0671184
732	0	0.0605643
733	0	0.0716789
734	0	0.0685752
735	0	0
736	0	0
737	0	0
738	0	0
739	0	0
740	0	0
741	0	0
742	0	0
743	0	0.0694639
744	0	0.100629
745	0	0.101338
746	0	0
747	0	0
748	0	0
749	0	0
750	0	0
751	0	0
752	0	0
753	0	0
754	0	0
755	0	0
756	0	0
757	0	0
758	0	0
759	0	0
760	0	0
761	0	0
762	0	0
763	0	0
764	0	0
765	0	0
766	0	0
767	0	0
768	0	0
769	0	0
770	0	0
771	0	0
772	0	0
773	0	0
774	0	0
775	0	0
776	0	0
777	0	0
778	0	0
779	0	0
780	0	0
781	0	0
782	0	0
783	0	0
784	0	0
785	0	0
786	0	0
787	0	0
788	0	0
789	0	0
790	0	0.166667
791	0	0.166667
792	0	0.166667
793	0	0.2
794	0	0.111111
795	0	0.0512821
796	0	0.0506355
797	0	0.11
798	0	0.0566667
799	0	0.0615942
800	0	0.0434783
801	0	0.0705645
802	0	0.0455343
803	0	0.333333
804	0	0.488889
805	0	0.488889
806	0	0.244444
807	0	0
808	0	0
809	0	0.0675926
810	0	0.0652386
811	0	0.0782473
812	0	0.0876369
813	0	0
814	0	0
815	0	0.0884194
816	0	0.0442263
817	0	0.126531
818	0	0.138605
819	0	0.0491901
820	0	0
821	0	0
822	0	0.0181818
823	0	0.0868794
824	0	0.089539
825	0	0.103723
826	0	0.0546912
827	0	0.0608378
828	0	0.0593889
829	0	0
830	0	0
831	0	0
832	0	0
833	0	0
834	0	0
835	0	0
836	0	0.12
837	0	0.146667
838	0	0.111927
839	0	0.118999
840	0	0.0664459
841	0	0
842	0	0
843	0	0
844	0	0
845	0	0.0736444
846	0	0.212121
847	0	0.251208
848	0	0.0722447
849	0	0
850	0	0
851	0	0
852	0	0
853	1	0
854	1	0
855	1	0
856	1	0
857	1	0
858	1	0
859	1	0
860	1	0
861	1	0
862	1	0
863	1	0
864	1	0
865	1	0
866	1	0
867	1	0
868	1	0
869	1	0
870	1	0
871	1	0
872	1	0
873	1	0
874	1	0
875	1	0
876	1	0
877	1	0
878	1	0
879	1	0
880	1	0
881	1	0
882	1	0
883	0	0
884	0	0
885	1	0
886	1	0
887	1	0
888	1	0
889	1	0
890	1	0
891	1	0
892	1	0
893	1	0
894	1	0
895	1	0
896	1	0
897	1	0
898	0	0
899	0	0
900	0	0
901	0	0
902	1	0
903	1	0
904	1	0
905	1	0
906	1	0
907	1	0
908	1	0
909	1	0
910	1	0
911	1	0
912	1	0
913	1	0
914	1	0
915	1	0
916	1	0
917	1	0
918	1	0
919	1	0
920	1	0
921	1	0
922	1	0
923	1	0
924	1	0
925	1	0
926	1	0
927	1	0
928	1	0
929	1	0
930	1	0
931	1	0
932	1	0
933	1	0
934	1	0
935	0	0
936	0	0
937	0	0
938	0	0
939	0	0
940	0	0
941	0	0
942	0	0
943	0	0
944	0	0
945	0	0
946	0	0
947	0	0
948	0	0
949	0	0
950	1	0
951	1	0
952	1	0
953	1	0
954	1	0
955	1	0
956	1	0
957	1	0
958	1	0
959	1	0
960	1	0
961	1	0
962	1	0
963	1	0
964	0	0
965	0	0
966	0	0
967	0	0
968	1	0
969	1	0
970	1	0
971	1	0
972	1	0
973	1	0
974	1	0
975	1	0
976	1	0
977	1	0
978	1	0
979	1	0
980	1	0
981	1	0
982	1	0
983	1	0
984	1	0
985	1	0
986	1	0
987	1	0
988	1	0
989	1	0
990	1	0
991	1	0
992	1	0
993	0	0
994	0	0
995	0	0
996	0	0
997	0	0
998	0	0
999	0	0
1000	0	0
1001	0	0
1002	0	0
1003	0	0
1004	0	0
1005	0	0
1006	0	0
1007	0	0
1008	0	0
1009	0	0
1010	0	0
1011	0	0
1012	0	0
1013	0	0
1014	0	0
1015	0	0
1016	0	0
1017	0	0
1018	0	0
1019	0	0
1020	0	0
1021	0	0
1022	0	0
1023	0	0
1024	0	0
1025	0	0
1026	0	0
1027	0	0
1028	0	0
1029	0	0
1030	0	0
1031	0	0
1032	1	0
1033	1	0
1034	1	0
1035	1	0
1036	1	0
1037	1	0
1038	1	0
1039	1	0
1040	1	0
1041	1	0
1042	0	0
1043	0	0
1044	0	0
1045	0	0
1046	0	0
1047	0	0
1048	0	0
1049	0	0
1050	0	0
1051	0	0
1052	1	0
1053	1	0
1054	0	0
1055	0	0
1056	0	0
1057	0	0
1058	0	0
1059	0	0
1060	0	0
1061	0	0
1062	0	0
1063	0	0
1064	0	0
1065	0	0
1066	0	0
1067	0	0
1068	0	0
1069	0	0
1070	0	0
1071	0	0
1072	0	0
1073	0	0
1074	0	0
1075	0	0
1076	0	0
1077	0	0
1078	0	0
1079	0	0
1080	0	0
1081	0	0
1082	0	0
1083	1	0
1084	0	0
1085	1	0
1086	1	0
1087	1	0
1088	0	0
1089	0	0
1090	0	0
1091	0	0
1092	0	0
1093	0	0
1094	0	0
1095	0	0
1096	0	0
1097	0	0
1098	0	0
1099	0	0
1100	0	0
1101	0	0
1102	0	0
1103	0	0
1104	0	0
1105	0	0
1106	0	0
1107	0	0
1108	0	0
1109	0	0
1110	0	0
1111	0	0
1112	0	0
1113	0	0
1114	0	0
1115	0	0
1116	0	0
1117	0	0
1118	0	0
1119	0	0
1120	0	0
1121	0	0
1122	0	0
1123	0	0
1124	0	0
1125	0	0
1126	0	0
1127	0	0
1128	0	0
1129	0	0
1130	0	0
1131	0	0
1132	0	0
1133	0	0
1134	0	0
1135	0	0
1136	0	0
1137	0	0
1138	0	0
1139	0	0
1140	0	0
1141	0	0
1142	0	0
1143	0	0
1144	0	0
1145	0	0
1146	0	0
1147	0	0
1148	0	0
1149	0	0
1150	0	0
1151	0	0
1152	0	0
1153	0	0
1154	0	0
1155	0	0
1156	0	0
1157	0	0
1158	0	0
1159	0	0
1160	0	0
1161	0	0
1162	0	0
1163	0	0
1164	0	0
1165	0	0
1166	0	0
1167	0	0
1168	0	0
1169	0	0.0797721
1170	0	0.126154
1171	0	0.107692
1172	0	0.0862609
1173	0	0.0873016
1174	0	0
1175	0	0
1176	0	0
1177	0	0
1178	0	0
1179	0	0.145242
1180	0	0.197206
1181	0	0
1182	0	0
1183	0	0
1184	0	0
1185	0	0
1186	0	0
1187	0	0
1188	0	0
1189	0	0
1190	0	0
1191	0	0
1192	0	0
1193	0	0
1194	0	0
1195	0	0
1196	0	0
1197	0	0
1198	0	0
1199	0	0
1200	0	0
1201	0	0
1202	0	0
1203	0	0
1204	0	0
1205	0	0
1206	0	0
1207	0	0
1208	0	0
1209	0	0
1210	0	0
1211	0	0
1212	0	0
1213	0	0
1214	0	0
1215	0	0
1216	0	0
1217	0	0
1218	0	0
1219	0	0
1220	0	0
1221	0	0
1222	0	0
1223	0	0
1224	0	0
1225	0	0
1226	0	0
1227	0	0
1228	0	0
1229	0	0
1230	0	0.197179
1231	0	0.0980392
1232	0	0.151515
1233	0	0.151515
1234	0	0.151515
1235	0	0.598918
1236	0	0.0892308
1237	0	0.0869565
1238	0	0.132353
1239	0	0.132353
1240	0	0.15
1241	0	0.166667
1242	0	0.166667
1243	0	0.19697
1244	0	0.12381
1245	0	0.12381
1246	0	0.12381
1247	0	0.108333
1248	0	0.0955882
1249	0	0.0955882
1250	0	0.0955882
1251	0	0.122507
1252	0	0.0728745
1253	0	0.415247
1254	0	0.359695
1255	0	0.286799
1256	0	0.118079
1257	0	0.298701
1258	0	0.222129
1259	0	0.23525
1260	0	0.23298
1261	0	0.239366
1262	0	0.199607
1263	0	0.186455
1264	0	0
1265	0	0
1266	0	0
1267	0	0
1268	0	0
1269	0	0
1270	0	0
1271	0	0
1272	0	0.0860215
1273	0	0.0903226
1274	0	0.0946237
1275	0	0.431967
1276	0	0.394015
1277	0	0.374679
1278	0	0.0512821
1279	0	0.0434397
1280	0	0.0575858
1281	0	0.0606061
1282	0	0.1
1283	0	0
1284	0	0
1285	0	0
1286	0	0
1287	0	0
1288	0	0
1289	0	0
1290	0	0
1291	0	0
1292	0	0
1293	0	0
1294	0	0
1295	0	0
1296	0	0
1297	0	0
1298	0	0.0666667
1299	0	0.047619
1300	0	0.225108
1301	0	0.120773
1302	0	0.116315
1303	0	0.5
1304	0	0.5
1305	0	0.5
1306	0	0.4
1307	0	0.266667
1308	0	0.266667
1309	0	0.194386
1310	0	0.172312
1311	0	0.280271
1312	0	0.135082
1313	0	0.124157
1314	0	0.197601
1315	0	0.0878059
1316	0	0.0930104
1317	0	0.0899406
1318	0	0.0984479
1319	0	0.0780781
1320	0	0.0756303
1321	0	0.0852273
1322	0	0.132275
1323	0	0.168091
1324	0	0.331034
1325	0	0.106061
1326	0	0.227273
1327	0	0.102564
1328	0	0.25
1329	0	0.338235
1330	0	0.504762
1331	0	0.131657
1332	0	0.149132
1333	0	0.160055
1334	0	0.0760331
1335	0	0.0821301
1336	0	0.0859073
1337	0	0.204762
1338	0	0.226316
1339	0	0.121053
1340	0	0.121053
1341	0	0.121053
1342	0	0.1
1343	0	0.0744311
1344	0	0.0776506
1345	0	0.25489
1346	0	0.247409
1347	0	0.255234
1348	0	0.141738
1349	0	0.143666
1350	0	0.168489
1351	0	0.215368
1352	0	0.256612
1353	0	0.279276
1354	0	0.367037
1355	0	0.431217
1356	0	0.498462
1357	0	0.675325
1358	0	0.247632
1359	0	0.265167
1360	0	0.417303
1361	0	0.543142
1362	0	0.661719
1363	0	0.573478
1364	0	0.866613
1365	0	0.133333
1366	0	0.166667
1367	0	0.333333
1368	0	0.333333
1369	0	0.333333
1370	0	0
1371	0	0.357143
1372	0	0.357143
1373	0	0.285714
1374	0	0
1375	0	0
1376	0	0
1377	0	0
1378	0	0
1379	0	0
1380	0	1
1381	0	0.8
1382	0	0.773333
1383	0	0.92
1384	0	0.953488
1385	0	0.954545
1386	0	0.988196
1387	0	0.988196
1388	0	0
1389	0	0
1390	0	0
1391	0	0
1392	0	0
1393	0	0.984926
1394	0	0.981623
1395	0	0.981623
1396	0	0.979978
1397	0	0.5
1398	0	0.979935
1399	0	0.984929
1400	0	0
1401	0	0
1402	0	0
1403	0	0
1404	0	0
1405	0	0.989912
1406	0	0.989912
1407	0	0.989912
1408	0	0.989912
1409	0	0
1410	0	0
1411	0	0
1412	0	0.991575
1413	0	0.991575
1414	0	0
1415	0	0.983354
1416	0	1
1417	0	1
1418	0	1
1419	0	1
1420	0	1
1421	1	1
1422	1	1
1423	0	0.166667
1424	0	0.166667
1425	0	0.166667
1426	0	0.166667
1427	0	0.166667
1428	0	0.5
1429	0	0.5
1430	0	0.3
1431	0	0.3
1432	0	0.333333
1433	0	0.333333
1434	0	0.333333
1435	0	0.333333
1436	0	0.3
1437	0	0.3
1438	0	0.3
1439	0	0.2
1440	0	0.2
1441	0	0.2
1442	0	0.47619
1443	0	0.47619
1444	0	0.357143
1445	0	0.535714
1446	0	0.535714
1447	0	0.75
1448	0	0.807772
1449	1	0
1450	0	0
1451	0	0
1452	0	0
1453	0	0
1454	0	0
1455	0	0
1456	0	0.166667
1457	0	0.166667
1458	0	0.5
1459	0	0.47619
1460	0	0.571429
1461	0	0.993331
1462	0	0.993331
1463	0	0.993331
1464	0	0.994992
1465	0	0.994992
1466	0	0
1467	0	0
1468	0	0
1469	0	0
1470	0	0
1471	0	0
1472	0	0
1473	0	0
1474	0	0
1475	0	0
1476	0	0
1477	0	0
1478	0	0.166667
1479	0	0.333333
1480	0	0.466667
1481	0	0.97484
1482	0	0
1483	0	0
1484	0	0.69697
1485	0	0.69697
1486	0	0.305556
1487	0	0.333333
1488	0	0
1489	0	0
1490	0	0
1491	0	0
1492	0	0
1493	0	0
1494	0	0
1495	0	0
1496	0	0
1497	0	0
1498	0	0
1499	0	0
1500	0	0
1501	0	0
1502	0	0
1503	0	0.381818
1504	0	0.257143
1505	0	0.194737
1506	0	0.173789
1507	0	0.161376
1508	0	0.161376
1509	0	0.142529
1510	0	0.12043
1511	0	0.104762
1512	0	0.118798
1513	0	0.100145
1514	0	0.0830508
1515	0	0.0843254
1516	0	0.146096
1517	0	0.551865
1518	0	0.461658
1519	0	0.503869
1520	0	0.430904
1521	0	0.296522
1522	0	0.299337
1523	0	0.315457
1524	0	0.435961
1525	0	0.224615
1526	0	0.32971
1527	0	0.247619
1528	0	0.352381
1529	0	0.352381
1530	0	0.361905
1531	0	0.361905
1532	0	0.533936
1533	0	0.0869565
1534	0	0.0434783
1535	0	0.0519481
1536	0	0.0619048
1537	0	0.0955882
1538	0	0.114286
1539	0	0.272727
1540	0	0.681818
1541	0	0.705128
1542	0	0.705128
1543	0	0.842342
1544	0	0.896159
1545	0	0.881451
1546	0	0.379085
1547	0	0.588235
1548	0	0.333333
1549	0	0.333333
1550	0	0.333333
1551	0	1
1552	0	1
1553	0	1
1554	0	1
1555	0	1
1556	0	1
1557	0	0.989983
1558	0	0.99165
1559	0	0.989992
1560	0	0.989992
1561	0	0.989996
1562	0	0.991668
1563	0	0.991675
1564	0	1
1565	0	1
1566	0	1
1567	0	1
1568	0	1
1569	0	1
1570	0	1
1571	0	1
1572	0	1
1573	0	1
1574	0	1
1575	0	1
1576	0	0.991669
1577	0	0.990015
1578	0	0.993338
1579	0	0.993338
1580	0	0.996665
1581	0	0.996665
1582	0	0.996665
1583	0	0
1584	0	0
1585	0	0
1586	0	0
1587	0	0
1588	0	0
1589	0	0
1590	0	0
1591	0	0
1592	0	0
1593	0	0
1594	0	0
1595	0	0
1596	0	0
1597	0	0
1598	0	0
1599	0	0
1600	0	0
1601	0	0
1602	0	0
1603	0	0
1604	0	0
1605	0	0
1606	0	0
1607	0	0
1608	0	0.99666
1609	0	0.99666
1610	0	0.994992
1611	0	0.996657
1612	0	0.996657
1613	0	0.996657
1614	0	0.994985
1615	0	0.993315
1616	0	0.6
1617	0	0.6
1618	0	0.988314
1619	0	0
1620	0	0
1621	0	0
1622	0	0
1623	0	0
1624	0	0
1625	0	0
1626	0	0
1627	0	0
1628	0	0
1629	0	0
1630	0	0
1631	0	0
1632	0	0
1633	0	0
1634	0	0
1635	0	0
1636	0	0
1637	0	0
1638	0	1
1639	0	1
1640	0	1
1641	0	1
1642	0	1
1643	0	1
1644	0	0.762202
1645	0	1
1646	0	1
1647	0	1
1648	0	0.333333
1649	0	0.166667
1650	0	0.5
1651	0	1
1652	0	0.75936
1653	0	0.75936
1654	0	0
1655	0	0
1656	0	0
1657	0	0
1658	0	0
1659	0	0
1660	0	0
1661	0	0
1662	0	0
1663	0	0
1664	0	0
1665	0	0
1666	0	0
1667	0	0
1668	0	0
1669	0	0
1670	0	0
1671	0	0
1672	0	0.501497
1673	1	1
1674	0	1
1675	1	1
1676	1	1
1677	1	1
1678	1	1
1679	1	1
1680	0	0.998325
1681	0	1
1682	0	1
1683	0	0.998321
1684	0	0.996646
1685	0	0.4
1686	0	0
1687	0	0
1688	0	0
1689	0	0
1690	0	0
1691	1	0
1692	1	0
1693	1	0
1694	1	0
1695	1	0
1696	1	0
1697	1	0
1698	1	0
1699	1	0
1700	1	0
1701	1	0
1702	1	0
1703	1	0
1704	1	0
1705	0	0
1706	0	0.988353
1707	0	0.986695
1708	0	0
1709	0	0
1710	0	0.989989
1711	0	0.833333
1712	0	0.875
1713	0	0.993336
1714	0	0
1715	0	0
1716	0	0
1717	0	0
1718	0	0
1719	0	0.996665
1720	0	0.996665
1721	0	0.996657
1722	0	0.994992
1723	0	0.996657
1724	0	0.996657
1725	0	0.996662
1726	0	0.998329
1727	0	0.998329
1728	0	0
1729	0	0.99666
1730	0	0.99666
1731	0	0.99666
1732	0	0.998328
1733	0	0.998328
1734	0	0.998328
1735	0	0.998328
1736	0	0.998328
1737	0	0.998328
1738	0	0.998326
1739	0	0.998326
1740	0	0.998326
1741	0	0.998325
1742	0	0.996651
1743	0	0.994983
1744	0	0.996649
1745	0	0.994975
1746	0	0
1747	0	0
1748	0	0
1749	0	0
1750	0	0
1751	0	0
1752	0	0
1753	0	0
1754	0	0
1755	0	0
1756	0	0
1757	0	0
1758	0	0.333333
1759	0	0.333333
1760	0	0.333333
1761	0	0
1762	0	0
1763	0	0
1764	0	0
1765	1	1
1766	1	1
1767	1	1
1768	0	1
1769	0	0.998332
1770	1	1
1771	1	1
1772	1	1
1773	1	1
1774	1	1
1775	1	1
1776	0	1
1777	1	1
1778	1	1
1779	1	1
1780	1	1
1781	0	1
1782	0	1
1783	0	1
1784	0	1
1785	0	0.99666
1786	0	0.99666
1787	0	0
1788	0	0
1789	0	0
1790	0	0.998322
1791	0	0.996649
1792	0	0.998324
1793	0	0.998324
1794	0	0.998324
1795	0	0.996651
1796	0	0.986653
1797	0	0.614379
1798	0	0.958832
1799	0	0
1800	0	0.705128
1801	0	0.944453
1802	0	0.571429
1803	0	0.938171
1804	0	0.994979
1805	0	0.994979
1806	0	0.994979
1807	0	0.996649
1808	0	0.996649
1809	0	0.996649
1810	0	0.996649
1811	0	0.996649
1812	0	0.996649
1813	0	0.994975
1814	0	0.991639
1815	0	0.993303
1816	0	0.993303
1817	1	0
1818	1	0
1819	1	0
1820	0	0
1821	0	0.996646
1822	0	0.998321
1823	0	0.996646
1824	0	0
1825	0	0.99664
1826	0	0.99664
1827	0	0.998318
1828	0	0.994966
1829	0	0.994966
1830	0	0.994966
1831	0	0.994966
1832	0	0.5
1833	0	0.5
1834	0	0.952527
1835	0	0.690915
1836	0	0.512973
1837	0	0.474489
1838	0	0.498024
1839	0	0.401475
1840	0	0.2106
1841	0	0.277145
1842	0	0.231662
1843	0	0.274905
1844	0	0.269788
1845	0	0.229762
1846	0	0.361935
1847	0	0.35746
1848	0	0.551967
1849	0	0.356774
1850	0	0.556942
1851	0	0.361062
1852	0	0.364189
1853	0	0.335813
1854	0	0.333333
1855	0	0.3254
1856	0	0.315013
1857	0	0.298357
1858	0	0.245982
1859	0	0.255952
1860	0	0.303433
1861	0	0.272938
1862	0	0.373109
1863	0	0.421371
1864	0	0.478401
1865	0	0.514241
1866	0	0.787373
1867	0	0.75891
1868	0	0.81825
1869	0	0.75891
1870	0	0.352941
1871	0	0.641633
1872	0	1
1873	0	1
1874	0	1
1875	0	0.86711
1876	0	0.953488
1877	0	1
1878	0	0.288038
1879	0	0
1880	0	0
1881	0	0.138889
1882	0	0.111111
1883	0	0.163636
1884	0	0.256168
1885	0	0.284817
1886	0	0.264507
1887	0	0.264507
1888	0	0.55641
1889	0	0.65294
1890	0	0.91378
1891	0	0.492186
1892	0	0.996634
1893	0	0.994958
1894	0	0.994958
1895	0	0.994958
1896	0	0.994958
1897	0	0.994962
1898	0	0.991618
1899	0	0.991618
1900	0	0.991618
1901	0	0.991618
1902	0	0.989946
1903	0	0.818182
1904	0	0.818182
1905	0	0.418462
1906	0	0.390769
1907	0	0.390769
1908	0	0.273273
1909	0	0.455997
1910	0	0.396699
1911	0	0.783018
1912	0	0.333333
1913	0	0.333333
1914	0	0.333333
1915	0	0.333333
1916	0	0.333333
1917	0	0.333333
1918	0	0.333333
1919	0	0.333333
1920	0	0.333333
1921	0	0.333333
1922	0	0.333333
1923	0	0.333333
1924	0	0.333333
1925	0	0.333333
1926	0	0.166667
1927	0	0.166667
1928	0	0.166667
1929	0	0.1
1930	0	0.047619
1931	0	0.402124
1932	0	0.230769
1933	0	0.246246
1934	0	0.204762
1935	0	0.161345
1936	0	0.111849
1937	0	0.607205
1938	0	0.546532
1939	0	0.278751
1940	0	0.438901
1941	0	0.622794
1942	0	0.266701
1943	0	0.0914634
1944	0	0.0998217
1945	0	0.0997151
1946	0	0.121212
1947	0	0.143791
1948	0	0.125
1949	0	0.141667
1950	0	0.153846
1951	0	0.179487
1952	0	0.179487
1953	0	0.179487
1954	0	0.0769231
1955	0	0.0769231
1956	0	0.0909091
1957	0	0.111111
1958	0	0.111111
1959	0	0.111111
1960	0	0.142857
1961	0	0.190476
1962	0	0.2
1963	0	0.3
1964	0	0.3
1965	0	0.6
1966	0	0.6
1967	0	0.6
1968	0	0.6
1969	0	0.6
1970	0	0.6
1971	0	0.6
1972	0	0.6
1973	0	0.6
1974	0	0.666667
1975	0	0.666667
1976	0	0.666667
1977	0	0.288889
1978	0	0.19697
1979	0	0.272059
1980	0	0.36427
1981	0	0.349268
1982	0	0.503259
1983	0	0.50045
1984	0	0.998321
1985	0	0.996646
1986	0	0.996646
1987	0	0.996649
1988	0	0.996654
1989	0	0.996657
1990	0	0.996657
1991	0	0.996657
1992	0	0.996657
1993	0	0.998326
1994	0	0.998326
1995	0	0.996657
1996	0	0.994993
1997	0	0.994993
1998	0	1
1999	0	1
2000	0	1
2001	0	1
2002	0	0.982105
2003	0	0.833333
2004	0	0.833333
2005	0	0.833333
2006	0	0.951938
2007	0	0.760407
2008	0	0.781538
2009	0	0.781538
2010	0	0.687129
2011	0	0.580935
2012	0	0.585999
2013	0	0.32959
2014	0	0.284529
2015	0	0.369295
2016	0	0.304858
2017	0	0.228022
2018	0	0
2019	0	0
2020	0	0
2021	0	0
2022	0	0
2023	0	0
2024	0	0.323178
2025	0	0.316686
2026	0	0.357143
2027	0	0.580716
2028	0	0.266667
2029	0	0.190476
2030	0	0.151515
2031	0	0.151515
2032	0	0.151515
2033	0	0.151515
2034	0	0.102941
2035	0	0.0566667
2036	0	0.0552585
2037	0	0.131448
2038	0	0.333812
2039	0	0.289716
2040	0	0.189546
2041	0	0.199342
2042	0	0.162993
2043	0	0.152085
2044	0	0.172357
2045	0	0.15655
2046	0	0.14897
2047	0	0.138013
2048	0	0.125817
2049	0	0.122571
2050	0	0.116143
2051	0	0.0877693
2052	0	0.0454545
2053	0	0.0955882
2054	0	0.0862707
2055	0	0.0983798
2056	0	0
2057	0	0
2058	0	0
2059	0	0
2060	0	0
2061	0	0
2062	0	0.141099
2063	0	0
2064	0	0
2065	0	0
2066	0	0
2067	0	0
2068	0	0
2069	0	0.262608
2070	0	0.142857
2071	0	0.1
2072	0	0.1
2073	0	0.1
2074	0	0.133333
2075	0	0.133333
2076	0	0.133333
2077	0	0.0952381
2078	0	0.296481
2079	0	0.340683
2080	0	0.364393
2081	0	0.391983
2082	0	0.425573
2083	0	0.282051
2084	0	0.282051
2085	0	0.282051
2086	0	0.282051
2087	0	0.333333
2088	0	0.333333
2089	0	0.321429
2090	0	0.91215
2091	0	0.912333
2092	0	0
2093	0	0
2094	0	0
2095	0	0
2096	0	0.929682
2097	0	0
2098	0	0
2099	0	0
2100	0	0
2101	0	0
2102	0	0
2103	0	0
2104	0	1
2105	0	1
2106	0	0.753385
2107	0	0.286576
2108	0	0.602402
2109	0	0.600337
2110	0	0
2111	0	0
2112	0	0
2113	0	0
2114	0	0.285714
2115	0	0.606068
2116	0	0.610323
2117	0	0
2118	0	0
2119	0	0
2120	0	0
2121	0	0
2122	0	0
2123	0	0
2124	0	0.645222
2125	0	0.361111
2126	0	0.6
2127	0	0.965831
2128	0	0.955702
2129	0	0.957755
2130	0	0
2131	0	0.409357
2132	0	1
2133	0	1
2134	0	0.984979
2135	0	0.984979
2136	0	0.984979
2137	0	0.983331
2138	0	0.983331
2139	0	0.986652
2140	0	0.988306
2141	0	1
2142	0	1
2143	0	1
2144	1	1
2145	1	1
2146	1	1
2147	1	1
2148	1	1
2149	1	1
2150	0	0.333333
2151	0	0.333333
2152	0	0.333333
2153	0	0.333333
2154	0	0.333333
2155	0	0.333333
2156	0	0.333333
2157	0	0.5
2158	0	0.545429
2159	0	0.866716
2160	0	0.981641
2161	0	0.981645
2162	0	1
2163	0	0.993291
2164	0	0.991625
2165	0	0.993297
2166	0	0.993297
2167	0	0.993297
2168	0	0.993297
2169	0	0.991639
2170	0	0.993303
2171	0	0.993303
2172	0	0.993297
2173	0	0.993297
2174	0	0.994966
2175	0	0.994966
2176	0	0.994962
2177	0	0.994962
2178	0	0.994962
2179	0	0.994962
2180	0	0.994962
2181	0	0.994962
2182	0	0.993291
2183	0	0.993291
2184	0	0.993291
2185	0	0.993291
2186	0	0.993291
2187	0	0.993291
2188	0	0.993291
2189	0	0.993297
2190	0	0.993297
2191	0	0.994966
2192	0	0.994966
2193	0	0.994966
2194	0	0.994966
2195	0	0.993297
2196	0	0
2197	0	0
2198	0	0
2199	0	0
2200	0	0
2201	0	0
2202	0	0
2203	0	0
2204	0	0
2205	0	0
2206	0	0
2207	0	0
2208	0	0.989937
2209	0	0.6
2210	0	0.6
2211	0	0.6
2212	0	0.6
2213	0	0.4
2214	0	0.974414
2215	0	0
2216	0	0
2217	0	0
2218	0	0
2219	0	0
2220	0	0
2221	0	0.972317
2222	0	0.93986
2223	0	0.845098
2224	0	0.845098
2225	0	0
2226	0	0
2227	0	0
2228	0	0
2229	0	0
2230	0	0
2231	0	0
2232	0	0
2233	0	0
2234	0	0
2235	0	0
2236	0	0
2237	0	0
2238	0	0
2239	0	0
2240	0	0
2241	0	0
2242	0	0
2243	0	0
2244	0	0
2245	0	0
2246	0	0
2247	0	0
2248	0	0
2249	0	0
2250	0	0
2251	0	0
2252	0	0
2253	0	0
2254	0	0
2255	0	0
2256	0	0
2257	0	0
2258	0	0
2259	0	0
2260	0	0
2261	0	0
2262	0	0
2263	0	0
2264	0	0
2265	0	0
2266	0	0
2267	0	0
2268	0	0
2269	0	0
2270	0	0
2271	0	0
2272	0	0
2273	0	0
2274	0	0
2275	0	0
2276	0	0
2277	0	0
2278	0	0
2279	0	0
2280	0	0
2281	0	0
2282	0	0
2283	0	0
2284	0	0
2285	0	0
2286	0	0
2287	0	0
2288	0	0
2289	0	0
2290	0	0
2291	0	0
2292	0	0
2293	0	0
2294	0	0
2295	0	0
2296	0	0
2297	0	0
2298	0	0
2299	0	0
2300	0	0
2301	0	0
2302	0	0
2303	0	0
2304	0	0
2305	0	0
2306	0	0
2307	0	0
2308	0	0
2309	0	0
2310	0	0
2311	0	0
2312	0	0
2313	0	0
2314	0	0
2315	0	0
2316	0	0
2317	0	0
2318	0	0
2319	0	0
2320	0	0
2321	0	0
2322	0	0
2323	0	0
2324	0	0
2325	0	0
2326	0	0
2327	0	0
2328	0	0
2329	0	0
2330	0	0
2331	0	0
2332	0	0
2333	0	0
2334	0	0
2335	0	0
2336	0	0
2337	0	0
2338	0	0
2339	0	0
2340	0	0
2341	0	0
2342	0	0
2343	0	0
2344	0	0
2345	0	0
2346	0	0
2347	0	0
2348	0	0
2349	0	0
2350	0	0
2351	0	0
2352	0	0
2353	0	0
2354	0	0
2355	0	0
2356	0	0
2357	0	0
2358	0	0
2359	0	0
2360	0	0
2361	0	0
2362	0	0
2363	0	0
2364	0	0
2365	0	0
2366	0	0
2367	0	0
2368	0	0
2369	0	0
2370	0	0
2371	0	0
2372	0	0
2373	0	0
2374	0	0
2375	0	0
2376	0	0
2377	0	0.820689
2378	0	0
2379	0	0
2380	0	0
2381	0	0
2382	0	0
2383	0	0
2384	0	0
2385	0	0
2386	0	0
2387	0	0
2388	0	0
2389	0	0
2390	0	0
2391	0	0
2392	0	0.1
2393	0	0.1
2394	0	0.1
2395	0	0.1
2396	0	0.1
2397	0	0.1
2398	0	0.0666667
2399	0	0.0666667
2400	0	0.0555556
2401	0	0.0641026
2402	0	0.0549451
2403	0	0.0549451
2404	0	0
2405	0	0
2406	0	0
2407	0	0.0357143
2408	0	0.0357143
2409	0	0.0444444
2410	0	0.0879121
2411	0	0.564286
2412	0	0.314343
2413	0	0.268554
2414	0	0.215208
2415	0	0.293362
2416	0	0.237896
2417	0	0.195022
2418	0	0.287381
2419	0	0.191023
2420	0	1
2421	0	1
2422	0	0.333333
2423	0	0.333333
2424	0	0.333333
2425	0	0.159548
2426	0	0.2
2427	0	0.2
2428	0	0.2
2429	0	0
2430	0	0
2431	0	0
2432	0	0
2433	0	0
2434	0	0
2435	0	0
2436	0	0.193959
2437	0	0.25
2438	0	0.25
2439	0	0.214286
2440	0	0.214286
2441	0	0.107143
2442	0	0.107143
2443	0	0.107143
2444	0	0.107143
2445	0	0.142857
2446	0	0.2
2447	0	0.142857
2448	0	0.151133
2449	0	0
2450	0	0
2451	0	0
2452	0	0
2453	0	0
2454	0	0
2455	0	0
2456	0	0
2457	0	0
2458	0	0
2459	0	0
2460	0	0
2461	0	0
2462	0	0
2463	0	0
2464	0	0
2465	0	0
2466	0	0.20216
2467	0	0.148623
2468	0	0.146341
2469	0	0.149443
2470	0	0.120447
2471	0	0.138759
2472	0	0.141444
2473	0	0
2474	0	0
2475	0	0
2476	0	0
2477	0	0
2478	0	0
2479	0	0
2480	0	0
2481	0	0
2482	0	0
2483	0	0
2484	0	0
2485	0	0
2486	0	0
2487	0	0
2488	0	0
2489	0	0
2490	0	0
2491	0	0
2492	0	0
2493	0	0
2494	0	0
2495	0	0
2496	0	0
2497	0	0
2498	0	0
2499	0	0
2500	0	0
2501	0	0
2502	0	0
2503	0	0
2504	0	0
2505	0	0
2506	0	0
2507	0	0
2508	0	0
2509	0	0
2510	0	0
2511	0	0
2512	0	0
2513	0	0
2514	0	0
2515	0	0
2516	0	0
2517	0	0
2518	0	0
2519	0	0
2520	0	0
2521	0	0
2522	0	0
2523	0	0
2524	0	0
2525	0	0
2526	0	0
2527	0	0
2528	0	0
2529	0	0
2530	0	0
2531	0	0
2532	0	0
2533	0	0
2534	0	0
2535	0	0
2536	0	0
2537	0	0
2538	0	0
2539	0	0
2540	0	0
2541	0	0
2542	0	0
2543	0	0
2544	0	0
2545	0	0
2546	0	0
2547	0	0
2548	0	0
2549	0	0
2550	0	0
2551	0	0
2552	0	0
2553	0	0
2554	0	0
2555	0	0
2556	0	0
2557	0	0
2558	0	0
2559	0	0
2560	0	0
2561	0	0
2562	0	0
2563	0	0
2564	0	0
2565	0	0
2566	0	0
2567	0	0
2568	0	0
2569	0	0
2570	0	0
2571	0	0
2572	0	0
2573	0	0
2574	0	0
2575	0	0
2576	0	0
2577	0	0
2578	0	0
2579	0	0
2580	0	0
2581	0	0
2582	0	0
2583	0	0
2584	0	0
2585	0	0
2586	0	0
2587	0	0
2588	0	0
2589	0	0
2590	0	0
2591	0	0
2592	0	0
2593	0	0
2594	0	0
2595	0	0
2596	0	0
2597	0	0
2598	0	0
2599	0	0
2600	0	0
2601	0	0
2602	0	0
2603	0	0
2604	0	0
2605	0	0
2606	0	0
2607	0	0
2608	0	0
2609	0	0
2610	0	0
2611	0	0
2612	0	0
2613	0	0
2614	0	0
2615	0	0
2616	0	0
2617	0	0
2618	0	0
2619	0	0
2620	0	0
2621	0	0
2622	0	0
2623	0	0
2624	0	0
2625	0	0
2626	0	0
2627	0	0
2628	0	0
2629	0	0
2630	0	0
2631	0	0
2632	0	0
2633	0	0
2634	0	0
2635	0	0
2636	0	0
2637	0	0
2638	0	0
2639	0	0
2640	0	0
2641	0	0
2642	0	0.411765
2643	0	0.295238
2644	0	0.341463
2645	0	0.218029
2646	0	0.151748
2647	0	0.400458
2648	0	0.396184
2649	0	0.302431
2650	0	0.381423
2651	0	0.41201
2652	0	0.405317
2653	0	0.454953
2654	0	0.431809
2655	0	0.481673
2656	0	0.772494
2657	0	0.731458
2658	0	0.350202
2659	0	0.388957
2660	0	0.689544
2661	0	0.395551
2662	0	0.396724
2663	0	0.116059
2664	0	0.104202
2665	0	0.11553
2666	0	0.113636
2667	0	0.106686
2668	0	0.107937
2669	0	0.100996
2670	0	0.132275
2671	0	0.14245
2672	0	0.15873
2673	0	0.417745
2674	0	0.241667
2675	0	0.0357143
2676	0	0
2677	0	0
2678	0	0
2679	0	0
2680	0	0
2681	0	0
2682	0	0
2683	0	0
2684	0	0
2685	0	0
2686	0	0
2687	0	0
2688	0	0
2689	0	0.397413
2690	0	0.396729
2691	1	0
2692	1	0
2693	1	0
2694	1	0
2695	1	0
2696	1	0
2697	1	0
2698	1	0
2699	1	0
2700	1	0
2701	1	0
2702	1	0
2703	1	0
2704	1	0
2705	1	0
2706	1	0
2707	1	0
2708	1	0
2709	1	0
2710	1	0
2711	1	0
2712	1	0
2713	1	0
2714	1	0
2715	0	0
2716	0	0
2717	0	0
2718	0	0
2719	1	0
2720	1	0
2721	1	0
2722	1	0
2723	1	0
2724	1	0
2725	1	0
2726	1	0
2727	0	0
2728	0	0
2729	0	0
2730	0	0
2731	0	0
2732	0	0
2733	0	0
2734	0	0
2735	0	0
2736	0	0
2737	0	0
2738	0	0
2739	0	0
2740	0	0
2741	0	0
2742	0	0
2743	0	0
2744	0	0
2745	0	0
2746	0	0
2747	0	0
2748	0	0
2749	0	0
2750	0	0
2751	0	0
2752	0	0
2753	0	0
2754	0	0
2755	0	0
2756	0	0
2757	0	0
2758	0	0
2759	0	0
2760	0	0
2761	0	0
2762	0	0
2763	0	0
2764	0	0
2765	0	0
2766	0	0
2767	0	0
2768	0	0
2769	0	0
2770	0	0
2771	0	0
2772	0	0
2773	0	0
2774	0	0
2775	0	0
2776	0	0
2777	0	0
2778	0	0
2779	0	0
2780	0	0
2781	0	0
2782	0	0
2783	0	0
2784	0	0
2785	0	0
2786	0	0
2787	0	0
2788	0	0
2789	0	0
2790	0	0
2791	0	0
2792	0	0
2793	0	0
2794	0	0
2795	0	0
2796	0	0
2797	0	0
2798	0	0
2799	0	0
2800	0	0
2801	0	0
2802	0	0
2803	0	0
2804	0	0
2805	0	0
2806	0	0
2807	0	0
2808	0	0
2809	0	0
2810	0	0
2811	0	0
2812	0	0
2813	0	0
2814	0	0
2815	0	0
2816	0	0
2817	0	0
2818	0	0
2819	0	0
2820	0	0
2821	0	0
2822	0	0
2823	0	0
2824	0	0
2825	0	0
2826	0	0
2827	0	0
2828	0	0
2829	0	0
2830	0	0
2831	0	0
2832	0	0
2833	0	0
2834	0	0
2835	0	0
2836	0	0
2837	0	0
2838	0	0
2839	0	0
2840	0	0
2841	0	0
2842	0	0
2843	0	0
2844	0	0
2845	0	0
2846	0	0
2847	0	0
2848	0	0
2849	0	0
2850	0	0
2851	0	0
2852	0	0
2853	0	0
2854	0	0
2855	1	0
2856	1	0
2857	1	0
2858	0	0
2859	0	0
2860	0	0
2861	1	0
2862	0	0
2863	0	0
2864	0	0
2865	0	0
2866	0	0
2867	0	0.0952381
2868	0	0
2869	0	0.166667
2870	0	0.166667
2871	0	0.166667
2872	0	0.166667
2873	0	0.166667
2874	0	0
2875	0	0
2876	0	0
2877	0	0
2878	0	0
2879	0	0
2880	0	0
2881	0	0
2882	0	0
2883	0	0
2884	0	0
2885	0	0
2886	0	0
2887	0	0
2888	0	0
2889	0	0
2890	0	0
2891	0	0
2892	0	0
2893	0	0
2894	0	0
2895	0	0
2896	0	0
2897	0	0
2898	0	0
2899	0	0
2900	0	0
2901	0	0
2902	0	0
2903	0	0
2904	0	0
2905	0	0
2906	0	0
2907	0	0
2908	0	0
2909	0	0
2910	0	0
2911	0	0
2912	0	0
2913	0	0
2914	0	0
2915	0	0
2916	0	0
2917	0	0
2918	0	0
2919	0	0
2920	0	0
2921	0	0
2922	0	0
2923	0	0
2924	0	0
2925	0	0
2926	0	0
2927	0	0
2928	0	0
2929	0	0
2930	0	0
2931	0	0
2932	0	0
2933	0	0
2934	0	0
2935	0	0
2936	0	0
2937	0	0
2938	0	0
2939	0	0
2940	0	0
2941	0	0
2942	0	0
2943	0	0
2944	0	0
2945	0	0
2946	0	0
2947	0	0
2948	0	0
2949	0	0
2950	0	0
2951	0	0
2952	0	0
2953	0	0
2954	0	0
2955	0	0
2956	0	0
2957	0	0
2958	0	0
2959	0	0
2960	0	0
2961	0	0
2962	0	0
2963	0	0
2964	0	0
2965	0	0
2966	0	0
2967	0	0
2968	0	0
2969	0	0
2970	0	0
2971	0	0
2972	0	0
2973	0	0
2974	0	0
2975	0	0
2976	0	0
2977	0	0
2978	0	0
2979	0	0
2980	0	0
2981	0	0
2982	0	0
2983	0	0
2984	0	0
2985	0	0
2986	0	0
2987	0	0
2988	0	0
2989	0	0
2990	0	0
2991	0	0
2992	0	0
2993	0	0
2994	0	0
2995	0	0
2996	0	0
2997	0	0
2998	0	0
2999	0	0
3000	0	0
3001	0	0
3002	0	0
3003	0	0
3004	0	0
3005	0	0
3006	0	0
3007	0	0
3008	0	0
3009	0	0
3010	0	0
3011	0	0
3012	0	0
3013	0	0
3014	0	0
3015	0	0
3016	0	0
3017	0	0
3018	0	0
3019	0	0
3020	0	0
3021	0	0
3022	0	0
3023	0	0
3024	0	0
3025	0	0
3026	0	0
3027	0	0
3028	0	0
3029	0	0
3030	0	0
3031	0	0
3032	0	0
3033	0	0
3034	0	0
3035	0	0
3036	0	0
3037	0	0
3038	0	0
3039	0	0
3040	0	0
3041	0	0
3042	0	0
3043	0	0
3044	0	0
3045	0	0
3046	0	0
3047	0	0
3048	0	0
3049	0	0
3050	0	0
3051	0	0
3052	0	0
3053	0	0
3054	0	0
3055	0	0
3056	0	0
3057	0	0
3058	0	0
3059	0	0
3060	0	0
3061	0	0
3062	0	0
3063	0	0
3064	0	0
3065	0	0
3066	0	0
3067	0	0
3068	0	0
3069	0	0
3070	0	0
3071	0	0
3072	0	0
3073	0	0
3074	0	0
3075	0	0
3076	0	0
3077	0	0
3078	0	0
3079	0	0
3080	0	0
3081	0	0
3082	0	0
3083	0	0
3084	0	0
3085	0	0
3086	0	0
3087	0	0
3088	0	0
3089	0	0
3090	0	0
3091	0	0
3092	0	0
3093	0	0
3094	0	0
3095	0	0
3096	0	0
3097	0	0
3098	0	0
3099	0	0
3100	0	0
3101	0	0
3102	0	0
3103	0	0
3104	0	0
3105	0	0
3106	0	0
3107	0	0
3108	0	0
3109	0	0
3110	0	0
3111	0	0
3112	0	0
3113	0	0
3114	0	0
3115	0	0
3116	0	0
3117	0	0
3118	0	0
3119	0	0
3120	0	0
3121	0	0
3122	0	0
3123	0	0
3124	0	0
3125	0	0
3126	0	0
3127	0	0
3128	0	0
3129	0	0
3130	0	0
3131	0	0
3132	0	0
3133	0	0
3134	0	0
3135	0	0
3136	0	0
3137	0	0
3138	0	0
3139	0	0
3140	0	0
3141	0	0
3142	0	0
3143	0	0
3144	0	0
3145	0	0
3146	0	0
3147	0	0
3148	0	0
3149	0	0
3150	0	0
3151	0	0
3152	0	0
3153	0	0
3154	0	0
3155	0	0
3156	0	0
3157	0	0
3158	0	0
3159	0	0
3160	0	0
3161	0	0
3162	0	0
3163	0	0
3164	0	0
3165	0	0
3166	0	0
3167	0	0
3168	0	0
3169	0	0
3170	0	0
3171	0	0
3172	0	0
3173	0	0
3174	0	0
3175	0	0
3176	0	0
3177	0	0
3178	0	0
3179	0	0
3180	0	0
3181	0	0
3182	0	0
3183	0	0
3184	0	0
3185	0	0
3186	0	0
3187	0	0
3188	0	0
3189	0	0
3190	0	0
3191	0	0
3192	0	0
3193	0	0
3194	0	0
3195	0	0
3196	0	0
3197	0	0
3198	0	0
3199	0	0
3200	0	0
3201	0	0
3202	0	0
3203	0	0
3204	0	0
3205	0	0
3206	0	0
3207	0	0
3208	0	0
3209	0	0
3210	0	0
3211	0	0
3212	0	0
3213	0	0
3214	0	0
3215	0	0
3216	0	0
3217	0	0
3218	0	0
3219	0	0
3220	0	0
3221	0	0
3222	0	0
3223	0	0
3224	0	0
3225	0	0
3226	0	0
3227	0	0
3228	0	0
3229	0	0
3230	0	0.408497
3231	0	0.28979
3232	0	0.415363
3233	0	0.415363
3234	0	0.645763
3235	0	0.62459
3236	0	0.629825
3237	0	0.434302
3238	0	0.44183
3239	0	0.443389
3240	0	0.443034
3241	0	0.442269
3242	0	0.44209
3243	0	0.437349
3244	0	0
3245	0	0
3246	0	0
3247	0	0
3248	0	0
3249	0	0
3250	0	0
3251	0	0
3252	0	0
3253	0	0.434518
3254	0	0.127273
3255	0	0.190123
3256	0	0.31497
3257	0	0.302343
3258	0	0.220642
3259	0	0.210395
3260	0	0.242984
3261	0	0.260689
3262	0	0.304187
3263	0	0.344634
3264	0	0.432782
3265	0	0.512686
3266	0	0.110083
3267	0	0.162879
3268	0	0.12987
3269	0	0.154412
3270	0	0.154412
3271	0	0.0222222
3272	0	0
3273	0	0
3274	0	0
3275	0	0
3276	0	0
3277	0	0
3278	0	0
3279	0	0
3280	0	0
3281	0	0
3282	0	0
3283	0	0
3284	0	0
3285	0	0
3286	0	0
3287	0	0
3288	0	0
3289	0	0
3290	0	0
3291	0	0
3292	0	0
3293	0	0
3294	0	0
3295	0	0
3296	0	0
3297	0	0
3298	0	0
3299	0	0
3300	0	0
3301	0	0
3302	0	0
3303	0	0
3304	0	0
3305	0	0
3306	0	0
3307	0	0
3308	0	0
3309	0	0
3310	0	0
3311	0	0
3312	0	0
3313	0	0
3314	0	0
3315	0	0
3316	0	0
3317	0	0
3318	0	0
3319	0	0
3320	0	0
3321	0	0
3322	0	0
3323	0	0
3324	0	0
3325	0	0
3326	0	0
3327	0	0
3328	0	0
3329	0	0
3330	0	0
3331	0	0
3332	0	0
3333	0	0
3334	0	0
3335	0	0
3336	0	0
3337	0	0
3338	0	0
3339	0	0
3340	0	0
3341	0	0
3342	0	0
3343	0	0
3344	0	0
3345	0	0
3346	0	0
3347	0	0
3348	0	0
3349	0	0
3350	0	0
3351	0	0
3352	0	0
3353	0	0
3354	0	0
3355	0	0
3356	0	0
3357	0	0
3358	0	0
3359	0	0
3360	0	0
3361	0	0
3362	0	0
3363	0	0
3364	0	0
3365	0	0
3366	0	0
3367	0	0
3368	0	0
3369	0	0
3370	0	0
3371	0	0
3372	0	0
3373	0	0
3374	0	0
3375	0	0
3376	0	0
3377	0	0
3378	0	0
3379	0	0
3380	0	0
3381	0	0
3382	0	0
3383	0	0
3384	0	0
3385	0	0
3386	0	0
3387	0	0
3388	0	0
3389	0	0
3390	0	0
3391	0	0
3392	0	0
3393	0	0
3394	0	0
3395	0	0
3396	0	0
3397	0	0
3398	0	0
3399	0	0
3400	0	0
3401	0	0
3402	0	0
3403	0	0
3404	0	0
3405	0	0
3406	0	0
3407	0	0
3408	0	0
3409	0	0
3410	0	0
3411	0	0
3412	0	0
3413	0	0
3414	0	0
3415	0	0
3416	0	0
3417	0	0
3418	0	0
3419	0	0
3420	0	0
3421	0	0
3422	0	0
3423	0	0
3424	0	0
3425	0	0
3426	0	0
3427	0	0
3428	0	0
3429	0	0
3430	0	0
3431	0	0
3432	0	0
3433	0	0
3434	0	0
3435	0	0
3436	0	0
3437	0	0
3438	0	0
3439	0	0
3440	0	0
3441	0	0
3442	0	0
3443	0	0
3444	0	0
3445	0	0
3446	0	0
3447	0	0
3448	0	0
3449	0	0
3450	0	0
3451	0	0
3452	0	0
3453	0	0
3454	0	0
3455	0	0
3456	0	0
3457	0	0
3458	0	0
3459	0	0
3460	0	0
3461	0	0
3462	0	0
3463	0	0
3464	0	0
3465	0	0
3466	0	0
3467	0	0
3468	0	0
3469	0	0
3470	0	0
3471	0	0
3472	0	0
3473	0	0
3474	0	0
3475	0	0
3476	0	0
3477	0	0
3478	0	0
3479	0	0
3480	0	0
3481	0	0
3482	0	0
3483	0	0
3484	0	0
3485	0	0
3486	0	0
3487	0	0
3488	0	0
3489	0	0
3490	0	0
3491	0	0
3492	0	0
3493	0	0
3494	0	0
3495	0	0
3496	0	0
3497	0	0
3498	0	0
3499	0	0
3500	0	0
3501	0	0
3502	0	0
3503	0	0
3504	0	0
3505	0	0
3506	0	0
3507	0	0
3508	0	0
3509	0	0
3510	0	0
3511	0	0
3512	0	0
3513	0	0
3514	0	0
3515	0	0
3516	0	0
3517	0	0
3518	0	0
3519	0	0
3520	0	0
3521	0	0
3522	0	0
3523	0	0
3524	0	0
3525	0	0
3526	0	0
3527	0	0
3528	0	0
3529	0	0
3530	0	0
3531	0	0
3532	0	0
3533	0	0
3534	0	0
3535	0	0
3536	0	0
3537	0	0
3538	0	0
3539	0	0
3540	0	0
3541	0	0
3542	0	0
3543	0	0
3544	0	0
3545	0	0
3546	0	0
3547	0	0
3548	0	0
3549	0	0
3550	0	0
3551	0	0
3552	0	0
3553	0	0
3554	0	0
3555	0	0
3556	0	0
3557	0	0
3558	0	0
3559	0	0
3560	0	0
3561	0	0
3562	0	0
3563	0	0
3564	0	0
3565	0	0
3566	0	0
3567	0	0
3568	0	0
3569	0	0
3570	0	0
3571	0	0
3572	0	0
3573	0	0
3574	0	0
3575	0	0
3576	0	0
3577	0	0
3578	0	0
3579	0	0
3580	0	0
3581	0	0
3582	0	0
3583	0	0
3584	0	0
3585	0	0
3586	0	0
3587	0	0
3588	0	0
3589	0	0
3590	0	0
3591	0	0
3592	0	0
3593	0	0
3594	0	0
3595	0	0
3596	0	0
3597	0	0
3598	0	0
3599	0	0
3600	0	0
3601	0	0
3602	0	0
3603	0	0
3604	0	0
3605	0	0
3606	0	0
3607	0	0
3608	0	0
3609	0	0
3610	0	0
3611	0	0
3612	0	0
3613	0	0
3614	0	0
3615	0	0
3616	0	0
3617	0	0
3618	0	0
3619	0	0
3620	0	0
3621	0	0
3622	0	0
3623	0	0
3624	0	0
3625	0	0
3626	0	0
3627	0	0
3628	0	0
3629	0	0
3630	0	0
3631	0	0
3632	0	0
3633	0	0
3634	0	0
3635	0	0
3636	0	0
3637	0	0
3638	0	0
3639	0	0
3640	0	0
3641	0	0
3642	0	0
3643	0	0
3644	0	0
3645	0	0
3646	0	0
3647	0	0
3648	0	0
3649	0	0
3650	0	0
3651	0	0
3652	0	0
3653	0	0
3654	0	0
3655	0	0
3656	0	0
3657	0	0
3658	0	0
3659	0	0
3660	0	0
3661	0	0
3662	0	0
3663	0	0
3664	0	0
3665	0	0
3666	0	0
3667	0	0
3668	0	0
3669	0	0
3670	0	0
3671	0	0
3672	0	0
3673	0	0
3674	0	0
3675	0	0
3676	0	0
3677	0	0
3678	0	0
3679	0	0
3680	0	0
3681	0	0
3682	0	0
3683	0	0
3684	0	0
3685	0	0
3686	0	0
3687	0	0
3688	0	0
3689	0	0
3690	0	0
3691	0	0
3692	0	0
3693	0	0
3694	0	0
3695	0	0
3696	0	0
3697	0	0
3698	0	0
3699	0	0
3700	0	0
3701	0	0
3702	0	0
3703	0	0
3704	0	0
3705	0	0
3706	0	0
3707	0	0
3708	0	0
3709	0	0
3710	0	0
3711	0	0
3712	0	0
3713	0	0
3714	0	0
3715	0	0
3716	0	0
3717	0	0
3718	0	0
3719	0	0
3720	0	0
3721	0	0
3722	0	0
3723	0	0
3724	0	0
3725	0	0
3726	0	0
3727	0	0
3728	0	0
3729	0	0
3730	0	0
3731	0	0
3732	0	0
3733	0	0
3734	0	0
3735	0	0
3736	0	0
3737	0	0
3738	0	0
3739	0	0
3740	0	0
3741	0	0
3742	0	0
3743	0	0
3744	0	0
3745	0	0
3746	0	0
3747	0	0
3748	0	0
3749	0	0
3750	0	0
3751	0	0
3752	0	0
3753	0	0
3754	0	0
3755	0	0
3756	0	0
3757	0	0
3758	0	0
3759	0	0
3760	0	0
3761	0	0
3762	0	0
3763	0	0
3764	0	0
3765	0	0
3766	0	0
3767	0	0
3768	0	0
3769	0	0
3770	0	0
3771	0	0
3772	0	0
3773	0	0
3774	0	0
3775	0	0
3776	0	0
3777	0	0
3778	0	0
3779	0	0
3780	0	0
3781	0	0
3782	0	0
3783	0	0
3784	0	0
3785	0	0
3786	0	0
3787	0	0
3788	0	0
3789	0	0
3790	0	0
3791	0	0
3792	0	0
3793	0	0
3794	0	0
3795	0	0
3796	0	0
3797	0	0
3798	0	0
3799	0	0
3800	0	0
3801	0	0
3802	0	0
3803	0	0
3804	0	0
3805	0	0
3806	0	0
3807	0	0
3808	0	0
3809	0	0
3810	0	0
3811	0	0
3812	0	0
3813	0	0
3814	0	0
3815	0	0
3816	0	0
3817	0	0
3818	0	0
3819	0	0
3820	0	0
3821	0	0
3822	0	0
3823	0	0
3824	0	0
3825	0	0
3826	0	0
3827	0	0
3828	0	0
3829	0	0
3830	0	0
3831	0	0
3832	0	0
3833	0	0
3834	0	0
3835	0	0
3836	0	0
3837	0	0
3838	0	0
3839	0	0
3840	0	0
3841	0	0
3842	0	0
3843	0	0
3844	0	0
3845	0	0
3846	0	0
3847	0	0
3848	0	0
3849	0	0
3850	0	0
3851	0	0
3852	0	0
3853	0	0
3854	0	0
3855	0	0
3856	0	0
3857	0	0
3858	0	0
3859	0	0
3860	0	0
3861	0	0
3862	0	0
3863	0	0
3864	0	0
3865	0	0
3866	0	0
3867	0	0
3868	0	0
3869	0	0
3870	0	0
3871	0	0
3872	0	0
3873	0	0
3874	0	0
3875	0	0
3876	0	0
3877	0	0
3878	0	0
3879	0	0
3880	0	0
3881	0	0
3882	0	0
3883	0	0
3884	0	0
3885	0	0
3886	0	0
3887	0	0
3888	0	0
3889	0	0
3890	0	0
3891	0	0
3892	0	0
3893	0	0
3894	0	0
3895	0	0
3896	0	0
3897	0	0
3898	0	0
3899	0	0
3900	0	0
3901	0	0
3902	0	0
3903	0	0
3904	0	0
3905	0	0
3906	0	0
3907	0	0
3908	0	0
3909	0	0
3910	0	0
3911	0	0
3912	0	0
3913	0	0
3914	0	0
3915	0	0
3916	0	0
3917	0	0
3918	0	0
3919	0	0
3920	0	0
3921	0	0
3922	0	0
3923	0	0
3924	0	0
3925	0	0
3926	0	0
3927	0	0
3928	0	0
3929	0	0
3930	0	0
3931	0	0
3932	0	0
3933	0	0
3934	0	0
3935	0	0
3936	0	0
3937	0	0
3938	0	0
3939	0	0
3940	0	0
3941	0	0
3942	0	0
3943	0	0
3944	0	0
3945	0	0
3946	0	0
3947	0	0
3948	0	0
3949	0	0
3950	0	0
3951	0	0
3952	0	0
3953	0	0
3954	0	0
3955	0	0
3956	0	0
3957	0	0
3958	0	0
3959	0	0
3960	0	0
3961	0	0
3962	0	0
3963	0	0
3964	0	0
3965	0	0
3966	0	0
3967	0	0
3968	0	0
3969	0	0
3970	0	0
3971	0	0
3972	0	0
3973	0	0
3974	0	0
3975	0	0
3976	0	0
3977	0	0
3978	0	0
3979	0	0
3980	0	0
3981	0	0
3982	0	0
3983	0	0
3984	0	0
3985	0	0
3986	0	0
3987	0	0
3988	0	0
3989	0	0
3990	0	0
3991	0	0
3992	0	0
3993	0	0
3994	0	0
3995	0	0
3996	0	0
3997	0	0
3998	0	0
3999	0	0
4000	0	0
4001	0	0
4002	0	0
4003	0	0
4004	0	0
4005	0	0
4006	0	0
4007	0	0
4008	0	0
4009	0	0
4010	0	0
4011	0	0
4012	0	0
4013	0	0
4014	0	0
4015	0	0
4016	0	0
4017	0	0
4018	0	0
4019	0	0
4020	0	0
4021	0	0
4022	0	0
4023	0	0
4024	0	0
4025	0	0
4026	0	0
4027	0	0
4028	0	0
4029	0	0
4030	0	0
4031	0	0
4032	0	0
4033	0	0
4034	0	0
4035	0	0
4036	0	0
4037	0	0
4038	0	0
4039	0	0
4040	0	0
4041	0	0
4042	0	0
4043	0	0
4044	0	0
4045	0	0
4046	0	0
4047	0	0
4048	0	0
4049	0	0
4050	0	0
4051	0	0
4052	0	0
4053	0	0
4054	0	0
4055	0	0
4056	0	0
4057	0	0
4058	0	0
4059	0	0
4060	0	0
4061	0	0
4062	0	0
4063	0	0
4064	0	0
4065	0	0
4066	0	0
4067	0	0
4068	0	0
4069	0	0
4070	0	0
4071	0	0
4072	0	0
4073	0	0
4074	0	0
4075	0	0
4076	0	0
4077	0	0
4078	0	0
4079	0	0
4080	0	0
4081	0	0
4082	0	0
4083	0	0
4084	0	0
4085	0	0
4086	0	0
4087	0	0
4088	0	0
4089	0	0
4090	0	0
4091	0	0
4092	0	0
4093	0	0
4094	0	0
4095	0	0
4096	0	0
4097	0	0
4098	0	0
4099	0	0
4100	0	0
4101	0	0
4102	0	0
4103	0	0
4104	0	0
4105	0	0
4106	0	0
4107	0	0
4108	1	0
4109	1	0
4110	1	0
4111	1	0
4112	1	0
4113	1	0
4114	1	0
4115	0	0
4116	0	0
4117	0	0
4118	0	0
4119	0	0
4120	0	0
4121	0	0
4122	0	0
4123	0	0
4124	0	0
4125	0	0
4126	0	0
4127	0	0
4128	1	0
4129	1	0
4130	1	0
4131	1	0
4132	1	0
4133	1	0
4134	1	0
4135	1	0
4136	1	0
4137	0	0
4138	0	0
4139	0	0
4140	0	0
4141	0	0
4142	0	0
4143	0	0
4144	0	0
4145	0	0
4146	0	0
4147	0	0
4148	0	0
4149	0	0
4150	0	0
4151	0	0
4152	0	0
4153	0	0
4154	0	0
4155	1	0
4156	1	0
4157	1	0
4158	1	0
4159	1	0
4160	1	0
4161	1	0
4162	1	0
4163	1	0
4164	1	0
4165	1	0
4166	1	0
4167	1	0
4168	1	0
4169	0	0
4170	0	0
4171	0	0
4172	0	0
4173	0	0
4174	0	0
4175	0	0
4176	0	0
4177	0	0
4178	0	0
4179	0	0
4180	0	0
4181	1	0
4182	1	0
4183	1	0
4184	1	0
4185	0	0
4186	0	0
4187	0	0
4188	0	0
4189	0	0
4190	0	0
4191	0	0
4192	0	0
4193	0	0
4194	0	0
4195	0	0
4196	0	0
4197	0	0
4198	0	0
4199	0	0
4200	0	0
4201	0	0
4202	0	0
4203	0	0
4204	0	0
4205	0	0
4206	0	0
4207	0	0
4208	0	0
4209	0	0
4210	0	0
4211	0	0
4212	1	0
4213	1	0
4214	1	0
4215	1	0
4216	1	0
4217	1	0
4218	1	0
4219	1	0
4220	1	0
4221	1	0
4222	1	0
4223	1	0
4224	1	0
4225	1	0
4226	1	0
4227	1	0
4228	1	0
4229	1	0
4230	1	0
4231	1	0
4232	1	0
4233	1	0
4234	1	0
4235	1	0
4236	1	0
4237	1	0
4238	1	0
4239	1	0
4240	1	0
4241	1	0
4242	1	0
4243	1	0
4244	1	0
4245	1	0
4246	1	0
4247	1	0
4248	1	0
4249	1	0
4250	1	0
4251	1	0
4252	1	0
4253	1	0
4254	1	0
4255	1	0
4256	1	0
4257	1	0
4258	1	0
