Site	ColumnScore	SumOfPairsScore
1	0	0
2	0	0
3	0	0
4	0	0
5	0	0
6	0	0
7	0	0
8	0	0
9	0	0
10	0	0
11	0	0
12	0	0
13	0	0
14	0	0
15	0	0
16	0	0
17	0	0
18	0	0
19	0	0
20	0	0
21	0	0
22	0	0
23	0	0
24	0	0
25	0	0
26	0	0
27	0	0
28	0	0
29	0	0
30	0	0
31	0	0
32	0	0
33	0	0
34	0	0
35	0	0
36	0	0
37	0	0
38	0	0
39	0	0
40	0	0
41	0	0
42	0	0
43	0	0
44	0	0
45	0	0
46	0	0
47	0	0
48	0	0
49	0	0
50	0	0
51	0	0
52	0	0
53	0	0
54	0	0
55	0	0
56	0	0
57	0	0
58	0	0
59	0	0
60	0	0
61	0	0
62	0	0
63	0	0
64	0	0
65	0	0
66	0	0
67	0	0
68	0	0
69	0	0
70	0	0
71	0	0
72	0	0
73	0	0
74	0	0
75	0	0
76	0	0
77	0	0
78	0	0
79	0	0
80	0	0
81	0	0
82	0	0
83	0	0
84	0	0
85	0	0
86	0	0
87	0	0
88	0	0
89	0	0
90	0	0
91	0	0
92	0	0
93	0	0
94	0	0
95	0	0
96	0	0
97	0	0
98	0	0
99	0	0
100	0	0
101	0	0
102	0	0
103	0	0
104	0	0
105	0	0
106	0	0
107	0	0
108	0	0
109	0	0
110	0	0
111	0	0
112	0	0
113	0	0
114	0	0
115	0	0
116	0	0
117	0	0
118	0	0
119	0	0
120	0	0
121	0	0
122	0	0
123	0	0
124	0	0
125	0	0
126	0	0
127	0	0
128	0	0
129	0	0
130	0	0
131	0	0
132	0	0
133	0	0
134	0	0
135	0	0
136	0	0
137	0	0
138	0	0
139	0	0
140	0	0
141	0	0
142	0	0
143	0	0
144	0	0
145	0	0
146	0	0
147	0	0
148	0	0
149	0	0
150	0	0
151	0	0
152	0	0
153	0	0
154	0	0
155	0	0
156	0	0
157	0	0
158	0	0
159	0	0
160	0	0
161	0	0
162	0	0
163	0	0
164	0	0
165	0	0
166	0	0
167	0	0
168	0	0
169	0	0
170	0	0
171	0	0
172	0	0
173	0	0
174	0	0
175	0	0
176	0	0
177	0	0
178	0	0
179	0	0
180	0	0
181	0	0
182	0	0
183	0	0
184	0	0
185	0	0
186	0	0
187	0	0
188	0	0
189	0	0
190	0	0
191	0	0
192	0	0
193	0	0
194	0	0
195	0	0
196	0	0
197	0	0
198	0	0
199	0	0
200	0	0
201	0	0
202	0	0
203	0	0
204	0	0
205	0	0
206	0	0
207	0	0
208	0	0
209	0	0
210	0	0
211	0	0
212	0	0
213	0	0
214	0	0
215	0	0
216	0	0
217	0	0
218	0	0
219	0	0
220	0	0
221	0	0
222	0	0
223	0	0
224	0	0
225	0	0
226	0	0
227	0	0
228	0	0
229	0	0
230	0	0
231	0	0
232	0	0
233	0	0
234	0	0
235	0	0
236	0	0
237	0	0
238	0	0
239	0	0
240	0	0
241	0	0
242	0	0
243	0	0
244	0	0
245	0	0
246	0	0
247	0	0
248	0	0
249	0	0
250	0	0
251	0	0
252	0	0
253	0	0
254	0	0
255	0	0
256	0	0
257	0	0
258	0	0
259	0	0
260	0	0
261	0	0
262	0	0
263	0	0
264	0	0
265	0	0
266	0	0
267	0	0
268	0	0
269	0	0
270	0	0
271	0	0
272	0	0
273	0	0
274	0	0
275	0	0
276	0	0
277	0	0
278	0	0
279	0	0
280	0	0
281	0	0
282	0	0
283	0	0
284	0	0
285	0	0
286	0	0
287	0	0
288	0	0
289	0	0.0666667
290	0	0.0666667
291	0	0.0666667
292	0	0.0666667
293	0	0.0666667
294	0	0.0666667
295	0	0.0666667
296	0	0.0666667
297	0	0.0666667
298	0	0.0666667
299	0	0.0666667
300	0	0.0666667
301	0	0.0666667
302	0	0.0666667
303	0	0.0666667
304	0	0.0666667
305	0	0.0666667
306	0	0.0666667
307	0	0.0666667
308	0	0.0666667
309	0	0.0666667
310	0	0.0666667
311	0	0.0666667
312	0	0.0666667
313	0	0.0666667
314	0	0.0666667
315	0	0.0666667
316	0	0.0666667
317	0	0.0666667
318	0	0.0666667
319	0	0.0666667
320	0	0.0666667
321	0	0.0666667
322	0	0.0666667
323	0	0.0666667
324	0	0.0666667
325	0	0.0666667
326	0	0.0666667
327	0	0.0666667
328	0	0.0666667
329	0	0.0666667
330	0	0.0666667
331	0	0.0666667
332	0	0.0666667
333	0	0.0666667
334	0	0.0666667
335	0	0.0666667
336	0	0.0666667
337	0	0.0666667
338	0	0.0666667
339	0	0.0666667
340	0	0.0666667
341	0	0.0666667
342	0	0.0666667
343	0	0.0666667
344	0	0.0666667
345	0	0.0714286
346	0	0.0714286
347	0	0.0555556
348	0	0.0555556
349	0	0.0555556
350	0	0.0555556
351	0	0.0555556
352	0	0.0555556
353	0	0.0555556
354	0	0.0555556
355	0	0.0444444
356	0	0.0444444
357	0	0.0444444
358	0	0.0444444
359	0	0.0444444
360	0	0.0363636
361	0	0.030303
362	0	0.030303
363	0	0.030303
364	0	0.030303
365	0	0.030303
366	0	0.030303
367	0	0.030303
368	0	0.030303
369	0	0.025641
370	0	0.025641
371	0	0.021978
372	0	0.021978
373	0	0.0190476
374	0	0.0190476
375	0	0.0190476
376	0	0.0190476
377	0	0.0190476
378	0	0.0190476
379	0	0.0190476
380	0	0.0190476
381	0	0.0166667
382	0	0.0166667
383	0	0.0147059
384	0	0.0147059
385	0	0.0130719
386	0	0.0130719
387	0	0.0147059
388	0	0.0147059
389	0	0.0147059
390	0	0.0130719
391	0	0.0130719
392	0	0.0130719
393	0	0.0130719
394	0	0.0130719
395	0	0.0130719
396	0	0.0130719
397	0	0.0130719
398	0	0.0130719
399	0	0.0130719
400	0	0.0130719
401	0	0.0130719
402	0	0.0130719
403	0	0.0130719
404	0	0.0130719
405	0	0.0130719
406	0	0.0130719
407	0	0.0130719
408	0	0.0130719
409	0	0.0130719
410	0	0.0130719
411	0	0.0130719
412	0	0.0130719
413	0	0.0130719
414	0	0.0130719
415	0	0.0130719
416	0	0.0130719
417	0	0.0130719
418	0	0.0130719
419	0	0.0130719
420	0	0.0130719
421	0	0.0130719
422	0	0.0130719
423	0	0.0130719
424	0	0.0130719
425	0	0.0130719
426	0	0.0130719
427	0	0.0130719
428	0	0.0130719
429	0	0.0130719
430	0	0.0130719
431	0	0.0130719
432	0	0.0130719
433	0	0.0130719
434	0	0.0116959
435	0	0.0116959
436	0	0.0116959
437	0	0.0116959
438	0	0.0116959
439	0	0.0116959
440	0	0.0116959
441	0	0.0116959
442	0	0.0116959
443	0	0.0116959
444	0	0.0116959
445	0	0.0116959
446	0	0.0116959
447	0	0.0116959
448	0	0.0116959
449	0	0.0116959
450	0	0.0175439
451	0	0.0175439
452	0	0.0233918
453	0	0.0233918
454	0	0.0175439
455	0	0.0116959
456	0	0.0116959
457	0	0.0175439
458	0	0.0175439
459	0	0.0175439
460	0	0.0175439
461	0	0.0175439
462	0	0.0233918
463	0	0.0233918
464	0	0.0233918
465	0	0.0175439
466	0	0.0175439
467	0	0.0233918
468	0	0.0233918
469	0	0.0233918
470	0	0.0233918
471	0	0.0233918
472	0	0.0233918
473	0	0.0175439
474	0	0.0175439
475	0	0.0175439
476	0	0.0175439
477	0	0.0175439
478	0	0.0175439
479	0	0.0175439
480	0	0.0175439
481	0	0.0175439
482	0	0.0175439
483	0	0.0233918
484	0	0.0233918
485	0	0.0233918
486	0	0.0233918
487	0	0.0233918
488	0	0.0233918
489	0	0.0292398
490	0	0.0292398
491	0	0.0292398
492	0	0.0292398
493	0	0.0292398
494	0	0.0292398
495	0	0.0292398
496	0	0.0292398
497	0	0.0292398
498	0	0.0292398
499	0	0.0292398
500	0	0.0292398
501	0	0.0292398
502	0	0.0292398
503	0	0.0292398
504	0	0.0292398
505	0	0.0292398
506	0	0.0292398
507	0	0.0292398
508	0	0.0292398
509	0	0.0292398
510	0	0.0292398
511	0	0.0292398
512	0	0.0292398
513	0	0.0292398
514	0	0.0292398
515	0	0.0292398
516	0	0.0292398
517	0	0.0292398
518	0	0.0292398
519	0	0.0292398
520	0	0.0292398
521	0	0.0292398
522	0	0.0292398
523	0	0.0292398
524	0	0.0292398
525	0	0.0292398
526	0	0.0292398
527	0	0.0292398
528	0	0.0292398
529	0	0.0292398
530	0	0.0292398
531	0	0.0292398
532	0	0.0292398
533	0	0.0292398
534	0	0.0292398
535	0	0.0292398
536	0	0.0292398
537	0	0.0292398
538	0	0.0292398
539	0	0.0292398
540	0	0.0292398
541	0	0.0292398
542	0	0.0292398
543	0	0.0233918
544	0	0.0233918
545	0	0.0233918
546	0	0.0233918
547	0	0.0233918
548	0	0.0233918
549	0	0.0350877
550	0	0.0350877
551	0	0.0350877
552	0	0.0175439
553	0	0.0175439
554	0	0.0175439
555	0	0.0175439
556	0	0.0175439
557	0	0.0175439
558	0	0.0175439
559	0	0.0157895
560	0	0.0157895
561	0	0.0157895
562	0	0.0157895
563	0	0.0157895
564	0	0.0157895
565	0	0.0157895
566	0	0.0157895
567	0	0.0175439
568	0	0.0175439
569	0	0.0175439
570	0	0.0175439
571	0	0.0175439
572	0	0.0175439
573	0	0.0175439
574	0	0.0175439
575	0	0.0175439
576	0	0.0175439
577	0	0.0175439
578	0	0.0175439
579	0	0.0175439
580	0	0.0175439
581	0	0.0175439
582	0	0.0175439
583	0	0.0175439
584	0	0.0116959
585	0	0.0116959
586	0	0.0116959
587	0	0.0175439
588	0	0.0175439
589	0	0.0175439
590	0	0.0233918
591	0	0.0233918
592	0	0.0175439
593	0	0.0175439
594	0	0.0175439
595	0	0.0175439
596	0	0.0175439
597	0	0.0175439
598	0	0.0175439
599	0	0.0116959
600	0	0.0175439
601	0	0.0175439
602	0	0.0175439
603	0	0.0175439
604	0	0.0233918
605	0	0.0233918
606	0	0.0233918
607	0	0.0233918
608	0	0.0233918
609	0	0.0233918
610	0	0.0292398
611	0	0.0292398
612	0	0.0233918
613	0	0.0233918
614	0	0.0233918
615	0	0.0233918
616	0	0.0233918
617	0	0.0233918
618	0	0.0233918
619	0	0.0233918
620	0	0.0175439
621	0	0.0175439
622	0	0.0175439
623	0	0.0292398
624	0	0.0292398
625	0	0.0292398
626	0	0.0292398
627	0	0.0292398
628	0	0.0263158
629	0	0.0263158
630	0	0.0157895
631	0	0.0105263
632	0	0.0105263
633	0	0.0105263
634	0	0.0105263
635	0	0.0105263
636	0	0.0105263
637	0	0.0105263
638	0	0.0105263
639	0	0.0105263
640	0	0.0105263
641	0	0.0105263
642	0	0.0105263
643	0	0.0105263
644	0	0.0105263
645	0	0.0105263
646	0	0.0105263
647	0	0.0105263
648	0	0.0105263
649	0	0.0105263
650	0	0.0105263
651	0	0.0105263
652	0	0.0105263
653	0	0.0105263
654	0	0.0105263
655	0	0.0105263
656	0	0.0105263
657	0	0.0105263
658	0	0.0105263
659	0	0.0105263
660	0	0.0105263
661	0	0.0105263
662	0	0.0105263
663	0	0.0105263
664	0	0.0105263
665	0	0.0105263
666	0	0.0105263
667	0	0.0105263
668	0	0.0157895
669	0	0.0157895
670	0	0.0157895
671	0	0.0157895
672	0	0.0157895
673	0	0.0157895
674	0	0.0157895
675	0	0.0157895
676	0	0.0157895
677	0	0.0157895
678	0	0.0157895
679	0	0.0157895
680	0	0.0157895
681	0	0.0157895
682	0	0.0157895
683	0	0.0157895
684	0	0.0157895
685	0	0.0157895
686	0	0.0157895
687	0	0.0157895
688	0	0.0157895
689	0	0.0157895
690	0	0.0157895
691	0	0.0157895
692	0	0.0157895
693	0	0.0210526
694	0	0.0210526
695	0	0.0210526
696	0	0.0210526
697	0	0.0210526
698	0	0.0210526
699	0	0.0210526
700	0	0.0210526
701	0	0.0210526
702	0	0.0210526
703	0	0.0210526
704	0	0.0210526
705	0	0.0210526
706	0	0.0210526
707	0	0.0210526
708	0	0.0210526
709	0	0.0210526
710	0	0.0210526
711	0	0.0210526
712	0	0.0210526
713	0	0.0157895
714	0	0.0157895
715	0	0.0157895
716	0	0.0157895
717	0	0.0157895
718	0	0.0105263
719	0	0.0105263
720	0	0.0105263
721	0	0.0105263
722	0	0.0157895
723	0	0.0157895
724	0	0.0157895
725	0	0.0157895
726	0	0.0157895
727	0	0.0157895
728	0	0.0210526
729	0	0.0263158
730	0	0.0263158
731	0	0.0263158
732	0	0.0210526
733	0	0.0210526
734	0	0.0210526
735	0	0.0210526
736	0	0.0210526
737	0	0.0210526
738	0	0.0210526
739	0	0.0210526
740	0	0.0210526
741	0	0.0210526
742	0	0.0210526
743	0	0.0210526
744	0	0.0210526
745	0	0.0210526
746	0	0.0315789
747	0	0.0421053
748	0	0.0421053
749	0	0.0473684
750	0	0.0473684
751	0	0.0526316
752	0	0.0526316
753	0	0.0526316
754	0	0.0526316
755	0	0.0526316
756	0	0.0526316
757	0	0.0526316
758	0	0.0526316
759	0	0.0526316
760	0	0.0526316
761	0	0.0526316
762	0	0.0578947
763	0	0.0578947
764	0	0.0578947
765	0	0.0578947
766	0	0.0578947
767	0	0.0578947
768	0	0.0578947
769	0	0.0578947
770	0	0.0578947
771	0	0.047619
772	0	0.047619
773	0	0.047619
774	0	0.047619
775	0	0.0519481
776	0	0.0519481
777	0	0.0519481
778	0	0.0519481
779	0	0.0519481
780	0	0.0571429
781	0	0.0519481
782	0	0.0631579
783	0	0.0631579
784	0	0.0631579
785	0	0.0631579
786	0	0.0631579
787	0	0.0631579
788	0	0.0631579
789	0	0.0631579
790	0	0.0631579
791	0	0.0631579
792	0	0.0631579
793	0	0.0631579
794	0	0.0631579
795	0	0.0631579
796	0	0.0526316
797	0	0.0526316
798	0	0.0526316
799	0	0.0526316
800	0	0.0526316
801	0	0.0526316
802	0	0.0526316
803	0	0.0526316
804	0	0.0526316
805	0	0.0526316
806	0	0.0526316
807	0	0.0526316
808	0	0.0526316
809	0	0.0526316
810	0	0.0526316
811	0	0.0526316
812	0	0.0526316
813	0	0.0526316
814	0	0.0526316
815	0	0.0526316
816	0	0.0526316
817	0	0.0526316
818	0	0.0526316
819	0	0.0631579
820	0	0.0631579
821	0	0.0631579
822	0	0.0631579
823	0	0.0631579
824	0	0.0631579
825	0	0.0631579
826	0	0.0578947
827	0	0.0578947
828	0	0.0578947
829	0	0.0578947
830	0	0.0578947
831	0	0.0578947
832	0	0.052381
833	0	0.052381
834	0	0.052381
835	0	0.0428571
836	0	0.0619048
837	0	0.0619048
838	0	0.0619048
839	0	0.0619048
840	0	0.0619048
841	0	0.0619048
842	0	0.0619048
843	0	0.055336
844	0	0.055336
845	0	0.0471014
846	0	0.0471014
847	0	0.0471014
848	0	0.0513834
849	0	0.0513834
850	0	0.0513834
851	0	0.0434783
852	0	0.0434783
853	0	0.0434783
854	0	0.0434783
855	0	0.0474308
856	0	0.0434783
857	0	0.0434783
858	0	0.0398551
859	0	0.0326087
860	0	0.03
861	0	0.03
862	0	0.03
863	0	0.03
864	0	0.03
865	0	0.0166667
866	0	0.03
867	0	0.03
868	0	0.0217391
869	0	0.0217391
870	0	0.0217391
871	0	0.0217391
872	0	0.0217391
873	0	0.0217391
874	0	0.0217391
875	0	0.0217391
876	0	0.0217391
877	0	0.0217391
878	0	0.0217391
879	0	0.0253623
880	0	0.0253623
881	0	0.0253623
882	0	0.0253623
883	0	0.0253623
884	0	0.0253623
885	0	0.0215385
886	0	0.0215385
887	0	0.0270936
888	0	0.0291005
889	0	0.0252874
890	0	0.0252874
891	0	0.0252874
892	0	0.0298851
893	0	0.0445633
894	0	0.0420168
895	0	0.0418354
896	0	0.0396135
897	0	0.0453284
898	0	0.0415686
899	0	0.0377104
900	0	0.0389831
901	0	0.0383412
902	0	0.33257
903	0	0.284519
904	0	0.286996
905	0	0.282019
906	0	0.279173
907	0	0.262165
908	0	0.338669
909	0	0.309612
910	0	0.124765
911	0	0.128224
912	0	0.127495
913	0	0.170228
914	0	0.157048
915	0	0.149873
916	0	0.151755
917	0	0.132438
918	0	0.132002
919	0	0.131269
920	0	0.128172
921	0	0.12945
922	0	0.131481
923	0	0.127984
924	0	0.12007
925	0	0.0945879
926	0	0.0840811
927	0	0.0608196
928	0	0.0489249
929	0	0.0454377
930	0	0.0521596
931	0	0.0436465
932	0	0.0425514
933	0	0.0436417
934	0	0.0517154
935	0	0.0576723
936	0	0.0601831
937	0	0.051647
938	0	0.0564121
939	0	0.0595578
940	0	0.0668666
941	0	0.08006
942	0	0.0341997
943	0	0.0299736
944	0	0.0367568
945	0	0.0346795
946	0	0.0368664
947	0	0.0170455
948	0	0.023569
949	0	0.022792
950	0	0.021645
951	0	0.038961
952	0	0.0428571
953	0	0.0368421
954	0	0.0631579
955	0	0.0736842
956	0	0.0736842
957	0	0.055336
958	0	0.197897
959	0	0.261793
960	0	0.276511
961	0	0.307849
962	0	0.569688
963	0	0.593685
964	0	0.594732
965	0	0.567156
966	0	0.596766
967	0	0.586576
968	0	0.519809
969	0	0.350794
970	0	0.368294
971	0	0.126171
972	0	0.313097
973	0	0.586343
974	0	0.585058
975	0	0.639938
976	0	0.434142
977	0	0.54385
978	0	0.554054
979	0	0.682816
980	0	0.475484
981	0	0.477018
982	0	0.285714
983	0	0.285714
984	0	0.285714
985	0	0.2
986	0	0.2
987	0	0.163636
988	0	0.163636
989	0	0.166667
990	0	0.166667
991	0	0.106719
992	0	0.106719
993	0	0.101449
994	0	0.625104
995	0	0.605371
996	0	0.464785
997	0	0.246426
998	0	0.214286
999	0	0.107143
1000	0	0.0764423
1001	0	0.0932692
1002	0	0.104663
1003	0	0.0928962
1004	0	0
1005	0	0
1006	0	0
1007	0	0
1008	0	0
1009	0	0.166667
1010	0	0.166667
1011	0	0.166667
1012	0	0.3
1013	0	0.3
1014	0	0.3
1015	0	0.3
1016	0	0.3
1017	0	0.3
1018	0	0.3
1019	0	0.3
1020	0	0.4
1021	0	0.4
1022	0	0.4
1023	0	0.4
1024	0	0.4
1025	0	0.4
1026	0	0.4
1027	0	0.2
1028	0	0.4
1029	0	0.4
1030	0	0.4
1031	0	0.4
1032	0	0.2
1033	0	0.133333
1034	0	0.0952381
1035	0	0.111111
1036	0	0.0769231
1037	0	0.270161
1038	0	0.40025
1039	0	0.230838
1040	0	0.237482
1041	0	0.172083
1042	0	0.65752
1043	0	0.758306
1044	0	0.801081
1045	0	0.822364
1046	0	0.856326
1047	0	0.859857
1048	0	0.860236
1049	0	0.879934
1050	0	0.878767
1051	0	0.456039
1052	0	0.654655
1053	0	0
1054	0	0
1055	0	0
1056	0	0
1057	0	0
1058	0	0
1059	0	0
1060	0	0
1061	0	0
1062	0	0
1063	0	0
1064	0	0
1065	0	0.961234
1066	0	0.961234
1067	0	0.961234
1068	0	1
1069	0	1
1070	0	1
1071	0	1
1072	0	1
1073	0	1
1074	0	1
1075	0	1
1076	0	1
1077	0	1
1078	0	1
1079	0	1
1080	0	1
1081	0	1
1082	0	1
1083	0	1
1084	0	1
1085	0	1
1086	0	1
1087	0	1
1088	0	1
1089	0	1
1090	0	1
1091	0	1
1092	0	1
1093	0	1
1094	0	1
1095	0	1
1096	0	1
1097	0	1
1098	0	1
1099	0	1
1100	0	1
1101	0	1
1102	0	1
1103	0	1
1104	0	1
1105	0	1
1106	0	1
1107	0	1
1108	0	1
1109	0	1
1110	0	1
1111	0	1
1112	0	1
1113	0	1
1114	0	1
1115	0	1
1116	0	1
1117	0	1
1118	0	1
1119	0	1
1120	0	1
1121	0	1
1122	0	1
1123	0	1
1124	0	1
1125	0	1
1126	0	1
1127	0	1
1128	0	1
1129	0	0
1130	0	0
1131	0	0
1132	0	0
1133	0	0
1134	0	0
1135	0	0
1136	0	0
1137	0	0
1138	0	0
1139	0	0
1140	0	0
1141	0	0
1142	0	0
1143	0	0
1144	0	0
1145	0	0
1146	0	0
1147	0	0
1148	0	0
1149	0	0
1150	0	0
1151	0	0
1152	0	0
1153	0	0
1154	0	0
1155	0	0
1156	0	0
1157	0	0
1158	0	0
1159	0	0
1160	0	0
1161	0	0
1162	0	0
1163	0	0
1164	0	0
1165	0	0
1166	0	0
1167	0	0
1168	0	0
1169	0	0
1170	0	0
1171	0	0
1172	0	0
1173	0	0
1174	0	0
1175	0	0
1176	0	0
1177	0	0
1178	0	0
1179	0	0.982097
1180	0	0.5
1181	0	0.5
1182	0	0.5
1183	0	1
1184	0	1
1185	0	0.992919
1186	0	0.992925
1187	0	0.989415
1188	0	0.989406
1189	0	0.989406
1190	0	0.166667
1191	0	0.166667
1192	0	0.166667
1193	0	0.992924
1194	0	0.992924
1195	0	0.556086
1196	0	0.266667
1197	0	0.2
1198	0	0.2
1199	0	0.2
1200	0	0.133333
1201	0	0.133333
1202	0	0.133333
1203	0	0.0952381
1204	0	0.047619
1205	0	0.0357143
1206	0	0.0357143
1207	0	0.0357143
1208	0	0.0357143
1209	0	0.0357143
1210	0	0.0357143
1211	0	0
1212	0	0.0357143
1213	0	0
1214	0	0
1215	0	0.0666667
1216	0	0.0666667
1217	0	0.0666667
1218	0	0.0666667
1219	0	0.0666667
1220	0	0.1
1221	0	0.1
1222	0	0.166667
1223	0	0.333333
1224	0	0.498271
1225	0	1
1226	0	0
1227	0	0
1228	0	0
1229	0	0
1230	0	0
1231	0	0
1232	0	0
1233	0	0
1234	0	0
1235	0	0
1236	0	0
1237	0	0
1238	0	0
1239	0	0
1240	0	0
1241	0	0
1242	0	0
1243	0	0.987664
1244	0	0.989423
1245	0	0.987707
1246	0	0
1247	0	0
1248	0	0
1249	0	0
1250	0	0
1251	0	0
1252	0	0
1253	0	0
1254	0	0
1255	0	0
1256	0	0
1257	0	0
1258	0	0
1259	0	0
1260	0	0
1261	0	0
1262	0	0
1263	0	0
1264	0	0
1265	0	0
1266	0	0
1267	0	0
1268	0	0
1269	0	0.987709
1270	1	1
1271	1	1
1272	1	1
1273	0	1
1274	1	1
1275	1	1
1276	1	1
1277	1	1
1278	1	1
1279	1	1
1280	0	0
1281	0	0.998238
1282	0	0.998238
1283	0	0.996484
1284	0	0.989475
1285	0	0.989475
1286	0	0.984255
1287	0	0.984249
1288	0	0.714286
1289	0	0.844785
1290	0	0
1291	0	0.142857
1292	0	0.516337
1293	0	0.435635
1294	0	0.813061
1295	0	0.901552
1296	0	1
1297	0	0.994746
1298	0	0.994746
1299	0	0
1300	0	0
1301	0	0
1302	0	0
1303	0	0
1304	1	0
1305	1	0
1306	1	0
1307	1	0
1308	1	0
1309	1	0
1310	1	0
1311	1	0
1312	1	0
1313	1	0
1314	1	0
1315	1	0
1316	1	0
1317	1	0
1318	1	0
1319	1	0
1320	1	0
1321	0	0
1322	0	0
1323	0	0
1324	0	0
1325	0	0
1326	0	0
1327	0	0
1328	0	0.998247
1329	0	0.998247
1330	0	1
1331	0	1
1332	0	1
1333	0	1
1334	0	1
1335	0	1
1336	0	1
1337	0	1
1338	0	1
1339	0	1
1340	1	1
1341	0	1
1342	0	1
1343	0	0.998246
1344	0	0.998244
1345	0	0.805609
1346	1	1
1347	0	0.333333
1348	0	0.333333
1349	0	0.333333
1350	0	0
1351	0	0
1352	0	0
1353	1	0
1354	1	0
1355	1	0
1356	1	0
1357	1	0
1358	1	0
1359	1	0
1360	1	0
1361	1	0
1362	1	0
1363	1	0
1364	1	0
1365	1	0
1366	1	0
1367	1	0
1368	1	0
1369	1	0
1370	1	0
1371	1	0
1372	1	0
1373	1	0
1374	1	0
1375	1	0
1376	1	0
1377	1	0
1378	1	0
1379	1	0
1380	1	0
1381	1	0
1382	1	0
1383	1	0
1384	1	0
1385	1	0
1386	1	0
1387	1	0
1388	1	0
1389	1	0
1390	1	0
1391	1	0
1392	1	0
1393	1	0
1394	1	0
1395	1	0
1396	1	0
1397	0	0
1398	0	0
1399	0	0
1400	0	0.998243
1401	0	0.998244
1402	0	0.998244
1403	0	0.998244
1404	0	0.998244
1405	0	0.998246
1406	0	0.998246
1407	0	0.998246
1408	0	0.998246
1409	0	0.998246
1410	0	0
1411	0	0
1412	0	0
1413	0	0
1414	0	0
1415	0	0
1416	0	0
1417	0	0
1418	0	0
1419	0	0
1420	0	0
1421	0	0.3
1422	0	0.3
1423	0	0.1
1424	0	0.1
1425	0	0.266667
1426	0	0.266667
1427	0	0.266667
1428	0	0.894501
1429	0	0.508606
1430	0	0.777465
1431	0	0.965287
1432	0	0.965317
1433	0	1
1434	0	1
1435	0	1
1436	0	1
1437	0	1
1438	0	1
1439	0	1
1440	0	1
1441	0	1
1442	0	1
1443	0	1
1444	0	1
1445	0	1
1446	0	1
1447	0	1
1448	0	1
1449	0	0.99649
1450	0	0.998244
1451	0	0.998244
1452	0	0.998244
1453	1	1
1454	1	1
1455	1	1
1456	1	0
1457	1	0
1458	1	0
1459	1	0
1460	1	0
1461	1	0
1462	1	0
1463	1	0
1464	1	0
1465	1	0
1466	1	0
1467	1	0
1468	1	0
1469	1	0
1470	0	1
1471	0	0.998238
1472	0	1
1473	0	0.549713
1474	0	0.807105
1475	1	1
1476	1	1
1477	0	1
1478	0	1
1479	0	1
1480	0	1
1481	0	0
1482	0	0
1483	0	0
1484	0	0
1485	0	0
1486	0	0
1487	0	0
1488	0	0
1489	0	0
1490	0	0
1491	0	0
1492	0	0
1493	0	0
1494	0	0
1495	0	0
1496	0	0
1497	0	0
1498	0	0
1499	0	0
1500	0	0
1501	0	0
1502	0	0.99648
1503	0	0.99648
1504	0	0.994723
1505	0	0.994723
1506	0	0.989471
1507	0	0
1508	0	0
1509	0	0
1510	0	0
1511	0	0
1512	0	0
1513	0	0
1514	0	0
1515	0	0
1516	0	0
1517	0	0
1518	0	0
1519	0	0
1520	0	0
1521	0	0
1522	0	0
1523	0	0
1524	0	0
1525	0	0
1526	0	0
1527	0	0
1528	0	1
1529	0	1
1530	0	1
1531	0	0.333333
1532	0	0.333333
1533	0	0.333333
1534	0	0.333333
1535	0	0.994725
1536	0	0.994725
1537	0	0.994725
1538	0	0.992975
1539	0	1
1540	0	1
1541	0	1
1542	0	1
1543	0	1
1544	0	1
1545	0	1
1546	0	1
1547	0	1
1548	0	1
1549	0	1
1550	0	1
1551	0	1
1552	0	1
1553	0	1
1554	0	1
1555	0	1
1556	0	1
1557	0	1
1558	0	1
1559	0	1
1560	0	1
1561	0	1
1562	0	1
1563	0	1
1564	0	1
1565	0	1
1566	0	1
1567	0	1
1568	0	1
1569	0	1
1570	0	1
1571	0	1
1572	0	1
1573	0	1
1574	0	1
1575	0	1
1576	0	0.994729
1577	0	0.994729
1578	0	0.994729
1579	0	1
1580	0	1
1581	0	1
1582	0	1
1583	0	1
1584	0	1
1585	0	1
1586	0	1
1587	0	1
1588	0	1
1589	0	1
1590	0	1
1591	0	1
1592	0	0.996479
1593	0	0.996479
1594	0	0.996479
1595	0	0.996479
1596	0	0.996479
1597	0	1
1598	0	1
1599	0	1
1600	0	0
1601	0	0
1602	0	0
1603	0	0
1604	0	0
1605	0	0
1606	0	0.980668
1607	0	0
1608	0	0
1609	0	0
1610	0	0
1611	0	0
1612	0	0
1613	0	0
1614	0	0
1615	0	0
1616	0	0
1617	0	0
1618	0	0
1619	1	0
1620	1	0
1621	1	0
1622	0	0
1623	0	0
1624	0	0
1625	0	0
1626	0	0
1627	0	0
1628	0	0
1629	0	0
1630	0	0
1631	0	0
1632	0	0
1633	0	0
1634	0	0
1635	0	0
1636	0	0
1637	0	0
1638	0	0
1639	0	0
1640	0	0.4
1641	0	0.1
1642	0	0.1
1643	0	0.1
1644	0	0.1
1645	0	0.1
1646	0	0.960008
1647	0	0.881696
1648	0	0
1649	0	0
1650	0	0
1651	1	0
1652	1	0
1653	1	0
1654	1	0
1655	1	0
1656	1	0
1657	1	0
1658	1	0
1659	1	0
1660	1	0
1661	1	0
1662	0	0.945319
1663	0	1
1664	0	0.986207
1665	0	0.986207
1666	0	0.65082
1667	0	0.190476
1668	0	0.190476
1669	0	0.985934
1670	0	0.985934
1671	0	0
1672	0	0
1673	0	0
1674	0	0
1675	0	0
1676	0	0
1677	0	0
1678	0	0
1679	0	0
1680	0	0
1681	0	0
1682	0	0
1683	0	0
1684	0	0
1685	0	0
1686	0	0
1687	0	0
1688	0	0
1689	0	0
1690	0	0
1691	0	0
1692	0	0
1693	0	0
1694	0	0
1695	0	0
1696	0	0
1697	0	0
1698	0	0
1699	0	0
1700	0	0
1701	0	0
1702	0	0
1703	0	0
1704	0	0
1705	0	0
1706	0	0
1707	0	0
1708	0	0
1709	0	0
1710	0	0
1711	0	0
1712	0	0
1713	0	0
1714	0	0
1715	0	0
1716	0	0
1717	0	0
1718	0	0
1719	0	0
1720	0	0
1721	0	0
1722	0	0
1723	0	0
1724	0	0
1725	0	0
1726	0	0
1727	0	0
1728	0	0
1729	0	0
1730	0	0
1731	0	0.980719
1732	0	0.622222
1733	0	0.622222
1734	0	0.622222
1735	0	0.622222
1736	0	0.622222
1737	0	0.622222
1738	0	0.970273
1739	0	0.970273
1740	0	0
1741	0	0
1742	0	0
1743	0	0
1744	0	0
1745	0	0
1746	0	0
1747	0	0
1748	0	0
1749	1	0
1750	0	0
1751	0	0
1752	0	0
1753	0	0
1754	0	0
1755	0	0
1756	0	0
1757	0	0
1758	0	0
1759	0	0
1760	0	0
1761	0	0
1762	0	0
1763	0	0
1764	0	0
1765	0	0
1766	0	0
1767	0	0
1768	0	0
1769	0	0
1770	0	0
1771	0	0
1772	0	0
1773	0	0
1774	0	0
1775	0	0
1776	0	0
1777	0	0
1778	0	0
1779	0	0
1780	0	0
1781	0	0
1782	0	0.333333
1783	0	0.333333
1784	0	0.333333
1785	0	0.333333
1786	0	0.333333
1787	0	0.166667
1788	0	0.968432
1789	0	0.968432
1790	0	0.971915
1791	0	0
1792	0	0
1793	0	0
1794	0	0
1795	0	0
1796	0	0
1797	0	0
1798	0	0
1799	0	0
1800	0	0
1801	0	0
1802	0	0
1803	0	0
1804	0	0
1805	0	0
1806	0	0
1807	0	0
1808	0	0
1809	0	0
1810	0	0
1811	0	0
1812	0	0
1813	0	0
1814	0	0
1815	0	0
1816	0	0
1817	0	0
1818	0	0
1819	0	0
1820	0	0
1821	0	0
1822	0	0
1823	0	0
1824	0	0
1825	0	0
1826	0	0
1827	0	0
1828	0	0
1829	0	0
1830	0	0
1831	0	0
1832	0	0
1833	0	0
1834	0	0
1835	0	0
1836	0	0
1837	0	0
1838	0	0
1839	0	0
1840	0	0
1841	0	0
1842	0	0
1843	0	0
1844	0	0
1845	0	0
1846	0	0
1847	0	0
1848	0	0
1849	0	0
1850	0	0
1851	0	0
1852	0	0
1853	0	0
1854	0	0
1855	0	0
1856	0	0
1857	0	0
1858	0	0
1859	0	0
1860	0	0
1861	0	0
1862	0	0
1863	0	0
1864	0	0
1865	0	0
1866	0	0
1867	0	0
1868	0	0
1869	0	0
1870	0	0
1871	0	0
1872	0	0
1873	0	0
1874	0	0
1875	0	0
1876	0	0
1877	0	0
1878	0	0
1879	0	0
1880	0	0
1881	0	0
1882	0	0
1883	0	0
1884	0	0
1885	0	0
1886	0	0
1887	0	0
1888	0	0
1889	0	0
1890	0	0
1891	0	0
1892	0	0
1893	0	0
1894	0	0
1895	0	0
1896	0	0
1897	0	0
1898	0	0
1899	0	0
1900	0	0
1901	0	0
1902	0	0
1903	0	0
1904	0	0
1905	0	0
1906	0	0
1907	0	0
1908	0	0
1909	0	0
1910	0	0
1911	0	0
1912	0	0
1913	0	0
1914	0	0
1915	0	0
1916	0	0
1917	0	0
1918	0	0
1919	0	0
1920	0	0
1921	0	0
1922	0	0
1923	0	0
1924	0	0
1925	0	0
1926	0	0
1927	0	0
1928	0	0
1929	0	0
1930	0	0
1931	0	0
1932	0	0
1933	0	0
1934	0	0
1935	0	0
1936	0	0.963305
1937	0	0.166667
1938	0	0.166667
1939	0	0.975236
1940	0	0.333333
1941	0	0.333333
1942	0	0.333333
1943	0	0.333333
1944	0	0.333333
1945	0	0.333333
1946	0	0.956384
1947	0	0.956384
1948	0	0
1949	0	0
1950	0	0
1951	0	0
1952	0	0
1953	0	0
1954	0	0
1955	0	0
1956	0	0
1957	0	0
1958	0	0
1959	0	0
1960	0	0
1961	0	0
1962	0	0
1963	0	0
1964	0	0
1965	0	0
1966	0	0
1967	0	0
1968	0	0
1969	0	0
1970	0	0
1971	0	0
1972	0	0
1973	0	0
1974	0	0
1975	0	0
1976	0	0
1977	0	0
1978	0	0
1979	0	0
1980	0	0
1981	0	0
1982	0	0
1983	0	0
1984	0	0
1985	0	0
1986	0	0
1987	0	0
1988	0	0
1989	0	0
1990	0	0
1991	0	0
1992	0	0
1993	0	0
1994	0	0
1995	0	0
1996	0	0
1997	0	0
1998	0	0
1999	0	0
2000	0	0
2001	0	0
2002	0	0
2003	0	0
2004	0	0
2005	0	0
2006	0	0
2007	0	0
2008	0	0
2009	0	0
2010	0	0
2011	0	0
2012	0	0
2013	0	0
2014	0	0
2015	0	0
2016	0	0
2017	0	0
2018	0	0
2019	0	0
2020	0	0
2021	0	0
2022	0	0
2023	0	0
2024	0	0
2025	0	0
2026	0	0
2027	0	0
2028	0	0
2029	0	0
2030	0	0
2031	0	0
2032	0	0
2033	0	0
2034	0	0
2035	0	0
2036	0	0
2037	0	0
2038	0	0
2039	0	0
2040	0	0
2041	0	0
2042	0	0
2043	0	0
2044	0	0
2045	0	0
2046	0	0
2047	0	0
2048	0	0
2049	0	0
2050	0	0
2051	0	0
2052	0	0
2053	0	0
2054	0	0
2055	0	0
2056	0	0
2057	0	0
2058	0	0
2059	0	0
2060	0	0
2061	0	0
2062	0	0
2063	0	0
2064	0	0
2065	0	0
2066	0	0
2067	0	0
2068	0	0
2069	0	0
2070	0	0
2071	0	0
2072	0	0
2073	0	0
2074	0	0
2075	0	0
2076	0	0
2077	0	0
2078	0	0
2079	0	0
2080	0	0
2081	0	0
2082	0	0
2083	0	0
2084	0	0
2085	0	0
2086	0	0
2087	0	0
2088	0	0
2089	0	0
2090	0	0
2091	0	0
2092	0	0
2093	0	0
2094	0	0
2095	0	0
2096	0	0
2097	0	0
2098	0	0
2099	0	0
2100	0	0
2101	0	0
2102	0	0
2103	0	0
2104	0	0
2105	0	0
2106	0	0
2107	0	0
2108	0	0
2109	0	0
2110	0	0
2111	0	0
2112	0	0
2113	0	0
2114	0	0
2115	0	0
2116	0	0
2117	0	0
2118	0	0
2119	0	0
2120	0	0
2121	0	0
2122	0	0
2123	0	0
2124	0	0
2125	0	0
2126	0	0
2127	0	0
2128	0	0
2129	0	0
2130	0	0
2131	0	0
2132	0	0
2133	0	0
2134	0	0
2135	0	0
2136	0	0
2137	0	0
2138	0	0
2139	0	0
2140	0	0
2141	0	0
2142	0	0
2143	0	0
2144	0	0
2145	0	0
2146	0	0
2147	0	0
2148	0	0
2149	0	0
2150	0	0
2151	0	0
2152	0	0
2153	0	0
2154	0	0
2155	0	0
2156	0	0
2157	0	0
2158	0	0
2159	0	0
2160	0	0
2161	0	0
2162	0	0
2163	0	0
2164	0	0
2165	0	0
2166	0	0
2167	0	0
2168	0	0
2169	0	0
2170	0	0
2171	0	0
2172	0	0
2173	0	0
2174	0	0
2175	0	0
2176	0	0
2177	0	0
2178	0	0
2179	0	0
2180	0	0
2181	0	0
2182	0	0
2183	0	0
2184	0	0.3
2185	0	0.3
2186	0	0.3
2187	0	0.3
2188	0	0.3
2189	0	0.3
2190	0	0.3
2191	0	0.3
2192	0	0.3
2193	0	0.3
2194	0	0.3
2195	0	0.3
2196	0	0.3
2197	0	0.3
2198	0	0.3
2199	0	0.1
2200	0	0.1
2201	0	0.1
2202	0	0.1
2203	0	0.1
2204	0	0.1
2205	0	0.3
2206	0	0.3
2207	0	0.3
2208	0	0.3
2209	0	0.3
2210	0	0.3
2211	0	0.3
2212	0	0.3
2213	0	0.3
2214	0	0.3
2215	0	0.3
2216	0	0.3
2217	0	0.3
2218	0	0.3
2219	0	0.3
2220	0	0.3
2221	0	0.3
2222	0	0.3
2223	0	0.3
2224	0	0.3
2225	0	0.3
2226	0	0.3
2227	0	0.1
2228	0	0.3
2229	0	0.3
2230	0	0.3
2231	0	0.964919
2232	0	0.96495
2233	0	0.964919
2234	0	0.5
2235	0	0.5
2236	0	0.5
2237	0	0.5
2238	0	0.5
2239	0	0.5
2240	0	0.5
2241	0	0.5
2242	0	0.5
2243	0	0.5
2244	0	0.5
2245	0	0.5
2246	0	0.5
2247	0	0.2
2248	0	0.307692
2249	0	0.92265
2250	0	0
2251	0	0.1
2252	0	0
2253	0	0
2254	0	0
2255	0	0
2256	0	0
2257	0	0
2258	0	0
2259	0	0
2260	0	0
2261	0	0
2262	0	0
2263	0	0
2264	0	0
2265	0	0
2266	0	0
2267	0	0
2268	0	0
2269	0	0
2270	0	0
2271	0	0
2272	0	0
2273	0	0
2274	0	0
2275	0	0
2276	0	0
2277	0	0
2278	0	0
2279	0	0
2280	0	0
2281	0	0
2282	0	0
2283	0	0
2284	0	0
2285	0	0
2286	0	0
2287	0	0
2288	0	0
2289	0	0
2290	0	0
2291	0	0
2292	0	0
2293	0	0
2294	0	0
2295	0	0
2296	0	0
2297	0	0
2298	0	0
2299	0	0
2300	0	0
2301	0	0
2302	0	0
2303	0	0
2304	0	0
2305	0	0
2306	0	0
2307	0	0
2308	0	0
2309	0	0
2310	0	0
2311	0	0
2312	0	0
2313	0	0
2314	0	0
2315	0	0
2316	0	0
2317	0	0
2318	0	0
2319	0	0
2320	0	0
2321	0	0
2322	0	0
2323	0	0
2324	0	0
2325	0	0
2326	0	0
2327	0	0
2328	0	0
2329	0	0
2330	0	0
2331	0	0
2332	0	0
2333	0	0
2334	0	0
2335	0	0
2336	0	0
2337	0	0.690007
2338	0	0.142857
2339	0	0.142857
2340	0	0.142857
2341	0	0.142857
2342	0	0.142857
2343	0	0.142857
2344	0	0.047619
2345	0	0.445035
2346	0	0.0357143
2347	0	0.0714286
2348	0	0.0714286
2349	0	0.0357143
2350	0	0.0277778
2351	0	0.0277778
2352	0	0.0277778
2353	0	0.0277778
2354	0	0.0277778
2355	0	0.124183
2356	0	0.652185
2357	0	0.633057
2358	0	0.622389
2359	0	0.618808
2360	0	0.598359
2361	0	0.536235
2362	0	0.514978
2363	0	0.480651
2364	0	0.460026
2365	0	0.453945
2366	0	0.450141
2367	0	0.414777
2368	0	0.363674
2369	0	0.287912
2370	0	0.329451
2371	0	0.302307
2372	0	0.262495
2373	0	0.137995
2374	0	0.188714
2375	0	0.0953058
2376	0	0.100601
2377	0	0.108734
2378	0	0.121212
2379	0	0.038961
2380	0	0.038961
2381	0	0.0333333
2382	0	0.0368421
2383	0	0.0130719
2384	0	0.0130719
2385	0	0
2386	0	0
2387	0	0
2388	0	0
2389	0	0
2390	0	0
2391	0	0
2392	0	0
2393	0	0
2394	0	0.00735294
2395	0	0.00735294
2396	0	0.00735294
2397	0	0.00735294
2398	0	0.0220588
2399	0	0.0220588
2400	0	0.0220588
2401	0	0.0220588
2402	0	0.00735294
2403	0	0
2404	0	0
2405	0	0
2406	0	0.00833333
2407	0	0.00833333
2408	0	0.00833333
2409	0	0.00833333
2410	0	0
2411	0	0
2412	0	0
2413	0	0
2414	0	0
2415	0	0
2416	0	0
2417	0	0
2418	0	0
2419	0	0
2420	0	0
2421	0	0
2422	0	0
2423	0	0
2424	0	0
2425	0	0
2426	0	0
2427	0	0
2428	0	0
2429	0	0
2430	0	0
2431	0	0
2432	0	0
2433	0	0
2434	0	0
2435	0	0
2436	0	0
2437	0	0
2438	0	0
2439	0	0
2440	0	0
2441	0	0
2442	0	0
2443	0	0.00833333
2444	0	0.00833333
2445	0	0.00833333
2446	0	0.00833333
2447	0	0.00833333
2448	0	0.00833333
2449	0	0.00833333
2450	0	0.00833333
2451	0	0.00952381
2452	0	0.00952381
2453	0	0.00952381
2454	0	0.00952381
2455	0	0.00952381
2456	0	0.00952381
2457	0	0
2458	0	0
2459	0	0.00952381
2460	0	0.00952381
2461	0	0.00952381
2462	0	0.00952381
2463	0	0.00952381
2464	0	0
2465	0	0
2466	0	0
2467	0	0
2468	0	0
2469	0	0
2470	0	0
2471	0	0
2472	0	0
2473	0	0
2474	0	0
2475	0	0
2476	0	0
2477	0	0
2478	0	0
2479	0	0
2480	0	0
2481	0	0
2482	0	0
2483	0	0
2484	0	0
2485	0	0
2486	0	0
2487	0	0
2488	0	0
2489	0	0
2490	0	0
2491	0	0
2492	0	0
2493	0	0
2494	0	0
2495	0	0
2496	0	0
2497	0	0
2498	0	0
2499	0	0
2500	0	0
2501	0	0
2502	0	0
2503	0	0
2504	0	0
2505	0	0
2506	0	0
2507	0	0
2508	0	0
2509	0	0
2510	0	0
2511	0	0
2512	0	0
2513	0	0
2514	0	0
2515	0	0
2516	0	0
2517	0	0
2518	0	0
2519	0	0
2520	0	0
2521	0	0
2522	0	0
2523	0	0
2524	0	0
2525	0	0
2526	0	0
2527	0	0
2528	0	0.0181818
2529	0	0.0181818
2530	0	0.0181818
2531	0	0.0181818
2532	0	0.0222222
2533	0	0.0222222
2534	0	0
2535	0	0
2536	0	0
2537	0	0
2538	0	0
2539	0	0
2540	0	0
2541	0	0
2542	0	0
2543	0	0
2544	0	0
2545	0	0
2546	0	0
2547	0	0
2548	0	0
2549	0	0
2550	0	0
2551	0	0
2552	0	0
2553	0	0
2554	0	0
2555	0	0
2556	0	0
2557	0	0
2558	0	0
2559	0	0
2560	0	0
2561	0	0
2562	0	0
2563	0	0
2564	0	0
2565	0	0
2566	0	0
2567	0	0
2568	0	0
2569	0	0
2570	0	0
2571	0	0
2572	0	0
2573	0	0
2574	0	0
2575	0	0
2576	0	0
2577	0	0
2578	0	0
2579	0	0
2580	0	0
2581	0	0
2582	0	0
2583	0	0
2584	0	0
2585	0	0
2586	0	0
2587	0	0
2588	0	0
2589	0	0
2590	0	0
2591	0	0
2592	0	0
2593	0	0
2594	0	0
2595	0	0
2596	0	0
2597	0	0
2598	0	0
2599	0	0
2600	0	0
2601	0	0
2602	0	0
2603	0	0
2604	0	0
2605	0	0
2606	0	0
2607	0	0
2608	0	0
2609	0	0
2610	0	0
2611	0	0
2612	0	0
2613	0	0
2614	0	0
2615	0	0
2616	0	0
2617	0	0
2618	0	0
2619	0	0
2620	0	0
2621	0	0
2622	0	0
2623	0	0
2624	0	0
2625	0	0
2626	0	0
2627	0	0
2628	0	0
2629	0	0
2630	0	0
2631	0	0
2632	0	0
2633	0	0
2634	0	0
2635	0	0
2636	0	0
2637	0	0
2638	0	0
2639	0	0
2640	0	0
2641	0	0
2642	0	0
2643	0	0
2644	0	0
2645	0	0
2646	0	0
2647	0	0
2648	0	0
2649	0	0
2650	0	0
2651	0	0
2652	0	0
2653	0	0
2654	0	0
2655	0	0
2656	0	0
2657	0	0
2658	0	0
2659	0	0
2660	0	0
2661	0	0
2662	0	0
2663	0	0
2664	0	0
2665	0	0
2666	0	0
2667	0	0
2668	0	0
2669	0	0
2670	0	0
2671	0	0
2672	0	0
2673	0	0
2674	0	0
2675	0	0
2676	0	0
2677	0	0
2678	0	0
2679	0	0
2680	0	0
2681	0	0
2682	0	0
2683	0	0
2684	0	0
2685	0	0
2686	0	0
2687	0	0
2688	0	0
2689	0	0
2690	0	0
2691	0	0
2692	0	0
2693	0	0
2694	0	0
2695	0	0
2696	0	0
2697	0	0
2698	0	0
2699	0	0
2700	0	0
2701	0	0
2702	0	0
2703	0	0
2704	0	0
2705	0	0
2706	0	0
2707	0	0
2708	0	0
2709	0	0
2710	0	0
2711	0	0
2712	0	0
2713	0	0
2714	0	0
2715	0	0
2716	0	0
2717	0	0
2718	0	0
2719	0	0
2720	0	0
2721	0	0
2722	0	0
2723	0	0
2724	0	0.0357143
2725	0	0.0357143
2726	0	0.0357143
2727	0	0.0357143
2728	0	0.0357143
2729	0	0.0357143
2730	0	0.0357143
2731	0	0.0357143
2732	0	0.0357143
2733	0	0.0357143
2734	0	0.0357143
2735	0	0.0357143
2736	0	0.0357143
2737	0	0.0357143
2738	0	0.0357143
2739	0	0.0357143
2740	0	0.0357143
2741	0	0.0357143
2742	0	0.0357143
2743	0	0.0357143
2744	0	0.0357143
2745	0	0.0357143
2746	0	0.0357143
2747	0	0
2748	0	0
2749	0	0
2750	0	0
2751	0	0
2752	0	0
2753	0	0
2754	0	0
2755	0	0
2756	0	0
2757	0	0
2758	0	0
2759	0	0
2760	0	0
2761	0	0
2762	0	0
2763	0	0
2764	0	0
2765	0	0
2766	0	0
2767	0	0
2768	0	0
2769	0	0
2770	0	0
2771	0	0
2772	0	0
2773	0	0
2774	0	0
2775	0	0
2776	0	0
2777	0	0
2778	0	0
2779	0	0
2780	0	0
2781	0	0
2782	0	0
2783	0	0
2784	0	0
2785	0	0
2786	0	0
2787	0	0
2788	0	0
2789	0	0
2790	0	0
2791	0	0
2792	0	0
2793	0	0
2794	0	0
2795	0	0
2796	0	0
2797	0	0
2798	0	0
2799	0	0
2800	0	0
2801	0	0
2802	0	0
2803	0	0
2804	0	0
2805	0	0
2806	0	0
2807	0	0
2808	0	0
2809	0	0
2810	0	0
2811	0	0
2812	0	0
2813	0	0
2814	0	0
2815	0	0
2816	0	0
2817	0	0
2818	0	0
2819	0	0
2820	0	0
2821	0	0
2822	0	0
2823	0	0
2824	0	0
2825	0	0
2826	0	0
2827	0	0
2828	0	0
2829	0	0
2830	0	0
2831	0	0
2832	0	0
2833	0	0
2834	0	0
2835	0	0
2836	0	0
2837	0	0
2838	0	0
2839	0	0
2840	0	0
2841	0	0
2842	0	0
2843	0	0
2844	0	0
2845	0	0
2846	0	0
2847	0	0
2848	0	0
2849	0	0
2850	0	0
2851	0	0
2852	0	0
2853	0	0
2854	0	0
2855	0	0
2856	0	0
2857	0	0
2858	0	0
2859	0	0
2860	0	0
2861	0	0
2862	0	0
2863	0	0
2864	0	0
2865	0	0
2866	0	0
2867	0	0
2868	0	0
2869	0	0
2870	0	0
2871	0	0
2872	0	0
2873	0	0
2874	0	0
2875	0	0
2876	0	0
2877	0	0
2878	0	0
2879	0	0
2880	0	0
2881	0	0
2882	0	0
2883	0	0
2884	0	0
2885	0	0
2886	0	0
2887	0	0
2888	0	0
2889	0	0
2890	0	0
2891	0	0
2892	0	0
2893	0	0
2894	0	0
2895	0	0
2896	0	0
2897	0	0
2898	0	0
2899	0	0
2900	0	0
2901	0	0
2902	0	0
2903	0	0
2904	0	0
2905	0	0
2906	0	0
2907	0	0
2908	0	0
2909	0	0
2910	0	0
2911	0	0
2912	0	0
2913	0	0
2914	0	0
2915	0	0
2916	0	0
2917	0	0
2918	0	0
2919	0	0
2920	0	0
2921	0	0
2922	0	0
2923	0	0
2924	0	0
2925	0	0
2926	0	0
2927	0	0
2928	0	0
2929	0	0
2930	0	0
2931	0	0
2932	0	0
2933	0	0
2934	0	0
2935	0	0
2936	0	0
2937	0	0
2938	0	0
2939	0	0
2940	0	0
2941	0	0
2942	0	0
2943	0	0
2944	0	0
2945	0	0
2946	0	0
2947	0	0
2948	0	0
2949	0	0
2950	0	0
2951	0	0
2952	0	0
2953	0	0
2954	0	0
2955	0	0
2956	0	0
2957	0	0
2958	0	0
2959	0	0
2960	0	0
2961	0	0
2962	0	0
2963	0	0
2964	0	0
2965	0	0
2966	0	0
2967	0	0
2968	0	0
2969	0	0
2970	0	0
2971	0	0
2972	0	0
2973	0	0
2974	0	0
2975	0	0
2976	0	0
2977	0	0
2978	0	0
2979	0	0
2980	0	0
2981	0	0
2982	0	0
2983	0	0
2984	0	0
2985	0	0
2986	0	0
2987	0	0
2988	0	0
2989	0	0
2990	0	0
2991	0	0
2992	0	0
2993	0	0
2994	0	0
2995	0	0
2996	0	0
2997	0	0
2998	0	0
2999	0	0
3000	0	0
3001	0	0
3002	0	0
3003	0	0
3004	0	0
3005	0	0
3006	0	0
3007	0	0
3008	0	0
3009	0	0
3010	0	0
3011	0	0
3012	0	0
3013	0	0
3014	0	0
3015	0	0
3016	0	0
3017	0	0
3018	0	0
3019	0	0
3020	0	0
3021	0	0
3022	0	0
3023	0	0
3024	0	0
3025	0	0
3026	0	0
3027	0	0
3028	0	0
3029	0	0
3030	0	0
3031	0	0
3032	0	0
3033	0	0
3034	0	0
3035	0	0
3036	0	0
3037	0	0
3038	0	0
3039	0	0
3040	0	0
3041	0	0
3042	0	0
3043	0	0
3044	0	0
3045	0	0
3046	0	0
3047	0	0
3048	0	0
3049	0	0
3050	0	0
3051	0	0
3052	0	0
3053	0	0
3054	0	0
3055	0	0
3056	0	0
3057	0	0
3058	0	0
3059	0	0
3060	0	0
3061	0	0
3062	0	0
3063	0	0
3064	0	0
3065	0	0
3066	0	0
3067	0	0
3068	0	0
3069	0	0
3070	0	0
3071	0	0
3072	0	0
3073	0	0
3074	0	0
3075	0	0
3076	0	0
3077	0	0
3078	0	0
3079	0	0
3080	0	0
3081	0	0
3082	0	0
3083	0	0
3084	0	0
3085	0	0
3086	0	0
3087	0	0
3088	0	0
3089	0	0
3090	0	0
3091	0	0
3092	0	0
3093	0	0
3094	0	0
3095	0	0
3096	0	0
3097	0	0
3098	0	0
3099	0	0
3100	0	0
3101	0	0
3102	0	0
3103	0	0
3104	0	0
3105	0	0
3106	0	0
3107	0	0
3108	0	0
3109	0	0
3110	0	0
3111	0	0
3112	0	0
3113	0	0
3114	0	0
3115	0	0
3116	0	0
3117	0	0
3118	0	0
3119	0	0
3120	0	0
3121	0	0
3122	0	0
3123	0	0
3124	0	0
3125	0	0
3126	0	0
3127	0	0
3128	0	0
3129	0	0
3130	0	0
3131	1	0
3132	1	0
3133	1	0
3134	1	0
3135	0	0
3136	0	0
3137	0	0
3138	0	0
3139	0	0
3140	0	0
3141	0	0
3142	0	0
3143	0	0
3144	0	0
3145	0	0
3146	0	0
3147	0	0
3148	0	0
3149	0	0
3150	0	0
3151	0	0
3152	0	0
3153	0	0
3154	0	0
3155	0	0
3156	0	0
3157	0	0
3158	0	0
3159	0	0
3160	0	0
3161	0	0
3162	0	0
3163	0	0
3164	0	0
3165	0	0
3166	0	0
3167	0	0
3168	0	0
3169	0	0
3170	0	0
3171	0	0
3172	0	0
3173	0	0
3174	0	0
3175	0	0
3176	0	0
3177	0	0
3178	0	0
3179	0	0
3180	0	0
3181	0	0
3182	0	0
3183	0	0
3184	0	0
3185	0	0
3186	0	0
3187	0	0
3188	0	0
3189	0	0
3190	0	0
3191	0	0
3192	0	0
3193	0	0
3194	0	0
3195	0	0
3196	0	0
3197	0	0
3198	0	0
3199	0	0
3200	0	0
3201	0	0
3202	0	0
3203	0	0
3204	0	0
3205	0	0
3206	0	0
3207	0	0
3208	0	0
3209	1	0
3210	1	0
3211	0	0
3212	0	0
3213	0	0
3214	0	0
3215	0	0
3216	0	0
3217	0	0
3218	0	0
3219	0	0
3220	0	0
3221	0	0
3222	0	0
3223	0	0
3224	0	0
3225	0	0
3226	0	0
3227	0	0
3228	0	0
3229	0	0
3230	0	0
3231	0	0
3232	0	0
3233	0	0
3234	0	0
3235	0	0
3236	0	0
3237	0	0
3238	0	0
3239	0	0
3240	0	0
3241	1	0
3242	1	0
3243	1	0
3244	1	0
3245	1	0
3246	0	0
3247	0	0
3248	0	0
3249	0	0
3250	0	0
3251	0	0
3252	1	0
3253	1	0
3254	1	0
3255	1	0
3256	1	0
3257	0	0
3258	0	0
3259	0	0
3260	0	0
3261	0	0
3262	0	0
3263	0	0
3264	0	0
3265	0	0
3266	0	0
3267	0	0
3268	0	0
3269	0	0
3270	0	0
3271	0	0
3272	0	0
3273	0	0
3274	0	0
3275	0	0
3276	0	0
3277	0	0
3278	0	0
3279	1	0
3280	1	0
3281	1	0
3282	1	0
3283	1	0
3284	1	0
3285	1	0
3286	0	0
3287	0	0
3288	0	0
3289	0	0
3290	0	0
3291	0	0
3292	0	0
3293	0	0
3294	0	0
3295	0	0
3296	0	0
3297	0	0
3298	0	0
3299	0	0
3300	0	0
3301	0	0
3302	0	0
3303	0	0
3304	0	0
3305	0	0
3306	0	0
3307	0	0
3308	0	0
3309	0	0
3310	0	0
3311	0	0
3312	0	0
3313	0	0
3314	0	0
3315	0	0
3316	0	0
3317	0	0
3318	0	0
3319	0	0
3320	0	0
3321	0	0
3322	0	0
3323	0	0
3324	0	0
3325	0	0
3326	0	0
3327	0	0
3328	0	0
3329	0	0
3330	0	0
3331	0	0
3332	0	0
3333	0	0
3334	0	0
3335	0	0
3336	0	0
3337	0	0
3338	0	0
3339	0	0
3340	0	0
3341	0	0
3342	0	0
3343	0	0
3344	0	0
3345	0	0
3346	0	0
3347	0	0
3348	0	0
3349	0	0
3350	0	0
3351	0	0
3352	0	0
3353	0	0
3354	0	0
3355	0	0
3356	0	0
3357	0	0
3358	0	0
3359	0	0
3360	0	0
3361	0	0
3362	0	0
3363	0	0
3364	0	0
3365	0	0
3366	0	0
3367	0	0
3368	0	0
3369	0	0
3370	0	0
3371	0	0
3372	0	0
3373	0	0
3374	0	0
3375	0	0
3376	0	0
3377	0	0
3378	0	0
3379	0	0
