Site	ColumnScore	SumOfPairsScore
1	0	0
2	0	0
3	0	0
4	0	0
5	0	0
6	0	0
7	0	0
8	0	0
9	0	0
10	0	0
11	0	0
12	0	0
13	0	0
14	0	0
15	0	0
16	0	0
17	0	0
18	0	0
19	0	0
20	1	0
21	1	0
22	1	0
23	1	0
24	1	0
25	1	0
26	1	0
27	1	0
28	1	0
29	0	0
30	0	0
31	0	0
32	0	0
33	0	0
34	0	0
35	0	0
36	0	0
37	0	0
38	0	0
39	0	0
40	0	0
41	0	0
42	0	0
43	0	0
44	0	0
45	0	0
46	0	0
47	0	0
48	0	0
49	0	0
50	0	0
51	0	0
52	0	0
53	0	0
54	0	0
55	0	0
56	0	0
57	0	0
58	0	0
59	0	0
60	0	0
61	0	0
62	0	0
63	0	0
64	0	0
65	0	0
66	0	0
67	0	0
68	0	0
69	1	0
70	0	0
71	0	0
72	0	0
73	0	0
74	0	0
75	0	0
76	0	0
77	0	0
78	0	0
79	0	0
80	0	0
81	0	0
82	0	0
83	0	0
84	0	0
85	0	0
86	0	0
87	0	0
88	0	0
89	0	0
90	0	0
91	0	0
92	0	0
93	0	0
94	0	0
95	0	0
96	0	0
97	0	0
98	0	0
99	0	0
100	0	0
101	0	0
102	0	0
103	0	0
104	0	0
105	0	0
106	0	0
107	0	0
108	0	0
109	0	0
110	0	0
111	0	0
112	0	0
113	0	0
114	0	0
115	0	0
116	0	0
117	0	0
118	0	0
119	0	0
120	0	0
121	0	0
122	0	0
123	0	0
124	0	0
125	0	0
126	0	0
127	0	0
128	0	0
129	0	0
130	0	0
131	0	0
132	0	0
133	0	0
134	0	0
135	0	0
136	0	0
137	0	0
138	0	0
139	0	0
140	0	0
141	0	0
142	0	0
143	0	0
144	0	0
145	0	0
146	0	0
147	0	0
148	0	0
149	0	0
150	0	0
151	0	0
152	0	0
153	0	0
154	0	0
155	0	0
156	0	0
157	0	0
158	0	0
159	0	0
160	0	0
161	0	0
162	0	0
163	0	0
164	0	0
165	0	0
166	0	0
167	0	0
168	0	0
169	0	0
170	0	0
171	0	0
172	0	0
173	0	0
174	0	0
175	0	0
176	0	0
177	0	0
178	0	0
179	0	0
180	0	0
181	0	0
182	0	0
183	0	0
184	0	0
185	0	0
186	0	0
187	0	0
188	0	0
189	0	0
190	0	0
191	0	0
192	0	0
193	0	0
194	0	0
195	0	0
196	0	0
197	0	0
198	0	0
199	0	0
200	0	0
201	0	0
202	0	0
203	0	0
204	0	0
205	0	0
206	0	0
207	0	0
208	0	0
209	0	0
210	0	0
211	0	0
212	0	0
213	0	0
214	0	0
215	0	0
216	0	0
217	0	0
218	0	0
219	0	0
220	0	0
221	0	0
222	0	0
223	0	0
224	0	0
225	0	0
226	0	0
227	0	0
228	0	0
229	0	0
230	0	0
231	0	0
232	0	0
233	0	0
234	0	0
235	0	0
236	0	0
237	0	0
238	0	0
239	0	0
240	0	0
241	0	0
242	0	0
243	0	0
244	0	0
245	0	0
246	0	0
247	0	0
248	0	0
249	0	0
250	0	0
251	0	0
252	0	0
253	0	0
254	0	0
255	0	0
256	0	0
257	0	0
258	0	0
259	0	0
260	0	0
261	0	0
262	0	0
263	0	0
264	0	0
265	0	0
266	0	0
267	0	0
268	0	0
269	0	0
270	0	0
271	0	0
272	0	0
273	0	0
274	0	0
275	0	0
276	0	0
277	0	0
278	0	0
279	0	0
280	0	0
281	0	0
282	0	0
283	0	0
284	0	0
285	0	0
286	0	0
287	0	0
288	0	0
289	0	0
290	0	0
291	0	0
292	0	0
293	0	0
294	0	0
295	0	0
296	0	0
297	0	0
298	0	0
299	0	0
300	0	0
301	0	0
302	0	0
303	0	0
304	0	0
305	0	0
306	0	0
307	0	0
308	0	0
309	0	0
310	0	0
311	0	0
312	0	0
313	0	0
314	0	0
315	0	0
316	0	0
317	0	0
318	0	0
319	0	0
320	0	0
321	0	0
322	0	0
323	0	0
324	0	0
325	0	0
326	0	0
327	0	0
328	0	0
329	0	0
330	0	0
331	0	0
332	0	0
333	0	0
334	0	0
335	0	0
336	0	0
337	0	0
338	0	0
339	0	0
340	0	0
341	0	0
342	0	0
343	0	0
344	0	0
345	0	0
346	0	0
347	0	0
348	0	0
349	0	0
350	0	0
351	0	0
352	0	0
353	0	0
354	0	0
355	0	0
356	0	0
357	0	0
358	0	0
359	0	0
360	0	0
361	0	0
362	0	0
363	0	0
364	0	0
365	0	0
366	0	0
367	0	0
368	0	0
369	0	0
370	0	0
371	0	0
372	0	0
373	0	0
374	0	0
375	0	0
376	0	0
377	0	0
378	0	0
379	0	0
380	0	0
381	0	0
382	0	0
383	0	0
384	0	0
385	0	0
386	0	0
387	0	0
388	0	0
389	0	0
390	0	0
391	0	0
392	0	0
393	0	0
394	0	0
395	0	0
396	0	0
397	0	0
398	0	0
399	0	0
400	0	0
401	0	0
402	0	0
403	0	0
404	0	0
405	0	0
406	0	0
407	0	0
408	0	0
409	0	0
410	0	0
411	0	0
412	0	0
413	0	0
414	0	0
415	0	0
416	0	0
417	0	0
418	0	0
419	0	0
420	0	0
421	0	0
422	0	0
423	0	0
424	0	0
425	0	0
426	0	0
427	0	0
428	0	0
429	0	0
430	0	0
431	0	0
432	0	0
433	0	0
434	0	0
435	0	0
436	0	0
437	0	0
438	0	0
439	0	0
440	0	0
441	0	0
442	0	0
443	0	0
444	0	0
445	0	0
446	0	0
447	0	0
448	0	0
449	0	0
450	0	0
451	0	0
452	0	0
453	0	0
454	0	0
455	0	0
456	0	0
457	0	0
458	0	0
459	0	0
460	0	0
461	0	0
462	0	0
463	0	0
464	0	0
465	0	0
466	0	0
467	0	0
468	0	0
469	0	0
470	0	0
471	0	0
472	0	0
473	0	0
474	0	0
475	0	0
476	0	0
477	0	0
478	0	0
479	0	0
480	0	0
481	0	0
482	0	0
483	0	0
484	0	0
485	0	0
486	0	0
487	0	0
488	0	0
489	0	0
490	0	0
491	0	0
492	0	0
493	0	0
494	0	0
495	0	0
496	0	0
497	0	0
498	0	0
499	0	0
500	0	0
501	0	0
502	0	0
503	0	0
504	0	0
505	0	0
506	0	0
507	0	0
508	0	0
509	0	0
510	0	0
511	0	0
512	0	0
513	0	0
514	0	0
515	0	0
516	0	0
517	0	0
518	0	0
519	0	0
520	0	0
521	0	0
522	0	0
523	0	0
524	0	0
525	0	0
526	0	0
527	0	0
528	0	0
529	0	0
530	0	0
531	0	0
532	0	0
533	0	0
534	0	0
535	0	0
536	0	0
537	0	0
538	0	0
539	0	0
540	0	0
541	0	0
542	0	0
543	0	0
544	0	0
545	0	0
546	0	0
547	0	0
548	0	0
549	0	0
550	0	0
551	0	0
552	0	0
553	0	0
554	0	0
555	0	0
556	0	0
557	0	0
558	0	0
559	0	0
560	0	0
561	0	0
562	0	0
563	0	0
564	0	0
565	0	0
566	0	0
567	0	0
568	0	0
569	0	0
570	0	0
571	0	0
572	0	0
573	0	0
574	0	0
575	0	0
576	0	0
577	0	0
578	0	0
579	0	0
580	0	0
581	0	0
582	0	0
583	0	0
584	0	0
585	0	0
586	0	0
587	0	0
588	0	0
589	0	0
590	0	0
591	0	0
592	0	0
593	0	0
594	0	0
595	0	0
596	0	0
597	0	0
598	0	0
599	0	0
600	0	0
601	0	0
602	0	0
603	0	0
604	0	0
605	0	0
606	0	0
607	0	0
608	0	0
609	0	0
610	0	0
611	0	0
612	0	0
613	0	0
614	0	0
615	0	0
616	0	0
617	0	0
618	0	0
619	0	0
620	0	0
621	0	0
622	0	0
623	0	0
624	0	0
625	0	0
626	0	0
627	0	0
628	0	0
629	0	0
630	0	0
631	0	0
632	0	0
633	0	0
634	0	0
635	0	0
636	0	0
637	0	0
638	0	0
639	0	0
640	0	0
641	0	0
642	0	0
643	0	0
644	0	0
645	0	0
646	0	0
647	0	0
648	0	0
649	0	0
650	0	0
651	0	0
652	0	0
653	0	0
654	0	0
655	0	0
656	0	0
657	0	0
658	0	0
659	0	0
660	0	0
661	0	0
662	0	0
663	0	0
664	0	0
665	0	0
666	0	0
667	0	0
668	0	0
669	0	0
670	0	0
671	0	0
672	0	0
673	0	0
674	0	0
675	0	0
676	0	0
677	0	0
678	0	0
679	0	0
680	0	0
681	0	0
682	0	0
683	0	0
684	0	0
685	0	0
686	0	0
687	0	0
688	0	0
689	0	0
690	0	0
691	0	0
692	0	0
693	0	0
694	0	0
695	0	0
696	0	0
697	0	0
698	0	0
699	0	0
700	0	0
701	0	0
702	0	0
703	0	0
704	0	0
705	0	0
706	0	0
707	0	0
708	0	0
709	0	0
710	0	0
711	0	0
712	0	0
713	0	0
714	0	0
715	0	0
716	0	0
717	0	0
718	0	0
719	0	0
720	0	0
721	0	0
722	0	0
723	0	0
724	0	0
725	0	0
726	0	0
727	0	0
728	0	0
729	0	0
730	0	0
731	0	0
732	0	0
733	0	0
734	0	0
735	0	0
736	0	0
737	0	0
738	0	0
739	0	0
740	0	0
741	0	0
742	0	0
743	0	0
744	0	0
745	0	0
746	0	0
747	0	0
748	0	0
749	0	0
750	0	0
751	0	0
752	0	0
753	0	0
754	0	0
755	0	0
756	0	0
757	0	0
758	0	0
759	0	0
760	0	0
761	0	0
762	0	0
763	0	0
764	0	0
765	0	0
766	0	0
767	0	0
768	0	0
769	0	0
770	0	0
771	0	0
772	0	0
773	0	0
774	0	0.047619
775	0	0.047619
776	0	0.047619
777	0	0.047619
778	0	0.047619
779	0	0.047619
780	0	0.047619
781	0	0.047619
782	0	0.047619
783	0	0.047619
784	0	0.047619
785	0	0.047619
786	0	0.047619
787	0	0.047619
788	0	0.047619
789	0	0.047619
790	0	0.047619
791	0	0.047619
792	0	0.047619
793	0	0.047619
794	0	0.047619
795	0	0.047619
796	0	0.047619
797	0	0.047619
798	0	0.047619
799	0	0.047619
800	0	0.047619
801	0	0.047619
802	0	0.047619
803	0	0.047619
804	0	0.047619
805	0	0.047619
806	0	0.047619
807	0	0.047619
808	0	0.047619
809	0	0.047619
810	0	0.047619
811	0	0.047619
812	0	0.047619
813	0	0.047619
814	0	0.047619
815	0	0.047619
816	0	0.047619
817	0	0.047619
818	0	0.047619
819	0	0.047619
820	0	0.047619
821	0	0.047619
822	0	0.047619
823	0	0.047619
824	0	0.047619
825	0	0.047619
826	0	0.047619
827	0	0.047619
828	0	0.047619
829	0	0.047619
830	0	0.047619
831	0	0.047619
832	0	0.047619
833	0	0.047619
834	0	0.047619
835	0	0.047619
836	0	0.047619
837	0	0.047619
838	0	0.047619
839	0	0.047619
840	0	0.047619
841	0	0.047619
842	0	0.047619
843	0	0.047619
844	0	0.047619
845	0	0.047619
846	0	0.047619
847	0	0.047619
848	0	0.047619
849	0	0.047619
850	0	0.047619
851	0	0.047619
852	0	0.047619
853	0	0.047619
854	0	0.047619
855	0	0.047619
856	0	0.047619
857	0	0.047619
858	0	0.047619
859	0	0.047619
860	0	0.047619
861	0	0.047619
862	0	0.047619
863	0	0.047619
864	0	0.047619
865	0	0.047619
866	0	0.047619
867	0	0.047619
868	0	0.047619
869	0	0.047619
870	0	0.047619
871	0	0.047619
872	0	0.047619
873	0	0.047619
874	0	0.047619
875	0	0.047619
876	0	0
877	0	0
878	0	0
879	0	0
880	0	0
881	0	0
882	0	0
883	0	0
884	0	0
885	0	0
886	0	0
887	0	0
888	0	0
889	0	0
890	0	0
891	0	0
892	0	0
893	0	0
894	0	0
895	0	0
896	0	0
897	0	0
898	0	0
899	0	0
900	0	0
901	0	0
902	0	0
903	0	0
904	0	0
905	0	0
906	0	0
907	0	0
908	0	0
909	0	0
910	0	0
911	0	0
912	0	0
913	0	0
914	0	0
915	0	0
916	0	0
917	0	0
918	0	0
919	0	0
920	0	0
921	0	0
922	0	0
923	0	0
924	0	0
925	0	0
926	0	0
927	0	0
928	0	0
929	0	0
930	0	0
931	0	0
932	0	0
933	0	0
934	0	0
935	0	0
936	0	0
937	0	0
938	0	0
939	0	0
940	0	0
941	0	0
942	0	0
943	0	0
944	0	0
945	0	0
946	0	0
947	0	0
948	0	0
949	0	0
950	0	0
951	0	0
952	0	0
953	0	0
954	0	0
955	0	0
956	0	0
957	0	0
958	0	0
959	0	0
960	0	0
961	0	0
962	0	0
963	0	0
964	0	0
965	0	0
966	0	0
967	0	0
968	0	0
969	0	0
970	0	0
971	0	0
972	0	0
973	0	0
974	0	0
975	0	0
976	0	0
977	0	0
978	0	0
979	0	0
980	0	0
981	0	0
982	0	0
983	0	0
984	0	0
985	0	0
986	0	0
987	0	0
988	0	0
989	0	0
990	0	0
991	0	0
992	0	0
993	0	0
994	0	0
995	0	0
996	0	0
997	0	0
998	0	0
999	0	0
1000	0	0
1001	0	0
1002	0	0
1003	0	0
1004	0	0
1005	0	0
1006	0	0
1007	0	0
1008	0	0
1009	0	0
1010	0	0
1011	0	0
1012	0	0
1013	0	0
1014	0	0
1015	0	0
1016	0	0
1017	0	0
1018	0	0
1019	0	0
1020	0	0.0277778
1021	0	0.0277778
1022	0	0.0277778
1023	0	0.0277778
1024	0	0.0277778
1025	0	0.0277778
1026	0	0.0277778
1027	0	0.0222222
1028	0	0.0222222
1029	0	0.0222222
1030	0	0.0222222
1031	0	0.0222222
1032	0	0.0222222
1033	0	0.0222222
1034	0	0.0222222
1035	0	0.0222222
1036	0	0.0222222
1037	0	0.0444444
1038	0	0.0444444
1039	0	0.0444444
1040	0	0.0444444
1041	0	0.0444444
1042	0	0.0444444
1043	0	0.0444444
1044	0	0.0222222
1045	0	0.0222222
1046	0	0.0222222
1047	0	0.0222222
1048	0	0.0222222
1049	0	0.0222222
1050	0	0.0222222
1051	0	0.0222222
1052	0	0.0222222
1053	0	0.0222222
1054	0	0.0222222
1055	0	0.0222222
1056	0	0.0222222
1057	0	0.0222222
1058	0	0.0222222
1059	0	0.0222222
1060	0	0.0222222
1061	0	0.0222222
1062	0	0.0222222
1063	0	0.0222222
1064	0	0.0222222
1065	0	0.0222222
1066	0	0.0222222
1067	0	0.0222222
1068	0	0.0222222
1069	0	0.0222222
1070	0	0.0222222
1071	0	0.0222222
1072	0	0.0222222
1073	0	0.0222222
1074	0	0.0222222
1075	0	0.0222222
1076	0	0.0222222
1077	0	0.0222222
1078	0	0.0222222
1079	0	0.0222222
1080	0	0.0222222
1081	0	0.0181818
1082	0	0.0181818
1083	0	0.0181818
1084	0	0.0181818
1085	0	0.0181818
1086	0	0.0181818
1087	0	0.0181818
1088	0	0.0181818
1089	0	0.0181818
1090	0	0.0181818
1091	0	0
1092	0	0
1093	0	0
1094	0	0.0181818
1095	0	0.0181818
1096	0	0.0181818
1097	0	0.0181818
1098	0	0.0181818
1099	0	0.0181818
1100	0	0.0181818
1101	0	0.0363636
1102	0	0.0363636
1103	0	0.0363636
1104	0	0.0363636
1105	0	0.0363636
1106	0	0.0363636
1107	0	0.0363636
1108	0	0.0363636
1109	0	0.0363636
1110	0	0.0363636
1111	0	0.0363636
1112	0	0.0363636
1113	0	0.0363636
1114	0	0.0363636
1115	0	0.0363636
1116	0	0.0363636
1117	0	0.0363636
1118	0	0.0363636
1119	0	0.0363636
1120	0	0.0363636
1121	0	0.0363636
1122	0	0.0363636
1123	0	0.0363636
1124	0	0.0363636
1125	0	0.0181818
1126	0	0.0181818
1127	0	0.0181818
1128	0	0.0181818
1129	0	0.0181818
1130	0	0.0181818
1131	0	0.0181818
1132	0	0.0181818
1133	0	0.0181818
1134	0	0.0181818
1135	0	0.0181818
1136	0	0.0151515
1137	0	0.0151515
1138	0	0.0151515
1139	0	0.0151515
1140	0	0.0151515
1141	0	0.0151515
1142	0	0.0151515
1143	0	0.0151515
1144	0	0.0151515
1145	0	0.0151515
1146	0	0.0151515
1147	0	0.0151515
1148	0	0.0151515
1149	0	0.0151515
1150	0	0.0151515
1151	0	0.0151515
1152	0	0.0151515
1153	0	0.0151515
1154	0	0.0151515
1155	0	0.0151515
1156	0	0.0151515
1157	0	0.0151515
1158	0	0.0151515
1159	0	0.0151515
1160	0	0.0151515
1161	0	0.0151515
1162	0	0.0151515
1163	0	0.0151515
1164	0	0.0151515
1165	0	0.0128205
1166	0	0.0128205
1167	0	0.0128205
1168	0	0.0128205
1169	0	0.0128205
1170	0	0.0128205
1171	0	0.0128205
1172	0	0.0128205
1173	0	0.0128205
1174	0	0.0128205
1175	0	0.0128205
1176	0	0.0128205
1177	0	0.0128205
1178	0	0.0128205
1179	0	0.0128205
1180	0	0.0128205
1181	0	0.0128205
1182	0	0.0128205
1183	0	0.0128205
1184	0	0.010989
1185	0	0.010989
1186	0	0.010989
1187	0	0.010989
1188	0	0.010989
1189	0	0.010989
1190	0	0.010989
1191	0	0.010989
1192	0	0.010989
1193	0	0.010989
1194	0	0.010989
1195	0	0.010989
1196	0	0.010989
1197	0	0.010989
1198	0	0.010989
1199	0	0.010989
1200	0	0.010989
1201	0	0.00952381
1202	0	0.00952381
1203	0	0.00952381
1204	0	0.00952381
1205	0	0.00952381
1206	0	0.00952381
1207	0	0.00952381
1208	0	0.00952381
1209	0	0.00952381
1210	0	0.00952381
1211	0	0.00952381
1212	0	0.00952381
1213	0	0.00952381
1214	0	0.00952381
1215	0	0.00952381
1216	0	0.00952381
1217	0	0.00952381
1218	0	0.00952381
1219	0	0.00952381
1220	0	0.00952381
1221	0	0.00952381
1222	0	0.00952381
1223	0	0.00952381
1224	0	0.00952381
1225	0	0.00952381
1226	0	0.00952381
1227	0	0.00952381
1228	0	0.00952381
1229	0	0.00952381
1230	0	0.00952381
1231	0	0
1232	0	0
1233	0	0
1234	0	0
1235	0	0
1236	0	0
1237	0	0
1238	0	0
1239	0	0
1240	0	0
1241	0	0.00952381
1242	0	0.00952381
1243	0	0.00952381
1244	0	0.00952381
1245	0	0.00952381
1246	0	0.00952381
1247	0	0
1248	0	0
1249	0	0
1250	0	0
1251	0	0
1252	0	0
1253	0	0
1254	0	0
1255	0	0
1256	0	0
1257	0	0
1258	0	0
1259	0	0
1260	0	0
1261	0	0
1262	0	0
1263	0	0
1264	0	0
1265	0	0
1266	0	0
1267	0	0
1268	0	0
1269	0	0
1270	0	0
1271	0	0
1272	0	0
1273	0	0
1274	0	0
1275	0	0
1276	0	0
1277	0	0
1278	0	0
1279	0	0
1280	0	0
1281	0	0
1282	0	0
1283	0	0
1284	0	0
1285	0	0
1286	0	0
1287	0	0
1288	0	0
1289	0	0
1290	0	0
1291	0	0
1292	0	0
1293	0	0
1294	0	0
1295	0	0
1296	0	0
1297	0	0
1298	0	0
1299	0	0
1300	0	0
1301	0	0
1302	0	0
1303	0	0
1304	0	0
1305	0	0
1306	0	0
1307	0	0
1308	0	0
1309	0	0
1310	0	0
1311	0	0
1312	0	0
1313	0	0
1314	0	0
1315	0	0
1316	0	0
1317	0	0
1318	0	0
1319	0	0
1320	0	0
1321	0	0
1322	0	0
1323	0	0
1324	0	0
1325	0	0
1326	0	0
1327	0	0
1328	0	0
1329	0	0
1330	0	0
1331	0	0
1332	0	0
1333	0	0
1334	0	0
1335	0	0
1336	0	0
1337	0	0
1338	0	0
1339	0	0
1340	0	0
1341	0	0
1342	0	0
1343	0	0
1344	0	0
1345	0	0
1346	0	0
1347	0	0
1348	0	0.00653595
1349	0	0.00653595
1350	0	0.00653595
1351	0	0.00653595
1352	0	0.00653595
1353	0	0.00653595
1354	0	0.00653595
1355	0	0.00653595
1356	0	0.00653595
1357	0	0.00653595
1358	0	0.00653595
1359	0	0.00653595
1360	0	0.00653595
1361	0	0.00653595
1362	0	0.00653595
1363	0	0.00653595
1364	0	0.00653595
1365	0	0.00653595
1366	0	0.00653595
1367	0	0.00653595
1368	0	0.00653595
1369	0	0.00584795
1370	0	0.00584795
1371	0	0.00584795
1372	0	0.00584795
1373	0	0.00584795
1374	0	0.00584795
1375	0	0.00584795
1376	0	0.00526316
1377	0	0.00526316
1378	0	0.00526316
1379	0	0.00526316
1380	0	0.00526316
1381	0	0.00526316
1382	0	0.0047619
1383	0	0.0047619
1384	0	0.0047619
1385	0	0.0047619
1386	0	0.0047619
1387	0	0.0047619
1388	0	0.0047619
1389	0	0.0047619
1390	0	0.0047619
1391	0	0.0047619
1392	0	0.0047619
1393	0	0.0047619
1394	0	0.0047619
1395	0	0.0047619
1396	0	0.0047619
1397	0	0.0047619
1398	0	0.0047619
1399	0	0.0047619
1400	0	0.0047619
1401	0	0.0047619
1402	0	0.0047619
1403	0	0.0047619
1404	0	0.004329
1405	0	0.004329
1406	0	0.00395257
1407	0	0.00395257
1408	0	0.00395257
1409	0	0
1410	0	0
1411	0	0
1412	0	0
1413	0	0
1414	0	0
1415	0	0
1416	0	0
1417	0	0
1418	0	0
1419	0	0
1420	0	0
1421	0	0
1422	0	0
1423	0	0
1424	0	0
1425	0	0
1426	0	0
1427	0	0
1428	0	0
1429	0	0
1430	0	0
1431	0	0
1432	0	0
1433	0	0
1434	0	0
1435	0	0
1436	0	0
1437	0	0
1438	0	0
1439	0	0
1440	0	0
1441	0	0
1442	0	0
1443	0	0
1444	0	0
1445	0	0.00395257
1446	0	0
1447	0	0
1448	0	0
1449	0	0
1450	0	0
1451	0	0
1452	0	0.117117
1453	0	0.117117
1454	0	0.110953
1455	0	0.110953
1456	0	0.110953
1457	0	0.112376
1458	0	0.1
1459	0	0.1
1460	0	0.0919158
1461	0	0.0919158
1462	0	0.0930233
1463	0	0.0930233
1464	0	0.0930233
1465	0	0.0919158
1466	0	0.0930233
1467	0	0.0930233
1468	0	0.0930233
1469	0	0.0930233
1470	0	0.0930233
1471	0	0.0952381
1472	0	0.0952381
1473	0	0.0963995
1474	0	0.0963995
1475	0	0.0963995
1476	0	0.0919158
1477	0	0.0919158
1478	0	0.089701
1479	0	0.089701
1480	0	0.089701
1481	0	0.089701
1482	0	0.0908084
1483	0	0.0908084
1484	0	0.0908084
1485	0	0.0838384
1486	0	0.075102
1487	0	0.306297
1488	0	0.277512
1489	0	0.27337
1490	0	0.311525
1491	0	0.316245
1492	0	0.0835095
1493	0	0.0772947
1494	0	0.0763285
1495	0	0.0740056
1496	0	0.0718085
1497	0	0.0718085
1498	0	0.0718085
1499	0	0.0718085
1500	0	0.0737255
1501	0	0.0632832
1502	0	0.310006
1503	0	0.265645
1504	0	0.225977
1505	0	0.188347
1506	0	0.17651
1507	0	0.169547
1508	0	0.169231
1509	0	0.11171
1510	0	0.120039
1511	0	0.135487
1512	0	0.130843
1513	0	0.139514
1514	0	0.133084
1515	0	0.118973
1516	0	0.0948312
1517	0	0.0823064
1518	0	0.0968077
1519	0	0.0800607
1520	0	0.105171
1521	0	0.113722
1522	0	0.113539
1523	0	0.0905468
1524	0	0.0890835
1525	0	0.259259
1526	0	0.259259
1527	0	0.259259
1528	0	0.259259
1529	0	0.333333
1530	0	0.333333
1531	0	0.195238
1532	0	0.195238
1533	0	0.333333
1534	0	0.333333
1535	0	0.333333
1536	0	0.333333
1537	0	0.333333
1538	0	0.363636
1539	0	0.363636
1540	0	0.363636
1541	0	0.0222222
1542	0	0.0222222
1543	0	0.0222222
1544	0	0.0222222
1545	0	0.0222222
1546	0	0.0277778
1547	0	0.0277778
1548	0	0.0277778
1549	0	0.0277778
1550	0	0.0277778
1551	0	0.0277778
1552	0	0
1553	0	0
1554	0	0
1555	0	0
1556	0	0
1557	0	0
1558	0	0
1559	0	0
1560	0	0
1561	0	0
1562	0	0
1563	0	0
1564	0	0
1565	0	0
1566	0	0
1567	0	0
1568	0	0
1569	0	0
1570	0	0
1571	0	0
1572	0	0
1573	0	0
1574	0	0
1575	0	0
1576	0	0
1577	0	0
1578	0	0
1579	0	0
1580	0	0
1581	0	0
1582	0	0
1583	0	0
1584	0	0
1585	0	0
1586	0	0
1587	0	0
1588	0	0
1589	0	0
1590	0	0
1591	0	0
1592	0	0
1593	0	0
1594	0	0
1595	0	0
1596	0	0
1597	0	0
1598	0	0
1599	0	0
1600	0	0
1601	0	0
1602	0	0
1603	0	0
1604	0	0
1605	0	0
1606	0	0
1607	0	0
1608	0	0
1609	0	0
1610	0	0
1611	0	0
1612	0	0
1613	0	0
1614	0	0
1615	0	0
1616	0	0
1617	0	0
1618	0	0
1619	0	0
1620	0	0
1621	0	0
1622	0	0
1623	0	0
1624	0	0
1625	0	0
1626	0	0
1627	0	0
1628	0	0
1629	0	0
1630	0	0
1631	0	0
1632	0	0
1633	0	0
1634	0	0
1635	0	0
1636	0	0
1637	0	0
1638	0	0
1639	0	0
1640	0	0
1641	0	0
1642	0	0
1643	0	0
1644	0	0
1645	0	0
1646	0	0
1647	0	0
1648	0	0
1649	0	0
1650	0	0
1651	0	0
1652	0	0
1653	0	0
1654	0	0
1655	0	0
1656	0	0
1657	0	0
1658	0	0
1659	0	0
1660	0	0
1661	0	0
1662	0	0
1663	0	0
1664	0	0
1665	0	0
1666	0	0
1667	0	0
1668	0	0
1669	0	0
1670	0	0
1671	0	0
1672	0	0
1673	0	0
1674	0	0
1675	0	0
1676	0	0
1677	0	0
1678	0	0
1679	0	0
1680	0	0
1681	0	0
1682	0	0
1683	0	0
1684	0	0
1685	0	0
1686	0	0
1687	0	0
1688	0	0
1689	0	0
1690	0	0
1691	0	0
1692	0	0
1693	0	0
1694	0	0
1695	0	0
1696	0	0
1697	0	0
1698	0	0
1699	0	0
1700	0	0
1701	0	0
1702	0	0
1703	0	0
1704	0	0
1705	0	0
1706	0	0
1707	0	0
1708	0	0
1709	0	0
1710	0	0
1711	0	0
1712	0	0
1713	0	0
1714	0	0
1715	0	0
1716	0	0
1717	0	0
1718	0	0
1719	0	0
1720	0	0
1721	0	0.0653595
1722	0	0.714854
1723	0	0.0903677
1724	0	0.0818434
1725	0	0.0807739
1726	0	0.0618684
1727	0	0.0661846
1728	0	0.0659263
1729	0	0.0670484
1730	0	0.066185
1731	0	0.301967
1732	0	0.490742
1733	0	0.165323
1734	0	0.165323
1735	0	0.186207
1736	0	0.186207
1737	0	0.186207
1738	0	0.186207
1739	0	0.186207
1740	0	0.186207
1741	0	0.186207
1742	0	0.186207
1743	0	0.186207
1744	0	0.186207
1745	0	0.186207
1746	0	0.186207
1747	0	0.186207
1748	0	0.186207
1749	0	0.186207
1750	0	0.186207
1751	0	0.186207
1752	0	0.186207
1753	0	0.186207
1754	0	0.186207
1755	0	0.186207
1756	0	0.186207
1757	0	0.186207
1758	0	0.186207
1759	0	0.186207
1760	0	0.186207
1761	0	0.186207
1762	0	0.186207
1763	0	0.186207
1764	0	0.186207
1765	0	0.186207
1766	0	0.186207
1767	0	0.186207
1768	0	0.186207
1769	0	0.186207
1770	0	0.186207
1771	0	0.186207
1772	0	0.186207
1773	0	0.186207
1774	0	0.186207
1775	0	0.188506
1776	0	0.20197
1777	0	0.20197
1778	0	0.20197
1779	0	0.20197
1780	0	0.20197
1781	0	0.20197
1782	0	0.20197
1783	0	0.20197
1784	0	0.20197
1785	0	0.20197
1786	0	0.20197
1787	0	0.214286
1788	0	0.214286
1789	0	0.214286
1790	0	0.214286
1791	0	0.214286
1792	0	0.214286
1793	0	0.214286
1794	0	0.214286
1795	0	0.214286
1796	0	0.214286
1797	0	0.214286
1798	0	0.216931
1799	0	0.216931
1800	0	0.216931
1801	0	0.216931
1802	0	0.216931
1803	0	0.216931
1804	0	0.219577
1805	0	0.219577
1806	0	0.219577
1807	0	0.204433
1808	0	0.187831
1809	0	0.192618
1810	0	0.13447
1811	0	0.13447
1812	0	0.13447
1813	0	0.0847059
1814	0	0.323886
1815	0	0.310086
1816	0	0.124777
1817	0	0.124777
1818	0	0.124777
1819	0	0.124777
1820	0	0.124777
1821	0	0.124777
1822	0	0.114286
1823	0	0.229721
1824	0	0.227893
1825	0	0.223938
1826	0	0.136364
1827	0	0.144025
1828	0	0.135043
1829	0	0.278862
1830	0	0.27649
1831	0	0.261659
1832	0	0.246727
1833	0	0.239998
1834	0	0.259916
1835	0	0.247502
1836	0	0.124008
1837	0	0.124008
1838	0	0.125771
1839	0	0.216486
1840	0	0.104321
1841	0	0.100874
1842	0	0.107725
1843	0	0.110666
1844	0	0.111468
1845	0	0.244573
1846	0	0.322157
1847	0	0.337614
1848	0	0.349685
1849	0	0.032656
1850	0	0.0319549
1851	0	0.0347222
1852	0	0.02331
1853	0	0.0236025
1854	0	0.0211268
1855	0	0.0266781
1856	0	0.136359
1857	0	0.136071
1858	0	0.123564
1859	0	0.126755
1860	0	0.154988
1861	0	0.21058
1862	0	0.426344
1863	0	0.423448
1864	0	0.486522
1865	0	0.478285
1866	0	0.495041
1867	0	0.487733
1868	0	0.503732
1869	0	0.410694
1870	0	0.49126
1871	0	0.49126
1872	0	0.503269
1873	0	0.503269
1874	0	0.430146
1875	0	0.434039
1876	0	0.439474
1877	0	0.139459
1878	0	0.0353535
1879	0	0.038055
1880	0	0.038055
1881	0	0.038055
1882	0	0.0418118
1883	0	0.0487805
1884	0	0.0487805
1885	0	0.0487805
1886	0	0.0538462
1887	0	0.0628205
1888	0	0.450593
1889	0	0.447223
1890	0	0.446059
1891	0	0.648607
1892	0	0.639398
1893	0	0.0935673
1894	0	0.0935673
1895	0	0.0935673
1896	0	0.0790514
1897	0	0.0894737
1898	0	0.0894737
1899	0	0.0684211
1900	0	0.0232558
1901	0	0.0232558
1902	0	0.0232558
1903	0	0.691368
1904	0	0
1905	0	0
1906	0	0
1907	0	0
1908	0	0
1909	0	0
1910	0	0
1911	0	0
1912	0	0
1913	0	0
1914	0	0
1915	0	0
1916	0	0
1917	0	0
1918	0	0
1919	0	0
1920	0	0
1921	0	0
1922	0	0
1923	0	0
1924	0	0
1925	0	0
1926	0	0
1927	0	0
1928	0	0
1929	0	0
1930	0	0
1931	0	0
1932	0	0
1933	0	0
1934	0	0
1935	0	0
1936	0	0
1937	0	0
1938	0	0
1939	0	0
1940	0	0
1941	0	0
1942	0	0
1943	0	0
1944	0	0
1945	0	0
1946	0	0
1947	0	0
1948	0	0
1949	0	0
1950	0	0
1951	0	0
1952	0	0
1953	0	0
1954	0	0
1955	0	0
1956	0	0
1957	0	0
1958	0	0
1959	0	0
1960	0	0
1961	0	0
1962	0	0
1963	0	0
1964	0	0
1965	0	0
1966	0	0
1967	0	0
1968	0	0
1969	0	0
1970	0	0
1971	0	0
1972	0	0
1973	0	0
1974	0	0
1975	0	0
1976	0	0
1977	0	0
1978	0	0
1979	0	0
1980	0	0
1981	0	0
1982	0	0
1983	0	0
1984	0	0
1985	0	0
1986	0	0
1987	0	0
1988	0	0
1989	0	0
1990	0	0
1991	0	0
1992	0	0
1993	0	0
1994	0	0
1995	0	0
1996	0	0
1997	0	0
1998	0	0
1999	0	0
2000	0	0
2001	0	0
2002	0	0
2003	0	0
2004	0	0
2005	0	0
2006	0	0
2007	0	0
2008	0	0
2009	0	0
2010	0	0
2011	0	0
2012	0	0
2013	0	0
2014	0	0
2015	0	0
2016	0	0
2017	0	0
2018	0	0
2019	0	0
2020	0	0
2021	0	0
2022	0	0
2023	0	0
2024	0	0
2025	0	0
2026	0	0
2027	0	0
2028	0	0
2029	0	0
2030	0	0
2031	0	0
2032	0	0
2033	0	0
2034	0	0
2035	0	0
2036	0	0
2037	0	0
2038	0	0
2039	0	0
2040	0	0
2041	0	0
2042	0	0
2043	0	0
2044	0	0
2045	0	0
2046	0	0
2047	0	0
2048	0	0
2049	0	0
2050	0	0
2051	0	0
2052	0	0
2053	0	0
2054	0	0
2055	0	0
2056	0	0
2057	0	0
2058	0	0
2059	0	0
2060	0	0
2061	0	0
2062	0	0.333333
2063	0	0.333333
2064	0	0.333333
2065	0	0.333333
2066	0	0.166667
2067	0	0.166667
2068	0	0.166667
2069	0	0.166667
2070	0	0.166667
2071	0	0.166667
2072	0	0.133333
2073	0	0.133333
2074	0	0.133333
2075	0	0.133333
2076	0	0.0952381
2077	0	0.0714286
2078	0	0.0714286
2079	0	0.0714286
2080	0	0.0714286
2081	0	0.0714286
2082	0	0.0714286
2083	0	0.0714286
2084	0	0.0714286
2085	0	0.0714286
2086	0	0.0714286
2087	0	0.0555556
2088	0	0.0555556
2089	0	0.0555556
2090	0	0.0555556
2091	0	0.0555556
2092	0	0.0555556
2093	0	0.0555556
2094	0	0.0555556
2095	0	0.0555556
2096	0	0.0555556
2097	0	0.0555556
2098	0	0.0555556
2099	0	0.0555556
2100	0	0.0555556
2101	0	0.0555556
2102	0	0.0555556
2103	0	0.0545455
2104	0	0.0545455
2105	0	0.0545455
2106	0	0.0757576
2107	0	0.0757576
2108	0	0.0757576
2109	0	0.0757576
2110	0	0.0757576
2111	0	0.0757576
2112	0	0.0757576
2113	0	0.0757576
2114	0	0.0757576
2115	0	0.0757576
2116	0	0.0641026
2117	0	0.0641026
2118	0	0.0641026
2119	0	0.0641026
2120	0	0.0641026
2121	0	0.0666667
2122	0	0.0583333
2123	0	0.0666667
2124	0	0.0666667
2125	0	0.0666667
2126	0	0.0666667
2127	0	0.0666667
2128	0	0.0666667
2129	0	0.0666667
2130	0	0.075
2131	0	0.691275
2132	0	0.0492308
2133	0	0.0433333
2134	0	0.0433333
2135	0	0.0433333
2136	0	0.0433333
2137	0	0.0433333
2138	0	0.0433333
2139	0	0.0433333
2140	0	0.0433333
2141	0	0.539694
2142	0	0.48564
2143	0	0.0350672
2144	0	0.0296431
2145	0	0.0296431
2146	0	0.0288221
2147	0	0.0271377
2148	0	0.48651
2149	0	0.610172
2150	0	0.0750988
2151	0	0.0750988
2152	0	0.0947368
2153	0	0.0947368
2154	0	0.0947368
2155	0	0.0947368
2156	0	0.0947368
2157	0	0.0947368
2158	0	0.0947368
2159	0	0.0947368
2160	0	0.0947368
2161	0	0.0947368
2162	0	0.0947368
2163	0	0.0947368
2164	0	0.0947368
2165	0	0.0947368
2166	0	0.0473684
2167	0	0.0526316
2168	0	0.0526316
2169	0	0.69048
2170	0	0.027668
2171	0	0.027668
2172	0	0.0253623
2173	0	0.0253623
2174	0	0.0289855
2175	0	0.0326087
2176	0	0.0326087
2177	0	0.0326087
2178	0	0.0326087
2179	0	0.0326087
2180	0	0.0326087
2181	0	0.0326087
2182	0	0.0326087
2183	0	0.0326087
2184	0	0.672568
2185	0	0.715637
2186	0	0.664298
2187	0	0.0363636
2188	0	0.0444444
2189	0	0.0444444
2190	0	0.0444444
2191	0	0.0357143
2192	0	0.0357143
2193	0	0.0357143
2194	0	0.0357143
2195	0	0.047619
2196	0	0.047619
2197	0	0.047619
2198	0	0.0666667
2199	0	0.0666667
2200	0	0.1
2201	0	0
2202	0	0
2203	0	0.166667
2204	0	0.166667
2205	0	0.166667
2206	0	0.166667
2207	0	0
2208	0	0
2209	0	0
2210	0	0
2211	0	0
2212	0	0
2213	0	0
2214	0	0
2215	0	0
2216	0	0
2217	0	0
2218	0	0
2219	0	0
2220	0	0
2221	0	0
2222	0	0
2223	0	0
2224	0	0
2225	0	0
2226	0	0
2227	0	0
2228	0	0
2229	0	0
2230	0	0
2231	0	0
2232	0	0
2233	0	0
2234	0	0
2235	0	0
2236	0	0
2237	0	0
2238	0	0
2239	0	0
2240	0	0
2241	0	0
2242	0	0
2243	0	0
2244	0	0
2245	0	0
2246	0	0
2247	0	0
2248	0	0
2249	0	0
2250	0	0
2251	0	0
2252	0	0
2253	0	0
2254	0	0
2255	0	0
2256	0	0
2257	0	0
2258	0	0
2259	0	0
2260	0	0
2261	0	0
2262	0	0
2263	0	0
2264	0	0
2265	0	0
2266	0	0
2267	0	0
2268	0	0
2269	0	0
2270	0	0
2271	0	0
2272	0	0
2273	0	0
2274	0	0
2275	0	0
2276	0	0
2277	0	0
2278	0	0
2279	0	0
2280	0	0
2281	0	0
2282	0	0
2283	0	0
2284	0	0
2285	0	0
2286	0	0
2287	0	0
2288	0	0
2289	0	0
2290	0	0
2291	0	0
2292	0	0
2293	0	0
2294	0	0
2295	0	0
2296	0	0
2297	0	0
2298	0	0
2299	0	0
2300	0	0
2301	0	0
2302	0	0
2303	0	0
2304	0	0
2305	0	0
2306	0	0
2307	0	0
2308	0	0
2309	0	0
2310	0	0
2311	0	0
2312	0	0
2313	0	0
2314	0	0.616492
2315	0	0.597502
2316	0	0
2317	0	0
2318	0	0
2319	0	0
2320	0	0
2321	0	0
2322	0	0
2323	0	0
2324	0	0
2325	0	0
2326	0	0
2327	0	0
2328	0	0
2329	0	0
2330	0	0
2331	0	0
2332	0	0
2333	0	0
2334	0	0.111631
2335	0	0.109307
2336	0	0.0996533
2337	0	0.0916633
2338	0	0.0881669
2339	0	0.0772834
2340	0	0.0733032
2341	0	0.448988
2342	0	0.404814
2343	0	0.364142
2344	0	0.335793
2345	0	0.333333
2346	0	0.333333
2347	0	0
2348	0	0
2349	0	0
2350	0	0
2351	0	0
2352	0	0
2353	0	0
2354	0	0
2355	0	0
2356	0	0
2357	0	0
2358	0	0
2359	0	0.242975
2360	0	0.212855
2361	0	0.234221
2362	0	0.21821
2363	0	0.47619
2364	0	0.47619
2365	0	0.47619
2366	0	0.47619
2367	0	0.0660689
2368	0	0.0588544
2369	0	0.232215
2370	0	0.259881
2371	0	0.0152395
2372	0	0.0115248
2373	0	0.012685
2374	0	0.0128205
2375	0	0.0128205
2376	0	0.0153846
2377	0	0.0153846
2378	0	0.0153061
2379	0	0.0212766
2380	0	0.0217949
2381	0	0.0241821
2382	0	0.022942
2383	0	0.027027
2384	0	0.0283688
2385	0	0.0301587
2386	0	0.0255255
2387	0	0.027027
2388	0	0.025641
2389	0	0.0269906
2390	0	0.061039
2391	0	0.06298
2392	0	0.0468213
2393	0	0.0970588
2394	0	0.147126
2395	0	0.128992
2396	0	0.165571
2397	0	0.156139
2398	0	0.147508
2399	0	0.153346
2400	0	0.156974
2401	0	0.144257
2402	0	0.147799
2403	0	0.181675
2404	0	0.118494
2405	0	0.176567
2406	0	0.17449
2407	0	0.172443
2408	0	0.171828
2409	0	0.0520976
2410	0	0.0565967
2411	0	0.0644042
2412	0	0.0651983
2413	0	0.0721273
2414	0	0.0856866
2415	0	0.0830386
2416	0	0.0850724
2417	0	0.0759947
2418	0	0.0738008
2419	0	0
2420	0	0
2421	0	0
2422	0	0
2423	0	0
2424	0	0
2425	0	0
2426	0	0
2427	0	0
2428	0	0
2429	0	0
2430	0	0
2431	0	0
2432	0	0
2433	0	0
2434	0	0
2435	0	0
2436	0	0
2437	0	0
2438	0	0
2439	0	0
2440	0	0
2441	0	0
2442	0	0
2443	0	0
2444	0	0
2445	0	0
2446	0	0.00653595
2447	0	0.00653595
2448	0	0.177054
2449	0	0.101587
2450	0	0.101587
2451	0	0.0326087
2452	0	0.527436
2453	0	0.527436
2454	0	0.527436
2455	0	0.53987
2456	0	0.0952381
2457	0	0.0952381
2458	0	0.0952381
2459	0	0.0952381
2460	0	0.047619
2461	0	0.047619
2462	0	0.047619
2463	0	0.047619
2464	0	0.047619
2465	0	0.047619
2466	0	0.0555556
2467	0	0.0555556
2468	0	0.047619
2469	0	0.0277778
2470	0	0.0222222
2471	0	0.0444444
2472	0	0.0444444
2473	0	0.0444444
2474	0	0.0545455
2475	0	0.0545455
2476	0	0.0838004
2477	0	0.081837
2478	0	0.0939278
2479	0	0.109578
2480	0	0.121634
2481	0	0.0523077
2482	0	0.0553846
2483	0	0.0553846
2484	0	0.0553846
2485	0	0.0553846
2486	0	0.0553846
2487	0	0.0553846
2488	0	0.0553846
2489	0	0.0553846
2490	0	0.0553846
2491	0	0.0553846
2492	0	0.0523077
2493	0	0.0541311
2494	0	0.0541311
2495	0	0.0569801
2496	0	0.0541311
2497	0	0.0541872
2498	0	0.0566502
2499	0	0.0566502
2500	0	0.0551724
2501	0	0.0551724
2502	0	0.0551724
2503	0	0.0528736
2504	0	0.0528736
2505	0	0.0494624
2506	0	0.0494624
2507	0	0.0494624
2508	0	0.0473118
2509	0	0.0483871
2510	0	0.0230665
2511	0	0.0233135
2512	0	0.123084
2513	0	0.111936
2514	0	0.107423
2515	0	0.11081
2516	0	0.127468
2517	0	0.137949
2518	0	0.203872
2519	0	0.197578
2520	0	0.176847
2521	0	0.176619
2522	0	0.202485
2523	0	0.214354
2524	0	0.207618
2525	0	0.205128
2526	0	0.235393
2527	0	0.229206
2528	0	0.170471
2529	0	0.126695
2530	0	0.117445
2531	0	0.0807082
2532	0	0.0852713
2533	0	0.106186
2534	0	0.145831
2535	0	0.174589
2536	0	0.198374
2537	0	0.222753
2538	0	0.377792
2539	0	0.483469
2540	0	0.523761
2541	0	0.538651
2542	0	0.567101
2543	0	0.606964
2544	0	0.612908
2545	0	0.618748
2546	0	0.52572
2547	0	0.977243
2548	0	0.109091
2549	0	0.107143
2550	0	0.142857
2551	0	0
2552	0	0
2553	0	0
2554	0	0
2555	0	0
2556	0	0
2557	0	0
2558	0	0
2559	0	0
2560	0	0
2561	0	0
2562	0	0
2563	0	0
2564	0	0
2565	0	0
2566	0	0
2567	0	0
2568	0	0
2569	0	0
2570	0	0
2571	0	0
2572	0	0
2573	0	0
2574	0	0
2575	0	0
2576	0	0
2577	0	0.993071
2578	0	0.993083
2579	0	0.993083
2580	0	0.99481
2581	0	0.994814
2582	0	0.994819
2583	0	0.993106
2584	0	0.994823
2585	0	0.994823
2586	0	0.996544
2587	0	0.994823
2588	0	0.994823
2589	0	0.994828
2590	0	0.996547
2591	0	0.996547
2592	0	0.996547
2593	0	0.996547
2594	0	0.666667
2595	0	0.666667
2596	0	0.98282
2597	0	1
2598	0	1
2599	0	0
2600	0	0
2601	0	0
2602	0	0.833333
2603	0	0.4329
2604	0	0.589744
2605	0	0.466667
2606	0	0.142857
2607	0	0.23399
2608	0	0.919676
2609	0	0
2610	0	0
2611	0	0.898785
2612	0	0.573418
2613	0	0.755932
2614	0	0.888889
2615	0	0.710298
2616	0	0
2617	0	0.327273
2618	0	0.3
2619	0	0.321429
2620	0	0.428571
2621	0	1
2622	0	0.855177
2623	0	0.826257
2624	0	0.399861
2625	0	0.329138
2626	0	0.254802
2627	0	0.52381
2628	0	0.52381
2629	0	0.737316
2630	0	0.611252
2631	0	0.864935
2632	0	0.862987
2633	0	0.490295
2634	0	0.433385
2635	0	0.435062
2636	0	0.199547
2637	0	0.293745
2638	0	0.298273
2639	0	0.298318
2640	0	0.428571
2641	0	0.4
2642	0	0.4
2643	0	0.4
2644	0	0.4
2645	0	0.4
2646	0	0.285714
2647	0	0.285714
2648	0	0.285714
2649	0	0.285714
2650	0	0.386775
2651	0	0
2652	0	0
2653	0	0
2654	0	0
2655	0	0
2656	0	0
2657	0	0
2658	0	0
2659	0	0
2660	0	0
2661	0	0
2662	0	0.196135
2663	0	0.365351
2664	0	0.339365
2665	0	0.262832
2666	0	0.236247
2667	0	0.666667
2668	0	0.392857
2669	0	0.392857
2670	0	0.213854
2671	0	0.230504
2672	0	0.115967
2673	0	0.114537
2674	0	0.187369
2675	0	0.172449
2676	0	0.155963
2677	0	0.139823
2678	0	0.218462
2679	0	0.0757576
2680	0	0.0727273
2681	0	0.0888889
2682	0	0.0666667
2683	0	0.115385
2684	0	0.115385
2685	0	0.1
2686	0	0.0935673
2687	0	0.0904762
2688	0	0.108262
2689	0	0.639807
2690	0	0.727036
2691	0	0.701678
2692	0	0.170884
2693	0	0.167738
2694	0	0.143555
2695	0	0.132992
2696	0	0.218251
2697	0	0.22715
2698	0	0.29336
2699	0	0.333671
2700	0	0.36928
2701	0	0.147368
2702	0	0.208791
2703	0	0.25
2704	0	0.4
2705	0	0.6
2706	0	0.6
2707	0	0.303256
2708	0	0.167525
2709	0	0.188713
2710	0	0.184687
2711	0	0.247347
2712	0	0.325624
2713	0	0.441026
2714	0	0.488529
2715	0	0.509354
2716	0	0.523137
2717	0	0.666985
2718	0	0.745778
2719	0	0.821291
2720	0	0.904762
2721	0	1
2722	0	0.985861
2723	0	0.98957
2724	0	0.991335
2725	0	0.993065
2726	0	0.993118
2727	0	0.993118
2728	0	0.994836
2729	0	0.994836
2730	0	0.994836
2731	0	0.994836
2732	0	0.994836
2733	0	0.994836
2734	0	0.994836
2735	0	0.994836
2736	0	0.994832
2737	0	0.996553
2738	0	0.996544
2739	0	0.996544
2740	0	0.996544
2741	0	0.996544
2742	0	0.996544
2743	0	0.996544
2744	0	0.996544
2745	0	0.994819
2746	0	0.6
2747	0	0.986234
2748	0	0.986234
2749	0	0.982851
2750	0	0.982851
2751	0	0.982851
2752	0	0.982851
2753	0	0.982851
2754	0	0.817454
2755	0	0.815904
2756	0	0.533333
2757	0	0.266667
2758	0	0.815312
2759	0	0
2760	0	0
2761	0	0
2762	0	0.828877
2763	0	0.828877
2764	0	0.821809
2765	0	0.392857
2766	0	0.392857
2767	0	0.321429
2768	0	0.25
2769	0	0.25
2770	0	0.214286
2771	0	0.2
2772	0	0.147059
2773	0	0.130719
2774	0	0.421479
2775	0	0.39704
2776	0	0.36153
2777	0	0.225996
2778	0	0.196879
2779	0	0.148621
2780	0	0.13867
2781	0	0.133505
2782	0	0.232015
2783	0	0.226659
2784	0	0.200117
2785	0	0.0948349
2786	0	0.0760206
2787	0	0.355863
2788	0	0.225294
2789	0	0.21875
2790	0	0.198558
2791	0	0.200962
2792	0	0.261058
2793	0	0.252374
2794	0	0.189224
2795	0	0.0712329
2796	0	0.0975243
2797	0	0.222222
2798	0	0.222222
2799	0	0.0888889
2800	0	0.107143
2801	0	0.214286
2802	0	0.166667
2803	0	0.381818
2804	0	0.318182
2805	0	0.358974
2806	0	0.241667
2807	0	0.116458
2808	0	0.081891
2809	0	0.107212
2810	0	0.108941
2811	0	0.107638
2812	0	0.104782
2813	0	0.0728745
2814	0	0.131373
2815	0	0.15883
2816	0	0.159571
2817	0	0.163242
2818	0	0.147641
2819	0	0.144461
2820	0	0.106061
2821	0	0.134591
2822	0	0.142316
2823	0	0.191676
2824	0	0.160039
2825	0	0.147464
2826	0	0.264764
2827	0	0.283498
2828	0	0.291079
2829	0	0.214843
2830	0	0.274451
2831	0	0.263889
2832	0	0.293347
2833	0	0.308776
2834	0	0.0555556
2835	0	0.1
2836	0	0
2837	0	0
2838	0	0
2839	0	0
2840	0	0
2841	0	0
2842	0	0
2843	0	1
2844	0	1
2845	0	0.935484
2846	0	0.879032
2847	0	0.879032
2848	0	0.321898
2849	0	0.31368
2850	0	0.63528
2851	0	0.882353
2852	0	0.882353
2853	0	0.882353
2854	0	0.888458
2855	0	0.939204
2856	0	0
2857	0	0
2858	0	0
2859	0	0
2860	0	0
2861	0	0
2862	0	0
2863	0	0
2864	0	0
2865	0	0
2866	0	0
2867	0	0
2868	0	0
2869	0	0
2870	0	0
2871	0	0.613032
2872	0	0.613031
2873	0	0.25
2874	0	0.321429
2875	0	0.535714
2876	0	0.535714
2877	0	0.444444
2878	0	0.4
2879	0	0.4
2880	0	0.730418
2881	0	1
2882	0	0.993112
2883	0	0.993112
2884	0	0.993112
2885	0	0.993118
2886	0	0.993118
2887	0	0
2888	0	0.993112
2889	0	0.991402
2890	0	0.989695
2891	0	0.989695
2892	0	0.991409
2893	0	0.991409
2894	0	0.991409
2895	0	0.892929
2896	0	0.906914
2897	0	0.548275
2898	0	0.533521
2899	0	0.563539
2900	0	0.54865
2901	0	0.753656
2902	0	0.718113
2903	0	0.895839
2904	0	0.879874
2905	0	0.879874
2906	0	0.8947
2907	0	0.917328
2908	0	0.93297
2909	0	0.933526
2910	0	0.933598
2911	0	0.949034
2912	0	0.949034
2913	0	0.949034
2914	0	0.949034
2915	0	0.82042
2916	0	0.578818
2917	0	0.89354
2918	0	0.890369
2919	0	0.888839
2920	0	0.888914
2921	0	0.675541
2922	0	0.25
2923	0	0.177778
2924	0	0.177778
2925	0	0.177778
2926	0	0.796211
2927	0	0.770858
2928	0	0.770858
2929	0	0.77531
2930	0	0.660843
2931	0	0.658551
2932	0	0.658849
2933	0	0.047619
2934	0	0.047619
2935	0	0.2
2936	0	0.0888889
2937	0	0.0727273
2938	0	0.0727273
2939	0	0.703202
2940	0	0.479592
2941	0	0.407112
2942	0	0.295864
2943	0	0.287149
2944	0	0.274725
2945	0	0.426961
2946	0	0.417795
2947	0	0.642603
2948	0	0.639427
2949	0	0
2950	0	0
2951	0	0
2952	0	0
2953	0	0
2954	0	0.244755
2955	0	0.244755
2956	0	0.244755
2957	0	0.238559
2958	0	0.212565
2959	0	0.623066
2960	0	0.614209
2961	0	0.406504
2962	0	0.372822
2963	0	0.370499
2964	0	0.370499
2965	0	0.370499
2966	0	0.556568
2967	0	0.454615
2968	0	0.447175
2969	0	0.529412
2970	0	0.507353
2971	0	0.251519
2972	0	0.231183
2973	0	0.397361
2974	0	0.258433
2975	0	0.328875
2976	0	0.318744
2977	0	0.30431
2978	0	0.288616
2979	0	0.28068
2980	0	0.310535
2981	0	0.386178
2982	0	0
2983	0	0
2984	0	0
2985	0	0
2986	0	0
2987	0	0.51545
2988	0	0.264422
2989	0	0.142857
2990	0	0.190476
2991	0	0.190476
2992	0	0.190476
2993	0	0.190476
2994	0	0.190476
2995	0	0.133333
2996	0	0.357697
2997	0	0.345515
2998	0	0.337127
2999	0	0.308974
3000	0	0.62527
3001	0	0.826667
3002	0	0.555575
3003	0	0.154122
3004	0	0.385183
3005	0	0.380887
3006	0	0.224159
3007	0	0.109548
3008	0	0.344902
3009	0	0.173154
3010	0	0.180088
3011	0	0.236911
3012	0	0.288287
3013	0	0.355242
3014	0	0.38936
3015	0	0.50245
3016	0	0.455201
3017	0	0.38464
3018	0	0.28208
3019	0	0.456858
3020	0	0.470133
3021	0	0.470133
3022	0	0.470481
3023	0	0.641822
3024	0	0.403554
3025	0	0.637367
3026	0	0.704338
3027	0	0.704338
3028	0	0.883083
3029	0	0.847414
3030	0	0.875198
3031	0	0.934463
3032	0	1
3033	0	0.994867
3034	0	0.994872
3035	0	0.994872
3036	0	0.994872
3037	0	0.994872
3038	0	0.994872
3039	0	0.994872
3040	0	0.994872
3041	0	0.994872
3042	0	0.994872
3043	0	0.994872
3044	0	0.994872
3045	0	0.994872
3046	0	0
3047	0	0
3048	0	0
3049	0	0
3050	1	0
3051	0	0.993165
3052	0	0
3053	0	0.993159
3054	0	0.974571
3055	0	0.974571
3056	0	0.833333
3057	0	0.833333
3058	0	0.833333
3059	0	0.833333
3060	0	0.833333
3061	0	0.833333
3062	0	0.833333
3063	0	0.986388
3064	0	0.986388
3065	0	0.986388
3066	0	0.714286
3067	0	0.994881
3068	0	0.994881
3069	0	0.994881
3070	0	0.994881
3071	0	0.994881
3072	0	0.994881
3073	0	0.994881
3074	0	0.994881
3075	0	0.993183
3076	0	0.994881
3077	0	0.996583
3078	0	0.996583
3079	0	0.996583
3080	0	0.996586
3081	0	0.996586
3082	0	0.996586
3083	0	0.996586
3084	0	0.996586
3085	0	0.996586
3086	0	0.996586
3087	0	0.996586
3088	0	0.996588
3089	0	0.996588
3090	0	0.996588
3091	0	0.996588
3092	0	0.996588
3093	0	0.996588
3094	0	0.996588
3095	0	0.996588
3096	0	0
3097	0	0
3098	0	0
3099	0	0
3100	0	0
3101	0	0.996586
3102	0	0.996583
3103	0	0.994881
3104	0	0.996586
3105	0	0.996586
3106	0	0.996586
3107	0	0.996586
3108	0	0.996586
3109	0	0.996586
3110	0	0.996586
3111	0	0.996586
3112	0	0.994876
3113	0	0.993171
3114	0	0
3115	0	0
3116	0	0
3117	0	0
3118	0	0
3119	0	0
3120	0	0
3121	0	0
3122	0	0
3123	0	0
3124	0	0
3125	0	0
3126	0	0
3127	0	0
3128	0	0.99095
3129	0	0
3130	0	0
3131	0	0
3132	0	0
3133	0	0
3134	0	0
3135	0	0.904009
3136	0	0.901464
3137	0	1
3138	0	1
3139	0	1
3140	0	1
3141	0	1
3142	0	1
3143	0	0.8
3144	0	0.8
3145	0	0.8
3146	0	0.560606
3147	0	0.348485
3148	0	0.241667
3149	0	0.241667
3150	0	0.820145
3151	0	0.800085
3152	0	0.767394
3153	0	0.726119
3154	0	0.621405
3155	0	0.491521
3156	0	0.16144
3157	0	0.147503
3158	0	0.15
3159	0	0.165007
3160	0	0.174174
3161	0	0.157895
3162	0	0.157895
3163	0	0.12685
3164	0	0.0906568
3165	0	0.0807823
3166	0	0.0579125
3167	0	0.063772
3168	0	0.201627
3169	0	0.177378
3170	0	0.156948
3171	0	0.122962
3172	0	0.122263
3173	0	0.250081
3174	0	0.221643
3175	0	0.208316
3176	0	0.0802005
3177	0	0.0841751
3178	0	0.0798258
3179	0	0.0698039
3180	0	0.0701357
3181	0	0.0626566
3182	0	0.0555231
3183	0	0.0446328
3184	0	0.0403273
3185	0	0.0412429
3186	0	0.0417768
3187	0	0.152322
3188	0	0.226834
3189	0	0.224903
3190	0	0.216216
3191	0	0.220639
3192	0	0.293932
3193	0	0.081339
3194	0	0.0720206
3195	0	0.0660795
3196	0	0.0581575
3197	0	0.0530058
3198	0	0.223799
3199	0	0.214051
3200	0	0.121877
3201	0	0.108278
3202	0	0.1051
3203	0	0.0485364
3204	0	0.0512647
3205	0	0.055938
3206	0	0.0657676
3207	0	0.070822
3208	0	0.073934
3209	0	0.0795661
3210	0	0.0858547
3211	0	0.0881764
3212	0	0.0994534
3213	0	0.192215
3214	0	0.236524
3215	0	0.268121
3216	0	0.137225
3217	0	0.15974
3218	0	0.112633
3219	0	0.134959
3220	0	0.113462
3221	0	0.125189
3222	0	0.0823529
3223	0	0.0899471
3224	0	0.0948617
3225	0	0.105263
3226	0	0.0384615
3227	0	0.047619
3228	0	0
3229	0	0
3230	0	0
3231	0	0
3232	0	0
3233	0	0
3234	0	0
3235	0	0
3236	0	0
3237	0	0
3238	0	0
3239	0	0
3240	0	0
3241	0	0
3242	0	0
3243	0	0
3244	0	0
3245	0	0
3246	0	0
3247	0	0
3248	0	0
3249	0	0.333333
3250	0	0.242448
3251	0	0.273305
3252	0	0.278693
3253	0	0.209568
3254	0	0.252664
3255	0	0.203098
3256	0	0.204482
3257	0	0.190883
3258	0	0.206154
3259	0	0.21164
3260	0	0.254902
3261	0	0.601094
3262	0	0
3263	0	0
3264	0	0
3265	0	0
3266	0	0
3267	0	0
3268	0	0
3269	0	0
3270	0	0
3271	0	0
3272	0	0
3273	0	0
3274	0	0
3275	0	0
3276	0	0
3277	0	0
3278	0	0
3279	0	0.890566
3280	0	0
3281	0	0
3282	0	0
3283	0	0
3284	0	0
3285	0	0
3286	0	0
3287	0	0
3288	0	0
3289	0	0.779822
3290	0	0.657143
3291	0	0.657143
3292	0	0.657143
3293	0	0.967831
3294	0	0.3
3295	0	0.3
3296	0	0.3
3297	0	0.6
3298	0	0.6
3299	0	0.6
3300	0	0.6
3301	0	0.6
3302	0	0.6
3303	0	0.6
3304	0	1
3305	0	1
3306	0	1
3307	0	1
3308	0	0.988065
3309	0	0.986377
3310	0	0.988075
3311	0	0.988075
3312	0	0.9864
3313	0	0.9864
3314	0	0.9864
3315	0	0.9864
3316	0	0.984707
3317	0	0
3318	0	0.989774
3319	0	0.989774
3320	0	0.989774
3321	0	0.989774
3322	0	0.989774
3323	0	0.991468
3324	0	0.989766
3325	0	0.989766
3326	0	1
3327	0	1
3328	0	1
3329	0	0
3330	0	0.987281
3331	0	0.949307
3332	0	0.541287
3333	0	0.269006
3334	0	0
3335	0	0
3336	0	0
3337	0	0
3338	0	0
3339	0	0
3340	0	0.959184
3341	0	0.959184
3342	0	0.959184
3343	0	1
3344	0	1
3345	0	1
3346	0	1
3347	0	1
3348	0	1
3349	0	0.936774
3350	0	0.817304
3351	0	0.781881
3352	0	0.781881
3353	0	0.313191
3354	0	0.313725
3355	0	0.312546
3356	0	0.30301
3357	0	0.293822
3358	0	0.406175
3359	0	0.403663
3360	0	0.370711
3361	0	0.373725
3362	0	0.37701
3363	0	0.381207
3364	0	0.376565
3365	0	0.172331
3366	0	0.357544
3367	0	0.357193
3368	0	0.339327
3369	0	0.331061
3370	0	0.322785
3371	0	0.25196
3372	0	0.222481
3373	0	0.158352
3374	0	0.134277
3375	0	0.138459
3376	0	0.154283
3377	0	0.137169
3378	0	0.116401
3379	0	0.0981406
3380	0	0.0939021
3381	0	0.137166
3382	0	0.101298
3383	0	0.240385
3384	0	0.275073
3385	0	0.222966
3386	0	0.220528
3387	0	0.165791
3388	0	0.0623886
3389	0	0.0623656
3390	0	0.116402
3391	0	0.0925926
3392	0	0.126812
3393	0	0.134058
3394	0	0.17
3395	0	0.151724
3396	0	0.151724
3397	0	0.209131
3398	0	0.23535
3399	0	0.629173
3400	0	0.610612
3401	0	0.33592
3402	0	0.25324
3403	0	0.2862
3404	0	0.234475
3405	0	0.339678
3406	0	0.343845
3407	0	0.73136
3408	0	0.73114
3409	0	0.716065
3410	0	0.669737
3411	0	0.179956
3412	0	0.278669
3413	0	0.411663
3414	0	0.468569
3415	0	0.530241
3416	0	0.656751
3417	0	0.749893
3418	0	0.756824
3419	0	0.777113
3420	0	0.793885
3421	0	0.375758
3422	0	0.161765
3423	0	0.208791
3424	0	0.25
3425	0	0.166667
3426	0	0
3427	0	0
3428	0	0
3429	0	0.333333
3430	0	0.333333
3431	0	0.666667
3432	0	0.666667
3433	0	0.666667
3434	0	0.666667
3435	0	0.945088
3436	0	0.458333
3437	0	0.939847
3438	0	0.943241
3439	0	0.313725
3440	0	0.403509
3441	0	0.96706
3442	0	0.968781
3443	0	0.333333
3444	0	0.333333
3445	0	0.333333
3446	0	0.333333
3447	0	0.972185
3448	0	0.142857
3449	0	0.962746
3450	0	0.964437
3451	0	0.194444
3452	0	0.194444
3453	0	0.942224
3454	0	0.728571
3455	0	0.95281
3456	0	0.814286
3457	0	0.984658
3458	0	0.991482
3459	0	0.991482
3460	0	0.991482
3461	0	0.991482
3462	0	0.991482
3463	0	0.991482
3464	0	0.993177
3465	0	0.994876
3466	0	0
3467	0	0.993171
3468	0	0.993171
3469	0	0.993171
3470	0	0.993171
3471	0	0.993171
3472	0	0.994872
3473	0	0.994823
3474	0	0.993102
3475	0	0.994819
3476	0	0
3477	0	0.9663
3478	0	0.9663
3479	0	0.9663
3480	0	0.677633
3481	0	1
3482	0	1
3483	0	1
3484	0	1
3485	0	1
3486	0	1
3487	0	1
3488	0	1
3489	0	0.679949
3490	0	0.679949
3491	0	0.679949
3492	0	0.866837
3493	0	0.971277
3494	1	1
3495	1	1
3496	1	1
3497	1	1
3498	1	1
3499	1	1
3500	1	1
3501	1	1
3502	0	1
3503	0	1
3504	0	1
3505	0	1
3506	0	1
3507	0	1
3508	0	1
3509	0	1
3510	0	1
3511	0	0.993177
3512	0	0.993177
3513	0	0.994876
3514	0	0.994876
3515	0	0.994881
3516	0	0.996583
3517	0	0.996583
3518	0	0.99658
3519	0	0.99658
3520	0	0.996583
3521	0	0.996583
3522	0	0.996583
3523	0	0.996583
3524	0	0.996583
3525	0	0
3526	0	0
3527	0	0
3528	0	0
3529	0	0
3530	0	0
3531	0	0
3532	0	0
3533	0	0.941176
3534	0	0.560592
3535	0	0.48227
3536	0	0.881489
3537	0	0.878634
3538	0	0.407899
3539	0	0.641032
3540	0	0.433861
3541	0	0.487903
3542	0	0.975332
3543	0	0.142857
3544	0	0.1
3545	0	0.166667
3546	0	0.166667
3547	0	0.166667
3548	0	1
3549	0	1
3550	0	1
3551	0	1
3552	0	0.994885
3553	0	0.994885
3554	0	0.994885
3555	0	0.996586
3556	0	0
3557	0	0
3558	0	0
3559	0	0
3560	0	0
3561	0	0
3562	0	0.994881
3563	0	0.994881
3564	0	0.994881
3565	0	0.994881
3566	0	0.996583
3567	0	0.996583
3568	0	0.996583
3569	0	0.994881
3570	0	0.994881
3571	0	0
3572	0	0
3573	0	0
3574	0	0
3575	0	0.994885
3576	0	0.994885
3577	0	0.994885
3578	0	0.994885
3579	0	0.994889
3580	0	0.994889
3581	0	0.994889
3582	0	0.994889
3583	0	0.994889
3584	0	0.996588
3585	0	0.996588
3586	0	0.996588
3587	0	0.996586
3588	0	0.996586
3589	0	0
3590	0	0
3591	0	0
3592	0	0
3593	0	0
3594	0	0.998292
3595	0	0.998292
3596	0	0.998292
3597	0	0.998292
3598	0	0.998292
3599	0	0.998292
3600	0	0.998294
3601	0	0.998294
3602	0	0.998294
3603	0	0.98978
3604	0	1
3605	0	1
3606	0	1
3607	0	1
3608	0	0.714286
3609	0	0.392857
3610	0	0.254545
3611	0	0.190476
3612	0	0.763291
3613	0	0.80203
3614	0	0.53992
3615	0	0.474938
3616	0	0.461265
3617	0	1
3618	0	0.819672
3619	0	0.5
3620	0	0.5
3621	0	0.5
3622	0	0.5
3623	0	0.5
3624	0	0.166667
3625	0	0.166667
3626	0	0.166667
3627	0	0.166667
3628	0	0.166667
3629	0	0.333333
3630	0	0.748259
3631	0	0.747334
3632	0	0.430265
3633	0	0.428725
3634	0	0.431027
3635	0	0.397173
3636	0	0.331253
3637	0	0.350972
3638	0	0.311799
3639	0	0.197211
3640	0	0.19112
3641	0	0.182026
3642	0	0.333082
3643	0	0.331909
3644	0	0.353019
3645	0	0.127653
3646	0	0.0743169
3647	0	0.0936027
3648	0	0.4887
3649	0	0.398931
3650	0	0.214159
3651	0	0.21491
3652	0	0.137134
3653	0	0.0905433
3654	0	0.300674
3655	0	0.171044
3656	0	0.4703
3657	0	0.399182
3658	0	0.712761
3659	0	0.359043
3660	0	0.032967
3661	0	0.030303
3662	0	0.043956
3663	0	0.0292398
3664	0	0.0428571
3665	0	0.0655271
3666	0	0.190348
3667	0	0.28287
3668	0	0.217788
3669	0	0.297483
3670	0	0.399223
3671	0	0.0867266
3672	0	0.10765
3673	0	0.444859
3674	0	0.443313
3675	0	0.446381
3676	0	0.421475
3677	0	0.422779
3678	0	0.42191
3679	0	0.4355
3680	0	0.389695
3681	0	0.64744
3682	0	0.646367
3683	0	0.376114
3684	0	0.625971
3685	0	0.585993
3686	0	0.562057
3687	0	0.275362
3688	0	0.4
3689	0	0.4
3690	0	0.5
3691	0	0.5
3692	0	0.5
3693	0	0.391
3694	0	0.6
3695	0	0.6
3696	0	0.47619
3697	0	0.47619
3698	0	0.264822
3699	0	0.284585
3700	0	0.259361
3701	0	0.224311
3702	0	0.342173
3703	0	0.337137
3704	0	0.290909
3705	0	0.488889
3706	0	0.493562
3707	0	0
3708	0	0
3709	0	0
3710	0	0
3711	0	0
3712	0	0
3713	0	0
3714	0	0
3715	0	0.266667
3716	0	0.533333
3717	0	0.446881
3718	0	0.461822
3719	0	0.737053
3720	0	0.584046
3721	0	0.53607
3722	0	0.419981
3723	0	0.931034
3724	0	1
3725	0	0.86711
3726	0	1
3727	0	0.758549
3728	0	0.760438
3729	0	0.361905
3730	0	0.409524
3731	0	0.409524
3732	0	0.466667
3733	0	1
3734	0	1
3735	0	1
3736	0	1
3737	0	1
3738	0	1
3739	0	0.97245
3740	0	0.97245
3741	0	0.920935
3742	0	0.920935
3743	0	0.527712
3744	0	0.543988
3745	0	0.363636
3746	0	0.181818
3747	0	0.2
3748	0	0.710036
3749	0	0.416323
3750	0	0.434696
3751	0	0.577683
3752	0	0.402264
3753	0	0.407952
3754	0	0.139706
3755	0	0.0952381
3756	0	0.0666667
3757	0	0.1
3758	0	0
3759	0	0
3760	0	0
3761	0	0
3762	0	0.83004
3763	0	0.663818
3764	0	0.401007
3765	0	0.591355
3766	0	0.654175
3767	0	0.665517
3768	0	0
3769	0	0
3770	0	0
3771	0	0
3772	0	0
3773	0	0
3774	0	0.186306
3775	0	0.327652
3776	0	0.44402
3777	0	0.753122
3778	0	0.75485
3779	0	0.761683
3780	0	0.208333
3781	0	0.208333
3782	0	0.352381
3783	0	0.756849
3784	0	0.767565
3785	0	0.973065
3786	0	0.973065
3787	0	0.986486
3788	0	0.996588
3789	0	0.996588
3790	0	0.996591
3791	0	0.996591
3792	0	0.998294
3793	0	0.998294
3794	0	0.998294
3795	0	0.996591
3796	0	0.996591
3797	0	0.996591
3798	0	0.996591
3799	0	0.996591
3800	0	0.996591
3801	0	0.996591
3802	0	0.998295
3803	0	0.998295
3804	0	0.998295
3805	0	0.998295
3806	0	0.998295
3807	0	0.998295
3808	0	0.998295
3809	0	0.998295
3810	0	0.998295
3811	0	0.998295
3812	0	0.998295
3813	0	0.998295
3814	0	0.998294
3815	0	0.998294
3816	0	0.998294
3817	0	0.998294
3818	0	0.998294
3819	0	0.998294
3820	0	0.998294
3821	0	0.998292
3822	0	0.998292
3823	0	0.998292
3824	0	0.998292
3825	0	0.998292
3826	0	0.998292
3827	0	0.998292
3828	0	0.998292
3829	0	0.998292
3830	0	0.998294
3831	0	0.998294
3832	0	0.998294
3833	0	0.998294
3834	0	0.998292
3835	0	0.998292
3836	0	0.998292
3837	0	0.998292
3838	0	0.998292
3839	0	0.998292
3840	0	1
3841	0	0.979681
3842	0	0.454545
3843	0	0.895805
3844	0	0.530105
3845	0	0.530064
3846	0	0.524112
3847	0	0.444444
3848	0	0.333333
3849	0	0.533624
3850	0	0.529307
3851	0	0.494505
3852	0	0
3853	0	0
3854	0	0.535714
3855	0	0.535714
3856	0	0.535714
3857	0	0.653748
3858	0	0.596059
3859	0	0.596059
3860	0	0.956111
3861	0	0.956111
3862	0	0.973492
3863	0	0.973571
3864	0	1
3865	0	0.681395
3866	0	0.994889
3867	0	0.996591
3868	0	0.996591
3869	0	0.996591
3870	0	0.996591
3871	0	0.996591
3872	0	0.996591
3873	0	0.998295
3874	0	0.998295
3875	0	0.994889
3876	0	0.994889
3877	0	0.994889
3878	0	0.994889
3879	0	0.994885
3880	0	1
3881	0	0.352381
3882	0	0.858991
3883	0	1
3884	0	1
3885	0	0.895851
3886	0	1
3887	0	0.945392
3888	0	0.944121
3889	0	0.902629
3890	0	0.887894
3891	0	0.847347
3892	0	0.509425
3893	0	0.869667
3894	0	0.455987
3895	0	0.493942
3896	0	0.456897
3897	0	0
3898	0	0.5
3899	0	0.5
3900	0	0.5
3901	0	0.264475
3902	0	0.261184
3903	0	0.174481
3904	0	0.162397
3905	0	0.167622
3906	0	0.333333
3907	0	0.333333
3908	0	0.166667
3909	0	0.166667
3910	0	0.166667
3911	0	0.166667
3912	0	0
3913	0	0.197254
3914	0	0.185492
3915	0	0.198771
3916	0	0
3917	0	0
3918	0	0
3919	0	0
3920	0	0
3921	0	0.166667
3922	0	0.1
3923	0	0.1
3924	0	0.0666667
3925	0	0.047619
3926	0	0.46
3927	0	0.321008
3928	0	0.208999
3929	0	0.384859
3930	0	0.178132
3931	0	0.172672
3932	0	0.223953
3933	0	0.230936
3934	0	0.226944
3935	0	0.194953
3936	0	0.16591
3937	0	0.138772
3938	0	0.22377
3939	0	0.149469
3940	0	0.151146
3941	0	0.347445
3942	0	0.357162
3943	0	0.358181
3944	0	0.360736
3945	0	0.1
3946	0	0.1
3947	0	0.1
3948	0	0.1
3949	0	0
3950	0	0
3951	0	0
3952	0	0
3953	0	0.166667
3954	0	0.206891
3955	0	0.156352
3956	0	0.171634
3957	0	0.275242
3958	0	0.289441
3959	0	0.282594
3960	0	0.861529
3961	0	0.908687
3962	0	0
3963	0	0
3964	0	0
3965	0	0
3966	0	0
3967	0	0
3968	0	0
3969	0	0
3970	0	0
3971	0	0
3972	0	0
3973	0	0
3974	0	0
3975	0	0
3976	0	0
3977	0	0.0666667
3978	0	0.639143
3979	0	0.642202
3980	0	0.642552
3981	0	0.0890756
3982	0	0.0968254
3983	0	0.0936508
3984	0	0.117117
3985	0	0.363636
3986	0	0.440186
3987	0	0.430641
3988	0	0.187135
3989	0	0.187135
3990	0	0.64182
3991	0	0.621399
3992	0	0.689285
3993	0	0.300934
3994	0	0.4
3995	0	0.900643
3996	0	0.781827
3997	0	0.783021
3998	0	0.784291
3999	0	0.786612
4000	0	0.75711
4001	0	1
4002	0	0.860449
4003	0	0.986379
4004	0	0.988075
4005	0	0.989774
4006	0	0.989774
4007	0	0.989774
4008	0	0.991468
4009	0	0.993165
4010	0	0.993159
4011	0	0.993159
4012	0	0.993159
4013	0	0.994863
4014	0	0.993159
4015	0	0.993159
4016	0	1
4017	0	1
4018	0	1
4019	1	1
4020	0	1
4021	0	1
4022	0	1
4023	0	0.875891
4024	0	0.714286
4025	0	0.862693
4026	0	0.86429
4027	0	1
4028	0	1
4029	0	1
4030	0	1
4031	0	1
4032	0	1
4033	0	1
4034	0	1
4035	0	0.699423
4036	0	0.686729
4037	0	1
4038	0	1
4039	0	0.842198
4040	0	0.767848
4041	0	0.494806
4042	0	0.563785
4043	0	0.847119
4044	0	1
4045	0	1
4046	0	0.994867
4047	0	0.994867
4048	0	0.994867
4049	0	0.994867
4050	0	0.994867
4051	0	0.994867
4052	0	0.99485
4053	0	0.99373
4054	0	0.985475
4055	0	0.994867
4056	0	0.996574
4057	0	0.996571
4058	0	0.996568
4059	0	0.996568
4060	0	0.996568
4061	0	0.996568
4062	0	0.996568
4063	0	0.994854
4064	0	0.99828
4065	0	0.99828
4066	0	0.996562
4067	0	0.994845
4068	0	0.993136
4069	0	0.916667
4070	0	0.909513
4071	0	0.909054
4072	0	0.948741
4073	0	0.376196
4074	0	0.322927
4075	0	1
4076	0	0.238095
4077	0	0.230769
4078	0	0.225108
4079	0	0.22322
4080	0	0
4081	0	0.880051
4082	0	0
4083	0	0
4084	0	0
4085	0	0
4086	0	0
4087	0	0
4088	1	0
4089	1	0
4090	1	0
4091	1	0
4092	1	0
4093	1	0
4094	0	0
4095	0	0
4096	0	0
4097	0	0
4098	0	0
4099	0	0
4100	0	0
4101	0	0
4102	0	0
4103	0	0.916667
4104	0	0.97612
4105	0	0.942415
4106	0	0.943138
4107	0	0.965783
4108	0	0.746784
4109	0	0.755377
4110	0	0.698364
4111	0	0.398238
4112	0	0.454545
4113	0	0.644444
4114	0	0.644444
4115	0	0.991416
4116	0	0.991416
4117	0	0
4118	0	0
4119	0	0
4120	0	0
4121	0	0
4122	0	0
4123	0	0
4124	0	0
4125	0	0
4126	0	0
4127	0	0
4128	0	0
4129	0	0
4130	0	0
4131	0	0
4132	0	0
4133	0	0
4134	0	0
4135	0	0
4136	0	0
4137	0	0
4138	0	0
4139	0	0
4140	0	0
4141	0	0
4142	0	0
4143	0	0
4144	0	0.996574
4145	0	0.996574
4146	0	0.996574
4147	0	0.998286
4148	0	0.996574
4149	0	0.998285
4150	0	0.998285
4151	0	0.998285
4152	0	0.991443
4153	0	0.993143
4154	0	0.996565
4155	0	0.994863
4156	0	0.994863
4157	0	0.994863
4158	0	0.994859
4159	0	0.994859
4160	0	0.994859
4161	0	0.994854
4162	0	0.99485
4163	0	0.996556
4164	0	0.996556
4165	0	0.996556
4166	0	0.996556
4167	0	0.994841
4168	0	0.993124
4169	0	0.993124
4170	0	0.991409
4171	0	0.991409
4172	0	0.991409
4173	0	0.993118
4174	0	0.993118
4175	0	0.987977
4176	1	0
4177	1	0
4178	1	0
4179	0	0.993118
4180	0	0.993118
4181	0	0.993118
4182	0	0.991402
4183	0	0.993106
4184	0	0.993106
4185	0	0.996544
4186	0	0.996544
4187	0	0.994828
4188	0	0.994828
4189	0	0.991387
4190	0	0.991379
4191	0	0.987931
4192	0	0.984525
4193	0	0.984525
4194	0	0.8
4195	0	0.972646
4196	0	0.972521
4197	0	0.990783
4198	0	0.981694
4199	0	0.96401
4200	0	0.989624
4201	0	0.989642
4202	1	0
4203	1	0
4204	1	0
4205	1	0
4206	1	0
4207	1	0
4208	0	0
4209	0	0.989669
4210	0	0.991394
4211	0	0.991394
4212	0	0.993106
4213	0	0.993106
4214	0	0.9931
4215	0	0.991387
4216	0	0.9931
4217	0	0.993095
4218	0	0.993095
4219	0	0.993112
4220	0	0.993112
4221	0	0.993106
4222	0	0.993106
4223	0	0.993095
4224	0	1
4225	0	0.702984
4226	0	0.591195
4227	0	0.682997
4228	0	0.410397
4229	0	0.532609
4230	0	0.463203
4231	0	0.450292
4232	0	0.450292
4233	0	0.385965
4234	0	0.274854
4235	0	0.643543
4236	0	0
4237	0	0
4238	0	0
4239	0	0
4240	0	0
4241	0	0
4242	0	0
4243	0	0
4244	0	0
4245	0	0
4246	0	0
4247	0	0
4248	0	0
4249	0	0
4250	0	0
4251	0	0
4252	0	0
4253	0	0
4254	0	0
4255	0	0
4256	0	0
4257	0	0
4258	0	0
4259	0	0
4260	0	0
4261	0	0
4262	0	0
4263	0	0
4264	0	0
4265	0	0
4266	0	0
4267	0	0
4268	0	0
4269	0	0
4270	0	0
4271	0	0
4272	0	0
4273	0	0
4274	0	0
4275	0	0
4276	0	0
4277	0	0
4278	0	0
4279	0	0
4280	0	0
4281	0	0
4282	0	0.357143
4283	0	0.357143
4284	0	0.357143
4285	0	0.357143
4286	0	0.357143
4287	0	0.357143
4288	0	0.939342
4289	0	0.933177
4290	0	0.907741
4291	0	0.898246
4292	0	0.49574
4293	0	0.490251
4294	0	0.0952381
4295	0	0.0952381
4296	0	0.047619
4297	0	0.047619
4298	0	0.109091
4299	0	0.0888889
4300	0	0.0888889
4301	0	0.0888889
4302	0	0.0357143
4303	0	0.0357143
4304	0	0.0357143
4305	0	0.0357143
4306	0	0.0357143
4307	0	0.0357143
4308	0	0.0277778
4309	0	0.0277778
4310	0	0.0444444
4311	0	0.416632
4312	0	0.402435
4313	0	0.585959
4314	0	0.361248
4315	0	0.306268
4316	0	0.295027
4317	0	0.312253
4318	0	0.0659341
4319	0	0.0659341
4320	0	0.0659341
4321	0	0.0384615
4322	0	0.0128205
4323	0	0.010989
4324	0	0.010989
4325	0	0.010989
4326	0	0.010989
4327	0	0.010989
4328	0	0.0128205
4329	0	0.00952381
4330	0	0.0147059
4331	0	0.148863
4332	0	0.127021
4333	0	0.126524
4334	0	0.118059
4335	0	0.114595
4336	0	0.123433
4337	0	0.122719
4338	0	0.119757
4339	0	0.167575
4340	0	0.0362319
4341	0	0.0434783
4342	0	0.0434783
4343	0	0.047619
4344	0	0.047619
4345	0	0.04329
4346	0	0.052381
4347	0	0.052381
4348	0	0.052381
4349	0	0.052381
4350	0	0.0578947
4351	0	0.0578947
4352	0	0.0519481
4353	0	0.047619
4354	0	0.137484
4355	0	0.128577
4356	0	0.107212
4357	0	0.111837
4358	0	0.103804
4359	0	0.13798
4360	0	0.134538
4361	0	0.151059
4362	0	0.172636
4363	0	0.156396
4364	0	0.144189
4365	0	0.131587
4366	0	0.11186
4367	0	0.0969914
4368	0	0.0551349
4369	0	0.0475973
4370	0	0.0905976
4371	0	0.0766898
4372	0	0.0826717
4373	0	0.076383
4374	0	0.081189
4375	0	0.0776935
4376	0	0.0726569
4377	0	0.071676
4378	0	0.0692025
4379	0	0.0497959
4380	0	0.04
4381	0	0.0530612
4382	0	0.0576241
4383	0	0.0563265
4384	0	0.0408163
4385	0	0.0447059
4386	0	0.0457143
4387	0	0.0454902
4388	0	0.0325985
4389	0	0.0297537
4390	0	0.0246548
4391	0	0.0246305
4392	0	0.0841188
4393	0	0.077859
4394	0	0.0219
4395	0	0.0235195
4396	0	0.0264542
4397	0	0.0308281
4398	0	0.0447005
4399	0	0.039339
4400	0	0.0505733
4401	0	0.14022
4402	0	0.181833
4403	0	0.173451
4404	0	0.187686
4405	0	0.192319
4406	0	0.203189
4407	0	0.0719208
4408	0	0.0918584
4409	0	0.135711
4410	0	0.215041
4411	0	0.304051
4412	0	0.452441
4413	0	0.485359
4414	0	0.468319
4415	0	0.504774
4416	0	0.630001
4417	0	0.381074
4418	0	0.675869
4419	0	0.731767
4420	0	0.784106
4421	0	0.795694
4422	0	0.811931
4423	0	0.81259
4424	0	0.81649
4425	0	0.04
4426	0	0.0466667
4427	0	0.047619
4428	0	0.0666667
4429	0	0.0882353
4430	0	0.0757576
4431	0	0.0909091
4432	0	0.0909091
4433	0	0.0909091
4434	0	0.133333
4435	0	0.133333
4436	0	0.178571
4437	0	0.2
4438	0	0.333333
4439	0	0.333333
4440	0	0.333333
4441	0	0.333333
4442	0	0.333333
4443	0	0.333333
4444	0	0.333333
4445	0	0.333333
4446	0	0.333333
4447	0	0.333333
4448	0	0.333333
4449	0	0
4450	0	0
4451	0	0
4452	0	0
4453	0	0
4454	0	0
4455	1	0
4456	1	0
4457	1	0
4458	0	0
4459	0	0
4460	0	0
4461	0	0
4462	0	0
4463	0	0
4464	0	0
4465	0	0
4466	0	0
4467	0	0
4468	0	0
4469	0	0
4470	0	0
4471	0	0
4472	0	0
4473	0	0
4474	0	0
4475	0	0
4476	0	0
4477	0	0
4478	0	0
4479	0	0
4480	0	0
4481	0	0
4482	0	0
4483	0	0
4484	0	0
4485	0	0
4486	0	0
4487	0	0
4488	0	0
4489	0	0
4490	0	0
4491	0	0
4492	0	0
4493	0	0
4494	0	0
4495	0	0
4496	0	0
4497	0	0
4498	0	0
4499	0	0
4500	0	0
4501	0	0
4502	0	0
4503	0	0
4504	0	0
4505	0	0
4506	0	0
4507	0	0
4508	0	0
4509	0	0
4510	0	0
4511	0	0
4512	0	0
4513	0	0
4514	0	0
4515	0	0
4516	0	0
4517	0	0
4518	0	0
4519	0	0
4520	0	0
4521	0	0
4522	0	0
4523	0	0
4524	0	0
4525	0	0
4526	0	0
4527	0	0
4528	0	0
4529	0	0
4530	0	0
4531	0	0
4532	0	0
4533	0	0
4534	0	0
4535	0	0
4536	0	0
4537	0	0
4538	0	0
4539	0	0
4540	0	0
4541	0	0
4542	0	0
4543	0	0
4544	0	0
4545	0	0
4546	0	0
4547	0	0
4548	0	0
4549	0	0
4550	0	0
4551	0	0
4552	0	0
4553	0	0
4554	0	0
4555	0	0
4556	0	0
4557	0	0
4558	0	0
4559	0	0
4560	0	0
4561	0	0
4562	0	0
4563	0	0
4564	0	0
4565	0	0
4566	0	0
4567	0	0
4568	0	0
4569	0	0.566313
4570	0	0.762257
4571	0	0.604351
4572	0	0.871322
4573	0	0.991387
4574	0	0.665218
4575	0	0.665218
4576	0	0.994828
4577	0	0.994828
4578	0	0.994828
4579	0	0.993112
4580	0	0.993112
4581	0	0.993112
4582	0	0.993112
4583	0	0
4584	0	0
4585	0	0.989677
4586	0	0.989677
4587	0	0.991394
4588	0	0.948718
4589	0	0.988372
4590	0	0.735694
4591	0	0.695164
4592	0	0.47619
4593	0	0.811538
4594	0	0.834225
4595	0	0.6
4596	0	1
4597	0	0.99655
4598	0	0.994828
4599	0	0.998271
4600	0	0.998271
4601	0	0.998271
4602	0	0.998273
4603	0	0.998273
4604	0	0.998273
4605	0	0.998271
4606	0	0.998271
4607	0	0.998271
4608	0	0.998271
4609	0	0.998271
4610	0	0.998271
4611	0	0.998271
4612	0	0.99482
4613	0	0.99482
4614	0	0.503957
4615	0	0.442831
4616	0	0.536047
4617	0	0.767253
4618	0	1
4619	0	0.99685
4620	0	0.991369
4621	0	0.993087
4622	0	1
4623	0	1
4624	0	0.996547
4625	0	0.996553
4626	0	0.996553
4627	0	0.996553
4628	0	0.996553
4629	0	0.996553
4630	0	0.994836
4631	0	0.994841
4632	0	0.994841
4633	0	0.994841
4634	0	0.994841
4635	0	0.9897
4636	0	0.987987
4637	0	1
4638	0	1
4639	0	0.846667
4640	0	0.777646
4641	0	0.578496
4642	0	0
4643	0	0
4644	0	0
4645	0	0
4646	0	0.622222
4647	0	0.373626
4648	0	0.272059
4649	0	0.922858
4650	0	0.815976
4651	0	0.515703
4652	0	0.224451
4653	0	0.333333
4654	0	0.20362
4655	0	0.37438
4656	0	0.133333
4657	0	0.386761
4658	0	0.642464
4659	0	0.0545455
4660	0	0.047619
4661	0	0.047619
4662	0	0.0666667
4663	0	0
4664	0	0
4665	0	0
4666	0	0
4667	0	0
4668	0	0
4669	0	0
4670	0	0
4671	0	0
4672	0	0
4673	0	0
4674	0	0
4675	0	0
4676	0	0
4677	0	1
4678	0	1
4679	0	1
4680	0	1
4681	0	0.69573
4682	0	0.263415
4683	0	0.727069
4684	0	0.750267
4685	0	0.355442
4686	0	0.949668
4687	0	0.0994152
4688	0	0.0879121
4689	0	0.0666667
4690	0	0.0833333
4691	0	0.107143
4692	0	0.133333
4693	0	0.2
4694	0	0.2
4695	0	0.333333
4696	0	0.333333
4697	0	0.333333
4698	0	1
4699	0	0.984576
4700	0	0.986284
4701	0	0.986284
4702	0	0.986284
4703	0	0.989686
4704	0	0.989686
4705	0	0.989686
4706	0	0.989686
4707	0	0.989686
4708	0	0.989686
4709	0	0.989686
4710	0	0.989686
4711	0	1
4712	0	1
4713	0	1
4714	0	1
4715	0	1
4716	0	0.935484
4717	0	0.935484
4718	0	0.935484
4719	0	0.935484
4720	0	0.935484
4721	0	0.932842
4722	0	0.932842
4723	0	1
4724	0	0.846154
4725	0	0.846154
4726	0	0.846154
4727	0	0.846154
4728	0	0.846154
4729	0	0.846154
4730	0	0.846154
4731	0	0.529412
4732	0	0.846154
4733	0	0.451434
4734	0	0.39869
4735	0	0.284387
4736	0	0.206972
4737	0	0.143961
4738	0	0.111234
4739	0	0.117952
4740	0	0.179733
4741	0	0.1202
4742	0	0.440292
4743	0	0.333333
4744	0	0.266667
4745	0	0.325791
4746	0	0.27526
4747	0	0.127781
4748	0	0.0911681
4749	0	0.0826211
4750	0	0.13338
4751	0	0.14062
4752	0	0.146089
4753	0	0.134473
4754	0	0.17601
4755	0	0.0697115
4756	0	0.0747729
4757	0	0.0615764
4758	0	0.0569801
4759	0	0.0877193
4760	0	0.205128
4761	0	0.285714
4762	0	0.2
4763	0	0.3
4764	0	0.214286
4765	0	0.3
4766	0	1
4767	0	1
4768	0	1
4769	0	1
4770	0	1
4771	0	1
4772	0	1
4773	0	1
4774	0	1
4775	0	1
4776	0	1
4777	0	1
4778	0	0
4779	0	0
4780	0	0
4781	0	0
4782	0	0
4783	0	0
4784	0	0
4785	0	0
4786	0	0
4787	0	0
4788	0	0
4789	0	0
4790	0	0
4791	0	0
4792	0	0
4793	0	0
4794	0	0
4795	0	0
4796	0	0
4797	0	0
4798	0	0
4799	0	0
4800	0	0
4801	0	0
4802	0	0
4803	0	0
4804	0	0
4805	0	0
4806	0	0
4807	0	0
4808	0	0
4809	0	0
4810	0	0
4811	0	0
4812	0	0
4813	0	0
4814	0	0.166667
4815	0	0.133333
4816	0	0.166667
4817	0	0.109091
4818	0	0.145455
4819	0	0.168152
4820	0	0.0793269
4821	0	0.0657895
4822	0	0.0601504
4823	0	0.0416667
4824	0	0
4825	0	0
4826	0	0
4827	0	0
4828	0	0
4829	0	0
4830	0	0
4831	0	0.0429522
4832	0	0.0411373
4833	0	0.0381125
4834	0	0.0421627
4835	0	0.0433566
4836	0	0.108501
4837	0	0.183034
4838	0	0.142857
4839	0	0
4840	0	0
4841	0	0
4842	0	0.661883
4843	0	0.0701754
4844	0	0.0808824
4845	0	0.106061
4846	0	0.0555556
4847	0	0.0357143
4848	0	0.0357143
4849	0	0.047619
4850	0	0.047619
4851	0	0.047619
4852	0	0.106061
4853	0	0.106061
4854	0	0.0512821
4855	0	0.032967
4856	0	0.032967
4857	0	0.0222222
4858	0	0.0181818
4859	0	0.399716
4860	0	0.421922
4861	0	0.194879
4862	0	0.0333333
4863	0	0.0688406
4864	0	0.07
4865	0	0.162238
4866	0	0.120988
4867	0	0.132571
4868	0	0.199667
4869	0	0.197339
4870	0	0.197151
4871	0	0.273684
4872	0	0.205418
4873	0	0.247574
4874	0	0.414957
4875	0	0.409293
4876	0	0.889222
4877	0	0.0277778
4878	0	0.166667
4879	0	0.166667
4880	0	0.166667
4881	0	0.166667
4882	0	0.166667
4883	0	0.166667
4884	0	0.166667
4885	0	0.166667
4886	0	0.166667
4887	0	0
4888	0	0
4889	0	0
4890	0	0
4891	0	0
4892	0	0
4893	0	0
4894	0	0
4895	0	0
4896	0	0
4897	0	0
4898	0	0
4899	0	0.0222222
4900	0	0.0363636
4901	0	0.0436975
4902	0	0.0386555
4903	0	0.042042
4904	0	0.0426829
4905	0	0.0396135
4906	0	0.585298
4907	0	0.107143
4908	0	0.142857
4909	0	0.0327869
4910	0	0.0384025
4911	0	0.0422466
4912	0	0.0462719
4913	0	0.0618694
4914	0	0.0663004
4915	0	0.279072
4916	0	0.222031
4917	0	0.232258
4918	0	0.22069
4919	0	0.22069
4920	0	0.252874
4921	0	0.252874
4922	0	0.252874
4923	0	0.255172
4924	0	0.252874
4925	0	0.192118
4926	0	0.179476
4927	0	0.179744
4928	0	0.0631229
4929	0	0.0620155
4930	0	0.0696974
4931	0	0.0681631
4932	0	0.0718796
4933	0	0.0767858
4934	0	0.0793651
4935	0	0.0978836
4936	0	0.0643275
4937	0	0.0588235
4938	0	0.0641026
4939	0	0.0222222
4940	0	0.0444444
4941	0	0.0444444
4942	0	0.0444444
4943	0	0.0444444
4944	0	0.0444444
4945	0	0.0444444
4946	0	0.0727273
4947	0	0.0909091
4948	0	0.0974804
4949	0	0.107476
4950	0	0.110266
4951	0	0.117654
4952	0	0.121963
4953	0	0.237618
4954	0	0.272698
4955	0	0.283092
4956	0	0.320044
4957	0	0.366667
4958	0	0.380769
4959	0	0.27451
4960	0	0.222222
4961	0	0.141819
4962	0	0.157323
4963	0	0.216944
4964	0	0.408153
4965	0	0.166667
4966	0	0.166667
4967	0	0.333333
4968	0	0.333333
4969	0	0.333333
4970	0	0.413253
4971	0	0.288492
4972	0	0.286876
4973	0	0.246753
4974	0	0
4975	0	0
4976	0	0
4977	0	0.271429
4978	0	0.266667
4979	0	0.23913
4980	0	0.23913
4981	0	0.26087
4982	0	0.26087
4983	0	0.26087
4984	0	0.48667
4985	0	0.107143
4986	0	0.107143
4987	0	0.142857
4988	0	0.142857
4989	0	0.142857
4990	0	0.0641026
4991	0	0.0897436
4992	0	0.205128
4993	0	0.102564
4994	0	0.207792
4995	0	0.399527
4996	0	0.205128
4997	0	0.242424
4998	0	0.320513
4999	0	0.351648
5000	0	0.351648
5001	0	0.248366
5002	0	0.274854
5003	0	0.33562
5004	0	0.592577
5005	0	0.606022
5006	0	0.918908
5007	0	0.949732
5008	0	0.981062
5009	0	0.982777
5010	0	0.982762
5011	0	0.982774
5012	0	0.9862
5013	0	0.9862
5014	0	0.9862
5015	0	0.977624
5016	0	0.967422
5017	0	0.984418
5018	0	0.986173
5019	0	0.987911
5020	0	0.984488
5021	0	0.984488
5022	0	0.981083
5023	0	0.975951
5024	0	0.975942
5025	0	0.974242
5026	0	0.824994
5027	0	0.819058
5028	0	0.4
5029	0	0.4
5030	0	0.4
5031	0	0.266667
5032	0	0.4
5033	0	0.979207
5034	0	0
5035	0	0
5036	0	0
5037	0	0
5038	0	0
5039	0	0
5040	0	0
5041	0	0
5042	0	0
5043	0	0
5044	0	0.989633
5045	0	0.989633
5046	0	0.993077
5047	0	0.993077
5048	0	0.993077
5049	0	0.991342
5050	0	0.98791
5051	0	0.981053
5052	0	0.4
5053	0	0.98442
5054	0	1
5055	0	1
5056	0	1
5057	0	0.975884
5058	0	0.975882
5059	0	0.6
5060	0	0.979199
5061	0	0
5062	0	0
5063	0	0
5064	0	0
5065	0	0
5066	0	0
5067	0	0
5068	0	0
5069	0	0
5070	0	0
5071	0	0
5072	0	0
5073	0	0
5074	0	0
5075	0	0
5076	0	0
5077	0	0
5078	0	0
5079	0	0
5080	0	0
5081	0	0
5082	0	0
5083	0	0.977608
5084	0	0.807432
5085	0	0.808652
5086	0	0
5087	0	1
5088	0	1
5089	1	1
5090	1	1
5091	1	1
5092	1	1
5093	1	1
5094	1	1
5095	0	1
5096	0	1
5097	0	0.991312
5098	0	0.991319
5099	0	0.991319
5100	0	0.989597
5101	0	0.986165
5102	0	1
5103	0	0.960645
5104	0	0.960625
5105	0	0.984446
5106	0	0.98274
5107	0	0.987889
5108	0	0.987889
5109	0	0.989606
5110	0	0.98447
5111	0	0.982766
5112	0	1
5113	0	0.902403
5114	0	0.902403
5115	0	0.882245
5116	0	0.871707
5117	0	0.861967
5118	0	0.456997
5119	0	0.545836
5120	0	0.370041
5121	0	0.246964
5122	0	0
5123	0	0
5124	0	0
5125	0	0
5126	0	0.482678
5127	0	0.236415
5128	0	0.250083
5129	0	0.350769
5130	0	0.245614
5131	0	0.230769
5132	0	0.153846
5133	0	0.156098
5134	0	0.61298
5135	0	0.374113
5136	0	0.406763
5137	0	0.3028
5138	0	0.181488
5139	0	0.187057
5140	0	0.250768
5141	0	0.386656
5142	0	0.358995
5143	0	0.350299
5144	0	0.471803
5145	0	0.195652
5146	0	0.316667
5147	0	0.316667
5148	0	0.560189
5149	0	0.571986
5150	0	0.550733
5151	0	0.55653
5152	0	0.599804
5153	0	0.518547
5154	0	0.262471
5155	0	0.22995
5156	0	0.222222
5157	0	0.126894
5158	0	0.138298
5159	0	0.146617
5160	0	0.211297
5161	0	0.193595
5162	0	0.238363
5163	0	0.199262
5164	0	0.330379
5165	0	0.161765
5166	0	0.236667
5167	0	0.476768
5168	0	0.513357
5169	0	0.522664
5170	0	0.660982
5171	0	0.545455
5172	0	0.494505
5173	0	0.494505
5174	0	0.254209
5175	0	0.281903
5176	0	0.280378
5177	0	0
5178	0	0
5179	0	0
5180	0	0
5181	0	0
5182	0	0
5183	0	0
5184	0	0.2
5185	0	0.214286
5186	0	0.559677
5187	0	0.558245
5188	0	0.83779
5189	0	0.640807
5190	0	0.0952381
5191	0	0.166667
5192	0	0.316726
5193	0	0.192799
5194	0	0.158537
5195	0	0.504357
5196	0	0.466544
5197	0	0.580593
5198	0	0.667284
5199	0	0.640377
5200	0	0.166667
5201	0	0
5202	0	0
5203	0	0
5204	0	0
5205	0	0
5206	0	0
5207	0	0
5208	0	0.166667
5209	0	0
5210	0	0
5211	0	0.166667
5212	0	0.166667
5213	0	0.80801
5214	0	0.946685
5215	0	0.0857143
5216	0	0.0989011
5217	0	0.19697
5218	0	0.214286
5219	0	0.214286
5220	0	0.214286
5221	0	0.357143
5222	0	0
5223	0	0
5224	0	0.333333
5225	0	0.333333
5226	0	0.980935
5227	0	0.989524
5228	0	0.991327
5229	0	0.989607
5230	0	0.989607
5231	0	0.987891
5232	0	0.987891
5233	0	0.987891
5234	0	0.987889
5235	0	0.989615
5236	0	0.989624
5237	0	0.98791
5238	0	0.987912
5239	0	0.986179
5240	0	0.933917
5241	0	0.979324
5242	0	0.979324
5243	0	0.981023
5244	0	0.979324
5245	0	0.97763
5246	0	0.97763
5247	0	0.654545
5248	0	0.654545
5249	0	0.654545
5250	0	0.535714
5251	0	0.535714
5252	0	0.535714
5253	0	0.4
5254	0	0.95399
5255	0	0.949901
5256	0	0.949864
5257	0	0.920565
5258	0	1
5259	0	1
5260	0	1
5261	0	1
5262	0	1
5263	0	1
5264	0	0
5265	0	0
5266	0	0
5267	0	0
5268	0	0
5269	0	0
5270	0	0
5271	0	0
5272	0	0
5273	0	0
5274	0	0
5275	0	0
5276	0	0
5277	0	0
5278	0	0
5279	0	0
5280	0	0
5281	0	0
5282	0	0
5283	0	0
5284	0	0
5285	0	0
5286	0	0
5287	0	0
5288	0	0
5289	0	0
5290	0	0
5291	0	0
5292	0	0
5293	0	0
5294	0	1
5295	0	1
5296	0	0.973489
5297	0	0.960487
5298	0	0.714286
5299	0	0.714286
5300	0	0.714286
5301	0	0.6
5302	0	0.3
5303	0	0.1
5304	0	0.1
5305	0	0.0952381
5306	0	0.0952381
5307	0	0.744292
5308	0	0.787123
5309	0	0.690946
5310	0	0.595482
5311	0	0.377966
5312	0	0.219048
5313	0	0.236842
5314	0	0.2
5315	0	0.111111
5316	0	0.142857
5317	0	0.19883
5318	0	0.2
5319	0	0.128205
5320	0	0.104615
5321	0	0.087108
5322	0	0.0808416
5323	0	0.104651
5324	0	0.614294
5325	0	0.618889
5326	0	0.642798
5327	0	0.593272
5328	0	0.568636
5329	0	0.453245
5330	0	0.344508
5331	0	0.180907
5332	0	0.237172
5333	0	0.220171
5334	0	0.207746
5335	0	0.209187
5336	0	0.19795
5337	0	0.180971
5338	0	0.181674
5339	0	0.168958
5340	0	0.270834
5341	0	0.393793
5342	0	0.487988
5343	0	0.742159
5344	0	0.496325
5345	0	0.347341
5346	0	0.331373
5347	0	0.684012
5348	0	0.682504
5349	0	0.658926
5350	0	0.612121
5351	0	0.275214
5352	0	0.275214
5353	0	0.261805
5354	0	0.468773
5355	0	0
5356	0	0
5357	0	0
5358	0	0
5359	0	0
5360	0	0
5361	0	0
5362	0	0
5363	0	0
5364	0	0
5365	0	0
5366	0	0
5367	0	0
5368	0	0
5369	0	0.3
5370	0	0.2
5371	0	0.2
5372	0	0.2
5373	0	0.266667
5374	0	0.69697
5375	0	0.408333
5376	0	0.530902
5377	0	0.4
5378	0	0.390865
5379	0	0.444444
5380	0	0.529471
5381	0	0.828996
5382	0	0.486704
5383	0	1
5384	0	1
5385	0	0.993095
5386	0	0.993095
5387	0	0.991372
5388	0	0.986249
5389	0	0.986249
5390	0	0.986249
5391	0	0.98966
5392	0	0.989651
5393	0	0.989633
5394	0	0.989624
5395	0	0.991342
5396	0	0.991342
5397	0	0.979409
5398	0	0.979409
5399	0	0
5400	0	0
5401	0	0
5402	0	0
5403	0	0
5404	0	0
5405	0	0
5406	0	0
5407	0	0
5408	0	0
5409	0	0
5410	0	0.982766
5411	0	0.981068
5412	0	0
5413	0	0
5414	0	0
5415	0	0
5416	0	0
5417	0	0
5418	0	0.1
5419	0	0.975217
5420	0	0.424242
5421	0	0.79132
5422	0	0.833986
5423	0	0.972396
5424	0	0.591282
5425	0	0.492647
5426	0	0.725275
5427	0	0.960397
5428	0	0.963744
5429	0	0.4
5430	0	0.4
5431	0	0.962259
5432	0	0.962236
5433	0	0.466667
5434	0	1
5435	0	1
5436	0	0.984402
5437	0	0.986117
5438	0	0.6
5439	0	1
5440	0	1
5441	0	1
5442	0	0.979239
5443	0	0.952069
5444	0	0.953608
5445	0	0.950244
5446	0	0.950202
5447	0	0.333333
5448	0	0.333333
5449	0	0
5450	0	0
5451	0	0
5452	0	0.94347
5453	0	1
5454	0	0
5455	0	0
5456	0	0
5457	0	0
5458	0	0
5459	0	0
5460	0	0
5461	0	0
5462	0	0
5463	0	0
5464	0	0
5465	0	0
5466	0	0
5467	0	0
5468	0	0
5469	0	0
5470	0	0
5471	0	0
5472	0	0
5473	0	0
5474	0	0
5475	0	0
5476	0	0
5477	0	0
5478	0	0
5479	0	0
5480	0	0
5481	0	0
5482	0	0
5483	0	0
5484	0	0
5485	0	0
5486	0	0
5487	0	0
5488	0	0
5489	0	0
5490	0	0
5491	0	0
5492	0	0
5493	0	0
5494	0	0
5495	0	0
5496	0	0
5497	0	0
5498	0	0
5499	0	0
5500	0	0
5501	0	0
5502	0	0
5503	0	0
5504	0	0
5505	0	0
5506	0	0
5507	0	0
5508	0	0
5509	0	0
5510	0	0
5511	0	0
5512	0	0
5513	0	0
5514	0	0
5515	0	0
5516	0	0
5517	0	0
5518	0	0
5519	0	0
5520	0	0
5521	0	0
5522	0	0
5523	0	0
5524	0	0
5525	0	0
5526	0	0
5527	0	0
5528	0	0
5529	0	0
5530	0	0
5531	0	0
5532	0	0
5533	0	0
5534	0	0
5535	0	0
5536	0	0
5537	0	0
5538	0	0
5539	0	0
5540	0	0
5541	0	0
5542	0	0
5543	0	0
5544	0	0
5545	0	0
5546	0	0
5547	0	0
5548	0	0
5549	0	0
5550	0	0
5551	0	0
5552	0	0
5553	0	0
5554	0	0
5555	0	0
5556	0	0
5557	0	0
5558	0	0
5559	0	0
5560	0	0
5561	0	0
5562	0	0
5563	0	0
5564	0	0
5565	0	0
5566	0	0
5567	0	0
5568	0	0
5569	0	0
5570	0	0
5571	0	0
5572	0	0
5573	0	0
5574	0	0
5575	0	0
5576	0	0
5577	0	0
5578	0	0
5579	0	0
5580	0	0
5581	0	0
5582	0	0
5583	0	0
5584	0	0
5585	0	0
5586	0	0
5587	0	0
5588	0	0
5589	0	0
5590	0	0
5591	0	0
5592	0	0
5593	0	0
5594	0	0
5595	0	0
5596	0	0
5597	0	0
5598	0	0
5599	0	0
5600	0	0
5601	0	0
5602	0	0
5603	0	0
5604	0	0
5605	0	0
5606	1	0
5607	1	0
5608	1	0
5609	0	0
5610	0	0
5611	0	0
5612	0	0
5613	0	0
5614	0	0
5615	0	0
5616	0	0
5617	0	0
5618	0	0
5619	0	0
5620	0	0
5621	0	0
5622	0	0
5623	0	0
5624	0	0
5625	0	0
5626	0	0
5627	0	0
5628	0	0
5629	0	0
5630	0	0
5631	0	0
5632	0	0
5633	0	0
5634	0	0
5635	0	0
5636	0	0
5637	0	0
5638	0	0
5639	0	0
5640	0	0
5641	0	0
5642	0	0
5643	0	0
5644	0	0
5645	0	0
5646	0	0
5647	0	0
5648	0	0
5649	0	0
5650	0	0
5651	0	0
5652	0	0
5653	0	0
5654	0	0
5655	0	0
5656	0	0
5657	0	0
5658	0	0
5659	0	0
5660	0	0
5661	0	0
5662	0	0
5663	0	0
5664	0	0
5665	0	0
5666	0	0
5667	0	0
5668	0	0
5669	0	0
5670	0	0
5671	0	0
5672	0	0
5673	0	0
5674	0	0
5675	0	0
5676	0	0
5677	0	0
5678	0	0
5679	0	0
5680	0	0
5681	0	0
5682	0	0
5683	0	0
5684	0	0
5685	0	0
5686	0	0
5687	0	0
5688	0	0
5689	0	0
5690	0	0
5691	0	0
5692	0	0
5693	0	0
5694	0	0
5695	0	0
5696	0	0
5697	0	0
5698	0	0
5699	0	0
5700	0	0
5701	0	0
5702	0	0
5703	0	0
5704	0	0
5705	0	0
5706	0	0
5707	0	0
5708	0	0
5709	0	0
5710	0	0
5711	0	0
5712	0	0
5713	0	0.933678
5714	0	0.933678
5715	0	1
5716	0	0.936498
5717	0	0.736264
5718	0	0.69697
5719	0	0.488889
5720	0	0.320513
5721	0	0.227941
5722	0	0.902358
5723	0	0.899669
5724	0	0.943449
5725	0	0.458921
5726	0	0.391994
5727	0	0.395928
5728	0	0.394928
5729	0	0.421053
5730	0	0.308333
5731	0	0.166667
5732	0	0.222222
5733	0	0.194444
5734	0	0.142857
5735	0	0.142857
5736	0	0.142857
5737	0	0.0714286
5738	0	0.0357143
5739	0	0.0357143
5740	0	0.0357143
5741	0	0
5742	0	0.047619
5743	0	0.047619
5744	0	0.047619
5745	0	0.047619
5746	0	0.047619
5747	0	0.047619
5748	0	0.047619
5749	0	0.047619
5750	0	0.047619
5751	0	0.047619
5752	0	0
5753	0	0
5754	0	0
5755	0	0
5756	0	0
5757	0	0
5758	0	0
5759	0	0
5760	0	0
5761	0	0
5762	0	0
5763	0	0
5764	0	0
5765	0	0
5766	0	0
5767	0	0
5768	0	0
5769	0	0
5770	0	0
5771	0	0
5772	0	0
5773	0	0
5774	0	0
5775	0	0
5776	0	0
5777	0	0
5778	0	0
5779	0	0
5780	0	0
5781	0	0
5782	0	0
5783	0	0
5784	0	0
5785	0	0
5786	0	0
5787	0	0
5788	0	0
5789	0	0
5790	0	0
5791	0	0
5792	0	0
5793	0	0
5794	0	0
5795	0	0
5796	0	0
5797	0	0
5798	0	0
5799	0	0
5800	0	0
5801	0	0
5802	0	0
5803	0	0
5804	0	0
5805	0	0
5806	0	0
5807	0	0
5808	0	0
5809	0	0
5810	0	0
5811	0	0
5812	0	0
5813	0	0
5814	0	0
5815	0	0
5816	0	0
5817	0	0
5818	0	0
5819	0	0
5820	0	0
5821	0	0
5822	0	0
5823	0	0
5824	0	0
5825	0	0
5826	0	0
5827	0	0
5828	0	0
5829	0	0
5830	0	0
5831	0	0
5832	0	0
5833	0	0
5834	0	0
5835	0	0
5836	0	0
5837	0	0
5838	0	0
5839	0	0
5840	0	0
5841	0	0
5842	0	0
5843	0	0
5844	0	0
5845	0	0
5846	0	0
5847	0	0
5848	0	0
5849	0	0
5850	0	0
5851	0	0
5852	0	0
5853	0	0
5854	0	0
5855	0	0
5856	0	0
5857	0	0
5858	0	0
5859	0	0
5860	0	0
5861	0	0
5862	0	0
5863	0	0
5864	0	0
5865	0	0
5866	0	0
5867	0	0
5868	0	0
5869	0	0
5870	0	0
5871	0	0
5872	0	0
5873	0	0
5874	0	0
5875	0	0
5876	0	0
5877	0	0
5878	0	0
5879	0	0
5880	0	0
5881	0	0
5882	0	0
5883	0	0
5884	0	0
5885	0	0
5886	0	0
5887	0	0
5888	0	0
5889	0	0
5890	0	0
5891	0	0
5892	0	0
5893	0	0
5894	0	0
5895	0	0
5896	0	0
5897	0	0
5898	0	0
5899	0	0
5900	0	0
5901	0	0
5902	0	0
5903	0	0
5904	0	0
5905	0	0
5906	0	0
5907	0	0
5908	0	0
5909	0	0
5910	0	0
5911	0	0
5912	0	0
5913	0	0
5914	0	0
5915	0	0
5916	0	0
5917	0	0
5918	0	0
5919	0	0
5920	0	0
5921	0	0
5922	0	0
5923	0	0
5924	0	0
5925	0	0
5926	0	0
5927	0	0
5928	0	0
5929	0	0
5930	0	0
5931	0	0
5932	0	0
5933	0	0
5934	0	0
5935	0	0
5936	0	0
5937	0	0
5938	0	0
5939	0	0
5940	0	0
5941	0	0
5942	0	0
5943	0	0
5944	0	0
5945	0	0
5946	0	0
5947	0	0
5948	0	0
5949	0	0
5950	0	0
5951	0	0
5952	0	0
5953	0	0
5954	0	0
5955	0	0
5956	0	0
5957	0	0
5958	0	0
5959	0	0
5960	0	0
5961	0	0
5962	0	0
5963	0	0
5964	0	0
5965	0	0
5966	0	0
5967	0	0
5968	0	0
5969	0	0
5970	0	0
5971	0	0
5972	0	0
5973	0	0
5974	0	0
5975	0	0
5976	0	0
5977	0	0
5978	0	0
5979	0	0
5980	0	0
5981	0	0
5982	0	0
5983	0	0
5984	0	0
5985	0	0
5986	0	0
5987	0	0
5988	0	0
5989	0	0
5990	0	0
5991	0	0
5992	0	0
5993	0	0
5994	0	0
5995	0	0
5996	0	0
5997	0	0
5998	0	0
5999	0	0
6000	0	0
6001	0	0
6002	0	0
6003	0	0
6004	0	0
6005	0	0
6006	0	0
6007	0	0
6008	0	0
6009	0	0
6010	0	0
6011	0	0
6012	0	0
6013	0	0
6014	0	0
6015	0	0
6016	0	0
6017	0	0
6018	0	0
6019	0	0
6020	0	0
6021	0	0
6022	0	0
6023	0	0
6024	0	0
6025	0	0
6026	0	0
6027	0	0
6028	0	0
6029	0	0
6030	0	0
6031	0	0
6032	0	0
6033	0	0
6034	0	0
6035	0	0
6036	0	0
6037	0	0
6038	0	0
6039	0	0
6040	0	0
6041	0	0
6042	0	0
6043	0	0
6044	0	0
6045	0	0
6046	0	0
6047	0	0
6048	0	0
6049	0	0
6050	0	0
6051	0	0
6052	0	0
6053	0	0
6054	0	0
6055	0	0
6056	0	0
6057	0	0
6058	0	0
6059	0	0
6060	0	0
6061	0	0
6062	0	0
6063	0	0
6064	0	0
6065	0	0
6066	0	0
6067	0	0
6068	0	0
6069	0	0
6070	0	0
6071	0	0
6072	0	0
6073	0	0
6074	0	0
6075	0	0
6076	0	0
6077	0	0
6078	0	0
6079	0	0
6080	0	0
6081	0	0
6082	0	0
6083	0	0
6084	0	0
6085	0	0
6086	0	0
6087	0	0
6088	0	0
6089	0	0
6090	0	0
6091	0	0
6092	0	0
6093	0	0
6094	0	0
6095	0	0
6096	0	0
6097	0	0
6098	0	0
6099	0	0
6100	0	0
6101	0	0
6102	0	0
6103	0	0
6104	0	0
6105	0	0
6106	0	0
6107	0	0
6108	0	0
6109	0	0
6110	0	0
6111	0	0
6112	0	0
6113	0	0
6114	0	0
6115	0	0
6116	0	0
6117	0	0
6118	0	0
6119	0	0
6120	0	0
6121	0	0
6122	0	0
6123	0	0
6124	0	0
6125	0	0
6126	0	0
6127	0	0
6128	0	0
6129	0	0
6130	0	0
6131	0	0
6132	0	0
6133	0	0
6134	0	0
6135	0	0
6136	0	0
6137	0	0
6138	0	0
6139	0	0
6140	0	0
6141	0	0
6142	0	0
6143	0	0
6144	0	0
6145	0	0
6146	0	0
6147	0	0
6148	0	0
6149	0	0
6150	0	0
6151	0	0
6152	0	0
6153	0	0
6154	0	0
6155	0	0
6156	0	0
6157	0	0
6158	0	0
6159	0	0
6160	0	0
6161	0	0
6162	0	0
6163	0	0
6164	0	0
6165	0	0
6166	0	0
6167	0	0
6168	0	0
6169	0	0
6170	0	0
6171	0	0
6172	0	0
6173	0	0
6174	0	0
6175	0	0
6176	0	0
6177	0	0
6178	0	0
6179	0	0
6180	0	0
6181	0	0
6182	0	0
6183	0	0
6184	0	0
6185	0	0
6186	0	0
6187	0	0
6188	0	0
6189	0	0
6190	0	0
6191	0	0
6192	0	0
6193	0	0
6194	0	0
6195	0	0
6196	0	0
6197	0	0
6198	0	0
6199	0	0
6200	0	0
6201	0	0
6202	0	0
6203	0	0
6204	0	0
6205	0	0
6206	0	0
6207	0	0
6208	0	0
6209	0	0
6210	0	0
6211	0	0
6212	0	0
6213	0	0
6214	0	0
6215	0	0
6216	0	0
6217	0	0
6218	0	0
6219	0	0
6220	0	0
6221	0	0
6222	0	0
6223	0	0
6224	0	0
6225	0	0
6226	0	0
6227	0	0
6228	0	0
6229	0	0
6230	0	0
6231	0	0
6232	0	0
6233	0	0
6234	0	0
6235	0	0
6236	0	0
6237	0	0
6238	0	0
6239	0	0
6240	0	0
6241	0	0
6242	0	0
6243	0	0
6244	0	0
6245	0	0
6246	0	0
6247	0	0
6248	0	0
6249	0	0
6250	0	0
6251	0	0
6252	0	0
6253	0	0
6254	0	0
6255	0	0
6256	0	0
6257	0	0
6258	0	0
6259	0	0
6260	0	0
6261	0	0
6262	0	0
6263	0	0
6264	0	0
6265	0	0
6266	0	0
6267	0	0
6268	0	0
6269	0	0
6270	0	0
6271	0	0
6272	0	0
6273	0	0
6274	1	0
6275	1	0
6276	1	0
6277	1	0
6278	1	0
6279	1	0
6280	1	0
6281	0	0
6282	0	0
6283	0	0
6284	0	0
6285	0	0
6286	0	0
6287	0	0
6288	0	0
6289	0	0
6290	0	0
6291	0	0
6292	0	0
6293	0	0
6294	0	0
6295	0	0
6296	1	0
6297	1	0
6298	0	0
6299	0	0
6300	0	0
6301	0	0
6302	0	0
6303	0	0
6304	0	0
6305	0	0
6306	0	0
6307	0	0
6308	0	0
6309	0	0
6310	0	0
6311	0	0
6312	1	0
6313	1	0
6314	1	0
6315	1	0
6316	1	0
6317	1	0
6318	1	0
6319	1	0
6320	1	0
6321	1	0
6322	0	0
6323	0	0
6324	0	0
6325	0	0
6326	0	0
6327	0	0
6328	0	0
6329	0	0
6330	0	0
6331	0	0
6332	0	0
6333	0	0
6334	0	0
6335	0	0
6336	0	0
6337	0	0
6338	0	0
6339	0	0
6340	0	0
6341	0	0
6342	0	0
6343	0	0
6344	0	0
6345	0	0
6346	0	0
6347	0	0
6348	0	0
6349	0	0
6350	0	0
6351	0	0
6352	0	0
6353	0	0
6354	0	0
6355	0	0
6356	0	0
6357	0	0
6358	0	0
6359	0	0
6360	0	0
6361	0	0
6362	0	0
6363	0	0
6364	0	0
6365	0	0
6366	0	0
6367	0	0
6368	0	0
6369	0	0
6370	0	0
6371	0	0
6372	0	0
6373	0	0
6374	0	0
6375	0	0
6376	0	0
6377	0	0
6378	0	0
6379	0	0
6380	0	0
6381	0	0
6382	0	0
6383	0	0
6384	0	0
6385	0	0
6386	0	0
6387	0	0
6388	0	0
6389	0	0
6390	0	0
6391	0	0
6392	0	0
6393	0	0
6394	0	0
6395	0	0
6396	0	0
6397	0	0
6398	0	0
6399	0	0
6400	0	0
6401	0	0
6402	0	0
6403	0	0
6404	0	0
6405	0	0
