Site	ColumnScore	SumOfPairsScore
1	1	1
2	1	1
3	1	1
4	1	1
5	1	1
6	1	1
7	1	1
8	1	1
9	1	1
10	1	1
11	1	1
12	1	1
13	1	1
14	1	1
15	1	1
16	1	1
17	1	1
18	1	1
19	1	1
20	1	1
21	1	1
22	1	1
23	1	1
24	1	1
25	1	1
26	1	1
27	1	1
28	1	1
29	1	1
30	1	1
31	1	1
32	1	1
33	1	1
34	1	1
35	1	1
36	1	1
37	1	1
38	1	1
39	1	1
40	1	1
41	1	1
42	1	1
43	1	1
44	1	1
45	1	1
46	1	1
47	1	1
48	1	1
49	1	1
50	1	1
51	1	1
52	1	1
53	1	1
54	1	1
55	1	1
56	1	1
57	1	1
58	1	1
59	1	1
60	1	1
61	1	1
62	1	1
63	1	1
64	1	1
65	1	1
66	1	1
67	1	1
68	1	1
69	1	1
70	1	1
71	1	1
72	1	1
73	1	1
74	1	1
75	1	1
76	1	1
77	1	1
78	1	1
79	1	1
80	1	1
81	1	1
82	1	1
83	1	1
84	1	1
85	1	1
86	1	1
87	1	1
88	1	1
89	1	1
90	1	1
91	1	1
92	1	1
93	1	1
94	1	1
95	1	1
96	1	1
97	1	1
98	1	1
99	1	1
100	1	1
101	1	1
102	1	1
103	1	1
104	1	1
105	1	1
106	1	1
107	1	1
108	1	1
109	1	1
110	1	1
111	1	1
112	1	1
113	1	1
114	1	1
115	1	1
116	1	1
117	1	1
118	1	1
119	1	1
120	1	1
121	1	1
122	1	1
123	1	1
124	1	1
125	1	1
126	1	1
127	1	1
128	1	1
129	1	1
130	1	1
131	1	1
132	1	1
133	1	1
134	1	1
135	1	1
136	1	1
137	1	1
138	1	1
139	1	1
140	1	1
141	1	1
142	1	1
143	1	1
144	1	1
145	1	1
146	1	1
147	1	1
148	1	1
149	1	1
150	1	1
151	1	1
152	1	1
153	1	1
154	1	1
155	1	1
156	1	1
157	1	1
158	1	1
159	1	1
160	1	1
161	1	1
162	1	1
163	1	1
164	1	1
165	1	1
166	1	1
167	1	1
168	1	1
169	1	1
170	1	1
171	1	1
172	1	1
173	1	1
174	1	1
175	1	1
176	1	1
177	1	1
178	1	1
179	1	1
180	1	1
181	1	1
182	1	1
183	1	1
184	1	1
185	1	1
186	1	1
187	1	1
188	1	1
189	1	1
190	1	1
191	1	1
192	1	1
193	1	1
194	1	1
195	1	1
196	1	1
197	1	1
198	1	1
199	1	1
200	1	1
201	1	1
202	1	1
203	1	1
204	1	1
205	1	1
206	1	1
207	1	1
208	1	1
209	1	1
210	1	1
211	1	1
212	1	1
213	1	1
214	1	1
215	1	1
216	1	1
217	1	1
218	1	1
219	1	1
220	1	1
221	1	1
222	1	1
223	1	1
224	1	1
225	1	1
226	1	1
227	1	1
228	1	1
229	0	0.333333
230	0	0.166667
231	0	0.166667
232	0	0.166667
233	0	0.166667
234	0	0.166667
235	0	0.166667
236	0	0.166667
237	0	0.166667
238	0	0.166667
239	0	0.166667
240	0	0.166667
241	0	0.166667
242	0	0.166667
243	0	0.166667
244	0	0.166667
245	0	0.166667
246	0	0.166667
247	0	0.1
248	0	0.1
249	0	0.1
250	0	0.1
251	0	0.1
252	0	0.1
253	0	0.1
254	0	0.1
255	0	0.1
256	0	0.1
257	0	0.1
258	0	0.0666667
259	0	0.0666667
260	0	0.0666667
261	0	0.0666667
262	0	0.0666667
263	0	0.0666667
264	0	0.0666667
265	0	0.0666667
266	0	0.0666667
267	0	0.0666667
268	0	0.0666667
269	0	0.0666667
270	0	0.0666667
271	0	0.0666667
272	0	0.0666667
273	0	0.0666667
274	0	0.0666667
275	0	0.0666667
276	0	0.0666667
277	0	0.0666667
278	0	0.0666667
279	0	0.0666667
280	0	0.0666667
281	0	0.0666667
282	0	0.0666667
283	0	0.0666667
284	0	0.0666667
285	0	0.0666667
286	0	0.0666667
287	0	0.0666667
288	0	0.0666667
289	0	0.0666667
290	0	0.0666667
291	0	0.0666667
292	0	0.0666667
293	0	0.0666667
294	0	0.0666667
295	0	0.0666667
296	0	0.0666667
297	0	0.0666667
298	0	0.0666667
299	0	0.0666667
300	0	0.0666667
301	0	0.0666667
302	0	0.0666667
303	0	0.0666667
304	0	0.0666667
305	0	0.0666667
306	0	0.0666667
307	0	0.0666667
308	0	0.0666667
309	0	0.0666667
310	0	0.0666667
311	0	0.0666667
312	0	0.0666667
313	0	0.0357143
314	0	0.0357143
315	0	0.0357143
316	0	0.0357143
317	0	0.0357143
318	0	0.0357143
319	0	0.0357143
320	0	0.0357143
321	0	0
322	0	0
323	0	0
324	0	0
325	0	0
326	0	0
327	0	0
328	0	0
329	0	0
330	0	0
331	0	0
332	0	0
333	0	0
334	0	0
335	0	0
336	0	0
337	0	0
338	0	0
339	0	0
340	0	0
341	0	0
342	0	0
343	0	0
344	0	0
345	0	0.0357143
346	0	0.0357143
347	0	0.0357143
348	0	0.0357143
349	0	0.0277778
350	0	0.0277778
351	0	0.0277778
352	0	0.0277778
353	0	0.0277778
354	0	0.0277778
355	0	0.0222222
356	0	0.0222222
357	0	0.0222222
358	0	0.0222222
359	0	0.0181818
360	0	0.0181818
361	0	0.0181818
362	0	0.0181818
363	0	0.0181818
364	0	0.0181818
365	0	0.0181818
366	0	0.0181818
367	0	0.0363636
368	0	0.0363636
369	0	0.0363636
370	0	0.0363636
371	0	0.0363636
372	0	0.0363636
373	0	0.0363636
374	0	0.0151515
375	0	0.0151515
376	0	0.0151515
377	0	0.0151515
378	0	0.0151515
379	0	0.0151515
380	0	0.0151515
381	0	0.0151515
382	0	0.0151515
383	0	0.0151515
384	0	0.0151515
385	0	0.0151515
386	0	0.0151515
387	0	0.0151515
388	0	0.0151515
389	0	0.0151515
390	0	0.0151515
391	0	0.0151515
392	0	0.0151515
393	0	0.0151515
394	0	0.0151515
395	0	0.0128205
396	0	0.0128205
397	0	0.0128205
398	0	0.010989
399	0	0.010989
400	0	0.010989
401	0	0.010989
402	0	0.010989
403	0	0.010989
404	0	0.010989
405	0	0.010989
406	0	0.010989
407	0	0.010989
408	0	0.010989
409	0	0.010989
410	0	0.010989
411	0	0.010989
412	0	0.010989
413	0	0.010989
414	0	0.010989
415	0	0.010989
416	0	0.021978
417	0	0.0166667
418	0	0.0130719
419	0	0.0130719
420	0	0.0130719
421	0	0.0105263
422	0	0.00952381
423	0	0.017316
424	0	0.0181159
425	0	0.0181159
426	0	0.10641
427	0	0.144866
428	0	0.0190476
429	0	0.0380952
430	0	0.0514706
431	0	0.0566502
432	0	0.0812808
433	0	0.0514706
434	0	0.052381
435	0	0.0789779
436	0	0.230401
437	0	0.0292398
438	0	0.0457516
439	0	0.0367647
440	0	0.043956
441	0	0.043956
442	0	0.043956
443	0	0.0916667
444	0	0.126316
445	0	0.183186
446	0	0.177419
447	0	0.405909
448	0	0.209302
449	0	0.368298
450	0	0
451	0	0
452	0	0
453	0	0
454	0	0
455	0	0
456	0	0.0222222
457	0	0.0222222
458	0	0
459	0	0
460	0	0
461	0	0
462	0	0
463	0	0
464	0	0
465	0	0
466	0	0
467	0	0
468	0	0
469	0	0
470	0	0
471	0	0
472	0	0
473	0	0
474	0	0
475	0	0
476	0	0
477	0	0
478	0	0
479	0	0
480	0	0
481	0	0
482	0	0
483	0	0
484	0	0
485	0	0
486	0	0
487	0	0
488	0	0
489	0	0
490	0	0
491	0	0
492	0	0
493	0	0
494	0	0
495	0	0
496	0	0
497	0	0
498	0	0
499	0	0
500	0	0
501	0	0
502	0	0
503	0	0
504	0	0
505	0	0
506	0	0
507	0	0
508	0	0
509	0	0
510	0	0
511	0	0
512	0	0
513	0	0
514	0	0
515	0	0
516	0	0
517	0	0
518	0	0
519	0	0
520	0	0
521	0	0
522	0	0
523	0	0
524	0	0
525	0	0
526	0	0
527	0	0
528	0	0
529	0	0.273177
530	0	0.233402
531	0	0.163158
532	0	0.0987903
533	0	0.110887
534	0	0.147619
535	0	0.147619
536	0	0.164502
537	0	0.156667
538	0	0.266353
539	0	0.291829
540	0	0.42277
541	0	0.42277
542	0	0.638441
543	0	0.539294
544	0	0.0888889
545	0	0.0888889
546	0	0.111111
547	0	0.166667
548	0	0.285714
549	0	0
550	0	0
551	0	0
552	0	0
553	0	0
554	0	0
555	0	0
556	0	0
557	0	0
558	0	0
559	0	0
560	0	0
561	0	0
562	0	0
563	0	0
564	0	0
565	0	0
566	0	0
567	0	0
568	0	0
569	0	0
570	0	0
571	0	0
572	0	0
573	0	0
574	0	0
575	0	0
576	0	0
577	0	0
578	0	0
579	0	0
580	0	0
581	0	0
582	0	0
583	0	0
584	0	0
585	0	0
586	0	0
587	0	0
588	0	0
589	0	0
590	0	0
591	0	0
592	0	0
593	0	0
594	0	0
595	0	0
596	0	0
597	0	0
598	0	0
599	0	0
600	0	0
601	0	0
602	0	0
603	0	0
604	0	0
605	0	0
606	0	0
607	0	0
608	0	0
609	0	0
610	0	0
611	0	0
612	0	0
613	0	0
614	0	0
615	0	0
616	0	0
617	0	0
618	0	0
619	0	0
620	0	0
621	0	0
622	0	0
623	0	0
624	0	0
625	0	0
626	0	0
627	0	0
628	0	0
629	0	0
630	0	0
631	0	0.666657
632	0	0.181818
633	0	0.181818
634	0	0.181818
635	0	0
636	0	0
637	0	0
638	0	0
639	0	0
640	0	0
641	0	0
642	0	0
643	0	0
644	0	0
645	0	0
646	0	0
647	0	0
648	0	0
649	0	0
650	0	0
651	0	0
652	0	0
653	0	0
654	0	0
655	0	0
656	0	0
657	0	0.1
658	0	0.1
659	0	0.1
660	0	0.1
661	0	0.731809
662	0	0.809177
663	0	0.1
664	0	0.1
665	0	0.1
666	0	0.1
667	0	0.1
668	0	0.1
669	0	0.1
670	0	0.1
671	0	0.1
672	0	0.1
673	0	0.1
674	0	0.1
675	0	0.1
676	0	0.1
677	0	0.1
678	0	0.1
679	0	0.1
680	0	0.1
681	0	0.1
682	0	0.1
683	0	0.1
684	0	0.1
685	0	0.1
686	0	0.1
687	0	0.1
688	0	0.1
689	0	0.1
690	0	0.1
691	0	0.1
692	0	0.1
693	0	0.1
694	0	0.1
695	0	0.1
696	0	0.1
697	0	0.166667
698	0	0.166667
699	0	0.166667
700	0	0.166667
701	0	0.166667
702	0	0.166667
703	0	0.166667
704	0	0.166667
705	0	0.166667
706	0	0.166667
707	0	0.166667
708	0	0.166667
709	0	0.166667
710	0	0.166667
711	0	0.166667
712	0	0.166667
713	0	0.166667
714	0	0.166667
715	0	0.166667
716	0	0.166667
717	0	0.166667
718	0	0.166667
719	0	0.166667
720	0	0.166667
721	0	0.166667
722	0	0.166667
723	0	0.166667
724	0	0.166667
725	0	0.166667
726	0	0.166667
727	0	0.166667
728	0	0.166667
729	0	0.166667
730	0	0.166667
731	0	0.166667
732	0	0.166667
733	0	0.166667
734	0	0.166667
735	0	0.166667
736	0	0.166667
737	0	0.166667
738	0	0.166667
739	0	0.166667
740	0	0.166667
741	0	0.166667
742	0	0.166667
743	0	0.166667
744	0	0.166667
745	0	0.166667
746	0	0.166667
747	0	0.166667
748	0	0.166667
749	0	0.166667
750	0	0.166667
751	0	0.166667
752	0	0.166667
753	0	0.166667
754	0	0.166667
755	0	0.166667
756	0	0.166667
757	0	0.166667
758	0	0.166667
759	0	0.166667
760	0	0.166667
761	0	0.166667
762	0	0.166667
763	0	0.166667
764	0	0.166667
765	0	0.166667
766	0	0.166667
767	0	0.166667
768	0	0.166667
769	0	0.166667
770	0	0.166667
771	0	0.166667
772	0	0.166667
773	0	0.166667
774	0	0.166667
775	0	0.166667
776	0	0.166667
777	0	0.166667
778	0	0.166667
779	0	0.166667
780	0	0.166667
781	0	0.166667
782	0	0.166667
783	0	0.166667
784	0	0.166667
785	0	0.166667
786	0	0.166667
787	0	0.166667
788	0	0.166667
789	0	0.166667
790	0	0.166667
791	0	0.166667
792	0	0.166667
793	0	0.166667
794	0	0.166667
795	0	0.166667
796	0	0.166667
797	0	0.166667
798	0	0.166667
799	0	0.166667
800	0	0.166667
801	0	0.166667
802	0	0.166667
803	0	0.166667
804	0	0.166667
805	0	0.166667
806	0	0.166667
807	0	0.166667
808	0	0.166667
809	0	0.166667
810	0	0.166667
811	0	0.166667
812	0	0.166667
813	0	0.166667
814	0	0.166667
815	0	0.166667
816	0	0.166667
817	0	0.166667
818	0	0.166667
819	0	0.166667
820	0	0.166667
821	0	0.166667
822	0	0.166667
823	0	0.166667
824	0	0.166667
825	0	0.166667
826	0	0.166667
827	0	0.166667
828	0	0.166667
829	0	0.166667
830	0	0.166667
831	0	0.166667
832	0	0.166667
833	0	0.166667
834	0	0.166667
835	0	0.166667
836	0	0.166667
837	0	0.166667
838	0	0.166667
839	0	0.166667
840	0	0.166667
841	0	0.166667
842	0	0.166667
843	0	0.166667
844	0	0.166667
845	0	0.166667
846	0	0.166667
847	0	0.166667
848	0	0.166667
849	0	0.166667
850	0	0.166667
851	0	0.166667
852	0	0.166667
853	0	0.166667
854	0	0.166667
855	0	0.166667
856	0	0.166667
857	0	0.166667
858	0	0.166667
859	0	0.166667
860	0	0.166667
861	0	0.166667
862	0	0.166667
863	0	0.166667
864	0	0.166667
865	0	0.166667
866	0	0.166667
867	0	0.166667
868	0	0.166667
869	0	0.166667
870	0	0.166667
871	0	0.166667
872	0	0.166667
873	0	0.166667
874	0	0.166667
875	0	0.166667
876	0	0.166667
877	0	0.166667
878	0	0.166667
879	0	0.166667
880	0	0.166667
881	0	0.166667
882	0	0.166667
883	0	0.166667
884	0	0.166667
885	0	0.166667
886	0	0.166667
887	0	0.166667
888	0	0.166667
889	0	0.166667
890	0	0.166667
891	0	0.166667
892	0	0.166667
893	0	0.166667
894	0	0.166667
895	0	0.166667
896	0	0.166667
897	0	0.166667
898	0	0.166667
899	0	0.166667
900	0	0.166667
901	0	0.166667
902	0	0.166667
903	0	0.166667
904	0	0.166667
905	0	0.166667
906	0	0.166667
907	0	0.166667
908	0	0.166667
909	0	0.166667
910	0	0.166667
911	0	0.166667
912	0	0.166667
913	0	0.166667
914	0	0.166667
915	0	0.166667
916	0	0.166667
917	0	0.166667
918	0	0.166667
919	0	0.166667
920	0	0.166667
921	0	0.166667
922	0	0.166667
923	0	0.166667
924	0	0.166667
925	0	0.166667
926	0	0.166667
927	0	0.166667
928	0	0.166667
929	0	0.166667
930	0	0.166667
931	0	0.166667
932	0	0.166667
933	0	0.166667
934	0	0.166667
935	0	0.166667
936	0	0.166667
937	0	0.166667
938	0	0.166667
939	0	0.166667
940	0	0.166667
941	0	0.166667
942	0	0.333333
943	0	0.333333
944	0	0.333333
945	0	0.333333
946	0	0.333333
947	0	0.333333
948	0	0.333333
949	0	0.333333
950	0	0.333333
951	0	0.333333
952	0	0.333333
953	0	0.333333
954	0	0.964661
955	0	0.963005
956	0	0
957	0	0
958	0	0
959	0	0
960	0	0
961	0	0
962	0	0
963	0	0
964	0	0
965	0	0
966	0	0
967	0	0
968	0	0
969	0	0
970	0	0
971	0	0
972	0	0
973	0	0
974	0	0
975	0	0
976	0	0
977	0	0
978	0	0
979	0	0
980	0	0
981	0	0
982	0	0
983	0	0
984	0	0
985	0	0
986	0	0
987	0	0
988	0	0
989	0	0
990	0	0
991	0	0
992	0	0
993	0	0
994	0	0
995	0	0
996	0	0
997	0	0
998	0	0
999	0	0
1000	0	0
1001	0	0
1002	0	0
1003	0	0
1004	0	0
1005	0	0
1006	0	0
1007	0	0
1008	0	0
1009	0	0
1010	0	0
1011	0	0
1012	0	0
1013	0	0
1014	0	0
1015	0	0
1016	0	0
1017	0	0
1018	0	0
1019	0	0
1020	0	0
1021	0	0
1022	0	0
1023	0	0
1024	0	0
1025	0	0
1026	0	0
1027	0	0
1028	0	0
1029	0	0
1030	0	0
1031	0	0
1032	0	0
1033	0	0
1034	0	0
1035	0	0
1036	0	0
1037	0	0
1038	0	0
1039	0	0
1040	0	0
1041	0	0
1042	0	0
1043	0	0
1044	0	0
1045	0	0
1046	0	0
1047	0	0
1048	0	0
1049	0	0
1050	0	0
1051	0	0
1052	0	0
1053	0	0
1054	0	0
1055	0	0
1056	0	0
1057	0	0
1058	0	0
1059	0	0
1060	0	0
1061	0	0.961261
1062	0	0
1063	0	0
1064	0	0
1065	0	0
1066	0	0
1067	0	0
1068	0	0
1069	0	0
1070	0	0
1071	0	0
1072	0	0
1073	0	0
1074	0	0
1075	0	0
1076	0	0
1077	0	0
1078	0	0
1079	0	0
1080	0	0
1081	0	0
1082	0	0
1083	0	0
1084	0	0
1085	0	0
1086	0	0
1087	0	0
1088	0	0
1089	0	0
1090	0	0
1091	0	0
1092	0	0
1093	0	0
1094	0	0
1095	0	0
1096	0	0
1097	0	0
1098	0	0
1099	0	0
1100	0	0
1101	0	0
1102	0	0
1103	0	0
1104	0	0
1105	0	0
1106	0	0
1107	0	0
1108	0	0
1109	0	0
1110	0	0
1111	0	0
1112	0	0
1113	0	0
1114	0	0
1115	0	0
1116	0	0
1117	0	0
1118	0	0
1119	0	0
1120	0	0
1121	0	0
1122	1	0
1123	0	0
1124	0	0
1125	0	0
1126	0	0
1127	0	0
1128	0	0
1129	0	0
1130	0	0
1131	0	0
1132	0	0
1133	0	0
1134	0	0
1135	0	0
1136	0	0
1137	0	0
1138	0	0
1139	0	0
1140	0	0
1141	0	0
1142	0	0
1143	0	0
1144	0	0
1145	0	0
1146	0	0
1147	0	0
1148	0	0
1149	0	0
1150	0	0
1151	0	0
1152	0	0
1153	0	0
1154	0	0
1155	0	0
1156	0	0
1157	0	0
1158	0	0
1159	0	0
1160	0	0
1161	0	0
1162	0	0.96143
1163	1	1
1164	1	1
1165	1	1
1166	1	1
1167	1	1
1168	1	1
1169	1	1
1170	1	1
1171	1	1
1172	1	1
1173	1	1
1174	1	1
1175	1	1
1176	1	1
1177	1	1
1178	1	1
1179	1	1
1180	1	1
1181	1	1
1182	1	1
1183	1	1
1184	1	1
1185	1	1
1186	1	1
1187	1	1
1188	1	1
1189	1	1
1190	1	1
1191	1	1
1192	1	1
1193	1	1
1194	1	1
1195	1	1
1196	1	1
1197	1	1
1198	1	1
1199	1	1
1200	1	1
1201	1	1
1202	1	1
1203	1	1
1204	1	1
1205	1	1
1206	1	1
1207	1	1
1208	1	1
1209	1	1
1210	1	1
1211	1	1
1212	1	1
1213	1	1
1214	1	1
1215	1	1
1216	1	1
1217	1	1
1218	1	1
1219	1	1
1220	1	1
1221	1	1
1222	1	1
1223	1	1
1224	1	1
1225	1	1
1226	1	1
1227	1	1
1228	1	1
1229	1	1
1230	1	1
1231	1	1
1232	1	1
1233	1	1
1234	1	1
1235	1	1
1236	1	1
1237	1	1
1238	1	1
1239	1	1
1240	1	1
1241	1	1
1242	1	1
1243	1	1
1244	1	1
1245	1	1
1246	1	1
1247	1	1
1248	1	1
1249	1	1
1250	1	1
1251	1	1
1252	1	1
1253	1	1
1254	1	1
1255	1	1
1256	1	1
1257	1	1
1258	1	1
1259	1	1
1260	1	1
1261	1	1
1262	1	1
1263	1	1
1264	1	1
1265	1	1
1266	1	1
1267	1	1
1268	1	1
1269	1	1
1270	1	1
1271	1	1
1272	1	1
1273	1	1
1274	1	1
1275	1	1
1276	1	1
1277	1	1
1278	1	1
1279	1	1
1280	1	1
1281	1	1
1282	1	1
1283	1	1
1284	1	1
1285	1	1
1286	1	1
1287	1	1
1288	1	1
1289	1	1
1290	1	1
1291	1	1
1292	1	1
1293	1	1
1294	1	1
1295	1	1
1296	1	1
1297	1	1
1298	1	1
1299	1	1
1300	1	1
1301	1	1
1302	1	1
1303	1	1
1304	1	1
1305	1	1
1306	1	1
1307	1	1
1308	1	1
1309	1	1
1310	1	1
1311	1	1
1312	1	1
1313	1	1
1314	1	1
1315	1	1
1316	1	1
1317	1	1
1318	1	1
1319	1	1
1320	1	1
1321	1	1
1322	1	1
1323	1	1
1324	1	1
1325	1	1
1326	1	1
1327	1	1
1328	1	1
1329	1	1
1330	1	1
1331	1	1
1332	1	1
1333	1	1
1334	1	1
1335	1	1
1336	1	1
1337	1	1
1338	1	1
1339	1	1
1340	1	1
1341	1	1
1342	1	1
1343	1	1
1344	1	1
1345	1	1
1346	1	1
1347	1	1
1348	1	1
1349	1	1
1350	1	1
1351	1	1
1352	1	1
1353	1	1
1354	1	1
1355	1	1
1356	1	1
1357	1	1
1358	1	1
1359	1	1
1360	1	1
1361	1	1
1362	1	1
1363	1	1
1364	1	1
1365	1	1
1366	1	1
1367	1	1
1368	1	1
1369	1	1
1370	1	1
1371	1	1
1372	1	1
1373	1	1
1374	1	1
1375	1	1
1376	1	1
1377	1	1
1378	1	1
1379	1	1
1380	1	1
1381	1	1
1382	1	1
1383	1	1
1384	1	1
1385	1	1
1386	1	1
1387	1	1
1388	1	1
1389	1	1
1390	1	1
1391	1	1
1392	1	1
1393	1	1
1394	1	1
1395	1	1
1396	1	1
1397	1	1
1398	1	1
1399	1	1
1400	1	1
1401	1	1
1402	1	1
1403	1	1
1404	1	1
1405	1	1
1406	1	1
1407	1	1
1408	1	1
1409	1	1
1410	1	1
1411	1	1
1412	1	1
1413	1	1
1414	1	1
1415	1	1
1416	1	1
1417	1	1
1418	1	1
1419	1	1
1420	1	1
1421	1	1
1422	1	1
1423	1	1
1424	1	1
1425	1	1
1426	1	1
1427	1	1
1428	1	1
1429	1	1
1430	1	1
1431	1	1
1432	1	1
1433	1	1
1434	1	1
1435	1	1
1436	1	1
1437	1	1
1438	1	1
1439	1	1
1440	1	1
1441	1	1
1442	1	1
1443	1	1
1444	1	1
1445	1	1
1446	1	1
1447	1	1
1448	1	1
1449	1	1
1450	1	1
1451	1	1
1452	1	1
1453	1	1
1454	1	1
1455	1	1
1456	1	1
1457	1	1
1458	1	1
1459	1	1
1460	0	0
1461	0	0
1462	0	0
1463	0	0
1464	0	0
1465	0	0
1466	0	0
1467	0	0
1468	0	0
1469	0	0
1470	0	0
1471	0	0
1472	0	0
1473	0	0
1474	0	0
1475	0	0
1476	0	0
1477	0	0
1478	0	0
1479	0	0
1480	0	0
1481	0	0
1482	0	0
1483	0	0
1484	0	0
1485	0	0
1486	0	0
1487	0	0
1488	0	0
1489	0	0
1490	0	0
1491	0	0
1492	0	0
1493	0	0
1494	0	0
1495	0	0
1496	0	0
1497	0	0
1498	0	0
1499	0	0
1500	0	0
1501	0	0
1502	0	0
1503	0	0
1504	0	0
1505	0	0
1506	0	0
1507	0	0
1508	0	0
1509	0	0
1510	0	0
1511	0	0
1512	0	0
1513	0	0
1514	0	0
1515	0	0
1516	0	0
1517	0	0
1518	0	0
1519	0	0
1520	0	0
1521	0	0
1522	0	0
1523	0	0
1524	0	0
1525	0	0
1526	0	0
1527	0	0
1528	0	0
1529	0	0
1530	0	0
1531	0	0
1532	0	0
1533	0	0
1534	0	0
1535	0	0
1536	0	0
1537	0	0
1538	0	0
1539	0	0
1540	0	0
1541	0	0
1542	0	0
1543	0	0
1544	0	0
1545	0	0
1546	0	0
1547	0	0
1548	0	0
1549	0	0
1550	0	0
1551	0	0
1552	0	0
1553	0	0
1554	0	0
1555	0	0
1556	0	0
1557	0	0
1558	1	1
1559	1	1
1560	1	1
1561	1	1
1562	1	1
1563	1	1
1564	1	1
1565	1	1
1566	1	1
1567	1	1
1568	1	1
1569	1	1
1570	1	1
1571	1	1
1572	1	1
1573	1	1
1574	1	1
1575	1	1
1576	1	1
1577	1	1
1578	1	1
1579	1	1
1580	1	1
1581	1	1
1582	1	1
1583	1	1
1584	1	1
1585	1	1
1586	1	1
1587	1	1
1588	1	1
1589	1	1
1590	1	1
1591	1	1
1592	1	1
1593	1	1
1594	1	1
1595	1	1
1596	1	1
1597	1	1
1598	1	1
1599	1	1
1600	1	1
1601	1	1
1602	1	1
1603	1	1
1604	1	1
1605	1	1
1606	1	1
1607	1	1
1608	1	1
1609	1	1
1610	1	1
1611	1	1
1612	1	1
1613	1	1
1614	1	1
1615	1	1
1616	1	1
1617	1	1
1618	1	1
1619	1	1
1620	1	1
1621	1	1
1622	1	1
1623	1	1
1624	1	1
1625	1	1
1626	1	1
1627	1	1
1628	1	1
1629	1	1
1630	1	1
1631	1	1
1632	1	1
1633	1	1
1634	1	1
1635	1	1
1636	1	1
1637	1	1
1638	1	1
1639	1	1
1640	1	1
1641	1	1
1642	1	1
1643	1	1
1644	1	1
1645	1	1
1646	1	1
1647	1	1
1648	1	1
1649	1	1
1650	1	1
1651	1	1
1652	1	1
1653	1	1
1654	1	1
1655	1	1
1656	1	1
1657	1	1
1658	1	1
1659	1	1
1660	1	1
1661	1	1
1662	1	1
1663	1	1
1664	1	1
1665	1	1
1666	1	1
1667	1	1
1668	1	1
1669	1	1
1670	1	1
1671	1	1
1672	1	1
1673	1	1
1674	1	1
1675	1	1
1676	1	1
1677	1	1
1678	1	1
1679	1	1
1680	1	1
1681	1	1
1682	1	1
1683	1	1
1684	1	1
1685	1	1
1686	1	1
1687	1	1
1688	1	1
1689	1	1
1690	1	1
1691	1	1
1692	1	1
1693	1	1
1694	1	1
1695	1	1
1696	1	1
1697	1	1
1698	1	1
1699	1	1
1700	1	1
1701	1	1
1702	1	1
1703	1	1
1704	1	1
1705	1	1
1706	1	1
1707	1	1
1708	1	1
1709	1	1
1710	1	1
1711	1	1
1712	1	1
1713	1	1
1714	1	1
1715	1	1
1716	1	1
1717	1	1
1718	1	1
1719	1	1
1720	1	1
1721	1	1
1722	1	1
1723	1	1
1724	1	1
1725	1	1
1726	1	1
1727	1	1
1728	1	1
1729	1	1
1730	1	1
1731	1	1
1732	1	1
1733	1	1
1734	1	1
1735	1	1
1736	1	1
1737	1	1
1738	1	1
1739	1	1
1740	1	1
1741	1	1
1742	1	1
1743	1	1
1744	1	1
1745	1	1
1746	1	1
1747	1	1
1748	1	1
1749	1	1
1750	1	1
1751	1	1
1752	1	1
1753	1	1
1754	1	1
1755	1	1
1756	1	1
1757	1	1
1758	1	1
1759	1	1
1760	1	1
1761	1	1
1762	1	1
1763	1	1
1764	1	1
1765	1	1
1766	1	1
1767	1	1
1768	1	1
1769	1	1
1770	1	1
1771	1	1
1772	1	1
1773	1	1
1774	1	1
1775	1	1
1776	1	1
1777	1	1
1778	1	1
1779	1	1
1780	1	1
1781	1	1
1782	1	1
1783	1	1
1784	1	1
1785	1	1
1786	1	1
1787	1	1
1788	1	1
1789	1	1
1790	1	1
1791	1	1
1792	1	1
1793	1	1
1794	1	1
1795	1	1
1796	1	1
1797	1	1
1798	1	1
1799	1	1
1800	1	1
1801	1	1
1802	1	1
1803	1	1
1804	1	1
1805	1	1
1806	1	1
1807	1	1
1808	1	1
1809	1	1
1810	1	1
1811	1	1
1812	1	1
1813	1	1
1814	1	1
1815	1	1
1816	1	1
1817	1	1
1818	1	1
1819	1	1
1820	1	1
1821	1	1
1822	1	1
1823	1	1
1824	1	1
1825	1	1
1826	1	1
1827	1	1
1828	1	1
1829	1	1
1830	1	1
1831	1	1
1832	1	1
1833	1	1
1834	1	1
1835	1	1
1836	1	1
1837	1	1
1838	1	1
1839	1	1
1840	1	1
1841	1	1
1842	1	1
1843	1	1
1844	1	1
1845	1	1
1846	1	1
1847	1	1
1848	1	1
1849	1	1
1850	1	1
1851	1	1
1852	1	1
1853	1	1
1854	1	1
1855	1	1
1856	1	1
1857	1	1
1858	1	1
1859	1	1
1860	1	1
1861	1	1
1862	1	1
1863	1	1
1864	1	1
1865	1	1
1866	1	1
1867	1	1
1868	1	1
1869	1	1
1870	1	1
1871	1	1
1872	1	1
1873	1	1
1874	1	1
1875	1	1
1876	1	1
1877	1	1
1878	1	1
1879	1	1
1880	1	1
1881	1	1
1882	1	1
1883	0	1
1884	0	1
1885	0	1
1886	0	1
1887	0	1
1888	0	1
1889	0	1
1890	0	1
1891	0	1
1892	0	1
1893	0	1
1894	0	1
1895	0	1
1896	0	1
1897	0	1
1898	0	1
1899	0	1
1900	0	1
1901	0	1
1902	0	1
1903	0	1
1904	0	1
1905	1	1
1906	1	1
1907	1	1
1908	1	1
1909	1	1
1910	1	1
1911	1	1
1912	1	1
1913	1	1
1914	1	1
1915	1	1
1916	1	1
1917	1	1
1918	1	1
1919	1	1
1920	1	1
1921	1	1
1922	1	1
1923	1	1
1924	1	1
1925	1	1
1926	1	1
1927	1	1
1928	1	1
1929	1	1
1930	1	1
1931	1	1
1932	1	1
1933	1	1
1934	1	1
1935	1	1
1936	1	1
1937	1	1
1938	1	1
1939	1	1
1940	1	1
1941	0	1
1942	0	1
1943	0	1
1944	1	1
1945	1	1
1946	1	1
1947	0	1
1948	0	1
1949	0	1
1950	0	1
1951	0	1
1952	0	1
1953	0	1
1954	0	1
1955	0	1
1956	0	1
1957	0	1
1958	0	1
1959	0	1
1960	0	1
1961	0	1
1962	0	1
1963	0	1
1964	0	1
1965	0	1
1966	1	1
1967	0	1
1968	0	1
1969	1	1
1970	1	1
1971	1	1
1972	1	1
1973	1	1
1974	1	1
1975	0	1
1976	0	1
1977	0	1
1978	0	1
1979	0	1
1980	0	1
1981	0	1
1982	0	1
1983	0	1
1984	0	1
1985	0	1
1986	0	1
1987	0	1
1988	0	1
1989	0	1
1990	0	1
1991	0	1
1992	0	1
1993	0	1
1994	0	1
1995	0	1
1996	0	1
1997	0	1
1998	0	1
1999	0	1
2000	1	1
2001	1	1
2002	1	1
2003	1	1
2004	1	1
2005	1	1
2006	1	1
2007	1	1
2008	1	1
2009	1	1
2010	1	1
2011	1	1
2012	1	1
2013	1	1
2014	1	1
2015	1	1
2016	0	1
2017	0	1
2018	0	1
2019	0	1
2020	0	1
2021	0	1
2022	0	1
2023	0	1
2024	0	1
2025	0	1
2026	0	1
2027	0	1
2028	0	1
2029	1	1
2030	1	1
2031	1	1
2032	1	1
2033	1	1
2034	1	1
2035	1	1
2036	1	1
2037	1	1
2038	1	1
2039	1	1
2040	1	1
2041	1	1
2042	1	1
2043	0	1
2044	0	1
2045	0	1
2046	0	1
2047	0	1
2048	0	1
2049	0	1
2050	0	1
2051	0	1
2052	0	1
2053	0	1
2054	1	1
2055	1	1
2056	1	1
2057	1	1
2058	1	1
2059	1	1
2060	1	1
2061	1	1
2062	1	1
2063	1	1
2064	0	1
2065	0	1
2066	0	0
2067	0	0
2068	0	0
2069	0	0
2070	0	0
2071	0	0
2072	0	0
2073	0	0
2074	0	0
2075	0	0
2076	0	0
2077	0	0
2078	0	0
2079	0	0
2080	0	0
2081	0	0
2082	0	0
2083	0	0
2084	0	0
2085	0	0
2086	0	0
2087	0	0
2088	0	0
2089	0	0
2090	0	0
2091	0	0
2092	0	0
2093	0	0
2094	0	0
2095	0	0
2096	0	0
2097	0	0
2098	0	0
2099	0	0
2100	0	0
2101	0	0
2102	0	0
2103	0	0
2104	0	0
2105	0	0
2106	0	0
2107	0	0
2108	0	0
2109	0	0
2110	0	0
2111	0	0
2112	0	0
2113	0	0
2114	0	0
2115	0	0
2116	0	0
2117	0	0
2118	0	0
2119	0	0
2120	0	0
2121	0	0
2122	0	0
2123	0	0
2124	0	0
2125	0	0
2126	0	0
2127	0	0
2128	0	0
2129	0	0
2130	0	0
2131	0	0
2132	0	0
2133	0	0
2134	0	0
2135	0	0
2136	0	0
2137	0	0
2138	0	0
2139	0	0
2140	0	0
2141	0	0
2142	0	0
2143	0	0
2144	0	0
2145	0	0
2146	0	0
2147	0	0
2148	0	0
2149	0	0
2150	0	0
2151	0	0
2152	0	0
2153	0	0
2154	0	0
2155	0	0
2156	0	0
2157	0	0
2158	0	0
2159	0	0
2160	0	0
2161	0	0
2162	0	0
2163	0	0
2164	0	0
2165	0	0
2166	0	0
2167	0	0
2168	0	0
2169	0	0
2170	0	0
2171	0	0
2172	0	0
2173	0	0
2174	0	0
2175	0	0
2176	0	0
2177	0	0
2178	0	0
2179	0	0
2180	0	0
2181	0	0
2182	0	0
2183	0	0
2184	0	0
2185	0	0
2186	0	0
2187	0	0
2188	0	0
2189	0	0
2190	0	0
2191	0	0
2192	0	0
2193	0	0
2194	0	0
2195	0	0
2196	0	0
2197	0	0
2198	0	0
2199	0	0
2200	0	0
2201	0	0
2202	0	0
2203	0	0
2204	0	0
2205	0	0
2206	0	0
2207	0	0
2208	0	0
2209	0	0
2210	0	0
2211	0	0
2212	0	0
2213	0	0
2214	0	0
2215	0	0
2216	0	0
2217	0	0
2218	0	0
2219	0	0
2220	0	0
2221	0	0
2222	0	0
2223	0	0
2224	0	0
2225	0	0
2226	0	0
2227	0	0
2228	0	0
2229	0	0
2230	0	0
2231	0	0
2232	0	0
2233	0	0
2234	0	0
2235	0	0
2236	0	0
2237	0	0
2238	0	0
2239	0	0
2240	0	0
2241	0	0
2242	0	0
2243	0	0
2244	0	0
2245	0	0
2246	0	0
2247	0	0
2248	0	0
2249	0	0
2250	0	0
2251	0	0
2252	0	0
2253	0	0
2254	0	0
2255	0	0
2256	0	0
2257	0	0
2258	0	0
2259	0	0
2260	0	0
2261	0	0
2262	0	0
2263	0	0
2264	0	0
2265	0	0
2266	0	0
2267	0	0
2268	0	0
2269	0	0
2270	0	0
2271	0	0
2272	0	0
2273	0	0
2274	0	0
2275	0	0
2276	0	0
2277	0	0
2278	0	0
2279	0	0
2280	0	0
2281	0	0
2282	0	0
2283	0	0
2284	0	0
2285	0	0
2286	0	0
2287	0	0
2288	0	0
2289	0	0
2290	0	0
2291	0	0
2292	0	0
2293	0	0
2294	0	0
2295	0	0
2296	0	0
2297	0	0
2298	0	0
2299	0	0
2300	0	0
2301	0	0
2302	0	0
2303	0	0
2304	0	0
2305	0	0
2306	0	0
2307	0	0
2308	0	0
2309	0	0
2310	0	0
2311	0	0
2312	0	0
2313	0	0
2314	0	0
2315	0	0
2316	0	0
2317	0	0
2318	0	0
2319	0	0
2320	0	0
2321	0	0
2322	0	0
2323	0	0
2324	0	0
2325	0	0
2326	0	0
2327	0	0
2328	0	0
2329	0	0
2330	0	0
2331	0	0
2332	0	0
2333	0	0
2334	0	0
2335	0	0
2336	0	0
2337	0	0
2338	0	0
2339	0	0
2340	0	0
2341	0	0
2342	0	0
2343	0	0
2344	0	0
2345	0	0
2346	0	0
2347	0	0
2348	0	0
2349	0	0
2350	0	0
2351	0	0
2352	0	0
2353	0	0
2354	0	0
2355	0	0
2356	0	0
2357	0	0
2358	0	0
2359	0	0
2360	0	0
2361	0	0
2362	0	0
2363	0	0
2364	0	0
2365	0	0
2366	0	0
2367	0	0
2368	0	0
2369	0	0
2370	0	0
2371	0	0
2372	0	0
2373	0	0
2374	0	0
2375	0	0
2376	0	0
2377	0	0
2378	0	0
2379	0	0
2380	0	0
2381	0	0
2382	0	0
2383	0	0
2384	0	0
2385	0	0
2386	0	0
2387	0	0
2388	0	0
2389	0	0
2390	0	0
2391	0	0
2392	0	0
2393	0	0
2394	0	0
2395	0	0
2396	0	0
2397	0	0
2398	0	0
2399	0	0
2400	0	0
2401	0	0
2402	0	0
2403	0	0
2404	0	0
2405	0	0
2406	0	0
2407	0	0
2408	0	0
2409	0	0
2410	0	0
2411	0	0
2412	0	0
2413	0	0
2414	0	0
2415	0	0
2416	0	0
2417	0	0
2418	0	0
2419	0	0
2420	0	0
2421	0	0
2422	0	0
2423	0	0
2424	0	0
2425	0	0
2426	0	0
2427	0	0
2428	0	0
2429	0	0
2430	0	0
2431	0	0
2432	0	0
2433	0	0
2434	0	0
2435	0	0
2436	0	0
2437	0	0
2438	0	0
2439	0	0
2440	0	0
2441	0	0
2442	0	0
2443	0	0
2444	0	0
2445	0	0
2446	0	0
2447	0	0
2448	0	0
2449	0	0
2450	0	0
2451	0	0
2452	0	0
2453	0	0
2454	0	0
2455	0	0
2456	0	0
2457	0	0
2458	0	0
2459	0	0
2460	0	0
2461	0	0
2462	0	0
2463	0	0
2464	0	0
2465	0	0
2466	0	0
2467	0	0
2468	0	0
2469	0	0
2470	0	0
2471	0	0
2472	0	0
2473	0	0
2474	0	0
2475	0	0
2476	0	0
2477	0	0
2478	0	0
2479	0	0
2480	0	0
2481	0	0
2482	0	0
2483	0	0
2484	0	0
2485	0	0
2486	0	0
2487	0	0
2488	0	0
2489	0	0
2490	0	0
2491	0	0
2492	0	0
2493	0	0
2494	0	0
2495	0	0
2496	0	0
2497	0	0
2498	0	0
2499	0	0
2500	0	0
2501	0	0
2502	0	0
2503	0	0
2504	0	0
2505	0	0
2506	0	0
2507	0	0
2508	0	0
2509	0	0
2510	0	0
2511	0	0
2512	0	0
2513	0	0
2514	0	0
2515	0	0
2516	0	0
2517	0	0
2518	0	0
2519	0	0
2520	0	0
2521	0	0
2522	0	0
2523	0	0
2524	0	0
2525	0	0
2526	0	0
2527	0	0
2528	0	0
2529	0	0
2530	0	0
2531	0	0
2532	0	0
2533	0	0
2534	0	0
2535	0	0
2536	0	0
2537	0	0
2538	0	0
2539	0	0
2540	0	0
2541	0	0
2542	0	0
2543	0	0
2544	0	0
2545	0	0
2546	0	0
2547	0	0
2548	0	0
2549	0	0
2550	0	0
2551	0	0
2552	0	0
2553	0	0
2554	0	0
2555	0	0
2556	0	0
2557	0	0
2558	0	0
2559	0	0
2560	0	0
2561	0	0
2562	0	0
2563	0	0
2564	0	0
2565	0	0
2566	0	0
2567	0	0
2568	0	0
2569	0	0
2570	0	0
2571	0	0
2572	0	0
2573	0	0
2574	0	0.166667
2575	0	0.166667
2576	0	0.166667
2577	0	0.166667
2578	0	0.166667
2579	0	0.166667
2580	0	0.166667
2581	0	0.166667
2582	0	0.166667
2583	0	0.166667
2584	0	0.166667
2585	0	0.166667
2586	0	0.166667
2587	0	0.166667
2588	0	0.166667
2589	0	0.3
2590	0	0.3
2591	0	0.3
2592	0	0.3
2593	0	0.3
2594	0	0.3
2595	0	0.3
2596	0	0.190476
2597	0	0.285714
2598	0	0.321429
2599	0	0.321429
2600	0	0.75
2601	0	0.75
2602	0	0.75
2603	0	0.583333
2604	0	0.583333
2605	0	0.813427
2606	0	0.333333
2607	0	0.285714
2608	0	0.4
2609	0	0.285714
2610	0	0.285714
2611	0	0.285714
2612	0	0.285714
2613	0	0.285714
2614	0	0.3
2615	0	0.5
2616	0	0.5
2617	0	0.3
2618	0	0.1
2619	0	0.1
2620	0	0.1
2621	0	0.1
2622	0	0.1
2623	0	0.1
2624	0	0
2625	0	0.1
2626	0	0.1
2627	0	0.1
2628	0	0.1
2629	0	0
2630	0	0
2631	0	0
2632	0	0
2633	0	0
2634	0	0
2635	0	0
2636	0	0
2637	0	0.492374
2638	0	0.975347
2639	0	0
2640	0	0
2641	0	0
2642	0	0
2643	0	0
2644	0	0
2645	0	0
2646	0	0
2647	0	0
2648	0	0
2649	0	0.977078
2650	0	0
2651	0	0
2652	0	0
2653	0	0
2654	0	0
2655	0	0
2656	0	0
2657	0	0
2658	0	0
2659	0	0
2660	0	0
2661	0	0
2662	0	0
2663	0	0
2664	0	0
2665	0	0
2666	0	0
2667	0	0
2668	0	0
2669	0	0
2670	0	0
2671	0	0.97187
2672	0	0
2673	0	0
2674	0	0.971846
2675	0	0.973571
2676	0	0.973574
2677	0	0.971826
2678	0	0
2679	0	0
2680	0	0
2681	0	0
2682	0	0
2683	0	0
2684	0	0
2685	0	0
2686	0	0
2687	0	0
2688	0	0
2689	0	0
2690	0	0
2691	0	0
2692	0	0
2693	0	0
2694	0	0
2695	0	0
2696	0	0
2697	0	0
2698	0	0
2699	0	0
2700	0	0
2701	0	0
2702	0	0
2703	0	0
2704	0	0
2705	0	0
2706	0	0
2707	0	0
2708	0	0
2709	0	0
2710	0	0
2711	0	0
2712	0	0
2713	0	0
2714	0	0
2715	0	0
2716	0	0
2717	0	0
2718	0	0
2719	0	0
2720	0	0
2721	0	0
2722	0	0
2723	0	0
2724	0	0
2725	0	0
2726	0	0
2727	0	0
2728	0	0
2729	0	0
2730	0	0
2731	0	0
2732	0	0
2733	0	0
2734	0	0
2735	0	0
2736	0	0
2737	0	0
2738	0	0
2739	0	0
2740	0	0
2741	0	0
2742	0	0
2743	0	0
2744	0	0
2745	0	0
2746	0	0
2747	0	0
2748	0	0
2749	0	0
2750	0	0
2751	0	0
2752	0	0
2753	0	0
2754	0	0
2755	0	0
2756	0	0
2757	0	0
2758	0	0
2759	0	0
2760	0	0
2761	0	0
2762	0	0
2763	0	0
2764	0	0
2765	0	0
2766	0	0
2767	0	0
2768	0	0
2769	0	0
2770	0	0
2771	0	0
2772	0	0
2773	0	0
2774	0	0
2775	0	0
2776	0	0
2777	0	0
2778	0	0
2779	0	0
2780	0	0
2781	0	0.515913
2782	0	0.950991
2783	0	0.971794
2784	0	0.973523
2785	0	0.966537
2786	0	0.754839
2787	0	0.754839
2788	0	0.54955
2789	0	0.54955
2790	0	0.436702
2791	0	0.436702
2792	0	0.387597
2793	0	0.307823
2794	0	0.285859
2795	0	0.261099
2796	0	0.359886
2797	0	0.273077
2798	0	0.229487
2799	0	0.239024
2800	0	0.142461
2801	0	0.151711
2802	0	0.136364
2803	0	0.156794
2804	0	0.173171
2805	0	0.207317
2806	0	0.207317
2807	0	0.228205
2808	0	0.253201
2809	0	0.267425
2810	0	0.282282
2811	0	0.285285
2812	0	0.318318
2813	0	0.335385
2814	0	0.047619
2815	0	0.0666667
2816	0	0.0666667
2817	0	0.0666667
2818	0	0.1
2819	0	0.1
2820	0	0.1
2821	0	0.1
2822	0	0.1
2823	0	0
2824	0	0
2825	0	0
2826	0	0
2827	0	0
2828	0	0
2829	0	0
2830	0	0
2831	0	0
2832	0	0
2833	0	0
2834	0	0
2835	0	0
2836	0	0
2837	0	0
2838	0	0
2839	0	0
2840	0	0
2841	0	0
2842	0	0
2843	0	0
2844	0	0
2845	0	0
2846	0	0
2847	0	0
2848	0	0
2849	0	0
2850	0	0
2851	0	0
2852	0	0
2853	0	0
2854	0	0
2855	0	0
2856	0	0
2857	0	0
2858	0	0
2859	0	0
2860	0	0
2861	0	0
2862	0	0
2863	0	0
2864	0	0
2865	0	0
2866	0	0
2867	0	0
2868	0	0
2869	0	0
2870	0	0
2871	0	0
2872	0	0
2873	0	0
2874	0	0
2875	0	0
2876	0	0
2877	0	0
2878	0	0
2879	0	0
2880	0	0
2881	0	0
2882	0	0
2883	0	0
2884	0	0
2885	0	0
2886	0	0
2887	0	0
2888	0	0
2889	0	0
2890	0	0
2891	0	0
2892	0	0
2893	0	0
2894	0	0
2895	0	0
2896	0	0
2897	0	0
2898	0	0
2899	0	0
2900	0	0
2901	0	0
2902	0	0
2903	0	0
2904	0	0
2905	0	0
2906	0	0
2907	0	0
2908	0	0
2909	0	0
2910	0	0
2911	0	0
2912	0	0
2913	0	0
2914	0	0
2915	0	0
2916	0	0
2917	0	0
2918	0	0
2919	0	0
2920	0	0
2921	0	0
2922	0	0
2923	0	0
2924	0	0
2925	0	0
2926	0	0
2927	0	0
2928	0	0
2929	0	0
2930	0	0
2931	0	0
2932	0	0
2933	0	0
2934	0	0
2935	0	0
2936	0	0
2937	0	0
2938	0	0
2939	0	0
2940	0	0
2941	0	0
2942	0	0
2943	0	0
2944	0	0
2945	0	0
2946	0	0
2947	0	0
2948	0	0
2949	0	0
2950	0	0
2951	0	0
2952	0	0
2953	0	0
2954	0	0
2955	0	0
2956	0	0
2957	0	0
2958	0	0
2959	0	0
2960	0	0
2961	0	0
2962	0	0
2963	0	0
2964	0	0
2965	0	0
2966	0	0
2967	0	0
2968	0	0
2969	0	0
2970	0	0
2971	0	0
2972	0	0
2973	0	0
2974	0	0
2975	0	0
2976	0	0
2977	0	0
2978	0	0
2979	0	0
2980	0	0
2981	0	0
2982	0	0
2983	0	0
2984	0	0
2985	0	0
2986	0	0
2987	0	0
2988	0	0
2989	0	0
2990	0	0
2991	0	0
2992	0	0
2993	0	0
2994	0	0
2995	0	0
2996	0	0
2997	0	0
2998	0	0
2999	0	0
3000	0	0
3001	0	0
3002	0	0
3003	0	0
3004	0	0
3005	0	0
3006	0	0
3007	0	0.333333
3008	0	0.333333
3009	0	0.166667
3010	0	0.1
3011	0	0.0952381
3012	0	0.466667
3013	0	0.699207
3014	0	0.666667
3015	0	1
3016	0	1
3017	0	0.4
3018	0	0.4
3019	0	1
3020	0	1
3021	0	1
3022	0	0.996452
3023	0	0.996452
3024	0	0.996452
3025	0	0.996452
3026	0	0.996449
3027	0	0.998227
3028	0	0.99823
3029	0	0.996465
3030	0	0.996465
3031	0	0.996465
3032	0	0.996465
3033	0	0.996465
3034	0	0.996465
3035	0	0.996465
3036	0	0
3037	0	0
3038	0	0
3039	0	0
3040	0	0
3041	0	0
3042	0	0
3043	0	0
3044	0	0
3045	0	0
3046	0	0
3047	0	0
3048	0	0
3049	0	0
3050	0	0
3051	0	0
3052	0	0
3053	0	0
3054	0	0
3055	0	0
3056	0	0
3057	0	0
3058	0	0
3059	0	0
3060	0	0
3061	0	0
3062	0	0
3063	0	0
3064	0	0
3065	0	0
3066	0	0
3067	0	0
3068	0	0
3069	0	0
3070	0	0
3071	0	0
3072	0	0
3073	0	0
3074	0	0
3075	0	0
3076	0	0
3077	0	0
3078	0	0
3079	0	0
3080	0	0
3081	0	0
3082	0	0
3083	0	0
3084	0	0
3085	0	0
3086	0	0
3087	0	0
3088	0	0
3089	0	0
3090	0	0
3091	0	0
3092	0	0
3093	0	0
3094	0	0.99823
3095	0	0.99823
3096	0	0.99823
3097	0	0.99823
3098	0	0.99823
3099	0	0.99823
3100	0	0
3101	0	0
3102	0	0
3103	0	0
3104	0	0
3105	0	0
3106	0	0
3107	0	0
3108	0	0
3109	0	0
3110	0	0
3111	0	0
3112	0	0
3113	0	0
3114	0	0
3115	0	0
3116	0	0
3117	0	0
3118	0	0
3119	0	0
3120	0	0
3121	0	0
3122	0	0
3123	0	0
3124	0	0
3125	0	0
3126	0	0
3127	0	0
3128	0	0
3129	0	0
3130	0	0
3131	0	0
3132	0	0
3133	0	0
3134	0	0
3135	0	0
3136	0	0
3137	0	0
3138	0	0
3139	0	0
3140	0	0
3141	0	0
3142	0	0
3143	0	0
3144	0	0
3145	0	0
3146	0	0
3147	0	0
3148	0	0
3149	0	0
3150	0	0
3151	0	0
3152	0	0
3153	0	0
3154	0	0
3155	0	0
3156	0	0
3157	0	0
3158	0	0
3159	0	0
3160	0	0
3161	0	0
3162	0	0
3163	0	0
3164	0	0
3165	0	0
3166	0	0
3167	0	0
3168	0	0
3169	0	0
3170	0	0
3171	0	0
3172	1	0
3173	1	0
3174	1	0
3175	1	0
3176	1	0
3177	1	0
3178	1	0
3179	1	0
3180	1	0
3181	1	0
3182	1	0
3183	1	0
3184	1	0
3185	1	0
3186	1	0
3187	1	0
3188	1	0
3189	1	0
3190	1	0
3191	1	0
3192	1	0
3193	1	0
3194	1	0
3195	0	0
3196	0	0
3197	0	0
3198	0	0
3199	0	0
3200	0	0
3201	0	0.998232
3202	0	0.996468
3203	0	0.996468
3204	0	0.996468
3205	0	0.996468
3206	0	0.996468
3207	0	0.996468
3208	0	0.996468
3209	0	0.996468
3210	0	1
3211	0	1
3212	0	1
3213	0	0.333333
3214	0	0.333333
3215	0	0.333333
3216	0	0
3217	0	0
3218	0	0
3219	0	0
3220	0	0
3221	0	0
3222	0	0
3223	0	0
3224	0	0
3225	0	0
3226	0	0
3227	0	0
3228	0	0
3229	0	0
3230	0	0.989415
3231	0	0.971991
3232	0	0.474359
3233	0	0.281046
3234	0	0.628388
3235	0	0
3236	0	0
3237	0	0
3238	0	0
3239	0	0
3240	0	0
3241	0	0
3242	0	0
3243	0	0
3244	0	0
3245	0	0
3246	0	0
3247	0	0
3248	0	0
3249	0	0
3250	0	0
3251	0	0
3252	0	0
3253	0	0
3254	0	0
3255	1	0
3256	1	0
3257	1	0
3258	1	0
3259	1	0
3260	1	0
3261	1	0
3262	1	0
3263	1	0
3264	0	0
3265	0	0
3266	0	0
3267	0	0
3268	0	0
3269	0	0
3270	0	0
3271	0	0
3272	0	0
3273	0	0
3274	0	0
3275	0	0
3276	0	0.0666667
3277	0	0.0666667
3278	0	0.047619
3279	0	0.047619
3280	0	0.047619
3281	0	0.0714286
3282	0	0.0555556
3283	0	0.0555556
3284	0	0.0545455
3285	0	0.127273
3286	0	0.2
3287	0	0.242424
3288	0	0.205128
3289	0	0.383333
3290	0	0.345029
3291	0	0.390476
3292	0	0.514286
3293	0	0.444444
3294	0	0.902998
3295	0	0.818548
3296	0	0.818548
3297	0	0.951455
3298	0	0
3299	0	0
3300	0	0
3301	0	0
3302	0	0
3303	0	0
3304	0	0
3305	0	0
3306	0	0
3307	0	0.333333
3308	0	0.956638
3309	0	0.762846
3310	0	1
3311	0	0.994725
3312	0	0
3313	0	0
3314	0	0
3315	0	0
3316	1	1
3317	1	1
3318	1	1
3319	1	1
3320	1	1
3321	1	1
3322	1	1
3323	1	1
3324	1	1
3325	1	1
3326	1	1
3327	1	1
3328	1	1
3329	1	1
3330	1	1
3331	1	1
3332	1	1
3333	1	1
3334	1	1
3335	0	1
3336	1	1
3337	1	1
3338	1	1
3339	1	1
3340	1	1
3341	1	1
3342	1	1
3343	1	1
3344	1	1
3345	1	1
3346	1	1
3347	1	1
3348	1	1
3349	1	1
3350	1	1
3351	1	1
3352	1	1
3353	0	1
3354	0	0.996494
3355	1	1
3356	1	1
3357	1	1
3358	0	1
3359	0	0.998244
3360	0	0.998244
3361	0	1
3362	0	1
3363	1	1
3364	0	0.6
3365	0	0.6
3366	1	1
3367	1	1
3368	1	1
3369	1	1
3370	1	1
3371	0	0.5
3372	0	0.166667
3373	0	0.166667
3374	0	0.333333
3375	0	0
3376	0	0
3377	0	0
3378	1	0
3379	1	0
3380	1	0
3381	1	0
3382	1	0
3383	1	0
3384	1	0
3385	1	0
3386	1	0
3387	1	0
3388	1	0
3389	1	0
3390	1	0
3391	0	0
3392	0	0
3393	0	0
3394	0	0
3395	0	0.878284
3396	0	1
3397	0	0.998247
3398	0	0.998247
3399	0	0.998247
3400	0	0.998247
3401	0	1
3402	0	1
3403	0	1
3404	0	1
3405	0	1
3406	0	1
3407	0	1
3408	0	0.998247
3409	0	0.998247
3410	0	0.998241
3411	0	0.998239
3412	0	0.998239
3413	0	0.998239
3414	0	0.998238
3415	0	0.998238
3416	0	1
3417	0	1
3418	0	1
3419	0	1
3420	0	1
3421	0	1
3422	0	1
3423	0	0.333333
3424	0	0.333333
3425	0	0.2
3426	0	0.133333
3427	0	0.984643
3428	0	1
3429	0	1
3430	0	1
3431	0	1
3432	0	1
3433	0	1
3434	0	0.754941
3435	0	0.612648
3436	0	0.281046
3437	0	0.409091
3438	0	0.4
3439	0	0.214286
3440	0	0.166667
3441	0	0.047619
3442	0	0.0714286
3443	0	0.111111
3444	0	0.785598
3445	0	0.777921
3446	0	0
3447	0	0
3448	0	0
3449	0	0
3450	0	0
3451	0	0
3452	0	0
3453	0	0
3454	0	0
3455	0	0
3456	0	0
3457	0	0.1
3458	0	0.0666667
3459	0	0.0714286
3460	0	0.0444444
3461	0	0.169118
3462	0	0.272727
3463	0	0.760149
3464	0	0.758649
3465	0	0.750518
3466	0	0.630435
3467	0	0.415584
3468	0	0.54386
3469	0	0.522876
3470	0	0.522876
3471	0	0.5
3472	0	0.596854
3473	0	0.503884
3474	0	0
3475	0	0
3476	0	0
3477	0	0.544687
3478	0	0.161765
3479	0	0.161765
3480	0	0.161765
3481	0	0.161765
3482	0	0.169118
3483	0	0.779086
3484	0	0.429692
3485	0	0.469747
3486	0	0.267569
3487	0	0.0533333
3488	0	0.057971
3489	0	0.057971
3490	0	0.057971
3491	0	0.0543478
3492	0	0.0543478
3493	0	0.223287
3494	0	0.323344
3495	0	0.286181
3496	0	0.277439
3497	0	0.199461
3498	0	0.187128
3499	0	0.246154
3500	0	0.264881
3501	0	0.257212
3502	0	0.257212
3503	0	0.142703
3504	0	0.132451
3505	0	0
3506	0	0
3507	0	0
3508	0	0
3509	0	0
3510	0	0
3511	0	0.0661765
3512	0	0.0367647
3513	0	0.0367647
3514	0	0.0367647
3515	0	0.0367647
3516	0	0.17724
3517	0	0.444546
3518	0	0
3519	0	0
3520	0	0
3521	0	0
3522	0	0
3523	0	0
3524	0	0
3525	0	0
3526	0	0
3527	0	0
3528	0	0
3529	0	0
3530	0	0
3531	0	0
3532	0	0
3533	0	0
3534	0	0
3535	0	0
3536	0	0.137426
3537	0	0.0277778
3538	0	0.183824
3539	0	0.163399
3540	0	0.143781
3541	0	0
3542	0	0
3543	0	0
3544	0	0.0888889
3545	0	0.0620408
3546	0	0.257666
3547	0	0.244758
3548	0	0.407207
3549	0	0.12656
3550	0	0.122995
3551	0	0.0802139
3552	0	0.0944742
3553	0	0.137255
3554	0	0.244833
3555	0	0
3556	0	0
3557	0	0
3558	0	0
3559	0	0
3560	0	0
3561	0	0
3562	0	0
3563	0	0
3564	0	0
3565	0	0
3566	0	0
3567	0	0
3568	0	0
3569	0	0
3570	0	0
3571	0	0.320951
3572	0	0.255082
3573	0	0.2
3574	0	0.208602
3575	0	0.256048
3576	0	0.388414
3577	0	0.47271
3578	0	0.567376
3579	0	0.59953
3580	0	0.92756
3581	0	0.94069
3582	0	0.945584
3583	0	0.984665
3584	0	0
3585	0	0
3586	0	0
3587	0	0
3588	0	0
3589	0	0
3590	0	0
3591	0	0
3592	0	0
3593	0	0
3594	0	0
3595	0	0
3596	0	0
3597	0	0
3598	0	0
3599	0	0
3600	0	0
3601	0	0.984236
3602	0	1
3603	1	1
3604	1	1
3605	1	1
3606	1	1
3607	1	1
3608	1	1
3609	0	1
3610	0	0.99825
3611	0	0.99825
3612	0	0.99825
3613	0	0.99825
3614	0	1
3615	0	1
3616	1	1
3617	1	1
3618	1	1
3619	1	1
3620	1	1
3621	1	1
3622	1	1
3623	1	1
3624	1	1
3625	1	1
3626	1	1
3627	1	1
3628	1	1
3629	1	1
3630	1	1
3631	1	1
3632	1	1
3633	1	1
3634	1	1
3635	1	1
3636	1	1
3637	1	1
3638	1	1
3639	1	1
3640	1	1
3641	1	1
3642	1	1
3643	1	1
3644	1	1
3645	1	1
3646	1	1
3647	1	1
3648	1	1
3649	1	1
3650	1	1
3651	1	1
3652	1	1
3653	0	1
3654	0	1
3655	0	1
3656	0	1
3657	0	1
3658	0	1
3659	0	1
3660	0	1
3661	1	1
3662	1	1
3663	1	1
3664	1	1
3665	0	1
3666	1	1
3667	1	1
3668	0	0
3669	0	0
3670	0	0
3671	0	0
3672	0	0
3673	1	0
3674	1	0
3675	1	0
3676	1	0
3677	1	0
3678	1	0
3679	1	0
3680	1	0
3681	0	0
3682	0	0
3683	0	0
3684	0	0
3685	0	0
3686	0	0.968947
3687	0	0.99825
3688	0	0.99825
3689	0	0.99825
3690	0	0.99825
3691	0	0.99825
3692	0	0.99825
3693	0	0.99825
3694	0	0.99825
3695	0	0.99825
3696	0	0.998253
3697	0	1
3698	0	1
3699	0	0.998253
3700	0	0.996508
3701	0	0.998252
3702	0	0.998252
3703	0	0.998252
3704	0	0.998252
3705	0	0.998252
3706	0	0.998252
3707	0	0.998252
3708	0	0.998252
3709	0	0.998252
3710	0	0.99825
3711	0	0.998252
3712	0	0.99825
3713	0	1
3714	0	1
3715	0	1
3716	0	1
3717	0	1
3718	0	1
3719	0	1
3720	1	1
3721	0	0.998247
3722	0	0.998247
3723	0	0.998247
3724	0	0.998247
3725	0	0.998247
3726	0	0.998247
3727	0	0.998247
3728	0	0.998247
3729	0	0.99825
3730	0	0.998247
3731	0	0.998247
3732	0	0.998247
3733	0	0.998247
3734	0	0.998247
3735	0	1
3736	0	1
3737	0	0.998247
3738	0	0.996496
3739	0	0.996496
3740	0	0.994746
3741	0	1
3742	0	1
3743	0	1
3744	0	1
3745	0	0.6
3746	0	0.5
3747	0	0.5
3748	0	0.5
3749	0	0.166667
3750	0	0.166667
3751	0	0.166667
3752	0	0.333333
3753	0	0.333333
3754	0	0.333333
3755	0	0.166667
3756	0	0.166667
3757	0	0
3758	0	0
3759	0	0
3760	0	0
3761	0	0
3762	0	0
3763	0	0
3764	0	0
3765	0	0
3766	0	0
3767	0	0
3768	0	0
3769	0	0
3770	0	0
3771	0	0
3772	0	0
3773	0	0
3774	0	0
3775	0	0
3776	0	0
3777	0	0
3778	0	0
3779	0	0.40486
3780	0	0.333333
3781	0	0.998249
3782	0	0
3783	0	0
3784	0	1
3785	0	0.99825
3786	0	0.99825
3787	0	0.99825
3788	1	1
3789	1	1
3790	0	0.998252
3791	0	0.998252
3792	0	0.998252
3793	0	0.998252
3794	0	0.99825
3795	0	1
3796	0	1
3797	0	1
3798	0	1
3799	0	1
3800	0	0.998252
3801	0	0.998252
3802	0	0.998252
3803	0	0.998252
3804	0	0.998252
3805	0	0.998249
3806	0	0.998249
3807	0	0.996502
3808	0	0.99825
3809	0	0.99825
3810	0	0.99825
3811	0	0.99825
3812	0	0.99825
3813	0	0.99825
3814	0	0.99825
3815	0	0.99825
3816	0	0.99825
3817	0	0.99825
3818	0	0.99825
3819	0	1
3820	0	1
3821	0	1
3822	0	1
3823	0	1
3824	0	1
3825	0	1
3826	1	1
3827	1	1
3828	1	1
3829	0	1
3830	0	1
3831	0	1
3832	0	1
3833	1	1
3834	1	1
3835	1	1
3836	1	1
3837	1	1
3838	1	1
3839	1	1
3840	1	1
3841	1	1
3842	1	1
3843	1	1
3844	1	1
3845	1	1
3846	1	1
3847	1	1
3848	1	1
3849	1	1
3850	1	1
3851	1	1
3852	1	1
3853	1	1
3854	1	1
3855	1	1
3856	0	0.998256
3857	0	0.998256
3858	1	1
3859	1	1
3860	1	1
3861	1	1
3862	1	1
3863	1	1
3864	1	1
3865	0	0.998255
3866	0	0.998255
3867	0	0.998255
3868	0	0.998255
3869	0	0.993033
3870	0	0
3871	0	0
3872	0	0
3873	0	0
3874	1	0
3875	1	0
3876	1	0
3877	1	0
3878	1	0
3879	1	0
3880	1	0
3881	1	0
3882	1	0
3883	1	0
3884	1	0
3885	1	0
3886	1	0
3887	1	0
3888	1	0
3889	1	0
3890	1	0
3891	0	0
3892	0	0
3893	0	0
3894	0	0
3895	1	1
3896	0	0.333333
3897	1	1
3898	1	1
3899	1	1
3900	0	0.530361
3901	0	0.996499
3902	0	0.996499
3903	0	0.998247
3904	0	1
3905	0	0.99825
3906	0	0.996505
3907	0	0.996505
3908	0	0.996505
3909	0	0.996505
3910	0	0.996505
3911	0	0.996505
3912	0	0.99825
3913	0	0.99825
3914	0	1
3915	0	1
3916	0	0.991342
3917	0	1
3918	0	1
3919	0	1
3920	0	1
3921	0	1
3922	0	0.975
3923	0	0.797482
3924	0	0.737888
3925	0	0.656277
3926	0	0.649028
3927	0	0.323835
3928	0	0.243823
3929	0	0.264904
3930	0	0.237981
3931	0	0.240865
3932	0	0.241346
3933	0	0.247115
3934	0	0.249038
3935	0	0.25248
3936	0	0.250496
3937	0	0.280754
3938	0	0.270833
3939	0	0.273313
3940	0	0.240575
3941	0	0.2468
3942	0	0.254892
3943	0	0.263388
3944	0	0.267797
3945	0	0.25716
3946	0	0.227352
3947	0	0.232203
3948	0	0.23654
3949	0	0.261905
3950	0	0.27013
3951	0	0.293501
3952	0	0.272537
3953	0	0.273235
3954	0	0.271838
3955	0	0.246009
3956	0	0.246734
3957	0	0.246009
3958	0	0.246734
3959	0	0.25641
3960	0	0.260935
3961	0	0.269804
3962	0	0.269804
3963	0	0.267007
3964	0	0.301449
3965	0	0.32981
3966	0	0.43129
3967	0	0.420819
3968	0	0.375169
3969	0	0.375169
3970	0	0.375169
3971	0	0.375169
3972	0	0.021978
3973	0	0.030303
3974	0	0.0363636
3975	0	0.0363636
3976	0	0.0444444
3977	0	0.0714286
3978	0	0.0666667
3979	0	0.0666667
3980	0	0.0666667
3981	0	0.0666667
3982	0	0.0666667
3983	0	0
3984	0	0
3985	0	0
3986	0	0
3987	0	0
3988	0	0
3989	0	0
3990	0	0
3991	0	0
3992	0	0
3993	0	0
3994	0	0
3995	0	0
3996	0	0
3997	0	0
3998	0	0
3999	0	0
4000	0	0
4001	0	0
4002	0	0
4003	0	0
4004	0	0
4005	0	0
4006	0	0
4007	0	0
4008	0	0
4009	0	0
4010	0	0
4011	0	0
4012	0	0
4013	0	0
4014	0	0
4015	0	0
4016	0	0.389114
4017	0	0.387785
4018	0	0.396367
4019	0	0.489303
4020	0	0.494826
4021	0	0.524351
4022	0	0.531171
4023	0	0.535542
4024	0	0.535542
4025	0	0.537766
4026	0	0.540219
4027	0	0.538587
4028	0	0.538199
4029	0	0.537888
4030	0	0.531248
4031	0	0.524729
4032	0	0.524578
4033	0	0.527683
4034	0	0.496056
4035	0	0.481164
4036	0	0.470268
4037	0	0.500026
4038	0	0.546554
4039	0	0.688734
4040	0	0.69173
4041	0	0.492203
4042	0	0.803212
4043	0	0.803059
4044	0	0.666667
4045	0	0.81258
4046	0	0.81258
4047	0	0.812726
4048	0	0.812726
4049	0	0.81238
4050	0	0.81238
4051	0	0
4052	0	0
4053	0	0
4054	0	0
4055	0	0.734454
4056	0	0.835294
4057	0	0.835294
4058	0	0.835294
4059	0	0.808538
4060	0	0.808414
4061	0	0.808414
4062	0	0.550545
4063	0	0.550545
4064	0	0.550545
4065	0	0.550545
4066	0	0.804814
4067	0	0.804814
4068	0	0.800347
4069	0	0.333333
4070	0	0.287879
4071	0	0.287879
4072	0	0.287879
4073	0	0.783594
4074	0	0.776165
4075	0	0.775251
4076	0	1
4077	0	0.310526
4078	0	0.694705
4079	0	0.2
4080	0	0.198606
4081	0	0.577787
4082	0	0.572773
4083	0	0
4084	0	0
4085	0	0
4086	0	0.0714286
4087	0	0.0952381
4088	0	0.0952381
4089	0	0.628326
4090	0	0.047619
4091	0	0.0555556
4092	0	0
4093	0	0
4094	0	0.727273
4095	0	0.639671
4096	0	0.613596
4097	0	0.583577
4098	0	0.571004
4099	0	0.554413
4100	0	0.1
4101	0	0.1
4102	0	0.600562
4103	0	0.462037
4104	0	0.524888
4105	0	0.272163
4106	0	0.51043
4107	0	0.407029
4108	0	0.286084
4109	0	0.219963
4110	0	0.681861
4111	0	0.949051
4112	0	0.949051
4113	0	0.949051
4114	0	0.974026
4115	0	0.974026
4116	0	0.974026
4117	0	0.974026
4118	0	0.974026
4119	0	0.974026
4120	0	0.949051
4121	0	0.266269
4122	0	0.310273
4123	0	0
4124	0	0
4125	0	0
4126	0	0
4127	0	0
4128	0	0
4129	0	0
4130	0	0
4131	0	0
4132	0	0
4133	0	0
4134	0	0
4135	0	0
4136	0	0
4137	0	0
4138	0	0
4139	0	0
4140	0	0
4141	0	0
4142	0	0
4143	0	0.287389
4144	0	0.0565611
4145	0	0.065312
4146	0	0.312128
4147	0	0.3
4148	0	0.5
4149	0	0.5
4150	0	0.5
4151	0	0.5
4152	0	0.0454545
4153	0	0.392304
4154	0	0.144385
4155	0	0.125
4156	0	0.12656
4157	0	0.199655
4158	0	0.3668
4159	0	0.188406
4160	0	0.108669
4161	0	0.463085
4162	0	0.0416667
4163	0	0.252328
4164	0	0.0398551
4165	0	0.305268
4166	0	0.309445
4167	0	0.279487
4168	0	0.279487
4169	0	0.265854
4170	0	0.449378
4171	0	0
4172	0	0
4173	0	0
4174	0	0.0384615
4175	0	0.0444444
4176	0	0.0444444
4177	0	0.345438
4178	0	0.347766
4179	0	0.710101
4180	0	0.710101
4181	0	0.679227
4182	0	0.650324
4183	0	0.624113
4184	0	0.552157
4185	0	0.344305
4186	0	0.281111
4187	0	0.778516
4188	0	0.778516
4189	0	0.778516
4190	0	0.778516
4191	0	0.476537
4192	0	0.411623
4193	0	0.389946
4194	0	0.263523
4195	0	0.402169
4196	0	0.331524
4197	0	0.273726
4198	0	0.445921
4199	0	0.698925
4200	0	0
4201	0	0
4202	0	0
4203	0	0
4204	0	0
4205	0	0
4206	0	0
4207	0	0
4208	0	0
4209	0	0
4210	0	0
4211	0	0
4212	0	0
4213	0	0
4214	0	0
4215	0	0
4216	0	0
4217	0	0
4218	0	0.518482
4219	0	0.333333
4220	0	0.333333
4221	0	0.333333
4222	0	0.47006
4223	0	0
4224	0	0
4225	0	0
4226	0	0
4227	0	0
4228	0	0
4229	0	0
4230	0	0
4231	0	0
4232	0	0
4233	0	0
4234	0	0
4235	0	0
4236	0	0
4237	0	0
4238	0	0
4239	0	0
4240	0	0
4241	0	0
4242	0	0
4243	0	0
4244	0	0
4245	0	0
4246	0	0
4247	0	0
4248	0	0
4249	0	0
4250	0	0
4251	0	0
4252	0	0
4253	0	0.592438
4254	0	0.318548
4255	0	0.346774
4256	0	0.53389
4257	0	0.543046
4258	0	0.567299
4259	0	0.570032
4260	0	0.572784
4261	0	0.228571
4262	0	0.0512821
4263	0	0.166667
4264	0	0.214286
4265	0	0.285714
4266	0	0.166667
4267	0	0.333333
4268	0	0.705641
4269	0	0.606918
4270	0	0.753608
4271	0	0.878175
4272	0	0.644444
4273	0	1
4274	0	0.996499
4275	0	0.998249
4276	0	0.99825
4277	0	0.99825
4278	0	0.99825
4279	0	0.99825
4280	0	0.996505
4281	0	0.996505
4282	0	0.996505
4283	0	0.996505
4284	0	0.996505
4285	0	0.996505
4286	0	0.996505
4287	0	0
4288	0	0
4289	0	0
4290	0	0
4291	0	0
4292	0	0
4293	0	0
4294	0	0
4295	0	0.998249
4296	0	0.998249
4297	0	0.998249
4298	0	0.998249
4299	0	0.996502
4300	0	0.996502
4301	0	0.994757
4302	0	0.994757
4303	0	0.986077
4304	0	0
4305	0	0
4306	0	0
4307	0	0
4308	0	0
4309	0	0
4310	0	0
4311	0	0
4312	0	0
4313	0	0
4314	0	0
4315	0	0
4316	0	0
4317	0	0
4318	0	0
4319	0	0
4320	0	0
4321	0	0
4322	0	0
4323	0	0
4324	0	0
4325	0	0
4326	0	0
4327	0	0
4328	0	0
4329	0	0
4330	0	0
4331	0	0.1
4332	0	0.1
4333	0	0.977406
4334	0	0.975697
4335	0	0.961988
4336	0	0.961988
4337	0	0
4338	0	0
4339	0	0
4340	0	0
4341	0	0
4342	0	0.961855
4343	0	0.961855
4344	0	0
4345	0	0
4346	0	0
4347	0	0
4348	0	0
4349	0	0
4350	0	0
4351	0	0
4352	0	0
4353	0	0
4354	0	0
4355	0	0
4356	0	0
4357	0	0
4358	0	0
4359	0	0
4360	0	0
4361	0	0
4362	0	0
4363	0	0
4364	0	0
4365	0	0
4366	0	0
4367	0	0
4368	0	0
4369	0	0
4370	0	0
4371	0	0
4372	0	0
4373	0	0
4374	0	0
4375	0	0
4376	0	0
4377	0	0
4378	0	0
4379	0	0
4380	0	0
4381	1	0
4382	0	0
4383	0	0
4384	0	0
4385	0	0
4386	0	0
4387	0	0
4388	0	0
4389	0	0
4390	0	0
4391	0	0
4392	0	0
4393	0	0
4394	0	0
4395	0	0
4396	0	0
4397	0	0
4398	0	0
4399	0	0
4400	0	0
4401	0	0
4402	0	0
4403	0	0
4404	0	0
4405	0	0
4406	0	0
4407	0	0
4408	0	0
4409	0	0
4410	0	0
4411	0	0
4412	0	0
4413	0	0
4414	0	0
4415	0	0
4416	0	0
4417	0	0
4418	0	0
4419	0	0
4420	0	0
4421	0	0
4422	0	0
4423	0	0
4424	0	0
4425	0	0
4426	0	0
4427	0	0
4428	0	0
4429	0	0
4430	0	0
4431	0	0
4432	0	0
4433	0	0
4434	0	0
4435	0	0
4436	0	0
4437	0	0
4438	0	0
4439	0	0
4440	0	0
4441	0	0
4442	0	0
4443	0	0
4444	0	0
4445	0	0
4446	0	0
4447	0	0
4448	0	0
4449	0	0
4450	0	0
4451	0	0
4452	0	0
4453	0	0
4454	0	0
4455	0	0
4456	0	0
4457	0	0
4458	0	0
4459	0	0
4460	0	0
4461	0	0
4462	0	0
4463	0	0
4464	0	0
4465	0	0
4466	0	0
4467	0	0
4468	0	0
4469	0	0
4470	0	0
4471	0	0
4472	0	0
4473	0	0
4474	0	0
4475	0	0
4476	0	0
4477	0	0
4478	0	0
4479	0	0
4480	0	0
4481	0	0
4482	0	0
4483	0	0
4484	0	0
4485	0	0
4486	0	0
4487	0	0
4488	0	0
4489	0	0
4490	0	0
4491	0	0
4492	0	0
4493	0	0
4494	0	0
4495	0	0
4496	0	0
4497	0	0
4498	0	0
4499	0	0
4500	0	0
4501	0	0
4502	0	0
4503	0	0
4504	0	0
4505	0	0
4506	0	0
4507	0	0
4508	0	0
4509	0	0
4510	0	0
4511	0	0
4512	0	0
4513	0	0
4514	0	0
4515	0	0
4516	0	0
4517	0	0
4518	0	0
4519	0	0
4520	0	0
4521	0	0
4522	0	0
4523	0	0
4524	0	0
4525	0	0
4526	0	0
4527	0	0
4528	0	0
4529	0	0
4530	0	0
4531	0	0
4532	0	0
4533	0	0
4534	0	0
4535	0	0
4536	0	0
4537	0	0
4538	0	0
4539	0	0
4540	0	0
4541	0	0
4542	0	0
4543	0	0
4544	0	0
4545	0	0
4546	0	0
4547	0	0
4548	0	0
4549	0	0
4550	0	0
4551	0	0
4552	0	0
4553	0	0
4554	0	0
4555	0	0
4556	0	0
4557	0	0
4558	0	0
4559	0	0
4560	0	0
4561	0	0
4562	0	0
4563	0	0
4564	0	0
4565	0	0
4566	0	0
4567	0	0
4568	0	0
4569	0	0
4570	0	0
4571	0	0
4572	0	0
4573	0	0
4574	0	0
4575	0	0
4576	0	0
4577	0	0
4578	0	0
4579	0	0
4580	0	0
4581	0	0
4582	0	0
4583	0	0
4584	0	0
4585	0	0
4586	0	0
4587	0	0
4588	0	0
4589	0	0
4590	0	0
4591	0	0
4592	0	0
4593	0	0
4594	0	0
4595	0	0
4596	0	0
4597	0	0
4598	0	0
4599	0	0
4600	0	0
4601	0	0
4602	0	0
4603	0	0
4604	0	0
4605	0	0
4606	0	0
4607	0	0
4608	0	0
4609	0	0
4610	0	0
4611	0	0
4612	0	0
4613	0	0
4614	0	0
4615	0	0
4616	0	0
4617	0	0
4618	0	0
4619	0	0
4620	0	0
4621	0	0
4622	0	0
4623	0	0
4624	0	0
4625	0	0
4626	0	0
4627	0	0
4628	0	0
4629	0	0
4630	0	0
4631	0	0
4632	0	0
4633	0	0
4634	0	0
4635	0	0
4636	0	0
4637	0	0
4638	0	0
4639	0	0
4640	0	0
4641	0	0
4642	0	0
4643	0	0
4644	0	0
4645	0	0
4646	0	0
4647	0	0
4648	0	0
4649	0	0
4650	0	0
4651	0	0
4652	0	0
4653	0	0
4654	0	0
4655	0	0
4656	0	0
4657	0	0
4658	0	0
4659	0	0
4660	0	0
4661	0	0
4662	0	0
4663	0	0
4664	0	0
4665	0	0
4666	0	0
4667	0	0
4668	0	0
4669	0	0
4670	0	0
4671	0	0
4672	0	0
4673	0	0
4674	0	0
4675	0	0
4676	0	0
4677	0	0
4678	0	0
4679	0	0
4680	0	0
4681	0	0
4682	0	0
4683	0	0
4684	0	0
4685	0	0
4686	0	0
4687	0	0
4688	0	0
4689	0	0
4690	0	0
4691	0	0
4692	0	0
4693	0	0
4694	0	0
4695	0	0
4696	0	0
4697	0	0
4698	0	0
4699	0	0
4700	0	0
4701	0	0
4702	0	0
4703	0	0
4704	0	0
4705	0	0
4706	0	0
4707	0	0
4708	0	0
4709	0	0
4710	0	0
4711	0	0
4712	0	0
4713	0	0
4714	0	0
4715	0	0
4716	0	0
4717	0	0
4718	0	0
4719	0	0
4720	0	0
4721	0	0
4722	0	0
4723	0	0
4724	0	0
4725	0	0
4726	0	0
4727	0	0
4728	0	0
4729	0	0
4730	0	0
4731	0	0
4732	0	0
4733	0	0
4734	0	0
4735	0	0
4736	0	0
4737	0	0
4738	0	0
4739	0	0
4740	0	0
4741	0	0
4742	0	0
4743	0	0
4744	0	0
4745	0	0
4746	0	0
4747	0	0
4748	0	0
4749	0	0
4750	0	0
4751	0	0
4752	0	0
4753	0	0
4754	0	0
4755	0	0
4756	0	0
4757	0	0
4758	0	0
4759	0	0
4760	0	0
4761	0	0
4762	0	0
4763	0	0
4764	0	0
4765	0	0
4766	0	0
4767	0	0
4768	0	0
4769	0	0
4770	0	0
4771	0	0
4772	0	0
4773	0	0
4774	0	0
4775	0	0
4776	0	0
4777	0	0
4778	0	0
4779	0	0
4780	0	0
4781	0	0
4782	0	0
4783	0	0
4784	0	0
4785	0	0
4786	0	0
4787	0	0
4788	0	0
4789	0	0
4790	0	0
4791	0	0
4792	0	0
4793	0	0
4794	0	0
4795	0	0
4796	0	0
4797	0	0
4798	0	0
4799	0	0
4800	0	0
4801	0	0
4802	0	0
4803	0	0
4804	0	0
4805	0	0
4806	0	0
4807	0	0
4808	0	0
4809	0	0
4810	0	0
4811	0	0
4812	0	0
4813	0	0
4814	0	0
4815	0	0
4816	0	0
4817	0	0
4818	0	0.5
4819	0	0.5
4820	0	0.5
4821	0	0.5
4822	0	0.5
4823	0	0.5
4824	0	0.5
4825	0	0.5
4826	0	0.5
4827	0	0.166667
4828	0	0.166667
4829	0	0.166667
4830	0	0.166667
4831	0	0.166667
4832	0	0.166667
4833	0	0.166667
4834	0	0.166667
4835	0	0.166667
4836	0	0.166667
4837	0	0.166667
4838	0	0.166667
4839	0	0.166667
4840	0	0.166667
4841	0	0.166667
4842	0	0.166667
4843	0	0.166667
4844	0	0.166667
4845	0	0.166667
4846	0	0.166667
4847	0	0.166667
4848	0	0.166667
4849	0	0.166667
4850	0	0.166667
4851	0	0.166667
4852	0	0.166667
4853	0	0.166667
4854	0	0.166667
4855	0	0.166667
4856	0	0.166667
4857	0	0.166667
4858	0	0.166667
4859	0	0.166667
4860	0	0.166667
4861	0	0.166667
4862	0	0.166667
4863	0	0.166667
4864	0	0.166667
4865	0	0.166667
4866	0	0.166667
4867	0	0.166667
4868	0	0.166667
4869	0	0.166667
4870	0	0.166667
4871	0	0.166667
4872	0	0.166667
4873	0	0.166667
4874	0	0.166667
4875	0	0.166667
4876	0	0.166667
4877	0	0.166667
4878	0	0.166667
4879	0	0.166667
4880	0	0.166667
4881	0	0.166667
4882	0	0.166667
4883	0	0.166667
4884	0	0.166667
4885	0	0.166667
4886	0	0.166667
4887	0	0.166667
4888	0	0.166667
4889	0	0.166667
4890	0	0.166667
4891	0	0.166667
4892	0	0.166667
4893	0	0.166667
4894	0	0.166667
4895	0	0.166667
4896	0	0.166667
4897	0	0.333333
4898	0	0.333333
4899	0	0.333333
4900	0	0.333333
4901	0	0.333333
4902	0	0.333333
4903	0	0.333333
4904	0	0.333333
4905	0	0.333333
4906	0	0.333333
4907	0	0.333333
4908	0	0.333333
4909	0	0.333333
4910	0	0.333333
4911	0	0.333333
4912	0	0.333333
4913	0	0.333333
4914	0	0.333333
4915	0	0.333333
4916	0	0.333333
4917	0	0.333333
4918	0	0.333333
4919	0	0.333333
4920	0	0.333333
4921	0	0.333333
4922	0	0.333333
4923	0	0.333333
4924	0	0.333333
4925	0	0.333333
4926	0	0.333333
4927	0	0.333333
4928	0	0.333333
4929	0	0.333333
4930	0	0.333333
4931	0	0.333333
4932	0	0.333333
4933	0	0.333333
4934	0	0.333333
4935	0	0.333333
4936	0	0.333333
4937	0	0.333333
4938	0	0.333333
4939	0	0.333333
4940	0	0.333333
4941	0	0.333333
4942	0	0.333333
4943	0	0.333333
4944	0	0.333333
4945	0	0.333333
4946	0	0.333333
4947	0	0.333333
4948	0	0.333333
4949	0	0.333333
4950	0	0.333333
4951	0	0.333333
4952	0	0.5
4953	0	0.5
4954	0	0.5
4955	0	0.5
4956	0	0.5
4957	0	0.5
4958	0	0.5
4959	0	0.5
4960	0	0.5
4961	0	0.5
4962	0	0.5
4963	0	0.3
4964	0	0.3
4965	0	0.3
4966	0	0.3
4967	0	0.3
4968	0	0.3
4969	0	0.3
4970	0	0.3
4971	0	0.3
4972	0	0.3
4973	0	0.3
4974	0	0.3
4975	0	0.3
4976	0	0.3
4977	0	0.3
4978	0	0.3
4979	0	0.3
4980	0	0.3
4981	0	0.3
4982	0	0.3
4983	0	0.3
4984	0	0.3
4985	0	0.3
4986	0	0.3
4987	0	0.3
4988	0	0.3
4989	0	0.3
4990	0	0.3
4991	0	0.3
4992	0	0.363636
4993	0	0.272727
4994	0	0.272727
4995	0	0.272727
4996	0	0.272727
4997	0	0.272727
4998	0	0.230769
4999	0	0.175
5000	0	0.175
5001	0	0.140351
5002	0	0.140351
5003	0	0.143791
5004	0	0.143791
5005	0	0.158333
5006	0	0.158333
5007	0	0.158333
5008	0	0.158333
5009	0	0.169935
5010	0	0.169935
5011	0	0.152047
5012	0	0.152047
5013	0	0.192982
5014	0	0.157143
5015	0	0.157143
5016	0	0.134387
5017	0	0.13834
5018	0	0.909446
5019	0	0.357143
5020	0	0.3
5021	0	0
5022	0	0
5023	0	0
5024	0	0
5025	0	0
5026	0	0
5027	0	0
5028	0	0.166667
5029	0	0.166667
5030	0	0.166667
5031	0	0.166667
5032	0	0.166667
5033	0	0.166667
5034	0	0.166667
5035	0	0.166667
5036	0	0.166667
5037	0	0.166667
5038	0	0.166667
5039	0	0.166667
5040	0	0.166667
5041	0	0.166667
5042	0	0.166667
5043	0	0.166667
5044	0	0.166667
5045	0	0.166667
5046	0	0.166667
5047	0	0.166667
5048	0	0.166667
5049	0	0.166667
5050	0	0.333333
5051	0	0.333333
5052	0	0.333333
5053	0	0.333333
5054	0	0.333333
5055	0	0.333333
5056	0	0.333333
5057	0	0.333333
5058	0	0.333333
5059	0	0.333333
5060	0	0.333333
5061	0	0.333333
5062	0	0.333333
5063	0	0.166667
5064	0	0.333333
5065	0	0.333333
5066	0	0.333333
5067	0	0.333333
5068	0	0.333333
5069	0	0.333333
5070	0	0.333333
5071	0	0.333333
5072	0	0.333333
5073	0	0.333333
5074	0	0.333333
5075	0	0.333333
5076	0	0.333333
5077	0	0.333333
5078	0	0.333333
5079	0	0.333333
5080	0	0.333333
5081	0	0.333333
5082	0	0.333333
5083	0	0.333333
5084	0	0.333333
5085	0	0.333333
5086	0	0.333333
5087	0	0.333333
5088	0	0.333333
5089	0	0.333333
5090	0	0.333333
5091	0	0.333333
5092	0	0.333333
5093	0	0.333333
5094	0	0.333333
5095	0	0.333333
5096	0	0.333333
5097	0	0.333333
5098	0	0.333333
5099	0	0.333333
5100	0	0.333333
5101	0	0.333333
5102	0	0.333333
5103	0	0.333333
5104	0	0.333333
5105	0	0.333333
5106	0	0.166667
5107	0	0.166667
5108	0	0.166667
5109	0	0.1
5110	0	0.1
5111	0	0.1
5112	0	0.1
5113	0	0.3
5114	0	0.3
5115	0	0.3
5116	0	0.3
5117	0	0.3
5118	0	0.166667
5119	0	0.166667
5120	0	0.166667
5121	0	0.166667
5122	0	0.190476
5123	0	0.190476
5124	0	0.190476
5125	0	0.190476
5126	0	0.190476
5127	0	0.190476
5128	0	0.166667
5129	0	0.166667
5130	0	0.166667
5131	0	0.166667
5132	0	0.166667
5133	0	0.166667
5134	0	0.166667
5135	0	0.3
5136	0	0.2
5137	0	0.2
5138	0	0.2
5139	0	0.2
5140	0	0.2
5141	0	0.2
5142	0	0.2
5143	0	0.4
5144	0	0.4
5145	0	0.4
5146	0	0.4
5147	0	0.4
5148	0	0.4
5149	0	0.4
5150	0	0.4
5151	0	0.4
5152	0	0.4
5153	0	0.666667
5154	0	0.666667
5155	0	0.666667
5156	0	0.666667
5157	0	0.666667
5158	0	0.666667
5159	0	0.666667
5160	0	0.666667
5161	0	0.666667
5162	0	0.666667
5163	0	0.666667
5164	0	0.4
5165	0	0.4
5166	0	0.666667
5167	0	0.666667
5168	0	0.4
5169	0	0.4
5170	0	0.4
5171	0	0.4
5172	0	0.4
5173	0	0.666667
5174	0	0.666667
5175	0	0.666667
5176	0	0.666667
5177	0	0.666667
5178	0	0.666667
5179	0	0.666667
5180	0	0.666667
5181	0	0.666667
5182	0	0.666667
5183	0	0.666667
5184	0	0.666667
5185	0	0.666667
5186	0	0.666667
5187	0	0.666667
5188	0	0.666667
5189	0	0.666667
5190	0	0.666667
5191	0	0.666667
5192	0	0.666667
5193	0	0.666667
5194	0	0.666667
5195	0	0.666667
5196	0	0.666667
5197	0	0.666667
5198	0	0.666667
5199	0	0.666667
5200	0	0.666667
5201	0	0.666667
5202	0	0.666667
5203	0	0.666667
5204	0	0.666667
5205	0	0.666667
5206	0	0.666667
5207	0	0.666667
5208	0	0.666667
5209	0	0.666667
5210	0	0.6
5211	0	0.6
5212	0	0.6
5213	0	0.3
5214	0	0.2
5215	0	0.2
5216	0	0.2
5217	0	0.2
5218	0	0.2
5219	0	0
5220	0	0
5221	0	0
5222	0	0.166667
5223	0	0.3
5224	0	0.3
5225	0	0.3
5226	0	0.190476
5227	0	0.47619
5228	0	0.47619
5229	0	0.47619
5230	0	0.47619
5231	0	0.47619
5232	0	0.47619
5233	0	0.47619
5234	0	0.47619
5235	0	0.47619
5236	0	0.47619
5237	0	0.47619
5238	0	0.47619
5239	0	0.47619
5240	0	0.47619
5241	0	0.47619
5242	0	0.47619
5243	0	0.47619
5244	0	0.305556
5245	0	0.305556
5246	0	0.305556
5247	0	0.305556
5248	0	0.305556
5249	0	0.305556
5250	0	0.305556
5251	0	0.305556
5252	0	0.305556
5253	0	0.305556
5254	0	0.305556
5255	0	0.277778
5256	0	0.277778
5257	0	0.277778
5258	0	0.277778
5259	0	0.277778
5260	0	0.277778
5261	0	0.277778
5262	0	0.277778
5263	0	0.277778
5264	0	0.277778
5265	0	0.277778
5266	0	0.277778
5267	0	0.277778
5268	0	0.277778
5269	0	0.277778
5270	0	0.277778
5271	0	0.277778
5272	0	0.222222
5273	0	0.222222
5274	0	0.222222
5275	0	0.222222
5276	0	0.222222
5277	0	0.222222
5278	0	0.222222
5279	0	0.222222
5280	0	0.222222
5281	0	0.222222
5282	0	0.222222
5283	0	0.222222
5284	0	0.222222
5285	0	0.222222
5286	0	0.222222
5287	0	0.222222
5288	0	0.222222
5289	0	0.222222
5290	0	0.181818
5291	0	0.181818
5292	0	0.181818
5293	0	0.181818
5294	0	0.181818
5295	0	0.181818
5296	0	0.222222
5297	0	0.222222
5298	0	0.222222
5299	0	0.222222
5300	0	0.181818
5301	0	0.141026
5302	0	0.141026
5303	0	0.141026
5304	0	0.141026
5305	0	0.141026
5306	0	0.120879
5307	0	0.104762
5308	0	0.104762
5309	0	0.104762
5310	0	0.104762
5311	0	0.104762
5312	0	0.104762
5313	0	0.104762
5314	0	0.104762
5315	0	0.104762
5316	0	0.0916667
5317	0	0.0916667
5318	0	0.0916667
5319	0	0.0833333
5320	0	0.0735294
5321	0	0.0735294
5322	0	0.0735294
5323	0	0.0735294
5324	0	0.0735294
5325	0	0.0735294
5326	0	0.0735294
5327	0	0.0735294
5328	0	0.0735294
5329	0	0.0735294
5330	0	0.0653595
5331	0	0.0653595
5332	0	0.0653595
5333	0	0.0735294
5334	0	0.0735294
5335	0	0.0735294
5336	0	0.0735294
5337	0	0.0735294
5338	0	0.0735294
5339	0	0.0735294
5340	0	0.0735931
5341	0	0.0735931
5342	0	0.0779221
5343	0	0.0671937
5344	0	0.0711462
5345	0	0.0711462
5346	0	0.0711462
5347	0	0.0652174
5348	0	0.0652174
5349	0	0.0529101
5350	0	0.0569801
5351	0	0.0502646
5352	0	0.0344828
5353	0	0.0344828
5354	0	0.0344828
5355	0	0.0394089
5356	0	0.0394089
5357	0	0.0246154
5358	0	0.0153846
5359	0	0.0153846
5360	0	0.0153846
5361	0	0.00724638
5362	0	0.0133333
5363	0	0.00724638
5364	0	0.00854701
5365	0	0.00854701
5366	0	0.00793651
5367	0	0.0129032
5368	0	0.543422
5369	0	0.0333333
5370	0	0.0355731
5371	0	0.0355731
5372	0	0.0473485
5373	0	0.834103
5374	0	0.106061
5375	0	0.106061
5376	0	0.047619
5377	0	0.425705
5378	0	0.043956
5379	0	0.043956
5380	0	0.851095
5381	0	0.0277778
5382	0	0.0357143
5383	0	0.0357143
5384	0	0.0357143
5385	0	0.0357143
5386	0	0.047619
5387	0	0.0666667
5388	0	0.0666667
5389	0	0.0666667
5390	0	0.0666667
5391	0	0.0666667
5392	0	0.0666667
5393	0	0.0714286
5394	0	0.0666667
5395	0	0.0666667
5396	0	0.0666667
5397	0	0
5398	0	0
5399	0	0
5400	0	0
5401	0	0
5402	0	0
5403	0	0
5404	0	0
5405	0	0
5406	0	0.333333
5407	0	0
5408	0	0
5409	0	0
5410	0	0
5411	0	0
5412	0	0
5413	0	0
5414	0	0
5415	0	0
5416	0	0
5417	0	0
5418	0	0
5419	0	0
5420	0	0
5421	0	0
5422	0	0
5423	0	0
5424	0	0
5425	0	0
5426	0	0
5427	0	0
5428	0	0
5429	0	0
5430	0	0
5431	0	0
5432	0	0
5433	0	0
5434	0	0
5435	0	0
5436	0	0
5437	0	0
5438	0	0
5439	0	0
5440	0	0
5441	0	0
5442	0	0
5443	0	0
5444	0	0
5445	0	0
5446	0	0
5447	0	0
5448	0	0
5449	0	0
5450	0	0
5451	0	0
5452	0	0
5453	0	0
5454	0	0
5455	0	0
5456	0	0
5457	0	0
5458	0	0
5459	0	0
5460	0	0
5461	0	0
5462	0	0
5463	0	0
5464	0	0
5465	0	0
5466	0	0
5467	0	0
5468	0	0
5469	0	0
5470	0	0
5471	0	0
5472	0	0
5473	0	0
5474	0	0
5475	0	0
5476	0	0
5477	0	0
5478	0	0
5479	0	0
5480	0	0
5481	0	0
5482	0	0
5483	0	0
5484	0	0
5485	0	0
5486	0	0
5487	0	0
5488	0	0
5489	0	0
5490	0	0
5491	0	0
5492	0	0
5493	0	0
5494	0	0
5495	0	0
5496	0	0
5497	0	0
5498	0	0
5499	0	0
5500	0	0
5501	0	0
5502	0	0
5503	0	0
5504	0	0
5505	0	0
5506	0	0
5507	0	0
5508	0	0
5509	0	0
5510	0	0
5511	0	0
5512	0	0
5513	0	0
5514	0	0
5515	0	0
5516	0	0
5517	0	0
5518	0	0
5519	0	0
5520	0	0
5521	0	0
5522	0	0
5523	0	0
5524	0	0
5525	0	0
5526	0	0
5527	0	0
5528	0	0
5529	0	0
5530	0	0
5531	0	0
5532	0	0
5533	0	0
5534	0	0
5535	0	0
5536	0	0
5537	0	0
5538	0	0
5539	0	0
5540	0	0
5541	0	0
5542	0	0
5543	0	0
5544	0	0
5545	0	0
5546	0	0
5547	0	0
5548	0	0
5549	0	0
5550	0	0
5551	0	0
5552	0	0
5553	0	0
5554	0	0
5555	0	0
5556	0	0
5557	0	0
5558	0	0
5559	0	0
5560	0	0
5561	0	0
5562	0	0
5563	0	0
5564	0	0
5565	0	0
5566	0	0
5567	0	0
5568	0	0
5569	0	0
5570	0	0
5571	0	0
5572	0	0
5573	0	0
5574	0	0
5575	0	0
5576	0	0
5577	0	0
5578	0	0
5579	0	0
5580	0	0
5581	0	0
5582	0	0
5583	0	0
5584	0	0
5585	0	0
5586	0	0
5587	0	0
5588	0	0
5589	0	0
5590	0	0
5591	0	0
5592	0	0
5593	0	0
5594	0	0
5595	0	0
5596	0	0
5597	0	0
5598	0	0
5599	0	0
5600	0	0
5601	0	0
5602	0	0
5603	0	0
5604	0	0
5605	0	0
5606	0	0
5607	0	0
5608	0	0
5609	0	0
5610	0	0
5611	0	0
5612	0	0
5613	0	0
5614	0	0
5615	0	0
5616	0	0
5617	0	0
5618	0	0
5619	0	0
5620	0	0
5621	0	0
5622	0	0
5623	0	0
5624	0	0
5625	0	0
5626	0	0
5627	0	0
5628	0	0
5629	0	0
5630	0	0
5631	0	0
5632	0	0
5633	0	0
5634	0	0
5635	0	0
5636	0	0
5637	0	0
5638	0	0
5639	0	0
5640	0	0
5641	0	0
5642	0	0
5643	0	0
5644	0	0
5645	0	0
5646	0	0
5647	0	0
5648	0	0
5649	0	0
5650	0	0
5651	0	0
5652	0	0
5653	0	0
5654	0	0
5655	0	0
5656	0	0
5657	0	0
5658	0	0
5659	0	0
5660	0	0
5661	0	0
5662	0	0
5663	0	0
5664	0	0
5665	0	0
5666	0	0
5667	0	0
5668	0	0
5669	0	0
5670	0	0
5671	0	0
5672	0	0
5673	0	0
5674	0	0
5675	0	0
5676	0	0
5677	0	0
5678	0	0
5679	0	0
5680	0	0
5681	0	0
5682	0	0
5683	0	0
5684	0	0
5685	0	0
5686	0	0
5687	0	0
5688	0	0
5689	0	0
5690	0	0
5691	0	0
5692	0	0
5693	0	0
5694	0	0
5695	0	0
5696	0	0
5697	0	0
5698	0	0
5699	0	0
5700	0	0
5701	0	0
5702	0	0
5703	0	0
5704	0	0
5705	0	0
5706	0	0
5707	0	0
5708	0	0
5709	0	0
5710	0	0
5711	0	0
5712	0	0
5713	0	0
5714	0	0
5715	0	0
5716	0	0
5717	0	0
5718	0	0
5719	0	0
5720	0	0
5721	0	0
5722	0	0
5723	0	0
5724	0	0
5725	0	0
5726	0	0
5727	0	0
5728	0	0
5729	0	0
5730	0	0
5731	0	0
5732	0	0
5733	0	0
5734	0	0
5735	0	0
5736	0	0
5737	0	0
5738	0	0
5739	0	0
5740	0	0
5741	0	0
5742	0	0
5743	0	0
5744	0	0
5745	0	0
5746	0	0
5747	0	0
5748	0	0
5749	0	0
5750	0	0
5751	0	0
5752	0	0
5753	0	0
5754	0	0
5755	0	0
5756	0	0
5757	0	0
5758	0	0
5759	0	0
5760	0	0
5761	0	0
5762	0	0
5763	0	0
5764	0	0
5765	0	0
5766	0	0
5767	0	0
5768	0	0
5769	0	0
5770	0	0
5771	0	0
5772	0	0
5773	0	0
5774	0	0
5775	0	0
5776	0	0
5777	0	0
5778	0	0
5779	0	0
5780	0	0
5781	0	0
5782	0	0
5783	0	0
5784	0	0
5785	0	0
5786	0	0
5787	0	0
5788	0	0
5789	0	0
5790	0	0
5791	0	0
5792	0	0
5793	0	0
5794	0	0
5795	0	0
5796	0	0
5797	0	0
5798	0	0
5799	0	0
5800	0	0
5801	0	0
5802	0	0
5803	0	0
5804	0	0
5805	0	0
5806	0	0
5807	0	0
5808	0	0.807512
5809	0	0
5810	0	0
5811	0	0
5812	0	0
5813	0	0
5814	0	0
5815	0	0
5816	0	0
5817	0	0
5818	0	0
5819	0	0
5820	0	0
5821	0	0
5822	0	0
5823	0	0
5824	0	0
5825	0	0
5826	0	0
5827	0	0
5828	0	0
5829	0	0
5830	0	0
5831	0	0
5832	0	0
5833	0	0
5834	0	0
5835	0	0
5836	0	0
5837	0	0
5838	0	0
5839	0	0
5840	0	0
5841	0	0
5842	0	0
5843	0	0
5844	0	0
5845	0	0
5846	0	0
5847	0	0
5848	0	0
5849	0	0
5850	0	0
5851	0	0
5852	0	0
5853	0	0
5854	0	0
5855	0	0
5856	0	0
5857	0	0
5858	0	0
5859	0	0
5860	0	0
5861	0	0
5862	0	0
5863	0	0
5864	0	0
5865	0	0
5866	0	0
5867	0	0
5868	0	0
5869	0	0.772174
5870	0	0.25
5871	0	0.142857
5872	0	0.142857
5873	0	0.1
5874	0	0
5875	0	0
5876	0	0
5877	0	0
5878	0	0
5879	0	0
5880	0	0
5881	0	0
5882	0	0
5883	0	0
5884	0	0
5885	0	0
5886	0	0
5887	0	0
5888	0	0
5889	0	0
5890	0	0
5891	0	0
5892	0	0
5893	0	0
5894	0	0
5895	0	0
5896	0	0
5897	0	0
5898	0	0
5899	0	0
5900	0	0
5901	0	0
5902	0	0
5903	0	0
5904	0	0
5905	0	0
5906	0	0
5907	0	0
5908	0	0
5909	0	0
5910	0	0
5911	0	0
5912	0	0
5913	0	0
5914	0	0
5915	0	0
5916	0	0
5917	0	0
5918	0	0
5919	0	0
5920	0	0
5921	0	0
5922	0	0
5923	0	0
5924	0	0
5925	0	0
5926	0	0
5927	0	0
5928	0	0
5929	0	0
5930	0	0
5931	0	0
5932	0	0
5933	0	0
5934	0	0
5935	0	0
5936	0	0
5937	0	0
5938	0	0
5939	0	0
5940	0	0
5941	0	0
5942	0	0
5943	0	0
5944	0	0
5945	0	0
5946	0	0
5947	0	0
5948	0	0
5949	0	0
5950	0	0
5951	0	0
5952	0	0
5953	0	0
5954	0	0
5955	0	0
5956	0	0
5957	0	0
5958	0	0
5959	0	0
5960	0	0
5961	0	0
5962	0	0
5963	0	0
5964	0	0
5965	0	0
5966	0	0
5967	0	0
5968	0	0
5969	0	0
5970	0	0
5971	0	0
5972	0	0
5973	0	0
5974	0	0
5975	0	0
5976	0	0
5977	0	0
5978	0	0
5979	0	0
5980	0	0
5981	0	0
5982	0	0
5983	0	0
5984	0	0
5985	0	0
5986	0	0
5987	0	0
5988	0	0
5989	0	0
5990	0	0
5991	0	0
5992	0	0
5993	0	0
5994	0	0
5995	0	0
5996	0	0
5997	0	0
5998	0	0
5999	0	0
6000	0	0
6001	0	0
6002	0	0
6003	0	0
6004	0	0
6005	0	0
6006	0	0
6007	0	0
6008	0	0
6009	0	0
6010	0	0
6011	0	0
6012	0	0
6013	0	0
6014	0	0
6015	0	0
6016	0	0
6017	0	0
6018	0	0
6019	0	0
6020	0	0
6021	0	0
6022	0	0
6023	0	0
6024	0	0
6025	0	0
6026	0	0
6027	0	0
6028	0	0
6029	0	0
6030	0	0
6031	0	0
6032	0	0
6033	0	0
6034	0	0
6035	0	0
6036	0	0
6037	0	0
6038	0	0
6039	0	0
6040	0	0
6041	0	0
6042	0	0
6043	0	0
6044	0	0
6045	0	0
6046	0	0
6047	0	0
6048	0	0
6049	0	0
6050	0	0
6051	0	0
6052	0	0
6053	0	0
6054	0	0
6055	0	0
6056	0	0
6057	0	0
6058	0	0
6059	0	0
6060	0	0
6061	0	0
6062	0	0
6063	0	0
6064	0	0
6065	0	0
6066	0	0
6067	0	0
6068	0	0
6069	0	0
6070	0	0
6071	0	0
6072	0	0
6073	0	0
6074	0	0
6075	0	0
6076	0	0
6077	0	0
6078	0	0
6079	0	0
6080	0	0
6081	0	0
6082	0	0
6083	0	0
6084	0	0
6085	0	0
6086	0	0
6087	0	0
6088	0	0
6089	0	0
6090	0	0
6091	0	0
6092	0	0
6093	0	0.721284
6094	0	0.713906
6095	0	0.457674
6096	0	0.271505
6097	0	0.169814
6098	0	0.163799
6099	0	0.15987
6100	0	0.150659
6101	0	0.134331
6102	0	0.118419
6103	0	0.0681751
6104	0	0.0340376
6105	0	0.0283654
6106	0	0.0216816
6107	0	0.020904
6108	0	0.0204559
6109	0	0.0213033
6110	0	0.0201299
6111	0	0.0200501
6112	0	0.0215488
6113	0	0.020202
6114	0	0.0209644
6115	0	0.0219608
6116	0	0.0227451
6117	0	0.0244898
6118	0	0.0228571
6119	0	0.0248227
6120	0	0.0265957
6121	0	0.0286772
6122	0	0.0277521
6123	0	0.0277521
6124	0	0.0277521
6125	0	0.0280193
6126	0	0.0280193
6127	0	0.0272727
6128	0	0.0285412
6129	0	0.02537
6130	0	0.0285412
6131	0	0.0285412
6132	0	0.0295983
6133	0	0.0310078
6134	0	0.0321152
6135	0	0.03433
6136	0	0.0332226
6137	0	0.0332226
6138	0	0.0348432
6139	0	0.0348432
6140	0	0.0348432
6141	0	0.0397436
6142	0	0.0455192
6143	0	0.0510511
6144	0	0.0510511
6145	0	0.0539683
6146	0	0.0539683
6147	0	0.0539683
6148	0	0.0492063
6149	0	0.0521008
6150	0	0.0534759
6151	0	0.0534759
6152	0	0.0552585
6153	0	0.0552585
6154	0	0.0552585
6155	0	0.057041
6156	0	0.0587121
6157	0	0.0587121
6158	0	0.0587121
6159	0	0.0587121
6160	0	0.0587121
6161	0	0.0625
6162	0	0.0625
6163	0	0.0625
6164	0	0.0625
6165	0	0.0643939
6166	0	0.0643939
6167	0	0.0606061
6168	0	0.0606061
6169	0	0.0606061
6170	0	0.0606061
6171	0	0.0645161
6172	0	0.0665323
6173	0	0.0665323
6174	0	0.0665323
6175	0	0.0665323
6176	0	0.0665323
6177	0	0.0665323
6178	0	0.0688172
6179	0	0.0688172
6180	0	0.0666667
6181	0	0.0666667
6182	0	0.0666667
6183	0	0.0666667
6184	0	0.0666667
6185	0	0.0666667
6186	0	0.0666667
6187	0	0.0666667
6188	0	0.0712644
6189	0	0.0712644
6190	0	0.0712644
6191	0	0.0712644
6192	0	0.0712644
6193	0	0.0804598
6194	0	0.0804598
6195	0	0.0712644
6196	0	0.0740741
6197	0	0.0740741
6198	0	0.0549242
6199	0	0.0549242
6200	0	0.0511364
6201	0	0.0492424
6202	0	0.0492424
6203	0	0.0511364
6204	0	0.0511364
6205	0	0.0530303
6206	0	0.0564516
6207	0	0.0564516
6208	0	0.0564516
6209	0	0.0580645
6210	0	0.0580645
6211	0	0.0580645
6212	0	0.0580645
6213	0	0.0597701
6214	0	0.0597701
6215	0	0.0597701
6216	0	0.0584677
6217	0	0.0643678
6218	0	0.0643678
6219	0	0.0574713
6220	0	0.0537634
6221	0	0.0537634
6222	0	0.0537634
6223	0	0.0623656
6224	0	0.0643678
6225	0	0.0643678
6226	0	0.0643678
6227	0	0.0643678
6228	0	0.0643678
6229	0	0.0643678
6230	0	0.0643678
6231	0	0.0643678
6232	0	0.0643678
6233	0	0.0602151
6234	0	0.0524194
6235	0	0.0524194
6236	0	0.0483871
6237	0	0.0483871
6238	0	0.0483871
6239	0	0.0528736
6240	0	0.0528736
6241	0	0.0528736
6242	0	0.0435606
6243	0	0.0435606
6244	0	0.0555556
6245	0	0.0555556
6246	0	0.0517241
6247	0	0.0517241
6248	0	0.0517241
6249	0	0.0598291
6250	0	0.0505747
6251	0	0.0505747
6252	0	0.0528736
6253	0	0.0528736
6254	0	0.0566502
6255	0	0.0574713
6256	0	0.0574713
6257	0	0.0574713
6258	0	0.0551724
6259	0	0.0591133
6260	0	0.0634921
6261	0	0.0396825
6262	0	0.0396825
6263	0	0.0471014
6264	0	0.0471014
6265	0	0.0502646
6266	0	0.0502646
6267	0	0.0502646
6268	0	0.0502646
6269	0	0.0502646
6270	0	0.0533333
6271	0	0.0533333
6272	0	0.0533333
6273	0	0.0533333
6274	0	0.0513834
6275	0	0.0513834
6276	0	0.0513834
6277	0	0.0513834
6278	0	0.0513834
6279	0	0.0513834
6280	0	0.0513834
6281	0	0.0513834
6282	0	0.0513834
6283	0	0.0513834
6284	0	0.0513834
6285	0	0.0513834
6286	0	0.0513834
6287	0	0.0513834
6288	0	0.0513834
6289	0	0.0513834
6290	0	0.0513834
6291	0	0.0513834
6292	0	0.0513834
6293	0	0.0513834
6294	0	0.0513834
6295	0	0.0513834
6296	0	0.0513834
6297	0	0.0583333
6298	0	0.0583333
6299	0	0.0583333
6300	0	0.0583333
6301	0	0.0583333
6302	0	0.0583333
6303	0	0.025
6304	0	0.032967
6305	0	0.0333333
6306	0	0.0416667
6307	0	0.0367647
6308	0	0.0514706
6309	0	0.0583333
6310	0	0.0833333
6311	0	0.0833333
6312	0	0.0583333
6313	0	0.0583333
6314	0	0.0583333
6315	0	0.0583333
6316	0	0.0583333
6317	0	0.0583333
6318	0	0.0583333
6319	0	0.0583333
6320	0	0.0583333
6321	0	0.0583333
6322	0	0.0583333
6323	0	0.0583333
6324	0	0.0583333
6325	0	0.0583333
6326	0	0.0583333
6327	0	0.0583333
6328	0	0.0583333
6329	0	0.0583333
6330	0	0.0666667
6331	0	0.0666667
6332	0	0.0666667
6333	0	0.0666667
6334	0	0.0666667
6335	0	0.0666667
6336	0	0.0666667
6337	0	0.0666667
6338	0	0.0666667
6339	0	0.0952381
6340	0	0.0952381
6341	0	0.0952381
6342	0	0.0952381
6343	0	0.0952381
6344	0	0.0952381
6345	0	0.0952381
6346	0	0.0952381
6347	0	0.0952381
6348	0	0.0952381
6349	0	0.0952381
6350	0	0.104762
6351	0	0.104762
6352	0	0.104762
6353	0	0.104762
6354	0	0.0952381
6355	0	0.0952381
6356	0	0.0952381
6357	0	0.0952381
6358	0	0.0952381
6359	0	0.0952381
6360	0	0.0952381
6361	0	0.0952381
6362	0	0.0952381
6363	0	0.0952381
6364	0	0.0952381
6365	0	0.0952381
6366	0	0.0952381
6367	0	0.0952381
6368	0	0.0952381
6369	0	0.0952381
6370	0	0.0952381
6371	0	0.0952381
6372	0	0.0952381
6373	0	0.0952381
6374	0	0.0952381
6375	0	0.0952381
6376	0	0.0952381
6377	0	0.0952381
6378	0	0.0952381
6379	0	0.0952381
6380	0	0.0952381
6381	0	0.0666667
6382	0	0.0666667
6383	0	0.0666667
6384	0	0.0666667
6385	0	0.0666667
6386	0	0.0666667
6387	0	0.0666667
6388	0	0.0666667
6389	0	0.0666667
6390	0	0.0666667
6391	0	0.0666667
6392	0	0.0666667
6393	0	0.0666667
6394	0	0.0666667
6395	0	0.0666667
6396	0	0.0666667
6397	0	0.047619
6398	0	0.0666667
6399	0	0.0666667
6400	0	0.0666667
6401	0	0.0666667
6402	0	0.0666667
6403	0	0.0666667
6404	0	0.0666667
6405	0	0.0666667
6406	0	0.0666667
6407	0	0.0666667
6408	0	0.0666667
6409	0	0.0512821
6410	0	0.0512821
6411	0	0.0512821
6412	0	0.0512821
6413	0	0.0512821
6414	0	0.0512821
6415	0	0.0512821
6416	0	0.0512821
6417	0	0.0512821
6418	0	0.0512821
6419	0	0.0512821
6420	0	0.0512821
6421	0	0.0512821
6422	0	0.0512821
6423	0	0.0512821
6424	0	0.0512821
6425	0	0.0512821
6426	0	0.0666667
6427	0	0.0666667
6428	0	0.0666667
6429	0	0.0512821
6430	0	0.0512821
6431	0	0.0512821
6432	0	0.0606061
6433	0	0.0606061
6434	0	0.0606061
6435	0	0.0606061
6436	0	0.0606061
6437	0	0.0606061
6438	0	0.0606061
6439	0	0.0606061
6440	0	0.0606061
6441	0	0.0606061
6442	0	0.0606061
6443	0	0.0606061
6444	0	0.0606061
6445	0	0.0727273
6446	0	0.0727273
6447	0	0.0727273
6448	0	0.0727273
6449	0	0.0727273
6450	0	0.0727273
6451	0	0.0727273
6452	0	0.0727273
6453	0	0.0727273
6454	0	0.0606061
6455	0	0.0606061
6456	0	0.0606061
6457	0	0.0606061
6458	0	0.0606061
6459	0	0.0727273
6460	0	0.0727273
6461	0	0.0727273
6462	0	0.0727273
6463	0	0.0727273
6464	0	0.0727273
6465	0	0.0727273
6466	0	0.0727273
6467	0	0.0727273
6468	0	0.0727273
6469	0	0.0727273
6470	0	0.0727273
6471	0	0.0727273
6472	0	0.0727273
6473	0	0.0727273
6474	0	0.0727273
6475	0	0.0727273
6476	0	0.0727273
6477	0	0.0727273
6478	0	0.0727273
6479	0	0.0727273
6480	0	0.0727273
6481	0	0.0727273
6482	0	0.0727273
6483	0	0.0727273
6484	0	0.0727273
6485	0	0.0727273
6486	0	0.0727273
6487	0	0.0727273
6488	0	0.0727273
6489	0	0.0727273
6490	0	0.0727273
6491	0	0.0727273
6492	0	0.0727273
6493	0	0.0727273
6494	0	0.0727273
6495	0	0.0727273
6496	0	0.0727273
6497	0	0.0727273
6498	0	0.0727273
6499	0	0.0727273
6500	0	0.0444444
6501	0	0.0363636
6502	0	0.030303
6503	0	0.0454545
6504	0	0.0454545
6505	0	0.0454545
6506	0	0.0454545
6507	0	0.0454545
6508	0	0.0454545
6509	0	0.0454545
6510	0	0.0454545
6511	0	0.0454545
6512	0	0.0454545
6513	0	0.0454545
6514	0	0.0454545
6515	0	0.0454545
6516	0	0.0454545
6517	0	0.0454545
6518	0	0.0454545
6519	0	0.0454545
6520	0	0.0454545
6521	0	0.0454545
6522	0	0.0454545
6523	0	0.0757576
6524	0	0.0641026
6525	0	0.0897436
6526	0	0.0897436
6527	0	0.0897436
6528	0	0.0897436
6529	0	0.0897436
6530	0	0.0897436
6531	0	0.0897436
6532	0	0.0897436
6533	0	0.0897436
6534	0	0.0897436
6535	0	0.0897436
6536	0	0.0897436
6537	0	0.0897436
6538	0	0.0897436
6539	0	0.0897436
6540	0	0.0897436
6541	0	0.0897436
6542	0	0.0897436
6543	0	0.0897436
6544	0	0.0514706
6545	0	0.0522876
6546	0	0.0522876
6547	0	0.0522876
6548	0	0.0522876
6549	0	0.0522876
6550	0	0.0522876
6551	0	0.0522876
6552	0	0.0522876
6553	0	0.0522876
6554	0	0.0522876
6555	0	0.0522876
6556	0	0.0522876
6557	0	0.0392157
6558	0	0.0392157
6559	0	0.0392157
6560	0	0.0392157
6561	0	0.0392157
6562	0	0.0392157
6563	0	0.0392157
6564	0	0.0392157
6565	0	0.0392157
6566	0	0.0392157
6567	0	0.0367647
6568	0	0.0392157
6569	0	0.0392157
6570	0	0.0392157
6571	0	0.0392157
6572	0	0.0392157
6573	0	0.0392157
6574	0	0.0326797
6575	0	0.0326797
6576	0	0.0367647
6577	0	0.0367647
6578	0	0.0367647
6579	0	0.0392157
6580	0	0.0392157
6581	0	0.0392157
6582	0	0.0392157
6583	0	0.0392157
6584	0	0.0392157
6585	0	0.0392157
6586	0	0.0392157
6587	0	0.0392157
6588	0	0.0392157
6589	0	0.0392157
6590	0	0.0392157
6591	0	0.0392157
6592	0	0.0392157
6593	0	0.0392157
6594	0	0.0392157
6595	0	0.0392157
6596	0	0.0392157
6597	0	0.0392157
6598	0	0.0392157
6599	0	0.0392157
6600	0	0.0392157
6601	0	0.0392157
6602	0	0.0392157
6603	0	0.0392157
6604	0	0.0392157
6605	0	0.0392157
6606	0	0.0392157
6607	0	0.0392157
6608	0	0.0392157
6609	0	0.0392157
6610	0	0.0392157
6611	0	0.0392157
6612	0	0.0392157
6613	0	0.0392157
6614	0	0.0392157
6615	0	0.0392157
6616	0	0.0392157
6617	0	0.0392157
6618	0	0.0392157
6619	0	0.0392157
6620	0	0.0392157
6621	0	0.0392157
6622	0	0.0392157
6623	0	0.0392157
6624	0	0.0392157
6625	0	0.0392157
6626	0	0.0392157
6627	0	0.0392157
6628	0	0.0392157
6629	0	0.0392157
6630	0	0.0392157
6631	0	0.0392157
6632	0	0.0392157
6633	0	0.0392157
6634	0	0.0392157
6635	0	0.0392157
6636	0	0.0522876
6637	0	0.0522876
6638	0	0.0522876
6639	0	0.0522876
6640	0	0.0522876
6641	0	0.0522876
6642	0	0.0522876
6643	0	0.0522876
6644	0	0.0522876
6645	0	0.0522876
6646	0	0.0522876
6647	0	0.0522876
6648	0	0.0522876
6649	0	0.0522876
6650	0	0.0522876
6651	0	0.0522876
6652	0	0.047619
6653	0	0.047619
6654	0	0.047619
6655	0	0.047619
6656	0	0.047619
6657	0	0.047619
6658	0	0.047619
6659	0	0.047619
6660	0	0.047619
6661	0	0.047619
6662	0	0.047619
6663	0	0.047619
6664	0	0.047619
6665	0	0.047619
6666	0	0.047619
6667	0	0.047619
6668	0	0.047619
6669	0	0.047619
6670	0	0.047619
6671	0	0.047619
6672	0	0.047619
6673	0	0.047619
6674	0	0.047619
6675	0	0.047619
6676	0	0.047619
6677	0	0.0761905
6678	0	0.0761905
6679	0	0.0761905
6680	0	0.0761905
6681	0	0.0761905
6682	0	0.0761905
6683	0	0.0761905
6684	0	0.0761905
6685	0	0.0761905
6686	0	0.0761905
6687	0	0.0761905
6688	0	0.0761905
6689	0	0.0761905
6690	0	0.0761905
6691	0	0.0761905
6692	0	0.0761905
6693	0	0.0761905
6694	0	0.0761905
6695	0	0.0761905
6696	0	0.0761905
6697	0	0.0761905
6698	0	0.0761905
6699	0	0.0761905
6700	0	0.0761905
6701	0	0.0761905
6702	0	0.0761905
6703	0	0.0761905
6704	0	0.0761905
6705	0	0.0761905
6706	0	0.0761905
6707	0	0.0761905
6708	0	0.0761905
6709	0	0.0761905
6710	0	0.0761905
6711	0	0.0761905
6712	0	0.0761905
6713	0	0.0761905
6714	0	0.0761905
6715	0	0.0761905
6716	0	0.0761905
6717	0	0.0761905
6718	0	0.0222222
6719	0	0.047619
6720	0	0.047619
6721	0	0.047619
6722	0	0.0761905
6723	0	0.0761905
6724	0	0.0761905
6725	0	0.0761905
6726	0	0.0761905
6727	0	0.0761905
6728	0	0.0761905
6729	0	0.0879121
6730	0	0.0879121
6731	0	0.0879121
6732	0	0.0879121
6733	0	0.0879121
6734	0	0.0879121
6735	0	0.0879121
6736	0	0.10989
6737	0	0.10989
6738	0	0.10989
6739	0	0.10989
6740	0	0.10989
6741	0	0.10989
6742	0	0.10989
6743	0	0.10989
6744	0	0.10989
6745	0	0.0897436
6746	0	0.0769231
6747	0	0.0769231
6748	0	0.0769231
6749	0	0.0769231
6750	0	0.0769231
6751	0	0.0769231
6752	0	0.0769231
6753	0	0.0769231
6754	0	0.0769231
6755	0	0.0769231
6756	0	0.0769231
6757	0	0.0769231
6758	0	0.0769231
6759	0	0.0769231
6760	0	0.0769231
6761	0	0.0769231
6762	0	0.0989011
6763	0	0.0989011
6764	0	0.0989011
6765	0	0.0769231
6766	0	0.0769231
6767	0	0.0769231
6768	0	0.0769231
6769	0	0.0769231
6770	0	0.0769231
6771	0	0.0769231
6772	0	0.0769231
6773	0	0.0769231
6774	0	0.0769231
6775	0	0.0769231
6776	0	0.0769231
6777	0	0.0769231
6778	0	0.0769231
6779	0	0.0769231
6780	0	0.0769231
6781	0	0.0769231
6782	0	0.0769231
6783	0	0.0769231
6784	0	0.0769231
6785	0	0.0769231
6786	0	0.0606061
6787	0	0.0606061
6788	0	0.0549451
6789	0	0.0769231
6790	0	0.0769231
6791	0	0.0769231
6792	0	0.0769231
6793	0	0.0769231
6794	0	0.0769231
6795	0	0.0769231
6796	0	0.0769231
6797	0	0.0769231
6798	0	0.0769231
6799	0	0.10989
6800	0	0.10989
6801	0	0.10989
6802	0	0.10989
6803	0	0.10989
6804	0	0.10989
6805	0	0.10989
6806	0	0.10989
6807	0	0.10989
6808	0	0.10989
6809	0	0.10989
6810	0	0.10989
6811	0	0.10989
6812	0	0.10989
6813	0	0.10989
6814	0	0.10989
6815	0	0.10989
6816	0	0.10989
6817	0	0.10989
6818	0	0.10989
6819	0	0.10989
6820	0	0.10989
6821	0	0.10989
6822	0	0.10989
6823	0	0.10989
6824	0	0.10989
6825	0	0.0879121
6826	0	0.0879121
6827	0	0.0879121
6828	0	0.0879121
6829	0	0.0879121
6830	0	0.0879121
6831	0	0.0879121
6832	0	0.0879121
6833	0	0.0879121
6834	0	0.0879121
6835	0	0.0879121
6836	0	0.0879121
6837	0	0.106061
6838	0	0.106061
6839	0	0.106061
6840	0	0.106061
6841	0	0.106061
6842	0	0.106061
6843	0	0.142857
6844	0	0.142857
6845	0	0.142857
6846	0	0.142857
6847	0	0.142857
6848	0	0.142857
6849	0	0.142857
6850	0	0.142857
6851	0	0.142857
6852	0	0.142857
6853	0	0.142857
6854	0	0.142857
6855	0	0.142857
6856	0	0.142857
6857	0	0.142857
6858	0	0.142857
6859	0	0.142857
6860	0	0.142857
6861	0	0.142857
6862	0	0.142857
6863	0	0.142857
6864	0	0.142857
6865	0	0.142857
6866	0	0.142857
6867	0	0.142857
6868	0	0.142857
6869	0	0.142857
6870	0	0.142857
6871	0	0.142857
6872	0	0.142857
6873	0	0.142857
6874	0	0.142857
6875	0	0.142857
6876	0	0.142857
6877	0	0.142857
6878	0	0.142857
6879	0	0.142857
6880	0	0.142857
6881	0	0.142857
6882	0	0.142857
6883	0	0.142857
6884	0	0.142857
6885	0	0.142857
6886	0	0.142857
6887	0	0.142857
6888	0	0.142857
6889	0	0.142857
6890	0	0.142857
6891	0	0.142857
6892	0	0.142857
6893	0	0.142857
6894	0	0.142857
6895	0	0.142857
6896	0	0.142857
6897	0	0.142857
6898	0	0.142857
6899	0	0.142857
6900	0	0.186813
6901	0	0.186813
6902	0	0.186813
6903	0	0.186813
6904	0	0.186813
6905	0	0.186813
6906	0	0.186813
6907	0	0.186813
6908	0	0.186813
6909	0	0.186813
6910	0	0.186813
6911	0	0.186813
6912	0	0.186813
6913	0	0.186813
6914	0	0.186813
6915	0	0.186813
6916	0	0.186813
6917	0	0.186813
6918	0	0.186813
6919	0	0.186813
6920	0	0.186813
6921	0	0.186813
6922	0	0.186813
6923	0	0.186813
6924	0	0.186813
6925	0	0.186813
6926	0	0.186813
6927	0	0.186813
6928	0	0.186813
6929	0	0.186813
6930	0	0.186813
6931	0	0.186813
6932	0	0.186813
6933	0	0.186813
6934	0	0.186813
6935	0	0.186813
6936	0	0.186813
6937	0	0.161905
6938	0	0.161905
6939	0	0.161905
6940	0	0.161905
6941	0	0.161905
6942	0	0.161905
6943	0	0.161905
6944	0	0.161905
6945	0	0.161905
6946	0	0.161905
6947	0	0.161905
6948	0	0.161905
6949	0	0.161905
6950	0	0.161905
6951	0	0.161905
6952	0	0.161905
6953	0	0.161905
6954	0	0.161905
6955	0	0.161905
6956	0	0.161905
6957	0	0.161905
6958	0	0.161905
6959	0	0.161905
6960	0	0.161905
6961	0	0.161905
6962	0	0.161905
6963	0	0.161905
6964	0	0.161905
6965	0	0.161905
6966	0	0.161905
6967	0	0.161905
6968	0	0.161905
6969	0	0.161905
6970	0	0.161905
6971	0	0.161905
6972	0	0.161905
6973	0	0.161905
6974	0	0.161905
6975	0	0.161905
6976	0	0.161905
6977	0	0.161905
6978	0	0.161905
6979	0	0.161905
6980	0	0.161905
6981	0	0.161905
6982	0	0.161905
6983	0	0.161905
6984	0	0.161905
6985	0	0.161905
6986	0	0.161905
6987	0	0.161905
6988	0	0.161905
6989	0	0.161905
6990	0	0.161905
6991	0	0.161905
6992	0	0.161905
6993	0	0.161905
6994	0	0.161905
6995	0	0.161905
6996	0	0.161905
6997	0	0.161905
6998	0	0.161905
6999	0	0.161905
7000	0	0.161905
7001	0	0.161905
7002	0	0.161905
7003	0	0.161905
7004	0	0.161905
7005	0	0.161905
7006	0	0.161905
7007	0	0.161905
7008	0	0.161905
7009	0	0.161905
7010	0	0.161905
7011	0	0.161905
7012	0	0.161905
7013	0	0.161905
7014	0	0.161905
7015	0	0.161905
7016	0	0.161905
7017	0	0.161905
7018	0	0.161905
7019	0	0.161905
7020	0	0.161905
7021	0	0.161905
7022	0	0.161905
7023	0	0.161905
7024	0	0.161905
7025	0	0.161905
7026	0	0.161905
7027	0	0.161905
7028	0	0.161905
7029	0	0.161905
7030	0	0.161905
7031	0	0.161905
7032	0	0.161905
7033	0	0.161905
7034	0	0.161905
7035	0	0.161905
7036	0	0.161905
7037	0	0.161905
7038	0	0.161905
7039	0	0.161905
7040	0	0.161905
7041	0	0.161905
7042	0	0.161905
7043	0	0.161905
7044	0	0.161905
7045	0	0.161905
7046	0	0.161905
7047	0	0.161905
7048	0	0.161905
7049	0	0.161905
7050	0	0.161905
7051	0	0.161905
7052	0	0.161905
7053	0	0.161905
7054	0	0.161905
7055	0	0.161905
7056	0	0.161905
7057	0	0.161905
7058	0	0.161905
7059	0	0.161905
7060	0	0.161905
7061	0	0.161905
7062	0	0.161905
7063	0	0.161905
7064	0	0.161905
7065	0	0.161905
7066	0	0.161905
7067	0	0.161905
7068	0	0.161905
7069	0	0.161905
7070	0	0.161905
7071	0	0.161905
7072	0	0.161905
7073	0	0.161905
7074	0	0.161905
7075	0	0.161905
7076	0	0.161905
7077	0	0.161905
7078	0	0.161905
7079	0	0.161905
7080	0	0.161905
7081	0	0.161905
7082	0	0.161905
7083	0	0.161905
7084	0	0.161905
7085	0	0.161905
7086	0	0.161905
7087	0	0.161905
7088	0	0.161905
7089	0	0.161905
7090	0	0.161905
7091	0	0.161905
7092	0	0.161905
7093	0	0.161905
7094	0	0.161905
7095	0	0.161905
7096	0	0.161905
7097	0	0.161905
7098	0	0.161905
7099	0	0.161905
7100	0	0.161905
7101	0	0.161905
7102	0	0.161905
7103	0	0.161905
7104	0	0.161905
7105	0	0.161905
7106	0	0.161905
7107	0	0.161905
7108	0	0.161905
7109	0	0.161905
7110	0	0.161905
7111	0	0.161905
7112	0	0.161905
7113	0	0.161905
7114	0	0.161905
7115	0	0.161905
7116	0	0.161905
7117	0	0.161905
7118	0	0.161905
7119	0	0.161905
7120	0	0.161905
7121	0	0.161905
7122	0	0.161905
7123	0	0.161905
7124	0	0.161905
7125	0	0.161905
7126	0	0.161905
7127	0	0.161905
7128	0	0.161905
7129	0	0.161905
7130	0	0.161905
7131	0	0.161905
7132	0	0.161905
7133	0	0.161905
7134	0	0.161905
7135	0	0.161905
7136	0	0.161905
7137	0	0.161905
7138	0	0.161905
7139	0	0.161905
7140	0	0.161905
7141	0	0.161905
7142	0	0.161905
7143	0	0.161905
7144	0	0.161905
7145	0	0.161905
7146	0	0.161905
7147	0	0.161905
7148	0	0.161905
7149	0	0.161905
7150	0	0.161905
7151	0	0.161905
7152	0	0.161905
7153	0	0.161905
7154	0	0.161905
7155	0	0.161905
7156	0	0.186813
7157	0	0.186813
7158	0	0.186813
7159	0	0.186813
7160	0	0.186813
7161	0	0.186813
7162	0	0.186813
7163	0	0.186813
7164	0	0.186813
7165	0	0.186813
7166	0	0.186813
7167	0	0.186813
7168	0	0.186813
7169	0	0.186813
7170	0	0.186813
7171	0	0.186813
7172	0	0.186813
7173	0	0.186813
7174	0	0.186813
7175	0	0.186813
7176	0	0.186813
7177	0	0.186813
7178	0	0.186813
7179	0	0.186813
7180	0	0.186813
7181	0	0.186813
7182	0	0.186813
7183	0	0.186813
7184	0	0.186813
7185	0	0.186813
7186	0	0.217949
7187	0	0.217949
7188	0	0.217949
7189	0	0.217949
7190	0	0.217949
7191	0	0.217949
7192	0	0.217949
7193	0	0.217949
7194	0	0.217949
7195	0	0.217949
7196	0	0.217949
7197	0	0.217949
7198	0	0.257576
7199	0	0.257576
7200	0	0.257576
7201	0	0.257576
7202	0	0.257576
7203	0	0.257576
7204	0	0.257576
7205	0	0.257576
7206	0	0.257576
7207	0	0.257576
7208	0	0.257576
7209	0	0.257576
7210	0	0.257576
7211	0	0.257576
7212	0	0.257576
7213	0	0.257576
7214	0	0.257576
7215	0	0.257576
7216	0	0.257576
7217	0	0.257576
7218	0	0.257576
7219	0	0.257576
7220	0	0.257576
7221	0	0.257576
7222	0	0.257576
7223	0	0.257576
7224	0	0.257576
7225	0	0.257576
7226	0	0.257576
7227	0	0.257576
7228	0	0.257576
7229	0	0.257576
7230	0	0.257576
7231	0	0.257576
7232	0	0.257576
7233	0	0.257576
7234	0	0.257576
7235	0	0.257576
7236	0	0.257576
7237	0	0.212121
7238	0	0.212121
7239	0	0.181818
7240	0	0.2
7241	0	0.166667
7242	0	0.181818
7243	0	0.181818
7244	0	0.181818
7245	0	0.181818
7246	0	0.181818
7247	0	0.181818
7248	0	0.181818
7249	0	0.181818
7250	0	0.181818
7251	0	0.181818
7252	0	0.181818
7253	0	0.181818
7254	0	0.181818
7255	0	0.181818
7256	0	0.212121
7257	0	0.212121
7258	0	0.212121
7259	0	0.212121
7260	0	0.212121
7261	0	0.212121
7262	0	0.212121
7263	0	0.212121
7264	0	0.212121
7265	0	0.212121
7266	0	0.212121
7267	0	0.212121
7268	0	0.212121
7269	0	0.212121
7270	0	0.212121
7271	0	0.212121
7272	0	0.212121
7273	0	0.212121
7274	0	0.212121
7275	0	0.212121
7276	0	0.212121
7277	0	0.212121
7278	0	0.212121
7279	0	0.212121
7280	0	0.212121
7281	0	0.212121
7282	0	0.212121
7283	0	0.212121
7284	0	0.47619
7285	0	0.47619
7286	0	0.254545
7287	0	0.181818
7288	0	0.254545
7289	0	0.257576
7290	0	0.257576
7291	0	0.257576
7292	0	0.257576
7293	0	0.257576
7294	0	0.257576
7295	0	0.257576
7296	0	0.257576
7297	0	0.257576
7298	0	0.257576
7299	0	0.257576
7300	0	0.257576
7301	0	0.257576
7302	0	0.257576
7303	0	0.257576
7304	0	0.257576
7305	0	0.257576
7306	0	0.257576
7307	0	0.257576
7308	0	0.257576
7309	0	0.257576
7310	0	0.257576
7311	0	0.257576
7312	0	0.257576
7313	0	0.257576
7314	0	0.257576
7315	0	0.257576
7316	0	0.257576
7317	0	0.257576
7318	0	0.257576
7319	0	0.257576
7320	0	0.257576
7321	0	0.257576
7322	0	0.257576
7323	0	0.257576
7324	0	0.257576
7325	0	0.257576
7326	0	0.257576
7327	0	0.257576
7328	0	0.257576
7329	0	0.257576
7330	0	0.257576
7331	0	0.257576
7332	0	0.257576
7333	0	0.257576
7334	0	0.257576
7335	0	0.257576
7336	0	0.257576
7337	0	0.257576
7338	0	0.257576
7339	0	0.257576
7340	0	0.257576
7341	0	0.257576
7342	0	0.257576
7343	0	0.257576
7344	0	0.257576
7345	0	0.257576
7346	0	0.309091
7347	0	0.309091
7348	0	0.309091
7349	0	0.309091
7350	0	0.309091
7351	0	0.309091
7352	0	0.309091
7353	0	0.309091
7354	0	0.309091
7355	0	0.309091
7356	0	0.309091
7357	0	0.309091
7358	0	0.309091
7359	0	0.309091
7360	0	0.309091
7361	0	0.309091
7362	0	0.309091
7363	0	0.309091
7364	0	0.309091
7365	0	0.309091
7366	0	0.309091
7367	0	0.309091
7368	0	0.309091
7369	0	0.309091
7370	0	0.309091
7371	0	0.309091
7372	0	0.309091
7373	0	0.309091
7374	0	0.309091
7375	0	0.309091
7376	0	0.309091
7377	0	0.309091
7378	0	0.309091
7379	0	0.309091
7380	0	0.309091
7381	0	0.309091
7382	0	0.309091
7383	0	0.309091
7384	0	0.309091
7385	0	0.309091
7386	0	0.309091
7387	0	0.309091
7388	0	0.309091
7389	0	0.309091
7390	0	0.309091
7391	0	0.309091
7392	0	0.309091
7393	0	0.309091
7394	0	0.309091
7395	0	0.309091
7396	0	0.309091
7397	0	0.309091
7398	0	0.309091
7399	0	0.309091
7400	0	0.309091
7401	0	0.309091
7402	0	0.309091
7403	0	0.309091
7404	0	0.309091
7405	0	0.309091
7406	0	0.309091
7407	0	0.309091
7408	0	0.309091
7409	0	0.309091
7410	0	0.309091
7411	0	0.309091
7412	0	0.309091
7413	0	0.309091
7414	0	0.309091
7415	0	0.309091
7416	0	0.309091
7417	0	0.309091
7418	0	0.309091
7419	0	0.309091
7420	0	0.309091
7421	0	0.309091
7422	0	0.236364
7423	0	0.236364
7424	0	0.236364
7425	0	0.236364
7426	0	0.236364
7427	0	0.236364
7428	0	0.236364
7429	0	0.236364
7430	0	0.181818
7431	0	0.181818
7432	0	0.181818
7433	0	0.181818
7434	0	0.181818
7435	0	0.181818
7436	0	0.181818
7437	0	0.181818
7438	0	0.181818
7439	0	0.181818
7440	0	0.181818
7441	0	0.181818
7442	0	0.181818
7443	0	0.181818
7444	0	0.145455
7445	0	0.145455
7446	0	0.145455
7447	0	0.145455
7448	0	0.145455
7449	0	0.145455
7450	0	0.145455
7451	0	0.145455
7452	0	0.145455
7453	0	0.145455
7454	0	0.145455
7455	0	0.145455
7456	0	0.145455
7457	0	0.145455
7458	0	0.145455
7459	0	0.145455
7460	0	0.145455
7461	0	0.145455
7462	0	0.145455
7463	0	0.145455
7464	0	0.145455
7465	0	0.145455
7466	0	0.145455
7467	0	0.145455
7468	0	0.145455
7469	0	0.145455
7470	0	0.145455
7471	0	0.145455
7472	0	0.145455
7473	0	0.181818
7474	0	0.181818
7475	0	0.145455
7476	0	0.155556
7477	0	0.155556
7478	0	0.155556
7479	0	0.155556
7480	0	0.145455
7481	0	0.145455
7482	0	0.145455
7483	0	0.145455
7484	0	0.145455
7485	0	0.163636
7486	0	0.163636
7487	0	0.163636
7488	0	0.163636
7489	0	0.163636
7490	0	0.163636
7491	0	0.163636
7492	0	0.163636
7493	0	0.163636
7494	0	0.163636
7495	0	0.163636
7496	0	0.163636
7497	0	0.163636
7498	0	0.163636
7499	0	0.163636
7500	0	0.163636
7501	0	0.163636
7502	0	0.177778
7503	0	0.177778
7504	0	0.177778
7505	0	0.222222
7506	0	0.194444
7507	0	0.194444
7508	0	0.194444
7509	0	0.194444
7510	0	0.194444
7511	0	0.194444
7512	0	0.194444
7513	0	0.194444
7514	0	0.194444
7515	0	0.194444
7516	0	0.194444
7517	0	0.194444
7518	0	0.194444
7519	0	0.194444
7520	0	0.194444
7521	0	0.194444
7522	0	0.194444
7523	0	0.194444
7524	0	0.194444
7525	0	0.194444
7526	0	0.194444
7527	0	0.194444
7528	0	0.194444
7529	0	0.194444
7530	0	0.25
7531	0	0.25
7532	0	0.333333
7533	0	0.333333
7534	0	0.333333
7535	0	0.333333
7536	0	0.333333
7537	0	0.333333
7538	0	0.333333
7539	0	0.333333
7540	0	0.333333
7541	0	0.333333
7542	0	0.333333
7543	0	0.333333
7544	0	0.333333
7545	0	0.333333
7546	0	0.333333
7547	0	0.333333
7548	0	0.333333
7549	0	0.333333
7550	0	0.333333
7551	0	0.333333
7552	0	0.333333
7553	0	0.333333
7554	0	0.333333
7555	0	0.333333
7556	0	0.333333
7557	0	0.333333
7558	0	0.333333
7559	0	0.333333
7560	0	0.333333
7561	0	0.333333
7562	0	0.333333
7563	0	0.333333
7564	0	0.333333
7565	0	0.333333
7566	0	0.333333
7567	0	0.333333
7568	0	0.333333
7569	0	0.333333
7570	0	0.333333
7571	0	0.333333
7572	0	0.333333
7573	0	0.333333
7574	0	0.333333
7575	0	0.333333
7576	0	0.466667
7577	0	0.466667
7578	0	0.466667
7579	0	0.466667
7580	0	0.466667
7581	0	0.466667
7582	0	0.466667
7583	0	0.466667
7584	0	0.466667
7585	0	0.466667
7586	0	0.466667
7587	0	0.466667
7588	0	0.466667
7589	0	0.466667
7590	0	0.466667
7591	0	0.466667
7592	0	0.466667
7593	0	0.466667
7594	0	0.466667
7595	0	0.466667
7596	0	0.466667
7597	0	0.466667
7598	0	0.466667
7599	0	0.466667
7600	0	0.466667
7601	0	0.466667
7602	0	0.466667
7603	0	0.466667
7604	0	0.466667
7605	0	0.466667
7606	0	0.466667
7607	0	0.466667
7608	0	0.466667
7609	0	0.466667
7610	0	0.466667
7611	0	0.466667
7612	0	0.466667
7613	0	0.466667
7614	0	0.466667
7615	0	0.466667
7616	0	0.466667
7617	0	0.466667
7618	0	0.466667
7619	0	0.466667
7620	0	0.466667
7621	0	0.466667
7622	0	0.466667
7623	0	0.466667
7624	0	0.466667
7625	0	0.466667
7626	0	0.466667
7627	0	0.466667
7628	0	0.466667
7629	0	0.466667
7630	0	0.466667
7631	0	0.466667
7632	0	0.466667
7633	0	0.466667
7634	0	0.466667
7635	0	0.466667
7636	0	0.466667
7637	0	0.466667
7638	0	0.466667
7639	0	0.466667
7640	0	0.266667
7641	0	0.266667
7642	0	0.266667
7643	0	0.266667
7644	0	0.266667
7645	0	0.266667
7646	0	0.266667
7647	0	0.466667
7648	0	0.466667
7649	0	0.466667
7650	0	0.466667
7651	0	0.466667
7652	0	0.466667
7653	0	0.466667
7654	0	0.466667
7655	0	0.466667
7656	0	0.466667
7657	0	0.466667
7658	0	0.466667
7659	0	0.466667
7660	0	0.466667
7661	0	0.466667
7662	0	0.466667
7663	0	0.466667
7664	0	0.466667
7665	0	0.466667
7666	0	0.466667
7667	0	0.466667
7668	0	0.466667
7669	0	0.466667
7670	0	0.466667
7671	0	0.466667
7672	0	0.466667
7673	0	0.4
7674	0	0.4
7675	0	0.4
7676	0	0.4
7677	0	0.4
7678	0	0.4
7679	0	0.4
7680	0	0.4
7681	0	0.4
7682	0	0.4
7683	0	0.4
7684	0	0.4
7685	0	0.4
7686	0	0.4
7687	0	0.4
7688	0	0.4
7689	0	0.4
7690	0	0.4
7691	0	0.4
7692	0	0.4
7693	0	0.4
7694	0	0.4
7695	0	0.4
7696	0	0.2
7697	0	0.2
7698	0	0.2
7699	0	0.2
7700	0	0.0666667
7701	0	0.0666667
7702	0	0.0666667
7703	0	0.0666667
7704	0	0.0666667
7705	0	0.0666667
7706	0	0.1
7707	0	0.1
7708	0	0.1
7709	0	0.166667
7710	0	0.166667
7711	0	0.166667
7712	0	0.166667
7713	0	0
7714	0	0
7715	0	0
7716	0	0
7717	0	0
7718	0	0
7719	0	0
7720	0	0
7721	0	0
7722	0	0
7723	0	0
7724	0	0
7725	0	0
7726	0	0
7727	0	0
7728	0	0
7729	0	0
7730	0	0
7731	0	0
7732	0	0
7733	0	0
7734	0	0
7735	0	0
7736	0	0
7737	0	0
7738	0	0
7739	0	0
7740	0	0
7741	0	0
7742	0	0
7743	0	0
7744	0	0
7745	0	0
7746	0	0
7747	0	0
7748	0	0
7749	0	0
7750	0	0
7751	0	0
7752	0	0
7753	0	0
7754	0	0
