Site	ColumnScore	SumOfPairsScore
1	0	1
2	0	1
3	0	1
4	0	1
5	0	1
6	0	1
7	0	1
8	0	1
9	0	1
10	0	1
11	0	1
12	0	1
13	0	1
14	0	1
15	0	1
16	0	1
17	0	1
18	0	1
19	0	1
20	0	1
21	0	1
22	0	1
23	0	1
24	0	1
25	0	1
26	0	1
27	0	1
28	0	1
29	0	1
30	0	1
31	0	1
32	0	1
33	0	1
34	0	1
35	0	1
36	0	1
37	0	1
38	0	1
39	0	1
40	0	1
41	0	1
42	0	1
43	0	1
44	0	1
45	0	1
46	0	1
47	0	1
48	0	1
49	0	1
50	0	1
51	0	1
52	0	1
53	0	1
54	0	1
55	0	1
56	0	1
57	0	1
58	0	1
59	0	1
60	0	1
61	0	1
62	0	1
63	0	1
64	0	1
65	0	1
66	0	1
67	0	1
68	0	1
69	0	1
70	0	1
71	0	1
72	0	1
73	0	1
74	0	1
75	0	1
76	0	1
77	0	1
78	0	1
79	0	1
80	0	1
81	0	1
82	0	1
83	0	1
84	0	1
85	0	1
86	0	1
87	0	1
88	0	1
89	0	1
90	1	1
91	1	1
92	1	1
93	0	1
94	0	1
95	1	1
96	1	1
97	1	1
98	1	1
99	1	1
100	1	1
101	1	1
102	1	1
103	1	1
104	1	1
105	1	1
106	1	1
107	1	1
108	1	1
109	1	1
110	1	1
111	1	1
112	1	1
113	1	1
114	0	1
115	0	1
116	0	1
117	0	1
118	0	1
119	1	1
120	1	1
121	1	1
122	1	1
123	1	1
124	0	1
125	0	1
126	0	1
127	0	1
128	0	1
129	0	1
130	0	1
131	0	1
132	0	1
133	0	1
134	0	1
135	0	1
136	0	1
137	0	1
138	0	1
139	0	1
140	0	1
141	0	1
142	0	1
143	0	1
144	0	1
145	0	1
146	0	1
147	0	1
148	0	1
149	0	1
150	0	1
151	0	1
152	0	1
153	0	1
154	0	1
155	0	1
156	0	1
157	0	1
158	0	1
159	0	1
160	0	1
161	0	1
162	0	1
163	0	1
164	0	1
165	0	1
166	0	1
167	0	1
168	0	1
169	0	1
170	0	1
171	0	1
172	0	1
173	0	1
174	0	1
175	0	1
176	0	1
177	0	1
178	0	1
179	0	1
180	0	1
181	0	1
182	0	1
183	0	1
184	0	1
185	0	1
186	0	1
187	0	1
188	0	1
189	0	1
190	0	1
191	0	1
192	0	1
193	0	1
194	0	1
195	0	1
196	0	1
197	0	1
198	0	1
199	0	1
200	0	1
201	0	1
202	0	1
203	0	1
204	0	1
205	0	1
206	0	1
207	0	1
208	0	1
209	0	1
210	0	1
211	0	1
212	0	1
213	0	1
214	0	1
215	0	1
216	0	1
217	0	1
218	0	1
219	0	1
220	0	1
221	0	1
222	0	1
223	0	1
224	0	1
225	0	1
226	0	1
227	0	1
228	0	1
229	0	1
230	0	1
231	0	1
232	0	1
233	0	1
234	0	1
235	0	1
236	0	1
237	0	1
238	0	1
239	0	1
240	0	1
241	0	1
242	0	1
243	0	0.333333
244	0	0.333333
245	0	0.333333
246	0	0.333333
247	0	0.333333
248	0	0.333333
249	0	0.333333
250	0	0.333333
251	0	0.333333
252	0	0.333333
253	0	0.333333
254	0	0.333333
255	0	0.333333
256	0	0.333333
257	0	0.333333
258	0	0.333333
259	0	0.333333
260	0	0.333333
261	0	0.333333
262	0	0.333333
263	0	0.333333
264	0	0.333333
265	0	0.333333
266	0	0.333333
267	0	0.333333
268	0	0.333333
269	0	0.333333
270	0	0.333333
271	0	0.333333
272	0	0.333333
273	0	0.333333
274	0	0.333333
275	0	0.333333
276	0	0.333333
277	0	0.333333
278	0	0.333333
279	0	0.333333
280	0	0.333333
281	0	0.333333
282	0	0.333333
283	0	0.333333
284	0	0.333333
285	0	0.333333
286	0	0.333333
287	0	0.333333
288	0	0.333333
289	0	0.333333
290	0	0.333333
291	0	0.333333
292	0	0.333333
293	0	0.333333
294	0	0.333333
295	0	0.333333
296	0	0.333333
297	0	0.333333
298	0	0.333333
299	0	0.333333
300	0	0.333333
301	0	0.333333
302	0	0.333333
303	0	0.333333
304	0	0.333333
305	0	0.333333
306	0	0.333333
307	0	0.333333
308	0	0.333333
309	0	0.333333
310	0	0.333333
311	0	0.333333
312	0	0.333333
313	0	0.333333
314	0	0.333333
315	0	0.333333
316	0	0.333333
317	0	0.333333
318	0	0.333333
319	0	0.333333
320	0	0.333333
321	0	0.333333
322	0	0.333333
323	0	0.333333
324	0	0.333333
325	0	0.333333
326	0	0.333333
327	0	0.333333
328	0	0.333333
329	0	0.333333
330	0	0.333333
331	0	0.333333
332	0	0.333333
333	0	0.333333
334	0	0.333333
335	0	0.333333
336	0	0.333333
337	0	0.333333
338	0	0.333333
339	0	0.333333
340	0	0.333333
341	0	0.333333
342	0	0.333333
343	0	0.333333
344	0	0.333333
345	0	0.333333
346	0	0.333333
347	0	0.333333
348	0	0.333333
349	0	0.333333
350	0	0.333333
351	0	0.333333
352	0	0.333333
353	0	0.333333
354	0	0.333333
355	0	0.333333
356	0	0.333333
357	0	0.333333
358	0	0.333333
359	0	0.333333
360	0	0.333333
361	0	0.333333
362	0	0.333333
363	0	0.333333
364	0	0.333333
365	0	0.333333
366	0	0.333333
367	0	0.333333
368	0	0.333333
369	0	0.333333
370	0	0.333333
371	0	0.333333
372	0	0.333333
373	0	0.333333
374	0	0.333333
375	0	0.333333
376	0	0.333333
377	0	0.333333
378	0	0.333333
379	0	0.333333
380	0	0.333333
381	0	0.333333
382	0	0.166667
383	0	0.166667
384	0	0.166667
385	0	0.166667
386	0	0.166667
387	0	0.166667
388	0	0.166667
389	0	0.166667
390	0	0.166667
391	0	0.166667
392	0	0.166667
393	0	0.166667
394	0	0.166667
395	0	0.166667
396	0	0.166667
397	0	0.166667
398	0	0.166667
399	0	0.166667
400	0	0.166667
401	0	0.166667
402	0	0.166667
403	0	0.166667
404	0	0.166667
405	0	0.166667
406	0	0.1
407	0	0.1
408	0	0.1
409	0	0.1
410	0	0.1
411	0	0.1
412	0	0.1
413	0	0.1
414	0	0.1
415	0	0.1
416	0	0.1
417	0	0.1
418	0	0.1
419	0	0.1
420	0	0.1
421	0	0.1
422	0	0.1
423	0	0.1
424	0	0.1
425	0	0.1
426	0	0.1
427	0	0.1
428	0	0.1
429	0	0.1
430	0	0.1
431	0	0.1
432	0	0.1
433	0	0.1
434	0	0.1
435	0	0.1
436	0	0.1
437	0	0.1
438	0	0.1
439	0	0.1
440	0	0.1
441	0	0.1
442	0	0.1
443	0	0.1
444	0	0.1
445	0	0.1
446	0	0.1
447	0	0.1
448	0	0.1
449	0	0.1
450	0	0.1
451	0	0.1
452	0	0.1
453	0	0.1
454	0	0.1
455	0	0.1
456	0	0.1
457	0	0.1
458	0	0.1
459	0	0.1
460	0	0.1
461	0	0.1
462	0	0.1
463	0	0.1
464	0	0.1
465	0	0.1
466	0	0.1
467	0	0.1
468	0	0.1
469	0	0.1
470	0	0.1
471	0	0.1
472	0	0.1
473	0	0.1
474	0	0.1
475	0	0.1
476	0	0.1
477	0	0.1
478	0	0.1
479	0	0.1
480	0	0.1
481	0	0.1
482	0	0.1
483	0	0.1
484	0	0.1
485	0	0.1
486	0	0.1
487	0	0.1
488	0	0.1
489	0	0.1
490	0	0.1
491	0	0.1
492	0	0.1
493	0	0.1
494	0	0.1
495	0	0.1
496	0	0.1
497	0	0.1
498	0	0.1
499	0	0.1
500	0	0.1
501	0	0.1
502	0	0.1
503	0	0.1
504	0	0.1
505	0	0.1
506	0	0.1
507	0	0.1
508	0	0.1
509	0	0.1
510	0	0.1
511	0	0.1
512	0	0.1
513	0	0.1
514	0	0.1
515	0	0.1
516	0	0.1
517	0	0.1
518	0	0.1
519	0	0.1
520	0	0.1
521	0	0.1
522	0	0.1
523	0	0.1
524	0	0.1
525	0	0.1
526	0	0.1
527	0	0.1
528	0	0.1
529	0	0.1
530	0	0.1
531	0	0.1
532	0	0.1
533	0	0.1
534	0	0.1
535	0	0.1
536	0	0.1
537	0	0.1
538	0	0.1
539	0	0.1
540	0	0.1
541	0	0.1
542	0	0.1
543	0	0.1
544	0	0.1
545	0	0.1
546	0	0.1
547	0	0.1
548	0	0.1
549	0	0.1
550	0	0.1
551	0	0.1
552	0	0.1
553	0	0.1
554	0	0.1
555	0	0.1
556	0	0.1
557	0	0.1
558	0	0.1
559	0	0.1
560	0	0.1
561	0	0.1
562	0	0.1
563	0	0.1
564	0	0.1
565	0	0.1
566	0	0.1
567	0	0.1
568	0	0.1
569	0	0.1
570	0	0.1
571	0	0.1
572	0	0.1
573	0	0.1
574	0	0.1
575	0	0.1
576	0	0.1
577	0	0.0666667
578	0	0.0666667
579	0	0.0714286
580	0	0.0714286
581	0	0.0714286
582	0	0.0714286
583	0	0.0714286
584	0	0.0714286
585	0	0.0714286
586	0	0.0714286
587	0	0.0714286
588	0	0.0714286
589	0	0.0714286
590	0	0.0714286
591	0	0.0714286
592	0	0.0714286
593	0	0.0714286
594	0	0.0714286
595	0	0.0714286
596	0	0.0714286
597	0	0.0714286
598	0	0.0714286
599	0	0.0714286
600	0	0.0714286
601	0	0.0714286
602	0	0.0714286
603	0	0.0714286
604	0	0.0714286
605	0	0.111111
606	0	0.0888889
607	0	0.0888889
608	0	0.0727273
609	0	0.0727273
610	0	0.0727273
611	0	0.0727273
612	0	0.0727273
613	0	0.0727273
614	0	0.0727273
615	0	0.0727273
616	0	0.0727273
617	0	0.0727273
618	0	0.0727273
619	0	0.0757576
620	0	0.0757576
621	0	0.0757576
622	0	0.0757576
623	0	0.0757576
624	0	0.0757576
625	0	0.0757576
626	0	0.0641026
627	0	0.0641026
628	0	0.0641026
629	0	0.0641026
630	0	0.0641026
631	0	0.0641026
632	0	0.0641026
633	0	0.0512821
634	0	0.0380952
635	0	0.0380952
636	0	0.0380952
637	0	0.0380952
638	0	0.0380952
639	0	0.0380952
640	0	0.047619
641	0	0.0416667
642	0	0.0416667
643	0	0.0416667
644	0	0.0416667
645	0	0.0416667
646	0	0.025
647	0	0.021978
648	0	0.021978
649	0	0.021978
650	0	0.0190476
651	0	0.021978
652	0	0.021978
653	0	0.00952381
654	0	0.00735294
655	0	0.00833333
656	0	0.00833333
657	0	0.00833333
658	0	0.00833333
659	0	0.00833333
660	0	0.00833333
661	0	0.00833333
662	0	0.0166667
663	0	0.0147059
664	0	0.0147059
665	0	0.00735294
666	0	0.00735294
667	0	0.0147059
668	0	0.0220588
669	0	0.0196078
670	0	0.0196078
671	0	0.0116959
672	0	0.0130719
673	0	0.0196078
674	0	0.0210526
675	0	0.0157895
676	0	0.0157895
677	0	0.021645
678	0	0.0380952
679	0	0.0421053
680	0	0.0368421
681	0	0.0333333
682	0	0.0333333
683	0	0.0190476
684	0	0.0181159
685	0	0.0307692
686	0	0.0338462
687	0	0.0338462
688	0	0.0246154
689	0	0.0238095
690	0	0.042328
691	0	0.0512821
692	0	0.0925926
693	0	0.0862069
694	0	0.0827586
695	0	0.0873563
696	0	0.0873563
697	0	0.109848
698	0	0.212121
699	0	0.199643
700	0	0.253968
701	0	0.257143
702	0	0.414414
703	0	0.392603
704	0	0.355128
705	0	0.337805
706	0	0.321719
707	0	0.834667
708	0	0.923553
709	0	0.932397
710	0	0.925038
711	0	0.921372
712	0	0
713	0	0
714	0	0
715	0	0
716	0	0
717	0	0
718	0	0
719	0	0
720	0	0
721	0	0
722	0	0
723	0	0
724	0	0
725	0	0
726	0	0
727	0	0
728	0	0
729	0	0.937234
730	0	0.431034
731	0	0.900423
732	0	0.90041
733	0	0
734	0	0
735	0	0
736	0	0
737	0	0
738	0	0
739	0	0
740	0	0
741	0	0
742	0	0
743	0	0
744	0	0
745	0	0
746	0	0
747	0	0
748	0	0
749	0	0
750	0	0
751	0	0
752	0	0
753	0	0
754	0	0
755	0	0
756	0	0
757	0	0
758	0	0
759	0	0
760	0	0
761	0	0
762	0	0
763	0	0
764	0	0.909833
765	0	0
766	0	0.227273
767	0	0.227273
768	0	0.226316
769	0	0.226316
770	0	0.157143
771	0	0.71766
772	0	0.620245
773	0	0.166667
774	0	0.166667
775	0	0.166667
776	0	0.166667
777	0	0.166667
778	0	0
779	0	0
780	0	0
781	0	0
782	0	0
783	0	0
784	0	0
785	0	0
786	0	0.392821
787	0	0
788	0	0
789	0	0
790	0	0
791	0	0
792	0	0
793	0	0
794	0	0
795	0	0
796	0	0
797	0	0
798	0	0
799	0	0
800	0	0
801	0	0
802	0	0
803	0	0
804	0	0
805	0	0
806	0	0
807	0	0
808	0	0
809	0	0
810	0	0
811	0	0
812	0	0
813	0	0
814	0	0
815	0	0
816	0	0
817	0	0
818	0	0
819	0	0
820	0	0
821	0	0
822	0	0
823	0	0
824	0	0
825	0	0
826	0	0
827	0	0
828	0	0
829	0	0
830	0	0
831	0	0
832	0	0
833	0	0
834	0	0
835	0	0
836	0	0
837	0	0
838	0	0
839	0	0
840	0	0
841	0	0
842	0	0
843	0	0
844	0	0
845	0	0
846	0	0
847	0	0
848	0	0
849	0	0
850	0	0
851	0	0
852	0	0
853	0	0
854	0	0
855	0	0
856	0	0
857	0	0
858	0	0
859	0	0
860	0	0
861	0	0
862	0	0
863	0	0
864	0	0
865	0	0
866	0	0
867	0	0
868	0	0
869	0	0
870	0	0
871	0	0
872	0	0
873	0	0.1
874	0	0.0666667
875	0	0.0666667
876	0	0.39886
877	0	0.320565
878	0	0.726471
879	0	0.3398
880	0	0.337914
881	0	0
882	0	0
883	0	0
884	0	0
885	0	0
886	0	0
887	0	0
888	0	0
889	0	0
890	0	0
891	0	0
892	0	0
893	0	0
894	0	0
895	0	0
896	0	0
897	0	0
898	0	0
899	0	0
900	0	0
901	0	0
902	0	0
903	0	0
904	0	0
905	0	0
906	0	0
907	0	0
908	0	0
909	0	0
910	0	0
911	0	0
912	0	0
913	0	0
914	0	0
915	0	0
916	0	0
917	0	0
918	0	0
919	0	0
920	0	0
921	0	0
922	0	0
923	0	0
924	0	0
925	0	0
926	0	0
927	0	0
928	0	0
929	0	0
930	0	0
931	0	0
932	0	0
933	0	0
934	0	0
935	0	0
936	0	0
937	0	0
938	0	0
939	0	0
940	0	0
941	0	0
942	0	0
943	0	0
944	0	0
945	0	0
946	0	0
947	0	0
948	0	0
949	0	0
950	0	0
951	0	0
952	0	0
953	0	0
954	0	0
955	0	0
956	0	0
957	0	0
958	0	0
959	0	0
960	0	0
961	0	0
962	0	0
963	0	0
964	0	0
965	0	0
966	0	0
967	0	0
968	0	0
969	0	0
970	1	0
971	0	0
972	0	0
973	0	0
974	0	0
975	0	0
976	0	0
977	0	0
978	0	0
979	0	0
980	0	0
981	0	0
982	0	0
983	0	0
984	0	0
985	0	0
986	0	0
987	0	0
988	0	0
989	0	0
990	0	0
991	0	0.3
992	0	0.3
993	0	0.3
994	0	0
995	0	0
996	0	0
997	0	0
998	0	0
999	0	0
1000	0	0
1001	0	0
1002	0	0
1003	0	0
1004	0	0
1005	0	0
1006	0	0
1007	0	0
1008	0	0
1009	0	0
1010	0	0.638596
1011	0	0.801815
1012	0	0.511202
1013	0	0.47719
1014	0	0.662338
1015	0	0.461905
1016	0	0.660866
1017	0	0.677321
1018	0	0.680571
1019	0	0.181818
1020	0	0.155556
1021	0	0.0888889
1022	0	0.621967
1023	0	0.606308
1024	0	0.1
1025	0	0.1
1026	0	0.1
1027	0	0.1
1028	0	0.1
1029	0	0
1030	0	0
1031	0	0
1032	0	0
1033	0	0
1034	0	0
1035	0	0
1036	0	0
1037	0	0.545736
1038	0	0
1039	0	0
1040	0	0
1041	0	0
1042	0	0
1043	0	0
1044	0	0
1045	0	0
1046	0	0
1047	0	0
1048	0	0
1049	0	0
1050	0	0
1051	0	0
1052	0	0
1053	0	0
1054	0	0
1055	0	0
1056	0	0
1057	0	0
1058	0	0
1059	0	0
1060	0	0
1061	0	0
1062	0	0
1063	0	0
1064	0	0
1065	0	0
1066	0	0
1067	0	0
1068	0	0
1069	0	0
1070	0	0
1071	0	0
1072	0	0
1073	0	0
1074	0	0
1075	0	0
1076	0	0
1077	0	0
1078	0	0
1079	0	0
1080	0	0
1081	0	0
1082	0	0
1083	0	0
1084	0	0
1085	0	0
1086	0	0
1087	0	0
1088	0	0
1089	0	0
1090	0	0
1091	0	0
1092	0	0
1093	0	0
1094	0	0
1095	0	0
1096	0	0
1097	0	0
1098	0	0
1099	0	0
1100	0	0
1101	0	0
1102	0	0
1103	0	0
1104	0	0
1105	0	0
1106	0	0
1107	0	0
1108	0	0
1109	0	0
1110	0	0
1111	0	0
1112	0	0
1113	0	0
1114	0	0
1115	0	0
1116	0	0
1117	0	0
1118	0	0
1119	0	0
1120	0	0
1121	0	0
1122	0	0
1123	0	0
1124	0	0
1125	0	0
1126	0	0
1127	0	0
1128	0	0
1129	0	0
1130	0	0
1131	0	0
1132	0	0
1133	0	0
1134	0	0
1135	0	0
1136	0	0
1137	0	0
1138	0	0
1139	0	0
1140	0	0
1141	0	0
1142	0	0
1143	0	0
1144	0	0
1145	0	0
1146	0	0
1147	0	0
1148	0	0
1149	0	0
1150	0	0
1151	0	0
1152	0	0
1153	0	0
1154	0	0
1155	0	0
1156	0	0
1157	0	0
1158	0	0
1159	0	0
1160	0	0
1161	0	0
1162	0	0
1163	0	0
1164	0	0
1165	0	0
1166	0	0
1167	0	0
1168	0	0
1169	0	0
1170	0	0
1171	0	0
1172	0	0
1173	0	0
1174	0	0
1175	0	0
1176	0	0
1177	0	0
1178	0	0
1179	0	0
1180	0	0
1181	0	0
1182	0	0
1183	0	0
1184	0	0
1185	0	0
1186	0	0
1187	0	0
1188	0	0
1189	0	0
1190	0	0
1191	0	0
1192	0	0
1193	0	0
1194	0	0
1195	0	0
1196	0	0
1197	0	0
1198	0	0
1199	0	0
1200	0	0
1201	0	0
1202	0	0
1203	0	0
1204	0	0
1205	0	0
1206	0	0
1207	0	0
1208	0	0
1209	0	0
1210	0	0
1211	0	0
1212	0	0
1213	0	0
1214	0	0
1215	0	0
1216	0	0
1217	0	0
1218	0	0
1219	0	0.0666667
1220	0	0.0666667
1221	0	0.424242
1222	0	0.455388
1223	0	0.166667
1224	0	0.166667
1225	0	0.166667
1226	0	0.155556
1227	0	0.151515
1228	0	0.12381
1229	0	0.230438
1230	0	0.226027
1231	0	0.260257
1232	0	0.467488
1233	0	0
1234	0	0
1235	0	0
1236	0	0
1237	0	0
1238	0	0
1239	0	0.913043
1240	0	0
1241	0	0
1242	0	0
1243	0	0
1244	0	0
1245	0	0
1246	0	0
1247	0	0
1248	0	0
1249	0	0
1250	0	0
1251	0	0
1252	0	0
1253	0	0
1254	0	0
1255	0	0
1256	0	0
1257	0	0
1258	0	0
1259	0	0
1260	0	0
1261	0	0
1262	0	0
1263	0	0
1264	0	0
1265	0	0
1266	0	0
1267	0	0
1268	0	0
1269	0	0
1270	0	0
1271	0	0
1272	0	0.705128
1273	0	0.424837
1274	0	0.424837
1275	0	0.424837
1276	0	0.517915
1277	0	0.0833333
1278	0	0.0833333
1279	0	0.0277778
1280	0	0.0444444
1281	0	0.0444444
1282	0	0.0545455
1283	0	0.0444444
1284	0	0.0897436
1285	0	0.282051
1286	0	0.228712
1287	0	0.239086
1288	0	0.260697
1289	0	0.25628
1290	0	0.209769
1291	0	0.20797
1292	0	0.313059
1293	0	0.322339
1294	0	0.445937
1295	0	0.417172
1296	0	0.453214
1297	0	0.401691
1298	0	0.655242
1299	0	0.698925
1300	0	0.698925
1301	0	0.679803
1302	0	0
1303	0	0
1304	0	0
1305	0	0
1306	0	0
1307	0	0
1308	0	0
1309	0	0
1310	0	0
1311	0	0
1312	0	0
1313	0	0
1314	0	0
1315	0	0
1316	0	0
1317	0	0
1318	0	0
1319	0	0
1320	0	0
1321	0	0
1322	0	0
1323	0	0
1324	0	0
1325	0	0
1326	0	0
1327	0	0
1328	0	0
1329	0	0
1330	0	0
1331	0	0
1332	0	0
1333	0	0
1334	0	0
1335	0	0
1336	0	0
1337	0	0
1338	0	0
1339	0	0
1340	0	0
1341	0	0
1342	0	0
1343	0	0
1344	0	0
1345	0	0
1346	0	0
1347	0	0
1348	0	0
1349	0	0
1350	0	0
1351	0	0
1352	0	0
1353	0	0
1354	0	0
1355	0	0
1356	0	0
1357	0	0
1358	0	0
1359	0	0
1360	0	0
1361	0	0
1362	0	0
1363	0	0
1364	0	0
1365	0	0
1366	0	0
1367	0	0
1368	0	0
1369	0	0
1370	0	0
1371	0	0
1372	0	0
1373	0	0
1374	0	0
1375	0	0
1376	0	0
1377	0	0
1378	0	0
1379	0	0
1380	0	0
1381	0	0
1382	0	0
1383	0	0
1384	0	0
1385	0	0
1386	0	0
1387	0	0
1388	0	0
1389	0	0
1390	0	0
1391	0	0
1392	0	0
1393	0	0
1394	0	0
1395	0	0
1396	0	0
1397	0	0
1398	0	0
1399	0	0
1400	0	0
1401	0	0
1402	0	0
1403	0	0
1404	0	0
1405	0	0
1406	0	0
1407	0	0
1408	0	0
1409	0	0
1410	0	0
1411	0	0
1412	0	0
1413	0	0
1414	0	0
1415	0	0
1416	0	0
1417	0	0
1418	0	0
1419	0	0
1420	0	0
1421	0	0
1422	0	0
1423	0	0
1424	0	0
1425	0	0
1426	0	0
1427	0	0
1428	0	0
1429	0	0
1430	0	0
1431	0	0
1432	0	0
1433	0	0
1434	0	0
1435	0	0
1436	0	0
1437	0	0
1438	0	0
1439	0	0
1440	0	0
1441	0	0
1442	0	0
1443	0	0
1444	0	0
1445	0	0
1446	0	0
1447	0	0
1448	0	0
1449	0	0
1450	0	0
1451	0	0
1452	0	0
1453	0	0
1454	0	0
1455	0	0
1456	0	0
1457	0	0
1458	0	0
1459	0	0
1460	0	0
1461	0	0
1462	0	0
1463	0	0
1464	0	0
1465	0	0
1466	0	0
1467	0	0
1468	0	0
1469	0	0
1470	0	0
1471	0	0
1472	0	0
1473	0	0
1474	0	0
1475	0	0
1476	0	0
1477	0	0
1478	0	0
1479	0	0
1480	0	0
1481	0	0
1482	0	0
1483	0	0
1484	0	0
1485	0	0
1486	0	0
1487	0	0
1488	0	0
1489	1	0
1490	0	0
1491	0	0
1492	0	0
1493	0	0
1494	0	0
1495	0	0
1496	0	0
1497	0	0
1498	0	0
1499	0	0
1500	0	0
1501	0	0
1502	0	0
1503	0	0
1504	0	0
1505	0	0
1506	0	0
1507	0	0
1508	0	0
1509	0	0
1510	0	0
1511	0	0
1512	0	0
1513	0	0
1514	0	0
1515	0	0
1516	0	0
1517	0	0
1518	0	0
1519	0	0
1520	0	0
1521	0	0
1522	0	0
1523	0	0
1524	0	0
1525	0	0
1526	0	0
1527	0	0
1528	0	0
1529	0	0
1530	0	0
1531	0	0
1532	0	0
1533	0	0
1534	0	0
1535	0	0
1536	0	0
1537	0	0
1538	0	0
1539	0	0
1540	0	0
1541	0	0
1542	0	0
1543	0	0
1544	0	0
1545	0	0
1546	0	0
1547	0	0
1548	0	0
1549	0	0
1550	0	0
1551	0	0
1552	0	0
1553	0	0
1554	0	0
1555	0	0
1556	0	0
1557	0	0
1558	0	0
1559	0	0
1560	1	0
1561	0	0
1562	0	0
1563	0	0
1564	0	0
1565	0	0
1566	0	0
1567	0	0
1568	0	0
1569	0	0
1570	0	0
1571	0	0
1572	0	0
1573	0	0
1574	0	0
1575	0	0
1576	0	0
1577	0	0
1578	0	0
1579	0	0
1580	0	0
1581	0	0
1582	0	0.416239
1583	0	0.326689
1584	0	0.14
1585	0	0.108333
1586	0	0.108333
1587	0	0
1588	0	0
1589	0	0
1590	0	0
1591	0	0
1592	0	0
1593	0	0
1594	0	0
1595	0	0
1596	0	0
1597	0	0
1598	0	0
1599	0	0
1600	0	0
1601	0	0
1602	0	0
1603	0	0
1604	0	0
1605	0	0
1606	0	0
1607	0	0
1608	0	0
1609	0	0
1610	0	0
1611	0	0
1612	0	0
1613	0	0
1614	0	0
1615	0	0
1616	0	0
1617	0	0
1618	0	0
1619	0	0
1620	0	0
1621	0	0
1622	0	0
1623	0	0
1624	0	0
1625	0	0
1626	0	0
1627	0	0
1628	0	0
1629	0	0
1630	0	0
1631	0	0
1632	0	0
1633	0	0
1634	0	0
1635	0	0
1636	0	0
1637	0	0
1638	0	0
1639	0	0
1640	0	0
1641	0	0
1642	0	0
1643	0	0
1644	0	0
1645	0	0
1646	0	0
1647	0	0
1648	0	0
1649	0	0
1650	0	0
1651	0	0
1652	0	0
1653	0	0
1654	0	0
1655	0	0
1656	0	0
1657	0	0
1658	0	0
1659	0	0
1660	0	0
1661	0	0
1662	0	0
1663	0	0
1664	0	0
1665	0	0
1666	0	0
1667	0	0
1668	0	0.441824
1669	0	0.1
1670	0	0
1671	0	0
1672	0	0
1673	0	0
1674	0	0
1675	0	0
1676	0	0
1677	0	0
1678	0	0.364089
1679	0	0.426025
1680	0	0.0909091
1681	0	0.0909091
1682	0	0.57197
1683	0	0.0909091
1684	0	0.0757576
1685	0	0.433855
1686	0	0.326441
1687	0	0.252542
1688	0	0.396845
1689	0	0.502704
1690	0	0
1691	0	0
1692	0	0
1693	0	0
1694	0	0
1695	0	0
1696	0	0
1697	0	0
1698	0	0.0666667
1699	0	0.0666667
1700	0	0.0714286
1701	0	0.653176
1702	0	0.656647
1703	0	0.047619
1704	0	0.0666667
1705	0	0.133333
1706	0	0
1707	0	0
1708	0	0
1709	0	0
1710	0	0
1711	0	0
1712	0	0
1713	0	0
1714	0	0
1715	0	0
1716	0	0
1717	0	0
1718	0	0
1719	0	0.166667
1720	0	0.166667
1721	0	0.1
1722	0	0.1
1723	0	0.1
1724	0	0.1
1725	0	0.1
1726	0	0.634705
1727	0	0.63465
1728	0	0.626127
1729	0	0.64645
1730	0	0.166667
1731	0	0.166667
1732	0	0.166667
1733	0	0.166667
1734	0	0.1
1735	0	0.0952381
1736	0	0.0952381
1737	0	0.0714286
1738	0	0.0555556
1739	0	0.0545455
1740	0	0.0454545
1741	0	0.0380952
1742	0	0.0380952
1743	0	0.0666667
1744	0	0.518514
1745	0	0.482843
1746	0	0.505291
1747	0	0.0641026
1748	0	0.0727273
1749	0	0.0277778
1750	0	0.0277778
1751	0	0.384593
1752	0	0.365008
1753	0	0.571429
1754	0	0.047619
1755	0	0
1756	0	0
1757	0	0
1758	0	0
1759	0	0
1760	0	0
1761	0	0
1762	0	0
1763	0	0
1764	0	0
1765	0	0
1766	0	0
1767	0	0
1768	0	0
1769	0	0
1770	0	0
1771	0	0
1772	0	0
1773	0	0
1774	0	0
1775	0	0
1776	0	0
1777	0	0
1778	0	0
1779	0	0
1780	0	0.771734
1781	0	0
1782	0	0
1783	0	0
1784	0	0
1785	0	0
1786	0	0
1787	0	0
1788	0	0
1789	0	0
1790	0	0.0666667
1791	0	0.0666667
1792	0	0.512269
1793	0	0.512372
1794	0	0.1
1795	0	0.2
1796	0	0.2
1797	0	0.2
1798	0	0
1799	0	0.5
1800	0	0.5
1801	0	0.5
1802	0	0.5
1803	0	0
1804	0	0
1805	0	0
1806	0	0
1807	0	0
1808	0	0
1809	1	0
1810	1	0
1811	1	0
1812	1	0
1813	1	0
1814	1	0
1815	1	0
1816	1	0
1817	1	0
1818	1	0
1819	1	0
1820	1	0
1821	1	0
1822	0	0
1823	0	0
1824	0	0
1825	0	0.843333
1826	0	0.568432
1827	0	0.544715
1828	0	0.544715
1829	0	0.489521
1830	0	0.194444
1831	0	0.25
1832	0	0.4
1833	0	0.4
1834	0	0
1835	0	0
1836	0	0
1837	0	0
1838	0	0
1839	0	0
1840	0	0
1841	0	0
1842	0	0
1843	0	0
1844	0	0
1845	0	0
1846	0	0
1847	0	0
1848	0	0
1849	0	0
1850	0	0
1851	0	0.5
1852	0	0
1853	0	0
1854	0	0.494489
1855	0	0.0769231
1856	0	0.128205
1857	0	0.128205
1858	0	0.128205
1859	0	0.127273
1860	0	0.127273
1861	0	0.980007
1862	0	0.980007
1863	0	0.266667
1864	0	0.266667
1865	0	0.4
1866	0	0.4
1867	0	1
1868	0	1
1869	0	1
1870	0	1
1871	0	0.991143
1872	0	0.991143
1873	0	0.991143
1874	0	0.994671
1875	0	0.994671
1876	0	0.992911
1877	0	0.994671
1878	0	0
1879	0	0
1880	0	0
1881	0	0
1882	0	0
1883	1	0
1884	1	0
1885	1	0
1886	1	0
1887	1	0
1888	1	0
1889	1	0
1890	1	0
1891	1	0
1892	0	0.991143
1893	0	0.991143
1894	0	0.99115
1895	1	0
1896	1	0
1897	0	0
1898	0	0.982419
1899	0	0
1900	0	0
1901	0	0
1902	0	0
1903	0	0
1904	0	0
1905	0	0
1906	0	0
1907	0	0
1908	0	0
1909	0	0
1910	0	0
1911	0	0
1912	0	0
1913	0	0
1914	0	0.991166
1915	0	0.989413
1916	0	0.989413
1917	0	0.989413
1918	0	0
1919	0	0.992942
1920	0	0.992942
1921	0	0.9947
1922	0	0.99476
1923	0	0.994778
1924	0	0.994787
1925	0	0.996026
1926	0	0.996018
1927	0	0.996018
1928	0	0.996018
1929	0	0.996022
1930	0	0.996018
1931	0	0.996018
1932	0	0.774443
1933	0	0.774443
1934	0	0.47619
1935	0	0.765388
1936	0	0
1937	0	0
1938	0	0
1939	0	0
1940	0	0
1941	0	0
1942	0	0
1943	0	0
1944	0	0
1945	0	0
1946	0	0
1947	0	0
1948	0	0
1949	0	0
1950	0	0
1951	0	0
1952	0	0
1953	0	0
1954	0	0
1955	0	0
1956	0	0
1957	0	0
1958	0	0
1959	0	0
1960	0	0
1961	0	0
1962	0	0
1963	0	0
1964	0	0
1965	0	0
1966	0	0
1967	0	0
1968	0	0
1969	0	0
1970	0	0
1971	0	0
1972	0	0
1973	0	0
1974	0	0
1975	0	0
1976	0	0
1977	0	0
1978	0	0
1979	0	0
1980	0	0
1981	0	0
1982	0	0
1983	0	0
1984	0	0
1985	0	0
1986	0	0
1987	0	0
1988	0	0
1989	0	0
1990	0	0
1991	0	0
1992	0	0
1993	0	0
1994	0	0
1995	0	0
1996	0	0
1997	0	0
1998	0	0
1999	0	0
2000	0	0
2001	0	0
2002	0	0
2003	0	0
2004	0	0
2005	0	0
2006	0	0
2007	0	0
2008	0	0.765812
2009	0	0.974099
2010	0	0.962043
2011	0	0.962074
2012	0	0.960466
2013	0	0.967283
2014	0	0.962189
2015	0	0.960282
2016	0	0.272727
2017	0	0.272727
2018	0	0.268421
2019	0	0.2
2020	0	0.2
2021	0	0
2022	0	0
2023	0	0
2024	0	0.565878
2025	0	0.75
2026	0	0.285714
2027	0	0.540193
2028	0	0.359763
2029	0	0
2030	0	0
2031	0	0
2032	0	0
2033	0	0
2034	0	0
2035	1	0
2036	1	0
2037	0	0
2038	0	0
2039	0	0
2040	0	0
2041	0	0
2042	0	0
2043	0	0
2044	0	0
2045	0	0
2046	0	0
2047	0	0
2048	0	0
2049	0	0
2050	0	0
2051	0	0
2052	0	0
2053	0	0
2054	0	0
2055	0	0
2056	0	0
2057	0	0
2058	0	0
2059	0	0
2060	0	0
2061	0	0
2062	0	0
2063	0	0
2064	0	0
2065	0	0
2066	0	0
2067	0	0
2068	0	0
2069	0	0
2070	0	0
2071	0	0
2072	0	0
2073	0	0
2074	0	0.929926
2075	0	0.437307
2076	0	0.596888
2077	0	0.721646
2078	0	0.839539
2079	0	0.876041
2080	0	0.957447
2081	0	0.991336
2082	0	0.990081
2083	0	0.993084
2084	0	0.993084
2085	0	0.994805
2086	0	0.994805
2087	0	0.996532
2088	0	0.994805
2089	0	0.993083
2090	0	0.993083
2091	0	0
2092	0	0
2093	0	0
2094	0	0
2095	0	0
2096	0	0
2097	0	0.993083
2098	0	0.993083
2099	0	0.996532
2100	0	0.996529
2101	0	0.996529
2102	0	0.996529
2103	0	0.996529
2104	0	0.996529
2105	0	0.996529
2106	0	0.998262
2107	0	0.998262
2108	0	0.998262
2109	0	0.998261
2110	0	0
2111	0	0
2112	0	0
2113	0	0.993083
2114	0	0.993083
2115	0	0.98791
2116	0	0
2117	0	0
2118	0	0
2119	0	0
2120	0	0
2121	0	0
2122	1	0
2123	1	0
2124	0	0.981109
2125	0	0.98109
2126	0	0.98109
2127	0	0.98109
2128	0	0.982787
2129	0	0.981074
2130	0	0
2131	0	0.333333
2132	0	0.993089
2133	0	0.993089
2134	0	0.993089
2135	0	0.993089
2136	0	0.993089
2137	0	0.993089
2138	0	0.993089
2139	0	0.993089
2140	0	0.993089
2141	1	0
2142	1	0
2143	1	0
2144	1	0
2145	1	0
2146	1	0
2147	1	0
2148	1	0
2149	1	0
2150	0	0
2151	0	0
2152	0	0
2153	0	0
2154	0	0.998268
2155	0	0.998268
2156	0	0.998268
2157	0	0.998268
2158	0	0.99827
2159	0	0.99827
2160	0	0.99827
2161	0	0.99827
2162	1	1
2163	0	1
2164	0	1
2165	0	1
2166	1	1
2167	1	1
2168	0	0.99827
2169	0	0.99827
2170	0	0.772682
2171	0	0.910861
2172	0	1
2173	0	0.996547
2174	0	0.996547
2175	0	0.998271
2176	1	1
2177	1	1
2178	0	0.998273
2179	0	0.998273
2180	0	1
2181	0	0.994828
2182	0	0.99655
2183	0	0.994832
2184	0	0.994832
2185	0	0.993118
2186	1	0
2187	1	0
2188	1	0
2189	1	0
2190	1	1
2191	0	1
2192	0	1
2193	0	1
2194	0	1
2195	0	1
2196	0	0.99827
2197	0	0.99827
2198	0	0.998271
2199	0	0.996547
2200	0	0.996547
2201	0	0.996547
2202	0	0.994828
2203	0	0.991394
2204	0	0
2205	1	1
2206	1	1
2207	1	1
2208	1	1
2209	0	0.996547
2210	0	0.996547
2211	0	0.996547
2212	0	0.996547
2213	0	0.996547
2214	0	0.996547
2215	0	0.996547
2216	0	0.996547
2217	0	0.996547
2218	0	0.996547
2219	0	0.998271
2220	0	0.998271
2221	0	0.998271
2222	0	0.998271
2223	0	0.998271
2224	0	0.998271
2225	0	0.998271
2226	0	1
2227	0	1
2228	0	0.481884
2229	0	0.295798
2230	0	0.937034
2231	0	0.762443
2232	0	0.762443
2233	0	0.762443
2234	0	0.762443
2235	0	0.806667
2236	0	0.74716
2237	0	0.4
2238	0	0.654783
2239	0	0.701857
2240	0	0.640992
2241	0	0.723113
2242	0	0.150246
2243	0	0.183333
2244	0	0.2
2245	0	0.20915
2246	0	0.257576
2247	0	0.254545
2248	0	0.25
2249	0	0.666667
2250	0	0.666667
2251	0	0.4
2252	0	0.4
2253	0	0.4
2254	0	0.466667
2255	0	1
2256	0	1
2257	0	1
2258	0	1
2259	0	1
2260	0	1
2261	0	1
2262	0	1
2263	0	1
2264	0	1
2265	0	1
2266	0	1
2267	0	1
2268	0	1
2269	0	1
2270	0	1
2271	0	1
2272	0	1
2273	0	1
2274	0	1
2275	0	1
2276	0	1
2277	0	1
2278	0	1
2279	0	1
2280	0	1
2281	0	1
2282	0	1
2283	0	0.99827
2284	0	1
2285	1	1
2286	1	1
2287	1	1
2288	1	1
2289	1	1
2290	0	1
2291	1	1
2292	0	1
2293	1	1
2294	1	1
2295	1	1
2296	1	1
2297	1	1
2298	1	1
2299	1	1
2300	0	0
2301	0	0
2302	0	0
2303	1	0
2304	1	0
2305	1	0
2306	1	0
2307	1	0
2308	1	0
2309	1	0
2310	1	0
2311	1	0
2312	0	0
2313	0	0
2314	0	0
2315	0	0
2316	0	0
2317	0	0
2318	0	0
2319	0	0.98625
2320	0	0
2321	0	0.4
2322	1	1
2323	0	0.88585
2324	1	1
2325	1	1
2326	1	1
2327	1	1
2328	1	1
2329	1	1
2330	1	1
2331	1	1
2332	1	1
2333	1	1
2334	1	1
2335	0	0.998268
2336	1	1
2337	0	1
2338	0	0.998271
2339	0	0.998271
2340	0	0.996547
2341	0	0.998273
2342	0	0.998276
2343	0	0.998276
2344	0	0.998276
2345	0	1
2346	0	1
2347	0	1
2348	0	1
2349	0	1
2350	0	1
2351	0	1
2352	0	1
2353	0	1
2354	0	1
2355	0	1
2356	0	1
2357	0	1
2358	0	1
2359	0	1
2360	0	1
2361	0	1
2362	0	1
2363	0	1
2364	0	1
2365	0	0.998279
2366	0	0.998279
2367	0	0.998279
2368	0	0.998279
2369	0	0.998279
2370	0	0.998279
2371	0	0.943095
2372	0	0
2373	0	0
2374	0	0
2375	0	0
2376	0	0.166667
2377	0	0.166667
2378	0	0.1
2379	0	0.92924
2380	0	1
2381	0	0
2382	0	0.4
2383	0	0.441448
2384	0	0.574134
2385	0	0.698532
2386	0	0.625045
2387	0	0.398092
2388	0	0.379331
2389	0	0.248366
2390	0	0.347368
2391	0	0.904762
2392	0	0.995836
2393	0	0.996559
2394	0	0
2395	0	0.994836
2396	0	0.994836
2397	0	0.994836
2398	0	0.989655
2399	0	1
2400	0	0.324675
2401	0	0.290946
2402	0	0.81488
2403	0	0
2404	0	0
2405	0	0
2406	0	0
2407	0	0.421753
2408	0	0.8
2409	0	0.8
2410	0	1
2411	0	1
2412	0	0.430291
2413	0	0.391813
2414	0	0.647368
2415	0	0.544335
2416	0	0.694581
2417	0	0.512507
2418	0	0.405229
2419	0	0.333333
2420	0	0.333333
2421	0	1
2422	0	1
2423	0	1
2424	0	0.866657
2425	0	0.922682
2426	0	0.3
2427	0	0.780612
2428	0	0.996559
2429	0	0.996559
2430	0	0.996559
2431	0	0.996559
2432	0	0.998279
2433	0	0.998279
2434	0	0.998279
2435	0	0.998279
2436	0	0.998279
2437	0	0.998279
2438	0	1
2439	0	1
2440	0	1
2441	0	0.998279
2442	0	0.998279
2443	1	0
2444	0	1
2445	0	1
2446	0	1
2447	0	0.998279
2448	0	0.998279
2449	0	0.998279
2450	0	0.998279
2451	0	0.998279
2452	0	0.998279
2453	0	0.994842
2454	0	0.888889
2455	0	0.962699
2456	0	0.962699
2457	0	1
2458	0	1
2459	0	1
2460	0	0.879032
2461	0	0.879032
2462	0	0.879032
2463	0	0.915001
2464	0	0.888118
2465	0	0.473074
2466	0	0.912234
2467	0	0.623693
2468	0	0.546547
2469	0	0.501587
2470	0	0.470588
2471	0	0.538774
2472	0	0.6
2473	0	0.6
2474	0	0.630326
2475	0	0.31964
2476	0	0.384544
2477	0	0.636842
2478	0	0.358289
2479	0	0.357955
2480	0	0.311943
2481	0	0.357411
2482	0	0.184089
2483	0	0.1367
2484	0	0.126599
2485	0	0.21261
2486	0	0.207075
2487	0	0.195027
2488	0	0.210432
2489	0	0.351916
2490	0	0.55
2491	0	0.306755
2492	0	0.148596
2493	0	0.117484
2494	0	0.13798
2495	0	0.130303
2496	0	0.139184
2497	0	0.187902
2498	0	0.16934
2499	0	0.301024
2500	0	0.445813
2501	0	0.25
2502	0	0.2
2503	0	0.285714
2504	0	0.635897
2505	0	0.572142
2506	0	0.81167
2507	0	0.1
2508	0	0.166667
2509	0	0.166667
2510	0	0.578818
2511	0	0.828877
2512	0	0.264883
2513	0	0.0769231
2514	0	0.190476
2515	0	0.188406
2516	0	0.260165
2517	0	0.254325
2518	0	0.325033
2519	0	1
2520	0	0.5
2521	0	0.333333
2522	0	0.6
2523	0	0.263736
2524	0	0.167742
2525	0	0.268467
2526	0	0
2527	0	0
2528	0	0
2529	0	0
2530	0	0
2531	0	0.780791
2532	0	0.253695
2533	0	0.28795
2534	0	0.200932
2535	0	0.301594
2536	0	0
2537	0	0.0444444
2538	0	0
2539	0	0.611111
2540	0	0
2541	0	0.0277778
2542	0	0.0277778
2543	0	0.201093
2544	0	0.157326
2545	0	0.230687
2546	0	0.102662
2547	0	0.0982912
2548	0	0.128604
2549	0	0.327273
2550	0	0.412103
2551	0	0.189542
2552	0	0.177778
2553	0	0.194444
2554	0	0.2
2555	0	0.191667
2556	0	0.208333
2557	0	0.157143
2558	0	0.172906
2559	0	0.173077
2560	0	0.321739
2561	0	0.462333
2562	0	0.138022
2563	0	0
2564	0	0
2565	0	0
2566	0	0
2567	0	0
2568	0	0
2569	0	0.133333
2570	0	0.240678
2571	0	0.4401
2572	0	0.320261
2573	0	0.339921
2574	0	0.36
2575	0	0.411676
2576	0	0.436864
2577	0	0.40344
2578	0	0.432006
2579	0	1
2580	0	1
2581	0	1
2582	0	1
2583	0	1
2584	0	0.333333
2585	0	0.2
2586	0	0.261084
2587	0	0.320057
2588	0	0.369771
2589	0	0.43693
2590	0	0
2591	0	0.506475
2592	0	0.142857
2593	0	0.214286
2594	0	0.214286
2595	0	0.214286
2596	0	0.214286
2597	0	0.178571
2598	0	0.138889
2599	0	0.155556
2600	0	0.759995
2601	0	0.456288
2602	0	0.594398
2603	0	0.820728
2604	0	0.565535
2605	0	0.568044
2606	0	0.564587
2607	0	0.344029
2608	0	0.47376
2609	0	0.398175
2610	0	0.463179
2611	0	0.384058
2612	0	0.766862
2613	0	0.927417
2614	0	0.927417
2615	0	0.927495
2616	0	0.925892
2617	0	0.972006
2618	0	0.975443
2619	0	0.975436
2620	0	0.975458
2621	0	1
2622	0	1
2623	0	1
2624	0	0.99141
2625	0	0.991403
2626	0	0.991403
2627	0	0.991403
2628	0	0.989688
2629	0	0.987984
2630	0	0.986285
2631	0	0.986285
2632	0	1
2633	1	1
2634	1	1
2635	0	0
2636	1	0
2637	1	0
2638	1	0
2639	1	0
2640	1	0
2641	1	0
2642	1	0
2643	1	0
2644	1	0
2645	1	0
2646	1	0
2647	1	0
2648	1	0
2649	1	0
2650	1	0
2651	0	0
2652	0	0.333333
2653	0	0.99309
2654	0	0.996541
2655	0	0.996541
2656	0	0.998268
2657	0	0.996535
2658	0	0.99481
2659	0	0.993066
2660	0	0
2661	0	0
2662	0	0
2663	0	0.705128
2664	0	0.833333
2665	0	0.491979
2666	0	0.491979
2667	0	0.828877
2668	0	0.554817
2669	0	0.562368
2670	0	0.899248
2671	0	0.693095
2672	0	1
2673	0	1
2674	0	0.428571
2675	0	0.285714
2676	0	0.194444
2677	0	0.5
2678	0	0.3
2679	0	0.518116
2680	0	0.433846
2681	0	0.363333
2682	0	0.188506
2683	0	0.153409
2684	0	0.651665
2685	0	0.381217
2686	0	0.170738
2687	0	0
2688	0	0
2689	0	0
2690	0	0
2691	0	0
2692	0	0
2693	0	0
2694	0	0.669073
2695	0	0.658577
2696	0	0.681576
2697	0	0.193027
2698	0	0.176471
2699	0	0.437037
2700	0	0.172687
2701	0	1
2702	0	1
2703	0	1
2704	0	1
2705	0	1
2706	0	0.0842681
2707	0	0.0738714
2708	0	0.123507
2709	0	0.20452
2710	0	0.23533
2711	0	0.500627
2712	0	0.395039
2713	0	0.104503
2714	0	0
2715	0	0
2716	0	0.290909
2717	0	0.3
2718	0	0.142857
2719	0	0.2
2720	0	0.266667
2721	0	0.266667
2722	0	0.0717117
2723	0	0.0696039
2724	0	0.100359
2725	0	0
2726	0	0
2727	0	0
2728	0	0.217136
2729	0	0.131983
2730	0	0.231343
2731	0	0.396419
2732	0	0.396419
2733	0	0.177914
2734	0	0.1
2735	0	0.166667
2736	0	0.166667
2737	0	0.166667
2738	0	0.601732
2739	0	0.583744
2740	0	0.283251
2741	0	0.219872
2742	0	0.272494
2743	0	0.133333
2744	0	0.465241
2745	0	0.229865
2746	0	0.414398
2747	0	0.311555
2748	0	0.39026
2749	0	0.479836
2750	0	0.44918
2751	0	0.155798
2752	0	0.107692
2753	0	0.184615
2754	0	0.106293
2755	0	0.106939
2756	0	0.095459
2757	0	0.122807
2758	0	0.117647
2759	0	0.0784314
2760	0	0.104762
2761	0	0.104762
2762	0	0.266667
2763	0	0.309942
2764	0	0.35028
2765	0	0.489362
2766	0	0.443267
2767	0	0.498083
2768	0	0.469564
2769	0	0.158989
2770	0	0.25
2771	0	0.466995
2772	0	0.458389
2773	0	0.390684
2774	0	0.301887
2775	0	0.443954
2776	0	0.518087
2777	0	0.590603
2778	0	0.595922
2779	0	0.392857
2780	0	0.444444
2781	0	0.444444
2782	0	0.571429
2783	0	0.31822
2784	0	0.131048
2785	0	0.785251
2786	0	0.333333
2787	0	0.275362
2788	0	0.417989
2789	0	0.513228
2790	0	0.480296
2791	0	0.902496
2792	0	0.666667
2793	0	0.666667
2794	0	0.714286
2795	0	0.925926
2796	0	0.98456
2797	0	0.984573
2798	0	0.988002
2799	0	0.988002
2800	0	0.9897
2801	0	0.993118
2802	0	0.99313
2803	0	0
2804	0	1
2805	0	1
2806	0	1
2807	0	1
2808	0	0.998279
2809	1	1
2810	1	1
2811	1	1
2812	1	1
2813	0	0
2814	0	0
2815	0	0
2816	0	0
2817	0	0
2818	0	0
2819	0	0
2820	0	0
2821	0	0
2822	0	0
2823	0	0
2824	0	0
2825	0	0
2826	0	0
2827	1	0
2828	1	0
2829	1	0
2830	1	0
2831	1	0
2832	1	0
2833	1	0
2834	0	0
2835	0	0
2836	0	0
2837	0	0
2838	0	0
2839	0	0
2840	0	0.99828
2841	0	0.99828
2842	0	0.99828
2843	0	0.99828
2844	0	0.99828
2845	0	0.99828
2846	0	0.99828
2847	0	0.99828
2848	0	0.99828
2849	0	0.99828
2850	0	0.99828
2851	0	0.99828
2852	0	0.99828
2853	0	0.99828
2854	0	0.99828
2855	0	0.996562
2856	1	0
2857	1	0
2858	0	0
2859	0	0
2860	0	0
2861	0	0
2862	0	0
2863	0	0
2864	0	0
2865	0	0
2866	0	0
2867	0	0
2868	1	0
2869	1	0
2870	1	0
2871	1	0
2872	0	0
2873	0	0
2874	0	0
2875	0	0
2876	0	0
2877	0	0
2878	0	0
2879	0	0
2880	0	0
2881	0	0
2882	0	0
2883	0	0
2884	0	0
2885	0	0
2886	0	0
2887	1	0
2888	1	0
2889	1	0
2890	1	0
2891	0	0
2892	0	0
2893	0	0
2894	0	0
2895	0	0
2896	0	0
2897	0	0
2898	0	0
2899	0	0
2900	0	0
2901	0	0
2902	1	0
2903	1	0
2904	1	0
2905	1	0
2906	1	0
2907	0	0
2908	0	0
2909	0	0
2910	0	0
2911	0	0
2912	0	0
2913	0	0
2914	0	0
2915	0	0
2916	0	0
2917	0	0
2918	0	0
2919	0	0
2920	0	0
2921	0	0
2922	0	0
2923	0	0
2924	0	0
2925	0	0
2926	0	0
2927	0	0
2928	0	0
2929	0	0
2930	0	0
2931	0	0.99485
2932	0	0.99485
2933	0	0.945946
2934	0	0.52013
2935	0	0.870879
2936	0	0.714286
2937	0	0.714286
2938	0	0
2939	0	0.568443
2940	0	0.568184
2941	0	0.2
2942	0	0.333333
2943	0	0.166667
2944	0	0.381818
2945	0	0.282051
2946	0	0.208333
2947	0	0.820302
2948	0	0.601325
2949	0	0.440104
2950	0	0.419219
2951	0	0.533228
2952	0	0.460062
2953	0	0.340067
2954	0	0.222368
2955	0	0.186862
2956	0	0.321935
2957	0	0.301926
2958	0	0.203276
2959	0	0.166667
2960	0	0.333333
2961	0	0.122807
2962	0	0.0877193
2963	0	0.114286
2964	0	0.128205
2965	0	0.151515
2966	0	0.360668
2967	0	0.742745
2968	0	0.136528
2969	0	0.721053
2970	0	0.721053
2971	0	0.373684
2972	0	0.307359
2973	0	0.290476
2974	0	0.167213
2975	0	0.15873
2976	0	0.158841
2977	0	0.191518
2978	0	0.143516
2979	0	0.0988007
2980	0	0.27842
2981	0	0.385426
2982	0	0.176035
2983	0	0.281621
2984	0	0.297888
2985	0	0.304314
2986	0	0.320578
2987	0	0.315476
2988	0	0.486486
2989	0	0.475976
2990	0	0.503175
2991	0	0.531092
2992	0	0.741379
2993	0	0.190476
2994	0	0.1
2995	0	0.1
2996	0	0.506239
2997	0	0.316017
2998	0	0.823246
2999	0	0.166667
3000	0	0.166667
3001	0	0.333333
3002	0	0.333333
3003	0	0.333333
3004	0	0.333333
3005	0	0.333333
3006	0	0.333333
3007	0	0.333333
3008	0	0.333333
3009	0	0.333333
3010	0	0.333333
3011	0	0.333333
3012	0	0.333333
3013	0	0.333333
3014	0	0.333333
3015	0	0.333333
3016	0	0.333333
3017	0	0.333333
3018	0	0.333333
3019	0	0.333333
3020	0	0.333333
3021	0	0.333333
3022	0	0.333333
3023	0	0.333333
3024	0	0.333333
3025	0	0.333333
3026	0	0.333333
3027	0	0.333333
3028	0	0.333333
3029	0	0.333333
3030	0	0.333333
3031	0	0.333333
3032	0	0.333333
3033	0	0.333333
3034	0	0
3035	1	0
3036	0	0
3037	0	0
3038	0	0
3039	0	0
3040	0	0
3041	0	0
3042	0	0
3043	1	0
3044	1	0
3045	1	0
3046	0	0
3047	0	0
3048	1	0
3049	1	0
3050	1	0
3051	0	0
3052	0	0
3053	0	0
3054	0	0
3055	0	0
3056	0	0
3057	0	0
3058	0	0
3059	0	0
3060	0	0
3061	0	0
3062	0	0.690314
3063	0	0.333333
3064	0	0.333333
3065	0	0.333333
3066	0	0.333333
3067	0	0.306061
3068	0	0.329849
3069	0	0.338095
3070	0	0.732869
3071	0	0.932053
3072	0	0.58871
3073	0	0.85755
3074	0	0.85755
3075	0	1
3076	0	0.991403
3077	0	0.991403
3078	0	0.993126
3079	0	0.993126
3080	0	1
3081	0	1
3082	0	1
3083	0	1
3084	0	1
3085	0	1
3086	0	1
3087	0	1
3088	0	1
3089	0	1
3090	0	1
3091	0	1
3092	0	1
3093	0	1
3094	0	1
3095	0	1
3096	0	1
3097	0	1
3098	0	1
3099	0	1
3100	0	1
3101	0	1
3102	0	1
3103	0	1
3104	0	1
3105	0	1
3106	0	1
3107	0	1
3108	0	1
3109	0	1
3110	0	1
3111	0	1
3112	0	1
3113	0	1
3114	0	1
3115	0	1
3116	0	0.993126
3117	0	0.993126
3118	0	0.993126
3119	0	0.993126
3120	0	0.993126
3121	0	0.993126
3122	0	0.989714
3123	0	0.989714
3124	0	0.166667
3125	0	0.166667
3126	0	0.166667
3127	0	0.166667
3128	0	0.166667
3129	0	0.166667
3130	0	0.166667
3131	0	0.987995
3132	0	0.987995
3133	0	0.714286
3134	0	0.714286
3135	0	0.714286
3136	0	0.0952381
3137	0	0.0952381
3138	0	0.0952381
3139	0	0.133333
3140	0	0.133333
3141	0	0.133333
3142	0	0.133333
3143	0	0.133333
3144	0	0.133333
3145	0	0.133333
3146	0	0.133333
3147	0	0.133333
3148	0	0.133333
3149	0	0.133333
3150	0	0.133333
3151	0	0.133333
3152	0	0.133333
3153	0	0.133333
3154	0	0.133333
3155	0	0.133333
3156	0	0.133333
3157	0	0.133333
3158	0	0.133333
3159	0	0.133333
3160	0	0.133333
3161	0	0.0952381
3162	0	0.190476
3163	0	0.190476
3164	0	0.190476
3165	0	0.190476
3166	0	0.133333
3167	0	0.133333
3168	0	0.133333
3169	0	0.133333
3170	0	0.133333
3171	0	0.133333
3172	0	0.133333
3173	0	0.133333
3174	0	0.133333
3175	0	0.133333
3176	0	0.133333
3177	0	0.133333
3178	0	0.133333
3179	0	0.133333
3180	0	0.133333
3181	0	0.133333
3182	0	0.133333
3183	0	0.133333
3184	0	0.133333
3185	0	0.133333
3186	0	0.133333
3187	0	0.133333
3188	0	0.133333
3189	0	0.133333
3190	0	0.133333
3191	0	0.133333
3192	0	0.133333
3193	0	0.133333
3194	0	0.133333
3195	0	0.133333
3196	0	0.133333
3197	0	0.133333
3198	0	0.133333
3199	0	0.133333
3200	0	0.133333
3201	0	0.133333
3202	0	0.133333
3203	0	0.133333
3204	0	0.133333
3205	0	0.133333
3206	0	0.133333
3207	0	0.133333
3208	0	0.133333
3209	0	0.133333
3210	0	0.133333
3211	0	0.133333
3212	0	0.133333
3213	0	0.133333
3214	0	0.133333
3215	0	0.190476
3216	0	0.190476
3217	0	0.190476
3218	0	0.190476
3219	0	0.190476
3220	0	0.190476
3221	0	0.190476
3222	0	0.190476
3223	0	0.190476
3224	0	0.190476
3225	0	0.190476
3226	0	0.190476
3227	0	0.190476
3228	0	0.190476
3229	0	0.190476
3230	0	0.190476
3231	0	0.190476
3232	0	0.190476
3233	0	0.190476
3234	0	0.190476
3235	0	0.190476
3236	0	0.190476
3237	0	0.190476
3238	0	0.190476
3239	0	0.190476
3240	0	0.190476
3241	0	0.190476
3242	0	0.190476
3243	0	0.190476
3244	0	0.190476
3245	0	0.190476
3246	0	0.190476
3247	0	0.190476
3248	0	0.190476
3249	0	0.190476
3250	0	0.190476
3251	0	0.190476
3252	0	0.190476
3253	0	0.190476
3254	0	0.190476
3255	0	0.190476
3256	0	0.190476
3257	0	0.190476
3258	0	0.190476
3259	0	0.190476
3260	0	0.190476
3261	0	0.190476
3262	0	0.190476
3263	0	0.190476
3264	0	0.190476
3265	0	0.190476
3266	0	0.266667
3267	0	0.266667
3268	0	0.266667
3269	0	0.266667
3270	0	0.266667
3271	0	0.266667
3272	0	0.266667
3273	0	0.266667
3274	0	0.266667
3275	0	0.266667
3276	0	0.266667
3277	0	0.266667
3278	0	0.266667
3279	0	0.266667
3280	0	0.266667
3281	0	0.266667
3282	0	0.266667
3283	0	0.5
3284	0	0.5
3285	0	0.5
3286	0	0.5
3287	0	0.5
3288	0	0.5
3289	0	1
3290	0	1
3291	0	1
3292	0	1
3293	0	1
3294	0	1
3295	0	1
3296	0	1
3297	0	1
3298	0	1
3299	0	1
3300	0	1
3301	0	1
3302	0	1
3303	0	1
3304	0	1
3305	0	1
3306	0	1
3307	0	1
3308	0	1
3309	0	1
3310	0	1
3311	0	1
3312	0	1
3313	0	1
3314	0	1
3315	0	1
3316	0	1
3317	0	1
3318	0	1
3319	0	1
3320	0	0
3321	0	0
3322	0	0
3323	0	0
3324	0	0
3325	0	0
3326	0	0
3327	0	0
3328	0	0
3329	0	0
3330	0	0
3331	0	0
3332	0	0
3333	0	0
3334	0	0
3335	0	0
3336	0	0
3337	0	0
3338	0	0
3339	0	0
3340	0	0
3341	0	0
3342	0	0
3343	0	0
3344	0	0
3345	0	0
3346	0	0
3347	0	0
3348	0	0
3349	0	0
3350	0	0
3351	0	0
3352	0	0
3353	0	0
3354	0	0
3355	0	0
3356	0	0
3357	0	0
3358	0	0
3359	0	0
3360	0	0
3361	0	0
3362	0	0
3363	0	0
3364	0	0
3365	0	0
3366	0	0
3367	0	0
3368	0	0
3369	0	0
3370	0	0
3371	0	0
3372	0	0
3373	0	0
3374	0	0
3375	0	0
3376	0	0
3377	0	0
3378	0	0
3379	0	0
3380	0	0
3381	0	0
3382	0	0
3383	0	0
3384	0	0
3385	0	0
3386	0	0
3387	0	0
3388	0	0
3389	0	0
3390	0	0
3391	0	0
3392	0	0
3393	0	0
3394	0	0
3395	0	0
3396	0	0
3397	0	0
3398	0	0
3399	0	0
3400	0	0
3401	0	0
3402	0	0
3403	0	0
3404	0	0
3405	0	0
3406	0	0
3407	0	0
3408	0	0
3409	0	0
3410	0	0
3411	0	0
3412	0	0
3413	0	0
3414	0	0
3415	0	0
3416	0	0
3417	0	0
3418	0	0
3419	0	0
3420	0	0
3421	0	0
3422	0	0
3423	0	0
3424	0	0
3425	0	0
3426	0	0
3427	0	0
3428	0	0
3429	0	0
3430	0	0
3431	0	0
3432	0	0
3433	0	0
3434	0	0
3435	0	0
3436	0	0
3437	0	0
3438	0	0
3439	0	0
3440	0	0
3441	0	0
3442	0	0
3443	0	0
3444	0	0
3445	0	0
3446	0	0
3447	0	0
3448	0	0
3449	0	0
3450	0	0
3451	0	0
3452	0	0
3453	0	0
3454	0	0
3455	0	0
3456	0	0
3457	0	0
3458	0	0
3459	0	0
3460	0	0
3461	0	0
3462	0	0
3463	0	0
3464	0	0
3465	0	0
3466	0	0
3467	0	0
3468	0	0
3469	0	0
3470	0	0
3471	0	0
3472	0	0
3473	0	0
3474	0	0
3475	0	0
3476	0	0
3477	0	0
3478	0	0
3479	0	0
3480	0	0
3481	0	0
3482	0	0
3483	0	0
3484	0	0
3485	0	0
3486	0	0
3487	0	0
3488	0	0
3489	0	0
3490	0	0
3491	0	0
3492	0	0
3493	0	0
3494	0	0
3495	0	0
3496	0	0
3497	0	0
3498	0	0
3499	0	0
3500	0	0
3501	0	0
3502	0	0
3503	0	0
3504	0	0
3505	0	0
3506	0	0
3507	0	0
3508	0	0
3509	0	0
3510	0	0
3511	0	0
3512	0	0
3513	0	0
3514	0	0
3515	0	0
3516	0	0
3517	0	0
3518	0	0
3519	0	0
3520	0	0
3521	0	0
3522	0	0
3523	0	0
3524	0	0
3525	0	0
3526	0	0
3527	0	0
3528	0	0
3529	0	0
3530	0	0
3531	0	0
3532	0	0
3533	0	0
3534	0	0
3535	0	0
3536	0	0
3537	0	0
3538	0	0
3539	0	0
3540	0	0
3541	0	0
3542	0	0
3543	0	0
3544	0	0
3545	0	0
3546	0	0
3547	0	0
3548	0	0
3549	0	0
3550	0	0
3551	0	0
3552	0	0
3553	0	0
3554	0	0
3555	0	0
3556	0	0
3557	0	0
3558	0	0
3559	0	0
3560	0	0
3561	0	0
3562	0	0
3563	0	0
3564	0	0
3565	0	0
3566	0	0
3567	0	0
3568	0	0
3569	0	0
3570	0	0
3571	0	0
3572	0	0
3573	0	0
3574	0	0
3575	0	0
3576	0	0
3577	0	0
3578	0	0
3579	0	0
3580	0	0
3581	0	0
3582	0	0
3583	0	0
3584	0	0
3585	0	0
3586	0	0
3587	0	0
3588	0	0
3589	0	0
3590	0	0
3591	0	0
3592	0	0
3593	0	0
3594	0	0
3595	0	0
3596	0	0
3597	0	0
3598	0	0
3599	0	0
3600	0	0
3601	0	0
3602	0	0
3603	0	0
3604	0	0
3605	0	0
3606	0	0
3607	0	0
3608	0	0
3609	0	0
3610	0	0
3611	0	0
3612	0	0
3613	0	0
3614	0	0
3615	0	0
3616	0	0
3617	0	0
3618	0	0
3619	0	0
3620	0	0
3621	0	0
3622	0	0
3623	0	0
3624	0	0
3625	0	0
3626	0	0
3627	0	0
3628	0	0
3629	0	0
3630	0	0
3631	0	0
3632	0	0
3633	0	0
3634	0	0
3635	0	0
3636	0	0
3637	0	0
3638	0	0
3639	0	0
3640	0	0
3641	0	0
3642	0	0
3643	0	0
3644	0	0
3645	0	0
3646	0	0
3647	0	0
3648	0	0
3649	0	0
3650	0	0
3651	0	0
3652	0	0
3653	0	0
3654	0	0
3655	0	0
3656	0	0
3657	0	0
3658	0	0
3659	0	0
3660	0	0
3661	0	0
3662	0	0
3663	0	0
3664	0	0
3665	0	0
3666	0	0
3667	0	0
3668	0	0
3669	0	0
3670	0	0
3671	0	0
3672	0	0
3673	0	0
3674	0	0
3675	0	0
3676	0	0
3677	0	0
3678	0	0
3679	0	0
3680	0	0
3681	0	0
3682	0	0
3683	0	0
3684	0	0
3685	0	0
3686	0	0
3687	0	0
3688	0	0
3689	0	0
3690	0	0
3691	0	0
3692	0	0
3693	0	0
3694	0	0
3695	0	0
3696	0	0
3697	0	0
3698	0	0
3699	0	0
3700	0	0
3701	0	0
3702	0	0
3703	0	0
3704	0	0
3705	0	0
3706	0	0
3707	0	0
3708	0	0
3709	0	0
3710	0	0
3711	0	0
3712	0	0
3713	0	0
3714	0	0
3715	0	0
3716	0	0
3717	0	0
3718	0	0
3719	0	0
3720	0	0
3721	0	0
3722	0	0
3723	0	0
3724	0	0
3725	0	0
3726	0	0
3727	0	0
3728	0	0
3729	0	0
3730	0	0
3731	0	0
3732	0	0
3733	0	0
3734	0	0
3735	0	0
3736	1	0
3737	1	0
3738	0	0
3739	0	0
3740	0	0
3741	0	0
3742	0	0
3743	1	0
3744	0	0
3745	0	0
3746	0	0
3747	0	0
3748	0	0
3749	0	0
3750	0	0
3751	0	0
3752	0	0
3753	0	0
3754	0	0
3755	0	0
3756	0	0
3757	0	0
3758	0	0
3759	0	0
3760	0	0
3761	0	0
3762	0	0
3763	0	0
3764	0	0
3765	0	0
3766	0	0
3767	0	0
3768	0	0
3769	0	0
3770	0	0
3771	0	0
3772	0	0
3773	0	0
3774	0	0
3775	0	0
3776	0	0
3777	0	0
3778	0	0
3779	0	0
3780	0	0
3781	0	0
3782	0	0
3783	0	0
3784	0	0
3785	0	0
3786	0	0
3787	0	0
3788	0	0
3789	0	0
3790	0	0
3791	0	0
3792	0	0
3793	0	0
3794	0	0
3795	0	0
3796	0	0
3797	0	0
3798	0	0
3799	0	0
3800	0	0
3801	0	0
3802	0	0
3803	0	0
3804	0	0
3805	0	0
3806	0	0
3807	0	0
3808	0	0
3809	0	0
3810	0	0
3811	0	0
3812	0	0
3813	0	0
3814	0	0
3815	0	0
3816	0	0
3817	0	0
3818	0	0
3819	0	0
3820	0	0
3821	0	0
3822	0	0
3823	0	0
3824	0	0
3825	0	0
3826	0	0
3827	0	0
3828	0	0
3829	0	0
3830	0	0
3831	0	0
3832	0	0
3833	0	0
3834	0	0
3835	0	0
3836	0	0
3837	0	0
3838	0	0
3839	0	0
3840	0	0
3841	0	0
3842	0	0
3843	0	0
3844	0	0
3845	0	0
3846	0	0
3847	0	0
3848	0	0
3849	0	0
3850	1	0
3851	1	0
3852	1	0
3853	1	0
3854	1	0
3855	1	0
3856	1	0
3857	0	0
3858	0	0
3859	0	0
3860	0	0
3861	0	0
3862	0	0
3863	0	0
3864	0	0
3865	0	0
3866	0	0
3867	0	0
3868	0	0
3869	1	0
3870	1	0
3871	1	0
3872	0	0
3873	0	0
3874	0	0
3875	0	0
3876	0	0
3877	0	0
3878	0	0
3879	1	0
3880	1	0
3881	1	0
3882	1	0
3883	0	0
3884	0	0
3885	0	0
3886	1	0
3887	1	0
3888	1	0
3889	1	0
3890	0	0
3891	0	0
3892	0	0
3893	0	0
3894	0	0
3895	0	0
3896	0	0
3897	0	0
3898	0	0
3899	0	0
3900	0	0
3901	1	0
3902	1	0
3903	1	0
3904	1	0
3905	1	0
3906	1	0
3907	1	0
3908	1	0
3909	1	0
3910	1	0
3911	1	0
3912	1	0
3913	1	0
3914	1	0
3915	1	0
3916	1	0
3917	1	0
3918	1	0
3919	1	0
3920	1	0
3921	1	0
3922	1	0
3923	1	0
3924	1	0
3925	1	0
3926	1	0
3927	1	0
3928	0	0
3929	0	0
3930	0	0
3931	0	0
3932	0	0
3933	0	0
3934	0	0
3935	0	0
3936	0	0
3937	0	0
3938	0	0
3939	0	0
3940	0	0
3941	0	0
3942	0	0
3943	0	0
3944	0	0
3945	0	0
3946	0	0
3947	0	0
3948	0	0
3949	0	0
3950	0	0
3951	0	0
3952	0	0
3953	0	0
3954	1	0
3955	1	0
3956	1	0
3957	1	0
3958	1	0
3959	1	0
3960	0	0
3961	0	0
3962	0	0
3963	0	0
3964	0	0
3965	0	0
3966	0	0
3967	1	0
3968	0	0
3969	0	0
3970	0	0
3971	0	0
3972	0	0
3973	0	0
3974	0	0
3975	0	0
3976	0	0
3977	0	0
3978	0	0
3979	0	0
3980	0	0
3981	0	0
3982	0	0
3983	0	0
3984	0	0
3985	0	0
3986	0	0
3987	0	0
3988	0	0
3989	0	0
3990	0	0
3991	0	0
3992	0	0
3993	0	0
3994	0	0
3995	0	0
3996	0	0
3997	0	0
3998	0	0
3999	0	0
4000	0	0
4001	0	0
4002	0	0
4003	0	0
4004	0	0
4005	0	0
4006	0	0
4007	0	0
4008	0	0
4009	0	0
4010	0	0
4011	0	0
4012	0	0
4013	0	0
4014	0	0
4015	0	0
4016	0	0
4017	0	0
4018	0	0
4019	0	0
4020	0	0
4021	0	0
4022	0	0
4023	0	0
4024	0	0
4025	0	0
4026	0	0
4027	0	0
4028	0	0
4029	0	0
4030	0	0
4031	0	0
4032	0	0
4033	0	0
4034	0	0
4035	0	0
4036	0	0
4037	0	0
4038	0	0
4039	0	0
4040	0	0
4041	0	0
4042	0	0
4043	0	0
4044	0	0
4045	0	0
4046	0	0
4047	0	0
4048	0	0
4049	0	0
4050	0	0
4051	0	0
4052	0	0
4053	0	0
4054	0	0
4055	0	0
4056	0	0
4057	0	0
4058	0	0
4059	0	0
4060	0	0
4061	0	0
4062	0	0
4063	0	0
4064	0	0
4065	0	0
4066	0	0
4067	0	0
4068	0	0
4069	0	0
4070	0	0
4071	0	0
4072	0	0
4073	0	0
4074	0	0
4075	0	0
4076	1	0
4077	0	0
4078	0	0
4079	0	0
4080	0	0
4081	0	0
4082	0	0
4083	0	0
4084	0	0
4085	0	0
4086	0	0
4087	0	0
4088	0	0
4089	0	0
4090	0	0
4091	0	0
4092	0	0
4093	0	0
4094	0	0
4095	0	0
4096	0	0
4097	0	0
4098	1	0
4099	1	0
4100	1	0
4101	1	0
4102	1	0
4103	1	0
4104	0	0
4105	0	0
4106	0	0
4107	0	0
4108	0	0
4109	0	0
4110	0	0
4111	0	0
4112	0	0
4113	0	0
4114	0	0
4115	0	0
4116	0	0
4117	0	0
4118	0	0
4119	0	0
4120	0	0
4121	0	0
4122	0	0
4123	0	0
4124	0	0
4125	0	0
4126	0	0
4127	0	0
4128	0	0
4129	0	0
4130	1	0
4131	0	0
4132	0	0
4133	0	0
4134	0	0
4135	0	0
4136	1	0
4137	0	0
4138	0	0
4139	0	0
4140	0	0
4141	0	0
4142	0	0
4143	0	0
4144	0	0
4145	0	0
4146	0	0
4147	0	0
4148	0	0
4149	0	0
4150	0	0
4151	0	0
4152	0	0
4153	0	0
4154	0	0
4155	0	0
4156	0	0
4157	0	0
4158	0	0
4159	0	0
4160	0	0
4161	1	0
4162	1	0
4163	1	0
4164	1	0
4165	1	0
4166	1	0
4167	1	0
4168	1	0
4169	1	0
4170	1	0
4171	1	0
4172	1	0
4173	1	0
4174	1	0
4175	1	0
4176	1	0
4177	1	0
4178	1	0
4179	1	0
4180	1	0
4181	1	0
4182	1	0
4183	1	0
4184	1	0
4185	1	0
4186	1	0
4187	1	0
4188	1	0
4189	1	0
4190	1	0
4191	1	0
4192	1	0
4193	1	0
4194	1	0
4195	1	0
4196	1	0
4197	1	0
4198	1	0
4199	1	0
4200	1	0
4201	1	0
4202	1	0
4203	1	0
4204	1	0
4205	1	0
4206	1	0
4207	1	0
4208	1	0
4209	1	0
4210	1	0
4211	0	0
4212	0	0
4213	0	0
4214	0	0
4215	0	0
4216	0	0
4217	0	0
4218	0	0
4219	0	0.977764
4220	0	0.977745
4221	0	0.977745
4222	0	0.979448
4223	0	0
4224	0	0
4225	0	0
4226	0	0
4227	0	0
4228	0	0
4229	0	0
4230	0	0
4231	0	0
4232	0	0
4233	0	0
4234	0	0
4235	0	0
4236	0	0
4237	0	0
4238	0	0
4239	0	0
4240	0	0
4241	0	0
4242	0	0
4243	0	0
4244	0	0
4245	0	0
4246	0	0
4247	0	0
4248	0	0
4249	0	0
4250	0	0
4251	0	0
4252	0	0
4253	0	0
4254	0	0
4255	0	0
4256	0	0.166667
4257	0	0.166667
4258	0	0.166667
4259	0	0.166667
4260	0	0.166667
4261	0	0.166667
4262	0	0.166667
4263	0	0.166667
4264	0	0.166667
4265	0	0.166667
4266	0	0.166667
4267	0	0.166667
4268	0	0.4
4269	0	0.4
4270	0	0.4
4271	0	0.4
4272	0	0.4
4273	0	0.4
4274	0	0.285714
4275	0	0.285714
4276	0	0.285714
4277	0	0.285714
4278	0	0.285714
4279	0	0.975925
4280	0	0.387692
4281	0	0.387692
4282	0	0.387692
4283	0	0.387692
4284	0	0.387692
4285	0	0.369231
4286	0	0.369231
4287	0	0.369231
4288	0	0.369231
4289	0	0.369231
4290	0	0.584615
4291	0	0.584615
4292	0	0.537549
4293	0	0.588745
4294	0	0.428571
4295	0	0.428571
4296	0	0.428571
4297	0	0.428571
4298	0	0.428571
4299	0	0.428571
4300	0	0.428571
4301	0	0.428571
4302	0	0.428571
4303	0	0.428571
4304	0	0.428571
4305	0	0.428571
4306	0	0.428571
4307	0	0.428571
4308	0	0.428571
4309	0	0.494505
4310	0	0.494505
4311	0	0.494505
4312	0	0.428571
4313	0	0.428571
4314	0	0.428571
4315	0	0.428571
4316	0	0.428571
4317	0	0.428571
4318	0	0.428571
4319	0	0.428571
4320	0	0.428571
4321	0	0.428571
4322	0	0.428571
4323	0	0.428571
4324	0	0.428571
4325	0	0.428571
4326	0	0.316017
4327	0	0.316017
4328	0	0.285714
4329	0	0.285714
4330	0	0.285714
4331	0	0.316017
4332	0	0.316017
4333	0	0.316017
4334	0	0.316017
4335	0	0.316017
4336	0	0.316017
4337	0	0.316017
4338	0	0.316017
4339	0	0.316017
4340	0	0.316017
4341	0	0.316017
4342	0	0.347619
4343	0	0.347619
4344	0	0.347619
4345	0	0.347619
4346	0	0.347619
4347	0	0.347619
4348	0	0.347619
4349	0	0.347619
4350	0	0.347619
4351	0	0.347619
4352	0	0.347619
4353	0	0.347619
4354	0	0.347619
4355	0	0.347619
4356	0	0.347619
4357	0	0.347619
4358	0	0.347619
4359	0	0.347619
4360	0	0.347619
4361	0	0.347619
4362	0	0.347619
4363	0	0.347619
4364	0	0.347619
4365	0	0.347619
4366	0	0.347619
4367	0	0.347619
4368	0	0.347619
4369	0	0.347619
4370	0	0.347619
4371	0	0.336842
4372	0	0.336842
4373	0	0.336842
4374	0	0.336842
4375	0	0.336842
4376	0	0.336842
4377	0	0.336842
4378	0	0.336842
4379	0	0.336842
4380	0	0.336842
4381	0	0.336842
4382	0	0.336842
4383	0	0.336842
4384	0	0.336842
4385	0	0.374269
4386	0	0.374269
4387	0	0.374269
4388	0	0.374269
4389	0	0.374269
4390	0	0.374269
4391	0	0.374269
4392	0	0.374269
4393	0	0.374269
4394	0	0.374269
4395	0	0.374269
4396	0	0.374269
4397	0	0.374269
4398	0	0.374269
4399	0	0.374269
4400	0	0.374269
4401	0	0.374269
4402	0	0.374269
4403	0	0.374269
4404	0	0.374269
4405	0	0.374269
4406	0	0.374269
4407	0	0.374269
4408	0	0.374269
4409	0	0.374269
4410	0	0.374269
4411	0	0.374269
4412	0	0.374269
4413	0	0.374269
4414	0	0.374269
4415	0	0.374269
4416	0	0.374269
4417	0	0.374269
4418	0	0.374269
4419	0	0.374269
4420	0	0.374269
4421	0	0.418301
4422	0	0.418301
4423	0	0.418301
4424	0	0.418301
4425	0	0.418301
4426	0	0.418301
4427	0	0.418301
4428	0	0.418301
4429	0	0.418301
4430	0	0.418301
4431	0	0.418301
4432	0	0.418301
4433	0	0.418301
4434	0	0.418301
4435	0	0.418301
4436	0	0.418301
4437	0	0.418301
4438	0	0.418301
4439	0	0.418301
4440	0	0.418301
4441	0	0.418301
4442	0	0.418301
4443	0	0.418301
4444	0	0.418301
4445	0	0.418301
4446	0	0.418301
4447	0	0.409524
4448	0	0.409524
4449	0	0.409524
4450	0	0.777778
4451	0	0.777778
4452	0	0.777778
4453	0	0.777778
4454	0	0.777778
4455	0	0.777778
4456	0	0.777778
4457	0	0.777778
4458	0	0.777778
4459	0	0.777778
4460	0	0.777778
4461	0	0.777778
4462	0	0.777778
4463	0	0.777778
4464	0	0.777778
4465	0	0.777778
4466	0	0.777778
4467	0	0.777778
4468	0	0.777778
4469	0	0.777778
4470	0	0.777778
4471	0	0.777778
4472	0	0.777778
4473	0	0.777778
4474	0	0.777778
4475	0	0.777778
4476	0	0.777778
4477	0	0.777778
4478	0	0.777778
4479	0	0.666667
4480	0	0.666667
4481	0	0.666667
4482	0	0.666667
4483	0	0.666667
4484	0	0.666667
4485	0	0.666667
4486	0	0.666667
4487	0	0.666667
4488	0	0.666667
4489	0	0.666667
4490	0	0.666667
4491	0	0.666667
4492	0	0.666667
4493	0	0.666667
4494	0	0.666667
4495	0	0.666667
4496	0	0.666667
4497	0	0.666667
4498	0	0.666667
4499	0	0.666667
4500	0	0.666667
4501	0	0.666667
4502	0	0.666667
4503	0	0.666667
4504	0	0.666667
4505	0	0.666667
4506	0	0.666667
4507	0	0.666667
4508	0	0.666667
4509	0	0.666667
4510	0	0.666667
4511	0	0.666667
4512	0	0.666667
4513	0	0.666667
4514	0	0.666667
4515	0	0.666667
4516	0	0.666667
4517	0	0.666667
4518	0	0.666667
4519	0	0
4520	0	0
4521	0	0
4522	0	0
4523	0	0
4524	0	0
4525	0	0
4526	0	0
4527	0	0
4528	0	0
4529	0	0
4530	0	0
4531	0	0
4532	0	0
4533	0	0
4534	0	0
4535	0	0
4536	0	0
4537	0	0
4538	0	0
4539	0	0
4540	0	0
4541	0	0
4542	0	0
4543	0	0
4544	0	0
4545	0	0
4546	0	0
4547	0	0
4548	0	0
4549	0	0
4550	0	0
4551	0	0
4552	0	0
4553	0	0
4554	0	0
4555	0	0
4556	0	0
4557	0	0
4558	0	0
4559	0	0
4560	0	0
4561	0	0
4562	0	0
4563	0	0
4564	0	0
4565	0	0
4566	0	0
4567	0	0
4568	0	0
4569	0	0
4570	0	0
4571	0	0
4572	0	0
4573	0	0
4574	0	0
4575	0	0
4576	0	0
4577	0	0
4578	0	0
4579	0	0
4580	0	0
4581	0	0
4582	0	0
4583	0	0
4584	0	0
4585	0	0
4586	0	0
4587	0	0
4588	0	0
4589	0	0
4590	0	0
4591	0	0
4592	0	0
4593	0	0
4594	0	0
4595	0	0
4596	1	0
4597	1	0
4598	1	0
4599	1	0
4600	1	0
4601	1	0
4602	1	0
4603	1	0
4604	1	0
4605	1	0
4606	1	0
4607	1	0
4608	1	0
4609	1	0
4610	1	0
4611	1	0
4612	1	0
4613	1	0
4614	1	0
4615	1	0
4616	1	0
4617	1	0
4618	1	0
4619	1	0
4620	1	0
4621	1	0
4622	1	0
4623	1	0
4624	1	0
4625	1	0
4626	1	0
4627	1	0
4628	1	0
4629	1	0
4630	1	0
4631	1	0
4632	1	0
4633	1	0
4634	1	0
4635	1	0
4636	1	0
4637	1	0
4638	1	0
4639	1	0
4640	1	0
4641	1	0
4642	1	0
4643	1	0
4644	1	0
4645	1	0
4646	1	0
4647	1	0
4648	1	0
4649	1	0
4650	1	0
4651	1	0
4652	1	0
4653	1	0
4654	1	0
4655	1	0
4656	1	0
4657	1	0
4658	1	0
4659	1	0
4660	1	0
4661	1	0
4662	1	0
4663	1	0
4664	1	0
4665	1	0
4666	1	0
4667	1	0
4668	1	0
4669	1	0
4670	1	0
4671	1	0
4672	1	0
4673	1	0
4674	1	0
4675	1	0
4676	1	0
4677	1	0
4678	1	0
4679	1	0
4680	1	0
4681	1	0
4682	1	0
4683	1	0
4684	1	0
4685	1	0
4686	1	0
4687	1	0
4688	1	0
4689	1	0
4690	1	0
4691	1	0
4692	1	0
4693	1	0
4694	1	0
4695	1	0
4696	1	0
4697	1	0
4698	1	0
4699	1	0
4700	1	0
4701	1	0
4702	1	0
4703	1	0
4704	1	0
4705	1	0
4706	1	0
4707	1	0
4708	1	0
4709	1	0
4710	1	0
4711	1	0
4712	1	0
4713	1	0
4714	1	0
4715	1	0
4716	1	0
4717	1	0
4718	1	0
4719	1	0
4720	1	0
4721	1	0
4722	1	0
4723	1	0
4724	1	0
4725	1	0
4726	1	0
4727	1	0
4728	1	0
4729	1	0
4730	1	0
4731	1	0
4732	1	0
4733	1	0
4734	1	0
4735	1	0
4736	1	0
4737	1	0
4738	1	0
4739	1	0
4740	0	0.935359
4741	0	0.225
4742	0	0.307692
4743	0	0.307692
4744	0	0.307692
4745	0	0.307692
4746	0	0.307692
4747	0	0.307692
4748	0	0.307692
4749	0	0.307692
4750	0	0.307692
4751	0	0.307692
4752	0	0.307692
4753	0	0.307692
4754	0	0.230769
4755	0	0.230769
4756	0	0.230769
4757	0	0.230769
4758	0	0.230769
4759	0	0.230769
4760	0	0.230769
4761	0	0.230769
4762	0	0.230769
4763	0	0.272727
4764	0	0.272727
4765	0	0.272727
4766	0	0.272727
4767	0	0.272727
4768	0	0.272727
4769	0	0.272727
4770	0	0.272727
4771	0	0.272727
4772	0	0.272727
4773	0	0.272727
4774	0	0.272727
4775	0	0.272727
4776	0	0.272727
4777	0	0.272727
4778	0	0.142857
4779	0	0.142857
4780	0	0.142857
4781	0	0.142857
4782	0	0.2
4783	0	0.2
4784	0	0.2
4785	0	0.2
4786	0	0.2
4787	0	0.2
4788	0	0.142857
4789	0	0.142857
4790	0	0.142857
4791	0	0.927209
4792	0	0.3
4793	0	0.3
4794	0	0.3
4795	0	0.3
4796	0	0.3
4797	0	0.3
4798	0	0.3
4799	0	0.3
4800	0	0.3
4801	0	0.3
4802	0	0.3
4803	0	0.3
4804	0	0.3
4805	0	0.3
4806	0	0.3
4807	0	0.3
4808	0	0.3
4809	0	0.3
4810	0	0.3
4811	0	0.3
4812	0	0.3
4813	0	0.3
4814	0	0.3
4815	0	0.3
4816	0	0.3
4817	0	0.3
4818	0	0.3
4819	0	0.3
4820	0	0.3
4821	0	0.3
4822	0	0.3
4823	0	0.3
4824	0	0.3
4825	0	0.3
4826	0	0.3
4827	0	0.3
4828	0	0.3
4829	0	0.3
4830	0	0.3
4831	0	0.3
4832	0	0.3
4833	0	0.3
4834	0	0.3
4835	0	0.3
4836	0	0.3
4837	0	0.3
4838	0	0.3
4839	0	0.3
4840	0	0.3
4841	0	0.3
4842	0	0.3
4843	0	0.3
4844	0	0.3
4845	0	0.3
4846	0	0.3
4847	0	0.2
4848	0	0.2
4849	0	0.2
4850	0	0.2
4851	0	0.2
4852	0	0.2
4853	0	0.2
4854	0	0.2
4855	0	0.2
4856	0	0.2
4857	0	0.2
4858	0	0.2
4859	0	0.2
4860	0	0.2
4861	0	0.2
4862	0	0.2
4863	0	0.142857
4864	0	0.142857
4865	0	0.142857
4866	0	0.142857
4867	0	0.142857
4868	0	0.142857
4869	0	0.142857
4870	0	0.142857
4871	0	0.142857
4872	0	0.142857
4873	0	0.142857
4874	0	0.142857
4875	0	0.142857
4876	0	0.142857
4877	0	0.142857
4878	0	0.142857
4879	0	0.142857
4880	0	0.142857
4881	0	0.142857
4882	0	0.142857
4883	0	0.142857
4884	0	0.142857
4885	0	0.142857
4886	0	0.2
4887	0	0.2
4888	0	0.2
4889	0	0.2
4890	0	0.2
4891	0	0.2
4892	0	0.92236
4893	1	0
4894	1	0
4895	1	0
4896	1	0
4897	1	0
4898	1	0
4899	1	0
4900	1	0
4901	1	0
4902	1	0
4903	1	0
4904	1	0
4905	1	0
4906	1	0
4907	1	0
4908	1	0
4909	1	0
4910	1	0
4911	1	0
4912	1	0
4913	1	0
4914	1	0
4915	1	0
4916	1	0
4917	1	0
4918	1	0
4919	1	0
4920	1	0
4921	1	0
4922	1	0
4923	1	0
4924	1	0
4925	1	0
4926	1	0
4927	1	0
4928	1	0
4929	1	0
4930	1	0
4931	1	0
4932	1	0
4933	1	0
4934	1	0
4935	1	0
4936	1	0
4937	1	0
4938	1	0
4939	1	0
4940	1	0
4941	1	0
4942	1	0
4943	1	0
4944	1	0
4945	1	0
4946	1	0
4947	1	0
4948	1	0
4949	1	0
4950	1	0
4951	1	0
4952	1	0
4953	1	0
4954	1	0
4955	1	0
4956	1	0
4957	1	0
4958	1	0
4959	1	0
4960	1	0
4961	1	0
4962	1	0
4963	1	0
4964	1	0
4965	1	0
4966	1	0
4967	1	0
4968	1	0
4969	1	0
4970	1	0
4971	1	0
4972	1	0
4973	1	0
4974	1	0
4975	1	0
4976	1	0
4977	1	0
4978	1	0
4979	1	0
4980	1	0
4981	1	0
4982	1	0
4983	1	0
4984	1	0
4985	1	0
4986	1	0
4987	1	0
4988	1	0
4989	1	0
4990	1	0
4991	1	0
4992	1	0
4993	1	0
4994	1	0
4995	1	0
4996	1	0
4997	1	0
4998	1	0
4999	1	0
5000	1	0
5001	1	0
5002	1	0
5003	1	0
5004	1	0
5005	1	0
5006	1	0
5007	1	0
5008	1	0
5009	1	0
5010	1	0
5011	1	0
5012	1	0
5013	1	0
5014	1	0
5015	1	0
5016	1	0
5017	1	0
5018	1	0
5019	1	0
5020	1	0
5021	1	0
5022	1	0
5023	1	0
5024	1	0
5025	1	0
5026	1	0
5027	1	0
5028	1	0
5029	1	0
5030	1	0
5031	1	0
5032	1	0
5033	1	0
5034	1	0
5035	1	0
5036	1	0
5037	1	0
5038	1	0
5039	1	0
5040	1	0
5041	1	0
5042	1	0
5043	0	0
5044	0	0
5045	0	0
5046	0	0
5047	0	0
5048	0	0
5049	0	0
5050	0	0
5051	0	0
5052	0	0
5053	0	0
5054	0	0
5055	0	0
5056	0	0
5057	0	0
5058	0	0
5059	0	0
5060	0	0
5061	0	0
5062	0	0
5063	0	0
5064	0	0
5065	0	0
5066	0	0
5067	0	0
5068	0	0
5069	0	0
5070	0	0
5071	0	0
5072	0	0
5073	0	0
5074	0	0
5075	0	0
5076	0	0
5077	0	0
5078	0	0
5079	0	0
5080	0	0
5081	0	0
5082	0	0
5083	0	0
5084	0	0
5085	0	0
5086	0	0
5087	0	0
5088	0	0
5089	0	0
5090	0	0
5091	0	0
5092	0	0
5093	0	0
5094	0	0
5095	0	0
5096	0	0.3
5097	0	0.3
5098	0	0.3
5099	0	0.3
5100	0	0.3
5101	0	0.3
5102	0	0.3
5103	0	0.3
5104	0	0.3
5105	0	0.3
5106	0	0.3
5107	0	0.3
5108	0	0.3
5109	0	0.3
5110	0	0.3
5111	0	0.3
5112	0	0.3
5113	0	0.3
5114	0	0.3
5115	0	0.3
5116	0	0.2
5117	0	0.2
5118	0	0.2
5119	0	0.2
5120	0	0.2
5121	0	0.2
5122	0	0.2
5123	0	0.2
5124	0	0.2
5125	0	0.2
5126	0	0.2
5127	0	0.166667
5128	0	0.166667
5129	0	0.133333
5130	0	0.106061
5131	0	0.106061
5132	0	0.106061
5133	0	0.106061
5134	0	0.106061
5135	0	0.106061
5136	0	0.0897436
5137	0	0.0897436
5138	0	0.0897436
5139	0	0.0897436
5140	0	0.0897436
5141	0	0.0897436
5142	0	0.0897436
5143	0	0.0769231
5144	0	0.0727273
5145	0	0.0727273
5146	0	0.0545455
5147	0	0.0545455
5148	0	0.0727273
5149	0	0.0727273
5150	0	0.109091
5151	0	0.133333
5152	0	0.163636
5153	0	0.263736
5154	0	0.263736
5155	0	0.263736
5156	0	0.263736
5157	0	0.263736
5158	0	0.263736
5159	0	0.263736
5160	0	0.263736
5161	0	0.263736
5162	0	0.263736
5163	0	0.263736
5164	0	0.263736
5165	0	0.263736
5166	0	0.263736
5167	0	0.263736
5168	0	0.263736
5169	0	0.263736
5170	0	0.263736
5171	0	0.263736
5172	0	0.263736
5173	0	0.928703
5174	0	0.214286
5175	0	0.285714
5176	0	0.285714
5177	0	0.285714
5178	0	0.285714
5179	0	0.285714
5180	0	0.285714
5181	0	0.285714
5182	0	0.285714
5183	0	0.285714
5184	0	0.285714
5185	0	0.285714
5186	0	0.285714
5187	0	0.4
5188	0	0.4
5189	0	0.4
5190	0	0.4
5191	0	0.4
5192	0	0.4
5193	0	0.4
5194	0	0.4
5195	0	0.923976
5196	0	0
5197	0	0
5198	0	0
5199	0	0
5200	0	0
5201	0	0
5202	0	0
5203	0	0
5204	0	0
5205	0	0
5206	0	0
5207	0	0
5208	0	0
5209	0	0
5210	0	0
5211	0	0
5212	0	0
5213	0	0
5214	0	0
5215	0	0
5216	0	0
5217	0	0
5218	0	0
5219	0	0
5220	0	0
5221	0	0
5222	0	0
5223	0	0
5224	0	0
5225	0	0
5226	0	0
5227	0	0
5228	0	0
5229	0	0
5230	0	0
5231	0	0
5232	0	0
5233	0	0
5234	0	0
5235	0	0
5236	0	0
5237	0	0
5238	0	0
5239	0	0
5240	0	0
5241	0	0
5242	0	0
5243	0	0
5244	0	0
5245	0	0
5246	0	0
5247	0	0
5248	0	0
5249	0	0
5250	0	0
5251	0	0
5252	0	0
5253	0	0
5254	0	0
5255	0	0
5256	0	0
5257	0	0
5258	0	0
5259	0	0
5260	0	0
5261	0	0
5262	0	0
5263	0	0
5264	0	0
5265	0	0
5266	0	0
5267	0	0
5268	0	0
5269	0	0
5270	0	0
5271	0	0
5272	0	0
5273	0	0
5274	0	0
5275	0	0
5276	0	0
5277	0	0
5278	0	0
5279	0	0
5280	0	0
5281	0	0
5282	0	0
5283	0	0
5284	0	0
5285	0	0
5286	0	0
5287	0	0
5288	0	0
5289	0	0
5290	0	0
5291	0	0
5292	0	0
5293	0	0
5294	0	0
5295	0	0
5296	0	0
5297	0	0
5298	0	0
5299	0	0
5300	0	0
5301	0	0
5302	0	0
5303	0	0
5304	0	0
5305	0	0
5306	0	0
5307	0	0
5308	0	0
5309	0	0
5310	0	0
5311	0	0
5312	0	0
5313	0	0
5314	0	0
5315	0	0
5316	0	0
5317	0	0
5318	0	0
5319	0	0
5320	0	0
5321	0	0
5322	0	0
5323	0	0
5324	0	0
5325	0	0
5326	0	0
5327	0	0
5328	0	0
5329	0	0
5330	0	0
5331	0	0
5332	0	0
5333	0	0
5334	0	0
5335	0	0
5336	0	0
5337	0	0
5338	0	0
5339	0	0
5340	0	0
5341	0	0
5342	0	0
5343	0	0
5344	0	0
5345	0	0
5346	0	0
5347	0	0
5348	0	0
5349	0	0
5350	0	0
5351	0	0
5352	0	0
5353	0	0
5354	0	0
5355	0	0
5356	0	0
5357	0	0
5358	0	0
5359	0	0
5360	0	0
5361	0	0
5362	0	0
5363	0	0
5364	0	0
5365	0	0
5366	0	0
5367	0	0
5368	0	0
5369	0	0
5370	0	0
5371	0	0
5372	0	0
5373	0	0
5374	0	0
5375	0	0
5376	0	0
5377	0	0
5378	0	0
5379	0	0
5380	0	0
5381	0	0
5382	0	0
5383	0	0
5384	0	0
5385	0	0
5386	0	0
5387	0	0
5388	0	0
5389	0	0
5390	0	0
5391	0	0
5392	0	0
5393	0	0
5394	0	0
5395	0	0
5396	0	0
5397	0	0.166667
5398	0	0.166667
5399	0	0.166667
5400	0	0.166667
5401	0	0.166667
5402	0	0.166667
5403	0	0.166667
5404	0	0.166667
5405	0	0.166667
5406	0	0.166667
5407	0	0.166667
5408	0	0.166667
5409	0	0.166667
5410	0	0.166667
5411	0	0.194444
5412	0	0.194444
5413	0	0.151515
5414	0	0.151515
5415	0	0.151515
5416	0	0.151515
5417	0	0.151515
5418	0	0.151515
5419	0	0.151515
5420	0	0.151515
5421	0	0.151515
5422	0	0.111111
5423	0	0.0888889
5424	0	0.0888889
5425	0	0.0757576
5426	0	0.0757576
5427	0	0.106061
5428	0	0.106061
5429	0	0.127273
5430	0	0.127273
5431	0	0.151515
5432	0	0.151515
5433	0	0.333333
5434	0	0.333333
5435	0	0.333333
5436	0	0.333333
5437	0	0.333333
5438	0	0.333333
5439	0	0.333333
5440	0	0.333333
5441	0	0.333333
5442	0	0.333333
5443	0	0.333333
5444	0	0.282051
5445	0	0.282051
5446	0	0.282051
5447	0	0.282051
5448	0	0.241758
5449	0	0.209524
5450	0	0.209524
5451	0	0.209524
5452	0	0.209524
5453	0	0.209524
5454	0	0.209524
5455	0	0.209524
5456	0	0.920715
5457	0	0.12381
5458	0	0.12381
5459	0	0.12381
5460	0	0.12381
5461	0	0.12381
5462	0	0.12381
5463	0	0.12381
5464	0	0.12381
5465	0	0.12381
5466	0	0.12381
5467	0	0.12381
5468	0	0.12381
5469	0	0.12381
5470	0	0.12381
5471	0	0.12381
5472	0	0.12381
5473	0	0.12381
5474	0	0.12381
5475	0	0.12381
5476	0	0.12381
5477	0	0.127273
5478	0	0.127273
5479	0	0.127273
5480	0	0.127273
5481	0	0.127273
5482	0	0.127273
5483	0	0.127273
5484	0	0.127273
5485	0	0.930311
5486	0	0.111111
5487	0	0.111111
5488	0	0.111111
5489	0	0.111111
5490	0	0.111111
5491	0	0.111111
5492	0	0.111111
5493	0	0.111111
5494	0	0.111111
5495	0	0.111111
5496	0	0.111111
5497	0	0.111111
5498	0	0.111111
5499	0	0.111111
5500	0	0.111111
5501	0	0.0555556
5502	0	0.0555556
5503	0	0.0555556
5504	0	0.0555556
5505	0	0.0555556
5506	0	0.0555556
5507	0	0.0555556
5508	0	0.0555556
5509	0	0.0555556
5510	0	0.0555556
5511	0	0.0555556
5512	0	0.0555556
5513	0	0.0555556
5514	0	0.0555556
5515	0	0.0714286
5516	0	0.0714286
5517	0	0.0714286
5518	0	0.0714286
5519	0	0.0714286
5520	0	0.0714286
5521	0	0.0714286
5522	0	0.0714286
5523	0	0.0714286
5524	0	0.0714286
5525	0	0.0714286
5526	0	0.0714286
5527	0	0.0714286
5528	0	0.0714286
5529	0	0.0952381
5530	0	0.0952381
5531	0	0.0952381
5532	0	0.0952381
5533	0	0.0952381
5534	0	0.0952381
5535	0	0.0952381
5536	0	0.0952381
5537	0	0.0952381
5538	0	0.0952381
5539	0	0.0952381
5540	0	0.0952381
5541	0	0.0952381
5542	0	0.0952381
5543	0	0.0952381
5544	0	0.0952381
5545	0	0.0952381
5546	0	0.0952381
5547	0	0.0952381
5548	0	0.0952381
5549	0	0.0952381
5550	0	0.0952381
5551	0	0.0952381
5552	0	0.0952381
5553	0	0.0952381
5554	0	0.920712
5555	0	0.920712
5556	0	0
5557	0	0
5558	0	0
5559	0	0
5560	0	0
5561	0	0
5562	0	0
5563	0	0
5564	0	0
5565	0	0
5566	0	0
5567	0	0
5568	0	0
5569	0	0
5570	0	0
5571	0	0
5572	0	0
5573	0	0
5574	0	0
5575	0	0
5576	0	0
5577	0	0
5578	0	0
5579	0	0
5580	0	0
5581	0	0
5582	0	0
5583	0	0
5584	0	0
5585	0	0
5586	0	0
5587	0	0
5588	0	0
5589	0	0
5590	0	0
5591	0	0
5592	0	0
5593	0	0
5594	0	0
5595	0	0
5596	0	0
5597	0	0
5598	0	0
5599	0	0
5600	0	0
5601	0	0
5602	0	0
5603	0	0
5604	0	0
5605	0	0
5606	0	0
5607	0	0
5608	0	0
5609	0	0
5610	0	0
5611	0	0
5612	0	0
5613	0	0
5614	0	0
5615	0	0
5616	0	0
5617	0	0
5618	0	0
5619	0	0
5620	0	0
5621	0	0
5622	0	0
5623	0	0
5624	0	0
5625	0	0
5626	0	0
5627	0	0
5628	0	0
5629	0	0
5630	0	0
5631	0	0
5632	0	0
5633	0	0
5634	0	0
5635	0	0
5636	0	0
5637	0	0
5638	0	0
5639	0	0
5640	0	0
5641	0	0
5642	0	0
5643	0	0
5644	0	0
5645	0	0
5646	0	0
5647	0	0
5648	0	0
5649	0	0
5650	0	0
5651	0	0
5652	0	0
5653	0	0
5654	0	0
5655	0	0
5656	0	0
5657	0	0
5658	0	0
5659	0	0
5660	0	0
5661	0	0
5662	0	0
5663	0	0
5664	0	0
5665	0	0
5666	0	0
5667	0	0
5668	0	0.285714
5669	0	0.285714
5670	0	0.285714
5671	0	0.285714
5672	0	0.285714
5673	0	0.285714
5674	0	0.285714
5675	0	0.285714
5676	0	0.285714
5677	0	0.285714
5678	0	0.214286
5679	0	0.214286
5680	0	0.214286
5681	0	0.214286
5682	0	0.214286
5683	0	0.214286
5684	0	0.214286
5685	0	0.214286
5686	0	0.214286
5687	0	0.214286
5688	0	0.214286
5689	0	0.214286
5690	0	0.166667
5691	0	0.166667
5692	0	0.166667
5693	0	0.166667
5694	0	0.166667
5695	0	0.166667
5696	0	0.166667
5697	0	0.166667
5698	0	0.166667
5699	0	0.166667
5700	0	0.127273
5701	0	0.127273
5702	0	0.127273
5703	0	0.925431
5704	0	0.0935673
5705	0	0.0935673
5706	0	0.104575
5707	0	0.104575
5708	0	0.104575
5709	0	0.104575
5710	0	0.104575
5711	0	0.104575
5712	0	0.104575
5713	0	0.104575
5714	0	0.104575
5715	0	0.104575
5716	0	0.104575
5717	0	0.104575
5718	0	0.104575
5719	0	0.20915
5720	0	0.20915
5721	0	0.20915
5722	0	0.20915
5723	0	0.187135
5724	0	0.187135
5725	0	0.920642
5726	0	0.922305
5727	0	0.145455
5728	0	0.145455
5729	0	0.145455
5730	0	0.177778
5731	0	0.177778
5732	0	0.177778
5733	0	0.177778
5734	0	0.177778
5735	0	0.177778
5736	0	0.177778
5737	0	0.177778
5738	0	0.145455
5739	0	0.145455
5740	0	0.145455
5741	0	0.145455
5742	0	0.145455
5743	0	0.145455
5744	0	0.145455
5745	0	0.145455
5746	0	0.145455
5747	0	0.145455
5748	0	0.127273
5749	0	0.127273
5750	0	0.127273
5751	0	0.127273
5752	0	0.127273
5753	0	0.127273
5754	0	0.127273
5755	0	0.127273
5756	0	0.127273
5757	0	0.127273
5758	0	0.127273
5759	0	0.127273
5760	0	0.127273
5761	0	0.127273
5762	0	0.127273
5763	0	0.127273
5764	0	0.127273
5765	0	0.127273
5766	0	0.127273
5767	0	0.127273
5768	0	0.127273
5769	0	0.106061
5770	0	0.106061
5771	0	0.106061
5772	0	0.106061
5773	0	0.106061
5774	0	0.106061
5775	0	0.106061
5776	0	0.106061
5777	0	0.106061
5778	0	0.106061
5779	0	0.106061
5780	0	0.0897436
5781	0	0.0897436
5782	0	0.0897436
5783	0	0.0897436
5784	0	0.0897436
5785	0	0.0897436
5786	0	0.0897436
5787	0	0.0897436
5788	0	0.0897436
5789	0	0.0897436
5790	0	0.917243
5791	0	0.914083
5792	0	0.333333
5793	0	0.333333
5794	0	0.333333
5795	0	0.333333
5796	0	0.333333
5797	0	0.333333
5798	0	0.333333
5799	0	0.333333
5800	0	0.333333
5801	0	0.333333
5802	0	0.333333
5803	0	0.333333
5804	0	0.333333
5805	0	0.333333
5806	0	0.333333
5807	0	0.333333
5808	0	0.333333
5809	0	0.333333
5810	0	0.333333
5811	0	0.333333
5812	0	0.333333
5813	0	0.333333
5814	0	0.333333
5815	0	0.333333
5816	0	0.333333
5817	0	0.333333
5818	0	0.333333
5819	0	0.333333
5820	0	0.333333
5821	0	0.333333
5822	0	0.333333
5823	0	0.333333
5824	0	0.333333
5825	0	0.333333
5826	0	0.25
5827	0	0.25
5828	0	0.25
5829	0	0.25
5830	0	0.25
5831	0	0.25
5832	0	0.25
5833	0	0.25
5834	0	0.25
5835	0	0.25
5836	0	0.25
5837	0	0.25
5838	0	0.194444
5839	0	0.194444
5840	0	0.155556
5841	0	0.166667
5842	0	0.133333
5843	0	0.133333
5844	0	0.133333
5845	0	0.133333
5846	0	0.155556
5847	0	0.155556
5848	0	0.155556
5849	0	0.155556
5850	0	0.155556
5851	0	0.155556
5852	0	0.155556
5853	0	0.127273
5854	0	0.127273
5855	0	0.127273
5856	0	0.127273
5857	0	0.127273
5858	0	0.127273
5859	0	0.127273
5860	0	0.127273
5861	0	0.127273
5862	0	0.127273
5863	0	0.127273
5864	0	0.127273
5865	0	0.127273
5866	0	0.127273
5867	0	0.127273
5868	0	0.127273
5869	0	0.127273
5870	0	0.127273
5871	0	0.106061
5872	0	0.106061
5873	0	0.106061
5874	0	0.106061
5875	0	0.106061
5876	0	0.106061
5877	0	0.106061
5878	0	0.106061
5879	0	0.106061
5880	0	0.106061
5881	0	0.106061
5882	0	0.106061
5883	0	0.106061
5884	0	0.106061
5885	0	0.918487
5886	0	0.181818
5887	0	0.181818
5888	0	0.181818
5889	0	0.181818
5890	0	0.181818
5891	0	0.222222
5892	0	0.222222
5893	0	0.222222
5894	0	0.222222
5895	0	0.222222
5896	0	0.222222
5897	0	0.222222
5898	0	0.222222
5899	0	0.166667
5900	0	0.166667
5901	0	0.166667
5902	0	0.222222
5903	0	0.222222
5904	0	0.222222
5905	0	0.222222
5906	0	0.222222
5907	0	0.222222
5908	0	0.222222
5909	0	0.222222
5910	0	0.222222
5911	0	0.222222
5912	0	0.222222
5913	0	0.222222
5914	0	0.222222
5915	0	0.222222
5916	0	0.222222
5917	0	0.222222
5918	0	0.222222
5919	0	0.222222
5920	0	0.222222
5921	0	0.222222
5922	0	0.222222
5923	0	0.222222
5924	0	0.222222
5925	0	0.222222
5926	0	0.222222
5927	0	0.91358
5928	0	0.152709
5929	0	0.126667
5930	0	0.163743
5931	0	0.163743
5932	0	0.147368
5933	0	0.147368
5934	0	0.163743
5935	0	0.163743
5936	0	0.163743
5937	0	0.163743
5938	0	0.163743
5939	0	0.163743
5940	0	0.163743
5941	0	0.163743
5942	0	0.163743
5943	0	0.183007
5944	0	0.190476
5945	0	0.186147
5946	0	0.186147
5947	0	0.186147
5948	0	0.186147
5949	0	0.186147
5950	0	0.186147
5951	0	0.186147
5952	0	0.186147
5953	0	0.186147
5954	0	0.186147
5955	0	0.186147
5956	0	0.186147
5957	0	0.186147
5958	0	0.186147
5959	0	0.186147
5960	0	0.186147
5961	0	0.186147
5962	0	0.186147
5963	0	0.186147
5964	0	0.186147
5965	0	0.186147
5966	0	0.168421
5967	0	0.168421
5968	0	0.168421
5969	0	0.168421
5970	0	0.168421
5971	0	0.168421
5972	0	0.168421
5973	0	0.168421
5974	0	0.168421
5975	0	0.168421
5976	0	0.168421
5977	0	0.168421
5978	0	0.168421
5979	0	0.168421
5980	0	0.168421
5981	0	0.168421
5982	0	0.168421
5983	0	0.168421
5984	0	0.168421
5985	0	0.168421
5986	0	0.168421
5987	0	0.168421
5988	0	0.168421
5989	0	0.168421
5990	0	0.168421
5991	0	0.168421
5992	0	0.168421
5993	0	0.168421
5994	0	0.168421
5995	0	0.168421
5996	0	0.168421
5997	0	0.168421
5998	0	0.168421
5999	0	0.168421
6000	0	0.168421
6001	0	0.147368
6002	0	0.147368
6003	0	0.147368
6004	0	0.131579
6005	0	0.131579
6006	0	0.131579
6007	0	0.131579
6008	0	0.131579
6009	0	0.131579
6010	0	0.131579
6011	0	0.131579
6012	0	0.131579
6013	0	0.131579
6014	0	0.131579
6015	0	0.131579
6016	0	0.121053
6017	0	0.121053
6018	0	0.121053
6019	0	0.121053
6020	0	0.131579
6021	0	0.131579
6022	0	0.131579
6023	0	0.0684211
6024	0	0.0684211
6025	0	0.0684211
6026	0	0.0684211
6027	0	0.0684211
6028	0	0.0643275
6029	0	0.0684211
6030	0	0.0684211
6031	0	0.0684211
6032	0	0.0684211
6033	0	0.0684211
6034	0	0.0643275
6035	0	0.0736842
6036	0	0.0736842
6037	0	0.0578947
6038	0	0.0578947
6039	0	0.0578947
6040	0	0.0578947
6041	0	0.0578947
6042	0	0.0578947
6043	0	0.0467836
6044	0	0.0467836
6045	0	0.0467836
6046	0	0.0467836
6047	0	0.0467836
6048	0	0.0467836
6049	0	0.0467836
6050	0	0.0409357
6051	0	0.0409357
6052	0	0.0409357
6053	0	0.0409357
6054	0	0.0409357
6055	0	0.032967
6056	0	0.030303
6057	0	0.030303
6058	0	0.030303
6059	0	0.030303
6060	0	0.030303
6061	0	0.030303
6062	0	0.0363636
6063	0	0.0363636
6064	0	0.0363636
6065	0	0.0363636
6066	0	0.0363636
6067	0	0.0363636
6068	0	0.0363636
6069	0	0.0363636
6070	0	0.0277778
6071	0	0.0277778
6072	0	0.0277778
6073	0	0.0277778
6074	0	0.0277778
6075	0	0.0277778
6076	0	0.0277778
6077	0	0.0277778
6078	0	0.0277778
6079	0	0.0277778
6080	0	0.0277778
6081	0	0.0277778
6082	0	0.0277778
6083	0	0.0277778
6084	0	0.0277778
6085	0	0.0277778
6086	0	0.0277778
6087	0	0.0277778
6088	0	0.0277778
6089	0	0.0277778
6090	0	0.0277778
6091	0	0.0555556
6092	0	0.0555556
6093	0	0.0555556
6094	0	0.0555556
6095	0	0.0555556
6096	0	0.0555556
6097	0	0.0555556
6098	0	0.0555556
6099	0	0.0555556
6100	0	0.0555556
6101	0	0.0555556
6102	0	0.047619
6103	0	0.047619
6104	0	0.047619
6105	0	0.047619
6106	0	0.047619
6107	0	0.911717
6108	1	0
6109	1	0
6110	1	0
6111	1	0
6112	1	0
6113	1	0
6114	1	0
6115	1	0
6116	1	0
6117	1	0
6118	1	0
6119	1	0
6120	1	0
6121	1	0
6122	1	0
6123	1	0
6124	1	0
6125	1	0
6126	1	0
6127	1	0
6128	1	0
6129	1	0
6130	1	0
6131	1	0
6132	1	0
6133	1	0
6134	1	0
6135	1	0
6136	1	0
6137	1	0
6138	1	0
6139	1	0
6140	1	0
6141	1	0
6142	1	0
6143	1	0
6144	1	0
6145	1	0
6146	1	0
6147	1	0
6148	1	0
6149	1	0
6150	1	0
6151	1	0
6152	1	0
6153	1	0
6154	1	0
6155	1	0
6156	1	0
6157	1	0
6158	1	0
6159	1	0
6160	1	0
6161	1	0
6162	1	0
6163	1	0
6164	1	0
6165	1	0
6166	1	0
6167	1	0
6168	1	0
6169	1	0
6170	1	0
6171	1	0
6172	1	0
6173	1	0
6174	1	0
6175	1	0
6176	1	0
6177	1	0
6178	1	0
6179	1	0
6180	1	0
6181	1	0
6182	1	0
6183	1	0
6184	1	0
6185	1	0
6186	1	0
6187	1	0
6188	1	0
6189	1	0
6190	1	0
6191	1	0
6192	1	0
6193	1	0
6194	1	0
6195	1	0
6196	1	0
6197	1	0
6198	1	0
6199	1	0
6200	1	0
6201	1	0
6202	1	0
6203	1	0
6204	1	0
6205	1	0
6206	1	0
6207	1	0
6208	1	0
6209	1	0
6210	1	0
6211	1	0
6212	1	0
6213	1	0
6214	1	0
6215	1	0
6216	1	0
6217	1	0
6218	1	0
6219	1	0
6220	1	0
6221	1	0
6222	1	0
6223	1	0
6224	1	0
6225	1	0
6226	1	0
6227	1	0
6228	1	0
6229	1	0
6230	1	0
6231	1	0
6232	1	0
6233	1	0
6234	1	0
6235	1	0
6236	1	0
6237	1	0
6238	1	0
6239	1	0
6240	1	0
6241	1	0
6242	1	0
6243	1	0
6244	1	0
6245	1	0
6246	1	0
6247	1	0
6248	1	0
6249	1	0
6250	1	0
6251	1	0
6252	1	0
6253	1	0
6254	1	0
6255	1	0
6256	1	0
6257	1	0
6258	1	0
6259	1	0
6260	1	0
6261	1	0
6262	1	0
6263	1	0
6264	1	0
6265	1	0
6266	1	0
6267	1	0
6268	1	0
6269	1	0
6270	1	0
6271	1	0
6272	1	0
6273	1	0
6274	1	0
6275	1	0
6276	1	0
6277	1	0
6278	1	0
6279	1	0
6280	1	0
6281	1	0
6282	1	0
6283	1	0
6284	1	0
6285	1	0
6286	1	0
6287	1	0
6288	1	0
6289	1	0
6290	1	0
6291	1	0
6292	1	0
6293	1	0
6294	1	0
6295	1	0
6296	1	0
6297	1	0
6298	1	0
6299	1	0
6300	1	0
6301	1	0
6302	1	0
6303	1	0
6304	1	0
6305	1	0
6306	1	0
6307	1	0
6308	1	0
6309	1	0
6310	1	0
6311	1	0
6312	1	0
6313	1	0
6314	1	0
6315	1	0
6316	1	0
6317	1	0
6318	1	0
6319	1	0
6320	1	0
6321	1	0
6322	1	0
6323	1	0
6324	1	0
6325	1	0
6326	1	0
6327	1	0
6328	1	0
6329	1	0
6330	1	0
6331	1	0
6332	1	0
6333	1	0
6334	1	0
6335	1	0
6336	1	0
6337	1	0
6338	1	0
6339	1	0
6340	1	0
6341	1	0
6342	1	0
6343	1	0
6344	1	0
6345	1	0
6346	1	0
6347	1	0
6348	1	0
6349	1	0
6350	1	0
6351	1	0
6352	1	0
6353	1	0
6354	1	0
6355	1	0
6356	1	0
6357	1	0
6358	1	0
6359	1	0
6360	1	0
6361	1	0
6362	1	0
6363	1	0
6364	1	0
6365	1	0
6366	1	0
6367	1	0
6368	1	0
6369	1	0
6370	1	0
6371	1	0
6372	1	0
6373	1	0
6374	1	0
6375	1	0
6376	1	0
6377	1	0
6378	1	0
6379	1	0
6380	1	0
6381	1	0
6382	1	0
6383	1	0
6384	1	0
6385	1	0
6386	1	0
6387	1	0
6388	1	0
6389	1	0
6390	1	0
6391	1	0
6392	1	0
6393	1	0
6394	1	0
6395	1	0
6396	1	0
6397	1	0
6398	1	0
6399	1	0
6400	1	0
6401	1	0
6402	1	0
6403	1	0
6404	1	0
6405	1	0
6406	1	0
6407	1	0
6408	1	0
6409	1	0
6410	1	0
6411	1	0
6412	1	0
6413	1	0
6414	1	0
6415	1	0
6416	1	0
6417	1	0
6418	1	0
6419	1	0
6420	1	0
6421	1	0
6422	1	0
6423	1	0
6424	1	0
6425	1	0
6426	1	0
6427	1	0
6428	1	0
6429	1	0
6430	1	0
6431	1	0
6432	1	0
6433	1	0
6434	1	0
6435	1	0
6436	1	0
6437	1	0
6438	1	0
6439	1	0
6440	1	0
6441	1	0
6442	1	0
6443	1	0
6444	1	0
6445	1	0
6446	1	0
6447	1	0
6448	1	0
6449	1	0
6450	1	0
6451	1	0
6452	1	0
6453	1	0
6454	1	0
6455	1	0
6456	1	0
6457	1	0
6458	1	0
6459	1	0
6460	1	0
6461	1	0
6462	1	0
6463	1	0
6464	1	0
6465	1	0
6466	1	0
6467	1	0
6468	1	0
6469	1	0
6470	1	0
6471	1	0
6472	1	0
6473	1	0
6474	1	0
6475	1	0
6476	1	0
6477	1	0
6478	1	0
6479	1	0
6480	1	0
6481	1	0
6482	1	0
6483	1	0
6484	1	0
6485	1	0
6486	1	0
6487	1	0
6488	0	0
6489	0	0
6490	0	0
6491	0	0
6492	0	0
6493	0	0
6494	0	0
6495	0	0
6496	0	0
6497	0	0
6498	0	0
6499	0	0
6500	0	0
6501	0	0
6502	0	0
6503	0	0
6504	0	0
6505	0	0
6506	0	0
6507	0	0
6508	0	0
6509	0	0
6510	0	0
6511	0	0
6512	0	0
6513	0	0
6514	0	0
6515	0	0
6516	0	0
6517	0	0
6518	0	0
6519	0	0
6520	0	0
6521	0	0
6522	0	0
6523	0	0
6524	0	0
6525	0	0
6526	0	0
6527	0	0
6528	0	0
6529	0	0
6530	0	0
6531	0	0
6532	0	0
6533	0	0
6534	0	0
6535	0	0
6536	0	0
6537	0	0
6538	0	0
6539	0	0
6540	0	0
6541	0	0
6542	0	0
6543	0	0
6544	0	0
6545	0	0
6546	0	0
6547	0	0
6548	0	0
6549	0	0
6550	0	0
6551	0	0
6552	0	0
6553	0	0
6554	0	0
6555	0	0
6556	0	0
6557	0	0
6558	0	0
6559	0	0
6560	0	0
6561	0	0
6562	0	0
6563	0	0
6564	0	0
6565	0	0
6566	0	0
6567	0	0
6568	0	0
6569	0	0
6570	0	0
6571	0	0
6572	0	0
6573	0	0
6574	0	0
6575	0	0
6576	0	0
6577	0	0
6578	0	0
6579	0	0
6580	0	0
6581	0	0
6582	0	0
6583	0	0
6584	0	0
6585	0	0
6586	0	0
6587	0	0
6588	0	0
6589	0	0
6590	0	0
6591	0	0
6592	0	0
6593	0	0
6594	0	0
6595	0	0
6596	0	0
6597	0	0
6598	0	0
6599	0	0
6600	0	0
6601	0	0
6602	0	0
6603	0	0
6604	0	0
6605	0	0
6606	0	0
6607	0	0
6608	0	0
6609	0	0
6610	0	0
6611	0	0
6612	0	0
6613	0	0
6614	0	0
6615	0	0
6616	0	0
6617	0	0
6618	0	0
6619	0	0
6620	0	0
6621	0	0
6622	0	0
6623	0	0
6624	0	0
6625	0	0
6626	0	0
6627	0	0
6628	0	0
6629	0	0
6630	0	0
6631	0	0
6632	0	0
6633	0	0
6634	0	0
6635	0	0
6636	0	0
6637	0	0
6638	0	0.133333
6639	0	0.133333
6640	0	0.133333
6641	0	0.133333
6642	0	0.133333
6643	0	0.133333
6644	0	0.133333
6645	0	0.133333
6646	0	0.133333
6647	0	0.133333
6648	0	0.133333
6649	0	0.133333
6650	0	0.133333
6651	0	0.133333
6652	0	0.133333
6653	0	0.133333
6654	0	0.133333
6655	0	0.133333
6656	0	0.133333
6657	0	0.133333
6658	0	0.133333
6659	0	0.133333
6660	0	0.133333
6661	0	0.133333
6662	0	0.133333
6663	0	0.133333
6664	0	0.133333
6665	0	0.133333
6666	0	0.133333
6667	0	0.133333
6668	0	0.133333
6669	0	0.133333
6670	0	0.133333
6671	0	0.133333
6672	0	0.133333
6673	0	0.133333
6674	0	0.133333
6675	0	0.133333
6676	0	0.133333
6677	0	0.133333
6678	0	0.133333
6679	0	0.133333
6680	0	0.133333
6681	0	0.133333
6682	0	0.133333
6683	0	0.155556
6684	0	0.155556
6685	0	0.155556
6686	0	0.155556
6687	0	0.155556
6688	0	0.155556
6689	0	0.155556
6690	0	0.155556
6691	0	0.155556
6692	0	0.155556
6693	0	0.155556
6694	0	0.155556
6695	0	0.155556
6696	0	0.155556
6697	0	0.155556
6698	0	0.155556
6699	0	0.155556
6700	0	0.155556
6701	0	0.155556
6702	0	0.155556
6703	0	0.919629
6704	0	1
6705	0	1
6706	0	1
6707	0	1
6708	0	1
6709	0	1
6710	0	1
6711	0	1
6712	0	1
6713	0	1
6714	0	1
6715	0	1
6716	0	1
6717	0	1
6718	0	1
6719	0	1
6720	0	1
6721	0	1
6722	0	1
6723	0	1
6724	0	1
6725	0	1
6726	0	1
6727	0	1
6728	0	1
6729	0	1
6730	0	1
6731	0	1
6732	0	1
6733	0	1
6734	0	1
6735	0	1
6736	0	1
6737	0	1
6738	0	1
6739	0	1
6740	0	1
6741	0	0
6742	0	0
6743	0	0
6744	0	0
6745	0	0
6746	0	0
6747	0	0
6748	0	0
6749	0	0
6750	0	0
6751	0	0
6752	0	0
6753	0	0
6754	0	0
6755	0	0
6756	0	0
6757	0	0
6758	0	0
6759	0	0
6760	0	0
6761	0	0
6762	0	0
6763	0	0
6764	0	0
6765	0	0
6766	0	0
6767	0	0
6768	0	0
6769	0	0
6770	0	0
6771	0	0
6772	0	0
6773	0	0
6774	0	0
6775	0	0
6776	0	0
6777	0	0
6778	0	0
6779	0	0
6780	0	0
6781	0	0
6782	0	0
6783	0	0
6784	0	0
6785	0	0
6786	0	0
6787	0	0
6788	0	0
6789	0	0
6790	0	0
6791	0	0
6792	0	0
6793	0	0
6794	0	0
6795	0	0
6796	0	0
6797	0	0
6798	0	0
6799	0	0
6800	0	0
6801	0	0
6802	0	0
6803	0	0
6804	0	0
6805	0	0
6806	0	0
6807	0	0
6808	0	0
6809	0	0
6810	0	0
6811	0	0
6812	0	0
6813	0	0
6814	0	0
6815	0	0
6816	0	0
6817	0	0
6818	0	0
6819	0	0
6820	0	0
6821	0	0
6822	0	0
6823	0	0
6824	0	0
6825	0	0
6826	0	0
6827	0	0
6828	0	0
6829	0	0
6830	0	0
6831	0	0
6832	0	0
6833	0	0
6834	0	0
6835	0	0
6836	0	0
6837	0	0
6838	0	0
6839	0	0
6840	0	0
6841	0	0
6842	0	0
6843	0	0
6844	0	0
6845	0	0
6846	0	0
6847	0	0
6848	0	0
6849	0	0
6850	0	0
6851	0	0
6852	0	0
6853	0	0
6854	0	0
6855	0	0
6856	0	0
6857	0	0
6858	0	0
6859	0	0
6860	0	0
6861	0	0
6862	0	0
6863	0	0
6864	0	0
6865	0	0
6866	0	0
6867	0	0
6868	0	0
6869	0	0
6870	0	0
6871	0	0
6872	0	0
6873	0	0
6874	0	0
6875	0	0
6876	0	0
6877	0	0
6878	0	0
6879	0	0
6880	0	0
6881	0	0
6882	0	0
6883	0	0
6884	0	0
6885	0	0
6886	0	0
6887	0	0
6888	0	0
6889	0	0
6890	0	0
6891	0	0
6892	0	0
6893	0	0
6894	0	0
6895	0	0
6896	0	0
6897	0	0
6898	0	0
6899	0	0
6900	0	0
6901	0	0
6902	0	0
6903	0	0
6904	0	0
6905	0	0
6906	0	0
6907	0	0
6908	0	0
6909	0	0
6910	0	0
6911	0	0
6912	0	0
6913	0	0
6914	0	0
6915	0	0
6916	0	0
6917	0	0.047619
6918	0	0.047619
6919	0	0.047619
6920	0	0.047619
6921	0	0.0357143
6922	0	0.0357143
6923	0	0.0357143
6924	0	0.0357143
6925	0	0.0357143
6926	0	0.0357143
6927	0	0.0357143
6928	0	0.0357143
6929	0	0.0357143
6930	0	0.0277778
6931	0	0.0277778
6932	0	0.0222222
6933	0	0.0222222
6934	0	0.0222222
6935	0	0.030303
6936	0	0.025641
6937	0	0.021978
6938	0	0.021978
6939	0	0.880895
6940	0	0.209524
6941	0	0.194444
6942	0	0.194444
6943	0	0.194444
6944	0	0.194444
6945	0	0.194444
6946	0	0.155556
6947	0	0.155556
6948	0	0.155556
6949	0	0.155556
6950	0	0.155556
6951	0	0.155556
6952	0	0.155556
6953	0	0.127273
6954	0	0.127273
6955	0	0.127273
6956	0	0.127273
6957	0	0.127273
6958	0	0.127273
6959	0	0.127273
6960	0	0.127273
6961	0	0.127273
6962	0	0.127273
6963	0	0.127273
6964	0	0.127273
6965	0	0.127273
6966	0	0.127273
6967	0	0.127273
6968	0	0.127273
6969	0	0.127273
6970	0	0.127273
6971	0	0.127273
6972	0	0.127273
6973	0	0.127273
6974	0	0.127273
6975	0	0.127273
6976	0	0.127273
6977	0	0.127273
6978	0	0.127273
6979	0	0.127273
6980	0	0.127273
6981	0	0.127273
6982	0	0.133333
6983	0	0.109091
6984	0	0.127273
6985	0	0.127273
6986	0	0.127273
6987	0	0.127273
6988	0	0.127273
6989	0	0.127273
6990	0	0.127273
6991	0	0.127273
6992	0	0.106061
6993	0	0.106061
6994	0	0.0897436
6995	0	0.0897436
6996	0	0.0769231
6997	0	0.0769231
6998	0	0.0666667
6999	0	0.0583333
7000	0	0.0583333
7001	0	0.0583333
7002	0	0.0583333
7003	0	0.0583333
7004	0	0.0583333
7005	0	0.0583333
7006	0	0.0583333
7007	0	0.0583333
7008	0	0.0583333
7009	0	0.0583333
7010	0	0.0514706
7011	0	0.0514706
7012	0	0.0514706
7013	0	0.0514706
7014	0	0.0514706
7015	0	0.0457516
7016	0	0.0457516
7017	0	0.0457516
7018	0	0.0368421
7019	0	0.0368421
7020	0	0.0368421
7021	0	0.0368421
7022	0	0.0368421
7023	0	0.0566667
7024	0	0.741899
7025	0	0.581812
7026	0	0.569945
7027	0	0.672628
7028	0	0.633531
7029	0	0.566093
7030	0	0.513668
7031	0	0.0434397
7032	0	0.0453284
7033	0	0.047343
7034	0	0.0520487
7035	0	0.0520487
7036	0	0.0509413
7037	0	0.0509413
7038	0	0.0454042
7039	0	0.0420819
7040	0	0.0441347
7041	0	0.0406504
7042	0	0.0406504
7043	0	0.0448718
7044	0	0.0448718
7045	0	0.0448718
7046	0	0.0423077
7047	0	0.048583
7048	0	0.0474359
7049	0	0.05
7050	0	0.05
7051	0	0.0474359
7052	0	0.0474359
7053	0	0.0474359
7054	0	0.0474359
7055	0	0.0474359
7056	0	0.0474359
7057	0	0.0423077
7058	0	0.0469417
7059	0	0.0469417
7060	0	0.0495495
7061	0	0.048048
7062	0	0.0507937
7063	0	0.0495495
7064	0	0.0537815
7065	0	0.0507937
7066	0	0.052381
7067	0	0.052381
7068	0	0.052381
7069	0	0.052381
7070	0	0.052381
7071	0	0.052381
7072	0	0.052381
7073	0	0.052381
7074	0	0.052381
7075	0	0.0571429
7076	0	0.0571429
7077	0	0.0571429
7078	0	0.0571429
7079	0	0.0571429
7080	0	0.0571429
7081	0	0.0571429
7082	0	0.0571429
7083	0	0.0604839
7084	0	0.0666667
7085	0	0.0666667
7086	0	0.0666667
7087	0	0.0666667
7088	0	0.0666667
7089	0	0.0666667
7090	0	0.0666667
7091	0	0.0597701
7092	0	0.0597701
7093	0	0.0597701
7094	0	0.0597701
7095	0	0.055914
7096	0	0.0511364
7097	0	0.0511364
7098	0	0.0511364
7099	0	0.0511364
7100	0	0.0511364
7101	0	0.0511364
7102	0	0.0511364
7103	0	0.0551724
7104	0	0.0551724
7105	0	0.0511364
7106	0	0.0511364
7107	0	0.0511364
7108	0	0.0511364
7109	0	0.0544355
7110	0	0.0544355
7111	0	0.0604839
7112	0	0.0604839
7113	0	0.0544355
7114	0	0.0544355
7115	0	0.0544355
7116	0	0.0544355
7117	0	0.0322581
7118	0	0.0322581
7119	0	0.0295567
7120	0	0.0295567
7121	0	0.0295567
7122	0	0.0302419
7123	0	0.0302419
7124	0	0.0302419
7125	0	0.0302419
7126	0	0.0387097
7127	0	0.0387097
7128	0	0.0387097
7129	0	0.0322581
7130	0	0.0322581
7131	0	0.0322581
7132	0	0.0365591
7133	0	0.0365591
7134	0	0.0365591
7135	0	0.0365591
7136	0	0.0430108
7137	0	0.0430108
7138	0	0.0430108
7139	0	0.0430108
7140	0	0.0430108
7141	0	0.0430108
7142	0	0.0430108
7143	0	0.0430108
7144	0	0.0430108
7145	0	0.0516129
7146	0	0.0516129
7147	0	0.0516129
7148	0	0.0516129
7149	0	0.0516129
7150	0	0.0512821
7151	0	0.0512821
7152	0	0.0512821
7153	0	0.0512821
7154	0	0.0512821
7155	0	0.0512821
7156	0	0.0512821
7157	0	0.0512821
7158	0	0.0512821
7159	0	0.0553846
7160	0	0.0553846
7161	0	0.0553846
7162	0	0.0553846
7163	0	0.0553846
7164	0	0.0553846
7165	0	0.0553846
7166	0	0.0553846
7167	0	0.0553846
7168	0	0.0553846
7169	0	0.0553846
7170	0	0.0553846
7171	0	0.0553846
7172	0	0.0553846
7173	0	0.0553846
7174	0	0.0553846
7175	0	0.0553846
7176	0	0.0553846
7177	0	0.0553846
7178	0	0.0553846
7179	0	0.0553846
7180	0	0.0553846
7181	0	0.0553846
7182	0	0.0553846
7183	0	0.0553846
7184	0	0.0553846
7185	0	0.0553846
7186	0	0.0553846
7187	0	0.0553846
7188	0	0.0553846
7189	0	0.0553846
7190	0	0.0533333
7191	0	0.0533333
7192	0	0.0533333
7193	0	0.0543478
7194	0	0.0543478
7195	0	0.0369231
7196	0	0.0369231
7197	0	0.0430769
7198	0	0.0430769
7199	0	0.0430769
7200	0	0.0430769
7201	0	0.0430769
7202	0	0.0430769
7203	0	0.0430769
7204	0	0.0430769
7205	0	0.0430769
7206	0	0.0553846
7207	0	0.0430769
7208	0	0.0430769
7209	0	0.0430769
7210	0	0.0430769
7211	0	0.0430769
7212	0	0.0430769
7213	0	0.0430769
7214	0	0.0430769
7215	0	0.0430769
7216	0	0.0430769
7217	0	0.0430769
7218	0	0.0430769
7219	0	0.0430769
7220	0	0.0466667
7221	0	0.0466667
7222	0	0.0466667
7223	0	0.0466667
7224	0	0.0466667
7225	0	0.0466667
7226	0	0.0466667
7227	0	0.0466667
7228	0	0.0507246
7229	0	0.0507246
7230	0	0.0434783
7231	0	0.0434783
7232	0	0.0395257
7233	0	0.0395257
7234	0	0.0395257
7235	0	0.04329
7236	0	0.0588235
7237	0	0.0588235
7238	0	0.0588235
7239	0	0.0666667
7240	0	0.0666667
7241	0	0.0666667
7242	0	0.0666667
7243	0	0.0666667
7244	0	0.0588235
7245	0	0.0588235
7246	0	0.0526316
7247	0	0.0526316
7248	0	0.0526316
7249	0	0.0526316
7250	0	0.0526316
7251	0	0.0522876
7252	0	0.0522876
7253	0	0.0467836
7254	0	0.0467836
7255	0	0.0467836
7256	0	0.0292398
7257	0	0.0350877
7258	0	0.0350877
7259	0	0.0350877
7260	0	0.0350877
7261	0	0.0350877
7262	0	0.0350877
7263	0	0.0409357
7264	0	0.0409357
7265	0	0.0409357
7266	0	0.0409357
7267	0	0.0409357
7268	0	0.0409357
7269	0	0.0409357
7270	0	0.0409357
7271	0	0.0409357
7272	0	0.0409357
7273	0	0.0409357
7274	0	0.0409357
7275	0	0.0457516
7276	0	0.0457516
7277	0	0.0457516
7278	0	0.0718954
7279	0	0.0718954
7280	0	0.0808824
7281	0	0.0808824
7282	0	0.0808824
7283	0	0.0808824
7284	0	0.0808824
7285	0	0.0441176
7286	0	0.0441176
7287	0	0.0441176
7288	0	0.0441176
7289	0	0.0441176
7290	0	0.0441176
7291	0	0.0441176
7292	0	0.0392157
7293	0	0.0392157
7294	0	0.0392157
7295	0	0.0457516
7296	0	0.0849673
7297	0	0.0849673
7298	0	0.0784314
7299	0	0.0784314
7300	0	0.0588235
7301	0	0.0588235
7302	0	0.0588235
7303	0	0.0588235
7304	0	0.0588235
7305	0	0.0588235
7306	0	0.0588235
7307	0	0.0588235
7308	0	0.0588235
7309	0	0.0588235
7310	0	0.0588235
7311	0	0.0661765
7312	0	0.0661765
7313	0	0.0808824
7314	0	0.0808824
7315	0	0.0808824
7316	0	0.0808824
7317	0	0.0808824
7318	0	0.0808824
7319	0	0.0808824
7320	0	0.0808824
7321	0	0.0808824
7322	0	0.0808824
7323	0	0.0808824
7324	0	0.0808824
7325	0	0.0808824
7326	0	0.0808824
7327	0	0.0808824
7328	0	0.0808824
7329	0	0.0808824
7330	0	0.0808824
7331	0	0.0808824
7332	0	0.0808824
7333	0	0.0808824
7334	0	0.0808824
7335	0	0.0808824
7336	0	0.0808824
7337	0	0.0808824
7338	0	0.0808824
7339	0	0.0808824
7340	0	0.0808824
7341	0	0.0808824
7342	0	0.0661765
7343	0	0.0661765
7344	0	0.075
7345	0	0.075
7346	0	0.0661765
7347	0	0.0661765
7348	0	0.0661765
7349	0	0.0661765
7350	0	0.0661765
7351	0	0.0661765
7352	0	0.0661765
7353	0	0.0661765
7354	0	0.0661765
7355	0	0.0661765
7356	0	0.0661765
7357	0	0.0441176
7358	0	0.0441176
7359	0	0.0441176
7360	0	0.0588235
7361	0	0.0588235
7362	0	0.0588235
7363	0	0.0588235
7364	0	0.0588235
7365	0	0.0588235
7366	0	0.0588235
7367	0	0.0588235
7368	0	0.0666667
7369	0	0.0666667
7370	0	0.0588235
7371	0	0.0588235
7372	0	0.0588235
7373	0	0.0588235
7374	0	0.0588235
7375	0	0.0588235
7376	0	0.0588235
7377	0	0.0588235
7378	0	0.0588235
7379	0	0.0588235
7380	0	0.0588235
7381	0	0.0588235
7382	0	0.0588235
7383	0	0.0588235
7384	0	0.0588235
7385	0	0.0588235
7386	0	0.0588235
7387	0	0.0588235
7388	0	0.0588235
7389	0	0.0588235
7390	0	0.0588235
7391	0	0.0588235
7392	0	0.0588235
7393	0	0.0588235
7394	0	0.0588235
7395	0	0.0588235
7396	0	0.0588235
7397	0	0.0588235
7398	0	0.0588235
7399	0	0.0588235
7400	0	0.0588235
7401	0	0.0588235
7402	0	0.169118
7403	0	0.0955882
7404	0	0.0955882
7405	0	0.0955882
7406	0	0.0882353
7407	0	0.1
7408	0	0.114286
7409	0	0.114286
7410	0	0.169118
7411	0	0.169118
7412	0	0.169118
7413	0	0.169118
7414	0	0.169118
7415	0	0.169118
7416	0	0.169118
7417	0	0.169118
7418	0	0.169118
7419	0	0.169118
7420	0	0.169118
7421	0	0.169118
7422	0	0.169118
7423	0	0.169118
7424	0	0.169118
7425	0	0.169118
7426	0	0.169118
7427	0	0.169118
7428	0	0.169118
7429	0	0.169118
7430	0	0.169118
7431	0	0.169118
7432	0	0.169118
7433	0	0.169118
7434	0	0.169118
7435	0	0.169118
7436	0	0.169118
7437	0	0.169118
7438	0	0.169118
7439	0	0.169118
7440	0	0.169118
7441	0	0.169118
7442	0	0.169118
7443	0	0.169118
7444	0	0.169118
7445	0	0.169118
7446	0	0.169118
7447	0	0.169118
7448	0	0.0879121
7449	0	0.0879121
7450	0	0.0879121
7451	0	0.0879121
7452	0	0.0879121
7453	0	0.0879121
7454	0	0.0549451
7455	0	0.0879121
7456	0	0.075
7457	0	0.0666667
7458	0	0.125
7459	0	0.191667
7460	0	0.220588
7461	0	0.220588
7462	0	0.220588
7463	0	0.25
7464	0	0.25
7465	0	0.25
7466	0	0.25
7467	0	0.25
7468	0	0.25
7469	0	0.25
7470	0	0.25
7471	0	0.25
7472	0	0.25
7473	0	0.25
7474	0	0.25
7475	0	0.25
7476	0	0.25
7477	0	0.25
7478	0	0.25
7479	0	0.25
7480	0	0.279412
7481	0	0.279412
7482	0	0.279412
7483	0	0.279412
7484	0	0.279412
7485	0	0.279412
7486	0	0.279412
7487	0	0.279412
7488	0	0.279412
7489	0	0.279412
7490	0	0.279412
7491	0	0.279412
7492	0	0.279412
7493	0	0.279412
7494	0	0.279412
7495	0	0.279412
7496	0	0.279412
7497	0	0.279412
7498	0	0.279412
7499	0	0.279412
7500	0	0.279412
7501	0	0.279412
7502	0	0.279412
7503	0	0.279412
7504	0	0.279412
7505	0	0.279412
7506	0	0.279412
7507	0	0.279412
7508	0	0.279412
7509	0	0.279412
7510	0	0.279412
7511	0	0.279412
7512	0	0.279412
7513	0	0.279412
7514	0	0.279412
7515	0	0.279412
7516	0	0.279412
7517	0	0.279412
7518	0	0.279412
7519	0	0.279412
7520	0	0.279412
7521	0	0.279412
7522	0	0.279412
7523	0	0.279412
7524	0	0.279412
7525	0	0.279412
7526	0	0.279412
7527	0	0.279412
7528	0	0.279412
7529	0	0.279412
7530	0	0.279412
7531	0	0.279412
7532	0	0.279412
7533	0	0.279412
7534	0	0.279412
7535	0	0.279412
7536	0	0.279412
7537	0	0.279412
7538	0	0.279412
7539	0	0.279412
7540	0	0.279412
7541	0	0.279412
7542	0	0.279412
7543	0	0.279412
7544	0	0.279412
7545	0	0.279412
7546	0	0.279412
7547	0	0.279412
7548	0	0.279412
7549	0	0.189723
7550	0	0.189723
7551	0	0.189723
7552	0	0.0555556
7553	0	0.0555556
7554	0	0.0555556
7555	0	0.0555556
7556	0	0.0555556
7557	0	0.0555556
7558	0	0.0555556
7559	0	0.0555556
7560	0	0.0555556
7561	0	0.0555556
7562	0	0.0555556
7563	0	0.0555556
7564	0	0.0555556
7565	0	0.0555556
7566	0	0.0555556
7567	0	0.0555556
7568	0	0.0980392
7569	0	0.0757576
7570	0	0.0757576
7571	0	0.0757576
7572	0	0.0757576
7573	0	0.0757576
7574	0	0.0757576
7575	0	0.0757576
7576	0	0.0757576
7577	0	0.0916667
7578	0	0.0916667
7579	0	0.0916667
7580	0	0.0916667
7581	0	0.0916667
7582	0	0.0916667
7583	0	0.0916667
7584	0	0.0916667
7585	0	0.0916667
7586	0	0.0916667
7587	0	0.0916667
7588	0	0.0916667
7589	0	0.0916667
7590	0	0.0916667
7591	0	0.0916667
7592	0	0.0761905
7593	0	0.0761905
7594	0	0.0857143
7595	0	0.0857143
7596	0	0.0989011
7597	0	0.131868
7598	0	0.153846
7599	0	0.153846
7600	0	0.131868
7601	0	0.166667
7602	0	0.241758
7603	0	0.241758
7604	0	0.241758
7605	0	0.241758
7606	0	0.241758
7607	0	0.241758
7608	0	0.241758
7609	0	0.241758
7610	0	0.241758
7611	0	0.241758
7612	0	0.241758
7613	0	0.241758
7614	0	0.241758
7615	0	0.241758
7616	0	0.241758
7617	0	0.241758
7618	0	0.282051
7619	0	0.282051
7620	0	0.282051
7621	0	0.282051
7622	0	0.282051
7623	0	0.282051
7624	0	0.282051
7625	0	0.282051
7626	0	0.318182
7627	0	0.318182
7628	0	0.318182
7629	0	0.318182
7630	0	0.318182
7631	0	0.318182
7632	0	0.318182
7633	0	0.318182
7634	0	0.318182
7635	0	0.318182
7636	0	0.381818
7637	0	0.381818
7638	0	0.381818
7639	0	0.381818
7640	0	0.381818
7641	0	0.381818
7642	0	0.381818
7643	0	0.381818
7644	0	0.333333
7645	0	0.333333
7646	0	0.333333
7647	0	0.333333
7648	0	0.333333
7649	0	0.333333
7650	0	0.333333
7651	0	0.333333
7652	0	0.333333
7653	0	0.333333
7654	0	0.333333
7655	0	0.333333
7656	0	0.333333
7657	0	0.333333
7658	0	0.333333
7659	0	0.333333
7660	0	0.333333
7661	0	0.333333
7662	0	0.333333
7663	0	0.333333
7664	0	0.333333
7665	0	0.333333
7666	0	0.381818
7667	0	0.381818
7668	0	0.381818
7669	0	0.381818
7670	0	0.381818
7671	0	0.381818
7672	0	0.466667
7673	0	0.466667
7674	0	0.466667
7675	0	0.466667
7676	0	0.466667
7677	0	0.47619
7678	0	0.47619
7679	0	0.277778
7680	0	0.416667
7681	0	0.416667
7682	0	0.194444
7683	0	0.194444
7684	0	0.194444
7685	0	0.194444
7686	0	0.194444
7687	0	0.194444
7688	0	0.25
7689	0	0.25
7690	0	0.25
7691	0	0.25
7692	0	0.25
7693	0	0.25
7694	0	0.25
7695	0	0.25
7696	0	0.25
7697	0	0.333333
7698	0	0.333333
7699	0	0.333333
7700	0	0.333333
7701	0	0.333333
7702	0	0.333333
7703	0	0.333333
7704	0	0.333333
7705	0	0.333333
7706	0	0.4
7707	0	0.4
7708	0	0
7709	0	0
7710	0	0
7711	0	0
7712	0	0
7713	0	0
7714	0	0
7715	0	0
7716	0	0
7717	0	0
7718	0	0
7719	0	0
7720	0	0
7721	0	0
7722	0	0
7723	0	0
7724	0	0
7725	0	0
7726	0	0
7727	0	0
7728	0	0
7729	0	0
7730	0	0
7731	0	0
7732	0	0
7733	0	0
7734	0	0
7735	0	0
7736	0	0
7737	0	0
7738	0	0
7739	0	0
7740	0	0
7741	0	0
7742	0	0
7743	0	0
7744	0	0
7745	0	0
7746	0	0
7747	0	0
7748	0	0
7749	0	0
7750	0	0
7751	0	0
7752	0	0
7753	0	0
7754	0	0
7755	0	0
7756	0	0
7757	0	0
7758	0	0
7759	0	0
7760	0	0
7761	0	0
7762	0	0
7763	0	0
7764	0	0
7765	0	0
7766	0	0
7767	0	0
7768	0	0
7769	0	0
7770	0	0
7771	0	0
7772	0	0
7773	0	0
7774	0	0
7775	0	0
7776	0	0
7777	0	0
7778	0	0
7779	0	0
7780	0	0
7781	0	0
7782	0	0
7783	0	0
7784	0	0
7785	0	0
7786	0	0
7787	0	0
7788	0	0
7789	0	0
7790	0	0
7791	0	0
7792	0	0
7793	0	0
7794	0	0
7795	0	0
7796	0	0
7797	0	0
7798	0	0
7799	0	0
7800	0	0
7801	0	0
7802	0	0
7803	0	0
7804	0	0
7805	0	0
7806	0	0
7807	0	0
7808	0	0
7809	0	0
7810	0	0
7811	0	0
7812	0	0
7813	0	0
7814	0	0
7815	0	0
7816	0	0
7817	0	0
7818	0	0
7819	0	0
7820	0	0
7821	0	0
7822	0	0
7823	0	0
7824	0	0
7825	0	0
7826	0	0
7827	0	0
7828	0	0
7829	0	0
7830	0	0
7831	0	0
7832	0	0
7833	0	0
7834	0	0
7835	0	0
7836	0	0
7837	0	0
7838	0	0
7839	0	0
7840	0	0
7841	0	0
7842	0	0
7843	0	0
7844	0	0
7845	0	0
7846	0	0
7847	0	0
7848	0	0
7849	0	0
7850	0	0
7851	0	0
7852	0	0
7853	0	0
7854	0	0
7855	0	0
7856	0	0
7857	0	0
7858	0	0
7859	0	0
7860	0	0
7861	0	0
7862	0	0
7863	0	0
7864	0	0
7865	0	0
7866	0	0
7867	0	0
7868	0	0
7869	0	0
7870	0	0
7871	0	0
7872	0	0
7873	0	0
7874	0	0
7875	0	0
7876	0	0
7877	0	0
7878	0	0
7879	0	0
7880	0	0
7881	0	0
7882	0	0
7883	0	0
7884	0	0
7885	0	0
7886	0	0
7887	0	0
7888	0	0
7889	0	0
7890	0	0
7891	0	0
7892	0	0
7893	0	0
7894	0	0
7895	0	0
7896	0	0
7897	0	0
7898	0	0
7899	0	0
7900	0	0
7901	0	0
7902	0	0
7903	0	0
7904	0	0
7905	0	0
7906	0	0
7907	0	0
7908	0	0
7909	0	0
7910	0	0
7911	0	0
7912	0	0
7913	0	0
7914	0	0
7915	0	0
7916	0	0
7917	0	0
7918	0	0
7919	0	0
7920	0	0
7921	0	0
7922	0	0
7923	0	0
7924	0	0
7925	0	0
7926	0	0
7927	0	0
7928	0	0
7929	0	0
7930	0	0
7931	0	0
7932	0	0
7933	0	0
7934	0	0
7935	0	0
7936	0	0
7937	0	0
7938	0	0
7939	0	0
7940	0	0
7941	0	0
7942	0	0
7943	0	0
7944	0	0
7945	0	0
7946	0	0
7947	0	0
7948	0	0
7949	0	0
7950	0	0
7951	0	0
7952	0	0
7953	0	0
7954	0	0
7955	0	0
7956	0	0
7957	0	0
7958	0	0
7959	0	0
7960	0	0
7961	0	0
7962	0	0
7963	0	0
7964	0	0
7965	0	0
7966	0	0
7967	0	0
7968	0	0
7969	0	0
7970	0	0
7971	0	0
7972	0	0
7973	0	0
7974	0	0
7975	0	0
7976	0	0
7977	0	0
7978	0	0
7979	0	0
7980	0	0
7981	0	0
7982	0	0
7983	0	0
7984	0	0
7985	0	0
7986	0	0
7987	0	0
7988	0	0
7989	0	0
7990	0	0
7991	0	0
7992	0	0
7993	0	0
7994	0	0
7995	0	0
7996	0	0
7997	0	0
7998	0	0
7999	0	0
8000	0	0
8001	0	0
8002	0	0
8003	0	0
8004	0	0
8005	0	0
8006	0	0
8007	0	0
8008	0	0
8009	0	0
8010	0	0
