Site	ColumnScore	SumOfPairsScore
1	0	0
2	0	0
3	0	0
4	0	0
5	0	0
6	0	0
7	0	0
8	0	0
9	0	0
10	0	0
11	0	0
12	0	0
13	0	0
14	0	0
15	0	0
16	0	0
17	0	0
18	0	0
19	0	0.181818
20	0	0.151515
21	0	0.151515
22	0	0.151515
23	0	0.131868
24	0	0.132353
25	0	0.132353
26	0	0.105263
27	0	0.105263
28	0	0.105263
29	0	0.105263
30	0	0.0994152
31	0	0.105263
32	0	0.152047
33	0	0.152047
34	0	0.152047
35	0	0.152047
36	0	0.136842
37	0	0.163158
38	0	0.205263
39	0	0.415789
40	0	0.504762
41	0	0.571429
42	0	0.571429
43	0	0.541502
44	0	0.554348
45	0	0.51
46	0	0.490028
47	0	0.887017
48	0	0.0666667
49	0	0
50	0	0
51	0	0.935214
52	0	0.930379
53	0	0.920402
54	0	0.0760234
55	0	0.0760234
56	0	0.0735931
57	0	0.150987
58	0	0.379333
59	0	0.270891
60	0	0.333333
61	0	0.333333
62	0	0.333333
63	0	0.333333
64	0	0.333333
65	0	0.333333
66	0	0.333333
67	0	0.333333
68	0	0.333333
69	0	0.333333
70	0	0.333333
71	0	0.333333
72	0	0.333333
73	0	0.333333
74	0	0.333333
75	0	0.333333
76	0	0.333333
77	0	0.333333
78	0	0.333333
79	0	0.333333
80	0	0.333333
81	0	0.333333
82	0	0.333333
83	0	0.333333
84	0	0.333333
85	0	0.333333
86	0	0.333333
87	0	0.333333
88	0	0.333333
89	0	0.333333
90	0	0.333333
91	0	0.333333
92	0	0.333333
93	0	0.333333
94	0	0.333333
95	0	0.333333
96	0	0.333333
97	0	0.333333
98	0	0.333333
99	0	0.333333
100	0	0.333333
101	0	0.333333
102	0	0.333333
103	0	0.333333
104	0	0.333333
105	0	0.333333
106	0	0.333333
107	0	0.333333
108	0	0.333333
109	0	0.333333
110	0	0.333333
111	0	0.333333
112	0	0.333333
113	0	0.333333
114	0	0.333333
115	0	0.333333
116	0	0.333333
117	0	0.333333
118	0	0.333333
119	0	0.333333
120	0	0.333333
121	0	0.166667
122	0	0.166667
123	0	0.166667
124	0	0.166667
125	0	0.166667
126	0	0.166667
127	0	0.166667
128	0	0.166667
129	0	0.166667
130	0	0.166667
131	0	0.166667
132	0	0.166667
133	0	0.166667
134	0	0.166667
135	0	0.166667
136	0	0.166667
137	0	0.166667
138	0	0.166667
139	0	0.166667
140	0	0.166667
141	0	0.166667
142	0	0.166667
143	0	0.166667
144	0	0.166667
145	0	0.166667
146	0	0.0952381
147	0	0.2
148	0	0.40143
149	0	0.31978
150	0	0.136364
151	0	0.0909091
152	0	0.0909091
153	0	0.0909091
154	0	0.0909091
155	0	0.136364
156	0	0.0909091
157	0	0.0769231
158	0	0.288306
159	0	0.301125
160	0	0.215726
161	0	0.21371
162	0	0.17372
163	0	0.17565
164	0	0.169553
165	0	0
166	0	0
167	0	0
168	0	0
169	0	0
170	0	0
171	0	0
172	0	0
173	0	0
174	0	0
175	0	0
176	0	0
177	0	0
178	0	0
179	0	0
180	0	0
181	0	0
182	0	0
183	0	0
184	0	0
185	0	0
186	0	0
187	0	0
188	0	0
189	0	0
190	0	0
191	0	0
192	0	0
193	0	0
194	0	0
195	0	0
196	0	0
197	0	0
198	0	0
199	0	0
200	0	0
201	0	0
202	0	0
203	0	0
204	0	0
205	0	0
206	0	0
207	0	0
208	0	0
209	0	0
210	0	0
211	0	0
212	0	0
213	0	0
214	0	0
215	0	0
216	0	0
217	0	0
218	0	0
219	0	0
220	0	0
221	0	0
222	0	0
223	0	0
224	0	0
225	0	0
226	0	0
227	0	0
228	0	0
229	0	0
230	0	0
231	0	0
232	0	0
233	0	0
234	0	0
235	0	0
236	0	0
237	0	0
238	0	0
239	0	0
240	0	0
241	0	0
242	0	0
243	0	0
244	0	0
245	0	0
246	0	0.214286
247	0	0.20971
248	0	0.10124
249	0	0
250	0	0
251	0	0
252	0	0
253	0	0
254	0	0.17479
255	0	0.224022
256	0	0
257	0	0
258	0	0
259	0	0
260	0	0
261	0	0
262	0	0
263	0	0
264	0	0
265	1	0
266	1	0
267	1	0
268	1	0
269	1	0
270	1	0
271	1	0
272	1	0
273	1	0
274	1	0
275	1	0
276	1	0
277	1	0
278	1	0
279	1	0
280	1	0
281	1	0
282	1	0
283	1	0
284	1	0
285	1	0
286	1	0
287	1	0
288	1	0
289	1	0
290	1	0
291	1	0
292	1	0
293	1	0
294	1	0
295	1	0
296	1	0
297	1	0
298	1	0
299	1	0
300	1	0
301	1	0
302	1	0
303	1	0
304	1	0
305	1	0
306	1	0
307	1	0
308	1	0
309	1	0
310	1	0
311	1	0
312	1	0
313	1	0
314	1	0
315	1	0
316	1	0
317	1	0
318	1	0
319	1	0
320	1	0
321	1	0
322	1	0
323	1	0
324	1	0
325	1	0
326	1	0
327	1	0
328	1	0
329	1	0
330	1	0
331	1	0
332	1	0
333	1	0
334	1	0
335	1	0
336	1	0
337	1	0
338	1	0
339	1	0
340	1	0
341	1	0
342	1	0
343	1	0
344	1	0
345	1	0
346	1	0
347	1	0
348	1	0
349	1	0
350	1	0
351	1	0
352	1	0
353	1	0
354	1	0
355	1	0
356	1	0
357	1	0
358	1	0
359	1	0
360	1	0
361	1	0
362	1	0
363	1	0
364	1	0
365	1	0
366	1	0
367	1	0
368	1	0
369	1	0
370	1	0
371	1	0
372	1	0
373	1	0
374	1	0
375	1	0
376	1	0
377	1	0
378	1	0
379	1	0
380	1	0
381	1	0
382	1	0
383	1	0
384	1	0
385	0	0
386	0	0
387	1	0
388	1	0
389	1	0
390	1	0
391	1	0
392	1	0
393	1	0
394	1	0
395	1	0
396	1	0
397	0	0
398	0	0
399	0	0
400	0	0
401	0	0
402	0	0
403	0	0
404	0	0
405	0	0
406	1	0
407	1	0
408	1	0
409	1	0
410	1	0
411	1	0
412	1	0
413	1	0
414	1	0
415	0	0
416	0	0
417	1	0
418	1	0
419	1	0
420	0	0
421	0	0
422	0	0
423	0	0
424	0	0
425	0	0
426	0	0
427	0	0
428	0	0
429	0	0
430	0	0
431	0	0
432	0	0
433	0	0
434	0	0
435	0	0
436	0	0
437	0	0
438	0	0
439	0	0
440	0	0
441	0	0
442	0	0
443	0	0
444	1	0
445	1	0
446	1	0
447	1	0
448	1	0
449	1	0
450	1	0
451	1	0
452	1	0
453	1	0
454	1	0
455	1	0
456	1	0
457	1	0
458	1	0
459	1	0
460	1	0
461	1	0
462	1	0
463	1	0
464	1	0
465	0	0
466	0	0
467	0	0
468	0	0
469	0	0
470	0	0
471	0	0
472	0	0
473	0	0
474	0	0
475	0	0
476	0	0
477	0	0
478	0	0
479	0	0
480	0	0
481	0	0
482	0	0
483	0	0
484	0	0
485	0	0
486	0	0
487	0	0
488	0	0
489	0	0
490	0	0
491	1	0
492	1	0
493	1	0
494	1	0
495	1	0
496	1	0
497	1	0
498	1	0
499	1	0
500	1	0
501	0	0
502	0	0
503	0	0
504	0	0
505	0	0
506	0	0
507	0	0
508	1	0
509	1	0
510	1	0
511	1	0
512	0	0
513	0	0
514	0	0
515	0	0
516	0	0
517	0	0
518	0	0
519	0	0
520	1	0
521	1	0
522	1	0
523	1	0
524	1	0
525	1	0
526	1	0
527	1	0
528	1	0
529	1	0
530	1	0
531	1	0
532	1	0
533	1	0
534	1	0
535	1	0
536	1	0
537	1	0
538	1	0
539	0	0
540	0	0
541	0	0
542	0	0
543	0	0
544	0	0
545	0	0
546	0	0
547	0	0
548	0	0
549	0	0
550	0	0
551	0	0
552	0	0
553	0	0
554	0	0
555	0	0
556	0	0
557	0	0
558	0	0
559	0	0
560	0	0
561	0	0
562	0	0
563	0	0
564	0	0
565	0	0
566	0	0
567	0	0
568	1	0
569	1	0
570	1	0
571	1	0
572	1	0
573	1	0
574	1	0
575	1	0
576	1	0
577	1	0
578	0	0
579	0	0
580	0	0
581	0	0
582	0	0
583	0	0
584	0	0
585	0	0
586	0	0
587	0	0
588	0	0
589	0	0
590	0	0
591	0	0
592	1	0
593	1	0
594	1	0
595	0	0
596	0	0
597	0	0
598	0	0
599	0	0
600	0	0
601	0	0
602	0	0
603	0	0
604	0	0
605	0	0
606	0	0
607	0	0
608	0	0
609	0	0
610	0	0
611	0	0
612	0	0
613	0	0
614	0	0
615	0	0
616	0	0
617	0	0
618	0	0
619	0	0
620	0	0
621	0	0
622	0	0
623	0	0
624	0	0
625	0	0
626	0	0
627	0	0
628	0	0
629	0	0
630	0	0
631	0	0
632	0	0
633	0	0
634	0	0
635	0	0
636	0	0
637	0	0
638	0	0
639	0	0
640	0	0
641	0	0
642	0	0
643	0	0
644	0	0
645	0	0
646	0	0
647	0	0
648	0	0
649	0	0
650	0	0
651	0	0
652	0	0
653	0	0
654	0	0
655	0	0
656	0	0
657	0	0
658	0	0
659	0	0
660	0	0
661	0	0
662	1	0
663	1	0
664	0	0
665	0	0
666	0	0
667	0	0
668	0	0
669	0	0
670	0	0
671	0	0
672	0	0
673	0	0
674	0	0
675	0	0
676	0	0
677	0	0
678	0	0
679	0	0
680	0	0
681	0	0
682	0	0
683	0	0
684	0	0
685	0	0
686	0	0
687	0	0
688	0	0
689	0	0
690	0	0
691	0	0
692	1	0
693	1	0
694	1	0
695	1	0
696	1	0
697	1	0
698	0	0
699	0	0
700	0	0
701	0	0
702	0	0
703	0	0
704	0	0
705	0	0
706	0	0
707	0	0
708	0	0
709	0	0
710	0	0
711	0	0
712	0	0
713	0	0
714	0	0
715	0	0
716	0	0
717	0	0
718	1	0
719	0	0
720	0	0
721	0	0
722	0	0
723	0	0
724	0	0
725	0	0
726	0	0
727	0	0
728	1	0
729	1	0
730	1	0
731	1	0
732	1	0
733	1	0
734	1	0
735	1	0
736	1	0
737	1	0
738	1	0
739	0	0
740	0	0
741	0	0
742	0	0
743	0	0
744	0	0
745	0	0
746	0	0
747	0	0
748	0	0
749	0	0
750	0	0
751	0	0
752	0	0
753	0	0
754	0	0
755	0	0
756	0	0
757	0	0
758	0	0
759	0	0
760	0	0
761	0	0
762	0	0
763	0	0
764	0	0
765	0	0
766	0	0
767	0	0
768	0	0
769	0	0
770	0	0
771	0	0
772	0	0
773	0	0
774	0	0
775	0	0
776	0	0
777	0	0
778	0	0
779	0	0
780	0	0
781	0	0
782	0	0
783	0	0
784	0	0
785	0	0
786	0	0
787	0	0
788	0	0
789	0	0
790	0	0
791	0	0
792	0	0
793	0	0
794	0	0
795	1	0
796	1	0
797	1	0
798	1	0
799	1	0
800	1	0
801	1	0
802	0	0
803	0	0
804	0	0
805	0	0
806	0	0
807	0	0
808	0	0
809	0	0
810	0	0
811	0	0
812	0	0
813	0	0
814	0	0
815	0	0
816	0	0
817	0	0
818	0	0
819	0	0
820	0	0
821	0	0
822	0	0
823	0	0
824	0	0
825	0	0
826	0	0
827	0	0
828	0	0
829	0	0
830	0	0
831	0	0
832	0	0
833	0	0
834	0	0
835	0	0
836	0	0
837	0	0
838	0	0
839	0	0
840	0	0
841	0	0
842	0	0
843	0	0
844	0	0
845	0	0
846	0	0
847	0	0
848	0	0
849	0	0
850	0	0
851	0	0
852	0	0
853	0	0
854	0	0
855	0	0
856	0	0
857	0	0
858	0	0
859	0	0
860	0	0
861	0	0
862	0	0
863	0	0
864	0	0
865	0	0
866	0	0
867	0	0
868	0	0
869	0	0
870	0	0
871	0	0
872	0	0
873	0	0
874	0	0
875	0	0
876	0	0
877	0	0.3125
878	0	0.0841991
879	0	0.257895
880	0	0.167438
881	0	0.155075
882	0	0.161112
883	0	0.237005
884	0	0.228498
885	0	0.186691
886	0	0.180774
887	0	0.137443
888	0	0.219406
889	0	0.381222
890	0	0.25637
891	0	0.2559
892	0	0
893	0	0
894	0	0
895	0	0
896	0	0
897	0	0.666667
898	0	0.666667
899	0	0
900	0	0
901	0	0
902	0	0
903	0	0
904	0	0
905	0	0
906	0	0
907	0	0
908	0	0
909	0	0
910	0	0
911	0	0
912	0	0
913	0	0.200667
914	0	0.316269
915	0	0.383456
916	0	0.383456
917	0	0
918	0	0
919	0	0.194444
920	0	0.155556
921	0	0.352516
922	0	0.107143
923	0	0.107143
924	0	0.107143
925	0	0
926	0	0
927	0	0
928	0	0
929	0	0
930	0	0
931	0	0
932	0	0
933	0	0
934	0	0
935	0	0
936	0	0
937	0	0
938	0	0
939	0	0
940	0	0
941	0	0
942	0	0
943	0	0
944	0	0
945	0	0
946	0	0
947	0	0
948	0	0
949	0	0
950	0	0
951	0	0
952	0	0
953	0	0
954	0	0
955	0	0
956	0	0
957	0	0
958	0	0
959	0	0
960	0	0
961	0	0
962	0	0
963	0	0
964	0	0
965	0	0
966	0	0
967	0	0
968	0	0
969	0	0
970	0	0
971	0	0
972	0	0
973	0	0
974	0	0
975	0	0
976	0	0
977	0	0
978	0	0
979	0	0
980	0	0
981	0	0
982	0	0
983	0	0
984	0	0
985	0	0
986	0	0
987	0	0
988	0	0
989	0	0
990	0	0
991	0	0
992	0	0
993	0	0
994	0	0
995	0	0
996	0	0
997	0	0
998	0	0
999	0	0
1000	0	0
1001	0	0
1002	0	0
1003	0	0
1004	0	0
1005	0	0
1006	0	0
1007	0	0
1008	0	0
1009	0	0
1010	0	0
1011	0	0
1012	0	0
1013	0	0
1014	0	0
1015	0	0
1016	0	0
1017	0	0
1018	0	0.2
1019	0	0.2
1020	0	0.2
1021	0	0.2
1022	0	0.668802
1023	0	1
1024	0	1
1025	0	1
1026	0	0.257143
1027	0	0.257143
1028	0	0.282051
1029	0	0.317854
1030	0	0.309613
1031	0	0.0735931
1032	0	0.047619
1033	0	0.047619
1034	0	0.0591133
1035	0	0.0517241
1036	0	0.0566502
1037	0	0.455681
1038	0	0
1039	0	0
1040	0	0
1041	0	0.308333
1042	0	0.047619
1043	0	0.0357143
1044	0	0.0833333
1045	0	0.107143
1046	0	0.107143
1047	0	0.115385
1048	0	0.0989011
1049	0	0.108333
1050	0	0.105263
1051	0	0.0580645
1052	0	0.122222
1053	0	0.127684
1054	0	0.102722
1055	0	0.0902264
1056	0	0.0741847
1057	0	0.0739962
1058	0	0.0766864
1059	0	0.0845885
1060	0	0.0952683
1061	0	0.0944487
1062	0	0.157482
1063	0	0.156126
1064	0	0.290505
1065	0	0.303857
1066	0	0.404283
1067	0	0.490723
1068	0	0.514616
1069	0	0.582093
1070	0	0
1071	0	0
1072	0	0
1073	0	0
1074	0	0.333333
1075	0	0.333333
1076	0	0.333333
1077	0	0.333333
1078	0	0.586654
1079	0	0.622974
1080	0	0
1081	0	0
1082	0	0
1083	0	0
1084	0	0
1085	0	0
1086	0	0
1087	0	0
1088	0	0
1089	0	0.535714
1090	0	0.979929
1091	0	0.979929
1092	0	0
1093	1	0
1094	1	0
1095	1	0
1096	0	0.972721
1097	0	0
1098	0	0
1099	0	0
1100	0	0
1101	0	0
1102	0	1
1103	0	0.993148
1104	0	0.989741
1105	0	0.969491
1106	0	0.87402
1107	0	0.998289
1108	0	0.998289
1109	0	0.996583
1110	0	0
1111	1	0
1112	1	0
1113	1	0
1114	1	0
1115	1	0
1116	1	0
1117	0	0.994863
1118	0	0.994867
1119	0	0.994867
1120	0	0.994867
1121	0	0.994867
1122	0	0
1123	0	0
1124	0	0
1125	0	0
1126	0	0
1127	0	0
1128	0	0.994863
1129	0	0.994863
1130	0	0.994863
1131	0	0
1132	0	0
1133	0	0
1134	0	0
1135	0	0
1136	0	0
1137	0	0
1138	0	0
1139	0	0
1140	0	0
1141	0	0
1142	0	0
1143	0	0
1144	0	0
1145	0	0
1146	0	0
1147	0	0
1148	0	0
1149	0	0
1150	0	0
1151	0	0
1152	0	0.994854
1153	0	0.994854
1154	0	0.994863
1155	0	0.892913
1156	0	0
1157	0	0
1158	0	0
1159	0	0
1160	0	0
1161	0	0
1162	0	0
1163	0	0.166667
1164	0	0.98463
1165	0	0
1166	0	0
1167	0	0
1168	0	0
1169	1	0
1170	1	0
1171	1	0
1172	1	0
1173	0	0
1174	0	0.80651
1175	0	0.984594
1176	0	0.984591
1177	0	0.1
1178	0	0
1179	0	0
1180	0	0.986354
1181	0	0
1182	1	0
1183	1	0
1184	1	0
1185	1	0
1186	1	0
1187	1	0
1188	1	0
1189	1	0
1190	1	0
1191	1	0
1192	1	0
1193	1	0
1194	1	0
1195	1	0
1196	1	0
1197	1	0
1198	1	0
1199	1	0
1200	0	0
1201	0	0.996586
1202	0	0.998292
1203	0	0.998292
1204	0	0.998292
1205	0	0.998292
1206	0	0.998292
1207	0	0.998286
1208	0	0
1209	0	0
1210	0	0
1211	0	0
1212	0	0
1213	0	0
1214	0	0
1215	0	0
1216	0	0
1217	0	0
1218	1	0
1219	1	0
1220	0	0
1221	0	0
1222	0	0
1223	0	0
1224	0	0
1225	0	0
1226	0	0
1227	0	0
1228	0	0
1229	0	0
1230	1	1
1231	1	1
1232	1	1
1233	1	1
1234	1	1
1235	0	1
1236	0	1
1237	0	1
1238	0	0.964568
1239	0	0.991446
1240	0	0.991453
1241	0	0.6
1242	0	0.5
1243	0	0.166667
1244	0	0
1245	0	0
1246	0	0
1247	0	0
1248	0	0
1249	0	0.996583
1250	0	0.998291
1251	0	0.998292
1252	0	0.998291
1253	0	0.998291
1254	0	0.996586
1255	0	0.996586
1256	0	0.996588
1257	0	0.994885
1258	0	0.996586
1259	0	0.998292
1260	0	0.998292
1261	0	0.998292
1262	0	1
1263	0	0.988096
1264	0	1
1265	0	1
1266	0	0.504741
1267	0	0.976354
1268	0	0.976354
1269	0	1
1270	0	0.979732
1271	0	1
1272	0	1
1273	0	0.998296
1274	0	0.998296
1275	0	0.998296
1276	0	0.998302
1277	0	0.998302
1278	0	0.998302
1279	0	0.998302
1280	0	0.998308
1281	0	0.998308
1282	0	0.998308
1283	0	0.998308
1284	0	0.998308
1285	0	0.998308
1286	0	0.998305
1287	0	0.998305
1288	0	0.998305
1289	1	0
1290	1	0
1291	1	0
1292	1	0
1293	1	0
1294	1	0
1295	1	0
1296	1	0
1297	1	0
1298	0	0
1299	0	0
1300	0	0
1301	0	0
1302	0	0
1303	0	0
1304	0	0
1305	0	0
1306	0	0
1307	0	1
1308	0	0.996613
1309	1	0
1310	1	0
1311	1	0
1312	1	0
1313	1	0
1314	1	0
1315	1	0
1316	1	0
1317	1	0
1318	1	0
1319	1	0
1320	1	0
1321	1	0
1322	1	0
1323	1	0
1324	1	0
1325	1	0
1326	1	0
1327	1	0
1328	1	0
1329	1	0
1330	1	0
1331	1	0
1332	1	0
1333	1	0
1334	1	0
1335	1	0
1336	1	0
1337	1	0
1338	1	0
1339	1	0
1340	1	0
1341	1	0
1342	1	0
1343	1	0
1344	1	0
1345	1	0
1346	1	0
1347	1	0
1348	1	0
1349	1	0
1350	1	0
1351	1	0
1352	1	0
1353	1	0
1354	0	0.5
1355	0	0.993233
1356	0	0.55657
1357	0	0.457516
1358	0	0.714286
1359	0	1
1360	1	1
1361	1	1
1362	1	1
1363	1	1
1364	1	1
1365	0	1
1366	0	1
1367	0	0.998307
1368	0	0.998309
1369	0	1
1370	0	1
1371	0	1
1372	0	1
1373	0	0
1374	0	0
1375	0	0
1376	1	0
1377	1	0
1378	1	0
1379	1	0
1380	1	0
1381	1	0
1382	1	0
1383	1	0
1384	1	0
1385	1	0
1386	1	0
1387	1	0
1388	1	0
1389	1	0
1390	1	0
1391	1	0
1392	1	0
1393	1	0
1394	1	0
1395	1	0
1396	1	0
1397	1	0
1398	1	0
1399	1	0
1400	1	0
1401	1	0
1402	1	0
1403	1	0
1404	1	0
1405	1	0
1406	1	0
1407	1	0
1408	0	0.962264
1409	0	0.486158
1410	0	0.486158
1411	0	0.740452
1412	0	0.506544
1413	0	0.716505
1414	0	0.932139
1415	0	0.932195
1416	0	0.736264
1417	0	1
1418	0	0.996541
1419	0	0.996612
1420	0	0.996612
1421	0	0.996591
1422	0	1
1423	0	0.998289
1424	0	0.998289
1425	0	0.998291
1426	0	0.998291
1427	0	0.99658
1428	0	0.994878
1429	0	0
1430	0	0
1431	0	0
1432	0	0
1433	0	0
1434	0	0
1435	0	0
1436	0	0
1437	0	0
1438	0	0
1439	0	0
1440	0	0
1441	0	0
1442	0	0
1443	0	0
1444	0	0
1445	0	0
1446	0	0
1447	0	0
1448	0	0
1449	0	0
1450	0	0
1451	0	0.5
1452	0	0.99485
1453	0	0.8
1454	0	0.75
1455	0	0.535714
1456	0	0.535714
1457	0	0.714286
1458	0	0.466667
1459	0	0.466667
1460	0	0.6
1461	0	0.6
1462	0	0.333333
1463	0	0.333333
1464	0	0.333333
1465	0	0.333333
1466	0	0.5
1467	0	0.5
1468	0	0.5
1469	0	0.5
1470	0	0.5
1471	1	0
1472	1	0
1473	1	0
1474	1	0
1475	1	0
1476	1	0
1477	1	0
1478	1	0
1479	1	0
1480	1	0
1481	1	0
1482	1	0
1483	1	0
1484	1	0
1485	1	0
1486	1	0
1487	1	0
1488	1	0
1489	1	0
1490	1	0
1491	1	0
1492	1	0
1493	0	0
1494	0	0
1495	0	0
1496	0	0
1497	0	0
1498	0	0
1499	0	0
1500	0	0
1501	0	0
1502	0	0
1503	0	0
1504	0	0.553112
1505	0	0.99492
1506	0	0.993229
1507	0	0.993229
1508	0	0.993229
1509	0	0.993223
1510	0	0.993217
1511	0	0.993217
1512	0	1
1513	0	0.993187
1514	0	0.991502
1515	0	0.991502
1516	0	0.989815
1517	0	0.993202
1518	0	0.994899
1519	0	0.994899
1520	0	0.996594
1521	0	0.996594
1522	0	0.996594
1523	0	0.996594
1524	0	0.996591
1525	0	0.996588
1526	0	0.994891
1527	0	0.994891
1528	0	0.994891
1529	0	0.994899
1530	0	0.994899
1531	0	0.996596
1532	1	1
1533	1	1
1534	1	1
1535	1	1
1536	1	1
1537	1	1
1538	0	0.998295
1539	0	0.996594
1540	0	0.994898
1541	0	0.993206
1542	0	0.993206
1543	0	0.993206
1544	1	0
1545	1	0
1546	1	0
1547	1	0
1548	1	0
1549	1	0
1550	1	0
1551	1	0
1552	1	0
1553	1	0
1554	1	0
1555	1	0
1556	1	0
1557	1	0
1558	1	0
1559	0	0
1560	0	0
1561	0	0
1562	0	0
1563	0	0
1564	0	0.9966
1565	0	0.994907
1566	0	0.994902
1567	0	0.996603
1568	0	0.9966
1569	0	0.996594
1570	0	0.99152
1571	0	0.99152
1572	0	0.99152
1573	0	0.993207
1574	0	1
1575	0	0.998296
1576	0	0.996597
1577	0	0.998298
1578	0	0.998298
1579	0	0.998299
1580	0	0.998299
1581	0	0.9966
1582	0	0.998298
1583	0	0.996597
1584	0	0.998298
1585	0	0.998298
1586	0	0.998299
1587	0	0.998299
1588	0	0.998299
1589	0	0.998299
1590	0	0.996603
1591	0	0.998299
1592	0	0.998299
1593	0	0.9966
1594	0	0.993225
1595	0	0.998304
1596	0	0.998304
1597	0	0.998304
1598	0	1
1599	0	1
1600	0	1
1601	0	1
1602	0	1
1603	0	1
1604	0	1
1605	0	1
1606	0	1
1607	0	0.662733
1608	0	0.99492
1609	0	0.99492
1610	0	0.989856
1611	0	0.5
1612	0	0.5
1613	0	0.5
1614	0	0.5
1615	0	0.989848
1616	0	0.993228
1617	0	0.998299
1618	0	0.998299
1619	0	0.998304
1620	0	0.996609
1621	0	0.998305
1622	0	0.998305
1623	0	0.998305
1624	0	0.998305
1625	0	1
1626	0	0.998305
1627	0	0.998305
1628	0	0.996609
1629	0	0.996609
1630	0	0.998302
1631	0	0.998302
1632	0	0.998302
1633	0	0.998302
1634	0	0.998302
1635	0	0.998301
1636	0	0.998301
1637	0	0.998301
1638	0	0.998301
1639	0	0.998301
1640	0	1
1641	0	0.515072
1642	0	0
1643	0	0.845967
1644	0	0.770107
1645	0	0.91604
1646	0	0.935809
1647	0	0.937423
1648	0	0.91485
1649	0	0.915403
1650	0	0.915403
1651	0	1
1652	0	1
1653	0	1
1654	0	1
1655	0	0
1656	0	0
1657	0	0
1658	0	0
1659	0	0
1660	0	0
1661	0	0
1662	0	0
1663	0	0
1664	0	0
1665	0	0
1666	0	0
1667	0	0
1668	0	0
1669	0	0
1670	0	0
1671	0	0.998302
1672	0	0.998302
1673	0	0.998302
1674	0	0.998301
1675	0	0.998301
1676	0	1
1677	0	1
1678	0	1
1679	0	1
1680	0	0.988159
1681	0	0.986472
1682	0	0.969851
1683	0	0.959702
1684	0	0.708912
1685	0	0
1686	0	0
1687	0	0
1688	0	0
1689	0	0
1690	0	0
1691	0	0
1692	0	0.705927
1693	0	0
1694	0	0
1695	0	0
1696	0	0.5
1697	0	0.5
1698	0	0
1699	0	0
1700	0	0
1701	0	0
1702	0	0
1703	0	0
1704	0	0
1705	0	0
1706	0	0
1707	0	0
1708	0	0
1709	0	0
1710	0	0.353968
1711	0	0
1712	0	0.30441
1713	0	0.267425
1714	0	0.687784
1715	0	0.6
1716	0	0.6
1717	0	0.6
1718	0	0.6
1719	0	0.6
1720	0	0.333333
1721	0	0.222222
1722	0	0.657384
1723	0	0.4
1724	0	0.4
1725	0	0.4
1726	0	0.4
1727	0	0.4
1728	0	0.4
1729	0	0.4
1730	0	0.4
1731	0	0.333333
1732	0	0.282051
1733	0	0.282051
1734	0	0.282051
1735	0	0.626669
1736	0	0.403731
1737	0	0.142105
1738	0	0.142105
1739	0	0.161765
1740	0	0.197802
1741	0	0.197802
1742	0	0.197802
1743	0	0.154412
1744	0	0.139706
1745	0	0.353309
1746	0	0.343982
1747	0	0
1748	0	0
1749	0	0
1750	0	0
1751	0	0
1752	0	0
1753	0	0
1754	0	0
1755	0	0
1756	0	0
1757	0	0
1758	0	0
1759	0	0
1760	0	0.283516
1761	0	0
1762	0	0
1763	0	0
1764	0	0
1765	0	0
1766	0	0
1767	0	0
1768	0	0
1769	0	0
1770	0	0
1771	0	0
1772	0	0
1773	0	0
1774	0	0
1775	0	0
1776	0	0
1777	0	0
1778	0	0
1779	0	0
1780	0	0
1781	0	0
1782	0	0
1783	0	0
1784	0	0
1785	0	0
1786	0	0
1787	0	0
1788	0	0
1789	0	0
1790	0	0
1791	0	0
1792	0	0
1793	0	0
1794	0	0
1795	0	0
1796	0	0
1797	0	0
1798	0	0
1799	0	0
1800	0	0
1801	0	0
1802	0	0
1803	0	0
1804	0	0
1805	0	0
1806	0	0
1807	0	0
1808	0	0
1809	0	0
1810	0	0
1811	0	0
1812	0	0
1813	0	0
1814	0	0
1815	0	0
1816	0	0
1817	0	0
1818	0	0
1819	0	0
1820	0	0
1821	0	0
1822	0	0
1823	0	0
1824	0	0
1825	0	0
1826	0	0
1827	0	0
1828	0	0
1829	0	0
1830	0	0
1831	0	0
1832	0	0
1833	0	0
1834	0	0
1835	0	0
1836	0	0
1837	0	0
1838	0	0
1839	0	0
1840	0	0
1841	0	0
1842	0	0
1843	0	0
1844	0	0
1845	0	0
1846	0	0
1847	0	0
1848	0	0
1849	0	0
1850	0	0
1851	0	0
1852	0	0
1853	0	0
1854	0	0
1855	0	0
1856	0	0
1857	0	0
1858	0	0
1859	0	0
1860	0	0
1861	0	0
1862	0	0
1863	0	0
1864	0	0
1865	0	0
1866	0	0
1867	0	0
1868	0	0
1869	0	0
1870	0	0
1871	0	0
1872	0	0
1873	0	0
1874	0	0.264822
1875	0	0.264822
1876	0	0.23
1877	0	0.613153
1878	0	0.597925
1879	0	0.614299
1880	0	0.605773
1881	0	0.586143
1882	0	0.565046
1883	0	0.26738
1884	0	0.26738
1885	0	0.237077
1886	0	0.15505
1887	0	0.147099
1888	0	0.106765
1889	0	0.103382
1890	0	0.0789658
1891	0	0.0655738
1892	0	0.0477118
1893	0	0.0571306
1894	0	0.0621788
1895	0	0.0685739
1896	0	0.153634
1897	0	0.125125
1898	0	0.096256
1899	0	0.0999511
1900	0	0.0942588
1901	0	0.088365
1902	0	0.0623127
1903	0	0.0578478
1904	0	0.0553832
1905	0	0.0445322
1906	0	0.0490805
1907	0	0.0548853
1908	0	0.0601152
1909	0	0.0716598
1910	0	0.0717948
1911	0	0.0754708
1912	0	0.156923
1913	0	0.150769
1914	0	0.126154
1915	0	0.135385
1916	0	0.203077
1917	0	0.203077
1918	0	0.219373
1919	0	0.424314
1920	0	0.321914
1921	0	0.581243
1922	0	0.582574
1923	0	0.359974
1924	0	0.421549
1925	0	0.44964
1926	0	0.432816
1927	0	0.552694
1928	0	0.528163
1929	0	0.511872
1930	0	0.507211
1931	0	0.489591
1932	0	0.32937
1933	0	0.230128
1934	0	0
1935	0	0
1936	0	0
1937	0	0
1938	0	0
1939	0	0
1940	0	0
1941	0	0
1942	0	0
1943	0	0
1944	0	0
1945	0	0
1946	0	0
1947	0	0
1948	0	0
1949	0	0
1950	0	0
1951	0	0
1952	0	0
1953	0	0
1954	0	0
1955	0	0
1956	0	0
1957	0	0
1958	0	0
1959	0	0
1960	0	0
1961	0	0
1962	0	0
1963	0	0
1964	0	0
1965	0	0
1966	0	0
1967	0	0
1968	0	0
1969	0	0
1970	0	0
1971	0	0
1972	0	0
1973	0	0
1974	0	0
1975	0	0
1976	0	0
1977	0	0
1978	0	0
1979	0	0
1980	0	0
1981	0	0
1982	0	0
1983	0	0
1984	0	0
1985	0	0
1986	0	0
1987	0	0
1988	0	0
1989	0	0
1990	0	0
1991	0	0
1992	0	0
1993	0	0
1994	0	0
1995	0	0
1996	0	0
1997	0	0
1998	0	0
1999	0	0
2000	0	0
2001	0	0
2002	0	0
2003	0	0
2004	0	0
2005	0	0.0665025
2006	0	0.0492611
2007	0	0.0492611
2008	0	0
2009	0	0
2010	0	0
2011	0	0.27619
2012	0	0.27619
2013	0	0.431373
2014	0	0.276667
2015	0	0.166387
2016	0	0.130488
2017	0	0.123232
2018	0	0.145955
2019	0	0.180486
2020	0	0.163992
2021	0	0.194327
2022	0	0.293934
2023	0	0.424404
2024	0	0.533878
2025	0	0.737896
2026	0	0.726149
2027	0	0.710154
2028	0	0.642637
2029	0	0.583126
2030	0	0.566596
2031	0	0.561976
2032	0	0.557135
2033	0	0.557323
2034	0	0.525375
2035	0	0.538142
2036	0	0.456264
2037	0	0.346725
2038	0	0.262849
2039	0	0.277778
2040	0	0.277778
2041	0	0.277778
2042	0	0.277778
2043	0	0.277778
2044	0	0.277778
2045	0	0.382771
2046	0	0.165442
2047	0	0.131057
2048	0	0.13962
2049	0	0.0859073
2050	0	0.0887406
2051	0	0.0941502
2052	0	0.0982929
2053	0	0.10943
2054	0	0.115528
2055	0	0.131746
2056	0	0.201426
2057	0	0.221469
2058	0	0.239284
2059	0	0.27208
2060	0	0.312681
2061	0	0.504089
2062	0	0.490808
2063	0	0.86782
2064	0	0.917065
2065	0	0.924521
2066	0	0.928253
2067	0	0.166667
2068	0	0.214286
2069	0	0.214286
2070	0	0.214286
2071	0	0
2072	0	0
2073	0	0
2074	0	0
2075	0	0
2076	0	0
2077	0	0
2078	0	0
2079	0	0
2080	0	0
2081	0	0
2082	0	0
2083	0	0
2084	0	0
2085	0	0
2086	0	0
2087	0	0
2088	0	0
2089	0	0
2090	0	0
2091	0	0
2092	0	0
2093	0	0
2094	0	0
2095	0	0
2096	0	0
2097	0	0
2098	0	0
2099	0	0
2100	0	0.277778
2101	0	0.222222
2102	0	0.333333
2103	0	0.473443
2104	0	0.895894
2105	0	0.91593
2106	0	0.943512
2107	0	0.958134
2108	0	0.975209
2109	0	0
2110	0	0
2111	0	0
2112	0	0
2113	0	0
2114	0	0
2115	0	0
2116	0	0
2117	0	0.894479
2118	0	0.621256
2119	0	0.795897
2120	0	0.879002
2121	0	0.971217
2122	0	0.971211
2123	0	0.974579
2124	0	0.974579
2125	0	0.974579
2126	0	0.666667
2127	0	0.666667
2128	0	0.976256
2129	0	0.976256
2130	0	0.976256
2131	0	0.967931
2132	0	0.705452
2133	0	0
2134	0	0.765873
2135	0	0.490326
2136	0	0.971689
2137	0	0
2138	0	0
2139	0	0
2140	0	0
2141	0	0
2142	0	0
2143	0	0
2144	0	0
2145	0	0
2146	0	0
2147	0	0.5623
2148	0	0.4
2149	0	0.4
2150	0	0.6
2151	0	0.981389
2152	0	0.981389
2153	0	0.981389
2154	0	0.981389
2155	0	0
2156	0	0
2157	0	0
2158	0	0
2159	0	0
2160	0	0
2161	0	0
2162	0	0
2163	0	0
2164	0	0
2165	0	0
2166	0	0
2167	0	0
2168	0	0
2169	0	0
2170	0	0
2171	0	0
2172	0	0
2173	0	0
2174	0	0
2175	0	0
2176	0	0
2177	0	0
2178	0	0
2179	0	0
2180	0	0
2181	0	0
2182	0	0
2183	0	0
2184	0	0
2185	0	0
2186	0	0
2187	0	0
2188	0	0
2189	0	0
2190	0	0
2191	0	0.983058
2192	0	0.983058
2193	0	0.981388
2194	1	0
2195	1	0
2196	1	0
2197	1	0
2198	1	0
2199	1	0
2200	1	0
2201	1	0
2202	0	0.98306
2203	0	0.98306
2204	0	0.981389
2205	0	0.98306
2206	0	0.98306
2207	0	0.98306
2208	0	0
2209	0	0
2210	0	0
2211	0	0
2212	0	0
2213	0	0.986412
2214	0	0.986412
2215	0	0.984733
2216	0	0.984733
2217	0	0
2218	0	0
2219	0	0
2220	0	0
2221	0	0
2222	0	0
2223	0	0
2224	0	0
2225	0	0
2226	0	0
2227	0	0
2228	0	0
2229	0	0
2230	0	0
2231	0	0
2232	0	0
2233	0	0
2234	0	0
2235	0	0
2236	0	0
2237	0	0
2238	0	0
2239	0	0
2240	0	0
2241	0	0
2242	0	0
2243	0	0
2244	0	0
2245	0	0
2246	0	0
2247	0	0
2248	0	0
2249	0	0
2250	0	0
2251	0	0
2252	0	0
2253	0	0
2254	0	0
2255	0	0
2256	0	0
2257	0	0
2258	0	0
2259	0	0
2260	0	0
2261	0	0
2262	0	0
2263	0	0
2264	0	0
2265	0	0
2266	0	0
2267	0	0
2268	0	0
2269	0	0
2270	0	0
2271	0	0
2272	0	0
2273	0	0
2274	0	0
2275	0	0
2276	0	0
2277	0	0
2278	0	0
2279	0	0
2280	0	0.923077
2281	0	0.854701
2282	0	0.854701
2283	0	0.854701
2284	0	0.854701
2285	0	0.942173
2286	0	0
2287	0	0
2288	0	0
2289	0	0
2290	0	0
2291	0	0
2292	0	0
2293	0	0
2294	0	0
2295	0	0
2296	0	0
2297	0	0
2298	0	0
2299	0	0
2300	0	0
2301	0	0
2302	0	0
2303	0	0
2304	0	0
2305	0	0
2306	0	0
2307	0	0
2308	0	0
2309	0	0
2310	0	0
2311	0	0
2312	0	0
2313	0	0
2314	0	0
2315	0	0
2316	0	0
2317	0	0
2318	0	0
2319	0	0
2320	0	0
2321	0	0
2322	0	0
2323	0	0
2324	0	0
2325	0	0
2326	0	0.937222
2327	0	0.932367
2328	0	0.932367
2329	0	0
2330	0	0
2331	0	0
2332	0	0
2333	0	0
2334	0	0
2335	0	0
2336	0	0
2337	0	0
2338	0	0
2339	0	0
2340	0	0
2341	0	0
2342	0	0
2343	0	0
2344	0	0
2345	0	0
2346	0	0
2347	0	0
2348	0	0
2349	0	0
2350	0	0
2351	0	0
2352	0	0
2353	0	0
2354	0	0
2355	0	0
2356	0	0
2357	0	0
2358	0	0
2359	0	0
2360	0	0
2361	0	0
2362	0	0
2363	0	0
2364	0	0
2365	0	0
2366	0	0
2367	0	0
2368	0	0
2369	0	0
2370	0	0
2371	0	0
2372	0	0
2373	0	0
2374	0	0
2375	0	0
2376	0	0
2377	0	0
2378	0	0
2379	0	0
2380	0	0
2381	0	0
2382	0	0
2383	0	0
2384	0	0
2385	0	0
2386	0	0
2387	0	0
2388	0	0
2389	0	0
2390	0	0
2391	0	0
2392	0	0
2393	0	0
2394	0	0
2395	0	0
2396	0	0
2397	0	0
2398	0	0
2399	0	0
2400	0	0
2401	0	0
2402	0	0
2403	0	0
2404	0	0
2405	0	0
2406	0	0
2407	0	0
2408	0	0
2409	0	0
2410	0	0
2411	0	0
2412	0	0
2413	0	0
2414	0	0
2415	0	0
2416	0	0
2417	0	0
2418	0	0
2419	0	0
2420	0	0
2421	0	0
2422	0	0
2423	0	0
2424	0	0
2425	0	0
2426	0	0
2427	1	0
2428	1	0
2429	1	0
2430	1	0
2431	1	0
2432	1	0
2433	1	0
2434	1	0
2435	1	0
2436	1	0
2437	0	0
2438	0	0
2439	0	0
2440	0	0
2441	0	0
2442	0	0
2443	0	0
2444	0	0
2445	0	0
2446	0	0
2447	0	0
2448	0	0
2449	0	0
2450	0	0
2451	0	0
2452	0	0
2453	0	0
2454	0	0
2455	0	0
2456	0	0
2457	0	0
2458	0	0
2459	0	0
2460	0	0
2461	0	0
2462	0	0
2463	0	0
2464	0	0
2465	0	0
2466	0	0
2467	0	0
2468	0	0
2469	0	0
2470	0	0
2471	0	0
2472	0	0
2473	0	0
2474	0	0
2475	0	0
2476	0	0
2477	0	0
2478	0	0
2479	0	0
2480	0	0
2481	0	0
2482	0	0
2483	0	0
2484	0	0
2485	0	0
2486	0	0
2487	0	0
2488	0	0
2489	0	0
2490	0	0
2491	0	0
2492	0	0
2493	0	0
2494	0	0
2495	0	0
2496	0	0
2497	0	0
2498	0	0
2499	0	0
2500	0	0
2501	0	0
2502	0	0
2503	0	0
2504	0	0
2505	0	0
2506	0	0
2507	0	0
2508	0	0
2509	0	0
2510	0	0
2511	0	0
2512	0	0
2513	0	0
2514	0	0
2515	0	0
2516	0	0
2517	0	0
2518	0	0
2519	0	0
2520	0	0
2521	0	0
2522	0	0
2523	0	0
2524	0	0
2525	0	0
2526	0	0
2527	0	0
2528	0	0
2529	0	0
2530	0	0
2531	0	0
2532	0	0
2533	0	0
2534	0	0
2535	0	0
2536	0	0
2537	0	0
2538	0	0
2539	0	0
2540	0	0
2541	0	0
2542	0	0
2543	0	0
2544	0	0
2545	0	0
2546	0	0
2547	0	0
2548	0	0
2549	0	0.166667
2550	0	0.927292
2551	0	1
2552	0	1
2553	0	1
2554	0	1
2555	0	1
2556	0	1
2557	0	1
2558	0	1
2559	0	1
2560	0	1
2561	0	1
2562	0	1
2563	0	1
2564	0	1
2565	0	1
2566	0	1
2567	0	1
2568	0	1
2569	0	1
2570	0	1
2571	0	0.914871
2572	0	0
2573	0	0
2574	0	0
2575	0	0
2576	0	0
2577	0	0
2578	0	0
2579	0	0
2580	0	0
2581	0	0
2582	0	0
2583	0	0
2584	0	0
2585	0	0
2586	0	0
2587	0	0
2588	0	0
2589	0	0
2590	0	0
2591	0	0
2592	0	0
2593	0	0
2594	0	0
2595	0	0
2596	0	0
2597	0	0
2598	0	0
2599	0	0
2600	0	0
2601	0	0
2602	0	0
2603	0	0
2604	0	0
2605	0	0
2606	0	0
2607	0	0
2608	0	0
2609	0	0
2610	0	0
2611	0	0
2612	0	0
2613	0	0
2614	0	0
2615	0	0
2616	0	0
2617	0	0
2618	0	0
2619	0	0
2620	0	0
2621	0	0
2622	0	0
2623	0	0
2624	0	0
2625	0	0
2626	0	0
2627	0	0
2628	0	0
2629	0	0
2630	0	0
2631	0	0
2632	0	0
2633	0	0
2634	0	0
2635	0	0
2636	0	0
2637	0	0
2638	0	0
2639	0	0
2640	0	0
2641	0	0
2642	0	0
2643	0	0
2644	0	0
2645	0	0
2646	0	0
2647	0	0
2648	0	0
2649	0	0
2650	0	0
2651	0	0
2652	0	0
2653	0	0
2654	0	0
2655	0	0
2656	0	0
2657	0	0
2658	0	0
2659	0	0
2660	0	0
2661	0	0
2662	0	0
2663	0	0
2664	0	0
2665	0	0
2666	0	0
2667	0	0
2668	0	0
2669	0	0
2670	0	0
2671	0	0
2672	0	0
2673	0	0
2674	0	0
2675	0	0
2676	0	0
2677	0	0
2678	0	0
2679	0	0
2680	0	0
2681	0	0
2682	0	0
2683	0	0
2684	0	0
2685	0	0
2686	0	0
2687	0	0
2688	0	0
2689	0	0
2690	0	0
2691	0	0
2692	0	0
2693	0	0
2694	0	0
2695	0	0
2696	0	0.825605
2697	0	0.825697
2698	0	0.508553
2699	0	0.925748
2700	0	0
2701	0	0
2702	0	0
2703	0	0
2704	0	0
2705	0	0
2706	0	0
2707	0	0
2708	0	0
2709	0	0
2710	0	0
2711	0	0
2712	0	0
2713	0	0
2714	0	0
2715	0	0
2716	0	0
2717	0	0
2718	0	0
2719	0	0
2720	0	0
2721	0	0
2722	0	0
2723	0	0
2724	0	0
2725	0	0
2726	0	0
2727	0	0
2728	0	0
2729	0	0
2730	0	0
2731	0	0
2732	0	0
2733	0	0
2734	0	0
2735	0	0
2736	0	0
2737	0	0
2738	0	0
2739	0	0
2740	0	0
2741	0	0
2742	0	0
2743	0	0
2744	0	0
2745	0	0
2746	0	0
2747	0	0
2748	0	0
2749	0	0
2750	0	0
2751	0	0
2752	0	0
2753	0	0
2754	0	0
2755	0	0
2756	0	0
2757	0	0
2758	0	0
2759	0	0
2760	0	0
2761	0	0
2762	0	0
2763	0	0
2764	0	0
2765	0	0
2766	0	0
2767	0	0
2768	0	0
2769	0	0
2770	0	0
2771	0	0
2772	0	0
2773	0	0
2774	0	0
2775	0	0
2776	0	0
2777	0	0
2778	0	0
2779	0	0
2780	0	0
2781	0	0
2782	0	0
2783	0	0
2784	0	0
2785	0	0
2786	0	0
2787	0	0
2788	0	0
2789	0	0
2790	0	0
2791	0	0
2792	0	0
2793	0	0
2794	0	0
2795	0	0
2796	0	0
2797	0	0
2798	0	0
2799	0	0
2800	0	0
2801	0	0
2802	0	0
2803	0	0
2804	0	0
2805	0	0
2806	0	0
2807	0	0
2808	0	0
2809	0	0
2810	0	0
2811	0	0
2812	0	0
2813	0	0
2814	0	0
2815	0	0
2816	0	0
2817	0	0
2818	0	0
2819	0	0
2820	0	0
2821	0	0
2822	0	0
2823	0	0
2824	0	0
2825	0	0
2826	0	0
2827	0	0
2828	0	0
2829	0	0
2830	0	0
2831	0	0
2832	0	0
2833	0	0
2834	0	0
2835	0	0
2836	0	0
2837	0	0
2838	0	0
2839	0	0
2840	0	0
2841	0	0
2842	0	0
2843	0	0
2844	0	0
2845	0	0
2846	0	0
2847	0	0
2848	0	0
2849	0	0
2850	0	0
2851	1	0
2852	0	0
2853	0	0
2854	0	0
2855	0	0
2856	0	0
2857	0	0
2858	0	0
2859	0	0
2860	0	0
2861	0	0
2862	0	0
2863	0	0
2864	0	0
2865	0	0
2866	0	0
2867	0	0
2868	0	0
2869	0	0
2870	0	0
2871	0	0
2872	0	0
2873	0	0
2874	0	0
2875	0	0
2876	0	0
2877	0	0
2878	0	0
2879	0	0
2880	0	0
2881	0	0
2882	0	0
2883	0	0
2884	0	0
2885	0	0
2886	0	0
2887	0	0
2888	0	0
2889	0	0
2890	0	0
2891	0	0
2892	0	0
2893	0	0
2894	0	0
2895	0	0
2896	0	0
2897	0	0
2898	0	0
2899	0	0
2900	0	0
2901	0	0
2902	0	0
2903	0	0
2904	0	0
2905	0	0
2906	0	0
2907	0	0
2908	0	0
2909	0	0
2910	0	0
2911	0	0
2912	0	0
2913	0	0
2914	0	0
2915	0	0
2916	0	0
2917	0	0
2918	0	0
2919	0	0
2920	0	0
2921	0	0
2922	0	0
2923	0	0
2924	0	0
2925	0	0
2926	0	0
2927	0	0
2928	0	0
2929	0	0
2930	0	0
2931	0	0
2932	0	0
2933	0	0
2934	0	0
2935	0	0
2936	0	0
2937	0	0
2938	0	0
2939	0	0
2940	0	0
2941	0	0
2942	0	0
2943	0	0
2944	0	0
2945	0	0
2946	0	0
2947	0	0
2948	0	0
2949	0	0
2950	0	0
2951	0	0
2952	0	0
2953	0	0
2954	0	0
2955	0	0
2956	0	0
2957	0	0
2958	0	0
2959	0	0
2960	0	0
2961	0	0
2962	0	0
2963	0	0
2964	0	0
2965	0	0
2966	0	0
2967	0	0
2968	0	0
2969	0	0
2970	0	0
2971	0	0
2972	0	0
2973	0	0
2974	0	0
2975	0	0
2976	0	0
2977	0	0
2978	0	0
2979	0	0
2980	0	0
2981	0	0
2982	0	0
2983	0	0
2984	0	0
2985	0	0
2986	0	0
2987	0	0
2988	0	0
2989	0	0
2990	0	0
2991	0	0
2992	0	0
2993	0	0
2994	0	0
2995	0	0
2996	0	0
2997	0	0
2998	0	0
2999	0	0
3000	0	0
3001	0	0
3002	0	0
3003	0	0
3004	0	0
3005	0	0
3006	0	0
3007	0	0
3008	0	0
3009	0	0
3010	0	0
3011	0	0
3012	0	0
3013	0	0
3014	0	0
3015	0	0
3016	0	0
3017	0	0
3018	0	0
3019	0	0
3020	0	0
3021	0	0
3022	0	0
3023	0	0
3024	0	0
3025	0	0
3026	0	0
3027	0	0
3028	0	0
3029	0	0
3030	0	0
3031	0	0
3032	0	0
3033	0	0
3034	0	0
3035	0	0
3036	0	0
3037	0	0
3038	0	0
3039	0	0
3040	0	0
3041	0	0
3042	0	0
3043	0	0
3044	0	0
3045	0	0
3046	0	0
3047	0	0
3048	0	0
3049	0	0
3050	0	0
3051	0	0
3052	0	0
3053	0	0
3054	0	0
3055	0	0
3056	0	0
3057	0	0
3058	0	0
3059	0	0
3060	0	0
3061	0	0
3062	0	0
3063	0	0
3064	0	0
3065	0	0
3066	0	0
3067	0	0
3068	0	0
3069	0	0
3070	0	0
3071	0	0
3072	0	0
3073	0	0
3074	0	0
3075	0	0
3076	0	0
3077	0	0
3078	0	0
3079	0	0
3080	0	0
3081	0	0
3082	0	0
3083	0	0
3084	0	0
3085	0	0
3086	0	0
3087	0	0
3088	0	0
3089	0	0
3090	0	0
3091	0	0
3092	0	0
3093	0	0
3094	0	0
3095	0	0
3096	0	0
3097	0	0
3098	0	0
3099	0	0
3100	0	0
3101	0	0
3102	0	0
3103	0	0
3104	0	0
3105	0	0
3106	0	0
3107	0	0
3108	0	0
3109	0	0
3110	0	0
3111	0	0
3112	0	0
3113	0	0
3114	0	0
3115	0	0
3116	0	0
3117	0	0
3118	0	0
3119	0	0
3120	0	0
3121	0	0
3122	0	0
3123	0	0
3124	0	0
3125	0	0
3126	0	0
3127	0	0
3128	0	0
3129	0	0
3130	0	0
3131	0	0
3132	0	0
3133	0	0
3134	0	0
3135	0	0
3136	0	0
3137	0	0
3138	0	0
3139	0	0
3140	0	0
3141	0	0
3142	0	0
3143	0	0
3144	0	0
3145	0	0
3146	0	0
3147	0	0
3148	0	0
3149	0	0
3150	0	0
3151	0	0
3152	0	0
3153	0	0
3154	0	0
3155	0	0
3156	0	0
3157	0	0
3158	0	0
3159	0	0
3160	0	0
3161	0	0
3162	0	0
3163	0	0
3164	0	0
3165	0	0
3166	0	0
3167	0	0
3168	0	0
3169	0	0
3170	0	0
3171	0	0
3172	0	0
3173	0	0
3174	0	0
3175	0	0
3176	0	0
3177	0	0
3178	0	0
3179	0	0
3180	0	0
3181	0	0
3182	0	0
3183	0	0
3184	0	0
3185	0	0
3186	0	0
3187	0	0
3188	0	0
3189	0	0.922223
3190	0	0.364341
3191	0	0.0277778
3192	0	0.0357143
3193	0	0.0357143
3194	0	0.0357143
3195	0	0.0357143
3196	0	0.0357143
3197	0	0.0357143
3198	0	0.0277778
3199	0	0.0357143
3200	0	0.0357143
3201	0	0.907331
3202	0	0.894365
3203	0	0.898435
3204	0	0.392801
3205	0	0.385792
3206	0	0.37234
3207	0	0.37234
3208	0	0.388529
3209	0	0.391304
3210	0	0.456615
3211	0	0.540107
3212	0	0.540107
3213	0	0.540107
3214	0	0.540107
3215	0	0.540107
3216	0	0.570076
3217	0	0.570076
3218	0	0.568182
3219	0	0.645161
3220	0	0.645161
3221	0	0.645161
3222	0	0.689655
3223	0	0.738916
3224	0	0.738916
3225	0	0.738916
3226	0	0.738916
3227	0	0.738916
3228	0	0.738916
3229	0	0.738916
3230	0	0.738916
3231	0	0.738916
3232	0	0.738916
3233	0	0.738916
3234	0	0.738916
3235	0	0.679803
3236	0	0.679803
3237	0	0.679803
3238	0	0.679803
3239	0	0.679803
3240	0	0
3241	0	0
3242	0	0
3243	0	0
3244	0	0
3245	0	0
3246	0	0
3247	0	0
3248	0	0
3249	0	0
3250	0	0
3251	0	0
3252	0	0
3253	0	0
3254	0	0
3255	0	0
3256	0	0
3257	0	0
3258	0	0
3259	0	0
3260	0	0
3261	0	0
3262	0	0
3263	0	0
3264	0	0
3265	0	0
3266	0	0
3267	0	0
3268	0	0
3269	0	0
3270	0	0
3271	0	0
3272	0	0
3273	0	0
3274	0	0
3275	0	0
3276	0	0
3277	0	0
3278	0	0
3279	0	0
3280	0	0
3281	0	0
3282	0	0
3283	0	0
3284	0	0
3285	0	0
3286	0	0
3287	0	0
3288	0	0
3289	0	0
3290	0	0
3291	0	0
3292	0	0
3293	0	0
3294	0	0
3295	0	0
3296	1	0
3297	1	0
3298	1	0
3299	1	0
3300	0	0
3301	0	0
3302	0	0
3303	0	0
3304	0	0
3305	0	0
3306	0	0
3307	0	0
3308	0	0
3309	0	0
3310	0	0
3311	0	0
3312	0	0
3313	0	0
3314	0	0
3315	0	0
3316	0	0
3317	0	0
3318	0	0
3319	0	0
3320	0	0
3321	0	0
3322	0	0
3323	0	0
3324	0	0
3325	0	0
3326	0	0
3327	0	0
3328	0	0
3329	0	0
3330	0	0
3331	0	0
3332	0	0
3333	0	0
3334	0	0
3335	0	0
3336	0	0
3337	0	0
3338	0	0
3339	0	0
3340	0	0
3341	0	0
3342	0	0
3343	0	0
3344	0	0
3345	0	0
3346	0	0
3347	0	0
3348	0	0
3349	0	0
3350	0	0
3351	0	0
3352	0	0
3353	0	0
3354	0	0
3355	0	0
3356	0	0
3357	0	0
3358	0	0
3359	0	0
3360	0	0
3361	0	0
3362	0	0
3363	0	0
3364	0	0
3365	0	0
3366	0	0
3367	0	0
3368	0	0
3369	0	0
3370	0	0
3371	0	0
