Site	ColumnScore	SumOfPairsScore
1	1	0
2	1	0
3	1	0
4	1	0
5	1	0
6	1	0
7	1	0
8	1	0
9	1	0
10	1	0
11	1	0
12	1	0
13	1	0
14	1	0
15	1	0
16	1	0
17	1	0
18	1	0
19	1	0
20	1	0
21	1	0
22	1	0
23	1	0
24	1	0
25	1	0
26	1	0
27	1	0
28	1	0
29	1	0
30	1	0
31	1	0
32	1	0
33	1	0
34	1	0
35	1	0
36	1	0
37	1	0
38	1	0
39	1	0
40	1	0
41	1	0
42	1	0
43	1	0
44	1	0
45	1	0
46	1	0
47	1	0
48	1	0
49	1	0
50	1	0
51	1	0
52	1	0
53	1	0
54	1	0
55	1	0
56	1	0
57	1	0
58	1	0
59	1	0
60	1	0
61	1	0
62	1	0
63	1	0
64	1	0
65	1	0
66	1	0
67	1	0
68	1	0
69	1	0
70	1	0
71	1	0
72	1	0
73	1	0
74	1	0
75	1	0
76	1	0
77	0	0
78	0	0
79	0	0
80	0	0
81	0	0
82	1	0
83	1	0
84	1	0
85	1	0
86	1	0
87	1	0
88	1	0
89	1	0
90	1	0
91	1	0
92	1	0
93	1	0
94	1	0
95	1	0
96	1	0
97	1	0
98	1	0
99	1	0
100	1	0
101	1	0
102	1	0
103	1	0
104	1	0
105	1	0
106	1	0
107	1	0
108	1	0
109	1	0
110	1	0
111	1	0
112	1	0
113	1	0
114	1	0
115	1	0
116	1	0
117	1	0
118	1	0
119	1	0
120	1	0
121	1	0
122	1	0
123	1	0
124	0	0
125	0	0
126	0	0
127	0	0
128	0	0
129	0	0
130	0	0
131	0	0
132	0	0
133	0	0
134	0	0
135	0	0
136	1	0
137	1	0
138	1	0
139	1	0
140	1	0
141	1	0
142	1	0
143	1	0
144	1	0
145	1	0
146	1	0
147	1	0
148	0	0
149	0	0
150	0	0
151	0	0
152	0	0
153	0	0
154	0	0
155	0	0
156	0	0
157	0	0
158	0	0
159	1	0
160	0	0
161	0	0
162	0	0
163	0	0
164	0	0
165	0	0
166	0	0
167	0	0
168	0	0
169	0	0
170	0	0
171	0	0
172	0	0
173	0	0
174	0	0
175	0	0
176	0	0
177	0	0
178	0	0
179	0	0
180	0	0
181	0	0
182	0	0
183	0	0
184	0	0
185	0	0
186	0	0
187	0	0
188	0	0
189	0	0
190	0	0
191	0	0
192	0	0
193	0	0
194	0	0
195	0	0
196	0	0
197	0	0
198	0	0
199	0	0
200	0	0
201	0	0
202	0	0
203	0	0
204	0	0
205	0	0
206	0	0
207	0	0
208	0	0
209	0	0
210	0	0
211	0	0
212	0	0
213	0	0
214	0	0
215	0	0
216	0	0
217	0	0
218	0	0
219	0	0
220	0	0
221	0	0
222	0	0
223	0	0
224	0	0
225	0	0
226	0	0
227	0	0
228	0	0
229	0	0
230	0	0
231	0	0
232	0	0
233	0	0
234	0	0
235	0	0
236	0	0
237	0	0
238	0	0
239	0	0
240	0	0
241	0	0
242	0	0
243	0	0
244	0	0
245	1	0
246	0	0
247	0	0
248	0	0
249	0	0
250	0	0
251	0	0
252	0	0
253	0	0
254	0	0
255	0	0
256	0	0
257	0	0
258	0	0
259	0	0
260	0	0
261	0	0
262	0	0
263	0	0
264	0	0
265	0	0
266	0	0
267	0	0
268	0	0
269	0	0
270	0	0
271	0	0
272	0	0
273	0	0
274	0	0
275	0	0
276	0	0
277	0	0
278	0	0
279	0	0
280	0	0
281	0	0
282	0	0
283	0	0
284	0	0
285	0	0
286	0	0
287	0	0
288	0	0
289	0	0
290	0	0
291	0	0
292	0	0
293	0	0
294	0	0
295	0	0
296	0	0
297	0	0
298	0	0
299	0	0
300	0	0
301	0	0
302	0	0
303	0	0
304	0	0
305	0	0
306	0	0
307	0	0
308	0	0
309	0	0
310	0	0
311	0	0
312	0	0
313	0	0
314	0	0
315	0	0
316	0	0
317	0	0
318	0	0
319	0	0
320	0	0
321	0	0
322	0	0
323	0	0
324	1	0
325	1	0
326	1	0
327	1	0
328	0	0
329	0	0
330	0	0
331	0	0
332	0	0
333	0	0
334	1	0
335	1	0
336	1	0
337	0	0
338	0	0
339	0	0
340	0	0
341	1	0
342	0	0
343	0	0
344	0	0
345	0	0
346	0	0
347	0	0
348	0	0
349	0	0
350	0	0
351	0	0
352	0	0
353	0	0
354	0	0
355	0	0
356	0	0
357	0	0
358	0	0
359	0	0
360	0	0
361	0	0
362	0	0
363	0	0
364	0	0
365	0	0
366	0	0
367	0	0
368	0	0
369	0	0
370	0	0
371	1	0
372	1	0
373	1	0
374	1	0
375	1	0
376	1	0
377	1	0
378	1	0
379	1	0
380	1	0
381	1	0
382	1	0
383	1	0
384	1	0
385	1	0
386	1	0
387	1	0
388	1	0
389	1	0
390	1	0
391	1	0
392	1	0
393	1	0
394	1	0
395	1	0
396	1	0
397	1	0
398	1	0
399	1	0
400	1	0
401	1	0
402	1	0
403	1	0
404	1	0
405	1	0
406	1	0
407	1	0
408	1	0
409	1	0
410	1	0
411	0	0
412	0	0
413	0	0
414	0	0
415	0	0
416	0	0
417	0	0
418	0	0
419	0	0
420	0	0
421	0	0
422	0	0
423	0	0
424	0	0
425	0	0
426	0	0
427	0	0
428	0	0
429	0	0
430	0	0
431	0	0
432	0	0
433	0	0
434	0	0
435	0	0
436	0	0
437	0	0
438	0	0
439	0	0
440	0	0
441	0	0
442	0	0
443	0	0
444	0	0
445	0	0
446	0	0
447	0	0
448	0	0
449	0	0
450	0	0
451	0	0
452	0	0
453	0	0
454	0	0
455	0	0
456	0	0
457	0	0
458	0	0
459	0	0
460	0	0
461	0	0
462	0	0
463	0	0
464	0	0
465	0	0
466	0	0
467	0	0
468	0	0
469	1	0
470	1	0
471	1	0
472	1	0
473	1	0
474	0	0
475	0	0
476	0	0
477	0	0
478	0	0
479	0	0
480	0	0
481	0	0
482	0	0
483	0	0
484	0	0
485	0	0
486	0	0
487	0	0
488	0	0
489	0	0
490	0	0
491	0	0
492	0	0
493	0	0
494	0	0
495	0	0
496	0	0
497	0	0
498	0	0
499	0	0
500	0	0
501	0	0
502	0	0
503	0	0
504	0	0
505	0	0
506	0	0
507	0	0
508	0	0
509	0	0
510	0	0
511	0	0
512	0	0
513	0	0
514	0	0
515	0	0
516	0	0
517	0	0
518	0	0
519	0	0
520	0	0
521	0	0
522	0	0
523	0	0
524	0	0
525	0	0
526	0	0
527	0	0
528	0	0
529	0	0
530	0	0
531	0	0
532	0	0
533	0	0
534	0	0
535	0	0
536	0	0
537	0	0
538	0	0
539	0	0
540	0	0
541	0	0
542	0	0
543	0	0
544	0	0
545	0	0
546	0	0
547	0	0
548	0	0
549	0	0
550	0	0
551	0	0
552	0	0
553	0	0
554	0	0
555	0	0
556	0	0
557	0	0
558	0	0
559	0	0
560	0	0
561	0	0
562	0	0
563	0	0
564	0	0
565	0	0
566	0	0
567	0	0
568	0	0
569	0	0
570	0	0
571	0	0
572	0	0
573	0	0
574	0	0
575	0	0
576	0	0
577	0	0
578	0	0
579	0	0
580	0	0
581	0	0
582	0	0
583	0	0
584	0	0
585	0	0
586	0	0
587	0	0
588	0	0
589	0	0
590	0	0
591	0	0
592	0	0
593	0	0
594	0	0
595	0	0
596	0	0
597	0	0
598	0	0
599	0	0
600	0	0
601	0	0
602	0	0
603	0	0
604	0	0
605	0	0
606	0	0
607	0	0
608	0	0
609	0	0
610	0	0
611	0	0
612	0	0
613	0	0
614	0	0
615	0	0
616	0	0
617	0	0
618	0	0
619	0	0
620	0	0
621	0	0
622	0	0
623	0	0
624	0	0
625	0	0
626	0	0
627	0	0
628	0	0
629	0	0
630	0	0
631	0	0
632	0	0
633	0	0
634	0	0
635	0	0
636	0	0
637	0	0
638	0	0
639	0	0
640	0	0
641	0	0
642	0	0
643	0	0
644	0	0
645	0	0
646	0	0
647	0	0
648	0	0
649	0	0
650	0	0
651	0	0
652	0	0
653	0	0
654	0	0
655	0	0
656	0	0
657	0	0
658	0	0
659	0	0
660	0	0
661	0	0
662	0	0
663	0	0
664	0	0
665	0	0
666	0	0
667	0	0
668	0	0
669	0	0
670	0	0
671	0	0
672	0	0
673	0	0
674	0	0
675	0	0
676	0	0
677	0	0
678	0	0
679	0	0
680	0	0
681	0	0
682	0	0
683	0	0
684	0	0
685	0	0
686	0	0
687	0	0
688	0	0
689	0	0
690	0	0
691	0	0
692	0	0
693	0	0
694	0	0
695	0	0
696	0	0
697	0	0
698	0	0
699	0	0
700	0	0
701	0	0
702	0	0
703	0	0
704	0	0
705	0	0
706	0	0
707	0	0
708	0	0
709	0	0
710	0	0
711	0	0
712	0	0
713	0	0
714	0	0
715	0	0
716	0	0
717	0	0
718	0	0
719	0	0
720	0	0
721	0	0
722	0	0
723	0	0
724	0	0
725	0	0
726	0	0
727	0	0
728	0	0
729	0	0
730	0	0
731	0	0
732	0	0
733	0	0
734	0	0
735	0	0
736	0	0
737	0	0
738	0	0
739	0	0
740	0	0
741	0	0
742	0	0
743	0	0
744	0	0
745	0	0
746	0	0
747	0	0
748	0	0
749	0	0
750	0	0
751	0	0
752	0	0
753	0	0
754	0	0
755	0	0
756	0	0
757	0	0
758	0	0
759	0	0
760	0	0
761	0	0
762	0	0
763	0	0
764	0	0
765	0	0
766	0	0
767	0	0
768	0	0
769	0	0
770	0	0
771	0	0
772	0	0
773	0	0
774	0	0
775	0	0
776	0	0
777	0	0
778	0	0
779	0	0
780	0	0
781	0	0
782	0	0
783	0	0
784	0	0
785	0	0
786	0	0
787	0	0
788	0	0
789	0	0
790	0	0
791	0	0
792	0	0
793	0	0
794	0	0
795	0	0
796	0	0
797	0	0
798	0	0
799	0	0
800	0	0
801	0	0
802	0	0
803	0	0
804	0	0
805	0	0
806	0	0
807	0	0
808	0	0
809	0	0
810	0	0
811	0	0
812	0	0
813	0	0
814	0	0
815	0	0
816	0	0
817	0	0
818	0	0
819	0	0
820	0	0
821	0	0
822	0	0
823	0	0
824	0	0
825	0	0
826	0	0
827	0	0
828	0	0
829	0	0
830	0	0
831	0	0
832	0	0
833	0	0
834	0	0
835	0	0
836	0	0
837	0	0
838	0	0
839	0	0
840	0	0
841	0	0
842	0	0
843	0	0
844	0	0
845	0	0
846	0	0
847	0	0
848	0	0
849	0	0
850	0	0
851	0	0
852	0	0
853	0	0
854	0	0
855	0	0
856	0	0
857	0	0
858	0	0
859	0	0
860	0	0
861	0	0
862	0	0
863	0	0
864	0	0
865	0	0
866	0	0
867	0	0
868	0	0
869	0	0
870	0	0
871	0	0
872	0	0
873	0	0
874	0	0
875	0	0
876	0	0
877	0	0
878	0	0
879	0	0
880	0	0
881	0	0
882	0	0
883	0	0
884	0	0
885	0	0
886	0	0
887	0	0
888	0	0
889	0	0
890	0	0
891	0	0
892	0	0
893	0	0
894	0	0
895	0	0
896	0	0
897	0	0
898	0	0
899	0	0
900	0	0
901	0	0
902	0	0
903	0	0
904	0	0
905	0	0
906	0	0
907	0	0
908	0	0
909	0	0
910	0	0
911	0	0
912	0	0
913	0	0
914	0	0
915	0	0
916	0	0
917	0	0
918	0	0
919	0	0
920	0	0
921	0	0
922	0	0
923	0	0
924	0	0
925	0	0
926	0	0
927	0	0
928	0	0
929	0	0
930	0	0
931	0	0
932	0	0
933	0	0
934	0	0
935	0	0
936	0	0
937	0	0
938	0	0
939	0	0
940	0	0
941	0	0
942	0	0
943	0	0
944	0	0
945	0	0
946	0	0
947	0	0
948	0	0
949	0	0
950	0	0
951	0	0
952	0	0
953	0	0
954	0	0
955	0	0
956	0	0
957	0	0
958	0	0
959	0	0
960	0	0
961	0	0
962	0	0
963	0	0
964	0	0
965	0	0
966	0	0
967	0	0
968	0	0
969	0	0
970	0	0
971	0	0
972	0	0
973	0	0
974	0	0
975	0	0
976	0	0
977	0	0
978	0	0
979	0	0
980	0	0
981	0	0
982	0	0
983	0	0
984	0	0
985	0	0
986	0	0
987	0	0
988	0	0
989	0	0
990	0	0
991	0	0
992	0	0
993	0	0
994	0	0
995	0	0
996	0	0
997	0	0
998	0	0
999	0	0
1000	0	0
1001	0	0
1002	0	0
1003	0	0
1004	0	0
1005	0	0
1006	0	0
1007	0	0
1008	0	0
1009	0	0
1010	0	0
1011	0	0
1012	0	0
1013	0	0
1014	0	0
1015	0	0
1016	0	0
1017	0	0
1018	0	0
1019	0	0
1020	0	0
1021	0	0
1022	0	0
1023	0	0
1024	0	0
1025	0	0
1026	0	0
1027	0	0
1028	0	0
1029	0	0
1030	0	0
1031	0	0
1032	0	0
1033	0	0
1034	0	0
1035	0	0
1036	0	0
1037	0	0
1038	0	0
1039	0	0
1040	0	0
1041	0	0
1042	0	0
1043	0	0
1044	0	0
1045	0	0
1046	0	0
1047	0	0
1048	0	0
1049	0	0
1050	0	0
1051	0	0
1052	0	0
1053	0	0
1054	0	0
1055	0	0
1056	0	0
1057	0	0
1058	0	0
1059	0	0
1060	0	0
1061	0	0
1062	0	0
1063	0	0
1064	0	0
1065	0	0
1066	0	0
1067	0	0
1068	0	0
1069	0	0
1070	0	0
1071	0	0
1072	0	0
1073	0	0
1074	0	0
1075	0	0
1076	0	0
1077	0	0
1078	0	0
1079	0	0
1080	0	0
1081	0	0
1082	0	0
1083	0	0
1084	0	0
1085	0	0
1086	0	0
1087	0	0
1088	0	0
1089	0	0
1090	0	0
1091	0	0
1092	0	0
1093	0	0
1094	0	0
1095	0	0
1096	0	0
1097	0	0
1098	0	0
1099	0	0
1100	0	0
1101	0	0
1102	0	0
1103	0	0
1104	0	0
1105	0	0
1106	0	0
1107	0	0
1108	0	0
1109	0	0
1110	0	0
1111	0	0
1112	0	0
1113	0	0
1114	0	0
1115	0	0
1116	0	0
1117	0	0
1118	0	0
1119	0	0
1120	0	0
1121	0	0
1122	0	0
1123	0	0
1124	0	0
1125	0	0
1126	0	0
1127	0	0
1128	0	0
1129	0	0
1130	0	0
1131	0	0
1132	0	0
1133	0	0
1134	0	0
1135	0	0
1136	0	0
1137	0	0
1138	0	0
1139	0	0
1140	0	0
1141	0	0
1142	0	0
1143	0	0
1144	0	0
1145	0	0
1146	0	0
1147	0	0
1148	0	0
1149	0	0
1150	0	0
1151	0	0
1152	0	0
1153	0	0
1154	0	0
1155	0	0
1156	0	0
1157	0	0
1158	0	0
1159	0	0
1160	0	0
1161	0	0
1162	0	0
1163	0	0
1164	0	0
1165	0	0
1166	0	0
1167	0	0
1168	0	0
1169	0	0
1170	0	0
1171	0	0
1172	0	0
1173	0	0
1174	0	0
1175	0	0
1176	0	0
1177	0	0
1178	0	0
1179	0	0
1180	0	0
1181	0	0
1182	0	0
1183	0	0
1184	0	0
1185	0	0
1186	0	0
1187	0	0
1188	0	0
1189	0	0
1190	0	0
1191	0	0
1192	0	0
1193	0	0
1194	0	0
1195	0	0
1196	0	0
1197	0	0
1198	0	0
1199	0	0
1200	0	0
1201	0	0
1202	0	0
1203	0	0.0222222
1204	0	0.0222222
1205	0	0.0222222
1206	0	0.0222222
1207	0	0.0222222
1208	0	0.0222222
1209	0	0.0222222
1210	0	0.0222222
1211	0	0.0222222
1212	0	0.0222222
1213	0	0.0222222
1214	0	0.0222222
1215	0	0.0222222
1216	0	0.0222222
1217	0	0.0222222
1218	0	0.0222222
1219	0	0.0222222
1220	0	0.0222222
1221	0	0.0222222
1222	0	0.0222222
1223	0	0.0222222
1224	0	0.0222222
1225	0	0.0222222
1226	0	0.0222222
1227	0	0.0222222
1228	0	0.0222222
1229	0	0.0222222
1230	0	0.0181818
1231	0	0.0181818
1232	0	0.0181818
1233	0	0.0181818
1234	0	0.0181818
1235	0	0.0181818
1236	0	0.0181818
1237	0	0.0181818
1238	0	0.0181818
1239	0	0.0181818
1240	0	0.0181818
1241	0	0.0181818
1242	0	0.0181818
1243	0	0.0181818
1244	0	0.0512821
1245	0	0.0512821
1246	0	0.043956
1247	0	0.043956
1248	0	0.043956
1249	0	0.0769231
1250	0	0.0769231
1251	0	0.0769231
1252	0	0.0769231
1253	0	0.0769231
1254	0	0.0769231
1255	0	0.0769231
1256	0	0.0769231
1257	0	0.0769231
1258	0	0.0769231
1259	0	0.0769231
1260	0	0.0769231
1261	0	0.0769231
1262	0	0.0769231
1263	0	0.0769231
1264	0	0.0769231
1265	0	0.0769231
1266	0	0.0769231
1267	0	0.0769231
1268	0	0.0769231
1269	0	0.0769231
1270	0	0.0769231
1271	0	0.0769231
1272	0	0.0769231
1273	0	0.0769231
1274	0	0.0769231
1275	0	0.0769231
1276	0	0.0769231
1277	0	0.0769231
1278	0	0.0761905
1279	0	0.0761905
1280	0	0.0761905
1281	0	0.0666667
1282	0	0.0666667
1283	0	0.0666667
1284	0	0.0588235
1285	0	0.0588235
1286	0	0.0588235
1287	0	0.0514706
1288	0	0.0514706
1289	0	0.0514706
1290	0	0.0514706
1291	0	0.0514706
1292	0	0.0514706
1293	0	0.0514706
1294	0	0.0514706
1295	0	0.0514706
1296	0	0.0514706
1297	0	0.0514706
1298	0	0.0514706
1299	0	0.0514706
1300	0	0.0514706
1301	0	0.0514706
1302	0	0.0514706
1303	0	0.0514706
1304	0	0.0514706
1305	0	0.0514706
1306	0	0.0514706
1307	0	0.0514706
1308	0	0.0514706
1309	0	0.0514706
1310	0	0.0514706
1311	0	0.0514706
1312	0	0.0514706
1313	0	0.0514706
1314	0	0.0514706
1315	0	0.0514706
1316	0	0.0514706
1317	0	0.0588235
1318	0	0.0588235
1319	0	0.0588235
1320	0	0.0588235
1321	0	0.0588235
1322	0	0.0588235
1323	0	0.0514706
1324	0	0.0514706
1325	0	0.0514706
1326	0	0.0514706
1327	0	0.0514706
1328	0	0.0457516
1329	0	0.0457516
1330	0	0.0457516
1331	0	0.0457516
1332	0	0.0457516
1333	0	0.0457516
1334	0	0.0467836
1335	0	0.0467836
1336	0	0.0467836
1337	0	0.0526316
1338	0	0.0526316
1339	0	0.0526316
1340	0	0.0467836
1341	0	0.0467836
1342	0	0.0409357
1343	0	0.0409357
1344	0	0.0368421
1345	0	0.0368421
1346	0	0.0368421
1347	0	0.0421053
1348	0	0.0421053
1349	0	0.0421053
1350	0	0.0380952
1351	0	0.0380952
1352	0	0.0428571
1353	0	0.0428571
1354	0	0.0428571
1355	0	0.0428571
1356	0	0.0380952
1357	0	0.0380952
1358	0	0.0380952
1359	0	0.0380952
1360	0	0.0380952
1361	0	0.0380952
1362	0	0.0380952
1363	0	0.0380952
1364	0	0.0380952
1365	0	0.0380952
1366	0	0.0380952
1367	0	0.0380952
1368	0	0.0380952
1369	0	0.0398551
1370	0	0.047619
1371	0	0.0428571
1372	0	0.04329
1373	0	0.04329
1374	0	0.04329
1375	0	0.0519481
1376	0	0.047619
1377	0	0.04329
1378	0	0.04329
1379	0	0.04329
1380	0	0.034632
1381	0	0.034632
1382	0	0.034632
1383	0	0.034632
1384	0	0.034632
1385	0	0.034632
1386	0	0.034632
1387	0	0.034632
1388	0	0.034632
1389	0	0.0434783
1390	0	0.0398551
1391	0	0.0433333
1392	0	0.0433333
1393	0	0.0333333
1394	0	0.0369231
1395	0	0.0369231
1396	0	0.0338462
1397	0	0.0369231
1398	0	0.0369231
1399	0	0.0369231
1400	0	0.034188
1401	0	0.039886
1402	0	0.042735
1403	0	0.0502646
1404	0	0.0449735
1405	0	0.0418719
1406	0	0.0394089
1407	0	0.0394089
1408	0	0.0394089
1409	0	0.0367816
1410	0	0.0367816
1411	0	0.0367816
1412	0	0.0344086
1413	0	0.0301075
1414	0	0.0322581
1415	0	0.0262097
1416	0	0.0322581
1417	0	0.0362903
1418	0	0.0362903
1419	0	0.0362903
1420	0	0.0362903
1421	0	0.0362903
1422	0	0.0403226
1423	0	0.0359848
1424	0	0.0549242
1425	0	0.0499109
1426	0	0.0453782
1427	0	0.0537815
1428	0	0.0588235
1429	0	0.0537815
1430	0	0.092437
1431	0	0.0957983
1432	0	0.097479
1433	0	0.097479
1434	0	0.114286
1435	0	0.114286
1436	0	0.131092
1437	0	0.219219
1438	0	0.220721
1439	0	0.28165
1440	0	0.341394
1441	0	0.369844
1442	0	0.472262
1443	0	0.566667
1444	0	0.722222
1445	0	0.904014
1446	0	0.904472
1447	0	0.908406
1448	0	0.926798
1449	0	0.837616
1450	0	0.852703
1451	0	0.88248
1452	0	0.936802
1453	0	0.946288
1454	0	0.958418
1455	0	0.242105
1456	0	0.181818
1457	0	0.181818
1458	0	0.190476
1459	0	0.190476
1460	0	0.266667
1461	0	0.5
1462	0	0.987719
1463	0	0.985996
1464	0	0.985996
1465	0	0.985997
1466	0	0.987732
1467	0	0.985999
1468	0	0.5
1469	0	0.980742
1470	0	0
1471	0	0
1472	0	0
1473	0	0
1474	0	0
1475	0	0
1476	0	0
1477	0	0
1478	0	0
1479	0	0
1480	0	0
1481	0	0
1482	0	0
1483	0	0
1484	0	0
1485	0	0
1486	0	0
1487	0	0
1488	0	0
1489	0	0
1490	0	0
1491	0	0
1492	0	0
1493	0	0
1494	0	0
1495	0	0
1496	0	0
1497	0	0
1498	0	0
1499	0	0
1500	0	0
1501	0	0
1502	0	0
1503	0	0
1504	0	0.0952381
1505	0	0.97903
1506	0	0.947721
1507	0	0.799475
1508	0	0.60028
1509	0	0.584131
1510	0	0.403541
1511	0	0.333333
1512	0	0.60794
1513	0	0.588999
1514	0	0.17316
1515	0	0.402897
1516	0	0.54227
1517	0	0.5
1518	0	0.5
1519	0	0.617279
1520	0	0.612515
1521	0	0.628097
1522	0	0.636855
1523	0	0.639553
1524	0	0.638204
1525	0	0.638204
1526	0	0.380952
1527	0	0.333333
1528	0	0.633024
1529	0	0.626801
1530	0	0.626793
1531	0	0.595376
1532	0	1
1533	0	1
1534	0	0
1535	0	0.604396
1536	0	0.604396
1537	0	0.705128
1538	0	0.22381
1539	0	0.153061
1540	0	0.123239
1541	0	0.576731
1542	0	0.537137
1543	0	0.294931
1544	0	0.279217
1545	0	0.250847
1546	0	0.216234
1547	0	0.391704
1548	0	0.55041
1549	0	0.634028
1550	0	0.334677
1551	0	0.465726
1552	0	0.462462
1553	0	0.786216
1554	0	0.94465
1555	0	0.142857
1556	0	0.246667
1557	0	0.179487
1558	0	0.212121
1559	0	0.714286
1560	0	1
1561	0	1
1562	1	1
1563	1	1
1564	1	1
1565	0	1
1566	0	1
1567	0	1
1568	0	1
1569	1	1
1570	0	0.99825
1571	0	0
1572	0	0
1573	0	0
1574	0	0
1575	0	0
1576	0	0
1577	0	0
1578	0	0
1579	0	0
1580	0	0
1581	0	0
1582	1	1
1583	1	1
1584	1	1
1585	1	1
1586	1	1
1587	1	1
1588	1	1
1589	1	1
1590	1	1
1591	0	0.993021
1592	0	0.998252
1593	1	1
1594	1	1
1595	1	1
1596	1	1
1597	1	1
1598	1	1
1599	1	1
1600	1	1
1601	1	1
1602	1	1
1603	1	1
1604	1	1
1605	1	1
1606	1	1
1607	1	1
1608	1	1
1609	1	1
1610	1	1
1611	1	1
1612	1	1
1613	1	1
1614	1	1
1615	1	1
1616	1	1
1617	1	1
1618	1	1
1619	0	1
1620	0	1
1621	0	1
1622	0	1
1623	0	1
1624	1	1
1625	1	1
1626	0	0
1627	0	0
1628	0	0
1629	0	0
1630	0	0
1631	0	0
1632	0	0
1633	0	0
1634	0	0
1635	0	0
1636	0	0
1637	0	0
1638	0	0
1639	0	0
1640	0	0
1641	0	0
1642	0	0
1643	0	0
1644	0	0
1645	0	0
1646	0	0
1647	0	0
1648	0	0
1649	0	0
1650	0	0
1651	0	0.977529
1652	0	0.973502
1653	0	0.1
1654	0	0.0666667
1655	0	0
1656	0	0.717723
1657	0	0.542181
1658	0	0.883848
1659	0	0.518144
1660	0	0.406404
1661	0	0.389163
1662	0	0.472906
1663	0	0.601789
1664	0	0.648985
1665	0	0.863992
1666	0	0.133333
1667	0	0.166667
1668	0	0.333333
1669	0	0.333333
1670	0	1
1671	0	1
1672	0	1
1673	0	0
1674	0	0
1675	0	0
1676	0	0
1677	0	1
1678	0	1
1679	0	1
1680	0	1
1681	0	1
1682	0	0.973871
1683	0	0.98255
1684	0	0.987788
1685	0	0.989533
1686	0	0.98608
1687	0	0.98608
1688	0	0.98608
1689	0	0.770273
1690	0	1
1691	0	1
1692	0	1
1693	0	1
1694	0	1
1695	0	1
1696	0	1
1697	1	1
1698	1	1
1699	1	1
1700	1	1
1701	1	1
1702	1	1
1703	1	1
1704	1	1
1705	1	1
1706	0	0.333333
1707	0	0.333333
1708	0	0.333333
1709	0	0.333333
1710	0	0.166667
1711	0	0.166667
1712	0	0.166667
1713	0	0.166667
1714	0	0.166667
1715	0	0.166667
1716	0	0.966889
1717	0	0.350649
1718	0	0.965341
1719	0	0.96702
1720	0	0.333333
1721	0	0.724139
1722	0	0.978894
1723	0	0
1724	0	0
1725	0	0
1726	1	0
1727	1	1
1728	1	1
1729	1	1
1730	1	1
1731	1	1
1732	1	1
1733	0	1
1734	0	1
1735	0	0.683519
1736	0	0.678971
1737	0	0.989247
1738	0	0.713252
1739	0	0.709634
1740	0	0.709634
1741	0	0.286765
1742	0	0.472527
1743	0	0.409524
1744	0	0.509091
1745	0	0.945786
1746	0	0.980481
1747	1	0
1748	1	0
1749	1	0
1750	0	0
1751	0	0
1752	0	1
1753	0	1
1754	0	1
1755	0	0.98931
1756	0	0.98931
1757	0	0.98931
1758	0	0.98931
1759	0	0.991071
1760	0	0.991055
1761	0	0.987513
1762	0	0.987489
1763	0	0.987489
1764	0	1
1765	0	0.978618
1766	0	0.980382
1767	0	0.428571
1768	0	0.989254
1769	0	0.985718
1770	0	0.98573
1771	0	0.983967
1772	0	0.982193
1773	0	0
1774	0	0
1775	0	0.994609
1776	0	0.9875
1777	0	0.9875
1778	0	0.987489
1779	0	0.987489
1780	0	0.97508
1781	0	0
1782	0	0
1783	0	0
1784	0	0
1785	0	0
1786	0	0
1787	0	0
1788	0	0
1789	0	0
1790	0	0
1791	0	0
1792	0	0
1793	0	0
1794	0	0
1795	0	0
1796	1	0
1797	1	0
1798	0	0.757575
1799	0	0.723647
1800	0	0.660969
1801	0	0.547009
1802	0	0.296667
1803	0	0.322464
1804	0	0.437908
1805	0	0.30719
1806	0	0.286765
1807	0	0.285714
1808	0	0.285714
1809	0	0.285714
1810	0	0.285714
1811	0	0.505495
1812	0	0.681818
1813	0	0.833333
1814	0	0.833333
1815	0	1
1816	0	0.967202
1817	0	0.994761
1818	0	0.996505
1819	0	0.996505
1820	0	0.998252
1821	0	0.998253
1822	0	0.998249
1823	0	0.993027
1824	0	0.998253
1825	0	0.998253
1826	0	0.998253
1827	0	0.996508
1828	0	0.996511
1829	0	0.996511
1830	0	0.996511
1831	0	0.998253
1832	0	0.996511
1833	0	0.996511
1834	0	0.996508
1835	0	0.996508
1836	0	0.996508
1837	0	0.996508
1838	0	0.996511
1839	0	0.993028
1840	0	0.993028
1841	0	0.993028
1842	0	0.993028
1843	0	0.993028
1844	0	0.993028
1845	0	0.991291
1846	0	0.974038
1847	1	0
1848	1	0
1849	0	0
1850	0	0
1851	0	0
1852	0	0
1853	0	0
1854	0	0
1855	0	0
1856	0	0
1857	0	0
1858	0	0
1859	0	0
1860	0	0
1861	0	0
1862	0	0.166667
1863	0	0.166667
1864	0	0.996508
1865	0	0.996511
1866	0	0.998253
1867	0	1
1868	0	1
1869	0	1
1870	0	0.998256
1871	0	0.998256
1872	0	0.998256
1873	0	0.998256
1874	0	0.998258
1875	0	0.977577
1876	0	0.527473
1877	0	0.993045
1878	0	0.991314
1879	0	0.501352
1880	0	0.500479
1881	0	0.500479
1882	0	0.500479
1883	0	0
1884	0	0.953488
1885	0	0.710204
1886	0	0.495636
1887	0	0.2
1888	0	0.166667
1889	0	0.1
1890	0	0.333333
1891	0	0.950241
1892	1	0
1893	1	0
1894	1	0
1895	1	0
1896	1	0
1897	1	0
1898	0	0
1899	0	0.47619
1900	0	0.47619
1901	0	0
1902	0	0
1903	0	0
1904	0	0
1905	0	0
1906	0	0
1907	0	0
1908	0	0
1909	0	0
1910	0	0
1911	0	0
1912	0	0
1913	0	0.909091
1914	0	1
1915	0	0.998258
1916	0	0.998258
1917	0	0.998258
1918	0	0.998258
1919	0	0.998258
1920	0	0.998258
1921	0	0.998258
1922	0	0.998258
1923	0	0.998258
1924	0	0.998258
1925	0	0.998259
1926	0	0.998259
1927	0	0.998258
1928	0	0
1929	0	0
1930	0	0
1931	0	0
1932	0	0
1933	0	0
1934	0	0
1935	0	0
1936	0	0
1937	0	0
1938	0	0
1939	0	0
1940	0	0
1941	0	0
1942	1	1
1943	1	1
1944	1	1
1945	1	1
1946	1	1
1947	1	1
1948	1	1
1949	1	1
1950	0	0.333333
1951	0	1
1952	0	0.998258
1953	1	1
1954	1	1
1955	1	1
1956	1	1
1957	1	1
1958	1	1
1959	1	1
1960	1	1
1961	1	1
1962	1	1
1963	0	0.998261
1964	0	0
1965	1	0
1966	1	0
1967	1	0
1968	0	0.996526
1969	0	0.987891
1970	0	0.987902
1971	0	0.714286
1972	0	0.996529
1973	0	0.998264
1974	0	0.998264
1975	0	0.998264
1976	0	0.998264
1977	0	0.998264
1978	0	0.998264
1979	0	0.996529
1980	1	0
1981	1	0
1982	1	0
1983	1	0
1984	1	0
1985	1	0
1986	1	0
1987	1	0
1988	1	0
1989	1	0
1990	1	0
1991	1	0
1992	1	0
1993	1	0
1994	1	0
1995	1	0
1996	1	0
1997	1	0
1998	1	0
1999	1	0
2000	0	0
2001	0	0.998265
2002	0	0.998265
2003	0	0.998265
2004	0	0.998265
2005	0	0.998265
2006	0	0.994801
2007	0	0
2008	0	1
2009	1	1
2010	1	1
2011	1	1
2012	0	0.998259
2013	0	0.998259
2014	0	0.998259
2015	0	0.998259
2016	0	0.998259
2017	0	0
2018	1	0
2019	1	0
2020	1	0
2021	1	0
2022	0	0.998256
2023	0	1
2024	0	1
2025	1	1
2026	0	1
2027	0	0.998256
2028	0	0.998256
2029	0	1
2030	0	0.998258
2031	0	0.998258
2032	0	0.998259
2033	0	0.998259
2034	0	0.996523
2035	0	0.994792
2036	1	0
2037	1	0
2038	1	0
2039	1	0
2040	1	0
2041	1	0
2042	1	0
2043	1	0
2044	1	0
2045	1	0
2046	1	0
2047	1	0
2048	1	0
2049	1	0
2050	1	0
2051	1	0
2052	1	0
2053	1	0
2054	1	0
2055	1	0
2056	0	0
2057	0	0.996529
2058	0	0.996535
2059	0	0.998267
2060	0	0.998267
2061	0	0.998267
2062	1	1
2063	0	1
2064	0	1
2065	0	1
2066	0	0.998268
2067	0	0.998268
2068	0	0.998267
2069	0	1
2070	0	0.99306
2071	0	0.991338
2072	0	0.987904
2073	0	0.986194
2074	0	0.987904
2075	0	0.987904
2076	0	0.987904
2077	0	0.987894
2078	0	0.986194
2079	0	0.994807
2080	0	0.994801
2081	0	0.996532
2082	0	0.998261
2083	0	0.998261
2084	0	0.998259
2085	0	0.998259
2086	0	0.998259
2087	0	0.998259
2088	0	1
2089	0	0.987879
2090	0	0.984395
2091	1	1
2092	1	1
2093	1	1
2094	1	1
2095	1	1
2096	0	1
2097	0	0.996496
2098	0	0
2099	0	0
2100	0	0.991304
2101	0	0.98439
2102	0	0.98439
2103	0	0.98439
2104	0	1
2105	1	1
2106	0	0
2107	0	0
2108	0	0
2109	0	0
2110	0	0
2111	0	0
2112	0	0.984384
2113	0	0.994774
2114	0	0.994774
2115	0	0.994778
2116	0	0
2117	0	0.998255
2118	0	0.998255
2119	0	0.998255
2120	0	0.998256
2121	0	1
2122	0	1
2123	0	1
2124	0	1
2125	0	1
2126	0	1
2127	0	0.998255
2128	0	0.998255
2129	0	0.998255
2130	0	0.998255
2131	0	0.99478
2132	0	0.998258
2133	0	0.998258
2134	0	0.998258
2135	0	0.998258
2136	0	1
2137	0	0.99652
2138	0	0.994792
2139	0	0.994792
2140	0	0.994792
2141	0	0.994787
2142	0	0.99652
2143	0	0.99652
2144	0	0.996523
2145	0	0.996523
2146	0	0
2147	0	0.996514
2148	0	0.996514
2149	0	0.996514
2150	0	0.996502
2151	0	0.996502
2152	0	0.996499
2153	0	0.994755
2154	0	0.989526
2155	0	0.498439
2156	0	0
2157	0	0.714286
2158	0	0.166667
2159	0	0.166667
2160	0	0.333333
2161	0	0.333333
2162	0	0
2163	0	0
2164	0	0
2165	0	0
2166	0	0
2167	0	0
2168	0	0
2169	0	0
2170	0	0
2171	0	0
2172	0	0
2173	0	0
2174	0	0
2175	0	0
2176	0	0
2177	0	0
2178	0	0
2179	0	0
2180	0	0
2181	0	0
2182	0	0
2183	0	0
2184	0	0.488477
2185	0	0
2186	0	0
2187	0	0
2188	0	0
2189	0	0
2190	0	0
2191	0	0
2192	0	0
2193	0	0.935499
2194	0	0.7907
2195	0	0
2196	0	0
2197	0	0
2198	0	0.102564
2199	0	0.0769231
2200	0	0.510928
2201	0	0.479112
2202	0	0.214316
2203	0	0.315637
2204	0	0.563636
2205	0	0.563636
2206	0	0.853805
2207	0	0.266667
2208	0	0.4
2209	0	1
2210	0	0.870038
2211	0	0.516484
2212	0	0.891736
2213	0	0.9843
2214	0	0
2215	0	0
2216	0	0
2217	0	0
2218	0	0
2219	0	0
2220	0	1
2221	0	0.991245
2222	0	0.991253
2223	0	0.991256
2224	0	0.991263
2225	0	0.991263
2226	0	0.991263
2227	0	0.991263
2228	0	0.991263
2229	0	0.992996
2230	0	0.993002
2231	0	0.992996
2232	0	0.987773
2233	0	0.986031
2234	0	0.615385
2235	0	0.558653
2236	0	0.783762
2237	0	0.453878
2238	0	0.407837
2239	0	0.431973
2240	0	0.738006
2241	0	0.274725
2242	0	0.24359
2243	0	0.327273
2244	0	0.327273
2245	0	0.327273
2246	0	0.631263
2247	0	0.630635
2248	0	0.631937
2249	0	0.633811
2250	0	0.608489
2251	0	0.585925
2252	0	0.333333
2253	0	0.2
2254	0	0.920068
2255	0	0.848627
2256	0	0.411765
2257	0	0.729926
2258	0	0.1
2259	0	0.1
2260	0	0.1
2261	0	0.1
2262	0	0.1
2263	0	0.1
2264	0	0.1
2265	0	0.696639
2266	0	0.0839216
2267	0	0.0941176
2268	0	0.645422
2269	0	0
2270	0	0
2271	0	0
2272	0	0.166667
2273	0	0.1
2274	0	0.047619
2275	0	0
2276	0	0
2277	0	0
2278	0	0.593134
2279	0	0.585601
2280	0	0.57593
2281	0	0.333333
2282	0	0.333333
2283	0	0.333333
2284	0	0.333333
2285	0	0.589744
2286	0	0.589744
2287	0	0.320513
2288	0	0.308333
2289	0	0.0962963
2290	0	0.414125
2291	0	0.630226
2292	0	0.134199
2293	0	0.140351
2294	0	0.156863
2295	0	0.191176
2296	0	0.287879
2297	0	0.266667
2298	0	0.266667
2299	0	0.190476
2300	0	0.645081
2301	0	0.142292
2302	0	0.133333
2303	0	0.715603
2304	0	0
2305	0	0
2306	0	0
2307	0	0
2308	0	0
2309	0	0
2310	0	0
2311	0	0
2312	0	0
2313	0	0
2314	0	0
2315	0	0
2316	0	0
2317	0	0
2318	0	0
2319	0	0
2320	0	0
2321	0	0
2322	0	0
2323	0	0
2324	0	0
2325	0	0
2326	0	0
2327	0	0
2328	0	0
2329	0	0
2330	0	0
2331	0	0
2332	0	0
2333	0	0
2334	0	0
2335	0	0
2336	0	0
2337	0	0
2338	0	0
2339	0	0
2340	0	0
2341	0	0
2342	0	0
2343	0	0
2344	0	0
2345	0	0
2346	0	0
2347	0	0
2348	0	0
2349	0	0
2350	0	0
2351	0	0
2352	0	0
2353	0	0
2354	0	0
2355	0	0
2356	0	0
2357	0	0
2358	0	0
2359	0	0
2360	0	0
2361	0	0
2362	0	0
2363	0	0
2364	0	0
2365	0	0
2366	0	0
2367	0	0
2368	0	0
2369	0	0
2370	0	0
2371	0	0
2372	0	0
2373	0	0
2374	0	0
2375	0	0
2376	0	0
2377	0	0
2378	0	0
2379	0	0
2380	0	0
2381	0	0
2382	0	0
2383	0	0
2384	0	0
2385	0	0
2386	0	0
2387	0	0
2388	0	0
2389	0	0
2390	0	0
2391	0	0
2392	0	0
2393	0	0
2394	0	0
2395	0	0
2396	0	0.902043
2397	0	0.791137
2398	0	0
2399	0	0.0357143
2400	0	0.667577
2401	0	0.605649
2402	0	0.484897
2403	0	0.512722
2404	0	0.405486
2405	0	0.275433
2406	0	0.271815
2407	0	0
2408	0	0
2409	0	0
2410	0	0
2411	0	0
2412	0	0
2413	0	0
2414	0	0
2415	0	0.818815
2416	0	0.278376
2417	0	0
2418	0	0
2419	0	0.1
2420	0	0.781297
2421	0	0.314011
2422	0	0.337572
2423	0	0.4
2424	0	0.4
2425	0	0.4
2426	0	0.255779
2427	0	0.336728
2428	0	0.283508
2429	0	0.283858
2430	0	0.466667
2431	0	0.225311
2432	0	0.325777
2433	0	0
2434	0	0
2435	0	0
2436	0	0
2437	0	0
2438	0	0
2439	0	0
2440	0	0
2441	0	0
2442	0	0
2443	0	0
2444	0	0
2445	0	0
2446	0	0
2447	0	0
2448	0	0
2449	0	0
2450	0	0
2451	0	0
2452	0	0
2453	0	0
2454	0	0
2455	0	0
2456	0	0
2457	0	0
2458	0	0
2459	0	0
2460	0	0
2461	0	0
2462	0	0
2463	0	0
2464	0	0
2465	0	0
2466	0	0
2467	0	0
2468	0	0
2469	0	0
2470	0	0
2471	0	0
2472	0	0
2473	0	0
2474	0	0
2475	0	0
2476	0	0
2477	0	0
2478	0	0
2479	0	0
2480	0	0
2481	0	0
2482	0	0
2483	0	0
2484	0	0
2485	0	0
2486	0	0
2487	0	0
2488	0	0
2489	0	0
2490	0	0
2491	0	0
2492	0	0
2493	0	0
2494	0	0
2495	0	0
2496	0	0
2497	0	0
2498	0	0
2499	0	0
2500	0	0
2501	0	0
2502	0	0
2503	0	0
2504	0	0
2505	0	0
2506	0	0
2507	0	0
2508	0	0
2509	0	0
2510	0	0
2511	0	0
2512	0	0
2513	0	0
2514	0	0
2515	0	0
2516	0	0
2517	0	0
2518	0	0
2519	0	0
2520	0	0
2521	0	0.903659
2522	0	0.903659
2523	0	0.490602
2524	0	0.433007
2525	0	0.312736
2526	0	0.88404
2527	0	0.758281
2528	0	0.96421
2529	0	0.604396
2530	0	0.857143
2531	0	0.989508
2532	0	0.989517
2533	0	0.984336
2534	0	0.984336
2535	0	0.984336
2536	0	1
2537	0	1
2538	0	1
2539	0	1
2540	0	1
2541	0	1
2542	0	1
2543	0	1
2544	0	1
2545	0	1
2546	0	1
2547	0	1
2548	0	1
2549	0	1
2550	0	1
2551	0	1
2552	0	1
2553	0	1
2554	0	1
2555	0	1
2556	0	1
2557	0	1
2558	0	1
2559	0	1
2560	0	1
2561	0	1
2562	0	1
2563	0	1
2564	0	1
2565	0	1
2566	0	1
2567	0	1
2568	0	1
2569	0	1
2570	0	1
2571	0	1
2572	0	1
2573	0	1
2574	0	0.97916
2575	0	0.973988
2576	0	0.6
2577	0	0.6
2578	0	0.6
2579	0	0
2580	0	0
2581	0	0
2582	0	0
2583	0	0
2584	0	0
2585	0	0
2586	0	0
2587	0	0
2588	0	0
2589	0	0
2590	0	0
2591	0	0
2592	0	0
2593	0	0
2594	0	0
2595	0	0
2596	0	0
2597	0	0
2598	0	0
2599	0	0
2600	0	0
2601	0	0
2602	0	0
2603	0	0
2604	0	0
2605	0	0
2606	0	0
2607	0	0
2608	0	0
2609	0	0
2610	0	0
2611	0	0
2612	0	0
2613	0	0
2614	0	0
2615	0	0
2616	0	0
2617	0	0
2618	0	0
2619	0	0
2620	0	0
2621	0	0
2622	0	0
2623	0	0
2624	0	0
2625	0	0
2626	0	0
2627	0	0
2628	0	0
2629	0	0
2630	0	0
2631	0	0
2632	0	0
2633	0	0
2634	0	0
2635	0	0
2636	0	0
2637	0	0
2638	0	0
2639	0	0
2640	0	0
2641	0	0
2642	0	0
2643	0	0
2644	0	0
2645	0	0
2646	0	0
2647	0	0
2648	0	0
2649	0	0
2650	0	0
2651	0	0
2652	0	0
2653	0	0
2654	0	0
2655	0	0
2656	0	0
2657	0	0
2658	0	0
2659	0	0
2660	0	0
2661	0	0
2662	0	0
2663	0	0
2664	0	0
2665	0	0
2666	0	0
2667	0	0
2668	0	0
2669	0	0
2670	0	0
2671	0	0
2672	0	0
2673	0	0
2674	0	0
2675	0	0
2676	0	0
2677	0	0
2678	0	0
2679	0	0
2680	0	0
2681	0	0
2682	0	0
2683	0	0
2684	0	0
2685	0	0
2686	0	0
2687	0	0
2688	0	0
2689	0	0
2690	0	0
2691	0	0
2692	0	0
2693	0	0
2694	0	0
2695	0	0
2696	0	0
2697	0	0
2698	0	0
2699	0	0
2700	0	0
2701	0	0
2702	0	0
2703	0	0
2704	0	0
2705	0	0
2706	0	0
2707	0	0.96697
2708	0	0.662338
2709	0	0.662338
2710	0	0.928258
2711	0	0.333333
2712	0	0.333333
2713	0	0.333333
2714	0	0.333333
2715	0	0.333333
2716	0	0.333333
2717	0	0.333333
2718	0	0.333333
2719	0	0.333333
2720	0	0.333333
2721	0	0.333333
2722	0	0.333333
2723	0	0.333333
2724	0	0.333333
2725	0	0.333333
2726	0	0.333333
2727	0	0
2728	0	0
2729	0	0
2730	0	0
2731	0	0
2732	0	0
2733	0	0
2734	0	0
2735	0	0.357143
2736	0	0.357143
2737	0	0.357143
2738	0	0.357143
2739	0	0.277778
2740	0	0.89642
2741	0	0
2742	0	0
2743	0	0
2744	0	0
2745	0	0
2746	0	0
2747	0	0
2748	0	0
2749	0	0
2750	0	0
2751	0	0
2752	0	0
2753	0	0
2754	0	0
2755	0	0
2756	0	0
2757	0	0
2758	0	0
2759	0	0
2760	0	0
2761	0	0
2762	0	0
2763	0	0
2764	0	0
2765	0	0
2766	0	0
2767	0	0
2768	0	0
2769	0	0
2770	0	0
2771	0	0
2772	0	0
2773	0	0
2774	0	0
2775	0	0
2776	0	0
2777	0	0
2778	0	0
2779	0	0
2780	0	0
2781	0	0
2782	0	0
2783	0	0
2784	0	0
2785	0	0
2786	0	0
2787	0	0
2788	0	0
2789	0	0
2790	0	0
2791	0	0
2792	0	0
2793	0	0
2794	0	0
2795	0	0
2796	0	0
2797	0	0
2798	0	0
2799	0	0
2800	0	0
2801	0	0
2802	0	0
2803	0	0
2804	0	0
2805	0	0
2806	0	0
2807	0	0
2808	0	0
2809	0	0
2810	0	0
2811	0	0
2812	0	0
2813	0	0
2814	0	0
2815	0	0.0357143
2816	0	0.152381
2817	0	0.152381
2818	0	0.128655
2819	0	0.844236
2820	0	0.844236
2821	0	0.481414
2822	0	0.751582
2823	0	0.526343
2824	0	0.635721
2825	0	0.211735
2826	0	0.164642
2827	0	0.135385
2828	0	0.0457516
2829	0	0.0151515
2830	0	0
2831	0	0
2832	0	0
2833	0	0
2834	0	0.0277778
2835	0	0.0277778
2836	0	0
2837	0	0
2838	0	0
2839	0	0
2840	0	0
2841	0	0
2842	0	0
2843	0	0
2844	0	0
2845	0	0
2846	0	0
2847	0	0
2848	0	0
2849	0	0
2850	0	0
2851	0	0
2852	0	0
2853	0	0
2854	0	0
2855	0	0
2856	0	0
2857	0	0
2858	0	0
2859	0	0
2860	0	0
2861	0	0
2862	0	0
2863	0	0
2864	0	0
2865	0	0
2866	0	0
2867	0	0
2868	0	0
2869	0	0
2870	0	0
2871	0	0
2872	0	0
2873	0	0
2874	0	0
2875	0	0
2876	0	0
2877	0	0
2878	0	0
2879	0	0
2880	0	0
2881	0	0
2882	0	0
2883	0	0
2884	0	0
2885	0	0
2886	0	0
2887	0	0
2888	0	0
2889	0	0
2890	0	0
2891	0	0
2892	0	0
2893	0	0
2894	0	0
2895	0	0
2896	0	0
2897	0	0
2898	0	0
2899	0	0
2900	0	0
2901	0	0
2902	0	0
2903	0	0
2904	0	0
2905	0	0
2906	0	0
2907	0	0
2908	0	0
2909	0	0
2910	0	0
2911	0	0
2912	0	0
2913	0	0
2914	0	0
2915	0	0
2916	0	0
2917	0	0
2918	0	0
2919	0	0
2920	0	0
2921	0	0
2922	0	0
2923	0	0
2924	0	0
2925	0	0
2926	0	0
2927	0	0
2928	0	0
2929	0	0
2930	0	0
2931	0	0
2932	0	0
2933	0	0
2934	0	0
2935	0	0
2936	0	0
2937	0	0
2938	0	0
2939	0	0
2940	0	0.0666667
2941	0	0.0666667
2942	0	0.0666667
2943	0	0.0666667
2944	0	0.0666667
2945	0	0.0666667
2946	0	0.0666667
2947	0	0.0666667
2948	0	0.1
2949	0	0
2950	0	0
2951	0	0
2952	0	0
2953	0	0
2954	0	0
2955	0	0
2956	0	0
2957	0	0
2958	0	0
2959	0	0
2960	0	0
2961	0	0
2962	0	0
2963	0	0
2964	0	0
2965	0	0
2966	0	0
2967	0	0
2968	0	0
2969	0	0
2970	0	0
2971	0	0
2972	0	0
2973	0	0
2974	0	0
2975	0	0
2976	0	0
2977	0	0
2978	0	0
2979	0	0
2980	0	0
2981	0	0
2982	0	0
2983	0	0
2984	0	0
2985	0	0
2986	0	0
2987	0	0
2988	0	0
2989	0	0
2990	0	0
2991	0	0
2992	0	0
2993	0	0
2994	0	0
2995	0	0
2996	0	0
2997	0	0
2998	0	0
2999	0	0
3000	0	0
3001	0	0
3002	0	0
3003	0	0
3004	0	0
3005	0	0
3006	0	0
3007	0	0
3008	0	0
3009	0	0
3010	0	0
3011	0	0
3012	0	0
3013	0	0
3014	0	0
3015	0	0
3016	0	0
3017	0	0
3018	0	0
3019	0	0
3020	0	0
3021	0	0
3022	0	0
3023	0	0
3024	0	0
3025	0	0
3026	0	0
3027	0	0
3028	0	0
3029	0	0
3030	0	0
3031	0	0
3032	0	0
3033	0	0
3034	0	0
3035	0	0
3036	0	0
3037	0	0
3038	0	0
3039	0	0
3040	0	0
3041	0	0
3042	0	0
3043	0	0
3044	0	0
3045	0	0
3046	0	0
3047	0	0
3048	0	0
3049	0	0
3050	0	0
3051	0	0
3052	0	0
3053	0	0
3054	0	0
3055	0	0
3056	0	0
3057	0	0
3058	0	0
3059	0	0
3060	0	0
3061	0	0
3062	0	0
3063	0	0
3064	0	0
3065	0	0
3066	0	0
3067	0	0
3068	0	0
3069	0	0
3070	0	0
3071	0	0
3072	0	0
3073	0	0
3074	0	0
3075	0	0
3076	0	0
3077	0	0
3078	0	0
3079	0	0
3080	0	0
3081	0	0
3082	0	0
3083	0	0
3084	0	0
3085	0	0
3086	0	0
3087	0	0
3088	0	0
3089	0	0
3090	0	0
3091	0	0
3092	0	0
3093	0	0
3094	0	0
3095	0	0
3096	0	0
3097	0	0
3098	0	0
3099	0	0
3100	0	0
3101	0	0
3102	0	0
3103	0	0
3104	0	0
3105	0	0
3106	0	0
3107	0	0
3108	0	0
3109	0	0
3110	0	0
3111	0	0
3112	0	0
3113	0	0
3114	0	0
3115	0	0
3116	0	0
3117	0	0
3118	0	0
3119	0	0
3120	0	0
3121	0	0
3122	0	0
3123	0	0
3124	0	0
3125	0	0
3126	0	0
3127	0	0
3128	0	0
3129	0	0
3130	0	0
3131	0	0
3132	0	0
3133	0	0
3134	0	0
3135	0	0
3136	0	0
3137	1	0
3138	0	0
3139	0	0
3140	0	0
3141	0	0
3142	0	0
3143	0	0
3144	0	0
3145	1	0
3146	1	0
3147	1	0
3148	1	0
3149	1	0
3150	1	0
3151	1	0
3152	1	0
3153	1	0
3154	1	0
3155	1	0
3156	1	0
3157	1	0
3158	1	0
3159	1	0
3160	1	0
3161	1	0
3162	1	0
3163	1	0
3164	1	0
3165	1	0
3166	1	0
3167	1	0
3168	1	0
3169	1	0
3170	1	0
3171	1	0
3172	1	0
3173	1	0
3174	1	0
3175	1	0
3176	1	0
3177	1	0
3178	1	0
3179	1	0
3180	1	0
3181	1	0
3182	1	0
3183	1	0
3184	1	0
3185	1	0
3186	1	0
3187	1	0
3188	1	0
3189	1	0
3190	1	0
3191	1	0
3192	1	0
3193	1	0
3194	1	0
3195	1	0
3196	1	0
3197	1	0
3198	1	0
3199	1	0
3200	1	0
3201	1	0
3202	1	0
3203	1	0
3204	1	0
3205	1	0
3206	1	0
3207	1	0
3208	1	0
3209	1	0
3210	1	0
3211	1	0
3212	1	0
3213	1	0
3214	1	0
3215	1	0
3216	1	0
3217	1	0
3218	1	0
3219	1	0
3220	1	0
3221	1	0
3222	1	0
3223	1	0
3224	1	0
3225	1	0
3226	1	0
3227	1	0
3228	1	0
3229	1	0
3230	1	0
3231	1	0
3232	1	0
3233	1	0
3234	1	0
3235	1	0
3236	1	0
3237	1	0
3238	1	0
3239	1	0
3240	1	0
3241	1	0
3242	1	0
3243	1	0
3244	1	0
3245	1	0
3246	1	0
3247	1	0
3248	1	0
3249	1	0
3250	1	0
3251	1	0
3252	1	0
3253	1	0
3254	1	0
3255	1	0
3256	1	0
3257	1	0
3258	1	0
3259	1	0
3260	1	0
3261	1	0
3262	1	0
3263	1	0
3264	1	0
3265	1	0
3266	1	0
3267	1	0
3268	1	0
3269	1	0
3270	1	0
3271	1	0
3272	1	0
3273	1	0
3274	1	0
3275	1	0
3276	1	0
3277	1	0
3278	1	0
3279	1	0
3280	1	0
3281	1	0
3282	1	0
3283	1	0
3284	1	0
3285	1	0
3286	1	0
3287	1	0
3288	1	0
3289	1	0
3290	1	0
3291	1	0
3292	1	0
3293	1	0
3294	1	0
3295	1	0
3296	1	0
3297	1	0
3298	1	0
3299	1	0
3300	1	0
3301	1	0
3302	1	0
3303	1	0
3304	1	0
3305	1	0
3306	1	0
3307	1	0
3308	1	0
3309	1	0
3310	1	0
3311	1	0
3312	1	0
3313	1	0
3314	1	0
3315	1	0
3316	1	0
3317	1	0
3318	1	0
3319	1	0
3320	1	0
3321	1	0
3322	1	0
3323	1	0
3324	1	0
3325	1	0
3326	1	0
3327	1	0
3328	1	0
3329	1	0
3330	1	0
3331	1	0
3332	1	0
3333	1	0
3334	1	0
3335	1	0
3336	1	0
3337	1	0
3338	1	0
3339	1	0
3340	1	0
3341	1	0
3342	1	0
3343	1	0
3344	1	0
3345	1	0
3346	1	0
3347	1	0
3348	1	0
3349	1	0
3350	1	0
3351	1	0
3352	1	0
3353	1	0
3354	1	0
3355	1	0
3356	1	0
3357	1	0
3358	1	0
3359	1	0
3360	1	0
3361	1	0
3362	1	0
3363	1	0
3364	1	0
3365	1	0
3366	1	0
3367	1	0
3368	1	0
3369	1	0
3370	1	0
3371	1	0
3372	1	0
3373	1	0
3374	1	0
3375	1	0
3376	1	0
3377	1	0
3378	1	0
3379	1	0
3380	1	0
3381	1	0
3382	1	0
3383	1	0
3384	1	0
3385	1	0
3386	1	0
3387	1	0
3388	1	0
3389	1	0
3390	1	0
3391	1	0
3392	1	0
3393	1	0
3394	1	0
3395	1	0
3396	1	0
3397	1	0
3398	1	0
3399	1	0
3400	1	0
3401	1	0
3402	1	0
3403	1	0
3404	1	0
3405	1	0
3406	1	0
3407	1	0
3408	1	0
3409	1	0
3410	1	0
3411	1	0
3412	1	0
3413	1	0
3414	1	0
3415	1	0
