Site	ColumnScore	SumOfPairsScore
1	0	0
2	0	0
3	0	0
4	0	0
5	0	0
6	0	0
7	0	0
8	0	0
9	0	0
10	0	0
11	0	0
12	0	0
13	0	0
14	0	0
15	0	0
16	0	0
17	0	0
18	0	0
19	0	0
20	0	0
21	0	0
22	0	0
23	0	0
24	0	0
25	0	0
26	0	0
27	0	0
28	0	0
29	0	0
30	0	0
31	0	0
32	0	0
33	0	0
34	0	0
35	0	0
36	0	0
37	0	0
38	0	0
39	0	0
40	0	0
41	0	0
42	0	0
43	0	0
44	0	0
45	0	0
46	0	0
47	0	0
48	0	0
49	0	0
50	0	0
51	0	0
52	0	0
53	0	0
54	0	0
55	0	0
56	0	0
57	0	0
58	0	0
59	0	0
60	0	0
61	0	0
62	0	0
63	0	0
64	0	0
65	0	0
66	1	0
67	1	0
68	1	0
69	1	0
70	0	0
71	0	0
72	0	0
73	0	0
74	0	0
75	0	0
76	0	0
77	0	0
78	0	0
79	0	0
80	0	0
81	0	0
82	0	0
83	0	0
84	0	0
85	0	0
86	0	0
87	0	0
88	0	0
89	0	0
90	0	0
91	0	0
92	0	0
93	0	0
94	0	0
95	0	0
96	0	0
97	0	0
98	0	0
99	1	0
100	1	0
101	1	0
102	1	0
103	1	0
104	1	0
105	1	0
106	0	0
107	0	0
108	0	0
109	0	0
110	0	0
111	0	0
112	0	0
113	0	0
114	0	0
115	0	0
116	0	0
117	0	0
118	0	0
119	0	0
120	0	0
121	0	0
122	0	0
123	0	0
124	0	0
125	1	0
126	0	0
127	0	0
128	0	0
129	0	0
130	0	0
131	0	0
132	0	0
133	0	0
134	0	0
135	0	0
136	0	0
137	0	0
138	0	0
139	0	0
140	0	0
141	0	0
142	0	0
143	0	0
144	0	0
145	0	0
146	0	0
147	0	0
148	0	0
149	0	0
150	0	0
151	0	0
152	0	0
153	0	0
154	0	0
155	0	0
156	0	0
157	0	0
158	0	0
159	0	0
160	0	0
161	0	0
162	0	0
163	0	0
164	0	0
165	1	0
166	1	0
167	1	0
168	0	0
169	0	0
170	0	0
171	0	0
172	0	0
173	0	0
174	0	0
175	0	0
176	0	0
177	0	0
178	0	0
179	0	0
180	0	0
181	0	0
182	0	0
183	0	0
184	0	0
185	0	0
186	0	0
187	0	0
188	0	0
189	0	0
190	0	0
191	0	0
192	0	0
193	0	0
194	0	0
195	0	0
196	0	0
197	0	0
198	0	0
199	0	0
200	0	0
201	0	0
202	0	0
203	0	0
204	0	0
205	0	0
206	0	0
207	1	0
208	1	0
209	1	0
210	1	0
211	1	0
212	1	0
213	0	0
214	1	0
215	1	0
216	1	0
217	1	0
218	1	0
219	1	0
220	1	0
221	0	0
222	0	0
223	0	0
224	0	0
225	0	0
226	0	0
227	0	0
228	0	0
229	0	0
230	0	0
231	0	0
232	0	0
233	0	0
234	0	0
235	0	0
236	0	0
237	0	0
238	0	0
239	0	0
240	0	0
241	0	0
242	0	0
243	0	0
244	0	0
245	0	0
246	0	0
247	0	0
248	0	0
249	0	0
250	0	0
251	0	0
252	0	0
253	0	0
254	0	0
255	0	0
256	0	0
257	0	0
258	0	0
259	0	0
260	0	0
261	0	0
262	0	0
263	0	0
264	0	0
265	0	0
266	0	0
267	0	0
268	0	0
269	0	0
270	0	0
271	0	0
272	0	0
273	0	0
274	0	0
275	0	0
276	0	0
277	0	0
278	0	0
279	0	0
280	0	0
281	0	0
282	0	0
283	0	0
284	0	0
285	0	0
286	0	0
287	0	0
288	0	0
289	0	0
290	0	0
291	0	0
292	0	0
293	0	0
294	0	0
295	0	0
296	0	0
297	0	0
298	0	0
299	0	0
300	0	0
301	0	0
302	0	0
303	0	0
304	0	0
305	0	0
306	0	0
307	0	0
308	0	0
309	0	0
310	0	0
311	0	0
312	0	0
313	0	0
314	0	0
315	0	0
316	0	0
317	0	0
318	0	0
319	0	0
320	0	0
321	0	0
322	0	0
323	0	0
324	0	0
325	0	0
326	0	0
327	0	0
328	0	0
329	0	0
330	0	0
331	0	0
332	0	0
333	0	0
334	0	0
335	0	0
336	0	0
337	0	0
338	0	0
339	0	0
340	0	0
341	0	0
342	0	0
343	0	0
344	0	0
345	0	0
346	0	0
347	0	0
348	0	0
349	0	0
350	0	0
351	0	0
352	0	0
353	0	0
354	0	0.0147059
355	0	0.0116959
356	0	0.00952381
357	0	0.00790514
358	0	0.010582
359	0	0.0761905
360	0	0.0661269
361	0	0.0569106
362	0	0.0494949
363	0	0.0733333
364	0	0.0655271
365	0	0.0504032
366	0	0.0445344
367	0	0.0900845
368	0	0.0576923
369	0	0.0562025
370	0	0.0534171
371	0	0.0474138
372	0	0.0477707
373	0	0.0650999
374	0	0.0620847
375	0	0.053516
376	0	0
377	0	0.0151515
378	0	0.0190476
379	0	0.0190476
380	0	0.0190476
381	0	0.0166667
382	0	0.0130719
383	0	0.0105263
384	0	0.004329
385	0	0.00790514
386	0	0.00923077
387	0	0.0137931
388	0	0.0170455
389	0	0.0252525
390	0	0.0296022
391	0	0.0690362
392	0	0.0406041
393	0	0.0414245
394	0	0.0376932
395	0	0.0310212
396	0	0.0396784
397	0	0.0374384
398	0	0.0808938
399	0	0.0804215
400	0	0.0726495
401	0	0.0713922
402	0	0.0653178
403	0	0.0663857
404	0	0.0680262
405	0	0.0728966
406	0	0.0289193
407	0	0.0262557
408	0	0.04
409	0	0.04
410	0	0.15338
411	0	0.121123
412	0	0.118623
413	0	0.115472
414	0	0.0891854
415	0	0.0893634
416	0	0.089753
417	0	0.0885999
418	0	0.0873736
419	0	0.131707
420	0	0.113911
421	0	0.0660183
422	0	0.0676393
423	0	0.0730541
424	0	0
425	0	0
426	0	0
427	0	0
428	0	0
429	0	0
430	0	0
431	0	0
432	0	0
433	0	0
434	0	0
435	0	0
436	0	0
437	0	0
438	0	0
439	0	0.0666667
440	0	0.047619
441	0	0.0222222
442	0	0.0181818
443	0	0.0398551
444	0	0.0740741
445	0	0.106349
446	0	0.0777058
447	0	0.051269
448	0	0.0501851
449	0	0.0506189
450	0	0.0476472
451	0	0.0518899
452	0	0.055699
453	0	0.242424
454	0	0.242424
455	0	0.242424
456	0	0.166667
457	0	0.166667
458	0	0.166667
459	0	0.166667
460	0	0.166667
461	0	0.166667
462	0	0.166667
463	0	0.136842
464	0	0.0511244
465	0	0.0446508
466	0	0.0375199
467	0	0.0382442
468	0	0.0326331
469	0	0.106957
470	0	0.107159
471	0	0.10342
472	0	0.0996454
473	0	0.106013
474	0	0.117484
475	0	0.122705
476	0	0.102207
477	0	0.118758
478	0	0.118758
479	0	0.118758
480	0	0.205435
481	0	0.213074
482	0	0.115616
483	0	0.132576
484	0	0.154023
485	0	0.0784314
486	0	0.0666667
487	0	0.075
488	0	0.0857143
489	0	0.0857143
490	0	0.0879121
491	0	0.0277778
492	0	0
493	0	0
494	0	0
495	0	0
496	0	0
497	0	0
498	0	0
499	0	0
500	0	0
501	0	0
502	0	0
503	0	0
504	0	0
505	0	0
506	0	0
507	0	0
508	0	0
509	0	0
510	0	0
511	0	0
512	0	0
513	0	0
514	0	0
515	0	0
516	0	0
517	0	0
518	0	0
519	0	0
520	0	0
521	0	0
522	0	0
523	0	0
524	0	0
525	0	0
526	0	0
527	0	0
528	0	0
529	0	0
530	0	0
531	0	0
532	0	0
533	0	0
534	0	0
535	0	0
536	0	0
537	0	0
538	0	0
539	0	0
540	0	0
541	0	0
542	0	0
543	0	0
544	0	0
545	0	0
546	0	0
547	0	0
548	0	0
549	0	0
550	0	0
551	0	0
552	0	0
553	0	0
554	0	0
555	0	0
556	0	0
557	0	0
558	0	0
559	0	0
560	0	0
561	0	0
562	0	0
563	0	0
564	0	0
565	0	0
566	0	0
567	0	0
568	0	0
569	0	0
570	0	0
571	0	0
572	0	0
573	0	0
574	0	0
575	0	0
576	0	0
577	0	0
578	0	0
579	0	0
580	0	0
581	0	0
582	0	0
583	0	0
584	0	0
585	0	0
586	0	0
587	0	0
588	0	0
589	1	0
590	0	0
591	0	0
592	0	0
593	0	0
594	0	0
595	0	0
596	0	0
597	0	0
598	0	0
599	0	0
600	0	0
601	0	0
602	0	0
603	0	0
604	0	0
605	0	0
606	0	0
607	0	0
608	0	0
609	0	0
610	0	0
611	0	0
612	0	0
613	0	0
614	0	0
615	0	0
616	0	0
617	0	0
618	0	0
619	0	0
620	0	0
621	0	0
622	0	0
623	0	0
624	0	0
625	0	0
626	0	0
627	0	0
628	0	0
629	0	0
630	0	0
631	0	0
632	0	0
633	0	0
634	0	0
635	0	0
636	0	0
637	0	0
638	0	0
639	0	0
640	0	0
641	0	0
642	0	0
643	0	0
644	0	0
645	0	0
646	0	0
647	0	0
648	0	0
649	0	0
650	0	0
651	0	0
652	0	0
653	0	0
654	0	0
655	0	0
656	0	0
657	0	0
658	0	0
659	0	0
660	0	0
661	0	0
662	0	0
663	0	0
664	0	0
665	0	0
666	0	0
667	0	0
668	0	0
669	0	0
670	0	0
671	0	0
672	0	0
673	0	0
674	0	0
675	0	0
676	0	0
677	0	0
678	0	0
679	0	0
680	0	0
681	0	0
682	0	0
683	0	0
684	0	0
685	0	0
686	0	0
687	0	0
688	0	0
689	0	0
690	0	0
691	0	0
692	0	0
693	0	0
694	0	0
695	0	0
696	0	0
697	0	0
698	0	0
699	0	0
700	0	0
701	0	0
702	0	0
703	0	0
704	0	0
705	0	0.0206767
706	0	0.458333
707	0	0.0579897
708	0	0.218579
709	0	0.216623
710	0	1
711	0	0.24392
712	0	0.205595
713	0	0
714	0	0
715	0	0
716	0	0
717	0	0
718	0	0
719	0	0
720	0	0
721	0	0
722	0	0
723	0	0
724	0	0
725	0	0
726	0	0
727	0	0
728	0	0
729	0	0
730	0	0
731	0	0
732	0	0
733	0	0
734	0	0
735	0	0.0659341
736	0	0.034731
737	0	0.1
738	0	0.1
739	0	0.1
740	0	0.1
741	0	0.1
742	0	0.1
743	0	0.1
744	0	0.1
745	0	0.1
746	0	0.1
747	0	0.1
748	0	0.1
749	0	0.1
750	0	0.1
751	0	0.1
752	0	0.0952381
753	0	0.0952381
754	0	0.0267102
755	0	0.0249599
756	0	0.025214
757	0	0.0250296
758	0	0
759	0	0
760	0	0
761	0	0
762	0	0
763	0	0
764	0	0
765	0	0
766	0	0
767	0	0
768	0	0
769	0	0
770	0	0
771	0	0
772	0	0
773	0	0.333333
774	0	0.333333
775	0	0.333333
776	0	0.583333
777	0	0.466667
778	0	0.333333
779	0	0.0173087
780	0	0.0293554
781	0	0.0609081
782	0	0.0359408
783	0	0.0422833
784	0	0.0525253
785	0	0.0347826
786	0	0.0138855
787	0	0.0135729
788	0	0.0138126
789	0	0.0131235
790	0	0.0133146
791	0	0.0137581
792	0	0.0138282
793	0	0.0120891
794	0	0.0125163
795	0	0.0189472
796	0	0.0200858
797	0	0.0199942
798	0	0.0233831
799	0	0.0215351
800	0	0.0218263
801	0	0.0218941
802	0	0.0215351
803	0	0.020402
804	0	0.0325686
805	0	0.0326477
806	0	0.0297855
807	0	0.0472777
808	0	0.01078
809	0	0.00999181
810	0	0.0119931
811	0	0.012696
812	0	0.0152475
813	0	0.0147275
814	0	0.018256
815	0	0.0166056
816	0	0.0167526
817	0	0.0165378
818	0	0.0208333
819	0	0.0446316
820	0	0.0446409
821	0	0.0172859
822	0	0.0373187
823	0	0.0365496
824	0	0
825	0	0
826	0	0
827	0	0
828	0	0
829	0	0
830	0	0
831	0	0.0343385
832	0	0.0343058
833	0	0.0337654
834	0	0.0336968
835	0	0.02636
836	0	0.0294686
837	0	0.0213783
838	0	0.0137845
839	0	0.0131579
840	0	0.0131579
841	0	0.00907441
842	0	0.0108893
843	0	0.0118644
844	0	0.0114754
845	0	0.0120219
846	0	0.0107527
847	0	0.013214
848	0	0.0173669
849	0	0.0173647
850	0	0.0107971
851	0	0.0124153
852	0	0.0126923
853	0	0.0382904
854	0	0.0417061
855	0	0.0417093
856	0	0.0369458
857	0	0.0370578
858	0	0.0356108
859	0	0.0338848
860	0	0
861	0	0
862	0	0
863	0	0
864	0	0
865	0	0
866	0	0
867	0	0
868	0	0
869	0	0
870	0	0
871	0	0
872	0	0
873	0	0
874	0	0
875	0	0
876	0	0
877	0	0
878	0	0
879	0	0
880	0	0
881	0	0
882	0	0
883	0	0
884	0	0
885	0	0
886	0	0
887	0	0
888	0	0
889	0	0
890	0	0
891	0	0
892	0	0
893	0	0
894	0	0
895	0	0
896	0	0
897	0	0
898	0	0
899	0	0
900	0	0
901	0	0
902	0	0
903	0	0
904	0	0
905	0	0
906	0	0
907	0	0
908	0	0.0134953
909	0	0.0246154
910	0	0.047619
911	0	0.00833333
912	0	0.010989
913	0	0.021978
914	0	0.021978
915	0	0.021978
916	0	0.0128205
917	0	0
918	0	0
919	0	0
920	0	0
921	0	0
922	0	0
923	0	0
924	0	0
925	0	0
926	0	0
927	0	0
928	0	0
929	0	0
930	0	0
931	0	0
932	0	0
933	0	0
934	0	0
935	0	0
936	0	0
937	0	0
938	0	0
939	0	0
940	0	0
941	0	0
942	0	0
943	0	0
944	0	0
945	0	0
946	0	0
947	0	0.0128205
948	0	0.0157895
949	0	0.0217391
950	0	0.017094
951	0	0.017094
952	0	0.0147783
953	0	0.015015
954	0	0.129825
955	0	0.0890603
956	0	0.0766337
957	0	0.0522884
958	0	0.195285
959	0	0.195139
960	0	0.196572
961	0	0.197537
962	0	0.199882
963	0	0.025641
964	0	0.037037
965	0	0.0738462
966	0	0.0738462
967	0	0.0738462
968	0	0.0369231
969	0	0.0307692
970	0	0.0553846
971	0	0.0615385
972	0	0.0615385
973	0	0.0615385
974	0	0.0615385
975	0	0.0615385
976	0	0.194225
977	0	0.195872
978	0	0.199714
979	0	0.204868
980	0	0.0357143
981	0	0.0666667
982	0	0.0666667
983	0	0
984	0	0
985	0	0
986	0	0
987	0	0
988	0	0
989	0	0
990	0	0
991	0	0
992	0	0
993	0	0
994	0	0
995	0	0
996	0	0
997	0	0
998	0	0
999	0	0
1000	0	0
1001	0	0
1002	0	0
1003	0	0
1004	0	0
1005	0	0.0952381
1006	0	0.0952381
1007	0	0.0952381
1008	0	0.0952381
1009	0	0.0952381
1010	0	0.0952381
1011	0	0.0952381
1012	0	0.049021
1013	0	0.0501198
1014	0	0.0157895
1015	0	0.0157895
1016	0	0.0210526
1017	0	0.0210526
1018	0	0.0210526
1019	0	0.0210526
1020	0	0.0157895
1021	0	0.0142857
1022	0	0.0348978
1023	0	0.0337868
1024	0	0.0341707
1025	0	0.0441176
1026	0	0.0367647
1027	0	0.0367647
1028	0	0.0367647
1029	0	0.0441176
1030	0	0.0294118
1031	0	0.0441176
1032	0	0.0514706
1033	0	0.0367647
1034	0	0.0368421
1035	0	0.030303
1036	0	0.0333333
1037	0	0.021645
1038	0	0.034188
1039	0	0.0330455
1040	0	0.0386953
1041	0	0.0402218
1042	0	0.0227258
1043	0	0.0240412
1044	0	0.0371527
1045	0	0.0478751
1046	0	0.0479489
1047	0	0.038628
1048	0	0.0484484
1049	0	0.0380564
1050	0	0.0276912
1051	0	0.0508678
1052	0	0.0504359
1053	0	0.0302643
1054	0	0.0491623
1055	0	0.0553585
1056	0	0.0607158
1057	0	0.0606987
1058	0	0.0652703
1059	0	0.0938917
1060	0	0.0458839
1061	0	0.048583
1062	0	0.0539811
1063	0	0.0780488
1064	0	0.0980248
1065	0	0.0277778
1066	0	0.0277778
1067	0	0.0277778
1068	0	0.0963918
1069	0	0
1070	0	0.205263
1071	0	0.194737
1072	0	0.194737
1073	0	0.194737
1074	0	0.0749173
1075	0	0.0682788
1076	0	0.0540541
1077	0	0.0526316
1078	0	0.059744
1079	0	0.059744
1080	0	0.0526316
1081	0	0.0526316
1082	0	0.038137
1083	0	0.090771
1084	0	0.0926179
1085	0	0.22031
1086	0	0.134201
1087	0	0
1088	0	0
1089	0	0
1090	0	0
1091	0	0
1092	0	0
1093	0	0
1094	0	0
1095	0	0
1096	0	0
1097	0	0
1098	0	0
1099	0	0
1100	0	0
1101	0	0
1102	0	0
1103	0	0
1104	0	0
1105	0	0
1106	0	0
1107	0	0
1108	0	0
1109	0	0
1110	0	0
1111	0	0.654545
1112	0	0.654545
1113	0	0.545455
1114	0	0.395604
1115	0	0.24183
1116	0	0.194737
1117	0	0.146245
1118	0	0.126667
1119	0	0.26612
1120	0	0.161636
1121	0	0.0163265
1122	0	0.031694
1123	0	0.05558
1124	0	0.0538631
1125	0	0.142857
1126	0	0.142857
1127	0	0.0517177
1128	0	0.0545455
1129	0	0.0521739
1130	0	0.057971
1131	0	0.0479597
1132	0	0.0552307
1133	0	0.166667
1134	0	0.166667
1135	0	0.166667
1136	0	0.166667
1137	0	0.194444
1138	0	0.194444
1139	0	0.194444
1140	0	0.155556
1141	0	0.106061
1142	0	0.106061
1143	0	0.106061
1144	0	0.0483003
1145	0	0.0478894
1146	0	0.0491534
1147	0	0.059662
1148	0	0.0500638
1149	0	0.0491409
1150	0	0.0509381
1151	0	0.166667
1152	0	0.166667
1153	0	0.166667
1154	0	0.166667
1155	0	0.166667
1156	0	0.166667
1157	0	0.166667
1158	0	0.166667
1159	0	0.166667
1160	0	0.064174
1161	0	0.0622747
1162	0	0.0594762
1163	0	0.04
1164	0	0.0315789
1165	0	0.0441176
1166	0	0.0333333
1167	0	0.0380952
1168	0	0.0380952
1169	0	0.0380952
1170	0	0.047619
1171	0	0.0663915
1172	0	0.0649351
1173	0	0.0511111
1174	0	0.0498121
1175	0	0.152321
1176	0	0.149727
1177	0	0.00526316
1178	0	0.00584795
1179	0	0.00653595
1180	0	0.00735294
1181	0	0.00735294
1182	0	0.0928839
1183	0	0.0994387
1184	0	0
1185	0	0
1186	0	0
1187	0	0
1188	0	0.108147
1189	0	0.100508
1190	0	0
1191	0	0.0166667
1192	0	0.0457516
1193	0	0.0315789
1194	0	0.025974
1195	0	0.0620504
1196	0	0.0479753
1197	0	0.0231613
1198	0	0.0233161
1199	0	0.0268891
1200	0	0.0525589
1201	0	0.0483006
1202	0	0.0398872
1203	0	0.0489873
1204	0	0.0307692
1205	0	0.0307692
1206	0	0.0246154
1207	0	0.0215385
1208	0	0.037037
1209	0	0.0369231
1210	0	0.0246154
1211	0	0.0714538
1212	0	0.0707099
1213	0	0.0940876
1214	0	0.134725
1215	0	0.120654
1216	0	0.127309
1217	0	0.185082
1218	0	0.153009
1219	0	0.211194
1220	0	0.0222222
1221	0	0.0357143
1222	0	0
1223	0	0
1224	0	0
1225	0	0
1226	0	0
1227	0	0
1228	0	0
1229	0	0
1230	0	0
1231	0	0
1232	0	0
1233	0	0
1234	0	0
1235	0	0
1236	0	0
1237	0	0
1238	0	0
1239	0	0
1240	0	0
1241	0	0
1242	0	0
1243	0	0
1244	0	0.166667
1245	0	0.217949
1246	0	0.383333
1247	0	0.213124
1248	0	0.209938
1249	0	0.213362
1250	0	0.216856
1251	0	0.0581731
1252	0	0.0433404
1253	0	0.05
1254	0	0.0553306
1255	0	0.0551282
1256	0	0.0545877
1257	0	0.0576923
1258	0	0.075641
1259	0	0.075641
1260	0	0.0719512
1261	0	0.068525
1262	0	0.0696864
1263	0	0.0664452
1264	0	0.0626263
1265	0	0.220379
1266	0	0.220508
1267	0	0.22221
1268	0	0
1269	0	0
1270	0	0
1271	0	0
1272	0	0
1273	0	0.0924503
1274	0	0
1275	0	0
1276	0	0
1277	0	0.0900662
1278	0	0.0883583
1279	0	0.0842748
1280	0	0.158943
1281	0	0.133837
1282	0	0.146697
1283	0	0.151535
1284	0	0.162003
1285	0	0.108333
1286	0	0.133333
1287	0	0.118952
1288	0	0.118952
1289	0	0.120781
1290	0	0.11971
1291	0	0.111178
1292	0	0.107539
1293	0	0.0952381
1294	0	0.0985625
1295	0	0.12875
1296	0	0.260312
1297	0	0.0650675
1298	0	0.0652937
1299	0	0.0608601
1300	0	0.215523
1301	0	0.214418
1302	0	0.214472
1303	0	0.213975
1304	0	0.213974
1305	0	0
1306	0	0
1307	0	0
1308	0	0
1309	0	0
1310	0	0
1311	0	0
1312	0	0
1313	0	0
1314	0	0
1315	0	0
1316	0	0
1317	0	0
1318	0	0
1319	0	0
1320	0	0
1321	0	0
1322	0	0
1323	0	0
1324	0	0
1325	0	0
1326	0	0
1327	0	0
1328	0	0
1329	0	0
1330	0	0
1331	0	0
1332	0	0
1333	0	0
1334	0	0
1335	0	0
1336	0	0
1337	0	0
1338	0	0
1339	0	0
1340	0	0
1341	0	0
1342	0	0
1343	0	0
1344	0	0
1345	0	0
1346	0	0
1347	0	0
1348	0	0
1349	0	0
1350	0	0
1351	0	0
1352	0	0
1353	0	0
1354	0	0
1355	0	0
1356	0	0
1357	0	0
1358	0	0
1359	0	0
1360	0	0
1361	0	0
1362	0	0
1363	0	0
1364	0	0
1365	0	0
1366	0	0
1367	0	0
1368	0	0
1369	0	0
1370	0	0
1371	0	0
1372	0	0
1373	0	0
1374	0	0
1375	0	0
1376	0	0
1377	0	0
1378	0	0
1379	0	0
1380	0	0
1381	0	0
1382	0	0
1383	0	0
1384	0	0
1385	0	0
1386	0	0
1387	0	0
1388	0	0
1389	0	0
1390	0	0
1391	0	0
1392	0	0
1393	0	0
1394	0	0
1395	0	0
1396	0	0
1397	0	0
1398	0	0
1399	0	0
1400	0	0
1401	0	0
1402	0	0
1403	0	0
1404	0	0
1405	0	0
1406	0	0
1407	0	0
1408	0	0
1409	0	0
1410	0	0
1411	0	0
1412	0	0
1413	0	0
1414	0	0
1415	0	0
1416	0	0
1417	0	0
1418	0	0
1419	0	0
1420	0	0.0222222
1421	0	0.0190476
1422	0	0.0292398
1423	0	0.0292398
1424	0	0.025974
1425	0	0.67287
1426	0	0.65589
1427	0	0.63978
1428	0	0.63191
1429	0	0.594231
1430	0	0.560165
1431	0	0.460976
1432	0	0.460976
1433	0	0.320749
1434	0	0.295995
1435	0	0.258694
1436	0	0.191733
1437	0	0.224044
1438	0	0.217729
1439	0	0.307692
1440	0	0
1441	0	0
1442	0	0
1443	0	0
1444	0	0
1445	0	0
1446	0	0
1447	0	0
1448	0	0
1449	0	0
1450	0	0
1451	0	0
1452	0	0
1453	0	0
1454	0	0
1455	0	0
1456	0	0
1457	0	0
1458	0	0
1459	0	0
1460	0	0
1461	0	0
1462	0	0
1463	0	0
1464	0	0
1465	0	0.0606061
1466	0	0
1467	0	0
1468	0	0.171168
1469	0	0.441185
1470	0	0.448599
1471	0	0.405199
1472	0	0.176271
1473	0	0.117193
1474	0	0.108544
1475	0	0.10214
1476	0	0.0921408
1477	0	0.0894101
1478	0	0.104787
1479	0	0.0961141
1480	0	0.150769
1481	0	0.152174
1482	0	0.152174
1483	0	0.144928
1484	0	0.144928
1485	0	0.144928
1486	0	0.119048
1487	0	0.119048
1488	0	0.119048
1489	0	0.119048
1490	0	0.102767
1491	0	0.102767
1492	0	0.0769231
1493	0	0.0687831
1494	0	0.0521092
1495	0	0.053131
1496	0	0.0529737
1497	0	0.0287929
1498	0	0.0254707
1499	0	0.0254707
1500	0	0.0254707
1501	0	0.0232558
1502	0	0.0243632
1503	0	0.0338266
1504	0	0.0359408
1505	0	0.0412262
1506	0	0.0401691
1507	0	0.0635403
1508	0	0.088172
1509	0	0.088172
1510	0	0.0903226
1511	0	0.0795699
1512	0	0.0588738
1513	0	0.060446
1514	0	0.333333
1515	0	0.333333
1516	0	0.333333
1517	0	0.333333
1518	0	0.333333
1519	0	0.333333
1520	0	0.333333
1521	0	0.333333
1522	0	0.333333
1523	0	0.333333
1524	0	0.333333
1525	0	0.467836
1526	0	0.467836
1527	0	0
1528	0	0
1529	0	0.166667
1530	0	0.166667
1531	0	0.166667
1532	0	0.166667
1533	0	0.1
1534	0	0.0666667
1535	0	0.0888889
1536	0	0.0765017
1537	0	0
1538	0	0
1539	0	0
1540	0	0
1541	0	0.110133
1542	0	0.12076
1543	0	0.072743
1544	0	0.155556
1545	0	0.130159
1546	0	0.130159
1547	0	0.133333
1548	0	0.161905
1549	0	0.113964
1550	0	0.136351
1551	0	0.184658
1552	0	0.186961
1553	0	0.188886
1554	0	0.136364
1555	0	0.136364
1556	0	0.19697
1557	0	0.19697
1558	0	0.19697
1559	0	0.173294
1560	0	0.183829
1561	0	0.196259
1562	0	0.187784
1563	0	0.0650407
1564	0	0.259229
1565	0	0.257349
1566	0	0.255381
1567	0	0.258092
1568	0	0.121212
1569	0	0.121212
1570	0	0.121212
1571	0	0.121212
1572	0	0.22687
1573	0	0.22715
1574	0	0.155556
1575	0	0.155556
1576	0	0.0409357
1577	0	0.0421053
1578	0	0.0750751
1579	0	0.0630631
1580	0	0.0368421
1581	0	0.0333333
1582	0	0.030303
1583	0	0.039886
1584	0	0.284399
1585	0	0.24151
1586	0	0.105247
1587	0	0.107278
1588	0	0.152688
1589	0	0.148387
1590	0	0.0626582
1591	0	0.176913
1592	0	0.179548
1593	0	0.200215
1594	0	0.0591549
1595	0	0.0393443
1596	0	0.0396616
1597	0	0.0375463
1598	0	0.0360577
1599	0	0.127522
1600	0	0.167272
1601	0	0.0206897
1602	0	0.0229885
1603	0	0.0640114
1604	0	0.071525
1605	0	0.256961
1606	0	0.0631653
1607	0	0.1
1608	0	0.10641
1609	0	0.109756
1610	0	0.108014
1611	0	0.124359
1612	0	0.166246
1613	0	0.271903
1614	0	0.455301
1615	0	0.462136
1616	0	0.464191
1617	0	0.464248
1618	0	0.0991597
1619	0	0.103387
1620	0	0.0890152
1621	0	0.0846774
1622	0	0.083871
1623	0	0.0641711
1624	0	0.0860215
1625	0	0.0860215
1626	0	0.0907258
1627	0	0.0866935
1628	0	0.0907258
1629	0	0.101149
1630	0	0.456529
1631	0	0.455337
1632	0	0.453595
1633	0	0
1634	0	0
1635	0	0
1636	0	0
1637	0	0
1638	0	0
1639	0	0
1640	0	0
1641	0	0
1642	0	0
1643	0	0
1644	0	0
1645	0	0
1646	0	0
1647	0	0
1648	0	0
1649	0	0
1650	0	0
1651	0	0
1652	0	0
1653	0	0
1654	0	0
1655	0	0
1656	0	0
1657	0	0
1658	0	0
1659	0	0
1660	0	0
1661	0	0
1662	0	0
1663	0	0.0181818
1664	0	0.684258
1665	0	0.629063
1666	0	0.217949
1667	0	0.188161
1668	0	0.514701
1669	0	0.468705
1670	0	0.40801
1671	0	0.368256
1672	0	0.334309
1673	0	0.296565
1674	0	0.48729
1675	0	0.485483
1676	0	0.483803
1677	0	0.483865
1678	0	0.484855
1679	0	0.409091
1680	0	0.409091
1681	0	0.287879
1682	0	0.287879
1683	0	0.287879
1684	0	0.257576
1685	0	0.480353
1686	0	0.133333
1687	0	0.0888889
1688	0	0.133333
1689	0	0.133333
1690	0	0.133333
1691	0	0.472084
1692	0	0.236111
1693	0	0.243269
1694	0	0.238462
1695	0	0.276469
1696	0	0.282421
1697	0	0
1698	0	0
1699	0	0
1700	0	0
1701	0	0
1702	0	0.63703
1703	0	0.637363
1704	0	0.396565
1705	0	0.372293
1706	0	0.319659
1707	0	0.320767
1708	0	0.237606
1709	0	0.198324
1710	0	0.148648
1711	0	0
1712	0	0
1713	0	0
1714	0	0
1715	0	0
1716	0	0
1717	0	0
1718	0	0
1719	0	0
1720	0	0
1721	0	0
1722	0	0
1723	0	0
1724	0	0
1725	0	0
1726	0	0.214286
1727	0	0.2
1728	0	0.163636
1729	0	0.149595
1730	0	0.151266
1731	0	0.469136
1732	0	0.353066
1733	0	0.30641
1734	0	0.312844
1735	0	0.241142
1736	0	0.287202
1737	0	0.316639
1738	0	0.111111
1739	0	0.142857
1740	0	0.190476
1741	0	0.166667
1742	0	0.333333
1743	0	0.333333
1744	0	0.333333
1745	0	0.333333
1746	0	0.333333
1747	0	0.333333
1748	0	0.333333
1749	0	0.333333
1750	0	0.333333
1751	0	0.333333
1752	0	0.333333
1753	0	0.333333
1754	0	0.333333
1755	0	0.166667
1756	0	0.1
1757	0	0.1
1758	0	0.1
1759	0	0.0666667
1760	0	0.0666667
1761	0	0.0666667
1762	0	0.0666667
1763	0	0.0666667
1764	0	0
1765	0	0
1766	0	0.333333
1767	0	0.333333
1768	0	0.333333
1769	0	0.166667
1770	0	0.190476
1771	0	0.190476
1772	0	0.194444
1773	0	0.72061
1774	0	0.55156
1775	0	0.312847
1776	0	0.451934
1777	0	0.200236
1778	0	0.609359
1779	0	0.608349
1780	0	0.654616
1781	0	0.574572
1782	0	0.587839
1783	0	0.185073
1784	0	0.153846
1785	0	0.102564
1786	0	0.0897436
1787	0	0.0897436
1788	0	0.141026
1789	0	0.141026
1790	0	0.0769231
1791	0	0.0879121
1792	0	0.0879121
1793	0	0.0989011
1794	0	0.0879121
1795	0	0.0659341
1796	0	0.156471
1797	0	0.168159
1798	0	0.0833333
1799	0	0.111111
1800	0	0.0277778
1801	0	0.0277778
1802	0	0.0555556
1803	0	0.0555556
1804	0	0.0555556
1805	0	0.277778
1806	0	0.357143
1807	0	0.357143
1808	0	0.277778
1809	0	0.333333
1810	0	0.242424
1811	0	0.363636
1812	0	0.363636
1813	0	0.320513
1814	0	0.230679
1815	0	0.0571429
1816	0	0.0641026
1817	0	0.166667
1818	0	0.2
1819	0	0.2
1820	0	0.4
1821	0	0.355556
1822	0	0.355556
1823	0	0.355556
1824	0	0.355556
1825	0	0.355556
1826	0	0.355556
1827	0	0.355556
1828	0	0.355556
1829	0	0.242576
1830	0	0.1
1831	0	0.1
1832	0	0.236003
1833	0	0.119013
1834	0	0.131222
1835	0	0.147109
1836	0	0.161348
1837	0	0.171981
1838	0	0.175758
1839	0	0.175758
1840	0	0
1841	0	0
1842	0	0
1843	0	0
1844	0	0
1845	0	0.396992
1846	0	0.410617
1847	0	0.491023
1848	0	0.166667
1849	0	0.166667
1850	0	0.166667
1851	0	0.166667
1852	0	0.166667
1853	0	0.166667
1854	0	0.166667
1855	0	0.166667
1856	0	0.166667
1857	0	0.166667
1858	0	0.5
1859	0	0.5
1860	0	0.5
1861	0	0.520562
1862	0	0.521967
1863	0	0.0467836
1864	0	0.0467836
1865	0	0.0584795
1866	0	0.129268
1867	0	0.361287
1868	0	0.389249
1869	0	0.389834
1870	0	0.396713
1871	0	0.419399
1872	0	0.442512
1873	0	0.483087
1874	0	0.298942
1875	0	0.321937
1876	0	0.282051
1877	0	0.282051
1878	0	0.381818
1879	0	0.4
1880	0	0.4
1881	0	0.418182
1882	0	0.418182
1883	0	0.375434
1884	0	0.43199
1885	0	0.409091
1886	0	0.406061
1887	0	0.426497
1888	0	0.440476
1889	0	0.795519
1890	0	0.797737
1891	0	0.797737
1892	0	0.309677
1893	0	0.819058
1894	0	0.692376
1895	0	0.753623
1896	0	0.787879
1897	0	0.792271
1898	0	0.792271
1899	0	0.792271
1900	0	0.871973
1901	0	0.872079
1902	0	0.872079
1903	0	0.872167
1904	0	0.868901
1905	0	0.870354
1906	0	0.416667
1907	0	0.733333
1908	0	0.893903
1909	0	0.895551
1910	0	0
1911	0	0
1912	0	0
1913	0	0
1914	0	0
1915	0	0
1916	0	0
1917	0	0
1918	0	0
1919	0	0
1920	0	0
1921	0	0
1922	0	0
1923	0	0
1924	0	0
1925	0	0
1926	0	0
1927	0	0
1928	0	0
1929	0	0.992684
1930	0	0.99304
1931	0	0.993047
1932	0	0.866667
1933	0	0.838895
1934	0	0.979264
1935	0	0.979285
1936	0	0.8
1937	0	0.99481
1938	0	0.99481
1939	0	0.996538
1940	0	0.996538
1941	0	0.998273
1942	0	0.998273
1943	0	0.998273
1944	0	0.998273
1945	0	0.998273
1946	0	0.998273
1947	0	0.998273
1948	0	0.998273
1949	0	0.998273
1950	0	0.998271
1951	0	0.998271
1952	0	0.998271
1953	0	0.998271
1954	0	0.998271
1955	0	0.998271
1956	0	0.998271
1957	0	0.996547
1958	0	0.998271
1959	0	0.998271
1960	0	0.998271
1961	0	0.529711
1962	0	1
1963	0	0.901327
1964	0	0.901327
1965	0	0.998268
1966	0	0.998268
1967	0	0.996541
1968	0	0.996541
1969	0	0.99827
1970	0	0.99827
1971	0	0.99827
1972	0	0.99827
1973	0	0.99827
1974	0	0.99827
1975	0	0.99827
1976	0	0.99827
1977	0	0.99827
1978	0	0.99827
1979	1	1
1980	1	1
1981	0	1
1982	0	0.998268
1983	0	0.998267
1984	0	0
1985	0	0
1986	0	0
1987	0	0
1988	0	0
1989	0	0
1990	0	0
1991	0	0
1992	0	0
1993	0	0
1994	0	1
1995	0	1
1996	0	1
1997	0	1
1998	0	1
1999	0	1
2000	0	1
2001	0	0.620713
2002	0	1
2003	0	0.742857
2004	0	0.725275
2005	0	0.705128
2006	0	0.705128
2007	0	0.681818
2008	0	0.466667
2009	0	0.269006
2010	0	0.269006
2011	0	0.269006
2012	0	0.22807
2013	0	0.22807
2014	0	0.216374
2015	0	0.216374
2016	0	0.216374
2017	0	0.833583
2018	0	0.544904
2019	0	0
2020	0	0
2021	0	0
2022	0	0
2023	0	0
2024	0	0
2025	0	0
2026	0	0
2027	0	0
2028	0	0
2029	0	0
2030	0	0
2031	0	0
2032	0	0.166667
2033	0	0.166667
2034	0	0.190476
2035	0	0.151515
2036	0	0.128205
2037	0	0.128205
2038	0	0.120879
2039	0	0.17029
2040	0	0.15121
2041	0	0.123755
2042	0	0.134238
2043	0	0.125087
2044	0	0.120196
2045	0	0.114935
2046	0	0.105202
2047	0	0.094214
2048	0	0.0921659
2049	0	0.0817308
2050	0	0.0705563
2051	0	0.0687472
2052	0	0.0506558
2053	0	0.0522388
2054	0	0.0471842
2055	0	0.0464865
2056	0	0.0463158
2057	0	0.0415537
2058	0	0.0410212
2059	0	0.0387597
2060	0	0.0408505
2061	0	0.0399719
2062	0	0.0418683
2063	0	0.038961
2064	0	0.0437118
2065	0	0.0470616
2066	0	0.0678452
2067	0	0.0981844
2068	0	0.0965454
2069	0	0.122284
2070	0	0.219709
2071	0	0.248889
2072	0	0.268467
2073	0	0.267407
2074	0	0.292566
2075	0	0.287983
2076	0	0.364099
2077	0	0.395307
2078	0	0.452823
2079	0	0.452741
2080	0	0.855404
2081	0	0.971429
2082	0	1
2083	0	1
2084	0	1
2085	0	1
2086	0	0.99655
2087	0	0.99655
2088	0	0.99655
2089	0	0.996553
2090	0	0.994836
2091	0	0.994836
2092	0	0.994836
2093	0	0.994836
2094	0	0.994836
2095	0	1
2096	0	1
2097	0	0.913424
2098	0	1
2099	0	0.333333
2100	0	0.333333
2101	0	0.333333
2102	0	0.333333
2103	0	0.166667
2104	0	0.1
2105	0	0.0952381
2106	0	0.922891
2107	0	0.452652
2108	0	0.29235
2109	0	0.18991
2110	0	0.507442
2111	0	0.822228
2112	0	0.411841
2113	0	0.409577
2114	0	0.13834
2115	0	0.13834
2116	0	0.103333
2117	0	0.0854701
2118	0	0.0766488
2119	0	0.479365
2120	0	0.233073
2121	0	0.0666667
2122	0	0.272727
2123	0	0.180952
2124	0	0.170843
2125	0	0.207564
2126	0	0.177333
2127	0	0.187979
2128	0	0.129792
2129	0	0.153846
2130	0	0.197802
2131	0	0.296703
2132	0	0.217994
2133	0	0.229268
2134	0	0.334038
2135	0	0.334038
2136	0	0.122807
2137	0	0.0769231
2138	0	0.0769231
2139	0	0.0909091
2140	0	0.813264
2141	0	0
2142	0	1
2143	0	0.893871
2144	0	0.5
2145	0	0.5
2146	0	1
2147	0	1
2148	0	0.90797
2149	0	0
2150	0	0
2151	0	0.047619
2152	0	0.173109
2153	0	0.336898
2154	0	0.379032
2155	0	0.756989
2156	0	0.333333
2157	0	0.333333
2158	0	0.333333
2159	0	1
2160	0	0.984529
2161	0	0.984529
2162	0	0.142857
2163	0	0.190476
2164	0	0.166667
2165	0	0
2166	0	1
2167	0	1
2168	0	1
2169	0	1
2170	0	0.99313
2171	0	0.99313
2172	0	0.994845
2173	0	0
2174	0	0
2175	0	0.996562
2176	0	0.996562
2177	0	0.998279
2178	0	0.998279
2179	0	0.998277
2180	0	0.928571
2181	0	0.945718
2182	0	0.940707
2183	0	0.892063
2184	0	0.892063
2185	0	0.825758
2186	0	0.878372
2187	0	0.565854
2188	0	0.47439
2189	0	0.756746
2190	0	0.301582
2191	0	0.671795
2192	0	0.832881
2193	0	1
2194	1	1
2195	1	1
2196	1	1
2197	1	1
2198	1	1
2199	1	1
2200	1	1
2201	1	1
2202	1	1
2203	1	1
2204	1	1
2205	1	1
2206	1	1
2207	1	1
2208	1	1
2209	1	1
2210	0	0.996569
2211	0	0.996569
2212	1	1
2213	1	1
2214	1	1
2215	1	1
2216	1	1
2217	1	1
2218	1	1
2219	1	1
2220	1	1
2221	1	1
2222	1	1
2223	1	1
2224	1	1
2225	1	1
2226	1	1
2227	1	1
2228	1	1
2229	1	1
2230	1	1
2231	1	1
2232	1	1
2233	1	1
2234	1	1
2235	1	1
2236	1	1
2237	1	1
2238	1	1
2239	1	1
2240	1	1
2241	0	0.998276
2242	0	0.998276
2243	0	0.6
2244	0	0.993127
2245	0	0.986302
2246	0	1
2247	0	0.996559
2248	0	0.994845
2249	0	0.998279
2250	0	0.998279
2251	1	1
2252	1	1
2253	1	1
2254	1	1
2255	1	1
2256	1	1
2257	1	1
2258	1	1
2259	1	1
2260	1	1
2261	1	1
2262	1	1
2263	1	1
2264	0	1
2265	0	0.986292
2266	0	0.984582
2267	0	0.996531
2268	0	0.979383
2269	0	0.694189
2270	0	0.442482
2271	0	1
2272	0	1
2273	0	1
2274	0	1
2275	0	0.818182
2276	0	0.818182
2277	0	0.818182
2278	0	0.589744
2279	0	0.589744
2280	0	0.345588
2281	0	0.338235
2282	0	0.352941
2283	0	0.360294
2284	0	0.360294
2285	0	0.320261
2286	0	0.625894
2287	0	0.3
2288	0	0.214286
2289	0	0.97495
2290	0	0.142857
2291	0	0.142857
2292	0	0.333333
2293	0	0.982889
2294	0	0.428571
2295	0	0.996561
2296	1	1
2297	1	1
2298	1	1
2299	1	1
2300	1	1
2301	1	1
2302	1	1
2303	0	1
2304	0	0.998277
2305	0	0.998277
2306	0	0.998277
2307	0	0.998277
2308	0	0.998277
2309	0	0.998277
2310	0	0.998277
2311	0	0.998277
2312	0	0.998277
2313	0	0.998277
2314	0	0.998277
2315	0	0.998277
2316	0	0.996556
2317	0	0.996556
2318	0	0.998276
2319	0	0.998276
2320	0	1
2321	1	1
2322	1	1
2323	0	0.333333
2324	0	0.333333
2325	0	0.266667
2326	0	0.989585
2327	0	0.970906
2328	0	0.947268
2329	0	1
2330	0	0.998274
2331	1	0
2332	0	0
2333	0	0
2334	0	0
2335	0	0
2336	1	1
2337	1	1
2338	1	1
2339	1	1
2340	0	0.998276
2341	1	1
2342	1	1
2343	1	1
2344	1	1
2345	1	1
2346	1	1
2347	1	1
2348	1	1
2349	0	1
2350	0	1
2351	0	1
2352	0	1
2353	0	1
2354	0	0.998277
2355	0	0.998277
2356	0	0.998277
2357	0	0.998277
2358	0	0.998277
2359	0	1
2360	0	0.5
2361	0	0.5
2362	0	0.5
2363	0	0.5
2364	0	0.991004
2365	0	1
2366	0	0.925429
2367	0	0.628482
2368	0	0.643028
2369	0	0.959344
2370	0	1
2371	0	0.996556
2372	0	0.996559
2373	0	0.996559
2374	0	0.996559
2375	0	0.998277
2376	1	1
2377	1	1
2378	1	1
2379	1	1
2380	0	1
2381	0	1
2382	0	1
2383	0	1
2384	0	1
2385	0	1
2386	0	1
2387	0	0
2388	0	0.5
2389	0	0.5
2390	0	0
2391	0	0.166667
2392	0	0.166667
2393	0	0.166667
2394	0	0.166667
2395	0	0.166667
2396	0	0.166667
2397	0	0.166667
2398	0	0.166667
2399	0	0.166667
2400	0	0.5
2401	0	0.5
2402	0	0.5
2403	0	0.5
2404	0	0.5
2405	0	0.996544
2406	0	0.998273
2407	0	0.998273
2408	0	0.998273
2409	0	0.998274
2410	0	0.996553
2411	0	0.996553
2412	0	0.996553
2413	0	0.996553
2414	0	0.996553
2415	0	0.994836
2416	0	0.994836
2417	0	0.994832
2418	0	1
2419	0	0.611111
2420	0	0.98106
2421	0	0.977683
2422	0	0.498717
2423	0	0
2424	0	0.725254
2425	0	0.696056
2426	0	0.719966
2427	0	0.915374
2428	1	1
2429	0	0.333333
2430	0	0.991057
2431	0	1
2432	0	1
2433	0	1
2434	0	0.994828
2435	0	0.993106
2436	0	0.994823
2437	0	0.996544
2438	0	0.996544
2439	0	0.996544
2440	0	0.996544
2441	0	0.996544
2442	0	0.996541
2443	0	0.996541
2444	0	0.996541
2445	0	0.996541
2446	0	0.996541
2447	0	0.996541
2448	0	0.996541
2449	0	0.994814
2450	0	0.994801
2451	0	1
2452	0	0.719772
2453	0	0.459049
2454	0	1
2455	0	1
2456	0	1
2457	0	1
2458	0	1
2459	0	1
2460	0	0.333333
2461	0	0.789125
2462	0	0.935484
2463	0	0.683852
2464	0	0.687738
2465	0	0.67161
2466	0	0.649564
2467	0	0.53015
2468	0	0.279137
2469	0	0.33097
2470	0	0.444444
2471	0	0.194444
2472	0	0.194444
2473	0	0.194444
2474	0	0.220635
2475	0	0.201991
2476	0	0.108974
2477	0	0.097561
2478	0	0.20724
2479	0	0.192598
2480	0	0.161697
2481	0	0.145357
2482	0	0.135115
2483	0	0.126984
2484	0	0
2485	0	0.1
2486	0	0.127489
2487	0	0.122
2488	0	0
2489	0	0
2490	0	0
2491	0	0
2492	0	0
2493	0	0
2494	0	0
2495	0	0
2496	0	0
2497	0	0
2498	0	0
2499	0	0
2500	0	0
2501	0	0
2502	0	0
2503	0	0.151973
2504	0	0.119685
2505	0	0.104656
2506	0	0.105134
2507	0	0.0736626
2508	0	0.0754695
2509	0	0.0587723
2510	0	0.0571534
2511	0	0.0564421
2512	0	0.088249
2513	0	0.0711068
2514	0	0.0725547
2515	0	0.0505952
2516	0	0.0523456
2517	0	0.0347609
2518	0	0.0477625
2519	0	0.0570729
2520	0	0.0646955
2521	0	0.0684504
2522	0	0.0781053
2523	0	0.0827677
2524	0	0.0927772
2525	0	0.038961
2526	0	0.0404945
2527	0	0.04375
2528	0	0.0419287
2529	0	0.0318841
2530	0	0.0306554
2531	0	0.0431849
2532	0	0.0431849
2533	0	0.045045
2534	0	0.0353881
2535	0	0.0342262
2536	0	0.0307477
2537	0	0.0318841
2538	0	0.0341463
2539	0	0.0285285
2540	0	0.0269841
2541	0	0.0269841
2542	0	0.0282258
2543	0	0.0215385
2544	0	0.0316206
2545	0	0.0315789
2546	0	0.0315789
2547	0	0.0457516
2548	0	0.0514706
2549	0	0.0514706
2550	0	0.0571429
2551	0	0.0909091
2552	0	0.0277778
2553	0	0.0277778
2554	0	0.0357143
2555	0	0.0357143
2556	0	0
2557	0	0
2558	0	0
2559	0	0
2560	0	0
2561	0	0
2562	0	0
2563	0	0
2564	0	0
2565	0	0
2566	0	0
2567	0	0
2568	0	0
2569	0	0
2570	0	0
2571	0	0
2572	0	0.333333
2573	0	0.333333
2574	0	0.11098
2575	0	0.177973
2576	0	0.402884
2577	0	0.435506
2578	0	0.486299
2579	0	0.547368
2580	0	0.569591
2581	0	0.22561
2582	0	0.423423
2583	0	0.54127
2584	0	0.550794
2585	0	0.839683
2586	0	0.892063
2587	0	0.892063
2588	0	0.892063
2589	0	0.934629
2590	0	0.969474
2591	0	0.242424
2592	0	0.1
2593	0	0.1
2594	0	0.166667
2595	0	0.333333
2596	0	0.333333
2597	0	1
2598	0	1
2599	0	1
2600	0	1
2601	0	1
2602	0	1
2603	0	1
2604	0	1
2605	0	1
2606	0	1
2607	0	1
2608	0	1
2609	0	1
2610	0	1
2611	0	1
2612	0	1
2613	0	1
2614	0	0.986257
2615	0	0.986257
2616	0	0.987961
2617	0	0.987961
2618	0	0.987961
2619	0	0.987961
2620	0	0.987958
2621	0	0.987955
2622	0	0.986252
2623	0	0.333333
2624	0	0.333333
2625	0	0.333333
2626	0	0.333333
2627	0	0.333333
2628	0	0.333333
2629	0	0.333333
2630	0	0.333333
2631	0	0.993098
2632	0	0.993098
2633	0	0.993098
2634	0	0.991385
2635	0	0.991385
2636	0	0.991385
2637	0	0.991385
2638	0	0.991382
2639	0	0.994825
2640	0	0.994825
2641	0	0.994825
2642	0	1
2643	0	0.987965
2644	0	0.504436
2645	0	0.504436
2646	0	0.984547
2647	0	0.166667
2648	0	0.98453
2649	0	0.987958
2650	0	0.987958
2651	0	0.987958
2652	0	0.987958
2653	0	0.987958
2654	0	0.987958
2655	0	0.984517
2656	0	0.560606
2657	0	0.969181
2658	0	0.977682
2659	0	0.2
2660	0	0.982812
2661	0	0.982812
2662	0	0.982812
2663	0	0.986207
2664	0	0.166667
2665	0	0.166667
2666	0	0
2667	0	0
2668	0	0
2669	0	0
2670	0	0
2671	0	0
2672	0	0
2673	0	0
2674	0	0
2675	0	0
2676	0	0
2677	0	0
2678	0	0
2679	0	0
2680	0	0
2681	0	0
2682	0	0
2683	0	0
2684	0	0
2685	0	0
2686	0	0
2687	0	0.986191
2688	0	0.986203
2689	0	0.984484
2690	0	1
2691	0	1
2692	0	1
2693	0	1
2694	0	1
2695	0	1
2696	0	1
2697	0	1
2698	0	1
2699	0	1
2700	0	1
2701	0	1
2702	0	1
2703	0	1
2704	0	0.333333
2705	0	0.333333
2706	0	0.333333
2707	0	0.333333
2708	0	1
2709	0	1
2710	0	1
2711	0	1
2712	0	1
2713	0	1
2714	0	1
2715	0	1
2716	0	1
2717	0	1
2718	0	1
2719	0	1
2720	0	1
2721	0	1
2722	0	1
2723	0	1
2724	0	1
2725	0	1
2726	0	1
2727	0	0.333333
2728	0	0.97251
2729	0	0.970829
2730	0	0.970829
2731	0	0.527273
2732	0	0.527273
2733	0	0.333333
2734	0	0.2
2735	0	0.9539
2736	0	0.166667
2737	0	0.1
2738	0	0.1
2739	0	0.1
2740	0	0.1
2741	0	0.1
2742	0	0.1
2743	0	0.1
2744	0	0.1
2745	0	0.1
2746	0	0.1
2747	0	0.1
2748	0	0.1
2749	0	0.1
2750	0	0.1
2751	0	0.1
2752	0	0.1
2753	0	0.1
2754	0	0.1
2755	0	0.1
2756	0	0.1
2757	0	0.1
2758	0	0.1
2759	0	0.1
2760	0	0.1
2761	0	0.1
2762	0	0.1
2763	0	0.1
2764	0	0.1
2765	0	0.1
2766	0	0.1
2767	0	0.1
2768	0	0.1
2769	0	0.0666667
2770	0	0.0666667
2771	0	0.0666667
2772	0	0.0666667
2773	0	0.047619
2774	0	0.0357143
2775	0	0.0357143
2776	0	0.0357143
2777	0	0.175824
2778	0	0.175824
2779	0	0.161905
2780	0	0.946081
2781	0	0.6
2782	0	0.3
2783	0	0.3
2784	0	0.5
2785	0	0.5
2786	0	0.5
2787	0	0.5
2788	0	0.5
2789	0	0.5
2790	0	0.166667
2791	0	0.166667
2792	0	0.166667
2793	0	0.166667
2794	0	0.166667
2795	0	0.166667
2796	0	0.333333
2797	0	0.333333
2798	0	0.333333
2799	0	0.333333
2800	0	0.333333
2801	0	0.333333
2802	0	0.333333
2803	0	0.333333
2804	0	0.333333
2805	0	0.333333
2806	0	0.333333
2807	0	0.333333
2808	0	0.333333
2809	0	0.333333
2810	0	0.333333
2811	0	0.333333
2812	0	0.333333
2813	0	0.333333
2814	0	0.333333
2815	0	0.333333
2816	0	0.333333
2817	0	0.2
2818	0	0.1
2819	0	0.333333
2820	0	0.333333
2821	0	0.333333
2822	0	0.333333
2823	0	0.333333
2824	0	0.333333
2825	0	0.333333
2826	0	0.333333
2827	0	0.333333
2828	0	0.333333
2829	0	0.1
2830	0	0.1
2831	0	0.1
2832	0	0.1
2833	0	0.166667
2834	0	0.166667
2835	0	0.166667
2836	0	0.166667
2837	0	0.166667
2838	0	0.333333
2839	0	0.333333
2840	0	0.333333
2841	0	0.333333
2842	0	0.333333
2843	0	0.333333
2844	0	0.333333
2845	0	0.333333
2846	0	0.333333
2847	0	0.333333
2848	0	0.333333
2849	0	0.333333
2850	0	1
2851	0	1
2852	0	1
2853	0	1
2854	0	1
2855	0	1
2856	0	1
2857	0	1
2858	0	1
2859	0	1
2860	0	1
2861	0	1
2862	0	1
2863	0	1
2864	0	1
2865	0	1
2866	0	0.333333
2867	0	0.166667
2868	0	0.166667
2869	0	0.166667
2870	0	0.166667
2871	0	0.166667
2872	0	0.166667
2873	0	0.166667
2874	0	0.166667
2875	0	0.166667
2876	0	0.166667
2877	0	0.166667
2878	0	0.5
2879	0	0.5
2880	0	0.3
2881	0	0.3
2882	0	0.2
2883	0	0.142857
2884	0	0.107143
2885	0	0.107143
2886	0	0.861237
2887	0	0.691777
2888	0	0.143333
2889	0	0.152381
2890	0	0.169935
2891	0	0.208333
2892	0	0.15
2893	0	0.15
2894	0	0.183333
2895	0	0.242424
2896	0	0.0666667
2897	0	0.0666667
2898	0	0.1
2899	0	0.1
2900	0	0.166667
2901	0	0.166667
2902	0	0.333333
2903	0	0.333333
2904	0	0.333333
2905	0	0.333333
2906	0	0.333333
2907	0	0.333333
2908	0	0.333333
2909	0	0.333333
2910	0	0.333333
2911	0	0.333333
2912	0	0.333333
2913	0	0.333333
2914	0	0.333333
2915	0	0.333333
2916	0	0.333333
2917	0	0.333333
2918	0	0.333333
2919	0	0.333333
2920	0	0.333333
2921	0	0.693924
2922	0	0.773116
2923	0	0.774587
2924	0	0.411111
2925	0	0.593435
2926	0	0.593843
2927	0	0.59382
2928	0	0.57267
2929	0	0.574923
2930	0	0.442387
2931	0	0.507413
2932	0	0.50851
2933	0	0.229249
2934	0	0.506704
2935	0	0.50684
2936	0	0.631298
2937	0	0.722965
2938	0	0.166667
2939	0	0.166667
2940	0	0.1
2941	0	0.0666667
2942	0	0.0666667
2943	0	0.781347
2944	0	0.104762
2945	0	0.104762
2946	0	0.181818
2947	0	0.181818
2948	0	0.141026
2949	0	0.141026
2950	0	0.0994152
2951	0	0.267779
2952	0	0.274149
2953	0	0.220875
2954	0	0.353121
2955	0	0.466756
2956	0	0.87094
2957	0	0.121212
2958	0	0.0952381
2959	0	0.2
2960	0	0.166667
2961	0	0.166667
2962	0	0.166667
2963	0	0.166667
2964	0	0.166667
2965	0	0.166667
2966	0	0.166667
2967	0	0.166667
2968	0	0.166667
2969	0	0.166667
2970	0	0.166667
2971	0	0.889735
2972	0	0.915685
2973	0	0.917259
2974	0	0.917259
2975	0	0.542517
2976	0	0.483844
2977	0	0.872147
2978	0	0.870473
2979	0	0.333333
2980	0	0.333333
2981	0	1
2982	0	0.333333
2983	0	0.333333
2984	0	0.254545
2985	0	0.91963
2986	0	0
2987	0	0
2988	0	0
2989	0	0
2990	0	0.755086
2991	0	0.766035
2992	0	0.763136
2993	0	0
2994	0	0
2995	0	0
2996	0	0
2997	0	0
2998	0	0
2999	0	0
3000	0	0.1
3001	0	0.809043
3002	0	0.166008
3003	0	0.164502
3004	0	0.166667
3005	0	0.759579
3006	0	0.760888
3007	0	0.612096
3008	0	0.896245
3009	0	0.897873
3010	0	0.888196
3011	0	0.441595
3012	0	0.441595
3013	0	0.190883
3014	0	0.116402
3015	0	0.858134
3016	0	0
3017	0	0
3018	0	0.887474
3019	0	0
3020	0	0
3021	0	0
3022	0	0.661178
3023	0	0.600547
3024	0	0.309725
3025	0	0.309725
3026	0	0.261099
3027	0	0.260042
3028	0	0.677915
3029	0	1
3030	0	0
3031	0	0
3032	0	0
3033	0	0
3034	0	0
3035	0	0
3036	0	0
3037	0	0
3038	0	0
3039	0	0
3040	0	0
3041	0	0
3042	0	0
3043	0	0
3044	0	0
3045	0	0
3046	1	0
3047	1	0
3048	1	0
3049	0	0
3050	0	0
3051	1	0
3052	1	0
3053	1	0
3054	1	0
3055	1	0
3056	1	0
3057	0	0.333333
3058	0	0.333333
3059	0	0.333333
3060	0	0.333333
3061	0	0.333333
3062	0	0.333333
3063	0	0.333333
3064	0	0.333333
3065	0	0.333333
3066	0	0.333333
3067	0	0.333333
3068	0	0.333333
3069	0	0.333333
3070	0	0.333333
3071	0	0.333333
3072	0	0.333333
3073	0	0.333333
3074	0	0.333333
3075	0	0.333333
3076	0	0.333333
3077	0	0.333333
3078	0	0.333333
3079	0	0.166667
3080	0	0.1
3081	0	0.1
3082	0	0.1
3083	0	0.1
3084	0	0.133333
3085	0	0.107143
3086	0	0.107143
3087	0	0.0666667
3088	0	0.322524
3089	0	0.214493
3090	0	0.311373
3091	0	0.291301
3092	0	0.586572
3093	0	0.19153
3094	0	0.399338
3095	0	0.909332
3096	0	0.91255
3097	0	0.191176
3098	0	0.963543
3099	0	0.963543
3100	0	0.166667
3101	0	0.5
3102	0	0.5
3103	0	0.846154
3104	0	0.846154
3105	0	0.98109
3106	0	0.5
3107	0	0.991364
3108	0	0.991357
3109	0	0.99481
3110	0	0.99481
3111	0	0.99481
3112	0	0.99481
3113	0	0.99481
3114	0	0.99481
3115	0	0.99481
3116	0	1
3117	0	1
3118	0	1
3119	0	1
3120	0	0
3121	0	0
3122	0	0
3123	0	0
3124	0	0
3125	0	0
3126	0	0
3127	0	0.166667
3128	0	0.1
3129	0	0.975816
3130	0	0.913873
3131	0	0.838106
3132	0	0.630662
3133	0	0.178571
3134	0	0.640132
3135	0	0.75
3136	0	0.285714
3137	0	0.244444
3138	0	0.399433
3139	0	0
3140	0	0
3141	0	0
3142	0	0
3143	0	0
3144	0	0
3145	0	0.365385
3146	0	0.452763
3147	0	0.178947
3148	0	0.312292
3149	0	0.352876
3150	0	0.200985
3151	0	0.42561
3152	0	0.344203
3153	0	0.488889
3154	0	0.488889
3155	0	0.75
3156	0	0.583333
3157	0	0.886346
3158	0	0.191176
3159	0	0.153846
3160	0	0.2
3161	0	0.2
3162	0	0.2
3163	0	0.141026
3164	0	0.24
3165	0	0.186207
3166	0	0.156989
3167	0	0.272487
3168	0	0.398836
3169	0	0.404189
3170	0	0.413986
3171	0	0.0714286
3172	0	0.0714286
3173	0	0.178571
3174	0	0.166667
3175	0	0.675895
3176	0	0.651017
3177	0	0.732235
3178	0	0.872058
3179	0	0.886945
3180	0	1
3181	0	0.900561
3182	0	0.902291
3183	0	0.466667
3184	0	0.6
3185	0	0.6
3186	0	0.6
3187	0	0.6
3188	0	0.6
3189	0	0.6
3190	0	0.895773
3191	0	0.894221
3192	0	0.895861
3193	0	0.894221
3194	0	0.894221
3195	0	0
3196	0	0
3197	0	0
3198	0	0
3199	0	0
3200	0	0
3201	0	0
3202	0	0
3203	0	0
3204	0	0
3205	0	0
3206	0	0
3207	0	0
3208	0	0
3209	0	0
3210	0	0
3211	0	0
3212	0	0
3213	0	0
3214	0	0
3215	0	0
3216	0	0
3217	0	0
3218	0	0
3219	0	0
3220	0	0
3221	0	0
3222	0	0
3223	0	0
3224	0	0
3225	0	0
3226	0	1
3227	0	1
3228	0	1
3229	0	1
3230	0	1
3231	0	0.4
3232	0	0.333333
3233	0	0.873139
3234	0	0.871498
3235	0	0.302419
3236	0	0.302419
3237	0	0.855414
3238	0	0.855415
3239	0	0.855341
3240	0	0
3241	0	0
3242	0	0
3243	0	0
3244	0	0
3245	0	0
3246	0	0
3247	0	0
3248	0	0
3249	0	0
3250	0	0
3251	0	0.166667
3252	0	0.166667
3253	0	0.3
3254	0	0.3
3255	0	0.2
3256	0	0.142857
3257	0	0.142857
3258	0	0.285714
3259	0	0.218182
3260	0	0.840273
3261	0	0.832841
3262	0	0
3263	0	0
3264	0	0
3265	0	0
3266	0	0
3267	0	0
3268	0	0
3269	0	0.333333
3270	0	0.166667
3271	0	0.166667
3272	0	0.166667
3273	0	0.166667
3274	0	0
3275	0	0
3276	0	0
3277	0	0
3278	0	0
3279	0	0
3280	0	0
3281	0	0
3282	0	0
3283	0	0
3284	0	0.166667
3285	0	0.166667
3286	0	0.166667
3287	0	0.166667
3288	0	0.166667
3289	0	0.166667
3290	0	0.166667
3291	0	0.190476
3292	0	0.266667
3293	0	0.269231
3294	0	0.189474
3295	0	0.155844
3296	0	0.805819
3297	0	0.14449
3298	0	0.727887
3299	0	0
3300	0	0
3301	0	0
3302	0	0
3303	0	0
3304	0	0.32381
3305	0	0.280952
3306	0	0.277056
3307	0	0.181943
3308	0	0.179898
3309	0	0.144689
3310	0	0.130495
3311	0	0.704681
3312	0	0.434576
3313	0	0.26376
3314	0	0.153059
3315	0	0.126962
3316	0	0.183046
3317	0	0.219512
3318	0	0.219512
3319	0	0.219512
3320	0	0.289024
3321	0	0.687424
3322	0	0
3323	0	0
3324	0	0
3325	0	0
3326	0	0
3327	0	0
3328	0	0
3329	0	0
3330	0	0
3331	0	0
3332	0	0
3333	0	0
3334	0	0
3335	0	0
3336	0	0
3337	0	0
3338	0	0
3339	0	0
3340	0	0.368183
3341	0	0.851433
3342	0	0.166667
3343	0	0.166667
3344	0	0.166667
3345	0	0.166667
3346	0	0.166667
3347	0	0.166667
3348	0	0.166667
3349	0	0.166667
3350	0	0.166667
3351	0	0.395105
3352	0	0.142857
3353	0	0.2
3354	0	0.2
3355	0	0.107143
3356	0	0.107143
3357	0	0.109091
3358	0	0.572145
3359	0	0.110526
3360	0	0.125
3361	0	0.0808824
3362	0	0.0718954
3363	0	0.0718954
3364	0	0.0701754
3365	0	0.150538
3366	0	0.105051
3367	0	0.570467
3368	0	0.0782726
3369	0	0.047619
3370	0	0.047619
3371	0	0.0666667
3372	0	0.133333
3373	0	0
3374	0	0
3375	0	0
3376	0	0
3377	0	0
3378	0	0
3379	0	0.0181818
3380	0	0.0181818
3381	0	0.025641
3382	0	0.0890136
3383	0	0.449547
3384	0	0.570522
3385	0	0
3386	0	0
3387	0	0
3388	0	0
3389	0	0
3390	0	0
3391	0	0
3392	0	0
3393	0	0
3394	0	0
3395	0	0
3396	0	0
3397	0	0
3398	0	0
3399	0	0.591928
3400	0	0.166667
3401	0	0.166667
3402	0	0.166667
3403	0	0.166667
3404	0	0.1
3405	0	0.1
3406	0	0.1
3407	0	0.0666667
3408	0	0.111111
3409	0	0.0757576
3410	0	0.0757576
3411	0	0.0757576
3412	0	0.0769231
3413	0	0.0512821
3414	0	0.0571429
3415	0	0.0522876
3416	0	0.475164
3417	0	0
3418	0	0
3419	0	0
3420	0	0
3421	0	0
3422	0	0
3423	0	0.312715
3424	0	0.196521
3425	0	0.123227
3426	0	0.106434
3427	0	0.137014
3428	0	0.0984655
3429	0	0.101405
3430	0	0.0969697
3431	0	0.165875
3432	0	0.162478
3433	0	0.138562
3434	0	0.151261
3435	0	0.106026
3436	0	0.11917
3437	0	0.131868
3438	0	0.157176
3439	0	0.16
3440	0	0.173318
3441	0	0.180952
3442	0	0.189201
3443	0	0.197203
3444	0	0.226318
3445	0	0.22443
3446	0	0.232305
3447	0	0.239975
3448	0	0.255892
3449	0	0.28733
3450	0	0.288839
3451	0	0.311837
3452	0	0.402748
3453	0	0.464634
3454	0	0.51417
3455	0	0.0666667
3456	0	0.107143
3457	0	0.107143
3458	0	0.107143
3459	0	0
3460	0	0
3461	0	0
3462	0	0
3463	0	0
3464	0	0
3465	0	0
3466	0	0
3467	0	0
3468	0	0
3469	0	0
3470	0	0
3471	0	0
3472	0	0
3473	0	0
3474	0	0
3475	0	0
3476	0	0
3477	0	0
3478	0	0
3479	0	0
3480	0	0
3481	0	0
3482	0	0
3483	0	0
3484	0	0
3485	0	0
3486	0	0
3487	0	0
3488	0	0
3489	0	0
3490	0	0
3491	0	0
3492	0	0
3493	0	0
3494	0	0
3495	0	0
3496	0	0
3497	0	0.333333
3498	0	0.333333
3499	0	0.333333
3500	0	0.333333
3501	0	0.333333
3502	0	0.333333
3503	0	0.333333
3504	0	0.333333
3505	0	0.333333
3506	0	0.166667
3507	0	0.166667
3508	0	0.166667
3509	0	0.333333
3510	0	0.333333
3511	0	0.1
3512	0	0.0666667
3513	0	0.1
3514	0	0.1
3515	0	0.1
3516	0	0.1
3517	0	0.133333
3518	0	1
3519	0	1
3520	0	1
3521	0	1
3522	0	1
3523	0	1
3524	0	1
3525	0	1
3526	0	1
3527	0	1
3528	0	1
3529	0	1
3530	0	1
3531	0	1
3532	0	1
3533	0	1
3534	0	1
3535	0	1
3536	0	1
3537	0	1
3538	0	1
3539	0	0.333333
3540	0	0.111111
3541	0	0.209524
3542	0	0.287356
3543	0	0.179953
3544	0	0.14968
3545	0	0.116518
3546	0	0.243414
3547	0	0.259169
3548	0	0
3549	0	0
3550	0	0
3551	0	0
3552	0	0
3553	0	0
3554	0	0
3555	0	0
3556	0	0
3557	0	0.115483
3558	0	0.114892
3559	0	0.115244
3560	0	0.10456
3561	0	0.0909574
3562	0	0.0860137
3563	0	0.0199742
3564	0	0.0509873
3565	0	0.0548599
3566	0	0.0551378
3567	0	0.0520088
3568	0	0.0738357
3569	0	0.203348
3570	0	0.281786
3571	0	0.0942029
3572	0	0.0942029
3573	0	0.279741
3574	0	0.3
3575	0	0.3
3576	0	0.3
3577	0	0.3
3578	0	0.3
3579	0	0.3
3580	0	0.360923
3581	0	0.399367
3582	0	0.421076
3583	0	0.267501
3584	0	0.31148
3585	0	0.222222
3586	0	0.130406
3587	0	0.133333
3588	0	0.109091
3589	0	0.155556
3590	0	0.333333
3591	0	0.395604
3592	0	0.383333
3593	0	0.345029
3594	0	0.159791
3595	0	0.227354
3596	0	0.427923
3597	0	0.700929
3598	0	0.734388
3599	0	0.897153
3600	0	0.927444
3601	0	0.05
3602	0	0.055336
3603	0	0.0467836
3604	0	0.0514706
3605	0	0.043956
3606	0	0.0512821
3607	0	0.0606061
3608	0	0.151515
3609	0	0.181818
3610	0	0
3611	0	0
3612	0	0
3613	0	0
3614	0	0
3615	0	0.0666667
3616	0	0.0666667
3617	0	0.0666667
3618	0	0.4
3619	0	0.6
3620	0	0.6
3621	0	0.6
3622	0	0.6
3623	0	0.6
3624	0	0.6
3625	0	0.6
3626	0	0.6
3627	0	0.6
3628	0	0.6
3629	0	0.6
3630	0	0.6
3631	0	0.6
3632	0	0.986177
3633	0	0.986177
3634	0	0.986177
3635	0	0.986177
3636	0	0.98447
3637	0	0.98447
3638	0	0.984471
3639	0	0.98447
3640	0	0.98447
3641	0	0.984456
3642	0	0.984456
3643	0	0.986179
3644	0	0.987889
3645	0	0.987889
3646	0	0.987891
3647	0	0.991319
3648	0	0.991319
3649	0	0.991319
3650	0	0.991236
3651	0	0.991236
3652	1	0
3653	0	0
3654	0	0
3655	0	0
3656	0	0
3657	0	0
3658	0	0
3659	0	0
3660	0	0
3661	0	0
3662	0	0
3663	0	0
3664	0	0.987773
3665	0	0.987773
3666	0	0
3667	0	0
3668	0	0
3669	0	0.985996
3670	0	0.98428
3671	0	0.98428
3672	0	0.986022
3673	0	0.986022
3674	0	0.986022
3675	0	0.979074
3676	0	0.979072
3677	0	0.985909
3678	0	0.494505
3679	0	0.985996
3680	0	0.986008
3681	0	0.984268
3682	0	0.987752
3683	0	0.987752
3684	0	0.989488
3685	0	0.989488
3686	0	0.989488
3687	0	0.989478
3688	0	0.989469
3689	0	0.989469
3690	0	0.989469
3691	0	0.987719
3692	0	0.987719
3693	0	0
3694	0	0
3695	0	0
3696	0	0
3697	0	0
3698	0	0
3699	0	0
3700	0	0
3701	0	0
3702	0	0
3703	0	0
3704	0	0
3705	0	0
3706	0	0
3707	0	0
3708	0	0
3709	0	0
3710	0	0
3711	0	0
3712	0	0
3713	0	0
3714	0	0
3715	0	0
3716	0	0
3717	0	0
3718	0	0
3719	0	0
3720	0	0
3721	0	0
3722	0	0
3723	0	0
3724	0	0
3725	0	0
3726	0	0
3727	0	0
3728	0	0
3729	0	0
3730	0	0
3731	0	0
3732	0	0
3733	0	0
3734	0	0
3735	0	0
3736	0	0
3737	0	0
3738	0	0
3739	0	0
3740	0	0
3741	0	0
3742	0	0
3743	0	0
3744	0	0
3745	0	0
3746	0	0
3747	0	0
3748	0	0
3749	0	0
3750	0	0
3751	0	0.166667
3752	0	0.166667
3753	0	0.166667
3754	0	0.973317
3755	0	0.333333
3756	0	0.333333
3757	0	0.333333
3758	0	0.333333
3759	0	0.333333
3760	0	0.333333
3761	0	0.936166
3762	0	0.531202
3763	0	0.867133
3764	0	0.86423
3765	0	0.872474
3766	0	0.4
3767	0	0.4
3768	0	0.4
3769	0	0.4
3770	0	0.4
3771	0	0.4
3772	0	0.4
3773	0	0.4
3774	0	0.2
3775	0	0.2
3776	0	0.2
3777	0	0.2
3778	0	0.2
3779	0	0.2
3780	0	0.4
3781	0	0.4
3782	0	0.4
3783	0	0
3784	0	0
3785	0	0
3786	0	0
3787	0	0
3788	0	0
3789	0	0
3790	0	0.0666667
3791	0	0.0666667
3792	0	0
3793	0	0
3794	0	0
3795	0	0.556452
3796	0	0.556452
3797	0	0.468908
3798	0	0.40256
3799	0	0.322259
3800	0	0.307611
3801	0	0.294949
3802	0	0.768293
3803	0	0.85108
3804	0	0.832808
3805	0	0.832563
3806	0	0.810259
3807	0	0.333333
3808	0	0.333333
3809	0	0.333333
3810	0	0
3811	0	0.333333
3812	0	0.333333
3813	0	0.333333
3814	0	0.333333
3815	0	0
3816	0	0.333333
3817	0	0
3818	0	0
3819	0	0
3820	0	0
3821	0	0
3822	0	0
3823	0	0
3824	0	0
3825	0	0.910014
3826	0	0.902956
3827	0	0.895915
3828	0	0.441484
3829	0	0.476518
3830	0	0.466346
3831	0	0.46802
3832	0	0.291321
3833	0	0.217326
3834	0	0.207263
3835	0	0.184394
3836	0	0.209666
3837	0	0.19491
3838	0	0.190686
3839	0	0.123363
3840	0	0.126746
3841	0	0.121099
3842	0	0.114387
3843	0	0.118766
3844	0	0.128646
3845	0	0.0975132
3846	0	0.0997902
3847	0	0.0979223
3848	0	0.137367
3849	0	0.103573
3850	0	0.094097
3851	0	0.0857143
3852	0	0.102683
3853	0	0.0897436
3854	0	0.0780781
3855	0	0.0700758
3856	0	0.0544355
3857	0	0.0666667
3858	0	0.0645161
3859	0	0.0436782
3860	0	0.022792
3861	0	0.03
3862	0	0.0326087
3863	0	0.0707965
3864	0	0.0341394
3865	0	0.0369844
3866	0	0.0435435
3867	0	0.0435435
3868	0	0.0412698
3869	0	0.0396825
3870	0	0.0396825
3871	0	0.0776238
3872	0	0.079798
3873	0	0.0793939
3874	0	0.0344086
3875	0	0.0333333
3876	0	0.04329
3877	0	0.0526316
3878	0	0.0653595
3879	0	0.0735294
3880	0	0.0514706
3881	0	0.0588235
3882	0	0.0588235
3883	0	0.0512821
3884	0	0.0512821
3885	0	0
3886	0	0
3887	0	0
3888	0	0
3889	0	0
3890	0	0
3891	0	0
3892	0	0
3893	0	0
3894	0	0
3895	0	0
3896	0	0
3897	0	0
3898	0	0
3899	0	0
3900	0	0
3901	0	0
3902	0	0
3903	0	0
3904	0	0
3905	0	0
3906	0	0
3907	0	0
3908	0	0
3909	0	0
3910	0	0
3911	0	0
3912	0	0
3913	0	0
3914	0	0
3915	0	0
3916	0	0
3917	0	0
3918	0	0
3919	0	0
3920	0	0
3921	0	0
3922	0	0
3923	0	0
3924	0	0
3925	0	0
3926	0	0
3927	0	0
3928	0	0
3929	0	0
3930	0	0
3931	0	0
3932	0	0
3933	0	0
3934	0	0
3935	0	0
3936	0	0
3937	0	0
3938	0	0
3939	0	0
3940	0	0
3941	0	0
3942	0	0
3943	0	0
3944	0	0
3945	0	0
3946	0	0
3947	0	0
3948	0	0
3949	0	0
3950	0	0
3951	0	0
3952	0	0
3953	0	0
3954	0	0
3955	0	0
3956	0	0
3957	0	0
3958	0	0
3959	0	0
3960	0	0
3961	0	0
3962	0	0
3963	0	0
3964	0	0
3965	0	0
3966	0	0
3967	0	0
3968	0	0
3969	0	0.1
3970	0	0.0952381
3971	0	0.138029
3972	0	0.0444444
3973	0	0.0444444
3974	0	0.0444444
3975	0	0.0444444
3976	0	0.0444444
3977	0	0.0444444
3978	0	0.0222222
3979	0	0.0545455
3980	0	0.0545455
3981	0	0.0545455
3982	0	0.0545455
3983	0	0.0181818
3984	0	0.0181818
3985	0	0
3986	0	0.0181818
3987	0	0.0181818
3988	0	0.0151515
3989	0	0.0151515
3990	0	0.0678595
3991	0	0.0654065
3992	0	0.0643192
3993	0	0.0642451
3994	0	0.0151515
3995	0	0.0151515
3996	0	0.0151515
3997	0	0.0151515
3998	0	0.0151515
3999	0	0.0151515
4000	0	0.0151515
4001	0	0
4002	0	0
4003	0	0
4004	0	0
4005	0	0
4006	0	0.00833333
4007	0	0.0196078
4008	0	0.0142857
4009	0	0.022792
4010	0	0.055914
4011	0	0.0460317
4012	0	0.0327169
4013	0	0.0519234
4014	0	0.0477753
4015	0	0.0460373
4016	0	0.0354774
4017	0	0.0347148
4018	0	0.0324122
4019	0	0.0314911
4020	0	0.0359184
4021	0	0.0347689
4022	0	0.0371465
4023	0	0.03521
4024	0	0.0366499
4025	0	0.0431996
4026	0	0.040242
4027	0	0.0375414
4028	0	0.0365606
4029	0	0.0220842
4030	0	0.0209333
4031	0	0.0214014
4032	0	0.0206032
4033	0	0.0263238
4034	0	0.0475404
4035	0	0
4036	0	0
4037	0	0
4038	0	0
4039	0	0
4040	0	0
4041	0	0
4042	0	0
4043	0	0
4044	0	0
4045	0	0
4046	0	0
4047	0	0.0403473
4048	0	0.0497193
4049	0	0.0497193
4050	0	0.0484395
4051	0	0.0481898
4052	0	0.0191438
4053	0	0.0203272
4054	0	0.0211214
4055	0	0.0222358
4056	0	0.0210181
4057	0	0.0208624
4058	0	0.0193984
4059	0	0.0183353
4060	0	0.0176528
4061	0	0.0175219
4062	0	0.0152659
4063	0	0.022816
4064	0	0.0351489
4065	0	0.0351863
4066	0	0.0354804
4067	0	0
4068	0	0
4069	0	0
4070	0	0
4071	0	0
4072	0	0
4073	0	0
4074	0	0
4075	0	0
4076	0	0
4077	0	0
4078	0	0
4079	0	0
4080	0	0
4081	0	0
4082	0	0
4083	0	0
4084	0	0
4085	0	0
4086	0	0
4087	0	0
4088	0	0
4089	0	0.105488
4090	0	0.025
4091	0	0.025
4092	0	0.025
4093	0	0.025
4094	0	0.025
4095	0	0.025
4096	0	0.025
4097	0	0.025
4098	0	0.025
4099	0	0.0333333
4100	0	0.0333333
4101	0	0.0333333
4102	0	0.025
4103	0	0.025
4104	0	0.025
4105	0	0.107479
4106	0	0
4107	0	0
4108	0	0.00526316
4109	0	0.00526316
4110	0	0.00526316
4111	0	0.0142857
4112	0	0.00584795
4113	0	0
4114	0	0
4115	0	0
4116	0	0
4117	0	0
4118	0	0
4119	0	0
4120	0	0
4121	0	0
4122	0	0
4123	0	0.0166667
4124	0	0.00833333
4125	0	0
4126	0	0
4127	0	0
4128	0	0
4129	0	0
4130	0	0
4131	0	0
4132	0	0
4133	0	0
4134	0	0
4135	0	0
4136	0	0
4137	0	0
4138	0	0
4139	0	0
4140	0	0
4141	0	0
4142	0	0
4143	0	0
4144	0	0
4145	0	0
4146	0	0
4147	0	0
4148	0	0
4149	0	0
4150	0	0
4151	0	0
4152	0	0
4153	0	0
4154	0	0
4155	0	0
4156	0	0
4157	0	0
4158	0	0
4159	0	0
4160	0	0
4161	0	0
4162	0	0
4163	0	0
4164	0	0
4165	0	0
4166	0	0.0418517
4167	0	0
4168	0	0
4169	0	0
4170	0	0
4171	0	0
4172	0	0
4173	0	0
4174	0	0
4175	0	0
4176	0	0
4177	0	0
4178	0	0
4179	0	0
4180	0	0
4181	0	0
4182	0	0
4183	0	0
4184	0	0
4185	0	0
4186	0	0
4187	0	0
4188	0	0
4189	0	0
4190	0	0
4191	0	0.0227712
4192	0	0.0227224
4193	0	0.0207254
4194	0	0.0198618
4195	0	0.021427
4196	0	0.0222046
4197	0	0.0207189
4198	0	0.0219714
4199	0	0.0184557
4200	0	0.0194843
4201	0	0.0160506
4202	0	0.0160057
4203	0	0.0156326
4204	0	0.0151789
4205	0	0.00985222
4206	0	0.00985222
4207	0	0.00985222
4208	0	0.0123153
4209	0	0.0123153
4210	0	0.0123153
4211	0	0.0123153
4212	0	0.0123153
4213	0	0.0172414
4214	0	0.0172414
4215	0	0.0172414
4216	0	0.0172414
4217	0	0.0172414
4218	0	0.0172414
4219	0	0.0147783
4220	0	0.0147783
4221	0	0.0147783
4222	0	0.0147783
4223	0	0.00985222
4224	0	0.0123153
4225	0	0.0172043
4226	0	0.016129
4227	0	0.0137718
4228	0	0.0135035
4229	0	0.0159448
4230	0	0.015922
4231	0	0.0163537
4232	0	0.00378788
4233	0	0.00430108
4234	0	0.0045977
4235	0	0.0045977
4236	0	0.0045977
4237	0	0.00689655
4238	0	0.00689655
4239	0	0.00689655
4240	0	0.00689655
4241	0	0.00689655
4242	0	0.00689655
4243	0	0.0091954
4244	0	0.0091954
4245	0	0.0091954
4246	0	0.0114943
4247	0	0.0114943
4248	0	0.016092
4249	0	0.016092
4250	0	0.0114943
4251	0	0.0091954
4252	0	0.0091954
4253	0	0.0045977
4254	0	0.0045977
4255	0	0.00229885
4256	0	0.00229885
4257	0	0.00229885
4258	0	0.00229885
4259	0	0.00229885
4260	0	0.00229885
4261	0	0.00693069
4262	0	0.00621239
4263	0	0.00707851
4264	0	0.00707851
4265	0	0.00691763
4266	0	0.00756113
4267	0	0.00720721
4268	0	0.0385221
4269	0	0.0169173
4270	0	0.0169173
4271	0	0.0181704
4272	0	0.0163339
4273	0	0.014849
4274	0	0.015361
4275	0	0.0236025
4276	0	0.021312
4277	0	0.0115982
4278	0	0.0293993
4279	0	0
4280	0	0
4281	0	0
4282	0	0
4283	0	0
4284	0	0
4285	0	0.0186583
4286	0	0.0197977
4287	0	0.0182529
4288	0	0.0160946
4289	0	0.0166643
4290	0	0.0166643
4291	0	0.0159521
4292	0	0.0222767
4293	0	0.021932
4294	0	0
4295	0	0
4296	0	0
4297	0	0
4298	0	0
4299	0	0
4300	0	0
4301	0	0
4302	0	0
4303	0	0
4304	0	0
4305	0	0
4306	0	0
4307	0	0
4308	0	0
4309	0	0
4310	0	0
4311	0	0
4312	0	0
4313	0	0
4314	0	0
4315	0	0
4316	0	0
4317	0	0
4318	0	0
4319	0	0
4320	0	0
4321	0	0
4322	0	0
4323	0	0
4324	0	0
4325	0	0
4326	0	0
4327	0	0
4328	0	0
4329	0	0
4330	0	0
4331	0	0
4332	0	0
4333	0	0
4334	0	0
4335	0	0
4336	0	0
4337	0	0
4338	0	0
4339	0	0
4340	0	0
4341	0	0
4342	0	0
4343	0	0
4344	0	0
4345	0	0
4346	0	0
4347	0	0
4348	0	0
4349	0	0
4350	0	0
4351	0	0
4352	0	0
4353	0	0
4354	0	0
4355	0	0
4356	0	0
4357	0	0
4358	0	0
4359	0	0
4360	0	0
4361	0	0
4362	0	0
4363	0	0
4364	0	0
4365	0	0
4366	0	0
4367	0	0
4368	0	0
4369	0	0
4370	0	0
4371	0	0
4372	0	0
4373	0	0
4374	0	0
4375	0	0
4376	0	0
4377	0	0
4378	0	0
4379	0	0
4380	0	0
4381	0	0
4382	0	0
4383	0	0
4384	0	0
4385	0	0
4386	0	0
4387	0	0
4388	0	0
4389	0	0
4390	0	0
4391	0	0
4392	0	0
4393	0	0
4394	0	0
4395	0	0
4396	0	0
4397	0	0
4398	0	0
4399	0	0
4400	0	0
4401	0	0
4402	0	0
4403	0	0
4404	0	0
4405	0	0
4406	0	0
4407	0	0
4408	0	0
4409	0	0
4410	0	0
4411	0	0
4412	0	0
4413	0	0
4414	0	0
4415	0	0
4416	0	0
4417	0	0
4418	0	0
4419	0	0
4420	0	0
4421	0	0
4422	0	0
4423	0	0
4424	0	0
4425	0	0
4426	0	0
4427	0	0
4428	0	0
4429	0	0
4430	0	0
4431	0	0
4432	0	0
4433	0	0
4434	1	0
4435	1	0
4436	1	0
4437	1	0
4438	1	0
4439	1	0
4440	1	0
4441	1	0
4442	0	0
4443	0	0
4444	1	0
4445	0	0
4446	0	0
4447	0	0
4448	0	0
4449	0	0
4450	0	0
4451	0	0
4452	0	0
4453	0	0
4454	0	0
4455	0	0
4456	0	0
4457	0	0
4458	0	0.0833333
4459	0	0.0666667
4460	0	0.0857143
4461	0	0.075
4462	0	0.0588235
4463	0	0.0473684
4464	0	0.198431
4465	0	0.155556
4466	0	0.14411
4467	0	0.122735
4468	0	0.106287
4469	0	0.11194
4470	0	0.10559
4471	0	0.079321
4472	0	0.081529
4473	0	0.0799373
4474	0	0.128972
4475	0	0.0411402
4476	0	0.0403361
4477	0	0.0368337
4478	0	0.0405405
4479	0	0.0458763
4480	0	0.098832
4481	0	0.0905543
4482	0	0.0891088
4483	0	0.0888775
4484	0	0.0134953
4485	0	0.0148448
4486	0	0.0188934
4487	0	0.0148448
4488	0	0.0156472
4489	0	0.0128023
4490	0	0.0128023
4491	0	0.0113798
4492	0	0.0113798
4493	0	0.0113798
4494	0	0.0128023
4495	0	0.0128023
4496	0	0.0128023
4497	0	0.0128023
4498	0	0.012012
4499	0	0.0120259
4500	0	0.0111111
4501	0	0.0161616
4502	0	0.0141414
4503	0	0.0121212
4504	0	0.0121212
4505	0	0.00966184
4506	0	0.00966184
4507	0	0.00925069
4508	0	0.010628
4509	0	0.0115942
4510	0	0.0115942
4511	0	0.0144928
4512	0	0.013876
4513	0	0.045482
4514	0	0.0456206
4515	0	0.0666667
4516	0	0.0666667
4517	0	0.0666667
4518	0	0.0666667
4519	0	0.0666667
4520	0	0.0666667
4521	0	0.0666667
4522	0	0.0666667
4523	0	0.0666667
4524	0	0.0666667
4525	0	0.0666667
4526	0	0.0666667
4527	0	0.0666667
4528	0	0.0666667
4529	0	0.0666667
4530	0	0.0666667
4531	0	0.0666667
4532	0	0.0666667
4533	0	0.0666667
4534	0	0.0666667
4535	0	0.0666667
4536	0	0.0666667
4537	0	0.0666667
4538	0	0.0666667
4539	0	0.0666667
4540	0	0.0666667
4541	0	0.0666667
4542	0	0.0666667
4543	0	0.0666667
4544	0	0.0666667
4545	0	0.0666667
4546	0	0.0666667
4547	0	0.0666667
4548	0	0.0666667
4549	0	0.0666667
4550	0	0.0666667
4551	0	0.0666667
4552	0	0.0666667
4553	0	0.0666667
4554	0	0.0666667
4555	0	0.0666667
4556	0	0.0666667
4557	0	0.0666667
4558	0	0.0666667
4559	0	0.0666667
4560	0	0.0666667
4561	0	0.0666667
4562	0	0.0666667
4563	0	0.0666667
4564	0	0.0666667
4565	0	0.0666667
4566	0	0.0666667
4567	0	0.0666667
4568	0	0.0666667
4569	0	0.0666667
4570	0	0.0666667
4571	0	0.0666667
4572	0	0.0666667
4573	0	0.0666667
4574	0	0.0666667
4575	0	0.0666667
4576	0	0.0666667
4577	0	0.0666667
4578	0	0.0666667
4579	0	0.0666667
4580	0	0.047619
4581	0	0.0357143
4582	0	0.0357143
4583	0	0.0277778
4584	0	0.0277778
4585	0	0.0277778
4586	0	0.0222222
4587	0	0.0222222
4588	0	0.0151515
4589	0	0.0166667
4590	0	0.108046
4591	0	0.0761905
4592	0	0.0412299
4593	0	0.0270167
4594	0	0.0289948
4595	0	0.0100648
4596	0	0.0086645
4597	0	0.00854432
4598	0	0.00848562
4599	0	0.00780357
4600	0	0.00832321
4601	0	0.00809613
4602	0	0.0128205
4603	0	0.0128205
4604	0	0.0151515
4605	0	0.0151515
4606	0	0.0151515
4607	0	0.0151515
4608	0	0.0151515
4609	0	0.0128205
4610	0	0.0128205
4611	0	0.0128205
4612	0	0.0128205
4613	0	0.0128205
4614	0	0.010989
4615	0	0.00952381
4616	0	0.00952381
4617	0	0.0233918
4618	0	0.0233918
4619	0	0.00829361
4620	0	0.00848005
4621	0	0.00888889
4622	0	0.00915705
4623	0	0.00888431
4624	0	0.0199104
4625	0	0.0199878
4626	0	0.0214023
4627	0	0
4628	0	0
4629	0	0
4630	0	0
4631	0	0
4632	0	0
4633	0	0
4634	0	0
4635	0	0
4636	0	0
4637	0	0
4638	0	0
4639	0	0
4640	0	0
4641	0	0.00608828
4642	0	0.00570776
4643	0	0.00570776
4644	0	0.00570776
4645	0	0
4646	0	0
4647	0	0
4648	0	0
4649	0	0
4650	0	0.00584795
4651	0	0.00584795
4652	0	0.00584795
4653	0	0.00584795
4654	0	0.00518327
4655	0	0.00592373
4656	0	0.00468468
4657	0	0.00526316
4658	0	0.004662
4659	0	0.00444293
4660	0	0.00444293
4661	0	0.00832501
4662	0	0.00843882
4663	0	0.00802469
4664	0	0.0316168
4665	0	0.0261635
4666	0	0
4667	0	0
4668	0	0
4669	0	0
4670	0	0
4671	0	0
4672	0	0
4673	0	0
4674	0	0
4675	0	0
4676	0	0
4677	0	0
4678	0	0.00676163
4679	0	0.00676528
4680	0	0.0069755
4681	0	0.00663423
4682	0	0
4683	0	0
4684	0	0
4685	0	0
4686	0	0
4687	0	0
4688	0	0
4689	0	0
4690	0	0
4691	0	0
4692	0	0
4693	0	0
4694	0	0.00745987
4695	0	0.00678531
4696	0	0.00701226
4697	0	0.00653061
4698	0	0.00680272
4699	0	0.00765306
4700	0	0.00653061
4701	0	0.0070922
4702	0	0.00941176
4703	0	0.0109804
4704	0	0.00862745
4705	0	0.0101961
4706	0	0.00980392
4707	0	0.00980392
4708	0	0.011181
4709	0	0.00769081
4710	0	0.00779727
4711	0	0.00911593
4712	0	0.00905859
4713	0	0.00831327
4714	0	0.0226523
4715	0	0.0240257
4716	0	0.00705882
4717	0	0.00627451
4718	0	0.00571429
4719	0	0.00620567
4720	0	0.00555042
4721	0	0.00772947
4722	0	0.00772947
4723	0	0.00845666
4724	0	0.00634249
4725	0	0.00634249
4726	0	0.00528541
4727	0	0.00528541
4728	0	0.0263394
4729	0	0.0285714
4730	0	0.0285714
4731	0	0.0285714
4732	0	0.025
4733	0	0.0166667
4734	0	0.0166667
4735	0	0.0166667
4736	0	0.0166667
4737	0	0.0166667
4738	0	0.0166667
4739	0	0.0166667
4740	0	0.0166667
4741	0	0.0133401
4742	0	0.0130527
4743	0	0.0124964
4744	0	0.011392
4745	0	0.0115664
4746	0	0.0112221
4747	0	0.0140017
4748	0	0.0150347
4749	0	0.013597
4750	0	0.0164727
4751	0	0.0188453
4752	0	0.0198284
4753	0	0.0213092
4754	0	0.023076
4755	0	0.0284039
4756	0	0.0331551
4757	0	0.0107642
4758	0	0.0121871
4759	0	0.0102854
4760	0	0.00933454
4761	0	0.010929
4762	0	0.0137881
4763	0	0.00110742
4764	0	0
4765	0	0
4766	0	0
4767	0	0
4768	0	0
4769	0	0
4770	0	0
4771	0	0
4772	0	0
4773	0	0
4774	0	0
4775	0	0
4776	0	0
4777	0	0
4778	0	0
4779	0	0
4780	0	0
4781	0	0
4782	0	0
4783	0	0
4784	0	0
4785	0	0
4786	0	0
4787	0	0
4788	0	0
4789	0	0
4790	0	0
4791	0	0
4792	0	0
4793	0	0
4794	0	0
4795	0	0
4796	0	0
4797	0	0
4798	0	0
4799	0	0
4800	0	0
4801	0	0
4802	0	0
4803	0	0
4804	0	0
4805	0	0
4806	0	0
4807	0	0
4808	0	0
4809	0	0
4810	0	0
4811	0	0
4812	0	0
4813	0	0
4814	0	0
4815	0	0
4816	0	0
4817	0	0
4818	0	0
4819	0	0
4820	0	0
4821	0	0
4822	0	0
4823	0	0
4824	0	0
4825	0	0
4826	0	0
4827	0	0
4828	0	0
4829	0	0
4830	0	0
4831	0	0
4832	0	0
4833	0	0
4834	0	0
4835	0	0
4836	0	0
4837	0	0
4838	0	0
4839	0	0
4840	0	0
4841	0	0
4842	0	0
4843	0	0
4844	0	0
4845	0	0
4846	0	0
4847	0	0
4848	0	0
4849	0	0
4850	0	0
4851	0	0
4852	0	0
4853	0	0
4854	0	0
4855	0	0
4856	0	0
4857	0	0.0363636
4858	0	0.0363636
4859	0	0.0363636
4860	0	0.0363636
4861	0	0.0363636
4862	0	0.0363636
4863	0	0.0363636
4864	0	0.0888889
4865	0	0.0444444
4866	0	0.0444444
4867	0	0.0444444
4868	0	0.0444444
4869	0	0.0444444
4870	0	0.0444444
4871	0	0.0444444
4872	0	0.0444444
4873	0	0.0444444
4874	0	0.0444444
4875	0	0.0444444
4876	0	0.0444444
4877	0	0.0444444
4878	0	0.0444444
4879	0	0.0444444
4880	0	0.0444444
4881	0	0.0714286
4882	0	0.0714286
4883	0	0.0714286
4884	0	0.0666667
4885	0	0.0666667
4886	0	0.0666667
4887	0	0.1
4888	0	0.1
4889	0	0.1
4890	0	0.1
4891	0	0.1
4892	0	0.1
4893	0	0.1
4894	0	0.1
4895	0	0.1
4896	0	0.1
4897	0	0.1
4898	0	0.1
4899	0	0.1
4900	0	0.1
4901	0	0.1
4902	0	0.0666667
4903	0	0.0666667
4904	0	0.0666667
4905	0	0.0666667
4906	0	0.0666667
4907	0	0.0666667
4908	0	0.0666667
4909	0	0.0666667
4910	0	0.0666667
4911	0	0.0666667
4912	0	0.0666667
4913	0	0.0666667
4914	0	0.0666667
4915	0	0.0666667
4916	0	0.0666667
4917	0	0.0666667
4918	0	0.0666667
4919	0	0.0666667
4920	0	0.0666667
4921	0	0.0666667
4922	0	0.0666667
4923	0	0.0666667
4924	0	0.0666667
4925	0	0.0666667
4926	0	0.0666667
4927	0	0.0666667
4928	0	0.0666667
4929	0	0.0666667
4930	0	0.0666667
4931	0	0.0666667
4932	0	0.0666667
4933	0	0.0666667
4934	0	0.0666667
4935	0	0.0666667
4936	0	0.0666667
4937	0	0.0666667
4938	0	0.0666667
4939	0	0.0666667
4940	0	0.0666667
4941	0	0.0666667
4942	0	0.0666667
4943	0	0.0666667
4944	0	0.1
4945	0	0.1
4946	0	0.1
4947	0	0.1
4948	0	0.1
4949	0	0.1
4950	0	0.1
4951	0	0.1
4952	0	0.1
4953	0	0.1
4954	0	0.333333
4955	0	0.333333
4956	0	0.333333
4957	0	0.333333
4958	0	0.333333
4959	0	0.333333
4960	0	0.333333
4961	1	0
4962	1	0
4963	0	0
4964	0	0
4965	0	0
4966	0	0
4967	0	0
4968	0	0
4969	0	0
4970	0	0
4971	0	0
4972	0	0
4973	0	0
4974	0	0
4975	0	0
4976	0	0
4977	0	0
4978	1	0
4979	1	0
4980	1	0
4981	1	0
4982	1	0
4983	1	0
4984	1	0
4985	1	0
4986	1	0
4987	1	0
4988	1	0
4989	1	0
4990	1	0
4991	1	0
4992	1	0
4993	1	0
4994	1	0
4995	1	0
4996	1	0
4997	1	0
4998	1	0
4999	1	0
5000	1	0
5001	1	0
5002	1	0
5003	1	0
5004	1	0
5005	1	0
5006	1	0
5007	1	0
5008	1	0
5009	1	0
5010	1	0
5011	1	0
5012	1	0
5013	1	0
5014	1	0
5015	1	0
5016	1	0
5017	1	0
5018	1	0
5019	1	0
5020	1	0
5021	1	0
5022	1	0
5023	1	0
5024	1	0
5025	1	0
5026	1	0
5027	1	0
5028	1	0
5029	1	0
5030	1	0
5031	1	0
5032	1	0
5033	1	0
5034	1	0
5035	1	0
5036	1	0
5037	1	0
5038	1	0
5039	1	0
5040	1	0
5041	1	0
5042	1	0
5043	1	0
5044	1	0
5045	1	0
5046	1	0
5047	1	0
5048	1	0
5049	1	0
5050	1	0
5051	1	0
5052	1	0
5053	1	0
5054	1	0
5055	1	0
5056	1	0
5057	1	0
5058	1	0
5059	1	0
5060	1	0
5061	1	0
5062	1	0
5063	1	0
5064	1	0
5065	1	0
5066	1	0
5067	1	0
5068	1	0
5069	1	0
5070	1	0
5071	1	0
5072	1	0
5073	1	0
5074	1	0
5075	1	0
5076	1	0
5077	1	0
5078	1	0
5079	1	0
5080	1	0
5081	1	0
5082	1	0
5083	1	0
5084	1	0
5085	1	0
5086	1	0
5087	1	0
5088	1	0
5089	1	0
5090	1	0
5091	1	0
5092	1	0
5093	1	0
5094	1	0
5095	1	0
5096	1	0
5097	1	0
5098	1	0
5099	1	0
5100	1	0
5101	1	0
5102	1	0
5103	1	0
5104	1	0
5105	1	0
5106	1	0
5107	1	0
5108	1	0
5109	1	0
5110	1	0
5111	1	0
5112	1	0
5113	1	0
5114	1	0
5115	1	0
5116	1	0
5117	1	0
5118	1	0
5119	1	0
5120	1	0
5121	1	0
5122	1	0
5123	1	0
5124	1	0
5125	1	0
5126	1	0
5127	1	0
5128	1	0
5129	1	0
5130	1	0
5131	1	0
5132	1	0
5133	1	0
5134	1	0
5135	1	0
5136	1	0
5137	1	0
5138	1	0
5139	1	0
5140	1	0
5141	1	0
5142	1	0
5143	1	0
5144	1	0
5145	1	0
5146	1	0
5147	1	0
5148	1	0
5149	1	0
5150	1	0
5151	1	0
5152	1	0
5153	1	0
5154	1	0
5155	1	0
5156	1	0
5157	1	0
5158	1	0
5159	1	0
5160	1	0
5161	1	0
5162	1	0
5163	1	0
5164	1	0
5165	1	0
5166	1	0
5167	1	0
5168	1	0
5169	1	0
5170	1	0
5171	1	0
5172	1	0
5173	1	0
5174	1	0
5175	1	0
5176	1	0
5177	1	0
5178	1	0
5179	1	0
5180	1	0
5181	1	0
5182	1	0
5183	1	0
5184	1	0
5185	1	0
5186	1	0
5187	1	0
5188	1	0
5189	1	0
5190	1	0
5191	1	0
5192	1	0
5193	1	0
5194	1	0
5195	1	0
5196	1	0
5197	1	0
5198	1	0
5199	1	0
5200	1	0
5201	1	0
5202	1	0
5203	1	0
5204	1	0
5205	1	0
5206	1	0
5207	1	0
5208	1	0
5209	1	0
5210	1	0
5211	1	0
5212	1	0
5213	1	0
5214	1	0
5215	1	0
5216	1	0
5217	1	0
5218	1	0
5219	1	0
5220	1	0
5221	1	0
5222	1	0
5223	1	0
5224	1	0
5225	1	0
5226	1	0
5227	1	0
5228	1	0
5229	1	0
5230	1	0
5231	1	0
5232	1	0
5233	1	0
5234	1	0
5235	1	0
5236	1	0
5237	1	0
5238	1	0
5239	1	0
5240	1	0
5241	1	0
5242	1	0
5243	1	0
5244	1	0
5245	1	0
5246	1	0
5247	1	0
5248	1	0
5249	1	0
5250	1	0
5251	1	0
5252	1	0
5253	1	0
5254	1	0
5255	1	0
5256	1	0
5257	1	0
5258	1	0
5259	1	0
5260	1	0
5261	1	0
5262	1	0
5263	1	0
5264	1	0
5265	1	0
5266	1	0
5267	1	0
5268	1	0
5269	1	0
5270	1	0
5271	1	0
5272	1	0
5273	1	0
5274	1	0
5275	1	0
5276	1	0
5277	1	0
5278	1	0
5279	1	0
5280	1	0
5281	1	0
5282	1	0
5283	1	0
5284	1	0
5285	1	0
5286	1	0
5287	1	0
5288	1	0
5289	1	0
5290	1	0
5291	1	0
5292	1	0
5293	1	0
5294	1	0
5295	1	0
5296	1	0
5297	1	0
5298	1	0
5299	1	0
5300	1	0
5301	1	0
5302	1	0
5303	1	0
5304	1	0
5305	1	0
5306	1	0
5307	1	0
5308	1	0
5309	1	0
5310	1	0
5311	1	0
5312	1	0
5313	1	0
5314	1	0
5315	1	0
5316	1	0
5317	1	0
5318	1	0
5319	1	0
5320	1	0
5321	1	0
5322	1	0
5323	1	0
5324	1	0
5325	1	0
5326	1	0
5327	1	0
5328	1	0
5329	1	0
5330	1	0
5331	1	0
5332	1	0
5333	1	0
5334	1	0
5335	1	0
5336	1	0
5337	1	0
5338	1	0
5339	1	0
5340	1	0
5341	1	0
5342	1	0
5343	1	0
5344	1	0
5345	1	0
5346	1	0
5347	1	0
5348	1	0
5349	1	0
5350	1	0
5351	1	0
5352	1	0
5353	1	0
5354	1	0
5355	1	0
5356	1	0
5357	1	0
5358	1	0
5359	1	0
5360	1	0
5361	1	0
5362	1	0
5363	1	0
5364	1	0
5365	1	0
5366	1	0
5367	1	0
5368	1	0
5369	1	0
5370	1	0
5371	1	0
5372	1	0
5373	1	0
5374	1	0
5375	1	0
5376	1	0
5377	1	0
5378	1	0
5379	1	0
5380	1	0
5381	1	0
5382	1	0
5383	1	0
5384	1	0
5385	1	0
5386	1	0
5387	1	0
5388	1	0
5389	1	0
5390	1	0
5391	1	0
5392	1	0
5393	1	0
5394	1	0
5395	1	0
5396	1	0
5397	1	0
5398	1	0
5399	1	0
5400	1	0
5401	1	0
5402	1	0
5403	1	0
5404	1	0
5405	1	0
5406	1	0
5407	1	0
5408	1	0
5409	1	0
5410	1	0
5411	1	0
5412	1	0
5413	1	0
5414	1	0
5415	1	0
5416	1	0
5417	1	0
5418	1	0
5419	1	0
5420	1	0
5421	1	0
5422	1	0
5423	1	0
