Site	ColumnScore	SumOfPairsScore
1	1	0
2	1	0
3	1	0
4	1	0
5	1	0
6	1	0
7	1	0
8	1	0
9	1	0
10	1	0
11	1	0
12	1	0
13	1	0
14	1	0
15	1	0
16	1	0
17	1	0
18	1	0
19	1	0
20	1	0
21	1	0
22	1	0
23	1	0
24	1	0
25	1	0
26	1	0
27	1	0
28	1	0
29	1	0
30	1	0
31	0	0.333333
32	0	0.333333
33	0	0.333333
34	0	0.333333
35	0	0.333333
36	0	0.333333
37	0	0.333333
38	0	0.333333
39	0	0.333333
40	0	0.333333
41	0	0.333333
42	0	0.333333
43	0	0.333333
44	0	0.333333
45	0	0.333333
46	0	0.333333
47	0	0.333333
48	0	0.333333
49	0	0.333333
50	0	0.333333
51	0	0.333333
52	0	0.333333
53	0	0.333333
54	0	0.333333
55	0	0.333333
56	0	0.333333
57	0	0.333333
58	0	0.333333
59	0	0.333333
60	0	0.333333
61	0	0.333333
62	0	0
63	0	0
64	0	0
65	0	0
66	0	0
67	0	0.333333
68	0	0.333333
69	0	0.333333
70	0	0.333333
71	0	0.333333
72	0	0.333333
73	0	0.333333
74	0	0.333333
75	0	0.333333
76	0	0.333333
77	0	0.333333
78	0	0.333333
79	0	0.333333
80	0	0.333333
81	0	0.333333
82	0	0.333333
83	0	0.333333
84	0	0.333333
85	0	0.333333
86	0	0.333333
87	0	0.333333
88	0	0.333333
89	0	0.333333
90	0	0.333333
91	0	0.333333
92	0	0.333333
93	0	0.333333
94	0	0.333333
95	0	0.333333
96	0	0.333333
97	0	0.333333
98	0	0.333333
99	0	0.333333
100	0	0.333333
101	0	0.333333
102	0	0.333333
103	0	0.333333
104	0	0.333333
105	0	0.333333
106	0	0.333333
107	0	0.333333
108	0	0.2
109	0	0.2
110	0	0.2
111	0	0.2
112	0	0.333333
113	0	0.333333
114	0	0.333333
115	0	0.333333
116	0	0.333333
117	0	0.333333
118	0	0.333333
119	0	0.333333
120	0	0.333333
121	0	0.333333
122	0	0.333333
123	0	0.333333
124	0	0.333333
125	0	0.333333
126	0	0.333333
127	0	0.333333
128	0	0.333333
129	0	0.333333
130	0	0.333333
131	0	0.333333
132	0	0.333333
133	0	0.333333
134	0	0.333333
135	0	0.333333
136	0	1
137	0	1
138	0	1
139	0	1
140	0	1
141	0	1
142	0	1
143	0	1
144	0	1
145	0	1
146	0	1
147	0	1
148	0	1
149	0	1
150	0	1
151	0	1
152	0	1
153	0	1
154	0	1
155	0	1
156	0	1
157	0	1
158	0	1
159	0	1
160	0	0.333333
161	0	0.333333
162	0	0.333333
163	0	0.333333
164	0	0.333333
165	0	0.333333
166	0	0.333333
167	0	0.333333
168	0	0.333333
169	0	0.333333
170	0	0.333333
171	0	0.333333
172	0	0.333333
173	0	0.333333
174	0	0.333333
175	0	0.333333
176	0	0.333333
177	0	0.333333
178	0	0.333333
179	0	0.333333
180	0	0.333333
181	0	0.333333
182	0	0.166667
183	0	0.166667
184	0	0.166667
185	0	0.166667
186	0	0.166667
187	0	0.166667
188	0	0.111111
189	0	0.111111
190	0	0.111111
191	0	0.0833333
192	0	0.133333
193	0	0.133333
194	0	0.133333
195	0	0.133333
196	0	0.133333
197	0	0.133333
198	0	0.133333
199	0	0.133333
200	0	0.133333
201	0	0.133333
202	0	0.133333
203	0	0.133333
204	0	0.133333
205	0	0.133333
206	0	0.133333
207	0	0.133333
208	0	0.133333
209	0	0.133333
210	0	0.133333
211	0	0.133333
212	0	0.133333
213	0	0.133333
214	0	0.133333
215	0	0.133333
216	0	0.190476
217	0	0.190476
218	0	0.190476
219	0	0.190476
220	0	0.190476
221	0	0.190476
222	0	0.190476
223	0	0.190476
224	0	0.190476
225	0	0.190476
226	0	0.190476
227	0	0.190476
228	0	0.166667
229	0	0.166667
230	0	0.166667
231	0	0.166667
232	0	0.166667
233	0	0.166667
234	0	0.166667
235	0	0.166667
236	0	0.166667
237	0	0.166667
238	0	0.166667
239	0	0.166667
240	0	0.166667
241	0	0.166667
242	0	0.166667
243	0	0.166667
244	0	0.166667
245	0	0.166667
246	0	0.166667
247	0	0.1
248	0	0.1
249	0	0.1
250	0	0.1
251	0	0.1
252	0	0.1
253	0	0.1
254	0	0.1
255	0	0.1
256	0	0.1
257	0	0.1
258	0	0.1
259	0	0.1
260	0	0.1
261	0	0.1
262	0	0.1
263	0	0.1
264	0	0.1
265	0	0.1
266	0	0.1
267	0	0.1
268	0	0.1
269	0	0.1
270	0	0.1
271	0	0.0666667
272	0	0.0666667
273	0	0.0666667
274	0	0.0666667
275	0	0.0666667
276	0	0.0666667
277	0	0.0666667
278	0	0.0666667
279	0	0.047619
280	0	0.047619
281	0	0.047619
282	0	0.047619
283	0	0.047619
284	0	0.047619
285	0	0.047619
286	0	0.047619
287	0	0.047619
288	0	0.047619
289	0	0.047619
290	0	0.047619
291	0	0.047619
292	0	0.047619
293	0	0.047619
294	0	0.047619
295	0	0.047619
296	0	0.0357143
297	0	0.0357143
298	0	0.0357143
299	0	0.0357143
300	0	0.0357143
301	0	0.0357143
302	0	0.0357143
303	0	0.0357143
304	0	0.0357143
305	0	0.0357143
306	0	0.0357143
307	0	0.0357143
308	0	0.0357143
309	0	0.0357143
310	0	0.0357143
311	0	0.0357143
312	0	0.0357143
313	0	0.0357143
314	0	0.0357143
315	0	0.0357143
316	0	0.0357143
317	0	0.0357143
318	0	0.0357143
319	0	0.0357143
320	0	0.0357143
321	0	0.0357143
322	0	0.0357143
323	0	0.0357143
324	0	0.0357143
325	0	0.0357143
326	0	0.0357143
327	0	0.0357143
328	0	0.0357143
329	0	0.0357143
330	0	0.0357143
331	0	0.0357143
332	0	0.0357143
333	0	0.0357143
334	0	0.0357143
335	0	0.0357143
336	0	0.0357143
337	0	0.0357143
338	0	0.0357143
339	0	0.0357143
340	0	0.0357143
341	0	0.0357143
342	0	0.0357143
343	0	0.0357143
344	0	0.0357143
345	0	0.0357143
346	0	0.0357143
347	0	0.0357143
348	0	0
349	0	0
350	0	0.0357143
351	0	0.0357143
352	0	0.0357143
353	0	0.0357143
354	0	0.0357143
355	0	0.0357143
356	0	0.0357143
357	0	0.0357143
358	0	0.0357143
359	0	0.0357143
360	0	0.0357143
361	0	0.0357143
362	0	0.0357143
363	0	0.0357143
364	0	0.0357143
365	0	0.0357143
366	0	0.0357143
367	0	0.0357143
368	0	0.0357143
369	0	0.0357143
370	0	0.0357143
371	0	0.0357143
372	0	0.0357143
373	0	0.0357143
374	0	0.0357143
375	0	0.0357143
376	0	0.0357143
377	0	0.0357143
378	0	0.0357143
379	0	0.0357143
380	0	0.0357143
381	0	0.0357143
382	0	0.0357143
383	0	0.0357143
384	0	0.0357143
385	0	0.0357143
386	0	0.0357143
387	0	0.0357143
388	0	0.0357143
389	0	0.0357143
390	0	0.0357143
391	0	0.0357143
392	0	0.0357143
393	0	0.0357143
394	0	0.0357143
395	0	0.0357143
396	0	0.0357143
397	0	0.0357143
398	0	0.0357143
399	0	0.0357143
400	0	0.0357143
401	0	0.0357143
402	0	0.0357143
403	0	0.0357143
404	0	0.0357143
405	0	0.0357143
406	0	0.0357143
407	0	0.0357143
408	0	0.0357143
409	0	0.0357143
410	0	0.0357143
411	0	0.0357143
412	0	0.0357143
413	0	0.0357143
414	0	0.0357143
415	0	0.0357143
416	0	0.0357143
417	0	0.0357143
418	0	0.0357143
419	0	0.0357143
420	0	0.0357143
421	0	0.0357143
422	0	0.0277778
423	0	0.0277778
424	0	0.0277778
425	0	0.0277778
426	0	0.0277778
427	0	0.0277778
428	0	0.0277778
429	0	0.0277778
430	0	0.0277778
431	0	0.0277778
432	0	0.0277778
433	0	0.0277778
434	0	0.0277778
435	0	0.0277778
436	0	0.0277778
437	0	0.0277778
438	0	0.0277778
439	0	0.0277778
440	0	0.0277778
441	0	0.0277778
442	0	0.0277778
443	0	0.0277778
444	0	0.0277778
445	0	0.0277778
446	0	0.0277778
447	0	0.0277778
448	0	0.0277778
449	0	0.0277778
450	0	0.0277778
451	0	0.0277778
452	0	0.0277778
453	0	0.0277778
454	0	0.0277778
455	0	0.0277778
456	0	0.0277778
457	0	0.0277778
458	0	0.0277778
459	0	0.0277778
460	0	0.0277778
461	0	0.0277778
462	0	0.0277778
463	0	0.0277778
464	0	0.0277778
465	0	0.0277778
466	0	0.0277778
467	0	0.0277778
468	0	0.0277778
469	0	0.0277778
470	0	0.0277778
471	0	0.0277778
472	0	0.0277778
473	0	0.0277778
474	0	0.0277778
475	0	0.0277778
476	0	0.0277778
477	0	0.0277778
478	0	0.0277778
479	0	0.0277778
480	0	0.0277778
481	0	0.0277778
482	0	0.0277778
483	0	0.0277778
484	0	0.0277778
485	0	0.0277778
486	0	0.0277778
487	0	0.0222222
488	0	0.0222222
489	0	0.0222222
490	0	0.0222222
491	0	0.0222222
492	0	0.0222222
493	0	0.0222222
494	0	0.0222222
495	0	0.0222222
496	0	0.0222222
497	0	0.0222222
498	0	0.0222222
499	0	0.0181818
500	0	0.0181818
501	0	0.0181818
502	0	0.0181818
503	0	0.0181818
504	0	0.0181818
505	0	0.0363636
506	0	0.0363636
507	0	0.0363636
508	0	0.0363636
509	0	0.0363636
510	0	0.0363636
511	0	0.0363636
512	0	0.0363636
513	0	0.0363636
514	0	0.0181818
515	0	0.0181818
516	0	0.0181818
517	0	0.0181818
518	0	0.0181818
519	0	0.0181818
520	0	0.0181818
521	0	0.0181818
522	0	0.0181818
523	0	0.0181818
524	0	0.0181818
525	0	0.0181818
526	0	0.0181818
527	0	0.0181818
528	0	0.0181818
529	0	0.0181818
530	0	0.0181818
531	0	0.0151515
532	0	0.0128205
533	0	0.021978
534	0	0.021978
535	0	0.021978
536	0	0.0380952
537	0	0.0326797
538	0	0.0326797
539	0	0.0326797
540	0	0.0522876
541	0	0.0467836
542	0	0.0421053
543	0	0.0421053
544	0	0.0421053
545	0	0.0421053
546	0	0.0421053
547	0	0.0421053
548	0	0.0421053
549	0	0.0473684
550	0	0.0473684
551	0	0.0315789
552	0	0.0315789
553	0	0.0263158
554	0	0.0263158
555	0	0.0263158
556	0	0.0263158
557	0	0.0166667
558	0	0.0166667
559	0	0.0166667
560	0	0.0166667
561	0	0.0166667
562	0	0.0166667
563	0	0.0166667
564	0	0.0166667
565	0	0.0166667
566	0	0.0166667
567	0	0.0166667
568	0	0.0166667
569	0	0.0166667
570	0	0.0292398
571	0	0.0263158
572	0	0.0233918
573	0	0.0615942
574	0	0.0368421
575	0	0.0368421
576	0	0.0368421
577	0	0.0368421
578	0	0.0368421
579	0	0.0380952
580	0	0.0380952
581	0	0.0519481
582	0	0.0562771
583	0	0.0584615
584	0	0.0584615
585	0	0.0584615
586	0	0.0553846
587	0	0.0553846
588	0	0.0553846
589	0	0.0553846
590	0	0.0553846
591	0	0.0430769
592	0	0.0430769
593	0	0.0217391
594	0	0.0246154
595	0	0.0184615
596	0	0.0184615
597	0	0.0166667
598	0	0.0181159
599	0	0.0147059
600	0	0.0147059
601	0	0.0147059
602	0	0.00833333
603	0	0.00735294
604	0	0.00735294
605	0	0.00735294
606	0	0.00735294
607	0	0.00735294
608	0	0.0147059
609	0	0.0147059
610	0	0.0147059
611	0	0.0147059
612	0	0.0147059
613	0	0.0147059
614	0	0.0147059
615	0	0.0147059
616	0	0.0147059
617	0	0.00735294
618	0	0.00735294
619	0	0.00735294
620	0	0.00735294
621	0	0.00653595
622	0	0.00653595
623	0	0.0105263
624	0	0.030303
625	0	0.030303
626	0	0.030303
627	0	0.027668
628	0	0.25776
629	0	0.25776
630	0	0.25776
631	0	0.259109
632	0	0.259109
633	0	0.246154
634	0	0.215947
635	0	0.215947
636	0	0.168076
637	0	0.160606
638	0	0.167019
639	0	0.182346
640	0	0.205074
641	0	0.205074
642	0	0.205074
643	0	0.205074
644	0	0.18744
645	0	0.18744
646	0	0.18744
647	0	0.188406
648	0	0.181314
649	0	0.170048
650	0	0.162812
651	0	0.156915
652	0	0.080481
653	0	0.0814061
654	0	0.0201613
655	0	0.0172043
656	0	0.13321
657	0	0.148011
658	0	0.156915
659	0	0.156915
660	0	0.151361
661	0	0.128581
662	0	0.128581
663	0	0.116702
664	0	0.116003
665	0	0.116003
666	0	0.120464
667	0	0.111785
668	0	0.111785
669	0	0.074026
670	0	0.0847059
671	0	0.0784314
672	0	0.0784314
673	0	0.0177187
674	0	0.0519126
675	0	0.0519774
676	0	0.0846154
677	0	0.0846154
678	0	0.0846154
679	0	0.0839161
680	0	0.0515604
681	0	0.0582751
682	0	0.0582751
683	0	0.0565355
684	0	0.0540793
685	0	0.0452214
686	0	0.0301418
687	0	0.0334694
688	0	0.0680751
689	0	0.0724206
690	0	0.099374
691	0	0.099374
692	0	0.099374
693	0	0.0732946
694	0	0.0776488
695	0	0.0698812
696	0	0.0680135
697	0	0.0754717
698	0	0.0642857
699	0	0.0636364
700	0	0.0551787
701	0	0.107283
702	0	0.0781513
703	0	0.0865546
704	0	0.0739289
705	0	0.0724095
706	0	0.0761548
707	0	0.0464865
708	0	0.0659341
709	0	0.0554335
710	0	0.0680841
711	0	0.0922121
712	0	0.0979455
713	0	0.0682562
714	0	0.0668039
715	0	0.0800439
716	0	0.0830474
717	0	0.0552454
718	0	0.0573024
719	0	0.0778456
720	0	0.0711111
721	0	0.0660575
722	0	0.0698648
723	0	0.067033
724	0	0.0609337
725	0	0.0600064
726	0	0.0603126
727	0	0.0618417
728	0	0.0661128
729	0	0.0719589
730	0	0.0719589
731	0	0.0705751
732	0	0.0707618
733	0	0.0752747
734	0	0.0792453
735	0	0.0818198
736	0	0.0759725
737	0	0.0873315
738	0	0.169159
739	0	0.141156
740	0	0.124995
741	0	0.129944
742	0	0.118515
743	0	0.123548
744	0	0.119487
745	0	0.109366
746	0	0.128114
747	0	0.128334
748	0	0.147224
749	0	0.358973
750	0	0.363734
751	0	0.446471
752	0	0.460235
753	0	0.527094
754	0	0.527094
755	0	0.339181
756	0	0.107143
757	0	0.142857
758	0	0.142857
759	0	0.2
760	0	0.2
761	0	0.226433
762	0	0.234903
763	0	0.183333
764	0	0.0888889
765	0	0.288285
766	0	0.334154
767	0	0.128928
768	0	0.132572
769	0	0.142279
770	0	0.188413
771	0	0.115023
772	0	0.135211
773	0	0.583665
774	0	0.137255
775	0	0.145833
776	0	0.174877
777	0	0.174877
778	0	0.0421053
779	0	0.0367647
780	0	0.021978
781	0	0.021978
782	0	0.021978
783	0	0.021978
784	0	0.021978
785	0	0.0588235
786	0	0.0588235
787	0	0.032967
788	0	0.0196078
789	0	0.0190476
790	0	0.0190476
791	0	0.0190476
792	0	0.0190476
793	0	0.0190476
794	0	0.0190476
795	0	0.0190476
796	0	0.0190476
797	0	0.0190476
798	0	0.0190476
799	0	0.0190476
800	0	0.0190476
801	0	0.0190476
802	0	0.0190476
803	0	0.0285714
804	0	0.0333333
805	0	0.0333333
806	0	0.0333333
807	0	0.0333333
808	0	0.81429
809	0	0.0641026
810	0	0.0384615
811	0	0.0444444
812	0	0.0444444
813	0	0.0444444
814	0	0.0444444
815	0	0.0444444
816	0	0.0555556
817	0	0.0555556
818	0	0.0555556
819	0	0.111111
820	0	0.111111
821	0	0.111111
822	0	0.111111
823	0	0.111111
824	0	0.111111
825	0	0.111111
826	0	0.111111
827	0	0.111111
828	0	0.111111
829	0	0.0714286
830	0	0.0714286
831	0	0.0714286
832	0	0.0714286
833	0	0.0714286
834	0	0.0714286
835	0	0.0714286
836	0	0.0714286
837	0	0.0714286
838	0	0.0714286
839	0	0.0714286
840	0	0.0714286
841	0	0.0714286
842	0	0.0714286
843	0	0.0714286
844	0	0.214286
845	0	0.214286
846	0	0.214286
847	0	0.214286
848	0	0.0714286
849	0	0.0714286
850	0	0.0714286
851	0	0.0714286
852	0	0.0714286
853	0	0.0714286
854	0	0.0714286
855	0	0.0714286
856	0	0.0952381
857	0	0.0952381
858	0	0.0952381
859	0	0.0952381
860	0	0.0952381
861	0	0.0952381
862	0	0.0952381
863	0	0.0952381
864	0	0.0952381
865	0	0.0952381
866	0	0.0952381
867	0	0.0952381
868	0	0.0952381
869	0	0.0952381
870	0	0.0952381
871	0	0.0952381
872	0	0.0952381
873	0	0.0952381
874	0	0.0952381
875	0	0.0952381
876	0	0.0952381
877	0	0.0952381
878	0	0.0952381
879	0	0.0952381
880	0	0.0952381
881	0	0.0952381
882	0	0.0952381
883	0	0.0952381
884	0	0.0952381
885	0	0.0952381
886	0	0.0952381
887	0	0.0952381
888	0	0.0952381
889	0	0.0666667
890	0	0.0666667
891	0	0.0666667
892	0	0.0666667
893	0	0.0666667
894	0	0.0666667
895	0	0.0666667
896	0	0.0666667
897	0	0.0666667
898	0	0.0666667
899	0	0.0666667
900	0	0.0666667
901	0	0.0666667
902	0	0.0666667
903	0	0.0666667
904	0	0.0666667
905	0	0.0666667
906	0	0.0666667
907	0	0.0666667
908	0	0.0666667
909	0	0.0666667
910	0	0.0666667
911	0	0.0666667
912	0	0.0666667
913	0	0.0666667
914	0	0.0666667
915	0	0.0666667
916	0	0.0666667
917	0	0.0666667
918	0	0.0666667
919	0	0.0666667
920	0	0.0666667
921	0	0.0666667
922	0	0.0666667
923	0	0.0666667
924	0	0.0666667
925	0	0.0666667
926	0	0.0666667
927	0	0.0666667
928	0	0.0666667
929	0	0.0666667
930	0	0.0666667
931	0	0.0666667
932	0	0.1
933	0	0.1
934	0	0.1
935	0	0.1
936	0	0.1
937	0	0.1
938	0	0.1
939	0	0.1
940	0	0.1
941	0	0.1
942	0	0.1
943	0	0.1
944	0	0.1
945	0	0.1
946	0	0.1
947	0	0.1
948	0	0.1
949	0	0.1
950	0	0.1
951	0	0.1
952	0	0.1
953	0	0.1
954	0	0.1
955	0	0.1
956	0	0.1
957	0	0.1
958	0	0.1
959	0	0.1
960	0	0.1
961	0	0.1
962	0	0.1
963	0	0.1
964	0	0.1
965	0	0.1
966	0	0.1
967	0	0.1
968	0	0.1
969	0	0.1
970	0	0.1
971	0	0.1
972	0	0.1
973	0	0.1
974	0	0.1
975	0	0.1
976	0	0.1
977	0	0.1
978	0	0.1
979	0	0.1
980	0	0.1
981	0	0.1
982	0	0.1
983	0	0.1
984	0	0.1
985	0	0.1
986	0	0.1
987	0	0.1
988	0	0.1
989	0	0.1
990	0	0.1
991	0	0.1
992	0	0.1
993	0	0.1
994	0	0.1
995	0	0.1
996	0	0.1
997	0	0.1
998	0	0.1
999	0	0.1
1000	0	0.1
1001	0	0.1
1002	0	0.1
1003	0	0.1
1004	0	0.1
1005	0	0.1
1006	0	0.1
1007	0	0.1
1008	0	0.1
1009	0	0.1
1010	0	0.1
1011	0	0.133333
1012	0	0.133333
1013	0	0.133333
1014	0	0.266667
1015	0	0.266667
1016	0	0.266667
1017	0	0.266667
1018	0	0.439394
1019	0	0.417582
1020	0	0.919362
1021	0	0.133333
1022	0	0.133333
1023	0	0.133333
1024	0	0.133333
1025	0	0.133333
1026	0	0.133333
1027	0	0.133333
1028	0	0.133333
1029	0	0.133333
1030	0	0.133333
1031	0	0.133333
1032	0	0.190476
1033	0	0.25
1034	0	0.305556
1035	0	0.166667
1036	0	0.166667
1037	0	0.166667
1038	0	0.166667
1039	0	0.166667
1040	0	0.166667
1041	0	0.166667
1042	0	0.166667
1043	0	0.166667
1044	0	0.166667
1045	0	0.166667
1046	0	0.166667
1047	0	0.166667
1048	0	0.166667
1049	0	0.166667
1050	0	0.166667
1051	0	0.166667
1052	0	0.166667
1053	0	0.166667
1054	0	0.166667
1055	0	0.166667
1056	0	0.166667
1057	0	0.166667
1058	0	0.166667
1059	0	0.5
1060	0	0.5
1061	0	0.5
1062	0	0.5
1063	0	0.5
1064	0	0.5
1065	0	0.5
1066	0	0.5
1067	0	0.5
1068	0	0.5
1069	0	0.5
1070	0	0.5
1071	0	0.5
1072	0	0.5
1073	0	0.5
1074	0	0.5
1075	0	0.5
1076	0	0.5
1077	0	0.5
1078	0	0.5
1079	0	1
1080	0	1
1081	0	1
1082	0	1
1083	0	0.953801
1084	0	0.954022
1085	0	0.333333
1086	0	0.333333
1087	0	0.494505
1088	0	0
1089	0	0
1090	0	0
1091	0	0
1092	0	0
1093	0	0
1094	0	0
1095	0	0
1096	0	0
1097	0	0
1098	0	0
1099	0	0
1100	0	0
1101	0	0
1102	0	0
1103	0	0
1104	0	0
1105	0	0
1106	0	0
1107	0	0
1108	0	0
1109	0	0
1110	0	0
1111	0	0
1112	0	0
1113	0	0
1114	0	0
1115	0	0
1116	0	0
1117	0	0
1118	0	0
1119	0	0
1120	0	0
1121	0	0
1122	0	0
1123	0	0
1124	0	0
1125	0	0
1126	0	0
1127	0	0
1128	0	0
1129	0	0
1130	0	0
1131	0	0
1132	0	0
1133	0	0
1134	0	0
1135	0	0
1136	0	0
1137	0	0
1138	0	0
1139	0	0
1140	0	0
1141	0	0
1142	0	0
1143	0	0
1144	0	0.974979
1145	0	0
1146	0	0
1147	0	0
1148	0	0
1149	0	0
1150	0	0
1151	0	0
1152	0	0
1153	0	0
1154	0	0
1155	0	0
1156	0	0
1157	0	0
1158	0	0
1159	0	0
1160	0	0
1161	0	0
1162	0	0
1163	0	0
1164	0	0
1165	0	0
1166	0	0
1167	0	0
1168	0	0
1169	0	0
1170	0	0
1171	0	0
1172	0	0
1173	0	0
1174	0	0
1175	0	0
1176	0	0
1177	0	0
1178	0	0
1179	0	0
1180	0	0
1181	0	0
1182	0	0
1183	0	0
1184	0	0
1185	0	0
1186	0	0
1187	0	0
1188	0	0
1189	0	0
1190	0	0
1191	0	0
1192	0	0
1193	0	0
1194	0	0
1195	0	0
1196	0	0
1197	0	0.988367
1198	0	0.990291
1199	0	0
1200	0	0
1201	0	0
1202	0	0
1203	0	0
1204	0	0
1205	0	0
1206	0	0
1207	0	0
1208	0	0
1209	0	0
1210	0	0
1211	0	0
1212	0	0
1213	0	0
1214	0	0
1215	0	0
1216	0	0
1217	0	0
1218	0	0
1219	0	0
1220	0	0
1221	0	0
1222	0	0
1223	0	0
1224	0	0
1225	0	0
1226	0	0
1227	0	0
1228	0	0
1229	0	0
1230	0	0
1231	0	0
1232	0	0
1233	0	0
1234	0	0
1235	0	0
1236	0	0
1237	0	0
1238	0	0
1239	0	0
1240	0	0
1241	0	0
1242	0	0
1243	0	0
1244	0	0
1245	0	0
1246	0	0
1247	0	0
1248	0	0
1249	0	0
1250	0	0
1251	0	0
1252	0	0
1253	0	0
1254	0	0
1255	0	0
1256	0	0
1257	0	0
1258	0	0
1259	0	0
1260	0	0
1261	0	0
1262	0	0
1263	0	0
1264	0	0
1265	0	0
1266	0	0
1267	0	0
1268	0	0
1269	0	0
1270	0	0
1271	0	0
1272	0	0
1273	0	0
1274	0	0
1275	0	0
1276	0	0
1277	0	0
1278	0	0
1279	0	0
1280	0	0
1281	0	0.988367
1282	0	0.988378
1283	0	0.988378
1284	0	0.986447
1285	0	0
1286	0	0
1287	0	0
1288	0	0.988411
1289	0	0.988411
1290	0	0.988411
1291	0	0.4
1292	0	0.166667
1293	0	0.166667
1294	0	0.166667
1295	0	0.166667
1296	0	0.166667
1297	0	0.982613
1298	0	0.904762
1299	0	0.904762
1300	0	0.680339
1301	0	0.47798
1302	0	0.754553
1303	0	0.75265
1304	0	0
1305	0	0
1306	0	0
1307	0	0
1308	0	0
1309	0	0
1310	0	0
1311	0	0
1312	0	0
1313	0	0
1314	0	0
1315	0	0
1316	0	0
1317	0	0
1318	0	0
1319	0	0
1320	0	0
1321	0	0
1322	0	0
1323	0	0
1324	0	0
1325	0	0
1326	0	0
1327	0	0
1328	0	0
1329	0	0
1330	0	0
1331	0	0
1332	0	0
1333	0	0
1334	0	0
1335	0	0
1336	0	0
1337	0	0
1338	0	0
1339	0	0
1340	0	0
1341	0	0
1342	0	0
1343	0	0
1344	0	0
1345	0	0
1346	0	0.5
1347	0	0.86411
1348	0	0.583744
1349	0	0.285714
1350	0	0.1
1351	0	0
1352	0	0
1353	0	0
1354	0	0
1355	0	0
1356	0	0.69244
1357	0	0.692697
1358	0	0.691734
1359	0	0.694893
1360	0	0.677737
1361	1	0
1362	1	0
1363	1	0
1364	1	0
1365	1	0
1366	1	0
1367	1	0
1368	0	0.352381
1369	0	0.461538
1370	0	0
1371	0	0
1372	0	0
1373	0	0
1374	0	0.1
1375	0	0.0666667
1376	0	0.692724
1377	0	0.681948
1378	0	0
1379	0	0
1380	0	0
1381	0	0
1382	0	0
1383	0	0
1384	0	0
1385	0	0
1386	0	0
1387	0	0
1388	0	0
1389	0	0
1390	0	0
1391	0	0
1392	0	0
1393	0	0
1394	0	0
1395	0	0
1396	0	0
1397	0	0
1398	0	0
1399	0	0
1400	0	0
1401	0	0
1402	0	0
1403	0	0
1404	0	0
1405	0	0
1406	0	0
1407	0	0
1408	0	0
1409	0	0
1410	0	0
1411	0	0
1412	0	0
1413	0	0
1414	0	0
1415	0	0
1416	0	0
1417	0	0
1418	0	0
1419	0	0
1420	0	0
1421	0	0
1422	0	0.4
1423	0	0.47619
1424	0	0.917591
1425	0	0.915434
1426	0	0.304762
1427	0	0.417582
1428	0	0.505495
1429	0	0.541667
1430	0	0.477941
1431	0	0.833333
1432	0	0.965673
1433	0	0
1434	0	0
1435	0	0
1436	0	0
1437	0	0
1438	0	0
1439	0	0
1440	0	0
1441	0	0
1442	0	0
1443	0	0
1444	0	0
1445	0	0
1446	0	0
1447	0	0
1448	0	0
1449	0	0
1450	0	0
1451	0	0
1452	0	0
1453	0	0
1454	0	0
1455	0	0
1456	0	0
1457	0	0
1458	0	0
1459	0	0
1460	0	0
1461	0	0
1462	0	0
1463	0	0
1464	0	0
1465	0	0
1466	0	0
1467	0	0
1468	0	0
1469	0	0
1470	0	0
1471	0	0
1472	0	0
1473	0	0
1474	0	0
1475	0	0
1476	0	0
1477	0	0
1478	0	0
1479	0	0
1480	0	0
1481	0	0
1482	0	0
1483	0	0
1484	0	0
1485	0	0
1486	1	0
1487	0	0
1488	0	0
1489	0	0
1490	0	0
1491	0	0
1492	0	0
1493	0	0
1494	0	0
1495	0	0
1496	0	0
1497	0	0
1498	0	0
1499	0	0
1500	0	0
1501	0	0
1502	0	0
1503	0	0
1504	0	0
1505	0	0
1506	0	0
1507	0	0
1508	0	0
1509	0	0
1510	0	0
1511	0	0
1512	0	0
1513	0	0
1514	0	0
1515	0	0
1516	0	0
1517	0	0
1518	0	0
1519	0	0
1520	0	0
1521	0	0
1522	0	0
1523	0	0
1524	0	0
1525	0	0
1526	0	0
1527	0	0
1528	0	0
1529	0	0
1530	0	0
1531	0	0
1532	0	0
1533	0	0
1534	0	0
1535	0	0
1536	0	0
1537	0	0
1538	0	0
1539	0	0
1540	0	0
1541	0	0
1542	0	0
1543	0	0
1544	0	0
1545	0	0
1546	0	0
1547	0	0
1548	0	0
1549	0	0
1550	0	0
1551	0	0
1552	0	0
1553	0	0
1554	0	0
1555	0	0
1556	0	0
1557	0	0
1558	0	0
1559	0	0
1560	0	0
1561	0	0
1562	0	0
1563	0	0
1564	0	0
1565	0	0
1566	0	0
1567	0	0
1568	0	0
1569	0	0
1570	0	0
1571	0	0
1572	0	0
1573	0	0
1574	0	0
1575	0	0
1576	0	0
1577	0	0
1578	0	0
1579	0	0
1580	0	0
1581	1	0
1582	1	0
1583	1	0
1584	1	0
1585	1	0
1586	1	0
1587	1	0
1588	0	0
1589	0	0
1590	0	0
1591	0	0
1592	0	0
1593	0	0
1594	0	0
1595	0	0
1596	0	0
1597	0	0
1598	0	0
1599	0	0
1600	0	0
1601	0	0
1602	0	0
1603	0	0
1604	0	0
1605	0	0.758333
1606	0	0.758333
1607	0	0.758333
1608	0	0.875
1609	0	0.99422
1610	0	0.99422
1611	0	0.99422
1612	0	0.99422
1613	0	0.99422
1614	0	0.99422
1615	0	0.99422
1616	0	0.99422
1617	0	0.99422
1618	0	0.99422
1619	0	1
1620	0	0.969291
1621	0	0.378839
1622	0	0
1623	0	0.730774
1624	0	0.896005
1625	0	0.867144
1626	0	0.867144
1627	0	0.984375
1628	0	0.984496
1629	0	0.996137
1630	0	0
1631	0	0
1632	1	0
1633	1	0
1634	1	0
1635	1	0
1636	1	0
1637	1	0
1638	1	0
1639	1	0
1640	1	0
1641	0	0
1642	0	0
1643	0	0
1644	0	0
1645	0	0
1646	0	0
1647	0	0
1648	0	0
1649	0	0.994231
1650	0	0.994231
1651	0	0.994231
1652	0	0.994231
1653	0	0.994231
1654	0	0.994231
1655	0	0.994231
1656	0	0.994231
1657	0	0.994231
1658	0	0.996148
1659	0	0.994225
1660	0	0.996145
1661	0	0
1662	0	0
1663	0	0
1664	0	0
1665	0	0
1666	0	0
1667	0	0
1668	0	0
1669	0	0
1670	0	0
1671	0	0
1672	0	0
1673	0	0
1674	0	0
1675	0	0
1676	0	0
1677	0	0
1678	0	0
1679	0	0
1680	0	1
1681	0	0.47619
1682	0	0.666667
1683	0	0.47619
1684	0	0.4
1685	0	0.361111
1686	0	1
1687	0	0.996137
1688	0	0.998062
1689	0	0.998062
1690	0	0.998062
1691	0	0.99613
1692	0	0.905923
1693	0	0.994197
1694	0	0.99613
1695	0	0.996137
1696	0	0.996141
1697	0	0.996141
1698	0	0.99422
1699	0	0.99422
1700	0	0.99422
1701	0	0.994225
1702	0	0
1703	0	0.990385
1704	0	0
1705	0	0
1706	0	0
1707	0	0.994227
1708	0	0.994227
1709	0	0.994227
1710	0	0.994225
1711	0	0.994231
1712	0	0.994231
1713	0	0.994231
1714	0	0.992311
1715	1	0
1716	1	0
1717	1	0
1718	1	0
1719	1	0
1720	1	0
1721	1	0
1722	0	0
1723	0	0
1724	0	0
1725	0	0
1726	0	0.995592
1727	0	0.166667
1728	0	0
1729	0	0.909447
1730	0	0.90953
1731	0	0.498024
1732	0	0.893688
1733	0	0.893659
1734	0	0
1735	0	0
1736	0	0.927843
1737	0	0.515679
1738	0	0.64924
1739	0	0.849231
1740	0	0.669692
1741	0	0.97059
1742	0	0.992319
1743	0	0.994236
1744	0	0.994236
1745	0	0.994236
1746	1	0
1747	1	0
1748	1	0
1749	1	0
1750	1	0
1751	1	0
1752	1	0
1753	1	0
1754	1	0
1755	0	0
1756	0	0
1757	0	0
1758	0	0
1759	0	0
1760	0	0
1761	0	0
1762	0	0
1763	0	0
1764	0	0
1765	0	0.996156
1766	0	0.996156
1767	0	0.996156
1768	0	0.996156
1769	0	1
1770	0	0.973372
1771	0	0.97527
1772	0	0.975246
1773	0	0.9875
1774	0	0.9875
1775	0	0.969583
1776	0	0.954204
1777	0	0.952762
1778	0	0.952762
1779	0	0.952762
1780	0	0
1781	0	0.333333
1782	0	0
1783	0	0.713426
1784	0	0.751724
1785	0	0.749425
1786	0	0.704814
1787	0	0.901531
1788	0	0.903344
1789	0	0.266667
1790	0	0.266667
1791	0	0.2
1792	0	0.266667
1793	0	0.266667
1794	0	0.914502
1795	0	0.912702
1796	0	0.794294
1797	0	0.847795
1798	0	0.947368
1799	0	0.984726
1800	0	0.982821
1801	0	1
1802	0	1
1803	0	1
1804	0	1
1805	0	1
1806	0	1
1807	0	1
1808	1	1
1809	1	1
1810	1	1
1811	1	1
1812	1	1
1813	0	1
1814	0	1
1815	0	1
1816	0	1
1817	0	1
1818	0	1
1819	0	1
1820	0	0.998071
1821	0	0.996126
1822	0	0.979791
1823	0	0.982737
1824	0	0.990414
1825	0	0.990405
1826	1	0
1827	1	0
1828	1	0
1829	1	0
1830	1	0
1831	1	0
1832	1	0
1833	1	0
1834	1	0
1835	0	0.982143
1836	0	0.982143
1837	0	0.96476
1838	0	0.871671
1839	0	0.856022
1840	0	0.676832
1841	0	0.842345
1842	0	0.257576
1843	0	0.978871
1844	0	0.975108
1845	0	0.977005
1846	0	0.97517
1847	0	0.975194
1848	0	0.977093
1849	0	0.266667
1850	0	0.266667
1851	0	0.266667
1852	0	0.97709
1853	0	0.97709
1854	0	0.97709
1855	0	0.97709
1856	0	0.977112
1857	0	0.607937
1858	0	0.607937
1859	0	0.923167
1860	0	0.483159
1861	0	0.39946
1862	0	0.876254
1863	0	0.870971
1864	0	0.869174
1865	0	0.2
1866	0	0.236364
1867	0	0.2
1868	0	0.2
1869	0	0.2
1870	0	0.0666667
1871	0	0.047619
1872	0	0.047619
1873	0	0.0714286
1874	0	0.0909091
1875	0	0.843781
1876	0	0.397436
1877	0	0.269006
1878	0	0.263158
1879	0	0.242754
1880	0	0.196667
1881	0	0.091133
1882	0	0.358052
1883	0	0.641397
1884	0	0.62978
1885	0	0.333333
1886	0	0.166667
1887	0	0
1888	0	0
1889	0	0.0666667
1890	0	0.0714286
1891	0	0.0555556
1892	0	0.109091
1893	0	0.145455
1894	0	0.634006
1895	0	0.511307
1896	0	0
1897	0	0
1898	0	0.0572764
1899	0	0.0581921
1900	0	0.0971129
1901	0	0.101276
1902	0	0.109845
1903	0	0.107241
1904	0	0.362115
1905	0	0.404104
1906	0	0.409042
1907	0	0.411412
1908	0	0.144522
1909	0	0.0888889
1910	0	0.0888889
1911	0	0.0888889
1912	0	0.0888889
1913	0	0.166667
1914	0	0.404933
1915	0	0.388298
1916	0	0.120773
1917	0	0.120773
1918	0	0.0952381
1919	0	0.36909
1920	0	0.364947
1921	0	0.365382
1922	0	0.36427
1923	0	0.361136
1924	0	0.156863
1925	0	0.140351
1926	0	0.0861538
1927	0	0.116883
1928	0	0.113333
1929	0	0.294981
1930	0	0.366903
1931	0	0.327675
1932	0	0.260438
1933	0	0.234111
1934	0	0.286986
1935	0	0.379607
1936	0	0.385724
1937	0	0.384279
1938	0	0.273032
1939	0	0.134955
1940	0	0.102825
1941	0	0.0998185
1942	0	0.106955
1943	0	0.102843
1944	0	0.0831731
1945	0	0.123831
1946	0	0.110205
1947	0	0.0532418
1948	0	0.0545727
1949	0	0.12287
1950	0	0.115553
1951	0	0.119245
1952	0	0.0643424
1953	0	0.0941351
1954	0	0.0554959
1955	0	0.0574421
1956	0	0.0591347
1957	0	0.10434
1958	0	0.093064
1959	0	0.0962152
1960	0	0.0952403
1961	0	0
1962	0	0
1963	0	0
1964	0	0
1965	0	0
1966	0	0
1967	0	0.123751
1968	0	0.3
1969	0	0.119312
1970	0	0.118251
1971	0	0.132486
1972	0	0.0836265
1973	0	0.0664005
1974	0	0
1975	0	0
1976	0	0
1977	0	0
1978	0	0.110759
1979	0	0.0832168
1980	0	0.107309
1981	0	0.0755506
1982	0	0
1983	0	0
1984	0	0
1985	0	0
1986	0	0
1987	0	0.214286
1988	0	0.166667
1989	0	0.166667
1990	0	0.194444
1991	0	0.0430014
1992	0	0.0639916
1993	0	0.0803871
1994	0	0.0375811
1995	0	0.0480253
1996	0	0
1997	0	0
1998	0	0
1999	0	0
2000	0	0
2001	0	0.0714286
2002	0	0.188682
2003	0	0.155808
2004	0	0
2005	0	0
2006	0	0
2007	0	0
2008	0	0
2009	0	0
2010	0	0
2011	0	0
2012	0	0
2013	0	0
2014	0	0
2015	0	0.0530633
2016	0	0.0638607
2017	0	0.0682148
2018	0	0.0273176
2019	0	0.0464142
2020	0	0.0423242
2021	0	0.085934
2022	0	0.0323669
2023	0	0.0345747
2024	0	0.0261992
2025	0	0.0273785
2026	0	0.0253027
2027	0	0.0250226
2028	0	0.0227732
2029	0	0.027992
2030	0	0.0310632
2031	0	0.0279999
2032	0	0.0401625
2033	0	0.0388582
2034	0	0.0378775
2035	0	0
2036	0	0
2037	0	0
2038	0	0
2039	0	0
2040	0	0
2041	0	0
2042	0	0
2043	0	0
2044	0	0
2045	0	0
2046	0	0
2047	0	0
2048	0	0
2049	0	0
2050	0	0
2051	0	0
2052	0	0
2053	0	0
2054	0	0
2055	0	0.0470552
2056	0	0.777778
2057	0	0.777778
2058	0	0.777778
2059	0	0.0547309
2060	0	0.0705696
2061	0	0.0719281
2062	0	0.120213
2063	0	0.0544047
2064	0	0.0532153
2065	0	0.067878
2066	0	0.491009
2067	0	0.523142
2068	0	0.523142
2069	0	0.501232
2070	0	0.249464
2071	0	0.270783
2072	0	0.256907
2073	0	0.254545
2074	0	0.333428
2075	0	0.245293
2076	0	0.217598
2077	0	0.247601
2078	0	0.457778
2079	0	0.456364
2080	0	0.132965
2081	0	0.113518
2082	0	0.122614
2083	0	0.158649
2084	0	0.225
2085	0	0.0666667
2086	0	0.0666667
2087	0	0
2088	0	0
2089	0	0
2090	0	0
2091	0	0
2092	0	0.586173
2093	0	0.586173
2094	0	0.719875
2095	0	0.377152
2096	0	0.387928
2097	0	0.311871
2098	0	0.376623
2099	0	0.551515
2100	0	0.4
2101	0	0.533382
2102	0	0.5
2103	0	0.5
2104	0	0.5
2105	0	0
2106	0	0
2107	0	0
2108	0	0
2109	0	0
2110	0	0
2111	0	0
2112	0	0.195048
2113	0	0.160369
2114	0	0.223746
2115	0	0.251683
2116	0	0.0384615
2117	0	0.0454545
2118	0	0.193536
2119	0	0.0433333
2120	0	0.20519
2121	0	0.105431
2122	0	0.110717
2123	0	0.103775
2124	0	0.136422
2125	0	0.0591133
2126	0	0.200716
2127	0	0.0844894
2128	0	0.0790113
2129	0	0.104144
2130	0	0.117347
2131	0	0.0953266
2132	0	0.0867388
2133	0	0.0773097
2134	0	0.0583594
2135	0	0.05854
2136	0	0.0752688
2137	0	0.0752688
2138	0	0.075691
2139	0	0.106061
2140	0	0.106061
2141	0	0.106061
2142	0	0.106061
2143	0	0.106061
2144	0	0.106061
2145	0	0.116959
2146	0	0.0511948
2147	0	0.0543166
2148	0	0.0779661
2149	0	0.080226
2150	0	0.0755255
2151	0	0.0853207
2152	0	0.311111
2153	0	0.311111
2154	0	0.311111
2155	0	0.311111
2156	0	0.311111
2157	0	0.222222
2158	0	0.222222
2159	0	0.222222
2160	0	0.0397516
2161	0	0.0585476
2162	0	0.0519405
2163	0	0.0494684
2164	0	0
2165	0	0
2166	0	0.166667
2167	0	0
2168	0	0.333333
2169	0	0.333333
2170	0	0
2171	0	0
2172	0	0
2173	0	0.0438881
2174	0	0.0506396
2175	0	0.045122
2176	0	0.0311677
2177	0	0.0831511
2178	0	0
2179	0	0
2180	0	0
2181	0	0
2182	0	0.6
2183	0	0.6
2184	0	0.6
2185	0	0.6
2186	0	0.6
2187	0	0
2188	0	0
2189	0	0
2190	0	0
2191	0	0
2192	0	0.0568212
2193	0	0.0888889
2194	0	0.0888889
2195	0	0.111111
2196	0	0.111111
2197	0	0.104158
2198	0	0.101195
2199	0	0.091105
2200	0	0.199147
2201	0	0.199147
2202	0	0.137694
2203	0	0.219219
2204	0	0.219219
2205	0	0.217718
2206	0	0.0911022
2207	0	0.158361
2208	0	0.333333
2209	0	0.333333
2210	0	0.333333
2211	0	0.333333
2212	0	0.333333
2213	0	0.0873979
2214	0	0.0703552
2215	0	1
2216	0	1
2217	0	0.227106
2218	0	0.272464
2219	0	0.256577
2220	0	0.181818
2221	0	0.255091
2222	0	0.251532
2223	0	0.0919993
2224	0	0.071365
2225	0	0.0656383
2226	0	0.0742809
2227	0	0.0691869
2228	0	0.515789
2229	0	0.466667
2230	0	0.117224
2231	0	0.0729869
2232	0	0.165584
2233	0	0.217532
2234	0	0.236364
2235	0	0.199032
2236	0	0.215225
2237	0	0.133628
2238	0	0.0666667
2239	0	0.047619
2240	0	0.0666667
2241	0	0.0666667
2242	0	0.133333
2243	0	0.133333
2244	0	0.107143
2245	0	0.107143
2246	0	0.25
2247	0	0.148764
2248	0	0.795322
2249	0	0.125698
2250	0	0.154184
2251	0	0.208333
2252	0	0.298192
2253	0	0.375279
2254	0	0.421924
2255	0	0.458007
2256	0	0.451307
2257	0	0.450091
2258	0	0.545658
2259	0	0.897531
2260	0	0.905844
2261	0	0.566532
2262	0	1
2263	0	1
2264	0	1
2265	0	1
2266	0	0.975139
2267	0	0.977064
2268	0	0.97517
2269	0	0.978946
2270	0	0.986533
2271	0	0
2272	1	0
2273	1	0
2274	1	0
2275	1	0
2276	1	0
2277	1	0
2278	1	0
2279	1	0
2280	1	0
2281	1	0
2282	1	0
2283	1	0
2284	1	0
2285	1	0
2286	1	0
2287	1	0
2288	0	0.988456
2289	0	0.988467
2290	0	0.992319
2291	0	0.992319
2292	0	0.992326
2293	0	0.992326
2294	0	0
2295	0	0
2296	1	0
2297	1	0
2298	1	0
2299	1	0
2300	1	0
2301	1	0
2302	1	0
2303	1	0
2304	1	0
2305	1	0
2306	1	0
2307	1	0
2308	1	0
2309	1	0
2310	1	0
2311	1	0
2312	1	0
2313	1	0
2314	1	0
2315	1	0
2316	1	0
2317	1	0
2318	1	0
2319	1	0
2320	1	0
2321	1	0
2322	1	0
2323	1	0
2324	1	0
2325	1	0
2326	1	0
2327	1	0
2328	0	0
2329	0	0
2330	0	0
2331	0	0
2332	0	0
2333	0	0
2334	0	0
2335	0	0
2336	0	0
2337	0	0
2338	0	0
2339	0	0
2340	0	0
2341	0	0
2342	0	0
2343	0	0
2344	0	0
2345	0	0
2346	0	0
2347	0	0
2348	0	0
2349	0	0
2350	0	0
2351	0	0
2352	0	0
2353	0	0
2354	0	0
2355	0	0
2356	0	0
2357	0	0
2358	0	0
2359	0	0
2360	0	0
2361	0	0
2362	0	0
2363	0	0
2364	0	0
2365	0	0
2366	0	0
2367	0	0
2368	0	0
2369	0	0
2370	0	0
2371	0	0
2372	0	0
2373	0	0
2374	0	0
2375	0	0
2376	0	0
2377	0	0
2378	0	0
2379	0	0.994236
2380	0	0.994236
2381	0	0.994236
2382	0	0.994242
2383	0	0.994242
2384	0	0.994242
2385	0	0.996159
2386	0	0.996159
2387	0	0.996159
2388	0	0.996159
2389	0	0.994247
2390	0	0.996163
2391	0	0.996163
2392	0	0.996163
2393	0	0.996163
2394	0	0.996163
2395	0	0.996163
2396	0	0
2397	0	0
2398	0	0
2399	0	0
2400	0	0
2401	0	0
2402	0	0
2403	0	0
2404	0	0
2405	0	0
2406	0	0
2407	0	0
2408	0	0
2409	0	0
2410	0	0
2411	0	0
2412	0	0
2413	0	0
2414	0	0
2415	0	0
2416	0	0
2417	0	0
2418	0	0
2419	0	0
2420	0	0
2421	0	0
2422	0	0
2423	0	0
2424	0	0
2425	0	0
2426	0	0
2427	0	0
2428	0	0
2429	0	0
2430	0	0
2431	0	0
2432	0	0
2433	0	0
2434	0	0
2435	0	0
2436	0	0
2437	0	0
2438	0	0
2439	0	0
2440	0	0
2441	0	0
2442	0	0
2443	0	0
2444	0	0.997696
2445	0	0.997691
2446	1	1
2447	1	1
2448	0	0.716203
2449	0	0.716203
2450	0	0.714709
2451	0	0.702064
2452	0	0.699775
2453	0	0.695799
2454	0	0.694801
2455	0	0.69869
2456	0	0.70049
2457	0	0.707252
2458	0	1
2459	0	0.994247
2460	0	0.994247
2461	0	0.994247
2462	0	0.996163
2463	0	0.996163
2464	0	0.996159
2465	0	0.996159
2466	0	0.996159
2467	0	0.996159
2468	0	0.996159
2469	0	0.996159
2470	0	0.996159
2471	0	0.996159
2472	0	0.996159
2473	0	0.996159
2474	0	0.996159
2475	0	0.996159
2476	0	0.996159
2477	0	0.996159
2478	0	0.996159
2479	0	0.996159
2480	0	0.996159
2481	0	1
2482	0	0.333333
2483	0	0
2484	0	0
2485	0	0
2486	0	0.992313
2487	0	1
2488	0	0
2489	0	0
2490	0	0
2491	0	0.984649
2492	0	0.516153
2493	0	0
2494	0	0.889837
2495	0	0.730132
2496	0	1
2497	0	0.95122
2498	0	0.95122
2499	0	0.95122
2500	0	0.95122
2501	0	0.95122
2502	1	1
2503	1	1
2504	1	1
2505	0	1
2506	0	1
2507	0	1
2508	0	1
2509	0	1
2510	0	1
2511	0	0.667029
2512	0	0
2513	0	0
2514	0	0
2515	0	0
2516	0	0
2517	0	0.839154
2518	0	0.320513
2519	0	0.664615
2520	0	1
2521	0	1
2522	0	0.975211
2523	0	0.975198
2524	0	0.644444
2525	0	1
2526	0	1
2527	0	0.998075
2528	0	0.998075
2529	0	0.998075
2530	0	0.998075
2531	0	0.998075
2532	0	0.998075
2533	0	0.998075
2534	0	0
2535	0	0
2536	0	0
2537	0	0
2538	0	0
2539	0	0
2540	0	0
2541	0	0.996156
2542	0	0.996156
2543	0	0.996156
2544	0	0.996152
2545	0	0.994231
2546	0	0.994231
2547	0	0.994231
2548	0	0.994231
2549	0	0.994231
2550	0	0.992319
2551	0	0.992319
2552	0	0.992319
2553	0	0.992319
2554	0	1
2555	0	1
2556	0	1
2557	0	0.952381
2558	0	0.952381
2559	0	0.905923
2560	0	0.902168
2561	0	1
2562	0	1
2563	0	1
2564	0	1
2565	0	1
2566	0	1
2567	1	1
2568	1	1
2569	1	1
2570	1	1
2571	1	1
2572	1	1
2573	1	1
2574	1	1
2575	1	1
2576	1	1
2577	1	1
2578	1	1
2579	1	1
2580	1	1
2581	1	1
2582	1	1
2583	1	1
2584	1	1
2585	1	1
2586	1	1
2587	1	1
2588	1	1
2589	1	1
2590	1	1
2591	1	1
2592	1	1
2593	0	1
2594	0	1
2595	1	1
2596	1	1
2597	1	1
2598	1	1
2599	1	1
2600	1	1
2601	1	1
2602	1	1
2603	1	1
2604	1	1
2605	0	1
2606	0	1
2607	0	1
2608	0	1
2609	0	1
2610	0	0.333333
2611	0	0.166667
2612	0	0.6
2613	0	0.970109
2614	0	0.601732
2615	0	0.549708
2616	0	0.507353
2617	0	0.327273
2618	0	0.288889
2619	0	0.305556
2620	0	0.416667
2621	0	0.357143
2622	0	0.142857
2623	0	0.047619
2624	0	0.0666667
2625	0	0.0666667
2626	0	0.0666667
2627	0	0.659696
2628	0	0.659773
2629	0	0.659771
2630	0	0.320261
2631	0	0.493506
2632	0	0.151515
2633	0	0.110294
2634	0	0.568042
2635	0	0.354978
2636	0	0.301355
2637	0	0.27668
2638	0	0.0384615
2639	0	0.0384615
2640	0	0.0384615
2641	0	0.0909091
2642	0	0.471171
2643	0	0.470772
2644	0	0.08
2645	0	0.0738462
2646	0	0.460746
2647	0	0.489665
2648	0	0.0428571
2649	0	0.0428571
2650	0	0.0395257
2651	0	0.0380952
2652	0	0.0661376
2653	0	0.0700758
2654	0	0.531435
2655	0	0.494071
2656	0	0.133333
2657	0	0.13
2658	0	0.156667
2659	0	0.126667
2660	0	0.13
2661	0	0.398205
2662	0	0.116923
2663	0	0.587545
2664	0	0
2665	0	0
2666	0	0
2667	0	0
2668	0	0
2669	0	0
2670	0	0
2671	0	0
2672	0	0
2673	0	0
2674	0	0
2675	0	0
2676	0	0
2677	0	0
2678	0	0
2679	0	0
2680	0	0
2681	0	0
2682	0	0
2683	0	0.166667
2684	0	0.133333
2685	0	0
2686	0	0
2687	0	0
2688	0	0
2689	0	0
2690	0	0.2
2691	0	0.2
2692	0	0.1
2693	0	0.5
2694	0	0.5
2695	0	0.5
2696	0	0.166667
2697	0	0.1
2698	0	0.1
2699	0	0.166667
2700	0	0.166667
2701	0	0.4
2702	0	0.166667
2703	0	0.166667
2704	0	0.1
2705	0	0.1
2706	0	0.1
2707	0	0.0952381
2708	0	0.565603
2709	0	0
2710	0	0
2711	0	0
2712	0	0
2713	0	0
2714	0	0
2715	0	0
2716	0	0.0433333
2717	0	0.384135
2718	0	0.0826211
2719	0	0.0683761
2720	0	0.0551724
2721	0	0.0580645
2722	0	0.0516129
2723	0	0.0516129
2724	0	0.0528736
2725	0	0.0430108
2726	0	0.0451613
2727	0	0.046371
2728	0	0.0473485
2729	0	0.039039
2730	0	0.284151
2731	0	0.178571
2732	0	0.178571
2733	0	0.25
2734	0	0.25
2735	0	0.25
2736	0	0.392857
2737	0	0.392857
2738	0	0.25
2739	0	0.220895
2740	0	0.189378
2741	0	0.0181818
2742	0	0.0181818
2743	0	0.0181818
2744	0	0.195317
2745	0	0
2746	0	0
2747	0	0
2748	0	0
2749	0	0
2750	0	0
2751	0	0
2752	0	0
2753	0	0
2754	0	0
2755	0	0
2756	0	0
2757	0	0
2758	0	0
2759	0	0
2760	0	0
2761	0	0
2762	0	0.208575
2763	0	0.155583
2764	0	0.133333
2765	0	0.0789648
2766	0	0.156171
2767	0	0.129129
2768	0	0.156863
2769	0	0.14082
2770	0	0.132773
2771	0	0.182796
2772	0	0.15914
2773	0	0.15914
2774	0	0.165591
2775	0	0.203919
2776	0	0.6
2777	0	0.6
2778	0	1
2779	0	1
2780	0	0.6
2781	0	0.6
2782	0	1
2783	0	0.759821
2784	0	1
2785	0	1
2786	0	1
2787	0	1
2788	0	1
2789	0	1
2790	0	1
2791	0	1
2792	0	1
2793	0	1
2794	0	1
2795	0	1
2796	0	1
2797	0	0.968508
2798	0	1
2799	0	1
2800	0	1
2801	0	1
2802	0	1
2803	0	1
2804	0	1
2805	0	1
2806	0	0.333333
2807	0	0.333333
2808	0	0.333333
2809	0	0.166667
2810	0	0.166667
2811	0	0.2
2812	0	0.2
2813	0	0.2
2814	0	0.0952381
2815	0	0.0952381
2816	0	0.107143
2817	0	0.138889
2818	0	0.218182
2819	0	0.508737
2820	0	0.393601
2821	0	0.321324
2822	0	0.253857
2823	0	0.328995
2824	0	0.389648
2825	0	0.249467
2826	0	0.243631
2827	0	0.25661
2828	0	0.655172
2829	0	0.59235
2830	0	0.59235
2831	0	0.59235
2832	0	0.569231
2833	0	0.553846
2834	0	0
2835	0	0
2836	0	0
2837	0	0
2838	0	0
2839	0	0
2840	0	0
2841	0	0.142857
2842	0	0.111111
2843	0	0.398551
2844	0	0.310541
2845	0	0.37037
2846	0	0.352217
2847	0	0.367816
2848	0	0.118224
2849	0	0.319869
2850	0	0.319869
2851	0	0.309373
2852	0	0.30485
2853	0	0.300467
2854	0	0.107925
2855	0	0.0947242
2856	0	0.105375
2857	0	0.105981
2858	0	0.0943718
2859	0	0.16775
2860	0	0.192868
2861	0	0.218341
2862	0	0.280077
2863	0	0.285974
2864	0	0.28038
2865	0	0.280891
2866	0	0.278623
2867	0	0.267061
2868	0	0.254518
2869	0	0.248229
2870	0	0.236028
2871	0	0.141677
2872	0	0.10041
2873	0	0.0937819
2874	0	0.0632859
2875	0	0.0554825
2876	0	0.0470616
2877	0	0.0416979
2878	0	0.041514
2879	0	0.0349495
2880	0	0.0343623
2881	0	0.04428
2882	0	0.451613
2883	0	0.646154
2884	0	0.451613
2885	0	0.451613
2886	0	0.0408798
2887	0	0.0503385
2888	0	0.0542213
2889	0	0.063245
2890	0	0
2891	0	0
2892	0	0
2893	0	0
2894	0	0
2895	0	0.0660627
2896	0	0.107143
2897	0	0.107143
2898	0	0.107143
2899	0	0.166667
2900	0	0.166667
2901	0	0.222222
2902	0	0.181818
2903	0	0.0310231
2904	0	0.035118
2905	0	0.033952
2906	0	0.035862
2907	0	0.0487985
2908	0	0.0771652
2909	0	0.0997443
2910	0	0.125946
2911	0	0.133333
2912	0	0.133333
2913	0	0.133333
2914	0	0.155556
2915	0	0.155556
2916	0	0.155556
2917	0	0.138425
2918	0	0
2919	0	0
2920	0	0
2921	0	0
2922	0	0
2923	0	0
2924	0	0
2925	0	0
2926	0	0
2927	0	0
2928	0	0
2929	0	0
2930	0	0
2931	0	0
2932	0	0
2933	0	0
2934	0	0.253222
2935	0	0.0277778
2936	0	0.0277778
2937	0	0.0277778
2938	0	0.0277778
2939	0	0.0222222
2940	0	0.0151515
2941	0	0.0727273
2942	0	0.136364
2943	0	0.228571
2944	0	0.467532
2945	0	0.53003
2946	0	0.801418
2947	0	0.397598
2948	0	0.391701
2949	0	0
2950	0	0
2951	0	0
2952	0	0.507318
2953	0	0.558844
2954	0	0.591787
2955	0	0.599415
2956	0	0.607174
2957	0	0.606993
2958	0	0.600228
2959	0	0.142857
2960	0	0.630791
2961	0	0.601692
2962	0	0.0666667
2963	0	0.0357143
2964	0	0.345588
2965	0	0.637483
2966	0	0.590909
2967	0	0.563636
2968	0	0.214286
2969	0	0.214286
2970	0	0.214286
2971	0	0.4
2972	0	0.4
2973	0	0.266667
2974	0	0.266667
2975	0	0
2976	0	0
2977	0	0
2978	0	0
2979	0	0
2980	0	0
2981	0	0
2982	0	0
2983	0	0.166667
2984	0	0.166667
2985	0	0.166667
2986	0	0.166667
2987	0	0.166667
2988	0	0.166667
2989	0	0.166667
2990	0	0.3
2991	0	0
2992	0	0
2993	0	0
2994	0	0
2995	0	0
2996	0	0
2997	0	0
2998	0	0
2999	0	0
3000	0	0
3001	0	0
3002	0	0
3003	0	0.0545455
3004	0	0.0952381
3005	0	0.206169
3006	0	0.266617
3007	0	0.285354
3008	0	0.237055
3009	0	0.269873
3010	0	0.135852
3011	0	0.137192
3012	0	0.0936185
3013	0	0.100639
3014	0	0.116585
3015	0	0.101186
3016	0	0.0792911
3017	0	0.110119
3018	0	0.113159
3019	0	0.0662625
3020	0	0
3021	0	0
3022	0	0
3023	0	0
3024	0	0.122807
3025	0	0.0917459
3026	0	0.344615
3027	0	0.344615
3028	0	0.0983512
3029	0	0.166667
3030	0	0.1
3031	0	0.1
3032	0	0.166667
3033	0	0.166667
3034	0	0.166667
3035	0	0.166667
3036	0	0.166667
3037	0	0.166667
3038	0	0.166667
3039	0	0.166667
3040	0	0.1
3041	0	0.0666667
3042	0	0.0666667
3043	0	0.0666667
3044	0	0.0666667
3045	0	0.0666667
3046	0	0.0666667
3047	0	0.047619
3048	0	0.0512821
3049	0	0.212308
3050	0	0.23871
3051	0	0.142688
3052	0	0.152321
3053	0	0.151761
3054	0	0.0727273
3055	0	0.0727273
3056	0	0.0727273
3057	0	0.0727273
3058	0	0.176764
3059	0	0.2
3060	0	0.2
3061	0	0.2
3062	0	0.333333
3063	0	0.333333
3064	0	0.333333
3065	0	0.333333
3066	0	0.333333
3067	0	0.333333
3068	0	0.333333
3069	0	0.333333
3070	0	0.333333
3071	0	0.333333
3072	0	0.333333
3073	0	0.333333
3074	0	0.333333
3075	0	0.333333
3076	0	0.333333
3077	0	1
3078	0	0.179779
3079	0	0.0451977
3080	0	0.047107
3081	0	0.0810502
3082	0	0.270609
3083	0	0.270688
3084	0	0.2
3085	0	0.153846
3086	0	0.2
3087	0	0.153846
3088	0	0.2
3089	0	0.2
3090	0	0.2
3091	0	0.302983
3092	0	0.133333
3093	0	0.109091
3094	0	0.109091
3095	0	0.106061
3096	0	0.106061
3097	0	0.133333
3098	0	0.109091
3099	0	0.133333
3100	0	0.175385
3101	0	0.242174
3102	0	0.232414
3103	0	0.188163
3104	0	0.164726
3105	0	0.124966
3106	0	0.116939
3107	0	0.14834
3108	0	0.131123
3109	0	0.217582
3110	0	0.0242424
3111	0	0.0276855
3112	0	0.030303
3113	0	0.0274841
3114	0	0.029036
3115	0	0.0348432
3116	0	0.0448718
3117	0	0.039039
3118	0	0.0322581
3119	0	0.0386555
3120	0	0.0378788
3121	0	0.330909
3122	0	0.398606
3123	0	0.0338462
3124	0	0.414212
3125	0	0.0620155
3126	0	0.0676533
3127	0	0.0821256
3128	0	0.111202
3129	0	0.154882
3130	0	0.105925
3131	0	0.0309179
3132	0	0.0309179
3133	0	0.0370028
3134	0	0.0376812
3135	0	0.0383838
3136	0	0.0360777
3137	0	0.0880176
3138	0	0.0712277
3139	0	0.159544
3140	0	0.159544
3141	0	0.156695
3142	0	0.153846
3143	0	0.150997
3144	0	0.150997
3145	0	0.140212
3146	0	0.145503
3147	0	0.145503
3148	0	0.0781317
3149	0	0.115789
3150	0	0.0511628
3151	0	0.0511628
3152	0	0.0464419
3153	0	0.07159
3154	0	0.121212
3155	0	0.0496169
3156	0	0.0482712
3157	0	0.0294458
3158	0	0.0238213
3159	0	0.0372416
3160	0	0.033763
3161	0	0.0364559
3162	0	0.0373789
3163	0	0.0489881
3164	0	0.0502522
3165	0	0.0483318
3166	0	0.0369458
3167	0	0.0344828
3168	0	0.0320197
3169	0	0.0421271
3170	0	0.083004
3171	0	0.0833333
3172	0	0.0797101
3173	0	0.0833333
3174	0	0.0833333
3175	0	0.0763436
3176	0	0.0793858
3177	0	0.189773
3178	0	0.190062
3179	0	0.190062
3180	0	0.190497
3181	0	0.190497
3182	0	0.189338
3183	0	0.0399131
3184	0	0.0382477
3185	0	0.10512
3186	0	0.175926
3187	0	0.176035
3188	0	0.176035
3189	0	0.176035
3190	0	0.0530069
3191	0	0.149671
3192	0	0.148632
3193	0	0.207958
3194	0	0.169138
3195	0	0.0991138
3196	0	0.0965812
3197	0	0.0892471
3198	0	0.0583776
3199	0	0.0618208
3200	0	0.0576946
3201	0	0.068719
3202	0	0.0664672
3203	0	0.0613837
3204	0	0.0650481
3205	0	0.0629364
3206	0	0.0663553
3207	0	0.0597969
3208	0	0.0564051
3209	0	0
3210	0	0
3211	0	0
3212	0	0
3213	0	0
3214	0	0.0438157
3215	0	0.0426645
3216	0	0.0488958
3217	0	0.0617182
3218	0	0
3219	0	0
3220	0	0.0477286
3221	0	0.190762
3222	0	0.0204082
3223	0	0.0211416
3224	0	0.022942
3225	0	0.032197
3226	0	0.0369231
3227	0	0.0584795
3228	0	0.0833333
3229	0	0.0641026
3230	0	0.107143
3231	0	0.107143
3232	0	0.142857
3233	0	0.142857
3234	0	0.2
3235	0	0.2
3236	0	0.3
3237	0	0.3
3238	0	0.3
3239	0	0.3
3240	0	0.3
3241	0	0.3
3242	0	0.142857
3243	0	0.142857
3244	0	0.138889
3245	0	0.138889
3246	0	0.138889
3247	0	0.111111
3248	0	0.111111
3249	0	0.142857
3250	0	0.190476
3251	0	0.190476
3252	0	0.142857
3253	0	0.190476
3254	0	0.2
3255	0	0.5
3256	0	0.5
3257	0	0.5
3258	0	0.321429
3259	0	0.321429
3260	0	0.5
3261	0	0.5
3262	0	0.0461488
3263	0	0.0538674
3264	0	0.0594236
3265	0	0.0621096
3266	0	0.0729817
3267	0	0.0708408
3268	0	0.0745379
3269	0	0.0765672
3270	0	0.0748462
3271	0	0.07466
3272	0	0.0514019
3273	0	0.0578055
3274	0	0.0571132
3275	0	0.100385
3276	0	0.0412281
3277	0	0.0458333
3278	0	0.0938076
3279	0	0.118603
3280	0	0.093223
3281	0	1
3282	0	1
3283	0	1
3284	0	1
3285	0	1
3286	0	1
3287	0	1
3288	0	1
3289	0	1
3290	0	1
3291	0	1
3292	0	1
3293	0	1
3294	0	1
3295	0	1
3296	0	1
3297	0	1
3298	0	1
3299	0	1
3300	0	1
3301	0	1
3302	0	1
3303	0	1
3304	0	1
3305	0	1
3306	0	1
3307	0	1
3308	0	1
3309	0	1
3310	0	1
3311	0	1
3312	0	1
3313	0	1
3314	0	1
3315	0	1
3316	0	1
3317	0	0.0775956
3318	0	0.0774011
3319	0	0.094097
3320	0	0.110103
3321	0	0.134301
3322	0	0.226203
3323	0	0.366606
3324	0	0.379073
3325	0	0.379073
3326	0	0.407407
3327	0	0.39972
3328	0	0.464286
3329	0	0.253547
3330	0	0.30766
3331	0	0.291471
3332	0	0.289369
3333	0	0.410841
3334	0	0.619107
3335	0	0.0718954
3336	0	0.102941
3337	0	0.102941
3338	0	0.335632
3339	0	0.155556
3340	0	0.25
3341	0	0.25
3342	0	0.25
3343	0	0.25
3344	0	0.25
3345	0	0.108333
3346	0	0.108333
3347	0	0.180952
3348	0	0.242424
3349	0	0.290909
3350	0	0.355556
3351	0	0.355556
3352	0	0.355556
3353	0	0.321429
3354	0	0.6
3355	0	0.6
3356	0	0.6
3357	0	0.6
3358	0	0.6
3359	0	0.6
3360	0	0.6
3361	0	0.6
3362	0	0.6
3363	0	0.6
3364	0	0.6
3365	0	0.6
3366	0	0.6
3367	0	0.6
3368	0	0.6
3369	0	0.6
3370	0	0.6
3371	0	0.6
3372	0	0.6
3373	0	0.6
3374	0	0.6
3375	0	0.6
3376	0	0.6
3377	0	0.6
3378	0	0.6
3379	0	0.6
3380	0	0.6
3381	0	0.6
3382	0	0.6
3383	0	0.6
3384	0	0.6
3385	0	0.6
3386	0	0.6
3387	0	0.6
3388	0	0.6
3389	0	0.6
3390	0	0.6
3391	0	0.670946
3392	0	0.688838
3393	0	0.307929
3394	0	0.407627
3395	0	0.441318
3396	0	0.8404
3397	0	0.221508
3398	0	0.236842
3399	0	0.493952
3400	0	0.493952
3401	0	0.87421
3402	0	0.874441
3403	0	1
3404	0	1
3405	0	1
3406	0	1
3407	0	1
3408	0	1
3409	0	1
3410	0	1
3411	0	1
3412	0	1
3413	0	1
3414	0	1
3415	0	1
3416	0	1
3417	0	1
3418	0	1
3419	0	1
3420	0	1
3421	0	1
3422	0	1
3423	0	1
3424	0	1
3425	0	1
3426	0	1
3427	0	1
3428	0	1
3429	0	1
3430	0	1
3431	0	1
3432	0	1
3433	0	1
3434	0	1
3435	0	1
3436	0	1
3437	0	1
3438	0	1
3439	0	1
3440	0	1
3441	0	1
3442	0	1
3443	0	1
3444	0	1
3445	0	1
3446	0	1
3447	0	1
3448	0	1
3449	0	1
3450	0	1
3451	0	1
3452	0	1
3453	0	1
3454	0	1
3455	0	1
3456	0	1
3457	0	1
3458	0	1
3459	0	1
3460	0	1
3461	0	1
3462	0	1
3463	0	1
3464	0	1
3465	0	1
3466	0	1
3467	0	1
3468	0	1
3469	0	1
3470	0	1
3471	0	1
3472	0	1
3473	0	1
3474	0	1
3475	0	1
3476	0	1
3477	0	1
3478	0	1
3479	0	1
3480	0	1
3481	0	1
3482	0	1
3483	0	1
3484	0	1
3485	0	1
3486	0	1
3487	0	1
3488	0	1
3489	0	1
3490	0	1
3491	0	1
3492	0	1
3493	0	1
3494	0	1
3495	0	1
3496	0	1
3497	0	1
3498	0	1
3499	0	1
3500	0	1
3501	0	1
3502	0	1
3503	0	1
3504	0	1
3505	0	1
3506	0	1
3507	0	1
3508	0	1
3509	0	1
3510	0	1
3511	0	1
3512	0	1
3513	0	1
3514	0	1
3515	0	1
3516	0	1
3517	0	1
3518	0	1
3519	0	1
3520	0	1
3521	0	1
3522	0	1
3523	0	1
3524	0	1
3525	0	1
3526	0	1
3527	0	1
3528	0	1
3529	0	1
3530	0	1
3531	0	1
3532	0	1
3533	0	1
3534	0	1
3535	0	1
3536	0	1
3537	0	1
3538	0	1
3539	0	1
3540	0	1
3541	0	1
3542	0	1
3543	0	1
3544	0	1
3545	0	1
3546	0	1
3547	0	1
3548	0	1
3549	0	1
3550	0	1
3551	0	1
3552	0	1
3553	0	1
3554	0	1
3555	0	1
3556	0	1
3557	0	1
3558	0	1
3559	0	1
3560	0	1
3561	0	1
3562	0	1
3563	0	1
3564	0	1
3565	0	1
3566	0	1
3567	0	1
3568	0	1
3569	0	1
3570	0	1
3571	0	1
3572	0	1
3573	0	1
3574	0	1
3575	0	1
3576	0	0.876136
3577	0	0.877836
3578	0	0.879429
3579	0	0.133333
3580	0	0.4657
3581	0	0.823469
3582	0	0.580952
3583	0	0.580952
3584	0	0.770303
3585	0	0.155556
3586	0	0.155556
3587	0	0.0909091
3588	0	0.268559
3589	0	0.215126
3590	0	0.379886
3591	0	0.444847
3592	0	0
3593	0	0
3594	0	0
3595	0	0
3596	0	0
3597	0	0
3598	0	0
3599	0	0
3600	0	0
3601	0	0
3602	0	0
3603	0	0
3604	0	0
3605	0	0
3606	0	0
3607	0	0.581849
3608	0	0.316478
3609	0	0.458797
3610	0	0.107143
3611	0	0.107143
3612	0	0
3613	0	0.142857
3614	0	0.142857
3615	0	0.142857
3616	0	0
3617	0	0
3618	0	0
3619	0	0
3620	0	0
3621	0	0
3622	0	0
3623	0	0
3624	0	0
3625	0	0
3626	0	0
3627	0	0.142857
3628	0	0.142857
3629	0	0.142857
3630	0	0.142857
3631	0	0.107143
3632	0	0.111111
3633	0	0.111111
3634	0	0.0888889
3635	0	0.0888889
3636	0	0.0757576
3637	0	0.0444444
3638	0	0.516842
3639	0	0
3640	0	0
3641	0	0
3642	0	0
3643	0	0
3644	0	0
3645	0	0
3646	0	0
3647	0	0
3648	0	0
3649	0	0
3650	0	0
3651	0	0
3652	0	0.166667
3653	0	0.529783
3654	0	0.332603
3655	0	0
3656	0	0
3657	0	0.152973
3658	0	0
3659	0	0
3660	0	0
3661	0	0.135135
3662	0	0
3663	0	0
3664	0	0.341462
3665	0	0.0606557
3666	0	0.0693603
3667	0	0.0707792
3668	0	0.0833333
3669	0	0.566998
3670	0	0.594818
3671	0	0.54078
3672	0	0.609915
3673	0	0.646814
3674	0	0.704495
3675	0	0.483761
3676	0	0.100379
3677	0	0.0989247
3678	0	0.0790514
3679	0	0.0865801
3680	0	0.0761905
3681	0	0.0653595
3682	0	0.0653595
3683	0	0.0718954
3684	0	0.0916667
3685	0	0.10989
3686	0	0.10989
3687	0	0.128205
3688	0	0.151515
3689	0	0.194444
3690	0	0.194444
3691	0	0.194444
3692	0	0.214286
3693	0	0.285714
3694	0	0.872452
3695	0	0.6
3696	0	0.6
3697	0	0.6
3698	0	0.6
3699	0	0.6
3700	0	0.6
3701	0	0
3702	0	0
3703	0	0
3704	0	0
3705	0	0
3706	0	0
3707	0	0
3708	0	0
3709	0	0
3710	0	0
3711	0	0
3712	0	0
3713	0	0
3714	0	0
3715	0	0
3716	0	0
3717	0	0
3718	0	0
3719	0	0
3720	0	0
3721	0	0
3722	0	0
3723	0	0
3724	0	0
3725	0	0
3726	0	0
3727	0	0
3728	0	0
3729	0	0
3730	0	0
3731	0	0
3732	0	0
3733	0	0
3734	0	0
3735	0	0
3736	0	0
3737	0	0
3738	0	0
3739	0	0
3740	0	0
3741	0	0
3742	0	0
3743	0	0
3744	0	0
3745	0	0
3746	0	0
3747	0	0
3748	0	0
3749	0	0
3750	0	0
3751	0	0
3752	0	0
3753	0	0
3754	0	0
3755	0	0
3756	0	0
3757	0	0
3758	0	0
3759	0	0
3760	0	0
3761	0	0
3762	0	0
3763	0	0
3764	0	0
3765	0	0
3766	0	0
3767	0	0
3768	0	0
3769	0	0
3770	0	0
3771	0	0
3772	0	0
3773	0	0
3774	0	0
3775	0	0
3776	0	0
3777	0	0
3778	0	0
3779	0	0
3780	0	0
3781	0	0
3782	0	0
3783	0	0
3784	0	0
3785	0	0
3786	0	0
3787	0	0
3788	0	0
3789	0	0
3790	0	0
3791	0	0
3792	0	0
3793	0	0
3794	0	0
3795	0	0
3796	0	0
3797	0	0
3798	0	0
3799	0	0
3800	0	0
3801	0	0
3802	0	0
3803	0	0
3804	0	0
3805	0	0
3806	0	0
3807	0	0
3808	1	0
3809	1	0
3810	1	0
3811	0	0
3812	0	0
3813	0	0
3814	0	0
3815	0	0
3816	0	0
3817	0	0
3818	0	0
3819	1	0
3820	1	0
3821	1	0
3822	1	0
3823	0	0
3824	0	0
3825	0	0
3826	0	0
3827	0	0
3828	0	0
3829	0	0
3830	0	0
3831	0	0
3832	0	0
3833	0	0
3834	0	0
3835	0	0
3836	0	0
3837	0	0
3838	0	0
3839	0	0
3840	0	0
3841	0	0
3842	0	0
3843	0	0
3844	1	0
3845	1	0
3846	1	0
3847	1	0
3848	1	0
3849	1	0
3850	1	0
3851	1	0
3852	1	0
3853	1	0
3854	1	0
3855	1	0
3856	1	0
3857	1	0
3858	1	0
3859	1	0
3860	1	0
3861	0	0
3862	0	0
3863	0	0
3864	0	0
3865	0	0
3866	0	0
3867	0	0
3868	0	0
3869	0	0
3870	0	0
3871	0	0
3872	0	0
3873	0	0
3874	0	0
3875	0	0
3876	0	0
3877	0	0
3878	0	0
3879	0	0
3880	0	0
3881	0	0
3882	0	0
3883	0	0
3884	0	0
3885	0	0
3886	0	0
3887	0	0
3888	1	0
3889	1	0
3890	1	0
3891	1	0
3892	0	0
3893	0	0
3894	1	0
3895	1	0
3896	1	0
3897	1	0
3898	0	0
3899	0	0
3900	0	0
3901	0	0
3902	0	0
3903	0	0
3904	0	0
3905	0	0
3906	0	0
3907	0	0
3908	0	0
3909	0	0
3910	0	0
3911	0	0
3912	0	0
3913	0	0
3914	0	0
3915	0	0
3916	1	0
3917	1	0
3918	1	0
3919	1	0
3920	1	0
3921	1	0
3922	0	0
3923	0	0
3924	0	0
3925	0	0
3926	0	0
3927	0	0
3928	0	0
3929	0	0
3930	0	0
3931	0	0
3932	0	0
3933	0	0
3934	0	0
3935	0	0
3936	0	0
3937	0	0
3938	0	0
3939	0	0
3940	0	0
3941	0	0
3942	0	0
3943	0	0
3944	0	0
3945	0	0
3946	0	0
3947	0	0
3948	0	0
3949	0	0
3950	0	0
3951	0	0
3952	0	0
3953	0	0
3954	0	0
3955	0	0
3956	0	0
3957	1	0
3958	1	0
3959	1	0
3960	1	0
3961	0	0
3962	0	0
3963	0	0
3964	0	0
3965	0	0
3966	0	0
3967	0	0
3968	0	0
3969	0	0
3970	0	0
3971	0	0
3972	0	0
3973	0	0
3974	0	0
3975	0	0
3976	0	0
3977	0	0
3978	0	0
3979	0	0
3980	0	0
3981	0	0
3982	0	0
3983	0	0
3984	0	0
3985	0	0
3986	0	0
3987	0	0
3988	0	0
3989	0	0
3990	0	0
3991	0	0
3992	0	0
3993	0	0
3994	0	0
3995	0	0
3996	0	0
3997	0	0
3998	0	0
3999	0	0
4000	0	0
4001	0	0
4002	0	0
4003	0	0
4004	0	0
4005	0	0
4006	0	0
4007	0	0
4008	0	0
4009	0	0
4010	0	0
4011	0	0
4012	0	0
4013	0	0
4014	0	0
4015	0	0
4016	0	0
4017	0	0
4018	0	0
4019	0	0
4020	0	0
4021	0	0
4022	0	0
4023	0	0
4024	0	0
4025	0	0
4026	0	0
4027	0	0
4028	0	0
4029	0	0
4030	0	0
4031	0	0
4032	0	0
4033	0	0
4034	0	0
4035	0	0
4036	0	0
4037	0	0
4038	0	0
4039	0	0
4040	0	0
4041	1	0
4042	1	0
4043	1	0
4044	1	0
4045	1	0
4046	0	0
4047	0	0
4048	0	0
4049	0	0
4050	0	0
4051	0	0
4052	0	0
4053	0	0
4054	0	0
4055	0	0
4056	0	0
4057	0	0
4058	0	0
4059	0	0
4060	0	0.843333
4061	0	0.618553
4062	0	0.843333
4063	0	0
4064	0	0
4065	0	0
4066	0	0.94916
4067	0	0.622222
4068	0	0.4
4069	0	0
4070	0	0.333333
4071	0	0.333333
4072	0	0.333333
4073	0	0.333333
4074	0	0.333333
4075	0	0.333333
4076	0	0.333333
4077	0	0.333333
4078	0	0.333333
4079	0	0.333333
4080	0	0.333333
4081	0	0.333333
4082	0	0.333333
4083	0	0.333333
4084	0	0.333333
4085	0	0
4086	0	0
4087	0	0
4088	0	0
4089	0	0
4090	0	0
4091	0	0
4092	0	0
4093	0	0
4094	0	0
4095	0	0
4096	0	0
4097	0	0
4098	0	0
4099	0	0
4100	0	0
4101	0	0
4102	0	0
4103	0	0
4104	0	0
4105	0	0
4106	0	0
4107	0	0
4108	0	0
4109	0	0
4110	0	0
4111	0	0
4112	0	0
4113	0	0
4114	0	0
4115	0	0
4116	0	0
4117	0	0.0357143
4118	0	0.107143
4119	0	0.142857
4120	0	0.357143
4121	0	0.357143
4122	0	0.357143
4123	0	0.277778
4124	0	0.111111
4125	0	0.2
4126	0	0.357143
4127	0	0.357143
4128	0	0.357143
4129	0	0.357143
4130	0	0.285714
4131	0	0
4132	0	0
4133	0	0
4134	0	0
4135	0	0
4136	0	0
4137	0	0
4138	0	0
4139	0	0
4140	0	0
4141	0	0
4142	0	0
4143	0	0
4144	0	0
4145	0	0
4146	0	0
4147	0	0
4148	0	0
4149	0	0
4150	0	0
4151	0	0
4152	0	0
4153	0	0
4154	0	0
4155	0	0
4156	0	0
4157	0	0
4158	0	0
4159	0	0
4160	0	0
4161	0	0
4162	0	0
4163	0	0
4164	0	0
4165	0	0
4166	0	0
4167	0	0
4168	0	0
4169	0	0
4170	0	0
4171	0	0
4172	0	0
4173	0	0
4174	0	0
4175	0	0
4176	0	0
4177	0	0
4178	0	0
4179	0	0
4180	0	0.166667
4181	0	0.25
4182	0	0.19697
4183	0	0.438095
4184	0	0.670909
4185	0	0.888889
4186	0	0.860579
4187	0	0.878885
4188	0	0.895948
4189	0	0.483883
4190	0	0.613807
4191	0	0.582081
4192	0	0.319603
4193	0	0.0730838
4194	0	0.0807692
4195	0	0.0794872
4196	0	0.0885886
4197	0	0.0758621
4198	0	0.0873016
4199	0	0.0869565
4200	0	0.0948617
4201	0	0.0736842
4202	0	0.0684211
4203	0	0.0684211
4204	0	0.0684211
4205	0	0.0760234
4206	0	0.1
4207	0	0.1
4208	0	0.1
4209	0	0.1
4210	0	0.1
4211	0	0.114286
4212	0	0.131868
4213	0	0.114286
4214	0	0.1
4215	0	0.0761905
4216	0	0.114286
4217	0	0.141026
4218	0	0.141026
4219	0	0.0757576
4220	0	0.0757576
4221	0	0.111111
4222	0	0.181818
4223	0	0.181818
4224	0	0.181818
4225	0	0.181818
4226	0	0.181818
4227	0	0.166667
4228	0	0.222222
4229	0	0.222222
4230	0	0.222222
4231	0	0.222222
4232	0	0.222222
4233	0	0.222222
4234	0	0.222222
4235	0	0.222222
4236	0	0.222222
4237	0	0.222222
4238	0	0.222222
4239	0	0.277778
4240	0	0.277778
4241	0	0.357143
4242	0	0.357143
4243	0	0.2
4244	0	0.2
4245	0	0.142857
4246	0	0.142857
4247	0	0.285714
4248	0	0.214286
4249	0	0.357143
4250	0	0.47619
4251	0	0.47619
4252	0	0.842395
4253	0	0.848707
4254	0	0.687879
4255	0	0.143791
4256	0	0.169935
4257	0	0.154412
4258	0	0.175
4259	0	0.166667
4260	0	0.166667
4261	0	0.166667
4262	0	0.166667
4263	0	0.166667
4264	0	0.166667
4265	0	0.2
4266	0	0.2
4267	0	0.155556
4268	0	0.155556
4269	0	0.155556
4270	0	0.155556
4271	0	0.155556
4272	0	0.155556
4273	0	0.155556
4274	0	0.155556
4275	0	0.155556
4276	0	0.0666667
4277	0	0.0666667
4278	0	0.0714286
4279	0	0.0833333
4280	0	0.0833333
4281	0	0.0833333
4282	0	0.138889
4283	0	0.138889
4284	0	0.138889
4285	0	0.138889
4286	0	0.138889
4287	0	0.138889
4288	0	0.138889
4289	0	0.138889
4290	0	0.138889
4291	0	0.138889
4292	0	0.138889
4293	0	0.138889
4294	0	0.138889
4295	0	0.138889
4296	0	0.138889
4297	0	0.138889
4298	0	0.0833333
4299	0	0.0833333
4300	0	0.0833333
4301	0	0.0833333
4302	0	0.0833333
4303	0	0.0833333
4304	0	0.0666667
4305	0	0.0666667
4306	0	0.0666667
4307	0	0.0666667
4308	0	0.0666667
4309	0	0.0545455
4310	0	0.0545455
4311	0	0.0909091
4312	0	0.0909091
4313	0	0.0909091
4314	0	0.0909091
4315	0	0.333333
4316	0	0.333333
4317	0	0.333333
4318	0	0.333333
4319	0	0.333333
4320	0	0.333333
4321	0	0.333333
4322	0	0.305556
4323	0	0.392857
4324	0	0.392857
4325	0	0.392857
4326	0	0.392857
4327	0	0.392857
4328	0	0.392857
4329	0	0.392857
4330	0	0.392857
4331	0	0.392857
4332	0	0.392857
4333	0	0.392857
4334	0	0.392857
4335	0	0.392857
4336	0	0.392857
4337	0	0.305556
4338	0	0.305556
4339	0	0.305556
4340	0	0.305556
4341	0	0.305556
4342	0	0.305556
4343	0	0.305556
4344	0	0.305556
4345	0	0.305556
4346	0	0.305556
4347	0	0.392857
4348	0	0.392857
4349	0	0.392857
4350	0	0.392857
4351	0	0.392857
4352	0	0.392857
4353	0	0.392857
4354	0	0.392857
4355	0	0.305556
4356	0	0.305556
4357	0	0.305556
4358	0	0.305556
4359	0	0.305556
4360	0	0.305556
4361	0	0.305556
4362	0	0.305556
4363	0	0.305556
4364	0	0.305556
4365	0	0.244444
4366	0	0.244444
4367	0	0.244444
4368	0	0.392857
4369	0	0.392857
4370	0	0.392857
4371	0	0.392857
4372	0	0.392857
4373	0	0.392857
4374	0	0.392857
4375	0	0.392857
4376	0	0.392857
4377	0	0.392857
4378	0	0.392857
4379	0	0.392857
4380	0	0.392857
4381	0	0.392857
4382	0	0.392857
4383	0	0.392857
4384	0	0.392857
4385	0	0.392857
4386	0	0.392857
4387	0	0.392857
4388	0	0.392857
4389	0	0.392857
4390	0	0.392857
4391	0	0.392857
4392	0	0.392857
4393	0	0.392857
4394	0	0.392857
4395	0	0.392857
4396	0	0.392857
4397	0	0.392857
4398	0	0.392857
4399	0	0.392857
4400	0	0.392857
4401	0	0.392857
4402	0	0.392857
4403	0	0.333333
4404	0	0.333333
4405	0	0.333333
4406	0	0.333333
4407	0	0.333333
4408	0	0.333333
4409	0	0.333333
4410	0	0.333333
4411	0	0.333333
4412	0	0.333333
4413	0	0.333333
4414	0	0.333333
4415	0	0.333333
4416	0	0.333333
4417	0	0.333333
4418	0	0.333333
4419	0	0.333333
4420	0	0.333333
4421	0	0.333333
4422	0	0.333333
4423	0	0.333333
4424	0	0.333333
4425	0	0.333333
4426	0	0.333333
4427	0	0.333333
4428	0	0.333333
4429	0	0.333333
4430	0	0.333333
4431	0	0.333333
4432	0	0.333333
4433	0	0.333333
4434	0	0.333333
4435	0	0.333333
4436	0	0.333333
4437	0	0.333333
4438	0	0.333333
4439	0	0.333333
4440	0	0.333333
4441	0	0.333333
4442	0	0.333333
4443	0	0.333333
4444	0	0.333333
4445	0	0.333333
4446	0	0.333333
4447	0	0.333333
4448	0	0.333333
4449	0	0.333333
4450	0	0.333333
4451	0	0.333333
4452	0	0.333333
4453	0	0.333333
4454	0	0.333333
4455	0	0.333333
4456	0	0.333333
4457	0	0.333333
4458	0	0.333333
4459	0	0.333333
4460	0	0.333333
4461	0	0.333333
4462	0	0.333333
4463	0	0.333333
4464	0	0.333333
4465	0	0.333333
4466	0	0.333333
4467	0	0.333333
4468	0	0.333333
4469	0	0.333333
4470	0	0.333333
4471	0	0.333333
4472	0	0.333333
4473	0	0.333333
4474	0	0.333333
4475	0	0.333333
4476	0	0.333333
4477	0	0.333333
4478	0	0.333333
4479	0	0.333333
4480	0	0.333333
4481	0	0.333333
4482	0	0.333333
4483	0	0.333333
4484	0	0.333333
4485	0	0.333333
4486	0	0.333333
4487	0	0.333333
4488	0	0.333333
4489	0	0.333333
4490	0	0.333333
4491	0	0.333333
4492	0	0.333333
4493	0	0.333333
4494	0	0.333333
4495	0	0.333333
4496	0	0.333333
4497	0	0.333333
4498	0	0.333333
4499	0	0.333333
4500	0	0.333333
4501	0	0.333333
4502	0	0.333333
4503	0	0.333333
4504	0	0.333333
4505	0	0.333333
4506	0	0.333333
4507	0	0.333333
4508	0	0.333333
4509	0	0.333333
4510	0	0.333333
4511	0	0.333333
4512	0	0.333333
4513	0	0.333333
4514	0	0.333333
4515	0	0.333333
4516	0	0.333333
4517	0	0.333333
4518	0	0.333333
4519	0	0.333333
4520	0	0.333333
4521	0	0.333333
4522	0	0.333333
4523	0	0.333333
4524	0	0.333333
4525	0	0.333333
4526	0	0.333333
4527	0	0.333333
4528	0	0.333333
4529	0	0.333333
4530	0	0.333333
4531	0	0.333333
4532	0	0.333333
4533	0	0.333333
4534	0	0.333333
4535	0	0.333333
4536	0	0.333333
4537	0	0.333333
4538	0	0.333333
4539	0	0.333333
4540	0	0.333333
4541	0	0.333333
4542	0	0.333333
4543	0	0.333333
4544	0	0.333333
4545	0	0.333333
4546	0	0.333333
4547	0	0.333333
4548	0	0.333333
4549	0	0.333333
4550	0	0.333333
4551	0	0.333333
4552	0	0.333333
4553	0	0.333333
4554	0	0.333333
4555	0	0.333333
4556	0	0.333333
4557	0	0.333333
4558	0	0.333333
4559	0	0.333333
4560	0	0.333333
4561	0	0.333333
4562	0	0.333333
4563	0	0.333333
4564	0	0.333333
4565	0	0.333333
4566	0	0.333333
4567	0	0.333333
4568	0	0.333333
4569	0	0.333333
4570	0	0.333333
4571	0	0.333333
4572	0	0.333333
4573	0	0.333333
4574	0	0.333333
4575	0	0.333333
4576	0	0.333333
4577	0	0.333333
4578	0	0.333333
4579	0	0.333333
4580	0	0.333333
4581	0	0.333333
4582	0	0.333333
4583	0	0.333333
4584	0	0.333333
4585	0	0.333333
4586	0	0.333333
4587	0	0.333333
4588	0	0.333333
4589	0	0.333333
4590	0	0.333333
4591	0	0.333333
4592	0	0.333333
4593	0	0.333333
4594	0	0.333333
4595	0	0.333333
4596	0	0.333333
4597	0	0.333333
4598	0	0.333333
4599	0	0.333333
4600	0	0.333333
4601	0	0.333333
4602	0	0.333333
4603	0	0.333333
4604	0	0.333333
4605	0	0.333333
4606	0	0.333333
4607	0	0.333333
4608	0	0.333333
4609	0	0.333333
4610	0	0.333333
4611	0	0.333333
4612	0	0.333333
4613	0	0.333333
4614	0	0.333333
4615	0	0.333333
4616	0	0.333333
4617	0	0.333333
4618	0	0.333333
4619	0	0.333333
4620	0	0.333333
4621	0	0.333333
4622	0	0.333333
4623	0	0.333333
4624	0	0.333333
4625	0	0.333333
4626	0	0.333333
4627	0	0.333333
4628	0	0.333333
4629	0	0.333333
4630	0	0.333333
4631	0	0.333333
4632	0	0.333333
4633	0	0.333333
4634	0	0.333333
4635	0	0.333333
4636	0	0.333333
4637	0	0.333333
4638	0	0.333333
4639	0	0.333333
4640	0	0.333333
4641	0	0.333333
4642	0	0.333333
4643	0	0.333333
4644	0	0.333333
4645	0	0.333333
4646	0	0.333333
4647	0	0.333333
4648	0	0.333333
4649	0	0.333333
4650	0	0.333333
4651	0	0.333333
4652	0	0.333333
4653	0	0.333333
4654	0	0.333333
4655	0	0.333333
4656	0	0.333333
4657	0	0.333333
4658	0	0.333333
4659	0	0.333333
4660	0	0.333333
4661	0	0.333333
4662	0	0.333333
4663	0	0.333333
4664	0	0.333333
4665	0	0.333333
4666	0	0.333333
4667	0	0.333333
4668	0	0.333333
4669	0	0.333333
4670	0	0.333333
4671	0	0.333333
4672	0	0.333333
4673	0	0.333333
4674	0	0.333333
4675	0	0.333333
4676	0	0.333333
4677	0	0.333333
4678	0	0.333333
4679	0	0.333333
4680	0	0.333333
4681	0	0.333333
4682	0	0.333333
4683	0	0.333333
4684	0	0.333333
4685	0	0.333333
4686	0	0.333333
4687	0	0.333333
4688	0	0.333333
4689	0	0.333333
4690	0	0.333333
4691	0	0.333333
4692	0	0.333333
4693	0	0.333333
4694	0	0.333333
4695	0	0.333333
4696	0	0.333333
4697	0	0.333333
4698	0	0.333333
4699	0	0.333333
4700	0	0.333333
4701	0	0.333333
4702	0	0.333333
4703	0	0.333333
4704	0	0.333333
4705	0	0.333333
4706	0	0.333333
4707	0	0.333333
4708	0	0.333333
4709	0	0.333333
4710	0	0.333333
4711	0	0.333333
4712	0	0.333333
4713	0	0.333333
4714	0	0.333333
4715	0	0.333333
4716	0	0.333333
4717	0	0.333333
4718	0	0.333333
4719	0	0.333333
4720	0	0.333333
4721	0	0.333333
4722	0	0.333333
4723	0	0.333333
4724	0	0.333333
4725	0	0.333333
4726	0	0.333333
4727	0	0.333333
4728	0	0.333333
4729	0	0.333333
4730	0	0.333333
4731	0	0.333333
4732	0	0.333333
4733	0	0.333333
4734	0	0.333333
4735	0	0.333333
4736	0	0.333333
4737	0	0.333333
4738	0	0.333333
4739	0	0.333333
4740	0	0.333333
4741	0	0.333333
4742	0	0.333333
4743	0	0.333333
4744	0	0.333333
4745	0	0.333333
4746	0	0.333333
4747	0	0.333333
4748	0	0.333333
4749	0	0.333333
4750	0	0.333333
4751	0	0.333333
4752	0	0.333333
4753	0	0
4754	0	0
4755	0	0
4756	0	0
4757	0	0
4758	0	0
4759	0	0
4760	0	0
4761	0	0
4762	0	0
4763	0	0
4764	0	0
4765	0	0
4766	0	0
4767	0	0
4768	0	0
4769	0	0
4770	0	0
