Site	ColumnScore	SumOfPairsScore
1	0	0
2	0	0
3	0	0
4	0	0
5	0	0
6	0	0
7	0	0
8	0	0
9	0	0
10	0	0
11	0	0
12	0	0
13	0	0
14	0	0
15	0	0
16	0	0
17	0	0
18	0	0
19	0	0
20	0	0
21	0	0
22	0	0
23	0	0
24	0	0
25	0	0
26	0	0
27	0	0
28	0	0
29	0	0
30	0	0
31	0	0
32	0	0
33	0	0
34	0	0
35	0	0
36	0	0
37	0	0
38	0	0
39	0	0
40	0	0
41	0	0
42	0	0
43	0	0
44	0	0
45	0	0
46	0	0
47	0	0
48	0	0
49	0	0
50	0	0
51	0	0
52	0	0
53	0	0
54	0	0
55	0	0
56	0	0
57	0	0
58	0	0
59	0	0
60	0	0
61	0	0
62	0	0
63	0	0
64	0	0
65	0	0
66	0	0
67	0	0
68	0	0
69	0	0
70	0	0
71	0	0
72	0	0
73	0	0
74	0	0
75	0	0
76	0	0
77	0	0
78	0	0
79	0	0
80	0	0
81	0	0
82	0	0
83	0	0
84	0	0
85	0	0
86	0	0
87	0	0
88	0	0
89	0	0
90	0	0
91	0	0
92	0	0
93	0	0
94	0	0
95	0	0
96	0	0
97	0	0
98	0	0
99	0	0
100	0	0
101	0	0
102	0	0
103	0	0
104	0	0
105	0	0
106	0	0
107	0	0
108	0	0
109	0	0
110	0	0
111	0	0
112	0	0
113	0	0
114	0	0
115	0	0
116	0	0
117	0	0
118	0	0
119	0	0
120	0	0
121	0	0
122	0	0
123	0	0
124	0	0
125	0	0
126	0	0
127	0	0
128	0	0
129	0	0
130	0	0
131	0	0
132	0	0
133	0	0
134	0	0
135	0	0
136	0	0
137	0	0
138	0	0
139	0	0
140	0	0
141	0	0
142	0	0
143	0	0
144	0	0
145	0	0
146	0	0
147	0	0
148	0	0
149	0	0
150	0	0
151	0	0
152	0	0
153	0	0
154	0	0
155	0	0
156	0	0
157	0	0
158	0	0
159	0	0
160	0	0
161	0	0
162	0	0
163	0	0
164	0	0
165	0	0
166	0	0
167	0	0
168	0	0
169	0	0
170	0	0
171	0	0
172	0	0
173	0	0
174	0	0
175	0	0
176	0	0
177	0	0
178	0	0
179	0	0
180	0	0
181	0	0
182	0	0
183	0	0
184	0	0
185	0	0
186	0	0
187	0	0
188	0	0
189	0	0
190	0	0
191	0	0
192	0	0
193	0	0
194	0	0
195	0	0
196	0	0
197	0	0
198	0	0
199	0	0
200	0	0
201	0	0
202	0	0
203	0	0
204	0	0
205	0	0
206	0	0
207	0	0
208	0	0
209	0	0
210	0	0
211	0	0
212	0	0
213	0	0
214	0	0
215	0	0
216	0	0
217	0	0
218	0	0
219	0	0
220	0	0
221	0	0
222	0	0
223	0	0
224	0	0
225	0	0
226	0	0
227	0	0
228	0	0
229	0	0
230	0	0
231	0	0
232	0	0
233	0	0
234	0	0
235	0	0
236	0	0
237	0	0
238	0	0
239	0	0
240	0	0.166667
241	0	0.166667
242	0	0.166667
243	0	0.166667
244	0	0.166667
245	0	0.166667
246	0	0.166667
247	0	0.166667
248	0	0.166667
249	0	0.166667
250	0	0.166667
251	0	0.166667
252	0	0.166667
253	0	0.166667
254	0	0.166667
255	0	0.1
256	0	0.1
257	0	0.1
258	0	0.1
259	0	0.1
260	0	0.1
261	0	0.1
262	0	0.1
263	0	0.1
264	0	0.1
265	0	0.1
266	0	0.1
267	0	0.1
268	0	0.1
269	0	0.1
270	0	0.1
271	0	0.1
272	0	0.1
273	0	0.1
274	0	0.1
275	0	0.1
276	0	0.0952381
277	0	0.0952381
278	0	0.0952381
279	0	0.0952381
280	0	0.0952381
281	0	0.0952381
282	0	0.0952381
283	0	0.0952381
284	0	0.0952381
285	0	0.0952381
286	0	0.0952381
287	0	0.0952381
288	0	0.0952381
289	0	0.0952381
290	0	0.0952381
291	0	0.0952381
292	0	0.0952381
293	0	0.0952381
294	0	0.0952381
295	0	0.0952381
296	0	0.0952381
297	0	0.0952381
298	0	0.0952381
299	0	0.0952381
300	0	0.0952381
301	0	0.0952381
302	0	0.0952381
303	0	0.0952381
304	0	0.0952381
305	0	0.0952381
306	0	0.0952381
307	0	0.0952381
308	0	0.0952381
309	0	0.0952381
310	0	0.0952381
311	0	0.0952381
312	0	0.0952381
313	0	0.0952381
314	0	0.0952381
315	0	0.0952381
316	0	0.0952381
317	0	0.0952381
318	0	0.0952381
319	0	0.0952381
320	0	0.0952381
321	0	0.0952381
322	0	0.0952381
323	0	0.0952381
324	0	0.0952381
325	0	0.0952381
326	0	0.0952381
327	0	0.0952381
328	0	0.0952381
329	0	0.0952381
330	0	0.0952381
331	0	0.0952381
332	0	0.0952381
333	0	0.0952381
334	0	0.0952381
335	0	0.0952381
336	0	0.0952381
337	0	0.0952381
338	0	0.0952381
339	0	0.0952381
340	0	0.0952381
341	0	0.0952381
342	0	0.0952381
343	0	0.0952381
344	0	0.0952381
345	0	0.0952381
346	0	0.0952381
347	0	0.0952381
348	0	0.0952381
349	0	0.0952381
350	0	0.0952381
351	0	0.0952381
352	0	0.0952381
353	0	0.0952381
354	0	0.0952381
355	0	0.0952381
356	0	0.0952381
357	0	0.0952381
358	0	0.0952381
359	0	0.0952381
360	0	0.0952381
361	0	0.0952381
362	0	0.0952381
363	0	0.0952381
364	0	0.0952381
365	0	0.0952381
366	0	0.0952381
367	0	0.0952381
368	0	0.0714286
369	0	0.0714286
370	0	0.0714286
371	0	0.0714286
372	0	0.0714286
373	0	0.0714286
374	0	0.0714286
375	0	0.0714286
376	0	0.0714286
377	0	0.0714286
378	0	0.0714286
379	0	0.0714286
380	0	0.0714286
381	0	0.0714286
382	0	0.0714286
383	0	0.0714286
384	0	0.0714286
385	0	0.0714286
386	0	0.0714286
387	0	0.0714286
388	0	0.0714286
389	0	0.0555556
390	0	0.0555556
391	0	0.0555556
392	0	0.0555556
393	0	0.0555556
394	0	0.0555556
395	0	0.0555556
396	0	0.0444444
397	0	0.0444444
398	0	0.0444444
399	0	0.0444444
400	0	0.0444444
401	0	0.0444444
402	0	0.0363636
403	0	0.0363636
404	0	0.0363636
405	0	0.0363636
406	0	0.0363636
407	0	0.0363636
408	0	0.0363636
409	0	0.030303
410	0	0.030303
411	0	0.030303
412	0	0.030303
413	0	0.025641
414	0	0.025641
415	0	0.025641
416	0	0.025641
417	0	0.025641
418	0	0.025641
419	0	0.025641
420	0	0.025641
421	0	0.025641
422	0	0.025641
423	0	0.021978
424	0	0.021978
425	0	0.021978
426	0	0.0285714
427	0	0.0190476
428	0	0.0190476
429	0	0.0190476
430	0	0.0190476
431	0	0.0190476
432	0	0.0190476
433	0	0.0166667
434	0	0.0147059
435	0	0.0147059
436	0	0.0147059
437	0	0.0147059
438	0	0.0130719
439	0	0.0130719
440	0	0.0130719
441	0	0.0233918
442	0	0.0233918
443	0	0.021645
444	0	0.021645
445	0	0.021645
446	0	0.021645
447	0	0.021645
448	0	0.021645
449	0	0.0118577
450	0	0.0108696
451	0	0.0108696
452	0	0.0144928
453	0	0.0144928
454	0	0.0144928
455	0	0.0144928
456	0	0.0144928
457	0	0.0144928
458	0	0.0144928
459	0	0.0144928
460	0	0.0144928
461	0	0.0144928
462	0	0.0108696
463	0	0.0108696
464	0	0.0108696
465	0	0.00923077
466	0	0.00923077
467	0	0.00923077
468	0	0.011396
469	0	0.011396
470	0	0.010582
471	0	0.00985222
472	0	0.0091954
473	0	0.0091954
474	0	0.0091954
475	0	0.0091954
476	0	0.0091954
477	0	0.0091954
478	0	0.00860215
479	0	0.00806452
480	0	0.00604839
481	0	0.00757576
482	0	0.00757576
483	0	0.00713012
484	0	0.024359
485	0	0.0230769
486	0	0.0230769
487	0	0.0230769
488	0	0.0230769
489	0	0.024359
490	0	0.0230769
491	0	0.0230769
492	0	0.024359
493	0	0.0231707
494	0	0.0231707
495	0	0.0231707
496	0	0.0231707
497	0	0.0220674
498	0	0.0220674
499	0	0.0220674
500	0	0.0211416
501	0	0.0211416
502	0	0.0211416
503	0	0.0338266
504	0	0.0338266
505	0	0.0338266
506	0	0.0338266
507	0	0.0338266
508	0	0.0338266
509	0	0.0348837
510	0	0.0211416
511	0	0.0211416
512	0	0.0211416
513	0	0.0211416
514	0	0.0211416
515	0	0.020202
516	0	0.020202
517	0	0.0222222
518	0	0.0222222
519	0	0.0212121
520	0	0.0222222
521	0	0.0222222
522	0	0.0222222
523	0	0.0222222
524	0	0.0222222
525	0	0.0222222
526	0	0.0282828
527	0	0.0272727
528	0	0.0292929
529	0	0.0292929
530	0	0.0444444
531	0	0.0444444
532	0	0.0525253
533	0	0.0525253
534	0	0.0505051
535	0	0.0505051
536	0	0.0505051
537	0	0.0505051
538	0	0.0483092
539	0	0.0483092
540	0	0.057971
541	0	0.057971
542	0	0.0560386
543	0	0.053654
544	0	0.053654
545	0	0.053654
546	0	0.053654
547	0	0.0545791
548	0	0.0545791
549	0	0.0453284
550	0	0.0453284
551	0	0.0545791
552	0	0.0545791
553	0	0.0545791
554	0	0.0545791
555	0	0.0545791
556	0	0.0545791
557	0	0.0545791
558	0	0.0545791
559	0	0.0545791
560	0	0.0545791
561	0	0.052305
562	0	0.052305
563	0	0.052305
564	0	0.054078
565	0	0.0531915
566	0	0.0531915
567	0	0.0531915
568	0	0.0531915
569	0	0.0510204
570	0	0.0510204
571	0	0.0510204
572	0	0.0501701
573	0	0.0501701
574	0	0.0510204
575	0	0.0510204
576	0	0.0527211
577	0	0.0527211
578	0	0.0527211
579	0	0.0535714
580	0	0.0535714
581	0	0.0527211
582	0	0.0527211
583	0	0.0518707
584	0	0.0527211
585	0	0.0535714
586	0	0.0544218
587	0	0.0544218
588	0	0.0535714
589	0	0.0518707
590	0	0.0544218
591	0	0.0544218
592	0	0.0544218
593	0	0.0544218
594	0	0.0544218
595	0	0.0544218
596	0	0.0544218
597	0	0.0544218
598	0	0.0544218
599	0	0.0518707
600	0	0.0497959
601	0	0.0497959
602	0	0.0497959
603	0	0.0497959
604	0	0.0497959
605	0	0.0497959
606	0	0.0497959
607	0	0.0497959
608	0	0.0497959
609	0	0.0497959
610	0	0.0497959
611	0	0.0497959
612	0	0.0497959
613	0	0.0497959
614	0	0.0497959
615	0	0.0497959
616	0	0.0506122
617	0	0.0506122
618	0	0.0506122
619	0	0.0506122
620	0	0.0506122
621	0	0.0506122
622	0	0.0506122
623	0	0.0506122
624	0	0.0497959
625	0	0.0514286
626	0	0.0514286
627	0	0.0102564
628	0	0.0102564
629	0	0.00897436
630	0	0.00897436
631	0	0.00897436
632	0	0.00897436
633	0	0.00853659
634	0	0.00853659
635	0	0.00853659
636	0	0.00853659
637	0	0.00853659
638	0	0.00853659
639	0	0.00853659
640	0	0.00853659
641	0	0.00853659
642	0	0.0097561
643	0	0.0097561
644	0	0.00929152
645	0	0.00929152
646	0	0.00996678
647	0	0.00739958
648	0	0.00707071
649	0	0.00606061
650	0	0.00606061
651	0	0.00647549
652	0	0.00647549
653	0	0.00620567
654	0	0.00595238
655	0	0.00571429
656	0	0.00734694
657	0	0.00784314
658	0	0.00862745
659	0	0.00862745
660	0	0.00862745
661	0	0.00754148
662	0	0.00838574
663	0	0.00978337
664	0	0.00978337
665	0	0.00978337
666	0	0.00978337
667	0	0.00978337
668	0	0.00908456
669	0	0.0103896
670	0	0.0111046
671	0	0.00903955
672	0	0.0107345
673	0	0.00960452
674	0	0.0120219
675	0	0.014807
676	0	0.0185087
677	0	0.029614
678	0	0.0290851
679	0	0.029614
680	0	0.0384025
681	0	0.0573477
682	0	0.0578597
683	0	0.0573477
684	0	0.0563236
685	0	0.0563236
686	0	0.0563236
687	0	0.0538462
688	0	0.0610577
689	0	0.0666667
690	0	0.0627744
691	0	0.0677749
692	0	0.0613811
693	0	0.0600414
694	0	0.0604555
695	0	0.063354
696	0	0.0708075
697	0	0.0712215
698	0	0.0696177
699	0	0.068008
700	0	0.0684105
701	0	0.0650685
702	0	0.0636801
703	0	0.0640504
704	0	0.0585965
705	0	0.0574163
706	0	0.0579421
707	0	0.0689311
708	0	0.0722611
709	0	0.0704317
710	0	0.0707562
711	0	0.088283
712	0	0.154747
713	0	0.164557
714	0	0.164557
715	0	0.164557
716	0	0.190506
717	0	0.190506
718	0	0.375316
719	0	0.379371
720	0	0.395827
721	0	0.396121
722	0	0.396121
723	0	0.396121
724	0	0.367294
725	0	0.35904
726	0	0.525734
727	0	0.529902
728	0	0.530671
729	0	0.531213
730	0	0
731	0	0
732	0	0
733	0	0
734	0	0
735	0	0
736	0	0
737	0	0
738	0	0
739	0	0
740	0	0
741	0	0
742	0	0
743	0	0
744	0	0
745	0	0
746	0	0
747	0	0
748	0	0
749	0	0
750	0	0
751	0	0
752	0	0
753	0	0
754	0	0
755	0	0
756	0	0
757	0	0
758	0	0
759	0	0
760	0	0
761	0	0
762	0	0
763	0	0
764	0	0
765	0	0
766	0	0
767	0	0
768	0	0
769	0	0
770	0	0
771	0	0
772	0	0
773	0	0
774	0	0
775	0	0
776	0	0
777	0	0
778	0	0
779	0	0
780	0	0
781	0	0
782	0	0
783	0	0
784	0	0
785	0	0
786	0	0
787	0	0
788	0	0
789	0	0
790	0	0
791	0	0
792	0	0
793	0	0
794	0	0
795	0	0
796	0	0
797	0	0
798	0	0
799	0	0
800	0	0
801	0	0
802	0	0
803	0	0
804	0	0
805	0	0
806	0	0
807	0	0
808	0	0
809	0	0
810	0	0
811	0	0
812	0	0
813	0	0
814	0	0
815	0	0
816	0	0
817	0	0
818	0	0
819	0	0
820	0	0
821	0	0
822	0	0
823	0	0
824	0	0
825	0	0
826	0	0
827	0	0
828	0	0
829	0	0
830	0	0
831	0	0
832	0	0
833	0	0
834	0	0
835	0	0
836	0	0
837	0	0
838	0	0
839	0	0
840	0	0
841	0	0
842	0	0
843	0	0
844	0	0
845	0	0
846	0	0
847	0	0
848	0	0
849	0	0
850	0	0
851	0	0
852	0	0
853	0	0
854	0	0
855	0	0
856	0	0
857	0	0
858	0	0
859	0	0
860	0	0
861	0	0
862	0	0
863	0	0
864	0	0
865	0	0
866	0	0
867	0	0
868	0	0
869	0	0
870	0	0
871	0	0
872	0	0
873	0	0
874	0	0
875	0	0
876	0	0
877	0	0
878	0	0
879	0	0
880	0	0
881	0	0
882	0	0
883	0	0
884	0	0
885	0	0
886	0	0
887	0	0
888	0	0
889	0	0
890	0	0
891	0	0
892	0	0
893	0	0
894	0	0
895	0	0
896	0	0
897	0	0
898	0	0.333333
899	0	0.333333
900	0	0.333333
901	0	0.166667
902	0	0.166667
903	0	0.166667
904	0	0.166667
905	0	0.166667
906	0	0.166667
907	0	0.166667
908	0	0.166667
909	0	0.166667
910	0	0.166667
911	0	0.166667
912	0	0.166667
913	0	0.166667
914	0	0.166667
915	0	0.166667
916	0	0.166667
917	0	0.166667
918	0	0.166667
919	0	0.166667
920	0	0.166667
921	0	0.166667
922	0	0.166667
923	0	0.166667
924	0	0.166667
925	0	0.166667
926	0	0.166667
927	0	0.166667
928	0	0.166667
929	0	0.166667
930	0	0.166667
931	0	0.166667
932	0	0.166667
933	0	0.166667
934	0	0.166667
935	0	0.166667
936	0	0.166667
937	0	0.166667
938	0	0.166667
939	0	0.166667
940	0	0.166667
941	0	0.166667
942	0	0.166667
943	0	0.166667
944	0	0.333333
945	0	0.333333
946	0	0.333333
947	0	0.166667
948	0	0.1
949	0	0.1
950	0	0.1
951	0	0.1
952	0	0.1
953	0	0.1
954	0	0.1
955	0	0.1
956	0	0.1
957	0	0.1
958	0	0.1
959	0	0.1
960	0	0.1
961	0	0.1
962	0	0.1
963	0	0.1
964	0	0.1
965	0	0.1
966	0	0.1
967	0	0.1
968	0	0.333333
969	0	0.1
970	0	0.1
971	0	0.1
972	0	0.1
973	0	0.1
974	0	0.1
975	0	0.1
976	0	0.1
977	0	0.1
978	0	0.1
979	0	0.1
980	0	0.1
981	0	0.1
982	0	0.1
983	0	0.1
984	0	0.2
985	0	0.2
986	0	0.2
987	0	0.133333
988	0	0.107143
989	0	0.107143
990	0	0.107143
991	0	0.0769231
992	0	0.53455
993	0	0
994	0	0
995	0	0
996	0	0
997	0	0
998	0	0
999	0	0
1000	0	0
1001	0	0
1002	0	0
1003	0	0
1004	0	0
1005	0	0
1006	0	0
1007	0	0
1008	0	0
1009	0	0
1010	0	0
1011	0	0
1012	0	0
1013	0	0
1014	0	0
1015	0	0
1016	0	0
1017	0	0
1018	0	0
1019	0	0
1020	0	0
1021	0	0
1022	0	0
1023	0	0
1024	0	0
1025	0	0
1026	0	0
1027	0	0
1028	0	0
1029	0	0
1030	0	0
1031	0	0
1032	0	0
1033	0	0
1034	0	0
1035	0	0
1036	0	0
1037	0	0
1038	0	0
1039	0	0
1040	0	0
1041	0	0
1042	0	0
1043	0	0
1044	0	0
1045	0	0
1046	0	0
1047	0	0
1048	0	0
1049	0	0
1050	0	0
1051	0	0
1052	0	0
1053	0	0
1054	0	0
1055	0	0
1056	0	0
1057	0	0
1058	0	0
1059	0	0
1060	0	0
1061	0	0
1062	0	0
1063	0	0
1064	0	0
1065	0	0
1066	0	0
1067	0	0
1068	0	0
1069	0	0
1070	0	0
1071	0	0
1072	0	0
1073	0	0
1074	0	0
1075	0	0
1076	0	0
1077	0	0
1078	0	0
1079	0	0
1080	0	0
1081	0	0
1082	0	0
1083	0	0
1084	0	0
1085	0	0
1086	0	0
1087	0	0
1088	0	0
1089	0	0
1090	0	0
1091	0	0
1092	0	0
1093	0	0
1094	0	0
1095	0	0
1096	0	0
1097	0	0
1098	0	0
1099	0	0
1100	0	0
1101	0	0
1102	0	0
1103	0	0
1104	0	0
1105	0	0
1106	0	0
1107	0	0
1108	0	0
1109	0	0
1110	0	0
1111	0	0
1112	0	0
1113	0	0
1114	0	0
1115	0	0
1116	0	0
1117	0	0
1118	0	0
1119	0	0
1120	0	0
1121	0	0
1122	0	0
1123	0	0
1124	0	0
1125	0	0
1126	0	0
1127	0	0
1128	0	0
1129	0	0
1130	0	0
1131	0	0
1132	0	0
1133	0	0
1134	0	0
1135	0	0
1136	0	0
1137	0	0
1138	0	0
1139	0	0
1140	0	0
1141	0	0
1142	0	0
1143	0	0
1144	0	0
1145	0	0
1146	0	0
1147	0	0
1148	0	0
1149	0	0
1150	0	0
1151	0	0
1152	0	0
1153	0	0
1154	0	0
1155	0	0
1156	0	0
1157	0	0
1158	0	0
1159	0	0
1160	0	0
1161	0	0
1162	0	0
1163	0	0
1164	0	0
1165	0	0
1166	0	0
1167	0	0
1168	0	0
1169	0	0
1170	0	0
1171	0	0
1172	0	0
1173	0	0
1174	0	0
1175	0	0
1176	0	0
1177	0	0
1178	0	0
1179	0	0
1180	0	0
1181	0	0
1182	0	0
1183	0	0
1184	0	0
1185	0	0
1186	0	0
1187	0	0
1188	0	0
1189	0	0
1190	0	0
1191	0	0
1192	0	0
1193	0	0
1194	0	0
1195	0	0
1196	0	0
1197	0	0
1198	0	0
1199	0	0
1200	0	0
1201	0	0
1202	0	0
1203	0	0
1204	0	0
1205	0	0
1206	0	0
1207	0	0
1208	0	0
1209	0	0
1210	0	0
1211	0	0
1212	0	0
1213	0	0
1214	0	0
1215	0	0
1216	0	0
1217	0	0
1218	0	0
1219	0	0
1220	0	0
1221	0	0
1222	0	0
1223	0	0
1224	0	0
1225	0	0
1226	0	0
1227	0	0
1228	0	0
1229	0	0
1230	0	0
1231	0	0
1232	0	0
1233	0	0
1234	0	0
1235	0	0
1236	0	0
1237	0	0
1238	0	0
1239	0	0
1240	0	0
1241	0	0
1242	0	0
1243	0	0
1244	0	0
1245	0	0
1246	0	0
1247	0	0
1248	0	0
1249	0	0
1250	0	0
1251	0	0
1252	0	0
1253	0	0
1254	0	0
1255	0	0
1256	0	0
1257	0	0
1258	0	0
1259	0	0
1260	0	0
1261	0	0
1262	0	0
1263	0	0
1264	0	0
1265	0	0
1266	0	0
1267	0	0
1268	0	0
1269	0	0
1270	0	0
1271	0	0
1272	0	0
1273	0	0
1274	0	0
1275	0	0
1276	0	0
1277	0	0
1278	0	0
1279	0	0
1280	0	0
1281	0	0
1282	0	0
1283	0	0
1284	0	0
1285	0	0
1286	0	0
1287	0	0
1288	0	0
1289	0	0
1290	0	0
1291	0	0
1292	0	0
1293	0	0
1294	0	0
1295	0	0
1296	0	0
1297	0	0
1298	0	0
1299	0	0
1300	0	0
1301	0	0
1302	0	0
1303	0	0
1304	0	0
1305	0	0
1306	0	0
1307	0	0
1308	0	0
1309	0	0
1310	0	0
1311	0	0
1312	0	0
1313	0	0
1314	0	0
1315	0	0
1316	0	0
1317	0	0
1318	0	0
1319	0	0
1320	0	0
1321	0	0
1322	0	0
1323	0	0
1324	0	0
1325	0	0
1326	0	0
1327	0	0
1328	0	0
1329	0	0
1330	0	0
1331	0	0
1332	0	0
1333	0	0
1334	0	0
1335	0	0
1336	0	0
1337	0	0
1338	0	0
1339	0	0
1340	0	0
1341	0	0
1342	0	0
1343	0	0
1344	0	0
1345	0	0
1346	0	0
1347	0	0
1348	0	0
1349	0	0
1350	0	0
1351	0	0
1352	0	0
1353	0	0
1354	0	0
1355	0	0
1356	0	0
1357	0	0
1358	0	0
1359	0	0
1360	0	0
1361	0	0
1362	0	0
1363	0	0
1364	0	0
1365	0	0
1366	0	0
1367	0	0
1368	0	0
1369	0	0
1370	0	0
1371	0	0
1372	0	0
1373	0	0
1374	0	0
1375	0	0
1376	0	0
1377	0	0
1378	0	0
1379	0	0.536986
1380	0	0
1381	0	0
1382	0	0
1383	0	0
1384	0	0
1385	0	0
1386	0	0
1387	0	0
1388	0	0
1389	0	0
1390	0	0
1391	0	0
1392	0	0
1393	0	0
1394	0	0
1395	0	0
1396	0	0
1397	0	0
1398	0	0
1399	0	0
1400	0	0
1401	0	0
1402	0	0
1403	0	0
1404	0	0
1405	0	0
1406	0	0
1407	0	0
1408	0	0
1409	0	0
1410	0	0
1411	0	0
1412	0	0
1413	0	0
1414	0	0
1415	0	0
1416	0	0
1417	0	0
1418	0	0
1419	0	0
1420	0	0
1421	0	0
1422	0	0
1423	0	0
1424	0	0
1425	0	0
1426	0	0
1427	0	0
1428	0	0
1429	0	0
1430	0	0
1431	0	0
1432	0	0.166667
1433	0	0.166667
1434	0	0.166667
1435	0	0.166667
1436	0	0.166667
1437	0	0.166667
1438	0	0.166667
1439	0	0.166667
1440	0	0.166667
1441	0	0.531106
1442	0	0.513166
1443	0	0.1
1444	0	0.1
1445	0	0.1
1446	0	0.1
1447	0	0.1
1448	0	0.1
1449	0	0.1
1450	0	0.1
1451	0	0.1
1452	0	0.1
1453	0	0.52605
1454	0	0
1455	0	0
1456	0	0
1457	0	0
1458	0	0
1459	0	0
1460	0	0
1461	0	0
1462	0	0
1463	0	0
1464	0	0
1465	0	0
1466	0	0
1467	0	0
1468	0	0
1469	0	0
1470	0	0
1471	0	0
1472	0	0
1473	0	0
1474	0	0
1475	0	0
1476	0	0.333333
1477	0	0.333333
1478	0	0.333333
1479	0	0.333333
1480	0	0.2
1481	0	0.2
1482	0	0.2
1483	0	0.2
1484	0	0.2
1485	0	0.2
1486	0	0.2
1487	0	0.2
1488	0	0.2
1489	0	0.2
1490	0	0.2
1491	0	0.2
1492	0	0.2
1493	0	0.2
1494	0	0.2
1495	0	0.2
1496	0	0.2
1497	0	0.2
1498	0	0.519457
1499	0	0.0727273
1500	0	0.0727273
1501	0	0.0727273
1502	0	0.0727273
1503	0	0.0727273
1504	0	0.0727273
1505	0	0.0727273
1506	0	0.0363636
1507	0	0.0363636
1508	0	0.0363636
1509	0	0.0363636
1510	0	0.0363636
1511	0	0.0363636
1512	0	0.517676
1513	0	0.513158
1514	0	0
1515	0	0
1516	0	0
1517	0	0
1518	0	0
1519	0	0
1520	0	0
1521	0	0
1522	0	0
1523	0	0
1524	0	0
1525	0	0
1526	0	0
1527	0	0
1528	0	0
1529	0	0
1530	0	0
1531	0	0
1532	0	0
1533	0	0
1534	0	0
1535	0	0
1536	0	0
1537	0	0
1538	0	0
1539	0	0
1540	0	0
1541	0	0
1542	0	0
1543	0	0
1544	0	0
1545	0	0
1546	0	0
1547	0	0
1548	0	0
1549	0	0
1550	0	0
1551	0	0
1552	0	0
1553	0	0
1554	0	0
1555	0	0
1556	0	0
1557	0	0
1558	0	0
1559	0	0
1560	0	0
1561	0	0
1562	0	0
1563	0	0
1564	0	0
1565	0	0
1566	0	0
1567	0	0
1568	0	0
1569	0	0
1570	0	0
1571	0	0
1572	0	0
1573	0	0
1574	0	0
1575	0	0
1576	0	0
1577	0	0
1578	0	0
1579	0	0
1580	0	0
1581	0	0
1582	0	0
1583	0	0
1584	0	0
1585	0	0
1586	0	0
1587	0	0
1588	0	0
1589	0	0
1590	0	0
1591	0	0
1592	0	0
1593	0	0
1594	0	0
1595	0	0
1596	0	0
1597	0	0
1598	0	0
1599	0	0
1600	0	0
1601	0	0
1602	0	0
1603	0	0
1604	0	0
1605	0	0
1606	0	0
1607	0	0
1608	0	0
1609	0	0
1610	0	0
1611	0	0
1612	0	0
1613	0	0
1614	0	0
1615	0	0
1616	0	0
1617	0	0
1618	0	0
1619	0	0
1620	0	0
1621	0	0
1622	0	0
1623	0	0
1624	0	0
1625	0	0
1626	0	0
1627	0	0
1628	0	0
1629	0	0
1630	0	0
1631	0	0
1632	0	0
1633	0	0
1634	0	0
1635	0	0
1636	0	0
1637	0	0
1638	0	0
1639	0	0
1640	0	0
1641	0	0
1642	0	0
1643	0	0
1644	0	0
1645	0	0
1646	0	0
1647	0	0
1648	0	0
1649	0	0
1650	0	0
1651	0	0
1652	0	0
1653	0	0
1654	0	0
1655	0	0
1656	0	0
1657	0	0
1658	0	0
1659	0	0
1660	0	0
1661	0	0
1662	0	0
1663	0	0
1664	0	0
1665	0	0
1666	0	0
1667	0	0
1668	0	0
1669	0	0
1670	0	0
1671	0	0
1672	0	0
1673	0	0
1674	0	0
1675	0	0
1676	0	0
1677	0	0
1678	0	0
1679	0	0
1680	0	0
1681	0	0
1682	0	0
1683	0	0
1684	0	0
1685	0	0
1686	0	0
1687	0	0
1688	0	0
1689	0	0
1690	0	0
1691	0	0
1692	0	0
1693	0	0
1694	0	0
1695	0	0
1696	0	0
1697	0	0
1698	0	0
1699	0	0
1700	0	0
1701	0	0
1702	0	0
1703	0	0
1704	0	0
1705	0	0
1706	0	0
1707	0	0
1708	0	0
1709	0	0
1710	0	0
1711	0	0
1712	0	0
1713	0	0
1714	0	0
1715	0	0
1716	0	0
1717	0	0
1718	0	0
1719	0	0
1720	0	0
1721	0	0
1722	0	0
1723	0	0
1724	0	0
1725	0	0
1726	0	0
1727	0	0
1728	0	0
1729	0	0
1730	0	0
1731	0	0
1732	0	0
1733	0	0
1734	0	0
1735	0	0
1736	0	0
1737	0	0.518044
1738	0	0
1739	0	0
1740	0	0
1741	0	0
1742	0	0
1743	0	0
1744	0	0
1745	0	0
1746	0	0
1747	0	0
1748	0	0
1749	0	0
1750	0	0
1751	0	0
1752	0	0
1753	0	0
1754	0	0
1755	0	0
1756	0	0
1757	0	0
1758	0	0
1759	0	0
1760	0	0
1761	0	0
1762	0	0.0666667
1763	0	0.0666667
1764	0	0.51639
1765	0	0.514084
1766	0	0.0384615
1767	0	0.0384615
1768	0	0.0384615
1769	0	0.0384615
1770	0	0.0384615
1771	0	0.0712251
1772	0	0.0712251
1773	0	0.0769231
1774	0	0.0769231
1775	0	0.0769231
1776	0	0.0712251
1777	0	0.0655271
1778	0	0.0707692
1779	0	0.047619
1780	0	0.047619
1781	0	0.038961
1782	0	0.034632
1783	0	0.038961
1784	0	0.0380952
1785	0	0.0333333
1786	0	0.025974
1787	0	0.025974
1788	0	0.0285714
1789	0	0.0285714
1790	0	0.0285714
1791	0	0.0285714
1792	0	0.0285714
1793	0	0.0285714
1794	0	0.0315789
1795	0	0.0315789
1796	0	0.0368421
1797	0	0.0409357
1798	0	0.0409357
1799	0	0.0409357
1800	0	0.0409357
1801	0	0.0261438
1802	0	0.0261438
1803	0	0.0261438
1804	0	0.0261438
1805	0	0.0220588
1806	0	0.00833333
1807	0	0.0220588
1808	0	0.025
1809	0	0.025
1810	0	0.0380952
1811	0	0.0380952
1812	0	0.043956
1813	0	0.0512821
1814	0	0.0512821
1815	0	0.0757576
1816	0	0.0641026
1817	0	0.0641026
1818	0	0.0757576
1819	0	0.0757576
1820	0	0.0757576
1821	0	0.0757576
1822	0	0.111111
1823	0	0.155556
1824	0	0.155556
1825	0	0.214286
1826	0	0.214286
1827	0	0.214286
1828	0	0.166667
1829	0	0.25
1830	0	0.290909
1831	0	0.290909
1832	0	0.381818
1833	0	0.381818
1834	0	0.381818
1835	0	0.381818
1836	0	0.714286
1837	0	0.714286
1838	0	0.714286
1839	0	0.714286
1840	0	0
1841	0	0
1842	0	1
1843	0	1
1844	0	0.970466
1845	0	0.990101
1846	0	0.990119
1847	0	0.984219
1848	0	0.982255
1849	0	0.988148
1850	0	0.988148
1851	0	0.984229
1852	0	0.98618
1853	0	0.986182
1854	0	0.986182
1855	0	0
1856	0	0
1857	0	0
1858	0	0.986127
1859	0	0.986127
1860	0	0.988091
1861	0	0.988091
1862	0	0.988091
1863	0	0.622222
1864	0	0.777778
1865	0	0.777778
1866	0	0.777778
1867	0	0.622222
1868	0	0.654545
1869	0	0.654545
1870	0	0.654545
1871	0	0.236364
1872	0	0.290909
1873	0	0.290909
1874	0	0.290909
1875	0	0.363636
1876	0	0.363636
1877	0	0.266667
1878	0	0.266667
1879	0	0.266667
1880	0	0.266667
1881	0	0.5
1882	0	0.5
1883	0	0.5
1884	0	0
1885	0	0
1886	0	0
1887	0	0
1888	0	0
1889	0	0
1890	0	0
1891	0	0
1892	0	0.853867
1893	0	0
1894	0	0
1895	0	0
1896	0	0
1897	0	0
1898	0	0
1899	0	0
1900	0	0
1901	0	0
1902	0	0
1903	0	0
1904	0	0.988241
1905	0	0.990196
1906	0	0.990196
1907	0	0.990196
1908	0	0
1909	0	0
1910	0	0
1911	0	0
1912	1	0
1913	1	0
1914	1	0
1915	1	0
1916	1	0
1917	1	0
1918	1	0
1919	1	0
1920	1	0
1921	1	0
1922	0	0
1923	0	0.994106
1924	0	0.994106
1925	0	0.994106
1926	0	0.994106
1927	0	0.996061
1928	0	0
1929	0	0.9941
1930	0	0.9941
1931	0	0.992145
1932	0	0
1933	0	0
1934	0	0.964286
1935	0	0.869667
1936	0	0.869667
1937	0	0.882658
1938	0	0.882658
1939	0	0
1940	0	0.3
1941	0	0.601732
1942	0	0.514493
1943	0	0.32437
1944	0	0.824864
1945	0	0.802686
1946	0	0
1947	0	0
1948	0	0
1949	0	0.733333
1950	0	0.758333
1951	0	0.567251
1952	0	0.47619
1953	0	0.738806
1954	0	0
1955	0	0.333333
1956	0	0
1957	0	0.276653
1958	0	0.348718
1959	0	0.256743
1960	0	0.178479
1961	0	0.483492
1962	0	0.650633
1963	0	0
1964	0	0
1965	0	0
1966	0	0
1967	0	0.5
1968	0	0.252643
1969	0	0.513023
1970	0	0.780475
1971	0	0.915584
1972	0	0.952381
1973	0	0.952381
1974	0	0.994141
1975	0	0.994141
1976	0	0.994141
1977	0	0.994141
1978	0	0.994146
1979	0	0.994146
1980	0	0.994141
1981	0	0.994141
1982	0	0.994141
1983	0	0.994141
1984	0	0.992199
1985	0	0.998043
1986	0	1
1987	0	1
1988	1	1
1989	1	1
1990	1	1
1991	1	1
1992	1	1
1993	0	0.998047
1994	0	0.998047
1995	0	0.998045
1996	0	0.998045
1997	0	0.998045
1998	0	0.996092
1999	0	0.998043
2000	0	0.994146
2001	0	0.994146
2002	0	0.992199
2003	0	0.994135
2004	0	0.994135
2005	1	1
2006	1	1
2007	1	1
2008	1	1
2009	1	1
2010	0	0.333333
2011	0	0.333333
2012	0	0.333333
2013	0	0
2014	0	0
2015	1	0
2016	1	0
2017	1	0
2018	1	0
2019	1	0
2020	0	0
2021	0	0
2022	0	0.333333
2023	0	0.333333
2024	0	0.998039
2025	0	0.996096
2026	0	0.996096
2027	0	0.996096
2028	0	0.996096
2029	0	0.996096
2030	0	0.996103
2031	0	0.996103
2032	0	0.996103
2033	0	0.996103
2034	0	0.996096
2035	0	0.996096
2036	0	0
2037	0	0
2038	0	0
2039	0	0
2040	0	0
2041	0	0.994146
2042	0	0
2043	0	0
2044	0	0
2045	0	0.996096
2046	0	0.996096
2047	0	0.996096
2048	0	0.996096
2049	0	0.996092
2050	0	0.996092
2051	0	0.996092
2052	0	0.600611
2053	0	0.598851
2054	0	0.577759
2055	0	0.567551
2056	0	0.553908
2057	0	0.993249
2058	0	0.991713
2059	0	0.991739
2060	0	0.997241
2061	0	0.998041
2062	0	0.996096
2063	0	0.996096
2064	0	0.996096
2065	0	0
2066	0	0
2067	0	0
2068	0	0
2069	0	0
2070	0	0
2071	0	0
2072	0	0
2073	0	0
2074	0	0
2075	0	0
2076	0	0
2077	0	0
2078	0	0
2079	0	0
2080	0	0
2081	0	0
2082	0	0
2083	0	0
2084	0	0
2085	0	0
2086	0	0
2087	0	0
2088	0	0.333333
2089	0	0.333333
2090	0	0.333333
2091	0	0.333333
2092	0	0.333333
2093	0	0.333333
2094	0	1
2095	0	1
2096	0	1
2097	0	1
2098	0	1
2099	0	1
2100	0	1
2101	0	1
2102	0	0.597634
2103	0	0.595312
2104	0	0
2105	0	0
2106	0	0.990293
2107	0	0.990293
2108	0	0.990293
2109	0	0.990293
2110	0	0
2111	0	0
2112	0	0
2113	0	0
2114	0	0
2115	0	0
2116	0	0
2117	0	0
2118	1	0
2119	1	0
2120	1	0
2121	1	0
2122	1	0
2123	1	0
2124	0	0
2125	0	0
2126	0	0
2127	0	0
2128	0	0.990276
2129	0	0
2130	0	0
2131	0	0
2132	0	0
2133	0	0
2134	0	0
2135	0	0
2136	0	0.333333
2137	0	0.5
2138	0	0.285714
2139	0	0.25
2140	0	0.25
2141	0	0.912239
2142	0	0.990284
2143	0	0.990284
2144	0	0.994163
2145	0	0.994163
2146	0	0.996107
2147	0	0.996107
2148	0	0.996107
2149	0	0.996111
2150	0	0.996111
2151	0	0.996111
2152	0	0.996111
2153	0	0.996111
2154	0	0.996111
2155	0	0.996111
2156	0	0.996111
2157	0	0.989601
2158	0	1
2159	0	0.863176
2160	0	0.998049
2161	0	0.998053
2162	0	0.998053
2163	0	0.998053
2164	0	0.998053
2165	0	0.998053
2166	0	0.998053
2167	0	0.998053
2168	0	0.998053
2169	0	0.998053
2170	0	0
2171	0	0
2172	0	0
2173	0	0
2174	0	0
2175	0	0
2176	0	0
2177	0	0
2178	0	0
2179	0	0
2180	0	0
2181	0	0
2182	0	0
2183	0	0
2184	0	0
2185	0	0
2186	0	0
2187	0	0
2188	0	0
2189	0	0
2190	0	0
2191	0	0.996107
2192	0	0.996107
2193	0	0.996107
2194	0	0.996107
2195	0	0.996107
2196	0	0.996107
2197	0	0.996107
2198	0	0.996107
2199	0	0
2200	1	0
2201	0	0
2202	0	0
2203	0	0
2204	0	0
2205	0	0
2206	0	0
2207	0	0
2208	0	0
2209	0	0
2210	0	0
2211	0	0
2212	0	0
2213	0	0
2214	0	0
2215	0	0
2216	0	0.990272
2217	0	0.992214
2218	0	0.992214
2219	0	0.992214
2220	0	0.992214
2221	0	0
2222	0	0
2223	0	0
2224	0	0
2225	0	0
2226	0	0
2227	0	0
2228	0	0
2229	0	0
2230	0	0
2231	0	0
2232	0	0.994158
2233	0	0.994158
2234	0	0.992222
2235	0	0
2236	0	0
2237	0	0
2238	0	0
2239	0	0
2240	0	0
2241	0	0
2242	0	0
2243	0	0
2244	0	0
2245	0	0
2246	0	0
2247	0	0
2248	0	0
2249	0	0
2250	0	0
2251	0	0
2252	0	0
2253	0	0
2254	0	0
2255	0	0
2256	0	0
2257	0	0.990282
2258	0	0.5
2259	0	0.5
2260	0	0.986387
2261	0	0.992207
2262	0	0.992207
2263	0	0
2264	0	0
2265	0	0
2266	0	0
2267	0	0
2268	0	0
2269	0	0
2270	0	0
2271	0	0
2272	0	0
2273	0	0
2274	0	0
2275	0	0
2276	0	0
2277	0	0
2278	0	0
2279	0	0
2280	0	0
2281	0	0
2282	0	0
2283	0	0
2284	0	0.992207
2285	0	0.992207
2286	0	0.992207
2287	0	0.992207
2288	0	0.992199
2289	0	0
2290	1	0
2291	1	0
2292	1	0
2293	1	0
2294	1	0
2295	0	0
2296	0	0
2297	0	0.3
2298	0	0.2
2299	0	0.984434
2300	0	0
2301	0	0
2302	0	0
2303	0	0
2304	0	0
2305	0	0
2306	0	0
2307	0	0.166667
2308	0	0.980538
2309	0	0.980538
2310	0	0.166667
2311	0	0.333333
2312	0	0
2313	0	0
2314	0	0
2315	0	0.974738
2316	0	0.974736
2317	0	0
2318	0	0
2319	0	0
2320	0	0
2321	0	0
2322	0	0
2323	0	0
2324	0	0
2325	0	0
2326	0	0
2327	0	0
2328	0	0
2329	0	0
2330	0	0
2331	0	0
2332	0	0
2333	0	0
2334	0	0
2335	0	0
2336	0	0
2337	0	0
2338	0	0
2339	0	0
2340	0	0
2341	0	0
2342	0	0
2343	0	0
2344	0	0
2345	0	0
2346	0	0
2347	0	0
2348	0	0
2349	0	0
2350	0	0
2351	0	0
2352	0	0
2353	0	0
2354	0	0
2355	0	0
2356	0	0
2357	0	0.047619
2358	0	0.047619
2359	0	0.047619
2360	0	0.047619
2361	0	0.047619
2362	0	0.047619
2363	0	0.047619
2364	0	0.047619
2365	0	0.047619
2366	0	0.047619
2367	0	0.047619
2368	0	0.047619
2369	0	0.047619
2370	0	0.047619
2371	0	0.0952381
2372	0	0.0952381
2373	0	0.0952381
2374	0	0.0952381
2375	0	0.0952381
2376	0	0.0952381
2377	0	0.0952381
2378	0	0.0952381
2379	0	0.0952381
2380	0	0.0952381
2381	0	0.0952381
2382	0	0.0952381
2383	0	0.0952381
2384	0	0.0952381
2385	0	0.0952381
2386	0	0.0952381
2387	0	0.0952381
2388	0	0.0952381
2389	0	0.0952381
2390	0	0.0952381
2391	0	0.0952381
2392	0	0.0952381
2393	0	0.0952381
2394	0	0.0952381
2395	0	0.0952381
2396	0	0.0952381
2397	0	0.0952381
2398	0	0.0952381
2399	0	0.0952381
2400	0	0.0952381
2401	0	0.0952381
2402	0	0.0952381
2403	0	0.0952381
2404	0	0.0952381
2405	0	0.0952381
2406	0	0.0952381
2407	0	0.0952381
2408	0	0.0952381
2409	0	0.0952381
2410	0	0.0952381
2411	0	0.0952381
2412	0	0.0952381
2413	0	0.0952381
2414	0	0.0714286
2415	0	0.0714286
2416	0	0.0714286
2417	0	0.0714286
2418	0	0.0714286
2419	0	0.0714286
2420	0	0.0714286
2421	0	0.0714286
2422	0	0.0714286
2423	0	0.0714286
2424	0	0.0555556
2425	0	0.0555556
2426	0	0.0555556
2427	0	0.0555556
2428	0	0.166667
2429	0	0.166667
2430	0	0.166667
2431	0	0.166667
2432	0	0.968932
2433	0	0.285714
2434	0	0.285714
2435	0	0.285714
2436	0	0.285714
2437	0	0.285714
2438	0	0.285714
2439	0	0.285714
2440	0	0.285714
2441	0	0.285714
2442	0	0.285714
2443	0	0.285714
2444	0	0.194444
2445	0	0.194444
2446	0	0.194444
2447	0	0.194444
2448	0	0.145455
2449	0	0.145455
2450	0	0.967006
2451	0	1
2452	0	1
2453	0	1
2454	0	1
2455	0	1
2456	0	1
2457	0	1
2458	0	1
2459	0	1
2460	0	1
2461	0	1
2462	0	1
2463	0	1
2464	0	1
2465	0	1
2466	0	1
2467	0	1
2468	0	1
2469	0	1
2470	0	1
2471	0	1
2472	0	1
2473	0	1
2474	0	1
2475	0	1
2476	0	1
2477	0	1
2478	0	1
2479	0	1
2480	0	1
2481	0	1
2482	0	1
2483	0	1
2484	0	1
2485	0	1
2486	0	0.961394
2487	0	0
2488	0	0
2489	0	0
2490	0	0
2491	0	0
2492	0	0
2493	0	0
2494	0	0
2495	0	0
2496	0	0
2497	0	0
2498	0	0
2499	0	0
2500	0	0
2501	0	0
2502	0	0
2503	0	0
2504	0	0
2505	0	0
2506	0	0
2507	0	0
2508	0	0
2509	0	0
2510	0	0
2511	0	0
2512	0	0
2513	0	0
2514	0	0
2515	0	0
2516	0	0
2517	0	0
2518	0	0
2519	0	0
2520	0	0
2521	0	0
2522	0	0
2523	0	0
2524	0	0
2525	0	0
2526	0	0
2527	0	0
2528	0	0
2529	0	0
2530	0	0
2531	0	0
2532	0	0
2533	0	0
2534	0	0
2535	0	0
2536	0	0
2537	0	0
2538	0	0
2539	0	0
2540	0	0
2541	0	0
2542	0	0
2543	0	0
2544	0	0
2545	0	0
2546	0	0
2547	0	0
2548	0	0
2549	0	0
2550	0	0
2551	0	0
2552	0	0
2553	0	0
2554	0	0
2555	0	0
2556	0	0.5
2557	0	0.5
2558	0	0.5
2559	0	0.5
2560	0	0.5
2561	0	0.5
2562	0	0.5
2563	0	0.5
2564	0	0.5
2565	0	0.5
2566	0	0.5
2567	0	0.3
2568	0	0.3
2569	0	0.3
2570	0	0.3
2571	0	0.3
2572	0	0.3
2573	0	0.3
2574	0	0.3
2575	0	0.3
2576	0	0.3
2577	0	0.3
2578	0	0.3
2579	0	0.3
2580	0	0.3
2581	0	0.3
2582	0	0.3
2583	0	0.3
2584	0	0.3
2585	0	0.3
2586	0	0.3
2587	0	0.3
2588	0	0.3
2589	0	0.3
2590	0	0.3
2591	0	0.3
2592	0	0.3
2593	0	0.3
2594	0	0.3
2595	0	0.3
2596	0	0.3
2597	0	0.3
2598	0	0.3
2599	0	0.3
2600	0	0.3
2601	0	0.3
2602	0	0.3
2603	0	0.3
2604	0	0.3
2605	0	0.3
2606	0	0.3
2607	0	0.3
2608	0	0.3
2609	0	0.3
2610	0	0.3
2611	0	0.3
2612	0	0.3
2613	0	0.3
2614	0	0.3
2615	0	0.3
2616	0	0.3
2617	0	0.3
2618	0	0.3
2619	0	0.3
2620	0	0.3
2621	0	0.3
2622	0	0.3
2623	0	0.3
2624	0	0.3
2625	0	0.3
2626	0	0.3
2627	0	0.3
2628	0	0.3
2629	0	0.3
2630	0	0.3
2631	0	0.3
2632	0	0.3
2633	0	0.3
2634	0	0.3
2635	0	0.3
2636	0	0.3
2637	0	0.3
2638	0	0.3
2639	0	0.3
2640	0	0.3
2641	0	0.3
2642	0	0.3
2643	0	0.3
2644	0	0.3
2645	0	0.3
2646	0	0.3
2647	0	0.3
2648	0	0.3
2649	0	0.3
2650	0	0.3
2651	0	0.3
2652	0	0.3
2653	0	0.3
2654	0	0.3
2655	0	0.3
2656	0	0.3
2657	0	0.3
2658	0	0.3
2659	0	0.3
2660	0	0.3
2661	0	0.3
2662	0	0.3
2663	0	0.3
2664	0	0.3
2665	0	0.3
2666	0	0.3
2667	0	0.3
2668	0	0.3
2669	0	0.3
2670	0	0.3
2671	0	0.3
2672	0	0.3
2673	0	0.3
2674	0	0.3
2675	0	0.3
2676	0	0.3
2677	0	0.3
2678	0	0.3
2679	0	0.3
2680	0	0.3
2681	0	0.3
2682	0	0.3
2683	0	0.3
2684	0	0.3
2685	0	0.3
2686	0	0.3
2687	0	0.3
2688	0	0.3
2689	0	0.3
2690	0	0.3
2691	0	0.3
2692	0	0.3
2693	0	0.3
2694	0	0.3
2695	0	0.3
2696	0	0.3
2697	0	0.3
2698	0	0.3
2699	0	0.967036
2700	0	0
2701	0	0
2702	0	0
2703	0	0
2704	0	0
2705	0	0
2706	0	0
2707	0	0
2708	0	0
2709	0	0
2710	0	0
2711	0	0
2712	0	0
2713	0	0
2714	0	0
2715	0	0
2716	0	0
2717	0	0
2718	0	0
2719	0	0
2720	0	0
2721	0	0
2722	0	0
2723	0	0
2724	0	0
2725	0	0
2726	0	0
2727	0	0
2728	0	0
2729	0	0
2730	0	0
2731	0	0
2732	0	0
2733	0	0
2734	0	0
2735	0	0
2736	0	0
2737	0	0
2738	0	0
2739	0	0
2740	0	0
2741	0	0
2742	0	0
2743	0	0
2744	0	0
2745	0	0
2746	0	0
2747	0	0
2748	0	0
2749	0	0
2750	0	0
2751	0	0
2752	0	0
2753	0	0
2754	0	0
2755	0	0
2756	0	0
2757	0	0
2758	0	0
2759	0	0
2760	0	0
2761	0	0
2762	0	0
2763	0	0
2764	0	0
2765	0	0
2766	0	0
2767	0	0
2768	0	0
2769	0	0
2770	0	0
2771	0	0
2772	0	0
2773	0	0
2774	0	0
2775	0	0
2776	0	0
2777	0	0
2778	0	0
2779	0	0
2780	0	0
2781	0	0
2782	0	0
2783	0	0
2784	0	0
2785	0	0
2786	0	0
2787	0	0
2788	0	0
2789	0	0
2790	0	0
2791	0	0
2792	0	0
2793	0	0
2794	0	0
2795	0	0
2796	0	0
2797	0	0
2798	0	0
2799	0	0
2800	0	0
2801	0	0
2802	0	0
2803	0	0
2804	0	0
2805	0	0
2806	0	0
2807	0	0
2808	0	0
2809	0	0
2810	0	0
2811	0	0
2812	0	0
2813	0	0
2814	0	0
2815	0	0
2816	0	0
2817	0	0
2818	0	0
2819	0	0
2820	0	0
2821	0	0
2822	0	0
2823	0	0
2824	0	0
2825	0	0
2826	0	0
2827	0	0
2828	0	0
2829	0	0
2830	0	0
2831	0	0
2832	0	0
2833	0	0
2834	0	0
2835	0	0
2836	0	0
2837	0	0
2838	0	0
2839	0	0
2840	0	0
2841	0	0
2842	0	0
2843	0	0
2844	0	0
2845	0	0
2846	0	0
2847	0	0
2848	0	0
2849	0	0
2850	0	0
2851	0	0
2852	0	0
2853	0	0
2854	0	0
2855	0	0
2856	0	0
2857	0	0
2858	0	0
2859	0	0
2860	0	0
2861	0	0
2862	0	0
2863	0	0
2864	0	0
2865	0	0
2866	0	0
2867	0	0
2868	0	0
2869	0	0
2870	0	0
2871	0	0
2872	0	0
2873	0	0
2874	0	0
2875	0	0
2876	0	0
2877	0	0
2878	0	0
2879	0	0
2880	0	0
2881	0	0
2882	0	0
2883	0	0
2884	0	0
2885	0	0
2886	0	0
2887	0	0
2888	0	0
2889	0	0
2890	0	0
2891	0	0
2892	0	0
2893	0	0
2894	0	0
2895	0	0
2896	0	0
2897	0	0
2898	0	0
2899	0	0
2900	0	0
2901	0	0
2902	0	0
2903	0	0
2904	0	0
2905	0	0
2906	0	0
2907	0	0
2908	0	0
2909	0	0
2910	0	0
2911	0	0
2912	0	0
2913	0	0
2914	0	0
2915	0	0
2916	0	0
2917	0	0
2918	0	0
2919	0	0
2920	0	0
2921	0	0
2922	0	0
2923	0	0
2924	0	0
2925	0	0
2926	0	0
2927	0	0
2928	0	0
2929	0	0
2930	0	0
2931	0	0
2932	0	0
2933	0	0
2934	0	0
2935	0	0
2936	0	0
2937	0	0
2938	0	0
2939	0	0
2940	0	0
2941	0	0
2942	0	0
2943	0	0
2944	0	0
2945	0	0
2946	0	0
2947	0	0
2948	0	0
2949	0	0
2950	0	0
2951	0	0
2952	0	0
2953	0	0
2954	0	0
2955	0	0
2956	0	0
2957	0	0
2958	0	0
2959	0	0
2960	0	0
2961	0	0
2962	0	0
2963	0	0
2964	0	0
2965	0	0
2966	0	0
2967	0	0
2968	0	0
2969	0	0
2970	0	0
2971	0	0
2972	0	0
2973	0	0
2974	0	0
2975	0	0
2976	0	0
2977	0	0
2978	0	0
2979	0	0
2980	0	0
2981	1	0
2982	1	0
2983	0	0
2984	0	0
2985	0	0
2986	0	0
2987	0	0
2988	0	0
2989	0	0
2990	0	0
2991	0	0
2992	0	0
2993	0	0
2994	0	0
2995	0	0
2996	0	0
2997	0	0
2998	1	0
2999	0	0
3000	0	0
3001	0	0
3002	0	0
3003	0	0
3004	0	0
3005	0	0
3006	0	0
3007	0	0
3008	0	0
3009	0	0
3010	0	0
3011	0	0
3012	0	0
3013	0	0
3014	0	0
3015	0	0
3016	0	0
3017	0	0
3018	0	0
3019	0	0
3020	0	0
3021	0	0
3022	0	0
3023	0	0
3024	0	0
3025	0	0
3026	0	0
3027	0	0
3028	0	0
3029	0	0
3030	0	0
3031	0	0
3032	0	0
3033	0	0
3034	0	0
3035	0	0
3036	0	0
3037	0	0
3038	0	0
3039	0	0
3040	0	0
3041	0	0
3042	0	0
3043	0	0
3044	0	0
3045	0	0
3046	0	0
3047	0	0
3048	0	0
3049	0	0
3050	0	0
3051	0	0
3052	0	0
3053	0	0
3054	0	0
3055	0	0
3056	0	0
3057	0	0
3058	0	0
3059	0	0
3060	0	0
3061	0	0
3062	0	0
3063	0	0
3064	0	0
3065	0	0
3066	0	0
3067	0	0
3068	0	0
3069	0	0
3070	0	0
3071	0	0
3072	0	0
3073	0	0
3074	0	0
3075	0	0
3076	0	0
3077	0	0
3078	0	0
3079	0	0
3080	0	0
3081	0	0
3082	0	0
3083	0	0
3084	0	0
3085	0	0
3086	0	0
3087	0	0
3088	0	0
3089	0	0
3090	0	0
3091	0	0
3092	0	0
3093	0	0
3094	0	0
3095	0	0
3096	0	0
3097	0	0
3098	0	0
3099	0	0
3100	0	0
3101	0	0
3102	0	0
3103	0	0
3104	0	0
3105	0	0
3106	0	0
3107	0	0
3108	0	0
3109	0	0
3110	0	0
3111	0	0
3112	0	0
3113	0	0
3114	0	0
3115	0	0
3116	0	0
3117	0	0
3118	0	0
3119	0	0
3120	0	0
3121	0	0
3122	0	0
3123	0	0
3124	0	0
3125	0	0
3126	0	0
3127	0	0
3128	0	0
3129	0	0
3130	0	0
3131	0	0
3132	0	0
3133	0	0
3134	0	0
3135	0	0
3136	0	0
3137	0	0
3138	0	0
3139	0	0
3140	0	0
3141	0	0
3142	0	0
3143	0	0
3144	0	0
3145	0	0
3146	0	0.957564
3147	0	0.953753
3148	0	0.333333
3149	0	0.333333
3150	0	0.333333
3151	0	0.333333
3152	0	0.333333
3153	0	0.333333
3154	0	0.333333
3155	0	0.333333
3156	0	0.333333
3157	0	0.333333
3158	0	0.333333
3159	0	0.333333
3160	0	0.333333
3161	0	0.333333
3162	0	0.333333
3163	0	0.333333
3164	0	0.333333
3165	0	0.333333
3166	0	0
3167	0	0
3168	0	0
3169	0	0
3170	0	0
3171	0	0
3172	0	0
3173	0	0
3174	0	0
3175	0	0
3176	0	0
3177	0	0
3178	0	0
3179	0	0
3180	0	0
3181	0	0
3182	0	0
3183	0	0
3184	0	0
3185	0	0
3186	0	0
3187	0	0
3188	0	0
3189	0	0
3190	0	0
3191	0	0
3192	0	0
3193	0	0
3194	0	0
3195	0	0
3196	0	0
3197	0	0
3198	0	0
3199	0	0
3200	0	0
3201	0	0
3202	0	0
3203	0	0
3204	0	0
3205	0	0
3206	0	0
3207	0	0
3208	0	0
3209	0	0
3210	0	0
3211	0	0
3212	0	0
3213	0	0
3214	0	0
3215	0	0
3216	0	0
3217	0	0
3218	0	0
3219	0	0
3220	0	0
3221	0	0
3222	0	0
3223	0	0
3224	0	0
3225	0	0
3226	0	0
3227	0	0
3228	0	0
3229	0	0
3230	0	0
3231	0	0
3232	0	0
3233	0	0
3234	0	0
3235	0	0
3236	0	0
3237	0	0
3238	0	0
3239	0	0
3240	0	0
3241	0	0
3242	0	0
3243	0	0
3244	0	0
3245	0	0
3246	0	0
3247	0	0
3248	0	0
3249	0	0
3250	0	0
3251	0	0
3252	0	0
3253	0	0
3254	0	0
3255	0	0
3256	0	0
3257	0	0
3258	0	0
3259	0	0
3260	0	0
3261	0	0
3262	0	0
3263	0	0
3264	0	0
3265	0	0
3266	0	0
3267	0	0
3268	0	0
3269	0	0
3270	0	0
3271	0	0
3272	0	0
3273	0	0
3274	0	0
3275	0	0
3276	0	0
3277	0	0
3278	0	0
3279	0	0
3280	0	0
3281	0	0
3282	0	0
3283	0	0
3284	0	0
3285	0	0
3286	0	0
3287	0	0
3288	0	0
3289	0	0
3290	0	0
3291	0	0
3292	0	0
3293	0	0
3294	0	0
3295	0	0
3296	0	0
3297	0	0
3298	0	0
3299	0	0
3300	0	0
3301	0	0
3302	0	0
3303	0	0
3304	0	0
3305	0	0
3306	0	0
3307	0	0
3308	0	0
3309	0	0
3310	0	0
3311	0	0
3312	0	0
3313	0	0
3314	0	0
3315	0	0
3316	0	0
3317	0	0
3318	0	0
3319	0	0
3320	0	0
3321	0	0
3322	0	0
3323	0	0
3324	0	0
3325	0	0
3326	0	0
3327	0	0
3328	0	0
3329	0	0
3330	0	0
3331	0	0
3332	0	0
3333	0	0
3334	0	0
3335	0	0
3336	0	0
3337	0	0
3338	0	0
3339	0	0
3340	0	0
3341	0	0
3342	0	0
3343	0	0
3344	0	0
3345	0	0
3346	0	0
3347	0	0
3348	0	0
3349	0	0
3350	0	0
3351	0	0
3352	0	0
3353	0	0
3354	0	0
3355	0	0
3356	0	0
3357	0	0
3358	0	0
3359	0	0
3360	0	0
3361	0	0
3362	0	0
3363	0	0
3364	0	0
3365	0	0
3366	0	0
3367	0	0.816122
3368	0	0.3
3369	0	0.3
3370	0	0.3
3371	0	0.3
3372	0	0.3
3373	0	0.3
3374	0	0.3
3375	0	0.3
3376	0	0.3
3377	0	0.3
3378	0	0.3
3379	0	0.3
3380	0	0.3
3381	0	0.3
3382	0	0.3
3383	0	0.3
3384	0	0.3
3385	0	0.3
3386	0	0.3
3387	0	0.3
3388	0	0.3
3389	0	0.3
3390	0	0.3
3391	0	0.3
3392	0	0.3
3393	0	0.3
3394	0	0.6
3395	0	0.6
3396	0	0.6
3397	0	0.6
3398	0	0.6
3399	0	0.6
3400	0	0.6
3401	0	0.6
3402	0	0.6
3403	0	0.6
3404	0	0.6
3405	0	0.6
3406	0	0.6
3407	0	0.6
3408	0	0.6
3409	0	0.6
3410	0	0.6
3411	0	0.6
3412	0	0.6
3413	0	0.6
3414	0	0.6
3415	0	0.6
3416	0	0.6
3417	0	0.6
3418	0	0.6
3419	0	0.6
3420	0	0.6
3421	0	0.6
3422	0	0.6
3423	0	0.6
3424	0	0.6
3425	0	0.6
3426	0	0.6
3427	0	0.6
3428	0	0.6
3429	0	0.6
3430	0	0.6
3431	0	0.6
3432	0	0.6
3433	0	0.6
3434	0	0.6
3435	0	0.6
3436	0	0.6
3437	0	0.6
3438	0	0.6
3439	0	0.6
3440	0	0.6
3441	0	0.6
3442	0	0.6
3443	0	0.6
3444	0	0.6
3445	0	0.6
3446	0	0.6
3447	0	0.6
3448	0	0.6
3449	0	0.6
3450	0	0.6
3451	0	0.6
3452	0	0.6
3453	0	0.6
3454	0	0.6
3455	0	0.6
3456	0	0.6
3457	0	0.6
3458	0	0.6
3459	0	0.6
3460	0	0.6
3461	0	0.6
3462	0	0.6
3463	0	0.6
3464	0	0.6
3465	0	0.6
3466	0	0.6
3467	0	0.6
3468	0	0.6
3469	0	0.6
3470	0	0.6
3471	0	0.6
3472	0	0.6
3473	0	0.6
3474	0	0.6
3475	0	0.6
3476	0	0.6
3477	0	0.6
3478	0	0.6
3479	0	0.6
3480	0	0.6
3481	0	0.6
3482	0	0.6
3483	0	0.6
3484	0	0.6
3485	0	0.6
3486	0	0.6
3487	0	0.6
3488	0	0.6
3489	0	0.6
3490	0	0.6
3491	0	0.6
3492	0	0.6
3493	0	0.6
3494	0	0.6
3495	0	0.6
3496	0	0.6
3497	0	0.6
3498	0	0.6
3499	0	0.6
3500	0	0.6
3501	0	0.6
3502	0	0.6
3503	0	0.6
3504	0	0.6
3505	0	0.6
3506	0	0.6
3507	0	0.6
3508	0	0.6
3509	0	0.6
3510	0	0.6
3511	0	0.6
3512	0	0.6
3513	0	0.808531
3514	0	0.466572
3515	0	0.316742
3516	0	0.768591
3517	0	0
3518	0	0
3519	0	0
3520	0	0
3521	0	0
3522	0	0
3523	0	0
3524	0	0
3525	0	0
3526	0	0
3527	0	0
3528	0	0
3529	0	0
3530	0	0
3531	0	0
3532	0	0
3533	0	0
3534	0	0
3535	0	0
3536	0	0
3537	0	0
3538	0	0
3539	0	0
3540	0	0
3541	0	0
3542	0	0
3543	0	0
3544	0	0
3545	0	0
3546	0	0
3547	0	0
3548	0	0
3549	0	0
3550	0	0
3551	0	0
3552	0	0
3553	0	0
3554	0	0
3555	0	0
3556	0	0
3557	0	0
3558	0	0
3559	0	0
3560	0	0
3561	0	0
3562	0	0
3563	0	0
3564	0	0
3565	0	0
3566	0	0
3567	0	0
3568	0	0
3569	0	0
3570	0	0
3571	0	0
3572	0	0
3573	0	0
3574	0	0
3575	0	0
3576	0	0
3577	0	0
3578	0	0
3579	0	0
3580	0	0
3581	0	0
3582	0	0
3583	0	0
3584	0	0
3585	0	0
3586	0	0
3587	0	0
3588	0	0
3589	0	0
3590	0	0
3591	0	0
3592	0	0
3593	0	0
3594	0	0
3595	0	0
3596	0	0
3597	0	0
3598	0	0
3599	0	0
3600	0	0
3601	0	0
3602	0	0
3603	0	0
3604	0	0
3605	0	0
3606	0	0
3607	0	0
3608	0	0
3609	0	0
3610	0	0
3611	0	0
3612	0	0
3613	0	0
3614	0	0
3615	0	0
3616	0	0
3617	0	0
3618	0	0
3619	0	0
3620	0	0
3621	0	0
3622	0	0
3623	0	0
3624	0	0
3625	0	0
3626	0	0
3627	0	0
3628	0	0
3629	0	0
3630	0	0
3631	0	0
3632	0	0
3633	0	0
3634	0	0
3635	0	0
3636	0	0
3637	0	0
3638	0	0
3639	0	0
3640	0	0
3641	0	0
3642	0	0
3643	0	0
3644	0	0
3645	0	0
3646	0	0
3647	0	0
3648	0	0
3649	0	0
3650	0	0
3651	0	0
3652	0	0
3653	0	0
3654	0	0
3655	0	0
3656	0	0
3657	0	0
3658	0	0
3659	0	0
3660	0	0
3661	0	0
3662	0	0
3663	0	0
3664	0	0
3665	0	0
3666	0	0
3667	0	0
3668	0	0
3669	0	0
3670	0	0
3671	0	0
3672	0	0
3673	0	0
3674	0	0
3675	0	0
3676	0	0
3677	0	0
3678	0	0
3679	0	0
3680	0	0
3681	0	0
3682	0	0
3683	0	0
3684	0	0
3685	0	0
3686	0	0
3687	0	0
3688	0	0
3689	0	0
3690	0	0
3691	0	0
3692	0	0
3693	0	0
3694	0	0
3695	0	0
3696	0	0
3697	0	0
3698	0	0
3699	0	0
3700	0	0
3701	0	0
3702	0	0
3703	0	0
3704	0	0
3705	0	0
3706	0	0
3707	0	0
3708	0	0
3709	0	0
3710	0	0
3711	0	0
3712	0	0
3713	0	0
3714	0	0
3715	0	0
3716	0	0
3717	0	0
3718	0	0
3719	0	0
3720	0	0
3721	0	0
3722	0	0
3723	0	0
3724	0	0
3725	0	0
3726	0	0
3727	0	0.675756
3728	0	0.677187
3729	0	0.61755
3730	0	0.349718
3731	0	0.179803
3732	0	0.204678
3733	0	0.204678
3734	0	0.204678
3735	0	0.10989
3736	0	0.10989
3737	0	0.10989
3738	0	0.115385
3739	0	0.0769231
3740	0	0.0769231
3741	0	0.0769231
3742	0	0.0769231
3743	0	0.0769231
3744	0	0.0769231
3745	0	0.0769231
3746	0	0.0769231
3747	0	0.0769231
3748	0	0.0769231
3749	0	0.0769231
3750	0	0.0769231
3751	0	0.0769231
3752	0	0.0769231
3753	0	0.0769231
3754	0	0.0769231
3755	0	0.0769231
3756	0	0.0769231
3757	0	0.0769231
3758	0	0.0769231
3759	0	0.0769231
3760	0	0.0769231
3761	0	0.0769231
3762	0	0.0769231
3763	0	0.0769231
3764	0	0.0769231
3765	0	0.0769231
3766	0	0.0769231
3767	0	0.0897436
3768	0	0.0897436
3769	0	0.0897436
3770	0	0.0897436
3771	0	0.0897436
3772	0	0.0897436
3773	0	0.0897436
3774	0	0.0897436
3775	0	0.0897436
3776	0	0.0897436
3777	0	0.0769231
3778	0	0.0769231
3779	0	0.0769231
3780	0	0.0769231
3781	0	0.0769231
3782	0	0.0769231
3783	0	0.0769231
3784	0	0.0769231
3785	0	0.0769231
3786	0	0.0769231
3787	0	0.0769231
3788	0	0.0769231
3789	0	0.0769231
3790	0	0.0769231
3791	0	0.0769231
3792	0	0.0769231
3793	0	0.0769231
3794	0	0.0769231
3795	0	0.0909091
3796	0	0.0909091
3797	0	0.0909091
3798	0	0.0909091
3799	0	0.0909091
3800	0	0.0909091
3801	0	0.0909091
3802	0	0.0909091
3803	0	0.0909091
3804	0	0.0909091
3805	0	0.0909091
3806	0	0.0454545
3807	0	0.0454545
3808	0	0.0454545
3809	0	0.0454545
3810	0	0.0454545
3811	0	0.0454545
3812	0	0.0454545
3813	0	0.0454545
3814	0	0.0454545
3815	0	0.0151515
3816	0	0.0151515
3817	0	0.0151515
3818	0	0.0151515
3819	0	0.0151515
3820	0	0.0151515
3821	0	0.0151515
3822	0	0.0151515
3823	0	0.0181818
3824	0	0.0181818
3825	0	0.0222222
3826	0	0.0222222
3827	0	0.0222222
3828	0	0.0222222
3829	0	0.0222222
3830	0	0.0222222
3831	0	0.0222222
3832	0	0.0222222
3833	0	0.0222222
3834	0	0.0222222
3835	0	0.0222222
3836	0	0.0222222
3837	0	0.0277778
3838	0	0.047619
3839	0	0.047619
3840	0	0.047619
3841	0	0.047619
3842	0	0.047619
3843	0	0.047619
3844	0	0.047619
3845	0	0.047619
3846	0	0.047619
3847	0	0.047619
3848	0	0.047619
3849	0	0.047619
3850	0	0.047619
3851	0	0.047619
3852	0	0
3853	0	0
3854	0	0
3855	0	0
3856	0	0
3857	0	0
3858	0	0
3859	0	0
3860	0	0
3861	0	0
3862	0	0
3863	0	0
3864	0	0
3865	0	0
3866	0	0
3867	0	0
3868	0	0
3869	0	0
3870	0	0
3871	0	0
3872	0	0
3873	0	0
3874	0	0
3875	0	0
3876	0	0
3877	0	0
3878	0	0
3879	0	0
3880	0	0
3881	0	0
3882	0	0
3883	0	0
3884	0	0
3885	0	0
3886	0	0
3887	0	0
3888	0	0
3889	0	0
3890	0	0
3891	0	0
3892	0	0
3893	0	0
3894	0	0
3895	0	0
3896	0	0
3897	0	0
3898	0	0
3899	0	0
3900	0	0
3901	0	0
3902	0	0
3903	0	0
3904	0	0
3905	0	0
3906	0	0
3907	0	0
3908	0	0
3909	0	0
3910	0	0
3911	0	0
3912	0	0
3913	0	0
3914	0	0
3915	0	0
3916	0	0
3917	0	0
3918	0	0
3919	0	0
3920	0	0
3921	0	0
3922	0	0
3923	0	0
3924	0	0
3925	0	0
3926	0	0
3927	0	0
3928	0	0
3929	0	0
3930	0	0
3931	0	0
3932	0	0
3933	0	0
3934	0	0
3935	0	0
3936	0	0
3937	0	0
3938	0	0
3939	0	0
3940	0	0
3941	0	0
3942	0	0
3943	0	0
3944	0	0
3945	0	0
3946	0	0
3947	0	0
3948	0	0
3949	0	0
3950	0	0
3951	0	0
3952	0	0
3953	0	0
3954	0	0
3955	0	0
3956	0	0
3957	0	0
3958	0	0
3959	0	0
3960	0	0
3961	0	0
3962	0	0
3963	0	0
3964	0	0
3965	0	0
3966	0	0
3967	0	0
3968	0	0
3969	0	0
3970	0	0
3971	0	0
3972	0	0
3973	0	0
3974	0	0
3975	0	0
3976	0	0
3977	0	0
3978	0	0
3979	0	0
3980	0	0
3981	0	0
3982	0	0
3983	0	0
3984	0	0
3985	0	0
3986	0	0
3987	0	0
3988	0	0
3989	0	0
3990	0	0
3991	0	0
3992	0	0
3993	0	0
3994	0	0
3995	0	0
3996	0	0
3997	0	0
3998	0	0
3999	0	0
4000	0	0
4001	0	0
4002	0	0
4003	0	0
4004	0	0
4005	0	0
4006	0	0
4007	0	0
4008	0	0
4009	0	0
4010	0	0
4011	0	0
4012	0	0
4013	0	0
4014	0	0
4015	0	0
4016	0	0
4017	0	0
4018	0	0
4019	0	0
4020	0	0
4021	0	0
4022	0	0
4023	0	0
4024	0	0
4025	0	0
4026	0	0
4027	0	0
4028	0	0
4029	0	0
4030	0	0
4031	0	0
4032	0	0
4033	0	0
4034	0	0
4035	0	0
4036	0	0
4037	0	0
4038	0	0
4039	0	0
4040	0	0
4041	0	0
4042	0	0
4043	0	0
4044	0	0
4045	0	0
4046	0	0
4047	0	0
4048	0	0
4049	0	0
4050	0	0
4051	0	0
4052	0	0
4053	0	0
4054	0	0
4055	0	0
4056	0	0
4057	0	0
4058	0	0
4059	0	0
4060	0	0
4061	0	0
4062	0	0
4063	0	0
4064	0	0
4065	0	0
4066	0	0
4067	0	0
4068	0	0
4069	0	0
4070	0	0
4071	0	0
4072	0	0
4073	0	0
4074	0	0
4075	0	0
4076	0	0
4077	0	0
4078	0	0
4079	0	0
4080	0	0
4081	0	0
4082	0	0
4083	0	0
4084	0	0
4085	0	0
4086	0	0
4087	0	0
4088	0	0
4089	0	0
4090	0	0
4091	0	0
4092	0	0
4093	0	0
4094	0	0
4095	0	0
4096	0	0
4097	0	0
4098	0	0
4099	0	0
4100	0	0
4101	0	0
4102	0	0
4103	0	0
4104	0	0
4105	0	0
4106	0	0
4107	0	0
4108	0	0
4109	0	0
4110	0	0
4111	0	0
4112	0	0
4113	0	0
4114	0	0
4115	0	0
4116	0	0
4117	0	0
4118	0	0
4119	0	0
4120	0	0
4121	0	0
4122	0	0
4123	0	0
4124	0	0
4125	0	0
4126	0	0
4127	0	0
4128	0	0
4129	0	0
4130	0	0
4131	0	0
4132	0	0
4133	0	0
4134	0	0
4135	0	0
4136	0	0
4137	0	0
4138	0	0
4139	0	0
4140	0	0
4141	0	0
4142	0	0
4143	0	0
4144	0	0
4145	0	0
4146	0	0
4147	0	0
4148	0	0
4149	0	0
4150	0	0
4151	0	0
4152	0	0
4153	0	0
4154	0	0
4155	0	0
4156	0	0
4157	0	0
4158	0	0
4159	0	0
4160	0	0
4161	0	0
4162	0	0
4163	0	0
4164	0	0
4165	0	0
4166	0	0
4167	0	0
4168	0	0
4169	0	0
4170	0	0
4171	0	0
4172	0	0
4173	0	0
4174	0	0
4175	0	0
4176	0	0
4177	0	0
4178	0	0
4179	0	0
4180	0	0
4181	0	0
4182	0	0
4183	0	0
4184	0	0
4185	0	0
4186	0	0
4187	0	0
4188	0	0
4189	0	0
4190	0	0
4191	0	0
4192	0	0
4193	0	0
4194	0	0
4195	0	0
4196	0	0
4197	0	0
4198	0	0
4199	0	0
4200	0	0
4201	0	0
4202	0	0
4203	0	0
4204	0	0
4205	0	0
4206	0	0
4207	0	0
4208	0	0
4209	0	0
4210	0	0
4211	0	0
4212	0	0
4213	0	0
4214	0	0
4215	0	0
4216	0	0
4217	0	0
4218	0	0
4219	0	0
4220	0	0
4221	0	0
4222	0	0
4223	0	0
4224	0	0
4225	0	0
4226	0	0
4227	0	0
4228	0	0
4229	0	0
4230	0	0
4231	0	0
4232	0	0
4233	0	0
4234	0	0
4235	0	0
4236	0	0
4237	0	0
4238	0	0
4239	0	0
4240	0	0
4241	0	0
4242	0	0
4243	0	0
4244	0	0
4245	0	0
4246	0	0
4247	0	0
4248	0	0
4249	0	0
4250	0	0
4251	0	0
4252	0	0
4253	0	0
4254	0	0
4255	0	0
4256	0	0
4257	0	0
4258	0	0
4259	0	0
4260	0	0
4261	0	0
4262	0	0
4263	0	0
4264	0	0
4265	0	0
4266	0	0
