Site	ColumnScore	SumOfPairsScore
1	0	0
2	0	0
3	0	0
4	0	0
5	0	0
6	0	0
7	0	0
8	0	0
9	0	0
10	0	0
11	0	0
12	0	0
13	0	0
14	0	0
15	0	0
16	0	0
17	0	0
18	0	0
19	0	0
20	0	0
21	0	0
22	0	0
23	0	0
24	0	0
25	0	0
26	0	0
27	0	0
28	0	0
29	0	0
30	0	0
31	0	0
32	0	0
33	0	0
34	0	0
35	0	0
36	0	0
37	0	0
38	0	0
39	0	0
40	0	0
41	0	0
42	0	0
43	0	0
44	0	0
45	0	0
46	0	0
47	0	0
48	0	0
49	0	0
50	0	0
51	0	0
52	0	0
53	0	0
54	0	0
55	0	0
56	0	0
57	0	0
58	0	0
59	0	0
60	0	0
61	0	0
62	0	0
63	0	0
64	0	0
65	0	0
66	0	0
67	0	0
68	0	0
69	0	0
70	0	0
71	0	0
72	0	0
73	0	0
74	0	0
75	0	0
76	0	0
77	0	0
78	0	0
79	0	0
80	0	0
81	0	0
82	0	0
83	0	0
84	0	0
85	0	0
86	0	0
87	0	0
88	0	0
89	0	0
90	0	0
91	0	0
92	0	0
93	0	0
94	0	0
95	0	0
96	0	0
97	0	0
98	0	0
99	0	0
100	0	0
101	0	0
102	0	0
103	0	0
104	0	0
105	0	0
106	0	0
107	0	0
108	0	0
109	0	0
110	0	0
111	0	0
112	0	0
113	0	0
114	0	0
115	0	0
116	0	0
117	0	0
118	0	0
119	0	0
120	0	0
121	0	0
122	0	0
123	0	0
124	0	0
125	0	0
126	0	0
127	0	0
128	0	0
129	0	0
130	0	0
131	0	0
132	0	0
133	0	0
134	0	0
135	0	0
136	0	0
137	0	0
138	0	0
139	0	0
140	0	0
141	0	0
142	0	0
143	0	0
144	0	0
145	0	0
146	0	0
147	0	0
148	0	0
149	0	0
150	0	0
151	0	0
152	0	0
153	0	0
154	0	0
155	0	0
156	0	0
157	0	0
158	0	0
159	0	0
160	0	0
161	0	0
162	0	0
163	0	0
164	0	0
165	0	0
166	0	0
167	0	0
168	0	0
169	0	0
170	0	0
171	0	0
172	0	0
173	0	0
174	0	0
175	0	0
176	0	0
177	0	0
178	0	0
179	0	0
180	0	0
181	0	0
182	0	0
183	0	0
184	0	0
185	0	0
186	0	0
187	0	0
188	0	0
189	0	0
190	0	0
191	0	0
192	0	0
193	0	0
194	0	0
195	0	0
196	0	0
197	0	0
198	0	0
199	0	0
200	0	0
201	0	0
202	0	0
203	0	0
204	0	0
205	0	0
206	0	0
207	0	0
208	0	0
209	0	0
210	0	0
211	0	0
212	0	0
213	0	0
214	0	0
215	0	0
216	0	0
217	0	0
218	0	0
219	0	0
220	0	0
221	0	0
222	0	0
223	0	0
224	0	0
225	0	0
226	0	0
227	0	0
228	0	0
229	0	0
230	0	0
231	0	0
232	0	0
233	0	0
234	0	0
235	0	0
236	0	0
237	0	0
238	0	0
239	0	0
240	0	0
241	0	0
242	0	0
243	0	0
244	0	0
245	0	0
246	0	0
247	0	0
248	0	0
249	0	0
250	0	0
251	0	0
252	0	0
253	0	0
254	0	0
255	0	0
256	0	0
257	0	0
258	0	0
259	0	0
260	0	0
261	0	0
262	0	0
263	0	0
264	0	0
265	0	0
266	0	0
267	0	0
268	0	0
269	0	0
270	0	0
271	0	0
272	0	0
273	0	0
274	0	0
275	0	0
276	0	0
277	0	0
278	0	0
279	0	0
280	0	0
281	0	0
282	0	0
283	0	0
284	0	0
285	0	0
286	0	0.0666667
287	0	0.0666667
288	0	0.0666667
289	0	0.0666667
290	0	0.0666667
291	0	0.0666667
292	0	0.0666667
293	0	0.0666667
294	0	0.0666667
295	0	0
296	0	0
297	0	0
298	0	0
299	0	0
300	0	0
301	0	0
302	0	0
303	0	0
304	0	0
305	0	0
306	0	0
307	0	0
308	0	0
309	0	0
310	0	0
311	0	0
312	0	0
313	0	0
314	0	0
315	0	0
316	0	0
317	0	0
318	0	0
319	0	0
320	0	0
321	0	0
322	0	0
323	0	0
324	0	0
325	0	0
326	0	0
327	0	0
328	0	0
329	0	0
330	0	0
331	0	0
332	0	0
333	0	0
334	0	0
335	0	0
336	0	0
337	0	0
338	0	0
339	0	0
340	0	0
341	0	0
342	0	0
343	0	0.814001
344	0	0.814001
345	0	0.814001
346	0	0.814001
347	0	0.799876
348	0	0.799876
349	0	0.799876
350	0	0.799876
351	0	0.799876
352	0	0.799876
353	0	0.799876
354	0	0.799876
355	0	0.799876
356	0	0.799876
357	0	0.799876
358	0	0.799876
359	0	0.799876
360	0	0.799876
361	0	0.799876
362	0	0.670581
363	0	0.670581
364	0	0.670581
365	0	0.670452
366	0	0.604238
367	0	0.595332
368	0	0.595332
369	0	0.595332
370	0	0.595332
371	0	0.595444
372	0	0.595444
373	0	0.573744
374	0	0.567545
375	0	0.551387
376	0	0.551387
377	0	0.570922
378	0	0.562881
379	0	0.563181
380	0	0.557569
381	0	0.557471
382	0	0.549825
383	0	0.510587
384	0	0.236988
385	0	0.535097
386	0	0.584695
387	0	0.805983
388	0	0.805983
389	0	0.819452
390	0	0.831771
391	0	0.810022
392	0	0.844457
393	0	0.807113
394	0	0.521159
395	0	0.494143
396	0	0.495464
397	0	0.816505
398	0	0.912646
399	0	0.915288
400	0	0.967595
401	0	0
402	0	0
403	0	0
404	0	0
405	0	0
406	0	0
407	0	0
408	0	0
409	0	0
410	0	0
411	0	0
412	0	0
413	0	0
414	0	0
415	0	0
416	0	0
417	0	0
418	0	0
419	0	0
420	0	0
421	0	0
422	0	0
423	0	0
424	0	0
425	0	0
426	0	0
427	0	0
428	0	0
429	0	0
430	0	0
431	0	0
432	0	0
433	0	0
434	0	0
435	0	0
436	0	0
437	0	0
438	0	0
439	0	0
440	0	0
441	0	0
442	0	0
443	0	0
444	0	0
445	0	0
446	0	0
447	0	0
448	0	0
449	0	0
450	0	0
451	0	0
452	0	0
453	0	0
454	0	0
455	0	0
456	0	0
457	0	0
458	0	0
459	0	0
460	0	0
461	0	0
462	0	0
463	0	0
464	0	0
465	0	0
466	0	0
467	0	0
468	0	0
469	0	0
470	0	0
471	0	0
472	0	0
473	0	0
474	0	0
475	0	0
476	0	0
477	0	0
478	0	0
479	0	0
480	0	0
481	0	0
482	0	0
483	0	0
484	0	0
485	0	0
486	0	0
487	0	0
488	0	0
489	0	0
490	0	0
491	0	0
492	0	0
493	0	0
494	0	0
495	0	0
496	0	0
497	0	0
498	0	0
499	0	0
500	0	0
501	0	0
502	0	0
503	0	0
504	0	0
505	0	0
506	0	0
507	0	0
508	0	0
509	0	0
510	0	0
511	0	0
512	0	0
513	0	0
514	0	0
515	0	0
516	0	0
517	0	0
518	0	0
519	0	0
520	0	0
521	0	0
522	0	0
523	0	0
524	0	0
525	0	0
526	0	0
527	0	0
528	0	0
529	0	0
530	0	0
531	0	0
532	0	0
533	0	0
534	0	0
535	0	0
536	0	0
537	0	0
538	0	0
539	0	0
540	0	0
541	0	0
542	0	0
543	0	0
544	0	0
545	0	0
546	0	0
547	0	0
548	0	0
549	0	0
550	0	0
551	0	0
552	0	0
553	0	0
554	0	0
555	0	0
556	0	0
557	0	0
558	0	0
559	0	0
560	0	0
561	0	0
562	0	0
563	0	0
564	0	0
565	0	0
566	0	0
567	0	0
568	0	0
569	0	0
570	0	0
571	0	0
572	0	0
573	0	0
574	0	0
575	0	0
576	0	0
577	0	0
578	0	0
579	0	0
580	0	0
581	0	0
582	0	0
583	0	0
584	0	0
585	0	0
586	0	0
587	0	0
588	0	0
589	0	0
590	0	0
591	0	0
592	0	0
593	0	0
594	0	0
595	0	0
596	0	0
597	0	0
598	0	0
599	0	0
600	0	0
601	0	0
602	0	0
603	0	0
604	0	0
605	0	0
606	0	0
607	0	0
608	0	0
609	0	0
610	0	0
611	0	0
612	0	0
613	0	0
614	0	0
615	0	0
616	0	0
617	0	0
618	0	0
619	0	0
620	0	0
621	0	0
622	0	0
623	0	0
624	0	0
625	0	0
626	0	0
627	0	0
628	0	0
629	0	0
630	0	0
631	0	0
632	0	0
633	0	0
634	0	0
635	0	0
636	0	0
637	0	0
638	0	0
639	0	0
640	0	0
641	0	0
642	0	0
643	0	0
644	0	0
645	0	0
646	0	0
647	0	0
648	0	0
649	0	0
650	0	0
651	0	0
652	0	0
653	0	0
654	0	0
655	0	0
656	0	0
657	0	0
658	0	0
659	0	0
660	0	0
661	0	0
662	0	0
663	0	0
664	0	0
665	0	0
666	0	0
667	0	0
668	0	0
669	0	0
670	0	0
671	0	0
672	0	0
673	0	0
674	0	0
675	0	0
676	0	0
677	0	0
678	0	0
679	0	0
680	0	0
681	0	0
682	0	0
683	0	0
684	0	0
685	0	0
686	0	0
687	0	0
688	0	0
689	0	0
690	0	0
691	0	0
692	0	0
693	0	0
694	0	0
695	0	0
696	0	0
697	0	0
698	0	0
699	0	0
700	0	0
701	0	0
702	0	0
703	0	0
704	0	0
705	0	0
706	0	0
707	0	0
708	0	0
709	0	0
710	0	0
711	0	0
712	0	0
713	0	0
714	0	0
715	0	0
716	0	0
717	0	0
718	0	0
719	0	0
720	0	0
721	0	0
722	0	0
723	0	0
724	0	0
725	0	0
726	0	0
727	0	0
728	0	0
729	0	0
730	0	0
731	0	0
732	0	0
733	0	0
734	0	0
735	0	0
736	0	0
737	0	0
738	0	0
739	0	0
740	0	0
741	0	0
742	0	0
743	0	0
744	0	0
745	0	0
746	0	0
747	0	0
748	0	0
749	0	0
750	0	0
751	0	0
752	0	0
753	0	0
754	0	0
755	0	0
756	0	0
757	0	0
758	0	0
759	0	0
760	0	0
761	0	0
762	0	0
763	0	0
764	0	0
765	0	0
766	0	0
767	0	0
768	0	0
769	0	0
770	0	0
771	0	0
772	0	0
773	0	0
774	0	0
775	0	0
776	0	0
777	0	0
778	0	0
779	0	0
780	0	0
781	0	0
782	0	0
783	0	0
784	0	0
785	0	0
786	0	0
787	0	0
788	0	0
789	0	0
790	0	0
791	0	0
792	0	0
793	0	0
794	0	0
795	0	0
796	0	0
797	0	0
798	0	0
799	0	0
800	0	0
801	0	0
802	0	0
803	0	0
804	0	0
805	0	0
806	0	0
807	0	0
808	0	0
809	0	0
810	0	0
811	1	0
812	1	0
813	1	0
814	1	0
815	1	0
816	0	0
817	0	0
818	0	0
819	0	0
820	0	0
821	0	0
822	0	0
823	0	0
824	0	0
825	0	0
826	0	0
827	0	0
828	0	0
829	0	0
830	0	0
831	0	0
832	0	0
833	0	0
834	0	0
835	0	0
836	0	0
837	0	0
838	0	0
839	0	0
840	0	0
841	0	0
842	0	0
843	0	0
844	0	0
845	0	0
846	0	0
847	0	0
848	0	0
849	0	0
850	0	0
851	0	0
852	0	0
853	0	0
854	0	0
855	0	0
856	0	0
857	0	0
858	0	0
859	0	0
860	0	0
861	0	0
862	0	0
863	0	0
864	0	0
865	0	0
866	0	0
867	0	0
868	0	0
869	0	0
870	0	0
871	0	0
872	0	0
873	0	0
874	0	0
875	0	0
876	0	0
877	0	0
878	0	0
879	0	0
880	0	0
881	0	0
882	0	0
883	0	0
884	0	0
885	0	0
886	0	0
887	0	0
888	0	0
889	0	0
890	0	0
891	0	0
892	0	0
893	0	0
894	0	0
895	0	0
896	0	0
897	0	0
898	0	0
899	0	0
900	0	0
901	0	0
902	0	0
903	0	0
904	0	0
905	0	0
906	0	0
907	0	0
908	0	0
909	0	0
910	0	0
911	0	0
912	0	0
913	0	0
914	0	0
915	0	0
916	0	0
917	0	0
918	0	0
919	0	0
920	0	0
921	0	0
922	0	0
923	0	0
924	0	0
925	0	0
926	1	0
927	1	0
928	0	0
929	0	0
930	0	0
931	0	0
932	0	0
933	1	0
934	0	0
935	0	0
936	0	0
937	0	0
938	0	0
939	0	0
940	0	0
941	0	0
942	0	0
943	0	0
944	0	0
945	0	0
946	1	0
947	0	0
948	0	0
949	0	0
950	0	0
951	0	0
952	0	0
953	0	0
954	0	0
955	0	0
956	0	0
957	0	0
958	0	0
959	1	0
960	1	0
961	1	0
962	1	0
963	1	0
964	1	0
965	1	0
966	0	0
967	0	0
968	0	0
969	0	0
970	0	0
971	0	0
972	0	0
973	0	0
974	0	0
975	0	0
976	0	0
977	0	0
978	0	0
979	0	0.5
980	0	0.714286
981	0	0.846154
982	0	0.947405
983	0	0.947405
984	0	0.951092
985	0	0
986	0	0
987	0	0
988	0	0
989	0	0
990	0	0
991	0	0
992	0	0
993	0	0
994	0	0
995	0	0
996	0	0
997	0	0
998	0	0
999	0	0
1000	0	0
1001	0	0
1002	0	0
1003	0	0
1004	0	0
1005	0	0
1006	0	0
1007	0	0
1008	0	0
1009	0	0
1010	0	0
1011	0	0
1012	0	0
1013	0	0
1014	0	0
1015	0	0
1016	0	0
1017	0	0
1018	0	0
1019	0	0
1020	0	0
1021	0	0
1022	0	0
1023	0	0
1024	0	0
1025	0	0
1026	0	0
1027	0	0
1028	0	0
1029	0	0
1030	0	0
1031	0	0
1032	0	0
1033	0	0
1034	0	0
1035	0	0
1036	0	0
1037	0	0
1038	0	0
1039	0	0
1040	0	0
1041	0	0
1042	0	0
1043	0	0
1044	0	0
1045	0	0
1046	0	0
1047	0	0
1048	0	0
1049	0	0
1050	0	0
1051	0	0
1052	0	0
1053	0	0
1054	0	0
1055	0	0
1056	0	0
1057	0	0
1058	0	0
1059	0	0
1060	0	0
1061	0	0
1062	0	0
1063	0	0
1064	0	0
1065	0	0
1066	0	0
1067	0	0
1068	0	0
1069	0	0
1070	0	0
1071	0	0
1072	0	0
1073	0	0
1074	0	0
1075	0	0
1076	0	0
1077	0	0
1078	0	0
1079	0	0
1080	0	0
1081	0	0
1082	0	0
1083	0	0
1084	0	0
1085	0	0
1086	0	0
1087	0	0
1088	0	0
1089	0	0
1090	0	0
1091	0	0
1092	0	0
1093	0	0
1094	0	0
1095	0	0
1096	0	0
1097	0	0
1098	0	0
1099	0	0
1100	0	0
1101	0	0
1102	0	0
1103	0	0
1104	0	0
1105	0	0
1106	0	0
1107	0	0
1108	0	0
1109	0	0
1110	0	0
1111	0	0
1112	0	0
1113	0	0
1114	0	0
1115	0	0
1116	0	0
1117	0	0
1118	0	0
1119	0	0
1120	0	0
1121	0	0
1122	0	0
1123	0	0.94586
1124	0	0.94586
1125	0	0
1126	0	0
1127	0	0
1128	0	0
1129	0	0
1130	0	0
1131	0	0
1132	0	0
1133	0	0
1134	0	0
1135	0	0
1136	0	0
1137	0	0
1138	0	0
1139	0	0
1140	0	0
1141	0	0
1142	0	0
1143	0	0
1144	0	0
1145	0	0
1146	0	0
1147	0	0
1148	0	0
1149	0	0
1150	0	0
1151	0	0
1152	0	0
1153	0	0
1154	0	0
1155	0	0
1156	0	0
1157	0	0
1158	0	0
1159	0	0
1160	0	0
1161	0	0
1162	0	0
1163	0	0
1164	0	0
1165	0	0
1166	0	0
1167	0	0
1168	0	0
1169	0	0
1170	0	0
1171	0	0
1172	0	0
1173	0	0
1174	0	0
1175	0	0
1176	0	0
1177	0	0
1178	0	0
1179	0	0
1180	0	0
1181	0	0
1182	0	0
1183	0	0
1184	0	0
1185	0	0
1186	0	0
1187	0	0
1188	0	0
1189	0	0
1190	0	0
1191	0	0
1192	0	0
1193	0	0
1194	0	0
1195	0	0
1196	0	0
1197	0	0.953105
1198	0	0.953105
1199	0	0.953105
1200	0	0.953105
1201	0	0
1202	0	0
1203	0	0
1204	0	0
1205	0	0
1206	0	0
1207	0	0
1208	0	0
1209	0	0
1210	0	0
1211	0	0
1212	0	0
1213	0	0
1214	0	0
1215	0	0
1216	0	0
1217	0	0
1218	0	0
1219	0	0
1220	0	0
1221	0	0
1222	0	0
1223	0	0
1224	0	0
1225	0	0
1226	0	0
1227	0	0
1228	0	0
1229	0	0
1230	0	0
1231	0	0
1232	0	0
1233	0	0
1234	0	0
1235	0	0
1236	0	0
1237	0	0.954971
1238	0	0.953149
1239	0	0.953149
1240	0	0
1241	0	0
1242	0	0
1243	0	0
1244	0	0
1245	0	0
1246	0	0
1247	0	0
1248	0	0
1249	0	0
1250	0	0
1251	0	0
1252	0	0
1253	0	0
1254	0	0
1255	0	0
1256	0	0
1257	0	0
1258	0	0
1259	0	0
1260	0	0
1261	0	0
1262	0	0
1263	0	0
1264	0	0
1265	0	0
1266	0	0
1267	0	0
1268	0	0
1269	0	0
1270	0	0
1271	0	0
1272	0	0
1273	0	0
1274	0	0
1275	0	0
1276	0	0
1277	0	0
1278	0	0
1279	0	0
1280	0	0
1281	0	0
1282	0	0
1283	0	0
1284	0	0
1285	0	0
1286	0	0
1287	0	0
1288	0	0
1289	0	0
1290	0	0
1291	0	0
1292	0	0
1293	0	0
1294	0	0
1295	0	0
1296	0	0
1297	0	0
1298	0	0
1299	0	0
1300	0	0
1301	0	0
1302	0	0
1303	0	0
1304	0	0
1305	0	0
1306	0	0
1307	0	0
1308	0	0
1309	0	0
1310	0	0
1311	0	0
1312	0	0
1313	0	0
1314	0	0
1315	0	0
1316	0	0
1317	0	0
1318	0	0
1319	0	0
1320	0	0
1321	0	0
1322	0	0
1323	0	0
1324	0	0
1325	0	0
1326	0	0
1327	0	0
1328	0	0
1329	0	0
1330	0	0
1331	0	0
1332	0	0
1333	0	0
1334	0	0
1335	0	0
1336	0	0
1337	0	0
1338	0	0
1339	0	0
1340	0	0
1341	0	0
1342	0	0
1343	0	0
1344	0	0
1345	0	0
1346	0	0
1347	0	0
1348	0	0
1349	0	0
1350	0	0
1351	0	0
1352	0	0
1353	0	0
1354	0	0
1355	0	0
1356	0	0
1357	0	0
1358	0	0
1359	0	0
1360	0	0
1361	0	0
1362	0	0
1363	0	0
1364	0	0
1365	0	0
1366	0	0
1367	0	0
1368	0	0
1369	0	0
1370	0	0
1371	0	0
1372	0	0
1373	0	0
1374	0	0
1375	0	0
1376	0	0
1377	0	0
1378	0	0
1379	0	0
1380	0	0
1381	0	0
1382	0	0
1383	0	0
1384	0	0
1385	0	0
1386	0	0
1387	0	0
1388	0	0
1389	0	0
1390	0	0
1391	0	0
1392	0	0
1393	0	0
1394	0	0
1395	0	0
1396	0	0
1397	0	0
1398	0	0
1399	0	0
1400	0	0
1401	0	0
1402	0	0
1403	0	0
1404	0	0
1405	0	0
1406	0	0
1407	0	0
1408	0	0
1409	0	0
1410	0	0
1411	0	0
1412	0	0
1413	0	0
1414	0	0
1415	0	0
1416	0	0
1417	0	0
1418	0	0
1419	0	0
1420	0	0
1421	0	0
1422	0	0
1423	0	0
1424	0	0
1425	0	0
1426	0	0
1427	0	0
1428	0	0
1429	0	0
1430	0	0
1431	0	0
1432	0	0
1433	0	0
1434	0	0
1435	0	0
1436	0	0
1437	0	0
1438	0	0
1439	0	0
1440	0	0
1441	0	0
1442	0	0
1443	0	0
1444	0	0
1445	0	0
1446	0	0
1447	0	0
1448	0	0
1449	0	0
1450	0	0
1451	0	0
1452	0	0
1453	0	0
1454	0	0
1455	0	0
1456	0	0
1457	0	0
1458	0	0
1459	0	0
1460	0	0
1461	0	0
1462	0	0
1463	0	0
1464	0	0
1465	0	0
1466	0	0
1467	0	0
1468	0	0
1469	0	0
1470	0	0
1471	0	0
1472	0	0
1473	0	0
1474	0	0.166667
1475	0	0.960544
1476	0	0.960544
1477	0	0.960544
1478	0	0.960544
1479	0	0.971654
1480	0	0.996178
1481	0	0.996178
1482	0	0.994269
1483	0	0.99237
1484	0	0.944081
1485	0	1
1486	0	1
1487	0	0.6
1488	0	0.4
1489	0	0.4
1490	0	0.25
1491	0	0.25
1492	0	0.25
1493	0	0.153846
1494	0	0.131868
1495	0	0.108333
1496	0	0.108333
1497	0	0.1
1498	0	0.0842105
1499	0	0.0724638
1500	0	0.0833333
1501	0	0.0812808
1502	0	0.628297
1503	0	0.499879
1504	0	0.481599
1505	0	0.324684
1506	0	0.6953
1507	0	0.696137
1508	0	0.380117
1509	0	0.0666667
1510	0	0.166667
1511	0	0.166667
1512	0	0.166667
1513	0	0
1514	0	0
1515	0	0
1516	0	0
1517	0	0
1518	0	0
1519	0	0
1520	0	0
1521	0	0
1522	0	0
1523	0	0
1524	0	0
1525	0	0
1526	0	0
1527	0	0.333333
1528	0	0.333333
1529	0	0.692481
1530	0	0.58077
1531	0	0.1
1532	0	0.141026
1533	0	0.177778
1534	0	0.25
1535	0	0.166667
1536	0	0.166667
1537	0	0.166667
1538	0	0.166667
1539	0	0.166667
1540	0	0.166667
1541	0	0.166667
1542	0	0.166667
1543	0	0.166667
1544	0	0.166667
1545	0	0
1546	0	0
1547	0	0
1548	0	0
1549	0	0
1550	0	0
1551	0	0
1552	0	0
1553	0	0
1554	0	0
1555	0	0
1556	0	0
1557	0	0
1558	0	0
1559	0	0
1560	0	0
1561	0	0
1562	0	0
1563	0	0
1564	0	0
1565	0	0
1566	0	0
1567	0	0
1568	0	0
1569	0	0
1570	0	0
1571	0	0
1572	0	0
1573	0	0
1574	0	0
1575	0	0
1576	0	0
1577	0	0
1578	0	0
1579	0	0
1580	0	0
1581	0	0
1582	0	0
1583	0	0
1584	0	0
1585	0	0
1586	0	0
1587	0	0
1588	0	0
1589	0	0
1590	0	0
1591	0	0
1592	0	0
1593	0	0
1594	0	0
1595	0	0
1596	0	0
1597	0	0
1598	0	0
1599	0	0
1600	0	0
1601	0	0
1602	0	0
1603	0	0
1604	0	0
1605	0	0
1606	0	0
1607	0	0
1608	0	0
1609	0	0
1610	0	0
1611	0	0
1612	0	0
1613	0	0
1614	0	0
1615	0	0
1616	0	0
1617	0	0
1618	0	0
1619	0	0
1620	0	0
1621	0	0
1622	0	0
1623	0	0
1624	0	0
1625	0	0
1626	0	0
1627	0	0
1628	0	0
1629	0	0
1630	0	0
1631	0	0
1632	0	0
1633	0	0
1634	0	0
1635	0	0
1636	0	0
1637	0	0
1638	0	0
1639	0	0
1640	0	0
1641	0	0
1642	0	0
1643	0	0
1644	0	0
1645	0	0
1646	0	0
1647	0	0
1648	0	0
1649	0	0
1650	0	0
1651	0	0
1652	0	0
1653	0	0
1654	0	0
1655	0	0
1656	0	0
1657	0	0
1658	0	0
1659	0	0
1660	0	0
1661	0	0.644875
1662	0	0.610759
1663	0	0.649664
1664	0	0.671015
1665	0	0.960392
1666	0	0.967887
1667	0	0.967889
1668	0	0.967889
1669	0	0.953134
1670	0	0.953134
1671	0	0.333333
1672	0	0
1673	0	0.928872
1674	0	0.886624
1675	0	0.886156
1676	0	0.996181
1677	0	0.99809
1678	1	1
1679	0	0.99809
1680	0	0.99809
1681	0	0.99809
1682	0	0.99809
1683	0	1
1684	0	0.719298
1685	0	0.719298
1686	0	0.636842
1687	0	0.619883
1688	0	0.954805
1689	0	0.743977
1690	0	0.954585
1691	0	0.496732
1692	0	0.73986
1693	0	0.577261
1694	0	1
1695	0	1
1696	0	0.755503
1697	0	1
1698	0	0.914946
1699	0	0.916896
1700	0	0.266667
1701	0	0.973455
1702	0	0.1
1703	0	0.748955
1704	0	0.704744
1705	0	0.929075
1706	0	0.897687
1707	0	0.756525
1708	0	0.929628
1709	0	0.929976
1710	0	0.929976
1711	0	0.947368
1712	0	0.994286
1713	0	0.994286
1714	0	0.994286
1715	0	1
1716	0	0
1717	0	0
1718	1	0
1719	1	0
1720	1	0
1721	0	0.992386
1722	0	0.996189
1723	0	0.996189
1724	0	0.998093
1725	0	0.998093
1726	0	0.998092
1727	0	0.998092
1728	0	1
1729	0	0.994277
1730	0	0.994277
1731	0	0.9867
1732	0	0.982908
1733	0	0
1734	0	0.945137
1735	0	0.763496
1736	0	0.333333
1737	0	0.69697
1738	0	0.701671
1739	0	0.647816
1740	0	0
1741	0	0
1742	0	0
1743	0	0
1744	0	0
1745	0	0
1746	0	0
1747	0	0
1748	0	0
1749	0	0
1750	0	0
1751	0	0
1752	0	0
1753	0	0
1754	0	0.452431
1755	0	0.812847
1756	0	0.825583
1757	0	0.854423
1758	0	0.898546
1759	0	0.897756
1760	0	0.897124
1761	0	0.897124
1762	0	0.4
1763	0	0.4
1764	0	0.3
1765	0	0.5
1766	0	0.5
1767	0	0.5
1768	0	0.5
1769	0	0.5
1770	0	0.5
1771	0	0.166667
1772	0	0.166667
1773	0	0.333333
1774	1	1
1775	0	0
1776	0	0
1777	0	0
1778	0	0
1779	0	0
1780	0	0
1781	0	0
1782	0	0
1783	0	0
1784	0	0
1785	0	0
1786	0	0
1787	0	0
1788	1	0
1789	1	0
1790	1	0
1791	1	0
1792	1	0
1793	1	0
1794	1	0
1795	1	0
1796	1	0
1797	1	0
1798	1	0
1799	1	0
1800	1	0
1801	1	0
1802	1	0
1803	1	0
1804	1	0
1805	1	0
1806	1	0
1807	1	0
1808	1	0
1809	1	0
1810	1	0
1811	1	0
1812	1	0
1813	1	0
1814	1	0
1815	1	0
1816	1	0
1817	1	0
1818	1	0
1819	1	0
1820	1	0
1821	1	0
1822	1	0
1823	1	0
1824	1	0
1825	1	0
1826	1	0
1827	1	0
1828	1	0
1829	1	0
1830	1	0
1831	1	0
1832	1	0
1833	1	0
1834	1	0
1835	1	0
1836	1	0
1837	0	0
1838	0	0
1839	0	0
1840	0	0
1841	0	0
1842	0	0
1843	0	0
1844	0	0
1845	0	0
1846	0	0
1847	0	0
1848	0	0
1849	0	1
1850	0	1
1851	1	1
1852	1	1
1853	1	1
1854	0	1
1855	1	1
1856	1	1
1857	1	1
1858	0	1
1859	1	1
1860	1	1
1861	0	1
1862	0	1
1863	1	1
1864	1	1
1865	0	0.998099
1866	0	0.998099
1867	0	0.998101
1868	0	0.994293
1869	0	0.572587
1870	0	0
1871	0	0
1872	0	0
1873	1	0
1874	1	0
1875	0	0.333333
1876	0	0.166667
1877	0	0.1
1878	0	0.818703
1879	0	0.654201
1880	0	0.759755
1881	0	0.333333
1882	0	0.333333
1883	0	0.984
1884	0	0.984127
1885	0	0.975443
1886	0	0.75
1887	0	1
1888	0	1
1889	0	0.994318
1890	0	0.994318
1891	0	0.99621
1892	0	0.994318
1893	0	1
1894	0	1
1895	1	1
1896	1	1
1897	1	1
1898	1	1
1899	1	1
1900	1	1
1901	1	1
1902	1	1
1903	1	1
1904	0	1
1905	0	0.994324
1906	1	1
1907	1	1
1908	1	1
1909	1	1
1910	1	1
1911	0	0.996212
1912	0	1
1913	1	1
1914	1	1
1915	1	1
1916	1	1
1917	1	1
1918	1	1
1919	1	1
1920	1	1
1921	1	1
1922	1	1
1923	1	1
1924	0	0.998108
1925	0	0.998108
1926	1	1
1927	1	1
1928	0	1
1929	0	1
1930	1	1
1931	1	1
1932	1	1
1933	1	1
1934	1	1
1935	1	1
1936	0	1
1937	0	1
1938	0	0
1939	0	0
1940	0	0
1941	0	0.994318
1942	0	0.994318
1943	0	0.994318
1944	0	1
1945	0	1
1946	0	0
1947	0	0.993481
1948	0	0.758333
1949	0	0.65
1950	0	0.742857
1951	0	0.742857
1952	0	0.533333
1953	0	0
1954	0	0.628571
1955	0	0.628571
1956	0	0.725275
1957	0	0
1958	1	0
1959	1	0
1960	1	0
1961	1	0
1962	1	0
1963	1	0
1964	1	0
1965	1	0
1966	1	0
1967	1	0
1968	1	0
1969	1	0
1970	1	0
1971	1	0
1972	1	0
1973	1	0
1974	1	0
1975	0	0.750153
1976	0	0.362443
1977	0	0.585775
1978	0	0.587172
1979	0	0.5
1980	0	0.166667
1981	0	0.848156
1982	0	0.25731
1983	0	0.866667
1984	0	0.893904
1985	0	0.994315
1986	0	0.998102
1987	1	1
1988	1	1
1989	1	1
1990	1	1
1991	1	1
1992	1	1
1993	1	1
1994	1	0
1995	1	0
1996	1	0
1997	1	0
1998	1	0
1999	1	1
2000	1	1
2001	1	1
2002	1	1
2003	1	1
2004	1	1
2005	1	1
2006	1	1
2007	1	1
2008	1	1
2009	1	1
2010	1	1
2011	1	1
2012	1	1
2013	1	1
2014	1	1
2015	1	1
2016	0	1
2017	0	0.992453
2018	1	1
2019	1	1
2020	1	1
2021	1	1
2022	1	1
2023	1	1
2024	1	1
2025	0	1
2026	0	0.996132
2027	0	0.992271
2028	0	0.991333
2029	0	0.978358
2030	0	0.936081
2031	0	0.925251
2032	0	0.9249
2033	0	0.5
2034	0	1
2035	0	0
2036	0	0
2037	0	0
2038	0	0
2039	0	0
2040	1	0
2041	1	0
2042	1	0
2043	1	0
2044	0	0
2045	0	0
2046	0	0
2047	0	0
2048	0	0
2049	0	0.922244
2050	0	0.92174
2051	0	0.911046
2052	0	0.910791
2053	0	0.910607
2054	0	0.0666667
2055	0	0.2
2056	0	0.709262
2057	0	0.714253
2058	0	0.753277
2059	0	0.767727
2060	0	0.96598
2061	0	0.967937
2062	0	0.970138
2063	0	0.968598
2064	0	0.290909
2065	0	0.355556
2066	0	0.166667
2067	0	0.333333
2068	0	0.333333
2069	0	0.333333
2070	0	0
2071	0	0
2072	0	0
2073	0	0
2074	0	0
2075	0	0
2076	0	0
2077	0	0
2078	0	0
2079	0	0
2080	0	0
2081	0	0
2082	0	0
2083	0	0
2084	0	0
2085	0	0
2086	0	0
2087	0	0
2088	0	0.988713
2089	0	0.988727
2090	0	0.988727
2091	0	0
2092	0	0.6
2093	0	1
2094	0	0.998117
2095	0	0.998117
2096	0	0.998117
2097	1	1
2098	1	1
2099	1	1
2100	1	1
2101	1	1
2102	1	1
2103	0	1
2104	0	0.998115
2105	0	0.998115
2106	0	0.998115
2107	0	0.998115
2108	0	0.998108
2109	0	1
2110	0	0.928571
2111	0	0.928571
2112	0	0.925926
2113	0	0.754023
2114	0	0.932083
2115	0	0.933992
2116	0	0.962766
2117	0	0.647368
2118	0	0.977607
2119	0	0.583333
2120	0	0.979423
2121	0	0.977574
2122	0	0.977574
2123	0	0.998113
2124	0	0.998113
2125	0	0.998115
2126	0	0.998115
2127	0	0.998115
2128	0	0.996235
2129	0	0.998117
2130	0	0.998115
2131	0	0.998111
2132	0	0.998111
2133	0	0.501684
2134	0	0.993808
2135	0	0.491661
2136	0	0.502461
2137	0	0.329607
2138	0	0.477999
2139	0	0.833847
2140	0	0.913617
2141	0	0.941084
2142	0	0.655512
2143	0	0.653774
2144	0	0.591136
2145	0	0.584472
2146	0	0.582217
2147	0	0.532379
2148	0	0.522506
2149	0	0.673583
2150	0	0.764581
2151	0	0.0952381
2152	0	0.0714286
2153	0	0.0357143
2154	0	0.111111
2155	0	0.288889
2156	0	0.915742
2157	0	0.931808
2158	0	0.918908
2159	0	0.894263
2160	0	0.828707
2161	0	0.759622
2162	0	0.70542
2163	0	0.966305
2164	0	0.985007
2165	0	1
2166	0	1
2167	0	1
2168	0	1
2169	0	0.996235
2170	0	0.998113
2171	0	0.996235
2172	0	0.996232
2173	0	0.996232
2174	0	0.996232
2175	0	0.996232
2176	0	0.996232
2177	0	0.996232
2178	0	0
2179	0	0
2180	0	0
2181	0	0
2182	0	0
2183	0	0.99811
2184	0	0.996225
2185	0	0.994345
2186	0	0.994345
2187	0	0.77919
2188	0	0.333333
2189	0	0
2190	0	0.927946
2191	0	0.781921
2192	0	0.57331
2193	0	0.717306
2194	0	0.658946
2195	0	0.0666667
2196	0	0.88776
2197	0	0.663579
2198	0	0.275
2199	0	0.275
2200	0	0.275
2201	0	0.667764
2202	0	0.988733
2203	0	0.988733
2204	0	0.988738
2205	0	0.988738
2206	0	0.988738
2207	0	0.986841
2208	0	0.98498
2209	0	0
2210	0	0
2211	0	0.985052
2212	0	0.985036
2213	0	0.882353
2214	0	0.866667
2215	0	0.866667
2216	0	0.846154
2217	0	0.725275
2218	0	0.763003
2219	0	0.689969
2220	0	0.666239
2221	0	0.638095
2222	0	0.527273
2223	0	0.25
2224	0	0.6
2225	0	0.6
2226	0	0.6
2227	0	0.5
2228	0	1
2229	0	1
2230	0	1
2231	0	1
2232	0	1
2233	0	0.5
2234	0	1
2235	0	1
2236	0	0.538392
2237	0	0.760153
2238	0	0.815718
2239	0	0.829118
2240	0	0.52381
2241	0	0.52381
2242	0	1
2243	0	1
2244	0	0.4
2245	0	0.644444
2246	0	0.712297
2247	0	0.744334
2248	0	0.760546
2249	0	0.776442
2250	0	0.793416
2251	0	1
2252	0	0.990602
2253	1	1
2254	1	1
2255	1	1
2256	1	1
2257	0	0.998115
2258	0	0.998117
2259	0	0.998115
2260	0	0.998115
2261	0	0.941389
2262	0	0.941335
2263	0	1
2264	0	1
2265	0	0.552381
2266	0	0.754036
2267	0	0.784314
2268	0	0.976471
2269	0	0.98482
2270	0	0.906907
2271	0	0.598482
2272	0	0.395644
2273	0	1
2274	0	0.96109
2275	0	0.998115
2276	0	0.998115
2277	0	0.998115
2278	0	0.998115
2279	1	1
2280	0	0.998115
2281	0	0.99812
2282	0	0.99812
2283	0	0.998122
2284	0	0.998122
2285	0	0.998122
2286	0	0.998122
2287	1	1
2288	1	1
2289	1	1
2290	0	1
2291	0	1
2292	0	0.985507
2293	0	0.957554
2294	0	0.759146
2295	0	0.741585
2296	0	0.95122
2297	0	0.85561
2298	0	0.322656
2299	0	0.393112
2300	0	0.350427
2301	0	0.419037
2302	0	0
2303	0	0
2304	0	0
2305	0	0.166667
2306	0	0.458184
2307	0	0.0952381
2308	0	0.166667
2309	0	0.166667
2310	0	0.333333
2311	0	0.166667
2312	0	0.166667
2313	0	0.938176
2314	0	0.945767
2315	0	0.812777
2316	0	0.805149
2317	0	0.926472
2318	0	0.898874
2319	0	0.953582
2320	0	0
2321	0	0.466667
2322	0	1
2323	0	0.99811
2324	0	0.99811
2325	0	0.998119
2326	0	1
2327	0	1
2328	0	1
2329	0	1
2330	0	1
2331	0	1
2332	0	1
2333	0	1
2334	0	1
2335	0	1
2336	0	0.996251
2337	0	0.998124
2338	0	0.998124
2339	0	0
2340	0	0.996256
2341	0	0.996256
2342	0	0
2343	0	0
2344	0	0
2345	0	0
2346	0	0.998124
2347	0	0.998124
2348	0	0.998124
2349	0	0.998122
2350	0	0.998124
2351	0	0.998124
2352	0	0.996249
2353	0	0.996249
2354	0	0.996249
2355	0	0.996249
2356	0	0.996249
2357	0	0.996249
2358	0	1
2359	0	1
2360	0	1
2361	0	1
2362	0	0.994373
2363	0	0.333333
2364	0	0.333333
2365	0	1
2366	0	1
2367	0	1
2368	0	1
2369	0	0
2370	1	0
2371	1	0
2372	1	0
2373	1	0
2374	1	0
2375	1	0
2376	1	0
2377	1	0
2378	0	0
2379	0	0
2380	0	0
2381	0	1
2382	0	1
2383	0	1
2384	0	1
2385	0	1
2386	1	1
2387	0	1
2388	0	1
2389	0	0.333333
2390	0	0.992522
2391	0	0.992522
2392	0	0.992522
2393	0	0.504174
2394	0	0
2395	0	0.486713
2396	0	0.468343
2397	0	0
2398	0	0
2399	0	0
2400	0	0
2401	0	0
2402	0	0
2403	0	0.894737
2404	0	0.552765
2405	0	0.638229
2406	0	0.362575
2407	0	0.66043
2408	0	0.714761
2409	0	0.714824
2410	0	0.713268
2411	0	0.686618
2412	0	0
2413	0	0
2414	0	0
2415	0	0.190476
2416	0	0.700928
2417	0	0.723478
2418	0	0.728933
2419	0	0.734715
2420	0	0.730915
2421	0	0.894851
2422	0	0.943006
2423	0	0.923691
2424	0	0.773264
2425	0	0.357331
2426	0	0.571429
2427	0	0.139535
2428	0	0.339939
2429	0	0.270991
2430	0	0.321563
2431	0	0.328631
2432	0	0.0985222
2433	0	0.357844
2434	0	0.366919
2435	0	0.315217
2436	0	0.363077
2437	0	0.801101
2438	0	0.902454
2439	0	0.916663
2440	0	0.880682
2441	0	0.764393
2442	0	0.764393
2443	0	0.764393
2444	0	0.769264
2445	0	0.5
2446	0	0.970806
2447	0	0.992504
2448	0	0.992504
2449	0	0.992504
2450	0	1
2451	0	0.996253
2452	0	0.996253
2453	0	0.996253
2454	0	0.994382
2455	0	0.994382
2456	0	0.992513
2457	0	0.992513
2458	0	0.99252
2459	0	0
2460	0	0.994382
2461	0	0.994382
2462	0	0.996253
2463	0	0.996253
2464	0	0.996253
2465	0	0.996255
2466	0	0.996255
2467	0	0.996255
2468	0	0.996255
2469	0	0.996255
2470	0	0.92
2471	0	0.941207
2472	0	0.75
2473	0	0.535714
2474	0	0.945199
2475	0	0.7018
2476	0	0.3
2477	0	0.3
2478	0	0.285714
2479	0	0.450593
2480	0	0.867484
2481	0	0.58489
2482	0	0.510699
2483	0	1
2484	0	0.142857
2485	0	1
2486	0	1
2487	0	1
2488	0	0.333333
2489	0	0.333333
2490	0	0.333333
2491	0	0.333333
2492	0	0.142857
2493	0	0.660865
2494	0	0.1
2495	0	0
2496	0	0
2497	0	0.333333
2498	0	0.333333
2499	0	0.458835
2500	0	0.828505
2501	0	0.2
2502	0	0.3
2503	0	0.5
2504	0	0.5
2505	0	0.5
2506	0	0.5
2507	0	0.5
2508	0	0
2509	0	0
2510	0	0
2511	0	1
2512	0	1
2513	0	1
2514	0	0.91768
2515	0	0.926778
2516	0	0.638095
2517	0	0.912384
2518	0	0.908868
2519	0	0.747942
2520	0	0.735274
2521	0	0.715855
2522	0	0.719249
2523	0	0.722795
2524	0	0.723858
2525	0	0.724308
2526	0	0.732667
2527	0	0.786934
2528	0	0.786319
2529	0	0.968939
2530	0	1
2531	0	1
2532	0	1
2533	0	1
2534	0	1
2535	1	1
2536	1	1
2537	1	1
2538	1	1
2539	1	1
2540	0	1
2541	0	1
2542	0	1
2543	0	1
2544	0	1
2545	0	1
2546	0	0.992462
2547	0	1
2548	0	0.992534
2549	0	0.992534
2550	0	0.992534
2551	0	0.992534
2552	0	0
2553	0	0.994393
2554	0	0.994393
2555	0	0.994393
2556	0	1
2557	0	0.998127
2558	0	0.998127
2559	0	0.998127
2560	0	0.998127
2561	1	1
2562	1	1
2563	0	1
2564	0	1
2565	0	1
2566	0	0
2567	0	0
2568	0	0
2569	0	0.981308
2570	0	0.826702
2571	0	0.782993
2572	0	0.668262
2573	0	0.678784
2574	0	0.782328
2575	0	1
2576	0	1
2577	0	0.991514
2578	0	1
2579	0	1
2580	0	0.998124
2581	1	1
2582	1	1
2583	1	1
2584	1	1
2585	1	1
2586	0	0.878704
2587	0	0.876925
2588	0	0.876842
2589	0	1
2590	0	0.911334
2591	0	0.782057
2592	0	0.517997
2593	0	0.984252
2594	1	1
2595	1	1
2596	1	1
2597	1	1
2598	1	1
2599	1	1
2600	0	0.985507
2601	0	0.947069
2602	0	0.947069
2603	0	0.948846
2604	0	0
2605	1	1
2606	1	1
2607	1	1
2608	1	1
2609	0	1
2610	0	1
2611	0	0.746032
2612	0	0.7834
2613	0	0
2614	0	0.79033
2615	0	0.951633
2616	0	0.951633
2617	0	0.998113
2618	0	0.998126
2619	0	0.998126
2620	0	1
2621	0	0.778585
2622	0	0.777126
2623	0	0.777126
2624	0	0.998126
2625	1	1
2626	1	1
2627	1	1
2628	1	1
2629	0	0.998127
2630	0	0.998127
2631	0	0.998126
2632	0	0.998127
2633	0	0
2634	0	0
2635	0	0
2636	0	0
2637	0	0
2638	0	0
2639	0	0.992522
2640	0	0.992522
2641	0	0.992522
2642	0	0.990656
2643	0	0.333333
2644	0	0
2645	0	0
2646	1	0
2647	1	0
2648	0	0.994387
2649	0	0.996256
2650	0	0.996256
2651	0	0.996256
2652	0	0.996256
2653	0	0.996256
2654	0	0.996256
2655	0	0.996256
2656	0	0.996256
2657	0	0.996256
2658	0	1
2659	0	1
2660	0	1
2661	0	0.988796
2662	0	0.988792
2663	0	0.866808
2664	0	0.914038
2665	0	0.847426
2666	0	1
2667	0	1
2668	0	1
2669	0	1
2670	0	0.714286
2671	0	0.832707
2672	0	0.803388
2673	0	0.348485
2674	0	0.634712
2675	0	0.592636
2676	0	0.324051
2677	0	0.29359
2678	0	0.339825
2679	0	0.2
2680	0	0.266667
2681	0	0.464315
2682	0	0.466339
2683	0	0.180761
2684	0	0.396378
2685	0	0.157895
2686	0	0.593739
2687	0	0
2688	0	0
2689	0	0.606855
2690	0	0.67703
2691	0	0.702276
2692	0	0.823864
2693	0	0.467662
2694	0	0.735943
2695	0	0.758222
2696	0	0
2697	0	0
2698	0	0.166667
2699	0	0.52381
2700	0	1
2701	0	1
2702	0	1
2703	0	1
2704	0	1
2705	0	0.996256
2706	0	0.99626
2707	1	1
2708	1	1
2709	1	1
2710	0	1
2711	0	0.590909
2712	0	0.590909
2713	0	0.794872
2714	0	0.829545
2715	0	0.941176
2716	0	0.938185
2717	0	0.693577
2718	0	0.693577
2719	0	0.69488
2720	0	0.996253
2721	0	0.998126
2722	1	1
2723	1	1
2724	1	1
2725	1	1
2726	1	1
2727	1	1
2728	1	1
2729	1	1
2730	0	0.998127
2731	1	1
2732	1	1
2733	1	1
2734	1	1
2735	0	0.678129
2736	0	0.444444
2737	0	0.988823
2738	0	1
2739	0	0.998126
2740	0	0.998124
2741	0	1
2742	1	1
2743	1	1
2744	1	1
2745	0	0.998126
2746	0	0.998126
2747	0	0.998126
2748	0	1
2749	0	1
2750	0	0.4
2751	0	0.6
2752	0	0.986841
2753	0	0.877261
2754	0	0.655635
2755	0	0.421505
2756	0	1
2757	0	1
2758	0	0.990616
2759	0	0.990647
2760	0	0.994377
2761	0	0.994377
2762	0	0.977681
2763	0	0.977661
2764	0	0.873551
2765	0	0.56044
2766	1	1
2767	0	1
2768	0	0.898481
2769	0	0.998126
2770	0	0.998126
2771	0	0.996256
2772	0	0.996256
2773	0	1
2774	0	0.98693
2775	0	0.682955
2776	0	0.679946
2777	0	0.717949
2778	0	0.994373
2779	0	0.994373
2780	0	0.994373
2781	0	0.994379
2782	0	0.992508
2783	0	0.992508
2784	0	0.994345
2785	0	0.768083
2786	0	0.762876
2787	0	1
2788	0	1
2789	0	0.971453
2790	0	0.3
2791	0	0.895884
2792	0	0.95342
2793	0	1
2794	0	1
2795	0	1
2796	0	1
2797	0	0.998124
2798	0	0.998126
2799	0	0.994393
2800	0	0.994393
2801	0	0.994393
2802	0	0
2803	0	0
2804	1	0
2805	1	0
2806	1	0
2807	1	0
2808	1	0
2809	1	0
2810	0	0.988822
2811	0	0.988832
2812	0	1
2813	0	0.994384
2814	0	0.994384
2815	0	0.998126
2816	0	0.998126
2817	0	0.998126
2818	0	0.998126
2819	0	0.998126
2820	0	0.998126
2821	0	0.998126
2822	0	0.998126
2823	0	0.998126
2824	0	0
2825	0	0
2826	0	0
2827	0	0.9
2828	0	0.733648
2829	0	0.924389
2830	0	0.783189
2831	0	0.5
2832	0	0.5
2833	0	0.5
2834	0	0.583333
2835	0	0.773377
2836	0	0.896617
2837	0	0.723785
2838	0	0.8
2839	0	0.818182
2840	0	0.818182
2841	0	0.679217
2842	0	0.605003
2843	0	0.998126
2844	0	0.998126
2845	0	0.998126
2846	0	0.998126
2847	0	0.998126
2848	0	0.998126
2849	1	1
2850	1	1
2851	1	1
2852	1	1
2853	1	1
2854	1	1
2855	1	1
2856	1	1
2857	1	1
2858	1	1
2859	1	1
2860	0	0.998126
2861	1	1
2862	0	1
2863	0	1
2864	0	0
2865	0	0
2866	0	0
2867	0	0
2868	0	0
2869	0	0
2870	0	0
2871	0	0.988916
2872	0	0.949826
2873	0	0.166667
2874	0	0.166667
2875	0	0.166667
2876	0	0.763516
2877	0	1
2878	0	1
2879	0	0.333333
2880	0	0.1
2881	0	0.504762
2882	0	0.833463
2883	0	0.758349
2884	0	0.19697
2885	0	0.526371
2886	0	0.142857
2887	0	0.0714286
2888	0	0.0714286
2889	0	0.0555556
2890	0	0.194444
2891	0	0.35648
2892	0	0.368421
2893	0	0.557895
2894	0	0.428571
2895	0	0.305556
2896	0	0.166667
2897	0	0.166667
2898	0	0.336282
2899	0	0.313096
2900	0	0.606488
2901	0	0.333333
2902	0	0.52381
2903	0	0.52381
2904	0	0.52381
2905	0	0.52381
2906	0	0.52381
2907	0	0.717949
2908	0	0.736264
2909	0	0.736264
2910	0	0.923094
2911	0	0.616092
2912	0	0.616092
2913	0	0.916667
2914	0	1
2915	0	0.94459
2916	0	0.998111
2917	0	0.996246
2918	0	0.996256
2919	0	0.994393
2920	0	0.994393
2921	0	0.996256
2922	0	0.996256
2923	0	0.996256
2924	0	0.998126
2925	0	0.998126
2926	0	0.998126
2927	0	0.998126
2928	0	0.998126
2929	0	0.998126
2930	0	0.998126
2931	0	0.998126
2932	0	0.333333
2933	0	0.986966
2934	0	0.986954
2935	0	0
2936	0	0
2937	0	0
2938	0	0
2939	0	0.988752
2940	0	0.990607
2941	0	0
2942	0	0.986928
2943	0	0.990656
2944	0	0.996253
2945	0	0.996253
2946	0	0.996253
2947	0	0.996253
2948	0	0.996253
2949	0	0.996253
2950	0	0.996253
2951	0	0.996253
2952	0	0
2953	1	1
2954	1	1
2955	1	1
2956	0	0
2957	0	0.996253
2958	0	0.996253
2959	0	0.996253
2960	0	1
2961	0	1
2962	0	0.986934
2963	0	0.986921
2964	0	0.986914
2965	0	0.986914
2966	0	0.981328
2967	0	0.981328
2968	0	0.944935
2969	0	0
2970	0	0
2971	0	0
2972	0	0
2973	0	0
2974	0	0
2975	0	0
2976	0	0
2977	0	0.5
2978	0	0.266667
2979	0	0.222222
2980	0	0.857677
2981	0	0.418182
2982	0	0.377778
2983	0	0.377778
2984	0	0.377778
2985	0	0.309091
2986	0	0.254545
2987	0	0.254545
2988	0	0.254545
2989	0	0.218182
2990	0	0.266667
2991	0	0.266667
2992	0	0.133333
2993	0	0.133333
2994	0	0.133333
2995	0	0.651596
2996	0	0.527273
2997	0	0.75
2998	0	1
2999	0	1
3000	0	1
3001	0	0.75
3002	0	0.75
3003	0	0.583333
3004	0	0.218182
3005	0	0.218182
3006	0	0.848
3007	0	0.848
3008	0	0.821727
3009	0	0.808987
3010	0	0.808987
3011	0	0.808987
3012	0	0.808866
3013	0	0.808624
3014	0	0.808624
3015	0	0.808624
3016	0	0.817161
3017	0	0.80419
3018	0	0.709968
3019	0	0.709968
3020	0	0.661714
3021	0	0.520063
3022	0	0.503242
3023	0	0.509653
3024	0	0.503058
3025	0	0.512288
3026	0	0.510269
3027	0	0.216092
3028	0	0.26087
3029	0	0.177778
3030	0	0.25
3031	0	0.25
3032	0	0.190476
3033	0	0.190476
3034	0	0.357143
3035	0	0.357143
3036	0	0.535714
3037	0	0.535714
3038	0	0.535714
3039	0	0.355556
3040	0	0.439394
3041	0	0.628767
3042	0	0.396026
3043	0	0.699476
3044	0	0.698417
3045	0	0.894138
3046	0	0.938361
3047	0	0.885351
3048	0	0.898665
3049	0	0.912804
3050	0	0.913433
3051	0	0.913433
3052	0	0.913433
3053	0	0.954892
3054	0	0.900436
3055	0	0.902638
3056	0	0.979458
3057	0	0
3058	0	0
3059	0	0.981302
3060	0	0.981302
3061	0	0.985035
3062	0	0.985049
3063	0	0.985035
3064	0	0.99063
3065	0	1
3066	0	0.996246
3067	0	0.996246
3068	0	0
3069	0	0.99812
3070	0	0.998119
3071	0	0.996239
3072	0	1
3073	0	0.971651
3074	0	0.986105
3075	0	0.978521
3076	0	0.4
3077	0	0.4
3078	0	1
3079	1	1
3080	1	1
3081	0	0.47436
3082	0	0.482138
3083	0	0.571255
3084	0	0.961272
3085	0	0.970353
3086	0	0.970353
3087	0	1
3088	0	0.996253
3089	0	0.996253
3090	0	0.996253
3091	0	1
3092	0	0.885044
3093	0	1
3094	0	1
3095	0	1
3096	0	1
3097	0	1
3098	0	1
3099	0	1
3100	0	1
3101	0	1
3102	0	1
3103	0	1
3104	0	1
3105	0	1
3106	0	0.333333
3107	0	0.333333
3108	0	0.166667
3109	0	0.166667
3110	0	0.166667
3111	0	0.166667
3112	0	0.166667
3113	0	0.166667
3114	0	0.959677
3115	0	0.959679
3116	0	0.908535
3117	0	0.663863
3118	0	0.341457
3119	0	0.620343
3120	0	0.775432
3121	0	0.39501
3122	0	0.881904
3123	0	0.985052
3124	0	0.985045
3125	0	1
3126	0	1
3127	0	0.99812
3128	0	0.99812
3129	0	1
3130	0	1
3131	0	1
3132	0	1
3133	0	1
3134	0	1
3135	0	1
3136	0	0.994325
3137	0	0.946622
3138	0	0.981821
3139	0	0.895522
3140	0	0.818182
3141	1	1
3142	1	1
3143	1	1
3144	1	1
3145	1	1
3146	0	1
3147	0	0.599446
3148	0	0.996248
3149	1	1
3150	1	1
3151	1	1
3152	1	1
3153	0	0
3154	0	0
3155	0	0
3156	0	0.982609
3157	0	0.965667
3158	0	0.80399
3159	0	0.766673
3160	0	0.766864
3161	0	0.56521
3162	0	0.77206
3163	0	0.77206
3164	0	0
3165	0	0
3166	0	0
3167	0	0
3168	0	0
3169	0	0.3
3170	0	0.3
3171	0	0.900623
3172	0	0.633513
3173	0	0
3174	0	0
3175	0	0
3176	0	0
3177	0	0
3178	0	0
3179	0	0.71831
3180	0	0.798566
3181	0	0.798566
3182	0	0.798566
3183	0	0.664988
3184	0	0
3185	0	0
3186	0	0
3187	0	0
3188	0	0
3189	0	0
3190	0	0
3191	0	0
3192	0	0
3193	0	0
3194	0	0
3195	0	0
3196	0	0
3197	0	0
3198	0	0
3199	0	0.333333
3200	0	0.266667
3201	0	0.254545
3202	0	0.294372
3203	0	0.290043
3204	0	0.359307
3205	0	0.662345
3206	0	0.69697
3207	0	1
3208	0	0.509091
3209	0	0.266667
3210	0	0.222222
3211	0	0.333333
3212	0	0.333333
3213	0	0
3214	0	0
3215	0	1
3216	0	0.6
3217	0	0.655455
3218	0	0.691884
3219	0	0.322152
3220	0	0.52184
3221	0	0.36357
3222	0	0.632666
3223	0	0.682712
3224	0	0.681488
3225	0	0.681488
3226	0	0.681488
3227	0	0.681488
3228	0	1
3229	0	0.333333
3230	0	0.333333
3231	0	0.333333
3232	0	0.333333
3233	0	0.333333
3234	0	0.333333
3235	0	0.333333
3236	0	0.333333
3237	0	0.333333
3238	0	0.333333
3239	0	0.333333
3240	0	0.333333
3241	0	0.333333
3242	0	0.333333
3243	0	0.333333
3244	0	0.5
3245	0	0.683373
3246	0	0.385045
3247	0	0.531092
3248	0	0.726269
3249	0	0.612238
3250	0	0.748565
3251	0	0.747161
3252	0	0.747161
3253	0	0
3254	0	0
3255	0	0
3256	0	0
3257	0	0
3258	0	0
3259	0	0
3260	0	0
3261	0	0
3262	0	0
3263	0	0
3264	0	0
3265	0	0
3266	0	0.1
3267	0	0.2
3268	0	0.2
3269	0	0.2
3270	0	0.133333
3271	0	0.895592
3272	0	0.895592
3273	0	0.895592
3274	0	0.896236
3275	0	0.880373
3276	0	0.835382
3277	0	0.821397
3278	0	0.821692
3279	0	0.822429
3280	0	0.808489
3281	0	0.794901
3282	0	0.796499
3283	0	0.783471
3284	0	0.770661
3285	0	0.785124
3286	0	0.783747
3287	0	0.783747
3288	0	0.783747
3289	0	0.770898
3290	0	0.889111
3291	0	0.905324
3292	0	0.877079
3293	0	0.898328
3294	0	0.885019
3295	0	0.877001
3296	0	0.930576
3297	0	0.91766
3298	0	0.930676
3299	0	0.930676
3300	0	0.983085
3301	0	0.977543
3302	0	0.977545
3303	0	0.977545
3304	0	0.977564
3305	0	0.973899
3306	0	0.857143
3307	0	0.950055
3308	0	0.95001
3309	0	0.949943
3310	0	0.190476
3311	0	0.190476
3312	0	0.950687
3313	0	0.190476
3314	0	0.166667
3315	0	0.166667
3316	0	0.5
3317	0	0.5
3318	0	0.321429
3319	0	0.704603
3320	0	0.61212
3321	0	0.627301
3322	0	0.68653
3323	0	0.750481
3324	0	0.783087
3325	0	0.820007
3326	0	0.868387
3327	0	0.0666667
3328	0	0.0666667
3329	0	0.958775
3330	0	0.962793
3331	0	0.95552
3332	0	0.953692
3333	0	0.951856
3334	0	0.928249
3335	0	0.753668
3336	0	0.754879
3337	0	0.751851
3338	0	0.74821
3339	0	1
3340	0	0.743948
3341	0	0.74494
3342	0	0.732082
3343	0	0.568421
3344	0	0.309524
3345	0	0.630558
3346	0	0.627446
3347	0	0.623836
3348	0	0.62384
3349	0	1
3350	0	0.466667
3351	0	0.466667
3352	0	0.466667
3353	0	0.466667
3354	0	0.466667
3355	0	1
3356	0	0.333333
3357	0	0.333333
3358	0	0.166667
3359	0	0.166667
3360	0	0.948133
3361	0	0.436364
3362	0	0.436364
3363	0	0.290909
3364	0	0.136364
3365	0	0.136364
3366	0	0.151515
3367	0	0.115385
3368	0	0.115385
3369	0	0.836028
3370	0	0.829882
3371	0	0.3
3372	0	0.1
3373	0	0.194444
3374	0	0.194444
3375	0	0.16129
3376	0	0.2
3377	0	0.105882
3378	0	0.0913121
3379	0	0.0971323
3380	0	0.670047
3381	0	0.331723
3382	0	0.38583
3383	0	0.349492
3384	0	0
3385	0	0
3386	0	0
3387	0	0
3388	0	0
3389	0	0
3390	0	0
3391	0	0
3392	0	0
3393	0	0
3394	0	0
3395	0	0
3396	0	0
3397	0	0
3398	0	0
3399	0	0
3400	0	0
3401	0	0
3402	0	0
3403	0	0
3404	0	0
3405	0	0
3406	0	0
3407	0	0
3408	0	0
3409	1	0
3410	1	0
3411	1	0
3412	0	0
3413	0	0
3414	0	0
3415	0	0
3416	0	0
3417	0	0
3418	0	0
3419	0	0.441347
3420	0	0.166667
3421	0	0.4
3422	0	0.261438
3423	0	0.333333
3424	0	0.246753
3425	0	0.202899
3426	0	0.142857
3427	0	0.142857
3428	0	0.194444
3429	0	0.179487
3430	0	0.120879
3431	0	0.104762
3432	0	0.12069
3433	0	0.0963455
3434	0	0.0878788
3435	0	0.150714
3436	0	0.202414
3437	0	0.264848
3438	0	0.252882
3439	0	0.237746
3440	0	0.340194
3441	0	0.163743
3442	0	0.128655
3443	0	0.126482
3444	0	0.152381
3445	0	0.192308
3446	0	0.169935
3447	0	0.157895
3448	0	0.150327
3449	0	0.109848
3450	0	0.228811
3451	0	0.228847
3452	0	0.247061
3453	0	0.5
3454	0	0.208642
3455	0	0
3456	0	0
3457	0	0
3458	0	0
3459	0	0
3460	0	0
3461	0	0
3462	0	0
3463	0	0
3464	0	0
3465	0	0
3466	0	0
3467	0	0
3468	0	0
3469	0	0
3470	0	1
3471	0	1
3472	0	1
3473	0	1
3474	0	1
3475	0	1
3476	0	1
3477	0	1
3478	0	1
3479	0	0.239548
3480	0	0.565794
3481	0	0.0952381
3482	0	0.694253
3483	0	0.481481
3484	0	0.305556
3485	0	0.305556
3486	0	0.47619
3487	0	0.729055
3488	0	0.729055
3489	0	0.540097
3490	0	0.569024
3491	0	0.79926
3492	0	0.3
3493	0	0.25
3494	0	0.153846
3495	0	0.152381
3496	0	0.593503
3497	0	0.607453
3498	0	0.355556
3499	0	0.4
3500	0	0.748409
3501	0	0
3502	0	0
3503	0	0
3504	0	0
3505	0	0
3506	0	0
3507	0	0
3508	0	0
3509	0	0
3510	0	0
3511	0	0.166667
3512	0	0.6
3513	0	0.6
3514	0	0.752109
3515	0	0.768609
3516	0	0.466667
3517	0	0.466667
3518	0	0.466667
3519	0	0.466667
3520	0	0.466667
3521	0	0.51634
3522	0	0.538012
3523	0	0.844154
3524	0	0.397436
3525	0	0.777778
3526	0	0.777778
3527	0	0.777778
3528	0	0.777778
3529	0	0.682646
3530	0	0.682686
3531	0	0.702007
3532	0	1
3533	0	1
3534	0	1
3535	0	0.8
3536	0	0.768145
3537	0	0.736134
3538	0	0.747357
3539	0	0.781838
3540	0	0.786469
3541	0	0.772562
3542	0	0.0769231
3543	0	0.953388
3544	0	0.951348
3545	0	0.949316
3546	0	0.506542
3547	0	0.834926
3548	0	0.215385
3549	0	0.616099
3550	0	0
3551	0	0
3552	0	0.602225
3553	0	0.426141
3554	0	0.746976
3555	0	0.0833333
3556	0	0.747625
3557	0	0.373626
3558	0	0.974415
3559	0	0.976585
3560	0	0.974496
3561	0	0.982936
3562	0	0.970357
3563	0	0.968279
3564	0	0.970375
3565	0	0.970375
3566	0	0.96201
3567	0	0.96201
3568	0	0.912956
3569	0	0
3570	0	0
3571	0	0
3572	0	0
3573	0	0
3574	0	0
3575	0	0
3576	0	0.705128
3577	0	0.705128
3578	0	0.269231
3579	0	0.416667
3580	0	0.416667
3581	0	0.330484
3582	0	0.770204
3583	0	0.342857
3584	0	0
3585	0	0.150198
3586	0	0.187692
3587	0	0.511084
3588	0	0
3589	0	0
3590	0	0
3591	0	0.295238
3592	0	0.47619
3593	0	0.305556
3594	0	0.24359
3595	0	0.345168
3596	0	0.40118
3597	0	0.381463
3598	0	0.508039
3599	0	0.794926
3600	0	0.190476
3601	0	0.266667
3602	0	0.5
3603	1	1
3604	1	1
3605	1	1
3606	1	1
3607	1	1
3608	1	1
3609	1	1
3610	0	0
3611	1	0
3612	1	0
3613	1	0
3614	0	0.333333
3615	1	1
3616	1	1
3617	1	1
3618	1	1
3619	1	1
3620	1	1
3621	1	1
3622	0	1
3623	0	1
3624	0	1
3625	0	1
3626	0	1
3627	0	0.970273
3628	0	0.97028
3629	0	0.97028
3630	0	0.970278
3631	0	0.970278
3632	0	0.972098
3633	0	0.25
3634	0	0.854525
3635	0	0.852386
3636	0	0.855606
3637	0	0
3638	0	0
3639	0	0
3640	0	0
3641	0	0
3642	0	0
3643	0	0
3644	0	0
3645	0	0
3646	0	0
3647	1	0
3648	1	0
3649	1	0
3650	1	0
3651	1	0
3652	1	0
3653	1	0
3654	1	0
3655	1	0
3656	1	0
3657	1	0
3658	1	0
3659	1	0
3660	1	0
3661	1	0
3662	0	0.768137
3663	0	0.772645
3664	0	0.772827
3665	0	0.772827
3666	0	0.771199
3667	0	0.771201
3668	0	0.771201
3669	0	0.992527
3670	0	0.992527
3671	0	0.992527
3672	0	0.992527
3673	0	0.992527
3674	0	1
3675	0	1
3676	0	0.75
3677	0	0.75
3678	0	0.583333
3679	0	0.583333
3680	0	0.975473
3681	0	1
3682	0	0.466667
3683	0	0.466667
3684	0	0.466667
3685	0	0.466667
3686	0	1
3687	1	1
3688	1	1
3689	1	1
3690	1	1
3691	0	0
3692	0	0
3693	0	0
3694	0	0
3695	0	0
3696	0	0
3697	0	0
3698	0	0
3699	0	0
3700	0	0
3701	0	0
3702	0	0.670453
3703	0	0.614923
3704	0	0.175824
3705	0	0.153846
3706	0	0.219048
3707	0	0.55066
3708	0	0.419512
3709	0	0.495122
3710	0	0.468439
3711	0	0.839954
3712	0	0
3713	0	0
3714	0	0
3715	0	0.881585
3716	0	1
3717	0	1
3718	0	1
3719	0	0.333333
3720	0	1
3721	0	0.740468
3722	0	0.764374
3723	0	0.770968
3724	0	0.770968
3725	0	0.770968
3726	0	0.770968
3727	0	0.770968
3728	0	0.771995
3729	0	0.775475
3730	0	0.770101
3731	0	0.773567
3732	0	0.764987
3733	0	0
3734	0	0
3735	0	0
3736	0	0
3737	0	0.654545
3738	0	0.654545
3739	0	0.545455
3740	0	0.739261
3741	0	0.729871
3742	0	0.708503
3743	0	0.6
3744	0	0.6
3745	0	0.6
3746	0	0.4
3747	0	0.898222
3748	0	0.282927
3749	0	0.762957
3750	0	0.696767
3751	0	0.725617
3752	0	0.194444
3753	0	0.222222
3754	0	0.846809
3755	0	0.913866
3756	0	0.1
3757	0	0.5
3758	0	0.666667
3759	0	0.666667
3760	0	0.666667
3761	0	0.90221
3762	0	0.771951
3763	0	0.95632
3764	0	0.952319
3765	0	0.944419
3766	0	0.944419
3767	0	0.94443
3768	0	0.946525
3769	0	0.948348
3770	0	0.931876
3771	0	0.935306
3772	0	0.6
3773	0	0
3774	0	0
3775	0	0
3776	0	0
3777	1	0
3778	1	0
3779	1	0
3780	1	0
3781	0	0.680754
3782	0	0.667945
3783	0	0.787239
3784	0	0.743602
3785	0	0.904535
3786	0	0.392857
3787	0	0.392857
3788	0	0.711675
3789	0	0.884206
3790	0	0.986577
3791	0	0.986577
3792	0	0.983095
3793	0	0.986963
3794	0	0.988818
3795	0	0.988818
3796	0	0.988797
3797	0	0.988797
3798	0	0.333333
3799	0	0.333333
3800	0	0
3801	0	0.988803
3802	0	0
3803	0	0.990673
3804	0	0.992536
3805	0	0.333333
3806	0	0.333333
3807	0	0.9944
3808	0	0.994405
3809	0	0.986991
3810	0	0.986991
3811	0	0.986991
3812	0	0.994405
3813	0	1
3814	0	0.99627
3815	0	0.99627
3816	0	0.99627
3817	0	0.99627
3818	0	0.99627
3819	0	1
3820	0	0.994405
3821	0	0.998133
3822	0	0.998133
3823	0	0.998133
3824	0	0.998133
3825	0	0.998133
3826	0	0.998133
3827	0	0.998133
3828	0	0.996263
3829	0	0.994403
3830	0	0.996267
3831	1	0
3832	0	0.998131
3833	0	0.998131
3834	0	0.998131
3835	0	0.998131
3836	0	0.998131
3837	1	1
3838	1	1
3839	1	1
3840	1	1
3841	1	1
3842	1	1
3843	1	1
3844	0	0.998131
3845	0	0.998131
3846	0	0.996267
3847	0	0.998133
3848	0	1
3849	0	0.871264
3850	0	0.458741
3851	0	0.872857
3852	0	0.583333
3853	0	0.594961
3854	0	0.452842
3855	0	1
3856	0	0.879167
3857	0	0.858455
3858	0	0.858455
3859	0	0.432608
3860	0	0.235294
3861	0	0.151361
3862	0	0.623644
3863	0	0.630706
3864	0	0.933333
3865	0	0.385736
3866	0	0.333333
3867	0	0.862434
3868	0	1
3869	0	0.613941
3870	0	0.305556
3871	0	0.305556
3872	0	0.166667
3873	0	0.257143
3874	0	0.827188
3875	0	0.437976
3876	0	0
3877	0	0
3878	0	0.673794
3879	0	0.673794
3880	0	0.673794
3881	0	0.673794
3882	0	0.672729
3883	0	0
3884	0	0
3885	0	0
3886	0	0
3887	0	0
3888	0	0
3889	0	0
3890	0	0.166667
3891	0	0.166667
3892	0	0.166667
3893	0	0.1
3894	0	0.0666667
3895	0	0.1
3896	0	0.1
3897	0	0.0666667
3898	0	0.0666667
3899	0	0.0666667
3900	0	0.0666667
3901	0	0.133333
3902	0	0.133333
3903	0	0.133333
3904	0	0.4
3905	0	0.4
3906	0	0.6
3907	0	0.4
3908	0	0.25
3909	0	0.972226
3910	0	0.975895
3911	0	0.975926
3912	0	0.940165
3913	0	0.947261
3914	0	0.947261
3915	0	0.947261
3916	0	0.947261
3917	0	0.947261
3918	0	0.947261
3919	0	0.947261
3920	0	0.947261
3921	0	0.813793
3922	0	0.940024
3923	0	0
3924	0	0
3925	0	0.941832
3926	0	0.990703
3927	0	0.990703
3928	0	0.994413
3929	0	0.99627
3930	0	0.99627
3931	0	0.994413
3932	0	0.994413
3933	0	0.990689
3934	0	0.990689
3935	0	0.333333
3936	0	0.68847
3937	0	0
3938	0	0
3939	1	0
3940	0	0
3941	0	0
3942	0	0
3943	0	0
3944	0	0
3945	0	0
3946	0	0
3947	0	0.333333
3948	0	0.8766
3949	0	0.929652
3950	0	1
3951	0	1
3952	1	1
3953	1	1
3954	1	1
3955	0	0.998134
3956	0	0.998134
3957	0	0.998134
3958	0	0.998134
3959	0	0.998134
3960	0	0.998134
3961	1	1
3962	1	1
3963	1	1
3964	0	0.998134
3965	0	0
3966	0	0
3967	0	0
3968	0	0.99627
3969	0	0.99627
3970	0	0.818182
3971	0	0.975983
3972	0	0.994366
3973	0	0.333333
3974	0	0.996267
3975	0	0.99627
3976	0	0.99627
3977	0	0.998134
3978	0	0.998134
3979	0	0.998134
3980	0	0.998134
3981	0	0.998133
3982	1	0
3983	1	0
3984	1	0
3985	1	0
3986	1	0
3987	1	0
3988	1	0
3989	1	0
3990	1	0
3991	0	0.994413
3992	0	0.994413
3993	0	0.996274
3994	0	0.996274
3995	0	0.996274
3996	0	0.998134
3997	0	0.998133
3998	0	0.998133
3999	0	0.998133
4000	0	0.998133
4001	0	0.998133
4002	0	0.998133
4003	0	0.998133
4004	0	0.996267
4005	0	0.666667
4006	0	0.990654
4007	0	0.990642
4008	0	0.996246
4009	0	0.996246
4010	0	1
4011	0	1
4012	0	1
4013	0	1
4014	0	1
4015	0	1
4016	0	0.98311
4017	0	0.975671
4018	0	0.977529
4019	0	0.333333
4020	0	0.333333
4021	0	0.946122
4022	0	0.793114
4023	0	0.791446
4024	0	0.789795
4025	0	0.7848
4026	0	0.7292
4027	0	0.725004
4028	0	0.4
4029	0	0.3
4030	0	0.5
4031	0	0.5
4032	0	0.5
4033	0	0.333333
4034	0	0.1
4035	0	0.1
4036	0	0.1
4037	0	0.750522
4038	0	0.880764
4039	0	0.880764
4040	0	0.896334
4041	0	0.929075
4042	0	0.912484
4043	0	0.896334
4044	0	0.897531
4045	0	0.897531
4046	0	0.864462
4047	0	0.0833333
4048	0	0.719383
4049	0	0.724418
4050	0	0.720586
4051	0	0.719893
4052	0	0.653953
4053	0	0.673953
4054	0	0.694574
4055	0	0.769972
4056	0	0.153846
4057	0	0.2
4058	0	0.2
4059	0	0.2
4060	0	0.2
4061	0	0.130719
4062	0	0.657548
4063	0	0.658109
4064	0	0.667404
4065	0	0.67433
4066	0	0.714286
4067	0	0.583333
4068	0	0.622222
4069	0	0.622222
4070	0	0.622222
4071	0	0.818182
4072	0	0.833333
4073	0	0.833333
4074	0	0.833333
4075	0	0.846154
4076	0	0.795322
4077	0	0.67166
4078	0	0.670166
4079	0	0.675686
4080	0	0
4081	0	0
4082	0	0
4083	0	0
4084	0	0
4085	0	0
4086	0	0
4087	0	0
4088	0	0
4089	0	0
4090	1	0
4091	1	0
4092	1	0
4093	1	0
4094	1	0
4095	0	0
4096	0	0
4097	0	0
4098	0	0
4099	0	0.676264
4100	0	0.975718
4101	0	0.75
4102	0	0.986946
4103	0	0.992527
4104	1	0
4105	1	0
4106	1	0
4107	1	0
4108	1	0
4109	1	0
4110	1	0
4111	1	0
4112	1	0
4113	1	0
4114	1	0
4115	1	0
4116	1	0
4117	1	0
4118	1	0
4119	1	0
4120	1	0
4121	1	0
4122	1	0
4123	1	0
4124	1	0
4125	1	0
4126	0	0
4127	0	0
4128	0	0.998133
4129	0	0.998133
4130	0	0.998133
4131	0	0.998133
4132	0	0.998133
4133	0	0.998133
4134	0	0.994403
4135	0	0.994403
4136	0	0.677833
4137	0	0.677833
4138	0	0.47619
4139	0	0.666667
4140	0	0.99627
4141	0	0.99627
4142	0	0.996267
4143	0	0.996267
4144	0	1
4145	0	0.990689
4146	0	0.988834
4147	0	0.333333
4148	0	0.333333
4149	0	0.333333
4150	0	0.333333
4151	0	0.333333
4152	0	0.333333
4153	0	0.333333
4154	0	0.333333
4155	0	0
4156	0	0
4157	0	0.988801
4158	0	0.98878
4159	0	0.878223
4160	0	0.87801
4161	0	0.714286
4162	0	0
4163	0	0
4164	1	0
4165	1	0
4166	1	0
4167	1	0
4168	1	0
4169	1	0
4170	1	0
4171	1	0
4172	0	0.753685
4173	0	0.753685
4174	0	0.753685
4175	0	0
4176	0	0
4177	0	0
4178	0	0
4179	0	0
4180	0	0
4181	0	0
4182	0	0
4183	0	0
4184	0	0
4185	0	0
4186	0	0.1
4187	0	0.352381
4188	0	0.0666667
4189	0	0.93727
4190	0	0.985042
4191	0	0.985042
4192	0	0.0952381
4193	0	0.133333
4194	0	0.133333
4195	0	0.0952381
4196	0	0.0952381
4197	0	0.1
4198	0	0.1
4199	0	0
4200	0	0
4201	0	0
4202	0	0
4203	0	0
4204	0	0
4205	0	0
4206	0	0
4207	0	0
4208	0	0
4209	0	0
4210	0	0.996263
4211	1	0
4212	1	0
4213	1	0
4214	1	0
4215	1	0
4216	1	0
4217	1	0
4218	1	0
4219	1	0
4220	1	0
4221	1	0
4222	1	0
4223	1	0
4224	1	0
4225	1	0
4226	1	0
4227	1	0
4228	1	0
4229	1	0
4230	1	0
4231	1	0
4232	1	0
4233	1	0
4234	1	0
4235	1	0
4236	1	0
4237	1	0
4238	1	0
4239	1	0
4240	1	0
4241	1	0
4242	1	0
4243	1	0
4244	0	0.994403
4245	0	0.994403
4246	0	0.994403
4247	0	0.996263
4248	0	0.996263
4249	0	0.996263
4250	0	0.996263
4251	0	0.998131
4252	0	0.998131
4253	0	0.998131
4254	0	0.998131
4255	0	0.998131
4256	0	0.998131
4257	0	0.998131
4258	0	0.998131
4259	0	0.998131
4260	0	0.998131
4261	0	0.998129
4262	0	0.99626
4263	0	0.996256
4264	0	0.988808
4265	0	0.986958
4266	0	0.666667
4267	0	0.994398
4268	0	0.994398
4269	0	0.996263
4270	0	0.996263
4271	0	0.996263
4272	0	0.99626
4273	0	0.998129
4274	0	0.998129
4275	0	0.996263
4276	0	0.994403
4277	0	0
4278	0	0
4279	0	0
4280	0	0
4281	0	0
4282	0	0
4283	0	0
4284	0	0
4285	0	0
4286	0	0
4287	0	0
4288	0	0
4289	0	0
4290	0	0
4291	0	0
4292	0	0
4293	0	0
4294	0	0
4295	0	0
4296	0	0
4297	0	0
4298	0	0
4299	0	0
4300	0	0.992534
4301	0	0.996263
4302	0	0.996263
4303	0	0.996263
4304	0	0.888889
4305	0	1
4306	0	1
4307	0	1
4308	0	0.590909
4309	0	0.469697
4310	0	1
4311	0	1
4312	0	1
4313	0	1
4314	0	0.464286
4315	0	0.464286
4316	0	0.464286
4317	0	0.464286
4318	0	0.428571
4319	0	0.47619
4320	0	0.47619
4321	0	0.407991
4322	0	1
4323	0	0.5
4324	0	0.5
4325	0	0.459068
4326	0	0.343124
4327	0	0.548712
4328	0	0.776071
4329	0	0.805196
4330	0	0.813651
4331	0	0.862179
4332	0	0.862179
4333	0	0.900172
4334	0	0.900172
4335	0	0.900172
4336	0	0.900064
4337	0	0.900172
4338	0	0.900172
4339	0	0.887126
4340	0	0.872692
4341	0	0.845857
4342	0	0.831808
4343	0	0.844002
4344	0	0.80387
4345	0	0.777999
4346	0	0.777778
4347	0	0.777778
4348	0	0.68314
4349	0	0.68325
4350	0	0.68325
4351	0	0.6712
4352	0	0.680844
4353	0	0.69116
4354	0	0.678514
4355	0	0.664347
4356	0	0.708883
4357	0	0.709461
4358	0	0.698679
4359	0	0.746095
4360	0	0.746095
4361	0	0.757543
4362	0	0.76938
4363	0	0.781496
4364	0	0.795399
4365	0	0.846971
4366	0	0.917818
4367	0	0.917818
4368	0	0.94916
4369	0	0.94916
4370	0	0.965667
4371	0	0.949587
4372	0	0.936774
4373	0	0.748882
4374	0	0.489879
4375	0	0.573171
4376	0	0.638462
4377	0	0.764103
4378	0	0.903659
4379	0	0.908084
4380	0	0.990647
4381	0	0.988782
4382	0	0
4383	0	0
4384	0	0
4385	0	0
4386	0	0
4387	0	0
4388	0	0
4389	0	0
4390	0	0
4391	0	0
4392	0	0
4393	0	0.994393
4394	0	0.992548
4395	0	0.992534
4396	0	0.994393
4397	0	0.994393
4398	0	0.996256
4399	0	0.996256
4400	0	0.996256
4401	0	0.998126
4402	0	0.996256
4403	0	0.998127
4404	0	0.998127
4405	1	0
4406	1	0
4407	0	0.994393
4408	0	0.994393
4409	0	0.994393
4410	0	0.994393
4411	0	0.994393
4412	0	0.996256
4413	0	0.996256
4414	0	0
4415	0	0
4416	0	0
4417	0	0.99626
4418	0	0.99626
4419	0	0.99626
4420	0	0.994398
4421	0	0.99626
4422	0	0.99626
4423	0	0.996263
4424	0	0.994403
4425	0	0.994403
4426	0	0.996263
4427	0	0.998129
4428	0	1
4429	0	1
4430	0	1
4431	0	1
4432	0	1
4433	0	1
4434	0	1
4435	0	0.333333
4436	0	0.333333
4437	1	0
4438	1	0
4439	1	0
4440	1	0
4441	1	0
4442	1	0
4443	0	0.166667
4444	0	0.166667
4445	0	0.166667
4446	0	0.190476
4447	0	0.983232
4448	0	0.988803
4449	0	0.990665
4450	0	0.990665
4451	0	1
4452	0	1
4453	0	1
4454	0	1
4455	0	1
4456	0	1
4457	0	0.678362
4458	0	0.996256
4459	0	0.996256
4460	0	0.998127
4461	0	0.998126
4462	0	1
4463	0	1
4464	0	1
4465	0	1
4466	0	1
4467	0	1
4468	0	1
4469	0	1
4470	0	1
4471	0	1
4472	0	0
4473	0	0
4474	0	0
4475	0	0
4476	0	0
4477	0	0
4478	0	0
4479	0	0
4480	0	0
4481	0	0
4482	0	0
4483	0	0
4484	0	0
4485	0	0
4486	0	0
4487	0	0
4488	0	0
4489	0	0
4490	0	0
4491	0	0
4492	0	0
4493	0	0
4494	0	0
4495	0	0
4496	0	0
4497	0	0
4498	0	0
4499	0	0
4500	0	0
4501	0	0
4502	0	0
4503	0	0
4504	0	0
4505	0	0
4506	0	0
4507	0	0
4508	0	0
4509	0	0
4510	0	0
4511	0	0
4512	0	0
4513	0	0
4514	0	0
4515	0	0
4516	0	0
4517	0	0
4518	0	0
4519	0	0
4520	0	0
4521	0	0
4522	0	0
4523	0	0
4524	0	0
4525	0	0
4526	0	0
4527	0	0
4528	0	0
4529	0	0
4530	0	0
4531	0	0
4532	0	0
4533	0	0
4534	0	0
4535	0	0
4536	0	0
4537	0	0
4538	0	0
4539	0	0
4540	0	0
4541	0	0
4542	0	0
4543	0	0
4544	0	0
4545	0	0
4546	0	0
4547	0	0
4548	0	0
4549	0	0
4550	0	0
4551	0	0
4552	0	0
4553	0	0
4554	0	0
4555	0	0
4556	0	0
4557	0	0
4558	0	0
4559	0	0
4560	0	0
4561	0	0
4562	0	0.986953
4563	0	0.986953
4564	0	0
4565	0	0
4566	0	0
4567	0	0
4568	0	0
4569	0	0
4570	0	0
4571	0	0
4572	0	0
4573	0	0
4574	0	0
4575	0	0
4576	0	0
4577	0	0
4578	0	0
4579	0	0
4580	0	0
4581	0	0
4582	0	0
4583	0	0
4584	0	0
4585	0	0
4586	0	0
4587	0	0
4588	0	0
4589	0	0
4590	0	0
4591	0	0
4592	0	0
4593	0	0
4594	0	0
4595	0	0
4596	0	0
4597	0	0
4598	0	0
4599	0	0
4600	0	0
4601	0	0
4602	0	0
4603	0	0
4604	0	0
4605	0	0
4606	0	0
4607	0	0
4608	0	0
4609	0	0
4610	0	0
4611	0	0
4612	0	0
4613	0	0
4614	0	0
4615	0	0
4616	0	0
4617	0	0
4618	0	0
4619	0	0
4620	0	0
4621	0	0
4622	0	0
4623	0	0
4624	0	0
4625	0	0
4626	0	0
4627	0	0
4628	0	0
4629	0	0
4630	0	0
4631	0	0
4632	0	0.990619
4633	0	0.671053
4634	0	0.1
4635	0	0
4636	0	0
4637	0	0
4638	0	0
4639	0	0
4640	0	0.733359
4641	0	0.290909
4642	0	0.364407
4643	0	0.621858
4644	0	0.663363
4645	0	0.465763
4646	0	0.151515
4647	0	0.615338
4648	0	0.98694
4649	0	0.98879
4650	0	0.98879
4651	0	0
4652	0	0
4653	0	0
4654	0	0
4655	0	0
4656	0	0
4657	0	0
4658	0	0
4659	0	0
4660	0	0
4661	0	0
4662	0	0
4663	0	0
4664	0	0
4665	0	0
4666	0	0
4667	0	0
4668	0	0
4669	0	0
4670	0	0
4671	0	0
4672	0	0
4673	0	0
4674	0	0
4675	0	0
4676	0	0
4677	0	0
4678	0	0
4679	0	0
4680	0	0
4681	0	0
4682	0	0
4683	0	0
4684	0	0
4685	0	0
4686	0	0
4687	0	0
4688	0	0
4689	0	0
4690	0	0
4691	0	0
4692	0	0
4693	0	0
4694	0	0
4695	0	0
4696	0	0
4697	0	0
4698	0	0
4699	0	0
4700	0	0
4701	0	0
4702	0	0
4703	0	0
4704	0	0
4705	0	0
4706	0	0
4707	0	0
4708	0	0
4709	0	0
4710	0	0
4711	0	0
4712	0	0
4713	0	0
4714	0	0
4715	0	0
4716	0	0
4717	0	0
4718	0	0
4719	0	0
4720	0	0
4721	0	0
4722	0	0
4723	0	0
4724	0	0
4725	0	0
4726	0	0
4727	0	0
4728	0	0
4729	0	0
4730	0	0
4731	0	0
4732	0	0
4733	0	0
4734	0	0
4735	0	0
4736	0	0
4737	0	0
4738	0	0
4739	0	0
4740	0	0
4741	0	0
4742	0	0
4743	0	0
4744	0	0
4745	0	0
4746	0	0
4747	0	0
4748	0	0
4749	0	0
4750	0	0
4751	0	0
4752	0	0
4753	0	0
4754	0	0
4755	0	0
4756	0	0
4757	0	0
4758	0	0
4759	0	0
4760	0	0
4761	0	0
4762	0	0
4763	0	0
4764	0	0
4765	0	0
4766	0	0
4767	0	0
4768	0	0
4769	0	0
4770	0	0
4771	0	0
4772	0	0.990646
4773	0	0.990646
4774	0	0.990646
4775	0	0.990646
4776	0	0.990646
4777	0	0.333333
4778	0	0.333333
4779	0	0.333333
4780	0	0.333333
4781	0	0.333333
4782	0	0.333333
4783	0	0.333333
4784	0	0.333333
4785	0	0.333333
4786	0	0
4787	0	0
4788	0	0
4789	0	0
4790	0	0
4791	0	0
4792	0	0
4793	0	0
4794	0	0
4795	0	0
4796	0	0
4797	0	0
4798	0	0
4799	0	0
4800	0	0
4801	1	0
4802	1	0
4803	1	0
4804	1	0
4805	1	0
4806	1	0
4807	1	0
4808	1	0
4809	1	0
4810	0	0
4811	0	0
4812	0	0
4813	0	0
4814	0	0
4815	0	0
4816	0	0
4817	0	0
4818	0	0
4819	0	0
4820	0	0
4821	0	0
4822	0	0
4823	0	0
4824	0	0
4825	0	0
4826	0	0
4827	0	0
4828	0	0
4829	0	0
4830	0	0
4831	0	0
4832	0	0
4833	0	0
4834	0	0
4835	0	0
4836	0	0
4837	0	0
4838	0	0
4839	0	0
4840	0	0
4841	0	0
4842	0	0
4843	0	0
4844	0	0
4845	0	0
4846	0	0
4847	0	0
4848	0	0
4849	0	0
4850	0	0
4851	0	0
4852	0	0
4853	0	0
4854	0	0
4855	0	0
4856	0	0
4857	0	0
4858	0	0
4859	0	0
4860	0	0.981318
4861	0	0
4862	0	0
4863	0	0
4864	0	0
4865	0	0
4866	0	0
4867	0	0
4868	0	0
4869	0	0
4870	0	0
4871	0	0
4872	0	0
4873	0	0
4874	0	0
4875	0	0
4876	0	0
4877	0	0
4878	0	0
4879	0	0
4880	0	0
4881	0	0
4882	0	0
4883	0	0
4884	0	0
4885	0	0
4886	0	0
4887	0	0
4888	0	0
4889	0	0
4890	0	0
4891	0	0
4892	0	0
4893	0	0
4894	0	0
4895	0	0
4896	0	0.166667
4897	0	0.166667
4898	0	0.636842
4899	0	0.557895
4900	0	0.538012
4901	0	0.538012
4902	0	0.538012
4903	0	0.538012
4904	0	0.51634
4905	0	0.492647
4906	0	0.411765
4907	0	0.383333
4908	0	0.352381
4909	0	0.282051
4910	0	0.282051
4911	0	0.282051
4912	0	0.127273
4913	0	0.127273
4914	0	0.106061
4915	0	0.106061
4916	0	0.0769231
4917	0	0.0769231
4918	0	0.0769231
4919	0	0.0769231
4920	0	0.111111
4921	0	0.0555556
4922	0	0.0952381
4923	0	0.0714286
4924	0	0.0357143
4925	0	0.0277778
4926	0	0.047619
4927	0	0.047619
4928	0	0.047619
4929	0	0.0357143
4930	0	0.0277778
4931	0	0.0277778
4932	0	0.0277778
4933	0	0.0277778
4934	0	0.0277778
4935	0	0.0363636
4936	0	0.926024
4937	0	0.914005
4938	0	0.0769231
4939	0	0.908709
4940	0	0.0357143
4941	0	0.0357143
4942	0	0.0357143
4943	0	0.0357143
4944	0	0.0357143
4945	0	0.0357143
4946	0	0.0357143
4947	0	0.0357143
4948	0	0.0277778
4949	0	0.64537
4950	0	0.512097
4951	0	0.775099
4952	0	0.782301
4953	0	0.566095
4954	0	0.349289
4955	0	0
4956	0	0
4957	0	0
4958	0	0
4959	0	0
4960	0	0
4961	0	0
4962	0	0
4963	0	0
4964	0	0
4965	1	0
4966	1	0
4967	0	0
4968	0	0
4969	0	0
4970	0	0
4971	0	0
4972	0	0
4973	0	0
4974	0	0
4975	0	0
4976	0	0
4977	0	0
4978	0	0
4979	1	0
4980	1	0
4981	1	0
4982	1	0
4983	1	0
4984	1	0
4985	1	0
4986	1	0
4987	0	0
4988	0	0
4989	0	0
4990	0	0
4991	0	0
4992	0	0
4993	0	0
4994	0	0
4995	0	0
4996	0	0
4997	0	0
4998	0	0
4999	0	0
5000	0	0
5001	0	0
5002	0	0
5003	0	0
5004	0	0
5005	0	0
5006	0	0
5007	0	0
5008	0	0
5009	0	0
5010	0	0
5011	0	0
5012	0	0
5013	0	0
5014	0	0
5015	0	0
5016	0	0
5017	0	0
5018	0	0
5019	0	0
5020	0	0
5021	0	0
5022	0	0
5023	0	0
5024	0	0
5025	0	0
5026	0	0
5027	0	0
5028	0	0
5029	0	0
5030	0	0
5031	0	0
5032	0	0
5033	0	0
5034	0	0
5035	0	0
5036	0	0
5037	0	0
5038	0	0
5039	0	0
5040	0	0
5041	0	0
5042	0	0
5043	0	0
5044	0	0
5045	0	0
5046	0	0
5047	0	0
5048	0	0
5049	0	0
5050	0	0
5051	0	0
5052	0	0
5053	0	0
5054	1	0
5055	1	0
5056	1	0
5057	1	0
5058	1	0
5059	1	0
5060	0	0
5061	0	0
5062	0	0
5063	1	0
5064	1	0
5065	1	0
5066	1	0
5067	1	0
5068	1	0
5069	1	0
5070	1	0
5071	1	0
5072	1	0
5073	0	0
5074	0	0
5075	0	0
5076	0	0
5077	0	0
5078	0	0
5079	0	0
5080	0	0
5081	0	0
5082	0	0
5083	0	0
5084	0	0
5085	0	0
5086	0	0
5087	0	0
5088	1	0
5089	0	0
5090	0	0
5091	0	0
5092	0	0
5093	0	0
5094	0	0
5095	0	0
5096	0	0
5097	0	0
5098	0	0
5099	0	0
5100	0	0
5101	0	0
5102	0	0
5103	0	0
5104	0	0
5105	0	0
5106	0	0
5107	0	0
5108	0	0
5109	0	0
5110	0	0
5111	0	0
5112	0	0
5113	0	0
5114	0	0
5115	0	0
5116	0	0
5117	0	0
5118	0	0
5119	0	0
5120	0	0
5121	0	0
5122	0	0
5123	0	0
5124	0	0
5125	0	0
5126	0	0
5127	0	0
5128	0	0
5129	0	0
5130	0	0
5131	0	0
5132	0	0
5133	0	0
5134	0	0
5135	0	0
5136	0	0
5137	0	0
5138	0	0
5139	0	0
5140	0	0
5141	0	0
5142	0	0
5143	0	0
5144	0	0
5145	0	0
5146	0	0
5147	0	0
5148	0	0
5149	0	0
5150	0	0
5151	0	0
5152	0	0
5153	0	0
5154	0	0
5155	0	0
5156	0	0
5157	0	0
5158	0	0
5159	0	0
5160	0	0
5161	0	0
5162	0	0
5163	0	0
5164	0	0
5165	0	0
5166	0	0.95429
5167	0	0.95429
5168	0	0
5169	0	0
5170	0	0
5171	0	0
5172	0	0
5173	0	0
5174	0	0
5175	0	0
5176	0	0
5177	0	0
5178	0	0
5179	0	0
5180	0	0.74808
5181	0	0
5182	0	0
5183	0	0
5184	0	0.1
5185	0	0.1
5186	0	0.1
5187	0	0.1
5188	0	0.1
5189	0	0.1
5190	0	0.1
5191	0	0.1
5192	0	0.73623
5193	0	0.1
5194	0	0.1
5195	0	0.1
5196	0	0.1
5197	0	0.1
5198	0	0.1
5199	0	0.1
5200	0	0.1
5201	0	0.1
5202	0	0.1
5203	0	0.1
5204	0	0.1
5205	0	0.1
5206	0	0.1
5207	0	0.1
5208	0	0.0666667
5209	0	0.0666667
5210	0	0.48428
5211	0	0.166667
5212	0	0.483648
5213	0	0.638146
5214	0	0.02849
5215	0	0.0315789
5216	0	0.0441176
5217	0	0.0441176
5218	0	0.0367647
5219	0	0.0333333
5220	0	0.0190476
5221	0	0.0190476
5222	0	0.021978
5223	0	0.025641
5224	0	0.030303
5225	0	0.0363636
5226	0	0.0363636
5227	0	0.0181818
5228	0	0.0181818
5229	0	0.0222222
5230	0	0.0222222
5231	0	0.0222222
5232	0	0.0222222
5233	0	0.0222222
5234	0	0.0222222
5235	0	0.0181818
5236	0	0.0181818
5237	0	0.0181818
5238	0	0.0181818
5239	0	0.0181818
5240	0	0.0181818
5241	0	0.0222222
5242	0	0.0222222
5243	0	0.0357143
5244	0	0.0357143
5245	0	0.0357143
5246	0	0.0357143
5247	0	0.0357143
5248	0	0.0357143
5249	0	0.0357143
5250	0	0.0357143
5251	0	0.047619
5252	0	0.047619
5253	0	0.047619
5254	0	0.047619
5255	0	0.047619
5256	0	0.047619
5257	0	0.047619
5258	0	0.047619
5259	0	0
5260	0	0
5261	0	0
5262	0	0
5263	0	0
5264	0	0
5265	0	0
5266	0	0
5267	0	0
5268	0	0
5269	0	0
5270	0	0
5271	0	0
5272	0	0
5273	0	0
5274	0	0
5275	0	0
5276	0	0
5277	0	0
5278	0	0
5279	0	0
5280	0	0
5281	0	0
5282	0	0
5283	0	0
5284	0	0
5285	0	0
5286	0	0
5287	0	0
5288	0	0
5289	0	0
5290	0	0
5291	0	0
5292	0	0
5293	0	0
5294	0	0
5295	0	0
5296	0	0
5297	0	0
5298	0	0
5299	0	0
5300	0	0
5301	0	0
5302	0	0
5303	0	0
5304	0	0
5305	0	0
5306	0	0
5307	0	0
5308	0	0
5309	0	0
5310	0	0
5311	0	0
5312	0	0
5313	0	0
5314	0	0
5315	0	0
5316	0	0
5317	0	0
5318	0	0
5319	0	0
5320	0	0
5321	0	0
5322	0	0
5323	0	0
5324	0	0
5325	0	0
5326	0	0
5327	0	0
5328	0	0
5329	0	0
5330	0	0
5331	0	0
5332	0	0
5333	0	0
5334	0	0
5335	0	0
5336	0	0
5337	0	0
5338	0	0
5339	0	0
5340	0	0
5341	0	0
5342	0	0
5343	0	0
5344	0	0
5345	0	0
5346	0	0
5347	0	0
5348	0	0
5349	0	0
5350	0	0
5351	0	0
5352	0	0
5353	0	0
5354	0	0
5355	0	0
5356	0	0
5357	0	0
5358	0	0
5359	0	0
5360	0	0
5361	0	0
5362	0	0
5363	0	0
5364	0	0
5365	0	0
5366	0	0
5367	0	0
5368	0	0
5369	0	0
5370	0	0
5371	0	0
5372	0	0
5373	0	0
5374	0	0
5375	0	0
5376	0	0
5377	0	0
5378	0	0
5379	0	0
5380	0	0
5381	0	0
5382	0	0
5383	0	0
5384	0	0
5385	0	0
5386	0	0
5387	0	0
5388	0	0
5389	0	0
5390	0	0
5391	0	0
5392	0	0
5393	0	0
5394	0	0
5395	0	0
5396	0	0
5397	0	0
5398	0	0
5399	0	0
5400	0	0
5401	0	0
5402	0	0
5403	0	0
5404	0	0
5405	0	0
5406	0	0
5407	0	0
5408	0	0
5409	0	0
5410	0	0
5411	0	0
5412	0	0
5413	0	0
5414	0	0
5415	0	0
5416	0	0
5417	0	0
5418	0	0
5419	0	0
5420	0	0
5421	0	0
5422	0	0
5423	0	0
5424	0	0
5425	0	0
5426	0	0
5427	0	0
5428	0	0
5429	0	0
5430	0	0
5431	0	0
5432	0	0
5433	0	0
5434	0	0
5435	0	0
5436	0	0
5437	0	0
5438	0	0
5439	0	0
5440	0	0
5441	0	0
5442	0	0
5443	0	0
5444	0	0
5445	0	0
5446	0	0
5447	0	0
5448	0	0
5449	0	0
5450	0	0
5451	0	0
5452	0	0
5453	0	0
5454	0	0
5455	0	0
5456	0	0
5457	0	0
5458	0	0
5459	0	0
5460	0	0
5461	0	0
5462	0	0
5463	0	0
5464	0	0
5465	0	0
5466	0	0
5467	0	0
5468	0	0
5469	0	0
5470	0	0
5471	0	0
5472	0	0
5473	0	0
5474	0	0
5475	0	0
5476	0	0
5477	0	0
5478	0	0
5479	0	0
