Site	ColumnScore	SumOfPairsScore
1	0	0
2	0	0
3	0	0
4	0	0
5	0	0
6	0	0
7	0	0
8	0	0
9	0	0
10	0	0
11	0	0
12	0	0
13	0	0
14	0	0
15	0	0
16	0	0
17	0	0
18	0	0
19	0	0
20	0	0
21	0	0
22	0	0
23	0	0
24	0	0
25	0	0
26	0	0
27	0	0
28	0	0
29	0	0
30	0	0
31	0	0
32	0	0
33	0	0
34	0	0
35	0	0
36	0	0
37	0	0
38	0	0
39	0	0
40	0	0
41	0	0
42	0	0
43	0	0
44	0	0
45	0	0
46	0	0
47	0	0
48	0	0
49	0	0
50	0	0
51	0	0
52	0	0
53	0	0
54	0	0
55	0	0
56	0	0
57	0	0
58	0	0
59	0	0
60	0	0
61	0	0
62	0	0
63	0	0
64	0	0
65	0	0
66	0	0
67	0	0
68	0	0
69	0	0
70	0	0
71	0	0
72	0	0
73	0	0
74	0	0
75	0	0
76	0	0
77	0	0
78	0	0
79	0	0
80	0	0
81	0	0
82	0	0
83	0	0
84	0	0
85	0	0
86	0	0
87	0	0
88	0	0
89	0	0
90	0	0
91	0	0
92	0	0
93	0	0
94	0	0
95	0	0
96	0	0
97	0	0
98	0	0
99	0	0
100	0	0
101	0	0
102	0	0
103	0	0
104	0	0
105	0	0
106	0	0
107	0	0
108	0	0
109	0	0
110	0	0
111	0	0
112	0	0
113	0	0
114	0	0
115	0	0
116	0	0
117	0	0
118	0	0
119	0	0
120	0	0
121	0	0
122	0	0
123	0	0
124	0	0
125	0	0
126	0	0
127	0	0
128	0	0
129	0	0
130	0	0
131	0	0
132	0	0
133	0	0
134	0	0
135	0	0
136	0	0
137	0	0
138	0	0
139	0	0
140	0	0
141	0	0
142	0	0
143	0	0
144	0	0
145	0	0
146	0	0
147	0	0
148	0	0
149	0	0
150	0	0
151	0	0
152	0	0
153	0	0
154	1	0
155	1	0
156	1	0
157	1	0
158	1	0
159	1	0
160	0	0
161	0	0
162	0	0
163	0	0
164	0	0
165	0	0
166	0	0
167	0	0
168	0	0
169	0	0
170	0	0
171	0	0
172	0	0
173	0	0
174	0	0
175	0	0
176	0	0
177	0	0
178	0	0
179	0	0
180	0	0
181	0	0
182	0	0
183	0	0
184	0	0
185	0	0
186	0	0
187	0	0
188	0	0
189	0	0
190	0	0
191	0	0
192	0	0
193	0	0
194	0	0
195	0	0
196	0	0
197	0	0
198	0	0
199	0	0
200	0	0
201	0	0
202	0	0
203	0	0
204	0	0
205	0	0
206	0	0
207	0	0
208	0	0
209	0	0
210	0	0
211	0	0
212	0	0
213	0	0
214	0	0
215	0	0
216	0	0
217	0	0
218	0	0
219	0	0
220	0	0
221	0	0
222	0	0
223	0	0
224	0	0
225	0	0
226	0	0
227	0	0
228	0	0
229	0	0
230	0	0
231	0	0
232	0	0
233	0	0
234	0	0
235	0	0
236	0	0
237	0	0
238	0	0
239	0	0
240	0	0
241	0	0
242	0	0
243	0	0
244	0	0
245	0	0
246	0	0
247	0	0
248	0	0
249	0	0
250	0	0
251	0	0
252	0	0
253	0	0
254	0	0
255	0	0
256	0	0
257	0	0
258	0	0
259	0	0
260	0	0
261	0	0
262	0	0
263	0	0
264	0	0
265	0	0
266	0	0
267	0	0
268	0	0
269	0	0
270	0	0
271	0	0
272	0	0
273	0	0
274	0	0
275	0	0
276	0	0
277	0	0
278	0	0
279	0	0
280	0	0
281	0	0
282	0	0
283	0	0
284	0	0
285	0	0
286	0	0
287	0	0
288	0	0
289	0	0
290	0	0
291	0	0
292	0	0
293	0	0
294	0	0
295	0	0
296	0	0
297	0	0
298	0	0
299	0	0
300	0	0
301	0	0
302	0	0
303	0	0
304	0	0
305	0	0
306	0	0
307	0	0
308	0	0
309	0	0
310	0	0
311	0	0
312	0	0
313	0	0
314	0	0
315	0	0
316	0	0
317	0	0
318	0	0
319	0	0
320	0	0
321	0	0
322	0	0
323	0	0
324	0	0
325	0	0
326	0	0
327	0	0
328	0	0
329	0	0
330	0	0
331	0	0
332	0	0
333	0	0
334	0	0
335	0	0
336	0	0
337	0	0
338	0	0
339	0	0
340	0	0
341	0	0
342	0	0
343	0	0
344	0	0
345	0	0
346	0	0
347	0	0
348	0	0
349	0	0
350	0	0
351	0	0
352	0	0
353	0	0
354	0	0
355	0	0
356	0	0
357	0	0
358	0	0
359	0	0
360	0	0
361	0	0
362	0	0
363	0	0
364	0	0
365	0	0
366	0	0
367	0	0
368	0	0
369	0	0
370	0	0
371	0	0
372	0	0
373	0	0
374	0	0
375	0	0
376	0	0
377	0	0
378	0	0
379	0	0
380	0	0
381	0	0
382	0	0
383	0	0
384	0	0
385	0	0
386	0	0
387	0	0
388	0	0
389	0	0
390	0	0
391	0	0
392	0	0
393	0	0
394	0	0
395	0	0
396	0	0
397	0	0
398	0	0
399	0	0
400	0	0
401	0	0
402	0	0
403	0	0
404	0	0
405	0	0
406	0	0
407	0	0
408	0	0
409	0	0
410	0	0
411	0	0
412	0	0
413	0	0
414	0	0
415	0	0
416	0	0
417	0	0
418	0	0
419	0	0
420	0	0
421	0	0
422	0	0
423	0	0
424	0	0
425	0	0
426	0	0
427	0	0
428	0	0
429	0	0
430	0	0
431	0	0
432	0	0
433	0	0
434	0	0
435	0	0
436	0	0
437	0	0
438	0	0
439	0	0
440	0	0
441	0	0
442	0	0
443	0	0
444	0	0
445	0	0
446	0	0
447	0	0
448	0	0
449	0	0
450	0	0
451	0	0
452	0	0
453	0	0
454	0	0
455	0	0
456	0	0
457	0	0
458	0	0
459	0	0
460	0	0
461	0	0
462	0	0
463	0	0
464	0	0
465	0	0
466	0	0
467	0	0
468	0	0
469	0	0
470	0	0
471	0	0
472	0	0
473	0	0
474	0	0
475	0	0
476	0	0
477	0	0
478	0	0
479	0	0
480	0	0
481	0	0
482	0	0
483	0	0
484	0	0
485	0	0
486	0	0
487	0	0
488	0	0
489	0	0
490	0	0
491	0	0
492	0	0
493	0	0
494	0	0
495	0	0
496	0	0
497	0	0
498	0	0
499	0	0
500	0	0
501	0	0
502	0	0
503	0	0
504	0	0
505	0	0
506	0	0
507	0	0
508	0	0
509	0	0
510	0	0
511	0	0
512	0	0
513	0	0
514	0	0
515	0	0
516	0	0
517	0	0
518	0	0
519	0	0
520	0	0
521	0	0
522	0	0
523	0	0
524	0	0
525	0	0
526	0	0
527	0	0
528	0	0
529	0	0
530	0	0
531	0	0
532	0	0
533	0	0
534	0	0
535	0	0
536	0	0
537	0	0
538	0	0
539	0	0
540	0	0
541	0	0
542	0	0
543	0	0
544	0	0
545	0	0
546	0	0
547	0	0
548	0	0
549	0	0
550	0	0
551	0	0.1
552	0	0.1
553	0	0.1
554	0	0.636667
555	0	0.758435
556	0	0.758435
557	0	0.764103
558	0	0.769512
559	0	0.774681
560	0	0.774681
561	0	0.773519
562	0	0.773519
563	0	0.778516
564	0	0.778516
565	0	0.778516
566	0	0.778516
567	0	0.778516
568	0	0.778516
569	0	0.778516
570	0	0.792271
571	0	0.792271
572	0	0.792271
573	0	0.792271
574	0	0.792271
575	0	0.792271
576	0	0.792271
577	0	0.792271
578	0	0.792271
579	0	0.792271
580	0	0.792271
581	0	0.792271
582	0	0.792271
583	0	0.792271
584	0	0.792271
585	0	0.792271
586	0	0.792271
587	0	0.792271
588	0	0.758557
589	0	0.72695
590	0	0.72695
591	0	0.72695
592	0	0.72695
593	0	0.72695
594	0	0.0666667
595	0	0.0666667
596	0	0.618871
597	0	0.691489
598	0	0.691489
599	0	0.691489
600	0	0.691489
601	0	0.691489
602	0	0.691489
603	0	0.691489
604	0	0.691489
605	0	0.656915
606	0	0.685476
607	0	0.685476
608	0	0.569697
609	0	0.308048
610	0	0.3321
611	0	0.332367
612	0	0.370707
613	0	0.374653
614	0	0.374653
615	0	0.381206
616	0	0.381206
617	0	0.454545
618	0	0.72695
619	0	0.721554
620	0	0.692376
621	0	0.664116
622	0	0.664116
623	0	0.67102
624	0	0.664966
625	0	0.664966
626	0	0.664966
627	0	0.664966
628	0	0.693262
629	0	0.693262
630	0	0.693262
631	0	0.693262
632	0	0.693262
633	0	0.664966
634	0	0.0555556
635	0	0.0555556
636	0	0.0555556
637	0	0.0555556
638	0	0.0555556
639	0	0.0555556
640	0	0.0555556
641	0	0.0555556
642	0	0.0555556
643	0	0.0555556
644	0	0.0555556
645	0	0.0555556
646	0	0.0555556
647	0	0.0555556
648	0	0.0555556
649	0	0.0555556
650	0	0.0555556
651	0	0.0555556
652	0	0.0555556
653	0	0.0555556
654	0	0.0555556
655	0	0.0555556
656	0	0.336957
657	0	0.0641026
658	0	0.0641026
659	0	0.0641026
660	0	0.0641026
661	0	0.102564
662	0	0.102564
663	0	0.472262
664	0	0.644444
665	0	0.644444
666	0	0.644444
667	0	0.644444
668	0	0.643478
669	0	0.643478
670	0	0.643478
671	0	0.643478
672	0	0.527059
673	0	0.527059
674	0	0.527059
675	0	0.527059
676	0	0.507541
677	0	0.591312
678	0	0.591312
679	0	0.54449
680	0	0.53092
681	0	0.431942
682	0	0.431942
683	0	0.431942
684	0	0.39071
685	0	0.378107
686	0	0.378107
687	0	0.378107
688	0	0.378107
689	0	0.379164
690	0	0.379164
691	0	0.366615
692	0	0.381731
693	0	0.41369
694	0	0.400962
695	0	0.400962
696	0	0.400962
697	0	0.400962
698	0	0.367428
699	0	0.421422
700	0	0.421861
701	0	0.420983
702	0	0.398344
703	0	0.398344
704	0	0.38833
705	0	0.38833
706	0	0.377543
707	0	0.377543
708	0	0.430122
709	0	0.365297
710	0	0.365297
711	0	0.365297
712	0	0.365297
713	0	0.365297
714	0	0.369102
715	0	0.369102
716	0	0.359126
717	0	0.359126
718	0	0.359126
719	0	0.358756
720	0	0.349189
721	0	0.355789
722	0	0.346548
723	0	0.328093
724	0	0.328093
725	0	0.328093
726	0	0.328435
727	0	0.328435
728	0	0.320013
729	0	0.320013
730	0	0.230241
731	0	0.225963
732	0	0.217547
733	0	0.244386
734	0	0.23913
735	0	0.23913
736	0	0.208283
737	0	0.199208
738	0	0.202626
739	0	0.196269
740	0	0.180512
741	0	0.170844
742	0	0.167471
743	0	0.158963
744	0	0.156793
745	0	0.144334
746	0	0.146095
747	0	0.139491
748	0	0.139491
749	0	0.123018
750	0	0.121212
751	0	0.111732
752	0	0.119968
753	0	0.122624
754	0	0.117808
755	0	0.113826
756	0	0.0977011
757	0	0.0843553
758	0	0.0813288
759	0	0.0809969
760	0	0.0808653
761	0	0.0854843
762	0	0.106074
763	0	0.101273
764	0	0.0912012
765	0	0.0863711
766	0	0.0795652
767	0	0.16201
768	0	0.15744
769	0	0.161129
770	0	0.157771
771	0	0.148462
772	0	0.149964
773	0	0.12848
774	0	0.127851
775	0	0.124161
776	0	0.106907
777	0	0.0948451
778	0	0.0913283
779	0	0.091836
780	0	0.0906562
781	0	0.0878226
782	0	0.0906065
783	0	0.10929
784	0	0.102882
785	0	0.0990168
786	0	0.095227
787	0	0.0893019
788	0	0.100449
789	0	0.0763814
790	0	0.0740546
791	0	0.0729909
792	0	0.0783218
793	0	0.0166667
794	0	0.0151515
795	0	0.0181818
796	0	0.043956
797	0	0.0181818
798	0	0
799	0	0
800	0	0
801	0	0
802	0	0
803	0	0
804	0	0
805	0	0
806	0	0
807	0	0
808	0	0
809	0	0
810	0	0
811	0	0
812	0	0
813	0	0
814	0	0
815	0	0
816	0	0
817	0	0
818	0	0
819	0	0
820	0	0
821	0	0
822	0	0
823	0	0
824	0	0
825	0	0
826	0	0
827	0	0
828	0	0
829	0	0
830	0	0
831	0	0.0971814
832	0	0.108151
833	0	0.142809
834	0	0
835	0	0
836	0	0
837	0	0
838	0	0
839	0	0.166667
840	0	0.166667
841	0	0.166667
842	0	0.166667
843	0	0.166667
844	0	0.166667
845	0	0.166667
846	0	0.166667
847	0	0.166667
848	0	0.166667
849	0	0.166667
850	0	0.166667
851	0	0.166667
852	0	0.166667
853	0	0.166667
854	0	0.166667
855	0	0.166667
856	0	0.166667
857	0	0.166667
858	0	0.166667
859	0	0.166667
860	0	0.166667
861	0	0
862	0	0
863	0	0
864	0	0
865	0	0
866	0	0
867	0	0
868	0	0
869	0	0
870	0	0
871	0	0
872	0	0
873	0	0
874	0	0
875	0	0
876	0	0.166667
877	0	0.622222
878	0	0.622222
879	0	0.15608
880	0	0.160857
881	0	0.176355
882	0	0
883	0	0
884	0	0
885	0	0
886	0	0
887	0	0
888	0	0
889	0	0
890	0	0
891	0	0
892	0	0
893	0	0
894	0	0
895	0	0
896	0	0
897	0	0
898	0	0
899	0	0
900	0	0
901	0	0
902	0	0
903	0	0
904	0	0
905	0	0
906	0	0
907	0	0
908	0	0
909	0	0
910	0	0
911	0	0
912	0	0
913	0	0
914	0	0
915	0	0
916	0	0
917	0	0
918	0	0
919	0	0
920	0	0
921	0	0
922	0	0
923	0	0
924	0	0
925	0	0
926	0	0
927	0	0
928	0	0
929	0	0
930	0	0
931	0	0
932	0	0
933	0	0
934	0	0
935	0	0
936	0	0
937	0	0.1
938	0	0.1
939	0	0.1
940	0	0.1
941	0	0.0666667
942	0	0.0666667
943	0	0.228458
944	0	0.240015
945	0	0.91401
946	0	0.777143
947	0	0.777143
948	0	0.777143
949	0	0.777143
950	0	0.777143
951	0	0.746667
952	0	0.746667
953	0	0.746667
954	0	0.746667
955	0	0.746667
956	0	0.746667
957	0	0.777143
958	0	0.777143
959	0	0.777143
960	0	0.777143
961	0	0.777143
962	0	0.777143
963	0	0.777143
964	0	0.777143
965	0	0.777143
966	0	0.777143
967	0	0.91401
968	0	0.91401
969	0	0.91401
970	0	0.91401
971	0	0.91401
972	0	0.91401
973	0	0.91401
974	0	0.91401
975	0	0.91401
976	0	0.91401
977	0	0.91401
978	0	0.91401
979	0	0.91401
980	0	0.91401
981	0	0.91401
982	0	0.91401
983	0	0.91401
984	0	0.91401
985	0	0.91401
986	0	0.91401
987	0	0.91401
988	0	0.91401
989	0	0.91401
990	0	0.83285
991	0	0.83285
992	0	0.829293
993	0	0.738649
994	0	0.821705
995	0	0.817654
996	0	0.817654
997	0	0.816492
998	0	0.816492
999	0	0.816492
1000	0	0.816492
1001	0	0.773519
1002	0	0.773519
1003	0	0.773519
1004	0	0.595745
1005	0	0.426418
1006	0	0.416667
1007	0	0.0666667
1008	0	0.367347
1009	0	0.366497
1010	0	0.407801
1011	0	0.407801
1012	0	0.407801
1013	0	0.416667
1014	0	0.526024
1015	0	0.526024
1016	0	0.551684
1017	0	0.551684
1018	0	0.56871
1019	0	0.56871
1020	0	0.520773
1021	0	0.352688
1022	0	0.352688
1023	0	0.344697
1024	0	0.344697
1025	0	0.344697
1026	0	0.314394
1027	0	0.513333
1028	0	0.513333
1029	0	0.513333
1030	0	0.473846
1031	0	0.473846
1032	0	0.473846
1033	0	0.473846
1034	0	0.529231
1035	0	0.478261
1036	0	0.438406
1037	0	0.0666667
1038	0	0.0666667
1039	0	0.0666667
1040	0	0.0666667
1041	0	0.0666667
1042	0	0.0666667
1043	0	0.047619
1044	0	0
1045	0	0
1046	0	0
1047	0	0
1048	0	0
1049	0	0
1050	0	0
1051	0	0
1052	0	0
1053	0	0
1054	0	0.1
1055	0	0.1
1056	0	0.1
1057	0	0.1
1058	0	0.1
1059	0	0.1
1060	0	0.1
1061	0	0.1
1062	0	0
1063	0	0
1064	0	0
1065	0	0
1066	0	0
1067	0	0
1068	0	0
1069	0	0.166667
1070	0	0
1071	0	0
1072	0	0
1073	0	0
1074	0	0
1075	0	0
1076	0	0
1077	0	0
1078	0	0
1079	0	0
1080	0	0
1081	0	0
1082	0	0
1083	0	0
1084	0	0
1085	0	0
1086	0	0
1087	0	0
1088	0	0
1089	0	0.247863
1090	0	0.304348
1091	0	0.304348
1092	0	0.304348
1093	0	0.284211
1094	0	0.284211
1095	0	0.284211
1096	0	0.284211
1097	0	0.284211
1098	0	0.284211
1099	0	0.284211
1100	0	0.284211
1101	0	0.257143
1102	0	0.3
1103	0	0.3
1104	0	0.3
1105	0	0.3
1106	0	0.3
1107	0	0.3
1108	0	0.305263
1109	0	0.305263
1110	0	0.305263
1111	0	0.27619
1112	0	0.233333
1113	0	0.233333
1114	0	0.233333
1115	0	0.233333
1116	0	0.233333
1117	0	0.255411
1118	0	0.341991
1119	0	0.341991
1120	0	0.166667
1121	0	0.166667
1122	0	0.166667
1123	0	0.166667
1124	0	0.166667
1125	0	0.166667
1126	0	0.166667
1127	0	0.166667
1128	0	0.166667
1129	0	0.166667
1130	0	0.1
1131	0	0.1
1132	0	0.1
1133	0	0.1
1134	0	0
1135	0	0
1136	0	0.0277778
1137	0	0.0277778
1138	0	0.0277778
1139	0	0.0277778
1140	0	0.0277778
1141	0	0.0277778
1142	0	0.0277778
1143	0	0.0277778
1144	0	0.0277778
1145	0	0.0277778
1146	0	0.0666667
1147	0	0.0666667
1148	0	0.0666667
1149	0	0.0666667
1150	0	0.0666667
1151	0	0.0666667
1152	0	0.0666667
1153	0	0.0666667
1154	0	0.0666667
1155	0	0.0666667
1156	0	0.0666667
1157	0	0.0666667
1158	0	0.0666667
1159	0	0.0666667
1160	0	0.0666667
1161	0	0.0666667
1162	0	0.0444444
1163	0	0.0727273
1164	0	0.0727273
1165	0	0.10989
1166	0	0.115385
1167	0	0.115385
1168	0	0.115385
1169	0	0.115385
1170	0	0.0989011
1171	0	0.0989011
1172	0	0.0989011
1173	0	0.10989
1174	0	0.104762
1175	0	0.0952381
1176	0	0.0952381
1177	0	0.0952381
1178	0	0.0952381
1179	0	0.0952381
1180	0	0.0666667
1181	0	0.0833333
1182	0	0.0833333
1183	0	0.0833333
1184	0	0.0653595
1185	0	0.0653595
1186	0	0.0718954
1187	0	0.0718954
1188	0	0.0718954
1189	0	0.0915033
1190	0	0.0915033
1191	0	0.0915033
1192	0	0.104575
1193	0	0.117647
1194	0	0.110294
1195	0	0.110294
1196	0	0.110294
1197	0	0.110294
1198	0	0.0980392
1199	0	0.369318
1200	0	0.375
1201	0	0.412879
1202	0	0.412879
1203	0	0.412879
1204	0	0.412879
1205	0	0.526984
1206	0	0.522222
1207	0	0.484127
1208	0	0.454955
1209	0	0.456456
1210	0	0.492308
1211	0	0.491026
1212	0	0.522222
1213	0	0.504979
1214	0	0.387976
1215	0	0.290723
1216	0	0.290723
1217	0	0.0666667
1218	0	0.0666667
1219	0	0.0666667
1220	0	0.0666667
1221	0	0.0666667
1222	0	0.0666667
1223	0	0.0666667
1224	0	0.506879
1225	0	0
1226	0	0
1227	0	0
1228	0	0
1229	0	0
1230	0	0
1231	0	0
1232	0	0
1233	0	0
1234	0	0
1235	0	0
1236	0	0
1237	0	0
1238	0	0.458333
1239	0	0.404412
1240	0	0.0666667
1241	0	0.0666667
1242	0	0.0666667
1243	0	0.0666667
1244	0	0.0357143
1245	0	0.0357143
1246	0	0.0444444
1247	0	0.0277778
1248	0	0.0277778
1249	0	0.047619
1250	0	0.047619
1251	0	0.0555556
1252	0	0.0384615
1253	0	0.194978
1254	0	0.202762
1255	0	0.203599
1256	0	0.00952381
1257	0	0.00952381
1258	0	0.00952381
1259	0	0.00952381
1260	0	0.010989
1261	0	0.0128205
1262	0	0.0128205
1263	0	0.0128205
1264	0	0.0128205
1265	0	0.0128205
1266	0	0.0128205
1267	0	0.0128205
1268	0	0.010989
1269	0	0.010989
1270	0	0.010989
1271	0	0.010989
1272	0	0.010989
1273	0	0.010989
1274	0	0.010989
1275	0	0.010989
1276	0	0.021978
1277	0	0.0367647
1278	0	0.0261438
1279	0	0.052381
1280	0	0.0434783
1281	0	0.0473118
1282	0	0.530722
1283	0	0.510621
1284	0	0.56423
1285	0	0.612471
1286	0	0.0193548
1287	0	0.0137931
1288	0	0.0172414
1289	0	0.0172414
1290	0	0.0172414
1291	0	0.0206897
1292	0	0.0184615
1293	0	0.0215385
1294	0	0.0276923
1295	0	0.0266667
1296	0	0.0215385
1297	0	0.0144928
1298	0	0.0144928
1299	0	0.0266667
1300	0	0.03
1301	0	0.04
1302	0	0.03
1303	0	0.0789779
1304	0	0.0777778
1305	0	0.34153
1306	0	0.344029
1307	0	0.158308
1308	0	0.179775
1309	0	0.154287
1310	0	0.214235
1311	0	0.228646
1312	0	0.21926
1313	0	0.356089
1314	0	0.356235
1315	0	0.600113
1316	0	0.60214
1317	0	0.605704
1318	0	0.606442
1319	0	0.626038
1320	0	0
1321	0	0
1322	0	0
1323	0	0
1324	0	0
1325	0	0
1326	0	0
1327	0	0
1328	0	0
1329	0	0
1330	0	0
1331	0	0
1332	0	0
1333	0	0
1334	0	0
1335	0	0
1336	0	0
1337	0	0
1338	0	0
1339	0	0
1340	0	0
1341	0	0
1342	0	0
1343	0	0
1344	0	0
1345	0	0
1346	0	0
1347	0	0
1348	0	0
1349	0	0
1350	0	0
1351	0	0
1352	0	0
1353	0	0
1354	0	0
1355	0	0
1356	0	0
1357	0	0
1358	0	0
1359	0	0
1360	0	0
1361	0	0
1362	0	0
1363	0	0
1364	0	0
1365	0	0
1366	0	0
1367	0	0
1368	0	0
1369	0	0
1370	0	0
1371	0	0
1372	0	0
1373	0	0
1374	0	0
1375	0	0
1376	0	0
1377	0	0
1378	0	0
1379	0	0
1380	0	0
1381	0	0
1382	0	0
1383	0	0
1384	0	0
1385	0	0
1386	0	0
1387	0	0
1388	0	0
1389	0	0
1390	0	0
1391	0	0
1392	0	0
1393	0	0
1394	0	0
1395	0	0
1396	0	0
1397	0	0
1398	0	0
1399	0	0
1400	0	0
1401	0	0
1402	0	0
1403	0	0
1404	0	0
1405	0	0
1406	0	0
1407	0	0
1408	0	0
1409	0	0
1410	0	0
1411	0	0
1412	0	0
1413	0	0
1414	0	0
1415	0	0
1416	0	0.1
1417	0	0.1
1418	0	0.1
1419	0	0.1
1420	0	0.1
1421	0	0
1422	0	0
1423	0	0
1424	0	0
1425	0	0
1426	0	0
1427	0	0
1428	0	0
1429	0	0
1430	0	0
1431	0	0
1432	0	0
1433	0	0
1434	0	0
1435	0	0.0666667
1436	0	0.0666667
1437	0	0.133333
1438	0	0.0666667
1439	0	0.0666667
1440	0	0.2
1441	0	0.4
1442	0	0.4
1443	0	0.75
1444	0	0.75
1445	0	0.75
1446	0	0.777778
1447	0	0.654545
1448	0	0.654545
1449	0	0.823864
1450	0	0.938942
1451	0	0.97619
1452	0	0.959802
1453	0	0.892031
1454	0	0.893069
1455	0	0.898608
1456	0	0.898855
1457	0	0.905
1458	0	0.982264
1459	0	0.982264
1460	0	0.1
1461	0	0.166667
1462	0	0.333333
1463	0	0.993183
1464	0	0.991489
1465	0	0.989792
1466	0	0.989792
1467	0	0.989792
1468	0	0.989792
1469	0	0.991482
1470	0	0.989776
1471	0	0.784314
1472	0	0.636842
1473	0	0.956336
1474	0	0.5
1475	0	0.5
1476	0	0.285714
1477	0	0.362319
1478	0	0.5
1479	0	0.5
1480	0	0.5
1481	0	0.5
1482	0	0.5
1483	0	0.5
1484	0	0.5
1485	0	0.5
1486	0	0.5
1487	0	0.166667
1488	0	0.300725
1489	0	0.912276
1490	0	0.363636
1491	0	0.359684
1492	0	0.266667
1493	0	0.176471
1494	0	0.166154
1495	0	0.878443
1496	0	0.270602
1497	0	0.246824
1498	0	0.814017
1499	0	0.404859
1500	0	0.493274
1501	0	0.119048
1502	0	0.0665025
1503	0	0.0687831
1504	0	0.0687831
1505	0	0.0725806
1506	0	0.428659
1507	0	0.420538
1508	0	0.383951
1509	0	0.206343
1510	0	0.276185
1511	0	0.273915
1512	0	0.276196
1513	0	0.24816
1514	0	0.167533
1515	0	0.167012
1516	0	0.241107
1517	0	0.233766
1518	0	0.233766
1519	0	0.431373
1520	0	0.75
1521	0	0.666667
1522	0	0.666667
1523	0	0.666667
1524	0	0.666667
1525	0	0.47619
1526	0	0.357143
1527	0	0.47619
1528	0	0.47619
1529	0	0.52381
1530	0	0.52381
1531	0	1
1532	0	0.201687
1533	0	0.216899
1534	0	0.333333
1535	0	0.744902
1536	0	0
1537	0	0
1538	0	0
1539	0	0
1540	0	0
1541	0	0
1542	0	0.672727
1543	0	0.672727
1544	0	1
1545	0	1
1546	0	0.603266
1547	0	0.611819
1548	0	1
1549	0	1
1550	0	1
1551	0	0.275
1552	0	0.275
1553	0	0.266667
1554	0	0.252747
1555	0	0.228571
1556	0	0.228571
1557	0	0.263736
1558	0	1
1559	0	1
1560	0	0.615385
1561	0	0.615385
1562	0	1
1563	0	1
1564	0	1
1565	0	1
1566	0	1
1567	0	1
1568	0	1
1569	0	1
1570	0	1
1571	0	1
1572	0	0.472527
1573	0	0.307692
1574	0	0.307692
1575	0	0.307692
1576	0	0.307692
1577	0	0.307692
1578	0	0.378788
1579	0	0
1580	0	0
1581	0	0
1582	0	0
1583	0	0
1584	0	0
1585	0	0.454545
1586	0	0.378788
1587	0	0.378788
1588	0	0.378788
1589	0	0.217949
1590	0	0.253763
1591	0	0.25
1592	0	0.267974
1593	0	0.2
1594	0	0.16092
1595	0	0.242424
1596	0	0.498747
1597	0	0.437295
1598	0	0.502041
1599	0	0.608147
1600	0	0.359149
1601	0	0.123755
1602	0	0.1266
1603	0	0.190691
1604	0	0.235736
1605	0	0.415916
1606	0	0.554054
1607	0	0.608894
1608	0	0.953805
1609	0	0.21978
1610	0	0.560606
1611	0	1
1612	0	0.991489
1613	0	0.993189
1614	0	0.993189
1615	0	0.993189
1616	0	0.993189
1617	0	0.994885
1618	0	0.994885
1619	0	0.994885
1620	0	0.994885
1621	0	0.993189
1622	0	0.994885
1623	0	0.993189
1624	0	0.994889
1625	0	0.994894
1626	0	0.994889
1627	0	0.994889
1628	0	0.991497
1629	0	0.993189
1630	0	0.993189
1631	0	0.993189
1632	0	0.993189
1633	0	0.991497
1634	0	0.991489
1635	0	1
1636	0	1
1637	0	1
1638	0	0.52381
1639	0	0.52381
1640	0	0.52381
1641	0	0.979305
1642	0	0.977455
1643	0	0.977455
1644	0	1
1645	0	1
1646	0	1
1647	0	1
1648	0	1
1649	0	0.666667
1650	0	0.666667
1651	0	0.666667
1652	0	0.666667
1653	0	0.789904
1654	0	0.789741
1655	0	0.692638
1656	0	0.402988
1657	0	0.437091
1658	0	0.429293
1659	0	0.434607
1660	0	0.333333
1661	0	0
1662	0	0
1663	0	0
1664	0	0
1665	0	0
1666	0	0
1667	0	0
1668	0	0.45749
1669	0	0.480797
1670	0	0.504505
1671	0	0.299595
1672	0	0.344239
1673	0	0.344239
1674	0	0.344239
1675	0	0.405827
1676	0	1
1677	0	1
1678	0	1
1679	0	1
1680	0	0.533333
1681	0	1
1682	0	0.787393
1683	0	0.39
1684	0	0.559042
1685	0	0
1686	0	0
1687	0	0
1688	0	0
1689	0	0.452245
1690	0	0.457143
1691	0	0.457143
1692	0	0.297228
1693	0	0.107143
1694	0	0.107143
1695	0	0.160368
1696	0	0.160368
1697	0	0.288027
1698	0	0.285714
1699	0	0.285714
1700	0	0.4
1701	0	0.0970874
1702	0	0.0847647
1703	0	0.280121
1704	0	0.173382
1705	0	0.169852
1706	0	0.170091
1707	0	0.168419
1708	0	0.304123
1709	0	0
1710	0	0
1711	0	0
1712	0	0
1713	0	0
1714	0	0
1715	0	0
1716	0	0
1717	0	0
1718	0	0
1719	0	0
1720	0	0
1721	0	0.248366
1722	0	0.479947
1723	0	0
1724	0	0
1725	0	0
1726	0	0
1727	0	0
1728	0	0
1729	0	0.745986
1730	0	0.727654
1731	0	0.506067
1732	0	0.434609
1733	0	0.288976
1734	0	0.307183
1735	0	0.0659341
1736	0	0.0641026
1737	0	0.0277778
1738	0	0.0277778
1739	0	0.449653
1740	0	0.523669
1741	0	0.516716
1742	0	0.423137
1743	0	0.216661
1744	0	0.904762
1745	0	1
1746	0	1
1747	0	1
1748	0	1
1749	0	1
1750	0	1
1751	0	1
1752	0	1
1753	0	0.9
1754	0	1
1755	0	0.9
1756	0	0.9
1757	0	0.9
1758	0	0.9
1759	0	0.9
1760	0	0.9
1761	0	0.9
1762	0	0
1763	0	0
1764	0	0
1765	0	0
1766	0	1
1767	0	1
1768	0	1
1769	0	1
1770	0	1
1771	0	1
1772	0	1
1773	0	1
1774	0	0.904762
1775	0	1
1776	0	1
1777	0	1
1778	0	1
1779	0	1
1780	0	1
1781	0	1
1782	0	0.0922282
1783	0	0
1784	0	0
1785	0	0
1786	0	0
1787	0	0
1788	0	0
1789	0	0.0829837
1790	0	0.0818634
1791	0	0.0917131
1792	0	0.0925926
1793	0	0.0925926
1794	0	0.0795699
1795	0	0.0810087
1796	0	0.0866011
1797	0	0.083091
1798	0	0.0738916
1799	0	0.0738916
1800	0	0.0738916
1801	0	0.0615764
1802	0	0.046798
1803	0	0.0482759
1804	0	0.0323774
1805	0	0.0894374
1806	0	0
1807	0	0
1808	0	0
1809	0	0
1810	0	0
1811	0	0
1812	0	0
1813	0	0
1814	0	0
1815	0	0
1816	0	0
1817	0	0.132386
1818	0	0
1819	0	0
1820	0	0
1821	0	0.121212
1822	0	0.119855
1823	0	0.0954319
1824	0	0.0895522
1825	0	0.0891
1826	0	0.129543
1827	0	0.128993
1828	0	0.106388
1829	0	0.35
1830	0	0.41502
1831	0	0.41502
1832	0	0.519481
1833	0	0.519481
1834	0	0.571429
1835	0	0.52381
1836	0	0.52381
1837	0	0.418972
1838	0	0.31207
1839	0	0.163301
1840	0	0.110882
1841	0	0.238335
1842	0	0.239088
1843	0	0.183862
1844	0	0.22255
1845	0	0.215364
1846	0	0.217123
1847	0	0.160971
1848	0	0.159823
1849	0	0.162208
1850	0	0.13808
1851	0	0.134895
1852	0	0.155582
1853	0	0.100703
1854	0	0.0860215
1855	0	0.0839734
1856	0	0.0830844
1857	0	0.112636
1858	0	0.0958047
1859	0	0.103253
1860	0	0.0588235
1861	0	0.0549451
1862	0	0.0409357
1863	0	0
1864	0	0.166667
1865	0	0.166667
1866	0	0.166667
1867	0	0.166667
1868	0	0
1869	0	0
1870	0	0
1871	0	0
1872	0	0
1873	0	0
1874	0	0
1875	0	0
1876	0	0
1877	0	0
1878	0	0
1879	0	0
1880	0	0
1881	0	0
1882	0	0
1883	0	0
1884	0	0
1885	0	0
1886	0	0
1887	0	0.1
1888	0	0.0666667
1889	0	0.073287
1890	0	0.11222
1891	0	0.0932484
1892	0	0
1893	0	0
1894	0	0
1895	0	0.166667
1896	0	0
1897	0	0
1898	0	0
1899	0	0
1900	0	0
1901	0	0
1902	0	0
1903	0	0
1904	0	0
1905	0	0
1906	0	0
1907	0	0.0526826
1908	0	0
1909	0	0
1910	0	0
1911	0	0
1912	0	0
1913	0	0
1914	0	0
1915	0	0
1916	0	0
1917	0	0
1918	0	0.0423836
1919	0	0.0436448
1920	0	0.0428963
1921	0	0.0607649
1922	0	0.0578528
1923	0	0.0312256
1924	0	0.0299045
1925	0	0.0270222
1926	0	0.0539102
1927	0	0.0527933
1928	0	0.0486071
1929	0	0.583333
1930	0	0.068177
1931	0	0.0688251
1932	0	0.0635426
1933	0	0.054503
1934	0	0.0718725
1935	0	0.0711832
1936	0	0.1
1937	0	0
1938	0	0
1939	0	0
1940	0	0
1941	0	0
1942	0	0
1943	0	0
1944	0	0
1945	0	0
1946	0	0
1947	0	0.3
1948	0	0.3
1949	0	0.3
1950	0	0.3
1951	0	0
1952	0	0
1953	0	0
1954	0	0
1955	0	0
1956	0	0
1957	0	0
1958	0	0
1959	0	0
1960	0	0
1961	0	0
1962	0	0
1963	0	0
1964	0	0
1965	0	0.0401003
1966	0	0.0442671
1967	0	0.0541311
1968	0	0.0689655
1969	0	0.0689655
1970	0	0.0689655
1971	0	0.0662879
1972	0	0.0692641
1973	0	0.0512821
1974	0	0.0512821
1975	0	0.021978
1976	0	0.0649351
1977	0	0.0649351
1978	0	0.0714286
1979	0	0.231102
1980	0	0.0937252
1981	0	0.0878895
1982	0	0.085081
1983	0	0.0859578
1984	0	0.0903753
1985	0	0.05797
1986	0	0
1987	0	0
1988	0	0
1989	0	0
1990	0	0
1991	0	0
1992	0	0
1993	0	0
1994	0	0
1995	0	0
1996	0	0
1997	0	0
1998	0	0
1999	0	0
2000	0	0
2001	0	0
2002	0	0
2003	0	0
2004	0	0.46137
2005	0	0
2006	0	0
2007	0	0
2008	0	0
2009	0	0
2010	0	0
2011	0	0
2012	0	0
2013	0	0
2014	0	0
2015	0	0
2016	0	0
2017	0	0
2018	0	0
2019	0	0
2020	0	0
2021	0	0
2022	0	0
2023	0	1
2024	0	1
2025	0	1
2026	0	1
2027	0	0.166667
2028	0	0.166667
2029	0	0.166667
2030	0	0.0351108
2031	0	0.0355802
2032	0	0.416667
2033	0	0.416667
2034	0	0.416667
2035	0	0.416667
2036	0	0.333333
2037	0	0.272727
2038	0	0.272727
2039	0	0.318182
2040	0	0.269231
2041	0	0.0293854
2042	0	0.0279632
2043	0	0.0206198
2044	0	0.192308
2045	0	0.204762
2046	0	0.204762
2047	0	0.204762
2048	0	0.204762
2049	0	0.0205329
2050	0	0.0203796
2051	0	0.021234
2052	0	0.0211862
2053	0	0.0226828
2054	0	0.0384456
2055	0	0.0366891
2056	0	0.213235
2057	0	0.241667
2058	0	0.241667
2059	0	0.241667
2060	0	0.241667
2061	0	0.233333
2062	0	0.233333
2063	0	0.233333
2064	0	0.233333
2065	0	0.233333
2066	0	0.233333
2067	0	0.0178803
2068	0	0.0183798
2069	0	0.0196193
2070	0	0.0217846
2071	0	0.0336383
2072	0	0.0343527
2073	0	0.0328215
2074	0	0.0358775
2075	0	0
2076	0	0
2077	0	0
2078	0	0
2079	0	0
2080	0	0
2081	0	0
2082	0	0
2083	0	0
2084	0	0
2085	0	0
2086	0	0
2087	0	0
2088	0	0
2089	0	0.0266972
2090	0	0.0211147
2091	0	0.0188053
2092	0	0.0334796
2093	0	0.0385912
2094	0	0.0381248
2095	0	0.03508
2096	0	0.0366076
2097	0	0.0323443
2098	0	0.0382911
2099	0	0.0354103
2100	0	0.0317011
2101	0	0.0298001
2102	0	0.0497104
2103	0	0.0459298
2104	0	0.113749
2105	0	0.113889
2106	0	0.111652
2107	0	0.127478
2108	0	0.123604
2109	0	0.118919
2110	0	0.226252
2111	0	0.206429
2112	0	0.0840816
2113	0	0.0808163
2114	0	0.115516
2115	0	0.084898
2116	0	0.0933602
2117	0	0.0907668
2118	0	0.0692542
2119	0	0.0625694
2120	0	0.025
2121	0	0.0333333
2122	0	0.0608339
2123	0	0.080099
2124	0	0.0105263
2125	0	0
2126	0	0
2127	0	0.00584795
2128	0	0.0548456
2129	0	0.0128827
2130	0	0.0153099
2131	0	0.0318463
2132	0	0
2133	0	0
2134	0	0
2135	0	0.0203901
2136	0	0.0177305
2137	0	0.0404036
2138	0	0
2139	0	0
2140	0	0
2141	0	0
2142	0	0
2143	0	0
2144	0	0
2145	0	0
2146	0	0
2147	0	0
2148	0	0
2149	0	0.0344828
2150	0	0.037594
2151	0	0.0425732
2152	0	0.0487805
2153	0	0.0557491
2154	0	0.108696
2155	0	0.112319
2156	0	0.118577
2157	0	0.0575858
2158	0	0.0634249
2159	0	0.0655391
2160	0	0.0306816
2161	0	0.0349728
2162	0	0.0483651
2163	0	0
2164	0	0
2165	0	0
2166	0	0
2167	0	0
2168	0	0
2169	0	0
2170	0	0
2171	0	0
2172	0	0
2173	0	0
2174	0	0.0456879
2175	0	0.048274
2176	0	0.333333
2177	0	0
2178	0	0
2179	0	0
2180	0	0
2181	0	0
2182	0	0
2183	0	0
2184	0	0
2185	0	0
2186	0	0
2187	0	0.488889
2188	0	0.488889
2189	0	0.8
2190	0	0.083528
2191	0	0.0795311
2192	0	0.1
2193	0	0.166667
2194	0	0.166667
2195	0	0.166667
2196	0	0.166667
2197	0	0.166667
2198	0	0.166667
2199	0	0.166667
2200	0	0.5
2201	0	0.5
2202	0	0.5
2203	0	0.5
2204	0	0.5
2205	0	0.5
2206	0	0.5
2207	0	0.5
2208	0	0.142857
2209	0	0.142857
2210	0	0.2
2211	0	0.2
2212	0	0.2
2213	0	0.2
2214	0	0.2
2215	0	0.2
2216	0	0.2
2217	0	0.2
2218	0	0.3
2219	0	0.3
2220	0	0.3
2221	0	0.3
2222	0	0.2
2223	0	0.107143
2224	0	0.107143
2225	0	0.107143
2226	0	0.107143
2227	0	0.107143
2228	0	0.05175
2229	0	0.0366424
2230	0	0.0394086
2231	0	0.0406872
2232	0	0.0452004
2233	0	0.0520233
2234	0	0.0519233
2235	0	0.0645213
2236	0	0.0613569
2237	0	0.0614849
2238	0	0.0741407
2239	0	0.0357143
2240	0	0
2241	0	0
2242	0	0
2243	0	0
2244	0	0.0759305
2245	0	0.0765096
2246	0	0.0750929
2247	0	0.0854882
2248	0	0
2249	0	0
2250	0	0
2251	0	0
2252	0	0
2253	0	0
2254	0	0
2255	0	0
2256	0	0
2257	0	0
2258	0	0
2259	0	0
2260	0	0
2261	0	0
2262	0	0
2263	0	0
2264	0	0
2265	0	0.105325
2266	0	0.110099
2267	0	0.0496157
2268	0	0.045068
2269	0	0.0285714
2270	0	0.0384615
2271	0	0.0555556
2272	0	0.0714286
2273	0	0.107143
2274	0	0.1
2275	0	0.047619
2276	0	0.0666667
2277	0	0.166667
2278	0	0.0755911
2279	0	0.0699099
2280	0	0.097193
2281	0	0.0758738
2282	0	0.0699367
2283	0	0.211709
2284	0	0.240506
2285	0	0.236611
2286	0	0.302215
2287	0	0.222222
2288	0	0
2289	0	0
2290	0	0
2291	0	0.0357143
2292	0	0.0555556
2293	0	0.114286
2294	0	0.032967
2295	0	0.2
2296	0	0.1
2297	0	0.0666667
2298	0	0.1
2299	0	0.1
2300	0	0.0761905
2301	0	0.0784314
2302	0	0.0808824
2303	0	0.157895
2304	0	0.147619
2305	0	0.15873
2306	0	0.160677
2307	0	0.19583
2308	0	0.152477
2309	0	0.258547
2310	0	0.268535
2311	0	0.265722
2312	0	0.253333
2313	0	0.262985
2314	0	0.24173
2315	0	0.243747
2316	0	0.155294
2317	0	0.156078
2318	0	0.170732
2319	0	0.268617
2320	0	0.177778
2321	0	0.177778
2322	0	0.355556
2323	0	0.355556
2324	0	0.355556
2325	0	0.355556
2326	0	0.355556
2327	0	0.355556
2328	0	0.288027
2329	0	0.288574
2330	0	0.3
2331	0	0
2332	0	0
2333	0	0
2334	0	0
2335	0	0
2336	0	0
2337	0	0.214186
2338	0	0.254684
2339	0	0.46709
2340	0	0.385037
2341	0	0.610919
2342	0	0.194203
2343	0	0.221484
2344	0	0.196923
2345	0	0.251082
2346	0	0.914366
2347	0	0.338235
2348	0	0.338235
2349	0	0.563636
2350	0	1
2351	0	1
2352	0	1
2353	0	0.97309
2354	0	0.976437
2355	0	0.436364
2356	0	0.436364
2357	0	0.5
2358	0	0.5
2359	0	0.5
2360	0	0
2361	0	0
2362	0	0.996612
2363	0	0.996612
2364	0	0.996612
2365	0	0.998304
2366	0	0.998304
2367	0	0.998304
2368	0	0.998304
2369	0	0.998304
2370	0	0.998304
2371	0	0.998304
2372	0	0.998304
2373	0	0.998304
2374	0	0.998304
2375	0	0.998304
2376	0	0.998304
2377	0	0.998304
2378	0	0.998304
2379	0	0.998304
2380	0	0.996612
2381	0	0.996612
2382	0	0.6
2383	0	0.98649
2384	0	0.993229
2385	0	1
2386	0	1
2387	1	1
2388	1	1
2389	0	1
2390	0	1
2391	0	0
2392	0	0
2393	0	0
2394	0	0
2395	0	0
2396	0	0
2397	0	0
2398	0	0
2399	0	0
2400	0	0
2401	0	0
2402	0	1
2403	0	1
2404	0	1
2405	0	1
2406	0	1
2407	0	1
2408	0	1
2409	0	1
2410	0	1
2411	0	0.988154
2412	0	0.833
2413	0	0.996606
2414	0	0.993235
2415	0	0.994924
2416	0	0.994924
2417	0	0.994924
2418	0	0.994924
2419	0	0.994924
2420	0	0.996614
2421	0	0.996614
2422	0	0.996614
2423	0	0.996614
2424	0	0.996614
2425	0	0.996614
2426	0	0.996614
2427	0	0.996612
2428	0	0.996612
2429	0	0.996612
2430	0	0.996606
2431	0	0.994911
2432	0	0.996603
2433	0	0.9966
2434	0	1
2435	0	1
2436	0	1
2437	0	1
2438	0	1
2439	0	1
2440	0	1
2441	0	1
2442	0	1
2443	0	1
2444	0	1
2445	0	1
2446	0	1
2447	0	1
2448	0	1
2449	0	0.4
2450	0	0.4
2451	0	0.4
2452	0	0.4
2453	0	0.4
2454	0	0.3
2455	0	0.4
2456	0	0.4
2457	0	0.4
2458	0	0.238095
2459	0	0.178571
2460	0	0.138889
2461	0	0.138889
2462	0	0.138889
2463	0	0.111111
2464	0	0.0909091
2465	0	0.0757576
2466	0	0.0761905
2467	0	0.0761905
2468	0	0.0661765
2469	0	0.0467836
2470	0	0.0467836
2471	0	0.0467836
2472	0	0.0421053
2473	0	0.0421053
2474	0	0.0421053
2475	0	0.0380952
2476	0	0.0355731
2477	0	0.0502646
2478	0	0.0502646
2479	0	0.046798
2480	0	0.94449
2481	0	0.250871
2482	0	0.250871
2483	0	0.239203
2484	0	0.218162
2485	0	0.218816
2486	0	0.230343
2487	0	0.230343
2488	0	0.242741
2489	0	0.242741
2490	0	0.202091
2491	0	0.202091
2492	0	0.184669
2493	0	0.129568
2494	0	0.116279
2495	0	0.102537
2496	0	0.0943571
2497	0	0.085034
2498	0	0.894085
2499	0	0.737174
2500	0	0.565731
2501	0	0.696158
2502	0	0.702648
2503	0	0.697738
2504	0	0.679876
2505	0	0.634435
2506	0	0.598055
2507	0	0.549739
2508	0	0.47006
2509	0	0.431352
2510	0	0.332371
2511	0	0.245676
2512	0	0.239264
2513	0	0.234261
2514	0	0.152044
2515	0	0.388882
2516	0	0.513788
2517	0	0.513788
2518	0	0.356313
2519	0	0.351959
2520	0	0.348331
2521	0	0.345428
2522	0	0.345428
2523	0	0.345428
2524	0	0.345428
2525	0	0.345428
2526	0	0.345428
2527	0	0.344702
2528	0	0.344702
2529	0	0.344702
2530	0	0.346154
2531	0	0.346154
2532	0	0.346154
2533	0	0.346154
2534	0	0.346154
2535	0	0.343977
2536	0	0.344702
2537	0	0.343251
2538	0	0.343251
2539	0	0.342525
2540	0	0.342525
2541	0	0.342525
2542	0	0.132784
2543	0	0.134989
2544	0	0.129574
2545	0	0.127334
2546	0	0.127737
2547	0	0.120312
2548	0	0.123083
2549	0	0.130489
2550	0	0.131706
2551	0	0.131229
2552	0	0.150979
2553	0	0.154335
2554	0	0.161134
2555	0	0.168671
2556	0	0.168404
2557	0	0.17264
2558	0	0.184543
2559	0	0.216117
2560	0	0.122222
2561	0	0.130676
2562	0	0.13705
2563	0	0.143902
2564	0	0.143902
2565	0	0.157895
2566	0	0.16643
2567	0	0.18254
2568	0	0.212121
2569	0	0.210227
2570	0	0.210227
2571	0	0.22379
2572	0	0.255172
2573	0	0.255172
2574	0	0.291005
2575	0	0.291005
2576	0	0.363333
2577	0	0.363333
2578	0	0.363333
2579	0	0.394928
2580	0	0.394928
2581	0	0.394928
2582	0	0.394928
2583	0	0.394928
2584	0	0.394928
2585	0	0.394928
2586	0	0.111111
2587	0	0.111111
2588	0	0.111111
2589	0	0.142857
2590	0	0.142857
2591	0	0.142857
2592	0	0.142857
2593	0	0.190476
2594	0	0.3
2595	0	0.3
2596	0	0.3
2597	0	0.3
2598	0	0.3
2599	0	0.3
2600	0	0.3
2601	0	0.3
2602	0	0.3
2603	0	0.3
2604	0	0.3
2605	0	0.3
2606	0	0.3
2607	0	0.3
2608	0	0.3
2609	0	0.3
2610	0	0.3
2611	0	0.3
2612	0	0.3
2613	0	0.3
2614	0	0.3
2615	0	0.3
2616	0	0.3
2617	0	0.3
2618	0	0.3
2619	0	0.3
2620	0	0.3
2621	0	0.3
2622	0	0.3
2623	0	0.3
2624	0	0.3
2625	0	0.190476
2626	0	0.190476
2627	0	0.190476
2628	0	0.190476
2629	0	0.190476
2630	0	0.190476
2631	0	0.190476
2632	0	0.190476
2633	0	0.138889
2634	0	0.138889
2635	0	0.178571
2636	0	0.178571
2637	0	0.109091
2638	0	0.0909091
2639	0	0.0909091
2640	0	0.0757576
2641	0	0.0909091
2642	0	0.0909091
2643	0	0.0769231
2644	0	0.153846
2645	0	0.153846
2646	0	0.114286
2647	0	0.152381
2648	0	0.175
2649	0	0.169118
2650	0	0.150327
2651	0	0.126316
2652	0	0.37619
2653	0	0.37619
2654	0	0.316206
2655	0	0.32
2656	0	0.292308
2657	0	0.270655
2658	0	0.276353
2659	0	0.423645
2660	0	0.352823
2661	0	0.418895
2662	0	0.432432
2663	0	0.503556
2664	0	0.569512
2665	0	0.638384
2666	0	0.772245
2667	0	0.796104
2668	0	0.803993
2669	0	0.81874
2670	0	0.83376
2671	0	0.819696
2672	0	0.80753
2673	0	0.735081
2674	0	0.96748
2675	0	0.97971
2676	0	0.981394
2677	0	0.981394
2678	0	0.979727
2679	0	0.979723
2680	0	0.979723
2681	0	0.1
2682	0	0.976408
2683	0	0.976406
2684	0	0
2685	0	0
2686	0	0.333333
2687	0	0.333333
2688	0	0.333333
2689	0	0.333333
2690	0	0.166667
2691	0	0.986438
2692	0	0.986438
2693	0	0.986438
2694	0	0.986461
2695	0	0.986449
2696	0	0.4
2697	0	0.4
2698	0	0.974411
2699	0	0.736264
2700	0	0.736264
2701	0	0.930123
2702	0	0.90387
2703	0	0.760202
2704	0	0.760202
2705	0	0.742828
2706	0	0.378024
2707	0	0.81792
2708	0	0.820048
2709	0	0.764479
2710	0	0.730996
2711	0	0.33993
2712	0	0.365534
2713	0	0.371497
2714	0	0.508998
2715	0	0.234984
2716	0	0.197163
2717	0	0.125679
2718	0	0.169702
2719	0	0.134608
2720	0	0.162666
2721	0	0.132561
2722	0	0.302632
2723	0	0.112121
2724	0	0.117949
2725	0	0.591049
2726	0	0.6785
2727	0	0.786327
2728	0	0.623249
2729	0	0.56044
2730	0	1
2731	0	1
2732	0	1
2733	0	1
2734	0	1
2735	0	1
2736	0	1
2737	0	0.5
2738	0	0.813485
2739	0	0.880523
2740	0	0.866818
2741	0	0.876869
2742	0	0.475
2743	0	0.743734
2744	0	0.166667
2745	0	0.333333
2746	0	0.333333
2747	0	0.333333
2748	0	1
2749	0	1
2750	1	1
2751	1	1
2752	1	1
2753	1	1
2754	1	1
2755	1	1
2756	1	1
2757	1	1
2758	1	1
2759	1	1
2760	1	1
2761	0	0.998305
2762	1	1
2763	0	0.998307
2764	0	0.998307
2765	0	0.998307
2766	0	0.998307
2767	0	0.998307
2768	0	0.998307
2769	0	0.998305
2770	0	0.998305
2771	0	0.998305
2772	0	0.996612
2773	0	0
2774	1	0
2775	1	0
2776	1	0
2777	1	0
2778	1	0
2779	1	0
2780	1	0
2781	1	0
2782	1	0
2783	1	0
2784	0	0.993355
2785	0	0.621915
2786	0	0.98817
2787	0	0.998302
2788	1	0
2789	1	0
2790	1	0
2791	1	0
2792	1	0
2793	1	0
2794	1	0
2795	1	0
2796	1	0
2797	1	0
2798	1	0
2799	1	0
2800	1	0
2801	1	0
2802	1	0
2803	1	0
2804	0	0
2805	0	0
2806	0	0.333333
2807	0	0.996606
2808	0	0.996606
2809	0	0.996606
2810	0	0
2811	0	0
2812	0	1
2813	0	1
2814	0	1
2815	1	1
2816	1	1
2817	0	0.998301
2818	0	1
2819	0	1
2820	0	1
2821	0	1
2822	0	1
2823	0	1
2824	0	0.981467
2825	0	0.984772
2826	0	0.996584
2827	0	1
2828	0	1
2829	0	1
2830	0	1
2831	0	0.996609
2832	1	0
2833	1	0
2834	1	0
2835	1	0
2836	1	0
2837	0	0
2838	0	0
2839	0	0.998298
2840	0	0.996597
2841	0	0.996597
2842	0	0.996597
2843	0	0.996597
2844	0	0.996597
2845	0	0.996597
2846	0	0.996591
2847	0	1
2848	0	1
2849	0	0.957447
2850	0	0.956522
2851	0	0.944444
2852	0	0.888633
2853	0	0.609314
2854	0	0.724006
2855	0	0.979168
2856	0	0.99319
2857	0	0.991491
2858	0	0.99319
2859	1	0
2860	1	0
2861	0	0
2862	0	0
2863	0	0.994889
2864	0	0.994885
2865	0	0.2
2866	0	0.2
2867	0	0.333333
2868	0	0.166667
2869	0	0.333333
2870	1	0
2871	1	0
2872	1	0
2873	1	0
2874	1	0
2875	1	0
2876	1	0
2877	1	0
2878	1	0
2879	1	0
2880	0	0
2881	1	0
2882	0	0.72057
2883	0	1
2884	0	1
2885	0	1
2886	0	1
2887	0	1
2888	1	1
2889	1	1
2890	0	1
2891	1	1
2892	1	1
2893	0	1
2894	0	1
2895	0	1
2896	0	1
2897	0	1
2898	0	1
2899	0	1
2900	0	1
2901	0	1
2902	0	1
2903	0	1
2904	0	1
2905	0	1
2906	0	1
2907	0	1
2908	0	1
2909	0	1
2910	0	1
2911	1	1
2912	0	1
2913	0	1
2914	0	1
2915	0	1
2916	0	1
2917	0	1
2918	0	1
2919	0	1
2920	0	1
2921	0	1
2922	0	1
2923	0	1
2924	0	1
2925	0	1
2926	1	1
2927	1	1
2928	0	0
2929	0	0
2930	0	0
2931	0	0
2932	0	0
2933	0	0
2934	0	0
2935	0	0
2936	0	0
2937	0	0
2938	0	0
2939	0	0
2940	0	0
2941	0	0
2942	0	0.994902
2943	0	0.993206
2944	0	0.993206
2945	0	0
2946	0	0
2947	0	0.994885
2948	0	0.996586
2949	0	0.998292
2950	0	0.998292
2951	0	0.998294
2952	0	0.996591
2953	0	0.996591
2954	0	0.996591
2955	0	0.994889
2956	0	0.499887
2957	0	0.93381
2958	0	1
2959	0	0.996594
2960	0	0.998295
2961	0	0.998295
2962	0	0.998295
2963	0	0.998295
2964	0	0.998295
2965	0	0.998295
2966	0	0.998295
2967	0	0.998295
2968	0	0.998295
2969	0	0.998295
2970	0	0.953359
2971	0	0
2972	0	0
2973	0	0
2974	0	0
2975	0	0.805263
2976	0	0.728571
2977	0	0.608696
2978	0	0.608696
2979	0	0.95684
2980	0	0.939857
2981	0	0.938109
2982	0	0.926131
2983	0	0
2984	0	0
2985	0	0
2986	0	0
2987	0	0
2988	0	0
2989	0	0
2990	0	0
2991	0	0
2992	0	0.6
2993	0	0.4
2994	0	0.932412
2995	0	0.794901
2996	0	0.383562
2997	0	0.371674
2998	0	0.741312
2999	0	0.166667
3000	0	0.194444
3001	0	0.0897436
3002	0	0.353741
3003	0	0.614774
3004	0	0.568177
3005	0	0.166667
3006	0	0.190476
3007	0	0.285714
3008	0	0.285714
3009	0	0
3010	0	0.535714
3011	0	0.333333
3012	0	0.333333
3013	0	0.308824
3014	0	0.594452
3015	0	0.169312
3016	0	0.745438
3017	0	0.219512
3018	0	0.306349
3019	0	0.333722
3020	0	0.875
3021	0	0.475
3022	0	0.508636
3023	0	0.541772
3024	0	0.563166
3025	0	0.701544
3026	0	0.52043
3027	0	0.864784
3028	0	0.877966
3029	0	0.47619
3030	0	0.52381
3031	0	0.52381
3032	0	0.877516
3033	0	0.878939
3034	0	0.878872
3035	0	0.871985
3036	0	0.285714
3037	0	0.150198
3038	0	0.852441
3039	0	0.878296
3040	0	0.397436
3041	0	0.351648
3042	0	0.888736
3043	0	0.830382
3044	0	0
3045	0	0
3046	0	0
3047	0	0
3048	0	0
3049	1	0
3050	1	0
3051	0	0.933333
3052	0	0.618952
3053	0	0.750658
3054	0	0.856795
3055	0	0.285714
3056	0	0.469697
3057	0	0.461538
3058	0	0.898384
3059	0	0.925926
3060	0	0.964286
3061	0	0.993206
3062	0	0.994889
3063	0	0.993189
3064	0	0.993189
3065	0	0.333333
3066	0	0.333333
3067	0	0.996588
3068	0	0.998292
3069	0	0.996586
3070	0	0.998292
3071	0	1
3072	1	1
3073	0	0.333333
3074	0	0.333333
3075	1	0
3076	1	0
3077	1	0
3078	1	0
3079	1	0
3080	1	0
3081	1	0
3082	1	0
3083	1	0
3084	1	0
3085	1	0
3086	1	0
3087	1	0
3088	1	0
3089	1	0
3090	1	0
3091	1	0
3092	0	0
3093	0	0
3094	0	0
3095	0	0
3096	0	0.988107
3097	0	0.1
3098	0	0.3
3099	0	0
3100	1	0
3101	1	0
3102	1	0
3103	1	0
3104	1	0
3105	0	0.994902
3106	0	0.9966
3107	0	0.996606
3108	0	0.996606
3109	0	0.996606
3110	0	0.996597
3111	0	0.996597
3112	0	0
3113	0	0.9966
3114	0	0.998299
3115	0	0.998299
3116	0	0.998299
3117	0	0.9966
3118	0	0.9966
3119	0	0.9966
3120	0	0.998298
3121	0	0.998298
3122	0	1
3123	0	1
3124	0	0.998299
3125	0	0.998299
3126	0	0.998299
3127	0	0.9966
3128	0	1
3129	0	0.987814
3130	0	0.878611
3131	0	0.82032
3132	0	0.745999
3133	0	0.20586
3134	0	0.681171
3135	0	0.0989011
3136	0	0.228571
3137	0	0.44994
3138	1	0
3139	1	0
3140	0	0
3141	0	0
3142	0	0
3143	1	0
3144	1	0
3145	1	0
3146	1	0
3147	1	0
3148	1	0
3149	1	0
3150	1	0
3151	1	0
3152	1	0
3153	1	0
3154	1	0
3155	1	0
3156	1	0
3157	1	0
3158	1	0
3159	1	0
3160	1	0
3161	1	0
3162	1	0
3163	1	0
3164	1	0
3165	0	0
3166	0	0
3167	0	0
3168	0	0
3169	0	0
3170	0	0
3171	0	0
3172	0	0
3173	0	0
3174	0	0
3175	0	0.719201
3176	0	0.719554
3177	0	0.761393
3178	0	0.950275
3179	0	0.957029
3180	0	0.266667
3181	0	0.666667
3182	0	1
3183	0	0.993148
3184	0	0.998301
3185	0	0.998301
3186	0	0.996606
3187	0	0.996603
3188	0	0.996603
3189	0	0.993212
3190	0	0.993212
3191	0	0.993212
3192	0	0.993206
3193	0	0.994898
3194	0	0.994898
3195	0	0.994898
3196	0	0.991491
3197	0	0.989802
3198	0	0.991491
3199	0	0.991491
3200	0	1
3201	0	1
3202	0	0
3203	0	0
3204	0	0
3205	0	0
3206	0	0
3207	0	0
3208	0	0.979723
3209	0	0
3210	0	0.833333
3211	0	1
3212	0	1
3213	0	1
3214	0	1
3215	0	1
3216	0	1
3217	0	1
3218	0	1
3219	0	0.563636
3220	0	0.563636
3221	0	0.563636
3222	0	0.469697
3223	0	0.469697
3224	0	0.89108
3225	0	0.849865
3226	0	0.472453
3227	0	0.129129
3228	0	0.43918
3229	0	0
3230	0	0.777778
3231	0	1
3232	0	1
3233	0	1
3234	0	0.294949
3235	0	0.214141
3236	0	0.186047
3237	0	0.336934
3238	0	0.377778
3239	0	0.377778
3240	0	0.377778
3241	0	0.355556
3242	0	0.355556
3243	0	0.355556
3244	0	0.355556
3245	0	0.244444
3246	0	0.244444
3247	0	0.244444
3248	0	0.2
3249	0	0.123333
3250	0	0.170486
3251	0	0.375627
3252	0	0.20378
3253	0	0.434224
3254	0	0.484375
3255	0	0.114286
3256	0	0.12437
3257	0	0.112299
3258	0	0.116129
3259	0	0.150376
3260	0	0.146128
3261	0	0.163697
3262	0	0.151192
3263	0	0.138584
3264	0	0.13387
3265	0	0.152208
3266	0	0.185799
3267	0	0.125729
3268	0	0.121053
3269	0	0.130719
3270	0	0.0980392
3271	0	0.110294
3272	0	0.0444444
3273	0	0.137681
3274	0	0.137681
3275	0	0.137681
3276	0	0.115942
3277	0	0.123188
3278	0	0.19003
3279	0	0.0357143
3280	0	0.0357143
3281	0	0.0363636
3282	0	0.0363636
3283	0	0.0363636
3284	0	0.0909091
3285	0	0.0909091
3286	0	0.141706
3287	0	0.158945
3288	0	0.124677
3289	0	0.12542
3290	0	0.047619
3291	0	0.0549451
3292	0	0.0549451
3293	0	0.0549451
3294	0	0.0549451
3295	0	0.0549451
3296	0	0.0666667
3297	0	0.133333
3298	0	0.161905
3299	0	0.141667
3300	0	0.150553
3301	0	0.143866
3302	0	0.175248
3303	0	0.158337
3304	0	0.137063
3305	0	0
3306	0	0
3307	0	0
3308	0	0
3309	0	0
3310	0	0
3311	0	0
3312	0	0
3313	0	0
3314	0	0
3315	0	0
3316	0	0
3317	0	0
3318	0	0
3319	0	0
3320	0	0
3321	0	0
3322	0	0
3323	0	0
3324	0	0
3325	0	0
3326	0	0
3327	0	0
3328	0	0.0965517
3329	0	0.158716
3330	0	0.20354
3331	0	0.215653
3332	0	0.176315
3333	0	0.177953
3334	0	0.178558
3335	0	0.0277778
3336	0	0.0277778
3337	0	0.0277778
3338	0	0.0833333
3339	0	0.0833333
3340	0	0.0277778
3341	0	0.0277778
3342	0	0.0277778
3343	0	0
3344	0	0
3345	0	0.0222222
3346	0	0.0666667
3347	0	0.0666667
3348	0	0.20324
3349	0	0.127273
3350	0	0.155556
3351	0	0.155556
3352	0	0.161976
3353	0	0.165256
3354	0	0
3355	0	0
3356	0	0
3357	0	0
3358	0	0
3359	0	0
3360	0	0
3361	0	0
3362	0	0
3363	0	0
3364	0	0
3365	0	0
3366	0	0
3367	0	0
3368	0	0
3369	0	0
3370	0	0
3371	0	0
3372	0	0
3373	0	0
3374	0	0
3375	0	0
3376	0	0
3377	0	0
3378	0	0
3379	0	0
3380	0	0
3381	0	0
3382	0	0
3383	0	0
3384	0	0
3385	0	0
3386	0	0
3387	0	0
3388	0	0
3389	0	0
3390	0	0
3391	0	0
3392	0	0
3393	0	0
3394	0	0
3395	0	0
3396	0	0
3397	0	0
3398	0	0
3399	0	0
3400	0	0
3401	0	0
3402	0	0
3403	0	0
3404	0	0
3405	0	0
3406	0	0
3407	0	0
3408	0	0
3409	0	0
3410	0	0
3411	0	0
3412	0	0
3413	0	0
3414	0	0
3415	0	0
3416	0	0
3417	0	0
3418	0	0.239684
3419	0	0.23892
3420	0	0.113122
3421	0	0.21337
3422	0	0.251503
3423	0	0.227736
3424	0	0.091954
3425	0	0.091954
3426	0	0.0942529
3427	0	0.0935961
3428	0	0.119565
3429	0	0.13
3430	0	0.187135
3431	0	0.227941
3432	0	0.298246
3433	0	0.298246
3434	0	0.298246
3435	0	0.391304
3436	0	0.391304
3437	0	0.466667
3438	0	0.355556
3439	0	0.355556
3440	0	0.355556
3441	0	0.355556
3442	0	0.355556
3443	0	0.355556
3444	0	0.4
3445	0	0.511111
3446	0	1
3447	0	0
3448	0	0
3449	0	0
3450	0	0
3451	0	0
3452	0	0.1
3453	0	0.3
3454	0	0.607397
3455	0	0.432075
3456	0	0.486829
3457	0	0.631567
3458	0	0.60565
3459	0	0.614568
3460	0	0.627115
3461	0	0.361673
3462	0	0.738282
3463	0	0
3464	0	0
3465	0	0
3466	0	0
3467	0	0
3468	0	0
3469	0	0
3470	0	0
3471	0	0
3472	0	0
3473	0	0
3474	0	0
3475	0	0
3476	0	0
3477	0	0
3478	0	0
3479	0	0
3480	0	0
3481	0	0
3482	0	0
3483	0	0
3484	0	0.166667
3485	0	0.898566
3486	0	0.406452
3487	0	0.406452
3488	0	0.662338
3489	0	0.662338
3490	0	0.937369
3491	0	0.937463
3492	0	0.940401
3493	0	0.937741
3494	0	0.934921
3495	0	0.926806
3496	0	0.944207
3497	0	0.0555556
3498	0	0.047619
3499	0	0.1
3500	0	0.166667
3501	0	0.166667
3502	0	0.166667
3503	0	0.166667
3504	0	0.333333
3505	0	0.333333
3506	0	0.333333
3507	0	0.969166
3508	0	1
3509	0	1
3510	0	0.6
3511	0	0.535714
3512	0	1
3513	0	1
3514	0	0.998301
3515	0	0.998301
3516	0	0.998301
3517	0	0.996606
3518	0	0.994911
3519	0	0.994911
3520	0	0.994911
3521	0	0.994911
3522	0	0.996603
3523	0	0.996603
3524	0	0.996603
3525	0	0.996603
3526	0	0.996603
3527	0	0.996603
3528	0	0.996603
3529	0	0.996603
3530	0	0.9966
3531	0	0.9966
3532	0	0.9966
3533	0	0
3534	0	0.994894
3535	0	0.9932
3536	0	0.9932
3537	0	0.9932
3538	0	0.993206
3539	0	0.994902
3540	0	0.994902
3541	0	0.994902
3542	0	0.994902
3543	0	0.9966
3544	0	0.9966
3545	0	0.9966
3546	0	0.994907
3547	0	0.994907
3548	0	0.994907
3549	0	0.9966
3550	0	0.996597
3551	0	0.996597
3552	0	0.996597
3553	0	0.996597
3554	0	0.994902
3555	0	0.9966
3556	0	0.9966
3557	0	0.9966
3558	0	0.9966
3559	0	0.998299
3560	0	0.998301
3561	0	0.998301
3562	0	0.998301
3563	0	0.998296
3564	0	0.998296
3565	0	0.996591
3566	0	0.996591
3567	0	0.996591
3568	0	0.996591
3569	0	0.996591
3570	0	0.996591
3571	0	0.996588
3572	0	0.996588
3573	0	0.994889
3574	0	0.994885
3575	0	0
3576	0	0
3577	0	0
3578	0	0
3579	0	0
3580	0	0
3581	0	0
3582	0	0
3583	0	0
3584	0	0
3585	0	0
3586	0	0
3587	0	0
3588	0	0
3589	0	0
3590	0	0
3591	0	0
3592	0	0
3593	0	0
3594	0	0
3595	0	0
3596	0	0.333333
3597	0	0.333333
3598	0	1
3599	0	1
3600	0	1
3601	0	1
3602	0	0.333333
3603	0	0.333333
3604	0	0.333333
3605	0	0.333333
3606	0	0.2
3607	0	0.2
3608	0	0.734454
3609	0	0.693651
3610	0	0.693651
3611	0	0.693651
3612	0	0.693651
3613	0	0.693651
3614	0	0.693651
3615	0	0.693651
3616	0	0.656156
3617	0	0.656156
3618	0	0.564103
3619	0	0.924438
3620	0	0.836937
3621	0	0.820829
3622	0	0.396687
3623	0	0
3624	0	0
3625	0	0
3626	0	0
3627	0	0
3628	0	0
3629	0	0
3630	0	0
3631	0	0
3632	0	0
3633	0	0
3634	0	0
3635	0	0
3636	0	0
3637	0	0
3638	0	0
3639	0	0
3640	0	0
3641	0	0
3642	0	0
3643	0	0.856645
3644	0	0.254386
3645	0	0.683397
3646	0	0.346631
3647	0	0.346631
3648	0	0.354302
3649	0	0.354302
3650	0	0.322279
3651	0	0.868864
3652	0	0.127273
3653	0	0.127273
3654	0	0.155556
3655	0	0.155556
3656	0	0.155556
3657	0	0.155556
3658	0	0.812481
3659	0	0.529412
3660	0	0.32043
3661	0	0.32043
3662	0	0.352688
3663	0	0.539575
3664	0	0.348707
3665	0	0.375566
3666	0	0.507989
3667	0	0.90545
3668	0	0.905525
3669	0	0.91047
3670	0	0.912108
3671	0	0.875269
3672	0	0.818548
3673	0	0.818548
3674	0	0.873118
3675	0	0.818548
3676	0	0.818548
3677	0	0.818548
3678	0	0.877016
3679	0	0.877016
3680	0	0.877016
3681	0	0.969462
3682	0	0.967832
3683	0	0.931634
3684	0	0.931577
3685	0	0.1
3686	0	0.1
3687	0	0.933195
3688	0	0.933196
3689	0	0.285714
3690	0	0.921357
3691	0	0.6
3692	0	0.971931
3693	0	0.971931
3694	0	0.971931
3695	0	0.583333
3696	0	0.466667
3697	0	0.535714
3698	0	0.535714
3699	0	0.222222
3700	0	0.133333
3701	0	0.759428
3702	0	0.751434
3703	0	0.595392
3704	0	0.685813
3705	0	0
3706	0	0
3707	0	0
3708	0	0
3709	0	0
3710	0	0
3711	0	0
3712	0	0.047619
3713	0	0.415789
3714	0	0.415789
3715	0	0.219048
3716	0	0.185771
3717	0	0.131579
3718	0	0.352386
3719	0	0.316211
3720	0	0.320821
3721	0	0.321624
3722	0	0.302914
3723	0	0.2
3724	0	0.191667
3725	0	0.152381
3726	0	0.175824
3727	0	0.151515
3728	0	0.128205
3729	0	0.128205
3730	0	0.578342
3731	0	0.0222222
3732	0	0.0222222
3733	0	0.375702
3734	0	0.0666667
3735	0	0.0555556
3736	0	0.322247
3737	0	0.047619
3738	0	0.047619
3739	0	0.047619
3740	0	0.047619
3741	0	0.047619
3742	0	0.047619
3743	0	0.047619
3744	0	0.047619
3745	0	0.047619
3746	0	0.0666667
3747	0	0.572055
3748	0	0.405797
3749	0	0.319014
3750	0	0.404603
3751	0	0.387607
3752	0	0.365303
3753	0	0.370939
3754	0	0.15873
3755	0	0.67327
3756	0	0.160256
3757	0	0.601702
3758	0	0.578937
3759	0	0
3760	0	0.53625
3761	0	0.458874
3762	0	0.476698
3763	0	0.177158
3764	0	0.172348
3765	0	0.169309
3766	0	0.424242
3767	0	0.424242
3768	0	0.146075
3769	0	0
3770	0	0
3771	0	0
3772	0	0
3773	0	0
3774	0	0
3775	0	0
3776	0	0
3777	0	0
3778	0	0
3779	0	0
3780	0	0
3781	0	0
3782	0	0
3783	0	0
3784	0	0
3785	0	0
3786	0	0
3787	0	0
3788	0	0
3789	0	0
3790	0	0
3791	0	0
3792	0	0
3793	0	0
3794	0	0
3795	0	0
3796	0	0
3797	0	0
3798	0	0
3799	0	0
3800	0	0.133082
3801	0	0.265597
3802	0	0.222816
3803	0	0.222816
3804	0	0.206723
3805	0	0.177778
3806	0	0.142857
3807	0	0.133634
3808	0	0.121457
3809	0	0.114147
3810	0	0.101302
3811	0	0.111117
3812	0	0.129285
3813	0	0.125635
3814	0	0.119208
3815	0	0.205933
3816	0	0.218978
3817	0	0.209968
3818	0	0.121543
3819	0	0.150404
3820	0	0.151334
3821	0	0.138415
3822	0	0.0769231
3823	0	0.0833333
3824	0	0.107143
3825	0	0.107143
3826	0	0.047619
3827	0	0
3828	0	0
3829	0	0
3830	0	0
3831	0	0
3832	0	0
3833	0	0
3834	0	0.226381
3835	0	0.427807
3836	0	0
3837	0	0.0714286
3838	0	0.192948
3839	0	0.188091
3840	0	0
3841	0	0
3842	0	0
3843	0	0
3844	0	0
3845	0	0
3846	0	0
3847	0	0
3848	0	0
3849	0	0
3850	0	0
3851	0	0
3852	0	0
3853	0	0
3854	0	0
3855	0	0
3856	0	0
3857	0	0
3858	0	0
3859	0	0
3860	0	0
3861	0	0
3862	0	0
3863	0	0
3864	0	0
3865	0	0
3866	0	0
3867	0	0
3868	0	0.151357
3869	0	0.163501
3870	0	0.2
3871	0	0.1
3872	0	0.1
3873	0	0
3874	0	0.0666667
3875	0	0.0666667
3876	0	0.133333
3877	0	0.460543
3878	0	0.400769
3879	0	0.117696
3880	0	0.0980561
3881	0	0
3882	0	0
3883	0	0
3884	0	0
3885	0	0
3886	0	0
3887	0	0
3888	0	0
3889	0	0
3890	0	0
3891	0	0
3892	0	0
3893	0	0
3894	0	0
3895	0	0
3896	0	0
3897	0	0
3898	0	0
3899	0	0
3900	0	0
3901	0	0
3902	0	0
3903	0	0
3904	0	0
3905	0	0
3906	0	0
3907	0	0
3908	0	0
3909	0	0
3910	0	0
3911	0	0
3912	0	0
3913	0	0
3914	0	0
3915	0	0
3916	0	0
3917	0	0
3918	0	0
3919	0	0
3920	0	0
3921	0	0
3922	0	0
3923	0	0
3924	0	0
3925	0	0
3926	0	0
3927	0	0
3928	0	0
3929	0	0
3930	0	0
3931	0	0
3932	0	0
3933	0	0.107828
3934	0	0.1061
3935	0	0.104021
3936	0	0.133333
3937	0	0.133333
3938	0	0.0994152
3939	0	0.0646021
3940	0	0.0321258
3941	0	0.132523
3942	0	0.0760234
3943	0	0.0760234
3944	0	0.0394089
3945	0	0.0551724
3946	0	0.0551724
3947	0	0.0591133
3948	0	0.0591133
3949	0	0.0551724
3950	0	0.0551724
3951	0	0.0516129
3952	0	0.0483871
3953	0	0.137544
3954	0	0.130473
3955	0	0.154491
3956	0	0.180831
3957	0	0.217902
3958	0	0.228528
3959	0	0.205004
3960	0	0.205112
3961	0	0.0989011
3962	0	0.0666667
3963	0	0
3964	0	0
3965	0	0
3966	0	0
3967	0	0
3968	0	0
3969	0	0
3970	0	0
3971	0	0
3972	0	0
3973	0	0
3974	0	0
3975	0	0
3976	0	0
3977	0	0.485294
3978	0	0.797079
3979	0	0.795935
3980	0	0.796009
3981	0	0
3982	0	0.762097
3983	0	0.754839
3984	0	0.707661
3985	0	0.698925
3986	0	0.698925
3987	0	0.0666667
3988	0	0.0666667
3989	0	0
3990	0	0
3991	0	0.712712
3992	0	0.699575
3993	0	0.705118
3994	0	0.38038
3995	0	0.273758
3996	0	0.273829
3997	0	0.0666667
3998	0	0.047619
3999	0	0.047619
4000	0	0.047619
4001	0	0.0813953
4002	0	0.137421
4003	0	0.108696
4004	0	0.108225
4005	0	0.0892308
4006	0	0.0826211
4007	0	0.08867
4008	0	0.0784314
4009	0	0.198198
4010	0	0.180089
4011	0	0.175863
4012	0	0.154801
4013	0	0.138207
4014	0	0.144457
4015	0	0.122383
4016	0	0.0776916
4017	0	0.118439
4018	0	0.113261
4019	0	0.118447
4020	0	0.136965
4021	0	0.0864662
4022	0	0.103431
4023	0	0.119816
4024	0	0.0457912
4025	0	0.0457143
4026	0	0.0473469
4027	0	0.0838123
4028	0	0.0323129
4029	0	0.165883
4030	0	0.0807577
4031	0	0.130511
4032	0	0.0713344
4033	0	0.0800366
4034	0	0.0744928
4035	0	0.0688691
4036	0	0.0666538
4037	0	0.113573
4038	0	0.119694
4039	0	0.121638
4040	0	0.183797
4041	0	0.175892
4042	0	0.181031
4043	0	0.165497
4044	0	0.123134
4045	0	0.1318
4046	0	0.139483
4047	0	0.143711
4048	0	0.149901
4049	0	0.145444
4050	0	0.318432
4051	0	0.463135
4052	0	0.47949
4053	0	0.510978
4054	0	0.514004
4055	0	0.04329
4056	0	0.0571429
4057	0	0.0441176
4058	0	0.0514706
4059	0	0.0416667
4060	0	0.0583333
4061	0	0.0583333
4062	0	0.0583333
4063	0	0.0578947
4064	0	0.0736842
4065	0	0.25042
4066	0	0.181617
4067	0	0.201587
4068	0	0.154487
4069	0	0.0857143
4070	0	0.625336
4071	0	0.405479
4072	0	0.367557
4073	0	0.380434
4074	0	0.395578
4075	0	0.486865
4076	0	0.288462
4077	0	0.323171
4078	0	0.289899
4079	0	0.630667
4080	0	0.319728
4081	0	0.438316
4082	0	0.492825
4083	0	0.535388
4084	0	0.572968
4085	0	0.611779
4086	0	0.107143
4087	0	0
4088	0	0
4089	0	0
4090	0	0
4091	0	0
4092	0	0
4093	0	0
4094	0	0.602895
4095	0	0.60412
4096	0	0.416029
4097	0	0
4098	0	0
4099	0	0
4100	0	0
4101	0	0
4102	0	0
4103	0	0
4104	0	0.681818
4105	0	0.681818
4106	0	0.52381
4107	0	0.52381
4108	0	0.404412
4109	0	0.393079
4110	0	0.206723
4111	0	0.149621
4112	0	0.187192
4113	0	0.24
4114	0	0.26087
4115	0	0.26087
4116	0	0.26087
4117	0	0.304348
4118	0	0.363236
4119	0	0.116667
4120	0	0.296676
4121	0	0.329754
4122	0	0.409091
4123	0	0.409091
4124	0	0.105911
4125	0	0.409091
4126	0	0.560606
4127	0	0.391534
4128	0	0.335091
4129	0	0
4130	0	0
4131	0	0
4132	0	0.169231
4133	0	0.152149
4134	0	0.101764
4135	0	0.272382
4136	0	0.295611
4137	0	0.133333
4138	0	0.109091
4139	0	0.259921
4140	0	0.105307
4141	0	0.164938
4142	0	0.18055
4143	0	0.191489
4144	0	0.192414
4145	0	0.415576
4146	0	0.142857
4147	0	0.2
4148	0	0.315568
4149	0	0.197424
4150	0	0.211477
4151	0	0.261712
4152	0	0.461188
4153	0	0.195857
4154	0	0.169104
4155	0	0.221552
4156	0	0.290909
4157	0	0.470085
4158	0	0.61584
4159	0	0.712503
4160	0	0.708456
4161	0	0.472018
4162	0	0.675889
4163	0	0
4164	0	0
4165	0	0
4166	0	0
4167	0	0
4168	0	0
4169	0	0
4170	0	0
4171	0	0
4172	0	0
4173	0	0
4174	0	0
4175	0	0
4176	0	0
4177	0	0
4178	0	0
4179	0	0
4180	0	0
4181	0	0
4182	0	0
4183	0	0
4184	0	0
4185	0	0
4186	0	0
4187	0	0
4188	0	0
4189	0	0
4190	0	0
4191	0	0
4192	0	0
4193	0	0
4194	0	0.786325
4195	0	0.90775
4196	0	0.357143
4197	0	0
4198	0	0
4199	0	0
4200	0	0
4201	0	0
4202	0	0
4203	0	0
4204	0	0.980685
4205	0	1
4206	0	1
4207	0	1
4208	0	1
4209	0	1
4210	0	1
4211	0	1
4212	0	1
4213	0	1
4214	0	1
4215	0	1
4216	1	0
4217	1	0
4218	0	1
4219	0	1
4220	0	1
4221	0	1
4222	0	1
4223	0	1
4224	0	1
4225	0	1
4226	0	1
4227	0	0.333333
4228	0	0.333333
4229	0	0.333333
4230	0	0.333333
4231	0	0.333333
4232	0	0.333333
4233	0	0.392857
4234	0	0.464286
4235	0	0.464286
4236	0	0.464286
4237	0	0.464286
4238	0	1
4239	0	1
4240	0	1
4241	0	1
4242	0	1
4243	0	1
4244	0	1
4245	0	1
4246	0	1
4247	0	1
4248	0	1
4249	0	1
4250	0	1
4251	0	1
4252	0	1
4253	0	1
4254	0	1
4255	0	1
4256	0	1
4257	0	1
4258	0	1
4259	0	1
4260	0	1
4261	0	1
4262	0	1
4263	0	1
4264	0	1
4265	0	1
4266	0	1
4267	0	1
4268	0	1
4269	0	1
4270	0	1
4271	0	1
4272	0	1
4273	0	1
4274	0	1
4275	0	1
4276	0	1
4277	0	1
4278	0	1
4279	0	1
4280	0	1
4281	0	1
4282	0	1
4283	0	1
4284	0	1
4285	0	1
4286	0	1
4287	0	1
4288	0	1
4289	0	1
4290	0	1
4291	0	1
4292	0	1
4293	0	1
4294	0	1
4295	0	1
4296	0	1
4297	0	1
4298	0	1
4299	0	1
4300	0	1
4301	0	1
4302	0	1
4303	0	1
4304	0	1
4305	0	1
4306	0	1
4307	0	1
4308	0	1
4309	0	1
4310	0	1
4311	0	1
4312	0	1
4313	0	0.75
4314	0	0.75
4315	0	0.75
4316	0	0.75
4317	0	0.75
4318	0	1
4319	0	1
4320	0	1
4321	0	1
4322	0	1
4323	0	1
4324	0	1
4325	0	1
4326	0	1
4327	0	1
4328	0	1
4329	0	1
4330	0	1
4331	0	1
4332	0	1
4333	0	1
4334	0	1
4335	0	1
4336	0	1
4337	0	1
4338	0	0.75
4339	0	1
4340	0	1
4341	0	1
4342	0	1
4343	0	1
4344	0	1
4345	0	1
4346	0	1
4347	0	1
4348	0	1
4349	0	1
4350	0	1
4351	0	1
4352	0	1
4353	0	1
4354	0	1
4355	0	1
4356	0	1
4357	0	1
4358	0	1
4359	0	1
4360	0	1
4361	0	1
4362	0	1
4363	0	1
4364	0	1
4365	0	1
4366	0	1
4367	0	1
4368	0	1
4369	0	1
4370	0	1
4371	0	1
4372	0	1
4373	0	1
4374	0	1
4375	0	1
4376	0	1
4377	0	1
4378	0	1
4379	0	1
4380	0	1
4381	0	1
4382	0	1
4383	0	1
4384	0	1
4385	0	1
4386	0	1
4387	0	1
4388	0	1
4389	0	1
4390	0	1
4391	0	1
4392	0	1
4393	0	1
4394	0	1
4395	0	1
4396	0	1
4397	0	1
4398	0	1
4399	0	1
4400	0	1
4401	0	1
4402	0	1
4403	0	1
4404	0	1
4405	0	1
4406	0	1
4407	0	1
4408	0	1
4409	0	1
4410	0	1
4411	0	1
4412	0	1
4413	0	1
4414	0	1
4415	0	1
4416	0	1
4417	0	1
4418	0	1
4419	0	1
4420	0	1
4421	1	1
4422	0	1
4423	0	1
4424	0	1
4425	0	1
4426	0	1
4427	0	1
4428	1	1
4429	0	1
4430	0	1
4431	0	1
4432	0	1
4433	0	1
4434	0	1
4435	0	1
4436	0	1
4437	0	1
4438	0	1
4439	0	1
4440	0	1
4441	0	1
4442	0	1
4443	0	1
4444	0	1
4445	0	1
4446	0	1
4447	0	1
4448	0	1
4449	0	1
4450	0	1
4451	0	1
4452	0	1
4453	0	1
4454	0	1
4455	0	1
4456	0	1
4457	0	1
4458	0	1
4459	0	1
4460	0	1
4461	0	1
4462	0	1
4463	0	1
4464	0	1
4465	0	1
4466	0	1
4467	0	1
4468	0	1
4469	0	1
4470	0	1
4471	0	1
4472	0	1
4473	0	1
4474	0	1
4475	0	1
4476	0	1
4477	0	1
4478	0	1
4479	0	1
4480	0	1
4481	0	1
4482	0	1
4483	0	1
4484	0	1
4485	0	1
4486	0	1
4487	0	1
4488	0	1
4489	0	1
4490	0	1
4491	0	1
4492	0	1
4493	0	1
4494	0	0.777778
4495	0	0.777778
4496	0	0.777778
4497	0	0.777778
4498	0	0.777778
4499	0	0.777778
4500	0	0.777778
4501	0	0.777778
4502	0	0.777778
4503	0	0.777778
4504	0	0.777778
4505	0	0.777778
4506	0	0.777778
4507	0	0.777778
4508	0	0.777778
4509	0	0.777778
4510	0	0.777778
4511	0	0.777778
4512	0	0.777778
4513	0	0.777778
4514	0	0.777778
4515	0	0.777778
4516	0	0.777778
4517	0	0.777778
4518	0	0.777778
4519	0	0.777778
4520	0	0.622222
4521	0	0.509091
4522	0	0.509091
4523	0	0.509091
4524	0	0.509091
4525	0	0.424242
4526	0	0.358974
4527	0	0.371795
4528	0	0.371795
4529	0	0.371795
4530	0	0.371795
4531	0	0.397436
4532	0	0.397436
4533	0	0.371795
4534	0	0.371795
4535	0	0.371795
4536	0	0.371795
4537	0	0.371795
4538	0	0.371795
4539	0	0.962775
4540	0	0.959423
4541	0	0.957785
4542	0	0.166667
4543	0	0.947697
4544	0	0.777778
4545	0	0.777778
4546	0	0.777778
4547	0	0.777778
4548	0	0.777778
4549	0	0.777778
4550	0	0.777778
4551	0	0.777778
4552	0	0.777778
4553	0	0.777778
4554	0	0.777778
4555	0	0.777778
4556	0	0.777778
4557	0	0.777778
4558	0	0.777778
4559	0	0.777778
4560	0	0.777778
4561	0	0.777778
4562	0	0.777778
4563	0	0.777778
4564	0	0.777778
4565	0	0.777778
4566	0	0.777778
4567	0	0.777778
4568	0	0.777778
4569	0	0.777778
4570	0	0.777778
4571	0	0.777778
4572	0	0.777778
4573	0	0.777778
4574	0	0.777778
4575	0	0.777778
4576	0	0.777778
4577	0	0.777778
4578	0	0.777778
4579	0	0.777778
4580	0	0.777778
4581	0	0.777778
4582	0	0.777778
4583	0	0.777778
4584	0	0.777778
4585	0	0.777778
4586	0	0.777778
4587	0	0.777778
4588	0	0.777778
4589	0	0.777778
4590	0	0.777778
4591	0	0.777778
4592	0	0.777778
4593	0	0.777778
4594	0	0.777778
4595	0	0.777778
4596	0	0.777778
4597	0	0.75
4598	0	0.777778
4599	0	0.777778
4600	0	0.777778
4601	0	0.777778
4602	0	0.777778
4603	0	0.777778
4604	0	0.777778
4605	0	0.777778
4606	0	0.777778
4607	0	0.777778
4608	0	0.777778
4609	0	0.777778
4610	0	0.777778
4611	0	1
4612	0	1
4613	0	1
4614	0	1
4615	0	1
4616	0	1
4617	0	1
4618	0	1
4619	0	1
4620	0	1
4621	0	1
4622	0	1
4623	0	0.464286
4624	0	1
4625	0	1
4626	0	1
4627	0	1
4628	0	1
4629	0	1
4630	0	1
4631	0	1
4632	0	1
4633	0	1
4634	0	1
4635	0	1
4636	0	1
4637	0	1
4638	0	1
4639	0	1
4640	0	1
4641	0	1
4642	0	1
4643	0	1
4644	0	1
4645	0	1
4646	0	1
4647	0	1
4648	0	1
4649	0	1
4650	0	1
4651	0	1
4652	0	1
4653	0	1
4654	0	1
4655	0	1
4656	0	1
4657	0	1
4658	0	1
4659	0	1
4660	0	1
4661	0	1
4662	0	1
4663	0	1
4664	0	1
4665	0	1
4666	0	1
4667	0	1
4668	0	1
4669	0	1
4670	0	1
4671	0	1
4672	0	1
4673	0	1
4674	0	1
4675	0	1
4676	0	1
4677	0	1
4678	0	0.75
4679	0	0.75
4680	0	0.75
4681	0	0.75
4682	0	0.75
4683	0	0.75
4684	0	0.75
4685	0	0.75
4686	0	0.75
4687	0	0.75
4688	0	0.75
4689	0	0.75
4690	0	0.75
4691	0	0.75
4692	0	0.75
4693	0	0.75
4694	0	0.75
4695	0	0.75
4696	0	0.75
4697	0	0.75
4698	0	0.75
4699	0	0.75
4700	0	1
4701	0	1
4702	0	1
4703	0	0.75
4704	0	0.75
4705	0	0.75
4706	0	0.75
4707	0	0.75
4708	0	1
4709	0	1
4710	0	1
4711	0	1
4712	0	1
4713	0	1
4714	0	1
4715	1	1
4716	1	1
4717	1	1
4718	1	1
4719	1	1
4720	1	1
4721	1	1
4722	0	1
4723	0	1
4724	1	1
4725	1	1
4726	1	1
4727	1	1
4728	1	1
4729	1	1
4730	0	1
4731	0	1
4732	0	1
4733	0	1
4734	1	1
4735	1	1
4736	1	1
4737	0	1
4738	0	1
4739	0	1
4740	0	1
4741	0	1
4742	0	1
4743	0	1
4744	0	1
4745	0	1
4746	0	1
4747	0	1
4748	0	1
4749	0	1
4750	0	1
4751	0	1
4752	0	1
4753	0	1
4754	0	1
4755	0	0.777778
4756	0	0.777778
4757	0	0.777778
4758	0	0.777778
4759	0	0.777778
4760	0	0.777778
4761	0	0.777778
4762	0	0.777778
4763	0	0.777778
4764	0	0.777778
4765	0	0.777778
4766	0	0.777778
4767	0	0.777778
4768	0	0.777778
4769	0	0.777778
4770	0	0.777778
4771	0	0.777778
4772	0	0.777778
4773	0	0.777778
4774	0	0.777778
4775	0	0.777778
4776	0	0.777778
4777	0	0.952576
4778	0	0
4779	0	0
4780	0	0
4781	0	0
4782	0	0
4783	0	0
4784	0	0
4785	0	0
4786	0	0
4787	0	0
4788	0	0
4789	0	0
4790	0	0
4791	0	0
4792	0	0
4793	0	0
4794	0	0
4795	0	0
4796	0	0
4797	0	0
4798	0	0
4799	0	0
4800	0	0
4801	0	0
4802	0	0
4803	0	0
4804	0	0
4805	0	0
4806	0	0
4807	0	0
4808	0	0
4809	0	0
4810	0	0
4811	0	0
4812	0	0
4813	0	0
4814	0	0
4815	0	0
4816	0	0
4817	0	0
4818	0	0
4819	0	0
4820	0	0
4821	0	0
4822	0	0
4823	0	0
4824	0	0
4825	0	0
4826	0	0
4827	0	0
4828	0	0
4829	0	0
4830	0	0
4831	0	0
4832	0	0
4833	0	0
4834	0	0
4835	0	0
4836	0	0
4837	0	0
4838	0	0
4839	0	0
4840	0	0
4841	0	0
4842	0	0
4843	0	0
4844	0	0
4845	0	0
4846	0	0
4847	0	0
4848	0	0
4849	0	0
4850	0	0
4851	0	0
4852	0	0
4853	0	0
4854	0	0
4855	0	0
4856	0	0
4857	0	0
4858	0	0
4859	0	0
4860	0	0.955794
4861	0	0
4862	0	0
4863	0	0
4864	0	0
4865	0	0
4866	0	0
4867	0	0
4868	0	0
4869	0	0
4870	0	0
4871	0	0
4872	0	0
4873	0	0
4874	0	0
4875	0	0
4876	0	0
4877	0	0
4878	0	0
4879	0	0
4880	0	0
4881	0	0
4882	0	0
4883	0	0
4884	0	0
4885	0	0
4886	0	0
4887	0	0
4888	0	0
4889	0	0
4890	0	0
4891	0	0
4892	0	0
4893	0	0
4894	0	0
4895	0	0
4896	0	0
4897	0	0
4898	0	0
4899	0	0
4900	0	0
4901	0	0
4902	0	0
4903	0	0
4904	0	0
4905	0	0
4906	0	0
4907	0	0
4908	0	0
4909	0	0
4910	0	0
4911	0	0
4912	0	0
4913	0	0
4914	0	0
4915	0	0
4916	0	0
4917	0	0
4918	0	0
4919	0	0
4920	0	0
4921	0	0
4922	0	0
4923	0	0
4924	0	0
4925	0	0
4926	0	0
4927	0	0
4928	0	0
4929	0	0
4930	0	0
4931	0	0
4932	0	0
4933	0	0
4934	0	0
4935	0	0
4936	0	0
4937	0	0
4938	0	0
4939	0	0
4940	0	0
4941	0	0
4942	0	0
4943	0	0
4944	0	0
4945	0	0
4946	0	0
4947	0	0
4948	0	0
4949	0	0
4950	0	0
4951	0	0
4952	0	0
4953	0	0
4954	0	0
4955	0	0
4956	0	0
4957	0	0
4958	0	0
4959	0	0
4960	0	0
4961	0	0
4962	0	0
4963	0	0
4964	0	0
4965	0	0
4966	0	0
4967	0	0
4968	0	0
4969	0	0
4970	0	0
4971	0	0
4972	0	0
4973	0	0
4974	0	0
4975	0	0
4976	0	0
4977	0	0
4978	0	0
4979	0	0
4980	0	0
4981	0	0
4982	0	0
4983	0	0
4984	0	0
4985	0	0
4986	0	0
4987	0	0
4988	0	0
4989	0	0
4990	0	0
4991	0	0
4992	0	0
4993	0	0
4994	0	0
4995	0	0
4996	0	0
4997	0	0
4998	0	0
4999	0	0
5000	0	0
5001	0	0
5002	0	0
5003	0	0
5004	0	0
5005	0	0
5006	0	0
5007	0	0
5008	0	0
5009	0	0
5010	0	0
5011	0	0
5012	0	0
5013	0	0
5014	0	0
5015	0	0
5016	0	0
5017	0	0
5018	0	0
5019	0	0
5020	0	0
5021	0	0
5022	0	0
5023	0	0
5024	0	0
5025	0	0
5026	0	0
5027	0	0
5028	0	0
5029	0	0
5030	0	0
5031	0	0
5032	0	0
5033	0	0
5034	0	0
5035	0	0
5036	0	0
5037	0	0
5038	0	0
5039	0	0
5040	0	0
5041	0	0
5042	0	0
5043	0	0
5044	0	0
5045	0	0
5046	0	0
5047	0	0
5048	0	0
5049	0	0
5050	0	0
5051	0	0
5052	0	0
5053	0	0
5054	0	0
5055	0	0
5056	0	0
5057	0	0
5058	0	0
5059	0	0
5060	0	0
5061	0	0
5062	0	0
5063	0	0
5064	0	0
5065	0	0
5066	0	0
5067	0	0
5068	0	0
5069	0	0
5070	0	0
5071	0	0
5072	0	0
5073	0	0
5074	0	0
5075	0	0
5076	0	0
5077	0	0
5078	0	0
5079	0	0
5080	0	0
5081	0	0
5082	0	0
5083	0	0
5084	0	0
5085	0	0
5086	0	0
5087	0	0
5088	0	0
5089	0	0
5090	0	0
5091	0	0
5092	0	0
5093	0	0.949326
5094	0	0.927472
5095	0	0.622222
5096	0	0.777778
5097	0	0.777778
5098	0	0.777778
5099	0	0.777778
5100	0	0.777778
5101	0	0.777778
5102	0	0.777778
5103	0	0.777778
5104	0	0.777778
5105	1	1
5106	1	1
5107	0	1
5108	0	1
5109	0	1
5110	0	1
5111	0	1
5112	0	1
5113	0	1
5114	0	1
5115	0	1
5116	0	1
5117	0	0.75
5118	1	1
5119	1	1
5120	1	1
5121	1	1
5122	0	0.464286
5123	1	1
5124	1	1
5125	1	1
5126	0	1
5127	1	1
5128	1	1
5129	1	1
5130	1	1
5131	1	1
5132	0	1
5133	0	1
5134	0	1
5135	0	1
5136	0	1
5137	0	1
5138	0	1
5139	0	1
5140	0	1
5141	0	1
5142	0	1
5143	0	1
5144	0	1
5145	0	1
5146	0	1
5147	0	1
5148	0	1
5149	0	1
5150	0	1
5151	0	1
5152	0	1
5153	0	1
5154	0	1
5155	0	1
5156	0	1
5157	0	1
5158	0	1
5159	0	1
5160	0	1
5161	0	1
5162	0	1
5163	0	1
5164	0	1
5165	0	1
5166	0	1
5167	0	1
5168	0	1
5169	0	1
5170	0	1
5171	0	1
5172	0	1
5173	0	1
5174	0	1
5175	0	0.939624
5176	0	0
5177	0	0
5178	0	0
5179	0	0
5180	0	0
5181	0	0.947699
5182	0	0
5183	0	0
5184	0	0
5185	0	0
5186	0	0
5187	0	0
5188	0	0
5189	0	0
5190	0	0
5191	0	0
5192	0	0
5193	0	0
5194	0	0
5195	0	0
5196	0	0
5197	0	0
5198	0	0
5199	0	0
5200	0	0
5201	0	0
5202	0	0
5203	0	0
5204	0	0
5205	0	0
5206	0	0
5207	0	0
5208	0	0
5209	0	0
5210	0	0
5211	0	0
5212	0	0
5213	0	0
5214	0	0
5215	0	0
5216	0	0
5217	0	0
5218	0	0
5219	0	0
5220	0	0
5221	0	0
5222	0	0
5223	0	0
5224	0	0
5225	0	0
5226	0	0
5227	0	0
5228	0	0
5229	0	0
5230	0	0
5231	0	0
5232	0	0
5233	0	0
5234	0	0
5235	0	0
5236	0	0
5237	0	0
5238	0	0
5239	0	0
5240	0	0
5241	0	0
5242	0	0
5243	0	0
5244	0	0
5245	0	0
5246	0	0
5247	0	0
5248	0	0
5249	0	0
5250	0	0
5251	0	0
5252	0	0
5253	0	0
5254	0	0
5255	0	0
5256	0	0
5257	0	0
5258	0	0
5259	0	0
5260	0	0
5261	0	0
5262	0	0
5263	0	0
5264	0	0
5265	0	0
5266	0	0
5267	0	0
5268	0	0
5269	0	0
5270	0	0
5271	0	0
5272	0	0
5273	0	0
5274	0	0
5275	0	0
5276	0	0
5277	0	0
5278	0	0
5279	0	0
5280	0	0
5281	0	0
5282	0	0
5283	0	0
5284	0	0
5285	0	0
5286	0	0
5287	0	0
5288	0	0
5289	0	0
5290	0	0
5291	0	0
5292	0	0
5293	0	0
5294	0	0
5295	0	0
5296	0	0
5297	0	0
5298	0	0
5299	0	0
5300	0	0
5301	0	0
5302	0	0
5303	0	0
5304	0	0
5305	0	0
5306	0	0
5307	0	0
5308	0	0.954332
5309	0	0.955969
5310	0	0
5311	0	0
5312	0	0
5313	0	0
5314	0	0
5315	0	0
5316	0	0
5317	0	0
5318	0	0
5319	0	0
5320	0	0
5321	0	0
5322	0	0
5323	0	0
5324	0	0
5325	0	0
5326	0	0
5327	0	0
5328	0	0
5329	0	0
5330	0	0
5331	0	0
5332	0	0
5333	0	0
5334	0	0
5335	0	0
5336	0	0
5337	0	0
5338	0	0
5339	0	0
5340	0	0
5341	0	0
5342	0	0
5343	0	0
5344	0	0
5345	0	0
5346	0	0
5347	0	0
5348	0	0
5349	0	0
5350	0	0
5351	0	0
5352	0	0
5353	0	0
5354	0	0
5355	0	0
5356	0	0
5357	0	0
5358	0	0
5359	0	0
5360	0	0
5361	0	0
5362	0	0.777778
5363	0	0.777778
5364	0	0.777778
5365	0	0.777778
5366	0	0.777778
5367	0	0.777778
5368	0	0.777778
5369	0	0.777778
5370	0	0.777778
5371	0	0.777778
5372	0	0.777778
5373	0	0.777778
5374	0	0.777778
5375	0	0.777778
5376	0	0.777778
5377	0	0.777778
5378	0	0.777778
5379	0	0.777778
5380	0	0.777778
5381	0	0.777778
5382	0	0.777778
5383	0	0.777778
5384	0	0.777778
5385	0	0.777778
5386	0	0.777778
5387	0	0.777778
5388	0	0.777778
5389	0	0.777778
5390	0	0.777778
5391	0	0.777778
5392	0	0.777778
5393	0	0.777778
5394	0	0.777778
5395	0	0.777778
5396	0	0.777778
5397	0	0.777778
5398	0	0.777778
5399	0	0.777778
5400	0	0.777778
5401	0	0.777778
5402	0	0.777778
5403	0	0.777778
5404	0	0.777778
5405	0	0.777778
5406	0	0.777778
5407	0	0.777778
5408	0	0.777778
5409	0	0.777778
5410	0	0.777778
5411	0	0.777778
5412	0	0.777778
5413	0	0.777778
5414	0	0.777778
5415	0	0.777778
5416	0	0.777778
5417	0	0.777778
5418	0	0.777778
5419	0	0.777778
5420	0	0.777778
5421	0	0.777778
5422	0	0.777778
5423	0	0.777778
5424	0	0.777778
5425	0	0.777778
5426	0	0.777778
5427	0	0.777778
5428	0	0.777778
5429	0	0.777778
5430	0	0.777778
5431	0	0.777778
5432	0	0.777778
5433	0	0.777778
5434	0	0.777778
5435	0	0.777778
5436	0	0.777778
5437	0	0.777778
5438	0	0.777778
5439	0	0.777778
5440	0	0.777778
5441	0	0.777778
5442	0	0.777778
5443	0	0.777778
5444	0	0.777778
5445	0	0.777778
5446	0	0.777778
5447	0	0.777778
5448	0	0.777778
5449	0	0.777778
5450	0	0.777778
5451	0	0.777778
5452	0	0.777778
5453	0	0.777778
5454	0	0.777778
5455	0	0.777778
5456	0	0.777778
5457	0	0.777778
5458	0	0.777778
5459	0	0.777778
5460	0	0.777778
5461	0	0.777778
5462	0	0.777778
5463	0	0.622222
5464	0	0.622222
5465	0	0.622222
5466	0	0.622222
5467	0	0.466667
5468	0	0.583333
5469	0	0.583333
5470	0	0.622222
5471	0	0.622222
5472	0	0.622222
5473	0	0.622222
5474	0	0.622222
5475	0	0.622222
5476	0	0.622222
5477	0	0.622222
5478	0	0.622222
5479	0	0.509091
5480	0	0.509091
5481	0	0.424242
5482	0	0.424242
5483	0	0.424242
5484	0	0.424242
5485	0	0.424242
5486	0	0.358974
5487	0	0.358974
5488	0	0.358974
5489	0	0.358974
5490	0	0.945985
5491	0	0.381818
5492	0	0.277778
5493	0	0.214286
5494	0	0.166667
5495	0	0.935698
5496	0	0.927583
5497	0	0
5498	0	0
5499	0	0
5500	0	0
5501	0	0
5502	0	0
5503	0	0
5504	0	0
5505	0	0
5506	0	0
5507	0	0
5508	0	0
5509	0	0
5510	0	0
5511	0	0
5512	0	0
5513	0	0
5514	0	0
5515	0	0
5516	0	0
5517	0	0
5518	0	0
5519	0	0
5520	0	0
5521	0	0
5522	0	0
5523	0	0
5524	0	0
5525	0	1
5526	0	1
5527	0	1
5528	0	1
5529	0	1
5530	0	1
5531	0	1
5532	0	1
5533	0	1
5534	0	1
5535	0	1
5536	0	1
5537	0	1
5538	0	1
5539	0	1
5540	0	1
5541	0	1
5542	0	1
5543	0	1
5544	0	1
5545	0	1
5546	0	1
5547	0	1
5548	0	1
5549	0	1
5550	0	1
5551	0	0.333333
5552	0	0.333333
5553	0	0.333333
5554	0	0.333333
5555	0	0.333333
5556	0	0.333333
5557	0	0.333333
5558	0	0.333333
5559	0	0.333333
5560	0	0.333333
5561	0	0.333333
5562	0	0.333333
5563	0	0.333333
5564	0	0.333333
5565	0	0.333333
5566	0	0.333333
5567	0	0.333333
5568	0	0.333333
5569	0	0.333333
5570	0	0.333333
5571	0	0.333333
5572	0	1
5573	0	1
5574	0	1
5575	0	1
5576	0	1
5577	0	1
5578	0	1
5579	0	1
5580	0	1
5581	0	1
5582	0	1
5583	0	1
5584	0	1
5585	0	1
5586	0	1
5587	0	1
5588	0	1
5589	0	1
5590	0	1
5591	0	1
5592	0	1
5593	0	1
5594	0	1
5595	0	1
5596	0	1
5597	0	1
5598	0	1
5599	0	1
5600	0	1
5601	0	1
5602	0	1
5603	0	1
5604	0	1
5605	0	1
5606	0	1
5607	0	1
5608	0	1
5609	0	1
5610	0	1
5611	0	1
5612	0	1
5613	0	1
5614	0	1
5615	0	1
5616	0	1
5617	0	1
5618	0	1
5619	0	1
5620	0	1
5621	0	1
5622	0	1
5623	0	1
5624	0	1
5625	0	1
5626	0	1
5627	0	1
5628	0	1
5629	0	1
5630	0	1
5631	0	1
5632	0	1
5633	0	1
5634	0	1
5635	0	1
5636	0	1
5637	0	1
5638	0	1
5639	0	1
5640	0	1
5641	0	1
5642	0	1
5643	0	1
5644	0	1
5645	0	1
5646	0	1
5647	0	1
5648	0	1
5649	0	1
5650	0	1
5651	0	1
5652	0	1
5653	0	1
5654	0	1
5655	0	1
5656	0	1
5657	0	1
5658	0	1
5659	0	1
5660	0	1
5661	0	1
5662	0	1
5663	0	1
5664	0	1
5665	0	1
5666	0	1
5667	0	1
5668	0	0.333333
5669	0	0.333333
5670	0	0.333333
5671	0	0.333333
5672	0	0.333333
5673	0	0.333333
5674	0	0.333333
5675	0	0.333333
5676	0	0.333333
5677	0	0.333333
5678	0	0.333333
5679	0	0.333333
5680	0	0.333333
5681	0	0.333333
5682	0	0.333333
5683	0	0.333333
5684	0	0.333333
5685	0	0.333333
5686	0	0.333333
5687	0	0.333333
5688	0	0.333333
5689	0	0.333333
5690	0	0.333333
5691	0	1
5692	0	1
5693	0	1
5694	0	1
5695	0	1
5696	0	1
5697	0	1
5698	0	1
5699	0	0.333333
5700	0	0.333333
5701	0	0.333333
5702	0	0.333333
5703	0	0.333333
5704	0	0.333333
5705	0	0.333333
5706	0	0.333333
5707	0	0.333333
5708	0	0.333333
5709	0	0.333333
5710	0	0.333333
5711	0	0.333333
5712	0	0.333333
5713	0	0.333333
5714	0	0.333333
5715	0	0.333333
5716	0	0.333333
5717	0	0.333333
5718	0	0.333333
5719	0	0.333333
5720	0	0.333333
5721	0	0.333333
5722	0	0.333333
5723	0	0.333333
5724	0	0.333333
5725	0	0.333333
5726	0	0.333333
5727	0	0.333333
5728	0	0.333333
5729	0	0.333333
5730	0	1
5731	0	1
5732	0	0.333333
5733	0	0.333333
5734	0	1
5735	0	1
5736	0	1
5737	0	1
5738	0	1
5739	0	1
5740	0	1
5741	0	1
5742	0	1
5743	0	1
5744	0	1
5745	0	1
5746	0	1
5747	0	1
5748	0	1
5749	0	1
5750	0	1
5751	0	1
5752	0	1
5753	0	1
5754	0	1
5755	0	1
5756	0	1
5757	0	1
5758	0	1
5759	0	1
5760	0	1
5761	0	1
5762	0	1
5763	0	1
5764	0	1
5765	0	1
5766	0	1
5767	0	1
5768	0	1
5769	0	1
5770	0	1
5771	0	1
5772	0	1
5773	0	1
5774	0	1
5775	0	1
5776	0	1
5777	0	1
5778	0	1
5779	0	1
5780	0	1
5781	0	1
5782	0	1
5783	0	1
5784	0	1
5785	0	1
5786	0	1
5787	0	1
5788	0	1
5789	0	1
5790	0	1
5791	0	1
5792	0	1
5793	0	1
5794	0	1
5795	0	1
5796	0	1
5797	0	1
5798	0	1
5799	0	1
5800	0	1
5801	0	1
5802	0	1
5803	0	1
5804	0	1
5805	0	1
5806	0	1
5807	0	1
5808	0	1
5809	0	1
5810	0	1
5811	0	1
5812	0	0.333333
5813	0	0.333333
5814	0	0.333333
5815	0	0.333333
5816	0	0.333333
5817	0	1
5818	0	1
5819	0	1
5820	0	1
5821	0	1
5822	0	1
5823	0	1
5824	0	0.333333
5825	0	0.333333
5826	0	0.333333
5827	0	0.5
5828	0	0.5
5829	0	0.5
5830	0	0.5
5831	0	0.5
5832	0	0.5
5833	0	0.5
5834	0	0.5
5835	0	0.5
5836	0	0.5
5837	0	0.5
5838	0	0.5
5839	0	0.5
5840	0	0.5
5841	0	0.5
5842	0	0.5
5843	0	0.5
5844	0	0.5
5845	0	0.5
5846	0	0.5
5847	0	0.5
5848	0	0.3
5849	0	0.3
5850	0	0.25
5851	0	0.25
5852	0	0.25
5853	0	0.919603
5854	0	1
5855	0	1
5856	0	1
5857	0	1
5858	0	1
5859	0	1
5860	0	1
5861	0	1
5862	0	1
5863	0	1
5864	0	0
5865	0	0
5866	0	0
5867	0	0
5868	0	0
5869	0	0
5870	0	0
5871	0	0
5872	0	0
5873	0	0
5874	0	0
5875	0	0
5876	0	0
5877	0	0
5878	0	0
5879	0	0
5880	0	0.1
5881	0	0.914491
5882	0	0
5883	0	0
5884	0	0
5885	0	0
5886	0	0
5887	0	0
5888	0	0
5889	0	0
5890	0	0
5891	0	0
5892	0	0
5893	0	0
5894	0	0
5895	0	0
5896	0	0
5897	0	0
5898	0	0
5899	0	0
5900	0	0
5901	0	0
5902	0	0
5903	0	0
5904	0	0
5905	0	0
5906	0	0
5907	0	0
5908	0	0
5909	0	0
5910	0	0
5911	0	0
5912	0	0
5913	0	0
5914	0	0
5915	0	0
5916	0	0
5917	0	0
5918	0	0
5919	0	0
5920	0	0
5921	0	0
5922	0	0
5923	0	0
5924	0	0
5925	0	0
5926	0	0
5927	0	0
5928	0	0
5929	0	0
5930	0	0
5931	0	0
5932	0	0
5933	0	0
5934	0	0
5935	0	0
5936	0	0
5937	0	0
5938	0	0
5939	0	0
5940	0	0
5941	0	0
5942	0	0
5943	0	0
5944	0	0
5945	0	0
5946	0	0
5947	0	0
5948	0	0
5949	0	0
5950	0	0
5951	0	0
5952	0	0
5953	0	0
5954	0	0
5955	0	0
5956	0	0
5957	0	0
5958	0	0
5959	0	0
5960	0	0
5961	0	0
5962	0	0
5963	0	0
5964	0	0
5965	0	0
5966	0	0
5967	0	0
5968	0	0
5969	0	0
5970	0	0
5971	0	0
5972	0	0
5973	0	0
5974	0	0
5975	0	0
5976	0	0
5977	0	0
5978	0	0
5979	0	0
5980	0	0
5981	0	0
5982	0	0
5983	0	0
5984	0	0
5985	0	0
5986	0	0
5987	0	0
5988	0	0
5989	0	0
5990	0	0
5991	0	0
5992	0	0
5993	0	0
5994	0	0
5995	0	0
5996	0	0
5997	0	0
5998	0	0
5999	0	0
6000	0	0
6001	0	0
6002	0	0
6003	0	0
6004	0	0
6005	0	0
6006	0	0
6007	0	0
6008	0	0
6009	0	0
6010	0	0
6011	0	0
6012	0	0
6013	0	0
6014	0	0
6015	0	0
6016	0	0
6017	0	0
6018	0	0.714286
6019	0	0.222222
6020	0	0.186813
6021	0	0.886145
6022	0	1
6023	0	1
6024	0	0.818182
6025	0	1
6026	0	1
6027	0	1
6028	0	0.777778
6029	0	0.583333
6030	0	0.583333
6031	0	0.583333
6032	0	0.583333
6033	0	0.535714
6034	0	0.2
6035	0	0.2
6036	0	0.3
6037	0	0.3
6038	0	0.1
6039	0	0.1
6040	0	0.1
6041	0	0
6042	0	0
6043	0	0
6044	0	0
6045	0	0
6046	0	0
6047	0	0
6048	0	0
6049	0	0
6050	0	0
6051	0	0
6052	0	0
6053	0	0
6054	0	0
6055	0	0
6056	0	0
6057	0	0
6058	0	0
6059	0	0
6060	0	0
6061	0	0
6062	0	0
6063	0	0
6064	0	0
6065	0	0
6066	0	0
6067	0	0
6068	0	0
6069	0	0
6070	0	0
6071	0	0
6072	0	0
6073	0	0
6074	0	0
6075	0	0
6076	0	0
6077	0	0.0666667
6078	0	0.166667
6079	0	0.190476
6080	0	0.666761
6081	0	0.596001
6082	0	0.563631
6083	0	0.551148
6084	0	0.527372
6085	0	0.505045
6086	0	0.474023
6087	0	0.482849
6088	0	0.392451
6089	0	0.372745
6090	0	0.455266
6091	0	0.241769
6092	0	0.144909
6093	0	0.111612
6094	0	0.0803902
6095	0	0.0785265
6096	0	0.0605973
6097	0	0.057747
6098	0	0.0550323
6099	0	0.107719
6100	0	0.123395
6101	0	0.113661
6102	0	0.139394
6103	0	0.145138
6104	0	0.0758698
6105	0	0.0685246
6106	0	0.0428799
6107	0	0.0464899
6108	0	0.0496805
6109	0	0.0390756
6110	0	0.0421053
6111	0	0.0438328
6112	0	0.0494955
6113	0	0.050297
6114	0	0.0525984
6115	0	0.0571951
6116	0	0.0600748
6117	0	0.0658307
6118	0	0.0650407
6119	0	0.0666667
6120	0	0.0714609
6121	0	0.016844
6122	0	0.0154589
6123	0	0.0111111
6124	0	0.00885936
6125	0	0.0056899
6126	0	0.010084
6127	0	0.0094697
6128	0	0.00806452
6129	0	0.00806452
6130	0	0.00860215
6131	0	0.0107527
6132	0	0.010582
6133	0	0.00793651
6134	0	0.0184615
6135	0	0.017094
6136	0	0.017094
6137	0	0.010582
6138	0	0.0153846
6139	0	0.0153846
6140	0	0.0712462
6141	0	0.0719059
6142	0	0.0731013
6143	0	0.0694639
6144	0	0.0721154
6145	0	0.0773169
6146	0	0.080791
6147	0	0.0550514
6148	0	0.0620301
6149	0	0.0599327
6150	0	0.0727273
6151	0	0.0711176
6152	0	0.0752941
6153	0	0.0808416
6154	0	0.0708479
6155	0	0.0743902
6156	0	0.0743902
6157	0	0.0743902
6158	0	0.0743902
6159	0	0.0743902
6160	0	0.0743902
6161	0	0.0794872
6162	0	0.0836707
6163	0	0.086771
6164	0	0.0930931
6165	0	0.0975976
6166	0	0.0975976
6167	0	0.101587
6168	0	0.105376
6169	0	0.0233918
6170	0	0.0233918
6171	0	0.0333333
6172	0	0.0333333
6173	0	0.0333333
6174	0	0.025
6175	0	0.032967
6176	0	0.0384615
6177	0	0.0384615
6178	0	0.0384615
6179	0	0.0384615
6180	0	0.0512821
6181	0	0.0512821
6182	0	0.0512821
6183	0	0.0384615
6184	0	0.0384615
6185	0	0.0384615
6186	0	0.0454545
6187	0	0.0454545
6188	0	0.0454545
6189	0	0.0454545
6190	0	0.0545455
6191	0	0.0545455
6192	0	0.0545455
6193	0	0.0545455
6194	0	0.0666667
6195	0	0.0666667
6196	0	0.0666667
6197	0	0.0833333
6198	0	0.0833333
6199	0	0.0833333
6200	0	0.0833333
6201	0	0.0833333
6202	0	0.0833333
6203	0	0.0833333
6204	0	0.0833333
6205	0	0.0833333
6206	0	0.107143
6207	0	0.107143
6208	0	0.107143
6209	0	0.107143
6210	0	0.142857
6211	0	0.142857
6212	0	0.142857
6213	0	0.142857
6214	0	0.142857
6215	0	0.142857
6216	0	0.142857
6217	0	0.142857
6218	0	0.142857
6219	0	0.142857
6220	0	0.142857
6221	0	0.142857
6222	0	0.142857
6223	0	0.142857
6224	0	0.142857
6225	0	0.142857
6226	0	0.142857
6227	0	0.142857
6228	0	0.142857
6229	0	0.142857
6230	0	0.2
6231	0	0.2
6232	0	0.2
6233	0	0.2
6234	0	0.2
6235	0	0.2
6236	0	0.1
6237	0	0.2
6238	0	0.2
6239	0	0.2
6240	0	0.2
6241	0	0.2
6242	0	0.2
6243	0	0.2
6244	0	0.2
6245	0	0.2
6246	0	0.2
6247	0	0.2
6248	0	0.2
6249	0	0.2
6250	0	0.2
6251	0	0.2
6252	0	0.2
6253	0	0.2
6254	0	0.2
6255	0	0.2
6256	0	0.2
6257	0	0.2
6258	0	0.2
6259	0	0.2
6260	0	0.2
6261	0	0.2
6262	0	0.2
6263	0	0.2
6264	0	0.2
6265	0	0.2
6266	0	0.2
6267	0	0.2
6268	0	0.2
6269	0	0.2
6270	0	0.2
6271	0	0.2
6272	0	0.2
6273	0	0.2
6274	0	0.2
6275	0	0.2
6276	0	0.2
6277	0	0.2
6278	0	0.2
6279	0	0.2
6280	0	0.2
6281	0	0.2
6282	0	0.2
6283	0	0.2
6284	0	0.2
6285	0	0.2
6286	0	0.2
6287	0	0.2
6288	0	0.2
6289	0	0.0666667
6290	0	0.0666667
6291	0	0.0666667
6292	0	0.0666667
6293	0	0.0666667
6294	0	0.0666667
6295	0	0.0666667
6296	0	0.0666667
6297	0	0.0666667
6298	0	0.0666667
6299	0	0.1
6300	0	0.1
6301	0	0.1
6302	0	0.1
6303	0	0.1
6304	0	0.1
6305	0	0.1
6306	0	0.1
6307	0	0.1
6308	0	0.1
6309	0	0.1
6310	0	0.1
6311	0	0.1
6312	0	0.1
6313	0	0.1
6314	0	0.1
6315	0	0.1
6316	0	0.1
6317	0	0.1
6318	0	0.1
6319	0	0.1
6320	0	0.1
6321	0	0.1
6322	0	0.1
6323	0	0.1
6324	0	0.1
6325	0	0.1
6326	0	0.1
6327	0	0.1
6328	0	0.1
6329	0	0.1
6330	0	0.1
6331	0	0.1
6332	0	0.1
6333	0	0.1
6334	0	0.1
6335	0	0.1
6336	0	0.1
6337	0	0.1
6338	0	0.1
6339	0	0.1
6340	0	0.1
6341	0	0.1
6342	0	0.1
6343	0	0.1
6344	0	0.1
6345	0	0.1
6346	0	0.1
6347	0	0.1
6348	0	0.1
6349	0	0.1
6350	0	0.1
6351	0	0.1
6352	0	0.1
6353	0	0.1
6354	0	0.1
6355	0	0.1
6356	0	0.1
6357	0	0.1
6358	0	0.1
6359	0	0.1
6360	0	0.1
6361	0	0.1
6362	0	0.1
6363	0	0.1
6364	0	0.1
6365	0	0.1
6366	0	0.1
6367	0	0.1
6368	0	0.1
6369	0	0.1
6370	0	0.1
6371	0	0.1
6372	0	0.1
6373	0	0.1
6374	0	0.1
6375	0	0.1
6376	0	0.1
6377	0	0.1
6378	0	0.1
6379	0	0.1
6380	0	0.1
6381	0	0.1
6382	0	0.1
6383	0	0.1
6384	0	0.1
6385	0	0.1
6386	0	0.166667
6387	0	0.166667
6388	0	0.166667
6389	0	0.166667
6390	0	0.166667
6391	0	0.166667
6392	0	0.166667
6393	0	0.166667
6394	0	0.166667
6395	0	0.166667
6396	0	0.166667
6397	0	0.166667
6398	0	0.166667
6399	0	0.166667
6400	0	0.0666667
6401	0	0.0666667
6402	0	0.0666667
6403	0	0.0666667
6404	0	0.0666667
6405	0	0.0666667
6406	0	0.0666667
6407	0	0.0666667
6408	0	0.0666667
6409	0	0.0666667
6410	0	0.0666667
6411	0	0.0666667
6412	0	0.0666667
6413	0	0.0666667
6414	0	0.0666667
6415	0	0.0666667
6416	0	0.0666667
6417	0	0.0666667
6418	0	0.0666667
6419	0	0.0666667
6420	0	0.0666667
6421	0	0.0666667
6422	0	0.0666667
6423	0	0.0666667
6424	0	0.0666667
6425	0	0.0666667
6426	0	0.0666667
6427	0	0.0666667
6428	0	0.0666667
6429	0	0.0666667
6430	0	0.0666667
6431	0	0.0666667
6432	0	0.0666667
6433	0	0.0666667
6434	0	0.0666667
6435	0	0.0666667
6436	0	0.0666667
6437	0	0.0666667
6438	0	0.0666667
6439	0	0.0666667
6440	0	0.0666667
6441	0	0.0666667
6442	0	0.0666667
6443	0	0.0666667
6444	0	0.0666667
6445	0	0.0666667
6446	0	0.0666667
6447	0	0.0666667
6448	0	0.133333
6449	0	0.133333
6450	0	0.133333
6451	0	0.133333
6452	0	0.133333
6453	0	0.133333
6454	0	0.133333
6455	0	0.133333
6456	0	0.133333
6457	0	0.133333
6458	0	0.133333
6459	0	0.133333
6460	0	0.133333
6461	0	0.133333
6462	0	0.133333
6463	0	0.133333
6464	0	0.133333
6465	0	0.133333
6466	0	0.133333
6467	0	0.133333
6468	0	0.133333
6469	0	0.133333
6470	0	0.133333
6471	0	0.133333
6472	0	0.133333
6473	0	0.133333
6474	0	0.133333
6475	0	0.133333
6476	0	0.133333
6477	0	0.133333
6478	0	0.133333
6479	0	0.133333
6480	0	0.133333
6481	0	0.133333
6482	0	0.133333
6483	0	0.133333
6484	0	0.133333
6485	0	0.133333
6486	0	0.133333
6487	0	0.133333
6488	0	0.133333
6489	0	0.133333
6490	0	0.133333
6491	0	0.133333
6492	0	0.133333
6493	0	0.133333
6494	0	0.133333
6495	0	0.133333
6496	0	0.133333
6497	0	0.133333
6498	0	0.133333
6499	0	0.133333
6500	0	0.133333
6501	0	0.133333
6502	0	0.133333
6503	0	0.133333
6504	0	0.133333
6505	0	0.133333
6506	0	0.133333
6507	0	0.133333
6508	0	0.133333
6509	0	0.133333
6510	0	0.133333
6511	0	0.133333
6512	0	0.133333
6513	0	0.133333
6514	0	0.133333
6515	0	0.133333
6516	0	0.133333
6517	0	0.133333
6518	0	0.133333
6519	0	0.133333
6520	0	0.133333
6521	0	0.133333
6522	0	0.133333
6523	0	0.133333
6524	0	0.133333
6525	0	0.133333
6526	0	0.133333
6527	0	0.133333
6528	0	0.133333
6529	0	0.133333
6530	0	0.133333
6531	0	0.133333
6532	0	0.133333
6533	0	0.133333
6534	0	0.133333
6535	0	0.133333
6536	0	0.133333
6537	0	0.133333
6538	0	0.133333
6539	0	0.133333
6540	0	0.133333
6541	0	0.133333
6542	0	0.133333
6543	0	0.133333
6544	0	0.133333
6545	0	0.133333
6546	0	0.133333
6547	0	0.133333
6548	0	0.133333
6549	0	0.133333
6550	0	0.133333
6551	0	0.133333
6552	0	0.133333
6553	0	0.133333
6554	0	0.133333
6555	0	0.133333
6556	0	0.133333
6557	0	0.2
6558	0	0.2
6559	0	0.2
6560	0	0.2
6561	0	0.2
6562	0	0.2
6563	0	0.2
6564	0	0.2
6565	0	0.2
6566	0	0.2
6567	0	0.2
6568	0	0.2
6569	0	0.2
6570	0	0.2
6571	0	0.2
6572	0	0.2
6573	0	0.2
6574	0	0.2
6575	0	0.2
6576	0	0.2
6577	0	0.2
6578	0	0.2
6579	0	0.2
6580	0	0.2
6581	0	0.333333
6582	0	0.333333
6583	0	0.333333
6584	0	0.333333
6585	0	0.333333
6586	0	0.333333
6587	0	0.333333
6588	0	0.333333
6589	0	0.333333
6590	0	0.333333
6591	0	0.333333
6592	0	0.333333
6593	0	0.333333
6594	0	0.333333
6595	1	1
6596	1	1
6597	1	1
6598	1	1
6599	1	1
6600	1	1
6601	1	1
6602	1	1
6603	1	1
6604	1	1
6605	1	1
6606	1	1
6607	1	1
6608	1	1
6609	1	1
6610	1	1
6611	1	1
6612	1	1
6613	1	1
6614	1	1
6615	1	1
6616	1	1
6617	1	1
6618	1	1
6619	1	1
6620	1	1
6621	1	1
6622	1	1
6623	1	1
6624	1	1
6625	1	1
6626	1	1
6627	1	1
6628	1	1
6629	1	1
6630	1	1
6631	1	1
6632	1	1
6633	1	1
6634	1	1
6635	1	1
6636	1	1
6637	1	1
6638	1	1
6639	1	1
6640	1	1
6641	1	1
6642	1	1
6643	1	1
6644	1	1
6645	1	1
6646	1	1
6647	1	1
6648	1	1
6649	1	1
6650	1	1
6651	1	1
6652	1	1
6653	1	1
6654	1	1
6655	1	1
6656	1	1
6657	1	1
6658	1	1
6659	1	1
6660	1	1
6661	1	1
6662	1	1
6663	1	1
6664	1	1
6665	1	1
6666	1	1
6667	1	1
6668	1	1
6669	1	1
6670	1	1
6671	1	1
6672	1	1
6673	1	1
6674	1	1
6675	1	1
6676	1	1
6677	1	1
6678	1	1
6679	1	1
6680	1	1
6681	1	1
6682	1	1
6683	1	1
6684	1	1
6685	1	1
6686	1	1
6687	1	1
6688	1	1
6689	1	1
6690	1	1
6691	1	1
6692	1	1
6693	1	1
6694	1	1
6695	1	1
6696	1	1
6697	1	1
6698	1	1
6699	1	1
6700	1	1
6701	1	1
6702	1	1
6703	1	1
6704	1	1
6705	1	1
6706	1	1
6707	1	1
6708	1	1
6709	1	1
6710	1	1
6711	1	1
6712	1	1
6713	1	1
6714	1	1
6715	1	1
6716	1	1
6717	1	1
6718	1	1
6719	1	1
6720	1	1
6721	1	1
6722	1	1
6723	1	1
6724	1	1
6725	1	1
6726	1	1
6727	1	1
6728	1	1
6729	1	1
6730	1	1
6731	1	1
6732	1	1
6733	1	1
6734	1	1
6735	1	1
6736	1	1
6737	1	1
6738	1	1
6739	1	1
6740	1	1
6741	1	1
6742	1	1
6743	1	1
6744	1	1
6745	1	1
6746	1	1
6747	1	1
6748	1	1
6749	1	1
6750	1	1
6751	1	1
6752	1	1
6753	1	1
6754	1	1
6755	1	1
6756	1	1
6757	1	1
6758	1	1
6759	1	1
6760	1	1
6761	1	1
6762	1	1
6763	1	1
6764	1	1
6765	1	1
6766	1	1
6767	1	1
6768	1	1
6769	1	1
6770	1	1
6771	1	1
6772	1	1
6773	1	1
6774	1	1
6775	1	1
6776	1	1
6777	1	1
6778	1	1
6779	1	1
6780	1	1
6781	1	1
6782	1	1
6783	1	1
6784	1	1
6785	1	1
6786	1	1
6787	1	1
6788	1	1
6789	1	1
6790	1	1
6791	1	1
6792	1	1
6793	1	1
6794	1	1
6795	1	1
6796	1	1
6797	1	1
6798	1	1
6799	1	1
6800	1	1
6801	1	1
6802	1	1
6803	1	1
6804	1	1
6805	1	1
6806	1	1
6807	1	1
6808	1	1
6809	1	1
6810	1	1
6811	1	1
6812	1	1
6813	1	1
6814	1	1
6815	1	1
6816	1	1
6817	1	1
6818	1	1
6819	1	1
6820	1	1
6821	1	1
6822	1	1
6823	1	1
6824	1	1
6825	1	1
6826	1	1
6827	1	1
6828	1	1
6829	1	1
6830	1	1
6831	1	1
6832	1	1
6833	1	1
6834	1	1
6835	1	1
6836	1	1
6837	1	1
6838	1	1
6839	1	1
6840	1	1
6841	1	1
6842	1	1
6843	1	1
6844	1	1
6845	1	1
6846	1	1
6847	1	1
6848	1	1
6849	1	1
6850	1	1
6851	1	1
6852	1	1
6853	1	1
6854	1	1
6855	1	1
6856	1	1
6857	1	1
6858	1	1
6859	1	1
6860	1	1
6861	1	1
6862	1	1
6863	1	1
6864	1	1
6865	1	1
6866	1	1
6867	1	1
6868	1	1
6869	1	1
6870	1	1
6871	1	1
6872	1	1
6873	1	1
6874	1	1
6875	1	1
6876	1	1
6877	1	1
6878	1	1
6879	1	1
6880	1	1
6881	1	1
6882	1	1
6883	1	1
6884	1	1
6885	1	1
6886	1	1
6887	1	1
6888	1	1
6889	1	1
6890	1	1
6891	1	1
6892	1	1
6893	1	1
6894	1	1
6895	1	1
6896	1	1
6897	1	1
6898	1	1
6899	1	1
6900	1	1
6901	1	1
6902	1	1
6903	1	1
6904	1	1
6905	1	1
6906	1	1
6907	1	1
6908	1	1
6909	1	1
6910	1	1
6911	1	1
6912	1	1
6913	1	1
6914	1	1
6915	1	1
6916	1	1
6917	1	1
6918	1	1
6919	1	1
6920	1	1
6921	1	1
6922	0	0
6923	0	0
6924	0	0
6925	0	0
6926	1	1
6927	1	1
6928	1	1
6929	1	1
6930	1	1
6931	1	1
6932	1	1
6933	1	1
6934	1	1
6935	1	1
6936	1	1
6937	1	1
6938	1	1
6939	1	1
6940	1	1
6941	1	1
6942	1	1
6943	1	1
6944	1	1
6945	1	1
6946	1	1
6947	1	1
6948	1	1
6949	1	1
6950	1	1
6951	1	1
6952	1	1
6953	1	1
6954	1	1
6955	1	1
6956	1	1
6957	1	1
6958	1	1
6959	1	1
6960	1	1
6961	1	1
6962	1	1
6963	1	1
6964	1	1
6965	1	1
6966	1	1
6967	1	1
6968	1	1
6969	1	1
6970	1	1
6971	1	1
6972	1	1
6973	1	1
6974	1	1
6975	1	1
6976	1	1
6977	1	1
6978	1	1
6979	1	1
6980	1	1
6981	1	1
