Site	ColumnScore	SumOfPairsScore
1	1	0
2	1	0
3	1	0
4	1	0
5	1	0
6	1	0
7	1	0
8	1	0
9	1	0
10	1	0
11	1	0
12	1	0
13	1	0
14	1	0
15	1	0
16	1	0
17	1	0
18	1	0
19	1	0
20	1	0
21	1	0
22	1	0
23	1	0
24	1	0
25	1	0
26	1	0
27	1	0
28	1	0
29	1	0
30	1	0
31	1	0
32	1	0
33	1	0
34	1	0
35	1	0
36	1	0
37	1	0
38	1	0
39	1	0
40	1	0
41	1	0
42	1	0
43	1	0
44	1	0
45	1	0
46	1	0
47	1	0
48	1	0
49	1	0
50	1	0
51	1	0
52	1	0
53	1	0
54	1	0
55	1	0
56	1	0
57	1	0
58	1	0
59	1	0
60	1	0
61	1	0
62	1	0
63	1	0
64	1	0
65	1	0
66	1	0
67	1	0
68	1	0
69	1	0
70	1	0
71	1	0
72	1	0
73	1	0
74	1	0
75	1	0
76	1	0
77	1	0
78	1	0
79	1	0
80	1	0
81	1	0
82	1	0
83	1	0
84	1	0
85	1	0
86	1	0
87	1	0
88	1	0
89	1	0
90	1	0
91	1	0
92	1	0
93	1	0
94	1	0
95	1	0
96	1	0
97	1	0
98	1	0
99	1	0
100	1	0
101	1	0
102	1	0
103	1	0
104	1	0
105	1	0
106	1	0
107	1	0
108	1	0
109	1	0
110	1	0
111	1	0
112	1	0
113	1	0
114	1	0
115	1	0
116	1	0
117	1	0
118	1	0
119	1	0
120	1	0
121	1	0
122	1	0
123	1	0
124	1	0
125	1	0
126	1	0
127	1	0
128	1	0
129	1	0
130	1	0
131	1	0
132	1	0
133	1	0
134	1	0
135	1	0
136	1	0
137	1	0
138	1	0
139	1	0
140	1	0
141	1	0
142	1	0
143	1	0
144	1	0
145	1	0
146	1	0
147	1	0
148	1	0
149	1	0
150	1	0
151	1	0
152	1	0
153	1	0
154	1	0
155	1	0
156	1	0
157	1	0
158	1	0
159	1	0
160	1	0
161	1	0
162	1	0
163	1	0
164	1	0
165	1	0
166	1	0
167	1	0
168	1	0
169	1	0
170	1	0
171	1	0
172	1	0
173	1	0
174	1	0
175	1	0
176	1	0
177	1	0
178	1	0
179	1	0
180	1	0
181	1	0
182	1	0
183	1	0
184	1	0
185	1	0
186	1	0
187	1	0
188	1	0
189	1	0
190	1	0
191	1	0
192	1	0
193	1	0
194	1	0
195	1	0
196	1	0
197	1	0
198	1	0
199	1	0
200	1	0
201	1	0
202	1	0
203	1	0
204	1	0
205	1	0
206	1	0
207	1	0
208	1	0
209	1	0
210	1	0
211	1	0
212	1	0
213	1	0
214	1	0
215	1	0
216	1	0
217	1	0
218	1	0
219	1	0
220	1	0
221	1	0
222	1	0
223	1	0
224	1	0
225	1	0
226	1	0
227	1	0
228	1	0
229	1	0
230	1	0
231	1	0
232	1	0
233	1	0
234	1	0
235	1	0
236	1	0
237	1	0
238	1	0
239	1	0
240	1	0
241	1	0
242	1	0
243	1	0
244	1	0
245	1	0
246	1	0
247	1	0
248	1	0
249	1	0
250	1	0
251	1	0
252	1	0
253	1	0
254	1	0
255	1	0
256	1	0
257	1	0
258	1	0
259	1	0
260	1	0
261	1	0
262	1	0
263	1	0
264	1	0
265	1	0
266	1	0
267	1	0
268	1	0
269	1	0
270	1	0
271	1	0
272	1	0
273	1	0
274	1	0
275	1	0
276	1	0
277	1	0
278	1	0
279	1	0
280	1	0
281	1	0
282	1	0
283	1	0
284	1	0
285	1	0
286	1	0
287	1	0
288	1	0
289	1	0
290	1	0
291	1	0
292	1	0
293	1	0
294	1	0
295	1	0
296	0	0
297	0	0
298	0	0
299	0	0
300	0	0
301	0	0
302	0	0
303	0	0
304	0	0
305	0	0
306	0	0
307	0	0
308	0	0
309	0	0
310	0	0
311	0	0
312	0	0
313	0	0
314	0	0
315	0	0
316	0	0
317	0	0
318	0	0
319	0	0
320	0	0
321	0	0
322	0	0
323	0	0
324	0	0
325	0	0
326	0	0
327	0	0
328	0	0
329	0	0
330	0	0
331	0	0
332	0	0
333	0	0
334	0	0
335	0	0
336	0	0
337	0	0
338	0	0
339	0	0
340	0	0
341	0	0
342	0	0
343	0	0
344	0	0
345	0	0
346	0	0
347	0	0
348	0	0
349	0	0
350	0	0
351	0	0
352	0	0
353	1	0
354	0	0
355	0	0
356	0	0
357	0	0
358	0	0
359	0	0
360	0	0
361	0	0
362	0	0
363	0	0
364	0	0
365	0	0
366	0	0
367	0	0
368	0	0
369	0	0
370	0	0
371	0	0
372	0	0
373	0	0
374	0	0
375	0	0
376	0	0
377	0	0
378	0	0
379	0	0
380	0	0
381	0	0
382	0	0
383	0	0
384	0	0
385	0	0
386	0	0
387	0	0
388	0	0
389	0	0
390	0	0
391	0	0
392	0	0
393	0	0
394	0	0
395	0	0
396	0	0
397	0	0
398	0	0
399	0	0
400	0	0
401	0	0
402	0	0
403	0	0
404	0	0
405	0	0
406	0	0
407	0	0
408	0	0
409	0	0
410	0	0
411	0	0
412	0	0
413	0	0
414	0	0
415	0	0
416	0	0
417	0	0
418	0	0
419	0	0
420	0	0
421	0	0
422	0	0
423	0	0
424	0	0
425	0	0
426	0	0
427	0	0
428	0	0
429	0	0
430	0	0
431	0	0
432	0	0
433	0	0
434	0	0
435	0	0
436	0	0
437	0	0
438	0	0
439	0	0
440	0	0
441	0	0
442	0	0
443	0	0
444	0	0
445	0	0
446	0	0
447	0	0
448	0	0
449	0	0
450	0	0
451	0	0
452	0	0
453	0	0
454	0	0
455	0	0
456	0	0
457	0	0
458	0	0
459	0	0
460	0	0
461	0	0
462	0	0
463	0	0
464	0	0
465	0	0
466	0	0
467	0	0
468	0	0
469	0	0
470	0	0
471	0	0
472	0	0
473	0	0
474	0	0
475	0	0
476	0	0
477	0	0
478	0	0
479	0	0
480	0	0
481	0	0
482	0	0
483	0	0
484	0	0
485	0	0
486	0	0
487	0	0
488	0	0
489	0	0
490	0	0
491	0	0
492	0	0
493	0	0
494	0	0
495	0	0
496	0	0
497	0	0
498	0	0
499	0	0
500	0	0
501	0	0
502	0	0
503	0	0
504	0	0
505	0	0
506	0	0
507	0	0
508	0	0
509	0	0
510	0	0
511	0	0
512	0	0
513	0	0
514	0	0
515	0	0
516	0	0
517	0	0
518	0	0
519	0	0
520	0	0
521	0	0
522	0	0
523	0	0
524	0	0
525	0	0
526	0	0
527	0	0
528	0	0
529	0	0
530	0	0
531	0	0
532	0	0
533	0	0
534	0	0
535	0	0
536	0	0
537	0	0
538	0	0
539	0	0
540	0	0
541	0	0
542	0	0
543	0	0
544	0	0
545	0	0
546	0	0
547	0	0
548	0	0
549	0	0
550	0	0
551	0	0
552	0	0
553	0	0
554	0	0
555	0	0
556	0	0
557	0	0
558	0	0
559	0	0
560	0	0
561	0	0
562	0	0
563	0	0
564	0	0
565	0	0
566	0	0
567	0	0
568	0	0
569	0	0
570	0	0
571	0	0
572	0	0
573	0	0
574	0	0
575	0	0
576	0	0
577	0	0
578	0	0
579	0	0
580	0	0
581	0	0
582	0	0
583	0	0
584	0	0
585	0	0
586	0	0
587	0	0
588	0	0
589	0	0
590	0	0
591	0	0
592	0	0
593	0	0
594	0	0
595	0	0
596	0	0
597	0	0
598	0	0
599	0	0
600	0	0
601	0	0
602	0	0
603	0	0
604	0	0
605	0	0
606	0	0
607	0	0
608	0	0
609	0	0
610	0	0
611	0	0.166667
612	0	0.166667
613	0	0
614	0	0
615	0	0
616	0	0
617	0	0
618	0	0
619	0	0
620	0	0
621	0	0
622	0	0
623	0	0
624	0	0
625	0	0
626	0	0
627	0	0
628	0	0
629	0	0
630	0	0
631	0	0
632	0	0
633	0	0.166667
634	0	0.166667
635	0	0.166667
636	0	0.166667
637	0	0.166667
638	0	0.166667
639	0	0.166667
640	0	0.166667
641	0	0.166667
642	0	0.166667
643	0	0.166667
644	0	0.166667
645	0	0.166667
646	0	0.1
647	0	0.1
648	0	0.1
649	0	0.1
650	0	0.1
651	0	0.1
652	0	0.1
653	0	0.1
654	0	0.1
655	0	0.1
656	0	0.1
657	0	0.1
658	0	0.1
659	0	0.1
660	0	0.1
661	0	0.1
662	0	0.1
663	0	0.1
664	0	0.1
665	0	0.1
666	0	0.1
667	0	0.1
668	0	0.1
669	0	0.1
670	0	0.1
671	0	0.0666667
672	0	0.0666667
673	0	0.0666667
674	0	0.0666667
675	0	0.0666667
676	0	0.0666667
677	0	0.0666667
678	0	0.0666667
679	0	0.0666667
680	0	0.0666667
681	0	0.0666667
682	0	0.0666667
683	0	0.0666667
684	0	0.0666667
685	0	0.0666667
686	0	0.0666667
687	0	0.0666667
688	0	0.0666667
689	0	0.0666667
690	0	0.0666667
691	0	0.0666667
692	0	0.047619
693	0	0.047619
694	0	0.047619
695	0	0.047619
696	0	0.047619
697	0	0.047619
698	0	0.047619
699	0	0.047619
700	0	0.047619
701	0	0.047619
702	0	0.047619
703	0	0.047619
704	0	0.047619
705	0	0.047619
706	0	0.047619
707	0	0.047619
708	0	0.047619
709	0	0.047619
710	0	0.047619
711	0	0.107143
712	0	0.107143
713	0	0.107143
714	0	0.107143
715	0	0.107143
716	0	0.107143
717	0	0.107143
718	0	0.107143
719	0	0.107143
720	0	0.107143
721	0	0.107143
722	0	0.107143
723	0	0.107143
724	0	0.107143
725	0	0.107143
726	0	0.107143
727	0	0.107143
728	0	0.107143
729	0	0.107143
730	0	0.107143
731	0	0.107143
732	0	0.107143
733	0	0.107143
734	0	0.107143
735	0	0.107143
736	0	0.107143
737	0	0.107143
738	0	0.107143
739	0	0.107143
740	0	0.107143
741	0	0.107143
742	0	0.107143
743	0	0.107143
744	0	0.107143
745	0	0.107143
746	0	0.107143
747	0	0.107143
748	0	0.107143
749	0	0.107143
750	0	0.107143
751	0	0.107143
752	0	0.107143
753	0	0.107143
754	0	0.107143
755	0	0.107143
756	0	0.107143
757	0	0.107143
758	0	0.107143
759	0	0.107143
760	0	0.107143
761	0	0.107143
762	0	0.107143
763	0	0.107143
764	0	0.107143
765	0	0.107143
766	0	0.107143
767	0	0.107143
768	0	0.107143
769	0	0.107143
770	0	0.107143
771	0	0.107143
772	0	0.107143
773	0	0.107143
774	0	0.107143
775	0	0.107143
776	0	0.107143
777	0	0.107143
778	0	0.107143
779	0	0.107143
780	0	0.107143
781	0	0.107143
782	0	0.107143
783	0	0.107143
784	0	0.107143
785	0	0.107143
786	0	0.107143
787	0	0.107143
788	0	0.107143
789	0	0.107143
790	0	0.107143
791	0	0.107143
792	0	0.107143
793	0	0.107143
794	0	0.107143
795	0	0.107143
796	0	0.107143
797	0	0.107143
798	0	0.107143
799	0	0.107143
800	0	0.107143
801	0	0.107143
802	0	0.107143
803	0	0.107143
804	0	0.107143
805	0	0.107143
806	0	0.107143
807	0	0.107143
808	0	0.107143
809	0	0.107143
810	0	0.107143
811	0	0.107143
812	0	0.107143
813	0	0.107143
814	0	0.107143
815	0	0.107143
816	0	0.107143
817	0	0.107143
818	0	0.107143
819	0	0.107143
820	0	0.107143
821	0	0.107143
822	0	0.107143
823	0	0.107143
824	0	0.107143
825	0	0.107143
826	0	0.107143
827	0	0.107143
828	0	0.107143
829	0	0.107143
830	0	0.107143
831	0	0.107143
832	0	0.107143
833	0	0.107143
834	0	0.107143
835	0	0.107143
836	0	0.107143
837	0	0.107143
838	0	0.107143
839	0	0.107143
840	0	0.107143
841	0	0.107143
842	0	0.107143
843	0	0.107143
844	0	0.107143
845	0	0.107143
846	0	0.107143
847	0	0.107143
848	0	0.107143
849	0	0.0833333
850	0	0.0833333
851	0	0.0833333
852	0	0.0666667
853	0	0.0666667
854	0	0.0666667
855	0	0.0666667
856	0	0.0666667
857	0	0.0666667
858	0	0.0666667
859	0	0.0666667
860	0	0.0666667
861	0	0.0666667
862	0	0.0666667
863	0	0.0666667
864	0	0.0666667
865	0	0.0666667
866	0	0.0545455
867	0	0.0545455
868	0	0.0545455
869	0	0.0545455
870	0	0.0545455
871	0	0.0545455
872	0	0.0545455
873	0	0.0545455
874	0	0.0384615
875	0	0.0384615
876	0	0.032967
877	0	0.032967
878	0	0.032967
879	0	0.032967
880	0	0.0285714
881	0	0.0285714
882	0	0.025
883	0	0.025
884	0	0.025
885	0	0.025
886	0	0.025
887	0	0.025
888	0	0.025
889	0	0.025
890	0	0.025
891	0	0.025
892	0	0.0220588
893	0	0.0220588
894	0	0.0233918
895	0	0.0210526
896	0	0.0210526
897	0	0.0210526
898	0	0.0210526
899	0	0.0210526
900	0	0.0210526
901	0	0.0210526
902	0	0.0210526
903	0	0.0210526
904	0	0.0210526
905	0	0.0263158
906	0	0.0210526
907	0	0.0210526
908	0	0.0210526
909	0	0.0210526
910	0	0.0210526
911	0	0.0190476
912	0	0.0190476
913	0	0.0190476
914	0	0.0190476
915	0	0.0190476
916	0	0.0190476
917	0	0.0190476
918	0	0.0190476
919	0	0.0190476
920	0	0.0190476
921	0	0.0285714
922	0	0.0285714
923	0	0.0285714
924	0	0.0285714
925	0	0.0285714
926	0	0.0285714
927	0	0.0285714
928	0	0.0285714
929	0	0.0285714
930	0	0.0285714
931	0	0.0285714
932	0	0.0285714
933	0	0.0285714
934	0	0.0285714
935	0	0.0285714
936	0	0.0285714
937	0	0.0285714
938	0	0.0285714
939	0	0.0285714
940	0	0.0285714
941	0	0.0285714
942	0	0.0285714
943	0	0.0285714
944	0	0.0285714
945	0	0.0285714
946	0	0.0285714
947	0	0.0333333
948	0	0.0333333
949	0	0.0333333
950	0	0.0333333
951	0	0.030303
952	0	0.030303
953	0	0.030303
954	0	0.030303
955	0	0.030303
956	0	0.030303
957	0	0.030303
958	0	0.030303
959	0	0.030303
960	0	0.030303
961	0	0.030303
962	0	0.030303
963	0	0.030303
964	0	0.030303
965	0	0.030303
966	0	0.030303
967	0	0.030303
968	0	0.030303
969	0	0.038961
970	0	0.038961
971	0	0.038961
972	0	0.038961
973	0	0.038961
974	0	0.038961
975	0	0.038961
976	0	0.038961
977	0	0.038961
978	0	0.038961
979	0	0.038961
980	0	0.038961
981	0	0.038961
982	0	0.038961
983	0	0.0519481
984	0	0.0519481
985	0	0.0519481
986	0	0.0519481
987	0	0.0519481
988	0	0.0519481
989	0	0.0519481
990	0	0.0519481
991	0	0.0519481
992	0	0.0519481
993	0	0.0519481
994	0	0.0519481
995	0	0.0519481
996	0	0.0692641
997	0	0.0692641
998	0	0.0692641
999	0	0.0692641
1000	0	0.0632411
1001	0	0.057971
1002	0	0.057971
1003	0	0.057971
1004	0	0.057971
1005	0	0.057971
1006	0	0.057971
1007	0	0.057971
1008	0	0.057971
1009	0	0.057971
1010	0	0.057971
1011	0	0.057971
1012	0	0.057971
1013	0	0.057971
1014	0	0.057971
1015	0	0.057971
1016	0	0.057971
1017	0	0.057971
1018	0	0.057971
1019	0	0.0533333
1020	0	0.0533333
1021	0	0.0533333
1022	0	0.0533333
1023	0	0.07
1024	0	0.07
1025	0	0.07
1026	0	0.07
1027	0	0.07
1028	0	0.07
1029	0	0.07
1030	0	0.07
1031	0	0.07
1032	0	0.0733333
1033	0	0.0733333
1034	0	0.0733333
1035	0	0.0733333
1036	0	0.0566667
1037	0	0.0566667
1038	0	0.0566667
1039	0	0.0566667
1040	0	0.0523077
1041	0	0.0523077
1042	0	0.0523077
1043	0	0.0523077
1044	0	0.0523077
1045	0	0.0523077
1046	0	0.0523077
1047	0	0.0523077
1048	0	0.0523077
1049	0	0.0523077
1050	0	0.0523077
1051	0	0.0523077
1052	0	0.0523077
1053	0	0.0523077
1054	0	0.0523077
1055	0	0.0523077
1056	0	0.0523077
1057	0	0.0523077
1058	0	0.0523077
1059	0	0.0523077
1060	0	0.0523077
1061	0	0.0584615
1062	0	0.0584615
1063	0	0.0584615
1064	0	0.0584615
1065	0	0.0584615
1066	0	0.0584615
1067	0	0.0584615
1068	0	0.0584615
1069	0	0.0523077
1070	0	0.0523077
1071	0	0.0523077
1072	0	0.0523077
1073	0	0.0523077
1074	0	0.048433
1075	0	0.048433
1076	0	0.0449735
1077	0	0.0449735
1078	0	0.0449735
1079	0	0.0449735
1080	0	0.0449735
1081	0	0.0529101
1082	0	0.0529101
1083	0	0.0529101
1084	0	0.0529101
1085	0	0.0529101
1086	0	0.0492611
1087	0	0.0451613
1088	0	0.0494624
1089	0	0.0451613
1090	0	0.0451613
1091	0	0.0451613
1092	0	0.0451613
1093	0	0.0451613
1094	0	0.0451613
1095	0	0.0451613
1096	0	0.0451613
1097	0	0.0451613
1098	0	0.0473118
1099	0	0.0473118
1100	0	0.0473118
1101	0	0.0451613
1102	0	0.0451613
1103	0	0.0451613
1104	0	0.0451613
1105	0	0.0451613
1106	0	0.0423387
1107	0	0.0416667
1108	0	0.0416667
1109	0	0.0386555
1110	0	0.0380952
1111	0	0.036036
1112	0	0.0284495
1113	0	0.0283401
1114	0	0.0283401
1115	0	0.0269231
1116	0	0.0269231
1117	0	0.0269231
1118	0	0.0230769
1119	0	0.0230769
1120	0	0.0230769
1121	0	0.0219512
1122	0	0.0212121
1123	0	0.0232323
1124	0	0.0232323
1125	0	0.0258824
1126	0	0.0258824
1127	0	0.0258824
1128	0	0.027451
1129	0	0.0305882
1130	0	0.0305882
1131	0	0.0263952
1132	0	0.025641
1133	0	0.025641
1134	0	0.0248869
1135	0	0.0248869
1136	0	0.0248869
1137	0	0.0241327
1138	0	0.0241327
1139	0	0.0248869
1140	0	0.025641
1141	0	0.0248869
1142	0	0.0239478
1143	0	0.0239478
1144	0	0.0239478
1145	0	0.0239478
1146	0	0.0239478
1147	0	0.0239478
1148	0	0.0237596
1149	0	0.0244584
1150	0	0.022362
1151	0	0.0207792
1152	0	0.019287
1153	0	0.0181181
1154	0	0.0175336
1155	0	0.0158646
1156	0	0.0163934
1157	0	0.0190375
1158	0	0.0182692
1159	0	0.0201923
1160	0	0.0201923
1161	0	0.0205128
1162	0	0.0197183
1163	0	0.0169369
1164	0	0.0177717
1165	0	0.0174646
1166	0	0.0184874
1167	0	0.023088
1168	0	0.0225743
1169	0	0.0240791
1170	0	0.0273561
1171	0	0.0262382
1172	0	0.0289133
1173	0	0.0282554
1174	0	0.0298404
1175	0	0.0332634
1176	0	0.037226
1177	0	0.0459906
1178	0	0.0505177
1179	0	0.0569389
1180	0	0.0926407
1181	0	0.110697
1182	0	0.113448
1183	0	0.119326
1184	0	0.135211
1185	0	0.209233
1186	0	0.208537
1187	0	0.214718
1188	0	0.216183
1189	0	0.206045
1190	0	0.294133
1191	0	0.336261
1192	0	0.330051
1193	0	0.331257
1194	0	0.319238
1195	0	0.333333
1196	0	0.333333
1197	0	0.333333
1198	0	0.333333
1199	0	0.333333
1200	0	0.333333
1201	0	0.333333
1202	0	0.333333
1203	0	0.333333
1204	0	0.333333
1205	0	0.333333
1206	0	0.333333
1207	0	0.333333
1208	0	0.333333
1209	0	0.333333
1210	0	0.166667
1211	0	0.166667
1212	0	0.166667
1213	0	0.166667
1214	0	0.166667
1215	0	0.166667
1216	0	0.166667
1217	0	0.333333
1218	0	0.333333
1219	0	0.333333
1220	0	0.333333
1221	0	0.333333
1222	0	0.333333
1223	0	0.333333
1224	0	0.333333
1225	0	0.333333
1226	0	0.333333
1227	0	0.333333
1228	0	0.333333
1229	0	0.333333
1230	0	0.333333
1231	0	0.333333
1232	0	0.333333
1233	0	0.333333
1234	0	0.333333
1235	0	0.333333
1236	0	0.333333
1237	0	0.333333
1238	0	0.333333
1239	0	0.333333
1240	0	0.333333
1241	0	0.333333
1242	0	0.333333
1243	0	0.333333
1244	0	0.333333
1245	0	0.333333
1246	0	0.333333
1247	0	0.333333
1248	0	0.333333
1249	0	0.333333
1250	0	0.333333
1251	0	0.333333
1252	0	0.333333
1253	0	0.333333
1254	0	0.333333
1255	0	0.333333
1256	0	0.333333
1257	0	0.333333
1258	0	0.333333
1259	0	0.333333
1260	0	0.333333
1261	0	0.333333
1262	0	0.333333
1263	0	0.333333
1264	0	0.333333
1265	0	0.333333
1266	0	0.166667
1267	0	0.333333
1268	0	0.333333
1269	0	0.333333
1270	0	0.333333
1271	0	0.333333
1272	0	0.333333
1273	0	0.333333
1274	0	0.333333
1275	0	0.333333
1276	0	0.333333
1277	0	0.333333
1278	0	0.333333
1279	0	0.333333
1280	0	0.333333
1281	0	0.333333
1282	0	0.333333
1283	0	0.333333
1284	0	0.333333
1285	0	0.333333
1286	0	0.333333
1287	0	0.333333
1288	0	0.333333
1289	0	0.333333
1290	0	0.333333
1291	0	0.333333
1292	0	0.333333
1293	0	0.333333
1294	0	0.333333
1295	0	0.333333
1296	0	0.333333
1297	0	0.333333
1298	0	0.333333
1299	0	0.333333
1300	0	0.333333
1301	0	0.333333
1302	0	0.333333
1303	0	0.333333
1304	0	0.333333
1305	0	0.333333
1306	0	0.333333
1307	0	0.333333
1308	0	0.333333
1309	0	0.333333
1310	0	0.333333
1311	0	0.333333
1312	0	0.333333
1313	0	0.333333
1314	0	0.333333
1315	0	0.333333
1316	0	0.333333
1317	0	0.333333
1318	0	0.333333
1319	0	0.333333
1320	0	0.333333
1321	0	0.333333
1322	0	0.333333
1323	0	0.333333
1324	0	0.333333
1325	0	0.333333
1326	0	0.333333
1327	0	0.333333
1328	0	0.333333
1329	0	0.333333
1330	0	0.333333
1331	0	0.333333
1332	0	0.333333
1333	0	0.333333
1334	0	0.333333
1335	0	0.333333
1336	0	0.333333
1337	0	0.333333
1338	0	0.333333
1339	0	0.333333
1340	0	0.333333
1341	0	0.333333
1342	0	0.333333
1343	0	0.166667
1344	0	0.166667
1345	0	0.166667
1346	0	0.333333
1347	0	0.333333
1348	0	0.333333
1349	0	0.333333
1350	0	0.333333
1351	0	0.333333
1352	0	0.333333
1353	0	0.333333
1354	0	0.333333
1355	0	0.333333
1356	0	0.333333
1357	0	0.333333
1358	0	0.333333
1359	0	0.333333
1360	0	0.333333
1361	0	0.333333
1362	0	0.333333
1363	0	0.2
1364	0	0.2
1365	0	0.2
1366	0	0.2
1367	0	0.2
1368	0	0.2
1369	0	0.2
1370	0	0.2
1371	0	0.2
1372	0	0.2
1373	0	0.2
1374	0	0.2
1375	0	0.2
1376	0	0.2
1377	0	0.2
1378	0	0.2
1379	0	0.2
1380	0	0.2
1381	0	0.2
1382	0	0.2
1383	0	0.2
1384	0	0.2
1385	0	0.2
1386	0	0.2
1387	0	0.2
1388	0	0.2
1389	0	0.2
1390	0	0.2
1391	0	0.2
1392	0	0.2
1393	0	0.2
1394	0	0.2
1395	0	0.2
1396	0	0.2
1397	0	0.2
1398	0	0.2
1399	0	0.2
1400	0	0.2
1401	0	0.2
1402	0	0.2
1403	0	0.2
1404	0	0.2
1405	0	0.2
1406	0	0.2
1407	0	0.2
1408	0	0.2
1409	0	0.2
1410	0	0.2
1411	0	0.2
1412	0	0.2
1413	0	0.2
1414	0	0.1
1415	0	0.1
1416	0	0.1
1417	0	0.1
1418	0	0.0666667
1419	0	0.0666667
1420	0	0.0666667
1421	0	0.0666667
1422	0	0
1423	0	0
1424	0	0.0666667
1425	0	0.0666667
1426	0	0.0666667
1427	0	0.0666667
1428	0	0.0666667
1429	0	0.0666667
1430	0	0.0666667
1431	0	0.0666667
1432	0	0.176185
1433	0	0.161905
1434	0	0.181818
1435	0	0.181818
1436	0	0.186688
1437	0	0.129065
1438	0	0.0666667
1439	0	0.0666667
1440	0	0.0666667
1441	0	0.0666667
1442	0	0.0666667
1443	0	0.0666667
1444	0	0.0666667
1445	0	0.0666667
1446	0	0.0888889
1447	0	0.111111
1448	0	0.294608
1449	0	0.111111
1450	0	0.111111
1451	0	0.111111
1452	0	0.111111
1453	0	0.111111
1454	0	0.111111
1455	0	0.111111
1456	0	0.0888889
1457	0	0.0888889
1458	0	0.107143
1459	0	0.142857
1460	0	0.142857
1461	0	0.142857
1462	0	0.2
1463	0	0.2
1464	0	0.2
1465	0	0.2
1466	0	0.2
1467	0	0.2
1468	0	0.2
1469	0	0.2
1470	0	0.2
1471	0	0.2
1472	0	0.2
1473	0	0.2
1474	0	0.2
1475	0	0.2
1476	0	0.2
1477	0	0.2
1478	0	0.2
1479	0	0.2
1480	0	0.2
1481	0	0.2
1482	0	0.2
1483	0	0.3
1484	0	0.3
1485	0	0.3
1486	0	0.3
1487	0	0.2
1488	0	0.2
1489	0	0.2
1490	0	0.2
1491	0	0.2
1492	0	0.2
1493	0	0.2
1494	0	0.2
1495	0	0.2
1496	0	0.2
1497	0	0.2
1498	0	0.2
1499	0	0.2
1500	0	0.2
1501	0	0.2
1502	0	0.2
1503	0	0.2
1504	0	0.2
1505	0	0.2
1506	0	0.2
1507	0	0.2
1508	0	0.2
1509	0	0.2
1510	0	0.2
1511	0	0.2
1512	0	0.2
1513	0	0.2
1514	0	0.2
1515	0	0.2
1516	0	0.2
1517	0	0.2
1518	0	0.2
1519	0	0.2
1520	0	0.2
1521	0	0.2
1522	0	0.2
1523	0	0.2
1524	0	0.2
1525	0	0.2
1526	0	0.2
1527	0	0.2
1528	0	0.2
1529	0	0.2
1530	0	0.2
1531	0	0.2
1532	0	0.2
1533	0	0.2
1534	0	0.2
1535	0	0.2
1536	0	0.2
1537	0	0.2
1538	0	0.2
1539	0	0.2
1540	0	0.2
1541	0	0.2
1542	0	0.3
1543	0	0.3
1544	0	0.3
1545	0	0.3
1546	0	0.3
1547	0	0.3
1548	0	0.3
1549	0	0.3
1550	0	0.3
1551	0	0.3
1552	0	0.3
1553	0	0.3
1554	0	0.3
1555	0	0.3
1556	0	0.3
1557	0	0.3
1558	0	0.3
1559	0	0.3
1560	0	0.3
1561	0	0.3
1562	0	0.3
1563	0	0.3
1564	0	0.3
1565	0	0.3
1566	0	0.3
1567	0	0.3
1568	0	0.3
1569	0	0.3
1570	0	0.3
1571	0	0.3
1572	0	0.3
1573	0	0.3
1574	0	0.3
1575	0	0.3
1576	0	0.3
1577	0	0.3
1578	0	0.3
1579	0	0.3
1580	0	0.166667
1581	0	0.166667
1582	0	0.166667
1583	0	0.166667
1584	0	0.166667
1585	0	0.166667
1586	0	0.166667
1587	0	0.166667
1588	0	0.166667
1589	0	0.166667
1590	0	0.166667
1591	0	0.166667
1592	0	0.166667
1593	0	0.166667
1594	0	0.166667
1595	0	0.166667
1596	0	0.166667
1597	0	0.166667
1598	0	0.166667
1599	0	0.166667
1600	0	0.166667
1601	0	0.166667
1602	0	0.166667
1603	0	0.166667
1604	0	0.166667
1605	0	0.166667
1606	0	0.166667
1607	0	0.166667
1608	0	0.166667
1609	0	0.166667
1610	0	0.166667
1611	0	0.166667
1612	0	0.166667
1613	0	0.166667
1614	0	0.166667
1615	0	0.166667
1616	0	0.166667
1617	0	0.166667
1618	0	0.166667
1619	0	0.166667
1620	0	0.166667
1621	0	0.166667
1622	0	0.166667
1623	0	0.166667
1624	0	0
1625	0	0
1626	0	0
1627	0	0.374269
1628	0	0.654545
1629	0	0.654545
1630	0	0.21903
1631	0	0.28286
1632	0	0.344959
1633	0	0
1634	0	0
1635	0	0
1636	0	0
1637	0	0
1638	0	0
1639	0	0
1640	0	0
1641	0	0
1642	0	0
1643	0	0
1644	0	0
1645	0	0
1646	0	0
1647	0	0
1648	0	0
1649	0	0
1650	0	0
1651	0	0
1652	0	0
1653	0	0
1654	0	0
1655	0	0
1656	0	0
1657	0	0
1658	0	0
1659	0	0
1660	0	0
1661	0	0
1662	0	0
1663	0	0
1664	0	0
1665	0	0
1666	0	0
1667	0	0
1668	0	0
1669	0	0
1670	0	0
1671	0	0
1672	0	0
1673	0	0
1674	0	0
1675	0	0
1676	0	0
1677	0	0
1678	0	0
1679	0	0
1680	0	0
1681	0	0
1682	0	0
1683	0	0
1684	0	0
1685	0	0
1686	0	0
1687	0	0
1688	0	0
1689	0	0
1690	0	0
1691	0	0
1692	0	0
1693	0	0
1694	0	0
1695	0	0
1696	0	0
1697	0	0
1698	0	0
1699	0	0
1700	0	0
1701	0	0
1702	0	0
1703	0	0
1704	0	0
1705	0	0
1706	0	0
1707	0	0
1708	0	0
1709	0	0
1710	0	0
1711	0	0
1712	0	0
1713	0	0
1714	0	0
1715	0	0
1716	0	0
1717	0	0
1718	0	0
1719	0	0
1720	0	0
1721	0	0
1722	0	0
1723	0	0
1724	0	0
1725	0	0
1726	0	0
1727	0	0
1728	0	0
1729	0	0
1730	0	0
1731	0	0
1732	0	0
1733	0	0
1734	0	0
1735	0	0
1736	0	0
1737	0	0
1738	0	0
1739	0	0
1740	0	0
1741	0	0
1742	0	0
1743	0	0
1744	0	0
1745	0	0
1746	0	0
1747	0	0
1748	0	0
1749	0	0
1750	0	0
1751	0	0
1752	0	0
1753	0	0
1754	0	0
1755	0	0
1756	0	0
1757	0	0
1758	0	0
1759	0	0
1760	0	0
1761	0	0
1762	0	0
1763	0	0
1764	0	0
1765	0	0
1766	0	0.324324
1767	0	0.484211
1768	0	0.662338
1769	0	0.540077
1770	0	0.277778
1771	0	0.277778
1772	0	0
1773	0	0
1774	0	0
1775	0	0
1776	0	0
1777	0	0
1778	0	0
1779	0	0
1780	0	0
1781	0	0
1782	0	0
1783	0	0
1784	0	0
1785	0	0
1786	0	0
1787	0	0
1788	0	0
1789	0	0
1790	0	0
1791	0	0
1792	0	0
1793	0	0
1794	0	0
1795	0	0.142857
1796	0	0.142857
1797	0	0.142857
1798	0	0.142857
1799	0	0.142857
1800	0	0.142857
1801	0	0.0833333
1802	0	0.0833333
1803	0	0.111111
1804	0	0.111111
1805	0	0.111111
1806	0	0.111111
1807	0	0.142857
1808	0	0.142857
1809	0	0.142857
1810	0	0.142857
1811	0	0.142857
1812	0	0.142857
1813	0	0.729924
1814	0	0.728455
1815	0	0.267692
1816	0	0.332016
1817	0	0.733193
1818	0	0.166667
1819	0	0.166667
1820	0	0.166667
1821	0	0.166667
1822	0	0.166667
1823	0	0.166667
1824	0	0.166667
1825	0	0.166667
1826	0	0.166667
1827	0	0.166667
1828	0	0.166667
1829	0	0.166667
1830	0	0.166667
1831	0	0.166667
1832	0	0.166667
1833	0	0.2
1834	0	0.2
1835	0	0.2
1836	0	0.2
1837	0	0.2
1838	0	0.2
1839	0	0.2
1840	0	0.2
1841	0	0.2
1842	0	0.2
1843	0	0.2
1844	0	0.2
1845	0	0.2
1846	0	0
1847	0	0
1848	0	0
1849	0	0
1850	0	0
1851	0	0
1852	0	0
1853	0	0
1854	0	0
1855	0	0
1856	0	0
1857	0	0
1858	0	0
1859	0	0
1860	0	0
1861	0	0
1862	0	0
1863	0	0
1864	0	0
1865	0	0
1866	0	0
1867	0	0
1868	0	0
1869	0	0
1870	0	0
1871	0	0
1872	0	0
1873	0	0
1874	0	0
1875	0	0
1876	0	0
1877	0	0
1878	0	0
1879	0	0
1880	0	0
1881	0	0
1882	0	0
1883	0	0
1884	0	0
1885	0	0
1886	0	0
1887	0	0
1888	0	0
1889	0	0
1890	0	0
1891	0	0
1892	0	0
1893	0	0
1894	0	0
1895	0	0
1896	0	0
1897	0	0
1898	0	0
1899	0	0
1900	0	0
1901	0	0
1902	0	0
1903	0	0
1904	0	0
1905	0	0
1906	0	0
1907	0	0
1908	0	0
1909	0	0
1910	0	0
1911	0	0
1912	0	0
1913	0	0
1914	0	0
1915	0	0
1916	0	0
1917	0	0
1918	0	0
1919	0	0
1920	0	0
1921	0	0
1922	0	0
1923	0	0
1924	0	0
1925	0	0
1926	0	0
1927	0	0
1928	0	0
1929	0	0.764729
1930	0	0.6
1931	0	0.6
1932	0	0.6
1933	0	0.2
1934	0	0.2
1935	0	0.75999
1936	0	0
1937	0	0
1938	0	0
1939	0	0
1940	0	0
1941	0	0
1942	0	0
1943	0	0
1944	0	0
1945	0	0
1946	0	0
1947	0	0
1948	0	0
1949	0	0
1950	0	0
1951	0	0
1952	0	0
1953	0	0
1954	0	0
1955	0	0
1956	0	0
1957	0	0
1958	0	0
1959	0	0
1960	0	0
1961	0	0
1962	0	0
1963	0	0
1964	0	0
1965	0	0
1966	0	0
1967	0	0
1968	0	0
1969	0	0
1970	0	0
1971	0	0
1972	0	0
1973	0	0
1974	0	0
1975	0	0
1976	0	0
1977	0	0
1978	0	0
1979	0	0
1980	0	0
1981	0	0
1982	0	0
1983	0	0
1984	0	0
1985	0	0
1986	0	0
1987	0	0.918451
1988	0	0.91846
1989	0	0
1990	0	0
1991	0	0
1992	0	0
1993	0	0
1994	0	0
1995	0	0
1996	0	0
1997	0	0
1998	0	0
1999	0	0
2000	0	0
2001	0	0
2002	0	0
2003	0	0.2
2004	0	0.2
2005	0	0.2
2006	0	0.2
2007	0	0.2
2008	0	0.2
2009	0	0.2
2010	0	0.2
2011	0	0.2
2012	0	0.2
2013	0	0.2
2014	0	0.2
2015	0	0.2
2016	0	0.2
2017	0	0.2
2018	0	0.2
2019	0	0.2
2020	0	0.2
2021	0	0.2
2022	0	0.2
2023	0	0.2
2024	0	0.2
2025	0	0.2
2026	0	0.2
2027	0	0.2
2028	0	0.2
2029	0	0.2
2030	0	0.2
2031	0	0.2
2032	0	0.2
2033	0	0.2
2034	0	0.2
2035	0	0.2
2036	0	0.2
2037	0	0.2
2038	0	0.2
2039	0	0.2
2040	0	0.2
2041	0	0.2
2042	0	0.2
2043	0	0.2
2044	0	0.2
2045	0	0.2
2046	0	0.2
2047	0	0.2
2048	0	0.2
2049	0	0.2
2050	0	0.2
2051	0	0.2
2052	0	0.2
2053	0	0.2
2054	0	0.2
2055	0	0.2
2056	0	0.2
2057	0	0.2
2058	0	0.2
2059	0	0.2
2060	0	0.850828
2061	0	0.390769
2062	0	0.452381
2063	0	0.190476
2064	0	0.190476
2065	0	0.190476
2066	0	0.3
2067	0	0.3
2068	0	0.3
2069	0	0.3
2070	0	0.3
2071	0	0.3
2072	0	0.3
2073	0	0.3
2074	0	0.3
2075	0	0.3
2076	0	0.3
2077	0	0.3
2078	0	0.3
2079	0	0.3
2080	0	0.3
2081	0	0.3
2082	0	0.3
2083	0	0
2084	0	0
2085	0	0.711171
2086	0	1
2087	0	1
2088	0	1
2089	0	1
2090	0	1
2091	0	1
2092	0	1
2093	0	1
2094	0	1
2095	0	1
2096	0	1
2097	0	1
2098	0	1
2099	0	1
2100	0	1
2101	0	1
2102	0	1
2103	0	1
2104	0	1
2105	0	1
2106	0	1
2107	0	1
2108	0	1
2109	0	1
2110	0	1
2111	0	1
2112	0	1
2113	0	1
2114	0	1
2115	0	1
2116	0	1
2117	0	1
2118	0	1
2119	0	1
2120	0	1
2121	0	1
2122	0	1
2123	0	1
2124	0	1
2125	0	1
2126	0	1
2127	0	1
2128	0	1
2129	0	1
2130	0	1
2131	0	1
2132	0	1
2133	0	0.5
2134	0	0.5
2135	0	0.5
2136	0	0.5
2137	0	0.5
2138	0	0.5
2139	0	0.5
2140	0	0.5
2141	0	0.5
2142	0	0.5
2143	0	0.5
2144	0	0.5
2145	0	0.5
2146	0	0.288889
2147	0	0.901502
2148	0	0.252632
2149	0	0.22807
2150	0	0.227941
2151	0	0.202614
2152	0	0.202614
2153	0	0.202614
2154	0	0.0857143
2155	0	0.0857143
2156	0	0.0857143
2157	0	0.0457516
2158	0	0.0588235
2159	0	0.0661765
2160	0	0.0661765
2161	0	0.0631579
2162	0	0.0571429
2163	0	0.0761905
2164	0	0.0761905
2165	0	0.0761905
2166	0	0.0761905
2167	0	0.0571429
2168	0	0.0571429
2169	0	0.0666667
2170	0	0.0571429
2171	0	0.0666667
2172	0	0.0952381
2173	0	0.413699
2174	0	0.207661
2175	0	0.221505
2176	0	0.498575
2177	0	0.498575
2178	0	0.397849
2179	0	0.383065
2180	0	0.574857
2181	0	0.236667
2182	0	0.162055
2183	0	0.138528
2184	0	0.0649351
2185	0	0.0653595
2186	0	0.0571429
2187	0	0.0659341
2188	0	0.043956
2189	0	0.043956
2190	0	0.043956
2191	0	0.0512821
2192	0	0.0384615
2193	0	0.0454545
2194	0	0.0454545
2195	0	0.0454545
2196	0	0.0454545
2197	0	0.0545455
2198	0	0.0666667
2199	0	0.0833333
2200	0	0.0833333
2201	0	0.0833333
2202	0	0.0833333
2203	0	0.0833333
2204	0	0.107143
2205	0	0.107143
2206	0	0.107143
2207	0	0.107143
2208	0	0.107143
2209	0	0.107143
2210	0	0.107143
2211	0	0.107143
2212	0	0.107143
2213	0	0.107143
2214	0	0.107143
2215	0	0.142857
2216	0	0.142857
2217	0	0.142857
2218	0	0.142857
2219	0	0.142857
2220	0	0.142857
2221	0	0.142857
2222	0	0.142857
2223	0	0.142857
2224	0	0.142857
2225	0	0.142857
2226	0	0.142857
2227	0	0.142857
2228	0	0.142857
2229	0	0.142857
2230	0	0.142857
2231	0	0.142857
2232	0	0.142857
2233	0	0.142857
2234	0	0.142857
2235	0	0.142857
2236	0	0.142857
2237	0	0.142857
2238	0	0.142857
2239	0	0.142857
2240	0	0.142857
2241	0	0.142857
2242	0	0.142857
2243	0	0.142857
2244	0	0.142857
2245	0	0.142857
2246	0	0.142857
2247	0	0.142857
2248	0	0.142857
2249	0	0.142857
2250	0	0.142857
2251	0	0.142857
2252	0	0.142857
2253	0	0.142857
2254	0	0.142857
2255	0	0.142857
2256	0	0.142857
2257	0	0.142857
2258	0	0.142857
2259	0	0.142857
2260	0	0.142857
2261	0	0.0833333
2262	0	0.0833333
2263	0	0.0833333
2264	0	0.0833333
2265	0	0.0833333
2266	0	0.0833333
2267	0	0.0833333
2268	0	0.0833333
2269	0	0.107143
2270	0	0.107143
2271	0	0.107143
2272	0	0.107143
2273	0	0.107143
2274	0	0.107143
2275	0	0.107143
2276	0	0.107143
2277	0	0.142857
2278	0	0.142857
2279	0	0.142857
2280	0	0.142857
2281	0	0.142857
2282	0	0.142857
2283	0	0.142857
2284	0	0.142857
2285	0	0.142857
2286	0	0.142857
2287	0	0.142857
2288	0	0.142857
2289	0	0.142857
2290	0	0.142857
2291	0	0.142857
2292	0	0.142857
2293	0	0.142857
2294	0	0.142857
2295	0	0.142857
2296	0	0.142857
2297	0	0.142857
2298	0	0.142857
2299	0	0.142857
2300	0	0.142857
2301	0	0.142857
2302	0	0.142857
2303	0	0.142857
2304	0	0.142857
2305	0	0.142857
2306	0	0.142857
2307	0	0.142857
2308	0	0.142857
2309	0	0.142857
2310	0	0.142857
2311	0	0.142857
2312	0	0.142857
2313	0	0.142857
2314	0	0.142857
2315	0	0.142857
2316	0	0.142857
2317	0	0.142857
2318	0	0.142857
2319	0	0.142857
2320	0	0.142857
2321	0	0.142857
2322	0	0.142857
2323	0	0.142857
2324	0	0.142857
2325	0	0.142857
2326	0	0.142857
2327	0	0.142857
2328	0	0.142857
2329	0	0.142857
2330	0	0.142857
2331	0	0.142857
2332	0	0.142857
2333	0	0.142857
2334	0	0.2
2335	0	0.2
2336	0	0.2
2337	0	0.2
2338	0	0.2
2339	0	0.2
2340	0	0.2
2341	0	0.2
2342	0	0.2
2343	0	0.2
2344	0	0.2
2345	0	0.2
2346	0	0.2
2347	0	0.2
2348	0	0.2
2349	0	0.2
2350	0	0.3
2351	0	0.3
2352	0	0.3
2353	0	0.3
2354	0	0.3
2355	0	0.3
2356	0	0.3
2357	0	0.3
2358	0	0
2359	0	0
2360	0	0
2361	0	0
2362	0	0
2363	0	0
2364	0	0
2365	0	0
2366	0	0
2367	0	0
2368	0	0
2369	0	0
2370	0	0
2371	0	0
2372	0	0
2373	0	0
2374	0	0
2375	0	0
2376	0	0
2377	0	0
2378	0	0
2379	0	0
2380	0	0
2381	0	0
2382	0	0
2383	0	0
2384	0	0
2385	0	0
2386	0	0
2387	0	0
2388	0	0
2389	0	0
2390	0	0
2391	0	0
2392	0	0
2393	0	0
2394	0	0
2395	0	0
2396	0	0
2397	0	0
2398	0	0
2399	0	0
2400	0	0
2401	0	0
2402	0	0
2403	0	0
2404	0	0
2405	0	0
2406	0	0
2407	0	0
2408	0	0
2409	0	0
2410	0	0
2411	0	0
2412	0	0
2413	0	0
2414	0	0
2415	0	0
2416	0	0
2417	0	0
2418	0	0
2419	0	0
2420	0	0
2421	0	0
2422	0	0
2423	0	0
2424	0	0
2425	0	0
2426	0	0
2427	0	0
2428	0	0
2429	0	0
2430	0	0
2431	0	0
2432	0	0
2433	0	0
2434	0	0
2435	0	0
2436	0	0
2437	0	0
2438	0	0
2439	0	0
2440	0	0
2441	0	0
2442	0	0
2443	0	0
2444	0	0
2445	0	0
2446	0	0
2447	0	0
2448	0	0
2449	0	0
2450	0	0
2451	0	0
2452	0	0
2453	0	0
2454	0	0
2455	0	0
2456	0	0
2457	0	0
2458	0	0
2459	0	0
2460	0	0
2461	0	0
2462	0	0
2463	0	0
2464	0	0
2465	0	0
2466	0	0
2467	0	0
2468	0	0
2469	0	0
2470	0	0
2471	0	0
2472	0	0
2473	0	0
2474	0	0
2475	0	0
2476	0	0
2477	0	0
2478	0	0
2479	0	0
2480	0	0
2481	0	0
2482	0	0
2483	0	0
2484	0	0
2485	0	0
2486	0	0
2487	0	0
2488	0	0
2489	0	0
2490	0	0
2491	0	0
2492	0	0
2493	0	0
2494	0	0
2495	0	0
2496	0	0
2497	0	0
2498	0	0
2499	0	0
2500	0	0
2501	0	0
2502	0	0
2503	0	0
2504	0	0
2505	0	0
2506	0	0
2507	0	0
2508	0	0
2509	0	0
2510	0	0
2511	0	0
2512	0	0
2513	0	0
2514	0	0
2515	0	0
2516	0	0
2517	0	0
2518	0	0
2519	0	0
2520	0	0
2521	0	0
2522	0	0
2523	0	0
2524	0	0
2525	0	0
2526	0	0
2527	0	0
2528	0	0
2529	0	0
2530	0	0
2531	0	0
2532	0	0
2533	0	0
2534	0	0
2535	0	0
2536	0	0
2537	0	0
2538	0	0
2539	0	0
2540	0	0
2541	0	0
2542	0	0
2543	0	0
2544	0	0
2545	0	0
2546	0	0
2547	0	0
2548	0	0
2549	0	0
2550	0	0
2551	0	0
2552	0	0
2553	0	0
2554	0	0
2555	0	0
2556	0	0
2557	0	0
2558	0	0
2559	0	0
2560	0	0
2561	0	0
2562	0	0
2563	0	0
2564	0	0
2565	0	0
2566	0	0
2567	0	0
2568	0	0
2569	0	0
2570	0	0
2571	0	0
2572	0	0
2573	0	0
2574	0	0
2575	0	0
2576	0	0
2577	0	0
2578	0	0
2579	0	0
2580	0	0
2581	0	0
2582	0	0
2583	0	0
2584	0	0
2585	0	0
2586	0	0
2587	0	0
2588	0	0
2589	0	0
2590	0	0
2591	0	0
2592	0	0
2593	0	0
2594	0	0
2595	0	0
2596	0	0
2597	0	0
2598	0	0
2599	0	0
2600	0	0
2601	0	0
2602	0	0
2603	0	0
2604	0	0
2605	0	0
2606	0	0
2607	0	0
2608	0	0
2609	0	0
2610	0	0
2611	0	0
2612	0	0
2613	0	0
2614	0	0
2615	0	0
2616	0	0
2617	0	0
2618	0	0
2619	0	0
2620	0	0
2621	0	0
2622	0	0
2623	0	0
2624	0	0
2625	0	0
2626	0	0
2627	0	0
2628	0	0
2629	0	0
2630	0	0
2631	0	0
2632	0	0
2633	0	0
2634	0	0
2635	0	0
2636	0	0
2637	0	0
2638	0	0
2639	0	0
2640	0	0
2641	0	0
2642	0	0
2643	0	0
2644	0	0
2645	0	0
2646	0	0
2647	0	0
2648	0	0
2649	0	0
2650	0	0
2651	0	0
2652	0	0
2653	0	0
2654	0	0
2655	0	0
2656	0	0
2657	0	0
2658	0	0
2659	0	0
2660	0	0
2661	0	0
2662	0	0
2663	0	0
2664	0	0
2665	0	0
2666	0	0
2667	0	0
2668	0	0
2669	0	0
2670	0	0
2671	0	0
2672	0	0
2673	0	0
2674	0	0
2675	0	0
2676	0	0
2677	0	0
2678	0	0
2679	0	0
2680	0	0
2681	0	0
2682	0	0
2683	0	0
2684	0	0
2685	0	0
2686	0	0
2687	0	0
2688	0	0
2689	0	0
2690	0	0
2691	0	0
2692	0	0
2693	0	0
2694	0	0
2695	0	0
2696	0	0
2697	0	0
2698	0	0
2699	0	0
2700	0	0
2701	0	0
2702	0	0
2703	0	0
2704	0	0
2705	0	0
2706	0	0
2707	0	0
2708	0	0
2709	0	0
2710	0	0
2711	0	0
2712	0	0
2713	0	0
2714	0	0
2715	0	0
2716	0	0
2717	0	0
2718	0	0
2719	0	0
2720	0	1
2721	0	1
2722	0	1
2723	0	0.804862
2724	0	0
2725	0	0
2726	0	0.333333
2727	0	0.333333
2728	0	0.333333
2729	0	0.333333
2730	0	0.333333
2731	0	0.816165
2732	0	0.980998
2733	0	0.982906
2734	0	0.490982
2735	0	0.501637
2736	0	0.541166
2737	0	0.541166
2738	0	0.919233
2739	0	0
2740	0	0
2741	0	0
2742	0	0
2743	0	0
2744	0	0.923026
2745	0	0
2746	0	0
2747	0	0
2748	0	0
2749	0	0
2750	0	0
2751	0	0
2752	0	0
2753	0	0
2754	0	0
2755	0	0
2756	0	0
2757	0	0
2758	0	0
2759	0	0
2760	0	0
2761	0	0
2762	0	0
2763	0	0
2764	0	0
2765	0	0
2766	0	0
2767	0	0
2768	0	0
2769	0	0
2770	0	0
2771	0	0
2772	0	0
2773	0	0
2774	0	0
2775	0	0
2776	0	0
2777	0	0
2778	0	0
2779	0	0
2780	0	0
2781	0	0
2782	0	0
2783	0	0
2784	0	0
2785	0	0
2786	0	0
2787	0	0
2788	0	0
2789	0	0
2790	0	0
2791	0	0
2792	0	0
2793	0	0
2794	0	0
2795	0	0
2796	0	0
2797	0	0
2798	0	0
2799	0	0
2800	0	0
2801	0	0
2802	0	0
2803	0	0
2804	0	0
2805	0	0
2806	0	0
2807	0	0
2808	0	0
2809	0	0
2810	0	0
2811	0	0
2812	0	0
2813	0	0
2814	0	0
2815	0	0
2816	0	0
2817	0	0
2818	0	0
2819	0	0
2820	0	0
2821	0	0
2822	0	0
2823	0	0
2824	0	0
2825	0	0
2826	0	0
2827	0	0
2828	0	0
2829	0	0
2830	0	0
2831	0	0
2832	0	0
2833	0	0
2834	0	0
2835	0	0
2836	0	0
2837	0	0
2838	0	0
2839	0	0
2840	0	0
2841	0	0
2842	0	0
2843	0	0
2844	0	0
2845	0	0
2846	0	0
2847	0	0
2848	0	0
2849	0	0
2850	0	0
2851	0	0
2852	0	0
2853	0	0
2854	0	0
2855	0	0
2856	0	0
2857	0	0
2858	0	0
2859	0	0
2860	0	0
2861	0	0
2862	0	0
2863	0	0
2864	0	0
2865	0	0
2866	0	0
2867	0	0
2868	0	0
2869	0	0
2870	0	0
2871	0	0
2872	0	0
2873	0	0
2874	0	0
2875	0	0
2876	0	0
2877	0	0
2878	0	0
2879	0	0
2880	0	0
2881	0	0
2882	0	0
2883	0	0
2884	0	0
2885	0	0
2886	0	0
2887	0	0
2888	0	0
2889	0	0
2890	0	0
2891	0	0
2892	0	0
2893	0	0
2894	0	0
2895	0	0
2896	0	0
2897	0	0
2898	0	0
2899	0	0
2900	0	0
2901	0	0
2902	0	0
2903	0	0
2904	0	0
2905	0	0
2906	0	0
2907	0	0
2908	0	0
2909	0	0
2910	0	0
2911	0	0
2912	0	0
2913	0	0
2914	0	0
2915	0	0
2916	0	0
2917	0	0
2918	0	0
2919	0	0
2920	0	0
2921	0	0
2922	0	0
2923	0	0
2924	0	0
2925	0	0
2926	0	0
2927	0	0
2928	0	0
2929	0	0
2930	0	0
2931	0	0
2932	0	0
2933	0	0
2934	0	0
2935	0	0
2936	0	0
2937	0	0
2938	0	0
2939	0	0
2940	0	0
2941	0	0
2942	0	0
2943	0	0
2944	0	0
2945	0	0
2946	0	0
2947	0	0
2948	0	0
2949	0	0
2950	0	0
2951	0	0
2952	0	0
2953	0	0
2954	0	0
2955	0	0
2956	0	0
2957	0	0
2958	0	0
2959	0	0
2960	0	0
2961	0	0
2962	0	0
2963	0	0
2964	0	0
2965	0	0
2966	0	0
2967	0	0
2968	0	0
2969	0	0
2970	0	0
2971	0	0
2972	0	0
2973	0	0
2974	0	0
2975	0	0
2976	0	0
2977	0	0
2978	0	0
2979	0	0
2980	0	0
2981	0	0
2982	0	0
2983	0	0
2984	0	0
2985	0	0
2986	0	0
2987	0	0
2988	0	0
2989	0	0
2990	0	0
2991	0	0
2992	0	0
2993	0	0
2994	0	0
2995	0	0
2996	0	0
2997	0	0
2998	0	0
2999	0	0
3000	0	0
3001	0	0
3002	0	0
3003	0	1
3004	0	1
3005	0	0
3006	0	0
3007	0	1
3008	0	1
3009	0	0.955673
3010	0	0.955673
3011	0	0.955673
3012	0	0.953839
3013	0	0.953839
3014	0	0.953839
3015	0	0
3016	0	0.333333
3017	0	0.333333
3018	0	0.957509
3019	0	0.986907
3020	0	0.986907
3021	0	0.98692
3022	0	0.986907
3023	0	0.985056
3024	0	0
3025	0	0
3026	0	0
3027	0	0
3028	0	0
3029	0	0
3030	0	0
3031	0	0
3032	0	0
3033	0	0
3034	0	0
3035	0	0
3036	0	0
3037	0	0
3038	0	0
3039	0	0
3040	0	0
3041	0	0
3042	0	0.1
3043	0	0.1
3044	0	0.1
3045	0	0.1
3046	0	0.047619
3047	0	0.0357143
3048	0	0.107143
3049	0	0.107143
3050	0	0.305556
3051	0	0.244444
3052	0	0.970315
3053	0	0.333333
3054	0	0.333333
3055	0	0.333333
3056	0	1
3057	0	1
3058	0	1
3059	0	1
3060	0	1
3061	0	0.990651
3062	0	0.990651
3063	0	0.992518
3064	0	0.992518
3065	0	0
3066	0	0
3067	0	0
3068	0	0
3069	0	0
3070	0	0
3071	0	0
3072	0	0
3073	0	0
3074	0	0
3075	0	0.985113
3076	0	0.985113
3077	0	0.985113
3078	0	0.985111
3079	0	1
3080	0	0.910178
3081	0	0.9649
3082	0	1
3083	0	1
3084	0	1
3085	0	1
3086	0	1
3087	0	1
3088	0	1
3089	0	0.998143
3090	0	0.998145
3091	0	1
3092	0	0.998158
3093	1	1
3094	1	1
3095	1	1
3096	1	1
3097	0	1
3098	0	1
3099	1	1
3100	1	1
3101	1	1
3102	0	1
3103	0	1
3104	0	1
3105	0	1
3106	0	1
3107	0	1
3108	0	1
3109	0	1
3110	0	0.998163
3111	0	1
3112	0	0.871264
3113	0	0.645276
3114	0	0.462195
3115	0	0.420819
3116	0	0.327347
3117	0	0.230288
3118	0	0.188732
3119	0	0.179074
3120	0	0.188185
3121	0	0.296118
3122	0	0.290684
3123	0	0.233499
3124	0	0.0965909
3125	0	0.0909091
3126	0	0.0778165
3127	0	0.110276
3128	0	0.102302
3129	0	0.110827
3130	0	0.126543
3131	0	0.230015
3132	0	0.393467
3133	0	0.399184
3134	0	0.588873
3135	0	0.15485
3136	0	0.170175
3137	0	0.165637
3138	0	0.193452
3139	0	0.199327
3140	0	0.206848
3141	0	0.223228
3142	0	0.265546
3143	0	0.188948
3144	0	0.193548
3145	0	0.189655
3146	0	0.196581
3147	0	0.196581
3148	0	0.222222
3149	0	0.206154
3150	0	0.223333
3151	0	0.185714
3152	0	0.0666667
3153	0	0.0761905
3154	0	0.0519481
3155	0	0.0519481
3156	0	0.04
3157	0	0.0398551
3158	0	0.0398551
3159	0	0.0543478
3160	0	0.0736842
3161	0	0.0935673
3162	0	0.0935673
3163	0	0.117647
3164	0	0.141667
3165	0	0.0952381
3166	0	0.0952381
3167	0	0.1
3168	0	0.166667
3169	0	0.1
3170	0	0.333333
3171	0	0.5
3172	0	0.5
3173	0	0.5
3174	0	1
3175	0	1
3176	0	0.467532
3177	0	0.597403
3178	0	0.721053
3179	0	0.721053
3180	0	0.721053
3181	0	0.956047
3182	0	0.166667
3183	0	0.166667
3184	0	0
3185	1	0
3186	1	0
3187	0	0
3188	0	0
3189	0	0
3190	0	0
3191	0	0
3192	0	0
3193	0	0
3194	0	0
3195	0	0
3196	0	0
3197	0	0
3198	0	0
3199	0	0
3200	0	0
3201	0	0
3202	0	0
3203	0	0
3204	0	0
3205	0	0.992674
3206	0	0.992674
3207	0	0.998165
3208	0	0.998165
3209	0	0.998165
3210	0	0.998165
3211	0	0.998165
3212	0	0.998165
3213	0	0
3214	0	0
3215	0	0
3216	0	0
3217	0	0
3218	0	0
3219	0	0
3220	0	0
3221	0	0
3222	0	0
3223	0	0
3224	1	0
3225	1	0
3226	1	0
3227	1	0
3228	1	0
3229	1	0
3230	1	0
3231	1	0
3232	1	0
3233	1	0
3234	1	0
3235	1	0
3236	0	0
3237	0	0
3238	0	0
3239	0	0
3240	0	0
3241	0	0
3242	0	0
3243	0	0
3244	0	0
3245	0	0
3246	0	0
3247	0	0
3248	0	0
3249	0	0.992671
3250	0	0.9945
3251	0	0.9945
3252	0	0.992671
3253	0	0.9945
3254	0	0.9945
3255	0	0.996329
3256	0	0.998162
3257	1	0
3258	0	0.99816
3259	0	0.99816
3260	0	1
3261	0	1
3262	0	0.99816
3263	0	0.99816
3264	0	0.99816
3265	0	0.998158
3266	0	0.998158
3267	0	0.998158
3268	0	0.998158
3269	0	1
3270	0	1
3271	0	0.4
3272	0	0.4
3273	0	0.945807
3274	0	0.94233
3275	0	0.466667
3276	0	0.466667
3277	0	0.318182
3278	0	0.209524
3279	0	0.677344
3280	0	0.464826
3281	0	0.566018
3282	0	0.309091
3283	0	0.361742
3284	0	0.583396
3285	0	0.192308
3286	0	0.4
3287	0	0.250794
3288	0	0.354839
3289	0	0.22974
3290	0	0.176376
3291	0	0
3292	0	0
3293	0	1
3294	0	1
3295	0	0
3296	0	0
3297	0	0.200048
3298	0	0.170553
3299	0	0.560606
3300	0	0.260198
3301	0	0.271351
3302	0	0.251891
3303	0	0.302211
3304	0	0.354828
3305	0	0.868284
3306	0	0.133333
3307	0	0.583333
3308	0	0.58
3309	0	0.666667
3310	0	0.666667
3311	0	0.859648
3312	0	0.996308
3313	0	0.996308
3314	0	0.996308
3315	0	0.996308
3316	0	0.996312
3317	0	0.996312
3318	0	0.99447
3319	0	1
3320	0	1
3321	0	0.6
3322	0	0.373626
3323	0	0.96232
3324	0	0.958454
3325	0	0.930193
3326	0	0.922888
3327	0	0.904996
3328	0	0.333333
3329	0	0.333333
3330	0	0.166667
3331	0	0.166667
3332	0	0.166667
3333	0	0.166667
3334	0	0.166667
3335	0	0.1
3336	0	0.1
3337	0	0.0952381
3338	0	0.0909091
3339	0	0.404598
3340	0	0.312605
3341	0	0.843575
3342	0	0.843506
3343	0	0.694985
3344	0	0.694641
3345	0	0.682053
3346	0	0.419712
3347	0	0.343961
3348	0	0.329325
3349	0	0.329325
3350	0	0.240404
3351	0	0.410837
3352	0	0.293769
3353	0	0.706238
3354	0	0.689859
3355	0	0
3356	0	0
3357	0	0
3358	0	0
3359	0	0.704204
3360	0	0.704204
3361	0	0.354902
3362	0	0.346715
3363	0	0.334063
3364	0	0.323601
3365	0	0.254506
3366	0	0.236879
3367	0	0.207623
3368	0	0.413301
3369	0	0.333333
3370	0	0.333333
3371	0	0.333333
3372	0	0.333333
3373	0	0.333333
3374	0	0.333333
3375	0	0.333333
3376	0	0.333333
3377	0	0.333333
3378	0	0.333333
3379	0	0.333333
3380	0	0.333333
3381	0	0.333333
3382	0	0.0916667
3383	0	0.0916667
3384	0	0.0916667
3385	0	0.0769231
3386	0	0.0769231
3387	0	0.0659341
3388	0	0.0549451
3389	0	0.0549451
3390	0	0.0549451
3391	0	0.0549451
3392	0	0.0571429
3393	0	0.0380952
3394	0	0.0666667
3395	0	0.216756
3396	0	0.177552
3397	0	0.16066
3398	0	0.142857
3399	0	0.142857
3400	0	0.133333
3401	0	0.0833333
3402	0	0.102304
3403	0	0.1
3404	0	0.2
3405	0	0.166667
3406	0	0.166667
3407	0	0
3408	0	0
3409	0	0
3410	0	0.0971446
3411	0	0.212617
3412	0	0.105769
3413	0	0.0992063
3414	0	0.193989
3415	0	0.270517
3416	0	0.25001
3417	0	0.305951
3418	0	0.171014
3419	0	0.228571
3420	0	0.311748
3421	0	0.337374
3422	0	0.0333333
3423	0	0.021978
3424	0	0.030303
3425	0	0.0363636
3426	0	0.0833333
3427	0	0.0277778
3428	0	0.0357143
3429	0	0.047619
3430	0	0.234102
3431	0	0.245852
3432	0	0.21981
3433	0	0.219114
3434	0	0.198413
3435	0	0.155556
3436	0	0.223485
3437	0	0.214103
3438	0	0.282126
3439	0	0.438122
3440	0	0.415655
3441	0	0.570076
3442	0	0.462821
3443	0	0.166667
3444	0	0.333333
3445	0	0.333333
3446	0	0.333333
3447	0	0.333333
3448	0	0.333333
3449	0	0.333333
3450	0	0.2
3451	0	0.333333
3452	0	0.333333
3453	0	0.313115
3454	0	0.333333
3455	0	0.333333
3456	0	0.333333
3457	0	0.333333
3458	0	0.2
3459	0	0.133333
3460	0	0.133333
3461	0	0.133333
3462	0	0.133333
3463	0	0.133333
3464	0	0.0952381
3465	0	0.0952381
3466	0	0.0952381
3467	0	0.0952381
3468	0	0.0952381
3469	0	0.0952381
3470	0	0.0952381
3471	0	0.0952381
3472	0	0.0952381
3473	0	0.0833333
3474	0	0.0833333
3475	0	0.0833333
3476	0	0.0833333
3477	0	0.194444
3478	0	0.194444
3479	0	0.194444
3480	0	0.444444
3481	0	0.444444
3482	0	0.444444
3483	0	0.611111
3484	0	0.488889
3485	0	0.527273
3486	0	0.560606
3487	0	0.69697
3488	0	0.408333
3489	0	0.28655
3490	0	0.292398
3491	0	0.338095
3492	0	0.338095
3493	0	0.449275
3494	0	0.362903
3495	0	0.128205
3496	0	0.0833333
3497	0	0.246212
3498	0	0.30303
3499	0	0.146463
3500	0	0.167717
3501	0	0.180025
3502	0	0.404348
3503	0	0.611659
3504	0	0.635216
3505	0	0.336957
3506	0	0.398268
3507	0	0.438095
3508	0	0.484211
3509	0	0.538012
3510	0	0.538012
3511	0	0.619883
3512	0	0.619883
3513	0	0.557895
3514	0	0.504762
3515	0	0.557895
3516	0	0.557895
3517	0	0.568421
3518	0	0.519048
3519	0	0.360338
3520	0	0.386041
3521	0	0.333333
3522	0	0.333333
3523	0	0.1
3524	0	0.110294
3525	0	0.125
3526	0	0.218462
3527	0	0.223724
3528	0	0.315789
3529	0	0.39963
3530	0	0.426774
3531	0	0.430091
3532	0	0
3533	0	0
3534	0	0
3535	0	0
3536	0	1
3537	0	1
3538	0	0.333333
3539	0	1
3540	0	0.4
3541	0	0.47619
3542	0	0.244444
3543	0	0.371429
3544	0	0.514286
3545	0	0.493769
3546	0	0.0277778
3547	0	0.716393
3548	0	0.789528
3549	0	0.822595
3550	0	0.854839
3551	0	0.892796
3552	0	0.892796
3553	0	0.892796
3554	0	0.892796
3555	0	0.912859
3556	0	0.912859
3557	0	0.933606
3558	0	0.955068
3559	0	0.955068
3560	0	0.955068
3561	0	0.955068
3562	0	0.955068
3563	0	0.955068
3564	0	0.955068
3565	0	0.955068
3566	0	0.955068
3567	0	0.955068
3568	0	1
3569	0	1
3570	0	0.440344
3571	0	0.2
3572	0	0.2
3573	0	0.2
3574	0	0.133333
3575	0	0.133333
3576	0	0.4
3577	0	0.46232
3578	0	0.440353
3579	0	0.543665
3580	0	0.972318
3581	0	0.990706
3582	0	0.988915
3583	0	0.987085
3584	0	0.985262
3585	0	0.987099
3586	0	0.987099
3587	0	0
3588	0	0
3589	0	0.990732
3590	0	0.990732
3591	0	0.990732
3592	0	0.992575
3593	0	0.992575
3594	0	0.992575
3595	0	0.988894
3596	0	0.988894
3597	0	0.166667
3598	0	0.166667
3599	0	0.166667
3600	0	0.166667
3601	0	0.166667
3602	0	0.166667
3603	0	0.166667
3604	0	0.166667
3605	0	0.166667
3606	0	0.166667
3607	0	0.166667
3608	0	0.333333
3609	0	0.333333
3610	0	0.333333
3611	0	0.333333
3612	0	0.333333
3613	0	0.333333
3614	0	0.333333
3615	0	0.333333
3616	0	0.333333
3617	0	0.333333
3618	0	0
3619	0	0
3620	0	0
3621	0	0
3622	0	0
3623	0	0
3624	0	0
3625	0	0
3626	0	0
3627	0	0
3628	0	0
3629	0	0
3630	0	0
3631	0	0
3632	0	0
3633	0	0
3634	0	0
3635	0	0
3636	0	0
3637	0	0
3638	0	0
3639	0	0
3640	0	0
3641	0	0
3642	0	0
3643	0	0
3644	0	0
3645	0	0
3646	0	0
3647	0	0
3648	0	0
3649	0	0
3650	0	0
3651	0	0
3652	0	0
3653	0	0
3654	0	0
3655	0	0
3656	0	0
3657	0	0
3658	0	0
3659	0	0
3660	0	0
3661	0	0
3662	0	0
3663	0	0
3664	0	0
3665	0	0
3666	0	0
3667	0	0
3668	0	0
3669	0	0
3670	0	0
3671	0	0
3672	0	0
3673	0	0
3674	0	0
3675	0	0
3676	0	0
3677	0	0
3678	0	0
3679	0	0
3680	0	0
3681	0	0
3682	0	0
3683	0	0
3684	0	0
3685	0	0
3686	0	0
3687	0	0
3688	0	0
3689	0	0
3690	0	0
3691	0	0
3692	0	0
3693	0	0
3694	0	0
3695	0	0
3696	0	0
3697	0	0
3698	0	0
3699	0	0
3700	0	0
3701	0	0
3702	0	0
3703	0	0
3704	0	0
3705	0	0
3706	0	0
3707	0	0
3708	0	0
3709	0	0
3710	0	0
3711	0	0
3712	0	0
3713	0	0
3714	0	0
3715	0	0
3716	0	0
3717	0	0
3718	0	0
3719	0	0
3720	0	0
3721	0	0
3722	0	0
3723	0	0
3724	0	0
3725	0	0
3726	0	0
3727	0	0
3728	0	0
3729	0	0
3730	0	0
3731	0	0
3732	0	0
3733	0	0
3734	0	0
3735	0	0
3736	0	0
3737	0	0
3738	0	0
3739	0	0
3740	0	0
3741	0	0
3742	0	0
3743	0	0
3744	0	0
3745	0	0
3746	0	0
3747	0	0
3748	0	0
3749	0	0
3750	0	0
3751	0	0
3752	0	0
3753	0	0
3754	0	0
3755	0	0
3756	0	0
3757	0	0
3758	0	0
3759	0	0
3760	0	0
3761	0	0
3762	0	0
3763	0	0
3764	0	0
3765	0	0
3766	0	0
3767	0	0
3768	0	0
3769	0	0
3770	0	0
3771	0	0
3772	0	0
3773	0	0
3774	0	0
3775	0	0
3776	0	0
3777	0	0
3778	0	0
3779	0	0
3780	0	0
3781	0	0
3782	0	0
3783	0	0
3784	0	0
3785	0	0
3786	0	0
3787	0	0
3788	0	0
3789	0	0
3790	0	0
3791	0	0
3792	0	0
3793	0	0
3794	0	0
3795	0	0
3796	0	0
3797	0	0
3798	0	0
3799	0	0
3800	0	0
3801	0	0
3802	0	0
3803	0	0
3804	0	0
3805	0	0
3806	0	0
3807	0	0
3808	0	0
3809	0	0
3810	0	0
3811	0	0
3812	0	0
3813	0	0
3814	0	0
3815	0	0
3816	0	0
3817	0	0
3818	0	0
3819	0	0
3820	0	0
3821	0	0
3822	0	0
3823	0	0
3824	0	0
3825	0	0
3826	0	0
3827	0	0
3828	0	0
3829	0	0
3830	0	0
3831	0	0
3832	0	0
3833	0	0
3834	0	0
3835	0	0
3836	0	0
3837	0	0
3838	0	0
3839	0	0
3840	0	0
3841	0	0
3842	0	0
3843	0	0
3844	0	0
3845	0	0
3846	0	0
3847	0	0
3848	0	0
3849	0	0
3850	0	0
3851	0	0
3852	0	0
3853	0	0
3854	0	0
3855	0	0
3856	0	0
3857	0	0
3858	0	0
3859	0	0
3860	0	0
3861	0	0
3862	0	0
3863	0	0
3864	0	0
3865	0	0
3866	0	0
3867	0	0
3868	0	0
3869	0	0
3870	0	0
3871	0	0
3872	0	0
3873	0	0
3874	0	0
3875	0	0
3876	0	0
3877	0	0
3878	0	0
3879	0	0
3880	0	0
3881	0	0
3882	0	0
3883	0	0
3884	0	0
3885	0	0
3886	0	0
3887	0	0
3888	0	0
3889	0	0
3890	0	0
3891	0	0
3892	0	0
3893	0	0
3894	0	0
3895	0	0
3896	0	0
3897	0	0
3898	0	0
3899	0	0
3900	0	0
3901	0	0
3902	0	0
3903	0	0
3904	0	0
3905	0	0
3906	0	0
3907	0	0
3908	0	0
3909	0	0
3910	0	0
3911	0	0
3912	0	0
3913	0	0
3914	0	0
3915	0	0
3916	0	0
3917	0	0
3918	0	0
3919	0	0
3920	0	0
3921	0	0
3922	0	0
3923	0	0
3924	0	0
3925	0	0
3926	0	0
3927	0	0
3928	0	0
3929	0	0
3930	1	0
3931	1	0
3932	1	0
3933	1	0
3934	1	0
3935	1	0
3936	1	0
3937	1	0
3938	1	0
3939	1	0
3940	1	0
3941	1	0
3942	1	0
3943	1	0
3944	1	0
3945	1	0
3946	1	0
3947	1	0
3948	1	0
3949	1	0
3950	1	0
3951	1	0
3952	1	0
3953	1	0
3954	1	0
3955	0	0
3956	0	0
3957	0	0
3958	0	0
3959	0	0
3960	0	0
3961	0	0
3962	0	0
3963	0	0
3964	0	0
3965	0	0
3966	0	0
3967	0	0
3968	0	0
3969	0	0
3970	0	0
3971	0	0
3972	0	0
3973	0	0
3974	0	0
3975	0	0
3976	0	0
3977	0	0
3978	0	0
3979	0	0
3980	0	0
3981	0	0
3982	0	0
3983	0	0
3984	0	0
3985	0	0
3986	0	0
3987	0	0
3988	0	0
3989	0	0
3990	0	0
3991	0	0
3992	0	0
3993	0	0
3994	0	0
3995	0	0
3996	0	0
3997	0	0
3998	0	0
3999	0	0
4000	0	0
4001	0	0
4002	0	0
4003	0	0
4004	0	0
4005	0	0
4006	0	0
4007	0	0
4008	0	0
4009	0	0
4010	0	0
4011	0	0
4012	0	0
4013	0	0
4014	0	0
4015	0	0
4016	0	0
4017	0	0
4018	0	0
4019	0	0
4020	0	0
4021	0	0
4022	0	0
4023	0	0
4024	0	0
4025	0	0
4026	1	0
4027	1	0
4028	1	0
4029	1	0
4030	0	0
4031	0	0
4032	0	0
4033	0	0
4034	0	0
4035	0	0
4036	0	0
4037	0	0
4038	0	0
4039	0	0
4040	0	0
4041	0	0
4042	0	0
4043	0	0
4044	0	0
4045	0	0
4046	0	0
4047	0	0
4048	0	0
4049	0	0
4050	0	0
4051	0	0
4052	0	0
4053	0	0
4054	0	0
4055	0	0
4056	0	0
4057	0	0
4058	0	0
4059	0	0
4060	0	0
4061	0	0
4062	0	0
4063	0	0
4064	0	0
4065	1	0
4066	1	0
4067	1	0
4068	1	0
4069	1	0
4070	1	0
4071	1	0
4072	1	0
4073	1	0
4074	0	0
4075	0	0
4076	0	0
4077	0	0
4078	0	0
4079	0	0
4080	0	0.985206
4081	0	0.985206
4082	0	0.979743
4083	0	0.836957
4084	0	0.836957
4085	0	0.836957
4086	0	0.836957
4087	0	0.836957
4088	0	0.836957
4089	0	0.76087
4090	0	0.76087
4091	0	0.938029
4092	0	0
4093	0	0
4094	0	0
4095	0	0
4096	0	0
4097	0	0
4098	0	0
4099	0	0
4100	0	0
4101	0	0
4102	0	0
4103	0	0
4104	0	0
4105	0	0.381818
4106	0	0.381818
4107	0	0.381818
4108	0	0.381818
4109	0	0.318182
4110	0	0.318182
4111	0	0.318182
4112	0	0.318182
4113	0	0.269231
4114	0	0.269231
4115	0	0.358974
4116	0	0.358974
4117	0	0.461538
4118	0	0.461538
4119	0	0.461538
4120	0	0.461538
4121	0	0.576923
4122	0	0.576923
4123	0	0.576923
4124	0	0.576923
4125	0	0.576923
4126	0	0.576923
4127	0	0.576923
4128	0	0.576923
4129	0	0.576923
4130	0	0.576923
4131	0	0.576923
4132	0	0.576923
4133	0	0.576923
4134	0	0.494505
4135	0	0.494505
4136	0	0.494505
4137	0	0.428571
4138	0	0.428571
4139	0	0.428571
4140	0	0.428571
4141	0	0.375
4142	0	0.375
4143	0	0.375
4144	0	0.339181
4145	0	0.339181
4146	0	0.339181
4147	0	0.339181
4148	0	0.305263
4149	0	0.305263
4150	0	0.305263
4151	0	0.305263
4152	0	0.305263
4153	0	0.305263
4154	0	0.305263
4155	0	0.321053
4156	0	0.321053
4157	0	0.321053
4158	0	0.321053
4159	0	0.321053
4160	0	0.321053
4161	0	0.321053
4162	0	0.356725
4163	0	0.356725
4164	0	0.356725
4165	0	0.356725
4166	0	0.356725
4167	0	0.356725
4168	0	0.356725
4169	0	0.356725
4170	0	0.356725
4171	0	0.356725
4172	0	0.356725
4173	0	0.356725
4174	0	0.356725
4175	0	0.356725
4176	0	0.356725
4177	0	0.356725
4178	0	0.356725
4179	0	0.356725
4180	0	0.356725
4181	0	0.356725
4182	0	0.356725
4183	0	0.356725
4184	0	0.356725
4185	0	0.356725
4186	0	0.356725
4187	0	0.356725
4188	0	0.356725
4189	0	0.356725
4190	0	0.356725
4191	0	0.356725
4192	0	0.356725
4193	0	0.356725
4194	0	0.356725
4195	0	0.356725
4196	0	0.356725
4197	0	0.356725
4198	0	0.356725
4199	0	0.356725
4200	0	0.356725
4201	0	0.356725
4202	0	0.356725
4203	0	0.356725
4204	0	0.356725
4205	0	0.356725
4206	0	0.356725
4207	0	0.356725
4208	0	0.356725
4209	0	0.356725
4210	0	0.356725
4211	0	0.356725
4212	0	0.356725
4213	0	0.356725
4214	0	0.356725
4215	0	0.356725
4216	0	0.356725
4217	0	0.356725
4218	0	0.356725
4219	0	0.356725
4220	0	0.356725
4221	0	0.356725
4222	0	0.356725
4223	0	0.356725
4224	0	0.356725
4225	0	0.356725
4226	0	0.356725
4227	0	0.356725
4228	0	0.356725
4229	0	0.356725
4230	0	0.356725
4231	0	0.356725
4232	0	0.356725
4233	0	0.356725
4234	0	0.356725
4235	0	0.356725
4236	0	0.356725
4237	0	0.356725
4238	0	0.356725
4239	0	0.356725
4240	0	0.356725
4241	0	0.356725
4242	0	0.356725
4243	0	0.356725
4244	0	0.356725
4245	0	0.356725
4246	0	0.356725
4247	0	0.356725
4248	0	0.356725
4249	0	0.356725
4250	0	0.356725
4251	0	0.356725
4252	0	0.356725
4253	0	0.356725
4254	0	0.356725
4255	0	0.356725
4256	0	0.356725
4257	0	0.356725
4258	0	0.356725
4259	0	0.356725
4260	0	0.356725
4261	0	0.356725
4262	0	0.356725
4263	0	0.356725
4264	0	0.356725
4265	0	0.356725
4266	0	0.356725
4267	0	0.356725
4268	0	0.298246
4269	0	0.298246
4270	0	0.298246
4271	0	0.298246
4272	0	0.298246
4273	0	0.298246
4274	0	0.298246
4275	0	0.356725
4276	0	0.380117
4277	0	0.380117
4278	0	0.380117
4279	0	0.380117
4280	0	0.380117
4281	0	0.380117
4282	0	0.380117
4283	0	0.380117
4284	0	0.444444
4285	0	0.444444
4286	0	0.444444
4287	0	0.444444
4288	0	0.444444
4289	0	0.444444
4290	0	0.444444
4291	0	0.444444
4292	0	0.444444
4293	0	0.444444
4294	0	0.444444
4295	0	0.444444
4296	0	0.444444
4297	0	0.444444
4298	0	0.444444
4299	0	0.444444
4300	0	0.444444
4301	0	0.444444
4302	0	0.444444
4303	0	0.444444
4304	0	0.444444
4305	0	0.444444
4306	0	0.444444
4307	0	0.444444
4308	0	0.444444
4309	0	0.444444
4310	0	0.444444
4311	0	0.444444
4312	0	0.444444
4313	0	0.444444
4314	0	0.444444
4315	0	0.444444
4316	0	0.444444
4317	0	0.444444
4318	0	0.444444
4319	0	0.444444
4320	0	0.444444
4321	0	0.444444
4322	0	0.444444
4323	0	0.491228
4324	0	0.795322
4325	0	0.795322
4326	0	0.795322
4327	0	0.795322
4328	0	0.795322
4329	0	0.795322
4330	0	0.795322
4331	0	0.795322
4332	0	0.795322
4333	0	0.795322
4334	0	0.795322
4335	0	0.795322
4336	0	0.795322
4337	0	0.795322
4338	0	0.795322
4339	0	0.795322
4340	0	0.795322
4341	0	0.795322
4342	0	0.795322
4343	0	0.795322
4344	0	0.795322
4345	0	0.795322
4346	0	0.795322
4347	0	0.795322
4348	0	0.795322
4349	0	0.795322
4350	0	0.795322
4351	0	0.795322
4352	0	0.795322
4353	0	0.795322
4354	0	0.795322
4355	0	0.795322
4356	0	0.795322
4357	0	0.795322
4358	0	0.795322
4359	0	0.795322
4360	0	0.795322
4361	0	0.795322
4362	0	0.795322
4363	0	0.795322
4364	0	0.795322
4365	0	0.795322
4366	0	0.795322
4367	0	0.795322
4368	0	0.795322
4369	0	0.795322
4370	0	0.795322
4371	0	0.795322
4372	0	0.795322
4373	0	0.795322
4374	0	0.795322
4375	0	0.795322
4376	0	0.795322
4377	0	0.795322
4378	0	0.795322
4379	0	0.795322
4380	0	0.795322
4381	0	0.795322
4382	0	0.795322
4383	0	0.795322
4384	0	0.795322
4385	0	0.795322
4386	0	0.795322
4387	0	0.795322
4388	0	0.795322
4389	0	0.795322
4390	0	0.795322
4391	0	0.795322
4392	0	0.795322
4393	0	0.795322
4394	0	0.795322
4395	0	0.795322
4396	0	0.795322
4397	0	0.795322
4398	0	0.795322
4399	0	0.795322
4400	0	0.795322
4401	0	0.795322
4402	0	0.795322
4403	0	0.795322
4404	0	0.795322
4405	0	0.795322
4406	0	0.795322
4407	0	0.795322
4408	0	0.795322
4409	0	0.795322
4410	0	0.795322
4411	0	0.795322
4412	0	0.795322
4413	0	0.795322
4414	0	0.795322
4415	0	0.795322
4416	0	0.795322
4417	0	0.795322
4418	0	0.795322
4419	0	0.795322
4420	0	0.795322
4421	0	0.795322
4422	0	0.795322
4423	0	0.795322
4424	0	0.795322
4425	0	0.795322
4426	0	0.795322
4427	0	0.795322
4428	0	0.795322
4429	0	0.795322
4430	0	0.888889
4431	0	0.888889
4432	0	0.888889
4433	0	0.888889
4434	0	0.888889
4435	0	0.888889
4436	0	0.888889
4437	0	0.888889
4438	0	0.888889
4439	0	0.888889
4440	0	0.888889
4441	0	0.888889
4442	0	0.888889
4443	0	0.888889
4444	0	0.888889
4445	0	0.888889
4446	0	0.888889
4447	0	0.888889
4448	0	0.888889
4449	0	0.888889
4450	0	0.888889
4451	0	0.888889
4452	0	0.888889
4453	0	0.888889
4454	0	0.888889
4455	0	0.888889
4456	0	0.888889
4457	0	0.888889
4458	0	0.888889
4459	0	0.888889
4460	0	0.888889
4461	0	0.882353
4462	0	0.882353
4463	0	0.882353
4464	0	0.758333
4465	0	0.438095
4466	0	0.438095
4467	0	0.438095
4468	0	0.438095
4469	0	0.438095
4470	0	0.438095
4471	0	0.438095
4472	0	0.438095
4473	0	0.27619
4474	0	0.161905
4475	0	0.152381
4476	0	0.0571429
4477	0	0.047619
4478	0	0.043956
4479	0	0.043956
4480	0	0.0659341
4481	0	0.0659341
4482	0	0.043956
4483	0	0.043956
4484	0	0.043956
4485	0	0.032967
4486	0	0.032967
4487	0	0.032967
4488	0	0.032967
4489	0	0.043956
4490	0	0.043956
4491	0	0.043956
4492	0	0.043956
4493	0	0.0512821
4494	0	0.0512821
4495	0	0.0512821
4496	0	0.0512821
4497	0	0.0512821
4498	0	0.0512821
4499	0	0.0512821
4500	0	0.0512821
4501	0	0.0512821
4502	0	0.0512821
4503	0	0.0512821
4504	0	0.0512821
4505	0	0.0512821
4506	0	0.0512821
4507	0	0.0512821
4508	0	0.0512821
4509	0	0.0512821
4510	0	0.0512821
4511	0	0.0512821
4512	0	0.0512821
4513	0	0.0512821
4514	0	0.0512821
4515	0	0.0512821
4516	0	0.0512821
4517	0	0.0512821
4518	0	0.0512821
4519	0	0.0512821
4520	0	0.0512821
4521	0	0.0512821
4522	0	0.0512821
4523	0	0.0512821
4524	0	0.0512821
4525	0	0.0512821
4526	0	0.0512821
4527	0	0.0512821
4528	0	0.0512821
4529	0	0.0512821
4530	0	0.0512821
4531	0	0.0512821
4532	0	0.0512821
4533	0	0.0512821
4534	0	0.0512821
4535	0	0.0512821
4536	0	0.0512821
4537	0	0.0512821
4538	0	0.0512821
4539	0	0.0512821
4540	0	0.0512821
4541	0	0.0512821
4542	0	0.0512821
4543	0	0.0512821
4544	0	0.0512821
4545	0	0.0512821
4546	0	0.0512821
4547	0	0.0727273
4548	0	0.0888889
4549	0	0.0555556
4550	0	0.0555556
4551	0	0.0555556
4552	0	0.0714286
4553	0	0.0952381
4554	0	0.0952381
4555	0	0.0952381
4556	0	0.0952381
4557	0	0.0952381
4558	0	0.1
4559	0	0.1
4560	0	0.1
4561	0	0.1
4562	0	0.1
4563	0	0.1
4564	0	0.1
4565	0	0.166667
4566	0	0.166667
4567	0	0.166667
4568	0	0.166667
4569	0	0.166667
4570	0	0.166667
4571	0	0.166667
4572	0	0.166667
4573	0	0.166667
4574	0	0.166667
4575	0	0.166667
4576	0	0.166667
4577	0	0.166667
4578	0	0.166667
4579	0	0.166667
4580	0	0.166667
4581	0	0.166667
4582	0	0.166667
4583	0	0.166667
4584	0	0.166667
4585	0	0.166667
4586	0	0.166667
4587	0	0.333333
4588	0	0.333333
4589	0	0.333333
4590	0	0.333333
4591	0	0.333333
4592	0	0.333333
4593	0	0
4594	0	0
4595	0	0
4596	0	0
4597	0	0
4598	0	0
4599	0	0
4600	0	0.911315
4601	0	0.30719
4602	0	0.30719
4603	0	0.885505
4604	0	0.885505
4605	0	0.166667
4606	0	0.166667
4607	0	0.0879121
4608	0	0.0879121
4609	0	0.385225
4610	0	0.375088
4611	0	0.349966
4612	0	0.790271
4613	0	0.788707
4614	0	0
4615	0	0
4616	0	0
4617	0	0
4618	0	0
4619	0	0
4620	0	0
4621	0	0
4622	0	0
4623	0	0
4624	0	0
4625	0	0
4626	0	0
4627	0	0
4628	0	0
4629	0	0
4630	0	0
4631	1	0
4632	1	0
4633	1	0
4634	1	0
4635	1	0
4636	0	0
4637	0	0
4638	0	0
4639	0	0
4640	0	0
4641	0	0
4642	0	0
4643	0	0
4644	0	0
4645	0	0
4646	0	0
4647	0	0
4648	0	0
4649	0	0
4650	0	0
4651	0	0
4652	0	0
4653	0	0
4654	0	0
4655	0	0
4656	0	0
4657	0	0
4658	0	0.750988
4659	0	0.74026
4660	0	0
4661	0	0
4662	0	0
4663	0	0
4664	0	0
4665	0	0
4666	0	0
4667	0	0
4668	0	0
4669	0	0
4670	0	0
4671	0	0
4672	0	0
4673	0	0
4674	0	0
4675	0	0
4676	0	0
4677	0	0.166667
4678	0	0.166667
4679	0	0.5
4680	0	0.5
4681	0	0.5
4682	0	0.5
4683	0	0.5
4684	0	0.5
4685	0	0.5
4686	0	0.5
4687	0	0.5
4688	0	0.5
4689	0	0.5
4690	0	0.5
4691	0	0.5
4692	0	0.5
4693	0	0.5
4694	0	0.5
4695	0	0.5
4696	0	0.5
4697	0	0.5
4698	0	0.5
4699	0	0.5
4700	0	0.5
4701	0	0.5
4702	0	0.5
4703	0	0.5
4704	0	0.5
4705	0	0.3
4706	0	0.3
4707	0	0.3
4708	0	0.3
4709	0	0.3
4710	0	0.3
4711	0	0.3
4712	0	0.3
4713	0	0.3
4714	0	0.3
4715	0	0.3
4716	0	0.3
4717	0	0.3
4718	0	0.3
4719	0	0.3
4720	0	0.3
4721	0	0.3
4722	0	0.3
4723	0	0.3
4724	0	0.3
4725	0	0.3
4726	0	0.3
4727	0	0.3
4728	0	0.3
4729	0	0.3
4730	0	0.3
4731	0	0.3
4732	0	0.3
4733	0	0.3
4734	0	0.3
4735	0	0.3
4736	0	0.3
4737	0	0.3
4738	0	0.3
4739	0	0.3
4740	0	0.3
4741	0	0.3
4742	0	0.3
4743	0	0.3
4744	0	0.3
4745	0	0.3
4746	0	0.3
4747	0	0.3
4748	0	0.3
4749	0	0.3
4750	0	0.3
4751	0	0.3
4752	0	0.3
4753	0	0.3
4754	0	0.3
4755	0	0.2
4756	0	0.545455
4757	0	0.545455
4758	0	0.545455
4759	0	0.545455
4760	0	0.576923
4761	0	0.576923
4762	0	0.576923
4763	0	0.576923
4764	0	0.576923
4765	0	0.576923
4766	0	0.576923
4767	0	0.494505
4768	0	0.494505
4769	0	0.494505
4770	0	0.494505
4771	0	0.494505
4772	0	0.494505
4773	0	0.494505
4774	0	0.494505
4775	0	0.494505
4776	0	0.494505
4777	0	0.494505
4778	0	0.494505
4779	0	0.494505
4780	0	0.494505
4781	0	0.494505
4782	0	0.494505
4783	0	0.494505
4784	0	0.494505
4785	0	0.494505
4786	0	0.494505
4787	0	0.604396
4788	0	0.604396
4789	0	0.734467
4790	0	0.286232
4791	0	0.278986
4792	0	0.278986
4793	0	0.278986
4794	0	0.278986
4795	0	0.278986
4796	0	0.278986
4797	0	0.390348
4798	0	0.423333
4799	0	0.347619
4800	0	0.438876
4801	0	0.416538
4802	0	0.223715
4803	0	0.150327
4804	0	0.205882
4805	0	0.205882
4806	0	0.205882
4807	0	0.205882
4808	0	0.19067
4809	0	0.171935
4810	0	0.178896
4811	0	0.176592
4812	0	0.184106
4813	0	0.220411
4814	0	0.23591
4815	0	0.288206
4816	0	0.309831
4817	0	0.133534
4818	0	0.156162
4819	0	0.176156
4820	0	0.108197
4821	0	0.113208
4822	0	0.0901961
4823	0	0.0885936
4824	0	0.06866
4825	0	0.0705128
4826	0	0.071525
4827	0	0.0701754
4828	0	0.0697013
4829	0	0.0777778
4830	0	0.0777778
4831	0	0.0777778
4832	0	0.0947581
4833	0	0.135385
4834	0	0.135385
4835	0	0.135385
4836	0	0.135385
4837	0	0.135385
4838	0	0.135385
4839	0	0.146667
4840	0	0.15942
4841	0	0.15942
4842	0	0.15942
4843	0	0.173913
4844	0	0.173913
4845	0	0.209524
4846	0	0.209524
4847	0	0.209524
4848	0	0.209524
4849	0	0.209524
4850	0	0.209524
4851	0	0.209524
4852	0	0.209524
4853	0	0.209524
4854	0	0.209524
4855	0	0.209524
4856	0	0.209524
4857	0	0.209524
4858	0	0.209524
4859	0	0.22807
4860	0	0.0666667
4861	0	0.0666667
4862	0	0.0555556
4863	0	0.0555556
4864	0	0.047619
4865	0	0.0666667
4866	0	0.0666667
4867	0	0.0666667
4868	0	0.0666667
4869	0	0.0666667
4870	0	0.0666667
4871	0	0.0666667
4872	0	0.0666667
4873	0	0.0666667
4874	0	0.0666667
4875	0	0.0666667
4876	0	0.0666667
4877	0	0.0666667
4878	0	0.0666667
4879	0	0.0666667
4880	0	0.0666667
4881	0	0.0666667
4882	0	0.0666667
4883	0	0.0666667
4884	0	0.0666667
4885	0	0.0666667
4886	0	0.0666667
4887	0	0.0666667
4888	0	0.1
4889	0	0.1
4890	0	0.1
4891	0	0.1
4892	0	0.1
4893	0	0.1
4894	0	0.1
4895	0	0.1
4896	0	0.1
4897	0	0.1
4898	0	0.1
4899	0	0.1
4900	0	0.1
4901	0	0.1
4902	0	0.1
4903	0	0.1
4904	0	0.1
4905	0	0.1
4906	0	0.1
4907	0	0.1
4908	0	0.1
4909	0	0.1
4910	0	0.1
4911	0	0.1
4912	0	0.1
4913	0	0.1
4914	0	0.1
4915	0	0.1
4916	0	0.1
4917	0	0.1
4918	0	0.1
4919	0	0.1
4920	0	0.1
4921	0	0.1
4922	0	0.1
4923	0	0.1
4924	0	0.1
4925	0	0.1
4926	0	0.1
4927	0	0.1
4928	0	0.1
4929	0	0.1
4930	0	0.1
4931	0	0.1
4932	0	0.1
4933	0	0.1
4934	0	0.1
4935	0	0.1
4936	0	0.1
4937	0	0.1
4938	0	0.1
4939	0	0.1
4940	0	0.1
4941	0	0.1
4942	0	0.1
4943	0	0.1
4944	0	0.1
4945	0	0.1
4946	0	0.1
4947	0	0.1
4948	0	0.1
4949	0	0.1
4950	0	0.1
4951	0	0.1
4952	0	0.1
4953	0	0.1
4954	0	0.1
4955	0	0.1
4956	0	0.1
4957	0	0.1
4958	0	0.1
4959	0	0.1
4960	0	0.1
4961	0	0.1
4962	0	0.1
4963	0	0.1
4964	0	0.1
4965	0	0.1
4966	0	0.1
4967	0	0.1
4968	0	0.1
4969	0	0.1
4970	0	0.1
4971	0	0.1
4972	0	0.1
4973	0	0.1
4974	0	0.1
4975	0	0.1
4976	0	0.1
4977	0	0.1
4978	0	0.1
4979	0	0.1
4980	0	0.1
4981	0	0.1
4982	0	0.1
4983	0	0.166667
4984	0	0.166667
4985	0	0.166667
4986	0	0.166667
4987	0	0.166667
4988	0	0.166667
4989	0	0.166667
4990	0	0.166667
4991	0	0.166667
4992	0	0.166667
4993	0	0.166667
4994	0	0.166667
4995	0	0.166667
4996	0	0.333333
4997	0	0.333333
4998	0	0.333333
4999	0	0.333333
5000	0	0.333333
5001	0	0.333333
5002	0	0.333333
5003	0	0.333333
5004	0	0.333333
5005	0	0.333333
5006	0	0.333333
5007	0	0.333333
5008	0	0.333333
5009	0	0.333333
5010	0	0.333333
5011	0	0.333333
5012	0	0.333333
5013	0	0.333333
5014	0	0.333333
5015	0	0.333333
5016	0	0.333333
5017	0	0.333333
5018	0	0.333333
5019	0	0.333333
5020	0	0.333333
5021	0	0.333333
5022	0	0.333333
5023	0	0.333333
5024	0	0.333333
5025	0	0.333333
5026	0	0.333333
5027	0	0.333333
5028	0	0.333333
5029	0	0.333333
5030	0	0.333333
5031	0	0.333333
5032	0	0.333333
5033	0	0.333333
5034	0	0.333333
5035	0	0.333333
5036	0	0.333333
5037	0	0.333333
5038	0	0.333333
5039	0	0.333333
5040	0	0.333333
5041	0	0.333333
5042	0	0.333333
5043	0	0.333333
5044	0	0.333333
5045	0	0.333333
5046	0	0.333333
5047	0	0.333333
5048	0	0.333333
5049	0	0.333333
5050	0	0.333333
5051	0	0.333333
5052	0	0.333333
5053	0	0.333333
5054	0	0.333333
5055	0	0.333333
5056	0	0.333333
5057	0	0.333333
5058	0	0.333333
5059	0	0.333333
5060	0	0.333333
5061	0	0.333333
5062	0	0.333333
5063	0	0.333333
5064	0	0.333333
5065	0	0.333333
5066	0	0.333333
5067	0	0.333333
5068	0	0.333333
5069	0	0.333333
5070	0	0.333333
5071	0	0.333333
5072	0	0.333333
5073	0	0.333333
5074	0	0.333333
5075	0	0.333333
5076	0	0.333333
5077	0	0.333333
5078	0	0.333333
5079	0	0.333333
5080	0	0.333333
5081	0	0.333333
5082	0	0.333333
5083	0	0.333333
5084	0	0.333333
5085	0	0.333333
5086	0	0.333333
5087	0	0.333333
5088	0	0.333333
5089	0	0.333333
5090	0	0.333333
5091	0	0.333333
5092	0	0.333333
5093	0	0.333333
5094	0	0.333333
5095	0	0.333333
5096	0	0.333333
5097	0	0.333333
5098	0	0.333333
5099	0	0.333333
5100	0	0.333333
5101	0	0.333333
5102	0	0.333333
5103	0	0.333333
5104	0	0.333333
5105	0	0.333333
5106	0	0.333333
5107	0	0.333333
5108	0	0.333333
