Site	ColumnScore	SumOfPairsScore
1	0	0
2	0	0
3	0	0
4	0	0
5	0	0
6	0	0
7	0	0
8	0	0
9	0	0
10	0	0
11	0	0
12	0	0
13	0	0
14	0	0
15	0	0
16	0	0
17	0	0
18	0	0
19	0	0
20	0	0
21	0	0
22	0	0
23	0	0
24	0	0
25	0	0
26	0	0
27	0	0
28	0	0
29	0	0
30	0	0
31	0	0
32	0	0
33	0	0
34	0	0
35	0	0
36	0	0
37	0	0
38	0	0
39	0	0
40	0	0
41	0	0
42	0	0
43	0	0
44	0	0
45	0	0
46	0	0.333333
47	0	0.290909
48	0	0.290909
49	0	0.290909
50	0	0.290909
51	0	0.290909
52	0	0.217949
53	0	0.217949
54	0	0.217949
55	0	0.217949
56	0	0.217949
57	0	0.186813
58	0	0.186813
59	0	0.180952
60	0	0.158333
61	0	0.146199
62	0	0.146199
63	0	0.146199
64	0	0.146199
65	0	0.146199
66	0	0.146199
67	0	0.146199
68	0	0.146199
69	0	0.152632
70	0	0.152632
71	0	0.152632
72	0	0.173684
73	0	0.173684
74	0	0.173684
75	0	0.173684
76	0	0.173684
77	0	0.173684
78	0	0.142105
79	0	0.194737
80	0	0.194737
81	0	0.194737
82	0	0.194737
83	0	0.2
84	0	0.2
85	0	0.2
86	0	0.2
87	0	0.2
88	0	0.2
89	0	0.147368
90	0	0.142105
91	0	0.126316
92	0	0.152632
93	0	0.152632
94	0	0.242105
95	0	0.242105
96	0	0.242105
97	0	0.242105
98	0	0.242105
99	0	0.242105
100	0	0.242105
101	0	0.242105
102	0	0.242105
103	0	0.242105
104	0	0.242105
105	0	0.239766
106	0	0.239766
107	0	0.247619
108	0	0.247619
109	0	0.247619
110	0	0.247619
111	0	0.247619
112	0	0.247619
113	0	0.247619
114	0	0.247619
115	0	0.247619
116	0	0.290043
117	0	0.290043
118	0	0.290043
119	0	0.290043
120	0	0.290043
121	0	0.290043
122	0	0.290043
123	0	0.290043
124	0	0.290043
125	0	0.290043
126	0	0.290043
127	0	0.290043
128	0	0.290043
129	0	0.290043
130	0	0.290043
131	0	0.290043
132	0	0.290043
133	0	0.290043
134	0	0.290043
135	0	0.290043
136	0	0.290043
137	0	0.290043
138	0	0.290043
139	0	0.290043
140	0	0.290043
141	0	0.246377
142	0	0.226667
143	0	0.226667
144	0	0.226667
145	0	0.226667
146	0	0.226667
147	0	0.226667
148	0	0.226667
149	0	0.209231
150	0	0.209231
151	0	0.209231
152	0	0.209231
153	0	0.209231
154	0	0.209231
155	0	0.209231
156	0	0.209231
157	0	0.209231
158	0	0.209231
159	0	0.209231
160	0	0.209231
161	0	0.209231
162	0	0.209231
163	0	0.209231
164	0	0.209231
165	0	0.209231
166	0	0.209231
167	0	0.209231
168	0	0.209231
169	0	0.209231
170	0	0.209231
171	0	0.209231
172	0	0.209231
173	0	0.209231
174	0	0.209231
175	0	0.209231
176	0	0.292308
177	0	0.292308
178	0	0.292308
179	0	0.292308
180	0	0.357895
181	0	0.357895
182	0	0.476923
183	0	0.476923
184	0	0.476923
185	0	0.476923
186	0	0.476923
187	0	0.476923
188	0	0.476923
189	0	0.476923
190	0	0.476923
191	0	0.476923
192	0	0.476923
193	0	0.476923
194	0	0.476923
195	0	0.476923
196	0	0.476923
197	0	0.476923
198	0	0.476923
199	0	0.476923
200	0	0.483077
201	0	0.483077
202	0	0.483077
203	0	0.483077
204	0	0.483077
205	0	0.538462
206	0	0.538462
207	0	0.538462
208	0	0.538462
209	0	0.538462
210	0	0.498575
211	0	0.498575
212	0	0.498575
213	0	0.498575
214	0	0.498575
215	0	0.498575
216	0	0.498575
217	0	0.498575
218	0	0.498575
219	0	0.498575
220	0	0.498575
221	0	0.498575
222	0	0.498575
223	0	0.498575
224	0	0.498575
225	0	0.498575
226	0	0.498575
227	0	0.498575
228	0	0.498575
229	0	0.498575
230	0	0.498575
231	0	0.498575
232	0	0.498575
233	0	0.498575
234	0	0.498575
235	0	0.498575
236	0	0.498575
237	0	0.498575
238	0	0.498575
239	0	0.498575
240	0	0.606838
241	0	0.606838
242	0	0.606838
243	0	0.606838
244	0	0.606838
245	0	0.606838
246	0	0.606838
247	0	0.606838
248	0	0.606838
249	0	0.606838
250	0	0.606838
251	0	0.606838
252	0	0.606838
253	0	0.606838
254	0	0.606838
255	0	0.606838
256	0	0.606838
257	0	0.606838
258	0	0.606838
259	0	0.606838
260	0	0.606838
261	0	0.606838
262	0	0.606838
263	0	0.606838
264	0	0.606838
265	0	0.606838
266	0	0.606838
267	0	0.606838
268	0	0.606838
269	0	0.606838
270	0	0.606838
271	0	0.606838
272	0	0.606838
273	0	0.606838
274	0	0.606838
275	0	0.606838
276	0	0.606838
277	0	0.606838
278	0	0.606838
279	0	0.606838
280	0	0.606838
281	0	0.606838
282	0	0.606838
283	0	0.606838
284	0	0.606838
285	0	0.606838
286	0	0.606838
287	0	0.606838
288	0	0.606838
289	0	0.606838
290	0	0.606838
291	0	0.527094
292	0	0.527094
293	0	0.527094
294	0	0.491954
295	0	0.491954
296	0	0.491954
297	0	0.491954
298	0	0.491954
299	0	0.491954
300	0	0.491954
301	0	0.491954
302	0	0.491954
303	0	0.491954
304	0	0.491954
305	0	0.491954
306	0	0.491954
307	0	0.491954
308	0	0.491954
309	0	0.491954
310	0	0.491954
311	0	0.491954
312	0	0.491954
313	0	0.491954
314	0	0.491954
315	0	0.445977
316	0	0.445977
317	0	0.477833
318	0	0.477833
319	0	0.491954
320	0	0.491954
321	0	0.491954
322	0	0.491954
323	0	0.491954
324	0	0.491954
325	0	0.491954
326	0	0.491954
327	0	0.491954
328	0	0.491954
329	0	0.491954
330	0	0.491954
331	0	0.491954
332	0	0.491954
333	0	0.491954
334	0	0.491954
335	0	0.491954
336	0	0.491954
337	0	0.491954
338	0	0.491954
339	0	0.491954
340	0	0.491954
341	0	0.491954
342	0	0.491954
343	0	0.491954
344	0	0.491954
345	0	0.491954
346	0	0.491954
347	0	0.491954
348	0	0.491954
349	0	0.491954
350	0	0.491954
351	0	0.491954
352	0	0.491954
353	0	0.491954
354	0	0.491954
355	0	0.491954
356	0	0.491954
357	0	0.491954
358	0	0.491954
359	0	0.491954
360	0	0.491954
361	0	0.491954
362	0	0.491954
363	0	0.491954
364	0	0.491954
365	0	0.491954
366	0	0.491954
367	0	0.491954
368	0	0.491954
369	0	0.491954
370	0	0.491954
371	0	0.491954
372	0	0.491954
373	0	0.491954
374	0	0.491954
375	0	0.491954
376	0	0.491954
377	0	0.491954
378	0	0.491954
379	0	0.491954
380	0	0.491954
381	0	0.491954
382	0	0.491954
383	0	0.491954
384	0	0.491954
385	0	0.491954
386	0	0.491954
387	0	0.491954
388	0	0.491954
389	0	0.491954
390	0	0.491954
391	0	0.491954
392	0	0.491954
393	0	0.491954
394	0	0.491954
395	0	0.491954
396	0	0.491954
397	0	0.491954
398	0	0.491954
399	0	0.491954
400	0	0.491954
401	0	0.491954
402	0	0.491954
403	0	0.491954
404	0	0.491954
405	0	0.491954
406	0	0.491954
407	0	0.491954
408	0	0.491954
409	0	0.491954
410	0	0.460215
411	0	0.431452
412	0	0.431452
413	0	0.431452
414	0	0.491954
415	0	0.491954
416	0	0.491954
417	0	0.491954
418	0	0.491954
419	0	0.491954
420	0	0.491954
421	0	0.491954
422	0	0.491954
423	0	0.491954
424	0	0.491954
425	0	0.491954
426	0	0.491954
427	0	0.491954
428	0	0.491954
429	0	0.491954
430	0	0.491954
431	0	0.491954
432	0	0.491954
433	0	0.491954
434	0	0.491954
435	0	0.491954
436	0	0.491954
437	0	0.491954
438	0	0.491954
439	0	0.491954
440	0	0.491954
441	0	0.491954
442	0	0.491954
443	0	0.491954
444	0	0.491954
445	0	0.491954
446	0	0.462963
447	0	0.491954
448	0	0.491954
449	0	0.491954
450	0	0.491954
451	0	0.491954
452	0	0.491954
453	0	0.491954
454	0	0.491954
455	0	0.491954
456	0	0.491954
457	0	0.491954
458	0	0.491954
459	0	0.491954
460	0	0.491954
461	0	0.491954
462	0	0.491954
463	0	0.491954
464	0	0.491954
465	0	0.491954
466	0	0.491954
467	0	0.491954
468	0	0.491954
469	0	0.491954
470	0	0.491954
471	0	0.491954
472	0	0.491954
473	0	0.491954
474	0	0.491954
475	0	0.491954
476	0	0.491954
477	0	0.491954
478	0	0.491954
479	0	0.491954
480	0	0.491954
481	0	0.491954
482	0	0.491954
483	0	0.491954
484	0	0.491954
485	0	0.491954
486	0	0.491954
487	0	0.491954
488	0	0.491954
489	0	0.491954
490	0	0.491954
491	0	0.491954
492	0	0.491954
493	0	0.491954
494	0	0.491954
495	0	0.563492
496	0	0.563492
497	0	0.606838
498	0	0.606838
499	0	0.606838
500	0	0.606838
501	0	0.606838
502	0	0.606838
503	0	0.606838
504	0	0.606838
505	0	0.606838
506	0	0.606838
507	0	0.606838
508	0	0.606838
509	0	0.606838
510	0	0.606838
511	0	0.606838
512	0	0.606838
513	0	0.655385
514	0	0.655385
515	0	0.655385
516	0	0.655385
517	0	0.655385
518	0	0.655385
519	0	0.655385
520	0	0.655385
521	0	0.655385
522	0	0.655385
523	0	0.655385
524	0	0.655385
525	0	0.655385
526	0	0.655385
527	0	0.655385
528	0	0.655385
529	0	0.655385
530	0	0.71
531	0	0.71
532	0	0.71
533	0	0.71
534	0	0.71
535	0	0.71
536	0	0.71
537	0	0.71
538	0	0.71
539	0	0.71
540	0	0.71
541	0	0.703333
542	0	0.703333
543	0	0.703333
544	0	0.703333
545	0	0.703333
546	0	0.703333
547	0	0.703333
548	0	0.703333
549	0	0.703333
550	0	0.703333
551	0	0.703333
552	0	0.83004
553	0	0.83004
554	0	0.83004
555	0	0.83004
556	0	0.83004
557	0	0.83004
558	0	0.83004
559	0	0.83004
560	0	0.83004
561	0	0.83004
562	0	0.83004
563	0	0.83004
564	0	0.83004
565	0	0.83004
566	0	0.83004
567	0	0.83004
568	0	0.83004
569	0	0.3
570	0	0.616601
571	0	0.608696
572	0	0.750988
573	0	0.750988
574	0	0.750988
575	0	0.675889
576	0	0.675889
577	0	0.675889
578	0	0.675889
579	0	0.675889
580	0	0.675889
581	0	0.328063
582	0	0.288538
583	0	0.288538
584	0	0.288538
585	0	0.288538
586	0	0.288538
587	0	0.288538
588	0	0.288538
589	0	0.288538
590	0	0.288538
591	0	0.288538
592	0	0.288538
593	0	0.288538
594	0	0.288538
595	0	0.288538
596	0	0.288538
597	0	0.288538
598	0	0.288538
599	0	0.288538
600	0	0.288538
601	0	0.288538
602	0	0.288538
603	0	0.288538
604	0	0.288538
605	0	0.288538
606	0	0.288538
607	0	0.288538
608	0	0.288538
609	0	0.316017
610	0	0.316017
611	0	0.316017
612	0	0.316017
613	0	0.316017
614	0	0.316017
615	0	0.316017
616	0	0.316017
617	0	0.316017
618	0	0.316017
619	0	0.347619
620	0	0.347619
621	0	0.347619
622	0	0.347619
623	0	0.347619
624	0	0.347619
625	0	0.347619
626	0	0.347619
627	0	0.347619
628	0	0.347619
629	0	0.347619
630	0	0.347619
631	0	0.347619
632	0	0.347619
633	0	0.347619
634	0	0.347619
635	0	0.347619
636	0	0.347619
637	0	0.347619
638	0	0.347619
639	0	0.347619
640	0	0.347619
641	0	0.347619
642	0	0.347619
643	0	0.347619
644	0	0.347619
645	0	0.347619
646	0	0.347619
647	0	0.347619
648	0	0.347619
649	0	0.347619
650	0	0.347619
651	0	0.347619
652	0	0.347619
653	0	0.347619
654	0	0.347619
655	0	0.347619
656	0	0.347619
657	0	0.347619
658	0	0.347619
659	0	0.347619
660	0	0.347619
661	0	0.347619
662	0	0.347619
663	0	0.338095
664	0	0.338095
665	0	0.338095
666	0	0.338095
667	0	0.338095
668	0	0.395238
669	0	0.395238
670	0	0.395238
671	0	0.395238
672	0	0.395238
673	0	0.395238
674	0	0.395238
675	0	0.395238
676	0	0.395238
677	0	0.395238
678	0	0.436842
679	0	0.436842
680	0	0.436842
681	0	0.436842
682	0	0.436842
683	0	0.436842
684	0	0.436842
685	0	0.436842
686	0	0.436842
687	0	0.436842
688	0	0.436842
689	0	0.436842
690	0	0.436842
691	0	0.436842
692	0	0.436842
693	0	0.436842
694	0	0.436842
695	0	0.436842
696	0	0.436842
697	0	0.436842
698	0	0.48538
699	0	0.48538
700	0	0.514706
701	0	1
702	0	1
703	0	1
704	0	1
705	0	1
706	0	1
707	0	1
708	0	1
709	0	1
710	0	1
711	0	1
712	0	1
713	0	1
714	0	1
715	0	1
716	0	1
717	0	1
718	0	1
719	0	1
720	0	1
721	0	1
722	0	1
723	0	1
724	0	1
725	0	1
726	0	1
727	0	1
728	0	1
729	0	1
730	0	1
731	0	1
732	0	1
733	0	1
734	0	1
735	0	1
736	0	1
737	0	1
738	0	1
739	0	1
740	0	1
741	0	1
742	0	1
743	0	1
744	0	1
745	0	1
746	0	1
747	0	1
748	0	1
749	0	1
750	0	1
751	0	1
752	0	1
753	0	1
754	0	1
755	0	1
756	0	1
757	0	0.8
758	0	0.8
759	0	0.8
760	0	0.8
761	0	0.8
762	0	0.8
763	0	0.8
764	0	0.8
765	0	0.8
766	0	0.8
767	0	0.8
768	0	0.8
769	0	0.8
770	0	0.8
771	0	0.8
772	0	0.8
773	0	0.8
774	0	0.8
775	0	0.8
776	0	0.8
777	0	0.8
778	0	0.8
779	0	0.8
780	0	0.8
781	0	0.8
782	0	0.8
783	0	0.8
784	0	0.8
785	0	0.8
786	0	0.8
787	0	0.8
788	0	0.8
789	0	0.8
790	0	0.8
791	0	0.8
792	0	0.8
793	0	0.8
794	0	0.8
795	0	0.8
796	0	0.8
797	0	0.8
798	0	0.8
799	0	0.8
800	0	0.8
801	0	0.8
802	0	0.8
803	0	0.8
804	0	0.8
805	0	0.8
806	0	0.8
807	0	0.8
808	0	0.8
809	0	0.8
810	0	0.8
811	0	0.8
812	0	0.8
813	0	0.8
814	0	0.8
815	0	0.8
816	0	0.8
817	0	0.8
818	0	0.8
819	0	0.8
820	0	0.8
821	0	0.8
822	0	0.8
823	0	0.8
824	0	0.8
825	0	0.8
826	0	0.8
827	0	0.8
828	0	0.8
829	0	0.8
830	0	0.8
831	0	0.8
832	0	0.8
833	0	0.8
834	0	0.8
835	0	0.8
836	0	0.8
837	0	0.8
838	0	0.8
839	0	0.8
840	0	0.8
841	0	0.8
842	0	0.8
843	0	0.8
844	0	0.8
845	0	0.8
846	0	0.8
847	0	0.8
848	0	0.8
849	0	0.8
850	0	0.8
851	0	0.8
852	0	0.8
853	0	0.8
854	0	0.8
855	0	0.8
856	0	0.8
857	0	0.8
858	0	0.8
859	0	0.8
860	0	0.8
861	0	0.8
862	0	0.8
863	0	0.8
864	0	0.8
865	0	0.8
866	0	0.8
867	0	0.8
868	0	0.8
869	0	0.8
870	0	0.8
871	0	0.8
872	0	0.8
873	0	0.8
874	0	0.8
875	0	0.8
876	0	0.8
877	0	0.8
878	0	0.8
879	0	0.8
880	0	0.8
881	0	0.8
882	0	0.8
883	0	0.8
884	0	0.8
885	0	0.8
886	0	0.8
887	0	0.8
888	0	0.8
889	0	0.622222
890	0	0.622222
891	0	0.622222
892	0	0.583333
893	0	0.583333
894	0	0.47619
895	0	0.47619
896	0	0.47619
897	0	0.47619
898	0	0.47619
899	0	0.47619
900	0	0.47619
901	0	0.47619
902	0	0.47619
903	0	0.47619
904	0	0.47619
905	0	0.47619
906	0	0.47619
907	0	0.47619
908	0	0.47619
909	0	0.47619
910	0	0.47619
911	0	0.47619
912	0	0.47619
913	0	0.47619
914	0	0.47619
915	0	0.47619
916	0	0.47619
917	0	0.47619
918	0	0.47619
919	0	0.47619
920	0	0.47619
921	0	0.666667
922	0	0
923	0	0
924	0	0
925	0	0
926	0	0
927	0	0
928	0	0
929	0	0
930	0	0
931	0	0
932	0	0
933	0	0
934	0	0
935	0	0
936	0	0
937	0	0
938	0	0
939	0	0
940	0	0
941	0	0
942	0	0
943	0	0
944	0	0
945	0	0
946	0	0
947	0	0
948	0	0
949	0	0
950	0	0
951	0	0
952	0	0
953	0	0
954	0	0
955	0	0
956	0	0
957	0	0
958	0	0
959	0	0
960	0	0
961	0	0
962	0	0
963	0	0
964	0	0
965	0	0
966	0	0
967	0	0
968	0	0
969	0	0
970	0	0
971	0	0
972	0	0
973	0	0
974	0	0
975	0	0
976	0	0
977	0	0
978	0	0
979	0	0
980	0	0
981	0	0
982	0	0
983	0	0
984	0	0
985	0	0
986	0	0
987	0	0
988	0	0
989	0	0
990	0	0
991	0	0
992	0	0
993	0	0
994	0	0
995	0	0
996	0	0
997	0	0
998	0	0
999	0	0
1000	0	0
1001	0	0
1002	0	0
1003	0	0
1004	0	0
1005	0	0
1006	0	0
1007	0	0
1008	0	0
1009	0	0
1010	0	0
1011	0	0
1012	0	0
1013	0	0
1014	0	0
1015	0	0
1016	0	0
1017	0	0
1018	0	0
1019	0	0
1020	0	0
1021	0	0
1022	0	0
1023	0	0
1024	0	0
1025	0	0
1026	0	0
1027	0	0
1028	0	0
1029	0	0
1030	0	0
1031	0	0
1032	0	0
1033	0	0
1034	0	0
1035	0	0
1036	0	0
1037	0	0
1038	0	0
1039	0	0
1040	0	0
1041	0	0
1042	0	0
1043	0	0
1044	0	0
1045	0	0
1046	0	0
1047	0	0
1048	0	0
1049	0	0
1050	0	0
1051	0	0
1052	0	0
1053	0	0
1054	0	0
1055	0	0
1056	0	0
1057	0	0
1058	0	0
1059	0	0
1060	0	0
1061	0	0
1062	0	0
1063	0	0
1064	0	0
1065	0	0
1066	0	0
1067	0	0
1068	0	0
1069	0	0
1070	0	0
1071	0	0
1072	0	0
1073	0	0
1074	0	0
1075	0	0
1076	0	0
1077	0	0
1078	0	0
1079	0	0
1080	0	0
1081	0	0
1082	0	0
1083	0	0
1084	0	0
1085	0	0
1086	0	0
1087	0	0
1088	0	0
1089	0	0
1090	0	0
1091	0	0
1092	0	0
1093	0	0
1094	0	0
1095	0	0
1096	0	0
1097	0	0
1098	0	0
1099	0	0
1100	0	0
1101	0	0
1102	0	0
1103	1	0
1104	0	0
1105	0	0
1106	0	0
1107	0	0
1108	0	0
1109	0	0
1110	0	0
1111	0	0
1112	0	0
1113	0	0
1114	0	0
1115	0	0
1116	0	0
1117	0	0
1118	0	0
1119	0	0
1120	0	0
1121	0	0
1122	0	0
1123	0	0
1124	0	0
1125	0	0
1126	0	0
1127	0	0
1128	0	0
1129	0	0
1130	0	0
1131	0	0
1132	0	0
1133	0	0
1134	0	0
1135	0	0
1136	0	0
1137	0	0
1138	0	0
1139	0	0
1140	0	0.0833333
1141	0	0.0666667
1142	0	0.0666667
1143	0	0.0666667
1144	0	0.0666667
1145	0	0.0727273
1146	0	0.0606061
1147	0	0.0416667
1148	0	0.0367647
1149	0	0.0367647
1150	0	0.0367647
1151	0	0.0367647
1152	0	0.0292398
1153	0	0.0292398
1154	0	0.0263158
1155	0	0.0368421
1156	0	0.0380952
1157	0	0.0289855
1158	0	0.0246305
1159	0	0.0270936
1160	0	0.0298851
1161	0	0.0344086
1162	0	0.037037
1163	0	0.037037
1164	0	0.0769231
1165	0	0.206349
1166	0	0.211494
1167	0	0.215726
1168	0	0.146154
1169	0	0.118182
1170	0	0.144522
1171	0	0.258614
1172	0	0.24919
1173	0	0.178331
1174	0	0.150671
1175	0	0.11412
1176	0	0.120862
1177	0	0.366419
1178	0	0.351653
1179	0	0.345071
1180	0	0.194444
1181	0	0.103368
1182	0	0.359671
1183	0	0
1184	0	0
1185	0	0
1186	0	0
1187	0	0
1188	0	0
1189	0	0
1190	0	0
1191	0	0
1192	0	0
1193	0	0
1194	0	0
1195	0	0
1196	0	0
1197	0	0
1198	0	0
1199	0	0
1200	0	0
1201	0	0.365028
1202	0	0
1203	0	0
1204	0	0
1205	0	0
1206	0	0
1207	0	0
1208	0	0
1209	0	0
1210	0	0
1211	0	0
1212	0	0
1213	0	0
1214	0	0
1215	0	0
1216	0	0
1217	0	0
1218	0	0
1219	0	0
1220	0	0
1221	0	0
1222	0	0
1223	0	0
1224	0	0
1225	0	0
1226	0	0
1227	0	0.0534759
1228	0	0.0666667
1229	0	0.205602
1230	0	0
1231	0	0
1232	0	0.0517241
1233	0	0.0740741
1234	0	0.0689655
1235	0	0.0574713
1236	0	0.236345
1237	0	0.252632
1238	0	0.252632
1239	0	0.280702
1240	0	0.280702
1241	0	0.280702
1242	0	0.280702
1243	0	0.280702
1244	0	0.280702
1245	0	0.280702
1246	0	0.280702
1247	0	0.280702
1248	0	0.280702
1249	0	0.280702
1250	0	0.313725
1251	0	0.313725
1252	0	0.313725
1253	0	0.313725
1254	0	0.313725
1255	0	0.313725
1256	0	0.313725
1257	0	0.313725
1258	0	0.313725
1259	0	0.313725
1260	0	0.313725
1261	0	0.313725
1262	0	0.313725
1263	0	0.313725
1264	0	0.23913
1265	0	0.23913
1266	0	0.285714
1267	0	0.285714
1268	0	0.285714
1269	0	0.314286
1270	0	0.285714
1271	0	0.285714
1272	0	0.285714
1273	0	0.285714
1274	0	0.285714
1275	0	0.285714
1276	0	0.285714
1277	0	0.285714
1278	0	0.285714
1279	0	0.285714
1280	0	0.314286
1281	0	0.314286
1282	0	0.314286
1283	0	0.347619
1284	0	0.347619
1285	0	0.347619
1286	0	0.347619
1287	0	0.347619
1288	0	0.304762
1289	0	0.304762
1290	0	0.304762
1291	0	0.304762
1292	0	0.304762
1293	0	0.304762
1294	0	0.304762
1295	0	0.304762
1296	0	0.304762
1297	0	0.304762
1298	0	0.304762
1299	0	0.247619
1300	0	0.271429
1301	0	0.271429
1302	0	0.271429
1303	0	0.271429
1304	0	0.271429
1305	0	0.271429
1306	0	0.271429
1307	0	0.271429
1308	0	0.271429
1309	0	0.271429
1310	0	0.271429
1311	0	0.271429
1312	0	0.271429
1313	0	0.271429
1314	0	0.271429
1315	0	0.271429
1316	0	0.271429
1317	0	0.263158
1318	0	0.263158
1319	0	0.263158
1320	0	0.263158
1321	0	0.28655
1322	0	0.28655
1323	0	0.28655
1324	0	0.320261
1325	0	0.316667
1326	0	0.361905
1327	0	0.361905
1328	0	0.361905
1329	0	0.361905
1330	0	0.361905
1331	0	0.361905
1332	0	0.361905
1333	0	0.361905
1334	0	0.361905
1335	0	0.361905
1336	0	0.373626
1337	0	0.373626
1338	0	0.373626
1339	0	0.373626
1340	0	0.373626
1341	0	0.373626
1342	0	0.373626
1343	0	0.373626
1344	0	0.373626
1345	0	0.373626
1346	0	0.373626
1347	0	0.509091
1348	0	0.509091
1349	0	0.509091
1350	0	0.509091
1351	0	0.509091
1352	0	0.509091
1353	0	0.509091
1354	0	0.509091
1355	0	0.509091
1356	0	0.509091
1357	0	0.509091
1358	0	0.509091
1359	0	0.424242
1360	0	0.424242
1361	0	0.424242
1362	0	0.424242
1363	0	0.424242
1364	0	0.424242
1365	0	0.424242
1366	0	0.424242
1367	0	0.424242
1368	0	0.424242
1369	0	0.424242
1370	0	0.424242
1371	0	0.424242
1372	0	0.424242
1373	0	0.424242
1374	0	0.424242
1375	0	0.424242
1376	0	0.424242
1377	0	0.424242
1378	0	0.509091
1379	0	0.509091
1380	0	0.509091
1381	0	0.509091
1382	0	0.509091
1383	0	0.509091
1384	0	0.509091
1385	0	0.509091
1386	0	0.509091
1387	0	0.509091
1388	0	0.307692
1389	0	0.622222
1390	0	0.622222
1391	0	0.622222
1392	0	0.622222
1393	0	0.622222
1394	0	0.583333
1395	0	0.583333
1396	0	0.583333
1397	0	0.583333
1398	0	0.583333
1399	0	0.583333
1400	0	0.583333
1401	0	0.583333
1402	0	0.583333
1403	0	0.583333
1404	0	0.583333
1405	0	0.583333
1406	0	0.583333
1407	0	0.583333
1408	0	0.583333
1409	0	0.583333
1410	0	0.583333
1411	0	0.583333
1412	0	0.583333
1413	0	0.583333
1414	0	0.583333
1415	0	0.583333
1416	0	0.583333
1417	0	0.583333
1418	0	0.583333
1419	0	0.583333
1420	0	0.583333
1421	0	0.583333
1422	0	0.583333
1423	0	0.583333
1424	0	0.583333
1425	0	0.583333
1426	0	0.583333
1427	0	0.583333
1428	0	0.583333
1429	0	0.583333
1430	0	0.583333
1431	0	0.583333
1432	0	0.583333
1433	0	0.583333
1434	0	0.583333
1435	0	0.583333
1436	0	0.583333
1437	0	0.583333
1438	0	0.583333
1439	0	0.583333
1440	0	0.583333
1441	0	0.583333
1442	0	0.583333
1443	0	0.583333
1444	0	0.583333
1445	0	0.583333
1446	0	0.583333
1447	0	0.583333
1448	0	0.583333
1449	0	0.583333
1450	0	0.583333
1451	0	0.583333
1452	0	0.583333
1453	0	0.75
1454	0	0.75
1455	0	0.75
1456	0	0.75
1457	0	0.714286
1458	0	0.714286
1459	0	0.714286
1460	0	0.714286
1461	0	0.714286
1462	0	0.714286
1463	0	0.714286
1464	0	0.714286
1465	0	0.714286
1466	0	0.714286
1467	0	0.714286
1468	0	0.714286
1469	0	0.714286
1470	0	0.714286
1471	0	0.714286
1472	0	0.714286
1473	0	0.714286
1474	0	0.714286
1475	0	0.714286
1476	0	0.714286
1477	0	0.714286
1478	0	0.714286
1479	0	0.714286
1480	0	0.714286
1481	0	0.714286
1482	0	0.714286
1483	0	0.714286
1484	0	0.714286
1485	0	0.666667
1486	0	0.666667
1487	0	0.666667
1488	0	0.666667
1489	0	0.666667
1490	0	0.666667
1491	0	0.666667
1492	0	0.666667
1493	0	0.666667
1494	0	0.666667
1495	0	0.666667
1496	0	0.666667
1497	0	0.666667
1498	0	0.666667
1499	0	0.666667
1500	0	0.666667
1501	0	0.666667
1502	0	0.666667
1503	0	0.666667
1504	0	0.666667
1505	0	0.4
1506	0	0.4
1507	0	0.3
1508	0	0.3
1509	0	0.3
1510	0	0.3
1511	0	0.166667
1512	0	0.166667
1513	0	0
1514	0	0
1515	0	0
1516	0	0
1517	0	0
1518	0	0
1519	0	0
1520	0	0
1521	0	0
1522	0	0
1523	0	0
1524	0	0
1525	0	0
1526	0	0
1527	0	0
1528	0	0
1529	0	0
1530	0	0
1531	0	0
1532	0	0
1533	0	0
1534	0	0
1535	0	0
1536	0	0
1537	0	0
1538	0	0
1539	0	0
1540	0	0
1541	0	0
1542	0	0
1543	0	0
1544	0	0
1545	0	0
1546	0	0
1547	0	0
1548	0	0
1549	0	0
1550	0	0
1551	0	0.401961
1552	0	0
1553	0	0
1554	0	0
1555	0	0
1556	0	0
1557	0	0
1558	0	0
1559	0	0
1560	0	0
1561	0	0
1562	0	0
1563	0	0
1564	0	0
1565	0	0
1566	0	0
1567	0	0
1568	0	0
1569	0	0
1570	0	0
1571	0	0
1572	0	0
1573	0	0.439381
1574	0	0.0871795
1575	0	0.0885886
1576	0	0.0693802
1577	0	0.0707071
1578	0	0.373135
1579	0	0
1580	0	0
1581	0	0
1582	0	0
1583	0	0
1584	0	0
1585	0	0
1586	0	0
1587	0	0
1588	0	0
1589	0	0
1590	0	0
1591	0	0
1592	0	0
1593	0	0
1594	0	0
1595	0	0
1596	0	0
1597	0	0
1598	0	0
1599	0	0
1600	0	0
1601	0	0
1602	0	0
1603	0	0
1604	0	0
1605	0	0
1606	0	0
1607	0	0
1608	0	0
1609	0	0
1610	0	0
1611	0	0
1612	0	0
1613	0	0
1614	0	0
1615	0	0
1616	0	0
1617	0	0
1618	0	0
1619	0	0
1620	0	0
1621	0	0
1622	0	0
1623	0	0
1624	0	0
1625	0	0
1626	0	0
1627	0	0
1628	0	0
1629	0	0
1630	0	0
1631	0	0
1632	0	0
1633	0	0
1634	0	0
1635	0	0
1636	0	0
1637	0	0
1638	0	0
1639	0	0
1640	0	0
1641	0	0
1642	0	0
1643	0	0
1644	0	0
1645	0	0
1646	0	0
1647	0	0
1648	0	0
1649	0	0
1650	0	0
1651	0	0
1652	0	0
1653	0	0
1654	0	0
1655	0	0
1656	0	0
1657	0	0
1658	0	0
1659	0	0
1660	0	0
1661	0	0
1662	0	0
1663	0	0
1664	0	0
1665	0	0
1666	0	0
1667	0	0
1668	0	0
1669	0	0
1670	0	0
1671	0	0
1672	0	0
1673	0	0
1674	0	0
1675	0	0
1676	0	0.0666667
1677	0	0.0666667
1678	0	0.0666667
1679	0	0.0666667
1680	0	0.0666667
1681	0	0.0666667
1682	0	0.0666667
1683	0	0.2
1684	0	0.2
1685	0	0.2
1686	0	0.2
1687	0	0.133333
1688	0	0.4
1689	0	0.285714
1690	0	0.357143
1691	0	0.357143
1692	0	0.357143
1693	0	0.357143
1694	0	0.357143
1695	0	0.357143
1696	0	0.277778
1697	0	0.277778
1698	0	0.277778
1699	0	0.277778
1700	0	0.277778
1701	0	0.277778
1702	0	0.277778
1703	0	0.277778
1704	0	0.222222
1705	0	0.181818
1706	0	0.181818
1707	0	0.181818
1708	0	0.151515
1709	0	0.151515
1710	0	0.151515
1711	0	0.128205
1712	0	0.141026
1713	0	0.38174
1714	0	0.362492
1715	0	0.0684211
1716	0	0.0684211
1717	0	0.0666667
1718	0	0.0666667
1719	0	0.314922
1720	0	0.1
1721	0	0.1
1722	0	0.1
1723	0	0.1
1724	0	0.1
1725	0	0.1
1726	0	0.1
1727	0	0.1
1728	0	0.0666667
1729	0	0.0666667
1730	0	0.0666667
1731	0	0.0666667
1732	0	0.0666667
1733	0	0.393834
1734	0	0.145455
1735	0	0.145455
1736	0	0.104637
1737	0	0.101633
1738	0	0.115568
1739	0	0.123358
1740	0	0.484653
1741	0	0.452506
1742	0	0.248062
1743	0	0.260163
1744	0	0.364341
1745	0	0.607268
1746	0	0
1747	0	0
1748	0	0
1749	0	0
1750	0	0
1751	0	0
1752	0	0
1753	0	0
1754	0	0
1755	0	0
1756	0	0
1757	0	0
1758	0	0
1759	0	0
1760	0	0
1761	0	0
1762	0	0
1763	0	0
1764	0	0
1765	0	0
1766	0	0
1767	0	0
1768	0	0
1769	0	0
1770	0	0
1771	0	0
1772	0	0
1773	0	0
1774	0	0
1775	0	0
1776	0	0
1777	0	0
1778	0	0
1779	0	0
1780	0	0
1781	0	0
1782	0	0
1783	0	0
1784	0	0
1785	0	0
1786	0	0
1787	0	0
1788	0	0
1789	0	0
1790	0	0
1791	0	0
1792	0	0
1793	0	0
1794	0	0
1795	0	0
1796	0	0
1797	0	0
1798	0	0
1799	0	0
1800	0	0
1801	0	0
1802	0	0
1803	0	0
1804	0	0
1805	0	0
1806	0	0
1807	0	0
1808	0	0
1809	0	0
1810	0	0
1811	0	0
1812	0	0
1813	0	0
1814	0	0
1815	0	0
1816	0	0
1817	0	0
1818	0	0
1819	0	0
1820	0	0
1821	0	0
1822	0	0
1823	0	0
1824	0	0
1825	0	0
1826	0	0
1827	0	0
1828	0	0
1829	0	0
1830	0	0
1831	0	0
1832	0	0
1833	0	0.0666667
1834	0	0.214286
1835	0	0.357143
1836	0	0.357143
1837	0	0.357143
1838	0	0.357143
1839	0	0.357143
1840	0	0.357143
1841	0	0.277778
1842	0	0.277778
1843	0	0.277778
1844	0	0.277778
1845	0	0.277778
1846	0	0.277778
1847	0	0.277778
1848	0	0.277778
1849	0	0.277778
1850	0	0.277778
1851	0	0.277778
1852	0	0.277778
1853	0	0.277778
1854	0	0.277778
1855	0	0.277778
1856	0	0.277778
1857	0	0.277778
1858	0	0.416667
1859	0	0.416667
1860	0	0.416667
1861	0	0.416667
1862	0	0.416667
1863	0	0.416667
1864	0	0.416667
1865	0	0.416667
1866	0	0.416667
1867	0	0.583333
1868	0	0.583333
1869	0	0.583333
1870	0	0.583333
1871	0	0.583333
1872	0	0.583333
1873	0	0.583333
1874	0	0.583333
1875	0	0.583333
1876	0	0.583333
1877	0	0.583333
1878	0	0.583333
1879	0	0.583333
1880	0	0.583333
1881	0	0.583333
1882	0	0.583333
1883	0	0.583333
1884	0	0.583333
1885	0	0.583333
1886	0	0.583333
1887	0	0.583333
1888	0	0.583333
1889	0	0.583333
1890	0	0.583333
1891	0	0.583333
1892	0	0.583333
1893	0	0.583333
1894	0	0.583333
1895	0	0.583333
1896	0	0.583333
1897	0	0.583333
1898	0	0.777778
1899	0	0.777778
1900	0	0.777778
1901	0	0.777778
1902	0	0.777778
1903	0	0.777778
1904	0	0.777778
1905	0	0.777778
1906	0	0.777778
1907	0	0.777778
1908	0	0.777778
1909	0	0.777778
1910	0	0.777778
1911	0	0.777778
1912	0	0.777778
1913	0	0.777778
1914	0	0.777778
1915	0	0.777778
1916	0	0.777778
1917	0	0.777778
1918	0	0.777778
1919	0	0.777778
1920	0	0.777778
1921	0	0.777778
1922	0	0.777778
1923	0	0.777778
1924	0	0.777778
1925	0	1
1926	0	1
1927	0	1
1928	0	1
1929	0	1
1930	0	1
1931	0	1
1932	0	1
1933	0	1
1934	0	1
1935	0	1
1936	0	1
1937	0	1
1938	0	1
1939	0	0.777778
1940	0	0.777778
1941	0	0.777778
1942	0	0.777778
1943	0	0.777778
1944	0	0.777778
1945	0	0.777778
1946	0	0.777778
1947	0	0.777778
1948	0	0.777778
1949	0	0.777778
1950	0	0.777778
1951	0	0.777778
1952	0	0.777778
1953	0	0.777778
1954	0	0.777778
1955	0	0.777778
1956	0	0.777778
1957	0	0.777778
1958	0	0.777778
1959	0	0.777778
1960	0	0.777778
1961	0	1
1962	0	1
1963	0	1
1964	0	1
1965	0	1
1966	0	1
1967	0	1
1968	0	1
1969	0	1
1970	0	1
1971	0	1
1972	0	1
1973	0	0.928501
1974	0	0.5
1975	0	0.5
1976	0	0.52381
1977	0	0.725275
1978	0	0.959455
1979	0	0
1980	0	0
1981	0	0.333333
1982	0	0
1983	0	0
1984	0	0
1985	0	0
1986	0	0
1987	0	0
1988	0	0
1989	0	0
1990	0	0
1991	0	0
1992	0	0
1993	0	0
1994	0	0
1995	0	0
1996	0	0
1997	0	0
1998	0	0
1999	0	0.964764
2000	0	0.966709
2001	0	0.966709
2002	0	0.966709
2003	0	0
2004	0	0
2005	0	0
2006	0	0
2007	0	0
2008	0	0
2009	0	0
2010	0	0
2011	0	0
2012	0	0
2013	0	0.968592
2014	0	0.968592
2015	0	0.968623
2016	0	0.8
2017	0	0.8
2018	0	0.8
2019	0	0.8
2020	0	0.8
2021	0	0.8
2022	0	0.8
2023	0	0.8
2024	0	0.8
2025	0	0.8
2026	0	0.8
2027	0	0.8
2028	0	0.8
2029	0	0.8
2030	0	0.8
2031	0	0.8
2032	0	0.8
2033	0	0.8
2034	0	0.8
2035	0	0.8
2036	0	0.8
2037	0	1
2038	0	1
2039	0	1
2040	0	1
2041	0	1
2042	0	1
2043	0	1
2044	0	1
2045	0	1
2046	0	1
2047	0	1
2048	0	1
2049	0	1
2050	0	1
2051	0	1
2052	0	1
2053	0	1
2054	0	1
2055	0	1
2056	0	1
2057	0	1
2058	0	1
2059	0	1
2060	0	1
2061	0	1
2062	0	1
2063	0	1
2064	0	1
2065	0	1
2066	0	1
2067	0	1
2068	0	1
2069	0	1
2070	0	1
2071	0	1
2072	0	0.777778
2073	0	0.777778
2074	0	0.777778
2075	0	0.777778
2076	0	0.777778
2077	0	0.777778
2078	0	0.777778
2079	0	0.777778
2080	0	0.777778
2081	0	0.777778
2082	0	0.777778
2083	0	0.777778
2084	0	0.777778
2085	0	0.777778
2086	0	0.777778
2087	0	0.777778
2088	0	0.777778
2089	0	0.777778
2090	0	0.777778
2091	0	0.777778
2092	0	0.777778
2093	0	0.777778
2094	0	0.777778
2095	0	0.777778
2096	0	0.777778
2097	0	0.777778
2098	0	0.777778
2099	0	0.777778
2100	0	0.777778
2101	0	0.777778
2102	0	0.777778
2103	0	0.777778
2104	0	0.777778
2105	0	0.777778
2106	0	0.777778
2107	0	0.777778
2108	0	0.777778
2109	0	0.777778
2110	0	0.777778
2111	0	0.777778
2112	0	0.777778
2113	0	0.777778
2114	0	0.777778
2115	0	0.777778
2116	0	0.777778
2117	0	0.777778
2118	0	0.777778
2119	0	0.777778
2120	0	0.777778
2121	0	0.444444
2122	0	0.444444
2123	0	0.444444
2124	0	0.444444
2125	0	0.444444
2126	0	0.444444
2127	0	0.444444
2128	0	0.444444
2129	0	0.444444
2130	0	0.444444
2131	0	0.444444
2132	0	0.444444
2133	0	0.444444
2134	0	0.444444
2135	0	0.444444
2136	0	0.444444
2137	0	0.444444
2138	0	0.444444
2139	0	0.444444
2140	0	0.444444
2141	0	0.444444
2142	0	0.444444
2143	0	0.444444
2144	0	0.444444
2145	0	0.444444
2146	0	0.444444
2147	0	0.444444
2148	0	0.444444
2149	0	0.444444
2150	0	0.444444
2151	0	0.444444
2152	0	0.444444
2153	0	0.444444
2154	0	0.444444
2155	0	0.444444
2156	0	0.444444
2157	0	0.444444
2158	0	0.444444
2159	0	0.444444
2160	0	0.444444
2161	0	0.444444
2162	0	0.444444
2163	0	0.444444
2164	0	0.444444
2165	0	0.444444
2166	0	0.444444
2167	0	0.444444
2168	0	0.444444
2169	0	0.444444
2170	0	0.444444
2171	0	0.444444
2172	0	0.444444
2173	0	0.444444
2174	0	0.444444
2175	0	0.444444
2176	0	0.444444
2177	0	0.444444
2178	0	0.444444
2179	0	0.444444
2180	0	0.444444
2181	0	0.444444
2182	0	0.444444
2183	0	0.444444
2184	0	0.444444
2185	0	0.444444
2186	0	0.444444
2187	0	0.444444
2188	0	0.444444
2189	0	0.444444
2190	0	0.444444
2191	0	0.444444
2192	0	0.444444
2193	0	0.444444
2194	0	0.571429
2195	0	0.571429
2196	0	0.571429
2197	0	0.571429
2198	0	0.571429
2199	0	0.571429
2200	0	0.571429
2201	0	0.571429
2202	0	0.571429
2203	0	0.571429
2204	0	0.571429
2205	0	0.571429
2206	0	0.571429
2207	0	0.571429
2208	0	0.571429
2209	0	0.571429
2210	0	0.571429
2211	0	0.571429
2212	0	0.571429
2213	0	0.571429
2214	0	0.571429
2215	0	0.571429
2216	0	0.571429
2217	0	0.571429
2218	0	0.571429
2219	0	0.571429
2220	0	0.571429
2221	0	0.571429
2222	0	0.571429
2223	0	0.571429
2224	0	0.571429
2225	0	0.571429
2226	0	1
2227	0	0.666667
2228	0	0.666667
2229	0	0.666667
2230	0	0.666667
2231	0	0.666667
2232	0	0.266667
2233	0	0.266667
2234	0	0.266667
2235	0	0.266667
2236	0	0.266667
2237	0	0.266667
2238	0	0.266667
2239	0	0.266667
2240	0	0.266667
2241	0	0.266667
2242	0	0.266667
2243	0	0.266667
2244	0	0.266667
2245	0	0.266667
2246	0	0.266667
2247	0	0.266667
2248	0	0.266667
2249	0	0.266667
2250	0	0.266667
2251	0	0.266667
2252	0	0.266667
2253	0	0.266667
2254	0	0.266667
2255	0	0.266667
2256	0	0.266667
2257	0	0.266667
2258	0	0.266667
2259	0	0.266667
2260	0	0.266667
2261	0	0.266667
2262	0	0.266667
2263	0	0.4
2264	0	0.4
2265	0	0.4
2266	0	0.4
2267	0	0.4
2268	0	0.4
2269	0	0.4
2270	0	1
2271	0	1
2272	0	1
2273	0	1
2274	0	1
2275	0	1
2276	0	1
2277	0	1
2278	0	1
2279	0	1
2280	0	1
2281	0	1
2282	0	1
2283	0	1
2284	0	1
2285	0	1
2286	0	1
2287	0	1
2288	0	1
2289	0	1
2290	0	1
2291	0	1
2292	0	1
2293	0	1
2294	0	1
2295	0	1
2296	0	1
2297	0	1
2298	0	1
2299	0	1
2300	0	1
2301	0	1
2302	0	1
2303	0	1
2304	0	1
2305	0	1
2306	0	1
2307	0	1
2308	0	1
2309	0	1
2310	0	1
2311	0	1
2312	0	1
2313	0	0.982338
2314	0	0
2315	0	0
2316	0	0
2317	0	0
2318	0	0
2319	0	0
2320	0	0
2321	0	0
2322	0	0
2323	0	0.988183
2324	0	0.988183
2325	0	0.988195
2326	0	0.988195
2327	0	0.988195
2328	0	0
2329	0	0
2330	0	0
2331	0	0
2332	0	0
2333	0	0
2334	0	0
2335	0	0
2336	0	0
2337	0	0
2338	0	0
2339	0	0
2340	0	0
2341	0	0
2342	0	0
2343	0	0
2344	0	0
2345	0	0
2346	0	0
2347	0	0
2348	0	0
2349	0	0.992114
2350	0	0.992114
2351	0	0.992114
2352	0	0.990158
2353	0	0.990177
2354	0	0.990187
2355	0	0
2356	0	0
2357	0	0
2358	0	0
2359	0	0
2360	0	0
2361	0	0
2362	0	0
2363	0	0
2364	0	0
2365	0	0
2366	0	0
2367	0	0
2368	0	0
2369	0	0
2370	0	0
2371	0	0
2372	0	0.990177
2373	0	0.990177
2374	0	0.992145
2375	0	0.992138
2376	0	0.990187
2377	0	0.990187
2378	0	0.990187
2379	0	0
2380	0	0
2381	0	0
2382	0	0
2383	0	0
2384	0	0
2385	0	0
2386	0	0
2387	0	0
2388	0	0
2389	0	0
2390	0	0
2391	0	0
2392	0	0
2393	0	0
2394	0	0
2395	0	0
2396	0	0
2397	0	0
2398	0	0.99213
2399	0	0.982355
2400	0	0
2401	0	0
2402	0	0
2403	0	0
2404	0	0
2405	0	0
2406	0	0
2407	0	0
2408	0	0
2409	0	0
2410	0	0
2411	0	0
2412	0	0
2413	0	0
2414	0	0
2415	0	0
2416	0	0
2417	0	0
2418	0	0
2419	0	0
2420	0	0
2421	0	0
2422	0	0
2423	0	0
2424	0	0
2425	0	0
2426	0	0
2427	0	0
2428	0	0
2429	0	0
2430	0	0
2431	0	0.0833333
2432	0	0.166667
2433	0	0.166667
2434	0	0.980331
2435	0	0.980331
2436	0	0
2437	0	0
2438	0	0
2439	0	0
2440	0	0
2441	0	0
2442	0	0
2443	0	0
2444	0	0
2445	0	0
2446	0	0
2447	0	0
2448	0	0
2449	0	0
2450	0	0
2451	0	0
2452	0	0
2453	0	0
2454	0	0
2455	0	0
2456	0	0
2457	0	0
2458	0	0
2459	0	0
2460	0	0
2461	0	0
2462	0	0
2463	0	0
2464	0	0
2465	0	0
2466	0	0
2467	0	0
2468	0	0
2469	0	0
2470	0	0
2471	0	0
2472	0	0
2473	0	0
2474	0	0
2475	0	0
2476	0	0
2477	0	0
2478	0	0
2479	0	0
2480	0	0
2481	0	0
2482	0	0
2483	0	0
2484	0	0
2485	0	0
2486	0	0
2487	0	0
2488	0	0
2489	0	0
2490	0	0
2491	0	0
2492	0	0
2493	0	0
2494	0	0
2495	0	0
2496	0	0
2497	0	0
2498	0	0
2499	0	0
2500	0	0
2501	0	0
2502	0	0
2503	0	0
2504	0	0
2505	0	0
2506	0	0
2507	0	0
2508	0	0
2509	0	0
2510	0	0
2511	0	0
2512	0	0
2513	0	0
2514	0	0
2515	0	0
2516	0	0
2517	0	0
2518	0	0
2519	0	0
2520	0	0
2521	0	0
2522	0	0
2523	0	0
2524	0	0
2525	0	0
2526	0	0
2527	0	0
2528	0	0
2529	0	0
2530	0	0
2531	0	0
2532	0	0
2533	0	0
2534	0	0
2535	0	0
2536	0	0
2537	0	0
2538	0	0
2539	0	0
2540	0	0
2541	0	0
2542	0	0
2543	0	0
2544	0	0
2545	0	0
2546	0	0
2547	0	0
2548	0	0
2549	0	0
2550	0	0
2551	0	0
2552	0	0
2553	0	0
2554	0	0
2555	0	0
2556	0	0
2557	0	0
2558	0	0
2559	0	0
2560	0	0
2561	0	0
2562	0	0
2563	0	0
2564	0	0
2565	0	0
2566	0	0
2567	0	0
2568	0	0
2569	0	0
2570	0	0
2571	0	0
2572	0	0
2573	0	0
2574	0	0
2575	0	0
2576	0	0
2577	0	0
2578	0	0
2579	0	0
2580	0	0
2581	0	0
2582	0	0
2583	0	0
2584	0	0
2585	0	0
2586	0	0
2587	0	0
2588	0	0
2589	0	0
2590	0	0
2591	0	0
2592	0	0
2593	0	0
2594	0	0
2595	0	0
2596	0	0
2597	0	0
2598	0	0
2599	0	0
2600	0	0
2601	0	0
2602	0	0
2603	0	0
2604	0	0
2605	0	0
2606	0	0
2607	0	0
2608	0	0
2609	0	0
2610	0	0
2611	0	0
2612	0	0
2613	0	0
2614	0	0
2615	0	0
2616	0	0
2617	0	0
2618	0	0
2619	0	0
2620	0	0
2621	0	0
2622	0	0
2623	0	0
2624	0	0
2625	0	0
2626	0	0
2627	0	0
2628	0	0
2629	0	0
2630	0	0
2631	0	0
2632	0	0
2633	0	0
2634	0	0
2635	0	0
2636	0	0
2637	0	0
2638	0	0
2639	0	0
2640	0	0
2641	0	0
2642	0	0
2643	0	0
2644	0	0
2645	0	0
2646	0	0
2647	0	0
2648	0	0
2649	0	0
2650	0	0
2651	0	0
2652	0	0
2653	0	0
2654	0	0
2655	0	0
2656	0	0
2657	0	0
2658	0	0
2659	0	0
2660	0	0
2661	0	0
2662	0	0
2663	0	0
2664	0	0
2665	0	0
2666	0	0
2667	0	0
2668	0	0
2669	0	0
2670	0	0
2671	0	0
2672	0	0
2673	0	0
2674	0	0
2675	0	0
2676	0	0
2677	0	0
2678	0	0
2679	0	0
2680	0	0
2681	0	0
2682	0	0
2683	0	0
2684	0	0
2685	0	0
2686	0	0
2687	0	0
2688	0	0
2689	0	0
2690	0	0
2691	0	0
2692	0	0
2693	0	0
2694	0	0
2695	0	0
2696	0	0
2697	0	0.982272
2698	0	0
2699	0	0
2700	0	0
2701	0	0
2702	0	0
2703	0	0
2704	0	0
2705	0	0
2706	0	0
2707	0	0
2708	0	0.992099
2709	0	0.142857
2710	0	0.0666667
2711	0	0.0666667
2712	0	0.0666667
2713	0	0
2714	0	0
2715	0	0
2716	0	0
2717	0	0
2718	0	0
2719	0	0
2720	0	0
2721	0	0
2722	0	0
2723	0	0
2724	1	0
2725	0	0
2726	0	0
2727	0	0
2728	0	0
2729	0	0.686821
2730	1	1
2731	0	0.998041
2732	0	0.998041
2733	1	0
2734	1	0
2735	1	0
2736	1	0
2737	1	0
2738	1	0
2739	1	0
2740	1	0
2741	1	0
2742	1	0
2743	1	0
2744	1	1
2745	1	1
2746	1	1
2747	1	1
2748	1	1
2749	1	1
2750	1	1
2751	1	1
2752	1	1
2753	1	1
2754	1	1
2755	0	1
2756	0	1
2757	0	0.994125
2758	0	0.994125
2759	0	1
2760	0	1
2761	0	0
2762	0	0
2763	0	0
2764	0	0
2765	1	0
2766	1	0
2767	0	0
2768	0	0
2769	0	0
2770	0	0
2771	0	0.992167
2772	0	0
2773	0	0
2774	0	0.666667
2775	0	0.392857
2776	0	0.285714
2777	0	0.321429
2778	0	0.321429
2779	0	1
2780	0	0.532092
2781	0	0
2782	0	0.488889
2783	0	0.253201
2784	0	0.236167
2785	0	0.236167
2786	0	0.42915
2787	0	0.589247
2788	0	0.994129
2789	0	0.996084
2790	0	0.333333
2791	0	0.333333
2792	1	1
2793	1	1
2794	1	1
2795	1	1
2796	1	1
2797	1	1
2798	1	1
2799	0	0.996086
2800	0	0.996086
2801	0	1
2802	1	1
2803	1	1
2804	1	1
2805	1	1
2806	1	1
2807	1	1
2808	1	1
2809	1	1
2810	1	1
2811	1	1
2812	1	1
2813	1	1
2814	1	1
2815	1	1
2816	1	1
2817	1	1
2818	1	1
2819	1	1
2820	0	0.998041
2821	0	0.998037
2822	0	0.998037
2823	0	0.99412
2824	0	0.99021
2825	0	0.989511
2826	0	0.333333
2827	0	0.992155
2828	0	0.996073
2829	1	0
2830	1	0
2831	1	0
2832	0	0
2833	0	0
2834	1	1
2835	1	1
2836	0	1
2837	0	1
2838	0	0.998039
2839	0	1
2840	0	0
2841	0	0
2842	0	0
2843	0	0
2844	0	0
2845	0	0
2846	0	0
2847	0	0.998041
2848	0	0.998041
2849	0	1
2850	0	0.52381
2851	0	0.52381
2852	0	0.266667
2853	0	0.266667
2854	0	0.4
2855	0	0.4
2856	0	0.4
2857	0	0.333333
2858	0	0.333333
2859	0	0.333333
2860	1	1
2861	1	1
2862	1	1
2863	0	0
2864	0	0
2865	0	0
2866	0	0
2867	0	0
2868	0	0
2869	0	0
2870	0	0
2871	0	0
2872	0	0
2873	0	0
2874	0	0
2875	0	0
2876	0	0
2877	0	0
2878	0	0
2879	0	0
2880	0	0
2881	0	0
2882	0	0
2883	0	0
2884	0	0
2885	0	0
2886	1	0
2887	1	0
2888	1	0
2889	1	0
2890	1	0
2891	1	0
2892	1	0
2893	0	0
2894	0	0
2895	0	0
2896	0	0
2897	0	0
2898	0	0
2899	0	0
2900	0	0.89799
2901	0	0.8
2902	0	0.932736
2903	0	0.923263
2904	0	0.133333
2905	0	0.133333
2906	0	0.90617
2907	0	0.5
2908	0	0.2
2909	0	0.4
2910	0	0.4
2911	0	0.469697
2912	0	0.509804
2913	0	0.491979
2914	0	0.397122
2915	0	0.451402
2916	0	0.319067
2917	0	0.285034
2918	0	0.546124
2919	0	0.567251
2920	0	0.866667
2921	0	1
2922	0	0.57926
2923	0	0.59032
2924	0	0.597306
2925	0	0.922999
2926	0	0.371795
2927	0	0.790758
2928	0	0.782482
2929	0	0.782505
2930	0	0.78322
2931	0	0.772177
2932	0	0.769918
2933	0	0.684776
2934	0	0.910696
2935	0	0.95309
2936	0	0.95314
2937	0	0.953165
2938	0	0.222222
2939	0	0.311111
2940	0	0.644444
2941	0	0.69697
2942	0	0.717949
2943	0	0.994083
2944	0	0.994095
2945	0	0.9941
2946	0	0.9941
2947	0	0.992143
2948	0	0.992143
2949	0	0.992143
2950	0	0.992143
2951	0	0.992143
2952	0	0.990192
2953	0	0.990192
2954	0	1
2955	0	1
2956	0	1
2957	0	1
2958	0	1
2959	0	1
2960	0	1
2961	0	0.994114
2962	0	0.994114
2963	0	0.994114
2964	0	0.994114
2965	0	0.994114
2966	0	0.994114
2967	0	0.994114
2968	0	0.994114
2969	0	0.994114
2970	0	0.994114
2971	0	0.994114
2972	1	0
2973	1	0
2974	1	0
2975	1	0
2976	1	0
2977	1	0
2978	1	0
2979	1	0
2980	1	0
2981	1	0
2982	1	0
2983	1	0
2984	1	0
2985	1	0
2986	1	0
2987	1	0
2988	1	0
2989	1	0
2990	1	0
2991	1	0
2992	1	0
2993	1	0
2994	1	0
2995	1	0
2996	1	0
2997	1	0
2998	1	0
2999	1	0
3000	1	0
3001	1	0
3002	1	0
3003	1	0
3004	1	0
3005	1	0
3006	1	0
3007	1	0
3008	1	0
3009	1	0
3010	1	0
3011	1	0
3012	1	0
3013	1	0
3014	1	0
3015	1	0
3016	1	0
3017	1	0
3018	1	0
3019	1	0
3020	1	0
3021	1	0
3022	0	0
3023	0	0
3024	0	1
3025	0	0.996032
3026	0	0.996032
3027	0	0.994056
3028	0	0.994056
3029	0	0.994056
3030	0	0.992077
3031	0	0.992077
3032	0	0.992077
3033	1	0
3034	1	0
3035	1	0
3036	1	0
3037	1	0
3038	0	0.990111
3039	0	0.990111
3040	0	0.990111
3041	0	0.990111
3042	0	0.990111
3043	0	0.990111
3044	0	0.990111
3045	0	0.988138
3046	1	0
3047	1	0
3048	1	0
3049	1	0
3050	1	0
3051	1	0
3052	1	0
3053	0	0
3054	0	0
3055	0	0
3056	0	0
3057	0	0
3058	0	0.988127
3059	0	0.988127
3060	0	0.988127
3061	0	0.986154
3062	0	0
3063	0	0
3064	0	0
3065	0	0
3066	0	0
3067	0	0
3068	0	0
3069	0	0
3070	0	0
3071	0	0
3072	0	0
3073	0	0
3074	0	0
3075	0	0
3076	0	0
3077	0	0.992044
3078	0	0.992044
3079	0	0.992044
3080	0	0.992044
3081	0	0.994024
3082	0	0.994024
3083	0	0.333333
3084	0	0.166667
3085	0	0.166667
3086	0	0.166667
3087	0	0.166667
3088	0	0.166667
3089	0	0.5
3090	0	0.5
3091	0	0.5
3092	0	0.5
3093	0	0.5
3094	0	0.5
3095	0	0.5
3096	0	0.5
3097	0	0.5
3098	0	0.5
3099	0	1
3100	0	1
3101	0	1
3102	0	1
3103	0	1
3104	0	1
3105	0	1
3106	0	1
3107	0	1
3108	0	1
3109	0	1
3110	0	1
3111	0	1
3112	0	1
3113	0	1
3114	0	1
3115	0	1
3116	0	1
3117	0	1
3118	0	1
3119	0	1
3120	0	1
3121	0	1
3122	0	1
3123	0	1
3124	0	1
3125	0	1
3126	0	1
3127	0	1
3128	0	1
3129	0	1
3130	0	1
3131	0	1
3132	0	1
3133	0	1
3134	0	1
3135	0	1
3136	0	1
3137	0	1
3138	0	1
3139	0	1
3140	0	1
3141	0	1
3142	0	1
3143	0	1
3144	0	1
3145	0	1
3146	0	1
3147	0	1
3148	0	1
3149	0	1
3150	0	1
3151	0	1
3152	0	1
3153	0	1
3154	0	1
3155	0	1
3156	0	1
3157	0	1
3158	0	1
3159	0	1
3160	0	1
3161	0	1
3162	0	1
3163	0	1
3164	0	1
3165	0	1
3166	0	1
3167	0	1
3168	0	1
3169	0	1
3170	0	1
3171	0	1
3172	0	1
3173	0	1
3174	0	1
3175	0	1
3176	0	1
3177	0	1
3178	0	1
3179	0	1
3180	0	1
3181	0	1
3182	0	1
3183	0	1
3184	0	1
3185	0	1
3186	0	1
3187	0	1
3188	0	1
3189	0	1
3190	0	1
3191	0	1
3192	0	1
3193	0	1
3194	0	1
3195	0	1
3196	0	1
3197	0	1
3198	0	1
3199	0	1
3200	0	1
3201	0	1
3202	0	1
3203	0	1
3204	0	1
3205	0	1
3206	0	1
3207	0	1
3208	0	1
3209	0	1
3210	0	1
3211	0	1
3212	0	1
3213	0	0.982186
3214	0	0.982186
3215	0	0.982186
3216	0	0.980236
3217	0	0.980236
3218	0	0.980236
3219	0	0.980236
3220	0	0.980236
3221	0	0.980236
3222	0	0.3
3223	0	0.3
3224	0	0.3
3225	0	0.3
3226	0	0.2
3227	0	0.2
3228	0	0.2
3229	0	0.2
3230	0	0.2
3231	0	0.2
3232	0	0.266667
3233	0	0.266667
3234	0	0.266667
3235	0	0.190476
3236	0	0.190476
3237	0	0.190476
3238	0	0.190476
3239	0	0.285714
3240	0	0.285714
3241	0	0.285714
3242	0	0.285714
3243	0	0.285714
3244	0	0.980175
3245	0	0.980175
3246	0	0
3247	0	0
3248	0	0
3249	0	0
3250	0	0.3
3251	0	0.3
3252	0	0.3
3253	0	0.3
3254	0	0.3
3255	0	0.3
3256	0	0.3
3257	0	0.3
3258	0	0.3
3259	0	0.3
3260	0	0.3
3261	0	0.982114
3262	0	0
3263	0	0
3264	0	0
3265	0	0
3266	0	0
3267	0	0
3268	0	0
3269	0	0
3270	0	0
3271	0	0
3272	0	0
3273	0	0
3274	0	0
3275	0	0
3276	0	0
3277	0	0
3278	0	0
3279	0	0
3280	0	0
3281	0	0
3282	0	0
3283	0	0
3284	0	0
3285	0	0
3286	0	0
3287	0	0
3288	0	0
3289	0	0
3290	0	0.980177
3291	0	0
3292	0	0
3293	0	0
3294	0	0
3295	0	0
3296	1	0
3297	0	0.974317
3298	0	0.974317
3299	0	0.5
3300	0	0.5
3301	0	0.5
3302	0	0.5
3303	0	0.5
3304	0	0.5
3305	0	0.5
3306	0	0.5
3307	0	0.5
3308	0	0.5
3309	0	0.5
3310	0	0.5
3311	0	0.5
3312	0	0.5
3313	0	0.5
3314	0	0.5
3315	0	0.5
3316	0	0.5
3317	0	0.5
3318	0	0.5
3319	0	0.5
3320	0	0.5
3321	0	0.5
3322	0	0.5
3323	0	0.5
3324	0	0.5
3325	0	0.5
3326	0	0.3
3327	0	0.3
3328	0	0.3
3329	0	0.3
3330	0	0.3
3331	0	0.3
3332	0	0.3
3333	0	0.3
3334	0	0.3
3335	0	0.3
3336	0	0.2
3337	0	0.142857
3338	0	0.142857
3339	0	0.142857
3340	0	0.142857
3341	0	0.142857
3342	0	0.142857
3343	0	0.142857
3344	0	0.142857
3345	0	0.142857
3346	0	0.142857
3347	0	0.142857
3348	0	0.142857
3349	0	0.142857
3350	0	0.142857
3351	0	0.142857
3352	0	0.2
3353	0	0.974264
3354	0	0.974266
3355	0	1
3356	0	1
3357	0	1
3358	0	1
3359	0	1
3360	0	1
3361	0	1
3362	0	1
3363	0	1
3364	0	1
3365	0	0.5
3366	0	0.5
3367	0	0.5
3368	0	0.5
3369	0	0.5
3370	0	0.5
3371	0	0.5
3372	0	0.5
3373	0	0.5
3374	0	0.5
3375	0	0.5
3376	0	0.5
3377	0	0.5
3378	0	0.5
3379	0	0.5
3380	0	0.5
3381	0	0.5
3382	0	0.5
3383	0	0.5
3384	0	0.5
3385	0	0.5
3386	0	0.5
3387	0	0.5
3388	0	0.5
3389	0	0.5
3390	0	0.5
3391	0	0.5
3392	0	0.5
3393	0	0.5
3394	0	0.5
3395	0	0.5
3396	0	0.5
3397	0	0.5
3398	0	0.3
3399	0	0.3
3400	0	0.3
3401	0	0.3
3402	0	0.3
3403	0	0.3
3404	0	0.2
3405	0	0.2
3406	0	0.107143
3407	0	0.107143
3408	0	0.107143
3409	0	0.107143
3410	0	0.107143
3411	0	0.107143
3412	0	0.93381
3413	0	0.93381
3414	0	0.933746
3415	0	1
3416	0	1
3417	0	1
3418	0	1
3419	0	1
3420	0	1
3421	0	1
3422	0	1
3423	0	1
3424	0	1
3425	0	1
3426	0	1
3427	0	1
3428	0	1
3429	0	1
3430	0	1
3431	0	1
3432	0	1
3433	0	1
3434	0	1
3435	0	1
3436	0	1
3437	0	1
3438	0	1
3439	0	1
3440	0	1
3441	0	1
3442	0	1
3443	0	1
3444	0	1
3445	0	1
3446	0	1
3447	0	0.5
3448	0	0.5
3449	0	0.5
3450	0	0.5
3451	0	0.5
3452	0	0.5
3453	0	0.5
3454	0	0.5
3455	0	0.5
3456	0	0.5
3457	0	0.5
3458	0	0.5
3459	0	0.5
3460	0	0.5
3461	0	0.5
3462	0	0.5
3463	0	0.5
3464	0	0.5
3465	0	0.5
3466	0	0.5
3467	0	0.5
3468	0	0.5
3469	0	0.5
3470	0	0.5
3471	0	0.5
3472	0	0.5
3473	0	0.5
3474	0	0.5
3475	0	0.5
3476	0	0.5
3477	0	0.5
3478	0	0.5
3479	0	0.5
3480	0	0.5
3481	0	0.3
3482	0	0.2
3483	0	0.2
3484	0	0.2
3485	0	0.2
3486	0	0.2
3487	0	0.2
3488	0	0.2
3489	0	0.2
3490	0	0.2
3491	0	0.2
3492	0	0.2
3493	0	0.2
3494	0	0.2
3495	0	0.2
3496	0	0.2
3497	0	0.142857
3498	0	0.107143
3499	0	0.0666667
3500	0	0.0666667
3501	0	0.0666667
3502	0	0.0666667
3503	0	0.132353
3504	0	0.117647
3505	0	0.105263
3506	0	0.0947368
3507	0	0.0947368
3508	0	0.0947368
3509	0	0.0947368
3510	0	0.0947368
3511	0	0.0857143
3512	0	0.0724638
3513	0	0.0724638
3514	0	0.076087
3515	0	0.0833333
3516	0	0.0861538
3517	0	0.0767196
3518	0	0.0666667
3519	0	0.658325
3520	0	0.35064
3521	0	0.607723
3522	0	0
3523	0	0
3524	0	0
3525	0	0
3526	0	0
3527	0	0
3528	0	0
3529	0	0
3530	0	0
3531	0	0
3532	0	0
3533	0	0
3534	0	0
3535	0	0
3536	0	0
3537	0	0
3538	0	0
3539	0	0
3540	0	0
3541	0	0
3542	0	0
3543	0	0
3544	0	0
3545	0	0
3546	0	0
3547	0	0
3548	0	0
3549	0	0
3550	0	0
3551	0	0
3552	0	0
3553	0	0
3554	0	0
3555	0	0
3556	0	0
3557	0	0
3558	0	0
3559	0	0
3560	0	0
3561	0	0
3562	0	0
3563	0	0
3564	0	0
3565	0	0
3566	0	0
3567	0	0
3568	0	0
3569	0	0
3570	0	0
3571	0	0
3572	0	0
3573	0	0
3574	0	0
3575	0	0
3576	0	0
3577	0	0
3578	0	0
3579	0	0
3580	0	0
3581	0	0
3582	0	0
3583	0	0
3584	0	0
3585	0	0
3586	0	0
3587	0	0
3588	0	0
3589	0	0
3590	0	0
3591	0	0
3592	0	0
3593	0	0
3594	0	0
3595	0	0
3596	0	0
3597	0	0
3598	0	0
3599	0	0
3600	0	0
3601	0	0
3602	0	0
3603	0	0
3604	0	0
3605	0	0
3606	0	0
3607	0	0
3608	0	0
3609	0	0
3610	0	0
3611	0	0
3612	0	0
3613	0	0
3614	0	0
3615	0	0
3616	0	0
3617	0	0
3618	0	0
3619	0	0
3620	0	0
3621	0	0
3622	0	0
3623	0	0
3624	0	0
3625	0	0
3626	0	0
3627	0	0
3628	0	0
3629	0	0
3630	0	0
3631	0	0
3632	0	0
3633	0	0
3634	0	0
3635	0	0
3636	0	0
3637	0	0
3638	0	0
3639	0	0
3640	0	0
3641	0	0
3642	0	0
3643	0	0
3644	0	0
3645	0	0
3646	0	0
3647	0	0
3648	0	0
3649	0	0
3650	0	0
3651	0	0
3652	0	0
3653	0	0
3654	0	0
3655	0	0
3656	0	0
3657	0	0
3658	0	0
3659	0	0
3660	0	0
3661	0	0
3662	0	0
3663	0	0
3664	0	0
3665	0	0
3666	0	0
3667	0	0
3668	0	0
3669	0	0
3670	0	0
3671	0	0
3672	0	0
3673	0	0
3674	0	0
3675	0	0
3676	0	0
3677	0	0
3678	0	0
3679	0	0
3680	0	0
3681	0	0
3682	0	0
3683	0	0
3684	0	0
3685	0	0
3686	0	0
3687	0	0
3688	0	0
3689	0	0
3690	0	0
3691	0	0
3692	0	0
3693	0	0
3694	0	0
3695	0	0
3696	0	0
3697	0	0
3698	0	0
3699	0	0
3700	0	0
3701	0	0
3702	0	0
3703	0	0
3704	0	0
3705	0	0
3706	0	0
3707	0	0
3708	0	0
3709	0	0
3710	0	0
3711	0	0
3712	0	0
3713	0	0
3714	0	0
3715	0	0
3716	0	0
3717	0	0
3718	0	0
3719	0	0
3720	0	0
3721	0	0
3722	0	0
3723	0	0
3724	0	0
3725	0	0
3726	0	0
3727	0	0
3728	0	0
3729	0	0
3730	0	0
3731	0	0
3732	0	0
3733	0	0
3734	0	0
3735	0	0
3736	0	0
3737	0	0
3738	0	0
3739	0	0
3740	0	0
3741	0	0
3742	0	0
3743	0	0
3744	0	0
3745	0	0
3746	0	0
3747	0	0
3748	0	0
3749	0	0
3750	0	0
3751	0	0
3752	0	0
3753	0	0
3754	0	0
3755	0	0
3756	0	0
3757	0	0
3758	0	0
3759	0	0
3760	0	0
3761	0	0
3762	0	0
3763	0	0
3764	0	0
3765	0	0.0666667
3766	0	0.0666667
3767	0	0.0545455
3768	0	0.0545455
3769	0	0.0545455
3770	0	0.0545455
3771	0	0.0659341
3772	0	0.0659341
3773	0	0.0659341
3774	0	0.0571429
3775	0	0.0571429
3776	0	0.0684211
3777	0	0.0653595
3778	0	0.0653595
3779	0	0.0653595
3780	0	0.0653595
3781	0	0.0653595
3782	0	0.0915033
3783	0	0.0915033
3784	0	0.0915033
3785	0	0.0818713
3786	0	0.0818713
3787	0	0.0818713
3788	0	0.0818713
3789	0	0.0760234
3790	0	0.0760234
3791	0	0.0684211
3792	0	0.0684211
3793	0	0.0633333
3794	0	0.0584615
3795	0	0.0584615
3796	0	0.0584615
3797	0	0.0615385
3798	0	0.0615385
3799	0	0.12963
3800	0	0.12069
3801	0	0.12069
3802	0	0.12069
3803	0	0.142857
3804	0	0.142857
3805	0	0.133333
3806	0	0.124731
3807	0	0.124731
3808	0	0.108734
3809	0	0.108734
3810	0	0.102521
3811	0	0.119328
3812	0	0.119328
3813	0	0.119328
3814	0	0.119328
3815	0	0.112698
3816	0	0.166667
3817	0	0.165165
3818	0	0.171171
3819	0	0.171171
3820	0	0.162162
3821	0	0.177809
3822	0	0.177809
3823	0	0.177809
3824	0	0.197724
3825	0	0.197724
3826	0	0.207681
3827	0	0.207681
3828	0	0.207681
3829	0	0.207827
3830	0	0.207827
3831	0	0.197436
3832	0	0.187805
3833	0	0.189315
3834	0	0.189315
3835	0	0.189315
3836	0	0.218351
3837	0	0.208195
3838	0	0.208195
3839	0	0.208195
3840	0	0.208195
3841	0	0.208195
3842	0	0.208195
3843	0	0.208195
3844	0	0.208195
3845	0	0.208195
3846	0	0.208195
3847	0	0.208195
3848	0	0.208195
3849	0	0.208195
3850	0	0.216425
3851	0	0.216425
3852	0	0.229952
3853	0	0.220167
3854	0	0.220167
3855	0	0.220167
3856	0	0.220167
3857	0	0.220167
3858	0	0.220167
3859	0	0.220167
3860	0	0.220167
3861	0	0.220167
3862	0	0.211111
3863	0	0.216425
3864	0	0.216425
3865	0	0.216425
3866	0	0.203865
3867	0	0.203865
3868	0	0.203865
3869	0	0.203865
3870	0	0.203865
3871	0	0.203865
3872	0	0.203865
3873	0	0.196115
3874	0	0.196115
3875	0	0.187943
3876	0	0.202128
3877	0	0.202128
3878	0	0.202128
3879	0	0.225177
3880	0	0.496327
3881	0	0.496327
3882	0	0.496327
3883	0	0.496327
3884	0	0.496327
3885	0	0.496327
3886	0	0.496327
3887	0	0.476863
3888	0	0.476863
3889	0	0.476863
3890	0	0.476863
3891	0	0.476863
3892	0	0.476863
3893	0	0.476863
3894	0	0.476863
3895	0	0.476863
3896	0	0.476863
3897	0	0.476863
3898	0	0.476863
3899	0	0.476863
3900	0	0.476863
3901	0	0.476863
3902	0	0.476863
3903	0	0.476863
3904	0	0.476863
3905	0	0.476863
3906	0	0.476863
3907	0	0.425098
3908	0	0.425098
3909	0	0.425098
3910	0	0.476863
3911	0	0.476863
3912	0	0.476863
3913	0	0.476863
3914	0	0.476863
3915	0	0.476863
3916	0	0.476863
3917	0	0.476863
3918	0	0.479216
3919	0	0.479216
3920	0	0.47102
3921	0	0.452549
3922	0	0.479216
3923	0	0.479216
3924	0	0.435374
3925	0	0.411011
3926	0	0.411011
3927	0	0.460784
3928	0	0.460784
3929	0	0.460784
3930	0	0.460784
3931	0	0.460784
3932	0	0.460784
3933	0	0.460784
3934	0	0.460784
3935	0	0.460784
3936	0	0.460784
3937	0	0.460784
3938	0	0.460784
3939	0	0.460784
3940	0	0.460784
3941	0	0.460784
3942	0	0.460784
3943	0	0.460784
3944	0	0.460784
3945	0	0.460784
3946	0	0.460784
3947	0	0.460784
3948	0	0.460784
3949	0	0.460784
3950	0	0.460784
3951	0	0.460784
3952	0	0.460784
3953	0	0.460784
3954	0	0.460784
3955	0	0.411011
3956	0	0.460784
3957	0	0.460784
3958	0	0.460784
3959	0	0.460784
3960	0	0.460784
3961	0	0.460784
3962	0	0.460784
3963	0	0.460784
3964	0	0.460784
3965	0	0.460784
3966	0	0.460784
3967	0	0.460784
3968	0	0.460784
3969	0	0.460784
3970	0	0.460784
3971	0	0.460784
3972	0	0.460784
3973	0	0.460784
3974	0	0.460784
3975	0	0.460784
3976	0	0.460784
3977	0	0.460784
3978	0	0.460784
3979	0	0.460784
3980	0	0.452549
3981	0	0.452549
3982	0	0.452549
3983	0	0.452549
3984	0	0.452549
3985	0	0.452549
3986	0	0.452549
3987	0	0.452549
3988	0	0.452549
3989	0	0.452549
3990	0	0.452549
3991	0	0.452549
3992	0	0.452549
3993	0	0.452549
3994	0	0.452549
3995	0	0.452549
3996	0	0.452549
3997	0	0.452549
3998	0	0.452549
3999	0	0.452549
4000	0	0.452549
4001	0	0.452549
4002	0	0.452549
4003	0	0.452549
4004	0	0.452549
4005	0	0.452549
4006	0	0.452549
4007	0	0.452549
4008	0	0.452549
4009	0	0.452549
4010	0	0.452549
4011	0	0.452549
4012	0	0.452549
4013	0	0.452549
4014	0	0.402353
4015	0	0.334118
4016	0	0.379608
4017	0	0.379608
4018	0	0.358431
4019	0	0.417206
4020	0	0.452549
4021	0	0.452549
4022	0	0.452549
4023	0	0.452549
4024	0	0.452549
4025	0	0.452549
4026	0	0.452549
4027	0	0.452549
4028	0	0.452549
4029	0	0.452549
4030	0	0.452549
4031	0	0.452549
4032	0	0.443396
4033	0	0.443396
4034	0	0.395501
4035	0	0.395501
4036	0	0.443396
4037	0	0.443396
4038	0	0.451433
4039	0	0.451433
4040	0	0.451433
4041	0	0.451433
4042	0	0.451433
4043	0	0.451433
4044	0	0.451433
4045	0	0.451433
4046	0	0.451433
4047	0	0.451433
4048	0	0.451433
4049	0	0.451433
4050	0	0.451433
4051	0	0.403913
4052	0	0.451433
4053	0	0.451433
4054	0	0.451433
4055	0	0.451433
4056	0	0.451433
4057	0	0.451433
4058	0	0.451433
4059	0	0.451433
4060	0	0.451433
4061	0	0.451433
4062	0	0.451433
4063	0	0.451433
4064	0	0.451433
4065	0	0.451433
4066	0	0.451433
4067	0	0.451433
4068	0	0.451433
4069	0	0.451433
4070	0	0.451433
4071	0	0.451433
4072	0	0.451433
4073	0	0.451433
4074	0	0.451433
4075	0	0.451433
4076	0	0.451433
4077	0	0.451433
4078	0	0.451433
4079	0	0.451433
4080	0	0.451433
4081	0	0.451433
4082	0	0.451433
4083	0	0.451433
4084	0	0.451433
4085	0	0.451433
4086	0	0.451433
4087	0	0.451433
4088	0	0.451433
4089	0	0.451433
4090	0	0.405388
4091	0	0.405388
4092	0	0.39141
4093	0	0.39141
4094	0	0.39141
4095	0	0.39141
4096	0	0.39141
4097	0	0.378141
4098	0	0.247253
4099	0	0.624488
4100	0	0
4101	0	0
4102	0	0
4103	0	0
4104	0	0.517313
4105	0	0.666667
4106	0	0.666667
4107	0	0.666667
4108	0	0.666667
4109	0	0.666667
4110	0	0.666667
4111	0	0.666667
4112	0	0.666667
4113	0	0.666667
4114	0	0.666667
4115	0	0.666667
4116	0	0.666667
4117	0	0.666667
4118	0	0.666667
4119	0	0.666667
4120	0	0.666667
4121	0	0.666667
4122	0	0.666667
4123	0	0.666667
4124	0	0.666667
4125	0	0.666667
4126	0	0.666667
4127	0	0.666667
4128	0	0.666667
4129	0	0.666667
4130	0	0.666667
4131	0	0.666667
4132	0	0.666667
4133	0	0.666667
4134	0	0.666667
4135	0	0.666667
4136	0	0.666667
4137	0	0.666667
4138	0	0.666667
4139	0	0.666667
4140	0	0.666667
4141	0	0.666667
4142	0	0.666667
4143	0	0.666667
4144	0	0.666667
4145	0	0.666667
4146	0	0.666667
4147	0	0.666667
4148	0	0.666667
4149	0	0.666667
4150	0	0.666667
4151	0	0.666667
4152	0	0.666667
4153	0	0.666667
4154	0	0.666667
4155	0	0.666667
4156	0	0.666667
4157	0	0.666667
4158	0	0.666667
4159	0	0.666667
4160	0	0.666667
4161	0	0.666667
4162	0	0.666667
4163	0	0.666667
4164	0	0.666667
4165	0	0.666667
4166	0	0.666667
4167	0	0.666667
4168	0	0.666667
4169	0	0.666667
4170	0	0.666667
4171	0	0.666667
4172	0	0.666667
4173	0	0.666667
4174	0	0.666667
4175	0	0.666667
4176	0	0.666667
4177	0	0.666667
4178	0	0.666667
4179	0	0.666667
4180	0	0.666667
4181	0	0.666667
4182	0	0.666667
4183	0	0.666667
4184	0	0.666667
4185	0	0.666667
4186	0	0.666667
4187	0	0.666667
4188	0	0.666667
4189	0	0.666667
4190	0	0.666667
4191	0	0.666667
4192	0	0.666667
4193	0	0.666667
4194	0	0.666667
4195	0	0.666667
4196	0	0.666667
4197	0	0.666667
4198	0	0.666667
4199	0	0.666667
4200	0	0.666667
4201	0	0.666667
4202	0	0.666667
4203	0	0.666667
4204	0	0.666667
4205	0	0.666667
4206	0	0.666667
4207	0	0.666667
4208	0	0.666667
4209	0	0.666667
4210	0	0.666667
4211	0	0.666667
4212	0	0.666667
4213	0	0.666667
4214	0	0.666667
4215	0	0.666667
4216	0	0.666667
4217	0	0.666667
4218	0	0.666667
4219	0	0.666667
4220	0	0.666667
4221	0	0.666667
4222	0	0.666667
4223	0	0.666667
4224	0	0.666667
4225	0	0.666667
4226	0	0.666667
4227	0	0.666667
4228	0	0.666667
4229	0	0.666667
4230	0	0.666667
4231	0	0.666667
4232	0	0.666667
4233	0	0.666667
4234	0	0.666667
4235	0	0.666667
4236	0	0.666667
4237	0	0.666667
4238	0	0.666667
4239	0	0.666667
4240	0	0.666667
4241	0	0.666667
4242	0	0.666667
4243	0	0.666667
4244	0	0.666667
4245	0	0.666667
4246	0	0.666667
4247	0	0.666667
4248	0	0.666667
4249	0	0.666667
4250	0	0.666667
4251	0	0.666667
4252	0	0.666667
4253	0	0.666667
4254	0	0.666667
4255	0	0.666667
4256	0	0.666667
4257	0	0.666667
4258	0	0.666667
4259	0	0.666667
4260	0	0.666667
4261	0	0.666667
4262	0	0.666667
4263	0	0.666667
4264	0	0.666667
4265	0	0.666667
4266	0	0.666667
4267	0	0.666667
4268	0	0.666667
4269	0	0.666667
4270	0	0.666667
4271	0	0.666667
4272	0	0.666667
4273	0	0.666667
4274	0	0.666667
4275	0	0.666667
4276	0	0.666667
4277	0	0.666667
4278	0	0.666667
4279	0	0.666667
4280	0	0.666667
4281	0	0.666667
4282	0	0.666667
4283	0	0.666667
4284	0	0.666667
4285	0	0.666667
4286	0	0.666667
4287	0	0.666667
4288	0	0.666667
4289	0	0.666667
4290	0	0.666667
4291	0	0.666667
4292	0	0.666667
4293	0	0.666667
4294	0	0.666667
4295	0	0.666667
4296	0	0.666667
4297	0	0.47619
4298	0	0.47619
4299	0	0.47619
4300	0	0.47619
4301	0	0.47619
4302	0	0.47619
4303	0	0.47619
4304	0	0.47619
4305	0	0.47619
4306	0	0.47619
4307	0	0.47619
4308	0	0.47619
4309	0	0.47619
4310	0	0.47619
4311	0	0.47619
4312	0	0.47619
4313	0	0.47619
4314	0	0.47619
4315	0	0.47619
4316	0	0.47619
4317	0	0.47619
4318	0	0.47619
4319	0	0.47619
4320	0	0.47619
4321	0	0.47619
4322	0	0.47619
4323	0	0.47619
4324	0	0.47619
4325	0	0.47619
4326	0	0.47619
4327	0	0.47619
4328	0	0.47619
4329	0	0.357143
4330	0	0.357143
4331	0	0.357143
4332	0	0.357143
4333	0	0.357143
4334	0	0.357143
4335	0	0.357143
4336	0	0.357143
4337	0	0.277778
4338	0	0.222222
4339	0	0.222222
4340	0	0.166667
4341	0	0.525689
4342	0	0
4343	0	0
4344	0	0
4345	0	0
4346	0	0
4347	0	0
4348	0	0
4349	0	0
4350	0	0
4351	0	0
4352	0	0
4353	0	0
4354	0	0
4355	0	0
4356	0	0
4357	0	0
4358	0	0
4359	0	0
4360	0	0
4361	0	0
4362	0	0
4363	0	0
4364	0	0
4365	0	0.666667
4366	0	0.666667
4367	0	0.666667
4368	0	0.666667
4369	0	0.666667
4370	0	0.666667
4371	0	0.666667
4372	0	0.666667
4373	0	0.666667
4374	0	0.666667
4375	0	0.666667
4376	0	0.666667
4377	0	0.666667
4378	0	0.666667
4379	0	0.666667
4380	0	0.666667
4381	0	0.666667
4382	0	0.666667
4383	0	0.666667
4384	0	0.666667
4385	0	0.666667
4386	0	0.666667
4387	0	0.666667
4388	0	0.666667
4389	0	0.666667
4390	0	0.666667
4391	0	0.666667
4392	0	0.666667
4393	0	0.666667
4394	0	0.666667
4395	0	0.666667
4396	0	0.666667
4397	0	0.666667
4398	0	0.666667
4399	0	0.666667
4400	0	0.666667
4401	0	0.666667
4402	0	0.666667
4403	0	0.47619
4404	0	0.47619
4405	0	0.47619
4406	0	0.47619
4407	0	0.47619
4408	0	0.47619
4409	0	0.47619
4410	0	0.47619
4411	0	0.47619
4412	0	0.47619
4413	0	0.535714
4414	0	0.535714
4415	0	0.535714
4416	0	0.535714
4417	0	0.535714
4418	0	0.535714
4419	0	0.535714
4420	0	0.535714
4421	0	0.535714
4422	0	0.535714
4423	0	0.535714
4424	0	0.535714
4425	0	0.535714
4426	0	0.535714
4427	0	0.535714
4428	0	0.535714
4429	0	0.535714
4430	0	0.535714
4431	0	0.535714
4432	0	0.535714
4433	0	0.535714
4434	0	0.535714
4435	0	0.535714
4436	0	0.535714
4437	0	0.535714
4438	0	0.535714
4439	0	0.535714
4440	0	0.535714
4441	0	0.535714
4442	0	0.535714
4443	0	0.535714
4444	0	0.535714
4445	0	0.535714
4446	0	0.535714
4447	0	0.535714
4448	0	0.535714
4449	0	0.535714
4450	0	0.535714
4451	0	0.535714
4452	0	0.535714
4453	0	0.535714
4454	0	0.535714
4455	0	0.535714
4456	0	0.535714
4457	0	0.535714
4458	0	0.535714
4459	0	0.535714
4460	0	0.535714
4461	0	0.535714
4462	0	0.535714
4463	0	0.535714
4464	0	0.535714
4465	0	0.535714
4466	0	0.535714
4467	0	0.535714
4468	0	0.535714
4469	0	0.535714
4470	0	0.355556
4471	0	0.355556
4472	0	0.355556
4473	0	0.355556
4474	0	0.247619
4475	0	0.247619
4476	0	0.247619
4477	0	0.247619
4478	0	0.247619
4479	0	0.274725
4480	0	0.274725
4481	0	0.274725
4482	0	0.183007
4483	0	0.183007
4484	0	0.183007
4485	0	0.163743
4486	0	0.163743
4487	0	0.147368
4488	0	0.147368
4489	0	0.147368
4490	0	0.147368
4491	0	0.147368
4492	0	0.133333
4493	0	0.133333
4494	0	0.12381
4495	0	0.12381
4496	0	0.12381
4497	0	0.12381
4498	0	0.12381
4499	0	0.12381
4500	0	0.12381
4501	0	0.12381
4502	0	0.112554
4503	0	0.102767
4504	0	0.102767
4505	0	0.773138
4506	0	0.549214
4507	0	0.558919
4508	0	0.580282
4509	0	0.575155
4510	0	0.592072
4511	0	0.56498
4512	0	0.565537
4513	0	0.559322
4514	0	0.559322
4515	0	0.559322
4516	0	0.464286
4517	0	0.456566
4518	0	0.424179
4519	0	0.276018
4520	0	0.25641
4521	0	0.247843
4522	0	0.16722
4523	0	0.176539
4524	0	0.19359
4525	0	0.136558
4526	0	0.0853485
4527	0	0.0855856
4528	0	0.0840336
4529	0	0.0909091
4530	0	0.101604
4531	0	0.108466
4532	0	0.104615
4533	0	0.116667
4534	0	0.123188
4535	0	0.134387
4536	0	0.142857
4537	0	0.0822511
4538	0	0.0947368
4539	0	0.105263
4540	0	0.125
4541	0	0.141026
4542	0	0.141026
4543	0	0.166667
4544	0	0.2
4545	0	0.2
4546	0	0.2
4547	0	0.2
4548	0	0.244444
4549	0	0.305556
4550	0	0.305556
4551	0	0.305556
4552	0	0.392857
4553	0	0.392857
4554	0	0.392857
4555	0	0.392857
4556	0	0.52381
4557	0	0.52381
4558	0	0.52381
4559	0	0.52381
4560	0	0.52381
4561	0	0.52381
4562	0	0.52381
4563	0	0.52381
4564	0	0.52381
4565	0	0.52381
4566	0	0.52381
4567	0	0.52381
4568	0	0.52381
4569	0	0.52381
4570	0	0.52381
4571	0	0.392857
4572	0	0.311111
4573	0	0.318182
4574	0	0.52381
4575	0	0.52381
4576	0	0.52381
4577	0	0.52381
4578	0	0.52381
4579	0	0.52381
4580	0	0.52381
4581	0	0.52381
4582	0	0.52381
4583	0	0.52381
4584	0	0.52381
4585	0	0.52381
4586	0	0.52381
4587	0	0.52381
4588	0	0.52381
4589	0	0.52381
4590	0	0.52381
4591	0	0.52381
4592	0	0.52381
4593	0	0.52381
4594	0	0.52381
4595	0	0.52381
4596	0	0.52381
4597	0	0.52381
4598	0	0.52381
4599	0	0.52381
4600	0	0.52381
4601	0	0.52381
4602	0	0.52381
4603	0	0.52381
4604	0	0.52381
4605	0	0.52381
4606	0	0.52381
4607	0	0.52381
4608	0	0.52381
4609	0	0.52381
4610	0	0.52381
4611	0	0.52381
4612	0	0.52381
4613	0	0.52381
4614	0	0.52381
4615	0	0.52381
4616	0	0.52381
4617	0	0.52381
4618	0	0.52381
4619	0	0.52381
4620	0	0.52381
4621	0	0.52381
4622	0	0.52381
4623	0	0.52381
4624	0	0.52381
4625	0	0.52381
4626	0	0.52381
4627	0	0.52381
4628	0	0.52381
4629	0	0.52381
4630	0	0.52381
4631	0	0.52381
4632	0	0.52381
4633	0	0.52381
4634	0	0.52381
4635	0	0.52381
4636	0	0.52381
4637	0	0.52381
4638	0	0.52381
4639	0	0.52381
4640	0	0.52381
4641	0	0.52381
4642	0	0.52381
4643	0	0.52381
4644	0	0.52381
4645	0	0.52381
4646	0	0.52381
4647	0	0.52381
4648	0	0.52381
4649	0	0.52381
4650	0	0.52381
4651	0	0.52381
4652	0	0.52381
4653	0	0.52381
4654	0	0.52381
4655	0	0.52381
4656	0	0.52381
4657	0	0.52381
4658	0	0.52381
4659	0	0.52381
4660	0	0.52381
4661	0	1
4662	0	1
4663	0	1
4664	0	1
4665	0	1
4666	0	1
4667	0	1
4668	0	1
4669	0	1
4670	0	1
4671	0	1
4672	0	1
4673	0	1
4674	0	1
4675	0	0.423975
4676	0	0.416853
4677	0	0
4678	0	0
4679	0	0
4680	0	0
4681	0	0
4682	0	0
4683	0	0
4684	0	0
4685	0	0
4686	0	0
4687	0	0
4688	0	0
4689	0	0
4690	0	0
4691	0	0
4692	0	0
4693	0	0
4694	0	0
4695	0	0
4696	0	0
4697	0	0
4698	0	0
4699	0	0
4700	0	0
4701	0	0
4702	0	0
4703	0	0
4704	0	0
4705	0	0
4706	0	0
4707	0	0
4708	0	0
4709	0	0
4710	0	0
4711	0	0
4712	0	0
4713	0	0
4714	0	0
4715	0	0
4716	0	0
4717	0	0
4718	0	0
4719	0	0
4720	0	0
4721	0	0
4722	0	0
4723	0	0
4724	0	0
4725	0	0
4726	0	0
4727	0	0
4728	0	0
4729	0	0
4730	0	0
4731	0	0
4732	0	0
4733	0	0
4734	0	0
4735	0	0
4736	0	0
4737	0	0
4738	0	0
4739	0	0
4740	0	0
4741	0	0
4742	0	0
4743	0	0
4744	0	0
4745	0	0
4746	0	0
4747	0	0
4748	0	0
4749	0	0
4750	0	0
4751	0	0
4752	0	0
4753	0	0
4754	0	0
4755	0	0
4756	0	0
4757	0	0
4758	0	0
4759	0	0
4760	0	0
4761	0	0
4762	0	0
4763	0	0
4764	0	0
4765	0	0
4766	0	0
4767	0	0
4768	0	0
4769	0	0
4770	0	0
4771	0	0
4772	0	0
4773	0	0
4774	0	0
4775	0	0
4776	0	0
4777	0	0
4778	0	0
4779	0	0
4780	0	0
4781	0	0
4782	0	0
4783	0	0
4784	0	0
4785	0	0
4786	0	0
4787	0	0
4788	0	0
4789	0	0
4790	0	0
4791	0	0
4792	0	0
4793	0	0
4794	0	0
4795	0	0
4796	0	0
4797	0	0
4798	0	0
4799	0	0
4800	0	0
4801	0	0
4802	0	0
4803	0	0
4804	0	0
4805	0	0
4806	0	0
4807	0	0
4808	0	0
4809	0	0
4810	0	0
4811	0	0
4812	0	0
4813	0	0
4814	0	0
4815	0	0
4816	0	0
4817	0	0
4818	0	0
4819	0	0
4820	0	0
4821	0	0
4822	0	0
4823	0	0
4824	0	0
4825	0	0
4826	0	0
4827	0	0
4828	0	0
4829	0	0
4830	0	0
4831	0	0
4832	0	0
4833	0	0
4834	0	0
4835	0	0
4836	0	0
4837	0	0
4838	0	0
4839	0	0
4840	0	0
4841	0	0
4842	0	0
4843	0	0
4844	0	0
4845	0	0
4846	0	0
4847	0	0
4848	0	0
4849	0	0
4850	0	0
4851	0	0
4852	0	0
4853	0	0
4854	0	0
4855	0	0
4856	0	0
4857	0	0
4858	0	0
4859	0	0
4860	0	0
4861	0	0
4862	0	0
4863	0	0
4864	0	0
4865	0	0
4866	0	0
4867	0	0
4868	0	0
4869	0	0
4870	0	0
4871	0	0
4872	0	0
4873	0	0
4874	0	0
4875	0	0
4876	0	0
4877	0	0
4878	0	0
4879	0	0
4880	0	0
4881	0	0
4882	0	0
4883	0	0
4884	0	0
4885	0	0
4886	0	0
4887	0	0
4888	0	0
4889	0	0
4890	0	0
4891	0	0
4892	0	0
4893	0	0
4894	0	0
4895	0	0
4896	0	0
4897	0	0
4898	0	0
4899	0	0
4900	0	0
4901	0	0
4902	0	0
4903	0	0
4904	0	0
4905	0	0
4906	0	0
4907	0	0
4908	0	0
4909	0	0
4910	0	0.5
4911	0	0
4912	0	0
4913	0	0
4914	0	0
4915	0	0
4916	0	0
4917	0	0.217949
4918	0	0
4919	0	0
4920	0	0
4921	0	0
4922	0	0
4923	0	0
4924	0	0
4925	0	0
4926	0	0
4927	0	0
4928	0	0
4929	0	0
4930	0	0
4931	0	0
4932	0	0
4933	0	0
4934	0	0
4935	0	0
4936	0	0
4937	0	0
4938	0	0
4939	0	0
4940	0	0
4941	0	0
4942	0	0
4943	0	0
4944	0	0
4945	0	0
4946	0	0
4947	0	0
4948	0	0
4949	0	0
4950	0	0
4951	0	0
4952	0	0
4953	0	0
4954	0	0
4955	0	0
4956	0	0
4957	0	0
4958	0	0
4959	0	0
4960	0	0
4961	0	0
4962	0	0
4963	0	0
4964	0	0
4965	0	0
4966	0	0
4967	0	0
4968	0	0
4969	0	0
4970	0	0
4971	0	0
4972	0	0
4973	0	0
4974	0	0
4975	0	0
4976	0	0
4977	0	0
4978	0	0
4979	0	0
4980	0	0
4981	0	0
4982	0	0
4983	0	0
4984	0	0
4985	0	0
4986	0	0
4987	0	0
4988	0	0
4989	0	0
4990	0	0
4991	0	0
4992	0	0
4993	0	0
4994	0	0
4995	0	0
4996	0	0
4997	0	0
4998	0	0
4999	0	0
5000	0	0
5001	0	0
5002	0	0
5003	0	0
5004	0	0
5005	0	0
5006	0	0
5007	0	0
5008	0	0
5009	0	0
5010	0	0
5011	0	0
5012	0	0
5013	0	0
5014	0	0
5015	0	0
5016	0	0
5017	0	0
5018	0	0
5019	0	0
5020	0	0
5021	0	0
5022	0	0
5023	0	0
5024	0	0
5025	0	0
5026	0	0
5027	0	0
5028	0	0
5029	0	0
5030	0	0
5031	0	0
5032	0	0
5033	0	0
5034	0	0
5035	0	0
5036	0	0
5037	0	0
5038	0	0
5039	0	0
5040	0	0
5041	0	0
5042	0	0
5043	0	0
5044	0	0
5045	0	0
5046	0	0
5047	0	0
5048	0	0
5049	0	0
5050	0	0
5051	0	0
5052	0	0
5053	0	0
5054	0	0
5055	0	0
5056	0	0
5057	0	0
5058	0	0
5059	0	0
5060	0	0
5061	0	0
5062	0	0
5063	0	0
5064	0	0
5065	0	0
5066	0	0
5067	0	0
5068	0	0
5069	0	0
5070	0	0
5071	0	0
5072	0	0
5073	0	0
5074	0	0
5075	0	0
5076	0	0
5077	0	0
5078	0	0
5079	0	0
5080	0	0
5081	0	0
5082	0	0
5083	0	0
5084	0	0
5085	0	0
5086	0	0
5087	0	0
5088	0	0
5089	0	0
5090	0	0
5091	0	0
5092	0	0
5093	0	0
5094	0	0
5095	0	0
5096	0	0
5097	0	0
5098	0	0
5099	0	0
5100	0	0
5101	0	0
5102	0	0
5103	0	0
5104	0	0
5105	0	0
5106	0	0
5107	0	0
5108	0	0
5109	0	0
5110	0	0.5
5111	0	0.5
5112	0	0.5
5113	0	0.5
5114	0	0.5
5115	0	0.5
5116	0	0.5
5117	0	0.5
5118	0	0.5
5119	0	0.321429
5120	0	0.321429
5121	0	0.25
5122	0	0.25
5123	0	0.25
5124	0	0.25
5125	0	0.25
5126	0	0.25
5127	0	0.25
5128	0	0.25
5129	0	0.25
5130	0	0.25
5131	0	0.25
5132	0	0.25
5133	0	0.25
5134	0	0.25
5135	0	0.25
5136	0	0.25
5137	0	0.25
5138	0	0.25
5139	0	0.25
5140	0	0.25
5141	0	0.25
5142	0	0.25
5143	0	0.25
5144	0	0.25
5145	0	0.25
5146	0	0.25
5147	0	0.25
5148	0	0.25
5149	0	0.25
5150	0	0.25
5151	0	0.25
5152	0	0.25
5153	0	0.25
5154	0	0.25
5155	0	0.25
5156	0	0.25
5157	0	0.25
5158	0	0.25
5159	0	0.25
5160	0	0.25
5161	0	0.25
5162	0	0.25
5163	0	0.25
5164	0	0.25
5165	0	0.25
5166	0	0.25
5167	0	0.25
5168	0	0.25
5169	0	0.25
5170	0	0.25
5171	0	0.25
5172	0	0.25
5173	0	0.25
5174	0	0.25
5175	0	0.25
5176	0	0.25
5177	0	0.25
5178	0	0.25
5179	0	0.25
5180	0	0.25
5181	0	0.25
5182	0	0.25
5183	0	0.25
5184	0	0.25
5185	0	0.25
5186	0	0.25
5187	0	0.25
5188	0	0.25
5189	0	0.25
5190	0	0.25
5191	0	0.25
5192	0	0.25
5193	0	0.25
5194	0	0.25
5195	0	0.25
5196	0	0.25
5197	0	0.25
5198	0	0.25
5199	0	0.25
5200	0	0.25
5201	0	0.25
5202	0	0.25
5203	0	0.25
5204	0	0.25
5205	0	0.25
5206	0	0.25
5207	0	0.25
5208	0	0.25
5209	0	0.25
5210	0	0.25
5211	0	0.25
5212	0	0.25
5213	0	0.25
5214	0	0.25
5215	0	0.25
5216	0	0.25
5217	0	0.25
5218	0	0.25
5219	0	0.25
5220	0	0.25
5221	0	0.25
5222	0	0.25
5223	0	0.25
5224	0	0.25
5225	0	0.25
5226	0	0.25
5227	0	0.25
5228	0	0.25
5229	0	0.25
5230	0	0.25
5231	0	0.192308
5232	0	0.192308
5233	0	0.192308
5234	0	0.192308
5235	0	0.192308
5236	0	0.228571
5237	0	0.228571
5238	0	0.228571
5239	0	0.228571
5240	0	0.228571
5241	0	0.228571
5242	0	0.228571
5243	0	0.228571
5244	0	0.228571
5245	0	0.228571
5246	0	0.228571
5247	0	0.228571
5248	0	0.228571
5249	0	0.228571
5250	0	0.228571
5251	0	0.228571
5252	0	0.228571
5253	0	0.228571
5254	0	0.228571
5255	0	0.228571
5256	0	0.228571
5257	0	0.228571
5258	0	0.228571
5259	0	0.228571
5260	0	0.228571
5261	0	0.228571
5262	0	0.228571
5263	0	0.228571
5264	0	0.228571
5265	0	0.228571
5266	0	0.228571
5267	0	0.228571
5268	0	0.228571
5269	0	0.228571
5270	0	0.228571
5271	0	0.228571
5272	0	0.228571
5273	0	0.228571
5274	0	0.228571
5275	0	0.228571
5276	0	0.228571
5277	0	0.228571
5278	0	0.228571
5279	0	0.228571
5280	0	0.228571
5281	0	0.228571
5282	0	0.228571
5283	0	0.228571
5284	0	0.228571
5285	0	0.228571
5286	0	0.228571
5287	0	0.228571
5288	0	0.228571
5289	0	0.228571
5290	0	0.228571
5291	0	0.228571
5292	0	0.228571
5293	0	0.228571
5294	0	0.228571
5295	0	0.228571
5296	0	0.228571
5297	0	0.228571
5298	0	0.228571
5299	0	0.228571
5300	0	0.228571
5301	0	0.228571
5302	0	0.228571
5303	0	0.228571
5304	0	0.228571
5305	0	0.228571
5306	0	0.228571
5307	0	0.228571
5308	0	0.228571
5309	0	0.228571
5310	0	0.228571
5311	0	0.228571
5312	0	0.228571
5313	0	0.228571
5314	0	0.228571
5315	0	0.228571
5316	0	0.228571
5317	0	0.228571
5318	0	0.228571
5319	0	0.228571
5320	0	0.228571
5321	0	0.228571
5322	0	0.228571
5323	0	0.228571
5324	0	0.228571
5325	0	0.228571
5326	0	0.228571
5327	0	0.228571
5328	0	0.228571
5329	0	0.228571
5330	0	0.228571
5331	0	0.228571
5332	0	0.228571
5333	0	0.228571
5334	0	0.228571
5335	0	0.228571
5336	0	0.228571
5337	0	0.228571
5338	0	0.228571
5339	0	0.2
5340	0	0.2
5341	0	0.183333
5342	0	0.183333
5343	0	0.183333
5344	0	0.183333
5345	0	0.2
5346	0	0.2
5347	0	0.2
5348	0	0.183333
5349	0	0.183333
5350	0	0.183333
5351	0	0.183333
5352	0	0.183333
5353	0	0.183333
5354	0	0.183333
5355	0	0.183333
5356	0	0.183333
5357	0	0.183333
5358	0	0.209524
5359	0	0.209524
5360	0	0.209524
5361	0	0.209524
5362	0	0.209524
5363	0	0.209524
5364	0	0.209524
5365	0	0.209524
5366	0	0.209524
5367	0	0.209524
5368	0	0.209524
5369	0	0.209524
5370	0	0.209524
5371	0	0.183333
5372	0	0.183333
5373	0	0.183333
5374	0	0.183333
5375	0	0.175
5376	0	0.175
5377	0	0.175
5378	0	0.175
5379	0	0.175
5380	0	0.116883
5381	0	0.119565
5382	0	0.119565
5383	0	0.351504
5384	0	0.351504
5385	0	0.361039
5386	0	0.361039
5387	0	0.361039
5388	0	0.361039
5389	0	0.361039
5390	0	0.373737
5391	0	0.373737
5392	0	0.373737
5393	0	0.387841
5394	0	0.387841
5395	0	0.387841
5396	0	0.387841
5397	0	0.387841
5398	0	0.373737
5399	0	0.373737
5400	0	0.387841
5401	0	0.386443
5402	0	0.386443
5403	0	0.386443
5404	0	0.386443
5405	0	0.386443
5406	0	0.390636
5407	0	0.390636
5408	0	0.390636
5409	0	0.390636
5410	0	0.398653
5411	0	0.398653
5412	0	0.398653
5413	0	0.398653
5414	0	0.398653
5415	0	0.398653
5416	0	0.398653
5417	0	0.398653
5418	0	0.398653
5419	0	0.398653
5420	0	0.398653
5421	0	0.398653
5422	0	0.398653
5423	0	0.398653
5424	0	0.398653
5425	0	0.398653
5426	0	0.398653
5427	0	0.398653
5428	0	0.398653
5429	0	0.39596
5430	0	0.39596
5431	0	0.40202
5432	0	0.40202
5433	0	0.40202
5434	0	0.395286
5435	0	0.381169
5436	0	0.37987
5437	0	0.387662
5438	0	0.387662
5439	0	0.387662
5440	0	0.387662
5441	0	0.387662
5442	0	0.387662
5443	0	0.387662
5444	0	0.387662
5445	0	0.387662
5446	0	0.387662
5447	0	0.387662
5448	0	0.387662
5449	0	0.387662
5450	0	0.387662
5451	0	0.387662
5452	0	0.387662
5453	0	0.387662
5454	0	0.387662
5455	0	0.387662
5456	0	0.379798
5457	0	0.379798
5458	0	0.379798
5459	0	0.358249
5460	0	0.290909
5461	0	0.195455
5462	0	0.206494
5463	0	0.203367
5464	0	0.381818
5465	0	0.381818
5466	0	0.333333
5467	0	0.282051
5468	0	0.219048
5469	0	0.24
5470	0	0.232941
5471	0	0.215933
5472	0	0.216632
5473	0	0.202655
5474	0	0.202655
5475	0	0.19798
5476	0	0.20202
5477	0	0.189226
5478	0	0.196633
5479	0	0.214141
5480	0	0.214141
5481	0	0.214141
5482	0	0.214141
5483	0	0.206494
5484	0	0.206494
5485	0	0.194156
5486	0	0.235714
5487	0	0.233786
5488	0	0.256892
5489	0	0.286967
5490	0	0.306494
5491	0	0.313283
5492	0	0.347118
5493	0	0.422306
5494	0	0.422306
5495	0	0.422306
5496	0	0.422306
5497	0	0.422306
5498	0	0.444236
5499	0	0.444236
5500	0	0.444236
5501	0	0.444236
5502	0	0.444236
5503	0	0.444236
5504	0	0.444236
5505	0	0.444236
5506	0	0.444236
5507	0	0.444236
5508	0	0.444236
5509	0	0.452381
5510	0	0.436782
5511	0	0.436782
5512	0	0.436782
5513	0	0.436782
5514	0	0.436177
5515	0	0.436177
5516	0	0.436177
5517	0	0.436177
5518	0	0.436177
5519	0	0.436177
5520	0	0.436177
5521	0	0.436177
5522	0	0.436177
5523	0	0.436177
5524	0	0.436177
5525	0	0.421391
5526	0	0.421391
5527	0	0.421391
5528	0	0.421391
5529	0	0.421391
5530	0	0.421391
5531	0	0.421391
5532	0	0.407345
5533	0	0.407345
5534	0	0.393989
5535	0	0.393989
5536	0	0.393989
5537	0	0.393989
5538	0	0.393989
5539	0	0.393989
5540	0	0.393989
5541	0	0.393989
5542	0	0.393989
5543	0	0.393989
5544	0	0.393989
5545	0	0.393989
5546	0	0.357639
5547	0	0.357639
5548	0	0.357639
5549	0	0.357639
5550	0	0.357639
5551	0	0.357639
5552	0	0.346635
5553	0	0.346635
5554	0	0.346635
5555	0	0.346635
5556	0	0.346635
5557	0	0.346635
5558	0	0.336131
5559	0	0.336131
5560	0	0.336131
5561	0	0.336131
5562	0	0.336131
5563	0	0.326097
5564	0	0.326097
5565	0	0.326097
5566	0	0.326097
5567	0	0.326097
5568	0	0.326097
5569	0	0.326097
5570	0	0.326097
5571	0	0.326097
5572	0	0.326097
5573	0	0.326097
5574	0	0.326097
5575	0	0.326097
5576	0	0.326097
5577	0	0.326097
5578	0	0.326097
5579	0	0.326097
5580	0	0.326097
5581	0	0.326097
5582	0	0.316506
5583	0	0.316506
5584	0	0.316506
5585	0	0.316506
5586	0	0.316506
5587	0	0.316506
5588	0	0.316506
5589	0	0.316506
5590	0	0.316506
5591	0	0.316506
5592	0	0.316506
5593	0	0.316506
5594	0	0.307332
5595	0	0.307332
5596	0	0.307332
5597	0	0.307332
5598	0	0.307332
5599	0	0.307332
5600	0	0.307332
5601	0	0.278346
5602	0	0.241262
5603	0	0.228474
5604	0	0.187445
5605	0	0.187445
5606	0	0.187445
5607	0	0.187445
5608	0	0.187445
5609	0	0.193125
5610	0	0.193578
5611	0	0.193125
5612	0	0.199068
5613	0	0.199068
5614	0	0.199068
5615	0	0.199068
5616	0	0.199068
5617	0	0.199068
5618	0	0.199068
5619	0	0.199068
5620	0	0.211806
5621	0	0.198669
5622	0	0.198669
5623	0	0.198669
5624	0	0.205182
5625	0	0.205182
5626	0	0.205182
5627	0	0.205182
5628	0	0.205182
5629	0	0.205182
5630	0	0.205182
5631	0	0.205182
5632	0	0.205182
5633	0	0.212022
5634	0	0.212022
5635	0	0.212022
5636	0	0.212022
5637	0	0.219209
5638	0	0.212994
5639	0	0.220339
5640	0	0.220339
5641	0	0.220339
5642	0	0.22807
5643	0	0.22807
5644	0	0.22807
5645	0	0.22807
5646	0	0.22807
5647	0	0.193587
5648	0	0.137326
5649	0	0.206292
5650	0	0.203872
5651	0	0.205082
5652	0	0.205082
5653	0	0.205082
5654	0	0.205082
5655	0	0.205082
5656	0	0.205082
5657	0	0.205082
5658	0	0.205082
5659	0	0.205082
5660	0	0.205082
5661	0	0.205082
5662	0	0.205082
5663	0	0.202057
5664	0	0.186328
5665	0	0.151845
5666	0	0.163339
5667	0	0.165759
5668	0	0.167574
5669	0	0.167574
5670	0	0.167574
5671	0	0.167574
5672	0	0.167574
5673	0	0.167574
5674	0	0.167574
5675	0	0.167574
5676	0	0.145191
5677	0	0.135511
5678	0	0.139098
5679	0	0.139098
5680	0	0.139098
5681	0	0.140977
5682	0	0.140977
5683	0	0.140977
5684	0	0.146104
5685	0	0.146104
5686	0	0.146104
5687	0	0.144805
5688	0	0.140977
5689	0	0.140977
5690	0	0.151515
5691	0	0.149804
5692	0	0.145833
5693	0	0.153226
5694	0	0.215385
5695	0	0.215385
5696	0	0.233333
5697	0	0.233333
5698	0	0.233333
5699	0	0.233333
5700	0	0.246377
5701	0	0.290043
5702	0	0.290043
5703	0	0.319048
5704	0	0.319048
5705	0	0.319048
5706	0	0.319048
5707	0	0.319048
5708	0	0.319048
5709	0	0.319048
5710	0	0.319048
5711	0	0.352632
5712	0	0.352632
5713	0	0.352632
5714	0	0.352632
5715	0	0.352632
5716	0	0.391813
5717	0	0.391813
5718	0	0.391813
5719	0	0.391813
5720	0	0.391813
5721	0	0.391813
5722	0	0.352632
5723	0	0.352632
5724	0	0.352632
5725	0	0.352632
5726	0	0.352632
5727	0	0.352632
5728	0	0.352632
5729	0	0.352632
5730	0	0.352632
5731	0	0.233918
5732	0	0.233918
5733	0	0.116959
5734	0	0.116959
5735	0	0.130719
5736	0	0.130719
5737	0	0.130719
5738	0	0.130719
5739	0	0.110526
5740	0	0.110526
5741	0	0.110526
5742	0	0.0909091
5743	0	0.083004
5744	0	0.0797101
5745	0	0.0797101
5746	0	0.0797101
5747	0	0.0790514
5748	0	0.0587121
5749	0	0.0871795
5750	0	0.0846154
5751	0	0.0804878
5752	0	0.0789779
5753	0	0.0753045
5754	0	0.0836707
5755	0	0.0915916
5756	0	0.0909091
5757	0	0.0909091
5758	0	0.0593792
5759	0	0.0551282
5760	0	0.0475687
5761	0	0.0391872
5762	0	0.613708
