Site	ColumnScore	SumOfPairsScore
1	1	0
2	1	0
3	1	0
4	1	0
5	1	0
6	1	0
7	1	0
8	1	0
9	1	0
10	1	0
11	1	0
12	1	0
13	1	0
14	1	0
15	1	0
16	1	0
17	1	0
18	1	0
19	1	0
20	1	0
21	1	0
22	1	0
23	1	0
24	1	0
25	1	0
26	1	0
27	1	0
28	1	0
29	1	0
30	1	0
31	1	0
32	1	0
33	1	0
34	1	0
35	1	0
36	1	0
37	1	0
38	1	0
39	1	0
40	1	0
41	1	0
42	1	0
43	1	0
44	1	0
45	1	0
46	1	0
47	1	0
48	1	0
49	1	0
50	1	0
51	1	0
52	1	0
53	1	0
54	1	0
55	1	0
56	1	0
57	1	0
58	1	0
59	1	0
60	1	0
61	1	0
62	1	0
63	1	0
64	1	0
65	1	0
66	1	0
67	1	0
68	1	0
69	1	0
70	1	0
71	1	0
72	1	0
73	1	0
74	1	0
75	1	0
76	1	0
77	1	0
78	1	0
79	1	0
80	1	0
81	1	0
82	1	0
83	1	0
84	1	0
85	1	0
86	1	0
87	1	0
88	1	0
89	1	0
90	1	0
91	1	0
92	1	0
93	1	0
94	1	0
95	1	0
96	1	0
97	1	0
98	1	0
99	1	0
100	1	0
101	1	0
102	1	0
103	1	0
104	1	0
105	1	0
106	1	0
107	1	0
108	1	0
109	1	0
110	1	0
111	1	0
112	1	0
113	1	0
114	1	0
115	1	0
116	1	0
117	1	0
118	1	0
119	1	0
120	1	0
121	1	0
122	1	0
123	1	0
124	1	0
125	1	0
126	1	0
127	1	0
128	1	0
129	1	0
130	1	0
131	1	0
132	1	0
133	1	0
134	1	0
135	1	0
136	1	0
137	1	0
138	1	0
139	1	0
140	1	0
141	1	0
142	1	0
143	1	0
144	1	0
145	1	0
146	1	0
147	1	0
148	1	0
149	1	0
150	1	0
151	1	0
152	1	0
153	1	0
154	1	0
155	1	0
156	1	0
157	1	0
158	1	0
159	1	0
160	1	0
161	1	0
162	1	0
163	1	0
164	1	0
165	1	0
166	1	0
167	1	0
168	1	0
169	1	0
170	1	0
171	1	0
172	1	0
173	1	0
174	1	0
175	1	0
176	1	0
177	1	0
178	1	0
179	1	0
180	1	0
181	1	0
182	1	0
183	1	0
184	1	0
185	1	0
186	1	0
187	1	0
188	1	0
189	1	0
190	1	0
191	1	0
192	1	0
193	1	0
194	1	0
195	1	0
196	1	0
197	1	0
198	1	0
199	1	0
200	1	0
201	1	0
202	1	0
203	1	0
204	1	0
205	1	0
206	1	0
207	1	0
208	1	0
209	1	0
210	1	0
211	1	0
212	1	0
213	1	0
214	1	0
215	1	0
216	1	0
217	1	0
218	1	0
219	1	0
220	1	0
221	1	0
222	1	0
223	1	0
224	1	0
225	1	0
226	1	0
227	1	0
228	1	0
229	1	0
230	1	0
231	1	0
232	1	0
233	1	0
234	1	0
235	1	0
236	1	0
237	1	0
238	1	0
239	1	0
240	1	0
241	1	0
242	1	0
243	1	0
244	1	0
245	1	0
246	1	0
247	1	0
248	1	0
249	1	0
250	1	0
251	1	0
252	1	0
253	1	0
254	1	0
255	1	0
256	1	0
257	1	0
258	1	0
259	1	0
260	0	0
261	0	0
262	0	0
263	0	0
264	0	0
265	0	0
266	0	0
267	0	0
268	0	0
269	0	0
270	0	0
271	0	0
272	0	0
273	0	0
274	0	0
275	0	0
276	0	0
277	1	0
278	1	0
279	0	0
280	0	0
281	0	0
282	0	0
283	0	0
284	0	0
285	0	0
286	0	0
287	0	0
288	0	0
289	0	0
290	0	0
291	0	0
292	0	0
293	0	0
294	0	0
295	0	0
296	0	0
297	0	0
298	0	0
299	0	0
300	0	0
301	0	0
302	0	0
303	0	0
304	0	0
305	0	0
306	0	0
307	0	0
308	0	0
309	0	0
310	0	0
311	0	0
312	0	0
313	0	0
314	1	0
315	1	0
316	1	0
317	1	0
318	0	0
319	0	0
320	0	0
321	0	0
322	0	0
323	0	0
324	0	0
325	0	0
326	0	0
327	0	0
328	0	0
329	0	0
330	0	0
331	0	0
332	0	0
333	0	0
334	0	0
335	0	0
336	0	0
337	0	0
338	0	0
339	0	0
340	0	0
341	0	0
342	0	0
343	1	0
344	0	0
345	0	0
346	0	0
347	0	0
348	0	0
349	0	0
350	0	0
351	0	0
352	0	0
353	0	0
354	0	0
355	0	0
356	0	0
357	0	0
358	0	0
359	0	0
360	0	0
361	0	0
362	0	0
363	0	0
364	0	0
365	0	0
366	0	0
367	0	0
368	0	0
369	0	0
370	0	0
371	0	0
372	0	0
373	0	0
374	0	0
375	0	0
376	0	0
377	0	0
378	0	0
379	0	0
380	0	0
381	0	0
382	0	0
383	0	0
384	0	0
385	0	0
386	0	0
387	0	0
388	0	0
389	0	0
390	0	0
391	0	0
392	0	0
393	0	0
394	0	0
395	0	0
396	0	0
397	0	0
398	0	0
399	0	0
400	0	0
401	0	0
402	0	0
403	0	0
404	0	0
405	0	0
406	0	0
407	0	0
408	0	0
409	0	0
410	0	0
411	0	0
412	0	0
413	0	0
414	0	0
415	0	0
416	0	0
417	0	0
418	0	0
419	0	0
420	0	0
421	0	0
422	0	0
423	0	0
424	0	0
425	0	0
426	0	0
427	0	0
428	0	0
429	0	0
430	0	0
431	0	0
432	0	0
433	0	0
434	0	0
435	0	0
436	0	0
437	0	0
438	0	0
439	0	0
440	0	0
441	0	0
442	0	0
443	0	0
444	0	0
445	0	0
446	0	0
447	0	0
448	0	0
449	0	0
450	0	0
451	0	0
452	0	0
453	0	0
454	0	0
455	0	0
456	0	0
457	0	0
458	0	0
459	0	0
460	0	0
461	0	0
462	0	0
463	0	0
464	0	0
465	0	0
466	0	0
467	0	0
468	0	0
469	0	0
470	0	0
471	0	0
472	0	0
473	0	0
474	0	0
475	0	0
476	0	0
477	0	0
478	0	0
479	0	0
480	0	0
481	0	0
482	0	0
483	0	0
484	0	0
485	0	0
486	0	0
487	0	0
488	0	0
489	0	0
490	0	0
491	0	0
492	0	0
493	0	0
494	0	0
495	0	0
496	0	0
497	0	0
498	0	0
499	0	0
500	0	0
501	0	0
502	0	0
503	0	0
504	0	0
505	0	0
506	0	0
507	0	0
508	0	0
509	0	0
510	0	0
511	0	0
512	0	0
513	0	0
514	0	0
515	0	0
516	0	0
517	0	0
518	0	0
519	0	0
520	0	0
521	0	0
522	0	0
523	0	0
524	0	0
525	0	0
526	0	0
527	0	0
528	0	0
529	0	0
530	0	0
531	0	0
532	0	0
533	0	0
534	0	0
535	0	0
536	0	0
537	0	0
538	0	0
539	0	0
540	0	0
541	0	0
542	0	0
543	0	0
544	0	0
545	0	0
546	0	0
547	0	0
548	0	0
549	0	0
550	0	0
551	0	0
552	0	0
553	0	0
554	0	0
555	0	0
556	0	0
557	0	0
558	0	0
559	0	0
560	0	0
561	0	0
562	0	0
563	0	0
564	0	0
565	0	0
566	0	0
567	0	0
568	0	0
569	0	0
570	0	0
571	0	0
572	0	0
573	0	0
574	0	0
575	0	0
576	0	0
577	0	0
578	0	0
579	0	0
580	0	0
581	0	0
582	0	0
583	0	0
584	0	0
585	0	0
586	0	0
587	0	0
588	0	0
589	0	0
590	0	0.0277778
591	0	0.0277778
592	0	0.0277778
593	0	0.0277778
594	0	0.0277778
595	0	0.0277778
596	0	0.0277778
597	0	0.0277778
598	0	0.0277778
599	0	0.0277778
600	0	0.0277778
601	0	0.0277778
602	0	0.0277778
603	0	0.0277778
604	0	0.0277778
605	0	0
606	0	0
607	0	0
608	0	0
609	0	0.0277778
610	0	0
611	0	0
612	0	0
613	0	0
614	0	0
615	0	0
616	0	0
617	0	0
618	0	0
619	0	0
620	0	0.0277778
621	0	0.0277778
622	0	0.0277778
623	0	0.0277778
624	0	0.0277778
625	0	0.0277778
626	0	0.0277778
627	0	0.0277778
628	0	0.0277778
629	0	0.0277778
630	0	0.0277778
631	0	0.0277778
632	0	0.0277778
633	0	0.0277778
634	0	0.0277778
635	0	0.0277778
636	0	0.0277778
637	0	0.0277778
638	0	0.0277778
639	0	0.0277778
640	0	0.0277778
641	0	0.0181818
642	0	0.0181818
643	0	0.0181818
644	0	0.0151515
645	0	0.0151515
646	0	0.0151515
647	0	0.0151515
648	0	0.0151515
649	0	0.0128205
650	0	0.0128205
651	0	0.0128205
652	0	0.0128205
653	0	0
654	0	0.0128205
655	0	0.010989
656	0	0.010989
657	0	0.010989
658	0	0.010989
659	0	0
660	0	0
661	0	0
662	0	0
663	0	0
664	0	0
665	0	0.010989
666	0	0.010989
667	0	0.0128205
668	0	0.010989
669	0	0
670	0	0
671	0	0
672	0	0
673	0	0
674	0	0
675	0	0.00952381
676	0	0.00833333
677	0	0.00833333
678	0	0.00833333
679	0	0.00833333
680	0	0.00833333
681	0	0.00833333
682	0	0.00833333
683	0	0.00735294
684	0	0.00735294
685	0	0.0220588
686	0	0.0392157
687	0	0.0392157
688	0	0.0392157
689	0	0.0584795
690	0	0.0877193
691	0	0.0877193
692	0	0.0789474
693	0	0.0761905
694	0	0.0952381
695	0	0.0869565
696	0	0.0869565
697	0	0.21371
698	0	0.276923
699	0	0.300813
700	0	0.824922
701	0	0.835995
702	0	0.848873
703	0	0.166667
704	0	0.3
705	0	0.3
706	0	0.363636
707	0	0.435961
708	0	0.435961
709	0	0.811886
710	0	0.209524
711	0	0.242424
712	0	0.272727
713	0	0
714	0	0
715	0	0
716	0	0
717	0	0
718	0	0.047619
719	0	0.0666667
720	0	0.0666667
721	0	0.512589
722	0	0.862334
723	0	0.3
724	0	0.3
725	0	0.3
726	0	0.3
727	0	0.166667
728	0	0.166667
729	0	0
730	0	0
731	0	0
732	0	0
733	0	0
734	0	0
735	0	0
736	0	0
737	0	0
738	0	0
739	0	0
740	0	0
741	0	0
742	0	0
743	0	0
744	0	0
745	0	0
746	0	0
747	0	0
748	0	0
749	0	0
750	0	0
751	0	0.1
752	0	0.1
753	0	0.859016
754	0	0.705548
755	0	0.698198
756	0	0.698198
757	0	0.6997
758	0	0.519704
759	0	0.517241
760	0	0.517241
761	0	0.555556
762	0	0
763	0	0
764	0	0
765	0	0
766	0	0
767	0	0
768	0	0
769	0	0
770	0	0
771	0	0
772	0	0
773	0	0
774	0	0
775	0	0
776	0	0
777	0	0
778	0	0
779	0	0
780	0	0
781	0	0
782	0	0
783	0	0
784	0	0
785	0	0
786	0	0
787	0	0
788	0	0.797033
789	0	0.788889
790	0	0.824524
791	0	0.863787
792	0	0.863787
793	0	0.77
794	0	0
795	0	0
796	0	0
797	0	0
798	0	0
799	0	0
800	0	0
801	0	0
802	0	0
803	0	0
804	0	0
805	0	0
806	0	0
807	0	0
808	0	0
809	0	0
810	0	0
811	0	0
812	0	0
813	0	0
814	0	0
815	0	0
816	0	0
817	0	0
818	0	0
819	0	0
820	0	0
821	0	0
822	0	0
823	0	0
824	0	0
825	0	0
826	0	0
827	0	0
828	0	0
829	0	0
830	0	0
831	0	0
832	0	0
833	0	0
834	0	0
835	0	0
836	0	0
837	0	0
838	0	0
839	0	0
840	0	0
841	0	0
842	0	0
843	0	0
844	0	0
845	0	0
846	0	0
847	0	0
848	0	0
849	0	0
850	0	0
851	0	0
852	0	0
853	0	0
854	0	0
855	0	0
856	0	0
857	0	0
858	0	0
859	0	0
860	0	0
861	0	0
862	0	0
863	0	0
864	0	0
865	0	0
866	0	0
867	0	0
868	0	0
869	0	0
870	0	0
871	0	0
872	0	0
873	0	0
874	0	0
875	0	0
876	0	0
877	0	0
878	0	0
879	0	0
880	0	0
881	0	0
882	0	0
883	0	0
884	0	0
885	0	0
886	0	0
887	0	0
888	0	0
889	0	0
890	0	0
891	0	0
892	0	0
893	0	0
894	0	0
895	0	0
896	0	0
897	0	0
898	0	0
899	0	0
900	0	0
901	0	0
902	0	0
903	0	0
904	0	0
905	0	0
906	0	0
907	0	0
908	0	0
909	0	0
910	0	0
911	0	0
912	0	0
913	0	0
914	0	0
915	0	0
916	0	0
917	0	0
918	0	0
919	0	0
920	0	0.537145
921	0	0.537145
922	0	0.537431
923	0	0.539148
924	0	0
925	0	0
926	0	0
927	0	0
928	0	0
929	0	0
930	0	0
931	0	0
932	0	0
933	0	0
934	0	0
935	0	0
936	0	0
937	0	0
938	0	0
939	0	0
940	0	0
941	0	0
942	0	0
943	0	0
944	0	0
945	0	0
946	0	0
947	0	0
948	0	0
949	0	0
950	0	0
951	0	0
952	0	0
953	0	0
954	0	0
955	0	0
956	0	0
957	0	0
958	0	0
959	0	0
960	0	0
961	0	0
962	0	0
963	0	0
964	0	0
965	0	0
966	0	0
967	0	0
968	0	0
969	0	0
970	0	0
971	0	0
972	0	0
973	0	0
974	0	0
975	0	0
976	0	0
977	0	0
978	0	0
979	0	0
980	0	0
981	0	0
982	0	0
983	0	0
984	0	0
985	0	0
986	0	0
987	0	0
988	0	0
989	0	0
990	0	0
991	0	0
992	0	0
993	0	0
994	0	0
995	0	0
996	0	0
997	0	0
998	0	0
999	0	0
1000	0	0
1001	0	0
1002	0	0
1003	0	0
1004	0	0
1005	0	0
1006	0	0
1007	0	0
1008	0	0
1009	0	0
1010	0	0
1011	0	0
1012	0	0
1013	0	0
1014	0	0
1015	0	0
1016	0	0
1017	0	0
1018	0	0
1019	0	0
1020	0	0
1021	0	0
1022	0	0
1023	0	0
1024	0	0
1025	0	0
1026	0	0
1027	0	0
1028	0	0
1029	0	0
1030	0	0
1031	0	0
1032	0	0
1033	0	0
1034	0	0
1035	0	0
1036	0	0
1037	0	0
1038	0	0
1039	0	0
1040	0	0
1041	0	0
1042	0	0
1043	0	0
1044	0	0
1045	0	0
1046	0	0
1047	0	0
1048	0	0
1049	0	0
1050	0	0
1051	0	0
1052	0	0
1053	0	0
1054	0	0
1055	0	0
1056	0	0
1057	0	0
1058	0	0
1059	0	0
1060	0	0
1061	0	0
1062	0	0
1063	0	0
1064	0	0
1065	0	0
1066	0	0
1067	0	0
1068	0	0
1069	0	0
1070	0	0
1071	0	0
1072	0	0
1073	0	0
1074	0	0
1075	0	0
1076	0	0
1077	0	0
1078	0	0
1079	0	0
1080	0	0
1081	0	0
1082	0	0
1083	0	0
1084	0	0
1085	0	0
1086	0	0
1087	0	0
1088	0	0
1089	0	0
1090	0	0
1091	0	0
1092	0	0
1093	0	0
1094	0	0
1095	0	0
1096	0	0
1097	0	0
1098	0	0
1099	0	0
1100	0	0
1101	0	0
1102	0	0
1103	0	0
1104	0	0
1105	0	0
1106	0	0
1107	0	0
1108	0	0
1109	0	0
1110	0	0
1111	0	0
1112	0	0
1113	0	0
1114	0	0
1115	0	0
1116	0	0
1117	0	0
1118	0	0
1119	0	0
1120	0	0
1121	0	0
1122	0	0
1123	0	0
1124	0	0
1125	0	0
1126	0	0
1127	0	0
1128	0	0
1129	0	0
1130	0	0
1131	0	0
1132	0	0
1133	0	0
1134	0	0
1135	0	0
1136	0	0
1137	0	0
1138	0	0
1139	0	0
1140	0	0
1141	0	0
1142	0	0
1143	0	0
1144	0	0
1145	0	0
1146	0	0
1147	0	0
1148	0	0
1149	0	0
1150	0	0
1151	0	0
1152	0	0
1153	0	0
1154	0	0
1155	0	0
1156	0	0
1157	0	0
1158	0	0
1159	0	0
1160	0	0
1161	0	0
1162	0	0
1163	0	0
1164	0	0
1165	0	0
1166	0	0
1167	0	0
1168	0	0
1169	0	0
1170	0	0
1171	0	0
1172	0	0
1173	0	0
1174	0	0
1175	0	0
1176	0	0
1177	0	0
1178	0	0
1179	0	0
1180	0	0
1181	0	0
1182	0	0
1183	0	0
1184	0	0
1185	0	0
1186	0	0
1187	0	0
1188	0	0
1189	0	0
1190	0	0
1191	0	0
1192	0	0
1193	0	0
1194	0	0
1195	0	0
1196	0	0
1197	0	0
1198	0	0
1199	0	0
1200	0	0
1201	0	0
1202	0	0
1203	0	0
1204	0	0
1205	0	0
1206	0	0
1207	0	0
1208	0	0
1209	0	0
1210	0	0
1211	0	0
1212	0	0
1213	0	0
1214	0	0
1215	0	0
1216	0	0
1217	0	0
1218	0	0
1219	0	0
1220	0	0
1221	0	0
1222	0	0
1223	0	0
1224	0	0
1225	0	0
1226	0	0
1227	0	0
1228	0	0
1229	0	0
1230	0	0
1231	0	0
1232	0	0
1233	0	0
1234	0	0
1235	0	0
1236	0	0
1237	0	0
1238	0	0
1239	0	0
1240	0	0
1241	0	0
1242	0	0
1243	0	0
1244	0	0
1245	0	0
1246	0	0
1247	0	0
1248	0	0
1249	0	0
1250	0	0
1251	0	0
1252	0	0
1253	0	0
1254	0	0
1255	0	0
1256	0	0
1257	0	0
1258	0	0
1259	0	0
1260	0	0
1261	0	0
1262	0	0
1263	0	0
1264	0	0
1265	0	0
1266	0	0
1267	0	0
1268	0	0
1269	0	0
1270	0	0
1271	0	0
1272	0	0
1273	0	0
1274	0	0
1275	0	0
1276	0	0
1277	0	0
1278	0	0
1279	0	0
1280	0	0
1281	0	0
1282	0	0
1283	0	0
1284	0	0
1285	0	0
1286	0	0
1287	0	0
1288	0	0
1289	0	0
1290	0	0
1291	0	0
1292	0	0
1293	0	0
1294	0	0
1295	0	0
1296	0	0
1297	0	0
1298	0	0
1299	0	0
1300	0	0
1301	0	0
1302	0	0
1303	0	0
1304	0	0
1305	0	0
1306	0	0
1307	0	0
1308	0	0
1309	0	0
1310	0	0
1311	0	0
1312	0	0
1313	0	0
1314	0	0
1315	0	0
1316	0	0
1317	0	0
1318	0	0
1319	0	0
1320	0	0
1321	0	0
1322	0	0
1323	0	0
1324	0	0
1325	0	0
1326	0	0
1327	0	0
1328	0	0
1329	0	0
1330	0	0
1331	0	0
1332	0	0
1333	0	0
1334	0	0
1335	0	0
1336	0	0
1337	0	0
1338	0	0
1339	0	0
1340	0	0
1341	0	0
1342	0	0
1343	0	0
1344	0	0
1345	0	0
1346	0	0
1347	0	0
1348	0	0
1349	0	0
1350	0	0
1351	0	0
1352	0	0
1353	0	0
1354	0	0
1355	0	0
1356	0	0
1357	0	0
1358	0	0
1359	0	0
1360	0	0
1361	0	0
1362	0	0
1363	0	0
1364	0	0
1365	0	0
1366	0	0
1367	0	0
1368	0	0
1369	0	0
1370	0	0
1371	0	0
1372	0	0
1373	0	0
1374	0	0
1375	0	0
1376	0	0
1377	0	0
1378	0	0
1379	0	0
1380	0	0
1381	0	0
1382	0	0
1383	0	0
1384	0	0
1385	0	0
1386	0	0
1387	0	0
1388	0	0
1389	0	0
1390	0	0
1391	0	0
1392	0	0
1393	0	0
1394	0	0
1395	0	0
1396	0	0
1397	0	0
1398	0	0
1399	0	0
1400	0	0
1401	0	0
1402	0	0
1403	0	0
1404	0	0
1405	0	0
1406	0	0
1407	0	0
1408	0	0
1409	0	0
1410	0	0
1411	0	0
1412	0	0
1413	0	0
1414	0	0
1415	0	0
1416	0	0
1417	0	0
1418	0	0
1419	0	0
1420	0	0
1421	0	0
1422	0	0
1423	0	0
1424	0	0
1425	0	0
1426	0	0
1427	0	0
1428	0	0
1429	0	0.1
1430	0	0.1
1431	0	0.1
1432	0	0.1
1433	0	0.1
1434	0	0.1
1435	0	0.1
1436	0	0.1
1437	0	0.1
1438	0	0.1
1439	0	0.1
1440	0	0.1
1441	0	0.1
1442	0	0.1
1443	0	0.1
1444	0	0.1
1445	0	0.1
1446	0	0.1
1447	0	0.1
1448	0	0.1
1449	0	0.1
1450	0	0.1
1451	0	0.1
1452	0	0.1
1453	0	0.1
1454	0	0.1
1455	0	0.1
1456	0	0.1
1457	0	0.1
1458	0	0.1
1459	0	0.1
1460	0	0.1
1461	0	0.1
1462	0	0.1
1463	0	0.1
1464	0	0.1
1465	0	0.1
1466	0	0.1
1467	0	0.1
1468	0	0.1
1469	0	0.1
1470	0	0.1
1471	0	0.1
1472	0	0.1
1473	0	0.1
1474	0	0.3
1475	0	0.2
1476	0	0.2
1477	0	0.2
1478	0	0.2
1479	0	0.2
1480	0	0.2
1481	0	0.2
1482	0	0.2
1483	0	0.2
1484	0	0.2
1485	0	0.2
1486	0	0.0666667
1487	0	0.0666667
1488	0	0.1
1489	0	0.1
1490	0	0.2
1491	0	0.2
1492	0	0.142857
1493	0	0.142857
1494	0	0.142857
1495	0	0.142857
1496	0	0.142857
1497	0	0.536257
1498	0	0.881254
1499	0	0.881254
1500	0	0.881254
1501	0	0.865275
1502	0	0.15415
1503	0	0
1504	0	0
1505	0	0
1506	0	0
1507	0	0.608516
1508	0	0
1509	0	0
1510	0	0.361589
1511	0	0
1512	0	0
1513	0	0
1514	0	0.1
1515	0	0.0666667
1516	0	0.0666667
1517	0	0.0666667
1518	0	0.047619
1519	0	0.0888889
1520	0	0.0769231
1521	0	0.341935
1522	0	0.348387
1523	0	0.36092
1524	0	0.298925
1525	0	0.417373
1526	0	0.586758
1527	0	0.570396
1528	0	0.257991
1529	0	0.34876
1530	0	0.204433
1531	0	0.198529
1532	0	0.106061
1533	0	0.0555556
1534	0	0.0277778
1535	0	0.0222222
1536	0	0.0222222
1537	0	0.0222222
1538	0	0.0357143
1539	0	0.047619
1540	0	0.047619
1541	0	0.047619
1542	0	0.047619
1543	0	0.047619
1544	0	0.047619
1545	0	0.047619
1546	0	0.047619
1547	0	0.047619
1548	0	0.047619
1549	0	0.047619
1550	0	0.047619
1551	0	0.047619
1552	0	0.047619
1553	0	0.0357143
1554	0	0.0357143
1555	0	0.0357143
1556	0	0.047619
1557	0	0.0666667
1558	0	0.0666667
1559	0	0.0666667
1560	0	0.285714
1561	0	0.142857
1562	0	0.4
1563	0	0.62098
1564	0	0
1565	0	0
1566	0	0
1567	0	0
1568	0	0
1569	0	0
1570	0	0
1571	0	0
1572	0	0
1573	0	0
1574	0	0
1575	0	0
1576	0	0
1577	0	0
1578	0	0
1579	0	0
1580	0	0
1581	0	0
1582	0	0
1583	0	0
1584	0	0
1585	0	0
1586	0	0
1587	0	0
1588	0	0
1589	0	0
1590	0	0
1591	0	0
1592	0	0
1593	0	0
1594	0	0
1595	0	0
1596	0	0
1597	0	0
1598	0	0
1599	0	0
1600	0	0
1601	0	0
1602	0	0
1603	0	0
1604	0	0
1605	0	0
1606	0	0
1607	0	0
1608	0	0
1609	0	0
1610	0	0
1611	0	0
1612	0	0
1613	0	0
1614	0	0
1615	0	0
1616	0	0
1617	0	0
1618	0	0
1619	0	0
1620	0	0
1621	0	0.166667
1622	0	0.166667
1623	0	0.166667
1624	0	0.166667
1625	0	0.166667
1626	0	0.166667
1627	0	0
1628	0	0
1629	0	0
1630	0	0
1631	0	0
1632	0	0
1633	0	0.166667
1634	0	0.166667
1635	0	0.5
1636	0	0.5
1637	0	0.5
1638	0	0.5
1639	0	0.5
1640	0	0.5
1641	0	0.5
1642	0	0.5
1643	0	0.5
1644	0	0.5
1645	0	0.5
1646	0	0.5
1647	0	0.5
1648	0	0.333333
1649	0	0.333333
1650	0	0.333333
1651	0	0.333333
1652	0	0.333333
1653	0	0.333333
1654	0	0.333333
1655	0	0.333333
1656	0	0.333333
1657	0	0.333333
1658	0	0.333333
1659	0	0.2
1660	0	0.2
1661	0	0.2
1662	0	0.133333
1663	0	0.190476
1664	0	0.214286
1665	0	0.178571
1666	0	0.321429
1667	0	1
1668	0	0.417582
1669	0	0.889039
1670	0	0.881212
1671	0	1
1672	0	1
1673	0	1
1674	0	0.769593
1675	0	0.791552
1676	0	0.913989
1677	0	0.166667
1678	0	0.5
1679	0	0.5
1680	0	0
1681	0	0
1682	0	0
1683	0	0
1684	0	0
1685	0	0
1686	0	0
1687	0	0
1688	0	0
1689	0	0
1690	0	0
1691	0	0
1692	0	0.983032
1693	0	0.983032
1694	0	0.983032
1695	0	0
1696	0	0
1697	0	0
1698	0	0
1699	0	0
1700	0	0
1701	0	0
1702	0	0
1703	0	0
1704	0	0
1705	0	0
1706	0	0
1707	0	0
1708	0	0
1709	0	0
1710	0	0
1711	0	0
1712	0	0
1713	0	0.333333
1714	0	0.99621
1715	0	0.99621
1716	0	0.99621
1717	0	0.99621
1718	0	1
1719	0	0.998101
1720	0	0.994298
1721	0	0.977374
1722	0	0.990525
1723	0	0.990543
1724	0	0.990552
1725	0	0.990552
1726	0	0.994315
1727	0	0.994325
1728	0	0.994325
1729	0	0
1730	0	0
1731	0	0
1732	0	0
1733	0	0
1734	0	0
1735	0	0
1736	0	0
1737	0	0
1738	0	0
1739	0	0
1740	0	0
1741	0	0
1742	0	0
1743	0	0
1744	0	0
1745	0	0
1746	0	0
1747	0	0
1748	0	0
1749	0	0
1750	0	0
1751	0	0
1752	0	0
1753	0	0
1754	0	0.994325
1755	0	0.994325
1756	0	0.994325
1757	0	0.994325
1758	0	0.994325
1759	0	0.994325
1760	0	0.994325
1761	0	1
1762	0	0.994325
1763	0	0.994325
1764	0	0.749815
1765	0	0.333333
1766	0	0.992449
1767	0	0.992449
1768	0	0.992449
1769	0	0.992449
1770	0	0
1771	0	0
1772	0	0
1773	0	0.998108
1774	0	0.998108
1775	0	0.998108
1776	0	0.998108
1777	0	0.998108
1778	0	0.998108
1779	0	0.998108
1780	0	0.998104
1781	0	0.998104
1782	0	0.998104
1783	0	0.998104
1784	0	0.333333
1785	0	0.333333
1786	0	0.333333
1787	0	0.333333
1788	0	0.333333
1789	1	1
1790	1	1
1791	0	0.992437
1792	0	0.992437
1793	0	0.992437
1794	0	0.65624
1795	0	0.65624
1796	0	1
1797	0	0.915766
1798	0	0.991266
1799	0	1
1800	0	0.998104
1801	0	0.998104
1802	0	0.833333
1803	0	0.705128
1804	0	0.705128
1805	0	0.846154
1806	0	0.846154
1807	0	0.833333
1808	0	0.654545
1809	0	0.975493
1810	0	0
1811	0	0.982656
1812	0	0.333333
1813	0	0.333333
1814	0	0.333333
1815	0	0.946059
1816	0	0.943982
1817	0	0.957081
1818	0	0.98492
1819	0	0.992435
1820	0	0.994329
1821	0	0.994334
1822	0	0.994334
1823	0	0.994334
1824	0	0.994334
1825	0	0.994334
1826	0	0.994334
1827	0	0.994334
1828	0	0.994334
1829	1	0
1830	1	0
1831	1	0
1832	1	0
1833	0	0
1834	0	0
1835	0	0
1836	0	0
1837	0	0
1838	0	0
1839	0	0
1840	0	0
1841	0	1
1842	0	1
1843	0	0.994331
1844	0	0.994336
1845	0	0.994336
1846	0	0
1847	0	0.998108
1848	0	0.998108
1849	1	1
1850	1	1
1851	1	1
1852	0	1
1853	1	1
1854	1	1
1855	1	1
1856	1	1
1857	1	1
1858	1	1
1859	1	1
1860	0	1
1861	0	1
1862	0	1
1863	1	1
1864	1	1
1865	1	1
1866	0	0.998108
1867	0	0.998108
1868	0	0.506759
1869	0	1
1870	0	1
1871	0	0.497717
1872	0	0.499074
1873	0	0.779879
1874	0	0.5
1875	0	0
1876	0	0
1877	0	0
1878	0	0
1879	0	0
1880	0	0
1881	1	0
1882	0	0.778797
1883	0	0.775557
1884	0	0.741533
1885	1	1
1886	0	1
1887	0	1
1888	0	0.645957
1889	0	0.854945
1890	0	0.75
1891	0	0.782587
1892	0	0.782587
1893	0	0.99811
1894	0	0.99811
1895	0	0.99811
1896	0	0.99811
1897	0	0.99811
1898	0	0.99811
1899	1	1
1900	1	1
1901	1	1
1902	1	1
1903	0	0.51925
1904	0	0.517733
1905	0	0.8
1906	0	0.988667
1907	0	0.986812
1908	0	0
1909	0	0
1910	0	0
1911	0	0.990564
1912	0	0.990564
1913	0	0.990575
1914	0	1
1915	0	1
1916	1	1
1917	1	1
1918	1	1
1919	1	1
1920	1	1
1921	1	1
1922	1	1
1923	1	1
1924	1	1
1925	1	1
1926	1	1
1927	1	1
1928	1	1
1929	0	1
1930	0	0.483077
1931	0	0.9475
1932	0	0.5
1933	0	0.5
1934	0	0.5
1935	0	0.687747
1936	0	0.687747
1937	0	0.656057
1938	0	0.740218
1939	0	0.578657
1940	0	0.121212
1941	0	0.166667
1942	0	0.767473
1943	0	0.3
1944	0	0.5
1945	0	0.166667
1946	0	0.333333
1947	0	0.333333
1948	0	0.333333
1949	0	0.96453
1950	0	0.966351
1951	0	0.966321
1952	0	0.615385
1953	0	0.988591
1954	0	1
1955	0	1
1956	0	1
1957	0	1
1958	0	0.998111
1959	0	0.998111
1960	0	0.998113
1961	0	0.998113
1962	0	0.998113
1963	0	0.998115
1964	0	0.998115
1965	0	0.998115
1966	0	0.998115
1967	0	0.998115
1968	0	0.998115
1969	0	0.998115
1970	0	0.998115
1971	0	0.998113
1972	1	0
1973	0	0.984675
1974	0	0.970129
1975	0	0.990589
1976	0	1
1977	0	0.998111
1978	0	0.998113
1979	0	0.998113
1980	0	0.998113
1981	1	1
1982	1	1
1983	1	1
1984	0	0.998111
1985	1	1
1986	0	1
1987	0	1
1988	0	1
1989	1	1
1990	1	1
1991	1	1
1992	1	1
1993	1	1
1994	1	1
1995	0	1
1996	0	0.99811
1997	0	1
1998	0	0.290909
1999	0	0.966806
2000	0	0
2001	0	1
2002	0	0.474359
2003	0	0.474359
2004	0	0.452661
2005	0	0.47457
2006	0	0.804492
2007	0	0.804492
2008	0	0.804492
2009	0	0.644435
2010	0	0.150794
2011	0	0.432962
2012	0	0.432962
2013	0	0
2014	0	0
2015	0	0
2016	0	0
2017	0	0
2018	0	0.747656
2019	0	0.3
2020	0	0.5
2021	0	0.5
2022	0	1
2023	0	0.742847
2024	0	0.942857
2025	0	1
2026	0	0.988717
2027	0	0.988724
2028	0	1
2029	0	0.996232
2030	0	0.996232
2031	0	0.996232
2032	0	0.996232
2033	0	0.996232
2034	0	0.996232
2035	0	0.998117
2036	0	0.998117
2037	0	0.998117
2038	0	0.998117
2039	0	0.998117
2040	0	0.998117
2041	0	0.998117
2042	0	0.998117
2043	0	0.998117
2044	0	0
2045	1	0
2046	1	0
2047	1	0
2048	1	0
2049	1	0
2050	0	0
2051	0	0.996225
2052	0	0.994352
2053	0	0.994352
2054	0	0.996234
2055	0	0.998115
2056	0	0.998115
2057	0	0.998115
2058	1	1
2059	1	1
2060	1	1
2061	1	1
2062	1	1
2063	1	1
2064	1	1
2065	1	1
2066	1	1
2067	1	1
2068	1	1
2069	1	1
2070	1	1
2071	0	0.998113
2072	1	0
2073	1	0
2074	1	0
2075	1	0
2076	1	0
2077	1	0
2078	1	0
2079	1	0
2080	1	0
2081	1	0
2082	1	0
2083	1	0
2084	1	0
2085	1	0
2086	1	0
2087	1	0
2088	1	1
2089	1	1
2090	1	1
2091	1	1
2092	1	1
2093	0	1
2094	0	0
2095	0	0.996228
2096	0	0.998113
2097	0	0.998113
2098	0	0.998113
2099	0	0.998113
2100	0	0.998113
2101	0	0.996228
2102	0	1
2103	1	1
2104	1	1
2105	1	1
2106	0	1
2107	0	0.520931
2108	0	0.996228
2109	0	0.99623
2110	0	0.994345
2111	0	0.994345
2112	0	0
2113	0	0.994334
2114	0	0.333333
2115	0	0.998111
2116	0	0.998111
2117	0	0.998111
2118	0	0.998111
2119	0	0.998111
2120	0	0.998111
2121	0	0.998111
2122	0	0.998111
2123	0	0.998111
2124	1	1
2125	1	1
2126	1	1
2127	1	1
2128	0	0.998111
2129	0	0.998111
2130	0	0.998111
2131	0	0.994336
2132	0	0.994331
2133	0	0.994331
2134	0	0.994331
2135	0	0.333333
2136	0	0.333333
2137	0	0.333333
2138	0	0.990496
2139	0	0.994293
2140	0	0.994293
2141	0	0.977486
2142	0	0.994331
2143	0	0.994331
2144	0	0.994331
2145	0	0.996216
2146	0	0.996216
2147	0	0.924209
2148	0	0.97567
2149	0	0.973829
2150	0	0.973829
2151	0	0.992401
2152	0	1
2153	0	1
2154	0	1
2155	0	1
2156	0	1
2157	0	1
2158	0	1
2159	0	1
2160	0	1
2161	0	1
2162	0	1
2163	0	0.994347
2164	0	0.99623
2165	0	0.99623
2166	0	0.99623
2167	0	0.99623
2168	1	1
2169	1	1
2170	1	1
2171	1	1
2172	1	1
2173	0	1
2174	0	1
2175	0	1
2176	0	0.5
2177	0	0.5
2178	0	0.729345
2179	0	0.708702
2180	0	0.723047
2181	0	0.722823
2182	0	0
2183	0	0
2184	0	0.465726
2185	0	0.420455
2186	0	0.434965
2187	0	0.278953
2188	0	0.375552
2189	0	0.253017
2190	0	0.651601
2191	0	0.696941
2192	0	0.661951
2193	0	0.330556
2194	0	0.23529
2195	0	0.753266
2196	0	0.785068
2197	0	0.402114
2198	0	0.929413
2199	0	0.930876
2200	0	0.930876
2201	0	0.905843
2202	0	0.315487
2203	0	0.398695
2204	0	0.421388
2205	0	0.48981
2206	0	0.491066
2207	0	0.280952
2208	0	0.509091
2209	0	0.950187
2210	0	0.875
2211	0	0.875
2212	0	1
2213	0	0.996232
2214	0	0.996232
2215	0	0.996232
2216	0	0.996232
2217	1	0
2218	1	0
2219	1	0
2220	1	0
2221	1	0
2222	1	0
2223	1	0
2224	1	0
2225	1	0
2226	1	0
2227	1	0
2228	0	0
2229	1	1
2230	1	1
2231	1	1
2232	1	1
2233	1	1
2234	1	1
2235	1	1
2236	1	1
2237	1	1
2238	1	1
2239	1	1
2240	1	1
2241	0	0.998115
2242	0	0.998111
2243	0	0.998115
2244	0	0.998115
2245	0	0.998115
2246	0	0.998115
2247	0	0.998115
2248	0	0.998115
2249	0	0.998115
2250	0	0.998115
2251	0	0.998115
2252	0	0.998115
2253	0	0.998115
2254	1	1
2255	0	0.998115
2256	0	0.998115
2257	0	0.996232
2258	0	0.998115
2259	0	0.998104
2260	0	1
2261	0	0.970157
2262	0	0.981276
2263	0	0.996214
2264	0	0.996235
2265	0	0.996235
2266	0	0.998115
2267	0	0.998115
2268	0	1
2269	1	1
2270	1	1
2271	1	1
2272	1	1
2273	1	1
2274	1	1
2275	1	1
2276	1	1
2277	1	1
2278	1	1
2279	1	1
2280	1	1
2281	1	1
2282	1	1
2283	1	1
2284	1	1
2285	1	1
2286	0	0
2287	0	0
2288	0	0
2289	0	0
2290	0	0
2291	1	0
2292	1	0
2293	1	0
2294	1	0
2295	1	0
2296	1	0
2297	0	0.996235
2298	0	0.992479
2299	0	0.333333
2300	0	0.333333
2301	0	0.754781
2302	0	0.992479
2303	0	0.333333
2304	0	0.846005
2305	0	0.666667
2306	1	1
2307	1	1
2308	1	1
2309	1	1
2310	1	1
2311	1	1
2312	1	1
2313	1	1
2314	1	1
2315	1	1
2316	1	1
2317	1	1
2318	1	1
2319	1	1
2320	1	1
2321	1	1
2322	0	0.998111
2323	1	1
2324	0	1
2325	1	1
2326	1	1
2327	1	1
2328	1	1
2329	1	1
2330	1	1
2331	1	1
2332	1	1
2333	1	1
2334	1	1
2335	1	1
2336	1	1
2337	1	1
2338	1	1
2339	1	1
2340	1	1
2341	0	0.99811
2342	0	0.99811
2343	0	1
2344	0	0.998108
2345	0	1
2346	0	0.996226
2347	1	1
2348	0	0.998111
2349	0	0.998111
2350	0	0.998111
2351	0	0.99811
2352	0	0
2353	0	0
2354	0	0
2355	0	0
2356	0	0
2357	0	0
2358	0	0
2359	0	0
2360	0	0
2361	0	0
2362	0	0
2363	0	0
2364	0	0
2365	0	0
2366	0	0
2367	1	0
2368	1	0
2369	1	0
2370	1	0
2371	1	0
2372	1	0
2373	1	0
2374	1	0
2375	1	0
2376	1	0
2377	1	0
2378	1	0
2379	1	0
2380	1	0
2381	1	0
2382	1	0
2383	1	0
2384	0	0.992464
2385	0	0.992464
2386	0	0.990593
2387	0	0.992464
2388	0	0.51578
2389	0	0.166667
2390	0	0.839683
2391	0	0.571445
2392	0	0.599562
2393	0	0.56573
2394	0	0.941176
2395	0	0.8867
2396	0	0.880998
2397	0	0.875149
2398	0	0.646457
2399	0	0.633756
2400	0	0
2401	0	0
2402	0	0
2403	0	0
2404	0	0.218182
2405	0	0.339403
2406	0	0.321429
2407	0	0.498328
2408	0	0.555008
2409	0	0.182266
2410	0	0.6588
2411	0	0.583954
2412	0	0
2413	0	0.873118
2414	0	0.933333
2415	0	0.492437
2416	0	0.743322
2417	0	0.890827
2418	0	0.637728
2419	0	0.640733
2420	0	0.712965
2421	0	0.982544
2422	0	0
2423	0	0
2424	0	0
2425	0	0
2426	0	0.998095
2427	0	0.998099
2428	0	0.998113
2429	0	0.998111
2430	0	0.998111
2431	0	0.998111
2432	0	0.998111
2433	0	0.998113
2434	0	0.998113
2435	0	0.996228
2436	0	0.996225
2437	0	0
2438	0	0.928571
2439	0	0.946582
2440	0	0.992451
2441	0	0.992451
2442	0	0.994298
2443	0	0.166667
2444	0	0.981186
2445	0	0.976049
2446	0	0
2447	0	0.64867
2448	0	0.643616
2449	0	0.949895
2450	0	0.5
2451	0	0.986819
2452	0	0.984954
2453	0	0.996225
2454	0	0.996225
2455	0	0.996225
2456	0	0.994345
2457	0	0.996225
2458	0	0.996225
2459	0	0.996225
2460	0	0.996225
2461	0	0.996225
2462	0	0.996225
2463	0	0.996225
2464	0	0.996225
2465	0	0.996225
2466	0	0.996225
2467	0	0.996225
2468	0	1
2469	0	1
2470	0	0.975558
2471	0	0.69697
2472	0	0.693095
2473	0	0.855688
2474	0	0.624155
2475	0	0.623548
2476	1	0
2477	0	0.933333
2478	1	0
2479	1	0
2480	1	0
2481	1	0
2482	1	0
2483	1	0
2484	1	0
2485	1	0
2486	1	0
2487	0	0
2488	0	0.982903
2489	0	0.982917
2490	0	0.714286
2491	0	1
2492	0	0.99811
2493	0	0.99811
2494	0	0.998111
2495	0	0.998111
2496	0	0.994347
2497	0	0.994347
2498	0	0.994341
2499	0	0.994341
2500	0	0.994341
2501	0	0.996221
2502	0	0.996221
2503	0	0.996221
2504	0	0.996221
2505	0	0.996221
2506	0	0.996221
2507	0	0.996221
2508	0	0.996221
2509	1	1
2510	0	0.99811
2511	0	0.99811
2512	0	0.99811
2513	0	0.99811
2514	0	0.998111
2515	0	0.998111
2516	0	0.998111
2517	0	0.996225
2518	0	0.996228
2519	0	0
2520	0	0
2521	0	0
2522	0	0
2523	0	0.998113
2524	0	0.998113
2525	0	0.998113
2526	0	1
2527	0	1
2528	0	1
2529	0	1
2530	0	1
2531	0	1
2532	0	1
2533	0	1
2534	0	1
2535	0	1
2536	0	1
2537	0	0.913768
2538	0	0.948974
2539	0	0.740554
2540	0	0.716556
2541	0	0.563038
2542	0	0.919186
2543	0	0.333333
2544	0	0.333333
2545	0	0.333333
2546	0	0.333333
2547	0	0.333333
2548	0	0.466667
2549	0	0.52381
2550	0	0.52381
2551	0	0.971778
2552	0	0.474359
2553	0	0.990607
2554	0	0.990607
2555	0	0.990607
2556	0	0.990607
2557	0	1
2558	0	1
2559	0	1
2560	0	0.996232
2561	0	0.998113
2562	0	0.996228
2563	0	0.99811
2564	0	0.996225
2565	0	0.996225
2566	0	0.99811
2567	0	0.99811
2568	0	0.99811
2569	0	0.99811
2570	0	0.996225
2571	0	0.99811
2572	0	0.99811
2573	0	0.99811
2574	0	0.99811
2575	0	0.99811
2576	0	0.99811
2577	0	0.99811
2578	0	0.99811
2579	0	0
2580	0	0
2581	0	0.99811
2582	0	1
2583	0	1
2584	0	1
2585	0	1
2586	0	1
2587	0	1
2588	0	1
2589	0	0.998115
2590	0	0.998115
2591	0	0.998115
2592	0	0.998115
2593	0	0.998115
2594	0	0.998115
2595	0	0.998115
2596	0	0.998115
2597	0	0.998115
2598	0	0.763294
2599	0	0.333333
2600	0	0.333333
2601	0	0.333333
2602	0	0.977541
2603	0	0.371795
2604	0	0.992472
2605	0	0.992472
2606	0	0.992472
2607	0	1
2608	0	1
2609	0	0.998115
2610	0	0.998115
2611	0	0.998115
2612	0	0.998115
2613	0	0.998115
2614	0	0.998115
2615	0	0.998113
2616	0	0.998113
2617	0	0.998113
2618	0	0.998113
2619	0	0.998113
2620	0	0.998113
2621	0	0.998113
2622	0	0.998113
2623	0	0.998115
2624	0	0.998115
2625	0	0.998115
2626	0	0.998115
2627	0	0.998115
2628	0	0.998115
2629	0	0
2630	0	0.5
2631	0	0.992469
2632	0	0.666667
2633	1	0
2634	1	0
2635	1	0
2636	1	0
2637	1	0
2638	1	0
2639	1	0
2640	1	0
2641	0	0.994356
2642	0	0.996235
2643	0	0.996235
2644	0	0.996235
2645	0	0.996235
2646	0	0.996235
2647	0	0.996235
2648	0	0.996235
2649	0	0.996235
2650	0	0.996235
2651	0	0.996235
2652	0	0.996235
2653	0	0.996235
2654	0	0.994356
2655	0	0.994356
2656	0	0.99434
2657	0	1
2658	0	0.88706
2659	0	0.885283
2660	0	0.752381
2661	0	0.634058
2662	0	0.468518
2663	0	0.591018
2664	0	0.461538
2665	0	0.333544
2666	0	0.420252
2667	0	0.246606
2668	0	0.405569
2669	0	0.5
2670	0	0.5
2671	0	0.333333
2672	0	0.333333
2673	0	0.342212
2674	0	0.292515
2675	0	0.139283
2676	0	0.285288
2677	0	0.291459
2678	0	0.208204
2679	0	0.21006
2680	0	0.274925
2681	0	0
2682	0	0.282099
2683	0	0.146667
2684	0	0.277631
2685	0	0
2686	0	0.137881
2687	0	0.279238
2688	0	0.106061
2689	0	0.265372
2690	0	0.37642
2691	0	0.384615
2692	0	0.115871
2693	0	0.409441
2694	0	0.485285
2695	0	1
2696	0	1
2697	0	1
2698	0	1
2699	0	0.105263
2700	0	0.105263
2701	0	0.387938
2702	0	0.294737
2703	0	0.114286
2704	0	0.142857
2705	0	0.344203
2706	0	0.375494
2707	0	0.710445
2708	0	0.27619
2709	0	0.471297
2710	0	0.473403
2711	0	0.498997
2712	0	0.5091
2713	0	0.508714
2714	0	0.519488
2715	0	0.523243
2716	0	0.621917
2717	0	0.632335
2718	0	0.634027
2719	0	0.640877
2720	0	0.616188
2721	0	0.610416
2722	0	0.25
2723	0	0.134503
2724	0	0.146012
2725	0	0.533011
2726	0	0.541941
2727	0	0.474474
2728	0	0.311404
2729	0	0.747182
2730	0	0.884135
2731	0	0.333333
2732	0	0.603925
2733	0	0.253061
2734	0	0
2735	0	0
2736	0	0.654545
2737	0	0
2738	0	0
2739	0	0.325
2740	0	0.236602
2741	0	0.198436
2742	0	0.155556
2743	0	0.145455
2744	0	0.107143
2745	0	0.0714286
2746	0	0.0714286
2747	0	0.0714286
2748	0	0.0555556
2749	0	0.101032
2750	0	0.0953151
2751	0	0
2752	0	0.128205
2753	0	0.115719
2754	0	0.106888
2755	0	0.0731267
2756	0	0.0696001
2757	0	0.079624
2758	0	0.0832008
2759	0	0.089228
2760	0	0.47619
2761	0	0.666667
2762	0	0.666667
2763	0	0.666667
2764	0	0.666667
2765	0	0.0969187
2766	0	0.485222
2767	0	0.524631
2768	0	0.460215
2769	0	0.34985
2770	0	0.185919
2771	0	0.185056
2772	0	0.187446
2773	0	0.179523
2774	0	0.175729
2775	0	0
2776	0	0.627002
2777	0	0.663106
2778	0	0.206312
2779	0	0.293485
2780	0	0.200784
2781	0	0.263566
2782	0	0.0960884
2783	0	0.101449
2784	0	0.577451
2785	0	0.179307
2786	0	0.280519
2787	0	0.1
2788	0	0.302802
2789	0	0.152636
2790	0	0
2791	0	0
2792	0	0
2793	0	0
2794	0	0.305713
2795	0	0.571429
2796	0	1
2797	0	1
2798	0	0.786033
2799	0	0.954323
2800	0	0.787393
2801	0	1
2802	0	0.873118
2803	0	0.502769
2804	0	0.431768
2805	0	0.437757
2806	0	0.354239
2807	0	0.517647
2808	0	0.547238
2809	0	0.266667
2810	0	0.266667
2811	0	0.543956
2812	0	0.544904
2813	0	0.142857
2814	0	0.51634
2815	0	0.472813
2816	0	0.469481
2817	0	0.924954
2818	0	0.410985
2819	0	1
2820	0	0.992471
2821	0	0.992471
2822	0	0.992471
2823	0	0.992471
2824	0	0.992471
2825	0	0.992471
2826	0	0.994345
2827	0	0.994345
2828	0	0.996228
2829	0	0.996228
2830	0	0.996228
2831	0	0.996228
2832	0	0.996225
2833	0	0.996225
2834	0	0.996225
2835	0	0.99811
2836	0	0.99811
2837	0	0.99811
2838	0	0.998111
2839	0	0.99811
2840	0	0.996225
2841	0	0.996225
2842	0	0.975691
2843	0	0.980344
2844	0	0.980344
2845	0	0.674232
2846	0	0.977556
2847	0	0.977577
2848	0	0.977577
2849	0	0.977577
2850	0	0.977577
2851	0	0.98311
2852	0	1
2853	0	0.99435
2854	0	0.994356
2855	0	0.994356
2856	0	0.992485
2857	0	0
2858	0	0
2859	0	0.992478
2860	0	0.992478
2861	0	0.992478
2862	0	0.992478
2863	0	0.992478
2864	0	0.992478
2865	0	0.992478
2866	0	0.99435
2867	0	0.99435
2868	0	0.99435
2869	0	0.996225
2870	0	0.994345
2871	0	1
2872	0	0.986835
2873	0	0.99811
2874	0	0.998111
2875	0	0.998111
2876	0	0.998111
2877	0	0.998111
2878	0	0.998111
2879	0	0.99811
2880	0	0.99811
2881	0	0.99811
2882	0	0.99811
2883	0	0.99811
2884	0	0.99811
2885	0	0.99811
2886	0	0.99811
2887	0	0.996225
2888	0	0.996225
2889	0	0.996228
2890	0	0.996228
2891	0	0.996228
2892	0	0.996228
2893	0	0.996221
2894	0	0.630102
2895	0	0.818182
2896	0	0.545202
2897	0	0.41708
2898	0	0.393498
2899	0	0.5
2900	0	0.768145
2901	0	0.406252
2902	0	0.573525
2903	0	0.561265
2904	0	0.610445
2905	0	0.988644
2906	0	0.988644
2907	0	0.988644
2908	0	0
2909	0	0
2910	0	0
2911	0	0
2912	0	0.986757
2913	0	0.333333
2914	0	0.333333
2915	0	0.988622
2916	0	0.988644
2917	0	0.986757
2918	0	0.951536
2919	0	1
2920	0	0.360294
2921	0	0.892032
2922	0	0
2923	0	0.639484
2924	0	0
2925	0	0.444388
2926	0	0.463458
2927	0	0.505342
2928	0	0.635096
2929	0	0.644289
2930	0	0.444006
2931	0	0.994341
2932	0	0.992462
2933	0	0.992448
2934	0	0.992462
2935	0	0.992462
2936	0	0.996225
2937	0	0.996225
2938	0	0.996225
2939	0	0.992472
2940	0	0.996232
2941	0	0.996232
2942	0	0.994356
2943	0	0.994356
2944	0	0.994356
2945	0	0.994356
2946	0	0.994356
2947	0	0.994356
2948	0	0.996232
2949	0	0.996225
2950	0	0.996225
2951	0	0.994345
2952	0	0.994345
2953	0	0.994345
2954	0	0.990603
2955	0	0
2956	0	0
2957	0	0
2958	0	0
2959	0	0
2960	0	0
2961	0	0
2962	0	0
2963	0	0
2964	0	0
2965	0	0
2966	0	0
2967	0	0
2968	0	0
2969	0	0
2970	0	0
2971	0	0
2972	0	0
2973	0	0
2974	0	0
2975	0	0
2976	0	0
2977	0	0
2978	0	0
2979	0	0
2980	0	0
2981	0	0
2982	0	0.6
2983	0	0.6
2984	0	0.5
2985	0	0.5
2986	0	0.5
2987	0	0.333333
2988	0	0.5
2989	0	0.5
2990	0	0.166667
2991	0	0.166667
2992	0	0.166667
2993	0	0.333333
2994	0	0.333333
2995	0	0.333333
2996	0	0.333333
2997	0	0.333333
2998	0	0.333333
2999	0	0.333333
3000	0	0.333333
3001	0	0.333333
3002	0	0.333333
3003	0	0.333333
3004	0	0.333333
3005	0	0.333333
3006	0	0.333333
3007	0	0.333333
3008	0	0.333333
3009	0	0.333333
3010	0	0.333333
3011	0	0.333333
3012	0	0.333333
3013	0	0.333333
3014	0	0.333333
3015	0	0.333333
3016	0	0.333333
3017	0	0.5
3018	0	0.981239
3019	1	0
3020	1	0
3021	1	0
3022	1	0
3023	1	0
3024	1	0
3025	1	0
3026	1	0
3027	1	0
3028	1	0
3029	1	0
3030	1	0
3031	1	0
3032	1	0
3033	0	0.6
3034	0	0.6
3035	0	0.6
3036	0	0.6
3037	0	0.6
3038	0	0.6
3039	0	0.6
3040	0	0.6
3041	0	0.6
3042	0	0.2
3043	0	0.2
3044	0	0.142857
3045	0	0.142857
3046	0	0.142857
3047	0	0.142857
3048	0	0.142857
3049	0	0.142857
3050	0	0.142857
3051	0	0.107143
3052	0	0.107143
3053	0	0
3054	0	0
3055	0	0
3056	0	0
3057	0	0
3058	0	0
3059	0	0.2
3060	0	0.2
3061	0	0.2
3062	0	0.142857
3063	0	0.0833333
3064	0	0.0833333
3065	0	0.0833333
3066	0	0.0666667
3067	0	0.133333
3068	0	0.133333
3069	0	0.244444
3070	0	0.155556
3071	0	0.155556
3072	0	0.155556
3073	0	0.155556
3074	0	0.2
3075	0	0.155556
3076	0	0.416667
3077	0	0.583333
3078	0	0.36338
3079	0	0
3080	0	0
3081	0	0
3082	0	0
3083	0	0
3084	0	0
3085	0	0
3086	0	0.994325
3087	0	0.994325
3088	0	0.994325
3089	0	0.994325
3090	0	0.994325
3091	0	0.992444
3092	0	0.994331
3093	0	0.994331
3094	0	0.994331
3095	0	0.994331
3096	0	0.994331
3097	0	0.994331
3098	0	0.998104
3099	0	0.998104
3100	0	1
3101	1	1
3102	1	1
3103	0	0.992439
3104	0	0.996205
3105	0	0.994315
3106	0	0.994315
3107	0	0.994315
3108	0	0.819882
3109	0	0.79085
3110	0	1
3111	0	0.549708
3112	0	0.409357
3113	0	0.224638
3114	0	0.773642
3115	0	0.889695
3116	0	0.829293
3117	0	0.511981
3118	0	0.539401
3119	0	0.337223
3120	0	0.484051
3121	0	0.488271
3122	0	0.52381
3123	0	0.52381
3124	0	0.499432
3125	0	0.0666667
3126	0	0.166667
3127	0	0.5
3128	0	0.5
3129	0	0.5
3130	0	0.5
3131	0	0.325693
3132	0	0.356725
3133	0	0.473684
3134	0	0.906755
3135	0	0.601103
3136	0	0.719019
3137	0	0.994315
3138	0	0.994315
3139	0	0.994309
3140	0	0.990543
3141	0	0.990543
3142	0	0.990543
3143	0	0.990543
3144	0	0.990543
3145	0	0.986796
3146	0	0.988678
3147	0	0.99243
3148	0	0.99243
3149	0	0.994315
3150	0	0.99432
3151	0	0.996207
3152	0	0.994318
3153	0	0.99432
3154	0	0.99432
3155	0	1
3156	0	0.958055
3157	0	0.763414
3158	0	0.763414
3159	0	0.2
3160	0	0.133333
3161	0	0.411255
3162	0	0.816187
3163	0	0.798566
3164	0	0.166667
3165	0	0.333333
3166	0	0.333333
3167	0	0.333333
3168	0	0.333333
3169	0	0.333333
3170	0	0.793651
3171	0	0.551718
3172	0	0.142857
3173	0	0.142857
3174	0	0.142857
3175	0	0.432038
3176	0	0.328968
3177	0	0.138138
3178	0	0.462713
3179	0	0.224267
3180	0	0.201792
3181	0	0
3182	0	0
3183	0	0
3184	0	0
3185	0	0.333333
3186	0	0.333333
3187	0	0.333333
3188	0	0.333333
3189	0	0.166667
3190	0	0.266667
3191	0	0.329252
3192	0	0.28046
3193	0	0.241379
3194	0	0.314758
3195	0	0.146032
3196	0	0.145646
3197	0	0.402787
3198	0	0
3199	0	0
3200	0	0
3201	0	0
3202	0	0
3203	0	0
3204	0	0
3205	0	0
3206	0	0.333333
3207	0	0.367308
3208	0	0.190476
3209	0	0.214286
3210	0	0.308197
3211	0	0.464414
3212	0	0.883961
3213	0	0.875392
3214	0	1
3215	0	0.990552
3216	0	0.994325
3217	0	0.994325
3218	0	0.994325
3219	0	0.99432
3220	0	0.99243
3221	0	0.994315
3222	0	0.99243
3223	0	0.99243
3224	0	0.994315
3225	0	0.994315
3226	0	0.994315
3227	0	0.994315
3228	0	0.994315
3229	0	0.996212
3230	0	0.996212
3231	0	0.996212
3232	0	0.996212
3233	0	0.996212
3234	0	0.996212
3235	0	0.996212
3236	0	0.996212
3237	0	0.996212
3238	0	0.996216
3239	0	0.99432
3240	1	0
3241	0	0.994318
3242	0	0.994318
3243	0	0.994318
3244	0	0.996207
3245	0	0.996207
3246	0	0.998101
3247	0	0.998101
3248	1	1
3249	0	0.998101
3250	0	0.998101
3251	0	0.998101
3252	0	0.998101
3253	0	0.998101
3254	0	0.998101
3255	0	0.998101
3256	0	0.998101
3257	0	0.998101
3258	0	0.998101
3259	0	0.996203
3260	0	0.996203
3261	0	0.512743
3262	0	0.875
3263	0	0.635658
3264	0	0.635658
3265	0	1
3266	0	0.996207
3267	0	0.996207
3268	0	0.998102
3269	0	0.998102
3270	0	0.998104
3271	0	0.998106
3272	0	0.998106
3273	0	0.998106
3274	0	0.998106
3275	0	0.998106
3276	0	0.998106
3277	0	0.998106
3278	0	0.998104
3279	0	0.998104
3280	0	0.998104
3281	0	0.998104
3282	0	0.998104
3283	0	0.996214
3284	0	0.996214
3285	0	0.996214
3286	0	0.761371
3287	1	0
3288	0	0
3289	0	0.997812
3290	0	0.996216
3291	0	0.996219
3292	0	0.994336
3293	0	0.994336
3294	0	0.994336
3295	0	0.994336
3296	0	0.994336
3297	0	0.996219
3298	0	0.996219
3299	0	0.996219
3300	0	0.996219
3301	0	0.996219
3302	0	0.996219
3303	0	0.996219
3304	0	0.996219
3305	0	0.750283
3306	0	0.750283
3307	0	0.961625
3308	0	0.992451
3309	0	0.992451
3310	0	0.992451
3311	0	0.992451
3312	0	0.994336
3313	0	0.994336
3314	0	0.994336
3315	0	0.996219
3316	0	0.994331
3317	0	0.994331
3318	0	0.994331
3319	0	0.994331
3320	0	0.994325
3321	0	0.994325
3322	0	0.996212
3323	0	0.996212
3324	0	0.994313
3325	0	0.994307
3326	0	0.992419
3327	0	0.731122
3328	0	1
3329	0	0.509013
3330	0	0.934344
3331	0	0.953746
3332	0	1
3333	0	0.514037
3334	0	0.51323
3335	0	0.512552
3336	0	0.764862
3337	0	0.764613
3338	0	0.992437
3339	0	0.992437
3340	0	0.994324
3341	0	0.998102
3342	0	0.998102
3343	0	0.99621
3344	0	0.99621
3345	0	0.99621
3346	0	0.99621
3347	0	0.994318
3348	0	0.996207
3349	0	0.996207
3350	0	1
3351	0	1
3352	0	1
3353	0	1
3354	0	0.56044
3355	0	0.79872
3356	0	0.730221
3357	0	0.628544
3358	0	0.619934
3359	0	0.611499
3360	0	0.610754
3361	0	0.610195
3362	0	0.515528
3363	0	0.525515
3364	0	0.514154
3365	0	0.394596
3366	0	0.280352
3367	0	0.425107
3368	0	0.450418
3369	0	0.458821
3370	0	0.455424
3371	0	0.193676
3372	0	0.130435
3373	0	0.15942
3374	0	0.128205
3375	0	0.346649
3376	0	0.221906
3377	0	0.359799
3378	0	0.285985
3379	0	0.172348
3380	0	0.417853
3381	0	0.312971
3382	0	0.476078
3383	0	0.473913
3384	0	0.75
3385	0	0.75
3386	0	0.609043
3387	0	0.658937
3388	0	0.956117
3389	0	0.961084
3390	0	0.964467
3391	0	0.964467
3392	0	1
3393	0	1
3394	0	0.998106
3395	0	0.998106
3396	0	0.998106
3397	0	0.998106
3398	0	0.998106
3399	0	0.996217
3400	0	0.996217
3401	0	0.996217
3402	0	0.996217
3403	0	0.996217
3404	0	0.996217
3405	0	0.996217
3406	0	0.996217
3407	0	0.996217
3408	0	1
3409	0	0.333333
3410	0	0.992437
3411	0	0.994325
3412	0	0.996217
3413	0	0.996217
3414	0	0.996214
3415	0	0
3416	0	0.166667
3417	0	0.988669
3418	0	0.986793
3419	0	1
3420	0	0.996217
3421	0	0.996217
3422	0	0.996217
3423	0	0.996217
3424	0	0.994334
3425	0	0.994334
3426	0	0.994334
3427	0	0.994334
3428	0	0.688515
3429	0	0.873118
3430	0	0.933333
3431	0	0.996217
3432	0	0.996217
3433	0	0.996217
3434	0	0.996217
3435	0	0.996217
3436	0	0.981197
3437	0	0.983057
3438	0	0.75
3439	0	0.75
3440	0	0.75
3441	0	0.994329
3442	0	0.994329
3443	0	0.994329
3444	0	0.994329
3445	0	0.994329
3446	0	0.996214
3447	0	0.998104
3448	0	0.998104
3449	0	0.998104
3450	0	0.998104
3451	0	0.998104
3452	0	0.998104
3453	0	0.998104
3454	0	0.998104
3455	0	0.998102
3456	0	0.333333
3457	0	0.333333
3458	0	0
3459	0	0
3460	0	0
3461	0	0
3462	0	0
3463	0	0
3464	0	0
3465	0	0
3466	0	0
3467	0	0
3468	0	0
3469	0	0
3470	0	0
3471	0	0
3472	0	0
3473	0	0
3474	0	0
3475	0	0
3476	0	0
3477	0	0
3478	0	0
3479	0	0
3480	0	0
3481	0	0
3482	0	0
3483	0	0
3484	0	0
3485	0	0
3486	0	0
3487	0	0
3488	0	0
3489	0	0
3490	0	0
3491	0	0
3492	0	0
3493	0	0
3494	0	0
3495	0	0
3496	0	0
3497	0	0
3498	0	0
3499	0	0
3500	0	0
3501	0	0
3502	0	0
3503	0	0
3504	0	0
3505	0	0
3506	0	0
3507	0	0
3508	0	0
3509	0	0
3510	0	0
3511	0	0
3512	0	0
3513	0	0
3514	0	0
3515	0	0
3516	0	0
3517	0	0
3518	0	0
3519	0	0
3520	0	0
3521	0	0
3522	0	0
3523	0	0
3524	0	0
3525	0	0
3526	0	0
3527	0	0
3528	0	0
3529	0	0
3530	0	0
3531	0	0
3532	0	0
3533	0	0
3534	0	0
3535	0	0
3536	0	0
3537	0	0
3538	0	0
3539	0	0
3540	0	0
3541	0	0
3542	0	0
3543	0	0
3544	0	0
3545	0	0
3546	0	0
3547	0	0
3548	0	0
3549	0	0
3550	0	0
3551	0	0
3552	0	0
3553	0	0
3554	0	0
3555	0	0
3556	0	0
3557	0	0
3558	0	0
3559	0	0
3560	0	0
3561	0	0
3562	0	0
3563	1	0
3564	1	0
3565	1	0
3566	0	0
3567	0	0
3568	0	0
3569	0	0
3570	0	0
3571	0	0
3572	0	0
3573	0	0
3574	0	0
3575	0	0
3576	0	0
3577	0	0
3578	0	0
3579	0	0
3580	0	0
3581	0	0
3582	0	0
3583	0	0
3584	0	0
3585	0	0
3586	0	0
3587	0	0
3588	0	0
3589	0	0
3590	0	0
3591	0	0
3592	0	0
3593	0	0
3594	0	0
3595	0	0
3596	0	0
3597	0	0
3598	0	0
3599	0	0
3600	0	0
3601	0	0
3602	0	0
3603	0	0
3604	0	0
3605	0	0
3606	0	0
3607	0	0
3608	0	0
3609	0	0
3610	0	0
3611	0	0
3612	0	0
3613	0	0
3614	0	0
3615	0	0
3616	0	0
3617	0	0
3618	0	0
3619	0	0
3620	0	0
3621	0	0
3622	0	0
3623	0	0
3624	0	0
3625	0	0
3626	0	0
3627	0	0
3628	0	0
3629	0	0
3630	0	0
3631	0	0
3632	0	0
3633	0	0
3634	0	0
3635	0	0
3636	0	0
3637	0	0
3638	0	0
3639	0	0
3640	0	0
3641	0	0
3642	0	0
3643	0	0
3644	0	0
3645	0	0
3646	0	0
3647	0	0
3648	0	0
3649	0	0
3650	0	0
3651	0	0
3652	0	0
3653	0	0
3654	0	0
3655	0	0
3656	0	0
3657	0	0
3658	0	0
3659	0	0
3660	0	0
3661	0	0
3662	0	0
3663	0	0
3664	0	0
3665	1	0
3666	0	0
3667	0	0
3668	0	0
3669	0	0
3670	0	0
3671	0	0
3672	0	0
3673	0	0
3674	0	0
3675	0	0
3676	0	0
3677	0	0
3678	0	0
3679	0	0
3680	0	0
3681	0	0
3682	0	0
3683	0	0
3684	0	0
3685	0	0
3686	0	0
3687	0	0
3688	0	0
3689	0	0
3690	0	0
3691	0	0
3692	0	0
3693	0	0
3694	0	0
3695	0	0
3696	0	0
3697	0	0
3698	0	0
3699	0	0
3700	0	0
3701	0	0
3702	0	0
3703	0	0
3704	0	0
3705	0	0
3706	0	0
3707	0	0
3708	0	0
3709	0	0
3710	0	0
3711	0	0
3712	0	0
3713	0	0
3714	0	0
3715	0	0
3716	0	0
3717	0	0
3718	0	0
3719	0	0
3720	0	0
3721	0	0
3722	0	0
3723	0	0
3724	0	0
3725	0	0
3726	0	0
3727	0	0
3728	0	0
3729	0	0
3730	0	0
3731	0	0
3732	0	0
3733	0	0
3734	0	0
3735	0	0
3736	0	0
3737	0	0
3738	0	0
3739	0	0
3740	0	0
3741	0	0
3742	0	0
3743	0	0
3744	0	0
3745	0	0
3746	0	0
3747	0	0
3748	0	0
3749	0	0
3750	0	0
3751	0	0
3752	0	0
3753	0	0
3754	0	0
3755	0	0
3756	0	0
3757	0	0
3758	0	0
3759	0	0
3760	0	0
3761	0	0
3762	0	0
3763	0	0
3764	0	0
3765	0	0
3766	0	0
3767	0	0
3768	0	0
3769	0	0
3770	0	0
3771	0	0
3772	0	0
3773	0	0
3774	0	0
3775	0	0
3776	0	0
3777	0	0
3778	0	0
3779	0	0
3780	0	0
3781	0	0
3782	0	0
3783	0	0
3784	0	0
3785	0	0
3786	0	0
3787	0	0
3788	0	0
3789	0	0
3790	0	0
3791	0	0
3792	0	0
3793	0	0
3794	0	0
3795	0	0
3796	0	0
3797	0	0
3798	0	0
3799	0	0
3800	0	0
3801	0	0
3802	0	0
3803	0	0
3804	0	0
3805	0	0
3806	0	0
3807	0	0
3808	0	0
3809	0	0
3810	0	0
3811	0	0
3812	0	0
3813	0	0
3814	0	0
3815	0	0
3816	0	0
3817	0	0
3818	0	0
3819	0	0
3820	0	0
3821	0	0
3822	0	0.988665
3823	0	0.988654
3824	0	0.988654
3825	0	0.984915
3826	0	0
3827	0	0
3828	0	0
3829	0	0
3830	0	0
3831	0	0
3832	0	0
3833	0	0
3834	0	0
3835	0	0
3836	0	0
3837	0	0
3838	0	0
3839	0	0
3840	0	0
3841	0	0
3842	0	0
3843	0	0
3844	0	0
3845	0	0
3846	0	0
3847	0	0
3848	0	0
3849	0	0
3850	0	0
3851	0	0
3852	0	0
3853	0	0
3854	0	0
3855	0	0
3856	0	0
3857	0	0
3858	0	0
3859	0	0
3860	0	0
3861	0	0
3862	0	0
3863	0	0
3864	0	0
3865	0	0
3866	0	0
3867	0	0
3868	0	0
3869	0	0
3870	0	0
3871	0	0
3872	0	0
3873	0	0
3874	0	0
3875	0	0
3876	0	0
3877	0	0
3878	0	0
3879	0	0
3880	0	0
3881	0	0
3882	0	0
3883	0	0
3884	0	0
3885	0	0
3886	0	0
3887	0	0
3888	0	0
3889	0	0
3890	0	0
3891	0	0
3892	0	0
3893	0	0
3894	0	0
3895	0	0
3896	0	0
3897	0	0
3898	0	0
3899	0	0
3900	0	0
3901	0	0
3902	0	0
3903	0	0
3904	0	0
3905	0	0
3906	0	0
3907	0	0
3908	0	0
3909	0	0
3910	0	0
3911	0	0
3912	0	0
3913	0	0
3914	0	0
3915	0	0
3916	0	0
3917	0	0
3918	0	0
3919	0	0
3920	0	0
3921	0	0
3922	0	0
3923	0	0
3924	0	0
3925	0	0
3926	0	0
3927	0	0
3928	0	0
3929	0	0
3930	0	0
3931	0	0
3932	0	0
3933	0	0
3934	0	0
3935	0	0
3936	0	0
3937	0	0
3938	0	0
3939	0	0
3940	0	0
3941	0	0
3942	0	0
3943	0	0
3944	0	0
3945	0	0
3946	0	0
3947	0	0
3948	0	0
3949	0	0
3950	0	0
3951	0	0
3952	0	0
3953	0	0
3954	0	0
3955	0	0
3956	0	0
3957	0	0
3958	0	0
3959	0	0
3960	0	0
3961	0	0
3962	0	0
3963	0	0
3964	0	0
3965	0	0
3966	0	0
3967	0	0
3968	0	0
3969	0	0
3970	0	0
3971	0	0
3972	0	0
3973	0	0
3974	0	0
3975	0	0
3976	0	0
3977	0	0
3978	0	0
3979	0	0
3980	0	0
3981	0	0
3982	0	0
3983	0	0
3984	0	0.986768
3985	0	0
3986	0	0
3987	0	0
3988	0	0
3989	0	0
3990	0	0
3991	0	0.99053
3992	0	0.99053
3993	0	0.47619
3994	0	0.47619
3995	0	0.47619
3996	0	0.47619
3997	0	0.983005
3998	0	0
3999	0	0
4000	0	0
4001	0	0
4002	0	0
4003	0	0
4004	0	0
4005	0	0
4006	0	0
4007	0	0
4008	0	0
4009	0	0
4010	0	0
4011	0	0
4012	0	0
4013	0	0
4014	0	0
4015	0	0
4016	0	0
4017	0	0
4018	0	0
4019	0	0
4020	0	0
4021	0	0
4022	0	0
4023	0	0
4024	0	0
4025	0	0
4026	0	0
4027	0	0
4028	0	0
4029	0	0
4030	0	0
4031	0	0
4032	0	0
4033	0	0
4034	0	0
4035	0	0
4036	0	0
4037	0	0
4038	0	0
4039	0	0
4040	0	0
4041	0	0
4042	0	0
4043	0	0
4044	0	0
4045	0	0
4046	0	0
4047	0	0
4048	0	0
4049	0	0
4050	0	0
4051	0	0
4052	0	0
4053	0	0
4054	0	0
4055	0	0
4056	0	0
4057	0	0
4058	0	0
4059	0	0
4060	1	0
4061	1	0
4062	1	0
4063	1	0
4064	1	0
4065	1	0
4066	1	0
4067	1	0
4068	1	0
4069	1	0
4070	0	0
4071	0	0
4072	0	0
4073	0	0
4074	0	0
4075	0	0
4076	0	0
4077	0	0
4078	0	0
4079	0	0
4080	0	0
4081	0	0
4082	0	0
4083	0	0
4084	0	0
4085	0	0
4086	0	0
4087	0	0
4088	0	0
4089	0	0
4090	0	0
4091	0	0
4092	0	0
4093	0	0
4094	0	0
4095	0	0
4096	0	0
4097	0	0
4098	0	0
4099	0	0
4100	1	0
4101	1	0
4102	0	0
4103	0	0
4104	0	0
4105	0	0
4106	0	0
4107	0	0
4108	0	0
4109	0	0
4110	0	0
4111	0	0
4112	0	0
4113	0	0
4114	0	0
4115	0	0
4116	0	0
4117	0	0
4118	0	0
4119	0	0
4120	0	0
4121	0	0
4122	0	0
4123	0	0
4124	0	0
4125	0	0
4126	0	0
4127	0	0
4128	0	0
4129	0	0
4130	0	0
4131	0	0
4132	0	0
4133	0	0
4134	0	0
4135	0	0
4136	0	0
4137	0	0
4138	0	0
4139	0	0
4140	0	0
4141	0	0
4142	0	0
4143	0	0
4144	0	0
4145	0	0
4146	0	0
4147	0	0
4148	0	0
4149	0	0
4150	0	0
4151	0	0
4152	0	0
4153	0	0
4154	0	0
4155	0	0
4156	0	0
4157	0	0
4158	0	0
4159	0	0
4160	0	0
4161	0	0
4162	0	0
4163	0	0
4164	0	0
4165	0	0
4166	0	0
4167	0	0
4168	0	0
4169	0	0
4170	0	0
4171	0	0
4172	0	0
4173	0	0
4174	0	0
4175	0	0
4176	0	0
4177	0	0
4178	0	0
4179	0	0
4180	0	0
4181	0	0
4182	0	0
4183	0	0
4184	0	0
4185	0	0
4186	0	0
4187	0	0
4188	0	0
4189	0	0
4190	0	0
4191	0	0
4192	0	0
4193	0	0
4194	0	0
4195	0	0
4196	0	0
4197	0	0
4198	0	0
4199	0	0
4200	0	0
4201	0	0
4202	0	0
4203	0	0
4204	0	0
4205	0	0
4206	0	0
4207	0	0
4208	0	0
4209	0	0
4210	0	0
4211	0	0
4212	0	0
4213	0	0
4214	0	0
4215	0	0
4216	1	0
4217	1	0
4218	1	0
4219	1	0
4220	1	0
4221	1	0
4222	1	0
4223	1	0
4224	1	0
4225	1	0
4226	1	0
4227	1	0
4228	1	0
4229	1	0
4230	1	0
4231	1	0
4232	1	0
4233	1	0
4234	1	0
4235	1	0
4236	1	0
4237	0	0
4238	0	0
4239	0	0
4240	0	0
4241	0	0
4242	0	0
4243	0	0
4244	0	0
4245	0	0
4246	0	0
4247	0	0
4248	0	0
4249	0	0
4250	0	0
4251	0	0
4252	0	0
4253	0	0
4254	0	0
4255	0	0
4256	0	0
4257	0	0
4258	0	0
4259	0	0
4260	0	0
4261	0	0
4262	0	0.992421
4263	0	0.992421
4264	0	0.992421
4265	0	0.992428
4266	0	0.992428
4267	0	0.992428
4268	0	0.992428
4269	0	0
4270	0	0
4271	0	0
4272	0	0
4273	0	0
4274	0	0
4275	0	0
4276	0	0
4277	0	0.990548
4278	0	0.990548
4279	0	0.990548
4280	0	0.990548
4281	0	0.990548
4282	0	0.990548
4283	0	0.990548
4284	0	0.974111
4285	0	0.973942
4286	0	0.973942
4287	0	0.973771
4288	0	0.973771
4289	0	0.973771
4290	0	0.973771
4291	0	0.973245
4292	0	0.973245
4293	0	0.973245
4294	0	0.973245
4295	0	0.973065
4296	0	0.973065
4297	0	0.973065
4298	0	0.973065
4299	0	0.929221
4300	0	0.929221
4301	0	0.955805
4302	0	0.955805
4303	0	0
4304	0	0
4305	0	0
4306	0	0
4307	0	0
4308	0	0
4309	0	0
4310	0	0
4311	0	0
4312	0	0
4313	0	0
4314	0	0
4315	0	0
4316	0	0
4317	0	0
4318	0	0
4319	0	0
4320	0	0
4321	0	0
4322	0	0
4323	0	0
4324	0	0
4325	0	0
4326	0	0
4327	0	0
4328	0	0
4329	0	0
4330	0	0
4331	0	0
4332	0	0
4333	0	0
4334	0	0
4335	0	0
4336	0	0
4337	0	0
4338	0	0
4339	0	0
4340	0	0
4341	0	0
4342	0	0
4343	0	0
4344	0	0
4345	0	0
4346	0	0
4347	0	0
4348	0	0
4349	0	0
4350	0	0
4351	0	0
4352	0	0
4353	0	0
4354	0	0
4355	0	0
4356	0	0
4357	0	0
4358	0	0
4359	0	0
4360	0	0
4361	0	0
4362	0	0
4363	0	0
4364	0	0
4365	0	0
4366	0	0
4367	0	0
4368	0	0
4369	0	0
4370	0	0
4371	0	0
4372	0	0
4373	0	0
4374	0	0
4375	0	0
4376	0	0
4377	0	0
4378	0	0
4379	0	0
4380	0	0
4381	0	0
4382	0	0
4383	0	0
4384	0	0
4385	0	0
4386	0	0
4387	0	0
4388	0	0
4389	0	0
4390	0	0
4391	0	0
4392	0	0
4393	0	0
4394	0	0
4395	0	0
4396	0	0
4397	0	0
4398	0	0
4399	0	0
4400	0	0
4401	0	0
4402	0	0
4403	0	0
4404	0	0
4405	0	0
4406	0	0
4407	0	0
4408	0	0
4409	0	0
4410	0	0
4411	0	0
4412	0	0
4413	0	0
4414	0	0
4415	0	0
4416	0	0
4417	0	0
4418	0	0
4419	0	0
4420	0	0
4421	0	0
4422	0	0
4423	0	0
4424	0	0
4425	0	0
4426	0	0
4427	0	0
4428	0	0
4429	0	0
4430	0	0
4431	0	0
4432	0	0
4433	0	0
4434	0	0
4435	0	0
4436	0	0
4437	0	0
4438	0	0
4439	0	0
4440	0	0
4441	0	0
4442	0	0
4443	0	0
4444	0	0
4445	0	0
4446	0	0
4447	0	0
4448	0	0
4449	0	0
4450	0	0
4451	0	0
4452	0	0.697685
4453	0	0.333333
4454	0	0.416667
4455	0	0.416667
4456	0	0.416667
4457	0	0.277778
4458	0	0.403932
4459	1	0
4460	1	0
4461	1	0
4462	1	0
4463	1	0
4464	1	0
4465	1	0
4466	1	0
4467	1	0
4468	1	0
4469	1	0
4470	1	0
4471	1	0
4472	1	0
4473	1	0
4474	1	0
4475	1	0
4476	1	0
4477	1	0
4478	1	0
4479	1	0
4480	1	0
4481	1	0
4482	1	0
4483	1	0
4484	1	0
4485	1	0
4486	1	0
4487	1	0
4488	1	0
4489	1	0
4490	1	0
4491	1	0
4492	1	0
4493	1	0
4494	1	0
4495	1	0
4496	1	0
4497	1	0
4498	1	0
4499	1	0
4500	1	0
4501	1	0
4502	1	0
4503	1	0
4504	1	0
4505	1	0
4506	1	0
4507	1	0
4508	1	0
4509	1	0
4510	1	0
4511	1	0
4512	0	0
4513	0	0
4514	0	0
4515	0	0
4516	0	0
4517	0	0
4518	0	0
4519	1	0
4520	1	0
4521	1	0
4522	1	0
4523	1	0
4524	1	0
4525	0	0
4526	0	0
4527	0	0
4528	0	0
4529	0	0
4530	0	0
4531	0	0
4532	0	0
4533	0	0
4534	0	0
4535	1	0
4536	1	0
4537	1	0
4538	1	0
4539	0	0
4540	0	0
4541	0	0
4542	0	0
4543	0	0
4544	0	0
4545	0	0
4546	0	0
4547	0	0
4548	0	0
4549	0	0
4550	0	0
4551	0	0
4552	0	0
4553	0	0
4554	0	0
4555	0	0
4556	0	0
4557	0	0
4558	0	0
4559	0	0
4560	0	0
4561	0	0
4562	0	0
4563	0	0
4564	0	0
4565	0	0
4566	0	0
4567	0	0
4568	0	0
4569	0	0
4570	0	0
4571	0	0
4572	0	0
4573	0	0
4574	0	0
4575	0	0
4576	0	0
4577	0	0
4578	0	0
4579	0	0
4580	0	0
4581	0	0
4582	0	0
4583	0	0
4584	0	0
4585	0	0
4586	0	0
4587	0	0
4588	0	0
4589	0	0
4590	0	0
4591	0	0
4592	0	0
4593	0	0
4594	0	0
4595	0	0
4596	0	0
4597	0	0
4598	0	0
4599	0	0
4600	0	0
4601	0	0
4602	0	0
4603	0	0
4604	0	0
4605	0	0
4606	0	0
4607	0	0
4608	0	0
4609	0	0
4610	0	0
4611	0	0
4612	0	0
4613	0	0
4614	0	0
4615	0	0
4616	0	0
4617	1	0
4618	1	0
4619	1	0
4620	1	0
4621	0	0
4622	0	0
4623	0	0
4624	0	0
4625	0	0
4626	0	0
4627	0	0
4628	0	0
4629	0	0
4630	0	0
4631	0	0
4632	0	0
4633	0	0
4634	0	0
4635	0	0
4636	0	0
4637	0	0
4638	0	0
4639	0	0
4640	0	0
4641	0	0
4642	0	0
4643	0	0
4644	0	0
4645	0	0
4646	0	0
4647	0	0
4648	0	0
4649	0	0
4650	0	0
4651	0	0
4652	0	0
4653	0	0
4654	0	0
4655	0	0
4656	0	0
4657	0	0
4658	0	0
4659	0	0
4660	0	0
4661	1	0
4662	1	0
4663	0	0
4664	0	0
4665	0	0
4666	0	0
4667	0	0
4668	1	0
4669	1	0
4670	1	0
4671	1	0
4672	1	0
4673	1	0
4674	1	0
4675	1	0
4676	1	0
4677	1	0
4678	1	0
4679	1	0
4680	1	0
4681	1	0
4682	1	0
4683	1	0
4684	1	0
4685	1	0
4686	1	0
4687	1	0
4688	1	0
4689	0	0
4690	0	0
4691	0	0
4692	0	0
4693	0	0
4694	0	0
4695	1	0
4696	1	0
4697	1	0
4698	1	0
4699	1	0
4700	1	0
4701	1	0
4702	1	0
4703	1	0
4704	1	0
4705	1	0
4706	1	0
4707	1	0
4708	1	0
4709	1	0
4710	1	0
4711	1	0
4712	1	0
4713	1	0
4714	1	0
4715	1	0
4716	1	0
4717	1	0
4718	1	0
4719	1	0
4720	1	0
4721	1	0
4722	1	0
4723	1	0
4724	1	0
4725	1	0
4726	1	0
4727	1	0
4728	1	0
4729	1	0
4730	1	0
4731	1	0
4732	1	0
4733	1	0
4734	1	0
4735	1	0
4736	1	0
4737	1	0
4738	1	0
4739	1	0
4740	1	0
4741	1	0
4742	1	0
4743	1	0
4744	1	0
4745	1	0
4746	1	0
4747	1	0
4748	1	0
4749	1	0
4750	1	0
4751	1	0
4752	1	0
4753	1	0
4754	1	0
4755	1	0
4756	1	0
4757	1	0
4758	1	0
4759	1	0
4760	1	0
4761	1	0
4762	1	0
4763	1	0
4764	1	0
4765	1	0
4766	1	0
4767	1	0
4768	1	0
4769	1	0
4770	1	0
4771	1	0
4772	1	0
4773	1	0
4774	1	0
4775	1	0
4776	1	0
4777	1	0
4778	1	0
4779	1	0
4780	1	0
4781	1	0
4782	1	0
4783	1	0
4784	1	0
4785	1	0
4786	1	0
4787	1	0
4788	1	0
4789	1	0
4790	1	0
4791	1	0
4792	1	0
4793	1	0
4794	1	0
4795	1	0
4796	1	0
4797	1	0
4798	1	0
4799	1	0
4800	1	0
4801	1	0
4802	1	0
4803	1	0
4804	1	0
4805	1	0
4806	1	0
4807	1	0
4808	1	0
4809	1	0
4810	1	0
4811	1	0
4812	1	0
4813	1	0
4814	1	0
4815	1	0
4816	1	0
4817	1	0
4818	1	0
4819	1	0
4820	1	0
4821	1	0
4822	1	0
4823	1	0
4824	1	0
4825	1	0
4826	1	0
4827	1	0
4828	1	0
4829	1	0
4830	1	0
4831	1	0
4832	1	0
4833	1	0
4834	0	0
4835	0	0
4836	0	0
4837	0	0
4838	0	0
4839	0	0
4840	0	0
4841	0	0
4842	0	0
4843	0	0
4844	0	0
4845	0	0
4846	0	0
4847	0	0
4848	0	0
4849	0	0
4850	0	0
4851	0	0
4852	0	0
4853	0	0
4854	0	0
4855	0	0
4856	0	0
4857	0	0
4858	0	0
4859	0	0
4860	0	0
4861	0	0
4862	0	0
4863	1	0
4864	1	0
4865	1	0
4866	1	0
4867	1	0
4868	1	0
4869	1	0
4870	1	0
4871	1	0
4872	1	0
4873	1	0
4874	1	0
4875	1	0
4876	1	0
4877	1	0
4878	1	0
4879	1	0
4880	1	0
4881	1	0
4882	1	0
4883	1	0
4884	1	0
4885	1	0
4886	1	0
4887	1	0
4888	1	0
4889	0	0
4890	0	0
4891	0	0
4892	0	0
4893	1	0
4894	1	0
4895	1	0
4896	1	0
4897	1	0
4898	1	0
4899	1	0
4900	1	0
4901	1	0
4902	1	0
4903	1	0
4904	1	0
4905	1	0
4906	1	0
4907	1	0
4908	1	0
4909	1	0
4910	1	0
4911	1	0
4912	1	0
4913	1	0
4914	1	0
4915	1	0
4916	1	0
4917	1	0
4918	1	0
4919	1	0
4920	1	0
4921	1	0
4922	1	0
4923	1	0
4924	1	0
4925	1	0
4926	1	0
4927	1	0
4928	1	0
4929	1	0
4930	1	0
4931	1	0
4932	1	0
4933	1	0
4934	1	0
4935	1	0
4936	1	0
4937	0	0
4938	0	0
4939	0	0
4940	0	0
4941	0	0
4942	0	0
4943	0	0
4944	0	0
4945	1	0
4946	0	0
4947	0	0
4948	0	0
4949	0	0
4950	0	0
4951	0	0
4952	0	0
4953	0	0
4954	0	0
4955	0	0
4956	0	0
4957	0	0
4958	0	0
4959	0	0
4960	0	0
4961	0	0
4962	1	0
4963	1	0
4964	1	0
4965	0	0.612277
4966	0	0.675235
4967	0	0.707442
4968	0	0.725994
4969	0	0.383297
4970	0	0.467866
4971	0	0.434078
4972	0	0.548557
4973	0	0.320513
4974	0	0.47619
4975	0	0.47619
4976	0	0.47619
4977	0	0.47619
4978	0	0.47619
4979	0	0.666964
4980	0	0.333333
4981	0	0.333333
4982	0	0.333333
4983	0	0.333333
4984	0	0.333333
4985	0	0.734126
4986	0	0.734367
4987	0	0
4988	0	0
4989	0	0
4990	0	0
4991	0	0
4992	0	0
4993	0	0
4994	0	0
4995	0	0
4996	0	0
4997	0	0
4998	0	0
4999	0	0
5000	0	0
5001	0	0
5002	0	0
5003	0	0
5004	0	0
5005	0	0
5006	0	0
5007	0	0
5008	0	0
5009	0	0
5010	0	0
5011	0	0
5012	0	0.3
5013	0	0.3
5014	0	0.3
5015	0	0.654545
5016	0	0.545455
5017	0	0.545455
5018	0	0.545455
5019	0	0.728881
5020	0	0.742857
5021	0	0.512112
5022	0	0.512112
5023	0	0.333333
5024	0	0.988654
5025	0	0.988654
5026	0	0
5027	0	0
5028	0	0
5029	0	0
5030	0	0
5031	0	0
5032	1	0
5033	1	0
5034	1	0
5035	1	0
5036	1	0
5037	1	0
5038	1	0
5039	1	0
5040	1	0
5041	1	0
5042	1	0
5043	1	0
5044	1	0
5045	1	0
5046	1	0
5047	1	0
5048	1	0
5049	1	0
5050	1	0
5051	1	0
5052	1	0
5053	1	0
5054	1	0
5055	1	0
5056	1	0
5057	1	0
5058	1	0
5059	1	0
5060	1	0
5061	1	0
5062	1	0
5063	1	0
5064	1	0
5065	1	0
5066	1	0
5067	1	0
5068	1	0
5069	1	0
5070	1	0
5071	1	0
5072	1	0
5073	1	0
5074	1	0
5075	1	0
5076	1	0
5077	1	0
5078	1	0
5079	1	0
5080	1	0
5081	1	0
5082	1	0
5083	1	0
5084	1	0
5085	1	0
5086	1	0
5087	1	0
5088	1	0
5089	1	0
5090	1	0
5091	1	0
5092	1	0
5093	1	0
5094	1	0
5095	1	0
5096	1	0
5097	1	0
5098	1	0
5099	1	0
5100	1	0
5101	1	0
5102	1	0
5103	1	0
5104	1	0
5105	1	0
5106	1	0
5107	1	0
5108	1	0
5109	1	0
5110	1	0
5111	1	0
5112	1	0
5113	1	0
5114	1	0
5115	1	0
5116	1	0
5117	1	0
5118	1	0
5119	1	0
5120	1	0
5121	1	0
5122	1	0
5123	1	0
5124	1	0
5125	1	0
5126	1	0
5127	1	0
5128	1	0
5129	1	0
5130	1	0
5131	1	0
5132	1	0
5133	1	0
5134	1	0
5135	1	0
5136	1	0
5137	1	0
5138	1	0
5139	1	0
5140	1	0
5141	1	0
5142	1	0
5143	1	0
5144	1	0
5145	1	0
5146	1	0
5147	1	0
5148	1	0
5149	1	0
5150	1	0
5151	1	0
5152	1	0
5153	1	0
5154	1	0
5155	1	0
5156	1	0
5157	1	0
5158	1	0
5159	1	0
5160	1	0
5161	1	0
5162	1	0
5163	1	0
5164	1	0
5165	1	0
5166	1	0
5167	1	0
5168	1	0
5169	1	0
5170	1	0
5171	1	0
5172	1	0
5173	1	0
5174	1	0
5175	1	0
5176	1	0
5177	1	0
5178	1	0
5179	1	0
5180	1	0
5181	1	0
5182	1	0
5183	1	0
5184	1	0
5185	1	0
5186	1	0
5187	1	0
5188	1	0
5189	1	0
5190	1	0
5191	1	0
5192	1	0
5193	1	0
5194	1	0
5195	1	0
5196	1	0
5197	1	0
5198	1	0
5199	1	0
5200	1	0
5201	1	0
5202	1	0
5203	1	0
5204	1	0
5205	1	0
5206	1	0
5207	1	0
5208	1	0
5209	1	0
5210	1	0
5211	1	0
5212	1	0
5213	1	0
5214	1	0
5215	1	0
5216	1	0
5217	1	0
5218	1	0
5219	1	0
5220	1	0
5221	1	0
5222	1	0
5223	1	0
5224	1	0
5225	1	0
5226	1	0
5227	1	0
5228	1	0
5229	1	0
5230	1	0
5231	1	0
5232	1	0
5233	1	0
5234	1	0
5235	1	0
5236	1	0
5237	1	0
5238	1	0
5239	1	0
5240	1	0
5241	1	0
5242	1	0
5243	1	0
5244	1	0
5245	1	0
5246	1	0
5247	1	0
5248	1	0
5249	1	0
5250	1	0
5251	1	0
5252	1	0
5253	1	0
5254	1	0
5255	1	0
5256	1	0
5257	1	0
5258	1	0
5259	1	0
5260	1	0
5261	1	0
5262	1	0
5263	1	0
5264	1	0
5265	1	0
5266	1	0
5267	1	0
5268	1	0
5269	1	0
5270	1	0
5271	1	0
5272	1	0
5273	1	0
5274	1	0
5275	1	0
5276	1	0
5277	1	0
5278	1	0
5279	1	0
5280	1	0
5281	1	0
5282	1	0
5283	1	0
5284	1	0
5285	1	0
5286	1	0
5287	1	0
5288	1	0
5289	1	0
5290	1	0
5291	1	0
5292	1	0
5293	1	0
5294	1	0
5295	1	0
5296	1	0
5297	1	0
5298	1	0
5299	1	0
5300	1	0
5301	1	0
5302	1	0
5303	1	0
5304	1	0
5305	1	0
5306	1	0
5307	1	0
5308	1	0
5309	1	0
5310	1	0
5311	1	0
5312	1	0
5313	1	0
5314	1	0
5315	1	0
5316	1	0
5317	1	0
5318	1	0
5319	1	0
5320	1	0
5321	1	0
5322	1	0
5323	1	0
5324	1	0
5325	1	0
5326	1	0
5327	1	0
5328	1	0
5329	1	0
5330	1	0
5331	1	0
5332	1	0
5333	1	0
5334	1	0
5335	1	0
5336	1	0
5337	1	0
5338	1	0
5339	1	0
5340	1	0
5341	1	0
5342	1	0
5343	1	0
5344	1	0
5345	1	0
5346	1	0
5347	1	0
5348	1	0
5349	1	0
5350	1	0
5351	1	0
5352	1	0
5353	1	0
5354	1	0
5355	1	0
5356	1	0
5357	1	0
5358	1	0
5359	1	0
5360	1	0
5361	1	0
5362	1	0
5363	1	0
5364	1	0
5365	1	0
5366	1	0
5367	1	0
5368	1	0
5369	1	0
5370	1	0
5371	1	0
5372	1	0
5373	1	0
5374	1	0
5375	1	0
5376	1	0
5377	1	0
5378	1	0
5379	1	0
5380	1	0
5381	1	0
5382	1	0
5383	1	0
5384	1	0
5385	1	0
5386	1	0
5387	1	0
5388	1	0
5389	1	0
5390	1	0
5391	1	0
5392	1	0
5393	1	0
5394	1	0
5395	1	0
5396	1	0
5397	1	0
5398	1	0
5399	1	0
5400	1	0
5401	1	0
5402	1	0
5403	1	0
5404	1	0
5405	1	0
5406	1	0
5407	1	0
5408	1	0
5409	1	0
5410	1	0
5411	1	0
5412	1	0
5413	1	0
5414	1	0
5415	1	0
5416	1	0
5417	1	0
5418	1	0
5419	1	0
5420	1	0
5421	1	0
5422	1	0
5423	1	0
5424	1	0
5425	1	0
5426	1	0
5427	1	0
5428	1	0
5429	1	0
5430	1	0
5431	1	0
5432	1	0
5433	1	0
5434	1	0
5435	1	0
5436	1	0
5437	1	0
5438	1	0
5439	1	0
5440	1	0
5441	1	0
5442	1	0
5443	1	0
5444	1	0
5445	1	0
5446	1	0
5447	1	0
5448	1	0
5449	1	0
5450	1	0
5451	1	0
5452	1	0
5453	1	0
5454	1	0
5455	1	0
5456	1	0
5457	1	0
5458	1	0
5459	1	0
5460	1	0
5461	1	0
5462	1	0
5463	1	0
5464	1	0
5465	1	0
5466	1	0
5467	1	0
5468	1	0
5469	1	0
5470	1	0
5471	1	0
5472	1	0
5473	1	0
5474	1	0
5475	1	0
5476	1	0
5477	1	0
5478	1	0
5479	1	0
5480	1	0
5481	1	0
5482	1	0
5483	1	0
5484	1	0
5485	1	0
5486	1	0
5487	1	0
5488	1	0
5489	1	0
5490	1	0
5491	1	0
5492	1	0
5493	1	0
5494	1	0
5495	1	0
5496	1	0
5497	1	0
5498	1	0
5499	1	0
5500	1	0
5501	1	0
5502	1	0
5503	1	0
5504	1	0
5505	1	0
5506	1	0
5507	1	0
5508	1	0
5509	1	0
5510	1	0
5511	1	0
5512	1	0
5513	1	0
5514	1	0
5515	1	0
5516	1	0
5517	1	0
5518	1	0
5519	1	0
5520	1	0
5521	1	0
5522	1	0
5523	1	0
5524	1	0
5525	1	0
5526	1	0
5527	1	0
5528	1	0
5529	1	0
5530	1	0
5531	1	0
5532	1	0
5533	1	0
5534	1	0
5535	1	0
5536	1	0
5537	1	0
5538	1	0
5539	1	0
5540	1	0
5541	1	0
5542	1	0
5543	1	0
5544	1	0
5545	1	0
5546	1	0
5547	1	0
5548	1	0
5549	1	0
5550	1	0
5551	1	0
5552	1	0
5553	1	0
5554	1	0
5555	1	0
5556	1	0
5557	1	0
5558	1	0
5559	1	0
5560	1	0
5561	1	0
5562	1	0
5563	1	0
5564	1	0
5565	1	0
5566	1	0
5567	1	0
5568	1	0
5569	1	0
5570	1	0
5571	1	0
5572	1	0
5573	1	0
5574	1	0
5575	1	0
5576	1	0
5577	1	0
5578	1	0
5579	1	0
5580	1	0
5581	1	0
5582	1	0
5583	1	0
5584	1	0
5585	1	0
5586	1	0
5587	1	0
5588	1	0
5589	1	0
5590	1	0
5591	1	0
5592	1	0
5593	1	0
5594	1	0
5595	1	0
5596	1	0
5597	1	0
5598	1	0
5599	1	0
5600	1	0
5601	1	0
5602	1	0
5603	1	0
5604	1	0
5605	1	0
5606	1	0
5607	1	0
5608	1	0
5609	1	0
5610	1	0
5611	1	0
5612	1	0
5613	1	0
5614	1	0
5615	1	0
5616	1	0
5617	1	0
5618	1	0
5619	1	0
5620	1	0
5621	1	0
5622	1	0
5623	1	0
5624	1	0
5625	1	0
5626	1	0
5627	1	0
5628	1	0
5629	1	0
5630	1	0
5631	1	0
5632	1	0
5633	1	0
5634	1	0
5635	1	0
5636	1	0
5637	1	0
5638	1	0
5639	0	0.988654
5640	0	0.988654
5641	0	0.988654
5642	0	0.990541
5643	0	0.990541
5644	0	0
5645	0	0
5646	0	0
5647	0	0
5648	0	0
5649	0	0
5650	0	0
5651	0	0
5652	0	0
5653	0	0
5654	0	0
5655	0	0
5656	0	0
5657	0	0
5658	0	0
5659	0	0
5660	0	0
5661	0	0
5662	0	0
5663	0	0
5664	0	0
5665	0	0
5666	0	0
5667	0	0
5668	0	0
5669	0	0
5670	0	0
5671	0	0
5672	0	0
5673	0	0
5674	0	0
5675	0	0
5676	0	0
5677	0	0
5678	0	0
5679	0	0
5680	0	0
5681	0	0
5682	0	0
5683	0	0
5684	0	0
5685	0	0
5686	0	0
5687	0	0
5688	1	0
5689	0	0
5690	0	0
5691	0	0
5692	0	0
5693	0	0
5694	0	0
5695	0	0
5696	0	0
5697	0	0
5698	0	0
5699	0	0.988654
5700	0	0
5701	0	0
5702	0	0
5703	0	0
5704	0	0
5705	0	0
5706	0	0
5707	0	0
5708	0	0
5709	0	0
5710	0	0
5711	0	0
5712	0	0
5713	0	0.979269
5714	0	0.97921
5715	0	0.977352
5716	0	0.979208
5717	0	0.97913
5718	0	0
5719	0	0
5720	0	0.1
5721	0	0.97776
5722	0	0.142857
5723	0	0.107143
5724	0	0.925403
5725	0	0.926231
5726	0	0.937285
5727	0	0
5728	0	0
5729	0	0
5730	0	0
5731	0	0
5732	0	0
5733	0	0
5734	0	0
5735	0	0
5736	0	0
5737	0	0
5738	0	0
5739	0	0
5740	0	0
5741	0	0
5742	0	0
5743	0	0
5744	0	0
5745	0	0
5746	0	0
5747	0	0
5748	0	0
5749	0	0
5750	0	0
5751	0	0
5752	0	0
5753	0	0
5754	0	0
5755	0	0
5756	0	0
5757	0	0
5758	0	0
5759	0	0
5760	0	0
5761	0	0.573529
5762	0	0.573529
5763	0	0.573529
5764	0	0.426316
5765	0	0.332016
5766	0	0.924959
5767	0	0.65766
5768	0	0.65766
5769	0	0.930632
5770	0	0.930459
5771	0	0.93291
5772	0	0.923145
5773	0	0.920612
5774	0	0.35817
5775	0	0.383041
5776	0	0.434741
5777	0	0.434741
5778	0	0.428651
5779	0	0.46474
5780	0	0.445963
5781	0	0.604444
5782	0	0.649813
5783	0	0.7829
5784	0	0.785329
5785	0	0.746741
5786	0	0.856775
5787	0	0.364706
5788	0	0.125
5789	0	0.0761905
5790	0	0.0761905
5791	0	0.0989011
5792	0	0.0989011
5793	0	0.0909091
5794	0	0.0151515
5795	0	0
5796	0	0
5797	0	0
5798	0	0
5799	0	0
5800	0	0
5801	0	0.0222222
5802	0	0
5803	0	0
5804	0	0
5805	0	0
5806	0	0
5807	0	0
5808	0	0
5809	0	0
5810	0	0
5811	0	0
5812	0	0
5813	0	0
5814	0	0
5815	0	0
5816	0	0
5817	0	0
5818	0	0
5819	0	0
5820	0	0
5821	0	0
5822	0	0
5823	0	0
5824	0	0
5825	0	0
5826	0	0
5827	0	0
5828	0	0
5829	0	0
5830	0	0
5831	0	0
5832	0	0
5833	0	0
5834	0	0
5835	0	0
5836	0	0
5837	0	0
5838	0	0
5839	0	0
5840	0	0
5841	0	0
5842	0	0
5843	0	0
5844	0	0
5845	0	0
5846	0	0
5847	0	0
5848	0	0
5849	0	0
5850	0	0
5851	0	0
5852	0	0
5853	0	0
5854	0	0
5855	0	0
5856	0	0
5857	0	0
5858	0	0
5859	0	0
5860	0	0
5861	0	0
5862	0	0
5863	0	0
5864	0	0
5865	0	0
5866	0	0
5867	0	0
5868	0	0
5869	0	0
5870	0	0
5871	0	0
5872	0	0
5873	0	0
5874	0	0
5875	0	0
5876	0	0
5877	0	0
5878	0	0
5879	0	0
5880	0	0
5881	0	0
5882	0	0
5883	0	0
5884	0	0
5885	0	0
5886	0	0
5887	0	0
5888	0	0
5889	0	0
5890	0	0
5891	0	0
5892	0	0
5893	0	0
5894	0	0
5895	0	0
5896	0	0
5897	0	0
5898	0	0
5899	0	0
5900	0	0.0666667
5901	0	0.0666667
5902	0	0.0666667
5903	0	0.0666667
5904	0	0
5905	0	0
5906	0	0
5907	0	0
5908	0	0
5909	0	0
5910	0	0
5911	0	0
5912	0	0
5913	0	0
5914	0	0
5915	0	0
5916	0	0
5917	0	0
5918	0	0
5919	0	0
5920	0	0
5921	0	0
5922	0	0
5923	0	0
5924	0	0
5925	0	0
5926	0	0
5927	0	0
5928	0	0
5929	0	0
5930	0	0
5931	0	0
5932	0	0
5933	0	0
5934	0	0
5935	0	0
5936	0	0
5937	0	0
5938	0	0
5939	0	0
5940	0	0
5941	0	0
5942	0	0
5943	0	0
5944	0	0
5945	0	0
5946	0	0
5947	0	0
5948	0	0
5949	0	0
5950	0	0
5951	0	0
5952	0	0
5953	0	0
5954	0	0
5955	0	0
5956	0	0
5957	0	0
5958	0	0
5959	0	0
5960	0	0
5961	0	0
5962	0	0
5963	0	0
5964	0	0
5965	0	0
5966	0	0
5967	0	0
5968	0	0
5969	0	0
5970	0	0
5971	0	0
5972	0	0
5973	0	0
5974	0	0
5975	0	0
5976	0	0
5977	0	0
5978	0	0
5979	0	0
5980	0	0
5981	0	0
5982	0	0
5983	0	0
5984	0	0
5985	0	0
5986	0	0
5987	0	0
5988	0	0
5989	0	0
5990	0	0
5991	0	0
5992	0	0
5993	0	0
5994	0	0
5995	0	0
5996	0	0
5997	0	0
5998	0	0
5999	0	0
6000	0	0
6001	0	0
6002	0	0
6003	0	0
6004	0	0
6005	0	0
6006	0	0
6007	0	0
6008	0	0
6009	0	0
6010	0	0
6011	0	0
6012	0	0
6013	0	0
6014	0	0
6015	0	0
6016	0	0
6017	0	0
6018	0	0
6019	0	0
6020	0	0
6021	0	0
6022	0	0
6023	0	0
6024	0	0
6025	0	0
6026	0	0
6027	0	0
6028	0	0
6029	0	0
6030	0	0
6031	0	0
6032	0	0
6033	0	0
6034	0	0
6035	0	0
6036	0	0
6037	0	0
6038	0	0
6039	0	0
6040	0	0
6041	0	0
6042	0	0
6043	0	0
6044	0	0
6045	0	0
6046	0	0
6047	0	0
6048	0	0
6049	0	0
6050	0	0
6051	0	0
6052	0	0
6053	0	0
6054	0	0
6055	0	0
6056	0	0
6057	0	0
6058	0	0
6059	0	0
6060	0	0
6061	0	0
6062	0	0
6063	0	0
6064	0	0
6065	0	0
6066	0	0
6067	0	0
6068	0	0
6069	0	0
6070	0	0
6071	0	0
6072	0	0
6073	0	0
6074	0	0
6075	0	0
6076	0	0
6077	0	0
6078	0	0
6079	0	0
6080	0	0
6081	0	0
6082	0	0
6083	0	0
6084	0	0
6085	0	0
6086	0	0
6087	0	0
6088	0	0
6089	0	0
6090	0	0
6091	0	0
6092	0	0
6093	0	0
6094	0	0
6095	0	0
6096	0	0
6097	0	0
6098	0	0
6099	0	0
6100	0	0
6101	0	0
6102	0	0
6103	0	0
6104	0	0
6105	0	0
6106	0	0
6107	0	0
6108	0	0
6109	0	0
6110	0	0
6111	0	0
6112	0	0
6113	0	0
6114	0	0
6115	0	0
6116	0	0
6117	0	0
6118	0	0
6119	0	0
6120	0	0
6121	0	0
6122	0	0
6123	0	0
6124	0	0
6125	0	0
6126	0	0
6127	0	0
6128	0	0
6129	0	0
6130	0	0
6131	0	0
6132	0	0
6133	0	0
6134	0	0
6135	0	0
6136	0	0
6137	0	0
6138	0	0
6139	0	0
6140	0	0
6141	0	0
6142	0	0
6143	0	0
6144	0	0
6145	0	0
6146	0	0
6147	0	0
6148	0	0
6149	0	0
6150	0	0
6151	0	0
6152	0	0
6153	0	0
6154	0	0
6155	0	0
6156	0	0
6157	0	0
6158	0	0
6159	0	0
6160	0	0
6161	0	0
6162	0	0
6163	0	0
6164	0	0
6165	0	0
6166	0	0
6167	0	0
6168	0	0
6169	0	0
6170	0	0
6171	0	0
6172	0	0
6173	0	0
6174	0	0
6175	0	0
6176	0	0
6177	0	0
6178	0	0
6179	0	0
6180	0	0
6181	0	0
6182	0	0
6183	0	0
6184	0	0
6185	0	0
6186	0	0
6187	0	0
6188	0	0
6189	0	0
6190	0	0
6191	0	0
6192	0	0
6193	0	0
6194	0	0
6195	0	0
6196	0	0
6197	0	0
6198	0	0
6199	0	0
6200	0	0
6201	0	0
6202	0	0
6203	0	0
6204	0	0
6205	0	0
6206	0	0
6207	0	0
6208	0	0
6209	0	0
6210	0	0
6211	0	0
6212	0	0
6213	0	0
6214	0	0
6215	0	0
6216	0	0
6217	0	0
6218	0	0
6219	0	0
6220	0	0
6221	0	0
6222	0	0
6223	0	0
6224	0	0
6225	0	0
6226	0	0
6227	0	0
6228	0	0
6229	0	0
6230	0	0
6231	0	0
6232	0	0
6233	0	0
6234	0	0
6235	0	0
6236	0	0
6237	0	0
6238	0	0
6239	0	0
6240	0	0
6241	0	0
6242	0	0
6243	0	0
6244	0	0
6245	0	0
6246	0	0
6247	0	0
6248	0	0
6249	0	0
6250	0	0
6251	0	0
6252	0	0
6253	0	0
6254	0	0
6255	0	0
6256	0	0
6257	0	0
6258	0	0
6259	0	0
6260	0	0
6261	0	0
6262	0	0
6263	0	0
6264	0	0
6265	0	0
6266	0	0
6267	0	0
6268	0	0
6269	0	0
6270	0	0
6271	0	0
6272	0	0
6273	0	0
6274	0	0
6275	0	0
6276	0	0
6277	0	0
6278	0	0
6279	0	0
6280	0	0
6281	0	0
6282	0	0
6283	0	0
6284	0	0
6285	0	0
6286	0	0
6287	0	0
6288	0	0
6289	0	0
6290	0	0
6291	0	0
6292	0	0
6293	0	0
6294	0	0
6295	0	0
6296	0	0
6297	0	0
6298	0	0
6299	0	0
6300	0	0
6301	0	0
6302	0	0
6303	0	0
6304	0	0
6305	0	0
6306	0	0
6307	0	0
6308	0	0
6309	0	0
6310	0	0
6311	0	0
6312	0	0
6313	0	0
6314	0	0
6315	0	0
6316	0	0
6317	0	0
6318	0	0
6319	0	0
6320	0	0
6321	0	0
6322	0	0
6323	0	0
6324	0	0
6325	0	0
6326	0	0
6327	0	0
6328	0	0
6329	0	0
6330	0	0
6331	0	0
6332	0	0
6333	0	0
6334	0	0
6335	0	0
6336	0	0
6337	0	0
6338	0	0
6339	0	0
6340	0	0
6341	0	0
6342	0	0
6343	0	0
6344	0	0
6345	0	0
6346	0	0
6347	0	0
6348	0	0
6349	0	0
6350	0	0
6351	0	0
6352	0	0
6353	0	0
6354	0	0
6355	0	0
6356	0	0
6357	0	0
6358	0	0
6359	0	0
6360	0	0
6361	0	0
6362	0	0
6363	0	0
6364	0	0
6365	0	0
6366	0	0
6367	0	0
6368	0	0
6369	0	0
6370	0	0
6371	0	0
6372	0	0
6373	0	0
6374	0	0
6375	0	0
6376	0	0
6377	0	0
6378	0	0
6379	0	0
6380	0	0
6381	0	0
6382	0	0
6383	0	0
6384	0	0
6385	0	0
6386	0	0
6387	0	0
6388	0	0
6389	0	0
6390	0	0
6391	0	0
6392	0	0
6393	0	0
6394	0	0
6395	0	0
6396	0	0
6397	0	0
6398	0	0
6399	0	0
6400	0	0
6401	0	0
6402	0	0
6403	0	0
6404	0	0
6405	0	0
6406	0	0
6407	0	0
6408	0	0
6409	0	0
6410	0	0
6411	0	0
6412	0	0
6413	0	0
6414	0	0
6415	0	0
6416	0	0
6417	0	0
6418	0	0
6419	0	0
6420	0	0
6421	0	0
6422	0	0
6423	0	0
6424	0	0
6425	0	0
6426	0	0
6427	0	0
6428	0	0
6429	0	0
6430	0	0
6431	0	0
6432	0	0
6433	0	0
6434	0	0
6435	0	0
6436	0	0
6437	0	0
6438	0	0
6439	0	0
6440	0	0
6441	0	0
6442	0	0
6443	0	0
6444	0	0
6445	0	0
6446	0	0
6447	0	0
6448	0	0
6449	0	0
6450	0	0
6451	0	0
6452	0	0
6453	0	0
6454	0	0
6455	0	0
6456	0	0
6457	0	0
6458	0	0
6459	0	0
6460	0	0
6461	0	0
6462	0	0
6463	0	0
6464	0	0
6465	0	0
6466	0	0
6467	0	0
6468	0	0
6469	0	0
6470	0	0
6471	0	0
6472	0	0
6473	0	0
6474	0	0
6475	0	0
6476	0	0
6477	0	0
6478	0	0
6479	0	0
6480	0	0
6481	0	0
6482	0	0
6483	0	0
6484	0	0
6485	0	0
6486	0	0
6487	0	0
6488	0	0
6489	0	0
6490	0	0
6491	0	0
6492	0	0
6493	0	0
6494	0	0
6495	0	0
6496	0	0
6497	0	0
6498	0	0
6499	0	0
6500	0	0
6501	0	0
6502	0	0
6503	0	0
6504	0	0
6505	0	0
6506	0	0
6507	0	0
6508	0	0
6509	0	0
6510	0	0
6511	0	0
6512	0	0
6513	0	0
6514	0	0
6515	0	0
6516	0	0
6517	0	0
6518	0	0
6519	0	0
6520	0	0
6521	0	0
6522	0	0
6523	0	0
6524	0	0
6525	0	0
6526	0	0
6527	0	0
6528	0	0
6529	0	0
6530	0	0
6531	0	0
6532	0	0
6533	0	0
6534	0	0
6535	0	0
6536	0	0
6537	0	0
6538	0	0
6539	0	0
6540	0	0
6541	0	0
6542	0	0
6543	0	0
6544	0	0
6545	0	0
6546	0	0
6547	0	0
6548	0	0
6549	0	0
6550	0	0
6551	0	0
6552	0	0
6553	0	0
6554	0	0
6555	0	0
6556	0	0
6557	0	0
6558	0	0
6559	0	0
6560	0	0
6561	0	0
6562	0	0
6563	0	0
6564	0	0
6565	0	0
6566	0	0
6567	0	0
6568	0	0
6569	0	0
6570	0	0
6571	0	0
6572	0	0
6573	0	0
6574	0	0
6575	0	0
6576	0	0
6577	0	0
6578	0	0
6579	0	0
6580	0	0
6581	0	0
6582	0	0
6583	0	0
6584	0	0
6585	0	0
6586	0	0
6587	0	0
6588	0	0
6589	0	0
6590	0	0
6591	0	0
6592	0	0
6593	0	0
6594	0	0
6595	0	0
6596	0	0
6597	0	0
6598	0	0
6599	0	0
6600	0	0
6601	0	0
6602	0	0
6603	0	0
6604	0	0
6605	0	0
6606	0	0
6607	0	0
6608	0	0
6609	0	0
6610	0	0
6611	0	0
6612	0	0
6613	0	0
6614	0	0
6615	0	0
6616	0	0
6617	0	0.166667
6618	0	0
6619	0	0
6620	0	0
6621	0	0
6622	0	0
6623	0	0
6624	0	0
6625	0	0
6626	0	0
6627	0	0
6628	0	0
6629	0	0
6630	0	0
6631	0	0
6632	0	0
6633	0	0
6634	0	0
6635	0	0
6636	0	0
6637	0	0
6638	0	0
6639	0	0
6640	0	0
6641	0	0
6642	0	0
6643	0	0
6644	0	0
6645	0	0
6646	0	0
6647	0	0
6648	0	0
6649	0	0
6650	0	0
6651	0	0
6652	0	0
6653	0	0
6654	0	0
6655	0	0
6656	0	0
6657	0	0
6658	0	0
6659	0	0
6660	0	0
6661	0	0
6662	0	0
6663	0	0
6664	0	0
6665	0	0
6666	0	0
6667	0	0
6668	0	0
6669	0	0.333333
6670	0	0.333333
6671	0	0.333333
6672	0	0.333333
6673	0	0.333333
6674	0	0.333333
6675	0	0.333333
6676	0	0.333333
6677	0	0.333333
6678	0	0.333333
6679	0	0.333333
6680	0	0.333333
6681	0	0.333333
6682	0	0.333333
6683	0	0.333333
6684	0	0.333333
6685	0	0.333333
6686	0	0.333333
6687	0	0.333333
6688	0	0.333333
6689	0	0.333333
6690	0	0.333333
6691	0	0.333333
6692	0	0.333333
6693	0	0.333333
6694	0	0.333333
6695	0	0.333333
6696	0	0.333333
6697	0	0.333333
6698	0	0.333333
6699	0	0.333333
6700	0	0.333333
6701	0	0.333333
6702	0	0.333333
6703	0	0.333333
6704	0	0.333333
6705	0	0.333333
6706	0	0
6707	0	0
6708	0	0
6709	0	0
6710	0	0
6711	0	0
6712	0	0
6713	0	0
6714	0	0
6715	0	0
6716	0	0
6717	0	0
6718	0	0
6719	0	0
6720	0	0
6721	0	0
6722	0	0
6723	0	0
6724	0	0
6725	0	0
6726	0	0
6727	0	0
6728	0	0.333333
6729	0	0.333333
6730	0	0.333333
6731	0	0.333333
6732	0	0.333333
6733	0	0.333333
6734	0	0.333333
6735	0	0.333333
6736	0	0.333333
6737	0	0.333333
6738	0	0.333333
6739	0	0.333333
6740	0	0.333333
6741	0	0.333333
6742	0	0.333333
6743	0	0.333333
6744	0	0.333333
6745	0	0.333333
6746	0	0.333333
6747	0	0.333333
6748	0	0.333333
6749	0	0.333333
6750	0	0.333333
6751	0	0.333333
6752	0	0.333333
6753	0	0.333333
6754	0	0.333333
6755	0	0.333333
6756	0	0.333333
6757	0	0.333333
6758	0	0.333333
6759	0	0.333333
6760	0	0.333333
6761	0	0.333333
6762	0	0.333333
6763	0	0.333333
6764	0	0.333333
6765	0	0.333333
6766	0	0.333333
6767	0	0.333333
6768	0	0.333333
6769	0	0.333333
6770	0	0.333333
6771	0	0.333333
6772	0	0.333333
6773	0	0.333333
6774	0	0.333333
6775	0	0.333333
6776	0	0.333333
6777	0	0.333333
6778	0	0.333333
6779	0	0.333333
6780	0	0.333333
6781	0	0.333333
6782	0	0.333333
6783	0	0.333333
6784	0	0.333333
6785	0	0.333333
6786	0	0.333333
6787	0	0.333333
6788	0	0.333333
6789	0	0.333333
6790	0	0.333333
6791	0	0.333333
6792	0	0.333333
6793	0	0.333333
6794	0	0.333333
6795	0	0.333333
6796	0	0.333333
6797	0	0.333333
6798	0	0.333333
6799	0	0.333333
6800	0	0.333333
6801	0	0.333333
6802	0	0
6803	1	0
6804	1	0
6805	1	0
6806	1	0
6807	1	0
6808	1	0
6809	1	0
6810	1	0
6811	1	0
6812	1	0
6813	1	0
6814	1	0
6815	1	0
6816	1	0
6817	1	0
6818	1	0
6819	1	0
6820	1	0
6821	1	0
6822	1	0
6823	1	0
6824	1	0
6825	1	0
6826	1	0
6827	1	0
6828	1	0
6829	1	0
6830	1	0
6831	1	0
6832	1	0
6833	1	0
6834	1	0
6835	1	0
6836	1	0
6837	1	0
6838	1	0
6839	1	0
6840	1	0
6841	1	0
6842	1	0
6843	1	0
6844	1	0
6845	1	0
6846	1	0
6847	1	0
6848	1	0
6849	1	0
6850	1	0
6851	1	0
6852	1	0
6853	1	0
6854	1	0
6855	1	0
6856	1	0
6857	1	0
6858	1	0
6859	1	0
6860	1	0
6861	1	0
6862	1	0
6863	1	0
6864	1	0
6865	1	0
6866	1	0
6867	1	0
6868	1	0
6869	1	0
6870	1	0
6871	1	0
6872	1	0
6873	1	0
6874	1	0
6875	1	0
6876	1	0
6877	1	0
6878	1	0
6879	1	0
6880	1	0
6881	1	0
6882	1	0
6883	1	0
6884	1	0
6885	1	0
6886	1	0
6887	1	0
6888	1	0
6889	1	0
6890	1	0
6891	1	0
6892	1	0
6893	1	0
6894	1	0
6895	1	0
6896	1	0
6897	1	0
6898	1	0
6899	1	0
6900	1	0
6901	1	0
6902	1	0
6903	1	0
6904	1	0
6905	1	0
6906	1	0
6907	1	0
6908	1	0
6909	1	0
6910	1	0
6911	1	0
6912	1	0
6913	1	0
6914	1	0
6915	1	0
6916	1	0
6917	1	0
6918	1	0
6919	1	0
6920	1	0
6921	1	0
6922	1	0
6923	1	0
6924	1	0
6925	1	0
6926	1	0
6927	1	0
6928	1	0
6929	1	0
6930	1	0
6931	1	0
