Site	ColumnScore	SumOfPairsScore
1	0	0
2	0	0
3	0	0
4	0	0
5	0	0
6	0	0
7	0	0
8	0	0
9	0	0
10	0	0
11	0	0
12	0	0
13	0	0
14	0	0
15	0	0
16	0	0
17	0	0
18	0	0
19	0	0
20	0	0
21	0	0
22	0	0
23	0	0
24	0	0
25	0	0
26	0	0
27	0	0
28	0	0
29	0	0
30	0	0
31	0	0
32	0	0
33	0	0
34	0	0
35	0	0
36	0	0
37	0	0
38	0	0
39	0	0
40	0	0
41	0	0
42	0	0
43	0	0
44	0	0
45	0	0
46	0	0
47	1	0
48	0	0
49	0	0
50	0	0
51	0	0
52	0	0
53	0	0
54	0	0
55	0	0
56	0	0
57	0	0
58	0	0
59	0	0
60	0	0
61	0	0
62	0	0
63	0	0
64	0	0
65	0	0
66	0	0
67	0	0
68	0	0
69	0	0
70	0	0
71	0	0
72	0	0
73	0	0
74	0	0
75	0	0
76	0	0
77	0	0
78	0	0
79	0	0
80	0	0
81	0	0
82	0	0
83	0	0
84	0	0
85	1	0
86	1	0
87	0	0
88	0	0
89	0	0
90	0	0
91	0	0
92	0	0
93	0	0
94	0	0
95	0	0
96	0	0
97	0	0
98	0	0
99	0	0
100	0	0
101	0	0
102	0	0
103	0	0
104	0	0
105	0	0
106	0	0
107	0	0
108	0	0
109	0	0
110	0	0
111	0	0
112	0	0
113	0	0
114	0	0
115	0	0
116	0	0
117	0	0
118	0	0
119	0	0
120	0	0
121	0	0
122	0	0
123	0	0
124	0	0
125	0	0
126	0	0
127	0	0
128	0	0
129	0	0
130	0	0
131	0	0
132	0	0
133	0	0
134	0	0
135	0	0
136	0	0
137	0	0
138	0	0
139	0	0
140	0	0
141	0	0
142	0	0
143	0	0
144	0	0
145	0	0
146	0	0
147	0	0
148	0	0
149	0	0
150	0	0
151	0	0
152	0	0
153	1	0
154	0	0
155	0	0
156	0	0
157	0	0
158	0	0
159	0	0
160	0	0
161	0	0
162	0	0
163	0	0
164	0	0
165	0	0
166	0	0
167	0	0
168	0	0
169	0	0
170	0	0
171	0	0
172	0	0
173	0	0
174	0	0
175	0	0
176	0	0
177	0	0
178	0	0
179	0	0
180	0	0
181	0	0
182	0	0
183	0	0
184	0	0
185	0	0
186	0	0
187	0	0
188	0	0
189	0	0
190	0	0
191	0	0
192	0	0
193	0	0
194	0	0
195	0	0
196	0	0
197	0	0
198	0	0
199	0	0
200	0	0
201	0	0
202	0	0
203	0	0
204	0	0
205	0	0
206	0	0
207	0	0
208	0	0
209	0	0
210	0	0
211	0	0
212	0	0
213	0	0
214	0	0
215	0	0
216	0	0
217	0	0
218	0	0
219	0	0
220	0	0
221	0	0
222	0	0
223	0	0
224	0	0
225	0	0
226	0	0
227	0	0
228	0	0
229	0	0
230	0	0
231	0	0
232	0	0
233	0	0
234	0	0
235	0	0
236	0	0
237	0	0
238	0	0
239	0	0
240	0	0
241	0	0
242	0	0
243	0	0
244	0	0
245	0	0
246	0	0
247	0	0
248	0	0
249	0	0
250	0	0
251	0	0
252	0	0
253	0	0
254	0	0
255	0	0
256	0	0
257	0	0.0666667
258	0	0.0666667
259	0	0.0666667
260	0	0.0666667
261	0	0.0666667
262	0	0
263	0	0.0666667
264	0	0.0666667
265	0	0.0666667
266	0	0.0666667
267	0	0.0666667
268	0	0.0666667
269	0	0.1
270	0	0.0666667
271	0	0.0666667
272	0	0.0666667
273	0	0.0666667
274	0	0.0666667
275	0	0.0666667
276	0	0.0666667
277	0	0.0666667
278	0	0.0666667
279	0	0.0666667
280	0	0.0666667
281	0	0.0666667
282	0	0.0666667
283	0	0.0666667
284	0	0.0666667
285	0	0.0666667
286	0	0.0666667
287	0	0.0666667
288	0	0.0666667
289	0	0.0666667
290	0	0.0666667
291	0	0.0666667
292	0	0.0666667
293	0	0.0666667
294	0	0.0666667
295	0	0.0666667
296	0	0.0666667
297	0	0.0666667
298	0	0.0666667
299	0	0.0666667
300	0	0.0666667
301	0	0
302	0	0.0666667
303	0	0.0666667
304	0	0.0666667
305	0	0.0666667
306	0	0.0666667
307	0	0.0666667
308	0	0.0666667
309	0	0.0666667
310	0	0.0666667
311	0	0.0666667
312	0	0
313	0	0.133333
314	0	0.0666667
315	0	0.0666667
316	0	0.0666667
317	0	0.0666667
318	0	0.0666667
319	0	0.0666667
320	0	0.0666667
321	0	0.0666667
322	0	0.0666667
323	0	0
324	0	0
325	0	0
326	0	0
327	0	0.0666667
328	0	0.0666667
329	0	0.0666667
330	0	0
331	0	0
332	0	0
333	0	0
334	0	0
335	0	0
336	0	0
337	0	0
338	0	0.0666667
339	0	0.0952381
340	0	0.0952381
341	0	0.0952381
342	0	0.0952381
343	0	0.0952381
344	0	0.0952381
345	0	0.0952381
346	0	0.0952381
347	0	0.047619
348	0	0.047619
349	0	0.047619
350	0	0.047619
351	0	0.047619
352	0	0.047619
353	0	0.047619
354	0	0.047619
355	0	0.047619
356	0	0.047619
357	0	0.047619
358	0	0.047619
359	0	0.047619
360	0	0.0952381
361	0	0.0952381
362	0	0.0952381
363	0	0.0952381
364	0	0.0952381
365	0	0.0952381
366	0	0.0952381
367	0	0.0952381
368	0	0.0952381
369	0	0.0952381
370	0	0.0952381
371	0	0.0952381
372	0	0.0952381
373	0	0.0952381
374	0	0.0952381
375	0	0.0952381
376	0	0.0952381
377	0	0.0952381
378	0	0.0952381
379	0	0.0952381
380	0	0.0952381
381	0	0.0952381
382	0	0.0952381
383	0	0.0952381
384	0	0.0952381
385	0	0.0952381
386	0	0.047619
387	0	0.047619
388	0	0.047619
389	0	0.047619
390	0	0.047619
391	0	0.047619
392	0	0.047619
393	0	0.047619
394	0	0.047619
395	0	0.047619
396	0	0.047619
397	0	0.047619
398	0	0.047619
399	0	0.047619
400	0	0.047619
401	0	0.047619
402	0	0.047619
403	0	0.047619
404	0	0.047619
405	0	0.047619
406	0	0.047619
407	0	0.047619
408	0	0.047619
409	0	0.047619
410	0	0.047619
411	0	0.047619
412	0	0.047619
413	0	0.047619
414	0	0.047619
415	0	0.047619
416	0	0.047619
417	0	0.047619
418	0	0.047619
419	0	0.047619
420	0	0.047619
421	0	0.047619
422	0	0.047619
423	0	0.047619
424	0	0.047619
425	0	0.047619
426	0	0.0952381
427	0	0.0952381
428	0	0.0952381
429	0	0.107143
430	0	0.107143
431	0	0.0714286
432	0	0.0714286
433	0	0.0714286
434	0	0.0714286
435	0	0.0714286
436	0	0.0714286
437	0	0.0714286
438	0	0.0714286
439	0	0.0714286
440	0	0.0714286
441	0	0.0714286
442	0	0.0714286
443	0	0.0714286
444	0	0.0714286
445	0	0.0714286
446	0	0.0714286
447	0	0.0714286
448	0	0.0714286
449	0	0.0714286
450	0	0.0714286
451	0	0.0714286
452	0	0.0714286
453	0	0.0714286
454	0	0.0714286
455	0	0.0714286
456	0	0.0714286
457	0	0.0714286
458	0	0.0714286
459	0	0.0714286
460	0	0.0714286
461	0	0.0714286
462	0	0.0714286
463	0	0.0714286
464	0	0.0357143
465	0	0.0714286
466	0	0.0714286
467	0	0.0714286
468	0	0.0714286
469	0	0.0357143
470	0	0.0357143
471	0	0.0357143
472	0	0.0357143
473	0	0.0357143
474	0	0.0357143
475	0	0.0714286
476	0	0.0714286
477	0	0.0714286
478	0	0.0714286
479	0	0.0714286
480	0	0.0714286
481	0	0.0714286
482	0	0.0714286
483	0	0.0714286
484	0	0.0714286
485	0	0.0714286
486	0	0.0714286
487	0	0.0714286
488	0	0.0714286
489	0	0.0714286
490	0	0.0714286
491	0	0.047619
492	0	0.047619
493	0	0.047619
494	0	0.047619
495	0	0.047619
496	0	0.047619
497	0	0.047619
498	0	0.047619
499	0	0.047619
500	0	0.047619
501	0	0.047619
502	0	0.047619
503	0	0.047619
504	0	0.047619
505	0	0.047619
506	0	0.047619
507	0	0.047619
508	0	0.047619
509	0	0.047619
510	0	0.047619
511	0	0.047619
512	0	0.047619
513	0	0.047619
514	0	0.047619
515	0	0.047619
516	0	0.047619
517	0	0.0357143
518	0	0.0357143
519	0	0.0357143
520	0	0.0357143
521	0	0.0357143
522	0	0.0357143
523	0	0.0357143
524	0	0.0357143
525	0	0.0357143
526	0	0.0357143
527	0	0.0357143
528	0	0.0357143
529	0	0.0357143
530	0	0.0357143
531	0	0.0357143
532	0	0.0357143
533	0	0.0357143
534	0	0.0357143
535	0	0.0357143
536	0	0.0357143
537	0	0.0357143
538	0	0.0357143
539	0	0.0357143
540	0	0.0357143
541	0	0.0357143
542	0	0.0357143
543	0	0.0357143
544	0	0.0277778
545	0	0.0277778
546	0	0.0277778
547	0	0.0277778
548	0	0.0277778
549	0	0.0277778
550	0	0.0277778
551	0	0.0277778
552	0	0.0277778
553	0	0.0277778
554	0	0.0277778
555	0	0.0277778
556	0	0.0277778
557	0	0.0277778
558	0	0.0277778
559	0	0.0277778
560	0	0.0277778
561	0	0.0277778
562	0	0.0277778
563	0	0.0277778
564	0	0.0277778
565	0	0.0277778
566	0	0.0277778
567	0	0.0277778
568	0	0.0277778
569	0	0.0222222
570	0	0.0222222
571	0	0.0222222
572	0	0.0222222
573	0	0.0222222
574	0	0.0222222
575	0	0.0222222
576	0	0.0222222
577	0	0.0222222
578	0	0.0222222
579	0	0.0222222
580	0	0.0222222
581	0	0.0222222
582	0	0.0222222
583	0	0.0222222
584	0	0.0222222
585	0	0.0181818
586	0	0.0181818
587	0	0.0181818
588	0	0.0181818
589	0	0.0181818
590	0	0.0181818
591	0	0.0181818
592	0	0.0181818
593	0	0.0181818
594	0	0.0181818
595	0	0.0181818
596	0	0.0181818
597	0	0.0181818
598	0	0.030303
599	0	0.030303
600	0	0.030303
601	0	0.030303
602	0	0.030303
603	0	0.030303
604	0	0.030303
605	0	0.025641
606	0	0.025641
607	0	0.025641
608	0	0.025641
609	0	0.025641
610	0	0.025641
611	0	0.025641
612	0	0.025641
613	0	0.025641
614	0	0.025641
615	0	0.025641
616	0	0.025641
617	0	0.025641
618	0	0.025641
619	0	0.025641
620	0	0.021978
621	0	0.021978
622	0	0.021978
623	0	0.021978
624	0	0.021978
625	0	0.032967
626	0	0.032967
627	0	0.032967
628	0	0.032967
629	0	0.032967
630	0	0.032967
631	0	0.032967
632	0	0.021978
633	0	0.021978
634	0	0.021978
635	0	0.021978
636	0	0.021978
637	0	0.021978
638	0	0.021978
639	0	0.0190476
640	0	0.0190476
641	0	0.0285714
642	0	0.0285714
643	0	0.0190476
644	0	0.0190476
645	0	0.0190476
646	0	0.0666667
647	0	0.104762
648	0	0.104762
649	0	0.141667
650	0	0.141667
651	0	0.161765
652	0	0.189542
653	0	0.175439
654	0	0.157895
655	0	0.22381
656	0	0.294372
657	0	0.336957
658	0	0.047619
659	0	0.0357143
660	0	0.0357143
661	0	0.0357143
662	0	0.0357143
663	0	0.0357143
664	0	0.0357143
665	0	0.0357143
666	0	0.0357143
667	0	0.0357143
668	0	0.0357143
669	0	0.0357143
670	0	0.0357143
671	0	0.0357143
672	0	0.0357143
673	0	0.0357143
674	0	0.0357143
675	0	0.0357143
676	0	0.0357143
677	0	0.0357143
678	0	0.0357143
679	0	0.0357143
680	0	0.0357143
681	0	0.0357143
682	0	0.0357143
683	0	0.0357143
684	0	0.0357143
685	0	0.0357143
686	0	0.0555556
687	0	0.0555556
688	0	0.0444444
689	0	0.0363636
690	0	0.0363636
691	0	0.0181818
692	0	0.0181818
693	0	0.0181818
694	0	0.0181818
695	0	0.0151515
696	0	0.0151515
697	0	0.0151515
698	0	0.0151515
699	0	0.0151515
700	0	0.0151515
701	0	0.0151515
702	0	0.0151515
703	0	0.0151515
704	0	0.0151515
705	0	0.0151515
706	0	0.0151515
707	0	0.0151515
708	0	0.0128205
709	0	0.0128205
710	0	0.0128205
711	0	0.025641
712	0	0.025641
713	0	0.0128205
714	0	0.0128205
715	0	0.0128205
716	0	0.0128205
717	0	0.010989
718	0	0.00952381
719	0	0.00952381
720	0	0.00952381
721	0	0.00833333
722	0	0.00833333
723	0	0.00833333
724	0	0.00833333
725	0	0.00833333
726	0	0.00833333
727	0	0.00833333
728	0	0.00833333
729	0	0.00833333
730	0	0.00833333
731	0	0.00833333
732	0	0.00833333
733	0	0.0166667
734	0	0.0130719
735	0	0.0130719
736	0	0.00653595
737	0	0.00584795
738	0	0.00584795
739	0	0.00584795
740	0	0.00952381
741	0	0.017316
742	0	0.017316
743	0	0.0436782
744	0	0.0403226
745	0	0.0463458
746	0	0.0463458
747	0	0.0409982
748	0	0.0409982
749	0	0.0386555
750	0	0.031746
751	0	0.033033
752	0	0.0315315
753	0	0.03003
754	0	0.03003
755	0	0.0284495
756	0	0.0369844
757	0	0.0369844
758	0	0.0284495
759	0	0.0284495
760	0	0.029872
761	0	0.0312945
762	0	0.0283401
763	0	0.0269231
764	0	0.0282051
765	0	0.0294872
766	0	0.0292683
767	0	0.0292683
768	0	0.0414634
769	0	0.0402439
770	0	0.0402439
771	0	0.0439024
772	0	0.0439024
773	0	0.0390244
774	0	0.0360046
775	0	0.0360046
776	0	0.0292929
777	0	0.0292929
778	0	0.030303
779	0	0.030303
780	0	0.030303
781	0	0.0313131
782	0	0.0296022
783	0	0.0286772
784	0	0.0360777
785	0	0.0333025
786	0	0.0370028
787	0	0.0345745
788	0	0.0310284
789	0	0.0301418
790	0	0.0365646
791	0	0.0501701
792	0	0.0527211
793	0	0.0654762
794	0	0.0457143
795	0	0.0465306
796	0	0.0440816
797	0	0.0522449
798	0	0.0718367
799	0	0.0769231
800	0	0.0587808
801	0	0.0585859
802	0	0.0720551
803	0	0.0961749
804	0	0.124008
805	0	0.13791
806	0	0.201664
807	0	0.199726
808	0	0.204284
809	0	0.217354
810	0	0.732167
811	0	0.728814
812	0	0.894483
813	0	0.851489
814	0	0.851489
815	0	0.576215
816	0	0.595021
817	0	0.647687
818	0	0.603077
819	0	0.666094
820	0	0.666379
821	0	0.786003
822	0	0.94809
823	0	0.946474
824	0	0
825	0	0
826	0	0
827	0	0
828	0	0
829	0	0
830	0	0
831	0	0
832	0	0.573529
833	0	0.509804
834	0	0.973866
835	0	0.973866
836	0	0.688537
837	0	0.662554
838	0	0.882118
839	0	0.498316
840	0	0
841	0	0
842	0	0
843	0	0
844	0	0
845	0	0.681818
846	0	0.681818
847	0	0.433928
848	0	0
849	0	0
850	0	0.649231
851	0	0.606838
852	0	0.792998
853	0	0.842515
854	0	0.766698
855	0	0.393958
856	0	0.393181
857	0	0
858	0	0
859	0	0
860	0	0.82084
861	0	0.383219
862	0	0.452924
863	0	0.412451
864	0	0
865	0	0
866	0	0
867	0	0
868	0	0
869	0	0.166667
870	0	0
871	0	0
872	0	0
873	0	0.545034
874	0	0.544132
875	0	0.166667
876	0	0.166667
877	0	0.333333
878	0	0
879	0	0.333333
880	0	0.333333
881	0	0.166667
882	0	0.166667
883	0	0
884	0	0
885	0	0
886	0	0
887	0	0
888	0	0
889	0	0
890	0	0
891	0	0
892	0	0
893	0	0
894	0	0.742241
895	0	0.27596
896	0	0.553343
897	0	0.777778
898	0	1
899	0	1
900	0	0.491847
901	0	0.500414
902	0	0.285714
903	0	0.333333
904	0	0.333333
905	0	0.242424
906	0	0.19697
907	0	0.976178
908	0	0.978152
909	0	0
910	0	0
911	0	0
912	0	0
913	0	0
914	0	0
915	0	0
916	0	0
917	0	0
918	0	0
919	0	0
920	0	0
921	0	0
922	0	0
923	0	0
924	0	0
925	0	0
926	0	0
927	0	0
928	0	0
929	0	0
930	0	0
931	0	0
932	0	0
933	0	0
934	0	0
935	0	0
936	0	0
937	0	0
938	0	0
939	0	0
940	0	0
941	0	0
942	0	0
943	0	0
944	0	0
945	0	0
946	0	0
947	0	0
948	0	0
949	0	0
950	0	0
951	0	0
952	0	0
953	0	0
954	0	0
955	0	0
956	0	0
957	0	0
958	0	0
959	0	0
960	0	0
961	0	0
962	0	0
963	0	0
964	0	0
965	0	0
966	0	0
967	0	0
968	0	0
969	0	0
970	0	0
971	0	0
972	0	0
973	0	0
974	0	0
975	0	0
976	0	0
977	0	0
978	0	0
979	0	0
980	0	0
981	0	0
982	0	0
983	0	0
984	0	0
985	0	0
986	0	0
987	0	0
988	0	0
989	0	0
990	0	0
991	0	0
992	0	0
993	0	0
994	0	0
995	0	0
996	0	0
997	0	0
998	0	0
999	0	0
1000	0	0
1001	0	0
1002	0	0
1003	0	0
1004	0	0
1005	0	0
1006	0	0
1007	0	0
1008	0	0
1009	0	0
1010	0	0
1011	0	0
1012	0	0.980893
1013	0	0.980909
1014	0	0.980909
1015	0	0
1016	0	0
1017	0	0
1018	0	0
1019	0	0
1020	0	0
1021	0	0
1022	0	0
1023	0	0
1024	0	0
1025	0	0
1026	0	0
1027	0	0
1028	0	0
1029	0	0
1030	0	0
1031	0	0
1032	0	0
1033	0	0
1034	0	0
1035	0	0
1036	0	0
1037	0	0
1038	0	0
1039	0	0
1040	0	0
1041	0	0
1042	0	0
1043	0	0
1044	0	0
1045	0	0
1046	0	0
1047	0	0
1048	0	0
1049	0	0
1050	0	0
1051	0	0
1052	0	0
1053	0	0
1054	0	0
1055	0	0
1056	0	0
1057	0	0
1058	0	0
1059	0	0
1060	0	0
1061	0	0.986049
1062	0	0
1063	0	0
1064	0	0
1065	0	0
1066	0	0
1067	0	0
1068	0	0
1069	0	0
1070	0	0
1071	0	0
1072	0	0
1073	0	0
1074	0	0
1075	0	0
1076	0	0
1077	0	0.996499
1078	0	0.996508
1079	0	0.996508
1080	0	0.996508
1081	0	0.996508
1082	0	0
1083	0	0
1084	0	0
1085	0	0
1086	0	0
1087	0	0
1088	0	0
1089	0	0
1090	0	0
1091	0	0
1092	0	0
1093	0	0
1094	0	0
1095	0	0
1096	0	0
1097	0	0
1098	0	0
1099	0	0
1100	0	0
1101	0	0
1102	0	0
1103	0	0
1104	0	0
1105	0	0
1106	0	0
1107	0	0
1108	0	0
1109	0	0
1110	0	0
1111	0	0
1112	0	0
1113	0	0
1114	0	0
1115	0	0
1116	0	0
1117	0	0
1118	0	0
1119	0	0
1120	0	0
1121	0	0
1122	0	0
1123	0	0
1124	0	0
1125	0	0
1126	0	0
1127	0	0
1128	0	0
1129	0	0
1130	0	0
1131	0	0
1132	0	0
1133	0	0
1134	0	0
1135	0	0
1136	0	0
1137	0	0
1138	0	0
1139	0	0
1140	0	0
1141	0	0
1142	0	0
1143	0	0
1144	0	0
1145	0	0
1146	0	0
1147	0	0
1148	0	0
1149	0	0
1150	0	0
1151	0	0
1152	0	0
1153	0	0
1154	0	0
1155	0	0
1156	0	0
1157	0	0
1158	0	0
1159	0	0
1160	0	0
1161	0	0
1162	0	0
1163	0	0
1164	0	0
1165	0	0
1166	0	0
1167	0	0
1168	0	0
1169	0	0
1170	0	0
1171	0	0
1172	0	0
1173	0	0
1174	0	0
1175	0	0
1176	0	0
1177	0	0
1178	0	0
1179	0	0
1180	0	0
1181	0	0
1182	0	0
1183	0	0
1184	0	0
1185	0	0
1186	0	0
1187	0	0
1188	0	0
1189	0	0
1190	0	0
1191	0	0
1192	0	0.996508
1193	0	0.996508
1194	0	0
1195	0	0
1196	0	0
1197	0	0
1198	0	0
1199	0	0
1200	0	0
1201	0	0
1202	0	0
1203	0	0
1204	0	0
1205	0	0
1206	0	0
1207	0	0
1208	0	0
1209	0	0
1210	0	0
1211	0	0
1212	0	0
1213	0	0
1214	0	0
1215	0	0.1
1216	0	0.0666667
1217	0	0.0666667
1218	0	0.2
1219	0	0.305556
1220	0	0.305556
1221	0	0.305556
1222	0	0.305556
1223	0	0.75
1224	0	0.583333
1225	0	0.583333
1226	0	0.466667
1227	0	0.622222
1228	0	0.8
1229	0	0.654545
1230	0	0.681818
1231	0	0.919391
1232	0	0.919391
1233	0	0.994774
1234	0	0.996511
1235	1	0
1236	1	0
1237	1	0
1238	1	0
1239	1	0
1240	1	0
1241	1	0
1242	0	0
1243	0	0
1244	0	0
1245	0	0
1246	0	0
1247	0	0
1248	0	0
1249	0	0
1250	0	0
1251	0	0
1252	0	0.994769
1253	0	0.994769
1254	0	0.994769
1255	0	0.994769
1256	0	0.994774
1257	0	0.994774
1258	0	0.994774
1259	0	0.991312
1260	0	0.4
1261	0	0.4
1262	0	0.4
1263	0	0.4
1264	0	0.987852
1265	0	0.987852
1266	0	0.987852
1267	0	0.987841
1268	0	0
1269	0	0
1270	0	0
1271	0	0
1272	0	0
1273	0	0
1274	0	0
1275	0	0
1276	0	0
1277	0	0
1278	0	0
1279	0	0
1280	0	0
1281	0	0
1282	0	0
1283	0	0
1284	0	0
1285	0	0
1286	0	0
1287	0	0
1288	0	0
1289	0	0
1290	0	0
1291	0	0
1292	0	0
1293	0	0
1294	0	0
1295	0	0
1296	0	0
1297	0	0
1298	0	0
1299	0	0
1300	0	0
1301	0	0
1302	0	0
1303	0	0.166667
1304	0	0.1
1305	0	0.1
1306	0	0.504992
1307	0	0.499571
1308	0	1
1309	0	0.464286
1310	0	0.464286
1311	0	0.392857
1312	0	0.392857
1313	0	0.684051
1314	0	0.557895
1315	0	0.538012
1316	0	0.433824
1317	0	0.141667
1318	0	0.227273
1319	0	0.194444
1320	0	0.194444
1321	0	0.194444
1322	0	0.194444
1323	0	0.194444
1324	0	0.731887
1325	0	0.726646
1326	0	0.688277
1327	0	0.242857
1328	0	0.132353
1329	0	0.168421
1330	0	0.130719
1331	0	0.150327
1332	0	0.151515
1333	0	0.386399
1334	0	0
1335	0	0
1336	0	0
1337	0	0
1338	0	0
1339	0	0
1340	0	0
1341	0	0
1342	0	0
1343	0	0
1344	0	0
1345	0	0.166667
1346	0	0.186813
1347	0	0.22
1348	0	0.379754
1349	0	0.688485
1350	0	0.815811
1351	0	0.733212
1352	0	0.755499
1353	0	0.576949
1354	0	0.963182
1355	0	0.951143
1356	0	0.98878
1357	0	0.996517
1358	0	0.994783
1359	0	0.994783
1360	0	0.993047
1361	0	0.166667
1362	0	0.99477
1363	0	0.998256
1364	0	0.998256
1365	0	0
1366	0	0
1367	0	0
1368	0	0
1369	0	0
1370	0	0
1371	0	0
1372	0	0
1373	0	0
1374	0	0
1375	0	0
1376	0	0
1377	0	0
1378	0	0
1379	0	0
1380	0	0
1381	0	0
1382	0	0
1383	0	0
1384	0	0
1385	0	0
1386	0	0
1387	0	0
1388	0	0
1389	0	0
1390	0	0
1391	0	0
1392	0	0
1393	0	0
1394	0	0
1395	0	0
1396	0	0
1397	0	0
1398	0	0
1399	0	0
1400	0	0
1401	0	0
1402	0	0
1403	0	0
1404	0	0
1405	0	0
1406	0	0
1407	0	0
1408	0	0
1409	0	0
1410	0	0
1411	0	0
1412	0	0
1413	0	0
1414	0	0
1415	0	0
1416	0	0
1417	0	0.998256
1418	0	0.998256
1419	0	0
1420	0	0
1421	0	0
1422	0	0
1423	0	0
1424	0	0
1425	0	0
1426	0	0
1427	0	0
1428	0	0
1429	0	0
1430	0	0
1431	0	0
1432	0	0
1433	0	0
1434	0	0
1435	0	0
1436	0	0
1437	1	0
1438	1	0
1439	1	0
1440	0	0
1441	0	0
1442	0	0
1443	0	0
1444	0	0
1445	0	0
1446	0	0
1447	0	0
1448	0	0
1449	0	0
1450	0	0
1451	0	0
1452	0	0
1453	0	0
1454	0	0
1455	0	0
1456	0	0
1457	0	0
1458	0	0
1459	0	0
1460	0	0
1461	0	0
1462	0	0
1463	0	0
1464	0	0
1465	0	0
1466	0	0
1467	0	0
1468	0	0
1469	0	0
1470	0	0
1471	0	0
1472	0	0
1473	0	0
1474	0	0
1475	0	0
1476	0	0
1477	0	0
1478	0	0
1479	0	0
1480	0	0
1481	0	0
1482	0	0
1483	0	0
1484	0	0.998258
1485	0	0.998258
1486	0	0.998258
1487	0	0.998258
1488	0	0.998258
1489	0	0.996517
1490	0	0.998256
1491	0	0.998256
1492	0	0.998256
1493	0	0.998256
1494	0	0.99477
1495	0	0.994775
1496	0	0.99478
1497	0	0.99478
1498	0	0.99478
1499	0	0.994775
1500	0	0.991313
1501	0	0.991313
1502	0	0.991313
1503	0	0.991313
1504	0	1
1505	0	0.614286
1506	0	0.658513
1507	0	0.422199
1508	0	0.369579
1509	0	0.31529
1510	0	0.246256
1511	0	0.499699
1512	0	0
1513	0	0
1514	0	0
1515	0	0
1516	0	0.381818
1517	0	0.493573
1518	0	0
1519	0	0
1520	0	0
1521	0	0.5
1522	0	0.5
1523	0	0.428571
1524	0	0.529085
1525	0	0.5
1526	0	0.3
1527	0	0.166667
1528	0	0
1529	0	0
1530	0	0
1531	0	0
1532	0	0
1533	0	0
1534	0	0
1535	0	0
1536	0	0
1537	0	0
1538	0	0
1539	0	0.428571
1540	0	0.457143
1541	0	0.197701
1542	0	0.517743
1543	0	0
1544	0	0
1545	0	0
1546	0	0
1547	0	0
1548	0	0.1
1549	0	0.1
1550	0	0.1
1551	0	0.484905
1552	0	0.0952381
1553	0	0.133333
1554	0	0
1555	0	0
1556	0	0
1557	0	0
1558	0	0
1559	0	0.2
1560	0	0.387574
1561	0	0.25
1562	0	0.25
1563	0	0.25
1564	0	0.25
1565	0	0.396862
1566	0	0.25
1567	0	0.145455
1568	0	0.0989011
1569	0	0.646285
1570	0	0.131092
1571	0	0.140534
1572	0	0.111538
1573	0	0.18937
1574	0	0.294944
1575	0	0.291401
1576	0	0.461351
1577	0	0.433333
1578	0	0.347436
1579	0	0.507317
1580	0	0.514634
1581	0	0.547038
1582	0	0.630279
1583	0	0.6
1584	0	0.6
1585	0	0.6
1586	0	1
1587	0	0.913932
1588	0	0.884668
1589	0	0.707022
1590	0	1
1591	0	1
1592	0	1
1593	0	1
1594	0	0.984318
1595	0	0.979264
1596	0	0.979264
1597	0	1
1598	0	1
1599	0	1
1600	0	1
1601	0	1
1602	0	1
1603	0	1
1604	0	1
1605	1	1
1606	0	0.998261
1607	1	1
1608	1	1
1609	1	1
1610	1	1
1611	1	1
1612	1	1
1613	1	1
1614	1	1
1615	1	1
1616	1	1
1617	1	1
1618	1	1
1619	1	1
1620	1	1
1621	1	1
1622	1	1
1623	1	1
1624	1	1
1625	1	1
1626	0	0
1627	0	0
1628	0	0
1629	0	0
1630	0	0
1631	0	0
1632	1	0
1633	1	0
1634	1	0
1635	1	0
1636	1	0
1637	1	0
1638	1	0
1639	1	0
1640	0	0
1641	0	0
1642	0	0
1643	0	0
1644	0	0
1645	0	0
1646	1	1
1647	1	1
1648	1	1
1649	1	1
1650	1	1
1651	0	0.333333
1652	0	0.333333
1653	0	0.333333
1654	0	0.333333
1655	0	0.333333
1656	0	0.333333
1657	0	0.333333
1658	0	0.998252
1659	0	0.998252
1660	0	1
1661	0	0.998253
1662	0	0.998253
1663	0	0.994766
1664	0	0.994766
1665	0	0.993024
1666	0	0.991291
1667	0	1
1668	0	0.601307
1669	0	0.965278
1670	0	1
1671	0	0.333333
1672	0	0.805814
1673	1	0
1674	1	0
1675	1	0
1676	1	0
1677	0	0
1678	0	0
1679	0	0.491377
1680	0	0.786647
1681	0	0.70682
1682	0	0.645393
1683	0	0.646657
1684	0	0.648342
1685	0	0.693572
1686	0	0.972162
1687	0	0.857143
1688	0	0.742857
1689	0	1
1690	0	0.998246
1691	1	1
1692	1	1
1693	0	1
1694	0	1
1695	0	1
1696	0	1
1697	0	1
1698	0	0.998247
1699	0	0
1700	0	0
1701	0	0
1702	0	0
1703	0	0
1704	0	0
1705	0	0
1706	0	0
1707	0	0
1708	0	0
1709	0	0
1710	0	0
1711	0	0
1712	0	0
1713	0	0
1714	0	0
1715	0	0
1716	0	0
1717	0	0
1718	0	0
1719	1	1
1720	1	1
1721	1	1
1722	1	1
1723	1	1
1724	1	1
1725	1	1
1726	1	1
1727	0	0.998243
1728	0	0.998243
1729	0	0.998243
1730	0	0.996487
1731	0	0.996487
1732	0	1
1733	0	1
1734	0	1
1735	0	1
1736	0	1
1737	0	1
1738	0	1
1739	0	1
1740	0	1
1741	0	1
1742	0	1
1743	0	1
1744	0	1
1745	0	1
1746	0	1
1747	0	0
1748	0	0
1749	0	0
1750	0	0
1751	0	0.732582
1752	0	0
1753	0	0
1754	0	0
1755	0	0
1756	0	0
1757	0	0
1758	0	0
1759	0	0
1760	0	0
1761	0	0
1762	0	0
1763	0	0
1764	0	0
1765	0	0
1766	0	0
1767	0	0
1768	0	0
1769	0	0.333333
1770	0	0.333333
1771	0	0.333333
1772	0	0.333333
1773	0	0.333333
1774	0	0.5
1775	0	0.6
1776	0	0.6
1777	0	0.6
1778	0	0.4
1779	0	0.968484
1780	0	0.97371
1781	0	0.97371
1782	0	0.972038
1783	0	0
1784	0	0
1785	0	0
1786	0	0
1787	0	0
1788	0	0
1789	0	0
1790	0	0
1791	0	0
1792	0	0
1793	0	0
1794	0	0
1795	0	0
1796	0	0
1797	0	0
1798	0	0
1799	0	0
1800	0	0
1801	0	0
1802	0	0
1803	0	0
1804	0	0
1805	0	0
1806	0	0
1807	0	0
1808	0	0
1809	0	0
1810	0	0
1811	0	0
1812	0	0
1813	0	0
1814	0	0
1815	0	0
1816	0	0
1817	0	0
1818	0	0
1819	0	0
1820	0	0
1821	0	0
1822	0	0
1823	0	0
1824	0	0
1825	0	0
1826	0	0
1827	0	0
1828	0	0
1829	0	0
1830	0	0
1831	0	0
1832	0	0
1833	0	0
1834	0	0
1835	0	0
1836	0	0
1837	0	0
1838	0	0
1839	0	0
1840	0	0
1841	0	0
1842	0	0
1843	0	0
1844	0	0
1845	0	0
1846	0	0
1847	0	0
1848	0	0
1849	0	0
1850	0	0
1851	0	0
1852	0	0
1853	0	0
1854	0	0
1855	0	0
1856	0	0
1857	0	0
1858	0	0
1859	0	0
1860	0	0
1861	0	0
1862	0	0.973757
1863	0	0.973734
1864	0	0.973709
1865	0	0.977199
1866	0	0.977199
1867	0	1
1868	0	0.980896
1869	0	0
1870	0	0
1871	0	0
1872	0	0
1873	0	0
1874	0	0
1875	0	0
1876	0	0
1877	0	0
1878	0	0
1879	0	0
1880	0	0
1881	0	0
1882	0	0
1883	0	0
1884	0	0
1885	0	0
1886	0	0
1887	0	0
1888	0	0
1889	0	0
1890	0	0
1891	0	0
1892	0	0
1893	0	0
1894	0	0
1895	0	0
1896	0	0
1897	0	0
1898	0	0
1899	0	0
1900	0	0
1901	0	0
1902	0	0
1903	0	0
1904	0	0
1905	0	0
1906	0	0
1907	0	0
1908	0	0
1909	0	0
1910	0	0
1911	0	0
1912	0	0
1913	0	0
1914	0	0
1915	0	0
1916	0	0
1917	0	0
1918	0	0
1919	0	0
1920	0	0
1921	0	0
1922	0	0
1923	0	0
1924	0	0
1925	0	0
1926	0	0
1927	0	0
1928	0	0
1929	0	0
1930	0	0
1931	0	0
1932	0	0
1933	0	0
1934	0	0
1935	0	0
1936	0	0
1937	0	0
1938	0	0
1939	0	0
1940	0	0
1941	0	0
1942	0	0
1943	0	0
1944	0	0
1945	0	0
1946	0	0
1947	0	0
1948	0	0
1949	0	0
1950	0	0.466667
1951	0	0
1952	0	0.6
1953	0	0.608877
1954	0	0.565624
1955	0	0.626307
1956	0	0.239766
1957	0	0.962861
1958	0	0.954334
1959	0	0.2
1960	0	0.2
1961	0	0.945778
1962	0	0.947508
1963	0	0.945831
1964	0	0.949199
1965	0	0.333333
1966	0	0.333333
1967	0	0.333333
1968	0	0.333333
1969	0	0.333333
1970	0	0.333333
1971	0	0.333333
1972	0	0.333333
1973	0	0.333333
1974	0	0.333333
1975	0	0.333333
1976	0	0.333333
1977	0	0.333333
1978	0	0.333333
1979	0	0.333333
1980	0	0.333333
1981	0	0.333333
1982	0	0.333333
1983	0	0.333333
1984	0	0.333333
1985	0	0.333333
1986	0	0.333333
1987	0	0.333333
1988	0	0.333333
1989	0	0.333333
1990	0	0.333333
1991	0	0.333333
1992	0	0.333333
1993	0	0.333333
1994	0	0.333333
1995	0	0.333333
1996	0	0.333333
1997	0	0.333333
1998	0	0.333333
1999	0	0.333333
2000	0	1
2001	0	1
2002	0	1
2003	0	1
2004	0	1
2005	0	0.333333
2006	0	0.333333
2007	0	0.333333
2008	0	0.333333
2009	0	0.333333
2010	0	0.333333
2011	0	0.333333
2012	0	0.333333
2013	0	0.333333
2014	0	0.333333
2015	0	0.333333
2016	0	0.333333
2017	0	0.333333
2018	0	0.333333
2019	0	0.333333
2020	0	0.333333
2021	0	0.333333
2022	0	0.333333
2023	0	0.1
2024	0	0.942064
2025	0	0.945308
2026	0	0.325758
2027	0	0.238095
2028	0	0.238095
2029	0	0.282051
2030	0	0.333333
2031	0	0.19697
2032	0	0.19697
2033	0	0.194444
2034	0	0.111111
2035	0	0.111111
2036	0	0.0714286
2037	0	0.0714286
2038	0	0.0714286
2039	0	0.0714286
2040	0	0.047619
2041	0	0.047619
2042	0	0.047619
2043	0	0.047619
2044	0	0.047619
2045	0	0.047619
2046	0	0.047619
2047	0	0.047619
2048	0	0.047619
2049	0	0.0666667
2050	0	0.0666667
2051	0	0.0666667
2052	0	0.0666667
2053	0	0.111111
2054	0	0.111111
2055	0	0.111111
2056	0	0.111111
2057	0	0.111111
2058	0	0.111111
2059	0	0.111111
2060	0	0.111111
2061	0	0.111111
2062	0	0.111111
2063	0	0.111111
2064	0	0.111111
2065	0	0.111111
2066	0	0.111111
2067	0	0.111111
2068	0	0.111111
2069	0	0.111111
2070	0	0.111111
2071	0	0.111111
2072	0	0.111111
2073	0	0.111111
2074	0	0.111111
2075	0	0.111111
2076	0	0.111111
2077	0	0.111111
2078	0	0.111111
2079	0	0.111111
2080	0	0.111111
2081	0	0.138889
2082	0	0.138889
2083	0	0.138889
2084	0	0.138889
2085	0	0.138889
2086	0	0.138889
2087	0	0.138889
2088	0	0.138889
2089	0	0.138889
2090	0	0.138889
2091	0	0.138889
2092	0	0.111111
2093	0	0.111111
2094	0	0.111111
2095	0	0.111111
2096	0	0.111111
2097	0	0.111111
2098	0	0.111111
2099	0	0.111111
2100	0	0.111111
2101	0	0.111111
2102	0	0.111111
2103	0	0.111111
2104	0	0.111111
2105	0	0.111111
2106	0	0.111111
2107	0	0.111111
2108	0	0.111111
2109	0	0.111111
2110	0	0.111111
2111	0	0.111111
2112	0	0.111111
2113	0	0.111111
2114	0	0.111111
2115	0	0.111111
2116	0	0.111111
2117	0	0.111111
2118	0	0.111111
2119	0	0.111111
2120	0	0.111111
2121	0	0.111111
2122	0	0.111111
2123	0	0.111111
2124	0	0.111111
2125	0	0.111111
2126	0	0.111111
2127	0	0.111111
2128	0	0.111111
2129	0	0.111111
2130	0	0.111111
2131	0	0.111111
2132	0	0.111111
2133	0	0.111111
2134	0	0.111111
2135	0	0.111111
2136	0	0.111111
2137	0	0.111111
2138	0	0.111111
2139	0	0.111111
2140	0	0.111111
2141	0	0.111111
2142	0	0.142857
2143	0	0.142857
2144	0	0.142857
2145	0	0.142857
2146	0	0.142857
2147	0	0.142857
2148	0	0.142857
2149	0	0.142857
2150	0	0.142857
2151	0	0.142857
2152	0	0.142857
2153	0	0.142857
2154	0	0.142857
2155	0	0.142857
2156	0	0.142857
2157	0	0.142857
2158	0	0.142857
2159	0	0.142857
2160	0	0.142857
2161	0	0.142857
2162	0	0.142857
2163	0	0.142857
2164	0	0.142857
2165	0	0.142857
2166	0	0.142857
2167	0	0.142857
2168	0	0.142857
2169	0	0.142857
2170	0	0.142857
2171	0	0.142857
2172	0	0.142857
2173	0	0.142857
2174	0	0.142857
2175	0	0.142857
2176	0	0.142857
2177	0	0.142857
2178	0	0.142857
2179	0	0.142857
2180	0	0.142857
2181	0	0.142857
2182	0	0.142857
2183	0	0.142857
2184	0	0.142857
2185	0	0.142857
2186	0	0.142857
2187	0	0.2
2188	0	0.2
2189	0	0.2
2190	0	0.2
2191	0	0.2
2192	0	0.2
2193	0	0.2
2194	0	0.2
2195	0	0.2
2196	0	0.2
2197	0	0.2
2198	0	0.2
2199	0	0.2
2200	0	0.3
2201	0	0.3
2202	0	0.3
2203	0	0.3
2204	0	0.3
2205	0	0.3
2206	0	0.3
2207	0	0.3
2208	0	0.3
2209	0	0.3
2210	0	0.3
2211	0	0.3
2212	0	0.3
2213	0	0.3
2214	0	0.3
2215	0	0.3
2216	0	0.3
2217	0	0
2218	0	0
2219	0	0
2220	0	0
2221	0	0
2222	0	0
2223	0	0
2224	0	0
2225	0	0
2226	0	0
2227	0	0
2228	0	0
2229	0	0
2230	0	0
2231	0	0
