Site	ColumnScore	SumOfPairsScore
1	0	0
2	0	0
3	0	0
4	0	0
5	0	0
6	0	0
7	0	0
8	0	0
9	0	0
10	0	0
11	0	0
12	0	0
13	0	0
14	0	0
15	0	0
16	0	0
17	0	0
18	0	0
19	0	0
20	0	0
21	1	0
22	0	0
23	0	0
24	0	0
25	0	0
26	0	0
27	0	0
28	0	0
29	0	0
30	0	0
31	0	0
32	0	0
33	0	0
34	0	0
35	0	0
36	0	0
37	0	0
38	0	0
39	0	0
40	0	0
41	0	0
42	0	0
43	0	0
44	0	0
45	0	0
46	0	0
47	0	0
48	0	0
49	0	0
50	0	0
51	0	0
52	0	0
53	0	0
54	0	0
55	0	0
56	0	0
57	0	0
58	0	0
59	0	0
60	0	0
61	0	0
62	0	0
63	0	0
64	0	0
65	0	0
66	0	0
67	0	0
68	0	0
69	0	0
70	0	0
71	0	0
72	0	0
73	0	0
74	0	0
75	0	0
76	0	0
77	0	0
78	0	0
79	0	0
80	0	0
81	0	0
82	0	0
83	0	0
84	0	0
85	0	0
86	0	0
87	0	0
88	0	0
89	0	0
90	0	0
91	0	0
92	1	0
93	1	0
94	1	0
95	1	0
96	1	0
97	1	0
98	0	0
99	0	0
100	0	0
101	0	0
102	0	0
103	0	0
104	0	0
105	0	0
106	1	0
107	1	0
108	1	0
109	1	0
110	1	0
111	0	0
112	0	0
113	0	0
114	0	0
115	0	0
116	0	0
117	0	0
118	0	0
119	0	0
120	0	0
121	0	0
122	0	0
123	0	0
124	0	0
125	0	0
126	0	0
127	0	0
128	0	0
129	0	0
130	0	0
131	0	0
132	0	0
133	0	0
134	0	0
135	0	0
136	0	0
137	0	0
138	0	0
139	0	0
140	0	0
141	0	0
142	0	0
143	0	0
144	0	0
145	0	0
146	0	0
147	1	0
148	1	0
149	1	0
150	1	0
151	0	0
152	0	0
153	0	0
154	0	0
155	0	0
156	0	0
157	1	0
158	1	0
159	1	0
160	1	0
161	1	0
162	1	0
163	1	0
164	1	0
165	1	0
166	1	0
167	0	0
168	0	0
169	0	0
170	0	0
171	0	0
172	0	0
173	0	0
174	0	0
175	0	0.333333
176	0	0.333333
177	0	0.333333
178	0	0.333333
179	0	0.333333
180	0	0.333333
181	0	0.333333
182	0	0.333333
183	0	0.333333
184	0	0.333333
185	0	0.333333
186	0	0.333333
187	0	0.333333
188	0	0.333333
189	0	0.333333
190	0	0.333333
191	0	0.333333
192	0	0.333333
193	0	0.333333
194	0	0.333333
195	0	0.333333
196	0	0.333333
197	0	0.333333
198	0	0.333333
199	0	0.333333
200	0	0.333333
201	0	0.333333
202	0	0.333333
203	0	0.333333
204	0	0.333333
205	0	0.333333
206	0	0.333333
207	0	0.333333
208	0	0.333333
209	0	0.333333
210	0	0.333333
211	0	0.333333
212	0	0.333333
213	0	0.333333
214	0	0.333333
215	0	0.333333
216	0	0.333333
217	0	0.333333
218	0	0.333333
219	0	0.333333
220	0	0.333333
221	0	0.333333
222	0	0.333333
223	0	0.333333
224	0	0.333333
225	0	0.333333
226	0	0.333333
227	0	0.333333
228	0	0.333333
229	0	0.333333
230	0	0.333333
231	0	0.333333
232	0	0.333333
233	0	0.333333
234	0	0.333333
235	0	0.333333
236	0	0.333333
237	0	0.333333
238	0	0.333333
239	0	0.333333
240	0	0.333333
241	0	0.333333
242	0	0.333333
243	0	0.333333
244	0	0.333333
245	0	0.333333
246	0	0.333333
247	0	0.333333
248	0	0.333333
249	0	0.333333
250	0	0.333333
251	0	0.333333
252	0	0.333333
253	0	0.333333
254	0	0.333333
255	0	0.333333
256	0	0.333333
257	0	0.333333
258	0	0.333333
259	0	0.333333
260	0	0.333333
261	0	0.333333
262	0	0.333333
263	0	0.333333
264	0	0.333333
265	0	0.333333
266	0	0.333333
267	0	0.333333
268	0	0.333333
269	0	0.333333
270	0	0.333333
271	0	0.333333
272	0	0.333333
273	0	0.333333
274	0	0.333333
275	0	0.333333
276	0	0.333333
277	0	0.333333
278	0	0.333333
279	0	0.333333
280	0	0.333333
281	0	0.333333
282	0	0.333333
283	0	0.333333
284	0	0.333333
285	0	0.333333
286	0	0.333333
287	0	0.333333
288	0	0.333333
289	0	0.333333
290	0	0.333333
291	0	0.333333
292	0	0.333333
293	0	0.333333
294	0	0.333333
295	0	0.333333
296	0	0.333333
297	0	0.333333
298	0	0.333333
299	0	0.333333
300	0	0.333333
301	0	0.333333
302	0	0.333333
303	0	0.333333
304	0	0.333333
305	0	0.333333
306	0	0.333333
307	0	0.333333
308	0	0.333333
309	0	0.333333
310	0	0.333333
311	0	0.333333
312	0	0.333333
313	0	0.333333
314	0	0.333333
315	0	0.333333
316	0	0.333333
317	0	0.333333
318	0	0.333333
319	0	0.333333
320	0	0.333333
321	0	0.333333
322	0	0.333333
323	0	0.333333
324	0	0.333333
325	0	0.333333
326	0	0.333333
327	0	0.333333
328	0	0.333333
329	0	0.333333
330	0	0.333333
331	0	0.333333
332	0	0.333333
333	0	0.333333
334	0	0.333333
335	0	0.333333
336	0	0.333333
337	0	0.333333
338	0	0.333333
339	0	0.333333
340	0	0.333333
341	0	0.333333
342	0	0.333333
343	0	0.333333
344	0	0.333333
345	0	0.333333
346	0	0.333333
347	0	0.333333
348	0	0.333333
349	0	0.333333
350	0	0.333333
351	0	0.333333
352	0	0.333333
353	0	0.333333
354	0	0.333333
355	0	0.333333
356	0	0.333333
357	0	0.333333
358	0	0.333333
359	0	0.333333
360	0	0.333333
361	0	0.333333
362	0	0.333333
363	0	0.333333
364	0	0.333333
365	0	0.333333
366	0	0.333333
367	0	0.333333
368	0	0.333333
369	0	0.333333
370	0	0.333333
371	0	0.333333
372	0	0.333333
373	0	0.333333
374	0	0.333333
375	0	0.333333
376	0	0.333333
377	0	0.333333
378	0	0.333333
379	0	0.333333
380	0	0.333333
381	0	0.333333
382	0	0.333333
383	0	0.333333
384	0	0.333333
385	0	0.333333
386	0	0.333333
387	0	0.333333
388	0	0.333333
389	0	0.333333
390	0	0.333333
391	0	0.333333
392	0	0.333333
393	0	0.333333
394	0	0.333333
395	0	0.333333
396	0	0.333333
397	0	0.333333
398	0	0.333333
399	0	0.333333
400	0	0.333333
401	0	0.333333
402	0	0.333333
403	0	0.333333
404	0	0.333333
405	0	0.333333
406	0	0.333333
407	0	0.333333
408	0	0.333333
409	0	0.333333
410	0	0.333333
411	0	0.333333
412	0	0.333333
413	0	0.333333
414	0	0.333333
415	0	0.333333
416	0	0.333333
417	0	0.333333
418	0	0.333333
419	0	0.333333
420	0	0.333333
421	0	0.333333
422	0	0.333333
423	0	0.333333
424	0	0.333333
425	0	0.333333
426	0	0.333333
427	0	0.333333
428	0	0.333333
429	0	0.333333
430	0	0.333333
431	0	0.333333
432	0	0.333333
433	0	0.333333
434	0	0.333333
435	0	0.333333
436	0	0.333333
437	0	0.333333
438	0	0.333333
439	0	0.333333
440	0	0.333333
441	0	0.333333
442	0	0.333333
443	0	0.166667
444	0	0.166667
445	0	0.166667
446	0	0.166667
447	0	0.166667
448	0	0.166667
449	0	0.166667
450	0	0.166667
451	0	0.166667
452	0	0.166667
453	0	0.166667
454	0	0.1
455	0	0.1
456	0	0.1
457	0	0.1
458	0	0.1
459	0	0.1
460	0	0.1
461	0	0.1
462	0	0
463	0	0
464	0	0
465	0	0
466	0	0
467	0	0
468	0	0
469	0	0
470	0	0
471	0	0
472	0	0
473	0	0
474	0	0
475	0	0
476	0	0
477	0	0
478	0	0
479	0	0
480	0	0
481	0	0
482	0	0
483	0	0
484	0	0
485	0	0
486	0	0
487	0	0
488	0	0
489	0	0
490	0	0
491	0	0
492	0	0
493	0	0
494	0	0
495	0	0
496	0	0
497	0	0
498	0	0
499	0	0
500	0	0
501	0	0
502	0	0
503	0	0
504	0	0
505	0	0
506	0	0
507	0	0
508	0	0
509	0	0
510	0	0
511	0	0
512	0	0
513	0	0
514	0	0
515	0	0
516	0	0
517	0	0
518	0	0
519	0	0.047619
520	0	0.047619
521	0	0.047619
522	0	0.047619
523	0	0.047619
524	0	0.047619
525	0	0.047619
526	0	0.047619
527	0	0.047619
528	0	0.047619
529	0	0.047619
530	0	0.047619
531	0	0.047619
532	0	0.0357143
533	0	0.0357143
534	0	0.0357143
535	0	0.0357143
536	0	0.0357143
537	0	0.0357143
538	0	0.0357143
539	0	0
540	0	0
541	0	0
542	0	0
543	0	0
544	0	0
545	0	0
546	0	0
547	0	0
548	0	0
549	0	0
550	0	0.0277778
551	0	0.0606061
552	0	0.0512821
553	0	0.0512821
554	0	0.0512821
555	0	0.0769231
556	0	0.0549451
557	0	0.128205
558	0	0.104762
559	0	0.0784314
560	0	0.0833333
561	0	0.0753045
562	0	0.0852481
563	0	0.225849
564	0	0.240314
565	0	0.221719
566	0	0.209559
567	0	0.0963163
568	0	0.0898743
569	0	0.107143
570	0	0.229069
571	0	0.0261438
572	0	0.0261438
573	0	0.0392157
574	0	0.0368421
575	0	0.0261438
576	0	0.0130719
577	0	0.323185
578	0	0
579	0	0
580	0	0
581	0	0.0666667
582	0	0.0666667
583	0	0.0666667
584	0	0.0666667
585	0	0.0666667
586	0	0.54416
587	0	0.54416
588	0	0.505291
589	0	0.472906
590	0	0.423656
591	0	0.397177
592	0	0.397177
593	0	0.218246
594	0	0.146373
595	0	0.0284495
596	0	0.029872
597	0	0.0375375
598	0	0.0398293
599	0	0.108563
600	0	0.473684
601	0	0.473684
602	0	0.0573712
603	0	0.20197
604	0	0.20197
605	0	0.20197
606	0	0.199507
607	0	0.0995475
608	0	0.115905
609	0	0.157576
610	0	0.150407
611	0	0.125283
612	0	0.010989
613	0	0.010989
614	0	0.010989
615	0	0
616	0	0
617	0	0
618	0	0
619	0	0.010989
620	0	0.132682
621	0	0.0721522
622	0	0.160853
623	0	0.0675243
624	0	0.0665237
625	0	0.266388
626	0	0.504762
627	0	0.504762
628	0	0.552632
629	0	0
630	0	0
631	0	0
632	0	0
633	0	0
634	0	0
635	0	0
636	0	0
637	0	0
638	0	0
639	0	0
640	0	0
641	0	0
642	0	0
643	0	0
644	0	0
645	0	0
646	0	0
647	0	0
648	0	0
649	0	0
650	0	0
651	0	0
652	0	0
653	0	0
654	0	0
655	0	0
656	0	0
657	0	0
658	0	0.1
659	0	0.25
660	0	0.25
661	0	0.186813
662	0	0.186813
663	0	0
664	0	0
665	0	0
666	0	0
667	0	0
668	0	0
669	0	0
670	0	0
671	0	0
672	0	0
673	0	0
674	0	0
675	0	0
676	0	0
677	0	0.580431
678	0	0
679	0	0
680	0	0
681	0	0
682	0	0
683	0	0
684	0	0
685	0	0.849448
686	0	0.683638
687	0	0.812903
688	0	0.806897
689	0	0.806897
690	0	0.864532
691	0	0.864532
692	0	0.864532
693	0	0.864532
694	0	0.864532
695	0	0.864532
696	0	0.864532
697	0	0.864532
698	0	0.637931
699	0	0.637931
700	0	0.637931
701	0	0.843333
702	0	0.843333
703	0	0.843333
704	0	0.864532
705	0	0.864532
706	0	0.864532
707	0	0.864532
708	0	0.864532
709	0	0.864532
710	0	0.864532
711	0	0.485057
712	0	0.531034
713	0	0.583333
714	0	0.279292
715	0	0
716	0	0
717	0	0
718	0	0
719	1	0
720	1	0
721	1	0
722	0	0.142234
723	0	0.146135
724	0	0
725	0	0
726	0	0
727	0	0
728	0	0
729	0	0
730	0	0
731	0	0
732	0	0
733	0	0
734	0	0
735	0	0
736	0	0
737	0	0
738	0	0
739	0	0
740	0	0
741	0	0
742	0	0
743	0	0
744	0	0
745	0	0
746	0	0
747	0	0
748	0	0
749	0	0
750	0	0
751	0	0
752	0	0
753	0	0
754	0	0
755	0	0.128766
756	0	0.129158
757	0	0.150895
758	0	0.150895
759	0	0.149698
760	0	0.156942
761	0	0.156942
762	0	0.146714
763	0	0.154606
764	0	0.147462
765	0	0.298173
766	0	0.1211
767	0	0.130055
768	0	0.135593
769	0	0.160727
770	0	0.160028
771	0	0.162823
772	0	0.143191
773	0	0.142022
774	0	0.128503
775	0	0.124802
776	0	0.108558
777	0	0.107911
778	0	0.120601
779	0	0.115991
780	0	0.114268
781	0	0.0924236
782	0	0.125895
783	0	0.122031
784	0	0.104652
785	0	0.107764
786	0	0.0874236
787	0	0.0886226
788	0	0.077074
789	0	0.0793302
790	0	0.0814969
791	0	0.0844959
792	0	0.0895841
793	0	0.107768
794	0	0.113796
795	0	0.113647
796	0	0.0823388
797	0	0.0811892
798	0	0.113072
799	0	0.0629842
800	0	0.0549853
801	0	0.0551444
802	0	0.0490556
803	0	0.0605257
804	0	0.0561224
805	0	0.0580142
806	0	0.0582021
807	0	0.152404
808	0	0.203318
809	0	0.0846561
810	0	0.102767
811	0	0.108225
812	0	0.114286
813	0	0.126316
814	0	0.126316
815	0	0.126316
816	0	0.126316
817	0	0.126316
818	0	0.126316
819	0	0.143791
820	0	0.143791
821	0	0.264243
822	0	0.26362
823	0	0.295691
824	0	0.29714
825	0	0.287315
826	0	0
827	0	0
828	0	0
829	0	0
830	0	0
831	0	0
832	0	0
833	0	0
834	0	0
835	0	0
836	0	0
837	0	0
838	0	0
839	0	0
840	0	0
841	0	0
842	0	0
843	0	0
844	0	0
845	0	0
846	0	0
847	0	0
848	0	0.166667
849	0	0.166667
850	0	0.166667
851	0	0.166667
852	0	0.166667
853	0	0.166667
854	0	0.166667
855	0	0.166667
856	0	0.25
857	0	0.25
858	0	0.285714
859	0	0.285714
860	0	0.285714
861	0	0.544903
862	0	0.0666667
863	0	0.0666667
864	0	0
865	0	0
866	0	0.142857
867	0	0.142857
868	0	0.142857
869	0	0.142857
870	0	0.2
871	0	0.2
872	0	0.266667
873	0	0.266667
874	0	0.378788
875	0	0.378788
876	0	0.320513
877	0	0.266403
878	0	0.333333
879	0	0.333333
880	0	0.333333
881	0	0.333333
882	0	0.333333
883	0	0.333333
884	0	0.333333
885	0	0.333333
886	0	0.333333
887	0	0.180245
888	0	0.152641
889	0	0.166667
890	0	0.166667
891	0	0.166667
892	0	0.166667
893	0	0.133333
894	0	0.133333
895	0	0.101481
896	0	0.0608696
897	0	0.0587992
898	0	0.0596273
899	0	0.0534161
900	0	0.0725994
901	0	0.071577
902	0	0
903	0	0
904	0	0
905	0	0
906	0	0
907	0	0
908	0	0
909	0	0.179457
910	0	0.202058
911	0	0.391511
912	0	0
913	0	0
914	0	0
915	0	0
916	0	0
917	0	0
918	0	0
919	0	0
920	0	0
921	0	0
922	0	0
923	0	0
924	0	0
925	0	0
926	0	0
927	0	0.2
928	0	0.446371
929	0	0.403866
930	0	0.165079
931	0	0.180952
932	0	0.314286
933	0	0.314286
934	0	0.311753
935	0	0.299931
936	0	0.134921
937	0	0.192075
938	0	0.200565
939	0	0.18797
940	0	0.140239
941	0	0.0571711
942	0	0.0514196
943	0	0.060241
944	0	0.0614164
945	0	0.0578901
946	0	0.0461533
947	0	0.0552769
948	0	0.0529101
949	0	0.048433
950	0	0.048433
951	0	0.0543478
952	0	0.047619
953	0	0.0615942
954	0	0.0543478
955	0	0.0389256
956	0	0.0363636
957	0	0.0363636
958	0	0.0363636
959	0	0.0555556
960	0	0.0555556
961	0	0.0555556
962	0	0.0545455
963	0	0.0545455
964	0	0.0545455
965	0	0.0659828
966	0	0.222222
967	0	0.0675589
968	0	0.047108
969	0	0.0222222
970	0	0.0222222
971	0	0.0222222
972	0	0.0222222
973	0	0.0407371
974	0	0.166667
975	0	0.166667
976	0	0.166667
977	0	0.166667
978	0	0.166667
979	0	0
980	0	0
981	0	0
982	0	0.273646
983	0	0.0960784
984	0	0.190856
985	0	0.0549451
986	0	0.0606061
987	0	0.0606061
988	0	0.0606061
989	0	0.0606061
990	0	0.0666667
991	0	0.239078
992	0	0.217026
993	0	0.303826
994	0	0.0659341
995	0	0.284615
996	0	0.0909091
997	0	0.12
998	0	0.12963
999	0	0.0873563
1000	0	0.0996956
1001	0	0.0626309
1002	0	0.0717211
1003	0	0.0407905
1004	0	0.0760563
1005	0	0.0304269
1006	0	0.0599251
1007	0	0.059176
1008	0	0.0285197
1009	0	0.0666667
1010	0	0.047619
1011	0	0.047619
1012	0	0.0316334
1013	0	0.0288248
1014	0	0.0304784
1015	0	0
1016	0	0
1017	0	0
1018	0	0
1019	0	0
1020	0	0
1021	0	0
1022	0	0.0526316
1023	0	0.0315508
1024	0	0.0325586
1025	0	0
1026	0	0
1027	0	0
1028	0	0
1029	0	0
1030	0	0
1031	0	0
1032	0	0
1033	0	0
1034	0	0
1035	0	0
1036	0	0.0588235
1037	0	0.0784314
1038	0	0.103092
1039	0	0.363507
1040	0	0.398268
1041	0	0.398268
1042	0	0.293478
1043	0	0.293478
1044	0	0.184885
1045	0	0.190283
1046	0	0.148387
1047	0	0.132576
1048	0	0.126482
1049	0	0.246753
1050	0	0.184615
1051	0	0.196667
1052	0	0.214015
1053	0	0.213445
1054	0	0.164466
1055	0	0.0314373
1056	1	0
1057	1	0
1058	0	0
1059	0	0
1060	0	0
1061	0	0
1062	0	0
1063	0	0
1064	0	0
1065	0	0
1066	0	0
1067	0	0
1068	0	0
1069	0	0
1070	0	0
1071	0	0
1072	0	0
1073	0	0
1074	0	0
1075	0	0
1076	0	0
1077	0	0
1078	0	0
1079	0	0
1080	0	0
1081	0	0
1082	0	0
1083	0	0
1084	0	0
1085	0	0
1086	0	0
1087	0	0
1088	0	0
1089	0	0
1090	1	0
1091	1	0
1092	1	0
1093	0	0
1094	1	0
1095	1	0
1096	0	0
1097	0	0
1098	0	0
1099	1	0
1100	1	0
1101	1	0
1102	0	0
1103	0	0
1104	0	0
1105	0	0
1106	0	0
1107	0	0
1108	0	0
1109	0	0
1110	0	0
1111	0	0
1112	0	0
1113	0	0
1114	1	0
1115	1	0
1116	1	0
1117	1	0
1118	1	0
1119	0	0
1120	0	0
1121	0	0
1122	0	0
1123	0	0
1124	0	0
1125	0	0
1126	0	0
1127	0	0
1128	0	0
1129	0	0
1130	1	0
1131	1	0
1132	1	0
1133	1	0
1134	1	0
1135	0	0
1136	0	0
1137	0	0
1138	0	0
1139	0	0
1140	0	0
1141	0	0
1142	0	0
1143	0	0
1144	0	0
1145	0	0
1146	0	0
1147	0	0
1148	0	0
1149	0	0
1150	0	0
1151	0	0
1152	0	0
1153	0	0
1154	0	0
1155	0	0
1156	0	0
1157	0	0
1158	0	0
1159	0	0
1160	0	0
1161	0	0
1162	0	0
1163	0	0
1164	0	0
1165	0	0
1166	0	0
1167	0	0
1168	0	0
1169	0	0
1170	0	0
1171	0	0
1172	0	0
1173	0	0
1174	0	0
1175	0	0
1176	0	0
1177	0	0
1178	0	0
1179	0	0
1180	0	0
1181	0	0
1182	0	0
1183	0	0
1184	0	0
1185	0	0
1186	0	0
1187	0	0
1188	0	0
1189	0	0
1190	0	0
1191	0	0
1192	0	0
1193	0	0
1194	0	0
1195	0	0
1196	0	0
1197	0	0
1198	0	0
1199	0	0
1200	0	0
1201	0	0
1202	0	0
1203	0	0
1204	0	0
1205	0	0
1206	0	0
1207	0	0
1208	0	0
1209	0	0
1210	0	0
1211	0	0
1212	0	0
1213	0	0
1214	0	0
1215	0	0
1216	0	0
1217	0	0
1218	0	0
1219	0	0
1220	0	0
1221	0	0
1222	0	0
1223	0	0
1224	0	0
1225	0	0
1226	0	0
1227	0	0
1228	0	0
1229	0	0
1230	0	0
1231	0	0
1232	0	0
1233	0	0
1234	0	0
1235	0	0
1236	0	0
1237	0	0
1238	0	0
1239	0	0
1240	0	0
1241	0	0
1242	0	0
1243	0	0
1244	0	0
1245	0	0
1246	0	0
1247	0	0
1248	0	0
1249	0	0
1250	0	0
1251	0	0
1252	0	0
1253	0	0
1254	0	0
1255	0	0
1256	0	0
1257	0	0
1258	0	0
1259	0	0
1260	0	0
1261	0	0
1262	0	0
1263	0	0
1264	0	0
1265	0	0
1266	0	0
1267	0	0
1268	0	0
1269	0	0
1270	0	0
1271	0	0
1272	0	0
1273	0	0
1274	0	0
1275	0	0
1276	0	0
1277	0	0
1278	0	0
1279	0	0
1280	0	0
1281	0	0
1282	0	0
1283	0	0
1284	0	0
1285	0	0
1286	0	0
1287	0	0
1288	0	0
1289	0	0
1290	1	0
1291	0	0
1292	0	0
1293	0	0
1294	0	0
1295	0	0
1296	0	0
1297	0	0
1298	0	0
1299	1	0
1300	0	0
1301	0	0
1302	0	0
1303	0	0
1304	0	0
1305	1	0
1306	1	0
1307	0	0
1308	1	0
1309	1	0
1310	1	0
1311	1	0
1312	1	0
1313	1	0
1314	1	0
1315	1	0
1316	0	0
1317	0	0
1318	0	0
1319	0	0
1320	0	0
1321	0	0
1322	0	0
1323	0	0
1324	0	0
1325	0	0
1326	0	0
1327	0	0
1328	0	0
1329	0	0
1330	0	0
1331	0	0
1332	0	0
1333	0	0
1334	0	0
1335	0	0
1336	0	0
1337	0	0
1338	0	0
1339	0	0
1340	0	0
1341	0	0.0290523
1342	0	0.0384878
1343	0	0.0411787
1344	0	0.0424893
1345	0	0.0374743
1346	0	0.022977
1347	0	0.0225183
1348	0	0.0213345
1349	0	0.0784314
1350	0	0.0784314
1351	0	0.0218722
1352	0	0
1353	0	0.0785414
1354	0	0.0776997
1355	0	0.0778555
1356	0	0.148148
1357	0	0.159544
1358	0	0
1359	0	0
1360	0	0
1361	0	0
1362	0	0.225296
1363	0	0.26087
1364	0	0.241107
1365	0	0.205128
1366	0	0.205128
1367	0	0.0666667
1368	0	0.0666667
1369	0	0.142857
1370	0	0.047619
1371	0	0.047619
1372	0	0.0952381
1373	0	0.138889
1374	0	0.109091
1375	0	0.111111
1376	0	0.161905
1377	0	0.0521135
1378	0	0.166667
1379	0	0
1380	0	0
1381	0	0
1382	0	0
1383	0	0
1384	0	0
1385	0	0
1386	0	0
1387	0	0
1388	0	0
1389	0	0
1390	0	0
1391	0	0
1392	0	0
1393	0	0
1394	0	0
1395	0	0
1396	0	0
1397	0	0
1398	0	0
1399	0	0
1400	0	0
1401	0	0
1402	0	0
1403	0	0
1404	0	0.3
1405	0	0.0218055
1406	0	0.0273434
1407	0	0.0302826
1408	0	0.0298169
1409	0	0
1410	0	0
1411	0	0
1412	0	0
1413	0	0
1414	0	0
1415	0	0
1416	0	0
1417	0	0
1418	0	0
1419	0	0
1420	0	0.0317284
1421	0	0.075
1422	0	0.0545455
1423	0	0.0666667
1424	0	0.0444444
1425	0	0.0555556
1426	0	0.0555556
1427	0	0.047619
1428	0	0.047619
1429	0	0.047619
1430	0	0.047619
1431	0	0.047619
1432	0	0.047619
1433	0	0.387597
1434	0	0
1435	0	0
1436	0	0.0295816
1437	0	0.0415287
1438	0	0.0833333
1439	0	0.107143
1440	0	0.0888889
1441	0	0.0955882
1442	0	0.0955882
1443	0	0.0955882
1444	0	0.127273
1445	0	0.174414
1446	0	0.0666667
1447	0	0.0666667
1448	0	0.0357143
1449	0	0.0357143
1450	0	0.0444444
1451	0	0.130981
1452	0	0.0517716
1453	0	0.0566813
1454	0	0.0482961
1455	0	0.0566013
1456	0	0.0633249
1457	0	0.0443906
1458	0	0.0468637
1459	0	0.0650347
1460	0	0.0647877
1461	0	0.0734523
1462	0	0.0616182
1463	0	0.059765
1464	0	0.080898
1465	0	0.0847269
1466	0	0.0860964
1467	0	0.204014
1468	0	0.231626
1469	0	0.0873016
1470	0	0.0873016
1471	0	0.161875
1472	0	0.140594
1473	0	0.24495
1474	0	0.286184
1475	0	0.143791
1476	0	0.104575
1477	0	0.104575
1478	0	0.117647
1479	0	0.117647
1480	0	0.111111
1481	0	0.419994
1482	0	0.0849328
1483	0	0.0358974
1484	0	0.0320513
1485	0	0.0333333
1486	0	0.0341463
1487	0	0.0329268
1488	0	0.0507548
1489	0	0.0500357
1490	0	0.046798
1491	0	0.0245386
1492	0	0.0541081
1493	0	0.0727273
1494	0	0.0649693
1495	0	0.0736597
1496	0	0.0798077
1497	0	0.0435933
1498	0	0.0534463
1499	0	0.0957788
1500	0	0.0258862
1501	0	0.0591251
1502	0	0.0560492
1503	0	0.0639361
1504	0	0.0946366
1505	0	0.0918971
1506	0	0.0857878
1507	0	0.0359184
1508	0	0.0339367
1509	0	0.166721
1510	0	0.163379
1511	0	0.0967218
1512	0	0.101162
1513	0	0.221344
1514	0	0.100617
1515	0	0.139348
1516	0	0.157392
1517	0	0.242644
1518	0	0.160587
1519	0	0.153264
1520	0	0.190905
1521	0	0.198482
1522	0	0.196437
1523	0	0.198021
1524	0	0.128053
1525	0	0.113266
1526	0	0.107251
1527	0	0.107511
1528	0	0.105618
1529	0	0.101602
1530	0	0.102841
1531	0	0.117503
1532	0	0.112503
1533	0	0.115697
1534	0	0.185828
1535	0	0.106781
1536	0	0.089583
1537	0	0.0915529
1538	0	0.103493
1539	0	0.136165
1540	0	0.127475
1541	0	0.127487
1542	0	0.0474129
1543	0	0.0463822
1544	0	0.0467945
1545	0	0.0595356
1546	0	0.0571582
1547	0	0.285714
1548	0	0.25
1549	0	0.285714
1550	0	0.4
1551	0	0.25
1552	0	0.4
1553	0	0.4
1554	0	0.4
1555	0	0.4
1556	0	0.4
1557	0	0.4
1558	0	0.285714
1559	0	0.285714
1560	0	0.285714
1561	0	0.285714
1562	0	0.214286
1563	0	0.214286
1564	0	0.214286
1565	0	0.214286
1566	0	0.214286
1567	0	0.166667
1568	0	0.133333
1569	0	0.133333
1570	0	0.133333
1571	0	0.0392518
1572	0	0.0391623
1573	0	0.1
1574	0	0.1
1575	0	0.1
1576	0	0.1
1577	0	0.1
1578	0	0.1
1579	0	0.1
1580	0	0.1
1581	0	0.1
1582	0	0.1
1583	0	0.1
1584	0	0.1
1585	0	0.1
1586	0	0.1
1587	0	0.1
1588	0	0.1
1589	0	0.1
1590	0	0.1
1591	0	0.0675067
1592	0	0.210526
1593	0	0.210526
1594	0	0.0734694
1595	0	0.0720565
1596	0	0.0497257
1597	0	0.0278846
1598	0	0.0283654
1599	0	0.0243258
1600	0	0.0265537
1601	0	0.0298077
1602	0	0.0294118
1603	0	0.0285714
1604	0	0.023803
1605	0	0.027227
1606	0	0.0521525
1607	0	0.188889
1608	0	0.18018
1609	0	0.0584144
1610	0	0.0515239
1611	0	0.0811349
1612	0	0.0867654
1613	0	0.100728
1614	0	0
1615	0	0
1616	0	0
1617	0	0
1618	0	0
1619	0	0.201911
1620	0	0.0864407
1621	0	0.103448
1622	0	0.0987726
1623	0	0.136137
1624	0	0.363439
1625	0	0.271903
1626	0	0.441439
1627	0	0.0151515
1628	0	0
1629	0	0
1630	0	0
1631	0	0.0222222
1632	0	0.0222222
1633	0	0.0222222
1634	0	0.0277778
1635	0	0
1636	0	0
1637	0	0
1638	0	0
1639	0	0
1640	0	0
1641	0	0
1642	0	0
1643	0	0
1644	0	0
1645	0	0
1646	0	0
1647	0	0
1648	0	0
1649	0	0
1650	0	0
1651	0	0
1652	0	0
1653	0	0
1654	0	0
1655	0	0.0778788
1656	0	0.078685
1657	0	0.0733389
1658	0	0.0730833
1659	0	0.074738
1660	0	0
1661	0	0
1662	0	0
1663	0	0
1664	0	0
1665	0	0
1666	0	0
1667	0	0
1668	0	0
1669	0	0
1670	0	0
1671	0	0
1672	0	0.0536315
1673	0	0.0585599
1674	0	0.0712686
1675	0	0.263158
1676	0	0
1677	0	0
1678	0	0
1679	0	0.263158
1680	0	0.263158
1681	0	0.263158
1682	0	0.0695592
1683	0	0.0706939
1684	0	0.0730135
1685	0	0.0748126
1686	0	0.075719
1687	0	0.0723606
1688	0	0.088172
1689	0	0.0967742
1690	0	0.0498844
1691	0	0.0525809
1692	0	0.0783977
1693	0	0
1694	0	0
1695	0	0
1696	0	0
1697	0	0
1698	0	0
1699	0	0
1700	0	0
1701	0	0
1702	0	0
1703	0	0
1704	0	0
1705	0	0
1706	0	0
1707	0	0
1708	0	0
1709	0	0
1710	0	0
1711	0	0
1712	0	0
1713	0	0
1714	0	0
1715	0	0
1716	0	0
1717	0	0
1718	0	0
1719	0	0
1720	0	0.308399
1721	0	0.18452
1722	0	0.282797
1723	0	0.291866
1724	0	0.275917
1725	0	0.280245
1726	0	0.256003
1727	0	0.249024
1728	0	0.120074
1729	0	0.228814
1730	0	0.0876019
1731	0	0.0905586
1732	0	0.0607287
1733	0	0.0566802
1734	0	0.0688259
1735	0	0.0728745
1736	0	0.10582
1737	0	0.100529
1738	0	0.061694
1739	0	0.153846
1740	0	0.153846
1741	0	0.153846
1742	0	0.136752
1743	0	0.0627897
1744	0	0.114943
1745	0	0.091954
1746	0	0.0340394
1747	0	0.0349138
1748	0	0.0753071
1749	0	0.0881359
1750	0	0
1751	0	0
1752	0	0
1753	0	0
1754	0	0
1755	0	0
1756	0	0
1757	0	0
1758	0	0
1759	0	0
1760	0	0
1761	0	0
1762	0	0.0265347
1763	0	0.0358543
1764	0	0.0263305
1765	0	0.0267909
1766	0	0.120202
1767	0	0.0222017
1768	0	0.163315
1769	0	0.333333
1770	0	0.333333
1771	0	0.333333
1772	0	0.333333
1773	0	0.333333
1774	0	0.333333
1775	0	0.333333
1776	0	0.333333
1777	0	0.333333
1778	0	0.333333
1779	0	0.333333
1780	0	0.333333
1781	0	0.333333
1782	0	0.333333
1783	0	0.333333
1784	0	0.333333
1785	0	0.333333
1786	0	0.333333
1787	0	0.266667
1788	0	0.266667
1789	0	0.266667
1790	0	0.266667
1791	0	0.5
1792	0	0.5
1793	0	0.5
1794	0	0.5
1795	0	0.5
1796	0	0.5
1797	0	0.5
1798	0	0.5
1799	0	0.5
1800	0	0.5
1801	0	0.5
1802	0	0.5
1803	0	0.5
1804	0	0.5
1805	0	0.5
1806	0	0.5
1807	0	0.5
1808	0	0.5
1809	0	0.5
1810	0	0.5
1811	0	0.5
1812	0	0.5
1813	0	0
1814	0	0
1815	0	0
1816	0	0
1817	0	0.312418
1818	0	0.0888889
1819	0	0.0888889
1820	0	0.0888889
1821	0	0.0888889
1822	0	0.0888889
1823	0	0.0888889
1824	0	0.0888889
1825	0	0.0888889
1826	0	0.133333
1827	0	0.133333
1828	0	0.109091
1829	0	0.146123
1830	0	0.247619
1831	0	0.247619
1832	0	0.114715
1833	0	0.120465
1834	0	0.278147
1835	0	0.329865
1836	0	0.24183
1837	0	0.24183
1838	0	0.335378
1839	0	1
1840	0	1
1841	0	1
1842	0	1
1843	0	1
1844	0	1
1845	0	0.144787
1846	0	0.154128
1847	0	0.370745
1848	0	0.382051
1849	0	0.382051
1850	0	0.470667
1851	0	0.356125
1852	0	0.356125
1853	0	0.364672
1854	0	0.649231
1855	0	0.649231
1856	0	0.646154
1857	0	0.646154
1858	0	0.646154
1859	0	0.646154
1860	0	0.646154
1861	0	0.646154
1862	0	0.627322
1863	0	0.106061
1864	0	0.106061
1865	0	0.106061
1866	0	0.106061
1867	0	0.106061
1868	0	0.106061
1869	0	0.525192
1870	0	0.53306
1871	0	0.534382
1872	0	0.532634
1873	0	0.534815
1874	0	1
1875	0	1
1876	0	1
1877	0	1
1878	0	1
1879	0	1
1880	0	1
1881	0	1
1882	0	1
1883	0	0.333333
1884	0	0.533652
1885	0	0.525373
1886	0	0.379085
1887	0	0.366013
1888	0	0.340505
1889	0	0.303081
1890	0	0.562649
1891	0	0.0989011
1892	0	0.0549451
1893	0	0.742224
1894	0	0.755101
1895	0	0.131054
1896	0	0.136842
1897	0	0.136842
1898	0	0.142857
1899	0	0.102767
1900	0	0.167488
1901	0	0.241379
1902	0	0.377011
1903	0	0.516508
1904	0	0.935868
1905	0	0.166667
1906	0	0.5
1907	0	0.5
1908	0	0.3
1909	0	0.3
1910	0	0.5
1911	0	0.321429
1912	0	0.321429
1913	0	0.266667
1914	0	0.242424
1915	0	0.295238
1916	0	0.275
1917	0	0.308333
1918	0	0.810526
1919	0	0.810526
1920	0	0.972236
1921	0	0.972345
1922	0	0.972371
1923	0	0.970566
1924	0	0.974174
1925	0	0.975987
1926	0	0.6
1927	0	0.75
1928	0	0.75
1929	0	0.75
1930	0	0.994424
1931	0	0.994424
1932	0	0.99447
1933	0	0.994475
1934	0	0.992644
1935	0	0.992644
1936	0	0.99265
1937	0	0.622222
1938	0	0.927025
1939	0	0.988996
1940	0	0.988996
1941	0	0.988996
1942	0	0.988996
1943	1	1
1944	1	1
1945	0	0.992657
1946	0	0.992657
1947	0	0.99449
1948	0	0.992664
1949	0	0.996325
1950	0	0.996325
1951	0	0.996325
1952	0	0.996342
1953	0	0.996342
1954	0	0.996342
1955	0	0
1956	0	0.994531
1957	0	0.994531
1958	0	0.994531
1959	0	0.992717
1960	0	0.992717
1961	0	0.992717
1962	0	0.992717
1963	0	0.992717
1964	0	0.992717
1965	0	0.994526
1966	0	0.994526
1967	0	0.994526
1968	0	0.992711
1969	0	0.990901
1970	0	0.990901
1971	0	0.990901
1972	0	0.990901
1973	0	0.990901
1974	0	0.990909
1975	0	0.990909
1976	0	0.990909
1977	0	1
1978	0	1
1979	0	1
1980	0	1
1981	0	1
1982	0	0.4
1983	0	0.4
1984	0	0.5
1985	0	0.5
1986	0	1
1987	0	1
1988	0	1
1989	0	1
1990	0	1
1991	0	1
1992	0	1
1993	0	1
1994	0	0.5
1995	0	0.5
1996	0	0.5
1997	0	0.978196
1998	0	0.976388
1999	0	0.976388
2000	0	0.976391
2001	0	0.47619
2002	0	0.47619
2003	0	0.47619
2004	0	0.666667
2005	0	0
2006	0	0
2007	0	0
2008	0	0
2009	0	0
2010	0	0
2011	0	0
2012	0	0
2013	0	0
2014	1	0
2015	1	0
2016	0	0
2017	0	0
2018	0	0
2019	0	0
2020	0	0
2021	0	0
2022	0	0
2023	0	0
2024	0	0
2025	0	0
2026	0	0
2027	0	0
2028	0	0
2029	0	0
2030	0	0
2031	0	0
2032	0	0
2033	0	0
2034	0	0
2035	0	0
2036	1	0
2037	1	0
2038	1	0
2039	0	0
2040	0	0
2041	0	0
2042	0	0
2043	0	0
2044	0	0
2045	0	0
2046	0	0
2047	0	0.971068
2048	0	0.971056
2049	0	0.969286
2050	0	1
2051	0	1
2052	0	1
2053	0	1
2054	0	0.958594
2055	0	0.958631
2056	0	0.958631
2057	0	1
2058	0	1
2059	0	1
2060	0	1
2061	0	1
2062	0	1
2063	0	1
2064	0	1
2065	0	1
2066	0	1
2067	0	1
2068	0	1
2069	0	1
2070	0	1
2071	0	1
2072	0	1
2073	0	1
2074	0	0.464286
2075	0	1
2076	0	0.880127
2077	0	0.880127
2078	0	0.962192
2079	0	0.962192
2080	0	0.859788
2081	0	0.965723
2082	0	0.962224
2083	0	0.962224
2084	0	0.974581
2085	0	0.972721
2086	1	0
2087	1	0
2088	1	0
2089	1	0
2090	1	0
2091	1	0
2092	1	0
2093	1	0
2094	1	0
2095	1	0
2096	1	0
2097	0	0
2098	0	0.962311
2099	0	0
2100	0	0
2101	0	0
2102	0	0.985504
2103	0	0.985491
2104	0	0.985491
2105	0	0.666667
2106	0	0.666667
2107	0	0.998174
2108	0	0.998174
2109	0	0.998174
2110	0	0.998172
2111	0	0.998172
2112	0	1
2113	0	1
2114	0	1
2115	0	1
2116	0	1
2117	0	0.98548
2118	0	0.98548
2119	0	0.9854
2120	0	0.985383
2121	0	1
2122	0	1
2123	0	1
2124	0	0.333333
2125	0	0.166667
2126	0	0.166667
2127	0	0.166667
2128	0	0.654381
2129	0	0.371795
2130	0	0.219048
2131	0	0.176471
2132	0	0.396406
2133	0	0.349676
2134	0	0.0854701
2135	0	0.0541311
2136	0	0.0650794
2137	0	0.0619048
2138	0	0.131935
2139	0	0.0758557
2140	0	0.12279
2141	0	0.156433
2142	0	0.582182
2143	0	0.407159
2144	0	0.380803
2145	0	0.388082
2146	0	0.377189
2147	0	0.291994
2148	0	0.239772
2149	0	0.420875
2150	0	0.430468
2151	0	0.430468
2152	0	0.359888
2153	0	0.363382
2154	0	0.387632
2155	0	0.271251
2156	0	0.268571
2157	0	0.334225
2158	0	0.3
2159	0	0.3
2160	0	0.254997
2161	0	0.308954
2162	0	0.184558
2163	0	0.19071
2164	0	0.215986
2165	0	0.206061
2166	0	0.222222
2167	0	0.222222
2168	0	0.195767
2169	0	0.195767
2170	0	0.195767
2171	0	0.184946
2172	0	0.0909091
2173	0	0.0909091
2174	0	0.0952381
2175	0	0.105263
2176	0	0.0830769
2177	0	0.0892308
2178	0	0.0966667
2179	0	0.0892308
2180	0	0.105072
2181	0	0.105072
2182	0	0.17029
2183	0	0.156667
2184	0	0.132275
2185	0	0.34026
2186	0	0
2187	0	0
2188	0	0
2189	0	0
2190	0	0
2191	0	0
2192	0	0.0786885
2193	0	0.169577
2194	0	0.162242
2195	0	0.245014
2196	0	0.204579
2197	0	0.207724
2198	0	0.186521
2199	0	0.194537
2200	0	0.192646
2201	0	0.125
2202	0	0.154412
2203	0	0.198529
2204	0	0.332801
2205	0	0.441734
2206	0	0.0833333
2207	0	0.076087
2208	0	0.0392157
2209	0	0.0416667
2210	0	0.025641
2211	0	0.0222222
2212	0	0.0222222
2213	0	0.0277778
2214	0	0.0357143
2215	0	0.0714286
2216	0	0.0714286
2217	0	0.0952381
2218	0	0.0952381
2219	0	0.0952381
2220	0	0.0952381
2221	0	0.0952381
2222	0	0.285714
2223	0	0.416667
2224	0	0.466667
2225	0	0.466667
2226	0	0.728571
2227	0	0.800814
2228	0	0.272059
2229	0	0.2
2230	0	0.25
2231	0	0
2232	0	0
2233	0	0
2234	0	0
2235	0	0
2236	0	0
2237	0	0
2238	0	0
2239	0	0
2240	0	0
2241	0	0
2242	0	0
2243	0	0
2244	0	0
2245	0	0
2246	0	0
2247	0	0
2248	0	0
2249	0	0
2250	0	0
2251	0	0
2252	0	0
2253	0	0
2254	0	0
2255	0	0
2256	0	0
2257	0	0
2258	0	0
2259	0	0
2260	0	0
2261	0	1
2262	0	0.543428
2263	0	0.702866
2264	0	0.143791
2265	0	0.143791
2266	0	0.204678
2267	0	0.251462
2268	0	0.362573
2269	0	0.362573
2270	0	0.362573
2271	0	0.362573
2272	0	0.376623
2273	0	0.424242
2274	0	0.839437
2275	0	0.960459
2276	0	1
2277	0	1
2278	0	0.996345
2279	0	0.998172
2280	0	0.998172
2281	0	0.998172
2282	0	0.998172
2283	0	0.998172
2284	0	0.996349
2285	0	0.996349
2286	0	1
2287	0	1
2288	0	1
2289	0	1
2290	0	1
2291	0	1
2292	0	1
2293	0	1
2294	0	1
2295	0	0.99634
2296	0	0.99634
2297	0	0.994512
2298	0	0
2299	0	0
2300	0	0
2301	0	0
2302	0	0
2303	0	0
2304	0	0
2305	0	0
2306	0	0
2307	0	0
2308	0	0
2309	1	0
2310	1	0
2311	1	0
2312	1	0
2313	0	0.996342
2314	0	0.998168
2315	0	0.998168
2316	0	0.996342
2317	0	0.996342
2318	0	0.994521
2319	0	0.994521
2320	0	0.994521
2321	0	0.996335
2322	0	0.996335
2323	0	0.996335
2324	0	0.994511
2325	0	0.994511
2326	1	0
2327	1	0
2328	1	0
2329	1	0
2330	1	0
2331	1	0
2332	1	0
2333	1	0
2334	1	0
2335	1	0
2336	1	0
2337	1	0
2338	1	0
2339	1	0
2340	1	0
2341	1	0
2342	1	0
2343	1	0
2344	1	0
2345	1	0
2346	1	0
2347	1	0
2348	1	0
2349	1	0
2350	0	0
2351	0	0.992677
2352	0	0.992677
2353	0	0.992677
2354	0	0.992677
2355	0	0.9945
2356	0	0.9945
2357	0	0
2358	0	0
2359	0	0
2360	0	0
2361	0	0
2362	0	0
2363	0	0
2364	0	0
2365	0	0
2366	0	0
2367	0	0
2368	0	0
2369	0	0
2370	0	0
2371	0	0
2372	0	0
2373	0	0.996329
2374	0	1
2375	0	1
2376	0	1
2377	0	1
2378	0	1
2379	0	0.747676
2380	0	0.720393
2381	0	0.468288
2382	0	0.369512
2383	0	0.561594
2384	0	0.707602
2385	0	0.882353
2386	0	0.6
2387	0	0.455882
2388	0	0.2
2389	0	0.2
2390	0	0.285714
2391	0	0.212121
2392	0	0.161905
2393	0	0.161905
2394	0	0.161905
2395	0	0.132353
2396	0	0.735274
2397	0	0.255411
2398	0	0.238095
2399	0	0.229437
2400	0	0.505365
2401	0	0.257576
2402	0	0.257576
2403	0	0.290909
2404	0	0.333333
2405	0	0.841019
2406	0	0.490909
2407	0	0.538462
2408	0	0.538462
2409	0	0.515152
2410	0	0.515152
2411	0	0.490909
2412	0	0.4
2413	0	0.363636
2414	0	0.307692
2415	0	0.274725
2416	0	0.257353
2417	0	0.475351
2418	0	0.350258
2419	0	0.554903
2420	0	0.956755
2421	0	0.603333
2422	0	0.947872
2423	0	0.944338
2424	0	0.819048
2425	0	0.996332
2426	0	0.998168
2427	0	0.998168
2428	0	0.998168
2429	0	0.998168
2430	0	0.998168
2431	0	0.998167
2432	0	0.998167
2433	0	0.996339
2434	0	0.992691
2435	0	0
2436	0	0.996339
2437	0	0.996339
2438	0	0.996335
2439	0	0.996332
2440	0	0.992686
2441	0	0.992686
2442	0	0.994506
2443	0	0.996332
2444	0	0.994506
2445	0	0.994506
2446	0	0.994506
2447	0	0.992677
2448	0	0
2449	0	0
2450	0	0
2451	0	0
2452	0	0
2453	0	0
2454	0	0
2455	0	0
2456	0	0
2457	0	0
2458	0	0
2459	1	1
2460	1	1
2461	1	1
2462	1	1
2463	1	1
2464	1	1
2465	1	1
2466	0	0.990827
2467	0	0.992659
2468	0	0.996332
2469	0	0.996335
2470	0	0.996335
2471	0	0.996335
2472	0	1
2473	0	0.989048
2474	0	0.990868
2475	0	0.990868
2476	0	0.989056
2477	0	0.985466
2478	0	0.985466
2479	0	0.985471
2480	0	0.985485
2481	0	0.4
2482	0	0.987278
2483	0	0.604396
2484	0	0.968442
2485	0	1
2486	1	1
2487	1	1
2488	1	1
2489	1	1
2490	1	1
2491	0	1
2492	0	1
2493	0	0.485696
2494	0	0.916556
2495	0	0.333333
2496	0	1
2497	0	0.895419
2498	0	0.56092
2499	0	0.906711
2500	0	0.69697
2501	0	0.989116
2502	0	0.990926
2503	0	0.990926
2504	0	0.990926
2505	0	0.990926
2506	0	0.990926
2507	0	0.990926
2508	0	0.990926
2509	0	0.987307
2510	0	0.617647
2511	0	1
2512	0	1
2513	0	1
2514	0	0.52381
2515	0	0.52381
2516	0	0.6
2517	0	0.6
2518	0	0.1
2519	0	0.0666667
2520	0	0.441219
2521	0	0.888653
2522	0	0.706667
2523	0	0.670996
2524	0	0.670996
2525	0	0.505495
2526	0	0.305556
2527	0	0.305556
2528	0	0.194444
2529	0	0.25
2530	0	0.25
2531	0	0.2
2532	0	0.2
2533	0	0.3
2534	0	0.3
2535	0	0.3
2536	0	0.1
2537	0	0.1
2538	0	0.1
2539	0	0.1
2540	0	0.1
2541	0	0.1
2542	0	0.166667
2543	0	0.166667
2544	0	0.166667
2545	0	0.166667
2546	0	0.166667
2547	0	0.166667
2548	0	0.166667
2549	0	0.166667
2550	0	0.166667
2551	0	0.166667
2552	0	0.166667
2553	0	0.166667
2554	0	0.166667
2555	0	0.166667
2556	0	0.166667
2557	0	0.166667
2558	0	0.333333
2559	0	0
2560	0	0
2561	0	0
2562	0	0
2563	0	0
2564	0	0
2565	0	0
2566	0	0
2567	0	0
2568	0	0
2569	0	0
2570	0	0
2571	0	0
2572	0	0
2573	0	0
2574	0	0
2575	0	0
2576	0	0
2577	0	0
2578	0	0.734481
2579	0	0.734433
2580	0	0.223188
2581	0	0.221092
2582	0	0.221092
2583	0	0.204082
2584	0	0.295391
2585	0	0.615515
2586	0	0.115385
2587	0	0.136364
2588	0	0.0909091
2589	0	0.0444444
2590	0	0.0444444
2591	0	0.0444444
2592	0	0.0384615
2593	0	0.189133
2594	0	0.181024
2595	0	0
2596	0	0
2597	0	0
2598	0	0
2599	0	0
2600	0	0
2601	0	0
2602	0	0
2603	0	0
2604	0	0
2605	0	0
2606	0	0
2607	0	0
2608	0	0
2609	0	0
2610	0	0
2611	0	0
2612	0	0
2613	0	0
2614	0	0
2615	0	0
2616	0	0
2617	0	0
2618	0	0
2619	0	0
2620	0	0.433232
2621	0	0.43006
2622	0	0.431668
2623	0	0.430125
2624	0	0.427783
2625	0	0.294118
2626	0	0.0779639
2627	0	0.0702714
2628	0	0.397431
2629	0	0.0306122
2630	0	0.567891
2631	0	0.0387893
2632	0	0.0320306
2633	0	0.0268519
2634	0	0.388439
2635	0	0.587692
2636	0	0
2637	0	0
2638	0	0
2639	0	0
2640	0	0
2641	0	0
2642	0	0
2643	0	0
2644	0	0
2645	0	0
2646	0	0
2647	0	0
2648	0	0
2649	0	0
2650	0	0
2651	0	0
2652	0	0
2653	0	0
2654	0	0
2655	0	0
2656	0	0
2657	0	0
2658	0	0
2659	0	0
2660	0	0
2661	0	0
2662	0	0
2663	0	0
2664	0	0
2665	0	0
2666	0	0
2667	0	0
2668	0	0
2669	0	0
2670	0	0
2671	0	0
2672	0	0
2673	0	0
2674	0	0
2675	0	0
2676	0	0
2677	0	0
2678	0	0
2679	0	0
2680	0	0
2681	0	0
2682	0	0
2683	0	0
2684	0	0
2685	0	0
2686	0	0
2687	0	0
2688	0	0
2689	0	0
2690	0	0
2691	0	0
2692	0	0.367424
2693	0	0.367124
2694	0	0
2695	0	0
2696	0	0
2697	0	0
2698	0	0
2699	0	0.04961
2700	0	0
2701	0	0.247287
2702	0	0.333232
2703	0	0.33103
2704	0	0
2705	0	0
2706	0	0
2707	0	0.0877193
2708	0	0.122807
2709	0	0.122807
2710	0	0.122807
2711	0	0.110526
2712	0	0.0738462
2713	0	0.0551724
2714	0	0.217391
2715	0	0.389952
2716	0	0.388157
2717	0	0.388464
2718	0	0.0354853
2719	0	0.325273
2720	0	0.451077
2721	0	0.449545
2722	0	0.0502646
2723	0	0.047619
2724	0	0.047619
2725	0	0.0608466
2726	0	0.0529101
2727	0	0.0529101
2728	0	0.59857
2729	0	0.0382456
2730	0	0.253819
2731	0	0.0242915
2732	0	0.0256046
2733	0	0.0255255
2734	0	0.0301587
2735	0	0.0301587
2736	0	0.0269841
2737	0	0.163359
2738	0	0.0220588
2739	0	0.0433566
2740	0	0.206419
2741	0	0.213786
2742	0	0.0493284
2743	0	0.0449116
2744	0	0.254667
2745	0	0.0322581
2746	0	0.0302419
2747	0	0.0473118
2748	0	0.0516129
2749	0	0.227544
2750	0	0
2751	0	0.162952
2752	0	0.0403509
2753	0	0.0431579
2754	0	0.041958
2755	0	0.041625
2756	0	0.209356
2757	0	0.209874
2758	0	0.04329
2759	0	0.038961
2760	0	0.034632
2761	0	0.0366667
2762	0	0.0366667
2763	0	0.0366667
2764	0	0.0366667
2765	0	0.04
2766	0	0.318742
2767	0	0.0529994
2768	0	0.340591
2769	0	0.617647
2770	0	0.54902
2771	0	0.118639
2772	0	0.0894309
2773	0	0.0896268
2774	0	0.269149
2775	0	0.259136
2776	0	0.269454
2777	0	0.269454
2778	0	0.246225
2779	0	0.238095
2780	0	0.203674
2781	0	0.133333
2782	0	0.130601
2783	0	0.127322
2784	0	0.128962
2785	0	0.148822
2786	0	0.0990829
2787	0	0.115992
2788	0	0.0992694
2789	0	0.0970196
2790	0	0.241667
2791	0	0.241667
2792	0	0.241667
2793	0	0.241667
2794	0	0.209524
2795	0	0.209524
2796	0	0.209524
2797	0	0.209524
2798	0	0.209524
2799	0	0.354167
2800	0	0.315966
2801	0	0.315966
2802	0	0.315966
2803	0	0.282282
2804	0	0.16604
2805	0	0.135378
2806	0	0.127976
2807	0	0.272575
2808	0	0.244003
2809	0	0.164754
2810	0	0.0936539
2811	0	0.0866905
2812	0	0.0890127
2813	0	0.0222222
2814	0	0.0277778
2815	0	0.0277778
2816	0	0.0277778
2817	0	0.0277778
2818	0	0.0277778
2819	0	0.0277778
2820	0	0.0277778
2821	0	0.0277778
2822	0	0.0277778
2823	0	0.10545
2824	0	0.0210526
2825	0	0.0157895
2826	0	0.0105263
2827	0	0.0105263
2828	0	0.0105263
2829	0	0.0105263
2830	0	0.0105263
2831	0	0.0105263
2832	0	0.0157895
2833	0	0.0157895
2834	0	0.127135
2835	0	0.116529
2836	0	0.0341763
2837	0	0.0354125
2838	0	0.0932239
2839	0	0.0826316
2840	0	0.135145
2841	0	0.150477
2842	0	0.152128
2843	0	0.140196
2844	0	0.0741157
2845	0	0.166398
2846	0	0.0531187
2847	0	0.0455487
2848	0	0.230166
2849	0	0.0776557
2850	0	0.0774115
2851	0	0.252807
2852	0	0.299034
2853	0	0.0555556
2854	0	0.0555556
2855	0	0.0555556
2856	0	0.0714286
2857	0	0.0952381
2858	0	0.133333
2859	0	0.190476
2860	0	0.190476
2861	0	0.355556
2862	0	0.355556
2863	0	0.355556
2864	0	0.355556
2865	0	0.355556
2866	0	0.355556
2867	0	0.355556
2868	0	0.355556
2869	0	0.355556
2870	0	0.155556
2871	0	0.1
2872	0	0.1
2873	0	0.1
2874	0	0.1
2875	0	0.1
2876	0	0.1
2877	0	0.1
2878	0	0.1
2879	0	0.1
2880	0	0.1
2881	0	0.266224
2882	0	0.466667
2883	0	0.466667
2884	0	0.454338
2885	0	0.525875
2886	0	0.772535
2887	0	0.421053
2888	0	0.532308
2889	0	0.430288
2890	0	0.265594
2891	0	0.287694
2892	0	0.316973
2893	0	0.310908
2894	0	0.333051
2895	0	0.381818
2896	0	0.381818
2897	0	0.381818
2898	0	0.381818
2899	0	0.381818
2900	0	0.422277
2901	0	0.0449603
2902	0	0.0289562
2903	0	0.382282
2904	0	0
2905	0	0
2906	0	0
2907	0	0
2908	0	0
2909	0	0
2910	0	0
2911	0	0
2912	0	0
2913	0	0
2914	0	0
2915	0	0.333333
2916	0	0.272727
2917	0	0.0857143
2918	0	0.585289
2919	0	0.0745968
2920	0	0.078629
2921	0	0.0887097
2922	0	0.0833333
2923	0	0.0738636
2924	0	0.211667
2925	0	0.444632
2926	0	0.331305
2927	0	0.533864
2928	0	0.0797203
2929	0	0.0843254
2930	0	0.381818
2931	0	0.381818
2932	0	0.381818
2933	0	0.381818
2934	0	0.381818
2935	0	0.381818
2936	0	0.599156
2937	0	0.607088
2938	0	0.6204
2939	0	0.372727
2940	0	0.0285714
2941	0	0.0222222
2942	0	0.0222222
2943	0	0.0222222
2944	0	0.0181818
2945	0	0.0181818
2946	0	0.0181818
2947	0	0.0181818
2948	0	0.0181818
2949	0	0.0181818
2950	0	0.0181818
2951	0	0.0181818
2952	0	0.0181818
2953	0	0.0181818
2954	0	0.0181818
2955	0	0.0181818
2956	0	0.030303
2957	0	0.0166667
2958	0	0.580393
2959	0	0.324243
2960	0	0.223903
2961	0	0.1
2962	0	0.1
2963	0	0.1
2964	0	0.0666667
2965	0	0.0666667
2966	0	0.0666667
2967	0	0
2968	0	0
2969	0	0
2970	0	0
2971	0	0
2972	0	0.0357143
2973	0	0.24183
2974	0	0.234043
2975	0	0.274588
2976	0	0.217483
2977	0	0.0444444
2978	0	0.0454106
2979	0	0.602669
2980	0	0.134135
2981	0	0.495097
2982	0	0.520077
2983	0	0.230063
2984	0	0.467925
2985	0	0.465612
2986	0	0.463548
2987	0	0
2988	0	0
2989	0	0.127647
2990	0	0.118431
2991	0	0.436147
2992	0	0.12381
2993	0	0.12381
2994	0	0.12381
2995	0	0.12381
2996	0	0.12381
2997	0	0.273993
2998	0	0.377185
2999	0	0.0873469
3000	0	0.0865306
3001	0	0.0865306
3002	0	0.238359
3003	0	0.231327
3004	0	1
3005	0	0
3006	0	0
3007	0	0
3008	0	0
3009	0	0
3010	0	0
3011	0	0
3012	0	0
3013	0	0
3014	0	0
3015	1	0
3016	1	0
3017	1	0
3018	1	0
3019	1	0
3020	1	0
3021	1	0
3022	1	0
3023	1	0
3024	1	0
3025	1	0
3026	1	0
3027	1	0
3028	1	0
3029	1	0
3030	1	0
3031	1	0
3032	1	0
3033	1	0
3034	1	0
3035	1	0
3036	1	0
3037	1	0
3038	1	0
3039	1	0
3040	1	0
3041	1	0
3042	1	0
3043	1	0
3044	0	0
3045	0	0
3046	0	0
3047	0	0
3048	0	0.3
3049	0	0.190476
3050	0	0.190476
3051	0	0.47619
3052	0	0.47619
3053	0	0.47619
3054	0	0.47619
3055	0	0.47619
3056	0	0.47619
3057	0	0.535714
3058	0	0.535714
3059	0	0.416667
3060	0	0.416667
3061	0	0.333333
3062	0	0.272727
3063	0	0.667183
3064	0	0.556427
3065	0	0.298035
3066	0	0.243768
3067	0	0.217891
3068	0	0.222848
3069	0	0.393162
3070	0	0.393162
3071	0	0.60393
3072	0	0.656763
3073	0	0.674455
3074	0	0.701235
3075	0	0.69257
3076	0	0.166667
3077	0	0.214286
3078	0	0.214286
3079	0	0.214286
3080	0	0.214286
3081	0	0.214286
3082	0	0.214286
3083	0	0.285714
3084	0	0.285714
3085	0	0.285714
3086	0	0.285714
3087	0	0.285714
3088	0	0.285714
3089	0	0.285714
3090	0	0.285714
3091	0	0.452774
3092	0	0.465036
3093	0	0.0964361
3094	0	0.33662
3095	0	0.0618401
3096	0	0.0587002
3097	0	0.0492063
3098	0	0.451397
3099	0	0.230791
3100	0	0.171429
3101	0	0.209563
3102	0	0.206188
3103	0	0.047619
3104	0	0.047619
3105	0	0.0666667
3106	0	0.0666667
3107	0	0.047619
3108	0	0.0666667
3109	0	0.047619
3110	0	0.199516
3111	0	0
3112	0	0.0403727
3113	0	0.0517044
3114	0	0.27802
3115	0	0.31322
3116	0	0.100392
3117	0	0.129699
3118	0	0.467492
3119	0	0.471272
3120	0	0.131108
3121	0	0.0904762
3122	0	0.100246
3123	0	0.101649
3124	0	0.0598007
3125	0	0.451153
3126	0	0.506948
3127	0	0.48174
3128	0	0.457449
3129	0	0.482759
3130	0	0.0685017
3131	0	0.196983
3132	0	0.164158
3133	0	0.243967
3134	0	0.104762
3135	0	0.043956
3136	0	0.134501
3137	0	0.213765
3138	0	0.14398
3139	0	0.105495
3140	0	0.203408
3141	0	0.154683
3142	0	0.146817
3143	0	0.146098
3144	0	0.131444
3145	0	0.249231
3146	0	0.275362
3147	0	0.275362
3148	0	0.275362
3149	0	0.530481
3150	0	0.485294
3151	0	0.485294
3152	0	0.485294
3153	0	0.485294
3154	0	0.485294
3155	0	0
3156	0	0
3157	0	0
3158	0	0
3159	0	0
3160	0	0
3161	0	0
3162	0	0
3163	0	0
3164	0	0.165413
3165	0	0
3166	0	0
3167	0	0.0484397
3168	0	0.107201
3169	0	0.6
3170	0	0.6
3171	0	0.122274
3172	0	0.5
3173	0	1
3174	0	1
3175	0	1
3176	0	0.136394
3177	0	0.0261044
3178	0	0.14931
3179	0	0
3180	0	0
3181	0	0.269231
3182	0	0.269231
3183	0	0.269231
3184	0	0.202614
3185	0	0.840166
3186	0	0.789845
3187	0	0.107143
3188	0	0.203406
3189	0	0.0666667
3190	0	0.0666667
3191	0	0.311125
3192	0	0.350855
3193	0	0.301823
3194	0	0.0583333
3195	0	0
3196	0	0
3197	0	0.0666667
3198	0	0.0871326
3199	0	0.0385174
3200	0	0.0802605
3201	0	0.0777001
3202	0	0
3203	0	0
3204	0	0.0842105
3205	0	0.0842105
3206	0	0.0842105
3207	0	0.0842105
3208	0	0.269026
3209	0	0.214964
3210	0	0.189655
3211	0	0.142857
3212	0	0.142857
3213	0	0.142857
3214	0	0.142857
3215	0	0.142857
3216	0	0.142857
3217	0	0.197802
3218	0	0.111111
3219	0	0.218462
3220	0	0.431452
3221	0	0.143014
3222	0	0.148315
3223	0	0
3224	0	0
3225	0	0
3226	0	0.0468927
3227	0	0.0480226
3228	0	0.10224
3229	0	0.115505
3230	0	0.10899
3231	0	0.109091
3232	0	0.109091
3233	0	0.109091
3234	0	0.138889
3235	0	0.12301
3236	0	0.121842
3237	0	0.144295
3238	0	0.0693901
3239	0	0.151156
3240	0	0.153623
3241	0	0.194236
3242	0	0
3243	0	0
3244	0	0
3245	0	0
3246	0	0
3247	0	0.0222222
3248	0	0.030303
3249	0	0.030303
3250	0	0.030303
3251	0	0.0996297
3252	0	0.0866142
3253	0	0.0665174
3254	0	0.025641
3255	0	0.0646478
3256	0	0.0442485
3257	0	0.0491812
3258	0	0.047486
3259	0	0.043216
3260	0	0.039432
3261	0	0.307692
3262	0	0.24183
3263	0	0
3264	0	0.333333
3265	0	0.166667
3266	0	0
3267	0	0
3268	0	0
3269	0	0.209524
3270	0	0.318681
3271	0	0
3272	0	0
3273	0	0
3274	0	0
3275	0	0.205128
3276	0	0.202249
3277	0	0
3278	0	0
3279	0	0.0430001
3280	0	0.0456998
3281	0	0.0479253
3282	0	0.676471
3283	0	0.676471
3284	0	0.676471
3285	0	0.676471
3286	0	0.676471
3287	0	0.676471
3288	0	0.676471
3289	0	0.601307
3290	0	0.0417393
3291	0	0.0409195
3292	0	0.0423473
3293	0	0.0416741
3294	0	0.0407733
3295	0	0.0379801
3296	0	0.025461
3297	0	0.0248704
3298	0	0.0292947
3299	0	0.5
3300	0	0.5
3301	0	0.5
3302	0	1
3303	0	0.5
3304	0	0.0261084
3305	0	0.583333
3306	0	0.583333
3307	0	0.0247191
3308	0	0.024493
3309	0	1
3310	0	0.067194
3311	0	0.0666667
3312	0	0.0666667
3313	0	0.1
3314	0	0.166667
3315	0	0.166667
3316	0	0.166667
3317	0	0.166667
3318	0	0.166667
3319	0	0.166667
3320	0	0.166667
3321	0	0.166667
3322	0	0.166667
3323	0	0.174089
3324	0	0.168971
3325	0	0.163194
3326	0	0.333333
3327	0	0.166667
3328	0	0.0668654
3329	0	0.0640911
3330	0	0
3331	0	0
3332	0	0
3333	0	0
3334	0	0
3335	0	0
3336	0	0
3337	0	0
3338	0	0
3339	0	0
3340	0	0
3341	0	0
3342	0	0
3343	0	0
3344	0	0
3345	0	0
3346	0	0
3347	0	0
3348	0	0
3349	0	0
3350	0	0
3351	0	0
3352	0	0
3353	0	0
3354	0	0
3355	0	0
3356	0	0
3357	0	0
3358	0	0
3359	0	0
3360	0	0
3361	0	0
3362	0	0
3363	0	0
3364	0	0
3365	0	0
3366	0	0
3367	0	0
3368	0	0
3369	0	0.0894405
3370	0	0.0571429
3371	0	0.0636076
3372	0	0.138032
3373	0	0.0909091
3374	0	0.125727
3375	0	0.180952
3376	0	0.180952
3377	0	0.272727
3378	0	0.19697
3379	0	0.142857
3380	0	0.142857
3381	0	0.0511727
3382	0	0.108006
3383	0	0.110497
3384	0	0.122397
3385	0	0.139701
3386	0	0.17402
3387	0	0.180582
3388	0	0.2
3389	0	0.2
3390	0	0.2
3391	0	0.2
3392	0	1
3393	0	0
3394	0	0
3395	0	0
3396	0	0
3397	0	0
3398	0	0
3399	0	0
3400	0	0
3401	0	0
3402	0	0
3403	0	0
3404	0	0
3405	0	1
3406	0	1
3407	0	1
3408	0	1
3409	0	1
3410	0	1
3411	0	1
3412	0	1
3413	0	1
3414	0	1
3415	0	1
3416	0	1
3417	0	1
3418	0	1
3419	0	1
3420	0	1
3421	0	1
3422	0	1
3423	0	0.0501411
3424	0	0.0471014
3425	0	0.0434783
3426	0	0.0519481
3427	0	0.0519481
3428	0	0.0497508
3429	0	0.0753045
3430	0	0.0686869
3431	0	0.0367861
3432	0	0.0354124
3433	0	0.0373431
3434	0	0.040053
3435	0	0.0387928
3436	0	0.0371564
3437	0	0.0409854
3438	0	0.0467402
3439	0	0.0398551
3440	0	0.0362319
3441	0	0.0362319
3442	0	0.0237154
3443	0	0.0499158
3444	0	0.3
3445	0	0.3
3446	0	0
3447	0	0
3448	0	0.3
3449	0	0
3450	0	0.0545499
3451	0	0.064914
3452	0	0.0802374
3453	0	0.0499419
3454	0	0.0483642
3455	0	0.047619
3456	0	0.0502646
3457	0	0.047619
3458	0	0.047619
3459	0	0.0449735
3460	0	0.0449735
3461	0	0.0408163
3462	0	0.0434397
3463	0	0.0434783
3464	0	0.134692
3465	0	0.19799
3466	0	0.0304278
3467	0	0.0417167
3468	0	0.0964865
3469	0	0.0568082
3470	0	0.0479036
3471	0	0.0649626
3472	0	0.0675367
3473	0	0.0663388
3474	0	0.0754798
3475	0	0.0767257
3476	0	0.133512
3477	0	0.222902
3478	0	0.043956
3479	0	0.043956
3480	0	0.043956
3481	0	0.0222222
3482	0	0.0222222
3483	0	0.0277778
3484	0	0.216749
3485	0	0.202299
3486	0	0.197701
3487	0	0.306667
3488	0	0.21348
3489	0	0.0727549
3490	0	0
3491	0	0
3492	0	0
3493	0	0
3494	0	0
3495	0	0
3496	0	0
3497	0	0
3498	0	0.047619
3499	0	0.185143
3500	0	0.211809
3501	0	0.208955
3502	0	0.0790514
3503	0	0.125
3504	0	0.125
3505	0	0.125
3506	0	0.125
3507	0	0.125
3508	0	0.125
3509	0	0.083004
3510	0	0.296292
3511	0	0.0768015
3512	0	0.271549
3513	0	0.271846
3514	0	0.0266667
3515	0	0.0233333
3516	0	0.0266667
3517	0	0.362528
3518	0	0.358074
3519	0	0
3520	0	0
3521	0	0
3522	0	0
3523	0	0
3524	0	0
3525	0	0
3526	0	0
3527	0	0
3528	0	0
3529	0	0.142857
3530	0	0.142857
3531	0	0.383142
3532	0	0.297476
3533	0	0.135882
3534	0	0.142277
3535	0	0.238095
3536	0	0.238095
3537	0	0.138802
3538	0	0.044335
3539	0	0.046798
3540	0	0.0591133
3541	0	0.164499
3542	0	0.0606061
3543	0	0.0641026
3544	0	0.0641026
3545	0	0.0641026
3546	0	0.0769231
3547	0	0.144478
3548	0	0.130416
3549	0	0.132225
3550	0	0.138982
3551	0	0.134691
3552	0	0.16333
3553	0	0.160613
3554	0	0.188992
3555	0	0.0672936
3556	0	0.0702703
3557	0	0.0685714
3558	0	0.0705706
3559	0	0.0689655
3560	0	0.450444
3561	0	0.08
3562	0	0.0641026
3563	0	0.0606061
3564	0	0.0606061
3565	0	0.0454545
3566	0	0.0909091
3567	0	0.0769231
3568	0	0.0384615
3569	0	0.0384615
3570	0	0.0833333
3571	0	0.132353
3572	0	0.382796
3573	0	0.409195
3574	0	0.409195
3575	0	0.170437
3576	0	0.171946
3577	0	0.174891
3578	0	0.174891
3579	0	0.177068
3580	0	0.177068
3581	0	0.211841
3582	0	0.218316
3583	0	0.213705
3584	0	0.278226
3585	0	0.376068
3586	0	0.183333
3587	0	0.203704
3588	0	0.203704
3589	0	0.19943
3590	0	0.179894
3591	0	0.250207
3592	0	0.281469
3593	0	0.293843
3594	0	0.261535
3595	0	0.0760234
3596	0	0.0760234
3597	0	0.104762
3598	0	0.104762
3599	0	0.0769231
3600	0	0.0769231
3601	0	0.0769231
3602	0	0.0588235
3603	0	0.189135
3604	0	0.182084
3605	0	1
3606	0	1
3607	0	1
3608	0	0.0663871
3609	0	0.0635919
3610	0	0.067086
3611	0	0.18515
3612	0	0.269512
3613	0	0.280944
3614	0	0.0675511
3615	0	0.0732802
3616	0	0.108763
3617	0	0.108269
3618	0	0.1086
3619	0	0.106101
3620	0	0.34923
3621	0	0.501052
3622	0	0.498865
3623	0	0.154562
3624	0	0.168665
3625	0	0.156463
3626	0	0.440766
3627	0	0.444829
3628	0	0.439599
3629	0	0.528986
3630	0	0.443
3631	0	0.244233
3632	0	0.29209
3633	0	0.21645
3634	0	0.174511
3635	0	0.211041
3636	0	0.842902
3637	0	0.62439
3638	0	0.702439
3639	0	0.714286
3640	0	0.714286
3641	0	0.714286
3642	0	1
3643	0	1
3644	0	1
3645	0	1
3646	0	1
3647	0	0.960109
3648	0	0.977708
3649	0	0.980019
3650	0	0.980055
3651	0	0.980055
3652	0	0.981893
3653	0	0.983681
3654	0	0.983681
3655	0	0.983681
3656	0	0.985475
3657	0	0
3658	0	0
3659	0	0
3660	0	0
3661	0	0
3662	0	0
3663	0	0
3664	0	0
3665	0	0
3666	0	0
3667	0	0
3668	0	0
3669	0	0
3670	0	0
3671	0	0
3672	0	0
3673	0	0
3674	0	0
3675	0	0
3676	0	0
3677	0	0
3678	0	0
3679	0	0
3680	0	0
3681	0	0
3682	0	0
3683	0	0
3684	0	0
3685	0	0
3686	0	0
3687	0	0
3688	0	0
3689	0	0
3690	0	0
3691	0	0
3692	0	0
3693	0	0
3694	0	0
3695	0	0
3696	0	0
3697	0	0
3698	0	0
3699	0	0
3700	0	0
3701	0	0
3702	0	0
3703	0	0
3704	0	0
3705	0	0
3706	0	0
3707	0	0
3708	0	0
3709	0	0
3710	0	0
3711	0	0
3712	0	0
3713	0	0
3714	0	0
3715	0	0
3716	0	0
3717	0	0.981909
3718	0	0.981909
3719	0	0.981909
3720	0	0.981909
3721	0	0.981909
3722	0	0.981909
3723	0	0.981909
3724	0	0
3725	0	0
3726	0	0
3727	0	0
3728	0	0
3729	0	0
3730	0	0.987261
3731	0	0.987261
3732	0	0.987261
3733	0	0
3734	0	0
3735	0	0
3736	0	0
3737	0	0
3738	0	0
3739	0	0
3740	0	0
3741	0	0
3742	0	0.985461
3743	0	0.985461
3744	0	0
3745	0	0
3746	0	0
3747	0	0
3748	0	0
3749	0	0
3750	0	0
3751	0	0
3752	0	0
3753	0	0
3754	0	0
3755	0	0
3756	0	0
3757	0	0.979836
3758	0	1
3759	0	1
3760	0	0.464286
3761	0	0.428571
3762	0	0.428571
3763	0	0.428571
3764	0	0.296703
3765	0	0.178571
3766	0	1
3767	0	1
3768	0	1
3769	0	1
3770	0	1
3771	0	1
3772	0	1
3773	0	1
3774	0	1
3775	0	1
3776	0	1
3777	0	1
3778	0	1
3779	0	1
3780	0	1
3781	0	1
3782	0	1
3783	0	1
3784	0	0
3785	0	0.0714286
3786	0	0.867318
3787	0	0
3788	0	0
3789	0	0
3790	0	0.333333
3791	0	0.732804
3792	0	0.402116
3793	0	0.271636
3794	0	0.176582
3795	0	0.733657
3796	0	1
3797	0	1
3798	0	1
3799	0	0.781538
3800	0	0.786325
3801	0	0.786325
3802	0	0.691954
3803	0	0.393902
3804	0	0.166667
3805	0	0.166667
3806	0	0.1
3807	0	0.1
3808	0	0.1
3809	0	0.1
3810	0	0.0952381
3811	0	0.0833333
3812	0	0.0666667
3813	0	0.27619
3814	0	0.295238
3815	0	0.407729
3816	0	0.412581
3817	0	0.307018
3818	0	0.366386
3819	0	0.438268
3820	0	0.460603
3821	0	0.489831
3822	0	0.50789
3823	0	0.0659341
3824	0	0.0909091
3825	0	0.0952381
3826	0	0.1
3827	0	0.1
3828	0	0.166667
3829	0	0.166667
3830	0	0.166667
3831	0	0.166667
3832	0	0.166667
3833	0	0.166667
3834	0	0.166667
3835	0	0.333333
3836	0	0.333333
3837	0	0.333333
3838	0	1
3839	0	1
3840	0	1
3841	0	1
3842	0	1
3843	0	1
3844	0	1
3845	0	1
3846	0	1
3847	0	1
3848	0	1
3849	0	1
3850	0	0.48456
3851	0	0.876829
3852	0	0.876924
3853	0	0.876925
3854	0	0.20915
3855	0	0.20915
3856	0	0.22807
3857	0	0.247368
3858	0	0.881344
3859	0	0.910709
3860	0	0.832218
3861	0	0.125
3862	0	0.25
3863	0	0.466667
3864	0	1
3865	0	1
3866	0	0.929248
3867	0	0.486166
3868	0	0.969075
3869	0	0.974563
3870	0	0
3871	0	0
3872	0	0
3873	0	1
3874	0	1
3875	0	1
3876	0	1
3877	0	1
3878	0	0.987226
3879	0	0.987226
3880	0	0.987261
3881	0	0
3882	0	0
3883	0	0
3884	0	0
3885	0	0
3886	0	0
3887	0	0
3888	0	0
3889	0	0
3890	0	0
3891	0	0
3892	0	0
3893	0	0
3894	0	0
3895	0	0
3896	0	0
3897	0	0
3898	0	0
3899	0	0
3900	0	0
3901	0	0
3902	0	0
3903	0	0
3904	0	0.989046
3905	0	0
3906	0	0
3907	0	0
3908	0	0
3909	0	0
3910	0	0
3911	0	0
3912	0	0
3913	0	0
3914	0	0
3915	0	0
3916	0	0
3917	0	0
3918	0	0
3919	0	0
3920	0	0
3921	0	0
3922	0	0
3923	0	0
3924	0	0
3925	0	0
3926	0	0
3927	0	0
3928	0	0
3929	0	0
3930	0	0
3931	0	0
3932	0	0
3933	0	0
3934	0	0
3935	0	0
3936	0	0
3937	0	0
3938	0	0
3939	0	0
3940	0	0
3941	1	0
3942	1	0
3943	0	0
3944	0	0
3945	0	0
3946	0	0
3947	0	0
3948	0	0
3949	0	0
3950	0	0
3951	0	0
3952	0	0
3953	0	0.990859
3954	0	0.990859
3955	0	0.990851
3956	0	0.990851
3957	0	0.990851
3958	0	0
3959	0	0
3960	1	0
3961	0	0
3962	0	0
3963	0	0
3964	0	0
3965	0	0
3966	0	0
3967	0	0
3968	0	0
3969	0	0
3970	0	0
3971	0	0
3972	0	0
3973	0	0
3974	0	0
3975	0	0
3976	0	0
3977	0	0
3978	0	0
3979	0	0
3980	0	0
3981	0	0
3982	0	0
3983	0	0
3984	0	0
3985	0	0
3986	0	0.985408
3987	0	0.985408
3988	0	0.983622
3989	0	0.983637
3990	0	0.983637
3991	0	0.985435
3992	0	0.985435
3993	0	0.985435
3994	0	0.985435
3995	0	0.983651
3996	0	0.98545
3997	0	0.985463
3998	0	0.987263
3999	0	0.987263
4000	0	0
4001	0	0
4002	0	0
4003	0	0
4004	0	0
4005	0	0
4006	0	0
4007	0	0
4008	0	0.985448
4009	0	0.98186
4010	0	0.983666
4011	0	0.981876
4012	0	0.981876
4013	0	0.981876
4014	0	0.535714
4015	0	0.97102
4016	0	0.935484
4017	0	0.935484
4018	0	1
4019	0	0.88718
4020	0	0.892407
4021	0	1
4022	0	0.507353
4023	0	0.529412
4024	0	0.295238
4025	0	0.274538
4026	0	0.319783
4027	0	0.236595
4028	0	0.727679
4029	0	0.177778
4030	0	0.155556
4031	0	0.183228
4032	0	0.171828
4033	0	0.243695
4034	0	0
4035	0	0
4036	0	0
4037	0	0
4038	0	0
4039	0	0
4040	0	0
4041	0	0
4042	0	0
4043	0	0
4044	0	0
4045	0	0
4046	0	0.315894
4047	0	0
4048	0	0
4049	0	0.421849
4050	0	0.266667
4051	0	0.384946
4052	0	0.401681
4053	0	0.435294
4054	0	0.428571
4055	0	0.375
4056	0	0.274854
4057	0	0.274854
4058	0	0.219373
4059	0	0.233618
4060	0	0.23545
4061	0	0.440422
4062	0	0.296948
4063	0	0.326842
4064	0	0.516466
4065	0	0.629818
4066	0	0.700853
4067	0	0.707384
4068	0	0.967213
4069	0	0.509573
4070	0	0.823945
4071	0	0.256616
4072	0	0.271148
4073	0	0.245143
4074	0	0.277778
4075	0	0.316722
4076	0	0.443333
4077	0	0.857143
4078	0	0.857143
4079	0	1
4080	0	1
4081	0	0.985475
4082	0	0.985475
4083	0	0.985475
4084	0	0.985475
4085	0	0.985475
4086	0	0.985475
4087	0	0.985475
4088	0	0.985475
4089	0	0.983681
4090	0	0
4091	0	0
4092	0	0
4093	0	0
4094	0	0
4095	0	0
4096	0	0
4097	0	0
4098	0	0
4099	0	0
4100	0	0
4101	0	0
4102	0	0
4103	0	0.989066
4104	0	0.987261
4105	0	0.987261
4106	0	0.989066
4107	0	0
4108	0	0
4109	0	0
4110	0	0
4111	0	0
4112	0	0
4113	0	0
4114	0	0
4115	0	0
4116	0	0
4117	0	0
4118	0	0.985422
4119	0	0.985422
4120	0	0.985422
4121	0	0.985422
4122	0	0.981794
4123	0	0.981794
4124	0	0.976353
4125	0	1
4126	0	0.985368
4127	0	0
4128	0	0.976391
4129	0	0.98181
4130	0	0.980019
4131	0	0.98181
4132	0	0
4133	0	0
4134	0	0
4135	0	0
4136	0	0
4137	0	0
4138	0	0
4139	0	0
4140	0	0
4141	0	0
4142	0	0
4143	0	0
4144	0	0
4145	0	0
4146	0	0
4147	0	0
4148	0	0.1
4149	0	0.0666667
4150	0	0.0666667
4151	0	0.0666667
4152	0	0.0666667
4153	0	0.0666667
4154	0	0.0666667
4155	0	0.0666667
4156	0	0
4157	0	0
4158	0	0.2
4159	0	0.142857
4160	0	0.107143
4161	0	0.107143
4162	0	0.107143
4163	0	0.107143
4164	0	0.107143
4165	0	0.107143
4166	0	0.214286
4167	0	0.512992
4168	0	0.0444444
4169	0	0.0555556
4170	0	0
4171	0	0
4172	0	0
4173	0	0
4174	0	0
4175	0	0
4176	0	0
4177	0	0
4178	0	0.975958
4179	0	0.988863
4180	0	0
4181	0	0
4182	0	0
4183	0	0
4184	0	0
4185	0	0
4186	0	0
4187	0	0
4188	0	0
4189	0	0
4190	0	0
4191	0	0
4192	0	0
4193	0	0
4194	0	0
4195	0	0
4196	0	0
4197	0	0
4198	0	0
4199	0	0
4200	1	0
4201	1	0
4202	1	0
4203	1	0
4204	0	0
4205	0	0
4206	0	0
4207	0	0
4208	0	0
4209	0	0
4210	0	0
4211	0	0
4212	0	0
4213	0	0
4214	0	0
4215	0	0
4216	0	0
4217	0	0
4218	0	0
4219	0	0
4220	0	0
4221	0	0
4222	0	0
4223	0	0
4224	0	0
4225	0	0
4226	0	0
4227	0	0
4228	0	0
4229	0	0
4230	0	0
4231	0	0
4232	0	0
4233	0	0
4234	0	0
4235	0	0
4236	0	0
4237	0	0
4238	0	0
4239	0	0
4240	0	0
4241	0	0
4242	0	0
4243	0	0
4244	0	0
4245	0	0
4246	0	0
4247	0	0
4248	0	0
4249	0	0
4250	0	0
4251	0	0
4252	0	0
4253	0	0
4254	0	0
4255	0	0
4256	0	0
4257	0	0
4258	0	0
4259	0	0
4260	0	0
4261	0	0
4262	0	0
4263	0	0
4264	0	0
4265	0	0.985192
4266	0	0.985192
4267	0	0.985192
4268	0	0.985192
4269	0	0.985192
4270	0	0
4271	0	0
4272	0	0
4273	0	0
4274	0	0
4275	0	0.979724
4276	0	0.979726
4277	0	0.981542
4278	0	0.333333
4279	0	0.333333
4280	0	0.333333
4281	0	0.333333
4282	0	0.333333
4283	0	0.2
4284	0	0.2
4285	0	0.384615
4286	0	0.318681
4287	0	0.318681
4288	0	0.318681
4289	0	0.318681
4290	0	0.27619
4291	0	0.241667
4292	0	0.150327
4293	0	0.955746
4294	0	0.950881
4295	0	0
4296	0	0.333333
4297	0	0.333333
4298	0	0.333333
4299	0	0.333333
4300	0	0.333333
4301	0	0.333333
4302	0	0.166667
4303	0	0.934848
4304	0	0
4305	0	0
4306	0	0
4307	0	0
4308	0	0
4309	0	0
4310	0	0
4311	0	0
4312	0	0
4313	0	0
4314	1	0
4315	0	0
4316	0	0
4317	0	0
4318	0	0
4319	0	0
4320	0	0
4321	0	0
4322	0	0
4323	0	0
4324	0	0
4325	0	0
4326	0	0
4327	0	0
4328	0	0
4329	0	0
4330	0	0
4331	0	0
4332	0	0
4333	0	0
4334	0	0
4335	0	0
4336	0	0
4337	0	0
4338	0	0
4339	0	0
4340	0	0
4341	1	0
4342	1	0
4343	1	0
4344	1	0
4345	1	0
4346	1	0
4347	1	0
4348	1	0
4349	1	0
4350	1	0
4351	1	0
4352	1	0
4353	1	0
4354	1	0
4355	1	0
4356	1	0
4357	1	0
4358	1	0
4359	1	0
4360	1	0
4361	1	0
4362	0	0
4363	0	0
4364	0	0
4365	0	0
4366	0	0
4367	0	0
4368	0	0
4369	0	0
4370	0	0
4371	0	0
4372	0	0
4373	0	0
4374	0	0
4375	0	0
4376	0	0
4377	1	0
4378	1	0
4379	1	0
4380	1	0
4381	1	0
4382	1	0
4383	1	0
4384	1	0
4385	1	0
4386	1	0
4387	1	0
4388	0	0
4389	0	0
4390	1	0
4391	1	0
4392	1	0
4393	1	0
4394	1	0
4395	1	0
4396	1	0
4397	1	0
4398	1	0
4399	1	0
4400	0	0
4401	0	0
4402	0	0
4403	0	0
4404	0	0
4405	0	0
4406	0	0
4407	0	0
4408	0	0
4409	0	0
4410	0	0
4411	0	0
4412	0	0
4413	0	0
4414	0	0
4415	0	0
4416	1	0
4417	0	0
4418	0	0
4419	0	0
4420	0	0
4421	0	0
4422	0	0
4423	0	0
4424	0	0
4425	0	0
4426	0	0
4427	0	0
4428	0	0
4429	0	0
4430	0	0
4431	0	0
4432	0	0
4433	0	0
4434	0	0
4435	0	0
4436	0	0
4437	0	0
4438	0	0
4439	0	0
4440	0	0
4441	0	0
4442	0	0
4443	0	0.333333
4444	0	0.333333
4445	0	0.333333
4446	0	0.333333
4447	0	0.333333
4448	0	0.333333
4449	0	0.333333
4450	0	0.333333
4451	0	0.333333
4452	0	0.333333
4453	0	0.889982
4454	0	0.861968
4455	0	0.810256
4456	0	0.752239
4457	0	0.714428
4458	0	0.674382
4459	0	0.512137
4460	0	0.244262
4461	0	0.203779
4462	0	0.20339
4463	0	0.151049
4464	0	0.299443
4465	0	0.202762
4466	0	0.325743
4467	0	0.324962
4468	0	0.324608
4469	0	0.282817
4470	0	0.197645
4471	0	0.169201
4472	0	0.10717
4473	0	0.12404
4474	0	0.180592
4475	0	0.0606061
4476	0	0.0649351
4477	0	0.0562771
4478	0	0.0562771
4479	0	0.04329
4480	0	0.0434783
4481	0	0.04
4482	0	0.0398551
4483	0	0.0434783
4484	0	0.0434783
4485	0	0.042735
4486	0	0.042735
4487	0	0.176075
4488	0	0.172349
4489	0	0.108677
4490	0	0.132384
4491	0	0.180651
4492	0	0.143939
4493	0	0.083004
4494	0	0.106719
4495	0	0.05
4496	0	0.0441176
4497	0	0.0441176
4498	0	0.770333
4499	0	0.120879
4500	0	0.175824
4501	0	0.198319
4502	0	0.418895
4503	0	0.1
4504	0	0.1
4505	0	0.1
4506	0	0.1
4507	0	0.1
4508	0	0.1
4509	0	0.1
4510	0	0.1
4511	0	0.1
4512	0	0.1
4513	0	0.1
4514	0	0.1
4515	0	0.1
4516	0	0.1
4517	0	0.1
4518	0	0.1
4519	0	0.1
4520	0	0.1
4521	0	0.1
4522	0	0.1
4523	0	0.1
4524	0	0.1
4525	0	0.1
4526	0	0.1
4527	0	0.1
4528	0	0.1
4529	0	0.1
4530	0	0.1
4531	0	0.1
4532	0	0.142857
4533	0	0.142857
4534	0	0.142857
4535	0	0.429952
4536	0	0.56979
4537	0	0.635746
4538	0	0
4539	0	0.0277778
4540	0	0
4541	0	0
4542	0	0
4543	0	0
4544	0	0
4545	0	0
4546	0	0
4547	0	0
4548	0	0
4549	0	0
4550	0	0
4551	0	0
4552	0	0
4553	0	0
4554	0	0
4555	0	0
4556	0	0
4557	0	0
4558	0	0
4559	0	0
4560	0	0
4561	0	0
4562	0	0
4563	0	0
4564	0	0
4565	0	0
4566	0	0
4567	0	0
4568	0	0
4569	0	0
4570	0	0
4571	0	0
4572	0	0
4573	0	0
4574	0	0
4575	0	0
4576	0	0
4577	0	0
4578	0	0
4579	0	0
4580	0	0
4581	0	0
4582	0	0
4583	0	0
4584	0	0
4585	0	0
4586	0	0
4587	0	0
4588	0	0
4589	0	0
4590	0	0
4591	0	0
4592	0	0
4593	0	0
4594	0	1
4595	0	1
4596	0	1
4597	0	1
4598	0	1
4599	0	1
4600	0	1
4601	0	1
4602	0	1
4603	0	1
4604	0	0.718095
4605	0	0.15
4606	0	0.15
4607	0	0.274725
4608	0	0.274725
4609	0	0.274725
4610	0	0.604396
4611	0	0.264493
4612	0	0.604396
4613	0	0.604396
4614	0	0.604396
4615	0	0.790496
4616	0	0
4617	0	0
4618	0	0
4619	0	0
4620	0	0
4621	0	0
4622	0	0
4623	0	0
4624	0	0
4625	0	0
4626	0	0.333333
4627	0	0.333333
4628	0	0.333333
4629	0	0.333333
4630	0	0.333333
4631	0	0
4632	0	0
4633	0	0
4634	0	0
4635	0	0
4636	0	0
4637	0	0
4638	0	0
4639	0	0
4640	0	0
4641	0	0
4642	0	0
4643	0	0
4644	0	0
4645	0	0
4646	0	0
4647	0	0
4648	0	0
4649	0	0.95946
4650	0	0.142857
4651	0	0.1
4652	0	0.1
4653	0	0
4654	0	0
4655	0	0
4656	0	0
4657	0	0
4658	0	0
4659	0	0
4660	0	0
4661	0	0.966845
4662	0	0.968673
4663	0	1
4664	0	1
4665	0	0.970489
4666	0	0.968685
4667	0	0.966886
4668	0	0.966886
4669	0	0.98149
4670	0	0.946587
4671	0	0.594311
4672	0	0.981508
4673	0	0
4674	0	0
4675	0	0
4676	0	0.985151
4677	0	0.985151
4678	0	0.985151
4679	0	0
4680	0	0.959658
4681	0	0.959658
4682	0	0.959658
4683	0	0.957878
4684	0	0
4685	0	0
4686	0	0
4687	0	0
4688	0	0
4689	0	0
4690	0	0
4691	0	0
4692	0	0
4693	0	0
4694	0	0
4695	0	0
4696	0	0
4697	0	0
4698	0	0
4699	0	0
4700	0	0
4701	0	0
4702	0	0
4703	0	0
4704	0	0
4705	0	0
4706	0	0
4707	0	0
4708	0	0
4709	0	0
4710	0	0
4711	0	0
4712	0	0
4713	0	0
4714	0	0
4715	1	1
4716	0	1
4717	0	1
4718	0	1
4719	0	0.333333
4720	0	0.974186
4721	0	0.97967
4722	0	0.981509
4723	0	0.979688
4724	0	0.979707
4725	0	0.979688
4726	0	1
4727	0	1
4728	0	1
4729	0	1
4730	0	1
4731	0	1
4732	0	1
4733	0	1
4734	0	1
4735	1	1
4736	1	1
4737	1	1
4738	0	1
4739	0	0
4740	0	0
4741	0	0
4742	0	0
4743	0	0
4744	0	0
4745	0	0
4746	0	0
4747	0	0
4748	0	0
4749	0	0
4750	0	0
4751	0	0
4752	0	0
4753	0	0
4754	0	0
4755	0	0
4756	0	0
4757	0	0
4758	0	0
4759	0	0
4760	0	0
4761	0	0
4762	0	0
4763	0	0
4764	0	0
4765	0	0
4766	0	0
4767	0	0
4768	0	0
4769	0	0
4770	0	0
4771	0	0
4772	0	0
4773	0	0
4774	0	0
4775	0	0
4776	0	0
4777	0	0
4778	0	0
4779	0	0
4780	0	0
4781	0	0
4782	0	0
4783	0	0
4784	0	0
4785	0	0
4786	0	0
4787	0	0
4788	0	0
4789	0	0
4790	0	0
4791	0	0.1
4792	0	0.1
4793	0	0.1
4794	0	0.1
4795	0	0.1
4796	0	0.1
4797	0	0.3
4798	0	0.3
4799	0	0.190476
4800	0	0.190476
4801	0	0.190476
4802	0	0.190476
4803	0	0.190476
4804	0	0.190476
4805	0	0.190476
4806	0	0.190476
4807	0	0.25
4808	0	0.25
4809	0	0.25
4810	0	0.25
4811	0	0.25
4812	0	0.25
4813	0	0.25
4814	0	0.25
4815	0	0.25
4816	0	0.25
4817	0	0.535714
4818	0	0.535714
4819	0	0.535714
4820	0	0.535714
4821	0	0.535714
4822	0	0.535714
4823	0	0.535714
4824	0	0.535714
4825	0	0.535714
4826	0	0.535714
4827	0	0.535714
4828	0	0.535714
4829	0	0.535714
4830	0	0.535714
4831	0	0.535714
4832	0	0.535714
4833	0	0.416667
4834	0	0.416667
4835	0	0.416667
4836	0	0.416667
4837	0	0.416667
4838	0	0.416667
4839	0	0.416667
4840	0	0.416667
4841	0	0.416667
4842	0	0.966835
4843	0	0.966804
4844	0	0.963149
4845	0	0
4846	0	0
4847	0	0
4848	0	0
4849	0	0
4850	0	0
4851	0	0
4852	0	0
4853	0	0
4854	0	0
4855	0	0
4856	0	0
4857	0	0
4858	0	0
4859	0	0
4860	0	0
4861	0	0
4862	0	0
4863	0	0
4864	0	0
4865	0	0
4866	0	0
4867	0	0
4868	0	0
4869	0	0
4870	0	0
4871	0	0
4872	0	0
4873	0	0
4874	0	0
4875	0	0
4876	0	0
4877	0	0
4878	0	0
4879	0	0
4880	0	0
4881	0	0
4882	0	0
4883	0	0
4884	0	0
4885	0	0
4886	0	0
4887	0	0
4888	0	0
4889	0	0
4890	0	0
4891	0	0
4892	0	0
4893	0	0
4894	0	0
4895	0	0
4896	0	0
4897	0	0
4898	0	0
4899	0	0
4900	0	0
4901	0	0
4902	0	0
4903	0	0
4904	0	0
4905	0	0
4906	0	0
4907	0	0
4908	0	0
4909	0	0
4910	0	0
4911	0	0
4912	0	0
4913	0	0
4914	0	0
4915	0	0
4916	0	0
4917	0	0
4918	0	0
4919	0	0
4920	0	0
4921	0	0
4922	0	0
4923	0	0
4924	0	0
4925	0	0
4926	0	0
4927	0	0
4928	0	0
4929	0	0
4930	0	0
4931	0	0
4932	0	0
4933	0	0
4934	0	0
4935	0	0
4936	0	0
4937	0	0
4938	0	0
4939	0	0
4940	0	0
4941	0	0
4942	0	0
4943	0	0
4944	0	0
4945	0	0
4946	0	0
4947	0	0
4948	0	0
4949	0	0
4950	0	0
4951	0	0
4952	0	0
4953	0	0
4954	0	0
4955	0	0
4956	0	0
4957	0	0
4958	0	0
4959	0	0
4960	0	0.964813
4961	0	0.96478
4962	0	0.962979
4963	0	0.95386
4964	0	0.950146
4965	0	0.951971
4966	0	0
4967	0	0
4968	0	0
4969	0	0
4970	0	0
4971	0	0
4972	0	0
4973	0	0
4974	0	0
4975	0	0
4976	0	0
4977	0	0
4978	0	0
4979	0	0
4980	0	0.959175
4981	0	0.535714
4982	0	0.535714
4983	0	0.535714
4984	0	0.535714
4985	0	0.535714
4986	0	0.535714
4987	0	0.535714
4988	0	0.535714
4989	0	0.535714
4990	0	0.535714
4991	0	0.535714
4992	0	0.535714
4993	0	0.535714
4994	0	0.535714
4995	0	0.535714
4996	0	0.416667
4997	0	0.416667
4998	0	0.416667
4999	0	0.416667
5000	0	0.416667
5001	0	0.416667
5002	0	0.416667
5003	0	0.416667
5004	0	0.416667
5005	0	0.416667
5006	0	0.416667
5007	0	0.416667
5008	0	0.416667
5009	0	0.416667
5010	0	0.416667
5011	0	0.416667
5012	0	0.416667
5013	0	0.416667
5014	0	0.416667
5015	0	0.416667
5016	0	0.416667
5017	0	0.333333
5018	0	0.333333
5019	0	0.333333
5020	0	0.333333
5021	0	0.416667
5022	0	0.416667
5023	0	0.416667
5024	0	0.416667
5025	0	0.416667
5026	0	0.416667
5027	0	0.416667
5028	0	0.416667
5029	0	0.416667
5030	0	0.416667
5031	0	0.416667
5032	0	0.416667
5033	0	0.416667
5034	0	0.416667
5035	0	0.416667
5036	0	0.416667
5037	0	0.416667
5038	0	0.416667
5039	0	0.416667
5040	0	0.416667
5041	0	0.416667
5042	0	0.416667
5043	0	0.416667
5044	0	0.416667
5045	0	0.955463
5046	0	0
5047	0	0
5048	0	0
5049	0	0
5050	0	0
5051	0	0
5052	0	0
5053	0	0
5054	0	0
5055	0	0
5056	0	0.932794
5057	0	0
5058	0	0
5059	0	0
5060	0	0
5061	0	0
5062	0	0
5063	0	0
5064	0	0
5065	0	0
5066	0	0
5067	0	0
5068	0	0
5069	0	0
5070	0	0.941176
5071	0	0.882018
5072	0	0.107143
5073	0	0.107143
5074	0	0.0952381
5075	0	0.928217
5076	0	0.928144
5077	0	0.205882
5078	0	0.4
5079	0	0.4
5080	0	0.926376
5081	0	0.926308
5082	0	0.926308
5083	0	0.371795
5084	0	0.371795
5085	0	0.933631
5086	0	0
5087	0	0
5088	0	0
5089	0	0
5090	0	0
5091	0	0
5092	0	0
5093	0	0
5094	0	0
5095	0	0
5096	0	0
5097	0	0
5098	0	0
5099	0	0
5100	0	0
5101	0	0
5102	0	0
5103	0	0
5104	0	0
5105	0	0
5106	0	0
5107	0	0
5108	0	0
5109	0	0
5110	0	0
5111	0	0
5112	0	0
5113	0	0
5114	0	0
5115	0	0
5116	0	0
5117	0	0
5118	0	0
5119	0	0
5120	0	0
5121	0	0
5122	0	0
5123	0	0
5124	0	0
5125	0	0
5126	0	0
5127	0	0
5128	0	0
5129	0	0
5130	0	0
5131	0	0
5132	0	0
5133	0	0
5134	0	0
5135	0	0
5136	0	0
5137	0	0
5138	0	0
5139	0	0
5140	0	0
5141	0	0
5142	0	0
5143	0	0
5144	0	0
5145	0	0
5146	0	0
5147	0	0
5148	0	0
5149	0	0
5150	0	0
5151	0	0
5152	0	0
5153	0	0
5154	0	0
5155	0	0
5156	0	0
5157	0	0
5158	0	0
5159	0	0
5160	0	0
5161	0	0
5162	0	0
5163	0	0
5164	0	0
5165	0	0
5166	0	0
5167	0	0
5168	0	0
5169	0	0
5170	0	0
5171	0	0
5172	0	0
5173	0	0
5174	0	0
5175	0	0
5176	0	0
5177	0	0
5178	0	0
5179	0	0
5180	0	0
5181	0	0
5182	0	0
5183	0	0
5184	0	0
5185	0	0
5186	0	0
5187	0	0
5188	0	0
5189	0	0
5190	0	0
5191	0	0
5192	0	0
5193	0	0
5194	0	0
5195	0	0
5196	0	0
5197	0	0
5198	0	0
5199	0	0
5200	0	0
5201	0	0
5202	0	0
5203	0	0
5204	0	0
5205	0	0
5206	0	0
5207	0	0
5208	0	0
5209	0	0
5210	0	0
5211	0	0
5212	0	0
5213	0	0
5214	0	0
5215	0	0
5216	0	0
5217	0	0
5218	0	0
5219	0	0
5220	0	0
5221	0	0
5222	0	0
5223	0	0
5224	0	0
5225	0	0
5226	0	0
5227	0	0
5228	0	0
5229	0	0
5230	0	0
5231	0	0
5232	0	0
5233	0	0
5234	0	0
5235	0	0
5236	0	0
5237	0	0
5238	0	0
5239	0	0
5240	0	0
5241	0	0
5242	0	0
5243	0	0
5244	0	0
5245	0	0
5246	0	0
5247	0	0
5248	0	0
5249	0	0
5250	0	0
5251	0	0
5252	0	0
5253	0	0
5254	0	0
5255	0	0
5256	0	0
5257	0	0
5258	0	0
5259	0	0
5260	0	0
5261	0	0
5262	0	0
5263	0	0
5264	0	0
5265	0	0
5266	0	0
5267	0	0
5268	0	0
5269	0	0
5270	0	0
5271	0	0
5272	0	0
5273	0	0
5274	0	0
5275	0	0
5276	0	0
5277	0	0
5278	0	0
5279	0	0
5280	0	0
5281	0	0
5282	0	0
5283	0	0
5284	0	0
5285	0	0
5286	0	0
5287	0	0
5288	0	0
5289	0	0
5290	0	0
5291	0	0
5292	0	0
5293	0	0
5294	0	0
5295	0	0
5296	0	0
5297	0	0
5298	0	0
5299	0	0
5300	0	0
5301	0	0
5302	0	0
5303	0	0
5304	0	0
5305	0	0
5306	0	0
5307	0	0
5308	0	0
5309	0	0
5310	0	0
5311	0	0
5312	0	0
5313	0	0
5314	0	0
5315	0	0
5316	0	0
5317	0	0
5318	0	0
5319	0	0
5320	0	0
5321	0	0
5322	0	0
5323	0	0
5324	0	0
5325	0	0
5326	0	0
5327	0	0
5328	0	0
5329	0	0
5330	0	0
5331	0	0
5332	0	0
5333	0	0
5334	0	0
5335	0	0
5336	0	0
5337	0	0
5338	0	0
5339	0	0
5340	0	0
5341	0	0
5342	0	0
5343	0	0
5344	0	0
5345	0	0
5346	0	0
5347	0	0
5348	0	0
5349	0	0
5350	0	0
5351	0	0
5352	0	0
5353	0	0
5354	0	0
5355	0	0
5356	0	0
5357	0	0
5358	0	0
5359	0	0
5360	0	0
5361	0	0
5362	0	0
5363	0	0
5364	0	0
5365	0	0
5366	0	0
5367	0	0
5368	0	0
5369	0	0
5370	0	0
5371	0	0
5372	0	0
5373	0	0
5374	0	0
5375	0	0
5376	0	0
5377	0	0
5378	0	0
5379	0	0
5380	0	0
5381	0	0
5382	0	0
5383	0	0
5384	0	0
5385	0	0
5386	0	0
5387	0	0
5388	0	0
5389	0	0
5390	0	0
5391	0	0
5392	0	0
5393	0	0
5394	0	0
5395	0	0
5396	0	0
5397	0	0
5398	0	0
5399	0	0
5400	0	0
5401	0	0
5402	0	0
5403	0	0
5404	0	0
5405	0	0
5406	0	0
5407	0	0
5408	0	0
5409	0	0
5410	0	0
5411	0	0
5412	0	0
5413	0	0
5414	0	0
5415	0	0
5416	0	0
5417	0	0
5418	0	0
5419	0	0
5420	0	0
5421	0	0
5422	0	0
5423	0	0
5424	0	0
5425	0	0
5426	0	0
5427	0	0
5428	0	0
5429	0	0
5430	0	0
5431	0	0
5432	0	0
5433	0	0
5434	0	0
5435	0	0
5436	0	0
5437	0	0
5438	0	0
5439	0	0
5440	0	0
5441	0	0
5442	0	0
5443	0	0
5444	0	0
5445	0	0
5446	0	0
5447	0	0
5448	0	0
5449	0	0
5450	0	0
5451	0	0
5452	0	0
5453	0	0
5454	0	0
5455	0	0
5456	0	0
5457	0	0
5458	0	0
5459	0	0
5460	0	0
5461	0	0
5462	0	0
5463	0	0
5464	0	0
5465	0	0
5466	0	0
5467	0	0
5468	0	0
5469	0	0
5470	0	0
5471	0	0
5472	0	0
5473	0	0
5474	0	0
5475	0	0
5476	0	0
5477	0	0
5478	0	0
5479	0	0
5480	0	0
5481	0	0
5482	0	0
5483	0	0
5484	0	0
5485	0	0
5486	0	0
5487	0	0
5488	0	0
5489	0	0
5490	0	0
5491	0	0
5492	0	0
5493	1	0
5494	1	0
5495	0	0
5496	0	0
5497	0	0
5498	0	0
5499	0	0
5500	0	0
5501	0	0
5502	0	0
5503	0	0
5504	1	0
5505	1	0
5506	0	0
5507	0	0
5508	0	0
5509	0	0
5510	0	0
5511	0	0
5512	0	0
5513	0	0
5514	0	0
5515	1	0
5516	1	0
5517	1	0
5518	1	0
5519	1	0
5520	0	0
5521	0	0
5522	0	0
5523	0	0
5524	0	0
5525	0	0
5526	0	0
5527	0	0
5528	0	0
5529	0	0
5530	0	0
5531	0	0
5532	0	0
5533	0	0
5534	0	0.714286
5535	0	0.714286
5536	0	0.714286
5537	0	0.714286
5538	0	0.714286
5539	0	0.714286
5540	0	0.714286
5541	0	0.714286
5542	0	0.714286
5543	0	0.714286
5544	0	0.714286
5545	0	0.714286
5546	0	0.714286
5547	0	0.714286
5548	0	0.714286
5549	0	0.714286
5550	0	0.714286
5551	0	0.714286
5552	0	0.714286
5553	0	0.714286
5554	0	0.714286
5555	0	0.714286
5556	0	0.714286
5557	0	0.714286
5558	0	0.714286
5559	0	0.714286
5560	0	0.714286
5561	0	0.714286
5562	0	0.714286
5563	0	0.714286
5564	0	0.714286
5565	0	0.714286
5566	0	0.714286
5567	0	0.714286
5568	0	0.714286
5569	0	0.714286
5570	0	0.714286
5571	0	0.714286
5572	0	0.714286
5573	0	0.714286
5574	0	0.714286
5575	0	0.714286
5576	0	0.714286
5577	0	0.714286
5578	0	0.714286
5579	0	0.714286
5580	0	0.714286
5581	0	0.714286
5582	0	0.714286
5583	0	0.714286
5584	0	0.714286
5585	0	0.714286
5586	0	0.714286
5587	0	0.714286
5588	0	0.714286
5589	0	0.714286
5590	0	0.714286
5591	0	0.714286
5592	0	0.714286
5593	0	0.714286
5594	0	0.714286
5595	0	0.714286
5596	0	0.714286
5597	0	0.714286
5598	0	0.714286
5599	0	0.714286
5600	0	0.714286
5601	0	0.714286
5602	0	0.714286
5603	0	0.714286
5604	0	0.714286
5605	0	0.714286
5606	0	0.714286
5607	0	0.714286
5608	0	0.714286
5609	0	0.714286
5610	0	0.714286
5611	0	0.714286
5612	0	0.714286
5613	0	0.714286
5614	0	0.714286
5615	0	0.714286
5616	0	0.714286
5617	0	0.714286
5618	0	0.714286
5619	0	0.714286
5620	0	0.535714
5621	0	0.535714
5622	0	0.535714
5623	0	0.535714
5624	0	0.535714
5625	0	0.535714
5626	0	0.535714
5627	0	0.535714
5628	0	0.416667
5629	0	0.416667
5630	0	0.416667
5631	0	0.416667
5632	0	0.416667
5633	0	0.416667
5634	0	0.416667
5635	0	0.416667
5636	0	0.416667
5637	0	0.416667
5638	0	0.416667
5639	0	0.416667
5640	0	0.416667
5641	0	0.416667
5642	0	0.416667
5643	0	0.416667
5644	0	0.416667
5645	0	0.416667
5646	0	0.416667
5647	0	0.416667
5648	0	0.416667
5649	0	0.416667
5650	0	0.416667
5651	0	0.416667
5652	0	0.416667
5653	0	0.416667
5654	0	0.416667
5655	0	0.416667
5656	0	0.416667
5657	0	0.333333
5658	0	0.272727
5659	0	0.272727
5660	0	0.272727
5661	0	0.272727
5662	0	0.272727
5663	0	0.272727
5664	0	0.272727
5665	0	0.272727
5666	0	0.272727
5667	0	0.272727
5668	0	0.272727
5669	0	0.951298
5670	0	0
5671	0	0
5672	0	0
5673	0	0
5674	0	0
5675	0	0
5676	0	0
5677	0	0
5678	0	0
5679	0	0
5680	0	0
5681	0	0
5682	0	0
5683	0	0.940782
5684	0	0.940782
5685	0	0
5686	0	0
5687	0	0
5688	0	0
5689	0	0
5690	0	0
5691	0	0
5692	0	0
5693	0	0
5694	0	0
5695	0	0
5696	0	0
5697	0	0
5698	0	0
5699	0	0
5700	0	0
5701	0	0.939124
5702	0	0.937421
5703	0	0.937421
5704	0	0.272727
5705	0	0.333333
5706	0	0.333333
5707	0	0.416667
5708	0	0.416667
5709	0	0.416667
5710	0	0.416667
5711	0	0.416667
5712	0	0.416667
5713	0	0.416667
5714	0	0.416667
5715	0	0.416667
5716	0	0.333333
5717	0	0.333333
5718	0	0.333333
5719	0	0.333333
5720	0	0.333333
5721	0	0.355556
5722	0	0.355556
5723	0	0.355556
5724	0	0.355556
5725	0	0.355556
5726	0	0.355556
5727	0	0.355556
5728	0	0.355556
5729	0	0.355556
5730	0	0.355556
5731	0	0.355556
5732	0	0.355556
5733	0	0.355556
5734	0	0.355556
5735	0	0.355556
5736	0	0.355556
5737	0	0.355556
5738	0	0.355556
5739	0	0.355556
5740	0	0.355556
5741	0	0.355556
5742	0	0.355556
5743	0	0.355556
5744	0	0.355556
5745	0	0.355556
5746	0	0.355556
5747	0	0.355556
5748	0	0.355556
5749	0	0.355556
5750	0	0.290909
5751	0	0.290909
5752	0	0.290909
5753	0	0.290909
5754	0	0.290909
5755	0	0.208791
5756	0	0.166667
5757	0	0.136842
5758	0	0.91411
5759	0	0.352381
5760	0	0.352381
5761	0	0.272059
5762	0	0.553599
5763	0	0.490595
5764	0	0.56797
5765	0	0.373219
5766	0	0.27619
5767	0	0.2
5768	0	0.153846
5769	0	0.153846
5770	0	0.613275
5771	0	0.3561
5772	0	0.457374
5773	0	0.597801
5774	0	0.601481
5775	0	0.32971
5776	0	0.308591
5777	0	0.252525
5778	0	0.25122
5779	0	0.25122
5780	0	0.278003
5781	0	0.12
5782	0	0.108696
5783	0	0.118577
5784	0	0.118577
5785	0	0.12987
5786	0	0.12987
5787	0	0.104575
5788	0	0.117647
5789	0	0.117647
5790	0	0.117647
5791	0	0.117647
5792	0	0.104575
5793	0	0.104575
5794	0	0.0980392
5795	0	0.0980392
5796	0	0.0980392
5797	0	0.104575
5798	0	0.104575
5799	0	0.0980392
5800	0	0.0980392
5801	0	0.0980392
5802	0	0.0980392
5803	0	0.0980392
5804	0	0.0980392
5805	0	0.110294
5806	0	0.110294
5807	0	0.110294
5808	0	0.110294
5809	0	0.110294
5810	0	0.110294
5811	0	0.110294
5812	0	0.110294
5813	0	0.110294
5814	0	0.110294
5815	0	0.110294
5816	0	0.110294
5817	0	0.110294
5818	0	0.110294
5819	0	0.110294
5820	0	0.110294
5821	0	0.125
5822	0	0.125
5823	0	0.125
5824	0	0.125
5825	0	0.133333
5826	0	0.133333
5827	0	0.133333
5828	0	0.0222222
5829	0	0.0222222
5830	0	0.0222222
5831	0	0.0222222
5832	0	0.0222222
5833	0	0.0222222
5834	0	0.0222222
5835	0	0.0222222
5836	0	0.0222222
5837	0	0.0277778
5838	0	0.0555556
5839	0	0.0555556
5840	0	0.0555556
5841	0	0.0555556
5842	0	0.0555556
5843	0	0.0555556
5844	0	0.0555556
5845	0	0.0714286
5846	0	0.0714286
5847	0	0.0714286
5848	0	0.0714286
5849	0	0.0714286
5850	0	0.0714286
5851	0	0.0714286
5852	0	0.0357143
5853	0	0.0357143
5854	0	0.0357143
5855	0	0.0357143
5856	0	0.0357143
5857	0	0.0357143
5858	0	0.0357143
5859	0	0.0357143
5860	0	0.0357143
5861	0	0.0357143
5862	0	0.0357143
5863	0	0.0357143
5864	0	0.0357143
5865	0	0.0357143
5866	0	0.0357143
5867	0	0.0357143
5868	0	0.0357143
5869	0	0.0357143
5870	0	0.0357143
5871	0	0.0357143
5872	0	0.0357143
5873	0	0.0357143
5874	0	0.0357143
5875	0	0.0357143
5876	0	0.0357143
5877	0	0.0357143
5878	0	0.0357143
5879	0	0.0357143
5880	0	0.0714286
5881	0	0.0714286
5882	0	0.0714286
5883	0	0.0714286
5884	0	0.0714286
5885	0	0.0714286
5886	0	0.0357143
5887	0	0.0357143
5888	0	0.0357143
5889	0	0.0357143
5890	0	0.0357143
5891	0	0.0357143
5892	0	0.0357143
5893	0	0.0357143
5894	0	0.0357143
5895	0	0.0357143
5896	0	0.0357143
5897	0	0.0357143
5898	0	0.0357143
5899	0	0.0357143
5900	0	0.0357143
5901	0	0.0357143
5902	0	0.0357143
5903	0	0.0357143
5904	0	0.0357143
5905	0	0.0357143
5906	0	0.0357143
5907	0	0.0357143
5908	0	0
5909	0	0
5910	0	0
5911	0	0
5912	0	0
5913	0	0
5914	0	0
5915	0	0
5916	0	0
5917	0	0
5918	0	0
5919	0	0
5920	0	0
5921	0	0
5922	0	0
5923	0	0
5924	0	0
5925	0	0
5926	0	0
5927	0	0
5928	0	0
5929	0	0
5930	0	0
5931	0	0
5932	0	0
5933	0	0
5934	0	0
5935	0	0
5936	0	0
5937	0	0
5938	0	0
5939	0	0
5940	0	0
5941	0	0
5942	0	0
5943	0	0
5944	0	0
5945	0	0
5946	0	0
5947	0	0
5948	0	0
5949	0	0
5950	0	0
5951	0	0
5952	0	0
5953	0	0
5954	0	0
5955	0	0
5956	0	0
5957	0	0
5958	0	0
5959	0	0
5960	0	0
5961	0	0
5962	0	0
5963	0	0
5964	0	0
5965	0	0
5966	0	0
5967	0	0
5968	0	0
5969	0	0
5970	0	0
5971	0	0
5972	0	0
5973	0	0
5974	0	0
5975	0	0
5976	0	0
5977	0	0
5978	0	0
5979	0	0
5980	0	0
5981	0	0
5982	0	0
5983	0	0
5984	0	0
5985	0	0
5986	0	0
5987	0	0
5988	0	0
5989	0	0
5990	0	0
5991	0	0
5992	0	0
5993	0	0
5994	0	0
5995	0	0
5996	0	0
5997	0	0
5998	0	0
5999	0	0
6000	0	0
6001	0	0
6002	0	0
6003	0	0
6004	0	0
6005	0	0
6006	0	0
6007	0	0
6008	0	0
6009	0	0
6010	0	0
6011	0	0
6012	0	0
6013	0	0
6014	0	0
6015	0	0
6016	0	0
6017	0	0
6018	0	0
6019	0	0
6020	0	0
6021	0	0
6022	0	0
6023	0	0
6024	0	0
6025	0	0
6026	0	0
6027	0	0
6028	0	0
6029	0	0
6030	0	0
6031	0	0
6032	0	0
6033	0	0
6034	0	0
6035	0	0
6036	0	0
6037	0	0
6038	0	0
6039	0	0
6040	0	0
6041	0	0
6042	0	0
6043	0	0
6044	0	0
6045	0	0
6046	0	0
6047	0	0
6048	0	0
6049	0	0
6050	0	0
6051	0	0
6052	0	0
6053	0	0
6054	0	0
6055	0	0
6056	0	0
6057	0	0
6058	0	0
6059	0	0
6060	0	0
6061	0	0
6062	0	0
6063	0	0
6064	0	0
6065	0	0
6066	0	0
6067	0	0
6068	0	0
6069	0	0
6070	0	0
6071	0	0
6072	0	0
6073	0	0
6074	0	0
6075	0	0
6076	0	0
6077	0	0
6078	0	0
6079	0	0
6080	0	0
6081	0	0
6082	0	0
6083	0	0
6084	0	0
6085	0	0
6086	0	0
6087	0	0
6088	0	0
6089	0	0
6090	0	0
6091	0	0
6092	0	0
6093	0	0
6094	0	0
6095	0	0
6096	0	0
6097	0	0
6098	0	0
6099	0	0
6100	0	0
6101	0	0
6102	0	0
6103	0	0
6104	0	0
6105	0	0
6106	0	0
6107	0	0
6108	0	0
6109	0	0
6110	0	0
6111	0	0
6112	0	0
6113	0	0
6114	0	0
6115	0	0
6116	0	0
6117	0	0
6118	0	0
6119	0	0
6120	0	0
6121	0	0
6122	0	0
6123	0	0
6124	0	0
6125	0	0
6126	0	0
6127	0	0
6128	0	0
6129	0	0
6130	0	0
6131	0	0
6132	0	0
6133	0	0
6134	0	0
6135	0	0
6136	0	0
6137	0	0
6138	0	0
6139	0	0
6140	0	0
6141	0	0
6142	0	0
6143	0	0
6144	0	0
6145	0	0
6146	0	0
6147	0	0
6148	0	0
6149	0	0
6150	0	0
6151	0	0
6152	0	0
6153	0	0
6154	0	0
6155	0	0
6156	0	0
6157	0	0
6158	0	0
6159	0	0
6160	0	0
6161	0	0
6162	0	0
6163	0	0
6164	0	0
6165	0	0
6166	0	0
6167	0	0
6168	0	0
6169	0	0
6170	0	0
6171	0	0
6172	0	0
6173	0	0
6174	0	0
6175	0	0
6176	0	0
6177	0	0
6178	0	0
6179	0	0
6180	0	0
6181	0	0
6182	0	0
6183	0	0
6184	0	0
6185	0	0
6186	0	0
6187	0	0
6188	0	0
6189	0	0
6190	0	0
6191	0	0
6192	0	0
6193	0	0
6194	0	0
6195	0	0
6196	0	0
6197	0	0
6198	0	0
6199	0	0
6200	0	0
6201	0	0
6202	0	0
6203	0	0
6204	0	0
6205	0	0
6206	0	0
6207	0	0
6208	0	0
6209	0	0
6210	0	0
6211	0	0
6212	0	0
6213	0	0
6214	0	0
6215	0	0
6216	0	0
6217	0	0
6218	0	0
6219	0	0
6220	0	0
6221	0	0
6222	0	0
6223	0	0
6224	0	0
6225	0	0
6226	0	0
6227	0	0
6228	0	0
6229	0	0
6230	0	0
6231	0	0
6232	0	0
6233	0	0
6234	0	0
6235	0	0
6236	0	0
6237	0	0
6238	0	0
6239	0	0
6240	0	0
6241	0	0
6242	0	0
6243	0	0
6244	0	0
6245	0	0
6246	0	0
6247	0	0
6248	0	0
6249	0	0
6250	0	0
6251	0	0
6252	0	0
6253	0	0
6254	0	0
6255	0	0
6256	0	0
6257	0	0
6258	0	0
6259	0	0
6260	0	0
6261	0	0
6262	0	0
6263	0	0
6264	0	0
6265	0	0
6266	0	0
6267	0	0
6268	0	0
6269	0	0
6270	0	0
6271	0	0
6272	0	0
6273	0	0
6274	0	0
6275	0	0
6276	0	0
6277	0	0
6278	0	0
6279	0	0
6280	0	0
6281	0	0
6282	0	0
6283	0	0
6284	0	0
6285	0	0
6286	0	0
6287	0	0
6288	0	0
6289	0	0
6290	0	0
6291	0	0
6292	0	0
6293	0	0
6294	0	0
6295	0	0
6296	0	0
6297	0	0
6298	0	0
6299	0	0
6300	0	0
6301	0	0
6302	0	0
6303	0	0
6304	0	0
6305	0	0
6306	0	0
6307	0	0
6308	0	0
6309	0	0
6310	0	0
6311	0	0
6312	0	0
6313	0	0
6314	0	0
6315	0	0
6316	0	0
6317	0	0
6318	0	0
6319	0	0
6320	0	0
6321	0	0
6322	0	0
6323	0	0
6324	0	0
6325	0	0
6326	0	0
6327	0	0
6328	0	0
6329	0	0
6330	0	0
6331	0	0
6332	0	0
6333	0	0
6334	0	0
6335	0	0
6336	0	0
6337	0	0
6338	0	0
6339	0	0
6340	0	0
6341	0	0
6342	0	0
6343	0	0
6344	0	0
6345	0	0
6346	0	0
6347	0	0
6348	0	0
6349	0	0
6350	0	0
6351	0	0
6352	0	0
6353	0	0
6354	0	0
6355	0	0
6356	0	0
6357	0	0
6358	0	0
6359	0	0
6360	0	0
6361	0	0
6362	0	0
6363	0	0
6364	0	0
6365	0	0
6366	0	0
6367	0	0
6368	0	0
6369	0	0
6370	0	0
6371	0	0
6372	0	0
6373	0	0
6374	0	0
6375	0	0
6376	0	0
6377	0	0
6378	0	0
6379	0	0
6380	0	0
6381	0	0
6382	0	0
6383	0	0
6384	0	0
6385	0	0
6386	0	0
6387	0	0
6388	0	0
6389	0	0
6390	0	0
6391	0	0
6392	0	0
6393	0	0
6394	0	0
6395	0	0
6396	0	0
6397	0	0
6398	0	0
6399	0	0
6400	0	0
6401	0	0
6402	0	0
6403	0	0
6404	0	0
6405	0	0
6406	0	0
6407	0	0
6408	0	0
6409	0	0
6410	0	0
6411	0	0
6412	0	0
6413	0	0
6414	0	0
6415	0	0
6416	0	0
6417	0	0
6418	0	0
6419	0	0
6420	0	0
6421	0	0
6422	0	0
6423	0	0
6424	0	0
6425	0	0
6426	0	0
6427	0	0
6428	0	0
6429	0	0
6430	0	0
6431	0	0
6432	0	0
6433	0	0
6434	0	0
6435	0	0
6436	0	0
6437	0	0
6438	0	0
6439	0	0
6440	0	0
6441	0	0
6442	0	0
6443	0	0
6444	0	0
6445	0	0
6446	0	0
6447	0	0
6448	0	0
6449	0	0
6450	0	0
6451	0	0
6452	0	0
6453	0	0
6454	0	0
6455	0	0
6456	0	0
6457	0	0
6458	0	0
6459	0	0
6460	0	0
6461	0	0
6462	0	0
6463	0	0
6464	0	0
6465	0	0
6466	0	0
6467	0	0
