Site	ColumnScore	SumOfPairsScore
1	1	0
2	1	0
3	1	0
4	1	0
5	1	0
6	1	0
7	1	0
8	1	0
9	1	0
10	1	0
11	1	0
12	1	0
13	1	0
14	1	0
15	1	0
16	1	0
17	1	0
18	1	0
19	1	0
20	1	0
21	1	0
22	1	0
23	1	0
24	1	0
25	1	0
26	1	0
27	1	0
28	1	0
29	0	0
30	0	0
31	0	0
32	0	0
33	0	0
34	0	0
35	0	0
36	0	0
37	1	0
38	0	0
39	0	0
40	0	0
41	0	0
42	0	0
43	0	0
44	0	0
45	0	0
46	0	0
47	0	0
48	0	0
49	0	0
50	0	0
51	0	0
52	0	0
53	0	0
54	0	0
55	0	0
56	1	0
57	1	0
58	1	0
59	1	0
60	1	0
61	1	0
62	1	0
63	0	0
64	0	0
65	0	0
66	0	0
67	0	0
68	1	0
69	0	0
70	0	0
71	0	0
72	0	0
73	0	0
74	0	0
75	0	0
76	0	0
77	0	0
78	0	0
79	0	0
80	0	0
81	0	0
82	0	0
83	0	0
84	0	0
85	0	0
86	0	0
87	0	0
88	0	0
89	0	0
90	0	0
91	0	0
92	0	0
93	0	0
94	0	0
95	0	0
96	0	0
97	0	0
98	0	0
99	0	0
100	0	0
101	0	0
102	0	0
103	0	0
104	0	0
105	0	0
106	0	0
107	0	0
108	0	0
109	1	0
110	1	0
111	0	0
112	0	0
113	0	0
114	0	0
115	0	0
116	0	0
117	0	0
118	0	0
119	0	0
120	0	0
121	0	0
122	0	0
123	0	0
124	0	0
125	0	0
126	0	0
127	0	0
128	0	0
129	0	0
130	0	0
131	0	0
132	0	0
133	0	0
134	0	0
135	0	0
136	0	0
137	0	0
138	0	0
139	0	0
140	0	0
141	0	0
142	0	0
143	0	0
144	0	0
145	0	0
146	0	0
147	0	0
148	0	0
149	0	0
150	0	0
151	0	0
152	0	0
153	0	0
154	0	0
155	0	0
156	0	0
157	0	0
158	0	0
159	0	0
160	0	0
161	0	0
162	0	0
163	0	0
164	0	0
165	0	0
166	0	0
167	0	0
168	0	0
169	0	0
170	0	0
171	0	0
172	0	0
173	0	0
174	0	0
175	0	0
176	0	0
177	0	0
178	0	0
179	0	0
180	0	0
181	0	0
182	0	0
183	0	0
184	0	0
185	0	0
186	0	0
187	0	0
188	0	0
189	0	0
190	0	0
191	0	0
192	0	0
193	0	0
194	0	0
195	0	0
196	0	0
197	0	0
198	0	0
199	0	0
200	0	0
201	0	0
202	0	0
203	0	0
204	0	0
205	0	0
206	0	0
207	0	0
208	0	0
209	0	0
210	0	0
211	0	0
212	0	0
213	0	0
214	0	0
215	0	0
216	0	0
217	0	0
218	0	0
219	0	0
220	0	0
221	0	0
222	0	0
223	0	0
224	0	0
225	0	0
226	0	0
227	0	0
228	0	0
229	0	0
230	0	0
231	0	0
232	0	0
233	0	0
234	0	0
235	0	0
236	0	0
237	0	0
238	0	0
239	0	0
240	0	0
241	0	0
242	0	0
243	0	0
244	0	0
245	0	0
246	0	0
247	0	0
248	0	0
249	0	0
250	0	0
251	0	0
252	0	0
253	0	0
254	0	0
255	0	0
256	0	0
257	0	0
258	0	0
259	0	0
260	0	0
261	0	0
262	0	0
263	0	0
264	0	0
265	0	0
266	0	0
267	0	0
268	0	0
269	0	0
270	0	0
271	0	0
272	0	0
273	0	0
274	0	0
275	0	0
276	0	0
277	0	0
278	0	0
279	0	0
280	0	0
281	0	0
282	0	0
283	0	0
284	0	0
285	0	0
286	0	0
287	0	0
288	0	0
289	0	0
290	0	0
291	0	0
292	0	0
293	0	0
294	0	0
295	0	0
296	0	0
297	0	0
298	0	0
299	0	0
300	0	0
301	0	0
302	0	0
303	0	0
304	0	0
305	0	0
306	0	0
307	0	0
308	0	0
309	0	0
310	0	0
311	0	0
312	0	0
313	0	0
314	0	0
315	0	0
316	0	0
317	0	0
318	0	0
319	0	0
320	0	0
321	0	0
322	0	0
323	0	0
324	0	0
325	0	0
326	0	0
327	0	0
328	0	0
329	0	0
330	0	0
331	0	0
332	0	0
333	0	0
334	0	0
335	0	0
336	0	0
337	0	0
338	0	0
339	0	0
340	0	0
341	0	0
342	0	0
343	0	0
344	0	0
345	0	0
346	0	0
347	0	0
348	0	0
349	0	0
350	0	0
351	0	0
352	0	0
353	0	0
354	0	0
355	0	0
356	0	0
357	0	0
358	0	0
359	0	0
360	0	0
361	0	0
362	0	0
363	0	0
364	0	0
365	0	0
366	0	0
367	0	0
368	0	0
369	0	0
370	0	0
371	0	0
372	0	0
373	0	0
374	0	0
375	0	0
376	0	0
377	0	0
378	0	0
379	0	0
380	0	0
381	0	0
382	0	0
383	0	0
384	0	0
385	0	0
386	0	0
387	0	0
388	0	0
389	0	0
390	0	0
391	0	0
392	0	0
393	0	0
394	0	0
395	0	0
396	0	0
397	0	0
398	0	0
399	0	0
400	0	0
401	0	0
402	0	0
403	0	0
404	0	0
405	0	0
406	0	0
407	0	0
408	0	0
409	0	0
410	0	0
411	0	0
412	0	0
413	0	0
414	0	0
415	0	0
416	0	0
417	0	0
418	0	0
419	0	0
420	0	0
421	0	0
422	0	0
423	0	0
424	0	0
425	0	0
426	0	0
427	0	0
428	0	0
429	0	0
430	0	0
431	0	0
432	0	0
433	0	0
434	0	0
435	0	0
436	0	0
437	0	0
438	0	0
439	0	0
440	0	0
441	0	0
442	0	0
443	0	0
444	0	0
445	0	0
446	0	0
447	0	0
448	0	0
449	0	0
450	0	0
451	0	0
452	0	0
453	0	0
454	0	0
455	0	0
456	0	0
457	0	0
458	0	0
459	0	0
460	0	0
461	0	0
462	0	0
463	0	0
464	0	0
465	0	0
466	0	0
467	0	0
468	0	0
469	0	0
470	0	0
471	0	0
472	0	0
473	0	0
474	0	0
475	0	0
476	0	0
477	0	0
478	0	0
479	0	0
480	0	0.0357143
481	0	0.0357143
482	0	0.0357143
483	0	0.0357143
484	0	0.0357143
485	0	0.0357143
486	0	0.0357143
487	0	0.0357143
488	0	0.0357143
489	0	0.0357143
490	0	0.0357143
491	0	0.0357143
492	0	0.0357143
493	0	0.0357143
494	0	0.0357143
495	0	0.0357143
496	0	0.0357143
497	0	0.0357143
498	0	0.0357143
499	0	0.0357143
500	0	0.0357143
501	0	0.0357143
502	0	0.0357143
503	0	0.0357143
504	0	0.0357143
505	0	0.0357143
506	0	0.0357143
507	0	0.0357143
508	0	0.0357143
509	0	0.0357143
510	0	0.0357143
511	0	0.0357143
512	0	0.0357143
513	0	0.0357143
514	0	0.0277778
515	0	0.0277778
516	0	0.0277778
517	0	0.0277778
518	0	0.0277778
519	0	0.0277778
520	0	0.0277778
521	0	0.0277778
522	0	0.0277778
523	0	0.0277778
524	0	0.0277778
525	0	0.0222222
526	0	0.0222222
527	0	0.0222222
528	0	0.0222222
529	0	0.0222222
530	0	0.0222222
531	0	0.0222222
532	0	0.0222222
533	0	0.0222222
534	0	0.0222222
535	0	0.0222222
536	0	0.025641
537	0	0.025641
538	0	0.025641
539	0	0.025641
540	0	0.025641
541	0	0.025641
542	0	0.025641
543	0	0.025641
544	0	0.025641
545	0	0.021978
546	0	0.021978
547	0	0.021978
548	0	0.021978
549	0	0.021978
550	0	0.021978
551	0	0.021978
552	0	0.032967
553	0	0.021978
554	0	0.032967
555	0	0.043956
556	0	0.043956
557	0	0.043956
558	0	0.043956
559	0	0.0769231
560	0	0.0769231
561	0	0.0769231
562	0	0.0659341
563	0	0.0549451
564	0	0.043956
565	0	0.021978
566	0	0.021978
567	0	0.021978
568	0	0.021978
569	0	0.021978
570	0	0.021978
571	0	0.021978
572	0	0.0147059
573	0	0.0147059
574	0	0.0147059
575	0	0.0147059
576	0	0.0294118
577	0	0.0367647
578	0	0.0367647
579	0	0.0367647
580	0	0.0457516
581	0	0.0457516
582	0	0.0457516
583	0	0.0292398
584	0	0.0292398
585	0	0.0292398
586	0	0.0292398
587	0	0.0292398
588	0	0.0292398
589	0	0.0292398
590	0	0.0292398
591	0	0.0292398
592	0	0.0292398
593	0	0.0157895
594	0	0.0263158
595	0	0.0238095
596	0	0.038961
597	0	0.04329
598	0	0.047619
599	0	0.0606061
600	0	0.0606061
601	0	0.0692641
602	0	0.0822511
603	0	0.0822511
604	0	0.0822511
605	0	0.0995671
606	0	0.16996
607	0	0.143333
608	0	0.141538
609	0	0.12963
610	0	0.12963
611	0	0.12963
612	0	0.224868
613	0	0.296752
614	0	0.800391
615	0	0.835848
616	0	0.842595
617	0	0.849855
618	0	0.858467
619	0	0
620	0	0
621	0	0
622	0	0.849383
623	0	0.902656
624	0	0.900676
625	0	0.0357143
626	0	0.0357143
627	0	0.0357143
628	0	0.0357143
629	0	0.047619
630	0	0.047619
631	0	0.1
632	0	0.166667
633	0	0.166667
634	0	0.5
635	0	0.5
636	0	0.5
637	0	0.5
638	0	0.5
639	0	0.166667
640	0	0.166667
641	0	0.166667
642	0	0.5
643	0	0.5
644	0	0.5
645	0	0.5
646	0	0.166667
647	0	0.166667
648	0	0.166667
649	0	0.166667
650	0	0.166667
651	0	0.166667
652	0	0.166667
653	0	0.166667
654	0	0.166667
655	0	0.166667
656	0	0.166667
657	0	0.166667
658	0	0.166667
659	0	0.166667
660	0	0.166667
661	0	0.166667
662	0	0.166667
663	0	0.166667
664	0	0.3
665	0	0.3
666	0	0.3
667	0	0.3
668	0	0.3
669	0	0.3
670	0	0.904913
671	0	0
672	0	0
673	0	0
674	0	0
675	0	0
676	0	0
677	0	0
678	0	0
679	0	0
680	0	0
681	0	0.333333
682	0	0
683	0	0
684	0	0
685	0	0
686	0	0.1
687	0	0.1
688	0	0.1
689	0	0.142857
690	0	0.163636
691	0	0.236364
692	0	0.242424
693	0	0.242424
694	0	0.242424
695	0	0.242424
696	0	0.545455
697	0	0.545455
698	0	0.411765
699	0	0.327485
700	0	0.229249
701	0	0.324111
702	0	0.447619
703	0	0.514286
704	0	0.514286
705	0	0.532468
706	0	0.74026
707	0	0.981851
708	0	0.862164
709	0	0.886916
710	0	0
711	0	0
712	0	0
713	0	0
714	0	0
715	0	0
716	0	0
717	0	0
718	0	0
719	0	0
720	0	0
721	0	0
722	0	0
723	0	0
724	0	0
725	0	0
726	0	0.980035
727	0	0.987946
728	0	0.987946
729	0	0.987958
730	0	0.987958
731	0	0.987982
732	0	0.987982
733	0	0.98797
734	0	0
735	0	0
736	0	0
737	0	0
738	0	0
739	0	0
740	0	0
741	0	0
742	0	0
743	0	0
744	0	0
745	0	0
746	0	0
747	0	0
748	0	0
749	0	0
750	0	0
751	0	0
752	0	0
753	0	0
754	0	0
755	0	0
756	0	0
757	0	0
758	0	0
759	0	0
760	0	0
761	0	0
762	0	0
763	0	0
764	0	0
765	0	0
766	0	0
767	0	0
768	0	0
769	0	0
770	0	0
771	0	0
772	0	0
773	0	0
774	0	0
775	0	0
776	0	0
777	0	0
778	0	0
779	0	0
780	0	0
781	0	0
782	0	0
783	0	0
784	0	0
785	0	0
786	0	0
787	0	0
788	0	0
789	0	0
790	0	0
791	0	0
792	0	0
793	0	0
794	0	0
795	0	0
796	0	0
797	0	0
798	0	0
799	0	0
800	0	0
801	0	0
802	0	0
803	0	0.988137
804	0	0.166667
805	0	0
806	0	0
807	0	0
808	0	0
809	0	0
810	0	0
811	0	0.978314
812	0	0.978314
813	0	0.978314
814	0	0
815	0	0
816	0	0.976375
817	0	0.974417
818	0	0
819	0	0.988125
820	0	0.986164
821	0	0.986164
822	0	0
823	0	0
824	0	0
825	0	0
826	0	0
827	0	0
828	0	0
829	0	0
830	0	0
831	0	0
832	0	0
833	0	0
834	0	0
835	0	0
836	0	0
837	0	0
838	0	0
839	0	0
840	0	0
841	0	0
842	0	0
843	0	0
844	0	0
845	0	0
846	0	0
847	0	0
848	0	0
849	0	0
850	0	0
851	0	0
852	0	0
853	0	0
854	0	0
855	0	0
856	0	0
857	0	0
858	0	0
859	0	0
860	0	0
861	0	0
862	0	0
863	0	0
864	0	0
865	0	0
866	0	0
867	0	0
868	0	0
869	0	0
870	0	0
871	0	0
872	0	0
873	0	0
874	0	0
875	0	0
876	0	0
877	0	0
878	0	0
879	0	0
880	0	0
881	0	0
882	0	0
883	0	0
884	0	0
885	0	0
886	0	0
887	0	0
888	0	0
889	0	0
890	0	0
891	0	0
892	0	0
893	0	0
894	0	0
895	0	0
896	0	0
897	0	0
898	0	0
899	0	0
900	0	0
901	0	0
902	0	0
903	0	0
904	0	0
905	0	0
906	0	0
907	0	0
908	0	0
909	0	0
910	0	0
911	0	0
912	0	0
913	0	0
914	0	0
915	0	0
916	0	0
917	0	0
918	0	0.986164
919	0	0.986164
920	0	0.984194
921	0	0
922	0	0
923	0	0
924	0	0
925	0	0
926	0	0
927	0	0
928	0	0
929	0	0
930	0	0
931	0	0
932	0	0
933	0	0
934	0	0
935	0	0
936	0	0
937	0	0
938	0	0
939	0	0
940	0	0
941	0	0
942	0	0
943	0	0
944	0	1
945	0	0.992079
946	0	0.992079
947	0	0.992079
948	0	0.708596
949	0	0
950	0	0
951	0	0
952	0	0
953	0	0
954	0	0
955	0	0
956	0	0
957	0	0
958	0	0
959	0	0
960	0	1
961	0	1
962	0	1
963	0	1
964	0	1
965	0	1
966	0	0.333333
967	0	1
968	0	1
969	0	1
970	0	1
971	0	1
972	0	0.992087
973	0	0.992079
974	0	0.992071
975	0	0.992071
976	0	0.990091
977	0	0
978	0	0.990111
979	0	0.990111
980	0	0.990121
981	0	0.990121
982	0	0.990121
983	0	0.986192
984	0	0.988148
985	0	0.990111
986	0	0.994048
987	0	0.99403
988	0	0.99206
989	0	0.994042
990	0	0.990101
991	0	0.992069
992	0	0.99603
993	0	0
994	1	0
995	1	0
996	1	0
997	1	0
998	1	0
999	1	0
1000	1	0
1001	1	0
1002	1	0
1003	0	0.994048
1004	0	0.99603
1005	0	0.996038
1006	0	0
1007	0	0
1008	0	0
1009	1	0
1010	1	0
1011	1	0
1012	1	0
1013	1	0
1014	1	0
1015	1	0
1016	1	0
1017	1	0
1018	1	0
1019	0	0.998051
1020	0	0.998051
1021	0	0.996103
1022	0	0.996103
1023	0	0.998049
1024	0	0.996103
1025	0	0.998049
1026	0	0.996099
1027	0	0.996099
1028	0	0.996099
1029	0	0.998047
1030	0	0.998049
1031	0	0.998047
1032	0	0.998051
1033	0	0.998056
1034	0	0.998058
1035	0	0.998056
1036	0	0.998056
1037	0	0.998054
1038	0	0.998054
1039	0	0.996111
1040	0	0.996111
1041	0	0.996115
1042	0	0.996115
1043	0	0.996115
1044	0	0.996115
1045	0	0.996115
1046	0	0.99418
1047	0	0.99418
1048	0	0
1049	0	0
1050	0	0
1051	0	0
1052	0	0
1053	0	0.996115
1054	0	0.996115
1055	0	0.996115
1056	0	0.998054
1057	0	0.998054
1058	0	0.998054
1059	0	0.998054
1060	0	0.998056
1061	0	0.998056
1062	0	0.998056
1063	0	0.998056
1064	0	0.996115
1065	1	0
1066	1	0
1067	1	0
1068	1	0
1069	1	0
1070	1	0
1071	1	0
1072	1	0
1073	1	0
1074	1	0
1075	1	0
1076	1	0
1077	1	0
1078	1	0
1079	1	0
1080	1	0
1081	1	0
1082	1	0
1083	1	0
1084	1	0
1085	1	0
1086	1	0
1087	1	0
1088	1	0
1089	1	0
1090	1	0
1091	1	0
1092	1	0
1093	1	0
1094	1	0
1095	1	0
1096	1	0
1097	1	0
1098	1	0
1099	1	0
1100	1	0
1101	1	0
1102	1	0
1103	0	0
1104	0	1
1105	1	1
1106	1	1
1107	0	0.996118
1108	0	0.996118
1109	1	1
1110	0	0.994186
1111	0	0.996122
1112	1	0
1113	1	0
1114	1	0
1115	1	0
1116	1	0
1117	1	0
1118	0	0.998058
1119	0	1
1120	1	1
1121	1	1
1122	1	1
1123	1	1
1124	1	1
1125	1	1
1126	1	1
1127	0	1
1128	0	1
1129	0	0.996139
1130	0	0.571429
1131	1	1
1132	1	1
1133	0	1
1134	0	0.988473
1135	0	0.988473
1136	0	0.988473
1137	0	0.998069
1138	0	0.996145
1139	0	0.996145
1140	0	0.996145
1141	0	0.996145
1142	0	0.996145
1143	0	0.996148
1144	0	0.996148
1145	0	0.996148
1146	0	0.996148
1147	0	0.998071
1148	0	0.998071
1149	0	0.998071
1150	0	0.998071
1151	0	0.998071
1152	0	0.998071
1153	0	0.996145
1154	0	0.996141
1155	0	0
1156	0	0
1157	0	0.994214
1158	0	0.994214
1159	0	0.994214
1160	0	0
1161	0	0
1162	0	0
1163	0	0
1164	0	0
1165	0	0
1166	0	0
1167	0	0
1168	0	0
1169	0	0
1170	0	0
1171	0	0
1172	0	0
1173	0	0
1174	0	0
1175	0	0
1176	0	0
1177	0	0
1178	0	0
1179	0	0
1180	0	0
1181	0	0
1182	0	0
1183	0	0
1184	0	0
1185	0	0
1186	0	0
1187	0	0
1188	0	0
1189	0	0
1190	0	0
1191	0	0
1192	0	0
1193	0	0
1194	0	0
1195	0	0
1196	0	0
1197	0	0
1198	0	0
1199	0	0
1200	0	0
1201	0	0
1202	0	0
1203	0	0
1204	0	0
1205	0	0
1206	0	0
1207	0	0
1208	0	0
1209	0	0
1210	0	0
1211	0	0
1212	0	0
1213	0	0
1214	0	0
1215	0	0
1216	0	0
1217	0	0
1218	0	0
1219	0	0
1220	0	0
1221	0	0
1222	0	0
1223	0	0
1224	0	0
1225	0	0
1226	0	0
1227	0	0
1228	0	0
1229	0	0
1230	0	0
1231	0	0
1232	0	0
1233	0	0
1234	0	0
1235	0	0
1236	0	0
1237	0	0
1238	0	0
1239	0	0
1240	0	0
1241	0	0
1242	0	0
1243	0	0
1244	0	0
1245	0	0
1246	0	0
1247	0	0
1248	0	0
1249	0	0
1250	0	0
1251	0	0
1252	0	0
1253	0	0
1254	0	0
1255	0	0
1256	0	0
1257	0	0
1258	0	0
1259	0	0
1260	0	0
1261	0	0
1262	0	0
1263	0	0
1264	0	0
1265	0	0
1266	0	0
1267	0	0
1268	0	0
1269	0	0
1270	1	0
1271	1	0
1272	1	0
1273	1	0
1274	1	0
1275	1	0
1276	1	0
1277	1	0
1278	1	0
1279	1	0
1280	1	0
1281	1	0
1282	1	0
1283	1	0
1284	1	0
1285	0	0
1286	0	0
1287	0	0
1288	0	0
1289	1	0
1290	1	0
1291	1	0
1292	1	0
1293	1	0
1294	0	0
1295	0	0
1296	0	0
1297	0	0
1298	0	0
1299	0	0
1300	0	0
1301	0	0
1302	0	0
1303	0	0
1304	0	0
1305	0	0
1306	0	0
1307	0	0
1308	0	0
1309	0	0
1310	0	0
1311	0	0
1312	0	0
1313	0	0
1314	0	0
1315	0	0
1316	0	0
1317	0	0
1318	0	0
1319	0	0
1320	0	0
1321	0	0
1322	0	0
1323	0	0
1324	0	0
1325	0	0
1326	0	0
1327	0	0
1328	0	0
1329	0	0
1330	0	0
1331	0	0
1332	0	0
1333	0	0
1334	0	0
1335	0	0
1336	0	0
1337	0	0
1338	0	0
1339	0	0
1340	0	0
1341	0	0
1342	0	0
1343	0	0
1344	0	0
1345	0	0
1346	0	0
1347	0	0
1348	0	0
1349	0	0
1350	0	0
1351	0	0
1352	0	0
1353	0	0
1354	0	0
1355	0	0
1356	0	0
1357	0	0
1358	0	0
1359	0	0
1360	0	0
1361	0	0
1362	0	0
1363	0	0
1364	0	0
1365	0	0
1366	0	0
1367	0	0
1368	0	0
1369	0	0
1370	0	0
1371	0	0
1372	0	0
1373	0	0
1374	0	0
1375	0	0
1376	0	0
1377	0	0
1378	0	0
1379	0	0
1380	0	0
1381	0	0
1382	0	0
1383	0	0
1384	0	0
1385	1	0
1386	1	0
1387	1	0
1388	1	0
1389	1	0
1390	1	0
1391	1	0
1392	1	0
1393	1	0
1394	1	0
1395	1	0
1396	1	0
1397	0	0
1398	0	0
1399	0	0
1400	0	0
1401	0	0
1402	0	0
1403	0	0
1404	0	0
1405	0	0
1406	0	0
1407	0	0
1408	0	0
1409	0	0
1410	0	0
1411	0	0
1412	0	0
1413	0	0
1414	1	0
1415	0	0
1416	0	0
1417	0	0
1418	0	0
1419	0	0
1420	0	0
1421	0	0
1422	0	0
1423	0	0
1424	0	0
1425	0	0
1426	0	0
1427	0	0
1428	0	0
1429	0	0
1430	0	0
1431	0	0
1432	0	0
1433	0	0
1434	0	0
1435	0	0
1436	0	0
1437	0	0
1438	0	0
1439	0	0
1440	0	0
1441	0	0
1442	0	0
1443	0	0
1444	0	0
1445	0	0
1446	0	0
1447	0	0
1448	0	0
1449	0	0
1450	0	0
1451	0	0
1452	0	0
1453	0	0
1454	0	0
1455	0	0
1456	0	0
1457	0	0
1458	0	0
1459	0	0
1460	0	0
1461	0	0
1462	0	0
1463	0	0
1464	0	0
1465	0	0
1466	0	0
1467	0	0
1468	0	0
1469	0	0
1470	0	0
1471	0	0
1472	0	0
1473	0	0
1474	0	0
1475	0	0
1476	0	0
1477	0	0
1478	1	0
1479	1	0
1480	1	0
1481	1	0
1482	1	0
1483	1	0
1484	1	0
1485	1	0
1486	1	0
1487	1	0
1488	1	0
1489	1	0
1490	1	0
1491	1	0
1492	1	0
1493	1	0
1494	1	0
1495	1	0
1496	1	0
1497	1	0
1498	1	0
1499	1	0
1500	1	0
1501	1	0
1502	1	0
1503	1	0
1504	1	0
1505	1	0
1506	0	0
1507	0	0
1508	0	0
1509	0	0
1510	0	0
1511	0	0
1512	0	0
1513	0	0
1514	0	0
1515	0	0
1516	0	0
1517	0	0
1518	0	0
1519	0	0
1520	0	0
1521	0	0
1522	0	0
1523	0	0
1524	0	0
1525	0	0
1526	0	0
1527	0	0
1528	0	0
1529	0	0
1530	1	0
1531	1	0
1532	1	0
1533	1	0
1534	1	0
1535	1	0
1536	1	0
1537	1	0
1538	1	0
1539	1	0
1540	1	0
1541	1	0
1542	1	0
1543	1	0
1544	1	0
1545	0	0
1546	0	0
1547	0	0
1548	0	0
1549	0	0
1550	0	0
1551	0	0
1552	1	0
1553	0	0
1554	0	0
1555	0	0
1556	0	0
1557	0	0
1558	0	0
1559	0	0
1560	0	0
1561	0	0
1562	0	0
1563	0	0
1564	0	0
1565	0	0
1566	0	0
1567	0	0
1568	0	0
1569	0	0
1570	0	0
1571	0	0
1572	0	0
1573	0	0
1574	0	0
1575	0	0
1576	0	0
1577	0	0
1578	0	0
1579	0	0
1580	0	0
1581	0	0
1582	0	0
1583	0	0
1584	0	0
1585	0	0
1586	0	0
1587	0	0
1588	0	0
1589	0	0
1590	0	0
1591	0	0
1592	0	0
1593	0	0
1594	0	0
1595	0	0
1596	0	0
1597	0	0
1598	0	0
1599	0	0
1600	0	0
1601	0	0
1602	0	0
1603	0	0
1604	0	0
1605	0	0
1606	0	0
1607	0	0
1608	0	0
1609	0	0
1610	0	0
1611	0	0
1612	0	0
1613	0	0
1614	0	0
1615	0	0
1616	0	0
1617	0	0
1618	0	0
1619	0	0
1620	0	0
1621	0	0
1622	0	0
1623	0	0
1624	0	0
1625	0	0
1626	0	0
1627	0	0
1628	0	0
1629	0	0
1630	0	0
1631	0	0
1632	0	0
1633	0	0
1634	0	0
1635	0	0
1636	0	0
1637	0	0
1638	0	0
1639	0	0
1640	0	0
1641	0	0
1642	0	0
1643	0	0
1644	0	0
1645	0	0
1646	0	0
1647	0	0
1648	0	0
1649	0	0
1650	0	0
1651	0	0
1652	0	0
1653	0	0
1654	0	0
1655	0	0
1656	0	0
1657	0	0
1658	0	0
1659	0	0
1660	0	0
1661	0	0
1662	0	0
1663	0	0
1664	0	0
1665	0	0
1666	0	0
1667	0	0
1668	0	0
1669	0	0
1670	0	0
1671	0	0
1672	0	0
1673	0	0
1674	1	0
1675	1	0
1676	1	0
1677	0	0
1678	0	0
1679	0	0
1680	0	0
1681	0	0
1682	0	0
1683	0	0
1684	0	0
1685	0	0
1686	0	0
1687	0	0
1688	0	0
1689	0	0
1690	0	0
1691	0	0
1692	0	0
1693	0	0
1694	0	0
1695	0	0
1696	0	0
1697	0	0
1698	0	0
1699	0	0
1700	0	0
1701	0	0
1702	0	0
1703	0	0
1704	0	0
1705	0	0
1706	0	0
1707	0	0
1708	0	0
1709	0	0
1710	0	0
1711	0	0
1712	0	0
1713	0	0
1714	0	0
1715	0	0
1716	0	0
1717	0	0
1718	0	0
1719	0	0
1720	0	0
1721	0	0
1722	0	0
1723	0	0
1724	0	0
1725	0	0
1726	0	0
1727	0	0
1728	0	0
1729	0	0
1730	0	0
1731	0	0
1732	0	0
1733	0	0
1734	0	0
1735	0	0
1736	0	0
1737	0	0
1738	0	0
1739	0	0
1740	0	0
1741	0	0
1742	0	0
1743	0	0
1744	0	0
1745	0	0
1746	0	0
1747	0	0
1748	0	0
1749	0	0
1750	0	0
1751	0	0
1752	0	0
1753	0	0
1754	1	0
1755	1	0
1756	1	0
1757	1	0
1758	1	0
1759	1	0
1760	1	0
1761	1	0
1762	1	0
1763	1	0
1764	1	0
1765	1	0
1766	1	0
1767	1	0
1768	1	0
1769	1	0
1770	1	0
1771	1	0
1772	1	0
1773	1	0
1774	1	0
1775	1	0
1776	1	0
1777	1	0
1778	1	0
1779	1	0
1780	1	0
1781	0	0
1782	0	0
1783	0	0
1784	0	0
1785	0	0
1786	0	0
1787	0	0
1788	0	0
1789	0	0
1790	0	0
1791	0	0
1792	0	0
1793	0	0
1794	0	0
1795	0	0
1796	0	0
1797	0	0
1798	0	0
1799	0	0
1800	0	0
1801	0	0
1802	0	0
1803	0	0
1804	0	0
1805	0	0
1806	0	0
1807	0	0
1808	0	0
1809	0	0
1810	0	0
1811	0	0
1812	0	0
1813	0	0
1814	0	0
1815	0	0
1816	0	0
1817	0	0
1818	0	0
1819	0	0
1820	0	0
1821	0	0
1822	0	0
1823	0	0
1824	0	0
1825	0	0
1826	0	0
1827	0	0
1828	0	0
1829	0	0
1830	0	0
1831	0	0
1832	0	0
1833	0	0
1834	0	0
1835	0	0
1836	0	0
1837	0	0
1838	0	0
1839	0	0
1840	0	0
1841	0	0
1842	1	0
1843	1	0
1844	1	0
1845	0	0
1846	0	0
1847	0	0
1848	0	0
1849	0	0
1850	0	0
1851	0	0
1852	0	0
1853	0	0
1854	0	0
1855	0	0
1856	0	0
1857	0	0
1858	0	0
1859	0	0
1860	0	0
1861	0	0
1862	0	0
1863	0	0
1864	0	0
1865	0	0
1866	0	0
1867	0	0
1868	0	0
1869	0	0
1870	0	0
1871	0	0
1872	0	0
1873	0	0
1874	0	0
1875	0	0
1876	0	0
1877	0	0
1878	0	0
1879	0	0
1880	0	0
1881	0	0
1882	0	0
1883	0	0
1884	0	0
1885	0	0
1886	0	0
1887	0	0
1888	0	0
1889	0	0
1890	0	0
1891	0	0
1892	0	0
1893	0	0
1894	0	0
1895	0	0
1896	0	0
1897	1	0
1898	1	0
1899	0	0
1900	0	0
1901	0	0
1902	0	0
1903	0	0
1904	0	0
1905	0	0
1906	0	0
1907	1	0
1908	1	0
1909	1	0
1910	1	0
1911	1	0
1912	1	0
1913	1	0
1914	1	0
1915	1	0
1916	1	0
1917	1	0
1918	1	0
1919	1	0
1920	1	0
1921	0	0
1922	0	0
1923	0	0
1924	0	0
1925	0	0
1926	0	0
1927	0	0
1928	1	0
1929	1	0
1930	1	0
1931	1	0
1932	1	0
1933	1	0
1934	0	0
1935	0	0
1936	1	0
1937	1	0
1938	1	0
1939	1	0
1940	1	0
1941	1	0
1942	1	0
1943	1	0
1944	1	0
1945	1	0
1946	1	0
1947	1	0
1948	1	0
1949	1	0
1950	1	0
1951	1	0
1952	1	0
1953	1	0
1954	1	0
1955	1	0
1956	0	0.966102
1957	0	0.884878
1958	0	0.630597
1959	0	0
1960	0	0
1961	0	0
1962	0	0
1963	0	0
1964	0	0
1965	0	0
1966	0	0
1967	0	0
1968	0	0
1969	0	0
1970	0	0
1971	0	0
1972	0	0
1973	0	0
1974	0	0
1975	0	0
1976	0	0
1977	0	0
1978	0	0
1979	0	0
1980	0	0
1981	0	0
1982	0	0
1983	0	0
1984	0	0
1985	0	0
1986	0	0
1987	0	0
1988	0	0
1989	0	0
1990	0	0
1991	0	0
1992	0	0
1993	0	0
1994	0	0
1995	0	0
1996	0	0
1997	0	0
1998	0	0
1999	0	0
2000	0	0
2001	0	0
2002	0	0
2003	0	0
2004	0	0.704515
2005	0	0.0666667
2006	0	0.686333
2007	0	0.96352
2008	0	0.96352
2009	0	0.969974
2010	0	0.969974
2011	0	0.924341
2012	0	0
2013	0	0
2014	0	0
2015	0	0
2016	0	0
2017	0	0
2018	0	0
2019	0	0
2020	0	0
2021	0	0
2022	0	0
2023	0	0
2024	0	0
2025	0	0
2026	0	0
2027	0	0
2028	0	0
2029	0	0
2030	0	0
2031	0	0.166667
2032	0	0.166667
2033	0	0.166667
2034	0	0.166667
2035	0	0.166667
2036	0	0.166667
2037	0	0.166667
2038	0	0
2039	0	0
2040	0	0
2041	0	0
2042	0	0
2043	0	0
2044	0	0
2045	0	0
2046	0	0
2047	0	0.0357143
2048	0	0.0277778
2049	0	0.0222222
2050	0	0.030303
2051	0	0.180952
2052	0	0.141304
2053	0	0.122995
2054	0	0.0953058
2055	0	0.0705706
2056	0	0.0953846
2057	0	0.047619
2058	0	0.0357143
2059	0	0.183333
2060	0	0.138528
2061	0	0.169118
2062	0	0.150327
2063	0	0.134503
2064	0	0.115789
2065	0	0.0995671
2066	0	0.137097
2067	0	0.141649
2068	0	0.136178
2069	0	0.581559
2070	0	0.496875
2071	0	0.482821
2072	0	0.459507
2073	0	0.291539
2074	0	0.257515
2075	0	0.231588
2076	0	0.275351
2077	0	0.710086
2078	0	0.860226
2079	0	0.902498
2080	0	0.902498
2081	0	0.902498
2082	0	0.902498
2083	0	0.438746
2084	0	0.960049
2085	0	0.963292
2086	0	0.960054
2087	0	0.960121
2088	0	0.950525
2089	0	0.938086
2090	0	0.896991
2091	0	0.489414
2092	0	0.961537
2093	0	0
2094	0	0
2095	0	0
2096	0	0
2097	0	0
2098	0	0
2099	0	0
2100	0	0
2101	0	0
2102	0	0
2103	0	0.969251
2104	0	0.969251
2105	0	0
2106	0	0
2107	0	0
2108	0	0
2109	0	0
2110	0	0
2111	0	0.951944
2112	0	0.951944
2113	0	0.948242
2114	0	0.948242
2115	0	0.948242
2116	0	0.948142
2117	0	0.222222
2118	0	0.151515
2119	0	0.956225
2120	0	0.954303
2121	0	0.936939
2122	1	0
2123	1	0
2124	1	0
2125	1	0
2126	1	0
2127	1	0
2128	1	0
2129	1	0
2130	1	0
2131	1	0
2132	1	0
2133	1	0
2134	1	0
2135	1	0
2136	1	0
2137	1	0
2138	1	0
2139	1	0
2140	1	0
2141	1	0
2142	1	0
2143	1	0
2144	1	0
2145	1	0
2146	1	0
2147	1	0
2148	1	0
2149	1	0
2150	1	0
2151	1	0
2152	1	0
2153	1	0
2154	1	0
2155	1	0
2156	1	0
2157	1	0
2158	1	0
2159	1	0
2160	1	0
2161	1	0
2162	1	0
2163	1	0
2164	1	0
2165	1	0
2166	1	0
2167	1	0
2168	1	0
2169	1	0
2170	1	0
2171	1	0
2172	1	0
2173	1	0
2174	1	0
2175	1	0
2176	1	0
2177	1	0
2178	1	0
2179	1	0
2180	1	0
2181	1	0
2182	1	0
2183	1	0
2184	1	0
2185	1	0
2186	1	0
2187	1	0
2188	1	0
2189	1	0
2190	1	0
2191	1	0
2192	1	0
2193	1	0
2194	1	0
2195	1	0
2196	1	0
2197	1	0
2198	1	0
2199	1	0
2200	1	0
2201	1	0
2202	1	0
2203	1	0
2204	1	0
2205	1	0
2206	1	0
2207	1	0
2208	1	0
2209	1	0
2210	1	0
2211	1	0
2212	1	0
2213	1	0
2214	1	0
2215	1	0
2216	1	0
2217	1	0
2218	1	0
2219	1	0
2220	1	0
2221	1	0
2222	1	0
2223	1	0
2224	1	0
2225	1	0
2226	1	0
2227	1	0
2228	1	0
2229	1	0
2230	1	0
2231	1	0
2232	1	0
2233	1	0
2234	1	0
2235	1	0
2236	1	0
2237	1	0
2238	1	0
2239	1	0
2240	1	0
2241	1	0
2242	1	0
2243	1	0
2244	1	0
2245	1	0
2246	1	0
2247	1	0
2248	1	0
2249	1	0
2250	1	0
2251	1	0
2252	1	0
2253	1	0
2254	1	0
2255	1	0
2256	1	0
2257	1	0
2258	1	0
2259	1	0
2260	1	0
2261	1	0
2262	1	0
2263	1	0
2264	0	0
2265	0	0
2266	0	0
2267	0	0
2268	0	0
2269	0	0
2270	0	0
2271	0	0
2272	0	0
2273	0	0
2274	0	0
2275	0	0
2276	0	0
2277	0	0
2278	0	0
2279	0	0
2280	0	0
2281	0	0
2282	0	0
2283	0	0
2284	0	0
2285	0	0
2286	0	0
2287	0	0
2288	0	0
2289	0	0
2290	0	0
2291	0	0
2292	0	0
2293	0	0
2294	0	0
2295	0	0
2296	0	0
2297	0	0
2298	0	0
2299	0	0
2300	0	0
2301	0	0
2302	0	0
2303	0	0
2304	0	0
2305	1	0
2306	1	0
2307	1	0
2308	1	0
2309	1	0
2310	1	0
2311	1	0
2312	1	0
2313	1	0
2314	1	0
2315	1	0
2316	1	0
2317	0	0.926952
2318	0	0
2319	0	0
2320	0	0
2321	0	0
2322	0	0
2323	0	0
2324	0	0
2325	0	0
2326	0	0
2327	0	0
2328	0	0
2329	0	0
2330	0	0
2331	0	0
2332	0	0
2333	0	0
2334	0	0
2335	0	0
2336	0	0.0666667
2337	0	0.047619
2338	0	0.047619
2339	0	0.047619
2340	0	0.181818
2341	0	0.181818
2342	0	0.209524
2343	0	0.900975
2344	0	0.899003
2345	0	0
2346	0	0
2347	0	0
2348	0	0
2349	0	0
2350	0	0
2351	0	0
2352	0	0
2353	0	0
2354	0	0
2355	0	0
2356	0	0
2357	0	0
2358	0	0
2359	0	0
2360	0	0
2361	0	0
2362	0	0
2363	0	0
2364	0	0
2365	0	0
2366	0	0
2367	0	0
2368	0	0
2369	0	0
2370	0	0
2371	0	0
2372	0	0
2373	0	0
2374	0	0
2375	0	0
2376	0	0
2377	0	0
2378	0	0
2379	0	0
2380	0	0
2381	0	0
2382	0	0
2383	0	0
2384	0	0
2385	0	0
2386	0	0
2387	0	0
2388	0	0
2389	0	0
2390	0	0
2391	0	0
2392	0	0
2393	0	0.8684
2394	0	0.81039
2395	0	0.81025
2396	0	0.398671
2397	0	0.356562
2398	0	0.3433
2399	0	0.306554
2400	0	0.306554
2401	0	0.321152
2402	0	0.551867
2403	0	0
2404	0	0
2405	0	0
2406	0	0
2407	0	0
2408	0	0
2409	0	0
2410	0	0
2411	0	0
2412	0	0
2413	0	0
2414	0	0
2415	0	0
2416	0	0
2417	0	0
2418	0	0
2419	0	0
2420	0	0.047619
2421	0	0.0357143
2422	0	0.047619
2423	0	0.0555556
2424	0	0.0363636
2425	0	0.030303
2426	0	0.021978
2427	0	0.0285714
2428	0	0.025
2429	0	0.0196078
2430	0	0.235494
2431	0	0.529817
2432	0	0.529785
2433	0	0.529615
2434	0	0
2435	0	0.0521008
2436	0	0.0534759
2437	0	0.0534759
2438	0	0.0499109
2439	0	0.0654083
2440	0	0.612288
2441	0	0.0536131
2442	0	0.0531469
2443	0	0.568817
2444	0	0.057971
2445	0	0.0809102
2446	0	0.500555
2447	0	0.499493
2448	0	0.0363636
2449	0	0.160958
2450	0	0.620879
2451	0	0
2452	0	0
2453	0	0
2454	0	0
2455	0	0
2456	0	0
2457	0	0
2458	0	0
2459	0	0
2460	0	0
2461	0	0
2462	0	0
2463	0	0
2464	0	0
2465	0	0
2466	0	0
2467	0	0
2468	0	0
2469	0	0.170513
2470	0	0.124625
2471	0	0.633958
2472	0	0.237323
2473	0	0
2474	0	0
2475	0	0
2476	0	0
2477	0	0
2478	0	0
2479	0	0
2480	0	0
2481	0	0
2482	0	0
2483	0	0
2484	0	0
2485	0	0
2486	0	0
2487	0	0
2488	0	0
2489	1	0
2490	1	0
2491	1	0
2492	1	0
2493	1	0
2494	1	0
2495	1	0
2496	1	0
2497	1	0
2498	1	0
2499	1	0
2500	1	0
2501	1	0
2502	1	0
2503	1	0
2504	1	0
2505	1	0
2506	1	0
2507	1	0
2508	1	0
2509	1	0
2510	1	0
2511	1	0
2512	1	0
2513	1	0
2514	1	0
2515	1	0
2516	1	0
2517	0	0
2518	0	0
2519	0	0
2520	0	0
2521	0	0
2522	0	0
2523	0	0
2524	0	0
2525	0	0
2526	0	0
2527	0	0
2528	0	0
2529	0	0
2530	0	0
2531	0	0
2532	0	0
2533	0	0
2534	0	0
2535	1	0
2536	1	0
2537	1	0
2538	1	0
2539	1	0
2540	1	0
2541	1	0
2542	1	0
2543	1	0
2544	1	0
2545	1	0
2546	1	0
2547	1	0
2548	1	0
2549	0	0
2550	0	0
2551	1	0
2552	1	0
2553	0	0
2554	0	0
2555	0	0
2556	0	0
2557	0	0
2558	0	0
2559	0	0
2560	0	0
2561	0	0
2562	0	0
2563	0	0
2564	0	0
2565	0	0
2566	0	0
2567	0	0
2568	0	0
2569	0	0
2570	0	0
2571	0	0
2572	0	0
2573	0	0
2574	0	0
2575	0	0
2576	0	0
2577	0	0
2578	0	0
2579	0	0
2580	0	0
2581	0	0
2582	0	0
2583	0	0
2584	0	0
2585	0	0
2586	0	0
2587	0	0
2588	0	0
2589	0	0
2590	0	0
2591	0	0
2592	0	0
2593	0	0
2594	0	0
2595	0	0
2596	0	0
2597	0	0
2598	0	0
2599	0	0
2600	0	0
2601	0	0
2602	1	0
2603	1	0
2604	1	0
2605	1	0
2606	1	0
2607	1	0
2608	1	0
2609	1	0
2610	1	0
2611	1	0
2612	0	0
2613	0	0
2614	0	0
2615	0	0
2616	1	0
2617	1	0
2618	1	0
2619	1	0
2620	0	0
2621	0	0
2622	0	0
2623	0	0
2624	0	0
2625	0	0
2626	0	0
2627	0	0
2628	0	0
2629	0	0
2630	0	0
2631	0	0
2632	0	0
2633	0	0
2634	0	0
2635	0	0
2636	0	0
2637	0	0
2638	0	0
2639	1	0
2640	1	0
2641	1	0
2642	1	0
2643	1	0
2644	1	0
2645	1	0
2646	1	0
2647	1	0
2648	1	0
2649	1	0
2650	1	0
2651	1	0
2652	1	0
2653	1	0
2654	1	0
2655	1	0
2656	1	0
2657	1	0
2658	1	0
2659	1	0
2660	1	0
2661	1	0
2662	1	0
2663	1	0
2664	1	0
2665	1	0
2666	1	0
2667	1	0
2668	1	0
2669	1	0
2670	1	0
2671	1	0
2672	1	0
2673	1	0
2674	1	0
2675	1	0
2676	1	0
2677	1	0
2678	1	0
2679	1	0
2680	1	0
2681	1	0
2682	1	0
2683	1	0
2684	1	0
2685	1	0
2686	1	0
2687	1	0
2688	1	0
2689	1	0
2690	1	0
2691	1	0
2692	1	0
2693	1	0
2694	1	0
2695	1	0
2696	1	0
2697	1	0
2698	1	0
2699	1	0
2700	1	0
2701	1	0
2702	0	0
2703	1	0
2704	1	0
2705	1	0
2706	1	0
2707	1	0
2708	1	0
2709	1	0
2710	1	0
2711	1	0
2712	1	0
2713	1	0
2714	1	0
2715	1	0
2716	1	0
2717	1	0
2718	1	0
2719	1	0
2720	1	0
2721	1	0
2722	1	0
2723	1	0
2724	1	0
2725	1	0
2726	1	0
2727	1	0
2728	1	0
2729	1	0
2730	1	0
2731	1	0
2732	1	0
2733	1	0
2734	1	0
2735	1	0
2736	1	0
2737	1	0
2738	1	0
2739	1	0
2740	1	0
2741	1	0
2742	1	0
2743	1	0
2744	1	0
2745	1	0
2746	1	0
2747	1	0
2748	1	0
2749	1	0
2750	1	0
2751	1	0
2752	1	0
2753	1	0
2754	1	0
2755	1	0
2756	1	0
2757	1	0
2758	1	0
2759	1	0
2760	1	0
2761	1	0
2762	1	0
2763	1	0
2764	1	0
2765	1	0
2766	1	0
2767	1	0
2768	1	0
2769	1	0
2770	1	0
2771	1	0
2772	1	0
2773	1	0
2774	1	0
2775	1	0
2776	1	0
2777	1	0
2778	1	0
2779	1	0
2780	1	0
2781	1	0
2782	1	0
2783	1	0
2784	1	0
2785	1	0
2786	1	0
2787	1	0
2788	1	0
2789	1	0
2790	1	0
2791	1	0
2792	1	0
2793	1	0
2794	1	0
2795	1	0
2796	1	0
2797	1	0
2798	1	0
2799	1	0
2800	1	0
2801	1	0
2802	1	0
2803	1	0
2804	1	0
2805	1	0
2806	1	0
2807	1	0
2808	1	0
2809	1	0
2810	1	0
2811	1	0
2812	1	0
2813	1	0
2814	1	0
2815	1	0
2816	1	0
2817	1	0
2818	0	0.203793
2819	0	0.147806
2820	0	0.118239
2821	0	0.106507
2822	0	0.174678
2823	0	0.123745
2824	0	0.11722
2825	0	0.124138
2826	0	0.103664
2827	0	0.0861568
2828	0	0.0880701
2829	0	0.0361581
2830	0	0.0426258
2831	0	0.0395602
2832	0	0.100579
2833	0	0.101428
2834	0	0.10945
2835	0	0.116083
2836	0	0.119473
2837	0	0.121644
2838	0	0.137045
2839	0	0.0347493
2840	0	0.0142857
2841	0	0.0157895
2842	0	0.274359
2843	0	0.0326797
2844	0	0.0326797
2845	0	0.0283883
2846	0	0.142854
2847	0	0.15456
2848	0	0.153555
2849	0	0.145397
2850	0	0.025641
2851	0	0.030303
2852	0	0.0277778
2853	0	0.0357143
2854	0	0
2855	0	0
2856	0	0
2857	0	0
2858	0	0
2859	0	0
2860	0	0
2861	0	0
2862	0	0
2863	0	0
2864	0	0
2865	0	0
2866	0	0
2867	0	0
2868	0	0
2869	0	0
2870	0	0
2871	0	0
2872	0	0
2873	0	0
2874	0	0
2875	0	0
2876	0	0
2877	0	0
2878	0	0
2879	0	0
2880	0	0
2881	0	0
2882	0	0
2883	0	0
2884	0	0
2885	0	0
2886	0	0
2887	0	0
2888	0	0
2889	0	0
2890	0	0
2891	0	0
2892	0	0
2893	0	0
2894	0	0
2895	0	0
2896	0	0
2897	0	0
2898	0	0
2899	0	0
2900	0	0
2901	0	0
2902	0	0
2903	0	0
2904	0	0
2905	0	0.305106
2906	0	0.0666667
2907	0	0.0666667
2908	0	0.0666667
2909	0	0.0666667
2910	0	0
2911	0	0
2912	0	0.177204
2913	0	0.030303
2914	0	0.030303
2915	0	0.030303
2916	0	0.030303
2917	0	0.0151515
2918	0	0.0181818
2919	0	0.0181818
2920	0	0.0181818
2921	0	0.0151515
2922	0	0.0151515
2923	0	0.0181818
2924	0	0.0181818
2925	0	0.0181818
2926	0	0.0181818
2927	0	0.1898
2928	0	0.218322
2929	0	0.0184615
2930	0	0.0123077
2931	0	0
2932	0	0
2933	0	0
2934	0	0
2935	0	0
2936	0	0
2937	0	0
2938	0	0
2939	0	0
2940	0	0.112665
2941	0	0.223044
2942	0	0.266762
2943	0	0.27238
2944	0	0.358124
2945	0	0.043956
2946	0	0.043956
2947	0	0.0659341
2948	0	0.0659341
2949	0	0.0545455
2950	0	0.0545455
2951	0	0.0545455
2952	0	0.0545455
2953	0	0.0181818
2954	0	0.0181818
2955	0	0
2956	0	0
2957	0	0
2958	0	0
2959	0	0
2960	0	0
2961	0	0.341777
2962	0	0
2963	0	0.0413262
2964	0	0.186277
2965	0	0.188396
2966	0	0.187207
2967	0	0.0155039
2968	0	0.0155039
2969	0	0.0116279
2970	0	0.012685
2971	0	0.0131313
2972	0	0.0246734
2973	0	0.0227273
2974	0	0.0169173
2975	0	0.211061
2976	0	0.218151
2977	0	0.0583333
2978	0	0.0583333
2979	0	0.0583333
2980	0	0.817329
2981	0	0.0333333
2982	0	0.010989
2983	0	0.010989
2984	0	0.010989
2985	0	0.010989
2986	0	0.010989
2987	0	0.032967
2988	0	0.010989
2989	0	0.010989
2990	0	0.319594
2991	0	0.00833333
2992	0	0.00833333
2993	0	0.00735294
2994	0	0.0769231
2995	0	0.281343
2996	0	0.398325
2997	0	0.355807
2998	0	0.353864
2999	0	0.698337
3000	0	0.22
3001	0	0
3002	0	0
3003	0	0
3004	0	0
3005	0	0
3006	0	0
3007	0	0
3008	0	0
3009	0	0
3010	0	0
3011	0	0
3012	0	0
3013	0	0
3014	0	0
3015	0	0
3016	0	0
3017	0	0
3018	0	0
3019	0	0
3020	0	0
3021	0	0
3022	0	0
3023	0	0
3024	0	0
3025	0	0
3026	0	0
3027	0	0
3028	0	0
3029	0	0.0433333
3030	0	0.158737
3031	0	0.11828
3032	0	0.148646
3033	0	0.139249
3034	0	0.025641
3035	0	0.025641
3036	0	0.0263158
3037	0	0.0284211
3038	0	0.0312281
3039	0	0.147249
3040	0	0.167922
3041	0	0.0158562
3042	0	0.0169133
3043	0	0.0202655
3044	0	0.0219298
3045	0	0.0225564
3046	0	0.238519
3047	0	0.0514706
3048	0	0.0457516
3049	0	0.0457516
3050	0	0.0457516
3051	0	0.0333333
3052	0	0.025
3053	0	0.0166667
3054	0	0.0196078
3055	0	0.0196078
3056	0	0.0196078
3057	0	0.0405797
3058	0	0.0318841
3059	0	0.0333333
3060	0	0.209324
3061	0	0.205927
3062	0	0
3063	0	0
3064	0	0
3065	0	0
3066	0	0
3067	0	0
3068	0	0
3069	0	0
3070	0	0
3071	0	0
3072	0	0
3073	0	0
3074	0	0
3075	0	0
3076	0	0
3077	0	0.193099
3078	0	0.264901
3079	0	0.256863
3080	0	0.185052
3081	0	0.263708
3082	0	0.269202
3083	0	0.270937
3084	0	0.284795
3085	0	0.0397471
3086	0	0.0377104
3087	0	0.0531561
3088	0	0.0494624
3089	0	0.047619
3090	0	0.0988142
3091	0	0.152381
3092	0	0.0357143
3093	0	0.0357143
3094	0	0.0357143
3095	0	0.0357143
3096	0	0.0357143
3097	0	0
3098	0	0
3099	0	0
3100	0	0
3101	0	0
3102	0	0
3103	0	0
3104	0	0
3105	0	0
3106	0	0
3107	0	0
3108	0	0
3109	0	0
3110	0	0
3111	0	0
3112	0	0
3113	0	0.195234
3114	0	0.193418
3115	0	0
3116	0	0
3117	0	0
3118	0	0
3119	0	0
3120	0	0
3121	0	0
3122	0	0
3123	0	0
3124	0	0
3125	0	0
3126	0	0
3127	0	0
3128	0	0
3129	0	0.0181818
3130	0	0.0181818
3131	0	0.0181818
3132	0	0.0181818
3133	0	0.0181818
3134	0	0.0181818
3135	0	0.0181818
3136	0	0.395707
3137	0	0.403471
3138	0	0.0849673
3139	0	0
3140	0	0.1
3141	0	0
3142	0	0
3143	0	0
3144	0	0
3145	0	0
3146	0	0
3147	0	0
3148	0	0
3149	0	0
3150	0	0
3151	0	0
3152	0	0
3153	0	0
3154	0	0
3155	0	0
3156	0	0
3157	0	0
3158	0	0
3159	0	0
3160	0	0
3161	0	0
3162	0	0
3163	0	0
3164	0	0
3165	0	0
3166	0	0
3167	0	0
3168	0	0
3169	0	0
3170	0	0
3171	0	0
3172	0	0
3173	0	0
3174	0	0
3175	0	0
3176	0	0
3177	0	0
3178	0	0
3179	0	0
3180	0	0
3181	0	0
3182	0	0
3183	0	0
3184	0	0
3185	0	0
3186	0	0
3187	0	0
3188	0	0
3189	0	0
3190	0	0
3191	0	0
3192	0	0
3193	0	0
3194	0	0
3195	0	0
3196	0	0
3197	0	0
3198	0	0
3199	0	0
3200	0	0
3201	0	0
3202	0	0
3203	0	0
3204	0	0
3205	0	0
3206	0	0
3207	0	0
3208	0	0
3209	0	0
3210	0	0
3211	0	0
3212	0	0
3213	0	0
3214	0	0
3215	0	0
3216	0	0
3217	0	0
3218	0	0
3219	0	0
3220	0	0
3221	0	0
3222	0	0
3223	0	0
3224	0	0
3225	0	0
3226	0	0
3227	0	0
3228	0	0
3229	0	0
3230	0	0
3231	0	0
3232	0	0
3233	0	0
3234	0	0
3235	0	0
3236	0	0.465075
3237	0	0.166667
3238	0	0.166667
3239	0	0.166667
3240	0	0.333333
3241	0	0.333333
3242	0	0.333333
3243	0	0.333333
3244	0	0
3245	0	0
3246	0	0
3247	0	0
3248	0	0
3249	0	0
3250	0	0.214286
3251	0	0.166667
3252	0	0.2
3253	0	0.540149
3254	0	0.0769231
3255	0	0.0666667
3256	0	0.0833333
3257	0	0.2
3258	0	0
3259	0	0
3260	0	0
3261	0	0
3262	0	0
3263	0	0
3264	0	0
3265	0	0
3266	0	0
3267	0	0
3268	0	0
3269	0	0
3270	0	0
3271	0	0
3272	0	0
3273	0	0
3274	0	0
3275	0	0
3276	0	0
3277	0	0
3278	0	0
3279	0	0
3280	0	0
3281	0	0
3282	0	0
3283	0	0
3284	0	0
3285	0	0
3286	0	0
3287	0	0
3288	0	0
3289	0	0
3290	0	0
3291	0	0
3292	0	0
3293	0	0
3294	0	0
3295	0	0
3296	0	0
3297	0	0
3298	0	0
3299	0	0
3300	0	0
3301	0	0
3302	0	0
3303	0	0
3304	0	0
3305	0	0
3306	0	0
3307	0	0
3308	0	0
3309	0	0
3310	0	0
3311	0	0
3312	0	0
3313	0	0
3314	0	0
3315	0	0
3316	0	0
3317	0	0
3318	0	0
3319	0	0
3320	0	0
3321	0	0
3322	0	0
3323	0	0
3324	0	0
3325	0	0
3326	0	0
3327	0	0
3328	0	0
3329	0	0
3330	0	0
3331	0	0
3332	0	0
3333	0	0
3334	0	0
3335	0	0
3336	0	0
3337	0	0
3338	0	0
3339	0	0
3340	0	0
3341	0	0
3342	0	0
3343	0	0
3344	0	0
3345	0	0
3346	0	0
3347	0	0
3348	0	0.51456
3349	0	0.466667
3350	0	0.466667
3351	0	0.466667
3352	0	0.151515
3353	0	0.157233
3354	0	0.160633
3355	0	0.167059
3356	0	0.167059
3357	0	0.535912
3358	0	0.465372
3359	0	0.0357143
3360	0	0.0357143
3361	0	0.0357143
3362	0	0.0357143
3363	0	0.0357143
3364	0	0.0222222
3365	0	0.0222222
3366	0	0.0444444
3367	0	0.419436
3368	0	0.560516
3369	0	0.603175
3370	0	0.603175
3371	0	0.603175
3372	0	0.523856
3373	0	0.547152
3374	0	0.542756
3375	0	0.444577
3376	0	0.372735
3377	0	0.392948
3378	0	0.10989
3379	0	0.10989
3380	0	0.417834
3381	0	0
3382	0	0
3383	0	0
3384	0	0
3385	0	0
3386	0	0
3387	0	0
3388	0	0
3389	0	0
3390	0	0
3391	0	0
3392	0	0
3393	0	0
3394	0	0
3395	0	0
3396	0	0
3397	0	0
3398	0	0
3399	0	0
3400	0	0
3401	0	0
3402	0	0
3403	0	0
3404	0	0
3405	0	0
3406	0	0
3407	0	0
3408	0	0
3409	0	0
3410	0	0
3411	0	0
3412	0	0
3413	0	0
3414	0	0
3415	0	0
3416	0	0
3417	0	0
3418	0	0
3419	0	0
3420	0	0
3421	0	0
3422	0	0
3423	0	0
3424	0	0
3425	0	0
3426	0	0
3427	0	0
3428	0	0.588247
3429	0	0.0606061
3430	0	0.0833333
3431	0	0
3432	0	0
3433	0	0
3434	0	0
3435	0	0
3436	0	0
3437	0	0
3438	0	0
3439	0	0
3440	0	0
3441	0	0
3442	0	0
3443	0	0
3444	0	0
3445	0	0
3446	0	0
3447	0	0
3448	0	0.46372
3449	0	0.389375
3450	0	0.39432
3451	1	0
3452	1	0
3453	1	0
3454	1	0
3455	1	0
3456	1	0
3457	1	0
3458	1	0
3459	1	0
3460	1	0
3461	1	0
3462	1	0
3463	1	0
3464	1	0
3465	1	0
3466	1	0
3467	1	0
3468	1	0
3469	1	0
3470	1	0
3471	1	0
3472	1	0
3473	1	0
3474	1	0
3475	1	0
3476	1	0
3477	1	0
3478	1	0
3479	1	0
3480	1	0
3481	1	0
3482	1	0
3483	1	0
3484	1	0
3485	1	0
3486	1	0
3487	1	0
3488	1	0
3489	1	0
3490	1	0
3491	1	0
3492	1	0
3493	1	0
3494	1	0
3495	1	0
3496	1	0
3497	1	0
3498	1	0
3499	1	0
3500	1	0
3501	1	0
3502	1	0
3503	1	0
3504	1	0
3505	1	0
3506	1	0
3507	1	0
3508	1	0
3509	1	0
3510	1	0
3511	1	0
3512	1	0
3513	1	0
3514	1	0
3515	1	0
3516	1	0
3517	1	0
3518	1	0
3519	1	0
3520	1	0
3521	1	0
3522	1	0
3523	1	0
3524	1	0
3525	1	0
3526	1	0
3527	1	0
3528	1	0
3529	1	0
3530	1	0
3531	1	0
3532	1	0
3533	1	0
3534	1	0
3535	1	0
3536	1	0
3537	1	0
3538	1	0
3539	1	0
3540	1	0
3541	1	0
3542	1	0
3543	1	0
3544	1	0
3545	1	0
3546	1	0
3547	1	0
3548	1	0
3549	1	0
3550	1	0
3551	1	0
3552	1	0
3553	1	0
3554	1	0
3555	1	0
3556	1	0
3557	1	0
3558	1	0
3559	1	0
3560	1	0
3561	1	0
3562	1	0
3563	1	0
3564	1	0
3565	1	0
3566	1	0
3567	1	0
3568	1	0
3569	1	0
3570	1	0
3571	1	0
3572	1	0
3573	1	0
3574	1	0
3575	1	0
3576	1	0
3577	1	0
3578	1	0
3579	1	0
3580	1	0
3581	1	0
3582	1	0
3583	1	0
3584	1	0
3585	1	0
3586	1	0
3587	1	0
3588	1	0
3589	1	0
3590	1	0
3591	1	0
3592	1	0
3593	1	0
3594	1	0
3595	1	0
3596	1	0
3597	1	0
3598	1	0
3599	1	0
3600	1	0
3601	1	0
3602	1	0
3603	1	0
3604	1	0
3605	1	0
3606	1	0
3607	1	0
3608	1	0
3609	1	0
3610	1	0
3611	1	0
3612	1	0
3613	1	0
3614	1	0
3615	1	0
3616	1	0
3617	1	0
3618	1	0
3619	1	0
3620	1	0
3621	1	0
3622	1	0
3623	1	0
3624	1	0
3625	1	0
3626	1	0
3627	1	0
3628	1	0
3629	1	0
3630	1	0
3631	1	0
3632	1	0
3633	1	0
3634	1	0
3635	1	0
3636	1	0
3637	1	0
3638	1	0
3639	1	0
3640	1	0
3641	1	0
3642	1	0
3643	1	0
3644	1	0
3645	1	0
3646	1	0
3647	1	0
3648	1	0
3649	1	0
3650	1	0
3651	1	0
3652	1	0
3653	1	0
3654	1	0
3655	1	0
3656	1	0
3657	1	0
3658	1	0
3659	1	0
3660	1	0
3661	1	0
3662	1	0
3663	1	0
3664	1	0
3665	1	0
3666	1	0
3667	1	0
3668	1	0
3669	1	0
3670	1	0
3671	1	0
3672	1	0
3673	1	0
3674	1	0
3675	1	0
3676	1	0
3677	1	0
3678	1	0
3679	1	0
3680	1	0
3681	1	0
3682	1	0
3683	1	0
3684	1	0
3685	1	0
3686	1	0
3687	1	0
3688	1	0
3689	1	0
3690	1	0
3691	1	0
3692	1	0
3693	1	0
3694	1	0
3695	1	0
3696	1	0
3697	1	0
3698	1	0
3699	1	0
3700	1	0
3701	1	0
3702	1	0
3703	1	0
3704	1	0
3705	1	0
3706	1	0
3707	1	0
3708	1	0
3709	1	0
3710	1	0
3711	1	0
3712	1	0
3713	1	0
3714	1	0
3715	1	0
3716	1	0
3717	1	0
3718	1	0
3719	1	0
3720	1	0
3721	1	0
3722	1	0
3723	1	0
3724	1	0
3725	1	0
3726	1	0
3727	1	0
3728	1	0
3729	1	0
3730	1	0
3731	1	0
3732	1	0
3733	0	0
3734	0	0.305556
3735	0	0.408992
3736	0	0.40487
3737	0	0.402487
3738	0	0
3739	0	0
3740	0	0
3741	0	0
3742	0	0
3743	0	0
3744	0	0
3745	0	0
3746	0	0.0666667
3747	0	0.0666667
3748	0	0.0666667
3749	0	0.0666667
3750	0	0.0666667
3751	0	0.0666667
3752	0	0.047619
3753	0	0.047619
3754	0	0.047619
3755	0	0.047619
3756	0	0.0357143
3757	0	0.0357143
3758	0	0.0357143
3759	0	0.0222222
3760	0	0
3761	0	0.0222222
3762	0	0.0222222
3763	0	0.0181818
3764	0	0.0151515
3765	0	0.242424
3766	0	0.378119
3767	0	0
3768	0	0
3769	0	0
3770	0	0
3771	0	0
3772	0	0
3773	0	0
3774	0	0
3775	0	0
3776	0	0
3777	0	0
3778	0	0
3779	0	0
3780	0	0
3781	0	0
3782	0	0
3783	0	0
3784	0	0
3785	0	0
3786	0	0
3787	0	0
3788	0	0
3789	0	0
3790	0	0
3791	0	0
3792	0	0
3793	0	0
3794	0	0
3795	0	0
3796	0	0
3797	0	0
3798	0	0
3799	0	0
3800	0	0
3801	0	0
3802	0	0
3803	0	0
3804	0	0
3805	0	0
3806	0	0
3807	0	0
3808	0	0
3809	0	0
3810	0	0
3811	0	0
3812	0	0
3813	0	0
3814	0	0
3815	0	0
3816	0	0
3817	0	0
3818	0	0
3819	0	0
3820	0	0
3821	0	0
3822	0	0
3823	0	0
3824	0	0
3825	0	0
3826	0	0
3827	0	0
3828	0	0
3829	0	0
3830	0	0
3831	0	0
3832	0	0
3833	0	0
3834	0	0
3835	0	0
3836	0	0
3837	0	0
3838	0	0
3839	0	0
3840	0	0
3841	0	0
3842	0	0
3843	0	0
3844	0	0
3845	0	0
3846	0	0
3847	0	0
3848	0	0
3849	0	0
3850	0	0
3851	0	0
3852	0	0
3853	0	0
3854	0	0
3855	0	0
3856	0	0
3857	0	0
3858	0	0
3859	0	0
3860	0	0
3861	0	0
3862	0	0
3863	0	0
3864	0	0
3865	0	0
3866	0	0
3867	0	0
3868	0	0
3869	0	0
3870	0	0
3871	0	0
3872	0	0
3873	0	0
3874	0	0
3875	0	0
3876	0	0
3877	0	0
3878	0	0
3879	0	0
3880	0	0
3881	0	0
3882	0	0
3883	0	0
3884	0	0.047619
3885	0	0.047619
3886	0	0.047619
3887	0	0.047619
3888	0	0.047619
3889	0	0.047619
3890	0	0.047619
3891	0	0.047619
3892	0	0.0357143
3893	0	0.0357143
3894	0	0.0357143
3895	0	0.0357143
3896	0	0.0277778
3897	0	0.0277778
3898	0	0.0222222
3899	0	0.0222222
3900	0	0.120879
3901	0	0.168421
3902	0	0.467647
3903	1	0
3904	1	0
3905	0	0.909091
3906	0	0
3907	1	0
3908	1	0
3909	1	0
3910	0	0
3911	0	0.83004
3912	0	0.76087
3913	0	0.76087
3914	0	0.76087
3915	0	0.7
3916	0	0.165313
3917	0	0.170807
3918	0	0.484998
3919	0	0.223333
3920	0	0.285714
3921	0	0.285714
3922	0	0.314286
3923	0	0.347368
3924	0	0
3925	0	0
3926	0	0
3927	0	0
3928	0	0
3929	0	0
3930	0	0
3931	0	0
3932	0	0
3933	0	0
3934	0	0
3935	0	0
3936	0	0
3937	0	0
3938	0	0
3939	0	0
3940	0	0
3941	0	0
3942	0	0
3943	0	0
3944	0	0
3945	0	0
3946	0	0
3947	0	0
3948	0	0.4527
3949	0	0.166667
3950	0	0.166667
3951	0	0.166667
3952	0	0.166667
3953	0	0.333333
3954	0	0.333333
3955	0	0
3956	0	0
3957	0	0
3958	0	0
3959	0	0
3960	0	0
3961	0	0
3962	0	0
3963	0	0
3964	0	0
3965	0	0
3966	0	0
3967	0	0
3968	0	0
3969	0	0
3970	0	0
3971	0	0
3972	0	0
3973	0	0
3974	0	0
3975	0	0
3976	0	0
3977	0	0
3978	0	0
3979	0	0
3980	0	0
3981	0	0
3982	0	0
3983	0	0
3984	0	0
3985	0	0
3986	0	0
3987	0	0
3988	0	0
3989	0	0
3990	0	0
3991	0	0
3992	0	0
3993	0	0
3994	0	0
3995	0	0
3996	0	0
3997	0	0
3998	0	0
3999	0	0
4000	0	0
4001	0	0
4002	0	0
4003	0	0
4004	0	0
4005	0	0
4006	0	0
4007	0	0
4008	0	0
4009	0	0
4010	0	0
4011	0	0
4012	0	0
4013	0	0
4014	0	0
4015	0	0
4016	0	0
4017	0	0
4018	0	0
4019	0	0
4020	0	0
4021	0	0
4022	0	0
4023	0	0
4024	0	0
4025	0	0
4026	0	0
4027	0	0
4028	0	0
4029	0	0
4030	0	0
4031	0	0
4032	0	0
4033	0	0
4034	0	0
4035	0	0
4036	0	0
4037	0	0
4038	0	0
4039	0	0
4040	0	0
4041	0	0
4042	0	0
4043	0	0
4044	0	0
4045	0	0
4046	0	0
4047	0	0
4048	0	0
4049	0	0
4050	0	0
4051	0	0
4052	0	0
4053	0	0
4054	0	0
4055	0	0
4056	0	0
4057	0	0
4058	0	0
4059	0	0
4060	0	0
4061	0	0
4062	0	0
4063	0	0
4064	0	0
4065	0	0
4066	0	0
4067	0	0
4068	0	0
4069	0	0
4070	0	0
4071	0	0
4072	0	0
4073	0	0
4074	0	0
4075	0	0
4076	0	0
4077	0	0
4078	0	0
4079	0	0
4080	0	0
4081	0	0
4082	0	0
4083	0	0
4084	0	0
4085	0	0
4086	0	0
4087	0	0
4088	0	0
4089	0	0
4090	0	0
4091	0	0
4092	0	0
4093	0	0
4094	0	0
4095	0	0
4096	0	0
4097	0	0
4098	0	0
4099	0	0
4100	0	0
4101	0	0
4102	0	0
4103	0	0
4104	0	0
4105	0	0
4106	0	0
4107	0	0
4108	0	0
4109	0	0
4110	0	0
4111	0	0
4112	0	0
4113	0	0
4114	0	0
4115	0	0
4116	0	0
4117	0	0
4118	0	0
4119	0	0
4120	0	0
4121	0	0
4122	0	0
4123	0	0
4124	0	0
4125	0	0
4126	0	0
4127	0	0
4128	0	0
4129	0	0
4130	0	0
4131	0	0
4132	0	0
4133	0	0
4134	0	0
4135	0	0
4136	0	0
4137	0	0
4138	0	0
4139	0	0
4140	0	0
4141	0	0
4142	0	0
4143	0	0
4144	0	0
4145	0	0
4146	0	0
4147	0	0
4148	0	0
4149	0	0
4150	0	0
4151	0	0.397551
4152	0	0.0555556
4153	0	0
4154	0	0
4155	0	0
4156	0	0
4157	0	0
4158	0	0
4159	0	0
4160	0	0
4161	0	0
4162	0	0
4163	0	0
4164	0	0
4165	0	0
4166	0	0
4167	0	0
4168	0	0.030303
4169	0	0.025641
4170	0	0.0661765
4171	0	0.0818713
4172	0	0.644675
4173	0	0.624471
4174	0	0.012987
4175	0	0.00790514
4176	0	0.0197628
4177	0	0.0197628
4178	0	0.017316
4179	0	0.017316
4180	0	0.017316
4181	0	0.017316
4182	0	0.017316
4183	0	0.004329
4184	0	0.012987
4185	0	0.00790514
4186	0	0.00790514
4187	0	0.00724638
4188	0	0.0144928
4189	0	0.50405
4190	0	0.743852
4191	0	0.580471
4192	0	0.528369
4193	0	0.473868
4194	0	0.421795
4195	0	0.301994
4196	0	0.264822
4197	0	0.194737
4198	0	0.0583333
4199	0	0.0583333
4200	0	0.0333333
4201	0	0.0151515
4202	0	0.0151515
4203	0	0.0151515
4204	0	0.0151515
4205	0	0.0151515
4206	0	0.0151515
4207	0	0.0151515
4208	0	0.0151515
4209	0	0.0151515
4210	0	0.0151515
4211	0	0.0151515
4212	0	0.0151515
4213	0	0.0151515
4214	0	0.0151515
4215	0	0.0151515
4216	0	0.0151515
4217	0	0.0151515
4218	0	0.0151515
4219	0	0.0151515
4220	0	0.0151515
4221	0	0.0151515
4222	0	0.0181818
4223	0	0
4224	0	0
4225	0	0
4226	0	0
4227	0	0
4228	0	0
4229	0	0
4230	0	0
4231	0	0
4232	0	0
4233	0	0
4234	0	0
4235	0	0
4236	0	0
4237	0	0
4238	0	0
4239	0	0
4240	0	0
4241	0	0
4242	0	0
4243	0	0
4244	0	0
4245	0	0
4246	0	0
4247	0	0
4248	0	0
4249	0	0
4250	0	0
4251	0	0
4252	0	0
4253	0	0
4254	0	0
4255	0	0
4256	0	0
4257	0	0
4258	0	0
4259	0	0
4260	0	0
4261	0	0
4262	0	0
4263	0	0
4264	0	0
4265	0	0
4266	0	0
4267	0	0
4268	0	0
4269	0	0
4270	0	0
4271	0	0
4272	0	0
4273	0	0
4274	0	0
4275	0	0
4276	0	0
4277	0	0
4278	0	0
4279	0	0
4280	0	0
4281	0	0
4282	0	0
4283	0	0
4284	0	0
4285	0	0.047619
4286	0	0.047619
4287	0	0.047619
4288	0	0.047619
4289	0	0.047619
4290	0	0.047619
4291	0	0.047619
4292	0	0.047619
4293	0	0.047619
4294	0	0.047619
4295	0	0
4296	0	0
4297	0	0
4298	0	0
4299	0	0
4300	0	0
4301	0	0
4302	0	0
4303	0	0
4304	0	0.047619
4305	0	0.1
4306	0	0.047619
4307	0	0.047619
4308	0	0.047619
4309	0	0.047619
4310	0	0.047619
4311	0	0.047619
4312	0	0.047619
4313	0	0.047619
4314	0	0.047619
4315	0	0
4316	0	0
4317	0	0
4318	0	0
4319	0	0
4320	0	0
4321	0	0
4322	0	0
4323	0	0
4324	0	0
4325	0	0
4326	0	0
4327	0	0
4328	0	0
4329	0	0
4330	0	0
4331	0	0
4332	0	0
4333	0	0
4334	0	0
4335	0	0
4336	0	0
4337	0	0
4338	0	0
4339	0	0
4340	0	0
4341	0	0
4342	0	0
4343	0	0
4344	0	0
4345	0	0
4346	0	0.047619
4347	0	0.047619
4348	0	0.047619
4349	0	0.047619
4350	0	0.047619
4351	0	0.047619
4352	0	0.047619
4353	0	0.047619
4354	0	0.047619
4355	0	0.047619
4356	0	0.047619
4357	0	0.047619
4358	0	0.047619
4359	0	0.047619
4360	0	0.047619
4361	0	0.047619
4362	0	0.047619
4363	0	0.047619
4364	0	0.047619
4365	0	0.047619
4366	0	0.047619
4367	0	0.047619
4368	0	0.047619
4369	0	0.047619
4370	0	0.047619
4371	0	0.047619
4372	0	0.047619
4373	0	0.047619
4374	0	0.047619
4375	0	0.047619
4376	0	0.047619
4377	0	0.047619
4378	0	0.047619
4379	0	0.047619
4380	0	0.047619
4381	0	0.047619
4382	0	0.047619
4383	0	0.047619
4384	0	0.047619
4385	0	0.047619
4386	0	0.047619
4387	0	0.047619
4388	0	0
4389	0	0.047619
4390	0	0.047619
4391	0	0.047619
4392	0	0.047619
4393	0	0.047619
4394	0	0.047619
4395	0	0.047619
4396	0	0.047619
4397	0	0.047619
4398	0	0.047619
4399	0	0.047619
4400	0	0.047619
4401	0	0.047619
4402	0	0.047619
4403	0	0.047619
4404	0	0
4405	0	0
4406	0	0
4407	0	0
4408	0	0
4409	0	0
4410	0	0
4411	0	0
4412	0	0
4413	0	0
4414	0	0
4415	0	0
4416	0	0
4417	0	0
4418	0	0
4419	0	0.047619
4420	0	0.047619
4421	0	0.047619
4422	0	0.047619
4423	0	0.047619
4424	0	0.047619
4425	0	0.047619
4426	0	0.047619
4427	0	0.047619
4428	0	0.047619
4429	0	0.047619
4430	0	0.047619
4431	0	0.047619
4432	0	0.047619
4433	0	0.047619
4434	0	0.047619
4435	0	0.047619
4436	0	0.047619
4437	0	0.047619
4438	0	0.047619
4439	0	0
4440	0	0
4441	0	0
4442	0	0
4443	0	0
4444	0	0
4445	0	0
4446	0	0
4447	0	0
4448	0	0
4449	0	0
4450	0	0
4451	0	0
4452	0	0
4453	0	0
4454	0	0
4455	0	0
4456	0	0
4457	0	0
4458	0	0
4459	0	0
4460	0	0.047619
4461	0	0.047619
4462	0	0.047619
4463	0	0.047619
4464	0	0.047619
4465	0	0.047619
4466	0	0.047619
4467	0	0.047619
4468	0	0.047619
4469	0	0.047619
4470	0	0.047619
4471	0	0.047619
4472	0	0.047619
4473	0	0.047619
4474	0	0.790435
4475	0	0.342857
4476	0	0.242857
4477	0	0.221053
4478	0	0.114286
4479	0	0.0897436
4480	0	0.0897436
4481	0	0.0897436
4482	0	0.0897436
4483	0	0.0897436
4484	0	0.0769231
4485	0	0.0769231
4486	0	0.0769231
4487	0	0.0659341
4488	0	0.0769231
4489	0	0.0769231
4490	0	0.128205
4491	0	0.128205
4492	0	0.128205
4493	0	0.128205
4494	0	0.128205
4495	0	0.128205
4496	0	0.128205
4497	0	0.128205
4498	0	0.128205
4499	0	0.128205
4500	0	0.0769231
4501	0	0.0769231
4502	0	0.0769231
4503	0	0.0769231
4504	0	0.0769231
4505	0	0.0769231
4506	0	0.0769231
4507	0	0.0769231
4508	0	0.0769231
4509	0	0.120879
4510	0	0.0769231
4511	0	0.0769231
4512	0	0.0769231
4513	0	0.0769231
4514	0	0.0897436
4515	0	0.0897436
4516	0	0.0897436
4517	0	0.0897436
4518	0	0.0897436
4519	0	0.0897436
4520	0	0.0897436
4521	0	0.0897436
4522	0	0.102564
4523	0	0.102564
4524	0	0.0897436
4525	0	0.0897436
4526	0	0.0897436
4527	0	0.0897436
4528	0	0.0897436
4529	0	0.0897436
4530	0	0.0897436
4531	0	0.0897436
4532	0	0.106061
4533	0	0.106061
4534	0	0.106061
4535	0	0.106061
4536	0	0.106061
4537	0	0.106061
4538	0	0.106061
4539	0	0.106061
4540	0	0.127273
4541	0	0.127273
4542	0	0.127273
4543	0	0.127273
4544	0	0.127273
4545	0	0.127273
4546	0	0.127273
4547	0	0.127273
4548	0	0.127273
4549	0	0.106061
4550	0	0.106061
4551	0	0.166667
4552	0	0.166667
4553	0	0.166667
4554	0	0.166667
4555	0	0.2
4556	0	0.2
4557	0	0.2
4558	0	0.2
4559	0	0.2
4560	0	0.2
4561	0	0.2
4562	0	0.2
4563	0	0.2
4564	0	0.2
4565	0	0.2
4566	0	0.2
4567	0	0.2
4568	0	0.2
4569	0	0.2
4570	0	0.2
4571	0	0.2
4572	0	0.2
4573	0	0.2
4574	0	0.2
4575	0	0.2
4576	0	0.2
4577	0	0.0714286
4578	0	0.0714286
4579	0	0.0714286
4580	0	0.0714286
4581	0	0.0714286
4582	0	0.0714286
4583	0	0.0714286
4584	0	0.0714286
4585	0	0.0714286
4586	0	0.0714286
4587	0	0.0714286
4588	0	0.0714286
4589	0	0.0714286
4590	0	0.0714286
4591	0	0.0714286
4592	0	0.0714286
4593	0	0.0714286
4594	0	0.0714286
4595	0	0.0714286
4596	0	0.0714286
4597	0	0.0714286
4598	0	0.0714286
4599	0	0.0714286
4600	0	0.0714286
4601	0	0.0714286
4602	0	0.0714286
4603	0	0.0714286
4604	0	0.0714286
4605	0	0.0714286
4606	0	0.0714286
4607	0	0.0714286
4608	0	0.0714286
4609	0	0.0714286
4610	0	0.0714286
4611	0	0.0714286
4612	0	0.0714286
4613	0	0.0714286
4614	0	0.0714286
4615	0	0.0714286
4616	0	0.0714286
4617	0	0.0714286
4618	0	0.0714286
4619	0	0.0714286
4620	0	0.0714286
4621	0	0.0714286
4622	0	0.0714286
4623	0	0.0714286
4624	0	0.0714286
4625	0	0.0714286
4626	0	0.0714286
4627	0	0.0714286
4628	0	0.0714286
4629	0	0.0714286
4630	0	0.0714286
4631	0	0.0714286
4632	0	0.0714286
4633	0	0.0714286
4634	0	0.0714286
4635	0	0.0714286
4636	0	0.0714286
4637	0	0.0714286
4638	0	0.0714286
4639	0	0.0714286
4640	0	0.0714286
4641	0	0.0714286
4642	0	0.0714286
4643	0	0.0714286
4644	0	0.0714286
4645	0	0.0714286
4646	0	0.0555556
4647	0	0.0555556
4648	0	0.0555556
4649	0	0.0555556
4650	0	0.0555556
4651	0	0.047619
4652	0	0.047619
4653	0	0.047619
4654	0	0.047619
4655	0	0
4656	0	0
4657	0	0
4658	0	0
4659	0	0
4660	0	0
4661	0	0
4662	0	0
4663	0	0
4664	0	0
4665	0	0
4666	0	0
4667	0	0
4668	0	0
4669	0	0
4670	0	0
4671	0	0
4672	0	0
4673	0	0
4674	0	0
4675	0	0
4676	0	0
4677	0	0
4678	0	0
4679	0	0
4680	0	0
4681	0	0
4682	0	0
4683	0	0
4684	0	0
4685	0	0
4686	0	0
4687	0	0
4688	0	0
4689	0	0
4690	0	0
4691	0	0
4692	0	0
4693	0	0
4694	0	0
4695	0	0
4696	0	0
4697	0	0
4698	0	0
4699	0	0
4700	0	0
4701	0	0
4702	0	0
4703	0	0
4704	0	0
4705	0	0
4706	0	0
4707	0	0
4708	0	0
4709	0	0
4710	0	0
4711	0	0
4712	0	0
4713	0	0
4714	0	0
4715	0	0
4716	0	0
4717	0	0
4718	0	0
4719	0	0
4720	0	0
4721	0	0
4722	0	0
4723	0	0
4724	0	0.166667
4725	0	0.166667
4726	0	0.166667
4727	0	0.333333
4728	0	0.333333
4729	0	0.333333
4730	0	0.333333
4731	0	0.333333
4732	0	0.333333
4733	0	0
4734	0	0
4735	0	0
4736	0	0
4737	0	0
4738	0	0
4739	0	0
4740	0	0
4741	0	0
4742	0	0
4743	0	0
4744	0	0
4745	0	0
4746	0	0
4747	0	0
4748	0	0
4749	0	0
4750	0	0
4751	0	0
4752	0	0
4753	0	0
4754	0	0
4755	0	0
4756	0	0
4757	0	0
4758	0	0
4759	0	0
4760	0	0
4761	0	0
4762	0	0
4763	0	0
4764	0	0
4765	0	0
4766	0	0
4767	0	0
4768	0	0
4769	0	0
4770	0	0
4771	0	0
4772	0	0
4773	0	0
4774	0	0
4775	0	0
4776	0	0
4777	0	0
4778	0	0
4779	0	0
4780	0	0
4781	0	0
4782	0	0
4783	0	0
4784	0	0
4785	0	0
4786	0	0
4787	0	0
4788	0	0
4789	0	0
4790	0	0
4791	0	0
4792	0	0
4793	0	0
4794	0	0
4795	0	0
4796	0	0
4797	0	0
4798	0	0
4799	0	0
4800	0	0
4801	0	0
4802	0	0
4803	0	0
4804	0	0
4805	0	0
4806	0	0
4807	0	0
4808	0	0
4809	0	0
4810	0	0
4811	0	0
4812	0	0
4813	0	0
4814	0	0
4815	0	0
4816	0	0
4817	0	0
4818	0	0
4819	0	0
4820	0	0
4821	0	0
4822	0	0
4823	0	0
4824	0	0
4825	0	0
4826	0	0
4827	0	0
4828	0	0
4829	0	0
4830	0	0
4831	0	0
4832	0	0
4833	0	0
4834	0	0
4835	0	0
4836	0	0
4837	0	0
4838	0	0
4839	0	0
4840	0	0
4841	0	0
4842	0	0
4843	0	0
4844	0	0
4845	0	0
4846	0	0
4847	0	0
4848	0	0
4849	0	0
4850	0	0
4851	0	0
4852	0	0
4853	0	0
4854	0	0
4855	0	0
4856	0	0
4857	0	0
4858	0	0
4859	0	0
4860	0	0
4861	0	0
4862	0	0
4863	0	0
4864	0	0
4865	0	0
4866	0	0
4867	0	0
4868	0	0
4869	0	0
4870	0	0
4871	0	0
4872	0	0
4873	0	0
4874	0	0
4875	0	0
4876	0	0
4877	0	0
4878	0	0
4879	0	0
4880	0	0
4881	0	0
4882	0	0
4883	0	0
4884	0	0
4885	0	0
4886	0	0
4887	0	0
4888	0	0
4889	0	0
4890	0	0.333333
4891	0	0.333333
4892	0	0.333333
4893	0	0.333333
4894	0	0.333333
4895	0	0.333333
4896	0	0.333333
4897	0	0.333333
4898	0	0.333333
4899	0	0.333333
4900	0	0.333333
4901	0	0.333333
4902	0	0.333333
4903	0	0.333333
4904	0	0.333333
4905	0	0.333333
4906	0	0.333333
4907	0	0.333333
4908	0	0.333333
4909	0	0.333333
4910	0	0.333333
4911	0	0.333333
4912	0	0.333333
4913	0	0.333333
4914	0	0.333333
4915	0	0.333333
4916	0	0.333333
4917	0	0.333333
4918	0	1
4919	0	1
4920	0	1
4921	0	1
4922	0	1
4923	0	1
4924	0	1
4925	0	1
4926	0	1
4927	0	1
4928	0	1
4929	0	1
4930	0	1
4931	0	1
4932	0	1
4933	0	1
4934	0	1
4935	0	1
4936	0	1
4937	0	1
4938	0	1
4939	0	1
4940	0	1
4941	0	1
4942	0	1
4943	0	1
4944	0	1
4945	0	1
4946	0	1
4947	0	1
4948	0	1
4949	0	1
4950	0	1
4951	0	1
4952	0	1
4953	0	1
4954	0	1
4955	0	1
4956	0	1
4957	0	1
4958	0	1
4959	0	1
4960	0	1
4961	0	1
4962	0	1
4963	0	1
4964	0	1
4965	0	1
4966	0	1
4967	0	1
4968	0	1
4969	0	1
4970	0	1
4971	0	1
4972	0	1
4973	0	1
4974	0	1
4975	0	1
4976	0	1
4977	0	1
4978	0	1
4979	0	1
4980	0	1
4981	0	1
4982	0	1
4983	0	1
4984	0	1
4985	0	1
4986	0	1
4987	0	1
4988	0	1
4989	0	1
4990	0	1
4991	0	1
4992	0	1
4993	0	1
4994	0	1
4995	0	1
4996	0	1
4997	0	1
4998	0	1
4999	0	1
5000	0	1
5001	0	1
5002	0	1
5003	0	1
5004	0	0.333333
5005	0	0.333333
5006	0	0.333333
5007	0	0.333333
5008	0	0.333333
5009	0	0.333333
5010	0	0.333333
5011	0	0
5012	0	0
5013	0	0
5014	0	0
5015	0	0
5016	0	0
5017	0	0
5018	0	0.333333
5019	0	1
5020	0	1
5021	0	1
5022	0	1
5023	0	1
5024	0	1
5025	0	0
5026	0	0
5027	0	0
5028	0	0
5029	0	0
5030	0	0
5031	0	0
5032	0	0
5033	0	0
5034	0	0
5035	0	0
5036	0	0
5037	0	0
5038	0	0
5039	0	0
5040	0	0
5041	0	0
5042	0	0
5043	0	0
5044	0	0
5045	0	0
5046	0	0
5047	0	0
5048	0	0
5049	0	0
5050	0	0
5051	0	0
5052	0	0
5053	0	0
5054	0	0
5055	0	0
5056	0	0
5057	0	0
5058	0	0
5059	0	0
5060	0	0
5061	0	0
5062	0	0
5063	0	0
5064	0	0
5065	0	0
5066	0	0
5067	0	0
5068	0	0
5069	0	0
5070	0	0
5071	0	0
5072	0	0
5073	0	0
5074	0	0
5075	0	0
5076	0	0
5077	0	0
5078	0	0
5079	0	0
5080	0	0
5081	0	0
5082	0	0
5083	0	0
5084	0	0
5085	0	0
5086	0	0
5087	0	0
5088	0	0
5089	0	0
5090	0	0
5091	0	0
5092	0	0
5093	0	0
5094	0	0
5095	0	0
5096	0	0
5097	0	0
5098	0	0
5099	0	0
5100	0	0
5101	0	0
5102	0	0
5103	0	0
5104	0	0
5105	0	0
5106	0	0
5107	0	0
5108	0	0
5109	0	0
5110	0	0
5111	0	0
5112	0	0
5113	0	0
5114	0	0
5115	0	0
5116	0	0
5117	0	0
5118	0	0
5119	0	0
5120	0	0
5121	0	0
5122	0	0
5123	0	0
5124	0	0
5125	0	0
5126	0	0
5127	0	0
5128	0	0
5129	0	0
5130	0	0
5131	0	0
5132	0	0
5133	0	0
5134	0	0
5135	0	0
5136	0	0
5137	0	0
5138	0	0
5139	0	0
5140	0	0
5141	0	0
5142	0	0
5143	0	0
5144	0	0
5145	0	0
5146	0	0
5147	0	0
5148	0	0
5149	0	0
5150	0	0
5151	0	0
5152	0	0
5153	0	0
5154	0	0
5155	0	0
5156	0	0
5157	0	0
5158	0	0
5159	0	0
5160	0	0
5161	0	0
5162	0	0
5163	0	0
5164	0	0
5165	0	0
5166	0	0
5167	0	0
5168	0	0
5169	0	0
5170	0	0
5171	0	0
5172	0	0
5173	0	0
5174	0	0
5175	0	0
5176	0	0
5177	0	0
5178	0	0
5179	0	0
5180	0	0
5181	0	0
5182	0	0
5183	0	0
5184	0	0
5185	0	0
5186	0	0
5187	0	0
5188	0	0
5189	0	0
5190	0	0
5191	0	0
5192	0	0
5193	0	0
5194	0	0
5195	0	0
5196	0	0
5197	0	0
5198	0	0
5199	0	0
5200	0	0
5201	0	0
5202	0	0
5203	0	0
5204	0	0
5205	0	0
5206	0	0
5207	0	0
5208	0	0
5209	0	0
5210	0	0
5211	0	0
5212	0	0
5213	0	0
5214	0	0
5215	0	0
5216	0	0
5217	0	0
5218	0	0
5219	0	0
5220	0	0
5221	0	0
5222	0	0
5223	0	0
5224	0	0
5225	0	0
5226	0	0
5227	0	0
5228	0	0
5229	0	0
5230	0	0
5231	0	0
5232	0	0
5233	0	0
5234	0	0
5235	0	0
5236	0	0
5237	0	0
5238	0	0
5239	0	0
5240	0	0
5241	0	0
5242	0	0
5243	0	0
5244	0	0
5245	0	0
5246	0	0
5247	0	0
5248	0	0
5249	0	0
5250	0	0
5251	0	0
5252	0	0
5253	0	0
5254	0	0
5255	0	0
5256	0	0
5257	0	0
5258	0	0
5259	0	0
5260	0	0
5261	0	0
5262	0	0
5263	0	0
5264	0	0
5265	0	0
5266	0	0
5267	0	0
5268	0	0
5269	0	0
5270	0	0
5271	0	0
5272	0	0
5273	0	0
5274	0	0
5275	0	0
5276	0	0
5277	0	0
5278	0	0.318554
5279	0	0.311061
5280	0	0.294501
5281	0	0.215909
5282	0	0.232184
5283	0	0.21164
5284	0	0.228394
5285	0	0.251859
5286	0	0.155313
5287	0	0.0853682
5288	0	0.0833073
5289	0	0.0367041
5290	0	0.020979
5291	0	0.0201299
5292	0	0.0180392
5293	0	0.0195035
5294	0	0.0177187
5295	0	0.0174216
5296	0	0.0179487
5297	0	0.0184922
5298	0	0.0222222
5299	0	0.0218487
5300	0	0.0231729
5301	0	0.0262097
5302	0	0.0262097
5303	0	0.0302419
5304	0	0.0302419
5305	0	0.0302419
5306	0	0.0302419
5307	0	0.0302419
5308	0	0.0302419
5309	0	0.0302419
5310	0	0.0302419
5311	0	0.0302419
5312	0	0.0322581
5313	0	0.0344086
5314	0	0.0301075
5315	0	0.0301075
5316	0	0.0301075
5317	0	0.0301075
5318	0	0.0301075
5319	0	0.0265152
5320	0	0.0258065
5321	0	0.0258065
5322	0	0.651446
5323	0	0.674145
5324	0	0.0583215
5325	0	0.18018
5326	0	0.0870192
5327	0	0.0901468
5328	0	0.0936139
5329	0	0.027027
5330	0	0.0201681
5331	0	0.0213904
5332	0	0.0265152
5333	0	0.0265152
5334	0	0.0301075
5335	0	0.0301075
5336	0	0.0258065
5337	0	0.0258065
5338	0	0.0258065
5339	0	0.0258065
5340	0	0.0258065
5341	0	0.0258065
5342	0	0.0258065
5343	0	0.0258065
5344	0	0.0258065
5345	0	0.0258065
5346	0	0.0258065
5347	0	0.0258065
5348	0	0.0258065
5349	0	0.0215054
5350	0	0.0215054
5351	0	0.0215054
5352	0	0.0215054
5353	0	0.0193548
5354	0	0.0193548
5355	0	0.0193548
5356	0	0.0193548
5357	0	0.0193548
5358	0	0.0193548
5359	0	0.0193548
5360	0	0.0193548
5361	0	0.0193548
5362	0	0.0215054
5363	0	0.0229885
5364	0	0.0275862
5365	0	0.0275862
5366	0	0.0275862
5367	0	0.0275862
5368	0	0.0275862
5369	0	0.0275862
5370	0	0.0275862
5371	0	0.0275862
5372	0	0.0270936
5373	0	0.0291005
5374	0	0.0291005
5375	0	0.0291005
5376	0	0.0291005
5377	0	0.0291005
5378	0	0.0291005
5379	0	0.0291005
5380	0	0.0291005
5381	0	0.0291005
5382	0	0.0291005
5383	0	0.0291005
5384	0	0.0291005
5385	0	0.0291005
5386	0	0.0291005
5387	0	0.0291005
5388	0	0.0291005
5389	0	0.0343915
5390	0	0.0343915
5391	0	0.0343915
5392	0	0.0343915
5393	0	0.0343915
5394	0	0.0343915
5395	0	0.0343915
5396	0	0.0343915
5397	0	0.0343915
5398	0	0.0343915
5399	0	0.037037
5400	0	0.037037
5401	0	0.037037
5402	0	0.037037
5403	0	0.037037
5404	0	0.037037
5405	0	0.031339
5406	0	0.031339
5407	0	0.031339
5408	0	0.031339
5409	0	0.031339
5410	0	0.031339
5411	0	0.031339
5412	0	0.031339
5413	0	0.031339
5414	0	0.0270936
5415	0	0.0295567
5416	0	0.0295567
5417	0	0.0295567
5418	0	0.0295567
5419	0	0.0295567
5420	0	0.0295567
5421	0	0.0344828
5422	0	0.0344828
5423	0	0.0322581
5424	0	0.0322581
5425	0	0.0321839
5426	0	0.037037
5427	0	0.037037
5428	0	0.037037
5429	0	0.037037
5430	0	0.025641
5431	0	0.0307692
5432	0	0.0307692
5433	0	0.0246154
5434	0	0.0246154
5435	0	0.0307692
5436	0	0.0369231
5437	0	0.0369231
5438	0	0.0369231
5439	0	0.0369231
5440	0	0.0369231
5441	0	0.0369231
5442	0	0.0369231
5443	0	0.0369231
5444	0	0.0369231
5445	0	0.04
5446	0	0.04
5447	0	0.04
5448	0	0.04
5449	0	0.04
5450	0	0.04
5451	0	0.04
5452	0	0.05
5453	0	0.05
5454	0	0.05
5455	0	0.05
5456	0	0.0433333
5457	0	0.0433333
5458	0	0.0615942
5459	0	0.0615942
5460	0	0.0615942
5461	0	0.0615942
5462	0	0.0615942
5463	0	0.0615942
5464	0	0.0615942
5465	0	0.0615942
5466	0	0.0615942
5467	0	0.0615942
5468	0	0.0471014
5469	0	0.0398551
5470	0	0.0398551
5471	0	0.0398551
5472	0	0.0398551
5473	0	0.0398551
5474	0	0.0398551
5475	0	0.0398551
5476	0	0.0398551
5477	0	0.0398551
5478	0	0.0398551
5479	0	0.0398551
5480	0	0.0398551
5481	0	0.0398551
5482	0	0.0398551
5483	0	0.0434783
5484	0	0.0562771
5485	0	0.0562771
5486	0	0.0562771
5487	0	0.0562771
5488	0	0.0562771
5489	0	0.0562771
5490	0	0.0562771
5491	0	0.0562771
5492	0	0.0562771
5493	0	0.0562771
5494	0	0.0631579
5495	0	0.0473684
5496	0	0.0578947
5497	0	0.0578947
5498	0	0.0578947
5499	0	0.0643275
5500	0	0.0643275
5501	0	0.0643275
5502	0	0.0666667
5503	0	0.0666667
5504	0	0.0666667
5505	0	0.0666667
5506	0	0.0666667
5507	0	0.0666667
5508	0	0.0666667
5509	0	0.0666667
5510	0	0.0916667
5511	0	0.0916667
5512	0	0.075
5513	0	0.075
5514	0	0.075
5515	0	0.075
5516	0	0.075
5517	0	0.075
5518	0	0.075
5519	0	0.075
5520	0	0.075
5521	0	0.075
5522	0	0.075
5523	0	0.075
5524	0	0.075
5525	0	0.075
5526	0	0.075
5527	0	0.075
5528	0	0.075
5529	0	0.043956
5530	0	0.043956
5531	0	0.0454545
5532	0	0.0454545
5533	0	0.0757576
5534	0	0.0757576
5535	0	0.0757576
5536	0	0.0757576
5537	0	0.0757576
5538	0	0.0757576
5539	0	0.0757576
5540	0	0.0757576
5541	0	0.0757576
5542	0	0.0757576
5543	0	0.0757576
5544	0	0.0757576
5545	0	0.0757576
5546	0	0.0757576
5547	0	0.0757576
5548	0	0.0757576
5549	0	0.0757576
5550	0	0.0757576
5551	0	0.0757576
5552	0	0.0757576
5553	0	0.0757576
5554	0	0.0757576
5555	0	0.0757576
5556	0	0.0757576
5557	0	0.0757576
5558	0	0.0757576
5559	0	0.0757576
5560	0	0.0757576
5561	0	0.0757576
5562	0	0.0757576
5563	0	0.0757576
5564	0	0.0757576
5565	0	0.0757576
5566	0	0.0641026
5567	0	0.0641026
5568	0	0.0641026
5569	0	0.0641026
5570	0	0.0641026
5571	0	0.0641026
5572	0	0.0641026
5573	0	0.0641026
5574	0	0.0549451
5575	0	0.0549451
5576	0	0.032967
5577	0	0.032967
5578	0	0.032967
5579	0	0.032967
5580	0	0.032967
5581	0	0.032967
5582	0	0.032967
5583	0	0.032967
5584	0	0.032967
5585	0	0.032967
5586	0	0.032967
5587	0	0.032967
5588	0	0.032967
5589	0	0.032967
5590	0	0.032967
5591	0	0.0549451
5592	0	0.0549451
5593	0	0.0549451
5594	0	0.0549451
5595	0	0.0549451
5596	0	0.0549451
5597	0	0.0549451
5598	0	0.0549451
5599	0	0.0549451
5600	0	0.0549451
5601	0	0.0549451
5602	0	0.0549451
5603	0	0.0549451
5604	0	0.0549451
5605	0	0.0549451
5606	0	0.0641026
5607	0	0.0641026
5608	0	0.0641026
5609	0	0.0363636
5610	0	0.0363636
5611	0	0.0277778
5612	0	0.0357143
5613	0	0.0357143
5614	0	0.0357143
5615	0	0.0357143
5616	0	0.047619
5617	0	0.0666667
5618	0	0.0666667
5619	0	0.0666667
5620	0	0.0666667
5621	0	0.0666667
5622	0	0.0666667
5623	0	0.1
5624	0	0.166667
5625	0	0.166667
5626	0	0.166667
5627	0	0.166667
5628	0	0.166667
5629	0	0.166667
5630	0	0.166667
5631	0	0.166667
5632	0	0.166667
5633	0	0.166667
5634	0	0.166667
5635	0	0.166667
5636	0	0.166667
5637	0	0.166667
5638	0	0.166667
5639	0	0.166667
5640	0	0.166667
5641	0	0.166667
5642	0	0.166667
5643	0	0.166667
5644	0	0.166667
5645	0	0.166667
5646	0	0.166667
5647	0	0.166667
5648	0	0.166667
5649	0	0.166667
5650	0	0.166667
5651	0	0.166667
5652	0	0.166667
5653	0	0.166667
5654	0	0.166667
5655	0	0.166667
5656	0	0.166667
5657	0	0.166667
5658	0	0.166667
5659	0	0.166667
5660	0	0.166667
5661	0	0.166667
5662	0	0.166667
5663	0	0.166667
5664	0	0.166667
5665	0	0.166667
5666	0	0.166667
5667	0	0.166667
5668	0	0.166667
5669	0	0.166667
5670	0	0.166667
5671	0	0.166667
5672	0	0.166667
5673	0	0.166667
5674	0	0.166667
5675	0	0.166667
5676	0	0.166667
5677	0	0.166667
5678	0	0.166667
5679	0	0.166667
5680	0	0.166667
5681	0	0.166667
5682	0	0.166667
5683	0	0.166667
5684	0	0.166667
5685	0	0.166667
5686	0	0.166667
5687	0	0.166667
5688	0	0.166667
5689	0	0.166667
5690	0	0.166667
5691	0	0.166667
5692	0	0.166667
5693	0	0.166667
5694	0	0.166667
5695	0	0.166667
5696	0	0.166667
5697	0	0.166667
5698	0	0.166667
5699	0	0.166667
5700	0	0.166667
5701	0	0.166667
5702	0	0.166667
5703	0	0.166667
5704	0	0.166667
5705	0	0.166667
5706	0	0.166667
5707	0	0.166667
5708	0	0.166667
5709	0	0.166667
5710	0	0.166667
5711	0	0.166667
5712	0	0.166667
5713	0	0.166667
5714	0	0.166667
5715	0	0.166667
5716	0	0.166667
5717	0	0.166667
5718	0	0.166667
5719	0	0.166667
5720	0	0.166667
5721	0	0.166667
5722	0	0.166667
5723	0	0.166667
5724	0	0.166667
5725	0	0.166667
5726	0	0.166667
5727	0	0.166667
5728	0	0.166667
5729	0	0.166667
5730	0	0.166667
5731	0	0.166667
5732	0	0.166667
5733	0	0.166667
5734	0	0.166667
5735	0	0.166667
5736	0	0.166667
5737	0	0.166667
5738	0	0.166667
5739	0	0.166667
5740	0	0.166667
5741	0	0.166667
5742	0	0.166667
5743	0	0.166667
5744	0	0.166667
5745	0	0.166667
5746	0	0.166667
5747	0	0.166667
5748	0	0.166667
5749	0	0.166667
5750	0	0.166667
5751	0	0.166667
5752	0	0.166667
5753	0	0.166667
5754	0	0.166667
5755	0	0.166667
5756	0	0.166667
5757	0	0.166667
5758	0	0.166667
5759	0	0.166667
5760	0	0.166667
5761	0	0.166667
5762	0	0.166667
5763	0	0.166667
5764	0	0.166667
5765	0	0.166667
5766	0	0.166667
5767	0	0.166667
5768	0	0.166667
5769	0	0.166667
5770	0	0.166667
5771	0	0.166667
5772	0	0.166667
5773	0	0.166667
5774	0	0.166667
5775	0	0.166667
5776	0	0.166667
5777	0	0.166667
5778	0	0.166667
5779	0	0.166667
5780	0	0.166667
5781	0	0.166667
5782	0	0.166667
5783	0	0.166667
5784	0	0.166667
5785	0	0.166667
5786	0	0.166667
5787	0	0.166667
5788	0	0.166667
5789	0	0.166667
5790	0	0.166667
5791	0	0.166667
5792	0	0.166667
5793	0	0.166667
5794	0	0.166667
5795	0	0.166667
5796	0	0.166667
5797	0	0.166667
5798	0	0.166667
5799	0	0.166667
5800	0	0.166667
5801	0	0.166667
5802	0	0.166667
5803	0	0.166667
5804	0	0.166667
5805	0	0.166667
5806	0	0.166667
5807	0	0.166667
5808	0	0.166667
5809	0	0.166667
5810	0	0.166667
5811	0	0.166667
5812	0	0.166667
5813	0	0.166667
5814	0	0.166667
5815	0	0.166667
5816	0	0.166667
5817	0	0.166667
5818	0	0.166667
5819	0	0.166667
5820	0	0.166667
5821	0	0.166667
5822	0	0.166667
5823	0	0.166667
5824	0	0.166667
5825	0	0.5
5826	0	0.5
5827	0	0.5
5828	0	0.5
5829	0	0.6
5830	0	0.6
5831	0	0.6
5832	0	0.6
5833	0	0.6
5834	0	0.6
5835	0	0.6
5836	0	1
5837	0	1
5838	0	1
5839	0	1
5840	0	1
5841	0	1
5842	0	1
5843	0	1
5844	0	1
5845	0	1
5846	0	0.6
5847	0	0.6
5848	0	0.6
5849	0	0.4
5850	0	0.4
5851	0	0.4
5852	0	0.4
5853	0	0.4
5854	0	0.4
5855	0	0.4
5856	0	0.4
5857	0	0.4
5858	0	0.4
5859	0	0.4
5860	0	0.4
5861	0	0.4
5862	0	0.4
5863	0	0.4
5864	0	0.4
5865	0	0.4
5866	0	0.4
5867	0	0.4
5868	0	0.4
5869	0	0.4
5870	0	0.4
5871	0	0.4
5872	0	0.4
5873	0	0.4
5874	0	0.4
5875	0	0.4
5876	0	0.4
5877	0	0.4
5878	0	0.4
5879	0	0.4
5880	0	0.4
5881	0	0.4
5882	0	0.4
5883	0	0.4
5884	0	0.4
5885	0	0.4
5886	0	0.4
5887	0	0.4
5888	0	0.4
5889	0	0.4
5890	0	0.4
5891	0	0.4
5892	0	0.4
5893	0	0.4
5894	0	0.4
5895	0	0.4
5896	0	0.4
5897	0	0.4
5898	0	0.4
5899	0	0.4
5900	0	0.4
5901	0	0.4
5902	0	0.4
5903	0	0.4
5904	0	0.4
5905	0	0.4
5906	0	0.4
5907	0	0.4
5908	0	0.4
5909	0	0.4
5910	0	0.4
5911	0	1
5912	0	1
5913	0	1
5914	0	1
5915	0	1
5916	0	1
5917	0	1
5918	0	1
5919	0	1
5920	0	1
5921	0	1
5922	0	1
5923	0	1
5924	0	1
5925	0	1
5926	0	1
5927	0	1
5928	0	1
5929	0	1
5930	1	1
5931	0	1
5932	0	1
5933	0	1
5934	0	1
5935	0	1
5936	0	1
5937	0	1
5938	0	1
5939	0	1
5940	0	1
5941	0	1
5942	0	1
5943	0	1
5944	0	1
5945	0	1
5946	0	1
5947	1	1
5948	0	1
5949	0	1
5950	0	1
5951	0	1
5952	0	1
5953	0	1
5954	0	1
5955	0	1
5956	0	1
5957	0	1
5958	0	1
5959	0	1
5960	0	1
5961	0	1
5962	0	1
5963	0	1
5964	0	1
5965	0	1
5966	0	1
5967	0	1
5968	0	1
5969	0	1
5970	0	1
5971	0	1
5972	0	1
5973	0	1
5974	0	1
5975	0	1
5976	0	1
5977	0	1
5978	0	1
5979	0	1
5980	0	1
5981	0	1
5982	0	1
5983	0	1
5984	0	1
5985	0	1
5986	0	1
5987	0	1
5988	0	1
5989	0	1
5990	0	1
5991	0	1
5992	0	1
5993	0	1
5994	0	1
5995	0	1
5996	0	1
5997	0	1
5998	0	1
5999	0	1
6000	0	1
6001	0	1
6002	0	1
6003	0	1
6004	0	0.666667
6005	0	0.305556
6006	0	0.305556
6007	0	0.593172
6008	0	0.266316
6009	0	0.248203
6010	0	0.220677
6011	0	0.234486
