Site	ColumnScore	SumOfPairsScore
1	0	0
2	0	0
3	0	0
4	0	0
5	0	0
6	0	0
7	0	0
8	0	0
9	0	0
10	0	0
11	0	0
12	0	0
13	0	0
14	0	0
15	0	0
16	0	0
17	0	0
18	0	0
19	0	0
20	0	0
21	0	0
22	0	0
23	0	0
24	0	0
25	0	0
26	0	0
27	0	0
28	0	0
29	0	0
30	0	0
31	0	0
32	0	0
33	0	0
34	0	0
35	0	0
36	0	0
37	0	0
38	0	0
39	0	0
40	0	0
41	0	0
42	0	0
43	0	0
44	0	0
45	0	0
46	0	0
47	0	0
48	0	0
49	0	0
50	0	0
51	0	0
52	0	0
53	0	0
54	0	0
55	0	0
56	0	0
57	0	0
58	0	0
59	0	0
60	0	0
61	0	0
62	0	0
63	0	0
64	0	0
65	0	0
66	0	0
67	0	0
68	0	0
69	0	0
70	0	0
71	0	0
72	0	0
73	0	0
74	0	0
75	0	0
76	0	0
77	0	0
78	0	0
79	0	0
80	0	0
81	0	0
82	0	0
83	0	0
84	0	0
85	0	0
86	0	0
87	0	0
88	0	0
89	0	0
90	0	0
91	0	0
92	0	0
93	0	0
94	0	0
95	0	0
96	0	0
97	0	0
98	0	0
99	0	0
100	0	0
101	0	0
102	0	0
103	0	0
104	0	0
105	0	0
106	0	0
107	0	0
108	0	0
109	0	0
110	0	0
111	0	0
112	0	0
113	0	0
114	0	0
115	0	0
116	0	0
117	0	0
118	0	0
119	0	0
120	0	0
121	0	0
122	0	0
123	0	0
124	0	0
125	0	0
126	0	0
127	0	0
128	0	0
129	0	0
130	0	0
131	0	0
132	0	0
133	0	0
134	0	0
135	0	0
136	0	0
137	0	0
138	0	0
139	0	0
140	0	0
141	0	0
142	0	0
143	0	0
144	0	0
145	0	0
146	0	0
147	0	0
148	0	0
149	0	0
150	0	0
151	0	0
152	0	0
153	0	0
154	0	0
155	0	0
156	0	0
157	0	0
158	0	0
159	0	0
160	0	0
161	0	0
162	0	0
163	0	0
164	0	0
165	0	0
166	0	0
167	0	0
168	0	0
169	0	0
170	0	0
171	0	0
172	0	0
173	0	0
174	0	0
175	0	0
176	0	0
177	0	0
178	0	0
179	0	0
180	0	0
181	0	0
182	0	0
183	0	0
184	0	0
185	0	0
186	0	0
187	0	0
188	0	0
189	0	0
190	0	0
191	0	0
192	0	0
193	0	0
194	0	0
195	0	0
196	0	0
197	0	0
198	0	0
199	0	0
200	0	0
201	0	0
202	0	0
203	0	0
204	0	0
205	0	0
206	0	0
207	0	0
208	0	0
209	0	0
210	0	0
211	0	0
212	0	0
213	0	0
214	0	0
215	0	0
216	0	0
217	0	0
218	0	0
219	0	0
220	0	0
221	0	0
222	0	0
223	0	0
224	0	0
225	0	0
226	0	0
227	0	0
228	0	0
229	0	0
230	0	0
231	0	0
232	0	0
233	0	0.1
234	0	0.1
235	0	0.1
236	0	0.1
237	0	0.1
238	0	0.1
239	0	0.1
240	0	0.1
241	0	0.1
242	0	0.1
243	0	0.0666667
244	0	0.0666667
245	0	0.0666667
246	0	0.0666667
247	0	0.0666667
248	0	0.0666667
249	0	0.0666667
250	0	0.0666667
251	0	0.0666667
252	0	0.0666667
253	0	0.0666667
254	0	0.0666667
255	0	0.0666667
256	0	0.0666667
257	0	0.0666667
258	0	0.0666667
259	0	0.0666667
260	0	0.0666667
261	0	0.0666667
262	0	0.0666667
263	0	0.0666667
264	0	0.0666667
265	0	0.0666667
266	0	0.0666667
267	0	0.0666667
268	0	0.0666667
269	0	0.0666667
270	0	0.0666667
271	0	0.0666667
272	0	0.0666667
273	0	0.047619
274	0	0.047619
275	0	0.0357143
276	0	0.0357143
277	0	0.0357143
278	0	0.0357143
279	0	0.0277778
280	0	0.0277778
281	0	0.0277778
282	0	0.0277778
283	0	0.0277778
284	0	0.0277778
285	0	0.0277778
286	0	0.0277778
287	0	0.0277778
288	0	0.0357143
289	0	0.0357143
290	0	0.0357143
291	0	0.0357143
292	0	0.0357143
293	0	0.0357143
294	0	0.0357143
295	0	0.0357143
296	0	0.0357143
297	0	0.0357143
298	0	0.0357143
299	0	0
300	0	0.0357143
301	0	0.0277778
302	0	0.0277778
303	0	0.0222222
304	0	0.0222222
305	0	0.0222222
306	0	0.0363636
307	0	0.0363636
308	0	0.0363636
309	0	0.0363636
310	0	0.0363636
311	0	0.0363636
312	0	0.0363636
313	0	0.0363636
314	0	0.0384615
315	0	0.0384615
316	0	0.0384615
317	0	0.025641
318	0	0.025641
319	0	0.025641
320	0	0.025641
321	0	0.0384615
322	0	0.0384615
323	0	0.0384615
324	0	0.0549451
325	0	0.0549451
326	0	0.0549451
327	0	0.032967
328	0	0.032967
329	0	0.043956
330	0	0.0380952
331	0	0.047619
332	0	0.047619
333	0	0.047619
334	0	0.047619
335	0	0.047619
336	0	0.047619
337	0	0.0380952
338	0	0.047619
339	0	0.0285714
340	0	0.0285714
341	0	0.0285714
342	0	0.0333333
343	0	0.0333333
344	0	0.0333333
345	0	0.0294118
346	0	0.0367647
347	0	0.0294118
348	0	0.0261438
349	0	0.0261438
350	0	0.0261438
351	0	0.0261438
352	0	0.0261438
353	0	0.0292398
354	0	0.0467836
355	0	0.0467836
356	0	0.0467836
357	0	0.0643275
358	0	0.0643275
359	0	0.0578947
360	0	0.0578947
361	0	0.0473684
362	0	0.0692641
363	0	0.0905797
364	0	0.08
365	0	0.11396
366	0	0.10582
367	0	0.282638
368	0	0.278388
369	0	0.230474
370	0	0.218153
371	0	0.167966
372	0	0.139535
373	0	0.12869
374	0	0.0936743
375	0	0.158653
376	0	0.160614
377	0	0.156368
378	0	0.15634
379	0	0.155448
380	0	0.155928
381	0	0.155061
382	0	0.14381
383	0	0.131194
384	0	0.186447
385	0	0.0783778
386	0	0.0723425
387	0	0.0764559
388	0	0.0879229
389	0	0.122373
390	0	0.185675
391	0	0.204757
392	0	0.118577
393	0	0.655488
394	0	0.0952381
395	0	0.0952381
396	0	0
397	0	0
398	0	0
399	0	0
400	0	0
401	0	0
402	0	0
403	0	0
404	0	0
405	0	0
406	0	0
407	0	0
408	0	0
409	0	0
410	0	0
411	0	0
412	0	0
413	0	0
414	0	0
415	0	0
416	0	0
417	0	0
418	0	0
419	0	0
420	0	0
421	0	0
422	0	0
423	0	0
424	0	0
425	0	0.5
426	0	0.128316
427	0	0.149597
428	0	0.148125
429	0	0.155642
430	0	0.165552
431	0	0.131964
432	0	0.106513
433	0	0.13876
434	0	0.113377
435	0	0.148664
436	0	0.147503
437	0	0.104444
438	0	0.129127
439	0	0.132418
440	0	0.138531
441	0	0.144375
442	0	0.186584
443	0	0.193249
444	0	0.166667
445	0	0.166667
446	0	0.333333
447	0	0.333333
448	0	0.333333
449	0	0.333333
450	0	0.333333
451	0	0.333333
452	0	0.333333
453	0	0.333333
454	0	0.333333
455	0	0.333333
456	0	0.333333
457	0	0.333333
458	0	0.333333
459	0	0.333333
460	0	0.333333
461	0	0
462	0	0
463	0	0
464	0	0
465	0	0
466	0	0
467	0	0
468	0	0
469	0	0
470	0	0
471	0	0
472	0	0
473	0	0
474	0	0
475	0	0
476	0	0
477	0	0
478	0	0
479	0	0
480	0	0
481	0	0
482	0	0
483	0	0
484	0	0
485	0	0
486	0	0
487	0	0
488	0	0
489	0	0
490	0	0
491	0	0
492	0	0
493	0	0
494	0	0
495	0	0
496	0	0
497	0	0
498	0	0
499	0	0
500	0	0
501	0	0
502	0	0
503	0	0
504	0	0
505	0	0
506	0	0
507	0	0
508	0	0
509	0	0
510	0	0
511	0	0
512	0	0
513	0	0
514	0	0
515	0	0
516	0	0
517	0	0
518	0	0
519	0	0
520	0	0
521	0	0
522	0	0
523	0	0
524	0	0
525	0	0
526	0	0
527	0	0
528	0	0
529	0	0
530	0	0
531	0	0
532	0	0
533	0	0.800493
534	0	0.800493
535	0	0
536	0	0
537	0	0
538	0	0
539	0	0
540	0	0
541	0	0
542	0	0
543	0	0
544	0	0
545	0	0
546	0	0
547	0	0
548	0	0
549	0	0
550	0	0
551	0	0
552	0	0
553	0	0
554	0	0
555	0	0
556	0	0
557	0	0
558	0	0
559	0	0
560	0	0
561	0	0
562	0	0
563	0	0
564	0	0
565	0	0
566	0	0
567	0	0
568	0	0
569	0	0
570	0	0
571	0	0
572	0	0
573	0	0
574	0	0
575	0	0
576	0	0
577	0	0
578	0	0
579	0	0
580	0	0
581	0	0
582	0	0
583	0	0
584	0	0
585	0	0
586	0	0
587	0	0
588	0	0
589	0	0
590	0	0
591	0	0
592	0	0
593	0	0
594	0	0
595	0	0
596	0	0
597	0	0
598	0	0
599	0	0
600	0	0
601	0	0
602	0	0
603	0	0
604	0	0
605	0	0
606	0	0
607	0	0
608	0	0
609	0	0
610	0	0
611	0	0
612	0	0
613	0	0
614	0	0
615	0	0
616	0	0
617	0	0
618	0	0
619	0	0
620	0	0
621	0	0
622	0	0
623	0	0
624	0	0
625	0	0
626	0	0
627	0	0
628	0	0
629	0	0
630	0	0
631	0	0
632	0	0
633	0	0
634	0	0
635	0	0
636	0	0
637	0	0
638	0	0
639	0	0
640	0	0
641	0	0
642	0	0
643	0	0
644	0	0
645	0	0
646	0	0
647	0	0
648	0	0
649	0	0
650	0	0
651	0	0
652	0	0
653	0	0
654	0	0
655	0	0
656	0	0
657	0	0
658	0	0
659	0	0
660	0	0
661	0	0
662	0	0
663	0	0
664	0	0
665	0	0
666	0	0
667	0	0
668	0	0
669	0	0
670	0	0
671	0	0.1
672	0	0.1
673	0	0.1
674	0	0.1
675	0	0.1
676	0	0.0666667
677	0	0.047619
678	0	0.155556
679	0	0.145455
680	0	0.294118
681	0	0.377482
682	0	0.397426
683	0	0.704541
684	0	0.577363
685	0	0.411765
686	0	0.461988
687	0	0.368069
688	0	0.360652
689	0	0.154041
690	0	0.359931
691	0	0.332163
692	0	0.174794
693	0	0.0562771
694	0	0.0692641
695	0	0.0615942
696	0	0.0512821
697	0	0.203005
698	0	0.205339
699	0	0
700	0	0
701	0	0
702	0	0
703	0	0.042328
704	0	0.0523077
705	0	0.226462
706	0	0.165673
707	0	0.5
708	0	0.5
709	0	0.222061
710	0	0.212439
711	0	0.118326
712	0	0
713	0	0
714	0	0
715	0	0.094412
716	0	0.163678
717	0	0.15834
718	0	0
719	0	0
720	0	0
721	0	0
722	0	0
723	0	0
724	0	0
725	0	0
726	0	0
727	0	0
728	0	0
729	0	0
730	0	0
731	0	0
732	0	0
733	0	0
734	0	0
735	0	0.157143
736	0	1
737	0	1
738	0	0.0857143
739	0	0.0793651
740	0	0.0793651
741	0	0.0750751
742	0	0.135556
743	0	0.131317
744	0	0.0545455
745	0	0.0545455
746	0	0.0545455
747	0	0.0545455
748	0	0.131878
749	0	0.111111
750	0	0.133333
751	0	0.0952381
752	0	0.0952381
753	0	0.0952381
754	0	0.0666667
755	0	0.166667
756	0	0.166667
757	0	0.0666667
758	0	0.019943
759	0	0.0880298
760	0	0.075783
761	0	0.025974
762	0	0.025974
763	0	0.0220588
764	0	0.025
765	0	0.025
766	0	0.0416667
767	0	0.025
768	0	0.0294118
769	0	0.08008
770	0	0.073666
771	0	0.0696534
772	0	0
773	0	0
774	0	0
775	0	0
776	0	0
777	0	0
778	0	0
779	0	0
780	0	0
781	0	0
782	0	0.0722013
783	0	0
784	0	0
785	0	0
786	0	0
787	0	0
788	0	0
789	0	0.0961519
790	0	0.150233
791	0	0.333333
792	0	0.333333
793	0	0.333333
794	0	0.333333
795	0	0.333333
796	0	0.333333
797	0	0.333333
798	0	0.333333
799	0	0.333333
800	0	0.333333
801	0	0.333333
802	0	0.333333
803	0	0.333333
804	0	0.333333
805	0	0.333333
806	0	0.333333
807	0	0.133333
808	0	0.133333
809	0	0.0952381
810	0	0.0952381
811	0	0.0952381
812	0	0.0714286
813	0	0.0555556
814	0	0.025641
815	0	0.155411
816	0	0.131423
817	0	0.0928555
818	0	0.112227
819	0	0.099726
820	0	0.120942
821	0	0.114412
822	0	0.116749
823	0	0.0504556
824	0	0.169196
825	0	0.0977358
826	0	0.0970259
827	0	0.0813174
828	0	0
829	0	0
830	0	0
831	0	0
832	0	0
833	0	0
834	0	0
835	0	0
836	0	0
837	0	0
838	0	0
839	0	0
840	0	0
841	0	0
842	0	0
843	0	0
844	0	0
845	0	0
846	0	0
847	0	0
848	0	0
849	0	0
850	0	0
851	0	0
852	0	0
853	0	0
854	0	0
855	0	0
856	0	0
857	0	0
858	0	0
859	0	0
860	0	0.139064
861	0	0.150075
862	0	0.160633
863	0	0.155298
864	0	0.155298
865	0	0.0930339
866	0	0.111001
867	0	0.0981525
868	0	0.100668
869	0	0
870	0	0
871	0	0
872	0	0.13071
873	0	0.127121
874	0	0.12506
875	0	0.14823
876	0	0.205277
877	0	0
878	0	0
879	0	0
880	0	0
881	0	0
882	0	0
883	0	0
884	0	0
885	0	0
886	0	0
887	0	0
888	0	0
889	0	0
890	0	0
891	0	0
892	0	0
893	0	0
894	0	0
895	0	0
896	0	0
897	0	0.333333
898	0	0.166667
899	0	0.166667
900	0	0.166667
901	0	0.166667
902	0	0.166667
903	0	0.2
904	0	0.473347
905	0	0.149908
906	0	0.047619
907	0	0.047619
908	0	0.148694
909	0	0.149088
910	0	0
911	0	0
912	0	0
913	0	0
914	0	0
915	0	0
916	0	0
917	0	0
918	0	0
919	0	0
920	0	0
921	0	0
922	0	0
923	0	0
924	0	0.0238095
925	0	0.0291005
926	0	0.015873
927	0	0.119842
928	0	0.115114
929	0	0.0249554
930	0	0.174933
931	0	0.172572
932	0	0
933	0	0
934	0	0
935	0	0
936	0	0
937	0	0.4
938	0	0.4
939	0	0.4
940	0	0
941	0	0
942	0	0
943	0	0.0666667
944	0	0.2
945	0	0.2
946	0	0.2
947	0	0
948	0	0
949	0	0
950	0	0
951	0	0
952	0	0
953	0	0
954	0	0
955	0	0
956	0	0
957	0	0
958	0	0
959	0	0
960	0	0
961	0	0
962	0	0
963	0	0
964	0	0
965	0	0
966	0	0
967	0	0
968	0	0
969	0	0
970	0	0
971	0	0
972	0	0
973	0	0
974	0	0
975	0	0
976	0	0
977	0	0.0291613
978	0	0.0305806
979	0	0.0562771
980	0	0.0367647
981	0	0.0684211
982	0	0.161604
983	0	0.185602
984	0	0
985	0	0
986	0	0
987	0	0
988	0	0
989	0	0
990	0	0
991	0	0.196354
992	0	0.0447363
993	0	0.0423837
994	0	0.118257
995	0	0.0900289
996	0	0.0832618
997	0	0.0943125
998	0	0.0989036
999	0	0.103683
1000	0	0
1001	0	0
1002	0	0
1003	0	0
1004	0	0
1005	0	0
1006	0	0
1007	0	0
1008	0	0
1009	0	0.0754057
1010	0	0.185877
1011	0	0
1012	0	0.0774011
1013	0	0.0730897
1014	0	0.0841463
1015	0	0.115873
1016	0	0.199134
1017	0	0
1018	0	0
1019	0	0.021978
1020	0	0.032967
1021	0	0.032967
1022	0	0.032967
1023	0	0.030303
1024	0	0.025641
1025	0	0.0277778
1026	0	0.0151515
1027	0	0.284077
1028	0	0.355107
1029	0	0.395453
1030	0	0.718057
1031	0	0.709487
1032	0	0.81921
1033	0	0.8554
1034	0	0.0948617
1035	0	0.110672
1036	0	0.131579
1037	0	0.131579
1038	0	0.181287
1039	0	0.578592
1040	0	0.574464
1041	0	0.318182
1042	0	0
1043	0	0
1044	0	0
1045	0	0
1046	0	0
1047	0	0
1048	0	0
1049	0	1
1050	0	1
1051	0	1
1052	0	0.394447
1053	0	0
1054	0	0
1055	0	0
1056	0	0
1057	0	0
1058	0	0
1059	0	0
1060	0	0
1061	0	0
1062	0	0
1063	0	0
1064	0	0
1065	0	0
1066	0	0
1067	0	0
1068	0	0
1069	0	0
1070	0	0
1071	0	0
1072	0	0
1073	0	0
1074	0	0
1075	0	0
1076	0	0
1077	0	0
1078	0	0.396929
1079	0	0.392062
1080	0	0.333333
1081	0	0.348629
1082	0	0.331454
1083	0	0.333333
1084	0	0.146245
1085	0	0.179289
1086	0	0.300646
1087	0	0.216374
1088	0	0.200501
1089	0	0.174682
1090	0	0.190476
1091	0	0.177778
1092	0	0.2
1093	0	0.199461
1094	0	0.364311
1095	0	0.471084
1096	0	0.512258
1097	0	0.484847
1098	0	0.459682
1099	0	0
1100	0	0.289876
1101	0	0.240835
1102	0	0.310199
1103	0	0.288834
1104	0	0.288176
1105	0	0.271648
1106	0	0.229462
1107	0	0.128205
1108	0	0.137097
1109	0	0.0891266
1110	0	0.0738636
1111	0	0.0537634
1112	0	0.257093
1113	0	0.255442
1114	0	0.0894737
1115	0	0.0894737
1116	0	0.0894737
1117	0	0.237698
1118	0	0.0838384
1119	0	0.0860215
1120	0	0.0860215
1121	0	0.0953846
1122	0	0.0684211
1123	0	0.0853485
1124	0	0.0768293
1125	0	0.144824
1126	0	0.133183
1127	0	0.12293
1128	0	0.163567
1129	0	0.161654
1130	0	0.147191
1131	0	0.104348
1132	0	0.10242
1133	0	0.10069
1134	0	0.105695
1135	0	0.11445
1136	0	0.220888
1137	0	0.119358
1138	0	0.0901914
1139	0	0.0880988
1140	0	0.0792423
1141	0	0
1142	0	0
1143	0	0
1144	0	0
1145	0	0
1146	0	0
1147	0	0
1148	0	0
1149	0	0
1150	0	0
1151	0	0
1152	0	0
1153	0	0.277778
1154	0	0.357143
1155	0	0.0457837
1156	0	0.0470571
1157	0	0.0429655
1158	0	0.0408829
1159	0	0.0452513
1160	0	0.0483396
1161	0	0.0470515
1162	0	0.042396
1163	0	0.0394633
1164	0	0.0375489
1165	0	0.0529168
1166	0	0.0303184
1167	0	0.0269989
1168	0	0.025072
1169	0	0.0270033
1170	0	0.0242797
1171	0	0.0235046
1172	0	0.0296717
1173	0	0.0304602
1174	0	0.0337262
1175	0	0.0335972
1176	0	0.0326693
1177	0	0.0258831
1178	0	0.060632
1179	0	0.036695
1180	0	0.0397957
1181	0	0.0310078
1182	0	0.0365854
1183	0	0.0292683
1184	0	0.0317073
1185	0	0.0287929
1186	0	0.0338266
1187	0	0.0509804
1188	0	0.0437406
1189	0	0.0374921
1190	0	0.0422021
1191	0	0.0412235
1192	0	0.0436195
1193	0	0.0767196
1194	0	0.0826211
1195	0	0.0443523
1196	0	0.1
1197	0	0.1
1198	0	0.1
1199	0	0.1
1200	0	0.1
1201	0	0.166667
1202	0	0.166667
1203	0	0.166667
1204	0	0.166667
1205	0	0.166667
1206	0	0.166667
1207	0	0.1
1208	0	0.0852048
1209	0	0.307261
1210	0	0.340207
1211	0	0.283701
1212	0	0.0812808
1213	0	0.0766667
1214	0	0.0748663
1215	0	0.210061
1216	0	0.202018
1217	0	0.0607922
1218	0	0.0606275
1219	0	0.0611731
1220	0	0.0608667
1221	0	0.0648192
1222	0	0.106843
1223	0	0.103643
1224	0	0.10023
1225	0	0.0411141
1226	0	0.0387709
1227	0	0.0767117
1228	0	0.0841188
1229	0	0.08395
1230	0	0.0941971
1231	0	0.131471
1232	0	0.0927528
1233	0	0.158649
1234	0	0.16934
1235	0	0.148135
1236	0	0.130371
1237	0	0.137143
1238	0	0.145824
1239	0	0.149404
1240	0	0.194369
1241	0	0.242063
1242	0	0.102564
1243	0	0.0909091
1244	0	0.251683
1245	0	0.278393
1246	0	0.166667
1247	0	0.166667
1248	0	0.166667
1249	0	0.166667
1250	0	0.578663
1251	0	0
1252	0	0
1253	0	0
1254	0	0.177227
1255	0	0.167074
1256	0	0.180752
1257	0	0.383865
1258	0	0.275233
1259	0	0.289908
1260	0	0.36954
1261	0	0.349008
1262	0	0.484058
1263	0	0.58544
1264	0	0.553998
1265	0	0.333333
1266	0	0
1267	0	0
1268	0	0
1269	0	0
1270	0	1
1271	0	1
1272	0	0.52381
1273	0	1
1274	0	1
1275	0	1
1276	0	1
1277	0	1
1278	0	0
1279	0	0
1280	0	0
1281	0	0
1282	0	0
1283	0	0
1284	0	0.75
1285	0	0
1286	0	0.678217
1287	0	0.697361
1288	0	0.722837
1289	0	0.723747
1290	0	0.740338
1291	0	0.781875
1292	0	0.805816
1293	0	0
1294	0	0
1295	0	0
1296	0	0
1297	0	0
1298	0	0
1299	0	0
1300	0	0
1301	0	0
1302	0	0
1303	0	0
1304	0	0
1305	0	0
1306	0	1
1307	0	0
1308	0	0
1309	0	0.333333
1310	0	0.5
1311	0	1
1312	0	0.990284
1313	0	0.6
1314	0	1
1315	0	0.996574
1316	0	0.998291
1317	0	0.998292
1318	0	0.998292
1319	0	0.998292
1320	0	0.998291
1321	0	0.998291
1322	0	0.998296
1323	0	0.998296
1324	0	0.998296
1325	0	0.998298
1326	0	0.998298
1327	0	0.998298
1328	0	0.998298
1329	0	0.998296
1330	0	0.9966
1331	0	0.998299
1332	0	0.998299
1333	0	0.998299
1334	0	0.998299
1335	0	0.998288
1336	0	0.99658
1337	0	0.99658
1338	0	0.99658
1339	0	0.998302
1340	0	0.998302
1341	0	0.998302
1342	0	0.998302
1343	0	0.996609
1344	0	0.996609
1345	0	0.996609
1346	0	0.996609
1347	0	0.996609
1348	0	0.996609
1349	0	0.996609
1350	0	0.994915
1351	0	0.994915
1352	1	0
1353	1	0
1354	0	0
1355	0	0
1356	0	0.996612
1357	0	0.996612
1358	0	0.996612
1359	0	0.996614
1360	0	0.996614
1361	0	0.996614
1362	0	0.996614
1363	0	0.996614
1364	0	0
1365	0	0
1366	0	0
1367	0	0
1368	0	0.989478
1369	0	0.987713
1370	0	0.987702
1371	0	0.982458
1372	0	0.967892
1373	0	0.931768
1374	0	0.933357
1375	0	0
1376	0	0
1377	0	0
1378	0	0
1379	0	0
1380	0	0
1381	0	0
1382	0	0
1383	0	0
1384	0	0
1385	0	0
1386	0	0
1387	0	0
1388	0	0
1389	0	0
1390	0	0
1391	0	0.950007
1392	0	0.904078
1393	0	0.875164
1394	0	0.861161
1395	0	0.461575
1396	0	0.411904
1397	0	0.697062
1398	0	0.689342
1399	0	0.579752
1400	0	0.343642
1401	0	0.491039
1402	0	0.48549
1403	0	0.633452
1404	0	0.551185
1405	0	0.39937
1406	0	0.529264
1407	0	0.620219
1408	0	0.625548
1409	0	0.625774
1410	0	0.630178
1411	0	0.630178
1412	0	0.630178
1413	0	0.75
1414	0	0.75
1415	0	0.75
1416	0	0.75
1417	0	0.777778
1418	0	0.777778
1419	0	0.777778
1420	0	0.632369
1421	0	0.632369
1422	0	0.632369
1423	0	0.63366
1424	0	0.632978
1425	0	0.632977
1426	0	0.633194
1427	0	0.634267
1428	0	0.634267
1429	0	0.634267
1430	0	0.634267
1431	0	0.634911
1432	0	0.636206
1433	0	0.637288
1434	0	0.637288
1435	0	0.624542
1436	0	1
1437	0	1
1438	0	1
1439	0	0.986498
1440	0	0.986498
1441	0	0.986498
1442	0	0.989864
1443	0	0.993225
1444	0	1
1445	0	1
1446	0	1
1447	0	1
1448	0	0.984774
1449	0	0.984774
1450	0	0.966481
1451	0	0.968129
1452	0	1
1453	0	0.951789
1454	0	0.951849
1455	0	0.951849
1456	0	0.948614
1457	0	0.617309
1458	0	0.617304
1459	0	0.618351
1460	0	1
1461	0	1
1462	0	1
1463	0	1
1464	0	0.626712
1465	0	0.931022
1466	0	0.966542
1467	0	0.966542
1468	0	0.966542
1469	0	1
1470	0	1
1471	0	1
1472	0	1
1473	0	0.978171
1474	0	1
1475	0	1
1476	0	1
1477	0	1
1478	0	1
1479	0	1
1480	0	0
1481	0	0
1482	0	0
1483	0	0
1484	0	0.99662
1485	0	0.99662
1486	0	0.994937
1487	0	0.994937
1488	0	0.993253
1489	0	0.993242
1490	0	0.989879
1491	0	0.995037
1492	0	0.995037
1493	0	0.995037
1494	0	0.995012
1495	0	0.561235
1496	0	1
1497	0	1
1498	0	1
1499	0	1
1500	0	0.669906
1501	0	0.675393
1502	0	0.683511
1503	0	0.683511
1504	0	0.986529
1505	0	0.988204
1506	0	0.877871
1507	0	1
1508	0	0.825316
1509	0	0.820015
1510	0	0.820015
1511	0	0.545504
1512	0	0.888794
1513	0	0.868966
1514	0	0.944444
1515	0	0.964463
1516	0	0.280952
1517	0	0.971151
1518	0	0.333333
1519	0	0.166667
1520	0	0.266667
1521	0	0.266667
1522	0	0.988045
1523	0	0
1524	0	0
1525	0	0
1526	0	0
1527	0	0
1528	0	0
1529	0	0
1530	0	0
1531	0	0.969774
1532	0	0.968146
1533	0	0.966534
1534	0	0.966534
1535	0	0.966534
1536	0	0.966534
1537	0	0.966506
1538	0	0.470588
1539	0	0.470588
1540	0	0.529412
1541	0	0.846154
1542	0	1
1543	0	0.994924
1544	0	0.994924
1545	0	0.994924
1546	0	0.994924
1547	0	0.993235
1548	0	0.993217
1549	0	0.8
1550	0	0.8
1551	0	0.8
1552	0	0.55615
1553	0	0.352439
1554	0	0.33887
1555	0	0.903214
1556	0	0.419668
1557	0	0.809605
1558	0	0.806546
1559	0	0.803388
1560	0	0.656248
1561	0	0.814286
1562	0	0.814286
1563	0	0.464516
1564	0	0.391398
1565	0	0.586664
1566	0	0.652381
1567	0	0.652381
1568	0	0.561265
1569	0	0.652381
1570	0	0.244186
1571	0	0.377605
1572	0	0.2
1573	0	0.333333
1574	0	1
1575	0	1
1576	0	1
1577	0	0
1578	0	0.142857
1579	0	0.330622
1580	0	0.290396
1581	0	0.140787
1582	0	0.115942
1583	0	0.108909
1584	0	0.0926179
1585	0	0.231498
1586	0	0.215824
1587	0	0.285714
1588	0	0.4
1589	0	0.4
1590	0	0.4
1591	0	0.4
1592	0	0.4
1593	0	0.4
1594	0	0.4
1595	0	0.4
1596	0	0.4
1597	0	0.25
1598	0	0.25
1599	0	0.194444
1600	0	0.194444
1601	0	0.194444
1602	0	0.194444
1603	0	0.194444
1604	0	0.194444
1605	0	0.194444
1606	0	0.194444
1607	0	0.194444
1608	0	0.194444
1609	0	0.127273
1610	0	0.127273
1611	0	0.127273
1612	0	0.102564
1613	0	0.102564
1614	0	0.102564
1615	0	0.0879121
1616	0	0.0549451
1617	0	0.0549451
1618	0	0.0549451
1619	0	0.0549451
1620	0	0.047619
1621	0	0.043956
1622	0	0.043956
1623	0	0.043956
1624	0	0.043956
1625	0	0.043956
1626	0	0.043956
1627	0	0.021978
1628	0	0.021978
1629	0	0.0285714
1630	0	0.0285714
1631	0	0.0285714
1632	0	0.0416667
1633	0	0.0588235
1634	0	0.0522876
1635	0	0.0588235
1636	0	0.0588235
1637	0	0.0588235
1638	0	0.0392157
1639	0	0.0350877
1640	0	0.0350877
1641	0	0.0350877
1642	0	0.0263158
1643	0	0.0238095
1644	0	0.0238095
1645	0	0.025974
1646	0	0.0237154
1647	0	0.0197628
1648	0	0.0197628
1649	0	0.0197628
1650	0	0.0181159
1651	0	0.0185185
1652	0	0.0185185
1653	0	0.021164
1654	0	0.017094
1655	0	0.017094
1656	0	0.017094
1657	0	0.0215385
1658	0	0.0276923
1659	0	0.022792
1660	0	0.031746
1661	0	0.031746
1662	0	0.0396825
1663	0	0.0394089
1664	0	0.0394089
1665	0	0.0394089
1666	0	0.044335
1667	0	0.042328
1668	0	0.042328
1669	0	0.0418719
1670	0	0.046798
1671	0	0.044335
1672	0	0.044335
1673	0	0.0390805
1674	0	0.0387097
1675	0	0.0623656
1676	0	0.0826613
1677	0	0.424682
1678	0	0.2365
1679	0	0.391813
1680	0	0.161688
1681	0	0.122249
1682	0	0.108196
1683	0	0.112482
1684	0	0.0878795
1685	0	0.0934387
1686	0	0.0774194
1687	0	0.0705882
1688	0	0.166667
1689	0	0.0571429
1690	0	0.13472
1691	0	0.250741
1692	0	0.138889
1693	0	0.151515
1694	0	0.1
1695	0	0.191667
1696	0	0.119119
1697	0	0.18998
1698	0	0.759702
1699	0	0.837381
1700	0	0.907572
1701	0	0.202652
1702	0	0.195238
1703	0	0.215789
1704	0	0.239766
1705	0	0.239766
1706	0	0.239766
1707	0	0.239766
1708	0	0.239766
1709	0	0.263158
1710	0	0.292398
1711	0	0.292398
1712	0	0.327485
1713	0	0.327485
1714	0	0.230769
1715	0	0.97981
1716	0	0.9815
1717	0	0.9815
1718	0	0.981516
1719	0	0.872745
1720	0	0
1721	0	0
1722	0	0
1723	0	0
1724	0	0
1725	0	0
1726	0	0
1727	0	0
1728	0	0.333333
1729	0	0.333333
1730	0	0.333333
1731	0	0.166667
1732	0	0.25
1733	0	0.25
1734	0	0.321429
1735	0	0.75
1736	0	0.75
1737	0	0.75
1738	0	0.397436
1739	0	0.846154
1740	0	0.847821
1741	0	0.127273
1742	0	0.155556
1743	0	0.155556
1744	0	0.142857
1745	0	0.194444
1746	0	0.194444
1747	0	0.194444
1748	0	0.25
1749	0	0.25
1750	0	0.25
1751	0	0.25
1752	0	0.190476
1753	0	0.190476
1754	0	0.190476
1755	0	0.190476
1756	0	0.190476
1757	0	0.3
1758	0	0.3
1759	0	0.3
1760	0	0.815339
1761	0	0.815755
1762	0	0.815755
1763	0	0.815893
1764	0	0.815893
1765	0	0.815893
1766	0	0.998308
1767	0	0.998308
1768	0	0.996617
1769	0	0.996617
1770	0	0.490457
1771	0	0.471158
1772	0	0.858978
1773	0	0.825055
1774	0	0.523935
1775	0	0.592846
1776	0	0.217391
1777	0	0.151515
1778	0	0.3
1779	0	0.536176
1780	0	0
1781	0	0
1782	0	0
1783	0	0
1784	0	0
1785	0	0
1786	0	0
1787	0	0
1788	0	0.661409
1789	0	0.941774
1790	0	0.943383
1791	0	0.953032
1792	0	0.496732
1793	0	0.964848
1794	0	0.966514
1795	0	0.966514
1796	0	0.392157
1797	0	0.496732
1798	0	0.98818
1799	0	0.989892
1800	0	0.989892
1801	0	0.989892
1802	0	0.989892
1803	0	0.989892
1804	0	0
1805	0	0
1806	0	0
1807	0	0
1808	0	0.989899
1809	0	0.986538
1810	0	0.986538
1811	0	0.989286
1812	0	0.980388
1813	0	0.980417
1814	0	0.454545
1815	0	0.889599
1816	0	0.994928
1817	0	0.994928
1818	0	0.994937
1819	0	0.960795
1820	1	1
1821	1	1
1822	1	1
1823	1	1
1824	1	1
1825	1	1
1826	1	1
1827	1	1
1828	1	1
1829	1	1
1830	1	1
1831	1	1
1832	1	1
1833	0	1
1834	1	1
1835	1	1
1836	0	1
1837	0	0.906439
1838	0	0.906439
1839	0	0.944444
1840	0	1
1841	0	1
1842	0	1
1843	0	0.968262
1844	0	0.968198
1845	0	0.373188
1846	0	0.577886
1847	0	0.52381
1848	0	0.52381
1849	0	0.52381
1850	0	1
1851	1	1
1852	1	1
1853	1	1
1854	0	1
1855	0	1
1856	0	1
1857	0	1
1858	0	1
1859	0	1
1860	0	0.998312
1861	0	0.998312
1862	0	0.998312
1863	0	0.998312
1864	0	0.998312
1865	1	1
1866	0	0.998312
1867	0	0.998312
1868	0	0.996626
1869	0	0.998311
1870	0	0.998311
1871	0	1
1872	0	1
1873	0	1
1874	0	1
1875	0	1
1876	0	1
1877	0	1
1878	0	1
1879	0	1
1880	0	1
1881	0	1
1882	0	1
1883	0	1
1884	0	1
1885	0	1
1886	0	1
1887	0	1
1888	0	1
1889	0	1
1890	0	1
1891	0	1
1892	0	1
1893	0	1
1894	0	1
1895	0	1
1896	0	1
1897	0	1
1898	0	1
1899	0	1
1900	0	1
1901	0	0.998314
1902	0	0.998314
1903	0	0.998314
1904	0	0.998314
1905	0	0.998314
1906	0	0.998314
1907	0	0.993267
1908	0	0
1909	0	0
1910	0	0
1911	0	0
1912	0	0
1913	0	1
1914	0	0.333333
1915	0	0.333333
1916	0	0.166667
1917	0	0.5
1918	0	0.5
1919	0	0.5
1920	1	1
1921	1	1
1922	0	1
1923	0	1
1924	0	1
1925	0	1
1926	0	1
1927	0	1
1928	0	1
1929	1	1
1930	0	1
1931	1	1
1932	0	0.998314
1933	0	0.998314
1934	0	0.998314
1935	0	0.998314
1936	0	0.998314
1937	0	0.998314
1938	0	0.998314
1939	0	0.998312
1940	0	0.998312
1941	0	1
1942	0	1
1943	0	0.998312
1944	0	0.998312
1945	0	0.998312
1946	0	0.996629
1947	0	0.996629
1948	0	0.996629
1949	0	0.996629
1950	0	0.998312
1951	0	0.998312
1952	0	0.998312
1953	0	0.996626
1954	0	0
1955	0	0
1956	1	0
1957	1	0
1958	1	0
1959	1	0
1960	1	0
1961	1	0
1962	1	0
1963	1	0
1964	0	0.99662
1965	0	0.994937
1966	0	0.996623
1967	0	0.996623
1968	0	0.996623
1969	0	0.996623
1970	0	0.996594
1971	0	1
1972	0	0.333333
1973	0	1
1974	0	0.333333
1975	0	0.333333
1976	0	0.946601
1977	0	0.604635
1978	0	1
1979	0	1
1980	0	0.877322
1981	0	0.998311
1982	0	0.998312
1983	0	0.998312
1984	0	0.998312
1985	0	0.998312
1986	0	0.998312
1987	0	0.998312
1988	0	0.998312
1989	0	0.998312
1990	0	0.998312
1991	0	0.998312
1992	0	0.998312
1993	0	0.998312
1994	0	0.998312
1995	0	0.998312
1996	0	0.998312
1997	0	0.998312
1998	0	0.998312
1999	0	1
2000	0	1
2001	0	1
2002	0	1
2003	0	1
2004	0	1
2005	0	1
2006	0	1
2007	0	1
2008	0	1
2009	0	0.333333
2010	0	0.333333
2011	0	0.333333
2012	0	0.333333
2013	0	0.994891
2014	0	0.978188
2015	0	0.993238
2016	0	0.996622
2017	0	0.993249
2018	0	1
2019	0	1
2020	0	1
2021	0	1
2022	0	1
2023	1	1
2024	1	1
2025	1	1
2026	1	1
2027	1	1
2028	1	1
2029	0	1
2030	0	1
2031	0	1
2032	0	1
2033	0	1
2034	0	1
2035	0	1
2036	0	1
2037	0	1
2038	1	1
2039	1	1
2040	1	1
2041	1	1
2042	0	1
2043	0	1
2044	0	1
2045	0	0.998308
2046	0	1
2047	0	1
2048	0	1
2049	0	1
2050	0	1
2051	0	1
2052	0	1
2053	0	1
2054	0	1
2055	0	1
2056	0	0.998305
2057	0	0.996614
2058	0	0.998307
2059	0	0.998307
2060	0	0.998307
2061	0	0.998307
2062	0	0.998307
2063	0	1
2064	0	1
2065	0	1
2066	0	1
2067	0	1
2068	0	0.6
2069	0	0.6
2070	0	0.466667
2071	0	0.333333
2072	0	0.307692
2073	0	0.307692
2074	0	0.971494
2075	0	0.971494
2076	0	0.971494
2077	0	0.791661
2078	0	1
2079	0	1
2080	0	1
2081	0	1
2082	0	0
2083	0	0
2084	0	0
2085	0	0
2086	0	0
2087	0	0
2088	0	0
2089	0	0
2090	0	0
2091	0	0
2092	0	0
2093	0	0
2094	0	0
2095	0	0
2096	0	0
2097	0	0
2098	0	0
2099	0	0
2100	0	0
2101	0	0
2102	0	0
2103	0	0
2104	0	0
2105	0	0.333333
2106	0	0.333333
2107	0	0.333333
2108	0	0.333333
2109	0	0.333333
2110	0	0.333333
2111	0	0.333333
2112	0	0.333333
2113	0	0.166667
2114	0	0.2
2115	0	0.973136
2116	0	0.98316
2117	0	1
2118	0	0.988207
2119	0	0.988207
2120	0	0.166667
2121	0	0.166667
2122	0	0.166667
2123	0	0.166667
2124	0	0.333333
2125	0	0.333333
2126	0	0.333333
2127	0	0.333333
2128	0	0.333333
2129	0	0
2130	0	0
2131	0	0
2132	0	0
2133	0	0
2134	0	0
2135	0	0
2136	0	0
2137	0	0
2138	0	0
2139	0	0
2140	0	0
2141	0	0
2142	0	0
2143	0	0
2144	0	0
2145	0	0
2146	0	0
2147	0	0
2148	0	0
2149	0	0
2150	0	0
2151	0	0.998308
2152	0	0.998308
2153	0	0.998308
2154	0	0.998308
2155	0	0.998307
2156	0	0.998307
2157	0	0
2158	0	0
2159	0	0
2160	0	0
2161	0	0.991554
2162	0	0.991554
2163	0	0.991554
2164	0	1
2165	0	1
2166	0	1
2167	0	1
2168	0	1
2169	0	1
2170	0	1
2171	0	1
2172	0	1
2173	0	1
2174	0	0.333333
2175	0	0.333333
2176	0	0.333333
2177	0	0.466667
2178	0	0.466667
2179	0	0.4
2180	0	0.4
2181	0	0.2
2182	0	0.2
2183	0	0.2
2184	0	0.1
2185	0	0.1
2186	0	0.1
2187	0	0.1
2188	0	0.1
2189	0	0.1
2190	0	0
2191	0	0
2192	0	0
2193	0	0
2194	0	0
2195	0	0
2196	0	0
2197	0	0
2198	0	0
2199	0	0
2200	0	0
2201	0	0
2202	0	0
2203	0	0
2204	0	0
2205	0	0
2206	0	0
2207	0	0
2208	0	0
2209	0	0
2210	0	0
2211	0	0
2212	0	0
2213	0	0
2214	0	0
2215	0	0
2216	0	0
2217	0	0
2218	0	0
2219	0	0
2220	0	0.166667
2221	0	0.166667
2222	0	0
2223	0	0
2224	0	0
2225	0	0
2226	0	0
2227	0	0
2228	0	0
2229	0	0
2230	0	0
2231	0	0
2232	0	0
2233	0	0
2234	0	0
2235	0	0
2236	0	0
2237	0	0
2238	0	0
2239	0	0
2240	0	0
2241	0	0
2242	0	0
2243	0	0
2244	0	0
2245	0	0
2246	0	0
2247	0	0
2248	0	0
2249	0	0
2250	0	0
2251	0	0
2252	0	0
2253	0	0
2254	0	0
2255	0	0
2256	0	0
2257	0	0
2258	0	0
2259	0	0
2260	0	0
2261	0	0
2262	0	0
2263	0	0
2264	0	0
2265	0	0
2266	0	0
2267	0	0
2268	0	0
2269	0	0
2270	0	0
2271	0	0
2272	0	0
2273	0	0
2274	0	0
2275	0	0
2276	0	0
2277	0	0
2278	0	0
2279	0	0
2280	0	0
2281	0	0
2282	0	0
2283	0	0
2284	0	0
2285	0	0
2286	0	0
2287	0	0
2288	0	0
2289	0	0
2290	0	0
2291	0	0
2292	0	0
2293	0	0
2294	0	0
2295	0	0
2296	0	0
2297	0	0
2298	0	0
2299	0	0
2300	0	0
2301	0	0
2302	0	0
2303	0	0
2304	0	0
2305	0	0
2306	0	0
2307	0	0
2308	0	0
2309	0	0
2310	0	0
2311	0	0
2312	0	0
2313	0	0
2314	0	0
2315	0	0
2316	0	0
2317	0	0
2318	0	0
2319	0	0
2320	0	0
2321	0	0
2322	0	0
2323	0	0
2324	0	0
2325	0	0
2326	0	0
2327	0	0
2328	0	0
2329	0	0
2330	0	0
2331	0	0
2332	0	0
2333	0	0
2334	0	0
2335	0	0
2336	0	0
2337	0	0
2338	0	0
2339	0	0
2340	0	0
2341	0	0
2342	0	0
2343	0	0
2344	0	0
2345	0	0
2346	0	0
2347	0	0
2348	0	0
2349	0	0
2350	0	0
2351	0	0
2352	0	0
2353	0	0
2354	0	0
2355	0	0
2356	0	0
2357	0	0
2358	0	0
2359	0	0
2360	0	0
2361	0	0
2362	0	0
2363	0	0
2364	0	0
2365	0	0
2366	0	0
2367	0	0
2368	0	0
2369	0	0
2370	0	0
2371	0	0
2372	0	0
2373	0	0
2374	0	0
2375	0	0
2376	0	0
2377	0	0
2378	0	0
2379	0	0
2380	0	0
2381	0	0
2382	0	0
2383	0	0
2384	0	0
2385	0	0
2386	0	0
2387	0	0
2388	0	0
2389	0	0
2390	0	0
2391	0	0
2392	0	0
2393	0	0
2394	0	0
2395	0	0
2396	0	0
2397	0	0
2398	0	0
2399	0	0
2400	0	0
2401	0	0
2402	0	0
2403	0	0
2404	0	0
2405	0	0
2406	0	0
2407	0	0
2408	0	0
2409	0	0
2410	0	0
2411	0	0
2412	0	0
2413	0	0
2414	0	0
2415	0	0
2416	0	0
2417	0	0
2418	0	0
2419	0	0
2420	0	0
2421	0	0
2422	0	0
2423	0	0
2424	0	0
2425	0	0
2426	0	0
2427	0	0
2428	0	0
2429	0	0
2430	0	0
2431	0	0
2432	0	0
2433	0	0
2434	0	0
2435	0	0
2436	0	0
2437	0	0
2438	0	0
2439	0	0
2440	0	0
2441	0	0
2442	0	0
2443	0	0
2444	0	0
2445	0	0
2446	0	0
2447	0	0
2448	0	0
2449	0	0
2450	0	0
2451	0	0
2452	0	0
2453	0	0
2454	0	0
2455	0	0
2456	0	0
2457	0	0
2458	0	0
2459	0	0
2460	0	0
2461	0	0
2462	0	0
2463	0	0
2464	0	0
2465	0	0
2466	0	0
2467	0	0
2468	0	0
2469	0	0
2470	0	0
2471	0	0
2472	0	0
2473	0	0
2474	0	0
2475	0	0
2476	0	0
2477	0	0
2478	0	0
2479	0	0
2480	0	0
2481	0	0
2482	0	0
2483	0	0
2484	0	0
2485	0	0
2486	0	0
2487	0	0
2488	0	0
2489	0	0
2490	0	0
2491	0	0
2492	0	0
2493	0	0
2494	0	0
2495	0	0
2496	0	0
2497	0	0
2498	0	0
2499	0	0
2500	0	0
2501	0	0
2502	0	0
2503	0	0
2504	0	0
2505	0	0
2506	0	0
2507	0	0
2508	0	0
2509	0	0
2510	0	0
2511	0	0
2512	0	0
2513	0	0
2514	0	0
2515	0	0
2516	0	0
2517	0	0
2518	0	0
2519	0	0
2520	0	0
2521	0	0
2522	0	0
2523	0	0
2524	0	0
2525	0	0
2526	0	0
2527	0	0
2528	0	0
2529	0	0
2530	0	0
2531	0	0
2532	0	0
2533	0	0
2534	0	0
2535	0	0
2536	0	0
2537	0	0
2538	0	0
2539	0	0
2540	0	0
2541	0	0
2542	0	0.978152
2543	0	0
2544	0	0
2545	0	0
2546	0	0
2547	0	0
2548	0	0
2549	0	0
2550	0	0
2551	0	0
2552	0	0
2553	0	0
2554	0	0
2555	0	0
2556	0	0
2557	0	0
2558	0	0
2559	0	0
2560	0	0
2561	0	0
2562	0	0
2563	0	0
2564	0	0
2565	0	0
2566	0	0
2567	0	0
2568	0	0
2569	0	0
2570	0	0
2571	0	0
2572	0	0
2573	0	0
2574	0	0
2575	0	0
2576	0	0
2577	0	0
2578	0	0
2579	0	0
2580	0	0
2581	0	0
2582	0	0
2583	0	0
2584	0	0.775401
2585	0	0.930677
2586	0	0
2587	0	0
2588	0	0
2589	0	0
2590	0	0
2591	0	0
2592	0	0
2593	0	0
2594	0	0
2595	0	0
2596	0	0
2597	0	0
2598	0	0
2599	0	0
2600	0	0
2601	0	0
2602	0	0
2603	0	0
2604	0	0
2605	0	0
2606	0	0
2607	0	0
2608	0	0
2609	0	0
2610	0	0
2611	0	0
2612	0	0
2613	0	0
2614	0	0
2615	0	0
2616	0	0
2617	0	0
2618	0	0
2619	0	0
2620	0	0
2621	0	0
2622	0	0
2623	0	0
2624	0	0
2625	0	0
2626	0	0
2627	0	0
2628	0	0
2629	0	0
2630	0	0
2631	0	0
2632	0	0
2633	0	0
2634	0	0
2635	0	0
2636	0	0
2637	0	0
2638	0	0
2639	0	0
2640	0	0
2641	0	0
2642	0	0
2643	0	0
2644	0	0
2645	0	0
2646	0	0
2647	0	0
2648	0	0
2649	0	0
2650	0	0
2651	0	0
2652	0	0
2653	0	0
2654	0	0
2655	0	0
2656	0	0
2657	0	0
2658	0	0
2659	0	0
2660	0	0
2661	0	0
2662	0	0
2663	0	0
2664	0	0
2665	0	0
2666	0	0
2667	0	0
2668	0	0
2669	0	0
2670	0	0
2671	0	0
2672	0	0
2673	0	0
2674	0	0
2675	0	0
2676	0	0
2677	0	0
2678	0	0
2679	0	0
2680	0	0
2681	0	0
2682	0	0
2683	0	0
2684	0	0
2685	0	0
2686	0	0
2687	0	0
2688	0	0
2689	0	0
2690	0	0
2691	0	0
2692	0	0
2693	0	0
2694	0	0
2695	0	0
2696	0	0
2697	0	0
2698	0	0
2699	0	0
2700	0	0
2701	0	0
2702	0	0
2703	0	0
2704	0	0
2705	0	0
2706	0	0
2707	0	0
2708	0	0
2709	0	0
2710	0	0
2711	0	0
2712	0	0
2713	0	0
2714	0	0
2715	0	0
2716	0	0
2717	0	0
2718	0	0
2719	0	0
2720	0	0
2721	0	0
2722	0	0
2723	0	0
2724	0	0
2725	0	0
2726	0	0
2727	0	0
2728	0	0
2729	0	0
2730	0	0
2731	0	0
2732	0	0
2733	0	0
2734	0	0
2735	0	0
2736	0	0
2737	0	0
2738	0	0
2739	0	0
2740	0	0
2741	0	0
2742	0	0
2743	0	0
2744	0	0
2745	0	0
2746	0	0
2747	0	0
2748	0	0
2749	0	0
2750	0	0
2751	0	0
2752	0	0
2753	0	0
2754	0	0
2755	0	0
2756	0	0
2757	0	0
2758	0	0
2759	0	0
2760	0	0
2761	0	0
2762	0	0
2763	0	0
2764	0	0
2765	0	0
2766	0	0
2767	0	0
2768	0	0
2769	0	0
2770	0	0
2771	0	0
2772	0	0
2773	0	0
2774	0	0
2775	0	0
2776	0	0
2777	0	0
2778	0	0
2779	0	0
2780	0	0
2781	0	0
2782	0	0
2783	0	0
2784	0	0
2785	0	0
2786	0	0
2787	0	0
2788	0	0
2789	0	0
2790	0	0
2791	0	0
2792	0	0
2793	0	0
2794	0	0
2795	0	0
2796	0	0
2797	0	0
2798	0	0
2799	0	0
2800	0	0
2801	1	0
2802	1	0
2803	1	0
2804	1	0
2805	0	0
2806	0	0
2807	0	0
2808	0	0
2809	0	0
2810	0	0
2811	0	0
2812	0	0
2813	0	0
2814	0	0
2815	0	0
2816	0	0
2817	0	0
2818	0	0
2819	0	0
2820	0	0
2821	0	0
2822	0	0
2823	0	0
2824	0	0
2825	0	0
2826	0	0
2827	0	0
2828	0	0
2829	0	0
2830	0	0
2831	0	0
2832	1	0
2833	1	0
2834	1	0
2835	1	0
2836	1	0
2837	1	0
2838	1	0
2839	1	0
2840	0	0
2841	0	0
2842	0	0
2843	0	0
2844	0	0
2845	0	0
2846	0	0
2847	0	0
2848	0	0
2849	0	0
2850	0	0
2851	0	0
2852	0	0
2853	0	0
2854	0	0
2855	0	0
2856	0	0
2857	0	0
2858	0	0
2859	0	0
2860	0	0
2861	0	0
2862	0	0
2863	0	0
2864	0	0
2865	0	0
2866	0	0
2867	0	0
2868	0	0
2869	0	0
2870	0	0
2871	0	0
2872	0	0
2873	0	0
2874	0	0
2875	0	0
2876	0	0
2877	0	0
2878	0	0
2879	0	0
2880	0	0
2881	0	0
2882	0	0
2883	0	0
2884	0	0
2885	0	0
2886	0	0
2887	0	0
2888	0	0
2889	0	0
2890	0	0
2891	0	0
2892	0	0
2893	0	0
2894	0	0
2895	0	0
2896	0	0
2897	0	0
2898	0	0
2899	0	0
2900	0	0
2901	0	0
2902	0	0
2903	0	0
2904	0	0
2905	0	0
2906	0	0
2907	0	0
2908	0	0
2909	0	0
2910	0	0
2911	0	0
2912	0	0
2913	0	0
2914	0	0
2915	0	0
2916	0	0
2917	0	0
2918	0	0
2919	0	0
2920	0	0
2921	0	0
2922	0	0
2923	0	0
2924	0	0
2925	0	0
2926	0	0
2927	0	0
2928	0	0
2929	0	0
2930	0	0
2931	0	0
2932	0	0
2933	0	0
2934	0	0
2935	0	0
2936	0	0
2937	0	0
2938	0	0
2939	0	0
2940	0	0
2941	0	0
2942	0	0
2943	0	0
2944	0	0
2945	0	0
2946	0	0
2947	0	0
2948	0	0
2949	0	0
2950	0	0
2951	0	0
2952	0	0
2953	0	0
2954	0	0
2955	0	0
2956	0	0
2957	0	0
2958	0	0
2959	0	0
2960	0	0
2961	0	0
2962	0	0
2963	0	0
2964	0	0
2965	0	0
2966	0	0
2967	0	0
2968	0	0
2969	0	0
2970	0	0
2971	0	0
2972	0	0
2973	0	0
2974	0	0
2975	0	0
2976	0	0
2977	0	0
2978	0	0
2979	0	0
2980	0	0
2981	0	0
2982	0	0
2983	0	0
2984	0	0
2985	0	0
2986	0	0
2987	0	0
2988	0	0
2989	0	0
2990	0	0
2991	0	0
2992	0	0
2993	0	0
2994	0	0
2995	0	0
2996	0	0
2997	0	0
2998	0	0
2999	0	0
3000	0	0
3001	0	0
3002	0	0
3003	0	0
3004	0	0
3005	0	0
3006	0	0
3007	0	0
3008	0	0
3009	0	0
3010	0	0
3011	0	0
3012	0	0
3013	0	0
3014	0	0
3015	0	0
3016	0	0
3017	0	0
3018	0	0
3019	0	0
3020	0	0
3021	0	0
3022	0	0
3023	0	0
3024	0	0
3025	0	0
3026	0	0
3027	0	0
3028	0	0
3029	0	0
3030	0	0
3031	0	0
3032	0	0
3033	0	0
3034	0	0
3035	0	0
3036	0	0
3037	0	0
3038	0	0
3039	0	0
3040	0	0
3041	0	0
3042	0	0
3043	0	0
3044	0	0
3045	0	0
3046	0	0
3047	0	0
3048	0	0
3049	0	0
3050	0	0
3051	0	0
3052	0	0
3053	0	0
3054	0	0
3055	0	0
3056	0	0
3057	0	0
3058	0	0
3059	0	0
3060	0	0
3061	0	0
3062	0	0
3063	0	0
3064	0	0
3065	0	0
3066	0	0
3067	0	0
3068	0	0
3069	0	0
3070	0	0
3071	0	0
3072	0	0
3073	0	0
3074	0	0
3075	0	0
3076	0	0
3077	0	0
3078	0	0
3079	0	0
3080	0	0
3081	0	0
3082	0	0
3083	0	0
3084	0	0
3085	0	0
3086	0	0
3087	0	0
3088	0	0
3089	0	0
3090	0	0
3091	0	0
3092	0	0
3093	0	0
3094	0	0
3095	0	0
3096	0	0
3097	0	0
3098	0	0
3099	0	0
3100	0	0
3101	0	0
3102	0	0
3103	0	0
3104	0	0
3105	0	0
3106	0	0
3107	0	0
3108	0	0
3109	0	0
3110	0	0
3111	0	0
3112	0	0
3113	0	0
3114	0	0
3115	0	0
3116	0	0
3117	0	0
3118	0	0
3119	0	0
3120	0	0
3121	0	0
3122	0	0
3123	0	0
3124	0	0
3125	0	0
3126	0	0
3127	0	0
3128	0	0
3129	0	0
3130	0	0
3131	0	0
3132	0	0
3133	0	0
3134	0	0
3135	0	0
3136	0	0
3137	0	0
3138	0	0
3139	0	0
3140	0	0
3141	0	0
3142	0	0
3143	0	0
3144	0	0
3145	0	0
3146	0	0
3147	0	0
3148	0	0
3149	0	0
3150	0	0
3151	0	0
3152	0	0
3153	0	0
3154	0	0
3155	0	0
3156	0	0
3157	0	0
3158	0	0
3159	0	0
3160	0	0
3161	0	0
3162	0	0
3163	0	0
3164	0	0
3165	0	0
3166	0	0
3167	0	0
3168	0	0
3169	0	0
3170	0	0
3171	0	0
3172	0	0
3173	0	0
3174	0	0
3175	0	0
3176	0	0
3177	0	0
3178	0	0
3179	0	0
3180	0	0
3181	0	0
3182	0	0
3183	0	0
3184	0	0
3185	0	0
3186	0	0
3187	0	0
3188	0	0
3189	0	0
3190	0	0
3191	0	0
3192	0	0
3193	0	0
3194	0	0
3195	0	0
3196	0	0
3197	0	0
3198	0	0
3199	0	0
3200	0	0
3201	0	0
3202	0	0
3203	0	0
3204	0	0
3205	0	0
3206	0	0
3207	0	0
3208	0	0
3209	0	0
3210	0	0
3211	0	0
3212	0	0
3213	0	0
3214	0	0
3215	0	0
3216	0	0
3217	0	0
3218	0	0
3219	0	0
3220	0	0
3221	0	0
3222	0	0
3223	0	0
3224	0	0
3225	0	0
3226	0	0
3227	0	0
3228	0	0
3229	0	0
3230	0	0
3231	0	0
3232	0	0
3233	0	0
3234	0	0
3235	0	0
3236	0	0
3237	0	0
3238	0	0
3239	0	0
3240	0	0
3241	0	0
3242	0	0
3243	0	0
3244	0	0
3245	0	0
3246	0	0
3247	0	0
3248	0	0
3249	0	0
3250	0	0
3251	0	0
3252	0	0
3253	0	0
3254	0	0
3255	0	0
3256	0	0
3257	0	0
3258	0	0
3259	0	0
3260	0	0
3261	0	0
3262	0	0
3263	0	0
3264	0	0
3265	0	0
3266	0	0
3267	0	0
3268	0	0
3269	0	0
3270	0	0
3271	0	0
3272	0	0
3273	0	0
3274	0	0
3275	0	0
3276	0	0
3277	0	0
3278	0	0
3279	0	0
3280	0	0
3281	0	0
3282	0	0
3283	0	0
3284	0	0
3285	0	0
3286	0	0
3287	0	0
3288	0	0
3289	0	0
3290	0	0
3291	0	0
3292	0	0
3293	0	0
3294	0	0
3295	0	0
3296	0	0
3297	0	0
3298	0	0
3299	0	0
3300	0	0
3301	0	0
3302	0	0
3303	0	0
3304	0	0
3305	0	0
3306	0	0
3307	0	0
3308	0	0
3309	0	0
3310	0	0
3311	0	0
3312	0	0
3313	0	0
3314	0	0
3315	0	0
3316	0	0
3317	0	0
3318	0	0
3319	0	0
3320	0	0
3321	0	0
3322	0	0
3323	0	0
3324	0	0
3325	0	0
3326	0	0
3327	0	0
3328	0	0
3329	0	0
3330	0	0
3331	0	0
3332	0	0
3333	0	0
3334	0	0
3335	0	0
3336	0	0
3337	0	0
3338	0	0
3339	0	0
3340	0	0
3341	0	0
3342	0	0
3343	0	0
3344	0	0
3345	0	0
3346	0	0
3347	0	0
3348	0	0
3349	0	0
3350	0	0
3351	0	0
3352	0	0
3353	0	0
3354	0	0
3355	0	0
3356	0	0
3357	0	0
3358	0	0
3359	0	0
3360	0	0
3361	0	0
3362	0	0
3363	0	0
3364	0	0
3365	0	0
3366	0	0
3367	0	0
3368	0	0
3369	0	0
3370	0	0
3371	0	0
3372	0	0
3373	0	0
3374	0	0
3375	0	0
3376	0	0
3377	0	0
3378	0	0
3379	0	0
3380	0	0
3381	0	0
3382	0	0
3383	0	0
3384	0	0
3385	0	0
3386	0	0
3387	0	0
3388	0	0
3389	0	0
3390	0	0
3391	0	0
3392	0	0
3393	0	0
3394	0	0
3395	0	0
3396	0	0
3397	0	0
3398	0	0
3399	0	0
3400	0	0
3401	0	0
3402	0	0
3403	0	0
3404	0	0
3405	0	0
3406	0	0
3407	0	0
3408	0	0
3409	0	0
3410	0	0
3411	0	0
3412	0	0
3413	0	0
3414	0	0
3415	0	0
3416	0	0
3417	0	0
3418	0	0
3419	0	0
3420	0	0
3421	0	0
3422	0	0
3423	0	0
3424	0	0
3425	0	0
3426	0	0
3427	0	0
3428	0	0
3429	0	0
3430	0	0
3431	0	0
3432	0	0
3433	0	0
3434	0	0
3435	0	0
3436	0	0
3437	0	0
3438	0	0
3439	0	0
3440	0	0
3441	0	0
3442	0	0
3443	0	0
3444	0	0
3445	0	0
3446	0	0
3447	0	0
3448	0	0
3449	0	0
3450	0	0
3451	0	0
3452	0	0
3453	0	0
3454	0	0
3455	0	0
3456	0	0
3457	0	0
3458	0	0
3459	0	0
3460	0	0
3461	0	0
3462	0	0
3463	0	0
3464	0	0
3465	0	0
3466	0	0
3467	0	0
3468	0	0
3469	0	0
3470	0	0
3471	0	0
3472	0	0
3473	0	0
3474	0	0
3475	0	0
3476	0	0
3477	0	0
3478	0	0
3479	0	0
3480	0	0
3481	0	0
3482	0	0
3483	0	0
3484	0	0
3485	0	0
3486	0	0
3487	0	0
3488	0	0
3489	0	0
3490	0	0
3491	0	0
3492	0	0
3493	0	0
3494	0	0
3495	0	0
3496	0	0
3497	0	0
3498	0	0
3499	0	0
3500	0	0
3501	0	0
3502	0	0
3503	0	0
3504	0	0
3505	0	0
3506	0	0
3507	0	0
3508	0	0
3509	0	0
3510	0	0
3511	0	0
3512	0	0
3513	0	0
3514	0	0
3515	0	0
3516	0	0
3517	0	0
3518	0	0
3519	0	0
3520	0	0
3521	0	0
3522	0	0
3523	0	0
3524	0	0
3525	0	0
3526	0	0
3527	0	0
3528	0	0
3529	0	0
3530	0	0
3531	0	0
3532	0	0
3533	0	0
3534	0	0
3535	0	0
3536	0	0
3537	0	0
3538	0	0
3539	0	0
3540	0	0
3541	0	0
3542	0	0
3543	0	0
3544	0	0
3545	0	0
3546	0	0
3547	0	0
3548	0	0
3549	0	0
3550	0	0
3551	0	0
3552	0	0
3553	0	0
3554	0	0
3555	0	0
3556	0	0
3557	0	0
3558	0	0
3559	0	0
3560	0	0
3561	0	0
3562	0	0
3563	0	0
3564	0	0
3565	0	0
3566	0	0
3567	0	0
3568	0	0
3569	0	0
3570	0	0
3571	0	0
3572	0	0
3573	0	0
3574	0	0
3575	0	0
3576	0	0
3577	0	0
3578	0	0
3579	0	0
3580	0	0
3581	0	0
3582	0	0
3583	0	0
3584	0	0
3585	0	0
3586	0	0
3587	0	0
3588	0	0
3589	0	0
3590	0	0
3591	0	0
3592	0	0
3593	0	0
3594	0	0
3595	0	0
3596	0	0
3597	0	0
3598	0	0
3599	0	0
3600	0	0
3601	0	0
3602	0	0
3603	0	0
3604	0	0
3605	0	0
3606	0	0
3607	0	0
3608	0	0
3609	0	0
3610	0	0
3611	0	0
3612	0	0
3613	0	0
3614	0	0
3615	0	0
3616	0	0
3617	0	0
3618	0	0
3619	0	0
3620	0	0
3621	0	0
3622	0	0.922114
3623	0	0
3624	0	0
3625	0	0.395604
3626	0	0.743352
3627	0	0.780227
3628	0	0
3629	0	0.0181818
3630	0	0
3631	0	0
3632	0	0
3633	0	0
3634	0	0
3635	0	0
3636	0	0
3637	0	0
3638	0	0
3639	0	0
3640	0	0
3641	0	0
3642	0	0
3643	0	0
3644	0	0
3645	0	0
3646	0	0
3647	0	0
3648	0	0
3649	0	0
3650	0	0
3651	0	0
3652	0	0
3653	0	0.0666667
3654	0	0.0666667
3655	0	0.0666667
3656	0	0.0666667
3657	0	0.0666667
3658	0	0.0666667
3659	0	0.0666667
3660	0	0.0666667
3661	0	0.0666667
3662	0	0.047619
3663	0	0.538066
3664	0	0
3665	0	0
3666	0	0
3667	0	0
3668	0	0
3669	0	0
3670	0	0
3671	0	0
3672	0	0
3673	0	0
3674	0	0
3675	0	0
3676	0	0
3677	0	0
3678	0	0
3679	0	0
3680	0	0.925314
3681	0	0
3682	0	0
3683	0	0
3684	0	0
3685	0	0
3686	0	0
3687	0	0
3688	0	0
3689	0	0
3690	0	0
3691	0	0
3692	0	0
3693	0	0
3694	0	0
3695	0	0
3696	0	0
3697	0	0
3698	0	0
3699	0	0
3700	0	0
3701	0	0
3702	0	0
3703	0	0
3704	0	0
3705	0	0
3706	0	0
3707	0	0
3708	0	0
3709	0	0
3710	0	0
3711	0	0
3712	0	0
3713	0	0
3714	0	0
3715	0	0
3716	0	0
3717	0	0
3718	0	0
3719	0	0
3720	0	0
3721	0	0
3722	0	0
3723	0	0
3724	0	0
3725	0	0
3726	0	0
3727	0	0
3728	0	0
3729	0	0
3730	0	0
3731	0	0
3732	0	0
3733	0	0
3734	0	0
3735	0	0.903055
3736	0	0
3737	0	0
3738	0	0
3739	0	0
3740	0	0
3741	0	0
3742	0	0
3743	0	0
3744	0	0
3745	0	0
3746	0	0
3747	0	0
3748	0	0
3749	0	0
3750	0	0
3751	0	0
3752	0	0
3753	0	0
3754	0	0
3755	0	0
3756	0	0
3757	0	0
3758	0	0
3759	0	0
3760	0	0
3761	0	0
3762	0	0
3763	0	0
3764	0	0
3765	0	0
3766	0	0
3767	0	0
3768	0	0
3769	0	0
3770	0	0
3771	0	0
3772	0	0
3773	0	0
3774	0	0
3775	0	0
3776	0	0
3777	0	0
3778	0	0
3779	0	0
3780	0	0
3781	0	0
3782	0	0
3783	0	0
3784	0	0
3785	0	0
3786	0	0
3787	0	0
3788	0	0
3789	0	0
3790	0	0
3791	0	0
3792	0	0
3793	0	0
3794	0	0
3795	0	0
3796	0	0
3797	0	0
3798	0	0
3799	0	0
3800	0	0
3801	0	0
3802	0	0
3803	0	0
3804	0	0
3805	0	0
3806	0	0
3807	0	0
3808	0	0
3809	0	0
3810	0	0
3811	0	0
3812	0	0
3813	0	0
3814	0	0
3815	0	0
3816	0	0
3817	0	0.895466
3818	0	0
3819	0	0
3820	0	0
3821	0	0
3822	0	0
3823	0	0
3824	0	0
3825	0	0
3826	0	0
3827	0	0
3828	0	0
3829	0	0
3830	0	0
3831	0	0
3832	0	0
3833	0	0
3834	0	0
3835	0	0
3836	0	0
3837	0	0
3838	0	0
3839	0	0
3840	0	0
3841	0	0
3842	0	0
3843	0	0
3844	0	0
3845	0	0
3846	0	0
3847	0	0
3848	0	0
3849	0	0
3850	0	0
3851	0	0
3852	0	0
3853	0	0
3854	0	0
3855	0	0
3856	0	0
3857	0	0
3858	0	0
3859	0	0
3860	0	0
3861	0	0
3862	0	0
3863	0	0
3864	0	0
3865	0	0.107143
3866	0	0.109091
3867	0	0.545455
3868	0	0.926044
3869	0	0.932313
3870	0	0.0631579
3871	0	0.0578947
3872	0	0.0584795
3873	0	0.0735294
3874	0	0.0833333
3875	0	0.0833333
3876	0	0.0833333
3877	0	0.0571429
3878	0	0.0659341
3879	0	0.010989
3880	0	0.010989
3881	0	0.0128205
3882	0	0.0222222
3883	0	0.0222222
3884	0	0.0222222
3885	0	0.0222222
3886	0	0.0222222
3887	0	0.0222222
3888	0	0.0222222
3889	0	0.0444444
3890	0	0.0444444
3891	0	0.0444444
3892	0	0.0444444
3893	0	0.0222222
3894	0	0.0222222
3895	0	0.0222222
3896	0	0.0222222
3897	0	0.0222222
3898	0	0.0222222
3899	0	0.0222222
3900	0	0.0222222
3901	0	0.0277778
3902	0	0.0277778
3903	0	0.0277778
3904	0	0.0277778
3905	0	0.0277778
3906	0	0.0277778
3907	0	0.0277778
3908	0	0.0277778
3909	0	0.0277778
3910	0	0.0277778
3911	0	0.0277778
3912	0	0.0277778
3913	0	0.0277778
3914	0	0.0277778
3915	0	0.0277778
3916	0	0.0277778
3917	0	0.0277778
3918	0	0.0277778
3919	0	0.0277778
3920	0	0.0277778
3921	0	0.0277778
3922	0	0.0277778
3923	0	0.0277778
3924	0	0.0277778
3925	0	0.0277778
3926	0	0.0277778
3927	0	0.0277778
3928	0	0.0277778
3929	0	0.0277778
3930	0	0.0277778
3931	0	0.0277778
3932	0	0.0277778
3933	0	0.0277778
3934	0	0.0277778
3935	0	0.0277778
3936	0	0.0277778
3937	0	0.0277778
3938	0	0.0277778
3939	0	0.0277778
3940	0	0.0277778
3941	0	0
3942	0	0
3943	0	0
3944	0	0
3945	0	0
3946	0	0
3947	0	0
3948	0	0
3949	0	0
3950	0	0
3951	0	0
3952	0	0
3953	0	0
3954	0	0
3955	0	0
3956	0	0
3957	0	0
3958	0	0
3959	0	0
3960	0	0
3961	0	0
3962	0	0
3963	0	0
3964	0	0
3965	0	0
3966	0	0
3967	0	0
3968	0	0
3969	0	0
3970	0	0
3971	0	0
3972	0	0
3973	0	0
3974	0	0
3975	0	0
3976	0	0
3977	0	0
3978	0	0
3979	0	0
3980	0	0
3981	0	0
3982	0	0
3983	0	0
3984	0	0
3985	0	0
3986	0	0
3987	0	0
3988	0	0
3989	0	0
3990	0	0
3991	0	0
3992	0	0
3993	0	0
3994	0	0
3995	0	0
3996	0	0
3997	0	0
3998	0	0
3999	0	0
4000	0	0
4001	0	0
4002	0	0
4003	0	0
4004	0	0
4005	0	0
4006	0	0
4007	0	0
4008	0	0
4009	0	0
4010	0	0
4011	0	0
4012	0	0
4013	0	0
4014	0	0
4015	0	0
4016	0	0
4017	0	0
4018	0	0
4019	0	0
4020	0	0
4021	0	0
4022	0	0
4023	0	0
4024	0	0
4025	0	0
4026	0	0
4027	0	0
4028	0	0
4029	0	0
4030	0	0
4031	0	0
4032	0	0
4033	0	0
4034	0	0
4035	0	0
4036	0	0
4037	0	0
4038	0	0
4039	0	0
4040	0	0
4041	0	0
4042	0	0
4043	0	0
4044	0	0
4045	0	0
4046	0	0
4047	0	0
4048	0	0
4049	0	0
4050	0	0
4051	0	0
4052	0	0
4053	0	0
4054	0	0
4055	0	0
4056	0	0
4057	0	0
4058	0	0
4059	0	0
4060	0	0
4061	0	0
4062	0	0
4063	0	0
4064	0	0
4065	0	0
4066	0	0
4067	0	0
4068	0	0
4069	0	0
4070	0	0
4071	0	0
4072	0	0
4073	0	0
4074	0	0
4075	0	0
4076	0	0
4077	0	0
4078	0	0
4079	0	0
4080	0	0
4081	0	0
4082	0	0
4083	0	0
4084	0	0
4085	0	0
4086	0	0
4087	0	0
4088	0	0
4089	0	0
4090	0	0
4091	0	0
4092	0	0
4093	0	0
4094	0	0
4095	0	0
4096	0	0
4097	0	0
4098	0	0
4099	0	0
4100	0	0
4101	0	0
4102	0	0
4103	0	0
4104	0	0
4105	0	0
4106	0	0
4107	0	0
4108	0	0
4109	0	0
4110	0	0
4111	0	0
4112	0	0
4113	0	0
4114	0	0
4115	0	0
4116	0	0
4117	0	0
4118	0	0
4119	0	0
4120	0	0
4121	0	0
4122	0	0
4123	0	0
4124	0	0
4125	0	0
4126	0	0
4127	0	0
4128	0	0
4129	0	0
4130	0	0
4131	0	0
4132	0	0
4133	0	0
4134	0	0
4135	0	0
4136	0	0
4137	0	0
4138	0	0
4139	0	0
4140	0	0
4141	0	0
4142	0	0
4143	0	0
4144	0	0
4145	0	0
4146	0	0
4147	0	0
4148	0	0
4149	0	0
4150	0	0
4151	0	0
4152	0	0
4153	0	0
4154	0	0
4155	0	0
4156	0	0
4157	0	0
4158	0	0
4159	0	0
4160	0	0
4161	0	0
4162	0	0
4163	0	0
4164	0	0
4165	0	0
4166	0	0
4167	0	0
4168	0	0
4169	0	0
4170	0	0
4171	0	0
4172	0	0
4173	0	0
4174	0	0
4175	0	0
4176	0	0
4177	0	0
4178	0	0
4179	0	0
4180	0	0
4181	0	0
4182	0	0
4183	0	0
4184	0	0
4185	0	0
4186	0	0
4187	0	0
4188	0	0
4189	0	0
4190	0	0
4191	0	0
4192	0	0
4193	0	0
4194	0	0
4195	0	0
4196	0	0
4197	0	0
4198	0	0
4199	0	0
4200	0	0
4201	0	0
4202	0	0
4203	0	0
4204	0	0
4205	0	0
4206	0	0
4207	0	0
4208	0	0
4209	0	0
4210	0	0
4211	0	0
4212	0	0
4213	0	0
4214	0	0
4215	0	0
4216	0	0
4217	0	0
4218	0	0
4219	0	0
4220	0	0
4221	0	0
4222	0	0
4223	0	0
4224	0	0
4225	0	0
4226	0	0
4227	0	0
4228	0	0
4229	0	0
4230	0	0
4231	0	0
4232	0	0
4233	0	0
4234	0	0
4235	0	0
4236	0	0
4237	0	0
4238	0	0
4239	0	0
4240	0	0
4241	0	0
4242	0	0
4243	0	0
4244	0	0
4245	0	0
4246	0	0
4247	0	0
4248	0	0
4249	0	0
4250	0	0
4251	0	0
4252	0	0
4253	0	0
4254	0	0
4255	0	0
4256	0	0
4257	0	0
4258	0	0
4259	0	0
4260	0	0
4261	0	0
4262	0	0
4263	0	0
4264	0	0
4265	0	0
4266	0	0
4267	0	0
4268	0	0
4269	0	0
4270	0	0
4271	0	0
4272	0	0
4273	0	0
4274	0	0
4275	0	0
4276	0	0
4277	0	0
4278	0	0
4279	0	0
4280	0	0
4281	0	0
4282	0	0
4283	0	0
4284	0	0
4285	0	0
4286	0	0
4287	0	0
4288	0	0
4289	0	0
4290	0	0
4291	0	0
4292	0	0
4293	0	0
4294	0	0
4295	0	0
4296	0	0
4297	0	0
4298	0	0
4299	0	0
4300	0	0
4301	0	0
4302	0	0
4303	0	0
4304	0	0
4305	0	0
4306	0	0
4307	0	0
4308	0	0
4309	0	0
4310	0	0
4311	0	0
4312	0	0
4313	0	0
4314	0	0
4315	0	0
4316	0	0
4317	0	0
4318	0	0
4319	0	0
4320	0	0
4321	0	0
4322	0	0
4323	0	0
4324	0	0
4325	0	0
4326	0	0
4327	0	0
4328	0	0
4329	0	0
4330	0	0
4331	0	0
4332	0	0
4333	0	0
4334	0	0
4335	0	0
4336	0	0
4337	0	0
4338	0	0
4339	0	0
4340	0	0
4341	0	0
4342	0	0
4343	0	0
4344	0	0
4345	0	0
4346	0	0
4347	0	0
4348	0	0
4349	0	0
4350	0	0
4351	0	0
4352	0	0
4353	0	0
4354	0	0
4355	0	0
4356	0	0
4357	0	0
4358	0	0
4359	0	0
4360	0	0
4361	0	0
4362	0	0
4363	0	0
4364	0	0
4365	0	0
4366	0	0
4367	0	0
4368	0	0
4369	0	0
4370	0	0
4371	0	0
4372	0	0
4373	0	0
4374	0	0
4375	0	0
4376	0	0
4377	0	0
4378	0	0
4379	0	0
4380	0	0
4381	0	0
4382	0	0
4383	0	0
4384	0	0
4385	0	0
4386	0	0
4387	0	0
4388	0	0
4389	0	0
4390	0	0
4391	0	0
4392	0	0
4393	0	0
4394	0	0
4395	0	0
4396	0	0
4397	0	0
4398	0	0
4399	0	0
4400	0	0
4401	0	0
4402	0	0
4403	0	0
4404	0	0
4405	0	0
4406	0	0
4407	0	0
4408	0	0
4409	0	0
4410	0	0
4411	0	0
4412	0	0
4413	0	0
4414	0	0
4415	0	0
4416	0	0
4417	0	0
4418	0	0
4419	0	0
4420	0	0
4421	0	0
4422	0	0
4423	0	0
4424	0	0
4425	0	0
4426	0	0
4427	0	0
4428	0	0
4429	0	0
4430	0	0
4431	0	0
4432	0	0
4433	0	0
4434	0	0
4435	0	0
4436	0	0
4437	0	0
4438	0	0
4439	0	0
4440	0	0
4441	0	0
4442	0	0
4443	0	0
4444	0	0
4445	0	0
4446	0	0
4447	0	0
4448	0	0
4449	0	0
4450	0	0
4451	0	0
4452	0	0
4453	0	0
4454	0	0
4455	0	0
4456	0	0
4457	0	0
4458	0	0
4459	0	0
4460	0	0
4461	0	0
4462	0	0
4463	0	0
4464	0	0
4465	0	0
4466	0	0
4467	0	0
4468	0	0
4469	0	0
4470	0	0
4471	0	0
4472	0	0
4473	0	0
4474	0	0
4475	0	0
4476	0	0
4477	0	0
4478	0	0
4479	0	0
4480	0	0
4481	0	0
4482	0	0
4483	0	0
4484	0	0
4485	0	0
4486	0	0
4487	0	0
4488	0	0
4489	0	0
4490	0	0
4491	0	0
4492	0	0
4493	0	0
4494	0	0
4495	0	0
4496	0	0
4497	0	0
4498	0	0
4499	0	0
4500	0	0
4501	0	0
4502	0	0
4503	0	0
4504	0	0
4505	0	0
4506	0	0
4507	0	0
4508	0	0
4509	0	0
4510	0	0
4511	0	0
4512	0	0
4513	0	0
4514	0	0
4515	0	0
4516	0	0
4517	0	0
4518	0	0
4519	0	0
4520	0	0
4521	0	0
4522	0	0
4523	0	0
4524	0	0
4525	0	0
4526	0	0
4527	0	0
4528	0	0
4529	0	0
4530	0	0
4531	0	0
4532	0	0
4533	0	0
4534	0	0
4535	0	0
4536	0	0
4537	0	0
4538	0	0
4539	0	0
4540	0	0
4541	0	0
4542	0	0
4543	0	0
4544	0	0
4545	0	0
4546	0	0
4547	0	0
4548	0	0
4549	0	0
4550	0	0
4551	0	0
4552	0	0
4553	0	0
4554	0	0
4555	0	0
4556	0	0
4557	0	0
4558	0	0
4559	0	0
4560	0	0
4561	0	0
4562	0	0
4563	0	0
4564	0	0
4565	0	0
4566	0	0
4567	0	0
4568	0	0
4569	0	0
4570	0	0
4571	0	0
4572	0	0
4573	0	0
4574	0	0
4575	0	0
4576	0	0
4577	0	0
4578	0	0
4579	0	0
4580	0	0
