Site	ColumnScore	SumOfPairsScore
1	0	0
2	0	0
3	0	0
4	0	0
5	0	0
6	0	0
7	0	0
8	0	0
9	0	0
10	0	0
11	0	0
12	0	0
13	0	0
14	0	0
15	0	0
16	0	0
17	0	0
18	0	0
19	0	0
20	0	0
21	0	0
22	0	0
23	0	0
24	0	0
25	0	0
26	0	0
27	0	0
28	0	0
29	0	0
30	0	0
31	0	0
32	0	0
33	0	0
34	0	0
35	0	0
36	0	0
37	0	0
38	0	0
39	0	0
40	0	0
41	0	0
42	0	0
43	0	0
44	0	0
45	0	0
46	0	0
47	0	0
48	0	0
49	0	0
50	0	0
51	0	0
52	0	0
53	0	0
54	0	0
55	0	0
56	0	0
57	0	0
58	0	0
59	0	0
60	0	0
61	0	0
62	0	0
63	0	0
64	0	0
65	0	0
66	0	0
67	0	0
68	0	0
69	0	0
70	0	0
71	0	0
72	0	0
73	0	0
74	0	0
75	0	0
76	0	0
77	0	0
78	0	0
79	0	0
80	0	0
81	0	0
82	0	0
83	0	0
84	0	0
85	0	0
86	0	0
87	0	0
88	0	0
89	0	0
90	0	0
91	0	0
92	0	0
93	0	0
94	0	0
95	0	0
96	0	0
97	0	0
98	0	0
99	0	0
100	0	0
101	0	0
102	0	0
103	0	0
104	0	0
105	0	0
106	0	0
107	0	0
108	0	0
109	0	0
110	0	0
111	0	0
112	0	0
113	0	0
114	0	0
115	0	0
116	0	0
117	0	0
118	0	0
119	0	0
120	0	0
121	0	0
122	0	0
123	0	0
124	0	0
125	0	0
126	0	0
127	0	0
128	0	0
129	0	0
130	0	0
131	0	0
132	0	0
133	0	0
134	0	0
135	0	0
136	0	0
137	0	0
138	0	0
139	0	0
140	0	0
141	0	0
142	0	0
143	0	0
144	0	0
145	0	0
146	0	0
147	0	0
148	0	0
149	0	0
150	0	0
151	0	0
152	0	0
153	0	0
154	0	0
155	0	0
156	0	0
157	0	0
158	0	0
159	0	0
160	0	0
161	0	0
162	0	0
163	0	0
164	0	0
165	0	0
166	0	0
167	0	0
168	0	0
169	0	0
170	0	0
171	0	0
172	0	0
173	0	0
174	0	0
175	0	0
176	0	0
177	0	0
178	0	0
179	0	0
180	0	0
181	0	0
182	0	0
183	0	0
184	0	0
185	0	0
186	0	0
187	0	0
188	0	0
189	0	0
190	0	0
191	0	0
192	0	0
193	0	0
194	0	0
195	0	0
196	0	0
197	0	0
198	0	0
199	0	0
200	0	0
201	0	0
202	0	0
203	0	0
204	0	0
205	0	0
206	0	0
207	0	0
208	0	0
209	0	0
210	0	0
211	0	0
212	0	0
213	0	0
214	0	0
215	0	0
216	0	0
217	0	0
218	0	0
219	0	0
220	0	0
221	0	0
222	0	0
223	0	0
224	0	0
225	0	0
226	0	0
227	0	0
228	0	0
229	0	0
230	0	0
231	0	0
232	0	0
233	0	0
234	0	0
235	0	0
236	0	0
237	0	0
238	0	0
239	0	0
240	0	0
241	0	0
242	0	0
243	0	0
244	0	0
245	0	0
246	0	0
247	0	0
248	0	0
249	0	0
250	0	0
251	0	0
252	0	0
253	0	0
254	0	0
255	0	0
256	0	0
257	0	0
258	0	0
259	0	0
260	0	0
261	0	0
262	0	0
263	0	0
264	0	0
265	0	0
266	0	0
267	0	0
268	0	0
269	0	0
270	0	0
271	0	0
272	0	0
273	0	0
274	0	0
275	0	0
276	0	0
277	0	0
278	0	0
279	0	0
280	0	0
281	0	0
282	0	0
283	0	0
284	0	0
285	0	0
286	0	0
287	0	0
288	0	0
289	0	0
290	0	0
291	0	0
292	0	0
293	0	0
294	0	0
295	0	0
296	0	0
297	0	0
298	0	0
299	0	0
300	0	0
301	0	0
302	0	0
303	0	0
304	0	0
305	0	0
306	0	0
307	0	0
308	0	0
309	0	0
310	0	0
311	0	0
312	0	0
313	0	0
314	0	0
315	0	0
316	0	0
317	0	0
318	0	0
319	0	0
320	0	0
321	0	0
322	0	0
323	0	0
324	0	0
325	0	0
326	0	0
327	0	0
328	0	0
329	0	0
330	0	0
331	0	0
332	0	0
333	0	0
334	0	0
335	0	0
336	0	0
337	0	0
338	0	0
339	0	0
340	0	0
341	0	0
342	0	0
343	0	0
344	0	0
345	0	0
346	0	0
347	0	0
348	0	0
349	0	0
350	0	0
351	0	0
352	0	0
353	0	0
354	0	0
355	0	0
356	0	0
357	0	0
358	0	0
359	0	0
360	0	0
361	0	0
362	0	0
363	0	0
364	0	0
365	0	0
366	0	0
367	0	0
368	0	0
369	0	0
370	0	0
371	0	0
372	0	0
373	0	0
374	0	0
375	0	0
376	0	0
377	0	0
378	0	0
379	0	0
380	0	0
381	0	0
382	0	0
383	0	0
384	0	0
385	0	0
386	0	0
387	0	0
388	0	0
389	0	0
390	0	0
391	0	0
392	0	0
393	0	0
394	0	0
395	0	0
396	0	0
397	0	0
398	0	0
399	0	0
400	0	0
401	0	0
402	0	0
403	0	0
404	0	0
405	0	0
406	0	0
407	0	0
408	0	0
409	0	0
410	0	0
411	0	0
412	0	0
413	0	0
414	0	0
415	0	0
416	0	0
417	0	0
418	0	0
419	0	0
420	0	0
421	0	0
422	0	0
423	0	0
424	0	0
425	0	0
426	0	0
427	0	0
428	0	0
429	0	0
430	0	0
431	0	0
432	0	0
433	0	0
434	0	0
435	0	0
436	0	0
437	0	0
438	0	0
439	0	0
440	0	0
441	0	0
442	0	0
443	0	0
444	0	0
445	0	0
446	0	0
447	0	0
448	0	0
449	0	0
450	0	0
451	0	0
452	0	0
453	0	0
454	0	0
455	0	0
456	0	0
457	0	0
458	0	0
459	0	0
460	0	0
461	0	0
462	0	0
463	0	0
464	0	0
465	0	0
466	0	0
467	0	0
468	0	0
469	0	0
470	0	0
471	0	0
472	0	0
473	0	0
474	0	0
475	0	0
476	0	0
477	0	0
478	0	0
479	0	0
480	0	0
481	0	0
482	0	0
483	0	0
484	0	0
485	0	0
486	0	0
487	0	0
488	0	0
489	0	0
490	0	0
491	0	0
492	0	0
493	0	0
494	0	0
495	0	0
496	0	0
497	0	0
498	0	0
499	0	0
500	0	0
501	0	0
502	0	0
503	0	0
504	0	0
505	0	0
506	0	0
507	0	0
508	0	0
509	0	0
510	0	0
511	0	0
512	0	0
513	0	0
514	0	0
515	0	0
516	0	0
517	0	0
518	0	0
519	0	0
520	0	0
521	0	0
522	0	0
523	0	0
524	0	0
525	0	0
526	0	0
527	0	0
528	0	0
529	0	0
530	0	0
531	0	0
532	0	0
533	0	0
534	0	0
535	0	0
536	0	0
537	0	0
538	0	0
539	0	0
540	0	0
541	0	0
542	0	0
543	0	0
544	0	0
545	0	0
546	0	0
547	0	0
548	0	0
549	0	0
550	0	0
551	0	0
552	0	0
553	0	0
554	0	0
555	0	0
556	0	0
557	0	0
558	0	0
559	0	0
560	0	0
561	0	0
562	0	0
563	0	0
564	0	0
565	0	0
566	0	0
567	0	0
568	0	0
569	0	0
570	0	0
571	0	0
572	0	0
573	0	0
574	0	0
575	0	0
576	0	0
577	0	0
578	0	0
579	0	0
580	0	0
581	0	0
582	0	0
583	0	0
584	0	0
585	0	0
586	0	0
587	0	0
588	0	0
589	0	0
590	0	0
591	0	0
592	0	0
593	0	0
594	0	0
595	0	0
596	0	0
597	0	0
598	0	0
599	0	0
600	0	0
601	0	0
602	0	0
603	0	0
604	0	0
605	0	0
606	0	0
607	0	0
608	0	0
609	0	0
610	0	0
611	0	0
612	0	0
613	0	0
614	0	0
615	0	0
616	0	0
617	0	0
618	0	0
619	0	0
620	0	0
621	0	0
622	0	0
623	0	0
624	0	0
625	0	0
626	0	0
627	0	0
628	0	0
629	0	0
630	0	0
631	0	0
632	0	0
633	0	0
634	0	0
635	0	0
636	0	0
637	0	0
638	0	0
639	0	0
640	0	0
641	0	0
642	0	0
643	0	0
644	0	0
645	0	0
646	0	0
647	0	0
648	0	0
649	0	0
650	0	0
651	0	0
652	0	0
653	0	0
654	0	0
655	0	0
656	0	0
657	0	0
658	0	0
659	0	0
660	0	0
661	0	0
662	0	0
663	0	0
664	0	0
665	0	0
666	0	0
667	0	0
668	0	0
669	0	0
670	0	0
671	0	0
672	0	0
673	0	0
674	0	0
675	0	0
676	0	0
677	0	0
678	0	0
679	0	0
680	0	0
681	0	0
682	0	0
683	0	0
684	0	0
685	0	0
686	0	0
687	0	0
688	0	0
689	0	0
690	0	0
691	0	0
692	0	0
693	0	0
694	0	0
695	0	0
696	0	0
697	0	0
698	0	0
699	0	0
700	0	0
701	0	0
702	0	0
703	0	0
704	0	0
705	0	0
706	0	0
707	0	0
708	0	0
709	0	0
710	0	0
711	0	0
712	0	0
713	0	0
714	0	0
715	0	0
716	0	0
717	0	0
718	0	0
719	0	0
720	0	0
721	0	0
722	0	0
723	0	0
724	0	0
725	0	0
726	0	0
727	0	0
728	0	0
729	0	0
730	0	0
731	0	0
732	0	0
733	0	0
734	0	0
735	0	0
736	0	0
737	0	0
738	0	0
739	0	0
740	0	0
741	0	0
742	0	0
743	0	0
744	0	0
745	0	0
746	0	0
747	0	0
748	0	0
749	0	0
750	0	0
751	0	0
752	0	0
753	0	0
754	0	0
755	0	0
756	0	0
757	0	0
758	0	0
759	0	0
760	0	0
761	0	0
762	0	0
763	0	0
764	0	0
765	0	0
766	0	0
767	0	0
768	0	0
769	0	0
770	0	0
771	0	0
772	0	0
773	0	0
774	0	0
775	0	0
776	0	0
777	0	0
778	0	0
779	0	0
780	0	0
781	0	0
782	0	0
783	0	0
784	0	0
785	0	0
786	0	0
787	0	0
788	0	0
789	0	0
790	0	0
791	0	0
792	0	0
793	0	0
794	0	0
795	0	0
796	0	0
797	0	0
798	0	0
799	0	0
800	0	0
801	0	0
802	0	0
803	0	0
804	0	0
805	0	0
806	0	0
807	0	0
808	0	0
809	0	0
810	0	0
811	0	0
812	0	0
813	0	0
814	0	0
815	0	0
816	0	0
817	0	0
818	0	0
819	0	0
820	0	0
821	0	0
822	0	0
823	0	0
824	0	0
825	0	0
826	0	0
827	0	0
828	0	0
829	0	0
830	0	0
831	0	0
832	0	0
833	0	0
834	0	0
835	0	0
836	0	0
837	0	0
838	0	0
839	0	0
840	0	0
841	0	0
842	0	0
843	0	0
844	0	0
845	0	0
846	0	0
847	0	0
848	0	0
849	0	0
850	0	0
851	0	0
852	0	0
853	0	0
854	0	0
855	0	0
856	0	0
857	0	0
858	0	0
859	0	0
860	0	0
861	0	0
862	0	0
863	0	0
864	0	0
865	0	0
866	0	0
867	0	0
868	0	0
869	0	0
870	0	0
871	0	0
872	0	0
873	0	0
874	0	0
875	0	0
876	0	0
877	0	0
878	0	0
879	0	0
880	0	0
881	0	0
882	0	0
883	0	0
884	0	0
885	0	0
886	0	0
887	0	0
888	0	0
889	0	0
890	0	0
891	0	0
892	0	0
893	0	0
894	0	0
895	0	0
896	0	0
897	0	0.0277778
898	0	0.0277778
899	0	0.0277778
900	0	0.0277778
901	0	0.0277778
902	0	0.0363636
903	0	0.0363636
904	0	0.0363636
905	0	0.0181818
906	0	0.0151515
907	0	0.0151515
908	0	0.043956
909	0	0.043956
910	0	0.021978
911	0	0.021978
912	0	0.021978
913	0	0.021978
914	0	0.032967
915	0	0.0549451
916	0	0.120879
917	0	0.142857
918	0	0.0989011
919	0	0.0989011
920	0	0.0879121
921	0	0.0879121
922	0	0.0769231
923	0	0.120879
924	0	0.142857
925	0	0.142857
926	0	0.197802
927	0	0.197802
928	0	0.197802
929	0	0.197802
930	0	0.175824
931	0	0.175824
932	0	0.166667
933	0	0.26087
934	0	0.315217
935	0	0.33
936	0	0.657532
937	0	0.666126
938	0	0.672031
939	0	0.29064
940	0	0.886308
941	0	0.222222
942	0	0.307692
943	0	0.307692
944	0	0
945	0	0
946	0	0
947	0	0
948	0	0
949	0	0
950	0	0
951	0	0
952	0	0
953	0	0
954	0	0
955	0	0
956	0	0
957	0	0
958	0	0
959	0	0
960	0	0
961	0	0
962	0	0
963	0	0
964	0	0
965	0	0
966	0	0
967	0	0
968	0	0
969	0	0
970	0	0
971	0	0
972	0	0
973	0	0
974	0	0
975	0	0
976	0	0
977	0	0
978	0	0
979	0	0
980	0	0
981	0	0
982	0	0
983	0	0
984	0	0
985	0	0
986	0	0
987	0	0
988	0	0
989	0	0
990	0	0
991	0	0
992	0	0
993	0	0
994	0	0
995	0	0
996	0	0
997	0	0
998	0	0
999	0	0
1000	0	0
1001	0	0
1002	0	0
1003	0	0
1004	0	0
1005	0	0
1006	0	0
1007	0	0
1008	0	0
1009	0	0
1010	0	0
1011	0	0
1012	0	0
1013	0	0
1014	0	0
1015	0	0
1016	0	0
1017	0	0
1018	0	0
1019	0	0
1020	0	0
1021	0	0
1022	0	0
1023	0	0
1024	0	0
1025	0	0
1026	0	0
1027	0	0
1028	0	0
1029	0	0
1030	0	0
1031	0	0
1032	0	0
1033	0	0
1034	0	0
1035	0	0.95334
1036	0	0.95449
1037	0	0.967589
1038	0	0.25
1039	0	0
1040	0	0
1041	0	0
1042	0	0
1043	0	0
1044	0	0
1045	0	0
1046	0	0
1047	0	0
1048	0	0
1049	0	0
1050	0	0
1051	0	0
1052	0	0
1053	0	0
1054	0	0
1055	0	0
1056	0	0
1057	0	0
1058	0	0
1059	0	0
1060	0	0
1061	0	0
1062	0	0
1063	0	0
1064	0	0
1065	0	0
1066	0	0
1067	0	0
1068	0	0
1069	0	0
1070	0	0
1071	0	0
1072	0	0.97137
1073	0	0.969506
1074	0	0.969506
1075	0	0.969506
1076	0	0
1077	0	0
1078	0	0
1079	0	0
1080	0	0
1081	0	0
1082	0	0
1083	0	0
1084	0	0
1085	0	0
1086	0	0
1087	0	0
1088	0	0
1089	0	0
1090	0	0
1091	0	0
1092	0	0
1093	0	0
1094	0	0
1095	0	0
1096	0	0
1097	0	0
1098	0	0
1099	0	0
1100	0	0
1101	0	0
1102	0	0
1103	0	0
1104	0	0
1105	0	0
1106	0	0
1107	0	0
1108	0	0
1109	0	0
1110	0	0
1111	0	0
1112	0	0
1113	0	0
1114	0	0
1115	0	0
1116	0	0
1117	0	0
1118	0	0
1119	0	0
1120	0	0
1121	0	0
1122	0	0
1123	0	0
1124	0	0
1125	0	0
1126	0	0
1127	0	0
1128	0	0
1129	0	0
1130	0	0
1131	0	0
1132	0	0
1133	0	0
1134	0	0
1135	0	0
1136	0	0
1137	0	0
1138	0	0
1139	0	0
1140	0	0
1141	0	0
1142	0	0
1143	0	0
1144	0	0
1145	0	0
1146	0	0
1147	0	0
1148	0	0
1149	0	0
1150	0	0
1151	0	0
1152	0	0
1153	0	0
1154	0	0
1155	1	0
1156	1	0
1157	1	0
1158	1	0
1159	1	0
1160	1	0
1161	1	0
1162	1	0
1163	0	0
1164	0	0
1165	0	0
1166	0	0
1167	0	0
1168	0	0
1169	0	0
1170	0	0
1171	0	0
1172	0	0
1173	0	0
1174	0	0
1175	0	0
1176	0	0
1177	0	0
1178	0	0
1179	0	0
1180	0	0
1181	0	0
1182	0	0
1183	0	0
1184	0	0
1185	0	0
1186	0	0
1187	0	0
1188	0	0
1189	0	0
1190	0	0
1191	0	0
1192	0	0
1193	0	0
1194	0	0
1195	0	0
1196	0	0
1197	0	0
1198	0	0
1199	0	0
1200	0	0
1201	0	0
1202	0	0
1203	0	0
1204	0	0
1205	0	0
1206	0	0
1207	0	0
1208	0	0
1209	0	0
1210	0	0
1211	0	0
1212	0	0
1213	0	0
1214	0	0
1215	0	0
1216	0	0
1217	0	0
1218	0	0
1219	0	0
1220	0	0
1221	0	0
1222	0	0
1223	0	0
1224	0	0
1225	0	0
1226	0	0
1227	0	0
1228	0	0
1229	0	0
1230	0	0
1231	1	0
1232	0	0
1233	0	0
1234	0	0
1235	1	0
1236	0	0
1237	0	0
1238	0	0
1239	0	0
1240	0	0
1241	0	0
1242	0	0
1243	0	0
1244	0	0
1245	0	0
1246	0	0
1247	0	0
1248	0	0
1249	0	0
1250	0	1
1251	0	1
1252	0	1
1253	1	1
1254	0	0
1255	0	0
1256	0	0
1257	0	0
1258	0	0
1259	0	0.166667
1260	0	0.133333
1261	0	0.95436
1262	0	0.901401
1263	0	0.857859
1264	0	0.857143
1265	0	0.857143
1266	0	0.846154
1267	0	0.24359
1268	0	0.836104
1269	0	0.2
1270	0	0.2
1271	0	0
1272	0	0
1273	0	0
1274	0	0
1275	0	0
1276	0	0
1277	0	0.429465
1278	0	0.180952
1279	0	0.190476
1280	0	0.190476
1281	0	0.17619
1282	0	0.313062
1283	0	0.122404
1284	0	0.338187
1285	0	0
1286	0	0
1287	0	0
1288	0	0
1289	0	0
1290	0	0
1291	0	0
1292	0	0.263042
1293	0	0.128636
1294	0	0.0914095
1295	0	0.171904
1296	0	0.134058
1297	0	0.120482
1298	0	0.2
1299	0	0.2
1300	0	0.2
1301	0	0.2
1302	0	0.165226
1303	0	0
1304	0	0
1305	0	0
1306	0	0
1307	0	0
1308	0	0
1309	0	0
1310	0	0
1311	0	0
1312	0	0
1313	0	0
1314	0	0
1315	0	0
1316	0	0
1317	0	0
1318	0	0
1319	0	0
1320	0	0
1321	0	0
1322	0	0
1323	0	0
1324	0	0
1325	0	0
1326	0	0
1327	0	0
1328	0	0
1329	0	0
1330	0	0
1331	0	0
1332	0	0
1333	0	0
1334	0	0
1335	0	0
1336	0	0
1337	0	0
1338	0	0
1339	0	0
1340	0	0
1341	0	0
1342	0	0
1343	0	0
1344	0	0
1345	0	0
1346	0	0
1347	0	0
1348	0	0
1349	0	0
1350	0	0
1351	0	0
1352	0	0
1353	0	0
1354	0	0
1355	0	0
1356	0	0
1357	0	0
1358	0	0
1359	0	0
1360	0	0
1361	0	0
1362	0	0
1363	0	0
1364	0	0
1365	0	0
1366	0	0
1367	0	0
1368	0	0
1369	0	0
1370	0	0
1371	0	0
1372	0	0
1373	0	0
1374	0	0
1375	0	0
1376	0	0
1377	0	0
1378	0	0
1379	0	0
1380	0	0
1381	0	0
1382	0	0
1383	0	0
1384	0	0
1385	0	0
1386	0	0
1387	0	0
1388	0	0
1389	0	0
1390	0	0
1391	0	0
1392	0	0
1393	0	0
1394	0	0
1395	0	0
1396	0	0
1397	0	0
1398	0	0
1399	0	0
1400	0	0
1401	0	0
1402	0	0
1403	0	0
1404	0	0
1405	0	0
1406	0	0
1407	0	0
1408	0	0
1409	0	0.242525
1410	0	0.0683761
1411	0	0.0769231
1412	0	0.28306
1413	0	0.166512
1414	0	0.39155
1415	0	0.246953
1416	0	0.188267
1417	0	0.152158
1418	0	0.245678
1419	0	0.215462
1420	0	0.174923
1421	0	0.263476
1422	0	0.257495
1423	0	0.260036
1424	0	0.331765
1425	0	0.40678
1426	0	0.530099
1427	0	0.261761
1428	0	0.240299
1429	0	0.331931
1430	0	0.156257
1431	0	0.224663
1432	0	0.31019
1433	0	0.351865
1434	0	0.354832
1435	0	0.505495
1436	0	0.346631
1437	0	0.492021
1438	0	0.518617
1439	0	0.551173
1440	0	0
1441	0	0
1442	0	0
1443	0	0
1444	0	0
1445	0	1
1446	0	0.965783
1447	0	1
1448	0	1
1449	0	1
1450	0	0.992269
1451	0	0.996178
1452	0	0.996178
1453	0	0.996178
1454	0	0.996203
1455	0	0.996203
1456	0	0.998099
1457	0	0.998099
1458	0	0.998099
1459	0	1
1460	0	0.994278
1461	0	0.86907
1462	0	0
1463	0	0
1464	0	0
1465	0	0
1466	0	0
1467	0	0
1468	0	0.931034
1469	0	0.660504
1470	0	0.556188
1471	0	0.493249
1472	0	1
1473	0	1
1474	0	1
1475	0	1
1476	0	0.6
1477	0	0.6
1478	0	0.6
1479	0	0.6
1480	0	0.6
1481	0	0.6
1482	0	0.6
1483	0	0.6
1484	0	0.6
1485	0	0.493953
1486	0	0.584211
1487	0	0.625617
1488	0	0.533574
1489	0	0.550421
1490	0	0.994175
1491	0	0
1492	0	0
1493	0	0
1494	0	0
1495	0	0
1496	0	0.996246
1497	0	0.996253
1498	0	0.996253
1499	0	0.996253
1500	0	0.998126
1501	0	0.998126
1502	0	0.998126
1503	0	0.998126
1504	0	0.998126
1505	0	0.998126
1506	0	0.998127
1507	0	0.998127
1508	0	0.998127
1509	0	0.998127
1510	0	0.998136
1511	0	0.998136
1512	0	0.998134
1513	0	0.998134
1514	0	0.998134
1515	0	0.998133
1516	0	0.998133
1517	0	0.998133
1518	0	0.996267
1519	0	0
1520	0	0
1521	0	0
1522	0	0
1523	0	0
1524	0	0
1525	0	0
1526	0	0
1527	0	0
1528	0	0
1529	0	0
1530	0	0
1531	0	0
1532	0	0
1533	0	0
1534	0	0.333333
1535	0	0.333333
1536	0	0.5
1537	0	0.5
1538	0	0.992546
1539	0	1
1540	0	1
1541	0	1
1542	0	1
1543	0	1
1544	0	0
1545	0	0
1546	0	0
1547	0	0
1548	0	0.996267
1549	0	0.996267
1550	0	0.996267
1551	0	0.996267
1552	0	0.996267
1553	0	0.998133
1554	0	0.998133
1555	0	0.998134
1556	0	0.998134
1557	0	0.998134
1558	0	0.99442
1559	0	0.99815
1560	0	0.998152
1561	0	0.998153
1562	0	0.998155
1563	0	0.998155
1564	0	0.998155
1565	0	0.998155
1566	0	0.998155
1567	0	0.998155
1568	0	0.998155
1569	0	0.998155
1570	0	0.996312
1571	0	0.996312
1572	0	0.994475
1573	0	0.996312
1574	0	0.805411
1575	0	0.896617
1576	0	0.761698
1577	0	0.669231
1578	0	0.494737
1579	0	0.436842
1580	0	0.347368
1581	0	0.385965
1582	0	0.385965
1583	0	0.385965
1584	0	0.385965
1585	0	0.372549
1586	0	0.372549
1587	0	0.340659
1588	0	0.0879121
1589	0	0.0897436
1590	0	0.0897436
1591	0	0.0897436
1592	0	0.106061
1593	0	0.106061
1594	0	0.106061
1595	0	0.106061
1596	0	0.106061
1597	0	0.127273
1598	0	0.127273
1599	0	0.127273
1600	0	0.127273
1601	0	0.127273
1602	0	0.127273
1603	0	0.127273
1604	0	0.127273
1605	0	0.166667
1606	0	0.2
1607	0	0.3
1608	0	0.3
1609	0	0
1610	0	0
1611	0	0
1612	0	0.631413
1613	0	0.650331
1614	0	0.693518
1615	0	1
1616	0	1
1617	0	1
1618	0	1
1619	0	1
1620	0	1
1621	0	0.888506
1622	0	0.807057
1623	0	0.99816
1624	1	1
1625	0	0.99816
1626	0	0.807526
1627	0	0.996325
1628	0	0.998162
1629	0	0.998162
1630	0	0.807682
1631	0	0.998162
1632	0	0.998162
1633	0	0.998162
1634	0	0.998162
1635	0	0.998162
1636	0	0.998162
1637	0	0.998162
1638	0	0.998162
1639	0	0.998163
1640	0	0.998163
1641	0	0.998163
1642	0	0.998163
1643	0	0.998163
1644	0	0.998163
1645	0	0.996332
1646	0	0.998165
1647	0	0.998163
1648	0	0.998163
1649	0	0.998163
1650	0	0.998163
1651	0	1
1652	0	1
1653	0	0.874468
1654	0	0.874145
1655	0	0.874145
1656	0	0.797531
1657	0	0.797531
1658	0	0.333333
1659	0	0.855742
1660	0	0.854165
1661	0	0.85404
1662	0	0.756967
1663	0	0.166667
1664	0	0
1665	0	0
1666	0	0
1667	0	0.133333
1668	0	0.479324
1669	0	0
1670	0	0.486531
1671	0	0.498216
1672	0	0.521514
1673	0	0.973333
1674	0	0.973333
1675	0	0.937161
1676	0	0.998162
1677	0	0.998162
1678	0	0.99816
1679	0	0.99816
1680	0	0.99816
1681	0	0.996322
1682	0	0.333333
1683	0	0.333333
1684	0	0.333333
1685	0	0.333333
1686	0	0.333333
1687	0	0.333333
1688	0	0.333333
1689	0	0.333333
1690	0	0.333333
1691	0	0.333333
1692	0	0.333333
1693	1	1
1694	1	1
1695	1	1
1696	1	1
1697	1	1
1698	1	1
1699	0	0.998143
1700	0	1
1701	0	1
1702	0	0.747451
1703	0	0.56898
1704	0	0.874676
1705	0	0.615385
1706	0	0.463203
1707	0	0.460256
1708	0	0.734537
1709	0	0
1710	0	0
1711	0	0
1712	0	0.561496
1713	0	0.490951
1714	0	0.330571
1715	0	0.346451
1716	0	0.420024
1717	0	0.410416
1718	0	0.161905
1719	0	0.2
1720	0	0.333333
1721	0	0
1722	0	0
1723	0	0
1724	0	0
1725	0	0.284575
1726	0	0.295238
1727	0	0.267002
1728	0	0.411663
1729	0	0.138611
1730	0	0.204491
1731	0	0.163762
1732	0	0.289372
1733	0	0.562678
1734	0	0.137664
1735	0	0.540984
1736	0	0.17082
1737	0	0.39451
1738	0	0.407059
1739	0	0.607646
1740	0	0.522048
1741	0	0.641536
1742	0	0.808974
1743	0	0.763778
1744	0	0.664615
1745	0	0.652308
1746	0	0.787692
1747	0	0.913446
1748	0	0.933516
1749	0	0.949263
1750	0	0.954521
1751	0	1
1752	0	1
1753	1	1
1754	1	1
1755	0	1
1756	0	1
1757	0	1
1758	1	1
1759	1	1
1760	1	1
1761	1	1
1762	1	1
1763	1	1
1764	1	1
1765	1	1
1766	1	1
1767	1	1
1768	1	1
1769	0	0.998153
1770	0	0.998152
1771	0	1
1772	1	1
1773	1	1
1774	1	1
1775	1	1
1776	1	1
1777	1	1
1778	1	1
1779	1	1
1780	1	1
1781	1	1
1782	1	1
1783	1	1
1784	1	1
1785	0	1
1786	0	0
1787	0	0
1788	0	0
1789	0	0.714286
1790	0	1
1791	0	0
1792	0	0
1793	0	0
1794	0	0
1795	0	0.780399
1796	0	0.641026
1797	0	0.89302
1798	0	1
1799	0	1
1800	0	1
1801	0	0.397436
1802	0	0.552381
1803	0	0.908327
1804	0	0.5
1805	0	0.465517
1806	0	0.863087
1807	0	0.183333
1808	0	0.147368
1809	0	0.12381
1810	0	0.596304
1811	0	0.349156
1812	0	0.383108
1813	0	0.247736
1814	0	0.13064
1815	0	0.285632
1816	0	0.166667
1817	0	0.116883
1818	0	0.146199
1819	0	0.147368
1820	0	0.163158
1821	0	0.231448
1822	0	0.45698
1823	0	0.322931
1824	0	0.247399
1825	0	0.320393
1826	0	0.228804
1827	0	0.174972
1828	0	0.336508
1829	0	0.746088
1830	0	0
1831	0	0
1832	0	0
1833	0	0
1834	0	0.974633
1835	0	0
1836	0	0
1837	0	0
1838	0	0
1839	0	0
1840	0	0
1841	0	0
1842	0	0.849933
1843	0	1
1844	0	0.544304
1845	0	1
1846	0	1
1847	0	1
1848	0	1
1849	0	1
1850	0	1
1851	0	1
1852	1	1
1853	1	1
1854	0	1
1855	0	1
1856	0	1
1857	1	1
1858	1	1
1859	0	0.994495
1860	0	0.493224
1861	0	0.675532
1862	0	0.715789
1863	0	0.989016
1864	0	0.987208
1865	0	0.989041
1866	0	0.989041
1867	0	0.5
1868	0	0.5
1869	0	0.5
1870	0	0.5
1871	0	0.5
1872	0	0.5
1873	0	0.994511
1874	0	0.994511
1875	0	0.994511
1876	0	0.994511
1877	0	0
1878	0	0.921818
1879	0	0.804672
1880	0	0.460759
1881	0	0.732915
1882	0	0.699829
1883	0	0.695827
1884	0	0
1885	0	0
1886	0	0
1887	0	0
1888	0	0
1889	0	0
1890	0	0
1891	0	0
1892	0	0
1893	0	0
1894	0	0
1895	0	0
1896	0	0
1897	0	0
1898	0	0
1899	0	0
1900	0	0
1901	0	0
1902	0	0
1903	0	0.767203
1904	0	0.558579
1905	0	0
1906	0	0
1907	0	0
1908	0	0
1909	0	0
1910	0	0
1911	0	0
1912	0	0
1913	0	0
1914	0	0
1915	0	0
1916	0	0.272039
1917	0	0.220196
1918	0	0.146798
1919	0	0.0970079
1920	0	0.0958392
1921	0	0.105921
1922	0	0.547577
1923	0	0.0952381
1924	0	0.0952381
1925	0	0.0952381
1926	0	0.0952381
1927	0	0.107143
1928	0	0.107143
1929	0	0.911422
1930	0	0.157143
1931	0	0.152381
1932	0	0.12381
1933	0	0.119048
1934	0	0.419447
1935	0	0.154266
1936	0	0.277538
1937	0	0.0514706
1938	0	0.0514706
1939	0	0.385397
1940	0	0.0367647
1941	0	0.0367647
1942	0	0.0367647
1943	0	0.0441176
1944	0	0.20084
1945	0	0.219218
1946	0	0.31784
1947	0	0.193677
1948	0	0.2375
1949	0	0.181875
1950	0	0.2881
1951	0	0.558571
1952	0	0.848453
1953	0	0.105263
1954	0	0.125
1955	0	0.102941
1956	0	0.0606061
1957	0	0.030303
1958	0	0.0454545
1959	0	0.0666667
1960	0	0.155556
1961	0	0.155556
1962	0	0.155556
1963	0	0.155556
1964	0	0.155556
1965	0	0.155556
1966	0	0.155556
1967	0	0.422938
1968	0	0.251553
1969	0	0.417767
1970	0	0.12381
1971	0	0.142602
1972	0	0.222816
1973	0	0.232955
1974	0	0.383333
1975	0	0.45
1976	0	0.471014
1977	0	0.404301
1978	0	0.404301
1979	0	0.32137
1980	0	0.227941
1981	0	0.227941
1982	0	0.120513
1983	0	0.2
1984	0	0.458974
1985	0	0.416667
1986	0	0.496454
1987	0	0.518039
1988	0	0.39252
1989	0	0.121795
1990	0	0.207827
1991	0	0.326586
1992	0	0.369532
1993	0	0.840197
1994	0	0.617172
1995	0	0.83285
1996	0	0.87343
1997	0	0.333333
1998	0	0.166667
1999	0	1
2000	0	1
2001	0	0.998165
2002	0	0.998168
2003	0	0.998168
2004	0	0.998168
2005	0	0.998168
2006	0	0.998168
2007	0	0.998168
2008	0	0.998168
2009	0	0.998168
2010	0	0.998168
2011	0	0.998168
2012	0	0.998168
2013	0	0.998168
2014	0	0.998168
2015	0	0.998168
2016	0	1
2017	0	1
2018	0	0.80117
2019	0	0.80117
2020	0	0.707602
2021	0	0.610057
2022	0	0.410583
2023	0	0.302144
2024	0	0.349721
2025	0	0.324944
2026	0	0.276577
2027	0	0.306665
2028	0	0.556818
2029	0	0.286171
2030	0	0
2031	0	0
2032	0	0
2033	0	0
2034	0	0.0714286
2035	0	0.0952381
2036	0	0.047619
2037	0	0.047619
2038	0	0.260819
2039	0	0
2040	0	0
2041	0	0
2042	0	0
2043	0	0
2044	0	0
2045	0	0
2046	0	0
2047	0	0.0666667
2048	0	0.0666667
2049	0	0.0849673
2050	0	0.539584
2051	0	0.113798
2052	0	0.142857
2053	0	0.32879
2054	0	0.463449
2055	0	0.179487
2056	0	0.25
2057	0	0.196694
2058	0	0
2059	0	0
2060	0	0.292012
2061	0	0.357412
2062	0	0
2063	0	0
2064	0	0
2065	0	0.679378
2066	0	0.233202
2067	0	0.330049
2068	0	0.461988
2069	0	1
2070	0	1
2071	0	1
2072	0	0.674405
2073	0	0.67317
2074	0	0.351395
2075	0	0.33936
2076	0	0
2077	0	0.127273
2078	0	0.127273
2079	0	0.127273
2080	0	0.0897436
2081	0	0.0666667
2082	0	0.717545
2083	0	0.528025
2084	0	0.313305
2085	0	0.178106
2086	0	0.39025
2087	0	0.439141
2088	0	0.454014
2089	0	0.415948
2090	0	0.075
2091	0	0.102564
2092	0	0.0897436
2093	0	0.0897436
2094	0	0.422868
2095	0	0.561859
2096	0	0.166667
2097	0	0.337844
2098	0	0.330949
2099	0	0.446203
2100	0	0.479556
2101	0	0.470448
2102	0	0.469885
2103	0	0.357143
2104	0	0.35468
2105	0	0.372414
2106	0	0.424761
2107	0	0.324948
2108	0	0.710818
2109	0	0.166667
2110	0	0.166667
2111	0	0.333333
2112	0	0.333333
2113	0	0.333333
2114	0	1
2115	0	1
2116	0	0.392857
2117	0	1
2118	0	1
2119	0	1
2120	0	1
2121	0	1
2122	0	0
2123	0	0
2124	0	1
2125	0	1
2126	0	0.392857
2127	0	0.585091
2128	0	0.583782
2129	0	0.584287
2130	0	0.584287
2131	0	0.584288
2132	0	0
2133	0	0
2134	0	0
2135	0	0
2136	0	0.4
2137	0	0.2
2138	0	0.540541
2139	0	0.538733
2140	0	0.536404
2141	0	0.4869
2142	0	0.424051
2143	0	0.419799
2144	0	0.23871
2145	0	0.418343
2146	0	0.573552
2147	0	0.532081
2148	0	0.49045
2149	0	0.486116
2150	0	0.419096
2151	0	0.393973
2152	0	0.384892
2153	0	0.23913
2154	0	0.26087
2155	0	0.121564
2156	0	0.116279
2157	0	0.105708
2158	0	0.0821256
2159	0	0.733106
2160	0	0.749376
2161	0	0.106775
2162	0	0.628353
2163	0	0.0941176
2164	0	0.105098
2165	0	0.58253
2166	0	0.190476
2167	0	0.0952381
2168	0	0.0952381
2169	0	0.0952381
2170	0	0.0952381
2171	0	0.0952381
2172	0	0.694957
2173	0	0.706074
2174	0	1
2175	0	1
2176	0	1
2177	0	1
2178	0	1
2179	0	0
2180	0	0.856377
2181	0	0.454006
2182	0	0.10989
2183	0	0.374435
2184	0	0
2185	0	0.173333
2186	0	0.167345
2187	0	0.171788
2188	0	0.406607
2189	0	0.26251
2190	0	0.175689
2191	0	0.152404
2192	0	0.180769
2193	0	0.155738
2194	0	0.13071
2195	0	0.118012
2196	0	0.112379
2197	0	0.35861
2198	0	0.0835443
2199	0	0.0780264
2200	0	0.0592451
2201	0	0.0607761
2202	0	0.175131
2203	0	0.148363
2204	0	0.0635406
2205	0	0.220673
2206	0	0.210081
2207	0	0.120609
2208	0	0.0878705
2209	0	0.10388
2210	0	0.14069
2211	0	0.120749
2212	0	0.126414
2213	0	0.0759895
2214	0	0.0836731
2215	0	0.104825
2216	0	0.335808
2217	0	0.399104
2218	0	0.321961
2219	0	0.186813
2220	0	0.290909
2221	0	0.1
2222	0	0.1
2223	0	0.1
2224	0	0.166667
2225	0	0.381892
2226	0	0.29006
2227	0	0.242607
2228	0	0.275655
2229	0	0.281665
2230	0	0.320128
2231	0	0.622927
2232	0	0.892906
2233	0	0.162393
2234	0	0.206667
2235	0	0.333333
2236	0	0.333333
2237	0	1
2238	0	1
2239	0	1
2240	0	1
2241	0	1
2242	0	1
2243	0	1
2244	0	0.909192
2245	0	1
2246	0	0.956209
2247	0	0.956533
2248	0	0.960165
2249	0	0.752381
2250	0	0.766667
2251	0	1
2252	0	1
2253	0	1
2254	0	1
2255	0	1
2256	0	0.998168
2257	0	0.996339
2258	0	0.998167
2259	0	0.998167
2260	0	0.996335
2261	0	0.998165
2262	0	0.998165
2263	0	1
2264	0	1
2265	1	1
2266	1	1
2267	1	1
2268	1	1
2269	1	1
2270	1	1
2271	1	1
2272	0	0.998167
2273	0	0.998167
2274	0	0.998167
2275	0	0.998168
2276	0	0.998168
2277	0	0.998168
2278	0	0.998167
2279	0	1
2280	0	0.98892
2281	0	0.579662
2282	0	0.607557
2283	0	1
2284	0	1
2285	0	0.428571
2286	0	0.5
2287	0	0.5
2288	0	0.266667
2289	0	0.333333
2290	0	0.333333
2291	0	0.823423
2292	0	0.823423
2293	0	0.947387
2294	0	1
2295	0	0.96826
2296	0	0.985375
2297	0	0.992669
2298	0	0
2299	0	0
2300	0	0
2301	0	0
2302	0	0
2303	0	0
2304	0	0
2305	0	0
2306	0	0
2307	0	0
2308	0	0.99816
2309	0	0.99816
2310	0	0.99816
2311	0	0.99816
2312	0	0.990848
2313	0	0
2314	0	0
2315	0	0
2316	0	0
2317	0	0
2318	0	0
2319	0	0
2320	0	0
2321	0	0
2322	0	0
2323	0	0
2324	0	0
2325	0	0
2326	1	0
2327	1	0
2328	1	0
2329	0	0
2330	0	0
2331	0	0.963649
2332	0	0.333333
2333	0	0.333333
2334	0	0.333333
2335	0	0.333333
2336	0	0.333333
2337	0	0.166667
2338	0	0.166667
2339	0	0.1
2340	0	0.1
2341	0	0.0666667
2342	0	0.0666667
2343	0	0.133333
2344	0	0.133333
2345	0	0.190476
2346	0	0.190476
2347	0	0.190476
2348	0	0.190476
2349	0	0.990682
2350	0	0.990686
2351	0	0.990686
2352	0	0.990686
2353	0	0.988837
2354	0	0.990686
2355	0	0.983327
2356	0	0.983327
2357	0	0.983327
2358	0	0.981499
2359	0	0.981499
2360	0	0.976014
2361	0	0.972381
2362	0	0.972381
2363	0	0.972381
2364	0	0.972304
2365	0	0.972279
2366	0	0.968668
2367	0	0.968639
2368	0	0.96498
2369	0	0.333333
2370	0	0.333333
2371	0	0.333333
2372	0	0
2373	0	0.96861
2374	0	0.972224
2375	0	0.520555
2376	0	0.977768
2377	0	0.977768
2378	0	0.977789
2379	0	0.977789
2380	0	0
2381	0	0
2382	1	0
2383	1	0
2384	1	0
2385	1	0
2386	0	0
2387	0	0
2388	0	0
2389	0	0
2390	0	0
2391	0	0
2392	0	0
2393	0	0
2394	0	0
2395	0	0
2396	0	0
2397	0	0
2398	0	0
2399	0	0
2400	1	0
2401	1	0
2402	0	0
2403	0	0
2404	0	0
2405	0	0
2406	0	0
2407	0	0
2408	0	0
2409	0	0
2410	0	0
2411	0	0
2412	0	0
2413	0	0
2414	0	0
2415	0	0
2416	0	0
2417	0	0
2418	0	0
2419	0	0
2420	0	0
2421	0	0
2422	0	0
2423	0	0
2424	0	0
2425	0	0
2426	0	0
2427	0	0
2428	0	0
2429	0	0
2430	0	0
2431	0	0
2432	0	0
2433	0	0
2434	0	0
2435	0	0
2436	0	0
2437	0	0
2438	0	0
2439	0	0
2440	0	0
2441	0	0
2442	0	0
2443	0	0
2444	0	0
2445	0	0
2446	0	0
2447	0	0
2448	0	0
2449	0	0
2450	0	0
2451	0	0
2452	0	0
2453	0	0
2454	0	0
2455	0	0
2456	0	0
2457	0	0
2458	0	0
2459	0	0
2460	0	0
2461	1	0
2462	1	0
2463	1	0
2464	1	0
2465	0	0
2466	0	0
2467	0	0
2468	0	0
2469	0	0
2470	0	0
2471	0	0
2472	0	0
2473	0	0
2474	0	0
2475	0	0
2476	0	0
2477	0	0
2478	0	0
2479	0	0
2480	0	0
2481	0	0
2482	0	0
2483	0	0
2484	0	0
2485	0	0
2486	0	0
2487	0	0
2488	0	0
2489	0	0
2490	1	0
2491	0	0
2492	0	0
2493	0	0
2494	0	0
2495	0	0
2496	0	0.97963
2497	0	0.975951
2498	0	0.975951
2499	0	0.975951
2500	0	0.975951
2501	0	0.974089
2502	0	0.974089
2503	0	0.975884
2504	0	0.975884
2505	0	0.975884
2506	0	1
2507	0	0.444444
2508	0	0.948765
2509	0	0.877016
2510	0	0.402458
2511	0	0.432214
2512	0	0.294304
2513	0	0.483641
2514	0	0.131579
2515	0	0.122807
2516	0	0.110526
2517	0	0.110294
2518	0	0.0980392
2519	0	0.0935673
2520	0	0.33726
2521	0	0.268027
2522	0	0.194444
2523	0	0.194444
2524	0	0.194444
2525	0	0.186404
2526	0	0.186184
2527	0	0.183203
2528	0	0.216346
2529	0	0.18809
2530	0	0.333333
2531	0	0.333333
2532	0	0.333333
2533	0	0.333333
2534	0	0.333333
2535	0	0.333333
2536	0	0.333333
2537	0	0.333333
2538	0	0.333333
2539	0	0.333333
2540	0	0.333333
2541	0	0.333333
2542	0	0.0948964
2543	0	0.0963553
2544	0	0.0959363
2545	0	0.074359
2546	0	0.070885
2547	0	0.055823
2548	0	0.0985032
2549	0	0.0889546
2550	0	0.0898801
2551	0	0.0875876
2552	0	0.132112
2553	0	0
2554	0	0
2555	0	0
2556	0	0.130742
2557	0	0
2558	0	0
2559	0	0
2560	0	0
2561	0	0
2562	0	0
2563	0	0
2564	0	0
2565	0	0.15567
2566	0	0.043956
2567	0	0.0380952
2568	0	0
2569	0	0
2570	0	0
2571	0	0
2572	0	0
2573	0	0
2574	0	0.0861298
2575	0	0.0749016
2576	0	0
2577	0	0
2578	0	0
2579	0	0
2580	0	0
2581	0	0
2582	0	0
2583	0	0
2584	0	0
2585	0	0
2586	0	0.131869
2587	0	0
2588	0	0
2589	0	0
2590	0	0
2591	0	0
2592	0	0
2593	0	0
2594	0	0
2595	0	0
2596	0	0
2597	0	0
2598	0	0
2599	0	0
2600	0	0
2601	0	0
2602	0	0
2603	0	0
2604	0	0
2605	0	0
2606	0	0
2607	0	0
2608	0	0
2609	0	0.104167
2610	0	0.087408
2611	0	0
2612	0	0
2613	0	0
2614	0	0
2615	0	0
2616	0	0
2617	0	0
2618	0	0
2619	0	0
2620	0	0.159214
2621	0	0.214216
2622	0	0.131783
2623	0	0.158042
2624	0	0.0866829
2625	0	0.277835
2626	0	0
2627	0	0
2628	0	0
2629	0	0
2630	0	0
2631	0	0.226859
2632	0	0.102693
2633	0	0
2634	0	0.0816904
2635	0	0
2636	0	0.0277778
2637	0	0.0277778
2638	0	0.0277778
2639	0	0.0277778
2640	0	0.0277778
2641	0	0.0222222
2642	0	0.0222222
2643	0	0
2644	0	0.0222222
2645	0	0.0222222
2646	0	0.0190476
2647	0	0.050335
2648	0	0.0189452
2649	0	0.0209933
2650	0	0.0448418
2651	0	0.0322034
2652	0	0.0344156
2653	0	0.0367411
2654	0	0.0397886
2655	0	0.0394255
2656	0	0.0385238
2657	0	0.0491952
2658	0	0.0448886
2659	0	0.0495819
2660	0	0.047619
2661	0	0.047619
2662	0	0.047619
2663	0	0.0357143
2664	0	0.047619
2665	0	0.047619
2666	0	0.0357143
2667	0	0.038961
2668	0	0.0668387
2669	0	0.0699446
2670	0	0.0584829
2671	0	0.0489883
2672	0	0.00653595
2673	0	0.357062
2674	0	0
2675	0	0.047619
2676	0	0.047619
2677	0	0.376836
2678	0	0.38173
2679	0	0.36879
2680	0	0.36879
2681	0	0.346448
2682	0	0.279631
2683	0	0.0421411
2684	0	0
2685	0	0
2686	0	0
2687	0	0
2688	0	0.0220588
2689	0	0.0422184
2690	0	0
2691	0	0
2692	0	0
2693	0	0
2694	0	0
2695	0	0
2696	0	0
2697	0	0.0576697
2698	0	0.0759615
2699	0	0.0826923
2700	0	0.0822115
2701	0	0.0817308
2702	0	0.0519303
2703	0	0.052885
2704	0	0.0841248
2705	0	0.0841248
2706	0	0.0795031
2707	0	0.0575448
2708	0	0.0798535
2709	0	0.0794054
2710	0	0.0711036
2711	0	0.074451
2712	0	0.0465766
2713	0	0.071865
2714	0	0.0231729
2715	0	0.0499419
2716	0	0.032197
2717	0	0.0835444
2718	0	0.0222222
2719	0	0.0222222
2720	0	0.0222222
2721	0	0.0444444
2722	0	0.0444444
2723	0	0.0444444
2724	0	0.0444444
2725	0	0.0884513
2726	0	0.336818
2727	0	0.227273
2728	0	0.535985
2729	0	0.450742
2730	0	0.25899
2731	0	0
2732	0	0
2733	0	0
2734	0	0
2735	0	0
2736	0	0
2737	0	0
2738	0	0
2739	0	0
2740	0	0
2741	0	0
2742	0	0
2743	0	0
2744	0	0
2745	0	0
2746	0	0
2747	0	0
2748	0	0
2749	0	0
2750	0	0
2751	0	0
2752	0	0
2753	0	0
2754	0	0
2755	0	0
2756	0	0
2757	0	0
2758	0	0
2759	0	0
2760	0	0
2761	0	0
2762	0	0
2763	0	0
2764	0	0
2765	0	0
2766	0	0
2767	0	0
2768	0	0
2769	0	0
2770	0	0
2771	0	0
2772	0	0
2773	0	0
2774	0	0
2775	0	0
2776	0	0
2777	0	0
2778	0	0
2779	0	0
2780	0	0
2781	0	0
2782	0	0
2783	0	0
2784	0	0
2785	0	0
2786	0	0
2787	0	0
2788	0	0
2789	0	0
2790	0	0
2791	0	0
2792	0	0
2793	0	0
2794	0	0
2795	0	0
2796	0	0
2797	0	0
2798	0	0
2799	0	0
2800	0	0
2801	0	0
2802	0	0
2803	0	0
2804	0	0
2805	0	0
2806	0	0
2807	0	0
2808	0	0
2809	0	0
2810	0	0
2811	0	0
2812	0	0
2813	0	0
2814	0	0
2815	0	0
2816	0	0
2817	0	0
2818	0	0
2819	0	0
2820	0	0
2821	0	0
2822	0	0
2823	0	0
2824	0	0
2825	0	0
2826	0	0
2827	0	0
2828	0	0
2829	0	0
2830	0	0
2831	0	0
2832	0	0
2833	0	0
2834	0	0
2835	0	0
2836	0	0
2837	0	0
2838	0	0
2839	0	0
2840	0	0
2841	0	0
2842	0	0
2843	0	0
2844	0	0
2845	0	0
2846	0	0
2847	0	0
2848	0	0
2849	0	0
2850	0	0
2851	0	0
2852	0	0
2853	0	0
2854	0	0
2855	0	0
2856	0	0
2857	0	0
2858	0	0
2859	0	0
2860	0	0
2861	0	0
2862	0	0
2863	0	0
2864	0	0
2865	0	0
2866	0	0
2867	0	0
2868	0	0
2869	0	0
2870	0	0
2871	0	0
2872	0	0
2873	0	0
2874	0	0
2875	0	0
2876	0	0
2877	0	0
2878	0	0
2879	0	0
2880	0	0
2881	0	0
2882	0	0
2883	0	0
2884	0	0
2885	0	0
2886	0	0
2887	0	0
2888	0	0
2889	0	0
2890	0	0
2891	0	0
2892	0	0
2893	0	0
2894	0	0
2895	0	0
2896	0	0
2897	0	0
2898	0	0
2899	0	0
2900	0	0
2901	0	0
2902	0	0
2903	0	0
2904	0	0
2905	0	0
2906	0	0
2907	0	0
2908	0	0
2909	0	0
2910	0	0
2911	0	0
2912	0	0
2913	0	0
2914	0	0
2915	0	0
2916	0	0
2917	0	0
2918	0	0
2919	0	0
2920	0	0
2921	0	0
2922	0	0
2923	0	0
2924	0	0
2925	0	0
2926	0	0
2927	0	0.423702
2928	0	0.415897
2929	0	0.37415
2930	0	0.412518
2931	0	0.366681
2932	0	0.426186
2933	0	0.449705
2934	0	0
2935	0	0
2936	0	0
2937	0	0.142857
2938	0	0.107143
2939	0	0.272059
2940	0	0.272059
2941	0	0.393145
2942	0	0.189626
2943	0	0
2944	0	0
2945	0	0
2946	0	0
2947	0	0
2948	0	0
2949	0	0
2950	0	0
2951	0	0
2952	0	0
2953	0	0
2954	0	0
2955	0	0
2956	0	0
2957	0	0
2958	0	0
2959	0	0
2960	0	0
2961	0	0
2962	0	0
2963	0	0
2964	0	0
2965	0	0
2966	0	0
2967	0	0
2968	0	0
2969	0	0
2970	0	0
2971	0	0
2972	0	0
2973	0	0
2974	0	0
2975	0	0
2976	0	0
2977	0	0
2978	0	0
2979	0	0
2980	0	0
2981	0	0
2982	0	0
2983	0	0
2984	0	0
2985	0	0
2986	0	0
2987	0	0
2988	0	0
2989	0	0
2990	0	0
2991	0	0
2992	0	0
2993	0	0
2994	0	0
2995	0	0
2996	0	0
2997	0	0
2998	0	0
2999	0	0
3000	0	0
3001	0	0
3002	0	0
3003	0	0
3004	0	0
3005	0	0.228986
3006	0	0.360188
3007	0	0
3008	0	0
3009	0	0.436922
3010	0	0.0666667
3011	0	0.142857
3012	0	0.339465
3013	0	0.513505
3014	0	0.360683
3015	0	0.441963
3016	0	0.47952
3017	0	0.476459
3018	0	0.476459
3019	0	0.476056
3020	0	0.456338
3021	0	0.469151
3022	0	0.236469
3023	0	0.0606061
3024	0	0.0606061
3025	0	0.0555556
3026	0	0.0555556
3027	0	0.0555556
3028	0	0.0555556
3029	0	0.0277778
3030	0	0
3031	0	0
3032	0	0.35601
3033	0	0.345037
3034	0	0
3035	0	0
3036	0	0
3037	0	0
3038	0	0
3039	0	0.0615385
3040	0	0.0615385
3041	0	0.0615385
3042	0	0.0250736
3043	0	0.0248702
3044	0	0.0260397
3045	0	0.2856
3046	0	0.274584
3047	0	0
3048	0	0
3049	0	0
3050	0	0
3051	0	0
3052	0	0.0616883
3053	0	0.0240946
3054	0	0.322455
3055	0	0.153439
3056	0	0.142857
3057	0	0
3058	0	0.535714
3059	0	0
3060	0	0.278473
3061	0	0.010989
3062	0	0
3063	0	0
3064	0	0.0778309
3065	0	0.0761705
3066	0	0.131965
3067	0	0.00430108
3068	0	0.00645161
3069	0	0.00806452
3070	0	0.00860215
3071	0	0.00860215
3072	0	0.00860215
3073	0	0.0091954
3074	0	0.00860215
3075	0	0.171488
3076	0	0.1551
3077	0	0.0353659
3078	0	0.0341463
3079	0	0.0313589
3080	0	0.0313589
3081	0	0.148865
3082	0	0
3083	0	0
3084	0	0
3085	0	0
3086	0	0
3087	0	0
3088	0	0
3089	0	0.0405311
3090	0	0.143811
3091	0	0
3092	0	0
3093	0	0
3094	0	0
3095	0	0
3096	0	0
3097	0	0
3098	0	0.175221
3099	0	0.0251208
3100	0	0.0252525
3101	0	0.0864314
3102	0	0.021041
3103	0	0.021041
3104	0	0.0199336
3105	0	0.0199336
3106	0	0.0199336
3107	0	0.0188261
3108	0	0.295323
3109	0	0.0434783
3110	0	0.0406439
3111	0	0.210046
3112	0	0.0378049
3113	0	0.0225962
3114	0	0.0426743
3115	0	0.0466203
3116	0	0.0485601
3117	0	0.0488958
3118	0	0.0465708
3119	0	0.116294
3120	0	0.11012
3121	0	0.102697
3122	0	0
3123	0	0
3124	0	0
3125	0	0
3126	0	0
3127	0	0
3128	0	0
3129	0	0
3130	0	0
3131	0	0
3132	0	0
3133	0	0
3134	0	0
3135	0	0
3136	0	0
3137	0	0
3138	0	0
3139	0	0.0370262
3140	0	0.0388437
3141	0	0.037292
3142	0	0.0389356
3143	0	0.103181
3144	0	0.0896982
3145	0	0.043956
3146	0	0.0380952
3147	0	0.0380952
3148	0	0.0380952
3149	0	0.0380952
3150	0	0.0380952
3151	0	0.0380952
3152	0	0.0380952
3153	0	0.0380952
3154	0	0.0380952
3155	0	0.0380952
3156	0	0.0380952
3157	0	0.0380952
3158	0	0.0380952
3159	0	0.0380952
3160	0	0.0285714
3161	0	0.0285714
3162	0	0.00833333
3163	0	0.267481
3164	0	0.2848
3165	0	0.284227
3166	0	0.0151515
3167	0	0.0151515
3168	0	0.0151515
3169	0	0.0151515
3170	0	0.0151515
3171	0	0.0151515
3172	0	0.0454545
3173	0	0.0454545
3174	0	0.0454545
3175	0	0.0151515
3176	0	0.0454545
3177	0	0.0454545
3178	0	0.0454545
3179	0	0.0454545
3180	0	0.0454545
3181	0	0.0545455
3182	0	0.0545455
3183	0	0.0545455
3184	0	0.0545455
3185	0	0.0545455
3186	0	0.0545455
3187	0	0.0545455
3188	0	0.0545455
3189	0	0.0545455
3190	0	0.0545455
3191	0	0.0545455
3192	0	0.0545455
3193	0	0.0545455
3194	0	0.0545455
3195	0	0.0545455
3196	0	0.0545455
3197	0	0.0545455
3198	0	0.0545455
3199	0	0.0545455
3200	0	0.0545455
3201	0	0.0545455
3202	0	0.0545455
3203	0	0.0545455
3204	0	0.0545455
3205	0	0.0545455
3206	0	0.0545455
3207	0	0.0545455
3208	0	0.0545455
3209	0	0.0659341
3210	0	0.0659341
3211	0	0.0659341
3212	0	0.0659341
3213	0	0.0659341
3214	0	0.0659341
3215	0	0.0659341
3216	0	0.0659341
3217	0	0.0659341
3218	0	0.0659341
3219	0	0.0659341
3220	0	0.0659341
3221	0	0.05
3222	0	0.05
3223	0	0.126306
3224	0	0.0277778
3225	0	0.25
3226	0	0.100071
3227	0	0
3228	0	0
3229	0	0.101686
3230	0	0.05
3231	0	0.05
3232	0	0.05
3233	0	0.05
3234	0	0.05
3235	0	0.05
3236	0	0.05
3237	0	0.0441176
3238	0	0.0441176
3239	0	0.0768907
3240	0	0
3241	0	0
3242	0	0
3243	0	0
3244	0	0
3245	0	0
3246	0	0
3247	0	0
3248	0	0
3249	0	0
3250	0	0
3251	0	0
3252	0	0
3253	0	0
3254	0	0
3255	0	0
3256	0	0
3257	0	0
3258	0	0
3259	0	0
3260	0	0
3261	0	0
3262	0	0
3263	0	0
3264	0	0
3265	0	0
3266	0	0
3267	0	0
3268	0	0
3269	0	0
3270	0	0
3271	0	0
3272	0	0
3273	0	0
3274	0	0.099185
3275	0	0.333333
3276	0	0.166667
3277	0	0.0617482
3278	0	0.0629275
3279	0	0.0546985
3280	0	0.056101
3281	0	0.0553649
3282	0	0.126886
3283	0	0.0261438
3284	0	0.0392157
3285	0	0.0222222
3286	0	0.0222222
3287	0	0.0285714
3288	0	0.0285714
3289	0	0.0285714
3290	0	0.146876
3291	0	0.00996678
3292	0	0.0097561
3293	0	0.00853659
3294	0	0.00769231
3295	0	0.0102564
3296	0	0.0109756
3297	0	0.0115385
3298	0	0.00944669
3299	0	0.00944669
3300	0	0.00769231
3301	0	0.00731707
3302	0	0.00996678
3303	0	0.0114286
3304	0	0.0122449
3305	0	0.0208754
3306	0	0.0477408
3307	0	0.0764127
3308	0	0.143993
3309	0	0.153724
3310	0	0.148445
3311	0	0.146618
3312	0	0.204133
3313	0	0.218934
3314	0	0.240941
3315	0	0.221438
3316	0	0.224758
3317	0	0.122972
3318	0	0.0852312
3319	0	0.0855625
3320	0	0.187458
3321	0	0.267242
3322	0	0.284334
3323	0	0.0111008
3324	0	0.00696864
3325	0	0.00757576
3326	0	0.0107527
3327	0	0.0091954
3328	0	0
3329	0	0
3330	0	0
3331	0	0
3332	0	0
3333	0	0
3334	0	0
3335	0	0
3336	0	0
3337	0	0
3338	0	0
3339	0	0
3340	0	0
3341	0	0
3342	0	0
3343	0	0
3344	0	0
3345	0	0
3346	0	0
3347	0	0
3348	0	0
3349	0	0
3350	0	0
3351	0	0
3352	0	0
3353	0	0
3354	0	0
3355	0	0
3356	0	0
3357	0	0
3358	0	0
3359	0	0
3360	0	0
3361	0	0
3362	0	0
3363	0	0
3364	0	0
3365	0	0.352008
3366	0	0.384875
3367	0	0.660743
3368	0	0.410753
3369	0	0.331551
3370	0	0.175
3371	0	0.104762
3372	0	0.114286
3373	0	0.114286
3374	0	0.163158
3375	0	0.163158
3376	0	0.163158
3377	0	0.138528
3378	0	0.138528
3379	0	0.163158
3380	0	0.0909091
3381	0	0
3382	0	0
3383	0	0
3384	0	0
3385	0	0
3386	0	0
3387	0	0
3388	0	0
3389	0	0
3390	0	0
3391	0	0
3392	0	0
3393	0	0.0545455
3394	0	0.0666667
3395	0	0.0666667
3396	0	0.0666667
3397	0	0.0666667
3398	0	0.0666667
3399	0	0.0666667
3400	0	0.0666667
3401	0	0.0666667
3402	0	0.0666667
3403	0	0.0666667
3404	0	0.0666667
3405	0	0.0666667
3406	0	0.0666667
3407	0	0.0666667
3408	0	0.0666667
3409	0	0.0666667
3410	0	0.0666667
3411	0	0.0833333
3412	0	0.0833333
3413	0	0.0833333
3414	0	0.0833333
3415	0	0.0833333
3416	0	0.107143
3417	0	0.107143
3418	0	0.107143
3419	0	0.107143
3420	0	0.107143
3421	0	0.107143
3422	0	0.107143
3423	0	0.107143
3424	0	0.107143
3425	0	0.107143
3426	0	0.107143
3427	0	0.107143
3428	0	0.107143
3429	0	0.107143
3430	0	0.107143
3431	0	0.107143
3432	0	0.107143
3433	0	0.107143
3434	0	0.107143
3435	0	0.107143
3436	0	0.107143
3437	0	0.107143
3438	0	0.107143
3439	0	0.107143
3440	0	0.107143
3441	0	0.107143
3442	0	0.107143
3443	0	0.107143
3444	0	0.107143
3445	0	0.107143
3446	0	0.107143
3447	0	0.107143
3448	0	0.107143
3449	0	0.107143
3450	0	0.107143
3451	0	0.107143
3452	0	0.107143
3453	0	0.107143
3454	0	0.107143
3455	0	0.107143
3456	0	0.107143
3457	0	0.107143
3458	0	0.107143
3459	0	0.107143
3460	0	0.107143
3461	0	0.107143
3462	0	0.107143
3463	0	0.107143
3464	0	0.107143
3465	0	0.107143
3466	0	0.107143
3467	0	0.107143
3468	0	0.107143
3469	0	0.107143
3470	0	0.107143
3471	0	0.107143
3472	0	0.107143
3473	0	0.107143
3474	0	0.107143
3475	0	0.107143
3476	0	0.107143
3477	0	0.107143
3478	0	0.107143
3479	0	0.107143
3480	0	0.107143
3481	0	0.107143
3482	0	0.107143
3483	0	0.107143
3484	0	0.107143
3485	0	0.107143
3486	0	0.107143
3487	0	0.107143
3488	0	0.107143
3489	0	0.107143
3490	0	0.107143
3491	0	0.107143
3492	0	0.107143
3493	0	0.107143
3494	0	0.107143
3495	0	0.107143
3496	0	0.107143
3497	0	0.107143
3498	0	0.142857
3499	0	0.142857
3500	0	0.142857
3501	0	0.142857
3502	0	0.142857
3503	0	0.142857
3504	0	0.142857
3505	0	0.142857
3506	0	0.142857
3507	0	0.142857
3508	0	0.142857
3509	0	0.142857
3510	0	0.142857
3511	0	0.142857
3512	0	0.142857
3513	0	0.142857
3514	0	0.142857
3515	0	0.142857
3516	0	0.142857
3517	0	0.142857
3518	0	0.142857
3519	0	0.142857
3520	0	0.142857
3521	0	0.142857
3522	0	0.142857
3523	0	0.142857
3524	0	0.142857
3525	0	0.142857
3526	0	0.142857
3527	0	0.142857
3528	0	0.142857
3529	0	0.142857
3530	0	0.142857
3531	0	0.142857
3532	0	0.142857
3533	0	0.142857
3534	0	0.142857
3535	0	0.107143
3536	0	0.107143
3537	0	0.107143
3538	0	0.107143
3539	0	0.107143
3540	0	0.107143
3541	0	0.107143
3542	0	0.107143
3543	0	0.107143
3544	0	0.107143
3545	0	0.107143
3546	0	0.107143
3547	0	0.107143
3548	0	0.107143
3549	0	0.107143
3550	0	0.107143
3551	0	0.107143
3552	0	0.107143
3553	0	0.107143
3554	0	0.107143
3555	0	0.107143
3556	0	0.107143
3557	0	0.107143
3558	0	0.107143
3559	0	0.107143
3560	0	0.107143
3561	0	0.107143
3562	0	0.107143
3563	0	0.107143
3564	0	0.107143
3565	0	0.107143
3566	0	0.107143
3567	0	0.107143
3568	0	0.107143
3569	0	0.107143
3570	0	0.107143
3571	0	0.107143
3572	0	0.107143
3573	0	0.107143
3574	0	0.107143
3575	0	0.107143
3576	0	0.107143
3577	0	0.107143
3578	0	0.107143
3579	0	0.107143
3580	0	0.107143
3581	0	0.107143
3582	0	0.107143
3583	0	0.107143
3584	0	0.107143
3585	0	0.107143
3586	0	0.107143
3587	0	0.107143
3588	0	0.107143
3589	0	0.107143
3590	0	0.107143
3591	0	0.107143
3592	0	0.214286
3593	0	0.214286
3594	0	0.214286
3595	0	0.214286
3596	0	0.214286
3597	0	0.214286
3598	0	0.214286
3599	0	0.214286
3600	0	0.214286
3601	0	0.214286
3602	0	0.214286
3603	0	0.214286
3604	0	0.214286
3605	0	0.214286
3606	0	0.214286
3607	0	0.214286
3608	0	0.214286
3609	0	0.214286
3610	0	0.214286
3611	0	0.214286
3612	0	0.214286
3613	0	0.214286
3614	0	0.214286
3615	0	0.214286
3616	0	0.214286
3617	0	0.214286
3618	0	0.214286
3619	0	0.214286
3620	0	0.214286
3621	0	0.214286
3622	0	0.214286
3623	0	0.214286
3624	0	0.214286
3625	0	0.214286
3626	0	0.214286
3627	0	0.214286
3628	0	0.214286
3629	0	0.214286
3630	0	0.214286
3631	0	0.214286
3632	0	0.214286
3633	0	0.214286
3634	0	0.214286
3635	0	0.214286
3636	0	0.214286
3637	0	0.214286
3638	0	0.214286
3639	0	0.214286
3640	0	0.214286
3641	0	0.214286
3642	0	0.214286
3643	0	0.214286
3644	0	0.214286
3645	0	0.214286
3646	0	0.214286
3647	0	0.214286
3648	0	0.214286
3649	0	0.214286
3650	0	0.214286
3651	0	0.214286
3652	0	0.214286
3653	0	0.214286
3654	0	0.214286
3655	0	0.214286
3656	0	0.214286
3657	0	0.214286
3658	0	0.214286
3659	0	0.214286
3660	0	0.214286
3661	0	0.214286
3662	0	0.214286
3663	0	0.214286
3664	0	0.214286
3665	0	0.214286
3666	0	0.214286
3667	0	0.285714
3668	0	0.285714
3669	0	0.285714
3670	0	0.285714
3671	0	0.285714
3672	0	0.285714
3673	0	0.285714
3674	0	0.285714
3675	0	0.285714
3676	0	0.285714
3677	0	0.285714
3678	0	0.285714
3679	0	0.285714
3680	0	0.285714
3681	0	0.285714
3682	0	0.285714
3683	0	0.285714
3684	0	0.285714
3685	0	0.285714
3686	0	0.285714
3687	0	0.285714
3688	0	0.285714
3689	0	0.285714
3690	0	0.285714
3691	0	0.285714
3692	0	0.285714
3693	0	0.285714
3694	0	0.285714
3695	0	0.285714
3696	0	0.285714
3697	0	0.285714
3698	0	0.285714
3699	0	0.285714
3700	0	0.285714
3701	0	0.285714
3702	0	0.285714
3703	0	0.285714
3704	0	0.285714
3705	0	0.214286
3706	0	0.214286
3707	0	0.214286
3708	0	0.214286
3709	0	0.214286
3710	0	0.214286
3711	0	0.214286
3712	0	0.214286
3713	0	0.214286
3714	0	0.285714
3715	0	0.285714
3716	0	0.285714
3717	0	0.285714
3718	0	0.285714
3719	0	0.285714
3720	0	0.285714
3721	0	0.285714
3722	0	0.285714
3723	0	0.285714
3724	0	0.285714
3725	0	0.285714
3726	0	0.285714
3727	0	0.285714
3728	0	0.285714
3729	0	0.285714
3730	0	0.285714
3731	0	0.285714
3732	0	0.285714
3733	0	0.285714
3734	0	0.285714
3735	0	0.285714
3736	0	0.285714
3737	0	0.285714
3738	0	0.285714
3739	0	0.285714
3740	0	0.285714
3741	0	0.285714
3742	0	0.285714
3743	0	0.285714
3744	0	0.285714
3745	0	0.285714
3746	0	0.285714
3747	0	0.285714
3748	0	0.285714
3749	0	0.285714
3750	0	0.285714
3751	0	0.285714
3752	0	0.285714
3753	0	0.285714
3754	0	0.285714
3755	0	0.285714
3756	0	0.285714
3757	0	0.285714
3758	0	0.285714
3759	0	0.285714
3760	0	0.285714
3761	0	0.285714
3762	0	0.285714
3763	0	0.285714
3764	0	0.285714
3765	0	0.285714
3766	0	0.285714
3767	0	0.285714
3768	0	0.285714
3769	0	0.285714
3770	0	0.285714
3771	0	0.285714
3772	0	0.285714
3773	0	0.285714
3774	0	0.285714
3775	0	0.285714
3776	0	0.285714
3777	0	0.285714
3778	0	0.285714
3779	0	0.285714
3780	0	0.285714
3781	0	0.285714
3782	0	0.285714
3783	0	0.285714
3784	0	0.285714
3785	0	0.285714
3786	0	0.285714
3787	0	0.285714
3788	0	0.285714
3789	0	0.285714
3790	0	0.285714
3791	0	0.285714
3792	0	0.285714
3793	0	0.285714
3794	0	0.285714
3795	0	0.285714
3796	0	0.285714
3797	0	0.285714
3798	0	0.285714
3799	0	0.285714
3800	0	0.285714
3801	0	0.285714
3802	0	0.285714
3803	0	0.285714
3804	0	0.285714
3805	0	0.2
3806	0	0.2
3807	0	0.2
3808	0	0.2
3809	0	0.2
3810	0	0.2
3811	0	0.142857
3812	0	0.142857
3813	0	0.142857
3814	0	0.142857
3815	0	0.142857
3816	0	0.142857
3817	0	0.142857
3818	0	0.142857
3819	0	0.142857
3820	0	0.142857
3821	0	0.142857
3822	0	0.285714
3823	0	0.285714
3824	0	0.285714
3825	0	0.285714
3826	0	0.285714
3827	0	0.285714
3828	0	0.285714
3829	0	0.285714
3830	0	0.285714
3831	0	0.285714
3832	0	0.285714
3833	0	0.285714
3834	0	0.285714
3835	0	0.285714
3836	0	0.285714
3837	0	0.285714
3838	0	0.285714
3839	0	0.285714
3840	0	0.285714
3841	0	0.285714
3842	0	0.285714
3843	0	0.285714
3844	0	0.285714
3845	0	0.285714
3846	0	0.285714
3847	0	0.285714
3848	0	0.285714
3849	0	0.285714
3850	0	0.285714
3851	0	0.4
3852	0	0.4
3853	0	0.59
3854	0	0.576087
3855	0	0.54902
3856	0	0.409091
3857	0	0.6
3858	0	0.6
3859	0	0.6
3860	0	0.6
3861	0	0.6
3862	0	0.6
3863	0	0.6
3864	0	0.6
3865	0	0.6
3866	0	0.6
3867	0	0.6
3868	0	0.6
3869	0	0.6
3870	0	0.6
3871	0	0.6
3872	0	0.6
3873	0	0.6
3874	0	0.6
3875	0	0.6
3876	0	0.879344
3877	0	0.461538
3878	0	0.321429
3879	1	0
3880	1	0
3881	1	0
3882	1	0
3883	1	0
3884	1	0
3885	1	0
3886	1	0
3887	1	0
3888	1	0
3889	1	0
3890	1	0
3891	1	0
3892	1	0
3893	1	0
3894	1	0
3895	1	0
3896	0	0
3897	0	0
3898	0	0
3899	0	0
3900	0	0
3901	0	0
3902	1	0
3903	1	0
3904	1	0
3905	1	0
3906	1	0
3907	1	0
3908	1	0
3909	1	0
3910	1	0
3911	1	0
3912	1	0
3913	0	0
3914	0	0
3915	0	0
3916	0	0
3917	0	0
3918	0	0
3919	0	0
3920	1	0
3921	1	0
3922	1	0
3923	1	0
3924	1	0
3925	1	0
3926	1	0
3927	1	0
3928	1	0
3929	1	0
3930	1	0
3931	1	0
3932	1	0
3933	1	0
3934	1	0
3935	1	0
3936	1	0
3937	1	0
3938	1	0
3939	1	0
3940	1	0
3941	1	0
3942	1	0
3943	1	0
