Site	ColumnScore	SumOfPairsScore
1	0	0
2	0	0
3	0	0
4	0	0
5	0	0
6	0	0
7	0	0
8	0	0
9	0	0
10	0	0
11	0	0
12	0	0
13	0	0
14	0	0
15	0	0
16	0	0
17	0	0
18	0	0
19	0	0
20	0	0
21	0	0
22	0	0
23	0	0
24	0	0
25	0	0
26	0	0
27	0	0
28	0	0
29	0	0
30	0	0
31	0	0
32	0	0
33	0	0
34	0	0
35	0	0
36	0	0
37	0	0
38	0	0
39	0	0
40	0	0
41	0	0
42	0	0
43	0	0
44	0	0
45	0	0
46	0	0
47	0	0
48	0	0
49	0	0
50	0	0
51	0	0
52	0	0
53	0	0
54	0	0
55	0	0
56	0	0
57	0	0
58	0	0
59	0	0
60	0	0
61	0	0
62	0	0
63	0	0
64	0	0
65	0	0
66	0	0
67	0	0
68	0	0
69	0	0
70	0	0
71	0	0
72	0	0
73	0	0
74	0	0
75	0	0
76	0	0
77	0	0
78	0	0
79	0	0
80	0	0
81	0	0
82	0	0
83	0	0
84	0	0
85	0	0
86	0	0
87	0	0
88	0	0
89	0	0
90	0	0
91	0	0
92	0	0
93	0	0
94	0	0
95	0	0
96	0	0
97	0	0
98	0	0
99	0	0
100	0	0
101	0	0
102	0	0
103	0	0
104	0	0
105	0	0
106	0	0
107	0	0
108	0	0
109	0	0
110	0	0
111	0	0
112	0	0
113	0	0
114	0	0
115	0	0
116	0	0
117	0	0
118	0	0
119	0	0
120	0	0
121	0	0
122	0	0
123	0	0
124	0	0
125	0	0
126	0	0
127	0	0
128	0	0
129	0	0
130	0	0
131	0	0
132	0	0
133	0	0
134	0	0
135	0	0
136	0	0
137	0	0
138	0	0
139	0	0
140	0	0
141	0	0
142	0	0
143	0	0
144	0	0
145	0	0
146	0	0
147	0	0
148	0	0
149	0	0
150	0	0
151	0	0
152	0	0
153	0	0
154	0	0
155	0	0
156	0	0
157	0	0
158	0	0
159	0	0
160	0	0
161	0	0
162	0	0
163	0	0
164	0	0
165	0	0
166	0	0
167	0	0
168	0	0
169	0	0
170	0	0
171	0	0
172	0	0
173	0	0
174	0	0
175	0	0
176	0	0
177	0	0
178	0	0
179	0	0
180	0	0
181	0	0
182	0	0
183	0	0
184	0	0
185	0	0
186	0	0
187	0	0
188	0	0
189	0	0
190	0	0
191	0	0
192	0	0
193	0	0
194	0	0
195	0	0
196	0	0
197	0	0
198	0	0
199	0	0
200	0	0
201	0	0
202	0	0
203	0	0
204	0	0
205	0	0
206	0	0
207	0	0
208	0	0
209	0	0
210	0	0
211	0	0
212	0	0
213	0	0
214	0	0
215	0	0
216	0	0
217	0	0
218	0	0
219	0	0
220	0	0
221	0	0
222	0	0
223	0	0
224	0	0
225	0	0
226	0	0
227	0	0
228	0	0
229	0	0
230	0	0
231	0	0
232	0	0
233	0	0
234	0	0
235	0	0
236	0	0
237	0	0
238	0	0
239	0	0
240	0	0
241	0	0
242	0	0
243	0	0
244	0	0
245	0	0
246	0	0
247	0	0
248	0	0
249	0	0
250	0	0
251	0	0
252	0	0
253	0	0
254	0	0
255	0	0
256	0	0
257	0	0
258	0	0
259	0	0
260	0	0
261	0	0
262	0	0
263	0	0
264	0	0
265	0	0
266	0	0
267	0	0
268	0	0
269	0	0
270	0	0
271	0	0
272	0	0
273	0	0
274	0	0
275	0	0
276	0	0
277	0	0
278	0	0
279	0	0
280	0	0
281	0	0
282	0	0
283	0	0
284	0	0
285	0	0
286	0	0
287	0	0
288	0	0
289	0	0
290	0	0
291	0	0
292	0	0
293	0	0
294	0	0
295	0	0
296	0	0
297	0	0
298	0	0
299	0	0
300	0	0
301	0	0
302	0	0
303	0	0
304	0	0
305	0	0
306	0	0
307	0	0.47619
308	0	0.357143
309	0	0.357143
310	0	0.357143
311	0	0.357143
312	0	0.357143
313	0	0.357143
314	0	0.357143
315	0	0.357143
316	0	0.357143
317	0	0.357143
318	0	0.357143
319	0	0.357143
320	0	0.357143
321	0	0.357143
322	0	0.357143
323	0	0.357143
324	0	0.357143
325	0	0.357143
326	0	0.357143
327	0	0.357143
328	0	0.277778
329	0	0.277778
330	0	0.277778
331	0	0.277778
332	0	0.305556
333	0	0.305556
334	0	0.277778
335	0	0.277778
336	0	0.277778
337	0	0.277778
338	0	0.222222
339	0	0.222222
340	0	0.222222
341	0	0.222222
342	0	0.222222
343	0	0.222222
344	0	0.222222
345	0	0.222222
346	0	0.222222
347	0	0.222222
348	0	0.222222
349	0	0.222222
350	0	0.2
351	0	0.2
352	0	0.2
353	0	0.2
354	0	0.2
355	0	0.2
356	0	0.2
357	0	0.2
358	0	0.2
359	0	0.2
360	0	0.2
361	0	0.2
362	0	0.2
363	0	0.2
364	0	0.2
365	0	0.2
366	0	0.2
367	0	0.2
368	0	0.2
369	0	0.2
370	0	0.2
371	0	0.2
372	0	0.2
373	0	0.2
374	0	0.2
375	0	0.2
376	0	0.2
377	0	0.127273
378	0	0.127273
379	0	0.155556
380	0	0.155556
381	0	0.155556
382	0	0.155556
383	0	0.155556
384	0	0.155556
385	0	0.155556
386	0	0.155556
387	0	0.166667
388	0	0.166667
389	0	0.166667
390	0	0.166667
391	0	0.166667
392	0	0.166667
393	0	0.166667
394	0	0.151515
395	0	0.151515
396	0	0.151515
397	0	0.151515
398	0	0.151515
399	0	0.151515
400	0	0.128205
401	0	0.128205
402	0	0.128205
403	0	0.128205
404	0	0.128205
405	0	0.128205
406	0	0.128205
407	0	0.10989
408	0	0.10989
409	0	0.10989
410	0	0.10989
411	0	0.10989
412	0	0.10989
413	0	0.10989
414	0	0.10989
415	0	0.10989
416	0	0.128205
417	0	0.128205
418	0	0.10989
419	0	0.10989
420	0	0.10989
421	0	0.10989
422	0	0.10989
423	0	0.10989
424	0	0.10989
425	0	0.10989
426	0	0.10989
427	0	0.10989
428	0	0.10989
429	0	0.10989
430	0	0.10989
431	0	0.10989
432	0	0.10989
433	0	0.10989
434	0	0.10989
435	0	0.10989
436	0	0.10989
437	0	0.10989
438	0	0.10989
439	0	0.0952381
440	0	0.0952381
441	0	0.0952381
442	0	0.0952381
443	0	0.0952381
444	0	0.0952381
445	0	0.0952381
446	0	0.0952381
447	0	0.0952381
448	0	0.0952381
449	0	0.0833333
450	0	0.0833333
451	0	0.0833333
452	0	0.0833333
453	0	0.0833333
454	0	0.0833333
455	0	0.0833333
456	0	0.0833333
457	0	0.0833333
458	0	0.0833333
459	0	0.0833333
460	0	0.0833333
461	0	0.0833333
462	0	0.0833333
463	0	0.0833333
464	0	0.0833333
465	0	0.0833333
466	0	0.0833333
467	0	0.0833333
468	0	0.0735294
469	0	0.0735294
470	0	0.0735294
471	0	0.0735294
472	0	0.0735294
473	0	0.0643275
474	0	0.0643275
475	0	0.0643275
476	0	0.0578947
477	0	0.0578947
478	0	0.0578947
479	0	0.0578947
480	0	0.0578947
481	0	0.0578947
482	0	0.052381
483	0	0.052381
484	0	0.047619
485	0	0.047619
486	0	0.047619
487	0	0.0434783
488	0	0.0434783
489	0	0.0398551
490	0	0.027668
491	0	0.027668
492	0	0.0047619
493	0	0.0047619
494	0	0.0047619
495	0	0.00395257
496	0	0.00362319
497	0	0.00615385
498	0	0.00569801
499	0	0.00529101
500	0	0.00645161
501	0	0.00645161
502	0	0.00645161
503	0	0.00645161
504	0	0.00645161
505	0	0.00604839
506	0	0.0111111
507	0	0.0105105
508	0	0.00995733
509	0	0.0109756
510	0	0.0139373
511	0	0.00996678
512	0	0.0141844
513	0	0.0150709
514	0	0.0127551
515	0	0.0120664
516	0	0.0114478
517	0	0.0203373
518	0	0.0231579
519	0	0.0221612
520	0	0.0356234
521	0	0.0324508
522	0	0.0358974
523	0	0.071728
524	0	0.131039
525	0	0.127924
526	0	0.119984
527	0	0.103478
528	0	0.100994
529	0	0.0970087
530	0	0.0809524
531	0	0.0994152
532	0	0
533	0	0
534	0	0
535	0	0
536	0	0
537	0	0.0833333
538	0	0.0833333
539	0	0.0833333
540	0	0.0833333
541	0	0
542	0	0
543	0	0
544	0	0
545	0	0
546	0	0
547	0	0
548	0	0
549	0	0
550	0	0
551	0	0
552	0	0
553	0	0
554	0	0
555	0	0
556	0	0
557	0	0
558	0	0
559	0	0
560	0	0
561	0	0
562	0	0
563	0	0
564	0	0
565	0	0
566	0	0
567	0	0
568	0	0
569	0	0
570	0	0
571	0	0
572	0	0
573	0	0
574	0	0
575	0	0
576	0	0
577	0	0
578	0	0
579	0	0
580	0	0
581	0	0
582	0	0
583	0	0
584	0	0
585	0	0
586	0	0
587	0	0
588	0	0
589	0	0
590	0	0
591	0	0
592	0	0
593	0	0
594	0	0
595	0	0
596	0	0
597	0	0
598	0	0
599	0	0
600	0	0
601	0	0
602	0	0
603	0	0
604	0	0
605	0	0
606	0	0
607	0	0
608	0	0
609	0	0
610	0	0
611	0	0
612	0	0
613	0	0
614	0	0
615	0	0
616	0	0
617	0	0
618	0	0
619	0	0
620	0	0
621	0	0
622	0	0
623	0	0.0666667
624	0	0.0666667
625	0	0.186997
626	0	0.157283
627	0	0.148986
628	0	0
629	0	0
630	0	0
631	0	0
632	0	0
633	0	0
634	0	0
635	0	0
636	0	0
637	0	0
638	0	0
639	0	0
640	0	0
641	0	0
642	0	0
643	0	0
644	0	0
645	0	0
646	0	0
647	0	0
648	0	0
649	0	0
650	0	0
651	0	0
652	0	0
653	0	0
654	0	0
655	0	0
656	0	0
657	0	0
658	0	0
659	0	0
660	0	0
661	0	0
662	0	0
663	0	0
664	0	0
665	0	0
666	0	0
667	0	0
668	0	0
669	0	0
670	0	0
671	0	0
672	0	0
673	0	0
674	0	0
675	0	0
676	0	0
677	0	0
678	0	0
679	0	0
680	0	0
681	0	0
682	0	0
683	0	0
684	0	0
685	0	0
686	0	0
687	0	0
688	0	0
689	0	0
690	0	0
691	0	0
692	0	0
693	0	0
694	0	0
695	0	0
696	0	0
697	0	0
698	0	0
699	0	0
700	0	0
701	0	0
702	0	0
703	0	0
704	0	0
705	0	0
706	0	0
707	0	0
708	0	0
709	0	0
710	0	0
711	0	0
712	0	0
713	0	0
714	0	0
715	0	0
716	0	0
717	0	0
718	0	0
719	0	0
720	0	0
721	0	0
722	0	0
723	0	0
724	0	0
725	0	0
726	0	0
727	0	0
728	0	0
729	0	0
730	0	0
731	0	0
732	0	0
733	0	0
734	0	0
735	0	0
736	0	0
737	0	0
738	0	0
739	0	0
740	0	0
741	0	0
742	0	0
743	0	0
744	0	0
745	0	0
746	0	0
747	0	0
748	0	0
749	0	0
750	0	0
751	0	0
752	0	0
753	0	0
754	0	0
755	0	0
756	0	0
757	0	0
758	0	0
759	0	0
760	0	0
761	0	0
762	0	0
763	0	0
764	0	0
765	0	0
766	0	0
767	0	0
768	0	0
769	0	0
770	0	0
771	0	0
772	0	0
773	0	0
774	0	0
775	0	0
776	0	0
777	0	0
778	0	0
779	0	0
780	0	0
781	0	0
782	0	0
783	0	0
784	0	0
785	0	0
786	0	0
787	0	0
788	0	0
789	0	0
790	0	0
791	0	0
792	0	0
793	0	0
794	0	0
795	0	0
796	0	0
797	0	0
798	0	0
799	0	0
800	0	0
801	0	0
802	0	0
803	0	0
804	0	0
805	0	0
806	0	0
807	0	0
808	0	0
809	0	0
810	0	0
811	0	0
812	0	0
813	0	0
814	0	0
815	0	0
816	0	0.2
817	0	0.142857
818	0	0.142857
819	0	0.142857
820	0	0.371848
821	0	0.333333
822	0	0.333333
823	0	0.333333
824	0	0.333333
825	0	0.333333
826	0	0.333333
827	0	0.1
828	0	0.1
829	0	0.0858006
830	0	0.414208
831	0	0.393443
832	0	0.476094
833	0	0
834	0	0
835	0	0
836	0	0
837	0	0
838	0	0
839	0	0
840	0	0
841	0	0
842	0	0
843	0	0
844	0	0.0151515
845	0	0.165862
846	0	0.164488
847	0	0.163564
848	0	0.159786
849	0	0
850	0	0
851	0	0
852	0	0
853	0	0
854	0	0
855	0	0
856	0	0.00735294
857	0	0.00653595
858	0	0.0130719
859	0	0.0514706
860	0	0.0434783
861	0	0.0466667
862	0	0.0995733
863	0	0.237346
864	0	0.190507
865	0	0.193407
866	0	0.0631655
867	0	0.0941047
868	0	0.11989
869	0	0.12951
870	0	0.0357143
871	0	0
872	0	0
873	0	0.0357143
874	0	0.0357143
875	0	0.0357143
876	0	0.0357143
877	0	0.0357143
878	0	0
879	0	0
880	0	0
881	0	0
882	0	0
883	0	0
884	0	0
885	0	0
886	0	0
887	0	0
888	0	0
889	0	0
890	0	0
891	0	0
892	0	0
893	0	0
894	0	0
895	0	0
896	0	0
897	0	0
898	0	0
899	0	0
900	0	0
901	0	0
902	0	0
903	0	0.107143
904	0	0
905	0	0
906	0	0
907	0	0
908	0	0
909	0	0
910	0	0
911	0	0
912	0	0
913	0	0
914	0	0
915	0	0
916	0	0
917	0	0
918	0	0
919	0	0
920	0	0
921	0	0
922	0	0
923	0	0
924	0	0
925	0	0
926	0	0
927	0	0
928	0	0
929	0	0
930	0	0
931	0	0
932	0	0
933	0	0
934	0	0
935	0	0
936	0	0
937	0	0
938	0	0
939	0	0
940	0	0
941	0	0
942	0	0
943	0	0
944	0	0
945	0	0
946	0	0
947	0	0
948	0	0
949	0	0
950	0	0
951	0	0
952	0	0
953	0	0
954	0	0
955	0	0
956	0	0
957	0	0
958	0	0
959	0	0
960	0	0
961	0	0
962	0	0.166667
963	0	0.0555556
964	0	0.047619
965	0	0.047619
966	0	0.047619
967	0	0.0357143
968	0	0.0357143
969	0	0.0357143
970	0	0.0357143
971	0	0.0714286
972	0	0.0714286
973	0	0.0357143
974	0	0.413551
975	0	0.236782
976	0	0.216374
977	0	0.0222222
978	0	0.0222222
979	0	0.0666667
980	0	0.0666667
981	0	0.0666667
982	0	0.0666667
983	0	0.0666667
984	0	0.0666667
985	0	0.0666667
986	0	0.0666667
987	0	0.313725
988	0	0.228524
989	0	0.211704
990	0	0
991	0	0
992	0	0
993	0	0
994	0	0
995	0	0
996	0	0
997	0	0
998	0	0
999	0	0
1000	0	0
1001	0	0
1002	0	0
1003	0	0
1004	0	0
1005	0	0
1006	0	0
1007	0	0
1008	0	0
1009	0	0
1010	0	0
1011	0	0
1012	0	0
1013	0	0
1014	0	0
1015	0	0
1016	0	0
1017	0	0
1018	0	0
1019	0	0
1020	0	0
1021	0	0
1022	0	0
1023	0	0
1024	0	0
1025	0	0
1026	0	0
1027	0	0
1028	0	0
1029	0	0
1030	0	0
1031	0	0.0925128
1032	0	0.0959208
1033	0	0.108813
1034	0	0.112644
1035	0	0.108291
1036	0	0
1037	0	0
1038	0	0.0181818
1039	0	0.0181818
1040	0	0.0363636
1041	0	0.0363636
1042	0	0.0363636
1043	0	0.0363636
1044	0	0.0363636
1045	0	0.0363636
1046	0	0.0363636
1047	0	0.187954
1048	0	0.188679
1049	0	0.213138
1050	0	0.158789
1051	0	0.160056
1052	0	0.163341
1053	0	0.038961
1054	0	0.04329
1055	0	0.04329
1056	0	0.04329
1057	0	0.04329
1058	0	0.04329
1059	0	0.04329
1060	0	0.04329
1061	0	0.04329
1062	0	0.04329
1063	0	0.04329
1064	0	0.04329
1065	0	0.0395257
1066	0	0.0355731
1067	0	0.0362319
1068	0	0.03
1069	0	0.0238095
1070	0	0.0221675
1071	0	0.0206897
1072	0	0.0576923
1073	0	0.0565657
1074	0	0.152179
1075	0	0.152866
1076	0	0.155343
1077	0	0.0488553
1078	0	0.0499027
1079	0	0.0476582
1080	0	0.0447154
1081	0	0.0481917
1082	0	0.0577141
1083	0	0.0604513
1084	0	0.0584808
1085	0	0.056002
1086	0	0.053501
1087	0	0.0523693
1088	0	0.4
1089	0	0.4
1090	0	0.4
1091	0	0.109091
1092	0	0.109091
1093	0	0.109091
1094	0	0.109091
1095	0	0.109091
1096	0	0.109091
1097	0	0.109091
1098	0	0.109091
1099	0	0.109091
1100	0	0.109091
1101	0	0.109091
1102	0	0.109091
1103	0	0.109091
1104	0	0.447259
1105	0	0.46297
1106	0	0.0930851
1107	0	0.0512821
1108	0	0.0534262
1109	0	0.0465116
1110	0	0.0241821
1111	0	0.0283401
1112	0	0.10904
1113	0	0.106011
1114	0	0.493834
1115	0	0.458497
1116	0	0.0512054
1117	0	0.0466764
1118	0	0.0434409
1119	0	0.0769231
1120	0	0.0769231
1121	0	0.0897436
1122	0	0.0897436
1123	0	0.0897436
1124	0	0.0897436
1125	0	0.0897436
1126	0	0.0897436
1127	0	0.0897436
1128	0	0.0377778
1129	0	0.0357576
1130	0	0.0653086
1131	0	0.0337248
1132	0	0.0379404
1133	0	0.0355315
1134	0	0.0352304
1135	0	0.0293858
1136	0	0.0384814
1137	0	0.0376697
1138	0	0.0641975
1139	0	0.0626582
1140	0	0.0412925
1141	0	0.04138
1142	0	0
1143	0	0
1144	0	0
1145	0	0
1146	0	0
1147	0	0
1148	0	0
1149	0	0
1150	0	0.0297415
1151	0	0.0388158
1152	0	0.0426744
1153	0	0.214286
1154	0	0.214286
1155	0	0.214286
1156	0	0.214286
1157	0	0.214286
1158	0	0.214286
1159	0	0.166667
1160	0	0.107143
1161	0	0.107143
1162	0	0.107143
1163	0	0.107143
1164	0	0.00806452
1165	0	0.032121
1166	0	0.0436038
1167	0	0.0315688
1168	0	0.0600601
1169	0	0.0600601
1170	0	0.0600601
1171	0	0.0634921
1172	0	0.0634921
1173	0	0.347589
1174	0	0.343948
1175	0	0.343713
1176	0	0.343655
1177	0	0.343596
1178	0	0.351108
1179	0	0.351108
1180	0	0.34747
1181	0	0.0263087
1182	0	0.0292063
1183	0	0.0305964
1184	0	0.0301895
1185	0	0.0606061
1186	0	0.0606061
1187	0	0.01998
1188	0	0.0217455
1189	0	0.046023
1190	0	0
1191	0	0
1192	0	0
1193	0	0
1194	0	0
1195	0	0
1196	0	0
1197	0	0
1198	0	0
1199	0	0
1200	0	0
1201	0	0
1202	0	0
1203	0	0
1204	0	0
1205	0	0
1206	0	0
1207	0	0
1208	0	0
1209	0	0
1210	0	0
1211	0	0
1212	0	0
1213	0	0
1214	0	0
1215	0	0
1216	0	0
1217	0	0
1218	0	0
1219	0	0
1220	0	0
1221	0	0
1222	0	0
1223	0	0
1224	0	0
1225	0	0
1226	0	0
1227	0	0
1228	0	0
1229	0	0
1230	0	0
1231	0	0
1232	0	0
1233	0	0
1234	0	0
1235	0	0
1236	0	0
1237	0	0
1238	0	0.0128205
1239	0	0.0128205
1240	0	0.0128205
1241	0	0.0151515
1242	0	0.0151515
1243	0	0.00952381
1244	0	0.284864
1245	0	0.0966667
1246	0	0.0776471
1247	0	0.0673246
1248	0	0.0502984
1249	0	0.0568421
1250	0	0.0715778
1251	0	0.0414079
1252	0	0.03663
1253	0	0.0707965
1254	0	0.100896
1255	0	0.103639
1256	0	0.105362
1257	0	0.0921423
1258	0	0.0584042
1259	0	0.0500592
1260	0	0.0801076
1261	0	0.0570879
1262	0	0.0691019
1263	0	0.177809
1264	0	0.168691
1265	0	0.148448
1266	0	0.0292398
1267	0	0.0292398
1268	0	0.0292398
1269	0	0.0292398
1270	0	0.0147059
1271	0	0.0147059
1272	0	0.0147059
1273	0	0.0147059
1274	0	0.0175439
1275	0	0.0175439
1276	0	0.0175439
1277	0	0.0263158
1278	0	0.0261438
1279	0	0.0630799
1280	0	0.0646821
1281	0	0.047619
1282	0	0.047619
1283	0	0.047619
1284	0	0.047619
1285	0	0.047619
1286	0	0.047619
1287	0	0.047619
1288	0	0.047619
1289	0	0.047619
1290	0	0.047619
1291	0	0.0357143
1292	0	0.0357143
1293	0	0.272059
1294	0	0.272059
1295	0	0.0637325
1296	0	0.0615616
1297	0	0.0362811
1298	0	0.0346763
1299	0	0
1300	0	0
1301	0	0
1302	0	0
1303	0	0
1304	0	0
1305	0	0
1306	0	0
1307	0	0
1308	0	0
1309	0	0
1310	0	0
1311	0	0
1312	0	0
1313	0	0
1314	0	0
1315	0	0
1316	0	0
1317	0	0
1318	0	0.0733903
1319	0	0.021519
1320	0	0.0221519
1321	0	0.021519
1322	0	0.0212025
1323	0	0.0572726
1324	0	0.0594344
1325	0	0.0285205
1326	0	0.0285205
1327	0	0.0282258
1328	0	0.0201613
1329	0	0.0201613
1330	0	0.0201613
1331	0	0.0201613
1332	0	0.0405347
1333	0	0.0363235
1334	0	0.0353093
1335	0	0.0171911
1336	0	0.0174825
1337	0	0.0167055
1338	0	0.017871
1339	0	0.0327462
1340	0	0.0334724
1341	0	0.0339178
1342	0	0.0332862
1343	0	0.025
1344	0	0.0285714
1345	0	0.0285714
1346	0	0.0285714
1347	0	0.0285714
1348	0	0.0285714
1349	0	0.0285714
1350	0	0.0285714
1351	0	0.0285714
1352	0	0.0285714
1353	0	0.0285714
1354	0	0.0285714
1355	0	0.0285714
1356	0	0.0285714
1357	0	0.0285714
1358	0	0.0285714
1359	0	0.0380952
1360	0	0.0583333
1361	0	0.0588544
1362	0	0.0618984
1363	0	0.0568891
1364	0	0.157505
1365	0	0.135638
1366	0	0.135638
1367	0	0.135638
1368	0	0.137411
1369	0	0
1370	0	0
1371	0	0.00833333
1372	0	0.00833333
1373	0	0.00833333
1374	0	0
1375	0	0
1376	0	0
1377	0	0
1378	0	0
1379	0	0.00833333
1380	0	0.00833333
1381	0	0.00735294
1382	0	0.449342
1383	0	0.449342
1384	0	0.422149
1385	0	0.0116959
1386	0	0.00584795
1387	0	0.513487
1388	0	0
1389	0	0
1390	0	0
1391	0	0.00653595
1392	0	0.00653595
1393	0	0.00653595
1394	0	0.513487
1395	0	0.00653595
1396	0	0.00653595
1397	0	0.057971
1398	0	0.00653595
1399	0	0.017316
1400	0	0.0826211
1401	0	0.111111
1402	0	0.107692
1403	0	0.18883
1404	0	0.288163
1405	0	0.298039
1406	0	0.208475
1407	0	0.165525
1408	0	0.155157
1409	0	0.147196
1410	0	0.147743
1411	0	0.140871
1412	0	0.027027
1413	0	0.020202
1414	0	0.0343884
1415	0	0.0346854
1416	0	0.0336016
1417	0	0.0366822
1418	0	0.0402305
1419	0	0.0440947
1420	0	0.0472613
1421	0	0.0200436
1422	0	0.0199657
1423	0	0.0191474
1424	0	0.020073
1425	0	0.02383
1426	0	0.0230786
1427	0	0.0478288
1428	0	0.0485683
1429	0	0.0294118
1430	0	0.0294118
1431	0	0.0294118
1432	0	0.0294118
1433	0	0.0294118
1434	0	0.0523942
1435	0	0.0536548
1436	0	0.0536098
1437	0	0.333333
1438	0	0.333333
1439	0	0.333333
1440	0	0.333333
1441	0	0.333333
1442	0	0.333333
1443	0	0.0314815
1444	0	0.0354938
1445	0	0.0354938
1446	0	0.0354938
1447	0	0.0445378
1448	0	0.135567
1449	0	0.033033
1450	0	0.033033
1451	0	0.039039
1452	0	0.0435435
1453	0	0.149914
1454	0	0.143032
1455	0	0.1
1456	0	0.1
1457	0	0.1
1458	0	0.1
1459	0	0.1
1460	0	0.1
1461	0	0.1
1462	0	0.1
1463	0	0.1
1464	0	0.1
1465	0	0.1
1466	0	0.1
1467	0	0.1
1468	0	0.1
1469	0	0.1
1470	0	0.0666667
1471	0	0.0666667
1472	0	0.166667
1473	0	0.166667
1474	0	0.166667
1475	0	0.166667
1476	0	0.166667
1477	0	0.166667
1478	0	0.166667
1479	0	0.166667
1480	0	0.166667
1481	0	0.166667
1482	0	0.166667
1483	0	0.166667
1484	0	0.166667
1485	0	0.166667
1486	0	0.166667
1487	0	0.166667
1488	0	0.166667
1489	0	0.166667
1490	0	0.166667
1491	0	0.166667
1492	0	0.166667
1493	0	0.166667
1494	0	0.166667
1495	0	0.166667
1496	0	0.1
1497	0	0.1
1498	0	0.1
1499	0	0.1
1500	0	0.1
1501	0	0.1
1502	0	0.1
1503	0	0.1
1504	0	0.1
1505	0	0.1
1506	0	0.1
1507	0	0.1
1508	0	0.1
1509	0	0.1
1510	0	0
1511	0	0
1512	0	0
1513	0	0
1514	0	0
1515	0	0
1516	0	0
1517	0	0
1518	0	0
1519	0	0
1520	0	0
1521	0	0
1522	0	0
1523	0	0
1524	0	0
1525	0	0.186266
1526	0	0.0880956
1527	0	0.0213406
1528	0	0.0229692
1529	0	0.0277311
1530	0	0.157502
1531	0	0.0375102
1532	0	0.0741498
1533	0	0.134145
1534	0	0.132979
1535	0	0.0899713
1536	0	0.0843188
1537	0	0.0668797
1538	0	0.0687793
1539	0	0.0765003
1540	0	0.00653595
1541	0	0.00653595
1542	0	0.00653595
1543	0	0.00653595
1544	0	0.00653595
1545	0	0
1546	0	0
1547	0	0
1548	0	0
1549	0	0
1550	0	0
1551	0	0
1552	0	0
1553	0	0
1554	0	0
1555	0	0
1556	0	0
1557	0	0.0118577
1558	0	0.0118577
1559	0	0.0615253
1560	0	0.0489122
1561	0	0.0762814
1562	0	0.0804954
1563	0	0.0769231
1564	0	0.0877319
1565	0	0.0600582
1566	0	0.0637532
1567	0	0.0612607
1568	0	0.0582304
1569	0	0
1570	0	0
1571	0	0
1572	0	0.00952381
1573	0	0.00952381
1574	0	0.00952381
1575	0	0.0147059
1576	0	0.00653595
1577	0	0.00653595
1578	0	0.0130719
1579	0	0.0490561
1580	0	0.0527738
1581	0	0.0522141
1582	0	0.0625507
1583	0	0.0634818
1584	0	0.0767535
1585	0	0.0285546
1586	0	0.0305144
1587	0	0.0280732
1588	0	0.0270851
1589	0	0.0265039
1590	0	0.0662384
1591	0	0.0681172
1592	0	0.0695767
1593	0	0.0654999
1594	0	1
1595	0	0.0258065
1596	0	0.0258065
1597	0	0.0258065
1598	0	0.0258065
1599	0	0.0258065
1600	0	0.0258065
1601	0	0.0258065
1602	0	0.0221774
1603	0	0.0284091
1604	0	0.127484
1605	0	0.0666667
1606	0	0.0953846
1607	0	0.101538
1608	0	0.144615
1609	0	0.092803
1610	0	0.0766488
1611	0	0.106952
1612	0	0.114694
1613	0	0.124076
1614	0	0.0188261
1615	0	0.182911
1616	0	0.235499
1617	0	0.265116
1618	0	0.283025
1619	0	0.258025
1620	0	0.0306554
1621	0	0.2
1622	0	0.207725
1623	0	0.0551282
1624	0	0.666814
1625	0	0.019943
1626	0	0.019943
1627	0	0.019943
1628	0	0.019943
1629	0	0.0184615
1630	0	0.0184615
1631	0	0.0151515
1632	0	0.0454545
1633	0	0.0430769
1634	0	0.0740741
1635	0	0.216858
1636	0	0.219392
1637	0	0.223013
1638	0	0.0833333
1639	0	0.0833333
1640	0	0.107143
1641	0	0.142857
1642	0	0
1643	0	0
1644	0	0
1645	0	0
1646	0	0
1647	0	0
1648	0	0
1649	0	0
1650	0	0
1651	0	0
1652	0	0
1653	0	0
1654	0	0
1655	0	0
1656	0	0
1657	0	0.289065
1658	0	0.536092
1659	0	0.07
1660	0	0.0866667
1661	0	0.186667
1662	0	0.202899
1663	0	0.217391
1664	0	0.217391
1665	0	0.217391
1666	0	0.238095
1667	0	0.261905
1668	0	0.238095
1669	0	0.285714
1670	0	0.314286
1671	0	0.314286
1672	0	0.347368
1673	0	0.371429
1674	0	0.393939
1675	0	0
1676	0	0
1677	0	0
1678	0	0.285836
1679	0	0.047619
1680	0	0.047619
1681	0	0.047619
1682	0	0.142857
1683	0	0.142857
1684	0	0.142857
1685	0	0.300825
1686	0	0.29998
1687	0	0.103278
1688	0	0.107129
1689	0	0.394536
1690	0	0.400167
1691	0	0.0128205
1692	0	0.0151515
1693	0	0.0151515
1694	0	0.0151515
1695	0	0.0222222
1696	0	0.0555556
1697	0	0.0277778
1698	0	0.0277778
1699	0	0
1700	0	0
1701	0	0
1702	0	0
1703	0	0
1704	0	0
1705	0	0
1706	0	0
1707	0	0
1708	0	0
1709	0	0.315742
1710	0	0.317809
1711	0	0.322092
1712	0	0.32385
1713	0	0.327611
1714	0	0.0285714
1715	0	0.0285714
1716	0	0.135952
1717	0	0.389216
1718	0	0.402645
1719	0	0.0968354
1720	0	0.101898
1721	0	0.118415
1722	0	0.152882
1723	0	0.177068
1724	0	0.0302419
1725	0	0.0233333
1726	0	0.0253623
1727	0	0.0276923
1728	0	0.361763
1729	0	0.360084
1730	0	0.361257
1731	0	0.360013
1732	0	0.358931
1733	0	0.358064
1734	0	0.358437
1735	0	0
1736	0	0
1737	0	0
1738	0	0
1739	0	0
1740	0	0
1741	0	0
1742	0	0
1743	0	0
1744	0	0.0151515
1745	0	0
1746	0	0
1747	0	0.00952381
1748	0	0.0130719
1749	0	0.00865801
1750	0	0.0123077
1751	0	0.486182
1752	0	0.485971
1753	0	0.479547
1754	0	0.457604
1755	0	0.462194
1756	0	0.216374
1757	0	0.325
1758	0	0.0666667
1759	0	0
1760	0	0
1761	0	0
1762	0	0
1763	0	0
1764	0	0
1765	0	0
1766	0	0
1767	0	0
1768	0	0
1769	0	0
1770	0	0
1771	0	0
1772	0	0
1773	0	0
1774	0	0
1775	0	0
1776	0	0
1777	0	0
1778	0	0
1779	0	0
1780	0	0
1781	0	0
1782	0	0
1783	0	0
1784	0	0
1785	0	0
1786	0	0
1787	0	0
1788	0	0
1789	0	0
1790	0	0
1791	0	0
1792	0	0
1793	0	0.375292
1794	0	0.372918
1795	0	0.372687
1796	0	0.021978
1797	0	0.021978
1798	0	0.021978
1799	0	0.0166667
1800	0	0.0166667
1801	0	0.0457516
1802	0	0.0457516
1803	0	0.489392
1804	0	0.0542755
1805	0	0.047541
1806	0	0.216116
1807	0	0.616633
1808	0	0.0565355
1809	0	0.156228
1810	0	0.030303
1811	0	0.572805
1812	0	0.153061
1813	0	0.159574
1814	0	0.182828
1815	0	0.231501
1816	0	0.265854
1817	0	0.265854
1818	0	0.305832
1819	0	0.025
1820	0	0.025
1821	0	0.0285714
1822	0	0.313725
1823	0	0.329545
1824	0	0.43908
1825	0	0.43908
1826	0	0.470443
1827	0	0
1828	0	0
1829	0	0
1830	0	0
1831	0	0
1832	0	0
1833	0	0
1834	0	0
1835	0	0
1836	0	0
1837	0	0
1838	0	0
1839	0	0
1840	0	0
1841	0	0
1842	0	0
1843	0	0
1844	0	0
1845	0	0
1846	0	0
1847	0	0
1848	0	0
1849	0	0
1850	0	0
1851	0	0
1852	0	0
1853	0	0
1854	0	0
1855	0	0
1856	0	0
1857	0	0
1858	0	0
1859	0	0
1860	0	0
1861	0	0
1862	0	0
1863	0	0
1864	0	0
1865	0	0
1866	0	0
1867	0	0
1868	0	0
1869	0	0
1870	0	0
1871	0	0
1872	0	0
1873	0	0
1874	0	0
1875	0	0
1876	0	0
1877	0	0
1878	0	0
1879	0	0
1880	0	0
1881	0	0
1882	0	0
1883	0	0
1884	0	0
1885	0	0
1886	0	0
1887	0	0.1
1888	0	0.34817
1889	0	0.334867
1890	0	0.347001
1891	0	0.380239
1892	0	0.387067
1893	0	0.402049
1894	0	0.277311
1895	0	0.294153
1896	0	0.435294
1897	0	0.445783
1898	0	0.501785
1899	0	0.533467
1900	0	0.547505
1901	0	0.509569
1902	0	0.509569
1903	0	0.509228
1904	0	0.536577
1905	0	0.56621
1906	0	0.598793
1907	0	0.633845
1908	0	0.652766
1909	0	0.652766
1910	0	0.672546
1911	0	0.672546
1912	0	0.672546
1913	0	0.648123
1914	0	0.648123
1915	0	0.648123
1916	0	0.688942
1917	0	0.688942
1918	0	0.710813
1919	0	0.710813
1920	0	0.710813
1921	0	0.169118
1922	0	0.0808824
1923	0	0.075
1924	0	0.0571429
1925	0	0.0641026
1926	0	0.0641026
1927	0	0.0444444
1928	0	0.0666667
1929	0	0.0666667
1930	0	0.0666667
1931	0	0.0666667
1932	0	0.0714286
1933	0	0.047619
1934	0	0.047619
1935	0	0.047619
1936	0	0.047619
1937	0	0.047619
1938	0	0.047619
1939	0	0.047619
1940	0	0.047619
1941	0	0.047619
1942	0	0.047619
1943	0	0.047619
1944	0	0.047619
1945	0	0.047619
1946	0	0.0666667
1947	0	0.0666667
1948	0	0.0666667
1949	0	0.0666667
1950	0	0.0666667
1951	0	0.0666667
1952	0	0.0666667
1953	0	0.0666667
1954	0	0
1955	0	0
1956	0	0
1957	0	0
1958	0	0
1959	0	0
1960	0	0
1961	0	0
1962	0	0
1963	0	0
1964	0	0
1965	0	0
1966	0	0
1967	0	0
1968	0	0
1969	0	0
1970	0	0
1971	0	0
1972	0	0
1973	0	0
1974	0	0
1975	0	0
1976	0	0
1977	0	0
1978	0	0
1979	0	0
1980	0	0
1981	0	0
1982	0	0
1983	0	0
1984	0	0
1985	0	0
1986	0	0
1987	0	0
1988	0	0
1989	0	0
1990	0	0
1991	0	0
1992	0	0
1993	0	0
1994	0	0
1995	0	0
1996	0	0
1997	0	0
1998	0	0
1999	0	0
2000	0	0
2001	0	0
2002	0	0
2003	0	0
2004	0	0
2005	0	0
2006	0	0
2007	0	0
2008	0	0
2009	0	0
2010	0	0
2011	0	0
2012	0	0
2013	0	0
2014	0	0
2015	0	0
2016	0	0
2017	0	0
2018	0	0
2019	0	0
2020	0	0
2021	0	0
2022	0	0
2023	0	0
2024	0	0
2025	0	0
2026	0	0
2027	0	0
2028	0	0
2029	0	0
2030	0	0
2031	0	0
2032	0	0
2033	0	0
2034	0	0
2035	0	0
2036	0	0
2037	0	0
2038	0	0
2039	0	0
2040	0	0
2041	0	0
2042	0	0
2043	0	0
2044	0	0
2045	0	0
2046	0	0
2047	0	0
2048	0	0
2049	0	0
2050	0	0
2051	0	0
2052	0	0
2053	0	0
2054	0	0.850196
2055	0	0.889695
2056	0	0.889695
2057	0	0.889695
2058	0	0.889695
2059	0	0.889695
2060	0	0.437414
2061	0	0.84871
2062	0	0.605051
2063	0	0.639394
2064	0	0.713131
2065	0	0.917114
2066	0	0.681818
2067	0	0.681818
2068	0	0.681818
2069	0	0.95616
2070	0	0.954396
2071	0	0.954439
2072	0	0.954439
2073	0	0.954481
2074	0	0.952724
2075	0	0.952724
2076	0	0
2077	0	0
2078	0	0
2079	0	0
2080	0	0
2081	0	0
2082	0	0
2083	0	0
2084	0	0
2085	0	0
2086	0	0
2087	0	0
2088	0	0
2089	0	0
2090	0	0
2091	0	0
2092	0	0
2093	0	0
2094	0	0
2095	0	0
2096	0	0
2097	0	0.946044
2098	0	0
2099	0	0
2100	0	0
2101	0	0
2102	0	0
2103	0	0
2104	0	0
2105	0	0
2106	0	0
2107	0	0.166667
2108	0	0.166667
2109	0	0.166667
2110	0	0.166667
2111	0	0.166667
2112	0	0.166667
2113	0	0.166667
2114	0	0.961901
2115	0	0.961901
2116	0	0
2117	0	0
2118	0	0
2119	0	0
2120	0	0
2121	0	0
2122	0	0
2123	0	0
2124	0	0
2125	0	0
2126	0	0
2127	0	0
2128	0	0
2129	0	0
2130	0	0
2131	0	0
2132	0	0
2133	0	0
2134	0	0
2135	0	0
2136	0	0
2137	0	0
2138	0	0
2139	0	0
2140	0	0
2141	0	0
2142	0	0
2143	0	0
2144	0	0
2145	0	0
2146	0	0
2147	0	0
2148	0	0
2149	0	0.963666
2150	0	0.963666
2151	0	0.965436
2152	0	0.965436
2153	0	0.965436
2154	0	0.111111
2155	0	0.111111
2156	0	0.111111
2157	0	0.965467
2158	0	0.961866
2159	0	0.963633
2160	0	0
2161	1	0
2162	0	0
2163	0	0
2164	0	0
2165	0	0
2166	0	0
2167	0	0
2168	0	0
2169	0	0
2170	0	0
2171	0	0
2172	0	0
2173	0	0
2174	0	0
2175	0	0
2176	0	0
2177	0	0
2178	0	0
2179	0	0
2180	0	0
2181	0	0
2182	0	0
2183	0	0
2184	0	0
2185	0	0
2186	0	0
2187	0	0
2188	0	0
2189	0	0
2190	0	0
2191	0	0
2192	0	0
2193	0	0
2194	0	0
2195	0	0
2196	1	0
2197	1	0
2198	1	0
2199	1	0
2200	1	0
2201	1	0
2202	1	0
2203	1	0
2204	1	0
2205	0	0
2206	0	0
2207	0	0
2208	0	0
2209	0	0.961901
2210	0	0.963671
2211	0	0.961909
2212	0	0.4
2213	0	0.4
2214	0	0.4
2215	0	0.4
2216	0	0.4
2217	0	0.4
2218	0	0.4
2219	0	0.4
2220	0	0.4
2221	0	0.4
2222	0	0.4
2223	0	0.4
2224	0	0.4
2225	0	0.4
2226	0	0.974429
2227	0	0.974427
2228	0	0.974427
2229	0	0.974404
2230	0	0.974404
2231	0	0.974404
2232	0	0.974404
2233	0	0.97445
2234	0	0.97445
2235	0	0.97445
2236	0	0.97445
2237	0	0.973386
2238	0	0.133333
2239	0	0.133333
2240	0	0.133333
2241	0	0.333333
2242	0	0.333333
2243	0	0.333333
2244	0	0.333333
2245	0	0.333333
2246	0	0.333333
2247	0	0.333333
2248	0	0.333333
2249	0	0.333333
2250	0	0.333333
2251	0	0.683618
2252	0	0.972573
2253	0	0.970863
2254	0	0.970863
2255	0	0.970863
2256	0	0.970863
2257	0	0.970863
2258	0	0.333333
2259	0	0.333333
2260	0	0.333333
2261	0	0.333333
2262	1	0
2263	1	0
2264	1	0
2265	1	0
2266	1	0
2267	0	0
2268	0	0
2269	0	0
2270	0	0
2271	1	1
2272	0	0.333333
2273	0	0.333333
2274	0	0.333333
2275	0	0.333333
2276	0	0.972472
2277	0	0.974296
2278	0	0.974296
2279	0	0.972497
2280	0	0.974344
2281	0	0.972547
2282	0	0.974344
2283	0	0.4
2284	0	0.4
2285	0	0.4
2286	0	0.4
2287	0	0.4
2288	0	0.4
2289	0	0.4
2290	0	0.410256
2291	0	0.307692
2292	0	0.307692
2293	0	0.307692
2294	0	0.307692
2295	0	0.307692
2296	0	0.307692
2297	0	0.949129
2298	0	0.945609
2299	0	0.888705
2300	0	0.887043
2301	0	0.885306
2302	0	0.885306
2303	0	0.47619
2304	0	0.47619
2305	0	0.47619
2306	0	0.666667
2307	0	0.869984
2308	0	0.880262
2309	0	0.880262
2310	0	0.880579
2311	0	0.666667
2312	0	0.666667
2313	0	0.666667
2314	0	0.666667
2315	0	0.666667
2316	0	0.666667
2317	0	0.666667
2318	0	0.666667
2319	0	0.666667
2320	0	0.666667
2321	0	0.466667
2322	0	0.466667
2323	0	0.466667
2324	0	0.466667
2325	0	0.870176
2326	0	0.314286
2327	0	0.314286
2328	0	0.275
2329	0	0.275
2330	0	0.275
2331	0	0.275
2332	0	0.275
2333	0	0.823511
2334	0	0.541008
2335	0	0.541008
2336	0	0.540732
2337	0	0.667339
2338	0	0.667339
2339	0	0.667339
2340	0	1
2341	0	0.923077
2342	0	0.923077
2343	0	0
2344	0	0.285714
2345	0	0.285714
2346	0	0.190476
2347	0	0.285714
2348	0	0.532934
2349	0	0.306778
2350	0	0.304682
2351	0	0.454927
2352	0	0.454927
2353	0	0.454927
2354	0	0.444444
2355	0	0.444444
2356	0	0.529486
2357	0	0.529486
2358	0	0.333333
2359	0	0.166667
2360	0	0.166667
2361	0	0.166667
2362	0	0.166667
2363	0	0.166667
2364	0	0.166667
2365	0	0.166667
2366	0	0.2
2367	0	0.2
2368	0	0.4
2369	0	0.4
2370	0	0.4
2371	0	0.4
2372	0	1
2373	0	1
2374	0	1
2375	0	1
2376	0	0.714286
2377	0	0.714286
2378	0	1
2379	0	0.396294
2380	0	0.397284
2381	0	0.396761
2382	0	0.395791
2383	0	0.397572
2384	0	0.395907
2385	0	0.396162
2386	0	0.397372
2387	0	0.405387
2388	0	0.405387
2389	0	0.407621
2390	0	0.703391
2391	0	0.703391
2392	0	0.703391
2393	0	0.42959
2394	0	0.456439
2395	0	0.456439
2396	0	0.578818
2397	0	0.836957
2398	0	0.836957
2399	0	0.836957
2400	0	0.738343
2401	0	0.741658
2402	0	0.7403
2403	0	0.7403
2404	0	0.7403
2405	0	0.7403
2406	0	0.738749
2407	0	0.738749
2408	0	0.743414
2409	0	0.403509
2410	0	0.735152
2411	0	1
2412	0	1
2413	0	1
2414	0	1
2415	0	1
2416	0	1
2417	0	1
2418	0	0.721993
2419	0	0.716936
2420	0	0.466667
2421	0	0.571429
2422	0	0.466667
2423	0	0.466667
2424	0	0.466667
2425	0	0.466667
2426	0	0.194444
2427	0	0.151515
2428	0	0.429429
2429	0	0.408537
2430	0	0.65113
2431	0	0.580236
2432	0	0.542852
2433	0	0.541493
2434	0	0.540376
2435	0	0.2
2436	0	0.2
2437	0	0.3812
2438	0	0.374758
2439	0	0.364681
2440	0	0.538696
2441	0	0.53032
2442	0	0.52655
2443	0	0.506356
2444	0	0.514068
2445	0	0.538252
2446	0	0.5623
2447	0	0.56917
2448	0	0.6738
2449	0	0.1
2450	0	0
2451	0	0
2452	0	0
2453	0	0
2454	0	0
2455	0	0
2456	0	0
2457	0	0
2458	0	0
2459	0	0
2460	0	0
2461	0	0
2462	0	0
2463	0	0
2464	0	0
2465	0	0.333333
2466	0	0.333333
2467	0	0.333333
2468	0	0.166667
2469	0	0.166667
2470	0	0.705111
2471	0	0.710156
2472	0	0.714754
2473	0	0.716254
2474	0	0.107143
2475	0	0.2
2476	0	0
2477	0	0
2478	0	0
2479	0	0
2480	0	0.743565
2481	0	0.742888
2482	0	0.741535
2483	0	0.744187
2484	0	0.744187
2485	0	0.745549
2486	0	0.818182
2487	0	0.818182
2488	0	0.818182
2489	0	0.752941
2490	0	0.752941
2491	0	0.752941
2492	0	0.752336
2493	0	0.752336
2494	0	0.752336
2495	0	0.75233
2496	0	0.75233
2497	0	0.755084
2498	0	0.756273
2499	0	0
2500	0	0.852991
2501	0	0.834448
2502	0	0.194444
2503	0	0.500881
2504	0	0.75803
2505	0	0.759501
2506	0	0.76231
2507	0	0.760126
2508	0	0.741477
2509	0	0.847843
2510	0	0.847843
2511	0	0.703239
2512	0	0.70079
2513	0	0.701021
2514	0	0.701021
2515	0	0.701021
2516	0	0.701021
2517	0	0.701021
2518	0	0.70079
2519	0	0.605488
2520	0	0.757026
2521	0	0.757026
2522	0	0.758605
2523	0	0.758605
2524	0	0.754262
2525	0	0.753878
2526	0	0.753685
2527	0	0.756836
2528	0	0.3
2529	0	0.3
2530	0	0.3
2531	0	0.743505
2532	0	0.7435
2533	0	0.7435
2534	0	0.7435
2535	0	0.744463
2536	0	0.744263
2537	0	0.743662
2538	0	1
2539	0	0.714286
2540	0	0.535714
2541	0	0.230769
2542	0	0.720563
2543	0	0.723203
2544	0	0.721664
2545	0	0.72035
2546	0	0.72299
2547	0	0.425
2548	0	0.485714
2549	0	0.708421
2550	0	0.703297
2551	0	0.703065
2552	0	0.70305
2553	0	0.703052
2554	0	0.701999
2555	0	0
2556	0	0
2557	0	0
2558	0	0
2559	0	0
2560	0	0
2561	0	0
2562	0	0
2563	0	0
2564	0	0
2565	0	0
2566	0	0
2567	0	0
2568	0	0
2569	0	0
2570	0	0
2571	0	0
2572	0	0
2573	0	0
2574	0	0
2575	0	0
2576	0	0
2577	0	0
2578	0	0
2579	0	0
2580	0	0
2581	0	0
2582	0	0
2583	0	0
2584	0	0.699131
2585	0	0.166667
2586	0	0.704822
2587	0	0.183824
2588	0	0.241758
2589	0	0.241758
2590	0	0.697498
2591	0	0.681508
2592	0	0.683228
2593	0	0.681949
2594	0	0.677086
2595	0	0.673067
2596	0	0.870837
2597	0	0.870837
2598	0	0.870475
2599	0	0.868892
2600	0	0.868896
2601	0	0.868896
2602	0	0.870516
2603	0	0.909509
2604	0	0.909509
2605	0	0.877076
2606	0	0.244444
2607	0	0.244444
2608	0	0.179487
2609	0	0.179487
2610	0	0.867861
2611	0	0.866271
2612	0	0.847371
2613	0	0.333333
2614	0	0.333333
2615	0	0.333333
2616	0	0.1
2617	0	0.1
2618	0	0.1
2619	0	0.1
2620	0	0.1
2621	0	0.1
2622	0	0.1
2623	0	0
2624	0	0
2625	0	0
2626	0	0
2627	0	0.0666667
2628	0	0.047619
2629	0	0.0357143
2630	0	0.133333
2631	0	0.470709
2632	0	0
2633	0	0
2634	0	0
2635	0	0
2636	0	0.650223
2637	0	0.65086
2638	0	0.660774
2639	0	0.653752
2640	0	0.654017
2641	0	0.668521
2642	0	0.318681
2643	0	0.258333
2644	0	0.675457
2645	0	0.676946
2646	0	0
2647	0	0
2648	0	0
2649	0	0.966947
2650	0	0.967218
2651	0	0.954668
2652	0	0.689689
2653	0	0.896598
2654	0	0.898262
2655	0	0.898262
2656	0	0.166667
2657	0	0.166667
2658	0	0.166667
2659	0	0.333333
2660	0	0.333333
2661	0	0.333333
2662	0	0.333333
2663	0	1
2664	0	1
2665	0	1
2666	0	1
2667	0	1
2668	0	0.891396
2669	0	0.910439
2670	0	0.913996
2671	0	0.913996
2672	0	0
2673	0	0.911917
2674	0	0.91366
2675	0	0.91366
2676	0	0.91366
2677	0	0.910521
2678	0	0.913998
2679	0	0.91574
2680	0	0.910528
2681	0	0.912201
2682	0	0.912201
2683	0	0.166667
2684	0	0.918828
2685	0	0.918828
2686	0	0.918828
2687	0	0.918828
2688	0	0.983658
2689	0	0.983655
2690	0	0.981863
2691	0	0.98188
2692	0	0.166667
2693	0	0.5
2694	0	0.5
2695	0	0.5
2696	0	0.5
2697	0	0.5
2698	0	0
2699	0	0
2700	0	0
2701	0	0
2702	0	0
2703	0	0
2704	0	0
2705	0	0
2706	0	0
2707	0	0
2708	0	0
2709	0	0
2710	0	0
2711	0	0
2712	0	0
2713	0	0
2714	0	0.992711
2715	0	0.994531
2716	0	0.994531
2717	0	0.994531
2718	0	0.992712
2719	0	0.992712
2720	0	0.996352
2721	0	0.996359
2722	0	0.998179
2723	0	0.998179
2724	0	0.998179
2725	0	0.998179
2726	0	0.998179
2727	0	0.998177
2728	0	0.998179
2729	0	0.998177
2730	0	0.99818
2731	0	0.99818
2732	0	0.99818
2733	0	0.99818
2734	0	0.99818
2735	0	0.99818
2736	0	0.996362
2737	0	0.998179
2738	0	0.998179
2739	0	0.998179
2740	0	0.998179
2741	0	1
2742	0	0.99818
2743	0	0.996365
2744	0	0.996365
2745	0	0.996365
2746	0	0.996365
2747	0	0
2748	0	0.666667
2749	0	0.4
2750	0	0.4
2751	0	0.4
2752	0	0.4
2753	0	0.3
2754	0	0.3
2755	0	0.3
2756	0	0.1
2757	0	0
2758	0	0
2759	0	0
2760	0	0
2761	0	0
2762	0	0
2763	0	0.1
2764	0	0.1
2765	0	0.1
2766	0	0.1
2767	0	0.166667
2768	0	0.333333
2769	0	0.333333
2770	0	1
2771	0	1
2772	0	0.823698
2773	0	0.99455
2774	0	0.99455
2775	0	0.99455
2776	0	0.99455
2777	0	0.99455
2778	0	0.99455
2779	0	0.99455
2780	0	0.99455
2781	0	0.996365
2782	0	0.996365
2783	0	0.99818
2784	0	0.99818
2785	0	0.99818
2786	0	0.99818
2787	0	0.99818
2788	0	0.99818
2789	0	0.901467
2790	0	0
2791	0	0
2792	0	0.75
2793	0	0.488889
2794	0	0.809824
2795	0	0.677337
2796	0	1
2797	0	1
2798	0	1
2799	0	1
2800	0	1
2801	0	1
2802	0	1
2803	0	0
2804	0	0
2805	0	0
2806	0	0
2807	0	0
2808	0	0
2809	0	0
2810	0	0
2811	0	0
2812	0	0
2813	0	0
2814	0	0.676923
2815	0	1
2816	0	1
2817	0	1
2818	0	1
2819	0	1
2820	0	0
2821	0	0
2822	0	0
2823	0	0
2824	0	0
2825	0	0
2826	0	0.90218
2827	0	0.706349
2828	0	0.714286
2829	0	0.941474
2830	0	1
2831	0	1
2832	0	0.996349
2833	0	0.996349
2834	0	0.392857
2835	0	0.47619
2836	0	0.47619
2837	0	0.47619
2838	0	0.666667
2839	0	0.666667
2840	0	0.666667
2841	0	0.666667
2842	0	0.2
2843	0	0.133333
2844	0	0.133333
2845	0	0.133333
2846	0	0.0666667
2847	0	0.0666667
2848	0	0
2849	0	0
2850	0	0
2851	0	0
2852	0	0
2853	0	0
2854	0	0
2855	0	0
2856	0	0
2857	0	0
2858	0	0
2859	0	0
2860	0	0
2861	0	0.891326
2862	0	0.333333
2863	0	0.333333
2864	0	0.333333
2865	0	0.333333
2866	0	0.333333
2867	0	0.333333
2868	0	0
2869	0	0
2870	0	0
2871	0	0
2872	0	0
2873	0	0
2874	0	0
2875	0	0
2876	0	0
2877	0	0
2878	0	0
2879	0	0
2880	0	0
2881	0	0
2882	0	0
2883	0	0
2884	0	0.333333
2885	0	0.81528
2886	0	1
2887	0	0.333333
2888	0	0.333333
2889	0	1
2890	0	1
2891	0	1
2892	0	1
2893	0	1
2894	0	1
2895	0	1
2896	0	0.5
2897	0	0.5
2898	0	0.846717
2899	0	0.98545
2900	0	0
2901	0	0
2902	0	0.333333
2903	0	0.333333
2904	0	0.994506
2905	0	0.994506
2906	0	0.996335
2907	0	0.998167
2908	0	0.998167
2909	0	0.998167
2910	0	0.99817
2911	0	0.996345
2912	0	0.996345
2913	0	0.996345
2914	0	0.996345
2915	0	0.996345
2916	0	0.996345
2917	0	0.994521
2918	0	0.994516
2919	0	0
2920	0	0
2921	0	1
2922	0	1
2923	0	1
2924	0	1
2925	0	1
2926	0	1
2927	0	0.99817
2928	0	0.998168
2929	0	0.996342
2930	0	0.996342
2931	0	0.996342
2932	0	0.996342
2933	0	0.996342
2934	0	0.996342
2935	0	0.996342
2936	0	0.996342
2937	0	0.998168
2938	0	0.644444
2939	0	0.428571
2940	0	0.321429
2941	0	0.333333
2942	0	0.333333
2943	0	0.2
2944	0	0.2
2945	0	0.3
2946	0	0.3
2947	0	0.3
2948	0	0.3
2949	0	0.3
2950	0	0.3
2951	0	0.3
2952	0	0.3
2953	0	0.5
2954	0	0.5
2955	0	0.5
2956	0	0.5
2957	0	0.820375
2958	0	0.983579
2959	0	0.983579
2960	0	0.985383
2961	0	0.983564
2962	0	0.979966
2963	0	0.979984
2964	0	0.978194
2965	0	0.758333
2966	0	0.758333
2967	0	0.758333
2968	0	0.758333
2969	0	0.95461
2970	0	0.715091
2971	0	0.843788
2972	0	0.214286
2973	0	0.214286
2974	0	0.214286
2975	0	0.214286
2976	0	0.142857
2977	0	0.142857
2978	0	0.142857
2979	0	0.111111
2980	0	0.111111
2981	0	0.111111
2982	0	0.111111
2983	0	0.0444444
2984	0	0.0277778
2985	0	0.0277778
2986	0	0.0277778
2987	0	0.0363636
2988	0	0.0549451
2989	0	0.0666667
2990	0	0.0684211
2991	0	0.12069
2992	0	0.115616
2993	0	0.764355
2994	0	0.76232
2995	0	0.410526
2996	0	0.359477
2997	0	0.300654
2998	0	0.269006
2999	0	0.269006
3000	0	0.134503
3001	0	0.133333
3002	0	0.0222222
3003	0	0.0222222
3004	0	0.0222222
3005	0	0.0222222
3006	0	0.0409357
3007	0	0.0467836
3008	0	0.0578947
3009	0	0.547926
3010	0	0.12
3011	0	0.12
3012	0	0.113333
3013	0	0.0724638
3014	0	0.0362319
3015	0	0.0326087
3016	0	0.0666667
3017	0	0.0714286
3018	0	0.0952381
3019	0	0.407952
3020	0	0
3021	0	0
3022	0	0
3023	0	0
3024	0	0.211176
3025	0	0.164404
3026	0	0.140562
3027	0	0.109294
3028	0	0.266718
3029	0	0.245356
3030	0	0.145386
3031	0	0
3032	0	0
3033	0	0
3034	0	0
3035	0	0
3036	0	0
3037	0	0
3038	0	0
3039	0	0
3040	0	0
3041	0	0
3042	0	0
3043	0	0
3044	0	0
3045	0	0
3046	0	0.176991
3047	0	0.116649
3048	0	0.157767
3049	0	0.0989899
3050	0	0.295915
3051	0	0.176471
3052	0	0.0789474
3053	0	0.0588235
3054	0	0.0761905
3055	0	0.0761905
3056	0	0.0666667
3057	0	0.0277778
3058	0	0.0277778
3059	0	0.242105
3060	0	0.354615
3061	0	0.0222222
3062	0	0.0277778
3063	0	0.0277778
3064	0	0
3065	0	0.438559
3066	0	0.358974
3067	0	0.307692
3068	0	0.307692
3069	0	0
3070	0	0
3071	0	0
3072	0	0
3073	0	0
3074	0	0
3075	0	0
3076	0	0
3077	0	0
3078	0	0.242424
3079	0	0.367059
3080	0	0.33505
3081	0	0.300483
3082	0	0.238668
3083	0	0.608163
3084	0	0.526302
3085	0	0.523208
3086	0	0.52125
3087	0	0.0670965
3088	0	0.061084
3089	0	0.0402812
3090	0	0.0385093
3091	0	0.436631
3092	0	0.3
3093	0	0.3
3094	0	0.3
3095	0	0.3
3096	0	0.3
3097	0	0.2
3098	0	0.0666667
3099	0	0.0463439
3100	0	0.22038
3101	0	0.270133
3102	0	0.270554
3103	0	0
3104	0	0
3105	0	0
3106	0	0
3107	0	0
3108	0	0
3109	0	0
3110	0	0
3111	0	0
3112	0	0
3113	0	0.0666667
3114	0	0.047619
3115	0	0.0357143
3116	0	0.0714286
3117	0	0.0757576
3118	0	0.205128
3119	0	0.367589
3120	0	0.415054
3121	0	0.355263
3122	0	0.286323
3123	0	0.376988
3124	0	0.133998
3125	0	0.101282
3126	0	0.0863698
3127	0	0.0625889
3128	0	0.0881935
3129	0	0.286038
3130	0	0.305928
3131	0	0
3132	0	0
3133	0	0
3134	0	0
3135	0	0
3136	0	0
3137	0	0
3138	0	0
3139	0	0
3140	0	0
3141	0	0
3142	0	0
3143	0	0
3144	0	0
3145	0	0
3146	0	0
3147	0	0.313894
3148	0	0.311549
3149	0	0.103333
3150	0	0.106667
3151	0	0.104615
3152	0	0.0326797
3153	0	0.0687831
3154	0	0.0687831
3155	0	0.0510511
3156	0	0.335103
3157	0	0.0655936
3158	0	0.063354
3159	0	0.0723654
3160	0	0.0721154
3161	0	0.075
3162	0	0.343456
3163	0	0.0803808
3164	0	0.0581703
3165	0	0.0699454
3166	0	0.0894214
3167	0	0.0865094
3168	0	0.32494
3169	0	0.321922
3170	0	0.324238
3171	0	0
3172	0	0
3173	0	0
3174	0	0
3175	0	0
3176	0	0
3177	0	0
3178	0	0.0784708
3179	0	0.0937626
3180	0	0.0905433
3181	0	0.0905433
3182	0	0.0951754
3183	0	0.382298
3184	0	0.249494
3185	0	0
3186	0	0
3187	0	0
3188	0	0
3189	0	0
3190	0	0
3191	0	0
3192	0	0
3193	0	0
3194	0	0
3195	0	0
3196	0	0
3197	0	0.416667
3198	0	0.411765
3199	0	0.5
3200	0	0.554348
3201	0	0.092437
3202	0	0.198672
3203	0	0.130291
3204	0	0.387939
3205	0	0.193469
3206	0	0.212643
3207	0	0.22285
3208	0	0.615385
3209	0	0.192523
3210	0	0.39635
3211	0	0.399215
3212	0	0.42798
3213	0	1
3214	0	1
3215	0	1
3216	0	0.32381
3217	0	0.208791
3218	0	0.217949
3219	0	0.4
3220	0	0.332794
3221	0	0.343446
3222	0	0.238682
3223	0	0.225409
3224	0	0.172035
3225	0	0.251907
3226	0	0.0769231
3227	0	0.0855615
3228	0	0.083004
3229	0	0.0522876
3230	0	0.0512821
3231	0	0.0277778
3232	0	0.0222222
3233	0	0.0357143
3234	0	0.0666667
3235	0	0.0666667
3236	0	0.0666667
3237	0	0.0666667
3238	0	0.0666667
3239	0	0.0666667
3240	0	0.0666667
3241	0	0.0666667
3242	0	0.0666667
3243	0	0
3244	0	0
3245	0	0
3246	0	0
3247	0	0
3248	0	0
3249	0	0
3250	0	0
3251	0	0.262016
3252	0	0.3
3253	0	0.3
3254	0	0.3
3255	0	0.3
3256	0	0.3
3257	0	0.3
3258	0	0.3
3259	0	0.3
3260	0	0.3
3261	0	0.3
3262	0	0.3
3263	0	0.3
3264	0	0.219814
3265	0	0.201539
3266	0	0.268284
3267	0	0.142857
3268	0	0.142857
3269	0	0.142857
3270	0	0.1
3271	0	0.1
3272	0	0.1
3273	0	0.1
3274	0	0.1
3275	0	0.1
3276	0	0
3277	0	0
3278	0	0
3279	0	0
3280	0	0
3281	0	0
3282	0	0
3283	0	0
3284	0	0
3285	0	0
3286	0	0
3287	0	0
3288	0	0
3289	0	0
3290	0	0
3291	0	0
3292	0	0
3293	0	0
3294	0	0
3295	0	0
3296	0	0
3297	0	0
3298	0	0
3299	0	0
3300	0	0
3301	0	0
3302	0	0
3303	0	0
3304	0	0
3305	0	0
3306	0	0
3307	0	0
3308	0	0
3309	0	0
3310	0	0
3311	0	0
3312	0	0
3313	0	0
3314	0	0
3315	0	0
3316	0	0
3317	0	0
3318	0	0
3319	0	0
3320	0	0
3321	0	0
3322	0	0
3323	0	0
3324	0	0
3325	0	0
3326	0	0
3327	0	0
3328	0	0
3329	0	0
3330	0	0
3331	0	0
3332	0	0
3333	0	0
3334	0	0
3335	0	0
3336	0	0.161626
3337	0	0.569079
3338	0	0
3339	0	0
3340	0	0
3341	0	0
3342	0	0
3343	0	0
3344	0	0
3345	0	0
3346	0	0
3347	0	0
3348	0	0
3349	0	0
3350	0	0
3351	0	0
3352	0	0
3353	0	0
3354	0	0
3355	0	0
3356	0	0
3357	0	0
3358	0	0
3359	0	0
3360	0	0
3361	0	0
3362	0	0
3363	0	0
3364	0	0
3365	0	0
3366	0	0
3367	0	0.476176
3368	0	0.553194
3369	0	0.0935673
3370	0	0.128655
3371	0	0.140351
3372	0	0.140351
3373	0	0.163218
3374	0	0.193732
3375	0	0.647666
3376	0	0.233333
3377	0	0.758333
3378	0	0.74111
3379	0	0.882353
3380	0	0.916898
3381	0	0.918671
3382	0	0.333333
3383	0	1
3384	0	1
3385	0	1
3386	0	1
3387	0	1
3388	0	1
3389	0	1
3390	0	1
3391	0	1
3392	0	1
3393	0	1
3394	0	1
3395	0	1
3396	0	1
3397	0	1
3398	0	1
3399	0	1
3400	0	0.908812
3401	0	0.910484
3402	0	0.910488
3403	0	0.920944
3404	0	0
3405	0	0
3406	0	0
3407	0	0
3408	0	0
3409	0	0
3410	0	0
3411	0	0
3412	0	0
3413	0	0
3414	0	0
3415	0	0
3416	0	0
3417	0	0
3418	0	0
3419	0	0
3420	0	0
3421	0	0
3422	0	0
3423	0	0
3424	0	0
3425	0	0
3426	0	0
3427	0	0
3428	0	0
3429	0	0
3430	0	0
3431	0	0
3432	0	0
3433	0	0
3434	0	0
3435	0	0
3436	0	0
3437	0	0
3438	0	0
3439	0	0
3440	0	0
3441	0	0
3442	0	0
3443	0	0
3444	0	0
3445	0	0
3446	0	0
3447	0	0
3448	0	0
3449	0	0
3450	0	0
3451	0	0
3452	0	0
3453	0	0
3454	0	0
3455	0	0
3456	0	0
3457	0	0
3458	0	0
3459	0	0
3460	0	0
3461	0	0
3462	0	0
3463	0	0
3464	0	0
3465	0	0
3466	0	0
3467	0	0
3468	0	0
3469	0	0
3470	0	0
3471	0	0
3472	0	0
3473	0	0
3474	0	0
3475	0	0
3476	0	0
3477	0	0
3478	0	0
3479	0	0
3480	0	0
3481	0	0
3482	0	0
3483	0	0
3484	0	0
3485	0	0
3486	0	0
3487	0	0
3488	0	0
3489	0	0
3490	0	0
3491	0	0
3492	0	0
3493	0	0
3494	0	0
3495	0	0
3496	0	0
3497	0	0
3498	0	0
3499	0	0
3500	0	0
3501	0	0
3502	0	0
3503	0	0
3504	0	0
3505	0	0
3506	0	0
3507	1	0
3508	0	0
3509	0	0
3510	0	0
3511	1	0
3512	1	0
3513	1	0
3514	1	0
3515	1	0
3516	1	0
3517	1	0
3518	1	0
3519	0	0
3520	0	0
3521	0	0
3522	0	0
3523	0	0
3524	0	0
3525	0	0
3526	0	0
3527	0	0
3528	0	0
3529	0	0
3530	0	0
3531	0	0
3532	0	0
3533	0	0
3534	0	0
3535	0	0
3536	0	0
3537	0	0
3538	0	0
3539	0	0
3540	0	0
3541	0	0
3542	0	0
3543	0	0
3544	0	0
3545	0	0
3546	0	0
3547	0	0
3548	0	0
3549	0	0
3550	0	0
3551	0	0
3552	0	0
3553	0	0
3554	0	0
3555	0	0
3556	0	0
3557	0	0
3558	0	0
3559	0	0
3560	0	0
3561	0	0
3562	0	0
3563	0	0
3564	0	0
3565	0	0
3566	0	0
3567	0	0
3568	0	0
3569	0	0
3570	0	0
3571	0	0
3572	0	0
3573	0	0
3574	0	0
3575	0	0
3576	0	0
3577	0	0
3578	0	0
3579	0	0
3580	0	0
3581	0	0
3582	0	0
3583	0	0
3584	0	0
3585	0	0
3586	0	0
3587	0	0
3588	0	0
3589	0	0
3590	0	0
3591	0	0
3592	0	0
3593	0	0
3594	0	0
3595	0	0
3596	0	0
3597	0	0
3598	0	0
3599	0	0
3600	0	0
3601	0	0
3602	0	0
3603	0	0
3604	0	0
3605	0	0
3606	0	0
3607	0	0
3608	0	0
3609	0	0
3610	0	0
3611	0	0
3612	0	0
3613	0	0
3614	0	0
3615	0	0
3616	0	0
3617	0	0
3618	0	0
3619	0	0
3620	0	0
3621	0	0
3622	0	0
3623	0	0
3624	0	0
3625	0	0
3626	0	0
3627	0	0
3628	0	0
3629	0	0
3630	0	0
3631	0	0
3632	0	0
3633	0	0
3634	0	0
3635	0	0
3636	0	0
3637	0	0
3638	0	0
3639	0	0
3640	0	0
3641	0	0
3642	0	0
3643	0	0
3644	0	0
3645	0	0
3646	0	0
3647	0	0
3648	0	0
3649	0	0
3650	0	0
3651	0	0
3652	0	0
3653	0	0
3654	0	0
3655	0	0
3656	0	0
3657	0	0
3658	0	0
3659	0	0
3660	0	0
3661	0	0
3662	0	0
3663	0	0
3664	0	0
3665	0	0
3666	0	0
3667	0	0
3668	0	0
3669	0	0
3670	0	0
3671	0	0
3672	0	0
3673	0	0
3674	0	0
3675	0	0
3676	0	0
3677	0	0
3678	0	0
3679	0	0
3680	0	0
3681	0	0
3682	0	0
3683	0	0
3684	0	0
3685	0	0
3686	0	0
3687	0	0
3688	0	0
3689	0	0
3690	0	0
3691	0	0
3692	0	0
3693	0	0
3694	0	0
3695	0	0
3696	0	0
3697	0	0
3698	0	0
3699	0	0
3700	0	0
3701	0	0
3702	0	0
3703	0	0
3704	0	0
3705	0	0
3706	0	0
3707	0	0
3708	0	0
3709	0	0
3710	0	0
3711	0	0
3712	0	0
3713	0	0
3714	0	0
3715	0	0
3716	0	0
3717	0	0
3718	0	0
3719	0	0
3720	0	0
3721	0	0
3722	0	0
3723	0	0
3724	0	0
3725	0	0
3726	0	0
3727	0	0
3728	0	0
3729	0	0
3730	0	0
3731	0	0
3732	0	0
3733	0	0
3734	0	0
3735	0	0
3736	0	0
3737	0	0
3738	0	0
3739	0	0
3740	0	0
3741	0	0
3742	0	0
3743	0	0
3744	0	0
3745	0	0
3746	0	0
3747	0	0
3748	0	0
3749	0	0
3750	0	0
3751	0	0
3752	0	0
3753	0	0
3754	0	0
3755	0	0
3756	0	0
3757	0	0
3758	0	0
3759	0	0
3760	0	0.3
3761	0	0.3
3762	0	0.3
3763	0	0.3
3764	0	0.3
3765	0	0.3
3766	0	0.3
3767	0	0.3
3768	0	0.3
3769	0	0.3
3770	0	0.915731
3771	0	0
3772	0	0
3773	0	0
3774	0	0
3775	0	0
3776	0	0
3777	0	0
3778	0	0
3779	0	0
3780	0	0
3781	0	0
3782	0	0
3783	0	0
3784	0	0
3785	0	0
3786	0	0
3787	0	0
3788	0	0
3789	0	0
3790	0	0
3791	0	0
3792	0	0
3793	0	0
3794	0	0
3795	0	0
3796	0	0
3797	0	0
3798	0	0
3799	0	0
3800	0	0
3801	0	0
3802	0	0
3803	0	0
3804	0	0
3805	0	0
3806	0	0
3807	0	0
3808	0	0
3809	0	0
3810	0	0
3811	0	0
3812	0	0
3813	0	0
3814	0	0
3815	0	0
3816	0	0
3817	0	0
3818	0	0
3819	0	0
3820	0	0
3821	0	0
3822	0	0
3823	0	0
3824	0	0
3825	0	0
3826	0	0
3827	0	0
3828	0	0
3829	0	0
3830	0	0
3831	0	0
3832	0	0
3833	0	0
3834	0	0
3835	0	0
3836	0	0
3837	0	0
3838	0	0
3839	0	0
3840	0	0
3841	0	0
3842	0	0
3843	0	0
3844	0	0
3845	0	0
3846	0	0
3847	0	0
3848	0	0
3849	0	0
3850	0	0
3851	0	0
3852	0	0
3853	0	0
3854	0	0
3855	0	0
3856	0	0.929564
3857	0	0.929564
3858	0	0.514706
3859	0	0.514706
3860	0	0.4
3861	0	0.4
3862	0	0.4
3863	0	0.4
3864	0	0.4
3865	0	0.4
3866	0	0.4
3867	0	0.4
3868	0	0.4
3869	0	0.4
3870	0	0.4
3871	0	0.4
3872	0	0.4
3873	0	0.4
3874	0	0.4
3875	0	0.4
3876	0	0.4
3877	0	0.4
3878	0	0.4
3879	0	0.4
3880	0	0.4
3881	0	0.4
3882	0	0.4
3883	0	0.4
3884	0	0.4
3885	0	0.4
3886	0	0.4
3887	0	0.4
3888	0	0.4
3889	0	0.4
3890	0	0.4
3891	0	0.4
3892	0	0.4
3893	0	0.4
3894	0	0.4
3895	0	0.4
3896	0	0.4
3897	0	0.4
3898	0	0.4
3899	0	0.4
3900	0	0.4
3901	0	0.4
3902	0	0.4
3903	0	0.4
3904	0	0.4
3905	0	0.4
3906	0	0.4
3907	0	0.4
3908	0	0.4
3909	0	0.4
3910	0	0.4
3911	0	0.4
3912	0	0.4
3913	0	0.4
3914	0	0.4
3915	0	0.4
3916	0	0.4
3917	0	0.4
3918	0	0.4
3919	0	0.4
3920	0	0.4
3921	0	0.4
3922	0	0.4
3923	0	0.4
3924	0	0.4
3925	0	0.4
3926	0	0.4
3927	0	0.4
3928	0	0.4
3929	0	0.4
3930	0	0.931378
3931	0	0.929664
3932	0	0.903385
3933	0	0.927626
3934	0	0
3935	0	0
3936	0	0
3937	0	0
3938	1	0
3939	0	0
3940	0	0
3941	0	0
3942	0	0
3943	0	0
3944	0	0
3945	0	0
3946	0	0
3947	0	0
3948	0	0
3949	0	0
3950	0	0.5
3951	0	0.5
3952	0	0.5
3953	0	0.5
3954	0	0.5
3955	0	0.5
3956	0	0.6
3957	0	0.6
3958	0	0.6
3959	0	0.6
3960	0	0.6
3961	0	0.6
3962	0	0.6
3963	0	0.6
3964	0	0.6
3965	0	0.6
3966	0	0.944809
3967	0	0.463458
3968	0	0.8808
3969	0	0.880588
3970	0	0.863584
3971	0	0
3972	0	0
3973	0	0
3974	0	0
3975	0	0
3976	0	0
3977	0	0
3978	0	0
3979	0	0
3980	0	0
3981	0	0
3982	0	0
3983	0	0
3984	0	0
3985	0	0
3986	0	0
3987	0	0
3988	0	0
3989	0	0
3990	0	0
3991	0	0
3992	0	0
3993	0	0
3994	0	0
3995	0	0
3996	0	0
3997	0	0
3998	0	0
3999	0	0
4000	0	0
4001	0	0
4002	0	0
4003	0	0
4004	0	0
4005	0	0
4006	0	0
4007	0	0
4008	0	0
4009	0	0
4010	0	0
4011	0	0
4012	0	0
4013	0	0
4014	0	0
4015	0	0
4016	0	0
4017	0	0
4018	0	0
4019	0	0
4020	0	0
4021	0	0
4022	0	0
4023	0	0
4024	0	0
4025	0	0
4026	0	0
4027	0	0
4028	0	0
4029	0	0
4030	0	0
4031	0	0
4032	0	0
4033	0	0
4034	0	0
4035	0	0
4036	0	0
4037	0	0
4038	0	0
4039	0	0
4040	0	0
4041	0	0
4042	0	0
4043	0	0
4044	0	0
4045	0	0
4046	0	0
4047	0	0
4048	0	0
4049	0	0
4050	0	0
4051	0	0
4052	0	0
4053	0	0
4054	0	0
4055	0	0
4056	0	0
4057	0	0
4058	0	0
4059	0	0
4060	0	0
4061	0	0
4062	0	0
4063	0	0
4064	0	0
4065	0	0
4066	0	0
4067	0	0
4068	0	0
4069	0	0
4070	0	0
4071	0	0
4072	0	0
4073	0	0
4074	0	0
4075	0	0
4076	0	0
4077	0	0.87522
4078	0	0.969851
4079	0	0.708456
4080	0	0.753321
4081	0	0.691603
4082	0	0.904762
4083	0	0.274074
4084	0	0.371795
4085	0	0.194444
4086	0	0.183007
4087	0	0.161905
4088	0	0.261905
4089	0	0.557895
4090	0	0.544615
4091	0	0.407692
4092	0	0
4093	0	0
4094	0	0
4095	0	0
4096	0	0
4097	0	0
4098	0	0
4099	0	0
4100	0	0
4101	0	0
4102	0	0
4103	0	0
4104	0	0
4105	0	0
4106	0	0
4107	0	0
4108	0	0
4109	0	0
4110	0	0
4111	0	0
4112	0	0
4113	0	0
4114	0	0
4115	0	0
4116	0	0
4117	0	0
4118	0	0
4119	0	0
4120	0	0
4121	0	0
4122	0	0
4123	0	0
4124	0	0
4125	0	0
4126	0	0
4127	0	0
4128	0	0
4129	0	0
4130	0	0.166667
4131	0	0.166667
4132	0	0.166667
4133	0	0.133333
4134	0	0.133333
4135	0	0.133333
4136	0	0.133333
4137	0	0.133333
4138	0	0.133333
4139	0	0.133333
4140	0	0.133333
4141	0	0.133333
4142	0	0.133333
4143	0	0.133333
4144	0	0.133333
4145	0	0.133333
4146	0	0.133333
4147	0	0.133333
4148	0	0.133333
4149	0	0.1
4150	0	0.1
4151	0	0.1
4152	0	0.0952381
4153	0	0.0714286
4154	0	0.0555556
4155	0	0.0545455
4156	0	0.0512821
4157	0	0.240774
4158	0	0.286623
4159	0	0.400222
4160	0	0.122333
4161	0	0.0953058
4162	0	0.227215
4163	0	0
4164	0	0
4165	0	0
4166	0	0
4167	0	0
4168	0	0
4169	0	0
4170	0	0
4171	0	0
4172	0	0
4173	0	0
4174	0	0
4175	0	0
4176	0	0
4177	0	0
4178	0	0
4179	0	0
4180	0	0
4181	0	0
4182	0	0
4183	0	0
4184	0	0
4185	0	0
4186	0	0
4187	0	0
4188	0	0
4189	0	0
4190	0	0
4191	0	0
4192	0	0
4193	0	0
4194	0	0
4195	0	0
4196	0	0
4197	0	0
4198	0	0
4199	0	0
4200	0	0
4201	0	0
4202	0	0
4203	0	0
4204	0	0
4205	0	0
4206	0	0
4207	0	0
4208	0	0
4209	0	0
4210	0	0
4211	0	0
4212	0	0
4213	0	0
4214	0	0
4215	0	0
4216	0	0
4217	0	0
4218	0	0
4219	0	0
4220	0	0
4221	0	0
4222	0	0
4223	0	0
4224	0	0
4225	0	0
4226	0	0
4227	0	0
4228	0	0
4229	0	0
4230	0	0
4231	0	0
4232	0	0
4233	0	0
4234	0	0
4235	0	0
4236	0	0
4237	0	0
4238	0	0
4239	0	0
4240	0	0
4241	0	0
4242	0	0
4243	0	0
4244	0	0
4245	0	0
4246	0	0
4247	0	0
4248	0	0
4249	0	0
4250	0	0
4251	0	0
4252	0	0
4253	0	0
4254	0	0
4255	0	0
4256	0	0
4257	0	0
4258	0	0
4259	0	0
4260	0	0
4261	0	0
4262	0	0
4263	0	0
4264	0	0
4265	0	0
4266	0	0
4267	0	0
4268	0	0
4269	0	0
4270	0	0
4271	0	0
4272	0	0
4273	0	0
4274	0	0
4275	0	0
4276	0	0
4277	0	0
4278	0	0
4279	0	0
4280	0	0
4281	0	0
4282	0	0
4283	0	0
4284	0	0
4285	0	0
4286	0	0
4287	0	0
4288	0	0
4289	0	0
4290	0	0
4291	0	0
4292	0	0
4293	0	0
4294	0	0
4295	0	0
4296	0	0
4297	0	0
4298	0	0
4299	0	0
4300	0	0
4301	0	0
4302	0	0
4303	0	0
4304	0	0
4305	0	0
4306	0	0
4307	0	0
4308	0	0
4309	0	0
4310	0	0
4311	0	0
4312	0	0
4313	0	0
4314	0	0
4315	0	0
4316	0	0
4317	0	0
4318	0	0
4319	0	0
4320	0	0
4321	0	0
4322	0	0
4323	0	0
4324	0	0
4325	0	0
4326	0	0
4327	0	0
4328	0	0
4329	0	0
4330	0	0
4331	0	0
4332	0	0
4333	0	0
4334	0	0
4335	0	0
4336	0	0
4337	0	0
4338	0	0
4339	0	0
4340	0	0
4341	0	0
4342	0	0
4343	0	0
4344	0	0
4345	0	0
4346	0	0
4347	0	0
4348	0	0
4349	0	0
4350	0	0
4351	0	0
4352	0	0
4353	0	0
4354	0	0
4355	0	0
4356	0	0
4357	0	0
4358	0	0
4359	0	0
4360	0	0
4361	0	0
4362	0	0
4363	0	0
4364	0	0
4365	0	0
4366	0	0
4367	0	0
4368	0	0
4369	0	0
4370	0	0
4371	0	0
4372	0	0
4373	0	0
4374	0	0
4375	0	0
4376	0	0
4377	0	0
4378	0	0
4379	0	0
4380	0	0
4381	0	0
4382	0	0
4383	0	0
4384	0	0
4385	0	0
4386	0	0
4387	0	0
4388	0	0.2
4389	0	0.2
4390	0	0.2
4391	0	0.2
4392	0	0.2
4393	0	0.107143
4394	0	0.0833333
4395	0	0.0727273
4396	0	0.0727273
4397	0	0.0727273
4398	0	0.0641026
4399	0	0.0588235
4400	0	0.0588235
4401	0	0.0522876
4402	0	0.0522876
4403	0	0.0473684
4404	0	0.0473684
4405	0	0.445763
4406	0	0.356453
4407	0	0.346121
4408	0	0.335404
4409	0	0.278055
4410	0	0.246841
4411	0	0.218335
4412	0	0.198124
4413	0	0.17899
4414	0	0.153059
4415	0	0.128058
4416	0	0.11542
4417	0	0.105188
4418	0	0.0941142
4419	0	0.0807869
4420	0	0.0623585
4421	0	0.0610415
4422	0	0.055298
4423	0	0.0912928
4424	0	0.0489189
4425	0	0.036478
4426	0	0.0345574
4427	0	0.0327077
4428	0	0.027987
4429	0	0.0292986
4430	0	0.0326067
4431	0	0.0439794
4432	0	0.0412738
4433	0	0.0398158
4434	0	0.0487262
4435	0	0.0461778
4436	0	0.0418263
4437	0	0.0407045
4438	0	0.0444907
4439	0	0.0702299
4440	0	0.0141026
4441	0	0.0192308
4442	0	0.0217949
4443	0	0.0269231
4444	0	0.0282051
4445	0	0.0333333
4446	0	0.0280488
4447	0	0.0278746
4448	0	0.0982029
4449	0	0.0973332
4450	0	0.116161
4451	0	0.028303
4452	0	0.030943
4453	0	0.0283124
4454	0	0.0264607
4455	0	0.0249441
4456	0	0.0252008
4457	0	0.0223396
4458	0	0.0236235
4459	0	0.0264114
4460	0	0.026181
4461	0	0.0348365
4462	0	0.111186
4463	0	0.0389336
4464	0	0.0386357
4465	0	0.0384606
4466	0	0.0376849
4467	0	0.040401
4468	0	0.0395405
4469	0	0.0392974
4470	0	0.0384925
4471	0	0.034468
4472	0	0.0329239
4473	0	0.0287584
4474	0	0.0816573
4475	0	0.0769231
4476	0	0.075935
4477	0	0.0889109
4478	0	0.091818
4479	0	0.0380863
4480	0	0.032461
4481	0	0.0240162
4482	0	0.0260235
4483	0	0.0260127
4484	0	0.0157251
4485	0	0.0182099
4486	0	0.0192521
4487	0	0.0257937
4488	0	0.0296431
4489	0	0.0272727
4490	0	0.0309764
4491	0	0.0368627
4492	0	0.0329412
4493	0	0.0321569
4494	0	0.030303
4495	0	0.0310078
4496	0	0.0336818
4497	0	0.0333333
4498	0	0.036036
4499	0	0.00738916
4500	0	0.00738916
4501	0	0.00738916
4502	0	0.00738916
4503	0	0.00569801
4504	0	0.00569801
4505	0	0.00569801
4506	0	0.00569801
4507	0	0.00615385
4508	0	0.00615385
4509	0	0.00666667
4510	0	0.00666667
4511	0	0.00666667
4512	0	0.00666667
4513	0	0.00666667
4514	0	0.00666667
4515	0	0.00666667
4516	0	0.00666667
4517	0	0.00666667
4518	0	0.00666667
4519	0	0.00666667
4520	0	0.00666667
4521	0	0.00666667
4522	0	0.00615385
4523	0	0.00615385
4524	0	0.00615385
4525	0	0.0232558
4526	0	0.0219512
4527	0	0.188076
4528	0	0.184901
4529	0	0.157964
4530	0	0.0358974
4531	0	0.175951
4532	0	0.229779
4533	0	0.113009
4534	0	0.0965222
4535	0	0.0891836
4536	0	0.0773877
4537	0	0.224774
4538	0	0.010628
4539	0	0.0128205
4540	0	0.0128205
4541	0	0.0128205
4542	0	0.0128205
4543	0	0.0151515
4544	0	0.0181818
4545	0	0.0277778
4546	0	0.0277778
4547	0	0.0277778
4548	0	0.0357143
4549	0	0.0357143
4550	0	0.0357143
4551	0	0.047619
4552	0	0.0666667
4553	0	0.0666667
4554	0	0.0666667
4555	0	0.0666667
4556	0	0.0208333
4557	0	0.0241935
4558	0	0.0241935
4559	0	0.0221774
4560	0	0.0879676
4561	0	0.0731663
4562	0	0.030303
4563	0	0.0444444
4564	0	0.0555556
4565	0	0.0555556
4566	0	0.0555556
4567	0	0.0555556
4568	0	0.0555556
4569	0	0.0555556
4570	0	0.0555556
4571	0	0
4572	0	0
4573	0	0
4574	0	0
4575	0	0
4576	0	0
4577	0	0
4578	0	0
4579	0	0
4580	0	0
4581	0	0
4582	0	0
4583	0	0
4584	0	0
4585	0	0
4586	0	0
4587	0	0
4588	0	0
4589	0	0
4590	0	0
4591	0	0
4592	0	0
4593	0	0
4594	0	0.277778
4595	0	0.222222
4596	0	0.222222
4597	0	0.214286
4598	0	0.214286
4599	0	0.214286
4600	0	0.214286
4601	0	0.214286
4602	0	0.142857
4603	0	0.142857
4604	0	0.142857
4605	0	0.142857
4606	0	0.142857
4607	0	0.142857
4608	0	0.142857
4609	0	0.142857
4610	0	0.142857
4611	0	0.0888889
4612	0	0.0833333
4613	0	0.0545455
4614	0	0.0545455
4615	0	0.0545455
4616	0	0.0545455
4617	0	0.0727273
4618	0	0.0727273
4619	0	0.0727273
4620	0	0
4621	0	0
4622	0	0
4623	0	0
4624	0	0
4625	0	0
4626	0	0
4627	0	0
4628	0	0
4629	0	0
4630	0	0
4631	0	0
4632	0	0
4633	0	0
4634	0	0
4635	0	0
4636	0	0
4637	0	0
4638	0	0
4639	0	0
4640	0	0
4641	0	0
4642	0	0
4643	0	0
4644	0	0
4645	0	0
4646	0	0
4647	0	0
4648	0	0.0666667
4649	0	0.0666667
4650	0	0.0833333
4651	0	0.0727273
4652	0	0.0727273
4653	0	0.0888889
4654	0	0.0888889
4655	0	0.0727273
4656	0	0.0606061
4657	0	0.0512821
4658	0	0.047619
4659	0	0.0761905
4660	0	0.0684555
4661	0	0
4662	0	0
4663	0	0
4664	0	0.0714286
4665	0	0.0545455
4666	0	0.030303
4667	0	0.0586763
4668	0	0.0656787
4669	0	0.155556
4670	0	0.127273
4671	0	0.0727273
4672	0	0.0363636
4673	0	0.0545455
4674	0	0.0372853
4675	0	0.0553836
4676	0	0.0569315
4677	0	0.0748071
4678	0	0.375494
4679	0	0.1
4680	0	0.166667
4681	0	0.166667
4682	0	0.166667
4683	0	0.166667
4684	0	0.1
4685	0	0.1
4686	0	0.1
4687	0	0.1
4688	0	0.1
4689	0	0.1
4690	0	0.1
4691	0	0.1
4692	0	0.1
4693	0	0.1
4694	0	0.1
4695	0	0.1
4696	0	0.1
4697	0	0.1
4698	0	0.1
4699	0	0.1
4700	0	0.1
4701	0	0.1
4702	0	0.1
4703	0	0.1
4704	0	0.1
4705	0	0.1
4706	0	0.1
4707	0	0.1
4708	0	0.1
4709	0	0.1
4710	0	0.1
4711	0	0.1
4712	0	0.1
4713	0	0.1
4714	0	0.1
4715	0	0.1
4716	0	0.1
4717	0	0.1
4718	0	0.1
4719	0	0.1
4720	0	0.1
4721	0	0.1
4722	0	0.1
4723	0	0.1
4724	0	0.1
4725	0	0.1
4726	0	0.1
4727	0	0.1
4728	0	0.1
4729	0	0.1
4730	0	0.1
4731	0	0.1
4732	0	0.1
4733	0	0.1
4734	0	0.1
4735	0	0.1
4736	0	0.0666667
4737	0	0.0666667
4738	0	0.0666667
4739	0	0.0666667
4740	0	0.0666667
4741	0	0.0666667
4742	0	0.0666667
4743	0	0.0666667
4744	0	0.0666667
4745	0	0.0666667
4746	0	0.1
4747	0	0.1
4748	0	0.1
4749	0	0.1
4750	0	0.1
4751	0	0.1
4752	0	0.0666667
4753	0	0.0666667
4754	0	0.0666667
4755	0	0.0666667
4756	0	0.0666667
4757	0	0.0666667
4758	0	0.0666667
4759	0	0.0666667
4760	0	0.0666667
4761	0	0.0666667
4762	0	0.0666667
4763	0	0.0666667
4764	0	1
4765	0	1
4766	0	1
4767	0	1
4768	0	1
4769	0	1
4770	1	1
4771	1	1
4772	1	1
4773	1	1
4774	1	1
4775	0	0.333333
4776	0	1
4777	0	1
4778	0	1
4779	0	1
4780	0	1
4781	0	1
4782	0	1
4783	0	1
4784	0	1
4785	0	1
4786	0	1
4787	0	0.0666667
4788	0	0.0666667
4789	0	0.047619
4790	0	0.047619
4791	0	0.047619
4792	0	0.047619
4793	0	0.0666667
4794	0	0.0666667
4795	0	0.0666667
4796	0	0.0666667
4797	0	0.0666667
4798	0	0.0666667
4799	0	0.0666667
4800	0	0.0666667
4801	0	0.0666667
4802	0	0.0666667
4803	0	0.0666667
4804	0	0.0666667
4805	0	0.0666667
4806	0	0.0666667
4807	0	0.0666667
4808	0	0.0666667
4809	0	0.0666667
4810	0	0.0666667
4811	0	0.0666667
4812	0	0.0666667
4813	0	0.0666667
4814	0	0.0666667
4815	0	0.0666667
4816	0	0.0666667
4817	0	0.0666667
4818	0	0.0666667
4819	0	0.0666667
4820	0	0.0666667
4821	0	0.0666667
4822	0	0.0666667
4823	0	0.0666667
4824	0	0.0666667
4825	0	0.0666667
4826	0	0.0666667
4827	0	0.0666667
4828	0	0.0666667
4829	0	0.0666667
4830	0	0.0666667
4831	0	0.0666667
4832	0	0.0666667
4833	0	0.0666667
4834	0	0.0666667
4835	0	0.0666667
4836	0	0.0714286
4837	0	0.0714286
4838	0	0.0444444
4839	0	0.0181818
4840	0	0.0181818
4841	0	0.425403
4842	0	0.359664
4843	0	0.359664
4844	0	0.339683
4845	0	0.322823
4846	0	0.322823
4847	0	0.322823
4848	0	0.305832
4849	0	0.322823
4850	0	0.322823
4851	0	0.322823
4852	0	0.290148
4853	0	0.290148
4854	0	0.232323
4855	0	0.29596
4856	0	0.29596
4857	0	0.271045
4858	0	0.119677
4859	0	0.0478723
4860	0	0.0425532
4861	0	0.0505319
4862	0	0.052729
4863	0	0.0505319
4864	0	0.0496454
4865	0	0.0496454
4866	0	0.047619
4867	0	0.0377104
4868	0	0.037013
4869	0	0.0338778
4870	0	0.0315605
4871	0	0.0347222
4872	0	0.0563291
4873	0	0.0604938
4874	0	0.0485961
4875	0	0.0498957
4876	0	0.0344825
4877	0	0.0338277
4878	0	0.0364676
4879	0	0.038944
4880	0	0.0332709
4881	0	0.0332603
4882	0	0.0315507
4883	0	0.0291538
4884	0	0.0245187
4885	0	0.023499
4886	0	0.0555556
4887	0	0.0714286
4888	0	0.0714286
4889	0	0.0666667
4890	0	0.1
4891	0	0.0201258
4892	0	0.0218182
4893	0	0.0252701
4894	0	0.025973
4895	0	0.0280543
4896	0	0.0279146
4897	0	0.0320245
4898	0	0.031235
4899	0	0.0342765
4900	0	0.0381122
4901	0	0.0430072
4902	0	0.0469841
4903	0	0.0215054
4904	0	0.0240041
4905	0	0.028907
4906	0	0.0336842
4907	0	0.0347222
4908	0	0.0363543
4909	0	0.039548
4910	0	0.0438596
4911	0	0.0530612
4912	0	0.0576241
4913	0	0.0518039
4914	0	0.0535354
4915	0	0.0620155
4916	0	0.0782361
4917	0	0.0806452
4918	0	0.0806452
4919	0	0.0978836
4920	0	0.0526316
4921	0	0.0526316
4922	0	0.0588235
4923	0	0.0661765
4924	0	0.075
4925	0	0.075
4926	0	0.05
4927	0	0.05
4928	0	0.05
4929	0	0.05
4930	0	0.0666667
4931	0	0.0666667
4932	0	0.0666667
4933	0	0.0666667
4934	0	0.0666667
4935	0	0.0666667
4936	0	0.0666667
4937	0	0.0666667
4938	0	0.0714286
4939	0	0.0714286
4940	0	0.0666667
4941	0	0.0666667
4942	0	0.0666667
4943	0	0.0666667
4944	0	0.0666667
4945	0	0.0666667
4946	0	0.0606061
4947	0	0.0606061
4948	0	0.0606061
4949	0	0.106061
4950	0	0.106061
4951	0	0.106061
4952	0	0.106061
4953	0	0.127273
4954	0	0.127273
4955	0	0.127273
4956	0	0.127273
4957	0	0.155556
4958	0	0.194444
4959	0	0.194444
4960	0	0.194444
4961	0	0.194444
4962	0	0.194444
4963	0	0.194444
4964	0	0.194444
4965	0	0.194444
4966	0	0.194444
4967	0	0.194444
4968	0	0.194444
4969	0	0.194444
4970	0	0.194444
4971	0	0.194444
4972	0	0.194444
4973	0	0.194444
4974	0	0.194444
4975	0	0.194444
4976	0	0.194444
4977	0	0.194444
4978	0	0.194444
4979	0	0.194444
4980	0	0.194444
4981	0	0.194444
4982	0	0.194444
4983	0	0.194444
4984	0	0.194444
4985	0	0.194444
4986	0	0.194444
4987	0	0.194444
4988	0	0.194444
4989	0	0.194444
4990	0	0.194444
4991	0	0.25
4992	0	0.25
4993	0	0.25
4994	0	0.25
4995	0	0.285714
4996	0	0.285714
4997	0	0.285714
4998	0	0
4999	0	0
5000	0	0
5001	0	0.142857
5002	0	0.142857
5003	0	0.142857
5004	0	0.142857
5005	0	0.142857
5006	0	0.142857
5007	0	0.142857
5008	0	0.107143
5009	0	0.107143
5010	0	0.107143
5011	0	0.107143
5012	0	0.107143
5013	0	0.107143
5014	0	0.107143
5015	0	0.107143
5016	0	0.107143
5017	0	0.107143
5018	0	0.142857
5019	0	0.286765
5020	0	0.286765
5021	0	0.325
5022	0	0.142857
5023	0	0.503556
5024	0	0.417112
5025	0	0.336032
5026	0	0.193846
5027	0	0.0833333
5028	0	0.0833333
5029	0	0.107143
5030	0	0.107143
5031	0	0.107143
5032	0	0.107143
5033	0	0.107143
5034	0	0.107143
5035	0	0.109091
5036	0	0.109091
5037	0	0.109091
5038	0	0.142857
5039	0	0.142857
5040	0	0.107143
5041	0	0.107143
5042	0	0.107143
5043	0	0.107143
5044	0	0.142857
5045	0	0.142857
5046	0	0.142857
5047	0	0.142857
5048	0	0.142857
5049	0	0.142857
5050	0	0.0666667
5051	0	0.166667
5052	0	0.166667
5053	0	0.166667
5054	0	0.166667
5055	0	0.166667
5056	0	0.166667
5057	0	0.166667
5058	0	0.166667
5059	0	0.166667
5060	0	0
5061	0	0
5062	0	0
5063	0	0
5064	0	0
5065	0	0
5066	0	0
5067	0	0
5068	0	0
5069	0	0
5070	0	0
5071	0	0
5072	0	0
5073	0	0
5074	0	0
5075	0	0
5076	0	0
5077	0	0
5078	0	0
5079	0	0
5080	0	0
5081	0	0
5082	0	0
5083	0	0
5084	0	0
5085	0	0
5086	0	0
5087	0	0
5088	0	0
5089	0	0
5090	0	0
5091	0	0
5092	0	0
5093	0	0
5094	0	0
5095	0	0
5096	0	0
5097	0	0
5098	0	0
5099	0	0
5100	0	0
5101	0	0
5102	0	0
5103	0	0
5104	0	0
5105	0	0
5106	0	0
5107	0	0
5108	0	0
5109	0	0
5110	0	0
5111	0	0
5112	0	0
5113	0	0
5114	0	0
5115	0	0.333333
5116	0	0.333333
5117	0	0.333333
5118	0	0.333333
5119	0	0.333333
5120	0	0.333333
5121	0	0.333333
5122	0	0.333333
5123	0	0.333333
5124	0	0.333333
5125	0	0.333333
5126	0	0.333333
5127	0	0.333333
5128	0	0.333333
5129	0	0.333333
5130	0	0.333333
5131	0	0.333333
5132	0	0.333333
5133	0	0.333333
5134	0	0.333333
5135	0	0.333333
5136	0	0.333333
5137	0	0.333333
5138	0	0.333333
5139	0	0.333333
5140	0	0.333333
5141	0	0.333333
5142	0	0.333333
5143	0	0.333333
5144	0	0.333333
5145	0	0.333333
5146	0	0.333333
5147	0	0.333333
5148	0	0.333333
5149	0	0.333333
5150	0	0.333333
5151	0	0.333333
5152	0	0.333333
5153	0	0.333333
5154	0	0.333333
5155	0	0.333333
5156	0	0.333333
5157	0	0.333333
5158	0	0.333333
5159	0	0.333333
5160	0	0.333333
5161	0	0.333333
5162	0	0.333333
5163	0	0.333333
5164	0	0.166667
5165	0	0.166667
5166	0	0.166667
5167	0	0.166667
5168	0	0.166667
5169	0	0.166667
5170	0	0.333333
5171	0	0.333333
5172	0	0.333333
5173	0	0.333333
5174	0	0.333333
5175	0	0.333333
5176	0	0.333333
5177	0	0.333333
5178	0	0.333333
5179	0	0.333333
5180	0	0.333333
5181	0	0.333333
5182	0	0.333333
5183	0	0.333333
5184	0	0.333333
5185	0	0.333333
5186	0	0.333333
5187	0	0.333333
5188	0	0.333333
5189	0	0.333333
5190	0	0.333333
5191	0	0.333333
5192	0	0.333333
5193	0	0.333333
5194	0	0.333333
5195	0	0.333333
5196	0	0.333333
5197	0	0.333333
5198	0	0.333333
5199	0	0.333333
5200	0	0.333333
5201	0	0.333333
5202	0	0.333333
5203	0	0.333333
5204	0	0.333333
5205	0	0.333333
5206	0	0.333333
5207	0	0.333333
5208	0	0.333333
5209	0	0.333333
5210	0	0.333333
5211	0	0.333333
5212	0	0.333333
5213	0	0.333333
5214	0	0.333333
5215	0	0.333333
5216	0	0.333333
