Site	ColumnScore	SumOfPairsScore
1	1	0
2	1	0
3	1	0
4	1	0
5	1	0
6	1	0
7	1	0
8	1	0
9	1	0
10	1	0
11	1	0
12	1	0
13	1	0
14	1	0
15	1	0
16	1	0
17	1	0
18	1	0
19	1	0
20	1	0
21	1	0
22	1	0
23	1	0
24	1	0
25	1	0
26	1	0
27	1	0
28	1	0
29	1	0
30	1	0
31	1	0
32	1	0
33	1	0
34	1	0
35	1	0
36	1	0
37	1	0
38	1	0
39	1	0
40	1	0
41	1	0
42	1	0
43	1	0
44	1	0
45	1	0
46	1	0
47	1	0
48	1	0
49	1	0
50	1	0
51	1	0
52	1	0
53	1	0
54	1	0
55	1	0
56	1	0
57	1	0
58	1	0
59	1	0
60	1	0
61	1	0
62	1	0
63	1	0
64	1	0
65	1	0
66	1	0
67	1	0
68	1	0
69	1	0
70	1	0
71	1	0
72	1	0
73	1	0
74	1	0
75	1	0
76	1	0
77	1	0
78	1	0
79	1	0
80	1	0
81	1	0
82	1	0
83	1	0
84	1	0
85	1	0
86	1	0
87	1	0
88	1	0
89	1	0
90	1	0
91	1	0
92	1	0
93	1	0
94	1	0
95	1	0
96	1	0
97	1	0
98	1	0
99	1	0
100	1	0
101	1	0
102	1	0
103	1	0
104	1	0
105	1	0
106	1	0
107	1	0
108	1	0
109	1	0
110	1	0
111	1	0
112	1	0
113	1	0
114	1	0
115	1	0
116	1	0
117	1	0
118	1	0
119	1	0
120	1	0
121	1	0
122	1	0
123	1	0
124	1	0
125	1	0
126	1	0
127	1	0
128	1	0
129	1	0
130	1	0
131	1	0
132	1	0
133	1	0
134	1	0
135	1	0
136	1	0
137	1	0
138	1	0
139	1	0
140	1	0
141	1	0
142	1	0
143	1	0
144	1	0
145	1	0
146	1	0
147	1	0
148	1	0
149	1	0
150	1	0
151	1	0
152	1	0
153	1	0
154	1	0
155	1	0
156	1	0
157	1	0
158	1	0
159	1	0
160	1	0
161	1	0
162	1	0
163	1	0
164	1	0
165	1	0
166	1	0
167	1	0
168	1	0
169	1	0
170	1	0
171	1	0
172	1	0
173	1	0
174	1	0
175	1	0
176	1	0
177	1	0
178	1	0
179	1	0
180	1	0
181	1	0
182	1	0
183	1	0
184	1	0
185	1	0
186	1	0
187	1	0
188	1	0
189	1	0
190	1	0
191	1	0
192	1	0
193	1	0
194	1	0
195	1	0
196	1	0
197	1	0
198	1	0
199	1	0
200	1	0
201	1	0
202	1	0
203	1	0
204	1	0
205	1	0
206	1	0
207	1	0
208	1	0
209	1	0
210	1	0
211	1	0
212	1	0
213	1	0
214	1	0
215	1	0
216	1	0
217	1	0
218	1	0
219	1	0
220	1	0
221	1	0
222	1	0
223	1	0
224	1	0
225	1	0
226	1	0
227	1	0
228	1	0
229	1	0
230	1	0
231	1	0
232	1	0
233	1	0
234	1	0
235	1	0
236	1	0
237	1	0
238	1	0
239	1	0
240	1	0
241	1	0
242	1	0
243	1	0
244	1	0
245	1	0
246	1	0
247	1	0
248	1	0
249	1	0
250	1	0
251	1	0
252	1	0
253	1	0
254	1	0
255	1	0
256	1	0
257	1	0
258	1	0
259	1	0
260	1	0
261	1	0
262	1	0
263	1	0
264	1	0
265	1	0
266	1	0
267	1	0
268	1	0
269	1	0
270	1	0
271	1	0
272	1	0
273	1	0
274	1	0
275	1	0
276	1	0
277	1	0
278	1	0
279	1	0
280	1	0
281	1	0
282	1	0
283	1	0
284	1	0
285	1	0
286	1	0
287	1	0
288	1	0
289	1	0
290	1	0
291	1	0
292	1	0
293	1	0
294	1	0
295	1	0
296	1	0
297	1	0
298	1	0
299	1	0
300	1	0
301	1	0
302	1	0
303	1	0
304	1	0
305	1	0
306	1	0
307	1	0
308	1	0
309	1	0
310	1	0
311	1	0
312	1	0
313	1	0
314	1	0
315	1	0
316	1	0
317	1	0
318	1	0
319	1	0
320	1	0
321	1	0
322	1	0
323	1	0
324	1	0
325	0	0
326	0	0
327	0	0
328	0	0
329	0	0
330	0	0
331	0	0
332	0	0
333	0	0
334	0	0
335	0	0
336	0	0
337	0	0
338	0	0
339	0	0
340	0	0
341	0	0
342	0	0
343	0	0
344	0	0
345	0	0
346	0	0
347	0	0
348	0	0
349	1	0
350	0	0
351	0	0
352	0	0
353	0	0
354	0	0
355	0	0
356	0	0
357	0	0
358	0	0
359	0	0
360	0	0
361	0	0
362	0	0
363	0	0
364	0	0
365	0	0
366	0	0
367	0	0
368	0	0
369	0	0
370	0	0
371	0	0
372	0	0
373	1	0
374	1	0
375	1	0
376	1	0
377	1	0
378	1	0
379	1	0
380	1	0
381	1	0
382	1	0
383	0	0
384	0	0
385	0	0
386	0	0
387	0	0
388	0	0
389	0	0
390	0	0
391	0	0
392	0	0
393	0	0
394	0	0
395	0	0
396	0	0
397	0	0
398	0	0
399	0	0
400	0	0
401	0	0
402	0	0
403	0	0
404	0	0
405	0	0
406	0	0
407	0	0
408	0	0
409	0	0
410	0	0
411	0	0
412	0	0
413	0	0
414	0	0
415	0	0
416	0	0
417	0	0
418	0	0
419	1	0
420	1	0
421	1	0
422	1	0
423	1	0
424	1	0
425	0	0
426	0	0
427	0	0
428	0	0
429	0	0
430	0	0
431	0	0
432	0	0
433	0	0
434	0	0
435	0	0
436	0	0
437	0	0
438	0	0
439	0	0
440	0	0
441	0	0
442	0	0
443	0	0
444	0	0
445	0	0
446	0	0
447	0	0
448	0	0
449	0	0
450	0	0
451	0	0
452	0	0
453	0	0
454	0	0
455	0	0
456	0	0
457	0	0
458	0	0
459	0	0
460	0	0
461	0	0
462	0	0
463	0	0
464	0	0
465	0	0
466	0	0
467	0	0
468	0	0
469	0	0
470	0	0
471	0	0
472	0	0
473	0	0
474	0	0
475	0	0
476	0	0
477	0	0
478	0	0
479	0	0
480	0	0
481	0	0
482	0	0
483	0	0
484	1	0
485	1	0
486	1	0
487	1	0
488	1	0
489	1	0
490	1	0
491	1	0
492	1	0
493	1	0
494	1	0
495	1	0
496	1	0
497	1	0
498	0	0.333333
499	0	0.333333
500	0	0.333333
501	0	0.333333
502	0	0.333333
503	0	0.333333
504	0	0.333333
505	0	0.333333
506	0	0.333333
507	0	0.333333
508	0	0.333333
509	0	0.333333
510	0	0.333333
511	0	0.333333
512	0	0.333333
513	0	0.333333
514	0	0.333333
515	0	0.333333
516	0	0.333333
517	0	0.333333
518	0	0.333333
519	0	0.333333
520	0	0.333333
521	0	0.333333
522	0	0.333333
523	0	0.333333
524	0	0.333333
525	0	0.333333
526	0	0.333333
527	0	0.333333
528	0	0.333333
529	0	0.333333
530	0	0.333333
531	0	0.333333
532	0	0.333333
533	0	0.333333
534	0	0.333333
535	0	0.333333
536	0	0.333333
537	0	0.333333
538	0	0.333333
539	0	0.333333
540	0	0.333333
541	0	0.333333
542	0	0.333333
543	0	0.333333
544	0	0.333333
545	0	0.333333
546	0	0.333333
547	0	0.333333
548	0	0.333333
549	0	0.333333
550	0	0.333333
551	0	0.333333
552	0	0.333333
553	0	0.333333
554	0	0.333333
555	0	0.333333
556	0	0.333333
557	0	0.333333
558	0	0.333333
559	0	0.333333
560	0	0.333333
561	0	0.333333
562	0	0.333333
563	0	0.333333
564	0	0.333333
565	0	0.333333
566	0	0.333333
567	0	0.333333
568	0	0.333333
569	0	0.333333
570	0	0.333333
571	0	0.333333
572	0	0.333333
573	0	0.333333
574	0	0.333333
575	0	0.333333
576	0	0.333333
577	0	0.333333
578	0	0.333333
579	0	0.333333
580	0	0.333333
581	0	0.333333
582	0	0.333333
583	0	0.333333
584	0	0.333333
585	0	0.333333
586	0	0.333333
587	0	0.333333
588	0	0.333333
589	0	0
590	0	0
591	0	0
592	0	0
593	0	0
594	0	0
595	0	0
596	0	0
597	0	0
598	0	0
599	0	0
600	0	0
601	0	0
602	0	0
603	0	0
604	0	0
605	0	0
606	0	0
607	0	0
608	0	0
609	0	0
610	0	0
611	0	0
612	0	0
613	0	0
614	0	0
615	0	0
616	0	0
617	0	0
618	0	0
619	0	0
620	0	0
621	0	0
622	0	0
623	0	0
624	0	0
625	0	0
626	0	0
627	0	0
628	0	0
629	0	0
630	0	0
631	0	0
632	0	0
633	0	0
634	0	0
635	0	0
636	0	0
637	0	0
638	0	0
639	0	0
640	0	0
641	0	0
642	0	0
643	0	0
644	0	0
645	0	0
646	0	0
647	0	0
648	0	0
649	0	0
650	0	0
651	0	0
652	0	0
653	0	0
654	0	0
655	0	0
656	0	0
657	0	0
658	0	0
659	0	0
660	0	0
661	0	0
662	0	0
663	0	0
664	0	0
665	0	0
666	0	0
667	0	0
668	0	0
669	0	0
670	0	0
671	0	0
672	0	0
673	0	0
674	0	0
675	0	0
676	0	0
677	0	0
678	0	0
679	0	0
680	0	0
681	0	0
682	0	0
683	0	0
684	0	0
685	0	0
686	0	0
687	0	0
688	0	0
689	0	0
690	0	0
691	0	0
692	0	0
693	0	0
694	0	0
695	0	0
696	0	0
697	0	0
698	0	0
699	0	0
700	0	0
701	0	0
702	0	0
703	0	0
704	0	0
705	0	0
706	0	0
707	0	0
708	0	0
709	0	0
710	0	0
711	0	0
712	0	0
713	0	0
714	0	0
715	0	0
716	0	0
717	0	0
718	0	0
719	0	0
720	0	0
721	0	0
722	0	0
723	0	0
724	0	0
725	0	0
726	0	0
727	0	0
728	0	0
729	0	0
730	0	0
731	0	0
732	0	0
733	0	0
734	0	0
735	0	0
736	0	0
737	0	0
738	0	0
739	0	0
740	0	0
741	0	0
742	0	0
743	0	0
744	0	0
745	0	0
746	0	0
747	0	0
748	0	0
749	0	0
750	0	0
751	0	0
752	0	0
753	0	0
754	0	0
755	0	0
756	0	0
757	0	0
758	0	0
759	0	0
760	0	0
761	0	0
762	0	0
763	0	0
764	0	0
765	0	0
766	0	0
767	0	0.664773
768	0	0.664773
769	0	0.664773
770	0	0.666667
771	0	0.617424
772	0	0.617424
773	0	0.379252
774	0	0.379252
775	0	0.379252
776	0	0.379252
777	0	0.379252
778	0	0.379252
779	0	0.379252
780	0	0.379252
781	0	0.379252
782	0	0.379252
783	0	0.379252
784	0	0.379252
785	0	0.379252
786	0	0.392857
787	0	0.392857
788	0	0.392857
789	0	0.392857
790	0	0.394558
791	0	0.394558
792	0	0.770408
793	0	0.768707
794	0	0.773061
795	0	0.773061
796	0	0.773061
797	0	0.774694
798	0	0.882449
799	0	0.882449
800	0	0.96
801	0	0.960784
802	0	0.960784
803	0	0.960784
804	0	0.925254
805	0	0.891684
806	0	0.895455
807	0	0.882051
808	0	0.980377
809	0	0.982137
810	0	0.980359
811	0	0.980359
812	0	0.980359
813	0	0.333333
814	0	0.333333
815	0	0.987455
816	0	0.987455
817	0	0
818	0	0
819	0	0
820	0	0
821	0	0
822	0	0
823	0	0
824	0	0
825	0	0
826	0	0
827	0	0
828	0	0
829	0	0
830	0	0
831	0	0
832	0	0
833	0	0
834	0	0
835	0	0
836	0	0
837	0	0
838	0	0
839	0	0
840	0	0
841	0	0
842	0	0
843	0	0
844	0	0
845	0	0
846	0	0
847	0	0
848	0	0
849	0	0
850	0	0
851	0	0
852	0	0
853	0	0
854	0	0
855	0	0
856	0	0
857	0	0
858	0	0
859	0	0
860	0	0
861	0	0
862	0	0
863	0	0
864	0	0
865	0	0
866	0	0
867	0	0
868	0	0
869	0	0
870	0	0
871	0	0
872	0	0
873	0	0
874	0	0
875	0	0
876	0	0
877	0	0
878	0	0
879	0	0
880	0	0
881	0	0
882	0	0
883	0	0
884	0	0
885	0	0
886	0	0
887	0	0
888	0	0
889	0	0
890	0	0
891	0	0
892	0	0
893	0	0
894	0	0
895	0	0
896	0	0
897	0	0
898	0	0
899	0	0
900	0	0
901	0	0
902	0	0
903	0	0
904	0	0
905	0	0
906	0	0
907	0	0
908	0	0
909	0	0
910	0	0
911	0	0
912	0	0
913	0	0
914	0	0
915	0	0
916	0	0
917	0	0
918	0	0
919	0	0
920	0	0
921	0	0
922	0	0
923	0	0
924	0	0
925	0	0
926	0	0
927	0	0
928	0	0
929	0	0
930	0	0
931	0	0
932	0	0
933	0	0
934	0	0
935	0	0
936	0	0
937	0	0
938	0	0
939	0	0
940	0	0
941	0	0
942	0	0
943	0	0
944	0	0
945	0	0
946	0	0
947	0	0
948	0	0
949	0	0
950	0	0
951	0	0
952	0	0
953	0	0
954	0	0
955	0	0
956	0	0
957	0	0
958	0	0
959	0	0
960	0	0
961	0	0
962	0	0
963	0	0
964	0	0
965	0	0
966	0	0
967	0	0
968	0	0
969	0	0
970	0	0
971	0	0
972	0	0
973	0	0
974	0	0
975	0	0
976	0	0
977	0	0
978	0	0
979	0	0
980	0	0
981	0	0
982	0	0
983	0	0
984	0	0
985	0	0
986	0	0
987	0	0.991023
988	0	0.991023
989	0	0.991015
990	0	0.992809
991	0	0
992	0	0
993	0	0
994	0	0
995	0	0
996	0	0.985654
997	0	1
998	1	1
999	1	1
1000	1	1
1001	1	1
1002	0	0
1003	0	0
1004	0	0
1005	0	0
1006	0	0
1007	0	0
1008	0	0.5
1009	0	0.5
1010	1	0
1011	1	0
1012	0	0
1013	0	0
1014	0	0
1015	0	0
1016	0	0
1017	0	0
1018	0	0
1019	0	0
1020	0	0.992809
1021	0	0.992809
1022	0	0.992809
1023	0	0.992815
1024	0	0.994609
1025	0	0
1026	0	0
1027	0	0
1028	0	0
1029	0	0
1030	1	0
1031	1	0
1032	1	0
1033	1	0
1034	1	0
1035	1	0
1036	0	0
1037	0	0
1038	0	0.989252
1039	0	0.987467
1040	0	0.987467
1041	0	0.989243
1042	0	0.989252
1043	0	0.989252
1044	0	0.991031
1045	0	0.991031
1046	0	0
1047	0	0
1048	0	0
1049	0	0
1050	0	0
1051	0	0
1052	0	0
1053	0	0
1054	0	0
1055	0	0
1056	0	0
1057	0	0
1058	0	0
1059	0	0
1060	0	0
1061	0	0
1062	0	0
1063	0	0
1064	0	0
1065	0	0
1066	0	0
1067	0	0
1068	0	0
1069	0	0
1070	0	0
1071	0	0
1072	0	0
1073	0	0
1074	0	0
1075	0	0
1076	0	0
1077	0	0
1078	0	0
1079	0	0
1080	0	0
1081	0	0
1082	0	0
1083	0	0
1084	0	0
1085	0	0
1086	0	0
1087	0	0
1088	0	0
1089	0	0
1090	0	0
1091	0	0
1092	0	0
1093	0	0
1094	0	0
1095	0	0
1096	0	0
1097	0	0
1098	0	0
1099	0	0
1100	0	0
1101	0	0
1102	0	0
1103	0	0
1104	0	0
1105	0	0
1106	0	0
1107	0	0
1108	0	0
1109	0	0
1110	0	0
1111	0	0
1112	0	0
1113	0	0
1114	0	0
1115	0	0
1116	0	0
1117	0	0
1118	0	0
1119	0	0
1120	0	0
1121	0	0
1122	0	0
1123	0	0
1124	0	0
1125	0	0
1126	0	0
1127	0	0
1128	0	0
1129	0	0
1130	0	0
1131	0	0
1132	0	0
1133	0	0
1134	0	0
1135	0	0
1136	0	0
1137	0	0
1138	0	0
1139	0	0
1140	0	0
1141	0	0
1142	0	0
1143	0	0
1144	0	0
1145	0	0
1146	0	0
1147	0	0
1148	0	0
1149	0	0
1150	0	0
1151	0	0
1152	0	0
1153	0	0
1154	0	0
1155	0	0
1156	0	0
1157	0	0
1158	0	0
1159	0	0
1160	0	0
1161	0	0
1162	0	0
1163	0	0
1164	0	0
1165	0	0
1166	0	0
1167	0	0
1168	0	0
1169	0	0
1170	0	0
1171	0	0
1172	0	0
1173	0	0
1174	0	0
1175	0	0
1176	0	0
1177	0	0
1178	0	0
1179	0	0
1180	0	0
1181	0	0
1182	0	0
1183	0	0
1184	0	0
1185	0	0
1186	0	0
1187	0	0
1188	0	0
1189	0	0
1190	0	0
1191	0	0
1192	0	0
1193	0	0
1194	0	0
1195	0	0
1196	0	0
1197	0	0
1198	0	0
1199	0	0
1200	0	0
1201	0	0
1202	0	0
1203	0	0
1204	0	0
1205	0	0
1206	0	0
1207	0	0
1208	0	0
1209	0	0
1210	0	0
1211	0	0
1212	0	0
1213	0	0
1214	0	0
1215	0	0
1216	0	0
1217	0	0
1218	0	0
1219	0	0
1220	0	0
1221	0	0
1222	0	0
1223	0	0
1224	0	0
1225	0	0
1226	0	0
1227	0	0
1228	0	0
1229	0	0
1230	0	0
1231	0	0
1232	0	0
1233	0	0
1234	0	0
1235	0	0
1236	0	0
1237	0	0
1238	0	0
1239	0	0
1240	0	0
1241	0	0
1242	0	0
1243	0	0
1244	0	0
1245	0	0
1246	0	0
1247	0	0
1248	0	0
1249	0	0
1250	0	0
1251	0	0
1252	0	0
1253	0	0
1254	0	0
1255	0	0
1256	0	0
1257	0	0
1258	0	0
1259	0	0
1260	0	0
1261	0	0
1262	0	0
1263	0	0
1264	0	0
1265	0	0
1266	0	0
1267	0	0
1268	0	0
1269	0	0
1270	0	0
1271	0	0
1272	0	0
1273	0	0
1274	0	0
1275	0	0
1276	0	0
1277	0	0
1278	0	0
1279	0	0
1280	0	0
1281	0	0
1282	0	0
1283	0	0
1284	0	0
1285	0	0
1286	0	0
1287	0	0
1288	0	0
1289	0	0
1290	0	1
1291	0	1
1292	0	1
1293	0	0.998201
1294	0	0.998201
1295	1	1
1296	1	1
1297	0	1
1298	0	1
1299	0	0
1300	0	0.996459
1301	0	0.996462
1302	0	0.996462
1303	0	0.996462
1304	0	0.996462
1305	0	0.996462
1306	0	0.996465
1307	0	0.994709
1308	0	0.994732
1309	0	0.994732
1310	0	0.994732
1311	0	0.994732
1312	0	0.996484
1313	0	0.998239
1314	1	1
1315	0	1
1316	0	0.994732
1317	0	0.994732
1318	0	0.994732
1319	0	0.994732
1320	0	0.992986
1321	0	0
1322	0	0
1323	0	0
1324	0	0
1325	0	0
1326	0	0
1327	0	0
1328	0	0
1329	0	0
1330	0	0
1331	0	0
1332	0	1
1333	0	1
1334	1	1
1335	1	1
1336	1	1
1337	1	1
1338	1	1
1339	1	1
1340	1	1
1341	1	1
1342	1	1
1343	1	1
1344	1	1
1345	1	1
1346	1	1
1347	1	1
1348	0	0.987753
1349	0	1
1350	0	0.6
1351	0	0.6
1352	0	0.6
1353	0	0.6
1354	0	0.5
1355	0	0.190476
1356	0	0.142857
1357	0	0.142857
1358	0	0.142857
1359	0	0.047619
1360	0	0
1361	0	0.1
1362	0	0.1
1363	0	0.1
1364	0	0.1
1365	0	0.1
1366	0	0
1367	0	0
1368	0	0
1369	0	0
1370	0	0
1371	0	0
1372	0	0
1373	0	0
1374	0	0
1375	0	0
1376	0	0
1377	0	0
1378	0	0
1379	0	0
1380	0	0
1381	0	0
1382	0	0
1383	0	0
1384	0	0
1385	0	0
1386	0	0
1387	0	0
1388	0	0
1389	0	0
1390	0	0
1391	0	0
1392	0	0
1393	0	0
1394	0	0
1395	0	0
1396	0	0
1397	0	0
1398	0	0
1399	0	0
1400	0	0
1401	0	0
1402	0	0
1403	0	0
1404	0	0
1405	0	0
1406	0	0
1407	0	0
1408	0	0
1409	0	0
1410	0	0
1411	0	0
1412	0	0
1413	0	0
1414	0	0
1415	0	0
1416	0	0
1417	0	0
1418	0	0
1419	0	0
1420	0	0
1421	1	1
1422	0	1
1423	0	1
1424	0	1
1425	0	1
1426	0	1
1427	0	1
1428	0	1
1429	0	1
1430	0	1
1431	0	1
1432	0	0.992981
1433	0	0.992981
1434	0	0
1435	0	0
1436	0	0
1437	0	0
1438	0	0
1439	0	0
1440	0	0
1441	0	0
1442	0	0
1443	0	0
1444	0	0
1445	0	0
1446	0	0
1447	0	0
1448	0	0
1449	0	0
1450	0	0
1451	0	0
1452	0	0
1453	0	0
1454	0	0
1455	0	0
1456	0	0
1457	0	0
1458	0	0
1459	0	0.998243
1460	0	0.998243
1461	0	0.998243
1462	0	0.99649
1463	0	0.99649
1464	0	0.99649
1465	0	0.99649
1466	0	0.99649
1467	0	0.99649
1468	0	0.99649
1469	0	0.99649
1470	0	0.99649
1471	0	0.99649
1472	0	0.99649
1473	0	0.994737
1474	0	0
1475	0	0
1476	0	0
1477	0	0
1478	0	0
1479	0	0
1480	0	0
1481	0	0
1482	0	0
1483	0	0
1484	0	0
1485	0	0
1486	0	0
1487	0	0
1488	0	0
1489	0	0
1490	0	0
1491	0	0
1492	0	0
1493	0	0
1494	0	0
1495	0	0
1496	0	0
1497	0	0
1498	0	0
1499	0	0
1500	0	0
1501	0	0
1502	0	0
1503	0	0
1504	1	0
1505	1	0
1506	1	0
1507	0	0.996484
1508	0	0.996484
1509	0	0.996487
1510	0	0.996487
1511	0	0.996487
1512	0	0.996487
1513	0	0.996487
1514	0	0.996493
1515	0	0.996496
1516	0	0.994746
1517	0	0.994746
1518	0	0.994746
1519	0	0.994746
1520	0	0.994746
1521	0	0.994746
1522	0	0.884517
1523	0	0.88607
1524	0	0.885976
1525	0	0.885976
1526	0	0.885976
1527	0	1
1528	0	1
1529	0	0.672775
1530	0	1
1531	0	1
1532	0	1
1533	0	1
1534	0	1
1535	0	1
1536	0	1
1537	0	1
1538	0	1
1539	0	1
1540	0	1
1541	0	0.714286
1542	0	0.840994
1543	0	0.986014
1544	0	0.718447
1545	0	0.327394
1546	0	0.38915
1547	0	0.739378
1548	0	1
1549	0	0.950373
1550	0	0.998247
1551	0	0.998247
1552	0	0.996499
1553	0	0.996499
1554	0	0.996499
1555	0	0.996499
1556	0	0.996499
1557	0	0.998247
1558	0	0.998247
1559	0	0.998247
1560	0	0.998247
1561	0	0.998247
1562	0	1
1563	0	1
1564	0	1
1565	0	1
1566	0	1
1567	0	1
1568	0	1
1569	0	1
1570	0	1
1571	0	1
1572	0	1
1573	0	1
1574	0	1
1575	0	1
1576	0	1
1577	0	1
1578	0	1
1579	0	0.998239
1580	0	0.998239
1581	0	0.996484
1582	0	0.998241
1583	0	0
1584	1	0
1585	1	0
1586	1	0
1587	1	0
1588	1	0
1589	1	0
1590	1	0
1591	1	0
1592	0	0
1593	0	0
1594	0	0
1595	0	0
1596	0	0
1597	0	0
1598	0	0
1599	0	0
1600	0	0.166667
1601	0	0.836198
1602	0	0.996487
1603	0	0.998243
1604	0	0.998243
1605	0	0.998243
1606	0	0.998243
1607	0	0.998243
1608	0	0.998243
1609	0	0.99649
1610	0	0.998244
1611	0	0.998244
1612	0	0.998243
1613	0	0.998243
1614	0	0.998243
1615	0	0.996477
1616	0	0.998241
1617	1	1
1618	1	1
1619	0	0.998243
1620	0	0.998243
1621	0	0.998243
1622	0	0.998243
1623	0	0.998243
1624	0	0.998243
1625	0	0.998243
1626	0	0.998243
1627	0	0.996487
1628	0	0.998241
1629	0	0.998241
1630	0	0.998241
1631	0	0.998241
1632	0	0.998241
1633	0	1
1634	0	1
1635	0	0.571429
1636	0	0.983206
1637	0	1
1638	0	1
1639	0	0.727273
1640	0	0.727273
1641	0	0.759412
1642	0	0.75931
1643	0	0.533057
1644	0	0.52648
1645	0	1
1646	0	1
1647	0	1
1648	0	1
1649	0	1
1650	0	1
1651	0	1
1652	0	1
1653	0	1
1654	0	1
1655	0	0.904762
1656	0	0.904762
1657	0	0.691176
1658	0	1
1659	0	0
1660	0	0.351648
1661	0	0.304762
1662	0	0.238095
1663	0	0.238095
1664	0	0.142857
1665	0	0.142857
1666	0	0.163636
1667	0	0.2
1668	0	0.638095
1669	0	0.5
1670	0	0.54386
1671	0	0.54386
1672	0	0.563158
1673	0	0.661905
1674	0	0.661905
1675	0	0.647368
1676	0	0.647368
1677	0	0.636842
1678	0	0.423333
1679	0	0.423333
1680	0	0.507246
1681	0	0.466667
1682	0	0.466667
1683	0	0.222222
1684	0	0.592101
1685	0	0.394089
1686	0	0.458124
1687	0	0.424871
1688	0	0.326465
1689	0	0.242965
1690	0	0.36727
1691	0	0.273469
1692	0	0.261343
1693	0	0.10989
1694	0	0.116667
1695	0	0.102941
1696	0	0.104762
1697	0	0.0653595
1698	0	0.0869565
1699	0	0.101538
1700	0	0.256827
1701	0	0.255581
1702	0	0.24522
1703	0	0.521809
1704	0	0.517359
1705	0	0.449091
1706	0	0.529463
1707	0	0.300609
1708	0	0.583725
1709	0	0.552562
1710	0	0.401062
1711	0	0.697588
1712	0	0.802061
1713	0	0.314026
1714	0	0.314398
1715	0	0.4338
1716	0	0.851705
1717	0	0.896669
1718	0	0.908061
1719	0	1
1720	0	1
1721	0	1
1722	0	1
1723	0	1
1724	0	1
1725	0	1
1726	0	1
1727	0	1
1728	0	1
1729	0	1
1730	0	0.998244
1731	0	0.998244
1732	0	0.998244
1733	0	0.996493
1734	0	1
1735	0	1
1736	1	1
1737	0	1
1738	0	1
1739	0	1
1740	0	1
1741	0	1
1742	0	1
1743	0	1
1744	0	1
1745	0	0.994741
1746	1	1
1747	0	1
1748	0	0.99514
1749	0	0.683119
1750	0	0.646249
1751	0	0.666767
1752	0	0.904762
1753	0	0.998246
1754	0	0.998246
1755	0	0.998246
1756	0	0.996496
1757	0	0.998247
1758	0	0.998247
1759	0	0.998247
1760	0	0.998247
1761	0	0.998247
1762	0	0.998247
1763	0	0.998247
1764	0	0.998247
1765	0	0.998247
1766	1	0
1767	1	0
1768	1	0
1769	1	0
1770	0	1
1771	0	1
1772	0	1
1773	0	0.998246
1774	0	1
1775	0	1
1776	0	1
1777	0	1
1778	0	1
1779	0	1
1780	0	1
1781	0	1
1782	0	1
1783	0	1
1784	0	1
1785	0	1
1786	0	1
1787	0	0.998246
1788	0	0.998243
1789	0	0.998243
1790	0	0.998243
1791	0	0.998243
1792	0	0.996487
1793	0	0.998241
1794	0	0.998241
1795	0	0.998241
1796	0	1
1797	0	1
1798	0	1
1799	0	1
1800	0	1
1801	0	1
1802	0	1
1803	0	1
1804	0	0.996487
1805	0	0.998244
1806	0	0.99649
1807	0	0.994741
1808	0	0.99649
1809	0	0.99649
1810	0	0.99649
1811	0	0.99649
1812	0	0.996493
1813	0	0.996493
1814	0	0.996493
1815	0	0.996493
1816	0	0.996493
1817	0	0.996493
1818	0	0.996493
1819	0	0.998246
1820	0	0.998244
1821	0	0.998244
1822	0	0.998243
1823	0	0.998243
1824	0	0.998243
1825	0	0.998241
1826	0	0.998241
1827	0	0.998241
1828	0	0.998241
1829	0	0.998241
1830	0	0
1831	0	0
1832	0	0
1833	0	0
1834	0	0
1835	0	0
1836	0	0.992986
1837	0	0.992986
1838	0	0.992979
1839	0	0.992979
1840	0	0.991236
1841	0	0
1842	0	0.996484
1843	0	0.996484
1844	0	0.996484
1845	0	0.996484
1846	0	0.994728
1847	0	0.994728
1848	0	0.994728
1849	0	0.994728
1850	0	0.994714
1851	0	0.985923
1852	0	1
1853	0	1
1854	0	1
1855	0	1
1856	0	0.5
1857	0	0.3
1858	0	0.483333
1859	0	0.357955
1860	0	0.300395
1861	0	0.233618
1862	0	0.49724
1863	0	0.454916
1864	0	0.401567
1865	0	0.376669
1866	0	0.265889
1867	0	0.234172
1868	0	0.162381
1869	0	0.136656
1870	0	0.125663
1871	0	0.104682
1872	0	0.107016
1873	0	0.110266
1874	0	0.108375
1875	0	0.161922
1876	0	0.246496
1877	0	0.257589
1878	0	0.290457
1879	0	0.342003
1880	0	0.854767
1881	0	0.47336
1882	0	0.356428
1883	0	0.133333
1884	0	0.5
1885	0	0.651118
1886	0	0.371429
1887	0	0.384615
1888	0	1
1889	0	0
1890	0	0
1891	0	1
1892	0	0.68265
1893	0	0.849069
1894	0	0.619453
1895	0	0.682633
1896	0	1
1897	0	1
1898	0	1
1899	0	0.996484
1900	0	0.996484
1901	0	0.996487
1902	0	0.996487
1903	0	0.992987
1904	0	0.992987
1905	0	0.992987
1906	0	0.994732
1907	0	0.998241
1908	0	0.998241
1909	0	0.998241
1910	0	1
1911	0	1
1912	0	1
1913	0	1
1914	1	1
1915	1	1
1916	1	1
1917	1	1
1918	1	1
1919	1	1
1920	1	1
1921	1	1
1922	0	0.998244
1923	0	0.998241
1924	0	0.998241
1925	0	0.998241
1926	0	0.998241
1927	0	0.998241
1928	0	0.996487
1929	1	1
1930	1	1
1931	0	1
1932	0	1
1933	0	1
1934	0	0.998238
1935	0	0.998239
1936	0	1
1937	0	1
1938	0	1
1939	0	0.998241
1940	0	0.998241
1941	0	0.996484
1942	0	0.950161
1943	0	0.63028
1944	0	0.992754
1945	0	0.998238
1946	0	0.998238
1947	0	0.998238
1948	0	0.998238
1949	0	0.998238
1950	0	0.998238
1951	0	0.998238
1952	0	0
1953	0	0
1954	0	0
1955	0	0
1956	0	0
1957	0	0.994723
1958	0	0.994723
1959	0	0.996474
1960	0	0.996474
1961	0	0.996474
1962	0	0.998235
1963	0	0.998235
1964	0	0.998235
1965	0	0.996474
1966	0	0.996474
1967	0	0.998236
1968	0	0.998238
1969	0	0.998238
1970	0	0.998238
1971	0	0.998238
1972	0	0.998239
1973	0	0.998239
1974	0	0.998239
1975	0	0.998239
1976	0	1
1977	0	0.998239
1978	0	0.998239
1979	0	1
1980	0	1
1981	0	1
1982	0	1
1983	0	1
1984	0	1
1985	0	1
1986	0	1
1987	0	1
1988	0	1
1989	0	1
1990	0	0.6
1991	0	0.47619
1992	0	0.666667
1993	0	1
1994	0	1
1995	0	1
1996	0	0.979054
1997	0	0.979054
1998	0	0
1999	0	0
2000	0	0
2001	0	0
2002	0	0
2003	0	0
2004	0	0
2005	0	0
2006	0	0
2007	0	0
2008	0	0
2009	0	0
2010	0	0
2011	0	0
2012	0	0
2013	0	0
2014	0	0
2015	0	0
2016	0	0
2017	0	0
2018	0	0
2019	0	0
2020	0	0
2021	0	0
2022	0	0
2023	0	0
2024	0	0
2025	0	0
2026	0	0
2027	0	0
2028	0	0
2029	0	0
2030	0	0
2031	0	0
2032	0	0
2033	0	0
2034	0	0
2035	0	0
2036	0	0
2037	0	0
2038	0	0
2039	0	0
2040	0	0
2041	0	0
2042	0	0
2043	0	0
2044	0	0
2045	0	0
2046	0	0
2047	0	0
2048	0	0
2049	0	0
2050	0	0
2051	0	0
2052	0	0
2053	0	0
2054	0	0
2055	0	0
2056	0	0.984165
2057	0	0.984123
2058	0	0.984123
2059	0	0.984123
2060	0	0.984123
2061	0	0.984123
2062	0	0
2063	0	0
2064	1	0
2065	1	0
2066	1	0
2067	1	0
2068	1	0
2069	1	0
2070	1	0
2071	1	0
2072	1	0
2073	1	0
2074	1	0
2075	1	0
2076	1	0
2077	1	0
2078	1	0
2079	1	0
2080	1	0
2081	0	0.971944
2082	0	0.973686
2083	0	0.977149
2084	0	0.978862
2085	0	0
2086	0	0
2087	0	0
2088	0	0
2089	0	0
2090	0	0
2091	0	0
2092	0	0
2093	0	0
2094	0	0
2095	0	0
2096	0	0
2097	0	0
2098	0	0
2099	0	0
2100	0	0
2101	0	0
2102	0	0
2103	0	0
2104	0	0
2105	0	0
2106	0	0
2107	0	0
2108	0	0
2109	0	0
2110	0	0
2111	0	0
2112	0	0
2113	1	0
2114	0	0
2115	0	0
2116	0	0
2117	0	0
2118	0	0
2119	0	0
2120	0	0
2121	0	0
2122	1	0
2123	1	0
2124	1	0
2125	1	0
2126	1	0
2127	1	0
2128	1	0
2129	1	0
2130	0	0
2131	0	0
2132	0	0
2133	0	0
2134	0	0
2135	0	0
2136	0	0
2137	0	0
2138	0	0
2139	1	0
2140	1	0
2141	1	0
2142	1	0
2143	1	0
2144	1	0
2145	1	0
2146	1	0
2147	1	0
2148	1	0
2149	1	0
2150	1	0
2151	0	0
2152	0	0
2153	0	0
2154	0	0
2155	0	0
2156	0	0
2157	0	0
2158	0	0
2159	0	0
2160	0	0
2161	0	0
2162	0	0
2163	0	0
2164	0	0
2165	0	0
2166	0	0
2167	0	0
2168	0	0
2169	0	0
2170	0	0
2171	0	0
2172	0	0
2173	0	0
2174	0	0
2175	0	0
2176	0	0
2177	0	0
2178	0	0.978787
2179	0	0.977039
2180	0	0
2181	0	0
2182	0	0
2183	0	0
2184	0	0
2185	0	0.977794
2186	0	0.959921
2187	0	0.89859
2188	0	0
2189	0	0.897147
2190	0	0.333333
2191	0	0.391827
2192	0	0.838521
2193	0	1
2194	0	0.333333
2195	0	0.839683
2196	0	0.492492
2197	0	0.854473
2198	0	0
2199	0	0
2200	0	0
2201	0	0
2202	0	0
2203	0	0
2204	0	0
2205	0	0
2206	0	0
2207	0	0
2208	0	0
2209	0	0
2210	0	0
2211	0	0
2212	0	0
2213	0	0
2214	0	0
2215	0	0
2216	0	0
2217	0	0
2218	0	0
2219	0	0
2220	0	0
2221	0	0
2222	0	0
2223	0	0
2224	0	0
2225	0	0
2226	0	0
2227	0	0
2228	0	0
2229	0	0
2230	1	0
2231	0	0
2232	0	0
2233	0	0
2234	0	0
2235	0	0
2236	0	0
2237	0	0
2238	0	0
2239	0	0
2240	0	0
2241	0	0
2242	0	0
2243	0	0
2244	0	0
2245	0	0
2246	0	0
2247	0	0
2248	0	0
2249	0	0
2250	0	0
2251	0	0
2252	0	0
2253	0	0
2254	0	0
2255	0	0
2256	0	0
2257	0	0
2258	0	0
2259	0	0
2260	0	0
2261	0	0
2262	0	0
2263	0	0
2264	0	0.766997
2265	0	0.742244
2266	0	0.483003
2267	0	0.111111
2268	0	0.142857
2269	0	0.047619
2270	0	0.047619
2271	0	0.047619
2272	0	0.047619
2273	0	0.0357143
2274	0	0.025641
2275	0	0.0416667
2276	0	0.0988142
2277	0	0.194958
2278	0	0.443521
2279	0	0.504508
2280	0	0.472606
2281	0	0.166667
2282	0	0.166667
2283	0	0
2284	0	0
2285	0	0
2286	0	0
2287	0	0
2288	0	0
2289	0	0
2290	0	0
2291	0	0
2292	0	0
2293	0	0
2294	0	0
2295	0	0
2296	0	0
2297	0	0
2298	0	0
2299	0	0
2300	0	0
2301	0	0
2302	0	0
2303	0	0
2304	0	0
2305	0	0
2306	0	0
2307	0	0
2308	0	0
2309	0	0
2310	0	0
2311	0	0
2312	0	0
2313	0	0
2314	0	0
2315	0	0
2316	0	0
2317	0	0
2318	0	0
2319	0	0
2320	0	0
2321	0	0
2322	0	0
2323	0	0
2324	0	0
2325	0	0
2326	0	0
2327	0	0
2328	0	0
2329	0	0
2330	0	0
2331	0	0
2332	0	0
2333	0	0
2334	0	0
2335	0	0
2336	0	0
2337	0	0
2338	0	0
2339	0	0
2340	0	0
2341	0	0
2342	0	0
2343	0	0
2344	0	0
2345	0	0
2346	0	0
2347	0	0
2348	0	0
2349	0	0
2350	0	0
2351	0	0
2352	0	0
2353	0	0
2354	0	0
2355	0	0
2356	0	0
2357	0	0
2358	0	0
2359	0	0
2360	0	0
2361	0	0
2362	0	0
2363	0	0
2364	0	0
2365	0	0
2366	0	0
2367	0	0
2368	0	0
2369	0	0
2370	0	0
2371	0	0
2372	0	0
2373	0	0
2374	0	0
2375	0	0
2376	0	0
2377	0	0
2378	0	0
2379	0	0
2380	0	0
2381	0	0
2382	0	0
2383	0	0
2384	0	0
2385	0	0
2386	0	0
2387	0	0
2388	0	0
2389	0	0
2390	0	0
2391	0	0
2392	0	0
2393	0	0
2394	0	0
2395	0	0
2396	0	0
2397	0	0
2398	0	0
2399	0	0
2400	0	0
2401	0	0
2402	0	0
2403	0	0
2404	0	0
2405	0	0
2406	0	0
2407	0	0
2408	0	0
2409	0	0
2410	0	0
2411	0	0
2412	0	0
2413	0	0
2414	0	0
2415	0	0
2416	0	0
2417	0	0
2418	0	0
2419	0	0
2420	0	0
2421	0	0
2422	0	0
2423	0	0
2424	0	0
2425	0	0
2426	0	0
2427	0	0
2428	0	0
2429	0	0
2430	0	0
2431	0	0
2432	0	0
2433	0	0
2434	0	0
2435	0	0
2436	0	0
2437	0	0
2438	0	0
2439	0	0
2440	0	0
2441	0	0
2442	0	0
2443	0	0
2444	0	0
2445	0	0
2446	0	0
2447	0	0
2448	0	0
2449	0	0
2450	0	0
2451	0	0
2452	0	0
2453	0	0
2454	0	0
2455	0	0
2456	0	0
2457	0	0
2458	0	0
2459	0	0
2460	0	0
2461	0	0
2462	0	0
2463	0	0
2464	0	0
2465	0	0
2466	0	0
2467	0	0
2468	0	0
2469	0	0
2470	0	0
2471	0	0
2472	0	0
2473	0	0
2474	0	0
2475	0	0
2476	0	0
2477	0	0
2478	0	0
2479	0	0
2480	0	0
2481	0	0
2482	0	0
2483	0	0
2484	0	0
2485	0	0
2486	0	0
2487	0	0
2488	0	0
2489	0	0
2490	0	0
2491	0	0
2492	0	0
2493	0	0
2494	0	0
2495	0	0
2496	0	0
2497	0	0
2498	0	0
2499	0	0
2500	0	0
2501	0	0
2502	0	0
2503	0	0
2504	0	0
2505	0	0
2506	0	0
2507	0	0
2508	0	0
2509	0	0
2510	0	0
2511	0	0
2512	0	0
2513	0	0
2514	0	0
2515	0	0
2516	0	0
2517	0	0
2518	0	0
2519	0	0
2520	0	0
2521	0	0
2522	0	0
2523	0	0
2524	0	0
2525	0	0
2526	0	0
2527	0	0
2528	0	0
2529	0	0
2530	0	0
2531	0	0
2532	0	0
2533	0	0
2534	0	0
2535	0	0
2536	0	0
2537	0	0
2538	0	0
2539	0	0
2540	0	0
2541	0	0
2542	0	0
2543	0	0
2544	0	0
2545	0	0
2546	0	0
2547	0	0
2548	0	0
2549	0	0
2550	0	0
2551	0	0
2552	0	0
2553	0	0
2554	0	0
2555	0	0
2556	0	0
2557	0	0
2558	0	0
2559	0	0
2560	0	0
2561	0	0
2562	0	0
2563	0	0
2564	0	0
2565	0	0
2566	0	0
2567	0	0
2568	0	0
2569	0	0
2570	0	0
2571	0	0
2572	0	0
2573	0	0
2574	0	0
2575	0	0
2576	0	0
2577	0	0
2578	0	0
2579	0	0
2580	0	0
2581	0	0
2582	0	0
2583	0	0
2584	0	0
2585	0	0
2586	0	0
2587	0	0
2588	0	0
2589	0	0
2590	0	0
2591	0	0
2592	0	0
2593	0	0
2594	0	0
2595	0	0
2596	0	0
2597	0	0
2598	0	0
2599	0	0
2600	0	0
2601	0	0
2602	0	0
2603	0	0
2604	0	0
2605	0	0
2606	0	0
2607	0	0
2608	0	0
2609	0	0
2610	0	0
2611	0	0
2612	0	0
2613	0	0
2614	0	0
2615	0	0
2616	0	0
2617	0	0
2618	0	0
2619	0	0
2620	0	0
2621	0	0
2622	0	0
2623	0	0
2624	0	0
2625	0	0
2626	0	0
2627	0	0
2628	0	0
2629	0	0
2630	0	0
2631	0	0
2632	0	0
2633	0	0
2634	0	0
2635	0	0
2636	0	0
2637	0	0
2638	0	0
2639	0	0
2640	0	0
2641	0	0
2642	0	0
2643	0	0
2644	0	0
2645	0	0
2646	0	0
2647	0	0
2648	0	0
2649	0	0
2650	0	0
2651	0	0
2652	0	0
2653	0	0
2654	0	0
2655	0	0
2656	0	0
2657	0	0
2658	0	0
2659	0	0
2660	0	0
2661	0	0
2662	0	0
2663	0	0
2664	0	0
2665	0	0
2666	0	0
2667	0	0
2668	0	0
2669	0	0
2670	0	0
2671	0	0
2672	0	0
2673	0	0
2674	0	0
2675	0	0
2676	0	0
2677	0	0
2678	0	0
2679	0	0
2680	0	0
2681	0	0
2682	0	0
2683	0	0
2684	0	0
2685	0	0
2686	0	0
2687	0	0
2688	0	0
2689	0	0
2690	0	0
2691	0	0
2692	0	0
2693	0	0
2694	0	0
2695	0	0
2696	0	0
2697	0	0
2698	0	0
2699	0	0
2700	0	0
2701	0	0
2702	0	0
2703	0	0
2704	0	0
2705	0	0
2706	0	0
2707	0	0
2708	0	0
2709	0	0
2710	0	0
2711	0	0
2712	0	0
2713	0	0
2714	0	0
2715	0	0
2716	0	0
2717	0	0
2718	0	0
2719	0	0
2720	0	0
2721	0	0
2722	0	0
2723	0	0
2724	0	0
2725	0	0
2726	0	0
2727	0	0
2728	0	0
2729	0	0
2730	0	0
2731	0	0
2732	0	0
2733	0	0
2734	0	0
2735	0	0
2736	0	0
2737	0	0
2738	0	0
2739	0	0.474566
2740	0	0.208537
2741	0	0.189369
2742	0	0.56233
2743	0	0.560063
2744	0	0.350964
2745	0	0.229378
2746	0	0.171539
2747	0	0.107143
2748	0	0.304762
2749	0	0.304762
2750	0	0.294872
2751	0	0.214286
2752	0	0.2
2753	0	0.3
2754	0	0.3
2755	0	0.166667
2756	0	0
2757	0	0
2758	0	0
2759	0	0
2760	0	0
2761	0	0
2762	0	0
2763	0	0.458347
2764	0	0
2765	0	0
2766	0	0
2767	0	0
2768	0	0
2769	0	0
2770	0	0
2771	0	0
2772	0	0
2773	0	0
2774	0	0
2775	0	0
2776	0	0
2777	0	0
2778	0	0
2779	0	0
2780	0	0
2781	0	0
2782	0	0
2783	0	0
2784	0	0
2785	0	0
2786	0	0
2787	0	0
2788	0	0
2789	0	0
2790	0	0
2791	0	0
2792	0	0
2793	0	0
2794	0	0
2795	0	0
2796	0	0
2797	0	0
2798	0	0
2799	0	0
2800	0	0
2801	0	0
2802	0	0
2803	0	0
2804	0	0
2805	0	0
2806	0	0
2807	0	0.371795
2808	0	0.282051
2809	0	0.282051
2810	0	0.282051
2811	0	0.282051
2812	0	0
2813	0	0
2814	0	0
2815	0	0
2816	0	0
2817	0	0
2818	0	0
2819	0	0
2820	0	0
2821	0	0
2822	0	0
2823	0	0
2824	0	0
2825	0	0
2826	0	0
2827	0	0
2828	0	0
2829	0	0
2830	0	0
2831	0	0
2832	0	0
2833	0	0
2834	0	0
2835	0	0
2836	0	0
2837	0	0
2838	0	0
2839	0	0
2840	0	0
2841	0	0
2842	0	0
2843	0	0
2844	0	0
2845	0	0
2846	0	0
2847	0	0
2848	0	0
2849	0	0
2850	0	0
2851	0	0
2852	0	0
2853	0	0
2854	0	0
2855	0	0
2856	0	0
2857	0	0.282051
2858	0	0.282051
2859	0	0.282051
2860	0	0.398588
2861	0	0
2862	0	0
2863	0	0
2864	0	0
2865	0	0
2866	0	0
2867	0	0
2868	0	0
2869	0	0
2870	0	0
2871	0	0
2872	0	0
2873	0	0
2874	0	0
2875	0	0
2876	0	0
2877	0	0
2878	0	0
2879	0	0
2880	0	0
2881	0	0
2882	0	0
2883	0	0
2884	0	0
2885	0	0
2886	0	0
2887	0	0
2888	0	0
2889	0	0
2890	0	0
2891	0	0
2892	0	0
2893	0	0
2894	0	0
2895	0	0
2896	0	0
2897	0	0
2898	0	0
2899	0	0
2900	0	0
2901	0	0
2902	0	0
2903	0	0
2904	0	0
2905	0	0
2906	0	0
2907	0	0
2908	0	0
2909	0	0
2910	0	0
2911	0	0
2912	0	0
2913	0	0
2914	0	0
2915	0	0
2916	0	0
2917	0	0
2918	0	0
2919	0	0
2920	0	0
2921	0	0
2922	0	0
2923	0	0
2924	0	0
2925	0	0
2926	0	0
2927	0	0
2928	0	0
2929	0	0
2930	0	0
2931	0	0
2932	0	0
2933	0	0
2934	0	0
2935	0	0
2936	0	0
2937	0	0
2938	0	0
2939	0	0
2940	0	0
2941	0	0
2942	0	0
2943	0	0
2944	0	0
2945	0	0
2946	0	0
2947	0	0
2948	0	0
2949	0	0
2950	0	0
2951	0	0
2952	0	0
2953	0	0
2954	0	0
2955	0	0
2956	0	0
2957	0	0
2958	0	0
2959	0	0
2960	0	0.0357143
2961	0	0.0357143
2962	0	0.0277778
2963	0	0.137821
2964	0	0.128446
2965	0	0.104223
2966	0	0.0920999
2967	0	0.0902012
2968	0	0.13546
2969	0	0.140099
2970	0	0.161793
2971	0	0.184314
2972	0	0.0673051
2973	0	0.201126
2974	0	0.187082
2975	0	0.263921
2976	0	0.311876
2977	0	0.339982
2978	0	0.0615616
2979	0	0.485778
2980	0	0.506078
2981	0	0.501194
2982	0	0.490884
2983	0	0.127779
2984	0	0.124
2985	0	0.12315
2986	0	0.131979
2987	0	0.135481
2988	0	0.177848
2989	0	0.187468
2990	0	0.217893
2991	0	0.212376
2992	0	0.219738
2993	0	0.21322
2994	0	0.213421
2995	0	0.182227
2996	0	0.194176
2997	0	0.206489
2998	0	0.210604
2999	0	0.283867
3000	0	0.186532
3001	0	0.236818
3002	0	0.369369
3003	0	0.304435
3004	0	0.324731
3005	0	0.335632
3006	0	0.453333
3007	0	0.453333
3008	0	0.453333
3009	0	0.453333
3010	0	0
3011	0	0
3012	0	0
3013	0	0
3014	0	0
3015	0	0
3016	0	0
3017	0	0
3018	0	0
3019	0	0
3020	0	0
3021	0	0
3022	0	0
3023	0	0
3024	0	0
3025	0	0
3026	0	0
3027	0	0
3028	0	0
3029	0	0
3030	0	0
3031	0	0
3032	0	0
3033	0	0
3034	0	0
3035	0	0
3036	0	0
3037	0	0
3038	0	0
3039	0	0
3040	0	0
3041	0	0
3042	0	0
3043	0	0
3044	0	0
3045	0	0
3046	0	0
3047	0	0
3048	0	0
3049	0	0
3050	0	0
3051	0	0
3052	0	0
3053	0	0
3054	0	0
3055	0	0
3056	0	0
3057	0	0
3058	0	0
3059	0	0
3060	0	0
3061	0	0
3062	0	0
3063	0	0
3064	0	0
3065	0	0
3066	0	0
3067	0	0
3068	0	0
3069	0	0
3070	0	0
3071	0	0
3072	0	0
3073	0	0
3074	0	0
3075	0	0
3076	0	0
3077	0	0
3078	0	0
3079	0	0
3080	0	0
3081	0	0
3082	0	0
3083	0	0
3084	0	0
3085	0	0
3086	0	0
3087	0	0
3088	0	0
3089	0	0
3090	0	0
3091	0	0
3092	0	0
3093	0	0
3094	0	0
3095	0	0
3096	0	0
3097	0	0
3098	0	0
3099	0	0
3100	0	0
3101	0	0
3102	0	0
3103	0	0
3104	0	0
3105	0	0
3106	0	0
3107	0	0
3108	0	0
3109	0	0
3110	0	0
3111	0	0
3112	0	0
3113	0	0
3114	0	0
3115	0	0
3116	0	0
3117	0	0
3118	0	0
3119	0	0
3120	0	0
3121	0	0
3122	0	0
3123	0	0
3124	0	0
3125	0	0
3126	0	0
3127	0	0
3128	0	0
3129	0	0
3130	0	0
3131	0	0
3132	0	0
3133	0	0
3134	0	0
3135	0	0
3136	0	0
3137	0	0
3138	0	0
3139	0	0
3140	0	0
3141	0	0
3142	0	0
3143	0	0
3144	0	0
3145	0	0
3146	0	0
3147	0	0
3148	0	0
3149	0	0
3150	0	0
3151	0	0
3152	0	0
3153	0	0
3154	0	0
3155	0	0
3156	0	0
3157	0	0
3158	0	0
3159	0	0
3160	0	0
3161	0	0
3162	0	0
3163	0	0
3164	0	0
3165	0	0
3166	0	0
3167	0	0
3168	0	0
3169	0	0
3170	0	0
3171	0	0
3172	0	0
3173	0	0
3174	0	0
3175	0	0
3176	0	0
3177	0	0
3178	0	0
3179	0	0
3180	0	0
3181	0	0
3182	0	0
3183	0	0
3184	0	0
3185	0	0
3186	0	0
3187	0	0
3188	0	0
3189	0	0
3190	0	0
3191	0	0
3192	0	0
3193	0	0
3194	0	0
3195	0	0
3196	0	0
3197	0	0
3198	0	0
3199	0	0
3200	0	0
3201	0	0
3202	0	0
3203	0	0
3204	0	0
3205	0	0
3206	0	0
3207	0	0
3208	0	0
3209	0	0
3210	0	0
3211	0	0
