Site	ColumnScore	SumOfPairsScore
1	0	0
2	0	0
3	0	0
4	0	0
5	0	0
6	0	0
7	0	0
8	0	0
9	0	0
10	0	0
11	0	0
12	0	0
13	0	0
14	0	0
15	0	0
16	0	0
17	0	0
18	0	0
19	0	0
20	0	0
21	0	0
22	0	0
23	0	0
24	0	0
25	0	0
26	0	0
27	0	0
28	0	0
29	0	0
30	0	0
31	0	0
32	0	0
33	0	0
34	0	0
35	0	0
36	0	0
37	0	0
38	0	0
39	0	0
40	0	0
41	0	0
42	0	0
43	0	0
44	0	0
45	0	0
46	0	0
47	0	0
48	0	0
49	0	0
50	0	0
51	0	0
52	0	0
53	0	0
54	0	0
55	0	0
56	0	0
57	0	0
58	0	0
59	0	0
60	0	0
61	0	0
62	0	0
63	0	0
64	0	0
65	0	0
66	0	0
67	0	0
68	0	0
69	0	0
70	0	0
71	0	0
72	0	0
73	0	0
74	0	0
75	0	0
76	0	0
77	0	0
78	0	0
79	0	0
80	0	0
81	0	0
82	0	0
83	0	0
84	0	0
85	0	0
86	0	0
87	0	0
88	0	0
89	0	0
90	0	0
91	0	0
92	0	0.166667
93	0	0.166667
94	0	0.166667
95	0	0.166667
96	0	0.166667
97	0	0.166667
98	0	0.166667
99	0	0.166667
100	0	0.166667
101	0	0.166667
102	0	0.166667
103	0	0.166667
104	0	0.166667
105	0	0.1
106	0	0.1
107	0	0.1
108	0	0.1
109	0	0.1
110	0	0.1
111	0	0.1
112	0	0.1
113	0	0.1
114	0	0.1
115	0	0.1
116	0	0.1
117	0	0.1
118	0	0.1
119	0	0.1
120	0	0.1
121	0	0.1
122	0	0.1
123	0	0.1
124	0	0.1
125	0	0
126	0	0
127	0	0
128	0	0
129	0	0
130	0	0
131	0	0
132	0	0
133	0	0
134	0	0
135	0	0.3
136	0	0.3
137	0	0.2
138	0	0.2
139	0	0.2
140	0	0.2
141	0	0.2
142	0	0.2
143	0	0.2
144	0	0.2
145	0	0.2
146	0	0.2
147	0	0.2
148	0	0.2
149	0	0.142857
150	0	0.142857
151	0	0.142857
152	0	0.142857
153	0	0.142857
154	0	0.142857
155	0	0.142857
156	0	0.166667
157	0	0.166667
158	0	0.166667
159	0	0.133333
160	0	0.107143
161	0	0.222222
162	0	0.2
163	0	0.2
164	0	0.2
165	0	0.2
166	0	0.163636
167	0	0.163636
168	0	0.163636
169	0	0.163636
170	0	0.163636
171	0	0.109091
172	0	0.227273
173	0	0.227273
174	0	0.192308
175	0	0.192308
176	0	0.192308
177	0	0.192308
178	0	0.192308
179	0	0.142857
180	0	0.075
181	0	0.0457516
182	0	0.0409357
183	0	0.0409357
184	0	0.0409357
185	0	0.0519481
186	0	0.0519481
187	0	0.0519481
188	0	0.0434783
189	0	0.0433333
190	0	0.0492308
191	0	0.0492308
192	0	0.0492308
193	0	0.0773109
194	0	0.0703053
195	0	0.0593792
196	0	0.058072
197	0	0.486605
198	0	0.35406
199	0	0.249125
200	0	0.203309
201	0	0.201396
202	0	0.197231
203	0	0.1835
204	0	0.184287
205	0	0.1
206	0	0.1
207	0	0.1
208	0	0.1
209	0	0
210	0	0
211	0	0
212	0	0
213	0	0
214	0	0
215	0	0
216	0	0
217	0	0
218	0	0.179811
219	0	0.150999
220	0	0.144147
221	0	0.130636
222	0	0.113524
223	0	0.315853
224	0	0.378378
225	0	0.343915
226	0	0.343915
227	0	0.343915
228	0	0.359606
229	0	0.23545
230	0	0.23545
231	0	0.1875
232	0	0.0994152
233	0	0.0994152
234	0	0.0935673
235	0	0.0842105
236	0	0.0842105
237	0	0.0842105
238	0	0.0761905
239	0	0.0904762
240	0	0.104575
241	0	0.318182
242	0	0.0769231
243	0	0.0857143
244	0	0.0857143
245	0	0.0857143
246	0	0.0857143
247	0	0.0571429
248	0	0.0571429
249	0	0.0571429
250	0	0.05
251	0	0.0761905
252	0	0.0688406
253	0	0
254	0	0
255	0	0
256	0	0.0666667
257	0	0.0727273
258	0	0.0827356
259	0	0.122245
260	0	0.145148
261	0	0.168288
262	0	0.20725
263	0	0.193859
264	0	0
265	0	0
266	0	0
267	0	0
268	0	0
269	0	0
270	0	0
271	0	0
272	0	0
273	0	0
274	0	0
275	0	0
276	0	0
277	0	0
278	0	0
279	0	0
280	0	0
281	0	0
282	0	0
283	0	0
284	0	0
285	0	0
286	0	0
287	0	0
288	0	0
289	0	0
290	0	0
291	0	0
292	0	0
293	0	0
294	0	0
295	0	0
296	0	0
297	0	0
298	0	0
299	0	0
300	0	0
301	0	0
302	0	0.249818
303	0	0.232143
304	0	0.472421
305	0	0.469422
306	0	0.469422
307	0	0.177807
308	0	0.196587
309	0	0.232886
310	0	0.253846
311	0	0.244966
312	0	0.0621849
313	0	0.0795699
314	0	0.0647773
315	0	0.048583
316	0	0.0461538
317	0	0.0616162
318	0	0.064482
319	0	0.281981
320	0	0.0498339
321	0	0.0853659
322	0	0.0512821
323	0	0.0588235
324	0	0.0665323
325	0	0.0592885
326	0	0.04
327	0	0.141696
328	0	0.0659537
329	0	0.342367
330	0	0.23354
331	0	0
332	0	0
333	0	0
334	0	0
335	0	0
336	0	0
337	0	0
338	0	0
339	0	0
340	0	0
341	0	0
342	0	0
343	0	0
344	0	0
345	0	0
346	0	0
347	0	0
348	0	0
349	0	0
350	0	0
351	0	0
352	0	0
353	0	0
354	0	0
355	0	0
356	0	0
357	0	0
358	0	0
359	0	0
360	0	0
361	0	0
362	0	0
363	0	0
364	0	0
365	0	0
366	0	0
367	0	0
368	0	0
369	0	0
370	0	0
371	0	0
372	0	0
373	0	0
374	0	0
375	0	0
376	0	0
377	0	0
378	0	0
379	0	0.333333
380	0	0.478061
381	0	0.0666667
382	0	0.0666667
383	0	0.1
384	0	0.0666667
385	0	0.0666667
386	0	0.0666667
387	0	0.0666667
388	0	0.0666667
389	0	0.0666667
390	0	0.0666667
391	0	0.1
392	0	0.1
393	0	0.1
394	0	0.166667
395	0	0.166667
396	0	0.166667
397	0	0
398	0	0
399	0	0
400	0	0
401	0	0
402	0	0
403	0	0
404	0	0
405	0	0
406	0	0
407	0	0
408	0	0
409	0	0
410	0	0
411	0	0
412	0	0
413	0	0
414	0	0
415	0	0
416	0	0
417	0	0
418	0	0
419	0	0
420	0	0
421	0	0
422	0	0
423	0	0
424	0	0
425	0	0
426	0	0
427	0	0
428	0	0
429	0	0
430	0	0
431	0	0
432	0	0
433	0	0
434	0	0.333333
435	0	0.209382
436	0	0.24183
437	0	0.189542
438	0	0.202899
439	0	0.237154
440	0	0.181818
441	0	0.188948
442	0	0.170031
443	0	0.421538
444	0	0.473846
445	0	0.0666667
446	0	0.1
447	0	0.0666667
448	0	0.0666667
449	0	0.047619
450	0	0.107143
451	0	0.325355
452	0	0.398874
453	0	0.338235
454	0	0
455	0	0
456	0	0
457	0	0
458	0	0
459	0	0
460	0	0
461	0	0
462	0	0
463	0	0
464	0	0
465	0	0
466	0	0.0357143
467	0	0.0357143
468	0	0.0357143
469	0	0.030303
470	0	0.030303
471	0	0.021978
472	0	0.0166667
473	0	0.0263158
474	0	0.46167
475	0	0.0384068
476	0	0.0346154
477	0	0.0313131
478	0	0.0305273
479	0	0.503054
480	0	0.491333
481	0	0.475047
482	0	0.440745
483	0	0.391046
484	0	0.383383
485	0	0.369106
486	0	0.306582
487	0	0.298825
488	0	0.0405712
489	0	0.115406
490	0	0.10769
491	0	0.108387
492	0	0.105903
493	0	0.115429
494	0	0.107986
495	0	0.101511
496	0	0.102979
497	0	0.163893
498	0	0.151345
499	0	0.145787
500	0	0.136134
501	0	0.131199
502	0	0.128887
503	0	0.12808
504	0	0.117235
505	0	0.106046
506	0	0
507	0	0
508	0	0
509	0	0
510	0	0
511	0	0
512	0	0
513	0	0
514	0	0
515	0	0
516	0	0
517	0	0
518	0	0
519	0	0
520	0	0.333333
521	0	0.333333
522	0	0.333333
523	0	0.333333
524	0	0.166667
525	0	0.1
526	0	0.111111
527	0	0.251737
528	0	0.242529
529	0	0.272478
530	0	0.280756
531	0	0.0206897
532	0	0.017094
533	0	0.017094
534	0	0.022792
535	0	0.022792
536	0	0.022792
537	0	0.021164
538	0	0.0252874
539	0	0.0452962
540	0	0.0486258
541	0	0.0648567
542	0	0.0727273
543	0	0.224601
544	0	0.215812
545	0	0.213902
546	0	0.375273
547	0	0.204122
548	0	0.202381
549	0	0.195796
550	0	0.344039
551	0	0.0666667
552	0	0.0363636
553	0	0.0277778
554	0	0.0357143
555	0	0.047619
556	0	0.0666667
557	0	0.1
558	0	0.1
559	0	0
560	0	0
561	0	0
562	0	0
563	0	0
564	0	0
565	0	0
566	0	0
567	0	0
568	0	0
569	0	0
570	0	0
571	0	0
572	0	0.273675
573	0	0.204162
574	0	0.171209
575	0	0.163813
576	0	0.157918
577	0	0.161598
578	0	0.141914
579	0	0.0380952
580	0	0.0392157
581	0	0.0455874
582	0	0.0667862
583	0	0.0652311
584	0	0.087874
585	0	0.0842098
586	0	0.0806543
587	0	0.0772909
588	0	0.0701618
589	0	0.102324
590	0	0.0931443
591	0	0.0700837
592	0	0
593	0	0
594	0	0
595	0	0
596	0	0
597	0	0
598	0	0
599	0	0
600	0	0
601	0	0
602	0	0
603	0	0.4
604	0	0.413793
605	0	0.427707
606	0	0.427707
607	0	0.0233918
608	0	0.0261438
609	0	0.0261438
610	0	0.0261438
611	0	0.0294118
612	0	0.0261438
613	0	0.0261438
614	0	0.0261438
615	0	0.0261438
616	0	0.0261438
617	0	0.0233918
618	0	0.0210526
619	0	0.0210526
620	0	0.0157895
621	0	0.0142857
622	0	0.0953659
623	0	0.119799
624	0	0.123667
625	0	0.174781
626	0	0.159478
627	0	0.159478
628	0	0.152727
629	0	0.15605
630	0	0.156256
631	0	0.149505
632	0	0.134084
633	0	0.130241
634	0	0.289498
635	0	0.265464
636	0	0.252362
637	0	0.239486
638	0	0.222281
639	0	0.203793
640	0	0.146172
641	0	0.146058
642	0	0.130336
643	0	0.137709
644	0	0.143529
645	0	0.137394
646	0	0.133873
647	0	0.128626
648	0	0.105204
649	0	0.0156472
650	0	0.0142248
651	0	0.0128205
652	0	0.013289
653	0	0.0151515
654	0	0.108086
655	0	0.0984816
656	0	0.0904278
657	0	0.0277778
658	0	0.0277778
659	0	0.0839652
660	0	0.0929709
661	0	1
662	0	1
663	0	1
664	0	1
665	0	1
666	0	1
667	0	1
668	0	1
669	0	1
670	0	1
671	0	1
672	0	1
673	0	1
674	0	1
675	0	1
676	0	1
677	0	1
678	0	1
679	0	1
680	0	1
681	0	1
682	0	1
683	0	1
684	0	1
685	0	1
686	0	1
687	0	1
688	0	0.333333
689	0	0.1
690	0	0.1
691	0	0.10161
692	0	0.130051
693	0	0.136278
694	0	0.0904762
695	0	0.124339
696	0	0.104384
697	0	0.195016
698	0	0.31394
699	0	0.331341
700	0	0.346656
701	0	0.344835
702	0	0.343856
703	0	0.345099
704	0	0.0588235
705	0	0.0277778
706	0	0.047619
707	0	0.1
708	0	0.1
709	0	0.166667
710	0	0.166667
711	0	0.333333
712	0	0.333333
713	0	0.333333
714	0	0.333333
715	0	0.333333
716	0	0.333333
717	0	0.333333
718	0	0.333333
719	0	0.333333
720	0	0.333333
721	0	0.333333
722	0	0.333333
723	0	0.333333
724	0	0.34914
725	0	0.348679
726	0	0.347293
727	0	0.349507
728	0	0.348645
729	0	0.343584
730	0	0.0572661
731	0	0.0559675
732	0	0.0559337
733	0	0.101552
734	0	0.409208
735	0	0.421126
736	0	0.420544
737	0	0
738	0	0
739	0	0.769974
740	0	0
741	0	0
742	0	0
743	0	0
744	0	0
745	0	0
746	0	0
747	0	0
748	0	0
749	0	0
750	0	0
751	0	0
752	0	0
753	0	0
754	0	0
755	0	0
756	0	0
757	0	0
758	0	0
759	0	0
760	0	0.0277778
761	0	0.030303
762	0	0.030303
763	0	0.361185
764	0	0.743939
765	0	0.683616
766	0	0.662586
767	0	0.233618
768	0	0.586609
769	0	0.851455
770	0	0.116883
771	0	0.105263
772	0	0.117647
773	0	0.128205
774	0	0.181818
775	0	0.181818
776	0	0.121212
777	0	0.121212
778	0	0.155556
779	0	0.0666667
780	0	0.0833333
781	0	0.214286
782	0	0.214286
783	0	0.214286
784	0	0.0952381
785	0	0.0952381
786	0	0.0952381
787	0	0.0952381
788	0	0.0952381
789	0	0.0952381
790	0	0.0666667
791	0	0.0666667
792	0	0.506544
793	0	0.508671
794	0	0.375022
795	0	0.438101
796	0	0.371212
797	0	0.55438
798	0	0.623153
799	0	0.456667
800	0	0.268116
801	0	0.268116
802	0	0.171429
803	0	0.171429
804	0	0.047619
805	0	0.047619
806	0	0.107143
807	0	0.0888889
808	0	0.222222
809	0	0
810	0	0
811	0	0.555203
812	0	0
813	0	0
814	0	0
815	0	0.0151515
816	0	0.0151515
817	0	0.0151515
818	0	0.0409357
819	0	0.0369231
820	0	0.105887
821	0	0.107651
822	0	0.106079
823	0	0.19189
824	0	0.197531
825	0	0.0635236
826	0	0.0634493
827	0	0.06353
828	0	0.128083
829	0	0.122404
830	0	0.122662
831	0	0.116829
832	0	0.0953586
833	0	0
834	0	0
835	0	0
836	0	0
837	0	0
838	0	0
839	0	0
840	0	0
841	0	0
842	0	0
843	0	0
844	0	0.252362
845	0	0.251655
846	0	0.291233
847	0	0.0459595
848	0	0.0457143
849	0	0.294863
850	0	0.294029
851	0	0
852	0	0
853	0	0
854	0	0
855	0	0
856	0	0
857	0	0
858	0	0
859	0	0
860	0	0.32892
861	0	0.037619
862	0	0.0318967
863	0	0.0318704
864	0	0.0312522
865	0	0.124271
866	0	0.108386
867	0	0.118943
868	0	0.150968
869	0	0.143731
870	0	0.135901
871	0	0.0178253
872	0	0.0178253
873	0	0.0178253
874	0	0.0168067
875	0	0.0151261
876	0	0.197732
877	0	0.244938
878	0	0.25362
879	0	0.224166
880	0	0.225727
881	0	0.355444
882	0	0.355667
883	0	0.355945
884	0	0.390362
885	0	0.0231884
886	0	0.026827
887	0	0.0286772
888	0	0.037551
889	0	0.0384347
890	0	0.0793269
891	0	0.27718
892	0	0.226746
893	0	0.206044
894	0	0.167372
895	0	0.0908989
896	0	0.112277
897	0	0.111234
898	0	0.113143
899	0	0.121211
900	0	0.106027
901	0	0.0454545
902	0	0.0454545
903	0	0.0128205
904	0	0.133725
905	0	0.159677
906	0	0.0513834
907	0	0.149561
908	0	0.0237154
909	0	0.0333333
910	0	0.0409357
911	0	0.05
912	0	0.0659341
913	0	0.0659341
914	0	0.047619
915	0	0
916	0	0
917	0	0
918	0	0
919	0	0
920	0	0
921	0	0
922	0	0
923	0	0
924	0	0
925	0	0
926	0	0
927	0	0
928	0	0
929	0	0
930	0	0.110416
931	0	0.112011
932	0	0.113392
933	0	0.141026
934	0	0.141026
935	0	0.0943018
936	0	0.095242
937	0	0.0943528
938	0	0.0889405
939	0	0
940	0	0
941	0	0
942	0	0
943	0	0
944	0	0.0434018
945	0	0.0441176
946	0	0.0754194
947	0	0.10653
948	0	0.047619
949	0	0.0666667
950	0	0.0172523
951	0	0.0903491
952	0	0.0126984
953	0	0.0126984
954	0	0.0126984
955	0	0.0165165
956	0	0.0148448
957	0	0.0141026
958	0	0.0170732
959	0	0.0170732
960	0	0.0204082
961	0	0.118358
962	0	0.128226
963	0	0.19342
964	0	0.196947
965	0	0.194758
966	0	0.102564
967	0	0.115385
968	0	0.102564
969	0	0.102564
970	0	0.102564
971	0	0.106061
972	0	0.106061
973	0	0.106061
974	0	0.106061
975	0	0.106061
976	0	0.128205
977	0	0.128205
978	0	0.166667
979	0	0.142857
980	0	0.102941
981	0	0.0736842
982	0	0.0390805
983	0	0.503576
984	0	0.478341
985	0	0.184974
986	0	0.197671
987	0	0.215184
988	0	0.5
989	0	0.0949153
990	0	0.270618
991	0	0
992	0	0
993	0	0
994	0	0
995	0	0
996	0	0
997	0	0
998	0	0
999	0	0
1000	0	0
1001	0	0
1002	0	0.083025
1003	0	0.325658
1004	0	0.315802
1005	0	0.317231
1006	0	0.107635
1007	0	0.348235
1008	0	0.338519
1009	0	0.280598
1010	0	0.280497
1011	0	0.0362319
1012	0	0.0434783
1013	0	0.0471014
1014	0	0.0507246
1015	0	0.0543478
1016	0	0.0430769
1017	0	0.617072
1018	0	0.612018
1019	0	0.602485
1020	0	0.010989
1021	0	0
1022	0	0
1023	0	0
1024	0	0
1025	0	0
1026	0	0.2
1027	0	0.2
1028	0	0.333333
1029	0	0.166667
1030	0	0
1031	0	0
1032	0	0
1033	0	0
1034	0	0
1035	0	0
1036	0	0
1037	0	0
1038	0	0
1039	0	0
1040	0	0
1041	0	0
1042	0	0.2
1043	0	0.403659
1044	0	0.406554
1045	0	0.404957
1046	0	0.363218
1047	0	0.317241
1048	0	0.280242
1049	0	0.280242
1050	0	0.317241
1051	0	0.143555
1052	0	0.143555
1053	0	0.489174
1054	0	0.456168
1055	0	0.416667
1056	0	0.277778
1057	0	0.277778
1058	0	0.277778
1059	0	0.236364
1060	0	0.236364
1061	0	0.416667
1062	0	0.416667
1063	0	0.416667
1064	0	0.307359
1065	0	0.368421
1066	0	0.129035
1067	0	0.280711
1068	0	0.152462
1069	0	0.233333
1070	0	0.26087
1071	0	0.272727
1072	0	0.25
1073	0	0.25
1074	0	0.128684
1075	0	0.108372
1076	0	0.126844
1077	0	0.122549
1078	0	0.123637
1079	0	0.169374
1080	0	0.107575
1081	0	0.0971098
1082	0	0.228415
1083	0	0.265584
1084	0	0.296081
1085	0	0.179995
1086	0	0.271429
1087	0	0.0445633
1088	0	0.211441
1089	0	0.21185
1090	0	0.149248
1091	0	0.262397
1092	0	0
1093	0	0.316817
1094	0	0
1095	0	0
1096	0	0
1097	0	0.299921
1098	0	0.0181818
1099	0	0.0181818
1100	0	0.0181818
1101	0	0.0181818
1102	0	0
1103	0	0.0571429
1104	0	0.110526
1105	0	0.110526
1106	0	0.235125
1107	0	0.252484
1108	0	0.303245
1109	0	0.324276
1110	0	0.226813
1111	0	0.320509
1112	0	0.524931
1113	0	0.53935
1114	0	0.44058
1115	0	0.811562
1116	0	0.811877
1117	0	0.0666667
1118	0	0.0363636
1119	0	0.0277778
1120	0	0.0357143
1121	0	0.0444444
1122	0	0.779197
1123	0	0
1124	0	0
1125	0	0
1126	0	0
1127	0	0
1128	0	0
1129	0	0
1130	0	0
1131	0	0
1132	0	0
1133	0	0
1134	0	0
1135	0	0
1136	0	0
1137	0	0
1138	0	0
1139	0	0
1140	0	0
1141	0	0
1142	0	0
1143	0	0
1144	0	0
1145	0	0
1146	0	0
1147	0	0
1148	0	0
1149	0	0
1150	0	0
1151	0	0
1152	0	0
1153	0	0
1154	0	0
1155	0	0
1156	0	0.152163
1157	0	0.177536
1158	0	0.155951
1159	0	0.235022
1160	0	0.219832
1161	0	0.254614
1162	0	0.264144
1163	0	0.303621
1164	0	0.0492063
1165	0	0.0580297
1166	0	0.0588235
1167	0	0.0643939
1168	0	0.0709677
1169	0	0.0553846
1170	0	0
1171	0	0
1172	0	0.6
1173	0	0
1174	0	0
1175	0	0
1176	0	0
1177	0	0
1178	0	0
1179	0	0
1180	0	0
1181	0	0.228246
1182	0	0.256081
1183	0	0.345571
1184	0	0.346989
1185	0	0.353372
1186	0	0.0634921
1187	0	0.0505747
1188	0	0.0443548
1189	0	0.026738
1190	0	0.0572549
1191	0	0.219127
1192	0	0.192388
1193	0	0.172438
1194	0	0.32886
1195	0	0.325642
1196	0	0.324288
1197	0	0
1198	0	0
1199	0	0
1200	0	0
1201	0	0
1202	0	0.319902
1203	0	0.317302
1204	0	0.313361
1205	0	0.0275327
1206	0	0.324089
1207	0	0.0222222
1208	0	0.323399
1209	0	0.333904
1210	0	0.0666667
1211	0	0.047619
1212	0	0
1213	0	0
1214	0	0
1215	0	0
1216	0	0.722031
1217	0	0.722031
1218	0	0.617483
1219	0	0.417737
1220	0	0.368511
1221	0	0.562283
1222	0	0.635294
1223	0	0.675579
1224	0	0.0666667
1225	0	0.0666667
1226	0	0.0666667
1227	0	0.0666667
1228	0	0.0666667
1229	0	0.0666667
1230	0	0.0666667
1231	0	0.0666667
1232	0	0.0666667
1233	0	0.0666667
1234	0	0.0666667
1235	0	0.853082
1236	0	0.0357143
1237	0	0.234428
1238	0	0
1239	0	0
1240	0	0
1241	0	0
1242	0	0.00952381
1243	0	0.0409357
1244	0	0.19675
1245	0	0.291291
1246	0	0.0970266
1247	0	0.110277
1248	0	0.136251
1249	0	0.132686
1250	0	0.125295
1251	0	0.157143
1252	0	0.173684
1253	0	0.173684
1254	0	0.147619
1255	0	0.161905
1256	0	0.142105
1257	0	0.142105
1258	0	0.142105
1259	0	0.182874
1260	0	0.0952381
1261	0	0.0952381
1262	0	0.0952381
1263	0	0.0952381
1264	0	0.0952381
1265	0	0
1266	0	0
1267	0	0
1268	0	0
1269	0	0
1270	0	0
1271	0	0
1272	0	0
1273	0	0
1274	0	0.276745
1275	0	0.246199
1276	0	0.104762
1277	0	0.0808824
1278	0	0.236364
1279	0	0.236364
1280	0	0.288889
1281	0	0.16427
1282	0	0.129723
1283	0	0.139403
1284	0	0.15015
1285	0	0.0967283
1286	0	0.131976
1287	0	0.130918
1288	0	0.136898
1289	0	0.315042
1290	0	0.174552
1291	0	0.275522
1292	0	0.27315
1293	0	0.383758
1294	0	0.269095
1295	0	0.155881
1296	0	0.0838863
1297	0	0.142186
1298	0	0.17804
1299	0	0.358399
1300	0	0.141538
1301	0	0.142105
1302	0	0.141026
1303	0	0.128205
1304	0	0
1305	0	0
1306	0	0
1307	0	0
1308	0	0
1309	0	0
1310	0	0
1311	0	0.17261
1312	0	0.178947
1313	0	0.0833333
1314	0	0.214286
1315	0	0.214286
1316	0	0.214286
1317	0	0.166667
1318	0	0.0833333
1319	0	0.0833333
1320	0	0.0833333
1321	0	0.0833333
1322	0	0.230478
1323	0	0.205917
1324	0	0.219519
1325	0	0.123818
1326	0	0.24666
1327	0	0.0357143
1328	0	0.0357143
1329	0	0.047619
1330	0	0.047619
1331	0	0.204718
1332	0	0.20696
1333	0	0.192982
1334	0	0.265653
1335	0	0.236954
1336	0	0.333577
1337	0	0.248659
1338	0	0.165956
1339	0	0.158303
1340	0	0.164688
1341	0	0.210269
1342	0	0.1
1343	0	0.333333
1344	0	0.333333
1345	0	0.333333
1346	0	1
1347	0	1
1348	0	1
1349	0	1
1350	0	1
1351	0	1
1352	0	1
1353	0	1
1354	0	1
1355	0	1
1356	0	1
1357	0	1
1358	0	1
1359	0	1
1360	0	1
1361	0	1
1362	0	1
1363	0	1
1364	0	1
1365	0	1
1366	0	1
1367	0	1
1368	0	1
1369	0	1
1370	0	1
1371	0	1
1372	0	1
1373	0	1
1374	0	1
1375	0	0.5
1376	0	0.5
1377	0	0.3
1378	0	0.3
1379	0	0.2
1380	0	0.2
1381	0	0.2
1382	0	0.142857
1383	0	0.47619
1384	0	0.47619
1385	0	0.47619
1386	0	0.47619
1387	0	0.47619
1388	0	0.242424
1389	0	0.544805
1390	0	0.235867
1391	0	0.255993
1392	0	0.242148
1393	0	0.247409
1394	0	0.241904
1395	0	0.171429
1396	0	0.292024
1397	0	0.163636
1398	0	0.163636
1399	0	0.163636
1400	0	0.121382
1401	0	0.155538
1402	0	0.17881
1403	0	0
1404	0	0
1405	0	1
1406	0	1
1407	0	1
1408	0	0.0179856
1409	0	0.0189106
1410	0	0.4
1411	0	0.25
1412	0	0.25
1413	0	0.25
1414	0	0.4
1415	0	0.535714
1416	0	0.535714
1417	0	0.357143
1418	0	0.4
1419	0	0.4
1420	0	0.4
1421	0	0.133333
1422	0	0.4
1423	0	0.4
1424	0	0.4
1425	0	0.25
1426	0	0.155556
1427	0	0.194444
1428	0	0.194444
1429	0	0.191729
1430	0	0.203072
1431	0	0.0674764
1432	0	0.0836707
1433	0	0.0850202
1434	0	0.097166
1435	0	0.097166
1436	0	0.0268332
1437	0	0.266995
1438	0	0.0538776
1439	0	0.0530612
1440	0	0.0700355
1441	0	0.131206
1442	0	0.155102
1443	0	0.169326
1444	0	0.190603
1445	0	0.202449
1446	0	0.474884
1447	0	0.486702
1448	0	0.553395
1449	0	0.0333333
1450	0	0.0384615
1451	0	0.0384615
1452	0	0.0384615
1453	0	0.0641026
1454	0	0.0512821
1455	0	0.0512821
1456	0	0.0512821
1457	0	0.0641026
1458	0	0.0641026
1459	0	0.0641026
1460	0	0.0641026
1461	0	0.0641026
1462	0	0.0641026
1463	0	0.115385
1464	0	0.115385
1465	0	0.166667
1466	0	0.166667
1467	0	0.153846
1468	0	0.133333
1469	0	0.110294
1470	0	0.418327
1471	0	0.0487578
1472	0	0.326508
1473	0	0.318803
1474	0	0.317231
1475	0	0.318867
1476	0	0.320064
1477	0	0.319444
1478	0	0.321077
1479	0	0.322027
1480	0	0.245424
1481	0	0.1166
1482	0	0.113633
1483	0	0.126523
1484	0	0.0222222
1485	0	0.0238095
1486	0	0.0253968
1487	0	0.0268908
1488	0	0.53468
1489	0	0
1490	0	0
1491	0	0
1492	0	0
1493	0	0
1494	0	0
1495	0	0
1496	0	0.00833333
1497	0	0.00833333
1498	0	0.0196078
1499	0	0.00952381
1500	0	0.01
1501	0	0.0153846
1502	0	0.0853933
1503	0	0.477467
1504	0	0.478567
1505	0	0.51824
1506	0	0.517832
1507	0	0
1508	0	0
1509	0	0
1510	0	0
1511	0	0.146291
1512	0	0.407117
1513	0	0.402094
1514	0	0.279717
1515	0	0.0967742
1516	0	0.0388745
1517	0	0.031871
1518	0	0.596052
1519	0	0.027668
1520	0	0.021645
1521	0	0.0263158
1522	0	0.0292398
1523	0	0.0292398
1524	0	0.0311688
1525	0	0.778624
1526	0	0.0423387
1527	0	0.0516129
1528	0	0.0641026
1529	0	0.0641026
1530	0	0.0641026
1531	0	0.0641026
1532	0	0.0641026
1533	0	0.0641026
1534	0	0.0641026
1535	0	0.134387
1536	0	0.148148
1537	0	0.494469
1538	0	0.49411
1539	0	0.170593
1540	0	0.646156
1541	0	0.651085
1542	0	0.0877521
1543	0	0.0915211
1544	0	0.338235
1545	0	0.383333
1546	0	0.438095
1547	0	0.323686
1548	0	0.323292
1549	0	0.342761
1550	0	0.322969
1551	0	0.324642
1552	0	0
1553	0	0
1554	0	0
1555	0	0
1556	0	0
1557	0	0.0207355
1558	0	0.33436
1559	0	0.334479
1560	0	0.335019
1561	0	0.329458
1562	0	0.15
1563	0	0.138462
1564	0	0.286154
1565	0	0.196581
1566	0	0.650606
1567	0	0.5
1568	0	0.166667
1569	0	0.166667
1570	0	0.166667
1571	0	0.166667
1572	0	0.166667
1573	0	0.166667
1574	0	0.4
1575	0	0.333333
1576	0	0.333333
1577	0	0.333333
1578	0	0.333333
1579	0	0.333333
1580	0	0.333333
1581	0	0.333333
1582	0	0.333333
1583	0	0.333333
1584	0	0.488889
1585	0	0.611111
1586	0	0.611111
1587	0	0.611111
1588	0	1
1589	0	1
1590	0	0.513282
1591	0	0.166667
1592	0	0.166667
1593	0	0
1594	0	0.3
1595	0	0.3
1596	0	0.3
1597	0	0.3
1598	0	0.3
1599	0	0.3
1600	0	0.3
1601	0	0.3
1602	0	0.3
1603	0	0.3
1604	0	0.3
1605	0	0.1
1606	0	0.1
1607	0	0.1
1608	0	0.1
1609	0	0
1610	0	0
1611	0	0.416432
1612	0	0
1613	0	0
1614	0	0
1615	0	0
1616	0	0
1617	0	0
1618	0	0
1619	0	0
1620	0	0
1621	0	0
1622	0	0
1623	0	0.409812
1624	0	0.410343
1625	0	0.061706
1626	0	0.35691
1627	0	0.361927
1628	0	0.441691
1629	0	0.0609579
1630	0	0.0580014
1631	0	0.101028
1632	0	0.353906
1633	0	0.346538
1634	0	0.346648
1635	0	0.347352
1636	0	0.355429
1637	0	0.353613
1638	0	0
1639	0	0
1640	0	0
1641	0	0
1642	0	0
1643	0	0
1644	0	0
1645	0	0
1646	0	0
1647	0	0
1648	0	0
1649	0	0
1650	0	0
1651	0	0
1652	0	0
1653	0	0
1654	0	0.333333
1655	0	0.333333
1656	0	0.2
1657	0	0.0952381
1658	0	0.0952381
1659	0	0.0952381
1660	0	0.0555556
1661	0	0.0555556
1662	0	0.0545455
1663	0	0.0333333
1664	0	0.0368421
1665	0	0.0574713
1666	0	0.0707317
1667	0	0.0713725
1668	0	0.048727
1669	0	0.596002
1670	0	0.589365
1671	0	0.574188
1672	0	0.578819
1673	0	0.578766
1674	0	0.580689
1675	0	0.604096
1676	0	0.376493
1677	0	0.39226
1678	0	0.0772178
1679	0	0.0911656
1680	0	0.0291105
1681	0	0.0264278
1682	0	0.723228
1683	0	0.015873
1684	0	0.0113636
1685	0	0.017094
1686	0	0.0184615
1687	0	0.0184615
1688	0	0.0338462
1689	0	0.0307692
1690	0	0.0307692
1691	0	0.025641
1692	0	0.037037
1693	0	0.813302
1694	0	0.0190275
1695	0	0.0227596
1696	0	0.0283401
1697	0	0.0283401
1698	0	0.370509
1699	0	0.369754
1700	0	0.372281
1701	0	0.371596
1702	0	0.385947
1703	0	0.0724638
1704	0	0.0588235
1705	0	0.0583333
1706	0	0.0583333
1707	0	0.0666667
1708	0	0.1
1709	0	0.166667
1710	0	0.166667
1711	0	0.166667
1712	0	0.166667
1713	0	0.166667
1714	0	0.333333
1715	0	0.333333
1716	0	0.333333
1717	0	0.333333
1718	0	0.333333
1719	0	0.333333
1720	0	0.333333
1721	0	1
1722	0	1
1723	0	1
1724	0	1
1725	0	1
1726	0	0
1727	0	0
1728	0	0
1729	0	0
1730	0	0
1731	0	0
1732	0	0
1733	0	0
1734	0	0
1735	0	0
1736	0	0
1737	0	0
1738	0	0
1739	0	0
1740	0	0
1741	0	0
1742	0	0
1743	0	0
1744	0	0
1745	0	0
1746	0	0
1747	0	0
1748	0	0
1749	0	0
1750	0	0.378604
1751	0	0.378615
1752	0	0.364023
1753	0	0.364687
1754	0	0.551232
1755	0	1
1756	0	1
1757	0	1
1758	0	1
1759	0	1
1760	0	1
1761	0	1
1762	0	1
1763	0	1
1764	0	1
1765	0	0.333333
1766	0	1
1767	0	1
1768	0	1
1769	0	1
1770	0	1
1771	0	1
1772	0	1
1773	0	1
1774	0	1
1775	0	1
1776	0	1
1777	0	0.333333
1778	0	0.333333
1779	0	0.4
1780	0	0.4
1781	0	0.4
1782	0	0.4
1783	0	0.690519
1784	0	0.378949
1785	0	0.287342
1786	0	0.290709
1787	0	0.359356
1788	0	0.352113
1789	0	0.291667
1790	0	0.635716
1791	0	0.666417
1792	0	0.666417
1793	0	0.667416
1794	0	0.664577
1795	0	0.695759
1796	0	0.700636
1797	0	0.703135
1798	0	0.705913
1799	0	0.784318
1800	0	0.911259
1801	0	0.973096
1802	0	0.97312
1803	0	1
1804	0	1
1805	0	1
1806	0	0.983849
1807	0	0.983849
1808	0	0.982078
1809	0	0.982081
1810	0	0.982078
1811	0	1
1812	0	0.498137
1813	0	0
1814	0	0
1815	0	0
1816	0	0
1817	0	0
1818	0	0
1819	0	0
1820	0	0
1821	0	0
1822	0	0.166667
1823	0	0.72225
1824	0	0.522161
1825	0	0.510208
1826	0	0.215789
1827	0	0.19883
1828	0	0.280952
1829	0	0.611022
1830	0	0.1
1831	0	0.0904762
1832	0	0.12381
1833	0	0.523333
1834	0	0.451687
1835	0	0.985267
1836	0	0.992803
1837	0	0.992803
1838	0	0.992803
1839	0	0.992803
1840	0	0.994604
1841	0	0.996404
1842	0	0.996408
1843	0	0.996408
1844	0	0.996408
1845	0	0.998201
1846	0	0.998201
1847	0	0.998201
1848	0	0.998201
1849	0	0.998201
1850	0	1
1851	0	1
1852	1	1
1853	1	1
1854	0	0.987487
1855	0	0.825802
1856	0	0.992841
1857	0	0.994624
1858	0	0.996411
1859	0	0.996411
1860	0	0.996411
1861	0	0.998203
1862	0	0.996411
1863	0	0.992848
1864	0	0.994628
1865	0	0.994628
1866	0	0.996417
1867	0	0
1868	0	0
1869	0	0
1870	0	0
1871	0	0
1872	0	0
1873	0	0
1874	0	0
1875	0	0
1876	0	0.333333
1877	1	1
1878	1	1
1879	1	1
1880	1	1
1881	1	1
1882	1	1
1883	1	1
1884	1	1
1885	1	1
1886	1	1
1887	1	1
1888	0	0.5
1889	0	0.5
1890	0	0.5
1891	0	0.5
1892	0	0.994599
1893	0	0.994599
1894	0	0.996395
1895	0	0.996395
1896	0	0.996395
1897	0	0.996395
1898	0	0.996395
1899	0	0.996395
1900	0	0.996424
1901	0	0.996424
1902	0	0.996424
1903	0	0.996424
1904	0	0.996424
1905	0	0.996424
1906	0	0.996424
1907	0	0.996424
1908	0	0.996424
1909	0	0.996424
1910	0	0.996424
1911	0	0.996424
1912	0	0.994643
1913	0	0
1914	0	0
1915	0	0
1916	0	0
1917	0	0
1918	0	0
1919	0	0
1920	0	0
1921	0	0
1922	0	0
1923	0	0
1924	0	0
1925	0	0
1926	0	0
1927	0	0
1928	0	0
1929	0	0
1930	0	0
1931	0	0
1932	0	0
1933	0	0
1934	0	0
1935	0	0
1936	0	0
1937	0	0
1938	0	0
1939	0	0
1940	0	0
1941	0	0
1942	0	0
1943	0	0
1944	0	0
1945	0	0
1946	0	0
1947	0	0.994638
1948	0	0.994638
1949	0	0.994638
1950	0	0.994633
1951	0	0.994633
1952	0	0.994628
1953	0	0.777778
1954	0	0.305556
1955	0	0.305556
1956	0	0.976761
1957	0	0.777778
1958	0	0.777778
1959	0	1
1960	0	1
1961	0	1
1962	0	0.905163
1963	0	0
1964	0	0
1965	0	0
1966	0	0
1967	0	0
1968	0	0
1969	0	0
1970	0	0
1971	0	0
1972	0	0
1973	0	0
1974	0	0
1975	0	0
1976	0	0
1977	0	0
1978	0	0.901096
1979	0	0.269231
1980	0	0.269231
1981	0	0.175824
1982	0	0.266667
1983	0	0.492674
1984	0	0.552403
1985	0	0.587731
1986	0	0
1987	0	0
1988	0	0.333333
1989	0	0.333333
1990	0	0.333333
1991	0	0
1992	0	0
1993	0	0.73804
1994	0	0.676471
1995	0	0.937479
1996	0	0.822511
1997	0	0.4367
1998	0	0.4367
1999	0	0.71757
2000	0	0.414058
2001	0	0.34558
2002	0	0.25
2003	0	0.25
2004	0	0.262364
2005	0	0
2006	0	0
2007	0	0
2008	0	0
2009	0	0
2010	0	0
2011	0	0
2012	0	0
2013	0	0
2014	0	0
2015	0	0
2016	0	0
2017	0	0
2018	0	0
2019	0	0.460504
2020	0	0.44127
2021	0	0.314103
2022	0	0.282282
2023	0	0.196283
2024	0	0.146465
2025	0	0.106503
2026	0	0.113462
2027	0	0.202115
2028	0	0.129665
2029	0	0.14596
2030	0	0.210418
2031	0	0.237043
2032	0	0.19121
2033	0	0.323235
2034	0	0.277917
2035	0	0.436
2036	0	0.44972
2037	0	0.425865
2038	0	0.229216
2039	0	0.273794
2040	0	0.287627
2041	0	0.328576
2042	0	0.432788
2043	0	0.0995475
2044	0	0.110305
2045	0	0.150849
2046	0	0.282925
2047	0	0.0946022
2048	0	0.165383
2049	0	0.179629
2050	0	0.198319
2051	0	0.210256
2052	0	0.365385
2053	0	0.285828
2054	0	0.242569
2055	0	0.188322
2056	0	0.24021
2057	0	0.314207
2058	0	0.31885
2059	0	0.532519
2060	0	0.55695
2061	0	0.795577
2062	0	0.729846
2063	0	0.746437
2064	0	0.508612
2065	0	0.53814
2066	0	0.696642
2067	0	0.777778
2068	0	0.818182
2069	0	0.818182
2070	0	0.967903
2071	0	0.967968
2072	0	0.257576
2073	0	0.982074
2074	0	0
2075	0	0
2076	0	0
2077	0	0
2078	0	0
2079	0	0
2080	0	0
2081	0	1
2082	0	1
2083	0	1
2084	0	0.992788
2085	0	0.992788
2086	0	0.992794
2087	0	0.992794
2088	0	0.994595
2089	0	0.994604
2090	0	0.991044
2091	0	0.991036
2092	0	0.991036
2093	0	0.996398
2094	0	0.996398
2095	0	0.996398
2096	0	0.996398
2097	0	0.996398
2098	0	0.996398
2099	0	0.994599
2100	0	0
2101	0	0.998193
2102	0	0.998195
2103	0	0.998195
2104	0	0.998195
2105	0	0.996395
2106	0	0.996395
2107	0	0.991028
2108	0	0.982212
2109	0	0.998208
2110	0	0.998208
2111	0	0.998208
2112	0	1
2113	0	0
2114	1	1
2115	1	1
2116	1	1
2117	1	1
2118	0	0.886818
2119	0	0.992854
2120	0	0.994638
2121	0	0.994643
2122	0	0.994643
2123	0	0.996427
2124	0	0.998209
2125	0	0.998209
2126	0	0.998209
2127	0	0.996424
2128	0	0.996424
2129	0	0.996424
2130	0	0.998209
2131	0	0.998211
2132	0	0.998211
2133	0	0.998211
2134	0	0.998213
2135	0	0.998213
2136	1	1
2137	1	1
2138	1	1
2139	1	1
2140	0	0
2141	0	0
2142	0	0
2143	0	0.994652
2144	0	0.994652
2145	0	0.994652
2146	0	0.994652
2147	0	0.994652
2148	0	0.994652
2149	0	0.994652
2150	0	0.994652
2151	0	0.994652
2152	0	0.992879
2153	0	0.992879
2154	0	0.992879
2155	0	0.994657
2156	0	0.994657
2157	0	0.996433
2158	0	0.994648
2159	0	1
2160	0	1
2161	0	1
2162	0	1
2163	0	1
2164	0	0.333333
2165	0	1
2166	0	1
2167	0	1
2168	0	1
2169	0	0
2170	0	0
2171	0	0
2172	0	0
2173	0	0
2174	0	0
2175	0	0
2176	0	0
2177	0	0.859788
2178	0	0.859788
2179	0	0.800493
2180	0	0.800493
2181	0	0.800493
2182	0	0.800493
2183	0	0.800493
2184	0	0.800493
2185	0	0.864532
2186	0	0.864532
2187	0	0.864532
2188	0	0.864532
2189	0	0.864532
2190	0	0.806897
2191	0	0.754839
2192	0	0.666667
2193	0	0.514936
2194	0	0.465385
2195	0	0.422764
2196	0	0.403101
2197	0	0.383721
2198	0	0.366667
2199	0	0.366667
2200	0	0.366667
2201	0	0.282051
2202	0	0.278281
2203	0	0.248911
2204	0	0.217419
2205	0	0.828296
2206	0	0.151515
2207	0	0.392027
2208	0	0.347341
2209	0	0.344296
2210	0	0.246681
2211	0	0.246681
2212	0	0.266214
2213	0	0.0849673
2214	0	0.0818713
2215	0	0.0760234
2216	0	0.0760234
2217	0	0.0915033
2218	0	0.0915033
2219	0	0.0915033
2220	0	0.102941
2221	0	0.102941
2222	0	0.102941
2223	0	0.102941
2224	0	0.117647
2225	0	0.117647
2226	0	0.133333
2227	0	0.324276
2228	0	0
2229	0	0
2230	0	0.0666667
2231	0	0.142857
2232	0	0.482956
2233	0	0.181818
2234	0	0.212121
2235	0	0.254545
2236	0	0.254545
2237	0	0.499379
2238	0	0
2239	0	0
2240	0	0
2241	0	0
2242	0	0
2243	0	0
2244	0	0
2245	0	0
2246	0	0
2247	0	0
2248	0	0
2249	0	0
2250	0	0
2251	0	0
2252	0	0
2253	0	0
2254	0	0
2255	0	0
2256	0	0
2257	0	0
2258	0	0
2259	0	0
2260	0	0
2261	0	0
2262	0	0
2263	0	0
2264	0	0
2265	0	0
2266	0	0
2267	0	0
2268	0	0
2269	0	0
2270	0	0.776927
2271	0	0.632337
2272	0	0.625692
2273	0	0.675958
2274	0	0.675958
2275	0	0.675958
2276	0	0.675958
2277	0	0.675958
2278	0	0.75
2279	0	0.75
2280	0	0.75
2281	0	0.75
2282	0	0.75
2283	0	0.75
2284	0	0.75
2285	0	0.75
2286	0	1
2287	0	1
2288	0	1
2289	0	1
2290	0	1
2291	0	0.978614
2292	0	0.989244
2293	0	0.989292
2294	0	0.991073
2295	0	0.991073
2296	0	0.333333
2297	0	0.333333
2298	0	0.992856
2299	0	0.992856
2300	0	0.973512
2301	0	0.996433
2302	0	0.996433
2303	0	0.996433
2304	0	0.998214
2305	0	0.998214
2306	0	0.998214
2307	0	0.998214
2308	0	0.998214
2309	0	0.998214
2310	0	0.998214
2311	0	0.998214
2312	0	0.998214
2313	0	0.998214
2314	0	1
2315	0	1
2316	0	1
2317	0	1
2318	1	1
2319	1	1
2320	1	1
2321	1	1
2322	1	1
2323	1	1
2324	1	1
2325	1	1
2326	1	1
2327	1	1
2328	1	1
2329	1	1
2330	1	1
2331	1	1
2332	1	1
2333	1	1
2334	1	1
2335	1	1
2336	0	0
2337	0	0
2338	0	0
2339	0	0
2340	0	0
2341	0	0
2342	1	0
2343	1	0
2344	1	0
2345	1	0
2346	1	0
2347	0	0
2348	0	0
2349	0	0
2350	0	0
2351	0	0
2352	1	0
2353	1	0
2354	1	0
2355	1	0
2356	0	0
2357	0	0
2358	0	0
2359	0	0
2360	0	0
2361	0	0
2362	0	0
2363	0	0
2364	0	0
2365	0	0
2366	0	0
2367	0	0
2368	0	0
2369	1	0
2370	1	0
2371	1	0
2372	1	0
2373	0	0
2374	0	0
2375	1	0
2376	1	0
2377	1	0
2378	1	0
2379	1	0
2380	1	0
2381	1	0
2382	1	0
2383	1	0
2384	1	0
2385	1	0
2386	1	0
2387	1	0
2388	1	0
2389	1	0
2390	1	0
2391	1	0
2392	1	0
2393	1	0
2394	1	0
2395	0	0
2396	0	0
2397	0	0
2398	0	0
2399	0	0
2400	0	0
2401	0	0
2402	0	0
2403	0	0
2404	0	0
2405	0	0
2406	0	0
2407	1	0
2408	1	0
2409	1	0
2410	1	0
2411	1	0
2412	1	0
2413	0	0
2414	0	0
2415	0	0
2416	0	0
2417	0	0
2418	0	0
2419	0	0
2420	0	0
2421	0	0
2422	0	0
2423	0	0
2424	0	0
2425	0	0
2426	1	0
2427	1	0
2428	1	0
2429	1	0
2430	1	0
2431	1	0
2432	1	0
2433	1	0
2434	1	0
2435	1	0
2436	1	0
2437	0	0
2438	0	0
2439	0	0
2440	0	0
2441	0	0
2442	0	0
2443	0	0
2444	0	0
2445	0	0
2446	0	0
2447	0	0
2448	0	0
2449	0	0
2450	0	0
2451	0	0
2452	0	0
2453	0	0
2454	0	0
2455	0	0
2456	0	0
2457	0	0
2458	0	0
2459	0	0
2460	0	0
2461	0	0
2462	0	0
2463	0	0
2464	0	0
2465	0	0
2466	0	0
2467	0	0
2468	0	0
2469	0	0
2470	0	0
2471	0	0
2472	0	0
2473	0	0
2474	0	0
2475	0	0
2476	0	0
2477	0	0
2478	0	0
2479	0	0
2480	0	0
2481	0	0
2482	0	0
2483	0	0
2484	1	0
2485	0	0
2486	0	0
2487	0	0
2488	0	0.996427
2489	0	0.996427
2490	0	0.996427
2491	0	0
2492	0	0
2493	0	0
2494	0	0
2495	0	0
2496	0	0
2497	0	0
2498	0	0
2499	0	0
2500	0	0
2501	0	0
2502	1	0
2503	0	0
2504	0	0
2505	0	0
2506	0	0
2507	0	0
2508	0	0
2509	0	0
2510	0	0
2511	0	0
2512	0	0
2513	0	0
2514	0	0
2515	0	0
2516	0	0
2517	0	0
2518	0	0
2519	0	0
2520	0	0
2521	0	0
2522	0	0
2523	0	0
2524	0	0
2525	0	0
2526	0	0
2527	0	0
2528	0	0
2529	0	0
2530	0	0
2531	0	0
2532	0	0
2533	0	0
2534	0	0
2535	0	0
2536	0	0
2537	0	0
2538	0	0
2539	0	0
2540	0	0
2541	0	0
2542	0	0
2543	0	0
2544	0	0
2545	0	0
2546	0	0
2547	0	0
2548	0	0
2549	0	0
2550	0	0
2551	0	0
2552	0	0
2553	0	0
2554	0	0
2555	0	0
2556	0	0
2557	0	0
2558	0	0
2559	0	0
2560	0	0
2561	0	0
2562	0	0
2563	0	0
2564	0	0
2565	0	0
2566	0	0
2567	0	0
2568	0	0
2569	0	0
2570	0	0
2571	0	0
2572	0	0
2573	0	0
2574	0	0
2575	0	0
2576	0	0
2577	0	0
2578	0	0
2579	0	0
2580	0	0
2581	0	0
2582	0	0
2583	0	0
2584	0	0
2585	0	0
2586	0	0
2587	0	0
2588	0	0
2589	0	0
2590	0	0
2591	0	0
2592	0	0
2593	0	0
2594	0	0
2595	0	0
2596	0	0
2597	0	0
2598	0	0
2599	0	0
2600	0	0
2601	0	0
2602	0	0
2603	0	0
2604	0	0
2605	0	0
2606	0	0
2607	0	0
2608	0	0
2609	0	0
2610	0	0
2611	0	0
2612	0	0
2613	0	0
2614	0	0
2615	0	0
2616	0	0
2617	0	0.998209
2618	0	0.996424
2619	0	0.996424
2620	0	0.996421
2621	0	0.996421
2622	0	0.996421
2623	0	0.996421
2624	0	0.996421
2625	0	0.996421
2626	0	0.994633
2627	0	0.994633
2628	0	0.994638
2629	0	0
2630	0	0
2631	0	0
2632	0	0
2633	0	0
2634	0	0
2635	0	0
2636	0	0
2637	0	0
2638	0	0
2639	0	0
2640	0	0
2641	0	0
2642	1	0
2643	1	0
2644	1	0
2645	1	0
2646	1	0
2647	1	0
2648	1	0
2649	1	0
2650	0	0
2651	0	0
2652	0	0
2653	0	0
2654	0	0.333333
2655	0	0.983977
2656	0	0
2657	0	0
2658	0	0
2659	0	0
2660	0	0
2661	0	0
2662	0	0
2663	0	0
2664	0	0
2665	0	0
2666	0	0
2667	0	0
2668	0	0
2669	0	0
2670	0	0.1
2671	0	0.3
2672	0	0.3
2673	0	0.6
2674	0	0.994633
2675	0	0.996421
2676	0	0.996421
2677	0	0.996421
2678	0	0.996421
2679	0	0.996421
2680	0	0.996421
2681	0	0.996421
2682	0	0.996421
2683	0	0.994633
2684	0	0
2685	0	0
2686	0	0
2687	0	0
2688	0	0
2689	0	0.994624
2690	0	0.996414
2691	0	0.996411
2692	0	0.996411
2693	0	0.996411
2694	0	0.996411
2695	0	0.996411
2696	0	0.996411
2697	0	0.994619
2698	0	0
2699	0	0
2700	0	0
2701	0	0
2702	0	0
2703	0	0
2704	0	0
2705	0	0
2706	0	0
2707	0	0
2708	0	0
2709	0	0
2710	0	0
2711	0	0
2712	0	0
2713	0	0
2714	0	0
2715	0	0
2716	0	0
2717	0	0
2718	0	0.996408
2719	0	0.996408
2720	0	0.994619
2721	0	0.992835
2722	0	0.992835
2723	0	0
2724	0	0
2725	0	0
2726	0	0
2727	0	0
2728	0	0
2729	0	0
2730	0	0
2731	0	0
2732	0	0
2733	0	0
2734	0	0
2735	0	0.996408
2736	0	0.996411
2737	0	0.996411
2738	0	0.996414
2739	0	0.996404
2740	0	0
2741	0	0.994609
2742	0	0.996395
2743	0	0.996395
2744	0	0.996395
2745	0	0.996395
2746	0	0.996395
2747	0	0.996395
2748	0	0.996398
2749	0	0.996398
2750	0	0.996398
2751	0	0.996398
2752	0	0.996398
2753	0	0.841537
2754	0	0
2755	0	0
2756	0	0
2757	0	0
2758	0	0
2759	0	0
2760	0	0
2761	0	0
2762	0	0
2763	0	0.6
2764	0	0.6
2765	0	0.6
2766	0	0.3
2767	0	0.1
2768	0	0.1
2769	0	0.1
2770	0	0.1
2771	0	0.3
2772	0	0.5
2773	0	0.166667
2774	0	0.166667
2775	0	0.166667
2776	0	0.166667
2777	0	0.1
2778	0	0.166667
2779	0	0.5
2780	0	1
2781	0	0.495891
2782	0	0.79741
2783	0	0.445742
2784	0	0
2785	0	0
2786	0	0
2787	0	0
2788	0	0
2789	0	0
2790	0	0
2791	0	0
2792	0	0
2793	0	0
2794	0	0
2795	0	0
2796	0	0
2797	0	0
2798	0	0
2799	0	0
2800	0	0
2801	0	0
2802	0	0
2803	0	0
2804	0	0
2805	0	0
2806	0	0
2807	0	0.222222
2808	0	0.222222
2809	0	0.181818
2810	0	0.142857
2811	0	0.116667
2812	0	0.0980392
2813	0	0.746704
2814	0	0.72461
2815	0	0.683698
2816	0	0.683804
2817	0	0.673965
2818	0	0.620019
2819	0	0.620019
2820	0	0.620019
2821	0	0.603485
2822	0	0.595882
2823	0	0.595974
2824	0	0.596249
2825	0	0.578451
2826	0	0.683294
2827	0	0.683294
2828	0	0.674004
2829	0	0.656239
2830	0	0.656239
2831	0	0.656239
2832	0	0.656675
2833	0	0.656152
2834	0	0.656152
2835	0	0.648091
2836	0	0.648091
2837	0	0.649467
2838	0	0.701066
2839	0	0.691962
2840	0	0.683033
2841	0	0.682279
2842	0	0.700206
2843	0	0.616334
2844	0	0.517853
2845	0	0.395941
2846	0	0.80193
2847	0	0.802423
2848	0	0.776716
2849	0	0.752684
2850	0	0.662464
2851	0	0.652516
2852	0	0.643454
2853	0	0.631799
2854	0	0.628885
2855	0	0.617813
2856	0	0.61723
2857	0	0.628011
2858	0	0.628399
2859	0	0.628302
2860	0	0.628497
2861	0	0.628497
2862	0	0.673861
2863	0	0.1
2864	0	0.1
2865	0	0.1
2866	0	0.1
2867	0	0.1
2868	0	0
2869	0	0
2870	0	0
2871	0	0
2872	0	0
2873	0	0
2874	0	0
2875	0	0
2876	0	0
2877	0	0
2878	0	0
2879	0	0.736555
2880	0	0.747211
2881	0	0.786728
2882	0	0.800652
2883	0	0.109091
2884	0	0.0833333
2885	0	0
2886	0	0
2887	0	0
2888	0	0
2889	0	0
2890	0	0
2891	0	0
2892	0	0
2893	0	0
2894	0	0
2895	0	0
2896	0	0
2897	0	0
2898	0	0
2899	0	0
2900	0	0.333333
2901	0	0.5
2902	0	0.5
2903	0	0.5
2904	0	0.5
2905	0	0.875
2906	0	0.875
2907	0	0.875
2908	0	0.894737
2909	0	0.984496
2910	0	0.984848
2911	0	0.984848
2912	0	0.984848
2913	0	0.984848
2914	0	0.970039
2915	0	0.970039
2916	0	0.98211
2917	0	0.987468
2918	0	0
2919	0	0
2920	0	0
2921	0	0
2922	0	0
2923	0	0
2924	0	0
2925	0	0
2926	0	0
2927	0	0
2928	0	0
2929	0	0.992817
2930	0	0.991033
2931	0	0.991033
2932	0	0.991041
2933	0	0.989263
2934	0	0.989263
2935	0	0.989263
2936	0	0.991033
2937	0	0.991033
2938	0	0.991033
2939	0	0.991033
2940	0	0.991033
2941	0	0.991033
2942	0	0.991033
2943	0	0
2944	0	0
2945	0	0
2946	0	0
2947	0	0
2948	0	0
2949	0	0
2950	0	0
2951	0	0
2952	0	0
2953	0	0
2954	0	0
2955	0	0
2956	0	0
2957	0	0
2958	0	0
2959	0	0
2960	0	0
2961	0	0
2962	0	0
2963	0	0
2964	0	0
2965	0	0
2966	0	0
2967	0	0
2968	0	0
2969	0	0
2970	0	0
2971	0	0
2972	0	0
2973	0	0
2974	0	0
2975	0	0
2976	0	0
2977	0	0
2978	0	0
2979	0	0
2980	0	0
2981	0	0
2982	0	0
2983	0	0
2984	0	0
2985	0	0
2986	0	0
2987	0	0
2988	0	0.991033
2989	0	0.991033
2990	0	0.991033
2991	0	0
2992	0	0
2993	0	0
2994	0	0
2995	0	0
2996	0	0
2997	0	0
2998	0	0
2999	0	0
3000	0	0
3001	0	0
3002	0	0
3003	0	0
3004	0	0
3005	0	0
3006	0	0
3007	0	0
3008	0	0
3009	0	0
3010	0	0
3011	0	0
3012	0	0
3013	0	0
3014	0	0
3015	0	0
3016	0	0
3017	0	0
3018	0	0
3019	0	0
3020	0	0
3021	0	0
3022	0	0
3023	0	0.989254
3024	0	0.989254
3025	0	0
3026	0	0.989244
3027	0	0.991033
3028	0	0.991033
3029	0	0.991033
3030	0	0.991025
3031	0	0.989244
3032	0	0
3033	0	0
3034	0	0
3035	0	0
3036	0	0
3037	0	0
3038	0	0
3039	0	0
3040	0	0
3041	0	0
3042	0	0
3043	0	0
3044	0	0
3045	0	0
3046	0	0
3047	0	0
3048	0	0
3049	0	0
3050	0	0
3051	0	0
3052	0	0
3053	0	0
3054	0	0
3055	0	0
3056	0	0
3057	0	0
3058	0	0
3059	0	0
3060	0	0
3061	0	0
3062	0	0
3063	0	0
3064	0	0
3065	1	0
3066	1	0
3067	0	0
3068	0	0
3069	0	0
3070	0	0
3071	0	0
3072	0	0
3073	0	0
3074	0	0
3075	0	0
3076	0	0
3077	1	0
3078	1	0
3079	1	0
3080	0	0
3081	0	0
3082	0	0
3083	0	0
3084	0	0
3085	0	0
3086	0	0
3087	0	0
3088	0	0
3089	0	0
3090	0	0
3091	0	0
3092	0	0
3093	0	0
3094	0	0
3095	0	0
3096	0	0
3097	0	0
3098	0	0
3099	0	0
3100	0	0
3101	0	0
3102	0	0
3103	0	0
3104	0	0
3105	0	0
3106	0	0
3107	0	0
3108	0	0
3109	0	0
3110	0	0.166667
3111	0	0.166667
3112	0	0.166667
3113	0	0.166667
3114	0	0.166667
3115	0	0.166667
3116	0	0.166667
3117	0	0.166667
3118	0	0.166667
3119	0	0.989205
3120	0	0.989196
3121	0	0
3122	0	0
3123	0	0
3124	0	0
3125	0	0
3126	0	0
3127	0	0
3128	0	0.982126
3129	0	0.978609
3130	0	0.982108
3131	0	0.982108
3132	0	0.982108
3133	0	0.983874
3134	0	0.987436
3135	0	0.1
3136	0	0.1
3137	0	0
3138	0	0
3139	0	0
3140	0	0
3141	0	0
3142	0	0
3143	0	0
3144	0	0
3145	0	0
3146	0	0
3147	0	0
3148	0	0
3149	0	0
3150	0	0
3151	0	0
3152	0	0
3153	0	0
3154	0	0
3155	0	0
3156	0	0
3157	0	0
3158	0	0.976831
3159	0	0.959264
3160	0	0.333333
3161	0	0.0714286
3162	0	0
3163	0	0
3164	0	0
3165	0	0
3166	0	0
3167	0	0
3168	0	0
3169	0	0
3170	0	0
3171	0	0
3172	0	0
3173	0	0
3174	0	0
3175	0	0
3176	0	0
3177	0	0
3178	0	0
3179	0	0
3180	0	0
3181	0	0
3182	0	0
3183	0	0
3184	0	0
3185	0	0
3186	0	0
3187	0	0
3188	0	0
3189	0	0
3190	0	0
3191	0	0
3192	0	0
3193	0	0
3194	0	0
3195	0	0
3196	0	0
3197	0	0
3198	0	0
3199	0	0
3200	0	0
3201	0	0
3202	0	0
3203	1	0
3204	0	0
3205	0	0
3206	0	0
3207	0	0
3208	0	0
3209	0	0
3210	0	0
3211	0	0
3212	0	0
3213	0	0
3214	0	0
3215	0	0
3216	0	0
3217	0	0
3218	0	0
3219	0	0
3220	0	0
3221	0	0
3222	0	0
3223	0	0
3224	0	0
3225	0	0
3226	0	0
3227	0	0
3228	0	0
3229	0	0
3230	0	0
3231	0	0
3232	0	0
3233	0	0
3234	0	0
3235	0	0
3236	0	0
3237	0	0
3238	0	0
3239	0	0
3240	0	0
3241	0	0
3242	0	0
3243	0	0
3244	0	0
3245	0	0
3246	0	0
3247	0	0
3248	0	0
3249	0	0
3250	0	0
3251	0	0
3252	0	0
3253	0	0
3254	0	0
3255	0	0
3256	0	0
3257	0	0
3258	0	0
3259	0	0
3260	0	0
3261	0	0
3262	0	0
3263	0	0
3264	0	0
3265	0	0
3266	0	0
3267	0	0
3268	0	0
3269	0	0
3270	0	0
3271	0	0
3272	0	0
3273	0	0
3274	0	0
3275	0	0
3276	0	0
3277	0	0
3278	0	0
3279	0	0
3280	0	0
3281	0	0
3282	0	0
3283	0	0
3284	0	0
3285	0	0
3286	0	0
3287	0	0
3288	0	0
3289	0	0
3290	0	0
3291	0	0
3292	0	0
3293	0	0
3294	0	0
3295	0	0
3296	0	0
3297	0	0
3298	0	0
3299	0	0
3300	0	0
3301	0	0
3302	0	0
3303	0	0
3304	0	0
3305	0	0
3306	0	0
3307	0	0
3308	0	0
3309	0	0
3310	0	0
3311	0	0
3312	0	0
3313	0	0
3314	0	0
3315	0	0
3316	0	0
3317	0	0
3318	0	0
3319	0	0
3320	0	0
3321	0	0
3322	0	0
3323	0	0
3324	0	0
3325	0	0
3326	0	0
3327	0	0
3328	1	0
3329	1	0
3330	1	0
3331	1	0
3332	1	0
3333	1	0
3334	0	0
3335	0	0
3336	0	0
3337	0	0
3338	0	0
3339	1	0
3340	1	0
3341	1	0
3342	1	0
3343	1	0
3344	1	0
3345	1	0
3346	1	0
3347	0	0
3348	0	0
3349	0	0
3350	0	0
3351	0	0
3352	0	0
3353	0	0
3354	0	0
3355	0	0
3356	1	0
3357	1	0
3358	1	0
3359	1	0
3360	0	0
3361	0	0
3362	0	0
3363	0	0
3364	0	0
3365	0	0
3366	0	0
3367	0	0
3368	0	0
3369	0	0
3370	0	0
3371	0	0
3372	0	0
3373	0	0
3374	0	0
3375	0	0
3376	0	0
3377	0	0
3378	0	0
3379	0	0
3380	0	0
3381	0	0
3382	0	0
3383	0	0
3384	0	0
3385	0	0
3386	0	0
3387	0	0
3388	0	0
3389	0	0
3390	0	0
3391	0	0
3392	0	0
3393	0	0
3394	0	0
3395	0	0
3396	0	0
3397	0	0
3398	0	0
3399	0	0
3400	0	0
3401	0	0
3402	0	0
3403	0	0
3404	0	0
3405	0	0
3406	0	0
3407	0	0
3408	0	0
3409	0	0
3410	0	0
3411	0	0
3412	0	0
3413	0	0
3414	0	0
3415	0	0
3416	0	0
3417	0	0
3418	0	0
3419	0	0
3420	0	0
3421	0	0
3422	0	0
3423	0	0
3424	0	0
3425	0	0
3426	0	0
3427	0	0
3428	0	0
3429	0	0
3430	0	0
3431	0	0
3432	0	0
3433	0	0
3434	0	0
3435	0	0
3436	0	0
3437	0	0
3438	0	0
3439	0	0
3440	0	0
3441	0	0
3442	0	0
3443	0	0
3444	0	0
3445	0	0
3446	0	0
3447	0	0
3448	0	0
3449	0	0
3450	0	0
3451	0	0
3452	0	0
3453	0	0
3454	0	0
3455	0	0
3456	0	0
3457	0	0
3458	0	0
3459	0	0
3460	0	0
3461	0	0
3462	0	0
3463	0	0
3464	0	0
3465	0	0
3466	0	0
3467	0	0
3468	0	0
3469	0	0
3470	0	0
3471	0	0
3472	0	0
3473	0	0
3474	0	0
3475	0	0
3476	0	0
3477	0	0
3478	0	0
3479	0	0
3480	0	0
3481	0	0
3482	0	0
3483	0	0
3484	0	0
3485	0	0
3486	0	0
3487	0	0
3488	0	0
3489	0	0
3490	0	0
3491	0	0
3492	0	0
3493	0	0
3494	0	0
3495	0	0
3496	0	0
3497	0	0
3498	0	0
3499	0	0
3500	0	0
3501	0	0
3502	0	0
3503	0	0
3504	0	0
3505	0	0
3506	0	0
3507	0	0
3508	0	0
3509	0	0
3510	0	0
3511	0	0
3512	0	0
3513	0	0
3514	0	0
3515	0	0
3516	0	0
3517	0	0
3518	0	0
3519	0	0.914914
3520	0	0.982073
3521	0	0.982073
3522	0	0.982089
3523	0	0.980324
3524	0	0.982089
3525	0	0.1
3526	0	0.166667
3527	0	0.166667
3528	0	0.166667
3529	0	0.166667
3530	0	0.166667
3531	0	0.166667
3532	0	0.166667
3533	0	0.166667
3534	0	0.166667
3535	0	0.166667
3536	0	0.982073
3537	0	0.166667
3538	0	0.166667
3539	0	0.1
3540	0	0.1
3541	0	0.983844
3542	0	0.983844
3543	0	0.983844
3544	0	0.983846
3545	0	0
3546	0	0
3547	0	0
3548	0	0
3549	0	0
3550	0	0
3551	0	0
3552	0	0
3553	0	0
3554	0	0
3555	0	0
3556	0	0
3557	0	0
3558	0	0
3559	0	0
3560	0	0
3561	0	0
3562	0	0
3563	0	0
3564	0	0
3565	0	0
3566	0	0
3567	0	0
3568	0	0
3569	0	0
3570	0	0
3571	0	0
3572	0	0
3573	0	0
3574	0	0
3575	0	0
3576	0	0
3577	0	0
3578	0	0
3579	0	0
3580	0	0
3581	0	0
3582	0	0
3583	0	0
3584	0	0
3585	0	0
3586	0	0
3587	0	0
3588	0	0
3589	0	0
3590	0	0
3591	0	0
3592	0	0
3593	0	0
3594	0	0
3595	0	0
3596	0	0
3597	0	0
3598	0	0
3599	0	0.983844
3600	0	0.983844
3601	0	0.982073
3602	0	0.978526
3603	0	0.980289
3604	0	0.0666667
3605	0	0.0666667
3606	0	0
3607	0	0
3608	0	0
3609	0	0
3610	0	0
3611	0	0
3612	0	0
3613	0	0
3614	0	0
3615	0	0
3616	0	0
3617	0	0
3618	0	0
3619	0	0
3620	0	0
3621	0	0
3622	0	0
3623	0	0
3624	0	0
3625	0	0
3626	0	0
3627	0	0
3628	0	0
3629	0	0
3630	0	0
3631	0	0
3632	0	0
3633	0	0
3634	0	0
3635	0	0
3636	0	0
3637	0	0
3638	0	0
3639	0	0
3640	0	0
3641	0	0
3642	0	0
3643	0	0
3644	0	0
3645	0	0
3646	0	0
3647	0	0
3648	0	0
3649	0	0
3650	0	0
3651	0	0
3652	0	0
3653	0	0
3654	0	0.976666
3655	0	0.974905
3656	0	0
3657	0	0
3658	0	0.898154
3659	0	0.898154
3660	0	0
3661	0	0
3662	0	0
3663	0	0
3664	0	0
3665	0	0
3666	0	0
3667	0	0
3668	0	0
3669	0	0
3670	0	0
3671	0	0
3672	0	0
3673	0	0
3674	0	0
3675	0	0
3676	0	0
3677	0	0
3678	0	0
3679	0	0
3680	0	0
3681	0	0
3682	0	0
3683	0	0
3684	0	0
3685	0	0
3686	0	0
3687	0	0
3688	0	0
3689	0	0
3690	0	0
3691	0	0
3692	0	0
3693	0	0
3694	0	0
3695	0	0
3696	0	0
3697	0	0
3698	0	0
3699	0	0
3700	0	0
3701	0	0
3702	0	0
3703	0	0
3704	0	0
3705	0	0
3706	0	0
3707	0	0
3708	0	0
3709	0	0
3710	0	0
3711	0	0
3712	0	0
3713	0	0
3714	0	0
3715	0	0
3716	0	0
3717	0	0
3718	0	0
3719	0	0
3720	0	0
3721	0	0
3722	0	0
3723	0	0
3724	0	0
3725	0	0
3726	0	0
3727	0	0
3728	0	0
3729	0	0
3730	0	0
3731	0	0
3732	0	0
3733	0	0
3734	0	0
3735	0	0
3736	0	0
3737	0	0
3738	0	0
3739	0	0
3740	0	0
3741	0	0
3742	0	0
3743	0	0
3744	0	0
3745	0	0
3746	0	0
3747	0	0
3748	0	0
3749	0	0
3750	0	0
3751	0	0
3752	0	0
3753	0	0
3754	0	0
3755	0	0.898026
3756	0	0.898026
3757	0	0.894737
3758	0	0.894737
3759	0	0.937352
3760	0	0.937352
3761	0	0.703343
3762	0	0.703343
3763	0	0
3764	0	0
3765	0	0
3766	0	0
3767	0	0
3768	0	0
3769	0	0
3770	0	0
3771	0	0
3772	0	0
3773	0	0
3774	0	0
3775	0	0
3776	0	0
3777	0	0
3778	0	0
3779	0	0
3780	0	0
3781	0	0
3782	0	0
3783	0	0
3784	0	0
3785	0	0
3786	0	0
3787	0	0
3788	0	0
3789	0	0
3790	0	0
3791	0	0
3792	0	0
3793	0	0
3794	0	0
3795	0	0
3796	0	0
3797	0	0
3798	0	0
3799	0	0
3800	0	0
3801	0	0
3802	0	0
3803	0	0
3804	0	0
3805	0	0
3806	0	0
3807	0	0
3808	0	0
3809	0	0
3810	0	0
3811	0	0
3812	0	0
3813	0	0
3814	0	0
3815	0	0
3816	0	0
3817	0	0
3818	0	0
3819	0	0
3820	0	0
3821	0	0
3822	0	0
3823	0	0
3824	0	0
3825	0	0
3826	0	0
3827	0	0
3828	0	0
3829	0	0
3830	0	0
3831	0	0
3832	0	0
3833	0	0
3834	0	0
3835	0	0
3836	0	0
3837	0	0
3838	0	0
3839	0	0
3840	0	0
3841	0	0
3842	0	0
3843	0	0
3844	0	0
3845	0	0
3846	0	0
3847	0	0
3848	0	0
3849	0	0
3850	0	0
3851	0	0
3852	0	0
3853	0	0
3854	0	0
3855	0	0
3856	0	0
3857	0	0
3858	0	0
3859	0	0
3860	0	0
3861	0	0
3862	0	0
3863	0	0
3864	0	0
3865	0	0
3866	0	0
3867	0	0
3868	0	0
3869	0	0
3870	0	0
3871	0	0
3872	0	0
3873	0	0
3874	0	0
3875	0	0
3876	0	0
3877	0	0
3878	0	0
3879	0	0
3880	0	0.2
3881	0	0.2
3882	0	0.976294
3883	0	0.976294
3884	0	0.974181
3885	0	0.974181
3886	0	0
3887	0	0
3888	0	0
3889	0	0
3890	0	0
3891	0	0
3892	0	0
3893	0	0
3894	0	0
3895	0	0
3896	0	0
3897	0	0
3898	0	0
3899	0	0
3900	0	0
3901	0	0
3902	0	0
3903	0	0
3904	0	0
3905	0	0
3906	0	0
3907	0	0
3908	0	0
3909	0	0
3910	0	0
3911	0	0
3912	0	0
3913	0	0
3914	0	0
3915	0	0
3916	0	0
3917	0	0
3918	0	0
3919	0	0
3920	0	0
3921	0	0
3922	0	0
3923	0	0
3924	0	0
3925	0	0
3926	0	0
3927	0	0
3928	0	0
3929	0	0
3930	0	0
3931	0	0
3932	0	0
3933	0	0
3934	0	0
3935	0	0
3936	0	0
3937	0	0
3938	0	0
3939	0	0
3940	0	0
3941	0	0
3942	0	0
3943	0	0
3944	0	0
3945	0	0
3946	0	0
3947	0	0
3948	0	0
3949	0	0
3950	0	0
3951	0	0
3952	0	0
3953	0	0
3954	0	0
3955	0	0
3956	0	0
3957	0	0
3958	0	0
3959	0	0
3960	0	0
3961	0	0
3962	0	0
3963	0	0
3964	0	0
3965	0	0
3966	0	0
3967	0	0
3968	0	0
3969	0	0
3970	0	0
3971	0	0
3972	0	0
3973	0	0
3974	0	0
3975	0	0
3976	0	0
3977	0	0
3978	0	0
3979	0	0
3980	0	0
3981	0	0
3982	0	0
3983	0	0
3984	0	0
3985	0	0
3986	0	0
3987	0	0
3988	0	0
3989	0	0
3990	0	0
3991	0	0
3992	0	0
3993	0	0
3994	0	0
3995	0	0
3996	0	0
3997	0	0
3998	0	0
3999	0	0
4000	0	0
4001	0	0
4002	0	0
4003	0	0
4004	0	0
4005	0	0
4006	0	0
4007	0	0
4008	0	0
4009	0	0
4010	0	0
4011	0	0
4012	0	0
4013	0	0
4014	0	0
4015	0	0
4016	0	0
4017	0	0
4018	0	0
4019	0	0
4020	0	0
4021	0	0
4022	0	0
4023	0	0
4024	0	0
4025	0	0
4026	0	0
4027	0	0
4028	0	0
4029	0	0
4030	0	0
4031	0	0
4032	0	0
4033	0	0
4034	0	0
4035	0	0
4036	0	0
4037	0	0
4038	0	0
4039	0	0
4040	0	0
4041	0	0
4042	0	0
4043	0	0
4044	0	0
4045	0	0
4046	0	0
4047	0	0
4048	0	0
4049	0	0
4050	0	0
4051	0	0
4052	0	0
4053	0	0
4054	0	0
4055	0	0
4056	0	0
4057	0	0
4058	0	0
4059	0	0
4060	0	0
4061	0	0
4062	0	0
4063	0	0
4064	0	0
4065	0	0
4066	0	0
4067	0	0
4068	0	0
4069	0	0
4070	0	0
4071	0	0
4072	0	0
4073	0	0
4074	0	0
4075	0	0
4076	0	0
4077	0	0
4078	0	0
4079	0	0
4080	0	0
4081	0	0
4082	0	0
4083	0	0
4084	0	0
4085	0	0
4086	0	0
4087	0	0
4088	0	0
4089	0	0
4090	0	0
4091	0	0
4092	0	0
4093	0	0
4094	0	0
4095	0	0
4096	0	0
4097	0	0
4098	0	0
4099	0	0
4100	0	0
4101	0	0
4102	1	0
4103	1	0
4104	1	0
4105	0	0
4106	0	0
4107	0	0
4108	0	0
4109	0	0
4110	0	0
4111	0	0
4112	0	0
4113	0	0
4114	0	0
4115	0	0
4116	0	0
4117	0	0
4118	0	0
4119	0	0
4120	0	0
4121	0	0
4122	0	0
4123	0	0
4124	0	0
4125	0	0
4126	0	0
4127	0	0
4128	0	0
4129	0	0
4130	0	0.971057
4131	0	0.648783
4132	0	0.166667
4133	0	0.166667
4134	0	0.166667
4135	0	0.938351
4136	0	0
4137	0	0
4138	0	0
4139	0	0
4140	0	0
4141	0	0
4142	0	0
4143	0	0
4144	0	0
4145	0	0
4146	0	0
4147	0	0
4148	0	0
4149	0	0
4150	0	0
4151	0	0
4152	0	0
4153	0	0
4154	0	0
4155	0	0
4156	0	0
4157	0	0
4158	0	0
4159	0	0
4160	0	0
4161	0	0
4162	0	0
4163	0	0
4164	0	0
4165	0	0
4166	0	0
4167	0	0
4168	0	0
4169	0	0
4170	0	0
4171	0	0
4172	0	0
4173	0	0
4174	0	0
4175	0	0
4176	0	0
4177	0	0
4178	0	0
4179	0	0
4180	0	0
4181	0	0
4182	0	0
4183	0	0
4184	0	0
4185	0	0
4186	0	0
4187	0	0
4188	0	0
4189	0	0
4190	0	0
4191	0	0
4192	0	0
4193	0	0
4194	0	0
4195	0	0
4196	0	0
4197	0	0
4198	0	0
4199	0	0
4200	0	0
4201	0	0
4202	0	0
4203	0	0
4204	0	0
4205	0	0
4206	0	0
4207	0	0
4208	0	0
4209	0	0
4210	0	0
4211	0	0
4212	0	0
4213	0	0
4214	0	0
4215	0	0
4216	0	0
4217	0	0
4218	0	0
4219	0	0
4220	0	0
4221	0	0
4222	0	0
4223	0	0
4224	0	0
4225	0	0
4226	0	0
4227	0	0
4228	0	0
4229	0	0
4230	0	0
4231	0	0
4232	0	0
4233	0	0
4234	0	0
4235	0	0
4236	0	0
4237	0	0
4238	0	0.954879
4239	0	0.884694
4240	0	0
4241	0	0
4242	0	0
4243	0	0
4244	0	0
4245	0	0
4246	0	0
4247	0	0
4248	0	0
4249	0	0
4250	0	0
4251	0	0
4252	0	0
4253	0	0
4254	0	0
4255	0	0
4256	0	0
4257	0	0
4258	0	0
4259	0	0
4260	0	0
4261	0	0
4262	0	0
4263	0	0
4264	0	0
4265	0	0
4266	0	0
4267	0	0
4268	0	0
4269	0	0
4270	0	0
4271	0	0
4272	0	0
4273	0	0
4274	0	0
4275	0	0
4276	0	0
4277	0	0
4278	0	0
4279	0	0
4280	0	0
4281	0	0
4282	0	0
4283	0	0
4284	0	0
4285	0	0
4286	0	0
4287	0	0
4288	0	0
4289	0	0
4290	0	0
4291	0	0
4292	0	0
4293	0	0
4294	0	0
4295	0	0
4296	0	0
4297	0	0
4298	0	0
4299	0	0
4300	0	0
4301	0	0
4302	0	0
4303	0	0
4304	0	0
4305	0	0
4306	0	0
4307	0	0
4308	0	0
4309	0	0
4310	0	0
4311	0	0
4312	0	0
4313	0	0
4314	0	0
4315	0	0
4316	0	0
4317	0	0
4318	0	0
4319	0	0
4320	0	0
4321	0	0
4322	0	0
4323	0	0
4324	0	0
4325	0	0
4326	0	0
4327	0	0
4328	0	0
4329	0	0
4330	0	0
4331	0	0
4332	0	0
4333	0	0
4334	0	0
4335	0	0
4336	0	0
4337	0	0
4338	0	0
4339	0	0
4340	0	0
4341	0	0
4342	0	0
4343	0	0
4344	0	0
4345	0	0
4346	0	0
4347	0	0
4348	0	0
4349	0	0
4350	0	0
4351	0	0
4352	0	0
4353	0	0
4354	0	0
4355	0	0
4356	0	0
4357	0	0
4358	0	0
4359	0	0
4360	0	0
4361	0	0
4362	0	0
4363	0	0
4364	0	0
4365	0	0
4366	0	0
4367	0	0
4368	0	0
4369	0	0
4370	0	0
4371	0	0
4372	0	0
4373	0	0.1
4374	0	0.1
4375	0	0.954854
4376	0	0.313725
4377	0	0.228261
4378	0	0.595086
4379	0	0.394094
4380	0	0.720318
4381	0	0.619318
4382	0	0.383333
4383	0	0.194444
4384	0	0.0666667
4385	0	0.1
4386	0	0.1
4387	0	0.1
4388	0	0.0666667
4389	0	0.0666667
4390	0	0.1
4391	0	0.1
4392	0	0.1
4393	0	0.1
4394	0	0.1
4395	0	0.1
4396	0	0
4397	0	0
4398	0	0
4399	0	0
4400	0	0
4401	0	0
4402	0	0
4403	0	0
4404	0	0
4405	0	0
4406	0	0
4407	0	0
4408	0	0
4409	0	0
4410	0	0
4411	0	0
4412	0	0
4413	0	0
4414	0	0
4415	0	0
4416	0	0
4417	0	0
4418	0	0
4419	0	0
4420	0	0
4421	0	0
4422	0	0
4423	0	0
4424	0	0
4425	0	0
4426	0	0
4427	0	0
4428	0	0
4429	0	0
4430	0	0
4431	0	0
4432	0	0
4433	0	0
4434	0	0
4435	0	0
4436	0	0
4437	0	0
4438	0	0
4439	0	0
4440	0	0
4441	0	0
4442	0	0
4443	0	0
4444	0	0
4445	0	0
4446	0	0
4447	0	0
4448	0	0
4449	0	0
4450	0	0
4451	0	0
4452	0	0
4453	0	0
4454	0	0
4455	0	0
4456	0	0
4457	0	0
4458	0	0
4459	0	0
4460	0	0
4461	0	0
4462	0	0
4463	0	0
4464	0	0
4465	0	0
4466	0	0
4467	0	0
4468	0	0
4469	0	0
4470	0	0
4471	0	0
4472	0	0
4473	0	0
4474	0	0
4475	0	0
4476	0	0
4477	0	0
4478	0	0
4479	0	0
4480	0	0
4481	0	0
4482	0	0
4483	0	0
4484	0	0
4485	0	0
4486	0	0
4487	0	0
4488	0	0
4489	0	0
4490	0	0
4491	0	0
4492	0	0
4493	0	0
4494	0	0
4495	0	0
4496	0	0
4497	0	0
4498	0	0
4499	0	0
4500	0	0
4501	0	0
4502	0	0
4503	0	0
4504	0	0
4505	0	0
4506	0	0
4507	0	0
4508	0	0
4509	0	0
4510	0	0
4511	0	0
4512	0	0
4513	0	0
4514	0	0
4515	0	0
4516	0	0
4517	0	0
4518	0	0
4519	0	0
4520	0	0
4521	0	0
4522	0	0
4523	0	0
4524	0	0
4525	0	0
4526	0	0
4527	0	0
4528	0	0
4529	0	0
4530	0	0
4531	0	0
4532	0	0
4533	0	0
4534	0	0
4535	0	0
4536	0	0
4537	0	0
4538	0	0
4539	0	0
4540	0	0
4541	0	0
4542	0	0
4543	0	0
4544	0	0
4545	0	0
4546	0	0
4547	0	0
4548	0	0
4549	0	0
4550	0	0
4551	0	0
4552	0	0
4553	0	0
4554	0	0
4555	0	0
4556	0	0
4557	0	0
4558	0	0
4559	0	0
4560	0	0
4561	0	0
4562	0	0
4563	0	0
4564	0	0
4565	0	0
4566	0	0
4567	0	0
4568	0	0
4569	0	0
4570	0	0
4571	0	0
4572	0	0
4573	0	0
4574	0	0
4575	0	0
4576	0	0
4577	0	0
4578	0	0
4579	0	0
4580	0	0
4581	0	0
4582	0	0
4583	0	0
4584	0	0
4585	0	0
4586	0	0
4587	0	0
4588	0	0
4589	0	0
4590	0	0
4591	0	0
4592	0	0
4593	0	0
4594	0	0
4595	0	0
4596	0	0
4597	0	0
4598	0	0
4599	0	0
4600	0	0
4601	0	0
4602	0	0
4603	0	0
4604	0	0
4605	0	0
4606	0	0
4607	0	0
4608	0	0
4609	0	0
4610	0	0
4611	0	0
4612	0	0
4613	0	0
4614	0	0
4615	0	0
4616	0	0
4617	0	0
4618	0	0
4619	0	0
4620	0	0
4621	0	0
4622	0	0
4623	0	0
4624	0	0
4625	0	0
4626	0	0
4627	0	0
4628	0	0
4629	0	0
4630	0	0
4631	0	0
4632	0	0
4633	0	0
4634	0	0
4635	0	0
4636	0	0
4637	0	0
4638	0	0
4639	0	0
4640	0	0
4641	0	0
4642	0	0
4643	0	0
4644	0	0
4645	0	0
4646	0	0
4647	0	0
4648	0	0
4649	0	0
4650	0	0
4651	0	0.107143
4652	0	0.107143
4653	0	0.107143
4654	0	0.047619
4655	0	0.107143
4656	0	0.107143
4657	0	0.0357143
4658	0	0.0357143
4659	0	0.0357143
4660	0	0.0357143
4661	0	0.0357143
4662	0	0.0357143
4663	0	0.0357143
4664	0	0.0357143
4665	0	0.0357143
4666	0	0.0357143
4667	0	0.0357143
4668	0	0.0357143
4669	0	0.950583
4670	0	0
4671	0	0
4672	0	0
4673	0	0
4674	0	0
4675	0	0
4676	0	0
4677	0	0
4678	0	0.849939
4679	0	0.690514
4680	0	0.481873
4681	0	0.227273
4682	0	0.227273
4683	0	0
4684	0	0
4685	0	0
4686	0	0
4687	0	0
4688	0	0
4689	0	0
4690	0	0
4691	0	0
4692	0	0
4693	0	0
4694	0	0
4695	0	0
4696	0	0
4697	0	0
4698	0	0
4699	0	0
4700	0	0
4701	0	0
4702	0	0
4703	0	0
4704	0	0
4705	0	0
4706	0	0
4707	0	0
4708	0	0
4709	0	0
4710	0	0
4711	0	0
4712	0	0
4713	0	0
4714	0	0
4715	0	0
4716	0	0
4717	0	0
4718	0	0
4719	0	0
4720	0	0
4721	0	0
4722	0	0
4723	0	0
4724	0	0
4725	0	0
4726	0	0
4727	0	0
4728	0	0
4729	0	0
4730	0	0
4731	0	0
4732	0	0
4733	0	0
4734	0	0
4735	0	0
4736	0	0
4737	0	0
4738	0	0
4739	0	0
4740	0	0
4741	0	0
4742	0	0
4743	0	0
4744	0	0
4745	0	0
4746	0	0
4747	0	0
4748	0	0
4749	0	0
4750	0	0
4751	0	0
4752	0	0
4753	0	0
4754	0	0
4755	0	0
4756	0	0
4757	0	0
4758	0	0
4759	0	0
4760	0	0
4761	0	0
4762	0	0
4763	0	0
4764	0	0
4765	0	0
4766	0	0
4767	0	0
4768	0	0
4769	0	0
4770	0	0
4771	0	0
4772	0	0
4773	0	0
4774	0	0
4775	0	0
4776	0	0
4777	0	0
4778	0	0
4779	0	0
4780	0	0
4781	0	0
4782	0	0
4783	0	0
4784	0	0
4785	0	0
4786	0	0
4787	0	0
4788	0	0
4789	0	0.0666667
4790	0	0.0606061
4791	0	0.0606061
4792	0	0.0606061
4793	0	0.0606061
4794	0	0.177536
4795	0	0.185383
4796	0	0.165079
4797	0	0.286096
4798	0	0.193184
4799	0	0.177085
4800	0	0.277383
4801	0	0.239593
4802	0	0.221092
4803	0	0.13691
4804	0	0.175359
4805	0	0.169117
4806	0	0.146763
4807	0	0.127346
4808	0	0.127421
4809	0	0.105138
4810	0	0.159198
4811	0	0.177326
4812	0	0.20282
4813	0	0.231526
4814	0	0.284065
4815	0	0.159756
4816	0	0.0899471
4817	0	0.0760234
4818	0	0.0760234
4819	0	0
4820	0	0
4821	0	0
4822	0	0
4823	0	0
4824	0	0
4825	0	0
4826	0	0
4827	0	0
4828	0	0.0181818
4829	0	0.0181818
4830	0	0.0181818
4831	0	0
4832	0	0
4833	0	0
4834	0	0
4835	0	0
4836	0	0
4837	0	0
4838	0	0
4839	0	0
4840	0	0
4841	0	0
4842	0	0
4843	0	0
4844	0	0
4845	0	0
4846	0	0
4847	0	0
4848	0	0
4849	0	0
4850	0	0
4851	0	0
4852	0	0
4853	0	0
4854	0	0
4855	0	0
4856	0	0
4857	0	0.224343
4858	0	0.0666667
4859	0	0
4860	0	0
4861	0	0
4862	0	0
4863	0	0
4864	0	0
4865	0	0
4866	0	0
4867	0	0
4868	0	0
4869	0	0
4870	0	0
4871	0	0
4872	0	0
4873	0	0
4874	0	0
4875	0	0
4876	0	0
4877	0	0
4878	0	0
4879	0	0
4880	0	0
4881	0	0
4882	0	0
4883	0	0
4884	0	0
4885	0	0
4886	0	0
4887	0	0
4888	0	0
4889	0	0
4890	0	0
4891	0	0
4892	0	0
4893	0	0
4894	0	0
4895	0	0
4896	0	0
4897	0	0
4898	0	0
4899	0	0
4900	0	0
4901	0	0
4902	0	0
4903	0	0
4904	0	0
4905	0	0
4906	0	0
4907	0	0
4908	0	0
4909	0	0
4910	0	0
4911	0	0
4912	0	0
4913	0	0
4914	0	0
4915	0	0
4916	0	0
4917	0	0
4918	0	0
4919	0	0
4920	0	0
4921	0	0
4922	0	0
4923	0	0
4924	0	0
4925	0	0
4926	0	0
4927	0	0
4928	0	0
4929	0	0
4930	0	0
4931	0	0
4932	0	0
4933	0	0
4934	0	0
4935	0	0
4936	0	0
4937	0	0
4938	0	0
4939	0	0
4940	0	0
4941	0	0
4942	0	0
4943	0	0
4944	0	0
4945	0	0.2554
4946	0	0.220644
4947	0	0.223406
4948	0	0.350798
4949	0	0.257912
4950	0	0.374194
4951	0	0.0545455
4952	0	0.0666667
4953	0	0.0666667
4954	0	0.0666667
4955	0	0.0666667
4956	0	0.0666667
4957	0	0.0666667
4958	0	0.0666667
4959	0	0.0666667
4960	0	0.0666667
4961	0	0.0666667
4962	0	0.0666667
4963	0	0.0666667
4964	0	0.0666667
4965	0	0.0666667
4966	0	0.0666667
4967	0	0.0666667
4968	0	0.0666667
4969	0	0.0666667
4970	0	0.0666667
4971	0	0.0833333
4972	0	0.0833333
4973	0	0.0833333
4974	0	0.0833333
4975	0	0.0833333
4976	0	0.0833333
4977	0	0.0833333
4978	0	0.0833333
4979	0	0.0277778
4980	0	0.0833333
4981	0	0.133333
4982	0	0.133333
4983	0	0.133333
4984	0	0.133333
4985	0	0.133333
4986	0	0.133333
4987	0	0.133333
4988	0	0.133333
4989	0	0.133333
4990	0	0.133333
4991	0	0.166667
4992	0	0.457099
4993	0	0.483473
4994	0	0.466667
4995	0	0.0643275
4996	0	0.0879121
4997	0	0.0897436
4998	0	0.133333
4999	0	0.133333
5000	0	0.133333
5001	0	0.166667
5002	0	0.166667
5003	0	0.166667
5004	0	0.166667
5005	0	0.166667
5006	0	0.166667
5007	0	0.166667
5008	0	0.166667
5009	0	0.166667
5010	0	0.166667
5011	0	0.166667
5012	0	0.166667
5013	0	0.166667
5014	0	0.166667
5015	0	0.166667
5016	0	0.166667
5017	0	0.166667
5018	0	0.166667
5019	0	0.107143
5020	0	0.107143
5021	0	0.107143
5022	0	0.107143
5023	0	0.107143
5024	0	0.107143
5025	0	0.107143
5026	0	0.107143
5027	0	0.0833333
5028	0	0.166667
5029	0	0.166667
5030	0	0.166667
5031	0	0.166667
5032	0	0.166667
5033	0	0.166667
5034	0	0.166667
5035	0	0.166667
5036	0	0.166667
5037	0	0.166667
5038	0	0.166667
5039	0	0.166667
5040	0	0.166667
5041	0	0.166667
5042	0	0.166667
5043	0	0.166667
5044	0	0.166667
5045	0	0.166667
5046	0	0.166667
5047	0	0.166667
5048	0	0.166667
5049	0	0
5050	0	0
5051	0	0
5052	0	0
5053	0	0
5054	0	0
5055	0	0
5056	0	0
5057	0	0
5058	0	0
5059	0	0
5060	0	0
5061	0	0
5062	0	0
5063	0	0
5064	0	0
5065	0	0
5066	0	0
5067	0	0
5068	0	0
5069	0	0
5070	0	0
5071	0	0
5072	0	0
5073	0	0
5074	0	0
5075	0	0
5076	0	0
5077	0	0
5078	0	0
5079	0	0
5080	0	0
5081	0	0
5082	0	0
5083	0	0
5084	0	0
5085	0	0
5086	0	0
5087	0	0
5088	0	0
5089	0	0
5090	0	0
5091	0	0
5092	0	0
5093	0	0
5094	0	0
5095	0	0
5096	0	0
5097	0	0
5098	0	0
5099	0	0
5100	0	0
5101	0	0
5102	0	0
5103	0	0
5104	0	0
5105	0	0
5106	0	0
5107	0	0
5108	0	0
5109	0	0
5110	0	0
5111	0	0
5112	0	0
5113	0	0
5114	0	0
5115	0	0
5116	0	0
5117	0	0
5118	0	0
5119	0	0
5120	0	0
5121	0	0
5122	0	0
5123	0	0
5124	0	0
5125	0	0
5126	0	0
5127	0	0
5128	0	0
5129	0	0
5130	0	0
5131	0	0
5132	0	0
5133	0	0
5134	0	0
5135	0	0
5136	0	0
5137	0	0
5138	0	0
5139	0	0
5140	0	0
5141	0	0
5142	0	0
5143	0	0
5144	0	0
5145	0	0
5146	0	0
5147	0	0
5148	0	0
5149	0	0
5150	0	0
5151	0	0
5152	0	0
5153	0	0
5154	0	0
5155	0	0
5156	0	0
5157	0	0
5158	0	0
5159	0	0
5160	0	0
5161	0	0
5162	0	0
5163	0	0
5164	0	0
5165	0	0
5166	0	0
5167	0	0
5168	0	0
5169	0	0
5170	0	0
5171	0	0
5172	0	0
5173	0	0
5174	0	0
5175	0	0
5176	0	0
5177	0	0
5178	0	0
5179	0	0
5180	0	0
5181	0	0
5182	0	0
5183	0	0
5184	0	0
5185	0	0
5186	0	0
5187	0	0
5188	0	0
5189	0	0
5190	0	0
5191	0	0
5192	0	0
5193	0	0
5194	0	0
5195	0	0
5196	0	0
5197	0	0
5198	0	0
5199	0	0
5200	0	0
5201	0	0
5202	0	0
5203	0	0
5204	0	0
5205	0	0
5206	0	0
5207	0	0
5208	0	0
5209	0	0
5210	0	0
5211	0	0
5212	0	0
5213	0	0
5214	0	0
5215	0	0
5216	0	0
5217	0	0
5218	0	0
5219	0	0
5220	0	0
5221	0	0
5222	0	0
5223	0	0
5224	0	0
5225	0	0
5226	0	0
5227	0	0
5228	0	0
5229	0	0
5230	0	0
5231	0	0
5232	0	0
5233	0	0
5234	0	0
5235	0	0
5236	0	0
5237	0	0
5238	0	0
5239	0	0
5240	0	0
5241	0	0
5242	0	0
5243	0	0
5244	0	0
5245	0	0
5246	0	0
5247	0	0
5248	0	0
5249	0	0
5250	0	0
5251	0	0
5252	0	0
5253	0	0
5254	0	0
5255	0	0
5256	0	0
5257	0	0
5258	0	0
5259	0	0
5260	0	0
5261	0	0
5262	0	0
5263	0	0
5264	0	0
5265	0	0
5266	0	0
5267	0	0
5268	0	0
