Site	ColumnScore	SumOfPairsScore
1	1	0
2	1	0
3	1	0
4	1	0
5	1	0
6	0	0
7	0	0
8	0	0
9	0	0
10	0	0
11	0	0.666667
12	0	0.666667
13	0	0.666667
14	0	0.666667
15	0	0.666667
16	0	0.666667
17	0	0.666667
18	0	0.666667
19	0	0.666667
20	0	0.666667
21	0	0.666667
22	0	0.666667
23	0	0.666667
24	0	0.666667
25	0	0.666667
26	0	0.47619
27	0	0.47619
28	0	0.47619
29	0	0.47619
30	0	0.47619
31	0	0.47619
32	0	0.47619
33	0	0.47619
34	0	0.47619
35	0	0.47619
36	0	0.47619
37	0	0.47619
38	0	0.47619
39	0	0
40	0	0
41	0	0
42	0	0
43	0	0.47619
44	0	0.47619
45	0	0.47619
46	0	0.47619
47	0	0.47619
48	0	0.47619
49	0	0.47619
50	0	0.47619
51	0	0.47619
52	0	0.47619
53	0	0.47619
54	0	0.47619
55	0	0.47619
56	0	0.47619
57	0	0.47619
58	0	0.47619
59	0	0.47619
60	0	0.47619
61	0	0.47619
62	0	0.47619
63	0	0.47619
64	0	0.47619
65	0	0.47619
66	0	0.666667
67	0	0.666667
68	0	0.666667
69	0	0.666667
70	0	0.666667
71	0	0.666667
72	0	0.666667
73	0	0.666667
74	0	0.666667
75	0	0.666667
76	0	0.666667
77	0	0.666667
78	0	0.666667
79	0	0.666667
80	0	0.47619
81	0	0.47619
82	0	0.47619
83	0	0.47619
84	0	0.47619
85	0	0.666667
86	0	0.666667
87	0	0.666667
88	0	0.666667
89	0	0.666667
90	0	0.666667
91	0	0.666667
92	0	0.666667
93	0	0.666667
94	0	0.666667
95	0	0.666667
96	0	0.666667
97	0	0.666667
98	0	0.666667
99	0	0.666667
100	0	0.666667
101	0	0.666667
102	0	0.666667
103	0	0.666667
104	0	0.666667
105	0	0.666667
106	0	0.666667
107	0	0.666667
108	0	0.666667
109	0	0.666667
110	0	0.666667
111	0	0.666667
112	0	0.361111
113	0	0.361111
114	0	0.361111
115	0	0.361111
116	0	0.361111
117	0	0.361111
118	0	0.361111
119	0	0.361111
120	0	0.361111
121	0	0.361111
122	0	0.361111
123	0	0.361111
124	0	0.361111
125	0	0.361111
126	0	0.266667
127	0	0.266667
128	0	0.361111
129	0	0.288889
130	0	0.288889
131	0	0.254545
132	0	0.254545
133	0	0.254545
134	0	0.254545
135	0	0.254545
136	0	0.254545
137	0	0.254545
138	0	0.254545
139	0	0.254545
140	0	0.254545
141	0	0.254545
142	0	0.212121
143	0	0.212121
144	0	0.212121
145	0	0.212121
146	0	0.212121
147	0	0.212121
148	0	0.212121
149	0	0.212121
150	0	0.212121
151	0	0.212121
152	0	0.212121
153	0	0.212121
154	0	0.212121
155	0	0.212121
156	0	0.254545
157	0	0.254545
158	0	0.254545
159	0	0.254545
160	0	0.254545
161	0	0.254545
162	0	0.254545
163	0	0.254545
164	0	0.254545
165	0	0.254545
166	0	0.254545
167	0	0.254545
168	0	0.254545
169	0	0.254545
170	0	0.179487
171	0	0.179487
172	0	0.212121
173	0	0.179487
174	0	0.179487
175	0	0.212121
176	0	0.212121
177	0	0.212121
178	0	0.212121
179	0	0.212121
180	0	0.212121
181	0	0.212121
182	0	0.212121
183	0	0.212121
184	0	0.212121
185	0	0.212121
186	0	0.212121
187	0	0.212121
188	0	0.212121
189	0	0.212121
190	0	0.212121
191	0	0.212121
192	0	0.212121
193	0	0.212121
194	0	0.212121
195	0	0.212121
196	0	0.212121
197	0	0.212121
198	0	0.151515
199	0	0.151515
200	0	0.151515
201	0	0.151515
202	0	0.151515
203	0	0.151515
204	0	0.151515
205	0	0.151515
206	0	0.151515
207	0	0.151515
208	0	0.128205
209	0	0.128205
210	0	0.128205
211	0	0.128205
212	0	0.128205
213	0	0.128205
214	0	0.128205
215	0	0.128205
216	0	0.128205
217	0	0.128205
218	0	0.128205
219	0	0.128205
220	0	0.128205
221	0	0.128205
222	0	0.128205
223	0	0.10989
224	0	0.10989
225	0	0.10989
226	0	0.0952381
227	0	0.0952381
228	0	0.0952381
229	0	0.0952381
230	0	0.0952381
231	0	0.0952381
232	0	0.0952381
233	0	0.0952381
234	0	0.0952381
235	0	0.0952381
236	0	0.0952381
237	0	0.104762
238	0	0.104762
239	0	0.104762
240	0	0.104762
241	0	0.104762
242	0	0.0909091
243	0	0.0727273
244	0	0.0727273
245	0	0.0727273
246	0	0.0727273
247	0	0.0727273
248	0	0.0727273
249	0	0.0727273
250	0	0.0727273
251	0	0.0727273
252	0	0.0606061
253	0	0.0606061
254	0	0.0606061
255	0	0.0606061
256	0	0.0606061
257	0	0.0641026
258	0	0.0549451
259	0	0.0549451
260	0	0.0549451
261	0	0.047619
262	0	0.047619
263	0	0.0416667
264	0	0.0789474
265	0	0.0789474
266	0	0.0714286
267	0	0.0714286
268	0	0.0714286
269	0	0.0649351
270	0	0.057971
271	0	0.0566667
272	0	0.0553846
273	0	0.0512821
274	0	0.048433
275	0	0.048433
276	0	0.0502646
277	0	0.0408602
278	0	0.0383065
279	0	0.0725806
280	0	0.0745968
281	0	0.0625
282	0	0.127016
283	0	0.112605
284	0	0.112605
285	0	0.112605
286	0	0.151261
287	0	0.216807
288	0	0.247059
289	0	0.247059
290	0	0.433613
291	0	0.409524
292	0	0.456456
293	0	0.456456
294	0	0.421795
295	0	0.382114
296	0	0.423034
297	0	0.403805
298	0	0.258318
299	0	0.692586
300	0	0.718727
301	0	0.732873
302	0	0.735488
303	0	0.333333
304	0	0.333333
305	0	0.333333
306	0	0.333333
307	0	0.333333
308	0	0.333333
309	0	0.333333
310	0	0.333333
311	0	0.333333
312	0	0.333333
313	0	0.333333
314	0	0.333333
315	0	0.333333
316	0	0.333333
317	0	0.333333
318	0	0.333333
319	0	0.333333
320	0	0.333333
321	0	0.333333
322	0	0.333333
323	0	0.333333
324	0	0.333333
325	0	0.333333
326	0	0.333333
327	0	0.333333
328	0	0.166667
329	0	0.166667
330	0	0.783132
331	0	0.3
332	0	0.3
333	0	0.3
334	0	0.3
335	0	0.3
336	0	0.3
337	0	0.3
338	0	0.3
339	0	0.3
340	0	0.3
341	0	0.3
342	0	0.3
343	0	0.3
344	0	0.3
345	0	0.3
346	0	0.3
347	0	0.3
348	0	0.3
349	0	0.3
350	0	0.3
351	0	0.3
352	0	0.3
353	0	0.3
354	0	0.3
355	0	0.3
356	0	0.3
357	0	0.3
358	0	0.3
359	0	0.3
360	0	0.3
361	0	0.3
362	0	0.3
363	0	0.3
364	0	0.3
365	0	0.5
366	0	0.5
367	0	0.5
368	0	0.5
369	0	0.5
370	0	0.5
371	0	0.5
372	0	0.5
373	0	0.755927
374	0	0.755927
375	0	0.755915
376	0	0.285714
377	0	0.285714
378	0	0.142857
379	0	0.142857
380	0	0.884818
381	0	0
382	0	0
383	0	0
384	0	0
385	0	0
386	0	0
387	0	0
388	0	0
389	0	0
390	0	0
391	0	0
392	0	0
393	0	0
394	0	0
395	0	0
396	0	0
397	0	0
398	0	0
399	0	0
400	0	0.447063
401	0	0.440875
402	0	0.142857
403	0	0.142857
404	0	0.142857
405	0	0.142857
406	0	0.142857
407	0	0.142857
408	0	0.12381
409	0	0.12381
410	0	0.12381
411	0	0.12381
412	0	0.12381
413	0	0.171429
414	0	0.171429
415	0	0.181818
416	0	0.181818
417	0	0.181818
418	0	0.181818
419	0	0.166008
420	0	0.152174
421	0	0.152174
422	0	0.187135
423	0	0.168421
424	0	0.168421
425	0	0.157143
426	0	0.132308
427	0	0.132308
428	0	0.108046
429	0	0.622222
430	0	0.622222
431	0	0.108046
432	0	0.101075
433	0	0.0947581
434	0	0.08867
435	0	0.562342
436	0	0.0908521
437	0	0.0921626
438	0	0.0971349
439	0	0.0510204
440	0	0.0612633
441	0	0.0399386
442	0	0.0583208
443	0	0.185555
444	0	0.146102
445	0	0.113979
446	0	0.150542
447	0	0.0641026
448	0	0.0628205
449	0	0.0589744
450	0	0.0615385
451	0	0.0537815
452	0	0.275909
453	0	0.108974
454	0	0.108974
455	0	0.260589
456	0	0.239227
457	0	0.238183
458	0	0.233088
459	0	0.207826
460	0	0.127628
461	0	0.129129
462	0	0.129129
463	0	0.129129
464	0	0.126126
465	0	0.126126
466	0	0.129129
467	0	0.129129
468	0	0.135135
469	0	0.130631
470	0	0.152046
471	0	0.136134
472	0	0.136134
473	0	0.136134
474	0	0.137815
475	0	0.137815
476	0	0.151515
477	0	0.134454
478	0	0.134454
479	0	0.128571
480	0	0.133333
481	0	0.133333
482	0	0.133333
483	0	0.134921
484	0	0.134921
485	0	0.134921
486	0	0.127628
487	0	0.127628
488	0	0.127628
489	0	0.127628
490	0	0.127628
491	0	0.116059
492	0	0.110256
493	0	0.0998839
494	0	0.0998839
495	0	0.0909091
496	0	0.0797872
497	0	0.0701357
498	0	0.0693816
499	0	0.166228
500	0	0.156256
501	0	0.12912
502	0	0.111619
503	0	0.109899
504	0	0.116232
505	0	0.101379
506	0	0.118177
507	0	0.100992
508	0	0.0893888
509	0	0.0824078
510	0	0.127202
511	0	0.127355
512	0	0.129575
513	0	0.0672032
514	0	0.0610329
515	0	0.0643075
516	0	0.0795282
517	0	0.0881155
518	0	0.113874
519	0	0.130811
520	0	0.0869596
521	0	0.115942
522	0	0.115942
523	0	0.0664583
524	0	0.0723407
525	0	0.0764681
526	0	0.0772301
527	0	0.175481
528	0	0.172009
529	0	0.168477
530	0	0.171293
531	0	0.145113
532	0	0.30633
533	0	0
534	0	0
535	0	0
536	0	0
537	0	0
538	0	0
539	0	0
540	0	0
541	0	0
542	0	0
543	0	0
544	0	0
545	0	0
546	0	0
547	0	0
548	0	0
549	0	0.30611
550	0	0.0190476
551	0	0.0184769
552	0	0.123925
553	0	0.123829
554	0	0.127777
555	0	0.0252101
556	0	0.0263913
557	0	0.0240964
558	0	0.0258176
559	0	0.0302674
560	0	0.155399
561	0	0.132502
562	0	0.131414
563	0	0.258408
564	0	0.249359
565	0	0.250394
566	0	0.255204
567	0	0.307306
568	0	0.318088
569	0	0.377019
570	0	0.413261
571	0	0.0399386
572	0	0.0285714
573	0	0.0602537
574	0	0.0746032
575	0	0.101075
576	0	0.141538
577	0	0.181818
578	0	0.199134
579	0	0.269006
580	0	0.294118
581	0	0.294118
582	0	0.294118
583	0	0.294118
584	0	0.294118
585	0	0.330882
586	0	0.330882
587	0	0.330882
588	0	0.330882
589	0	0.330882
590	0	0.375
591	0	0.375
592	0	0.375
593	0	0.375
594	0	0.375
595	0	0.375
596	0	0.375
597	0	0.375
598	0	0.375
599	0	0.375
600	0	0.375
601	0	0.375
602	0	0.375
603	0	0.375
604	0	0.375
605	0	0.375
606	0	0.375
607	0	0.375
608	0	0.375
609	0	0.375
610	0	0.375
611	0	0.375
612	0	0.375
613	0	0.375
614	0	0.375
615	0	0.375
616	0	0.375
617	0	0.375
618	0	0.375
619	0	0.375
620	0	0.375
621	0	0.375
622	0	0.294118
623	0	0.294118
624	0	0.294118
625	0	0.330882
626	0	0.330882
627	0	0.330882
628	0	0.330882
629	0	0.330882
630	0	0.330882
631	0	0.330882
632	0	0.330882
633	0	0.330882
634	0	0.330882
635	0	0.330882
636	0	0.300654
637	0	0.268421
638	0	0.268421
639	0	0.375
640	0	0.375
641	0	0.375
642	0	0.375
643	0	0.375
644	0	0.375
645	0	0.375
646	0	0.375
647	0	0.375
648	0	0.375
649	0	0.375
650	0	0.375
651	0	0.375
652	0	0.375
653	0	0.375
654	0	0.375
655	0	0.375
656	0	0.375
657	0	0.375
658	0	0.375
659	0	0.375
660	0	0.375
661	0	0.375
662	0	0.458333
663	0	0.458333
664	0	0.458333
665	0	0.458333
666	0	0.458333
667	0	0.458333
668	0	0.485294
669	0	0.391813
670	0	0.352632
671	0	0.318483
672	0	0.448528
673	0	0.506662
674	0	0.204752
675	0	0.204752
676	0	0.529098
677	0	0.670325
678	0	0.484794
679	0	0.0210526
680	0	0.0233918
681	0	0.133333
682	0	0.147368
683	0	0.0363636
684	0	0.0277778
685	0	0.0277778
686	0	0.0277778
687	0	0
688	0	0
689	0	0
690	0	0.047619
691	0	0.047619
692	0	0.0666667
693	0	0.2
694	0	0.2
695	0	0.2
696	0	0.2
697	0	0.3
698	0	0.3
699	0	0.1
700	0	0.1
701	0	0.1
702	0	0.1
703	0	0.166667
704	0	0.371795
705	0	0.820347
706	0	0.5
707	0	0.5
708	0	0.5
709	0	0.841283
710	0	0.839379
711	0	0.881005
712	0	0.161765
713	0	0.183333
714	0	0.230769
715	0	0.333333
716	0	0.2
717	0	0.2
718	0	0.2
719	0	0.333333
720	0	0.333333
721	0	0.333333
722	0	0.466667
723	0	0.934835
724	0	0
725	0	0
726	0	0
727	0	0
728	0	0
729	0	0
730	0	0
731	0	0
732	0	0
733	0	0
734	0	0
735	0	0
736	0	0
737	0	0
738	0	0
739	0	0
740	0	0
741	0	0.1
742	0	0.1
743	0	0.1
744	0	0.0666667
745	0	0.1
746	0	0.2
747	0	0.2
748	0	0.475511
749	0	0
750	0	0
751	0	0
752	0	0
753	0	0.920571
754	0	0.920571
755	0	0
756	0	0
757	0	0.1
758	0	0.1
759	0	0.1
760	0	0.1
761	0	0
762	0	0
763	0	0
764	0	0
765	0	0
766	0	0
767	0	0.227273
768	0	0.151515
769	0	0.147059
770	0	0.932673
771	0	0.929233
772	0	0.927583
773	0	0.92574
774	0	0.715789
775	0	0.715789
776	0	0.715789
777	0	0.610816
778	0	0.610816
779	0	0.506177
780	0	0.348315
781	0	0.444835
782	0	0.215854
783	0	0.217469
784	0	0.229839
785	0	0.131868
786	0	0.0769231
787	0	0.0909091
788	0	0.0909091
789	0	0.0727273
790	0	0.0727273
791	0	0.0606061
792	0	0.128079
793	0	0.128079
794	0	0.276699
795	0	0.262208
796	0	0.14662
797	0	0.375
798	0	0.319048
799	0	0.263158
800	0	0.124044
801	0	0.118007
802	0	0.112851
803	0	0.109312
804	0	0.123827
805	0	0.104225
806	0	0.177375
807	0	0.244385
808	0	0.454512
809	0	0.335087
810	0	0.326124
811	0	0.129462
812	0	0.135714
813	0	0.153092
814	0	0.142248
815	0	0.420783
816	0	0.396558
817	0	0.351358
818	0	0.313599
819	0	0.246964
820	0	0.25
821	0	0.454652
822	0	0.642656
823	0	0.542029
824	0	0.511111
825	0	0.442424
826	0	0.113978
827	0	0.103318
828	0	0.14004
829	0	0.130674
830	0	0.225558
831	0	0.196329
832	0	0.109208
833	0	0.130664
834	0	0.148413
835	0	0.166667
836	0	0.166667
837	0	0.0833333
838	0	0.0833333
839	0	0.0357143
840	0	0
841	0	0
842	0	0
843	0	0
844	0	0
845	0	0
846	0	0.047619
847	0	0.047619
848	0	0.189274
849	0	0.277057
850	0	0.440328
851	0	0.543734
852	0	0.194444
853	0	0.194444
854	0	0.194444
855	0	0.194444
856	0	0.111111
857	0	0.582018
858	0	0.664596
859	0	0.662338
860	0	0.675889
861	0	0.77
862	0	0.823864
863	0	0.946917
864	0	0.957855
865	0	0.1
866	0	0.166667
867	0	0.166667
868	0	0
869	0	0
870	0	0
871	0	0
872	0	0
873	0	0
874	0	0
875	0	0
876	0	0
877	0	0
878	0	0
879	0	0
880	0	0
881	0	0
882	0	0
883	0	0
884	0	0
885	0	0
886	0	0
887	0	0
888	0	0
889	0	0
890	0	0
891	0	0
892	0	0
893	0	0
894	0	0
895	0	0
896	0	0
897	0	0
898	0	0
899	0	0
900	0	0
901	0	0
902	0	0
903	0	0
904	0	0
905	0	0.973251
906	0	0.973369
907	0	0.975112
908	0	0.9822
909	0	0.982216
910	0	0.980481
911	0	0.980481
912	0	0.978733
913	0	0.978735
914	0	0.959901
915	0	0.956336
916	0	1
917	0	0.5
918	0	0.166667
919	0	0
920	0	0
921	0	0
922	0	0
923	0	0.0666667
924	0	0.2
925	0	0.939906
926	0	0.191667
927	0	0.394324
928	0	0.609524
929	0	0.357143
930	0	0.950622
931	0	0.959488
932	0	0.96127
933	0	0.964727
934	0	0.963013
935	0	0.963013
936	0	0.925926
937	0	0.269841
938	0	0.209302
939	0	0.860435
940	0	0.560606
941	0	0.384615
942	0	0.384615
943	0	0.212121
944	0	0.133333
945	0	0.163743
946	0	0.19883
947	0	0
948	0	1
949	0	0.4
950	0	0.4
951	0	0.418812
952	0	0
953	0	0
954	0	0.397337
955	0	0.503656
956	0	0.237077
957	0	0.290043
958	0	0.294372
959	0	0.199613
960	0	0.151515
961	0	0.186813
962	0	0.293894
963	0	0.594921
964	0	0.720519
965	0	0.447785
966	0	0.45544
967	1	1
968	1	1
969	0	1
970	0	1
971	0	0.904762
972	0	0.904762
973	0	1
974	0	1
975	0	1
976	0	1
977	0	1
978	0	1
979	0	0.985501
980	0	1
981	0	1
982	0	1
983	0	1
984	0	1
985	0	0.949469
986	0	0
987	0	0
988	0	0
989	0	0.975302
990	0	0
991	0	0
992	0	0
993	0	0
994	0	0
995	0	0
996	0	0
997	0	0
998	0	0
999	0	0
1000	0	0
1001	0	0
1002	0	0
1003	0	0
1004	0	0
1005	0	0
1006	0	0
1007	0	0
1008	0	0
1009	0	0
1010	0	0
1011	0	0
1012	0	0
1013	0	0
1014	0	0
1015	0	0
1016	0	0
1017	0	0
1018	0	0
1019	0	0
1020	0	0
1021	0	0
1022	0	0
1023	0	0
1024	0	0
1025	0	0
1026	0	0
1027	0	0
1028	0	0
1029	0	0
1030	0	0
1031	0	0
1032	0	0
1033	0	0
1034	0	0
1035	0	0
1036	0	0
1037	0	0
1038	0	0
1039	0	0
1040	0	0
1041	0	0
1042	0	0
1043	0	0
1044	0	0
1045	0	0
1046	0	0
1047	0	0
1048	0	0
1049	0	0
1050	0	0
1051	0	0
1052	0	0
1053	0	0
1054	0	0
1055	0	0
1056	0	0
1057	0	0
1058	0	0
1059	0	0.980538
1060	0	0.980543
1061	0	0.977062
1062	0	0.97533
1063	0	0.956659
1064	0	0
1065	0	0
1066	0	0.0666667
1067	0	0.0666667
1068	0	0.987545
1069	0	0.973431
1070	0	0.857143
1071	0	0.846154
1072	0	0.725275
1073	0	0.877732
1074	0	0.86006
1075	0	0.850717
1076	0	0.610481
1077	0	0.361905
1078	0	0.169118
1079	0	0.169118
1080	0	0.1
1081	0	0.0583333
1082	0	0.0514706
1083	0	0.0519481
1084	0	0.0519481
1085	0	0.397234
1086	0	0.446869
1087	0	0.439578
1088	0	0.363636
1089	0	0.363636
1090	0	0.331579
1091	0	0.19697
1092	0	0.142857
1093	0	0.19697
1094	0	0.190476
1095	0	0.287879
1096	0	0.897886
1097	0	0
1098	0	0
1099	0	0
1100	0	0
1101	0	0
1102	0	0
1103	0	0
1104	0	0.922459
1105	0	0.17029
1106	0	0
1107	0	0
1108	0	0
1109	1	0
1110	1	0
1111	0	0
1112	0	0
1113	0	0
1114	0	0
1115	0	0
1116	0	0
1117	0	0
1118	0	0
1119	0	0
1120	0	0
1121	0	0
1122	0	0
1123	0	0
1124	0	0.195652
1125	0	0.367299
1126	0	0.114616
1127	0	0.324729
1128	0	0.134769
1129	0	0.289568
1130	0	0.236575
1131	0	0.234343
1132	0	0.315912
1133	0	0.238431
1134	0	0.193609
1135	0	0.424624
1136	0	0.196378
1137	0	0.139165
1138	0	0.0994262
1139	0	0.170103
1140	0	0
1141	0	0
1142	0	0
1143	0	0
1144	0	0
1145	0	0.21806
1146	0	0.197693
1147	0	0.162554
1148	0	0.309273
1149	0	0.324589
1150	0	0.2
1151	0	0.2
1152	0	0.3
1153	0	0.3
1154	0	0.266667
1155	0	0.954625
1156	0	0.959769
1157	0	0.959769
1158	0	0.959733
1159	0	0.0357143
1160	0	0
1161	0	0.956429
1162	0	0.958154
1163	0	0.958154
1164	0	1
1165	0	0.691954
1166	0	0.878502
1167	0	0
1168	0	0
1169	0	0
1170	0	0
1171	0	0
1172	0	0
1173	0	0
1174	0	0
1175	0	0
1176	0	0.662234
1177	0	0.825377
1178	0	0.815684
1179	0	0.801088
1180	0	0.619048
1181	0	0.619048
1182	0	0.518519
1183	0	0.636667
1184	0	0.513228
1185	0	0.249554
1186	0	0.123123
1187	0	0.10961
1188	0	0.721901
1189	0	0.212121
1190	0	0.212121
1191	0	0.212121
1192	0	0.207792
1193	0	0.177489
1194	0	0.168831
1195	0	0.144928
1196	0	0.258865
1197	0	0.245714
1198	0	0.240983
1199	0	0.226472
1200	0	0.189012
1201	0	0.309031
1202	0	0.287919
1203	0	0.254075
1204	0	0.239712
1205	0	0
1206	0	0
1207	0	0
1208	0	0
1209	0	0
1210	0	0
1211	0	0
1212	0	0.484211
1213	0	0.484211
1214	0	0.538012
1215	0	0.538012
1216	0	0.538012
1217	0	0.34188
1218	0	0.31746
1219	0	0.718187
1220	0	0.694191
1221	0	0.223583
1222	0	0.196954
1223	0	0.152155
1224	0	0.151921
1225	0	0.161826
1226	0	0.260425
1227	0	0.280305
1228	0	0.413807
1229	0	0.626894
1230	0	0.621212
1231	0	0.621212
1232	0	0.552941
1233	0	0.477833
1234	0	0.381609
1235	0	0.651613
1236	0	0.387097
1237	0	0.360294
1238	0	0.360294
1239	0	0.220779
1240	0	0.33514
1241	0	0.354699
1242	0	0
1243	0	0
1244	0	0
1245	0	0
1246	0	0
1247	0	0
1248	0	0
1249	0	0
1250	0	0
1251	0	0
1252	0	0
1253	0	0
1254	0	0
1255	0	0
1256	0	0
1257	0	0
1258	0	0
1259	0	0
1260	0	0
1261	0	0
1262	0	0
1263	0	0
1264	0	0
1265	0	0
1266	0	0
1267	0	0
1268	0	0
1269	0	0
1270	0	0
1271	0	0
1272	0	0
1273	0	0
1274	0	0
1275	0	0
1276	0	0
1277	0	0
1278	0	0
1279	0	0
1280	0	0
1281	0	0
1282	0	0
1283	0	0
1284	0	0
1285	0	0
1286	0	0
1287	0	0
1288	0	0
1289	0	0
1290	0	0
1291	0	0
1292	0	0
1293	0	0
1294	0	0
1295	0	0
1296	0	0
1297	0	0
1298	0	0
1299	0	0
1300	0	0
1301	0	0
1302	0	0
1303	0	0
1304	0	0
1305	0	0
1306	0	0
1307	0	0
1308	0	0
1309	0	0
1310	0	0
1311	0	0
1312	0	0
1313	0	0
1314	0	0
1315	0	0
1316	0	0
1317	0	0
1318	0	0
1319	0	0
1320	0	0
1321	0	0
1322	0	0
1323	0	0
1324	0	0
1325	0	0
1326	0	0
1327	0	0
1328	0	0
1329	0	0
1330	0	0
1331	0	0
1332	0	0
1333	0	0.416522
1334	0	0.462894
1335	0	0.288071
1336	0	0.374907
1337	0	0.427378
1338	0	0.681484
1339	0	0.78459
1340	0	0.813068
1341	0	0.859206
1342	0	0.706506
1343	0	0.82351
1344	0	0.951646
1345	0	0.961448
1346	0	0.971897
1347	0	0.966735
1348	0	0.963298
1349	0	0.963298
1350	0	0.3
1351	0	0
1352	0	0.958252
1353	0	0.958288
1354	0	0.956612
1355	0	0.166667
1356	0	0.166667
1357	0	0.166667
1358	0	0.966819
1359	0	0.5
1360	0	0.5
1361	0	0.5
1362	0	0.940363
1363	0	0.940363
1364	1	0
1365	1	0
1366	1	0
1367	1	0
1368	1	0
1369	1	0
1370	1	0
1371	1	0
1372	1	0
1373	1	0
1374	1	0
1375	1	0
1376	1	0
1377	1	0
1378	1	0
1379	0	0.982199
1380	0	0.978696
1381	0	0.978677
1382	0	0.975125
1383	0	0.971598
1384	0	0
1385	0	0
1386	0	0
1387	0	0
1388	0	0
1389	0	0
1390	0	0
1391	0	0
1392	1	0
1393	0	0
1394	0	0
1395	0	0
1396	0	0
1397	0	0
1398	0	0
1399	0	0.961187
1400	0	0.961222
1401	0	0.959513
1402	0	0.1
1403	0	0.1
1404	0	0.2
1405	0	0.944209
1406	0	0.944107
1407	0	0.222222
1408	0	0.966494
1409	0	0.0833333
1410	0	0.978716
1411	0	0.980481
1412	0	0.980499
1413	0	0.980499
1414	0	0.978754
1415	0	0.975257
1416	0	0.977034
1417	0	0.977034
1418	0	0.977034
1419	0	0.977014
1420	0	0.973549
1421	0	0.971823
1422	0	0.973549
1423	0	0.973549
1424	0	0.973549
1425	0	1
1426	0	1
1427	0	1
1428	0	1
1429	0	1
1430	0	0.5
1431	0	0.969433
1432	0	1
1433	0	1
1434	0	1
1435	0	1
1436	0	1
1437	0	1
1438	0	1
1439	0	1
1440	0	1
1441	0	0
1442	0	0.4
1443	0	0.921701
1444	0	0.866667
1445	0	0.866667
1446	0	0.752199
1447	0	0.751778
1448	0	0.444558
1449	0	0.333333
1450	0	0
1451	0	0
1452	0	0
1453	0	0
1454	0	0.362873
1455	0	0.289762
1456	0	0.111111
1457	0	0.137318
1458	0	0.168182
1459	0	0.142857
1460	0	0.195122
1461	0	0.212544
1462	0	0.134199
1463	0	0.359788
1464	0	0.474688
1465	0	0.128911
1466	0	0.174335
1467	0	0.206593
1468	0	0.213886
1469	0	0.443077
1470	0	0.222222
1471	0	0.285714
1472	0	0.455385
1473	0	0.455385
1474	0	0.373494
1475	0	0.444444
1476	0	0.6
1477	0	0.697723
1478	0	0.699392
1479	0	0.690693
1480	0	0.690699
1481	0	0.690466
1482	0	0.628482
1483	0	0.60671
1484	0	1
1485	0	1
1486	0	1
1487	0	1
1488	0	0.6
1489	0	0.576087
1490	0	0.214286
1491	0	0.208791
1492	0	0.153846
1493	0	0.333333
1494	0	0.126923
1495	0	0.41394
1496	0	0.368674
1497	0	0.370202
1498	0	0
1499	0	0
1500	0	0
1501	0	0
1502	0	0
1503	0	0
1504	0	0
1505	0	0
1506	0	0
1507	0	0
1508	0	0
1509	0	0
1510	0	0
1511	0	0
1512	0	0
1513	0	0
1514	0	0
1515	0	0
1516	0	0
1517	0	0
1518	0	0
1519	0	0
1520	0	0
1521	0	0
1522	0	0
1523	0	0
1524	0	0
1525	0	0.237133
1526	0	0.166667
1527	0	0.166667
1528	0	0.214286
1529	0	0.214286
1530	0	0.142857
1531	0	0.1
1532	0	0.1
1533	0	0.166667
1534	0	0.166667
1535	0	0
1536	0	0.248205
1537	0	0.047619
1538	0	0.0666667
1539	0	0.0666667
1540	0	0.434129
1541	0	0.45727
1542	0	0.360777
1543	0	0.214286
1544	0	0.214286
1545	0	0.214286
1546	0	0.0888889
1547	0	0.0545455
1548	0	0.210526
1549	0	0.133333
1550	0	0.150794
1551	0	0.2
1552	0	0.283077
1553	0	0.228095
1554	0	0.25523
1555	0	0.236324
1556	0	0.204772
1557	0	0.177882
1558	0	0.189811
1559	0	0.165324
1560	0	0.103608
1561	0	0.109848
1562	0	0.0984615
1563	0	0.108225
1564	0	0.0989011
1565	0	0.142857
1566	0	0.163158
1567	0	0.178947
1568	0	0.242488
1569	0	0.363543
1570	0	0.189542
1571	0	0.248366
1572	0	0.571429
1573	0	0.571429
1574	0	0.535714
1575	0	0.535714
1576	0	0.716344
1577	0	0.3
1578	0	0.310526
1579	0	0.315789
1580	0	0.3
1581	0	0.557895
1582	0	0.701754
1583	0	0.79085
1584	0	0.79085
1585	0	0.79085
1586	0	0.79085
1587	0	0.705234
1588	0	0
1589	0	0
1590	0	0
1591	0	0
1592	0	0
1593	0	0
1594	0	0
1595	0	0
1596	0	0
1597	0	0.166667
1598	0	0.1
1599	0	0.142857
1600	0	0.142857
1601	0	0.321429
1602	0	0.428571
1603	0	0.428571
1604	0	0.469697
1605	0	0.696947
1606	0	0.447159
1607	0	0.447159
1608	0	0.841357
1609	0	0.917506
1610	0	0.915887
1611	0	0.9008
1612	0	0.893993
1613	0	0.906711
1614	0	0.518219
1615	0	0.957967
1616	0	0.957967
1617	0	0.957932
1618	0	0.956237
1619	0	0.954506
1620	0	0.949328
1621	0	0
1622	0	0.825581
1623	0	0
1624	0	0
1625	0	0
1626	0	0
1627	0	0
1628	0	0
1629	0	0
1630	0	0.874668
1631	0	0.558333
1632	0	0.558333
1633	0	0.558333
1634	0	0.492647
1635	0	0.492647
1636	0	0.437908
1637	0	0.327485
1638	0	0.762369
1639	0	0.409009
1640	0	0.318448
1641	0	0.263751
1642	0	0.215345
1643	0	0.160606
1644	0	0.128328
1645	0	0.110738
1646	0	0.0969093
1647	0	0.083734
1648	0	0.0737039
1649	0	0.0691034
1650	0	0.0755842
1651	0	0.0682068
1652	0	0.0669119
1653	0	0.0712606
1654	0	0.0734966
1655	0	0.085061
1656	0	0.0858008
1657	0	0.090729
1658	0	0.0967172
1659	0	0.114881
1660	0	0.157697
1661	0	0.164261
1662	0	0.0788576
1663	0	0.0769231
1664	0	0.0761705
1665	0	0.0761705
1666	0	0.0693603
1667	0	0.0673401
1668	0	0.148071
1669	0	0.142105
1670	0	0.135863
1671	0	0.161384
1672	0	0.159392
1673	0	0.162878
1674	0	0.12124
1675	0	0.0902786
1676	0	0.252668
1677	0	0.280296
1678	0	0.27179
1679	0	0.224946
1680	0	0.174107
1681	0	0.346703
1682	0	0.105953
1683	0	0.107562
1684	0	0.144931
1685	0	0.170581
1686	0	0.153185
1687	0	0.10139
1688	0	0.121795
1689	0	0.211076
1690	0	0.254737
1691	0	0.36216
1692	0	0.142857
1693	0	0.142857
1694	0	0.166667
1695	0	0.249637
1696	0	0.267779
1697	0	0.29638
1698	0	0.134199
1699	0	0.126812
1700	0	0.173333
1701	0	0.174877
1702	0	0.356712
1703	0	0.445791
1704	0	0.632342
1705	0	0.416667
1706	0	0.416667
1707	0	0.416667
1708	0	0.714286
1709	0	0
1710	0	0
1711	0	0
1712	0	0.228375
1713	0	0.327273
1714	0	0.318182
1715	0	0.203121
1716	0	0
1717	0	0
1718	0	0
1719	0	0
1720	0	0
1721	0	0
1722	0	0
1723	0	0
1724	0	0
1725	0	0
1726	0	0
1727	0	0
1728	0	0
1729	0	0
1730	0	0.267517
1731	0	0.346339
1732	0	0.364574
1733	0	0.438432
1734	0	0.115942
1735	0	0.115942
1736	0	0.116809
1737	0	0.113757
1738	0	0.101149
1739	0	0.442872
1740	0	0.431914
1741	0	0.428669
1742	0	0.137804
1743	0	0.32299
1744	0	0.325602
1745	0	0.145455
1746	0	0.128205
1747	0	0.124183
1748	0	0.115385
1749	0	0.121212
1750	0	0.107962
1751	0	0.133547
1752	0	0.124129
1753	0	0.304293
1754	0	0.132571
1755	0	0.0963142
1756	0	0.16857
1757	0	0.117647
1758	0	0.181356
1759	0	0.161013
1760	0	0.192989
1761	0	0.188937
1762	0	0.0796586
1763	0	0.0933333
1764	0	0.180889
1765	0	0.399185
1766	0	0.10989
1767	0	0.5
1768	0	0.5
1769	0	0.3
1770	0	0.3
1771	0	0
1772	0	0
1773	0	0
1774	0	0
1775	0	0
1776	0	0
1777	0	0.142857
1778	0	0.13834
1779	0	0.264159
1780	0	0.333333
1781	0	0.0693603
1782	0	0.0666667
1783	0	0.0824598
1784	0	0.0785714
1785	0	0.106011
1786	0	0.167232
1787	0	0.449267
1788	0	0.52132
1789	0	0.529249
1790	0	0.54675
1791	0	0.0666667
1792	0	0.0666667
1793	0	0.0666667
1794	0	0.047619
1795	0	0.0555556
1796	0	0.0555556
1797	0	0.0888889
1798	0	0.175824
1799	0	0.222222
1800	0	0.273684
1801	0	0.291667
1802	0	0.550498
1803	0	0.542986
1804	0	0.401068
1805	0	0.313632
1806	0	0.498801
1807	0	0.609678
1808	0	0.787955
1809	0	0.821113
1810	0	0.843851
1811	0	0.88341
1812	0	0.929775
1813	0	0.933218
1814	0	0.864532
1815	0	0.864532
1816	0	0.928571
1817	0	0.9879
1818	0	0.9879
1819	0	0.9879
1820	0	0.989615
1821	0	0.989624
1822	0	0.989624
1823	0	0.989624
1824	0	0.987879
1825	0	0.986167
1826	0	0.987891
1827	0	0.987891
1828	0	0.984458
1829	0	0.984456
1830	0	0.984456
1831	0	0.981019
1832	0	0.928869
1833	0	1
1834	0	1
1835	0	1
1836	0	1
1837	0	0.924552
1838	0	0.884135
1839	0	0.655385
1840	0	0.666667
1841	0	0.452381
1842	0	0.879903
1843	0	1
1844	0	1
1845	0	1
1846	0	0
1847	0	0
1848	0	0
1849	0	0
1850	0	0
1851	0	0
1852	0	0.800493
1853	0	0.800493
1854	0	0.438095
1855	0	0.439394
1856	0	0.371795
1857	0	0.4842
1858	0	0.385464
1859	0	0.375196
1860	0	0.336145
1861	0	0.777778
1862	0	0.777778
1863	0	0.5
1864	0	0.444444
1865	0	0.274725
1866	0	0.317182
1867	0	0.12381
1868	0	0.285099
1869	0	0.215819
1870	0	0.25641
1871	0	0.654545
1872	0	0.75
1873	0	0.166667
1874	0	0.111111
1875	0	0
1876	0	0
1877	0	0
1878	0	0
1879	0	0
1880	0	0
1881	0	0
1882	0	0
1883	0	0
1884	0	0
1885	0	0.236698
1886	0	0.165795
1887	0	0.105712
1888	0	0.109395
1889	0	0.102013
1890	0	0.156413
1891	0	0.353846
1892	0	0.179894
1893	0	0.284314
1894	0	0.486159
1895	0	0.734966
1896	0	0.178025
1897	0	0.204856
1898	0	0.199057
1899	0	0.153261
1900	0	0.146371
1901	0	0.239869
1902	0	0.53256
1903	0	0.150198
1904	0	0.167247
1905	0	0.550752
1906	0	0.591693
1907	0	0.853724
1908	0	0.942507
1909	0	0.654545
1910	0	0.818182
1911	0	1
1912	0	0.92808
1913	0	0.945852
1914	0	1
1915	0	0.998279
1916	0	0.998279
1917	0	0.996562
1918	0	0.996562
1919	0	0.996562
1920	0	0.996562
1921	0	0.99485
1922	0	0.996562
1923	0	0.993142
1924	0	0.993142
1925	0	0.993142
1926	0	0.993142
1927	0	0.993142
1928	0	0.993142
1929	0	0.993142
1930	0	0.993142
1931	0	0.993142
1932	0	0.993142
1933	0	0.993142
1934	0	0.988008
1935	1	1
1936	1	1
1937	1	1
1938	1	1
1939	1	1
1940	1	1
1941	1	1
1942	0	0.333333
1943	0	0.285714
1944	1	0
1945	1	0
1946	1	0
1947	1	0
1948	1	0
1949	1	0
1950	1	0
1951	1	0
1952	0	0.333333
1953	0	0.974371
1954	0	0.972694
1955	0	1
1956	0	0.626016
1957	0	0.372297
1958	0	0.707821
1959	0	0.426923
1960	0	0.339744
1961	0	0.434615
1962	0	0.764044
1963	0	0.556554
1964	0	0.69281
1965	0	1
1966	0	0.806839
1967	0	0.806839
1968	0	0.921548
1969	0	0.984
1970	0	1
1971	0	0.939652
1972	0	0.943218
1973	0	0.943218
1974	0	1
1975	0	1
1976	0	0.99658
1977	0	0.994876
1978	0	0.998289
1979	0	0.998289
1980	0	0.996583
1981	0	0.996583
1982	0	0.996583
1983	0	0.996583
1984	0	0
1985	0	0
1986	0	0
1987	0	0
1988	0	0
1989	0	0
1990	0	0.989757
1991	0	0.968254
1992	0	0.8
1993	0	0.8
1994	0	0.666667
1995	0	0.6
1996	0	0.6
1997	0	0.88306
1998	0	0.88306
1999	0	0.882965
2000	0	0.881364
2001	0	0.835294
2002	0	0.835294
2003	0	0.835294
2004	0	0.840121
2005	0	0.833333
2006	0	0.605561
2007	0	0.428738
2008	0	0.405357
2009	0	0.342793
2010	0	0.238095
2011	0	0.186813
2012	0	0.218182
2013	0	0
2014	0	0
2015	0	0
2016	0	0
2017	0	0
2018	0	0
2019	0	0
2020	0	0
2021	0	0
2022	0	0
2023	0	0
2024	0	0
2025	0	0
2026	0	0
2027	0	0
2028	0	0
2029	0	0
2030	0	0
2031	0	0
2032	0	0
2033	0	0
2034	0	0.1
2035	0	0.1
2036	0	0.1
2037	0	0.1
2038	0	0.1
2039	0	0.1
2040	0	0.409312
2041	0	0.239216
2042	0	0.211765
2043	0	0.204706
2044	0	0.204706
2045	0	0.197647
2046	0	0.176471
2047	0	0.119216
2048	0	0.305179
2049	0	0.257733
2050	0	0.225399
2051	0	0.18686
2052	0	0.125
2053	0	0.0952381
2054	0	0.175824
2055	0	0.266667
2056	0	0.307692
2057	0	0.307692
2058	0	0.358974
2059	0	0.171795
2060	0	0.136407
2061	0	0.245907
2062	0	0.208203
2063	0	0.246628
2064	0	0.235575
2065	0	0.216368
2066	0	0.222204
2067	0	0.219577
2068	0	0.230162
2069	0	0.138308
2070	0	0.109476
2071	0	0.104381
2072	0	0.116301
2073	0	0.117644
2074	0	0.101611
2075	0	0.099335
2076	0	0.104013
2077	0	0.108869
2078	0	0.0731943
2079	0	0.0794066
2080	0	0.0752824
2081	0	0.0839901
2082	0	0.0664901
2083	0	0.037296
2084	0	0.0246734
2085	0	0.0204082
2086	0	0.0203515
2087	0	0.0243129
2088	0	0.0242424
2089	0	0.0278746
2090	0	0.0329268
2091	0	0.0753623
2092	0	0.111877
2093	0	0.0973783
2094	0	0.0966292
2095	0	0.0995914
2096	0	0.105495
2097	0	0.131075
2098	0	0.135095
2099	0	0.141889
2100	0	0.142325
2101	0	0.224342
2102	0	0.282272
2103	0	0.328093
2104	0	0.336842
2105	0	0.353573
2106	0	0.342365
2107	0	0.453763
2108	0	0.453763
2109	0	0.485057
2110	0	0.598291
2111	0	0.598291
2112	0	0.598291
2113	0	0.598291
2114	0	0.598291
2115	0	0.835352
2116	0	0.865955
2117	0	0.494505
2118	0	0.494505
2119	0	0.494505
2120	0	0.428571
2121	0	0.428571
2122	0	0.428571
2123	0	0.738404
2124	0	0.763611
2125	0	0.764023
2126	0	0.531955
2127	0	0.533208
2128	0	0.366262
2129	0	0.365146
2130	0	0.406009
2131	0	0.190476
2132	0	0.190476
2133	0	0.190476
2134	0	0.190476
2135	0	0.190476
2136	0	0.190476
2137	0	0.47619
2138	0	0.47619
2139	0	0.535714
2140	0	0.535714
2141	0	0.622222
2142	0	0.622222
2143	0	0
2144	0	0.795322
2145	0	0.814286
2146	0	0.814286
2147	1	0
2148	0	0
2149	0	0
2150	0	0
2151	0	0
2152	0	0
2153	0	0
2154	0	0
2155	0	0
2156	0	0
2157	0	0
2158	0	0
2159	1	0
2160	1	0
2161	1	0
2162	1	0
2163	1	0
2164	1	0
2165	1	0
2166	0	0
2167	0	0
2168	1	0
2169	1	0
2170	1	0
2171	1	0
2172	1	0
2173	0	0
2174	0	0
2175	0	0
2176	0	0
2177	0	0
2178	0	0
2179	1	0
2180	1	0
2181	1	0
2182	0	0
2183	1	0
2184	0	0
2185	0	0
2186	0	0
2187	0	0
2188	0	0
2189	0	0
2190	0	0
2191	0	0
2192	0	0
2193	0	0
2194	0	0
2195	0	0
2196	0	0
2197	0	0
2198	0	0
2199	0	0.333333
2200	0	0.333333
2201	0	0.333333
2202	0	0.333333
2203	0	0.166667
2204	0	0.166667
2205	0	0.3
2206	0	0.3
2207	0	0.6
2208	0	1
2209	0	0.75
2210	0	0.916667
2211	0	0.802956
2212	0	0.897582
2213	0	0.978947
2214	0	0.981481
2215	0	0.982301
2216	0	0.986207
2217	0	0.991968
2218	0	1
2219	0	0.996544
2220	0	0.99658
2221	0	0.99658
2222	0	0.99658
2223	0	0.99658
2224	0	0.996583
2225	0	0.996583
2226	0	0.994881
2227	0	0.994885
2228	0	0.994885
2229	0	0.991497
2230	0	0.991497
2231	0	0.991497
2232	0	0.991497
2233	0	0.991497
2234	0	0.857143
2235	0	0.971302
2236	0	0.971204
2237	0	1
2238	0	0.4
2239	0	0.4
2240	0	0.133333
2241	0	0.974109
2242	0	0
2243	0	0
2244	1	0
2245	1	0
2246	1	0
2247	1	0
2248	1	0
2249	1	0
2250	1	0
2251	0	0
2252	1	1
2253	0	0.333333
2254	0	0.333333
2255	0	1
2256	0	0.5
2257	0	0.5
2258	0	0.4
2259	0	0.67657
2260	0	0.67931
2261	0	0.733333
2262	0	0.47619
2263	0	0.99485
2264	0	0.996562
2265	0	0.996565
2266	0	0.996568
2267	0	0.996565
2268	1	0
2269	1	0
2270	1	0
2271	1	0
2272	0	0.993106
2273	1	1
2274	1	1
2275	1	1
2276	1	1
2277	1	1
2278	1	1
2279	0	0
2280	0	0.89658
2281	0	1
2282	0	1
2283	0	1
2284	0	1
2285	0	0.52381
2286	0	0.52381
2287	0	0.52381
2288	0	0.52381
2289	0	0.52381
2290	0	0.47619
2291	0	0.47619
2292	0	0.47619
2293	0	0.666667
2294	0	0.4
2295	0	0.4
2296	0	0.428571
2297	0	0.428571
2298	0	0.428571
2299	0	0.428571
2300	0	0.428571
2301	0	0.466667
2302	0	0.876926
2303	0	0.998273
2304	0	0.998273
2305	0	0.994823
2306	0	0.98967
2307	0	0.989652
2308	1	0
2309	1	0
2310	1	0
2311	1	0
2312	1	0
2313	1	0
2314	1	0
2315	1	0
2316	1	0
2317	1	0
2318	1	0
2319	1	0
2320	0	0
2321	0	0
2322	0	0
2323	0	0
2324	0	0.986277
2325	0	0.989691
2326	0	0.989691
2327	0	0.98802
2328	0	0.98802
2329	0	0.991433
2330	0	0.989732
2331	0	0.989741
2332	0	0.993161
2333	0	0.994869
2334	0	0.994869
2335	0	0.994869
2336	0	0.994869
2337	0	0.994869
2338	0	0.994873
2339	0	0.993173
2340	0	0.993178
2341	0	0.993178
2342	0	0.993173
2343	0	0.993178
2344	0	0.993178
2345	0	0.993178
2346	1	1
2347	0	1
2348	0	0.5
2349	0	0.166667
2350	0	0.333333
2351	0	0.333333
2352	0	0.333333
2353	1	1
2354	1	1
2355	1	1
2356	1	1
2357	0	0
2358	1	0
2359	0	0
2360	0	1
2361	0	1
2362	0	1
2363	0	1
2364	0	0.993183
2365	0	0.994885
2366	0	0.996588
2367	0	0.996588
2368	0	0.996588
2369	0	0.996588
2370	0	0.996588
2371	0	0.996588
2372	0	0.996588
2373	0	1
2374	0	0.993173
2375	0	0.993173
2376	0	0.993178
2377	0	0.8
2378	0	0.8
2379	0	0.8
2380	0	0.8
2381	0	0.439394
2382	0	0.970963
2383	0	0.5
2384	0	0.5
2385	0	0.266667
2386	0	0.266667
2387	0	0.266667
2388	0	0.2
2389	0	0.142857
2390	0	0.946021
2391	0	0.277778
2392	0	0.277778
2393	0	0.166667
2394	0	0.277778
2395	0	0.222222
2396	0	0.222222
2397	0	0.322464
2398	0	0.307971
2399	0	0.123153
2400	0	0.1
2401	0	0.150075
2402	0	0.141604
2403	0	0.772728
2404	0	0.437786
2405	0	1
2406	0	1
2407	0	0.5
2408	0	0.5
2409	0	0.1
2410	0	0.433146
2411	0	0.43338
2412	0	0.388733
2413	0	0.36676
2414	0	0.351566
2415	0	0.361311
2416	0	0
2417	0	1
2418	0	1
2419	0	1
2420	0	1
2421	0	0
2422	0	0
2423	0	1
2424	0	1
2425	0	1
2426	0	1
2427	0	1
2428	0	0
2429	0	0
2430	0	0
2431	0	0
2432	0	0.859427
2433	0	0.194444
2434	0	0.155556
2435	0	0.155556
2436	0	0.155556
2437	0	0.155556
2438	0	0.141667
2439	0	0.0363636
2440	0	0.659664
2441	0	0.0761905
2442	0	0.262069
2443	0	0.381429
2444	0	0.540258
2445	0	0.356919
2446	0	0
2447	0	0
2448	0	0
2449	0	0
2450	0	0
2451	0	0
2452	0	0
2453	0	0.838049
2454	0	0.434545
2455	0	1
2456	0	1
2457	0	1
2458	0	0.857143
2459	0	0.857143
2460	0	0.402723
2461	0	0.235241
2462	0	0.740864
2463	0	0.268293
2464	0	0.301974
2465	0	0.282653
2466	0	0.132051
2467	0	0.184783
2468	0	0.18254
2469	0	0.333333
2470	0	0.413043
2471	0	0
2472	0	0
2473	0	0
2474	0	0
2475	0	0
2476	0	0
2477	0	0
2478	0	0
2479	0	0.164847
2480	0	0.0512821
2481	0	0.102704
2482	0	0.291659
2483	0	0.16074
2484	0	0.13135
2485	0	0.136501
2486	0	0.142558
2487	0	0.167553
2488	0	0.139608
2489	0	0.156915
2490	0	0.155102
2491	0	0.155102
2492	0	0.143687
2493	0	0.120397
2494	0	0.0977444
2495	0	0.189026
2496	0	0.424696
2497	0	0.152482
2498	0	0.141224
2499	0	0.144504
2500	0	0.13098
2501	0	0.153725
2502	0	0.159127
2503	0	0.212625
2504	0	0.359747
2505	0	0.407522
2506	0	0.826106
2507	0	0.842987
2508	0	0.271585
2509	0	0.379928
2510	0	0.233846
2511	0	0.10989
2512	0	0.19697
2513	0	0.19697
2514	0	0.25
2515	0	0.25
2516	0	0.166667
2517	0	0
2518	0	0
2519	0	0
2520	0	0
2521	0	0
2522	0	0
2523	0	0
2524	0	0
2525	0	0
2526	0	0
2527	0	0
2528	0	0.987919
2529	0	0.991379
2530	0	0.9931
2531	0	0.98634
2532	0	0.993159
2533	0	0.993165
2534	0	0.993171
2535	0	0.993171
2536	0	0.993159
2537	0	0.993154
2538	0	0.994859
2539	0	0
2540	0	0.989767
2541	1	0
2542	1	0
2543	0	0.99658
2544	0	0.99658
2545	0	0.99658
2546	0	0.99658
2547	0	0.996583
2548	0	0.996583
2549	0	0.996583
2550	0	0.996583
2551	0	0.996583
2552	0	0.996583
2553	0	0.996583
2554	0	0.996583
2555	0	0.996583
2556	0	0.996103
2557	0	0.990269
2558	0	0.990269
2559	0	0.944444
2560	0	0.814286
2561	0	1
2562	0	1
2563	0	1
2564	0	1
2565	0	1
2566	0	0.615385
2567	0	0.615385
2568	0	0.717949
2569	0	0.717949
2570	0	0.69697
2571	0	0.611111
2572	0	0.611111
2573	0	0.611111
2574	0	0.333333
2575	0	0.333333
2576	0	0.333333
2577	0	0.333333
2578	0	0.142857
2579	0	0.142857
2580	0	0.0952381
2581	0	0.685668
2582	0	0.358974
2583	0	0.403509
2584	0	0.433824
2585	0	0.433824
2586	0	0.380952
2587	0	0.380952
2588	0	0.397436
2589	0	0.327273
2590	0	0.181818
2591	0	0.181818
2592	0	0.181818
2593	0	0.181818
2594	0	0.222222
2595	0	0.222222
2596	0	0.288889
2597	0	0.288889
2598	0	0.428571
2599	0	0.428571
2600	0	0.321429
2601	0	0.321429
2602	0	0.321429
2603	0	0.321429
2604	0	0.321429
2605	0	0.321429
2606	0	0.321429
2607	0	0.321429
2608	0	0.472062
2609	0	0
2610	0	0
2611	0	0
2612	0	1
2613	0	1
2614	0	0
2615	0	0
2616	0	0
2617	0	0
2618	0	0
2619	0	0.61314
2620	0	0.333333
2621	0	0.333333
2622	0	0.272727
2623	0	0.181818
2624	0	0.0727273
2625	0	0.155556
2626	0	0.0888889
2627	0	0.0888889
2628	0	0.1
2629	0	0.1
2630	0	0.1
2631	0	0.166667
2632	0	0.166667
2633	0	0.166667
2634	0	0.1
2635	0	0.1
2636	0	0.1
2637	0	0.1
2638	0	0.3
2639	0	0.887325
2640	0	0.137255
2641	0	0.150218
2642	0	0.150075
2643	0	0.142961
2644	0	0.154572
2645	0	0.207547
2646	0	0.222061
2647	0	0.260522
2648	0	0.285922
2649	0	0.391405
2650	0	0.489331
2651	0	0.489331
2652	0	0.974324
2653	0	0.974325
2654	0	0.0357143
2655	0	0.0714286
2656	0	0.0952381
2657	0	0.979558
2658	0	0.979558
2659	0	0.981244
2660	0	0.5
2661	0	0.5
2662	0	0.5
2663	0	0.5
2664	0	0.321429
2665	0	0.321429
2666	0	0.25
2667	0	0.25
2668	0	0.976223
2669	0	0.166667
2670	0	0.166667
2671	0	0.166667
2672	0	0.166667
2673	0	0
2674	0	0
2675	0	0
2676	0	0
2677	0	0
2678	0	0
2679	0	0
2680	0	0
2681	0	0.82797
2682	0	0.277778
2683	0	0.277778
2684	0	0.277778
2685	0	0.277778
2686	0	0.25
2687	0	0.2
2688	0	0.3
2689	0	0.3
2690	0	0.5
2691	0	0.5
2692	0	0.5
2693	0	0.5
2694	0	0.5
2695	0	0.5
2696	0	0.5
2697	0	0.5
2698	0	0.6
2699	0	0.996568
2700	0	0.996568
2701	0	0.996568
2702	0	0.996568
2703	0	0.996568
2704	0	0.996568
2705	0	0.996568
2706	0	0.996568
2707	0	0.994854
2708	0	0.994854
2709	0	0.994854
2710	0	0.993148
2711	0	0.993148
2712	0	0
2713	0	0
2714	0	0
2715	0	0
2716	0	0
2717	1	0
2718	1	0
2719	1	0
2720	1	0
2721	1	0
2722	1	0
2723	1	0
2724	0	0
2725	0	0
2726	0	0
2727	0	0
2728	0	0
2729	0	0.333333
2730	0	0.333333
2731	0	0.333333
2732	0	0.333333
2733	0	0.166667
2734	0	0.166667
2735	0	0.994863
2736	0	0.994863
2737	0	0.994863
2738	0	0
2739	0	0.998285
2740	0	0.998285
2741	0	0.998285
2742	0	0.998285
2743	0	0.998285
2744	0	0.998285
2745	0	0.998285
2746	0	0
2747	0	0
2748	0	0
2749	0	0
2750	0	0
2751	0	0.993159
2752	0	0.993159
2753	0	0.993159
2754	0	0.993159
2755	0	0
2756	0	0
2757	0	0
2758	0	0
2759	0	0
2760	0	0
2761	0	0
2762	0	0
2763	0	0
2764	0	0
2765	0	0
2766	0	0
2767	0	0
2768	0	0
2769	0	0
2770	0	0
2771	0	0
2772	0	0
2773	0	0.993159
2774	0	0.993159
2775	0	0.994863
2776	0	0.996571
2777	0	0.996571
2778	0	0.996568
2779	0	0.994859
2780	0	0.996571
2781	0	0
2782	0	0
2783	0	0
2784	0	0
2785	0	0
2786	0	0
2787	0	0
2788	0	0
2789	0	0.994863
2790	0	0.994863
2791	0	0.994863
2792	0	0.994863
2793	0	0.994863
2794	0	0.5
2795	0	0.5
2796	0	0.991428
2797	0	0.958611
2798	0	0.380952
2799	0	0.380952
2800	0	0.687864
2801	0	0.974483
2802	0	0.974483
2803	0	0.976157
2804	0	0
2805	0	0
2806	0	0
2807	0	0
2808	0	0
2809	0	0
2810	0	0
2811	0	0
2812	0	0
2813	0	0
2814	0	0
2815	0	0
2816	0	0
2817	0	0
2818	0	0
2819	0	0
2820	0	0
2821	0	0
2822	0	0
2823	0	0
2824	0	0
2825	0	0
2826	0	0
2827	0	0
2828	0	0.47619
2829	0	0.47619
2830	0	0.535714
2831	0	0.535714
2832	0	0.535714
2833	0	0.965978
2834	0	0.965978
2835	0	0.965978
2836	0	0
2837	0	0
2838	0	0
2839	0	0
2840	0	0
2841	0	0
2842	0	0
2843	0	0
2844	0	0
2845	0	0
2846	0	0
2847	0	0
2848	0	0
2849	0	0
2850	0	0
2851	0	0
2852	0	0
2853	0	0
2854	0	0
2855	0	0
2856	0	0
2857	0	0
2858	0	0
2859	0	0
2860	0	0
2861	0	0
2862	0	0
2863	0	0
2864	0	0
2865	1	0
2866	1	0
2867	1	0
2868	1	0
2869	1	0
2870	1	0
2871	1	0
2872	1	0
2873	1	0
2874	1	0
2875	1	0
2876	1	0
2877	1	0
2878	1	0
2879	1	0
2880	1	0
2881	1	0
2882	1	0
2883	1	1
2884	1	1
2885	1	1
2886	1	1
2887	1	1
2888	1	1
2889	1	1
2890	1	1
2891	1	1
2892	1	1
2893	1	1
2894	1	1
2895	1	1
2896	1	1
2897	1	1
2898	1	1
2899	1	1
2900	1	1
2901	1	1
2902	1	1
2903	1	1
2904	0	1
2905	0	1
2906	0	1
2907	0	1
2908	0	1
2909	0	1
2910	0	0.982374
2911	0	0.5
2912	0	0.5
2913	0	0.5
2914	0	0
2915	1	0
2916	1	0
2917	1	0
2918	1	0
2919	1	0
2920	0	0
2921	0	0
2922	0	0
2923	0	0
2924	0	0
2925	0	0
2926	0	0
2927	1	0
2928	1	0
2929	1	0
2930	1	0
2931	1	0
2932	1	0
2933	1	0
2934	1	0
2935	1	0
2936	1	0
2937	0	0.981809
2938	0	0.981809
2939	0	1
2940	0	0.958343
2941	0	0.893883
2942	0	0.885395
2943	0	0.703279
2944	0	0.533208
2945	0	0.321152
2946	0	0.229268
2947	0	0.246753
2948	0	0.873154
2949	0	0.169231
2950	0	0.162055
2951	0	0.228758
2952	0	0.27619
2953	0	0.27619
2954	0	0.4
2955	0	0.4
2956	0	0.4
2957	0	0.4
2958	0	0.416667
2959	0	0.333333
2960	0	0
2961	0	0.860395
2962	0	0.843228
2963	0	0.637203
2964	0	0.72961
2965	0	0.547403
2966	0	0.185351
2967	0	0.159538
2968	0	0.158222
2969	0	0.16136
2970	0	0.192606
2971	0	0.166667
2972	0	0.166667
2973	0	0.166667
2974	0	0.166667
2975	0	0.741379
2976	0	0.691954
2977	0	0.545455
2978	0	0.522689
2979	0	0.462462
2980	0	0.405128
2981	0	0.411538
2982	0	0
2983	0	0
2984	0	0
2985	0	0
2986	0	0
2987	0	0
2988	0	0
2989	0	0
2990	0	0
2991	0	0
2992	0	0
2993	0	0
2994	0	0
2995	0	0
2996	0	0
2997	0	0
2998	0	0
2999	0	0
3000	0	0
3001	0	0
3002	0	0
3003	0	0
3004	0	0
3005	0	0
3006	0	0
3007	0	0
3008	0	0
3009	0	0
3010	0	0
3011	0	0
3012	0	0
3013	0	0
3014	0	0
3015	0	0
3016	0	0
3017	0	0
3018	0	0
3019	0	0
3020	0	0
3021	0	0
3022	0	0
3023	0	0
3024	0	0
3025	0	0
3026	0	0
3027	0	0
3028	0	0
3029	0	0
3030	0	0
3031	0	0
3032	0	0
3033	0	0
3034	0	0
3035	0	0
3036	0	0
3037	0	0
3038	0	0
3039	0	0
3040	0	0
3041	0	0
3042	0	0
3043	0	0
3044	0	0
3045	0	0
3046	0	0
3047	0	0
3048	0	0
3049	0	0
3050	0	0
3051	0	0
3052	0	0
3053	0	0
3054	0	0
3055	0	0
3056	0	0
3057	0	0
3058	0	0
3059	0	0
3060	0	0
3061	0	0
3062	0	0
3063	0	0
3064	0	0
3065	0	0
3066	0	0
3067	0	0
3068	0	0
3069	0	0
3070	0	0
3071	0	0
3072	0	0
3073	0	0
3074	0	0
3075	0	0.360456
3076	0	0.349091
3077	0	0.546757
3078	0	0.483156
3079	0	0.497143
3080	0	0.330011
3081	0	0.318957
3082	0	0.417027
3083	0	0.222222
3084	0	0.222222
3085	0	0.128205
3086	0	0.175824
3087	0	0.175824
3088	0	0.175824
3089	0	0.139706
3090	0	0.139706
3091	0	0.227941
3092	0	0.166667
3093	0	0.313543
3094	0	0.171115
3095	0	0.278568
3096	0	0.150691
3097	0	0.139651
3098	0	0.172049
3099	0	0.316265
3100	0	0.403966
3101	0	0.421053
3102	0	0.431732
3103	0	0.41394
3104	0	0
3105	0	0.333333
3106	0	0.333333
3107	0	0.333333
3108	0	0.366747
3109	0	0.37118
3110	0	0.381918
3111	0	0.289547
3112	0	0.1
3113	0	0.1
3114	0	0.266667
3115	0	0.4
3116	0	0.4
3117	0	1
3118	0	1
3119	0	1
3120	0	1
3121	0	1
3122	0	1
3123	0	1
3124	0	1
3125	0	0
3126	0	0
3127	0	1
3128	0	1
3129	0	1
3130	0	1
3131	0	1
3132	0	1
3133	0	1
3134	0	1
3135	0	1
3136	0	1
3137	0	1
3138	0	1
3139	0	1
3140	0	0
3141	0	0
3142	0	0
3143	0	0.166667
3144	0	0.166667
3145	0	0.7
3146	0	0.7
3147	0	0.934799
3148	0	0.935499
3149	0	0
3150	0	0
3151	0	1
3152	0	1
3153	0	1
3154	0	1
3155	0	1
3156	0	1
3157	0	1
3158	0	1
3159	0	1
3160	0	1
3161	0	1
3162	0	1
3163	0	1
3164	0	1
3165	0	1
3166	0	1
3167	0	1
3168	0	1
3169	0	1
3170	0	1
3171	0	1
3172	0	1
3173	0	1
3174	0	1
3175	0	1
3176	0	1
3177	0	1
3178	0	1
3179	0	1
3180	0	1
3181	0	1
3182	0	1
3183	0	1
3184	0	1
3185	0	1
3186	0	1
3187	0	1
3188	0	1
3189	0	1
3190	0	1
3191	0	1
3192	0	0
3193	0	0
3194	0	0
3195	0	0
3196	0	0
3197	0	0
3198	0	0
3199	0	0
3200	0	0
3201	0	0
3202	0	0
3203	0	0
3204	0	0
3205	0	0
3206	0	0
3207	0	0
3208	0	0
3209	0	0
3210	0	0
3211	0	0
3212	0	0
3213	0	0
3214	0	0
3215	0	0
3216	0	0
3217	0	0
3218	0	0
3219	0	0
3220	0	0
3221	0	0
3222	0	0
3223	0	0
3224	0	0
3225	0	0
3226	0	0
3227	0	0
3228	0	0
3229	0	0
3230	0	0
3231	0	0
3232	0	0
3233	0	0
3234	0	0
3235	0	0
3236	0	0
3237	0	0
3238	0	0
3239	0	0
3240	0	0
3241	0	0
3242	0	0
3243	0	0
3244	0	0
3245	0	0
3246	0	0
3247	0	0
3248	0	0
3249	0	0
3250	0	0
3251	0	0
3252	0	0
3253	0	0
3254	0	0
3255	0	0
3256	0	0
3257	0	0
3258	0	0
3259	0	0
3260	0	0
3261	0	0
3262	0	0
3263	0	0
3264	0	0
3265	0	0
3266	0	0
3267	0	0
3268	0	0
3269	0	0
3270	0	0
3271	0	0
3272	0	0
3273	0	0
3274	0	0
3275	0	0
3276	0	0
3277	0	0
3278	0	0
3279	0	0
3280	0	0
3281	0	0
3282	0	0
3283	0	0
3284	0	0
3285	0	0
3286	0	0
3287	0	0
3288	0	0
3289	0	0
3290	0	0
3291	0	0
3292	0	0
3293	0	0
3294	0	0
3295	0	0
3296	0	0
3297	0	0
3298	0	0
3299	0	0
3300	0	0
3301	0	0
3302	0	0
3303	0	0
3304	0	0
3305	0	0
3306	0	0
3307	0	0
3308	0	0
3309	0	0
3310	0	0
3311	0	0
3312	0	0
3313	0	0
3314	0	0
3315	0	0
3316	0	0
3317	0	0
3318	0	0
3319	0	0
3320	0	0
3321	0	0
3322	0	0
3323	0	0
3324	0	0
3325	0	0
3326	0	0
3327	0	0
3328	0	0
3329	0	0
3330	0	0
3331	0	0
3332	0	0
3333	0	0
3334	0	0
3335	0	0
3336	0	0
3337	0	0
3338	0	0
3339	0	0
3340	0	0
3341	0	0
3342	0	0
3343	0	0
3344	0	0
3345	0	0
3346	0	0
3347	0	0
3348	0	0
3349	0	0
3350	0	0
3351	0	0
3352	0	0
3353	0	0
3354	0	0
3355	0	0
3356	0	0
3357	0	0
3358	0	0
3359	0	0
3360	0	0
3361	0	0
3362	0	0
3363	0	0
3364	0	0
3365	0	0
3366	0	0
3367	0	1
3368	0	1
3369	0	1
3370	0	1
3371	0	1
3372	0	1
3373	0	1
3374	0	1
3375	0	1
3376	0	1
3377	0	1
3378	0	1
3379	0	1
3380	0	1
3381	0	1
3382	0	1
3383	0	1
3384	0	1
3385	0	1
3386	0	1
3387	0	1
3388	0	1
3389	0	1
3390	0	1
3391	0	1
3392	0	1
3393	0	1
3394	0	1
3395	0	1
3396	0	1
3397	0	1
3398	0	0
3399	0	0
3400	0	0
3401	0	0
3402	0	0
3403	0	0
3404	0	1
3405	0	1
3406	0	1
3407	0	1
3408	0	1
3409	0	1
3410	0	1
3411	0	1
3412	0	1
3413	0	1
3414	0	1
3415	0	1
3416	0	1
3417	0	1
3418	0	1
3419	0	1
3420	0	1
3421	0	1
3422	0	0.333333
3423	0	0.166667
3424	0	0.886541
3425	0	0.367148
3426	0	0.367522
3427	0	0.333333
3428	0	0
3429	0	0
3430	0	0
3431	0	0
3432	0	0
3433	0	0
3434	0	0.313725
3435	0	0.28164
3436	0	0.210227
3437	0	0.140152
3438	0	0.0998217
3439	0	0.0855615
3440	0	0.485267
3441	0	0.333333
3442	0	0.244444
3443	0	0.133333
3444	0	0.133333
3445	0	0.133333
3446	0	0.133333
3447	0	0.133333
3448	0	0.133333
3449	0	0.133333
3450	0	0.152381
3451	0	0.152381
3452	0	0.616572
3453	0	0.583333
3454	0	0
3455	0	0
3456	0	0
3457	0	0
3458	0	0
3459	0	0.333333
3460	0	0.333333
3461	0	0.166667
3462	0	0.466667
3463	0	0.466667
3464	0	0.1
3465	0	0
3466	0	0.355556
3467	0	0.622222
3468	0	0.644444
3469	0	0.410256
3470	0	0.410256
3471	0	0.410256
3472	0	0.351648
3473	0	0.314286
3474	0	0.367647
3475	0	0.326797
3476	0	0.233766
3477	0	0.216524
3478	0	0.267196
3479	0	0.361111
3480	0	0.361111
3481	0	0.361111
3482	0	0.361111
3483	0	0.361111
3484	0	0.285714
3485	0	0.428571
3486	0	0.321429
3487	0	0.225
3488	0	0.183007
3489	0	0.274633
3490	0	0.257473
3491	0	0.420722
3492	0	0.269036
3493	0	0.47619
3494	0	0.290909
3495	0	0.290909
3496	0	0.318182
3497	0	0.176471
3498	0	0.21
3499	0	0.199507
3500	0	0.138258
3501	0	0.295197
3502	0	0.300482
3503	0	0.505821
3504	0	0.93262
3505	0	0.963118
3506	0	0.98718
3507	0	0.986262
3508	0	0.333333
3509	0	0.333333
3510	0	0.333333
3511	0	0.333333
3512	0	0.333333
3513	0	0.333333
3514	1	1
3515	1	1
3516	0	1
3517	0	1
3518	0	1
3519	0	1
3520	0	1
3521	0	1
3522	0	1
3523	0	1
3524	0	1
3525	0	1
3526	0	1
3527	0	1
3528	0	1
3529	0	1
3530	0	0.982886
3531	0	0.982886
3532	0	0.981198
3533	0	0.981198
3534	0	0
3535	0	0
3536	0	0
3537	0	0
3538	0	0
3539	0	0
3540	0	0
3541	0	0
3542	0	0.166667
3543	0	0.982843
3544	0	0.944349
3545	0	0.984553
3546	0	0.629446
3547	0	0
3548	0	0.0666667
3549	0	0
3550	0	0
3551	0	0
3552	0	0
3553	0	0
3554	0	0
3555	0	0
3556	0	0
3557	0	0
3558	0	0
3559	0	0
3560	0	0
3561	0	0
3562	0	0
3563	0	0
3564	0	0
3565	0	0
3566	0	0
3567	0	0
3568	0	0
3569	0	0
3570	0	0
3571	0	0
3572	0	0
3573	0	0
3574	0	0.465275
3575	0	0.801253
3576	0	0.929726
3577	0	0.974407
3578	0	0.535714
3579	0	0.535714
3580	0	0.964315
3581	0	0
3582	0	0
3583	0	0
3584	0	0.97763
3585	0	0.222222
3586	0	0.493758
3587	0	0.333333
3588	0	0.333333
3589	0	0.333333
3590	0	0.333333
3591	0	0.333333
3592	0	0.333333
3593	0	0.333333
3594	0	0.333333
3595	0	0.333333
3596	0	0.333333
3597	0	0.333333
3598	0	0.333333
3599	0	0.333333
3600	0	0.333333
3601	0	0.333333
3602	0	0.333333
3603	0	0.333333
3604	0	0.333333
3605	0	0.333333
3606	0	0.333333
3607	0	0.333333
3608	0	0.333333
3609	0	0.333333
3610	0	0.333333
3611	0	0.333333
3612	0	0.333333
3613	0	0.333333
3614	0	0.333333
3615	0	0.333333
3616	0	0.333333
3617	0	0.333333
3618	0	0.333333
3619	0	0.333333
3620	0	0.333333
3621	0	0.333333
3622	0	0.333333
3623	0	0.333333
3624	0	0.333333
3625	0	0.333333
3626	0	0.333333
3627	0	0.333333
3628	0	0.333333
3629	0	0.333333
3630	0	0.333333
3631	0	0.333333
3632	0	0.333333
3633	0	0.333333
3634	0	0.333333
3635	0	0.333333
3636	0	0.333333
3637	0	0.333333
3638	0	0.333333
3639	0	0.333333
3640	0	0.333333
3641	0	0.97434
3642	0	0
3643	0	0
3644	0	0
3645	0	0.976101
3646	0	0.976101
3647	0	0.976101
3648	0	0
3649	0	0
3650	0	0
3651	0	0
3652	0	0
3653	0	0
3654	0	0
3655	0	0
3656	0	0
3657	0	0
3658	0	0
3659	0	0
3660	0	0
3661	0	0
3662	0	0.979463
3663	0	0.979463
3664	0	0.981182
3665	0	0.670631
3666	0	0
3667	0	0
3668	0	0
3669	1	0
3670	1	0
3671	1	0
3672	1	0
3673	0	0
3674	0	0
3675	0	0
3676	0	1
3677	0	1
3678	0	1
3679	0	1
3680	0	1
3681	0	1
3682	0	1
3683	0	1
3684	0	1
3685	0	1
3686	0	1
3687	0	1
3688	0	1
3689	0	1
3690	0	1
3691	0	1
3692	0	1
3693	0	1
3694	0	1
3695	0	1
3696	0	1
3697	0	1
3698	0	1
3699	0	1
3700	0	1
3701	0	1
3702	0	1
3703	0	1
3704	0	1
3705	0	1
3706	0	1
3707	0	1
3708	0	1
3709	0	1
3710	0	1
3711	0	1
3712	0	1
3713	0	1
3714	0	1
3715	0	1
3716	0	1
3717	0	1
3718	0	1
3719	0	1
3720	0	1
3721	0	1
3722	0	1
3723	0	1
3724	0	1
3725	0	1
3726	0	1
3727	0	1
3728	0	1
3729	0	1
3730	0	1
3731	0	1
3732	0	1
3733	0	1
3734	0	1
3735	0	1
3736	0	1
3737	0	1
3738	0	1
3739	0	1
3740	0	1
3741	0	1
3742	0	1
3743	0	1
3744	0	1
3745	0	1
3746	0	1
3747	0	1
3748	0	1
3749	0	1
3750	0	1
3751	0	1
3752	0	1
3753	0	1
3754	0	1
3755	0	1
3756	0	1
3757	0	1
3758	0	1
3759	0	1
3760	0	1
3761	0	1
3762	0	1
3763	0	1
3764	0	1
3765	0	1
3766	0	1
3767	0	1
3768	0	1
3769	0	1
3770	0	1
3771	0	1
3772	0	1
3773	0	1
3774	0	1
3775	0	0.333333
3776	0	0.333333
3777	0	0.333333
3778	0	0.333333
3779	0	0.333333
3780	0	0.333333
3781	0	0.333333
3782	0	0.333333
3783	0	0.333333
3784	0	0.333333
3785	0	0.333333
3786	0	0.333333
3787	0	0.333333
3788	0	0.333333
3789	0	0.333333
3790	0	0.333333
3791	0	0.333333
3792	0	0.333333
3793	0	0.166667
3794	0	0.166667
3795	0	0.166667
3796	0	0.166667
3797	0	0.166667
3798	0	0.166667
3799	0	0.166667
3800	0	0.166667
3801	0	0.166667
3802	0	0.166667
3803	0	0.166667
3804	0	0.166667
3805	0	0.166667
3806	0	0.166667
3807	0	0.166667
3808	0	0.166667
3809	0	0.166667
3810	0	0.166667
3811	0	0.166667
3812	0	0.166667
3813	0	0.166667
3814	0	0.166667
3815	0	0.166667
3816	0	0.166667
3817	0	0.166667
3818	0	0.166667
3819	0	0.166667
3820	0	0.166667
3821	0	0.166667
3822	0	0.166667
3823	0	0.1
3824	0	0.1
3825	0	0.1
3826	0	0.1
3827	0	0.1
3828	0	0.142857
3829	0	0.142857
3830	0	0.142857
3831	0	0.142857
3832	0	0.142857
3833	0	0.155556
3834	0	0.155556
3835	0	0.155556
3836	0	0.964292
3837	0	0
3838	0	0
3839	0	0
3840	0	0
3841	0	0
3842	0	0
3843	0	0
3844	0	0
3845	0	0
3846	0	0
3847	0	0
3848	0	0
3849	0	0
3850	0	0
3851	0	0
3852	0	0
3853	0	0
3854	0	0
3855	0	0
3856	0	0
3857	0	0
3858	0	0
3859	0	0
3860	0	0
3861	0	0
3862	0	0
3863	0	0
3864	0	0
3865	0	0
3866	0	0
3867	0	0
3868	0	0
3869	0	0
3870	0	0
3871	0	0
3872	0	0
3873	0	0
3874	0	0
3875	0	0
3876	0	0
3877	0	0
3878	0	0
3879	0	0
3880	0	0
3881	0	0.969145
3882	0	0.0952381
3883	0	0.2
3884	0	0.2
3885	0	0.2
3886	0	0.2
3887	0	0.2
3888	0	0.2
3889	0	0.2
3890	0	0.2
3891	0	0.2
3892	0	0.2
3893	0	0.2
3894	0	0.2
3895	0	0.2
3896	0	0.2
3897	0	0.2
3898	0	0.2
3899	0	0.2
3900	0	0.2
3901	0	0.2
3902	0	0.2
3903	0	0.333333
3904	0	0.333333
3905	0	0.333333
3906	0	0.333333
3907	0	0.333333
3908	0	0.333333
3909	0	0.963928
3910	0	0
3911	0	0
3912	0	0
3913	0	0.958937
3914	0	0
3915	0	0
3916	0	0
3917	0	0
3918	0	0
3919	0	0
3920	0	0
3921	0	0
3922	0	0
3923	0	0
3924	0	0
3925	0	0
3926	0	0
3927	0	0
3928	0	0
3929	0	0
3930	0	0
3931	0	0
3932	0	0
3933	0	0
3934	0	0
3935	0	0
3936	0	0
3937	0	0
3938	0	0
3939	0	0
3940	0	0
3941	0	0
3942	0	0
3943	0	0
3944	0	0
3945	0	0
3946	0	0
3947	0	0
3948	0	0
3949	0	0
3950	0	0
3951	0	0
3952	0	0
3953	0	0
3954	0	0
3955	0	0
3956	0	0
3957	0	0
3958	0	0
3959	0	0
3960	0	0
3961	0	0
3962	0	0
3963	0	0
3964	0	0
3965	0	0
3966	0	0
3967	0	0
3968	0	0
3969	0	0
3970	0	0
3971	0	0
3972	0	0
3973	0	0
3974	0	0
3975	0	0
3976	0	0
3977	0	0
3978	0	0
3979	0	0
3980	0	0
3981	0	0
3982	0	0.960528
3983	0	0.166667
3984	0	0.166667
3985	0	0.166667
3986	0	0.166667
3987	0	0.166667
3988	0	0.166667
3989	0	0.333333
3990	0	0.166667
3991	0	0.333333
3992	0	0.333333
3993	0	0.333333
3994	0	0.333333
3995	0	0.333333
3996	0	0.333333
3997	0	0.333333
3998	0	0.333333
3999	0	0.333333
4000	0	0.333333
4001	0	0.333333
4002	0	0.333333
4003	0	0.333333
4004	0	0.333333
4005	0	0.333333
4006	0	0.333333
4007	0	0.333333
4008	0	0.333333
4009	0	0.333333
4010	0	0.333333
4011	0	0.333333
4012	0	0.333333
4013	0	0.333333
4014	0	0.333333
4015	0	0.333333
4016	0	0.333333
4017	0	0
4018	0	0
4019	0	0
4020	0	0
4021	0	0.333333
4022	0	0.333333
4023	0	0.333333
4024	0	0.333333
4025	0	0.333333
4026	0	0.333333
4027	0	0.333333
4028	0	0.333333
4029	0	0.333333
4030	0	0.333333
4031	0	0.333333
4032	0	0.333333
4033	0	0.333333
4034	0	0.333333
4035	0	0.333333
4036	0	0.333333
4037	0	0.333333
4038	0	0.333333
4039	0	0.333333
4040	0	0.333333
4041	0	0.333333
4042	0	0.333333
4043	0	0
4044	0	0
4045	0	0.333333
4046	0	0.333333
4047	0	0.333333
4048	0	0.333333
4049	0	0.333333
4050	0	0.948933
4051	0	0
4052	0	0
4053	0	0
4054	0	0.960459
4055	0	0.930322
4056	0	0.918656
4057	0	0.874795
4058	0	0.214286
4059	0	0.214286
4060	0	0.0666667
4061	0	0
4062	0	0
4063	0	0
4064	0	0
4065	0	0
4066	0	0
4067	0	0
4068	0	0
4069	0	0
4070	0	0
4071	0	0
4072	0	0
4073	0	0
4074	0	0
4075	0	0
4076	0	0
4077	0	0
4078	0	0
4079	0	0
4080	0	0
4081	0	0
4082	0	0
4083	0	0
4084	0	0
4085	0	0
4086	0	0
4087	0	0
4088	0	0
4089	0	0
4090	0	0
4091	0	0
4092	0	0
4093	0	0
4094	0	0.870059
4095	0	0
4096	0	0
4097	0	0
4098	0	0
4099	0	0
4100	0	0
4101	0	0
4102	0	0
4103	0	0
4104	0	0
4105	0	0
4106	0	0
4107	0	0
4108	0	0
4109	0	0
4110	0	0
4111	0	0
4112	0	0
4113	0	0
4114	0	0
4115	0	0
4116	0	0
4117	0	0
4118	0	0
4119	0	0.1
4120	0	0.1
4121	0	0.1
4122	0	0
4123	0	0
4124	0	0
4125	0	0
4126	0	0
4127	0	0
4128	0	0.485294
4129	0	0.047619
4130	0	0.0555556
4131	0	0.175439
4132	0	0.7725
4133	0	0.321234
4134	0	0.245009
4135	0	0.22381
4136	0	0.0277778
4137	0	0
4138	0	0
4139	0	0
4140	0	0
4141	0	0
4142	0	0
4143	0	0
4144	0	0
4145	0	0
4146	0	0
4147	0	0
4148	0	0
4149	0	0
4150	0	0
4151	0	0
4152	0	0
4153	0	0
4154	0	0
4155	0	0
4156	0	0
4157	0	0
4158	0	0
4159	0	0
4160	0	0
4161	0	0
4162	0	0
4163	0	0
4164	0	0
4165	0	0
4166	0	0
4167	0	0
4168	0	0
4169	0	0
4170	0	0
4171	0	0
4172	0	0
4173	0	0
4174	0	0
4175	0	0
4176	0	0
4177	0	0
4178	0	0
4179	0	0
4180	0	0
4181	0	0
4182	0	0
4183	0	0
4184	0	0
4185	0	0
4186	0	0
4187	0	0
4188	0	0
4189	0	0
4190	0	0
4191	0	0
4192	0	0
4193	0	0
4194	0	0
4195	0	0
4196	0	0
4197	0	0
4198	0	0
4199	0	0
4200	0	0
4201	0	0
4202	0	0
4203	0	0
4204	0	0
4205	0	0
4206	0	0
4207	0	0
4208	0	0.0357143
4209	0	0.0357143
4210	0	0.141026
4211	0	0.634748
4212	0	0.192308
4213	0	0.192308
4214	0	0
4215	0	0
4216	0	0
4217	0	0
4218	0	0
4219	0	0
4220	0	0
4221	0	0.0277778
4222	0	0.0277778
4223	0	0.0277778
4224	0	0.0277778
4225	0	0
4226	0	0
4227	0	0
4228	0	0
4229	0	0
4230	0	0
4231	0	0
4232	0	0
4233	0	0
4234	0	0
4235	0	0
4236	0	0
4237	0	0
4238	0	0
4239	0	0
4240	0	0
4241	0	0
4242	0	0
4243	0	0.010989
4244	0	0.010989
4245	0	0.010989
4246	0	0.010989
4247	0	0.410961
4248	0	0.403661
4249	0	0.384181
4250	0	0.359572
4251	0	0.0909091
4252	0	0.0933333
4253	0	0.0569801
4254	0	0.047619
4255	0	0.261411
4256	0	0.315603
4257	0	0.284706
4258	0	0.207407
4259	0	0.264457
4260	0	0.216813
4261	0	0.211802
4262	0	0.193948
4263	0	0.2578
4264	0	0.308262
4265	0	0.230964
4266	0	0.192178
4267	0	0.126607
4268	0	0.15044
4269	0	0.255048
4270	0	0.255131
4271	0	0.226559
4272	0	0.582085
4273	0	0.237734
4274	0	0.368424
4275	0	0
4276	0	0
4277	0	0
4278	0	0
4279	0	0
4280	0	0
4281	0	0
4282	0	0
4283	0	0
4284	0	0
4285	0	0
4286	0	0
4287	0	0
4288	0	0
4289	0	0
4290	0	0
4291	0	0
4292	0	0
4293	0	0
4294	0	0
4295	0	0
4296	0	0
4297	0	0
4298	0	0
4299	0	0
4300	0	0
4301	0	0
4302	0	0
4303	0	0
4304	0	0
4305	0	0
4306	0	0
4307	0	0
4308	0	0
4309	0	0
4310	0	0
4311	0	0
4312	0	0
4313	0	0
4314	0	0
4315	0	0
4316	0	0.010989
4317	0	0.00952381
4318	0	0.763167
4319	0	0.0222222
4320	0	0.0277778
4321	0	0.0277778
4322	0	0.0277778
4323	0	0.0277778
4324	0	0.0277778
4325	0	0.0277778
4326	0	0.0277778
4327	0	0.0277778
4328	0	0.0277778
4329	0	0.0277778
4330	0	0.0277778
4331	0	0.0277778
4332	0	0.0277778
4333	0	0.895419
4334	0	0
4335	0	0
4336	0	0
4337	0	0
4338	0	0
4339	0	0
4340	0	0
4341	0	0
4342	0	0
4343	0	0
4344	0	0
4345	0	0
4346	0	0.1
4347	0	0.1
4348	0	0
4349	0	0
4350	0	0
4351	0	0
4352	0	0
4353	0	0
4354	0	0
4355	0	0
4356	0	0
4357	0	0
4358	0	0
4359	0	0
4360	0	0
4361	0	0
4362	0	0
4363	0	0
4364	0	0
4365	0	0
4366	0	0
4367	0	0
4368	0	0
4369	0	0
4370	0	0
4371	0	0
4372	0	0
4373	0	0
4374	0	0
4375	0	0
4376	0	0
4377	0	0
4378	0	0
4379	0	0
4380	0	0
4381	0	0
4382	0	0
4383	0	0
4384	0	0
4385	0	0
4386	0	0
4387	0	0
4388	0	0
4389	0	0
4390	0	0
4391	0	0
4392	0	0
4393	0	0
4394	0	0
4395	0	0
4396	0	0
4397	0	0
4398	0	0
4399	0	0
4400	0	0
4401	0	0
4402	0	0
4403	0	0
4404	0	0
4405	0	0
4406	0	0
4407	0	0
4408	0	0
4409	0	0
4410	0	0
4411	0	0
4412	0	0
4413	0	0
4414	0	0
4415	0	0
4416	0	0
4417	0	0
4418	0	0
4419	0	0
4420	0	0
4421	0	0
4422	0	0
4423	0	0
4424	0	0
4425	0	0
4426	0	0.166667
4427	0	0.166667
4428	0	0.166667
4429	0	0.166667
4430	0	0.166667
4431	0	0.712963
4432	0	0.0666667
4433	0	0.0666667
4434	0	0.0666667
4435	0	0.0666667
4436	0	0.1
4437	0	0.0666667
4438	0	0.0666667
4439	0	0.0666667
4440	0	0.0666667
4441	0	0.0666667
4442	0	0.0666667
4443	0	0.0666667
4444	0	0.0666667
4445	0	0.0666667
4446	0	0.0666667
4447	0	0.0666667
4448	0	0.0666667
4449	0	0.0666667
4450	0	0.0666667
4451	0	0.0666667
4452	0	0.0666667
4453	0	0.0666667
4454	0	0.0666667
4455	0	0.0666667
4456	0	0.0666667
4457	0	0.0666667
4458	0	0.0714286
4459	0	0.0714286
4460	0	0.047619
4461	0	0.0714286
4462	0	0.0714286
4463	0	0.0714286
4464	0	0.0555556
4465	0	0.0555556
4466	0	0.0555556
4467	0	0.0444444
4468	0	0.0444444
4469	0	0.0444444
4470	0	0.0444444
4471	0	0.0444444
4472	0	0.0363636
4473	0	0.0363636
4474	0	0.0363636
4475	0	0.030303
4476	0	0.030303
4477	0	0.025641
4478	0	0.025641
4479	0	0.025641
4480	0	0.025641
4481	0	0.025641
4482	0	0.025641
4483	0	0.025641
4484	0	0.025641
4485	0	0.021978
4486	0	0.021978
4487	0	0.0190476
4488	0	0.706875
4489	0	0.746847
4490	0	0
4491	0	0
4492	0	0
4493	0	0
4494	0	0
4495	0	0
4496	0	0
4497	0	0
4498	0	0
4499	0	0
4500	0	0
4501	0	0
4502	0	0
4503	0	0
4504	0	0
4505	0	0
4506	0	0
4507	0	0
4508	0	0
4509	0	0
4510	0	0
4511	0	0
4512	0	0
4513	0	0
4514	0	0
4515	0	0
4516	0	0
4517	0	0
4518	0	0
4519	0	0
4520	0	0
4521	0	0
4522	0	0
4523	0	0
4524	0	0
4525	0	0
4526	0	0
4527	0	0
4528	0	0
4529	0	0
4530	0	0
4531	0	0
4532	0	0
4533	0	0
4534	0	0
4535	0	0
4536	0	0
4537	0	0
4538	0	0
4539	0	0
4540	0	0
4541	0	0
4542	0	0
4543	0	0
4544	0	0
4545	0	0
4546	0	0
4547	0	0
4548	0	0
4549	0	0
4550	0	0
4551	0	0
4552	0	0
4553	0	0
4554	0	0
4555	0	0
4556	0	0
4557	0	0
4558	0	0
4559	0	0
4560	0	0
4561	0	0
4562	0	0
4563	0	0
4564	0	0
4565	0	0
4566	0	0
4567	0	0
4568	0	0
4569	0	0
4570	0	0
4571	0	0
4572	0	0
4573	0	0
4574	0	0
4575	0	0
4576	0	0
4577	0	0
4578	0	0
4579	0	0
4580	0	0
4581	0	0
4582	0	0
4583	0	0
4584	0	0
4585	0	0
4586	0	0
4587	0	0
4588	0	0
4589	0	0
4590	0	0
4591	0	0
4592	0	0
4593	0	0
4594	0	0
4595	0	0
4596	0	0
4597	0	0
4598	0	0
4599	0	0
4600	0	0
4601	0	0
4602	0	0
4603	0	0
4604	0	0
4605	0	0
4606	0	0
4607	0	0
4608	0	0
4609	0	0
4610	0	0
4611	0	0
4612	0	0
4613	0	0
4614	0	0
4615	0	0
4616	0	0
4617	0	0
4618	0	0
4619	0	0
4620	0	0
4621	0	0
4622	0	0
4623	0	0
4624	0	0
4625	0	0
4626	0	0
4627	0	0
4628	0	0
4629	0	0
4630	0	0
4631	0	0
4632	0	0.285714
4633	0	0.757055
4634	0	0.269231
4635	0	0
4636	0	0
4637	0	0
4638	0	0
4639	0	0
4640	0	0
4641	0	0
4642	0	0
4643	0	0
4644	0	0
4645	0	0
4646	0	0
4647	0	0
4648	0	0
4649	0	0
4650	0	0
4651	0	0
4652	0	0
4653	0	0
4654	0	0.0357143
4655	0	0.0357143
4656	0	0.0444444
4657	0	0.693379
4658	0	0.683033
4659	0	0.342986
4660	0	0.240475
4661	0	0.287432
4662	0	0.259427
4663	0	0.213531
4664	0	0.163333
4665	0	0.131579
4666	0	0.133333
4667	0	0.133333
4668	0	0.0659341
4669	0	0.0659341
4670	0	0.0606061
4671	0	0.0666667
4672	0	0.0833333
4673	0	0.0833333
4674	0	0.0833333
4675	0	0.0833333
4676	0	0.0833333
4677	0	0.0833333
4678	0	0.0833333
4679	0	0.0833333
4680	0	0.0833333
4681	0	0.0833333
4682	0	0.0833333
4683	0	0.107143
4684	0	0.107143
4685	0	0.107143
4686	0	0.107143
4687	0	0.107143
4688	0	0.107143
4689	0	0.107143
4690	0	0.107143
4691	0	0.107143
4692	0	0.107143
4693	0	0.107143
4694	0	0.107143
4695	0	0.107143
4696	0	0.107143
4697	0	0.107143
4698	0	0.107143
4699	0	0.107143
4700	0	0.107143
4701	0	0.107143
4702	0	0.107143
4703	0	0.107143
4704	0	0.107143
4705	0	0.107143
4706	0	0.107143
4707	0	0.107143
4708	0	0.107143
4709	0	0.107143
4710	0	0.0357143
4711	0	0.0357143
4712	0	0.0357143
4713	0	0
4714	0	0
4715	0	0
4716	0	0
4717	0	0
4718	0	0
4719	0	0
4720	0	0
4721	0	0
4722	0	0
4723	0	0
4724	0	0
4725	0	0
4726	0	0
4727	0	0
4728	0	0
4729	0	0
4730	0	0
4731	0	0
4732	0	0
4733	0	0
4734	0	0
4735	0	0
4736	0	0
4737	0	0
4738	0	0
4739	0	0
4740	0	0
4741	0	0
4742	0	0
4743	0	0
4744	0	0
4745	0	0
4746	0	0
4747	0	0
4748	0	0
4749	0	0
4750	0	0
4751	0	0.694717
4752	0	0.567366
4753	0	0.566143
4754	0	0.541774
4755	0	0.515427
4756	0	0.586523
4757	0	0.0483642
4758	0	0.0383065
4759	0	0.0301075
4760	0	0.0321839
4761	0	0.0246305
4762	0	0.0246305
4763	0	0.0246305
4764	0	0.0132275
4765	0	0.014245
4766	0	0.014245
4767	0	0.014245
4768	0	0.011396
4769	0	0.011396
4770	0	0.011396
4771	0	0.00923077
4772	0	0.00923077
4773	0	0.00923077
4774	0	0.00923077
4775	0	0.012987
4776	0	0.012987
4777	0	0.012987
4778	0	0.012987
4779	0	0.012987
4780	0	0.012987
4781	0	0.012987
4782	0	0.012987
4783	0	0.012987
4784	0	0.00952381
4785	0	0.00952381
4786	0	0.0105263
4787	0	0.0105263
4788	0	0.0105263
4789	0	0.0105263
4790	0	0.0105263
4791	0	0.0105263
4792	0	0.0105263
4793	0	0.0105263
4794	0	0.0105263
4795	0	0.0105263
4796	0	0.0105263
4797	0	0.0116959
4798	0	0.00735294
4799	0	0.00735294
4800	0	0.00735294
4801	0	0.00735294
4802	0	0.00735294
4803	0	0.00735294
4804	0	0.00833333
4805	0	0.00833333
4806	0	0.00833333
4807	0	0.00833333
4808	0	0.00952381
4809	0	0
4810	0	0
4811	0	0
4812	0	0
4813	0	0
4814	0	0
4815	0	0
4816	0	0
4817	0	0
4818	0	0
4819	0	0
4820	0	0
4821	0	0
4822	0	0
4823	0	0
4824	0	0
4825	0	0
4826	0	0
4827	0	0
4828	0	0
4829	0	0
4830	0	0
4831	0	0
4832	0	0
4833	0	0
4834	0	0
4835	0	0
4836	0	0
4837	0	0
4838	0	0
4839	0	0
4840	0	0
4841	0	0
4842	0	0
4843	0	0
4844	0	0
4845	0	0
4846	0	0
4847	0	0
4848	0	0
4849	0	0
4850	0	0
4851	0	0
4852	0	0
4853	0	0
4854	0	0
4855	0	0
4856	0	0
4857	0	0
4858	0	0
4859	0	0
4860	0	0
4861	0	0
4862	0	0
4863	0	0
4864	0	0
4865	0	0
4866	0	0
4867	0	0
4868	0	0
4869	0	0
4870	0	0
4871	0	0
4872	0	0
4873	0	0
4874	0	0
4875	0	0
4876	0	0
4877	0	0
4878	0	0
4879	0	0
4880	0	0
4881	0	0
4882	0	0
4883	0	0
4884	0	0
4885	0	0
4886	0	0
4887	0	0
4888	0	0
4889	0	0
4890	0	0
4891	0	0
4892	0	0
4893	0	0
4894	0	0
4895	0	0
4896	0	0
4897	0	0
4898	0	0
4899	0	0
4900	0	0
4901	0	0
4902	0	0
4903	0	0
4904	0	0
4905	0	0
4906	0	0
4907	0	0
4908	0	0
4909	0	0
4910	0	0
4911	0	0
4912	0	0
4913	0	0
4914	0	0
4915	0	0
4916	0	0
4917	0	0
4918	0	0
4919	0	0
4920	0	0
4921	0	0
4922	0	0
4923	0	0
4924	0	0
4925	0	0
4926	0	0
4927	0	0
4928	0	0
4929	0	0
4930	0	0
4931	0	0
4932	0	0
4933	0	0
4934	0	0
4935	0	0
4936	0	0
4937	0	0
4938	0	0
4939	0	0
4940	0	0
4941	0	0
4942	0	0
4943	0	0
4944	0	0
4945	0	0
4946	0	0
4947	0	0
4948	0	0
4949	0	0
4950	0	0
4951	0	0
4952	0	0
4953	0	0
4954	0	0
4955	0	0
4956	0	0
4957	0	0
4958	0	0
4959	0	0
4960	0	0
4961	0	0
4962	0	0
4963	0	0
4964	0	0
4965	0	0
4966	0	0
4967	0	0
4968	0	0
4969	0	0
4970	0	0
4971	0	0
4972	0	0
4973	0	0
4974	0	0
4975	0	0
4976	0	0
4977	0	0
4978	0	0
4979	0	0
4980	0	0
4981	0	0
4982	0	0
4983	0	0
4984	0	0
4985	0	0
4986	0	0
4987	0	0
4988	0	0
4989	0	0
4990	0	0
4991	0	0
4992	0	0
4993	0	0
4994	0	0
4995	0	0
4996	0	0
4997	0	0
4998	0	0
4999	0	0
5000	0	0
5001	0	0
5002	0	0
5003	0	0
5004	0	0
5005	0	0
5006	0	0
5007	0	0
5008	0	0
5009	0	0
5010	0	0
5011	0	0
5012	0	0
5013	0	0
5014	0	0
5015	0	0
5016	0	0
5017	0	0
5018	0	0
5019	0	0
5020	0	0
5021	0	0
5022	0	0
5023	0	0
5024	0	0
5025	0	0
5026	0	0
5027	0	0
5028	0	0
5029	0	0
5030	0	0
5031	0	0
5032	0	0
5033	0	0
5034	0	0
5035	0	0
5036	0	0
5037	0	0
5038	0	0
5039	0	0
5040	0	0
5041	0	0
5042	0	0
5043	0	0
5044	0	0
5045	0	0
5046	0	0
5047	0	0
5048	0	0
5049	0	0
5050	0	0
5051	0	0
5052	0	0
5053	0	0
5054	0	0
5055	0	0
5056	0	0
5057	0	0
5058	0	0
5059	0	0
5060	0	0
5061	0	0
5062	0	0
5063	0	0
5064	0	0
5065	0	0
5066	0	0
5067	0	0
5068	0	0
5069	0	0
5070	0	0
5071	0	0
5072	0	0
5073	0	0
5074	0	0
5075	0	0
5076	0	0
5077	0	0
5078	0	0
5079	0	0
5080	0	0
5081	0	0
5082	0	0
5083	0	0
5084	0	0
5085	0	0
5086	0	0
5087	0	0
5088	0	0
5089	0	0
5090	0	0
5091	0	0
5092	0	0
5093	0	0
5094	0	0
5095	0	0
5096	0	0
5097	0	0
5098	0	0
5099	0	0
5100	0	0
5101	0	0
5102	0	0
5103	0	0
5104	0	0
5105	0	0
5106	0	0
5107	0	0
5108	0	0
5109	0	0
5110	0	0
5111	0	0
5112	0	0
5113	0	0
5114	0	0
5115	0	0
5116	0	0
5117	0	0
5118	0	0
5119	0	0
5120	0	0
5121	0	0
5122	0	0
5123	0	0
5124	0	0
5125	0	0
5126	0	0
5127	0	0
5128	0	0
5129	0	0
5130	0	0
5131	0	0
5132	0	0
5133	0	0
5134	0	0
5135	0	0
5136	0	0
5137	0	0
5138	0	0
5139	0	0
5140	0	0
5141	0	0
5142	0	0
5143	0	0
5144	0	0
5145	0	0
5146	0	0
5147	0	0
5148	0	0
5149	0	0
5150	0	0
5151	0	0
5152	0	0
5153	0	0
5154	0	0
5155	0	0
5156	0	0
5157	0	0
5158	0	0
5159	0	0
5160	0	0
5161	0	0
5162	0	0
5163	0	0
5164	0	0
5165	0	0
5166	0	0
5167	0	0
5168	0	0
5169	0	0
5170	0	0
5171	0	0
5172	0	0
5173	0	0
5174	0	0
5175	0	0
5176	0	0
5177	0	0
5178	0	0
5179	0	0
5180	0	0
5181	0	0
5182	0	0
5183	0	0
5184	0	0
5185	0	0
5186	0	0
5187	0	0
5188	0	0
5189	0	0
5190	0	0
5191	0	0
5192	0	0
5193	0	0
5194	0	0
5195	0	0
5196	0	0
5197	0	0
5198	0	0
5199	0	0
5200	0	0
5201	0	0
5202	0	0
5203	0	0
5204	0	0
5205	0	0
5206	0	0
5207	0	0
5208	0	0
5209	0	0
5210	0	0
5211	0	0
5212	0	0
5213	0	0
5214	0	0
5215	0	0
5216	0	0
5217	0	0
5218	0	0
5219	0	0
5220	0	0
5221	0	0
5222	0	0
5223	0	0
5224	0	0
5225	0	0
5226	0	0
5227	0	0
5228	0	0
5229	0	0
5230	0	0
5231	0	0
5232	0	0
5233	0	0
5234	0	0
5235	0	0
5236	0	0
5237	0	0
5238	0	0
5239	0	0
5240	0	0
5241	0	0
5242	0	0
5243	0	0
5244	0	0
5245	0	0
5246	0	0
5247	0	0
5248	0	0
5249	0	0
5250	0	0
5251	0	0
5252	0	0
5253	0	0
5254	0	0
5255	0	0
5256	0	0
5257	0	0
5258	0	0
5259	0	0
5260	0	0
5261	0	0
5262	0	0
5263	0	0
5264	0	0
5265	0	0
5266	0	0
5267	0	0
5268	0	0
5269	0	0
5270	0	0
5271	0	0
5272	0	0
5273	0	0
5274	0	0
5275	0	0
5276	0	0
5277	0	0
5278	0	0
5279	1	0
5280	1	0
5281	1	0
