Site	ColumnScore	SumOfPairsScore
1	0	0
2	0	0
3	0	0
4	0	0
5	0	0
6	0	0
7	0	0
8	0	0
9	0	0
10	0	0
11	0	0
12	0	0
13	0	0
14	0	0
15	0	0
16	0	0
17	0	0
18	0	0
19	0	0
20	0	0
21	0	0
22	0	0
23	0	0
24	0	0
25	0	0
26	0	0
27	0	0
28	0	0
29	0	0
30	0	0
31	0	0
32	0	0
33	0	0
34	0	0
35	0	0
36	0	0
37	0	0
38	0	0
39	0	0
40	0	0
41	0	0
42	0	0
43	0	0
44	0	0
45	0	0
46	0	0
47	0	0
48	0	0
49	0	0
50	0	0
51	0	0
52	0	0
53	0	0
54	0	0
55	0	0
56	0	0
57	0	0
58	0	0
59	0	0
60	0	0
61	0	0
62	0	0
63	0	0
64	0	0
65	0	0
66	0	0
67	0	0
68	0	0
69	0	0
70	0	0
71	0	0
72	0	0
73	0	0
74	0	0
75	0	0
76	0	0
77	0	0
78	0	0
79	0	0
80	0	0
81	0	0
82	0	0
83	0	0
84	0	0
85	0	0
86	0	0
87	0	0
88	0	0
89	1	0
90	0	0
91	0	0
92	0	0
93	0	0
94	0	0
95	0	0
96	0	0
97	0	0
98	0	0
99	0	0
100	0	0
101	0	0
102	0	0
103	0	0
104	0	0
105	0	0
106	0	0
107	0	0
108	0	0
109	0	0
110	0	0
111	0	0
112	0	0
113	0	0
114	0	0
115	0	0
116	0	0
117	0	0
118	0	0
119	0	0
120	0	0
121	0	0
122	0	0
123	0	0
124	0	0
125	0	0
126	0	0
127	0	0
128	0	0
129	0	0
130	0	0
131	0	0
132	0	0
133	0	0
134	0	0
135	0	0
136	0	0
137	0	0
138	0	0
139	0	0
140	0	0
141	0	0
142	0	0
143	0	0
144	0	0
145	0	0
146	0	0
147	0	0
148	0	0
149	0	0
150	0	0
151	0	0
152	0	0
153	0	0
154	0	0
155	0	0
156	0	0
157	0	0
158	0	0
159	0	0
160	0	0
161	0	0
162	0	0
163	0	0
164	0	0
165	0	0
166	0	0
167	0	0
168	0	0
169	0	0
170	0	0
171	0	0
172	0	0
173	0	0
174	0	0
175	0	0
176	0	0
177	0	0
178	0	0
179	0	0
180	0	0
181	0	0
182	0	0
183	0	0
184	0	0
185	0	0
186	0	0
187	0	0
188	0	0
189	0	0
190	0	0
191	0	0
192	0	0
193	0	0
194	0	0
195	0	0
196	0	0
197	0	0
198	0	0
199	0	0
200	0	0
201	0	0
202	0	0
203	0	0
204	0	0
205	0	0
206	0	0
207	0	0
208	0	0
209	0	0
210	0	0
211	0	0
212	0	0
213	0	0
214	0	0
215	0	0
216	0	0
217	0	0
218	0	0
219	0	0
220	0	0
221	0	0
222	0	0
223	0	0
224	0	0
225	0	0
226	0	0
227	0	0
228	0	0
229	0	0
230	0	0
231	0	0
232	0	0
233	0	0
234	0	0
235	0	0
236	0	0
237	0	0
238	0	0
239	0	0
240	0	0
241	0	0
242	0	0
243	0	0
244	0	0
245	0	0
246	0	0
247	0	0
248	0	0
249	0	0
250	0	0
251	0	0
252	0	0
253	0	0
254	0	0
255	0	0
256	0	0
257	0	0
258	0	0
259	0	0
260	0	0
261	0	0
262	0	0
263	0	0
264	0	0
265	0	0
266	0	0
267	0	0
268	0	0
269	0	0
270	0	0
271	0	0
272	0	0
273	0	0
274	0	0
275	0	0
276	0	0
277	0	0
278	0	0
279	0	0
280	0	0
281	0	0
282	0	0
283	0	0
284	0	0
285	0	0
286	0	0
287	0	0
288	0	0
289	0	0
290	0	0
291	0	0
292	0	0
293	0	0
294	0	0
295	0	0
296	0	0
297	0	0
298	0	0
299	0	0
300	0	0
301	0	0
302	0	0
303	0	0
304	0	0
305	0	0
306	0	0
307	0	0
308	0	0
309	0	0
310	0	0
311	0	0
312	0	0
313	0	0
314	0	0
315	0	0
316	0	0
317	0	0
318	0	0
319	0	0
320	0	0
321	0	0
322	0	0
323	0	0
324	0	0
325	0	0
326	0	0
327	0	0
328	0	0
329	0	0
330	0	0
331	0	0
332	0	0
333	0	0
334	0	0
335	0	0
336	0	0
337	0	0
338	0	0
339	0	0
340	0	0
341	0	0
342	0	0
343	0	0
344	0	0
345	0	0
346	0	0
347	0	0
348	0	0
349	0	0
350	0	0
351	0	0
352	0	0
353	0	0
354	0	0
355	0	0
356	0	0
357	0	0
358	0	0
359	0	0
360	0	0
361	0	0
362	0	0
363	0	0
364	0	0
365	0	0
366	0	0
367	0	0
368	0	0
369	0	0
370	0	0
371	0	0
372	0	0
373	0	0
374	0	0
375	0	0
376	0	0
377	0	0
378	0	0
379	0	0
380	0	0
381	0	0
382	0	0
383	0	0
384	0	0
385	0	0
386	0	0
387	0	0
388	0	0
389	0	0
390	0	0
391	0	0
392	0	0
393	0	0
394	0	0
395	0	0
396	0	0
397	0	0
398	0	0
399	0	0
400	0	0
401	0	0
402	0	0
403	0	0
404	0	0
405	0	0
406	0	0
407	0	0
408	0	0
409	0	0
410	0	0
411	0	0
412	0	0
413	0	0
414	0	0
415	0	0
416	0	0
417	0	0
418	0	0
419	0	0
420	0	0
421	0	0
422	0	0
423	0	0
424	0	0
425	0	0
426	0	0
427	0	0
428	0	0
429	0	0
430	0	0
431	0	0
432	0	0
433	0	0
434	0	0
435	0	0
436	0	0
437	0	0
438	0	0
439	0	0
440	0	0
441	0	0
442	0	0
443	0	0
444	0	0
445	0	0
446	0	0
447	0	0
448	0	0
449	0	0
450	0	0
451	0	0
452	0	0
453	0	0
454	0	0
455	0	0
456	0	0
457	0	0
458	0	0
459	0	0
460	0	0
461	0	0
462	0	0.107143
463	0	0.107143
464	0	0.107143
465	0	0.107143
466	0	0.107143
467	0	0.107143
468	0	0.107143
469	0	0.107143
470	0	0.107143
471	0	0.107143
472	0	0.107143
473	0	0.107143
474	0	0.107143
475	0	0.107143
476	0	0.107143
477	0	0.0357143
478	0	0.0357143
479	0	0.0357143
480	0	0.0357143
481	0	0.0357143
482	0	0.0357143
483	0	0.0357143
484	0	0.0357143
485	0	0.0357143
486	0	0.0357143
487	0	0.0357143
488	0	0.0357143
489	0	0.0357143
490	0	0.0357143
491	0	0.0357143
492	0	0.0357143
493	0	0.0357143
494	0	0.0357143
495	0	0.0357143
496	0	0.0357143
497	0	0.0357143
498	0	0.0357143
499	0	0.0357143
500	0	0.0357143
501	0	0.0357143
502	0	0.0357143
503	0	0.0357143
504	0	0.0357143
505	0	0.0357143
506	0	0.0357143
507	0	0.0357143
508	0	0.0357143
509	0	0.0357143
510	0	0.0357143
511	0	0.0357143
512	0	0.0357143
513	0	0.0357143
514	0	0.0357143
515	0	0.0357143
516	0	0.0357143
517	0	0.0357143
518	0	0.0357143
519	0	0.0357143
520	0	0.0357143
521	0	0.0357143
522	0	0.0357143
523	0	0.0357143
524	0	0.0357143
525	0	0.0357143
526	0	0.0357143
527	0	0.0357143
528	0	0.0357143
529	0	0.0357143
530	0	0.0357143
531	0	0.0357143
532	0	0.0357143
533	0	0.0277778
534	0	0.0277778
535	0	0.0277778
536	0	0.0277778
537	0	0.0277778
538	0	0.0277778
539	0	0.0222222
540	0	0.0222222
541	0	0.0222222
542	0	0.0222222
543	0	0.0222222
544	0	0.0222222
545	0	0.0222222
546	0	0.0222222
547	0	0.0222222
548	0	0.0222222
549	0	0.0222222
550	0	0.0222222
551	0	0.0222222
552	0	0.0222222
553	0	0.0222222
554	0	0.0222222
555	0	0.0222222
556	0	0.0222222
557	0	0.0222222
558	0	0.0222222
559	0	0.0222222
560	0	0.0222222
561	0	0.0222222
562	0	0.0222222
563	0	0.0222222
564	0	0.0222222
565	0	0.0222222
566	0	0.0181818
567	0	0.0181818
568	0	0.0181818
569	0	0.0181818
570	0	0.0545455
571	0	0.0545455
572	0	0.0545455
573	0	0.0545455
574	0	0.0545455
575	0	0.0545455
576	0	0.0545455
577	0	0.0545455
578	0	0.0545455
579	0	0.0545455
580	0	0.0545455
581	0	0.0545455
582	0	0.0545455
583	0	0.0545455
584	0	0.0545455
585	0	0.0545455
586	0	0.0545455
587	0	0.0545455
588	0	0.0545455
589	0	0.0512821
590	0	0.0512821
591	0	0.0512821
592	0	0.0512821
593	0	0.0512821
594	0	0.0512821
595	0	0.0512821
596	0	0.0512821
597	0	0.043956
598	0	0.043956
599	0	0.043956
600	0	0.043956
601	0	0.043956
602	0	0.043956
603	0	0.043956
604	0	0.043956
605	0	0.043956
606	0	0.043956
607	0	0.043956
608	0	0.043956
609	0	0.043956
610	0	0.043956
611	0	0.043956
612	0	0.0818713
613	0	0.0736842
614	0	0.0714286
615	0	0.0649351
616	0	0.0649351
617	0	0.0592885
618	0	0.0592885
619	0	0.0592885
620	0	0.0592885
621	0	0.0592885
622	0	0.0592885
623	0	0.0592885
624	0	0.0592885
625	0	0.0592885
626	0	0.0592885
627	0	0.0592885
628	0	0.0592885
629	0	0.055336
630	0	0.0507246
631	0	0.0466667
632	0	0.0466667
633	0	0.0466667
634	0	0.0430769
635	0	0.0430769
636	0	0.039886
637	0	0.039886
638	0	0.0541311
639	0	0.0502646
640	0	0.0502646
641	0	0.037037
642	0	0.037037
643	0	0.037037
644	0	0.0344828
645	0	0.0344828
646	0	0.0344828
647	0	0.0344828
648	0	0.0369458
649	0	0.0369458
650	0	0.0369458
651	0	0.0369458
652	0	0.0394089
653	0	0.0369458
654	0	0.0394089
655	0	0.0436782
656	0	0.0516129
657	0	0.0473118
658	0	0.0473118
659	0	0.0344086
660	0	0.0322581
661	0	0.0285205
662	0	0.0333333
663	0	0.029872
664	0	0.0371795
665	0	0.0383275
666	0	0.0299003
667	0	0.0299517
668	0	0.0305273
669	0	0.0360777
670	0	0.0363475
671	0	0.0363382
672	0	0.151261
673	0	0.150811
674	0	0.125541
675	0	0.123926
676	0	0.142828
677	0	0.136054
678	0	0.0510913
679	0	0.0427885
680	0	0.0550725
681	0	0.0828157
682	0	0.0796001
683	0	0.133275
684	0	0.128114
685	0	0.130734
686	0	0.1198
687	0	0.120634
688	0	0.153846
689	0	0.151574
690	0	0.15296
691	0	0.189394
692	0	0.211644
693	0	0.243178
694	0	0.235748
695	0	0.286406
696	0	0.254059
697	0	0.234154
698	0	0.258526
699	0	0.382519
700	0	0
701	0	0
702	0	0
703	0	0
704	0	0
705	0	0
706	0	0
707	0	0
708	0	0
709	0	0
710	0	0
711	0	0
712	0	0
713	0	0
714	0	0
715	0	0
716	0	0
717	0	0
718	0	0
719	0	0
720	0	0
721	1	0
722	1	0
723	0	0
724	0	0
725	0	0
726	0	0
727	1	0
728	1	0
729	1	0
730	1	0
731	1	0
732	1	0
733	1	0
734	1	0
735	1	0
736	1	0
737	1	0
738	1	0
739	1	0
740	1	0
741	0	0
742	0	0
743	0	0
744	0	0
745	0	0
746	0	0
747	0	0
748	0	0
749	0	0
750	0	0
751	0	0
752	0	0
753	0	0
754	0	0
755	0	0
756	0	0
757	0	0
758	0	0
759	0	0
760	0	0
761	0	0
762	0	0
763	0	0
764	0	0
765	0	0
766	0	0
767	0	0
768	0	0
769	0	0
770	0	0
771	0	0
772	0	0
773	0	0
774	0	0
775	0	0
776	0	0
777	0	0
778	0	0
779	0	0
780	0	0
781	0	0
782	0	0
783	0	0
784	0	0
785	0	0
786	0	0.389178
787	0	0
788	0	0
789	0	0
790	0	0
791	0	0
792	0	0
793	0	0
794	0	0
795	0	0
796	0	0
797	0	0
798	0	0
799	0	0
800	0	0
801	0	0
802	0	0
803	0	0
804	0	0
805	0	0
806	0	0
807	0	0
808	0	0
809	0	0
810	0	0
811	0	0
812	0	0
813	0	0
814	0	0
815	0	0
816	0	0
817	0	0
818	0	0
819	0	0
820	0	0
821	0	0
822	0	0
823	0	0
824	0	0
825	0	0
826	0	0
827	0	0
828	0	0
829	0	0
830	0	0
831	0	0
832	0	0
833	0	0
834	0	0
835	0	0
836	0	0
837	0	0
838	0	0
839	0	0
840	0	0
841	0	0
842	0	0
843	0	0
844	0	0
845	0	0
846	0	0
847	0	0
848	0	0
849	0	0
850	0	0
851	0	0
852	0	0
853	0	0
854	0	0
855	0	0
856	0	0
857	0	0
858	0	0
859	0	0
860	0	0
861	0	0
862	0	0
863	0	0
864	0	0
865	0	0
866	0	0
867	0	0
868	0	0
869	0	0
870	0	0
871	0	0
872	0	0
873	0	0
874	0	0
875	0	0
876	0	0
877	0	0
878	0	0
879	0	0
880	0	0
881	0	0
882	0	0
883	0	0
884	0	0
885	0	0
886	0	0
887	0	0
888	0	0
889	0	0
890	0	0
891	0	0
892	0	0
893	0	0
894	0	0
895	0	0
896	0	0
897	0	0
898	0	0
899	0	0
900	0	0
901	0	0
902	0	0
903	0	0
904	0	0
905	0	0
906	0	0
907	0	0
908	0	0
909	0	0
910	0	0
911	0	0
912	0	0
913	0	0
914	0	0
915	0	0
916	0	0
917	0	0
918	0	0
919	0	0
920	0	0
921	0	0
922	0	0
923	0	0
924	0	0
925	0	0
926	0	0
927	0	0
928	0	0
929	0	0
930	0	0
931	0	0
932	0	0
933	0	0
934	0	0
935	0	0
936	0	0
937	0	0
938	0	0
939	0	0
940	0	0
941	0	0
942	0	0
943	0	0
944	0	0
945	0	0
946	0	0
947	0	0
948	0	0
949	0	0
950	0	0
951	0	0
952	0	0
953	0	0
954	0	0
955	0	0
956	0	0
957	0	0
958	0	0
959	0	0
960	0	0
961	0	0
962	0	0
963	0	0
964	0	0
965	0	0
966	0	0
967	0	0
968	0	0
969	0	0
970	0	0.25
971	0	0.492828
972	1	0
973	1	0
974	1	0
975	1	0
976	0	0
977	0	0
978	0	0
979	0	0
980	0	0
981	0	0
982	0	0
983	0	0
984	0	0
985	0	0
986	0	0
987	0	0
988	0	0
989	0	0
990	0	0
991	1	0
992	1	0
993	1	0
994	1	0
995	1	0
996	1	0
997	1	0
998	1	0
999	0	0
1000	0	0
1001	0	0
1002	0	0
1003	0	0
1004	0	0
1005	0	0
1006	0	0
1007	0	0
1008	0	0
1009	0	0
1010	0	0
1011	0	0
1012	0	0
1013	0	0
1014	0	0
1015	0	0
1016	0	0
1017	0	0
1018	0	0
1019	0	0
1020	0	0
1021	0	0
1022	0	0
1023	0	0
1024	0	0
1025	0	0
1026	0	0
1027	0	0
1028	0	0
1029	0	0
1030	0	0
1031	0	0
1032	0	0
1033	0	0
1034	0	0
1035	0	0
1036	0	0
1037	0	0
1038	0	0
1039	0	0
1040	0	0
1041	0	0
1042	0	0
1043	0	0
1044	0	0
1045	0	0
1046	0	0
1047	0	0
1048	0	0
1049	0	0
1050	0	0
1051	0	0
1052	0	0
1053	0	0
1054	0	0
1055	0	0
1056	0	0
1057	0	0
1058	0	0.936857
1059	0	0
1060	0	0
1061	0	0
1062	0	0
1063	0	0
1064	0	0
1065	0	0
1066	0	0
1067	0	0
1068	0	0
1069	0	0
1070	0	0
1071	0	0
1072	0	0
1073	0	0
1074	0	0
1075	0	0
1076	0	0.383667
1077	0	0
1078	0	0
1079	0	0
1080	0	0
1081	0	0
1082	0	0
1083	0	0
1084	0	0
1085	0	0
1086	0	0
1087	0	0
1088	0	0
1089	0	0
1090	0	0
1091	0	0
1092	0	0
1093	0	0
1094	0	0
1095	0	0
1096	0	0
1097	0	0
1098	0	0
1099	0	0
1100	0	0
1101	0	0
1102	0	0
1103	0	0
1104	0	0
1105	0	0
1106	0	0
1107	0	0
1108	0	0
1109	0	0
1110	0	0
1111	0	0
1112	0	0
1113	0	0
1114	0	0
1115	0	0
1116	0	0
1117	0	0
1118	0	0.411886
1119	0	0.908711
1120	0	0.2
1121	0	0.2
1122	0	0.2
1123	0	0.2
1124	0	0.2
1125	0	0.2
1126	0	0.2
1127	0	0.2
1128	0	0.3
1129	0	0.3
1130	0	0.3
1131	0	0.3
1132	0	0.3
1133	0	0.3
1134	0	0.3
1135	0	0.3
1136	0	0.3
1137	0	0.3
1138	0	0.3
1139	0	0
1140	0	0
1141	0	0
1142	0	0
1143	0	0
1144	0	0
1145	0	0
1146	0	0
1147	0	0
1148	0	0
1149	0	0
1150	0	0
1151	0	0
1152	0	0
1153	0	0
1154	0	0
1155	0	0
1156	0	0
1157	0	0
1158	0	0
1159	0	0
1160	0	0
1161	0	0
1162	0	0
1163	0	0
1164	0	0
1165	0	0
1166	0	0
1167	0	0
1168	0	0
1169	0	0
1170	0	0
1171	0	0
1172	0	0
1173	0	0
1174	0	0
1175	0	0
1176	0	0
1177	0	0.653349
1178	0	0.266667
1179	0	0.266667
1180	0	0.266667
1181	0	0.266667
1182	0	0.2
1183	0	0.2
1184	0	0.2
1185	0	0.2
1186	0	0.3
1187	0	0.3
1188	0	0.3
1189	0	0.3
1190	0	0.3
1191	0	0.3
1192	0	0.3
1193	0	0.3
1194	0	0.3
1195	0	0.3
1196	0	0.3
1197	0	0.651321
1198	0	0.3
1199	0	0.3
1200	0	0.3
1201	0	0.3
1202	0	0.3
1203	0	0.3
1204	0	0.3
1205	0	0.3
1206	0	0.3
1207	0	0.3
1208	0	0.3
1209	0	0.3
1210	0	0.3
1211	0	0.3
1212	0	0.3
1213	0	0.3
1214	0	0.3
1215	0	0.958536
1216	0	0.958558
1217	0	0.984298
1218	0	0.984298
1219	0	0.984298
1220	0	0.518154
1221	0	0.3
1222	0	0.3
1223	0	0.3
1224	0	0.3
1225	0	0.3
1226	0	0.3
1227	0	0.3
1228	0	0.3
1229	0	0.3
1230	0	0.3
1231	0	0.836262
1232	0	0.879287
1233	0	0
1234	0	0
1235	0	0
1236	0	0
1237	0	0
1238	0	0
1239	0	0
1240	0	0
1241	0	0
1242	0	0
1243	0	0
1244	0	0
1245	0	0
1246	0	0
1247	0	0
1248	0	0
1249	0	0
1250	0	0
1251	0	0
1252	0	0
1253	0	0
1254	0	0
1255	0	0
1256	0	0
1257	0	0
1258	0	0
1259	0	0
1260	0	0
1261	0	0
1262	0	0
1263	0	0
1264	0	0
1265	0	0
1266	0	0
1267	0	0
1268	0	0
1269	0	0
1270	0	0
1271	0	0
1272	0	0
1273	0	0
1274	0	0
1275	0	0
1276	0	0
1277	0	0
1278	0	0
1279	0	0
1280	0	0
1281	0	0
1282	0	0
1283	0	0
1284	0	0
1285	0	0
1286	0	0
1287	0	0
1288	0	0
1289	0	0
1290	0	0
1291	0	0
1292	0	0
1293	0	0
1294	0	0.166667
1295	0	0.166667
1296	0	0.166667
1297	0	0.166667
1298	0	0.166667
1299	0	0.166667
1300	0	0.166667
1301	0	0.166667
1302	0	0.166667
1303	0	0.166667
1304	0	0.166667
1305	0	0.166667
1306	0	0.166667
1307	0	0.166667
1308	0	0.166667
1309	0	0.166667
1310	0	0.166667
1311	0	0.166667
1312	0	0.166667
1313	0	0.166667
1314	0	0.166667
1315	0	0.166667
1316	0	0.166667
1317	0	0.166667
1318	0	0.166667
1319	0	0.166667
1320	0	0.166667
1321	0	0.166667
1322	0	0.166667
1323	0	0.166667
1324	0	0.166667
1325	0	0.166667
1326	0	0.166667
1327	0	0.166667
1328	0	0.1
1329	0	0.1
1330	0	0.0666667
1331	0	0.0666667
1332	0	0.0666667
1333	0	0.0666667
1334	0	0.0666667
1335	0	0.0666667
1336	0	0.0666667
1337	0	0.047619
1338	0	0.047619
1339	0	0.047619
1340	0	0.047619
1341	0	0.047619
1342	0	0.047619
1343	0	0.047619
1344	0	0.047619
1345	0	0.047619
1346	0	0.047619
1347	0	0.047619
1348	0	0.047619
1349	0	0.0952381
1350	0	0.0952381
1351	0	0.0952381
1352	0	0.0952381
1353	0	0.190476
1354	0	0.190476
1355	0	0.142857
1356	0	0.111111
1357	0	0.111111
1358	0	0.111111
1359	0	0.111111
1360	0	0.111111
1361	0	0.177778
1362	0	0.177778
1363	0	0.355556
1364	0	0.488889
1365	0	0.333333
1366	0	0.333333
1367	0	0.982556
1368	0	0
1369	0	0
1370	0	0
1371	0	0
1372	0	0
1373	0	0
1374	0	0
1375	0	0
1376	0	0
1377	0	0
1378	0	0
1379	0	0
1380	0	0
1381	0	0
1382	0	0
1383	0	0
1384	0	0
1385	0	0
1386	0	0
1387	0	0
1388	0	0
1389	0	0
1390	0	1
1391	0	1
1392	0	1
1393	0	1
1394	0	0.98602
1395	0	0.98602
1396	0	0
1397	0	0
1398	0	0
1399	0	0
1400	0	0
1401	0	0
1402	0	0
1403	0	0
1404	0	0
1405	0	0
1406	0	0
1407	0	0
1408	0	0
1409	0	0
1410	0	0
1411	0	0
1412	0	0
1413	0	0
1414	0	0
1415	0	0
1416	0	0
1417	0	0
1418	0	0
1419	0	0
1420	0	0
1421	0	0
1422	0	0
1423	0	0
1424	0	0
1425	0	0
1426	0	0
1427	0	0
1428	0	0
1429	0	0
1430	0	0
1431	0	0
1432	0	0
1433	0	0
1434	0	0
1435	0	0
1436	0	0
1437	0	0
1438	0	0
1439	0	0
1440	0	0
1441	0	0
1442	0	0
1443	0	0
1444	0	0
1445	0	0
1446	0	0
1447	0	0
1448	0	0
1449	0	0
1450	0	0
1451	0	0
1452	0	0
1453	0	0
1454	0	0
1455	0	0
1456	0	0
1457	0	0
1458	0	0
1459	0	0
1460	0	0
1461	0	0
1462	0	0
1463	0	0
1464	0	0
1465	0	0
1466	0	0
1467	0	0
1468	0	0
1469	0	0
1470	0	0
1471	0	0
1472	0	0
1473	0	0
1474	0	0
1475	0	0
1476	0	0
1477	0	0
1478	0	0
1479	0	0
1480	0	0
1481	0	0
1482	0	0
1483	0	0
1484	0	0
1485	0	0
1486	0	0
1487	0	0
1488	0	0
1489	0	0
1490	0	0
1491	0	0
1492	0	0
1493	0	0
1494	0	0
1495	0	0
1496	0	0
1497	0	0
1498	0	0
1499	0	0
1500	0	0
1501	0	0
1502	0	0
1503	0	0
1504	0	0
1505	0	0
1506	0	0
1507	0	0
1508	0	0
1509	0	0
1510	0	0
1511	0	0
1512	0	0
1513	0	0
1514	0	0
1515	0	0
1516	0	0
1517	0	0
1518	0	0
1519	0	0
1520	0	0
1521	0	0
1522	0	0
1523	0	0
1524	0	0
1525	0	0
1526	0	0
1527	0	0
1528	0	0
1529	0	0
1530	0	0
1531	0	0
1532	0	0
1533	0	0
1534	0	0
1535	0	0
1536	0	0
1537	0	0
1538	0	0
1539	0	0
1540	0	0
1541	0	0
1542	0	0
1543	0	0
1544	0	0
1545	0	0
1546	0	0
1547	0	0
1548	0	0
1549	0	0
1550	0	0
1551	0	0
1552	0	0
1553	0	0
1554	0	0
1555	0	0
1556	0	0
1557	0	0
1558	0	0
1559	0	0
1560	0	0
1561	0	0
1562	0	0
1563	0	0
1564	0	0
1565	0	0
1566	0	0
1567	0	0
1568	0	0
1569	0	0
1570	0	0
1571	0	0
1572	0	0
1573	0	0
1574	0	0
1575	0	0
1576	0	0
1577	0	0
1578	0	0
1579	0	0
1580	0	0
1581	0	0
1582	0	0
1583	0	0
1584	0	0
1585	0	0
1586	0	0
1587	0	0
1588	0	0
1589	0	0
1590	0	0
1591	0	0
1592	0	0
1593	0	0
1594	0	0
1595	0	0
1596	0	0
1597	0	0
1598	0	0
1599	0	0.991236
1600	0	0.991236
1601	0	0
1602	0	0
1603	0	0
1604	0	0
1605	0	0
1606	0	0
1607	0	0
1608	0	0
1609	0	0
1610	0	0
1611	0	0
1612	0	0
1613	0	0
1614	0	0
1615	0	0
1616	0	0
1617	0	0
1618	0	0
1619	0	0
1620	0	0
1621	0	0
1622	0	0
1623	0	0
1624	0	0
1625	0	0
1626	0	0
1627	0	0
1628	0	0
1629	0	0
1630	0	0
1631	0	0
1632	0	0
1633	0	0
1634	0	0
1635	0	0
1636	0	0
1637	0	0
1638	0	0
1639	0	0
1640	0	0
1641	0	0
1642	0	0
1643	0	0
1644	0	0
1645	0	0
1646	0	0
1647	0	0
1648	0	0
1649	0	0
1650	0	0
1651	0	0
1652	0	0
1653	0	0
1654	0	0
1655	0	0
1656	0	0
1657	0	0
1658	0	0
1659	0	0
1660	0	0
1661	0	0
1662	0	0
1663	0	0
1664	0	0
1665	0	0
1666	0	0
1667	0	0
1668	0	0
1669	0	0
1670	0	0.991731
1671	0	0
1672	0	0
1673	0	0
1674	0	0.689403
1675	0	0
1676	0	0
1677	0	0
1678	0	0
1679	0	0
1680	0	0.905123
1681	0	0.961986
1682	0	0.961957
1683	0	0
1684	0	0
1685	0	0
1686	0	0
1687	0	0
1688	0	0
1689	0	0
1690	0	0
1691	0	0
1692	0	0
1693	0	0
1694	0	0
1695	0	0
1696	0	0
1697	0	0
1698	0	0
1699	0	0
1700	0	0
1701	0	0
1702	0	0
1703	0	0
1704	0	0
1705	0	0
1706	0	0.621312
1707	0	0.5
1708	0	0.166667
1709	0	0.166667
1710	0	0.333333
1711	0	0.333333
1712	0	0.333333
1713	0	1
1714	0	1
1715	0	1
1716	0	1
1717	0	1
1718	0	1
1719	0	1
1720	0	0.965431
1721	0	0.996499
1722	0	0.996499
1723	0	0.996499
1724	0	0.996505
1725	0	0
1726	0	0
1727	0	0
1728	0	0
1729	0	0
1730	0	0
1731	0	0
1732	0	0
1733	0	0
1734	0	0
1735	0	0
1736	0	0
1737	0	0
1738	0	0
1739	0	0
1740	0	0
1741	0	0
1742	0	0
1743	0	0
1744	0	0
1745	0	0
1746	0	0
1747	0	0
1748	0	0
1749	0	0
1750	0	0
1751	0	0
1752	0	0
1753	0	0
1754	0	0
1755	0	0
1756	0	0
1757	0	0
1758	0	0
1759	0	0
1760	0	0
1761	0	0
1762	0	0
1763	0	0
1764	0	0
1765	0	0
1766	0	0
1767	0	0
1768	0	0
1769	0	0
1770	0	0
1771	0	0
1772	0	0
1773	0	0
1774	0	0
1775	0	0
1776	0	0.996511
1777	0	0.996511
1778	0	0.996511
1779	0	0
1780	0	0
1781	0	0
1782	0	0
1783	0	0
1784	0	0
1785	0	0
1786	0	0
1787	0	0
1788	0	0
1789	0	0
1790	0	0
1791	0	0
1792	0	0
1793	0	0
1794	0	0
1795	0	0
1796	0	0
1797	0	0
1798	0	0
1799	0	0
1800	0	0
1801	0	0
1802	0	0
1803	0	0
1804	0	0
1805	0	0
1806	0	0
1807	0	0
1808	0	0
1809	0	0
1810	0	0
1811	0	0
1812	0	0
1813	0	0
1814	0	0
1815	0	0
1816	0	0
1817	0	0
1818	0	0
1819	0	0
1820	0	0
1821	0	0
1822	0	0
1823	0	0
1824	0	0
1825	0	0
1826	0	0
1827	0	0
1828	0	0
1829	0	0
1830	0	0
1831	0	0
1832	0	0
1833	0	0
1834	0	0
1835	0	0
1836	0	0
1837	0	0
1838	0	0
1839	0	0
1840	0	0
1841	0	0
1842	0	0
1843	0	0
1844	0	0
1845	0	0
1846	0	0
1847	0	0
1848	0	0
1849	0	0
1850	0	0
1851	0	0
1852	0	0
1853	0	0
1854	0	0
1855	0	0
1856	0	0
1857	0	0
1858	0	0
1859	0	0
1860	0	0
1861	0	0
1862	0	0
1863	0	0
1864	0	0
1865	0	0
1866	0	0
1867	0	0
1868	0	0
1869	0	0.996496
1870	0	0.99303
1871	0	0.996508
1872	0	0.998252
1873	0	0.998252
1874	0	0.998252
1875	0	0
1876	0	0
1877	0	0
1878	0	0
1879	0	0
1880	0	0
1881	0	0
1882	0	0
1883	0	0
1884	0	0
1885	0	0
1886	0	0
1887	0	0
1888	0	0
1889	0	0
1890	0	0
1891	0	0
1892	0	0
1893	0	0
1894	0	0
1895	0	0
1896	0	0
1897	0	0
1898	0	0
1899	0	0
1900	0	0
1901	0	0
1902	0	0
1903	0	0
1904	0	0
1905	0	0
1906	0	0
1907	0	0
1908	0	0
1909	0	0
1910	0	0
1911	0	0
1912	0	0
1913	0	0
1914	0	0
1915	0	0
1916	0	0
1917	0	0
1918	0	0
1919	0	0
1920	0	0
1921	0	0
1922	0	0
1923	0	0
1924	0	0
1925	0	0
1926	0	0
1927	0	0
1928	0	0
1929	0	0
1930	0	0
1931	1	0
1932	1	0
1933	1	0
1934	1	0
1935	1	0
1936	0	0
1937	0	0
1938	0	0
1939	0	0
1940	0	0
1941	0	0
1942	0	0
1943	0	0
1944	0	0
1945	0	0
1946	1	0
1947	1	0
1948	0	0
1949	0	0
1950	0	0
1951	0	0
1952	0	0
1953	0	0
1954	0	0
1955	0	0
1956	0	0
1957	0	0
1958	0	0
1959	0	0
1960	0	0
1961	0	0
1962	0	0
1963	0	0
1964	0	0
1965	0	0
1966	0	0
1967	0	0
1968	0	0
1969	0	0
1970	0	0
1971	1	1
1972	1	1
1973	1	1
1974	1	1
1975	1	1
1976	1	1
1977	1	1
1978	0	0.898955
1979	0	0.809139
1980	0	0.995025
1981	0	0.501662
1982	0	0.904762
1983	0	0.968985
1984	0	0.987828
1985	0	0.991297
1986	0	0.991298
1987	0	0.989564
1988	0	0.804341
1989	0	0
1990	0	0
1991	0	0
1992	0	0
1993	0	0
1994	0	0
1995	0	0
1996	0	0
1997	0	0
1998	0	0
1999	0	0
2000	0	0
2001	0	0.333333
2002	0	0.333333
2003	0	0.333333
2004	0	0.333333
2005	0	0
2006	0	0
2007	0	0
2008	0	0.0666667
2009	0	0.133333
2010	0	0.133333
2011	0	0.504762
2012	0	0.268398
2013	0	0.277056
2014	0	0.252964
2015	0	0.252964
2016	0	0.252964
2017	0	0.252964
2018	0	0.252964
2019	0	0.252964
2020	0	0.231884
2021	0	0.213333
2022	0	0.213333
2023	0	0.196923
2024	0	0.298462
2025	0	0.341538
2026	0	0.404558
2027	0	0.431217
2028	0	0.431217
2029	0	0.431217
2030	0	0.431217
2031	0	0.745497
2032	0	0.932965
2033	0	0
2034	0	0
2035	0	0
2036	0	0
2037	0	0
2038	0	0
2039	0	0.934497
2040	0	0.934497
2041	0	0.929529
2042	0	0.958274
2043	0	0.95321
2044	0	0.843626
2045	0	0.833078
2046	0	0.754839
2047	0	0.653034
2048	0	0
2049	0	0
2050	0	0
2051	0	0
2052	0	0
2053	0	0
2054	0	0
2055	0	0
2056	0	0
2057	0	0
2058	0	0
2059	0	0
2060	0	0
2061	0	0
2062	0	0
2063	0	0
2064	0	0
2065	0	0
2066	0	0
2067	0	0
2068	0	0
2069	0	0
2070	0	0
2071	0	0
2072	0	0
2073	0	0
2074	0	0
2075	0	0
2076	0	0
2077	0	0
2078	0	0
2079	0	0
2080	0	0
2081	0	0
2082	0	0
2083	0	0
2084	0	0
2085	0	0
2086	0	0
2087	0	0
2088	0	0
2089	0	0
2090	0	0
2091	0	0
2092	0	0
2093	0	0
2094	0	0
2095	0	0
2096	0	0
2097	0	0
2098	0	0
2099	0	0
2100	0	0
2101	0	0
2102	0	0
2103	0	0
2104	0	0
2105	0	0
2106	0	0
2107	0	0
2108	0	0
2109	0	0
2110	0	0
2111	0	0
2112	0	0
2113	0	0
2114	0	0
2115	0	0
2116	0	0
2117	0	0
2118	0	0
2119	0	0
2120	0	0
2121	0	0
2122	0	0
2123	0	0.0666667
2124	0	0.0666667
2125	0	0.0666667
2126	0	0.0666667
2127	0	0.0666667
2128	0	0.0666667
2129	0	0.0666667
2130	0	0.047619
2131	0	0.047619
2132	0	0.0357143
2133	0	0.0222222
2134	0	0.0606061
2135	0	0.0512821
2136	0	0.0877193
2137	0	0.1
2138	0	0.171795
2139	0	0.147086
2140	0	0.275681
2141	0	0.274079
2142	0	0.251631
2143	0	0.228911
2144	0	0.207618
2145	0	0.205031
2146	0	0.20067
2147	0	0.182115
2148	0	0.166073
2149	0	0.103245
2150	0	0.111614
2151	0	0.105054
2152	0	0.0933962
2153	0	0.11255
2154	0	0.105687
2155	0	0.107635
2156	0	0.102668
2157	0	0.102161
2158	0	0.0909471
2159	0	0.087008
2160	0	0.0853846
2161	0	0.0914835
2162	0	0.101336
2163	0	0.0757915
2164	0	0.0806293
2165	0	0.0933348
2166	0	0.100443
2167	0	0.110077
2168	0	0.110181
2169	0	0.110183
2170	0	0.121121
2171	0	0.155538
2172	0	0.156175
2173	0	0.155633
2174	0	0.193542
2175	0	0.195502
2176	0	0.196369
2177	0	0.221272
2178	0	0.213924
2179	0	0.212869
2180	0	0.218753
2181	0	0.26096
2182	0	0.270789
2183	0	0.538459
2184	0	0.539707
2185	0	0.303881
2186	0	0.300105
2187	0	0.304935
2188	0	0.305037
2189	0	0.307996
2190	0	0.333265
2191	0	0.330972
2192	0	0.245294
2193	0	0.245193
2194	0	0.25393
2195	0	0.404149
2196	0	0.667113
2197	0	0.673737
2198	0	0.686028
2199	0	0.710131
2200	0	0.709833
2201	0	0.733
2202	0	0.733034
2203	0	0.459059
2204	0	0.714385
2205	0	0.752628
2206	0	0.772234
2207	0	0.404598
2208	0	0.109091
2209	0	0.111111
2210	0	0.142857
2211	0	0.2
2212	0	0.3
2213	0	0.5
2214	0	0.4
2215	0	0.801316
2216	0	0
2217	0	0
2218	0	0
2219	0	0
2220	0	0
2221	0	0
2222	0	0
2223	0	0
2224	0	0
2225	0	0
2226	0	0
2227	0	0
2228	0	0
2229	0	0
2230	0	0
2231	0	0
2232	0	0
2233	0	0
2234	0	0
2235	0	0
2236	0	0
2237	0	0
2238	0	0
2239	0	0
2240	0	0
2241	0	0
2242	0	0
2243	0	0
2244	0	0
2245	0	0
2246	0	0
2247	0	0
2248	0	0
2249	0	0
2250	0	0
2251	0	0
2252	0	0.333333
2253	0	0.333333
2254	0	0.333333
2255	0	0.333333
2256	0	0.333333
2257	0	0.333333
2258	0	0.333333
2259	0	0.333333
2260	0	0.333333
2261	0	0.333333
2262	0	1
2263	0	1
2264	0	1
2265	0	0.5
2266	0	0.982544
2267	0	0.991245
2268	0	0.991245
2269	0	0.991253
2270	0	0.3
2271	0	0.996494
2272	0	1
2273	0	1
2274	0	1
2275	0	1
2276	1	0
2277	0	1
2278	0	1
2279	1	1
2280	1	1
2281	1	1
2282	1	1
2283	1	1
2284	1	1
2285	1	1
2286	1	1
2287	1	1
2288	1	1
2289	0	1
2290	0	0.998255
2291	1	1
2292	0	1
2293	0	1
2294	0	1
2295	0	1
2296	0	1
2297	0	1
2298	0	1
2299	0	1
2300	0	1
2301	0	1
2302	0	1
2303	0	1
2304	0	1
2305	0	0
2306	0	0
2307	0	0
2308	0	0
2309	0	0
2310	0	0
2311	0	0.333333
2312	0	0.2
2313	0	0.2
2314	0	0.133333
2315	0	0.138889
2316	0	0.315789
2317	0	0.350877
2318	0	0.345029
2319	0	0.938024
2320	0	0.532777
2321	0	0.48
2322	0	0.498575
2323	0	0.661967
2324	0	0.575931
2325	0	0.173684
2326	0	0.220588
2327	0	0.320513
2328	0	0.535714
2329	0	0.714286
2330	0	0
2331	0	0.52381
2332	0	1
2333	0	1
2334	0	0.614211
2335	0	0.923668
2336	0	0.922206
2337	0	0
2338	0	0
2339	0	0
2340	0	0.595402
2341	0	1
2342	0	1
2343	0	1
2344	0	1
2345	0	1
2346	0	1
2347	0	1
2348	0	1
2349	0	1
2350	0	0
2351	0	0.996523
2352	0	0.998261
2353	0	0.998261
2354	0	0.998261
2355	0	0.998261
2356	0	0.998261
2357	0	0.998261
2358	0	0.998261
2359	0	0.998261
2360	0	0.998261
2361	0	0.996526
2362	0	0.996526
2363	0	0
2364	0	0
2365	0	0
2366	0	0
2367	0	1
2368	0	1
2369	0	0.52381
2370	0	0.864593
2371	0	0.777773
2372	0	0.683794
2373	0	0.478836
2374	0	0.366561
2375	0	0.433862
2376	0	0.798198
2377	0	0.166667
2378	0	0.166667
2379	0	0.166667
2380	0	0
2381	0	0
2382	0	0.56036
2383	0	0.555905
2384	0	1
2385	0	0.998253
2386	0	0.998259
2387	0	0.998259
2388	0	0.998259
2389	0	0.998259
2390	0	0.998259
2391	0	0.998259
2392	0	0.998259
2393	0	0.998259
2394	0	1
2395	0	1
2396	0	1
2397	0	1
2398	0	1
2399	0	0.998259
2400	0	0.998261
2401	0	0.998259
2402	0	0.998259
2403	0	0.998259
2404	0	0.998259
2405	0	0.998259
2406	0	0.998259
2407	0	0.998259
2408	0	0.998259
2409	0	0.998259
2410	0	0.998259
2411	0	0.998259
2412	0	0.998259
2413	0	0.998259
2414	0	0.998259
2415	0	0.998259
2416	0	0.998259
2417	0	0.998259
2418	0	0.998259
2419	0	0.998259
2420	0	0.998259
2421	0	0.998259
2422	0	0
2423	0	0
2424	0	0
2425	0	0
2426	0	0.5
2427	0	0.994787
2428	1	1
2429	1	1
2430	1	1
2431	1	1
2432	1	1
2433	1	1
2434	1	1
2435	1	1
2436	0	0.907028
2437	0	0.994555
2438	0	0.994787
2439	0	0.994783
2440	0	0.994787
2441	0	1
2442	1	1
2443	1	1
2444	1	1
2445	1	1
2446	1	1
2447	1	1
2448	1	1
2449	1	1
2450	1	1
2451	1	1
2452	1	1
2453	1	1
2454	1	1
2455	1	1
2456	1	1
2457	0	1
2458	0	0.996525
2459	0	0.996525
2460	0	0.996525
2461	1	1
2462	1	1
2463	1	1
2464	1	1
2465	1	1
2466	1	1
2467	1	1
2468	1	1
2469	0	0
2470	0	0.9
2471	0	0.499419
2472	0	0.544732
2473	0	0.619456
2474	0	0.377778
2475	0	0.469792
2476	0	0.405625
2477	0	0.307692
2478	0	0.505495
2479	0	0.453601
2480	0	0.589744
2481	0	0.615385
2482	0	0.942898
2483	0	1
2484	1	1
2485	1	1
2486	1	1
2487	1	1
2488	1	1
2489	1	1
2490	1	1
2491	0	0.998261
2492	0	0.998261
2493	0	0.998261
2494	0	0.998261
2495	0	0.998261
2496	1	1
2497	0	0.998259
2498	0	0
2499	0	0
2500	0	0.998256
2501	0	0.998256
2502	0	0.996517
2503	0	0.996517
2504	0	0
2505	0	0
2506	0	0
2507	0	0
2508	1	0
2509	1	0
2510	1	0
2511	1	0
2512	1	0
2513	1	0
2514	1	0
2515	1	0
2516	1	0
2517	1	0
2518	0	0
2519	0	0
2520	0	0
2521	0	0.333333
2522	1	1
2523	1	1
2524	0	0.428571
2525	0	0.428571
2526	0	0.321429
2527	0	0.75
2528	0	0.766636
2529	0	1
2530	0	1
2531	0	1
2532	0	1
2533	0	1
2534	0	1
2535	0	1
2536	0	0.99825
2537	0	0.99825
2538	0	0.996505
2539	0	0.996505
2540	0	0.996505
2541	0	1
2542	0	1
2543	0	1
2544	0	1
2545	0	1
2546	0	1
2547	0	1
2548	0	1
2549	1	1
2550	1	1
2551	1	1
2552	0	0.994757
2553	0	0.994757
2554	0	0.994757
2555	0	0.994757
2556	0	0.994757
2557	0	0.993018
2558	0	0.993018
2559	1	0
2560	0	0.994757
2561	0	0.994757
2562	0	0.994757
2563	0	0.994757
2564	0	0.994757
2565	0	0.9965
2566	0	0.9965
2567	0	0.9965
2568	0	0.9965
2569	0	0.9965
2570	0	0
2571	0	0
2572	0	0
2573	0	0
2574	0	0
2575	0	0
2576	0	0
2577	0	0
2578	0	0
2579	0	0
2580	0	0
2581	0	0
2582	0	0
2583	0	0
2584	0	0
2585	0	0.991268
2586	0	0.991268
2587	0	0.991268
2588	0	0.991268
2589	0	0
2590	0	0.8
2591	0	0.560606
2592	0	0.392857
2593	0	0.357143
2594	0	0.0833333
2595	0	0.152632
2596	0	0.113333
2597	0	0.949849
2598	0	0.946487
2599	0	0.333333
2600	0	0.333333
2601	0	0.2
2602	0	0.1
2603	0	0.333333
2604	0	0.166667
2605	0	0.1
2606	0	0.1
2607	0	0.901464
2608	0	0.833048
2609	0	0.738578
2610	0	0.652351
2611	0	0.692011
2612	0	0.749839
2613	0	0.333333
2614	0	0.333333
2615	0	0.166667
2616	0	0.166667
2617	0	0.2
2618	0	0.133333
2619	0	0.422989
2620	0	0.507389
2621	0	0.434397
2622	0	0.460978
2623	0	0.794455
2624	0	0.881548
2625	0	0.85265
2626	0	0.978947
2627	0	1
2628	0	0.993005
2629	0	0
2630	0	0
2631	0	0
2632	0	0
2633	0	0
2634	0	0
2635	0	0
2636	0	0
2637	0	0
2638	0	0
2639	0	0
2640	0	0
2641	0	0
2642	0	0
2643	0	0
2644	0	0
2645	0	0
2646	0	0
2647	0	0
2648	0	0
2649	0	0
2650	0	0
2651	0	0
2652	0	0
2653	0	0
2654	0	0
2655	0	0
2656	0	0
2657	0	0
2658	0	0
2659	0	0
2660	0	0
2661	0	0
2662	0	0
2663	0	0
2664	0	0
2665	0	0
2666	0	0
2667	0	0
2668	0	0
2669	0	0
2670	0	0
2671	0	0
2672	0	0
2673	0	0
2674	0	0
2675	0	0
2676	0	0
2677	0	0
2678	0	0
2679	0	0
2680	0	0
2681	0	0
2682	0	0
2683	0	0
2684	0	0
2685	0	0
2686	0	0
2687	0	0
2688	0	0
2689	0	0
2690	0	0
2691	0	0
2692	0	0
2693	0	0
2694	0	0
2695	0	0
2696	0	0
2697	0	0
2698	0	0
2699	0	0
2700	0	0
2701	0	0
2702	0	0
2703	0	0
2704	0	0
2705	0	0
2706	0	0
2707	0	0
2708	0	0
2709	0	0
2710	0	0
2711	0	0
2712	0	0
2713	0	0
2714	0	0
2715	0	0
2716	0	0
2717	0	0
2718	0	0
2719	0	0
2720	0	0
2721	0	0
2722	0	0
2723	0	0
2724	0	0
2725	0	0
2726	0	0
2727	0	0
2728	0	0
2729	0	0.989526
2730	0	0
2731	0	0
2732	0	0
2733	0	0
2734	0	0
2735	0	0
2736	0	0
2737	0	0
2738	0	0
2739	0	0
2740	0	0
2741	0	0
2742	0	0
2743	0	0
2744	0	0
2745	0	0
2746	0	0
2747	0	0
2748	0	0
2749	0	0
2750	0	0
2751	0	0
2752	0	0
2753	0	0
2754	0	0
2755	0	0
2756	0	0
2757	0	0
2758	0	0
2759	0	0
2760	0	0
2761	0	0
2762	0	0
2763	0	0
2764	0	0
2765	0	0
2766	0	0
2767	0	0
2768	0	0
2769	0	0
2770	0	0
2771	0	0
2772	0	0
2773	0	0
2774	0	0
2775	0	0
2776	0	0
2777	0	0
2778	0	0
2779	0	0
2780	0	0
2781	0	0
2782	0	0
2783	0	0
2784	0	0
2785	0	0
2786	0	0
2787	0	0
2788	0	0
2789	0	0
2790	0	0
2791	0	0
2792	0	0
2793	0	0
2794	0	0
2795	0	0
2796	0	0
2797	0	0
2798	0	0
2799	0	0
2800	0	0
2801	0	0
2802	0	0.0357143
2803	0	0.0357143
2804	0	0.980805
2805	0	0.982542
2806	0	0.984268
2807	0	0
2808	0	0
2809	0	0
2810	0	0
2811	0	0
2812	0	0
2813	0	0
2814	0	0
2815	0	0
2816	0	0
2817	0	0
2818	0	0
2819	0	0
2820	0	0
2821	0	0
2822	0	0
2823	0	0
2824	0	0
2825	0	0
2826	0	0
2827	0	0
2828	0	0
2829	0	0
2830	0	0
2831	0	0
2832	0	0
2833	0	0
2834	1	0
2835	0	0
2836	0	0
2837	0	0
2838	0	0
2839	0	0
2840	0	0
2841	0	0
2842	0	0
2843	0	0
2844	0	0
2845	0	0
2846	0	0
2847	0	0
2848	0	0
2849	0	0
2850	0	0
2851	0	0
2852	0	0
2853	0	0
2854	0	0
2855	0	0
2856	0	0
2857	0	0
2858	0	0
2859	0	0
2860	0	0
2861	0	0
2862	0	0
2863	0	0
2864	0	0
2865	0	0
2866	0	0
2867	0	0
2868	0	0
2869	0	0
2870	0	0
2871	0	0
2872	0	0
2873	0	0
2874	0	0
2875	0	0
2876	0	0
2877	0	0
2878	0	0
2879	0	0
2880	0	0
2881	0	0
2882	0	0
2883	0	0
2884	0	0
2885	0	0
2886	0	0
2887	0	0
2888	0	0
2889	0	0
2890	0	0
2891	0	0
2892	0	0
2893	0	0
2894	0	0
2895	0	0
2896	0	0
2897	0	0
2898	0	0
2899	0	0
2900	0	0
2901	0	0
2902	0	0
2903	0	0
2904	0	0
2905	0	0
2906	0	0
2907	0	0
2908	0	0
2909	0	0
2910	0	0
2911	0	0.1
2912	0	0.1
2913	0	0.1
2914	0	0.1
2915	0	0.1
2916	0	0.1
2917	0	0.1
2918	0	0.1
2919	0	0.1
2920	0	0
2921	0	0
2922	0	0
2923	0	0
2924	0	0
2925	0	0
2926	0	0
2927	0	0
2928	0	0
2929	0	0
2930	0	0
2931	0	0
2932	0	0
2933	0	0
2934	0	0.1
2935	0	0.1
2936	0	0.1
2937	0	0.1
2938	0	0.1
2939	0	0.1
2940	0	0.1
2941	0	0.1
2942	0	0.1
2943	0	0.1
2944	0	0.1
2945	0	0.1
2946	0	0.1
2947	0	0
2948	0	0
2949	0	0
2950	0	0
2951	0	0
2952	0	0
2953	0	0
2954	0	0
2955	0	0
2956	0	0
2957	0	0
2958	0	0
2959	0	0
2960	0	0
2961	0	0
2962	0	0
2963	0	0
2964	0	0
2965	0	0
2966	0	0
2967	0	0
2968	0	0
2969	0	0
2970	0	0
2971	0	0
2972	0	0
2973	0	0
2974	0	0
2975	0	0
2976	0	0
2977	0	0
2978	0	0
2979	0	0
2980	0	0
2981	0	0
2982	0	0
2983	0	0
2984	0	0
2985	0	0
2986	0	0
2987	0	0
2988	0	0
2989	0	0
2990	0	0
2991	0	0
2992	0	0
2993	0	0
2994	0	0
2995	0	0
2996	0	0
2997	0	0
2998	0	0
2999	0	0
3000	0	0
3001	0	0
3002	0	0
3003	0	0
3004	0	0
3005	0	0
3006	0	0
3007	0	0
3008	0	0
3009	0	0
3010	0	0
3011	0	0
3012	0	0
3013	0	0
3014	0	0
3015	0	0
3016	0	0
3017	0	0
3018	0	0
3019	0	0
3020	0	0
3021	0	0
3022	0	0
3023	0	0
3024	0	0
3025	0	0
3026	0	0
3027	0	0
3028	0	0
3029	0	0
3030	0	0
3031	0	0
3032	0	0
3033	0	0
3034	0	0
3035	0	0
3036	0	0
3037	0	0.1
3038	0	0.3
3039	0	0.3
3040	0	0.3
3041	0	0.3
3042	0	0.3
3043	0	0.3
3044	0	0.3
3045	0	0.3
3046	0	0.3
3047	0	0.3
3048	0	0.3
3049	0	0.1
3050	0	0.1
3051	0	0.1
3052	0	0.1
3053	0	0.1
3054	0	0.1
3055	0	0.1
3056	0	0.1
3057	0	0.1
3058	0	0.1
3059	0	0.1
3060	0	0.1
3061	0	0.1
3062	0	0.1
3063	0	0.1
3064	0	0.1
3065	0	0.1
3066	0	0.1
3067	0	0.1
3068	0	0.1
3069	0	0.1
3070	0	0.1
3071	0	0
3072	0	0
3073	0	0
3074	0	0
3075	0	0
3076	0	0
3077	0	0
3078	0	0
3079	0	0
3080	0	0
3081	0	0
3082	0	0
3083	0	0
3084	0	0
3085	0	0
3086	0	0
3087	0	0
3088	0	0
3089	0	0
3090	0	0
3091	0	0
3092	0	0
3093	0	0
3094	0	0
3095	0	0
3096	0	0.1
3097	0	0.1
3098	0	0.1
3099	0	0.0952381
3100	0	0.0952381
3101	0	0.0952381
3102	0	0.0714286
3103	0	0.0714286
3104	0	0.142857
3105	0	0.142857
3106	0	0.142857
3107	0	0.142857
3108	0	0.142857
3109	0	0.142857
3110	0	0.0714286
3111	0	0.0714286
3112	0	0.0714286
3113	0	0.973919
3114	0	0.973919
3115	0	0.973873
3116	0	0.965242
3117	0	0.965242
3118	0	0.965242
3119	0	0.0666667
3120	0	0.0769231
3121	0	0.0512821
3122	0	0.0454545
3123	0	0.0454545
3124	0	0.0454545
3125	0	0.0454545
3126	0	0.0606061
3127	0	0.0444444
3128	0	0.0444444
3129	0	0.0888889
3130	0	0.0888889
3131	0	0.0888889
3132	0	0.0888889
3133	0	0.0888889
3134	0	0.0444444
3135	0	0.0444444
3136	0	0.0222222
3137	0	0.0222222
3138	0	0.0222222
3139	0	0.0222222
3140	0	0.0222222
3141	0	0.0222222
3142	0	0.0222222
3143	0	0.0222222
3144	0	0.0222222
3145	0	0.0222222
3146	0	0.0222222
3147	0	0.0444444
3148	0	0.0444444
3149	0	0.0444444
3150	0	0.0444444
3151	0	0.0444444
3152	0	0.0277778
3153	0	0.0277778
3154	0	0.0277778
3155	0	0.0277778
3156	0	0.0555556
3157	0	0.0555556
3158	0	0.0555556
3159	0	0.0555556
3160	0	0.0555556
3161	0	0.0277778
3162	0	0.0357143
3163	0	0.0357143
3164	0	0.0357143
3165	0	0.0357143
3166	0	0.0357143
3167	0	0
3168	0	0
3169	0	0
3170	0	0
3171	0	0
3172	0	0
3173	0	0
3174	0	0
3175	0	0
3176	0	0
3177	0	0
3178	0	0
3179	0	0
3180	0	0
3181	0	0
3182	0	0
3183	0	0
3184	0	0
3185	0	0
3186	0	0
3187	0	0
3188	0	0
3189	0	0
3190	0	0
3191	0	0
3192	0	0
3193	0	0
3194	0	0
3195	0	0
3196	0	0
3197	0	0
3198	0	0
3199	0	0
3200	0	0
3201	0	0
3202	0	0
3203	0	0
3204	0	0
3205	0	0
3206	0	0
3207	0	0
3208	0	0
3209	0	0
3210	0	0.047619
3211	0	0.047619
3212	0	0.047619
3213	0	0.0666667
3214	0	0.0666667
3215	0	0.0666667
3216	0	0.0666667
3217	0	0.0666667
3218	0	0.0666667
3219	0	0.0666667
3220	0	0.0666667
3221	0	0.0666667
3222	0	0.0666667
3223	0	0.0666667
3224	0	0.0666667
3225	0	0.0666667
3226	0	0.0666667
3227	0	0.0666667
3228	0	0.0666667
3229	0	0.0666667
3230	0	0
3231	0	0.0666667
3232	0	0.0666667
3233	0	0.0666667
3234	0	0.0666667
3235	0	0.0666667
3236	0	0.0666667
3237	0	0.0666667
3238	0	0.0666667
3239	0	0.0666667
3240	0	0.0666667
3241	0	0.0666667
3242	0	0.0666667
3243	0	0.0666667
3244	0	0.0666667
3245	0	0.0666667
3246	0	0.0666667
3247	0	0.0666667
3248	0	0.0666667
3249	0	0.0666667
3250	0	0.0666667
3251	0	0.0666667
3252	0	0.0666667
3253	0	0.0666667
3254	0	0.0666667
3255	0	0.0666667
3256	0	0.0666667
3257	0	0.0666667
3258	0	0.0666667
3259	0	0.0666667
3260	0	0.0666667
3261	0	0.0666667
3262	0	0.0666667
3263	0	0.0666667
3264	0	0.0666667
3265	0	0.0666667
3266	0	0.0666667
3267	0	0.0666667
3268	0	0.0666667
3269	0	0.0666667
3270	0	0.0666667
3271	0	0.0666667
3272	0	0
3273	0	0
3274	0	0
3275	0	0
3276	0	0
3277	0	0
3278	0	0
3279	0	0
3280	0	0
3281	0	0
3282	0	0
3283	0	0
3284	0	0
3285	0	0
3286	0	0
3287	0	0
3288	0	0
3289	0	0
3290	0	0
3291	0	0
3292	0	0
3293	0	0
3294	0	0
3295	0	0
3296	0	0
3297	0	0
3298	0	0
3299	0	0
3300	0	0
3301	0	0
3302	0	0
3303	0	0
3304	0	0
3305	0	0
3306	0	0
3307	0	0
3308	0	0
3309	0	0
3310	0	0
3311	0	0
3312	0	0
3313	0	0
3314	0	0
3315	0	0
3316	0	0
3317	0	0
3318	0	0
3319	0	0
3320	0	0
3321	0	0
3322	0	0
3323	0	0
3324	0	0
3325	0	0
3326	0	0
3327	0	0
3328	0	0
3329	0	0
3330	0	0
3331	0	0
3332	0	0
3333	0	0
3334	0	0
3335	0	0
3336	0	0
3337	0	0
3338	0	0
3339	0	0
3340	0	0
3341	0	0
3342	0	0
3343	0	0
3344	0	0
3345	0	0
3346	0	0
3347	0	0
3348	0	0
3349	0	0
3350	0	0
3351	0	0
3352	0	0
3353	0	0
3354	0	0
3355	0	0
3356	0	0
3357	0	0
3358	0	0
3359	0	0
3360	0	0
3361	0	0
3362	0	0
3363	0	0
3364	0	0
3365	0	0
3366	0	0
3367	0	0
3368	0	0
3369	0	0
3370	0	0
3371	0	0
3372	0	0
3373	0	0
3374	0	0
3375	0	0
3376	0	0
3377	0	0
3378	0	0
3379	0	0
3380	0	0
3381	0	0
3382	0	0
3383	0	0
3384	0	0
3385	0	0
3386	0	0
3387	0	0
3388	0	0
3389	0	0
3390	0	0
3391	0	0
3392	0	0
3393	0	0
3394	0	0
3395	0	0
3396	0	0
3397	0	0
3398	0	0
3399	0	0
3400	0	0
3401	0	0
3402	0	0
3403	0	0
3404	0	0
3405	0	0
3406	0	0
3407	0	0
3408	0	0
3409	0	0
3410	0	0
3411	0	0
3412	0	0
3413	0	0
3414	0	0
3415	0	0
3416	0	0
3417	0	0
3418	0	0
3419	0	0
3420	0	0
3421	0	0
3422	0	0
3423	0	0
3424	0	0
3425	0	0
3426	0	0
3427	0	0
3428	1	0
3429	1	0
3430	1	0
3431	1	0
3432	1	0
3433	1	0
3434	0	0
3435	0	0
3436	0	0
3437	0	0
3438	0	0
3439	0	0
3440	0	0
3441	0	0
3442	0	0
3443	0	0
3444	0	0
3445	0	0
3446	0	0
3447	0	0
3448	0	0
3449	0	0
3450	0	0
3451	0	0
3452	0	0
3453	0	0
3454	0	0
3455	0	0
3456	0	0
3457	0	0
3458	0	0
3459	0	0
3460	0	0
3461	0	0
3462	0	0
3463	0	0
3464	1	0
3465	1	0
3466	1	0
3467	1	0
3468	1	0
3469	1	0
3470	1	0
3471	1	0
3472	1	0
3473	1	0
3474	1	0
3475	1	0
3476	1	0
3477	1	0
3478	1	0
3479	1	0
3480	1	0
3481	0	0
3482	0	0
3483	0	0
3484	0	0
3485	0	0
3486	0	0
3487	0	0
3488	0	0
3489	0	0
3490	0	0
3491	0	0
3492	0	0
3493	1	0
3494	1	0
3495	1	0
3496	1	0
3497	1	0
3498	0	0
3499	0	0
3500	0	0
3501	0	0
3502	0	0
3503	0	0
3504	0	0
3505	0	0
3506	0	0
3507	0	0
3508	0	0
3509	0	0
3510	0	0
3511	0	0
3512	0	0
3513	0	0
3514	0	0
3515	0	0
3516	0	0
3517	0	0
3518	0	0
3519	0	0
3520	0	0
3521	0	0
3522	0	0
3523	0	0
3524	0	0
3525	0	0
3526	0	0
3527	0	0
3528	0	0
3529	0	0
3530	0	0
3531	0	0
3532	0	0
3533	0	0
3534	0	0
3535	0	0
3536	0	0
3537	0	0
3538	0	0
3539	0	0
3540	0	0
3541	0	0
3542	0	0
3543	0	0
3544	0	0
3545	0	0
3546	0	0
3547	0	0
3548	0	0
3549	0	0
3550	0	0
3551	0	0
3552	0	0
3553	0	0
3554	0	0
3555	0	0
3556	0	0
3557	0	0
3558	0	0
3559	0	0
3560	0	0
3561	0	0
3562	1	0
3563	1	0
3564	1	0
3565	1	0
3566	1	0
3567	1	0
3568	1	0
3569	1	0
3570	1	0
3571	1	0
3572	1	0
3573	1	0
3574	1	0
3575	1	0
3576	1	0
3577	1	0
3578	1	0
3579	1	0
3580	1	0
3581	1	0
3582	1	0
3583	1	0
3584	1	0
3585	1	0
3586	1	0
3587	1	0
3588	1	0
3589	1	0
3590	1	0
3591	1	0
3592	1	0
3593	1	0
3594	1	0
3595	0	0
3596	0	0
3597	0	0
3598	0	0
3599	0	0
3600	0	0
3601	0	0
3602	0	0
3603	0	0
3604	0	0
3605	0	0
3606	0	0
3607	0	0
3608	1	0
3609	1	0
3610	1	0
3611	1	0
3612	1	0
3613	1	0
3614	1	0
3615	1	0
3616	1	0
3617	1	0
3618	1	0
3619	1	0
3620	1	0
3621	1	0
3622	1	0
3623	1	0
3624	1	0
3625	1	0
3626	1	0
3627	1	0
3628	1	0
3629	1	0
3630	1	0
3631	1	0
