Site	ColumnScore	SumOfPairsScore
1	0	0
2	0	0
3	0	0
4	0	0
5	0	0
6	0	0
7	0	0
8	0	0
9	0	0
10	0	0
11	0	0
12	0	0
13	0	0
14	0	0
15	0	0
16	0	0
17	0	0
18	0	0
19	0	0
20	0	0
21	0	0
22	0	0
23	0	0
24	0	0
25	0	0
26	0	0
27	0	0
28	0	0
29	0	0
30	0	0
31	0	0
32	0	0
33	0	0
34	0	0
35	0	0
36	0	0
37	0	0
38	0	0
39	0	0
40	0	0
41	0	0
42	0	0
43	0	0
44	0	0
45	0	0
46	0	0
47	0	0
48	0	0
49	0	0
50	0	0
51	0	0
52	0	0
53	0	0
54	0	0
55	0	0
56	0	0
57	0	0
58	0	0
59	0	0
60	0	0
61	0	0
62	0	0
63	0	0
64	0	0
65	0	0
66	0	0
67	0	0
68	0	0
69	0	0
70	0	0
71	0	0
72	0	0
73	0	0
74	0	0
75	0	0
76	0	0
77	0	0
78	0	0
79	0	0
80	0	0
81	0	0
82	0	0
83	0	0
84	0	0
85	0	0
86	0	0
87	0	0
88	0	0
89	0	0
90	0	0
91	0	0
92	0	0
93	0	0
94	0	0
95	0	0
96	0	0
97	0	0
98	0	0
99	0	0
100	0	0
101	0	0
102	0	0
103	0	0
104	0	0
105	0	0
106	0	0
107	0	0
108	0	0
109	0	0
110	0	0
111	0	0
112	0	0
113	0	0
114	0	0
115	0	0
116	0	0
117	0	0
118	0	0
119	0	0
120	0	0
121	0	0
122	0	0
123	0	0
124	0	0
125	0	0
126	0	0
127	0	0
128	0	0
129	0	0
130	0	0
131	0	0
132	0	0
133	0	0
134	0	0
135	0	0
136	0	0
137	0	0
138	0	0
139	0	0
140	0	0
141	0	0
142	0	0
143	0	0
144	0	0
145	0	0
146	0	0
147	0	0
148	0	0
149	0	0
150	0	0
151	0	0
152	0	0
153	0	0
154	0	0
155	0	0
156	0	0
157	0	0
158	0	0
159	0	0
160	0	0
161	0	0
162	0	0
163	0	0
164	0	0
165	0	0
166	0	0
167	0	0
168	0	0
169	0	0
170	0	0
171	0	0
172	0	0
173	0	0
174	0	0
175	0	0
176	0	0
177	0	0
178	0	0
179	0	0
180	0	0
181	0	0
182	0	0
183	0	0
184	0	0
185	0	0
186	0	0
187	0	0
188	0	0
189	0	0
190	0	0
191	0	0
192	0	0
193	0	0
194	0	0
195	0	0
196	0	0
197	0	0
198	0	0
199	0	0
200	0	0
201	0	0
202	0	0
203	0	0
204	0	0
205	0	0
206	0	0
207	0	0
208	0	0
209	0	0
210	0	0
211	0	0
212	0	0
213	0	0
214	0	0
215	0	0
216	0	0
217	0	0
218	0	0
219	0	0
220	0	0
221	0	0
222	0	0
223	0	0
224	0	0
225	0	0
226	0	0
227	0	0
228	0	0
229	0	0
230	0	0
231	0	0
232	0	0
233	0	0
234	0	0
235	0	0
236	0	0
237	0	0
238	0	0
239	0	0
240	0	0
241	0	0
242	0	0
243	0	0
244	0	0
245	0	0
246	0	0
247	0	0
248	0	0
249	0	0
250	0	0
251	0	0
252	0	0
253	0	0
254	0	0
255	0	0
256	0	0
257	0	0
258	0	0
259	0	0
260	0	0
261	0	0
262	0	0
263	0	0
264	0	0
265	0	0
266	0	0
267	0	0
268	0	0
269	0	0
270	0	0
271	0	0
272	0	0
273	0	0
274	0	0
275	0	0
276	0	0
277	0	0
278	0	0
279	0	0
280	0	0
281	0	0
282	0	0
283	0	0
284	0	0
285	0	0
286	0	0
287	0	0
288	0	0
289	0	0
290	0	0
291	0	0
292	0	0
293	0	0
294	0	0
295	0	0
296	0	0
297	0	0
298	0	0
299	0	0
300	0	0
301	0	0
302	0	0
303	0	0
304	0	0
305	0	0
306	0	0
307	0	0
308	0	0
309	0	0
310	0	0
311	0	0
312	0	0
313	0	0
314	0	0
315	0	0
316	0	0
317	0	0
318	0	0
319	0	0
320	0	0
321	0	0
322	0	0
323	0	0
324	0	0
325	0	0
326	0	0
327	0	0
328	0	0
329	0	0
330	0	0
331	0	0
332	0	0
333	0	0
334	0	0
335	0	0
336	0	0
337	0	0
338	0	0
339	0	0
340	0	0
341	0	0
342	0	0
343	0	0
344	0	0
345	0	0.0277778
346	0	0.0277778
347	0	0.0277778
348	0	0.0277778
349	0	0.0277778
350	0	0.0222222
351	0	0.0222222
352	0	0.0222222
353	0	0
354	0	0
355	0	0.0222222
356	0	0.0181818
357	0	0.0151515
358	0	0.0151515
359	0	0.0128205
360	0	0.0128205
361	0	0.0128205
362	0	0.0128205
363	0	0.0128205
364	0	0.0128205
365	0	0.00952381
366	0	0.00952381
367	0	0.00952381
368	0	0.00952381
369	0	0.00833333
370	0	0.00833333
371	0	0.00833333
372	0	0.00833333
373	0	0.00833333
374	0	0.00833333
375	0	0.00735294
376	0	0.00735294
377	0	0.00735294
378	0	0.00735294
379	0	0.00735294
380	0	0.00735294
381	0	0.00735294
382	0	0.00735294
383	0	0.00735294
384	0	0.00735294
385	0	0.0130719
386	0	0.0130719
387	0	0.0261438
388	0	0.0588235
389	0	0.0457516
390	0	0.0653595
391	0	0.0584795
392	0	0.0877193
393	0	0.0877193
394	0	0.0526316
395	0	0.047619
396	0	0.0562771
397	0	0.0523077
398	0	0.0523077
399	0	0.0338462
400	0	0.0413793
401	0	0.0413793
402	0	0.0413793
403	0	0.0390805
404	0	0.0342742
405	0	0.032197
406	0	0.0356506
407	0	0.0356506
408	0	0.0336134
409	0	0.0285714
410	0	0.0336134
411	0	0.0336134
412	0	0.0269841
413	0	0.0375375
414	0	0.0355619
415	0	0.0469417
416	0	0.056899
417	0	0.0551282
418	0	0.0576923
419	0	0.0841463
420	0	0.114983
421	0	0.136232
422	0	0.136232
423	0	0.462267
424	0	0.456637
425	0	0.415037
426	0	0.392906
427	0	0.371508
428	0	0.351586
429	0	0.334392
430	0	0.277144
431	0	0.197109
432	0	0.185475
433	0	0.16207
434	0	0.134569
435	0	0.330761
436	0	0.329778
437	0	0.329592
438	0	0.330976
439	0	0.337734
440	0	0.0151515
441	0	0.0151515
442	0	0.0128205
443	0	0.0128205
444	0	0.0128205
445	0	0.0128205
446	0	0.025
447	0	0.0233918
448	0	0.021645
449	0	0.0319328
450	0	0.0356902
451	0	0.376478
452	0	0.344013
453	0	0.333749
454	0	0
455	0	0
456	0	0
457	0	0
458	0	0
459	0	0
460	0	0
461	0	0
462	0	0
463	0	0
464	0	0
465	0	0
466	0	0
467	0	0
468	0	0
469	0	0
470	0	0
471	0	0
472	0	0
473	0	0
474	0	0
475	0	0
476	0	0
477	0	0
478	0	0
479	0	0
480	0	0
481	0	0
482	0	0
483	0	0
484	0	0
485	0	0
486	0	0
487	0	0
488	0	0
489	0	0
490	0	0
491	0	0.0761905
492	0	0.0761905
493	0	0.0566667
494	0	0.220408
495	0	0.54245
496	0	0.541957
497	0	1
498	0	1
499	0	0.691777
500	0	0.367462
501	0	0
502	0	0
503	0	0
504	0	0
505	0	0
506	0	0
507	0	0
508	0	0
509	0	0
510	0	0
511	0	0
512	0	0
513	0	0
514	0	0
515	0	0
516	0	0
517	0	0
518	0	0
519	0	0
520	0	0
521	0	0
522	0	0
523	0	0
524	0	0
525	0	0
526	0	0
527	0	0
528	0	0
529	0	0
530	0	0
531	0	0
532	0	0
533	0	0
534	0	0
535	0	0
536	0	0
537	0	0
538	0	0
539	0	0
540	0	0
541	0	0
542	0	0
543	0	0
544	0	0
545	0	0
546	0	0
547	0	0
548	0	0
549	0	0
550	0	0
551	0	0
552	0	0
553	0	0
554	0	0
555	0	0
556	0	0
557	0	0
558	0	0
559	0	0
560	0	0
561	0	0
562	0	0
563	0	0
564	0	0
565	0	0
566	0	0
567	0	0
568	0	0
569	0	0
570	0	0
571	0	0
572	0	0
573	0	0
574	0	0
575	0	0
576	0	0
577	0	0
578	0	0
579	0	0
580	0	0
581	0	0
582	0	0
583	0	0
584	0	0
585	0	0
586	0	0
587	0	0
588	0	0
589	0	0
590	0	0
591	0	0
592	0	0
593	0	0
594	0	0.485294
595	0	0.155797
596	0	0.162055
597	0	0.199134
598	0	0.222222
599	0	0.134503
600	0	0
601	0	0
602	0	0
603	0	0
604	0	0
605	0	0
606	0	0
607	0	0
608	0	0
609	0	0
610	0	0
611	0	0
612	0	0
613	0	0
614	0	0
615	0	0
616	0	0
617	0	0
618	0	0
619	0	0
620	0	0
621	0	0
622	0	0
623	0	0
624	0	0
625	0	0
626	0	0
627	0	0
628	0	0
629	0	0
630	0	0
631	0	0
632	0	0
633	0	0
634	0	0
635	0	0
636	0	0
637	0	0
638	0	0
639	0	0
640	0	0
641	0	0
642	0	0
643	0	0
644	0	0
645	0	0
646	0	0
647	0	0
648	0	0
649	0	0
650	0	0
651	0	0
652	0	0
653	0	0
654	0	0
655	0	0
656	0	0
657	0	0
658	0	0
659	0	0
660	0	0
661	0	0
662	0	0
663	0	0
664	0	0
665	0	0
666	0	0
667	0	0
668	0	0
669	0	0
670	0	0
671	0	0
672	0	0
673	0	0
674	0	0
675	0	0
676	0	0
677	0	0
678	0	0
679	0	0
680	0	0.00584795
681	0	0.00526316
682	0	0.004329
683	0	0.00615385
684	0	0.00689655
685	0	0.0294872
686	0	0.0457393
687	0	0.0576238
688	0	0.266746
689	0	0.154234
690	0	0.122503
691	0	0.130383
692	0	0
693	0	0
694	0	0
695	0	0
696	0	0
697	0	0
698	0	0
699	0	0
700	0	0
701	0	0
702	0	0
703	0	0
704	0	0.0878655
705	0	0.0650321
706	0	0.142788
707	0	0.0689303
708	0	0.0642204
709	0	0.0598694
710	0	0.0589811
711	0	0.0619972
712	0	0.0999622
713	0	0.0989852
714	0	0.0891399
715	0	0
716	0	0
717	0	0
718	0	0
719	0	0
720	0	0
721	0	0
722	0	0
723	0	0
724	0	0
725	0	0
726	0	0
727	0	0
728	0	0
729	0	0
730	0	0
731	0	0
732	0	0
733	0	0
734	0	0
735	0	0
736	0	0
737	0	0
738	0	0
739	0	0
740	0	0
741	1	0
742	1	0
743	1	0
744	1	0
745	1	0
746	1	0
747	1	0
748	1	0
749	0	0
750	0	0
751	0	0
752	0	0
753	0	0
754	0	0
755	0	0
756	0	0
757	0	0
758	0	0
759	0	0
760	0	0
761	0	0
762	0	0
763	0	0
764	0	0
765	0	0
766	0	0
767	0	0
768	0	0
769	0	0
770	0	0
771	0	0
772	0	0
773	0	0
774	0	0
775	0	0
776	0	0
777	0	0
778	0	0
779	0	0
780	0	0
781	0	0
782	0	0
783	0	0.0357143
784	0	0.0833333
785	0	0.0666667
786	0	0.133091
787	0	0.0268849
788	0	0.0289617
789	0	0.0271377
790	0	0.0277778
791	0	0.0320457
792	0	0.0319693
793	0	0.0650914
794	0	0.0638051
795	0	0.0715425
796	0	0.0746905
797	0	0.0174603
798	0	0.015873
799	0	0.0166667
800	0	0.0190476
801	0	0.0201681
802	0	0.0201681
803	0	0.0201681
804	0	0.0184874
805	0	0.0168067
806	0	0.0148448
807	0	0.0127758
808	0	0.0279035
809	0	0.0238095
810	0	0.0227937
811	0	0.0293858
812	0	0.0445055
813	0	0.0650953
814	0	0.0597474
815	0	0.0465938
816	0	0.0434295
817	0	0.0499119
818	0	0.0542697
819	0	0.0579139
820	0	0.120697
821	0	0.0539518
822	0	0.0541066
823	0	0.051336
824	0	0.0539548
825	0	0.055551
826	0	0.0719823
827	0	0.0877193
828	0	0.088172
829	0	0.154412
830	0	0.164835
831	0	0.192308
832	0	0.227273
833	0	0.227273
834	0	0.0833333
835	0	0
836	0	0
837	0	0
838	0	0
839	0	0
840	0	0
841	0	0
842	0	0
843	0	0
844	0	0
845	0	0
846	0	0
847	0	0
848	0	0
849	0	0
850	0	0
851	0	0
852	0	0
853	0	0
854	0	0
855	0	0
856	0	0
857	0	0
858	0	0
859	0	0
860	0	0
861	0	0
862	0	0
863	0	0
864	0	0
865	0	0
866	0	0
867	0	0
868	0	0
869	0	0
870	0	0
871	0	0
872	0	0
873	0	0
874	0	0
875	0	0
876	0	0
877	0	0
878	0	0
879	0	0
880	0	0
881	0	0
882	0	0
883	0	0
884	0	0
885	0	0
886	0	0
887	0	0
888	0	0
889	0	0
890	0	0
891	0	0
892	0	0
893	0	0
894	0	0
895	0	0
896	0	0
897	0	0
898	0	0
899	0	0
900	0	0
901	0	0
902	0	0
903	0	0
904	0	0
905	0	0
906	0	0
907	0	0
908	0	0
909	0	0
910	0	0
911	0	0
912	0	0
913	0	0
914	0	0
915	0	0
916	0	0
917	0	0
918	0	0
919	0	0
920	0	0
921	0	0
922	0	0
923	0	0
924	0	0
925	0	0
926	0	0
927	0	0
928	0	0
929	0	0
930	0	0
931	0	0
932	0	0
933	0	0
934	0	0
935	0	0
936	0	0
937	0	0
938	0	0
939	0	0
940	0	0
941	0	0
942	0	0
943	0	0
944	0	0
945	0	0
946	0	0
947	0	0
948	0	0
949	0	0
950	0	0
951	0	0
952	0	0
953	0	0
954	0	0
955	0	0
956	0	0
957	0	0
958	0	0
959	0	0
960	0	0
961	0	0
962	0	0
963	0	0
964	0	0
965	0	0
966	0	0
967	0	0
968	0	0
969	0	0
970	0	0
971	0	0
972	0	0
973	0	0
974	0	0
975	0	0
976	0	0
977	0	0
978	0	0.0631579
979	0	0.0784314
980	0	0.0882353
981	0	0.0882353
982	0	0.0808824
983	0	0
984	0	0
985	0	0
986	0	0
987	0	0
988	0	0
989	0	0
990	0	0
991	0	0
992	0	0
993	0	0
994	0	0
995	0	0
996	0	0
997	0	0
998	0	0
999	0	0
1000	0	0
1001	0	0
1002	0	0
1003	0	0
1004	0	0
1005	0	0
1006	0	0
1007	0	0
1008	0	0
1009	0	0.1
1010	0	0.1
1011	0	0
1012	0	0
1013	0	0
1014	0	0
1015	0	0.010989
1016	0	0.010989
1017	0	0.010989
1018	0	0
1019	0	0
1020	0	0
1021	0	0
1022	0	0
1023	0	0
1024	0	0
1025	0	0
1026	0	0
1027	0	0
1028	0	0
1029	0	0
1030	0	0
1031	0	0
1032	0	0
1033	0	0
1034	0	0
1035	0	0
1036	0	0
1037	0	0
1038	0	0.00833333
1039	0	0
1040	0	0
1041	0	0
1042	0	0
1043	0	0
1044	0	0
1045	0	0
1046	0	0
1047	0	0
1048	0	0
1049	0	0
1050	0	0
1051	0	0
1052	0	0
1053	0	0
1054	0	0
1055	0	0
1056	0	0
1057	0	0
1058	0	0
1059	0	0
1060	0	0
1061	0	0
1062	0	0
1063	0	0
1064	0	0
1065	0	0
1066	0	0
1067	0	0
1068	0	0
1069	0	0
1070	0	0
1071	0	0
1072	0	0
1073	0	0
1074	0	0
1075	0	0
1076	0	0
1077	0	0
1078	0	0
1079	0	0
1080	0	0
1081	0	0
1082	0	0
1083	0	0
1084	0	0
1085	0	0
1086	0	0
1087	0	0
1088	0	0
1089	0	0
1090	0	0
1091	0	0
1092	0	0
1093	0	0
1094	0	0.333487
1095	0	0
1096	0	0
1097	0	0
1098	0	0
1099	0	0
1100	0	0
1101	0	0
1102	0	0
1103	0	0
1104	0	0
1105	0	0
1106	0	0
1107	0	0
1108	0	0
1109	0	0
1110	0	0
1111	0	0
1112	0	0
1113	0	0
1114	0	0
1115	0	0
1116	0	0
1117	0	0
1118	0	0
1119	0	0
1120	0	0
1121	0	0
1122	0	0
1123	0	0
1124	0	0
1125	0	0
1126	0	0
1127	0	0
1128	0	0
1129	0	0
1130	0	0
1131	0	0
1132	0	0
1133	0	0
1134	0	0
1135	0	0
1136	0	0
1137	0	0
1138	0	0
1139	0	0
1140	0	0
1141	0	0
1142	0	0
1143	0	0
1144	0	0
1145	0	0
1146	0	0
1147	0	0
1148	0	0
1149	0	0
1150	0	0
1151	0	0
1152	0	0
1153	0	0
1154	0	0
1155	0	0
1156	0	0
1157	0	0
1158	0	0.0561884
1159	0	0.062184
1160	0	0.0655826
1161	0	0
1162	0	0
1163	0	0
1164	0	0
1165	0	0
1166	0	0
1167	0	0
1168	0	0
1169	0	0
1170	0	0
1171	0	0
1172	0	0
1173	0	0
1174	0	0
1175	0	0
1176	0	0
1177	0	0
1178	0	0
1179	0	0.047619
1180	0	0.0357143
1181	0	0.0199338
1182	0	0.102361
1183	0	0.10395
1184	0	0
1185	0	0
1186	0	0
1187	0	0
1188	0	0
1189	0	0
1190	0	0
1191	0	0
1192	0	0
1193	0	0
1194	0	0
1195	0	0
1196	0	0
1197	0	0
1198	0	0
1199	0	0
1200	0	0
1201	0	0
1202	0	0
1203	0	0
1204	0	0
1205	0	0
1206	0	0
1207	0	0
1208	0	0
1209	0	0
1210	0	0
1211	0	0
1212	0	0
1213	0	0
1214	0	0
1215	0	0
1216	0	0
1217	0	0
1218	0	0
1219	0	0
1220	0	0
1221	0	0
1222	0	0
1223	0	0
1224	0	0
1225	0	0
1226	0	0
1227	0	0
1228	0	0.0340136
1229	0	0.0333817
1230	0	0.0312046
1231	0	0.0285714
1232	0	0.027027
1233	0	0.0242652
1234	0	0.11413
1235	0	0.0597152
1236	0	0
1237	0	0
1238	0	0
1239	0	0
1240	0	0
1241	0	0
1242	0	0
1243	0	0.0560086
1244	0	0.2
1245	0	0.2
1246	0	0.2
1247	0	0.1
1248	0	0.0525691
1249	0	0.0289855
1250	0	0.0266667
1251	0	0.0266667
1252	0	0.02
1253	0	0.02
1254	0	0.02
1255	0	0.022792
1256	0	0.169533
1257	0	0.0348698
1258	0	0.0399712
1259	0	0.0448772
1260	0	0.0526211
1261	0	0.0498491
1262	0	0.0397664
1263	0	0.0387896
1264	0	0.0472367
1265	0	0.0532114
1266	0	0.0588235
1267	0	0.0508858
1268	0	0
1269	0	0
1270	0	0
1271	0	0.133333
1272	0	0.141026
1273	0	0.141026
1274	0	0.141026
1275	0	0.141026
1276	0	0.141026
1277	0	0.141026
1278	0	0.141026
1279	0	0.141026
1280	0	0.141026
1281	0	0.141026
1282	0	0.141026
1283	0	0.141026
1284	0	0.0255553
1285	0	0.0899506
1286	0	0.0869565
1287	0	0.0659341
1288	0	0.0879121
1289	0	0.235479
1290	0	0.234099
1291	0	0.247873
1292	0	0.252207
1293	0	0.227888
1294	0	0.210378
1295	0	0.219084
1296	0	0.168562
1297	0	0.175444
1298	0	0.175564
1299	0	0
1300	0	0
1301	0	0
1302	0	0
1303	0	0.227273
1304	0	0
1305	0	0
1306	0	0
1307	0	0
1308	0	0
1309	0	0.409923
1310	0	0.410029
1311	0	0.107143
1312	0	0.107143
1313	0	0.107143
1314	0	0
1315	0	0
1316	0	0
1317	0	0
1318	0	0
1319	0	0
1320	0	0
1321	0	0
1322	0	0
1323	0	0
1324	0	0
1325	0	0
1326	0	0
1327	0	0
1328	0	0
1329	0	0.0789474
1330	0	0.0789474
1331	0	0.0842105
1332	0	0
1333	0	0.010989
1334	0	0.010989
1335	0	0
1336	0	0
1337	0	0
1338	0	0
1339	0	0
1340	0	0
1341	0	0
1342	0	0
1343	0	0
1344	0	0
1345	0	0
1346	0	0.0277778
1347	0	0.0277778
1348	0	0.0277778
1349	0	0
1350	0	0.0357143
1351	0	0.047619
1352	0	0.047619
1353	0	0.0277778
1354	0	0
1355	0	0
1356	0	0
1357	0	0
1358	0	0
1359	0	0
1360	0	0
1361	0	0
1362	0	0.133333
1363	0	0.133333
1364	0	0.115385
1365	0	0.0857143
1366	0	0.297479
1367	0	0.217189
1368	0	0.55741
1369	0	0.0650514
1370	0	0.0676273
1371	0	0
1372	0	0
1373	0	0
1374	0	0
1375	0	0
1376	0	0
1377	0	0.166667
1378	0	0.166667
1379	0	0.166667
1380	0	0.1
1381	0	0.133333
1382	0	0.0952381
1383	0	0.0640261
1384	0	0.061326
1385	0	0.0628607
1386	0	0.0594985
1387	0	0.0623782
1388	0	0.0632445
1389	0	0.0532721
1390	0	0.0600044
1391	0	0.0619078
1392	0	0.0666832
1393	0	0.0668704
1394	0	0.0882353
1395	0	0.0882353
1396	0	0.0882353
1397	0	0.0882353
1398	0	0.0882353
1399	0	0.0955882
1400	0	0.0882353
1401	0	0.357143
1402	0	0.161765
1403	0	0.161765
1404	0	0.169118
1405	0	0.0776685
1406	0	0.0704317
1407	0	0.0817694
1408	0	0.115942
1409	0	0.101449
1410	0	0.126812
1411	0	0.134058
1412	0	0.133333
1413	0	0.133333
1414	0	0.089857
1415	0	0.103916
1416	0	0.105558
1417	0	0.0882353
1418	0	0.0882353
1419	0	0.0441176
1420	0	0.0661765
1421	0	0.0661765
1422	0	0.0588235
1423	0	0.0588235
1424	0	0.0653595
1425	0	0.0915033
1426	0	0.0684211
1427	0	0.112319
1428	0	0.137931
1429	0	0.104762
1430	0	0.134902
1431	0	0.226318
1432	0	0.456416
1433	0	0.675214
1434	0	0.704797
1435	0	0.601043
1436	0	0.48077
1437	0	0.454876
1438	0	0.396432
1439	0	0.398964
1440	0	0.075
1441	0	0.0879121
1442	0	0.0879121
1443	0	0.0879121
1444	0	0.0444444
1445	0	0.0888889
1446	0	0.0888889
1447	0	0.0888889
1448	0	0.0888889
1449	0	0.0888889
1450	0	0.0888889
1451	0	0.0888889
1452	0	0.0909091
1453	0	0.456287
1454	0	0.253695
1455	0	0.23908
1456	0	0.243011
1457	0	0.262366
1458	0	0.26025
1459	0	0.267227
1460	0	0.570178
1461	0	0.570634
1462	0	0.570597
1463	0	0.0549451
1464	0	0.0659341
1465	0	0.0659341
1466	0	0.0769231
1467	0	0.0769231
1468	0	0.0769231
1469	0	0.115385
1470	0	0.115385
1471	0	0.217949
1472	0	0.217949
1473	0	0.217949
1474	0	0.217949
1475	0	0.461292
1476	0	0.151515
1477	0	0.151515
1478	0	0.151515
1479	0	0.563475
1480	0	0.547189
1481	0	0
1482	0	0
1483	0	0
1484	0	0
1485	0	0
1486	0	0
1487	0	0
1488	0	0
1489	0	0
1490	0	0
1491	0	0
1492	0	0
1493	0	0
1494	0	0
1495	0	0
1496	0	0
1497	0	0
1498	0	0
1499	0	0
1500	0	0
1501	0	0
1502	0	0
1503	0	0
1504	0	0
1505	0	0
1506	0	0
1507	0	0
1508	0	0
1509	0	0
1510	0	0
1511	0	0
1512	0	0
1513	0	0
1514	0	0
1515	0	0
1516	0	0
1517	0	0
1518	0	0
1519	0	0
1520	0	0
1521	0	0
1522	0	0
1523	0	0
1524	0	0
1525	0	0
1526	0	0
1527	0	0
1528	0	0
1529	0	0
1530	0	0
1531	0	0
1532	0	0
1533	0	0
1534	0	0
1535	0	0
1536	0	0
1537	0	0
1538	0	0
1539	0	0
1540	0	0
1541	0	0
1542	0	0
1543	0	0
1544	0	0
1545	0	0
1546	0	0
1547	0	0
1548	0	0
1549	0	0
1550	0	0
1551	0	0
1552	0	0
1553	0	0
1554	0	0
1555	0	0
1556	0	0
1557	0	0
1558	0	0
1559	0	0
1560	0	0
1561	0	0
1562	0	0
1563	0	0
1564	0	0
1565	0	0
1566	0	0
1567	0	0
1568	0	0
1569	0	0
1570	0	0
1571	0	0
1572	0	0
1573	0	0
1574	0	0
1575	0	0
1576	0	0
1577	0	0
1578	0	0
1579	0	0
1580	0	0
1581	0	0
1582	0	0
1583	0	0
1584	0	0
1585	0	0
1586	0	0
1587	0	0
1588	0	0
1589	0	0
1590	0	0
1591	0	0
1592	0	0
1593	0	0
1594	0	0
1595	0	0
1596	0	0
1597	0	0
1598	0	0
1599	0	0
1600	0	0
1601	0	0
1602	0	0
1603	0	0
1604	0	0
1605	0	0
1606	0	0
1607	0	0
1608	0	0
1609	0	0
1610	0	0
1611	0	0
1612	0	0
1613	0	0
1614	0	0
1615	0	0
1616	0	0
1617	0	0
1618	0	0
1619	0	0
1620	0	0
1621	0	0
1622	0	0
1623	0	0
1624	0	0
1625	0	0
1626	0	0
1627	0	0
1628	0	0
1629	0	0
1630	0	0
1631	0	0
1632	0	0
1633	0	0
1634	0	0
1635	0	0
1636	0	0
1637	0	0
1638	0	0
1639	0	0
1640	0	0
1641	0	0
1642	0	0
1643	0	0
1644	0	0
1645	0	0
1646	0	0
1647	0	0
1648	0	0
1649	0	0
1650	0	0
1651	0	0
1652	0	0
1653	0	0
1654	0	0
1655	0	0
1656	0	0
1657	0	0
1658	0	0
1659	0	0
1660	0	0
1661	0	0
1662	0	0
1663	0	0
1664	0	0
1665	0	0
1666	0	0
1667	0	0
1668	0	0
1669	1	0
1670	1	0
1671	1	0
1672	0	0
1673	0	0
1674	0	0
1675	0	0
1676	0	0
1677	0	0
1678	0	0
1679	0	0
1680	0	0
1681	0	0
1682	0	0
1683	0	0
1684	0	0
1685	0	0
1686	0	0
1687	0	0
1688	0	0
1689	0	0
1690	0	0
1691	0	0
1692	0	0
1693	0	0
1694	0	0
1695	0	0
1696	0	0
1697	0	0
1698	0	0
1699	0	0
1700	0	0
1701	0	0
1702	0	0
1703	0	0
1704	0	0
1705	0	0
1706	0	0
1707	0	0
1708	0	0
1709	0	0
1710	0	0
1711	0	0
1712	0	0
1713	0	0
1714	0	0
1715	0	0
1716	0	0
1717	0	0
1718	0	0
1719	0	0
1720	0	0
1721	0	0
1722	0	0
1723	0	0
1724	0	0
1725	0	0
1726	0	0
1727	0	0
1728	0	0
1729	0	0
1730	0	0
1731	0	0.333333
1732	0	1
1733	0	0.830401
1734	0	0.830528
1735	0	0.830663
1736	0	0.884987
1737	0	0.911805
1738	0	0.940751
1739	0	0.981564
1740	0	0.981583
1741	0	0.981621
1742	0	0.981639
1743	0	0.981639
1744	0	0.981639
1745	0	0.97963
1746	0	0.97963
1747	0	0.97963
1748	0	0.97963
1749	0	0.97963
1750	0	0.97963
1751	0	0.985675
1752	0	0.5
1753	0	0.5
1754	0	0.5
1755	0	0.5
1756	0	0.5
1757	0	0.5
1758	0	1
1759	0	1
1760	0	1
1761	0	1
1762	0	1
1763	0	0.285714
1764	0	0.944232
1765	0	0.248366
1766	0	0.248366
1767	0	0.248366
1768	0	0.248366
1769	0	0.166008
1770	0	0.166008
1771	0	0.166008
1772	0	0.15415
1773	0	0.141304
1774	0	0.90932
1775	0	0.125
1776	0	0.141667
1777	0	0.141667
1778	0	0.884236
1779	0	0.899662
1780	0	0.333333
1781	0	0.333333
1782	0	0
1783	0	0
1784	0	0
1785	0	0
1786	0	0
1787	0	0
1788	0	0
1789	0	0.0666667
1790	0	0.0666667
1791	0	0.295238
1792	0	0.64668
1793	0	0.783003
1794	0	0.796102
1795	0	0.880657
1796	0	0.386809
1797	0	0.109091
1798	0	0.142857
1799	0	0.142857
1800	0	0.142857
1801	0	0.142857
1802	0	0.142857
1803	0	0.142857
1804	0	0.142857
1805	0	0.142857
1806	0	0.142857
1807	0	0.2
1808	0	0.190476
1809	0	0.190476
1810	0	0.190476
1811	0	0.939333
1812	0	0.949802
1813	0	0.953772
1814	0	0.955751
1815	0	0.955751
1816	0	0.955749
1817	0	0.953806
1818	0	0.953806
1819	0	0.943933
1820	0	0.516129
1821	0	0.903487
1822	0	0.903502
1823	0	0.5
1824	0	0.5
1825	0	0.5
1826	0	0.5
1827	0	0.3
1828	0	0.341991
1829	0	0.272727
1830	0	0.255411
1831	0	0.238095
1832	0	0.2
1833	0	0.183908
1834	0	0.156863
1835	0	0.148792
1836	0	0.130196
1837	0	0.136905
1838	0	0.192757
1839	0	0.192757
1840	0	0.187402
1841	0	0.181126
1842	0	0.181126
1843	0	0.754555
1844	0	0.228516
1845	0	0.136373
1846	0	0.650178
1847	0	0.466667
1848	0	0.466667
1849	0	0.4
1850	0	0.4
1851	0	0.2
1852	0	0.2
1853	0	0.2
1854	0	0.2
1855	0	0.2
1856	0	0.2
1857	0	0.166667
1858	0	0.166667
1859	0	0.333333
1860	0	0.333333
1861	0	0.333333
1862	0	0.333333
1863	0	0.333333
1864	0	0.333333
1865	0	0.333333
1866	0	0.333333
1867	0	0.333333
1868	0	0.333333
1869	0	0.333333
1870	0	0.333333
1871	0	0.333333
1872	0	0.333333
1873	0	0.333333
1874	0	0.333333
1875	0	0.166667
1876	0	0.166667
1877	0	0.166667
1878	0	0.166667
1879	0	0.166667
1880	0	0.166667
1881	0	0.166667
1882	0	0.166667
1883	0	0.166667
1884	0	0.166667
1885	0	0.166667
1886	0	0.166667
1887	0	0.166667
1888	0	0.166667
1889	0	0.166667
1890	0	0.166667
1891	0	0.166667
1892	0	0.166667
1893	0	0.166667
1894	0	0.916495
1895	0	0.910926
1896	0	0.921419
1897	0	0.907512
1898	0	0.866309
1899	0	0.866309
1900	0	0.852848
1901	0	0.853921
1902	0	0.841194
1903	0	0.828639
1904	0	0.817756
1905	0	0.817756
1906	0	0.844662
1907	0	0.845535
1908	0	0.834637
1909	0	0.834637
1910	0	0.822713
1911	0	0.75068
1912	0	0.71302
1913	0	0.459634
1914	0	0.482875
1915	0	0.482671
1916	0	0.516457
1917	0	0.131917
1918	0	0.174648
1919	0	0.174419
1920	0	0.140642
1921	0	0.171951
1922	0	0.165854
1923	0	0.179268
1924	0	0.166667
1925	0	0.249012
1926	0	0.295238
1927	0	0.411765
1928	0	0.0666667
1929	0	0.0666667
1930	0	0.0666667
1931	0	0.1
1932	0	0
1933	0	0
1934	0	0
1935	0	0
1936	0	0.333333
1937	0	0.333333
1938	0	0.333333
1939	0	0
1940	0	0
1941	0	0
1942	0	0
1943	0	0.844938
1944	0	0.979781
1945	0	0.981778
1946	0	0.571429
1947	0	0.571429
1948	0	0.571429
1949	0	0.571429
1950	0	0.571429
1951	0	1
1952	0	1
1953	0	1
1954	0	1
1955	0	1
1956	0	1
1957	0	0.997972
1958	0	0.997972
1959	0	0.997972
1960	1	1
1961	1	1
1962	0	0.997978
1963	0	0.99798
1964	0	0.99798
1965	0	0.99798
1966	0	0.99798
1967	0	0.99798
1968	0	0.99798
1969	1	1
1970	1	1
1971	1	1
1972	1	1
1973	1	1
1974	1	1
1975	0	1
1976	0	1
1977	0	1
1978	1	1
1979	1	1
1980	1	1
1981	1	1
1982	1	1
1983	0	1
1984	0	1
1985	1	1
1986	1	1
1987	1	1
1988	1	1
1989	1	1
1990	1	1
1991	1	1
1992	1	1
1993	0	0.998016
1994	0	0.998016
1995	0	0.998016
1996	0	0.998016
1997	0	0.998016
1998	0	0.998016
1999	0	0.998016
2000	0	0.998016
2001	0	0.998016
2002	0	0.998016
2003	0	0.998016
2004	0	0.996034
2005	0	0.96294
2006	0	1
2007	0	1
2008	0	1
2009	0	0.993562
2010	0	0.622222
2011	0	0.75
2012	0	0.977569
2013	0	0.75
2014	0	0.266667
2015	0	0.266667
2016	0	0.266667
2017	0	0.333333
2018	0	0.333333
2019	0	0.333333
2020	0	0.333333
2021	0	0.333333
2022	0	0.166667
2023	0	0.166667
2024	0	0.166667
2025	0	0.811164
2026	0	0.545044
2027	0	0.547816
2028	0	0.524423
2029	0	0.516069
2030	0	0
2031	0	0.333333
2032	0	0.333333
2033	0	0.333333
2034	0	0.266667
2035	0	0.190476
2036	0	0.155556
2037	0	0.127273
2038	0	0.106061
2039	0	0.1
2040	0	0.8884
2041	0	0.888539
2042	0	0.898781
2043	0	0.909245
2044	0	0.909236
2045	0	0.906618
2046	0	0.0714286
2047	0	0.0952381
2048	0	0.133333
2049	0	0.166667
2050	0	0.166667
2051	0	0
2052	0	0
2053	0	0
2054	0	0
2055	0	0
2056	0	0
2057	0	0
2058	0	0
2059	0	0
2060	0	0
2061	0	0.586209
2062	0	0
2063	0	0
2064	0	0
2065	0	0
2066	0	0
2067	0	0
2068	0	0
2069	0	0
2070	0	0
2071	0	0
2072	0	0
2073	0	0
2074	0	0
2075	0	0
2076	0	0
2077	0	0
2078	0	0
2079	0	0
2080	0	0
2081	0	0
2082	0	0
2083	0	0
2084	0	0
2085	0	0
2086	0	0
2087	0	0
2088	0	0
2089	0	0
2090	0	0
2091	0	0
2092	0	0
2093	0	0
2094	0	0
2095	0	0
2096	0	0
2097	0	0
2098	0	0
2099	0	0
2100	0	0.678579
2101	0	0.488889
2102	0	0.687464
2103	0	0.687464
2104	0	0.684735
2105	0	0.644251
2106	0	0.642972
2107	0	1
2108	0	0.736264
2109	0	0.514706
2110	0	0.384211
2111	0	0.593207
2112	0	0
2113	0	0
2114	0	0.333333
2115	0	0
2116	0	0
2117	0	0.741176
2118	0	0.741176
2119	0	0.741176
2120	0	0.741176
2121	0	0.663664
2122	0	0.36478
2123	0	0.261284
2124	0	0.244306
2125	0	0.336267
2126	0	0.155556
2127	0	0.2
2128	0	0.191223
2129	0	0.130403
2130	0	0.110294
2131	0	0.108333
2132	0	0.255084
2133	0	0.875
2134	0	0.875
2135	0	0.772059
2136	0	0.344729
2137	0	0
2138	0	0
2139	0	0
2140	0	0
2141	0	0.2
2142	0	0.2
2143	0	0.2
2144	0	0.2
2145	0	0.166667
2146	0	0.444444
2147	0	0.288538
2148	0	0.1
2149	0	0.1
2150	0	0.1
2151	0	0.1
2152	0	0.142857
2153	0	0.153846
2154	0	0.12998
2155	0	0.112855
2156	0	0.116238
2157	0	0.266579
2158	0	0.134199
2159	0	0.130508
2160	0	0.203846
2161	0	0.185789
2162	0	0.25318
2163	0	0.18925
2164	0	0.493948
2165	0	0.572857
2166	0	0.566422
2167	0	0.198275
2168	0	0
2169	0	0.333333
2170	0	0.333333
2171	0	0
2172	0	0
2173	0	0
2174	0	0.120984
2175	0	0.110851
2176	0	0.124149
2177	0	0
2178	0	0.0357143
2179	0	0.792593
2180	0	0.621096
2181	0	0.475647
2182	0	0.322814
2183	0	0.259331
2184	0	0.206451
2185	0	0.192719
2186	0	0.113496
2187	0	0.134349
2188	0	0.130391
2189	0	0.163332
2190	0	0.143341
2191	0	0.140029
2192	0	0.138126
2193	0	0.209066
2194	0	0.176965
2195	0	0.189372
2196	0	0.15175
2197	0	0.122948
2198	0	0
2199	0	0
2200	0	0
2201	0	0
2202	0	0
2203	0	0.294737
2204	0	0.310175
2205	0	0.12631
2206	0	0.122876
2207	0	0.274911
2208	0	0.128685
2209	0	0.131484
2210	0	0.565967
2211	0	0.566417
2212	0	0.566417
2213	0	0.565517
2214	0	0.268219
2215	0	0.145754
2216	0	0.099865
2217	0	0.0995733
2218	0	0.108108
2219	0	0.166667
2220	0	0.20155
2221	0	0.166512
2222	0	0.354148
2223	0	0.31296
2224	0	0.2662
2225	0	0.585067
2226	0	0.637543
2227	0	0.635599
2228	0	0.649161
2229	0	0.657408
2230	0	0.155584
2231	0	0.198529
2232	0	0.225
2233	0	0.191667
2234	0	0
2235	0	0
2236	0	0
2237	0	0
2238	0	0
2239	0	0
2240	0	0
2241	0	0.447805
2242	0	0.447843
2243	0	0.453446
2244	0	0.457279
2245	0	0.459244
2246	0	0
2247	0	0
2248	0	0
2249	0	0
2250	0	0
2251	0	0
2252	0	0
2253	0	0
2254	0	0.72765
2255	0	0.723303
2256	0	0.0666667
2257	0	0.0632411
2258	0	0.548319
2259	0	0.549864
2260	0	0.544394
2261	0	0.544555
2262	0	0.541252
2263	0	0.541738
2264	0	0.02849
2265	0	0.045584
2266	0	0.0626781
2267	0	0.549225
2268	0	0.537641
2269	0	0.532882
2270	0	0.537969
2271	0	1
2272	0	1
2273	0	1
2274	0	1
2275	0	0.69697
2276	0	0.474359
2277	0	0.371795
2278	0	0.282051
2279	0	0.441722
2280	0	0.859259
2281	0	0.423031
2282	0	0.2
2283	0	0.24359
2284	0	0.218182
2285	0	0.218182
2286	0	0.2
2287	0	0.333333
2288	0	0
2289	0	0
2290	0	0
2291	0	0
2292	0	0
2293	0	0
2294	0	0
2295	0	0
2296	0	0
2297	0	0
2298	0	0
2299	0	0
2300	0	0
2301	0	0
2302	0	0.0666667
2303	0	0.0666667
2304	0	0.0666667
2305	0	0
2306	0	0
2307	0	0
2308	0	0
2309	0	0
2310	0	0
2311	0	0
2312	0	0
2313	0	0
2314	0	0.0128205
2315	0	0.0190476
2316	0	0.025
2317	0	0.0652174
2318	0	0.0584615
2319	0	0.0541311
2320	0	0.0541311
2321	0	0.0516934
2322	0	0.0483642
2323	0	0.0487805
2324	0	0.0486258
2325	0	0.0464646
2326	0	0.0434343
2327	0	0.030303
2328	0	0.027668
2329	0	0.025974
2330	0	0.0555556
2331	0	0.0555556
2332	0	0.0266667
2333	0	0.0454786
2334	0	0.0484848
2335	0	0.0473396
2336	0	0.0441558
2337	0	0.0440678
2338	0	0.0591549
2339	0	0.0562755
2340	0	0.0533151
2341	0	0.0520129
2342	0	0.0686813
2343	0	0.0706127
2344	0	0.0825069
2345	0	0.0866252
2346	0	0.0793052
2347	0	0.0815511
2348	0	0.087134
2349	0	0.0965166
2350	0	0.111772
2351	0	0.0945979
2352	0	0.0925359
2353	0	0.0877377
2354	0	0.0960419
2355	0	0.0941563
2356	0	0.0911711
2357	0	0.130311
2358	0	0.142811
2359	0	0.15698
2360	0	0.232488
2361	0	0.457388
2362	0	0.489736
2363	0	0.280548
2364	0	0.295303
2365	0	0.321484
2366	0	0.330242
2367	0	0.358613
2368	0	0.161908
2369	0	0.242476
2370	0	0.231221
2371	0	0.308573
2372	0	0.350652
2373	0	0.482286
2374	0	0.223881
2375	0	0.284247
2376	0	0.451735
2377	0	0.576318
2378	0	0.629293
2379	0	0.664646
2380	0	0.945946
2381	0	1
2382	0	1
2383	0	1
2384	0	0.822426
2385	0	0.992806
2386	0	0.992891
2387	0	0.985874
2388	0	0.993304
2389	0	0.995986
2390	0	0.996022
2391	0	0.996022
2392	0	0.996022
2393	0	0.996026
2394	0	0.996038
2395	0	0.998016
2396	0	0.998018
2397	0	0.998018
2398	0	0.998018
2399	0	0.998018
2400	0	0.998018
2401	0	0.998018
2402	0	0.998018
2403	0	0
2404	0	0
2405	0	0.982301
2406	0	0.873529
2407	0	0.803698
2408	0	0.779162
2409	0	0.745348
2410	0	0.579289
2411	0	0.478836
2412	0	0.527273
2413	0	0.580233
2414	0	0.91872
2415	0	0.934029
2416	0	0.945522
2417	0	0.467692
2418	0	0.444444
2419	0	0.333333
2420	1	0
2421	0	0
2422	0	0
2423	0	0
2424	0	0
2425	0	0
2426	0	0.996038
2427	0	0.996038
2428	0	0.996034
2429	0	0.994059
2430	0	0.994059
2431	0	0.994059
2432	0	0.994059
2433	0	0.994059
2434	0	0.996034
2435	0	0.996034
2436	0	0.52381
2437	0	0.98815
2438	0	0.988162
2439	0	0.789887
2440	0	0.542993
2441	0	0
2442	0	0.541023
2443	1	0
2444	1	0
2445	1	0
2446	1	0
2447	1	0
2448	1	0
2449	1	0
2450	1	0
2451	1	0
2452	1	0
2453	1	0
2454	1	0
2455	1	0
2456	0	0
2457	0	0
2458	0	0
2459	0	0
2460	0	0
2461	0	0.994065
2462	0	0.994065
2463	0	0.994065
2464	0	0.992091
2465	0	0.992091
2466	0	0
2467	0	0
2468	0	0.99013
2469	0	0.99013
2470	0	0.333333
2471	0	1
2472	0	0.996042
2473	0	0.998018
2474	0	0.998018
2475	0	0.998018
2476	0	0.998018
2477	0	0.998018
2478	0	0.998018
2479	0	0.998018
2480	0	1
2481	0	1
2482	0	0.998014
2483	0	0.998012
2484	0	0.996026
2485	0	0.996026
2486	0	0.996026
2487	0	0.988119
2488	0	0.990076
2489	0	0.992042
2490	0	0.992042
2491	0	0.992034
2492	0	0.978201
2493	0	0.5
2494	0	0.5
2495	0	0.5
2496	0	0.5
2497	0	0.5
2498	0	0.5
2499	0	0.5
2500	0	0.5
2501	0	0.5
2502	0	0.818182
2503	0	0.990079
2504	0	0
2505	0	0
2506	0	0
2507	0	0
2508	0	0
2509	0	0
2510	0	0
2511	0	0.998012
2512	1	1
2513	0	0.998014
2514	0	0.998014
2515	0	0.998014
2516	0	0.998014
2517	0	0.996034
2518	0	0.996034
2519	0	0.996034
2520	0	0.996034
2521	0	0.996034
2522	0	0.996034
2523	0	0.996034
2524	0	0.99603
2525	0	0.998012
2526	0	0.998012
2527	0	0.998012
2528	0	0.998012
2529	0	0.998012
2530	0	0.6
2531	0	0.992079
2532	1	1
2533	1	1
2534	1	1
2535	1	1
2536	1	1
2537	1	1
2538	1	1
2539	0	0.998016
2540	0	0.998016
2541	1	1
2542	1	1
2543	1	1
2544	1	1
2545	1	1
2546	1	1
2547	1	1
2548	1	1
2549	1	1
2550	1	1
2551	1	0
2552	1	0
2553	1	0
2554	1	0
2555	1	0
2556	1	0
2557	1	0
2558	1	0
2559	1	0
2560	1	0
2561	1	0
2562	1	0
2563	1	0
2564	1	0
2565	1	0
2566	1	0
2567	1	0
2568	0	0.998006
2569	0	0.998006
2570	0	0.998006
2571	0	0.998006
2572	0	0.998006
2573	0	0.998006
2574	0	0.998
2575	0	0.998
2576	0	1
2577	0	0.98805
2578	0	0.98805
2579	0	0.990018
2580	0	0
2581	0	0
2582	0	0
2583	0	0
2584	0	0
2585	0	0
2586	0	0
2587	0	0
2588	0	0
2589	0	0
2590	0	0
2591	0	0
2592	0	0
2593	0	0
2594	0	0
2595	0	0
2596	0	0
2597	0	0
2598	0	0
2599	0	0
2600	0	0
2601	0	0
2602	0	0
2603	0	0
2604	0	0
2605	0	0
2606	0	0
2607	0	0
2608	0	0
2609	0	0.166667
2610	0	0.166667
2611	0	0.972173
2612	0	0.972175
2613	0	0.3
2614	0	0.457143
2615	0	0.921419
2616	0	0.743368
2617	0	0.2
2618	0	0.2
2619	0	0.2
2620	0	0.0666667
2621	0	0.0666667
2622	0	0.0666667
2623	0	0.0666667
2624	0	0.413547
2625	0	0.413547
2626	0	0.603175
2627	0	0.357532
2628	0	0.417593
2629	0	0.286074
2630	0	0.298402
2631	0	0
2632	0	0
2633	0	0
2634	0	0
2635	0	0
2636	0	0
2637	0	0
2638	0	0
2639	0	0
2640	0	0
2641	0	0
2642	0	0
2643	0	0
2644	0	0
2645	0	0
2646	0	0
2647	0	0
2648	0	0
2649	0	0
2650	0	0
2651	0	0
2652	0	0
2653	0	0
2654	0	0
2655	0	0
2656	0	0
2657	0	0
2658	0	0
2659	0	0
2660	0	0
2661	0	0
2662	0	0
2663	0	0
2664	0	0
2665	0	0
2666	0	0
2667	0	0
2668	0	0
2669	0	0
2670	0	0
2671	0	0
2672	0	0
2673	0	0
2674	0	0
2675	0	0
2676	0	0
2677	0	0
2678	0	0
2679	0	0
2680	0	0
2681	0	0
2682	0	0
2683	0	0
2684	0	0
2685	0	0
2686	0	0
2687	0	0
2688	0	0
2689	0	0
2690	0	0
2691	0	0
2692	0	0
2693	0	0
2694	0	0
2695	0	0
2696	0	0
2697	0	0
2698	0	0
2699	0	0
2700	0	0
2701	0	0
2702	0	0
2703	0	0
2704	0	0
2705	0	0
2706	0	0
2707	0	0
2708	0	0
2709	0	0
2710	0	0
2711	0	0
2712	0	0
2713	0	0
2714	0	0
2715	0	0
2716	0	0
2717	0	0
2718	0	0
2719	0	0
2720	0	0
2721	0	0
2722	0	0
2723	0	0
2724	0	0
2725	0	0
2726	0	0
2727	0	0
2728	0	0
2729	0	0
2730	0	0
2731	0	0
2732	0	0
2733	0	0
2734	0	0
2735	0	0
2736	0	0
2737	0	0
2738	0	0
2739	0	0
2740	0	0
2741	0	0
2742	0	0
2743	0	0
2744	0	0
2745	0	0
2746	0	0
2747	0	0
2748	0	0
2749	0	0
2750	0	0
2751	0	0
2752	0	0
2753	0	0
2754	0	0.484211
2755	0	0.484211
2756	0	0.808057
2757	0	0.933965
2758	0	0.466667
2759	0	0.6
2760	0	0.6
2761	0	1
2762	0	1
2763	0	0.72889
2764	0	0.728103
2765	0	0.725894
2766	0	0.727841
2767	0	0.72908
2768	0	0.47619
2769	0	0
2770	0	0
2771	0	0
2772	0	0
2773	0	0
2774	0	0
2775	0	0
2776	0	0
2777	0	0
2778	0	0
2779	0	0
2780	0	0
2781	0	0
2782	0	0
2783	0	0
2784	0	0
2785	0	0
2786	0	0
2787	0	0
2788	0	0
2789	0	0
2790	0	0
2791	0	0
2792	0	0
2793	0	0
2794	0	0
2795	0	0
2796	0	0
2797	0	0
2798	0	0
2799	0	0
2800	0	0
2801	0	0
2802	0	0
2803	0	0
2804	0	0
2805	0	0
2806	0	0
2807	0	0
2808	0	0
2809	0	0
2810	0	0
2811	0	0
2812	0	0
2813	0	0
2814	0	0
2815	0	0
2816	0	0
2817	0	0
2818	0	0
2819	0	0
2820	0	0
2821	0	0
2822	0	0
2823	0	0
2824	0	0
2825	0	0
2826	0	0.166667
2827	0	0.166667
2828	0	0.1
2829	0	0.1
2830	0	0.1
2831	0	0.0666667
2832	0	0.577085
2833	0	0.5507
2834	0	0.580656
2835	0	0.62955
2836	0	0.612982
2837	0	0.608649
2838	0	0.548468
2839	0	0.436228
2840	0	0.349895
2841	0	0.334998
2842	0	0.137047
2843	0	0.140411
2844	0	0.134414
2845	0	0.0761974
2846	0	0.0944669
2847	0	0.0953058
2848	0	0.0782361
2849	0	0.075641
2850	0	0.579035
2851	0	0.536238
2852	0	0.231925
2853	0	0.0980392
2854	0	0.0980392
2855	0	0.010989
2856	0	0.0128205
2857	0	0.0128205
2858	0	0.0128205
2859	0	0.0128205
2860	0	0.0222222
2861	0	0.0222222
2862	0	0.0277778
2863	0	0.0277778
2864	0	0
2865	0	0
2866	0	0
2867	0	0.116923
2868	0	0.0984615
2869	0	0
2870	0	0.00952381
2871	0	0.0367647
2872	0	0.025
2873	0	0.0881935
2874	0	0.0887949
2875	0	0.44537
2876	0	0.0277778
2877	0	0.0277778
2878	0	0
2879	0	0
2880	0	0
2881	0	0
2882	0	0
2883	0	0
2884	0	0
2885	0	0
2886	0	0
2887	0	0
2888	0	0
2889	0	0
2890	0	0
2891	0	0
2892	0	0
2893	0	0
2894	0	0
2895	0	0
2896	0	0
2897	0	0
2898	0	0
2899	0	0
2900	0	0
2901	0	0
2902	0	0
2903	0	0
2904	0	0
2905	0	0
2906	0	0
2907	0	0.047619
2908	0	0.047619
2909	0	0.0363636
2910	0	0.0757576
2911	0	0.121212
2912	0	0.251737
2913	0	0.37584
2914	0	0
2915	0	0
2916	0	0
2917	0	0
2918	0	0
2919	0	0
2920	0	0
2921	0	0
2922	0	0
2923	0	0
2924	0	0
2925	0	0
2926	0	0
2927	0	0
2928	0	0
2929	0	0
2930	0	0
2931	0	0
2932	0	0
2933	0	0
2934	0	0
2935	0	0
2936	0	0
2937	0	0
2938	0	0
2939	0	0
2940	0	0
2941	0	0
2942	0	0
2943	0	0
2944	0	0
2945	0	0
2946	0	0
2947	0	0
2948	0	0
2949	0	0
2950	0	0
2951	0	0
2952	0	0
2953	0	0
2954	0	0
2955	0	0
2956	0	0
2957	0	0
2958	0	0
2959	0	0
2960	0	0
2961	0	0
2962	0	0
2963	0	0
2964	0	0
2965	0	0
2966	0	0
2967	0	0
2968	0	0
2969	0	0
2970	0	0
2971	0	0
2972	0	0
2973	0	0
2974	0	0
2975	0	0
2976	0	0
2977	0	0
2978	0	0
2979	0	0
2980	0	0
2981	0	0
2982	0	0
2983	0	0
2984	0	0
2985	0	0
2986	0	0
2987	0	0
2988	0	0
2989	0	0
2990	0	0
2991	0	0
2992	0	0
2993	0	0
2994	0	0
2995	0	0
2996	0	0
2997	0	0
2998	0	0
2999	0	0
3000	0	0
3001	0	0
3002	0	0
3003	0	0
3004	0	0
3005	0	0
3006	0	0
3007	0	0
3008	0	0
3009	0	0
3010	0	0
3011	0	0
3012	0	0
3013	0	0
3014	0	0
3015	0	0
3016	0	0
3017	0	0
3018	0	0
3019	0	0
3020	0	0
3021	0	0
3022	0	0
3023	0	0
3024	0	0
3025	0	0
3026	0	0
3027	0	0
3028	0	0
3029	0	0
3030	0	0
3031	0	0
3032	0	0
3033	0	0
3034	0	0
3035	0	0
3036	0	0
3037	0	0
3038	0	0
3039	0	0
3040	0	0
3041	0	0
3042	0	0
3043	0	0
3044	0	0
3045	0	0
3046	0	0
3047	0	0
3048	0	0
3049	0	0
3050	0	0
3051	0	0
3052	1	0
3053	1	0
3054	1	0
3055	1	0
3056	1	0
3057	1	0
3058	1	0
3059	1	0
3060	1	0
3061	0	0
3062	0	0
3063	0	0
3064	0	0
3065	0	0
3066	0	0
3067	0	0
3068	0	0
3069	0	0
3070	0	0
3071	0	0
3072	0	0
3073	0	0
3074	0	0
3075	0	0
3076	0	0
3077	0	0
3078	0	0
3079	0	0
3080	0	0
3081	0	0
3082	0	0
3083	0	0
3084	0	0
3085	0	0
3086	0	0
3087	0	0
3088	0	0
3089	0	0
3090	0	0
3091	0	0
3092	0	0
3093	1	0
3094	1	0
3095	0	0
3096	0	0
3097	0	0
3098	0	0
3099	0	0
3100	0	0
3101	0	0
3102	0	0
3103	0	0
3104	0	0
3105	0	0
3106	0	0
3107	0	0
3108	0	0
3109	0	0
3110	0	0
3111	0	0
3112	0	0
3113	0	0
3114	0	0
3115	0	0
3116	0	0
3117	0	0
3118	0	0
3119	0	0
3120	0	0
3121	0	0
3122	0	0
3123	0	0
3124	0	0
3125	0	0
3126	0	0
3127	0	0
3128	0	0
3129	0	0
3130	0	0
3131	0	0
3132	0	0
3133	0	0
3134	0	0
3135	0	0
3136	0	0
3137	0	0
3138	0	0
3139	0	0
3140	0	0
3141	0	0
3142	0	0
3143	0	0
3144	0	0
3145	0	0
3146	0	0
3147	1	0
3148	1	0
3149	1	0
3150	1	0
3151	1	0
3152	1	0
3153	0	0
3154	0	0
3155	0	0
3156	0	0
3157	0	0
3158	0	0
3159	0	0
3160	0	0
3161	0	0
3162	0	0
3163	0	0
3164	0	0
3165	0	0
3166	0	0
3167	0	0
3168	0	0
3169	0	0
3170	0	0
3171	0	0
3172	0	0
3173	0	0
3174	0	0
3175	0	0
3176	0	0
3177	0	0
3178	0	0
3179	0	0
3180	0	0
3181	0	0
3182	0	0
3183	0	0
3184	0	0
3185	0	0
3186	0	0
3187	0	0
3188	0	0
3189	0	0
3190	0	0
3191	0	0
3192	0	0
3193	0	0
3194	0	0
3195	0	0
3196	0	0
3197	0	0
3198	0	0
3199	0	0
3200	0	0
3201	0	0
3202	0	0
3203	0	0
3204	0	0
3205	0	0
3206	0	0
3207	0	0
3208	0	0
3209	0	0
3210	0	0
3211	0	0
3212	0	0
3213	0	0
3214	0	0
3215	0	0
3216	0	0
3217	0	0
3218	0	0
3219	0	0
3220	0	0
3221	0	0
3222	0	0
3223	0	0
3224	0	0
3225	0	0
3226	0	0
3227	1	0
3228	0	0
3229	0	0
3230	0	0
3231	0	0
3232	0	0
3233	0	0
3234	0	0
3235	0	0
3236	0	0
3237	0	0
3238	0	0
3239	0	0
3240	0	0
3241	0	0
3242	0	0
3243	0	0
3244	1	0
3245	1	0
3246	1	0
3247	1	0
3248	1	0
3249	1	0
3250	0	0
3251	1	0
3252	1	0
3253	0	0
3254	0	0
3255	0	0
3256	0	0
3257	0	0
3258	0	0
3259	0	0
3260	0	0
3261	0	0
3262	1	0
3263	1	0
3264	1	0
3265	0	0
3266	0	0
3267	0	0
3268	0	0
3269	0	0
3270	0	0
3271	0	0
3272	0	0
3273	0	0
3274	0	0
3275	0	0
3276	0	0
3277	0	0
3278	0	0
3279	0	0
3280	0	0
3281	0	0
3282	0	0
3283	0	0
3284	1	0
3285	1	0
3286	1	0
3287	1	0
3288	1	0
3289	1	0
3290	0	0
3291	0	0
3292	0	0
3293	0	0
3294	0	0
3295	0	0
3296	0	0
3297	0	0
3298	0	0
3299	0	0
3300	0	0
3301	0	0
3302	0	0
3303	0	0
3304	0	0
3305	0	0
3306	0	0
3307	0	0
3308	0	0
3309	0	0
3310	0	0
3311	0	0
3312	0	0
3313	0	0
3314	0	0
3315	0	0
3316	0	0
3317	0	0
3318	0	0
3319	0	0
3320	0	0
3321	0	0
3322	0	0
3323	0	0
3324	0	0
3325	0	0
3326	0	0
3327	0	0
3328	0	0
3329	0	0
3330	0	0
3331	0	0
3332	0	0
3333	0	0
3334	0	0
3335	0	0
3336	0	0
3337	0	0
3338	0	0
3339	0	0
3340	0	0
3341	0	0
3342	0	0
3343	0	0
3344	0	0
3345	1	0
3346	1	0
3347	1	0
3348	1	0
3349	1	0
3350	1	0
3351	1	0
3352	1	0
3353	1	0
3354	1	0
3355	1	0
3356	1	0
3357	1	0
3358	0	0
3359	0	0
3360	0	0
3361	0	0
3362	0	0
3363	0	0
3364	0	0
3365	0	0
3366	0	0
3367	0	0
3368	0	0.0307692
3369	0	0.0326087
3370	0	0.0326087
3371	0	0.0362319
3372	0	0.0326087
3373	0	0.0434783
3374	0	0.0396825
3375	0	0.0387097
3376	0	0.0423387
3377	0	0.0516934
3378	0	0.0511034
3379	0	0.0613108
3380	0	0.0915819
3381	0	0.120992
3382	0	0.284521
3383	0	0.372952
3384	0	0.557986
3385	0	0.763684
3386	0	0.768283
3387	0	0.158451
3388	0	0.20929
3389	0	0.236842
3390	0	0.0896552
3391	0	0.1
3392	0	0.0147059
3393	0	0
3394	0	0
3395	0	0
3396	0	0
3397	0	0
3398	0	0
3399	0	0
3400	0	0
3401	0	0
3402	0	0
3403	0	0
3404	0	0
3405	0	0
3406	0	0
3407	0	0
3408	0	0
3409	0	0
3410	0	0
3411	0	0
3412	0	0
3413	0	0
3414	0	0
3415	0	0
3416	0	0
3417	0	0
3418	0	0
3419	0	0
3420	0	0
3421	0	0
3422	0	0
3423	0	0
3424	0	0.915145
3425	0	0.333333
3426	0	0
3427	0	0
3428	0	0
3429	0	0
3430	0	0
3431	0	0
3432	0	0
3433	0	0
3434	0	0
3435	0	0
3436	0	0.85026
3437	0	0.856867
3438	0	0.173913
3439	0	0.0454545
3440	0	0.0454545
3441	0	0.0555556
3442	0	0.0555556
3443	0	0.0555556
3444	0	0.0555556
3445	0	0.0714286
3446	0	0
3447	0	0
3448	0	0
3449	0	0
3450	0	0
3451	0	0
3452	0	0
3453	0	0.181818
3454	0	0.645424
3455	0	0.643479
3456	0	0.634694
3457	0	0.705661
3458	0	0
3459	0	0
3460	0	0
3461	0	0
3462	0	0
3463	0	0
3464	0	0
3465	0	0
3466	0	0
3467	0	0
3468	0	0
3469	0	0
3470	0	0
3471	0	0
3472	0	0
3473	0	0
3474	0	0
3475	0	0
3476	0	0
3477	0	0
3478	0	0
3479	0	0
3480	0	0
3481	0	0
3482	0	0
3483	0	0
3484	0	0
3485	0	0
3486	0	0
3487	0	0
3488	0	0
3489	0	0
3490	0	0
3491	0	0
3492	0	0
3493	0	0
3494	0	0
3495	0	0
3496	0	0
3497	0	0
3498	0	0
3499	0	0
3500	0	0
3501	0	0
3502	0	0
3503	0	0
3504	0	0
3505	0	0
3506	0	0
3507	0	0
3508	0	0
3509	0	0
3510	0	0
3511	0	0
3512	0	0
3513	0	0
3514	0	0
3515	0	0
3516	0	0
3517	0	0
3518	0	0
3519	0	0
3520	0	0
3521	0	0
3522	0	0
3523	0	0
3524	0	0
3525	0	0
3526	0	0
3527	0	0
3528	0	0
3529	0	0
3530	0	0
3531	0	0
3532	0	0
3533	0	0
3534	0	0
3535	0	0
3536	0	0
3537	0	0
3538	0	0
3539	0	0
3540	0	0
3541	0	0
3542	0	0
3543	0	0
3544	0	0
3545	0	0
3546	0	0
3547	0	0
3548	0	0
3549	0	0
3550	0	0
3551	0	0
3552	0	0
3553	0	0
3554	0	0
3555	0	0
3556	0	0
3557	0	0
3558	0	0
3559	0	0
3560	0	0
3561	0	0
3562	0	0
3563	0	0
3564	0	0
3565	0	0
3566	0	0
3567	0	0
3568	0	0
3569	0	0
3570	0	0
3571	0	0
3572	0	0
3573	0	0
3574	0	0
3575	0	0
3576	0	0
3577	0	0
3578	0	0
3579	0	0
3580	0	0
3581	0	0
3582	0	0
3583	0	0
3584	0	0
3585	0	0
3586	0	0
3587	0	0
3588	0	0
3589	0	0
3590	0	0
3591	0	0
3592	0	0
3593	0	0
3594	0	0
3595	0	0
3596	0	0
3597	0	0
3598	0	0
3599	0	0
3600	0	0
3601	0	0
3602	0	0
3603	0	0
3604	0	0
3605	0	0
3606	0	0
3607	0	0
3608	0	0
3609	0	0
3610	0	0
3611	0	0
3612	0	0
3613	0	0
3614	0	0
3615	0	0
3616	0	0
3617	0	0
3618	0	0
3619	0	0
3620	0	0
3621	0	0
3622	0	0
3623	0	0
3624	0	0
3625	0	0
3626	0	0
3627	0	0
3628	0	0
3629	0	0
3630	0	0
3631	0	0
3632	0	0
3633	0	0
3634	0	0
3635	0	0
3636	0	0
3637	0	0
3638	0	0
3639	0	0
3640	0	0
3641	0	0
3642	0	0
3643	0	0
3644	0	0
3645	0	0
3646	0	0
3647	0	0
3648	0	0
3649	0	0
3650	0	0
3651	0	0
3652	0	0
3653	0	0
3654	0	0
3655	0	0
3656	0	0
3657	0	0
3658	0	0
3659	0	0
3660	0	0
3661	0	0
3662	0	0
3663	0	0
3664	0	0
3665	0	0
3666	0	0
3667	0	0
3668	0	0
3669	0	0
3670	0	0
3671	0	0
3672	0	0
3673	0	0
3674	0	0
3675	0	0
3676	0	0
3677	0	0
3678	0	0
3679	0	0
3680	0	0
3681	0	0
3682	0	0
3683	0	0
3684	0	0
3685	0	0
3686	0	0
3687	0	0
3688	0	0
3689	0	0
3690	0	0
3691	0	0
3692	0	0
3693	0	0
3694	0	0
3695	0	0
3696	0	0
3697	0	0
3698	0	0
3699	0	0
3700	0	0
3701	0	0
3702	0	0
3703	0	0
3704	0	0
3705	0	0
3706	0	0
3707	0	0
3708	0	0
3709	0	0
3710	0	0
3711	0	0
3712	0	0
3713	0	0
3714	0	0
3715	0	0
3716	0	0
3717	0	0
3718	0	0
3719	0	0
3720	0	0
3721	0	0
3722	0	0
3723	0	0
3724	0	0
3725	0	0
3726	0	0
3727	0	0
3728	0	0
3729	0	0
3730	0	0
3731	0	0
3732	0	0
3733	0	0
3734	0	0
3735	0	0
3736	0	0
3737	0	0
3738	0	0
3739	0	0
3740	0	0
3741	0	0
3742	0	0
3743	0	0
3744	0	0
3745	0	0
3746	0	0
3747	0	0
3748	0	0
3749	0	0.047619
3750	0	0.047619
3751	0	0.047619
3752	0	0.0357143
3753	0	0.0444444
3754	0	0.0444444
3755	0	0.0444444
3756	0	0.0549451
3757	0	0.0549451
3758	0	0.762557
3759	0	0.136842
3760	0	0.713379
3761	0	0.0222222
3762	0	0.0222222
3763	0	0.0222222
3764	0	0.0222222
3765	0	0.363636
3766	0	0.363636
3767	0	0.363636
3768	0	0.246068
3769	0	0.453763
3770	0	0.710483
3771	0	0.713098
3772	0	0.718875
3773	0	0.66884
3774	0	0.453148
3775	0	0.688227
3776	0	0.698573
3777	0	0.729871
3778	0	0.737741
3779	0	0.755149
3780	0	0.762654
3781	0	0.768913
3782	0	0.726849
3783	0	0.736549
3784	0	0.728947
3785	0	0.71236
3786	0	0.690501
3787	0	0.673838
3788	0	0.659177
3789	0	0.664561
3790	0	0.643461
3791	0	0.53007
3792	0	0.440385
3793	0	0.419053
3794	0	0.373377
3795	0	0.297888
3796	0	0.163265
3797	0	0.154762
3798	0	0.154487
3799	0	0.140244
3800	0	0.125
3801	0	0.0911681
3802	0	0.0701754
3803	0	0.0333333
3804	0	0.0128205
3805	0	0
3806	0	0
3807	0	0
3808	0	0
3809	0	0
3810	0	0.0222222
3811	0	0.0222222
3812	0	0.0222222
3813	0	0.0277778
3814	0	0.047619
3815	0	0
3816	0	0
3817	0	0
3818	0	0
3819	0	0
3820	0	0
3821	0	0
3822	0	0
3823	0	0
3824	0	0
3825	0	0
3826	0	0
3827	0	0
3828	0	0
3829	0	0
3830	0	0
3831	0	0
3832	0	0
3833	0	0
3834	0	0
3835	0	0
3836	0	0
3837	0	0
3838	0	0
3839	0	0
3840	0	0
3841	0	0
3842	0	0
3843	0	0
3844	0	0
3845	0	0
3846	0	0
3847	0	0
3848	0	0
3849	0	0
3850	0	0
3851	0	0
3852	0	0
3853	0	0
3854	0	0
3855	0	0
3856	0	0
3857	0	0
3858	0	0
3859	0	0
3860	0	0
3861	0	0
3862	0	0
3863	0	0
3864	0	0
3865	0	0
3866	0	0
3867	0	0
3868	0	0
3869	0	0
3870	0	0
3871	0	0
3872	0	0
3873	0	0
3874	0	0
3875	0	0
3876	0	0
3877	0	0
3878	0	0
3879	0	0
3880	0	0
3881	0	0
3882	0	0
3883	0	0
3884	0	0
3885	0	0
3886	0	0
3887	0	0
3888	0	0
3889	0	0
3890	0	0
3891	0	0
3892	0	0
3893	0	0
3894	0	0
3895	0	0
3896	0	0
3897	0	0
3898	0	0
3899	0	0
3900	0	0
3901	0	0
3902	0	0
3903	0	0
3904	0	0
3905	0	0
3906	0	0
3907	0	0
3908	0	0
3909	0	0
3910	0	0
3911	0	0
3912	0	0
3913	0	0
3914	0	0
3915	0	0
3916	0	0
3917	0	0
3918	0	0
3919	0	0
3920	0	0
3921	0	0
3922	0	0
3923	0	0
3924	0	0
3925	0	0
3926	0	0
3927	0	0
3928	0	0
3929	0	0
3930	0	0
3931	0	0
3932	0	0
3933	0	0
3934	0	0
3935	0	0
3936	0	0
3937	0	0
3938	0	0
3939	0	0
3940	0	0
3941	0	0
3942	0	0
3943	0	0
3944	0	0
3945	0	0
3946	0	0
3947	0	0
3948	0	0
3949	0	0
3950	0	0
3951	0	0
3952	0	0
3953	0	0
3954	0	0
3955	0	0
3956	0	0
3957	0	0
3958	0	0
3959	0	0
3960	0	0
3961	0	0
3962	0	0
3963	0	0
3964	0	0
3965	0	0
3966	0	0
3967	0	0
3968	0	0
3969	0	0
3970	0	0
3971	0	0
3972	0	0
3973	0	0
3974	0	0
3975	0	0
3976	0	0
3977	0	0
3978	0	0
3979	0	0
3980	0	0
3981	0	0
3982	0	0
3983	0	0
3984	0	0
3985	0	0
3986	0	0
3987	0	0
3988	0	0
3989	0	0
3990	0	0
3991	0	0
3992	0	0
3993	0	0
3994	0	0
3995	0	0
3996	0	0
3997	0	0
3998	0	0
3999	0	0
4000	0	0
4001	0	0
4002	0	0
4003	0	0
4004	0	0
4005	0	0
4006	0	0
4007	0	0
4008	0	0
4009	0	0
4010	0	0
4011	0	0
4012	0	0
4013	0	0
4014	0	0
4015	0	0
4016	0	0
4017	0	0
4018	0	0
4019	0	0
4020	0	0
4021	0	0
4022	0	0
4023	0	0
4024	0	0
4025	0	0
4026	0	0
4027	0	0
4028	0	0
4029	0	0
4030	0	0
4031	0	0
4032	0	0
4033	0	0
4034	0	0
4035	0	0
4036	0	0
4037	0	0
4038	0	0
4039	0	0
4040	0	0
4041	0	0
4042	0	0
4043	0	0
4044	0	0
4045	0	0
4046	0	0
4047	0	0
4048	0	0
4049	0	0
4050	0	0
4051	0	0
4052	0	0
4053	0	0
4054	0	0
4055	0	0
4056	0	0
4057	0	0
4058	0	0
4059	0	0
4060	0	0
4061	0	0
4062	0	0
4063	0	0
4064	0	0
4065	0	0
4066	0	0
4067	0	0
4068	0	0
4069	0	0
4070	0	0
4071	0	0
4072	0	0
4073	0	0
4074	0	0
4075	0	0
4076	0	0
4077	0	0
4078	0	0
4079	0	0
4080	0	0
4081	0	0
4082	0	0
4083	0	0
4084	0	0
4085	0	0
4086	0	0
4087	0	0
4088	0	0
4089	0	0
4090	0	0
4091	0	0
4092	0	0
4093	0	0
4094	0	0
4095	0	0
4096	0	0
4097	0	0
4098	0	0
4099	0	0
4100	0	0
4101	0	0
4102	0	0
4103	1	0
4104	1	0
4105	1	0
4106	0	0
4107	0	0
4108	0	0
4109	0	0
4110	0	0
4111	0	0
4112	0	0
4113	0	0
4114	0	0
4115	0	0
4116	0	0
4117	0	0
4118	0	0
4119	0	0
4120	0	0
4121	0	0
4122	0	0
4123	0	0
4124	0	0
4125	0	0
4126	0	0
4127	0	0
4128	0	0
4129	0	0
4130	1	0
4131	0	0
4132	0	0
4133	0	0
4134	0	0
4135	0	0
4136	0	0
4137	0	0
4138	0	0
4139	0	0
4140	0	0
4141	0	0
4142	0	0
4143	0	0
4144	0	0
4145	0	0
4146	0	0
4147	0	0
4148	0	0
4149	0	0
4150	0	0
4151	0	0
4152	0	0
