Site	ColumnScore	SumOfPairsScore
1	0	0
2	0	0
3	0	0
4	0	0
5	0	0
6	0	0
7	0	0
8	0	0
9	0	0
10	0	0
11	0	0
12	0	0
13	0	0
14	0	0
15	0	0
16	0	0
17	0	0
18	0	0
19	0	0
20	0	0
21	0	0
22	0	0
23	0	0
24	0	0
25	0	0
26	0	0
27	0	0
28	0	0
29	0	0
30	0	0
31	0	0
32	0	0
33	0	0
34	0	0
35	0	0
36	0	0
37	0	0
38	0	0
39	0	0
40	0	0
41	0	0
42	0	0
43	0	0
44	0	0
45	0	0
46	0	0
47	0	0
48	0	0
49	0	0
50	0	0
51	0	0
52	0	0
53	0	0
54	0	0
55	0	0
56	0	0
57	0	0
58	0	0
59	0	0
60	0	0
61	0	0
62	0	0
63	0	0
64	0	0
65	0	0
66	0	0
67	0	0
68	0	0
69	0	0
70	0	0
71	0	0
72	0	0
73	0	0
74	0	0
75	0	0
76	0	0
77	0	0
78	0	0
79	0	0
80	0	0
81	0	0
82	0	0
83	0	0
84	0	0
85	0	0
86	0	0
87	0	0
88	0	0
89	0	0
90	0	0
91	0	0
92	0	0
93	0	0
94	0	0
95	0	0
96	0	0
97	0	0
98	0	0
99	0	0
100	0	0
101	0	0
102	0	0
103	0	0
104	0	0
105	0	0
106	0	0
107	0	0
108	0	0
109	0	0
110	0	0
111	0	0
112	0	0
113	0	0
114	0	0
115	0	0
116	0	0
117	0	0
118	0	0
119	0	0
120	0	0
121	0	0
122	0	0
123	0	0
124	0	0
125	0	0
126	0	0
127	0	0
128	0	0
129	0	0
130	0	0
131	0	0
132	0	0
133	0	0
134	0	0
135	0	0
136	0	0
137	0	0
138	0	0
139	0	0
140	0	0
141	0	0
142	0	0
143	0	0
144	0	0
145	0	0
146	0	0
147	0	0
148	0	0
149	0	0
150	0	0
151	0	0
152	0	0
153	0	0
154	0	0
155	0	0
156	0	0
157	0	0
158	0	0
159	0	0
160	0	0
161	0	0
162	0	0
163	0	0
164	0	0
165	0	0
166	0	0
167	0	0
168	0	0
169	0	0
170	0	0
171	0	0
172	0	0
173	0	0
174	0	0
175	0	0
176	0	0
177	0	0
178	0	0
179	0	0
180	0	0
181	0	0
182	0	0
183	0	0
184	0	0
185	0	0
186	0	0
187	0	0
188	0	0
189	0	0
190	0	0
191	0	0
192	0	0
193	0	0
194	0	0
195	0	0
196	0	0
197	0	0
198	0	0
199	0	0
200	0	0
201	0	0
202	0	0
203	0	0
204	0	0
205	0	0
206	0	0
207	0	0
208	0	0
209	0	0
210	0	0
211	0	0
212	0	0
213	0	0
214	0	0
215	0	0
216	0	0
217	0	0
218	0	0
219	0	0
220	0	0
221	0	0
222	0	0
223	0	0
224	0	0
225	0	0
226	0	0
227	0	0
228	0	0
229	0	0
230	0	0
231	0	0
232	0	0
233	0	0
234	0	0
235	0	0
236	0	0
237	0	0
238	0	0
239	0	0
240	0	0
241	0	0
242	0	0
243	0	0
244	0	0
245	0	0
246	0	0
247	0	0
248	0	0
249	0	0
250	0	0
251	0	0
252	0	0
253	0	0
254	0	0
255	0	0
256	0	0
257	0	0
258	0	0
259	0	0
260	0	0
261	0	0
262	0	0
263	0	0
264	0	0
265	0	0
266	0	0
267	0	0
268	0	0
269	0	0
270	0	0
271	0	0
272	0	0
273	0	0
274	0	0
275	0	0
276	0	0
277	0	0
278	0	0
279	0	0
280	0	0
281	0	0
282	0	0
283	0	0
284	0	0
285	0	0
286	0	0
287	0	0
288	0	0
289	0	0
290	0	0
291	0	0
292	0	0
293	0	0
294	0	0
295	0	0
296	0	0
297	0	0
298	0	0
299	0	0
300	0	0
301	0	0
302	0	0
303	0	0
304	0	0
305	0	0
306	0	0
307	0	0
308	0	0
309	0	0
310	0	0
311	0	0
312	0	0
313	0	0
314	0	0
315	0	0
316	0	0
317	0	0
318	0	0
319	0	0
320	0	0
321	0	0
322	0	0
323	0	0
324	0	0
325	0	0
326	0	0
327	0	0
328	0	0
329	0	0
330	0	0
331	0	0
332	0	0
333	0	0
334	0	0
335	0	0
336	0	0
337	0	0
338	0	0
339	0	0
340	0	0
341	0	0
342	0	0
343	0	0
344	0	0
345	0	0
346	0	0
347	0	0
348	0	0
349	0	0
350	0	0
351	0	0
352	0	0
353	0	0
354	0	0
355	0	0
356	0	0
357	0	0
358	0	0
359	0	0
360	0	0
361	0	0
362	0	0
363	0	0
364	0	0
365	0	0
366	0	0
367	0	0
368	0	0
369	0	0
370	0	0
371	0	0
372	0	0
373	0	0
374	0	0
375	0	0
376	0	0
377	0	0
378	0	0
379	0	0
380	0	0
381	0	0
382	0	0
383	0	0
384	0	0
385	0	0
386	0	0
387	0	0
388	0	0
389	0	0
390	0	0
391	0	0
392	0	0
393	0	0
394	0	0
395	0	0
396	0	0
397	0	0
398	0	0
399	0	0
400	0	0
401	0	0
402	0	0
403	0	0
404	0	0
405	0	0
406	0	0
407	0	0
408	0	0
409	0	0
410	0	0
411	0	0
412	0	0
413	0	0
414	0	0
415	0	0
416	0	0
417	0	0
418	0	0
419	0	0
420	0	0
421	0	0
422	0	0
423	0	0
424	0	0
425	0	0
426	0	0
427	0	0
428	0	0
429	0	0
430	0	0
431	0	0
432	0	0
433	0	0
434	0	0
435	0	0
436	0	0
437	0	0
438	0	0
439	0	0
440	0	0
441	0	0
442	0	0
443	0	0
444	0	0
445	0	0
446	0	0
447	0	0
448	0	0
449	0	0
450	0	0
451	0	0
452	0	0
453	0	0
454	0	0
455	0	0
456	0	0
457	0	0
458	0	0
459	0	0
460	0	0
461	0	0
462	0	0
463	0	0.0357143
464	0	0.0357143
465	0	0.0357143
466	0	0.0357143
467	0	0.0357143
468	0	0.0357143
469	0	0.0357143
470	0	0.0357143
471	0	0.0357143
472	0	0.0357143
473	0	0.0357143
474	0	0.0357143
475	0	0.0357143
476	0	0
477	0	0
478	0	0.0357143
479	0	0.0357143
480	0	0.0357143
481	0	0.0357143
482	0	0.0357143
483	0	0.0357143
484	0	0.0357143
485	0	0.0357143
486	0	0.0357143
487	0	0.0357143
488	0	0.0357143
489	0	0.0357143
490	0	0.0357143
491	0	0.0357143
492	0	0.0357143
493	0	0.0357143
494	0	0.0357143
495	0	0.0357143
496	0	0.0357143
497	0	0.0357143
498	0	0.0357143
499	0	0.0357143
500	0	0.0357143
501	0	0.0357143
502	0	0.0357143
503	0	0.0357143
504	0	0.0357143
505	0	0.0357143
506	0	0.0357143
507	0	0.0357143
508	0	0.0357143
509	0	0.0357143
510	0	0.0357143
511	0	0.0357143
512	0	0.0357143
513	0	0.0357143
514	0	0.0357143
515	0	0.0357143
516	0	0.0357143
517	0	0.0357143
518	0	0.0357143
519	0	0
520	0	0
521	0	0
522	0	0
523	0	0
524	0	0.0357143
525	0	0.0357143
526	0	0.0357143
527	0	0.0357143
528	0	0.0357143
529	0	0.0357143
530	0	0.0357143
531	0	0.0357143
532	0	0.0357143
533	0	0.0357143
534	0	0.0357143
535	0	0.0277778
536	0	0.0277778
537	0	0.0277778
538	0	0.0277778
539	0	0.0277778
540	0	0.0277778
541	0	0.0277778
542	0	0.0277778
543	0	0.0277778
544	0	0.0277778
545	0	0.0277778
546	0	0.0277778
547	0	0.0277778
548	0	0.0277778
549	0	0.0277778
550	0	0.0277778
551	0	0.0277778
552	0	0.0277778
553	0	0.0277778
554	0	0.0277778
555	0	0.0277778
556	0	0.0277778
557	0	0.0277778
558	0	0.0277778
559	0	0.0277778
560	0	0.0277778
561	0	0.0277778
562	0	0.0277778
563	0	0.0277778
564	0	0.0277778
565	0	0.0277778
566	0	0.0277778
567	0	0.0277778
568	0	0.0277778
569	0	0.0277778
570	0	0.0277778
571	0	0.0277778
572	0	0.0222222
573	0	0.0222222
574	0	0.0222222
575	0	0.0222222
576	0	0.0222222
577	0	0.0222222
578	0	0.0222222
579	0	0.0181818
580	0	0.0181818
581	0	0.0181818
582	0	0.0181818
583	0	0.0181818
584	0	0.0181818
585	0	0.0181818
586	0	0.0181818
587	0	0.0181818
588	0	0.0181818
589	0	0.0181818
590	0	0.0181818
591	0	0.0181818
592	0	0.0181818
593	0	0.0181818
594	0	0.0181818
595	0	0.0181818
596	0	0.0181818
597	0	0.0181818
598	0	0.0181818
599	0	0.0181818
600	0	0.0181818
601	0	0.0181818
602	0	0.0181818
603	0	0.0181818
604	0	0.0181818
605	0	0.0181818
606	0	0.0363636
607	0	0.0363636
608	0	0.0363636
609	0	0.0363636
610	0	0.0363636
611	0	0.0363636
612	0	0.0363636
613	0	0.0181818
614	0	0.0181818
615	0	0.0181818
616	0	0.0181818
617	0	0.0181818
618	0	0.0181818
619	0	0.0181818
620	0	0.0181818
621	0	0.0222222
622	0	0.0222222
623	0	0.0222222
624	0	0.0222222
625	0	0.0128205
626	0	0.0128205
627	0	0.0128205
628	0	0.0128205
629	0	0.0128205
630	0	0.0128205
631	0	0.0128205
632	0	0.00952381
633	0	0.00952381
634	0	0.0190476
635	0	0.0190476
636	0	0.0190476
637	0	0.0190476
638	0	0.0166667
639	0	0.0190476
640	0	0.0190476
641	0	0.0166667
642	0	0.0166667
643	0	0.0166667
644	0	0.00735294
645	0	0.0147059
646	0	0.0220588
647	0	0.0220588
648	0	0.0220588
649	0	0.0196078
650	0	0.0196078
651	0	0.0196078
652	0	0.0196078
653	0	0.0116959
654	0	0.0175439
655	0	0.0116959
656	0	0.0116959
657	0	0.0116959
658	0	0.0116959
659	0	0.00584795
660	0	0.00790514
661	0	0.00790514
662	0	0.0158103
663	0	0.00724638
664	0	0.00724638
665	0	0.00395257
666	0	0.00362319
667	0	0.00395257
668	0	0.004329
669	0	0.004329
670	0	0.00395257
671	0	0.00395257
672	0	0.00395257
673	0	0.00724638
674	0	0.00615385
675	0	0.00333333
676	0	0.00333333
677	0	0
678	0	0.00615385
679	0	0.00569801
680	0	0.00529101
681	0	0.016092
682	0	0.0213904
683	0	0.0213904
684	0	0.0201681
685	0	0.0231729
686	0	0.022942
687	0	0.0243902
688	0	0.0388529
689	0	0.0873828
690	0	0.0860759
691	0	0.137358
692	0	0.101822
693	0	0.210503
694	0	0.527273
695	0	0.138968
696	0	0.0631229
697	0	0.0623679
698	0	0.140951
699	0	0.112403
700	0	0.115377
701	0	0.176667
702	0	0.120396
703	0	0.0875957
704	0	0.5
705	0	0.5
706	0	0.0907107
707	0	0.3
708	0	0.101029
709	0	0.131339
710	0	0.205882
711	0	0.205882
712	0	0.0848496
713	0	0.122024
714	0	0.0583426
715	0	0.0478929
716	0	0.0957683
717	0	0
718	0	0
719	0	0
720	0	0.0357143
721	0	0
722	0	0
723	0	0
724	0	0.0357143
725	0	0
726	0	0
727	0	0.0783585
728	0	0.204762
729	0	0.055793
730	0	0.170398
731	0	0.186431
732	0	0.00526316
733	0	0
734	0	0
735	0	0
736	0	0
737	0	0
738	0	0
739	0	0
740	0	0
741	0	0
742	0	0.0128205
743	0	0.0128205
744	0	0.0128205
745	0	0.244012
746	0	0.248719
747	0	0.237955
748	0	0.187151
749	0	0.0368421
750	0	0.0441176
751	0	0
752	0	0
753	0	0.0671937
754	0	0.308715
755	0	0.25
756	0	0.258768
757	0	0.20802
758	0	0
759	0	0
760	0	0
761	0	0
762	0	0
763	0	0
764	0	0
765	0	0
766	0	0
767	0	0
768	0	0
769	0	0
770	0	0
771	0	0
772	0	0
773	0	0
774	0	0
775	0	0
776	0	0
777	0	0
778	0	0
779	0	0
780	0	0
781	0	0
782	0	0
783	0	0
784	0	0
785	0	0
786	0	0
787	0	0
788	0	0
789	0	0
790	0	0
791	0	0
792	0	0
793	0	0
794	0	0
795	0	0
796	0	0.203569
797	0	0.234564
798	0	0
799	0	0
800	0	0
801	0	0
802	0	0.240051
803	0	0.0315789
804	0	0.0315789
805	0	0.0368421
806	0	0.0368421
807	0	0.324842
808	0	0.530707
809	0	0
810	0	0
811	0	0
812	0	0
813	0	0.0363636
814	0	0.0363636
815	0	0
816	0	0
817	0	0
818	0	0
819	0	0
820	0	0
821	0	0
822	0	0
823	0	0
824	0	0
825	0	0
826	0	0
827	0	0
828	0	0
829	0	0
830	0	0
831	0	0
832	0	0
833	0	0
834	0	0
835	0	0
836	0	0
837	0	0
838	0	0
839	0	0
840	0	0
841	0	0
842	0	0
843	0	0.047619
844	0	0.423471
845	0	0.383079
846	0	0
847	0	0
848	0	0
849	0	0
850	0	0
851	0	0
852	0	0
853	0	0
854	0	0.438811
855	0	0
856	0	0
857	0	0
858	0	0
859	0	0
860	0	0
861	0	0
862	0	0
863	0	0
864	0	0
865	0	0
866	0	0
867	0	0
868	0	0
869	0	0
870	0	0
871	0	0
872	0	0
873	0	0
874	0	0
875	0	0
876	0	0
877	0	0
878	0	0
879	0	0
880	0	0
881	0	0
882	0	0
883	0	0
884	0	0
885	0	0
886	0	0
887	0	0
888	0	0
889	0	0
890	0	0
891	0	0
892	0	0
893	0	0
894	0	0
895	0	0
896	0	0
897	0	0
898	0	0
899	0	0
900	0	0
901	0	0
902	0	0
903	0	0
904	0	0
905	0	0
906	0	0
907	0	0
908	0	0
909	0	0
910	0	0
911	0	0
912	0	0
913	0	0
914	0	0
915	0	0
916	0	0
917	0	0
918	0	0
919	0	0
920	0	0
921	0	0
922	0	0
923	0	0
924	0	0
925	0	0
926	0	0
927	0	0
928	0	0
929	0	0
930	0	0
931	0	0
932	0	0
933	0	0
934	0	0
935	0	0
936	0	0
937	0	0
938	0	0
939	0	0
940	0	0
941	0	0
942	0	0
943	0	0
944	0	0.613364
945	0	0
946	0	0
947	0	0
948	0	0
949	0	0
950	0	0
951	0	0
952	0	0
953	0	0
954	0	0
955	0	0
956	0	0
957	0	0.010989
958	0	0.0147059
959	0	0.00952381
960	0	0.742959
961	0	0.583109
962	0	0.0181818
963	0	0.181818
964	0	0.128655
965	0	0.0128205
966	0	0.0128205
967	0	0.0151515
968	0	0.0151515
969	0	0.0285714
970	0	0.749586
971	0	0.696308
972	0	0.408263
973	0	0.347764
974	0	0.447382
975	0	0.317754
976	0	0.116923
977	0	0.101538
978	0	0.0661765
979	0	0.0454545
980	0	0.0757576
981	0	0.0757576
982	0	0.0606061
983	0	0.0606061
984	0	0.221675
985	0	0.221675
986	0	0.0545455
987	0	0.0545455
988	0	0.0545455
989	0	0.0181818
990	0	0.0181818
991	0	0.0222222
992	0	0.0222222
993	0	0.030303
994	0	0.0363636
995	0	0.0444444
996	0	0.0555556
997	0	0.111111
998	0	0.0727273
999	0	0.0727273
1000	0	0.0727273
1001	0	0.0727273
1002	0	0.127273
1003	0	0.127273
1004	0	0.127273
1005	0	0.127273
1006	0	0.127273
1007	0	0.127273
1008	0	0.127273
1009	0	0.161765
1010	0	0.047619
1011	0	0.0555556
1012	0	0.0444444
1013	0	0.0444444
1014	0	0.0549451
1015	0	0.107834
1016	0	0.0865843
1017	0	0.235021
1018	0	0.235021
1019	0	0.0986874
1020	0	0.0130719
1021	0	0.0130719
1022	0	0.0196078
1023	0	0.0196078
1024	0	0.127516
1025	0	0.0166667
1026	0	0.01
1027	0	0.00666667
1028	0	0.108112
1029	0	0.0930658
1030	0	0.1017
1031	0	0.0786487
1032	0	0.0246305
1033	0	0.0735033
1034	0	0.00985222
1035	0	0.00985222
1036	0	0.0147783
1037	0	0.0147783
1038	0	0.0150538
1039	0	0.0151515
1040	0	0.0529791
1041	0	0.209677
1042	0	0.0541872
1043	0	0.0508016
1044	0	0.112548
1045	0	0.108434
1046	0	0.106377
1047	0	0.0603896
1048	0	0.0671001
1049	0	0.0826912
1050	0	0.0695447
1051	0	0.0753194
1052	0	0.0819672
1053	0	0.0853107
1054	0	0.0853107
1055	0	0.111378
1056	0	0.0925771
1057	0	0.0585317
1058	0	0.0628415
1059	0	0.0689655
1060	0	0.0695489
1061	0	0.13614
1062	0	0.13281
1063	0	0.128702
1064	0	0.123599
1065	0	0.101226
1066	0	0.110146
1067	0	0.0803801
1068	0	0.125067
1069	0	0.150661
1070	0	0.131724
1071	0	0.0672926
1072	0	0.0681229
1073	0	0.0803279
1074	0	0.0777323
1075	0	0.103719
1076	0	0.107989
1077	0	0
1078	0	0
1079	0	0
1080	0	0
1081	0	0
1082	0	0
1083	0	0
1084	0	0
1085	0	0
1086	0	0
1087	0	0
1088	0	0
1089	0	0
1090	0	0
1091	0	0
1092	0	0
1093	0	0
1094	0	0
1095	0	0
1096	0	0
1097	0	0
1098	0	0
1099	0	0
1100	0	0
1101	0	0
1102	0	0
1103	0	0
1104	0	0
1105	0	0
1106	0	0
1107	0	0
1108	0	0
1109	0	0
1110	0	0
1111	0	0
1112	0	0.134785
1113	0	0.123658
1114	0	0.00952381
1115	0	0.0190476
1116	0	0.0196078
1117	0	0.00653595
1118	0	0.153717
1119	0	0.227794
1120	0	0.234575
1121	0	0
1122	0	0
1123	0	0
1124	0	0.155374
1125	0	0
1126	0	0
1127	0	0.0369458
1128	0	0.13063
1129	0	0.170052
1130	0	0.157895
1131	0	0.152497
1132	0	0.152497
1133	0	0.155196
1134	0	0.249348
1135	0	0.249826
1136	0	0.25908
1137	0	0.249015
1138	0	0.21061
1139	0	0.20312
1140	0	0.202613
1141	0	0.167285
1142	0	0.246703
1143	0	0.371283
1144	0	0.281912
1145	0	0.171765
1146	0	0.118947
1147	0	0.471045
1148	0	0.0862069
1149	0	0.104615
1150	0	0.512551
1151	0	0.0659537
1152	0	0.0982456
1153	0	0.1036
1154	0	0.00584795
1155	0	0.00584795
1156	0	0.0316206
1157	0	0.0688172
1158	0	0.17325
1159	0	0.169994
1160	0	0.177674
1161	0	0.177674
1162	0	0.117362
1163	0	0.140853
1164	0	0.189029
1165	0	0.213298
1166	0	0.285714
1167	0	0.285714
1168	0	0.285714
1169	0	0.224182
1170	0	0.0487395
1171	0	0.055914
1172	0	0.0430108
1173	0	0.0390805
1174	0	0.0263158
1175	0	0.0116959
1176	0	0.0196078
1177	0	0.00833333
1178	0	0.025
1179	0	0.0409357
1180	0	0.413131
1181	0	0.15786
1182	0	0.171544
1183	0	0.31859
1184	0	0.340107
1185	0	0
1186	0	0
1187	0	0
1188	0	0
1189	0	0
1190	0	0
1191	0	0
1192	0	0
1193	0	0
1194	0	0
1195	0	0.0142248
1196	0	0.0113798
1197	0	0.0128023
1198	0	0.0134953
1199	0	0.00750751
1200	0	0.722722
1201	0	0.725645
1202	0	0.209524
1203	0	0.75
1204	0	0.146711
1205	0	0.600921
1206	0	0.592775
1207	0	0
1208	0	0
1209	0	0
1210	0	0
1211	0	0
1212	0	0
1213	0	0
1214	0	0
1215	0	0
1216	0	0
1217	0	0
1218	0	0
1219	0	0
1220	0	0
1221	0	0
1222	0	0
1223	0	0
1224	0	0
1225	0	0
1226	0	0
1227	0	0
1228	0	0
1229	0	0
1230	0	0
1231	0	0
1232	0	0
1233	0	0
1234	0	0
1235	0	0
1236	0	0
1237	0	0
1238	0	0
1239	0	0.0454545
1240	0	0.0735294
1241	0	0.660198
1242	0	0
1243	0	0
1244	0	0
1245	0	0
1246	0	0.364211
1247	0	0.0769231
1248	0	0.337396
1249	0	0.279355
1250	0	0.258994
1251	0	0
1252	0	0
1253	0	0
1254	0	0
1255	0	0
1256	0	0
1257	0	0
1258	0	0
1259	0	0
1260	0	0
1261	0	0
1262	0	0
1263	0	0
1264	0	0
1265	0	0
1266	0	0
1267	0	0
1268	0	0
1269	0	0
1270	0	0
1271	0	0
1272	0	0
1273	0	0
1274	0	0
1275	0	0.247256
1276	0	0.224161
1277	0	0.160971
1278	0	0.122331
1279	0	0.546804
1280	0	0
1281	0	0
1282	0	0
1283	0	0
1284	0	0
1285	0	0
1286	0	0
1287	0	0
1288	0	0
1289	0	0
1290	0	0
1291	0	0
1292	0	0
1293	0	0
1294	0	0
1295	0	0
1296	0	0
1297	0	0
1298	0	0
1299	0	0
1300	0	0
1301	0	0
1302	0	0
1303	0	0
1304	0	0
1305	0	0
1306	0	0
1307	0	0
1308	0	0.142364
1309	0	0.149941
1310	0	0.109632
1311	0	0.116474
1312	0	0.0412698
1313	0	0.039039
1314	0	0.0905312
1315	0	0.0973705
1316	0	0.0642258
1317	0	0.27451
1318	0	0.207792
1319	0	0.207792
1320	0	0.0771015
1321	0	0.0684671
1322	0	0.0898204
1323	0	0.154558
1324	0	0.105456
1325	0	0.144163
1326	0	0.152854
1327	0	0.167892
1328	0	0.391811
1329	0	0.110953
1330	0	0.358112
1331	0	0.459759
1332	0	0.303968
1333	0	0.299527
1334	0	0.298381
1335	0	0.312461
1336	0	0.311985
1337	0	0
1338	0	0
1339	0	0
1340	0	0
1341	0	0
1342	0	0
1343	0	0
1344	0	0
1345	0	0
1346	0	0
1347	0	0
1348	0	0
1349	0	0
1350	0	0
1351	0	0
1352	0	0
1353	0	0
1354	0	0
1355	0	0
1356	0	0
1357	0	0
1358	0	0
1359	0	0
1360	0	0
1361	0	0
1362	0	0
1363	0	0
1364	0	0
1365	0	0
1366	0	0
1367	0	0
1368	0	0
1369	0	0
1370	0	0
1371	0	0
1372	0	0
1373	0	0
1374	0	0
1375	0	0
1376	0	0
1377	0	0
1378	0	0
1379	0	0
1380	0	0
1381	0	0
1382	0	0
1383	0	0
1384	0	0
1385	0	0
1386	0	0
1387	0	0
1388	0	0
1389	0	0
1390	0	0
1391	0	0
1392	0	0
1393	0	0
1394	0	0
1395	0	0
1396	0	0
1397	0	0
1398	0	0
1399	0	0
1400	0	0
1401	0	0
1402	0	0
1403	0	0
1404	0	0
1405	0	0
1406	0	0
1407	0	0
1408	0	0
1409	0	0
1410	0	0
1411	0	0
1412	0	0
1413	0	0
1414	0	0
1415	0	0
1416	0	0
1417	0	0
1418	0	0
1419	0	0
1420	0	0
1421	0	0
1422	0	0
1423	0	0
1424	0	0
1425	0	0
1426	0	0
1427	0	0
1428	0	0
1429	0	0
1430	0	0
1431	0	0
1432	0	0
1433	0	0
1434	0	0
1435	0	0
1436	0	0
1437	0	0
1438	0	0
1439	0	0
1440	0	0
1441	0	0
1442	0	0
1443	0	0
1444	0	0
1445	0	0
1446	0	0
1447	0	0
1448	0	0.0222222
1449	0	0.732993
1450	0	0.0220588
1451	0	0.0220588
1452	0	0.0220588
1453	0	0.363234
1454	0	0.25176
1455	0	0.25176
1456	0	0.609083
1457	0	0
1458	0	0
1459	0	0.0666667
1460	0	0.48959
1461	0	0.476106
1462	0	0.348939
1463	0	0.0780399
1464	0	0.5174
1465	0	0.00362319
1466	0	0.00333333
1467	0	0.00395257
1468	0	0.00790514
1469	0	0.004329
1470	0	0.172599
1471	0	0.239271
1472	0	0
1473	0	0
1474	0	0.0722807
1475	0	0.0255517
1476	0	0.018583
1477	0	0.018583
1478	0	0.0190275
1479	0	0.308062
1480	0	0.308113
1481	0	0.343281
1482	0	0.0298604
1483	0	0.031635
1484	0	0.190919
1485	0	0
1486	0	0
1487	0	0
1488	0	0
1489	0	0
1490	0	0
1491	0	0
1492	0	0
1493	0	0
1494	0	0
1495	0	0
1496	0	0
1497	0	0
1498	0	0
1499	0	0
1500	0	0
1501	0	0
1502	0	0
1503	0	0
1504	0	0
1505	0	0
1506	0	0
1507	0	0
1508	0	0
1509	0	0
1510	0	0
1511	0	0
1512	0	0
1513	0	0
1514	0	0
1515	0	0
1516	0	0
1517	0	0
1518	0	0
1519	0	0
1520	0	0
1521	0	0
1522	0	0
1523	0	0
1524	0	0
1525	0	0
1526	0	0
1527	0	0
1528	0	0
1529	0	0
1530	0	0
1531	0	0
1532	0	0
1533	0	0
1534	0	0
1535	0	0
1536	0	0
1537	0	0
1538	0	0
1539	0	0
1540	0	0
1541	0	0
1542	0	0
1543	0	0
1544	0	0
1545	0	0
1546	0	0
1547	0	0
1548	0	0
1549	0	0
1550	0	0
1551	0	0
1552	0	0
1553	0	0
1554	0	0
1555	0	0
1556	0	0
1557	0	0
1558	0	0.267486
1559	0	0.298072
1560	0	0.0400467
1561	0	0.125
1562	0	0.211617
1563	0	0.18932
1564	0	0.0451936
1565	0	0.0473375
1566	0	0.211771
1567	0	0.0714286
1568	0	0.0714286
1569	0	0.0714286
1570	0	0.0666667
1571	0	0.0666667
1572	0	0.0666667
1573	0	0.10075
1574	0	0.110795
1575	0	0.249306
1576	0	0.142217
1577	0	0.305186
1578	0	0.173607
1579	0	0.418964
1580	0	0.414312
1581	0	0.426959
1582	0	0.51285
1583	0	0.509797
1584	0	0.333333
1585	0	0.333333
1586	0	0.333333
1587	0	0.333333
1588	0	0.333333
1589	0	0.266667
1590	0	0.134338
1591	0	0.385308
1592	0	1
1593	0	1
1594	0	1
1595	0	1
1596	0	1
1597	0	1
1598	0	0.466667
1599	0	0.13
1600	0	0.0622397
1601	0	0.185814
1602	0	0.191005
1603	0	0.115789
1604	0	0.115789
1605	0	0.0578947
1606	0	0.0550521
1607	0	0.388543
1608	0	0.443265
1609	0	0
1610	0	0
1611	0	0
1612	0	0
1613	0	0
1614	0	0
1615	0	0
1616	0	0
1617	0	0
1618	0	0
1619	0	0
1620	0	0.835851
1621	0	0.341198
1622	0	0.653413
1623	0	0
1624	0	0
1625	0	0
1626	0	0
1627	0	0
1628	0	0.0277778
1629	0	0.0955882
1630	0	0.147727
1631	0	0.230188
1632	0	0.204286
1633	0	0.18875
1634	0	0.204762
1635	0	0.204762
1636	0	0.314286
1637	0	0.156691
1638	0	0.128485
1639	0	0.115873
1640	0	0.119048
1641	0	0.122222
1642	0	0.114286
1643	0	0.100869
1644	0	0.107314
1645	0	0.0418115
1646	0	0.0519888
1647	0	0.0517869
1648	0	0.0282954
1649	0	0.0276452
1650	0	0.0306677
1651	0	0.0312808
1652	0	0.0334015
1653	0	0.052417
1654	0	0.0476142
1655	0	0.0575877
1656	0	0.0562621
1657	0	0.0690924
1658	0	0.0650667
1659	0	0.25
1660	0	0.25
1661	0	0.316667
1662	0	0.0711114
1663	0	0.124504
1664	0	0.162951
1665	0	0.191627
1666	0	0.201155
1667	0	0.216405
1668	0	0.133353
1669	0	0.167958
1670	0	0.187762
1671	0	0.244125
1672	0	0.164103
1673	0	0
1674	0	0
1675	0	0
1676	0	0
1677	0	0
1678	0	0
1679	0	0
1680	0	0
1681	0	0.333333
1682	0	0.333333
1683	0	0.333333
1684	0	0
1685	0	0
1686	0	0
1687	0	0
1688	0	0
1689	0	0.166667
1690	0	0.1
1691	0	0.1
1692	0	0.3
1693	0	0.3
1694	0	0.2
1695	0	0.142857
1696	0	0.194444
1697	0	0.188915
1698	0	0.236495
1699	0	0.245082
1700	0	0.459816
1701	0	0.72279
1702	0	0.559077
1703	0	0.848648
1704	0	0.910148
1705	0	0.912121
1706	0	0.912121
1707	0	0.920534
1708	0	0.920838
1709	0	0.924382
1710	0	0.926158
1711	0	0.936938
1712	0	0.933368
1713	0	0.935151
1714	0	0.142857
1715	0	0.190476
1716	0	0.0952381
1717	0	0
1718	0	0
1719	0	0
1720	0	0
1721	0	0
1722	0	0
1723	1	0
1724	1	0
1725	1	0
1726	1	0
1727	1	0
1728	1	0
1729	1	0
1730	0	0
1731	0	0
1732	0	0
1733	0	0
1734	0	0.996308
1735	0	0.99447
1736	0	0.99447
1737	0	0.99447
1738	0	0.99447
1739	0	0.99447
1740	0	0.99447
1741	0	0.99447
1742	0	0
1743	0	0.992644
1744	0	0.99448
1745	0	0.99448
1746	0	0.99448
1747	0	0.99448
1748	0	0.996315
1749	0	0.996315
1750	0	0.996315
1751	0	0.996315
1752	0	0.996315
1753	0	0.996315
1754	0	0.994485
1755	0	0.994485
1756	0	0.990819
1757	0	0
1758	0	0
1759	0	0.99265
1760	0	0.990817
1761	0	1
1762	0	0.99818
1763	0	0.99818
1764	0	0.994555
1765	0	0.994555
1766	0	0.994555
1767	0	0.994545
1768	0	1
1769	0	0.689422
1770	0	0.738071
1771	0	0.98006
1772	0	0.47619
1773	0	0.666667
1774	0	0.666667
1775	0	0.666667
1776	0	0.666667
1777	0	0.996355
1778	0	0.998182
1779	0	0.998182
1780	0	0.99818
1781	0	0
1782	0	0.610805
1783	0	1
1784	0	0.996377
1785	0	0.996377
1786	0	0.996377
1787	0	0.996377
1788	0	0.996377
1789	1	0
1790	1	0
1791	1	0
1792	1	0
1793	1	0
1794	1	0
1795	1	0
1796	1	0
1797	1	0
1798	1	0
1799	1	0
1800	1	0
1801	1	0
1802	1	0
1803	1	0
1804	1	0
1805	1	1
1806	1	1
1807	1	1
1808	1	1
1809	0	0.996377
1810	0	0.996377
1811	0	0.996377
1812	0	0.996377
1813	0	0.996377
1814	0	0.994567
1815	1	0
1816	1	0
1817	1	0
1818	1	0
1819	1	0
1820	1	0
1821	1	0
1822	1	0
1823	1	0
1824	1	0
1825	1	0
1826	1	0
1827	0	0
1828	0	0.996377
1829	0	0.996377
1830	0	0.996374
1831	0	0.994562
1832	0	0.994562
1833	0	0.99637
1834	0	0.99637
1835	0	0.992747
1836	1	1
1837	1	1
1838	1	1
1839	1	1
1840	1	1
1841	1	1
1842	1	1
1843	1	1
1844	0	0.992747
1845	0	0.611111
1846	0	0.983762
1847	0	0.983747
1848	0	0
1849	0	0
1850	0	0.978795
1851	0	0.333333
1852	0	0.824438
1853	0	0.788196
1854	0	0.833333
1855	0	1
1856	0	1
1857	0	0.996383
1858	0	0.996383
1859	0	0.996383
1860	0	0.996383
1861	0	0.99638
1862	0	0.99638
1863	0	0.99638
1864	0	0.99638
1865	0	0.99638
1866	0	0.99638
1867	0	0.99638
1868	0	0.99638
1869	0	0.99638
1870	0	0.99638
1871	1	1
1872	0	0.99638
1873	0	0.99638
1874	0	0.99638
1875	0	0.99638
1876	0	0.99638
1877	0	0.994572
1878	0	0.996377
1879	0	0.996377
1880	0	0.996377
1881	0	0.996377
1882	0	0.996377
1883	0	0.996377
1884	0	1
1885	0	1
1886	0	1
1887	0	1
1888	0	0.994572
1889	0	0.994572
1890	0	0
1891	1	0
1892	1	0
1893	0	0.992765
1894	1	1
1895	0	1
1896	1	1
1897	1	1
1898	1	1
1899	1	1
1900	1	1
1901	1	1
1902	1	1
1903	1	1
1904	1	1
1905	1	1
1906	1	1
1907	1	1
1908	1	1
1909	1	1
1910	1	1
1911	1	1
1912	1	1
1913	1	1
1914	1	1
1915	1	1
1916	1	1
1917	1	1
1918	1	1
1919	1	1
1920	1	1
1921	1	1
1922	0	1
1923	1	1
1924	1	1
1925	1	1
1926	1	1
1927	1	1
1928	1	1
1929	1	1
1930	1	1
1931	0	1
1932	0	0.998182
1933	0	0.998182
1934	1	1
1935	1	1
1936	1	1
1937	1	1
1938	1	1
1939	0	1
1940	1	1
1941	1	1
1942	1	1
1943	1	1
1944	1	1
1945	1	1
1946	0	1
1947	0	0.99456
1948	1	1
1949	1	1
1950	1	1
1951	1	1
1952	0	0.99817
1953	0	1
1954	0	1
1955	1	1
1956	1	1
1957	1	1
1958	1	1
1959	1	1
1960	1	1
1961	1	1
1962	1	1
1963	1	1
1964	1	1
1965	1	1
1966	1	1
1967	1	1
1968	1	1
1969	1	1
1970	1	1
1971	1	1
1972	1	1
1973	1	1
1974	0	1
1975	0	1
1976	0	0.556452
1977	0	0.937082
1978	0	0.986014
1979	0	0.71931
1980	1	0
1981	1	0
1982	0	0.355556
1983	0	0.362431
1984	0	0.333333
1985	0	0.896753
1986	0	0.780245
1987	0	0.417696
1988	0	0.37987
1989	0	0.767742
1990	0	0.6611
1991	0	0.784314
1992	0	0.888889
1993	0	0.954903
1994	0	0.848391
1995	0	0.952395
1996	0	1
1997	0	0.994575
1998	0	0.994575
1999	0	0.994575
2000	0	0.994575
2001	1	1
2002	1	1
2003	1	1
2004	0	1
2005	0	1
2006	0	1
2007	0	0.333333
2008	0	0
2009	1	1
2010	0	0.998188
2011	1	1
2012	1	1
2013	1	1
2014	1	1
2015	1	1
2016	1	1
2017	1	1
2018	1	1
2019	1	1
2020	0	1
2021	0	0.548507
2022	0	1
2023	0	0.777778
2024	0	0.886486
2025	0	0.856012
2026	1	1
2027	1	1
2028	1	1
2029	1	1
2030	1	1
2031	1	1
2032	1	1
2033	1	1
2034	1	1
2035	1	1
2036	1	1
2037	1	1
2038	0	1
2039	1	1
2040	1	1
2041	1	1
2042	1	1
2043	1	1
2044	1	1
2045	1	1
2046	0	1
2047	0	1
2048	1	1
2049	1	1
2050	1	1
2051	1	1
2052	0	1
2053	0	1
2054	0	1
2055	0	1
2056	0	1
2057	0	1
2058	0	0.994096
2059	0	0
2060	0	0
2061	0	0
2062	0	0
2063	0	0
2064	0	0
2065	0	1
2066	0	0.848167
2067	1	1
2068	0	0.998182
2069	1	1
2070	1	1
2071	1	1
2072	1	1
2073	1	1
2074	1	1
2075	1	1
2076	1	1
2077	0	1
2078	0	0.996369
2079	0	0.992208
2080	0	0
2081	0	0
2082	0	0
2083	0	0.949718
2084	0	0.994302
2085	1	1
2086	1	1
2087	1	0
2088	1	1
2089	1	1
2090	1	1
2091	1	1
2092	1	1
2093	1	1
2094	0	1
2095	0	0.992749
2096	0	0.992749
2097	0	0.992749
2098	0	0.990939
2099	0	0.990668
2100	0	1
2101	0	0.714286
2102	0	0.444444
2103	0	0.282051
2104	0	0.241758
2105	0	0.209524
2106	0	0.163399
2107	0	0.136842
2108	0	0.114625
2109	0	0.0925926
2110	0	0.881664
2111	0	0.848616
2112	0	0.838548
2113	0	0.960784
2114	0	0.8
2115	0	0.8
2116	0	0.214286
2117	0	0.333333
2118	0	0.333333
2119	0	0.333333
2120	0	0.333333
2121	0	0.333333
2122	0	0
2123	0	0
2124	0	0
2125	0	0.0666667
2126	0	0.194444
2127	0	0.194444
2128	0	0.166667
2129	0	0.748881
2130	0	0.916667
2131	0	0.916667
2132	0	0.303464
2133	0	0.19583
2134	0	0.538671
2135	0	0.125
2136	0	0.124731
2137	0	0.083871
2138	0	0.0795699
2139	0	0.0537634
2140	0	0.229183
2141	0	0.174492
2142	0	0.181597
2143	0	0.717949
2144	0	0.487179
2145	0	0.487179
2146	0	0.133266
2147	0	0.860627
2148	0	0.216884
2149	0	0.198511
2150	0	0.157441
2151	0	0.166667
2152	0	0.166667
2153	0	0
2154	0	0
2155	0	0
2156	0	0
2157	0	0
2158	0	0
2159	0	0
2160	0	0
2161	0	0
2162	0	0
2163	0	0
2164	0	0
2165	0	0
2166	0	0
2167	0	0
2168	0	0
2169	0	0.214286
2170	0	0.0833333
2171	0	0.182699
2172	0	0.248945
2173	0	0.319304
2174	0	0.35443
2175	0	0.459103
2176	0	0.470753
2177	0	0.0233918
2178	0	0.0441176
2179	0	0.319838
2180	0	0.341394
2181	0	0.339972
2182	0	0.339972
2183	0	0.339972
2184	0	0.0666667
2185	0	0.2
2186	0	0.2
2187	0	0.2
2188	0	0.2
2189	0	0.2
2190	0	0.2
2191	0	0.434732
2192	0	0.754839
2193	0	0.754839
2194	0	0.754839
2195	0	0.754839
2196	0	0.461222
2197	0	0.447368
2198	0	0.489474
2199	0	0.473684
2200	0	0.556714
2201	0	0.881481
2202	0	0.881481
2203	0	0.656764
2204	0	0.166667
2205	0	0.166667
2206	0	0.333333
2207	0	0.333333
2208	0	0.333333
2209	0	0.321429
2210	0	0.321429
2211	0	0.266667
2212	0	0.266667
2213	0	0.441379
2214	0	0.569697
2215	0	0.628571
2216	0	0.628571
2217	0	0.911957
2218	0	0
2219	0	0
2220	0	0.540421
2221	0	0.616667
2222	0	0.83066
2223	0	0.9375
2224	0	0.9375
2225	0	0.983776
2226	0	0.983779
2227	0	0.985576
2228	0	0.974874
2229	0	0.333333
2230	0	0.166667
2231	0	0
2232	0	0.6
2233	0	0.4
2234	0	0.285714
2235	0	0.959307
2236	0	0.920822
2237	0	0.794073
2238	0	0.728766
2239	0	0.714286
2240	0	0.47619
2241	0	0.47619
2242	0	0.29065
2243	0	0.773204
2244	0	0.42623
2245	0	0.90311
2246	0	1
2247	1	1
2248	1	1
2249	1	1
2250	1	1
2251	1	1
2252	1	1
2253	1	1
2254	1	1
2255	0	1
2256	0	0.838209
2257	1	1
2258	1	0
2259	1	1
2260	1	1
2261	1	1
2262	1	1
2263	1	1
2264	1	1
2265	1	1
2266	1	1
2267	1	1
2268	1	1
2269	1	1
2270	1	1
2271	1	1
2272	1	1
2273	1	1
2274	1	1
2275	1	1
2276	1	1
2277	1	1
2278	0	1
2279	1	1
2280	1	1
2281	1	1
2282	1	1
2283	1	1
2284	1	1
2285	0	1
2286	0	1
2287	0	1
2288	1	1
2289	1	1
2290	0	0.998187
2291	0	0.998187
2292	0	0.998187
2293	1	1
2294	0	1
2295	0	0.937838
2296	0	0.925765
2297	0	0.826043
2298	0	0.142857
2299	0	0.214286
2300	0	0.635557
2301	0	0.713213
2302	0	0.726046
2303	0	0.543351
2304	0	0.485682
2305	0	0.49298
2306	0	0.779005
2307	0	0.538462
2308	0	1
2309	0	0.99797
2310	1	1
2311	1	1
2312	1	1
2313	1	1
2314	1	1
2315	1	1
2316	1	1
2317	1	1
2318	1	1
2319	1	1
2320	0	1
2321	1	1
2322	1	1
2323	1	1
2324	1	1
2325	0	1
2326	0	1
2327	0	1
2328	1	1
2329	1	1
2330	1	1
2331	1	1
2332	1	1
2333	1	1
2334	0	0.998185
2335	1	1
2336	0	0.99638
2337	1	1
2338	1	1
2339	1	1
2340	1	1
2341	1	1
2342	1	1
2343	1	1
2344	1	1
2345	1	1
2346	1	1
2347	1	1
2348	0	1
2349	0	0.978433
2350	0	0.983814
2351	0	0.706325
2352	0	0.675
2353	0	0.489474
2354	0	0.918118
2355	0	0.919852
2356	0	1
2357	0	1
2358	0	1
2359	0	0.924999
2360	0	0.953488
2361	0	0.953488
2362	0	0.998187
2363	0	0.998188
2364	0	0.998188
2365	0	0.998188
2366	0	0.998188
2367	0	0.998188
2368	0	0.998187
2369	0	0
2370	1	0
2371	1	0
2372	1	0
2373	1	0
2374	1	0
2375	1	0
2376	1	0
2377	1	0
2378	1	0
2379	0	0
2380	1	1
2381	1	1
2382	1	1
2383	0	0.917974
2384	0	0.921452
2385	0	0.52381
2386	0	0.511638
2387	0	0.989162
2388	0	0.989162
2389	0	0.666667
2390	0	1
2391	0	1
2392	0	1
2393	0	1
2394	0	1
2395	1	1
2396	0	0.998187
2397	0	0.998187
2398	0	0.998187
2399	0	0.998187
2400	0	0.998188
2401	0	0.99819
2402	0	0.99819
2403	0	0.99819
2404	0	0.99819
2405	0	0.99819
2406	0	0.99819
2407	0	0.99819
2408	0	0.99819
2409	0	0.99819
2410	0	1
2411	0	1
2412	0	0.950202
2413	0	0.56044
2414	0	0.682259
2415	0	0.6
2416	0	0.6
2417	0	0.985568
2418	0	0.985568
2419	0	0.985568
2420	0	0.987368
2421	0	0.985573
2422	0	0.990942
2423	0	0.507819
2424	0	1
2425	1	1
2426	1	1
2427	1	1
2428	1	1
2429	0	1
2430	1	1
2431	1	1
2432	1	1
2433	1	1
2434	1	1
2435	0	0.79853
2436	0	1
2437	0	0.786132
2438	0	0.940142
2439	0	1
2440	0	0.998187
2441	0	0.998187
2442	0	0.998187
2443	0	0.998187
2444	1	1
2445	1	1
2446	1	1
2447	1	1
2448	1	1
2449	1	1
2450	1	1
2451	0	0.998187
2452	0	1
2453	0	1
2454	1	1
2455	1	1
2456	1	1
2457	0	1
2458	0	1
2459	0	1
2460	0	1
2461	1	1
2462	1	1
2463	0	0.990975
2464	0	0.989165
2465	0	0.333333
2466	0	0.5
2467	1	1
2468	1	1
2469	1	1
2470	1	1
2471	1	1
2472	1	1
2473	1	1
2474	1	1
2475	1	1
2476	1	1
2477	1	1
2478	1	1
2479	1	1
2480	1	1
2481	1	1
2482	1	1
2483	1	1
2484	1	1
2485	1	1
2486	1	1
2487	1	1
2488	1	1
2489	1	1
2490	1	1
2491	1	1
2492	1	1
2493	1	1
2494	1	1
2495	1	1
2496	1	1
2497	1	1
2498	1	1
2499	1	1
2500	1	1
2501	1	1
2502	1	1
2503	1	1
2504	1	1
2505	1	1
2506	1	1
2507	1	1
2508	1	1
2509	1	1
2510	1	1
2511	1	1
2512	0	0.99819
2513	0	0.787842
2514	0	0.536082
2515	0	0.523038
2516	0	0.69136
2517	0	0.547009
2518	0	0.566952
2519	0	0.9555
2520	0	0.98918
2521	0	0.98918
2522	0	1
2523	1	1
2524	1	1
2525	1	1
2526	1	1
2527	1	1
2528	1	1
2529	1	1
2530	1	1
2531	1	1
2532	1	1
2533	1	1
2534	1	1
2535	1	0
2536	1	0
2537	1	0
2538	1	0
2539	1	0
2540	1	0
2541	1	0
2542	1	0
2543	1	0
2544	1	1
2545	1	1
2546	1	1
2547	1	1
2548	1	1
2549	1	1
2550	1	1
2551	1	1
2552	1	1
2553	1	1
2554	1	1
2555	1	1
2556	1	1
2557	1	1
2558	1	1
2559	1	1
2560	1	1
2561	1	1
2562	1	1
2563	1	1
2564	0	0.992773
2565	0	0.992773
2566	0	0.992773
2567	0	0.992754
2568	0	0.992754
2569	0	0.989137
2570	0	0.989137
2571	0	0.333333
2572	0	0.992754
2573	0	0.992754
2574	0	0.992754
2575	0	0.992754
2576	0	0.992754
2577	0	0.992754
2578	0	0.992754
2579	0	0.992754
2580	0	0.992754
2581	0	0.998183
2582	0	0.998183
2583	0	1
2584	0	1
2585	0	0.890194
2586	0	0
2587	0	0
2588	0	0
2589	0	0
2590	0	0
2591	0	0
2592	0	0
2593	0	0
2594	0	0
2595	0	0.985507
2596	0	0.985075
2597	0	0.705771
2598	0	0.580206
2599	0	0.682828
2600	0	0.679687
2601	0	0.826021
2602	0	0.450426
2603	0	0.474882
2604	0	0.803966
2605	0	0.232033
2606	0	0.231419
2607	0	0.675565
2608	0	0.873037
2609	0	0.849523
2610	0	0.758985
2611	0	1
2612	0	1
2613	0	0.998148
2614	1	1
2615	1	1
2616	1	1
2617	1	1
2618	1	1
2619	1	1
2620	1	1
2621	1	1
2622	1	1
2623	1	1
2624	1	1
2625	1	1
2626	1	1
2627	0	1
2628	0	0
2629	0	0
2630	0	0.994507
2631	0	0.967739
2632	0	0.749293
2633	0	0.944831
2634	0	0.955007
2635	0	0.863599
2636	0	0.990909
2637	0	1
2638	1	1
2639	0	0.998185
2640	0	0.998182
2641	0	0
2642	1	1
2643	1	1
2644	1	1
2645	0	0.994552
2646	0	0.333333
2647	0	0.333333
2648	0	0
2649	0	0
2650	0	0
2651	0	0
2652	0	0
2653	0	0
2654	0	0
2655	1	0
2656	1	0
2657	1	0
2658	1	0
2659	0	0
2660	0	0
2661	0	0
2662	1	1
2663	1	1
2664	1	1
2665	1	1
2666	1	1
2667	1	1
2668	0	1
2669	0	0.890288
2670	0	0.996372
2671	1	1
2672	1	1
2673	1	1
2674	0	1
2675	0	1
2676	0	1
2677	0	1
2678	0	1
2679	0	1
2680	1	1
2681	1	1
2682	1	1
2683	1	1
2684	1	1
2685	1	1
2686	1	1
2687	1	1
2688	1	1
2689	1	1
2690	1	1
2691	1	1
2692	1	1
2693	1	1
2694	1	1
2695	1	1
2696	1	1
2697	1	1
2698	1	1
2699	1	1
2700	1	1
2701	1	1
2702	1	1
2703	1	1
2704	1	1
2705	1	1
2706	1	1
2707	1	1
2708	0	0.998185
2709	0	0.998185
2710	0	0.998185
2711	0	0.998185
2712	1	1
2713	1	1
2714	1	1
2715	1	1
2716	1	1
2717	0	1
2718	0	0
2719	0	0
2720	0	0
2721	0	0
2722	0	0
2723	0	0
2724	0	0
2725	0	0
2726	0	0
2727	0	0
2728	0	0
2729	0	0
2730	0	0
2731	1	1
2732	1	1
2733	1	1
2734	1	1
2735	1	1
2736	1	1
2737	0	0.333333
2738	0	0.99637
2739	0	0.99637
2740	0	0.99637
2741	0	0.99637
2742	0	0.99637
2743	0	0.99637
2744	0	0.990025
2745	0	0.767088
2746	0	0.828771
2747	0	0.828434
2748	0	0.949296
2749	0	0.998182
2750	0	1
2751	1	1
2752	1	1
2753	1	1
2754	1	1
2755	1	1
2756	1	1
2757	1	1
2758	1	1
2759	1	1
2760	1	1
2761	1	1
2762	1	1
2763	1	1
2764	1	1
2765	1	1
2766	1	1
2767	1	1
2768	1	1
2769	1	1
2770	1	1
2771	1	1
2772	1	1
2773	1	1
2774	1	1
2775	1	1
2776	1	1
2777	1	1
2778	1	1
2779	1	1
2780	1	1
2781	1	1
2782	1	1
2783	1	1
2784	1	1
2785	1	1
2786	1	1
2787	1	1
2788	1	1
2789	0	0.998187
2790	0	0.998187
2791	0	0.998187
2792	0	0.998187
2793	0	0.998188
2794	0	0.996378
2795	0	1
2796	1	0
2797	1	0
2798	0	0.699596
2799	0	0.699596
2800	0	0.990975
2801	0	1
2802	1	1
2803	0	0.998187
2804	1	0
2805	1	0
2806	1	0
2807	1	0
2808	1	0
2809	1	0
2810	1	0
2811	1	0
2812	1	0
2813	1	0
2814	1	0
2815	1	0
2816	1	1
2817	1	1
2818	1	1
2819	1	1
2820	1	1
2821	1	1
2822	1	1
2823	1	1
2824	1	1
2825	1	1
2826	1	1
2827	1	1
2828	1	1
2829	1	1
2830	1	1
2831	1	1
2832	0	1
2833	0	1
2834	1	1
2835	1	1
2836	1	1
2837	0	0
2838	1	0
2839	1	0
2840	1	0
2841	1	0
2842	1	0
2843	1	0
2844	1	0
2845	1	0
2846	1	0
2847	1	0
2848	1	0
2849	1	0
2850	1	0
2851	1	0
2852	1	0
2853	1	0
2854	1	0
2855	1	0
2856	1	0
2857	1	0
2858	1	0
2859	0	0.998185
2860	1	1
2861	1	1
2862	1	1
2863	1	1
2864	1	1
2865	1	1
2866	1	1
2867	0	1
2868	0	0.998188
2869	0	0.998188
2870	1	0
2871	1	0
2872	1	0
2873	1	0
2874	1	0
2875	1	0
2876	1	0
2877	1	0
2878	1	0
2879	1	0
2880	1	0
2881	1	0
2882	1	0
2883	1	0
2884	1	0
2885	1	0
2886	1	0
2887	1	0
2888	1	1
2889	1	1
2890	1	1
2891	1	1
2892	1	1
2893	1	1
2894	1	1
2895	1	1
2896	1	1
2897	1	1
2898	1	1
2899	1	1
2900	1	1
2901	1	1
2902	1	1
2903	0	1
2904	0	1
2905	0	1
2906	1	1
2907	0	0.998185
2908	1	0
2909	0	0
2910	0	0
2911	0	0
2912	0	0
2913	0	0
2914	0	0
2915	0	1
2916	0	1
2917	0	1
2918	0	1
2919	0	1
2920	0	1
2921	0	0.998185
2922	0	1
2923	0	1
2924	0	0.998185
2925	0	0.998185
2926	0	0.998185
2927	0	0
2928	0	0
2929	0	0
2930	0	0
2931	1	0
2932	0	0.996372
2933	0	0.996372
2934	0	0.996372
2935	0	0.996372
2936	0	0.998185
2937	0	0.998185
2938	0	0.996375
2939	0	0.998187
2940	0	0
2941	0	0.998185
2942	0	0.998185
2943	0	0.998185
2944	0	0.998185
2945	0	0.998185
2946	0	0.998187
2947	0	0.998187
2948	0	0.998187
2949	0	0.998187
2950	1	1
2951	1	1
2952	0	1
2953	0	1
2954	0	1
2955	0	1
2956	1	1
2957	1	1
2958	1	1
2959	1	1
2960	1	1
2961	1	1
2962	1	1
2963	1	1
2964	1	1
2965	0	1
2966	1	1
2967	1	1
2968	1	1
2969	1	1
2970	1	1
2971	1	1
2972	1	1
2973	1	1
2974	1	1
2975	1	1
2976	1	1
2977	1	1
2978	1	1
2979	1	1
2980	1	1
2981	1	1
2982	1	1
2983	1	1
2984	1	1
2985	1	1
2986	1	1
2987	1	1
2988	1	1
2989	1	1
2990	1	1
2991	1	1
2992	1	1
2993	1	1
2994	1	1
2995	1	1
2996	1	1
2997	1	1
2998	1	1
2999	1	1
3000	1	1
3001	1	1
3002	1	1
3003	1	1
3004	1	1
3005	1	1
3006	1	1
3007	0	0.927283
3008	0	0.972345
3009	0	0.972152
3010	0	0.961392
3011	0	0.631579
3012	0	0.451662
3013	0	0.429291
3014	0	0.714286
3015	0	1
3016	0	0.486328
3017	0	0.291667
3018	0	0.490217
3019	0	0.530143
3020	0	0.489336
3021	0	0.925776
3022	0	1
3023	0	0.998182
3024	0	0.998182
3025	0	1
3026	0	1
3027	0	1
3028	0	1
3029	0	1
3030	0	1
3031	0	1
3032	0	1
3033	0	1
3034	0	1
3035	0	1
3036	1	0
3037	1	0
3038	1	0
3039	1	0
3040	1	0
3041	1	0
3042	1	0
3043	1	0
3044	1	0
3045	1	0
3046	1	0
3047	1	0
3048	1	0
3049	1	0
3050	1	0
3051	1	0
3052	1	0
3053	1	0
3054	1	0
3055	1	0
3056	1	0
3057	1	0
3058	1	0
3059	1	0
3060	0	0.998183
3061	0	0.998183
3062	0	0.998183
3063	0	0.882353
3064	0	0.882353
3065	0	0.967409
3066	0	0.882353
3067	0	0.772059
3068	0	0.957694
3069	0	0.595588
3070	0	0.2
3071	0	0.4
3072	0	0.858252
3073	0	0.434783
3074	0	0.339921
3075	0	0.729133
3076	0	0.312075
3077	0	0.639659
3078	0	0
3079	0	0.849231
3080	0	0.916667
3081	0	0.930821
3082	0	0.461538
3083	0	1
3084	1	1
3085	1	1
3086	1	1
3087	1	1
3088	1	1
3089	1	1
3090	1	1
3091	0	1
3092	0	0
3093	0	0.986463
3094	0	0.866541
3095	0	0.858251
3096	0	0.740269
3097	0	0.558336
3098	0	0.4777
3099	0	0.94484
3100	0	0
3101	0	0.96552
3102	0	0.777778
3103	0	0.983703
3104	0	0.983703
3105	0	1
3106	0	1
3107	0	0.99637
3108	0	1
3109	1	1
3110	1	1
3111	1	1
3112	1	1
3113	1	1
3114	1	1
3115	1	1
3116	1	1
3117	1	1
3118	0	0
3119	1	0
3120	1	0
3121	1	0
3122	1	0
3123	1	0
3124	1	0
3125	1	0
3126	1	0
3127	1	0
3128	1	0
3129	1	0
3130	1	0
3131	1	0
3132	1	0
3133	0	0.998187
3134	1	1
3135	1	1
3136	1	1
3137	1	1
3138	0	1
3139	0	0.99457
3140	0	0.994567
3141	0	0.996377
3142	0	0.996377
3143	0	0.996344
3144	0	1
3145	0	0.849231
3146	0	0.931901
3147	0	0.843818
3148	0	0.874902
3149	0	0.874999
3150	0	0.75
3151	0	0.730403
3152	0	0.390531
3153	0	0.597673
3154	0	0
3155	0	0
3156	0	0
3157	0	0.593446
3158	0	0.383111
3159	0	0.466102
3160	0	0.451283
3161	0	0.747126
3162	0	0.107143
3163	0	0.581609
3164	0	0
3165	0	0
3166	0	0
3167	0	0
3168	0	0
3169	0	0
3170	0	0
3171	0	0
3172	0	0
3173	0	0
3174	0	0.470168
3175	0	0.644819
3176	0	0.333333
3177	0	0
3178	0	0
3179	0	0
3180	0	0
3181	0	0
3182	0	0
3183	0	0
3184	0	0.166667
3185	0	0.166667
3186	0	0.166667
3187	0	0.5
3188	0	0.5
3189	0	0.5
3190	0	0.5
3191	0	0.6
3192	0	0.4
3193	0	0.4
3194	0	0.75
3195	0	0.842122
3196	0	0.461538
3197	0	0.545455
3198	0	0.545455
3199	0	0.318182
3200	0	0.666667
3201	0	0.6
3202	0	0.654545
3203	0	0.654545
3204	0	0.654545
3205	0	0.654545
3206	0	1
3207	0	1
3208	0	1
3209	0	1
3210	0	1
3211	0	0.897338
3212	0	0.444444
3213	0	1
3214	0	1
3215	0	0.883171
3216	0	0.88307
3217	0	1
3218	1	1
3219	1	1
3220	1	1
3221	0	1
3222	0	0.998188
3223	0	0.998188
3224	0	0.694698
3225	0	0.78705
3226	0	0
3227	0	1
3228	0	1
3229	0	1
3230	0	1
3231	0	1
3232	1	1
3233	0	0.998187
3234	0	0.998187
3235	1	1
3236	0	0
3237	0	0.935484
3238	0	0.946941
3239	0	0.509574
3240	0	0.990954
3241	0	0.99276
3242	0	0.994567
3243	0	0.992762
3244	0	0.981857
3245	0	1
3246	0	0.527273
3247	0	0.563724
3248	0	0.580321
3249	0	0.321429
3250	0	0.428571
3251	0	0.503519
3252	0	0.912113
3253	0	1
3254	0	1
3255	0	0.968606
3256	0	0.360294
3257	0	0.583333
3258	0	0.583333
3259	0	0
3260	0	0.998187
3261	1	1
3262	1	1
3263	1	1
3264	1	1
3265	1	1
3266	1	1
3267	1	1
3268	1	1
3269	1	1
3270	1	1
3271	1	1
3272	1	1
3273	1	1
3274	1	1
3275	1	1
3276	1	1
3277	1	1
3278	1	1
3279	1	1
3280	1	1
3281	1	1
3282	1	1
3283	1	1
3284	1	1
3285	1	1
3286	1	1
3287	1	1
3288	1	1
3289	1	1
3290	0	0.998187
3291	0	1
3292	0	1
3293	1	1
3294	1	1
3295	1	1
3296	1	1
3297	1	1
3298	1	1
3299	1	1
3300	1	1
3301	1	1
3302	1	1
3303	1	1
3304	1	1
3305	1	0
3306	1	1
3307	1	1
3308	1	1
3309	1	1
3310	0	0.998185
3311	0	1
3312	0	1
3313	0	1
3314	0	1
3315	0	1
3316	0	0.998179
3317	0	0.998179
3318	0	0.998179
3319	0	0.998179
3320	0	0.998179
3321	1	1
3322	1	1
3323	1	1
3324	1	1
3325	1	1
3326	1	1
3327	0	1
3328	1	1
3329	1	1
3330	1	1
3331	1	1
3332	1	1
3333	1	1
3334	1	1
3335	1	1
3336	1	1
3337	0	1
3338	1	1
3339	0	0.99456
3340	1	1
3341	1	1
3342	1	1
3343	1	1
3344	1	1
3345	1	1
3346	1	1
3347	1	1
3348	1	1
3349	1	1
3350	1	1
3351	1	1
3352	1	1
3353	1	1
3354	1	1
3355	1	1
3356	1	1
3357	1	1
3358	1	1
3359	1	1
3360	1	1
3361	1	1
3362	0	0.996364
3363	0	0.779412
3364	0	1
3365	0	1
3366	0	0.971238
3367	0	1
3368	0	1
3369	0	1
3370	0	0.958333
3371	0	0.883265
3372	0	0.871312
3373	0	0.47659
3374	0	0.47659
3375	0	0.457023
3376	0	0.818261
3377	0	0.330091
3378	0	0.504379
3379	0	0.494935
3380	0	0.499698
3381	0	0.482696
3382	0	0.288015
3383	0	0.285825
3384	0	0.392857
3385	0	0.227884
3386	0	0.268788
3387	0	0.466351
3388	0	0.466667
3389	0	0.466667
3390	0	0.160273
3391	0	0.157715
3392	0	0.12967
3393	0	0.132601
3394	0	0.457832
3395	0	0
3396	0	0.333333
3397	0	0.333333
3398	0	0.333333
3399	0	0.333333
3400	0	0.333333
3401	0	0.333333
3402	0	0.333333
3403	0	0.333333
3404	0	0
3405	0	0.583693
3406	0	0.385281
3407	0	0.385281
3408	0	0.370499
3409	0	0.335243
3410	0	0.282282
3411	0	0.262763
3412	0	0.262763
3413	0	0.25976
3414	0	0.25976
3415	0	0.324308
3416	0	0.409357
3417	0	0.409357
3418	0	0.409357
3419	0	0.362573
3420	0	0.362573
3421	0	0.311988
3422	0	0.383333
3423	0	0.338235
3424	0	0.297106
3425	0	0.128446
3426	0	0.142231
3427	0	0.0876289
3428	0	0.0837629
3429	0	0.205859
3430	0	0.210176
3431	0	0.241926
3432	0	0.21618
3433	0	0
3434	0	0
3435	0	0
3436	0	0
3437	0	0
3438	0	0
3439	0	0
3440	0	0
3441	0	0
3442	0	0
3443	0	0.188295
3444	0	0.180451
3445	0	0.121211
3446	0	0.100628
3447	0	0.0837281
3448	0	0.0666667
3449	0	0.0751464
3450	0	0
3451	0	0
3452	0	0
3453	0	0
3454	0	0.0893075
3455	0	0.0832692
3456	0	0
3457	0	0
3458	0	0
3459	0	0.0878911
3460	0	0.0732677
3461	0	0.119421
3462	0	0.115795
3463	0	0.131757
3464	0	0.142032
3465	0	0.143051
3466	0	0.100044
3467	0	0.142285
3468	0	0.136937
3469	0	0.0745762
3470	0	0.225
3471	0	0.258333
3472	0	0.166113
3473	0	0.0857649
3474	0	0.131177
3475	0	0.142832
3476	0	0.15274
3477	0	0.163522
3478	0	0.107917
3479	0	0.444444
3480	0	0.714286
3481	0	0.714286
3482	0	0.714286
3483	0	0.714286
3484	0	0.714286
3485	0	0.714286
3486	0	0.714286
3487	0	0.159802
3488	0	0.182759
3489	0	0.176126
3490	0	0.231466
3491	0	0.717949
3492	0	0.717949
3493	0	0.717949
3494	0	0.245863
3495	0	0.461988
3496	0	0.461988
3497	0	0.51634
3498	0	0.51634
3499	0	0.522876
3500	0	0.52349
3501	0	0.133333
3502	0	0.133333
3503	0	0.190476
3504	0	0.190476
3505	0	0.190476
3506	0	0.333333
3507	0	0.333333
3508	0	0.166667
3509	0	0.166667
3510	0	0.333333
3511	0	0.332
3512	0	0.341199
3513	0	0
3514	0	0
3515	0	0
3516	0	0
3517	0	0
3518	0	0
3519	0	0
3520	0	0
3521	0	0
3522	0	0.937996
3523	0	0.968254
3524	0	0.938942
3525	0	0.834186
3526	0	0.838632
3527	0	0.794521
3528	0	0.734386
3529	0	0.715311
3530	0	0.715311
3531	0	0.697969
3532	0	0.52361
3533	0	0.485897
3534	0	0.462195
3535	0	0.5
3536	0	0.440447
3537	0	0.452945
3538	0	0.5
3539	0	0.713632
3540	0	0.397436
3541	0	0.469697
3542	0	0.651336
3543	0	1
3544	0	0.777778
3545	0	0.777778
3546	0	0.9
3547	0	0.95673
3548	0	0.95673
3549	0	0.616601
3550	0	0.675325
3551	0	0.894737
3552	0	0.894737
3553	0	1
3554	0	1
3555	0	0.998177
3556	0	0.998177
3557	0	1
3558	0	1
3559	0	1
3560	0	0.99635
3561	0	0
3562	1	0
3563	1	0
3564	1	0
3565	1	0
3566	1	0
3567	1	0
3568	1	0
3569	0	0.666667
3570	1	1
3571	1	1
3572	1	1
3573	1	1
3574	1	1
3575	1	1
3576	0	1
3577	0	1
3578	0	1
3579	0	1
3580	0	1
3581	0	0.998168
3582	0	0.998168
3583	0	0.996342
3584	0	1
3585	0	0.998174
3586	0	0.996349
3587	1	1
3588	0	1
3589	1	1
3590	1	1
3591	0	0.998174
3592	0	0.998174
3593	0	0.998174
3594	0	0.998174
3595	0	1
3596	0	1
3597	0	1
3598	0	1
3599	0	1
3600	0	1
3601	0	1
3602	0	1
3603	0	1
3604	0	1
3605	1	1
3606	1	1
3607	1	1
3608	1	1
3609	1	1
3610	0	1
3611	0	1
3612	0	1
3613	0	1
3614	1	1
3615	1	1
3616	0	1
3617	0	0.998175
3618	0	0.998175
3619	0	0.998175
3620	0	0.998175
3621	0	0.998177
3622	0	0.998177
3623	0	0.998177
3624	0	0.998177
3625	0	0.998165
3626	0	0.996332
3627	0	1
3628	0	0.93507
3629	0	1
3630	0	1
3631	0	1
3632	0	0.333333
3633	0	0.333333
3634	0	0.166667
3635	0	0.166667
3636	0	0.166667
3637	0	0.166667
3638	0	0.166667
3639	0	0.166667
3640	0	0.906906
3641	0	0.906906
3642	0	0.781538
3643	0	0.781538
3644	0	0.781538
3645	0	0.850022
3646	0	0.850022
3647	0	0.849492
3648	0	0.359307
3649	0	0.359307
3650	0	0.338095
3651	0	0.307359
3652	0	0.307359
3653	0	0.221014
3654	0	0.221014
3655	0	0.801613
3656	0	0.800067
3657	0	0.796956
3658	0	0.739501
3659	0	0.730023
3660	0	0.393971
3661	0	0.25067
3662	0	0.704393
3663	0	0.166667
3664	0	0
3665	0	0
3666	0	0
3667	0	0
3668	0	0
3669	0	0
3670	0	0
3671	0	0
3672	0	0
3673	0	0
3674	0	0
3675	0	0
3676	0	0
3677	0	0
3678	0	0
3679	0	0
3680	0	0
3681	0	0
3682	0	0.0666667
3683	0	0.0666667
3684	0	0.494785
3685	0	0.415439
3686	0	0.120006
3687	0	0.433133
3688	0	0
3689	0	0
3690	0	0
3691	0	0
3692	0	0
3693	0	0
3694	0	0
3695	0	0
3696	0	0
3697	0	0
3698	0	0
3699	0	0
3700	0	0.397257
3701	0	0.323723
3702	0	0.321296
3703	0	0.319529
3704	0	0.322151
3705	0	0.325589
3706	0	0.3217
3707	0	0.321015
3708	0	0.545455
3709	0	0.545455
3710	0	0.545455
3711	0	0.545455
3712	0	0.189744
3713	0	0.179653
3714	0	0.216778
3715	0	0.189249
3716	0	0.282882
3717	0	0.27544
3718	0	0.131637
3719	0	0.122162
3720	0	0.125262
3721	0	0.14719
3722	0	0.122653
3723	0	0.177536
3724	0	0.148551
3725	0	0.0885895
3726	0	0.137681
3727	0	0.282051
3728	0	0.047619
3729	0	0
3730	0	0
3731	0	0
3732	0	0
3733	0	0
3734	0	0
3735	0	0.168056
3736	0	0.110823
3737	0	0.182526
3738	0	0.0702776
3739	0	0.0666667
3740	0	0.0661765
3741	0	0.0607726
3742	0	0.0996836
3743	0	0.11366
3744	0	0.147059
3745	0	0
3746	0	0
3747	0	0.104952
3748	0	0.0814513
3749	0	0.163678
3750	0	0.0277778
3751	0	0.0277778
3752	0	0.0277778
3753	0	0.0357143
3754	0	0.0357143
3755	0	0.256093
3756	0	0
3757	0	0
3758	0	0
3759	0	0
3760	0	0
3761	0	0.047619
3762	0	0.047619
3763	0	0.103788
3764	0	0.138824
3765	0	0.163935
3766	0	0.1
3767	0	0.1
3768	0	0.1
3769	0	0
3770	0	0
3771	0	0
3772	0	0
3773	0	0
3774	0	0
3775	0	0.0555556
3776	0	0.0444444
3777	0	0.0727273
3778	0	0.137551
3779	0	0.116424
3780	0	0.333333
3781	0	0.333333
3782	0	0.137288
3783	0	0.187055
3784	0	0.186753
3785	0	0.369968
3786	0	0.525125
3787	0	0.519507
3788	0	0.335959
3789	0	0.425399
3790	0	0.123106
3791	0	0.123091
3792	0	0.188201
3793	0	0.369595
3794	0	0.396172
3795	0	0.297631
3796	0	0.379879
3797	0	0.305376
3798	0	0.305376
3799	0	0.732374
3800	0	0
3801	0	0
3802	0	0.5
3803	0	0.5
3804	0	0.5
3805	0	0
3806	0	0.749176
3807	0	0.166667
3808	0	0
3809	0	0
3810	0	0
3811	0	0
3812	0	0
3813	0	0
3814	0	0
3815	0	0
3816	0	0
3817	0	0
3818	0	0
3819	0	0
3820	0	0
3821	0	0
3822	0	0
3823	0	0
3824	0	0
3825	0	0
3826	0	0
3827	0	0
3828	0	0
3829	0	0
3830	0	0.817401
3831	0	0.558333
3832	0	0.492647
3833	0	0.492647
3834	0	0.507353
3835	0	0.486134
3836	0	0.358944
3837	0	0.551054
3838	0	0.533033
3839	0	0.415344
3840	0	0.415344
3841	0	0.415344
3842	0	0.415344
3843	0	0.0757576
3844	0	0.713054
3845	0	0.680417
3846	0	0.335797
3847	0	0.400421
3848	0	0.105263
3849	0	0.124183
3850	0	0.116667
3851	0	0.0935673
3852	0	0.0666667
3853	0	0.0666667
3854	0	0.166444
3855	0	0.285714
3856	0	0.285714
3857	0	0.285714
3858	0	0.4
3859	0	0.158628
3860	0	0.3
3861	0	0.3
3862	0	0.3
3863	0	0.3
3864	0	0.3
3865	0	0.3
3866	0	0.3
3867	0	0.3
3868	0	0.3
3869	0	0.3
3870	0	0.3
3871	0	0.3
3872	0	0.139418
3873	0	0.411765
3874	0	0.267606
3875	0	0.157886
3876	0	0
3877	0	0
3878	0	0
3879	0	0
3880	0	0.24973
3881	0	0.859788
3882	0	0.4
3883	0	0.2
3884	0	0.2
3885	0	0.2
3886	0	0.2
3887	0	0
3888	0	0
3889	0	0
3890	0	0
3891	0	0
3892	0	0
3893	0	0
3894	0	0
3895	0	0
3896	0	0
3897	0	0
3898	0	0
3899	0	0
3900	0	0
3901	0	0
3902	0	0
3903	0	0
3904	0	0.303955
3905	0	0.195604
3906	0	0.57619
3907	0	0.0952381
3908	0	0.0952381
3909	0	0.0945401
3910	0	0.0912439
3911	0	0.1
3912	0	0.0650116
3913	0	0.0622852
3914	0	0.0509173
3915	0	0.105498
3916	0	0.0573427
3917	0	0.0426587
3918	0	0.0451389
3919	0	0.0406746
3920	0	0.0399038
3921	0	0.0840469
3922	0	0.0774742
3923	0	0.103226
3924	0	0.101075
3925	0	0.0909091
3926	0	0.0689752
3927	0	0.0265594
3928	0	0.0317907
3929	0	0.0229376
3930	0	0.0769282
3931	0	0.0985953
3932	0	0.0188261
3933	0	0.187458
3934	0	0.0336134
3935	0	0.030303
3936	0	0.0340909
3937	0	0.0378788
3938	0	0.0397727
3939	0	0.0284091
3940	0	0.0208333
3941	0	0.0227273
3942	0	0.101241
3943	0	0.11071
3944	0	0.161814
3945	0	0.264474
3946	0	0.20688
3947	0	0.280869
3948	0	0.251064
3949	0	0.368628
3950	0	0.509972
3951	0	0.576673
3952	0	0.588786
3953	0	0.0047619
3954	0	0.00634921
3955	0	0.00600601
3956	0	0.146697
3957	0	0.152546
3958	0	0.0816697
3959	0	0.0632629
3960	0	0.0436975
3961	0	0.176448
3962	0	0.176386
3963	0	0.0436428
3964	0	0.044108
3965	0	0.15134
3966	0	0.0181452
3967	0	0.0258065
3968	0	0.027957
3969	0	0.0322581
3970	0	0.0301075
3971	0	0.0208333
3972	0	0.0178253
3973	0	0.0201681
3974	0	0.0199147
3975	0	0.0881278
3976	0	0.0809304
3977	0	0.266667
3978	0	0.166688
3979	0	0.236453
3980	0	0.173718
3981	0	0.0347937
3982	0	0.0376774
3983	0	0.040129
3984	0	0.161126
3985	0	0.163646
3986	0	0.210145
3987	0	0.0352113
3988	0	0.149153
3989	0	0
3990	0	0
3991	0	0
3992	0	0
3993	0	0
3994	0	0
3995	0	0.154265
3996	0	0.15445
3997	0	0
3998	0	0
3999	0	0
4000	0	0.173377
4001	0	0.0370554
4002	0	0.0323007
4003	0	0.150231
4004	0	0.146245
4005	0	0.146245
4006	0	0.130435
4007	0	0.130435
4008	0	0.122402
4009	0	0.0277778
4010	0	0.0277778
4011	0	0.0277778
4012	0	0.0277778
4013	0	0.0277778
4014	0	0.0277778
4015	0	0.0277778
4016	0	0.0277778
4017	0	0.0277778
4018	0	0.0277778
4019	0	0.0277778
4020	0	0.0222222
4021	0	0.0222222
4022	0	0.0222222
4023	0	0.0222222
4024	0	0.0222222
4025	0	0.0384615
4026	0	0.00833333
4027	0	0.0147059
4028	0	0.276567
4029	0	0.0909941
4030	0	0.0854454
4031	0	0.0230694
4032	0	0.024073
4033	0	0.0225199
4034	0	0.0943998
4035	0	0.0282051
4036	0	0.171088
4037	0	0.0336634
4038	0	0.0257426
4039	0	0.0835401
4040	0	0
4041	0	0
4042	0	0
4043	0	0
4044	0	0
4045	0	0
4046	0	0
4047	0	0
4048	0	0
4049	0	0
4050	0	0
4051	0	0
4052	0	0
4053	0	0
4054	0	0
4055	0	0.0252252
4056	0	0.0916288
4057	0	0.00757576
4058	0	0.00757576
4059	0	0.00757576
4060	0	0.00757576
4061	0	0.063068
4062	0	0.0685302
4063	0	0.142857
4064	0	0.142857
4065	0	0.142857
4066	0	0.142857
4067	0	0.142857
4068	0	0.142857
4069	0	0.142857
4070	0	0.142857
4071	0	0.142857
4072	0	0.142857
4073	0	0.142857
4074	0	0.142857
4075	0	0.0833333
4076	0	0.122014
4077	0	0.127013
4078	0	0.102941
4079	0	0.0915033
4080	0	0.0522876
4081	0	0.0467836
4082	0	0.0416667
4083	0	0.0549451
4084	0	0.0869267
4085	0	0.0698717
4086	0	0.0510127
4087	0	0.00703934
4088	0	0.00768049
4089	0	0.00793231
4090	0	0.00634585
4091	0	0.00765027
4092	0	0.00677966
4093	0	0.0884992
4094	0	0.0813064
4095	0	0.010084
4096	0	0.0108728
4097	0	0.121013
4098	0	0.124807
4099	0	0.0993333
4100	0	0.109198
4101	0	0.106162
4102	0	0.127447
4103	0	0.507862
4104	0	0.021021
4105	0	0.0642303
4106	0	0.0673635
4107	0	0.0682788
4108	0	0.126894
4109	0	0.150198
4110	0	0.216374
4111	0	0
4112	0	0
4113	0	0
4114	0	0
4115	0	0
4116	0	0
4117	0	0
4118	0	0
4119	0	0
4120	0	0
4121	0	0
4122	0	0
4123	0	0
4124	0	0
4125	0	0
4126	0	0
4127	0	0
4128	0	0
4129	0	0
4130	0	0
4131	0	0
4132	0	0
4133	0	0
4134	0	0.206218
4135	0	0.04
4136	0	0.0466667
4137	0	0.177792
4138	0	0.196947
4139	0	0.198419
4140	0	0.0261587
4141	0	0.0214393
4142	0	0.0191904
4143	0	0.0636899
4144	0	0.0165378
4145	0	0.0158935
4146	0	0.0156787
4147	0	0.0174627
4148	0	0.186021
4149	0	0
4150	0	0
4151	0	0
4152	0	0
4153	0	0
4154	0	0
4155	0	0
4156	0	0
4157	0	0
4158	0	0
4159	0	0
4160	0	0
4161	0	0
4162	0	0
4163	0	0
4164	0	0
4165	0	0
4166	0	0
4167	0	0.176687
4168	0	0.0831169
4169	0	0.0306076
4170	0	0.0545682
4171	0	0.181738
4172	0	0.18505
4173	0	0.160564
4174	0	0.161079
4175	0	0.374694
4176	0	0.193375
4177	0	0.357701
4178	0	0.0735294
4179	0	0.109091
4180	0	0.133333
4181	0	0.133333
4182	0	0.047619
4183	0	0
4184	0	0
4185	0	0
4186	0	0
4187	0	0
4188	0	0
4189	0	0
4190	0	0
4191	0	0
4192	0	0
4193	0	0
4194	0	0
4195	0	0
4196	0	0
4197	0	0
4198	0	0
4199	0	0
4200	0	0
4201	0	0
4202	0	0
4203	0	0
4204	0	0
4205	0	0
4206	0	0
4207	0	0
4208	0	0
4209	0	0
4210	0	0
4211	0	0
4212	0	0
4213	0	0
4214	0	0
4215	0	0
4216	0	0.260745
4217	0	0.05
4218	0	0.075
4219	0	0.075
4220	0	0.075
4221	0	0.075
4222	0	0.0754127
4223	0	0.0598658
4224	0	0.0550699
4225	0	0.0781853
4226	0	0.0780245
4227	0	0.0767375
4228	0	0.0752896
4229	0	0.112605
4230	0	0.0380788
4231	0	0.0274822
4232	0	0.0278796
4233	0	0.0676329
4234	0	0.0676329
4235	0	0.0542125
4236	0	0.0375004
4237	0	0.111828
4238	0	0.111828
4239	0	0.0504043
4240	0	0.042957
4241	0	0.189542
4242	0	0.169591
4243	0	0.169591
4244	0	0.169591
4245	0	0.169591
4246	0	0.169591
4247	0	0.0526979
4248	0	0.0161943
4249	0	0.0161943
4250	0	0.0188934
4251	0	0.152104
4252	0	0.140411
4253	0	0.150615
4254	0	0.13949
4255	0	0.126109
4256	0	0.0380952
4257	0	0.0333333
4258	0	0.0333333
4259	0	0.025
4260	0	0.025
4261	0	0.025
4262	0	0.025
4263	0	0.0166667
4264	0	0.164508
4265	0	0.151981
4266	0	0.104918
4267	0	0.10452
4268	0	0.179096
4269	0	0.179198
4270	0	0.175084
4271	0	0.196863
4272	0	0.0533333
4273	0	0.057971
4274	0	0.0507246
4275	0	0.0466667
4276	0	0.161339
4277	0	0.181818
4278	0	0.175325
4279	0	0.16792
4280	0	0.138414
4281	0	0.134865
4282	0	0.136606
4283	0	0.134024
4284	0	0.144391
4285	0	0.137019
4286	0	0.131162
4287	0	0.11831
4288	0	0.115023
4289	0	0.101162
4290	0	0.030303
4291	0	0.0279221
4292	0	0.0552781
4293	0	0.0523068
4294	0	0.0902588
4295	0	0.0717503
4296	0	0.0712677
4297	0	0.064986
4298	0	0.0638125
4299	0	0.060261
4300	0	0.060172
4301	0	0.0463768
4302	0	0.0739354
4303	0	0.077278
4304	0	0.0365072
4305	0	0.0371561
4306	0	0.037753
4307	0	0.0290258
4308	0	0.0262613
4309	0	0.0298928
4310	0	0.033511
4311	0	0.0233748
4312	0	0.0223555
4313	0	0.048563
4314	0	0.0361848
4315	0	0.0542284
4316	0	0.0542284
4317	0	0.0542284
4318	0	0.0539895
4319	0	0.0549451
4320	0	0.0568562
4321	0	0.0616729
4322	0	0.0573871
4323	0	0.0592451
4324	0	0.0277296
4325	0	0.0278228
4326	0	0.0274667
4327	0	0.0407026
4328	0	0.0375759
4329	0	0.0480741
4330	0	0.123959
4331	0	0.04
4332	0	0.0147059
4333	0	0.0151515
4334	0	0.0222222
4335	0	0
4336	0	0
4337	0	0
4338	0	0
4339	0	0
4340	0	0
4341	0	0
4342	0	0
4343	0	0.107838
4344	0	0.120821
4345	0	0.189777
4346	0	0
4347	0	0
4348	0	0
4349	0	0
4350	0	0
4351	0	0
4352	0	0
4353	0	0
4354	0	0
4355	0	0
4356	0	0
4357	0	0
4358	0	0
4359	0	0
4360	0	0
4361	0	0
4362	0	0
4363	0	0
4364	0	0
4365	0	0
4366	0	0
4367	0	0
4368	0	0
4369	0	0
4370	0	0
4371	0	0
4372	0	0
4373	0	0
4374	0	0
4375	0	0.1
4376	0	0.1
4377	0	0.0666667
4378	0	0.247619
4379	0	0.236453
4380	0	0.385507
4381	0	0.411594
4382	0	0.264407
4383	0	0.264407
4384	0	0.4
4385	0	0.4
4386	0	0.4
4387	0	0.4
4388	0	0.15415
4389	0	0.264822
4390	0	0.144928
4391	0	0.165631
4392	0	0.165631
4393	0	0.155734
4394	0	0
4395	0	0
4396	0	0
4397	0	0
4398	0	0.164179
4399	0	0.174715
4400	0	0.174715
4401	0	0.3
4402	0	0.3
4403	0	0.2
4404	0	0.19021
4405	0	0.162698
4406	0	0.16633
4407	0	0.127739
4408	0	0.214782
4409	0	0.221198
4410	0	0.247224
4411	0	0.164502
4412	0	0.136667
4413	0	0.183824
4414	0	0.183824
4415	0	0.208333
4416	0	0.318182
4417	0	0.404412
4418	0	0.404412
4419	0	0.433333
4420	0	0.5
4421	0	0.571429
4422	0	0.571429
4423	0	0.571429
4424	0	0.571429
4425	0	0.571429
4426	0	0.571429
4427	0	0.532164
4428	0	0.438095
4429	0	0.571429
4430	0	0.571429
4431	0	0.295455
4432	0	0.295455
4433	0	0.280303
4434	0	0
4435	0	0
4436	0	0
4437	0	0
4438	0	0
4439	0	0
4440	0	0
4441	0	0
4442	0	0
4443	0	0
4444	0	0
4445	0	0
4446	0	0
4447	0	0
4448	0	0
4449	0	0
4450	0	0
4451	0	0
4452	0	0
4453	0	0
4454	0	0
4455	0	0
4456	0	0
4457	0	0
4458	0	0
4459	0	0
4460	0	0
4461	0	0
4462	0	0
4463	0	0
4464	0	0
4465	0	0
4466	0	0
4467	0	0
4468	0	0
4469	0	0
4470	0	0
4471	0	0
4472	0	0
4473	0	0
4474	0	0
4475	0	0
4476	0	0
4477	0	0
4478	0	0
4479	0	0
4480	0	0
4481	0	0
4482	0	0.0666667
4483	0	0.0512821
4484	0	0.0890855
4485	0	0.0924206
4486	0	0.0916323
4487	0	0.0922843
4488	0	0.0930193
4489	0	0.0586081
4490	0	0.070859
4491	0	0.0740032
4492	0	0.0762887
4493	0	0.0769524
4494	0	0.0779026
4495	0	0.0362173
4496	0	0.0401656
4497	0	0.0396419
4498	0	0.0433566
4499	0	0.0508167
4500	0	0.0518244
4501	0	0
4502	0	0
4503	0	0
4504	0	0
4505	0	0
4506	0	0
4507	0	0
4508	0	0
4509	0	0
4510	0	0
4511	0	0
4512	0	0
4513	0	0
4514	0	0
4515	0	0
4516	0	0
4517	0	0
4518	0	0
4519	0	0
4520	0	0
4521	0	0
4522	0	0
4523	0	0
4524	0	0
4525	0	0
4526	0	0
4527	0	0
4528	0	0
4529	0	0
4530	0	0
4531	0	0.0623109
4532	0	0.0882937
4533	0	0.0923437
4534	0	0.152256
4535	0	0.215846
4536	0	0.215846
4537	0	0.215846
4538	0	0.207867
4539	0	0.200767
4540	0	0.21554
4541	0	0.184811
4542	0	0.164286
4543	0	0.0835713
4544	0	0.0833809
4545	0	0.0554232
4546	0	0.0549224
4547	0	0.0560019
4548	0	0.0643275
4549	0	0.0689568
4550	0	0.0655154
4551	0	0.0650155
4552	0	0.06203
4553	0	0.0576473
4554	0	0.0533752
4555	0	0.0666135
4556	0	0.075937
4557	0	0.0888017
4558	0	0.0704718
4559	0	0.0801548
4560	0	0.117895
4561	0	0.117895
4562	0	0.0702041
4563	0	0.0739796
4564	0	0.173333
4565	0	0.164668
4566	0	0.196581
4567	0	0
4568	0	0
4569	0	0.196581
4570	0	0.186259
4571	0	0.204561
4572	0	0.169173
4573	0	0.0638655
4574	0	0.180556
4575	0	0.147319
4576	0	0.0620301
4577	0	0.0857143
4578	0	0.106061
4579	0	0.12561
4580	0	0.150106
4581	0	0.129445
4582	0	0.122807
4583	0	0.117949
4584	0	0.130769
4585	0	0.11266
4586	0	0.0798548
4587	0	0.0522865
4588	0	0.0552964
4589	0	0.0589094
4590	0	0.0581979
4591	0	0.066138
4592	0	0.0716418
4593	0	0.0868182
4594	0	0.0874393
4595	0	0.138298
4596	0	0.203014
4597	0	0.242525
4598	0	0.146199
4599	0	0.267633
4600	0	0.342308
4601	0	0.32561
4602	0	0.296788
4603	0	0.321152
4604	0	0.282241
4605	0	0.250694
4606	0	0.0780989
4607	0	0.102326
4608	0	0.111272
4609	0	0
4610	0	0
4611	0	0
4612	0	0
4613	0	0
4614	0	0
4615	0	0
4616	0	0
4617	0	0
4618	0	0
4619	0	0
4620	0	0
4621	0	0
4622	0	0
4623	0	0
4624	0	0
4625	0	0
4626	0	0
4627	0	0
4628	0	0
4629	0	0
4630	0	0
4631	0	0
4632	0	0
4633	0	0
4634	0	0
4635	0	0
4636	0	0
4637	0	0
4638	0	0
4639	0	0
4640	0	0
4641	0	0
4642	0	0
4643	0	0
4644	0	0
4645	0	0
4646	0	0
4647	0	0
4648	0	0
4649	0	0
4650	0	0
4651	0	0
4652	0	0
4653	0	0
4654	0	0
4655	0	0
4656	0	0
4657	0	0
4658	0	0
4659	0	0
4660	0	0
4661	0	0
4662	0	0
4663	0	0
4664	0	0
4665	0	0
4666	0	0
4667	0	0
4668	0	0
4669	0	0
4670	0	0
4671	0	0
4672	0	0
4673	0	0
4674	0	0
4675	0	0
4676	0	0
4677	0	0
4678	0	0
4679	0	0
4680	0	0
4681	0	0
4682	0	0
4683	0	0
4684	0	0
4685	0	0
4686	0	0
4687	0	0
4688	0	0
4689	0	0
4690	0	0
4691	0	0
4692	0	0
4693	0	0.214286
4694	0	0.214286
4695	0	0.214286
4696	0	0
4697	0	0
4698	0	0
4699	0	0.166667
4700	0	0.166667
4701	0	0
4702	0	0.333333
4703	0	0.5
4704	0	0.286647
4705	0	0.187135
4706	0	0.333333
4707	0	0.212246
4708	0	0.197599
4709	0	0.405405
4710	0	0.2
4711	0	0.2
4712	0	0.180952
4713	0	0.221576
4714	0	0.243133
4715	0	0.212987
4716	0	0.223329
4717	0	0.195122
4718	0	0.364881
4719	0	0.368754
4720	0	0.374167
4721	0	0.341652
4722	0	0.348827
4723	0	0.517779
4724	0	0.523174
4725	0	0.510526
4726	0	0.510853
4727	0	0.500144
4728	0	0.36321
4729	0	0.391357
4730	0	0.15873
4731	0	0.272425
4732	0	0.260042
4733	0	0.0818713
4734	0	0.251131
4735	0	0.251131
4736	0	0.260392
4737	0	0.12381
4738	0	0.111111
4739	0	0.1
4740	0	0.0952381
4741	0	0.0952381
4742	0	0.104762
4743	0	0.104762
4744	0	0.0952381
4745	0	0.0904762
4746	0	0.111111
4747	0	0.108333
4748	0	0.108333
4749	0	0.108333
4750	0	0.0659341
4751	0	0.0659341
4752	0	0.0666667
4753	0	0.116667
4754	0	0.120879
4755	0	0.142857
4756	0	0.142857
4757	0	0.0935673
4758	0	0.0842105
4759	0	0.0761905
4760	0	0.0761905
4761	0	0.276798
4762	0	0.0966667
4763	0	0.134259
4764	0	0.125866
4765	0	0.133874
4766	0	0.129478
4767	0	0.259479
4768	0	0.164394
4769	0	0.216196
4770	0	0.123425
4771	0	0.099879
4772	0	0.112745
4773	0	0.396578
4774	0	0.0789474
4775	0	0.0877193
4776	0	0.0980392
4777	0	0.115385
4778	0	0.115385
4779	0	0.115385
4780	0	0.115385
4781	0	0.0888889
4782	0	0.111111
4783	0	0.166667
4784	0	0.166667
4785	0	0.166667
4786	0	0.166667
4787	0	0.166667
4788	0	0
4789	0	0
4790	0	0.0666667
4791	0	0.0666667
4792	0	0.0666667
4793	0	0.0666667
4794	0	0.0666667
4795	0	0.0666667
4796	0	0.0666667
4797	0	0.0666667
4798	0	0.0666667
4799	0	0.0666667
4800	0	0.0666667
4801	0	0.047619
4802	0	0.047619
4803	0	0.047619
4804	0	0.307692
4805	0	0.0357143
4806	0	0.0357143
4807	0	0.0357143
4808	0	0.0277778
4809	0	0.39444
4810	0	0.354376
4811	0	0.406106
4812	0	0.264368
4813	0	0.069901
4814	0	0.0510614
4815	0	0.513286
4816	0	0
4817	0	0
4818	0	0
4819	0	0
4820	0	0.1
4821	0	0
4822	0	0
4823	0	0.2
4824	0	0.133333
4825	0	0.133333
4826	0	0.1
4827	0	0
4828	0	0
4829	0	0
4830	0	0.140422
4831	0	0.13988
4832	0	0.194444
4833	0	0.194444
4834	0	0.194444
4835	0	0.194444
4836	0	0.194444
4837	0	0.0438697
4838	0	0.0423372
4839	0	0.0448276
4840	0	0.114224
4841	0	0.0943611
4842	0	0.102269
4843	0	0.0327354
4844	0	0.167914
4845	0	0.166667
4846	0	0.166667
4847	0	0.166667
4848	0	0.166667
4849	0	0.166667
4850	0	0.162436
4851	0	0.0905853
4852	0	0.185185
4853	0	0.185185
4854	0	0.171958
4855	0	0.0753497
4856	0	0.132514
4857	0	0.34879
4858	0	0.34879
4859	0	0.34879
4860	0	0.34879
4861	0	0.34879
4862	0	0.0349425
4863	0	0.0632148
4864	0	0.0358616
4865	0	0.198498
4866	0	0.201988
4867	0	0.238095
4868	0	0.274725
4869	0	0.274725
4870	0	0.274725
4871	0	0.274725
4872	0	0.274725
4873	0	0.263736
4874	0	0.228571
4875	0	0.228571
4876	0	0.228571
4877	0	0.446069
4878	0	0.406556
4879	0	0.25
4880	0	0.343434
4881	0	0.366556
4882	0	0.384437
4883	0	0.385598
4884	0	0.385598
4885	0	0.626498
4886	0	0.53768
4887	0	0.511367
4888	0	0.240364
4889	0	0.222178
4890	0	0.15721
4891	0	0.180479
4892	0	0.320044
4893	0	0.320044
4894	0	0.192389
4895	0	0.192389
4896	0	0.287395
4897	0	0.285714
4898	0	0.269841
4899	0	0.314516
4900	0	0.314516
4901	0	0.314516
4902	0	0.203659
4903	0	0.0751825
4904	0	0.180066
4905	0	0.230342
4906	0	0.230342
4907	0	0.230342
4908	0	0.252492
4909	0	0.248844
4910	0	0.213691
4911	0	0.0638831
4912	0	0.0581742
4913	0	0.242424
4914	0	0.242424
4915	0	0.242424
4916	0	0.242424
4917	0	0.242424
4918	0	0.242424
4919	0	0.242424
4920	0	0.242424
4921	0	0.242424
4922	0	0.242424
4923	0	0.242424
4924	0	0.290909
4925	0	0.290909
4926	0	0.290909
4927	0	0.290909
4928	0	0.290909
4929	0	0.290909
4930	0	0.290909
4931	0	0.179487
4932	0	0.179487
4933	0	0.179487
4934	0	0.179487
4935	0	0.230769
4936	0	0.230769
4937	0	0.230769
4938	0	0.217949
4939	0	0.177778
4940	0	0.186813
4941	0	0.208791
4942	0	0.208791
4943	0	0.230769
4944	0	0.154412
4945	0	0.161765
4946	0	0.142132
4947	0	0.0714034
4948	0	0.299325
4949	0	0.118475
4950	0	0.208684
4951	0	0.389804
4952	0	0.416848
4953	0	0.440554
4954	0	0.1201
4955	0	0.122359
4956	0	0.130275
4957	0	0.559962
4958	0	0.552312
4959	0	0
4960	0	0
4961	0	0
4962	0	0
4963	0	0
4964	0	0
4965	0	0
4966	0	0
4967	0	0
4968	0	0
4969	0	0
4970	0	0
4971	0	0
4972	0	0
4973	0	0
4974	0	0
4975	0	0
4976	0	0
4977	0	0
4978	0	0
4979	0	0
4980	0	0.08
4981	0	0.681008
4982	0	0.0545073
4983	0	0.10902
4984	0	0.116893
4985	0	0.316522
4986	0	0.527273
4987	0	0.33622
4988	0	0.334797
4989	0	0.350897
4990	0	0
4991	1	0
4992	1	0
4993	1	0
4994	0	0
4995	0	0
4996	0	0
4997	0	0
4998	0	0
4999	0	0
5000	0	0
5001	0	0
5002	0	0
5003	0	0
5004	1	0
5005	1	0
5006	1	0
5007	1	0
5008	1	0
5009	1	0
5010	1	0
5011	1	0
5012	1	0
5013	1	0
5014	1	0
5015	1	0
5016	1	0
5017	1	0
5018	1	0
5019	1	0
5020	0	0
5021	0	0
5022	0	0
5023	0	0.00952381
5024	0	0
5025	0	0
5026	0	0
5027	0	0
5028	0	0
5029	0	0
5030	0	0
5031	0	0
5032	0	0
5033	0	0
5034	0	0.338698
5035	0	0.338168
5036	0	0.336737
5037	0	0.337429
5038	0	0.0181818
5039	0	0.0181818
5040	0	0.0181818
5041	0	0.0181818
5042	0	0.0181818
5043	0	0.025641
5044	0	0.0190476
5045	0	0.0166667
5046	0	0.0196078
5047	0	0.0175439
5048	0	0.411126
5049	0	0.389309
5050	0	0
5051	0	0
5052	0	0
5053	0	0
5054	0	0
5055	0	0
5056	0	0
5057	0	0
5058	0	0.0917892
5059	0	0.39549
5060	0	0.153846
5061	0	0.181818
5062	0	0.121212
5063	0	0.155556
5064	0	0.367965
5065	0	0.326954
5066	0	0.416667
5067	0	0.236364
5068	0	0.236364
5069	0	0.218862
5070	0	0.150094
5071	0	0.113836
5072	0	0.0606061
5073	0	0.0606061
5074	0	0.0606061
5075	0	0.0151515
5076	0	0.0222222
5077	0	0.030303
5078	0	0.0363636
5079	0	0.438746
5080	0	0.0391456
5081	0	0.104027
5082	0	0.0940757
5083	0	0.0876294
5084	0	0.187658
5085	0	0.214642
5086	0	0.00735294
5087	0	0.0151515
5088	0	0
5089	0	0
5090	0	0
5091	0	0
5092	0	0
5093	0	0
5094	0	0
5095	0	0
5096	0	0
5097	0	0
5098	0	0
5099	0	0
5100	0	0
5101	0	0
5102	0	0
5103	0	0
5104	0	0
5105	0	0
5106	0	0
5107	0	0
5108	0	0
5109	0	0
5110	0	0
5111	0	0.135538
5112	0	0.147904
5113	0	0.15361
5114	0	0.167558
5115	0	0.158576
5116	0	0
5117	0	0
5118	0	0
5119	0	0
5120	0	0
5121	0	0
5122	0	0
5123	0	0
5124	0	0
5125	0	0
5126	0	0
5127	0	0
5128	0	0
5129	0	0
5130	0	0
5131	0	0
5132	0	0
5133	0	0
5134	0	0
5135	0	0
5136	0	0
5137	0	0
5138	0	0
5139	0	0
5140	0	0
5141	1	0
5142	1	0
5143	1	0
5144	0	0
5145	0	0.0535025
5146	0	0.0449593
5147	0	0.549974
5148	0	0.620801
5149	0	0.624309
5150	0	0.204934
5151	0	0.303645
5152	0	0.217078
5153	0	0.108571
5154	0	0.0208333
5155	0	0.0224261
5156	0	0.217507
5157	0	0.0606061
5158	0	0.0869565
5159	0	0.166398
5160	0	0.34741
5161	0	0.378746
5162	0	0.373814
5163	0	0.142857
5164	0	0.142857
5165	0	0.0701754
5166	0	0.0701754
5167	0	0.0592557
5168	0	0.0458316
5169	0	0.0438231
5170	0	0.397331
5171	0	0.0519403
5172	0	0.336549
5173	0	0.344137
5174	0	0.302525
5175	0	0.0357143
5176	0	0
5177	0	0
5178	0	0
5179	0	0
5180	0	0
5181	0	0
5182	0	0
5183	0	0.622222
5184	0	0.622222
5185	0	0.622222
5186	0	0.583333
5187	0	0.466667
5188	0	0.333333
5189	0	0.272727
5190	0	0.519331
5191	0	0.458192
5192	0	0.439033
5193	0	0.442284
5194	0	0.057971
5195	0	0.00833333
5196	0	0.00735294
5197	0	0
5198	0	0.0789474
5199	0	0.0789474
5200	0	0.255935
5201	0	0.229457
5202	0	0.144923
5203	0	0.169884
5204	0	0.32293
5205	0	0.395873
5206	0	0.565847
5207	0	0.30902
5208	0	0.189513
5209	0	0.26358
5210	0	0.503154
5211	0	0.219873
5212	0	0.230488
5213	0	0.22973
5214	0	0.197436
5215	0	0.147109
5216	0	0.170732
5217	0	0.248934
5218	0	0.180301
5219	0	0.24012
5220	0	0
5221	0	0.131302
5222	0	0.285714
5223	0	0.285714
5224	0	0.117101
5225	0	0.110297
5226	0	0.0243965
5227	0	0.0305335
5228	0	0.0544451
5229	0	0.187109
5230	0	0.203506
5231	0	0.0325684
5232	0	0.160317
5233	0	0.0458562
5234	0	0.125
5235	0	0.125
5236	0	0.175824
5237	0	0.175824
5238	0	0.0462693
5239	0	0.0511502
5240	0	0.179434
5241	0	0.105743
5242	0	0.143954
5243	0	0.5
5244	0	0.5
5245	0	0.5
5246	0	0.5
5247	0	0.171969
5248	0	0.136436
5249	0	0.0731183
5250	0	0.0781609
5251	0	0.0862069
5252	0	0.0606061
5253	0	0.0357143
5254	0	0.142857
5255	0	0.142857
5256	0	0.110672
5257	0	0.283299
5258	0	0.269261
5259	0	0.136752
5260	0	0.114625
5261	0	0.32904
5262	0	0.318677
5263	0	0.179832
5264	0	0.289345
5265	0	0.552409
5266	0	0
5267	0	0
5268	0	0
5269	0	0
5270	0	0
5271	0	0
5272	0	0
5273	0	0
5274	0	0
5275	0	0
5276	0	0.549806
5277	0	0.545455
5278	0	0.4
5279	0	0.466667
5280	0	0.161141
5281	0	0.304994
5282	0	0.300414
5283	0	0.33
5284	0	0.33
5285	0	0.285714
5286	0	0.225379
5287	0	0.0490603
5288	0	0.323202
5289	0	0.323128
5290	0	0.316906
5291	0	0.321696
5292	0	0.322139
5293	0	0.0141129
5294	0	0.0141129
5295	0	0.0141129
5296	0	0.0115385
5297	0	0.375862
5298	0	0.1
5299	0	0.377262
5300	0	0
5301	0	0
5302	0	0
5303	0	0
5304	0	0
5305	0	0
5306	0	0.0706179
5307	0	0.0705426
5308	0	0.29552
5309	0	0
5310	0	0
5311	0	0
5312	0	0
5313	0	0
5314	0	0
5315	0	0
5316	0	0
5317	0	0
5318	0	0
5319	0	0.0242105
5320	0	0.0448612
5321	0	0.164701
5322	0	0.150516
5323	0	0.133333
5324	0	0.0553966
5325	0	0.382662
5326	0	0.1
5327	0	0.1
5328	0	0
5329	0	0
5330	0	0.0928369
5331	0	0.0805042
5332	0	0.292141
5333	0	0
5334	0	0
5335	0	0
5336	0	0
5337	0	0
5338	0	0.0666667
5339	0	0.0666667
5340	0	0.294671
5341	0	0
5342	0	0
5343	0	0
5344	0	0
5345	0	0
5346	0	0
5347	0	0
5348	0	0
5349	0	0
5350	0	0
5351	0	0
5352	0	0.442619
5353	0	0
5354	0	0
5355	0	0
5356	0	0
5357	0	0
5358	0	0
5359	0	0
5360	0	0
5361	0	0
5362	0	0.0189394
5363	0	0.0189394
5364	0	0.0189394
5365	0	0.0196078
5366	0	0.0106952
5367	0	0.0317073
5368	0	0.40354
5369	0	0.439683
5370	0	0.220848
5371	0	0.0552158
5372	0	0.0417099
5373	0	0.0417916
5374	0	0.0870536
5375	0	0.077466
5376	0	0.0731126
5377	0	0.257692
5378	0	0.257692
5379	0	0.133189
5380	0	0.115431
5381	0	0.681818
5382	0	0.681818
5383	0	0.137374
5384	0	0.137374
5385	0	0.108039
5386	0	0.114087
5387	0	0.133696
5388	0	0.134301
5389	0	0.122034
5390	0	0.102668
5391	0	0.157806
5392	0	0.0874466
5393	0	0.204804
5394	0	0.178772
5395	0	0.16221
5396	0	0.16221
5397	0	0.217742
5398	0	0.155556
5399	0	0
5400	0	0
5401	0	0
5402	0	0
5403	0	0
5404	0	0
5405	0	0
5406	0	0
5407	0	0
5408	0	0
5409	0	0
5410	0	0
5411	0	0
5412	0	0.129234
5413	0	0.129697
5414	0	0.132242
5415	0	0
5416	0	0
5417	0	0
5418	0	0.045122
5419	0	0.05
5420	0	0.0282051
5421	0	0.025641
5422	0	0.0294872
5423	0	0.0333333
5424	0	0.232666
5425	0	0.228252
5426	0	0.0666667
5427	0	0
5428	0	0.27137
5429	0	0.0380952
5430	0	0.021978
5431	0	0.0666667
5432	0	0.0666667
5433	0	0.289676
5434	0	0.275689
5435	0	0.0727273
5436	0	0.401809
5437	0	0
5438	0	0.531712
5439	0	0.047619
5440	0	0.047619
5441	0	0.047619
5442	0	0.368615
5443	0	0.654545
5444	0	0.424242
5445	0	0.538164
5446	0	0.166667
5447	0	0.166667
5448	0	0.166667
5449	0	0.166667
5450	0	0.166667
5451	0	0.166667
5452	0	0.166667
5453	0	0.166667
5454	0	0.166667
5455	0	0.166667
5456	0	0.166667
5457	0	0.166667
5458	0	0.166667
5459	0	0.166667
5460	0	0.166667
5461	0	0.166667
5462	0	0.166667
5463	0	0.166667
5464	0	0.166667
5465	0	0.166667
5466	0	0.1
5467	0	0.1
5468	0	0.1
5469	0	0.1
5470	0	0.1
5471	0	0.1
5472	0	0.190476
5473	0	0.142857
5474	0	0.111111
5475	0	0.219595
5476	0	0.124303
5477	0	0.15942
5478	0	0.155797
5479	0	0.126942
5480	0	0.175824
5481	0	0.197802
5482	0	0.186813
5483	0	0.118409
5484	0	0.136996
5485	0	0.261905
5486	0	0.156067
5487	0	0.182759
5488	0	0.631579
5489	0	0.631579
5490	0	0.631579
5491	0	0.631579
5492	0	0.631579
5493	0	0.686275
5494	0	0.875
5495	0	0.875
5496	0	0.875
5497	0	0.875
5498	0	0.875
5499	0	1
5500	0	1
5501	0	1
5502	0	1
5503	0	0
5504	0	0
5505	0	0
5506	0	0
5507	0	0
5508	0	0
5509	0	0
5510	0	0
5511	0	0
5512	0	0
5513	0	0
5514	0	0
5515	0	0
5516	0	0
5517	0	0
5518	0	0
5519	0	0
5520	0	0
5521	0	0
5522	0	0
5523	0	0
5524	0	0
5525	0	0
5526	0	0
5527	0	0.857143
5528	0	0.857143
5529	0	0.857143
5530	0	0.857143
5531	0	0.742857
5532	0	0.742857
5533	0	0.742857
5534	0	0.742857
5535	0	0.866667
5536	0	0.866667
5537	0	0.725275
5538	0	0.725275
5539	0	0.628571
5540	0	0.361905
5541	0	0.474359
5542	0	0.5
5543	0	0.29359
5544	0	0.328688
5545	0	0
5546	0	0
5547	0	0
5548	0	0
5549	0	0
5550	0	0
5551	0	0
5552	0	0
5553	0	0
5554	0	0
5555	0	0
5556	0	0
5557	0	0
5558	0	0
5559	0	0
5560	0	0
5561	0	0
5562	0	0
5563	0	0
5564	0	0
5565	0	0
5566	0	0
5567	0	0
5568	0	0
5569	0	0
5570	0	0
5571	0	0
5572	0	0
5573	0	0
5574	0	0.285714
5575	0	0.285714
5576	0	0.285714
5577	0	0
5578	0	0
5579	0	0
5580	0	0
5581	0	0
5582	0	0.141925
5583	0	0.156
5584	0	0.1905
5585	0	0.0625
5586	0	0.0604839
5587	0	0.373767
5588	0	0.239659
5589	0	0.12967
5590	0	0
5591	0	0
5592	0	0
5593	0	0
5594	0	0
5595	0	0.0977823
5596	0	0
5597	0	0
5598	0	0.166667
5599	0	0.166667
5600	0	0.0522086
5601	0	0.0718954
5602	0	0.0718954
5603	0	0.0784314
5604	0	0.0849673
5605	0	0.0653595
5606	0	0.0533072
5607	0	0.157258
5608	0	0.0544946
5609	0	0.121212
5610	0	0.121212
5611	0	0.121212
5612	0	0.121212
5613	0	0.106061
5614	0	0.051939
5615	0	0.0502493
5616	0	0.266667
5617	0	0.257143
5618	0	0.0995192
5619	0	0.0899767
5620	0	0.0165428
5621	0	0.0155618
5622	0	0.0376872
5623	0	0.0766667
5624	0	0.0766667
5625	0	0.0733333
5626	0	0.0766667
5627	0	0.0733333
5628	0	0.0822511
5629	0	0.0296205
5630	0	0.0331118
5631	0	0.127273
5632	0	0.127273
5633	0	0.127273
5634	0	0.133333
5635	0	0.133333
5636	0	0.0681631
5637	0	0.0952381
5638	0	0.0952381
5639	0	0.0952381
5640	0	0.0952381
5641	0	0.0952381
5642	0	0.0952381
5643	0	0.0952381
5644	0	0.0952381
5645	0	0.0952381
5646	0	0.0952381
5647	0	0.0952381
5648	0	0.0952381
5649	0	0.0952381
5650	0	0.0952381
5651	0	0.312307
5652	0	0.315354
5653	0	0.146076
5654	0	0.177089
5655	0	0.170056
5656	0	0.176729
5657	0	0.161379
5658	0	0.300366
5659	0	0.236506
5660	0	0.236506
5661	0	0.296529
5662	0	0.290351
5663	0	0.1312
5664	0	0.135299
5665	0	0.0741281
5666	0	0.0726261
5667	0	0.0662302
5668	0	0.0454545
5669	0	0.0454545
5670	0	0.0384615
5671	0	0.0444444
5672	0	0.0879121
5673	0	0.0549451
5674	0	0.0549451
5675	0	0.0833333
5676	0	0.136842
5677	0	0.136842
5678	0	0.294737
5679	0	0.194949
5680	0	0.194949
5681	0	0.187299
5682	0	0.339589
5683	0	0.223269
5684	0	0.158997
5685	0	0.165067
5686	0	0.0692641
5687	0	0.0865801
5688	0	0.0578947
5689	0	0.0578947
5690	0	0.171896
5691	0	0.0776463
5692	0	0.0285714
5693	0	0.0285714
5694	0	0.0285714
5695	0	0.0285714
5696	0	0.0261438
5697	0	0.0105263
5698	0	0.00952381
5699	0	0.012987
5700	0	0.0568964
5701	0	0.0564463
5702	0	0.119658
5703	0	0.126154
5704	0	0.123077
5705	0	0.136752
5706	0	0.136752
5707	0	0.0655019
5708	0	0.0763569
5709	0	0.040016
5710	0	0.0902171
5711	0	0.0923637
5712	0	0.312253
5713	0	0.291633
5714	0	0.375046
5715	0	0.0357143
5716	0	0.0357143
5717	0	0.0357143
5718	0	0.0357143
5719	0	0.047619
5720	0	0.47998
5721	0	0.1
5722	0	0.1
5723	0	0.0952381
5724	0	0.0952381
5725	0	0.0952381
5726	0	0.0952381
5727	0	0.285714
5728	0	0.2
5729	0	0.2
5730	0	0.210327
5731	0	0
5732	0	0
5733	0	0
5734	0	0
5735	0	0
5736	0	0
5737	0	0
5738	0	0
5739	0	0
5740	0	0
5741	0	0
5742	0	0
5743	0	0
5744	0	0
5745	0	0
5746	0	0
5747	0	0
5748	0	0
5749	0	0
5750	0	0
5751	0	0
5752	0	0
5753	0	0
5754	0	0
5755	0	0
5756	0	0
5757	0	0
5758	0	0
5759	0	0
5760	0	0
5761	0	0
5762	0	0
5763	0	0
5764	0	0
5765	0	0.264507
5766	0	0.0666667
5767	0	0.0666667
5768	0	0.100692
5769	0	0.0290242
5770	0	0.152632
5771	0	0.152632
5772	0	0.169591
5773	0	0.169591
5774	0	0.0636222
5775	0	0.056301
5776	0	0.056821
5777	0	0.0925822
5778	0	0.0843001
5779	0	0.00664452
5780	0	0
5781	0	0
5782	0	0
5783	0	0
5784	0	0
5785	0	0
5786	0	0
5787	0	0
5788	0	0
5789	0	0
5790	0	0
5791	0	0
5792	0	0
5793	0	0
5794	0	0
5795	0	0
5796	0	0
5797	0	0
5798	0	0
5799	0	0
5800	0	0
5801	0	0
5802	0	0.0469081
5803	0	0.0628381
5804	0	0.0537075
5805	0	0.0387097
5806	0	0.0387097
5807	0	0.0322581
5808	0	0.0740545
5809	0	0.0164706
5810	0	0.0196078
5811	0	0.0211765
5812	0	0.0204082
5813	0	0.0502376
5814	0	0.190769
5815	0	0.190769
5816	0	0.176638
5817	0	0.179487
5818	0	0.135385
5819	0	0
5820	0	0
5821	0	0.0504148
5822	0	0.0407742
5823	0	0.0807431
5824	0	0.0756414
5825	0	0.0766238
5826	0	0.5
5827	0	0.5
5828	0	0.5
5829	0	0.5
5830	0	0.5
5831	0	0.5
5832	0	0.5
5833	0	0.5
5834	0	0.5
5835	0	0.5
5836	0	0.5
5837	0	0.5
5838	0	0.5
5839	0	0.5
5840	0	0.5
5841	0	0.5
5842	0	0.5
5843	0	0.5
5844	0	0.5
5845	0	0.5
5846	0	0.5
5847	0	0.5
5848	0	0.5
5849	0	0.438095
5850	0	0.417582
5851	0	0.361905
5852	0	0.316667
5853	0	0.279412
5854	0	0.411765
5855	0	0
5856	0	0.385965
5857	0	0.304348
5858	0	0.0851509
5859	0	0.0988204
5860	0	0.0972331
5861	0	0.0869357
5862	0	0.115731
5863	0	0.0845975
5864	0	0.0619643
5865	0	0.0679417
5866	0	0.0766066
5867	0	0.0412429
5868	0	0.0426651
5869	0	0.0465362
5870	0	0.0749565
5871	0	0.0261248
5872	0	0.0955776
5873	0	0.0915824
5874	0	0.107317
5875	0	0.069697
5876	0	0.0674249
5877	0	0.0860832
5878	0	0.0842714
5879	0	0.118525
5880	0	0.16406
5881	0	0.180285
5882	0	0.200326
5883	0	0.187336
5884	0	0.15644
5885	0	0.151107
5886	0	0.146987
5887	0	0.157026
5888	0	0.334335
5889	0	0
5890	0	0.1
5891	0	0
5892	0	0
5893	0	0
5894	0	0
5895	0	0
5896	0	0
5897	0	0
5898	0	0
5899	0	0
5900	0	0
5901	0	0
5902	0	0
5903	0	0.176841
5904	0	0.207452
5905	0	0.215298
5906	0	0
5907	0	0
5908	0	0
5909	0	0
5910	0	0
5911	0	0
5912	0	0.2
5913	0	0.236364
5914	0	0.19697
5915	0	0.0702955
5916	0	0.0698315
5917	0	0.28472
5918	0	0.289099
5919	0	0.306432
5920	0	0.307223
5921	0	0.309775
5922	0	0
5923	0	0
5924	0	0
5925	0	0
5926	0	0
5927	0	0
5928	0	0
5929	0	0
5930	0	0
5931	0	0
5932	0	0
5933	0	0
5934	0	0.328109
5935	0	0.326105
5936	0	0.111111
5937	0	0.111111
5938	0	0.111111
5939	0	0.111111
5940	0	0.0888889
5941	0	0.487455
5942	0	0.487455
5943	0	0.431479
5944	0	0.40665
5945	0	0.395445
5946	0	0.299918
5947	0	0.299736
5948	0	0.0312046
5949	0	0.0321454
5950	0	0.03367
5951	0	0.0350649
5952	0	0.318899
5953	0	0.312607
5954	0	0.321864
5955	0	0.654545
5956	0	0.654545
5957	0	0.654545
5958	0	0.654545
5959	0	0.654545
5960	0	0.654545
5961	0	0.654545
5962	0	0.654545
5963	0	0.654545
5964	0	0.654545
5965	0	0.654545
5966	0	0.545455
5967	0	0.461538
5968	0	0.395604
5969	0	0.342857
5970	0	0.36476
5971	0	0.330105
5972	0	0.955556
5973	0	0.73543
5974	0	0.73543
5975	0	0.651429
5976	0	0.318182
5977	0	0.318182
5978	0	0.28223
5979	0	0.28223
5980	0	0.297436
5981	0	0.297436
5982	0	0.286822
5983	0	0.29849
5984	0	0.297896
5985	0	0.461988
5986	0	0.461988
5987	0	0.440333
5988	0	0.365341
5989	0	0.250794
5990	0	0.250794
5991	0	0.597158
5992	0	0.443109
5993	0	0.262933
5994	0	0.0918268
5995	0	0.217816
5996	0	0.243743
5997	0	0.225293
5998	0	0.165442
5999	0	0.12
6000	0	0.112319
6001	0	0.119565
6002	0	0.118577
6003	0	0.143455
6004	0	0.105991
6005	0	0.151553
6006	0	0.135759
6007	0	0.096519
6008	0	0.0918533
6009	0	0.0935961
6010	0	0.0553846
6011	0	0.06
6012	0	0.0735931
6013	0	0.0883117
6014	0	0.0791001
6015	0	0.0603175
6016	0	0.163842
6017	0	0.166667
6018	0	0
6019	0	0
6020	0	0
6021	0	0
6022	0	0
6023	0	0
6024	0	0
6025	0	0
6026	0	0
6027	0	0
6028	0	0
6029	0	0
6030	0	0.206522
6031	0	0.141706
6032	0	0.10749
6033	0	0.102783
6034	0	0.47619
6035	0	0.47619
6036	0	0.47619
6037	0	0.666667
6038	0	0.5
6039	0	0.5
6040	0	0.5
6041	0	0.5
6042	0	0.5
6043	0	0.5
6044	0	0.5
6045	0	0.5
6046	0	0.5
6047	0	0.5
6048	0	0.5
6049	0	0.5
6050	0	0.5
6051	0	0.5
6052	0	0.5
6053	0	0.5
6054	0	0.5
6055	0	0.5
6056	0	0.5
6057	0	0.5
6058	0	0.5
6059	0	0.5
6060	0	0.5
6061	0	0.5
6062	0	0.266667
6063	0	0.666667
6064	0	0.666667
6065	0	0.666667
6066	0	0.666667
6067	0	0.666667
6068	0	0.666667
6069	0	0.666667
6070	0	0.6
6071	0	0.6
6072	0	0.6
6073	0	0.6
6074	0	0.6
6075	0	0.6
6076	0	0.6
6077	0	0.6
6078	0	0.6
6079	0	0.6
6080	0	0.6
6081	0	0.6
6082	0	0.6
6083	0	1
6084	0	1
6085	0	0.6
6086	0	0.6
6087	0	0.6
6088	0	0.6
6089	0	0.6
6090	0	0.6
6091	0	0.6
6092	0	0.6
6093	0	0.103588
6094	0	0.186813
6095	0	0.120879
6096	0	0.120879
6097	0	0.10989
6098	0	0.147347
6099	0	0.109087
6100	0	0
6101	0	0
6102	0	0
6103	0	0
6104	0	0.333333
6105	0	0.333333
6106	0	0.333333
6107	0	0.333333
6108	0	0.333333
6109	0	0
6110	0	0
6111	0	0
6112	0	0
6113	0	0
6114	0	0
6115	0	0
6116	0	0
6117	0	0
6118	0	0
6119	0	0
6120	0	0
6121	0	0
6122	0	0
6123	0	0
6124	0	0
6125	0	0
6126	0	0
6127	0	0
6128	0	0
6129	0	0
6130	0	0
6131	0	0
6132	0	0
6133	0	0
6134	0	0.377074
6135	0	0.336129
6136	0	0
6137	0	0
6138	0	0.343537
6139	0	0.254545
6140	0	0.288889
6141	0	0.166667
6142	0	0.231015
6143	0	0.0862435
6144	0	0.117495
6145	0	0.166667
6146	0	0.166667
6147	0	0
6148	0	0
6149	0	0
6150	0	0
6151	0	0
6152	0	0
6153	0	0
6154	0	0.1
6155	0	0.0952381
6156	0	0.104647
6157	0	0.178571
6158	0	0.111111
6159	0	0.0888889
6160	0	0.0727273
6161	0	0.09077
6162	0	0.0739496
6163	0	0.0605042
6164	0	0.0887558
6165	0	0.108191
6166	0	0.112444
6167	0	0.17619
6168	0	0.219048
6169	0	0.242105
6170	0	0.194737
6171	0	0.189474
6172	0	0.171429
6173	0	0.210526
6174	0	0.263158
6175	0	0.210526
6176	0	0.210526
6177	0	0.210526
6178	0	0.210526
6179	0	0.0561545
6180	0	0
6181	0	0
6182	0	0
6183	0	0
6184	0	0
6185	0	0
6186	0	0
6187	0	0.0727273
6188	0	0.0727273
6189	0	0.0727273
6190	0	0.0727273
6191	0	0.0727273
6192	0	0.0888889
6193	0	0.0909091
6194	0	0.0580976
6195	0	0.0573053
6196	0	0.0817204
6197	0	0.147619
6198	0	0.28655
6199	0	0.54023
6200	0	0.663344
6201	0	0.724448
6202	0	0.731818
6203	0	0.1
6204	0	0.0666667
6205	0	0.166667
6206	0	0.166667
6207	0	0.166667
6208	0	0
6209	0	0
6210	0	0
6211	0	0.1
6212	0	0.142857
6213	0	0.466667
6214	0	0.898246
6215	0	0.783124
6216	0	0.451156
6217	0	0.861531
6218	0	0.85565
6219	0	0.393172
6220	0	0
6221	0	0
6222	0	0
6223	0	0
6224	0	0.281583
6225	0	0.187976
6226	0	0.0952381
6227	0	0.1
6228	0	0.1
6229	0	0.0666667
6230	0	0.0277778
6231	0	0.13819
6232	0	0.0498084
6233	0	0.0470085
6234	0	0.0458296
6235	0	0.0190476
6236	0	0.0178253
6237	0	0.026738
6238	0	0.222222
6239	0	0.222222
6240	0	0.222222
6241	0	0.277778
6242	0	0.277778
6243	0	0.277778
6244	0	0.129158
6245	0	0.125016
6246	0	0.122674
6247	0	0
6248	0	0
6249	0	0
6250	0	0
6251	0	0
6252	0	0
6253	0	0
6254	0	0
6255	0	0
6256	0	0
6257	0	0
6258	0	0
6259	0	0
6260	0	0
6261	0	0
6262	0	0
6263	0	0
6264	0	0
6265	0	0
6266	0	0
6267	0	0
6268	0	0
6269	0	0
6270	0	0
6271	0	0
6272	0	0
6273	0	0
6274	0	0
6275	0	0
6276	0	0
6277	0	0
6278	0	0
6279	0	0
6280	0	0
6281	0	0
6282	0	0
6283	0	0.212121
6284	0	0.232558
6285	0	0.243902
6286	0	0.223044
6287	0	0.233666
6288	0	0.291214
6289	0	0.227273
6290	0	0.253659
6291	0	0.354724
6292	0	0.371212
6293	0	0.305376
6294	0	0.220484
6295	0	0.226174
6296	0	0.226174
6297	0	0.187154
6298	0	0.453333
6299	0	0.453333
6300	0	0.43908
6301	0	0.43908
6302	0	0.301149
6303	0	0.301149
6304	0	0.434783
6305	0	0.434783
6306	0	0.434783
6307	0	0.434783
6308	0	0.434783
6309	0	0.434783
6310	0	0.372308
6311	0	0.258065
6312	0	0.150117
6313	0	0.150117
6314	0	0.129123
6315	0	0.129123
6316	0	0.117722
6317	0	0.0860806
6318	0	0.0801932
6319	0	0.188668
6320	0	0.154721
6321	0	0.112245
6322	0	0.112245
6323	0	0.107993
6324	0	0.0971429
6325	0	0.116339
6326	0	0.118687
6327	0	0.438095
6328	0	0.308333
6329	0	0.047619
6330	0	0.0666667
6331	0	0.1
6332	0	0.1
6333	0	0.0952381
6334	0	0.0833333
6335	0	0.316667
6336	0	0.316667
6337	0	0.285714
6338	0	0.285714
6339	0	0.150327
6340	0	0.150327
6341	0	0.146199
6342	0	0.518199
6343	0	0.616579
6344	0	0.603319
6345	0	0.487227
6346	0	0.458653
6347	0	0.316948
6348	0	0.309889
6349	0	0.138384
6350	0	0.249153
6351	0	0.266917
6352	0	0.091486
6353	0	0.0580497
6354	0	0.141304
6355	0	0.110672
6356	0	0.0420917
6357	0	0.0417734
6358	0	0.0386864
6359	0	0.0273874
6360	0	0.0551015
6361	0	0.0598291
6362	0	0.0369231
6363	0	0.0587379
6364	0	1
6365	0	1
6366	0	1
6367	0	1
6368	0	0.0409099
6369	0	0.0393229
6370	0	0.0600554
6371	0	0.0831263
6372	0	0.155556
6373	0	0.155556
6374	0	0.111111
6375	0	0.111111
6376	0	0.111111
6377	0	0.0811434
6378	0	0.0565826
6379	0	0.0591036
6380	0	0.0888889
6381	0	0.0555556
6382	0	0.0363636
6383	0	0.0742445
6384	0	0.0704205
6385	0	0
6386	0	0.045584
6387	0	0.0502646
6388	0	0.0909091
6389	0	0.112245
6390	0	0.106667
6391	0	0.110588
6392	0	0.0710128
6393	0	0.124228
6394	0	0.138851
6395	0	0.138399
6396	0	0.225412
6397	0	0.278938
6398	0	0.310297
6399	0	0.115385
6400	0	0.383085
6401	0	0.412509
6402	0	0.423509
6403	0	0.558149
6404	0	0
6405	0	0
6406	0	0
6407	0	0
6408	0	0
6409	0	0
6410	0	0
6411	0	0
6412	0	0
6413	0	0
6414	0	0
6415	0	0
6416	0	0
6417	0	0
6418	0	0
6419	0	0
6420	0	0
6421	0	0
6422	0	0
6423	0	0
6424	0	0
6425	0	0
6426	0	0
6427	0	0
6428	0	0
6429	0	0
6430	0	0
6431	0	0
6432	0	0
6433	0	0
6434	0	0.333333
6435	0	0.333333
6436	0	0.333333
6437	0	0.5
6438	0	0.269147
6439	0	0.701754
6440	0	0.325826
6441	0	0.545455
6442	0	0.545455
6443	0	0.545455
6444	0	0.545455
6445	0	0.545455
6446	0	0.636842
6447	0	0.636842
6448	0	0.636842
6449	0	0.636842
6450	0	0.636842
6451	0	0.57619
6452	0	0.585714
6453	0	0.585714
6454	0	0.585714
6455	0	0.661905
6456	0	0.652381
6457	0	0.652381
6458	0	0.652381
6459	0	0.721053
6460	0	0.661905
6461	0	0.661905
6462	0	0.568421
6463	0	0.568421
6464	0	0.568421
6465	0	0.568421
6466	0	0.568421
6467	0	0.772059
6468	0	0.772059
6469	0	0.772059
6470	0	0.772059
6471	0	0.772059
6472	0	0.772059
6473	0	0.772059
6474	0	0.772059
6475	0	0.772059
6476	0	0.772059
6477	0	0.772059
6478	0	0.772059
6479	0	0.772059
6480	0	0.772059
6481	0	0.772059
6482	0	0.772059
6483	0	0.772059
6484	0	0.772059
6485	0	0.772059
6486	0	0.772059
6487	0	0.772059
6488	0	0.772059
6489	0	0.686275
6490	0	0.594771
6491	0	0.686275
6492	0	0.686275
6493	0	0.686275
6494	0	0.686275
6495	0	0.686275
6496	0	0.686275
6497	0	0.686275
6498	0	0.686275
6499	0	0.686275
6500	0	0.772059
6501	0	0.772059
6502	0	0.758333
6503	0	0.669118
6504	0	0.772059
6505	0	0.818182
6506	0	0.485714
6507	0	0
6508	0	0
6509	0	0
6510	0	0
6511	0	0
6512	0	0
6513	0	0
6514	0	0
6515	0	0
6516	0	0
6517	0	0
6518	0	0
6519	0	0
6520	0	0
6521	0	0
6522	0	0
6523	0	0
6524	0	0
6525	0	0
6526	0	0
6527	0	0
6528	0	0
6529	0	0
6530	0	0
6531	0	0
6532	0	0.390476
6533	0	0.447619
6534	0	0.438095
6535	0	0.438095
6536	0	0.484211
6537	0	0.538012
6538	0	0.619883
6539	0	0.619883
6540	0	0.619883
6541	0	0.619883
6542	0	0.619883
6543	0	0.619883
6544	0	0.619883
6545	0	0.631579
6546	0	0.631579
6547	0	0.631579
6548	0	0.549708
6549	0	0.549708
6550	0	0.549708
6551	0	0.549708
6552	0	0.473684
6553	0	0.473684
6554	0	0.473684
6555	0	0.529412
6556	0	0.575
6557	0	0.5
6558	0	0.5
6559	0	0.875
6560	0	0.875
6561	0	0.894737
6562	0	0.894737
6563	0	0.805263
6564	0	0.805263
6565	0	0.715789
6566	0	0.715789
6567	0	0.557895
6568	0	0.557895
6569	0	0.614035
6570	0	0.614035
6571	0	0.614035
6572	0	0.557895
6573	0	0.431579
6574	0	0.463158
6575	0	0.480952
6576	0	0.47619
6577	0	0.814286
6578	0	0.814286
6579	0	0.814286
6580	0	0.814286
6581	0	0.814286
6582	0	0.814286
6583	0	0.74026
6584	0	0.74026
6585	0	0.710359
6586	0	0.411631
6587	0	0.712489
6588	0	0.301136
6589	0	0.166667
6590	0	0.166667
6591	0	0
6592	0	0
6593	0	0
6594	0	0.341935
6595	0	0.372043
6596	0	0.426185
6597	0	0.429388
6598	0	0.165657
6599	0	0.196341
6600	0	0.207692
6601	0	0.205128
6602	0	0.224751
6603	0	0
6604	0	0
6605	0	0.393742
6606	0	0.209406
6607	0	0.215555
6608	0	0
6609	0	0
6610	0	0
6611	0	0
6612	0	0
6613	0	0
6614	0	0
6615	0	0
6616	0	0
6617	0	0
6618	0	0
6619	0	0
6620	0	0
6621	0	0
6622	0	0
6623	0	0
6624	0	0.0277778
6625	0	0.0222222
6626	0	0
6627	0	0
6628	0	0
6629	0	0.0357143
6630	0	0.204767
6631	0	0.193773
6632	0	0.204769
6633	0	0.159079
6634	0	0.138047
6635	0	0.172304
6636	0	0.181617
6637	0	0.147997
6638	0	0.186191
6639	0	0.159273
6640	0	0.320755
6641	0	0.399216
6642	0	0.371454
6643	0	0.201531
6644	0	0.202598
6645	0	0.370833
6646	0	0.0806452
6647	0	0.0837438
6648	0	0.145503
6649	0	0.385438
6650	0	0.328063
6651	0	0.452387
6652	0	0.285714
6653	0	0.5
6654	0	0.265022
6655	0	0.312778
6656	0	0.458647
6657	0	0
6658	0	0
6659	0	0
6660	0	0
6661	0	0
6662	0	0
6663	0	0
6664	0	0.684831
6665	0	0.697744
6666	0	0.606376
6667	0	0.213722
6668	0	0.249992
6669	0	0
6670	0	0
6671	0	0.607843
6672	0	0.0879121
6673	0	0.0879121
6674	0	0.0879121
6675	0	0.475177
6676	0	0.0727273
6677	0	0.0718954
6678	0	0.193939
6679	0	0.174582
6680	0	0.126316
6681	0	0.262777
6682	0	0.0671937
6683	0	0.345545
6684	0	0.288412
6685	0	0.166042
6686	0	0.333333
6687	0	0.166667
6688	0	0.195933
6689	0	0.158584
6690	0	0.0909091
6691	0	0.213911
6692	0	0.192984
6693	0	0.185632
6694	0	0.17722
6695	0	0.431579
6696	0	0.431579
6697	0	0.431579
6698	0	0.431579
6699	0	0.390476
6700	0	0.320158
6701	0	0.201072
6702	0	0.178814
6703	0	0.0970882
6704	0	0.0858186
6705	0	0.107748
6706	0	0.0657076
6707	0	0.153846
6708	0	0.0722851
6709	0	0.243506
6710	0	0.294118
6711	0	0.0659804
6712	1	0
6713	1	0
6714	1	0
6715	1	0
6716	1	0
6717	1	0
6718	1	0
6719	1	0
6720	1	0
6721	1	0
6722	1	0
6723	1	0
6724	1	0
6725	1	0
6726	1	0
6727	1	0
6728	1	0
6729	1	0
6730	1	0
6731	1	0
6732	1	0
6733	1	0
6734	1	0
6735	1	0
6736	1	0
6737	1	0
6738	1	0
6739	1	0
6740	1	0
6741	1	0
6742	1	0
6743	1	0
6744	1	0
6745	1	0
6746	1	0
6747	1	0
6748	1	0
6749	1	0
6750	1	0
6751	1	0
6752	1	0
6753	1	0
6754	1	0
6755	1	0
6756	1	0
6757	1	0
6758	1	0
6759	1	0
6760	1	0
6761	1	0
6762	1	0
6763	1	0
6764	1	0
6765	1	0
6766	1	0
6767	1	0
6768	1	0
6769	1	0
6770	1	0
6771	1	0
6772	1	0
6773	1	0
6774	1	0
6775	1	0
6776	1	0
6777	1	0
6778	1	0
6779	1	0
6780	1	0
6781	1	0
6782	1	0
6783	1	0
6784	1	0
6785	1	0
6786	1	0
6787	1	0
6788	1	0
6789	1	0
6790	1	0
6791	1	0
6792	1	0
6793	1	0
6794	1	0
6795	1	0
6796	1	0
6797	1	0
6798	1	0
6799	1	0
6800	1	0
6801	1	0
6802	1	0
6803	1	0
6804	1	0
6805	1	0
6806	1	0
6807	1	0
6808	1	0
6809	1	0
6810	1	0
6811	0	0.0236559
6812	0	0.0236559
6813	0	0.0883542
6814	0	0.0942683
6815	0	0.0990512
6816	0	0.0702041
6817	0	0.0515152
6818	0	0.148023
6819	0	0.115871
6820	0	0.267061
6821	0	0.19427
6822	0	0.105882
6823	0	0
6824	0	0
6825	0	0
6826	0	0
6827	0	0
6828	0	0.127016
6829	0	0.0966184
6830	0	0.0957768
6831	0	0.120219
6832	0	0.228019
6833	0	0.593792
6834	0	0.3
6835	0	0.3
6836	0	0.166667
6837	0	0.166667
6838	0	0
6839	0	0
6840	0	0.5
6841	0	0.5
6842	0	0.5
6843	0	0.5
6844	0	0.5
6845	0	0.5
6846	0	0.5
6847	0	0.5
6848	0	0.5
6849	0	0.5
6850	0	0.5
6851	0	0.5
6852	0	0.5
6853	0	0.5
6854	0	0.5
6855	0	0.228116
6856	0	0
6857	0	0
6858	0	0
6859	0	0
6860	0	0
6861	0	0
6862	0	0
6863	0	0
6864	0	0
6865	0	0
6866	0	0.0222222
6867	0	0.205687
6868	0	0.285714
6869	0	0.190476
6870	0	0.239062
6871	0	0.159654
6872	0	0.20943
6873	0	0.211513
6874	0	0.287936
6875	0	0.176638
6876	0	0.174603
6877	0	0.216341
6878	0	0.255117
6879	0	0.43956
6880	0	0.43956
6881	0	0.43956
6882	0	0.43956
6883	0	0.43956
6884	0	0.43956
6885	0	0.437999
6886	0	0.445272
6887	0	0.208654
6888	0	0.227119
6889	0	0.384746
6890	0	0.501512
6891	0	0.486265
6892	0	0.486265
6893	0	0.546551
6894	0	0.513996
6895	0	0
6896	0	0
6897	0	0
6898	0	0
6899	0	0
6900	0	0
6901	0	0.459173
6902	0	0.127273
6903	0	0.0524038
6904	0	0.0796761
6905	0	0.296103
6906	0	0
6907	0	0
6908	0	0
6909	0	0
6910	0	0
6911	0	0
6912	0	0
6913	0	0
6914	0	0
6915	0	0
6916	0	0
6917	0	0
6918	0	0
6919	0	0.1
6920	0	0.316625
6921	0	0.28373
6922	0	0.263343
6923	0	0.529318
6924	0	0.240409
6925	0	0.110345
6926	0	0.2
6927	0	0.269231
6928	0	0.166667
6929	0	0
6930	0	0
6931	0	0
6932	0	0
6933	0	0
6934	0	0
6935	0	0
6936	0	0
6937	0	0
6938	0	0
6939	0	0
6940	0	0
6941	0	0
6942	0	0
6943	0	0
6944	0	0
6945	0	0
6946	0	0
6947	0	0
6948	0	0
6949	0	0
