Site	ColumnScore	SumOfPairsScore
1	0	1
2	0	1
3	0	1
4	0	1
5	0	1
6	0	1
7	0	1
8	0	1
9	0	1
10	0	1
11	0	1
12	0	1
13	0	1
14	0	1
15	0	1
16	0	1
17	0	1
18	0	1
19	0	1
20	0	1
21	0	1
22	0	1
23	0	1
24	0	1
25	0	1
26	0	1
27	0	1
28	0	1
29	0	1
30	0	1
31	0	1
32	0	1
33	0	1
34	0	1
35	0	1
36	0	1
37	0	1
38	0	1
39	0	1
40	0	1
41	0	1
42	0	1
43	0	1
44	0	1
45	0	1
46	0	1
47	0	1
48	0	1
49	0	1
50	0	1
51	0	1
52	0	1
53	0	1
54	0	1
55	0	1
56	0	1
57	0	1
58	0	1
59	0	1
60	0	1
61	0	1
62	0	1
63	0	1
64	0	1
65	0	0.333333
66	0	0.333333
67	0	0.333333
68	0	0.333333
69	0	0.333333
70	0	0.333333
71	0	0.333333
72	0	0.333333
73	0	0.333333
74	0	0.333333
75	0	0.333333
76	0	0.333333
77	0	0.333333
78	0	0.333333
79	0	0.333333
80	0	0.333333
81	0	0.333333
82	0	0.333333
83	0	0.333333
84	0	0.333333
85	0	0.333333
86	0	0.333333
87	0	0.333333
88	0	0.333333
89	0	0.333333
90	0	0.333333
91	0	0.333333
92	0	0.333333
93	0	0.333333
94	0	0.333333
95	0	0.333333
96	0	0.333333
97	0	0.333333
98	0	0.333333
99	0	0.333333
100	0	0.333333
101	0	0.333333
102	0	0.333333
103	0	0.333333
104	0	0.333333
105	0	0.333333
106	0	0.333333
107	0	0.333333
108	0	0.333333
109	0	0.333333
110	0	0.333333
111	0	0.333333
112	0	0.333333
113	0	0.333333
114	0	0.333333
115	0	0.333333
116	0	0.333333
117	0	0.333333
118	0	0.333333
119	0	0.333333
120	0	0.333333
121	0	0.333333
122	0	0.333333
123	0	0.333333
124	0	0.333333
125	0	0.333333
126	0	0.333333
127	0	0.333333
128	0	0.333333
129	0	0.333333
130	0	0.333333
131	0	0.333333
132	0	0.333333
133	0	0.333333
134	0	0.333333
135	0	0.333333
136	0	0.333333
137	0	0.333333
138	0	0.333333
139	0	0.333333
140	0	0.333333
141	0	0.333333
142	0	0.333333
143	0	0.333333
144	0	0.333333
145	0	0.333333
146	0	0.333333
147	0	0.333333
148	0	0.333333
149	0	0.333333
150	0	0.333333
151	0	0.333333
152	0	0.333333
153	0	0.333333
154	0	0.333333
155	0	0.333333
156	0	0.333333
157	0	0.333333
158	0	0.333333
159	0	0.333333
160	0	0.333333
161	0	0.333333
162	0	0.333333
163	0	0.333333
164	0	0.333333
165	0	0.333333
166	0	0.333333
167	0	0.333333
168	0	0.333333
169	0	0.333333
170	0	0.333333
171	0	0.333333
172	0	0.333333
173	0	0.333333
174	0	0.333333
175	0	0.333333
176	0	0.333333
177	0	0.333333
178	0	0.333333
179	0	0.333333
180	0	0.333333
181	0	0.333333
182	0	0.333333
183	0	0.333333
184	0	0.333333
185	0	0.333333
186	0	0.333333
187	0	0.333333
188	0	0.333333
189	0	0.333333
190	0	0.333333
191	0	0.333333
192	0	0.333333
193	0	0.333333
194	0	0.333333
195	0	0.333333
196	0	0.333333
197	0	0.333333
198	0	0.333333
199	0	0.333333
200	0	0.333333
201	0	0.333333
202	0	0.333333
203	0	0.333333
204	0	0.333333
205	0	0.333333
206	0	0.333333
207	0	0.333333
208	0	0.333333
209	0	0.333333
210	0	0.333333
211	0	0.333333
212	0	0.333333
213	0	0.333333
214	0	0.333333
215	0	0.333333
216	0	0.333333
217	0	0.333333
218	0	0.333333
219	0	0.333333
220	0	0.333333
221	0	0.333333
222	0	0.333333
223	0	0.333333
224	0	0.333333
225	0	0.333333
226	0	0.333333
227	0	0.333333
228	0	0.333333
229	0	0.333333
230	0	0.333333
231	0	0.333333
232	0	0.333333
233	0	0.333333
234	0	0.333333
235	0	0.333333
236	0	0.333333
237	0	0.333333
238	0	0.333333
239	0	0.333333
240	0	0.333333
241	0	0.333333
242	0	0.333333
243	0	0.333333
244	0	0.333333
245	0	0.333333
246	0	0.333333
247	0	0.333333
248	0	0.333333
249	0	0.333333
250	0	0.333333
251	0	0.333333
252	0	0.333333
253	0	0.333333
254	0	0.333333
255	0	0.333333
256	0	0.333333
257	0	0.333333
258	0	0.333333
259	0	0.333333
260	0	0.333333
261	0	0.333333
262	0	0.333333
263	0	0.333333
264	0	0.333333
265	0	0.333333
266	0	0.333333
267	0	0.333333
268	0	0.333333
269	0	0.333333
270	0	0.333333
271	0	0.333333
272	0	0.333333
273	0	0.333333
274	0	0.333333
275	0	0.333333
276	0	0.333333
277	0	0.333333
278	0	0.333333
279	0	0.333333
280	0	0.333333
281	0	0.333333
282	0	0.333333
283	0	0.333333
284	0	0.333333
285	0	0.333333
286	0	0.333333
287	0	0.333333
288	0	0.333333
289	0	0.333333
290	0	0.333333
291	0	0.333333
292	0	0.333333
293	0	0.333333
294	0	0.333333
295	0	0.333333
296	0	0.333333
297	0	0.333333
298	0	0.333333
299	0	0.333333
300	0	0.333333
301	0	0.333333
302	0	0.333333
303	0	0.333333
304	0	0.333333
305	0	0.333333
306	0	0.333333
307	0	0.333333
308	0	0.333333
309	0	0.333333
310	0	0.333333
311	0	0.333333
312	0	0.333333
313	0	0.333333
314	0	0.333333
315	0	0.333333
316	0	0.333333
317	0	0.333333
318	0	0.333333
319	0	0.333333
320	0	0.333333
321	0	0.333333
322	0	0.333333
323	0	0.333333
324	0	0.333333
325	0	0.333333
326	0	0.333333
327	0	0.333333
328	0	0.333333
329	0	0.333333
330	0	0.333333
331	0	0.333333
332	0	0.333333
333	0	0.333333
334	0	0.333333
335	0	0.333333
336	0	0.333333
337	0	0.333333
338	0	0.333333
339	0	0.333333
340	0	0.333333
341	0	0.333333
342	0	0.333333
343	0	0.333333
344	0	0.333333
345	0	0.333333
346	0	0.333333
347	0	0.333333
348	0	0.333333
349	0	0.333333
350	0	0.333333
351	0	0.333333
352	0	0.333333
353	0	0.333333
354	0	0.333333
355	0	0.333333
356	0	0.333333
357	0	0.333333
358	0	0.333333
359	0	0.333333
360	0	0.333333
361	0	0.333333
362	0	0.333333
363	0	0.333333
364	0	0.333333
365	0	0.333333
366	0	0.333333
367	0	0.333333
368	0	0.333333
369	0	0.333333
370	0	0.333333
371	0	0.333333
372	0	0.333333
373	0	0.333333
374	0	0.333333
375	0	0.333333
376	0	0.333333
377	0	0.333333
378	0	0.333333
379	0	0.333333
380	0	0.333333
381	0	0.333333
382	0	0.333333
383	0	0.333333
384	0	0.333333
385	0	0.333333
386	0	0.333333
387	0	0.333333
388	0	0.333333
389	0	0.333333
390	0	0.333333
391	0	0.333333
392	0	0.333333
393	0	0.333333
394	0	0.333333
395	0	0.333333
396	0	0.333333
397	0	0.333333
398	0	0.333333
399	0	0.333333
400	0	0.333333
401	0	0.333333
402	0	0.333333
403	0	0.333333
404	0	0.333333
405	0	0.333333
406	0	0.333333
407	0	0.333333
408	0	0.333333
409	0	0.333333
410	0	0.333333
411	0	0.333333
412	0	0.333333
413	0	0.333333
414	0	0.333333
415	0	0.333333
416	0	0.333333
417	0	0.333333
418	0	0.333333
419	0	0.333333
420	0	0.333333
421	0	0.333333
422	0	0.333333
423	0	0.333333
424	0	0.333333
425	0	0.333333
426	0	0.333333
427	0	0.333333
428	0	0.333333
429	0	0.333333
430	0	0.333333
431	0	0.333333
432	0	0.333333
433	0	0.333333
434	0	0.333333
435	0	0.333333
436	0	0.333333
437	0	0.333333
438	0	0.333333
439	0	0.333333
440	0	0.333333
441	0	0.333333
442	0	0.333333
443	0	0.333333
444	0	0.333333
445	0	0.333333
446	0	0.333333
447	0	0.333333
448	0	0.333333
449	0	0.333333
450	0	0.333333
451	0	0.333333
452	0	0.333333
453	0	0.333333
454	0	0.333333
455	0	0.333333
456	0	0.333333
457	0	0.333333
458	0	0.333333
459	0	0.333333
460	0	0.333333
461	0	0.333333
462	0	0.333333
463	0	0.333333
464	0	0.333333
465	0	0.333333
466	0	0.333333
467	0	0.333333
468	0	0.333333
469	0	0.333333
470	0	0.333333
471	0	0.333333
472	0	0.333333
473	0	0.333333
474	0	0.333333
475	0	0.333333
476	0	0.333333
477	0	0.333333
478	0	0.333333
479	0	0.333333
480	0	0.333333
481	0	0.333333
482	0	0.333333
483	0	0.333333
484	0	0.333333
485	0	0.333333
486	0	0.333333
487	0	0.333333
488	0	0.333333
489	0	0.333333
490	0	0.333333
491	0	0.333333
492	0	0.333333
493	0	0.333333
494	0	0.333333
495	0	0.333333
496	0	0.333333
497	0	0.333333
498	0	0.333333
499	0	0.333333
500	0	0.333333
501	0	0.333333
502	0	0.333333
503	0	0.333333
504	0	0.333333
505	0	0.333333
506	0	0.333333
507	0	0.333333
508	0	0.333333
509	0	0.333333
510	0	0.333333
511	0	0.333333
512	0	0.333333
513	0	0.333333
514	0	0.333333
515	0	0.333333
516	0	0.333333
517	0	0.333333
518	0	0.333333
519	0	0.333333
520	0	0.333333
521	0	0.333333
522	0	0.333333
523	0	0.333333
524	0	0.333333
525	0	0.333333
526	0	0.333333
527	0	0.333333
528	0	0.333333
529	0	0.333333
530	0	0.333333
531	0	0.333333
532	0	0.333333
533	0	0.333333
534	0	0.333333
535	0	0.333333
536	0	0.333333
537	0	0.333333
538	0	0.333333
539	0	0.333333
540	0	0.333333
541	0	0.333333
542	0	0.266667
543	0	0.222222
544	0	0.222222
545	0	0.222222
546	0	0.222222
547	0	0.222222
548	0	0.222222
549	0	0.222222
550	0	0.222222
551	0	0.222222
552	0	0.222222
553	0	0.222222
554	0	0.222222
555	0	0.222222
556	0	0.2
557	0	0.2
558	0	0.222222
559	0	0.222222
560	0	0.222222
561	0	0.222222
562	0	0.222222
563	0	0.222222
564	0	0.222222
565	0	0.222222
566	0	0.222222
567	0	0.222222
568	0	0.222222
569	0	0.222222
570	0	0.222222
571	0	0.222222
572	0	0.222222
573	0	0.222222
574	0	0.222222
575	0	0.222222
576	0	0.222222
577	0	0.222222
578	0	0.222222
579	0	0.222222
580	0	0.222222
581	0	0.222222
582	0	0.222222
583	0	0.222222
584	0	0.222222
585	0	0.222222
586	0	0.222222
587	0	0.222222
588	0	0.222222
589	0	0.222222
590	0	0.222222
591	0	0.222222
592	0	0.222222
593	0	0.222222
594	0	0.25
595	0	0.25
596	0	0.25
597	0	0.25
598	0	0.25
599	0	0.2
600	0	0.2
601	0	0.2
602	0	0.2
603	0	0.2
604	0	0.2
605	0	0.2
606	0	0.2
607	0	0.222222
608	0	0.222222
609	0	0.222222
610	0	0.222222
611	0	0.222222
612	0	0.222222
613	0	0.222222
614	0	0.222222
615	0	0.222222
616	0	0.222222
617	0	0.222222
618	0	0.222222
619	0	0.222222
620	0	0.222222
621	0	0.222222
622	0	0.222222
623	0	0.222222
624	0	0.222222
625	0	0.222222
626	0	0.222222
627	0	0.222222
628	0	0.222222
629	0	0.222222
630	0	0.222222
631	0	0.222222
632	0	0.222222
633	0	0.222222
634	0	0.222222
635	0	0.222222
636	0	0.222222
637	0	0.222222
638	0	0.222222
639	0	0.222222
640	0	0.222222
641	0	0.222222
642	0	0.222222
643	0	0.222222
644	0	0.222222
645	0	0.222222
646	0	0.222222
647	0	0.222222
648	0	0.222222
649	0	0.222222
650	0	0.222222
651	0	0.222222
652	0	0.222222
653	0	0.222222
654	0	0.222222
655	0	0.222222
656	0	0.222222
657	0	0.222222
658	0	0.222222
659	0	0.222222
660	0	0.222222
661	0	0.222222
662	0	0.222222
663	0	0.222222
664	0	0.222222
665	0	0.222222
666	0	0.222222
667	0	0.222222
668	0	0.222222
669	0	0.222222
670	0	0.222222
671	0	0.222222
672	0	0.222222
673	0	0.222222
674	0	0.222222
675	0	0.222222
676	0	0.222222
677	0	0.222222
678	0	0.222222
679	0	0.222222
680	0	0.222222
681	0	0.222222
682	0	0.222222
683	0	0.222222
684	0	0.222222
685	0	0.222222
686	0	0.222222
687	0	0.222222
688	0	0.222222
689	0	0.222222
690	0	0.222222
691	0	0.222222
692	0	0.222222
693	0	0.222222
694	0	0.222222
695	0	0.2
696	0	0.222222
697	0	0.222222
698	0	0.222222
699	0	0.222222
700	0	0.222222
701	0	0.25
702	0	0.355556
703	0	0.355556
704	0	0.488889
705	0	0.488889
706	0	0.488889
707	0	0.488889
708	0	0.488889
709	0	0.488889
710	0	0.488889
711	0	0.488889
712	0	0.488889
713	0	0.488889
714	0	0.488889
715	0	0.488889
716	0	0.488889
717	0	0.488889
718	0	0.488889
719	0	0.488889
720	0	0.488889
721	0	0.488889
722	0	0.488889
723	0	0.488889
724	0	0.488889
725	0	0.488889
726	0	0.488889
727	0	0.488889
728	0	0.644444
729	0	0.644444
730	0	0.644444
731	0	0.644444
732	0	0.644444
733	0	0.644444
734	0	0.644444
735	0	0.644444
736	0	0.644444
737	0	0.644444
738	0	0.488889
739	0	0.488889
740	0	0.488889
741	0	0.488889
742	0	0.488889
743	0	0.488889
744	0	0.488889
745	0	0.488889
746	0	0.488889
747	0	0.488889
748	0	0.488889
749	0	0.488889
750	0	0.488889
751	0	0.488889
752	0	0.488889
753	0	0.488889
754	0	0.488889
755	0	0.488889
756	0	0.488889
757	0	0.488889
758	0	0.488889
759	0	0.488889
760	0	0.488889
761	0	0.488889
762	0	0.488889
763	0	0.488889
764	0	0.488889
765	0	0.488889
766	0	0.488889
767	0	0.488889
768	0	0.488889
769	0	0.488889
770	0	0.488889
771	0	0.488889
772	0	0.488889
773	0	0.488889
774	0	0.488889
775	0	0.488889
776	0	0.488889
777	0	0.488889
778	0	0.488889
779	0	0.488889
780	0	0.488889
781	0	0.488889
782	0	0.488889
783	0	0.488889
784	0	0.488889
785	0	0.488889
786	0	0.488889
787	0	0.488889
788	0	0.488889
789	0	0.488889
790	0	0.488889
791	0	0.488889
792	0	0.488889
793	0	0.488889
794	0	0.488889
795	0	0.488889
796	0	0.488889
797	0	0.488889
798	0	0.488889
799	0	0.488889
800	0	0.488889
801	0	0.488889
802	0	0.488889
803	0	0.488889
804	0	0.488889
805	0	0.488889
806	0	0.466667
807	0	0.466667
808	0	0.466667
809	0	0.466667
810	0	0.488889
811	0	0.488889
812	0	0.488889
813	0	0.488889
814	0	0.488889
815	0	0.488889
816	0	0.488889
817	0	0.488889
818	0	0.488889
819	0	0.488889
820	0	0.488889
821	0	0.488889
822	0	0.488889
823	0	0.488889
824	0	0.488889
825	0	0.488889
826	0	0.488889
827	0	0.488889
828	0	0.488889
829	0	0.488889
830	0	0.488889
831	0	0.488889
832	0	0.488889
833	0	0.488889
834	0	0.488889
835	0	0.488889
836	0	0.488889
837	0	0.488889
838	0	0.488889
839	0	0.4
840	0	0.4
841	0	0.4
842	0	0.4
843	0	0.4
844	0	0.4
845	0	0.4
846	0	0.4
847	0	0.4
848	0	0.4
849	0	0.4
850	0	0.4
851	0	0.4
852	0	0.4
853	0	0.4
854	0	0.4
855	0	0.4
856	0	0.4
857	0	0.4
858	0	0.4
859	0	0.4
860	0	0.4
861	0	0.4
862	0	0.4
863	0	0.4
864	0	0.4
865	0	0.4
866	0	0.4
867	0	0.4
868	0	0.4
869	0	0.4
870	0	0.4
871	0	0.4
872	0	0.4
873	0	0.4
874	0	0.4
875	0	0.4
876	0	0.4
877	0	0.4
878	0	0.4
879	0	0.4
880	0	0.4
881	0	0.4
882	0	0.4
883	0	0.4
884	0	0.4
885	0	0.4
886	0	0.4
887	0	0.4
888	0	0.4
889	0	0.4
890	0	0.4
891	0	0.4
892	0	0.4
893	0	0.4
894	0	0.4
895	0	0.4
896	0	0.4
897	0	0.4
898	0	0.4
899	0	0.4
900	0	0.4
901	0	0.4
902	0	0.4
903	0	0.4
904	0	0.4
905	0	0.4
906	0	0.4
907	0	0.4
908	0	0.4
909	0	0.4
910	0	0.4
911	0	0.4
912	0	0.4
913	0	0.4
914	0	0.4
915	0	0.4
916	0	0.4
917	0	0.4
918	0	0.4
919	0	0.4
920	0	0.4
921	0	0.4
922	0	0.4
923	0	0.4
924	0	0.4
925	0	0.4
926	0	0.4
927	0	0.4
928	0	0.4
929	0	0.4
930	0	0.4
931	0	0.4
932	0	0.177778
933	0	0.177778
934	0	0.25
935	0	0.25
936	0	0.25
937	0	0.25
938	0	0.25
939	0	0.25
940	0	0.25
941	0	0.25
942	0	0.25
943	0	0.25
944	0	0.25
945	0	0.25
946	0	0.25
947	0	0.25
948	0	0.194444
949	0	0.194444
950	0	0.305556
951	0	0.305556
952	0	0.305556
953	0	0.305556
954	0	0.305556
955	0	0.4
956	0	0.4
957	0	0.4
958	0	0.4
959	0	0.4
960	0	0.4
961	0	0.381818
962	0	0.381818
963	0	0.381818
964	0	0.381818
965	0	0.381818
966	0	0.381818
967	0	0.381818
968	0	0.381818
969	0	0.381818
970	0	0.381818
971	0	0.381818
972	0	0.381818
973	0	0.381818
974	0	0.381818
975	0	0.381818
976	0	0.381818
977	0	0.381818
978	0	0.381818
979	0	0.381818
980	0	0.381818
981	0	0.381818
982	0	0.381818
983	0	0.381818
984	0	0.381818
985	0	0.381818
986	0	0.381818
987	0	0.381818
988	0	0.381818
989	0	0.381818
990	0	0.381818
991	0	0.381818
992	0	0.381818
993	0	0.381818
994	0	0.381818
995	0	0.381818
996	0	0.381818
997	0	0.381818
998	0	0.318182
999	0	0.318182
1000	0	0.318182
1001	0	0.318182
1002	0	0.318182
1003	0	0.318182
1004	0	0.318182
1005	0	0.318182
1006	0	0.318182
1007	0	0.318182
1008	0	0.318182
1009	0	0.318182
1010	0	0.318182
1011	0	0.318182
1012	0	0.318182
1013	0	0.318182
1014	0	0.318182
1015	0	0.318182
1016	0	0.318182
1017	0	0.318182
1018	0	0.318182
1019	0	0.318182
1020	0	0.318182
1021	0	0.318182
1022	0	0.318182
1023	0	0.318182
1024	0	0.318182
1025	0	0.318182
1026	0	0.318182
1027	0	0.318182
1028	0	0.318182
1029	0	0.318182
1030	0	0.318182
1031	0	0.318182
1032	0	0.318182
1033	0	0.318182
1034	0	0.318182
1035	0	0.318182
1036	0	0.318182
1037	0	0.318182
1038	0	0.318182
1039	0	0.318182
1040	0	0.318182
1041	0	0.318182
1042	0	0.318182
1043	0	0.318182
1044	0	0.318182
1045	0	0.318182
1046	0	0.272727
1047	0	0.166667
1048	0	0.166667
1049	0	0.166667
1050	0	0.166667
1051	0	0.166667
1052	0	0.166667
1053	0	0.166667
1054	0	0.166667
1055	0	0.166667
1056	0	0.166667
1057	0	0.166667
1058	0	0.166667
1059	0	0.166667
1060	0	0.166667
1061	0	0.166667
1062	0	0.166667
1063	0	0.166667
1064	0	0.166667
1065	0	0.166667
1066	0	0.166667
1067	0	0.166667
1068	0	0.166667
1069	0	0.166667
1070	0	0.166667
1071	0	0.166667
1072	0	0.166667
1073	0	0.166667
1074	0	0.166667
1075	0	0.166667
1076	0	0.166667
1077	0	0.166667
1078	0	0.166667
1079	0	0.166667
1080	0	0.166667
1081	0	0.166667
1082	0	0.166667
1083	0	0.166667
1084	0	0.166667
1085	0	0.166667
1086	0	0.166667
1087	0	0.107143
1088	0	0.107143
1089	0	0.107143
1090	0	0.107143
1091	0	0.107143
1092	0	0.107143
1093	0	0.107143
1094	0	0.107143
1095	0	0.107143
1096	0	0.107143
1097	0	0.107143
1098	0	0.107143
1099	0	0.107143
1100	0	0.0833333
1101	0	0.0833333
1102	0	0.0833333
1103	0	0.0833333
1104	0	0.0833333
1105	0	0.0833333
1106	0	0.0833333
1107	0	0.0833333
1108	0	0.0833333
1109	0	0.0833333
1110	0	0.0833333
1111	0	0.0833333
1112	0	0.0833333
1113	0	0.0833333
1114	0	0.0833333
1115	0	0.0833333
1116	0	0.0833333
1117	0	0.0833333
1118	0	0.0833333
1119	0	0.0833333
1120	0	0.0833333
1121	0	0.0833333
1122	0	0.0833333
1123	0	0.0833333
1124	0	0.0833333
1125	0	0.0833333
1126	0	0.0833333
1127	0	0.0833333
1128	0	0.0833333
1129	0	0.0833333
1130	0	0.0833333
1131	0	0.0833333
1132	0	0.0833333
1133	0	0.0833333
1134	0	0.0833333
1135	0	0.0833333
1136	0	0.0833333
1137	0	0.0833333
1138	0	0.0833333
1139	0	0.0833333
1140	0	0.0833333
1141	0	0.0666667
1142	0	0.0666667
1143	0	0.0666667
1144	0	0.0666667
1145	0	0.0666667
1146	0	0.0666667
1147	0	0.0666667
1148	0	0.0545455
1149	0	0.0545455
1150	0	0.0545455
1151	0	0.0545455
1152	0	0.0545455
1153	0	0.0545455
1154	0	0.0545455
1155	0	0.0545455
1156	0	0
1157	0	0.0545455
1158	0	0.0545455
1159	0	0.0545455
1160	0	0.0545455
1161	0	0.0545455
1162	0	0.0545455
1163	0	0.0545455
1164	0	0.0545455
1165	0	0.0545455
1166	0	0.0545455
1167	0	0.0545455
1168	0	0.0545455
1169	0	0.0545455
1170	0	0.0545455
1171	0	0.0545455
1172	0	0.0545455
1173	0	0.0545455
1174	0	0.0545455
1175	0	0.0545455
1176	0	0.0545455
1177	0	0.0545455
1178	0	0.0545455
1179	0	0.0545455
1180	0	0.0545455
1181	0	0.0545455
1182	0	0.0545455
1183	0	0.0545455
1184	0	0.0545455
1185	0	0.0545455
1186	0	0.0454545
1187	0	0.0454545
1188	0	0.0454545
1189	0	0.0454545
1190	0	0.0454545
1191	0	0.0454545
1192	0	0.0454545
1193	0	0.0454545
1194	0	0
1195	0	0
1196	0	0
1197	0	0
1198	0	0
1199	0	0
1200	0	0
1201	0	0
1202	0	0
1203	0	0
1204	0	0
1205	0	0
1206	0	0
1207	0	0
1208	0	0
1209	0	0
1210	0	0
1211	0	0
1212	0	0
1213	0	0
1214	0	0
1215	0	0
1216	0	0
1217	0	0
1218	0	0
1219	0	0.00952381
1220	0	0.088172
1221	0	0.088172
1222	0	0.087344
1223	0	0.0615385
1224	0	0.06
1225	0	0.0625
1226	0	0.0625
1227	0	0.0643275
1228	0	0.0643275
1229	0	0.0643275
1230	0	0
1231	0	0
1232	0	0
1233	0	0
1234	0	0
1235	0	0
1236	0	0
1237	0	0
1238	0	0
1239	0	0
1240	0	0
1241	0	0
1242	0	0
1243	0	0
1244	0	0
1245	0	0
1246	0	0
1247	0	0
1248	0	0
1249	0	0
1250	0	0
1251	0	0
1252	0	0
1253	0	0
1254	0	0
1255	0	0
1256	0	0
1257	0	0
1258	0	0
1259	0	0
1260	0	0
1261	0	0
1262	0	0
1263	0	0
1264	0	0
1265	0	0
1266	0	0
1267	0	0
1268	0	0
1269	0	0
1270	0	0
1271	0	0
1272	0	0.0157895
1273	0	0.0157895
1274	0	0
1275	0	0
1276	0	0
1277	0	0
1278	0	0
1279	0	0
1280	0	0
1281	0	0
1282	0	0
1283	0	0
1284	0	0
1285	0	0.00735294
1286	0	0.00735294
1287	0	0.00735294
1288	0	0.00735294
1289	0	0.00735294
1290	0	0.00735294
1291	0	0.00735294
1292	0	0.00653595
1293	0	0.00653595
1294	0	0.00584795
1295	0	0.295556
1296	0	0.295556
1297	0	0.13913
1298	0	0.0236559
1299	0	0.0047619
1300	0	0.0047619
1301	0	0
1302	0	0
1303	0	0
1304	0	0
1305	0	0
1306	0	0
1307	0	0.004329
1308	0	0.004329
1309	0	0.004329
1310	0	0.004329
1311	0	0.004329
1312	0	0.004329
1313	0	0.00395257
1314	0	0.00790514
1315	0	0.00790514
1316	0	0.00790514
1317	0	0.00790514
1318	0	0.0118577
1319	0	0.0118577
1320	0	0.0118577
1321	0	0.0118577
1322	0	0.0197628
1323	0	0.00790514
1324	0	0.0153846
1325	0	0.0153846
1326	0	0.0153846
1327	0	0.0153846
1328	0	0.0153846
1329	0	0.0153846
1330	0	0.0153846
1331	0	0.0153846
1332	0	0.014245
1333	0	0.011396
1334	0	0.010582
1335	0	0.010582
1336	0	0.00985222
1337	0	0.00985222
1338	0	0.0091954
1339	0	0.00985222
1340	0	0.00985222
1341	0	0.00985222
1342	0	0.0114943
1343	0	0.0114943
1344	0	0.0114943
1345	0	0.0137931
1346	0	0.0137931
1347	0	0.0172043
1348	0	0.0221774
1349	0	0.021021
1350	0	0.0219512
1351	0	0.0265781
1352	0	0.0212766
1353	0	0.0221088
1354	0	0.0236735
1355	0	0.0200501
1356	0	0.0210403
1357	0	0.0219114
1358	0	0.19349
1359	0	0.170027
1360	0	0.180558
1361	0	0.179795
1362	0	0
1363	0	0
1364	0	0
1365	0	0
1366	0	0
1367	0	0
1368	0	0
1369	0	0
1370	0	0
1371	0	0
1372	0	0
1373	0	0
1374	0	0
1375	0	0
1376	0	0
1377	0	0
1378	0	0
1379	0	0
1380	0	0
1381	0	0
1382	0	0
1383	0	0
1384	0	0
1385	0	0
1386	0	0
1387	0	0
1388	0	0.0181818
1389	0	0.0181818
1390	0	0
1391	0	0
1392	0	0
1393	0	0
1394	0	0
1395	0	0
1396	0	0
1397	0	0
1398	0	0
1399	0	0
1400	0	0
1401	0	0
1402	0	0
1403	0	0.156695
1404	0	0.145503
1405	0	0.137931
1406	0	0.125
1407	0	0.128283
1408	0	0.264789
1409	0	0.320235
1410	0	0.225039
1411	0	0.171378
1412	0	0.165491
1413	0	0.451065
1414	0	0.307531
1415	0	0.313975
1416	0	0.196005
1417	0	0.355072
1418	0	0
1419	0	0
1420	0	0
1421	0	0
1422	0	0
1423	0	0
1424	0	0
1425	0	0
1426	0	0
1427	0	0
1428	0	0
1429	0	0
1430	0	0
1431	0	0
1432	0	0
1433	0	0
1434	0	0
1435	0	0
1436	0	0.104762
1437	0	0.0924731
1438	0	0.0350877
1439	0	0.0819565
1440	0	0.0665102
1441	0	0.0194265
1442	0	0.0242424
1443	0	0.164775
1444	0	0
1445	0	0
1446	0	0
1447	0	0
1448	0	0
1449	0	0
1450	0	0
1451	0	0
1452	0	0
1453	0	0
1454	0	0
1455	0	0
1456	0	0
1457	0	0
1458	0	0
1459	0	0
1460	0	0
1461	0	0
1462	0	0
1463	0	0
1464	0	0
1465	0	0
1466	0	0
1467	0	0
1468	0	0
1469	0	0
1470	0	0.321589
1471	0	0.369505
1472	0	0.376477
1473	0	0.0233918
1474	0	0.0233918
1475	0	0.0294118
1476	0	0.0294118
1477	0	0.0333333
1478	0	0.0333333
1479	0	0.0333333
1480	0	0.0333333
1481	0	0.0333333
1482	0	0.0333333
1483	0	0.0380952
1484	0	0.0294118
1485	0	0.0333333
1486	0	0.0294118
1487	0	0.107143
1488	0	0.107143
1489	0	0.107143
1490	0	0.0294118
1491	0	0.0294118
1492	0	0.0294118
1493	0	0.0294118
1494	0	0.04329
1495	0	0.0395257
1496	0	0.0541872
1497	0	0.115288
1498	0	0.0974359
1499	0	0.0766585
1500	0	0.0750572
1501	0	0.096601
1502	0	0.101602
1503	0	0.103553
1504	0	0.0857143
1505	0	0.0857143
1506	0	0.0857143
1507	0	0.0857143
1508	0	0.0666667
1509	0	0.175617
1510	0	0.16039
1511	0	0.167003
1512	0	0.15003
1513	0	0.130508
1514	0	0.0640404
1515	0	0.0428779
1516	0	0.09566
1517	0	0
1518	0	0
1519	0	0
1520	0	0
1521	0	0
1522	0	0
1523	0	0
1524	0	0
1525	0	0
1526	0	0
1527	0	0
1528	0	0
1529	0	0
1530	0	0
1531	0	0
1532	0	0
1533	0	0
1534	0	0
1535	0	0.217136
1536	0	0.19614
1537	0	0.170159
1538	0	0.163609
1539	0	0.374207
1540	0	0.273273
1541	0	0.0909091
1542	0	0.109091
1543	0	0.109091
1544	0	0.109091
1545	0	0.444336
1546	0	0.530061
1547	0	0.489825
1548	0	0.198413
1549	0	0
1550	0	0
1551	0	0
1552	0	0
1553	0	0
1554	0	0
1555	0	0
1556	0	0
1557	0	0
1558	0	0
1559	0	0
1560	0	0
1561	0	0
1562	0	0
1563	0	0
1564	0	0
1565	0	0
1566	0	0
1567	0	0
1568	0	0
1569	0	0
1570	0	0
1571	0	0
1572	0	0
1573	0	0
1574	0	0
1575	0	0
1576	0	0
1577	0	0
1578	0	0
1579	0	0
1580	0	0
1581	0	0
1582	0	0
1583	0	0
1584	0	0
1585	0	0
1586	0	0
1587	0	0
1588	0	0
1589	0	0
1590	0	0
1591	0	0
1592	0	0
1593	0	0
1594	0	0
1595	0	0
1596	0	0
1597	0	0
1598	0	0
1599	0	0
1600	0	0
1601	0	0
1602	0	0
1603	0	0
1604	0	0
1605	0	0
1606	0	0
1607	0	0
1608	0	0
1609	0	0
1610	0	0
1611	0	0
1612	0	0
1613	0	0
1614	0	0
1615	0	0
1616	0	0
1617	0	0
1618	0	0
1619	0	0
1620	0	0
1621	0	0
1622	0	0
1623	0	0
1624	0	0
1625	0	0
1626	0	0
1627	0	0
1628	0	0
1629	0	0
1630	0	0
1631	0	0
1632	0	0
1633	0	0
1634	0	0
1635	0	0
1636	0	0
1637	0	0
1638	0	0
1639	0	0
1640	0	0
1641	0	0
1642	0	0
1643	0	0
1644	0	0
1645	0	0
1646	0	0
1647	0	0
1648	0	0
1649	0	0
1650	0	0
1651	0	0
1652	0	0
1653	0	0
1654	0	0
1655	0	0
1656	0	0
1657	0	0
1658	0	0
1659	0	0.720798
1660	0	0.228421
1661	0	0.138925
1662	0	0.140338
1663	0	0
1664	0	0
1665	0	0
1666	0	0
1667	0	0
1668	0	0
1669	0	0
1670	0	0
1671	0	0
1672	0	0
1673	0	0
1674	0	0
1675	0	0
1676	0	0
1677	0	0
1678	0	0
1679	0	0
1680	0	0
1681	0	0
1682	0	0
1683	0	0
1684	0	0
1685	0	0
1686	0	0
1687	0	0
1688	0	0
1689	0	0
1690	0	0
1691	0	0
1692	0	0
1693	0	0
1694	0	0
1695	0	0
1696	0	0
1697	0	0
1698	0	0
1699	0	0
1700	0	0
1701	0	0
1702	0	0
1703	0	0
1704	0	0
1705	0	0
1706	0	0
1707	0	0
1708	0	0
1709	0	0
1710	0	0
1711	0	0
1712	0	0
1713	0	0
1714	0	0
1715	0	0
1716	0	0
1717	0	0
1718	0	0
1719	0	0
1720	0	0
1721	0	0
1722	0	0
1723	0	0
1724	0	0
1725	0	0.0339882
1726	0	0.0332057
1727	0	0.0436346
1728	0	0.107143
1729	0	0.107143
1730	0	0.107143
1731	0	0.107143
1732	0	0.107143
1733	0	0.107143
1734	0	0.107143
1735	0	0.107143
1736	0	0.107143
1737	0	0.107143
1738	0	0.107143
1739	0	0.107143
1740	0	0.107143
1741	0	0.107143
1742	0	0.107143
1743	0	0.107143
1744	0	0.107143
1745	0	0.107143
1746	0	0.107143
1747	0	0.107143
1748	0	0.107143
1749	0	0.107143
1750	0	0.107143
1751	0	0.107143
1752	0	0.107143
1753	0	0.107143
1754	0	0.107143
1755	0	0.107143
1756	0	0.107143
1757	0	0.107143
1758	0	0.107143
1759	0	0.0833333
1760	0	0.0833333
1761	0	0.0833333
1762	0	0.0833333
1763	0	0.0833333
1764	0	0.0833333
1765	0	0.0833333
1766	0	0.0833333
1767	0	0.0833333
1768	0	0.0833333
1769	0	0.0833333
1770	0	0.0833333
1771	0	0.0666667
1772	0	0.0666667
1773	0	0.0174603
1774	0	0.032967
1775	0	0.232051
1776	0	0.175532
1777	0	0.132671
1778	0	0.0916993
1779	0	0.164112
1780	0	0.150767
1781	0	0.128231
1782	0	0.139743
1783	0	0.142434
1784	0	0.134049
1785	0	0.136588
1786	0	0.133595
1787	0	0.112637
1788	0	0.113724
1789	0	0.116859
1790	0	0.109825
1791	0	0.123757
1792	0	0.185618
1793	0	0.135686
1794	0	0.161106
1795	0	0.147059
1796	0	0.19813
1797	0	0.211448
1798	0	0.181176
1799	0	0.199815
1800	0	0.365248
1801	0	0.0350877
1802	0	0.0350877
1803	0	0.0392157
1804	0	0.0350877
1805	0	0.0428571
1806	0	0.0392157
1807	0	0.047619
1808	0	0.05
1809	0	0.0549451
1810	0	0.0549451
1811	0	0.0641026
1812	0	0.0727273
1813	0	0.0727273
1814	0	0.0727273
1815	0	0.0363636
1816	0	0.0727273
1817	0	0.0357143
1818	0	0.0357143
1819	0	0.0357143
1820	0	0.0357143
1821	0	0.0357143
1822	0	0.0357143
1823	0	0.0357143
1824	0	0.0357143
1825	0	0.047619
1826	0	0.0666667
1827	0	0.0666667
1828	0	0.0666667
1829	0	0.0666667
1830	0	0.0666667
1831	0	0.0666667
1832	0	0.0666667
1833	0	0.0666667
1834	0	0.0666667
1835	0	0.0666667
1836	0	0.0666667
1837	0	0.0666667
1838	0	0.0666667
1839	0	0.0666667
1840	0	0.0666667
1841	0	0.0666667
1842	0	0.0666667
1843	0	0.1
1844	0	0.1
1845	0	0.1
1846	0	0.1
1847	0	0.1
1848	0	0.1
1849	0	0.1
1850	0	0.1
1851	0	0.1
1852	0	0.1
1853	0	0.1
1854	0	0.1
1855	0	0.166667
1856	0	0.166667
1857	0	0.166667
1858	0	0.166667
1859	0	0.166667
1860	0	0.166667
1861	0	0.166667
1862	0	0.166667
1863	0	0.166667
1864	0	0.166667
1865	0	0.166667
1866	0	0.166667
1867	0	0.166667
1868	0	0.166667
1869	0	0.166667
1870	0	0.166667
1871	0	0.166667
1872	0	0.166667
1873	0	0.166667
1874	0	0.166667
1875	0	0.166667
1876	0	0.166667
1877	0	0.166667
1878	0	0.166667
1879	0	0.166667
1880	0	0.166667
1881	0	0.166667
1882	0	0.166667
1883	0	0.166667
1884	0	0.166667
1885	0	0.166667
1886	0	0.166667
1887	0	0
1888	0	0
1889	0	0
1890	0	0
1891	0	0
1892	0	0
1893	0	0
1894	0	0
1895	0	0
1896	0	0
1897	0	0
1898	0	0
1899	0	0
1900	0	0
1901	0	0
1902	0	0
1903	0	0
1904	0	0
1905	0	0
1906	0	0
1907	0	0
1908	0	0
1909	0	0
1910	0	0
1911	0	0
1912	0	0
1913	0	0
1914	0	0
1915	0	0
1916	0	0
1917	0	0
1918	0	0
1919	0	0
1920	0	0
1921	0	0
1922	0	0
1923	0	0
1924	0	0
1925	0	0
1926	0	0
1927	0	0
1928	0	0
1929	0	0
1930	0	0
1931	0	0
1932	0	0
1933	0	0
1934	0	0
1935	0	0
1936	0	0
1937	0	0
1938	0	0
1939	0	0
1940	0	0
1941	0	0
1942	0	0
1943	0	0
1944	0	0
1945	0	0
1946	0	0
1947	0	0
1948	0	0
1949	0	0
1950	0	0
1951	0	0
1952	0	0
1953	0	0
1954	0	0
1955	0	0
1956	0	0
1957	0	0
1958	0	0.466667
1959	0	0
1960	0	0
1961	0	0
1962	0	0
1963	0	0
1964	0	0.333333
1965	0	0.333333
1966	0	0.333333
1967	0	0.333333
1968	0	0.333333
1969	0	0.333333
1970	0	0.333333
1971	0	0.333333
1972	0	0.333333
1973	0	0.333333
1974	0	0.333333
1975	0	0.333333
1976	0	0.333333
1977	0	0.333333
1978	0	0.333333
1979	0	0.333333
1980	0	0.333333
1981	0	0.333333
1982	0	0.333333
1983	0	0.333333
1984	0	0.333333
1985	0	0.333333
1986	0	0.333333
1987	0	0.333333
1988	0	0.333333
1989	0	0.333333
1990	0	0.333333
1991	0	0.333333
1992	0	0.333333
1993	0	0.333333
1994	0	0.333333
1995	0	0.333333
1996	0	0.333333
1997	0	0.333333
1998	0	0.333333
1999	0	0.676471
2000	0	0.333333
2001	0	0.333333
2002	0	0.333333
2003	0	0.333333
2004	0	0.333333
2005	0	0.333333
2006	0	0.333333
2007	0	0.333333
2008	0	0.333333
2009	0	0.333333
2010	0	0.333333
2011	0	0.333333
2012	0	0.310447
2013	0	0.486651
2014	0	0.0833333
2015	0	0.107143
2016	0	0
2017	0	0
2018	0	0
2019	0	0
2020	0	0
2021	0	0
2022	0	0
2023	0	0
2024	0	0
2025	0	0
2026	0	0
2027	0	0
2028	0	0
2029	0	0
2030	0	0
2031	0	0
2032	0	0
2033	0	0
2034	0	0
2035	0	0
2036	0	0
2037	0	0
2038	0	0
2039	0	0
2040	0	0
2041	0	0
2042	0	0
2043	0	0
2044	0	0
2045	0	0
2046	0	0
2047	0	0
2048	0	0
2049	0	0
2050	0	0
2051	0	0
2052	0	0
2053	0	0
2054	0	0
2055	0	0
2056	0	0
2057	0	0
2058	0	0
2059	0	0
2060	0	0
2061	0	0
2062	0	0
2063	0	0
2064	0	0
2065	0	0
2066	0	0
2067	0	0
2068	0	0
2069	0	0
2070	0	0
2071	0	0
2072	0	0
2073	0	0
2074	0	0
2075	0	0
2076	0	0
2077	0	0
2078	0	0
2079	0	0
2080	0	0
2081	0	0
2082	0	0
2083	0	0
2084	0	0
2085	0	0
2086	0	0
2087	0	0
2088	0	0
2089	0	0
2090	0	0
2091	0	0
2092	0	0
2093	0	0
2094	0	0
2095	0	0
2096	0	0
2097	0	0
2098	0	0
2099	0	0
2100	0	0
2101	0	0
2102	0	0
2103	0	0
2104	0	0
2105	0	0
2106	0	0
2107	0	0
2108	0	0
2109	0	0
2110	0	0
2111	0	0
2112	0	0
2113	0	0
2114	0	0
2115	0	0
2116	0	0
2117	0	0
2118	0	0
2119	0	0
2120	0	0
2121	0	0
2122	0	0
2123	0	0
2124	0	0
2125	0	0
2126	0	0
2127	0	0
2128	0	0
2129	0	0
2130	0	0
2131	0	0
2132	0	0
2133	0	0
2134	0	0
2135	0	0
2136	0	0
2137	0	0
2138	0	0
2139	0	0
2140	0	0
2141	0	0
2142	0	0
2143	0	0
2144	0	0
2145	0	0
2146	0	0
2147	0	0
2148	0	0
2149	0	0
2150	0	0
2151	0	0
2152	0	0
2153	0	0
2154	0	0
2155	0	0
2156	0	0
2157	0	0
2158	0	0
2159	0	0
2160	0	0
2161	0	0
2162	0	0
2163	0	0
2164	0	0
2165	0	0
2166	0	0
2167	0	0
2168	0	0
2169	0	0
2170	0	0
2171	0	0
2172	0	0
2173	0	0
2174	0	0
2175	0	0
2176	0	0
2177	0	0
2178	0	0
2179	0	0
2180	0	0
2181	0	0
2182	0	0
2183	0	0
2184	0	0
2185	0	0
2186	0	0
2187	0	0
2188	0	0
2189	0	0
2190	0	0
2191	0	0
2192	0	0
2193	0	0
2194	0	0
2195	0	0
2196	0	0
2197	0	0
2198	0	0
2199	0	0
2200	0	0
2201	0	0
2202	0	0
2203	0	0
2204	0	0
2205	0	0
2206	0	0
2207	0	0
2208	0	0
2209	0	0
2210	0	0
2211	0	0
2212	0	0
2213	0	0
2214	0	0
2215	0	0
2216	0	0
2217	0	0
2218	0	0
2219	0	0
2220	0	0
2221	0	0
2222	0	0
2223	0	0
2224	0	0
2225	0	0
2226	0	0
2227	0	0
2228	0	0
2229	0	0
2230	0	0
2231	0	0
2232	0	0
2233	0	0
2234	0	0
2235	0	0
2236	0	0
2237	0	0
2238	0	0
2239	0	0
2240	0	0
2241	0	0
2242	0	0
2243	0	0
2244	0	0
2245	0	0
2246	0	0
2247	0	0
2248	0	0
2249	0	0.285714
2250	0	0.285714
2251	0	0
2252	0	0
2253	0	0
2254	0	0
2255	0	0
2256	0	0
2257	0	0
2258	0	0
2259	0	0
2260	0	0
2261	0	0
2262	0	0
2263	0	0
2264	0	0
2265	0	0
2266	0	0
2267	0	0
2268	0	0
2269	0	0
2270	0	0
2271	0	0
2272	0	0
2273	0	0.191529
2274	0	0.195538
2275	0	0.0666667
2276	0	0.0666667
2277	0	0.1
2278	0	0.1
2279	0	0.5
2280	0	0
2281	0	0
2282	0	0
2283	0	0
2284	0	0
2285	0	0
2286	0	0
2287	0	0
2288	0	0
2289	0	0
2290	0	0
2291	0	0.624467
2292	0	0.624467
2293	0	0.650794
2294	0	0.255411
2295	0	0
2296	0	0
2297	0	0
2298	0	0
2299	0	0
2300	0	0
2301	0	0
2302	0	0
2303	0	0
2304	0	0
2305	0	0
2306	0	0
2307	0	0
2308	0	0
2309	0	0
2310	0	0
2311	0	0
2312	0	0
2313	0	0
2314	0	0
2315	0	0
2316	0	0
2317	0	0
2318	0	0
2319	0	0
2320	0	0
2321	0	0
2322	0	0
2323	0	0
2324	0	0
2325	0	0
2326	0	0
2327	0	0
2328	0	0
2329	0	0
2330	0	0
2331	0	0
2332	0	0
2333	0	0
2334	0	0
2335	0	0
2336	0	0
2337	0	0
2338	0	0
2339	0	0
2340	0	0
2341	0	0
2342	0	0
2343	0	0
2344	0	0
2345	0	0
2346	0	0
2347	0	0
2348	0	0
2349	0	0
2350	0	0
2351	0	0
2352	0	0
2353	0	0
2354	0	0
2355	0	0
2356	0	0
2357	0	0
2358	0	0
2359	0	0
2360	0	0
2361	0	0
2362	0	0
2363	0	0
2364	0	0
2365	0	0
2366	0	0
2367	0	0
2368	0	0
2369	0	0
2370	0	0
2371	0	0
2372	0	0
2373	0	0
2374	0	0
2375	0	0
2376	0	0
2377	0	0
2378	0	0
2379	0	0
2380	0	0
2381	0	0
2382	0	0
2383	0	0
2384	0	0
2385	0	0
2386	0	0
2387	0	0
2388	0	0
2389	0	0
2390	0	0
2391	0	0
2392	0	0
2393	0	0
2394	0	0
2395	0	0
2396	0	0
2397	0	0
2398	0	0
2399	0	0
2400	0	0
2401	0	0
2402	0	0
2403	0	0
2404	0	0
2405	0	0
2406	0	0
2407	0	0
2408	0	0
2409	0	0
2410	0	0
2411	0	0
2412	0	0
2413	0	0
2414	0	0
2415	0	0
2416	0	0
2417	0	0
2418	0	0
2419	0	0
2420	0	0
2421	0	0
2422	0	0
2423	0	0
2424	0	0
2425	0	0
2426	0	0
2427	0	0
2428	0	0
2429	0	0
2430	0	0
2431	0	0
2432	0	0
2433	0	0
2434	0	0
2435	0	0
2436	0	0
2437	0	0
2438	0	0
2439	0	0
2440	0	0
2441	0	0
2442	0	0
2443	0	0
2444	0	0
2445	0	0
2446	0	0
2447	0	0
2448	0	0
2449	0	0
2450	0	0
2451	0	0
2452	0	0
2453	0	0
2454	0	0
2455	0	0
2456	0	0
2457	0	0
2458	0	0
2459	0	0
2460	0	0
2461	0	0
2462	0	0
2463	0	0
2464	0	0
2465	0	0
2466	0	0
2467	0	0
2468	0	0
2469	0	0
2470	0	0
2471	0	0
2472	0	0
2473	0	0
2474	0	0
2475	0	0
2476	0	0
2477	0	0
2478	0	0
2479	0	0
2480	0	0
2481	0	0
2482	0	0
2483	0	0
2484	0	0
2485	0	0
2486	0	0
2487	0	0
2488	0	0
2489	0	0
2490	0	0
2491	0	0
2492	0	0
2493	0	0
2494	0	0
2495	0	0
2496	0	0
2497	0	0
2498	0	0
2499	0	0
2500	0	0
2501	0	0
2502	0	0
2503	0	0
2504	0	0
2505	0	0
2506	0	0
2507	0	0
2508	0	0
2509	0	0
2510	0	0
2511	0	0
2512	0	0
2513	0	0
2514	0	0
2515	0	0
2516	0	0
2517	0	0
2518	0	0
2519	0	0
2520	0	0
2521	0	0
2522	0	0
2523	0	0
2524	0	0
2525	0	0
2526	0	0
2527	0	0
2528	0	0.195929
2529	0	0.787757
2530	0	0.785084
2531	0	0
2532	0	0
2533	0	0
2534	0	0
2535	0	0
2536	0	0
2537	0	0
2538	0	0
2539	0	0
2540	0	0
2541	0	0
2542	0	0
2543	0	0
2544	0	0
2545	0	0
2546	0	0
2547	0	0
2548	0	0
2549	0	0
2550	0	0
2551	0	0
2552	0	0
2553	0	0
2554	0	0
2555	0	0
2556	0	0
2557	0	0
2558	0	0
2559	0	0.863167
2560	0	0.262911
2561	0	0
2562	0	0.287552
2563	0	0
2564	0	0
2565	0	0
2566	0	0
2567	0	0
2568	0	0
2569	0	0
2570	0	0.383209
2571	0	0.047619
2572	0	0.047619
2573	0	0.047619
2574	0	0.1
2575	0	0.1
2576	0	0.1
2577	0	0.1
2578	0	0.190476
2579	0	0.285714
2580	0	0.285714
2581	0	0.534153
2582	0	0.266667
2583	0	0.166667
2584	0	0
2585	0	0
2586	0	0.5
2587	0	0.5
2588	0	0
2589	0	0
2590	0	0
2591	0	0
2592	0	0
2593	0	0
2594	0	0
2595	0	0
2596	0	0
2597	0	0
2598	0	0
2599	0	0
2600	0	0.383333
2601	0	0
2602	0	0
2603	0	0
2604	0	0
2605	0	0
2606	0	0
2607	0	0
2608	0	0
2609	0	0
2610	0	0
2611	0	0
2612	0	0
2613	0	0
2614	0	0
2615	0	0
2616	0	0
2617	0	0
2618	0	0
2619	0	0
2620	0	0
2621	0	0
2622	0	0
2623	0	0
2624	0	0
2625	0	0
2626	0	0
2627	0	0
2628	0	0
2629	0	0
2630	0	0
2631	0	0
2632	0	0
2633	0	0
2634	0	0
2635	0	0
2636	0	0
2637	0	0
2638	0	0
2639	0	0
2640	0	0
2641	0	0
2642	0	0
2643	0	0
2644	0	0
2645	0	0
2646	0	0
2647	0	0
2648	0	0
2649	0	0
2650	0	0
2651	0	0
2652	0	0
2653	0	0
2654	0	0
2655	0	0
2656	0	0
2657	0	0
2658	0	0
2659	0	0
2660	0	0
2661	0	0
2662	0	0
2663	0	0
2664	0	0
2665	0	0
2666	0	0
2667	0	0
2668	0	0
2669	0	0
2670	0	0
2671	0	0
2672	0	0
2673	0	0
2674	0	0
2675	0	0
2676	0	0
2677	0	0
2678	0	0
2679	0	0
2680	0	0
2681	0	0
2682	0	0
2683	0	0
2684	0	0
2685	0	0
2686	0	0
2687	0	0
2688	0	0
2689	0	0
2690	0	0
2691	0	0
2692	0	0
2693	0	0
2694	0	0
2695	0	0
2696	0	0
2697	0	0
2698	0	0
2699	0	0
2700	0	0
2701	0	0
2702	0	0
2703	0	0
2704	0	0
2705	0	0
2706	0	0
2707	0	0
2708	0	0
2709	0	0
2710	0	0
2711	0	0
2712	0	0
2713	0	0
2714	0	0
2715	0	0
2716	0	0
2717	0	0
2718	0	0
2719	0	0
2720	0	0
2721	0	0
2722	0	0
2723	0	0
2724	0	0
2725	0	0
2726	0	0
2727	0	0
2728	0	0
2729	0	0
2730	0	0
2731	0	0
2732	0	0
2733	0	0
2734	0	0
2735	0	0
2736	0	0
2737	0	0
2738	0	0
2739	0	0
2740	0	0
2741	0	0
2742	0	0
2743	0	0
2744	0	0
2745	0	0
2746	0	0
2747	0	0
2748	0	0
2749	0	0
2750	0	0
2751	0	0
2752	0	0
2753	0	0
2754	0	0
2755	0	0
2756	0	0
2757	0	0
2758	0	0
2759	0	0
2760	0	0
2761	0	0
2762	0	0
2763	0	0
2764	0	0
2765	0	0
2766	0	0
2767	0	0
2768	0	0
2769	0	0
2770	0	0
2771	0	0
2772	0	0
2773	0	0
2774	0	0
2775	0	0
2776	0	0
2777	0	0
2778	0	0
2779	0	0
2780	0	0
2781	1	0
2782	1	0
2783	1	0
2784	0	0
2785	0	0
2786	0	0
2787	0	0
2788	0	0
2789	0	0
2790	0	0
2791	0	0
2792	0	0.785828
2793	0	0
2794	0	0
2795	0	0
2796	0	0
2797	0	0
2798	0	0.333333
2799	0	0.333333
2800	0	0.333333
2801	0	0.333333
2802	0	0.333333
2803	0	0
2804	0	0.333333
2805	0	1
2806	0	0.517158
2807	0	0.277778
2808	0	0.277778
2809	0	0
2810	0	0
2811	0	0
2812	0	0
2813	0	0.144928
2814	0	0.126482
2815	0	0.119565
2816	0	0.119565
2817	0	0.126812
2818	0	0.119565
2819	0	0.395354
2820	0	0.352632
2821	0	0.352632
2822	0	0.352632
2823	0	0.290043
2824	0	0.319048
2825	0	0.312253
2826	0	0.341991
2827	0	0.337662
2828	0	0.0626582
2829	0	0.042777
2830	0	0.455795
2831	0	0.57
2832	0	0.420635
2833	0	0
2834	0	0
2835	0	0
2836	0	0
2837	0	0
2838	0	0
2839	0	0
2840	0	0
2841	0	0
2842	0	0
2843	0	0
2844	0	0
2845	0	0
2846	0	0
2847	0	0
2848	0	0
2849	0	0
2850	0	0
2851	0	0
2852	0	0
2853	0	0
2854	0	0
2855	0	0
2856	0	0
2857	0	0
2858	0	0
2859	0	0
2860	0	0
2861	0	0
2862	0	0
2863	0	0
2864	0	0.313914
2865	0	0
2866	0	0
2867	0	0
2868	0	0
2869	0	0
2870	0	0
2871	0	0
2872	0	0
2873	0	0
2874	0	0
2875	0	0
2876	0	0
2877	0	0
2878	0	0
2879	0	0
2880	0	0.0128205
2881	0	0.224086
2882	0	0
2883	0	0
2884	0	0
2885	0	0
2886	0	0
2887	0	0
2888	0	0
2889	0	0
2890	0	0
2891	0	0
2892	0	0
2893	0	0
2894	0	0
2895	0	0
2896	0	0
2897	0	0
2898	0	0.0666667
2899	0	0.123077
2900	0	0.10641
2901	0	0.130435
2902	0	0.135511
2903	0	0.164504
2904	0	0.0989664
2905	0	0.150781
2906	0	0
2907	0	0
2908	0	0
2909	0	0
2910	0	0
2911	0	0
2912	0	0
2913	0	0
2914	0	0
2915	0	0
2916	0	0.277778
2917	0	0.222222
2918	0	0.244444
2919	0	0.242079
2920	0	0.0555556
2921	0	0.0444444
2922	0	0.0444444
2923	0	0.0444444
2924	0	0.0444444
2925	0	0.0545455
2926	0	0.109091
2927	0	0.0909091
2928	0	0.109091
2929	0	0.197802
2930	0	0.386301
2931	0	0
2932	0	0
2933	0	0
2934	0	0
2935	0	0
2936	0	0
2937	0	0
2938	0	0
2939	0	0
2940	0	0
2941	0	0
2942	0	0
2943	0	0
2944	0	0
2945	0	0
2946	0	0
2947	0	0
2948	0	0
2949	0	0
2950	0	0
2951	0	0
2952	0	0
2953	0	0
2954	0	0
2955	0	0
2956	0	0
2957	0	0
2958	0	0
2959	0	0
2960	0	0
2961	0	0
2962	0	0.166667
2963	0	0.444444
2964	0	0.444444
2965	0	0.538785
2966	0	0
2967	0	0
2968	0	0
2969	0	0
2970	0	0
2971	0	0
2972	0	0
2973	0	0
2974	0	0
2975	0	0
2976	0	0
2977	0	0
2978	0	0
2979	0	0
2980	0	0
2981	0	0
2982	0	0
2983	0	0
2984	0	0
2985	0	0
2986	0	0
2987	0	0
2988	0	0
2989	0	0
2990	0	0
2991	0	0
2992	0	0
2993	0	0
2994	0	0
2995	0	0
2996	0	0
2997	0	0
2998	0	0
2999	0	0
3000	0	0
3001	0	0
3002	0	0
3003	0	0
3004	0	0
3005	0	0
3006	0	0
3007	0	0
3008	0	0
3009	0	0
3010	0	0
3011	0	0
3012	0	0
3013	0	0
3014	0	0
3015	0	0
3016	0	0
3017	0	0
3018	0	0
3019	0	0
3020	0	0
3021	0	0
3022	0	0
3023	0	0
3024	0	0
3025	0	0
3026	0	0
3027	0	0
3028	0	0
3029	0	0
3030	0	0
3031	0	0
3032	0	0
3033	0	0
3034	0	0
3035	0	0
3036	0	0
3037	0	0
3038	0	0
3039	0	0
3040	0	0
3041	0	0
3042	0	0
3043	0	0
3044	0	0
3045	0	0
3046	0	0
3047	0	0
3048	0	0
3049	0	0
3050	0	0
3051	0	0
3052	0	0
3053	0	0
3054	0	0
3055	0	0
3056	0	0
3057	0	0
3058	0	0
3059	0	0
3060	0	0
3061	0	0
3062	0	0
3063	0	0
3064	0	0
3065	0	0
3066	0	0
3067	0	0
3068	0	0
3069	0	0
3070	0	0
3071	0	0
3072	0	0
3073	0	0
3074	0	0
3075	0	0
3076	0	0
3077	0	0
3078	0	0
3079	0	0
3080	0	0
3081	0	0
3082	0	0
3083	0	0
3084	0	0
3085	0	0
3086	0	0
3087	0	0
3088	0	0
3089	0	0
3090	0	0
3091	0	0
3092	0	0
3093	0	0
3094	0	0
3095	0	0
3096	0	0
3097	0	0
3098	0	0
3099	0	0
3100	0	0
3101	0	0
3102	0	0
3103	0	0
3104	0	0
3105	0	0
3106	0	0
3107	0	0
3108	0	0
3109	0	0
3110	0	0
3111	0	0
3112	0	0
3113	0	0
3114	0	0
3115	0	0
3116	0	0
3117	0	0
3118	0	0
3119	0	0
3120	0	0
3121	0	0
3122	0	0
3123	0	0
3124	0	0
3125	0	0
3126	0	0
3127	0	0
3128	0	0
3129	0	0
3130	0	0
3131	0	0
3132	0	0
3133	0	0
3134	0	0
3135	0	0
3136	0	0
3137	0	0
3138	0	0
3139	0	0
3140	0	0
3141	0	0
3142	0	0
3143	0	0
3144	0	0
3145	0	0
3146	0	0
3147	0	0
3148	0	0
3149	0	0
3150	0	0
3151	0	0
3152	0	0
3153	0	0
3154	0	0
3155	0	0
3156	0	0
3157	0	0
3158	0	0
3159	0	0
3160	0	0
3161	0	0
3162	0	0
3163	0	0
3164	0	0
3165	0	0
3166	0	0
3167	0	0
3168	0	0
3169	0	0
3170	0	0
3171	0	0
3172	0	0
3173	0	0
3174	0	0
3175	0	0
3176	0	0.166667
3177	0	0.404258
3178	0	0.333383
3179	0	0.365335
3180	0	0.442296
3181	0	0.468371
3182	0	0.486236
3183	0	0.495071
3184	0	0.500517
3185	0	0.518443
3186	0	0.359043
3187	0	0.318262
3188	0	0.371717
3189	0	0.535735
3190	0	0.535694
3191	0	0.526119
3192	0	0.6539
3193	0	0.327986
3194	0	0.171429
3195	0	0.0833333
3196	0	0.133333
3197	0	0.166667
3198	0	0.166667
3199	0	0.166667
3200	0	0.333333
3201	0	0.333333
3202	0	0.333333
3203	0	1
3204	0	0.720606
3205	0	0.720834
3206	0	0.73592
3207	0	0.677455
3208	0	0.453968
3209	0	0.713846
3210	0	0.713846
3211	0	0.713846
3212	0	0.573892
3213	0	0.660969
3214	0	0.649231
3215	0	0.696722
3216	0	0.793476
3217	0	0
3218	0	0
3219	0	0
3220	0	0.1
3221	0	0.1
3222	0	0.166667
3223	0	0.166667
3224	0	0.5
3225	0	0.5
3226	0	0.5
3227	0	0.5
3228	0	0.5
3229	0	0.5
3230	0	1
3231	0	0.806386
3232	0	0.806386
3233	0	0.809714
3234	0	0.810182
3235	0	0.810182
3236	0	0.810182
3237	0	0.811691
3238	0	0.811846
3239	0	0.811846
3240	0	0.812
3241	0	0.812
3242	0	0.812
3243	0	0.810338
3244	0	0.810338
3245	0	0.810338
3246	0	0.810338
3247	0	0.810494
3248	0	0.810494
3249	0	0.810494
3250	0	0.812
3251	0	0.810182
3252	0	0.810182
3253	0	0.810182
3254	0	0.810182
3255	0	0.809243
3256	0	0.666667
3257	0	0.47619
3258	0	0.789976
3259	0	0.77797
3260	0	0.812308
3261	0	0.812308
3262	0	0.812308
3263	0	0.812308
3264	0	0.812308
3265	0	0.812154
3266	0	0.810649
3267	0	0.810649
3268	0	0.810649
3269	0	0.810649
3270	0	0.810649
3271	0	0.814286
3272	0	0.865491
3273	0	0.472173
3274	0	0.469684
3275	0	0
3276	0	0.758333
3277	0	0.472791
3278	0	1
3279	0	1
3280	0	1
3281	0	0
3282	0	0.354244
3283	0	0.20915
3284	0	0.196676
3285	0	0.678521
3286	0	0.672482
3287	0	0.680737
3288	0	0.483021
3289	0	0.482598
3290	0	0.406647
3291	0	0.217272
3292	0	0.511902
3293	0	0.291113
3294	0	0.961681
3295	0	0.961681
3296	0	0.961681
3297	0	0.980816
3298	0	0.529368
3299	0	0.52936
3300	0	0.804511
3301	0	0.804511
3302	0	0
3303	0	0
3304	0	0
3305	0	0
3306	0	0
3307	0	0
3308	0	0
3309	0	0
3310	0	0.792955
3311	0	0
3312	0	0
3313	0	0
3314	0	0
3315	0	0
3316	0	0
3317	0	0
3318	0	0
3319	0	0
3320	0	0
3321	0	0.812
3322	0	0.812
3323	0	0.812
3324	0	0.812
3325	0	0.812
3326	0	0.811807
3327	0	0.811807
3328	0	0.811652
3329	0	0.811807
3330	0	0.811807
3331	0	0.811807
3332	0	0.811961
3333	0	0.811961
3334	0	0.811961
3335	0	0.810494
3336	0	0.808991
3337	0	0.810494
3338	0	0.805524
3339	0	0.811691
3340	0	0.812
3341	0	0.812308
3342	0	0.812308
3343	0	0.812308
3344	0	0.812308
3345	0	0.812308
3346	0	0.812308
3347	0	0.812308
3348	0	0.812308
3349	0	0.812308
3350	0	0.812154
3351	0	0.809148
3352	0	0
3353	0	0
3354	0	0.810301
3355	0	0.810111
3356	0	0.810111
3357	0	0.810111
3358	0	0.810111
3359	0	0.808452
3360	0	0.808452
3361	0	0.809955
3362	0	0.277778
3363	0	0.222222
3364	0	0.222222
3365	0	0.142857
3366	0	0.0714286
3367	0	0.0714286
3368	0	0.047619
3369	0	0
3370	0	0
3371	0	0
3372	0	0
3373	0	0.800985
3374	0	0.804031
3375	0	0.804031
3376	0	0.875
3377	0	0.875
3378	0	0.772059
3379	0	0.669118
3380	0	0.702864
3381	0	0.632079
3382	0	0.582311
3383	0	0.633062
3384	0	0.554125
3385	0	0.601844
3386	0	0.300654
3387	0	0.209524
3388	0	0.175824
3389	0	0.522841
3390	0	0.522879
3391	0	0.526757
3392	0	0.526754
3393	0	0.133333
3394	0	0.133333
3395	0	0.166667
3396	0	0.166667
3397	0	0.166667
3398	0	0.166667
3399	0	0.166667
3400	0	0.166667
3401	0	0.166667
3402	0	0.333333
3403	0	0.333333
3404	0	0.333333
3405	0	0.333333
3406	0	0.333333
3407	0	0.333333
3408	0	0.333333
3409	0	0.333333
3410	0	0.333333
3411	0	0.333333
3412	0	0.333333
3413	0	0.333333
3414	0	0.333333
3415	0	1
3416	0	1
3417	0	0.79349
3418	0	0.793829
3419	0	0.792191
3420	0	0.6
3421	0	0.797827
3422	0	0.797991
3423	0	0.796531
3424	0	0.796531
3425	0	0.793651
3426	0	0.793651
3427	0	0.793651
3428	0	0.793651
3429	0	0
3430	0	0
3431	0	0
3432	0	0.88897
3433	0	0.88897
3434	0	0.595206
3435	0	0.520331
3436	0	0
3437	0	0
3438	0	0
3439	0	0
3440	0	0
3441	0	0
3442	0	0
3443	0	0
3444	0	0
3445	0	0
3446	1	0
3447	1	0
3448	1	0
3449	1	0
3450	1	0
3451	1	0
3452	1	0
3453	1	0
3454	0	0
3455	0	0
3456	0	0
3457	0	0
3458	0	0
3459	0	0
3460	0	0
3461	0	0
3462	0	0
3463	0	0
3464	0	0
3465	0	0
3466	0	0
3467	0	0
3468	0	0
3469	0	0
3470	0	0
3471	0	0
3472	0	0
3473	0	0
3474	0	0
3475	0	0
3476	0	0
3477	0	0
3478	1	0
3479	1	0
3480	0	0
3481	0	0
3482	0	0
3483	0	0
3484	1	0
3485	0	0
3486	0	0
3487	0	0
3488	0	0
3489	0	0
3490	0	0
3491	0	0
3492	0	0.584328
3493	0	0.588174
3494	0	0.5
3495	0	0
3496	0	1
3497	0	0.980392
3498	0	0.738755
3499	0	0
3500	0	0.5
3501	0	0.5
3502	0	0.740794
3503	0	0
3504	0	0
3505	0	0.729702
3506	0	0.357143
3507	0	0.864532
3508	0	0.7764
3509	0	0.904762
3510	0	0
3511	0	0
3512	0	0
3513	0	0
3514	0	0
3515	0	0
3516	0	0.796684
3517	0	0.806575
3518	0	0.811463
3519	0	0.811463
3520	0	0
3521	0	0
3522	0	0
3523	0	0
3524	0	0
3525	0	0
3526	0	0
3527	0	0
3528	0	0
3529	0	0
3530	0	1
3531	0	1
3532	0	1
3533	0	1
3534	0	1
3535	0	1
3536	0	1
3537	0	1
3538	0	1
3539	0	1
3540	0	1
3541	0	1
3542	0	1
3543	0	1
3544	0	1
3545	0	0.814887
3546	0	0.814887
3547	0	0.814887
3548	0	0.814887
3549	0	0.814887
3550	0	0.814887
3551	0	0.814887
3552	0	0.814887
3553	0	0.814887
3554	0	0.814887
3555	0	0.814887
3556	0	0.812948
3557	0	0.809675
3558	0	0.814286
3559	0	0
3560	0	0
3561	0	0
3562	1	0
3563	1	0
3564	1	0
3565	1	0
3566	1	0
3567	1	0
3568	1	0
3569	1	0
3570	1	0
3571	0	0.812796
3572	0	0.812645
3573	0	0.812645
3574	0	0.814286
3575	0	0.814437
3576	0	0.814587
3577	0	0.814737
3578	0	0.814737
3579	1	0
3580	1	0
3581	1	0
3582	1	0
3583	1	0
3584	1	1
3585	0	0.813401
3586	0	0.813401
3587	0	0.815036
3588	0	0.815036
3589	0	0.815036
3590	0	0.815036
3591	0	0.815036
3592	0	0.815036
3593	0	1
3594	0	1
3595	0	0
3596	0	0
3597	0	0
3598	0	0
3599	0	0
3600	0	0
3601	0	0
3602	0	0
3603	0	0
3604	0	0
3605	0	0
3606	0	0
3607	0	0.4
3608	0	0.4
3609	0	0
3610	0	0
3611	0	0
3612	0	0
3613	0	0
3614	0	0
3615	0	0
3616	0	0.874582
3617	0	0.676171
3618	0	0.676171
3619	0	0.676171
3620	0	0.676171
3621	0	0
3622	0	0
3623	0	0
3624	0	0.535714
3625	0	0.272059
3626	0	0.282197
3627	0	0.632752
3628	0	0.618866
3629	0	0.549515
3630	0	0.526147
3631	0	0.197628
3632	0	0.203463
3633	0	0.442564
3634	0	0.894737
3635	0	0.805263
3636	0	0.656267
3637	0	0.658911
3638	0	0.529872
3639	0	0
3640	0	0
3641	0	0.285714
3642	0	0
3643	0	0
3644	0	0.2
3645	0	0.631409
3646	0	0.925092
3647	0	0.801843
3648	0	0.801843
3649	0	0.804777
3650	0	0
3651	0	0
3652	0	0
3653	0	0
3654	0	0
3655	1	0
3656	1	0
3657	1	0
3658	1	0
3659	1	0
3660	1	0
3661	1	0
3662	1	0
3663	1	0
3664	0	0
3665	0	0.80039
3666	0	0.80039
3667	0	0
3668	0	0
3669	0	0
3670	0	0
3671	0	0
3672	0	0
3673	0	0
3674	0	0
3675	0	0
3676	0	0
3677	0	0
3678	0	0
3679	0	0
3680	0	0
3681	0	0
3682	0	0
3683	0	0
3684	1	0
3685	1	0
3686	1	0
3687	1	0
3688	1	0
3689	1	0
3690	1	0
3691	1	0
3692	1	0
3693	1	0
3694	1	0
3695	1	0
3696	1	0
3697	0	0
3698	0	0
3699	0	0
3700	0	0.787566
3701	0	0.236364
3702	0	0.2
3703	0	0.0666667
3704	0	0.638289
3705	0	0.406413
3706	0	0.519735
3707	0	0
3708	0	0
3709	0	0.0952381
3710	0	0.525092
3711	0	0.763525
3712	0	0.766719
3713	0	0.773987
3714	0	1
3715	0	0.809982
3716	0	0.809982
3717	0	0.809982
3718	0	0.809982
3719	0	0
3720	0	0
3721	0	0
3722	0	0
3723	0	0
3724	0	0
3725	0	0
3726	0	0
3727	0	0
3728	0	0
3729	0	0
3730	0	0
3731	0	0
3732	0	0
3733	0	0
3734	0	1
3735	0	1
3736	0	1
3737	0	1
3738	0	1
3739	0	1
3740	0	0
3741	0	0.811616
3742	0	0.811616
3743	0	0.811616
3744	0	0.813099
3745	0	0.813099
3746	0	0.813099
3747	0	0.811616
3748	0	0.811616
3749	0	0.811616
3750	0	0.811616
3751	0	0.811616
3752	0	0.811616
3753	0	0
3754	0	0
3755	0	0
3756	0	0
3757	0	0
3758	0	0
3759	0	0
3760	0	0
3761	0	0.814737
3762	0	0.813099
3763	0	0.813099
3764	0	0.8144
3765	0	0.815891
3766	0	0.815891
3767	0	0.815891
3768	0	0.815891
3769	0	0.815891
3770	0	0.812761
3771	0	0.812761
3772	0	0.812761
3773	0	0.812761
3774	0	0.812761
3775	0	0.812761
3776	0	0.812761
3777	0	0.812457
3778	0	0.812609
3779	0	0
3780	0	0
3781	0	0
3782	0	0
3783	0	0
3784	0	1
3785	0	1
3786	0	0.986667
3787	0	0.973598
3788	0	0.601123
3789	0	0.601123
3790	0	0.60028
3791	0	0.484528
3792	0	0.286842
3793	0	0.426893
3794	0	0.545455
3795	0	0.562511
3796	0	0.433961
3797	0	0.497789
3798	0	0.50496
3799	0	0.487328
3800	0	0.460829
3801	0	0.650368
3802	0	0.797396
3803	0	0.797396
3804	0	0.797396
3805	0	0.797396
3806	0	0.797396
3807	0	0.815186
3808	0	0.813552
3809	0	0.813552
3810	0	0.813552
3811	1	0
3812	1	0
3813	1	0
3814	1	0
3815	1	0
3816	1	0
3817	0	0.811768
3818	0	0.811768
3819	0	0.811768
3820	0	0.811616
3821	0	0.814587
3822	0	0.813099
3823	0	0.80983
3824	0	0.808197
3825	0	0.806566
3826	0	0.804779
3827	0	0.818182
3828	0	0.818182
3829	0	0.333333
3830	0	0.2
3831	0	0.166667
3832	0	0.166667
3833	0	0
3834	0	0
3835	0	0
3836	0	0
3837	0	0
3838	0	0
3839	0	0
3840	0	0
3841	0	0
3842	0	0
3843	0	0
3844	0	0
3845	0	0
3846	0	0
3847	0	0
3848	0	0
3849	0	0
3850	0	1
3851	0	0.527273
3852	0	0.644444
3853	0	0.533333
3854	0	1
3855	0	1
3856	0	1
3857	0	0.765181
3858	0	0.47619
3859	0	0.357143
3860	0	0.357143
3861	0	0.357143
3862	0	0.731562
3863	0	0.565348
3864	0	0.562988
3865	0	0.83004
3866	0	0.83004
3867	0	0.564895
3868	0	0.444444
3869	0	0.444444
3870	0	0.444444
3871	0	0.535714
3872	0	0.3
3873	0	0.580034
3874	0	0.582183
3875	0	0
3876	0	0
3877	0	0
3878	0	0.397436
3879	0	0
3880	0	0
3881	0	0
3882	0	0
3883	0	0.397436
3884	0	0.196667
3885	0	0.595043
3886	0	0.633198
3887	0	0.651282
3888	0	0.632634
3889	0	0.651442
3890	0	0.351607
3891	0	0.353325
3892	0	0.291183
3893	0	0.288649
3894	0	0.335704
3895	0	0.440865
3896	0	0.455944
3897	0	0.569311
3898	0	0.221523
3899	0	0.263298
3900	0	0.347368
3901	0	0.424837
3902	0	0.2
3903	0	0
3904	0	0
3905	0	0
3906	0	0.666667
3907	0	0.655797
3908	0	1
3909	0	0.804147
3910	0	0.807419
3911	0	0.333333
3912	0	0.814136
3913	0	0.814136
3914	0	0.814136
3915	0	0.814136
3916	0	0.814136
3917	0	0.814136
3918	0	0.813985
3919	0	0.813985
3920	0	0.813985
3921	0	0.814136
3922	0	0.814437
3923	0	0.814437
3924	0	0.814437
3925	0	0.814587
3926	0	0.814587
3927	0	0.814587
3928	0	0.814587
3929	0	0.814587
3930	0	0.814587
3931	0	0.812948
3932	0	0.814437
3933	0	0
3934	0	0
3935	0	0
3936	0	0
3937	0	0
3938	0	0
3939	0	0
3940	0	0
3941	0	0
3942	0	0.805252
3943	0	0.805252
3944	0	0.321429
3945	0	0.308333
3946	0	0
3947	0	0
3948	0	0.414661
3949	0	0.166667
3950	0	0.333333
3951	0	0
3952	0	0.4
3953	0	0.290909
3954	0	0.218182
3955	0	0.166667
3956	0	0.166667
3957	0	0.353414
3958	0	0.5
3959	0	0.302612
3960	0	0.394292
3961	0	0
3962	0	0
3963	0	0.2
3964	0	0.1
3965	0	0.201241
3966	0	0.183109
3967	0	0.320992
3968	0	1
3969	0	1
3970	0	1
3971	0	1
3972	0	1
3973	0	1
3974	0	1
3975	0	1
3976	0	1
3977	0	1
3978	0	1
3979	0	1
3980	0	1
3981	0	1
3982	0	0.538593
3983	0	0.465116
3984	0	0
3985	0	0
3986	0	0
3987	0	0.5
3988	0	0.5
3989	0	0.230769
3990	0	0.230769
3991	0	0.263736
3992	0	0.134233
3993	0	0.123699
3994	0	0.218462
3995	0	0.191288
3996	0	0.105382
3997	0	0.107368
3998	0	0.131317
3999	0	0.142252
4000	0	0.21645
4001	0	0.471861
4002	0	0.860614
4003	0	0.6
4004	0	0.4
4005	0	0.666667
4006	0	0.37799
4007	0	0.390476
4008	0	0.652381
4009	0	0.904762
4010	0	0.904762
4011	0	0.385158
4012	0	0.397948
4013	0	0.424403
4014	0	0.880808
4015	0	0.808434
4016	0	0
4017	0	0
4018	0	0
4019	0	0
4020	0	0
4021	0	0
4022	0	0.810081
4023	0	0.810081
4024	0	0.810081
4025	0	0.810544
4026	0	0.809211
4027	0	0.809211
4028	0	0.810697
4029	0	0.809211
4030	0	0
4031	1	0
4032	1	0
4033	1	0
4034	1	0
4035	1	0
4036	1	0
4037	0	0
4038	1	1
4039	1	1
4040	1	1
4041	1	1
4042	1	1
4043	1	1
4044	1	1
4045	1	1
4046	1	1
4047	1	1
4048	0	0.804304
4049	0	0.804304
4050	0	0
4051	0	0.803505
4052	0	0.800552
4053	0	0.802027
4054	0	0.80039
4055	0	0.80039
4056	0	0
4057	0	0
4058	0	0
4059	0	0
4060	0	0
4061	0	0
4062	0	0.333333
4063	0	0.797935
4064	0	1
4065	0	0.6
4066	0	0.3
4067	0	0.3
4068	0	0
4069	0	0.2
4070	0	0.770262
4071	0	0.0666667
4072	0	0
4073	0	0
4074	0	0
4075	0	0
4076	0	0
4077	0	0
4078	0	0
4079	0	0
4080	0	0
4081	0	0
4082	0	0
4083	0	0
4084	0	0.2
4085	0	0.3
4086	0	0.1
4087	0	0.1
4088	0	0.1
4089	0	0.1
4090	0	0
4091	0	0.687273
4092	0	0
4093	0	0
4094	0	0
4095	0	0
4096	0	0
4097	0	0
4098	0	1
4099	0	1
4100	0	1
4101	0	0.798427
4102	0	0
4103	0	0
4104	0	1
4105	0	1
4106	0	0.806316
4107	0	0.806316
4108	0	0.805146
4109	0	0.805148
4110	1	0
4111	0	0
4112	0	0
4113	0	0.807262
4114	0	0.807262
4115	0	0.810235
4116	0	0.778398
4117	0	0.928571
4118	0	0.931034
4119	0	0.807729
4120	0	0.809366
4121	0	0.809366
4122	0	0.807885
4123	0	0.80952
4124	0	0.811158
4125	0	0.809676
4126	0	0.812948
4127	0	0.812948
4128	0	0.812948
4129	0	0.813099
4130	0	0.813099
4131	0	0.813099
4132	0	0.813099
4133	0	0.814737
4134	0	0.814737
4135	0	0.814737
4136	0	0.814737
4137	0	0.811768
4138	0	0.811768
4139	0	0.81192
4140	0	0.81192
4141	0	0.813552
4142	0	0.813552
4143	0	0.812071
4144	0	0.813852
4145	0	0.813852
4146	0	0.813852
4147	0	0.813852
4148	0	0.815335
4149	0	0.815483
4150	0	0.814002
4151	0	0.814002
4152	0	0.815632
4153	0	0.815632
4154	0	0.815632
4155	0	0.81578
4156	0	0.81578
4157	0	0.81578
4158	0	0.81578
4159	0	0.762846
4160	0	0.747185
4161	0	0.544143
4162	0	0.537051
4163	0	1
4164	0	1
4165	0	1
4166	0	0
4167	0	0
4168	0	0
4169	0	0
4170	0	0
4171	0	0
4172	0	0
4173	0	0
4174	0	0
4175	0	0
4176	0	0
4177	0	0
4178	0	0
4179	0	0
4180	0	0
4181	0	0.478985
4182	0	0
4183	0	0.6
4184	0	0.364266
4185	0	0.937651
4186	0	0.392839
4187	0	1
4188	0	1
4189	0	0
4190	0	0
4191	0	0.391154
4192	0	0.606863
4193	0	0.606924
4194	0	0.608027
4195	0	0.492063
4196	0	0.635189
4197	0	0.634237
4198	0	0.80104
4199	0	0.801047
4200	0	1
4201	0	0.812374
4202	0	0.8109
4203	0	0.8109
4204	0	0.8109
4205	0	0.811052
4206	0	0.811052
4207	0	0.811052
4208	0	1
4209	0	1
4210	1	1
4211	1	1
4212	0	0.333333
4213	0	0.166667
4214	0	0.809982
4215	0	0.809982
4216	0	0.166667
4217	0	0.802168
4218	0	0.79909
4219	0	1
4220	0	0.274725
4221	0	0.403004
4222	0	0.866613
4223	0	0.591035
4224	0	0.627779
4225	0	0.333333
4226	0	0.333333
4227	0	0.266667
4228	0	0.693645
4229	0	0.645295
4230	0	0.384615
4231	0	0.261438
4232	0	0.166667
4233	0	0.738599
4234	0	0.744411
4235	0	0
4236	0	0
4237	0	0.4
4238	0	0.6
4239	0	0.657008
4240	0	0.653801
4241	0	0.794665
4242	0	0.576923
4243	0	0.52381
4244	0	0.812493
4245	0	0.812796
4246	0	0.813401
4247	0	0.813401
4248	0	0.813401
4249	0	0.813401
4250	0	0.712735
4251	0	0.80866
4252	0	0
4253	0	0
4254	1	0
4255	1	0
4256	1	0
4257	1	0
4258	1	0
4259	1	0
4260	0	0
4261	0	0
4262	0	0
4263	0	0
4264	0	0.815483
4265	0	0.815483
4266	0	0.815483
4267	0	0.815483
4268	0	0.815335
4269	0	0.815186
4270	0	0.811886
4271	0	0.166667
4272	0	0.166667
4273	0	0
4274	0	0
4275	0	0
4276	0	0
4277	0	0
4278	0	0
4279	0	0
4280	0	0
4281	0	0
4282	1	0
4283	1	0
4284	1	0
4285	1	0
4286	0	0
4287	0	0.811244
4288	0	0.813696
4289	0	0.813696
4290	0	0
4291	0	0.816833
4292	0	0.815338
4293	0	0.816982
4294	0	0
4295	0	0
4296	0	0.816982
4297	0	0.816982
4298	0	0.815489
4299	0	0.815489
4300	0	0.815489
4301	0	0.815489
4302	0	0.815639
4303	0	0.818775
4304	0	0.818775
4305	0	0.820567
4306	1	0
4307	1	0
4308	1	0
4309	1	0
4310	1	0
4311	1	0
4312	1	0
4313	1	0
4314	0	0.817428
4315	0	0.815938
4316	0	0.815938
4317	0	0.815938
4318	0	0.815938
4319	0	0.815938
4320	0	0.815938
4321	0	0.815938
4322	0	0.812971
4323	0	0.81134
4324	0	0.811493
4325	0	0.812971
4326	0	0.812971
4327	0	0.812971
4328	0	0.812971
4329	0	0.81297
4330	0	0.81297
4331	0	0.81297
4332	0	0.81297
4333	0	0.81297
4334	0	0.81297
4335	0	0.81297
4336	0	0
4337	0	0.817578
4338	0	0.816089
4339	0	0.816089
4340	0	0.816089
4341	0	0.81743
4342	0	0.81743
4343	0	0.817578
4344	0	1
4345	0	1
4346	0	0.813485
4347	0	0.813485
4348	0	0
4349	0	0.813334
4350	1	0
4351	1	0
4352	1	0
4353	1	0
4354	1	0
4355	1	0
4356	1	0
4357	1	0
4358	0	0.812376
4359	0	0.812376
4360	0	0.333333
4361	0	0.333333
4362	0	0.333333
4363	0	0
4364	1	0
4365	1	0
4366	1	0
4367	1	0
4368	1	0
4369	0	0
4370	0	0.794648
4371	0	0.79932
4372	0	0.79932
4373	0	0.79932
4374	0	0.797722
4375	0	0.755267
4376	0	0.748422
4377	0	0.353591
4378	0	0.322726
4379	0	0.166667
4380	0	0.723053
4381	0	0.71632
4382	0	0.752337
4383	0	0
4384	0	0
4385	0	0
4386	0	0
4387	0	0
4388	0	0
4389	0	0
4390	0	0
4391	0	0
4392	0	0
4393	0	0
4394	0	0.397436
4395	0	0.327273
4396	0	0.327273
4397	0	0.0666667
4398	0	0.1
4399	0	0
4400	0	0
4401	0	0
4402	0	0.547337
4403	0	0.5
4404	0	0.825484
4405	0	0.68822
4406	0	0.285897
4407	0	0.715595
4408	0	0.0952381
4409	0	0.0952381
4410	0	0.1
4411	0	0.1
4412	0	0.1
4413	0	0.1
4414	0	0.694355
4415	0	0
4416	0	0.699126
4417	0	0
4418	0	0.862434
4419	0	0.862434
4420	0	0.862434
4421	0	0.862434
4422	0	0.862434
4423	0	0.790894
4424	0	0.800547
4425	0	0.4
4426	0	1
4427	0	1
4428	0	0.809122
4429	0	0.809122
4430	0	0
4431	0	0
4432	0	0.811052
4433	0	0
4434	0	0
4435	0	0
4436	0	0
4437	0	0
4438	0	0
4439	0	0
4440	0	0
4441	0	0
4442	0	0
4443	0	0
4444	0	0
4445	0	0
4446	0	0
4447	0	0
4448	0	0.815929
4449	0	0.815929
4450	0	0.815929
4451	0	0.81578
4452	0	0.815632
4453	0	0.815632
4454	0	0.815632
4455	0	0.815632
4456	0	0.815632
4457	0	0.815632
4458	0	0.815632
4459	0	0.815632
4460	0	0.813852
4461	0	0.813852
4462	0	0.813852
4463	0	0.813852
4464	0	0.813852
4465	0	0.813852
4466	0	0.813852
4467	0	0.813852
4468	0	0.813852
4469	0	0
4470	0	0
4471	0	0
4472	0	0
4473	0	0
4474	0	0
4475	0	0
4476	0	0
4477	0	0
4478	0	0
4479	0	0
4480	0	0
4481	0	0
4482	0	0
4483	0	0
4484	0	0
4485	0	0
4486	0	0
4487	0	0
4488	0	0
4489	0	0
4490	0	0
4491	0	0
4492	0	0
4493	0	0
4494	0	0
4495	0	0
4496	0	0
4497	0	0
4498	0	0
4499	0	0
4500	0	0
4501	0	0
4502	0	0
4503	0	0
4504	0	0
4505	0	0.5
4506	0	0.266667
4507	0	0.266667
4508	0	0.0833333
4509	0	0.794491
4510	0	1
4511	0	0.444444
4512	0	0.295238
4513	0	0.246154
4514	0	0.145161
4515	0	0.70581
4516	0	0.248062
4517	0	0.404913
4518	0	0.547332
4519	0	0.543632
4520	0	0.541242
4521	0	0
4522	0	0
4523	0	0
4524	0	0
4525	0	0.166667
4526	0	0.244444
4527	0	0.298246
4528	0	0.236467
4529	0	0.225071
4530	0	0.504703
4531	0	0.501679
4532	0	0.499014
4533	0	0.498979
4534	0	0.499724
4535	0	1
4536	0	1
4537	0	1
4538	0	1
4539	0	1
4540	0	1
4541	0	1
4542	0	0.333333
4543	0	0.333333
4544	0	0.333333
4545	0	0.333333
4546	0	0.333333
4547	0	0.333333
4548	0	0.333333
4549	0	0.333333
4550	0	0.752571
4551	0	0.753159
4552	0	0.520527
4553	0	0.518031
4554	0	0.133333
4555	0	0.0666667
4556	0	0
4557	0	0
4558	0	0.0666667
4559	0	0.0545455
4560	0	0.10989
4561	0	0.447561
4562	0	0.223044
4563	0	0.4
4564	0	0.551297
4565	0	0
4566	0	0
4567	0	0.822511
4568	0	0.822511
4569	0	0.750988
4570	0	0.77
4571	0	0.77
4572	0	0.660969
4573	0	0.778462
4574	0	0.552585
4575	0	0.52623
4576	0	0.52623
4577	0	0.484699
4578	0	0.498485
4579	0	0.26166
4580	0	0.222222
4581	0	0.25
4582	0	0.25
4583	0	0.166667
4584	0	0.166667
4585	0	0.166667
4586	0	0.166667
4587	0	0.166667
4588	0	0.1
4589	0	0.166667
4590	0	0.133333
4591	0	0.142857
4592	0	0.214286
4593	0	0.166667
4594	0	0.166667
4595	0	0.305556
4596	0	0.265676
4597	0	0.166667
4598	0	0.166667
4599	0	0.295385
4600	0	0.190476
4601	0	0.0909091
4602	0	0.0909091
4603	0	0.262547
4604	0	0
4605	0	0
4606	0	0
4607	0	0
4608	0	0
4609	0	0
4610	0	0
4611	0	0.25967
4612	0	0.320057
4613	0	0.172538
4614	0	0.125108
4615	0	0.296878
4616	0	0.314367
4617	0	0.117816
4618	0	0.310578
4619	0	0.28973
4620	0	0.28973
4621	0	0.338176
4622	0	0.288976
4623	0	0.288272
4624	0	0
4625	0	0
4626	0	0.1
4627	0	0.140351
4628	0	0.146199
4629	0	0.448252
4630	0	0.363473
4631	0	0.361367
4632	0	0
4633	0	0
4634	0	0
4635	0	0
4636	0	0
4637	0	0
4638	0	0
4639	0	0
4640	0	0.353719
4641	0	0.953539
4642	0	0.953627
4643	0	0.953627
4644	0	0.953627
4645	0	0.953627
4646	0	0.953627
4647	0	0.953193
4648	0	0.952973
4649	0	0.952751
4650	0	0.782714
4651	0	0.724367
4652	0	0.658632
4653	0	0.482496
4654	0	0.376368
4655	0	0.381582
4656	0	0.399499
4657	0	0.399499
4658	0	0.632003
4659	0	0.688462
4660	0	0.706038
4661	0	0.71504
4662	0	0.732224
4663	0	0.751857
4664	0	0.751857
4665	0	0.782872
4666	0	0.810791
4667	0	0.822333
4668	0	0.846608
4669	0	0.812776
4670	0	0.942319
4671	0	0.701754
4672	0	0.784314
4673	0	0
4674	0	0
4675	0	0
4676	0	0
4677	0	0
4678	0	0
4679	0	0.333333
4680	0	0.333333
4681	0	0.333333
4682	0	0.142857
4683	0	0.333333
4684	0	0.25
4685	0	0.142857
4686	0	0.25
4687	0	0.355556
4688	0	0.777778
4689	0	0.777778
4690	0	0.777778
4691	0	0.777778
4692	0	0.583333
4693	0	0
4694	0	0
4695	0	0
4696	0	0
4697	0	0
4698	0	0
4699	0	0
4700	0	0
4701	0	0
4702	0	0
4703	0	0
4704	0	0
4705	0	0
4706	0	0
4707	1	0
4708	0	0
4709	0	0
4710	0	0
4711	0	0.269793
4712	0	0.533333
4713	0	0.533333
4714	0	0.533333
4715	0	0.535632
4716	0	0.535632
4717	0	0.535632
4718	0	0.535632
4719	0	0.115373
4720	0	0.419048
4721	0	0.419048
4722	0	0.430931
4723	0	0.174904
4724	0	0.221486
4725	0	0.211374
4726	0	0.277729
4727	0	0.0765306
4728	0	0.077381
4729	0	0.274677
4730	0	0.288337
4731	0	0.420267
4732	0	0.600743
4733	0	0.606963
4734	0	0.613881
4735	0	0.60894
4736	0	0.150519
4737	0	0.142857
4738	0	0.2
4739	0	0.2
4740	0	0.2
4741	0	0.2
4742	0	0.2
4743	0	0.2
4744	0	0.2
4745	0	0.2
4746	0	0.2
4747	0	0.166493
4748	0	0.190262
4749	0	0.291026
4750	0	0.308333
4751	0	0.231579
4752	0	0.25731
4753	0	0.25731
4754	0	0.287582
4755	0	0.417582
4756	0	0.417582
4757	0	0.417582
4758	0	0.417582
4759	0	0.333333
4760	0	0.333333
4761	0	0.333333
4762	0	0.447619
4763	0	0.638095
4764	0	0.333333
4765	0	0.333333
4766	0	0
4767	0	0.435569
4768	0	0.433975
4769	0	0.424774
4770	0	0.365022
4771	0	0.365022
4772	0	0.344702
4773	0	0.326599
4774	0	0.388457
4775	0	0.922353
4776	0	0.47619
4777	0	0
4778	0	0
4779	0	0
4780	0	0
4781	0	0.737181
4782	0	0.444444
4783	0	0.725275
4784	0	0.725275
4785	0	0.725275
4786	0	0.373333
4787	0	0.569301
4788	0	0.568367
4789	0	0
4790	0	0
4791	0	0
4792	0	0
4793	0	0
4794	0	0
4795	0	0
4796	0	0
4797	0	0.184729
4798	0	0.183499
4799	0	0.222672
4800	0	0.233286
4801	0	0.475139
4802	0	0.395604
4803	0	0
4804	0	0
4805	0	0
4806	0	0
4807	0	0
4808	0	0
4809	0	0
4810	0	0
4811	0	0
4812	0	0
4813	0	0
4814	0	0
4815	0	0
4816	0	0
4817	0	0
4818	0	0
4819	0	0.133333
4820	0	0.784314
4821	0	0.467954
4822	0	0.69874
4823	0	0
4824	0	0
4825	0	0
4826	0	0
4827	0	0
4828	0	0
4829	0	0.717803
4830	0	0.717803
4831	0	0.717803
4832	0	0.732773
4833	0	0.693651
4834	0	0.287879
4835	0	0.560606
4836	0	0.615385
4837	0	0.615385
4838	0	0.615385
4839	0	0.705128
4840	0	0.829293
4841	0	0.762529
4842	0	0.759704
4843	0	0
4844	0	0
4845	0	0
4846	0	0
4847	0	0
4848	0	0
4849	0	0
4850	0	0
4851	0	0
4852	0	0
4853	0	0
4854	0	0
4855	0	0
4856	0	0
4857	0	0
4858	0	0
4859	0	0
4860	0	0
4861	0	0
4862	0	0
4863	0	0
4864	0	0
4865	0	0
4866	0	0
4867	0	0
4868	0	0
4869	0	0
4870	0	0
4871	0	0
4872	0	0
4873	0	0
4874	0	0
4875	0	0
4876	0	0
4877	0	0
4878	0	0
4879	0	0
4880	0	0
4881	0	0
4882	0	0
4883	0	0
4884	0	0
4885	0	0
4886	0	0
4887	0	0
4888	0	0
4889	0	0
4890	0	0
4891	0	0
4892	0	0
4893	0	0
4894	0	0
4895	0	0
4896	0	0
4897	0	0
4898	0	0
4899	0	0
4900	0	0
4901	0	0
4902	0	0
4903	0	0
4904	0	0
4905	0	0
4906	0	0
4907	0	0
4908	0	0
4909	0	0
4910	0	0
4911	0	0
4912	0	0
4913	0	0
4914	0	0
4915	0	0
4916	0	0
4917	0	0
4918	0	0
4919	0	0
4920	0	0
4921	0	0
4922	0	0
4923	0	0
4924	0	0
4925	0	0
4926	0	0
4927	0	0
4928	0	0
4929	0	0
4930	0	0
4931	0	0
4932	0	0
4933	0	0
4934	0	0
4935	0	0
4936	0	0
4937	0	0
4938	0	0
4939	0	0
4940	0	0
4941	0	0
4942	0	0
4943	0	0
4944	0	0
4945	0	0
4946	0	0
4947	0	0
4948	0	0
4949	0	0
4950	0	0
4951	0	0
4952	0	0
4953	0	0
4954	0	0
4955	0	0
4956	0	0
4957	0	0
4958	0	0
4959	0	0
4960	0	0
4961	0	0.758644
4962	0	0.757266
4963	0	0.757266
4964	0	0.818182
4965	0	0.333333
4966	0	0.333333
4967	0	0.333333
4968	0	0.333333
4969	0	0.333333
4970	0	0.333333
4971	0	0.333333
4972	0	0.333333
4973	0	0
4974	0	0
4975	0	0.745733
4976	0	0.747099
4977	0	0.3
4978	0	0.3
4979	0	0.3
4980	0	0.3
4981	0	0.3
4982	0	0.3
4983	0	0.3
4984	0	0.3
4985	0	0.3
4986	0	0.795169
4987	0	0.686828
4988	0	0.685584
4989	0	0.836967
4990	0	0.835753
4991	0	0.835753
4992	0	0.821481
4993	0	0.821481
4994	0	0.821481
4995	0	0.794816
4996	0	0.58396
4997	0	0.194444
4998	0	0.194444
4999	0	0.194444
5000	0	0.194444
5001	0	0.194444
5002	0	0.194444
5003	0	0.194444
5004	0	0.194444
5005	0	0.194444
5006	0	0.587482
5007	0	0.587482
5008	0	0.629321
5009	0	0.604396
5010	0	0.604396
5011	0	0.681818
5012	0	0.535714
5013	0	0.535714
5014	0	0.535714
5015	0	0.535714
5016	0	0.25
5017	0	0.25
5018	0	0.142857
5019	0	0.500538
5020	0	0.264978
5021	0	0.26491
5022	0	0
5023	0	0
5024	0	0
5025	0	0
5026	0	0
5027	0	0
5028	0	0
5029	0	0
5030	0	0
5031	0	0
5032	0	0
5033	0	0
5034	0	0
5035	0	0
5036	0	0
5037	0	0
5038	0	0
5039	0	0
5040	0	0
5041	0	0
5042	0	0
5043	0	0
5044	0	0
5045	0	0
5046	0	0
5047	0	0
5048	0	0
5049	0	0
5050	0	0
5051	0	0
5052	0	0
5053	0	0
5054	0	0
5055	0	0
5056	0	0
5057	0	0
5058	0	0
5059	0	0
5060	0	0
5061	0	0
5062	0	0
5063	0	0
5064	0	0
5065	0	0
5066	0	0
5067	0	0
5068	0	0
5069	0	0
5070	0	0
5071	0	0
5072	0	0
5073	0	0
5074	0	0
5075	0	0
5076	0	0
5077	0	0
5078	0	0
5079	0	0
5080	0	0
5081	0	0
5082	0	0
5083	0	0
5084	0	0.303355
5085	0	0.304119
5086	0	0
5087	0	0
5088	0	0
5089	0	0
5090	0	0
5091	0	0
5092	0	0
5093	0	0
5094	0	0
5095	0	0
5096	0	0
5097	0	0
5098	0	0
5099	0	0
5100	0	0
5101	0	0
5102	0	0
5103	0	0
5104	0	0
5105	0	0
5106	0	0
5107	0	0
5108	0	0
5109	0	0
5110	0	0
5111	0	0
5112	0	0
5113	0	0
5114	0	0
5115	0	0
5116	0	0
5117	0	0
5118	0	0
5119	0	0
5120	0	0
5121	0	0
5122	0	0
5123	0	0.047619
5124	0	0.047619
5125	0	0.047619
5126	0	0.0357143
5127	0	0.0357143
5128	0	0.0357143
5129	0	0.0666667
5130	0	0.0666667
5131	0	0.51349
5132	0	0.48762
5133	0	0.510973
5134	0	0.442168
5135	0	0.493758
5136	0	0.727192
5137	0	0.730095
5138	0	0.730095
5139	0	0.730095
5140	0	0.730102
5141	0	0
5142	0	0
5143	0	0
5144	0	0
5145	0	0
5146	0	0
5147	0	0
5148	0	0
5149	0	0
5150	0	0
5151	0	0
5152	0	0
5153	0	0
5154	0	0
5155	0	0
5156	0	0
5157	0	0.748832
5158	0	0.748832
5159	0	0.631579
5160	0	0.552632
5161	0	0.552632
5162	0	0.552632
5163	0	0.552632
5164	0	0.552632
5165	0	0.552632
5166	0	0.5
5167	0	0.5
5168	0	0.5
5169	0	0.5
5170	0	0.712569
5171	0	0
5172	0	0
5173	0	0
5174	0	0
5175	0	0
5176	0	0
5177	0	0.733298
5178	0	0.733298
5179	0	0.732931
5180	0	0.732931
5181	0	0.734083
5182	0	0
5183	0	0
5184	0	0
5185	0	0
5186	0	0
5187	0	0
5188	0	0
5189	0	0.1
5190	0	0.1
5191	0	0.0666667
5192	0	0.047619
5193	0	0.047619
5194	0	0.047619
5195	0	0.727901
5196	0	0.727903
5197	0	0.721378
5198	0	0.722293
5199	0	0
5200	0	0
5201	0	0
5202	0	0
5203	0	0.277778
5204	0	0.222222
5205	0	0.166667
5206	0	0.166667
5207	0	0.719435
5208	0	0.713213
5209	0	1
5210	0	1
5211	0	1
5212	0	0.4
5213	0	0.6
5214	0	0.6
5215	0	0.6
5216	0	0.6
5217	0	0.6
5218	0	0.6
5219	0	0.666667
5220	0	0.666667
5221	0	0.666667
5222	0	0.666667
5223	0	1
5224	0	1
5225	0	1
5226	0	1
5227	0	1
5228	0	1
5229	0	1
5230	0	1
5231	0	1
5232	0	1
5233	0	1
5234	0	1
5235	0	1
5236	0	1
5237	0	1
5238	0	1
5239	0	1
5240	0	1
5241	0	1
5242	0	1
5243	0	1
5244	0	1
5245	0	0.666667
5246	0	0.666667
5247	0	0.714286
5248	0	0.714286
5249	0	0.714286
5250	0	0.714286
5251	0	1
5252	0	1
5253	0	1
5254	0	1
5255	0	1
5256	0	1
5257	0	1
5258	0	1
5259	0	1
5260	0	1
5261	0	1
5262	0	1
5263	0	1
5264	0	1
5265	0	1
5266	0	1
5267	0	1
5268	0	1
5269	0	1
5270	0	1
5271	0	1
5272	0	1
5273	0	1
5274	0	1
5275	0	1
5276	0	1
5277	0	1
5278	0	1
5279	0	1
5280	0	1
5281	0	1
5282	0	1
5283	0	1
5284	0	1
5285	0	1
5286	0	1
5287	0	1
5288	0	1
5289	0	1
5290	0	1
5291	0	1
5292	0	1
5293	0	1
5294	0	1
5295	0	1
5296	0	1
5297	0	1
5298	0	1
5299	0	1
5300	0	1
5301	0	1
5302	0	1
5303	0	1
5304	0	1
5305	0	1
5306	0	1
5307	0	1
5308	0	1
5309	0	1
5310	0	1
5311	0	1
5312	0	1
5313	0	1
5314	0	1
5315	0	1
5316	0	1
5317	0	1
5318	0	1
5319	0	1
5320	0	1
5321	0	1
5322	0	1
5323	0	1
5324	0	1
5325	0	1
5326	0	1
5327	0	1
5328	0	1
5329	0	1
5330	0	1
5331	0	1
5332	0	1
5333	0	1
5334	0	1
5335	0	1
5336	0	1
5337	0	1
5338	0	1
5339	0	1
5340	0	1
5341	0	1
5342	0	1
5343	0	1
5344	0	1
5345	0	1
5346	0	1
5347	0	1
5348	0	1
5349	0	1
5350	0	1
5351	0	1
5352	0	1
5353	0	1
5354	0	1
5355	0	1
5356	0	1
5357	0	1
5358	0	1
5359	0	1
5360	0	1
5361	0	1
5362	0	1
5363	0	1
5364	0	1
5365	0	1
5366	0	1
5367	0	1
5368	0	1
5369	0	1
5370	0	1
5371	0	1
5372	0	1
5373	0	1
5374	0	1
5375	0	1
5376	0	1
5377	0	1
5378	0	1
5379	0	1
5380	0	1
5381	0	1
5382	0	1
5383	0	1
5384	0	1
5385	0	1
5386	0	1
5387	0	1
5388	0	1
5389	0	1
5390	0	1
5391	0	1
5392	0	1
5393	0	1
5394	0	1
5395	0	1
5396	0	1
5397	0	1
5398	0	1
5399	0	1
5400	0	1
5401	0	1
5402	0	1
5403	0	1
5404	0	1
5405	0	1
5406	0	1
5407	0	1
5408	0	1
5409	0	1
5410	0	1
5411	0	1
5412	0	1
5413	0	1
5414	0	1
5415	0	1
5416	0	1
5417	0	1
5418	0	1
5419	0	1
5420	0	1
5421	0	1
5422	0	1
5423	0	1
5424	0	1
5425	0	1
5426	0	1
5427	0	1
5428	0	1
5429	0	1
5430	0	1
5431	0	1
5432	0	1
5433	0	1
5434	0	1
5435	0	1
5436	0	1
5437	0	1
5438	0	1
5439	0	1
5440	0	1
5441	0	1
5442	0	1
5443	0	1
5444	0	1
5445	0	1
5446	0	1
5447	0	1
5448	0	1
5449	0	1
5450	0	1
5451	0	1
5452	0	1
5453	0	1
5454	0	1
5455	0	1
5456	0	1
5457	0	1
5458	0	1
5459	0	1
5460	0	1
5461	0	1
5462	0	1
5463	0	1
5464	0	1
5465	0	1
5466	0	1
5467	0	1
5468	0	1
5469	0	1
5470	0	1
5471	0	1
5472	0	1
5473	0	1
5474	0	1
5475	0	1
5476	0	1
5477	0	1
5478	0	1
5479	0	1
5480	0	1
5481	0	1
5482	0	1
5483	0	1
5484	0	1
5485	0	1
5486	0	1
5487	0	1
5488	0	1
5489	0	1
5490	0	1
5491	0	1
5492	0	1
5493	0	1
5494	0	1
5495	0	1
5496	0	1
5497	0	1
5498	0	1
5499	0	1
5500	0	1
5501	0	1
5502	0	1
5503	0	1
5504	0	1
5505	0	1
5506	0	1
5507	0	1
5508	0	1
5509	0	1
5510	0	1
5511	0	1
5512	0	1
5513	0	1
5514	0	1
5515	0	1
5516	0	1
5517	0	1
5518	0	1
5519	0	1
5520	0	1
5521	0	1
5522	0	1
5523	0	1
5524	0	1
5525	0	1
5526	0	1
5527	0	1
5528	0	1
5529	0	1
5530	0	1
5531	0	1
5532	0	1
5533	0	1
5534	0	1
5535	0	1
5536	0	1
5537	0	1
5538	0	1
5539	0	1
5540	0	1
5541	0	1
5542	0	1
5543	0	1
5544	0	1
5545	0	1
5546	0	1
5547	0	1
5548	0	1
5549	0	1
5550	0	1
5551	0	1
5552	0	1
5553	0	1
5554	0	1
5555	0	1
5556	0	1
5557	0	1
5558	0	1
5559	0	1
5560	0	1
5561	0	1
5562	0	1
5563	0	1
5564	0	1
5565	0	1
5566	0	1
5567	0	1
5568	0	1
5569	0	1
5570	0	1
5571	0	1
5572	0	1
5573	0	1
5574	0	1
5575	0	1
5576	0	1
5577	0	1
5578	0	1
5579	0	1
5580	0	1
5581	0	1
5582	0	1
5583	0	1
5584	0	1
5585	0	1
5586	0	1
5587	0	1
5588	0	1
5589	0	1
5590	0	1
5591	0	1
5592	0	1
5593	0	1
5594	0	1
5595	0	1
5596	0	1
5597	0	1
5598	0	1
5599	0	1
5600	0	1
5601	0	1
5602	0	1
5603	0	1
5604	0	1
5605	0	1
5606	0	1
5607	0	1
5608	0	1
5609	0	1
5610	0	1
5611	0	1
5612	0	1
5613	0	1
5614	0	1
5615	0	1
5616	1	1
5617	1	1
5618	0	1
5619	0	1
5620	0	1
5621	0	1
5622	0	1
5623	0	1
5624	0	1
5625	0	1
5626	0	1
5627	0	1
5628	0	1
5629	0	1
5630	0	1
5631	0	1
5632	0	1
5633	0	1
5634	0	1
5635	0	1
5636	0	1
5637	0	1
5638	0	1
5639	0	1
5640	0	1
5641	0	1
5642	0	1
5643	0	1
5644	0	1
5645	0	1
5646	0	1
5647	0	1
5648	0	1
5649	0	1
5650	0	1
5651	0	1
5652	0	1
5653	0	1
5654	0	1
5655	0	1
5656	0	1
5657	0	1
5658	0	1
5659	0	1
5660	0	1
5661	0	1
5662	0	1
5663	0	1
5664	0	1
5665	0	1
5666	0	1
5667	0	1
5668	0	1
5669	0	1
5670	0	1
5671	0	1
5672	0	1
5673	0	1
5674	0	1
5675	0	1
5676	0	1
5677	0	1
5678	0	1
5679	0	1
5680	0	1
5681	0	1
5682	0	1
5683	0	1
5684	0	1
5685	0	1
5686	0	1
5687	0	1
5688	0	1
5689	0	1
5690	0	1
5691	0	1
5692	0	1
5693	0	1
5694	0	1
5695	0	1
5696	0	1
5697	0	1
5698	0	1
5699	0	1
5700	0	1
5701	0	1
5702	0	1
5703	0	1
5704	0	1
5705	0	1
5706	0	1
5707	0	1
5708	0	1
5709	0	1
5710	0	1
5711	0	1
5712	0	1
5713	0	1
5714	0	1
5715	0	1
5716	0	1
5717	0	1
5718	0	1
5719	0	1
5720	0	1
5721	0	1
5722	0	1
5723	0	1
5724	0	1
5725	0	1
5726	0	1
5727	0	1
5728	0	1
5729	0	1
5730	0	1
5731	0	1
5732	0	1
5733	0	1
5734	0	1
5735	0	1
5736	0	1
5737	0	1
5738	0	1
5739	0	1
5740	0	1
5741	0	1
5742	0	1
5743	0	1
5744	0	1
5745	0	1
5746	0	1
5747	0	1
5748	0	1
5749	0	1
5750	0	1
5751	0	1
5752	0	1
5753	0	1
5754	0	1
5755	0	1
5756	0	1
5757	0	1
5758	0	1
5759	0	1
5760	0	1
5761	0	1
5762	0	1
5763	0	1
5764	0	1
5765	0	1
5766	0	1
5767	0	1
5768	0	1
5769	0	1
5770	0	1
5771	0	1
5772	0	1
5773	0	1
5774	0	1
5775	0	1
5776	0	1
5777	0	1
5778	0	1
5779	0	1
5780	0	1
5781	0	1
5782	0	1
5783	0	1
5784	0	1
5785	0	1
5786	0	1
5787	0	1
5788	0	1
5789	0	1
5790	0	1
5791	0	1
5792	0	1
5793	0	1
5794	0	1
5795	0	1
5796	0	1
5797	0	1
5798	0	1
5799	0	1
5800	0	1
5801	0	1
5802	0	1
5803	0	1
5804	0	1
5805	0	1
5806	0	1
5807	0	1
5808	0	1
5809	0	1
5810	0	1
5811	0	1
5812	0	1
5813	0	1
5814	0	1
5815	0	1
5816	0	1
5817	0	1
5818	0	1
5819	0	1
5820	0	1
5821	0	1
5822	0	1
5823	0	1
5824	0	1
5825	0	1
5826	0	1
5827	0	1
5828	0	1
5829	0	1
5830	0	1
5831	0	1
5832	0	1
5833	0	1
5834	0	1
5835	0	1
5836	0	1
5837	0	1
5838	0	1
5839	0	1
5840	0	1
5841	0	1
5842	0	1
5843	0	1
5844	0	1
5845	0	1
5846	0	1
5847	0	1
5848	0	1
5849	0	1
5850	0	1
5851	0	1
5852	0	1
5853	0	1
5854	0	1
5855	0	1
5856	0	1
5857	0	1
5858	0	1
5859	0	1
5860	0	1
5861	0	1
5862	0	1
5863	0	1
5864	0	1
5865	0	1
5866	0	1
5867	0	1
5868	0	1
5869	0	1
5870	0	1
5871	0	1
5872	0	1
5873	0	1
5874	0	1
5875	0	1
5876	0	1
5877	0	1
5878	0	1
5879	0	1
5880	0	1
5881	0	1
5882	0	1
5883	0	1
5884	0	1
5885	0	1
5886	0	1
5887	0	1
5888	0	1
5889	0	1
5890	0	1
5891	0	1
5892	0	1
5893	0	1
5894	0	1
5895	0	1
5896	0	1
5897	0	1
5898	0	1
5899	0	1
5900	0	1
5901	0	1
5902	0	1
5903	0	1
5904	0	1
5905	0	1
5906	0	1
5907	0	1
5908	0	1
5909	0	1
5910	0	1
5911	0	1
5912	0	1
5913	0	1
5914	0	1
5915	0	1
5916	0	1
5917	0	1
5918	0	1
5919	0	1
5920	0	1
5921	0	1
5922	0	1
5923	0	1
5924	0	1
5925	0	1
5926	0	1
5927	0	1
5928	0	1
5929	0	1
5930	0	1
5931	0	1
5932	0	1
5933	0	1
5934	0	1
5935	0	1
5936	0	1
5937	0	1
5938	0	1
5939	0	1
5940	0	1
5941	0	1
5942	0	1
5943	0	1
5944	0	1
5945	0	1
5946	0	1
5947	0	1
5948	0	1
5949	0	1
5950	0	1
5951	0	1
5952	0	1
5953	0	1
5954	0	1
5955	0	1
5956	0	1
5957	0	1
5958	0	1
5959	0	1
5960	0	1
5961	0	1
5962	0	1
5963	0	1
5964	0	1
5965	0	1
5966	0	1
5967	0	1
5968	0	1
5969	0	1
5970	0	1
5971	0	1
5972	0	1
5973	0	1
5974	0	1
5975	0	1
5976	0	1
5977	0	1
5978	0	1
5979	0	1
5980	0	1
5981	0	1
5982	0	1
5983	0	1
5984	0	1
5985	0	1
5986	0	1
5987	0	1
5988	0	1
5989	0	1
5990	0	1
5991	0	1
5992	0	1
5993	0	1
5994	0	1
5995	0	1
5996	0	1
5997	0	1
5998	0	1
5999	0	1
6000	0	1
6001	0	1
6002	0	1
6003	0	1
6004	0	1
6005	0	1
6006	0	1
6007	0	1
6008	0	1
6009	0	1
6010	0	1
6011	0	1
6012	0	1
6013	0	1
6014	0	1
6015	0	1
6016	0	1
6017	0	1
6018	0	1
6019	0	1
6020	0	1
6021	0	1
6022	0	1
6023	0	1
6024	0	1
6025	0	1
6026	0	1
6027	0	1
6028	0	1
6029	0	1
6030	0	1
6031	0	1
6032	0	1
6033	0	1
6034	0	1
6035	0	1
6036	0	1
6037	0	1
6038	0	1
6039	0	1
6040	0	1
6041	0	1
6042	0	1
6043	0	1
6044	0	1
6045	0	1
6046	0	1
6047	0	1
6048	0	1
6049	0	1
6050	0	1
6051	0	1
6052	0	1
6053	0	1
6054	0	1
6055	0	1
6056	0	1
6057	0	1
6058	0	1
6059	0	1
6060	0	1
6061	0	1
6062	0	1
6063	0	1
6064	0	1
6065	0	1
6066	0	1
6067	0	1
6068	0	1
6069	0	1
6070	0	1
6071	0	1
6072	0	1
6073	0	1
6074	0	1
6075	0	1
6076	0	1
6077	0	1
6078	0	1
6079	0	1
6080	0	1
6081	0	1
6082	0	1
6083	0	1
6084	0	1
6085	0	1
6086	0	1
6087	0	1
6088	0	1
6089	0	1
6090	0	1
6091	0	1
6092	0	1
6093	0	1
6094	0	1
6095	0	1
6096	0	1
6097	0	1
6098	0	1
6099	0	1
6100	0	1
6101	0	1
6102	0	1
6103	0	1
6104	0	1
6105	0	1
6106	0	1
6107	0	1
6108	0	1
6109	0	1
6110	0	1
6111	0	1
6112	0	1
6113	0	1
6114	0	1
6115	0	1
6116	0	1
6117	0	1
6118	0	1
6119	0	1
6120	0	1
6121	0	1
6122	0	1
6123	0	1
6124	0	1
6125	0	1
6126	0	1
6127	0	1
6128	0	1
6129	0	1
6130	0	1
6131	0	1
6132	0	1
6133	0	1
6134	0	1
6135	0	1
6136	0	1
6137	0	1
6138	0	1
6139	0	1
6140	0	1
6141	0	1
6142	0	1
6143	0	1
6144	0	1
6145	0	1
6146	0	1
6147	0	1
6148	0	1
6149	0	1
6150	0	1
6151	0	1
6152	0	1
6153	0	1
6154	0	1
6155	0	1
6156	0	1
6157	0	1
6158	0	1
6159	0	1
6160	0	1
6161	0	1
6162	0	1
6163	0	1
6164	0	1
6165	0	1
6166	0	1
6167	0	1
6168	0	1
6169	0	1
6170	0	1
6171	0	1
6172	0	1
6173	0	1
6174	0	1
6175	0	1
6176	0	1
6177	0	0.833333
6178	0	0.833333
6179	0	0.833333
6180	0	0.833333
6181	0	0.833333
6182	0	0.833333
6183	0	0.833333
6184	0	0.833333
6185	0	0.833333
6186	0	0.833333
6187	0	0.833333
6188	0	0.833333
6189	0	0.833333
6190	0	0.833333
6191	0	0.604396
6192	0	0.604396
6193	0	0.604396
6194	0	0.705128
6195	0	0.705128
6196	0	0.705128
6197	0	0.705128
6198	0	0.705128
6199	0	0.705128
6200	0	0.705128
6201	0	0.705128
6202	0	0
6203	0	0
6204	0	0
6205	0	0
6206	0	0
6207	0	0.545455
6208	0	0.545455
6209	0	0.545455
6210	0	0.545455
6211	0	0.461538
6212	0	0.461538
6213	0	0.654545
6214	0	0.654545
6215	0	0.654545
6216	0	0.705128
6217	0	0.705128
6218	0	0.705128
6219	0	0.705128
6220	0	0.705128
6221	0	0.705128
6222	0	0.705128
6223	0	0.705128
6224	0	0.705128
6225	0	0.705128
6226	0	0.705128
6227	0	0.705128
6228	0	0.705128
6229	0	0.705128
6230	0	0.705128
6231	0	0.705128
6232	0	0.705128
6233	0	0.4
6234	0	0.2
6235	0	0.383333
6236	0	0.30719
6237	0	0.712904
6238	0	0.578088
6239	0	0.509091
6240	0	0.509091
6241	0	0.509091
6242	0	0.509091
6243	0	0.509091
6244	0	0.509091
6245	0	0.509091
6246	0	0.218182
6247	0	0.218182
6248	0	0.218182
6249	0	0.218182
6250	0	0.218182
6251	0	0.218182
6252	0	0.218182
6253	0	0.218182
6254	0	0.218182
6255	0	0.218182
6256	0	0.218182
6257	0	0.272727
6258	0	0.272727
6259	0	0.272727
6260	0	0.272727
6261	0	0.353333
6262	0	0.384441
6263	0	0.242424
6264	0	0.242424
6265	0	0.272727
6266	0	0.272727
6267	0	0.272727
6268	0	0.272727
6269	0	0.272727
6270	0	0.272727
6271	0	0.272727
6272	0	0.272727
6273	0	0.272727
6274	0	0.272727
6275	0	0.272727
6276	0	0.272727
6277	0	0.272727
6278	0	0.272727
6279	0	0.272727
6280	0	0.272727
6281	0	0.272727
6282	0	0.272727
6283	0	0.175824
6284	0	0.227273
6285	0	0.227273
6286	0	0.227273
6287	0	0.227273
6288	0	0.420849
6289	0	0.421685
6290	0	0.414087
6291	0	0.174089
6292	0	0.253144
6293	0	0.200129
6294	0	0.219916
6295	0	0.104762
6296	0	0.135081
6297	0	0.152709
6298	0	0.135468
6299	0	0.135468
6300	0	0.135468
6301	0	0.197887
6302	0	0.208459
6303	0	0.216165
6304	0	0.154961
6305	0	0.192108
6306	0	0.149419
6307	0	0.138369
6308	0	0
6309	0	0
6310	0	0
6311	0	0
6312	0	0
6313	0	0
6314	0	0
6315	0	0
6316	0	0
6317	0	0
6318	0	0
6319	0	0
6320	0	0
6321	0	0
6322	0	0
6323	0	0
6324	0	0
6325	0	0
6326	0	0
6327	0	0
6328	0	0
6329	0	0
6330	0	0
6331	0	0
6332	0	0
6333	0	0
6334	0	0
6335	0	0
6336	0	0
6337	0	0
6338	0	0
6339	0	0
6340	0	0
6341	0	0
6342	0	0
6343	0	0
6344	0	0
6345	0	0
6346	0	0
6347	0	0
6348	0	0
6349	0	0
6350	0	0
6351	0	0
6352	0	0
6353	0	0
6354	0	0
6355	0	0
6356	0	0
6357	0	0
6358	0	0
6359	0	0
6360	0	0
6361	0	0
6362	0	0
6363	0	0
6364	0	0
6365	0	0
6366	0	0
6367	0	0
6368	0	0
6369	0	0
6370	0	0
6371	0	0
6372	0	0
6373	0	0
6374	0	0
6375	0	0
6376	0	0
6377	0	0
6378	0	0
6379	0	0
6380	0	0
6381	0	0
6382	0	0
6383	0	0
6384	0	0
6385	0	0
6386	0	0
6387	0	0
6388	0	0
6389	0	0
6390	0	0
6391	0	0
6392	0	0
6393	0	0
6394	0	0
6395	0	0
6396	0	0
6397	0	0
6398	0	0
6399	0	0
6400	0	0
6401	0	0
6402	0	0
6403	0	0
6404	0	0
6405	0	0
6406	0	0
6407	0	0
6408	0	0
6409	0	0
6410	0	0
6411	0	0
6412	0	0
6413	0	0
6414	0	0
6415	0	0
6416	0	0
6417	0	0
6418	0	0
6419	0	0
6420	0	0
6421	0	0
6422	0	0
6423	0	0
6424	0	0
6425	0	0
6426	0	0
6427	0	0
6428	0	0
6429	0	0
6430	0	0
6431	0	0
6432	0	0
6433	0	0
6434	0	0
6435	0	0
6436	0	0
6437	0	0
6438	0	0
6439	0	0
6440	0	0
6441	0	0
6442	0	0
6443	0	0
6444	0	0
6445	0	0
6446	0	0
6447	0	0
6448	0	0
6449	0	0
6450	0	0
6451	0	0
6452	0	0
6453	0	0
6454	0	0
6455	0	0
6456	0	0
6457	0	0
6458	0	0
6459	0	0
6460	0	0
6461	0	0
6462	0	0
6463	0	0
6464	0	0
6465	0	0
6466	0	0
6467	0	0
6468	0	0
6469	0	0
6470	0	0
6471	0	0
6472	0	0
6473	0	0
6474	0	0
6475	0	0
6476	0	0
6477	0	0
6478	0	0
6479	0	0
6480	0	0
6481	0	0
6482	0	0
6483	0	0
6484	0	0
6485	0	0
6486	0	0
6487	0	0
6488	0	0
6489	0	0
6490	0	0
6491	0	0
6492	0	0
6493	0	0
6494	0	0
6495	0	0
6496	0	0
6497	0	0
6498	0	0
6499	0	0
6500	0	0
6501	0	0
6502	0	0
6503	0	0
6504	0	0
6505	0	0
6506	0	0
6507	0	0
6508	0	0
6509	0	0
6510	0	0
6511	0	0
6512	0	0
6513	0	0
6514	0	0
6515	0	0
6516	0	0
6517	0	0
6518	0	0
6519	0	0
6520	0	0
6521	0	0
6522	0	0
6523	0	0
6524	0	0
6525	0	0
6526	0	0
6527	0	0
6528	0	0
6529	0	0
6530	0	0
6531	0	0
6532	0	0
6533	0	0
6534	0	0
6535	0	0
6536	0	0
6537	0	0
6538	0	0
6539	0	0
6540	0	0
6541	0	0
6542	0	0
6543	0	0
6544	0	0
6545	0	0
6546	0	0
6547	0	0
6548	0	0
6549	0	0
6550	0	0
6551	0	0
6552	0	0
6553	0	0
6554	0	0
6555	0	0
6556	0	0
6557	0	0
6558	0	0
6559	0	0
6560	0	0
6561	0	0
6562	0	0
6563	0	0
6564	0	0
6565	0	0
6566	0	0
6567	0	0
6568	0	0
6569	0	0
6570	0	0
6571	0	0
6572	0	0
6573	0	0
6574	0	0
6575	0	0
6576	0	0
6577	0	0
6578	0	0
6579	0	0
6580	0	0
6581	0	0
6582	0	0
6583	0	0
6584	0	0
6585	0	0
6586	0	0
6587	0	0
6588	0	0
6589	0	0
6590	0	0
6591	0	0
6592	0	0
6593	0	0
6594	0	0
6595	0	0
6596	0	0
6597	0	0
6598	0	0
6599	0	0
6600	0	0
6601	0	0
6602	0	0
6603	0	0
6604	0	0
6605	0	0
6606	0	0
6607	0	0
6608	0	0
6609	0	0
6610	0	0
6611	0	0
6612	0	0
6613	0	0
6614	0	0
6615	0	0
6616	0	0
6617	0	0
6618	0	0
6619	0	0
6620	0	0
6621	0	0
6622	0	0
6623	0	0
6624	0	0
6625	0	0
6626	0	0
6627	0	0
6628	0	0
6629	0	0
6630	0	0
6631	0	0
6632	0	0
6633	0	0
6634	1	0
6635	1	0
6636	1	0
6637	1	0
6638	0	0
6639	0	0
6640	0	0
6641	0	0
6642	0	0
6643	0	0
6644	0	0
6645	0	0
6646	0	0
6647	0	0
6648	0	0
6649	0	0
6650	0	0
6651	0	0
6652	0	0
6653	0	0
6654	0	0
6655	0	0
6656	0	0
6657	0	0
6658	0	0
6659	0	0
6660	0	0
6661	0	0
6662	0	0
6663	0	0
6664	0	0
6665	0	0
6666	0	0
6667	0	0
6668	0	0
6669	0	0
6670	0	0
6671	0	0
6672	0	0
6673	0	0
6674	0	0
6675	0	0
6676	0	0
6677	0	0
6678	0	0
6679	0	0
6680	0	0
6681	0	0
6682	0	0
6683	0	0
6684	0	0
6685	0	0
6686	0	0
6687	0	0
6688	0	0
6689	0	0
6690	0	0
6691	0	0
6692	0	0
6693	0	0
6694	0	0
6695	0	0
6696	0	0
6697	0	0
6698	0	0
6699	0	0
6700	0	0
6701	0	0
6702	0	0
6703	0	0
6704	0	0
6705	0	0
6706	0	0
6707	0	0
6708	0	0
6709	0	0
6710	0	0
6711	0	0
6712	0	0
6713	0	0
6714	0	0
6715	0	0
6716	0	0
6717	0	0
6718	0	0
6719	0	0
6720	0	0
6721	0	0
6722	0	0
6723	0	0
6724	0	0
6725	0	0
6726	0	0
6727	0	0
6728	0	0
6729	0	0
6730	0	0
6731	0	0
6732	0	0
6733	0	0
6734	0	0
6735	0	0
6736	0	0
6737	0	0
6738	0	0
6739	0	0
6740	0	0
6741	0	0
6742	0	0
6743	0	0
6744	0	0
6745	0	0
6746	0	0
6747	0	0
6748	0	0
6749	0	0
6750	0	0
6751	0	0
6752	0	0
6753	0	0
6754	0	0
6755	0	0
6756	0	0
6757	0	0
6758	0	0
6759	0	0
6760	0	0
6761	0	0
6762	0	0
6763	0	0
6764	0	0
6765	0	0
6766	0	0
6767	0	0
6768	0	0
6769	0	0
6770	0	0
6771	0	0
6772	0	0
6773	0	0
6774	0	0
6775	0	0
6776	0	0
6777	0	0
6778	0	0
6779	0	0
6780	0	0
6781	0	0
6782	0	0
6783	0	0
6784	0	0
6785	0	0
6786	0	0
6787	0	0
6788	0	0
6789	0	0
6790	0	0
6791	0	0
6792	0	0
6793	0	0
6794	0	0
6795	0	0
6796	0	0
6797	0	0
6798	0	0
6799	0	0
6800	0	0
6801	0	0
6802	0	0
6803	0	0
6804	0	0
6805	0	0
6806	0	0
6807	0	0
6808	0	0
6809	0	0
6810	0	0
6811	0	0
6812	0	0
6813	0	0
6814	0	0
6815	0	0
6816	0	0
6817	0	0
6818	0	0
6819	0	0
6820	0	0
6821	0	0
6822	1	0
6823	1	0
6824	1	0
6825	1	0
6826	1	0
6827	1	0
6828	1	0
6829	1	0
6830	1	0
6831	1	0
6832	1	0
6833	1	0
6834	1	0
6835	1	0
6836	1	0
6837	1	0
6838	1	0
6839	0	0
6840	0	0
6841	0	0
6842	0	0
6843	0	0
6844	0	0
6845	0	0
6846	0	0
6847	0	0
6848	0	0
6849	0	0
6850	0	0
6851	0	0
6852	0	0
6853	0	0
6854	0	0
6855	0	0
6856	0	0
6857	0	0
6858	0	0
6859	0	0
6860	0	0
6861	0	0
6862	0	0
6863	0	0
6864	0	0
6865	0	0
6866	0	0
6867	0	0
6868	0	0
6869	0	0
6870	0	0
6871	0	0
6872	0	0
6873	0	0
6874	0	0
6875	0	0
6876	0	0
6877	0	0
6878	0	0
6879	0	0
6880	0	0
6881	0	0
6882	0	0
6883	0	0
6884	0	0
6885	0	0
6886	0	0
6887	0	0
6888	0	0
6889	0	0
6890	0	0
6891	0	0
6892	0	0
6893	0	0
6894	0	0
6895	0	0
6896	0	0
6897	0	0
6898	0	0
6899	0	0
6900	0	0
6901	0	0
6902	0	0
6903	0	0
6904	0	0
6905	0	0
6906	0	0
6907	0	0
6908	0	0
6909	0	0
6910	0	0
6911	0	0
6912	0	0
6913	0	0
6914	0	0
6915	0	0
6916	0	0
6917	0	0
6918	0	0
6919	0	0
6920	0	0
6921	0	0
6922	0	0
6923	0	0
6924	0	0
6925	0	0
6926	0	0
6927	0	0
6928	0	0
6929	0	0
6930	0	0
6931	0	0
6932	0	0
6933	0	0
6934	0	0
6935	0	0
6936	0	0
6937	0	0
6938	0	0
6939	0	0
6940	0	0
6941	0	0
6942	0	0
6943	0	0
6944	0	0
6945	0	0
6946	0	0
6947	0	0
6948	0	0
6949	0	0
6950	0	0
6951	0	0
6952	0	0
6953	0	0
6954	0	0
6955	0	0
6956	0	0
6957	0	0
6958	0	0
6959	0	0
6960	0	0
6961	0	0
6962	0	0
6963	0	0
6964	0	0
6965	0	0
6966	0	0
6967	0	0
6968	0	0
6969	0	0
6970	0	0
6971	0	0
6972	0	0
6973	0	0
6974	0	0
6975	0	0
6976	0	0
6977	0	0
6978	0	0
6979	0	0
6980	0	0
6981	0	0
6982	0	0
6983	0	0
6984	0	0
6985	0	0
6986	0	0
6987	0	0
6988	0	0
6989	0	0
6990	0	0
6991	0	0
6992	0	0
6993	0	0
6994	0	0
6995	0	0
6996	0	0
6997	0	0
6998	0	0
6999	0	0
7000	0	0
7001	0	0
7002	0	0
7003	0	0
7004	0	0
7005	0	0
7006	0	0
7007	0	0
7008	0	0
7009	0	0
7010	0	0
7011	0	0
7012	0	0
7013	0	0
7014	0	0
7015	0	0
7016	0	0
7017	0	0
7018	1	0
7019	1	0
7020	1	0
7021	1	0
7022	1	0
7023	1	0
7024	1	0
7025	1	0
7026	0	0
7027	0	0
7028	0	0
7029	0	0
7030	0	0
7031	0	0
7032	0	0
7033	0	0
7034	0	0
7035	0	0
7036	0	0
7037	0	0
7038	0	0
7039	0	0
7040	0	0
7041	0	0
7042	0	0
7043	0	0
7044	0	0
7045	0	0
7046	0	0
7047	0	0
7048	0	0
7049	0	0
7050	0	0.047619
7051	0	0.047619
7052	0	0.0444444
7053	0	0.0444444
7054	0	0.0444444
7055	0	0.0363636
7056	0	0.0363636
7057	0	0.032967
7058	0	0.0760234
7059	0	0.0666667
7060	0	0.0714286
7061	0	0.0930233
7062	0	0.140506
7063	0	0.136879
7064	0	0.11984
7065	0	0.103825
7066	0	0.110162
7067	0	0.0799773
7068	0	0.0738988
7069	0	0.0680522
7070	0	0.0704609
7071	0	0.0664452
7072	0	0.0664452
7073	0	0.0664452
7074	0	0.0697674
7075	0	0.06866
7076	0	0.0702927
7077	0	0.0851372
7078	0	0.062069
7079	0	0.0555556
7080	0	0.0466667
7081	0	0.0366667
7082	0	0.0366667
7083	0	0.0237154
7084	0	0.0316206
7085	0	0.0237154
7086	0	0.0355731
7087	0	0.027668
7088	0	0.0237154
7089	0	0.0237154
7090	0	0.0237154
7091	0	0.116777
7092	0	0.0280488
7093	0	0.0280488
7094	0	0.0280488
7095	0	0.0267131
7096	0	0.0243129
7097	0	0.0461665
7098	0	0.04481
7099	0	0.0384119
7100	0	0.364234
7101	0	0.241489
7102	0	0.323366
7103	0	0.352632
7104	0	0.1
7105	0	0
7106	0	0.0444444
7107	0	0.0666667
7108	0	0.0833333
7109	0	0.0833333
7110	0	0.0833333
7111	0	0.0833333
7112	0	0.0833333
7113	0	0
7114	0	0.166667
7115	0	0.166667
7116	0	0.166667
7117	0	0.166667
7118	0	0.166667
7119	0	0.166667
7120	0	0.166667
7121	0	0.166667
7122	0	0.166667
7123	0	0.166667
7124	0	0.166667
7125	0	0.214286
7126	0	0.214286
7127	0	0.214286
7128	0	0.214286
7129	0	0.214286
7130	0	0.214286
7131	0	0.214286
7132	0	0.214286
7133	0	0.214286
7134	0	0.214286
7135	0	0.214286
7136	0	0.214286
7137	0	0.214286
7138	0	0.214286
7139	0	0.214286
7140	0	0.214286
7141	0	0.214286
7142	0	0.214286
7143	0	0.214286
7144	0	0.214286
7145	0	0
7146	0	0
7147	0	0
7148	0	0.107143
7149	0	0.107143
7150	0	0.107143
7151	0	0.107143
7152	0	0.107143
7153	0	0.107143
7154	0	0.107143
7155	0	0.107143
7156	0	0.107143
7157	0	0.107143
7158	0	0.107143
7159	0	0.107143
7160	0	0.107143
7161	0	0.0357143
7162	0	0.0357143
7163	0	0.0357143
7164	0	0.0357143
7165	0	0
7166	0	0
7167	0	0
7168	0	0
7169	0	0
7170	0	0
7171	0	0
7172	0	0
7173	0	0
7174	0	0
7175	0	0
7176	0	0
7177	0	0.0833333
7178	0	0.0833333
7179	0	0.0833333
7180	0	0.0833333
7181	0	0.0833333
7182	0	0.0833333
7183	0	0.0833333
7184	0	0.0833333
7185	0	0.0833333
7186	0	0.0833333
7187	0	0.0833333
7188	0	0.0833333
7189	0	0.0833333
7190	0	0.0833333
7191	0	0.0833333
7192	0	0.0833333
7193	0	0.0833333
7194	0	0.107143
7195	0	0.107143
7196	0	0.107143
7197	0	0.0833333
7198	0	0.0833333
7199	0	0.0833333
7200	0	0.0833333
7201	0	0.0833333
7202	0	0.0833333
7203	0	0.0833333
7204	0	0.0833333
7205	0	0.0833333
7206	0	0.0833333
7207	0	0.0833333
7208	0	0.0277778
7209	0	0
7210	0	0
7211	0	0
7212	0	0
7213	0	0
7214	0	0
7215	0	0
7216	0	0
7217	0	0
7218	0	0
7219	0	0
7220	0	0
7221	0	0.0277778
7222	0	0.0277778
7223	0	0.0277778
7224	0	0.0277778
7225	0	0.0277778
7226	0	0.0277778
7227	0	0.0277778
7228	0	0.0277778
7229	0	0.0277778
7230	0	0.0277778
7231	0	0.0277778
7232	0	0.0277778
7233	0	0.0277778
7234	0	0.0277778
7235	0	0.0277778
7236	0	0.0277778
7237	0	0.0277778
7238	0	0.0833333
7239	0	0.0833333
7240	0	0.0833333
7241	0	0.0833333
7242	0	0.0833333
7243	0	0.0357143
7244	0	0.0357143
7245	0	0.0357143
7246	0	0.0357143
7247	0	0
7248	0	0
7249	0	0
7250	0	0
7251	0	0
7252	0	0
7253	0	0
7254	0	0
7255	0	0
7256	0	0
7257	0	0
7258	0	0
7259	0	0
7260	0	0
7261	0	0
7262	0	0
7263	0	0
7264	0	0
7265	0	0
7266	0	0
7267	0	0
7268	0	0
7269	0	0
7270	0	0
7271	0	0
7272	0	0
7273	0	0
7274	0	0.107143
7275	0	0.0833333
7276	0	0.0833333
7277	0	0.0833333
7278	0	0.133333
7279	0	0.133333
7280	0	0.133333
7281	0	0.133333
7282	0	0.133333
7283	0	0.133333
7284	0	0.133333
7285	0	0.133333
7286	0	0.127273
7287	0	0.127273
7288	0	0.127273
7289	0	0.127273
7290	0	0.127273
7291	0	0.127273
7292	0	0.106061
7293	0	0.106061
7294	0	0.106061
7295	0	0.0897436
7296	0	0.0897436
7297	0	0.0897436
7298	0	0.0897436
7299	0	0.0897436
7300	0	0.0897436
7301	0	0.0769231
7302	0	0.0769231
7303	0	0.0769231
7304	0	0.0512821
7305	0	0.0512821
7306	0	0.0512821
7307	0	0.043956
7308	0	0.0769231
7309	0	0.0769231
7310	0	0.0769231
7311	0	0.0769231
7312	0	0.0769231
7313	0	0.0769231
7314	0	0.0769231
7315	0	0.0666667
7316	0	0.0666667
7317	0	0.0666667
7318	0	0.0666667
7319	0	0.0666667
7320	0	0.0666667
7321	0	0.0666667
7322	0	0.0666667
7323	0	0.0666667
7324	0	0.0666667
7325	0	0.0666667
7326	0	0.0666667
7327	0	0.0666667
7328	0	0.0666667
7329	0	0.0666667
7330	0	0.0666667
7331	0	0.0666667
7332	0	0.0666667
7333	0	0.0666667
7334	0	0.0666667
7335	0	0.0666667
7336	0	0.0666667
7337	0	0.0666667
7338	0	0.0151515
7339	0	0.0151515
7340	0	0.0151515
7341	0	0.0151515
7342	0	0.0151515
7343	0	0.0151515
7344	0	0.0151515
7345	0	0.0151515
7346	0	0.0151515
7347	0	0.0128205
7348	0	0.0128205
7349	0	0.0128205
7350	0	0.0128205
7351	0	0.0128205
7352	0	0.0128205
7353	0	0.0128205
7354	0	0.025641
7355	0	0.021978
7356	0	0.021978
7357	0	0.0190476
7358	0	0.0190476
7359	0	0.0190476
7360	0	0.0190476
7361	0	0.0190476
7362	0	0.0190476
7363	0	0.0190476
7364	0	0.0190476
7365	0	0.0190476
7366	0	0.0190476
7367	0	0.0190476
7368	0	0.0190476
7369	0	0.0190476
7370	0	0.0326797
7371	0	0.0326797
7372	0	0.0326797
7373	0	0.0326797
7374	0	0.0326797
7375	0	0.0326797
7376	0	0.0326797
7377	0	0.0326797
7378	0	0.0326797
7379	0	0.0326797
7380	0	0.0326797
7381	0	0.0326797
7382	0	0.0326797
7383	0	0.0326797
7384	0	0.467532
7385	0	0.467532
7386	0	0.466866
7387	0	0.438356
7388	0	0.0210526
7389	0	0.0210526
7390	0	0.0190476
7391	0	0.344988
7392	0	0.344988
7393	0	0.275156
7394	0	0.435789
7395	0	0.457963
7396	0	0.457963
7397	0	0.047619
7398	0	0.0562771
7399	0	0.0434783
7400	0	0.0434783
7401	0	0.0395257
7402	0	0.0467836
7403	0	0.0434783
7404	0	0.0434783
7405	0	0.502759
7406	0	0.557936
7407	0	0.558585
7408	0	0.558585
7409	0	0.531481
7410	0	0.531481
7411	0	0.531481
7412	0	0.531481
7413	0	0.512963
7414	0	0.525949
7415	0	0.525949
7416	0	0.490506
7417	0	0.05
7418	0	0.05
7419	0	0.05
7420	0	0.0543478
7421	0	0.042328
7422	0	0.0387097
7423	0	0.334799
7424	0	0.313658
7425	0	0.313658
7426	0	0.312972
7427	0	0.265182
7428	0	0.0515152
7429	0	0.0544685
7430	0	0.0586198
7431	0	0.0492899
7432	0	0.0474648
7433	0	0.0516702
7434	0	0.0593858
7435	0	0.0528252
7436	0	0.0570337
7437	0	0.0535933
7438	0	0.0649982
7439	0	0.0633385
7440	0	0.0321669
7441	0	0.0308926
7442	0	0.0292283
7443	0	0.0357599
7444	0	0.0372972
7445	0	0.0619001
7446	0	0.0756689
7447	0	0.0694975
7448	0	0.0801581
7449	0	0.0747077
7450	0	0.080415
7451	0	0.0770501
7452	0	0.0832287
7453	0	0.0317194
7454	0	0.0726597
7455	0	0.0710718
7456	0	0.0795928
7457	0	0.0858899
7458	0	0.0977387
7459	0	0.122844
7460	0	0.149179
7461	0	0.155694
7462	0	0.0608431
7463	0	0.0623951
7464	0	0.0643173
7465	0	0.0687239
7466	0	0.0820175
7467	0	0.079425
7468	0	0.0839173
7469	0	0.156736
7470	0	0.16438
7471	0	0.142424
7472	0	0.092363
7473	0	0.0501046
7474	0	0.0504487
7475	0	0.203333
7476	0	0.289474
7477	0	0.289474
7478	0	0.289474
7479	0	0.289474
7480	0	0.321637
7481	0	0.321637
7482	0	0.321637
7483	0	0.321637
7484	0	0.321637
7485	0	0.321637
7486	0	0.321637
7487	0	0.321637
7488	0	0.321637
7489	0	0.321637
7490	0	0.321637
7491	0	0.321637
7492	0	0.321637
7493	0	0.321637
7494	0	0.321637
7495	0	0.321637
7496	0	0.321637
7497	0	0.321637
7498	0	0.321637
7499	0	0.321637
7500	0	0.289474
7501	0	0.0576754
7502	0	0.0640486
7503	0	0.0681319
7504	0	0.123412
7505	0	0.142534
7506	0	0.160576
7507	0	0.17561
7508	0	0.236467
7509	0	0.359477
7510	0	0.359477
7511	0	0.359477
7512	0	0.359477
7513	0	0.359477
7514	0	0.359477
7515	0	0.359477
7516	0	0.359477
7517	0	0.359477
7518	0	0.359477
7519	0	0.359477
7520	0	0.359477
7521	0	0.359477
7522	0	0.359477
7523	0	0.146341
7524	0	0.146341
7525	0	0.156303
7526	0	0.130868
7527	0	0.242424
7528	0	0.242424
7529	0	0.242424
7530	0	0.242424
7531	0	0.242424
7532	0	0.321637
7533	0	0.321637
7534	0	0.321637
7535	0	0.321637
7536	0	0.321637
7537	0	0.327485
7538	0	0.404412
7539	0	0.117386
7540	0	0.117305
7541	0	0.124359
7542	0	0.321637
7543	0	0.359477
7544	0	0.359477
7545	0	0.359477
7546	0	0.359477
7547	0	0.359477
7548	0	0.359477
7549	0	0.404412
7550	0	0.404412
7551	0	0.404412
7552	0	0.404412
7553	0	0.404412
7554	0	0.404412
7555	0	0.404412
7556	0	0.404412
7557	0	0.404412
7558	0	0.404412
7559	0	0.404412
7560	0	0.404412
7561	0	0.404412
7562	0	0.404412
7563	0	0.52381
7564	0	0.52381
7565	0	0.52381
7566	0	0.52381
7567	0	0.52381
7568	0	0.52381
7569	0	0.52381
7570	0	0.52381
7571	0	0.52381
7572	0	0.52381
7573	0	0.52381
7574	0	0.52381
7575	0	0.52381
7576	0	0.52381
7577	0	0.52381
7578	0	0.604396
7579	0	0.604396
7580	0	0.604396
7581	0	0.604396
7582	0	0.604396
7583	0	0.604396
7584	0	0.604396
7585	0	0.604396
7586	0	0.604396
7587	0	0.604396
7588	0	0.604396
7589	0	0.604396
7590	0	0.604396
7591	0	0.604396
7592	0	0.604396
7593	0	0.604396
7594	0	0.604396
7595	0	0.604396
7596	0	0.604396
7597	0	0.604396
7598	0	0.604396
7599	0	0.604396
7600	0	0.604396
7601	0	0.604396
7602	0	0.604396
7603	0	0.604396
7604	0	0.604396
7605	0	0.604396
7606	0	0.604396
7607	0	0.604396
7608	0	0.604396
7609	0	0.604396
7610	0	0.604396
7611	0	0.604396
7612	0	0.604396
7613	0	0.604396
7614	0	0.604396
7615	0	0.604396
7616	0	0.604396
7617	0	0.604396
7618	0	0.604396
7619	0	0.604396
7620	0	0.604396
7621	0	0.604396
7622	0	0.604396
7623	0	0.604396
7624	0	0.604396
7625	0	0.604396
7626	0	0.604396
7627	0	0.604396
7628	0	0.604396
7629	0	0.604396
7630	0	0.604396
7631	0	0.604396
7632	0	0.604396
7633	0	0.604396
7634	0	0.604396
7635	0	0.604396
7636	0	0.705128
7637	0	0.705128
7638	0	0.705128
7639	0	0.705128
7640	0	0.705128
7641	0	0.705128
7642	0	0.705128
7643	0	0.705128
7644	0	0.705128
7645	0	0.705128
7646	0	0.705128
7647	0	0.705128
7648	0	0.705128
7649	0	0.705128
7650	0	0.705128
7651	0	0.705128
7652	0	0.705128
7653	0	0.705128
7654	0	0.705128
7655	0	0.705128
7656	0	0.705128
7657	0	0.705128
7658	0	0.705128
7659	0	0.705128
7660	0	0.705128
7661	0	0.705128
7662	0	0.705128
7663	0	0.705128
7664	0	0.705128
7665	0	0.705128
7666	0	0.705128
7667	0	0.705128
7668	0	0.705128
7669	0	0.705128
7670	0	0.705128
7671	0	0.705128
7672	0	0.705128
7673	0	0.705128
7674	0	0.705128
7675	0	0.705128
7676	0	0.705128
7677	0	0.705128
7678	0	0.705128
7679	0	0.705128
7680	0	0.705128
7681	0	0.705128
7682	0	0.705128
7683	0	0.705128
7684	0	0.705128
7685	0	0.705128
7686	0	0.705128
7687	0	0.705128
7688	0	0.705128
7689	0	0.705128
7690	0	0.705128
7691	0	0.705128
7692	0	0.705128
7693	0	0.705128
7694	0	0.705128
7695	0	0.705128
7696	0	0.705128
7697	0	0.705128
7698	0	0.705128
7699	0	0.705128
7700	0	0.705128
7701	0	0.705128
7702	0	0.705128
7703	0	0.705128
7704	0	0.705128
7705	0	0.705128
7706	0	0.705128
7707	0	0.705128
7708	0	0.705128
7709	0	0.705128
7710	0	0.681818
7711	0	0.681818
7712	0	0.576923
7713	0	0.576923
7714	0	0.576923
7715	0	0.576923
7716	0	0.705128
7717	0	0.705128
7718	0	0.705128
7719	0	0.705128
7720	0	0.474359
7721	0	0.474359
7722	0	0.474359
7723	0	0.288889
7724	0	0
7725	0	0
7726	0	0
7727	0	0
7728	0	0
7729	0	0
7730	0	0
7731	0	0
7732	0	0
7733	0	0
7734	0	0
7735	0	0
7736	0	0
7737	0	0
7738	0	0
7739	0	0
7740	0	0
7741	0	0
7742	0	0
7743	0	0
7744	0	0
7745	0	0
7746	0	0
7747	0	0
7748	0	0
7749	0	0
7750	0	0
7751	0	0
7752	0	0
7753	0	0
7754	0	0
7755	0	0
7756	0	0
7757	0	0
7758	0	0
7759	0	0
7760	0	0
7761	0	0
7762	0	0
7763	0	0
7764	0	0
7765	0	0
7766	0	0
7767	0	0
7768	0	0
7769	0	0
7770	0	0
7771	0	0
7772	0	0
7773	0	0
7774	0	0
7775	0	0
7776	0	0
7777	0	0
7778	0	0
7779	0	0
7780	0	0
7781	0	0
7782	0	0
7783	0	0
7784	0	0
7785	0	0
7786	0	0
7787	0	0
7788	0	0
7789	0	0
7790	0	0
7791	0	0
7792	0	0
7793	0	0
7794	0	0
7795	0	0
7796	0	0
7797	0	0
7798	0	0
7799	0	0
7800	1	0
7801	1	0
7802	0	0
7803	0	0
7804	0	0
7805	0	0
7806	0	0
7807	0	0
7808	0	0
7809	0	0
7810	0	0
7811	0	0
7812	0	0
7813	0	0
7814	0	0
7815	0	0
7816	0	0
7817	0	0
7818	0	0
7819	0	0
7820	0	0
7821	0	0
7822	0	0
7823	0	0
7824	0	0
7825	0	0
7826	0	0
7827	0	0
7828	0	0
7829	0	0
7830	0	0
