Site	ColumnScore	SumOfPairsScore
1	1	0
2	1	0
3	1	0
4	1	0
5	1	0
6	1	0
7	1	0
8	1	0
9	1	0
10	1	0
11	1	0
12	1	0
13	1	0
14	1	0
15	1	0
16	1	0
17	1	0
18	1	0
19	1	0
20	1	0
21	1	0
22	1	0
23	1	0
24	1	0
25	1	0
26	1	0
27	1	0
28	1	0
29	1	0
30	1	0
31	1	0
32	1	0
33	1	0
34	1	0
35	1	0
36	1	0
37	1	0
38	1	0
39	1	0
40	1	0
41	1	0
42	1	0
43	1	0
44	1	0
45	1	0
46	1	0
47	1	0
48	1	0
49	1	0
50	1	0
51	1	0
52	1	0
53	1	0
54	1	0
55	1	0
56	1	0
57	1	0
58	1	0
59	1	0
60	1	0
61	1	0
62	1	0
63	1	0
64	1	0
65	1	0
66	1	0
67	1	0
68	1	0
69	1	0
70	1	0
71	1	0
72	1	0
73	1	0
74	1	0
75	1	0
76	1	0
77	1	0
78	1	0
79	1	0
80	1	0
81	1	0
82	1	0
83	1	0
84	1	0
85	1	0
86	1	0
87	1	0
88	1	0
89	1	0
90	1	0
91	1	0
92	1	0
93	1	0
94	1	0
95	1	0
96	1	0
97	1	0
98	1	0
99	1	0
100	1	0
101	1	0
102	1	0
103	1	0
104	1	0
105	1	0
106	1	0
107	1	0
108	1	0
109	1	0
110	1	0
111	1	0
112	1	0
113	1	0
114	1	0
115	1	0
116	1	0
117	1	0
118	1	0
119	1	0
120	1	0
121	1	0
122	1	0
123	1	0
124	1	0
125	1	0
126	1	0
127	1	0
128	1	0
129	1	0
130	1	0
131	1	0
132	1	0
133	1	0
134	1	0
135	1	0
136	1	0
137	1	0
138	1	0
139	1	0
140	1	0
141	1	0
142	1	0
143	1	0
144	1	0
145	1	0
146	1	0
147	1	0
148	1	0
149	1	0
150	1	0
151	1	0
152	1	0
153	1	0
154	1	0
155	1	0
156	1	0
157	1	0
158	1	0
159	1	0
160	1	0
161	1	0
162	1	0
163	1	0
164	1	0
165	1	0
166	1	0
167	1	0
168	1	0
169	1	0
170	1	0
171	1	0
172	1	0
173	1	0
174	1	0
175	1	0
176	1	0
177	1	0
178	1	0
179	1	0
180	1	0
181	1	0
182	1	0
183	1	0
184	1	0
185	1	0
186	1	0
187	1	0
188	1	0
189	1	0
190	1	0
191	1	0
192	1	0
193	1	0
194	1	0
195	1	0
196	1	0
197	1	0
198	1	0
199	1	0
200	1	0
201	1	0
202	1	0
203	1	0
204	1	0
205	1	0
206	1	0
207	1	0
208	1	0
209	1	0
210	1	0
211	1	0
212	1	0
213	1	0
214	1	0
215	1	0
216	1	0
217	1	0
218	1	0
219	1	0
220	1	0
221	1	0
222	1	0
223	1	0
224	1	0
225	1	0
226	1	0
227	1	0
228	1	0
229	1	0
230	1	0
231	1	0
232	1	0
233	1	0
234	1	0
235	1	0
236	1	0
237	1	0
238	1	0
239	1	0
240	1	0
241	1	0
242	1	0
243	1	0
244	1	0
245	1	0
246	1	0
247	1	0
248	1	0
249	1	0
250	1	0
251	1	0
252	1	0
253	1	0
254	1	0
255	1	0
256	1	0
257	1	0
258	1	0
259	1	0
260	1	0
261	1	0
262	1	0
263	1	0
264	1	0
265	1	0
266	1	0
267	1	0
268	1	0
269	1	0
270	1	0
271	1	0
272	1	0
273	1	0
274	1	0
275	1	0
276	1	0
277	1	0
278	1	0
279	1	0
280	1	0
281	1	0
282	1	0
283	1	0
284	1	0
285	1	0
286	1	0
287	1	0
288	1	0
289	1	0
290	0	0
291	0	0
292	0	0
293	0	0
294	0	0
295	1	0
296	1	0
297	1	0
298	1	0
299	1	0
300	1	0
301	1	0
302	1	0
303	1	0
304	1	0
305	1	0
306	0	0
307	0	0
308	0	0
309	0	0
310	0	0
311	0	0
312	0	0
313	0	0
314	0	0
315	0	0
316	0	0
317	0	0
318	0	0
319	0	0
320	0	0
321	0	0
322	0	0
323	0	0
324	0	0
325	0	0
326	0	0
327	0	0
328	0	0
329	0	0
330	0	0
331	0	0
332	0	0
333	0	0
334	1	0
335	1	0
336	1	0
337	1	0
338	1	0
339	1	0
340	1	0
341	1	0
342	1	0
343	1	0
344	1	0
345	1	0
346	1	0
347	1	0
348	1	0
349	1	0
350	1	0
351	1	0
352	1	0
353	1	0
354	1	0
355	1	0
356	1	0
357	1	0
358	1	0
359	1	0
360	1	0
361	1	0
362	1	0
363	1	0
364	1	0
365	1	0
366	1	0
367	1	0
368	1	0
369	1	0
370	1	0
371	1	0
372	1	0
373	1	0
374	1	0
375	1	0
376	1	0
377	1	0
378	1	0
379	1	0
380	0	0
381	0	0
382	0	0
383	0	0
384	0	0
385	0	0
386	0	0
387	0	0
388	0	0
389	0	0
390	1	0
391	1	0
392	1	0
393	1	0
394	1	0
395	1	0
396	1	0
397	1	0
398	1	0
399	1	0
400	1	0
401	1	0
402	0	0
403	0	0
404	0	0
405	0	0
406	0	0
407	0	0
408	0	0
409	0	0
410	0	0
411	0	0
412	0	0
413	1	0
414	1	0
415	1	0
416	1	0
417	0	0
418	1	0
419	1	0
420	1	0
421	1	0
422	1	0
423	1	0
424	1	0
425	1	0
426	1	0
427	1	0
428	1	0
429	1	0
430	1	0
431	1	0
432	1	0
433	1	0
434	1	0
435	1	0
436	1	0
437	1	0
438	1	0
439	1	0
440	0	0
441	0	0
442	0	0
443	0	0
444	0	0
445	0	0
446	0	0
447	0	0
448	0	0
449	0	0
450	0	0
451	0	0
452	0	0
453	0	0
454	0	0
455	0	0
456	0	0
457	0	0
458	0	0
459	0	0
460	0	0
461	0	0
462	0	0
463	0	0
464	0	0
465	0	0
466	0	0
467	0	0
468	0	0
469	0	0
470	0	0
471	0	0
472	0	0
473	0	0
474	0	0
475	1	0
476	1	0
477	1	0
478	1	0
479	1	0
480	1	0
481	1	0
482	0	0
483	0	0
484	0	0
485	0	0
486	0	0
487	0	0
488	0	0
489	0	0
490	0	0
491	0	0
492	0	0
493	0	0
494	0	0
495	0	0
496	0	0
497	0	0
498	0	0
499	0	0
500	1	0
501	1	0
502	1	0
503	1	0
504	1	0
505	0	0
506	0	0
507	0	0
508	0	0
509	0	0
510	0	0
511	0	0
512	0	0
513	0	0
514	0	0
515	0	0
516	0	0
517	0	0
518	0	0
519	0	0
520	0	0
521	0	0
522	0	0
523	0	0
524	0	0
525	0	0
526	0	0
527	0	0
528	0	0
529	0	0
530	0	0
531	0	0
532	0	0
533	0	0
534	0	0
535	0	0
536	0	0
537	0	0
538	0	0
539	0	0
540	0	0
541	0	0
542	0	0
543	0	0
544	0	0
545	0	0
546	0	0
547	0	0
548	0	0
549	0	0
550	0	0
551	0	0
552	0	0
553	0	0
554	0	0
555	0	0
556	0	0
557	0	0
558	0	0
559	0	0
560	0	0
561	0	0
562	0	0
563	0	0
564	0	0
565	0	0
566	0	0
567	0	0
568	0	0
569	0	0
570	0	0
571	0	0
572	0	0
573	0	0
574	0	0
575	0	0
576	0	0
577	0	0
578	0	0
579	0	0
580	0	0
581	0	0
582	0	0
583	0	0
584	0	0
585	0	0
586	0	0
587	0	0
588	0	0
589	0	0
590	0	0
591	0	0
592	0	0
593	0	0
594	0	0
595	0	0
596	0	0
597	0	0
598	0	0
599	0	0
600	0	0
601	0	0
602	0	0
603	0	0
604	0	0
605	0	0
606	0	0
607	0	0
608	0	0
609	0	0
610	0	0
611	0	0
612	0	0
613	0	0
614	0	0
615	0	0
616	0	0
617	0	0
618	0	0
619	0	0
620	0	0
621	0	0
622	0	0
623	0	0
624	0	0
625	0	0
626	0	0
627	0	0
628	0	0
629	0	0
630	0	0
631	0	0
632	0	0
633	0	0
634	0	0
635	0	0
636	0	0
637	0	0
638	0	0
639	0	0
640	0	0
641	0	0
642	0	0
643	0	0
644	0	0
645	0	0
646	0	0
647	0	0
648	0	0
649	0	0
650	0	0
651	0	0
652	0	0
653	0	0
654	0	0
655	0	0
656	0	0
657	0	0
658	0	0
659	0	0
660	0	0
661	0	0
662	0	0
663	0	0
664	0	0
665	0	0
666	0	0
667	0	0
668	0	0
669	0	0
670	0	0
671	0	0
672	0	0
673	0	0
674	0	0
675	0	0
676	0	0
677	0	0
678	0	0
679	0	0
680	0	0
681	0	0
682	0	0
683	0	0
684	0	0
685	0	0
686	0	0
687	0	0
688	0	0
689	0	0
690	0	0
691	0	0
692	0	0
693	0	0
694	0	0
695	0	0
696	0	0
697	0	0
698	0	0
699	0	0
700	0	0
701	0	0
702	0	0
703	0	0
704	0	0
705	0	0
706	0	0
707	0	0
708	0	0
709	0	0
710	0	0
711	0	0.333333
712	0	0.333333
713	0	0.333333
714	0	0.333333
715	0	0.333333
716	0	0.333333
717	0	0.333333
718	0	0.333333
719	0	0.333333
720	0	0.333333
721	0	0.333333
722	0	0.333333
723	0	0.333333
724	0	0.333333
725	0	0
726	0	0
727	0	0
728	0	0
729	0	0
730	0	0
731	0	0
732	0	0
733	0	0
734	0	0
735	0	0
736	0	0
737	0	0
738	0	0
739	0	0
740	0	0
741	0	0
742	0	0
743	0	0
744	0	0
745	0	0
746	0	0
747	0	0
748	0	0
749	0	0
750	0	0
751	0	0
752	0	0
753	0	0
754	0	0
755	0	0
756	0	0
757	0	0
758	0	0
759	0	0
760	0	0
761	0	0
762	0	0
763	0	0
764	0	0
765	0	0
766	0	0
767	0	0
768	0	0
769	0	0
770	0	0
771	0	0
772	0	0
773	0	0
774	0	0
775	0	0
776	0	0
777	0	0
778	0	0
779	0	0
780	0	0
781	0	0
782	0	0
783	0	0
784	0	0
785	0	0
786	0	0
787	0	0
788	0	0
789	0	0
790	0	0
791	0	0
792	0	0
793	0	0
794	0	0
795	0	0
796	0	0
797	0	0
798	0	0
799	0	0
800	0	0
801	0	0
802	0	0
803	0	0
804	0	0
805	0	0
806	0	0
807	0	0
808	0	0
809	0	0
810	0	0
811	0	0
812	0	0
813	0	0
814	0	0
815	0	0
816	0	0
817	0	0
818	0	0
819	0	0
820	0	0
821	0	0
822	0	0
823	0	0
824	0	0.0181818
825	0	0.0181818
826	0	0.0181818
827	0	0.0181818
828	0	0.0181818
829	0	0.0181818
830	0	0.0181818
831	0	0.0181818
832	0	0.0181818
833	0	0.0151515
834	0	0.0128205
835	0	0.0128205
836	0	0.0128205
837	0	0.0128205
838	0	0
839	0	0.0190476
840	0	0.0190476
841	0	0.0380952
842	0	0.0416667
843	0	0.0416667
844	0	0.0333333
845	0	0.0333333
846	0	0.0333333
847	0	0.0416667
848	0	0.0583333
849	0	0.0833333
850	0	0.0833333
851	0	0.0666667
852	0	0.075
853	0	0.075
854	0	0.0661765
855	0	0.0661765
856	0	0.0661765
857	0	0.102941
858	0	0.125
859	0	0.0915033
860	0	0.0877193
861	0	0.203463
862	0	0.316206
863	0	0.316206
864	0	0.316206
865	0	0.336957
866	0	0.375385
867	0	0.427419
868	0	0.551495
869	0	0.463673
870	0	0.73606
871	0	0.792113
872	0	0.804001
873	0	0.85877
874	0	0.858771
875	0	0.786325
876	0	0.786325
877	0	0.786325
878	0	0.942797
879	0	0.1
880	0	0.1
881	0	0.1
882	0	0.1
883	0	0.1
884	0	0.166667
885	0	0.166667
886	0	0.952786
887	0	0.954825
888	0	0
889	0	0
890	0	0
891	0	0
892	0	0
893	0	0
894	0	0
895	0	0
896	0	0
897	0	0
898	0	0
899	0	0
900	0	0
901	0	0
902	0	0
903	0	0
904	0	0
905	0	0
906	0	0
907	0	0
908	0	0
909	0	0
910	0	0
911	0	0
912	0	0
913	0	0
914	0	0
915	0	0
916	0	0
917	0	0
918	0	0
919	0	0
920	0	0
921	0	0
922	0	0
923	0	0
924	0	0
925	0	0
926	0	0
927	0	0
928	0	0
929	0	0
930	0	0
931	0	0
932	0	0
933	0	0
934	0	0
935	0	0
936	0	0
937	0	0
938	0	0
939	0	0
940	0	0
941	0	0
942	0	0
943	0	0
944	0	0
945	0	0
946	0	0
947	0	0
948	0	0
949	0	0
950	0	0
951	0	0
952	0	0
953	0	0
954	0	0
955	0	0
956	0	0
957	0	0
958	0	0
959	0	0
960	0	0
961	0	0
962	0	0
963	0	0
964	0	0
965	0	0
966	0	0
967	0	0
968	0	0
969	0	0
970	0	0
971	0	0
972	0	0
973	0	0
974	0	0
975	0	0
976	0	0
977	0	0
978	0	0
979	0	0.166667
980	0	0.5
981	0	0.5
982	0	0.5
983	0	0.5
984	0	0.5
985	0	0.5
986	0	0.5
987	0	0.5
988	0	0.5
989	0	0.5
990	0	0.5
991	0	0.5
992	0	0.5
993	0	0
994	0	0
995	0	0
996	0	0
997	0	0
998	0	0
999	0	0
1000	0	0
1001	0	0
1002	0	0
1003	0	0
1004	0	0
1005	0	0
1006	0	0
1007	0	0
1008	0	0
1009	0	0
1010	0	0
1011	0	0
1012	0	0
1013	0	0
1014	0	0
1015	0	0
1016	0	0
1017	0	0
1018	0	0
1019	0	0
1020	0	0
1021	0	0
1022	0	0
1023	1	0
1024	0	0
1025	0	0
1026	0	0
1027	0	0
1028	0	0
1029	0	0
1030	0	0
1031	0	0
1032	0	0
1033	0	0
1034	0	0
1035	0	0
1036	0	0
1037	0	0
1038	0	0
1039	0	0
1040	0	0
1041	0	0
1042	0	0
1043	1	0
1044	1	0
1045	0	0
1046	0	0
1047	0	0
1048	0	0
1049	0	0
1050	0	0
1051	0	0
1052	0	0
1053	0	0
1054	0	0
1055	0	0
1056	0	0
1057	0	0
1058	0	0
1059	0	0
1060	0	0
1061	0	0
1062	0	0
1063	0	0
1064	0	0
1065	0	0
1066	0	0
1067	0	0
1068	0	0
1069	0	0
1070	0	0
1071	0	0
1072	0	0
1073	0	0
1074	0	0
1075	0	0
1076	0	0
1077	0	0
1078	0	0
1079	0	0
1080	0	0
1081	0	0
1082	0	0
1083	0	0
1084	0	0
1085	0	0
1086	0	0
1087	0	0
1088	0	0
1089	0	0
1090	0	0
1091	0	0
1092	0	0
1093	0	0
1094	0	0
1095	0	0
1096	0	0
1097	0	0
1098	0	0
1099	0	0
1100	0	0
1101	0	0
1102	0	0
1103	0	0
1104	0	0
1105	0	0
1106	0	0
1107	0	0
1108	0	0
1109	0	0
1110	0	0
1111	0	0
1112	0	0
1113	0	0
1114	0	0
1115	0	0
1116	0	0
1117	0	0
1118	0	0
1119	0	0
1120	0	0
1121	0	0
1122	0	0
1123	0	0
1124	0	0
1125	0	0
1126	0	0
1127	0	0
1128	0	0
1129	0	0
1130	0	0
1131	0	0
1132	0	0
1133	0	0
1134	0	0
1135	0	0
1136	0	0
1137	0	0
1138	0	0
1139	0	0
1140	0	0
1141	0	0
1142	0	0
1143	0	0
1144	0	0
1145	0	0
1146	0	0
1147	0	0
1148	0	0
1149	0	0
1150	0	0
1151	0	0
1152	0	0
1153	0	0
1154	0	0
1155	0	0
1156	0	0
1157	0	0
1158	0	0
1159	0	0
1160	0	0
1161	0	0
1162	0	0
1163	0	0
1164	0	0
1165	0	0
1166	0	0
1167	0	0
1168	0	0
1169	0	0
1170	0	0
1171	0	0
1172	0	0
1173	0	0
1174	0	0
1175	0	0
1176	0	0
1177	0	0
1178	0	0
1179	0	0
1180	0	0
1181	0	0
1182	0	0
1183	0	0
1184	0	0
1185	0	0
1186	0	0.166667
1187	0	0.333333
1188	0	0.5
1189	0	0.5
1190	0	0.5
1191	0	0.5
1192	0	1
1193	0	1
1194	0	1
1195	0	1
1196	0	1
1197	0	1
1198	0	1
1199	0	1
1200	0	1
1201	0	1
1202	0	0.714286
1203	0	0.714286
1204	0	0.714286
1205	0	0.994291
1206	0	0.994297
1207	0	0.994307
1208	0	0.994324
1209	0	0.994324
1210	0	0
1211	0	0
1212	0	0
1213	0	0
1214	0	0
1215	0	0
1216	0	0
1217	0	0
1218	0	0
1219	0	0
1220	0	0
1221	0	0
1222	0	0
1223	0	0
1224	0	0
1225	0	0
1226	0	0
1227	0	0
1228	0	0
1229	0	0
1230	0	0
1231	0	0
1232	0	0
1233	0	0.994382
1234	0	0.99252
1235	0	0.992555
1236	0	0.992691
1237	0	0.980244
1238	0	0.990976
1239	0	0
1240	0	0
1241	0	0
1242	0	0
1243	0	0
1244	0	0
1245	0	0
1246	0	0
1247	0	0
1248	0	0
1249	0	0
1250	0	0
1251	0	0
1252	0	0
1253	0	0
1254	0	0
1255	0	0
1256	0	0
1257	0	0
1258	0	0
1259	0	0
1260	0	0
1261	0	0
1262	0	0
1263	0	0
1264	0	0
1265	0	0
1266	0	0
1267	0	0
1268	0	0
1269	0	0
1270	0	0
1271	0	0
1272	0	0
1273	0	0
1274	0	0
1275	0	0
1276	0	0
1277	0	0
1278	0	0
1279	0	0
1280	0	0
1281	0	0
1282	0	0
1283	0	0
1284	0	0
1285	0	0
1286	0	0
1287	0	0
1288	0	0
1289	0	0
1290	0	0
1291	0	0
1292	0	0
1293	0	0
1294	0	0
1295	0	0
1296	0	0
1297	0	0
1298	0	0
1299	0	0
1300	0	0
1301	0	0
1302	0	0
1303	0	0
1304	0	0
1305	0	0
1306	0	0
1307	0	0
1308	0	0
1309	0	0
1310	0	0
1311	0	0
1312	0	0
1313	0	0
1314	0	0
1315	0	0
1316	0	0
1317	0	0
1318	0	0
1319	0	0
1320	0	0
1321	0	0
1322	0	0
1323	0	0
1324	0	0
1325	0	0
1326	0	0
1327	0	0
1328	0	0
1329	0	0
1330	0	0
1331	0	0.166667
1332	0	0.166667
1333	0	0.166667
1334	0	0.166667
1335	0	0.166667
1336	0	0.166667
1337	0	0.166667
1338	0	0.166667
1339	0	0.5
1340	0	0.5
1341	0	0.996382
1342	0	0.998188
1343	0	1
1344	0	1
1345	0	1
1346	1	1
1347	1	1
1348	1	1
1349	0	0.885918
1350	0	0.996387
1351	0	0.996385
1352	0	0.998192
1353	0	0.998192
1354	0	0.99819
1355	0	0.998192
1356	0	0.998193
1357	0	0.998193
1358	0	0.998193
1359	0	0.996392
1360	0	0.996404
1361	0	0.996404
1362	0	0.996404
1363	0	0.9982
1364	0	0.9982
1365	0	0.9982
1366	0	0.9982
1367	0	0.9982
1368	0	0.9982
1369	0	0.998201
1370	0	0.998201
1371	0	0.998201
1372	0	0.998201
1373	0	0.998201
1374	0	0.998201
1375	0	0.9982
1376	0	0.9982
1377	0	0.9982
1378	0	1
1379	0	0
1380	1	0
1381	1	0
1382	1	0
1383	1	0
1384	1	0
1385	0	0.994624
1386	0	0.996414
1387	0	0.996414
1388	0	0.996414
1389	0	0.996411
1390	0	0
1391	0	0
1392	0	0
1393	0	0
1394	0	0
1395	0	0
1396	0	0
1397	0	0
1398	0	0
1399	0	0
1400	0	0
1401	0	0
1402	0	0
1403	0	0
1404	0	0
1405	0	0.1
1406	0	0.1
1407	0	0.0952381
1408	0	0.0952381
1409	0	0.0952381
1410	0	0.0952381
1411	0	0.0714286
1412	0	0.0714286
1413	0	0.0555556
1414	0	0.0555556
1415	0	0.0555556
1416	0	0.0555556
1417	0	0.0555556
1418	0	0.333333
1419	0	0.611111
1420	0	0.378788
1421	0	0.378788
1422	0	0.320513
1423	0	0.238095
1424	0	0.533333
1425	0	0.742857
1426	0	0.535677
1427	0	0.569451
1428	0	0.998205
1429	0	0.998205
1430	0	0.998205
1431	0	1
1432	0	1
1433	0	0
1434	0	0
1435	0	0
1436	0	0
1437	1	0
1438	1	0
1439	1	0
1440	0	0
1441	0	0.994609
1442	0	0.994614
1443	0	0.994614
1444	0	0.992822
1445	0	0.995434
1446	0	0.519536
1447	0	1
1448	0	0.499859
1449	0	0.494868
1450	0	1
1451	0	1
1452	0	0.333333
1453	0	0.166667
1454	0	0.653638
1455	0	0.535714
1456	0	0.535714
1457	0	0.534032
1458	0	0.526784
1459	0	0.543521
1460	0	0.320513
1461	0	0
1462	0	0.991033
1463	0	0.991043
1464	0	0.992836
1465	0	0.992836
1466	0	0.992836
1467	0	0.166667
1468	0	0.333333
1469	0	0.333333
1470	0	1
1471	0	1
1472	1	1
1473	1	1
1474	1	1
1475	1	1
1476	1	1
1477	1	1
1478	1	1
1479	1	1
1480	1	1
1481	1	1
1482	1	1
1483	1	1
1484	1	1
1485	0	1
1486	0	1
1487	0	1
1488	0	1
1489	0	1
1490	0	1
1491	0	1
1492	0	1
1493	0	1
1494	0	1
1495	0	1
1496	0	0.933987
1497	0	0.994625
1498	0	0
1499	1	0
1500	1	0
1501	1	0
1502	1	0
1503	1	0
1504	1	0
1505	1	0
1506	1	0
1507	1	0
1508	1	0
1509	1	0
1510	1	0
1511	1	0
1512	1	0
1513	1	0
1514	1	0
1515	1	0
1516	1	0
1517	1	0
1518	1	0
1519	1	0
1520	1	0
1521	1	0
1522	1	0
1523	1	0
1524	1	0
1525	1	0
1526	1	0
1527	1	0
1528	1	0
1529	1	0
1530	1	0
1531	1	0
1532	1	0
1533	1	0
1534	1	0
1535	0	0
1536	0	0
1537	0	0
1538	1	0
1539	1	0
1540	0	0
1541	0	0
1542	0	0
1543	0	0
1544	0	0
1545	0	0
1546	0	0
1547	0	0
1548	0	0
1549	0	0
1550	0	0
1551	0	0
1552	0	0
1553	0	0
1554	0	0
1555	0	0
1556	0	0.333333
1557	0	0.333333
1558	1	1
1559	1	1
1560	1	1
1561	1	1
1562	1	1
1563	1	1
1564	0	1
1565	0	0.5
1566	0	0.998206
1567	0	0.998206
1568	0	0.998206
1569	0	0.998206
1570	1	1
1571	1	1
1572	1	1
1573	0	1
1574	1	1
1575	1	1
1576	0	1
1577	0	0.998201
1578	0	1
1579	0	1
1580	0	1
1581	0	1
1582	0	0.998203
1583	0	0.998203
1584	0	0.998203
1585	0	0.998203
1586	0	0.998203
1587	0	0.998203
1588	0	0.998203
1589	0	0.998203
1590	0	0.998203
1591	0	1
1592	0	1
1593	0	1
1594	0	1
1595	0	1
1596	0	1
1597	0	1
1598	0	1
1599	0	1
1600	0	1
1601	0	1
1602	0	0
1603	0	0
1604	0	0
1605	0	0
1606	0	0
1607	0	0
1608	0	0.998201
1609	0	0.998201
1610	0	0.998201
1611	0	0.998201
1612	0	0.998201
1613	0	0.998201
1614	0	0.998201
1615	0	0.998201
1616	0	0.998201
1617	0	0.998203
1618	1	1
1619	0	1
1620	0	0.987436
1621	0	0.514259
1622	0	0.994586
1623	0	1
1624	0	1
1625	0	0.9964
1626	0	0.9964
1627	0	0.992819
1628	0	0.994616
1629	0	0.994616
1630	0	0.99283
1631	0	0.994614
1632	0	1
1633	0	0.982096
1634	0	0.8
1635	0	0.951154
1636	0	0
1637	0	0.8
1638	0	0.736264
1639	0	0.736264
1640	0	0.755331
1641	0	0.333333
1642	0	0.49972
1643	0	0.521723
1644	0	0.521631
1645	0	0.5
1646	0	0.5
1647	0	0.5
1648	0	0.518202
1649	0	0.333333
1650	0	0.360294
1651	0	0.10989
1652	0	0.202353
1653	0	0.441583
1654	0	0.3
1655	0	0.1
1656	0	0.142857
1657	0	0.534684
1658	0	0
1659	0	0
1660	0	0
1661	0	0
1662	0	0.576355
1663	0	0.342639
1664	0	0.342864
1665	0	0.336938
1666	0	0.223965
1667	0	0
1668	0	0
1669	0	0
1670	0	0
1671	0	0
1672	0	0
1673	0	0
1674	0	0
1675	0	0
1676	0	0
1677	0	0
1678	0	0
1679	0	0
1680	0	0.36525
1681	0	0.216456
1682	0	0.28692
1683	0	0.325261
1684	0	0
1685	0	0
1686	0	0
1687	0	0
1688	0	0
1689	0	0.296033
1690	0	0.225182
1691	0	0.561885
1692	0	0.740788
1693	0	0.190476
1694	0	0.0833333
1695	0	0.27619
1696	0	0.583134
1697	0	0.896496
1698	0	0.903435
1699	0	1
1700	0	1
1701	0	1
1702	0	0.912129
1703	0	0.912132
1704	0	0
1705	0	0
1706	0	0
1707	0	0
1708	0	0
1709	0	0
1710	0	0.906925
1711	0	0.924098
1712	0	0.92576
1713	0	0.925745
1714	0	0.924082
1715	0	0.922347
1716	0	0.92236
1717	0	0.920604
1718	0	0.133333
1719	0	0.0666667
1720	0	0.924386
1721	0	0
1722	0	0.330882
1723	0	0.269006
1724	0	0.333333
1725	0	0.722336
1726	0	0
1727	0	0
1728	0	0
1729	0	0
1730	0	0
1731	0	0
1732	0	0
1733	0	0
1734	0	0
1735	0	0
1736	1	0
1737	1	0
1738	1	0
1739	0	0
1740	0	0
1741	0	0
1742	0	0
1743	0	0
1744	0	0
1745	0	0
1746	0	0
1747	0	0
1748	0	0
1749	0	0
1750	0	0
1751	0	0
1752	0	0
1753	0	0
1754	0	0
1755	0	0
1756	0	0
1757	0	0
1758	0	0
1759	0	0
1760	0	0
1761	0	0
1762	0	0
1763	1	0
1764	1	0
1765	0	0
1766	0	0
1767	0	0
1768	0	0
1769	0	0
1770	0	0
1771	0	0
1772	0	0
1773	0	0
1774	0	0
1775	0	0
1776	0	0
1777	0	0
1778	0	0
1779	0	0
1780	0	0
1781	0	0
1782	0	0
1783	0	0
1784	0	0
1785	0	0
1786	0	0
1787	0	0
1788	0	0
1789	0	0
1790	0	0
1791	0	0
1792	0	0
1793	0	0
1794	0	0
1795	0	0
1796	0	0
1797	0	0
1798	0	0
1799	0	0
1800	0	0
1801	0	0
1802	0	0
1803	0	0
1804	0	0
1805	0	0
1806	0	0
1807	0	0
1808	0	0
1809	0	0
1810	0	0
1811	0	0
1812	0	0
1813	0	0
1814	0	0
1815	0	0
1816	0	0
1817	0	0
1818	0	0
1819	0	0
1820	0	0
1821	0	0
1822	0	0
1823	0	0
1824	0	0
1825	0	0
1826	0	0
1827	0	0
1828	0	0
1829	0	0
1830	0	0
1831	0	0
1832	0	0
1833	0	0
1834	0	0
1835	0	0
1836	0	0
1837	0	0
1838	0	0
1839	0	0
1840	0	0
1841	0	0
1842	0	0
1843	0	0
1844	0	0
1845	0	0
1846	0	0
1847	0	0
1848	0	0
1849	0	0
1850	0	0
1851	0	0
1852	0	0
1853	0	0
1854	0	0
1855	0	0
1856	0	0
1857	0	0
1858	0	0
1859	0	0
1860	0	0
1861	0	0
1862	0	0
1863	0	0
1864	0	0
1865	0	0
1866	0	0
1867	0	0
1868	0	0
1869	0	0
1870	0	0
1871	0	0
1872	0	0
1873	0	0
1874	0	0
1875	0	0
1876	0	0
1877	0	0
1878	0	0
1879	0	0
1880	0	0
1881	0	0
1882	0	0
1883	0	0
1884	0	0
1885	0	0
1886	0	0
1887	0	0
1888	0	0
1889	0	0
1890	0	0
1891	0	0
1892	0	0
1893	0	0
1894	0	0
1895	0	0
1896	0	0
1897	0	0
1898	0	0
1899	0	0
1900	0	0
1901	0	0
1902	0	0
1903	0	0
1904	0	0
1905	0	0
1906	0	0
1907	0	0
1908	0	0
1909	0	0
1910	0	0
1911	0	0
1912	0	0
1913	0	0
1914	0	0
1915	0	0
1916	0	0
1917	0	0
1918	0	0
1919	0	0
1920	0	0
1921	0	0
1922	0	0
1923	0	0
1924	0	0
1925	0	0
1926	0	0
1927	0	0
1928	0	0
1929	0	0
1930	0	0
1931	0	0
1932	0	0
1933	0	0
1934	0	0
1935	0	0
1936	0	0
1937	0	0
1938	0	0
1939	0	0
1940	0	0
1941	0	0
1942	0	0
1943	0	0
1944	0	0
1945	0	0
1946	0	0
1947	0	0
1948	0	0
1949	0	0
1950	0	0
1951	0	0
1952	0	0
1953	0	0
1954	0	0
1955	0	0
1956	0	0
1957	0	0
1958	0	0
1959	0	0
1960	0	0
1961	1	0
1962	1	0
1963	1	0
1964	0	0
1965	0	0
1966	0	0
1967	0	0
1968	0	0
1969	0	0
1970	0	0
1971	0	0
1972	0	0
1973	0	0
1974	0	0
1975	0	0
1976	0	0
1977	0	0
1978	0	0
1979	0	0
1980	0	0
1981	0	0
1982	0	0
1983	0	0
1984	0	0
1985	0	0
1986	0	0
1987	0	0
1988	0	0
1989	0	0
1990	0	0
1991	0	0
1992	0	0
1993	0	0
1994	0	0
1995	0	0
1996	0	0
1997	0	0
1998	0	0
1999	0	0
2000	0	0
2001	0	0
2002	0	0
2003	0	0
2004	0	0
2005	0	0
2006	0	0
2007	0	0
2008	0	0
2009	0	0
2010	0	0
2011	0	0
2012	0	0
2013	0	0
2014	0	0
2015	0	0
2016	0	0
2017	0	0
2018	0	0
2019	0	0
2020	0	0
2021	0	0
2022	0	0
2023	0	0
2024	0	0
2025	0	0
2026	0	0
2027	0	0
2028	0	0
2029	0	0
2030	0	0
2031	0	0
2032	0	0
2033	0	0
2034	0	0
2035	0	0
2036	0	0
2037	0	0
2038	0	0
2039	0	0
2040	0	0
2041	0	0
2042	0	0
2043	0	0
2044	0	0
2045	0	0
2046	0	0
2047	0	0
2048	0	0
2049	0	0
2050	0	0
2051	0	0
2052	0	0
2053	0	0
2054	0	0
2055	0	0
2056	0	0
2057	0	0
2058	0	0
2059	0	0
2060	0	0
2061	0	0
2062	0	0
2063	0	0
2064	0	0
2065	0	0
2066	0	0
2067	0	0
2068	0	0
2069	0	0
2070	0	0
2071	0	0
2072	0	0
2073	0	0.180952
2074	0	0.752822
2075	0	0.736337
2076	0	0.116959
2077	0	0.110294
2078	0	0.804376
2079	0	0.796661
2080	0	0
2081	0	0
2082	0	0
2083	0	0
2084	0	0
2085	0	0
2086	0	0
2087	0	0
2088	0	0
2089	0	0
2090	0	0
2091	0	0
2092	0	0
2093	0	0
2094	0	0
2095	0	0
2096	0	0
2097	0	0
2098	0	0
2099	0	0
2100	0	0
2101	0	0
2102	0	0
2103	0	0
2104	0	0
2105	0	0
2106	0	0
2107	0	0
2108	0	0
2109	0	0
2110	0	0
2111	0	0
2112	0	0
2113	0	0
2114	0	0
2115	0	0
2116	0	0
2117	0	0
2118	0	0
2119	0	0
2120	0	0
2121	0	0
2122	0	0
2123	0	0
2124	0	0
2125	0	0
2126	0	0
2127	0	0
2128	0	0
2129	0	0
2130	0	0
2131	0	0
2132	0	0
2133	0	0
2134	0	0
2135	0	0
2136	0	0
2137	0	0
2138	0	0
2139	0	0
2140	0	0
2141	0	0
2142	0	0
2143	0	0
2144	0	0
2145	0	0
2146	0	0
2147	0	0
2148	0	0
2149	0	0
2150	0	0
2151	0	0
2152	0	0
2153	0	0
2154	0	0
2155	0	0
2156	0	0
2157	0	0
2158	0	0
2159	1	0
2160	1	0
2161	1	0
2162	1	0
2163	1	0
2164	1	0
2165	0	0
2166	0	0
2167	0	0
2168	0	0
2169	0	0
2170	0	0
2171	0	0
2172	0	0
2173	0	0
2174	0	0
2175	0	0
2176	0	0
2177	0	0
2178	0	0
2179	0	0
2180	0	0
2181	0	0
2182	0	0
2183	0	0
2184	0	0
2185	0	0
2186	0	0
2187	0	0
2188	0	0
2189	0	0
2190	0	0
2191	0	0
2192	0	0
2193	0	0
2194	1	0
2195	1	0
2196	1	0
2197	1	0
2198	1	0
2199	1	0
2200	1	0
2201	1	0
2202	1	0
2203	1	0
2204	1	0
2205	1	0
2206	1	0
2207	1	0
2208	1	0
2209	1	0
2210	0	0
2211	0	0
2212	0	0
2213	0	0
2214	0	0
2215	0	0
2216	0	0
2217	0	0.760769
2218	0	0
2219	0	0.0277778
2220	0	0.0277778
2221	0	0.0357143
2222	0	0.0714286
2223	0	0.0666667
2224	0	0.104575
2225	0	0.785803
2226	0	0.787387
2227	0	0.732809
2228	0	0.156863
2229	0	0.156863
2230	0	0.191667
2231	0	0.219048
2232	0	0.318681
2233	0	0.424242
2234	0	0.424242
2235	0	0.424242
2236	0	0.424242
2237	0	0.19697
2238	0	0.19697
2239	0	0.242424
2240	0	0.106061
2241	0	0.106061
2242	0	0.106061
2243	0	0.106061
2244	0	0.0727273
2245	0	0.0727273
2246	0	0.0727273
2247	0	0.0727273
2248	0	0.0727273
2249	0	0.0727273
2250	0	0.0545455
2251	0	0.0545455
2252	0	0.0727273
2253	0	0.0727273
2254	0	0.0606061
2255	0	0.0606061
2256	0	0.106061
2257	0	0.106061
2258	0	0.106061
2259	0	0.0879121
2260	0	0.0879121
2261	0	0.0897436
2262	0	0.0769231
2263	0	0.0769231
2264	0	0.0769231
2265	0	0.0659341
2266	0	0.0659341
2267	0	0.0659341
2268	0	0.0659341
2269	0	0.0659341
2270	0	0.0659341
2271	0	0.0659341
2272	0	0.0659341
2273	0	0.0659341
2274	0	0.0659341
2275	0	0.128205
2276	0	0.128205
2277	0	0.0909091
2278	0	0.0909091
2279	0	0.0909091
2280	0	0.0909091
2281	0	0.0909091
2282	0	0.0909091
2283	0	0.0909091
2284	0	0.0909091
2285	0	0.106061
2286	0	0.106061
2287	0	0.106061
2288	0	0.121212
2289	0	0.121212
2290	0	0.121212
2291	0	0.121212
2292	0	0.121212
2293	0	0.121212
2294	0	0.121212
2295	0	0.127273
2296	0	0.127273
2297	0	0.127273
2298	0	0.127273
2299	0	0.127273
2300	0	0.127273
2301	0	0.127273
2302	0	0.127273
2303	0	0.127273
2304	0	0.127273
2305	0	0.127273
2306	0	0.127273
2307	0	0.127273
2308	0	0.127273
2309	0	0.127273
2310	0	0.127273
2311	0	0.127273
2312	0	0.127273
2313	0	0.127273
2314	0	0.127273
2315	0	0.0888889
2316	0	0.0555556
2317	0	0.0357143
2318	0	0.0357143
2319	0	0.0357143
2320	0	0.0357143
2321	0	0.0277778
2322	0	0.0277778
2323	0	0.0454545
2324	0	0.0454545
2325	0	0.0909091
2326	0	0.227273
2327	0	0.227273
2328	0	0.227273
2329	0	0.227273
2330	0	0.227273
2331	0	0.227273
2332	0	0.227273
2333	0	0.227273
2334	0	0.227273
2335	0	0.227273
2336	0	0.227273
2337	0	0.227273
2338	0	0.227273
2339	0	0.227273
2340	0	0.106061
2341	0	0.106061
2342	0	0.106061
2343	0	0.106061
2344	0	0.106061
2345	0	0.106061
2346	0	0.106061
2347	0	0.106061
2348	0	0.106061
2349	0	0.106061
2350	0	0.106061
2351	0	0.106061
2352	0	0.106061
2353	0	0.106061
2354	0	0.106061
2355	0	0.106061
2356	0	0.106061
2357	0	0.106061
2358	0	0.106061
2359	0	0.106061
2360	0	0.106061
2361	0	0.106061
2362	0	0.106061
2363	0	0.106061
2364	0	0.106061
2365	0	0.106061
2366	0	0.106061
2367	0	0.106061
2368	0	0.106061
2369	0	0.106061
2370	0	0.106061
2371	0	0.106061
2372	0	0.106061
2373	0	0.106061
2374	0	0.106061
2375	0	0.106061
2376	0	0.106061
2377	0	0.106061
2378	0	0.106061
2379	0	0.106061
2380	0	0.106061
2381	0	0.109091
2382	0	0.0909091
2383	0	0.0909091
2384	0	0.0909091
2385	0	0.0909091
2386	0	0.106061
2387	0	0.106061
2388	0	0.106061
2389	0	0.106061
2390	0	0.106061
2391	0	0.106061
2392	0	0.106061
2393	0	0.106061
2394	0	0.106061
2395	0	0.106061
2396	0	0.106061
2397	0	0.106061
2398	0	0.106061
2399	0	0.106061
2400	0	0.106061
2401	0	0.106061
2402	0	0.106061
2403	0	0.106061
2404	0	0.106061
2405	0	0.106061
2406	0	0.106061
2407	0	0.106061
2408	0	0.106061
2409	0	0.106061
2410	0	0.106061
2411	0	0.166667
2412	0	0.166667
2413	0	0.166667
2414	0	0.166667
2415	0	0.127273
2416	0	0.127273
2417	0	0.127273
2418	0	0.127273
2419	0	0.127273
2420	0	0.127273
2421	0	0.127273
2422	0	0.127273
2423	0	0.127273
2424	0	0.127273
2425	0	0.127273
2426	0	0.127273
2427	0	0.127273
2428	0	0.127273
2429	0	0.127273
2430	0	0.127273
2431	0	0.127273
2432	0	0.127273
2433	0	0.127273
2434	0	0.127273
2435	0	0.127273
2436	0	0.127273
2437	0	0.133333
2438	0	0.133333
2439	0	0.109091
2440	0	0.127273
2441	0	0.127273
2442	0	0.127273
2443	0	0.127273
2444	0	0.127273
2445	0	0.127273
2446	0	0.127273
2447	0	0.127273
2448	0	0.127273
2449	0	0.163636
2450	0	0.163636
2451	0	0.163636
2452	0	0.163636
2453	0	0.163636
2454	0	0.163636
2455	0	0.163636
2456	0	0.163636
2457	0	0.163636
2458	0	0.163636
2459	0	0.163636
2460	0	0.163636
2461	0	0.163636
2462	0	0.163636
2463	0	0.163636
2464	0	0.163636
2465	0	0.163636
2466	0	0.163636
2467	0	0.163636
2468	0	0.163636
2469	0	0.163636
2470	0	0.163636
2471	0	0.163636
2472	0	0.163636
2473	0	0.163636
2474	0	0.163636
2475	0	0.163636
2476	0	0.181818
2477	0	0.181818
2478	0	0.181818
2479	0	0.181818
2480	0	0.163636
2481	0	0.163636
2482	0	0.163636
2483	0	0.163636
2484	0	0.163636
2485	0	0.163636
2486	0	0.163636
2487	0	0.163636
2488	0	0.163636
2489	0	0.163636
2490	0	0.163636
2491	0	0.163636
2492	0	0.163636
2493	0	0.163636
2494	0	0.163636
2495	0	0.163636
2496	0	0.163636
2497	0	0.163636
2498	0	0.163636
2499	0	0.163636
2500	0	0.163636
2501	0	0.163636
2502	0	0.2
2503	0	0.2
2504	0	0.2
2505	0	0.2
2506	0	0.2
2507	0	0.2
2508	0	0.2
2509	0	0.2
2510	0	0.2
2511	0	0.2
2512	0	0.2
2513	0	0.2
2514	0	0.2
2515	0	0.2
2516	0	0.2
2517	0	0.2
2518	0	0.2
2519	0	0.2
2520	0	0.2
2521	0	0.2
2522	0	0.2
2523	0	0.2
2524	0	0.2
2525	0	0.2
2526	0	0.2
2527	0	0.2
2528	0	0.2
2529	0	0.2
2530	0	0.2
2531	0	0.2
2532	0	0.2
2533	0	0.2
2534	0	0.2
2535	0	0.2
2536	0	0.2
2537	0	0.2
2538	0	0.2
2539	0	0.2
2540	0	0.2
2541	0	0.2
2542	0	0.2
2543	0	0.2
2544	0	0.2
2545	0	0.2
2546	0	0.2
2547	0	0.2
2548	0	0.133333
2549	0	0.133333
2550	0	0.133333
2551	0	0.133333
2552	0	0.133333
2553	0	0.133333
2554	0	0.133333
2555	0	0.133333
2556	0	0.133333
2557	0	0.133333
2558	0	0.133333
2559	0	0.133333
2560	0	0.133333
2561	0	0.133333
2562	0	0.133333
2563	0	0.133333
2564	0	0.133333
2565	0	0.133333
2566	0	0.133333
2567	0	0.133333
2568	0	0.133333
2569	0	0.166667
2570	0	0.166667
2571	0	0.166667
2572	0	0.166667
2573	0	0.166667
2574	0	0.166667
2575	0	0.166667
2576	0	0.166667
2577	0	0.166667
2578	0	0.166667
2579	0	0.166667
2580	0	0.166667
2581	0	0.166667
2582	0	0.166667
2583	0	0.166667
2584	0	0.166667
2585	0	0.166667
2586	0	0.166667
2587	0	0.166667
2588	0	0.166667
2589	0	0.166667
2590	0	0.166667
2591	0	0.166667
2592	0	0.166667
2593	0	0.166667
2594	0	0.166667
2595	0	0.166667
2596	0	0.166667
2597	0	0.166667
2598	0	0.166667
2599	0	0.166667
2600	0	0.166667
2601	0	0.166667
2602	0	0.166667
2603	0	0.166667
2604	0	0.166667
2605	0	0.166667
2606	0	0.166667
2607	0	0.166667
2608	0	0.166667
2609	0	0.166667
2610	0	0.166667
2611	0	0.166667
2612	0	0.25
2613	0	0.25
2614	0	0.25
2615	0	0.25
2616	0	0.25
2617	0	0.25
2618	0	0.25
2619	0	0.25
2620	0	0.25
2621	0	0.25
2622	0	0.25
2623	0	0.25
2624	0	0.25
2625	0	0.25
2626	0	0.25
2627	0	0.214286
2628	0	0.214286
2629	0	0.214286
2630	0	0.214286
2631	0	0.214286
2632	0	0.214286
2633	0	0.214286
2634	0	0.214286
2635	0	0.214286
2636	0	0.214286
2637	0	0.214286
2638	0	0.214286
2639	0	0.214286
2640	0	0.214286
2641	0	0.142857
2642	0	0.142857
2643	0	0.142857
2644	0	0.142857
2645	0	0.1
2646	0	0.1
2647	0	0.1
2648	0	0
2649	0	0
2650	0	0
2651	0	0
2652	0	0.1
2653	0	0.1
2654	0	0.1
2655	0	0.1
2656	0	0.1
2657	0	0.1
2658	0	0.1
2659	0	0.1
2660	0	0.1
2661	0	0.1
2662	0	0.1
2663	0	0.1
2664	0	0.1
2665	0	0.1
2666	0	0.1
2667	0	0.1
2668	0	0.1
2669	0	0.1
2670	0	0.1
2671	0	0.1
2672	0	0.1
2673	0	0.1
2674	0	0.1
2675	0	0.166667
2676	0	0.166667
2677	0	0.166667
2678	0	0.166667
2679	0	0.166667
2680	0	0.166667
2681	0	0.166667
2682	0	0.166667
2683	0	0.166667
2684	0	0.166667
2685	0	0.166667
2686	0	0.166667
2687	0	0.166667
2688	0	0.166667
2689	0	0.166667
2690	0	0.166667
2691	0	0.166667
2692	0	0.166667
2693	0	0.166667
2694	0	0.166667
2695	0	0.333333
2696	0	0.333333
2697	0	0.333333
2698	0	0.333333
2699	0	0.333333
2700	0	0.333333
2701	0	0.333333
2702	0	0.333333
2703	0	0.333333
2704	0	0.333333
2705	0	0.333333
2706	0	0.333333
2707	0	0.333333
2708	1	0
2709	1	0
2710	1	0
2711	1	0
2712	1	0
2713	1	0
2714	1	0
2715	1	0
2716	1	0
2717	1	0
2718	1	0
2719	1	0
2720	1	0
2721	1	0
2722	1	0
2723	1	0
2724	1	0
2725	1	0
2726	1	0
2727	1	0
2728	1	0
2729	1	0
2730	1	0
2731	1	0
2732	1	0
2733	1	0
2734	1	0
2735	1	0
2736	1	0
2737	1	0
2738	1	0
2739	1	0
2740	1	0
2741	1	0
2742	1	0
2743	1	0
2744	1	0
2745	1	0
2746	1	0
2747	1	0
2748	1	0
2749	1	0
2750	1	0
2751	1	0
2752	1	0
2753	1	0
2754	1	0
2755	1	0
2756	1	0
2757	1	0
2758	1	0
2759	1	0
2760	1	0
2761	1	0
2762	1	0
2763	1	0
2764	1	0
2765	1	0
2766	1	0
2767	1	0
2768	1	0
2769	1	0
2770	1	0
2771	1	0
2772	1	0
2773	1	0
2774	1	0
2775	1	0
2776	1	0
2777	1	0
2778	1	0
2779	1	0
2780	1	0
2781	1	0
2782	1	0
2783	1	0
2784	1	0
2785	1	0
2786	1	0
2787	1	0
2788	1	0
2789	1	0
2790	1	0
2791	1	0
2792	1	0
2793	1	0
2794	1	0
2795	1	0
2796	1	0
2797	1	0
2798	1	0
2799	1	0
2800	1	0
2801	1	0
2802	1	0
2803	1	0
2804	1	0
2805	1	0
2806	1	0
2807	1	0
2808	1	0
2809	1	0
2810	1	0
2811	1	0
2812	1	0
2813	1	0
2814	1	0
2815	1	0
2816	1	0
2817	1	0
2818	1	0
2819	1	0
2820	1	0
2821	1	0
2822	1	0
2823	1	0
2824	1	0
2825	1	0
2826	1	0
2827	1	0
2828	1	0
2829	1	0
2830	1	0
2831	1	0
2832	1	0
2833	1	0
2834	1	0
2835	1	0
2836	1	0
2837	1	0
2838	1	0
2839	1	0
2840	1	0
2841	1	0
2842	1	0
2843	1	0
2844	1	0
2845	1	0
2846	1	0
2847	1	0
2848	1	0
2849	1	0
2850	1	0
2851	1	0
2852	1	0
2853	1	0
2854	1	0
2855	1	0
2856	1	0
2857	1	0
2858	1	0
2859	1	0
2860	1	0
2861	1	0
2862	1	0
2863	1	0
2864	1	0
2865	1	0
2866	1	0
2867	1	0
2868	1	0
2869	1	0
2870	1	0
2871	1	0
2872	1	0
2873	1	0
2874	1	0
2875	1	0
2876	1	0
2877	1	0
2878	1	0
2879	1	0
2880	1	0
2881	1	0
2882	1	0
2883	1	0
2884	1	0
2885	1	0
2886	1	0
2887	1	0
2888	1	0
2889	1	0
2890	1	0
2891	1	0
2892	1	0
2893	1	0
2894	1	0
2895	1	0
2896	1	0
2897	1	0
2898	1	0
2899	1	0
2900	1	0
2901	1	0
2902	1	0
2903	1	0
2904	1	0
2905	1	0
2906	1	0
2907	1	0
2908	1	0
2909	1	0
2910	1	0
2911	1	0
2912	1	0
2913	1	0
2914	1	0
2915	1	0
2916	1	0
2917	1	0
2918	1	0
2919	1	0
2920	1	0
2921	1	0
2922	1	0
2923	1	0
2924	1	0
2925	1	0
2926	1	0
2927	1	0
2928	1	0
2929	1	0
2930	1	0
2931	1	0
2932	1	0
2933	1	0
2934	1	0
2935	1	0
2936	1	0
2937	1	0
2938	1	0
2939	1	0
2940	1	0
2941	1	0
2942	1	0
2943	1	0
2944	1	0
2945	1	0
2946	1	0
2947	1	0
2948	1	0
2949	1	0
2950	1	0
2951	1	0
2952	1	0
2953	1	0
2954	1	0
2955	1	0
2956	1	0
2957	1	0
2958	1	0
2959	1	0
2960	1	0
2961	1	0
2962	1	0
2963	1	0
2964	1	0
2965	1	0
2966	1	0
2967	1	0
2968	1	0
2969	1	0
2970	1	0
2971	1	0
2972	1	0
2973	1	0
2974	1	0
2975	1	0
2976	1	0
2977	1	0
2978	1	0
2979	1	0
2980	1	0
2981	1	0
2982	1	0
2983	1	0
2984	1	0
2985	1	0
2986	1	0
2987	1	0
2988	1	0
2989	1	0
2990	1	0
2991	1	0
2992	1	0
2993	1	0
2994	1	0
2995	1	0
2996	1	0
2997	1	0
2998	1	0
2999	1	0
3000	1	0
3001	1	0
3002	1	0
3003	1	0
3004	1	0
3005	1	0
3006	1	0
3007	1	0
3008	1	0
3009	1	0
3010	1	0
3011	1	0
3012	1	0
3013	1	0
3014	1	0
3015	1	0
3016	1	0
3017	1	0
3018	1	0
3019	1	0
3020	1	0
3021	1	0
3022	1	0
3023	1	0
3024	1	0
3025	1	0
3026	1	0
3027	1	0
3028	1	0
3029	1	0
3030	1	0
3031	1	0
3032	1	0
3033	1	0
3034	1	0
3035	1	0
3036	1	0
3037	1	0
3038	1	0
3039	1	0
3040	1	0
3041	1	0
3042	1	0
3043	1	0
3044	1	0
3045	1	0
3046	1	0
3047	1	0
3048	1	0
3049	1	0
3050	1	0
3051	1	0
3052	1	0
3053	1	0
3054	1	0
3055	1	0
3056	1	0
3057	1	0
3058	1	0
3059	1	0
3060	1	0
3061	1	0
3062	1	0
3063	1	0
3064	1	0
3065	1	0
3066	1	0
3067	1	0
3068	1	0
3069	1	0
3070	1	0
3071	1	0
3072	1	0
3073	1	0
3074	1	0
3075	1	0
3076	1	0
3077	1	0
3078	1	0
3079	1	0
3080	1	0
3081	1	0
3082	1	0
3083	1	0
3084	1	0
3085	1	0
3086	1	0
3087	1	0
3088	1	0
3089	1	0
3090	1	0
3091	1	0
3092	1	0
3093	1	0
3094	1	0
3095	1	0
3096	1	0
3097	1	0
3098	1	0
3099	1	0
3100	1	0
3101	1	0
3102	1	0
3103	1	0
3104	1	0
3105	1	0
3106	1	0
3107	1	0
3108	1	0
3109	1	0
3110	1	0
3111	1	0
3112	1	0
3113	1	0
3114	1	0
3115	1	0
3116	1	0
3117	1	0
3118	1	0
3119	1	0
3120	1	0
3121	1	0
3122	1	0
3123	1	0
3124	1	0
3125	1	0
3126	1	0
3127	1	0
3128	1	0
3129	1	0
3130	1	0
3131	1	0
3132	1	0
3133	1	0
3134	1	0
3135	1	0
3136	1	0
3137	1	0
3138	1	0
3139	1	0
3140	1	0
3141	1	0
3142	1	0
3143	1	0
3144	1	0
3145	1	0
3146	1	0
3147	1	0
3148	1	0
3149	1	0
3150	1	0
3151	1	0
3152	1	0
3153	1	0
3154	1	0
3155	1	0
3156	1	0
3157	1	0
3158	1	0
3159	1	0
3160	1	0
3161	1	0
3162	1	0
3163	1	0
3164	1	0
3165	1	0
3166	1	0
3167	1	0
3168	1	0
3169	1	0
3170	1	0
3171	1	0
3172	1	0
3173	1	0
3174	1	0
3175	1	0
3176	1	0
3177	1	0
3178	1	0
3179	1	0
3180	1	0
3181	1	0
3182	1	0
3183	1	0
3184	1	0
3185	1	0
3186	1	0
3187	1	0
3188	1	0
3189	1	0
3190	1	0
3191	1	0
3192	1	0
3193	1	0
3194	1	0
3195	1	0
3196	1	0
3197	1	0
3198	1	0
3199	1	0
3200	1	0
3201	1	0
3202	1	0
3203	1	0
3204	1	0
3205	1	0
3206	1	0
3207	1	0
