Site	ColumnScore	SumOfPairsScore
1	0	0
2	0	0
3	0	0
4	0	0
5	0	0
6	0	0
7	0	0
8	0	0
9	0	0
10	0	0
11	0	0
12	0	0
13	0	0
14	0	0
15	0	0
16	0	0
17	0	0
18	0	0
19	0	0
20	0	0
21	0	0
22	0	0
23	0	0
24	0	0
25	0	0
26	0	0
27	0	0
28	0	0
29	0	0
30	0	0
31	0	0
32	0	0
33	0	0
34	0	0
35	0	0
36	0	0
37	0	0
38	0	0
39	0	0
40	0	0
41	0	0
42	0	0
43	0	0
44	0	0
45	0	0
46	0	0
47	0	0
48	0	0
49	0	0
50	0	0
51	0	0
52	0	0
53	0	0
54	0	0
55	0	0
56	0	0
57	0	0
58	0	0
59	0	0
60	0	0
61	0	0
62	0	0
63	0	0
64	0	0
65	0	0
66	0	0
67	0	0
68	0	0
69	0	0
70	0	0
71	0	0
72	0	0
73	0	0
74	0	0
75	0	0
76	0	0
77	0	0
78	0	0
79	0	0
80	0	0
81	0	0
82	0	0
83	0	0
84	0	0
85	0	0
86	0	0
87	0	0
88	0	0
89	0	0
90	0	0
91	0	0
92	0	0
93	0	0
94	0	0
95	0	0
96	0	0
97	0	0
98	0	0
99	1	0
100	1	0
101	0	0
102	0	0
103	0	0
104	0	0
105	0	0
106	0	0
107	0	0
108	0	0
109	0	0
110	0	0
111	0	0
112	0	0
113	0	0
114	0	0
115	0	0
116	0	0
117	0	0
118	0	0
119	0	0
120	0	0
121	0	0
122	0	0
123	0	0
124	0	0
125	0	0
126	0	0
127	0	0
128	0	0
129	0	0
130	0	0
131	0	0
132	0	0
133	0	0
134	0	0
135	0	0
136	0	0
137	0	0
138	0	0
139	0	0
140	0	0
141	0	0
142	0	0
143	0	0
144	0	0
145	0	0
146	0	0
147	0	0
148	0	0
149	0	0
150	0	0
151	0	0
152	0	0
153	0	0
154	0	0
155	0	0
156	0	0
157	0	0
158	0	0
159	0	0
160	0	0
161	0	0
162	0	0
163	0	0
164	0	0
165	0	0
166	0	0
167	0	0
168	0	0
169	0	0
170	0	0
171	0	0
172	0	0
173	0	0
174	0	0
175	0	0
176	0	0
177	0	0
178	0	0
179	0	0
180	0	0
181	0	0
182	0	0
183	0	0
184	0	0
185	0	0
186	0	0
187	0	0
188	0	0
189	0	0
190	0	0
191	0	0
192	0	0
193	0	0
194	0	0
195	0	0
196	0	0
197	0	0
198	0	0
199	0	0
200	0	0
201	0	0
202	0	0
203	0	0
204	0	0
205	0	0
206	0	0
207	0	0
208	0	0
209	0	0
210	0	0
211	0	0
212	0	0
213	0	0
214	0	0
215	0	0
216	0	0
217	0	0
218	0	0
219	0	0
220	0	0
221	0	0
222	0	0
223	0	0
224	0	0
225	0	0
226	0	0
227	0	0
228	0	0
229	0	0
230	0	0
231	0	0
232	0	0
233	0	0
234	0	0
235	0	0
236	0	0
237	0	0
238	0	0
239	0	0
240	0	0
241	0	0
242	0	0
243	0	0
244	0	0
245	0	0
246	0	0
247	0	0
248	0	0
249	0	0
250	0	0
251	0	0
252	0	0
253	0	0
254	0	0
255	0	0
256	0	0
257	0	0
258	0	0
259	0	0
260	0	0
261	0	0
262	0	0
263	0	0
264	0	0
265	0	0
266	0	0
267	0	0
268	0	0
269	0	0
270	0	0
271	0	0
272	0	0
273	0	0
274	0	0
275	0	0
276	0	0
277	0	0
278	0	0
279	0	0
280	0	0
281	0	0
282	0	0
283	0	0
284	0	0
285	0	0
286	0	0
287	0	0
288	0	0
289	0	0
290	0	0
291	0	0
292	0	0
293	0	0
294	0	0
295	0	0
296	0	0
297	0	0
298	0	0
299	0	0
300	0	0
301	0	0
302	0	0
303	0	0
304	0	0
305	0	0.133333
306	0	0.133333
307	0	0.133333
308	0	0.133333
309	0	0.133333
310	0	0.133333
311	0	0.133333
312	0	0.133333
313	0	0.133333
314	0	0.133333
315	0	0.133333
316	0	0.133333
317	0	0.133333
318	0	0.133333
319	0	0.133333
320	0	0.133333
321	0	0.133333
322	0	0.133333
323	0	0.133333
324	0	0.133333
325	0	0.133333
326	0	0.133333
327	0	0.133333
328	0	0.133333
329	0	0.133333
330	0	0.133333
331	0	0.109091
332	0	0.109091
333	0	0.109091
334	0	0.109091
335	0	0.109091
336	0	0.109091
337	0	0.109091
338	0	0.109091
339	0	0.109091
340	0	0.109091
341	0	0.109091
342	0	0.109091
343	0	0.109091
344	0	0.109091
345	0	0.109091
346	0	0.109091
347	0	0.109091
348	0	0.109091
349	0	0.109091
350	0	0.109091
351	0	0.109091
352	0	0.109091
353	0	0.109091
354	0	0.109091
355	0	0.109091
356	0	0.109091
357	0	0.109091
358	0	0.109091
359	0	0.109091
360	0	0.109091
361	0	0.109091
362	0	0.109091
363	0	0.109091
364	0	0.109091
365	0	0.109091
366	0	0.109091
367	0	0.0909091
368	0	0.0909091
369	0	0.0909091
370	0	0.0909091
371	0	0.0909091
372	0	0.0909091
373	0	0.0909091
374	0	0.0909091
375	0	0.0909091
376	0	0.0769231
377	0	0.0769231
378	0	0.0769231
379	0	0.0659341
380	0	0.0666667
381	0	0.0666667
382	0	0.0666667
383	0	0.0666667
384	0	0.0666667
385	0	0.0666667
386	0	0.0583333
387	0	0.0514706
388	0	0.0514706
389	0	0.0514706
390	0	0.0457516
391	0	0.0457516
392	0	0.0522876
393	0	0.0522876
394	0	0.0522876
395	0	0.0522876
396	0	0.0522876
397	0	0.0522876
398	0	0.0522876
399	0	0.0522876
400	0	0.0522876
401	0	0.0522876
402	0	0.0467836
403	0	0.0467836
404	0	0.0467836
405	0	0.0467836
406	0	0.0701754
407	0	0.0526316
408	0	0.0526316
409	0	0.0467836
410	0	0.0421053
411	0	0.0467836
412	0	0.0467836
413	0	0.0428571
414	0	0.0395257
415	0	0.0333333
416	0	0.0333333
417	0	0.0344086
418	0	0.0344086
419	0	0.0451613
420	0	0.055914
421	0	0.0378788
422	0	0.0378788
423	0	0.0378788
424	0	0.032197
425	0	0.0435606
426	0	0.0460317
427	0	0.0435435
428	0	0.171131
429	0	0.171131
430	0	0.171131
431	0	0.160373
432	0	0.156038
433	0	0.147911
434	0	0.148764
435	0	0.133942
436	0	0.124211
437	0	0.124211
438	0	0.146667
439	0	0.134372
440	0	0.117373
441	0	0.1171
442	0	0.0937682
443	0	0.0891073
444	0	0.081312
445	0	0.0737039
446	0	0.0645107
447	0	0.185171
448	0	0.155463
449	0	0.144578
450	0	0.0896178
451	0	0.0899503
452	0	0.39798
453	0	0.39798
454	0	0.137196
455	0	0.144109
456	0	0.128086
457	0	0.12489
458	0	0.112654
459	0	0.0982319
460	0	0.100097
461	0	0.109804
462	0	0.113052
463	0	0.115992
464	0	0.125985
465	0	0.122204
466	0	0.249849
467	0	0.258772
468	0	0.163793
469	0	0.231588
470	0	0.149767
471	0	0.0292398
472	0	0.0292398
473	0	0.0292398
474	0	0.0292398
475	0	0.0292398
476	0	0.08
477	0	0.08
478	0	0.0769231
479	0	0.0769231
480	0	0.0683761
481	0	0.0634921
482	0	0.0582011
483	0	0.0591133
484	0	0.0591133
485	0	0.365396
486	0	0.364791
487	0	0.340678
488	0	0.241721
489	0	0.235968
490	0	0.326682
491	0	0.326682
492	0	0.390845
493	0	0.392019
494	0	0.38242
495	0	0.38242
496	0	0.362523
497	0	0.352982
498	0	0.327816
499	0	0.354309
500	0	0.183059
501	0	0.181525
502	0	0.458649
503	0	0.615553
504	0	0.534394
505	0	0.570212
506	0	0.604162
507	0	0.55619
508	0	0.550694
509	0	0.047619
510	0	0.047619
511	0	0.047619
512	0	0.047619
513	0	0.0712251
514	0	0.0661376
515	0	0.122924
516	0	0.195205
517	0	0.210185
518	0	0.219649
519	0	0.353236
520	0	0.352192
521	0	0.770387
522	0	0
523	0	0
524	0	0.032967
525	0	0.0454545
526	0	0.0363636
527	0	0.0545455
528	0	0.0757576
529	0	0.0909091
530	0	0.642735
531	0	0
532	0	0.494505
533	0	0
534	0	0
535	0	0
536	0	0
537	0	0
538	0	0.440784
539	0	0.664654
540	0	0.5
541	0	0.333333
542	0	0.333333
543	0	0
544	0	0
545	0	0
546	0	0
547	0	0
548	0	0
549	0	0
550	0	0
551	0	0
552	0	0
553	0	0
554	0	0
555	0	0
556	0	0
557	0	0
558	0	0
559	0	0
560	0	0
561	0	0
562	0	0
563	0	0
564	0	0
565	0	0
566	0	0
567	0	0
568	0	0
569	0	0
570	0	0
571	0	0
572	0	0
573	0	0
574	0	0
575	0	0
576	0	0
577	0	0
578	0	0
579	0	0
580	0	0
581	0	0
582	0	0
583	0	0
584	0	0
585	0	0
586	0	0
587	0	0
588	0	0
589	0	0
590	0	0
591	0	0
592	0	0
593	0	0
594	0	0
595	0	0
596	0	0
597	0	0
598	0	0
599	0	0
600	0	0
601	0	0
602	0	0
603	0	0
604	0	0
605	0	0
606	0	0
607	0	0
608	0	0
609	0	0
610	0	0
611	0	0
612	0	0
613	0	0
614	0	0
615	0	0
616	0	0
617	0	0
618	0	0
619	0	0
620	0	0
621	0	0
622	0	0
623	0	0
624	0	0
625	0	0
626	0	0
627	0	0
628	0	0
629	0	0
630	0	0
631	0	0
632	0	0
633	0	0
634	0	0
635	0	0
636	0	0
637	0	0
638	0	0
639	0	0
640	0	0
641	0	0
642	0	0
643	0	0
644	0	0
645	0	0
646	0	0
647	0	0
648	0	0
649	0	0
650	0	0
651	0	0
652	0	0
653	0	0
654	0	0
655	0	0
656	0	0
657	0	0
658	0	0
659	0	0
660	0	0
661	0	0
662	0	0
663	0	0
664	0	0
665	0	0
666	0	0
667	0	0
668	0	0
669	0	0
670	0	0
671	0	0
672	0	0
673	0	0
674	0	0
675	0	0
676	0	0
677	0	0
678	0	0
679	0	0
680	0	0
681	0	0
682	0	0
683	0	0
684	0	0
685	0	0
686	0	0
687	0	0
688	0	0
689	0	0
690	0	0
691	0	0
692	0	0
693	0	0
694	0	0
695	0	0
696	0	0
697	0	0
698	0	0
699	0	0
700	0	0
701	0	0
702	0	0
703	0	0
704	0	0
705	0	0
706	0	0
707	0	0
708	0	0
709	0	0
710	0	0
711	0	0
712	0	0
713	0	0
714	0	0
715	0	0
716	0	0
717	0	0
718	0	0
719	0	0
720	0	0
721	0	0
722	0	0
723	0	0
724	0	0
725	0	0
726	0	0
727	0	0
728	0	0
729	0	0
730	0	0
731	0	0
732	0	0
733	0	0
734	0	0
735	0	0
736	0	0
737	0	0
738	0	0
739	0	0
740	0	0
741	0	0
742	0	0
743	0	0
744	0	0
745	0	0
746	0	0
747	0	0
748	0	0
749	0	0
750	0	0
751	0	0
752	0	0
753	0	0
754	0	0
755	0	0
756	0	0
757	0	0
758	0	0
759	0	0
760	0	0
761	0	0
762	0	0
763	0	0
764	0	0
765	0	0
766	0	0
767	0	0
768	0	0
769	0	0
770	0	0
771	0	0
772	0	0
773	0	0
774	0	0
775	0	0
776	0	0
777	0	0
778	0	0
779	0	0
780	0	0
781	0	0
782	0	0
783	0	0
784	0	0
785	0	0
786	0	0
787	0	0
788	0	0
789	0	0
790	0	0
791	0	0
792	0	0
793	0	0
794	0	0
795	0	0
796	0	0
797	0	0
798	0	0
799	0	0
800	0	0
801	0	0
802	0	0
803	0	0
804	0	0
805	0	0
806	0	0
807	0	0
808	0	0.686742
809	0	0.68698
810	0	0
811	0	0
812	0	0
813	0	0
814	0	0
815	0	0
816	0	0
817	0	0
818	0	0
819	0	0
820	0	0
821	0	0
822	0	0
823	0	0
824	0	0
825	0	0
826	0	0
827	0	0
828	0	0
829	0	0
830	0	0
831	0	0
832	0	0
833	0	0
834	0	0
835	0	0
836	0	0
837	0	0
838	0	0
839	0	0
840	0	0
841	0	0
842	0	0
843	0	0
844	0	0
845	0	0
846	0	0
847	0	0
848	0	0
849	0	0
850	0	0
851	0	0
852	0	0
853	0	0
854	0	0
855	0	0
856	0	0
857	0	0
858	0	0
859	0	0
860	0	0
861	0	0
862	0	0
863	0	0
864	0	0
865	0	0
866	0	0
867	0	0
868	0	0
869	0	0
870	0	0
871	0	0
872	0	0
873	0	0
874	0	0
875	0	0
876	0	0
877	0	0
878	0	0
879	0	0
880	0	0
881	0	0
882	0	0
883	0	0
884	0	0
885	0	0
886	0	0
887	0	0
888	0	0
889	0	0
890	0	0
891	0	0
892	0	0
893	0	0
894	0	0
895	0	0
896	0	0
897	0	0
898	0	0
899	0	0
900	0	0
901	0	0
902	0	0
903	0	0
904	0	0
905	0	0
906	0	0
907	0	0
908	0	0
909	0	0
910	0	0
911	0	0
912	0	0
913	0	0
914	0	0
915	0	0
916	0	0
917	0	0
918	0	0
919	0	0
920	0	0
921	0	0
922	0	0.1
923	0	0.1
924	0	0.1
925	0	0.190476
926	0	0.190476
927	0	0.25
928	0	0.25
929	0	0.25
930	0	0.25
931	0	0.25
932	0	0.25
933	0	0.25
934	0	0.25
935	0	0.25
936	0	0.535714
937	0	0.622222
938	0	0.622222
939	0	0.654545
940	0	0.725275
941	0	0.758333
942	0	0.772059
943	0	0.753379
944	0	0.3
945	0	0.3
946	0	0.3
947	0	0.3
948	0	0.3
949	0	0.3
950	0	0.4
951	0	0.47619
952	0	0.535714
953	0	0.805263
954	0	0.805263
955	0	0.78105
956	0	0.3
957	0	0.3
958	0	0.3
959	0	0.47619
960	0	0.583333
961	0	0.681818
962	0	0.681818
963	0	0.967349
964	0	0.986201
965	0	0.986213
966	0	0.98451
967	0	0.984536
968	0	0.984536
969	0	0.984536
970	0	0.333333
971	0	0.333333
972	0	0.333333
973	0	0.333333
974	0	0.333333
975	0	0.333333
976	0	0.333333
977	0	0.982842
978	0	0.982842
979	0	0.166667
980	0	0
981	0	0.979461
982	0	0.979461
983	0	0.981149
984	0	0.979463
985	0	0
986	0	0
987	0	0
988	0	0
989	0	0
990	0	0
991	0	0
992	0	0
993	0	0
994	0	0
995	0	0
996	0	0
997	0	0
998	0	0
999	0	0
1000	0	0
1001	0	0
1002	0	0
1003	0	0
1004	0	0
1005	0	0
1006	0	0
1007	0	0
1008	0	0
1009	0	0
1010	0	0
1011	0	0
1012	0	0
1013	0	0
1014	0	0
1015	0	0
1016	0	0
1017	0	0
1018	0	0
1019	0	0
1020	0	0
1021	0	0
1022	0	0
1023	0	0
1024	0	0
1025	0	0
1026	0	0
1027	0	0
1028	0	0
1029	0	0
1030	0	0
1031	0	0
1032	0	0
1033	0	0
1034	0	0
1035	0	0
1036	0	0
1037	0	0
1038	0	0
1039	0	0
1040	0	0
1041	0	0
1042	0	0
1043	0	0
1044	0	0
1045	0	0
1046	0	0
1047	0	0
1048	0	0
1049	0	0
1050	0	0
1051	0	0
1052	0	0
1053	0	0
1054	0	0
1055	0	0
1056	0	0
1057	0	0
1058	0	0
1059	0	0
1060	0	0
1061	0	0
1062	0	0
1063	0	0
1064	0	0
1065	0	0
1066	0	0
1067	0	0
1068	0	0
1069	0	0
1070	0	0
1071	0	0
1072	0	0
1073	0	0
1074	0	0
1075	0	0
1076	0	0
1077	0	0
1078	0	0
1079	0	0
1080	0	0
1081	0	0
1082	0	0
1083	0	0
1084	0	0
1085	0	0
1086	0	0
1087	0	0
1088	0	0
1089	0	0
1090	0	0
1091	0	0
1092	0	0
1093	0	0
1094	0	0
1095	0	0
1096	0	0
1097	0	0
1098	0	0
1099	0	0
1100	0	0
1101	0	0
1102	0	0
1103	0	0
1104	0	0
1105	0	0
1106	0	0
1107	0	0
1108	0	0
1109	0	0
1110	0	0
1111	0	0
1112	0	0
1113	0	0
1114	0	0
1115	0	0
1116	0	0
1117	0	0
1118	0	0
1119	0	0
1120	0	0
1121	0	0
1122	0	0
1123	0	0
1124	0	0
1125	0	0
1126	0	0
1127	0	0
1128	0	0
1129	0	0
1130	0	0
1131	0	0
1132	0	0
1133	0	0
1134	0	0
1135	0	0
1136	0	0
1137	0	0
1138	0	0
1139	0	0
1140	0	0
1141	0	0
1142	0	0
1143	0	0
1144	0	0
1145	0	0
1146	0	0
1147	0	0
1148	0	0
1149	0	0
1150	0	0
1151	0	0
1152	0	0
1153	0	0
1154	0	0
1155	0	0
1156	0	0
1157	0	0
1158	0	0
1159	0	0
1160	0	0
1161	0	0
1162	0	0
1163	0	0
1164	0	0
1165	0	0.979463
1166	0	0.979463
1167	0	0.97778
1168	0	0.530027
1169	0	0.979482
1170	0	0.977781
1171	0	0.979463
1172	0	0.977761
1173	0	0.979444
1174	0	0
1175	0	0
1176	0	0
1177	0	0
1178	0	0
1179	0	0
1180	0	0
1181	0	0
1182	0	0
1183	0	0
1184	0	0
1185	0	0
1186	0	0
1187	0	0
1188	0	0
1189	0	0
1190	0	0
1191	0	0
1192	0	0
1193	0	0
1194	0	0
1195	0	0
1196	0	0
1197	0	0
1198	0	0
1199	0	0
1200	0	0
1201	0	0
1202	0	0
1203	0	0
1204	0	0
1205	0	0
1206	0	0
1207	0	0
1208	0	0
1209	0	0
1210	0	0
1211	0	0
1212	0	0
1213	0	0
1214	0	0
1215	0	0
1216	0	0
1217	0	0
1218	0	0
1219	0	0
1220	0	0
1221	0	0
1222	0	0.961218
1223	0	0.3
1224	0	0.3
1225	0	0.3
1226	0	0.974364
1227	0	0.974364
1228	0	0.969281
1229	0	0
1230	0	0
1231	0	0
1232	0	0
1233	0	0
1234	0	0
1235	0	0
1236	0	0
1237	0	0
1238	0	0
1239	0	0
1240	0	0
1241	0	0
1242	0	0
1243	0	0
1244	0	0
1245	0	0
1246	0	0
1247	0	0
1248	0	0
1249	0	0
1250	0	0
1251	0	0
1252	0	0
1253	0	0
1254	0	0.333333
1255	0	0.333333
1256	0	0.333333
1257	0	0.333333
1258	0	0.333333
1259	0	0.333333
1260	0	0.333333
1261	0	0.333333
1262	0	0.333333
1263	0	0.333333
1264	0	0.333333
1265	0	0.333333
1266	0	0.333333
1267	0	0.333333
1268	0	0.333333
1269	0	0
1270	0	0
1271	0	0
1272	0	0
1273	0	0.1
1274	0	0.1
1275	0	0.1
1276	0	0.0666667
1277	0	0.976932
1278	0	0
1279	0	0
1280	0	0
1281	0	0
1282	0	0
1283	0	0
1284	0	0
1285	0	0
1286	0	0
1287	0	0
1288	0	0
1289	0	0
1290	0	0
1291	0	0
1292	0	0
1293	0	0
1294	0	0
1295	0	0
1296	0	0
1297	0	0
1298	0	0
1299	0	0
1300	0	0
1301	0	0
1302	0	0
1303	0	0
1304	0	0
1305	0	0
1306	0	0
1307	0	0
1308	0	0
1309	0	0
1310	0	0
1311	0	0
1312	0	0
1313	0	0
1314	0	0
1315	0	0
1316	0	0
1317	0	0
1318	0	0
1319	0	0
1320	0	0
1321	0	0
1322	0	0
1323	0	0
1324	0	0
1325	0	0
1326	0	0
1327	0	0
1328	0	0
1329	0	0
1330	0	0
1331	0	0
1332	0	0
1333	0	0
1334	0	0
1335	0	0
1336	0	0
1337	0	0
1338	0	0
1339	0	0
1340	0	0
1341	0	0
1342	0	0
1343	0	0
1344	0	0
1345	0	0
1346	0	0
1347	0	0
1348	0	0
1349	0	0
1350	0	0
1351	0	0
1352	0	0
1353	0	0
1354	0	0
1355	0	0
1356	0	0
1357	0	0
1358	0	0
1359	0	0
1360	0	0
1361	0	0
1362	0	0
1363	0	0
1364	0	0
1365	0	0
1366	0	0
1367	0	0
1368	0	0
1369	0	0
1370	0	0
1371	0	0
1372	0	0
1373	0	0
1374	0	0
1375	0	0
1376	0	0
1377	0	0
1378	0	0
1379	0	0
1380	0	0
1381	0	0
1382	0	0
1383	0	0
1384	0	0
1385	0	0
1386	0	0
1387	0	0
1388	0	0
1389	0	0
1390	0	0
1391	0	0
1392	0	0
1393	0	0
1394	0	0
1395	0	0
1396	0	0
1397	0	0
1398	0	0
1399	0	0
1400	0	0
1401	0	0
1402	0	0
1403	0	0
1404	0	0
1405	0	0
1406	0	0
1407	0	0
1408	0	0
1409	0	0
1410	0	0
1411	0	0
1412	0	0
1413	0	0
1414	0	0
1415	0	0
1416	0	0
1417	0	0
1418	0	0
1419	0	0
1420	0	0
1421	0	0
1422	0	0
1423	0	0
1424	0	0
1425	0	0
1426	0	0
1427	0	0
1428	0	0
1429	0	0
1430	0	0
1431	0	0.333333
1432	0	0.333333
1433	0	0.333333
1434	0	0.333333
1435	0	0.333333
1436	0	0.166667
1437	0	0.166667
1438	0	0.166667
1439	0	0.166667
1440	0	0
1441	0	0
1442	0	0
1443	0	0
1444	0	0
1445	0	0
1446	0	0
1447	0	0
1448	0	0
1449	0	0
1450	0	0.868936
1451	0	0
1452	0	0
1453	0	0
1454	0	0
1455	0	0
1456	0	0
1457	0	0
1458	0	0
1459	0	0
1460	0	0
1461	0	0
1462	0	0
1463	0	0
1464	0	0
1465	0	0
1466	0	0
1467	0	0
1468	0	0
1469	0	0
1470	0	0
1471	0	0
1472	0	0
1473	0	0
1474	0	0
1475	0	0
1476	0	0
1477	0	0
1478	0	0
1479	0	0
1480	0	0
1481	0	0
1482	0	0
1483	0	0
1484	0	0
1485	0	0
1486	0	0
1487	0	0
1488	0	0
1489	0	0.1
1490	0	0.1
1491	0	0.0666667
1492	0	0.0666667
1493	0	0.0666667
1494	0	0.868491
1495	0	0.504531
1496	0	0.381362
1497	0	0.961347
1498	0	0
1499	0	0
1500	0	0
1501	0	0
1502	0	0
1503	0	0
1504	0	0
1505	0	0
1506	0	0.961377
1507	0	0.959708
1508	0	0
1509	0	0
1510	0	0
1511	0	0
1512	0	0
1513	0	0
1514	0	0
1515	0	0
1516	0	0
1517	0	0
1518	0	0
1519	0	0
1520	0	0
1521	0	0
1522	0	0
1523	0	0
1524	0	0.969049
1525	0	0
1526	0	0
1527	0	0
1528	0	0
1529	0	0
1530	0	0
1531	0	0
1532	0	0
1533	0	0
1534	0	0
1535	0	0
1536	0	0
1537	0	0
1538	0	0
1539	0	0
1540	0	0
1541	0	0
1542	0	0
1543	0	0
1544	0	0
1545	0	0
1546	0	0
1547	0	0
1548	0	0
1549	0	0
1550	0	0
1551	0	0
1552	0	0
1553	0	0
1554	0	0
1555	0	0
1556	0	0
1557	0	0
1558	0	0
1559	0	0
1560	0	0
1561	0	0
1562	0	0
1563	0	0
1564	0	0
1565	0	0
1566	1	0
1567	1	0
1568	1	0
1569	1	0
1570	1	0
1571	1	0
1572	0	0
1573	0	0
1574	0	0
1575	0	0
1576	0	0
1577	0	0
1578	0	0
1579	0	0
1580	0	0
1581	0	0
1582	0	0
1583	0	0
1584	0	0
1585	0	0
1586	0	0
1587	0	0
1588	0	0
1589	0	0
1590	0	0
1591	0	0
1592	0	0
1593	0	0
1594	0	0
1595	0	0
1596	0	0
1597	0	0
1598	0	0
1599	0	0
1600	0	0.989469
1601	0	0.989469
1602	0	0.985984
1603	0	0
1604	0	0
1605	0	0
1606	0	0
1607	0	0
1608	0	0.984301
1609	0	0.982564
1610	0	0
1611	0	0
1612	0	0
1613	0	0.92845
1614	0	0
1615	0	0
1616	0	0
1617	0	0
1618	0	0
1619	0	0
1620	0	0
1621	0	0
1622	0	0
1623	0	0
1624	0	0
1625	0	0
1626	0	0
1627	0	0
1628	0	0
1629	0	0
1630	0	0
1631	0	0
1632	0	0
1633	0	0
1634	0	0
1635	0	0
1636	0	0
1637	0	0
1638	0	0
1639	0	0
1640	0	0
1641	0	0
1642	0	0
1643	0	0
1644	0	0
1645	0	0
1646	0	0
1647	0	0
1648	0	0
1649	0	0
1650	0	0
1651	0	0
1652	0	0
1653	0	0
1654	0	0
1655	0	0
1656	0	0
1657	0	0
1658	0	0
1659	0	0
1660	0	0
1661	0	0
1662	0	0
1663	0	0
1664	0	0
1665	0	0
1666	0	0
1667	0	0
1668	0	0
1669	0	0
1670	0	0
1671	0	0
1672	0	0.333333
1673	0	0.333333
1674	0	0.333333
1675	0	0.333333
1676	0	0.333333
1677	0	0.1
1678	0	0.993095
1679	0	0.993095
1680	0	0.991372
1681	0	0.991372
1682	0	0.991372
1683	0	0
1684	1	0
1685	1	0
1686	0	0
1687	0	0
1688	0	0
1689	0	0
1690	0	0
1691	0	0.994828
1692	0	0.994828
1693	0	0.996547
1694	0	0.994832
1695	0	0.994836
1696	0	0.994836
1697	0	0.994836
1698	0	0.99655
1699	0	0.996553
1700	0	0.996553
1701	0	0.994836
1702	0	0.996553
1703	0	0.991403
1704	0	0
1705	0	0
1706	0	0
1707	0	0
1708	0	0
1709	0	0
1710	0	0
1711	0	0
1712	0	0
1713	0	0
1714	0	0
1715	0	0
1716	0	0
1717	0	0
1718	0	0
1719	0	0
1720	0	0
1721	0	0
1722	0	0.97293
1723	0	0.872687
1724	0	0
1725	0	0
1726	0	0
1727	0	0
1728	0	0
1729	0	0
1730	0	0
1731	0	0
1732	0	0
1733	0	0
1734	0	0
1735	0	0
1736	0	0
1737	0	0
1738	0	0
1739	0	0
1740	0	0
1741	0	0
1742	0	0
1743	0	0
1744	0	0
1745	0	0
1746	0	0
1747	0	0
1748	0	0
1749	0	0
1750	0	0
1751	0	0
1752	0	0
1753	0	0
1754	0	0
1755	0	0.333333
1756	0	0.993137
1757	0	0
1758	0	1
1759	0	1
1760	0	0.998299
1761	0	0.998299
1762	0	0.998299
1763	0	0.998299
1764	0	0.998299
1765	0	0.998299
1766	0	0.998299
1767	0	0.998299
1768	0	0.998299
1769	0	0.998299
1770	0	0.998299
1771	0	0.998299
1772	0	0.998299
1773	0	0.998299
1774	0	0.998299
1775	0	0.998299
1776	0	0.998299
1777	0	0.998301
1778	0	0.998307
1779	0	0.998307
1780	0	0.998307
1781	0	0.998308
1782	0	0.998308
1783	0	0.998308
1784	0	0.998308
1785	0	0.998308
1786	0	0.998308
1787	0	0.998308
1788	0	0.984863
1789	1	0
1790	1	0
1791	1	0
1792	1	0
1793	1	0
1794	1	0
1795	1	0
1796	1	0
1797	1	0
1798	1	0
1799	1	0
1800	1	0
1801	1	0
1802	1	0
1803	1	0
1804	1	0
1805	1	0
1806	1	0
1807	1	0
1808	1	0
1809	1	0
1810	1	0
1811	1	0
1812	1	0
1813	1	0
1814	1	0
1815	1	0
1816	1	0
1817	1	0
1818	1	0
1819	1	0
1820	1	0
1821	1	0
1822	1	0
1823	1	0
1824	1	0
1825	1	0
1826	1	0
1827	1	0
1828	1	0
1829	1	0
1830	1	0
1831	0	0
1832	0	0
1833	0	0
1834	0	0
1835	0	0
1836	0	0
1837	0	0
1838	0	0
1839	0	0
1840	0	0
1841	0	0
1842	0	0
1843	0	0
1844	0	0
1845	0	0
1846	0	0
1847	0	0
1848	0	0
1849	0	0
1850	0	0
1851	0	0
1852	0	0
1853	0	0
1854	0	0
1855	0	0
1856	0	0
1857	0	0
1858	0	0
1859	0	0
1860	0	0
1861	0	0
1862	0	0
1863	0	0
1864	0	0
1865	0	0
1866	0	0
1867	0	0
1868	0	0
1869	0	0
1870	0	0
1871	0	0
1872	0	0
1873	0	0
1874	0	0
1875	0	0
1876	0	0
1877	0	0
1878	0	0.987952
1879	0	0.945674
1880	0	0.998309
1881	0	0.998309
1882	0	0.998309
1883	0	0.998309
1884	0	1
1885	0	1
1886	0	1
1887	0	1
1888	0	1
1889	0	1
1890	0	1
1891	0	1
1892	0	1
1893	0	1
1894	0	1
1895	0	1
1896	0	1
1897	0	1
1898	0	1
1899	0	1
1900	0	1
1901	0	1
1902	0	1
1903	0	1
1904	0	1
1905	0	1
1906	0	1
1907	0	1
1908	0	0
1909	0	0
1910	0	0.994942
1911	0	0.720019
1912	0	0.720019
1913	0	0.988237
1914	0	0.98657
1915	0	1
1916	0	1
1917	0	0.42069
1918	0	0.941879
1919	0	1
1920	0	1
1921	0	1
1922	0	1
1923	0	1
1924	0	0.466667
1925	0	0.466667
1926	0	0.825211
1927	0	0.794449
1928	0	0.433845
1929	0	0.705128
1930	0	0.705128
1931	0	0.964405
1932	0	0.857143
1933	0	1
1934	0	1
1935	0	0.538462
1936	0	0.538462
1937	0	0.538462
1938	0	1
1939	0	1
1940	0	1
1941	0	1
1942	0	1
1943	0	1
1944	0	1
1945	0	1
1946	0	1
1947	0	1
1948	0	1
1949	0	1
1950	0	1
1951	0	1
1952	0	1
1953	0	1
1954	0	1
1955	0	1
1956	0	1
1957	0	1
1958	0	1
1959	0	1
1960	0	1
1961	1	1
1962	1	1
1963	1	1
1964	1	1
1965	1	1
1966	1	1
1967	1	1
1968	1	1
1969	1	1
1970	1	1
1971	0	0.998316
1972	1	1
1973	1	1
1974	1	1
1975	0	1
1976	0	1
1977	1	1
1978	1	1
1979	1	1
1980	0	1
1981	1	1
1982	1	1
1983	1	1
1984	1	1
1985	1	1
1986	1	1
1987	1	1
1988	1	1
1989	1	1
1990	1	1
1991	1	1
1992	1	1
1993	1	1
1994	1	1
1995	1	1
1996	1	1
1997	1	1
1998	1	1
1999	1	1
2000	1	1
2001	1	1
2002	1	1
2003	0	1
2004	1	1
2005	1	1
2006	1	1
2007	1	1
2008	0	0
2009	1	0
2010	1	0
2011	1	0
2012	1	0
2013	1	0
2014	1	0
2015	1	0
2016	1	0
2017	1	0
2018	1	0
2019	1	0
2020	1	0
2021	1	0
2022	1	0
2023	1	0
2024	1	0
2025	0	0.998319
2026	1	1
2027	0	1
2028	1	1
2029	1	1
2030	1	1
2031	1	1
2032	1	1
2033	1	1
2034	1	1
2035	1	1
2036	1	1
2037	1	1
2038	1	1
2039	1	1
2040	1	1
2041	1	1
2042	1	1
2043	0	1
2044	0	1
2045	1	1
2046	1	1
2047	1	1
2048	1	1
2049	1	1
2050	1	1
2051	1	1
2052	1	1
2053	1	1
2054	1	1
2055	0	0.998319
2056	1	1
2057	1	1
2058	1	1
2059	1	1
2060	0	0.998319
2061	1	1
2062	1	1
2063	1	1
2064	1	1
2065	1	1
2066	1	1
2067	1	1
2068	1	1
2069	1	1
2070	1	1
2071	1	1
2072	1	1
2073	1	1
2074	1	1
2075	1	1
2076	1	1
2077	1	1
2078	1	1
2079	1	1
2080	1	1
2081	1	1
2082	1	1
2083	0	1
2084	0	1
2085	0	1
2086	0	1
2087	0	1
2088	0	0.428571
2089	0	0.321429
2090	0	0.321429
2091	0	0.321429
2092	0	0.321429
2093	0	0.321429
2094	0	0.321429
2095	0	0.321429
2096	0	0.321429
2097	0	0.75
2098	0	0.535714
2099	0	0.75
2100	0	0.75
2101	0	0.75
2102	0	0.75
2103	0	0.75
2104	0	0.75
2105	0	1
2106	0	0.536695
2107	0	0
2108	0	0.333333
2109	0	0.998321
2110	0	0.998321
2111	0	0.998321
2112	0	0.998321
2113	1	1
2114	1	1
2115	1	1
2116	1	1
2117	1	1
2118	1	1
2119	1	1
2120	1	1
2121	1	1
2122	1	1
2123	0	0.998324
2124	1	1
2125	1	1
2126	1	1
2127	1	1
2128	0	0.505717
2129	0	1
2130	0	0.994971
2131	1	1
2132	1	1
2133	0	0.998322
2134	1	1
2135	1	1
2136	1	1
2137	1	1
2138	0	0
2139	0	0.998324
2140	0	0.998325
2141	0	0.998325
2142	0	0.998325
2143	0	0.998325
2144	0	0.998325
2145	0	0.998325
2146	0	0.998325
2147	0	0.998325
2148	0	0.998325
2149	0	0.998325
2150	0	0.996651
2151	0	0.998324
2152	0	0.998325
2153	1	1
2154	1	1
2155	1	1
2156	1	1
2157	0	1
2158	0	1
2159	1	1
2160	1	1
2161	0	1
2162	0	1
2163	0	1
2164	1	1
2165	1	1
2166	1	1
2167	1	1
2168	1	1
2169	1	1
2170	1	1
2171	1	1
2172	1	1
2173	1	1
2174	1	1
2175	1	1
2176	1	1
2177	1	1
2178	1	1
2179	1	1
2180	0	1
2181	0	0
2182	0	0
2183	0	0
2184	0	0
2185	0	0
2186	0	0
2187	0	0
2188	0	0
2189	0	0
2190	0	0
2191	0	0
2192	1	0
2193	1	0
2194	1	0
2195	1	0
2196	1	0
2197	1	0
2198	1	0
2199	0	0.994987
2200	0	0.996657
2201	0	0.998328
2202	0	0.998328
2203	0	0.998328
2204	1	1
2205	1	1
2206	1	1
2207	1	1
2208	1	1
2209	1	1
2210	1	1
2211	1	0
2212	1	0
2213	1	0
2214	1	0
2215	1	0
2216	1	0
2217	1	1
2218	1	1
2219	1	1
2220	1	1
2221	1	1
2222	1	1
2223	1	1
2224	1	1
2225	1	1
2226	1	1
2227	1	1
2228	1	1
2229	1	1
2230	1	1
2231	1	1
2232	1	1
2233	1	1
2234	1	1
2235	0	1
2236	0	1
2237	1	1
2238	1	1
2239	1	1
2240	1	1
2241	1	1
2242	1	1
2243	1	1
2244	1	0
2245	1	0
2246	1	0
2247	1	0
2248	1	0
2249	1	0
2250	1	0
2251	1	0
2252	1	0
2253	1	0
2254	1	0
2255	1	0
2256	1	0
2257	1	0
2258	1	0
2259	1	0
2260	1	0
2261	0	0.998328
2262	0	0.998328
2263	1	1
2264	1	1
2265	0	0.994987
2266	1	1
2267	1	1
2268	1	1
2269	1	1
2270	0	1
2271	1	1
2272	1	1
2273	1	1
2274	1	1
2275	1	1
2276	1	1
2277	1	1
2278	1	1
2279	1	1
2280	1	1
2281	1	1
2282	1	1
2283	1	1
2284	1	1
2285	1	1
2286	1	1
2287	1	1
2288	1	1
2289	1	1
2290	0	0.998329
2291	0	0.998329
2292	0	0.998329
2293	0	0.998329
2294	0	0.998329
2295	0	0.998329
2296	0	0.998329
2297	0	0.998329
2298	0	0.998329
2299	0	0
2300	0	0
2301	0	0
2302	0	0.994992
2303	0	0.996654
2304	0	0.996654
2305	0	0.996654
2306	0	0.996654
2307	0	0.996654
2308	0	0.996654
2309	0	0.996654
2310	0	0.996654
2311	0	0.996654
2312	0	0.996654
2313	0	0.996657
2314	0	0.994992
2315	0	0.994992
2316	0	0.994992
2317	0	0.994992
2318	0	0.994987
2319	0	0.994987
2320	0	0.994987
2321	0	1
2322	0	1
2323	0	0.900135
2324	0	0.947368
2325	0	0.947368
2326	0	0.855128
2327	0	0.926067
2328	0	0.680643
2329	0	0.655892
2330	0	0.857283
2331	0	0.424846
2332	0	0
2333	0	0
2334	0	0
2335	0	0.22534
2336	0	0.205882
2337	0	0.192177
2338	0	0.192177
2339	0	0.18449
2340	0	0.599696
2341	0	0.166667
2342	0	0.214286
2343	0	0.214286
2344	0	0.166667
2345	0	0.214286
2346	0	0.214286
2347	0	0.166667
2348	0	0.166667
2349	0	0.166667
2350	0	0.171171
2351	0	0.110517
2352	0	0.105205
2353	0	0.433669
2354	0	0.214286
2355	0	0.214286
2356	0	0.214286
2357	0	0.214286
2358	0	0.214286
2359	0	0.214286
2360	0	0.214286
2361	0	0.214286
2362	0	0.127273
2363	0	0.106061
2364	0	0.0897436
2365	0	0.0512821
2366	0	0.043956
2367	0	0.0380952
2368	0	0.0367647
2369	0	0.233613
2370	0	0.442759
2371	0	0.165525
2372	0	0.16784
2373	0	0.148021
2374	0	0.368998
2375	0	0.2
2376	0	0.154147
2377	0	0.151564
2378	0	0.150749
2379	0	0.127497
2380	0	0.415258
2381	0	0.1
2382	0	0.380847
2383	0	0.186813
2384	0	0.138984
2385	0	0.152327
2386	0	0.117647
2387	0	0.178182
2388	0	0.145912
2389	0	0.135341
2390	0	0.0953094
2391	0	0.095045
2392	0	0.0900076
2393	0	0.282327
2394	0	0.0369458
2395	0	0.0320197
2396	0	0.0295567
2397	0	0.0338983
2398	0	0.0350672
2399	0	0.0350877
2400	0	0.037594
2401	0	0.191191
2402	0	0.045122
2403	0	0.0426829
2404	0	0.0472335
2405	0	0.112894
2406	0	0.10515
2407	0	0.0284848
2408	0	0.0936187
2409	0	0.0297089
2410	0	0.027957
2411	0	0.0252275
2412	0	0.077321
2413	0	0.0674709
2414	0	0.0315789
2415	0	0.0263158
2416	0	0.0210526
2417	0	0.142804
2418	0	0.0682788
2419	0	0.0222222
2420	0	0.0277778
2421	0	0.0545455
2422	0	0.0545455
2423	0	0.181818
2424	0	0
2425	0	0.0705882
2426	0	0.0568182
2427	0	0.0534759
2428	0	0.0473485
2429	0	0.0598291
2430	0	0.0499325
2431	0	0.122238
2432	0	0.0392157
2433	0	0.0333333
2434	0	0.047619
2435	0	0.0711462
2436	0	0.142857
2437	0	0.196078
2438	0	0.25
2439	0	0.192982
2440	0	0.133333
2441	0	0.133333
2442	0	0.0405186
2443	0	0.0333333
2444	0	0.0285714
2445	0	0.025974
2446	0	0.0233918
2447	0	0.0157895
2448	0	0.00653595
2449	0	0.0116959
2450	0	0.0231068
2451	0	0.0252588
2452	0	0.0236091
2453	0	0.044328
2454	0	0.0459678
2455	0	0
2456	0	0
2457	0	0.116883
2458	0	0
2459	0	0
2460	0	0
2461	0	0.112554
2462	0	0.058072
2463	0	0.0609081
2464	0	0.0477342
2465	0	0.0260971
2466	0	0.0267795
2467	0	0.0295635
2468	0	0.0574452
2469	0	0.0658224
2470	0	0.0296296
2471	0	0.0334694
2472	0	0.0376812
2473	0	0.036715
2474	0	0.0877916
2475	0	0.0987147
2476	0	0
2477	0	0
2478	0	0
2479	0	0
2480	0	0
2481	0	0
2482	0	0
2483	0	0.0867722
2484	0	0.0901468
2485	0	0.08
2486	0	0.0516934
2487	0	0.0670732
2488	0	0.0650407
2489	0	0.0787879
2490	0	0.0824524
2491	0	0.0858586
2492	0	0.1
2493	0	0.136302
2494	0	0.047619
2495	0	0.047619
2496	0	0.0714286
2497	0	0.0952381
2498	0	0.0952381
2499	0	0.166667
2500	0	0.1
2501	0	0.1
2502	0	0.0952381
2503	0	0.0833333
2504	0	0.2
2505	0	0.2
2506	0	0.2
2507	0	0.142857
2508	0	0.0727273
2509	0	0.0727273
2510	0	0.0858586
2511	0	0.0767347
2512	0	0.07058
2513	0	0.0649351
2514	0	0.105571
2515	0	0.0687023
2516	0	0.0703662
2517	0	0.099473
2518	0	0.136343
2519	0	0.175379
2520	0	0
2521	0	0
2522	0	0
2523	0	0.283487
2524	0	0.324504
2525	0	0.030303
2526	0	0.030303
2527	0	0.0512821
2528	0	0.0833333
2529	0	0.203222
2530	0	0.295364
2531	0	0.333333
2532	0	0.0978836
2533	0	0.103175
2534	0	0.091133
2535	0	0.0985222
2536	0	0.0985222
2537	0	0.1133
2538	0	0.115764
2539	0	0.108374
2540	0	0.101149
2541	0	0.101149
2542	0	0.44295
2543	0	0.209524
2544	0	0.169118
2545	0	0.169118
2546	0	0.209524
2547	0	0.2
2548	0	0.2
2549	0	0.175
2550	0	0.128655
2551	0	0.189474
2552	0	0.189474
2553	0	0.106234
2554	0	0.113034
2555	0	0.634415
2556	0	0.0857143
2557	0	0.0982236
2558	0	0.110442
2559	0	0.112548
2560	0	0.133063
2561	0	0.135531
2562	0	0.149563
2563	0	0.392882
2564	0	0.407149
2565	0	0
2566	0	0
2567	0	0
2568	0	0
2569	0	0
2570	0	0
2571	0	0
2572	0	0
2573	0	0
2574	0	0
2575	0	0
2576	0	0
2577	0	0
2578	0	0
2579	0	0
2580	0	0
2581	0	0
2582	0	0.133333
2583	0	0.413435
2584	0	0.2
2585	0	0
2586	0	0.41943
2587	0	0.047619
2588	0	0.142857
2589	0	0.171429
2590	0	0.230769
2591	0	0.263736
2592	0	0.263736
2593	0	0.228571
2594	0	0.228571
2595	0	0.192896
2596	0	0.328926
2597	0	0.625931
2598	0	0.0474308
2599	0	0.0592885
2600	0	0.0562771
2601	0	0.0952381
2602	0	0.0952381
2603	0	0.104762
2604	0	0.109524
2605	0	0.554135
2606	0	0.562091
2607	0	0.180952
2608	0	0.158333
2609	0	0.272727
2610	0	0.333333
2611	0	0.277778
2612	0	0.277778
2613	0	0.277778
2614	0	0.357143
2615	0	0.47619
2616	0	0.361111
2617	0	0.5
2618	0	0.5
2619	0	0.5
2620	0	0.5
2621	0	1
2622	0	1
2623	0	1
2624	0	1
2625	0	1
2626	0	1
2627	0	1
2628	0	1
2629	0	0.878264
2630	0	0.0942029
2631	0	0.0653595
2632	0	0.030303
2633	0	0.0222222
2634	0	0.0222222
2635	0	0.0222222
2636	0	0.0222222
2637	0	0.0222222
2638	0	0.0277778
2639	0	0.0277778
2640	0	0.214286
2641	0	0.285714
2642	0	0.285714
2643	0	0.4
2644	0	0.392857
2645	0	0.392857
2646	0	0.392857
2647	0	0.444444
2648	0	0.444444
2649	0	0.917028
2650	0	0.641304
2651	0	0.9
2652	0	0.985084
2653	0	0.985084
2654	0	0.986505
2655	0	0.986618
2656	0	0.986619
2657	0	0.986642
2658	0	0
2659	0	0
2660	0	0.333333
2661	0	0.333333
2662	0	0.333333
2663	0	0.991639
2664	0	0.991639
2665	0	0.991639
2666	0	0.991632
2667	0	0
2668	0	0
2669	0	0
2670	0	0.166667
2671	0	0.166667
2672	0	0.993307
2673	0	0.993307
2674	0	0.993307
2675	0	0.993307
2676	0	0.993307
2677	0	0.993307
2678	0	0.991636
2679	0	0.989979
2680	0	0.99164
2681	0	1
2682	0	0.996654
2683	0	0.998325
2684	0	0.998325
2685	0	0.998325
2686	0	0.998325
2687	0	0.998325
2688	0	0.998325
2689	1	1
2690	1	1
2691	1	1
2692	1	1
2693	1	1
2694	1	1
2695	1	1
2696	1	1
2697	1	1
2698	1	1
2699	1	1
2700	1	1
2701	1	1
2702	1	1
2703	1	1
2704	0	1
2705	0	1
2706	1	1
2707	0	0.988325
2708	0	0.998325
2709	0	0.998324
2710	1	0
2711	0	0.998325
2712	0	0.998325
2713	0	0.998314
2714	0	0.991653
2715	1	1
2716	0	0.998326
2717	0	0.998326
2718	0	0.998326
2719	0	0.998326
2720	0	0.998326
2721	0	0.998326
2722	0	0.998326
2723	0	0.998326
2724	0	0.998326
2725	0	0.998326
2726	0	0.998326
2727	0	0.998326
2728	0	0.998326
2729	0	0.998326
2730	0	0.998326
2731	0	0.998326
2732	1	1
2733	1	1
2734	1	1
2735	1	1
2736	1	1
2737	1	1
2738	1	1
2739	1	1
2740	0	0.998326
2741	0	0.998326
2742	0	0.998326
2743	0	0.998326
2744	0	0.998326
2745	0	0.998326
2746	0	0.998326
2747	0	0.998326
2748	0	0.998326
2749	0	0.998326
2750	1	1
2751	1	1
2752	1	1
2753	1	1
2754	1	1
2755	1	1
2756	1	1
2757	1	1
2758	1	1
2759	1	1
2760	1	1
2761	1	1
2762	1	1
2763	1	1
2764	1	1
2765	1	1
2766	1	0
2767	1	0
2768	1	0
2769	1	0
2770	1	0
2771	1	0
2772	1	0
2773	1	0
2774	1	0
2775	0	1
2776	0	1
2777	0	1
2778	0	1
2779	0	1
2780	0	1
2781	0	1
2782	0	1
2783	1	1
2784	1	1
2785	1	1
2786	1	1
2787	1	1
2788	1	1
2789	1	1
2790	1	1
2791	1	1
2792	1	1
2793	1	1
2794	1	1
2795	1	1
2796	1	1
2797	1	1
2798	1	1
2799	1	1
2800	1	1
2801	1	1
2802	1	1
2803	1	1
2804	0	0.998322
2805	0	0.998322
2806	0	0.998322
2807	0	0.998324
2808	0	0.998324
2809	0	0.998324
2810	0	0.998324
2811	0	0.998324
2812	0	0.998324
2813	0	0.998324
2814	0	0.998324
2815	1	1
2816	1	1
2817	1	1
2818	1	1
2819	1	1
2820	0	0.998324
2821	0	0.998324
2822	0	0.998324
2823	0	0.998324
2824	0	0.998324
2825	1	1
2826	1	1
2827	1	1
2828	1	1
2829	1	1
2830	1	1
2831	0	0.998322
2832	1	1
2833	1	1
2834	0	1
2835	0	0.998321
2836	1	1
2837	1	1
2838	1	1
2839	0	0.998322
2840	0	0.998322
2841	0	0.998322
2842	0	0.998319
2843	0	0.983232
2844	0	0.996629
2845	0	0
2846	0	0.996649
2847	0	0.998322
2848	0	0.998324
2849	1	1
2850	1	1
2851	0	0.998324
2852	0	0.998324
2853	0	0.998324
2854	0	0.998324
2855	0	0.996649
2856	1	1
2857	1	1
2858	0	0.998322
2859	0	0.998322
2860	0	0.998322
2861	0	0.998322
2862	0	0.998322
2863	0	0.998322
2864	0	0.998319
2865	0	0.998318
2866	0	0.998318
2867	0	0.998318
2868	0	0.998318
2869	0	0.998318
2870	0	0.998316
2871	0	0.998312
2872	0	0.998312
2873	0	0.998314
2874	0	0.998316
2875	0	0.994964
2876	0	1
2877	0	1
2878	1	1
2879	1	1
2880	0	0.52381
2881	0	0.737623
2882	0	0.551284
2883	0	0.443602
2884	0	0.646169
2885	0	0.388236
2886	0	0.462711
2887	0	0.931092
2888	0	0.993286
2889	0	0.998318
2890	0	0.998319
2891	0	0.998319
2892	0	0.998319
2893	1	1
2894	1	1
2895	1	1
2896	1	1
2897	1	1
2898	1	1
2899	0	0.994962
2900	0	0.989896
2901	0	0.91109
2902	0	0.68484
2903	0	0.971589
2904	0	0.54902
2905	0	0.54902
2906	0	0
2907	0	0
2908	0	0
2909	0	0
2910	0	0.991619
2911	0	0.989951
2912	0	0.989951
2913	0	0.867117
2914	0	0.867117
2915	0	1
2916	0	0.75
2917	0	1
2918	1	1
2919	1	1
2920	1	1
2921	1	1
2922	0	0.714286
2923	0	0.47619
2924	0	0.190476
2925	0	0.190476
2926	0	0.333333
2927	0	0.333333
2928	0	0.285714
2929	0	0.285714
2930	0	0.285714
2931	0	0.285714
2932	0	0.285714
2933	0	0.4
2934	0	0
2935	0	0
2936	0	0
2937	0	0
2938	0	0
2939	0	0
2940	0	0.978375
2941	0	0.988299
2942	0	0.989962
2943	0	0
2944	0	0
2945	0	0.989958
2946	0	0.994971
2947	0	0.994971
2948	0	0
2949	0	0
2950	0	0
2951	0	0
2952	0	0
2953	0	0
2954	0	0
2955	0	0
2956	0	0
2957	0	0
2958	0	0
2959	0	0
2960	0	0
2961	0	0
2962	0	0
2963	0	0
2964	0	0
2965	0	0
2966	0	0
2967	0	0
2968	0	0
2969	0	0
2970	0	0
2971	0	0
2972	0	0
2973	0	0
2974	0	0
2975	0	0
2976	0	0
2977	0	0
2978	0	0
2979	0	0
2980	0	0
2981	0	0
2982	0	0
2983	0	0
2984	0	0
2985	0	0
2986	0	0
2987	0	0
2988	0	0
2989	0	0
2990	0	0
2991	0	0
2992	0	0
2993	0	0
2994	0	0
2995	0	0
2996	0	0
2997	0	0
2998	0	0
2999	0	0
3000	0	0
3001	0	0
3002	0	0
3003	0	0
3004	0	0
3005	0	0
3006	0	0
3007	0	0
3008	0	0
3009	0	0
3010	0	0
3011	0	0
3012	0	0
3013	0	0
3014	0	0
3015	0	0
3016	0	0
3017	0	0
3018	0	0
3019	0	0
3020	0	0
3021	0	0
3022	0	0
3023	0	0
3024	0	0
3025	0	0
3026	0	0
3027	0	0
3028	0	0
3029	0	0
3030	0	0
3031	0	0
3032	0	0
3033	0	0
3034	0	0
3035	0	0
3036	0	0
3037	0	0
3038	0	0
3039	0	0
3040	0	0
3041	0	0
3042	0	0
3043	0	0
3044	0	0
3045	0	0
3046	0	0
3047	0	0
3048	0	0
3049	0	0
3050	0	0
3051	0	0
3052	0	0
3053	0	0
3054	0	0
3055	0	0
3056	0	0
3057	0	0
3058	0	0
3059	0	0
3060	0	0
3061	0	0
3062	0	0.998319
3063	0	0.998319
3064	0	0.998319
3065	0	0.998319
3066	0	0.998319
3067	0	0
3068	0	0
3069	0	0
3070	0	0
3071	0	0
3072	0	0
3073	0	0
3074	0	0
3075	0	0
3076	0	0
3077	0	0
3078	0	0
3079	0	0
3080	0	0
3081	0	0
3082	0	0
3083	0	0
3084	0	0
3085	0	0
3086	0	0
3087	0	0
3088	0	0
3089	0	0
3090	0	0
3091	0	0
3092	0	0
3093	0	0
3094	0	0
3095	0	0
3096	0	0
3097	0	0
3098	0	0
3099	0	0
3100	0	0
3101	0	0
3102	0	0
3103	0	0
3104	0	0
3105	0	0
3106	0	0
3107	0	0
3108	0	0
3109	0	0
3110	0	0
3111	0	0
3112	0	0
3113	0	0
3114	0	0
3115	0	0
3116	0	0
3117	0	0
3118	0	0
3119	0	0
3120	0	0
3121	0	0
3122	0	0
3123	0	0
3124	0	0
3125	0	0
3126	0	0
3127	0	0
3128	0	0
3129	0	0
3130	0	0
3131	0	0
3132	0	0
3133	0	0
3134	0	0
3135	0	0
3136	0	0
3137	0	0
3138	0	0
3139	0	0
3140	0	0
3141	0	0
3142	0	0
3143	0	0
3144	0	0
3145	0	0
3146	0	0
3147	0	0
3148	0	0
3149	0	0
3150	0	0
3151	0	0
3152	0	0
3153	0	0
3154	0	0.998319
3155	0	0.998319
3156	0	0.996643
3157	0	0.996643
3158	0	0.996643
3159	0	0.996643
3160	0	0
3161	0	0
3162	0	0
3163	0	0
3164	0	0
3165	0	0
3166	0	0
3167	0	0
3168	0	0
3169	0	0
3170	0	0
3171	0	0
3172	0	0
3173	0	0
3174	0	0
3175	0	0
3176	0	0
3177	0	0
3178	0	0
3179	0	0
3180	0	0
3181	0	0
3182	0	0
3183	0	0
3184	0	0
3185	0	0
3186	0	0
3187	0	0.99664
3188	0	0
3189	0	0
3190	0	0
3191	0	0
3192	0	0
3193	0	0
3194	0	0
3195	0	0
3196	0	0
3197	0	0
3198	0	0
3199	0	0
3200	0	0
3201	0	0
3202	0	0
3203	0	0
3204	0	0
3205	0	0
3206	0	0
3207	0	0
3208	0	0
3209	0	0
3210	0	0
3211	0	0
3212	0	0.994962
3213	0	0.994962
3214	0	0.991612
3215	0	0.994962
3216	0	0.994962
3217	0	0.994962
3218	1	0
3219	1	0
3220	1	0
3221	1	0
3222	1	0
3223	1	0
3224	1	0
3225	1	0
3226	1	0
3227	1	0
3228	1	0
3229	1	0
3230	0	0
3231	0	0
3232	0	0
3233	0	0
3234	0	0
3235	0	0
3236	0	0
3237	0	0
3238	0	0
3239	0	0
3240	0	0
3241	0	0
3242	0	0
3243	0	0
3244	0	0
3245	0	0
3246	0	0
3247	0	0
3248	0	0
3249	0	0
3250	0	0
3251	0	0
3252	0	0
3253	0	0
3254	0	0
3255	0	0
3256	0	0
3257	0	0
3258	0	0
3259	0	0
3260	0	0
3261	0	0
3262	0	0
3263	0	0
3264	0	0
3265	0	0
3266	0	0
3267	0	0
3268	0	0
3269	0	0
3270	0	0
3271	0	0
3272	0	0
3273	0	0
3274	0	0
3275	0	0
3276	0	0
3277	0	0.6
3278	0	0.6
3279	0	0.6
3280	0	0.6
3281	0	0.6
3282	0	0.6
3283	0	0.986569
3284	0	0.986569
3285	0	0.986546
3286	0	0.986546
3287	0	0.986535
3288	0	0.951847
3289	0	0.98151
3290	0	0
3291	0	0
3292	0	0
3293	0	0
3294	0	0
3295	0	0
3296	0	0
3297	0	0
3298	0	0
3299	0	0
3300	0	0
3301	0	0
3302	0	0
3303	0	0
3304	0	0
3305	0	0.973113
3306	0	0
3307	0	0
3308	0	0
3309	0	0
3310	0	0
3311	0	0
3312	0	0
3313	0	0
3314	0	0
3315	0	0
3316	0	0
3317	0	0
3318	0	0
3319	0	0
3320	0	0
3321	0	0
3322	0	0
3323	0	0
3324	0	0
3325	0	0
3326	0	0
3327	0	0
3328	0	0
3329	0	0
3330	0	0
3331	0	0
3332	0	0
3333	0	0
3334	0	0
3335	0	0
3336	0	0
3337	0	0
3338	0	0
3339	0	0
3340	0	0
3341	0	0
3342	0	0
3343	0	0
3344	0	0
3345	0	0
3346	0	0
3347	0	0
3348	0	0
3349	0	0
3350	0	0
3351	0	0
3352	0	0
3353	0	0
3354	0	0
3355	0	0
3356	0	0
3357	0	0
3358	0	0
3359	0	0.97294
3360	0	0.97294
3361	0	1
3362	0	0.488636
3363	0	0.282514
3364	0	0.236111
3365	0	0.234868
3366	0	0.849924
3367	0	0.6
3368	0	0.321429
3369	0	0.214286
3370	0	0.142857
3371	0	0.333333
3372	0	0.851854
3373	0	0.4
3374	0	0.797189
3375	0	0.153846
3376	0	0.498413
3377	0	0.218182
3378	0	0.2
3379	0	0.362069
3380	0	0.583747
3381	0	0.6
3382	0	0.6
3383	0	0.298851
3384	0	0.487356
3385	0	0.594482
3386	0	0
3387	0	0
3388	0	0.333333
3389	0	0.156322
3390	0	0.183838
3391	0	0.544237
3392	0	0.543495
3393	0	0
3394	0	0
3395	0	0
3396	0	0
3397	0	0
3398	0	0
3399	0	0
3400	0	0.971831
3401	0	0.971831
3402	0	0.470513
3403	0	0.275036
3404	0	0.290244
3405	0	0.250871
3406	0	0.203209
3407	0	0.329047
3408	0	0.35468
3409	0	0.216667
3410	0	0.118577
3411	0	0.121212
3412	0	0.135632
3413	0	0.337955
3414	0	0.571154
3415	0	0.105413
3416	0	0.116667
3417	0	0.211176
3418	0	0.215686
3419	0	0.136832
3420	0	0.120188
3421	0	0.160612
3422	0	0.476064
3423	0	0.370707
3424	0	0.156463
3425	0	0.196925
3426	0	0.269043
3427	0	0.269043
3428	0	0.135838
3429	0	0.360696
3430	0	0.452206
3431	0	1
3432	0	1
3433	0	1
3434	0	0.333333
3435	0	0.333333
3436	0	0.333333
3437	0	0.333333
3438	0	0.166667
3439	0	0.104762
3440	0	0.0952381
3441	0	0.0952381
3442	0	0.537305
3443	0	0.186813
3444	0	0.24359
3445	0	0.24359
3446	0	0.0952381
3447	0	0.0952381
3448	0	0.535632
3449	0	0.181386
3450	0	0.209836
3451	0	0.397469
3452	0	0.408079
3453	0	0.386318
3454	0	0
3455	0	0
3456	0	0
3457	0	0
3458	0	0
3459	0	0
3460	0	0
3461	0	0
3462	0	0
3463	0	0
3464	0	0
3465	0	0
3466	0	0
3467	0	0
3468	0	0
3469	0	0
3470	0	0
3471	0	0
3472	0	0
3473	0	0
3474	0	0
3475	0	0
3476	0	0
3477	0	0
3478	0	0
3479	0	0
3480	0	0.0222222
3481	0	0.0363636
3482	0	0.0545455
3483	0	0.0181818
3484	0	0.890336
3485	0	0.837729
3486	0	0.834433
3487	0	0.163993
3488	0	0.202299
3489	0	0.0988142
3490	0	0.1
3491	0	0.0952381
3492	0	0.115385
3493	0	0.181818
3494	0	0.285714
3495	0	0.285714
3496	0	0.2
3497	0	0.2
3498	0	0.2
3499	0	0.142857
3500	0	0.142857
3501	0	0.047619
3502	0	0.047619
3503	0	0.047619
3504	0	0.047619
3505	0	0.047619
3506	0	0.0666667
3507	0	0.0666667
3508	0	0.0666667
3509	0	0.0666667
3510	0	0.0666667
3511	0	0.0666667
3512	0	0.0666667
3513	0	0.0666667
3514	0	0.0666667
3515	0	0.0666667
3516	0	0.0666667
3517	0	0.0666667
3518	0	0.0666667
3519	0	0.0666667
3520	0	0.0666667
3521	0	0.0666667
3522	0	0.0666667
3523	0	0.0666667
3524	0	0.0666667
3525	0	0.0666667
3526	0	0.0666667
3527	0	0.0666667
3528	0	0.0666667
3529	0	0.0666667
3530	0	0.0666667
3531	0	0.0666667
3532	0	0.0666667
3533	0	0.0666667
3534	0	0.0666667
3535	0	0.0666667
3536	0	0.0666667
3537	0	0.0666667
3538	0	0.0666667
3539	0	0.0666667
3540	0	0.0666667
3541	0	0.0666667
3542	0	0.0666667
3543	0	0.0666667
3544	0	0.0666667
3545	0	0.0666667
3546	0	0.1
3547	0	0.1
3548	0	0.1
3549	0	0
3550	0	0
3551	0	0
3552	0	0
3553	0	0
3554	0	0
3555	0	0
3556	0	0
3557	0	0
3558	0	0
3559	0	0.1
3560	0	0.1
3561	0	0.1
3562	0	0.1
3563	0	0.1
3564	0	0.1
3565	0	0.1
3566	0	0.1
3567	0	0.1
3568	0	0.1
3569	0	0.1
3570	0	0.1
3571	0	0.1
3572	0	0.1
3573	0	0.1
3574	0	0.1
3575	0	0.1
3576	0	0.1
3577	0	0.1
3578	0	0.1
3579	0	0.1
3580	0	0.1
3581	0	0.1
3582	0	0.1
3583	0	0.1
3584	0	0.1
3585	0	0.1
3586	0	0.1
3587	0	0.0666667
3588	0	0.0666667
3589	0	0.0666667
3590	0	0.0666667
3591	0	0.0666667
3592	0	0.0666667
3593	0	0.0666667
3594	0	0.0666667
3595	0	0.0666667
3596	0	0.0666667
3597	0	0.0666667
3598	0	0.0666667
3599	0	0.0666667
3600	0	0.0666667
3601	0	0
3602	0	0.0666667
3603	0	0.0666667
3604	0	0.0666667
3605	0	0.0666667
3606	0	0.1
3607	0	0.1
3608	0	0.1
3609	0	0.1
3610	0	0.1
3611	0	0.1
3612	0	0.1
3613	0	0.1
3614	0	0.1
3615	0	0.1
3616	0	0.1
3617	0	0.1
3618	0	0.1
3619	0	0.1
3620	0	0.1
3621	0	0.1
3622	0	0.1
3623	0	0.1
3624	0	0.1
3625	0	0.1
3626	0	0.1
3627	0	0.1
3628	0	0.1
3629	0	0.1
3630	0	0.0666667
3631	0	0.0666667
3632	0	0.0666667
3633	0	0.0666667
3634	0	0.0666667
3635	0	0.0666667
3636	0	0.0666667
3637	0	0.0666667
3638	0	0.0666667
3639	0	0.0666667
3640	0	0.0666667
3641	0	0.0666667
3642	0	0.0666667
3643	0	0.0666667
3644	0	0.0666667
3645	0	0.0666667
3646	0	0.0666667
3647	0	0.0666667
3648	0	0.0666667
3649	0	0.0666667
3650	0	0.0666667
3651	0	0.0666667
3652	0	0.0666667
3653	0	0.0666667
3654	0	0.0666667
3655	0	0.0666667
3656	0	0.0666667
3657	0	0.0666667
3658	0	0.0666667
3659	0	0.0666667
3660	0	0.0666667
3661	0	0.0666667
3662	0	0.0666667
3663	0	0.0666667
3664	0	0.0666667
3665	0	0.0666667
3666	0	0.0666667
3667	0	0.0666667
3668	0	0.0666667
3669	0	0.0666667
3670	0	0.0666667
3671	0	0.0666667
3672	0	0.0666667
3673	0	0.0666667
3674	0	0.0666667
3675	0	0.0666667
3676	0	0.0666667
3677	0	0.0666667
3678	0	0.0666667
3679	0	0.0666667
3680	0	0.0666667
3681	0	0.0666667
3682	0	0.0666667
3683	0	0.0666667
3684	0	0.0666667
3685	0	0.0666667
3686	0	0.0666667
3687	0	0.0666667
3688	0	0.0666667
3689	0	0.0666667
3690	0	0.0666667
3691	0	0.0666667
3692	0	0.0666667
3693	0	0.0666667
3694	0	0.0666667
3695	0	0.0666667
3696	0	0.0666667
3697	0	0.0666667
3698	0	0.0666667
3699	0	0.0666667
3700	0	0.0666667
3701	0	0.0666667
3702	0	0.0666667
3703	0	0.0666667
3704	0	0.0666667
3705	0	0.0666667
3706	0	0.0666667
3707	0	0.0666667
3708	0	0.0666667
3709	0	0.0666667
3710	0	0.0666667
3711	0	0.0666667
3712	0	0.0666667
3713	0	0.0666667
3714	0	0.0666667
3715	0	0.0666667
3716	0	0.0666667
3717	0	0.0666667
3718	0	0.0666667
3719	0	0.0666667
3720	0	0.0666667
3721	0	0.0666667
3722	0	0.0666667
3723	0	0.0666667
3724	0	0.0666667
3725	0	0.0666667
3726	0	0.0666667
3727	0	0.0666667
3728	0	0.0666667
3729	0	0.0666667
3730	0	0.0666667
3731	0	0.0666667
3732	0	0.0666667
3733	0	0.0666667
3734	0	0.0666667
3735	0	0.0666667
3736	0	0.0666667
3737	0	0.0666667
3738	0	0.0666667
3739	0	0.0666667
3740	0	0.0666667
3741	0	0.0666667
3742	0	0.0666667
3743	0	0.0666667
3744	0	0.0666667
3745	0	0.0666667
3746	0	0.0666667
3747	0	0.0666667
3748	0	0.0666667
3749	0	0.0666667
3750	0	0.0666667
3751	0	0.0666667
3752	0	0.0666667
3753	0	0.0666667
3754	0	0.0666667
3755	0	0.0666667
3756	0	0.0666667
3757	0	0.0666667
3758	0	0.0666667
3759	0	0.0666667
3760	0	0.0666667
3761	0	0.0666667
3762	0	0.0666667
3763	0	0.0666667
3764	0	0.0666667
3765	0	0.0666667
3766	0	0.0666667
3767	0	0.0666667
3768	0	0.0666667
3769	0	0.0666667
3770	0	0.0666667
3771	0	0.0666667
3772	0	0.0666667
3773	0	0.0666667
3774	0	0.1
3775	0	0.1
3776	0	0.1
3777	0	0.1
3778	0	0.1
3779	0	0.1
3780	0	0.1
3781	0	0.1
3782	0	0.1
3783	0	0.1
3784	0	0.1
3785	0	0.1
3786	0	0.1
3787	0	0.1
3788	0	0.1
3789	0	0.1
3790	0	0.1
3791	0	0.1
3792	0	0.1
3793	0	0.1
3794	0	0.1
3795	0	0.1
3796	0	0.1
3797	0	0.1
3798	0	0.1
3799	0	0.1
3800	0	0.1
3801	0	0.1
3802	0	0.1
3803	0	0.1
3804	0	0.1
3805	0	0.1
3806	0	0.1
3807	0	0.1
3808	0	0.1
3809	0	0.1
3810	0	0.1
3811	0	0.1
3812	0	0.1
3813	0	0.1
3814	0	0.1
3815	0	0.1
3816	0	0.1
3817	0	0.1
3818	0	0.1
3819	0	0.1
3820	0	0.1
3821	0	0.1
3822	0	0.1
3823	0	0.1
3824	0	0.1
3825	0	0.1
3826	0	0.1
3827	0	0.1
3828	0	0.1
3829	0	0.1
3830	0	0.1
3831	0	0.1
3832	0	0.1
3833	0	0.1
3834	0	0.1
3835	0	0.1
3836	0	0.1
3837	0	0.1
3838	0	0.1
3839	0	0.1
3840	0	0.1
3841	0	0.1
3842	0	0.1
3843	0	0.1
3844	0	0.1
3845	0	0.1
3846	0	0.1
3847	0	0.1
3848	0	0.1
3849	0	0.1
3850	0	0.1
3851	0	0.1
3852	0	0.1
3853	0	0.1
3854	0	0.1
3855	0	0.1
3856	0	0.1
3857	0	0.1
3858	0	0.1
3859	0	0.1
3860	0	0.1
3861	0	0.1
3862	0	0.1
3863	0	0.1
3864	0	0.1
3865	0	0.1
3866	0	0.1
3867	0	0.1
3868	0	0.1
3869	0	0.1
3870	0	0.1
3871	0	0.1
3872	0	0.1
3873	0	0.1
3874	0	0.1
3875	0	0.1
3876	0	0.1
3877	0	0.1
3878	0	0.1
3879	0	0.1
3880	0	0.1
3881	0	0.1
3882	0	0.1
3883	0	0.1
3884	0	0.1
3885	0	0.1
3886	0	0.1
3887	0	0.1
3888	0	0.1
3889	0	0.1
3890	0	0.1
3891	0	0.1
3892	0	0.1
3893	0	0.1
3894	0	0.1
3895	0	0.1
3896	0	0.1
3897	0	0.1
3898	0	0.1
3899	0	0.1
3900	0	0.1
3901	0	0.1
3902	0	0.1
3903	0	0.1
3904	0	0.1
3905	0	0.1
3906	0	0.1
3907	0	0.1
3908	0	0.1
3909	0	0.1
3910	0	0.1
3911	0	0.1
3912	0	0.1
3913	0	0.1
3914	0	0.1
3915	0	0.1
3916	0	0.1
3917	0	0.1
3918	0	0.1
3919	0	0.1
3920	0	0.1
3921	0	0.1
3922	0	0.1
3923	0	0.1
3924	0	0.1
3925	0	0.1
3926	0	0.1
3927	0	0.1
3928	0	0.1
3929	0	0.1
3930	0	0.1
3931	0	0.1
3932	0	0.1
3933	0	0.1
3934	0	0.1
3935	0	0.1
3936	0	0.1
3937	0	0.1
3938	0	0.1
3939	0	0.1
3940	0	0.1
3941	0	0.1
3942	0	0.1
3943	0	0.1
3944	0	0.1
3945	0	0.1
3946	0	0.1
3947	0	0.1
3948	0	0.1
3949	0	0.1
3950	0	0.1
3951	0	0.1
3952	0	0.1
3953	0	0.1
3954	0	0.1
3955	0	0.1
3956	0	0.1
3957	0	0.1
3958	0	0.1
3959	0	0.1
3960	0	0.1
3961	0	0.1
3962	0	0.1
3963	0	0.1
3964	0	0.1
3965	0	0.1
3966	0	0.1
3967	0	0.1
3968	0	0.1
3969	0	0.1
3970	0	0.1
3971	0	0.1
3972	0	0.1
3973	0	0.1
3974	0	0.1
3975	0	0.1
3976	0	0.1
3977	0	0.1
3978	0	0.1
3979	0	0.1
3980	0	0.1
3981	0	0.1
3982	0	0.1
3983	0	0.1
3984	0	0.1
3985	0	0.1
3986	0	0.1
3987	0	0.1
3988	0	0.1
3989	0	0.1
3990	0	0.1
3991	0	0.1
3992	0	0.1
3993	0	0.1
3994	0	0.1
3995	0	0.1
3996	0	0.1
3997	0	0.1
3998	0	0.1
3999	0	0.1
4000	0	0.1
4001	0	0.1
4002	0	0.1
4003	0	0.1
4004	0	0.1
4005	0	0.1
4006	0	0.1
4007	0	0.1
4008	0	0.1
4009	0	0.1
4010	0	0.1
4011	0	0.1
4012	0	0.1
4013	0	0.1
4014	0	0.1
4015	0	0.1
4016	0	0.1
4017	0	0.1
4018	0	0.1
4019	0	0.1
4020	0	0.1
4021	0	0.1
4022	0	0.1
4023	0	0.1
4024	0	0.1
4025	0	0.1
4026	0	0.1
4027	0	0.1
4028	0	0.1
4029	0	0.1
4030	0	0.1
4031	0	0.1
4032	0	0.1
4033	0	0.1
4034	0	0.1
4035	0	0.1
4036	0	0.1
4037	0	0.1
4038	0	0.1
4039	0	0.1
4040	0	0.1
4041	0	0.1
4042	0	0.1
4043	0	0.1
4044	0	0.1
4045	0	0.1
4046	0	0.1
4047	0	0.1
4048	0	0.1
4049	0	0.1
4050	0	0.1
4051	0	0.1
4052	0	0.1
4053	0	0.1
4054	0	0.1
4055	0	0.1
4056	0	0.1
4057	0	0.1
4058	0	0.1
4059	0	0.1
4060	0	0.1
4061	0	0.1
4062	0	0.1
4063	0	0.1
4064	0	0.1
4065	0	0.1
4066	0	0.1
4067	0	0.1
4068	0	0.1
4069	0	0.1
4070	0	0.1
4071	0	0.1
4072	0	0.1
4073	0	0.1
4074	0	0.1
4075	0	0.1
4076	0	0.1
4077	0	0.1
4078	0	0.1
4079	0	0.1
4080	0	0.1
4081	0	0.1
4082	0	0.1
4083	0	0.1
4084	0	0.1
4085	0	0.1
4086	0	0.1
4087	0	0.1
4088	0	0.1
4089	0	0.1
4090	0	0.1
4091	0	0.1
4092	0	0.1
4093	0	0.1
4094	0	0.1
4095	0	0.1
4096	0	0.1
4097	0	0.1
4098	0	0.1
4099	0	0.1
4100	0	0.1
4101	0	0.1
4102	0	0.1
4103	0	0.1
4104	0	0.1
4105	0	0.1
4106	0	0
4107	0	0
4108	0	0
4109	0	0
4110	0	0
4111	0	0
4112	0	0
4113	0	0
4114	0	0
4115	0	0
4116	0	0
4117	0	0
4118	0	0
4119	0	0
4120	0	0
4121	0	0
4122	0	0
4123	0	0
4124	0	0.1
4125	0	0.1
4126	0	0.1
4127	0	0.1
4128	0	0.1
4129	0	0.1
4130	0	0.1
4131	0	0.1
4132	0	0.1
4133	0	0.1
4134	0	0.1
4135	0	0.1
4136	0	0.1
4137	0	0.1
4138	0	0.1
4139	0	0.1
4140	0	0.1
4141	0	0.1
4142	0	0.1
4143	0	0.1
4144	0	0.1
4145	0	0.1
4146	0	0.1
4147	0	0.1
4148	0	0.1
4149	0	0.1
4150	0	0.1
4151	0	0.1
4152	0	0.1
4153	0	0.1
4154	0	0.1
4155	0	0.1
4156	0	0.1
4157	0	0.1
4158	0	0.1
4159	0	0.1
4160	0	0.1
4161	0	0.1
4162	0	0.1
4163	0	0.1
4164	0	0.1
4165	0	0.1
4166	0	0.1
4167	0	0.1
4168	0	0.1
4169	0	0.1
4170	0	0.1
4171	0	0.1
4172	0	0.1
4173	0	0.1
4174	0	0.1
4175	0	0.1
4176	0	0.1
4177	0	0.1
4178	0	0.1
4179	0	0.1
4180	0	0.1
4181	0	0.1
4182	0	0.1
4183	0	0.1
4184	0	0.1
4185	0	0
4186	0	0
4187	0	0
4188	0	0.1
4189	0	0.1
4190	0	0.1
4191	0	0.1
4192	0	0.1
4193	0	0.1
4194	0	0.1
4195	0	0.1
4196	0	0.1
4197	0	0.1
4198	0	0.1
4199	0	0.1
4200	0	0.1
4201	0	0.1
4202	0	0.1
4203	0	0.1
4204	0	0.1
4205	0	0.1
4206	0	0.1
4207	0	0.1
4208	0	0.1
4209	0	0.1
4210	0	0.1
4211	0	0.1
4212	0	0.1
4213	0	0.1
4214	0	0.1
4215	0	0.1
4216	0	0.1
4217	0	0.1
4218	0	0.1
4219	0	0.1
4220	0	0.1
4221	0	0.1
4222	0	0.1
4223	0	0.1
4224	0	0.1
4225	0	0.1
4226	0	0.1
4227	0	0.1
4228	0	0.1
4229	0	0.1
4230	0	0.1
4231	0	0.1
4232	0	0.1
4233	0	0.1
4234	0	0.1
4235	0	0.1
4236	0	0.1
4237	0	0.1
4238	0	0.1
4239	0	0.1
4240	0	0.1
4241	0	0.1
4242	0	0.1
4243	0	0.1
4244	0	0.1
4245	0	0.1
4246	0	0.1
4247	0	0.1
4248	0	0.1
4249	0	0.1
4250	0	0.1
4251	0	0.1
4252	0	0.1
4253	0	0.1
4254	0	0.1
4255	0	0.1
4256	0	0.1
4257	0	0.1
4258	0	0.1
4259	0	0.1
4260	0	0.1
4261	0	0.1
4262	0	0.1
4263	0	0.1
4264	0	0.1
4265	0	0.1
4266	0	0.1
4267	0	0.1
4268	0	0.1
4269	0	0.1
4270	0	0.1
4271	0	0.1
4272	0	0.1
4273	0	0.1
4274	0	0.1
4275	0	0.1
4276	0	0.1
4277	0	0.1
4278	0	0.1
4279	0	0.1
4280	0	0.1
4281	0	0.1
4282	0	0.1
4283	0	0.1
4284	0	0.1
4285	0	0.1
4286	0	0.1
4287	0	0.1
4288	0	0.1
4289	0	0.1
4290	0	0.1
4291	0	0.1
4292	0	0.1
4293	0	0.1
4294	0	0.1
4295	0	0.1
4296	0	0.1
4297	0	0.1
4298	0	0.1
4299	0	0.1
4300	0	0.1
4301	0	0.1
4302	0	0.142857
4303	0	0.244444
4304	0	0.290909
4305	0	0.333333
4306	0	0.333333
4307	0	0.333333
4308	0	0.701151
4309	0	0.1
4310	0	0.133333
4311	0	0.608198
4312	0	0.101282
4313	0	0.0705645
4314	0	0.07
4315	0	0.0761905
4316	0	0.0514706
4317	0	0.0416667
4318	0	0.047619
4319	0	0.0512821
4320	0	0.0512821
4321	0	0.0512821
4322	0	0.0512821
4323	0	0.025641
4324	0	0.025641
4325	0	0.025641
4326	0	0.025641
4327	0	0.025641
4328	0	0.025641
4329	0	0.025641
4330	0	0.030303
4331	0	0.0181818
4332	0	0.0181818
4333	0	0.0181818
4334	0	0.0181818
4335	0	0.0181818
4336	0	0.0181818
4337	0	0.0181818
4338	0	0.0151515
4339	0	0.0151515
4340	0	0.0151515
4341	0	0.0151515
4342	0	0.0151515
4343	0	0.0151515
4344	0	0.0151515
4345	0	0.0151515
4346	0	0.0151515
4347	0	0.0151515
4348	0	0.0151515
4349	0	0.0151515
4350	0	0.0151515
4351	0	0.0151515
4352	0	0.0151515
4353	0	0.0151515
4354	0	0.0151515
4355	0	0.0151515
4356	0	0.0151515
4357	0	0.0151515
4358	0	0.0151515
4359	0	0.0151515
4360	0	0.0151515
4361	0	0.0151515
4362	0	0.0151515
4363	0	0.0151515
4364	0	0.0151515
4365	0	0.0151515
4366	0	0.0151515
4367	0	0.0151515
4368	0	0.0151515
4369	0	0.0151515
4370	0	0.0151515
4371	0	0.0151515
4372	0	0.0151515
4373	0	0.0151515
4374	0	0.0151515
4375	0	0.0151515
4376	0	0.0151515
4377	0	0.0151515
4378	0	0.0151515
4379	0	0.0151515
4380	0	0.0151515
4381	0	0.0151515
4382	0	0.0151515
4383	0	0.0151515
4384	0	0.0151515
4385	0	0.0151515
4386	0	0.0151515
4387	0	0.0151515
4388	0	0.0151515
4389	0	0.0151515
4390	0	0.0151515
4391	0	0.0151515
4392	0	0.0151515
4393	0	0.0151515
4394	0	0.0151515
4395	0	0.0151515
4396	0	0.0151515
4397	0	0.0151515
4398	0	0.0151515
4399	0	0.0151515
4400	0	0.0151515
4401	0	0.0151515
4402	0	0.0151515
4403	0	0.0151515
4404	0	0.0151515
4405	0	0.0151515
4406	0	0.0151515
4407	0	0.0151515
4408	0	0.0151515
4409	0	0.0151515
4410	0	0.0151515
4411	0	0.0151515
4412	0	0.0151515
4413	0	0.0151515
4414	0	0.0151515
4415	0	0.0151515
4416	0	0.0151515
4417	0	0.0151515
4418	0	0.0151515
4419	0	0.0151515
4420	0	0.0151515
4421	0	0.0181818
4422	0	0.0181818
4423	0	0.0181818
4424	0	0.0181818
4425	0	0.0181818
4426	0	0.0181818
4427	0	0.0181818
4428	0	0.0181818
4429	0	0.0181818
4430	0	0.0181818
4431	0	0.0181818
4432	0	0.0181818
4433	0	0.0181818
4434	0	0.0181818
4435	0	0.0181818
4436	0	0.0222222
4437	0	0.0222222
4438	0	0.0222222
4439	0	0.0222222
4440	0	0.0222222
4441	0	0.0222222
4442	0	0.0222222
4443	0	0.0222222
4444	0	0.0222222
4445	0	0.0222222
4446	0	0.0222222
4447	0	0.0222222
4448	0	0.0222222
4449	0	0.0222222
4450	0	0.0222222
4451	0	0.0277778
4452	0	0.0277778
4453	0	0.0357143
4454	0	0.0357143
4455	0	0.0357143
4456	0	0.0357143
4457	0	0.0357143
4458	0	0.0357143
4459	0	0.0357143
4460	0	0.0357143
4461	0	0.0357143
4462	0	0.0357143
4463	0	0.0357143
4464	0	0.0357143
4465	0	0.0357143
4466	0	0.0357143
4467	0	0.0357143
4468	0	0.0357143
4469	0	0.0357143
4470	0	0.0357143
4471	0	0.0714286
4472	0	0.0714286
4473	0	0.0714286
4474	0	0.0714286
4475	0	0.0714286
4476	0	0.0357143
4477	0	0
4478	0	0
4479	0	0.0357143
4480	0	0.0357143
4481	0	0.0357143
4482	0	0.0357143
4483	0	0.0357143
4484	0	0.0357143
4485	0	0.0357143
4486	0	0.0714286
4487	0	0.0714286
4488	0	0.0714286
4489	0	0.0714286
4490	0	0.0714286
4491	0	0.0357143
4492	0	0.0357143
4493	0	0.0357143
4494	0	0.0357143
4495	0	0.0357143
4496	0	0.0357143
4497	0	0.0357143
4498	0	0.0357143
4499	0	0.0357143
4500	0	0.0357143
4501	0	0.0357143
4502	0	0.0357143
4503	0	0.0357143
4504	0	0.0357143
4505	0	0.0357143
4506	0	0.0357143
4507	0	0.0357143
4508	0	0.0357143
4509	0	0.0357143
4510	0	0.0357143
4511	0	0.0357143
4512	0	0.047619
4513	0	0.047619
4514	0	0.047619
4515	0	0.047619
4516	0	0.047619
4517	0	0.047619
4518	0	0.047619
4519	0	0.047619
4520	0	0.047619
4521	0	0.047619
4522	0	0.047619
4523	0	0.047619
4524	0	0.047619
4525	0	0.047619
4526	0	0.047619
4527	0	0.047619
4528	0	0.047619
4529	0	0.047619
4530	0	0.047619
4531	0	0.047619
4532	0	0.0666667
4533	0	0.0666667
4534	0	0.0666667
4535	0	0.1
4536	0	0.1
4537	0	0.1
4538	0	0.1
4539	0	0.1
4540	0	0.1
4541	0	0.1
4542	0	0.1
4543	0	0.1
4544	0	0.1
4545	0	0.1
4546	0	0.1
4547	0	0.1
4548	0	0.1
4549	0	0.1
4550	0	0.1
4551	0	0.1
4552	0	0.1
4553	0	0.1
4554	0	0.1
4555	0	0.1
4556	0	0.1
4557	0	0.1
4558	0	0.1
4559	0	0.1
4560	0	0.1
4561	0	0.1
4562	0	0.1
4563	0	0.1
4564	0	0.1
4565	0	0.1
4566	0	0.0666667
4567	0	0.0666667
4568	0	0.0666667
4569	0	0.175824
4570	0	0.152381
4571	0	0.0666667
4572	0	0.0666667
4573	0	0.0666667
4574	0	0.205534
4575	0	0.205534
4576	0	0.0666667
4577	0	0.0666667
4578	0	0.1
4579	0	0.1
4580	0	0.1
4581	0	0.166667
4582	0	0.166667
4583	0	0.166667
4584	0	0.166667
4585	0	0.166667
4586	0	0.166667
4587	0	0.166667
4588	0	0.166667
4589	0	0.166667
4590	0	0.166667
4591	0	0.166667
4592	0	0.166667
4593	0	0.166667
4594	0	0.166667
4595	0	0.166667
4596	0	0.166667
4597	0	0.333333
4598	0	0.333333
4599	0	0.333333
4600	0	0.333333
4601	0	0.333333
4602	0	0.333333
4603	0	0.333333
4604	0	0
4605	0	0
4606	0	0
4607	0	0
4608	0	0
4609	0	0
4610	0	0
4611	0	0
4612	0	0
4613	0	0
4614	0	0
4615	0	0
4616	0	0
4617	0	0
4618	0	0
4619	0	0
4620	0	0
4621	0	0
4622	0	0
4623	0	0
4624	0	0
4625	0	0
4626	0	0
4627	0	0
4628	0	0
4629	0	0
4630	0	0
4631	0	0
4632	0	0
4633	0	0
4634	0	0
4635	0	0
4636	0	0
4637	0	0
4638	0	0
4639	0	0
4640	0	0
4641	0	0
4642	0	0
4643	0	0
4644	0	0
4645	0	0
4646	0	0
4647	0	0
4648	0	0
4649	0	0
4650	0	0
4651	0	0
4652	0	0
4653	0	0
4654	0	0
4655	0	0
4656	0	0
4657	0	0
4658	0	0
4659	0	0
4660	0	0
4661	0	0
4662	0	0
4663	0	0
4664	0	0
4665	0	0
4666	0	0
4667	0	0
4668	0	0
4669	0	0
4670	0	0
4671	0	0
4672	0	0
4673	0	0
4674	0	0
4675	0	0
4676	0	0
4677	0	0
4678	0	0
4679	0	0
4680	0	0
4681	0	0
4682	0	0
4683	0	0
4684	0	0
4685	0	0
4686	0	0
4687	0	0
4688	0	0
4689	0	0
4690	0	0
4691	0	0
4692	0	0
4693	0	0
4694	0	0
4695	0	0
4696	0	0
4697	0	0
4698	0	0
4699	0	0
4700	0	0
4701	0	0
4702	0	0
4703	0	0
4704	0	0
4705	0	0
4706	0	0
4707	0	0
4708	0	0
4709	0	0
4710	0	0
4711	0	0
4712	0	0
4713	0	0
4714	0	0
4715	0	0
4716	0	0
4717	0	0
4718	0	0
4719	0	0
4720	0	0
4721	0	0
4722	0	0
4723	0	0
4724	0	0
4725	0	0
4726	0	0
4727	0	0
4728	0	0
4729	0	0
4730	0	0
4731	0	0
4732	0	0
4733	0	0
4734	0	0
4735	0	0
4736	0	0
4737	0	0
4738	0	0
4739	0	0
4740	0	0
4741	0	0
4742	0	0
4743	0	0
4744	0	0
4745	0	0
4746	0	0
4747	0	0
4748	0	0
4749	0	0
4750	0	0
4751	0	0
4752	0	0
4753	0	0
4754	0	0
4755	0	0
4756	0	0
4757	0	0
4758	0	0
4759	0	0
4760	0	0
4761	0	0
4762	0	0
4763	0	0
4764	0	0
4765	0	0
4766	0	0
4767	0	0
4768	0	0
4769	0	0
4770	0	0
4771	0	0
4772	0	0
4773	0	0
4774	0	0
4775	0	0
4776	0	0
4777	0	0
4778	0	0
4779	0	0
4780	0	0
4781	0	0
4782	0	0
4783	0	0
4784	0	0
4785	0	0
4786	0	0
4787	0	0
4788	0	0
4789	0	0
4790	0	0
4791	0	0
4792	0	0
4793	0	0
4794	0	0
4795	0	0
4796	0	0
4797	0	0
4798	0	0
4799	0	0
4800	0	0
4801	0	0
4802	0	0
4803	0	0
4804	0	0
4805	0	0
4806	0	0
4807	0	0
4808	0	0
4809	0	0
4810	0	0
4811	0	0
4812	0	0
4813	0	0
4814	0	0
4815	0	0
4816	0	0
4817	0	0
4818	0	0
4819	0	0
4820	0	0
4821	0	0
4822	0	0
4823	0	0
4824	0	0
4825	0	0
4826	0	0
4827	0	0
4828	0	0
4829	0	0
4830	0	0
4831	0	0
4832	0	0
4833	0	0
4834	0	0
4835	0	0
4836	0	0
4837	0	0
4838	0	0
4839	0	0
4840	0	0
4841	0	0
4842	0	0
4843	0	0
4844	0	0
4845	0	0
4846	0	0
4847	0	0
4848	0	0
4849	0	0
4850	0	0
4851	0	0
4852	0	0
4853	0	0
4854	0	0
4855	0	0
4856	0	0
4857	0	0
4858	0	0
4859	0	0
4860	0	0
4861	0	0
4862	0	0
4863	0	0
4864	0	0
4865	0	0
4866	0	0
4867	0	0
4868	0	0
4869	0	0
4870	0	0
4871	0	0
4872	0	0
4873	0	0
4874	0	0
4875	0	0
4876	0	0
4877	0	0
4878	0	0
4879	0	0
4880	0	0
4881	0	0
4882	0	0
4883	0	0
4884	0	0
4885	0	0
4886	0	0
4887	0	0
4888	0	0
4889	0	0
4890	0	0
4891	0	0
4892	0	0
4893	0	0
4894	0	0
4895	0	0
4896	0	0
4897	0	0
4898	0	0
4899	0	0
4900	0	0
4901	0	0
4902	0	0
4903	0	0
4904	0	0
4905	0	0
4906	0	0
4907	0	0
4908	0	0
4909	0	0
4910	0	0
4911	0	0
4912	0	0
4913	0	0
4914	0	0
4915	0	0
4916	0	0
4917	0	0
4918	0	0
4919	0	0
4920	0	0
4921	0	0
4922	0	0
4923	0	0
4924	0	0
4925	0	0
4926	0	0
4927	0	0
4928	0	0
4929	0	0
4930	0	0
4931	0	0
4932	0	0
4933	0	0
4934	0	0
4935	0	0
4936	0	0
4937	0	0
4938	0	0
4939	0	0
4940	0	0
4941	0	0
4942	0	0
4943	0	0
4944	0	0
4945	0	0
4946	0	0
4947	0	0
4948	0	0
4949	0	0
4950	0	0
4951	0	0
4952	0	0
4953	0	0
4954	0	0
4955	0	0
4956	0	0
4957	0	0
4958	0	0
4959	0	0
4960	0	0
4961	0	0
4962	0	0
4963	0	0
4964	0	0
4965	0	0
4966	0	0
4967	0	0
4968	0	0
4969	0	0
4970	0	0
4971	0	0
4972	0	0
4973	0	0
4974	0	0
4975	0	0
4976	0	0
4977	0	0
4978	0	0
4979	0	0
4980	0	0
4981	0	0
4982	0	0
4983	0	0
4984	0	0
4985	0	0
4986	0	0
4987	0	0
4988	0	0
4989	0	0
4990	0	0
4991	0	0
4992	0	0
4993	0	0
4994	0	0
4995	0	0
4996	0	0
4997	0	0
4998	0	0
4999	0	0
5000	0	0
5001	0	0
5002	0	0
5003	0	0
5004	0	0
5005	0	0
5006	0	0
5007	0	0
5008	0	0
5009	0	0
5010	0	0
5011	0	0
5012	0	0
5013	0	0
5014	0	0
5015	0	0
5016	0	0
5017	0	0
5018	0	0
5019	0	0
5020	0	0
5021	0	0
5022	0	0
5023	0	0
5024	0	0.333333
5025	0	0.333333
5026	0	0.333333
5027	0	0.333333
5028	0	0.333333
5029	0	0.333333
5030	0	0.333333
5031	0	0.333333
5032	0	0.333333
5033	0	0.333333
5034	0	0.333333
5035	0	0.333333
5036	0	0.333333
5037	0	0.333333
5038	0	0.333333
5039	0	0.333333
5040	0	0.333333
5041	0	0.333333
5042	0	0.333333
5043	0	0.333333
5044	0	0.333333
5045	0	0.333333
5046	0	0.333333
5047	0	0.333333
5048	0	0.333333
5049	0	0.333333
5050	0	0.333333
5051	0	0.333333
5052	0	0.333333
5053	0	0.333333
5054	0	0.333333
5055	0	0.333333
5056	0	0.333333
5057	0	0.333333
5058	0	0.333333
5059	0	0.333333
5060	0	0.333333
5061	0	0.333333
5062	0	0.333333
5063	0	0.333333
5064	0	0.333333
5065	0	0.333333
5066	0	0.333333
5067	0	0.333333
5068	0	0.333333
5069	0	0.333333
5070	0	0.333333
5071	0	0.333333
5072	0	0.333333
5073	0	0.333333
5074	0	0.333333
5075	0	0.333333
5076	0	0.333333
5077	0	0.333333
5078	0	0.333333
5079	0	0.333333
5080	0	0.333333
5081	0	0.333333
5082	0	0.333333
5083	0	0.333333
5084	0	0.333333
5085	0	0.333333
5086	0	0
5087	0	0
5088	0	0
5089	0	0
5090	0	0
5091	0	0
5092	0	0
5093	0	0
5094	0	0
5095	0	0
5096	0	0
5097	0	0
5098	0	0
5099	0	0
5100	0	0
5101	0	0
5102	0	0
5103	0	0
5104	0	0
5105	0	0
5106	0	0
5107	0	0
5108	0	0
5109	0	0
5110	0	0
5111	0	0
5112	0	0
5113	0	0
5114	0	0
5115	0	0
5116	0	0
5117	0	0
5118	0	0
5119	0	0
5120	0	0
5121	0	0
5122	0	0
5123	0	0
5124	0	0
5125	0	0
5126	0	0
5127	0	0
5128	0	0
5129	0	0
5130	0	0
5131	0	0
5132	0	0
5133	0	0
5134	0	0
5135	0	0
5136	0	0
5137	0	0
5138	0	0
5139	0	0
5140	0	0
5141	0	0
5142	0	0
5143	0	0
5144	0	0
5145	0	0
5146	0	0
5147	0	0
5148	0	0
5149	0	0
5150	0	0
5151	0	0
5152	0	0
5153	0	0
5154	0	0
5155	0	0
5156	0	0
5157	0	0
5158	0	0
5159	0	0
5160	0	0
5161	0	0
5162	0	0
5163	0	0
5164	0	0
5165	0	0
5166	0	0
5167	0	0
5168	0	0
5169	0	0
5170	0	0
5171	0	0
5172	0	0
5173	0	0
5174	0	0
5175	0	0
5176	0	0
5177	0	0
5178	0	0
5179	0	0
5180	0	0
5181	0	0
5182	0	0
5183	0	0
5184	0	0
5185	0	0
5186	0	0
5187	0	0
5188	0	0
5189	0	0
5190	0	0
5191	0	0
5192	0	0
5193	0	0
5194	0	0
5195	0	0
5196	0	0
5197	0	0
5198	0	0
5199	0	0
5200	0	0
5201	0	0
5202	0	0
5203	0	0
5204	0	0
5205	0	0
5206	0	0
5207	0	0
5208	0	0
5209	0	0
5210	0	0
5211	0	0
5212	0	0
5213	0	0
5214	0	0
5215	0	0
5216	0	0
5217	0	0
5218	0	0
5219	0	0
5220	0	0
5221	0	0
5222	0	0
5223	0	0
5224	0	0
5225	0	0
5226	0	0
5227	0	0
5228	0	0
5229	0	0
5230	0	0
5231	0	0
5232	0	0
5233	0	0
5234	0	0
5235	0	0
5236	0	0
5237	0	0
5238	0	0
5239	0	0
5240	0	0
5241	0	0
5242	0	0
5243	0	0
5244	0	0
5245	0	0
5246	0	0
5247	0	0
5248	0	0
5249	0	0
5250	0	0
5251	0	0
5252	0	0
5253	0	0
5254	0	0
5255	0	0
5256	0	0
5257	0	0
5258	0	0
5259	0	0
5260	0	0
5261	0	0
5262	0	0
5263	0	0
5264	0	0
5265	0	0
5266	0	0
5267	0	0
5268	0	0
5269	0	0
5270	0	0
5271	0	0
5272	0	0
5273	0	0
5274	0	0
5275	0	0
5276	0	0
5277	0	0
5278	0	0
5279	0	0
5280	0	0
5281	0	0
5282	0	0
5283	0	0
5284	0	0
5285	0	0
5286	0	0
5287	0	0
5288	0	0
5289	0	0
5290	0	0
5291	0	0
5292	0	0
5293	0	0
5294	0	0
5295	0	0
5296	0	0
5297	0	0
5298	0	0
5299	0	0
5300	0	0
5301	0	0
5302	0	0
5303	0	0
5304	0	0
5305	0	0
5306	0	0
5307	0	0
5308	0	0
5309	0	0
5310	0	0
5311	0	0
5312	0	0
5313	0	0
5314	0	0
5315	0	0
5316	0	0
5317	0	0
5318	0	0
5319	0	0
5320	0	0
5321	0	0
5322	0	0
5323	0	0
5324	0	0
5325	0	0
5326	0	0
5327	0	0
5328	0	0
5329	0	0
5330	0	0
5331	0	0
5332	0	0
5333	0	0
5334	0	0
5335	0	0
5336	0	0
5337	0	0
5338	0	0
5339	0	0
5340	0	0
5341	0	0
5342	0	0
5343	0	0
5344	0	0
5345	0	0
5346	0	0
5347	0	0
5348	0	0
5349	0	0
