Site	ColumnScore	SumOfPairsScore
1	0	0
2	0	0
3	0	0
4	0	0
5	0	0
6	0	0
7	0	0
8	0	0
9	0	0
10	0	0
11	0	0
12	0	0
13	0	0
14	0	0
15	0	0
16	0	0
17	0	0
18	0	0
19	0	0
20	0	0
21	0	0
22	0	0
23	0	0
24	0	0
25	0	0
26	0	0
27	0	0
28	0	0
29	0	0
30	0	0
31	0	0
32	0	0
33	0	0
34	0	0
35	0	0
36	0	0
37	0	0
38	0	0
39	0	0
40	0	0
41	0	0
42	0	0
43	0	0
44	0	0
45	0	0
46	0	0
47	0	0
48	0	0
49	0	0
50	0	0
51	0	0
52	0	0
53	0	0
54	0	0
55	0	0
56	0	0
57	0	0
58	0	0
59	0	0
60	0	0
61	0	0
62	0	0
63	0	0
64	0	0
65	0	0
66	0	0
67	0	0
68	0	0
69	0	0
70	0	0
71	0	0
72	0	0
73	0	0
74	0	0
75	0	0
76	0	0
77	0	0
78	0	0
79	0	0
80	0	0
81	0	0
82	0	0
83	0	0
84	0	0
85	0	0
86	0	0
87	0	0
88	0	0
89	0	0
90	0	0
91	0	0
92	0	0
93	0	0
94	0	0
95	0	0
96	0	0
97	0	0
98	0	0
99	0	0
100	0	0
101	0	0
102	0	0
103	0	0
104	0	0
105	0	0
106	0	0
107	0	0
108	0	0
109	0	0
110	0	0
111	0	0
112	0	0
113	0	0
114	0	0
115	0	0
116	0	0
117	0	0
118	0	0
119	0	0
120	0	0
121	0	0
122	0	0
123	0	0
124	0	0
125	0	0
126	0	0
127	0	0
128	0	0
129	0	0
130	0	0
131	0	0
132	0	0
133	0	0
134	0	0
135	0	0
136	0	0
137	0	0
138	0	0
139	0	0
140	0	0
141	0	0
142	0	0
143	0	0
144	0	0
145	0	0
146	0	0
147	0	0
148	0	0
149	0	0
150	0	0
151	0	0
152	0	0
153	0	0
154	0	0
155	0	0
156	0	0
157	0	0
158	0	0
159	0	0
160	0	0
161	0	0
162	0	0
163	0	0
164	0	0
165	0	0
166	0	0
167	0	0
168	0	0
169	0	0
170	0	0
171	0	0
172	0	0
173	0	0
174	0	0
175	0	0
176	0	0
177	0	0
178	0	0
179	0	0
180	0	0
181	0	0
182	0	0
183	0	0
184	0	0
185	0	0
186	0	0
187	0	0
188	0	0
189	0	0
190	0	0
191	0	0
192	0	0
193	0	0
194	0	0
195	0	0
196	0	0
197	0	0.333333
198	0	0.333333
199	0	0.333333
200	0	0.333333
201	0	0.333333
202	0	0.333333
203	0	0.333333
204	0	0.333333
205	0	0.333333
206	0	0.333333
207	0	0.333333
208	0	0.333333
209	0	0.333333
210	0	0.333333
211	0	0.333333
212	0	0.333333
213	0	0.333333
214	0	0.333333
215	0	0.333333
216	0	0.333333
217	0	0.333333
218	0	0.333333
219	0	0.333333
220	0	0.333333
221	0	0.333333
222	0	0.333333
223	0	0.333333
224	0	0.333333
225	0	0.333333
226	0	0.333333
227	0	0.333333
228	0	0.333333
229	0	0.333333
230	0	0.333333
231	0	0.333333
232	0	0.333333
233	0	0.333333
234	0	0.333333
235	0	0.333333
236	0	0.333333
237	0	0.333333
238	0	0.333333
239	0	0.333333
240	0	0.333333
241	0	0.333333
242	0	0.333333
243	0	0.333333
244	0	0.333333
245	0	0.333333
246	0	0.333333
247	0	0.333333
248	0	0.333333
249	0	0.333333
250	0	0.333333
251	0	0.333333
252	0	0.333333
253	0	0.333333
254	0	0.333333
255	0	0.333333
256	0	0.333333
257	0	0.333333
258	0	0.333333
259	0	0.333333
260	0	0.333333
261	0	0.333333
262	0	0.333333
263	0	0.333333
264	0	0.333333
265	0	0.333333
266	0	0.333333
267	0	0.333333
268	0	0.333333
269	0	0.333333
270	0	0.333333
271	0	0.333333
272	0	0.333333
273	0	0.333333
274	0	0.333333
275	0	0.333333
276	0	0.333333
277	0	0.333333
278	0	0.333333
279	0	0.333333
280	0	0.333333
281	0	0.333333
282	0	0.333333
283	0	0.333333
284	0	0.333333
285	0	0.333333
286	0	0.333333
287	0	0.333333
288	0	0.333333
289	0	0.333333
290	0	0.333333
291	0	0.333333
292	0	0.333333
293	0	0.333333
294	0	0.333333
295	0	0.333333
296	0	0.333333
297	0	0.333333
298	0	0.333333
299	0	0.333333
300	0	0.333333
301	0	0.333333
302	0	0.333333
303	0	0.333333
304	0	0.333333
305	0	0.333333
306	0	0.333333
307	0	0.333333
308	0	0.333333
309	0	0.333333
310	0	0.333333
311	0	0.333333
312	0	0.333333
313	0	0.333333
314	0	0.333333
315	0	0.333333
316	0	0.333333
317	0	0.333333
318	0	0.333333
319	0	0.333333
320	0	0.333333
321	0	0.333333
322	0	0.333333
323	0	0.333333
324	0	0.333333
325	0	0.333333
326	0	0.333333
327	0	0.333333
328	0	0.333333
329	0	0.333333
330	0	0.333333
331	0	0.333333
332	0	0.333333
333	0	0.333333
334	0	0.333333
335	0	0.333333
336	0	0.333333
337	0	0.333333
338	0	0.333333
339	0	0.333333
340	0	0.333333
341	0	0.333333
342	0	0.333333
343	0	0.333333
344	0	0.333333
345	0	0.333333
346	0	0.333333
347	0	0.333333
348	0	0.333333
349	0	0.333333
350	0	0.333333
351	0	0.333333
352	0	0.333333
353	0	0.333333
354	0	0.333333
355	0	0.333333
356	0	0.333333
357	0	0.333333
358	0	0.333333
359	0	0.333333
360	0	0.333333
361	0	0.333333
362	0	0.333333
363	0	0.333333
364	0	0.333333
365	0	0.333333
366	0	0.333333
367	0	0.333333
368	0	0.333333
369	0	0.333333
370	0	0.333333
371	0	0.333333
372	0	0.333333
373	0	0.333333
374	0	0.333333
375	0	0.333333
376	0	0.333333
377	0	0.333333
378	0	0.333333
379	0	0.333333
380	0	0.333333
381	0	0.166667
382	0	0.166667
383	0	0.166667
384	0	0.166667
385	0	0.166667
386	0	0.166667
387	0	0.166667
388	0	0.166667
389	0	0.166667
390	0	0.166667
391	0	0.166667
392	0	0.166667
393	0	0.166667
394	0	0.166667
395	0	0.166667
396	0	0.166667
397	0	0.166667
398	0	0.166667
399	0	0.166667
400	0	0.166667
401	0	0.166667
402	0	0.166667
403	0	0.1
404	0	0.1
405	0	0.1
406	0	0.1
407	0	0.1
408	0	0.1
409	0	0.1
410	0	0.1
411	0	0.1
412	0	0.1
413	0	0.1
414	0	0.1
415	0	0.0666667
416	0	0.0666667
417	0	0.0666667
418	0	0.0666667
419	0	0.047619
420	0	0.047619
421	0	0.047619
422	0	0.047619
423	0	0.047619
424	0	0.047619
425	0	0.047619
426	0	0.047619
427	0	0.047619
428	0	0.047619
429	0	0.047619
430	0	0.047619
431	0	0.047619
432	0	0.047619
433	0	0.047619
434	0	0.047619
435	0	0.047619
436	0	0.047619
437	0	0.047619
438	0	0.047619
439	0	0.047619
440	0	0.047619
441	0	0.047619
442	0	0.047619
443	0	0.047619
444	0	0.047619
445	0	0.047619
446	0	0.047619
447	0	0.047619
448	0	0.047619
449	0	0.047619
450	0	0.047619
451	0	0.047619
452	0	0.047619
453	0	0.047619
454	0	0.047619
455	0	0.047619
456	0	0.047619
457	0	0.047619
458	0	0.047619
459	0	0.047619
460	0	0.047619
461	0	0.047619
462	0	0.047619
463	0	0.047619
464	0	0.047619
465	0	0.047619
466	0	0.047619
467	0	0.047619
468	0	0.047619
469	0	0.047619
470	0	0.047619
471	0	0.047619
472	0	0.047619
473	0	0.047619
474	0	0.047619
475	0	0.047619
476	0	0.047619
477	0	0.047619
478	0	0.047619
479	0	0.047619
480	0	0.047619
481	0	0.047619
482	0	0.047619
483	0	0.047619
484	0	0.047619
485	0	0.047619
486	0	0.047619
487	0	0.047619
488	0	0.047619
489	0	0.047619
490	0	0.0357143
491	0	0.0357143
492	0	0.0357143
493	0	0.0357143
494	0	0.0357143
495	0	0.0357143
496	0	0.0357143
497	0	0.0357143
498	0	0.0357143
499	0	0.0357143
500	0	0.0357143
501	0	0.0357143
502	0	0.0357143
503	0	0.0357143
504	0	0.0357143
505	0	0.0357143
506	0	0.0277778
507	0	0.0277778
508	0	0.0277778
509	0	0.0277778
510	0	0.0277778
511	0	0.0277778
512	0	0.0277778
513	0	0.0277778
514	0	0.0277778
515	0	0.0277778
516	0	0.0277778
517	0	0.0277778
518	0	0.0277778
519	0	0.0277778
520	0	0.0277778
521	0	0.0277778
522	0	0.0277778
523	0	0.0277778
524	0	0.0277778
525	0	0.0277778
526	0	0.0277778
527	0	0.0277778
528	0	0.0277778
529	0	0.0277778
530	0	0.0277778
531	0	0.0277778
532	0	0.0277778
533	0	0.0277778
534	0	0.0277778
535	0	0.0277778
536	0	0.0277778
537	0	0.0277778
538	0	0.0277778
539	0	0.0277778
540	0	0.0277778
541	0	0.0277778
542	0	0.0277778
543	0	0.0277778
544	0	0.0277778
545	0	0.0277778
546	0	0.0277778
547	0	0.0277778
548	0	0.0277778
549	0	0.0277778
550	0	0.0277778
551	0	0.0277778
552	0	0.0277778
553	0	0.0277778
554	0	0.0277778
555	0	0.0277778
556	0	0.0277778
557	0	0.0277778
558	0	0.0277778
559	0	0.0277778
560	0	0.0277778
561	0	0.0277778
562	0	0.0277778
563	0	0.0277778
564	0	0.0277778
565	0	0.0277778
566	0	0.0277778
567	0	0.0277778
568	0	0.0277778
569	0	0.0277778
570	0	0.0277778
571	0	0.0277778
572	0	0.0277778
573	0	0.0277778
574	0	0.0277778
575	0	0.0277778
576	0	0.0277778
577	0	0.0277778
578	0	0.0277778
579	0	0.0277778
580	0	0.0277778
581	0	0.0277778
582	0	0.0277778
583	0	0.0277778
584	0	0.0277778
585	0	0.0277778
586	0	0.0277778
587	0	0.0277778
588	0	0.0277778
589	0	0.0277778
590	0	0.0277778
591	0	0.0277778
592	0	0.0277778
593	0	0.0277778
594	0	0.0277778
595	0	0.0277778
596	0	0.0222222
597	0	0.0222222
598	0	0.0222222
599	0	0.0222222
600	0	0.0222222
601	0	0.0222222
602	0	0.0222222
603	0	0.0222222
604	0	0.0222222
605	0	0.0222222
606	0	0.0222222
607	0	0.0222222
608	0	0.0222222
609	0	0.0222222
610	0	0.0363636
611	0	0.0363636
612	0	0.0363636
613	0	0.0363636
614	0	0.0363636
615	0	0.0363636
616	0	0.0363636
617	0	0.0363636
618	0	0.0363636
619	0	0.0363636
620	0	0.0363636
621	0	0.0363636
622	0	0.0363636
623	0	0.0363636
624	0	0.0363636
625	0	0.0363636
626	0	0.0363636
627	0	0.0363636
628	0	0.0363636
629	0	0.0363636
630	0	0.0181818
631	0	0.0181818
632	0	0.0181818
633	0	0.0181818
634	0	0.0181818
635	0	0.0181818
636	0	0.0181818
637	0	0.0181818
638	0	0.0181818
639	0	0.0181818
640	0	0.0181818
641	0	0.0181818
642	0	0.0181818
643	0	0.0151515
644	0	0.030303
645	0	0.025641
646	0	0.025641
647	0	0.025641
648	0	0.021978
649	0	0.0190476
650	0	0.0326797
651	0	0.116809
652	0	0.108466
653	0	0.0903226
654	0	0.0795455
655	0	0.0748663
656	0	0.0666667
657	0	0.0615616
658	0	0.0539811
659	0	0.05
660	0	0.0443975
661	0	0.0425121
662	0	0.0471698
663	0	0.0478114
664	0	0.0485876
665	0	0.0456731
666	0	0.0425812
667	0	0.0442638
668	0	0.139042
669	0	0.10687
670	0	0.100737
671	0	0.102564
672	0	0.0896485
673	0	0.0801881
674	0	0.0798369
675	0	0.0801029
676	0	0.104062
677	0	0.132009
678	0	0.160916
679	0	0.232112
680	0	0.256911
681	0	0.260054
682	0	0.280393
683	0	0.367029
684	0	0.37076
685	0	0.387203
686	0	0.477648
687	0	0.487809
688	0	0
689	0	0
690	0	0
691	0	0
692	0	0
693	0	0
694	0	0
695	0	0
696	0	0
697	0	0
698	0	0
699	0	0
700	0	0
701	0	0
702	0	0
703	0	0
704	0	0
705	0	0
706	0	0
707	0	0
708	0	0
709	0	0
710	0	0
711	0	0
712	0	0
713	0	0
714	0	0
715	0	0
716	0	0
717	0	0
718	0	0
719	0	0
720	0	0
721	0	0
722	0	0
723	0	0
724	0	0
725	0	0
726	0	0
727	0	0
728	0	0
729	0	0
730	0	0
731	0	0
732	0	0
733	0	0
734	0	0
735	0	0
736	0	0
737	0	0
738	0	0
739	0	0
740	0	0
741	0	0
742	0	0
743	0	0
744	0	0
745	0	0
746	0	0
747	0	0
748	0	0
749	0	0
750	0	0
751	0	0
752	0	0
753	0	0
754	0	0
755	0	0
756	0	0
757	0	0
758	0	0
759	0	0
760	0	0
761	0	0
762	0	0
763	0	0
764	0	0
765	0	0
766	0	0
767	0	0
768	0	0
769	0	0
770	0	0
771	0	0
772	0	0
773	0	0
774	0	0
775	0	0
776	0	0
777	0	0
778	0	0
779	0	0
780	0	0
781	0	0
782	0	0
783	0	0
784	0	0
785	0	0
786	0	0
787	0	0
788	0	0
789	0	0
790	0	0
791	0	0
792	0	0
793	0	0
794	0	0
795	0	0
796	0	0
797	0	0
798	0	0
799	0	0
800	0	0
801	0	0
802	0	0
803	0	0
804	0	0
805	0	0
806	0	0
807	0	0
808	0	0
809	0	0
810	0	0
811	0	0
812	0	0
813	0	0
814	0	0
815	0	0
816	0	0
817	0	0
818	0	0
819	0	0
820	0	0
821	0	0
822	0	0
823	0	0
824	0	0
825	0	0
826	0	0
827	0	0
828	0	0
829	0	0
830	0	0
831	0	0
832	0	0
833	0	0
834	0	0
835	0	0
836	0	0
837	0	0
838	0	0
839	0	0
840	0	0
841	0	0
842	0	0
843	0	0
844	0	0
845	0	0
846	0	0
847	0	0
848	0	0
849	0	0
850	0	0
851	0	0
852	0	0
853	0	0
854	0	0
855	0	0
856	0	0
857	0	0
858	0	0
859	0	0
860	0	0
861	0	0
862	0	0
863	0	0
864	0	0
865	0	0
866	0	0
867	0	0
868	0	0
869	0	0
870	0	0
871	0	0
872	0	0
873	0	0
874	0	0
875	0	0
876	0	0
877	0	0
878	0	0
879	0	0
880	0	0
881	0	0
882	0	0
883	0	0
884	0	0
885	0	0
886	0	0
887	0	0
888	0	0
889	0	0
890	0	0
891	0	0
892	0	0
893	0	0
894	0	0
895	0	0
896	0	0
897	0	0
898	0	0
899	0	0
900	0	0
901	0	0
902	0	0
903	0	0
904	0	0
905	0	0
906	0	0
907	0	0
908	0	0
909	0	0
910	0	0
911	0	0
912	0	0
913	0	0
914	0	0
915	0	0
916	0	0
917	0	0
918	0	0
919	0	0
920	0	0
921	0	0
922	0	0
923	0	0
924	0	0
925	0	0
926	0	0
927	0	0
928	0	0
929	0	0
930	0	0
931	0	0
932	0	0
933	0	0
934	0	0
935	0	0
936	0	0
937	0	0
938	0	0
939	0	0
940	0	0
941	0	0
942	0	0
943	0	0.333333
944	0	0.714286
945	0	0.64403
946	0	0.652273
947	0	0.741204
948	0	0.138833
949	0	0.0824468
950	0	0.0720721
951	0	0.0687831
952	0	0.0740741
953	0	0.0833333
954	0	0.0833333
955	0	0.0833333
956	0	0.104762
957	0	0.075
958	0	0.0666667
959	0	0.0833333
960	0	0.0833333
961	0	0
962	0	0
963	0	0
964	0	0
965	0	0
966	0	0
967	0	0
968	0	0
969	0	0
970	0	0
971	0	0
972	0	0
973	0	0
974	0	0
975	0	0
976	0	0
977	0	0
978	0	0
979	0	0
980	0	0
981	0	0
982	0	0
983	0	0
984	0	0
985	0	0
986	0	0
987	0	0
988	0	0
989	0	0
990	0	0
991	0	0
992	0	0
993	0	0
994	0	0
995	0	0
996	0	0
997	0	0
998	0	0
999	0	0
1000	0	0
1001	0	0
1002	0	0
1003	0	0
1004	0	0
1005	0	0
1006	0	0
1007	0	0
1008	0	0
1009	0	0
1010	0	0
1011	0	0
1012	0	0
1013	0	0
1014	0	0
1015	0	0
1016	0	0
1017	0	0
1018	0	0
1019	0	0
1020	0	0
1021	0	0
1022	0	0
1023	0	0
1024	0	0
1025	0	0
1026	0	0
1027	0	0
1028	0	0
1029	0	0
1030	0	0
1031	0	0
1032	0	0
1033	0	0
1034	0	0
1035	0	0
1036	0	0
1037	0	0
1038	0	0.1
1039	0	0.3
1040	0	0.3
1041	0	0.6
1042	0	0.6
1043	0	0.6
1044	0	0.6
1045	0	0.6
1046	0	0.6
1047	0	0.6
1048	0	0.6
1049	0	0.6
1050	0	0.6
1051	0	0.6
1052	0	0.986842
1053	0	0.877569
1054	0	0.87551
1055	0	0.883226
1056	0	0.466667
1057	0	1
1058	0	1
1059	0	1
1060	0	1
1061	0	1
1062	0	1
1063	0	1
1064	0	1
1065	0	1
1066	0	0.904762
1067	0	0.836957
1068	0	0.926836
1069	0	0.92753
1070	0	0
1071	0	0
1072	0	0
1073	0	0
1074	0	0
1075	0	0
1076	0	0
1077	0	0
1078	0	0.725275
1079	0	0.985751
1080	0	0.984019
1081	0	0.985773
1082	0	0
1083	0	0
1084	0	0
1085	0	0
1086	0	0
1087	0	0.978799
1088	0	0.97904
1089	0	0.977309
1090	0	0.777778
1091	0	0.416667
1092	0	0.416667
1093	0	0.357143
1094	0	0.666667
1095	0	0.666667
1096	0	0.4
1097	0	0.2
1098	0	0.3
1099	0	0.3
1100	0	0.5
1101	0	0.5
1102	0	0.333333
1103	0	0.333333
1104	0	0.333333
1105	0	0.333333
1106	0	1
1107	0	0.979344
1108	1	0
1109	0	0
1110	0	0
1111	0	0
1112	0	0
1113	0	0
1114	0	0
1115	0	0
1116	0	0
1117	0	0.991297
1118	0	0.991297
1119	0	0
1120	0	0.926115
1121	0	0.924481
1122	0	0
1123	0	0
1124	0	0
1125	0	0
1126	0	0
1127	0	0
1128	0	0
1129	0	0
1130	0	0
1131	0	0
1132	0	0
1133	0	0
1134	0	0
1135	0	0
1136	0	0
1137	0	0
1138	0	0
1139	0	0
1140	0	0
1141	0	0
1142	0	0
1143	0	0
1144	0	0
1145	0	0
1146	0	0
1147	0	0
1148	0	0
1149	0	0
1150	0	0
1151	0	0
1152	0	0
1153	0	0
1154	0	0
1155	0	1
1156	0	1
1157	0	1
1158	0	1
1159	0	1
1160	0	1
1161	0	1
1162	0	1
1163	0	0.987838
1164	0	0.987838
1165	0	0.987849
1166	0	0.987849
1167	0	0.266667
1168	0	0.2
1169	0	0.2
1170	0	0.2
1171	0	0.333333
1172	0	0.333333
1173	0	0.333333
1174	0	0.991504
1175	0	0.991504
1176	0	0.991504
1177	0	0.991504
1178	0	0.991504
1179	0	0.991504
1180	0	0.991505
1181	0	0.988118
1182	0	0.494694
1183	0	1
1184	0	0.721053
1185	0	0.583333
1186	0	0.75
1187	0	0.75
1188	0	0.714286
1189	0	0.47619
1190	0	0.47619
1191	0	0.47619
1192	0	0.107143
1193	0	0.136364
1194	0	0.102564
1195	0	0.0952381
1196	0	0.0833333
1197	0	0.0735294
1198	0	0.139706
1199	0	0.708755
1200	0	0
1201	0	0
1202	0	0
1203	0	0
1204	0	0
1205	0	0
1206	0	0
1207	0	0
1208	0	0
1209	0	0
1210	0	0
1211	0	0
1212	0	0
1213	0	0
1214	0	0
1215	0	0
1216	0	0
1217	0	0
1218	0	0
1219	0	0
1220	0	0
1221	0	0.694856
1222	0	0.415463
1223	0	0.286663
1224	0	0.3647
1225	0	0.494575
1226	0	0.493813
1227	0	0.463988
1228	0	0.505921
1229	0	0.551839
1230	0	0.543705
1231	0	0.539261
1232	0	0.601549
1233	0	0.474255
1234	0	0.508277
1235	0	0.516063
1236	0	0.119048
1237	0	0.143791
1238	0	0.161765
1239	0	0.183333
1240	0	0.190476
1241	0	0.190476
1242	0	0.190476
1243	0	0.190476
1244	0	0.190476
1245	0	0.190476
1246	0	0.190476
1247	0	0.94796
1248	0	0.583333
1249	0	0.545455
1250	0	0.681818
1251	0	0.875
1252	0	0.894737
1253	0	1
1254	0	1
1255	0	0.998304
1256	0	0.998304
1257	0	1
1258	0	1
1259	1	1
1260	1	1
1261	0	0.998304
1262	0	0.998304
1263	0	0.996612
1264	0	0.996614
1265	0	0.996614
1266	0	0.996614
1267	0	0.996614
1268	0	0.996614
1269	0	0.996614
1270	0	0.996614
1271	0	0.996614
1272	0	0.996614
1273	0	0.996614
1274	0	0.996614
1275	0	0.996614
1276	0	0.996614
1277	0	0.996614
1278	0	0.996614
1279	0	0.996614
1280	0	0.996614
1281	0	0.996614
1282	0	0.996614
1283	0	0.996614
1284	0	0.996614
1285	0	0.996614
1286	0	0.994924
1287	0	0.774885
1288	0	0.666667
1289	0	0.666667
1290	0	0.6
1291	0	1
1292	0	1
1293	0	1
1294	0	0.166667
1295	0	0.333333
1296	0	1
1297	0	0
1298	0	0
1299	0	0
1300	0	0
1301	0	0
1302	0	0
1303	0	0
1304	0	0
1305	0	0
1306	0	0
1307	0	0.984977
1308	0	0
1309	0	0
1310	0	0
1311	0	0
1312	0	0
1313	0	0.99328
1314	0	0
1315	0	0
1316	0	0
1317	0	0
1318	0	0
1319	0	0
1320	0	0
1321	0	0
1322	0	0
1323	0	0.993286
1324	0	0.993286
1325	0	0.991618
1326	0	0.991618
1327	0	0.993291
1328	0	0.993291
1329	0	0.993291
1330	0	0
1331	0	0
1332	0	0.996637
1333	0	0.996637
1334	0	0.996637
1335	0	0.996637
1336	0	0.998318
1337	0	0.998318
1338	0	0.998318
1339	0	0.998318
1340	0	0.998318
1341	0	0.998318
1342	0	0.998318
1343	0	0.998318
1344	0	0.998318
1345	0	0.998318
1346	0	0.998318
1347	0	0.998318
1348	0	0.998318
1349	0	0.998318
1350	0	0.998318
1351	0	0.998318
1352	0	0.998318
1353	0	1
1354	0	0.482759
1355	0	0.484127
1356	0	0.947047
1357	0	1
1358	0	1
1359	0	0.666667
1360	0	0.47619
1361	0	0.613943
1362	0	0.714286
1363	0	0.666667
1364	0	0.5
1365	0	0.5
1366	0	0.5
1367	0	0.5
1368	0	1
1369	0	1
1370	0	0.502171
1371	0	0
1372	0	0.166667
1373	0	0.166667
1374	0	0.166667
1375	0	0.166667
1376	0	0.190476
1377	0	0.142857
1378	0	0.142857
1379	0	0.142857
1380	0	0.142857
1381	0	0.127273
1382	0	0.12381
1383	0	0.152381
1384	0	0.181682
1385	0	0.429768
1386	0	0.330084
1387	0	0.459015
1388	0	0.434755
1389	0	0.355407
1390	0	0.310029
1391	0	0.306731
1392	0	0.393334
1393	0	0.414431
1394	0	0.449495
1395	0	0.466173
1396	0	0.558974
1397	0	0.653153
1398	0	0.653153
1399	0	0.623153
1400	0	0.222222
1401	0	0
1402	0	0
1403	0	0
1404	0	0
1405	0	0
1406	0	0
1407	0	0
1408	0	0
1409	0	0
1410	0	0
1411	0	0.307692
1412	0	0.264706
1413	0	0.438406
1414	0	0.303226
1415	0	0.28629
1416	0	0.268939
1417	0	0.28629
1418	0	0.208974
1419	0	0.217949
1420	0	0.272982
1421	0	0.25974
1422	0	0.23517
1423	0	0.238907
1424	0	0.237535
1425	0	0.198519
1426	0	0.200908
1427	0	0.19799
1428	0	0.196641
1429	0	0.173044
1430	0	0.29359
1431	0	0.365508
1432	0	0.646077
1433	0	0.608803
1434	0	0.606221
1435	0	0.730206
1436	0	0.653798
1437	0	0.950532
1438	0	0.925926
1439	0	0.99329
1440	0	0.998319
1441	0	0.998319
1442	0	0.998319
1443	0	0.998319
1444	0	0.998319
1445	0	0.998319
1446	0	0.998318
1447	0	0.998319
1448	0	0.998321
1449	0	0.998321
1450	0	0.998321
1451	0	0.998321
1452	0	0.998321
1453	0	0
1454	0	0.998319
1455	0	0.998319
1456	0	0.998319
1457	0	0.998319
1458	0	0.998319
1459	0	0.998319
1460	0	0.998319
1461	0	0.998319
1462	0	0.998319
1463	0	0
1464	0	0
1465	0	0
1466	0	0
1467	0	0
1468	0	0
1469	0	0
1470	0	0.994966
1471	0	0.994966
1472	0	0.994966
1473	0	0.994966
1474	0	0.994966
1475	0	0.994966
1476	0	0.994971
1477	0	0.994971
1478	0	0.994966
1479	0	0.994971
1480	0	0.994975
1481	0	0.994975
1482	0	0.994975
1483	0	0.994975
1484	0	0.994975
1485	0	0.994975
1486	0	0.994975
1487	0	0.994975
1488	0	0.994975
1489	0	0.994975
1490	0	0
1491	0	0.613505
1492	0	0.901282
1493	0	0.503053
1494	0	0.998324
1495	0	0.998324
1496	0	0.998324
1497	0	0.998324
1498	0	0.998324
1499	0	0.998324
1500	0	0.998324
1501	0	0.998322
1502	0	0.998324
1503	0	0.998324
1504	0	0.998324
1505	0	0.998324
1506	0	0
1507	0	0
1508	0	0
1509	0	0
1510	0	0
1511	0	0
1512	0	0
1513	0	0
1514	0	0
1515	0	0.996646
1516	0	1
1517	0	1
1518	0	1
1519	0	1
1520	0	1
1521	0	1
1522	0	1
1523	0	1
1524	0	1
1525	1	1
1526	1	1
1527	1	1
1528	1	1
1529	1	1
1530	1	1
1531	1	1
1532	1	1
1533	1	1
1534	0	1
1535	0	0.333333
1536	0	0
1537	0	0.993308
1538	0	0.815866
1539	0	0.993315
1540	0	0.994983
1541	0	0.994983
1542	1	0
1543	1	0
1544	1	0
1545	1	0
1546	1	0
1547	1	0
1548	1	0
1549	1	0
1550	1	0
1551	1	0
1552	1	0
1553	0	0
1554	0	0
1555	0	0
1556	0	0
1557	0	1
1558	0	1
1559	0	0.998328
1560	0	0.998328
1561	0	0.998328
1562	0	0.998328
1563	0	0.998328
1564	0	0.998328
1565	0	0.998328
1566	0	0.998328
1567	0	0.998328
1568	0	0
1569	0	0
1570	0	0
1571	0	0
1572	0	0
1573	0	0
1574	0	0
1575	1	0
1576	1	0
1577	1	0
1578	1	0
1579	1	0
1580	1	0
1581	1	0
1582	0	0
1583	0	0
1584	0	0
1585	0	0.998325
1586	0	0.996654
1587	0	0.998326
1588	0	0.998326
1589	0	0.998326
1590	0	0.998326
1591	0	1
1592	0	0.6
1593	0	0.4
1594	0	0.2
1595	0	0.803993
1596	0	0.753107
1597	0	0.895408
1598	0	0.894706
1599	0	0.389372
1600	0	0.345894
1601	0	0.748184
1602	0	0.630893
1603	0	0.666667
1604	0	0.666667
1605	0	0.666667
1606	0	0.666667
1607	0	0.666667
1608	0	0.47619
1609	0	0.654913
1610	0	0.640212
1611	0	0.266667
1612	0	0.190476
1613	0	0.190476
1614	0	0.155556
1615	0	0.378572
1616	0	0.413648
1617	0	0.398494
1618	0	0.0583333
1619	0	0.690768
1620	0	0.0915033
1621	0	0.102941
1622	0	0.102941
1623	0	0.24
1624	0	0.253333
1625	0	0.253333
1626	0	0.323635
1627	0	0.413774
1628	0	0.283596
1629	0	0.658333
1630	0	0.558699
1631	0	0.30367
1632	0	0
1633	0	0
1634	0	0
1635	0	0.266667
1636	0	0.291667
1637	0	0.304094
1638	0	0.544866
1639	0	0.388396
1640	0	0.367225
1641	0	0.535109
1642	0	0.495682
1643	0	0.301989
1644	0	0.290604
1645	0	0.294368
1646	0	0.356583
1647	0	0.398648
1648	0	0.6
1649	0	0.81694
1650	0	0.740896
1651	0	0.901274
1652	0	0.845544
1653	0	0.991575
1654	0	0.994941
1655	0	0.993303
1656	0	0.991632
1657	0	0.991632
1658	0	0.991633
1659	0	0
1660	0	0
1661	0	0
1662	0	0
1663	0	0
1664	0	0
1665	0	0.99664
1666	0	0.99664
1667	0	0.99664
1668	0	0.99664
1669	0	0.998319
1670	0	0.998321
1671	0	0.998319
1672	0	0.998319
1673	0	0.996646
1674	0	0.998322
1675	0	0.998324
1676	0	0.998324
1677	0	0.998322
1678	0	1
1679	1	1
1680	1	1
1681	1	1
1682	0	0.998326
1683	0	1
1684	0	1
1685	0	1
1686	0	1
1687	0	1
1688	0	1
1689	0	1
1690	0	1
1691	0	1
1692	0	1
1693	0	1
1694	0	1
1695	0	1
1696	0	1
1697	0	1
1698	0	1
1699	0	1
1700	0	1
1701	0	1
1702	0	0.996644
1703	0	0.991623
1704	0	0.991623
1705	0	0.988271
1706	0	0.5
1707	0	0.989947
1708	0	0.989947
1709	0	0.991618
1710	0	0.991619
1711	0	0
1712	0	0
1713	0	0
1714	0	0
1715	0	0
1716	0	0
1717	0	0
1718	0	0
1719	0	0
1720	0	0
1721	0	0.993286
1722	0	0.994958
1723	0	0.994958
1724	0	0.166667
1725	0	0.166667
1726	0	0.166667
1727	0	0.166667
1728	0	0.166667
1729	0	0.166667
1730	0	0.166667
1731	0	0.166667
1732	0	0.166667
1733	0	0.166667
1734	0	0.166667
1735	0	0.166667
1736	0	0
1737	0	0
1738	0	0
1739	0	0
1740	0	0
1741	0	0
1742	0	0
1743	0	0
1744	0	0
1745	0	0
1746	0	0.998319
1747	0	0.998319
1748	0	0.998319
1749	0	0.998322
1750	0	0.998322
1751	0	0.998322
1752	0	0.998322
1753	0	0.998322
1754	0	0.998322
1755	0	0.996646
1756	0	0.996646
1757	0	0.996646
1758	0	0.998321
1759	0	0
1760	0	0
1761	0	0
1762	1	0
1763	1	0
1764	1	0
1765	1	0
1766	1	0
1767	1	0
1768	1	0
1769	1	0
1770	1	0
1771	1	0
1772	1	0
1773	1	0
1774	1	0
1775	1	0
1776	1	0
1777	1	0
1778	0	0
1779	0	0
1780	0	0
1781	0	1
1782	0	0.986534
1783	0	0.853339
1784	0	0.853339
1785	0	0.853339
1786	0	0.849024
1787	0	0
1788	0	0
1789	0	0
1790	0	0
1791	0	0.851782
1792	0	0.996617
1793	0	0.996617
1794	0	0.996617
1795	0	0.996617
1796	0	0.996617
1797	0	0.998307
1798	0	0.996617
1799	0	0.996617
1800	0	0.996617
1801	0	0.996617
1802	0	0.996617
1803	0	0.996617
1804	0	0.994932
1805	0	0.913043
1806	0	0.913043
1807	0	0.913043
1808	0	0.945454
1809	0	0.935817
1810	0	1
1811	0	1
1812	0	1
1813	0	0
1814	0	0
1815	0	0
1816	0	0
1817	0	0
1818	0	0
1819	0	0
1820	0	0
1821	0	0
1822	0	0
1823	0	0
1824	0	0
1825	0	0
1826	0	0
1827	0	0
1828	0	0
1829	0	0
1830	0	0
1831	0	0
1832	0	0
1833	0	0
1834	0	0
1835	0	0
1836	0	0
1837	0	0
1838	0	0
1839	0	0
1840	0	0
1841	0	0
1842	0	0
1843	0	0
1844	0	0
1845	0	0
1846	0	0
1847	0	0
1848	0	0
1849	0	0
1850	0	0
1851	0	0
1852	0	0
1853	0	0
1854	0	0
1855	0	0
1856	0	0
1857	0	0
1858	0	0
1859	0	0
1860	0	0
1861	0	0
1862	0	0
1863	0	0
1864	0	0
1865	0	0
1866	0	0
1867	0	0
1868	0	0
1869	0	0
1870	0	0
1871	0	0
1872	0	0
1873	0	0
1874	0	0
1875	0	0
1876	0	0
1877	0	0
1878	0	0
1879	0	0
1880	0	0
1881	0	0
1882	0	0
1883	0	0
1884	0	0
1885	0	0
1886	0	0
1887	0	0
1888	0	0
1889	0	0
1890	0	0
1891	0	0
1892	0	0
1893	0	0
1894	0	0
1895	0	0
1896	0	0
1897	0	0
1898	0	0
1899	0	0
1900	0	0
1901	0	0
1902	0	0
1903	0	0
1904	0	0
1905	0	0
1906	0	0
1907	0	0
1908	0	0
1909	0	0
1910	0	0
1911	0	0
1912	0	0
1913	0	0
1914	0	0
1915	0	0
1916	0	0
1917	0	0
1918	0	0
1919	0	0
1920	0	0
1921	0	0
1922	0	0
1923	0	0
1924	0	0
1925	0	0
1926	0	0
1927	0	0
1928	0	0
1929	0	0
1930	0	0
1931	0	0
1932	0	0
1933	0	0
1934	0	0
1935	0	0
1936	0	0
1937	0	0
1938	0	0
1939	0	0
1940	0	0
1941	0	0
1942	0	0
1943	0	0
1944	0	0
1945	0	0
1946	0	0
1947	0	0
1948	0	0
1949	0	0
1950	0	0
1951	0	0
1952	0	0
1953	0	0
1954	0	0
1955	0	0
1956	0	0
1957	0	0
1958	0	0
1959	0	0
1960	0	0
1961	0	0
1962	0	0
1963	0	0
1964	0	0
1965	0	0
1966	0	0
1967	0	0
1968	0	0
1969	0	0
1970	0	0
1971	0	0
1972	0	0
1973	0	0
1974	0	0
1975	0	0
1976	0	0
1977	0	0
1978	0	0
1979	0	0
1980	0	0
1981	0	0
1982	0	0
1983	0	0
1984	0	0
1985	0	0
1986	0	0
1987	0	0
1988	0	0
1989	0	0
1990	0	0
1991	0	0
1992	0	0
1993	0	0
1994	0	0
1995	0	0
1996	0	0
1997	0	0
1998	0	0
1999	0	0
2000	0	0
2001	0	0
2002	0	0
2003	0	0
2004	0	0
2005	0	0
2006	0	0
2007	1	0
2008	0	0
2009	0	0
2010	0	0
2011	0	0
2012	0	0
2013	0	0
2014	0	0
2015	0	0
2016	0	0
2017	0	0
2018	0	0
2019	0	0
2020	0	0
2021	0	0
2022	0	0
2023	0	0
2024	0	0
2025	0	0
2026	0	0
2027	0	0
2028	0	0
2029	0	0
2030	0	0
2031	0	0
2032	0	0
2033	0	0
2034	0	0
2035	0	0
2036	0	0
2037	0	0
2038	0	0
2039	0	0
2040	0	0
2041	0	0
2042	0	0
2043	0	0
2044	0	0
2045	0	0
2046	0	0
2047	0	0
2048	0	0
2049	0	0
2050	0	0
2051	0	0
2052	0	0
2053	0	0
2054	0	0
2055	0	0
2056	0	0
2057	0	0
2058	0	0
2059	0	0
2060	0	0
2061	0	0
2062	0	0
2063	0	0
2064	0	0
2065	0	0
2066	0	0
2067	0	0
2068	0	0
2069	0	0
2070	0	0
2071	0	0
2072	0	0
2073	0	0
2074	0	0
2075	0	0
2076	0	0
2077	0	0
2078	0	0
2079	0	0
2080	0	0
2081	0	0
2082	0	0
2083	0	0
2084	0	0
2085	0	0
2086	0	0
2087	0	0
2088	0	0
2089	0	0
2090	0	0
2091	0	0
2092	0	0
2093	0	0
2094	0	0
2095	0	0
2096	0	0
2097	0	0
2098	0	0
2099	0	0
2100	0	0
2101	0	0
2102	0	0
2103	0	0
2104	0	0
2105	0	0
2106	0	0
2107	0	0
2108	0	0
2109	0	0
2110	0	0
2111	0	0
2112	0	0
2113	0	0
2114	0	0
2115	0	0
2116	0	0
2117	0	0
2118	0	0
2119	0	0
2120	0	0
2121	0	0
2122	0	0
2123	0	0
2124	0	0
2125	0	0
2126	0	0
2127	0	0
2128	0	0
2129	1	0
2130	0	0
2131	0	0
2132	0	0
2133	0	0
2134	0	0
2135	0	0
2136	0	0
2137	0	0
2138	0	0
2139	0	0
2140	0	0
2141	0	0
2142	0	0
2143	0	0
2144	0	0
2145	0	0
2146	0	0
2147	0	0
2148	0	0
2149	0	0
2150	0	0
2151	0	0
2152	0	0
2153	0	0
2154	0	0
2155	0	0
2156	0	0
2157	0	0
2158	0	0
2159	0	0
2160	0	0
2161	0	0
2162	0	0
2163	0	0
2164	0	0
2165	0	0
2166	0	0
2167	1	0
2168	1	0
2169	1	0
2170	1	0
2171	1	0
2172	0	0
2173	0	0
2174	0	0
2175	0	0
2176	0	0
2177	0	0
2178	0	0
2179	0	0
2180	0	0
2181	0	0
2182	0	0
2183	0	0
2184	0	0
2185	0	0
2186	0	0
2187	0	0
2188	0	0
2189	1	0
2190	1	0
2191	0	0
2192	0	0
2193	0	0
2194	1	0
2195	1	0
2196	0	0
2197	0	0
2198	0	0
2199	0	0
2200	0	0
2201	0	0
2202	0	0
2203	0	0
2204	0	0
2205	0	0
2206	0	0
2207	0	0
2208	0	0
2209	0	0
2210	1	0
2211	1	0
2212	1	0
2213	1	0
2214	1	0
2215	1	0
2216	0	0
2217	0	0
2218	0	0
2219	0	0
2220	0	0
2221	0	0
2222	0	0
2223	0	0
2224	0	0
2225	0	0
2226	0	0
2227	0	0
2228	0	0
2229	0	0
2230	0	0
2231	0	0
2232	0	0
2233	0	0
2234	0	0
2235	0	0
2236	0	0
2237	0	0
2238	0	0
2239	0	0
2240	1	0
2241	1	0
2242	1	0
2243	1	0
2244	1	0
2245	1	0
2246	1	0
2247	1	0
2248	1	0
2249	1	0
2250	1	0
2251	1	0
2252	1	0
2253	1	0
2254	1	0
2255	1	0
2256	1	0
2257	1	0
2258	1	0
2259	1	0
2260	1	0
2261	1	0
2262	1	0
2263	1	0
2264	1	0
2265	1	0
2266	1	0
2267	1	0
2268	1	0
2269	1	0
2270	1	0
2271	1	0
2272	1	0
2273	1	0
2274	1	0
2275	1	0
2276	1	0
2277	1	0
2278	1	0
2279	0	0
2280	0	0
2281	0	0
2282	0	0
2283	0	0
2284	0	0
2285	0	0
2286	0	0
2287	0	0
2288	0	0
2289	0	0
2290	0	0
2291	0	0
2292	0	0
2293	0	0
2294	0	0
2295	0	0
2296	0	0
2297	0	0
2298	0	0
2299	1	0
2300	1	0
2301	1	0
2302	1	0
2303	1	0
2304	1	0
2305	1	0
2306	1	0
2307	1	0
2308	1	0
2309	1	0
2310	1	0
2311	1	0
2312	1	0
2313	1	0
2314	1	0
2315	1	0
2316	1	0
2317	1	0
2318	1	0
2319	1	0
2320	0	0
2321	0	0
2322	0	0
2323	0	0
2324	0	0
2325	0	0
2326	0	0
2327	0	0
2328	1	0
2329	0	0
2330	0	0
2331	0	0
2332	0	0
2333	0	0
2334	0	0
2335	0	0
2336	0	0
2337	0	0
2338	0	0
2339	0	0
2340	0	0
2341	0	0
2342	0	0
2343	0	0
2344	0	0
2345	0	0
2346	0	0
2347	0	0
2348	0	0
2349	0	0
2350	0	0
2351	0	0
2352	0	0
2353	0	0
2354	0	0
2355	0	0
2356	0	0
2357	0	0
2358	0	0
2359	0	0
2360	0	0
2361	0	0
2362	0	0
2363	0	0
2364	0	0.5
2365	0	0.5
2366	0	0.5
2367	0	0.5
2368	0	0.266667
2369	0	0.266667
2370	0	0.142857
2371	0	0.111111
2372	0	0.923637
2373	0	0.882353
2374	0	0.875
2375	0	0.875
2376	0	0.658333
2377	0	0.589744
2378	0	0.576923
2379	0	0.505495
2380	0	0.238095
2381	0	0.184615
2382	0	0.584829
2383	0	0.575744
2384	0	0
2385	0	0
2386	0	0
2387	0	0
2388	0	0
2389	0	0.561569
2390	0	0.561569
2391	0	0.552653
2392	0	0.212245
2393	0	0.182857
2394	0	0.116084
2395	0	0.124378
2396	0	0.14116
2397	0	0.129979
2398	0	0.0921881
2399	0	0.0828829
2400	0	0.0764706
2401	0	0.487756
2402	0	0.466291
2403	0	0.166667
2404	0	0.455243
2405	0	0.223785
2406	0	0.222506
2407	0	0.174383
2408	0	0.159859
2409	0	0.151026
2410	0	0.116878
2411	0	0.102277
2412	0	0.10335
2413	0	0.426009
2414	0	0.368122
2415	0	0.143525
2416	0	0.135811
2417	0	0.192041
2418	0	0.132286
2419	0	0.0641026
2420	0	0.0833333
2421	0	0
2422	0	0.166667
2423	0	0
2424	0	0
2425	0	0
2426	0	0
2427	0	0
2428	0	0.115791
2429	0	0.151204
2430	0	0.0912136
2431	0	0.0790236
2432	0	0.107798
2433	0	0.114286
2434	0	0.188235
2435	0	0.4
2436	0	0
2437	0	0
2438	0	0
2439	0	0
2440	0	0
2441	0	0
2442	0	0
2443	0	0
2444	0	0
2445	0	0
2446	0	0
2447	0	0
2448	0	0
2449	0	0
2450	0	0
2451	0	0
2452	0	0
2453	0	0
2454	0	0
2455	0	0
2456	0	0
2457	0	0
2458	0	0
2459	0	0
2460	0	0
2461	0	0
2462	0	0
2463	0	0
2464	0	0
2465	0	0
2466	0	0
2467	0	0
2468	0	0
2469	0	0
2470	0	0
2471	0	0
2472	0	0
2473	0	0
2474	0	0
2475	0	0
2476	0	0
2477	0	0
2478	0	0
2479	0	0
2480	0	0
2481	0	0
2482	0	0
2483	0	0
2484	0	0
2485	0	0
2486	0	0
2487	0	0
2488	0	0
2489	0	0
2490	0	0
2491	0	0
2492	0	0
2493	0	0
2494	0	0
2495	0	0
2496	0	0
2497	0	0
2498	0	0
2499	0	0
2500	0	0
2501	0	0
2502	0	0
2503	0	0
2504	0	0
2505	0	0
2506	0	0
2507	0	0
2508	0	0
2509	0	0
2510	0	0
2511	0	0
2512	0	0
2513	0	0
2514	0	0
2515	0	0
2516	0	0
2517	0	0
2518	0	0
2519	0	0
2520	0	0
2521	0	0
2522	0	0
2523	0	0
2524	0	0
2525	0	0
2526	0	0
2527	0	0
2528	0	0
2529	0	0
2530	0	0
2531	0	0
2532	0	0
2533	0	0
2534	0	0
2535	0	0
2536	0	0
2537	0	0
2538	0	0
2539	0	0
2540	0	0
2541	0	0
2542	0	0
2543	0	0
2544	0	0
2545	0	0
2546	0	0
2547	0	0
2548	0	0
2549	0	0
2550	0	0
2551	0	0
2552	0	0
2553	0	0
2554	0	0
2555	0	0
2556	0	0
2557	0	0
2558	0	0
2559	0	0
2560	0	0
2561	0	0
2562	0	0
2563	0	0
2564	0	0
2565	0	0
2566	0	0
2567	0	0
2568	0	0
2569	0	0
2570	0	0
2571	0	0
2572	0	0
2573	0	0
2574	0	0
2575	0	0
2576	0	0
2577	0	0
2578	0	0
2579	0	0
2580	0	0
2581	0	0
2582	0	0
2583	0	0
2584	0	0
2585	0	0
2586	0	0
2587	0	0
2588	0	0
2589	0	0
2590	0	0
2591	0	0
2592	0	0
2593	0	0
2594	0	0
2595	0	0
2596	0	0
2597	0	0
2598	0	0
2599	0	0
2600	0	0
2601	0	0
2602	0	0
2603	0	0
2604	0	0
2605	0	0
2606	0	0
2607	0	0
2608	0	0
2609	0	0
2610	0	0
2611	0	0
2612	0	0
2613	0	0
2614	0	0
2615	0	0
2616	0	0
2617	0	0
2618	0	0
2619	0	0
2620	0	0
2621	0	0
2622	0	0
2623	0	0
2624	0	0
2625	0	0
2626	0	0
2627	0	0
2628	0	0
2629	0	0
2630	0	0
2631	0	0
2632	0	0
2633	0	0
2634	0	0
2635	0	0
2636	0	0
2637	0	0
2638	0	0
2639	0	0
2640	0	0
2641	0	0
2642	0	0
2643	0	0
2644	0	0
2645	0	0
2646	0	0
2647	0	0
2648	0	0
2649	0	0
2650	0	0
2651	0	0
2652	1	0
2653	1	0
2654	1	0
2655	1	0
2656	1	0
2657	1	0
2658	1	0
2659	0	0
2660	0	0
2661	0	0
2662	0	0
2663	0	0
2664	0	0
2665	0	0
2666	0	0
2667	0	0
2668	0	0
2669	0	0
2670	0	0
2671	0	0
2672	0	0
2673	0	0
2674	0	0
2675	0	0
2676	0	0
2677	0	0
2678	0	0
2679	0	0
2680	0	0
2681	0	0
2682	0	0
2683	0	0
2684	0	0
2685	0	0
2686	0	0
2687	0	0
2688	0	0
2689	0	0
2690	0	0.201701
2691	0	0.260742
2692	0	0.266847
2693	0	0
2694	0	0
2695	0	0
2696	0	0
2697	0	0
2698	0	0
2699	0	0
2700	0	0
2701	0	0
2702	0	0
2703	0	0.0222222
2704	0	0.0181818
2705	0	0.396466
2706	0	0
2707	0	0
2708	0	0
2709	0	0
2710	0	0
2711	0	0
2712	0	0
2713	0	0
2714	0	0
2715	0	0
2716	0	0
2717	0	0
2718	0	0.361407
2719	0	0.361133
2720	0	0.0714286
2721	0	0.0714286
2722	0	0.434893
2723	0	0.437819
2724	0	0.440485
2725	0	0.43806
2726	0	0.705128
2727	0	0.705128
2728	0	0.129469
2729	0	0.0797468
2730	0	0.0623418
2731	0	0.119543
2732	0	0.112322
2733	0	0.338311
2734	0	0.0277778
2735	0	0
2736	0	0
2737	0	0
2738	0	0.0473684
2739	0	0.0473684
2740	0	0.0428571
2741	0	0.047619
2742	0	0.664188
2743	0	0
2744	0	0
2745	0	0
2746	0	0
2747	0	0
2748	0	0
2749	0	0
2750	0	0
2751	0	0.0222222
2752	0	0.547899
2753	0	0.107498
2754	0	0.0444444
2755	0	0.0606061
2756	0	0.108539
2757	0	0.0890269
2758	0	0.183517
2759	0	0.145183
2760	0	0.10933
2761	0	0.0833983
2762	0	0.0639379
2763	0	0
2764	0	0
2765	0	0
2766	0	0.0108696
2767	0	0.021645
2768	0	0.0181159
2769	0	0.0541485
2770	0	0
2771	0	0
2772	0	0
2773	0	0
2774	0	0.0795699
2775	0	0.0795699
2776	0	0.0806452
2777	0	0.0766129
2778	0	0.119672
2779	0	0.119672
2780	0	0.0524399
2781	0	0
2782	0	0
2783	0	0
2784	0	0
2785	0	0
2786	0	0
2787	0	0
2788	0	0
2789	0	0
2790	0	0
2791	0	0.183936
2792	0	0.193703
2793	0	0.122596
2794	0	0.122115
2795	0	0.108269
2796	0	0
2797	0	0
2798	0	0
2799	0	0
2800	0	0
2801	0	0
2802	0	0
2803	0	0
2804	0	0
2805	0	0
2806	0	0
2807	0	0
2808	0	0
2809	0	0
2810	0	0
2811	0	0
2812	0	0
2813	0	0
2814	0	0
2815	0	0
2816	0	0
2817	0	0
2818	0	0
2819	0	0
2820	0	0
2821	0	0
2822	0	0
2823	0	0.0222222
2824	0	0.0151515
2825	0	0.0151515
2826	0	0.00735294
2827	0	0.72942
2828	0	0.705976
2829	0	0.672679
2830	0	0.606234
2831	0	0.517725
2832	0	0.390317
2833	0	0.243416
2834	0	0.237437
2835	0	0.171092
2836	0	0.179198
2837	0	0.149137
2838	0	0.123676
2839	0	0.114577
2840	0	0.109506
2841	0	0.0967405
2842	0	0.0541441
2843	0	0.0534795
2844	0	0.0558284
2845	0	0.0689105
2846	0	0.0562771
2847	0	0.0735931
2848	0	0.0632411
2849	0	0.057971
2850	0	0.0652174
2851	0	0.0633333
2852	0	0.0523077
2853	0	0.0714382
2854	0	0.0708063
2855	0	0.0981127
2856	0	0.0886139
2857	0	0.0836967
2858	0	0.101478
2859	0	0.103812
2860	0	0.106191
2861	0	0.194879
2862	0	0.194464
2863	0	0.110779
2864	0	0.118248
2865	0	0.124727
2866	0	0.127577
2867	0	0.108591
2868	0	0.113018
2869	0	0.113684
2870	0	0.026827
2871	0	0.0286772
2872	0	0.0343434
2873	0	0.0343434
2874	0	0.0424242
2875	0	0.0414141
2876	0	0.0313131
2877	0	0.167538
2878	0	0.151991
2879	0	0.162092
2880	0	0.16492
2881	0	0
2882	0	0
2883	0	0
2884	0	0
2885	0	0
2886	0	0
2887	0	0
2888	0	0
2889	0	0
2890	0	0
2891	0	0
2892	0	0
2893	0	0.557692
2894	0	0
2895	0	0
2896	0	0
2897	0	0
2898	0	0
2899	0	0
2900	0	0
2901	0	0
2902	0	0
2903	0	0
2904	0	0
2905	0	0
2906	0	0
2907	0	0
2908	0	0
2909	0	0
2910	0	0
2911	0	0
2912	0	0
2913	0	0
2914	0	0
2915	0	0
2916	0	0
2917	0	0
2918	0	0
2919	0	0
2920	0	0.282764
2921	0	0.273003
2922	0	0.276171
2923	0	0.276997
2924	0	0.285434
2925	0	0.284734
2926	0	0.376164
2927	0	0.377158
2928	0	0.113757
2929	0	0.113757
2930	0	0.113757
2931	0	0.111111
2932	0	0.105911
2933	0	0.0988506
2934	0	0.0695122
2935	0	0.0429864
2936	0	0.362707
2937	0	0.367373
2938	0	0.567114
2939	0	0
2940	0	0
2941	0	0
2942	0	0
2943	0	0
2944	0	0.285714
2945	0	0.214286
2946	0	0.214286
2947	0	0.166667
2948	0	0.166667
2949	0	0.133333
2950	0	0.109091
2951	0	0.106061
2952	0	0.0897436
2953	0	0.0769231
2954	0	0.0583333
2955	0	0.668124
2956	0	0.324329
2957	0	0.312695
2958	0	0.314169
2959	0	0.614215
2960	0	0.181287
2961	0	0.181287
2962	0	0.194444
2963	0	0.194444
2964	0	0.194444
2965	0	0.194444
2966	0	0.194444
2967	0	0.194444
2968	0	0.194444
2969	0	0.194444
2970	0	0.194444
2971	0	0.0833333
2972	0	0.0833333
2973	0	0.107143
2974	0	0.564657
2975	0	0.562414
2976	0	0.133333
2977	0	0.133333
2978	0	0.133333
2979	0	0.4
2980	0	0.4
2981	0	0.4
2982	0	0.4
2983	0	0.4
2984	0	0.4
2985	0	0.4
2986	0	0.4
2987	0	0.4
2988	0	0.4
2989	0	0.4
2990	0	0.4
2991	0	0.4
2992	0	0.4
2993	0	0.4
2994	0	0.4
2995	0	0.4
2996	0	0.4
2997	0	0.4
2998	0	0.4
2999	0	0.4
3000	0	0.4
3001	0	0.4
3002	0	0.4
3003	0	0.4
3004	0	0.4
3005	0	0.4
3006	0	0.4
3007	0	0.133333
3008	0	0.0833333
3009	0	0.0833333
3010	0	0.0555556
3011	0	0.0444444
3012	0	0.0444444
3013	0	0.0894737
3014	0	0.0894737
3015	0	0.579905
3016	0	0.582157
3017	0	0.1
3018	0	0.1
3019	0	0.1
3020	0	0.1
3021	0	0.1
3022	0	0.1
3023	0	0.1
3024	0	0.1
3025	0	0.1
3026	0	0.1
3027	0	0.1
3028	0	0.1
3029	0	0.1
3030	0	0.1
3031	0	0.1
3032	0	0
3033	0	0
3034	0	0
3035	0	0
3036	0	0
3037	0	0
3038	0	0
3039	0	0
3040	0	0
3041	0	0
3042	0	0
3043	0	0
3044	0	0
3045	0	0
3046	0	0
3047	0	0
3048	0	0
3049	0	0
3050	0	0
3051	0	0.047619
3052	0	0.0888889
3053	0	0.562057
3054	0	0.27792
3055	0	0.261972
3056	0	0.197802
3057	0	0.197988
3058	0	0.223017
3059	0	0.354212
3060	0	0.492654
3061	0	0.0181818
3062	0	0.0181818
3063	0	0.0130719
3064	0	0.0175439
3065	0	0.0175439
3066	0	0.0471014
3067	0	0.04
3068	0	0.500239
3069	0	0.306802
3070	0	0.226641
3071	0	0.285493
3072	0	0.284304
3073	0	0.307241
3074	0	0.21905
3075	0	0.259651
3076	0	0.259651
3077	0	0.13
3078	0	0.103333
3079	0	0.103333
3080	0	0.156667
3081	0	0.221484
3082	0	0.154882
3083	0	0.259919
3084	0	0.418639
3085	0	0.406875
3086	0	0.181108
3087	0	0.186885
3088	0	0.206504
3089	0	0.288707
3090	0	0.22781
3091	0	0.0359848
3092	0	0.042328
3093	0	0.08
3094	0	0.398373
3095	0	0.0357143
3096	0	0.0357143
3097	0	0.0357143
3098	0	0
3099	0	0
3100	0	0
3101	0	0
3102	0	0
3103	0	0
3104	0	0
3105	0	0
3106	0	0
3107	0	0
3108	0	0
3109	0	0
3110	0	0.303652
3111	0	0.300954
3112	0	0.487988
3113	0	0.398319
3114	0	0.42246
3115	0	0.42246
3116	0	0.42246
3117	0	0.448848
3118	0	0.7892
3119	0	0
3120	0	0
3121	0	0
3122	0	0
3123	0	0
3124	0	0
3125	0	0
3126	0	0
3127	0	0
3128	0	0
3129	0	0
3130	0	0
3131	0	0
3132	0	0
3133	0	0
3134	0	0
3135	0	0
3136	0	0
3137	0	0
3138	0	0
3139	0	0
3140	0	0
3141	0	0
3142	0	0
3143	0	0
3144	0	0
3145	0	0
3146	0	0.151515
3147	0	0.181818
3148	0	0.128205
3149	0	0.128205
3150	0	0
3151	0	0
3152	0	0
3153	0	0
3154	0	0
3155	0	0
3156	0	0
3157	0	0
3158	0	0
3159	0	0
3160	0	0
3161	0	0
3162	0	0
3163	0	0
3164	0	0
3165	0	0
3166	0	0
3167	0	0
3168	0	0
3169	0	0
3170	0	0
3171	0	0
3172	0	0
3173	0	0
3174	0	0
3175	0	0
3176	0	0
3177	0	0
3178	0	0
3179	0	0
3180	0	0
3181	0	0
3182	0	0
3183	0	0
3184	0	0
3185	0	0
3186	0	0
3187	0	0
3188	0	0
3189	0	0
3190	0	0
3191	0	0
3192	0	0
3193	0	0.31354
3194	0	0.31821
3195	0	0.331872
3196	0	0.533537
3197	0	0.539745
3198	0	0
3199	0	0
3200	0	0
3201	0	0
3202	0	0
3203	0	0
3204	0	0
3205	0	0
3206	0	0
3207	0	0
3208	0	0
3209	0	0
3210	0	0
3211	0	0
3212	0	0
3213	0	0
3214	0	0
3215	0	0
3216	0	0
3217	0	0
3218	0	0
3219	0	0
3220	0	0
3221	0	0
3222	0	0
3223	0	0
3224	0	0
3225	0	0
3226	0	0
3227	0	0
3228	0	0
3229	0	0
3230	0	0
3231	0	0
3232	0	0
3233	0	0
3234	0	0
3235	0	0
3236	0	0
3237	0	0
3238	0	0
3239	0	0
3240	0	0
3241	0	0
3242	0	0
3243	0	0.0181818
3244	0	0.0181818
3245	0	0.0181818
3246	0	0.025641
3247	0	0.032967
3248	0	0.0514706
3249	0	0.143791
3250	0	0.570699
3251	0	0.562742
3252	0	0
3253	0	0
3254	0	0
3255	0	0
3256	0	0
3257	0	0
3258	0	0
3259	0	0
3260	0	0
3261	0	0
3262	0	0.047619
3263	0	0.047619
3264	0	0.0357143
3265	0	0.107143
3266	0	0.0833333
3267	0	0.133333
3268	0	0.164835
3269	0	0.142857
3270	0	0.125
3271	0	0.794387
3272	0	0.794189
3273	0	0.241758
3274	0	0.0555556
3275	0	0.0714286
3276	0	0.0714286
3277	0	0.0714286
3278	0	0.0714286
3279	0	0.047619
3280	0	0
3281	0	0
3282	0	0
3283	0	0
3284	0	0
3285	0	0
3286	0	0
3287	0	0
3288	0	0
3289	0	0
3290	0	0
3291	0	0
3292	0	0
3293	0	0
3294	0	0
3295	0	0
3296	0	0
3297	0	0
3298	0	0
3299	0	0
3300	0	0
3301	0	0
3302	0	0
3303	0	0
3304	0	0
3305	0	0
3306	0	0
3307	0	0
3308	0	0
3309	0	0
3310	0	0
3311	0	0
3312	0	0
3313	0	0
3314	0	0
3315	0	0
3316	0	0
3317	0	0
3318	0	0
3319	0	0
3320	0	0
3321	0	0
3322	0	0
3323	0	0
3324	0	0
3325	0	0
3326	0	0
3327	0	0
3328	0	0
3329	0	0
3330	0	0.533735
3331	0	0.535803
3332	0	0
3333	0	0
3334	0	0
3335	0	0
3336	0	0
3337	0	0
3338	0	0
3339	0	0
3340	0	0
3341	0	0
3342	0	0
3343	0	0
3344	0	0
3345	0	0
3346	0	0
3347	0	0
3348	0	0.878378
3349	0	0
3350	0	0
3351	0	0
3352	0	0
3353	0	0
3354	0	0
3355	0	0
3356	0	0
3357	0	0
3358	0	0
3359	0	0
3360	0	0
3361	0	0
3362	0	0
3363	0	0
3364	0	0
3365	0	0
3366	0	0
3367	0	0
3368	0	0
3369	0	0
3370	0	0
3371	0	0
3372	0	0
3373	0	0
3374	0	0
3375	0	0
3376	0	0
3377	0	0
3378	0	0
3379	0	0
3380	0	0
3381	0	0
3382	0	0
3383	0	0
3384	0	0
3385	0	0
3386	0	0
3387	0	0
3388	0	0
3389	0	0
3390	0	0
3391	0	0
3392	0	0
3393	0	0
3394	0	0
3395	0	0
3396	0	0
3397	0	0
3398	0	0
3399	0	0
3400	0	0
3401	0	0
3402	0	0
3403	0	0
3404	0	0
3405	0	0
3406	0	0
3407	0	0
3408	0	0
3409	0	0
3410	0	0
3411	0	0
3412	0	0
3413	0	0
3414	0	0
3415	0	0
3416	0	0
3417	0	0
3418	0	0
3419	0	0
3420	0	0
3421	0	0
3422	0	0
3423	0	0
3424	0	0
3425	0	0
3426	0	0
3427	0	0
3428	0	0
3429	0	0
3430	0	0
3431	0	0
3432	0	0
3433	0	0
3434	0	0
3435	0	0
3436	0	0
3437	0	0
3438	0	0
3439	0	0
3440	0	0
3441	0	0
3442	0	0
3443	0	0
3444	0	0
3445	0	0
3446	0	0
3447	0	0
3448	0	0
3449	0	0
3450	0	0
3451	0	0
3452	0	0
3453	0	0
3454	0	0
3455	0	0
3456	0	0
3457	0	0
3458	0	0
3459	0	0
3460	0	0
3461	0	0
3462	0	0
3463	0	0
3464	0	0
3465	0	0
3466	0	0
3467	0	0
3468	0	0
3469	0	0
3470	0	0
3471	0	0
3472	0	0
3473	0	0
3474	0	0
3475	0	0
3476	0	0
3477	0	0
3478	0	0
3479	0	0
3480	0	0
3481	0	0
3482	0	0
3483	0	0
3484	0	0
3485	0	0
3486	0	0
3487	0	0
3488	0	0
3489	0	0
3490	0	0
3491	0	0
3492	0	0
3493	0	0
3494	0	0
3495	0	0
3496	0	0
3497	0	0
3498	0	0
3499	0	0
3500	0	0
3501	0	0.535714
3502	0	0.476431
3503	0	0.47576
3504	0	0.437701
3505	0	0.38279
3506	0	0.531573
3507	0	0.190342
3508	0	0.167553
3509	0	0.0166667
3510	0	0.00735294
3511	0	0.00833333
3512	0	0.00833333
3513	0	0
3514	0	0
3515	0	0
3516	0	0
3517	0	0
3518	0	0
3519	0	0
3520	0	0
3521	0	0
3522	0	0
3523	0	0
3524	0	0
3525	0	0
3526	0	0
3527	0	0
3528	0	0
3529	0	0
3530	0	0
3531	0	0
3532	0	0
3533	0	0
3534	0	0
3535	0	0
3536	0	0
3537	0	0
3538	0	0
3539	0	0
3540	0	0
3541	0	0
3542	0	0
3543	0	0
3544	0	0
3545	0	0
3546	0	0
3547	0	0
3548	0	0
3549	0	0
3550	0	0
3551	0	0
3552	0	0
3553	0	0
3554	0	0
3555	0	0
3556	0	0
3557	0	0
3558	0	0
3559	0	0
3560	0	0
3561	0	0
3562	0	0
3563	0	0
3564	0	0
3565	0	0
3566	0	0
3567	0	0
3568	0	0
3569	0	0
3570	0	0
3571	0	0
3572	0	0
3573	0	0
3574	0	0
3575	0	0
3576	0	0
3577	0	0
3578	0	0
3579	0	0
3580	0	0
3581	0	0
3582	0	0
3583	0	0
3584	0	0
3585	0	0
3586	0	0
3587	0	0
3588	0	0
3589	0	0
3590	0	0
3591	0	0
3592	0	0
3593	0	0
3594	0	0
3595	0	0
3596	0	0
3597	0	0
3598	0	0
3599	0	0
3600	0	0
3601	0	0
3602	0	0
3603	0	0
3604	0	0
3605	0	0
3606	0	0
3607	0	0
3608	0	0
3609	0	0
3610	0	0
3611	0	0
3612	0	0
3613	0	0
3614	0	0
3615	0	0
3616	0	0
3617	0	0
3618	0	0
3619	0	0
3620	0	0
3621	0	0
3622	0	0
3623	0	0
3624	0	0
3625	0	0
3626	0	0
3627	0	0
3628	0	0
3629	0	0
3630	0	0
3631	0	0
3632	0	0
3633	0	0
3634	0	0
3635	0	0
3636	0	0
3637	0	0
3638	0	0
3639	0	0
3640	0	0
3641	0	0
3642	0	0
3643	0	0
3644	0	0
3645	0	0
3646	0	0
3647	0	0
3648	0	0
3649	0	0
3650	0	0
3651	0	0
3652	0	0
3653	0	0
3654	0	0
3655	0	0
3656	0	0
3657	0	0
3658	0	0
3659	0	0
3660	0	0
3661	0	0
3662	0	0
3663	0	0
3664	0	0
3665	0	0
3666	0	0
3667	0	0
3668	0	0
3669	0	0
3670	0	0
3671	0	0
3672	0	0
3673	0	0
3674	0	0
3675	0	0
3676	0	0
3677	0	0
3678	0	0
3679	0	0
3680	0	0
3681	0	0
3682	0	0
3683	0	0
3684	0	0
3685	0	0
3686	0	0
3687	0	0
3688	0	0
3689	0	0
3690	0	0
3691	0	0
3692	0	0
3693	0	0
3694	0	0
3695	0	0
3696	0	0
3697	0	0
3698	0	0
3699	0	0
3700	0	0
3701	0	0
3702	0	0
3703	0	0
3704	0	0
3705	0	0
3706	0	0
3707	0	0
3708	0	0
3709	0	0
3710	0	0
3711	0	0
3712	0	0
3713	0	0
3714	0	0
3715	0	0
3716	0	0
3717	0	0
3718	0	0
3719	0	0
3720	0	0
3721	0	0
3722	0	0
3723	0	0
3724	0	0
3725	0	0
3726	0	0
3727	0	0
3728	0	0
3729	0	0
3730	0	0
3731	0	0
3732	0	0
3733	0	0
3734	0	0
3735	0	0
3736	0	0
3737	0	0
3738	0	0
3739	0	0
3740	0	0
3741	0	0
3742	0	0
3743	0	0
3744	0	0
3745	0	0
3746	0	0
3747	0	0
3748	0	0
3749	0	0
3750	0	0
3751	0	0
3752	0	0
3753	0	0
3754	0	0
3755	0	0
3756	0	0
3757	0	0
3758	0	0
3759	0	0
3760	0	0
3761	0	0
3762	0	0
3763	0	0
3764	0	0
3765	0	0
3766	0	0
3767	0	0
3768	0	0
3769	0	0
3770	0	0
3771	1	0
3772	0	0
3773	0	0
3774	0	0
3775	0	0
3776	0	0
3777	0	0
3778	0	0
3779	0	0
3780	0	0
3781	0	0
3782	0	0
3783	0	0
3784	0	0
3785	0	0
3786	0	0
3787	0	0
3788	0	0
3789	0	0
3790	0	0
3791	0	0
3792	0	0
3793	0	0
3794	0	0
3795	0	0
3796	0	0
3797	0	0
3798	0	0
3799	0	0
3800	0	0
3801	0	0
3802	0	0
3803	0	0
3804	0	0
3805	0	0
3806	0	0
3807	0	0
3808	0	0
3809	0	0
3810	0	0
3811	0	0
3812	0	0
3813	1	0
3814	1	0
3815	0	0
3816	0	0
3817	1	0
3818	1	0
3819	1	0
3820	1	0
3821	1	0
3822	1	0
3823	0	0
3824	0	0
3825	0	0
3826	0	0
3827	0	0
3828	0	0
3829	0	0
3830	0	0
3831	0	0
3832	0	0
3833	0	0
3834	1	0
3835	1	0
3836	1	0
3837	0	0
3838	0	0
3839	0	0
3840	0	0
3841	0	0
3842	0	0
3843	0	0
3844	0	0
3845	0	0
3846	0	0
3847	0	0
3848	0	0
3849	0	0
3850	0	0
3851	0	0
3852	0	0
3853	0	0
3854	0	0
3855	0	0
3856	0	0
3857	0	0
3858	0	0
3859	0	0
3860	0	0
3861	0	0
3862	0	0
3863	0	0
3864	1	0
3865	1	0
3866	1	0
3867	1	0
3868	1	0
3869	1	0
3870	1	0
3871	1	0
3872	1	0
3873	1	0
3874	1	0
3875	0	0
3876	0	0
3877	0	0
3878	0	0
3879	1	0
3880	1	0
3881	1	0
3882	1	0
3883	1	0
3884	1	0
3885	0	0
3886	0	0
3887	0	0
3888	0	0
3889	0	0
3890	0	0
3891	0	0
3892	0	0
3893	0	0
3894	0	0
3895	0	0
3896	0	0
3897	0	0
3898	0	0
3899	0	0
3900	0	0
3901	0	0
3902	0	0
3903	0	0
3904	0	0
3905	0	0
3906	0	0
3907	0	0
3908	0	0
3909	0	0
3910	0	0
3911	0	0
3912	0	0
3913	0	0
3914	0	0
3915	0	0
3916	0	0
3917	0	0
3918	0	0
3919	0	0
3920	0	0
3921	0	0
3922	0	0
3923	0	0
3924	0	0
3925	0	0
3926	0	0
3927	0	0
3928	0	0
3929	0	0
3930	0	0
3931	0	0
3932	0	0
3933	0	0
3934	0	0
3935	0	0
3936	0	0
3937	0	0
3938	0	0
3939	0	0
3940	0	0
3941	0	0
3942	0	0
3943	0	0
3944	0	0
3945	0	0
3946	0	0
3947	0	0
3948	0	0
3949	0	0
3950	0	0
3951	0	0
3952	0	0
3953	0	0
3954	0	0
3955	0	0
3956	0	0
3957	0	0
3958	0	0
3959	0	0
3960	0	0
3961	0	0
3962	0	0
3963	0	0
3964	0	0
3965	0	0
3966	0	0
3967	0	0
3968	0	0
3969	0	0
3970	0	0
3971	0	0
3972	0	0
3973	0	0
3974	0	0
3975	0	0
3976	0	0
3977	0	0
3978	0	0
3979	0	0
3980	0	0
3981	0	0
3982	0	0
3983	0	0
3984	0	0
3985	0	0
3986	0	0
3987	0	0
3988	0	0
3989	0	0
3990	0	0
3991	0	0
3992	0	0
3993	0	0
3994	0	0
3995	0	0
3996	0	0
3997	0	0
3998	0	0
3999	0	0
4000	0	0
4001	0	0
4002	0	0
4003	0	0
4004	0	0
4005	0	0
4006	0	0
4007	0	0
4008	1	0
4009	1	0
4010	0	0
4011	0	0
4012	0	0
4013	0	0
4014	0	0
4015	0	0
4016	0	0
4017	0	0
4018	0	0
4019	0	0
4020	0	0
4021	0	0
4022	0	0
4023	0	0
4024	0	0
4025	0	0
4026	0	0
4027	0	0
4028	0	0
4029	0	0
4030	0	0
4031	0	0
4032	0	0
4033	0	0
4034	0	0
4035	0	0
4036	0	0
4037	0	0
4038	0	0
4039	0	0
4040	0	0
4041	0	0
4042	0	0
4043	0	0
4044	0	0
4045	0	0
4046	1	0
4047	1	0
4048	1	0
4049	1	0
4050	1	0
4051	0	0
4052	0	0
4053	0	0
4054	0	0
4055	1	0
4056	0	0
4057	0	0
4058	0	0
4059	0	0
4060	0	0
4061	0	0
4062	0	0
4063	0	0
4064	0	0
4065	0	0
4066	0	0
4067	0	0
4068	0	0
4069	0	0
4070	0	0
4071	0	0
4072	0	0
4073	0	0
4074	0	0
4075	0	0
4076	0	0
4077	0	0
4078	0	0
4079	0	0
4080	0	0
4081	0	0
4082	0	0
4083	0	0
4084	0	0
4085	0	0
4086	0	0
4087	0	0
4088	0	0
4089	0	0
4090	0	0
4091	0	0
4092	0	0
4093	0	0
4094	0	0
4095	0	0
4096	0	0
4097	0	0
4098	0	0
4099	0	0
4100	0	0
4101	0	0
4102	0	0
4103	0	0
4104	0	0
4105	0	0
4106	0	0
4107	1	0
4108	1	0
4109	1	0
4110	1	0
4111	1	0
4112	1	0
4113	1	0
4114	1	0
4115	1	0
4116	1	0
4117	0	0
4118	0	0
4119	0	0
4120	0	0
4121	0	0
4122	0	0
4123	0	0
4124	0	0
4125	0	0
4126	0	0
4127	0	0
4128	0	0
4129	0	0
4130	0	0
4131	0	0
4132	0	0
4133	0	0
4134	0	0
4135	0	0
4136	0	0
4137	0	0
4138	0	0
4139	0	0
4140	0	0
4141	0	0
4142	0	0
4143	0	0
4144	0	0
4145	0	0
4146	0	0
4147	0	0
4148	0	0
4149	0	0
4150	0	0
4151	0	0
4152	0	0
4153	0	0
4154	0	0
4155	0	0
4156	0	0
4157	0	0
4158	0	0
4159	0	0
4160	0	0
4161	0	0
4162	0	0
4163	0	0
4164	0	0
4165	0	0
4166	0	0
4167	0	0
4168	0	0
4169	0	0
4170	0	0
4171	0	0
4172	0	0
4173	0	0
4174	0	0
4175	0	0
4176	0	0
4177	0	0
4178	0	0
4179	0	0
4180	1	0
4181	1	0
4182	1	0
4183	0	0
4184	0	0
4185	0	0
4186	0	0
4187	0	0
4188	0	0
4189	0	0
4190	0	0
4191	0	0
4192	0	0
4193	0	0
4194	0	0
4195	0	0
4196	0	0
4197	0	0
4198	0	0
4199	0	0
4200	0	0
4201	0	0
4202	0	0
4203	0	0
4204	0	0
4205	0	0
4206	0	0
4207	0	0
4208	0	0
4209	0	0
4210	0	0
4211	0	0
4212	0	0
4213	0	0
4214	0	0
4215	0	0
4216	0	0
4217	0	0
4218	0	0
4219	0	0
4220	0	0
4221	0	0
4222	0	0
4223	0	0
4224	1	0
4225	1	0
4226	1	0
4227	0	0
4228	0	0
4229	0	0
4230	0	0
4231	0	0
4232	0	0
4233	0	0
4234	0	0
4235	0	0
4236	0	0
4237	0	0
4238	0	0
4239	0	0
4240	0	0
4241	0	0
4242	0	0
4243	0	0
4244	1	0
4245	1	0
4246	1	0
4247	1	0
4248	0	0
4249	0	0
4250	0	0
4251	0	0
4252	0	0
4253	0	0
4254	0	0
4255	0	0
4256	0	0
4257	0	0
4258	0	0
4259	0	0
4260	0	0
4261	0	0
4262	0	0
4263	0	0
4264	0	0
4265	1	0
4266	1	0
4267	1	0
4268	1	0
4269	1	0
4270	1	0
4271	1	0
4272	1	0
4273	1	0
4274	1	0
4275	1	0
4276	1	0
4277	1	0
4278	1	0
4279	1	0
4280	1	0
4281	1	0
4282	1	0
4283	1	0
4284	1	0
4285	1	0
4286	1	0
4287	1	0
4288	1	0
4289	1	0
4290	1	0
4291	1	0
4292	1	0
4293	1	0
4294	1	0
4295	1	0
4296	1	0
4297	1	0
4298	1	0
4299	1	0
4300	1	0
4301	1	0
4302	1	0
4303	1	0
4304	1	0
4305	1	0
4306	1	0
4307	1	0
4308	1	0
