Site	ColumnScore	SumOfPairsScore
1	0	0
2	0	0
3	0	0
4	0	0
5	0	0
6	0	0
7	0	0
8	0	0
9	0	0
10	0	0
11	0	0
12	0	0
13	0	0
14	0	0
15	0	0
16	0	0
17	0	0
18	0	0
19	0	0
20	0	0
21	0	0
22	0	0
23	0	0
24	0	0
25	0	0
26	0	0
27	0	0
28	0	0
29	0	0
30	0	0
31	0	0
32	0	0
33	0	0
34	0	0
35	0	0
36	0	0
37	0	0
38	0	0
39	0	0
40	0	0
41	0	0
42	0	0
43	0	0
44	0	0
45	0	0
46	0	0
47	0	0
48	0	0
49	0	0
50	0	0
51	0	0
52	0	0
53	0	0
54	0	0
55	0	0
56	0	0
57	0	0
58	0	0
59	0	0
60	0	0
61	0	0
62	0	0
63	0	0
64	0	0
65	0	0
66	0	0
67	0	0
68	0	0
69	0	0
70	0	0
71	0	0
72	0	0
73	0	0
74	0	0
75	0	0
76	0	0
77	0	0
78	0	0
79	0	0
80	0	0
81	0	0
82	0	0
83	0	0
84	0	0
85	0	0
86	0	0
87	0	0
88	0	0
89	0	0
90	0	0
91	0	0
92	0	0
93	0	0
94	0	0
95	0	0
96	0	0
97	0	0
98	0	0
99	0	0
100	0	0
101	0	0
102	0	0
103	0	0
104	0	0
105	0	0
106	0	0
107	0	0
108	0	0
109	0	0
110	0	0
111	0	0
112	0	0
113	0	0
114	0	0
115	0	0
116	0	0
117	0	0
118	0	0
119	0	0
120	0	0
121	0	0
122	0	0
123	0	0
124	0	0
125	0	0
126	0	0
127	0	0
128	0	0
129	0	0
130	0	0
131	0	0
132	0	0
133	0	0
134	0	0
135	0	0
136	0	0
137	0	0
138	0	0
139	0	0
140	0	0
141	0	0
142	0	0
143	0	0
144	0	0
145	0	0
146	0	0
147	0	0
148	0	0
149	0	0
150	0	0
151	0	0
152	0	0
153	0	0
154	0	0
155	0	0
156	0	0
157	0	0
158	0	0
159	0	0
160	0	0
161	0	0
162	0	0
163	0	0
164	0	0
165	0	0
166	0	0
167	0	0
168	0	0
169	0	0
170	0	0
171	0	0
172	0	0
173	0	0
174	0	0
175	0	0
176	0	0
177	0	0
178	0	0
179	0	0
180	0	0
181	0	0
182	0	0
183	0	0
184	0	0
185	0	0
186	0	0
187	0	0
188	0	0
189	0	0
190	0	0
191	0	0
192	0	0
193	0	0
194	0	0
195	0	0
196	0	0
197	0	0
198	0	0
199	0	0
200	0	0
201	0	0
202	0	0
203	0	0
204	0	0
205	0	0
206	0	0
207	0	0
208	0	0
209	0	0
210	0	0
211	0	0
212	0	0
213	0	0
214	0	0
215	0	0
216	0	0
217	0	0
218	0	0
219	0	0
220	0	0
221	0	0
222	0	0
223	0	0
224	0	0
225	0	0
226	0	0
227	0	0
228	0	0
229	0	0
230	0	0
231	0	0
232	0	0
233	0	0
234	0	0
235	0	0
236	0	0
237	0	0
238	0	0
239	0	0
240	0	0
241	0	0
242	0	0
243	0	0
244	0	0
245	0	0
246	0	0
247	0	0
248	0	0
249	0	0
250	0	0
251	0	0
252	0	0
253	0	0
254	0	0
255	0	0
256	0	0
257	0	0
258	0	0
259	0	0
260	0	0
261	0	0
262	0	0
263	0	0
264	0	0
265	0	0
266	0	0
267	0	0
268	0	0
269	0	0
270	0	0
271	0	0
272	0	0
273	0	0
274	0	0
275	0	0
276	0	0
277	0	0
278	0	0
279	0	0
280	0	0
281	0	0
282	0	0
283	0	0
284	0	0
285	0	0
286	0	0
287	0	0
288	0	0
289	0	0
290	0	0
291	0	0
292	0	0
293	0	0
294	0	0
295	0	0
296	0	0
297	0	0
298	0	0
299	0	0
300	0	0
301	0	0
302	0	0
303	0	0
304	0	0
305	0	0
306	0	0
307	0	0
308	0	0
309	0	0
310	0	0
311	0	0
312	0	0
313	0	0
314	0	0
315	0	0
316	0	0
317	0	0
318	0	0
319	0	0
320	0	0
321	0	0
322	0	0
323	0	0
324	0	0
325	0	0
326	0	0
327	0	0
328	0	0
329	0	0
330	0	0
331	0	0
332	0	0
333	0	0
334	0	0
335	0	0
336	0	0
337	0	0
338	0	0
339	0	0
340	0	0
341	0	0
342	0	0
343	0	0
344	0	0
345	0	0
346	0	0
347	0	0
348	0	0
349	0	0
350	0	0
351	0	0
352	0	0
353	0	0
354	0	0
355	0	0
356	0	0
357	0	0
358	0	0
359	0	0
360	0	0
361	0	0
362	0	0
363	0	0
364	0	0
365	0	0
366	0	0
367	0	0
368	0	0
369	0	0
370	0	0
371	0	0
372	0	0
373	0	0
374	0	0
375	0	0
376	0	0
377	0	0
378	0	0
379	0	0
380	0	0
381	0	0
382	0	0
383	0	0
384	0	0
385	0	0
386	0	0
387	0	0
388	0	0
389	0	0
390	0	0
391	0	0
392	0	0
393	0	0
394	0	0
395	0	0
396	0	0
397	0	0
398	0	0
399	0	0
400	0	0
401	0	0
402	0	0
403	0	0
404	0	0
405	0	0
406	0	0
407	0	0
408	0	0
409	0	0
410	0	0
411	0	0
412	0	0
413	0	0
414	0	0
415	0	0
416	0	0
417	0	0
418	0	0
419	0	0
420	0	0
421	0	0
422	0	0
423	0	0
424	0	0
425	0	0
426	0	0
427	0	0
428	0	0
429	0	0
430	0	0
431	0	0
432	0	0
433	0	0
434	0	0
435	0	0
436	0	0
437	0	0
438	0	0
439	0	0
440	0	0
441	0	0
442	0	0
443	0	0
444	0	0
445	0	0
446	0	0
447	0	0
448	0	0
449	0	0
450	0	0
451	0	0
452	0	0
453	0	0
454	0	0
455	0	0
456	0	0
457	0	0
458	0	0
459	0	0
460	0	0
461	0	0
462	0	0
463	0	0
464	0	0
465	0	0
466	0	0
467	0	0
468	0	0
469	0	0
470	0	0
471	0	0
472	0	0
473	0	0
474	0	0
475	0	0
476	0	0
477	0	0
478	0	0
479	0	0
480	0	0
481	0	0
482	0	0
483	0	0
484	0	0
485	0	0
486	0	0
487	0	0
488	0	0
489	0	0
490	0	0
491	0	0
492	0	0
493	0	0
494	0	0
495	0	0
496	0	0
497	0	0
498	0	0
499	0	0
500	0	0
501	0	0
502	0	0
503	0	0
504	0	0
505	0	0
506	0	0
507	0	0
508	0	0
509	0	0
510	0	0
511	0	0
512	0	0
513	0	0
514	0	0
515	0	0
516	0	0
517	0	0
518	0	0
519	0	0
520	0	0
521	0	0
522	0	0
523	0	0
524	0	0
525	0	0
526	0	0
527	0	0
528	0	0
529	0	0
530	0	0
531	0	0
532	0	0
533	0	0
534	0	0
535	0	0
536	0	0
537	0	0
538	0	0
539	0	0
540	0	0
541	0	0
542	0	0
543	0	0
544	0	0
545	0	0
546	0	0
547	0	0
548	0	0
549	0	0
550	0	0
551	0	0
552	0	0
553	0	0
554	0	0
555	0	0
556	0	0
557	0	0
558	0	0
559	0	0
560	0	0
561	0	0
562	0	0
563	0	0
564	0	0
565	0	0
566	0	0
567	0	0
568	0	0
569	0	0
570	0	0
571	0	0
572	0	0
573	0	0
574	0	0
575	0	0
576	0	0
577	0	0
578	0	0
579	0	0
580	0	0
581	0	0
582	0	0
583	0	0
584	0	0
585	0	0
586	0	0
587	0	0
588	0	0
589	0	0
590	0	0
591	0	0
592	0	0
593	0	0
594	0	0
595	0	0
596	0	0
597	0	0
598	0	0
599	0	0
600	0	0
601	0	0
602	0	0
603	0	0
604	0	0
605	0	0
606	0	0
607	0	0
608	0	0
609	0	0
610	0	0
611	0	0
612	0	0
613	0	0
614	0	0
615	0	0
616	0	0
617	0	0
618	0	0
619	0	0
620	0	0
621	0	0
622	0	0
623	0	0
624	0	0
625	0	0
626	0	0
627	0	0
628	0	0
629	0	0
630	0	0
631	0	0
632	0	0
633	0	0
634	0	0
635	0	0
636	0	0
637	0	0
638	0	0
639	0	0
640	0	0
641	0	0
642	0	0
643	0	0
644	0	0
645	0	0
646	0	0
647	0	0
648	0	0
649	0	0
650	0	0
651	0	0
652	0	0
653	0	0
654	0	0
655	0	0
656	0	0
657	0	0
658	0	0
659	0	0
660	0	0
661	0	0
662	0	0
663	0	0
664	0	0
665	0	0
666	0	0
667	0	0
668	0	0
669	0	0
670	0	0
671	0	0
672	0	0
673	0	0
674	0	0
675	0	0
676	0	0
677	0	0
678	0	0
679	0	0
680	0	0
681	0	0
682	0	0
683	0	0
684	0	0
685	0	0
686	0	0
687	0	0
688	0	0
689	0	0
690	0	0
691	0	0
692	0	0
693	0	0
694	0	0
695	0	0
696	0	0
697	0	0
698	0	0
699	0	0
700	0	0
701	0	0
702	0	0
703	0	0
704	0	0
705	0	0
706	0	0
707	0	0
708	0	0
709	0	0
710	0	0
711	0	0
712	0	0
713	0	0
714	0	0
715	0	0
716	0	0
717	0	0
718	0	0
719	0	0
720	0	0
721	0	0
722	0	0
723	0	0
724	0	0
725	0	0
726	0	0
727	0	0
728	0	0
729	0	0
730	0	0
731	0	0
732	0	0
733	0	0
734	0	0
735	0	0
736	0	0
737	0	0
738	0	0
739	0	0
740	0	0
741	0	0
742	0	0
743	0	0
744	0	0
745	0	0
746	0	0
747	0	0
748	0	0
749	0	0
750	0	0
751	0	0
752	0	0
753	0	0
754	0	0
755	0	0
756	0	0
757	0	0
758	0	0
759	0	0
760	0	0
761	0	0
762	0	0
763	0	0
764	0	0
765	0	0
766	0	0
767	0	0
768	0	0
769	0	0
770	0	0
771	0	0
772	0	0
773	0	0
774	0	0
775	0	0
776	0	0
777	0	0
778	0	0
779	0	0
780	0	0
781	0	0
782	0	0
783	0	0
784	0	0
785	0	0
786	0	0
787	0	0
788	0	0
789	0	0
790	0	0
791	0	0
792	0	0
793	0	0
794	0	0
795	0	0
796	0	0
797	0	0
798	0	0
799	0	0
800	0	0
801	0	0
802	0	0
803	0	0
804	0	0.0181818
805	0	0.0181818
806	0	0.0181818
807	0	0.0181818
808	0	0.0181818
809	0	0.0181818
810	0	0.0181818
811	0	0.0181818
812	0	0.0181818
813	0	0.0181818
814	0	0.0181818
815	0	0.0181818
816	0	0.0151515
817	0	0.0151515
818	0	0.0151515
819	0	0.0151515
820	0	0.0151515
821	0	0.0151515
822	0	0.0151515
823	0	0.0128205
824	0	0.0128205
825	0	0.0128205
826	0	0.0128205
827	0	0.0128205
828	0	0.0128205
829	0	0.0128205
830	0	0.0128205
831	0	0.0128205
832	0	0.0128205
833	0	0.0128205
834	0	0.0128205
835	0	0.0128205
836	0	0.0128205
837	0	0.0128205
838	0	0.0128205
839	0	0.0128205
840	0	0.0128205
841	0	0.0128205
842	0	0.0128205
843	0	0.0128205
844	0	0.0128205
845	0	0.0128205
846	0	0.0128205
847	0	0.0128205
848	0	0.0128205
849	0	0.0128205
850	0	0.0128205
851	0	0.0128205
852	0	0.0128205
853	0	0.0128205
854	0	0.0128205
855	0	0.0128205
856	0	0.0128205
857	0	0.0128205
858	0	0.0128205
859	0	0.0128205
860	0	0.0128205
861	0	0.0128205
862	0	0.0128205
863	0	0.0128205
864	0	0.0128205
865	0	0.0128205
866	0	0.0128205
867	0	0.0128205
868	0	0.0128205
869	0	0.0128205
870	0	0.0128205
871	0	0.0128205
872	0	0.0128205
873	0	0.0128205
874	0	0.0128205
875	0	0.0128205
876	0	0.0128205
877	0	0.0128205
878	0	0.0128205
879	0	0.0128205
880	0	0.0128205
881	0	0.0128205
882	0	0.0128205
883	0	0.0128205
884	0	0.0128205
885	0	0.0128205
886	0	0.0128205
887	0	0.0128205
888	0	0.0128205
889	0	0.0128205
890	0	0.0128205
891	0	0.0128205
892	0	0.0128205
893	0	0.0128205
894	0	0.0128205
895	0	0.0128205
896	0	0.0128205
897	0	0.0128205
898	0	0.0128205
899	0	0.0128205
900	0	0.0128205
901	0	0.0128205
902	0	0.0128205
903	0	0.0128205
904	0	0.0128205
905	0	0.0128205
906	0	0.0128205
907	0	0.0128205
908	0	0.0128205
909	0	0.0128205
910	0	0.025641
911	0	0.025641
912	0	0.025641
913	0	0.025641
914	0	0.025641
915	0	0.025641
916	0	0.025641
917	0	0.025641
918	0	0.025641
919	0	0.025641
920	0	0.025641
921	0	0.025641
922	0	0.025641
923	0	0.021978
924	0	0.021978
925	0	0.021978
926	0	0.021978
927	0	0.021978
928	0	0.021978
929	0	0.021978
930	0	0.021978
931	0	0.021978
932	0	0.021978
933	0	0.021978
934	0	0.021978
935	0	0.021978
936	0	0.021978
937	0	0.021978
938	0	0.021978
939	0	0.021978
940	0	0.021978
941	0	0.021978
942	0	0.021978
943	0	0.021978
944	0	0.010989
945	0	0.010989
946	0	0.010989
947	0	0.010989
948	0	0.010989
949	0	0.010989
950	0	0.010989
951	0	0.010989
952	0	0.010989
953	0	0.010989
954	0	0.010989
955	0	0.010989
956	0	0.010989
957	0	0.010989
958	0	0.010989
959	0	0.010989
960	0	0.010989
961	0	0.00952381
962	0	0.00952381
963	0	0.00952381
964	0	0.00952381
965	0	0.00952381
966	0	0.00952381
967	0	0.00952381
968	0	0.00952381
969	0	0.00952381
970	0	0.00952381
971	0	0.00952381
972	0	0.00952381
973	0	0.00952381
974	0	0.00952381
975	0	0.00952381
976	0	0.00952381
977	0	0.00952381
978	0	0.00952381
979	0	0.00952381
980	0	0.00952381
981	0	0.00952381
982	0	0.00952381
983	0	0.00952381
984	0	0.00952381
985	0	0.00952381
986	0	0.00952381
987	0	0.00952381
988	0	0.00952381
989	0	0.0190476
990	0	0.0190476
991	0	0.0190476
992	0	0.0190476
993	0	0.0190476
994	0	0.00952381
995	0	0.00952381
996	0	0.00952381
997	0	0.00952381
998	0	0.00952381
999	0	0.00952381
1000	0	0.00952381
1001	0	0.00952381
1002	0	0.00952381
1003	0	0.00952381
1004	0	0.00952381
1005	0	0.00952381
1006	0	0.00952381
1007	0	0.00952381
1008	0	0.00952381
1009	0	0.00952381
1010	0	0.00952381
1011	0	0.00952381
1012	0	0.00952381
1013	0	0.00952381
1014	0	0.00952381
1015	0	0.00952381
1016	0	0.00952381
1017	0	0.00952381
1018	0	0.00952381
1019	0	0.00952381
1020	0	0.00952381
1021	0	0.00952381
1022	0	0.00952381
1023	0	0.00952381
1024	0	0.00952381
1025	0	0.00952381
1026	0	0.00952381
1027	0	0.00833333
1028	0	0.00833333
1029	0	0.00833333
1030	0	0.00833333
1031	0	0.00833333
1032	0	0.00833333
1033	0	0.00833333
1034	0	0.00833333
1035	0	0.00833333
1036	0	0.00833333
1037	0	0.00833333
1038	0	0.00833333
1039	0	0.00833333
1040	0	0.00833333
1041	0	0.00833333
1042	0	0.00833333
1043	0	0.0166667
1044	0	0.0166667
1045	0	0.0166667
1046	0	0.0166667
1047	0	0.00833333
1048	0	0.00833333
1049	0	0.00653595
1050	0	0.00653595
1051	0	0.00653595
1052	0	0.00653595
1053	0	0.00653595
1054	0	0.00653595
1055	0	0.00653595
1056	0	0.00653595
1057	0	0.00653595
1058	0	0.00653595
1059	0	0.00653595
1060	0	0.00653595
1061	0	0.00653595
1062	0	0.00584795
1063	0	0.00584795
1064	0	0.00584795
1065	0	0.00584795
1066	0	0.00584795
1067	0	0.00584795
1068	0	0.00584795
1069	0	0.00584795
1070	0	0.00584795
1071	0	0.00526316
1072	0	0.00526316
1073	0	0.00526316
1074	0	0.0047619
1075	0	0.0047619
1076	0	0.0047619
1077	0	0.0047619
1078	0	0.0047619
1079	0	0.0047619
1080	0	0.004329
1081	0	0.00395257
1082	0	0.00395257
1083	0	0.00395257
1084	0	0.00395257
1085	0	0.00395257
1086	0	0.00395257
1087	0	0.00362319
1088	0	0.00666667
1089	0	0.00666667
1090	0	0.00666667
1091	0	0.00666667
1092	0	0.00666667
1093	0	0.00666667
1094	0	0.00666667
1095	0	0.00569801
1096	0	0.00569801
1097	0	0.00854701
1098	0	0.00854701
1099	0	0.00854701
1100	0	0.00854701
1101	0	0.00854701
1102	0	0.00569801
1103	0	0.00854701
1104	0	0.00854701
1105	0	0.010582
1106	0	0.010582
1107	0	0.00793651
1108	0	0.00793651
1109	0	0.00738916
1110	0	0.00738916
1111	0	0.00492611
1112	0	0.00689655
1113	0	0.00689655
1114	0	0.0045977
1115	0	0.0091954
1116	0	0.0114943
1117	0	0.0091954
1118	0	0.00860215
1119	0	0.00806452
1120	0	0.00806452
1121	0	0.00604839
1122	0	0.00403226
1123	0	0.00806452
1124	0	0.00806452
1125	0	0.00604839
1126	0	0.00604839
1127	0	0.00604839
1128	0	0.00604839
1129	0	0.0113636
1130	0	0.0106952
1131	0	0.0190476
1132	0	0.0190476
1133	0	0.0206349
1134	0	0.0238095
1135	0	0.0238095
1136	0	0.0206349
1137	0	0.0238095
1138	0	0.0238095
1139	0	0.0238095
1140	0	0.0190476
1141	0	0.0222222
1142	0	0.0206349
1143	0	0.0428571
1144	0	0.097479
1145	0	0.102521
1146	0	0.104762
1147	0	0.136508
1148	0	0.142643
1149	0	0.142643
1150	0	0.183183
1151	0	0.201201
1152	0	0.205706
1153	0	0.285917
1154	0	0.285917
1155	0	0.258537
1156	0	0.429268
1157	0	0.419712
1158	0	0.43129
1159	0	0.879195
1160	0	0.92466
1161	0	0.876284
1162	0	0.876284
1163	0	0.913528
1164	0	0.913528
1165	0	0.913528
1166	0	0
1167	0	0
1168	0	0
1169	0	0
1170	0	0
1171	0	0
1172	0	0
1173	0	0
1174	0	0
1175	0	0
1176	0	0
1177	0	0
1178	0	0
1179	0	0
1180	0	0
1181	0	0
1182	0	0
1183	0	0
1184	0	0
1185	0	0
1186	0	0
1187	0	0
1188	0	0
1189	0	0
1190	0	0
1191	0	0
1192	0	0
1193	0	0
1194	0	0
1195	0	0
1196	0	0
1197	0	0
1198	0	0
1199	0	0
1200	0	0
1201	0	0
1202	0	0
1203	0	0
1204	0	0
1205	0	0
1206	0	0
1207	0	0
1208	0	0
1209	0	0
1210	0	0
1211	0	0
1212	0	0
1213	0	0
1214	0	0
1215	0	0
1216	0	0
1217	0	0
1218	0	0
1219	0	0
1220	0	0
1221	0	0
1222	0	0
1223	0	0
1224	0	0
1225	0	0
1226	0	0
1227	0	0
1228	0	0
1229	0	0
1230	0	0
1231	0	0
1232	0	0
1233	0	0
1234	0	0
1235	0	0
1236	0	0
1237	0	0
1238	0	0
1239	0	0
1240	0	0
1241	0	0
1242	0	0
1243	0	0
1244	0	0
1245	0	0
1246	0	0
1247	0	0
1248	0	0
1249	0	0
1250	0	0
1251	0	0
1252	0	0
1253	0	0
1254	0	0
1255	0	0
1256	0	0
1257	0	0
1258	0	0
1259	0	0
1260	0	0
1261	0	0
1262	0	0
1263	0	0
1264	0	0
1265	0	0
1266	0	0
1267	0	0
1268	0	0
1269	0	0
1270	0	0
1271	0	0
1272	0	0
1273	0	0
1274	0	0
1275	0	0
1276	0	0
1277	0	0
1278	0	0
1279	0	0
1280	0	0
1281	0	0
1282	0	0
1283	0	0
1284	0	0
1285	0	0
1286	0	0
1287	0	0
1288	0	0
1289	0	0
1290	0	0
1291	0	0
1292	0	0
1293	0	0
1294	0	0
1295	0	0
1296	0	0
1297	0	0
1298	0	0
1299	0	0
1300	0	0
1301	0	0
1302	0	0
1303	0	0
1304	0	0
1305	0	0
1306	0	0
1307	0	0
1308	0	0
1309	0	0
1310	0	0
1311	0	0
1312	0	0
1313	0	0
1314	0	0
1315	0	0
1316	0	0
1317	0	0
1318	0	0
1319	0	0
1320	0	0
1321	0	0
1322	0	0
1323	0	0
1324	0	0
1325	0	0
1326	0	0
1327	0	0
1328	0	0
1329	0	0
1330	0	0
1331	0	0
1332	0	0
1333	0	0
1334	0	0
1335	0	0
1336	0	0
1337	0	0
1338	0	0
1339	0	0
1340	0	0
1341	0	0
1342	0	0
1343	0	0
1344	0	0
1345	0	0
1346	0	0
1347	0	0
1348	0	0
1349	0	0
1350	0	0
1351	0	0
1352	0	0
1353	0	0
1354	0	0
1355	0	0
1356	0	0
1357	0	0
1358	0	0
1359	0	0
1360	0	0
1361	0	0
1362	0	0
1363	0	0
1364	0	0
1365	0	0
1366	0	0
1367	0	0
1368	0	0
1369	0	0
1370	0	0
1371	0	0
1372	0	0
1373	0	0
1374	0	0
1375	0	0
1376	0	0
1377	0	0
1378	0	0
1379	0	0
1380	0	0
1381	0	0
1382	0	0
1383	0	0
1384	0	0
1385	0	0
1386	0	0
1387	0	0
1388	0	0
1389	0	0
1390	0	0
1391	0	0
1392	0	0
1393	0	0
1394	0	0
1395	0	0
1396	0	0
1397	0	0
1398	0	0
1399	0	0
1400	0	0
1401	0	0
1402	0	0
1403	0	0
1404	0	0
1405	0	0
1406	0	0
1407	0	0
1408	0	0
1409	0	0
1410	0	0
1411	0	0
1412	0	0
1413	0	0
1414	0	0
1415	0	0
1416	0	0
1417	0	0
1418	0	0
1419	0	0
1420	0	0
1421	0	0
1422	0	0
1423	0	0
1424	0	0
1425	0	0
1426	0	0
1427	0	0
1428	0	0
1429	0	0
1430	0	0
1431	0	0
1432	0	0
1433	0	0
1434	0	0
1435	0	0
1436	0	0
1437	0	0
1438	0	0
1439	0	0
1440	0	0
1441	0	0
1442	0	0
1443	0	0
1444	0	0
1445	0	0
1446	0	0
1447	0	0
1448	0	0
1449	0	0
1450	0	0
1451	0	0
1452	0	0
1453	0	0
1454	0	0
1455	0	0
1456	0	0
1457	0	0
1458	0	0
1459	0	0
1460	0	0
1461	0	0
1462	0	0
1463	0	0.924201
1464	0	0.778516
1465	0	0.835108
1466	0	1
1467	0	1
1468	0	1
1469	0	1
1470	0	0.59058
1471	0	0.961538
1472	0	0.961538
1473	0	0.961538
1474	0	0.961538
1475	0	0.88735
1476	0	0.133333
1477	0	0.133333
1478	0	0.133333
1479	0	0.133333
1480	0	0.133333
1481	0	0.166667
1482	0	0.166667
1483	0	0.166667
1484	0	0.166667
1485	0	0.166667
1486	0	0.166667
1487	0	0.166667
1488	0	0.166667
1489	0	0.166667
1490	0	0.166667
1491	0	0.166667
1492	0	0.166667
1493	0	0.166667
1494	0	0.166667
1495	0	0.166667
1496	0	0.166667
1497	0	0.166667
1498	0	0.166667
1499	0	0.166667
1500	0	0.166667
1501	0	0.166667
1502	0	0.166667
1503	0	0.166667
1504	0	0.166667
1505	0	0.166667
1506	0	0.166667
1507	0	0.166667
1508	0	0.1
1509	0	0.1
1510	0	0.1
1511	0	0.1
1512	0	0.1
1513	0	0.1
1514	0	0.1
1515	0	0.1
1516	0	0.1
1517	0	0.1
1518	0	0.1
1519	0	0.1
1520	0	0.1
1521	0	0.881617
1522	0	0.881617
1523	0	0.881617
1524	0	0.88177
1525	0	0.88177
1526	0	0.190476
1527	0	0.266667
1528	0	0.266667
1529	0	0.266667
1530	0	0.266667
1531	0	0.266667
1532	0	0.266667
1533	0	0.266667
1534	0	0.266667
1535	0	0.266667
1536	0	0.266667
1537	0	0.266667
1538	0	0.266667
1539	0	0.266667
1540	0	0.71619
1541	0	0.111111
1542	0	0.111111
1543	0	0.986782
1544	0	0.986782
1545	0	0.986782
1546	0	0.333333
1547	0	0.333333
1548	0	0.333333
1549	0	0.333333
1550	0	0.333333
1551	0	0.333333
1552	0	0.333333
1553	0	0.333333
1554	0	0.333333
1555	0	0.333333
1556	0	0.333333
1557	0	0.333333
1558	0	0.333333
1559	0	0.333333
1560	0	0.333333
1561	0	0.333333
1562	0	0.333333
1563	0	0.333333
1564	0	0.333333
1565	0	0.333333
1566	0	0.333333
1567	0	0.333333
1568	0	0.333333
1569	0	0.333333
1570	0	0.333333
1571	0	0.333333
1572	0	0.333333
1573	0	0.333333
1574	0	0.333333
1575	0	0.333333
1576	0	0.333333
1577	0	0.333333
1578	0	0.333333
1579	0	0.333333
1580	0	0.333333
1581	0	0.333333
1582	0	0.333333
1583	0	0.333333
1584	0	0.333333
1585	0	0.333333
1586	0	0.333333
1587	0	0.333333
1588	0	0
1589	0	0
1590	0	0
1591	0	0
1592	0	0
1593	0	0
1594	0	0
1595	0	0
1596	0	0
1597	0	0
1598	0	0
1599	0	0
1600	0	0
1601	0	0
1602	0	0
1603	0	0
1604	0	0
1605	0	0
1606	0	0
1607	0	0
1608	0	0
1609	0	0
1610	0	0
1611	0	0
1612	0	0
1613	0	0
1614	0	0
1615	0	0
1616	0	0
1617	0	0
1618	0	0
1619	0	0
1620	0	0
1621	0	0
1622	0	0
1623	0	0
1624	0	0
1625	0	0
1626	0	0
1627	0	0
1628	0	0
1629	0	0
1630	0	0
1631	0	0
1632	0	0
1633	0	0
1634	0	0
1635	0	0
1636	0	0
1637	0	0
1638	0	0
1639	0	0
1640	0	0
1641	0	0
1642	0	0
1643	0	0
1644	0	0
1645	0	0
1646	0	0
1647	0	0
1648	0	0
1649	0	0
1650	0	0
1651	0	0
1652	0	0
1653	0	0
1654	0	0
1655	0	0
1656	0	0
1657	0	0
1658	0	0
1659	0	0
1660	0	0
1661	0	0
1662	0	0
1663	0	0
1664	0	0
1665	0	0
1666	0	0
1667	0	0
1668	0	0
1669	0	0
1670	0	0
1671	0	0
1672	0	0
1673	0	0
1674	0	0
1675	0	0
1676	0	0
1677	0	0
1678	0	0
1679	0	0
1680	0	0
1681	0	0
1682	0	0
1683	0	0
1684	0	0
1685	0	0
1686	0	0
1687	0	0
1688	0	0
1689	0	0
1690	0	0
1691	0	0
1692	0	0
1693	0	0
1694	0	0
1695	0	0
1696	0	0
1697	0	0
1698	0	0
1699	0	0
1700	0	0
1701	0	0
1702	0	0
1703	0	0
1704	0	0
1705	0	0
1706	0	0
1707	0	0
1708	0	0
1709	0	0
1710	0	0
1711	0	0
1712	0	0
1713	0	0
1714	0	0
1715	0	0
1716	0	0
1717	0	0
1718	0	0
1719	0	0
1720	0	0
1721	0	0
1722	0	0
1723	0	0
1724	0	0
1725	0	0.984884
1726	0	0.984884
1727	0	0
1728	0	0
1729	0	0
1730	0	0
1731	0	0
1732	0	0
1733	0	0.988717
1734	0	0.988717
1735	0	0.986842
1736	0	0
1737	0	0
1738	0	0
1739	0	0
1740	0	0
1741	0	0
1742	0	0
1743	0	0
1744	0	0
1745	0	0
1746	0	0
1747	0	0
1748	0	0
1749	0	0
1750	0	0
1751	0	0
1752	0	0
1753	0	0
1754	0	0
1755	0	0
1756	0	0
1757	0	0
1758	0	0
1759	0	0
1760	0	0
1761	0	0
1762	0	0
1763	0	0
1764	0	0
1765	0	0
1766	0	0
1767	0	0
1768	0	0
1769	0	0
1770	0	0
1771	0	0
1772	0	0
1773	0	0
1774	0	0
1775	0	0
1776	0	0
1777	0	0
1778	0	0
1779	0	0
1780	0	0
1781	0	0
1782	0	0
1783	0	0
1784	0	0
1785	0	0
1786	0	0
1787	0	0
1788	0	0
1789	0	0
1790	0	0
1791	0	0
1792	0	0
1793	0	0
1794	0	0
1795	0	0
1796	0	0
1797	0	0
1798	0	0
1799	0	0
1800	0	0
1801	0	0
1802	0	0
1803	0	0
1804	0	0
1805	0	0
1806	0	0
1807	0	0
1808	0	0
1809	0	0
1810	0	0
1811	0	0
1812	0	0
1813	0	0
1814	0	0
1815	0	0
1816	0	0
1817	0	0
1818	0	0
1819	0	0
1820	0	0
1821	0	0
1822	0	0
1823	0	0
1824	0	0
1825	0	0.986842
1826	0	0.98497
1827	0	0.98683
1828	0	0.98683
1829	0	0.98683
1830	0	0.98683
1831	0	0
1832	0	0
1833	0	0
1834	0	0
1835	0	0
1836	0	0
1837	0	0
1838	0	0
1839	0	0
1840	0	0
1841	0	0
1842	0	0
1843	0	0
1844	0	0
1845	0	0
1846	0	0
1847	0	0
1848	0	0
1849	0	0
1850	0	0
1851	0	0
1852	0	0
1853	0	0
1854	0	0
1855	0	0
1856	0	0
1857	0	0
1858	0	0
1859	0	0
1860	0	0
1861	0	0
1862	0	0
1863	0	0
1864	0	0
1865	0	0
1866	0	0
1867	0	0
1868	0	0
1869	0	0
1870	0	0
1871	0	0
1872	0	0
1873	0	0
1874	0	0
1875	0	0
1876	0	0
1877	0	0
1878	0	0
1879	0	0
1880	0	0
1881	0	0
1882	0	0
1883	0	0
1884	0	0
1885	0	0
1886	0	0
1887	0	0
1888	0	0
1889	0	0
1890	0	0
1891	0	0
1892	0	0
1893	0	0
1894	0	0
1895	0	0
1896	0	0
1897	0	0
1898	0	0
1899	0	0
1900	0	0
1901	0	0
1902	0	0
1903	0	0
1904	0	0
1905	0	0
1906	0	0
1907	0	0
1908	0	0
1909	0	0
1910	0	0
1911	0	0
1912	0	0
1913	0	0
1914	0	0
1915	0	0
1916	0	0
1917	0	0
1918	0	0
1919	0	0
1920	0	0
1921	0	0
1922	0	0
1923	0	0
1924	0	0
1925	0	0
1926	0	0
1927	0	0
1928	0	0
1929	0	0
1930	0	0
1931	0	0
1932	0	0
1933	0	0
1934	0	0
1935	0	0
1936	0	0
1937	0	0
1938	0	0
1939	0	0
1940	0	0
1941	0	0
1942	0	0
1943	0	0
1944	0	0
1945	0	0
1946	0	0
1947	0	0
1948	0	0
1949	0	0
1950	0	0
1951	0	0
1952	0	0
1953	0	0
1954	0	0
1955	0	0
1956	0	0
1957	0	0
1958	0	0
1959	0	0
1960	0	0
1961	0	0
1962	0	0
1963	0	0
1964	0	0
1965	0	0
1966	0	0
1967	0	0
1968	0	0
1969	0	0
1970	0	0
1971	0	0
1972	0	0
1973	0	0
1974	0	0
1975	0	0
1976	0	0
1977	0	0
1978	0	0
1979	0	0
1980	0	0
1981	0	0
1982	0	0
1983	0	0
1984	0	0
1985	0	0
1986	0	0
1987	0	0
1988	0	0
1989	0	0
1990	0	0
1991	0	0
1992	0	0
1993	0	0
1994	0	0.977613
1995	0	0
1996	0	0
1997	0	0
1998	0	0
1999	0	0
2000	0	0
2001	0	0
2002	0	0
2003	0	0
2004	0	0
2005	0	0
2006	0	0
2007	0	0
2008	0	0
2009	0	0
2010	0	0
2011	0	0
2012	0	0
2013	0	0.988695
2014	0	0.990584
2015	0	0.990584
2016	0	0.990593
2017	0	0
2018	0	0
2019	0	0
2020	0	0
2021	0	0
2022	0	0
2023	0	0.994361
2024	0	0.994361
2025	0	0.994361
2026	0	0
2027	0	0
2028	0	0
2029	0	0
2030	0	0
2031	0	0
2032	0	0
2033	0	0
2034	0	0
2035	0	0
2036	0	0
2037	0	0
2038	0	0
2039	0	0
2040	0	0
2041	0	0
2042	0	0
2043	0	0
2044	0	0.996277
2045	0	0.996277
2046	0	0.996277
2047	0	0.996277
2048	0	0.996281
2049	0	0.996281
2050	0	0
2051	0	0
2052	0	0
2053	0	0
2054	0	0
2055	0	0.99814
2056	0	0.99814
2057	0	0.99814
2058	0	0.996284
2059	0	0.996277
2060	0	0.99257
2061	0	0.99257
2062	0	0.99257
2063	0	0.99257
2064	0	0
2065	0	0
2066	0	0
2067	0	0
2068	0	0
2069	0	0
2070	0	0
2071	0	0
2072	0	0
2073	0	0
2074	0	0
2075	0	0
2076	0	0.5
2077	0	0.5
2078	0	0.266667
2079	0	0.190476
2080	0	0.190476
2081	0	0.190476
2082	0	0.735544
2083	0	0.454785
2084	0	0.454785
2085	0	0.861508
2086	0	0.333333
2087	0	0.360465
2088	0	0.762838
2089	0	0.201248
2090	0	0.186767
2091	0	0.172534
2092	0	0.165324
2093	0	0.159707
2094	0	0.647245
2095	0	0.132749
2096	0	0.134372
2097	0	0.132425
2098	0	0.127371
2099	0	0.18097
2100	0	0.192157
2101	0	0.176063
2102	0	0.579663
2103	0	0.568919
2104	0	0.569158
2105	0	0.328509
2106	0	1
2107	0	0.299518
2108	0	0.420006
2109	0	0.310294
2110	0	0.322969
2111	0	0.171988
2112	0	0.183536
2113	0	0.173542
2114	0	0.166667
2115	0	0.142857
2116	0	0.0713012
2117	0	0.442868
2118	0	0.458554
2119	0	0.0767196
2120	0	0.0767196
2121	0	0.0740741
2122	0	0.439143
2123	0	0.108262
2124	0	0.183164
2125	0	0.2
2126	0	0.209302
2127	0	0.48467
2128	0	0.464378
2129	0	0.464156
2130	0	0.441623
2131	0	0.45611
2132	0	0.455706
2133	0	0.475192
2134	0	0.503219
2135	0	0.542055
2136	0	0.538333
2137	0	0.545191
2138	0	0.573466
2139	0	0.584365
2140	0	0.363094
2141	0	0.380838
2142	0	0.601185
2143	0	0.603815
2144	0	0.368331
2145	0	0.367152
2146	0	0.461031
2147	0	0.704335
2148	0	0.743582
2149	0	0.753885
2150	0	0.770723
2151	0	0.729085
2152	0	0.0545455
2153	0	0.0545455
2154	0	0.0666667
2155	0	0.0833333
2156	0	0.107143
2157	0	0.133333
2158	0	0.2
2159	0	0.333333
2160	0	0.416272
2161	0	0.333333
2162	0	0.333333
2163	0	0.333333
2164	0	0.333333
2165	0	0.333333
2166	0	0.333333
2167	0	0.333333
2168	0	0.333333
2169	0	0.333333
2170	0	0.333333
2171	0	0.333333
2172	0	0.333333
2173	0	0.333333
2174	0	0.208791
2175	0	1
2176	0	0.883707
2177	0	0.981503
2178	0	0.983344
2179	0	1
2180	0	0.996281
2181	0	0.996281
2182	0	0.996281
2183	0	0.996281
2184	0	0.998138
2185	0	0.998138
2186	0	0.998138
2187	0	0.998138
2188	0	0.996288
2189	0	0
2190	0	0
2191	0	0
2192	0	0
2193	0	0
2194	0	0
2195	0	0
2196	0	0
2197	0	0
2198	0	0
2199	0	0
2200	0	0.98146
2201	0	0.333333
2202	0	0.333333
2203	0	0.961679
2204	0	0.901445
2205	0	0.47619
2206	0	0.357143
2207	0	0.42328
2208	0	0.193798
2209	0	0.848133
2210	0	0.333333
2211	0	0.333333
2212	0	0.333333
2213	0	0.333333
2214	0	0.333333
2215	0	0.333333
2216	0	0.333333
2217	0	0.333333
2218	0	0.333333
2219	0	0.333333
2220	0	0.333333
2221	0	0.333333
2222	0	0.333333
2223	0	0.829968
2224	0	0.166667
2225	0	0.190476
2226	0	0.715152
2227	0	0.514326
2228	0	0.813477
2229	0	0.750706
2230	0	0.425864
2231	0	0.566714
2232	0	0.673146
2233	0	0
2234	0	0
2235	0	0.285714
2236	0	0.384615
2237	0	0.473684
2238	0	0.8878
2239	0	1
2240	0	0.996308
2241	0	0.996308
2242	0	0.996308
2243	0	0
2244	0	0
2245	0	0
2246	0	0
2247	0	0
2248	0	0
2249	0	0
2250	0	0
2251	0	0
2252	0	0
2253	0	0
2254	0	0
2255	0	0
2256	0	0
2257	0	0
2258	0	0
2259	0	0
2260	0	0
2261	0	0
2262	0	0
2263	0	0
2264	0	0
2265	0	0
2266	0	0
2267	0	0
2268	0	0
2269	0	0
2270	0	0
2271	0	0
2272	0	0
2273	0	0
2274	0	0
2275	0	0
2276	0	0
2277	0	0
2278	0	0
2279	0	0
2280	0	0.996308
2281	0	0.996308
2282	0	0.996308
2283	0	0.99815
2284	0	0.996301
2285	0	0.996298
2286	0	0.998146
2287	0	0.996298
2288	0	0.996298
2289	0	0
2290	0	0
2291	0	0
2292	0	0
2293	0	0
2294	0	0
2295	0	0
2296	0	0
2297	0	0.996298
2298	0	0.994455
2299	0	0.994455
2300	0	0.996298
2301	0	0.996298
2302	0	0.996298
2303	0	0.996298
2304	0	0.998146
2305	0	0.998146
2306	0	0.998146
2307	0	0.998148
2308	0	0.998148
2309	0	0.996301
2310	0	0
2311	0	0
2312	0	0
2313	0	0
2314	0	0
2315	0	0
2316	0	0
2317	0	0
2318	0	0
2319	0	0.994439
2320	0	1
2321	0	1
2322	0	1
2323	0	1
2324	0	1
2325	0	1
2326	0	1
2327	0	1
2328	0	1
2329	0	0.72
2330	0	0.72
2331	0	0.664615
2332	0	0.664615
2333	0	0.923077
2334	0	0.781538
2335	0	0.781538
2336	0	0.781538
2337	0	0.781538
2338	0	0.781538
2339	0	0.781538
2340	0	0.852308
2341	0	0.852308
2342	0	0.849231
2343	0	0.92
2344	0	0.92
2345	0	0.852308
2346	0	0.852308
2347	0	0.852308
2348	0	0.852308
2349	0	1
2350	0	0.92
2351	0	0.92
2352	0	0.92
2353	0	0.849231
2354	0	0.501316
2355	0	0.990751
2356	0	0.990763
2357	0	0.99078
2358	0	0.987114
2359	0	0.985305
2360	0	0.990797
2361	0	0
2362	0	0
2363	0	0
2364	0	0.987173
2365	0	0.99449
2366	0	0.994495
2367	0	0.994495
2368	0	0.994495
2369	0	0.994495
2370	0	0
2371	0	0
2372	0	0
2373	0	0
2374	0	0
2375	0	0
2376	0	0
2377	0	0
2378	0	0
2379	0	0
2380	0	0
2381	0	0.998162
2382	0	0.996329
2383	0	0.996329
2384	0	0.996329
2385	0	0.996329
2386	0	0.996329
2387	0	0.996329
2388	0	0.996329
2389	0	0.996329
2390	0	0.996329
2391	0	0.996329
2392	1	0
2393	1	0
2394	0	0.996325
2395	0	0.996325
2396	0	0.996325
2397	0	0.996329
2398	0	0.9945
2399	0	0.9945
2400	0	0.99449
2401	0	0.992666
2402	0	0.996329
2403	0	0.996329
2404	0	0.996329
2405	0	0
2406	0	0
2407	0	0
2408	0	0
2409	0	0
2410	0	0
2411	0	0
2412	0	0
2413	0	0
2414	0	0
2415	0	0
2416	0	0
2417	0	0
2418	0	0
2419	0	0.988996
2420	0	0.988996
2421	0	0.988996
2422	0	0.988996
2423	0	0.988996
2424	0	0.988996
2425	0	0.987166
2426	0	0.988986
2427	0	0.990811
2428	0	1
2429	0	0
2430	0	0
2431	0	0
2432	0	0
2433	0	0
2434	0	0
2435	0	0
2436	0	0
2437	0	0
2438	0	0
2439	0	0
2440	0	0
2441	0	0
2442	0	0
2443	0	0
2444	0	0
2445	0	0.985316
2446	0	0.985316
2447	0	1
2448	0	1
2449	0	1
2450	0	1
2451	0	1
2452	0	1
2453	0	1
2454	0	0.333333
2455	0	0.990792
2456	0	0.990792
2457	0	0.992623
2458	0	0.990792
2459	0	0.988966
2460	0	0
2461	0	0
2462	0	0
2463	0	0
2464	0	0
2465	0	0
2466	0	0
2467	0	0
2468	0	0
2469	0	0
2470	0	0
2471	0	0
2472	0	0.985276
2473	0	0.985276
2474	0	1
2475	0	1
2476	0	0.917749
2477	0	0.919449
2478	0	1
2479	0	1
2480	0	1
2481	0	1
2482	0	1
2483	0	1
2484	0	0.909564
2485	0	0.904472
2486	0	0
2487	0	0.896879
2488	0	0.883485
2489	0	0.64841
2490	0	0.670082
2491	0	0.545455
2492	0	0.545455
2493	0	0.545455
2494	0	0.2633
2495	0	0.2633
2496	0	0.221469
2497	0	0.608122
2498	0	0.602443
2499	0	0.586632
2500	0	0
2501	0	0
2502	0	0
2503	0	0
2504	0	0
2505	0	0
2506	0	0
2507	0	1
2508	0	1
2509	0	1
2510	0	1
2511	0	0.923137
2512	0	0
2513	0	0
2514	0	0
2515	0	0.3
2516	0	0.190476
2517	0	0.2
2518	0	0.3
2519	0	0.190476
2520	0	0.214286
2521	0	0.166667
2522	0	0.166667
2523	0	0.142857
2524	0	0.0545455
2525	0	0.0818713
2526	0	0.0714286
2527	0	0.0854701
2528	0	0.100379
2529	0	0.243357
2530	0	0.151925
2531	0	0.475637
2532	0	0.146052
2533	0	0.441369
2534	0	0.414399
2535	0	0.411201
2536	0	0.818548
2537	0	0.818548
2538	0	0.626996
2539	0	0.593586
2540	0	0.603175
2541	0	0.226758
2542	0	0.178571
2543	0	0.266667
2544	0	0.333333
2545	0	0.333333
2546	0	0.527273
2547	0	0.527273
2548	0	0.527273
2549	0	0.333333
2550	0	0.6
2551	0	0.6
2552	0	0.4
2553	0	0.4
2554	0	0.4
2555	0	0.4
2556	0	0.4
2557	0	0.25
2558	0	0.154204
2559	0	0.118719
2560	0	0.102293
2561	0	0.0878723
2562	0	0.0696996
2563	0	0.0736402
2564	0	0.0731042
2565	0	0.0631446
2566	0	0.0572388
2567	0	0.0661152
2568	0	0.0720903
2569	0	0.122471
2570	0	0.0649811
2571	0	0.0661568
2572	0	0.0675287
2573	0	0.0698276
2574	0	0.0939883
2575	0	0.107983
2576	0	0.132784
2577	0	0.180464
2578	0	0.255548
2579	0	0.124274
2580	0	0.133603
2581	0	0.110517
2582	0	0.0289855
2583	0	0.030303
2584	0	0.0333333
2585	0	0.043956
2586	0	0.0444444
2587	0	0.0833333
2588	0	0.107143
2589	0	0.107143
2590	0	0.142857
2591	0	0.142857
2592	0	0.638095
2593	0	0.638095
2594	0	0.638095
2595	0	0.638095
2596	0	0.736264
2597	0	0.736264
2598	0	0.736264
2599	0	0.758848
2600	0	0.87052
2601	0	0.899806
2602	0	0
2603	0	1
2604	0	1
2605	0	1
2606	0	0.39862
2607	0	0
2608	0	0.5
2609	0	0.5
2610	0	1
2611	0	1
2612	0	0.5
2613	0	1
2614	0	0
2615	0	0
2616	0	0
2617	0	0
2618	0	0
2619	0	0
2620	0	0
2621	0	0.0784314
2622	0	0.431254
2623	0	0.422856
2624	0	0.433263
2625	0	0.439381
2626	0	0.438177
2627	0	0.441777
2628	0	0.408431
2629	0	0.405779
2630	0	0.404252
2631	0	0.39668
2632	0	0.882353
2633	0	0.882353
2634	0	0.882353
2635	0	0.882353
2636	0	0.882353
2637	0	0.882353
2638	0	0.676471
2639	0	0
2640	0	0.619883
2641	0	0.557895
2642	0	0.552632
2643	0	0.218391
2644	0	0.190805
2645	0	0.162791
2646	0	0.588163
2647	0	0.583
2648	0	0.471713
2649	0	0.56044
2650	0	0.615385
2651	0	0.615385
2652	0	0.615385
2653	0	0.5
2654	0	0.192308
2655	0	0.192308
2656	0	0.242685
2657	0	0.245656
2658	0	0.274312
2659	0	0.236959
2660	0	0.196388
2661	0	0.188692
2662	0	0.182233
2663	0	0.182406
2664	0	0.125995
2665	0	0.142643
2666	0	0.0380952
2667	0	0.0727273
2668	0	0.2
2669	0	0
2670	0	0
2671	0	0
2672	0	0
2673	0	0
2674	0	0
2675	0	0
2676	0	0.131868
2677	0	0.2
2678	0	0.142857
2679	0	0.3
2680	0	0.0686773
2681	0	0.105723
2682	0	0.102628
2683	0	0.137651
2684	0	0.224837
2685	0	0.502537
2686	0	0.447145
2687	0	0.45193
2688	0	0.478942
2689	0	0.785383
2690	0	0.856775
2691	0	0.183007
2692	0	0.346154
2693	0	0.409091
2694	0	0.409091
2695	0	0.75
2696	0	0.466667
2697	0	0
2698	0	0.5
2699	0	0.4
2700	0	0.4
2701	0	0.4
2702	0	0.4
2703	0	0.4
2704	0	0.466667
2705	0	0.466667
2706	0	0.333333
2707	0	0.666667
2708	0	0.714286
2709	0	0.714286
2710	0	0.33
2711	0	0.58572
2712	0	0.604924
2713	0	0.61213
2714	0	0.616002
2715	0	0
2716	0	0
2717	0	0
2718	0	0
2719	0	0
2720	0	0
2721	0	0
2722	0	0
2723	0	0.858689
2724	0	0.855996
2725	0	0.848045
2726	0	0.848266
2727	0	0.853305
2728	0	0.854875
2729	0	0.0633333
2730	0	0.609305
2731	0	0.612205
2732	0	0.0444444
2733	0	0.0357143
2734	0	0.0357143
2735	0	0.612753
2736	0	0.585537
2737	0	0.581138
2738	0	0.583722
2739	0	0.679848
2740	0	0.394928
2741	0	0.450216
2742	0	0.780733
2743	0	0.771194
2744	0	0.770749
2745	0	0.773031
2746	0	0.782846
2747	0	0.821705
2748	0	0.861789
2749	0	0.744589
2750	0	0.707602
2751	0	0.848197
2752	0	0.859675
2753	0	0.898398
2754	0	0.900063
2755	0	0.672919
2756	0	0.70346
2757	0	0.660666
2758	0	0.701281
2759	0	0.572279
2760	0	0.69281
2761	0	0.654545
2762	0	0.4
2763	0	0.4
2764	0	0.166667
2765	0	0
2766	0	0
2767	0	0
2768	1	0
2769	1	0
2770	1	0
2771	1	0
2772	1	0
2773	1	0
2774	0	0
2775	0	0
2776	0	0
2777	1	0
2778	1	0
2779	1	0
2780	1	0
2781	1	0
2782	1	0
2783	1	0
2784	1	0
2785	1	0
2786	1	0
2787	1	0
2788	1	0
2789	1	0
