Site	ColumnScore	SumOfPairsScore
1	1	0
2	1	0
3	1	0
4	1	0
5	1	0
6	1	0
7	1	0
8	1	0
9	1	0
10	1	0
11	1	0
12	1	0
13	1	0
14	1	0
15	1	0
16	1	0
17	1	0
18	1	0
19	1	0
20	1	0
21	1	0
22	1	0
23	1	0
24	1	0
25	1	0
26	1	0
27	1	0
28	1	0
29	1	0
30	1	0
31	1	0
32	1	0
33	1	0
34	1	0
35	1	0
36	1	0
37	1	0
38	1	0
39	1	0
40	1	0
41	1	0
42	1	0
43	1	0
44	1	0
45	1	0
46	1	0
47	1	0
48	1	0
49	1	0
50	1	0
51	1	0
52	1	0
53	1	0
54	1	0
55	1	0
56	1	0
57	1	0
58	1	0
59	1	0
60	1	0
61	1	0
62	1	0
63	1	0
64	1	0
65	1	0
66	1	0
67	1	0
68	1	0
69	1	0
70	1	0
71	1	0
72	1	0
73	1	0
74	1	0
75	1	0
76	1	0
77	1	0
78	1	0
79	1	0
80	1	0
81	1	0
82	1	0
83	1	0
84	1	0
85	1	0
86	1	0
87	1	0
88	1	0
89	1	0
90	1	0
91	1	0
92	1	0
93	1	0
94	1	0
95	1	0
96	1	0
97	1	0
98	1	0
99	1	0
100	1	0
101	1	0
102	1	0
103	1	0
104	1	0
105	1	0
106	1	0
107	1	0
108	1	0
109	1	0
110	1	0
111	1	0
112	1	0
113	1	0
114	1	0
115	1	0
116	1	0
117	1	0
118	1	0
119	1	0
120	1	0
121	1	0
122	1	0
123	1	0
124	1	0
125	1	0
126	1	0
127	1	0
128	1	0
129	1	0
130	1	0
131	1	0
132	1	0
133	1	0
134	1	0
135	1	0
136	1	0
137	1	0
138	1	0
139	1	0
140	1	0
141	1	0
142	1	0
143	1	0
144	1	0
145	1	0
146	1	0
147	1	0
148	1	0
149	1	0
150	1	0
151	1	0
152	1	0
153	1	0
154	1	0
155	1	0
156	1	0
157	1	0
158	1	0
159	1	0
160	1	0
161	1	0
162	1	0
163	1	0
164	1	0
165	1	0
166	1	0
167	1	0
168	1	0
169	1	0
170	1	0
171	1	0
172	1	0
173	1	0
174	1	0
175	1	0
176	1	0
177	1	0
178	1	0
179	1	0
180	0	0
181	0	0
182	0	0
183	0	0
184	0	0
185	0	0
186	1	0
187	1	0
188	1	0
189	1	0
190	1	0
191	1	0
192	1	0
193	1	0
194	1	0
195	1	0
196	1	0
197	1	0
198	1	0
199	1	0
200	1	0
201	1	0
202	1	0
203	1	0
204	1	0
205	1	0
206	1	0
207	1	0
208	1	0
209	1	0
210	1	0
211	1	0
212	1	0
213	1	0
214	1	0
215	1	0
216	1	0
217	1	0
218	1	0
219	1	0
220	1	0
221	1	0
222	1	0
223	1	0
224	1	0
225	1	0
226	1	0
227	1	0
228	1	0
229	1	0
230	1	0
231	1	0
232	1	0
233	1	0
234	1	0
235	1	0
236	1	0
237	1	0
238	1	0
239	1	0
240	0	0
241	0	0
242	0	0
243	0	0
244	0	0
245	0	0
246	0	0
247	0	0
248	0	0
249	0	0
250	0	0
251	1	0
252	1	0
253	0	0
254	0	0
255	0	0
256	0	0
257	0	0
258	0	0
259	0	0
260	0	0
261	1	0
262	1	0
263	0	0
264	0	0
265	0	0
266	0	0
267	0	0
268	0	0
269	1	0
270	0	0
271	0	0
272	0	0
273	0	0
274	0	0
275	0	0
276	0	0
277	0	0
278	0	0
279	0	0
280	0	0
281	0	0
282	0	0
283	0	0
284	0	0
285	0	0
286	0	0
287	0	0
288	0	0
289	0	0
290	0	0
291	1	0
292	1	0
293	0	0
294	0	0
295	0	0
296	0	0
297	0	0
298	0	0
299	0	0
300	0	0
301	0	0
302	0	0
303	1	0
304	0	0
305	0	0
306	0	0
307	0	0
308	0	0
309	0	0
310	0	0
311	0	0
312	0	0
313	1	0
314	0	0
315	0	0
316	0	0
317	0	0
318	0	0
319	0	0
320	0	0
321	0	0
322	1	0
323	0	0
324	0	0
325	0	0
326	1	0
327	1	0
328	1	0
329	0	0
330	0	0
331	0	0
332	0	0
333	0	0
334	0	0
335	0	0
336	0	0
337	0	0
338	0	0
339	0	0
340	0	0
341	0	0
342	0	0
343	0	0
344	0	0
345	0	0
346	0	0
347	0	0
348	0	0
349	0	0
350	0	0
351	0	0
352	0	0
353	0	0
354	0	0
355	0	0
356	0	0
357	0	0
358	0	0
359	0	0
360	0	0
361	0	0
362	0	0
363	0	0
364	0	0
365	0	0
366	0	0
367	0	0
368	0	0
369	0	0
370	1	0
371	1	0
372	1	0
373	1	0
374	1	0
375	1	0
376	1	0
377	0	0
378	0	0
379	0	0
380	0	0
381	0	0
382	0	0
383	0	0
384	0	0
385	0	0
386	0	0
387	0	0
388	0	0
389	0	0
390	0	0
391	0	0
392	0	0
393	0	0
394	0	0
395	0	0
396	0	0
397	0	0
398	0	0
399	0	0
400	0	0
401	0	0
402	0	0
403	0	0
404	0	0
405	0	0
406	0	0
407	0	0
408	0	0
409	0	0
410	0	0
411	0	0
412	0	0
413	0	0
414	0	0
415	0	0
416	0	0
417	0	0
418	0	0
419	0	0
420	0	0
421	0	0
422	0	0
423	0	0
424	0	0
425	0	0
426	0	0
427	0	0
428	0	0
429	0	0
430	0	0
431	0	0
432	0	0
433	0	0
434	0	0
435	0	0
436	0	0
437	0	0
438	0	0
439	1	0
440	1	0
441	1	0
442	1	0
443	1	0
444	1	0
445	1	0
446	1	0
447	1	0
448	1	0
449	0	0
450	0	0
451	0	0
452	0	0
453	0	0
454	0	0
455	0	0
456	0	0
457	0	0
458	0	0
459	0	0
460	0	0
461	0	0
462	0	0
463	0	0
464	0	0
465	0	0
466	0	0
467	0	0
468	0	0
469	0	0
470	0	0
471	0	0
472	0	0
473	0	0
474	0	0
475	0	0
476	0	0
477	0	0
478	0	0
479	0	0
480	0	0
481	0	0
482	0	0
483	0	0
484	0	0
485	0	0
486	0	0
487	0	0
488	0	0
489	0	0
490	0	0
491	0	0
492	0	0
493	0	0
494	0	0
495	0	0
496	0	0
497	0	0
498	0	0
499	0	0
500	0	0
501	0	0
502	0	0
503	0	0
504	0	0
505	0	0
506	0	0
507	0	0
508	0	0
509	0	0
510	0	0
511	0	0
512	0	0
513	0	0
514	0	0
515	0	0
516	0	0
517	0	0
518	0	0
519	0	0
520	0	0
521	0	0
522	0	0
523	0	0
524	0	0
525	0	0
526	0	0
527	0	0
528	0	0
529	0	0
530	0	0
531	0	0
532	0	0
533	0	0
534	0	0
535	0	0
536	0	0
537	0	0
538	0	0
539	0	0
540	0	0
541	0	0
542	0	0
543	0	0
544	0	0
545	0	0
546	0	0
547	0	0
548	0	0
549	0	0
550	0	0
551	0	0
552	0	0
553	0	0
554	0	0
555	0	0
556	0	0
557	0	0
558	0	0
559	0	0
560	0	0
561	0	0
562	0	0
563	0	0
564	0	0
565	0	0
566	0	0
567	0	0
568	0	0
569	0	0
570	0	0
571	0	0
572	0	0
573	0	0
574	0	0
575	0	0
576	0	0
577	0	0
578	0	0
579	0	0
580	0	0
581	0	0
582	0	0
583	0	0
584	0	0
585	0	0
586	0	0
587	0	0
588	0	0
589	0	0
590	0	0
591	0	0
592	0	0
593	0	0
594	0	0
595	0	0
596	0	0
597	0	0
598	0	0
599	0	0
600	0	0
601	0	0
602	0	0
603	0	0
604	0	0
605	0	0
606	0	0
607	0	0
608	0	0
609	0	0
610	0	0
611	0	0
612	0	0
613	0	0
614	0	0
615	0	0
616	0	0
617	0	0
618	0	0
619	0	0
620	0	0
621	0	0
622	0	0
623	0	0
624	0	0
625	0	0
626	0	0
627	0	0
628	0	0
629	0	0
630	0	0
631	0	0
632	0	0
633	0	0
634	0	0
635	0	0
636	0	0
637	0	0
638	0	0
639	0	0
640	0	0
641	0	0
642	0	0
643	0	0
644	0	0
645	0	0
646	0	0
647	0	0
648	0	0
649	0	0
650	0	0
651	0	0
652	0	0
653	0	0
654	0	0
655	0	0
656	0	0
657	0	0
658	0	0
659	0	0
660	0	0.0666667
661	0	0.047619
662	0	0.047619
663	0	0.047619
664	0	0.047619
665	0	0.047619
666	0	0.0357143
667	0	0.0545455
668	0	0.0512821
669	0	0.0915033
670	0	0.104762
671	0	0.0909091
672	0	0.0866935
673	0	0.0866935
674	0	0.0866935
675	0	0.0698413
676	0	0.0833333
677	0	0.0833333
678	0	0.0833333
679	0	0.0833333
680	0	0.0833333
681	0	0.0878049
682	0	0.0878049
683	0	0.0878049
684	0	0.0878049
685	0	0.0878049
686	0	0.0836237
687	0	0.0836237
688	0	0.0819491
689	0	0.0863787
690	0	0.0863787
691	0	0.0863787
692	0	0.0863787
693	0	0.0863787
694	0	0.0863787
695	0	0.0863787
696	0	0.0863787
697	0	0.0863787
698	0	0.0824524
699	0	0.0824524
700	0	0.0824524
701	0	0.0813953
702	0	0.0792812
703	0	0.108879
704	0	0.10404
705	0	0.0666667
706	0	0.0727273
707	0	0.0727273
708	0	0.0858586
709	0	0.0858586
710	0	0.0756803
711	0	0.0765306
712	0	0.0765306
713	0	0.0765306
714	0	0.0765306
715	0	0.0765306
716	0	0.0765306
717	0	0.0765306
718	0	0.0765306
719	0	0.0765306
720	0	0.0765306
721	0	0.0765306
722	0	0.0765306
723	0	0.0765306
724	0	0.0765306
725	0	0.0765306
726	0	0.0765306
727	0	0.0765306
728	0	0.0765306
729	0	0.0765306
730	0	0.0765306
731	0	0.0765306
732	0	0.0765306
733	0	0.0765306
734	0	0.0765306
735	0	0.0765306
736	0	0.0765306
737	0	0.0765306
738	0	0.0765306
739	0	0.0765306
740	0	0.0765306
741	0	0.0765306
742	0	0.0765306
743	0	0.0765306
744	0	0.0765306
745	0	0.0765306
746	0	0.0765306
747	0	0.0765306
748	0	0.0765306
749	0	0.0765306
750	0	0.0765306
751	0	0.0765306
752	0	0.0756803
753	0	0.0765306
754	0	0.0765306
755	0	0.0765306
756	0	0.0765306
757	0	0.0705882
758	0	0.0658824
759	0	0.0588235
760	0	0.0509804
761	0	0.0596078
762	0	0.0541176
763	0	0.0517647
764	0	0.052549
765	0	0.052549
766	0	0.0517647
767	0	0.0517647
768	0	0.0517647
769	0	0.0517647
770	0	0.0533333
771	0	0.0493469
772	0	0.0493469
773	0	0.0480519
774	0	0.0463659
775	0	0.043834
776	0	0.0372881
777	0	0.148411
778	0	0.144961
779	0	0.146855
780	0	0.147907
781	0	0.147907
782	0	0.144919
783	0	0.148011
784	0	0.145859
785	0	0.146667
786	0	0.153577
787	0	0.171515
788	0	0.171515
789	0	0.171515
790	0	0.172525
791	0	0.184646
792	0	0.174747
793	0	0.23899
794	0	0.23899
795	0	0.234257
796	0	0.234257
797	0	0.234257
798	0	0.234257
799	0	0.234257
800	0	0.234257
801	0	0.234257
802	0	0.234257
803	0	0.236653
804	0	0.229664
805	0	0.229664
806	0	0.229664
807	0	0.229664
808	0	0.229664
809	0	0.243642
810	0	0.243642
811	0	0.243642
812	0	0.243642
813	0	0.230403
814	0	0.217722
815	0	0.217722
816	0	0.217722
817	0	0.217722
818	0	0.217722
819	0	0.217722
820	0	0.174109
821	0	0.223434
822	0	0.224818
823	0	0.172273
824	0	0.239551
825	0	0.246687
826	0	0.246687
827	0	0.247197
828	0	0.248556
829	0	0.248556
830	0	0.244037
831	0	0.244037
832	0	0.244037
833	0	0.23964
834	0	0.238329
835	0	0.238329
836	0	0.238329
837	0	0.238329
838	0	0.238329
839	0	0.234073
840	0	0.222121
841	0	0.222121
842	0	0.222121
843	0	0.218141
844	0	0.218141
845	0	0.218141
846	0	0.214412
847	0	0.214412
848	0	0.214412
849	0	0.207235
850	0	0.207235
851	0	0.207235
852	0	0.207235
853	0	0.181686
854	0	0.181686
855	0	0.181686
856	0	0.186894
857	0	0.186894
858	0	0.154191
859	0	0.154191
860	0	0.154191
861	0	0.154191
862	0	0.154191
863	0	0.154191
864	0	0.154191
865	0	0.154191
866	0	0.186894
867	0	0.178811
868	0	0.173606
869	0	0.173606
870	0	0.173606
871	0	0.173606
872	0	0.173606
873	0	0.171034
874	0	0.171034
875	0	0.171034
876	0	0.171034
877	0	0.170923
878	0	0.141183
879	0	0.139107
880	0	0.139434
881	0	0.139434
882	0	0.139107
883	0	0.139107
884	0	0.139107
885	0	0.139434
886	0	0.17244
887	0	0.172331
888	0	0.172331
889	0	0.168736
890	0	0.166273
891	0	0.166273
892	0	0.166273
893	0	0.166273
894	0	0.137291
895	0	0.135724
896	0	0.135724
897	0	0.131175
898	0	0.135724
899	0	0.145139
900	0	0.145139
901	0	0.150005
902	0	0.150005
903	0	0.150005
904	0	0.150005
905	0	0.150005
906	0	0.150005
907	0	0.150005
908	0	0.153285
909	0	0.155229
910	0	0.15307
911	0	0.154143
912	0	0.159188
913	0	0.158222
914	0	0.158115
915	0	0.158866
916	0	0.158866
917	0	0.155754
918	0	0.155754
919	0	0.155754
920	0	0.154787
921	0	0.153821
922	0	0.1561
923	0	0.1561
924	0	0.1561
925	0	0.1561
926	0	0.1561
927	0	0.156972
928	0	0.156972
929	0	0.156972
930	0	0.156972
931	0	0.162092
932	0	0.162092
933	0	0.162092
934	0	0.159725
935	0	0.15994
936	0	0.159725
937	0	0.159725
938	0	0.159725
939	0	0.159725
940	0	0.162092
941	0	0.164511
942	0	0.166985
943	0	0.174869
944	0	0.199787
945	0	0.199787
946	0	0.203089
947	0	0.203089
948	0	0.203089
949	0	0.233912
950	0	0.233912
951	0	0.233912
952	0	0.233912
953	0	0.233912
954	0	0.238165
955	0	0.238165
956	0	0.238165
957	0	0.238165
958	0	0.238165
959	0	0.238165
960	0	0.238165
961	0	0.238165
962	0	0.238165
963	0	0.238165
964	0	0.238165
965	0	0.238165
966	0	0.238165
967	0	0.238165
968	0	0.222768
969	0	0.222768
970	0	0.222768
971	0	0.238165
972	0	0.238165
973	0	0.238165
974	0	0.238165
975	0	0.238165
976	0	0.223096
977	0	0.223096
978	0	0.222768
979	0	0.222768
980	0	0.18837
981	0	0.202129
982	0	0.202293
983	0	0.195414
984	0	0.195414
985	0	0.195086
986	0	0.195086
987	0	0.195086
988	0	0.195086
989	0	0.195086
990	0	0.195086
991	0	0.195086
992	0	0.195086
993	0	0.195086
994	0	0.195086
995	0	0.195086
996	0	0.195086
997	0	0.195086
998	0	0.195086
999	0	0.197052
1000	0	0.195142
1001	0	0.195142
1002	0	0.195142
1003	0	0.195142
1004	0	0.195142
1005	0	0.195142
1006	0	0.195946
1007	0	0.195946
1008	0	0.195142
1009	0	0.195142
1010	0	0.195142
1011	0	0.192889
1012	0	0.192889
1013	0	0.192889
1014	0	0.192728
1015	0	0.189517
1016	0	0.196396
1017	0	0.196396
1018	0	0.196396
1019	0	0.196396
1020	0	0.197215
1021	0	0.197215
1022	0	0.197215
1023	0	0.203112
1024	0	0.202293
1025	0	0.202293
1026	0	0.202293
1027	0	0.202293
1028	0	0.202293
1029	0	0.202293
1030	0	0.202293
1031	0	0.202293
1032	0	0.206005
1033	0	0.206005
1034	0	0.206005
1035	0	0.206005
1036	0	0.206005
1037	0	0.206005
1038	0	0.199833
1039	0	0.207006
1040	0	0.199333
1041	0	0.199333
1042	0	0.204223
1043	0	0.204223
1044	0	0.206136
1045	0	0.206136
1046	0	0.206136
1047	0	0.206136
1048	0	0.215273
1049	0	0.215273
1050	0	0.186146
1051	0	0.186146
1052	0	0.186146
1053	0	0.18652
1054	0	0.18652
1055	0	0.18652
1056	0	0.193428
1057	0	0.193428
1058	0	0.193428
1059	0	0.193428
1060	0	0.193428
1061	0	0.193428
1062	0	0.193428
1063	0	0.193428
1064	0	0.193428
1065	0	0.200896
1066	0	0.237864
1067	0	0.237864
1068	0	0.237864
1069	0	0.232058
1070	0	0.23596
1071	0	0.23596
1072	0	0.23596
1073	0	0.220202
1074	0	0.215354
1075	0	0.215354
1076	0	0.215152
1077	0	0.219542
1078	0	0.218512
1079	0	0.187384
1080	0	0.131725
1081	0	0.113939
1082	0	0.12543
1083	0	0.118557
1084	0	0.118557
1085	0	0.117763
1086	0	0.117763
1087	0	0.120269
1088	0	0.117133
1089	0	0.126496
1090	0	0.139326
1091	0	0.144881
1092	0	0.134189
1093	0	0.131248
1094	0	0.121893
1095	0	0.108147
1096	0	0.0939873
1097	0	0.0967218
1098	0	0.097371
1099	0	0.099643
1100	0	0.0980201
1101	0	0.095099
1102	0	0.0895813
1103	0	0.0886076
1104	0	0.088175
1105	0	0.0854409
1106	0	0.0847573
1107	0	0.0870175
1108	0	0.0893694
1109	0	0.062807
1110	0	0.0500901
1111	0	0.0461261
1112	0	0.0417544
1113	0	0.043379
1114	0	0.042618
1115	0	0.0447205
1116	0	0.0438982
1117	0	0.0390694
1118	0	0.0504808
1119	0	0.0568356
1120	0	0.0592279
1121	0	0.0592279
1122	0	0.0612022
1123	0	0.0654588
1124	0	0.0654588
1125	0	0.0672122
1126	0	0.0672122
1127	0	0.0647308
1128	0	0.0538415
1129	0	0.0538415
1130	0	0.0538415
1131	0	0.0551378
1132	0	0.0557644
1133	0	0.0557644
1134	0	0.0602322
1135	0	0.0644898
1136	0	0.0653061
1137	0	0.0700355
1138	0	0.070922
1139	0	0.0787879
1140	0	0.0824524
1141	0	0.0824524
1142	0	0.0824524
1143	0	0.0824524
1144	0	0.0852713
1145	0	0.0813953
1146	0	0.0722689
1147	0	0.0730838
1148	0	0.0776515
1149	0	0.0826613
1150	0	0.0826613
1151	0	0.0826613
1152	0	0.0826613
1153	0	0.0967742
1154	0	0.103448
1155	0	0.103448
1156	0	0.103448
1157	0	0.0967742
1158	0	0.0967742
1159	0	0.0967742
1160	0	0.0967742
1161	0	0.0967742
1162	0	0.103448
1163	0	0.12
1164	0	0.12
1165	0	0.13
1166	0	0.13
1167	0	0.141304
1168	0	0.141304
1169	0	0.141304
1170	0	0.15415
1171	0	0.13834
1172	0	0.151515
1173	0	0.13834
1174	0	0.126812
1175	0	0.126812
1176	0	0.126812
1177	0	0.0953846
1178	0	0.0837438
1179	0	0.0757576
1180	0	0.0650794
1181	0	0.0621951
1182	0	0.0557491
1183	0	0.055371
1184	0	0.054902
1185	0	0.0550528
1186	0	0.0641026
1187	0	0.0624093
1188	0	0.053701
1189	0	0.0517121
1190	0	0.0517121
1191	0	0.0566038
1192	0	0.0545073
1193	0	0.0532365
1194	0	0.0590298
1195	0	0.057377
1196	0	0.0634585
1197	0	0.0884615
1198	0	0.0850962
1199	0	0.101166
1200	0	0.114219
1201	0	0.113523
1202	0	0.180307
1203	0	0.230986
1204	0	0.243531
1205	0	0.259459
1206	0	0.312432
1207	0	0.431989
1208	0	0.420912
1209	0	0.419994
1210	0	0.452775
1211	0	0.45695
1212	0	0.517485
1213	0	0.56509
1214	0	0.577839
1215	0	0.582197
1216	0	0.71236
1217	0	0.728947
1218	0	0.749354
1219	0	0.718006
1220	0	0.601089
1221	0	0.606775
1222	0	0.614974
1223	0	0
1224	0	0
1225	0	0
1226	0	0
1227	0	0
1228	0	0
1229	0	0
1230	0	0
1231	0	0
1232	0	0
1233	0	0
1234	0	0
1235	0	0
1236	0	0
1237	0	0.0357143
1238	0	0.0357143
1239	0	0.0888889
1240	0	0.921629
1241	0	0.107143
1242	0	0.107143
1243	0	0.107143
1244	0	0.107143
1245	0	0.107143
1246	0	0.107143
1247	0	0.107143
1248	0	0.107143
1249	0	0.927016
1250	0	0.927272
1251	0	0.92727
1252	0	0.927396
1253	0	0.927394
1254	0	0
1255	0	0
1256	0	0
1257	0	0
1258	0	0
1259	0	0
1260	0	0
1261	0	0
1262	0	0
1263	0	0
1264	0	0
1265	0	0
1266	0	0
1267	0	0
1268	0	0
1269	0	0
1270	0	0
1271	0	0
1272	0	0
1273	0	0
1274	0	0.166667
1275	0	0.166667
1276	0	0.166667
1277	0	0.166667
1278	0	0.166667
1279	0	0.166667
1280	0	0.166667
1281	0	0.166667
1282	0	0.166667
1283	0	0.166667
1284	0	0.166667
1285	0	0.1
1286	0	0.0666667
1287	0	0
1288	0	0
1289	0	0
1290	0	0
1291	0	0
1292	0	0.0555556
1293	0	0.0666667
1294	0	0.0666667
1295	0	0.0666667
1296	0	0.0666667
1297	0	0.0757576
1298	0	0.935545
1299	0	0.107143
1300	0	0.107143
1301	0	0.107143
1302	0	0.107143
1303	0	0.913699
1304	0	0.475228
1305	0	0
1306	0	0
1307	0	0
1308	0	0
1309	0	0
1310	0	0
1311	0	0
1312	0	0
1313	0	0
1314	0	0
1315	0	0
1316	0	0
1317	0	0
1318	0	0
1319	0	0
1320	0	0
1321	0	0
1322	0	0
1323	0	0
1324	0	0
1325	0	0
1326	0	0
1327	0	0
1328	0	0
1329	0	0
1330	0	0
1331	0	0
1332	0	0
1333	0	0
1334	0	0
1335	0	0
1336	0	0
1337	0	0.5
1338	0	0.5
1339	0	0.266667
1340	0	0.266667
1341	0	0.266667
1342	0	0.266667
1343	0	0.266667
1344	0	0.266667
1345	0	0.266667
1346	0	0.266667
1347	0	0.266667
1348	0	0.266667
1349	0	0.266667
1350	0	0.266667
1351	0	0.266667
1352	0	0.266667
1353	0	0.266667
1354	0	0.266667
1355	0	0.266667
1356	0	0.266667
1357	0	0.266667
1358	0	0.266667
1359	0	0.266667
1360	0	0.133333
1361	0	0.266667
1362	0	0.466667
1363	0	0.466667
1364	0	0.466667
1365	0	0.466667
1366	0	0.333333
1367	0	0.194444
1368	0	0.177778
1369	0	0.171429
1370	0	0.266667
1371	0	0.24183
1372	0	0.479973
1373	0	0.142857
1374	0	0.142857
1375	0	0.142857
1376	0	0.142857
1377	0	0.142857
1378	0	0.142857
1379	0	0.25
1380	0	0.357143
1381	0	0.357143
1382	0	0.2
1383	0	0.111111
1384	0	0.111111
1385	0	0.111111
1386	0	0.111111
1387	0	0.0909091
1388	0	0.0757576
1389	0	0.0909091
1390	0	0.0909091
1391	0	0.439394
1392	0	0.474359
1393	0	0.505495
1394	0	0.4849
1395	0	0.4849
1396	0	0.477294
1397	0	0
1398	0	0
1399	0	0
1400	0	0
1401	0	0
1402	0	0
1403	0	0
1404	0	0
1405	0	0
1406	0	0
1407	0	0
1408	0	0
1409	0	0
1410	0	0
1411	0	0
1412	0	0
1413	0	0
1414	0	0
1415	0	0
1416	0	0
1417	0	0
1418	0	0
1419	0	0
1420	0	0
1421	0	0
1422	0	0
1423	0	0
1424	0	0
1425	0	0
1426	0	0
1427	0	0
1428	0	0
1429	0	0
1430	0	0
1431	0	0.285714
1432	0	0.285714
1433	0	0.214286
1434	0	0.214286
1435	0	0.166667
1436	0	0.166667
1437	0	0.166667
1438	0	0.166667
1439	0	0.166667
1440	0	0.166667
1441	0	0.166667
1442	0	0.166667
1443	0	0.133333
1444	0	0.133333
1445	0	0.115385
1446	0	0.115385
1447	0	0.0857143
1448	0	0.520807
1449	0	0.966655
1450	0	0.285714
1451	0	0.285714
1452	0	0.285714
1453	0	0.285714
1454	0	0.285714
1455	0	0.285714
1456	0	0.968397
1457	0	0.968397
1458	0	0.968397
1459	0	0.970114
1460	0	0.136364
1461	0	0.163636
1462	0	0.163636
1463	0	0.136364
1464	0	0.136364
1465	0	0.136364
1466	0	0.136364
1467	0	0.151515
1468	0	0.181818
1469	0	0.977189
1470	0	0.977189
1471	0	0.977229
1472	0	0
1473	0	0
1474	0	0
1475	0	0
1476	0	0
1477	0	0
1478	1	0
1479	0	0
1480	0	0
1481	0	0
1482	0	0.68203
1483	0	0.68203
1484	0	0.333333
1485	0	0.333333
1486	0	0.692691
1487	0	0.982441
1488	0	0.5
1489	0	0.97904
1490	0	0.5
1491	0	0.5
1492	0	0.5
1493	0	0.5
1494	0	0.5
1495	0	0.982492
1496	0	0.982492
1497	0	0.982492
1498	0	0.982492
1499	0	0.982507
1500	0	0.982523
1501	0	0
1502	0	0
1503	0	0
1504	0	0
1505	0	0
1506	0	0
1507	0	0
1508	0	0
1509	0	0
1510	0	0
1511	0	0
1512	0	0
1513	0	0
1514	0	0
1515	0	0
1516	0	0
1517	0	0
1518	0	0
1519	0	0
1520	0	0.5
1521	0	0.5
1522	0	0.5
1523	0	0.5
1524	0	0.5
1525	0	0.5
1526	0	0.5
1527	0	0.5
1528	0	0.5
1529	0	0.5
1530	0	0.3
1531	0	0.3
1532	0	0.3
1533	0	0.3
1534	0	0.979086
1535	0	0.994737
1536	0	0.994737
1537	0	0.996487
1538	0	0.996487
1539	0	0.996487
1540	0	0.986007
1541	0	0.98252
1542	0	0.992981
1543	0	0.992981
1544	0	0.991237
1545	0	0
1546	0	0
1547	0	0.992987
1548	0	0.992987
1549	0	0.992999
1550	0	0.993012
1551	0	0.993012
1552	0	0
1553	0	0
1554	0	0
1555	0	0
1556	0	0
1557	0	0
1558	0	0
1559	1	0
1560	0	0
1561	0	0
1562	0	0
1563	0	0
1564	0	0
1565	0	0
1566	0	0
1567	0	0
1568	0	0
1569	0	0
1570	0	0
1571	0	0
1572	0	0
1573	0	0
1574	0	0.996497
1575	0	0
1576	0	0
1577	0	0
1578	0	0
1579	0	0
1580	0	0
1581	0	0
1582	0	0
1583	0	0
1584	0	0
1585	0	0
1586	0	0
1587	0	0
1588	0	0
1589	0	0
1590	0	0
1591	0	0
1592	0	0
1593	0	0
1594	0	0
1595	0	0
1596	0	0
1597	0	0
1598	0	0
1599	0	0
1600	0	0
1601	0	0
1602	0	0
1603	0	0
1604	0	0
1605	0	1
1606	0	1
1607	0	1
1608	0	1
1609	0	1
1610	0	1
1611	0	0.998247
1612	0	0.998249
1613	1	0
1614	1	0
1615	1	0
1616	1	0
1617	1	0
1618	1	0
1619	1	0
1620	1	0
1621	1	0
1622	1	0
1623	1	0
1624	1	0
1625	1	0
1626	1	0
1627	1	0
1628	1	0
1629	1	0
1630	1	0
1631	0	0
1632	0	0
1633	0	0.998252
1634	0	0.998252
1635	0	0.99825
1636	0	0.99825
1637	0	0.99825
1638	0	0.998259
1639	0	0.998259
1640	0	0.998259
1641	0	0.998258
1642	0	0.998258
1643	0	0.998258
1644	0	0.998258
1645	0	0.998258
1646	0	0.99478
1647	0	0.99478
1648	0	0.99478
1649	0	0
1650	0	0
1651	0	0
1652	0	0
1653	0	0
1654	0	0
1655	0	0
1656	0	0
1657	0	0
1658	0	0
1659	0	0
1660	0	0
1661	1	0
1662	1	0
1663	1	0
1664	0	0
1665	0	0
1666	0	0
1667	0	0.998259
1668	0	0.998259
1669	0	0.998259
1670	0	0.998259
1671	0	0.998259
1672	0	0.998259
1673	0	0.998259
1674	1	1
1675	1	1
1676	1	1
1677	1	1
1678	1	1
1679	0	0.998259
1680	0	0.998258
1681	0	0.998258
1682	0	0.998258
1683	0	0.708318
1684	0	0
1685	0	0
1686	0	0
1687	0	0
1688	0	0
1689	0	0
1690	0	0
1691	0	0
1692	0	0
1693	0	0
1694	0	0
1695	0	0
1696	0	0
1697	0	0
1698	0	0
1699	1	0
1700	1	0
1701	0	0.333333
1702	0	0.333333
1703	0	0.333333
1704	0	1
1705	0	1
1706	0	1
1707	0	0.5
1708	0	0.5
1709	0	0.5
1710	0	0.266667
1711	0	0.466667
1712	1	1
1713	0	1
1714	0	0.998256
1715	0	0.998256
1716	0	0.998256
1717	0	0.996517
1718	0	0.996517
1719	0	0.996517
1720	0	0.994783
1721	0	0.994783
1722	0	0.994783
1723	0	0.994783
1724	0	0.996517
1725	0	0.996517
1726	0	0.996517
1727	0	0.996517
1728	0	0.996514
1729	0	0.996514
1730	0	0
1731	0	0
1732	0	0
1733	0	0
1734	0	0
1735	0	0
1736	0	0
1737	0	0
1738	0	0
1739	0	0
1740	0	0
1741	0	0
1742	0	0
1743	0	0
1744	0	0.996505
1745	0	0.996505
1746	0	0.996505
1747	0	0
1748	0	0
1749	0	0.996502
1750	0	0.996502
1751	0	0.99476
1752	0	0.99476
1753	0	0.994746
1754	0	0.994746
1755	0	0.994741
1756	0	0.994737
1757	0	0.994737
1758	0	0.992992
1759	0	0
1760	0	0
1761	0	0
1762	0	0
1763	0	0
1764	0	0
1765	0	0
1766	0	0
1767	0	0
1768	0	0
1769	0	0
1770	0	0
1771	0	0
1772	0	0
1773	0	0
1774	0	0
1775	0	0
1776	0	0
1777	0	0
1778	0	0
1779	0	0
1780	0	0
1781	0	0
1782	0	0
1783	0	0
1784	0	0
1785	0	0
1786	0	0
1787	0	0
1788	0	0
1789	0	0
1790	0	0
1791	0	0
1792	0	0
1793	0	0
1794	0	0
1795	0	0
1796	0	0
1797	0	0
1798	0	0
1799	0	0
1800	0	0
1801	0	0
1802	0	0
1803	0	0
1804	0	0
1805	0	0
1806	0	0
1807	0	0
1808	0	0
1809	0	0
1810	0	0
1811	0	0
1812	0	0
1813	0	0
1814	0	0
1815	0	0
1816	0	0
1817	0	0
1818	0	0
1819	0	0
1820	0	0
1821	0	0
1822	0	0
1823	0	0
1824	0	0
1825	0	0
1826	0	0
1827	0	0
1828	0	0
1829	0	0
1830	0	0.989497
1831	0	0.989497
1832	0	0.989497
1833	0	0.987752
1834	0	0.984271
1835	0	0.984257
1836	0	0.986577
1837	0	1
1838	0	1
1839	0	1
1840	0	0.428571
1841	0	0.428571
1842	0	0.428571
1843	0	0.428571
1844	0	0.428571
1845	0	0.428571
1846	0	0.428571
1847	0	0.428571
1848	0	0.428571
1849	0	0.428571
1850	0	0.428571
1851	0	0.285714
1852	0	0.285714
1853	0	0.4
1854	0	0.4
1855	0	0.4
1856	0	0.285714
1857	0	0.285714
1858	0	0.285714
1859	0	0.285714
1860	0	0.285714
1861	0	0.285714
1862	0	0.285714
1863	0	0.285714
1864	0	0.285714
1865	0	0.285714
1866	0	0.285714
1867	0	0.285714
1868	0	0.285714
1869	0	0.333333
1870	0	0.333333
1871	0	0.333333
1872	0	0.333333
1873	0	0.285714
1874	0	0.285714
1875	0	0.285714
1876	0	0.214286
1877	0	0.214286
1878	0	0.214286
1879	0	0.214286
1880	0	0.214286
1881	0	0.214286
1882	0	0.214286
1883	0	0.214286
1884	0	0.214286
1885	0	0.214286
1886	0	0.214286
1887	0	0.214286
1888	0	0.214286
1889	0	0.214286
1890	0	0.166667
1891	0	0.133333
1892	0	0.127273
1893	0	0.127273
1894	0	0.127273
1895	0	0.127273
1896	0	0.127273
1897	0	0.127273
1898	0	0.127273
1899	0	0.127273
1900	0	0.127273
1901	0	0.127273
1902	0	0.127273
1903	0	0.127273
1904	0	0.127273
1905	0	0.127273
1906	0	0.127273
1907	0	0.127273
1908	0	0.106061
1909	0	0.106061
1910	0	0.106061
1911	0	0.106061
1912	0	0.102564
1913	0	0.102564
1914	0	0.102564
1915	0	0.102564
1916	0	0.102564
1917	0	0.102564
1918	0	0.102564
1919	0	0.102564
1920	0	0.102564
1921	0	0.102564
1922	0	0.106061
1923	0	0.121212
1924	0	0.121212
1925	0	0.121212
1926	0	0.121212
1927	0	0.102564
1928	0	0.102564
1929	0	0.102564
1930	0	0.102564
1931	0	0.102564
1932	0	0.102564
1933	0	0.102564
1934	0	0.102564
1935	0	0.102564
1936	0	0.102564
1937	0	0.102564
1938	0	0.102564
1939	0	0.102564
1940	0	0.102564
1941	0	0.102564
1942	0	0.102564
1943	0	0.104762
1944	0	0.0916667
1945	0	0.1
1946	0	0.108333
1947	0	0.108333
1948	0	0.108333
1949	0	0.108333
1950	0	0.114286
1951	0	0.114286
1952	0	0.114286
1953	0	0.114286
1954	0	0.114286
1955	0	0.114286
1956	0	0.114286
1957	0	0.114286
1958	0	0.114286
1959	0	0.114286
1960	0	0.114286
1961	0	0.114286
1962	0	0.114286
1963	0	0.114286
1964	0	0.114286
1965	0	0.114286
1966	0	0.114286
1967	0	0.114286
1968	0	0.114286
1969	0	0.114286
1970	0	0.114286
1971	0	0.114286
1972	0	0.114286
1973	0	0.114286
1974	0	0.114286
1975	0	0.114286
1976	0	0.114286
1977	0	0.114286
1978	0	0.114286
1979	0	0.114286
1980	0	0.114286
1981	0	0.114286
1982	0	0.114286
1983	0	0.114286
1984	0	0.114286
1985	0	0.114286
1986	0	0.114286
1987	0	0.114286
1988	0	0.114286
1989	0	0.114286
1990	0	0.114286
1991	0	0.114286
1992	0	0.114286
1993	0	0.114286
1994	0	0.114286
1995	0	0.114286
1996	0	0.114286
1997	0	0.120879
1998	0	0.120879
1999	0	0.120879
2000	0	0.120879
2001	0	0.120879
2002	0	0.120879
2003	0	0.120879
2004	0	0.120879
2005	0	0.104762
2006	0	0.114286
2007	0	0.114286
2008	0	0.114286
2009	0	0.114286
2010	0	0.114286
2011	0	0.114286
2012	0	0.114286
2013	0	0.114286
2014	0	0.114286
2015	0	0.114286
2016	0	0.114286
2017	0	0.114286
2018	0	0.114286
2019	0	0.114286
2020	0	0.114286
2021	0	0.114286
2022	0	0.114286
2023	0	0.114286
2024	0	0.114286
2025	0	0.114286
2026	0	0.114286
2027	0	0.114286
2028	0	0.114286
2029	0	0.114286
2030	0	0.114286
2031	0	0.114286
2032	0	0.114286
2033	0	0.114286
2034	0	0.114286
2035	0	0.114286
2036	0	0.114286
2037	0	0.114286
2038	0	0.114286
2039	0	0.114286
2040	0	0.114286
2041	0	0.114286
2042	0	0.114286
2043	0	0.114286
2044	0	0.114286
2045	0	0.141026
2046	0	0.141026
2047	0	0.114286
2048	0	0.114286
2049	0	0.114286
2050	0	0.114286
2051	0	0.114286
2052	0	0.114286
2053	0	0.114286
2054	0	0.114286
2055	0	0.114286
2056	0	0.104762
2057	0	0.12381
2058	0	0.12381
2059	0	0.12381
2060	0	0.12381
2061	0	0.127273
2062	0	0.127273
2063	0	0.127273
2064	0	0.127273
2065	0	0.127273
2066	0	0.127273
2067	0	0.127273
2068	0	0.127273
2069	0	0.127273
2070	0	0.127273
2071	0	0.127273
2072	0	0.127273
2073	0	0.127273
2074	0	0.127273
2075	0	0.127273
2076	0	0.127273
2077	0	0.127273
2078	0	0.127273
2079	0	0.127273
2080	0	0.127273
2081	0	0.127273
2082	0	0.127273
2083	0	0.111111
2084	0	0.111111
2085	0	0.111111
2086	0	0.111111
2087	0	0.111111
2088	0	0.111111
2089	0	0.111111
2090	0	0.111111
2091	0	0.111111
2092	0	0.111111
2093	0	0.111111
2094	0	0.111111
2095	0	0.111111
2096	0	0.111111
2097	0	0.111111
2098	0	0.111111
2099	0	0.111111
2100	0	0.111111
2101	0	0.111111
2102	0	0.290909
2103	0	0.290909
2104	0	0.290909
2105	0	0.290909
2106	0	0.290909
2107	0	0.290909
2108	0	0.290909
2109	0	0.290909
2110	0	0.290909
2111	0	0.290909
2112	0	0.290909
2113	0	0.290909
2114	0	0.290909
2115	0	0.290909
2116	0	0.290909
2117	0	0.309091
2118	0	0.2
2119	0	0.2
2120	0	0.2
2121	0	0.2
2122	0	0.2
2123	0	0.244444
2124	0	0.244444
2125	0	0.244444
2126	0	0.218182
2127	0	0.218182
2128	0	0.218182
2129	0	0.4
2130	0	0.4
2131	0	0.527273
2132	0	0.527273
2133	0	0.527273
2134	0	0.527273
2135	0	0.527273
2136	0	0.527273
2137	0	0.527273
2138	0	0.527273
2139	0	0.527273
2140	0	0.527273
2141	0	0.527273
2142	0	0.527273
2143	0	0.527273
2144	0	0.527273
2145	0	0.527273
2146	0	0.527273
2147	0	0.527273
2148	0	0.527273
2149	0	0.527273
2150	0	0.527273
2151	0	0.527273
2152	0	0.527273
2153	0	0.527273
2154	0	0.527273
2155	0	0.527273
2156	0	0.527273
2157	0	0.527273
2158	0	0.527273
2159	0	0.527273
2160	0	0.527273
2161	0	0.527273
2162	0	0.527273
2163	0	0.527273
2164	0	0.527273
2165	0	0.527273
2166	0	0.527273
2167	0	0.527273
2168	0	0.527273
2169	0	0.527273
2170	0	0.527273
2171	0	0.527273
2172	0	0.527273
2173	0	0.527273
2174	0	0.527273
2175	0	0.527273
2176	0	0.527273
2177	0	0.527273
2178	0	0.527273
2179	0	0.527273
2180	0	0.527273
2181	0	0.527273
2182	0	0.527273
2183	0	0.527273
2184	0	0.527273
2185	0	0.527273
2186	0	0.527273
2187	0	0.527273
2188	0	0.622222
2189	0	0.622222
2190	0	0.622222
2191	0	0.622222
2192	0	0.622222
2193	0	0.622222
2194	0	0.509091
2195	0	0.527273
2196	0	0.4
2197	0	0.509091
2198	0	0.654545
2199	0	0.654545
2200	0	0.654545
2201	0	0.654545
2202	0	0.654545
2203	0	0.654545
2204	0	0.654545
2205	0	0.654545
2206	0	0.654545
2207	0	0.654545
2208	0	0.654545
2209	0	0.654545
2210	0	0.654545
2211	0	0.654545
2212	0	0.654545
2213	0	0.654545
2214	0	0.654545
2215	0	0.654545
2216	0	0.8
2217	0	0.8
2218	0	0.8
2219	0	0.8
2220	0	0.8
2221	0	0.8
2222	0	0.8
2223	0	0.8
2224	0	0.8
2225	0	0.8
2226	0	0.8
2227	0	0.8
2228	0	0.8
2229	0	1
2230	0	0.672727
