Site	ColumnScore	SumOfPairsScore
1	0	0
2	0	0
3	0	0
4	0	0
5	0	0
6	0	0
7	0	0
8	0	0
9	0	0
10	0	0
11	0	0
12	0	0
13	0	0
14	0	0
15	0	0
16	0	0
17	0	0
18	0	0
19	0	0
20	0	0
21	0	0
22	0	0
23	0	0
24	0	0
25	0	0
26	0	0
27	0	0
28	0	0
29	0	0
30	0	0
31	0	0
32	0	0
33	0	0
34	0	0
35	0	0
36	0	0
37	0	0
38	0	0
39	1	0
40	0	0
41	0	0
42	0	0
43	0	0
44	0	0
45	0	0
46	0	0
47	0	0
48	0	0
49	0	0
50	0	0
51	0	0
52	0	0
53	0	0
54	0	0
55	0	0
56	0	0
57	0	0
58	0	0
59	0	0
60	0	0
61	0	0
62	0	0
63	0	0
64	0	0
65	0	0
66	1	0
67	1	0
68	1	0
69	0	0
70	0	0
71	0	0
72	0	0
73	0	0
74	0	0
75	0	0
76	0	0
77	0	0
78	0	0
79	0	0
80	0	0
81	0	0
82	0	0
83	0	0
84	0	0
85	0	0
86	0	0
87	0	0
88	0	0
89	0	0
90	0	0
91	0	0
92	0	0
93	0	0
94	0	0
95	0	0
96	0	0
97	0	0
98	0	0
99	0	0
100	0	0
101	0	0
102	0	0
103	0	0
104	0	0
105	0	0
106	0	0
107	0	0
108	0	0
109	0	0
110	0	0
111	0	0
112	0	0
113	0	0
114	0	0
115	0	0
116	0	0
117	0	0
118	0	0
119	0	0
120	0	0
121	0	0
122	0	0
123	0	0
124	0	0
125	0	0
126	0	0
127	0	0
128	0	0
129	0	0
130	0	0
131	0	0
132	0	0
133	0	0
134	0	0
135	0	0
136	0	0
137	0	0
138	0	0
139	0	0
140	0	0
141	0	0
142	1	0
143	1	0
144	1	0
145	1	0
146	1	0
147	1	0
148	0	0
149	0	0
150	0	0
151	0	0
152	0	0
153	0	0
154	0	0
155	1	0
156	1	0
157	1	0
158	1	0
159	0	0
160	0	0
161	0	0
162	0	0
163	0	0
164	1	0
165	1	0
166	1	0
167	1	0
168	1	0
169	1	0
170	0	0
171	0	0
172	0	0
173	1	0
174	1	0
175	1	0
176	1	0
177	1	0
178	1	0
179	1	0
180	1	0
181	1	0
182	1	0
183	1	0
184	1	0
185	1	0
186	1	0
187	1	0
188	1	0
189	1	0
190	1	0
191	1	0
192	1	0
193	1	0
194	1	0
195	1	0
196	1	0
197	1	0
198	1	0
199	0	0
200	0	0
201	0	0
202	0	0
203	0	0
204	0	0
205	0	0
206	0	0
207	0	0
208	1	0
209	1	0
210	1	0
211	1	0
212	1	0
213	1	0
214	1	0
215	1	0
216	1	0
217	1	0
218	1	0
219	1	0
220	1	0
221	1	0
222	1	0
223	1	0
224	1	0
225	1	0
226	1	0
227	1	0
228	1	0
229	1	0
230	1	0
231	1	0
232	1	0
233	1	0
234	1	0
235	1	0
236	1	0
237	1	0
238	1	0
239	1	0
240	1	0
241	1	0
242	1	0
243	1	0
244	1	0
245	1	0
246	1	0
247	1	0
248	1	0
249	1	0
250	1	0
251	1	0
252	1	0
253	1	0
254	1	0
255	1	0
256	1	0
257	1	0
258	1	0
259	1	0
260	0	0
261	0	0
262	0	0
263	0	0
264	0	0
265	0	0
266	0	0
267	0	0
268	0	0
269	0	0
270	0	0
271	0	0
272	0	0
273	0	0
274	0	0
275	0	0
276	0	0
277	0	0
278	0	0
279	0	0
280	0	0
281	0	0
282	0	0
283	0	0
284	0	0
285	0	0
286	0	0
287	0	0
288	0	0
289	0	0
290	0	0
291	0	0
292	0	0
293	0	0
294	0	0
295	0	0
296	0	0
297	0	0
298	0	0
299	0	0
300	0	0
301	0	0
302	0	0
303	0	0
304	0	0
305	0	0
306	0	0
307	0	0
308	0	0
309	0	0
310	0	0
311	0	0
312	0	0
313	0	0
314	0	0
315	0	0
316	0	0
317	0	0
318	0	0
319	0	0
320	0	0
321	0	0
322	0	0
323	0	0
324	0	0
325	0	0
326	0	0
327	0	0
328	0	0
329	0	0
330	0	0
331	0	0
332	0	0
333	0	0
334	0	0
335	0	0
336	0	0
337	0	0
338	0	0
339	0	0
340	0	0
341	0	0
342	0	0
343	0	0
344	0	0
345	0	0
346	0	0
347	0	0
348	0	0
349	0	0
350	0	0
351	0	0
352	0	0
353	0	0
354	0	0
355	0	0
356	0	0
357	0	0
358	0	0
359	0	0
360	0	0
361	0	0
362	0	0
363	0	0
364	0	0
365	0	0
366	0	0
367	0	0
368	0	0
369	0	0
370	0	0
371	0	0
372	0	0
373	0	0
374	0	0
375	0	0
376	0	0
377	0	0
378	0	0
379	0	0
380	0	0
381	0	0
382	0	0
383	0	0
384	0	0
385	0	0
386	0	0
387	0	0
388	0	0
389	1	0
390	1	0
391	1	0
392	1	0
393	1	0
394	0	0
395	0	0
396	0	0
397	0	0
398	0	0
399	0	0
400	0	0
401	0	0
402	0	0
403	0	0
404	0	0
405	0	0
406	0	0
407	0	0
408	0	0
409	0	0
410	0	0
411	0	0
412	0	0
413	0	0
414	0	0
415	0	0
416	0	0
417	0	0
418	0	0
419	0	0
420	0	0
421	0	0
422	0	0
423	0	0
424	0	0
425	0	0
426	0	0
427	0	0
428	0	0
429	0	0
430	0	0
431	0	0
432	0	0
433	0	0
434	0	0
435	0	0
436	0	0
437	0	0
438	0	0
439	0	0
440	0	0
441	0	0
442	0	0
443	0	0
444	0	0
445	0	0
446	0	0
447	0	0
448	0	0
449	0	0
450	0	0
451	0	0
452	0	0
453	0	0
454	0	0
455	0	0
456	0	0
457	0	0
458	0	0
459	0	0
460	0	0
461	0	0
462	0	0
463	0	0
464	0	0
465	0	0
466	0	0
467	0	0
468	0	0
469	0	0
470	0	0
471	0	0
472	0	0
473	0	0
474	0	0
475	0	0
476	0	0
477	0	0
478	0	0
479	0	0
480	0	0
481	0	0
482	0	0
483	0	0
484	0	0
485	0	0
486	0	0
487	0	0
488	0	0
489	0	0
490	0	0
491	0	0
492	0	0
493	0	0
494	0	0
495	0	0
496	0	0
497	0	0
498	0	0
499	0	0
500	0	0
501	0	0
502	0	0
503	0	0
504	0	0
505	0	0
506	0	0
507	0	0
508	0	0
509	0	0
510	0	0
511	0	0
512	0	0
513	0	0
514	0	0
515	0	0
516	0	0
517	0	0
518	0	0
519	0	0
520	0	0
521	0	0
522	0	0
523	0	0
524	0	0
525	0	0
526	0	0
527	0	0
528	0	0
529	0	0
530	0	0
531	0	0
532	0	0
533	0	0
534	0	0
535	0	0
536	0	0
537	0	0
538	0	0
539	0	0
540	0	0
541	0	0
542	0	0
543	0	0
544	0	0
545	0	0
546	0	0
547	0	0
548	0	0
549	0	0
550	0	0
551	0	0
552	0	0
553	0	0
554	0	0
555	0	0
556	0	0
557	0	0
558	0	0
559	0	0
560	0	0
561	0	0
562	0	0
563	0	0
564	0	0
565	0	0
566	0	0
567	0	0
568	0	0
569	0	0
570	0	0
571	0	0
572	0	0
573	0	0
574	0	0
575	0	0
576	0	0
577	0	0
578	0	0
579	0	0
580	0	0
581	0	0
582	0	0
583	0	0
584	0	0
585	0	0
586	0	0
587	0	0
588	0	0.1
589	0	0.1
590	0	0.1
591	0	0.1
592	0	0
593	0	0
594	0	0.1
595	0	0.1
596	0	0.1
597	0	0.1
598	0	0.1
599	0	0.1
600	0	0.1
601	0	0.1
602	0	0.1
603	0	0.1
604	0	0.1
605	0	0.1
606	0	0.1
607	0	0.1
608	0	0.1
609	0	0.1
610	0	0.1
611	0	0.1
612	0	0.1
613	0	0.1
614	0	0.1
615	0	0.1
616	0	0.1
617	0	0.1
618	0	0.1
619	0	0.1
620	0	0.1
621	0	0.1
622	0	0.1
623	0	0.1
624	0	0.1
625	0	0.1
626	0	0.1
627	0	0.1
628	0	0.1
629	0	0.1
630	0	0.1
631	0	0.1
632	0	0.1
633	0	0.1
634	0	0.1
635	0	0.1
636	0	0.1
637	0	0.1
638	0	0.1
639	0	0.1
640	0	0.1
641	0	0.1
642	0	0.1
643	0	0.1
644	0	0.1
645	0	0.1
646	0	0.1
647	0	0.1
648	0	0.1
649	0	0.1
650	0	0.1
651	0	0.142857
652	0	0.142857
653	0	0.142857
654	0	0.142857
655	0	0.142857
656	0	0.142857
657	0	0.142857
658	0	0.142857
659	0	0.142857
660	0	0.142857
661	0	0.142857
662	0	0.111111
663	0	0.111111
664	0	0.111111
665	0	0.111111
666	0	0.111111
667	0	0.111111
668	0	0.111111
669	0	0.111111
670	0	0.111111
671	0	0.111111
672	0	0.111111
673	0	0.111111
674	0	0.111111
675	0	0.111111
676	0	0.111111
677	0	0.111111
678	0	0.111111
679	0	0.111111
680	0	0.111111
681	0	0.111111
682	0	0.111111
683	0	0.111111
684	0	0.111111
685	0	0.111111
686	0	0.111111
687	0	0.111111
688	0	0.111111
689	0	0.111111
690	0	0.111111
691	0	0.111111
692	0	0.111111
693	0	0.111111
694	0	0.111111
695	0	0.111111
696	0	0.111111
697	0	0.111111
698	0	0.111111
699	0	0.111111
700	0	0.111111
701	0	0.111111
702	0	0.111111
703	0	0.111111
704	0	0.0888889
705	0	0.0888889
706	0	0.0888889
707	0	0.0888889
708	0	0.0888889
709	0	0.0888889
710	0	0.0888889
711	0	0.0888889
712	0	0.0888889
713	0	0.0888889
714	0	0.0888889
715	0	0.0888889
716	0	0.0888889
717	0	0.0888889
718	0	0.0727273
719	0	0.0727273
720	0	0.0727273
721	0	0.0606061
722	0	0.0512821
723	0	0.0512821
724	0	0.0512821
725	0	0.0512821
726	0	0.0512821
727	0	0.0512821
728	0	0.043956
729	0	0.043956
730	0	0.043956
731	0	0.043956
732	0	0.043956
733	0	0.043956
734	0	0.043956
735	0	0.043956
736	0	0.043956
737	0	0.021978
738	0	0.0181818
739	0	0.021978
740	0	0.021978
741	0	0.0190476
742	0	0.0380952
743	0	0.0380952
744	0	0.0380952
745	0	0.0380952
746	0	0.0380952
747	0	0.0380952
748	0	0.0380952
749	0	0.0380952
750	0	0.0380952
751	0	0.0380952
752	0	0.0380952
753	0	0.0380952
754	0	0.0380952
755	0	0.0380952
756	0	0.0380952
757	0	0.0380952
758	0	0.0380952
759	0	0.0380952
760	0	0.0380952
761	0	0.0380952
762	0	0.021978
763	0	0.021978
764	0	0.021978
765	0	0.0190476
766	0	0.0190476
767	0	0.0190476
768	0	0.0166667
769	0	0.0166667
770	0	0.0166667
771	0	0.0166667
772	0	0.010989
773	0	0.0333333
774	0	0.0333333
775	0	0.0333333
776	0	0.0333333
777	0	0.0333333
778	0	0.0166667
779	0	0.0333333
780	0	0.0333333
781	0	0.0333333
782	0	0.0333333
783	0	0.0333333
784	0	0.0333333
785	0	0.0333333
786	0	0.0294118
787	0	0.0261438
788	0	0.0261438
789	0	0.0261438
790	0	0.0261438
791	0	0.0261438
792	0	0.0261438
793	0	0.0261438
794	0	0.0261438
795	0	0.0261438
796	0	0.0261438
797	0	0.0261438
798	0	0.0261438
799	0	0.0261438
800	0	0.0261438
801	0	0.0261438
802	0	0.00833333
803	0	0.0130719
804	0	0.0130719
805	0	0.0130719
806	0	0.0130719
807	0	0.00735294
808	0	0.00735294
809	0	0.0130719
810	0	0.0261438
811	0	0.0261438
812	0	0.0261438
813	0	0.0261438
814	0	0.0261438
815	0	0.0261438
816	0	0.0261438
817	0	0.0294118
818	0	0.0294118
819	0	0.0294118
820	0	0.0294118
821	0	0.0294118
822	0	0.0294118
823	0	0.0294118
824	0	0.0294118
825	0	0.0294118
826	0	0.0147059
827	0	0.0147059
828	0	0.0130719
829	0	0.0130719
830	0	0.0130719
831	0	0.0130719
832	0	0.0130719
833	0	0.0130719
834	0	0.0130719
835	0	0.0130719
836	0	0.0130719
837	0	0.00653595
838	0	0.00653595
839	0	0.00653595
840	0	0.0130719
841	0	0.00735294
842	0	0.00735294
843	0	0.00735294
844	0	0.00735294
845	0	0.0130719
846	0	0.0130719
847	0	0.0130719
848	0	0.0130719
849	0	0.0147059
850	0	0.0147059
851	0	0.0147059
852	0	0.0147059
853	0	0.00735294
854	0	0.00833333
855	0	0.0261438
856	0	0.0261438
857	0	0.0261438
858	0	0.0457516
859	0	0.0457516
860	0	0.0457516
861	0	0.0457516
862	0	0.0457516
863	0	0.0457516
864	0	0.0457516
865	0	0.0457516
866	0	0.0457516
867	0	0.0457516
868	0	0.0457516
869	0	0.0457516
870	0	0.0467836
871	0	0.0409357
872	0	0.0368421
873	0	0.0368421
874	0	0.0368421
875	0	0.0368421
876	0	0.0368421
877	0	0.0368421
878	0	0.0368421
879	0	0.0368421
880	0	0.0368421
881	0	0.0368421
882	0	0.0368421
883	0	0.0368421
884	0	0.0368421
885	0	0.0368421
886	0	0.0368421
887	0	0.0368421
888	0	0.0368421
889	0	0.0368421
890	0	0.0368421
891	0	0.0368421
892	0	0.0368421
893	0	0.0368421
894	0	0.0368421
895	0	0.0368421
896	0	0.0368421
897	0	0.0368421
898	0	0.0368421
899	0	0.0368421
900	0	0.0368421
901	0	0.0368421
902	0	0.0368421
903	0	0.0368421
904	0	0.0368421
905	0	0.0368421
906	0	0.0368421
907	0	0.0368421
908	0	0.0368421
909	0	0.0368421
910	0	0.0368421
911	0	0.0368421
912	0	0.0368421
913	0	0.0368421
914	0	0.0368421
915	0	0.0368421
916	0	0.0368421
917	0	0.0333333
918	0	0.0333333
919	0	0.0333333
920	0	0.0333333
921	0	0.0333333
922	0	0.0333333
923	0	0.0333333
924	0	0.0333333
925	0	0.0333333
926	0	0.0333333
927	0	0.0333333
928	0	0.0333333
929	0	0.0333333
930	0	0.0333333
931	0	0.0333333
932	0	0.0333333
933	0	0.0333333
934	0	0.0333333
935	0	0.0333333
936	0	0.0333333
937	0	0.0333333
938	0	0.0333333
939	0	0.0333333
940	0	0.0333333
941	0	0.0333333
942	0	0.0333333
943	0	0.0333333
944	0	0.0333333
945	0	0.0333333
946	0	0.0333333
947	0	0.0333333
948	0	0.0333333
949	0	0.0333333
950	0	0.0333333
951	0	0.0333333
952	0	0.0333333
953	0	0.0333333
954	0	0.0333333
955	0	0.0333333
956	0	0.0333333
957	0	0.0333333
958	0	0.0285714
959	0	0.0285714
960	0	0.0285714
961	0	0.0285714
962	0	0.0285714
963	0	0.0285714
964	0	0.0285714
965	0	0.0315789
966	0	0.0315789
967	0	0.0315789
968	0	0.0315789
969	0	0.0315789
970	0	0.0315789
971	0	0.0315789
972	0	0.0315789
973	0	0.0315789
974	0	0.0315789
975	0	0.0315789
976	0	0.0315789
977	0	0.0315789
978	0	0.0315789
979	0	0.0315789
980	0	0.0315789
981	0	0.0315789
982	0	0.0350877
983	0	0.0333333
984	0	0.0333333
985	0	0.0333333
986	0	0.0333333
987	0	0.0333333
988	0	0.0333333
989	0	0.0333333
990	0	0.0333333
991	0	0.0333333
992	0	0.0333333
993	0	0.0333333
994	0	0.0333333
995	0	0.0333333
996	0	0.0333333
997	0	0.0333333
998	0	0.0333333
999	0	0.0333333
1000	0	0.0333333
1001	0	0.0333333
1002	0	0.0333333
1003	0	0.0333333
1004	0	0.0333333
1005	0	0.0333333
1006	0	0.0333333
1007	0	0.0333333
1008	0	0.0333333
1009	0	0.0333333
1010	0	0.0333333
1011	0	0.0333333
1012	0	0.0333333
1013	0	0.0333333
1014	0	0.0333333
1015	0	0.0333333
1016	0	0.0333333
1017	0	0.0333333
1018	0	0.030303
1019	0	0.030303
1020	0	0.030303
1021	0	0.030303
1022	0	0.030303
1023	0	0.034632
1024	0	0.034632
1025	0	0.034632
1026	0	0.034632
1027	0	0.0238095
1028	0	0.0238095
1029	0	0.0142857
1030	0	0.0157895
1031	0	0.0157895
1032	0	0.0142857
1033	0	0.0157895
1034	0	0.012987
1035	0	0.012987
1036	0	0.012987
1037	0	0.0142857
1038	0	0.0142857
1039	0	0.021645
1040	0	0.017316
1041	0	0.021645
1042	0	0.021645
1043	0	0.017316
1044	0	0.0142857
1045	0	0.012987
1046	0	0.017316
1047	0	0.017316
1048	0	0.017316
1049	0	0.017316
1050	0	0.017316
1051	0	0.017316
1052	0	0.017316
1053	0	0.017316
1054	0	0.017316
1055	0	0.017316
1056	0	0.017316
1057	0	0.017316
1058	0	0.017316
1059	0	0.017316
1060	0	0.017316
1061	0	0.017316
1062	0	0.017316
1063	0	0.017316
1064	0	0.017316
1065	0	0.017316
1066	0	0.017316
1067	0	0.017316
1068	0	0.017316
1069	0	0.017316
1070	0	0.017316
1071	0	0.017316
1072	0	0.017316
1073	0	0.017316
1074	0	0.017316
1075	0	0.017316
1076	0	0.017316
1077	0	0.017316
1078	0	0.017316
1079	0	0.017316
1080	0	0.017316
1081	0	0.00865801
1082	0	0.00865801
1083	0	0.004329
1084	0	0.00584795
1085	0	0.00584795
1086	0	0.00584795
1087	0	0.00584795
1088	0	0.00526316
1089	0	0.00865801
1090	0	0.00865801
1091	0	0.00865801
1092	0	0.00865801
1093	0	0.00865801
1094	0	0.00865801
1095	0	0.00865801
1096	0	0.017316
1097	0	0.017316
1098	0	0.017316
1099	0	0.017316
1100	0	0.021645
1101	0	0.017316
1102	0	0.017316
1103	0	0.021645
1104	0	0.021645
1105	0	0.021645
1106	0	0.021645
1107	0	0.021645
1108	0	0.021645
1109	0	0.021645
1110	0	0.021645
1111	0	0.021645
1112	0	0.021645
1113	0	0.021645
1114	0	0.021645
1115	0	0.021645
1116	0	0.021645
1117	0	0.021645
1118	0	0.021645
1119	0	0.021645
1120	0	0.021645
1121	0	0.021645
1122	0	0.021645
1123	0	0.021645
1124	0	0.021645
1125	0	0.021645
1126	0	0.021645
1127	0	0.021645
1128	0	0.021645
1129	0	0.021645
1130	0	0.021645
1131	0	0.021645
1132	0	0.021645
1133	0	0.021645
1134	0	0.021645
1135	0	0.021645
1136	0	0.021645
1137	0	0.021645
1138	0	0.021645
1139	0	0.021645
1140	0	0.021645
1141	0	0.021645
1142	0	0.021645
1143	0	0.021645
1144	0	0.021645
1145	0	0.012987
1146	0	0.012987
1147	0	0.012987
1148	0	0.012987
1149	0	0.00865801
1150	0	0.00865801
1151	0	0.00865801
1152	0	0.012987
1153	0	0.021645
1154	0	0.021645
1155	0	0.0116959
1156	0	0.021645
1157	0	0.021645
1158	0	0.021645
1159	0	0.021645
1160	0	0.021645
1161	0	0.012987
1162	0	0.012987
1163	0	0.021645
1164	0	0.021645
1165	0	0.021645
1166	0	0.021645
1167	0	0.021645
1168	0	0.021645
1169	0	0.021645
1170	0	0.021645
1171	0	0.021645
1172	0	0.021645
1173	0	0.021645
1174	0	0.017316
1175	0	0.017316
1176	0	0.017316
1177	0	0.017316
1178	0	0.017316
1179	0	0.017316
1180	0	0.017316
1181	0	0.017316
1182	0	0.017316
1183	0	0.017316
1184	0	0.017316
1185	0	0.017316
1186	0	0.017316
1187	0	0.00865801
1188	0	0.00526316
1189	0	0.017316
1190	0	0.017316
1191	0	0.021645
1192	0	0.030303
1193	0	0.030303
1194	0	0.017316
1195	0	0.017316
1196	0	0.017316
1197	0	0.017316
1198	0	0.017316
1199	0	0.017316
1200	0	0.017316
1201	0	0.017316
1202	0	0.017316
1203	0	0.021645
1204	0	0.021645
1205	0	0.017316
1206	0	0.021645
1207	0	0.025974
1208	0	0.025974
1209	0	0.025974
1210	0	0.025974
1211	0	0.025974
1212	0	0.025974
1213	0	0.025974
1214	0	0.025974
1215	0	0.025974
1216	0	0.025974
1217	0	0.017316
1218	0	0.017316
1219	0	0.021645
1220	0	0.0157895
1221	0	0.0175439
1222	0	0.0175439
1223	0	0.0175439
1224	0	0.0175439
1225	0	0.017316
1226	0	0.025974
1227	0	0.021645
1228	0	0.021645
1229	0	0.021645
1230	0	0.021645
1231	0	0.021645
1232	0	0.021645
1233	0	0.021645
1234	0	0.021645
1235	0	0.021645
1236	0	0.021645
1237	0	0.021645
1238	0	0.025974
1239	0	0.025974
1240	0	0.025974
1241	0	0.025974
1242	0	0.025974
1243	0	0.025974
1244	0	0.025974
1245	0	0.025974
1246	0	0.025974
1247	0	0.021645
1248	0	0.021645
1249	0	0.021645
1250	0	0.021645
1251	0	0.021645
1252	0	0.017316
1253	0	0.017316
1254	0	0.017316
1255	0	0.017316
1256	0	0.017316
1257	0	0.017316
1258	0	0.017316
1259	0	0.017316
1260	0	0.017316
1261	0	0.00865801
1262	0	0.00865801
1263	0	0.00865801
1264	0	0.00865801
1265	0	0.00865801
1266	0	0.012987
1267	0	0.012987
1268	0	0.012987
1269	0	0.012987
1270	0	0.012987
1271	0	0.012987
1272	0	0.012987
1273	0	0.012987
1274	0	0.0105263
1275	0	0.00526316
1276	0	0.00584795
1277	0	0.00584795
1278	0	0.0116959
1279	0	0.0116959
1280	0	0.0116959
1281	0	0.0116959
1282	0	0.0116959
1283	0	0.0116959
1284	0	0.012987
1285	0	0.012987
1286	0	0.012987
1287	0	0.012987
1288	0	0.012987
1289	0	0.012987
1290	0	0.012987
1291	0	0.012987
1292	0	0.012987
1293	0	0.012987
1294	0	0.012987
1295	0	0.012987
1296	0	0.012987
1297	0	0.0142857
1298	0	0.012987
1299	0	0.021645
1300	0	0.021645
1301	0	0.021645
1302	0	0.021645
1303	0	0.021645
1304	0	0.021645
1305	0	0.021645
1306	0	0.021645
1307	0	0.021645
1308	0	0.021645
1309	0	0.021645
1310	0	0.021645
1311	0	0.0210526
1312	0	0.00735294
1313	0	0.0210526
1314	0	0.0210526
1315	0	0.0210526
1316	0	0.0210526
1317	0	0.0210526
1318	0	0.0210526
1319	0	0.0210526
1320	0	0.0210526
1321	0	0.0105263
1322	0	0.00653595
1323	0	0.00653595
1324	0	0.00653595
1325	0	0.00526316
1326	0	0.0105263
1327	0	0.0210526
1328	0	0.0210526
1329	0	0.0210526
1330	0	0.0210526
1331	0	0.0210526
1332	0	0.0210526
1333	0	0.0210526
1334	0	0.0210526
1335	0	0.0210526
1336	0	0.0210526
1337	0	0.0210526
1338	0	0.0210526
1339	0	0.0210526
1340	0	0.0210526
1341	0	0.0210526
1342	0	0.0210526
1343	0	0.0210526
1344	0	0.0210526
1345	0	0.0116959
1346	0	0.0116959
1347	0	0.0116959
1348	0	0.0116959
1349	0	0.0116959
1350	0	0.0116959
1351	0	0.0116959
1352	0	0.00584795
1353	0	0.00584795
1354	0	0.00584795
1355	0	0.0116959
1356	0	0.0116959
1357	0	0.00653595
1358	0	0.00653595
1359	0	0.00653595
1360	0	0.00653595
1361	0	0.00653595
1362	0	0.00653595
1363	0	0.00653595
1364	0	0.00653595
1365	0	0.00653595
1366	0	0.00653595
1367	0	0.00653595
1368	0	0.00653595
1369	0	0.00653595
1370	0	0.00653595
1371	0	0.00653595
1372	0	0.00653595
1373	0	0.00653595
1374	0	0.00653595
1375	0	0.00653595
1376	0	0.00653595
1377	0	0.00653595
1378	0	0.0116959
1379	0	0.0116959
1380	0	0.0116959
1381	0	0.0105263
1382	0	0.0105263
1383	0	0.0105263
1384	0	0.0157895
1385	0	0.0157895
1386	0	0.0263158
1387	0	0.0263158
1388	0	0.0263158
1389	0	0.0210526
1390	0	0.0210526
1391	0	0.0210526
1392	0	0.0210526
1393	0	0.0210526
1394	0	0.0210526
1395	0	0.0210526
1396	0	0.0210526
1397	0	0.0210526
1398	0	0.0210526
1399	0	0.0210526
1400	0	0.0210526
1401	0	0.0210526
1402	0	0.0210526
1403	0	0.0190476
1404	0	0.0190476
1405	0	0.0190476
1406	0	0.0238095
1407	0	0.0238095
1408	0	0.0238095
1409	0	0.0238095
1410	0	0.0238095
1411	0	0.0238095
1412	0	0.0238095
1413	0	0.0238095
1414	0	0.0238095
1415	0	0.0238095
1416	0	0.0238095
1417	0	0.025974
1418	0	0.0237154
1419	0	0.0237154
1420	0	0.0237154
1421	0	0.0237154
1422	0	0.0237154
1423	0	0.0217391
1424	0	0.0166667
1425	0	0.0166667
1426	0	0.0166667
1427	0	0.0166667
1428	0	0.0166667
1429	0	0.0166667
1430	0	0.017094
1431	0	0.019943
1432	0	0.031339
1433	0	0.025641
1434	0	0.022792
1435	0	0.022792
1436	0	0.022792
1437	0	0.0246154
1438	0	0.0276923
1439	0	0.0276923
1440	0	0.0276923
1441	0	0.0276923
1442	0	0.0276923
1443	0	0.025641
1444	0	0.025641
1445	0	0.02849
1446	0	0.02849
1447	0	0.02849
1448	0	0.026455
1449	0	0.0185185
1450	0	0.0132275
1451	0	0.0132275
1452	0	0.015873
1453	0	0.015873
1454	0	0.0153846
1455	0	0.0123077
1456	0	0.0123077
1457	0	0.011396
1458	0	0.010582
1459	0	0.0172414
1460	0	0.0197044
1461	0	0.0197044
1462	0	0.0221675
1463	0	0.0221675
1464	0	0.0206897
1465	0	0.0282258
1466	0	0.0282258
1467	0	0.0265152
1468	0	0.0268908
1469	0	0.0268908
1470	0	0.0268908
1471	0	0.0269841
1472	0	0.0255255
1473	0	0.024024
1474	0	0.0227596
1475	0	0.0227596
1476	0	0.0355619
1477	0	0.0397436
1478	0	0.0650407
1479	0	0.0877378
1480	0	0.0994898
1481	0	0.10111
1482	0	0.118881
1483	0	0.12837
1484	0	0.123457
1485	0	0.181327
1486	0	0.339136
1487	0	0.351568
1488	0	0.368232
1489	0	0.369692
1490	0	0.18552
1491	0	0.18552
1492	0	0.176799
1493	0	0.178197
1494	0	0.435643
1495	0	0.444189
1496	0	0.461641
1497	0	0.500793
1498	0	0.613757
1499	0	0.613757
1500	0	0.675579
1501	0	0.692063
1502	0	0.7139
1503	0	0.768707
1504	0	0.781297
1505	0	0.799499
1506	0	0.843762
1507	0	0.977054
1508	0	0.980806
1509	0	0.984337
1510	0	0.0357143
1511	0	0.047619
1512	0	0.047619
1513	0	0.0666667
1514	0	0.0666667
1515	0	0
1516	0	0
1517	0	0
1518	0	0
1519	0	0
1520	0	0
1521	0	0
1522	0	0
1523	0	0
1524	0	0
1525	0	0
1526	0	0
1527	0	0
1528	0	0
1529	0	0
1530	0	0
1531	0	0
1532	0	0
1533	0	0
1534	0	0
1535	0	0
1536	0	0
1537	0	0
1538	0	0
1539	0	0
1540	0	0
1541	0	0
1542	0	0
1543	0	0
1544	0	0
1545	0	0
1546	0	0
1547	0	0
1548	0	0
1549	0	0
1550	0	0
1551	0	0
1552	0	0
1553	0	0
1554	0	0
1555	0	0
1556	0	0
1557	0	0
1558	0	0
1559	0	0
1560	0	0
1561	0	0
1562	0	0
1563	0	0
1564	0	0
1565	0	0
1566	0	0
1567	0	0
1568	0	0
1569	0	0
1570	0	0
1571	0	0
1572	0	0
1573	0	0
1574	0	0
1575	0	0
1576	0	0
1577	0	0
1578	0	0
1579	0	0
1580	0	0
1581	0	0
1582	0	0
1583	0	0
1584	0	0
1585	0	0
1586	0	0
1587	0	0
1588	0	0
1589	0	0
1590	0	0
1591	0	0
1592	0	0
1593	0	0
1594	0	0
1595	0	0
1596	0	0
1597	0	0
1598	0	0
1599	0	0
1600	0	0
1601	0	0
1602	0	0
1603	0	0
1604	0	0
1605	0	0
1606	0	0
1607	0	0
1608	0	0
1609	0	0
1610	0	0
1611	0	0
1612	0	0
1613	0	0
1614	0	0
1615	0	0
1616	0	0
1617	0	0
1618	0	0
1619	0	0
1620	0	0
1621	0	0
1622	0	0
1623	0	0
1624	0	0
1625	0	0
1626	0	0
1627	0	0
1628	0	0
1629	0	0
1630	0	0
1631	0	0
1632	0	0
1633	0	0
1634	0	0
1635	0	0
1636	0	0.988014
1637	0	0.988014
1638	0	0.988014
1639	0	0.988014
1640	0	0
1641	0	0
1642	0	0
1643	0	0.981184
1644	0	0
1645	0	0
1646	0	0
1647	0	0
1648	0	0
1649	0	0
1650	0	0
1651	0	0
1652	0	0
1653	0	0
1654	0	0
1655	0	0
1656	0	0
1657	0	0
1658	0	0
1659	0	0
1660	0	0
1661	0	0
1662	0	0
1663	0	0
1664	0	0
1665	0	0
1666	0	0
1667	0	0
1668	0	0
1669	0	0
1670	0	0
1671	0	0
1672	0	0
1673	0	0
1674	0	0
1675	0	0
1676	0	0
1677	0	0
1678	0	0
1679	0	0
1680	0	0
1681	0	0
1682	0	0
1683	0	0
1684	0	0
1685	0	0
1686	0	0
1687	0	0
1688	0	0
1689	0	0
1690	0	0
1691	0	0
1692	0	0
1693	0	0
1694	0	0
1695	0	0
1696	0	0
1697	0	0
1698	0	0
1699	0	0
1700	0	0
1701	0	0
1702	0	0
1703	0	0
1704	0	0
1705	0	0
1706	0	0
1707	0	0
1708	0	0
1709	0	0
1710	0	0
1711	0	0
1712	0	0
1713	0	0
1714	0	0
1715	0	0
1716	0	0
1717	0	0
1718	0	0
1719	0	0
1720	0	0
1721	0	0
1722	0	0
1723	0	0
1724	0	0
1725	0	0
1726	0	0
1727	0	0
1728	0	0.166667
1729	0	0.977879
1730	0	0.977879
1731	0	0.444444
1732	0	0.98975
1733	0	0.98975
1734	0	0
1735	0	0
1736	0	0
1737	0	0
1738	0	0
1739	0	0
1740	0	0
1741	0	0
1742	0	0
1743	0	0
1744	0	0
1745	0	0
1746	0	0
1747	0	0
1748	0	0
1749	0	0
1750	0	0
1751	0	0
1752	0	0
1753	0	0
1754	0	0
1755	0	0
1756	0	0
1757	0	0
1758	0	0
1759	0	0
1760	0	0
1761	0	0
1762	0	0
1763	0	0
1764	0	0
1765	0	0
1766	0	0
1767	0	0
1768	0	0
1769	0	0
1770	0	0
1771	0	0
1772	0	0
1773	0	0
1774	0	0
1775	0	0
1776	0	0
1777	0	0
1778	0	0
1779	0	0
1780	0	0
1781	0	0
1782	0	0
1783	0	0
1784	0	0
1785	0	0
1786	0	0
1787	0	0
1788	0	0
1789	0	0
1790	0	0
1791	0	0
1792	0	0
1793	0	0
1794	0	0
1795	0	0
1796	0	0
1797	0	0
1798	0	0
1799	0	0
1800	0	0
1801	0	0
1802	0	0
1803	0	0
1804	0	0
1805	0	0
1806	0	0
1807	0	0
1808	0	0
1809	0	0
1810	0	0
1811	0	0
1812	0	0
1813	0	0
1814	0	0
1815	0	0
1816	0	0
1817	0	0
1818	0	0
1819	0	0
1820	0	0
1821	0	0
1822	0	0
1823	0	0
1824	0	0
1825	0	0
1826	0	0
1827	0	0
1828	0	0
1829	0	0
1830	0	0
1831	0	0
1832	0	0
1833	0	0
1834	0	0
1835	0	0.994864
1836	0	0.996575
1837	0	0.996575
1838	0	0.996575
1839	0	0.996575
1840	0	0.996575
1841	0	0.996584
1842	0	0.996584
1843	0	0.996584
1844	0	0.996584
1845	0	0.996584
1846	0	0.996584
1847	0	0.996584
1848	0	1
1849	0	1
1850	0	1
1851	0	1
1852	0	1
1853	0	1
1854	0	1
1855	0	1
1856	0	1
1857	0	1
1858	0	1
1859	0	1
1860	0	1
1861	0	1
1862	0	0
1863	0	0
1864	0	0
1865	0	0
1866	0	0
1867	0	0
1868	0	0
1869	0	0
1870	0	0
1871	0	0
1872	0	0
1873	0	0
1874	0	0
1875	0	0
1876	0	0
1877	1	0
1878	0	0
1879	0	0
1880	0	0
1881	0	0
1882	0	0
1883	0	0
1884	0	0
1885	0	0
1886	0	0
1887	0	0
1888	0	0.998292
1889	0	0.998292
1890	0	1
1891	0	1
1892	0	1
1893	0	1
1894	0	0.993176
1895	0	0.899449
1896	0	0.442253
1897	0	0.396211
1898	0	1
1899	0	0.989535
1900	0	1
1901	1	1
1902	1	1
1903	1	1
1904	0	1
1905	1	1
1906	0	1
1907	0	0.996587
1908	1	1
1909	0	0.998291
1910	1	1
1911	1	1
1912	1	1
1913	1	1
1914	1	1
1915	1	1
1916	1	1
1917	1	1
1918	1	1
1919	0	1
1920	0	1
1921	0	1
1922	0	1
1923	0	1
1924	0	1
1925	0	1
1926	1	1
1927	1	1
1928	1	1
1929	1	1
1930	1	1
1931	1	1
1932	1	1
1933	0	1
1934	0	1
1935	0	1
1936	1	1
1937	1	1
1938	0	0.998292
1939	0	0.998292
1940	0	0.998292
1941	0	0.998292
1942	0	0.996586
1943	0	0
1944	0	0.986667
1945	0	0
1946	0	0
1947	0	0
1948	0	0.166667
1949	0	0.986667
1950	0	0.824974
1951	0	0.793651
1952	0	0.806482
1953	0	0.66274
1954	0	0.660209
1955	0	0.277855
1956	0	0.348178
1957	0	0.268542
1958	0	0.390613
1959	0	0.710498
1960	0	0.285714
1961	0	0.2
1962	0	0.466667
1963	0	0.534627
1964	0	0.929671
1965	0	0.993443
1966	0	0.505799
1967	0	0.505799
1968	0	0.996549
1969	0	0.994829
1970	0	0.994829
1971	0	0.99312
1972	0	0
1973	0	0.333333
1974	0	0.969255
1975	0	0.497666
1976	0	0.497663
1977	0	0.955067
1978	0	0.744869
1979	0	0.952841
1980	0	0.986322
1981	0	0.98463
1982	0	0.986299
1983	0	0.989695
1984	0	0.99827
1985	0	0.996544
1986	0	0.996544
1987	0	0.996544
1988	0	0.996544
1989	0	0.996556
1990	0	0.996556
1991	0	0.996559
1992	0	0.998277
1993	0	0.994847
1994	0	0.991434
1995	0	0.991434
1996	0	0.991433
1997	0	0.993143
1998	0	0.994886
1999	0	0.994886
2000	0	0.994886
2001	0	0.994882
2002	0	1
2003	0	0.996591
2004	0	0.998295
2005	0	0.998295
2006	0	0.998295
2007	0	0.998295
2008	0	0
2009	0	0.921028
2010	0	0.988064
2011	0	0.991036
2012	0	0.902013
2013	0	0.988637
2014	0	0.988632
2015	0	0.166667
2016	0	0
2017	0	0
2018	0	0
2019	0	0
2020	0	0.493859
2021	0	0.479013
2022	0	0.777778
2023	0	0.333333
2024	1	0
2025	1	0
2026	1	0
2027	1	0
2028	1	0
2029	1	0
2030	1	0
2031	1	0
2032	0	0
2033	0	0
2034	0	0
2035	0	0
2036	0	0
2037	0	0
2038	0	0
2039	0	0
2040	0	0.760444
2041	0	0.231648
2042	0	0.442857
2043	0	0.427536
2044	0	0.352829
2045	0	0.107143
2046	0	0.114286
2047	0	0.327652
2048	0	0.386324
2049	0	0.534436
2050	0	0.192308
2051	0	0.558333
2052	0	0.45098
2053	0	0.332708
2054	0	0.650996
2055	0	0.998299
2056	0	0.998299
2057	0	0.998299
2058	0	0
2059	1	0
2060	1	0
2061	1	0
2062	1	0
2063	1	0
2064	1	0
2065	1	0
2066	1	0
2067	1	0
2068	1	0
2069	1	0
2070	1	0
2071	1	0
2072	1	0
2073	1	0
2074	1	0
2075	1	0
2076	1	0
2077	1	0
2078	0	0.9966
2079	0	0.998299
2080	1	1
2081	1	1
2082	0	0.998298
2083	0	0.998298
2084	0	0.998298
2085	1	1
2086	1	1
2087	0	0.998298
2088	0	0.998298
2089	0	0.998298
2090	0	1
2091	0	0.988136
2092	0	0.988121
2093	0	0.994898
2094	0	0.931034
2095	0	0.916667
2096	0	0.916667
2097	0	0.710145
2098	0	0.699275
2099	0	0.904762
2100	0	0.795322
2101	0	0.925792
2102	0	0.359684
2103	0	0.758058
2104	0	0.542038
2105	0	0.363432
2106	0	0.386537
2107	0	0.583333
2108	0	0.75
2109	0	0.75
2110	0	0.92569
2111	0	0.75
2112	0	0.458333
2113	0	0.681429
2114	0	0.976378
2115	0	0.974716
2116	0	0.994894
2117	1	0
2118	1	0
2119	1	0
2120	1	0
2121	1	0
2122	1	0
2123	1	0
2124	1	0
2125	1	0
2126	1	0
2127	1	0
2128	0	0
2129	0	0
2130	0	0
2131	0	0.994898
2132	0	0.994894
2133	0	0.994894
2134	0	0.994894
2135	0	0.994894
2136	0	0.994894
2137	0	0.964286
2138	0	0.978501
2139	0	0.978501
2140	0	0.977785
2141	0	0
2142	0	1
2143	0	0
2144	0	0.454788
2145	0	0.49878
2146	0	0.333333
2147	0	0.333333
2148	0	0.333333
2149	0	0.5
2150	0	1
2151	0	1
2152	0	1
2153	0	1
2154	0	0.501866
2155	0	0.989783
2156	0	0.991476
2157	1	1
2158	1	1
2159	1	1
2160	1	1
2161	1	1
2162	1	1
2163	1	1
2164	0	1
2165	0	0.998292
2166	0	0.91527
2167	0	0
2168	0	0
2169	0	0
2170	0	0
2171	0	0
2172	0	0
2173	0	0
2174	0	0
2175	0	0
2176	0	0
2177	0	0
2178	0	0
2179	0	0
2180	0	0
2181	0	0.713846
2182	0	0.913043
2183	0	0.939223
2184	0	0.939496
2185	0	0.939496
2186	0	0.706667
2187	0	1
2188	0	0.333333
2189	0	0.333333
2190	0	0.333333
2191	0	0.333333
2192	0	0.333333
2193	0	0.333333
2194	0	0.333333
2195	0	0.962149
2196	0	0
2197	0	0
2198	0	0
2199	0	0
2200	0	0
2201	0	0
2202	0	1
2203	0	1
2204	0	1
2205	0	1
2206	0	1
2207	0	1
2208	0	1
2209	0	1
2210	0	0.946261
2211	0	1
2212	0	1
2213	0	1
2214	0	1
2215	0	1
2216	0	0.975925
2217	0	0.982711
2218	0	0.731579
2219	0	0.998289
2220	0	0.998289
2221	0	0.998289
2222	0	0.996562
2223	0	0.944835
2224	0	0.996586
2225	0	0.996586
2226	0	0.994885
2227	0	0.996588
2228	0	0.998292
2229	0	0.996588
2230	0	0.998294
2231	0	0.998294
2232	0	0.998294
2233	0	0.998295
2234	0	0.998295
2235	0	0.998295
2236	1	0
2237	1	0
2238	0	1
2239	0	1
2240	0	1
2241	0	0.998291
2242	0	0.998291
2243	0	0.998291
2244	0	0.998291
2245	0	0.998291
2246	0	0.998291
2247	0	0.998291
2248	0	0.998292
2249	0	0.998292
2250	0	0.998292
2251	0	0.998292
2252	0	0.998291
2253	0	0.998289
2254	0	0.998289
2255	0	0.998289
2256	0	0.998289
2257	0	0.998289
2258	0	0.998289
2259	0	0.99317
2260	0	0.97456
2261	0	0.333333
2262	0	0.333333
2263	0	0.986383
2264	0	0.984687
2265	0	0.986372
2266	0	1
2267	0	0.998289
2268	0	0.998289
2269	0	0.998289
2270	0	0.998289
2271	0	1
2272	0	0.996541
2273	0	0.996541
2274	0	1
2275	0	0.984505
2276	0	0.9862
2277	0	0.962773
2278	0	0.962773
2279	0	0.962773
2280	0	0.937996
2281	0	0.93502
2282	0	0.929088
2283	0	0.454545
2284	0	0.47619
2285	0	0.466667
2286	0	0.0666667
2287	0	0.0666667
2288	0	0.2
2289	0	0.941195
2290	0	0.47197
2291	0	0.421678
2292	0	0.65203
2293	0	0.742675
2294	0	0.75583
2295	0	0.611108
2296	0	0.334435
2297	0	0.312759
2298	0	0.19883
2299	0	0.217949
2300	0	0.290909
2301	0	0.525622
2302	0	0.730465
2303	0	0.495518
2304	0	0.384331
2305	0	0.773773
2306	0	0.277778
2307	0	0.850559
2308	0	0.333333
2309	0	0.545455
2310	0	0.818182
2311	0	0.818182
2312	0	0.49703
2313	0	0.998291
2314	0	1
2315	0	1
2316	0	1
2317	0	1
2318	0	1
2319	1	1
2320	0	0.998296
2321	0	0.998296
2322	0	0.998296
2323	0	0.998296
2324	0	1
2325	0	0.996593
2326	0	0.994891
2327	0	0.994891
2328	0	0.996584
2329	0	0.616825
2330	0	0
2331	0	1
2332	0	0.878611
2333	0	0.835243
2334	0	0.996552
2335	0	0.994886
2336	0	0.994886
2337	0	0.994886
2338	0	0.994886
2339	0	0.994886
2340	0	1
2341	0	1
2342	0	1
2343	0	1
2344	0	1
2345	0	1
2346	0	1
2347	0	0.994886
2348	0	0.994886
2349	0	0.994886
2350	0	1
2351	0	1
2352	0	1
2353	0	1
2354	0	1
2355	0	1
2356	0	1
2357	0	0.333333
2358	0	0.266667
2359	0	0.266667
2360	0	0.266667
2361	0	0.2
2362	0	0.2
2363	0	0.2
2364	0	0.2
2365	0	0.2
2366	0	0.2
2367	0	0.2
2368	0	0.2
2369	0	0.0666667
2370	0	0.984698
2371	0	0.933333
2372	0	0.9
2373	0	0.666667
2374	0	0.474359
2375	0	0.406593
2376	0	0.622222
2377	0	0.266667
2378	0	0.266667
2379	0	0.266667
2380	0	0.333333
2381	0	0.194444
2382	0	0.1
2383	0	0.1
2384	0	0
2385	0	0
2386	0	0
2387	0	0
2388	0	0
2389	0	0
2390	0	0
2391	0	0
2392	0	0
2393	0	0
2394	0	0
2395	0	0.930991
2396	0	0.929333
2397	0	0.3
2398	0	0.3
2399	0	0.3
2400	0	0.3
2401	0	0.3
2402	0	0.3
2403	0	0.3
2404	0	0.2
2405	0	0.0666667
2406	0	0.0357143
2407	0	0.0222222
2408	0	0.0545455
2409	0	0.0454545
2410	0	0.94157
2411	0	0.941535
2412	0	0.12381
2413	0	0.128205
2414	0	0.128205
2415	0	0.155556
2416	0	0.155556
2417	0	0.0888889
2418	0	0.0888889
2419	0	0.0666667
2420	0	0.0666667
2421	0	0.0909091
2422	0	0.0909091
2423	0	0.111111
2424	0	0.111111
2425	0	0.111111
2426	0	0.111111
2427	0	0.519478
2428	0	0
2429	0	0
2430	0	0
2431	0	0
2432	0	0
2433	0	0
2434	0	0
2435	0	0
2436	0	0
2437	0	0
2438	0	0
2439	0	0
2440	0	0
2441	0	0
2442	0	0
2443	0	1
2444	0	1
2445	0	1
2446	0	1
2447	0	1
2448	0	1
2449	0	1
2450	0	1
2451	0	0.166667
2452	0	0.1
2453	0	0.1
2454	0	0.266667
2455	0	0.178571
2456	0	0.25
2457	0	0.194444
2458	0	0.294872
2459	0	0.621528
2460	0	0.824901
2461	0	0.931793
2462	0	0.365517
2463	0	0.391626
2464	0	0.57265
2465	0	1
2466	0	0.998292
2467	0	0.998292
2468	0	0.998292
2469	0	0.998294
2470	0	1
2471	0	1
2472	0	1
2473	0	1
2474	0	1
2475	0	0.998291
2476	0	0.998291
2477	0	0.998291
2478	0	0.998291
2479	0	0.998289
2480	0	1
2481	0	1
2482	0	1
2483	0	1
2484	0	0.998288
2485	1	0
2486	0	0
2487	0	0.998291
2488	0	0.998291
2489	0	0.998289
2490	0	0.998289
2491	0	0.998288
2492	0	0.998288
2493	0	0
2494	0	0.998286
2495	0	1
2496	0	1
2497	0	1
2498	0	1
2499	0	1
2500	0	1
2501	1	1
2502	0	0.998288
2503	0	0.998288
2504	0	0.998288
2505	0	0.998288
2506	0	0.998288
2507	0	0.50995
2508	0	0.50995
2509	0	0.888889
2510	0	0.998283
2511	0	0.993154
2512	0	0.994859
2513	0	0.994859
2514	0	0.994859
2515	0	0.994859
2516	0	0.993148
2517	0	0
2518	0	0.987644
2519	0	0.6
2520	0	0.6
2521	0	0.9276
2522	0	0.922664
2523	0	0.166667
2524	0	0.622382
2525	0	0.612689
2526	0	0
2527	0	0.606307
2528	0	0.516503
2529	0	0.2
2530	0	0.142857
2531	0	0.797449
2532	0	0.805309
2533	0	0.896995
2534	0	0.0666667
2535	0	0
2536	0	0
2537	0	0.166667
2538	0	0
2539	0	0
2540	0	0.333333
2541	0	0.333333
2542	0	0.333333
2543	0	1
2544	0	1
2545	0	1
2546	0	1
2547	0	0.991402
2548	0	0.993118
2549	0	0.993118
2550	0	0.993124
2551	0	0.993124
2552	0	0.993124
2553	0	0.994836
2554	0	0.994836
2555	0	0.994836
2556	0	0.996553
2557	0	0.987985
2558	0	1
2559	0	0.97948
2560	0	0.979468
2561	0	0.777778
2562	0	0.777778
2563	0	0.777778
2564	0	1
2565	0	1
2566	0	0.977783
2567	0	0.977783
2568	0	0.977783
2569	0	0.976102
2570	0	1
2571	0	1
2572	0	1
2573	0	1
2574	0	1
2575	0	1
2576	0	1
2577	0	1
2578	0	1
2579	0	0.777778
2580	0	0.777778
2581	0	0.527273
2582	0	0.938564
2583	0	1
2584	0	0.2
2585	0	0.244444
2586	0	0.597754
2587	0	0.751998
2588	0	0
2589	0	0
2590	0	0
2591	0	0
2592	0	0
2593	0	0
2594	0	0
2595	0	0
2596	0	0
2597	0	0
2598	0	0
2599	0	0
2600	0	0
2601	0	0
2602	0	0
2603	0	0.0666667
2604	0	0.0714286
2605	0	0.0714286
2606	0	0.0757576
2607	0	0.0757576
2608	0	0.0641026
2609	0	0.0666667
2610	0	0.047619
2611	0	0.875206
2612	0	0.242105
2613	0	0.121622
2614	0	0.103659
2615	0	0.0858844
2616	0	0.0780142
2617	0	0.0744467
2618	0	0.0692153
2619	0	0.0619929
2620	0	0.169113
2621	0	0.317049
2622	0	0.30901
2623	0	0.262338
2624	0	0.194004
2625	0	0.146752
2626	0	0.126921
2627	0	0.15039
2628	0	0
2629	0	0
2630	0	0
2631	0	0
2632	0	0
2633	0	0
2634	0	0
2635	0	0
2636	0	0
2637	0	0
2638	0	0
2639	0	0
2640	0	0
2641	0	0
2642	0	0
2643	0	0
2644	0	0
2645	0	0
2646	0	0
2647	0	0
2648	0	0
2649	0	0
2650	0	0
2651	0	0
2652	0	0
2653	0	0
2654	0	0
2655	0	0
2656	0	0
2657	0	0
2658	0	0
2659	0	0.216584
2660	0	0.1
2661	0	0.1
2662	0	0.214286
2663	0	0.214286
2664	0	0.214286
2665	0	0.214286
2666	0	0.155556
2667	0	0.155556
2668	0	0.179487
2669	0	0.252747
2670	0	0.457143
2671	0	0.628571
2672	0	0.628571
2673	0	0.36
2674	0	0.353276
2675	0	0.662313
2676	0	0.333333
2677	0	0.326811
2678	0	0.430468
2679	0	0.425481
2680	0	0.481579
2681	0	0.76706
2682	0	0.768645
2683	0	0.240929
2684	0	0.300483
2685	0	0.206452
2686	0	0.245014
2687	0	0.264615
2688	0	0.286667
2689	0	0.286667
2690	0	0.311594
2691	0	0.33
2692	0	0.846913
2693	0	0.355556
2694	0	0.355556
2695	0	0.355556
2696	0	0.439394
2697	0	0.560606
2698	0	0.589744
2699	0	0.589744
2700	0	0.615385
2701	0	0.864525
2702	0	0.87735
2703	0	0.301471
2704	0	0.178571
2705	0	0.666667
2706	0	0.666667
2707	0	0.666667
2708	0	0.666667
2709	0	0.666667
2710	0	0.666667
2711	0	0.666667
2712	0	0.666667
2713	0	1
2714	0	1
2715	0	1
2716	0	1
2717	0	1
2718	0	1
2719	0	1
2720	0	1
2721	0	1
2722	0	1
2723	0	1
2724	0	1
2725	0	0.6
2726	0	0.6
2727	0	0.6
2728	0	0.6
2729	0	0.6
2730	0	0.5
2731	0	0.5
2732	0	0.5
2733	0	0.5
2734	0	0.5
2735	0	0.5
2736	0	0.5
2737	0	0.5
2738	0	1
2739	0	1
2740	0	1
2741	0	1
2742	0	1
2743	0	1
2744	0	1
2745	0	1
2746	0	1
2747	0	1
2748	0	1
2749	0	1
2750	0	1
2751	0	1
2752	0	1
2753	0	1
2754	0	1
2755	0	1
2756	0	1
2757	0	1
2758	0	1
2759	0	1
2760	0	1
2761	0	1
2762	0	1
2763	0	1
2764	0	1
2765	0	1
2766	0	1
2767	0	1
2768	0	1
2769	0	1
2770	0	1
2771	0	1
2772	0	1
2773	0	1
2774	0	1
2775	0	1
2776	0	1
2777	0	1
2778	0	1
2779	0	1
2780	0	1
2781	0	1
2782	0	1
2783	0	1
2784	0	1
2785	0	1
2786	0	1
2787	0	1
2788	0	1
2789	0	1
2790	0	1
2791	0	1
2792	0	1
2793	0	1
2794	0	1
2795	0	1
2796	0	1
2797	0	1
2798	0	1
2799	0	1
2800	0	1
2801	0	1
2802	0	1
2803	0	1
2804	0	1
2805	0	1
2806	0	1
2807	0	1
2808	0	1
2809	0	1
2810	0	1
2811	0	1
2812	0	1
2813	0	1
2814	0	1
2815	0	1
2816	0	1
2817	0	1
2818	0	1
2819	0	1
2820	0	1
2821	0	1
2822	0	1
2823	0	1
2824	0	1
2825	0	1
2826	0	1
2827	0	1
2828	0	1
2829	0	1
2830	0	1
2831	0	1
2832	0	1
2833	0	1
2834	0	1
2835	0	1
2836	0	1
2837	0	1
2838	0	1
2839	0	1
2840	0	1
2841	0	1
2842	0	1
2843	0	1
2844	0	1
2845	0	1
2846	0	1
2847	0	1
2848	0	1
2849	0	1
2850	0	1
2851	0	1
2852	0	1
2853	0	1
2854	0	1
2855	0	1
2856	0	1
2857	0	1
2858	0	1
2859	0	1
2860	0	1
2861	0	1
2862	0	1
2863	0	1
2864	0	1
2865	0	1
2866	0	1
2867	0	1
2868	0	1
2869	0	1
2870	0	1
2871	0	1
2872	0	1
2873	0	1
2874	0	1
2875	0	1
2876	0	1
2877	0	1
2878	0	1
2879	0	1
2880	0	1
2881	0	0.882667
2882	0	0.884274
2883	0	0
2884	0	0
2885	0	0
2886	0	0
2887	0	0
2888	0	0
2889	0	0
2890	0	0
2891	0	0
2892	0	0
2893	0	0
2894	0	0
2895	0	0
2896	0	0
2897	0	0
2898	0	0
2899	0	0.974414
2900	0	0.972719
2901	0	0.977803
2902	0	0.964506
2903	0	0
2904	0	0
2905	0	0
2906	0	0
2907	0	0
2908	0	0
2909	0	0
2910	0	0
2911	0	0
2912	0	0
2913	0	0
2914	0	0
2915	0	0
2916	0	0
2917	0	0
2918	0	0
2919	0	0
2920	0	0
2921	0	0
2922	0	0
2923	0	0
2924	0	0
2925	0	0
2926	0	0
2927	0	0
2928	0	0
2929	0	0
2930	0	0
2931	0	0
2932	0	0
2933	1	0
2934	1	0
2935	0	0
2936	0	0
2937	0	0
2938	0	0
2939	0	0
2940	0	0
2941	0	0
2942	0	0
2943	0	0
2944	0	0
2945	0	0
2946	0	0
2947	0	0
2948	0	0
2949	0	0
2950	1	0
2951	1	0
2952	1	0
2953	1	0
2954	1	0
2955	1	0
2956	1	0
2957	1	0
2958	0	0
2959	0	0
2960	0	0
2961	0	0
2962	0	0
2963	0	0
2964	0	0
2965	0	0
2966	0	0
2967	0	0
2968	0	0
2969	0	0
2970	0	0
2971	0	0
2972	0	0
2973	0	0
2974	0	0
2975	0	0
2976	0	0
2977	0	0
2978	0	0
2979	0	0
2980	0	0
2981	0	0
2982	0	0
2983	0	0
2984	0	0
2985	0	0
2986	0	0
2987	0	0
2988	0	0
2989	0	0
2990	0	0
2991	0	0
2992	0	0
2993	0	0
2994	0	0
2995	0	0
2996	0	0
2997	0	0
2998	0	0
2999	0	0
3000	0	0
3001	0	0
3002	0	0
3003	0	0
3004	0	0
3005	0	0
3006	0	0
3007	0	0
3008	0	0
3009	0	0
3010	0	0
3011	0	0
3012	0	0
3013	0	0
3014	0	0
3015	0	0
3016	0	0
3017	0	0
3018	0	0
3019	0	0
3020	0	0
3021	0	0
3022	0	0
3023	0	0
3024	0	0
3025	0	0
3026	0	0
3027	0	0
3028	0	0
3029	0	0
3030	0	0
3031	0	0
3032	0	0
3033	0	0
3034	0	0
3035	0	0
3036	0	0
3037	0	0
3038	0	0
3039	0	0
3040	0	0
3041	0	0
3042	0	0
3043	0	0
3044	0	0
3045	0	0
3046	0	0
3047	0	0
3048	0	0
3049	0	0
3050	0	0
3051	0	0
3052	0	0
3053	0	0
3054	0	0
3055	0	0
3056	0	0
3057	0	0
3058	0	0
3059	0	0
3060	0	0
3061	0	0
3062	0	0
3063	0	0
3064	0	0
3065	0	0
3066	0	0
3067	0	0
3068	0	0
3069	0	0
3070	0	0.5
3071	0	0.5
3072	0	0.5
3073	0	0.5
3074	0	0.5
3075	0	0.5
3076	0	0.5
3077	0	0.5
3078	0	0.5
3079	0	0.5
3080	0	0.5
3081	0	0.5
3082	0	0.5
3083	0	0.5
3084	0	0.5
3085	0	0.5
3086	0	0.5
3087	0	0.5
3088	0	0.5
3089	0	0.5
3090	0	0.5
3091	0	0.5
3092	0	0.5
3093	0	0.5
3094	0	0.5
3095	0	0.5
3096	0	0.5
3097	0	0.5
3098	0	0.5
3099	0	0.5
3100	0	0.5
3101	0	0.5
3102	0	0.5
3103	0	0.5
3104	0	0.5
3105	0	0.5
3106	0	0.5
3107	0	0.5
3108	0	0.5
3109	0	0.5
3110	0	0.5
3111	0	0.5
3112	0	0.5
3113	0	0.5
3114	0	0.5
3115	0	0.5
3116	0	0.5
3117	0	0.5
3118	0	0.5
3119	0	0.5
3120	0	0.5
3121	0	0.5
3122	0	0.5
3123	0	0.5
3124	0	0.5
3125	0	0.5
3126	0	0.5
3127	0	0.5
3128	0	0.5
3129	0	0.5
3130	0	0.5
3131	0	0.5
3132	0	0.5
3133	0	0.5
3134	0	0.5
3135	0	0.5
3136	0	0.5
3137	0	0.5
3138	0	0.5
3139	0	0.5
3140	0	0.5
3141	0	0.5
3142	0	0.5
3143	0	0.5
3144	0	0.5
3145	0	0.5
3146	0	0.5
3147	0	0.5
3148	0	0.5
3149	0	0.5
3150	0	0.5
3151	0	0.5
3152	0	0.5
3153	0	0.5
3154	0	0.5
3155	0	0.5
3156	0	0.5
3157	0	0.5
3158	0	0.5
3159	0	0.5
3160	0	0.5
3161	0	0.5
3162	0	0.5
3163	0	0.5
3164	0	0.5
3165	0	0.5
3166	0	0.5
3167	0	0.5
3168	0	0.5
3169	0	0.5
3170	0	0.5
3171	0	0.5
3172	0	0.5
3173	0	0.5
3174	0	0.5
3175	0	0.5
3176	0	0.5
3177	0	0.5
3178	0	0.5
3179	0	0.5
3180	0	0.5
3181	0	0.5
3182	0	0.5
3183	0	0.5
3184	0	0.5
3185	0	0.5
3186	0	0.5
3187	0	0.5
3188	0	0.5
3189	0	0.5
3190	0	0.5
3191	0	0.5
3192	0	0.5
3193	0	0.5
3194	0	0.5
3195	0	0.5
3196	0	0.5
3197	0	0.5
3198	0	0.5
3199	0	0.5
3200	0	0.5
3201	0	0.5
3202	0	0.5
3203	0	0.5
3204	0	0.5
3205	0	0.5
3206	0	0.5
3207	0	0.5
3208	0	0.5
3209	0	0.5
3210	0	0.5
3211	0	0.5
3212	0	0.5
3213	0	0.5
3214	0	0.5
3215	0	0.5
3216	0	0.5
3217	0	0.5
3218	0	0.5
3219	0	0.5
3220	0	0.5
3221	0	1
3222	0	1
3223	0	1
3224	0	1
3225	0	1
3226	0	1
3227	0	1
3228	0	1
3229	0	1
3230	0	0.5
3231	0	0.5
3232	0	0.5
3233	0	0.5
3234	0	0.5
3235	0	0.5
3236	0	0.5
3237	0	0.5
3238	0	0.5
3239	0	0.5
3240	0	0.5
3241	0	0.5
3242	0	0.5
3243	0	0.5
3244	0	0.5
3245	0	0.5
3246	0	0.5
3247	0	0.5
3248	0	0.5
3249	0	0.5
3250	0	0.5
3251	0	0.5
3252	0	0.5
3253	0	0.5
3254	0	0.5
3255	0	0.5
3256	0	0.5
3257	0	0.5
3258	0	0.5
3259	0	0.5
3260	0	0.5
3261	0	0.5
3262	0	0.5
3263	0	0.5
3264	0	0.5
3265	0	0.5
3266	0	0.5
3267	0	0.5
3268	0	0.5
3269	0	0.5
3270	0	0.5
3271	0	0.5
3272	0	0.5
3273	0	0.5
3274	0	0.5
3275	0	0.5
3276	0	0.5
3277	0	0.5
3278	0	0.5
3279	0	0.5
3280	0	0.5
3281	0	0.5
3282	0	0.5
3283	0	0.5
3284	0	0.5
3285	0	0.5
3286	0	0.5
3287	0	0.5
3288	0	0.5
3289	0	0.5
3290	0	0.5
3291	0	0.5
3292	0	0.5
3293	0	0.5
3294	0	0.5
3295	0	0.5
3296	0	0.5
3297	0	0.5
3298	0	0.5
3299	0	0.5
3300	0	0.5
3301	0	0.5
3302	0	0.5
3303	0	0.5
3304	0	0.5
3305	0	0.5
3306	0	0.5
3307	0	0.5
3308	0	0.5
3309	0	0.5
3310	0	0.5
3311	0	0.5
3312	0	0.5
3313	0	0.5
3314	0	0.5
3315	0	0.5
3316	0	0.5
3317	0	0.5
3318	0	0.5
3319	0	0.5
3320	0	0.5
3321	0	0.5
3322	0	0.5
3323	0	0.5
3324	0	0.5
3325	0	0.5
3326	0	0.5
3327	0	0.5
3328	0	0.5
3329	0	0.3
3330	0	0.3
3331	0	0.3
3332	0	0.3
3333	0	0.3
3334	0	0.3
3335	0	0.3
3336	0	0.3
3337	0	0.3
3338	0	0.3
3339	0	0.3
3340	0	0.3
3341	0	0.3
3342	0	0.3
3343	0	0.2
3344	0	0.2
3345	0	0.2
3346	0	0.2
3347	0	0.2
3348	0	0.977784
3349	0	0.977784
3350	0	0.977784
3351	0	0
3352	0	0
3353	0	0
3354	0	0
3355	0	0
3356	0	0
3357	0	0
3358	0	0
3359	0	0
3360	0	0
3361	0	0
3362	0	0
3363	0	0
3364	0	0
3365	0	0
3366	0	0
3367	0	0
3368	0	0
3369	0	0
3370	0	0
3371	0	0
3372	0	0
3373	0	0
3374	0	0
3375	0	0
3376	0	0
3377	0	0
3378	0	0
3379	0	0
3380	0	0
3381	0	0
3382	0	0
3383	0	0
3384	0	0
3385	0	0
3386	0	0
3387	0	0
3388	0	0
3389	0	0.1
3390	0	0.1
3391	0	0.1
3392	0	0.1
3393	0	0.1
3394	0	0.1
3395	0	0.1
3396	0	0.1
3397	0	0.1
3398	0	0.1
3399	0	0.1
3400	0	0.1
3401	0	0.1
3402	0	0.1
3403	0	0.1
3404	0	0.1
3405	0	0.1
3406	0	0.1
3407	0	0.1
3408	0	0.1
3409	0	0.1
3410	0	0.1
3411	0	0.1
3412	0	0.1
3413	0	0.1
3414	0	0.1
3415	0	0.1
3416	0	0.1
3417	0	0.1
3418	0	0.1
3419	0	0.1
3420	0	0.1
3421	0	0.1
3422	0	0.1
3423	0	0.1
3424	0	0.1
3425	0	0.0666667
3426	0	0.0666667
3427	0	0.0666667
3428	0	0.0666667
3429	0	0.0666667
3430	0	0.0714286
3431	0	0.0714286
3432	0	0.963301
3433	0	0.166667
3434	0	0.166667
3435	0	0.166667
3436	0	0.166667
3437	0	0.166667
3438	0	0.166667
3439	0	0.166667
3440	0	0.166667
3441	0	0.166667
3442	0	0.166667
3443	0	0.166667
3444	0	0.166667
3445	0	0.166667
3446	0	0.166667
3447	0	0.166667
3448	0	0
3449	0	0
3450	0	0
3451	0	0
3452	0	0
3453	0	0
3454	0	0
3455	0	0
3456	0	0
3457	0	0
3458	0	0
3459	0	0.908511
3460	0	0.866911
3461	0	0.862274
3462	0	0.5
3463	0	0.5
3464	0	0.5
3465	0	0.5
3466	0	0.5
3467	0	0.5
3468	0	0.5
3469	0	0.5
3470	0	0.5
3471	0	0.5
3472	0	0.5
3473	0	0.5
3474	0	0.5
3475	0	0.5
3476	0	0.5
3477	0	0.5
3478	0	0.5
3479	0	0.5
3480	0	0.5
3481	0	0.5
3482	0	0.5
3483	0	0.5
3484	0	0.5
3485	0	0.5
3486	0	0.5
3487	0	0.5
3488	0	0.5
3489	0	0.5
3490	0	0.5
3491	0	0.5
3492	0	0.5
3493	0	0.5
3494	0	0.5
3495	0	0.5
3496	0	0.5
3497	0	0.5
3498	0	0.5
3499	0	0.5
3500	0	0.5
3501	0	0.5
3502	0	0.5
3503	0	0.5
3504	0	0.5
3505	0	0.5
3506	0	0.5
3507	0	0.5
3508	0	0.5
3509	0	0.5
3510	0	0.5
3511	0	0.5
3512	0	0.5
3513	0	0.5
3514	0	0.5
3515	0	0.3
3516	0	0.3
3517	0	0.3
3518	0	0.3
3519	0	0.3
3520	0	0.3
3521	0	0.3
3522	0	0.3
3523	0	0.3
3524	0	0.3
3525	0	0.3
3526	0	0.3
3527	0	0.3
3528	0	0.3
3529	0	0.2
3530	0	0.860454
3531	0	0.860225
3532	0	0.108225
3533	0	0.0904762
3534	0	0.0684211
3535	0	0.0684211
3536	0	0.0684211
3537	0	0.0684211
3538	0	0.0684211
3539	0	0.0684211
3540	0	0.0760234
3541	0	0.0760234
3542	0	0.0849673
3543	0	0.0849673
3544	0	0.0955882
3545	0	0.05
3546	0	0.05
3547	0	0.0333333
3548	0	0.047619
3549	0	0.047619
3550	0	0.047619
3551	0	0.047619
3552	0	0.047619
3553	0	0.043956
3554	0	0.043956
3555	0	0.043956
3556	0	0.0512821
3557	0	0.0606061
3558	0	0.0606061
3559	0	0.0606061
3560	0	0.0606061
3561	0	0.0606061
3562	0	0.0606061
3563	0	0.0606061
3564	0	0.0606061
3565	0	0.0606061
3566	0	0.0606061
3567	0	0.0454545
3568	0	0.0545455
3569	0	0.0545455
3570	0	0.0545455
3571	0	0.0545455
3572	0	0.0666667
3573	0	0.0833333
3574	0	0.0833333
3575	0	0.0833333
3576	0	0.0833333
3577	0	0.0833333
3578	0	0.0833333
3579	0	0.0833333
3580	0	0.0833333
3581	0	0.0833333
3582	0	0.0833333
3583	0	0.0833333
3584	0	0.0833333
3585	0	0.0833333
3586	0	0.0833333
3587	0	0.0833333
3588	0	0.0833333
3589	0	0.0833333
3590	0	0.0833333
3591	0	0.0833333
3592	0	0.0833333
3593	0	0.0833333
3594	0	0.0833333
3595	0	0.0833333
3596	0	0.0833333
3597	0	0.0833333
3598	0	0.0833333
3599	0	0.0833333
3600	0	0.0833333
3601	0	0.0833333
3602	0	0.0833333
3603	0	0.0833333
3604	0	0.0833333
3605	0	0.0833333
3606	0	0.0833333
3607	0	0.0833333
3608	0	0.0833333
3609	0	0.0833333
3610	0	0.0833333
3611	0	0.0833333
3612	0	0.0833333
3613	0	0.0833333
3614	0	0.0833333
3615	0	0.0833333
3616	0	0.0833333
3617	0	0.0833333
3618	0	0.0833333
3619	0	0.0833333
3620	0	0.0833333
3621	0	0.0833333
3622	0	0.0833333
3623	0	0.107143
3624	0	0.107143
3625	0	0.107143
3626	0	0.107143
3627	0	0.107143
3628	0	0.107143
3629	0	0.107143
3630	0	0.107143
3631	0	0.107143
3632	0	0.107143
3633	0	0.107143
3634	0	0.107143
3635	0	0.107143
3636	0	0.107143
3637	0	0.107143
3638	0	0.107143
3639	0	0.107143
3640	0	0.107143
3641	0	0.107143
3642	0	0.107143
3643	0	0.107143
3644	0	0.107143
3645	0	0.107143
3646	0	0.107143
3647	0	0.107143
3648	0	0.107143
3649	0	0.107143
3650	0	0.107143
3651	0	0.142857
3652	0	0.142857
3653	0	0.142857
3654	0	0.142857
3655	0	0.142857
3656	0	0.142857
3657	0	0.142857
3658	0	0.142857
3659	0	0.142857
3660	0	0.142857
3661	0	0.142857
3662	0	0.142857
3663	0	0.142857
3664	0	0.142857
3665	0	0.142857
3666	0	0.142857
3667	0	0.142857
3668	0	0.142857
3669	0	0.142857
3670	0	0.142857
3671	0	0.142857
3672	0	0.142857
3673	0	0.142857
3674	0	0.142857
3675	0	0.142857
3676	0	0.142857
3677	0	0.142857
3678	0	0.142857
3679	0	0.142857
3680	0	0.142857
3681	0	0.142857
3682	0	0.142857
3683	0	0.142857
3684	0	0.142857
3685	0	0.142857
3686	0	0.142857
3687	0	0.142857
3688	0	0.142857
3689	0	0.142857
3690	0	0.142857
3691	0	0.142857
3692	0	0.142857
3693	0	0.142857
3694	0	0.142857
3695	0	0.142857
3696	0	0.142857
3697	0	0.142857
3698	0	0.142857
3699	0	0.142857
3700	0	0.142857
3701	0	0.142857
3702	0	0.142857
3703	0	0.142857
3704	0	0.142857
3705	0	0.142857
3706	0	0.142857
3707	0	0.142857
3708	0	0.142857
3709	0	0.142857
3710	0	0.142857
3711	0	0.142857
3712	0	0.142857
3713	0	0.142857
3714	0	0.142857
3715	0	0.142857
3716	0	0.142857
3717	0	0.142857
3718	0	0.142857
3719	0	0.142857
3720	0	0.142857
3721	0	0.142857
3722	0	0.142857
3723	0	0.142857
3724	0	0.142857
3725	0	0.142857
3726	0	0.142857
3727	0	0.142857
3728	0	0.142857
3729	0	0.142857
3730	0	0.142857
3731	0	0.142857
3732	0	0.142857
3733	0	0.142857
3734	0	0.142857
3735	0	0.142857
3736	0	0.142857
3737	0	0.142857
3738	0	0.142857
3739	0	0.142857
3740	0	0.142857
3741	0	0.142857
3742	0	0.142857
3743	0	0.142857
3744	0	0.142857
3745	0	0.142857
3746	0	0.142857
3747	0	0
3748	0	0
3749	0	0
3750	0	0
3751	0	0
3752	0	0
3753	0	0
3754	0	0
3755	0	0
3756	0	0
3757	0	0
3758	0	0
3759	0	0
3760	0	0
3761	0	0
3762	0	0
3763	0	0
3764	0	0
3765	0	0
3766	0	0
3767	0	0
3768	0	0
3769	0	0
3770	0	0
3771	0	0
3772	0	0
3773	0	0
3774	0	0
3775	0	0
3776	0	0
3777	0	0
3778	0	0
3779	0	0
3780	0	0
3781	0	0
3782	0	0
3783	0	0
3784	0	0
3785	0	0
3786	0	0
3787	0	0
3788	0	0
3789	0	0
3790	0	0
3791	0	0
3792	0	0
3793	0	0
3794	0	0
3795	0	0
3796	0	0
3797	0	0
3798	0	0
3799	0	0
3800	0	0
3801	0	0
3802	0	0
3803	0	0
3804	0	0
3805	0	0
3806	0	0
3807	0	0
3808	0	0
3809	0	0
3810	0	0
3811	0	0
3812	0	0
3813	0	0
3814	0	0
3815	0	0
3816	0	0
3817	0	0
3818	0	0
3819	0	0
3820	0	0
3821	0	0
3822	0	0
3823	0	0
3824	0	0
3825	0	0
3826	0	0
3827	0	0
3828	0	0
3829	0	0
3830	0	0
3831	0	0
3832	0	0
3833	0	0
3834	0	0
3835	0	0
3836	0	0
3837	0	0
3838	0	0
3839	0	0
3840	0	0
3841	0	0
3842	0	0
3843	0	0
3844	0	0
3845	0	0
3846	0	0
3847	0	0
3848	0	0
3849	0	0
3850	0	0
3851	0	0
3852	0	0
3853	0	0
3854	0	0
3855	0	0
3856	0	0
3857	0	0
3858	0	0
3859	0	0
3860	0	0
3861	0	0
3862	0	0
3863	0	0
3864	0	0
3865	0	0
3866	0	0
3867	0	0
3868	0	0
3869	0	0
3870	0	0
3871	0	0
3872	0	0
3873	0	0
3874	0	0
3875	0	0
3876	0	0
3877	0	0
3878	0	0
3879	0	0
3880	0	0
3881	0	0
3882	0	0
3883	0	0
3884	0	0
3885	0	0
3886	0	0
3887	0	0
3888	0	0
3889	0	0
3890	0	0
3891	0	0
3892	0	0
3893	0	0
3894	0	0
3895	0	0
3896	0	0
3897	0	0
3898	0	0
3899	0	0
3900	0	0
3901	0	0
3902	0	0
3903	0	0
3904	0	0
3905	0	0
3906	0	0
3907	0	0
3908	0	0
3909	0	0
3910	0	0
3911	0	0
3912	0	0
3913	0	0
3914	0	0
3915	0	0
3916	0	0
3917	0	0
3918	0	0
3919	0	0
3920	0	0
3921	0	0
3922	0	0
3923	0	0
3924	0	0
3925	0	0
3926	0	0
3927	0	0
3928	0	0
3929	0	0
3930	0	0
3931	0	0
3932	0	0
3933	0	0
3934	0	0
3935	0	0
3936	0	0
3937	0	0
3938	0	0
3939	0	0
3940	0	0
3941	0	0
3942	0	0
3943	0	0
3944	0	0
3945	0	0
3946	0	0
3947	0	0
3948	0	0
3949	0	0
3950	0	0
3951	0	0
3952	0	0
3953	0	0
3954	0	0
3955	0	0
3956	0	0
3957	0	0
3958	0	0
3959	0	0
3960	0	0
3961	0	0
3962	0	0
3963	0	0
3964	0	0
3965	0	0
3966	0	0
3967	0	0
3968	0	0
3969	0	0
3970	0	0
3971	0	0
3972	0	0
3973	0	0
3974	0	0
3975	0	0
3976	0	0
3977	0	0
3978	0	0
3979	0	0
3980	0	0
3981	0	0
3982	0	0
3983	0	0
3984	0	0
3985	0	0
3986	0	0
3987	0	0
3988	0	0
3989	0	0
3990	0	0
3991	0	0
3992	0	0
3993	0	0
3994	0	0
3995	0	0
3996	0	0
3997	0	0
3998	0	0
3999	0	0
4000	0	0
4001	0	0
4002	0	0
4003	0	0
4004	0	0
4005	0	0
4006	0	0
4007	0	0
4008	0	0
4009	0	0
4010	0	0
4011	0	0
4012	0	0
4013	0	0
4014	0	0
4015	0	0
4016	0	0
4017	0	0
4018	0	0
4019	0	0
4020	0	0
4021	0	0
4022	0	0
4023	0	0
4024	0	0
4025	0	0
4026	0	0
4027	0	0
4028	0	0
4029	0	0
4030	0	0
4031	0	0
4032	0	0
4033	0	0
4034	0	0
4035	0	0
4036	0	0
4037	0	0
4038	0	0
4039	0	0
4040	0	0
4041	0	0
4042	0	0
4043	0	0
4044	0	0
4045	0	0
4046	0	0
4047	0	0
4048	0	0
4049	0	0
4050	0	0
4051	0	0
4052	0	0
4053	0	0
4054	0	0
4055	0	0
4056	0	0
4057	0	0
4058	0	0
4059	0	0
4060	0	0
4061	0	0
4062	0	0
4063	0	0
4064	0	0
4065	0	0
4066	0	0
4067	0	0
4068	0	0
4069	0	0
4070	0	0
4071	0	0
4072	0	0
4073	0	0
4074	0	0
4075	0	0
4076	0	0
4077	0	0
4078	0	0
4079	0	0
4080	0	0
4081	0	0
4082	0	0
4083	0	0
4084	0	0
4085	0	0
4086	0	0
4087	0	0
4088	0	0
4089	0	0
4090	0	0
4091	0	0
4092	0	0
4093	0	0
4094	0	0
4095	0	0
4096	0	0
4097	0	0
4098	0	0
4099	0	0
4100	0	0
4101	0	0
4102	0	0
4103	0	0
4104	0	0
4105	0	0
4106	0	0
4107	0	0
4108	0	0
4109	0	0
4110	0	0
4111	0	0
4112	0	0
4113	0	0
4114	0	0
4115	0	0
4116	0	0
4117	0	0
4118	0	0
4119	0	0
4120	0	0
4121	0	0
4122	0	0
4123	0	0
4124	0	0
4125	0	0
4126	0	0
4127	0	0
4128	0	0
4129	0	0
4130	0	0
4131	0	0
4132	0	0
4133	0	0
4134	0	0
4135	0	0
4136	0	0
4137	0	0
4138	0	0
4139	0	0
4140	0	0
4141	0	0
4142	0	0
4143	0	0
4144	0	0
4145	0	0
4146	0	0
4147	0	0
4148	0	0
4149	0	0
4150	0	0
4151	0	0
4152	0	0
4153	0	0
4154	0	0
4155	0	0
4156	0	0
4157	0	0
4158	0	0
4159	0	0
4160	0	0
4161	0	0
4162	0	0
4163	0	0
4164	0	0
4165	0	0
4166	0	0
4167	0	0
4168	0	0
4169	0	0
4170	0	0
4171	0	0
4172	0	0
4173	0	0
4174	0	0
4175	0	0
4176	0	0
4177	0	0
4178	0	0
4179	0	0
4180	0	0
4181	0	0
4182	0	0
4183	0	0
4184	0	0
4185	0	0
4186	0	0
4187	0	0
4188	0	0
4189	0	0
4190	0	0
4191	0	0
4192	0	0
4193	0	0
4194	0	0
4195	0	0
4196	0	0
4197	0	0
4198	0	0
4199	0	0
4200	0	0
4201	0	0
4202	0	0
4203	0	0
4204	0	0
4205	0	0
4206	0	0
4207	0	0
4208	0	0
4209	0	0
4210	0	0
4211	0	0
4212	0	0
4213	0	0
4214	0	0
4215	0	0
4216	0	0
4217	0	0
4218	0	0
4219	0	0
4220	0	0
4221	0	0
4222	0	0
4223	0	0
4224	0	0
4225	0	0
4226	0	0
4227	0	0
4228	0	0
4229	0	0
4230	0	0
4231	0	0
4232	0	0
4233	0	0
4234	0	0
4235	0	0
4236	0	0
4237	0	0
4238	0	0
4239	0	0
4240	0	0
4241	0	0
4242	0	0
4243	0	0
4244	0	0
4245	0	0
4246	0	0
4247	0	0
4248	0	0
4249	0	0
4250	0	0
4251	0	0
4252	0	0
4253	0	0
4254	0	0
4255	0	0
4256	0	0
4257	0	0
4258	0	0
4259	0	0
4260	0	0
4261	0	0
4262	0	0
4263	0	0
4264	0	0
4265	0	0
4266	0	0
4267	0	0
4268	0	0
4269	0	0
4270	0	0
4271	0	0
4272	0	0
4273	0	0
4274	0	0
4275	0	0
4276	0	0
4277	0	0
4278	0	0
4279	0	0
4280	0	0
4281	0	0
4282	0	0
4283	0	0
4284	0	0
4285	0	0
4286	0	0
4287	0	0
4288	0	0
4289	0	0
4290	0	0
4291	0	0
4292	0	0
4293	0	0
4294	0	0
4295	0	0
4296	0	0
4297	0	0
4298	0	0
4299	0	0
4300	0	0
4301	0	0
4302	0	0
4303	0	0
4304	0	0
4305	0	0
4306	0	0
4307	0	0
4308	0	0
4309	0	0
4310	0	0
4311	0	0
4312	0	0
4313	0	0
4314	0	0
4315	0	0
4316	0	0
4317	0	0
4318	0	0
4319	0	0
4320	0	0
4321	0	0
4322	0	0
4323	0	0
4324	0	0
4325	0	0
4326	0	0
4327	0	0
4328	0	0
4329	0	0
4330	0	0
4331	0	0
4332	0	0
4333	0	0
4334	0	0
4335	0	0
4336	0	0
4337	0	0
4338	0	0
4339	0	0
4340	0	0
4341	0	0
4342	0	0
4343	0	0
4344	0	0
4345	0	0
4346	0	0
4347	0	0
4348	0	0
4349	0	0
4350	0	0
4351	0	0
4352	0	0
4353	0	0
4354	0	0
4355	0	0
4356	0	0
4357	0	0
4358	0	0
4359	0	0
4360	0	0
4361	0	0
4362	0	0
4363	0	0
4364	0	0
4365	0	0
4366	0	0
4367	0	0
4368	0	0
4369	0	0
4370	0	0
4371	0	0
4372	0	0
4373	0	0
4374	0	0
4375	0	0
4376	0	0
4377	0	0
4378	0	0
4379	0	0
4380	0	0
4381	0	0
4382	0	0
4383	0	0
4384	0	0
4385	0	0
4386	0	0
4387	0	0
4388	0	0
4389	0	0
4390	0	0
4391	0	0
4392	0	0
4393	0	0
4394	0	0
4395	0	0
4396	0	0
4397	0	0
4398	0	0
4399	0	0
4400	0	0
4401	0	0
4402	0	0
4403	0	0
4404	0	0
4405	0	0
4406	0	0
4407	0	0
4408	0	0
4409	0	0
4410	0	0
4411	0	0
4412	0	0
4413	0	0
4414	0	0
4415	0	0
4416	0	0
4417	0	0
4418	0	0
4419	0	0
4420	0	0
4421	0	0
4422	0	0
4423	0	0
4424	0	0
4425	0	0
4426	0	0
4427	0	0
4428	0	0
4429	0	0
4430	0	0
4431	0	0
4432	0	0
4433	0	0
4434	0	0
4435	0	0
4436	0	0
4437	0	0
4438	0	0
4439	0	0
4440	0	0
4441	0	0
4442	0	0
4443	0	0
4444	0	0
4445	0	0
4446	0	0
4447	0	0
4448	0	0
4449	0	0
4450	0	0
4451	0	0
4452	0	0
4453	0	0
4454	0	0
4455	0	0
4456	0	0
4457	0	0
4458	0	0
4459	0	0
4460	0	0
4461	0	0
4462	0	0
4463	0	0
4464	0	0
4465	0	0
4466	0	0
4467	0	0
4468	0	0
4469	0	0
4470	0	0
4471	0	0
4472	0	0
4473	0	0
4474	0	0
4475	0	0
4476	0	0
4477	0	0
4478	0	0
4479	0	0
4480	0	0
4481	0	0
4482	0	0
4483	0	0
4484	0	0
4485	0	0
4486	0	0
4487	0	0
4488	0	0
4489	0	0
4490	0	0
4491	0	0
4492	0	0
4493	0	0
4494	0	0
4495	0	0
4496	0	0
4497	0	0
4498	0	0
4499	0	0
4500	0	0
4501	0	0
4502	0	0
4503	0	0
4504	0	0
4505	0	0
4506	0	0
4507	0	0
4508	0	0
4509	0	0
4510	0	0
4511	0	0
4512	0	0
4513	0	0
4514	0	0
4515	0	0
4516	0	0
4517	0	0
4518	0	0
4519	0	0
4520	0	0
4521	0	0
4522	0	0
4523	0	0
4524	0	0
4525	0	0
4526	0	0
4527	0	0
4528	0	0
4529	0	0
4530	0	0
4531	0	0
4532	0	0
4533	0	0
4534	0	0
