Site	ColumnScore	SumOfPairsScore
1	0	0
2	0	0
3	0	0
4	0	0
5	0	0
6	0	0
7	0	0
8	0	0
9	0	0
10	0	0
11	0	0
12	0	0
13	0	0
14	0	0
15	0	0
16	0	0
17	0	0
18	0	0
19	0	0
20	0	0
21	0	0
22	0	0
23	0	0
24	0	0
25	0	0
26	0	0
27	0	0
28	0	0
29	0	0
30	0	0
31	0	0
32	0	0
33	0	0
34	0	0
35	0	0
36	0	0
37	0	0
38	0	0
39	0	0
40	0	0
41	0	0
42	0	0
43	0	0
44	0	0
45	0	0
46	0	0
47	0	0
48	0	0
49	0	0
50	0	0
51	0	0
52	0	0
53	0	0
54	0	0
55	0	0
56	0	0
57	0	0
58	0	0
59	0	0
60	0	0
61	0	0
62	0	0
63	0	0
64	0	0
65	0	0
66	0	0
67	0	0
68	0	0
69	0	0
70	0	0
71	0	0
72	0	0
73	0	0
74	0	0
75	0	0
76	0	0
77	0	0
78	0	0
79	0	0
80	0	0
81	0	0
82	0	0
83	0	0
84	0	0
85	0	0
86	0	0
87	0	0
88	0	0
89	0	0
90	0	0
91	0	0
92	0	0
93	0	0
94	0	0
95	0	0
96	0	0
97	0	0
98	0	0
99	0	0
100	0	0
101	0	0
102	0	0
103	0	0
104	0	0
105	0	0
106	0	0
107	0	0
108	0	0
109	0	0
110	0	0
111	0	0
112	0	0
113	0	0
114	0	0
115	0	0
116	0	0
117	0	0
118	0	0
119	0	0
120	0	0
121	0	0
122	0	0
123	0	0
124	0	0
125	0	0
126	0	0
127	0	0
128	0	0
129	0	0
130	0	0
131	0	0
132	0	0
133	0	0
134	0	0
135	0	0
136	0	0
137	0	0
138	0	0
139	0	0
140	0	0
141	0	0
142	0	0
143	0	0
144	0	0
145	0	0
146	0	0
147	0	0
148	0	0
149	0	0
150	0	0
151	0	0
152	0	0
153	0	0
154	0	0
155	0	0
156	0	0
157	0	0
158	0	0
159	0	0
160	0	0
161	0	0
162	0	0
163	0	0
164	0	0
165	0	0
166	0	0
167	0	0
168	0	0
169	0	0
170	0	0
171	0	0
172	0	0
173	0	0
174	0	0
175	0	0
176	0	0
177	0	0
178	0	0
179	0	0
180	0	0
181	0	0
182	0	0
183	0	0
184	0	0
185	0	0
186	0	0
187	0	0
188	0	0
189	0	0
190	0	0
191	0	0
192	0	0
193	0	0
194	0	0
195	0	0
196	0	0
197	0	0
198	0	0
199	0	0
200	0	0
201	0	0
202	0	0
203	0	0
204	0	0
205	0	0
206	0	0
207	0	0
208	0	0
209	0	0
210	0	0
211	0	0
212	0	0
213	0	0
214	0	0
215	0	0
216	0	0
217	0	0
218	0	0
219	0	0
220	0	0
221	0	0
222	0	0
223	0	0
224	0	0
225	0	0
226	0	0
227	0	0
228	0	0
229	0	0
230	0	0
231	0	0
232	0	0
233	0	0
234	0	0
235	0	0
236	0	0
237	0	0
238	0	0
239	0	0
240	0	0
241	0	0
242	0	0
243	0	0
244	0	0
245	0	0
246	0	0
247	0	0
248	0	0
249	0	0
250	0	0
251	0	0
252	0	0
253	0	0
254	0	0
255	0	0
256	0	0
257	0	0
258	0	0
259	0	0
260	0	0
261	0	0
262	0	0
263	0	0
264	0	0
265	0	0
266	0	0
267	0	0
268	0	0
269	0	0
270	0	0
271	0	0
272	0	0
273	0	0
274	0	0
275	0	0
276	0	0
277	0	0
278	0	0
279	0	0
280	0	0
281	0	0
282	0	0
283	0	0
284	0	0
285	0	0
286	0	0
287	0	0
288	0	0
289	0	0
290	0	0
291	0	0
292	0	0
293	0	0
294	0	0
295	0	0
296	0	0
297	0	0
298	0	0
299	0	0
300	0	0
301	0	0
302	0	0
303	0	0
304	0	0
305	0	0
306	0	0
307	0	0
308	0	0
309	0	0
310	0	0
311	0	0
312	0	0
313	0	0
314	0	0
315	0	0
316	0	0
317	0	0
318	0	0
319	0	0
320	0	0
321	0	0
322	0	0
323	0	0
324	0	0
325	0	0
326	0	0
327	0	0
328	0	0
329	0	0
330	0	0
331	0	0
332	0	0
333	0	0
334	0	0
335	0	0
336	0	0
337	0	0
338	0	0
339	0	0
340	0	0
341	0	0
342	0	0
343	0	0
344	0	0
345	0	0
346	0	0
347	0	0
348	0	0
349	0	0
350	0	0
351	0	0
352	0	0
353	0	0
354	0	0
355	0	0
356	0	0
357	0	0
358	0	0
359	0	0
360	0	0
361	0	0
362	0	0
363	0	0
364	0	0
365	0	0
366	0	0
367	0	0
368	0	0
369	0	0
370	0	0
371	0	0
372	0	0
373	0	0
374	0	0
375	0	0
376	0	0
377	0	0
378	0	0
379	0	0
380	0	0
381	0	0
382	0	0
383	0	0
384	0	0
385	0	0
386	0	0
387	0	0
388	0	0
389	0	0
390	0	0
391	0	0
392	0	0
393	0	0
394	0	0
395	0	0
396	0	0
397	0	0
398	0	0
399	0	0
400	0	0
401	0	0
402	0	0
403	0	0
404	0	0
405	0	0
406	0	0
407	0	0
408	0	0
409	0	0
410	0	0
411	0	0
412	0	0
413	0	0
414	0	0
415	0	0
416	0	0
417	0	0
418	0	0
419	0	0
420	0	0
421	0	0
422	0	0
423	0	0
424	0	0
425	0	0
426	0	0
427	0	0
428	0	0
429	0	0
430	0	0
431	0	0
432	0	0
433	0	0
434	0	0
435	0	0
436	0	0
437	0	0
438	0	0
439	0	0
440	0	0
441	0	0
442	0	0
443	0	0
444	0	0
445	0	0
446	0	0
447	0	0
448	0	0
449	0	0
450	0	0
451	0	0
452	0	0
453	0	0
454	0	0
455	0	0
456	0	0
457	0	0
458	0	0
459	0	0
460	0	0
461	0	0
462	0	0
463	0	0
464	0	0
465	0	0
466	0	0
467	0	0
468	0	0
469	0	0
470	0	0
471	0	0
472	0	0
473	0	0
474	0	0
475	0	0
476	0	0
477	0	0
478	0	0
479	0	0
480	0	0
481	0	0
482	0	0
483	0	0
484	0	0
485	0	0.1
486	0	0.1
487	0	0.1
488	0	0.0666667
489	0	0.0666667
490	0	0.0714286
491	0	0.0555556
492	0	0.0555556
493	0	0.0555556
494	0	0.0555556
495	0	0.0444444
496	0	0.0363636
497	0	0.0363636
498	0	0.0363636
499	0	0.030303
500	0	0.030303
501	0	0.030303
502	0	0.0384615
503	0	0.032967
504	0	0.032967
505	0	0.0380952
506	0	0.0333333
507	0	0.0333333
508	0	0.0294118
509	0	0.0428571
510	0	0.0238095
511	0	0.021645
512	0	0.021645
513	0	0.017316
514	0	0.021645
515	0	0.0197628
516	0	0.027668
517	0	0.027668
518	0	0.046371
519	0	0.046371
520	0	0.0454545
521	0	0.0454545
522	0	0.0285205
523	0	0.109158
524	0	0.10461
525	0	0.10034
526	0	0.10119
527	0	0.1167
528	0	0.192105
529	0	0.209185
530	0	0.19379
531	0	0.169975
532	0	0.164541
533	0	0.355731
534	0	0.349619
535	0	0.270645
536	0	0.185227
537	0	0.139002
538	0	0.177172
539	0	0.178108
540	0	0.196523
541	0	0.116194
542	0	0.0771526
543	0	0.0818414
544	0	0.0763001
545	0	0.0848252
546	0	0.0852515
547	0	0.0848861
548	0	0.0694444
549	0	0.348944
550	0	0.332199
551	0	0.334427
552	0	0.459321
553	0	0.10342
554	0	0.122314
555	0	0.153628
556	0	0.163205
557	0	0.143511
558	0	0.43602
559	0	0.612948
560	0	0.592644
561	0	0.692104
562	0	0.695905
563	0	0.708992
564	0	0.055336
565	0	0.0584795
566	0	0.0955882
567	0	0.108333
568	0	0.789934
569	0	0.79142
570	0	0.189247
571	0	0.189247
572	0	0.326882
573	0	0.326882
574	0	0.818835
575	0	0.834042
576	0	0.832496
577	0	0.834042
578	0	0
579	0	0
580	0	0
581	0	0
582	0	0
583	0	0
584	0	0
585	0	0
586	0	0
587	0	0
588	0	0
589	0	0
590	0	0
591	0	0
592	0	0
593	0	0
594	0	0
595	0	0
596	0	0.833933
597	0	0.799765
598	0	0.801113
599	0	0.166667
600	0	0.129568
601	0	0.79001
602	0	0
603	0	0.511623
604	0	0
605	0	0.5
606	0	0.5
607	0	0
608	0	0.608835
609	0	0.235749
610	0	0.412929
611	0	0.693389
612	0	0.00833333
613	0	0.61459
614	0	0.496914
615	0	0.446296
616	0	0.205837
617	0	0.23183
618	0	0.491406
619	0	0.336206
620	0	0.333517
621	0	0.331152
622	0	0.331116
623	0	0.259187
624	0	0.300925
625	0	0
626	0	0.228442
627	0	0.166667
628	0	0.207935
629	0	0.204328
630	0	0.575845
631	0	0.174641
632	0	0.166876
633	0	0.0473684
634	0	0.0421053
635	0	0.0421053
636	0	0.0333333
637	0	0.237176
638	0	0.218332
639	0	0.233681
640	0	0.30546
641	0	0.304911
642	0	0.358372
643	0	0.0523077
644	0	0.0316206
645	0	0.0338462
646	0	0.0492308
647	0	0.412363
648	0	0.457608
649	0	0.462703
650	0	0.750991
651	0	0.751044
652	0	0.724989
653	0	0.688558
654	0	0.153567
655	0	0.226931
656	0	0.25758
657	0	0.260164
658	0	0.263386
659	0	0.270438
660	0	0.270436
661	0	0.27062
662	0	0.3
663	0	0
664	0	0
665	0	0
666	0	0
667	0	0
668	0	0
669	0	0
670	0	0
671	0	0
672	0	0
673	0	1
674	0	0.333333
675	0	0.333333
676	0	0.282152
677	0	0.282147
678	0	0.327694
679	0	0.327694
680	0	0.335753
681	0	0.323712
682	0	0.322465
683	0	0.318595
684	0	0.191304
685	0	0.1298
686	0	0.32466
687	0	0.620051
688	0	0.617072
689	0	0.610003
690	0	0.648814
691	0	0
692	0	0
693	0	0
694	0	0
695	0	0
696	0	0
697	0	0
698	0	0
699	0	0
700	0	0
701	0	0
702	0	0
703	0	0
704	0	0
705	0	0
706	0	0
707	0	0
708	0	0
709	0	0
710	0	0
711	0	0
712	0	0
713	0	0
714	1	1
715	1	1
716	1	1
717	1	1
718	1	1
719	1	1
720	1	1
721	1	1
722	1	1
723	1	1
724	1	1
725	1	1
726	1	1
727	1	1
728	0	1
729	0	1
730	0	1
731	0	1
732	0	1
733	0	0
734	0	0
735	0	0
736	0	0
737	0	0
738	0	0
739	0	0
740	0	0
741	0	0
742	0	0
743	0	0
744	0	0
745	0	0
746	0	0
747	0	0
748	0	0
749	0	0.791717
750	0	0.469697
751	0	0.469697
752	0	0.469697
753	0	0.469697
754	0	0.469697
755	0	0.469697
756	0	0.469697
757	0	0.469697
758	0	0.469697
759	0	0.287879
760	0	0.287879
761	0	0.287879
762	0	0.287879
763	0	0.120879
764	0	0.120879
765	0	0.133333
766	0	0.133333
767	0	0.181818
768	0	0.181818
769	0	0.214286
770	0	0.214286
771	0	0.414141
772	0	0.214286
773	0	0.214286
774	0	0.142857
775	0	0.111111
776	0	0.111111
777	0	0.2
778	0	0.2
779	0	0.2
780	0	0.2
781	0	0.142857
782	0	0.2
783	0	0.142857
784	0	0.142857
785	0	0.142857
786	0	0.142857
787	0	0.142857
788	0	0.142857
789	0	0.142857
790	0	0.142857
791	0	0.0833333
792	0	0.0666667
793	0	0.0666667
794	0	0.35523
795	0	0.316667
796	0	0
797	0	0
798	0	0
799	0	0.25
800	0	0.222222
801	0	0.286836
802	0	0.207778
803	0	0.150401
804	0	0.144774
805	0	0.184233
806	0	0.202604
807	0	0.202755
808	0	0
809	0	0
810	0	0
811	0	0
812	0	0
813	0	0
814	0	0
815	0	0
816	0	0
817	0	0
818	0	0
819	0	0
820	0	0
821	0	0
822	0	0
823	0	0
824	0	0
825	0	0
826	0	0.20833
827	0	0.238328
828	0	0.230769
829	0	0.0989011
830	0	0.0989011
831	0	0.0666667
832	0	0.0666667
833	0	0.0916667
834	0	0.0935673
835	0	0.116809
836	0	0.2846
837	0	0.396068
838	0	0.429268
839	0	0.45258
840	0	0.136158
841	0	0.244436
842	0	0.36053
843	0	0.407912
844	0	0.465305
845	0	0.514539
846	0	0.532175
847	0	0.525962
848	0	0.860711
849	0	0.890027
850	0	0.893912
851	0	0.511518
852	0	0.422764
853	0	0.419277
854	0	0.280142
855	0	0.358156
856	0	0.373728
857	0	0.3
858	0	0.3
859	0	0.3
860	0	0.3
861	0	0.656489
862	0	0.656489
863	0	0.696552
864	0	0.696552
865	0	0.3
866	0	0.3
867	0	0.3
868	0	0.3
869	0	0.850196
870	0	0.926941
871	0	0.952464
872	0	0.952464
873	0	0.94836
874	0	0.3
875	0	0.3
876	0	0.3
877	0	0.3
878	0	0.3
879	0	0.3
880	0	0.3
881	0	0.3
882	0	0.3
883	0	0.3
884	0	0.3
885	0	0.3
886	0	0.3
887	0	0.589057
888	0	0.573453
889	0	0.576762
890	0	0.5741
891	0	0.581453
892	0	0.580417
893	0	0.579577
894	0	0.0666667
895	0	0.107143
896	0	0.0833333
897	0	0.0833333
898	0	0.602839
899	0	0.56786
900	0	0.572354
901	0	0.41746
902	0	0.356506
903	0	0.272537
904	0	0.795841
905	0	0.298701
906	0	0.0555556
907	0	0.0714286
908	0	0.166667
909	0	0.333333
910	0	0.333333
911	0	0.333333
912	0	0.266667
913	0	0.3
914	0	0.2
915	0	0.166667
916	0	0.166667
917	0	0.166667
918	0	0.166667
919	0	0.166667
920	0	0.333333
921	0	0.333333
922	0	0.333333
923	0	0.333333
924	0	0.333333
925	0	0.333333
926	0	0.333333
927	0	0.333333
928	0	0.605607
929	0	0.350649
930	0	0.116941
931	0	0.117161
932	0	0.536989
933	0	0.210526
934	0	0.215789
935	0	0.210526
936	0	0.199134
937	0	0.203463
938	0	0.147643
939	0	0.106361
940	0	0.0991807
941	0	0.467361
942	0	0
943	0	0
944	0	0.1
945	0	0.1
946	0	0.1
947	0	0.1
948	0	0.1
949	0	0
950	0	0
951	0	0.396085
952	0	0
953	0	0
954	0	0
955	0	0
956	0	0
957	0	0
958	0	0
959	0	0
960	0	0.333333
961	0	0.333333
962	0	0.333333
963	0	0.333333
964	0	0.333333
965	0	0.2
966	0	0.2
967	0	0.2
968	0	0.379787
969	0	0.137129
970	0	0.183386
971	0	0.199725
972	0	0.200595
973	0	0.369246
974	0	0.13732
975	0	0.193237
976	0	0.232288
977	0	0.232288
978	0	0.336469
979	0	0.41196
980	0	0.810794
981	0	0.390313
982	0	0.438746
983	0	0.51
984	0	0.526154
985	0	0.526154
986	0	0.526154
987	0	0.526154
988	0	0
989	0	0.047619
990	0	0.0357143
991	0	0.107143
992	0	0.799333
993	0	0.346109
994	0	0.595402
995	0	0.583744
996	0	0.2
997	0	0.2
998	0	0.2
999	0	0.776839
1000	0	0.90302
1001	0	0.906182
1002	0	0.906195
1003	0	0.906195
1004	0	0.904532
1005	0	0
1006	0	0
1007	0	0
1008	0	0
1009	0	0
1010	0	0.877699
1011	0	0.869728
1012	0	0.858753
1013	0	0.859947
1014	0	0.0942529
1015	0	0.0942529
1016	0	0.839555
1017	0	0.841074
1018	0	0.128205
1019	0	0.141935
1020	0	0.141935
1021	0	0.827602
1022	0	0.824476
1023	0	0.830224
1024	0	0
1025	0	0
1026	0	0
1027	0	0
1028	0	0
1029	0	0
1030	0	0
1031	0	0
1032	0	0
1033	0	0
1034	0	0
1035	0	0
1036	0	0
1037	0	0
1038	0	0
1039	0	0
1040	0	0
1041	0	0
1042	0	0
1043	0	0
1044	0	0
1045	0	0.790615
1046	0	0.119658
1047	0	0.892277
1048	0	0.89588
1049	0	0.109091
1050	0	0.109091
1051	0	0.109091
1052	0	0.84375
1053	0	0.839322
1054	0	0.837942
1055	0	0.83779
1056	0	0.839298
1057	0	0.840957
1058	0	0
1059	0	0
1060	0	0
1061	0	0
1062	0	0
1063	0	0
1064	0	0
1065	0	0
1066	0	0
1067	0	0
1068	0	0
1069	0	0
1070	0	0
1071	0	0
1072	0	0
1073	0	0
1074	0	0
1075	0	0
1076	0	0
1077	0	0
1078	0	0
1079	0	0
1080	0	0.342857
1081	0	0.395604
1082	0	0.395604
1083	0	0.877951
1084	0	0.876343
1085	0	0.877949
1086	0	0.882896
1087	0	0.881383
1088	0	0.622222
1089	0	0.777778
1090	0	0.416667
1091	0	0.416667
1092	0	0.830138
1093	0	0.19697
1094	0	0.19697
1095	0	0.19697
1096	0	0.19697
1097	0	0.19697
1098	0	0.834992
1099	0	0
1100	0	0
1101	0	0
1102	0	0
1103	0	0
1104	0	0
1105	0	0
1106	0	0
1107	0	0
1108	0	0
1109	0	0
1110	0	0
1111	0	0.971429
1112	0	0.616539
1113	0	0.919218
1114	0	0.919218
1115	0	0.956522
1116	0	0.552642
1117	0	0.552642
1118	0	0.554559
1119	0	0.912121
1120	0	0.877016
1121	0	0.849231
1122	0	0.2
1123	0	0.2
1124	0	0.313846
1125	0	0.22807
1126	0	0.199147
1127	0	0.199147
1128	0	0.194581
1129	0	0.308339
1130	0	0.314777
1131	0	0.23212
1132	0	0.123137
1133	0	0
1134	0	0
1135	0	0
1136	0	0
1137	0	0
1138	0	0
1139	0	0
1140	0	0
1141	0	0.130952
1142	0	0.208665
1143	0	0.230736
1144	0	0.250322
1145	0	0.279194
1146	0	0.207692
1147	0	0.307002
1148	0	0
1149	0	0.282051
1150	0	0.307692
1151	0	0.583333
1152	0	0.583333
1153	0	0.416667
1154	0	0
1155	0	0
1156	0	0.333333
1157	0	0.777778
1158	0	0.8
1159	0	0.622222
1160	0	0
1161	0	0.440571
1162	0	0.227273
1163	0	0.227273
1164	0	0.227273
1165	0	0.227273
1166	0	0.380882
1167	0	0.365758
1168	0	0.356493
1169	0	0.356741
1170	0	0.29813
1171	0	0.237441
1172	0	0.237441
1173	0	0.237441
1174	0	0.224749
1175	0	0.22422
1176	0	0.30564
1177	0	0.312321
1178	0	0.296767
1179	0	0.133437
1180	0	0.101587
1181	0	0.0841737
1182	0	0.114545
1183	0	0.123615
1184	0	0.105655
1185	0	0.0987103
1186	0	0.104053
1187	0	0.113725
1188	0	0.112941
1189	0	0.112941
1190	0	0.117073
1191	0	0.0996678
1192	0	0.10742
1193	0	0.0721554
1194	0	0.0275862
1195	0	0.377985
1196	0	0.62763
1197	0	0.634768
1198	0	0.616499
1199	0	0.626925
1200	0	0
1201	0	0
1202	0	0
1203	0	0
1204	0	0.0357143
1205	0	0.0357143
1206	0	0.0363636
1207	0	0.0888889
1208	0	0.0888889
1209	0	0.0888889
1210	0	0.0888889
1211	0	0.0888889
1212	0	0.284839
1213	0	0.0855856
1214	0	0.0885886
1215	0	0.0885886
1216	0	0.245614
1217	0	0.245614
1218	0	0.0730159
1219	0	0.235053
1220	0	0.333333
1221	0	0.333333
1222	0	0.333333
1223	0	0.333333
1224	0	0.333333
1225	0	0.333333
1226	0	0.333333
1227	0	0.333333
1228	0	0.333333
1229	0	0.333333
1230	0	0.333333
1231	0	0.333333
1232	0	0.333333
1233	0	0.333333
1234	0	0.157424
1235	0	0.158112
1236	0	0.0849673
1237	0	0.032967
1238	0	0.032967
1239	0	0.030303
1240	0	0.030303
1241	0	0.030303
1242	0	0.030303
1243	0	0.030303
1244	0	0
1245	0	0
1246	0	0
1247	0	0
1248	0	0
1249	0	0
1250	0	0
1251	0	0
1252	0	0
1253	0	0
1254	0	0
1255	0	0.0220588
1256	0	0.0263158
1257	0	0.017316
1258	0	0.351868
1259	0	0.344757
1260	0	0.331171
1261	0	0.166956
1262	0	0.175706
1263	0	0.51567
1264	0	0.51567
1265	0	0.51567
1266	0	0.51567
1267	0	0.51567
1268	0	0.47619
1269	0	0.190476
1270	0	0.190476
1271	0	0.190476
1272	0	0.1
1273	0	0.492877
1274	0	0.492877
1275	0	0.190476
1276	0	0.190476
1277	0	0.190476
1278	0	0.190476
1279	0	0.190476
1280	0	0.190476
1281	0	0.142857
1282	0	0.116122
1283	0	0.133301
1284	0	0.133357
1285	0	0.0212245
1286	0	0.0220408
1287	0	0.0178571
1288	0	0.0136054
1289	0	0.0119048
1290	0	0.0146939
1291	0	0.0117647
1292	0	0.012549
1293	0	0.171831
1294	0	0.176346
1295	0	0.176573
1296	0	0.0292398
1297	0	0.0128205
1298	0	0
1299	0	0
1300	0	0
1301	0	0.0409357
1302	0	0.150264
1303	0	0.194783
1304	0	0
1305	0	0
1306	0	0
1307	0	0
1308	0	0
1309	0	0
1310	0	0
1311	0	0
1312	0	0
1313	0	0
1314	0	0
1315	0	0
1316	0	0
1317	0	0.0516343
1318	0	0.0517644
1319	0	0
1320	0	0
1321	0	0
1322	0	0
1323	0	0
1324	0	0
1325	0	0
1326	0	0
1327	0	0
1328	0	0
1329	0	0
1330	0	0
1331	0	0
1332	0	0
1333	0	0.133865
1334	0	0.132092
1335	0	0.0838723
1336	0	0.0742534
1337	0	0
1338	0	0
1339	0	0
1340	0	0
1341	0	0
1342	0	0
1343	0	0
1344	0	0
1345	0	0
1346	0	0
1347	0	0.2168
1348	0	0.0666667
1349	0	0
1350	0	0.502614
1351	0	0.511404
1352	0	0.381462
1353	0	0.440329
1354	0	0.460713
1355	0	0.44086
1356	0	0.471264
1357	0	0.399621
1358	0	0.399621
1359	0	0.387097
1360	0	0.431857
1361	0	0.431857
1362	0	0.333333
1363	0	0.333333
1364	0	0.333333
1365	0	0.333333
1366	0	0.333333
1367	0	0.333333
1368	0	0.333333
1369	0	0.333333
1370	0	0.333333
1371	0	0.333333
1372	0	0.333333
1373	0	0.333333
1374	0	0.333333
1375	0	0.333333
1376	0	0.333333
1377	0	0.333333
1378	0	0.333333
1379	0	0.333333
1380	0	0.25
1381	0	0.25
1382	0	0.25
1383	0	0.142857
1384	0	0.142857
1385	0	0.190476
1386	0	0.190476
1387	0	0.190476
1388	0	0.190476
1389	0	0.190476
1390	0	0.190476
1391	0	0.190476
1392	0	0.333333
1393	0	0.333333
1394	0	0.333333
1395	0	0.333333
1396	0	0.333333
1397	0	0.166667
1398	0	0.166667
1399	0	0.166667
1400	0	0.166667
1401	0	0.670694
1402	0	0
1403	0	0
1404	0	0
1405	0	0
1406	0	0
1407	0	0
1408	0	0
1409	0	0
1410	0	0
1411	0	0
1412	0	0
1413	0	0
1414	0	0
1415	0	0.266667
1416	0	0.228571
1417	0	0.142256
1418	0	0.125476
1419	0	0.094171
1420	0	0.104783
1421	0	0.112003
1422	0	0.0409357
1423	0	0.0368421
1424	0	0.0474308
1425	0	0.0474308
1426	0	0.0523559
1427	0	0.0803663
1428	0	0.0666775
1429	0	0
1430	0	0
1431	0	0
1432	0	0.0833333
1433	0	0.07289
1434	0	0.0856725
1435	0	0.0767131
1436	0	0.0731393
1437	0	0.106061
1438	0	0.0727273
1439	0	0.0357143
1440	0	0.047619
1441	0	0.299877
1442	0	0
1443	0	0
1444	0	0
1445	0	0
1446	0	0
1447	0	0
1448	0	0
1449	0	0
1450	0	0
1451	0	0
1452	0	0
1453	0	0
1454	0	0
1455	0	0
1456	0	0
1457	0	0
1458	0	0.0569445
1459	0	0
1460	0	0
1461	0	0
1462	0	0
1463	0	0
1464	0	0
1465	0	0
1466	0	0
1467	0	0
1468	0	0
1469	0	0
1470	0	0
1471	0	0
1472	0	0
1473	0	0
1474	0	0
1475	0	0
1476	0	0.0483216
1477	0	0.046613
1478	0	0.0381709
1479	0	0.0570856
1480	0	0.0350877
1481	0	0.0292398
1482	0	0.0551629
1483	0	0.2
1484	0	1
1485	0	1
1486	0	1
1487	0	1
1488	0	1
1489	0	1
1490	0	1
1491	0	1
1492	0	1
1493	0	1
1494	0	1
1495	0	1
1496	0	1
1497	0	1
1498	0	1
1499	0	1
1500	0	0.183665
1501	0	0.228671
1502	0	0.351773
1503	0	0.356725
1504	0	0.356725
1505	0	0.356725
1506	0	0.444444
1507	0	0.333333
1508	0	0.333333
1509	0	0.333333
1510	0	0.333333
1511	0	0.333333
1512	0	0.333333
1513	0	0.333333
1514	0	0
1515	0	0
1516	0	0
1517	0	0
1518	0	0
1519	0	0
1520	0	0
1521	0	0
1522	0	0
1523	0	0
1524	0	0
1525	0	0
1526	0	0
1527	0	0
1528	0	0.431331
1529	0	0.39774
1530	0	0.241194
1531	0	0.251288
1532	0	0
1533	0	0
1534	0	0
1535	0	0.426087
1536	0	0.333333
1537	0	0.1
1538	0	0.1
1539	0	0.142857
1540	0	0.111111
1541	0	0.37259
1542	0	0.389714
1543	0	0.704053
1544	0	0.851696
1545	0	0.851696
1546	0	0.862775
1547	0	0.125
1548	0	0.152381
1549	0	0.161765
1550	0	0.294118
1551	0	0.308824
1552	0	0.327903
1553	0	0.329821
1554	0	0.0207317
1555	0	0.024024
1556	0	0.0255255
1557	0	0.0269841
1558	0	0.0269841
1559	0	0.188915
1560	0	0.025641
1561	0	0.021978
1562	0	0.188891
1563	0	0.189395
1564	0	0.0238095
1565	0	0.0263158
1566	0	0.0263158
1567	0	0.0263158
1568	0	0.0238095
1569	0	0.0237154
1570	0	0.219024
1571	0	0.219792
1572	0	0.0584795
1573	0	0.04329
1574	0	0.0421053
1575	0	0.0933333
1576	0	0.0666667
1577	0	0.0666667
1578	0	0.0850575
1579	0	0.168091
1580	0	0.193732
1581	0	0.137681
1582	0	0.49927
1583	0	0
1584	0	0
1585	0	0
1586	0	0
1587	0	0
1588	0	0.214286
1589	0	0.658316
1590	0	0.665596
1591	0	0
1592	0	0
1593	0	0
1594	0	0
1595	0	0.352632
1596	0	0.415789
1597	0	0
1598	0	0
1599	0	0
1600	0	0
1601	0	0
1602	0	0
1603	0	0
1604	0	0
1605	0	0
1606	0	0.1
1607	0	0.550653
1608	0	0.493154
1609	0	0.476796
1610	0	0.0645646
1611	0	0.0630631
1612	0	0.0630631
1613	0	0.0630631
1614	0	0.0615616
1615	0	0.187147
1616	0	0.184708
1617	0	0
1618	0	0
1619	0	0.0909091
1620	0	0.111111
1621	0	0.138889
1622	0	0.138889
1623	0	0.166667
1624	0	0.166667
1625	0	0.333333
1626	0	0.333333
1627	0	0.333333
1628	0	0.333333
1629	0	0.166667
1630	0	0.204502
1631	0	0.180535
1632	0	0.0952381
1633	0	0.0687468
1634	0	0.0732778
1635	0	0
1636	0	0
1637	0	0
1638	0	0
1639	0	0
1640	0	0
1641	0	0
1642	0	0
1643	0	0
1644	0	0
1645	0	0
1646	0	0
1647	0	0
1648	0	0
1649	0	0
1650	0	0
1651	0	0.164835
1652	0	0.164835
1653	0	0.0687226
1654	0	0.0687226
1655	0	0.0608232
1656	0	0.0620011
1657	0	0.0900853
1658	0	0.0284495
1659	0	0.0284495
1660	0	0.0284495
1661	0	0.0151515
1662	0	0.0151515
1663	0	0.0151515
1664	0	0.0151515
1665	0	0.0151515
1666	0	0.0151515
1667	0	0.0151515
1668	0	0.135188
1669	0	0.110086
1670	0	0.0274537
1671	0	0.103358
1672	0	0.0714286
1673	0	0.0357143
1674	0	0.0357143
1675	0	0.0357143
1676	0	0.047619
1677	0	0.047619
1678	0	0.0230631
1679	0	0.0183784
1680	0	0.103725
1681	0	0.0441176
1682	0	0.0514706
1683	0	0.0619048
1684	0	0.107692
1685	0	0.353155
1686	0	0.220534
1687	0	0.226088
1688	0	0.188562
1689	0	0.196667
1690	0	0.0606061
1691	0	0.0606061
1692	0	0.0606061
1693	0	0.0606061
1694	0	0.131579
1695	0	0.146199
1696	0	0.146199
1697	0	0.161905
1698	0	0.0769231
1699	0	0.0769231
1700	0	0.047619
1701	0	0.047619
1702	0	0.195766
1703	0	0.175844
1704	0	0.0807823
1705	0	0.0807823
1706	0	0.0629252
1707	0	0.0515432
1708	0	0.166162
1709	0	0.164649
1710	0	0.153584
1711	0	0.167975
1712	0	0.154309
1713	0	0.0653937
1714	0	0.0776515
1715	0	0.0757576
1716	0	0.0739496
1717	0	0.0766488
1718	0	0.119488
1719	0	0.120108
1720	0	0.196809
1721	0	0.243922
1722	0	0.0706825
1723	0	0.0730229
1724	0	0.0691634
1725	0	0.0705119
1726	0	0.0694741
1727	0	0.0653451
1728	0	0.0615491
1729	0	0.0577502
1730	0	0.0609319
1731	0	0.0727087
1732	0	0.0491959
1733	0	0.0659537
1734	0	0.0802139
1735	0	0.241667
1736	0	0.241667
1737	0	0.0606061
1738	0	0.0608743
1739	0	0.0284542
1740	0	0.0295567
1741	0	0.0295567
1742	0	0.027957
1743	0	0.0263845
1744	0	0.0289969
1745	0	0.0575463
1746	0	0
1747	0	0
1748	0	0
1749	0	0
1750	0	0
1751	0	0
1752	0	0
1753	0	0.0512012
1754	0	0.0535783
1755	0	0.0531816
1756	0	0
1757	0	0
1758	0	0
1759	0	0
1760	0	0
1761	0	0
1762	0	0
1763	0	0
1764	0	0
1765	0	0
1766	0	0
1767	0	0
1768	0	0
1769	0	0
1770	0	0
1771	0	0
1772	0	0
1773	0	0
1774	0	0
1775	0	0
1776	0	0
1777	0	0.0785987
1778	0	0.0833333
1779	0	0.0833333
1780	0	0.0195135
1781	0	0.0153215
1782	0	0.0161423
1783	0	0.0863091
1784	0	0.0785214
1785	0	0.0848959
1786	0	0.0866021
1787	0	0.0802322
1788	0	0.120251
1789	0	0.0355731
1790	0	0.0555439
1791	0	0.0532295
1792	0	0.0546535
1793	0	0.120071
1794	0	0.0534476
1795	0	0.0722386
1796	0	0.0766104
1797	0	0.0438849
1798	0	0.0589928
1799	0	0.0618288
1800	0	0.0631842
1801	0	0.141207
1802	0	0.3
1803	0	0.3
1804	0	0.717441
1805	0	0.684542
1806	0	0.248591
1807	0	0.264763
1808	0	0.27989
1809	0	0.241458
1810	0	0.265262
1811	0	0.225609
1812	0	0.1945
1813	0	0.212257
1814	0	0.230271
1815	0	0.231787
1816	0	0.228638
1817	0	1
1818	0	1
1819	0	0
1820	0	0
1821	0	0
1822	0	0
1823	0	0
1824	0	0
1825	0	0
1826	0	0
1827	0	0
1828	0	0
1829	0	0.333333
1830	0	0.168425
1831	0	0.162047
1832	0	0
1833	0	0
1834	0	0
1835	0	0
1836	0	0
1837	0	0
1838	0	0
1839	0	0
1840	0	0
1841	0	0
1842	0	0
1843	0	0
1844	0	0
1845	0	0
1846	0	0
1847	0	0
1848	0	0
1849	0	0
1850	0	0
1851	0	0
1852	0	0
1853	0	0
1854	0	0
1855	0	0
1856	0	0
1857	0	0
1858	0	0
1859	0	0
1860	0	0
1861	0	0
1862	0	0
1863	0	0
1864	0	0
1865	0	0
1866	1	0
1867	0	0
1868	0	0
1869	0	0
1870	0	0
1871	0	0
1872	0	0
1873	0	0
1874	0	0
1875	0	0
1876	0	0
1877	0	0
1878	0	0.163595
1879	0	0.116958
1880	0	0.166667
1881	0	0.533333
1882	0	0.210958
1883	0	0.281955
1884	0	0.270761
1885	0	0.293005
1886	0	0.280501
1887	0	0.280501
1888	0	0.580882
1889	0	0.580882
1890	0	0.580882
1891	0	0.360294
1892	0	0.166667
1893	0	0.409634
1894	0	0.38741
1895	0	0.232214
1896	0	0.220495
1897	0	0
1898	0	0
1899	0	0
1900	0	0
1901	0	0
1902	0	0
1903	0	0
1904	0	0
1905	0	0
1906	0	0
1907	0	0
1908	0	0
1909	0	0
1910	0	0
1911	0	0
1912	0	0
1913	0	0
1914	0	0.278089
1915	0	0.116959
1916	0	0.1
1917	0	0.203463
1918	0	0.304011
1919	0	0.272842
1920	0	0.272375
1921	0	0.261998
1922	0	0.0930931
1923	0	0.266704
1924	0	0
1925	0	0
1926	0	0
1927	0	0
1928	0	0
1929	0	0.0636364
1930	0	0.269443
1931	0	0.205602
1932	0	0.149425
1933	0	0.197484
1934	0	0.125356
1935	0	0.176638
1936	0	0.153439
1937	0	0.219577
1938	0	0.219577
1939	0	0.610118
1940	0	0
1941	0	0
1942	0	0
1943	0	0
1944	0	0
1945	0	0
1946	0	0
1947	0	0
1948	0	0
1949	0	0
1950	0	0
1951	0	0
1952	0	0
1953	0	0
1954	0	0
1955	0	0
1956	0	0
1957	0	0.465293
1958	0	0.48437
1959	0	0.267425
1960	0	0.294899
1961	0	0.777807
1962	0	0.813408
1963	0	0.900309
1964	0	0
1965	0	0.183908
1966	0	0.23399
1967	0	0.452308
1968	0	0.721053
1969	0	0.888889
1970	0	1
1971	0	0.962876
1972	0	0.966382
1973	0	0.970418
1974	0	0.970418
1975	0	0.97047
1976	0	0.973876
1977	0	0.975586
1978	0	0.975588
1979	0	0.972118
1980	0	0.966947
1981	0	0.965249
1982	0	0.982515
1983	0	0.982515
1984	0	0.982513
1985	0	0.980774
1986	0	0.984228
1987	0	0.985974
1988	0	0
1989	0	0
1990	0	0
1991	0	0.982495
1992	0	0.98077
1993	0	0.98077
1994	0	0.982495
1995	0	0.982495
1996	0	0.979051
1997	0	0.979052
1998	0	1
1999	0	1
2000	0	1
2001	0	1
2002	0	1
2003	0	1
2004	0	1
2005	0	0.95122
2006	0	0.95122
2007	0	0.95122
2008	0	0.903659
2009	0	0.903659
2010	0	0.732927
2011	0	0.658537
2012	0	0.627907
2013	0	0.698782
2014	0	0.698782
2015	0	0.61256
2016	0	0.61256
2017	0	0.903635
2018	0	0.563013
2019	0	0.552968
2020	0	0.537962
2021	0	0.484868
2022	0	0.471053
2023	0	0.448024
2024	0	0.196718
2025	0	0.171485
2026	0	0.171683
2027	0	0.379549
2028	0	0.4
2029	0	0.4
2030	0	0.466667
2031	0	0.466667
2032	0	0.333333
2033	0	0.19441
2034	0	0.181658
2035	0	0.162906
2036	0	0.154947
2037	0	0.142805
2038	0	0.102144
2039	0	0.305711
2040	0	0.411111
2041	0	0.411111
2042	0	0.411111
2043	0	0.411111
2044	0	0.514113
2045	0	0.514113
2046	0	0.456328
2047	0	0.456328
2048	0	0.456328
2049	0	0.456328
2050	0	0.456328
2051	0	0.456328
2052	0	0.456328
2053	0	0.318882
2054	0	0
2055	0	0
2056	0	0
2057	0	0
2058	0	0
2059	0	0
2060	0	0
2061	0	0
2062	0	0
2063	0	0
2064	0	0
2065	0	0
2066	0	0
2067	0	0
2068	0	0
2069	0	0
2070	0	0
2071	0	0
2072	0	0
2073	0	0
2074	0	0
2075	0	0
2076	0	0.664275
2077	0	0.0935713
2078	0	0.0846488
2079	0	0.0869565
2080	0	0.116579
2081	0	0.097003
2082	0	0.0886898
2083	0	0.0972004
2084	0	0.145072
2085	0	0.305648
2086	0	0.278788
2087	0	0.268617
2088	0	0.222395
2089	0	0.226591
2090	0	0.226768
2091	0	0.369631
2092	0	0.369705
2093	0	0.371605
2094	0	0.219061
2095	0	0.237237
2096	0	0.233613
2097	0	0.276353
2098	0	0.276353
2099	0	0.102564
2100	0	0.305556
2101	0	0.25
2102	0	0.25
2103	0	0.25
2104	0	0.25
2105	0	0.25
2106	0	0.3678
2107	0	0.57451
2108	0	0.639035
2109	0	0.161976
2110	0	0.218048
2111	0	0.177411
2112	0	0.214192
2113	0	0.245403
2114	0	0.267787
2115	0	0.0609756
2116	0	0.0640114
2117	0	0.0675676
2118	0	0.0510511
2119	0	0.0510511
2120	0	0.0659537
2121	0	0.0814394
2122	0	0.0769231
2123	0	0.0822511
2124	0	0.0947368
2125	0	0.126316
2126	0	0.134503
2127	0	0.134503
2128	0	0.161765
2129	0	0.0909091
2130	0	0.0909091
2131	0	0.111111
2132	0	0.142857
2133	0	0.1
2134	0	0.1
2135	0	0.166667
2136	0	0.166667
2137	0	0.166667
2138	0	0.166667
2139	0	0.166667
2140	0	0
2141	0	0.333333
2142	0	0.333333
2143	0	0.333333
2144	0	1
2145	0	0.991243
2146	0	0.991243
2147	0	0.991251
2148	0	0.991251
2149	0	0.992992
2150	0	0.992992
2151	0	0.992992
2152	0	0.994737
2153	0	0.994737
2154	0	0.994737
2155	0	0.994737
2156	0	0.994737
2157	0	0.994737
2158	0	0.996487
2159	0	0.99649
2160	0	0.99649
2161	0	0.99649
2162	0	0.99649
2163	0	0.99649
2164	0	0.99649
2165	0	0.994746
2166	0	0.994746
2167	0	0.994746
2168	0	0.994746
2169	0	1
2170	0	1
2171	0	1
2172	0	0.333333
2173	0	0.166667
2174	0	0.1
2175	0	0.1
2176	0	0.991236
2177	0	0.991236
2178	0	1
2179	0	1
2180	0	1
2181	0	1
2182	0	1
2183	0	1
2184	0	1
2185	0	1
2186	0	1
2187	0	1
2188	0	1
2189	0	1
2190	0	0.666667
2191	0	0.666667
2192	0	0.666667
2193	0	0.266667
2194	0	0.266667
2195	0	0.266667
2196	0	0.266667
2197	0	0.266667
2198	0	0.266667
2199	0	0.266667
2200	0	0.166667
2201	0	0.166667
2202	0	0.333333
2203	0	0.333333
2204	0	0.166667
2205	0	0.133333
2206	0	0.419118
2207	0	0.203463
2208	0	0.166667
2209	0	0.252308
2210	0	0.926134
2211	0	0.886375
2212	0	0.882653
2213	0	1
2214	0	0.777778
2215	0	1
2216	0	0.777778
2217	0	0.568293
2218	0	0.477015
2219	0	0.415556
2220	0	0.389682
2221	0	0.644698
2222	0	0.737873
2223	0	0.142857
2224	0	0.0952381
2225	0	0.047619
2226	0	0.1
2227	0	0
2228	0	0
2229	0	0
2230	0	0.568533
2231	0	0
2232	0	0
2233	0	0
2234	0	0
2235	0	0
2236	0	0
2237	0	0
2238	0	0.1
2239	0	0.1
2240	0	0.1
2241	0	0.1
2242	0	0.1
2243	0	0.1
2244	0	0.3
2245	0	0.6
2246	0	0.6
2247	0	0.6
2248	0	0.6
2249	0	0.6
2250	0	0.6
2251	0	0.562771
2252	0	0.355731
2253	0	0.843333
2254	0	0.849231
2255	0	0.807882
2256	0	0.496499
2257	0	0.341375
2258	0	0.410791
2259	0	0.428734
2260	0	0.668947
2261	0	0.282759
2262	0	0.0384615
2263	0	0.0727273
2264	0	0.0727273
2265	0	0.0727273
2266	0	0.0888889
2267	0	0.0888889
2268	0	0.111111
2269	0	0.142857
2270	0	0.142857
2271	0	0.2
2272	0	0.333333
2273	0	1
2274	0	1
2275	0	1
2276	0	1
2277	0	1
2278	0	1
2279	0	1
2280	0	1
2281	0	1
2282	0	1
2283	0	0.992987
2284	0	0.994738
2285	0	0.992993
2286	0	0.992993
2287	0	0.992993
2288	0	0.992999
2289	0	0.993005
2290	0	0.993005
2291	0	0.991268
2292	0	0.989535
2293	0	0.989535
2294	0	0.989535
2295	0	0.989535
2296	0	0.987817
2297	0	0
2298	0	0.994764
2299	0	0.99476
2300	0	0.996505
2301	0	0.998252
2302	0	0.998252
2303	0	0.998252
2304	0	0.998252
2305	0	0.998252
2306	0	0.998252
2307	0	0.916667
2308	0	0.95714
2309	0	0.95714
2310	0	1
2311	0	1
2312	0	0.833992
2313	0	0.833992
2314	0	0.919177
2315	0	0.915788
2316	0	0.928571
2317	0	0.928571
2318	0	0.932398
2319	0	0.932398
2320	0	0.85755
2321	0	0.743842
2322	0	0.614919
2323	0	0.577652
2324	0	0.44808
2325	0	0.835452
2326	0	0.812255
2327	0	0.768485
2328	0	0.763093
2329	0	0.756988
2330	0	0.747372
2331	0	0.728457
2332	0	1
2333	0	1
2334	0	1
2335	0	1
2336	0	1
2337	0	1
2338	0	1
2339	0	1
2340	0	1
2341	0	1
2342	0	1
2343	0	1
2344	0	0.333333
2345	0	0.266667
2346	0	0.703808
2347	0	0.333333
2348	0	0.333333
2349	0	0
2350	0	0
2351	0	0.0666667
2352	0	0.133333
2353	0	0.575535
2354	0	0.534445
2355	0	0.405734
2356	0	0.0810622
2357	0	0.0545791
2358	0	0.318851
2359	0	0.0697279
2360	0	0.731789
2361	0	0.0647887
2362	0	0.0917538
2363	0	0.114943
2364	0	0.126437
2365	0	0.570211
2366	0	0.576376
2367	0	0.588108
2368	0	0.602896
2369	0	0.604915
2370	0	0.639577
2371	0	0.381873
2372	0	0.501505
2373	0	0.77556
2374	0	0.891684
2375	0	0.439806
2376	0	0.768676
2377	0	0.954673
2378	0	0.266667
2379	0	0.5
2380	0	0.5
2381	0	0.5
2382	0	1
2383	0	1
2384	0	1
2385	0	0.977473
2386	0	0.975783
2387	0	0.975783
2388	0	0.975783
2389	0	0.975783
2390	0	0.977493
2391	0	0.977493
2392	0	0.979205
2393	0	0.979205
2394	0	0.977512
2395	0	1
2396	0	1
2397	0	1
2398	0	1
2399	1	1
2400	1	1
2401	1	1
2402	1	1
2403	1	1
2404	1	1
2405	0	1
2406	1	1
2407	1	1
2408	1	1
2409	0	1
2410	0	1
2411	0	0.333333
2412	0	0.967216
2413	0	0.417582
2414	0	0.963789
2415	0	0.285714
2416	0	0.285714
2417	0	0.285714
2418	0	0.285714
2419	0	0.285714
2420	0	0.285714
2421	0	0
2422	0	0
2423	0	0
2424	0	0
2425	0	0
2426	0	0
2427	0	0
2428	0	0
2429	0	0
2430	0	0
2431	0	0
2432	0	0.5
2433	0	0.595715
2434	0	0.902955
2435	0	1
2436	0	0.994774
2437	0	0.994774
2438	1	1
2439	1	1
2440	1	1
2441	1	1
2442	0	1
2443	0	1
2444	0	1
2445	0	1
2446	0	1
2447	0	0.998255
2448	0	0.996513
2449	0	0.975315
2450	0	0.998249
2451	0	0.996514
2452	0	0.996517
2453	0	0.994778
2454	0	0.994778
2455	0	0.994778
2456	0	0.994774
2457	0	0.994774
2458	0	0.996511
2459	0	0
2460	0	0
2461	0	1
2462	0	1
2463	0	0.998258
2464	0	1
2465	0	1
2466	0	1
2467	0	1
2468	0	0.998258
2469	0	0
2470	0	0
2471	1	0
2472	1	0
2473	1	0
2474	1	0
2475	0	0
2476	0	0
2477	1	1
2478	1	1
2479	1	1
2480	1	1
2481	1	1
2482	1	1
2483	1	1
2484	1	1
2485	0	0.817823
2486	0	0.998258
2487	0	0.998258
2488	0	0.998258
2489	0	0.998258
2490	1	1
2491	1	1
2492	0	1
2493	0	1
2494	0	1
2495	0	1
2496	0	1
2497	0	1
2498	0	1
2499	0	1
2500	0	1
2501	0	1
2502	0	1
2503	0	1
2504	0	1
2505	0	1
2506	0	0.975838
2507	0	0.986166
2508	0	0.935648
2509	0	0.975864
2510	0	0.307692
2511	0	0.490909
2512	0	0.714286
2513	0	0.991338
2514	0	0.994798
2515	0	0.993072
2516	0	0.993072
2517	0	1
2518	0	1
2519	0	0.794872
2520	0	1
2521	0	1
2522	0	1
2523	0	1
2524	0	1
2525	0	1
2526	0	1
2527	0	0.882353
2528	0	0.784314
2529	0	0.936503
2530	0	0.931613
2531	0	0.928303
2532	0	1
2533	0	1
2534	0	1
2535	0	1
2536	0	1
2537	0	0.475
2538	0	0.475
2539	0	0.307971
2540	0	0.235507
2541	0	0.223333
2542	0	0.283688
2543	0	0.283688
2544	0	0.279255
2545	0	0.215366
2546	0	0.175486
2547	0	0.143509
2548	0	0.655496
2549	0	0.408333
2550	0	0.408333
2551	0	0.360294
2552	0	0.273684
2553	0	0.171429
2554	0	0.171429
2555	0	0.396485
2556	0	0.681516
2557	0	0.656426
2558	0	0.605735
2559	0	0.333333
2560	0	0.333333
2561	0	0.333333
2562	0	0.203408
2563	0	0.189371
2564	0	0.230798
2565	0	0.24478
2566	0	0.273399
2567	0	0.280788
2568	0	0.280788
2569	0	0.280788
2570	0	0.0755419
2571	0	0.0710383
2572	0	0.219765
2573	0	0
2574	0	0
2575	0	0.12368
2576	0	0.119155
2577	0	0.113876
2578	0	0.272414
2579	0	0.281218
2580	0	0.287503
2581	0	0.147335
2582	0	0.165079
2583	0	0.17803
2584	0	0.17803
2585	0	0.143939
2586	0	0.165517
2587	0	0.144828
2588	0	0.135484
2589	0	0.0924731
2590	0	0.0817204
2591	0	0.0735736
2592	0	0.0707317
2593	0	0.0609756
2594	0	0.0492754
2595	0	0.0541063
2596	0	0.068599
2597	0	0.0657005
2598	0	0.0663265
2599	0	0.0587808
2600	0	0.0491582
2601	0	0.0596737
2602	0	0.0509491
2603	0	0.0607843
2604	0	0.0615901
2605	0	0.129336
2606	0	0.100771
2607	0	0.1363
2608	0	0.116333
2609	0	0.112891
2610	0	0.0835713
2611	0	0.0776699
2612	0	0.0862364
2613	0	0.0819642
2614	0	0.0628503
2615	0	0.0550793
2616	0	0.0602466
2617	0	0.13428
2618	0	0.156544
2619	0	0.155969
2620	0	0.229998
2621	0	0.245203
2622	0	0.248706
2623	0	0.38151
2624	0	0.0261438
2625	0	0.0147059
2626	0	0.0454545
2627	0	0.0545455
2628	0	0.0444444
2629	0	0.107143
2630	0	0.107143
2631	0	0.1
2632	0	0.1
2633	0	0
2634	0	0
2635	0	0
2636	0	0
2637	0	0
2638	0	0
2639	0	0
2640	0	0
2641	0	0
2642	0	0
2643	0	0
2644	0	0
2645	0	0
2646	0	0
2647	0	0
2648	0	0
2649	0	0
2650	0	0
2651	0	0.4
2652	0	0.4
2653	0	0.4
2654	0	0.466667
2655	0	0.595588
2656	0	0.595588
2657	0	0.45098
2658	0	0.473684
2659	0	0.421053
2660	0	0.701754
2661	0	0.701754
2662	0	0.701754
2663	0	0.319523
2664	0	0.324444
2665	0	0.0718954
2666	0	0.0980392
2667	0	0.130719
2668	0	0.130719
2669	0	0.134503
2670	0	0.169591
2671	0	0.569728
2672	0	0.580511
2673	0	0.594313
2674	0	0.366099
2675	0	0.366705
2676	0	0.833333
2677	0	0.833333
2678	0	0.833333
2679	0	0.552072
2680	0	0.529806
2681	0	0.678788
2682	0	0.638095
2683	0	0.846154
2684	0	0.846154
2685	0	0.846154
2686	0	0.846154
2687	0	0.846154
2688	0	0.846154
2689	0	0.846154
2690	0	1
2691	0	0.821759
2692	0	0.853326
2693	0	0.857949
2694	0	0.859457
2695	0	0
2696	0	0.758031
2697	0	0.89241
2698	0	0.917907
2699	0	1
2700	0	1
2701	0	1
2702	0	1
2703	0	0.989627
2704	0	0.989627
2705	0	0.996529
2706	0	0.996535
2707	0	0.996535
2708	0	0.996535
2709	0	0.991358
2710	0	0.333333
2711	0	0.5
2712	0	0.998267
2713	0	0.998264
2714	0	0.998265
2715	0	0.998264
2716	0	0.998264
2717	0	0.672727
2718	0	0.644444
2719	0	0.466667
2720	1	1
2721	1	1
2722	1	1
2723	1	1
2724	0	0.98444
2725	0	0.940726
2726	0	0.939089
2727	0	0.935729
2728	0	0.47619
2729	0	0.714286
2730	0	0.994662
2731	0	0.996437
2732	0	0.993066
2733	0	0.629374
2734	0	0
2735	0	0
2736	0	0
2737	0	0
2738	0	0
2739	0	0
2740	0	0
2741	0	0
2742	0	0
2743	0	0
2744	0	0
2745	0	0.333333
2746	0	0.333333
2747	0	0.333333
2748	0	0.333333
2749	0	0.333333
2750	0	1
2751	1	1
2752	0	0.998262
2753	0	0.998262
2754	0	0.996529
2755	0	0.998262
2756	0	0.998262
2757	0	0.998262
2758	0	0.998262
2759	0	0.998262
2760	0	0.998262
2761	0	0.998262
2762	0	0.998261
2763	0	0.996523
2764	0	0.996532
2765	0	0.996532
2766	0	1
2767	0	1
2768	0	0.987874
2769	0	0.984453
2770	0	0.98445
2771	0	0.98445
2772	0	0.979295
2773	0	0.979277
2774	0	0.833333
2775	0	0.833333
2776	0	0.508333
2777	0	0.508333
2778	0	0.947086
2779	0	0.945346
2780	0	0.938577
2781	0	0.925212
2782	0	0.47619
2783	0	0.47619
2784	0	0.47619
2785	0	0.47619
2786	0	0.47619
2787	0	0.190476
2788	0	0.190476
2789	0	0.111111
2790	0	0.233333
2791	0	0.675818
2792	0	0.469027
2793	0	0.718185
2794	0	0.166667
2795	0	0
2796	0	0
2797	0	0
2798	0	0
2799	0	0
2800	0	0
2801	0	0.333333
2802	0	0.333333
2803	0	0.41137
2804	0	0.427966
2805	0	0.290909
2806	0	0.2
2807	0	0.166667
2808	0	0
2809	0	0
2810	0	0
2811	0	0
2812	0	0.166667
2813	0	0.1
2814	0	0.0666667
2815	0	0.409355
2816	0	0
2817	0	0
2818	0	0.17619
2819	0	0.227309
2820	0	0.588031
2821	0	0.288306
2822	0	0.392125
2823	0	0.321152
2824	0	0.477311
2825	0	0.488889
2826	0	0.583333
2827	0	0.583333
2828	0	0.583333
2829	0	0.777778
2830	0	0.692424
2831	0	0.2
2832	0	0.333333
2833	0	0.868937
2834	0	0.894113
2835	0	0.9167
2836	0	0.891628
2837	0	0.166667
2838	0	0.681132
2839	0	0.684993
2840	0	0.69322
2841	0	0.69322
2842	0	0.333333
2843	0	0.333333
2844	0	0
2845	0	0
2846	0	0
2847	0	0
2848	0	0
2849	0	0.333333
2850	0	0.333333
2851	0	0.819048
2852	0	0.753247
2853	0	0.753247
2854	0	0.687747
2855	0	0.913043
2856	0	0.884135
2857	0	0.749249
2858	0	0.644872
2859	0	0.644872
2860	0	0.706633
2861	0	0.844097
2862	0	0.855821
2863	0	0.861004
2864	0	0.907877
2865	0	0.909458
2866	0	0.854251
2867	0	0.854251
2868	0	0.860976
2869	0	0.785134
2870	0	0.916606
2871	0	0.916606
2872	0	0.91844
2873	0	0.91844
2874	0	0.920068
2875	0	0.920068
2876	0	0.99654
2877	0	0.99654
2878	0	0.99654
2879	0	0.99654
2880	0	0.99654
2881	0	0.99654
2882	0	0.99654
2883	0	0.99654
2884	0	0.99654
2885	0	0.99654
2886	0	0.99654
2887	0	0.99654
2888	0	0.994811
2889	0	0.994811
2890	0	0.333333
2891	0	0.994793
2892	0	1
2893	0	1
2894	0	0.984528
2895	0	0.984528
2896	0	0.984528
2897	0	0.611111
2898	0	0.99654
2899	0	0.99654
2900	0	0.99654
2901	0	0.998267
2902	0	1
2903	0	1
2904	1	1
2905	1	1
2906	1	1
2907	1	1
2908	1	1
2909	1	1
2910	1	1
2911	1	1
2912	1	1
2913	1	1
2914	1	1
2915	1	1
2916	1	1
2917	1	1
2918	1	1
2919	1	1
2920	1	1
2921	0	1
2922	1	1
2923	0	0.998268
2924	0	0.998268
2925	0	0.998268
2926	0	0.998268
2927	0	0.996541
2928	0	0.99827
2929	0	0
2930	0	0.994814
2931	1	0
2932	1	0
2933	1	0
2934	1	0
2935	1	0
2936	1	0
2937	1	0
2938	1	0
2939	1	0
2940	1	0
2941	1	0
2942	1	0
2943	1	0
2944	1	0
2945	1	0
2946	1	0
2947	1	0
2948	1	0
2949	0	0
2950	0	0.99827
2951	0	0.99827
2952	0	0.99827
2953	0	0.99827
2954	0	0.99827
2955	0	0.99827
2956	0	1
2957	0	0
2958	0	0.993095
2959	0	0.994819
2960	0	0.994819
2961	0	0.994819
2962	0	0.996544
2963	0	0.996544
2964	0	0.996544
2965	0	0.996544
2966	1	0
2967	1	0
2968	1	0
2969	1	0
2970	0	0
2971	0	0
2972	0	0
2973	0	0
2974	0	0
2975	0	0
2976	1	1
2977	1	1
2978	1	1
2979	1	1
2980	1	1
2981	0	1
2982	0	1
2983	1	1
2984	1	1
2985	1	1
2986	1	1
2987	1	1
2988	0	1
2989	0	1
2990	0	1
2991	0	1
2992	0	0.333333
2993	0	0.166667
2994	0	0.166667
2995	0	0.166667
2996	0	0.1
2997	0	0.1
2998	0	0.987891
2999	0	0.986168
3000	0	0.98612
3001	0	0.980505
3002	0	0
3003	0	0.944745
3004	0	0.931624
3005	0	0.931624
3006	0	0.870851
3007	0	0.84883
3008	0	0.746169
3009	0	0.384615
3010	0	0.777778
3011	0	1
3012	0	0.9724
3013	0	0.9793
3014	0	0.979318
3015	0	0.982745
3016	0	0.982745
3017	0	0.982745
3018	0	1
3019	0	0.998265
3020	0	0.998265
3021	0	0.99481
3022	0	0.99481
3023	0	0.99481
3024	0	0.99481
3025	0	0.99481
3026	0	0.986192
3027	0	0
3028	0	0.333333
3029	0	0.979344
3030	0	0.583333
3031	0	0.969112
3032	0	0.970815
3033	0	0.972475
3034	0	0
3035	0	0.97252
3036	0	0
3037	0	0
3038	0	0
3039	0	0
3040	0	0.977612
3041	0	1
3042	0	1
3043	1	1
3044	1	1
3045	1	1
3046	1	1
3047	0	1
3048	1	1
3049	1	1
3050	0	0.998271
3051	0	0.99827
3052	0	0.99827
3053	0	1
3054	0	0.926649
3055	0	0.926584
3056	0	0.998268
3057	0	0.998268
3058	0	0.998268
3059	0	0.998268
3060	0	0.998268
3061	0	0.998268
3062	0	0.989633
3063	0	0.941176
3064	0	0.599948
3065	0	0.738991
3066	0	0.248106
3067	0	0.888245
3068	0	0.813636
3069	0	0.775591
3070	0	0.837223
3071	0	0.666667
3072	0	0
3073	0	0.759735
3074	0	0.764941
3075	0	0.930741
3076	0	0.560054
3077	0	0.871264
3078	0	1
3079	0	1
3080	0	0.998265
3081	0	0.998265
3082	0	0.998265
3083	0	0.998265
3084	1	1
3085	1	1
3086	0	1
3087	0	1
3088	1	1
3089	1	1
3090	0	0.998267
3091	0	0.998265
3092	0	0.998265
3093	0	0.998265
3094	0	0.998265
3095	0	0.998265
3096	0	0.998264
3097	0	0.996532
3098	0	1
3099	0	1
3100	0	1
3101	0	1
3102	0	1
3103	0	1
3104	0	1
3105	0	1
3106	0	1
3107	0	1
3108	0	0.989619
3109	0	0.989619
3110	0	0.989511
3111	0	0.989511
3112	0	0.969111
3113	0	0.969111
3114	0	0.5
3115	0	0.5
3116	0	0.968956
3117	0	0.875
3118	0	0.875
3119	0	0.875
3120	0	0.875
3121	0	0.875
3122	0	0.772059
3123	0	0.772059
3124	0	0.464634
3125	0	0.901261
3126	0	0.316735
3127	0	0.257143
3128	0	0.819454
3129	0	0.145455
3130	0	0.145455
3131	0	0.841622
3132	0	0.166667
3133	0	0.163636
3134	0	0.2
3135	0	0.2
3136	0	0.2
3137	0	0.181818
3138	0	0.0909091
3139	0	0.0727273
3140	0	0.831752
3141	0	0.816021
3142	0	0.681818
3143	0	0.604396
3144	0	0.604396
3145	0	0.705128
3146	0	0.705128
3147	0	0.409357
3148	0	0.409357
3149	0	0.314286
3150	0	0.264822
3151	0	0.278986
3152	0	0.26
3153	0	0.81948
3154	0	0.126263
3155	0	0.830284
3156	0	0.823113
3157	0	0.823096
3158	0	0.392857
3159	0	0.178571
3160	0	0.110294
3161	0	0.0666667
3162	0	0.694779
3163	0	0.636833
3164	0	0
3165	0	0
3166	0	0
3167	0	0.333333
3168	0	0.2
3169	0	0.2
3170	0	0.678406
3171	0	0.368637
3172	0	0.0584795
3173	0	0.0935673
3174	0	0.117647
3175	0	0.0735294
3176	0	0.0808824
3177	0	0.111111
3178	0	0.626265
3179	0	0.610532
3180	0	0.0441176
3181	0	0.670134
3182	0	0.322689
3183	0	0
3184	0	0
3185	0	0
3186	0	0
3187	0	0.166667
3188	0	0.166667
3189	0	0.32605
3190	0	0.32437
3191	0	0.327731
3192	0	0.0757576
3193	0	0.0606061
3194	0	0.0606061
3195	0	0.0606061
3196	0	0.306191
3197	0	0.445455
3198	0	0.299412
3199	0	0.208903
3200	0	0.0833333
3201	0	0.0833333
3202	0	0.0833333
3203	0	0.142857
3204	0	0.142857
3205	0	0.250877
3206	0	0.214286
3207	0	0.155556
3208	0	0.194444
3209	0	0.194444
3210	0	0.194444
3211	0	0.166667
3212	0	0.214286
3213	0	0.214286
3214	0	0.214286
3215	0	0.25
3216	0	0.107143
3217	0	0.138889
3218	0	0.133333
3219	0	0.133333
3220	0	0.305556
3221	0	0.166667
3222	0	0.166667
3223	0	0.2
3224	0	0.266667
3225	0	0.190476
3226	0	0.845135
3227	0	0.313988
3228	0	0.843118
3229	0	0.285714
3230	0	0.285714
3231	0	0.285714
3232	0	0.285714
3233	0	0.285714
3234	0	0.285714
3235	0	0.285714
3236	0	0.285714
3237	0	0.285714
3238	0	0.285714
3239	0	0.285714
3240	0	0.82137
3241	0	0.818443
3242	0	0.820977
3243	0	0.142857
3244	0	0.142857
3245	0	0.142857
3246	0	0.107143
3247	0	0.285714
3248	0	0.357143
3249	0	0.357143
3250	0	0.47619
3251	0	0.834273
3252	0	0.5338
3253	0	0.833339
3254	0	0.83481
3255	0	0.39096
3256	0	0.833205
3257	0	0.830442
3258	0	0.831884
3259	0	0
3260	0	0
3261	0	0
3262	0	0
3263	0	0.83066
3264	0	0.939394
3265	0	0.788889
3266	0	0.889943
3267	0	0.357143
3268	0	0.52381
3269	0	0.392857
3270	0	0.444444
3271	0	0.444444
3272	0	0.4
3273	0	0.900269
3274	0	0.900269
3275	0	0.898707
3276	0	0.924585
3277	0	0.924585
3278	0	0.986132
3279	0	0.981028
3280	0	0.982734
3281	0	0.982734
3282	0	1
3283	0	1
3284	0	1
3285	0	1
3286	0	1
3287	0	0.994796
3288	0	0.994796
3289	0	0.994796
3290	0	0.166667
3291	0	0.994793
3292	0	0.994793
3293	0	0.994793
3294	0	0.996523
3295	0	0.996523
3296	0	0.994792
3297	0	0.993065
3298	0	0.994787
3299	0	0
3300	0	0
3301	0	0
3302	0	0
3303	0	0
3304	0	0
3305	0	0
3306	0	0
3307	0	0
3308	0	0
3309	0	0
3310	0	0
3311	0	0
3312	0	0
3313	0	0.944171
3314	0	0.991351
3315	0	0.993077
3316	0	0.993077
3317	0	0.994801
3318	0	0.996532
3319	0	0.996532
3320	0	0.996532
3321	0	1
3322	0	1
3323	0	1
3324	0	1
3325	0	0.527665
3326	0	0.501282
3327	0	0.927422
3328	0	0.4
3329	0	1
3330	0	1
3331	0	1
3332	0	1
3333	0	1
3334	0	1
3335	0	1
3336	0	1
3337	0	1
3338	0	1
3339	0	1
3340	0	1
3341	0	1
3342	0	1
3343	0	1
3344	0	1
3345	0	1
3346	0	1
3347	0	1
3348	0	1
3349	0	0.333333
3350	0	0.333333
3351	0	0.333333
3352	0	0.333333
3353	0	0.333333
3354	0	0.333333
3355	0	0.333333
3356	0	0.333333
3357	0	0.2
3358	0	0.2
3359	0	0.920761
3360	0	0.917518
3361	0	0.901479
3362	0	0.71557
3363	0	0.717038
3364	0	0.274603
3365	0	0.196667
3366	0	0.204678
3367	0	0.146199
3368	0	0.176471
3369	0	0.2
3370	0	0.161765
3371	0	0.111111
3372	0	0.111111
3373	0	0.0877193
3374	0	0.0877193
3375	0	0.0994152
3376	0	0.0857143
3377	0	0.594226
3378	0	0.567926
3379	0	0.510867
3380	0	0.469188
3381	0	0.458003
3382	0	0.438871
3383	0	0.643424
3384	0	0.635391
3385	0	0.533235
3386	0	0.537318
3387	0	0.806957
3388	0	0.81737
3389	0	0.82765
3390	0	0.827566
3391	0	0.838384
3392	0	0.850352
3393	0	0.839212
3394	0	0.839212
3395	0	0.839129
3396	0	0.839129
3397	0	0.839464
3398	0	0.850437
3399	0	0.850098
3400	0	0.861197
3401	0	0.88489
3402	0	0.88489
3403	0	0.896689
3404	0	0.933352
3405	0	0.945772
3406	0	0.705128
3407	0	0.705128
3408	0	0.654545
3409	0	0.622222
3410	0	0.583333
3411	0	0.583333
3412	0	0.583333
3413	0	0.583333
3414	0	0.583333
3415	0	0.583333
3416	0	0.583333
3417	0	0.583333
3418	0	0.583333
3419	0	0.678857
3420	0	0.566918
3421	0	0.196781
3422	0	0.145797
3423	0	0.290339
3424	0	0.488809
3425	0	0.353921
3426	0	0.343049
3427	0	0.33789
3428	0	0.346776
3429	0	0.147321
3430	0	0.146329
3431	0	0.138393
3432	0	0.135417
3433	0	0.145929
3434	0	0.135689
3435	0	0.140666
3436	0	0.157706
3437	0	0.152074
3438	0	0.210445
3439	0	0.207885
3440	0	0.201389
3441	0	0.298473
3442	0	0.294243
3443	0	0.744796
3444	0	0.0181818
3445	0	0.0454545
3446	0	0.0444444
3447	0	0.0555556
3448	0	0.0555556
3449	0	0.0714286
3450	0	0.0555556
3451	0	0.0555556
3452	0	0.0444444
3453	0	0.0444444
3454	0	0.0151515
3455	0	0
3456	0	0
3457	0	0
3458	0	0.321008
3459	0	0.32605
3460	0	0.32605
3461	0	0.27939
3462	0	0.27044
3463	0	0.253247
3464	0	0.462366
3465	0	0.470968
3466	0	0.470968
3467	0	0.475269
3468	0	0.381513
3469	0	0.389916
3470	0	0.664006
3471	0	0.646275
3472	0	0.634384
3473	0	0.845857
3474	0	0.860573
3475	0	0.939268
3476	0	0.939997
3477	0	0.987879
3478	0	1
3479	0	1
3480	0	0.967096
3481	0	0.989189
3482	0	1
3483	0	0.998262
3484	0	1
3485	0	1
3486	0	1
3487	0	1
3488	0	1
3489	0	1
3490	0	0.998265
3491	0	0.998265
3492	0	0.998265
3493	0	0.998265
3494	0	0.998265
3495	0	0.998265
3496	0	0.998265
3497	0	0.998265
3498	0	0.998265
3499	0	0.996514
3500	0	0.989606
3501	0	0.987888
3502	0	0.987888
3503	0	0.987888
3504	0	0.987877
3505	0	1
3506	0	1
3507	0	1
3508	0	1
3509	0	0.717949
3510	0	0.717949
3511	0	0.615385
3512	0	0.615385
3513	0	0.37
3514	0	0.280952
3515	0	0.25641
3516	0	0.25
3517	0	0.599379
3518	0	0.544305
3519	0	0.378185
3520	0	0.332533
3521	0	0.256063
3522	0	0.385324
3523	0	0.75
3524	0	0.619459
3525	0	0.631242
3526	0	0.583333
3527	0	1
3528	0	1
3529	0	1
3530	0	1
3531	0	1
3532	0	0
3533	0	0
3534	0	0.649896
3535	0	0.652199
3536	0	0.63361
3537	0	0.600221
3538	0	0.467582
3539	0	0.102564
3540	0	0.0911681
3541	0	0
3542	0	0.0923077
3543	0	0.145941
3544	0	0.10697
3545	0	0.114153
3546	0	0.313561
3547	0	0.122222
3548	0	0.155556
3549	0	0.166667
3550	0	0.163492
3551	0	0.291626
3552	0	0.124138
3553	0	0.160099
3554	0	0.160099
3555	0	0.160099
3556	0	0.396034
3557	0	0.817654
3558	0	0.69281
3559	0	0.666667
3560	0	0.4
3561	0	0.5
3562	0	0.5
3563	0	0.5
3564	0	0.327273
3565	0	0.230769
3566	0	0.205128
3567	0	0.192982
3568	0	0.16
3569	0	0.131048
3570	0	0.124138
3571	0	0.139496
3572	0	0.132132
3573	0	0.1621
3574	0	0.564348
3575	0	0.145614
3576	0	0.161433
3577	0	0.183071
3578	0	0.118812
3579	0	0.180107
3580	0	0.142297
3581	0	0.193872
3582	0	0.242632
3583	0	0.208169
3584	0	0.348822
3585	0	0.302326
3586	0	0.307782
3587	0	0.317139
3588	0	0.261952
3589	0	0.227842
3590	0	0.24016
3591	0	0.243067
3592	0	0.339636
3593	0	0.44754
3594	0	0.195169
3595	0	0.348485
3596	0	0.359848
3597	0	0.429885
3598	0	0.360071
3599	0	0.360071
3600	0	0.290323
3601	0	0.70805
3602	0	0.704661
3603	0	0.675991
3604	0	0.175385
3605	0	0.189247
3606	0	0.158978
3607	0	0.213509
3608	0	0.254605
3609	0	0.148551
3610	0	0.635123
3611	0	0.757398
3612	0	0.333333
3613	0	0.928116
3614	0	0.190476
3615	0	0.321429
3616	0	0.321429
3617	0	0.321429
3618	0	0.321429
3619	0	0.321429
3620	0	0.346657
3621	0	0.142857
3622	0	0.2
3623	0	0.3
3624	0	0.3
3625	0	0.47619
3626	0	0.52381
3627	0	0.52381
3628	0	0.52381
3629	0	0.4
3630	0	0.361111
3631	0	0.361111
3632	0	0.851518
3633	0	0.461945
3634	0	0.645877
3635	0	0.64482
3636	0	0.910148
3637	0	0.945009
3638	0	0.948406
3639	0	0.955204
3640	0	0.956911
3641	0	0.956912
3642	0	0.956912
3643	0	0.956911
3644	0	0.956911
3645	0	0.960264
3646	0	0
3647	0	0.166667
3648	0	0.166667
3649	0	0.333333
3650	0	0.333333
3651	0	0.960271
3652	0	0.960269
3653	0	0.960271
3654	0	0.958591
3655	0	0.958626
3656	0	0.956952
3657	0	0.95864
3658	0	0.956967
3659	0	0.956967
3660	0	0.950078
3661	0	0
3662	0	0
3663	0	0
3664	0	0
3665	0	0
3666	0	0
3667	0	0
3668	0	0
3669	0	0
3670	0	0
3671	0	0
3672	1	1
3673	0	0.333333
3674	0	0.333333
3675	0	0.333333
3676	0	0.333333
3677	0	0.333333
3678	0	0.166667
3679	0	0.960198
3680	0	0.956839
3681	0	0.958481
3682	0	0.958516
3683	0	0.956802
3684	0	0.470588
3685	0	0.936275
3686	0	0.915346
3687	0	0.333333
3688	0	0.333333
3689	0	0.575758
3690	0	0.591119
3691	0	0.834798
3692	0	0.834918
3693	0	0.835647
3694	0	0.509524
3695	0	0.563158
3696	0	0.333333
3697	0	1
3698	0	1
3699	0	0
3700	0	0
3701	0	0
3702	0	0
3703	0	0
3704	0	0
3705	0	0
3706	0	0
3707	0	0
3708	0	0
3709	0	0
3710	0	0
3711	0	0
3712	0	0
3713	0	0
3714	0	0
3715	0	0
3716	0	0
3717	0	0
3718	0	0
3719	0	0
3720	0	0
3721	0	0.803819
3722	0	0.796667
3723	0	0.791752
3724	0	0.790323
3725	0	0.78244
3726	0	0.776808
3727	0	0.770562
3728	0	0
3729	0	0
3730	0	0
3731	0	0
3732	0	0
3733	0	0
3734	0	0
3735	0	0.166667
3736	0	0.754941
3737	0	0.606839
3738	0	0.638144
3739	0	0.742857
3740	0	0.742857
3741	0	0.742857
3742	0	0.654545
3743	0	0.654545
3744	0	0.654545
3745	0	0.545455
3746	0	0.545455
3747	0	0.461538
3748	0	0.461538
3749	0	0.461538
3750	0	0.277778
3751	0	0.447561
3752	0	0.512276
3753	0	0.503655
3754	0	0.494263
3755	0	0.6
3756	0	0.6
3757	0	0.6
3758	0	0.6
3759	0	0.544507
3760	0	0.244444
3761	0	0.277778
3762	0	0.357143
3763	0	0.285714
3764	0	0.166667
3765	0	0.166667
3766	0	0.166667
3767	0	0.166667
3768	0	0
3769	0	0
3770	0	0
3771	0	0
3772	0	0.305907
3773	0	0
3774	0	0
3775	0	0
3776	0	0
3777	0	0.518006
3778	0	0
3779	0	0
3780	0	0
3781	0	0
3782	0	0
3783	0	0
3784	0	0
3785	0	0
3786	0	0
3787	0	0
3788	0	0
3789	0	0
3790	0	0
3791	0	0
3792	0	0
3793	0	0
3794	0	0
3795	0	0
3796	0	0
3797	0	0
3798	0	0
3799	0	0
3800	0	0
3801	0	0
3802	0	0
3803	0	0
3804	0	0
3805	0	0
3806	0	0
3807	0	0.336049
3808	0	0.319798
3809	0	0.0512821
3810	0	0.0512821
3811	0	0.05
3812	0	0.277062
3813	0	0.328518
3814	0	0.332128
3815	0	0
3816	0	0
3817	0	0
3818	0	0
3819	0	0
3820	0	0
3821	0	0
3822	0	0
3823	0	0
3824	0	0
3825	0	0
3826	0	0
3827	0	0
3828	0	0
3829	0	0
3830	0	0
3831	0	0
3832	0	0
3833	0	0
3834	0	0
3835	0	0
3836	0	0
3837	0	0
3838	0	0
3839	0	0
3840	0	0
3841	0	0
3842	0	0
3843	0	0
3844	0	0
3845	0	0
3846	0	0
3847	0	0
3848	0	0
3849	0	0
3850	0	0
3851	0	0
3852	0	0
3853	0	0
3854	0	0
3855	0	0
3856	0	0
3857	0	0
3858	0	0
3859	0	0
3860	0	0
3861	0	0
3862	0	0
3863	0	0
3864	0	0
3865	0	0
3866	0	0
3867	0	0
3868	0	0
3869	0	0
3870	0	0
3871	0	0
3872	0	0
3873	0	0
3874	0	0
3875	0	0
3876	0	0
3877	0	0
3878	0	0
3879	0	0
3880	0	0
3881	0	0
3882	0	0
3883	0	0
3884	0	0
3885	0	0
3886	0	0
3887	0	0
3888	0	0
3889	0	0
3890	0	0
3891	0	0
3892	0	0
3893	0	0
3894	0	0
3895	0	0
3896	0	0
3897	0	0
3898	0	0
3899	0	0
3900	0	0
3901	0	0
3902	0	0
3903	0	0
3904	0	0
3905	0	0
3906	0	0
3907	0	0
3908	0	0
3909	0	0
3910	0	0
3911	0	0
3912	0	0
3913	0	0
3914	0	0
3915	0	0
3916	0	0
3917	0	0
3918	0	0
3919	0	0
3920	0	0
3921	0	0
3922	0	0
3923	0	0
3924	0	0
3925	0	0
3926	0	0
3927	0	0
3928	0	0
3929	0	0
3930	0	0
3931	0	0
3932	0	0
3933	0	0
3934	0	0
3935	0	0
3936	0	0
3937	0	0
3938	0	0
3939	0	0
3940	0	0
3941	0	0
3942	0	0
3943	0	0
3944	0	0
3945	0	0
3946	0	0
3947	0	0
3948	0	0
3949	0	0
3950	0	0
3951	0	0
3952	0	0
3953	0	0
3954	0	0
3955	0	0
3956	0	0
3957	0	0
3958	0	0
3959	0	0
3960	0	0
3961	0	0
3962	0	0
3963	0	0
3964	0	0
3965	0	0
3966	0	0
3967	0	0
3968	0	0
3969	0	0
3970	0	0
3971	0	0
3972	0	0
3973	0	0
3974	1	0
3975	1	0
3976	1	0
3977	1	0
3978	1	0
3979	0	0
3980	0	0
3981	0	0
3982	0	0
3983	0	0
3984	0	0
3985	0	0
3986	0	0
3987	0	0
3988	0	0
3989	0	0
3990	1	0
3991	1	0
3992	1	0
3993	1	0
3994	1	0
3995	1	0
3996	1	0
3997	1	0
3998	1	0
3999	1	0
4000	1	0
4001	1	0
4002	0	0
4003	0	0
4004	0	0
4005	0	0
4006	0	0
4007	0	0
4008	0	0
4009	0	0
4010	0	0
4011	0	0
4012	0	0
4013	0	0
4014	0	0
4015	0	0
4016	0	0
4017	0	0
4018	0	0
4019	0	0
4020	0	0
4021	0	0
4022	0	0
4023	0	0
4024	0	0
4025	0	0
4026	0	0
4027	0	0
4028	0	0
4029	0	0
4030	0	0
4031	0	0
4032	0	0
4033	0	0
4034	0	0
4035	0	0
4036	0	0
4037	0	0
4038	0	0
4039	0	0
4040	0	0
4041	0	0
4042	1	0
4043	1	0
4044	1	0
4045	1	0
4046	1	0
4047	1	0
4048	1	0
4049	1	0
4050	0	0
4051	0	0
4052	0	0
4053	0	0
4054	0	0
4055	0	0
4056	0	0
4057	0	0
4058	0	0.736941
4059	0	0.802669
4060	0	0.837996
4061	0	0.705048
4062	0	0.860935
4063	0	0.797702
4064	0	1
4065	0	0.882353
4066	0	0.779412
4067	0	0.804378
4068	0	0.690644
4069	0	0.373276
4070	0	0.302337
4071	0	0.250518
4072	0	0.244554
4073	0	0.211169
4074	0	0.388365
4075	0	0.1201
4076	0	0.16397
4077	0	0.144645
4078	0	0.24163
4079	0	0.251156
4080	0	0.255435
4081	0	0.279339
4082	0	0.228986
4083	0	0.213652
4084	0	0.419326
4085	0	0.456259
4086	0	0.371553
4087	0	0.234181
4088	0	0.187511
4089	0	0.183305
4090	0	0.170493
4091	0	0.154026
4092	0	0.123383
4093	0	0.102449
4094	0	0.115819
4095	0	0.0826439
4096	0	0.0804462
4097	0	0.07833
4098	0	0.0705549
4099	0	0.0678444
4100	0	0.082733
4101	0	0.0741566
4102	0	0.0440657
4103	0	0.0716049
4104	0	0.0688388
4105	0	0.0394719
4106	0	0.0394243
4107	0	0.0374768
4108	0	0.100601
4109	0	0.122995
4110	0	0.100379
4111	0	0.0660661
4112	0	0.0615616
4113	0	0.0602564
4114	0	0.0530428
4115	0	0.0482917
4116	0	0.0481602
4117	0	0.0541678
4118	0	0.0663225
4119	0	0.0518244
4120	0	0.0598911
4121	0	0.0645363
4122	0	0.0701754
4123	0	0.0701754
4124	0	0.0618136
4125	0	0.0611387
4126	0	0.0768811
4127	0	0.0947915
4128	0	0.140827
4129	0	0.179108
4130	0	0.171418
4131	0	0.106203
4132	0	0.111289
4133	0	0.187702
4134	0	0.19641
4135	0	0.211725
4136	0	0.242671
4137	0	0
4138	0	0
4139	0	0
4140	0	0
4141	0	0
4142	0	0
4143	0	0
4144	0	0.173169
4145	0	0.59071
4146	0	0.593785
4147	0	0.755443
4148	0	0.782805
4149	0	0.814118
4150	0	0.880102
4151	0	0.880102
4152	0	0.880102
4153	0	0.880102
4154	0	0.917553
4155	0	0.28537
4156	0	0.297796
4157	0	0.283333
4158	0	0.420448
4159	0	0.700455
4160	0	0.70643
4161	0	0.325
4162	0	0.371429
4163	0	0.380952
4164	0	0.316407
4165	0	0.199728
4166	0	0.189882
4167	0	0.175945
4168	0	0.176493
4169	0	0.151117
4170	0	0.187199
4171	0	0.176395
4172	0	0.189161
4173	0	0.175313
4174	0	0.235705
4175	0	0.499776
4176	0	0.239258
4177	0	0.532005
4178	0	0.536738
4179	0	0.469875
4180	0	0.476891
4181	0	0.466547
4182	0	0
4183	0	0
4184	0	0
4185	0	0
4186	0	0
4187	0	0.333333
4188	0	0.572062
4189	0	0.595283
4190	0	0.583631
4191	0	0.649635
4192	0	0.612676
4193	0	0.615023
4194	0	0.630181
4195	0	0.565303
4196	0	0.495495
4197	0	0.495495
4198	0	0.447619
4199	0	0.266667
4200	0	0.333333
4201	0	0.333333
4202	0	0.714286
4203	0	0.67565
4204	0	0.675942
4205	0	0.683103
4206	0	0.0784314
4207	0	0.0653595
4208	0	0.124183
4209	0	0.116959
4210	0	0.128655
4211	0	0.695608
4212	0	0.53661
4213	0	0.64418
4214	0	0.367816
4215	0	0.667908
4216	0	0.666657
4217	0	0.719708
4218	0	0.702281
4219	0	0.723929
4220	0	0.723938
4221	0	0.5633
4222	0	0.777778
4223	0	0
4224	0	0
4225	0	0
4226	0	0
4227	1	0
4228	1	0
4229	1	0
4230	1	0
4231	1	0
4232	1	0
4233	1	0
4234	1	0
4235	0	0
4236	0	0
4237	1	0
4238	1	0
4239	0	0
4240	0	0
4241	0	0
4242	0	0
4243	0	0
4244	0	0
4245	0	0
4246	0	0
4247	0	0
4248	0	0
4249	0	0
4250	0	0
4251	0	0
4252	0	0
4253	0	0
4254	0	0
4255	0	0
4256	0	0
4257	0	0
4258	0	0
4259	0	0
4260	0	0
4261	0	0
4262	0	0
4263	0	0
4264	0	0
4265	0	0
4266	0	0
4267	0	0
4268	0	0
4269	0	0
4270	0	0
4271	0	0
4272	0	0
4273	0	0
4274	0	0
4275	0	0
4276	0	0
4277	1	0
4278	0	0.69686
4279	0	0.309524
4280	0	0.319048
4281	0	0.255411
4282	0	0.255411
4283	0	0.84233
4284	0	0.84347
4285	0	0.84347
4286	0	0.916809
4287	0	0.918554
4288	0	0.916948
4289	0	0.916878
4290	0	0.570825
4291	0	0.593577
4292	0	0.5625
4293	0	0.333333
4294	0	0.333333
4295	0	0.333333
4296	0	0.946524
4297	0	0.946524
4298	0	0.941423
4299	0	0.941423
4300	0	0
4301	0	0
4302	0	0
4303	0	0
4304	0	0
4305	0	0
4306	0	0
4307	0	0
4308	0	0
4309	0	0
4310	0	0
4311	0	0.939617
4312	0	0.438095
4313	0	0.90674
4314	0	0.905205
4315	0	0.906819
4316	0	0.906815
4317	0	0.910151
4318	0	0.450932
4319	0	0.774903
4320	0	0.574929
4321	0	0.563116
4322	0	0.562929
4323	0	0.413415
4324	0	0.915402
4325	0	0
4326	0	0
4327	0	0
4328	0	0.896263
4329	0	0.897824
4330	0	0.924703
4331	0	0
4332	0	0
4333	0	0
4334	1	0
4335	1	0
4336	1	0
4337	1	0
4338	1	0
4339	1	0
4340	1	0
4341	1	0
4342	1	0
4343	1	0
4344	1	0
4345	1	0
4346	1	0
4347	1	0
4348	1	0
4349	1	0
4350	1	0
4351	1	0
4352	1	0
4353	1	0
4354	1	0
4355	1	0
4356	1	0
4357	1	0
4358	1	0
4359	1	0
4360	1	0
4361	1	0
4362	1	0
4363	1	0
4364	1	0
4365	1	0
4366	1	0
4367	1	0
4368	1	0
4369	1	0
4370	1	0
4371	1	0
4372	1	0
4373	1	0
4374	1	0
4375	1	0
4376	1	0
4377	1	0
4378	1	0
4379	1	0
4380	1	0
4381	1	0
4382	0	0
4383	0	0.973338
4384	0	0.934956
4385	0	0.934956
4386	0	0.939888
4387	0	0.1
4388	0	0.975038
4389	0	0.974993
4390	0	0
4391	0	0
4392	0	0
4393	0	0
4394	0	0
4395	0	0.971246
4396	0	0.971246
4397	0	0.965812
4398	0	0.111111
4399	0	0.976705
4400	0	0.97668
4401	0	0.9746
4402	0	0
4403	0	0
4404	0	0
4405	0	0
4406	0	0
4407	0	0
4408	0	0
4409	0	0
4410	0	0
4411	0	0
4412	0	0
4413	0	0
4414	0	0
4415	0	0
4416	0	0
4417	0	0
4418	0	0
4419	0	0
4420	0	0
4421	0	0
4422	0	0
4423	0	0
4424	1	0
4425	1	0
4426	1	0
4427	1	0
4428	1	0
4429	1	0
4430	1	0
4431	1	0
4432	1	0
4433	1	0
4434	1	0
4435	1	0
4436	1	0
4437	1	0
4438	1	0
4439	1	0
4440	1	0
4441	1	0
4442	1	0
4443	1	0
4444	1	0
4445	1	0
4446	1	0
4447	1	0
4448	1	0
4449	1	0
4450	1	0
4451	1	0
4452	1	0
4453	1	0
4454	1	0
4455	1	0
4456	1	0
4457	1	0
4458	1	0
4459	1	0
4460	1	0
4461	1	0
4462	1	0
4463	1	0
4464	1	0
4465	1	0
4466	1	0
4467	1	0
4468	1	0
4469	1	0
4470	1	0
4471	1	0
4472	1	0
4473	1	0
4474	1	0
4475	1	0
4476	1	0
4477	1	0
4478	1	0
4479	1	0
4480	1	0
4481	1	0
4482	1	0
4483	1	0
4484	1	0
4485	1	0
4486	1	0
4487	1	0
4488	0	0.956156
4489	0	0.95611
4490	0	0.772059
4491	0	0.772059
4492	0	0.69281
4493	0	0.563158
4494	0	0
4495	0	0
4496	0	0
4497	0	0.288538
4498	0	0.288538
4499	0	0.264493
4500	0	0.189247
4501	0	0.915328
4502	0	0.915036
4503	0	0.707366
4504	0	0.582342
4505	0	0.403218
4506	0	0.37962
4507	0	0.384034
4508	0	0.506918
4509	0	0
4510	0	0
4511	0	0
4512	0	0
4513	0	0
4514	0	0
4515	0	0.214286
4516	0	0.142857
4517	0	0
4518	0	0
4519	0	0
4520	0	0
4521	0	0
4522	0	0
4523	0	0
4524	0	0
4525	0	0
4526	0	0.047619
4527	0	0.384118
4528	0	0.382245
4529	0	0.380993
4530	0	0.6
4531	0	0.5
4532	0	0.5
4533	0	0.657258
4534	0	0.654545
4535	0	0.545455
4536	0	0.545455
4537	0	0.545455
4538	0	0.545455
4539	0	0.371429
4540	0	0.27451
4541	0	0.733307
4542	0	0.719845
4543	0	0.472039
4544	0	0.535191
4545	0	0.187013
4546	0	0
4547	0	0
4548	0	0
4549	0	0
4550	0	0
4551	0	0
4552	0	0
4553	0	0
4554	0	0
4555	0	0
4556	0	0
4557	0	0
4558	0	0
4559	0	0
4560	0	0.268415
4561	0	0.623423
4562	0	0.315152
4563	0	0.262495
4564	0	0.249123
4565	0	0.338756
4566	0	0.236139
4567	0	0.231173
4568	0	0.229663
4569	0	0.29551
4570	0	0.32288
4571	0	0.312195
4572	0	0.18786
4573	0	0.175494
4574	0	0.363025
4575	0	0.24183
4576	0	0.150327
4577	0	0.0897436
4578	0	0.448721
4579	0	0.577435
4580	0	0.0857143
4581	0	0.0989011
4582	0	0.0989011
4583	0	0.0222222
4584	0	0.0222222
4585	0	0.227273
4586	0	0.17581
4587	0	0.341435
4588	0	0.394505
4589	0	0.1417
4590	0	0.142857
4591	0	0.140377
4592	0	0.170543
4593	0	0.151584
4594	0	0.140461
4595	0	0.169712
4596	0	0.171635
4597	0	0.147319
4598	0	0.14138
4599	0	0.137056
4600	0	0.106523
4601	0	0
4602	0	0
4603	0	0
4604	0	0.047619
4605	0	0.047619
4606	0	0.0357143
4607	0	0.0714286
4608	0	0.0357143
4609	0	0.047619
4610	0	0.047619
4611	0	0.0357143
4612	0	0
4613	0	0
4614	0	0
4615	0	0.0998713
4616	0	0.105798
4617	0	0.222222
4618	0	0.222222
4619	0	0.222222
4620	0	0.222222
4621	0	0.222222
4622	0	0
4623	0	0
4624	0	0.107143
4625	0	0.107143
4626	0	0.107143
4627	0	0.107143
4628	0	0.107143
4629	0	0.107143
4630	0	0.107143
4631	0	0.107143
4632	0	0.107143
4633	0	0.107143
4634	0	0.510582
4635	0	0.1009
4636	0	0.0606061
4637	0	0.0606061
4638	0	0.0606061
4639	0	0.0606061
4640	0	0.0606061
4641	0	0.0588235
4642	0	0.0457516
4643	0	0.0631579
4644	0	0.0619048
4645	0	0.195062
4646	0	0.179289
4647	0	0.0591123
4648	0	0.0518585
4649	0	0.0462375
4650	0	0.0466983
4651	0	0.2
4652	0	0.2
4653	0	0.2
4654	0	0.2
4655	0	0.2
4656	0	0.2
4657	0	0.2
4658	0	0.2
4659	0	0.2
4660	0	0.2
4661	0	0.0815961
4662	0	0.075796
4663	0	0.0724334
4664	0	0.0650407
4665	0	0.0621951
4666	0	0.0615769
4667	0	0.0489301
4668	0	0.0501772
4669	0	0.0538969
4670	0	0.0504994
4671	0	0.0449612
4672	0	0.0404774
4673	0	0.0348387
4674	0	0.0656919
4675	0	0.0671119
4676	0	0.0584375
4677	0	0.0563875
4678	0	0.0249769
4679	0	0.0268293
4680	0	0.0322581
4681	0	0.04
4682	0	0.03
4683	0	0.0644129
4684	0	0.0827594
4685	0	0.099598
4686	0	0.0640862
4687	0	0.0487205
4688	0	0.0511204
4689	0	0.0552065
4690	0	0.106599
4691	0	0.105984
4692	0	0.10473
4693	0	0.12364
4694	0	0.122135
4695	0	0.0716826
4696	0	0
4697	0	0
4698	0	0
4699	0	0
4700	0	0
4701	0	0
4702	0	0.151566
4703	0	0.166888
4704	0	0.198428
4705	0	0.174204
4706	0	0.156141
4707	0	0.161477
4708	0	0.14928
4709	0	0.194536
4710	0	0.207481
4711	0	0.189055
4712	0	0.207827
4713	0	0.352632
4714	0	0.394272
4715	0	0.390933
4716	0	0.390933
4717	0	0.557212
4718	0	0.438603
4719	0	0.425905
4720	0	0.434794
4721	0	0.461682
4722	0	0.505798
4723	0	0.514158
4724	0	0.593078
4725	0	0.600819
4726	0	0.610063
4727	0	0.609883
4728	0	0.612308
4729	0	0.605657
4730	0	0.59899
4731	0	0.585681
4732	0	0.55
4733	0	0.604396
4734	0	0.3
4735	0	0.3
4736	0	0.166667
4737	0	0
4738	0	0
4739	0	0
4740	0	0
4741	0	0
4742	0	0
4743	0	0
4744	0	0
4745	0	0
4746	0	0
4747	0	0
4748	0	0
4749	0	0
4750	0	0
4751	0	0
4752	0	0
4753	0	0
4754	0	0
4755	0	0
4756	0	0
4757	0	0
4758	0	0
4759	0	0
4760	0	0
4761	0	0
4762	0	0
4763	0	0
4764	0	0
4765	0	0
4766	0	0
4767	0	0
4768	0	0
4769	0	0
4770	0	0
4771	0	0
4772	0	0
4773	0	0
4774	0	0
4775	0	0
4776	0	0
4777	0	0
4778	0	0
4779	0	0
4780	0	0
4781	0	0
4782	0	0
4783	0	0
4784	0	0
4785	0	0
4786	0	0
4787	0	0
4788	0	0
4789	0	0
4790	0	0
4791	0	0
4792	0	0
4793	0	0
4794	0	0
4795	0	0
4796	0	0
4797	0	0
4798	0	0
4799	0	0
4800	0	0
4801	0	0
4802	0	0
4803	0	0
4804	0	0
4805	0	0
4806	0	0
4807	0	0
4808	0	0
4809	0	0
4810	0	0
4811	0	0
4812	0	0
4813	0	0
4814	0	0
4815	0	0
4816	0	0
4817	0	0
4818	0	0
4819	0	0
4820	0	0
4821	0	0
4822	0	0
4823	1	0
4824	1	0
4825	0	0
4826	0	0
4827	0	0
4828	0	0
4829	0	0
4830	0	0
4831	1	0
4832	0	0
4833	0	0
4834	0	0
4835	0	0
4836	0	0
4837	0	0
4838	0	0
4839	0	0
4840	0	0
4841	0	0
4842	0	0
4843	0	0
4844	0	0
4845	0	0
4846	0	0
4847	0	0
4848	0	0
4849	0	0
4850	0	0
4851	0	0
4852	0	0
4853	0	0
4854	0	0
4855	0	0
4856	0	0
4857	0	0
4858	0	0
4859	0	0
4860	0	0
4861	0	0
4862	0	0
4863	0	0
4864	0	0
4865	0	0
4866	0	0
4867	0	0
4868	0	0
4869	0	0
4870	0	0
4871	0	0
4872	0	0
4873	0	0
4874	0	0
4875	0	0
4876	0	0
4877	0	0
4878	0	0
4879	0	0
4880	0	0
4881	0	0
4882	0	0
4883	0	0
4884	0	0
4885	0	0
4886	0	0
4887	0	0
4888	0	0
4889	1	0
4890	1	0
4891	1	0
4892	1	0
4893	1	0
4894	1	0
4895	1	0
4896	1	0
4897	1	0
4898	1	0
4899	1	0
4900	1	0
4901	1	0
4902	1	0
4903	1	0
4904	1	0
4905	1	0
4906	0	0
4907	0	0
4908	0	0
4909	0	0
4910	0	0
4911	0	0
4912	0	0
4913	0	0
4914	0	0
4915	0	0
4916	0	0
4917	0	0
4918	0	0
4919	0	0
4920	0	0
4921	0	0
4922	0	0
4923	0	0
4924	0	0
4925	0	0
4926	0	0
4927	0	0
4928	0	0
4929	0	0
4930	0	0
4931	0	0
4932	0	0
4933	0	0
4934	0	0
4935	0	0
4936	0	0
4937	0	0
4938	0	0
4939	0	0
4940	0	0
4941	0	0
4942	0	0
4943	0	0
4944	0	0
4945	0	0
4946	0	0
4947	0	0
4948	0	0
4949	0	0
4950	0	0
4951	0	0
4952	0	0
4953	0	0
4954	0	0
4955	0	0
4956	0	0
4957	0	0
4958	0	0
4959	0	0
4960	0	0
4961	0	0
4962	0	0
4963	0	0
4964	0	0
4965	0	0
4966	0	0
4967	0	0
4968	0	0
4969	0	0
4970	0	0
4971	0	0
4972	0	0
4973	0	0
4974	0	0
4975	0	0
4976	0	0
4977	0	0
4978	0	0
4979	0	0
4980	0	0
4981	0	0
4982	0	0
4983	0	0
4984	0	0
4985	0	0
4986	0	0
4987	0	0
4988	0	0
4989	0	0
4990	0	0
4991	0	0
4992	0	0
4993	0	0
4994	0	0
4995	0	0
4996	0	0
4997	0	0
4998	0	0
4999	0	0
5000	0	0
5001	0	0
5002	0	0
5003	0	0
5004	0	0
5005	0	0
5006	0	0
5007	0	0
5008	0	0
5009	0	0
5010	0	0
5011	0	0
5012	0	0
5013	0	0
