Site	ColumnScore	SumOfPairsScore
1	0	0
2	0	0
3	0	0
4	0	0
5	0	0
6	0	0
7	0	0
8	0	0
9	0	0
10	0	0
11	0	0
12	0	0
13	0	0
14	0	0
15	0	0
16	0	0
17	0	0
18	0	0
19	0	0
20	0	0
21	0	0
22	0	0
23	0	0
24	0	0
25	0	0
26	0	0
27	0	0
28	0	0
29	0	0
30	0	0
31	0	0
32	0	0
33	0	0
34	0	0
35	0	0
36	0	0
37	0	0
38	0	0
39	0	0
40	0	0
41	0	0
42	0	0
43	0	0
44	0	0
45	0	0
46	0	0
47	0	0
48	0	0
49	0	0
50	0	0
51	0	0
52	0	0
53	0	0
54	0	0
55	0	0
56	0	0
57	0	0
58	0	0
59	0	0
60	0	0
61	0	0
62	0	0
63	0	0
64	0	0
65	0	0
66	0	0
67	0	0
68	0	0
69	0	0
70	0	0
71	0	0
72	0	0
73	0	0
74	0	0
75	0	0
76	0	0
77	0	0
78	0	0
79	0	0
80	0	0
81	0	0
82	0	0
83	0	0
84	0	0
85	0	0
86	0	0
87	0	0
88	0	0
89	0	0
90	0	0
91	0	0
92	0	0
93	0	0
94	0	0
95	0	0
96	0	0
97	0	0
98	0	0
99	0	0
100	0	0
101	0	0
102	0	0
103	0	0
104	0	0
105	0	0
106	0	0
107	0	0
108	0	0
109	0	0
110	0	0
111	0	0
112	0	0
113	0	0
114	0	0
115	0	0
116	0	0
117	0	0
118	0	0
119	0	0
120	0	0
121	0	0
122	0	0
123	0	0
124	0	0
125	0	0
126	0	0
127	0	0
128	0	0
129	0	0
130	0	0
131	0	0
132	0	0
133	0	0
134	0	0
135	0	0
136	0	0
137	0	0
138	0	0
139	0	0
140	0	0
141	0	0
142	0	0
143	0	0
144	0	0
145	0	0
146	0	0
147	0	0
148	0	0
149	0	0
150	0	0
151	0	0
152	0	0
153	0	0
154	0	0
155	0	0
156	0	0
157	0	0
158	0	0
159	0	0
160	0	0
161	0	0
162	0	0
163	0	0
164	0	0
165	0	0
166	0	0
167	0	0
168	0	0
169	0	0
170	0	0
171	0	0
172	0	0
173	0	0
174	0	0
175	0	0
176	0	0
177	0	0
178	0	0
179	0	0
180	0	0
181	0	0
182	0	0
183	0	0
184	0	0
185	0	0
186	0	0
187	0	0
188	0	0
189	0	0
190	0	0
191	0	0
192	0	0
193	0	0
194	0	0
195	0	0
196	0	0
197	0	0
198	0	0
199	0	0
200	0	0
201	0	0
202	0	0
203	0	0
204	0	0
205	0	0
206	0	0
207	0	0
208	0	0
209	0	0
210	0	0
211	0	0
212	0	0
213	0	0
214	0	0
215	0	0
216	0	0
217	0	0
218	0	0
219	0	0
220	0	0
221	0	0
222	0	0
223	0	0
224	0	0
225	0	0
226	0	0
227	0	0
228	0	0
229	0	0
230	0	0
231	0	0
232	0	0
233	0	0
234	0	0
235	0	0
236	0	0
237	0	0
238	0	0
239	0	0
240	0	0
241	0	0
242	0	0
243	0	0
244	0	0
245	0	0
246	0	0
247	0	0
248	0	0
249	0	0
250	0	0
251	0	0
252	0	0
253	0	0
254	0	0
255	0	0
256	0	0
257	0	0
258	0	0
259	0	0
260	0	0
261	0	0
262	0	0
263	0	0
264	0	0
265	0	0
266	0	0
267	0	0
268	0	0
269	0	0
270	0	0
271	0	0
272	0	0
273	0	0
274	0	0
275	0	0
276	0	0
277	0	0
278	0	0
279	0	0
280	0	0
281	0	0
282	0	0
283	0	0
284	0	0
285	0	0
286	0	0
287	0	0
288	0	0
289	0	0
290	0	0
291	0	0
292	0	0
293	0	0
294	0	0
295	0	0
296	0	0
297	0	0
298	0	0
299	0	0
300	0	0
301	0	0
302	0	0
303	0	0
304	0	0
305	0	0
306	0	0
307	0	0
308	0	0
309	0	0
310	0	0
311	0	0
312	0	0
313	0	0
314	0	0
315	0	0
316	0	0
317	0	0
318	0	0
319	0	0
320	0	0
321	0	0
322	0	0
323	0	0
324	0	0
325	0	0
326	0	0
327	0	0
328	0	0
329	0	0
330	0	0
331	0	0
332	0	0
333	0	0
334	0	0
335	0	0
336	0	0
337	0	0
338	0	0
339	0	0
340	0	0
341	0	0
342	0	0
343	0	0
344	0	0
345	0	0
346	0	0
347	0	0
348	0	0
349	0	0
350	0	0
351	0	0
352	0	0
353	0	0
354	0	0
355	0	0
356	0	0
357	0	0
358	0	0
359	0	0
360	0	0
361	0	0
362	0	0
363	0	0
364	0	0
365	0	0
366	0	0
367	0	0
368	0	0
369	0	0
370	0	0
371	0	0
372	0	0
373	0	0
374	0	0
375	0	0
376	0	0
377	0	0
378	0	0
379	0	0
380	0	0
381	0	0
382	0	0
383	0	0
384	0	0
385	0	0
386	0	0
387	0	0
388	0	0
389	0	0
390	0	0
391	0	0
392	0	0
393	0	0
394	0	0.0357143
395	0	0.0357143
396	0	0.0357143
397	0	0.0357143
398	0	0.0357143
399	0	0.0357143
400	0	0.0357143
401	0	0.0357143
402	0	0.0357143
403	0	0.0357143
404	0	0.0357143
405	0	0.0357143
406	0	0.0357143
407	0	0.0357143
408	0	0.0357143
409	0	0.0357143
410	0	0.0357143
411	0	0.0357143
412	0	0.0357143
413	0	0.0357143
414	0	0.0357143
415	0	0.0357143
416	0	0.0277778
417	0	0.0277778
418	0	0.0277778
419	0	0.0277778
420	0	0.0277778
421	0	0.0277778
422	0	0.0277778
423	0	0.0277778
424	0	0.0277778
425	0	0.0277778
426	0	0.0277778
427	0	0.0277778
428	0	0.0277778
429	0	0.0277778
430	0	0.0277778
431	0	0.0277778
432	0	0.0277778
433	0	0.0277778
434	0	0.0277778
435	0	0.0277778
436	0	0.0277778
437	0	0.0277778
438	0	0.0277778
439	0	0.0277778
440	0	0.0277778
441	0	0.0277778
442	0	0.0277778
443	0	0.0277778
444	0	0.0277778
445	0	0.0277778
446	0	0.0277778
447	0	0.0277778
448	0	0.0277778
449	0	0.0277778
450	0	0.0277778
451	0	0.0277778
452	0	0.0277778
453	0	0.0277778
454	0	0.0277778
455	0	0.0277778
456	0	0.0277778
457	0	0.0277778
458	0	0.0277778
459	0	0.0277778
460	0	0.0277778
461	0	0.0277778
462	0	0.0277778
463	0	0.0277778
464	0	0.0277778
465	0	0.0277778
466	0	0.0277778
467	0	0.0277778
468	0	0.0277778
469	0	0.0277778
470	0	0.0277778
471	0	0.0277778
472	0	0.0277778
473	0	0.0277778
474	0	0.0277778
475	0	0.0277778
476	0	0.0277778
477	0	0.0277778
478	0	0.0277778
479	0	0.0277778
480	0	0.0277778
481	0	0.0277778
482	0	0.0277778
483	0	0.0277778
484	0	0.0277778
485	0	0.0222222
486	0	0.0222222
487	0	0.0222222
488	0	0.0222222
489	0	0.0222222
490	0	0.0222222
491	0	0.0222222
492	0	0.0222222
493	0	0.0222222
494	0	0.0222222
495	0	0.0222222
496	0	0.0222222
497	0	0.0222222
498	0	0.0222222
499	0	0.0222222
500	0	0.0222222
501	0	0.0222222
502	0	0.0222222
503	0	0.0181818
504	0	0.0181818
505	0	0.0181818
506	0	0.0181818
507	0	0.0181818
508	0	0.0181818
509	0	0.030303
510	0	0.030303
511	0	0.030303
512	0	0.025641
513	0	0.025641
514	0	0.025641
515	0	0.025641
516	0	0.021978
517	0	0.0285714
518	0	0.0285714
519	0	0.0285714
520	0	0.0285714
521	0	0.0190476
522	0	0.0190476
523	0	0.0416667
524	0	0.0416667
525	0	0.0416667
526	0	0.0416667
527	0	0.0416667
528	0	0.0416667
529	0	0.025
530	0	0.025
531	0	0.025
532	0	0.025
533	0	0.025
534	0	0.025
535	0	0.025
536	0	0.025
537	0	0.0294118
538	0	0.0294118
539	0	0.0367647
540	0	0.0367647
541	0	0.0367647
542	0	0.0367647
543	0	0.0367647
544	0	0.0294118
545	0	0.0326797
546	0	0.0261438
547	0	0.0175439
548	0	0.0105263
549	0	0.0105263
550	0	0.0105263
551	0	0.0157895
552	0	0.0263158
553	0	0.0238095
554	0	0.0238095
555	0	0.0238095
556	0	0.021645
557	0	0.0316206
558	0	0.0326087
559	0	0.0615942
560	0	0.06
561	0	0.0966667
562	0	0.156667
563	0	0.172308
564	0	0.175385
565	0	0.221538
566	0	0.444444
567	0	0.492877
568	0	0.492877
569	0	0.547009
570	0	0.660969
571	0	0.660969
572	0	0.660969
573	0	0.660969
574	0	0.436975
575	0	0.436975
576	0	0.457958
577	0	0.933106
578	0	0.957373
579	0	0.972399
580	0	0.972399
581	0	0.975813
582	0	0.975813
583	0	0.505495
584	0	0.953766
585	0	0
586	0	0
587	0	0
588	0	0
589	0	0
590	0	0
591	0	0
592	0	0
593	0	0
594	0	0
595	0	0
596	0	0
597	0	0
598	0	0
599	0	0
600	0	0
601	0	0
602	0	0
603	0	0
604	0	0
605	0	0.978996
606	0	0.166667
607	0	0.166667
608	0	0.166667
609	0	0.166667
610	0	0.166667
611	0	0.166667
612	0	0.166667
613	0	0.166667
614	0	0.166667
615	0	0.166667
616	0	0.166667
617	0	0.166667
618	0	0
619	0	0
620	0	0
621	0	0
622	0	0
623	0	0
624	0	0
625	0	0
626	0	0
627	0	0
628	0	0
629	0	0
630	0	0
631	0	0
632	0	0
633	0	0
634	0	0
635	0	0
636	0	0
637	0	0
638	0	0
639	0	0
640	0	0
641	0	0
642	0	0
643	0	0
644	0	0
645	0	0
646	0	0
647	0	0
648	0	0
649	0	0
650	0	0
651	0	0
652	0	0
653	0	0
654	0	0
655	0	0
656	0	0
657	0	0
658	0	0
659	0	0
660	0	0
661	0	0
662	0	0
663	0	0
664	0	0
665	0	0
666	0	0
667	0	0
668	0	0
669	0	0
670	0	0.987764
671	0	0.987764
672	0	0.1
673	0	0.1
674	0	0.1
675	0	0.1
676	0	0.1
677	0	0.166667
678	0	0.166667
679	0	0.166667
680	0	0.166667
681	0	0.166667
682	0	0.166667
683	0	0.166667
684	0	0.166667
685	0	0.166667
686	0	0.166667
687	0	0.166667
688	0	0.166667
689	0	0.166667
690	0	0.166667
691	0	0.166667
692	0	0.166667
693	0	0.166667
694	0	0.166667
695	0	0.166667
696	0	0.166667
697	0	0.166667
698	0	0.166667
699	0	0.166667
700	0	0.166667
701	0	0.166667
702	0	0.166667
703	0	0.166667
704	0	0.166667
705	0	0.166667
706	0	0.166667
707	0	0.166667
708	0	0.166667
709	0	0.166667
710	0	0.166667
711	0	0.166667
712	0	0.166667
713	0	0.166667
714	0	0.166667
715	0	0.166667
716	0	0.166667
717	0	0.166667
718	0	0.166667
719	0	0.166667
720	0	0.166667
721	0	0.166667
722	0	0.166667
723	0	0.166667
724	0	0.166667
725	0	0.166667
726	0	0.166667
727	0	0.166667
728	0	0.166667
729	0	0.166667
730	0	0.166667
731	0	0.166667
732	0	0.166667
733	0	0.166667
734	0	0.166667
735	0	0.166667
736	0	0.166667
737	0	0.166667
738	0	0.166667
739	0	0.166667
740	0	0.166667
741	0	0.166667
742	0	0.166667
743	0	0.166667
744	0	0.166667
745	0	0.166667
746	0	0.166667
747	0	0.166667
748	0	0.166667
749	0	0.166667
750	0	0.166667
751	0	0.166667
752	0	0.977495
753	0	0.968906
754	0	0.96719
755	0	0.968825
756	0	0.968825
757	0	0.968825
758	0	0.6
759	0	0.6
760	0	0.285714
761	0	0.955186
762	0	0.95352
763	0	0.838819
764	0	0.561958
765	0	0.376423
766	0	0.333333
767	0	0
768	0	0
769	0	0
770	0	0
771	0	0
772	0	0
773	0	0
774	0	0
775	0	0
776	0	0
777	0	0
778	0	0
779	0	0
780	0	0
781	0	0
782	0	0
783	0	0
784	0	0
785	0	0
786	0	0
787	0	0
788	0	0
789	0	0
790	0	0
791	0	0
792	0	0
793	0	0
794	0	0
795	0	0
796	0	0
797	0	0
798	0	0
799	0	0
800	0	0
801	0	0
802	0	0
803	0	0
804	0	0
805	0	0
806	0	0
807	0	0
808	0	0
809	0	0
810	0	0
811	0	0
812	0	0
813	0	0
814	0	0
815	0	0
816	0	0
817	0	0
818	0	0
819	0	0
820	0	0
821	0	0
822	0	0
823	0	0
824	0	0
825	0	0
826	0	0
827	0	0
828	0	0
829	0	0
830	0	0
831	0	0
832	0	0
833	0	0
834	0	0
835	0	0
836	0	0
837	0	0
838	0	0
839	0	0
840	0	0
841	0	0
842	0	0
843	0	0
844	0	0
845	0	0
846	0	0
847	0	0
848	0	0
849	0	0
850	0	0
851	0	0
852	0	0
853	0	0
854	0	0
855	0	0
856	0	0
857	0	0
858	0	0
859	0	0
860	0	0
861	0	0
862	0	0
863	0	0
864	0	0
865	0	0
866	0	0
867	0	0
868	0	0
869	0	0
870	0	0
871	0	0
872	0	0
873	0	0
874	0	0
875	0	0
876	0	0
877	0	0
878	0	0
879	0	0
880	0	0
881	0	0
882	0	0
883	0	0
884	0	0
885	0	0
886	1	0
887	0	0
888	0	0
889	0	0
890	0	0
891	0	0
892	0	0
893	0	0
894	0	0
895	0	0
896	0	0
897	0	0
898	0	0
899	0	0
900	0	0
901	0	0
902	0	0
903	0	0
904	0	0
905	0	0
906	0	0
907	0	0
908	0	0
909	0	0
910	0	0
911	0	0
912	0	0
913	0	0
914	0	0
915	0	0
916	0	0
917	0	0
918	0	0
919	0	0
920	0	0
921	0	0
922	0	0
923	0	0
924	0	0
925	0	0
926	0	0
927	0	0
928	0	0
929	0	0
930	0	0
931	0	0
932	0	0
933	0	0
934	0	0
935	0	0
936	0	0
937	0	0
938	0	0
939	0	0
940	0	0
941	0	0
942	0	0
943	0	0
944	0	0
945	0	0
946	0	0
947	0	0
948	0	0
949	0	0
950	0	0
951	0	0
952	0	0
953	0	0
954	0	0
955	0	0
956	0	0
957	0	0
958	0	0
959	0	0
960	0	0
961	0	0
962	0	0
963	0	0
964	0	0
965	0	0
966	0	0
967	0	0
968	0	0
969	0	0
970	0	0
971	0	0
972	0	0
973	0	0
974	0	0
975	0	0
976	0	0
977	0	0
978	0	0
979	0	0
980	0	0
981	0	0
982	0	0.531149
983	0	0
984	0	0.465232
985	0	0.434284
986	0	0.43552
987	0	0
988	0	0
989	0	0
990	0	0
991	0	0
992	0	0.932998
993	0	0.946231
994	0	0.391946
995	0	0.228758
996	0	0.266667
997	0	0.238095
998	0	0.219048
999	0	0.142857
1000	0	0.0989011
1001	0	0.115385
1002	0	0.115385
1003	0	0.0769231
1004	0	0.0512821
1005	0	0.0363636
1006	0	0.0444444
1007	0	0.0555556
1008	0	0.0555556
1009	0	0.0714286
1010	0	0.0714286
1011	0	0.0666667
1012	0	0.0666667
1013	0	0.3
1014	0	0.3
1015	0	0.3
1016	0	0.3
1017	0	0.3
1018	0	0.3
1019	0	0.3
1020	0	0.3
1021	0	0.3
1022	0	0.3
1023	0	0.3
1024	0	0.5
1025	0	0.5
1026	0	0.5
1027	0	0.5
1028	0	0.5
1029	0	0.5
1030	0	0.166667
1031	0	0.166667
1032	0	0.166667
1033	0	0.166667
1034	0	0.166667
1035	0	0.166667
1036	0	0.166667
1037	0	0.166667
1038	0	0.166667
1039	0	0.166667
1040	0	0.166667
1041	0	0.166667
1042	0	0.166667
1043	0	0.166667
1044	0	0.166667
1045	0	0.166667
1046	0	0.166667
1047	0	0.166667
1048	0	0.166667
1049	0	0.166667
1050	0	0.166667
1051	0	0.166667
1052	0	0.166667
1053	0	0.166667
1054	0	0.166667
1055	0	0.166667
1056	0	0.166667
1057	0	0.166667
1058	0	0.166667
1059	0	0.166667
1060	0	0.166667
1061	0	0.166667
1062	0	0.166667
1063	0	0.166667
1064	0	0.166667
1065	0	0.166667
1066	0	0.166667
1067	0	0.166667
1068	0	0.166667
1069	0	0.166667
1070	0	0.166667
1071	0	0.166667
1072	0	0.166667
1073	0	0.166667
1074	0	0.166667
1075	0	0.166667
1076	0	0.166667
1077	0	0.166667
1078	0	0.166667
1079	0	0.166667
1080	0	0.166667
1081	0	0.166667
1082	0	0.166667
1083	0	0.166667
1084	0	0.166667
1085	0	0.166667
1086	0	0.166667
1087	0	0.166667
1088	0	0.166667
1089	0	0.333333
1090	0	0
1091	0	0
1092	0	0
1093	0	0
1094	0	0
1095	0	0
1096	0	0
1097	0	0
1098	0	0
1099	0	0
1100	0	0
1101	0	0
1102	0	0
1103	0	0
1104	0	0
1105	0	0
1106	0	0
1107	0	0
1108	0	0
1109	0	0
1110	0	0
1111	0	0
1112	0	0
1113	0	0
1114	0	0
1115	0	0
1116	0	0
1117	0	0
1118	0	0
1119	0	0
1120	0	0
1121	0	0
1122	0	0
1123	0	0
1124	0	0
1125	0	0
1126	0	0
1127	0	0
1128	0	0
1129	0	0
1130	0	0
1131	0	0
1132	0	0
1133	0	0
1134	0	0
1135	0	0
1136	0	0
1137	0	0
1138	0	0
1139	0	0
1140	0	0
1141	0	0
1142	0	0
1143	0	0
1144	1	0
1145	1	0
1146	1	0
1147	1	0
1148	1	0
1149	1	0
1150	1	0
1151	1	0
1152	1	0
1153	0	0
1154	0	0
1155	0	0
1156	0	0
1157	0	0
1158	0	0
1159	0	0
1160	0	0
1161	0	0
1162	0	0
1163	0	0
1164	0	0
1165	0	0
1166	0	0
1167	0	0
1168	0	0
1169	0	0
1170	0	0
1171	0	0
1172	0	0
1173	0	0
1174	0	0
1175	0	0
1176	0	0
1177	0	0
1178	0	0
1179	0	0
1180	0	0
1181	0	0
1182	0	0
1183	0	0.855807
1184	0	1
1185	1	1
1186	1	1
1187	0	0.998252
1188	0	0.998259
1189	0	0.984633
1190	0	0.998283
1191	0	0.994867
1192	0	0.996577
1193	0	0.998288
1194	0	0.998288
1195	0	0.998288
1196	0	0.998288
1197	0	0.998288
1198	0	0.998288
1199	0	0.998288
1200	0	0.998286
1201	0	0.996574
1202	0	0.998285
1203	0	0.996574
1204	0	0.998285
1205	0	0.998285
1206	0	0.998285
1207	0	0.998285
1208	0	0.998285
1209	0	0.998285
1210	0	0.998285
1211	0	0.998285
1212	0	0.998285
1213	0	0.998283
1214	0	0.998283
1215	0	0.996568
1216	0	0.996568
1217	0	0
1218	0	0
1219	0	0
1220	0	0
1221	0	0
1222	0	0.935484
1223	0	0.868966
1224	0	0.931034
1225	0	0
1226	0	0
1227	0	0
1228	0	0.3
1229	0	0.3
1230	0	0.923188
1231	0	1
1232	0	0.897243
1233	0	0.485714
1234	0	0.485624
1235	0	0.508488
1236	0	0.507227
1237	0	0.571981
1238	0	0.571981
1239	0	0.594286
1240	0	0.38449
1241	0	0.611429
1242	0	0.471826
1243	0	0.643494
1244	0	0.590018
1245	0	0.366327
1246	0	0.366327
1247	0	0.459903
1248	0	0.394216
1249	0	0.387736
1250	0	0.370151
1251	0	0.389899
1252	0	0
1253	0	0
1254	0	0
1255	0	0
1256	0	0.285714
1257	0	0.249231
1258	0	0.264957
1259	0	0.396863
1260	0	0.427153
1261	0	0.476891
1262	0	0.479124
1263	0	0.664693
1264	0	0.678218
1265	0	0.68
1266	0	0.770404
1267	0	0.78866
1268	0	0.827267
1269	0	0.827267
1270	0	0.518286
1271	0	0.444444
1272	0	0.5
1273	0	0.793526
1274	0	0.858149
1275	0	0.872452
1276	0	0.6
1277	0	0.6
1278	0	1
1279	0	0.970235
1280	0	1
1281	0	1
1282	0	1
1283	0	1
1284	0	1
1285	0	1
1286	0	1
1287	0	1
1288	0	1
1289	0	0.977796
1290	0	0.436364
1291	0	1
1292	0	0.998282
1293	0	0.998282
1294	0	0.998282
1295	0	0.998282
1296	0	0.998282
1297	1	0
1298	1	0
1299	1	0
1300	1	0
1301	1	0
1302	1	0
1303	1	0
1304	1	0
1305	1	0
1306	0	0.998286
1307	0	0.998286
1308	0	0.998286
1309	0	0.996577
1310	0	0.996577
1311	0	0.998288
1312	0	0.998288
1313	0	0.998288
1314	0	0.998288
1315	0	0.998288
1316	0	0.998288
1317	0	1
1318	0	1
1319	0	0.981264
1320	0	1
1321	0	1
1322	0	1
1323	0	1
1324	0	1
1325	0	0.866667
1326	0	0.676471
1327	0	0.676471
1328	0	0.676471
1329	0	0.676471
1330	0	0.676471
1331	0	0.5
1332	0	0.444444
1333	0	0.437908
1334	0	0.437908
1335	0	0.357895
1336	0	0.32381
1337	0	0.942617
1338	0	0.238095
1339	0	0.239316
1340	0	0.637953
1341	0	0.242424
1342	0	0.26087
1343	0	0.674932
1344	0	0.590612
1345	0	0.672671
1346	0	0.7217
1347	0	0.854723
1348	0	0
1349	0	0
1350	0	0
1351	0	0
1352	0	0
1353	0	0.166667
1354	0	0.166667
1355	0	0.166667
1356	0	0.166667
1357	0	0.5
1358	0	0.5
1359	0	0.5
1360	0	0.5
1361	0	1
1362	0	1
1363	0	1
1364	0	1
1365	0	1
1366	0	1
1367	0	1
1368	0	1
1369	0	1
1370	0	1
1371	0	1
1372	0	0.6
1373	0	0.6
1374	0	1
1375	0	1
1376	0	1
1377	0	0.906418
1378	0	0.906418
1379	0	0.916199
1380	0	0.916199
1381	0	0.916199
1382	0	0.921633
1383	0	0.921633
1384	0	0.921633
1385	0	0.517551
1386	0	0.496327
1387	0	0.488163
1388	0	0.434109
1389	0	0.452439
1390	0	0.608974
1391	0	0.217949
1392	0	0.254545
1393	0	0.392857
1394	0	0.47619
1395	0	0.666667
1396	0	0.469697
1397	0	0.469697
1398	0	0.469697
1399	0	0.927249
1400	0	0.927192
1401	0	0.3
1402	0	0.3
1403	0	0.3
1404	0	0.815854
1405	0	0.785161
1406	0	0.780731
1407	0	0.780731
1408	0	0.818815
1409	0	1
1410	0	1
1411	0	1
1412	0	1
1413	0	1
1414	0	1
1415	0	1
1416	0	1
1417	0	1
1418	0	1
1419	0	1
1420	0	0.998286
1421	0	1
1422	0	1
1423	0	1
1424	0	1
1425	0	1
1426	0	1
1427	1	1
1428	1	1
1429	1	1
1430	1	1
1431	0	1
1432	0	0
1433	0	0
1434	0	0
1435	0	0
1436	0	0
1437	0	0
1438	1	0
1439	1	0
1440	0	0.998283
1441	0	0.998283
1442	0	0.998283
1443	0	0.998283
1444	0	0.998283
1445	0	0.996571
1446	0	0.996571
1447	0	0.989754
1448	0	0.989763
1449	0	0.998288
1450	0	0.998288
1451	0	1
1452	0	1
1453	0	1
1454	1	1
1455	1	1
1456	1	1
1457	0	0.998291
1458	0	0.998292
1459	0	0.998292
1460	0	0.998292
1461	1	1
1462	1	1
1463	1	1
1464	1	1
1465	1	1
1466	1	1
1467	1	1
1468	1	1
1469	1	1
1470	1	1
1471	1	1
1472	1	1
1473	1	1
1474	1	1
1475	1	1
1476	1	1
1477	1	1
1478	1	1
1479	1	1
1480	1	1
1481	0	0
1482	0	1
1483	0	0
1484	0	0
1485	0	0.998288
1486	0	0.333333
1487	0	0.333333
1488	0	0.166667
1489	0	0.166667
1490	0	0.166667
1491	0	0.166667
1492	0	0.166667
1493	0	0.166667
1494	0	0.166667
1495	0	0.166667
1496	0	0.166667
1497	0	0.166667
1498	0	0.166667
1499	0	0.166667
1500	0	0.166667
1501	0	0.166667
1502	0	0.166667
1503	0	0.166667
1504	1	1
1505	1	1
1506	1	1
1507	1	1
1508	1	1
1509	1	1
1510	1	1
1511	0	0.996587
1512	1	1
1513	0	1
1514	1	1
1515	1	1
1516	1	1
1517	1	1
1518	1	1
1519	1	1
1520	0	0
1521	0	0
1522	1	0
1523	1	0
1524	1	0
1525	1	0
1526	1	0
1527	1	0
1528	1	0
1529	1	0
1530	1	0
1531	1	0
1532	1	0
1533	0	0.998294
1534	0	0.998294
1535	1	1
1536	1	1
1537	1	1
1538	1	1
1539	1	1
1540	1	1
1541	1	1
1542	0	0.998294
1543	1	1
1544	0	1
1545	1	1
1546	1	1
1547	1	1
1548	1	1
1549	1	1
1550	1	1
1551	1	1
1552	0	0.998292
1553	0	0.996586
1554	0	0.998291
1555	0	1
1556	0	1
1557	1	1
1558	1	1
1559	1	1
1560	1	1
1561	1	1
1562	1	1
1563	1	1
1564	1	1
1565	1	1
1566	0	1
1567	0	1
1568	1	1
1569	1	1
1570	1	1
1571	1	1
1572	0	1
1573	1	1
1574	1	1
1575	1	1
1576	1	0
1577	1	0
1578	1	0
1579	1	0
1580	1	0
1581	1	0
1582	1	0
1583	1	0
1584	1	0
1585	1	0
1586	1	0
1587	1	0
1588	1	1
1589	1	1
1590	1	1
1591	1	1
1592	0	1
1593	1	1
1594	1	1
1595	1	1
1596	1	1
1597	1	1
1598	1	1
1599	1	0
1600	1	0
1601	1	0
1602	1	1
1603	1	1
1604	0	0.998296
1605	1	1
1606	1	1
1607	1	1
1608	1	1
1609	0	1
1610	0	0.998295
1611	0	0
1612	1	0
1613	1	0
1614	1	0
1615	0	0.998294
1616	1	1
1617	1	1
1618	1	1
1619	1	1
1620	1	1
1621	1	1
1622	1	1
1623	1	1
1624	1	1
1625	1	1
1626	1	1
1627	1	1
1628	1	1
1629	1	1
1630	1	1
1631	1	1
1632	1	1
1633	1	1
1634	0	0.998294
1635	0	0.998294
1636	0	0.998294
1637	0	0.998294
1638	1	0
1639	1	0
1640	1	0
1641	1	0
1642	1	0
1643	0	0
1644	0	0
1645	0	0
1646	0	0
1647	0	0.998295
1648	0	1
1649	0	1
1650	0	1
1651	0	1
1652	0	1
1653	0	1
1654	0	1
1655	0	1
1656	0	1
1657	0	1
1658	0	1
1659	1	1
1660	1	1
1661	1	1
1662	1	1
1663	1	1
1664	1	1
1665	0	0.998296
1666	1	1
1667	1	1
1668	1	1
1669	1	1
1670	1	1
1671	1	1
1672	1	1
1673	1	1
1674	1	1
1675	1	1
1676	1	1
1677	1	1
1678	1	1
1679	1	1
1680	1	1
1681	1	1
1682	1	1
1683	1	1
1684	1	1
1685	0	1
1686	1	0
1687	1	0
1688	1	0
1689	1	0
1690	1	0
1691	1	0
1692	1	0
1693	1	0
1694	1	0
1695	1	0
1696	1	0
1697	1	0
1698	1	0
1699	0	0.998298
1700	0	0.998298
1701	0	0.998298
1702	0	0.998298
1703	0	0.998298
1704	0	0.998298
1705	0	0.998298
1706	0	0.998298
1707	0	0.998298
1708	0	0.998298
1709	0	0.998298
1710	0	0.998298
1711	0	0.998298
1712	0	0.563636
1713	0	0.993199
1714	0	0.993199
1715	0	1
1716	0	0.52381
1717	0	0.446694
1718	0	0.711772
1719	0	0.418121
1720	0	0.298285
1721	0	0.520744
1722	0	0.357744
1723	0	0.47666
1724	0	0.479588
1725	0	0.676692
1726	0	0.510317
1727	0	1
1728	0	0.98814
1729	0	0.98814
1730	0	0.98814
1731	0	0.98814
1732	0	0.98814
1733	0	0.98814
1734	0	0.98814
1735	0	0.98813
1736	0	0.791597
1737	0	0.996593
1738	0	0.994891
1739	0	0.333333
1740	0	0.998294
1741	0	0.996591
1742	0	0.998295
1743	1	1
1744	1	1
1745	1	1
1746	1	1
1747	1	1
1748	0	0.998294
1749	1	1
1750	1	1
1751	1	1
1752	0	0.998294
1753	0	0.998294
1754	0	0.998294
1755	0	0.865231
1756	1	1
1757	1	1
1758	0	0.166667
1759	0	0.166667
1760	0	0.333333
1761	0	0.333333
1762	0	0.166667
1763	0	0.166667
1764	0	0.166667
1765	0	0
1766	0	0
1767	0	0
1768	0	0
1769	0	0
1770	0	0
1771	0	0
1772	0	0
1773	1	0
1774	1	0
1775	1	0
1776	0	0
1777	0	0
1778	0	0
1779	0	0
1780	0	0
1781	0	0
1782	0	0
1783	0	0
1784	1	1
1785	1	1
1786	1	1
1787	0	1
1788	0	1
1789	0	1
1790	0	1
1791	0	1
1792	0	1
1793	0	0.998292
1794	0	1
1795	0	1
1796	0	0.974687
1797	0	0.698877
1798	0	0.870712
1799	0	0.951348
1800	0	0.951348
1801	0	0.951313
1802	0	0.746305
1803	0	0.746305
1804	0	0.702687
1805	0	1
1806	0	1
1807	0	1
1808	0	0.166667
1809	0	0.712547
1810	0	0.519704
1811	0	0.475369
1812	0	0.682662
1813	0	0.545455
1814	0	0.272727
1815	0	0.63333
1816	0	0.64347
1817	0	0.476219
1818	0	0.333333
1819	0	0.333333
1820	0	0.333333
1821	0	0.486125
1822	0	0.3
1823	0	0.3
1824	0	0.3
1825	0	0.580937
1826	0	0.85755
1827	0	1
1828	0	1
1829	0	1
1830	0	1
1831	0	1
1832	1	1
1833	1	1
1834	1	1
1835	1	1
1836	1	1
1837	1	1
1838	0	1
1839	1	1
1840	1	1
1841	1	1
1842	0	0.998295
1843	0	0.998295
1844	0	0
1845	0	0
1846	0	0
1847	0	0.994894
1848	0	0
1849	0	0
1850	0	0
1851	0	0
1852	0	0
1853	0	0
1854	1	1
1855	1	1
1856	1	1
1857	1	1
1858	1	1
1859	1	1
1860	1	1
1861	0	0.994891
1862	0	0.994891
1863	0	0.99659
1864	1	1
1865	1	1
1866	0	0.998295
1867	0	0.998295
1868	0	0.993193
1869	0	0.994894
1870	0	0
1871	0	0
1872	0	0
1873	0	0
1874	0	0
1875	0	0
1876	0	0
1877	0	0
1878	0	0
1879	0	0
1880	0	0
1881	0	0
1882	0	0
1883	0	0
1884	0	0
1885	0	0
1886	0	0
1887	0	0
1888	0	0
1889	0	0
1890	0	0
1891	0	0
1892	0	0
1893	0	0
1894	0	0
1895	0	0
1896	0	0.0666667
1897	0	0.0666667
1898	0	0.0666667
1899	0	0.0666667
1900	0	0.0666667
1901	0	0.0666667
1902	0	0.0666667
1903	0	0.0666667
1904	0	0.0666667
1905	0	0.0666667
1906	0	0.0666667
1907	0	0.0666667
1908	0	0.0666667
1909	0	0.047619
1910	0	0.047619
1911	0	0.047619
1912	0	0.047619
1913	0	0.047619
1914	0	0.047619
1915	0	0.047619
1916	0	0.127273
1917	0	0.127273
1918	0	0.0952381
1919	0	0.970763
1920	0	0.295238
1921	0	0.272727
1922	0	0.272727
1923	0	0.272727
1924	0	0.249012
1925	0	0.249012
1926	0	0.249012
1927	0	0.192029
1928	0	0.195652
1929	0	0.108696
1930	0	0.0953846
1931	0	0.0940171
1932	0	0.08867
1933	0	0.08867
1934	0	0.552267
1935	0	0.552094
1936	0	0.552267
1937	0	0.532444
1938	0	0.53211
1939	0	0.80157
1940	0	0.651768
1941	0	0.670222
1942	0	0.681161
1943	0	0.652898
1944	0	0.591004
1945	0	0.0899471
1946	0	0.101538
1947	0	0.114625
1948	0	0.112319
1949	0	0.148551
1950	0	0.163043
1951	0	0.163043
1952	0	0.163043
1953	0	0.163043
1954	0	0.660133
1955	0	0.672806
1956	0	0.673735
1957	0	0.333333
1958	0	0.166667
1959	0	0.166667
1960	0	0.166667
1961	0	0.166667
1962	0	0.166667
1963	0	0.166667
1964	0	0.1
1965	0	0.1
1966	0	0.1
1967	0	0.1
1968	0	0.25
1969	0	0.194444
1970	0	0.145455
1971	0	0.236364
1972	0	0.163636
1973	0	0.163636
1974	0	0.163636
1975	0	0.163636
1976	0	0.163636
1977	0	0.654545
1978	0	0.654545
1979	0	0.545455
1980	0	0.545455
1981	0	0.545455
1982	0	0.545455
1983	0	0.545455
1984	0	0.545455
1985	0	0.545455
1986	0	0.560606
1987	0	0.461538
1988	0	0.372549
1989	0	0.372549
1990	0	0.372549
1991	0	0.378947
1992	0	0.426316
1993	0	0.426316
1994	0	0.852846
1995	0	0.837578
1996	0	0.822921
1997	0	0.781419
1998	0	0.938345
1999	0	1
2000	0	1
2001	0	1
2002	0	1
2003	0	1
2004	0	1
2005	0	1
2006	0	0.333333
2007	0	0.333333
2008	0	0.333333
2009	0	0.333333
2010	0	0.333333
2011	0	0.333333
2012	0	0.333333
2013	0	0.333333
2014	0	0.333333
2015	0	0.333333
2016	0	0.333333
2017	0	0.333333
2018	0	0.333333
2019	0	0.333333
2020	0	1
2021	0	1
2022	0	1
2023	0	1
2024	0	1
2025	0	1
2026	0	1
2027	0	1
2028	0	1
2029	0	1
2030	0	1
2031	0	1
2032	0	1
2033	0	1
2034	0	1
2035	0	1
2036	0	0.5
2037	0	0.3
2038	0	0.3
2039	0	0.466667
2040	0	0.466667
2041	0	0.428571
2042	0	0.94666
2043	0	0.94666
2044	0	1
2045	0	1
2046	0	1
2047	0	1
2048	0	0.994894
2049	0	0.994894
2050	0	0.994894
2051	0	0.996594
2052	0	0.996594
2053	0	0.996594
2054	0	0.996594
2055	0	0.996594
2056	0	0.996594
2057	0	0.996594
2058	0	0.996594
2059	0	0.996594
2060	0	0.996594
2061	0	0.996594
2062	0	0.996594
2063	0	0.996594
2064	0	0.998295
2065	1	1
2066	1	1
2067	0	1
2068	0	1
2069	0	1
2070	0	1
2071	0	0.993199
2072	0	0.993199
2073	0	0.993199
2074	0	0.993199
2075	0	1
2076	0	1
2077	0	0.644444
2078	0	0.976288
2079	0	0.976288
2080	0	0.976288
2081	0	0.976288
2082	0	0.976286
2083	0	0.583333
2084	0	0.583333
2085	0	0.962837
2086	0	0.285714
2087	0	0.220779
2088	0	0.201581
2089	0	0.136752
2090	0	0.935502
2091	0	0.935502
2092	0	0.982759
2093	0	0.932384
2094	0	0.932384
2095	0	0.932384
2096	0	0.932384
2097	0	0.932384
2098	0	0.932084
2099	0	0.916151
2100	0	0.900623
2101	0	0.829935
2102	0	0.803742
2103	0	0.755208
2104	0	0.691763
2105	0	0.691763
2106	0	0.676982
2107	0	0.673722
2108	0	0.760556
2109	0	0.288889
2110	0	0.285714
2111	0	0.285714
2112	0	0.190476
2113	0	0.2
2114	0	0.2
2115	0	0.2
2116	0	0.2
2117	0	0.1
2118	0	0.409777
2119	0	0.571429
2120	0	0.571429
2121	0	1
2122	0	0.399047
2123	0	0.398873
2124	0	0.398687
2125	0	0.978022
2126	0	0.490534
2127	0	0.450706
2128	0	0.388827
2129	0	0.675877
2130	0	0.355556
2131	0	0.355556
2132	0	0.305556
2133	0	0.244444
2134	0	0.305556
2135	0	0.254902
2136	0	0.42155
2137	0	0.535714
2138	0	0.285714
2139	0	0.4
2140	0	0.4
2141	0	0.4
2142	0	0.3
2143	0	0
2144	0	0
2145	0	0
2146	0	0.414051
2147	0	0.414662
2148	0	0.410457
2149	0	0
2150	0	0
2151	0	0
2152	0	0.166667
2153	0	0.0277778
2154	0	0.0277778
2155	0	0.0897436
2156	0	0.408974
2157	0	0
2158	0	0
2159	0	0.318182
2160	0	0
2161	0	0
2162	0	0
2163	0	0.386264
2164	0	0.285714
2165	0	0.047619
2166	0	0.047619
2167	0	0.190476
2168	0	0.282051
2169	0	0.205128
2170	0	0.376818
2171	0	0.333333
2172	0	0.333333
2173	0	0.333333
2174	0	0.333333
2175	0	0.333333
2176	0	0.333333
2177	0	0.333333
2178	0	0.333333
2179	0	0.333333
2180	0	0.333333
2181	0	0.333333
2182	0	0.333333
2183	0	0.333333
2184	0	0.333333
2185	0	0.333333
2186	0	0.333333
2187	0	0.333333
2188	0	0.333333
2189	0	0.0952381
2190	0	0.0952381
2191	0	0.850418
2192	0	0.142857
2193	0	0.190476
2194	0	0.266667
2195	0	0.266667
2196	0	0.166667
2197	0	0.166667
2198	0	0.166667
2199	0	0.166667
2200	0	0.166667
2201	0	0.166667
2202	0	0.166667
2203	0	0.506145
2204	0	0.0367647
2205	0	0.0220588
2206	0	0.0326797
2207	0	0.08
2208	0	0.0777778
2209	0	0.522179
2210	0	0.24206
2211	0	0.240611
2212	0	0.234049
2213	0	0.198321
2214	0	0.215689
2215	0	0.283398
2216	0	0.286172
2217	0	0.244743
2218	0	0.253182
2219	0	0.318039
2220	0	0.378117
2221	0	0.376385
2222	0	0.350608
2223	0	0.351059
2224	0	0.52381
2225	0	0.52381
2226	0	0.52381
2227	0	0.52381
2228	0	0.346561
2229	0	0.346561
2230	0	0.377011
2231	0	0.393939
2232	0	0.376471
2233	0	0.376471
2234	0	0.376471
2235	0	0.337838
2236	0	0.263158
2237	0	0.517685
2238	0	0.524346
2239	0	0.373099
2240	0	0.395452
2241	0	0.393243
2242	0	0.39446
2243	0	0.620722
2244	0	0.619796
2245	0	0.549388
2246	0	0.619796
2247	0	0.555042
2248	0	0.555042
2249	0	0.556892
2250	0	0.395795
2251	0	0.395409
2252	0	0.393132
2253	0	0.401232
2254	0	0.043956
2255	0	0.402431
2256	0	0.403133
2257	0	0.394854
2258	0	0.396315
2259	0	0.389623
2260	0	0.389623
2261	0	0.39764
2262	0	0.394859
2263	0	0.396717
2264	0	0.400201
2265	0	0.477805
2266	0	0.423416
2267	0	0.291877
2268	0	0.187216
2269	0	0.201965
2270	0	0.202634
2271	0	0.209787
2272	0	0.251462
2273	0	0.256106
2274	0	0.258278
2275	0	0.330707
2276	0	0.355431
2277	0	0.348026
2278	0	0.439472
2279	0	0.461307
2280	0	0.510157
2281	0	0.296296
2282	0	0.290598
2283	0	0.290598
2284	0	0.336667
2285	0	0.395257
2286	0	0.383399
2287	0	0.452381
2288	0	0.594771
2289	0	0.594771
2290	0	0.381818
2291	0	0.371169
2292	0	0.155797
2293	0	0.119565
2294	0	0.401465
2295	0	0.166667
2296	0	0.1
2297	0	0.1
2298	0	0
2299	0	0
2300	0	0
2301	0	0
2302	0	0
2303	0	0
2304	0	0
2305	0	0
2306	0	0.308425
2307	0	0.354099
2308	0	0.435394
2309	0	0.0769231
2310	0	0.0666667
2311	0	0.142857
2312	0	0.142857
2313	0	0.2
2314	0	0.2
2315	0	0
2316	0	0
2317	0	0.142857
2318	0	0.142857
2319	0	0.109091
2320	0	0.136364
2321	0	0.333333
2322	0	0.284574
2323	0	0.375012
2324	0	0.551957
2325	0	0.363636
2326	0	0
2327	0	0
2328	0	0
2329	0	0
2330	0	0
2331	0	0
2332	0	0
2333	0	0
2334	0	0.120879
2335	0	0.0769231
2336	0	0.264311
2337	0	0
2338	0	0
2339	0	0
2340	0	0
2341	0	0
2342	0	0
2343	0	0
2344	0	0
2345	0	0
2346	0	0
2347	0	0
2348	0	0.267196
2349	0	0.2
2350	0	0.190476
2351	0	0.190476
2352	0	0.190476
2353	0	0.111111
2354	0	0.0606061
2355	0	0.0606061
2356	0	0.0261438
2357	0	0.0253623
2358	0	0.303506
2359	0	0
2360	0	0
2361	0	0
2362	0	0.333333
2363	0	1
2364	0	1
2365	0	1
2366	0	1
2367	0	1
2368	0	1
2369	0	0.5
2370	0	0.244444
2371	0	0.166667
2372	0	0.246775
2373	0	0.276393
2374	0	0.284787
2375	0	0.269438
2376	0	0.240134
2377	0	0.220382
2378	0	0.101756
2379	0	0.0834013
2380	0	0.0766793
2381	0	0.0931492
2382	0	0.0708638
2383	0	0.0620483
2384	0	0.0727441
2385	0	0.0847496
2386	0	0.142857
2387	0	0.3
2388	0	0
2389	0	0
2390	0	0
2391	0	0
2392	0	0
2393	0	0
2394	0	0
2395	0	0
2396	0	0
2397	0	0
2398	0	0.156037
2399	0	0.194861
2400	0	0.170599
2401	0	0.0909091
2402	0	0.0190476
2403	0	0.0444444
2404	0	0.0555556
2405	0	0
2406	0	0
2407	0	0
2408	0	0
2409	0	0
2410	0	0
2411	0	0
2412	0	0
2413	0	0
2414	0	0
2415	0	0
2416	0	0
2417	0	0.166667
2418	0	0.166667
2419	0	0.166667
2420	0	0.134833
2421	0	0.164835
2422	0	0.164835
2423	0	0.164835
2424	0	0.164835
2425	0	0.164835
2426	0	0.142292
2427	0	0.142292
2428	0	0.142292
2429	0	0
2430	0	0
2431	0	0.11396
2432	0	0.0924731
2433	0	0.185964
2434	0	0.0545455
2435	0	0.0363636
2436	0	0.0357143
2437	0	0.0357143
2438	0	0.0147059
2439	0	0.047619
2440	0	0.152459
2441	0	0.133333
2442	0	0.379447
2443	0	0.149049
2444	0	0.339352
2445	0	0.341875
2446	0	0.214452
2447	0	0.166667
2448	0	0
2449	0	0
2450	0	0.282759
2451	0	0.187767
2452	0	0.301072
2453	0	0.389191
2454	0	0.467503
2455	0	0.563387
2456	0	0.190805
2457	0	0.133333
2458	0	0.08
2459	0	0.0955882
2460	0	0.181818
2461	0	0.133333
2462	0	0.1
2463	0	0.166667
2464	0	0.166667
2465	0	0.166667
2466	0	0.166667
2467	0	0.349105
2468	0	0.35609
2469	0	0.35668
2470	0	0.35916
2471	0	0.459809
2472	0	0.459808
2473	0	0.463624
2474	0	0.666667
2475	0	0.666667
2476	0	0.666667
2477	0	0.666667
2478	0	0.666667
2479	0	0.666667
2480	0	0.392857
2481	0	0.266667
2482	0	0.266667
2483	0	0.266667
2484	0	0.218182
2485	0	0.181818
2486	0	0.181818
2487	0	0.279255
2488	0	0.223684
2489	0	0.215971
2490	0	0.12099
2491	0	0.458816
2492	0	0.461631
2493	0	0
2494	0	0
2495	0	0
2496	0	0
2497	0	0
2498	0	0
2499	0	0.166667
2500	0	0.166667
2501	0	0.166667
2502	0	0.25
2503	0	0.171429
2504	0	0.128571
2505	0	0.26546
2506	0	0.254587
2507	0	0.295603
2508	0	0.27869
2509	0	0.173702
2510	0	0.143324
2511	0	0.114423
2512	0	0.107204
2513	0	0.101587
2514	0	0.0789316
2515	0	0.16675
2516	0	0.0666667
2517	0	0.0666667
2518	0	0
2519	0	0
2520	0	0
2521	0	0
2522	0	0
2523	0	0
2524	0	0
2525	0	0
2526	0	0
2527	0	0
2528	0	0
2529	0	0
2530	0	0
2531	0	0
2532	0	0
2533	0	0
2534	0	0
2535	0	0
2536	0	0
2537	0	0
2538	0	0
2539	0	0
2540	0	0
2541	0	0
2542	0	0
2543	0	0
2544	0	0
2545	0	0
2546	0	0
2547	0	0
2548	0	0
2549	0	0
2550	0	0.025641
2551	0	0.0384615
2552	0	0.0384615
2553	0	0.0384615
2554	0	0.0261438
2555	0	0.0538462
2556	0	0.118149
2557	0	0.10561
2558	0	0.091108
2559	0	0
2560	0	0.0823413
2561	0	0.0682731
2562	0	0.0502831
2563	0	0.0473872
2564	0	0.0694208
2565	0	0
2566	0	0.284034
2567	0	0.299465
2568	0	0.293651
2569	0	0.293651
2570	0	0.0783699
2571	0	0.0660941
2572	0	0.0643021
2573	0	0.105027
2574	0	0.120879
2575	0	0.1
2576	0	0
2577	0	0
2578	0	0
2579	0	0
2580	0	0
2581	0	0
2582	0	0
2583	0	0
2584	0	0.3
2585	0	0.3
2586	0	0.0912776
2587	0	0
2588	0	0
2589	0	0
2590	0	0
2591	0	0
2592	0	0
2593	0	0
2594	0	0
2595	0	0.0666667
2596	0	0.148989
2597	0	0
2598	0	0
2599	0	0
2600	0	0
2601	0	0
2602	0	0
2603	0	0
2604	0	0
2605	0	0
2606	0	0
2607	0	0
2608	0	0
2609	0	0
2610	0	0.12138
2611	0	0.75
2612	0	0.75
2613	0	0.75
2614	0	0.471429
2615	0	0.311522
2616	0	0.295547
2617	0	0.280769
2618	0	0.261351
2619	0	0.20362
2620	0	0.172414
2621	0	0.172414
2622	0	0.126907
2623	0	0.120849
2624	0	0.113137
2625	0	0.105657
2626	0	0.101495
2627	0	0.0958091
2628	0	0.0900709
2629	0	0.0724974
2630	0	0.067035
2631	0	0.0662857
2632	0	0.150096
2633	0	0.152446
2634	0	0.27975
2635	0	0.269931
2636	0	0.307303
2637	0	0.101449
2638	0	0.115385
2639	0	0.238377
2640	0	0.0916667
2641	0	0.0916667
2642	0	0.127273
2643	0	0.109091
2644	0	0
2645	0	0
2646	0	0
2647	0	0
2648	0	0
2649	0	0
2650	0	0
2651	0	0
2652	0	0
2653	0	0
2654	0	0
2655	0	0
2656	0	0
2657	0	0
2658	0	0
2659	0	0
2660	0	0
2661	0	0
2662	0	0
2663	0	0
2664	0	0.316771
2665	0	0.237502
2666	0	0.261841
2667	0	0.249016
2668	0	0.276029
2669	0	0.368444
2670	0	0.387719
2671	0	0.396596
2672	0	0.0888889
2673	0	0.0888889
2674	0	0.399643
2675	0	0
2676	0	0
2677	0	0
2678	0	0
2679	0	0
2680	0	0
2681	0	0.402193
2682	0	0
2683	0	0
2684	0	0
2685	0	0
2686	0	0
2687	0	0
2688	0	0
2689	0	0
2690	0	0
2691	0	0
2692	0	0
2693	0	0
2694	0	0
2695	0	0
2696	0	0
2697	0	0
2698	0	0.387454
2699	0	0
2700	0	0
2701	0	0
2702	0	0.1
2703	0	0.1
2704	0	0.1
2705	0	0.1
2706	0	0.1
2707	0	0.1
2708	0	0
2709	0	0
2710	0	0
2711	0	0.0666667
2712	0	0.391984
2713	0	0
2714	0	0
2715	0	0
2716	0	0
2717	0	0
2718	0	0
2719	0	0
2720	0	0
2721	0	0
2722	0	0
2723	0	0
2724	0	0
2725	0	0
2726	0	0
2727	0	0.905923
2728	0	0.759482
2729	0	0.759482
2730	0	0.644706
2731	0	0.331363
2732	0	0
2733	0	0
2734	0	0
2735	0	0
2736	0	0
2737	0	0
2738	0	0
2739	0	0
2740	0	0
2741	0	0.109091
2742	0	0.339048
2743	0	0
2744	0	0
2745	0	0
2746	0	0
2747	0	0
2748	0	0
2749	0	0
2750	0	0
2751	0	0
2752	0	0
2753	0	0
2754	0	0
2755	0	0
2756	0	0
2757	0	0
2758	0	0
2759	0	0
2760	0	0
2761	0	0
2762	0	0
2763	0	0
2764	0	0
2765	0	0.409673
2766	0	0.284124
2767	0	0
2768	0	0
2769	0	0
2770	0	0
2771	0	0
2772	0	0
2773	0	0
2774	0	0
2775	0	0
2776	0	0
2777	0	0
2778	0	0
2779	0	0
2780	0	0
2781	0	0
2782	0	0
2783	0	0
2784	0	0
2785	0	0
2786	0	0
2787	0	0
2788	0	0
2789	0	0
2790	0	0
2791	0	0
2792	0	0
2793	0	0
2794	0	0
2795	0	0
2796	0	0
2797	0	0
2798	0	0
2799	0	0
2800	0	0
2801	0	0
2802	0	0
2803	0	0
2804	0	0
2805	0	0
2806	0	0
2807	0	0
2808	0	0
2809	0	0
2810	0	0
2811	0	0
2812	0	0
2813	0	0
2814	0	0
2815	0	0
2816	0	0
2817	0	0
2818	0	0
2819	0	0
2820	0	0
2821	0	0
2822	0	0
2823	0	0
2824	0	0
2825	0	0
2826	0	0
2827	0	0
2828	0	0
2829	0	0
2830	0	0
2831	0	0
2832	0	0
2833	0	0
2834	0	0
2835	0	0
2836	0	0
2837	0	0
2838	0	0
2839	0	0
2840	0	0
2841	0	0
2842	0	0
2843	0	0
2844	0	0
2845	0	0
2846	0	0
2847	0	0
2848	0	0
2849	0	0
2850	0	0
2851	0	0
2852	0	0
2853	0	0
2854	0	0
2855	0	0
2856	0	0
2857	0	0
2858	0	0
2859	0	0
2860	0	0
2861	0	0
2862	0	0
2863	0	0
2864	0	0
2865	0	0
2866	0	0
2867	0	0
2868	0	0
2869	0	0
2870	0	0
2871	0	0
2872	0	0
2873	0	0
2874	0	0
2875	0	0
2876	0	0
2877	0	0
2878	0	0
2879	0	0
2880	0	0
2881	0	0
2882	0	0
2883	0	0
2884	0	0
2885	0	0
2886	0	0
2887	0	0
2888	0	0
2889	0	0
2890	0	0
2891	0	0
2892	0	0
2893	0	0
2894	0	0
2895	0	0
2896	0	0
2897	0	0
2898	0	0
2899	0	0
2900	0	0
2901	0	0
2902	0	0
2903	0	0
2904	0	0
2905	0	0
2906	0	0
2907	0	0
2908	0	0
2909	0	0
2910	0	0
2911	0	0
2912	0	0
2913	0	0
2914	0	0
2915	0	0
2916	0	0
2917	0	0
2918	0	0
2919	0	0
2920	0	0
2921	0	0
2922	0	0
2923	0	0
2924	0	0
2925	0	0
2926	0	0
2927	0	0
2928	0	0
2929	0	0
2930	0	0
2931	0	0
2932	0	0
2933	0	0
2934	0	0
2935	0	0
2936	0	0
2937	0	0
2938	0	0
2939	0	0
2940	0	0
2941	0	0
2942	0	0
2943	0	0
2944	0	0
2945	0	0
2946	0	0
2947	0	0
2948	0	0
2949	0	0
2950	0	0
2951	0	0
2952	0	0
2953	0	0
2954	0	0
2955	0	0
2956	0	0
2957	0	0
2958	0	0
2959	0	0
2960	0	0
2961	0	0
2962	0	0
2963	0	0
2964	0	0
2965	0	0
2966	0	0
2967	0	0
2968	0	0
2969	0	0
2970	0	0
2971	0	0
2972	0	0
2973	0	0
2974	0	0
2975	0	0
2976	0	0
2977	0	0
2978	0	0.047619
2979	0	0.047619
2980	0	0.047619
2981	0	0.0357143
2982	0	0.0277778
2983	0	0.0277778
2984	0	0.0277778
2985	0	0.0222222
2986	0	0.103333
2987	0	0.0825397
2988	0	0.0869565
2989	0	0.0756214
2990	0	0.0756303
2991	0	0.0801315
2992	0	0.0890723
2993	0	0.0759389
2994	0	0.0749402
2995	0	0.0778274
2996	0	0.0694204
2997	0	0.0762391
2998	0	0.0834208
2999	0	0.0840016
3000	0	0.0735908
3001	0	0
3002	0	0
3003	0	0
3004	0	0
3005	0	0
3006	0	0
3007	0	0
3008	0	0
3009	0	0
3010	0	0
3011	0	0
3012	0	0
3013	0	0
3014	0	0
3015	0	0
3016	0	0
3017	0	0
3018	0	0
3019	0	0
3020	0	0
3021	0	0
3022	0	0
3023	0	0
3024	0	0
3025	0	0
3026	0	0
3027	0	0
3028	0	0
3029	0	0
3030	0	0
3031	0	0
3032	0	0
3033	0	0
3034	0	0
3035	0	0
3036	0	0
3037	0	0
3038	0	0
3039	0	0
3040	0	0
3041	0	0
3042	0	0
3043	0	0
3044	0	0
3045	0	0
3046	0	0
3047	0	0
3048	0	0
3049	0	0
3050	0	0
3051	0	0
3052	0	0
3053	0	0
3054	0	0
3055	0	0
3056	0	0
3057	0	0
3058	0	0
3059	0	0
3060	0	0
3061	0	0
3062	0	0
3063	0	0
3064	0	0
3065	0	0
3066	0	0
3067	0	0
3068	0	0
3069	0	0
3070	0	0
3071	0	0
3072	0	0
3073	0	0
3074	0	0
3075	0	0
3076	0	0
3077	0	0
3078	0	0
3079	0	0
3080	0	0
3081	0	0
3082	0	0
3083	0	0
3084	0	0
3085	0	0
3086	0	0
3087	0	0
3088	0	0
3089	0	0
3090	0	0
3091	0	0
3092	0	0
3093	0	0
3094	0	0
3095	0	0
3096	0	0
3097	0	0
3098	0	0
3099	0	0
3100	0	0
3101	0	0
3102	0	0
3103	0	0
3104	0	0
3105	0	0
3106	0	0
3107	0	0
3108	0	0
3109	0	0
3110	0	0
3111	0	0
3112	0	0
3113	0	0
3114	0	0
3115	0	0
3116	0	0
3117	0	0
3118	0	0
3119	0	0
3120	0	0
3121	0	0
3122	0	0
3123	0	0
3124	0	0
3125	0	0
3126	0	0
3127	0	0
3128	0	0
3129	0	0
3130	0	0
3131	0	0
3132	0	0
3133	0	0
3134	0	0
3135	0	0
3136	0	0
3137	0	0
3138	0	0
3139	0	0
3140	0	0
3141	0	0
3142	0	0
3143	0	0
3144	0	0
3145	0	0
3146	0	0
3147	0	0
3148	0	0
3149	0	0
3150	0	0
3151	0	0
3152	0	0
3153	0	0
3154	0	0
3155	0	0
3156	0	0
3157	0	0
3158	0	0
3159	0	0
3160	0	0
3161	0	0
3162	0	0
3163	0	0
3164	0	0
3165	0	0
3166	0	0
3167	0	0
3168	0	0
3169	0	0
3170	0	0
3171	0	0
3172	0	0
3173	0	0
3174	0	0
3175	0	0
3176	0	0
3177	0	0
3178	0	0
3179	0	0
3180	0	0
3181	0	0
3182	0	0
3183	0	0.047619
3184	0	0
3185	0	0
3186	0	0
3187	0	0.0606061
3188	0	0.0747475
3189	0	0.0638868
3190	0	0.0538323
3191	0	0.108333
3192	0	0.133333
3193	0	0.133333
3194	0	0.154412
3195	0	0.132353
3196	0	0.0846774
3197	0	0.0730769
3198	0	0.043782
3199	0	0.0431732
3200	0	0.0454273
3201	0	0.0499783
3202	0	0.0403133
3203	0	0
3204	0	0
3205	0	0
3206	0	0
3207	0	0
3208	0	0
3209	0	0
3210	0	0
3211	0	0
3212	0	0
3213	0	0
3214	0	0
3215	0	0
3216	0	0
3217	0	0
3218	0	0
3219	0	0
3220	0	0
3221	0	0
3222	0	0
3223	0	0
3224	0	0
3225	0	0
3226	0	0
3227	0	0
3228	0	0
3229	0	0
3230	0	0
3231	0	0
3232	0	0
3233	0	0
3234	0	0
3235	0	0
3236	0	0
3237	0	0
3238	0	0
3239	0	0
3240	0	0
3241	0	0
3242	0	0
3243	0	0
3244	0	0
3245	0	0
3246	0	0
3247	0	0
3248	0	0
3249	0	0
3250	0	0
3251	0	0
3252	0	0
3253	0	0
3254	0	0
3255	0	0
3256	0	0
3257	0	0
3258	0	0
3259	0	0
3260	0	0
3261	0	0
3262	0	0
3263	0	0
3264	0	0
3265	0	0
3266	0	0
3267	0	0
3268	0	0
3269	0	0
3270	0	0
3271	0	0
3272	0	0
3273	0	0
3274	0	0
3275	0	0
3276	0	0
3277	0	0
3278	0	0
3279	0	0
3280	0	0
3281	0	0
3282	0	0
3283	0	0
3284	0	0
3285	0	0
3286	0	0
3287	0	0
3288	0	0
3289	0	0
3290	0	0
3291	0	0
3292	0	0
3293	0	0
3294	0	0
3295	0	0
3296	0	0
3297	0	0
3298	0	0
3299	0	0
3300	0	0
3301	0	0
3302	0	0
3303	0	0
3304	0	0
3305	0	0
3306	0	0
3307	0	0
3308	0	0
3309	0	0
3310	0	0
3311	0	0
3312	0	0
3313	0	0
3314	0	0
3315	0	0
3316	0	0
3317	0	0
3318	0	0
3319	0	0
3320	0	0
3321	0	0
3322	0	0
3323	0	0
3324	0	0
3325	0	0
3326	0	0
3327	0	0
3328	0	0
3329	0	0
3330	0	0
3331	0	0
3332	0	0
3333	0	0
3334	0	0
3335	0	0
3336	0	0
3337	0	0
3338	0	0
3339	0	0
3340	0	0
3341	0	0
3342	0	0
3343	0	0
3344	0	0
3345	0	0
3346	0	0
3347	0	0
3348	0	0
3349	0	0
3350	0	0
3351	0	0
3352	0	0
3353	0	0
3354	0	0
3355	0	0
3356	0	0
3357	0	0
3358	0	0
3359	0	0
3360	0	0
3361	0	0
3362	0	0
3363	0	0
3364	0	0
3365	0	0
3366	0	0
3367	0	0
3368	0	0
3369	0	0
3370	0	0
3371	0	0
3372	0	0
3373	0	0
3374	0	0
3375	0	0
3376	0	0
3377	0	0
3378	0	0
3379	0	0
3380	0	0
3381	0	0
3382	0	0
3383	0	0
3384	0	0
3385	0	0
3386	0	0
3387	0	0
3388	0	0
3389	0	0
3390	0	0
3391	0	0
3392	0	0
3393	0	0
3394	0	0
3395	0	0
3396	0	0
3397	0	0
3398	0	0
3399	0	0
3400	0	0
3401	0	0
3402	0	0
3403	0	0
3404	0	0
3405	0	0
3406	0	0
3407	0	0
3408	0	0
3409	0	0
3410	0	0
3411	0	0
3412	0	0
3413	0	0.333333
3414	0	0.333333
3415	0	0.333333
3416	0	0.333333
3417	0	0.333333
3418	0	0.333333
3419	0	0.333333
3420	0	0.333333
3421	0	0.333333
3422	0	0.333333
3423	0	0.333333
3424	0	0.333333
3425	0	0.333333
3426	0	0.333333
3427	0	0.333333
3428	0	0.333333
3429	0	0.333333
3430	0	0.333333
3431	0	0.333333
3432	0	0.333333
3433	0	0.333333
3434	0	0.333333
3435	0	0.333333
3436	0	0.166667
3437	0	0.166667
3438	0	0.1
3439	0	0.1
3440	0	0.1
3441	0	0.1
3442	0	0.1
3443	0	0.1
3444	0	0.1
3445	0	0.1
3446	0	0.1
3447	0	0.1
3448	0	0.1
3449	0	0.1
3450	0	0.1
3451	0	0.1
3452	0	0.1
3453	0	0.1
3454	0	0.1
3455	0	0.1
3456	0	0.1
3457	0	0.1
3458	0	0.1
3459	0	0.1
3460	0	0.1
3461	0	0.1
3462	0	0.1
3463	0	0.1
3464	0	0.1
3465	0	0.1
3466	0	0.1
3467	0	0.1
3468	0	0.1
3469	0	0.1
3470	0	0.1
3471	0	0.1
3472	0	0.1
3473	0	0.1
3474	0	0.1
3475	0	0.1
3476	0	0.1
3477	0	0.1
3478	0	0.1
3479	0	0.1
3480	0	0.1
3481	0	0.1
3482	0	0.1
3483	0	0.1
3484	0	0.1
3485	0	0.1
3486	0	0.1
3487	0	0.1
3488	0	0.1
3489	0	0.1
3490	0	0.1
3491	0	0.1
3492	0	0.1
3493	0	0.1
3494	0	0.1
3495	0	0.1
3496	0	0.1
3497	0	0.1
3498	0	0.0666667
3499	0	0.0666667
3500	0	0.0666667
3501	0	0.0666667
3502	0	0.0666667
3503	0	0.0666667
3504	0	0.0666667
3505	0	0.0666667
3506	0	0.0666667
3507	0	0.0666667
3508	0	0.0666667
3509	0	0.0666667
3510	0	0.0666667
3511	0	0.0666667
3512	0	0.0666667
3513	0	0.0666667
3514	0	0.0666667
3515	0	0.0666667
3516	0	0.047619
3517	0	0.047619
3518	0	0.047619
3519	0	0.047619
3520	0	0.0277778
3521	0	0.134503
3522	0	0.121053
3523	0	0.112554
3524	0	0.0896159
3525	0	0.0697674
3526	0	0.0693802
3527	0	0.0619718
3528	0	0.0587387
3529	0	0.124599
3530	0	0.126686
3531	0	0.1069
3532	0	0.0803904
3533	0	0.0856375
3534	0	0.0893107
3535	0	0.0645779
3536	0	0.0447742
3537	0	0.0467766
3538	0	0.0469696
3539	0	0.0500928
3540	0	0.0691581
3541	0	0.0638913
3542	0	0.0357143
3543	0	0.047619
3544	0	0.1
3545	0	0.1
3546	0	0.1
3547	0	0.166667
3548	0	0.166667
3549	0	0.166667
3550	0	0.166667
3551	0	0.166667
3552	0	0.166667
3553	0	0.166667
3554	0	0.166667
3555	0	0.166667
3556	0	0.166667
3557	0	0.333333
3558	0	0.333333
3559	0	0.333333
3560	0	0.333333
3561	0	0.333333
3562	0	0.333333
3563	0	0.333333
3564	0	0.333333
3565	0	0.333333
3566	0	0.333333
3567	0	0.333333
3568	0	0.333333
3569	0	0.333333
3570	0	0.333333
3571	0	0.333333
3572	0	0.333333
3573	0	0.333333
3574	0	1
3575	0	1
3576	0	1
3577	0	1
3578	0	1
3579	0	1
3580	0	1
3581	0	0
3582	0	0
3583	0	0
3584	0	0
3585	0	0
3586	0	0
3587	0	0
3588	0	0
3589	0	0
3590	0	0
3591	0	0
3592	0	0
3593	0	0
3594	0	0
3595	0	0
3596	0	0
3597	0	0
3598	0	0
3599	0	0
3600	0	0
3601	0	0
3602	0	0
3603	0	0
3604	0	0
3605	0	0
3606	0	0
3607	0	0
3608	0	0
3609	0	0
3610	0	0
3611	0	0
3612	0	0
3613	0	0
3614	0	0
3615	0	0
3616	0	0
3617	0	0
3618	0	0
3619	0	0
3620	0	0
3621	0	0
3622	0	0
3623	0	0
3624	0	0
3625	0	0
3626	0	0
3627	0	0
3628	0	0
3629	0	0
3630	0	0
3631	0	0
3632	0	0
3633	0	0
3634	0	0
3635	0	0
3636	0	0
3637	0	0
3638	0	0
3639	0	0
3640	0	0
3641	0	0
3642	0	0
3643	0	0
3644	0	0
3645	0	0
3646	0	0
3647	0	0
3648	0	0
3649	0	0
3650	0	0
3651	0	0
3652	0	0
3653	0	0
3654	0	0
3655	0	0
3656	0	0
3657	0	0
3658	0	0
3659	0	0
3660	0	0
3661	0	0
3662	0	0
3663	0	0
3664	0	0
3665	0	0
3666	0	0
3667	0	0
3668	0	0
3669	0	0
3670	0	0
3671	0	0
3672	0	0
3673	0	0
3674	0	0
3675	0	0
3676	0	0
3677	0	0
3678	0	0
3679	0	0
3680	0	0
3681	0	0
3682	0	0
3683	0	0
3684	0	0
3685	0	0
3686	0	0
3687	0	0
3688	0	0
3689	0	0
3690	0	0
3691	0	0
3692	0	0
3693	0	0
3694	0	0
3695	0	0
3696	0	0
3697	0	0
3698	0	0
3699	0	0
3700	0	0
3701	0	0
3702	0	0
3703	0	0
3704	0	0
3705	0	0
3706	0	0
3707	0	0
3708	0	0
3709	0	0
3710	0	0
3711	0	0
3712	0	0
3713	0	0
3714	0	0
3715	0	0
3716	0	0
3717	0	0
3718	0	0
3719	0	0
3720	0	0
3721	0	0
3722	0	0
3723	0	0
3724	0	0
3725	0	0
3726	0	0
3727	0	0
3728	0	0
3729	0	0
3730	0	0
3731	0	0
3732	0	0
3733	0	0
3734	0	0
3735	0	0
3736	0	0
3737	0	0
3738	0	0
3739	0	0
3740	0	0
3741	0	0
3742	0	0
3743	0	0
3744	0	0
3745	0	0
3746	0	0
3747	0	0
3748	0	0
3749	0	0
3750	0	0
3751	0	0
3752	0	0
3753	0	0
3754	0	0
3755	0	0
3756	0	0
3757	0	0
3758	0	0
3759	0	0
3760	0	0
3761	0	0
3762	0	0
3763	0	0
3764	0	0
3765	1	1
3766	1	1
3767	1	1
3768	1	1
3769	1	1
3770	1	1
3771	1	1
3772	1	1
3773	1	1
3774	1	1
3775	1	1
3776	1	1
3777	1	1
3778	1	1
3779	1	1
3780	1	1
3781	1	1
3782	1	1
3783	1	1
3784	1	1
3785	1	1
3786	1	1
3787	1	1
3788	1	1
3789	1	1
3790	1	1
3791	1	1
3792	1	1
3793	1	1
3794	1	1
3795	1	1
3796	1	1
3797	1	1
3798	1	1
3799	1	1
3800	1	1
3801	1	1
3802	1	1
3803	1	1
3804	1	1
3805	1	1
3806	1	1
3807	1	1
3808	1	1
3809	1	1
3810	1	1
3811	1	1
3812	1	1
3813	1	1
3814	1	1
3815	1	1
3816	1	1
3817	1	1
3818	1	1
3819	1	1
3820	1	1
3821	1	1
3822	1	1
3823	1	1
3824	1	1
3825	1	1
3826	1	1
3827	1	1
3828	1	1
3829	1	1
3830	1	1
3831	1	1
3832	1	1
3833	1	1
3834	1	1
3835	1	1
3836	1	1
3837	0	0.333333
3838	0	0.109175
3839	0	0.177011
3840	0	0.189655
3841	0	0.203704
3842	0	0.189655
3843	0	0.216524
3844	0	0.0897436
3845	0	0.0808824
3846	0	0.0508313
3847	0	0.0579526
3848	0	0.0868577
3849	0	0.0390071
3850	0	0.00952381
3851	0	0.0128205
3852	0	0.0151515
3853	0	0.0181818
3854	0	0.0222222
3855	0	0.0222222
3856	0	0.0277778
3857	0	0.0277778
3858	0	0.0277778
3859	0	0.0277778
3860	0	0.0277778
3861	0	0.0357143
3862	0	0.0357143
3863	0	0.0357143
3864	0	0.0357143
3865	0	0.0357143
3866	0	0.0357143
3867	0	0.0357143
3868	0	0.047619
3869	0	0.047619
3870	0	0.047619
3871	0	0.047619
3872	0	0.047619
3873	0	0.047619
3874	0	0.047619
3875	0	0.047619
3876	0	0.0666667
3877	0	0.0666667
3878	0	0.0666667
3879	0	0.0666667
3880	0	0.0666667
3881	0	0.0666667
3882	0	0.0666667
3883	0	0.0666667
3884	0	0.0666667
3885	0	0.0666667
3886	0	0.0666667
3887	0	0.1
3888	0	0.1
3889	0	0.1
3890	0	0.1
3891	0	0.1
3892	0	0.1
3893	0	0.1
3894	0	0.1
3895	0	0.1
3896	0	0.1
3897	0	0.166667
3898	0	0.166667
3899	0	0.166667
3900	0	0.166667
3901	0	0.166667
3902	0	0.166667
3903	0	0.166667
3904	0	0.166667
3905	0	0.166667
3906	0	0.166667
3907	0	0.166667
3908	0	0.166667
3909	0	0.166667
3910	0	0.166667
3911	0	0.166667
3912	0	0.166667
3913	0	0.166667
3914	0	0.166667
3915	0	0.166667
3916	0	0.166667
3917	0	0.166667
3918	0	0.166667
3919	0	0.166667
3920	0	0.166667
3921	0	0.166667
3922	0	0.166667
3923	0	0.166667
3924	0	0.333333
3925	0	0.333333
3926	0	0.333333
3927	0	0.333333
3928	0	0.333333
3929	0	0.333333
3930	0	0.333333
3931	0	0.333333
3932	0	0.333333
3933	0	0.333333
3934	0	0.333333
3935	0	0.333333
3936	0	0.333333
3937	0	0.333333
3938	0	0.333333
3939	0	0.333333
3940	0	0.333333
3941	0	0.333333
3942	0	0.333333
3943	0	0.333333
3944	0	0.333333
3945	0	0.333333
3946	0	0.333333
3947	0	0.333333
3948	0	0.333333
3949	0	0.333333
3950	0	0.333333
3951	0	0.333333
3952	0	0.333333
3953	1	1
3954	1	1
3955	1	1
3956	1	1
3957	1	1
3958	1	1
3959	1	1
3960	1	1
3961	1	1
3962	1	1
3963	1	1
3964	1	1
3965	1	1
3966	1	1
3967	1	1
3968	1	1
3969	1	1
3970	1	1
3971	1	1
3972	1	1
3973	1	1
3974	1	1
3975	1	1
3976	1	1
3977	1	1
3978	1	1
3979	1	1
3980	1	1
3981	1	1
3982	1	1
3983	1	1
3984	1	1
3985	1	1
3986	1	1
3987	1	1
3988	1	1
3989	0	0
3990	0	0
3991	0	0
3992	0	0
3993	0	0
3994	0	0
3995	0	0
3996	0	0
3997	0	0
3998	0	0
3999	0	0
4000	0	0
4001	0	0
4002	0	0
4003	0	0
4004	0	0
4005	0	0
4006	0	0
4007	0	0
4008	0	0
4009	0	0
