Site	ColumnScore	SumOfPairsScore
1	1	0
2	1	0
3	1	0
4	1	0
5	1	0
6	1	0
7	1	0
8	1	0
9	1	0
10	1	0
11	1	0
12	1	0
13	1	0
14	1	0
15	1	0
16	1	0
17	1	0
18	1	0
19	1	0
20	1	0
21	1	0
22	1	0
23	1	0
24	1	0
25	1	0
26	1	0
27	1	0
28	1	0
29	1	0
30	1	0
31	1	0
32	1	0
33	1	0
34	1	0
35	1	0
36	1	0
37	1	0
38	1	0
39	1	0
40	1	0
41	1	0
42	1	0
43	1	0
44	1	0
45	1	0
46	1	0
47	1	0
48	1	0
49	1	0
50	1	0
51	1	0
52	1	0
53	1	0
54	1	0
55	1	0
56	1	0
57	1	0
58	1	0
59	1	0
60	1	0
61	1	0
62	1	0
63	1	0
64	1	0
65	1	0
66	1	0
67	1	0
68	1	0
69	1	0
70	1	0
71	1	0
72	1	0
73	1	0
74	1	0
75	1	0
76	1	0
77	1	0
78	1	0
79	1	0
80	1	0
81	1	0
82	1	0
83	1	0
84	1	0
85	1	0
86	1	0
87	1	0
88	1	0
89	1	0
90	1	0
91	1	0
92	1	0
93	1	0
94	1	0
95	1	0
96	1	0
97	1	0
98	1	0
99	1	0
100	1	0
101	1	0
102	1	0
103	1	0
104	1	0
105	1	0
106	1	0
107	1	0
108	1	0
109	1	0
110	1	0
111	1	0
112	1	0
113	1	0
114	1	0
115	1	0
116	1	0
117	1	0
118	1	0
119	1	0
120	1	0
121	1	0
122	1	0
123	1	0
124	1	0
125	1	0
126	1	0
127	1	0
128	1	0
129	1	0
130	1	0
131	1	0
132	1	0
133	1	0
134	1	0
135	1	0
136	1	0
137	1	0
138	1	0
139	1	0
140	1	0
141	1	0
142	1	0
143	1	0
144	1	0
145	1	0
146	1	0
147	1	0
148	1	0
149	1	0
150	1	0
151	1	0
152	1	0
153	1	0
154	1	0
155	1	0
156	1	0
157	1	0
158	1	0
159	1	0
160	1	0
161	1	0
162	1	0
163	1	0
164	1	0
165	1	0
166	1	0
167	1	0
168	1	0
169	1	0
170	1	0
171	1	0
172	1	0
173	1	0
174	1	0
175	1	0
176	1	0
177	1	0
178	1	0
179	1	0
180	1	0
181	1	0
182	1	0
183	1	0
184	1	0
185	1	0
186	1	0
187	1	0
188	1	0
189	1	0
190	1	0
191	1	0
192	1	0
193	1	0
194	1	0
195	1	0
196	1	0
197	1	0
198	1	0
199	1	0
200	1	0
201	1	0
202	1	0
203	1	0
204	1	0
205	1	0
206	1	0
207	1	0
208	1	0
209	1	0
210	1	0
211	1	0
212	1	0
213	1	0
214	1	0
215	1	0
216	1	0
217	1	0
218	1	0
219	1	0
220	1	0
221	1	0
222	1	0
223	1	0
224	1	0
225	1	0
226	1	0
227	1	0
228	1	0
229	1	0
230	1	0
231	1	0
232	1	0
233	1	0
234	1	0
235	1	0
236	1	0
237	1	0
238	1	0
239	1	0
240	1	0
241	1	0
242	1	0
243	1	0
244	0	0
245	0	0
246	0	0
247	1	0
248	1	0
249	1	0
250	1	0
251	1	0
252	1	0
253	1	0
254	1	0
255	1	0
256	1	0
257	0	0
258	0	0
259	0	0
260	0	0
261	0	0
262	0	0
263	0	0
264	0	0
265	0	0
266	0	0
267	0	0
268	0	0
269	0	0
270	0	0
271	0	0
272	0	0
273	0	0
274	0	0
275	0	0
276	0	0
277	0	0
278	0	0
279	0	0
280	0	0
281	0	0
282	0	0
283	1	0
284	1	0
285	1	0
286	0	0
287	0	0
288	0	0
289	0	0
290	0	0
291	0	0
292	0	0
293	0	0
294	0	0
295	0	0
296	0	0
297	0	0
298	0	0
299	0	0
300	0	0
301	0	0
302	0	0
303	0	0
304	0	0
305	0	0
306	0	0
307	0	0
308	0	0
309	1	0
310	1	0
311	1	0
312	1	0
313	0	0
314	0	0
315	0	0
316	0	0
317	0	0
318	0	0
319	0	0
320	0	0
321	0	0
322	0	0
323	0	0
324	0	0
325	0	0
326	0	0
327	0	0
328	0	0
329	0	0
330	0	0
331	0	0
332	0	0
333	0	0
334	0	0
335	0	0
336	0	0
337	0	0
338	0	0
339	0	0
340	0	0
341	0	0
342	0	0
343	0	0
344	0	0
345	0	0
346	0	0
347	0	0
348	0	0
349	0	0
350	0	0
351	0	0
352	0	0
353	0	0
354	0	0
355	0	0
356	0	0
357	1	0
358	1	0
359	1	0
360	0	0
361	0	0
362	0	0
363	0	0
364	0	0
365	0	0
366	0	0
367	0	0
368	0	0
369	0	0
370	0	0
371	0	0
372	1	0
373	1	0
374	1	0
375	1	0
376	1	0
377	1	0
378	0	0
379	0	0
380	0	0
381	0	0
382	0	0
383	0	0
384	0	0
385	0	0
386	0	0
387	0	0
388	0	0
389	0	0
390	0	0
391	0	0
392	0	0
393	0	0
394	1	0
395	0	0
396	0	0
397	0	0
398	1	0
399	1	0
400	1	0
401	1	0
402	1	0
403	1	0
404	1	0
405	1	0
406	1	0
407	1	0
408	1	0
409	1	0
410	1	0
411	0	0
412	0	0
413	0	0
414	0	0
415	0	0
416	0	0
417	0	0
418	0	0
419	0	0
420	1	0
421	1	0
422	1	0
423	1	0
424	1	0
425	0	0
426	0	0
427	0	0
428	0	0
429	0	0
430	0	0
431	0	0
432	0	0
433	0	0
434	0	0
435	0	0
436	0	0
437	0	0
438	0	0
439	0	0
440	0	0
441	0	0
442	0	0
443	0	0
444	0	0
445	0	0
446	0	0
447	0	0
448	0	0
449	0	0
450	0	0
451	0	0
452	0	0
453	0	0
454	0	0
455	0	0
456	0	0
457	0	0
458	0	0
459	0	0
460	0	0
461	0	0
462	0	0
463	0	0
464	0	0
465	0	0
466	0	0
467	0	0
468	0	0
469	0	0
470	0	0
471	0	0
472	0	0
473	0	0
474	0	0
475	0	0
476	0	0
477	0	0
478	0	0
479	0	0
480	0	0
481	0	0
482	0	0
483	0	0
484	0	0
485	0	0
486	0	0
487	0	0
488	0	0
489	0	0
490	0	0
491	0	0
492	0	0
493	0	0
494	0	0
495	0	0
496	0	0
497	0	0
498	0	0
499	0	0
500	0	0
501	0	0
502	0	0
503	0	0
504	0	0
505	0	0
506	0	0
507	0	0
508	0	0
509	0	0
510	0	0
511	0	0
512	0	0
513	0	0
514	0	0
515	0	0
516	0	0
517	0	0
518	0	0
519	0	0
520	0	0
521	0	0
522	0	0
523	0	0
524	0	0
525	0	0
526	0	0
527	0	0
528	0	0
529	0	0
530	0	0
531	0	0
532	0	0
533	0	0
534	0	0
535	0	0
536	0	0
537	0	0
538	0	0
539	0	0
540	0	0
541	0	0
542	0	0
543	0	0
544	0	0
545	0	0
546	0	0
547	0	0
548	0	0
549	0	0
550	0	0
551	0	0
552	0	0
553	0	0
554	0	0
555	0	0
556	0	0
557	0	0
558	0	0
559	0	0
560	0	0
561	0	0
562	0	0
563	0	0
564	0	0
565	0	0
566	0	0
567	0	0
568	0	0
569	0	0
570	0	0
571	0	0
572	0	0
573	0	0
574	0	0
575	0	0
576	0	0
577	0	0
578	0	0
579	0	0
580	0	0
581	0	0
582	0	0
583	0	0
584	0	0
585	0	0
586	0	0
587	0	0
588	0	0
589	0	0
590	0	0
591	0	0
592	0	0.047619
593	0	0.047619
594	0	0.047619
595	0	0.047619
596	0	0
597	0	0
598	0	0
599	0	0
600	0	0
601	0	0
602	0	0
603	0	0
604	0	0
605	0	0
606	0	0
607	0	0
608	0	0
609	0	0
610	0	0
611	0	0
612	0	0
613	0	0
614	0	0
615	0	0
616	0	0
617	0	0
618	0	0
619	0	0
620	0	0
621	0	0
622	0	0
623	0	0
624	0	0
625	0	0
626	0	0
627	0	0
628	0	0
629	0	0
630	0	0
631	0	0
632	0	0
633	0	0
634	0	0
635	0	0
636	0	0
637	0	0
638	0	0
639	0	0
640	0	0
641	0	0
642	0	0
643	0	0
644	0	0
645	0	0
646	0	0
647	0	0
648	0	0
649	0	0
650	0	0
651	0	0
652	0	0
653	0	0
654	0	0
655	0	0
656	0	0
657	0	0
658	0	0
659	0	0
660	0	0
661	0	0
662	0	0
663	0	0
664	0	0
665	0	0
666	0	0
667	0	0
668	0	0
669	0	0
670	0	0
671	0	0
672	0	0
673	0	0
674	0	0
675	0	0
676	0	0
677	0	0
678	0	0
679	0	0
680	0	0
681	0	0
682	0	0
683	0	0
684	0	0
685	0	0
686	0	0.0454545
687	0	0.0454545
688	0	0.0454545
689	0	0.0454545
690	0	0.0454545
691	0	0.0454545
692	0	0.0454545
693	0	0.0454545
694	0	0.0545455
695	0	0.0454545
696	0	0.0454545
697	0	0.0454545
698	0	0.0454545
699	0	0.0454545
700	0	0.0454545
701	0	0.0454545
702	0	0.0384615
703	0	0.0384615
704	0	0.0384615
705	0	0.032967
706	0	0.032967
707	0	0.032967
708	0	0.0285714
709	0	0.0285714
710	0	0.0285714
711	0	0.0285714
712	0	0.0285714
713	0	0.0285714
714	0	0.0285714
715	0	0.0285714
716	0	0.0285714
717	0	0.0380952
718	0	0.043956
719	0	0.043956
720	0	0.0181818
721	0	0.0151515
722	0	0.0151515
723	0	0.0333333
724	0	0.0294118
725	0	0.0294118
726	0	0.0294118
727	0	0.0294118
728	0	0.0294118
729	0	0.0294118
730	0	0.0294118
731	0	0.0294118
732	0	0.0294118
733	0	0.0294118
734	0	0.0294118
735	0	0.0294118
736	0	0.0294118
737	0	0.0294118
738	0	0.0294118
739	0	0.0294118
740	0	0.0294118
741	0	0.0294118
742	0	0.0294118
743	0	0.0294118
744	0	0.0294118
745	0	0.0294118
746	0	0.0261438
747	0	0.0261438
748	0	0.0261438
749	0	0.0261438
750	0	0.0292398
751	0	0.0196078
752	0	0.0175439
753	0	0.0116959
754	0	0.0116959
755	0	0.0105263
756	0	0.0105263
757	0	0.0105263
758	0	0.0105263
759	0	0.0105263
760	0	0.0105263
761	0	0.0105263
762	0	0.0105263
763	0	0.00952381
764	0	0.00865801
765	0	0.00865801
766	0	0.00790514
767	0	0.00790514
768	0	0.00790514
769	0	0.0118577
770	0	0.0118577
771	0	0.00790514
772	0	0.00790514
773	0	0.00790514
774	0	0.0118577
775	0	0.0118577
776	0	0.01
777	0	0.0166667
778	0	0.0166667
779	0	0.0166667
780	0	0.0166667
781	0	0.017094
782	0	0.014245
783	0	0.014245
784	0	0.017094
785	0	0.014245
786	0	0.014245
787	0	0.014245
788	0	0.014245
789	0	0.014245
790	0	0.017094
791	0	0.0183908
792	0	0.0193548
793	0	0.0170455
794	0	0.0132576
795	0	0.0160428
796	0	0.00793651
797	0	0.0045045
798	0	0.00426743
799	0	0.00404858
800	0	0.00384615
801	0	0.00731707
802	0	0.00464576
803	0	0.00487805
804	0	0.00464576
805	0	0.00951374
806	0	0.012685
807	0	0.00951374
808	0	0.00966184
809	0	0.0138776
810	0	0.0120664
811	0	0.00978337
812	0	0.010101
813	0	0.00942761
814	0	0.00935126
815	0	0.0107345
816	0	0.0101695
817	0	0.0112994
818	0	0.0132205
819	0	0.0124008
820	0	0.0149038
821	0	0.0131162
822	0	0.0120083
823	0	0.0144391
824	0	0.0154386
825	0	0.0178513
826	0	0.0168624
827	0	0.0153568
828	0	0.0154905
829	0	0.0186047
830	0	0.0139241
831	0	0.0179254
832	0	0.028973
833	0	0.0637183
834	0	0.0639652
835	0	0.0682159
836	0	0.063463
837	0	0.0615297
838	0	0.0586811
839	0	0.0645207
840	0	0.0598201
841	0	0.0746332
842	0	0.0978493
843	0	0.0897308
844	0	0.126083
845	0	0.130348
846	0	0.193552
847	0	0.186331
848	0	0.218338
849	0	0.358747
850	0	0.406564
851	0	0.511208
852	0	0.522463
853	0	0.557843
854	0	0.587942
855	0	0.671957
856	0	0.679416
857	0	0.776809
858	0	0.92095
859	0	0.919458
860	0	0.925641
861	0	0.931658
862	0	0.938181
863	0	0.94041
864	0	0
865	0	0
866	0	0
867	0	0
868	0	0
869	0	0
870	0	0
871	0	0
872	0	0
873	0	0
874	0	0
875	0	0
876	0	0
877	0	0
878	0	0.936924
879	0	0.941307
880	0	0.929364
881	0	1
882	0	1
883	0	1
884	0	1
885	0	1
886	0	1
887	0	1
888	0	1
889	0	1
890	0	1
891	0	1
892	0	1
893	0	0.959927
894	0	0.964105
895	0	0.107143
896	0	0.0714286
897	0	0.1
898	0	0.166667
899	0	0.166667
900	0	0.166667
901	0	0.166667
902	0	0.166667
903	0	0.166667
904	0	0.166667
905	0	0.333333
906	0	0.333333
907	0	0.333333
908	0	0
909	0	0
910	0	0
911	0	0
912	0	0
913	0	0
914	0	0
915	0	0.981132
916	0	0.977014
917	0	0.974964
918	0	0.974964
919	0	1
920	0	1
921	0	0.771706
922	0	0.773293
923	0	1
924	0	1
925	1	1
926	0	0.729519
927	0	0
928	0	0
929	0	0
930	0	0
931	0	0
932	0	0.681818
933	0	0.799362
934	0	0.922753
935	0	0.987419
936	0	0.987419
937	0	0.989511
938	0	0.989511
939	0	0.991603
940	0	0.991601
941	0	0.993684
942	0	0.993691
943	0	0
944	0	0.993684
945	0	0.993684
946	0	0.993684
947	0	0.993684
948	0	0.993644
949	0	0.995756
950	0	0.997881
951	0	0.993658
952	0	0.993658
953	0	0.995769
954	0	0.997884
955	0	0.997884
956	0	0.99789
957	0	1
958	0	1
959	0	1
960	1	1
961	1	1
962	1	1
963	1	1
964	0	0
965	0	0
966	0	0
967	0	0
968	0	0
969	0	0
970	1	0
971	1	0
972	1	0
973	1	0
974	1	0
975	1	0
976	1	0
977	1	0
978	1	0
979	1	0
980	1	0
981	1	0
982	1	0
983	1	0
984	1	0
985	1	0
986	1	0
987	1	0
988	1	0
989	1	0
990	1	0
991	1	0
992	1	0
993	1	0
994	1	0
995	1	0
996	0	0
997	0	0
998	1	1
999	1	1
1000	1	1
1001	0	0.333333
1002	0	0.333333
1003	0	0.6
1004	0	0.6
1005	0	0.6
1006	0	1
1007	0	1
1008	0	0.666667
1009	0	0.995853
1010	0	0.995857
1011	0	0.995857
1012	0	0.995857
1013	0	0
1014	0	0
1015	0	0
1016	0	0.991757
1017	0	0.99175
1018	0	0.993797
1019	0	0.989689
1020	0	0.995861
1021	0	0.995861
1022	0	0.995866
1023	0	0.995866
1024	0	0.995866
1025	1	0
1026	1	0
1027	1	0
1028	0	0
1029	0	0
1030	0	0
1031	0	0
1032	0	0
1033	0	0.993865
1034	0	0.993865
1035	0	0.995904
1036	0	0.995904
1037	0	0.924862
1038	0	0
1039	0	0.867286
1040	0	0
1041	0	0.626507
1042	0	0.612903
1043	0	0.975584
1044	0	0.985721
1045	0	0.985712
1046	0	0.9959
1047	0	0.995895
1048	0	0.995895
1049	0	0.993871
1050	0	0.995916
1051	0	0.995916
1052	0	0.52381
1053	0	0.333333
1054	0	0.333333
1055	0	0.333333
1056	0	0.4
1057	0	0.2
1058	0	0.2
1059	0	0.166667
1060	0	0.166667
1061	0	0
1062	0	0
1063	0	0
1064	0	0
1065	0	0
1066	0	0
1067	0	0
1068	0	0
1069	0	0
1070	0	0
1071	0	0.698298
1072	0	0.333333
1073	0	0.718926
1074	0	0.718926
1075	0	0.997984
1076	0	0.997984
1077	1	1
1078	1	1
1079	1	1
1080	1	1
1081	1	1
1082	1	1
1083	1	1
1084	1	1
1085	1	1
1086	1	1
1087	0	1
1088	0	1
1089	0	1
1090	0	1
1091	0	1
1092	0	1
1093	0	0.995964
1094	0	1
1095	0	0.998004
1096	0	0.998004
1097	1	1
1098	1	1
1099	0	0.998004
1100	0	0.994032
1101	0	0.99402
1102	0	0.990064
1103	0	0.98808
1104	0	0.988058
1105	0	0.986078
1106	0	1
1107	0	1
1108	0	0.770732
1109	0	1
1110	0	1
1111	0	1
1112	0	1
1113	0	0.666667
1114	0	0.887663
1115	0	0.290443
1116	0	0.404878
1117	0	0.589015
1118	0	0.852308
1119	0	1
1120	1	1
1121	1	1
1122	1	1
1123	0	0.357143
1124	0	0.527412
1125	0	0.62293
1126	0	0.560606
1127	0	0.406593
1128	0	0.487179
1129	0	0.337931
1130	0	0.35822
1131	0	1
1132	0	0.990072
1133	0	0.988091
1134	0	0.992054
1135	0	0.992054
1136	0	0.992062
1137	0	0.992062
1138	0	0.992062
1139	0	0.992069
1140	0	0.992069
1141	0	0.990091
1142	0	0.990101
1143	0	1
1144	0	1
1145	0	0.973684
1146	0	0.833249
1147	0	0.862987
1148	0	0.550044
1149	0	0.91591
1150	0	0.854839
1151	0	0.66503
1152	0	0.716009
1153	0	0.702341
1154	0	0.208898
1155	0	0.223904
1156	0	0.163366
1157	0	0.481459
1158	0	0.629281
1159	0	0.399649
1160	0	0.625287
1161	0	0.121212
1162	0	0.127273
1163	0	0.0666667
1164	0	0.0357143
1165	0	0.047619
1166	0	0.1
1167	0	0.166667
1168	0	0.166667
1169	0	0.333333
1170	1	1
1171	1	1
1172	0	1
1173	0	1
1174	0	1
1175	0	1
1176	0	1
1177	0	1
1178	0	0.900306
1179	0	0.964561
1180	0	0.571429
1181	0	1
1182	0	1
1183	0	0.99601
1184	0	0.998004
1185	1	1
1186	0	0.996018
1187	1	1
1188	0	1
1189	0	1
1190	0	1
1191	0	0.998012
1192	0	0.998012
1193	0	0.994044
1194	0	0.994044
1195	0	0.99405
1196	0	0.99405
1197	0	0.996032
1198	0	0.994065
1199	0	0.994065
1200	0	0.996038
1201	0	0.996038
1202	0	0.998016
1203	0	1
1204	1	1
1205	1	1
1206	1	1
1207	1	1
1208	1	1
1209	1	1
1210	0	1
1211	0	1
1212	0	1
1213	0	1
1214	0	0.998012
1215	0	1
1216	0	1
1217	0	0.99802
1218	1	1
1219	0	0.998024
1220	1	1
1221	1	1
1222	0	0.998022
1223	1	1
1224	1	1
1225	1	1
1226	0	1
1227	1	1
1228	1	1
1229	1	1
1230	0	0.998016
1231	0	0
1232	1	0
1233	0	0
1234	0	0
1235	0	0
1236	0	0
1237	1	0
1238	1	0
1239	1	0
1240	0	0.988172
1241	0	0.990128
1242	0	0.990128
1243	0	0.990128
1244	1	0
1245	1	0
1246	1	0
1247	1	0
1248	1	0
1249	1	0
1250	1	0
1251	0	0.992091
1252	0	0.992091
1253	0	0.994059
1254	0	0.994059
1255	1	0
1256	1	0
1257	1	0
1258	0	0.955817
1259	0	0.333333
1260	0	0.333333
1261	0	0.996044
1262	0	0.996042
1263	0	0.996045
1264	0	0.996045
1265	0	0.996038
1266	0	0.996038
1267	0	0.996038
1268	0	1
1269	0	1
1270	0	0.998012
1271	0	0.998014
1272	0	0.998014
1273	0	0.998014
1274	0	0.99801
1275	0	0.998008
1276	0	0.998008
1277	0	0.996014
1278	0	0.996014
1279	0	0.998004
1280	0	1
1281	0	1
1282	0	0.998004
1283	0	0.998004
1284	0	0.992052
1285	0	0.990081
1286	0	0.990091
1287	0	0.994048
1288	0	0.996034
1289	0	0.998014
1290	0	0.998014
1291	0	0.998016
1292	0	0.998016
1293	0	0.998016
1294	0	0.998016
1295	0	0.998016
1296	0	0.996034
1297	0	0.998016
1298	0	0.998016
1299	0	0.994054
1300	0	0.996022
1301	0	0.996022
1302	0	0.996022
1303	1	0
1304	1	0
1305	1	0
1306	1	0
1307	1	0
1308	1	0
1309	1	0
1310	1	0
1311	1	0
1312	1	0
1313	1	0
1314	1	0
1315	1	0
1316	1	0
1317	1	0
1318	1	0
1319	1	0
1320	1	0
1321	1	0
1322	1	0
1323	1	0
1324	1	0
1325	1	0
1326	1	0
1327	1	0
1328	1	0
1329	1	0
1330	1	0
1331	1	0
1332	0	0
1333	0	0
1334	0	0
1335	0	0
1336	0	0.994048
1337	0	0.994048
1338	0	0.994048
1339	0	0.994048
1340	0	0.994048
1341	0	0.994059
1342	0	0.992091
1343	0	0.992099
1344	0	0.994065
1345	0	0.994065
1346	1	0
1347	1	0
1348	1	0
1349	1	0
1350	0	0.988144
1351	0	0.988144
1352	0	0.988144
1353	0	0.988133
1354	0	0.988133
1355	0	0.988133
1356	0	0.986159
1357	0	0.986159
1358	0	0.986159
1359	0	0.986159
1360	0	0.672727
1361	0	0.968422
1362	0	0.978136
1363	0	0.978136
1364	0	0.978136
1365	0	0.978373
1366	0	0.978373
1367	0	0.978373
1368	0	0.978373
1369	0	0.980331
1370	0	0.980331
1371	0	0.980329
1372	0	0.980349
1373	0	0.982307
1374	0	0.982307
1375	0	0.982307
1376	0	0.98229
1377	0	0.98229
1378	0	0.982307
1379	0	0.984262
1380	0	0.984262
1381	0	0.982319
1382	0	0.986232
1383	0	0.986232
1384	0	0.986232
1385	0	0.986219
1386	0	0.986219
1387	0	0.986219
1388	0	0.986219
1389	0	0.986219
1390	0	0.986219
1391	0	0.994054
1392	0	0.99603
1393	0	0.99603
1394	0	0.99603
1395	0	0.99603
1396	0	0.998014
1397	0	0.996034
1398	0	0.998016
1399	0	0.998016
1400	0	0.998012
1401	0	0.998012
1402	0	0.998012
1403	0	0.998012
1404	0	0.99603
1405	0	0.98023
1406	0	0.6
1407	0	0.976419
1408	0	0.966694
1409	0	0.311111
1410	0	0.311111
1411	0	0.932718
1412	0	0.4
1413	0	1
1414	0	0.936455
1415	1	0
1416	1	0
1417	1	0
1418	1	0
1419	1	0
1420	1	0
1421	1	0
1422	1	0
1423	1	0
1424	1	0
1425	1	0
1426	1	0
1427	1	0
1428	1	0
1429	1	0
1430	1	0
1431	1	0
1432	1	0
1433	1	0
1434	1	0
1435	1	0
1436	1	0
1437	1	0
1438	1	0
1439	1	0
1440	1	0
1441	0	0.688498
1442	0	0.56229
1443	0	0.974382
1444	0	0.968518
1445	0	0.333333
1446	0	0.333333
1447	0	0.333333
1448	1	1
1449	1	1
1450	0	1
1451	0	1
1452	0	1
1453	0	1
1454	0	1
1455	0	0.984116
1456	0	0.984141
1457	0	0.984141
1458	0	0.978289
1459	0	0
1460	0	0
1461	0	1
1462	0	1
1463	0	0.994048
1464	0	0.994048
1465	0	0.992073
1466	0	0.992073
1467	0	0.992073
1468	0	0.994054
1469	0	0.994054
1470	0	0.994054
1471	0	0.994054
1472	0	0.994048
1473	0	0.994048
1474	0	0.994042
1475	0	0.994042
1476	0	0.994042
1477	0	0.994042
1478	0	0.992058
1479	0	0.992058
1480	0	0.992058
1481	0	0.992058
1482	0	0.992058
1483	0	0.992058
1484	0	0.992058
1485	0	0.990076
1486	0	0.5
1487	0	0.994036
1488	0	0.994036
1489	0	0.998012
1490	0	0.998012
1491	0	0.998012
1492	0	0.998012
1493	0	0.998012
1494	0	0.998012
1495	0	0.998012
1496	0	0.998012
1497	0	0.998014
1498	0	0.998014
1499	0	0.998014
1500	0	0.998014
1501	0	0.998014
1502	0	0.998014
1503	0	0.998014
1504	0	0.99603
1505	0	0.99603
1506	0	0.998012
1507	0	0.998012
1508	0	0.996026
1509	0	1
1510	0	1
1511	0	1
1512	0	0.998012
1513	0	0.998012
1514	0	0.998012
1515	0	0.998008
1516	0	0.998008
1517	0	0.998008
1518	0	0.998008
1519	0	0
1520	0	0
1521	0	0
1522	0	0
1523	1	0
1524	1	0
1525	1	0
1526	1	0
1527	1	0
1528	1	0
1529	1	0
1530	1	0
1531	1	0
1532	1	0
1533	1	0
1534	0	0
1535	0	0
1536	0	0
1537	0	0
1538	0	0.984229
1539	0	0.984229
1540	0	0.984229
1541	0	0.982301
1542	0	0.984275
1543	0	0.98426
1544	1	0
1545	1	0
1546	1	0
1547	1	0
1548	1	0
1549	1	0
1550	0	0.998008
1551	0	0.998008
1552	0	0.998008
1553	0	0.996024
1554	0	0.996024
1555	0	0.996024
1556	0	0.995526
1557	0	0.995526
1558	0	1
1559	0	1
1560	0	1
1561	0	1
1562	0	0
1563	0	0
1564	0	0
1565	0	0
1566	0	0
1567	0	0
1568	0	0
1569	0	0
1570	0	0
1571	0	0
1572	0	0.785358
1573	0	0.785171
1574	0	0.785205
1575	0	0.784829
1576	0	1
1577	0	1
1578	0	1
1579	0	1
1580	0	1
1581	0	1
1582	0	1
1583	0	1
1584	0	0.776861
1585	0	0.776861
1586	0	0.778852
1587	0	0
1588	0	0
1589	0	0
1590	0	0
1591	0	0
1592	0	0
1593	0	0
1594	0	0
1595	0	0
1596	0	0.5
1597	0	0.5
1598	0	0.74932
1599	0	0.589744
1600	0	0.492176
1601	0	0.666885
1602	0	0.666904
1603	0	0.646507
1604	0	0.645652
1605	0	0.208791
1606	0	0.617063
1607	0	0.390364
1608	0	0.441374
1609	0	0
1610	0	0.714286
1611	0	0.111111
1612	0	0.196771
1613	0	0
1614	0	0
1615	0	0
1616	0	1
1617	0	0.453952
1618	0	0.474572
1619	0	0.199134
1620	0	0.261438
1621	0	0.124183
1622	0	0.642221
1623	0	0.647673
1624	0	0.66023
1625	0	0.657893
1626	0	0.714708
1627	0	0.722375
1628	0	0
1629	0	0.0666667
1630	0	0.1
1631	0	0.166667
1632	0	0.166667
1633	0	0.166667
1634	0	0.166667
1635	0	0.166667
1636	0	0.72951
1637	0	0.754548
1638	0	0.753892
1639	0	0.752828
1640	0	0.754984
1641	0	0.755196
1642	0	0.757161
1643	0	0.765102
1644	0	0.766811
1645	0	0.768342
1646	0	0.768325
1647	0	0.765293
1648	0	0.767016
1649	0	0.768746
1650	0	0.768746
1651	0	0.768746
1652	0	0.771991
1653	0	0.96451
1654	0	0.958622
1655	0	0.956672
1656	0	0.960493
1657	0	0.954453
1658	0	0.76238
1659	1	0
1660	1	0
1661	1	0
1662	0	0
1663	0	0
1664	0	0
1665	0	0
1666	0	0
1667	0	0.782444
1668	0	0.784414
1669	0	0.784604
1670	0	0.784796
1671	0	0.785368
1672	0	0.783403
1673	0	0.783783
1674	0	0.783973
1675	0	0.784162
1676	0	0.782816
1677	0	0.78212
1678	0	0.782502
1679	0	0.774868
1680	0	0.77355
1681	0	0.772478
1682	0	0.76572
1683	0	0.76572
1684	0	0.958426
1685	0	0.96039
1686	0	0.958424
1687	0	0.958424
1688	0	0.956419
1689	0	0.958342
1690	0	0.95835
1691	0	0.95835
1692	0	0.95835
1693	0	0.958342
1694	0	0.956388
1695	0	0.95448
1696	0	0.954476
1697	0	0.954476
1698	0	0.95446
1699	0	0.761526
1700	0	0.166667
1701	0	0
1702	0	0
1703	0	0
1704	0	0
1705	0	0.333333
1706	0	0.333333
1707	0	0.333333
1708	0	0.333333
1709	0	1
1710	0	1
1711	0	1
1712	0	1
1713	0	1
1714	0	1
1715	0	0.596116
1716	0	0.966397
1717	0	0.968455
1718	0	0.972377
1719	0	0.972377
1720	0	0.972377
1721	0	0.972377
1722	0	0.972377
1723	0	0.974341
1724	0	0.974341
1725	0	0.972347
1726	0	0.974255
1727	0	0.974255
1728	0	0.974255
1729	0	0.974255
1730	0	0.859259
1731	0	0.871711
1732	0	0.871711
1733	0	0.690523
1734	0	0.968258
1735	0	0.966947
1736	0	0.631362
1737	0	0.630219
1738	0	0.25
1739	0	0.704569
1740	0	1
1741	0	1
1742	0	1
1743	0	1
1744	0	1
1745	0	1
1746	0	0.72698
1747	0	0.727452
1748	0	0.728396
1749	0	0.728394
1750	0	0.728394
1751	0	0.728394
1752	0	0.728394
1753	0	0.0666667
1754	0	0.719467
1755	0	0.719467
1756	0	0.4
1757	0	0.4
1758	0	0.4
1759	0	0.730104
1760	0	0.728422
1761	0	0.730323
1762	0	0.72954
1763	0	0.72954
1764	0	0.726643
1765	0	0.919245
1766	0	0.917349
1767	0	0.917349
1768	0	0.925926
1769	0	0.925926
1770	0	0.91914
1771	0	0.911566
1772	0	0.909761
1773	0	0.909761
1774	0	0.719758
1775	0	0.962406
1776	0	0.95083
1777	0	0.759142
1778	0	0.670569
1779	0	0.670559
1780	0	0.966448
1781	0	0.972326
1782	0	0.968464
1783	0	0.980214
1784	0	0.982167
1785	0	0.982185
1786	0	0.986129
1787	0	0.986129
1788	0	0.988093
1789	0	0.988093
1790	0	0.988105
1791	0	0.988105
1792	0	0.988105
1793	0	0.986143
1794	0	0.986143
1795	0	0.986143
1796	0	0.986143
1797	0	0.988117
1798	0	0.988117
1799	0	0.988117
1800	0	0.988117
1801	0	0.988117
1802	0	0.990083
1803	0	0.990083
1804	0	0.990083
1805	0	0.990083
1806	0	0.990083
1807	0	0.992056
1808	0	0.992056
1809	0	0.996024
1810	0	0.994038
1811	0	0.994044
1812	0	0.994038
1813	0	0.994038
1814	0	0.992066
1815	0	0.994048
1816	0	0.994048
1817	0	0.992066
1818	0	0.992062
1819	0	0.992062
1820	0	0.994044
1821	0	0.996028
1822	0	0.996028
1823	0	0.99801
1824	0	0.994012
1825	0	0.994012
1826	0	0.994
1827	0	1
1828	0	1
1829	0	1
1830	0	1
1831	0	1
1832	0	1
1833	0	1
1834	0	1
1835	0	1
1836	0	1
1837	0	1
1838	0	1
1839	0	1
1840	0	1
1841	0	1
1842	0	1
1843	0	1
1844	0	1
1845	0	0.974331
1846	0	0.974331
1847	0	0.974331
1848	0	0.974331
1849	0	0.972371
1850	0	0.97044
1851	0	0.97044
1852	0	0.970438
1853	0	0.970438
1854	0	0.968356
1855	0	0.916729
1856	0	0.714801
1857	0	0.709175
1858	0	0.724304
1859	0	0.309091
1860	0	0.290909
1861	0	0.721905
1862	0	0.717535
1863	0	0.717535
1864	0	0.718156
1865	0	0.718883
1866	0	0.713205
1867	0	0.708146
1868	0	0.717661
1869	0	0.0666667
1870	0	0.726602
1871	0	0.238095
1872	0	0.676479
1873	0	0.700343
1874	0	0.321053
1875	0	0.333333
1876	0	0.333333
1877	0	0.6
1878	0	0.48554
1879	0	0.809921
1880	0	0.551183
1881	0	0.5559
1882	0	0.8381
1883	0	0.830713
1884	0	0.805144
1885	0	0.224615
1886	0	0.229437
1887	0	0.229437
1888	0	0.464667
1889	0	0.0942029
1890	0	0.884048
1891	0	0.526687
1892	0	0.227941
1893	0	0.509804
1894	0	0.431373
1895	0	0.927205
1896	0	0.927279
1897	0	0.927279
1898	0	0.92542
1899	0	0.912214
1900	0	0.919848
1901	0	0.919848
1902	0	0.1
1903	0	0.1
1904	0	0.1
1905	0	0
1906	0	0
1907	0	0
1908	0	0.927433
1909	0	0.929375
1910	0	0.1
1911	0	0.735612
1912	0	0.5
1913	0	0
1914	0	0
1915	0	0
1916	0	0
1917	0	0
1918	0	0
1919	0	0.741023
1920	0	0.746915
1921	0	0.746913
1922	0	0.746915
1923	0	0.746919
1924	0	0.74862
1925	0	0.74862
1926	0	0.752032
1927	0	0.750548
1928	0	0.75054
1929	0	0.747579
1930	0	0.747579
1931	0	0.745871
1932	0	0.752662
1933	0	0.752222
1934	0	0.753718
1935	0	0.753718
1936	0	0.75372
1937	0	0.755218
1938	0	0.772158
1939	0	0.772159
1940	0	0.770428
1941	0	0.768899
1942	0	0.768899
1943	0	0.768903
1944	0	0.768903
1945	0	0.76954
1946	0	0.76954
1947	0	0.76954
1948	0	0.771265
1949	0	0.769538
1950	0	0.755852
1951	0	0.743961
1952	0	0.745423
1953	0	0.745423
1954	0	0.738649
1955	0	0.6
1956	0	0.746318
1957	0	0.746318
1958	0	0.746322
1959	0	0.740495
1960	0	0.561707
1961	0	0
1962	0	0
1963	0	0
1964	0	0
1965	0	0
1966	0	0
1967	0	0
1968	0	0
1969	0	0
1970	0	0
1971	0	0
1972	0	0
1973	0	0
1974	0	0
1975	0	0
1976	1	0
1977	1	0
1978	0	0
1979	0	0
1980	0	0
1981	0	0
1982	0	0
1983	0	1
1984	0	1
1985	0	1
1986	0	1
1987	0	0.561173
1988	0	0.560049
1989	0	0.166667
1990	0	0.333333
1991	0	0.333333
1992	0	0.333333
1993	0	1
1994	0	1
1995	0	1
1996	0	1
1997	0	1
1998	0	1
1999	0	0.732583
2000	0	0.727998
2001	0	0.726318
2002	0	0.725631
2003	0	0.725365
2004	0	1
2005	0	1
2006	0	1
2007	0	1
2008	0	1
2009	0	1
2010	0	1
2011	0	0.678484
2012	0	0.660079
2013	0	0.166667
2014	0	0.166667
2015	0	0
2016	0	0.629961
2017	0	0.617821
2018	0	0
2019	0	0
2020	0	0
2021	0	0
2022	0	0
2023	0	0.52416
2024	0	0.463527
2025	0	0.798567
2026	0	0.666667
2027	0	0.666667
2028	0	1
2029	1	1
2030	0	0
2031	0	0
2032	1	0
2033	1	0
2034	1	0
2035	0	0
2036	0	0
2037	0	0.176938
2038	0	0.268687
2039	0	0.177089
2040	0	0.145993
2041	0	0.379402
2042	0	0.421283
2043	0	0.160525
2044	0	0.135226
2045	0	0.113333
2046	0	0.110137
2047	0	0.178001
2048	0	0.343586
2049	0	0.447233
2050	0	0.468602
2051	0	0.496134
2052	0	0.682345
2053	0	0.495277
2054	0	0.495277
2055	0	0.95122
2056	0	0.793489
2057	0	0.867457
2058	0	0.929914
2059	0	0.372308
2060	0	0.561265
2061	0	0.518116
2062	0	0.904762
2063	0	0.913043
2064	0	0.968417
2065	0	0.968417
2066	0	0.968419
2067	0	0.966501
2068	0	0.964551
2069	0	0.966505
2070	0	0.968454
2071	0	0.966494
2072	0	0.966494
2073	0	0.968444
2074	0	0.968444
2075	0	0.970313
2076	0	0.830717
2077	0	0.830715
2078	0	0
2079	0	0
2080	0	0
2081	0	0
2082	0	0
2083	0	0.837629
2084	0	0
2085	0	0
2086	0	0
2087	0	0
2088	0	0.333333
2089	0	0.333333
2090	0	0.333333
2091	0	0.333333
2092	0	0.333333
2093	0	0.333333
2094	0	0.333333
2095	0	0.5
2096	0	0.5
2097	0	0.5
2098	0	0.937727
2099	0	0.93412
2100	0	0.943591
2101	0	0.945459
2102	0	0.939701
2103	0	0.392857
2104	0	0.166667
2105	0	0.166667
2106	0	0.958621
2107	0	0.960612
2108	0	0.960688
2109	0	0.964511
2110	0	0.964527
2111	0	0.964527
2112	0	0.96257
2113	0	0.611111
2114	0	0.978275
2115	0	0.980222
2116	0	1
2117	0	0.992004
2118	0	0.99002
2119	0	0.99002
2120	0	0.99002
2121	0	0
2122	0	0
2123	0	0
2124	0	0.982198
2125	0	0.968503
2126	0	0.966548
2127	0	0.964623
2128	0	0.920639
2129	0	0.309091
2130	0	0.915559
2131	0	0.917817
2132	0	1
2133	0	0.996022
2134	0	0.996022
2135	0	0.998008
2136	0	0.998008
2137	0	0.998008
2138	0	0.998008
2139	0	0.996022
2140	0	0.994042
2141	0	0.994042
2142	0	1
2143	0	1
2144	0	0.988456
2145	0	1
2146	0	0.852705
2147	0	0.456285
2148	0	0.856744
2149	0	0.41648
2150	0	0.261204
2151	0	0.392857
2152	0	0.47619
2153	0	0.678737
2154	0	0.441036
2155	0	0.217209
2156	0	0.270127
2157	0	0.293651
2158	0	0.351852
2159	0	0.417046
2160	0	0.434273
2161	0	0.460765
2162	0	0.460765
2163	0	0.650826
2164	0	0.650826
2165	0	0.643378
2166	0	0.643396
2167	0	0.638802
2168	0	0.633812
2169	0	0.631599
2170	0	0.605782
2171	0	0.658333
2172	0	0.308333
2173	0	0.602281
2174	0	0.390769
2175	0	0.270588
2176	0	0.30686
2177	0	0.317091
2178	0	1
2179	0	1
2180	0	0.312653
2181	0	0.25
2182	0	0.288651
2183	0	0.275748
2184	0	0.372479
2185	0	0.234328
2186	0	0.46499
2187	0	0.517694
2188	0	0.535006
2189	0	0.553233
2190	0	0.935313
2191	0	0.937339
2192	0	0.974053
2193	0	0.982096
2194	0	1
2195	0	1
2196	0	1
2197	0	0.986113
2198	0	0.986113
2199	0	0.988091
2200	0	0.988091
2201	0	0.988091
2202	0	0.990072
2203	0	0.990072
2204	0	0.990072
2205	0	0.990072
2206	0	0.990072
2207	0	0.990072
2208	0	0.990072
2209	0	0.990072
2210	0	0.990072
2211	0	0.990062
2212	0	0.988091
2213	0	0.988091
2214	0	0.988091
2215	0	0.986113
2216	0	0.986101
2217	0	0.986088
2218	0	0.984112
2219	0	0.982157
2220	0	0.982104
2221	0	0.939458
2222	0	0.698007
2223	0	0.722873
2224	0	0.96063
2225	0	0.970274
2226	0	0.976217
2227	0	0.976241
2228	0	0.972281
2229	0	0.972336
2230	0	0.771969
2231	0	0.776789
2232	0	0.778533
2233	0	0.778722
2234	0	0.775632
2235	0	0.775632
2236	0	0.778724
2237	0	0.778724
2238	0	0.770092
2239	0	0.770092
2240	0	0.770312
2241	0	0.770112
2242	0	0.770112
2243	0	0.960614
2244	0	0.962568
2245	0	0.960692
2246	0	0.96073
2247	0	0.960692
2248	0	0.958743
2249	0	1
2250	0	1
2251	0	1
2252	0	0.758499
2253	0	0.820202
2254	0	0.0952381
2255	0	0.238095
2256	0	0.828302
2257	0	0.960412
2258	0	0.960412
2259	0	0.190476
2260	0	0.949035
2261	0	0.952942
2262	0	0.95682
2263	0	0.95682
2264	0	0.95682
2265	0	0.956822
2266	0	0.956822
2267	0	0.958803
2268	0	0.956903
2269	0	0.960748
2270	0	0.962724
2271	0	0
2272	0	0
2273	0	0.742076
2274	0	0.742915
2275	0	0.744402
2276	0	0.744402
2277	0	0.744402
2278	0	0.910425
2279	0	0.989962
2280	0	0.990032
2281	0	0.992022
2282	0	0.992022
2283	0	0.992022
2284	0	0.988056
2285	0	0.994012
2286	0	0.994012
2287	0	0.994012
2288	0	0.99601
2289	0	0.996006
2290	0	0.996006
2291	0	0.996006
2292	0	0.996006
2293	0	0.996006
2294	0	0.996006
2295	0	0.99601
2296	0	0.99601
2297	0	0.994024
2298	0	0.994012
2299	0	0.976212
2300	0	0.970356
2301	0	0.978102
2302	0	0.978081
2303	0	0.966408
2304	0	0.49247
2305	0	0.429706
2306	0	0.352185
2307	0	0.403162
2308	0	0.527054
2309	0	0.449934
2310	0	0.588806
2311	0	0.579059
2312	0	0.895385
2313	0	0.88382
2314	0	0.82589
2315	0	0.97812
2316	0	0.98012
2317	0	0.986101
2318	0	0.986101
2319	0	0.986103
2320	0	0.986103
2321	0	0.990064
2322	0	0.982163
2323	0	0.982181
2324	0	0.968406
2325	0	0.966477
2326	0	0.966477
2327	0	0.966477
2328	0	0.966477
2329	0	0.966411
2330	0	0.966411
2331	0	0.966411
2332	0	0
2333	1	0
2334	1	0
2335	1	0
2336	1	0
2337	1	0
2338	1	0
2339	1	0
2340	1	0
2341	1	0
2342	1	0
2343	1	0
2344	1	0
2345	0	0.960577
2346	0	0.964484
2347	0	0.980146
2348	0	0.97817
2349	0	0.974276
2350	0	0.974302
2351	0	0.974302
2352	0	0.976266
2353	0	0.976266
2354	0	0.976266
2355	0	0.976266
2356	0	0.976243
2357	0	0.978191
2358	0	0.978213
2359	0	0.978213
2360	0	0.988056
2361	0	0.990042
2362	0	0.988044
2363	0	0.990022
2364	0	0.988044
2365	0	0.988032
2366	0	0.988032
2367	0	0.990022
2368	0	0.990022
2369	0	0.990022
2370	0	0.990022
2371	0	0.990012
2372	0	0.990022
2373	0	0.990022
2374	0	0.992014
2375	0	0.992014
2376	0	0.992014
2377	0	0.992014
2378	0	0.992014
2379	0	0.996002
2380	0	0.996002
2381	0	0.997998
2382	0	0.997998
2383	0	0.995998
2384	0	0.997998
2385	0	0.984108
2386	0	0.984108
2387	0	0.980189
2388	0	0.980189
2389	0	0.982163
2390	0	0.982163
2391	0	0.982145
2392	0	0.982145
2393	0	0.982145
2394	0	0.982145
2395	0	0.982163
2396	0	0.982163
2397	0	0.982163
2398	0	0.980209
2399	0	0.980209
2400	0	0.980201
2401	0	0.980201
2402	0	0.978238
2403	0	0.976293
2404	0	0.972367
2405	0	0.970438
2406	0	0.972371
2407	0	0.972371
2408	0	0.972343
2409	0	0.970352
2410	0	0.970352
2411	0	0.968358
2412	0	0.333333
2413	0	0.333333
2414	0	0.333333
2415	0	0.333333
2416	0	0
2417	0	0
2418	1	0
2419	1	0
2420	0	0
2421	0	0.664622
2422	0	0.663303
2423	0	0.663581
2424	0	0.663581
2425	0	0.766984
2426	0	0.3
2427	0	0.761639
2428	0	0.759925
2429	0	0.759923
2430	0	0.759921
2431	0	0.762699
2432	0	0.762699
2433	0	1
2434	0	1
2435	0	1
2436	0	0.772755
2437	0	0.771808
2438	0	0.770075
2439	0	0.770075
2440	0	0.770079
2441	0	0.952793
2442	0	0.950897
2443	0	0.950895
2444	0	0.947026
2445	0	0.94896
2446	0	0.947074
2447	0	0.948964
2448	0	0.947082
2449	0	0.945149
2450	0	0.945149
2451	0	0.947084
2452	0	0.945207
2453	0	0.945207
2454	0	0.949056
2455	0	0.947124
2456	0	0.947173
2457	0	0.945296
2458	0	0.945296
2459	0	0.945294
2460	0	0.945292
2461	0	0.945298
2462	0	0.949263
2463	0	0.951183
2464	0	0.951091
2465	0	0.949217
2466	0	0.951149
2467	0	0.951149
2468	0	0.951149
2469	0	0.960848
2470	0	0.972502
2471	0	0.976354
2472	0	0.976354
2473	0	0.333333
2474	0	0.976396
2475	0	0.976396
2476	0	0.976396
2477	0	0.978351
2478	0	0.98031
2479	0	0.98031
2480	0	0.98031
2481	0	0.98227
2482	0	0
2483	0	0
2484	1	0
2485	1	0
2486	0	0.981802
2487	0	0.538306
2488	0	0.876431
2489	0	0.333333
2490	0	0.333333
2491	1	0
2492	1	0
2493	1	0
2494	0	0.875076
2495	0	1
2496	1	1
2497	1	1
2498	1	1
2499	1	1
2500	1	1
2501	1	1
2502	1	1
2503	0	0.678642
2504	0	0.680333
2505	0	0.957003
2506	0	0.958914
2507	0	0.966735
2508	0	0.984262
2509	0	0.980414
2510	0	0.980433
2511	0	0.980452
2512	0	0.980452
2513	0	0.978549
2514	0	0.978549
2515	0	0.982417
2516	0	0.982417
2517	0	0.982417
2518	0	0.982417
2519	0	0.984349
2520	0	0.984349
2521	0	0.990206
2522	0	0.988264
2523	0	0.990215
2524	0	0.990215
2525	0	0.988264
2526	0	0
2527	0	0.990217
2528	0	0.990217
2529	0	0.990217
2530	0	0.990217
2531	0	0.992168
2532	0	0.992168
2533	0	0.994123
2534	0	0.994123
2535	0	0.994123
2536	0	0.994129
2537	0	0.994129
2538	0	0.994123
2539	0	0.994118
2540	0	0.994118
2541	0	0.994123
2542	0	0.994123
2543	0	0.994123
2544	0	0.996077
2545	0	0.996077
2546	0	0.996077
2547	0	0.996077
2548	0	0.996077
2549	0	0.996077
2550	0	0.996077
2551	0	0.996077
2552	0	0.996077
2553	0	0.998037
2554	0	0.998037
2555	0	0.998037
2556	0	0.998037
2557	0	0.998037
2558	0	0.998035
2559	0	0.998035
2560	0	0.996077
2561	0	0.996073
2562	0	0.996073
2563	0	0.994112
2564	0	0.994112
2565	0	0.994112
2566	0	0.994118
2567	0	0.996077
2568	0	0.996077
2569	0	0.996077
2570	0	0.996077
2571	0	0.994123
2572	0	0.99608
2573	0	0.99608
2574	0	0.99608
2575	0	0.99608
2576	0	0.99608
2577	0	1
2578	0	1
2579	0	1
2580	0	1
2581	0	1
2582	0	1
2583	0	1
2584	0	1
2585	0	1
2586	0	1
2587	0	1
2588	0	1
2589	0	1
2590	0	1
2591	0	1
2592	0	1
2593	0	1
2594	0	1
2595	0	1
2596	0	1
2597	0	1
2598	0	1
2599	0	1
2600	0	1
2601	0	1
2602	0	1
2603	0	1
2604	0	1
2605	0	1
2606	0	1
2607	0	0
2608	0	0
2609	0	0
2610	0	0
2611	0	0
2612	0	0
2613	0	0
2614	0	0
2615	0	0
2616	0	0
2617	0	0
2618	0	0
2619	0	0
2620	0	0
2621	0	0
2622	0	0
2623	0	0
2624	0	0
2625	0	0
2626	0	0
2627	0	0
2628	0	0
2629	0	0
2630	0	0
2631	0	0
2632	0	0.9786
2633	0	0.976713
2634	0	0.976715
2635	0	0.178571
2636	0	0.98436
2637	0	0.98436
2638	0	0.984356
2639	0	0.980465
2640	0	0.982392
2641	0	0.978503
2642	0	0.978503
2643	0	0.978503
2644	0	0.978503
2645	0	0
2646	0	0
2647	0	0
2648	0	0
2649	0	0
2650	0	0
2651	0	0
2652	0	0
2653	0	0
2654	0	0
2655	0	0
2656	0	0
2657	0	0
2658	0	0
2659	0	0
2660	0	0
2661	0	0
2662	0	0
2663	0	0
2664	0	0
2665	0	0
2666	0	0
2667	0	0
2668	0	0
2669	0	0
2670	0	0
2671	0	0
2672	0	0
2673	0	0
2674	0	0
2675	0	0
2676	0	0
2677	0	0
2678	0	0
2679	0	0
2680	0	0
2681	0	0
2682	0	0
2683	0	0
2684	0	0
2685	0	0
2686	0	0
2687	0	0
2688	0	0
2689	0	0
2690	0	0
2691	0	0
2692	0	0
2693	0	0
2694	0	0
2695	0	0
2696	0	0
2697	0	0
2698	0	0
2699	0	0
2700	0	0
2701	0	0.982474
2702	0	0.982474
2703	0	0.982475
2704	0	0.982475
2705	0	0.333333
2706	0	0.978602
2707	0	0.978602
2708	0	0.978602
2709	0	0.978602
2710	0	0.980519
2711	0	0
2712	0	0
2713	0	0
2714	0	0
2715	0	0
2716	0	0
2717	0	0
2718	0	0
2719	0	0
2720	0	0
2721	1	0
2722	1	0
2723	1	0
2724	1	0
2725	1	0
2726	0	0
2727	0	0
2728	0	0
2729	0	0
2730	0	0
2731	0	0
2732	0	0
2733	0	0
2734	0	0
2735	0	0
2736	0	0
2737	0	0
2738	0	0
2739	0	0
2740	0	0
2741	0	0
2742	0	0
2743	0	0
2744	0	0
2745	0	0
2746	0	0
2747	0	0
2748	0	0
2749	0	0
2750	0	0
2751	0	0
2752	0	0
2753	0	0
2754	0	0
2755	0	0
2756	0	0
2757	0	0
2758	0	0
2759	0	0
2760	0	0
2761	0	0
2762	0	0
2763	0	0
2764	0	0
2765	0	0
2766	0	0
2767	0	0.986321
2768	0	0.986321
2769	0	0.988258
2770	0	0.333333
2771	0	0.333333
2772	0	0.333333
2773	0	0.333333
2774	0	0.843844
2775	0	0.843844
2776	0	0.843844
2777	0	0.924292
2778	0	0.924292
2779	0	0.923738
2780	0	0.923738
2781	0	0.92555
2782	0	0.840099
2783	0	0.840099
2784	0	0
2785	0	0
2786	0	0
2787	0	0
2788	0	0
2789	0	0
2790	0	0
2791	0	0
2792	0	0
2793	0	0
2794	0	0
2795	0	0
2796	0	0
2797	0	0
2798	0	0
2799	0	0
2800	0	0
2801	0	0
2802	0	0.806938
2803	0	0
2804	0	0
2805	0	0
2806	0	0
2807	0	0
2808	0	0
2809	0	0
2810	0	0
2811	0	0
2812	0	0
2813	0	0
2814	0	0
2815	0	0
2816	0	0
2817	0	0.931704
2818	0	0.931704
2819	0	0.931704
2820	0	0.933534
2821	0	0.933534
2822	0	0
2823	0	0
2824	0	0
2825	0	0
2826	0	0
2827	0	0
2828	0	0
2829	0	0
2830	0	0
2831	0	0
2832	0	0
2833	0	0
2834	0	0
2835	0	0.937443
2836	0	0.937443
2837	0	0.964855
2838	0	0.964924
2839	0	0.964924
2840	0	0.965462
2841	0	0.965462
2842	0	0.965462
2843	0	0.965462
2844	0	0.965462
2845	0	0.965429
2846	0	0.967316
2847	0	0.967316
2848	0	0.967285
2849	0	0
2850	0	0
2851	0	0
2852	0	0.990109
2853	0	0.990109
2854	0	0.990099
2855	0	0.927719
2856	0	0.873454
2857	0	0.995848
2858	1	0
2859	1	0
2860	0	0.996103
2861	0	0.996103
2862	0	0.996103
2863	0	0.996103
2864	0	0.996103
2865	0	0.996103
2866	0	0.998049
2867	0	0.996099
2868	0	0.994158
2869	0	0.994158
2870	0	0.996103
2871	0	0.994163
2872	0	0.994163
2873	0	0.996107
2874	0	0.996103
2875	0	0.998049
2876	0	0.994152
2877	0	0.994152
2878	1	0
2879	1	0
2880	1	0
2881	1	0
2882	1	0
2883	1	0
2884	1	0
2885	0	0
2886	0	0
2887	0	0
2888	0	0.998049
2889	0	0.998051
2890	0	0.998051
2891	0	0.998051
2892	0	0.998053
2893	0	0.998053
2894	0	0.998053
2895	0	0.998051
2896	0	0.998049
2897	0	0.998049
2898	0	0.998049
2899	0	0.998049
2900	0	0.998049
2901	0	0.998049
2902	0	0.998049
2903	0	0.994146
2904	1	0
2905	1	0
2906	1	0
2907	1	0
2908	1	0
2909	1	0
2910	1	0
2911	1	0
2912	1	0
2913	1	0
2914	1	0
2915	1	0
2916	1	0
2917	1	0
2918	1	0
2919	1	0
2920	1	0
2921	1	0
2922	1	0
2923	1	0
2924	0	0
2925	0	0.996088
2926	0	0.996092
2927	0	0.996092
2928	0	0.994146
2929	0	0.994146
2930	0	0.994146
2931	0	0.994141
2932	0	0.994152
2933	0	0.994152
2934	0	0.994152
2935	0	0.994152
2936	0	0.994152
2937	0	0.994152
2938	0	0.994152
2939	0	0.996099
2940	1	0
2941	1	0
2942	1	0
2943	1	0
2944	1	0
2945	1	0
2946	1	0
2947	1	0
2948	1	0
2949	1	0
2950	1	0
2951	0	0.998047
2952	0	0.998047
2953	0	0.998047
2954	0	0.998047
2955	0	0.998047
2956	0	0.996099
2957	0	0.996099
2958	0	0.996099
2959	0	0.996099
2960	0	0.998047
2961	0	0.998047
2962	0	0.998045
2963	0	0.998045
2964	1	0
2965	1	0
2966	1	0
2967	1	0
2968	1	0
2969	1	0
2970	1	0
2971	1	0
2972	1	0
2973	1	0
2974	1	0
2975	1	0
2976	1	0
2977	1	0
2978	1	0
2979	1	0
2980	1	0
2981	1	0
2982	1	0
2983	1	0
2984	1	0
2985	1	1
2986	0	0.333333
2987	0	0.994146
2988	0	0.994152
2989	0	0.992208
2990	0	0.992207
2991	0	0.998043
2992	0	0.998043
2993	0	0.998043
2994	0	0.996092
2995	0	0.998045
2996	0	0.998045
2997	0	1
2998	0	1
2999	0	0.697706
3000	0	0.697706
3001	0	0.91709
3002	0	0.902314
3003	0	1
3004	0	1
3005	0	1
3006	0	0.333333
3007	0	0.333333
3008	0	0.333333
3009	0	0.333333
3010	0	0.47619
3011	0	0.35338
3012	0	0.247562
3013	0	0.216286
3014	0	0.210994
3015	0	0.227252
3016	0	0.229983
3017	0	0.148481
3018	0	0.240708
3019	1	0
3020	0	0.474512
3021	0	0.166667
3022	0	0
3023	0	0
3024	0	0.166667
3025	0	0.166667
3026	0	0.5
3027	0	0.5
3028	0	0.5
3029	0	1
3030	0	1
3031	0	1
3032	0	1
3033	0	1
3034	0	1
3035	0	1
3036	0	0.878219
3037	0	0
3038	0	0
3039	0	0
3040	0	0
3041	0	0.6
3042	0	0.3
3043	0	1
3044	0	1
3045	0	1
3046	0	1
3047	0	0.821572
3048	0	0.830292
3049	0	0.904762
3050	0	0.994163
3051	0	0.992229
3052	0	0.992229
3053	0	0.992229
3054	0	0.992229
3055	0	0
3056	0	0
3057	0	0
3058	0	0
3059	0	0
3060	0	0
3061	0	0
3062	0	0
3063	0	0
3064	0	0
3065	0	0
3066	0	0
3067	0	0
3068	0	0.1
3069	0	0.3
3070	0	0.3
3071	0	0.3
3072	0	0.3
3073	0	0.6
3074	0	0.6
3075	0	0.6
3076	0	0.919381
3077	0	0.996099
3078	0	0.996099
3079	0	0.996103
3080	0	0.994163
3081	0	0.996107
3082	0	0.998051
3083	0	0.998053
3084	0	0.998053
3085	0	0.998054
3086	0	0.998054
3087	0	0.998054
3088	0	0.998054
3089	0	0.996115
3090	0	0.996115
3091	0	0.996115
3092	0	0.998054
3093	0	0.998058
3094	0	0.998058
3095	0	0.998058
3096	0	0.998058
3097	0	1
3098	1	1
3099	1	1
3100	1	1
3101	1	1
3102	1	1
3103	1	1
3104	1	1
3105	1	1
3106	0	0.99806
3107	0	0.99806
3108	0	0.99806
3109	0	0.99806
3110	0	0.998062
3111	0	0.998062
3112	0	0.998062
3113	0	0.99806
3114	0	0.99806
3115	0	0.998062
3116	0	0.998062
3117	0	1
3118	1	1
3119	1	1
3120	1	1
3121	1	1
3122	1	1
3123	1	1
3124	1	1
3125	1	1
3126	1	1
3127	1	1
3128	1	1
3129	1	1
3130	1	1
3131	1	1
3132	0	0.992265
3133	0	0.998062
3134	0	0.99613
3135	0	0.99613
3136	0	0.994203
3137	0	0.992282
3138	0	0.992274
3139	0	0.994197
3140	0	0.994197
3141	0	0.994197
3142	0	0.994197
3143	0	0.996126
3144	0	0.996126
3145	1	0
3146	0	0.996126
3147	0	0.996126
3148	0	0.996126
3149	0	0.996126
3150	0	0.996126
3151	0	0.996126
3152	0	0
3153	0	0.996126
3154	0	0.996126
3155	0	0.996126
3156	0	0.996126
3157	0	0.996122
3158	0	0.996111
3159	0	0.996084
3160	0	0.99608
3161	0	0.99608
3162	0	0.99608
3163	0	0.998037
3164	0	0.998037
3165	0	0.992163
3166	0	0.984354
3167	0	0.984354
3168	0	0.4
3169	0	0.986307
3170	0	0.982527
3171	0	0
3172	0	0.992178
3173	0	0.992178
3174	0	0.992178
3175	0	0.992178
3176	1	0
3177	1	0
3178	1	0
3179	0	0.994125
3180	0	0.996082
3181	0	0.996082
3182	0	0.996082
3183	0	0.996082
3184	0	0.996082
3185	0	0.996082
3186	0	0.996082
3187	0	0.994125
3188	0	0.994125
3189	0	0.982519
3190	0	0.978711
3191	0	0.97867
3192	0	0.978649
3193	0	0
3194	0	0.976719
3195	0	0.982519
3196	0	0.982519
3197	0	0
3198	0	0
3199	0	0
3200	0	0
3201	0	0
3202	0	0
3203	0	0
3204	0	0
3205	1	0
3206	1	0
3207	1	0
3208	0	0
3209	0	0
3210	0	0
3211	0	0
3212	0	0
3213	0	0
3214	0	0
3215	0	0
3216	0	0
3217	0	0
3218	0	0
3219	0	0
3220	0	0
3221	0	0
3222	0	0
3223	0	0
3224	0	0
3225	0	0
3226	0	0
3227	0	0
3228	0	0
3229	0	0
3230	0	0
3231	0	0
3232	0	0
3233	0	0
3234	0	0
3235	1	0
3236	1	0
3237	1	0
3238	1	0
3239	1	0
3240	1	0
3241	1	0
3242	0	0
3243	0	0.988264
3244	0	0.986315
3245	0	0.984385
3246	0	0
3247	0	0
3248	0	0
3249	0	0
3250	0	0
3251	0	0
3252	0	0
3253	0	0
3254	0	0
3255	0	0
3256	0	0
3257	0	0
3258	0	0
3259	0	0
3260	0	0
3261	0	0
3262	0	0
3263	0	0
3264	0	0
3265	0	0
3266	0	0
3267	0	0
3268	0	0
3269	0	0
3270	0	0
3271	0	0
3272	0	0
3273	0	0
3274	0	0
3275	0	0
3276	0	0
3277	0	0
3278	0	0
3279	0	0
3280	0	0
3281	0	0
3282	0	0
3283	0	0
3284	0	0
3285	0	0
3286	0	0
3287	0	0
3288	0	0
3289	0	0
3290	0	0
3291	0	0
3292	0	0
3293	0	0.974811
3294	0	0.333333
3295	0	0.333333
3296	0	0.333333
3297	0	0
3298	0	0
3299	0	0
3300	0	0
3301	0	0
3302	0	0
3303	0	0
3304	0	0
3305	0	0
3306	0	0
3307	0	0
3308	0	0
3309	0	0
3310	0	0
3311	0	0
3312	0	0.980325
3313	0	0.5
3314	0	0.5
3315	0	0.5
3316	0	0.3
3317	0	0
3318	0	0
3319	0	0.968618
3320	0	0.966709
3321	0	0.968653
3322	0	0
3323	0	0
3324	0	0
3325	0	0
3326	0	0
3327	0	0
3328	0	0
3329	0	0
3330	0	0
3331	0	0
3332	0	0
3333	0	0
3334	0	0
3335	0	0
3336	0	0
3337	0	0
3338	0	0
3339	0	0
3340	0	0
3341	0	0
3342	0	0
3343	0	0
3344	0	0
3345	0	0
3346	0	0
3347	0	0
3348	0	0
3349	0	0
3350	0	0
3351	0	0
3352	0	0
3353	0	0
3354	0	0
3355	0	0
3356	0	0
3357	0	0
3358	0	0
3359	0	0
3360	0	0
3361	0	0
3362	0	0
3363	0	0
3364	0	0
3365	0	0
3366	0	0
3367	0	0
3368	0	0
3369	0	0
3370	0	0
3371	0	0
3372	0	0
3373	0	0
3374	0	0
3375	0	0
3376	0	0
3377	0	0
3378	0	0
3379	0	0
3380	0	0
3381	0	0
3382	0	0
3383	0	0
3384	0	0
3385	0	0
3386	0	0
3387	0	0
3388	0	0
3389	0	0
3390	0	0
3391	0	0
3392	0	0
3393	0	0
3394	0	0
3395	0	0
3396	0	0
3397	0	0
3398	0	0
3399	0	0
3400	0	0
3401	0	0
3402	0	0
3403	0	0
3404	0	0
3405	0	0
3406	0	0
3407	0	0
3408	0	0
3409	0	0
3410	0	0
3411	0	0
3412	0	0
3413	0	0
3414	0	0
3415	0	0
3416	0	0
3417	0	0
3418	0	0
3419	0	0
3420	0	0
3421	0	0
3422	0	0
3423	0	0
3424	0	0
3425	0	0
3426	0	0
3427	0	0
3428	0	0
3429	0	0
3430	0	0
3431	0	0
3432	0	0
3433	0	0
3434	0	0
3435	0	0
3436	0	0
3437	0	0
3438	0	0
3439	0	0
3440	0	0
3441	0	0
3442	0	0
3443	0	0
3444	0	0
3445	0	0
3446	0	0
3447	0	0
3448	0	0
3449	0	0
3450	0	0
3451	0	0
3452	0	0
3453	0	0
3454	0	0
3455	0	0
3456	0	0
3457	0	0
3458	0	0
3459	0	0
3460	0	0
3461	0	0
3462	0	0
3463	0	0
3464	0	0
3465	0	0
3466	0	0
3467	0	0
3468	0	0
3469	0	0
3470	0	0
3471	0	0
3472	0	0
3473	0	0
3474	0	0
3475	0	0
3476	0	0
3477	0	0
3478	0	0
3479	0	0
3480	0	0
3481	0	0
3482	0	0
3483	0	0
3484	0	0
3485	0	0
3486	0	0
3487	0	0
3488	0	0
3489	0	0
3490	0	0
3491	0	0
3492	0	0
3493	0	0
3494	0	0
3495	0	0
3496	0	0
3497	0	0
3498	0	0
3499	0	0
3500	0	0
3501	0	0
3502	0	0
3503	0	0
3504	0	0
3505	0	0
3506	0	0
3507	0	0
3508	0	0
3509	0	0
3510	0	0
3511	0	0
3512	0	0
3513	0	0
3514	0	0
3515	0	0
3516	0	0
3517	0	0
3518	0	0
3519	0	0
3520	0	0
3521	0	0
3522	0	0
3523	0	0
3524	0	0
3525	0	0
3526	0	0
3527	0	0
3528	0	0
3529	0	0
3530	0	0
3531	0	0
3532	0	0
3533	0	0
3534	0	0
3535	0	0
3536	0	0
3537	0	0
3538	0	0
3539	0	0
3540	0	0
3541	0	0
3542	0	0
3543	0	0
3544	0	0
3545	0	0
3546	0	0
3547	0	0
3548	0	0
3549	0	0
3550	0	0
3551	0	0
3552	0	0
3553	0	0
3554	0	0
3555	0	0
3556	0	0
3557	0	0
3558	0	0
3559	0	0
3560	0	0
3561	0	0
3562	0	0
3563	0	0
3564	0	0
3565	0	0
3566	0	0
3567	0	0
3568	0	0
3569	0	0
3570	0	0
3571	0	0
3572	0	0
3573	0	0
3574	0	0
3575	0	0
3576	0	0
3577	0	0
3578	0	0
3579	0	0
3580	0	0
3581	0	0
3582	0	0
3583	0	0
3584	0	0
3585	0	0
3586	0	0
3587	0	0
3588	0	0
3589	0	0
3590	0	0
3591	0	0
3592	0	0
3593	0	0
3594	0	0
3595	0	0
3596	0	0
3597	0	0
3598	0	0
3599	0	0
3600	0	0
3601	0	0
3602	0	0
3603	0	0
3604	0	0
3605	0	0
3606	0	0
3607	0	0
3608	0	0
3609	0	0
3610	0	0
3611	0	0
3612	0	0
3613	0	0
3614	0	0
3615	0	0
3616	0	0
3617	0	0
3618	0	0
3619	0	0
3620	0	0
3621	0	0
3622	0	0
3623	0	0
3624	0	0
3625	0	0
3626	0	0
3627	0	0
3628	0	0
3629	0	0
3630	0	0
3631	0	0
3632	0	0
3633	0	0
3634	0	0
3635	0	0
3636	0	0
3637	0	0
3638	0	0
3639	0	0
3640	0	0
3641	0	0
3642	0	0
3643	0	0
3644	0	0
3645	0	0
3646	0	0
3647	0	0
3648	0	0
3649	0	0
3650	0	0
3651	0	0
3652	0	0
3653	0	0
3654	0	0
3655	0	0
3656	0	0
3657	0	0
3658	0	0
3659	0	0
3660	0	0
3661	0	0
3662	0	0
3663	0	0
3664	0	0
3665	0	0
3666	0	0
3667	0	0
3668	0	0
3669	0	0
3670	0	0
3671	0	0
3672	0	0
3673	0	0
3674	0	0
3675	0	0
3676	0	0
3677	0	0
3678	0	0
3679	0	0
3680	0	0
3681	0	0
3682	0	0
3683	0	0
3684	0	0
3685	0	0
3686	0	0
3687	0	0
3688	0	0
3689	0	0
3690	0	0
3691	0	0
3692	0	0
3693	0	0
3694	0	0
3695	0	0
3696	0	0
3697	0	0
3698	0	0
3699	0	0
3700	0	0
3701	0	0
3702	0	0
3703	0	0
3704	0	0
3705	0	0
3706	0	0
3707	0	0
3708	0	0
3709	0	0
3710	0	0
3711	0	0
3712	0	0
3713	0	0
3714	0	0
3715	0	0
3716	0	0
3717	0	0
3718	0	0
3719	0	0
3720	0	0
3721	0	0
3722	0	0
3723	0	0
3724	0	0
3725	0	0
3726	0	0
3727	0	0
3728	0	0
3729	0	0
3730	0	0
3731	0	0
3732	0	0
3733	0	0
3734	0	0
3735	0	0
3736	0	0
3737	0	0
3738	0	0
3739	0	0
3740	0	0
3741	0	0
3742	0	0
3743	0	0
3744	0	0
3745	0	0
3746	0	0
3747	0	0
3748	0	0
3749	0	0
3750	0	0
3751	0	0
3752	0	0
3753	0	0
3754	0	0
3755	0	0
3756	0	0
3757	0	0
3758	0	0
3759	0	0
3760	0	0
3761	0	0
3762	0	0
3763	0	0
3764	0	0
3765	0	0
3766	0	0
3767	0	0
3768	0	0
3769	0	0
3770	0	0
3771	0	0
3772	0	0
3773	0	0
3774	0	0
3775	0	0
3776	0	0
3777	0	0
3778	0	0
3779	0	0
3780	0	0
3781	1	0
3782	0	0
3783	0	0
3784	0	0
3785	0	0
3786	1	0
3787	1	0
3788	1	0
3789	1	0
3790	1	0
3791	1	0
3792	1	0
3793	0	0
3794	0	0
3795	0	0
3796	0	0
3797	0	0
3798	0	0
3799	0	0
3800	0	0
3801	0	0
3802	0	0
3803	0	0
3804	0	0
3805	0	0
3806	0	0
3807	0	0
3808	0	0
3809	0	0
3810	0	0
3811	0	0
3812	0	0
3813	0	0
3814	0	0
3815	0	0
3816	0	0
3817	0	0
3818	0	0
3819	0	0
3820	0	0
3821	0	0
3822	0	0
3823	0	0
3824	0	0
3825	0	0
3826	0	0
3827	0	0
3828	0	0
3829	0	0
3830	0	0
3831	0	0
3832	0	0
3833	0	0
3834	0	0
3835	0	0
3836	0	0
3837	0	0
3838	0	0
3839	0	0
3840	0	0
3841	0	0
3842	0	0
3843	0	0
3844	0	0
3845	0	0
3846	0	0
3847	0	0
3848	0	0
3849	0	0
3850	0	0
3851	0	0
3852	0	0
3853	0	0
3854	0	0
3855	0	0
3856	0	0
3857	0	0
3858	0	0
3859	0	0
3860	0	0
3861	0	0
3862	0	0
3863	0	0
3864	0	0
3865	0	0.966544
3866	0	0.960863
3867	0	0.333333
3868	0	0.964285
3869	0	0.0714286
3870	0	0.142857
3871	0	0.945099
3872	0	0.94321
3873	0	0
3874	0	0
3875	0	0
3876	0	0
3877	0	0
3878	0	0
3879	0	0
3880	0	0
3881	0	0
3882	0	0
3883	0	0
3884	0	0
3885	0	0
3886	0	0
3887	0	0
3888	0	0
3889	0	0
3890	0	0.2
3891	0	0.95265
3892	0	0
3893	0	0
3894	0	0
3895	0	0
3896	0	0
3897	0	0
3898	0	0
3899	0	0
3900	0	0
3901	0	0
3902	0	0
3903	0	0
3904	0	0
3905	0	0
3906	0	0
3907	0	0
3908	0	0
3909	0	0
3910	0	0
3911	0	0
3912	0	0
3913	0	0
3914	0	0
3915	0	0
3916	0	0
3917	0	0
3918	0	0.962207
3919	0	0.962207
3920	0	0.960158
3921	0	0.960158
3922	0	0.166667
3923	0	0.166667
3924	0	0.333333
3925	0	0.333333
3926	0	0.333333
3927	0	0
3928	0	0
3929	0	0
3930	0	0
3931	0	0
3932	0	0
3933	0	0
3934	0	0
3935	0	0
3936	0	0
3937	0	0
3938	0	0
3939	0	0
3940	0	0
3941	0	0
3942	0	0
3943	0	0
3944	0	0.956169
3945	0	0
3946	0	0
3947	0	0
3948	0	0
3949	0	0
3950	0	0
3951	0	0
3952	0	0
3953	0	0
3954	0	0
3955	0	0
3956	0	0
3957	0	0
3958	0	0
3959	0	0
3960	0	0
3961	0	0
3962	0	0
3963	0	0
3964	0	0
3965	0	0
3966	0	0
3967	0	0
3968	0	0
3969	0	0
3970	0	0
3971	0	0
3972	0	0
3973	0	0
3974	0	0
3975	0	0
3976	0	0
3977	0	0
3978	0	0
3979	0	0
3980	0	0
3981	0	0
3982	0	0
3983	0	0
3984	0	0
3985	0	0
3986	0	0
3987	0	0
3988	0	0
3989	0	0
3990	0	0
3991	0	0
3992	0	0
3993	0	0
3994	0	0
3995	0	0
3996	0	0
3997	0	0
3998	0	0
3999	0	0
4000	0	0
4001	0	0
4002	0	0
4003	0	0
4004	0	0
4005	0	0
4006	0	0
4007	0	0
4008	0	0
4009	0	0
4010	0	0
4011	0	0
4012	0	0
4013	0	0
4014	0	0
4015	0	0
4016	0	0
4017	0	0
4018	0	0
4019	0	0
4020	0	0
4021	0	0
4022	0	0
4023	0	0
4024	0	0
4025	0	0
4026	0	0
4027	0	0
4028	0	0
4029	0	0
4030	0	0
4031	0	0
4032	0	0
4033	0	0
4034	0	0
4035	0	0
4036	0	0
4037	0	0
4038	0	0
4039	0	0
4040	0	0
4041	0	0
4042	0	0
4043	0	0
4044	0	0
4045	0	0
4046	0	0
4047	0	0
4048	0	0
4049	0	0
4050	0	0
4051	0	0
4052	0	0
4053	0	0
4054	0	0
4055	0	0
4056	0	0
4057	0	0
4058	0	0
4059	0	0
4060	0	0
4061	0	0
4062	0	0
4063	0	0
4064	0	0
4065	0	0
4066	0	0
4067	0	0
4068	0	0
4069	0	0
4070	0	0
4071	0	0
4072	0	0
4073	0	0
4074	0	0
4075	0	0
4076	0	0
4077	0	0
4078	0	0
4079	0	0
4080	0	0
4081	0	0
4082	0	0
4083	0	0
4084	0	0
4085	0	0
4086	0	0
4087	0	0
4088	0	0
4089	0	0
4090	0	0
4091	0	0
4092	0	0
4093	0	0
4094	0	0
4095	0	0
4096	0	0
4097	0	0
4098	0	0
4099	0	0
4100	0	0
4101	0	0
4102	0	0
4103	0	0
4104	0	0
4105	0	0
4106	0	0
4107	0	0
4108	0	0
4109	0	0
4110	0	0
4111	0	0
4112	0	0
4113	0	0
4114	0	0
4115	0	0
4116	0	0
4117	0	0
4118	0	0
4119	0	0
4120	0	0
4121	0	0
4122	0	0
4123	0	0
4124	0	0
4125	0	0
4126	0	0
4127	0	0
4128	0	0
4129	0	0
4130	0	0
4131	0	0
4132	0	0
4133	0	0
4134	0	0
4135	0	0
4136	0	0
4137	0	0
4138	0	0
4139	0	0
4140	0	0
4141	0	0
4142	0	0
4143	0	0
4144	0	0
4145	0	0
4146	0	0
4147	0	0
4148	0	0
4149	0	0
4150	0	0
4151	0	0
4152	0	0
4153	0	0
4154	0	0
4155	0	0
4156	0	0
4157	0	0
4158	0	0
4159	0	0
4160	0	0
4161	0	0
4162	0	0
4163	0	0
4164	0	0
4165	0	0
4166	0	0
4167	0	0
4168	0	0
4169	0	0
4170	0	0
4171	0	0
4172	0	0
4173	0	0
4174	0	0
4175	0	0
4176	0	0
4177	0	0
4178	0	0
4179	0	0
4180	0	0
4181	0	0
4182	0	0
4183	0	0
4184	0	0
4185	0	0
4186	0	0
4187	0	0
4188	0	0.948326
4189	0	0.948326
4190	0	0.948116
4191	0	0.944919
4192	0	0.689655
4193	0	0.214286
4194	0	0.214286
4195	0	0.214286
4196	0	0.214286
4197	0	0.0666667
4198	0	0.0666667
4199	0	0.703673
4200	0	0.0444444
4201	0	0.0444444
4202	0	0.0444444
4203	0	0.0444444
4204	0	0.0444444
4205	0	0.0444444
4206	0	0.030303
4207	0	0.0363636
4208	0	0.0363636
4209	0	0.0277778
4210	0	0.0833333
4211	0	0.0666667
4212	0	0.0769231
4213	0	0.0769231
4214	0	0.0769231
4215	0	0.0769231
4216	0	0.0769231
4217	0	0.0769231
4218	0	0.0769231
4219	0	0.0769231
4220	0	0.0769231
4221	0	0.0769231
4222	0	0.0769231
4223	0	0.0769231
4224	0	0.0512821
4225	0	0.0512821
4226	0	0.0512821
4227	0	0.0512821
4228	0	0.0769231
4229	0	0.921241
4230	0	0.912908
4231	0	0.888198
4232	0	0.766598
4233	0	0.617467
4234	0	0.554953
4235	0	0.465734
4236	0	0.40553
4237	0	0.351913
4238	0	0.340067
4239	0	0.290706
4240	0	0.243832
4241	0	0.179971
4242	0	0.0761689
4243	0	0.0776772
4244	0	0.0780142
4245	0	0.105496
4246	0	0.0647343
4247	0	0.0676768
4248	0	0.0730897
4249	0	0.0801394
4250	0	0.0890244
4251	0	0.0780488
4252	0	0.114103
4253	0	0.114103
4254	0	0.132132
4255	0	0.120635
4256	0	0.127731
4257	0	0.092437
4258	0	0.0409357
4259	0	0.0409357
4260	0	0.0409357
4261	0	0.0409357
4262	0	0.0409357
4263	0	0.0333333
4264	0	0.0333333
4265	0	0.0333333
4266	0	0.0333333
4267	0	0.0333333
4268	0	0.0333333
4269	0	0.0333333
4270	0	0.0333333
4271	0	0.0333333
4272	0	0.0333333
4273	0	0.0333333
4274	0	0.0367647
4275	0	0.0367647
4276	0	0.0367647
4277	0	0.0367647
4278	0	0.0367647
4279	0	0.0416667
4280	0	0.0416667
4281	0	0.0416667
4282	0	0.0416667
4283	0	0.0416667
4284	0	0.047619
4285	0	0.047619
4286	0	0.0549451
4287	0	0.0549451
4288	0	0.0549451
4289	0	0.0549451
4290	0	0.0549451
4291	0	0.0549451
4292	0	0.0549451
4293	0	0.0549451
4294	0	0.0549451
4295	0	0.0549451
4296	0	0.0549451
4297	0	0.0549451
4298	0	0.0549451
4299	0	0.0549451
4300	0	0.0549451
4301	0	0.0549451
4302	0	0.0549451
4303	0	0.0549451
4304	0	0.0549451
4305	0	0.0549451
4306	0	0.0549451
4307	0	0.0549451
4308	0	0.0549451
4309	0	0.0549451
4310	0	0.0549451
4311	0	0.0666667
4312	0	0.0666667
4313	0	0.0666667
4314	0	0.0666667
4315	0	0.0666667
4316	0	0.0666667
4317	0	0.0666667
4318	0	0.0666667
4319	0	0.0666667
4320	0	0.0666667
4321	0	0.0666667
4322	0	0.0666667
4323	0	0.0666667
4324	0	0.0666667
4325	0	0.0666667
4326	0	0.0666667
4327	0	0.0666667
4328	0	0.0666667
4329	0	0.0666667
4330	0	0.0666667
4331	0	0.0666667
4332	0	0.0666667
4333	0	0.0666667
4334	0	0.0769231
4335	0	0.0769231
4336	0	0.0769231
4337	0	0.0769231
4338	0	0.0769231
4339	0	0.0769231
4340	0	0.0769231
4341	0	0.0769231
4342	0	0.0769231
4343	0	0.0769231
4344	0	0.0769231
4345	0	0.0769231
4346	0	0.0769231
4347	0	0.0769231
4348	0	0.0769231
4349	0	0.0769231
4350	0	0.0769231
4351	0	0.0769231
4352	0	0.0769231
4353	0	0.0769231
4354	0	0.0769231
4355	0	0.0769231
4356	0	0.0769231
4357	0	0.0769231
4358	0	0.0769231
4359	0	0.0769231
4360	0	0.0769231
4361	0	0.0769231
4362	0	0.0769231
4363	0	0.0769231
4364	0	0.0769231
4365	0	0.0769231
4366	0	0.0769231
4367	0	0.0769231
4368	0	0.0769231
4369	0	0.0769231
4370	0	0.0769231
4371	0	0.0769231
4372	0	0.0769231
4373	0	0.0769231
4374	0	0.0769231
4375	0	0.0769231
4376	0	0.0769231
4377	0	0.0769231
4378	0	0.0769231
4379	0	0.0769231
4380	0	0.0769231
4381	0	0.0769231
4382	0	0.0769231
4383	0	0.0641026
4384	0	0.0769231
4385	0	0.0769231
4386	0	0.0769231
4387	0	0.0769231
4388	0	0.0769231
4389	0	0.0769231
4390	0	0.0769231
4391	0	0.0769231
4392	0	0.0769231
4393	0	0.0769231
4394	0	0.0769231
4395	0	0.0769231
4396	0	0.0769231
4397	0	0.0769231
4398	0	0.0769231
4399	0	0.0769231
4400	0	0.0769231
4401	0	0.0769231
4402	0	0.0769231
4403	0	0.0769231
4404	0	0.0769231
4405	0	0.0769231
4406	0	0.0769231
4407	0	0.0769231
4408	0	0.0769231
4409	0	0.0769231
4410	0	0.0769231
4411	0	0.0769231
4412	0	0.0769231
4413	0	0.0769231
4414	0	0.0769231
4415	0	0.0769231
4416	0	0.0769231
4417	0	0.0769231
4418	0	0.0769231
4419	0	0.0769231
4420	0	0.0769231
4421	0	0.0769231
4422	0	0.0769231
4423	0	0.0769231
4424	0	0.0769231
4425	0	0.0769231
4426	0	0.0769231
4427	0	0.0769231
4428	0	0.0897436
4429	0	0.0897436
4430	0	0.0897436
4431	0	0.0897436
4432	0	0.0897436
4433	0	0.0897436
4434	0	0.0897436
4435	0	0.0897436
4436	0	0.0897436
4437	0	0.0897436
4438	0	0.0897436
4439	0	0.0897436
4440	0	0.0897436
4441	0	0.106061
4442	0	0.106061
4443	0	0.106061
4444	0	0.106061
4445	0	0.106061
4446	0	0.106061
4447	0	0.106061
4448	0	0.106061
4449	0	0.106061
4450	0	0.106061
4451	0	0.106061
4452	0	0.106061
4453	0	0.106061
4454	0	0.106061
4455	0	0.106061
4456	0	0.106061
4457	0	0.106061
4458	0	0.106061
4459	0	0.106061
4460	0	0.106061
4461	0	0.106061
4462	0	0.106061
4463	0	0.106061
4464	0	0.106061
4465	0	0.106061
4466	0	0.106061
4467	0	0.106061
4468	0	0.106061
4469	0	0.106061
4470	0	0.106061
4471	0	0.106061
4472	0	0.106061
4473	0	0.106061
4474	0	0.106061
4475	0	0.106061
4476	0	0.106061
4477	0	0.106061
4478	0	0.106061
4479	0	0.106061
4480	0	0.106061
4481	0	0.106061
4482	0	0.106061
4483	0	0.106061
4484	0	0.106061
4485	0	0.106061
4486	0	0.106061
4487	0	0.106061
4488	0	0.106061
4489	0	0.106061
4490	0	0.106061
4491	0	0.106061
4492	0	0.106061
4493	0	0.106061
4494	0	0.106061
4495	0	0.106061
4496	0	0.106061
4497	0	0.106061
4498	0	0.106061
4499	0	0.106061
4500	0	0.106061
4501	0	0.106061
4502	0	0.106061
4503	0	0.106061
4504	0	0.106061
4505	0	0.106061
4506	0	0.106061
4507	0	0.106061
4508	0	0.106061
4509	0	0.106061
4510	0	0.106061
4511	0	0.106061
4512	0	0.106061
4513	0	0.106061
4514	0	0.106061
4515	0	0.106061
4516	0	0.106061
4517	0	0.106061
4518	0	0.106061
4519	0	0.106061
4520	0	0.106061
4521	0	0.106061
4522	0	0.106061
4523	0	0.106061
4524	0	0.106061
4525	0	0.106061
4526	0	0.106061
4527	0	0.106061
4528	0	0.106061
4529	0	0.106061
4530	0	0.106061
4531	0	0.106061
4532	0	0.106061
4533	0	0.106061
4534	0	0.106061
4535	0	0.106061
4536	0	0.106061
4537	0	0.106061
4538	0	0.106061
4539	0	0.106061
4540	0	0.106061
4541	0	0.106061
4542	0	0.106061
4543	0	0.106061
4544	0	0.106061
4545	0	0.106061
4546	0	0.106061
4547	0	0.106061
4548	0	0.106061
4549	0	0.106061
4550	0	0.106061
4551	0	0.106061
4552	0	0.0909091
4553	0	0.106061
4554	0	0.106061
4555	0	0.106061
4556	0	0.106061
4557	0	0.106061
4558	0	0.106061
4559	0	0.106061
4560	0	0.127273
4561	0	0.127273
4562	0	0.127273
4563	0	0.127273
4564	0	0.127273
4565	0	0.127273
4566	0	0.127273
4567	0	0.127273
4568	0	0.127273
4569	0	0.127273
4570	0	0.127273
4571	0	0.127273
4572	0	0.127273
4573	0	0.127273
4574	0	0.127273
4575	0	0.127273
4576	0	0.127273
4577	0	0.127273
4578	0	0.127273
4579	0	0.127273
4580	0	0.127273
4581	0	0.127273
4582	0	0.127273
4583	0	0.127273
4584	0	0.127273
4585	0	0.111111
4586	0	0.0909091
4587	0	0.127273
4588	0	0.127273
4589	0	0.127273
4590	0	0.127273
4591	0	0.127273
4592	0	0.127273
4593	0	0.155556
4594	0	0.155556
4595	0	0.155556
4596	0	0.155556
4597	0	0.155556
4598	0	0.155556
4599	0	0.155556
4600	0	0.155556
4601	0	0.155556
4602	0	0.155556
4603	0	0.155556
4604	0	0.155556
4605	0	0.155556
4606	0	0.155556
4607	0	0.155556
4608	0	0.155556
4609	0	0.155556
4610	0	0.155556
4611	0	0.155556
4612	0	0.155556
4613	0	0.155556
4614	0	0.190476
4615	0	0.190476
4616	0	0.190476
4617	0	0.190476
4618	0	0.190476
4619	0	0.190476
4620	0	0.190476
4621	0	0.190476
4622	0	0.190476
4623	0	0.190476
4624	0	0.190476
4625	0	0.190476
4626	0	0.190476
4627	0	0.190476
4628	0	0.190476
4629	0	0.190476
4630	0	0.190476
4631	0	0.190476
4632	0	0.190476
4633	0	0.190476
4634	0	0.190476
4635	0	0.190476
4636	0	0.266667
4637	0	0.266667
4638	0	0.266667
4639	0	0.266667
4640	0	0.266667
4641	0	0.2
4642	0	0.2
4643	0	0.133333
4644	0	0.266667
4645	0	0.266667
4646	0	0.266667
4647	0	0.266667
4648	0	0.266667
4649	0	0.266667
4650	0	0.266667
4651	0	0.266667
4652	0	0.266667
4653	0	0.266667
4654	0	0.266667
4655	0	0.266667
4656	0	0.266667
4657	0	0.266667
4658	0	0.266667
4659	0	0.266667
4660	0	0.266667
4661	0	0.266667
4662	0	0.266667
4663	0	0.266667
4664	0	0.266667
4665	0	0.266667
4666	0	0.266667
4667	0	0.333333
4668	0	0.333333
4669	0	0.333333
4670	0	0.333333
4671	0	0.333333
4672	0	0.333333
4673	0	0.333333
4674	0	0.333333
4675	0	0.333333
4676	0	0.333333
4677	0	0.333333
4678	0	0.333333
4679	0	0.333333
4680	0	0.333333
4681	0	0.333333
4682	0	0.333333
4683	0	0.333333
4684	0	0.333333
4685	0	0.333333
4686	0	0.333333
4687	0	0.333333
4688	0	0.333333
4689	0	0.333333
4690	0	0.333333
4691	0	0.333333
4692	0	0.333333
4693	0	0.333333
4694	0	0.333333
4695	0	0.333333
4696	0	0.333333
4697	0	0.333333
4698	0	0.333333
4699	0	0.333333
4700	0	0.333333
4701	0	0.333333
4702	0	0.333333
4703	0	0.333333
4704	0	0.333333
4705	0	0.333333
4706	0	0.333333
4707	0	0.333333
4708	0	0.333333
4709	0	0.333333
4710	0	0.333333
4711	0	0.333333
4712	0	0.333333
4713	0	0.333333
4714	0	0.333333
4715	0	0.333333
4716	0	0.333333
4717	0	0.333333
4718	0	0.333333
4719	0	0.333333
4720	0	0.333333
4721	0	0.333333
4722	0	0.333333
4723	0	0.333333
4724	0	0.333333
4725	0	0.333333
4726	0	0.333333
4727	0	0.333333
4728	0	0.333333
4729	0	0.333333
4730	0	0.333333
4731	0	0.333333
4732	0	0.333333
4733	0	0.333333
4734	0	0.333333
4735	0	0.333333
4736	0	0.333333
4737	0	0.333333
4738	0	0.333333
4739	0	0.333333
4740	0	0.333333
4741	0	0.333333
4742	0	0.333333
4743	0	0.333333
4744	0	0.333333
4745	0	0.333333
4746	0	0.333333
4747	0	0.333333
4748	0	0.333333
4749	0	0.333333
4750	0	0.333333
4751	0	0.333333
4752	0	0.333333
4753	0	0.333333
4754	0	0.333333
4755	0	0.333333
4756	0	0.333333
4757	0	0.333333
4758	0	0.333333
4759	0	0.333333
4760	0	0.333333
4761	0	0.333333
4762	0	0.333333
4763	0	0.333333
4764	0	0.333333
4765	0	0.333333
4766	0	0.333333
4767	0	0.333333
4768	0	0.333333
4769	0	0.333333
4770	0	0.333333
4771	0	0.333333
4772	0	0.333333
4773	0	0.333333
4774	0	0.333333
4775	0	0.333333
4776	0	0.333333
4777	0	0.333333
4778	0	0.333333
4779	0	0.333333
4780	0	0.333333
4781	0	0.333333
4782	0	0.333333
4783	0	0.333333
4784	0	0.333333
4785	0	0.333333
4786	0	0.333333
4787	0	0.333333
4788	0	0.333333
4789	0	0.333333
4790	0	0.333333
4791	0	0.333333
4792	0	0.333333
4793	0	0.333333
4794	0	0.333333
4795	0	0.333333
4796	0	0.333333
4797	0	0.333333
4798	0	0.333333
4799	0	0.333333
4800	0	0.333333
4801	0	0.333333
4802	0	0.333333
4803	0	0.333333
4804	0	0.333333
4805	0	0.333333
4806	0	0.333333
4807	1	0
4808	1	0
4809	1	0
4810	1	0
4811	1	0
4812	1	0
4813	1	0
4814	1	0
4815	1	0
4816	1	0
4817	1	0
4818	1	0
4819	1	0
4820	1	0
4821	1	0
4822	1	0
4823	1	0
4824	1	0
4825	1	0
4826	1	0
4827	1	0
4828	1	0
4829	1	0
4830	1	0
4831	1	0
4832	1	0
4833	1	0
4834	1	0
4835	1	0
4836	1	0
4837	1	0
4838	1	0
4839	1	0
4840	1	0
4841	1	0
4842	1	0
4843	1	0
4844	1	0
4845	1	0
4846	1	0
4847	1	0
4848	1	0
4849	1	0
4850	1	0
4851	1	0
4852	1	0
4853	1	0
4854	1	0
4855	1	0
4856	1	0
4857	1	0
4858	1	0
4859	1	0
4860	1	0
4861	1	0
4862	1	0
4863	1	0
4864	1	0
4865	1	0
4866	1	0
4867	1	0
4868	1	0
4869	1	0
4870	1	0
4871	1	0
4872	1	0
4873	1	0
4874	1	0
4875	1	0
4876	1	0
4877	1	0
4878	1	0
4879	1	0
4880	1	0
4881	1	0
4882	1	0
4883	1	0
4884	1	0
4885	1	0
4886	1	0
4887	1	0
4888	1	0
4889	1	0
4890	1	0
4891	1	0
4892	1	0
4893	1	0
4894	1	0
4895	1	0
4896	1	0
4897	1	0
4898	1	0
4899	1	0
4900	1	0
4901	1	0
4902	1	0
4903	1	0
4904	1	0
4905	1	0
4906	1	0
4907	1	0
4908	1	0
4909	1	0
4910	1	0
4911	1	0
4912	1	0
4913	1	0
4914	1	0
4915	1	0
4916	1	0
4917	1	0
4918	1	0
4919	1	0
4920	1	0
4921	1	0
4922	1	0
4923	1	0
4924	1	0
4925	1	0
4926	1	0
4927	1	0
4928	1	0
4929	1	0
4930	1	0
4931	1	0
4932	1	0
4933	1	0
4934	1	0
4935	1	0
4936	1	0
4937	1	0
4938	1	0
4939	1	0
4940	1	0
4941	1	0
4942	1	0
4943	1	0
4944	1	0
4945	1	0
4946	1	0
4947	1	0
4948	1	0
4949	1	0
4950	1	0
4951	1	0
4952	1	0
4953	1	0
4954	1	0
4955	1	0
4956	1	0
4957	1	0
4958	1	0
4959	1	0
4960	1	0
4961	1	0
4962	1	0
4963	1	0
4964	1	0
