Site	ColumnScore	SumOfPairsScore
1	0	0
2	0	0
3	0	0
4	0	0
5	0	0
6	0	0
7	0	0
8	0	0
9	0	0
10	0	0
11	0	0
12	0	0
13	0	0
14	0	0
15	0	0
16	0	0
17	0	0
18	0	0
19	0	0
20	0	0
21	0	0
22	0	0
23	0	0
24	0	0
25	0	0
26	0	0
27	0	0
28	0	0
29	0	0
30	0	0
31	0	0
32	0	0
33	0	0
34	0	0
35	0	0
36	0	0
37	0	0
38	0	0
39	0	0
40	0	0
41	0	0
42	0	0
43	0	0
44	0	0
45	0	0
46	0	0
47	0	0
48	0	0
49	0	0
50	0	0
51	0	0
52	0	0
53	0	0
54	1	0
55	1	0
56	1	0
57	1	0
58	1	0
59	1	0
60	1	0
61	1	0
62	1	0
63	0	0
64	0	0
65	0	0
66	0	0
67	0	0
68	0	0
69	0	0
70	0	0
71	0	0
72	0	0
73	0	0
74	0	0
75	0	0
76	0	0
77	0	0
78	0	0
79	0	0
80	0	0
81	0	0
82	0	0
83	0	0
84	0	0
85	0	0
86	0	0
87	0	0
88	0	0
89	0	0
90	0	0
91	0	0
92	0	0
93	0	0
94	0	0
95	0	0
96	0	0
97	0	0
98	0	0
99	0	0
100	0	0
101	0	0
102	0	0
103	0	0
104	0	0
105	0	0
106	0	0
107	0	0
108	0	0
109	0	0
110	0	0
111	0	0
112	0	0
113	0	0
114	0	0
115	0	0
116	0	0
117	1	0
118	1	0
119	1	0
120	1	0
121	1	0
122	1	0
123	0	0
124	0	0
125	1	0
126	1	0
127	0	0
128	0	0
129	0	0
130	0	0
131	0	0
132	0	0
133	0	0
134	0	0
135	0	0
136	0	0
137	0	0
138	0	0
139	0	0
140	0	0
141	0	0
142	0	0
143	0	0
144	0	0
145	0	0
146	0	0
147	0	0
148	0	0
149	0	0
150	0	0
151	0	0
152	0	0
153	0	0
154	0	0
155	0	0
156	0	0
157	1	0
158	0	0
159	0	0
160	0	0
161	0	0
162	0	0
163	0	0
164	1	0
165	1	0
166	1	0
167	1	0
168	1	0
169	1	0
170	1	0
171	1	0
172	1	0
173	1	0
174	1	0
175	1	0
176	1	0
177	1	0
178	0	0
179	0	0
180	0	0
181	0	0
182	0	0
183	0	0
184	0	0
185	0	0
186	0	0
187	0	0
188	0	0
189	0	0
190	0	0
191	0	0
192	0	0
193	0	0
194	0	0
195	0	0
196	0	0
197	0	0
198	0	0
199	0	0
200	0	0
201	0	0
202	0	0
203	0	0
204	0	0
205	0	0
206	0	0
207	0	0
208	0	0
209	0	0
210	0	0
211	0	0
212	0	0
213	0	0
214	0	0
215	0	0
216	0	0
217	0	0
218	0	0
219	0	0
220	0	0
221	0	0
222	0	0
223	0	0
224	0	0
225	0	0
226	0	0
227	0	0
228	0	0
229	0	0
230	0	0
231	0	0
232	0	0
233	0	0
234	0	0
235	0	0
236	0	0
237	1	0
238	1	0
239	1	0
240	1	0
241	0	0
242	0	0
243	0	0
244	0	0
245	1	0
246	1	0
247	1	0
248	1	0
249	1	0
250	1	0
251	1	0
252	0	0
253	0	0
254	0	0
255	0	0
256	0	0
257	0	0
258	0	0
259	0	0
260	0	0
261	0	0
262	0	0
263	0	0
264	0	0
265	0	0
266	0	0
267	0	0
268	0	0
269	0	0
270	0	0
271	0	0
272	0	0
273	0	0
274	0	0
275	0	0
276	0	0
277	0	0
278	0	0
279	0	0
280	0	0
281	0	0
282	0	0
283	0	0
284	0	0
285	0	0
286	0	0
287	0	0
288	0	0
289	0	0
290	0	0
291	0	0
292	0	0
293	0	0
294	0	0
295	0	0
296	0	0
297	0	0
298	0	0
299	0	0
300	0	0
301	0	0
302	0	0
303	0	0
304	0	0
305	0	0
306	0	0
307	0	0
308	0	0
309	0	0
310	0	0
311	0	0
312	0	0
313	0	0
314	0	0
315	0	0
316	0	0
317	0	0
318	0	0
319	0	0
320	0	0
321	0	0
322	0	0
323	0	0
324	0	0
325	0	0
326	0	0
327	0	0
328	0	0
329	0	0
330	0	0
331	0	0
332	0	0
333	0	0
334	0	0
335	0	0
336	0	0
337	0	0
338	0	0
339	0	0
340	0	0
341	0	0
342	0	0
343	0	0
344	0	0
345	0	0
346	0	0
347	0	0
348	0	0
349	0	0
350	0	0
351	0	0
352	0	0
353	0	0
354	0	0
355	0	0
356	0	0
357	0	0
358	0	0
359	0	0
360	0	0
361	0	0
362	0	0
363	0	0
364	0	0
365	0	0
366	0	0
367	0	0
368	0	0
369	0	0
370	0	0
371	0	0
372	0	0
373	0	0
374	0	0
375	0	0
376	0	0
377	0	0
378	0	0
379	0	0
380	0	0
381	0	0
382	0	0
383	0	0
384	0	0
385	0	0
386	0	0
387	0	0
388	0	0
389	0	0
390	0	0
391	0	0
392	0	0
393	0	0
394	0	0
395	0	0
396	0	0
397	0	0
398	0	0
399	0	0
400	0	0
401	0	0
402	0	0
403	0	0
404	0	0
405	0	0
406	0	0
407	0	0
408	0	0
409	0	0
410	0	0
411	0	0
412	0	0
413	0	0
414	0	0
415	0	0
416	0	0
417	0	0
418	0	0
419	0	0
420	0	0
421	0	0
422	0	0
423	0	0
424	0	0
425	0	0
426	0	0
427	0	0
428	0	0
429	0	0
430	0	0
431	0	0
432	0	0
433	0	0
434	0	0
435	0	0
436	0	0
437	0	0
438	0	0
439	0	0
440	0	0
441	0	0
442	0	0
443	0	0
444	0	0
445	0	0
446	0	0
447	0	0
448	0	0
449	0	0
450	0	0
451	0	0
452	0	0
453	0	0
454	0	0
455	0	0
456	0	0
457	0	0
458	0	0
459	0	0
460	0	0
461	0	0
462	0	0
463	0	0
464	0	0
465	0	0
466	0	0
467	0	0
468	0	0
469	0	0
470	0	0
471	0	0
472	0	0
473	0	0
474	0	0
475	0	0
476	0	0
477	0	0
478	0	0
479	0	0
480	0	0
481	0	0
482	0	0
483	0	0
484	0	0
485	0	0
486	0	0
487	0	0
488	0	0
489	0	0
490	0	0
491	0	0
492	0	0
493	0	0
494	0	0
495	0	0
496	0	0
497	0	0
498	0	0
499	0	0
500	0	0
501	0	0
502	0	0
503	0	0
504	0	0
505	0	0
506	0	0
507	0	0
508	0	0
509	0	0
510	0	0
511	0	0
512	0	0
513	0	0
514	0	0
515	0	0
516	0	0
517	0	0
518	0	0
519	0	0
520	0	0
521	0	0
522	0	0
523	0	0
524	0	0
525	0	0
526	0	0
527	0	0
528	0	0
529	0	0
530	0	0
531	0	0
532	0	0
533	0	0
534	0	0
535	0	0
536	0	0
537	0	0
538	0	0
539	0	0
540	0	0.0357143
541	0	0
542	0	0
543	0	0
544	0	0
545	0	0
546	0	0
547	0	0.0357143
548	0	0.0357143
549	0	0.0357143
550	0	0.0277778
551	0	0.0277778
552	0	0
553	0	0
554	0	0
555	0	0.0277778
556	0	0.0277778
557	0	0.0277778
558	0	0.0277778
559	0	0.0222222
560	0	0.0181818
561	0	0.0181818
562	0	0.030303
563	0	0.0512821
564	0	0.0512821
565	0	0.0512821
566	0	0.125
567	0	0.111111
568	0	0.124183
569	0	0.176471
570	0	0.222222
571	0	0.45614
572	0	0.532164
573	0	0.614035
574	0	0.614035
575	0	0.631579
576	0	0.647619
577	0	0.728571
578	0	0.728571
579	0	0.728571
580	0	0.728571
581	0	0.516667
582	0	0.516667
583	0	0.961092
584	0	0.967997
585	0	0.967997
586	0	0.32967
587	0	0.966011
588	0	0.943192
589	0	0.714286
590	0	0.428571
591	0	0.714286
592	0	0.714286
593	0	0.673992
594	0	0.846154
595	0	0.846154
596	0	0.563158
597	0	0.492131
598	0	0.534575
599	0	0.71232
600	0	0
601	0	0
602	0	0.739891
603	0	0.570759
604	0	0.385937
605	0	0
606	0	0
607	0	0
608	0	0
609	0	0
610	0	0
611	0	0
612	0	0
613	0	0
614	0	0
615	0	0
616	0	0
617	0	0
618	0	0
619	0	0
620	0	0
621	0	0
622	0	0
623	0	0
624	0	0
625	0	0
626	0	0
627	0	0
628	0	0
629	0	0
630	0	0
631	0	0
632	0	0
633	0	0
634	0	0
635	0	0
636	0	0
637	0	0
638	0	0
639	0	0
640	0	0
641	0	0.272059
642	0	0.4
643	0	0.72
644	0	0.480285
645	0	0.494097
646	0	0.975063
647	0	0.968049
648	0	0
649	0	0
650	0	0
651	0	0
652	0	0
653	0	0
654	0	0
655	0	0
656	0	0.996362
657	0	0
658	0	0
659	0	0
660	0	0
661	0	0
662	0	0
663	0	0
664	0	0
665	0	0
666	0	0
667	0	0
668	0	0
669	0	0
670	0	0
671	0	0
672	0	0
673	0	0
674	0	0
675	0	0
676	0	0
677	0	0
678	0	0
679	0	0
680	0	0
681	0	0.994619
682	0	0.996411
683	0	0.996411
684	0	0.996411
685	0	0.996411
686	0	0.994628
687	0	0.996414
688	0	0.996414
689	0	0
690	0	0
691	0	0
692	1	0
693	1	0
694	1	0
695	0	0
696	0	0
697	0	0
698	0	0
699	0	0
700	0	0
701	0	0
702	0	0
703	0	0
704	0	0
705	0	0
706	0	0
707	0	0
708	0	0
709	0	0
710	1	0
711	1	0
712	1	0
713	0	0
714	0	0
715	0	0
716	0	0
717	0	0
718	0	0
719	0	0
720	0	0
721	0	0
722	1	0
723	1	0
724	1	0
725	1	0
726	1	0
727	1	0
728	0	0
729	0	0
730	0	0
731	0	0
732	0	0
733	0	0
734	0	0
735	0	0
736	0	0
737	0	0
738	0	0
739	0	0
740	1	0
741	0	0
742	0	0
743	0	0
744	0	0
745	0	0
746	0	0
747	0	0
748	0	0
749	0	0
750	0	0
751	0	0
752	0	0
753	0	0
754	0	0
755	0	0
756	0	0
757	0	0
758	0	0
759	0	0
760	0	0
761	0	0
762	0	0
763	0	0
764	0	0
765	0	0
766	0	0
767	0	0
768	0	0
769	0	0
770	0	0
771	0	0
772	0	0
773	0	0
774	0	0
775	0	0
776	0	0
777	0	0
778	0	0
779	0	0
780	0	0
781	0	0
782	0	0
783	0	0
784	0	0
785	0	0
786	0	0
787	0	0
788	0	0
789	0	0
790	0	0
791	1	0
792	1	0
793	1	0
794	1	0
795	1	0
796	1	0
797	1	0
798	1	0
799	1	0
800	1	0
801	1	0
802	1	0
803	0	0
804	0	0
805	0	0
806	0	0
807	0	0
808	0	0
809	0	0
810	0	0
811	0	0
812	0	0
813	0	0
814	0	0
815	1	0
816	1	0
817	1	0
818	1	0
819	1	0
820	0	0
821	0	0
822	0	0
823	0	0
824	0	0
825	0	0
826	0	0
827	0	0
828	0	0
829	0	0
830	0	0
831	0	0
832	0	0
833	0	0
834	0	0
835	0	0
836	0	0
837	0	0
838	0	0
839	0	0
840	0	0
841	0	0
842	0	0
843	1	0
844	1	0
845	1	0
846	1	0
847	1	0
848	0	0
849	0	0
850	0	0
851	0	0
852	0	0
853	0	0
854	0	0
855	0	0
856	0	0
857	1	0
858	0	0
859	0	0
860	0	0
861	0	0
862	0	0
863	0	0
864	0	0
865	0	0
866	0	0
867	0	0
868	0	0
869	0	0
870	0	0
871	0	0
872	0	0
873	0	0
874	0	0
875	0	0
876	0	0
877	0	0
878	0	0
879	0	0
880	0	0
881	0	0
882	0	0
883	0	0
884	0	0
885	0	0
886	0	0
887	0	0
888	0	0
889	0	0
890	0	0
891	0	0
892	0	0
893	0	0
894	0	0
895	0	0
896	0	0
897	0	0
898	0	0
899	0	0
900	0	0
901	0	0
902	0	0
903	0	0
904	0	0
905	0	0
906	0	0
907	0	0
908	0	0
909	0	0
910	0	0
911	0	0
912	0	0
913	0	0
914	0	0
915	0	0
916	0	0
917	0	0
918	0	0
919	0	0
920	0	0
921	0	0
922	0	0
923	0	0
924	0	0
925	0	0
926	0	0
927	0	0
928	0	0
929	0	0
930	0	0
931	0	0
932	0	0
933	0	0
934	0	0
935	0	0
936	0	0
937	0	0
938	0	0
939	0	0
940	0	0
941	0	0
942	0	0
943	0	0
944	0	0
945	0	0
946	0	0
947	0	0
948	0	0
949	0	0
950	0	0
951	0	0
952	0	0
953	0	0
954	0	0
955	0	0
956	0	0
957	0	0
958	0	0
959	0	0
960	0	0
961	0	0
962	0	0
963	0	0
964	0	0
965	0	0
966	0	0
967	0	0
968	0	0
969	1	0
970	1	0
971	0	0
972	1	0
973	1	0
974	1	0
975	1	0
976	0	0
977	0	0
978	0	0
979	0	0
980	0	0
981	0	0
982	0	0
983	0	0
984	0	0
985	0	0
986	0	0
987	0	0
988	0	0
989	0	0
990	0	0
991	0	0
992	0	0
993	0	0
994	0	0
995	0	0
996	0	0
997	0	0
998	0	0
999	0	0
1000	0	0
1001	0	0
1002	0	0
1003	0	0
1004	0	0
1005	0	0
1006	0	0
1007	0	0
1008	0	0
1009	0	0
1010	0	0
1011	0	0
1012	0	0
1013	0	0
1014	0	0
1015	0	0
1016	0	0
1017	0	0
1018	0	0
1019	0	0
1020	0	0
1021	0	0
1022	0	0
1023	0	0
1024	0	0
1025	0	0
1026	0	0
1027	0	0
1028	0	0
1029	0	0
1030	0	0
1031	0	0
1032	0	0
1033	0	0
1034	0	0
1035	0	0
1036	0	0
1037	0	0
1038	0	0
1039	0	0
1040	0	0
1041	0	0
1042	0	0
1043	0	0
1044	0	0
1045	0	0
1046	0	0
1047	0	0
1048	0	0
1049	0	0
1050	0	0
1051	0	0
1052	0	0
1053	0	0
1054	0	0
1055	0	0
1056	0	0
1057	0	0
1058	0	0
1059	0	0
1060	0	0
1061	0	0
1062	0	0
1063	0	0
1064	0	0
1065	1	0
1066	1	0
1067	0	0
1068	0	0
1069	0	0
1070	0	0
1071	0	0
1072	0	0
1073	0	0
1074	0	0
1075	0	0
1076	0	0
1077	0	0
1078	0	0
1079	0	0
1080	0	0
1081	0	0
1082	0	0
1083	0	0
1084	0	0
1085	0	0
1086	0	0
1087	0	0
1088	0	0
1089	0	0
1090	0	0
1091	0	0
1092	0	0
1093	0	0
1094	0	0
1095	0	0
1096	0	0
1097	0	0
1098	0	0
1099	0	0
1100	0	0
1101	0	0
1102	0	0
1103	0	0
1104	0	0.996417
1105	0	0.998209
1106	1	1
1107	1	1
1108	1	1
1109	1	1
1110	1	1
1111	1	1
1112	1	1
1113	0	1
1114	1	1
1115	1	1
1116	0	0.5
1117	0	0.5
1118	0	0.333333
1119	0	0.333333
1120	0	1
1121	0	1
1122	0	1
1123	0	1
1124	1	1
1125	1	1
1126	0	0
1127	0	0
1128	1	0
1129	1	0
1130	1	0
1131	1	0
1132	1	0
1133	0	0
1134	0	0
1135	0	0
1136	0	0.994662
1137	0	0.994662
1138	0	1
1139	0	0.54955
1140	0	0.925402
1141	0	0.925402
1142	0	0.393939
1143	0	0.891949
1144	0	0.542455
1145	0	0.838205
1146	0	0.718909
1147	0	0.830539
1148	0	0.822577
1149	0	1
1150	0	1
1151	0	0.851328
1152	0	0.977011
1153	0	0.977011
1154	0	0.989348
1155	0	0.989348
1156	0	1
1157	0	1
1158	0	1
1159	0	1
1160	0	1
1161	0	0.998217
1162	0	0.998219
1163	0	0.998219
1164	0	0.998219
1165	0	0.998216
1166	0	0.998216
1167	0	0.998217
1168	0	0.998217
1169	0	1
1170	0	0.998221
1171	0	0.998221
1172	0	0.998221
1173	0	0.998217
1174	0	0.998216
1175	0	0.998216
1176	0	1
1177	0	1
1178	0	1
1179	0	1
1180	1	1
1181	1	1
1182	1	1
1183	1	1
1184	1	1
1185	0	0.994652
1186	0	0.994652
1187	0	0.998214
1188	0	0.998214
1189	0	0.998214
1190	0	0.998214
1191	0	0.956276
1192	0	0.895224
1193	0	0.890465
1194	0	0
1195	0	0.973978
1196	1	0
1197	0	0
1198	0	0.994624
1199	0	0.994657
1200	0	0.994657
1201	0	0.994657
1202	0	0.994654
1203	0	1
1204	0	1
1205	0	1
1206	0	1
1207	0	0.998216
1208	1	1
1209	0	0.998217
1210	0	0.994671
1211	0	0.994671
1212	0	0.994671
1213	0	0.994671
1214	0	0.994671
1215	0	0.992897
1216	0	0
1217	0	0
1218	0	0
1219	0	0
1220	0	0
1221	0	0
1222	0	0
1223	1	0
1224	1	0
1225	1	0
1226	1	0
1227	1	0
1228	1	0
1229	1	0
1230	1	0
1231	1	0
1232	1	0
1233	1	0
1234	0	0
1235	0	0
1236	0	0
1237	0	0
1238	0	0
1239	0	0
1240	0	0
1241	1	1
1242	1	1
1243	1	1
1244	1	1
1245	0	0.683911
1246	0	0.996417
1247	0	0.994628
1248	0	0.994628
1249	0	0.994628
1250	0	0.996414
1251	0	0.994624
1252	0	0.994624
1253	0	0.994624
1254	0	0.994624
1255	0	0.994624
1256	0	0
1257	0	0
1258	0	0
1259	0	0.985675
1260	0	0.982124
1261	0	0
1262	0	0
1263	0	0
1264	0	0
1265	0	0
1266	0	0
1267	0	0
1268	0	0
1269	0	0
1270	0	0
1271	0	0
1272	0	0
1273	0	0
1274	0	0
1275	0	0
1276	0	0
1277	0	0
1278	0	0
1279	0	0
1280	0	0
1281	0	0
1282	0	0
1283	0	0
1284	0	0
1285	0	0
1286	0	0
1287	0	0
1288	0	0
1289	0	0
1290	0	0
1291	0	0
1292	0	0
1293	0	0
1294	0	0
1295	0	0
1296	0	0
1297	0	0
1298	0	0
1299	0	0
1300	0	0
1301	0	0
1302	0	0
1303	0	0
1304	0	0
1305	0	0
1306	0	0
1307	0	0
1308	0	0
1309	0	0
1310	0	0
1311	0	0
1312	0	0
1313	0	0
1314	0	0
1315	0	0
1316	0	0
1317	0	0
1318	0	0
1319	0	0
1320	0	0
1321	0	0
1322	0	0
1323	0	0
1324	0	0
1325	0	0
1326	0	0
1327	0	0
1328	0	0
1329	0	0
1330	0	0
1331	0	0
1332	0	0
1333	0	0
1334	0	0
1335	0	0
1336	0	0
1337	0	0
1338	0	0
1339	0	0
1340	0	0
1341	0	0
1342	0	0
1343	0	0
1344	0	0
1345	0	0
1346	0	0
1347	0	0
1348	0	0
1349	0	0
1350	0	0
1351	0	0
1352	0	0
1353	0	0
1354	0	0
1355	0	0
1356	0	0
1357	0	0
1358	0	0
1359	0	0
1360	0	0
1361	0	0
1362	0	0
1363	0	0
1364	0	0
1365	0	0
1366	0	0
1367	0	0
1368	0	0
1369	0	0.166667
1370	0	0.166667
1371	0	0.166667
1372	0	0.1
1373	0	0.0666667
1374	0	0.047619
1375	0	0.047619
1376	0	0.142857
1377	0	0.142857
1378	0	0.142857
1379	0	0.142857
1380	0	0.107143
1381	0	0.222222
1382	0	0.151515
1383	0	0.120879
1384	0	0.152381
1385	0	0.152381
1386	0	0.962138
1387	0	0.960341
1388	0	0.958464
1389	0	0
1390	0	0
1391	0	0
1392	0	0
1393	0	0
1394	1	0
1395	1	0
1396	0	0
1397	0	0
1398	0	0
1399	0	0
1400	0	0
1401	0	0
1402	0	0
1403	0	0
1404	0	0
1405	0	0
1406	0	0
1407	0	0
1408	0	0
1409	0	0
1410	0	0
1411	0	0
1412	0	0
1413	0	0
1414	0	0
1415	0	0
1416	0	0
1417	0	0
1418	1	0
1419	0	0
1420	0	0
1421	0	0
1422	0	0
1423	0	0
1424	0	0
1425	0	0
1426	0	0
1427	0	0
1428	0	0
1429	0	0
1430	0	0
1431	0	0
1432	0	0
1433	0	0
1434	0	0
1435	0	0
1436	0	0
1437	1	0
1438	1	0
1439	1	0
1440	1	0
1441	1	0
1442	0	0
1443	0	0
1444	0	0
1445	0	0
1446	0	0
1447	0	0
1448	0	0
1449	0	0
1450	0	0
1451	0	0
1452	0	0
1453	0	0
1454	0	0
1455	0	0
1456	0	0
1457	0	0
1458	0	0
1459	0	0
1460	0	0
1461	0	0
1462	0	0
1463	0	0
1464	0	0
1465	0	0
1466	0	0
1467	0	0
1468	0	0
1469	0	0
1470	0	0
1471	0	0
1472	0	0
1473	0	0
1474	0	0
1475	0	0
1476	0	0
1477	0	0
1478	0	0
1479	0	0
1480	0	0
1481	0	0
1482	0	0
1483	0	0
1484	0	0
1485	0	0
1486	0	0
1487	0	0
1488	0	0
1489	0	0
1490	0	0
1491	0	0
1492	0	0
1493	1	0
1494	1	0
1495	0	0
1496	0	0
1497	0	0
1498	0	0
1499	0	0
1500	0	0
1501	0	0
1502	0	0
1503	0	0
1504	0	0
1505	0	0
1506	0	0
1507	0	0
1508	0	0
1509	0	0
1510	0	0
1511	0	0
1512	0	0
1513	0	0
1514	0	0
1515	0	0
1516	0	0
1517	0	0
1518	0	0
1519	0	0
1520	0	0
1521	0	0
1522	0	0
1523	0	0
1524	0	0
1525	0	0
1526	0	0
1527	0	0
1528	0	0
1529	0	0
1530	0	0
1531	0	0
1532	0	0
1533	0	0
1534	0	0
1535	0	0
1536	0	0
1537	0	0
1538	0	0
1539	0	0
1540	0	0
1541	0	0
1542	0	0
1543	0	0
1544	0	0
1545	0	0
1546	0	0
1547	0	0
1548	0	0
1549	0	0
1550	0	0
1551	0	0
1552	0	0
1553	0	0
1554	0	0
1555	0	0
1556	0	0
1557	0	0
1558	0	0
1559	0	0
1560	0	0
1561	0	0
1562	0	0
1563	0	0
1564	0	0
1565	0	0
1566	0	0
1567	0	0
1568	0	0
1569	0	0
1570	0	0
1571	0	0
1572	0	0
1573	0	0
1574	0	0
1575	0	0
1576	0	0
1577	0	0
1578	0	0
1579	0	0
1580	0	0
1581	0	0
1582	0	0
1583	0	0
1584	0	0
1585	0	0
1586	0	0
1587	0	0
1588	0	0
1589	0	0
1590	0	0
1591	0	0
1592	0	0
1593	0	0
1594	0	0
1595	0	0
1596	0	0
1597	0	0
1598	0	0
1599	0	0
1600	0	0
1601	0	0
1602	0	0
1603	0	0
1604	0	0
1605	0	0
1606	0	0
1607	0	0
1608	0	0
1609	0	0
1610	0	0.908672
1611	0	0.905189
1612	0	0
1613	0	0
1614	0	0
1615	0	0
1616	0	0
1617	0	0.2
1618	0	0.111111
1619	0	0.0888889
1620	0	0.924787
1621	0	0.919487
1622	0	0.914013
1623	0	0.910681
1624	0	0.642785
1625	0	0.1
1626	0	0.1
1627	0	0.1
1628	0	0.1
1629	0	0.1
1630	0	0.1
1631	0	0.1
1632	0	0.1
1633	0	0.1
1634	0	0.1
1635	0	0.1
1636	0	0.1
1637	0	0.1
1638	0	0.1
1639	0	0.1
1640	0	0.1
1641	0	0.0666667
1642	0	0.0666667
1643	0	0.133333
1644	0	0.133333
1645	0	0.133333
1646	0	0.0952381
1647	0	0.0952381
1648	0	0.0952381
1649	0	0.0666667
1650	0	0.0444444
1651	0	0.0357143
1652	0	0.0357143
1653	0	0.0357143
1654	0	0.0641026
1655	0	0.634987
1656	0	0.0545455
1657	0	0.0454545
1658	0	0.65088
1659	0	0
1660	0	0
1661	0	0
1662	0	0
1663	0	0
1664	0	0
1665	0	0
1666	0	0
1667	0	0
1668	0	0
1669	0	0
1670	0	0
1671	0	0
1672	0	0
1673	0	0
1674	0	0
1675	0	0
1676	0	0.63481
1677	0	0
1678	0	0
1679	0	0
1680	0	0
1681	0	0.749528
1682	0	0.47134
1683	0	0
1684	0	0
1685	0	0
1686	0	0
1687	0	0
1688	0	0
1689	0	0
1690	0	0
1691	0	0
1692	0	0
1693	0	0
1694	0	0
1695	0	0
1696	0	0
1697	0	0
1698	0	0
1699	0	0
1700	0	0
1701	0	0
1702	0	0
1703	0	0
1704	0	0
1705	0	0
1706	0	0
1707	0	0
1708	0	0
1709	0	0
1710	0	0
1711	0	0
1712	0	0
1713	0	0
1714	0	0
1715	0	0
1716	0	0
1717	0	0
1718	0	0
1719	0	0
1720	0	0
1721	0	0
1722	0	0
1723	0	0
1724	0	0
1725	0	0
1726	0	0
1727	0	0
1728	0	0
1729	0	0
1730	0	0
1731	0	0
1732	0	0
1733	0	0
1734	0	0
1735	0	0
1736	0	0
1737	0	0
1738	0	0
1739	0	0
1740	0	0
1741	0	0
1742	0	0
1743	0	0
1744	0	0
1745	0	0
1746	0	0
1747	0	0
1748	0	0
1749	0	0
1750	0	0
1751	0	0
1752	0	0
1753	0	0
1754	0	0
1755	0	0
1756	0	0
1757	0	0
1758	0	0
1759	0	0
1760	0	0
1761	0	0
1762	0	0
1763	0	0
1764	0	0
1765	0	0
1766	0	0
1767	0	0
1768	0	0
1769	0	0
1770	0	0
1771	0	0
1772	0	0
1773	0	0
1774	0	0.333333
1775	0	0.333333
1776	0	0.333333
1777	0	0.333333
1778	0	0.333333
1779	0	0.333333
1780	0	0.333333
1781	0	0.333333
1782	0	0.333333
1783	0	0.333333
1784	0	0.333333
1785	0	0.333333
1786	0	0.333333
1787	0	0.333333
1788	0	0.333333
1789	0	0.333333
1790	0	0.333333
1791	0	0.333333
1792	0	0.6
1793	0	0.6
1794	0	0.6
1795	0	0.6
1796	0	0.6
1797	0	0.6
1798	0	0.6
1799	0	0.6
1800	0	0.6
1801	0	0.6
1802	0	0.6
1803	0	0.6
1804	0	0.6
1805	0	0.6
1806	0	0.6
1807	0	0.6
1808	0	0.6
1809	0	0.6
1810	0	0.6
1811	0	0.6
1812	0	0.6
1813	0	0.6
1814	0	0.6
1815	0	0.6
1816	0	0.6
1817	0	0.4
1818	0	0.4
1819	0	0.4
1820	0	0.4
1821	0	0.4
1822	0	0.4
1823	0	0.285714
1824	0	0.285714
1825	0	0.285714
1826	0	0.285714
1827	0	0.285714
1828	0	0.47619
1829	0	0.277778
1830	0	0.277778
1831	0	0.277778
1832	0	0.277778
1833	0	0.277778
1834	0	0.277778
1835	0	0.277778
1836	0	0.483132
1837	0	0.483132
1838	0	0.841842
1839	0	0.898465
1840	0	0.898465
1841	0	0.021978
1842	0	0.021978
1843	0	0.882
1844	0	0.875435
1845	0	0
1846	0	0
1847	0	0
1848	0	0
1849	0	0.142857
1850	0	0.107143
1851	0	0.0833333
1852	0	0.876832
1853	0	0.865336
1854	0	0.666667
1855	0	0.666667
1856	0	0.666667
1857	0	0.666667
1858	0	0.666667
1859	0	0.666667
1860	0	0.47619
1861	0	0.357143
1862	0	0.357143
1863	0	0.357143
1864	0	0.357143
1865	0	0.357143
1866	0	0.357143
1867	0	0.357143
1868	0	0.47619
1869	0	0.47619
1870	0	0.47619
1871	0	0.4
1872	0	0.4
1873	0	0.4
1874	0	0.4
1875	0	0.4
1876	0	0.4
1877	0	0.4
1878	0	0.4
1879	0	0.4
1880	0	0.4
1881	0	0.4
1882	0	0.4
1883	0	0.4
1884	0	0.4
1885	0	0.4
1886	0	0.4
1887	0	0.4
1888	0	0.285714
1889	0	0.285714
1890	0	0.285714
1891	0	0.214286
1892	0	0.214286
1893	0	0.873087
1894	0	0.869704
1895	0	0.866449
1896	0	0
1897	0	0
1898	0	0
1899	0	0
1900	0	0
1901	0	0
1902	0	0
1903	0	0
1904	0	0
1905	0	0
1906	0	0
1907	0	0.87493
1908	0	0.142857
1909	0	0.142857
1910	0	0.142857
1911	0	0.142857
1912	0	0.142857
1913	0	0.142857
1914	0	0.142857
1915	0	0.142857
1916	0	0.127273
1917	0	0.102564
1918	0	0.630435
1919	0	0.0671937
1920	0	0.113131
1921	0	0.0151515
1922	0	0.0128205
1923	0	0.807862
1924	0	0.781405
1925	0	0.723175
1926	0	0.651156
1927	0	0.498928
1928	0	0.269681
1929	0	0.221786
1930	0	0.191919
1931	0	0.107143
1932	0	0.0605042
1933	0	0.213539
1934	0	0.0833333
1935	0	0.0833333
1936	0	0.0833333
1937	0	0.0833333
1938	0	0.0833333
1939	0	0.0661765
1940	0	0.075
1941	0	0.0833333
1942	0	0.0666667
1943	0	0.0666667
1944	0	0.0666667
1945	0	0.0666667
1946	0	0.0666667
1947	0	0.0833333
1948	0	0.0833333
1949	0	0.107143
1950	0	0.0833333
1951	0	0.0833333
1952	0	0.0833333
1953	0	0.0833333
1954	0	0.0833333
1955	0	0.0833333
1956	0	0.0833333
1957	0	0.0833333
1958	0	0.0833333
1959	0	0.0833333
1960	0	0.171429
1961	0	0.197802
1962	0	0.0833333
1963	0	0.0833333
1964	0	0.0833333
1965	0	0.0833333
1966	0	0.0833333
1967	0	0.107143
1968	0	0.0833333
1969	0	0
1970	0	0
1971	0	0
1972	0	0
1973	0	0
1974	0	0
1975	0	0
1976	0	0
1977	0	0
1978	0	0
1979	0	0
1980	0	0
1981	0	0
1982	0	0
1983	0	0
1984	0	0
1985	0	0
1986	0	0
1987	0	0
1988	0	0
1989	0	0
1990	0	0
1991	0	0
1992	0	0
1993	0	0.05
1994	0	0
1995	0	0
1996	0	0
1997	0	0
1998	0	0
1999	0	0
2000	0	0
2001	0	0
2002	0	0
2003	0	0
2004	0	0.0380952
2005	0	0.0380952
2006	0	0.122807
2007	0	0.0368421
2008	0	0.0766667
2009	0	0.176344
2010	0	0.16715
2011	0	0.466719
2012	0	0.456342
2013	0	0.666754
2014	0	0.666756
2015	0	0
2016	0	0
2017	0	0
2018	0	0
2019	0	0
2020	0	0
2021	0	0
2022	0	0
2023	0	0
2024	0	0
2025	0	0
2026	0	0
2027	0	0
2028	0	0
2029	0	0
2030	0	0
2031	0	0
2032	0	0
2033	0	0
2034	0	0
2035	0	0
2036	0	0
2037	0	0
2038	0	0
2039	0	0
2040	0	0
2041	0	0.92756
2042	0	0.900772
2043	0	0.900772
2044	0	0
2045	0	0
2046	0	0.0833333
2047	0	0.0666667
2048	0	0.151515
2049	0	0.903415
2050	0	0.166667
2051	0	0.166667
2052	0	0.166667
2053	0	0.166667
2054	0	0.166667
2055	0	0.5
2056	0	0.5
2057	0	0.5
2058	0	0.5
2059	0	0
2060	0	0
2061	0	0
2062	0	0
2063	0	0
2064	0	0
2065	0	0
2066	0	0
2067	0	0
2068	0	0
2069	0	0
2070	0	0
2071	0	0
2072	0	0
2073	0	0
2074	0	0
2075	0	0
2076	0	0
2077	0	0
2078	0	0
2079	0	0
2080	0	0
2081	0	0
2082	0	0
2083	0	0
2084	0	0
2085	0	0
2086	0	0
2087	0	0
2088	0	0.0666667
2089	0	0.0666667
2090	0	0.0666667
2091	0	0.0666667
2092	0	0.0666667
2093	0	0.0666667
2094	0	0.1
2095	0	0.1
2096	0	0.1
2097	0	0.166667
2098	0	0.166667
2099	0	0.166667
2100	0	0.166667
2101	0	0.166667
2102	0	0.333333
2103	0	0.333333
2104	0	0.333333
2105	0	0.333333
2106	0	0.333333
2107	0	0.333333
2108	0	0.333333
2109	0	0.333333
2110	0	0.333333
2111	0	0.333333
2112	0	0.333333
2113	0	0.333333
2114	0	0.333333
2115	0	0.333333
2116	0	0.333333
2117	0	0
2118	0	0
2119	0	0
2120	0	0
2121	0	0
2122	0	0
2123	0	0
2124	0	0
2125	0	0
2126	0	0
2127	0	0
2128	0	0
2129	0	0
2130	0	0
2131	0	0
2132	0	0
2133	0	0
2134	0	0
2135	0	0
2136	0	0
2137	0	0
2138	0	0
2139	0	0
2140	0	0
2141	0	0
2142	0	0
2143	0	0
2144	0	0
2145	0	0
2146	0	0
2147	0	0
2148	0	0
2149	0	0.816602
2150	0	0
2151	0	0
2152	0	0
2153	0	0
2154	0	0
2155	0	0
2156	0	0
2157	0	0
2158	0	0
2159	0	0
2160	0	0
2161	0	0
2162	0	0
2163	0	0
2164	0	0
2165	0	0
2166	0	0
2167	0	0
2168	0	0
2169	0	0
2170	0	0
2171	0	0
2172	0	0
2173	0	0
2174	0	0
2175	0	0
2176	0	0
2177	0	0
2178	0	0
2179	0	0
2180	0	0
2181	0	0
2182	0	0
2183	0	0
2184	0	0
2185	0	0
2186	0	0
2187	0	0
2188	0	0
2189	0	0
2190	0	0
2191	0	0
2192	0	0
2193	0	0
2194	0	0
2195	0	0
2196	0	0
2197	0	0
2198	0	0
2199	0	0
2200	0	0
2201	0	0
2202	0	0
2203	0	0
2204	0	0
2205	0	0
2206	0	0
2207	0	0
2208	0	0
2209	0	0
2210	0	0
2211	0	0
2212	0	0
2213	0	0
2214	0	0
2215	0	0
2216	0	0
2217	0	0
2218	0	0
2219	0	0.166667
2220	0	0.166667
2221	0	0.166667
2222	0	0.166667
2223	0	0.166667
2224	0	0.166667
2225	0	0.166667
2226	0	0.166667
2227	0	0.166667
2228	0	0.166667
2229	0	0.166667
2230	0	0.166667
2231	0	0.166667
2232	0	0.1
2233	0	0.1
2234	0	0.1
2235	0	0.1
2236	0	0.1
2237	0	0.1
2238	0	0.1
2239	0	0.1
2240	0	0.1
2241	0	0.1
2242	0	0.1
2243	0	0.1
2244	0	0.1
2245	0	0.1
2246	0	0.1
2247	0	0.1
2248	0	0.1
2249	0	0.1
2250	0	0.1
2251	0	0.1
2252	0	0.0666667
2253	0	0.0666667
2254	0	0.0666667
2255	0	0.0666667
2256	0	0.0666667
2257	0	0.0666667
2258	0	0.0666667
2259	0	0.0666667
2260	0	0.0666667
2261	0	0.0666667
2262	0	0.0666667
2263	0	0.0666667
2264	0	0.047619
2265	0	0.047619
2266	0	0.047619
2267	0	0.047619
2268	0	0.047619
2269	0	0.047619
2270	0	0.107143
2271	0	0.107143
2272	0	0.107143
2273	0	0.0833333
2274	0	0.0833333
2275	0	0.0833333
2276	0	0.867633
2277	0	0.107143
2278	0	0.107143
2279	0	0.107143
2280	0	0.107143
2281	0	0.107143
2282	0	0.107143
2283	0	0.107143
2284	0	0.107143
2285	0	0.107143
2286	0	0.107143
2287	0	0.107143
2288	0	0.107143
2289	0	0.107143
2290	0	0.107143
2291	0	0.107143
2292	0	0.107143
2293	0	0.142857
2294	0	0.142857
2295	0	0.142857
2296	0	0.142857
2297	0	0.142857
2298	0	0.142857
2299	0	0.142857
2300	0	0.142857
2301	0	0.142857
2302	0	0.142857
2303	0	0.142857
2304	0	0.142857
2305	0	0.142857
2306	0	0.142857
2307	0	0.142857
2308	0	0.142857
2309	0	0.142857
2310	0	0.142857
2311	0	0.142857
2312	0	0.901924
2313	0	0
2314	0	0
2315	0	0
2316	0	0
2317	0	0
2318	0	0
2319	0	0
2320	0	0
2321	0	0
2322	0	0
2323	0	0
2324	0	0
2325	0	0
2326	0	0
2327	0	0
2328	0	0
2329	0	0
2330	0	0
2331	0	0
2332	0	0
2333	0	0
2334	0	0
2335	0	0
2336	0	0
2337	0	0
2338	0	0
2339	0	0
2340	0	0
2341	0	0
2342	0	0
2343	0	0
2344	0	0
2345	0	0
2346	0	1
2347	0	1
2348	0	1
2349	0	1
2350	0	1
2351	0	1
2352	0	1
2353	0	1
2354	0	1
2355	0	1
2356	0	1
2357	0	1
2358	0	1
2359	0	1
2360	0	1
2361	0	1
2362	0	1
2363	0	1
2364	0	1
2365	0	1
2366	0	1
2367	0	1
2368	0	1
2369	0	1
2370	0	1
2371	0	1
2372	0	1
2373	0	1
2374	0	1
2375	0	1
2376	0	1
2377	0	1
2378	0	1
2379	0	1
2380	0	1
2381	0	1
2382	0	1
2383	0	1
2384	0	1
2385	0	1
2386	0	1
2387	0	1
2388	0	1
2389	0	1
2390	0	1
2391	0	1
2392	0	1
2393	0	1
2394	0	1
2395	0	1
2396	0	1
2397	0	1
2398	0	1
2399	0	1
2400	0	1
2401	0	1
2402	0	1
2403	0	1
2404	0	1
2405	0	0.333333
2406	0	0.333333
2407	0	0.333333
2408	0	0.333333
2409	0	0.333333
2410	0	0.333333
2411	0	0.333333
2412	0	0.333333
2413	0	0.333333
2414	0	0.333333
2415	0	0.333333
2416	0	0.333333
2417	0	0.333333
2418	0	0.333333
2419	0	0.333333
2420	0	0.333333
2421	0	0.333333
2422	0	0.333333
2423	0	0.333333
2424	0	0.333333
2425	0	0.333333
2426	0	0.333333
2427	0	0.333333
2428	0	0.333333
2429	0	0.333333
2430	0	0.333333
2431	0	0.333333
2432	0	0.333333
2433	0	0.333333
2434	0	0.333333
2435	0	0.333333
2436	0	0.333333
2437	0	0.333333
2438	0	0.333333
2439	0	0.333333
2440	0	0.333333
2441	0	0.333333
2442	0	0.333333
2443	0	0.333333
2444	0	0.333333
2445	0	0.333333
2446	0	0.333333
2447	0	0.333333
2448	0	0.333333
2449	0	0.333333
2450	0	0.333333
2451	0	0.333333
2452	0	0.333333
2453	0	0.333333
2454	0	0.333333
2455	0	0.333333
2456	0	0.333333
2457	0	0.333333
2458	0	0.333333
2459	0	0.333333
2460	0	0.333333
2461	0	0.333333
2462	0	0.333333
2463	0	0.333333
2464	0	0.333333
2465	0	0.333333
2466	0	0.333333
2467	0	0.333333
2468	0	0.333333
2469	0	0.333333
2470	0	0.333333
2471	0	0.333333
2472	0	0.333333
2473	0	0.333333
2474	0	0.333333
2475	0	0.333333
2476	0	0.333333
2477	0	0.333333
2478	0	0.333333
2479	0	0.333333
2480	0	0.333333
2481	0	0.333333
2482	0	0.333333
2483	0	0.333333
2484	0	0.333333
2485	0	0.333333
2486	0	0.333333
2487	0	0.333333
2488	0	0.333333
2489	0	0.333333
2490	0	0.333333
2491	0	0.333333
2492	0	0.333333
2493	0	0.333333
2494	0	0.333333
2495	0	0.333333
2496	0	0.333333
2497	0	0.333333
2498	0	0.333333
2499	0	0.333333
2500	0	0.333333
2501	0	0.333333
2502	0	0.333333
2503	0	0.333333
2504	0	0.333333
2505	0	0.333333
2506	0	0.333333
2507	0	0.333333
2508	0	0.333333
2509	0	0.333333
2510	0	0.333333
2511	0	0.333333
2512	0	0.333333
2513	0	0.333333
2514	0	0.333333
2515	0	0.333333
2516	0	0.333333
2517	0	0.333333
2518	0	0.333333
2519	0	0.333333
2520	0	0.333333
2521	0	0.333333
2522	0	0.333333
2523	0	0.333333
2524	0	0.333333
2525	0	0.333333
2526	0	0.333333
2527	0	0.333333
2528	0	0.333333
2529	0	0.333333
2530	0	0.333333
2531	0	0.333333
2532	0	0.333333
2533	0	0.333333
2534	0	0.333333
2535	0	0.333333
2536	0	0.333333
2537	0	0.333333
2538	0	0.333333
2539	0	0.333333
2540	0	0.333333
2541	0	0.333333
2542	0	0.333333
2543	0	0.333333
2544	0	0.333333
2545	0	0.333333
2546	0	0.333333
2547	0	0.333333
2548	0	0.333333
2549	0	0.333333
2550	0	0.333333
2551	0	0.333333
2552	0	0.333333
2553	0	0.333333
2554	0	0.333333
2555	0	0.333333
2556	0	0.333333
2557	0	0.333333
2558	0	0.333333
2559	0	0.333333
2560	0	0.333333
2561	0	0.333333
2562	0	0.333333
2563	0	0.333333
2564	0	0.333333
2565	0	0.333333
2566	0	0.333333
2567	0	0.333333
2568	0	0.333333
2569	0	0.333333
2570	0	0.333333
2571	0	0.333333
2572	0	0.333333
2573	0	0.333333
2574	0	0.333333
2575	0	0.333333
2576	0	0.333333
2577	0	0.333333
2578	0	0.333333
2579	0	0.333333
2580	0	0.333333
2581	0	0.333333
2582	0	0.333333
2583	0	0.333333
2584	0	0.333333
2585	0	0.333333
2586	0	0.333333
2587	0	0.333333
2588	0	0.333333
2589	0	0.333333
2590	0	0.333333
2591	0	0.333333
2592	0	0.166667
2593	0	0.166667
2594	0	0.166667
2595	0	0.166667
2596	0	0.5
2597	0	0.5
2598	0	0.5
2599	0	0.5
2600	0	0.5
2601	0	0.5
2602	0	0.5
2603	0	0.5
2604	0	0.5
2605	0	0.5
2606	0	0.5
2607	0	0.5
2608	0	0.5
2609	0	0.5
2610	0	0.5
2611	0	0.5
2612	0	0.5
2613	0	0.5
2614	0	0.5
2615	0	0.5
2616	0	0.5
2617	0	0.5
2618	0	0.5
2619	0	0.5
2620	0	0.3
2621	0	0.3
2622	0	0.3
2623	0	0.3
2624	0	0.3
2625	0	0.3
2626	0	0.3
2627	0	0.3
2628	0	0.3
2629	0	0.3
2630	0	0.3
2631	0	0.3
2632	0	0.3
2633	0	0.3
2634	0	0.3
2635	0	0.3
2636	0	0.3
2637	0	0.3
2638	0	0.3
2639	0	0.3
2640	0	0.3
2641	0	0.3
2642	0	0.3
2643	0	0.3
2644	0	0.3
2645	0	0.3
2646	0	0.3
2647	0	0.3
2648	0	0.3
2649	0	0.3
2650	0	0.3
2651	0	0.3
2652	0	0.3
2653	0	0.3
2654	0	0.3
2655	0	0.3
2656	0	0.3
2657	0	0.3
2658	0	0.3
2659	0	0.2
2660	0	0.2
2661	0	0.2
2662	0	0.2
2663	0	0.2
2664	0	0.2
2665	0	0.2
2666	0	0.2
2667	0	0.2
2668	0	0.2
2669	0	0.2
2670	0	0.2
2671	0	0.2
2672	0	0.2
2673	0	0.2
2674	0	0.2
2675	0	0.2
2676	0	0.2
2677	0	0.2
2678	0	0.2
2679	0	0.2
2680	0	0.2
2681	0	0.2
2682	0	0.2
2683	0	0.2
2684	0	0.2
2685	0	0.2
2686	0	0.2
2687	0	0.2
2688	0	0.2
2689	0	0.2
2690	0	0.2
2691	0	0.2
2692	0	0.416667
2693	0	0.416667
2694	0	0.416667
2695	0	0.416667
2696	0	0.416667
2697	0	0.416667
2698	0	0.416667
2699	0	0.416667
2700	0	0.416667
2701	0	0.416667
2702	0	0.290909
2703	0	0.333333
2704	0	0.333333
2705	0	0.333333
2706	0	0.333333
2707	0	0.282051
2708	0	0.241758
2709	0	0.230769
2710	0	0.269231
2711	0	0.230769
2712	0	0.2
2713	0	0.2
2714	0	0.175
2715	0	0.154412
2716	0	0.154412
2717	0	0.154412
2718	0	0.137255
2719	0	0.137255
2720	0	0.89574
2721	0	0.147619
2722	0	0.142105
2723	0	0.126316
2724	0	0.140351
2725	0	0.835444
2726	0	0.0147059
2727	0	0.0147059
2728	0	0.0147059
2729	0	0
2730	0	0
2731	0	0
2732	0	0
2733	0	0
2734	0	0
2735	0	0
2736	0	0
2737	0	0
2738	0	0
2739	0	0
2740	0	0
2741	0	0
2742	0	0
2743	0	0
2744	0	0
2745	0	0
2746	0	0
2747	0	0
2748	0	0
2749	0	0
2750	0	0
2751	0	0
2752	0	0
2753	0	0.606776
2754	0	0
2755	0	0
2756	0	0
2757	0	0
2758	0	0
2759	0	0
2760	0	0
2761	0	0
2762	0	0
2763	0	0
2764	0	0
2765	0	0
2766	0	0
2767	0	0
2768	0	0
2769	0	0
2770	0	0
2771	0	0.645587
2772	0	0.128655
2773	0	0.128655
2774	0	0.137255
2775	0	0.175
2776	0	0.2
2777	0	0.230769
2778	0	0.230769
2779	0	0.269231
2780	0	0.269231
2781	0	0.269231
2782	0	0.269231
2783	0	0.318182
2784	0	0.318182
2785	0	0.318182
2786	0	0.318182
2787	0	0.230769
2788	0	0.230769
2789	0	0.230769
2790	0	0.318182
2791	0	0.318182
2792	0	0.318182
2793	0	0.318182
2794	0	0.318182
2795	0	0.318182
2796	0	0.318182
2797	0	0.318182
2798	0	0.318182
2799	0	0.318182
2800	0	0.318182
2801	0	0.318182
2802	0	0.318182
2803	0	0.318182
2804	0	0.318182
2805	0	0.318182
2806	0	0.318182
2807	0	0.318182
2808	0	0.318182
2809	0	0.318182
2810	0	0.318182
2811	0	0.318182
2812	0	0.318182
2813	0	0.318182
2814	0	0.318182
2815	0	0.381818
2816	0	0.333333
2817	0	0.333333
2818	0	0.333333
2819	0	0.333333
2820	0	0.155556
2821	0	0.194444
2822	0	0.142857
2823	0	0.142857
2824	0	0.142857
2825	0	0.0714286
2826	0	0.0714286
2827	0	0.0714286
2828	0	0.047619
2829	0	0.047619
2830	0	0.047619
2831	0	0
2832	0	0
2833	0	0
2834	0	0
2835	0	0
2836	0	0
2837	0	0
2838	0	0
2839	0	0
2840	0	0
2841	0	0
2842	0	0.0666667
2843	0	0.0666667
2844	0	0.0666667
2845	0	0
2846	0	0.1
2847	0	0.1
2848	0	0.1
2849	0	0.1
2850	0	0.1
2851	0	0.1
2852	0	0.1
2853	0	0.1
2854	0	0.1
2855	0	0.1
2856	0	0.1
2857	0	0.166667
2858	0	0.166667
2859	0	0.166667
2860	0	0.166667
2861	0	0.166667
2862	0	0.166667
2863	0	0.166667
2864	0	0.166667
2865	0	0.166667
2866	0	0.166667
2867	0	0.166667
2868	0	0.166667
2869	0	0.166667
2870	0	0.333333
2871	0	0.333333
2872	0	0.333333
2873	0	0.333333
2874	0	0.333333
2875	0	0.333333
2876	0	0.333333
2877	0	0.333333
2878	0	0.333333
2879	0	0
2880	0	0
2881	0	0
2882	0	0
2883	0	0
2884	0	0
2885	0	0
2886	0	0
2887	0	0
2888	0	0
2889	0	0
2890	0	0
2891	0	0
2892	0	0
2893	0	0
2894	0	0
2895	0	0
2896	0	0
2897	0	0
2898	0	0
2899	0	0
2900	0	0
2901	0	0
2902	0	0
2903	0	0
2904	0	0
2905	0	0
2906	0	0
2907	0	0
2908	0	0
2909	0	0
2910	0	0
2911	0	0
2912	0	0
2913	0	0
2914	0	0
2915	0	0
2916	0	0
2917	0	0
2918	0	0
2919	0	0
2920	0	0
2921	0	0
2922	0	0
2923	0	0
2924	0	0
2925	0	0
2926	0	0
2927	0	0
2928	0	0
2929	0	0
2930	0	0
2931	0	0
2932	0	0
2933	0	0
2934	0	0
2935	0	0
2936	0	0
2937	0	0
2938	0	0
2939	0	0
2940	0	0
2941	0	0
2942	0	0
2943	0	0
2944	0	0
2945	0	0
2946	0	0
2947	0	0
2948	0	0
2949	0	0
2950	0	0
2951	0	0
2952	0	0
2953	0	0
2954	0	0
2955	0	0
2956	0	0
2957	0	0
2958	0	0
2959	0	0
2960	0	0
2961	0	0
2962	0	0
2963	0	0
2964	0	0
2965	0	0
2966	0	0
2967	0	0
2968	0	0
2969	0	0
2970	0	0
2971	0	0
2972	0	0
2973	0	0
2974	0	0
2975	0	0
2976	0	0
2977	0	0
2978	0	0
2979	0	0
2980	0	0
2981	0	0
2982	0	0
2983	0	0
2984	0	0
2985	0	0
2986	0	0.648544
2987	0	0
2988	0	0
2989	0	0
2990	0	0
2991	0	0
2992	0	0
2993	0	0
2994	0	0
2995	0	0
2996	0	0
2997	0	0
2998	0	0
2999	0	0
3000	0	0
3001	0	0.603318
3002	0	0.535482
3003	0	0.528657
3004	0	0.531758
3005	0	0.0438716
3006	0	0.0414747
3007	0	0.025974
3008	0	0.0275762
3009	0	0.0275762
3010	0	0.0286576
3011	0	0.0323129
3012	0	0.0383838
3013	0	0.0409745
3014	0	0.0353659
3015	0	0.0242915
3016	0	0.0426743
3017	0	0.048048
3018	0	0.0504202
3019	0	0.0302521
3020	0	0.0231729
3021	0	0.0181452
3022	0	0.0193548
3023	0	0.0193548
3024	0	0.0193548
3025	0	0.0206897
3026	0	0.0206897
3027	0	0.0091954
3028	0	0.00854701
3029	0	0.00854701
3030	0	0.00854701
3031	0	0.00923077
3032	0	0.0108696
3033	0	0.0108696
3034	0	0.0108696
3035	0	0.0108696
3036	0	0.0108696
3037	0	0.0108696
3038	0	0.0108696
3039	0	0.0108696
3040	0	0.00724638
3041	0	0.00724638
3042	0	0.00724638
3043	0	0.00790514
3044	0	0.00790514
3045	0	0.00865801
3046	0	0.00952381
3047	0	0.00952381
3048	0	0.00952381
3049	0	0.00952381
3050	0	0.00952381
3051	0	0.00952381
3052	0	0.00952381
3053	0	0.0105263
3054	0	0.0105263
3055	0	0.0210526
3056	0	0.0116959
3057	0	0.0116959
3058	0	0.00584795
3059	0	0.00584795
3060	0	0
3061	0	0
3062	0	0
3063	0	0
3064	0	0
3065	0	0
3066	0	0
3067	0	0
3068	0	0
3069	0	0
3070	0	0
3071	0	0
3072	0	0
3073	0	0
3074	0	0
3075	0	0
3076	0	0
3077	0	0
3078	0	0
3079	0	0
3080	0	0
3081	0	0
3082	0	0
3083	0	0
3084	0	0
3085	0	0
3086	0	0
3087	0	0
3088	0	0
3089	0	0
3090	0	0
3091	0	0
3092	0	0
3093	0	0
3094	0	0
3095	0	0
3096	0	0
3097	0	0
3098	0	0
3099	0	0
3100	0	0
3101	0	0
3102	0	0
3103	0	0
3104	0	0
3105	0	0
3106	0	0
3107	0	0
3108	0	0
3109	0	0
3110	0	0
3111	0	0
3112	0	0
3113	0	0
3114	0	0
3115	0	0
3116	0	0
3117	0	0
3118	0	0
3119	0	0
3120	0	0
3121	0	0
3122	0	0
3123	0	0
3124	0	0
3125	0	0
3126	0	0
3127	0	0
3128	0	0
3129	0	0
3130	0	0
3131	0	0
3132	0	0
3133	0	0
3134	0	0
3135	0	0
3136	0	0
3137	0	0
3138	0	0
3139	0	0
3140	0	0
3141	0	0
3142	0	0
3143	0	0
3144	0	0
3145	0	0
3146	0	0
3147	0	0
3148	0	0
3149	0	0
3150	0	0
3151	0	0
3152	0	0
3153	0	0
3154	0	0
3155	0	0
3156	0	0
3157	0	0
3158	0	0
3159	0	0
3160	0	0
3161	0	0
3162	0	0
3163	0	0
3164	0	0
3165	0	0
3166	0	0
3167	0	0
3168	0	0
3169	0	0
3170	0	0
3171	0	0
3172	0	0
3173	0	0
3174	0	0
3175	0	0
3176	0	0
3177	0	0
3178	0	0
3179	0	0
3180	0	0
3181	0	0
3182	0	0
3183	0	0
3184	0	0
3185	0	0
3186	0	0
3187	0	0
3188	0	0
3189	0	0
3190	0	0
3191	0	0
3192	0	0
3193	0	0
3194	0	0
3195	0	0
3196	0	0
3197	0	0
3198	0	0
3199	0	0
3200	0	0
3201	0	0
3202	0	0
3203	0	0
3204	0	0
3205	0	0
3206	0	0
3207	0	0
3208	0	0
3209	0	0
3210	0	0
3211	0	0
3212	0	0
3213	0	0
3214	0	0
3215	0	0
3216	0	0
3217	0	0
3218	0	0
3219	0	0
3220	0	0
3221	0	0
3222	0	0
3223	0	0
3224	0	0
3225	0	0
3226	0	0
3227	0	0
3228	0	0
3229	0	0
3230	0	0
3231	0	0
3232	0	0
3233	0	0
3234	0	0
3235	0	0
3236	0	0
3237	0	0
3238	0	0
3239	0	0
3240	0	0
3241	0	0
3242	0	0
3243	0	0
3244	0	0
3245	0	0
3246	0	0
3247	0	0
3248	0	0
3249	0	0
3250	0	0
3251	0	0
3252	0	0
3253	0	0
3254	0	0
3255	0	0
3256	0	0
3257	0	0
3258	0	0
3259	0	0
3260	0	0
3261	0	0
3262	0	0
3263	0	0
3264	0	0
3265	0	0
3266	0	0
3267	0	0
3268	0	0
3269	0	0
3270	0	0
3271	0	0
3272	0	0
3273	0	0
3274	0	0
3275	0	0
3276	0	0
3277	0	0
3278	0	0
3279	0	0
3280	0	0
3281	0	0
3282	0	0
3283	0	0
3284	0	0
3285	0	0
3286	0	0
3287	0	0
3288	0	0
3289	0	0
3290	0	0
3291	0	0
3292	0	0
3293	0	0
3294	0	0
3295	0	0
3296	0	0
3297	0	0
3298	0	0
3299	0	0
3300	0	0
3301	0	0
3302	0	0
3303	0	0
3304	0	0
3305	0	0
3306	0	0
3307	0	0
3308	0	0
3309	0	0
3310	0	0
3311	0	0
3312	0	0
3313	0	0
3314	0	0
3315	0	0
3316	0	0
3317	0	0
3318	0	0
3319	0	0
3320	0	0
3321	0	0
3322	0	0
3323	0	0
3324	0	0
3325	0	0
3326	0	0
3327	0	0
3328	0	0
3329	0	0
3330	0	0
3331	0	0
3332	0	0
3333	0	0
3334	0	0
3335	0	0
3336	0	0
3337	0	0
3338	0	0
3339	0	0
3340	0	0
3341	0	0
3342	0	0
3343	0	0
3344	0	0
3345	0	0
3346	0	0
3347	0	0
3348	0	0
3349	0	0
3350	0	0
3351	0	0
3352	0	0
3353	0	0
3354	0	0
3355	0	0
3356	0	0
3357	0	0
3358	0	0
3359	0	0
3360	0	0
3361	0	0
3362	0	0
3363	0	0
3364	0	0
3365	0	0
3366	0	0
3367	0	0
3368	0	0
3369	0	0
3370	0	0
3371	0	0
3372	0	0
3373	0	0
3374	0	0
3375	0	0
3376	0	0
3377	0	0
3378	0	0
3379	0	0
3380	0	0
3381	0	0
3382	0	0
3383	0	0
3384	0	0
3385	0	0
3386	0	0
3387	0	0
3388	0	0
3389	0	0
3390	0	0
3391	0	0
3392	0	0
3393	0	0
3394	0	0
3395	0	0
3396	0	0
3397	0	0
3398	0	0
3399	0	0
3400	0	0
3401	0	0
3402	0	0
3403	0	0
3404	0	0
3405	0	0
3406	0	0
3407	0	0
3408	0	0
3409	0	0
3410	0	0
3411	0	0
3412	0	0
3413	0	0
3414	0	0
3415	0	0
3416	0	0
3417	0	0
3418	0	0
3419	0	0
3420	0	0
3421	0	0
3422	0	0
3423	0	0
3424	0	0
3425	0	0
3426	0	0
3427	0	0
3428	0	0
3429	0	0
3430	0	0
3431	0	0
3432	0	0
3433	0	0
3434	0	0
3435	0	0
3436	0	0
3437	0	0
3438	0	0
3439	0	0
3440	0	0
3441	0	0
3442	0	0
3443	0	0
3444	0	0
3445	0	0
3446	0	0
3447	0	0
3448	0	0
3449	0	0
3450	0	0
3451	0	0
3452	0	0
3453	0	0
3454	0	0
3455	0	0
3456	0	0
3457	0	0
3458	0	0
3459	0	0
3460	0	0
3461	0	0
3462	0	0
3463	0	0
3464	0	0
3465	0	0
3466	0	0
3467	0	0
3468	0	0
3469	0	0
3470	0	0
3471	0	0
3472	0	0
3473	0	0
3474	0	0
3475	0	0
3476	0	0
3477	0	0
3478	0	0
3479	0	0
3480	0	0
3481	0	0
3482	0	0
3483	0	0
3484	0	0
