Site	ColumnScore	SumOfPairsScore
1	1	0
2	1	0
3	1	0
4	1	0
5	1	0
6	1	0
7	1	0
8	1	0
9	1	0
10	1	0
11	1	0
12	1	0
13	1	0
14	1	0
15	1	0
16	1	0
17	1	0
18	1	0
19	1	0
20	1	0
21	1	0
22	1	0
23	1	0
24	0	0
25	0	0
26	1	0
27	1	0
28	1	0
29	1	0
30	0	0
31	0	0
32	0	0
33	1	0
34	1	0
35	1	0
36	1	0
37	1	0
38	0	0
39	0	0
40	0	0
41	0	0
42	0	0
43	0	0
44	1	0
45	1	0
46	1	0
47	1	0
48	1	0
49	1	0
50	0	0
51	0	0
52	0	0
53	0	0
54	1	0
55	0	0
56	0	0
57	0	0
58	0	0
59	0	0
60	0	0
61	0	0
62	0	0
63	0	0
64	0	0
65	0	0
66	0	0
67	0	0
68	0	0
69	0	0
70	0	0
71	0	0
72	0	0
73	0	0
74	0	0
75	0	0
76	0	0
77	0	0
78	0	0
79	0	0
80	0	0
81	0	0
82	0	0
83	0	0
84	0	0
85	0	0
86	0	0
87	0	0
88	0	0
89	0	0
90	0	0
91	0	0
92	0	0
93	0	0
94	1	0
95	1	0
96	1	0
97	1	0
98	1	0
99	1	0
100	1	0
101	1	0
102	1	0
103	1	0
104	1	0
105	1	0
106	1	0
107	1	0
108	1	0
109	0	0
110	0	0
111	0	0
112	0	0
113	0	0
114	0	0
115	0	0
116	0	0
117	0	0
118	1	0
119	1	0
120	1	0
121	1	0
122	0	0
123	0	0
124	0	0
125	0	0
126	0	0
127	0	0
128	0	0
129	0	0
130	0	0
131	0	0
132	0	0
133	0	0
134	0	0
135	0	0
136	0	0
137	0	0
138	0	0
139	0	0
140	0	0
141	0	0
142	0	0
143	0	0
144	0	0
145	0	0
146	0	0
147	0	0
148	0	0
149	0	0
150	0	0
151	0	0
152	0	0
153	0	0
154	0	0
155	0	0
156	0	0
157	0	0
158	0	0
159	0	0
160	0	0
161	0	0
162	0	0
163	0	0
164	0	0
165	0	0
166	0	0
167	0	0
168	0	0
169	0	0
170	0	0
171	0	0
172	0	0
173	0	0
174	0	0
175	0	0
176	0	0
177	0	0
178	0	0
179	0	0
180	0	0
181	0	0
182	0	0
183	0	0
184	0	0
185	0	0
186	0	0
187	0	0
188	0	0
189	0	0
190	0	0
191	0	0
192	0	0
193	0	0
194	0	0
195	0	0
196	0	0
197	0	0
198	0	0
199	0	0
200	0	0
201	0	0
202	0	0
203	0	0
204	0	0
205	0	0
206	0	0
207	0	0
208	0	0
209	0	0
210	0	0
211	0	0
212	0	0
213	0	0
214	0	0
215	0	0
216	0	0
217	0	0
218	0	0
219	0	0
220	0	0
221	0	0
222	0	0
223	0	0
224	0	0
225	0	0
226	0	0
227	0	0
228	0	0
229	0	0
230	0	0
231	0	0
232	0	0
233	0	0
234	0	0
235	0	0
236	0	0
237	0	0
238	0	0
239	0	0
240	0	0
241	0	0
242	0	0
243	0	0
244	0	0
245	0	0.166667
246	0	0.166667
247	0	0.166667
248	0	0.166667
249	0	0
250	0	0
251	0	0
252	0	0
253	0	0
254	0	0
255	0	0
256	0	0
257	0	0
258	0	0
259	0	0
260	0	0
261	0	0
262	0	0
263	0	0
264	0	0
265	0	0
266	0	0
267	0	0
268	0	0
269	0	0
270	0	0
271	0	0
272	0	0
273	0	0
274	0	0
275	0	0
276	0	0
277	0	0
278	0	0
279	0	0
280	0	0
281	0	0
282	0	0
283	0	0
284	0	0
285	0	0
286	0	0
287	0	0
288	0	0
289	0	0
290	0	0
291	0	0
292	0	0
293	0	0
294	0	0
295	0	0
296	0	0
297	0	0
298	0	0
299	0	0
300	0	0
301	0	0
302	0	0
303	0	0
304	0	0
305	0	0
306	0	0
307	0	0
308	0	0
309	0	0
310	0	0
311	0	0
312	0	0
313	0	0
314	0	0
315	0	0
316	0	0
317	0	0
318	0	0
319	0	0
320	0	0
321	0	0
322	0	0
323	0	0
324	0	0
325	0	0
326	0	0
327	0	0
328	0	0
329	0	0
330	0	0
331	0	0
332	0	0
333	0	0
334	0	0
335	0	0
336	0	0.010989
337	0	0.00952381
338	0	0.00833333
339	0	0.00735294
340	0	0.00584795
341	0	0.00952381
342	0	0.00790514
343	0	0.00923077
344	0	0.00923077
345	0	0.00923077
346	0	0.00569801
347	0	0.00569801
348	0	0.011396
349	0	0.00985222
350	0	0.00860215
351	0	0.00860215
352	0	0.0094697
353	0	0.0151261
354	0	0.0105105
355	0	0.0102564
356	0	0.0097561
357	0	0.0121816
358	0	0.0135266
359	0	0.0144558
360	0	0.014902
361	0	0.0388964
362	0	0.0377524
363	0	0.0349531
364	0	0.0377638
365	0	0.033633
366	0	0.0310127
367	0	0.0285043
368	0	0.0275387
369	0	0.032077
370	0	0.0253396
371	0	0.0250784
372	0	0.0243249
373	0	0.0234906
374	0	0.0225915
375	0	0.0214607
376	0	0.0215179
377	0	0.0208026
378	0	0.0239969
379	0	0.0215589
380	0	0.0220307
381	0	0.0415159
382	0	0.0448649
383	0	0.0488278
384	0	0.336701
385	0	0.280739
386	0	0.207546
387	0	0.11998
388	0	0.130562
389	0	0.21219
390	0	0.0985991
391	0	0.102706
392	0	0.194798
393	0	0.134083
394	0	0.0989543
395	0	0.0932834
396	0	0.193082
397	0	0.210124
398	0	0.227815
399	0	0.0206143
400	0	0.0220573
401	0	0.0220573
402	0	0.0216162
403	0	0.023324
404	0	0.206403
405	0	0.216774
406	0	0.522222
407	0	0.155556
408	0	0.047619
409	0	0
410	0	0
411	0	0
412	0	0
413	0	0
414	0	0
415	0	0
416	0	0
417	0	0
418	0	0
419	0	0
420	0	0
421	0	0
422	0	0
423	0	0
424	0	0
425	0	0
426	0	0
427	0	0
428	0	0
429	0	0
430	0	0
431	0	0
432	0	0
433	0	0
434	0	0
435	0	0
436	0	0
437	0	0
438	0	0
439	0	0
440	0	0
441	0	0
442	0	0
443	0	0
444	0	0
445	0	0
446	0	0
447	0	0
448	0	0
449	0	0
450	0	0
451	0	0
452	0	0
453	0	0
454	0	0
455	0	0
456	0	0
457	0	0
458	0	0
459	0	0
460	0	0
461	0	0
462	0	0
463	0	0
464	0	0
465	0	0
466	0	0
467	0	0
468	0	0
469	0	0
470	0	0.00833333
471	0	0.00735294
472	0	0.00735294
473	0	0.00584795
474	0	0.00526316
475	0	0
476	0	0
477	0	0
478	0	0.002849
479	0	0.002849
480	0	0.00492611
481	0	0.00215054
482	0	0.00378788
483	0	0.0031746
484	0	0.00750751
485	0	0.0105105
486	0	0.00674764
487	0	0.00775194
488	0	0.00845666
489	0	0.0444209
490	0	0.0383632
491	0	0.0376712
492	0	0.0338346
493	0	0.0420202
494	0	0.0472921
495	0	0.103082
496	0	0.218561
497	0	0.228193
498	0	0.241719
499	0	0.40567
500	0	0.456829
501	0	0.466619
502	0	0.463695
503	0	0.25976
504	0	0.457725
505	0	0.552901
506	0	0.0121951
507	0	0.579976
508	0	0.0215385
509	0	0.0369231
510	0	0.04
511	0	0.5928
512	0	0.596399
513	0	0.59644
514	0	0.0590387
515	0	0.0662107
516	0	0.0331731
517	0	0.0371585
518	0	0.0289562
519	0	0.00832562
520	0	0.0105708
521	0	0.010453
522	0	0.0097561
523	0	0.0115385
524	0	0.012012
525	0	0.0124777
526	0	0.0189394
527	0	0.0189394
528	0	0.0189394
529	0	0.016129
530	0	0.016129
531	0	0.016129
532	0	0.016129
533	0	0.0114943
534	0	0.0114943
535	0	0.016092
536	0	0.014245
537	0	0.011396
538	0	0.00854701
539	0	0.004329
540	0	0.0047619
541	0	0.00653595
542	0	0.00735294
543	0	0.00735294
544	0	0.010989
545	0	0.010989
546	0	0.0128205
547	0	0.0128205
548	0	0.0181818
549	0	0.0277778
550	0	0.047619
551	0	0.047619
552	0	0.047619
553	0	0.047619
554	0	0.047619
555	0	0.047619
556	0	0
557	0	0
558	0	0
559	0	0
560	0	0
561	0	0
562	0	0
563	0	0
564	0	0
565	0	0
566	0	0
567	0	0
568	0	0.047619
569	0	0.047619
570	0	0.047619
571	0	0.047619
572	0	0.0357143
573	0	0.0357143
574	0	0.0357143
575	0	0.0357143
576	0	0.0357143
577	0	0
578	0	0
579	0	0
580	0	0
581	0	0
582	0	0
583	0	0
584	0	0
585	0	0
586	0	0
587	0	0
588	0	0
589	0	0
590	0	0
591	0	0
592	0	0
593	0	0.663374
594	0	0.660938
595	0	0.65955
596	0	0.0215054
597	0	0.0246305
598	0	0.0215385
599	0	0.0237154
600	0	0.0237154
601	0	0.012987
602	0	0.0142857
603	0	0.0380952
604	0	0.0380952
605	0	0.0380952
606	0	0.0380952
607	0	0.0619048
608	0	0.0631579
609	0	0.0522876
610	0	0.0522876
611	0	0.0457516
612	0	0.0457516
613	0	0.0980392
614	0	0.0980392
615	0	0.104575
616	0	0.104575
617	0	0.104575
618	0	0.104575
619	0	0.117647
620	0	0.132353
621	0	0.132353
622	0	0.132353
623	0	0.132353
624	0	0.65089
625	0	0.656093
626	0	0.658694
627	0	0.117647
628	0	0.0222222
629	0	0.0277778
630	0	0.0666667
631	0	0.0666667
632	0	0.1
633	0	0.1
634	0	0.1
635	0	0
636	0	0
637	0	0
638	0	0
639	0	0
640	0	0
641	0	0
642	0	0
643	0	0
644	0	0
645	0	0
646	0	0
647	0	0
648	0	0
649	0	0
650	0	0
651	0	0
652	0	0
653	0	0
654	0	0
655	0	0
656	0	0
657	0	0
658	0	0
659	0	0
660	0	0
661	0	0
662	0	0
663	0	0
664	0	0
665	0	0
666	0	0
667	0	0
668	0	0
669	0	0
670	0	0.680682
671	0	0.097166
672	0	0.0923077
673	0	0.0923077
674	0	0.0910256
675	0	0.0910256
676	0	0.0890244
677	0	0.0948718
678	0	0.102564
679	0	0.0939024
680	0	0.0917538
681	0	0.0887949
682	0	0.0866808
683	0	0.0866808
684	0	0.0856237
685	0	0.1
686	0	0.1
687	0	0.142857
688	0	0.111111
689	0	0.0666667
690	0	0.0808081
691	0	0.697413
692	0	0.0779661
693	0	0.0933333
694	0	0.108233
695	0	0.108233
696	0	0.109158
697	0	0.125793
698	0	0.133998
699	0	0.138211
700	0	0.720563
701	0	0.72094
702	0	0.721195
703	0	0
704	0	0
705	0	0
706	0	0
707	0	0
708	0	0
709	0	0
710	0	0
711	0	0
712	0	0
713	0	0
714	0	0
715	0	0
716	0	0
717	0	0
718	0	0
719	0	0
720	0	0
721	0	0
722	0	0
723	0	0
724	0	0
725	0	0
726	0	0
727	0	0
728	0	0
729	0	0
730	0	0.166667
731	0	0
732	0	0
733	0	0
734	0	0
735	0	0
736	0	0.0666667
737	0	0.0666667
738	0	0.0666667
739	0	0.0666667
740	0	0.0666667
741	0	0.0666667
742	0	0.0666667
743	0	0.0666667
744	0	0.0666667
745	0	0.047619
746	0	0.0714286
747	0	0.0833333
748	0	0.0833333
749	0	0.836412
750	0	0.0529101
751	0	0.0555556
752	0	0.06
753	0	0.0606061
754	0	0.0606061
755	0	0.0995671
756	0	0.138528
757	0	0.150198
758	0	0.155797
759	0	0.155797
760	0	0.155797
761	0	0.14
762	0	0.16
763	0	0.293333
764	0	0.293333
765	0	0.3
766	0	0.3
767	0	0.3
768	0	0.323333
769	0	0.323333
770	0	0.323333
771	0	0.323333
772	0	0.323333
773	0	0.323333
774	0	0.323333
775	0	0.833731
776	0	0.835422
777	0	0.0714286
778	0	0.0357143
779	0	0.107143
780	0	0.107143
781	0	0.107143
782	0	0.107143
783	0	0.214286
784	0	0.214286
785	0	0.305556
786	0	0.305556
787	0	0.305556
788	0	0.305556
789	0	0.305556
790	0	0.305556
791	0	0.305556
792	0	0.305556
793	0	0.288889
794	0	0.288889
795	0	0.363636
796	0	0.363636
797	0	0.363636
798	0	0.363636
799	0	0.457143
800	0	0.457143
801	0	0.903982
802	0	0.903982
803	0	0.645161
804	0	0.707661
805	0	0.707661
806	0	0.707661
807	0	0.707661
808	0	0.673797
809	0	0.956855
810	0	0.956897
811	0	0
812	0	0
813	0	0
814	0	0
815	0	0
816	0	0
817	0	0
818	0	0
819	0	0
820	0	0
821	0	0
822	0	0
823	0	0
824	0	0
825	0	0
826	0	0
827	0	0
828	0	0
829	0	0
830	0	0.822781
831	0	0
832	0	0
833	0	0
834	0	0
835	0	0
836	0	0
837	0	0
838	0	0
839	0	0
840	0	0
841	0	0
842	0	0
843	0	0
844	0	0
845	0	0
846	0	0
847	0	0
848	0	0
849	0	0
850	0	0
851	0	0
852	0	0
853	0	0
854	0	0
855	0	0
856	0	0
857	0	0
858	0	0
859	0	0
860	0	0
861	0	0.333333
862	0	0.333333
863	0	0.333333
864	0	0.333333
865	0	0.2
866	0	0.2
867	0	0.2
868	0	0.976207
869	0	0.976136
870	0	0.974186
871	0	0.970402
872	0	0.968475
873	0	0.970402
874	0	0.970402
875	0	0.97049
876	0	0
877	0	0
878	0	0
879	0	0
880	0	0
881	0	0
882	0	0
883	1	0
884	1	0
885	0	0
886	0	0
887	0	0
888	0	0
889	0	0.972409
890	0	0
891	0	0
892	0	0
893	0	0
894	0	0
895	0	0
896	0	0
897	0	0
898	0	0
899	0	0
900	0	0
901	0	0
902	0	0.978205
903	0	0.976282
904	0	0.972355
905	0	0.972355
906	0	0
907	0	0
908	0	0
909	0	0
910	0	0
911	0	0
912	0	0
913	0	0
914	0	0
915	0	0
916	0	0
917	0	0
918	0	0
919	0	0
920	0	0
921	0	0
922	0	0
923	0	0
924	0	0
925	0	0
926	0	0
927	0	0
928	0	0
929	0	0
930	0	0
931	0	0
932	0	0
933	0	0
934	0	0
935	0	0
936	0	0
937	0	0
938	0	0.047619
939	0	0.0357143
940	0	0.0357143
941	0	0.0277778
942	0	0.0363636
943	0	0.0363636
944	0	0.0384615
945	0	0.0384615
946	0	0.0384615
947	0	0.032967
948	0	0.032967
949	0	0.032967
950	0	0.0285714
951	0	0.0166667
952	0	0.0196078
953	0	0.0196078
954	0	0.0175439
955	0	0.0116959
956	0	0.0105263
957	0	0.0105263
958	0	0.00952381
959	0	0.00865801
960	0	0.0166667
961	0	0.0166667
962	0	0.0166667
963	0	0.0238095
964	0	0.0236559
965	0	0.0221774
966	0	0.0208333
967	0	0.0213904
968	0	0.0255255
969	0	0.022942
970	0	0.0295983
971	0	0.0277521
972	0	0.0555231
973	0	0.0506912
974	0	0.0485934
975	0	0.140341
976	0	0.132399
977	0	0.123713
978	0	0.117773
979	0	0.116121
980	0	0.111773
981	0	0.107097
982	0	0.123893
983	0	0.129655
984	0	0.250814
985	0	0.252512
986	0	0.278219
987	0	0.360626
988	0	0.372456
989	0	0.437257
990	0	0.440996
991	0	0.418523
992	0	0.705514
993	0	0.0555556
994	0	0.0952381
995	0	0.2
996	0	0.166667
997	0	0.166667
998	0	0.166667
999	0	0.166667
1000	0	0.166667
1001	0	0.69572
1002	0	0.596945
1003	0	0.133333
1004	0	0.133333
1005	0	0.133333
1006	0	0.0952381
1007	0	0.0952381
1008	0	0.142857
1009	0	0.238095
1010	0	0.52381
1011	0	0.52381
1012	0	0.52381
1013	0	0.392857
1014	0	0.444444
1015	0	0.563636
1016	0	0.710145
1017	0	0.777089
1018	0	0.965517
1019	0	0.965517
1020	0	0.875603
1021	0	0.87376
1022	0	0.872036
1023	0	0.986221
1024	0	0.984275
1025	0	0.96873
1026	0	0.962929
1027	0	0.96295
1028	0	0.793922
1029	0	0.785154
1030	0	0.822656
1031	0	0
1032	0	0.955726
1033	0	0.881795
1034	0	0.978524
1035	0	0.982434
1036	0	0.982434
1037	0	0.996042
1038	0	0.994024
1039	0	0.990042
1040	0	0.984165
1041	0	0.166667
1042	0	0
1043	0	0
1044	0	0
1045	0	0
1046	1	0
1047	1	0
1048	0	0
1049	0	0
1050	0	0
1051	0	0
1052	0	0.984289
1053	0	0.984274
1054	0	0.986236
1055	0	0.986236
1056	0	0.984289
1057	0	0.984289
1058	0	0.986223
1059	0	0.986223
1060	0	0.986223
1061	0	0.984274
1062	0	0.98233
1063	0	0.986186
1064	0	0
1065	1	0
1066	1	0
1067	1	0
1068	1	0
1069	1	0
1070	1	0
1071	1	0
1072	1	0
1073	0	0
1074	0	0
1075	1	0
1076	0	0
1077	0	0.992075
1078	0	0.992083
1079	0	0.992083
1080	0	0.994059
1081	0	0.994089
1082	0	0.996053
1083	0	0.996057
1084	0	0.9941
1085	0	0.988281
1086	0	0
1087	0	0
1088	0	0
1089	0	0
1090	0	0.994169
1091	0	0.996107
1092	0	0.996107
1093	0	0
1094	0	0
1095	0	0
1096	0	0
1097	0	0.998053
1098	0	0.998053
1099	0	0.998053
1100	0	0.996107
1101	0	0
1102	0	0
1103	0	0.998056
1104	0	0.998056
1105	0	0.952543
1106	0	0.998012
1107	0	0.998012
1108	0	0.998012
1109	0	0.998012
1110	0	0.998012
1111	0	0.998012
1112	0	0.998012
1113	0	0.998012
1114	0	0.998012
1115	0	0.998012
1116	0	0.998012
1117	0	0.998012
1118	0	1
1119	0	1
1120	0	0.998012
1121	0	0.99801
1122	0	0
1123	0	0.994042
1124	0	0.990115
1125	0	0.984274
1126	0	0.984274
1127	0	0.984274
1128	0	0.978461
1129	0	0.976558
1130	0	0.966872
1131	0	0.666667
1132	0	0.666667
1133	0	0.666667
1134	0	0.666667
1135	0	0.4
1136	0	0.6
1137	0	0.3
1138	0	0.3
1139	0	0.3
1140	0	0.3
1141	0	0.5
1142	0	0
1143	0	0
1144	0	0
1145	0	0
1146	0	0
1147	0	0
1148	0	0
1149	0	0
1150	0	0
1151	0	0
1152	0	0
1153	0	0.333333
1154	0	0
1155	0	0
1156	0	0
1157	0	0
1158	0	0
1159	0	0
1160	0	0
1161	0	0
1162	0	0
1163	0	0
1164	0	0
1165	0	0
1166	0	0
1167	0	0
1168	0	0
1169	0	0
1170	0	0
1171	0	0
1172	0	0
1173	0	0
1174	0	0
1175	0	0
1176	0	0
1177	0	0
1178	0	0
1179	0	0
1180	0	0
1181	0	0
1182	0	0
1183	0	0
1184	0	0
1185	0	0
1186	0	0
1187	0	0
1188	0	0
1189	0	0
1190	0	0
1191	0	0
1192	0	0
1193	0	0
1194	0	0
1195	0	0
1196	0	0
1197	0	0
1198	0	0
1199	0	0
1200	0	0
1201	0	0
1202	0	0
1203	0	0
1204	0	0
1205	0	0
1206	0	0
1207	0	0
1208	0	0.973248
1209	0	0.973248
1210	0	0.975125
1211	0	0.988389
1212	0	0.988389
1213	0	0.988389
1214	0	0
1215	0	0.99031
1216	0	0.992237
1217	0	0.99031
1218	0	0.992237
1219	0	0.992237
1220	0	0.992237
1221	0	0.992237
1222	1	0
1223	1	0
1224	1	0
1225	1	0
1226	1	0
1227	1	0
1228	1	0
1229	0	0
1230	0	0
1231	0	0
1232	0	0
1233	0	0
1234	0	0.99032
1235	0	0.978915
1236	0	0.978935
1237	0	0.978935
1238	0	0.980825
1239	0	0
1240	0	0.986449
1241	0	0.166667
1242	0	0.166667
1243	0	0.166667
1244	0	0.984549
1245	1	0
1246	1	0
1247	1	0
1248	1	0
1249	1	0
1250	1	0
1251	1	0
1252	1	0
1253	1	0
1254	1	0
1255	1	0
1256	1	0
1257	1	0
1258	1	0
1259	1	0
1260	1	0
1261	1	0
1262	1	0
1263	1	0
1264	1	0
1265	1	0
1266	1	0
1267	1	0
1268	1	0
1269	0	0
1270	0	0
1271	0	0
1272	0	0
1273	0	0
1274	0	0
1275	0	0.986475
1276	0	0.984566
1277	0	0.982654
1278	0	0.971327
1279	0	0
1280	0	0
1281	0	0.849231
1282	0	0.923077
1283	0	0.923077
1284	0	0.923077
1285	0	0.923077
1286	0	0.923077
1287	0	0.923077
1288	0	0.923077
1289	0	0.925926
1290	0	0.859788
1291	0	0.859788
1292	0	0.862434
1293	0	0.862434
1294	0	0.973003
1295	0	0.333333
1296	0	0.333333
1297	0	0.9884
1298	0	0.988389
1299	0	0.99031
1300	0	0.99031
1301	0	0.99031
1302	0	0.994169
1303	0	0.992237
1304	0	0.992199
1305	0	0.992207
1306	0	0.992199
1307	0	0.992199
1308	0	0.992199
1309	0	0
1310	0	0
1311	0	0
1312	0	0
1313	0	0
1314	0	0
1315	0	0
1316	0	0
1317	0	0
1318	0	0
1319	0	0.992184
1320	0	0.992176
1321	0	0.994123
1322	0	0.992176
1323	0	0.994123
1324	0	0.994135
1325	0	0.994135
1326	0	1
1327	1	1
1328	1	1
1329	1	1
1330	1	1
1331	1	1
1332	1	1
1333	1	1
1334	1	1
1335	1	1
1336	1	1
1337	1	1
1338	1	1
1339	1	1
1340	1	1
1341	1	1
1342	1	1
1343	1	1
1344	1	1
1345	0	0.5
1346	1	1
1347	1	1
1348	0	0.6
1349	0	0.6
1350	0	0.98816
1351	0	0.996045
1352	0	0.994077
1353	0	0.994065
1354	0	0.988189
1355	0	0.982417
1356	0	0.982417
1357	0	0.982417
1358	0	0.982417
1359	0	0.982417
1360	0	0.98049
1361	0	0.98049
1362	0	1
1363	0	1
1364	0	1
1365	0	1
1366	0	1
1367	0	1
1368	0	1
1369	0	1
1370	0	1
1371	0	1
1372	0	1
1373	0	1
1374	0	1
1375	0	0.968768
1376	0	0.970707
1377	0	0.972622
1378	0	0.970621
1379	0	0.972514
1380	0	0.974442
1381	0	0
1382	0	0
1383	0	0
1384	0	0.966594
1385	0	0.962701
1386	0	0.166667
1387	0	0.166667
1388	0	0.333333
1389	0	0.333333
1390	0	0.943065
1391	0	0.941186
1392	0	0.956839
1393	0	0.648366
1394	0	0.357143
1395	0	0.837881
1396	0	0.845049
1397	0	0.843489
1398	0	0.839988
1399	0	0.83984
1400	0	0.83984
1401	0	0.83984
1402	0	0.837504
1403	0	0.461735
1404	0	0.790869
1405	0	0.789265
1406	0	0.787268
1407	0	0.482174
1408	0	0.473157
1409	0	0.704035
1410	0	0.700052
1411	0	0
1412	0	0
1413	0	0
1414	0	0
1415	0	0
1416	0	0
1417	0	0
1418	0	0
1419	0	0
1420	0	0
1421	0	0
1422	0	0
1423	0	0
1424	0	0
1425	0	0
1426	0	0
1427	0	0
1428	0	0
1429	0	0
1430	0	0
1431	0	0
1432	0	0
1433	0	0
1434	0	0
1435	0	0
1436	0	0
1437	0	0
1438	0	0
1439	0	0
1440	0	0
1441	0	0
1442	0	0
1443	0	0
1444	0	0
1445	0	0
1446	0	0.1
1447	0	0.142857
1448	0	0.142857
1449	0	0.111111
1450	0	0.0888889
1451	0	0.0888889
1452	0	0.685296
1453	0	0.683716
1454	0	0.432056
1455	0	0.401858
1456	0	0.373984
1457	0	0.373984
1458	0	0.373984
1459	0	0.375415
1460	0	0.670961
1461	0	0.669228
1462	0	0.670295
1463	0	0.661836
1464	0	0.266667
1465	0	0.191176
1466	0	0.605263
1467	0	0.605263
1468	0	0.0684211
1469	0	0.0684211
1470	0	0.0688406
1471	0	0.0879121
1472	0	0.0549451
1473	0	0.0549451
1474	0	0.0641026
1475	0	0.594333
1476	0	0.41635
1477	0	0.1
1478	0	0.1
1479	0	0.1
1480	0	0.1
1481	0	0
1482	0	0.107143
1483	0	0.0833333
1484	0	0.2
1485	0	0.163399
1486	0	0.131579
1487	0	0.131579
1488	0	0.0904762
1489	0	0.0750988
1490	0	0.07
1491	0	0.113757
1492	0	0.117241
1493	0	0.107993
1494	0	0.346935
1495	0	0.328243
1496	0	0.270233
1497	0	0.162163
1498	0	0.149314
1499	0	0.122594
1500	0	0.201823
1501	0	0.214086
1502	0	0.218234
1503	0	0.232514
1504	0	0.288564
1505	0	0.266056
1506	0	0.388536
1507	0	0.25203
1508	0	0.259684
1509	0	0.34031
1510	0	0.364493
1511	0	0.370016
1512	0	0.375087
1513	0	0.122926
1514	0	0.125189
1515	0	0.131429
1516	0	0.130612
1517	0	0.130612
1518	0	0.124706
1519	0	0.124706
1520	0	0.177224
1521	0	0.279986
1522	0	0.447384
1523	0	0.400482
1524	0	0.429305
1525	0	0.0689655
1526	0	0.44054
1527	0	0.440538
1528	0	0.17231
1529	0	0.178876
1530	0	0.0994595
1531	0	0.10018
1532	0	0.428212
1533	0	0
1534	0	0
1535	0	0
1536	0	0
1537	0	0
1538	0	0
1539	0	0
1540	0	0
1541	0	0.530882
1542	0	0.378094
1543	0	0.379043
1544	0	0.5473
1545	0	0.547302
1546	0	0
1547	0	0
1548	0	0
1549	0	0
1550	0	0
1551	0	0.107143
1552	0	0.0833333
1553	0	0.457919
1554	0	0.422041
1555	0	0.422347
1556	0	0.128855
1557	0	0.335234
1558	0	0.431736
1559	0	0.0584795
1560	0	0.0467836
1561	0	0.696472
1562	0	0.0380952
1563	0	0.0380952
1564	0	0.0238095
1565	0	0.0190476
1566	0	0.540038
1567	0	0
1568	0	0
1569	0	0
1570	0	0
1571	0	0
1572	0	0
1573	0	0.355937
1574	0	0.26
1575	0	0.24
1576	0	0.24
1577	0	0.24
1578	0	0.507116
1579	0	0.507116
1580	0	0.50412
1581	0	0.49304
1582	0	0.461322
1583	0	0.1
1584	0	0.166667
1585	0	0.166667
1586	0	0.0363543
1587	0	0.265438
1588	0	0
1589	0	0
1590	0	0
1591	0	0
1592	0	0.223984
1593	0	0.025641
1594	0	0.025641
1595	0	0.166667
1596	0	0.025641
1597	0	0.0384615
1598	0	0.0384615
1599	0	0.38011
1600	0	0.0357143
1601	0	0.0357143
1602	0	0.0277778
1603	0	0.0277778
1604	0	0.0277778
1605	0	0.0277778
1606	0	0.0277778
1607	0	0.0277778
1608	0	0.479298
1609	0	0.209582
1610	0	0
1611	0	0
1612	0	0
1613	0	0
1614	0	0
1615	0	0
1616	0	0
1617	0	0
1618	0	0
1619	0	0
1620	0	0
1621	0	0
1622	0	0
1623	0	0
1624	0	0
1625	0	0
1626	0	0.175439
1627	0	0.0818713
1628	0	0.462303
1629	0	0.31412
1630	0	0.293167
1631	0	0.250794
1632	0	0.210084
1633	0	0.210084
1634	0	0.210339
1635	0	0.153298
1636	0	0.151515
1637	0	0.125616
1638	0	0.140394
1639	0	0.140394
1640	0	0.1133
1641	0	0.108466
1642	0	0.116809
1643	0	0.0779221
1644	0	0.113333
1645	0	0.0849673
1646	0	0.0363636
1647	0	0.0357143
1648	0	0.0666667
1649	0	0
1650	0	0
1651	0	0
1652	0	0
1653	0	0
1654	0	0
1655	0	0
1656	0	0
1657	0	0
1658	0	0
1659	0	0
1660	0	0.5
1661	0	0.5
1662	0	0.5
1663	0	0.187896
1664	0	0.185858
1665	0	0.257434
1666	0	0.336299
1667	0	0.340164
1668	0	0.340164
1669	0	0.340952
1670	0	0.121953
1671	0	0.138689
1672	0	0.183007
1673	0	0.301565
1674	0	0.248106
1675	0	0.5
1676	0	0.5
1677	0	0.5
1678	0	0.3
1679	0	0.166667
1680	0	0.190476
1681	0	0.214286
1682	0	0.321429
1683	0	0
1684	0	0
1685	0	0
1686	0	0
1687	0	0
1688	0	0
1689	0	0
1690	0	0
1691	0	0
1692	0	0
1693	0	0
1694	0	0
1695	0	0
1696	0	0
1697	0	0
1698	0	0.305556
1699	0	0.194444
1700	0	0.142857
1701	0	0
1702	0	0.290598
1703	0	0.202652
1704	0	0.225501
1705	0	0.609495
1706	0	0.0525526
1707	0	0.0585586
1708	0	0.145545
1709	0	0.147059
1710	0	0.190476
1711	0	0.2
1712	0	0.12864
1713	0	0.111694
1714	0	0.136582
1715	0	0.172414
1716	0	0.169231
1717	0	0.314536
1718	0	0.220884
1719	0	0.489655
1720	0	0.398094
1721	0	0.0427155
1722	0	0.0422578
1723	0	0.302182
1724	0	0.221971
1725	0	0.222415
1726	0	0.047619
1727	0	0.0143003
1728	0	0.0595041
1729	0	0.316621
1730	0	0.0967824
1731	0	0.0162338
1732	0	0.663946
1733	0	0.0409357
1734	0	0.0409357
1735	0	0.0409357
1736	0	0.0392157
1737	0	0.0392157
1738	0	0.346847
1739	0	0.330014
1740	0	0.386859
1741	0	0.410719
1742	0	0.431591
1743	0	0.436736
1744	0	0.0909091
1745	0	0.0379278
1746	0	0.148455
1747	0	0.307692
1748	0	0.314326
1749	0	0.334705
1750	0	0.312879
1751	0	0.441595
1752	0	0.438746
1753	0	0.438746
1754	0	0.431854
1755	0	0
1756	0	0
1757	0	0
1758	0	0
1759	0	0
1760	0	0.228571
1761	0	0.371429
1762	0	0.246341
1763	0	0.211538
1764	0	0.306228
1765	0	0
1766	0	0
1767	0	0
1768	0	0
1769	0	0
1770	0	0
1771	0	0
1772	0	0
1773	0	0.191198
1774	0	0.174045
1775	0	0.0633333
1776	0	0.0676923
1777	0	0.0523077
1778	0	0.145315
1779	0	0.303804
1780	0	0.226262
1781	0	0.162008
1782	0	0.121278
1783	0	0.207579
1784	0	0.5
1785	0	0.5
1786	0	0.428571
1787	0	1
1788	0	1
1789	0	1
1790	0	1
1791	0	1
1792	0	1
1793	0	0.5
1794	0	0.266667
1795	0	0.194444
1796	0	0.194444
1797	0	0.194444
1798	0	0.194444
1799	0	0.226788
1800	0	0.457516
1801	0	0.4
1802	0	0.4
1803	0	0.250523
1804	0	0.25
1805	0	0.142857
1806	0	0
1807	0	0.535714
1808	0	0.535714
1809	0	0.535714
1810	0	0.535714
1811	0	0.535714
1812	0	0.535714
1813	0	0.535714
1814	0	0.371991
1815	0	0.857143
1816	0	1
1817	0	0.428571
1818	0	0
1819	0	0
1820	0	0
1821	0	0
1822	0	0
1823	0	0
1824	0	0
1825	0	0
1826	0	0
1827	0	0
1828	0	0
1829	0	0.589744
1830	0	0.589744
1831	0	0
1832	0	1
1833	0	1
1834	0	1
1835	0	1
1836	0	0.705882
1837	0	0.478227
1838	0	0.0879121
1839	0	0.102564
1840	0	0.0989011
1841	0	0.186813
1842	0	0.186813
1843	0	0.345729
1844	0	0.193676
1845	0	0.303303
1846	0	0.184844
1847	0	0.216288
1848	0	0.209933
1849	0	0.271838
1850	0	0.363706
1851	0	0.365043
1852	0	0
1853	0	0
1854	0	0
1855	0	0
1856	0	0
1857	0	0
1858	0	0
1859	0	0
1860	0	0
1861	0	0
1862	0	0
1863	0	0.356044
1864	0	0.150368
1865	0	0.323209
1866	0	0.219269
1867	0	0.190006
1868	0	0.0155102
1869	0	0.0164706
1870	0	0.0164706
1871	0	0.0164706
1872	0	0.0166909
1873	0	0.0188235
1874	0	0.226434
1875	0	0.501845
1876	0	0.512616
1877	0	0.164007
1878	0	0.149388
1879	0	0.149388
1880	0	0.132801
1881	0	0.112523
1882	0	0.576983
1883	0	0.304103
1884	0	0
1885	0	0
1886	0	0
1887	0	0.772847
1888	0	0
1889	0	0
1890	0	0
1891	0	0
1892	0	0
1893	0	0
1894	0	0
1895	0	0
1896	0	0
1897	0	0
1898	0	0
1899	0	0
1900	0	0
1901	0	0
1902	0	0
1903	0	0
1904	0	0
1905	0	0.435961
1906	0	0.567759
1907	0	0.612796
1908	0	0.657511
1909	0	0.121693
1910	0	0.166008
1911	0	0
1912	0	0
1913	0	0
1914	0	0.222222
1915	0	0.396097
1916	0	0.408507
1917	0	0.407967
1918	0	0.420476
1919	0	0.0151515
1920	0	0.273273
1921	0	0.273273
1922	0	0.22561
1923	0	0.204873
1924	0	0.162353
1925	0	0.560904
1926	0	0.560459
1927	0	0.576645
1928	0	1
1929	0	1
1930	0	1
1931	0	1
1932	0	1
1933	1	1
1934	1	1
1935	0	0
1936	0	0
1937	0	0
1938	0	0
1939	0	0
1940	1	0
1941	1	0
1942	1	0
1943	1	0
1944	1	0
1945	1	0
1946	1	0
1947	0	0
1948	0	0
1949	0	0
1950	0	0
1951	0	0
1952	0	0
1953	0	0.333333
1954	0	0.333333
1955	0	0.333333
1956	0	0.333333
1957	0	0.333333
1958	0	0.333333
1959	0	0.333333
1960	0	0.333333
1961	0	0.333333
1962	0	0.166667
1963	0	0.0666667
1964	0	0.1
1965	0	0.1
1966	0	0.1
1967	0	0.1
1968	0	0.1
1969	0	0.1
1970	0	0.0666667
1971	0	0.540793
1972	0	0.0357143
1973	0	0.0189394
1974	0	0.267865
1975	0	0.307973
1976	0	0.0645309
1977	0	0.276269
1978	0	0.0619592
1979	0	0.0436137
1980	0	0.424304
1981	0	0.439389
1982	0	0.438549
1983	0	0.43763
1984	0	0.438085
1985	0	0
1986	0	0
1987	0	0
1988	0	0
1989	0	0
1990	0	0
1991	0	0
1992	0	0.166667
1993	0	0.1
1994	0	0.3
1995	0	0.3
1996	0	0.2
1997	0	0.277778
1998	0	0.272727
1999	0	0.192308
2000	0	0.446965
2001	0	0.446536
2002	0	0.442638
2003	0	0.209486
2004	0	0.465153
2005	0	0.464167
2006	0	0.272626
2007	0	0.266446
2008	0	0.256505
2009	0	0.337474
2010	0	0.504428
2011	0	0
2012	0	0
2013	0	0.122807
2014	0	0.492071
2015	0	0.493164
2016	0	0.0444185
2017	0	0.0451178
2018	0	0.0390572
2019	0	0.626854
2020	0	0.0357143
2021	0	0.0357143
2022	0	0.047619
2023	0	0.486896
2024	0	0.484909
2025	0	0
2026	0	0
2027	0	0
2028	0	0
2029	0	0
2030	0	0
2031	0	0
2032	0	0
2033	0	0
2034	0	0
2035	0	0
2036	0	0
2037	0	0
2038	0	0
2039	0	0
2040	0	0
2041	0	0
2042	0	0
2043	0	0.0344086
2044	0	0.0396825
2045	0	0.042735
2046	0	0.0461538
2047	0	0.055336
2048	0	0.0571429
2049	0	0.0571429
2050	0	0.052381
2051	0	0.0578947
2052	0	0.0578947
2053	0	0.44627
2054	0	0.445368
2055	0	0.447254
2056	0	0.157062
2057	0	0.151913
2058	0	0.143369
2059	0	0.548416
2060	0	0.540672
2061	0	0.537662
2062	0	0.533234
2063	0	0
2064	0	0
2065	0	0
2066	0	0
2067	0	0
2068	0	0
2069	0	0
2070	0	0
2071	0	0
2072	0	0.544732
2073	0	0
2074	0	0.0877341
2075	0	0.383757
2076	0	0
2077	0	0
2078	0	0
2079	0	0
2080	0	0
2081	0	0
2082	0	0.529204
2083	0	0.672524
2084	0	0.016092
2085	0	0.0238095
2086	0	0.0238095
2087	0	0.0238095
2088	0	0.597356
2089	0	0.598915
2090	0	0.601262
2091	0	0.600829
2092	0	0.0223214
2093	0	0.519116
2094	0	0
2095	0	0
2096	0	0
2097	0	0
2098	0	0
2099	0	0
2100	0	0
2101	0	0
2102	0	0.476756
2103	0	0.473656
2104	0	0
2105	0	0
2106	0	0
2107	0	0
2108	0	0
2109	0	0
2110	0	0.469458
2111	0	0.471083
2112	0	0.0181818
2113	0	0.0222222
2114	0	0.0277778
2115	0	0.0181818
2116	0	0.0151515
2117	0	0.0128205
2118	0	0.010989
2119	0	0.0130719
2120	0	0.513579
2121	0	0.458278
2122	0	0.455413
2123	0	0
2124	0	0
2125	0	0
2126	0	0
2127	0	0.021256
2128	0	0.527371
2129	0	0
2130	0	0
2131	0	0
2132	0	0
2133	0	0
2134	0	0
2135	0	0
2136	0	0
2137	0	0
2138	0	0
2139	0	0
2140	0	0
2141	0	0
2142	0	0
2143	0	0
2144	0	0
2145	0	0
2146	0	0
2147	0	0
2148	0	0
2149	0	0
2150	0	0
2151	0	0
2152	0	0
2153	0	0
2154	0	0
2155	0	0
2156	0	0.511195
2157	0	0.513746
2158	0	0.168302
2159	0	0.493245
2160	0	0.472805
2161	0	0.0232558
2162	0	0.0232558
2163	0	0.021256
2164	0	0.0221484
2165	0	0.0230496
2166	0	0.429025
2167	0	0.473754
2168	0	0.478224
2169	0	0.50177
2170	0	0.164007
2171	0	0.185513
2172	0	0.19089
2173	0	0.19556
2174	0	0.19556
2175	0	0.204873
2176	0	0.204873
2177	0	0.488874
2178	0	0.486307
2179	0	0.494559
2180	0	0.00952381
2181	0	0
2182	0	0
2183	0	0
2184	0	0
2185	0	0
2186	0	0
2187	0	0
2188	0	0
2189	0	0
2190	0	0
2191	0	0
2192	0	0
2193	0	0
2194	0	0
2195	0	0
2196	0	0
2197	0	0
2198	0	0
2199	0	0
2200	0	0
2201	0	0
2202	0	0
2203	0	0
2204	0	0
2205	0	0
2206	0	0
2207	0	0
2208	0	0
2209	0	0
2210	0	0
2211	0	0
2212	0	0
2213	0	0
2214	0	0
2215	0	0
2216	0	0.564076
2217	0	0.567683
2218	0	0
2219	0	0
2220	0	0
2221	0	0
2222	0	0
2223	0	0
2224	0	0
2225	0	0
2226	0	0
2227	0	0
2228	0	0
2229	0	1
2230	0	1
2231	0	1
2232	0	1
2233	0	0.432387
2234	0	0.431258
2235	0	0.432995
2236	0	0.435305
2237	0	0.437139
2238	0	0
2239	0	0
2240	0	0
2241	0	0
2242	0	0.025974
2243	0	0.0641711
2244	0	0.480118
2245	0	0.463552
2246	0	0.451094
2247	0	0.492877
2248	0	0.492877
2249	0	0.492877
2250	0	0.532308
2251	0	0.576667
2252	0	0.495726
2253	0	0.495726
2254	0	0.434517
2255	0	0.445676
2256	0	0.448272
2257	0	0
2258	0	0
2259	0	0
2260	0	0
2261	0	0
2262	0	0
2263	0	0
2264	0	0
2265	0	0
2266	0	0.0128205
2267	0	0.493314
2268	0	0
2269	0	0.277778
2270	0	0
2271	0	0
2272	0	0
2273	0	0
2274	0	0
2275	0	0.644181
2276	0	1
2277	0	0.387216
2278	0	0.0124777
2279	0	0.0124777
2280	0	0.0126984
2281	0	0.0111111
2282	0	0.285335
2283	0	0.271333
2284	0	0.249561
2285	0	0.139381
2286	0	0.179347
2287	0	0
2288	0	0
2289	0	0
2290	0	0
2291	0	0
2292	0	0.199238
2293	0	0.105278
2294	0	0.0952381
2295	0	0.233306
2296	0	0.0860144
2297	0	0.271378
2298	0	0.273156
2299	0	0.0167523
2300	0	0.305178
2301	0	0.463308
2302	0	0
2303	0	0
2304	0	0
2305	0	0
2306	0	0
2307	0	0
2308	0	0
2309	0	0.10582
2310	0	0.0860215
2311	0	0.459615
2312	0	0.454782
2313	0	0.454766
2314	0	0.0134454
2315	0	0.0151261
2316	0	0.508211
2317	0	0
2318	0	0
2319	0	0
2320	0	0
2321	0	0
2322	0	0
2323	0	0
2324	0	0.464268
2325	0	0
2326	0	0
2327	0	0
2328	0	0
2329	0	0
2330	0	0
2331	0	0.370903
2332	0	0.403492
2333	0	0.4099
2334	0	0.434656
2335	0	0.277778
2336	0	0.107143
2337	0	0.107143
2338	0	0.495726
2339	0	0.495726
2340	0	0.460317
2341	0	0.460317
2342	0	0.280488
2343	0	0.268687
2344	0	0.257971
2345	0	0.257818
2346	0	0.215937
2347	0	0.244198
2348	0	0.487179
2349	0	0.526154
2350	0	0.57
2351	0	0.57
2352	0	0.57
2353	0	0.57
2354	0	0.57
2355	0	0.633333
2356	0	0.633333
2357	0	0.54416
2358	0	0.368067
2359	0	0.333585
2360	0	0.145864
2361	0	0.155354
2362	0	0.27027
2363	0	0.27027
2364	0	0.285285
2365	0	0.367949
2366	0	0.377032
2367	0	0.212938
2368	0	0.210893
2369	0	0.212427
2370	0	0.181818
2371	0	0.181818
2372	0	0.181818
2373	0	0.181818
2374	0	0.151515
2375	0	0.151515
2376	0	0.128205
2377	0	0.10989
2378	0	0.0952381
2379	0	0.0718954
2380	0	0.818683
2381	0	0.843522
2382	0	0.861504
2383	0	0
2384	0	0.0151515
2385	0	0.00952381
2386	0	0.614079
2387	0	0.0555556
2388	0	0.0487179
2389	0	0.0474359
2390	0	0.0431894
2391	0	0.0457143
2392	0	0.369491
2393	0	0.30612
2394	0	0.0393939
2395	0	0.299884
2396	0	0.447005
2397	0	0.458613
2398	0	0.465683
2399	0	0.0368254
2400	0	0.0566792
2401	0	0.333333
2402	0	0.302512
2403	0	0.517729
2404	0	0.517727
2405	0	0.514593
2406	0	0.519788
2407	0	0.520849
2408	0	0.524023
2409	0	0.0151515
2410	0	0.0151515
2411	0	0.00526316
2412	0	0.010989
2413	0	0.00735294
2414	0	0.00492611
2415	0	0.00860215
2416	0	0.545226
2417	0	0.539635
2418	0	0.538521
2419	0	0.127273
2420	0	0.127273
2421	0	0.127273
2422	0	0.127273
2423	0	0.127273
2424	0	0.55718
2425	0	0.557147
2426	0	0.556768
2427	0	0
2428	0	0.246694
2429	0	0
2430	0	0.569889
2431	0	0.224582
2432	0	0.522517
2433	0	0.76087
2434	0	0.76087
2435	0	0.76087
2436	0	0.76087
2437	0	0.7
2438	0	0.7
2439	0	0.7
2440	0	0.7
2441	0	0.7
2442	0	0.646154
2443	0	0.646154
2444	0	0.548412
2445	0	0
2446	0	0
2447	0	0
2448	0	0
2449	0	0
2450	0	0
2451	0	0
2452	0	0.114919
2453	0	0.111742
2454	0	0.458823
2455	0	0.450384
2456	0	0.404598
2457	0	0.450704
2458	0	0.335684
2459	0	0.0952381
2460	0	0.0666667
2461	0	0.166667
2462	0	0.166667
2463	0	0.166667
2464	0	0
2465	0	0.193202
2466	0	0
2467	0	0
2468	0	0
2469	0	0.45861
2470	0	0.445955
2471	0	0
2472	0	0
2473	0	0
2474	0	0
2475	0	0
2476	0	0
2477	0	0
2478	0	0
2479	0	0
2480	0	0
2481	0	0
2482	0	0
2483	0	0.47619
2484	0	0
2485	0	0
2486	0	0
2487	0	0.618281
2488	0	0.558931
2489	0	0
2490	0	0
2491	0	0
2492	0	0
2493	0	0
2494	0	0
2495	0	0
2496	0	0
2497	0	0
2498	0	0
2499	0	0
2500	0	0
2501	0	0
2502	0	0
2503	0	0.266667
2504	0	0.375702
2505	0	0
2506	0	0
2507	0	0
2508	0	0
2509	0	0
2510	0	0
2511	0	0
2512	0	0.295155
2513	0	0.265225
2514	0	0.231029
2515	0	0.365576
2516	0	0.329487
2517	0	0.330769
2518	0	0.186369
2519	0	0.182738
2520	0	0.183144
2521	0	0.197853
2522	0	0.3
2523	0	0.3
2524	0	0.3
2525	0	0.038961
2526	0	0.1854
2527	0	0.137333
2528	0	0.135343
2529	0	0.307692
2530	0	0.307692
2531	0	0.307692
2532	0	0.307692
2533	0	0.307692
2534	0	0.307692
2535	0	0.316239
2536	0	0.204173
2537	0	0.210506
2538	0	0.216877
2539	0	0.221746
2540	0	0.0927067
2541	0	0.0619589
2542	0	0.0888712
2543	0	0.083871
2544	0	0.083871
2545	0	0.0989247
2546	0	0.0989247
2547	0	0.0989247
2548	0	0.0989247
2549	0	0.0181818
2550	0	0.0181818
2551	0	0.0181818
2552	0	0.0181818
2553	0	0.025641
2554	0	0.362434
2555	0	0.288288
2556	0	0.117494
2557	0	0.0881001
2558	0	0.115566
2559	0	0.141321
2560	0	0.187479
2561	0	0.338964
2562	0	0.604383
2563	0	0.51172
2564	0	0.339202
2565	0	0.436035
2566	0	0.524506
2567	0	0.0454545
2568	0	0.0454545
2569	0	0.0128205
2570	0	0.0128205
2571	0	0.0128205
2572	0	0.0512821
2573	0	0.0857143
2574	0	0.1
2575	0	0.333934
2576	0	0.355408
2577	0	0
2578	0	0.333333
2579	0	0.333333
2580	0	0.205128
2581	0	0.0531168
2582	0	0.504215
2583	0	0
2584	0	0
2585	0	0
2586	0	0
2587	0	0.290598
2588	0	0.166667
2589	0	0.133333
2590	0	0.4
2591	0	0.4
2592	0	0
2593	0	0
2594	0	0
2595	0	0
2596	0	0.285714
2597	0	0.2
2598	0	0.212121
2599	0	0.705128
2600	0	0.604396
2601	0	0.725275
2602	0	0.725275
2603	0	0.725275
2604	0	0.400262
2605	0	0.402025
2606	0	0.402053
2607	0	0.0632411
2608	0	0.0632411
2609	0	0.057971
2610	0	0.0523077
2611	0	0.044335
2612	0	0.414311
2613	0	0.430775
2614	0	0.431763
2615	0	0.454221
2616	0	0.043956
2617	0	0.0277778
2618	0	0.047619
2619	0	0
2620	0	0
2621	0	0
2622	0	0
2623	0	0
2624	0	0
2625	0	0
2626	0	0
2627	0	0.413184
2628	0	0.403907
2629	0	0.398562
2630	0	0.397041
2631	0	0.38866
2632	0	0.397124
2633	0	0.386783
2634	0	0
2635	0	0
2636	0	0
2637	0	0
2638	0	0
2639	0	0
2640	0	0
2641	0	0
2642	0	0
2643	0	0
2644	0	0
2645	0	0
2646	0	0
2647	0	0
2648	0	0
2649	0	0
2650	0	0
2651	0	0
2652	0	0
2653	0	0
2654	0	0
2655	0	0
2656	0	0
2657	0	0
2658	0	0
2659	0	0.021978
2660	0	0.021978
2661	0	0.0151515
2662	0	0.0151515
2663	0	0.0181818
2664	0	0.0151515
2665	0	0.0190476
2666	0	0.621303
2667	0	0.002849
2668	0	0.00307692
2669	0	0.00333333
2670	0	0.493492
2671	0	0.482389
2672	0	0.0692489
2673	0	0.0703186
2674	0	0.432854
2675	0	0.433939
2676	0	0.039039
2677	0	0.0123153
2678	0	0.010582
2679	0	0.0132275
2680	0	0.0132275
2681	0	0.331997
2682	0	0.320915
2683	0	0.0535347
2684	0	0.144794
2685	0	0.260587
2686	0	0.394272
2687	0	0.394272
2688	0	0.383317
2689	0	0.384291
2690	0	0
2691	0	0
2692	0	0
2693	0	0
2694	0	0.315751
2695	0	0.201177
2696	0	0.19449
2697	0	0.166293
2698	0	0.266343
2699	0	0
2700	0	0
2701	0	0
2702	0	0
2703	0	0
2704	0	0
2705	0	0
2706	0	0
2707	0	0
2708	0	0
2709	0	0.209372
2710	0	0.0139825
2711	0	0.0553846
2712	0	0.180786
2713	0	0.288538
2714	0	0.151497
2715	0	0.151578
2716	0	0.286467
2717	0	0.156337
2718	0	0.333817
2719	0	0.0653595
2720	0	0.0653595
2721	0	0.0718954
2722	0	0.0915033
2723	0	0.0915033
2724	0	0.324235
2725	0	0.254902
2726	0	0.358881
2727	0	0.456667
2728	0	0.307527
2729	0	0.0769231
2730	0	0.047619
2731	0	0.047619
2732	0	0.0666667
2733	0	0.0666667
2734	0	0.308378
2735	0	0.354839
2736	0	0
2737	0	0
2738	0	0
2739	0	0
2740	0	0
2741	0	0
2742	0	0
2743	0	0
2744	0	0
2745	0	0
2746	0	0
2747	0	0
2748	0	0
2749	0	0
2750	0	0
2751	0	0.229991
2752	0	0.225722
2753	0	0.214951
2754	0	0.032967
2755	0	0.261493
2756	0	0.0122449
2757	0	0.225515
2758	0	0.232943
2759	0	0.250272
2760	0	0
2761	0	0
2762	0	0
2763	0	0
2764	0	0
2765	0	0
2766	0	0.52381
2767	0	0.52381
2768	0	0.52381
2769	0	0.52381
2770	0	0.52381
2771	0	0.222751
2772	0	0.229568
2773	0	0.212485
2774	0	0
2775	0	0
2776	0	0
2777	0	0
2778	0	0
2779	0	0
2780	0	0.553016
2781	0	0.43902
2782	0	0.332996
2783	0	0.300649
2784	0	0
2785	0	0
2786	0	0
2787	0	0
2788	0	0
2789	0	0
2790	0	0
2791	0	0.198172
2792	0	0.334842
2793	0	0.331825
2794	0	0.153393
2795	0	0.235294
2796	0	0.0711568
2797	0	0.0663063
2798	0	0.162635
2799	0	0.158949
2800	0	0.29256
2801	0	0.301642
2802	0	0.228737
2803	0	0.16973
2804	0	0.0968421
2805	0	0.0656566
2806	0	0.0616162
2807	0	0.244545
2808	0	0.0383065
2809	0	0.0413793
2810	0	0.0301075
2811	0	0.0301075
2812	0	0.0301075
2813	0	0.328971
2814	0	0.347588
2815	0	0.0659364
2816	0	0.0659364
2817	0	0.275877
2818	0	0.313067
2819	0	0.261657
2820	0	0.26362
2821	0	0.383333
2822	0	0.173362
2823	0	0.597351
2824	0	0.0233333
2825	0	0.0434783
2826	0	0.0626781
2827	0	0.807997
2828	0	0.0276923
2829	0	0.0276923
2830	0	0.0276923
2831	0	0.428348
2832	0	0.427098
2833	0	0.441864
2834	0	0
2835	0	0
2836	0	0
2837	0	0
2838	0	0
2839	0	0
2840	0	0
2841	0	0
2842	0	0
2843	0	0
2844	0	0
2845	0	0
2846	0	0.4609
2847	0	0.456695
2848	0	0.399348
2849	0	0.397974
2850	0	0.0361877
2851	0	0.126296
2852	0	0.442781
2853	0	0
2854	0	0
2855	0	0
2856	0	0
2857	0	0
2858	0	0
2859	0	0.579289
2860	0	0.498391
2861	0	0.49823
2862	0	0.497265
2863	0	0.48005
2864	0	0.58377
2865	0	0.393103
2866	0	0.367742
2867	0	0.367742
2868	0	0.367742
2869	0	0.436782
2870	0	0.436782
2871	0	0.398194
2872	0	0.544471
2873	0	0.263043
2874	0	0.505254
2875	0	0.0522876
2876	0	0.0522876
2877	0	0.0522876
2878	0	0.0653595
2879	0	0.0588235
2880	0	0.0514706
2881	0	0.0514706
2882	0	0.0514706
2883	0	0.69311
2884	0	0.103175
2885	0	0.1
2886	0	0.1
2887	0	0.630924
2888	0	0.0823312
2889	0	0.0823312
2890	0	0.0801932
2891	0	0.0708749
2892	0	0.0327169
2893	0	0.0235294
2894	0	0.0236559
2895	0	0.53001
2896	0	0.0427171
2897	0	0.288666
2898	0	0.279697
2899	0	0.269708
2900	0	0.190008
2901	0	0.219041
2902	0	0
2903	0	0
2904	0	0
2905	0	0
2906	0	0.300654
2907	0	0.300654
2908	0	0.300654
2909	0	0.294118
2910	0	0.340188
2911	0	0.194047
2912	0	0.154276
2913	0	0.158051
2914	0	0.318308
2915	0	0.317981
2916	0	0.192063
2917	0	0.236842
2918	0	0.10989
2919	0	0.128205
2920	0	0.151515
2921	0	0.128205
2922	0	0.128205
2923	0	0.151515
2924	0	0
2925	0	0.120769
2926	0	0
2927	0	0
2928	0	0.151515
2929	0	0.151515
2930	0	0.128205
2931	0	0.151515
2932	0	0.143373
2933	0	0.205128
2934	0	0.205128
2935	0	0.188952
2936	0	0.256259
2937	0	0.200111
2938	0	0.0995984
2939	0	0.14486
2940	0	0.193321
2941	0	0.340659
2942	0	0.186403
2943	0	0.0307285
2944	0	0.0307285
2945	0	0.226865
2946	0	0.115385
2947	0	0.115385
2948	0	0.133333
2949	0	0.133333
2950	0	0.133333
2951	0	0.133333
2952	0	0.106061
2953	0	0.106061
2954	0	0.106061
2955	0	0.217952
2956	0	0.18333
2957	0	0.222222
2958	0	0
2959	0	0
2960	0	0.1
2961	0	0.0666667
2962	0	0
2963	0	0
2964	0	0
2965	0	0
2966	0	0
2967	0	0
2968	0	0.0808824
2969	0	0.1998
2970	0	0
2971	0	0
2972	0	0
2973	0	0
2974	0	0
2975	0	0
2976	0	0
2977	0	0
2978	0	0
2979	0	0.0991108
2980	0	0.106457
2981	0	0.0935252
2982	0	0.104047
2983	0	0.1463
2984	0	0.129401
2985	0	0.122291
2986	0	0.09375
2987	0	0.0745921
2988	0	0.0925696
2989	0	0.0586735
2990	0	0.125216
2991	0	0.552259
2992	0	0.142857
2993	0	0.2
2994	0	0
2995	0	0
2996	0	0
2997	0	0
2998	0	0
2999	0	0.24941
3000	0	0
3001	0	0
3002	0	0
3003	0	0
3004	0	0
3005	0	0
3006	0	0
3007	0	0
3008	0	0.166667
3009	0	0.176201
3010	0	0.251124
3011	0	0.29669
3012	0	0
3013	0	0
3014	0	0
3015	0	0
3016	0	0
3017	0	0
3018	0	0
3019	0	0
3020	0	0
3021	0	0
3022	0	0
3023	0	0
3024	0	0
3025	0	0
3026	0	0
3027	0	0
3028	0	0.6
3029	0	0.575
3030	0	0.256313
3031	0	0.257274
3032	0	0.0403273
3033	0	0
3034	0	0
3035	0	0
3036	0	0
3037	0	0
3038	0	0
3039	0	0
3040	0	0
3041	0	0
3042	0	0
3043	0	0.0788168
3044	0	0.0715347
3045	0	0.173208
3046	0	0.172002
3047	0	0.123585
3048	0	0
3049	0	0
3050	0	0
3051	0	0
3052	0	0
3053	0	0
3054	0	0
3055	0	0
3056	0	0
3057	0	0.0998042
3058	0	0.124183
3059	0	0.101551
3060	0	0.102356
3061	0	0
3062	0	0
3063	0	0
3064	0	0
3065	0	0
3066	0	0.1
3067	0	0.1
3068	0	0.130382
3069	0	0.256917
3070	0	0.256917
3071	0	1
3072	0	1
3073	0	1
3074	0	1
3075	0	1
3076	0	1
3077	0	1
3078	0	0.138712
3079	0	0.0822511
3080	0	0.0196078
3081	0	0.20378
3082	0	0.546274
3083	0	0.558728
3084	0	0.0184615
3085	0	0.02
3086	0	0.0434783
3087	0	0.0632411
3088	0	0.0632411
3089	0	0.142711
3090	0	0.155153
3091	0	0.0592885
3092	0	0.0178843
3093	0	0.0744448
3094	0	0.457152
3095	0	0.18583
3096	0	0.0175439
3097	0	0.0166667
3098	0	0.0380952
3099	0	0.0916667
3100	0	0.1
3101	0	0.116667
3102	0	0.142857
3103	0	0.166667
3104	0	0.436892
3105	0	0.432675
3106	0	0.438561
3107	0	0.43494
3108	0	0
3109	0	0
3110	0	0
3111	0	0
3112	0	0
3113	0	0
3114	0	0
3115	0	0
3116	0	0
3117	0	0
3118	0	0
3119	0	0
3120	0	0
3121	0	0
3122	0	0
3123	0	0.293519
3124	0	0.548094
3125	0	0.427681
3126	0	0.427688
3127	0	0.429103
3128	0	0.428297
3129	0	0
3130	0	0
3131	0	0
3132	0	0
3133	0	0
3134	0	0
3135	0	0
3136	0	0
3137	0	0.430504
3138	0	0.430118
3139	0	0.425294
3140	0	1
3141	0	1
3142	0	1
3143	0	1
3144	0	1
3145	0	0
3146	0	0
3147	0	0
3148	0	0
3149	0	0
3150	0	0
3151	0	0.0181818
3152	0	0.486004
3153	0	0
3154	0	0
3155	0	0
3156	0	0
3157	0	0
3158	0	0.622222
3159	0	0.622222
3160	0	0.200575
3161	0	0.20067
3162	0	0.490981
3163	0	0.442977
3164	0	0.27667
3165	0	0.383875
3166	0	0.521584
3167	0	0.0578947
3168	0	0
3169	0	0
3170	0	0
3171	0	0.350672
3172	0	0
3173	0	0
3174	0	0
3175	0	0
3176	0	0
3177	0	0
3178	0	0
3179	0	0
3180	0	0
3181	0	0
3182	0	0
3183	0	0
3184	0	0.666667
3185	0	1
3186	0	0.517879
3187	0	0.107143
3188	0	0.107143
3189	0	0
3190	0	0
3191	0	0
3192	0	0
3193	0	0
3194	0	0
3195	0	0
3196	0	0
3197	0	0
3198	0	0.1
3199	0	0.1
3200	0	0.0666667
3201	0	0.047619
3202	0	0.562989
3203	0	0.0277778
3204	0	0.0277778
3205	0	0.0277778
3206	0	0.0277778
3207	0	0.0357143
3208	0	0.0357143
3209	0	0.0357143
3210	0	0.047619
3211	0	0.0666667
3212	0	0.0666667
3213	0	0
3214	0	0.347368
3215	0	0.314286
3216	0	0.261905
3217	0	0.312253
3218	0	0.312253
3219	0	0.748071
3220	0	0.441296
3221	0	0.490991
3222	0	0.493994
3223	0	0.551261
3224	0	0.58467
3225	0	0.0888889
3226	0	0.107143
3227	0	0.142857
3228	0	0.142857
3229	0	0
3230	0	0
3231	0	0
3232	0	0
3233	0	0
3234	0	0
3235	0	0
3236	0	0
3237	0	0
3238	0	0
3239	0	0
3240	0	0
3241	0	0
3242	0	0.4
3243	0	0.4
3244	0	0.4
3245	0	0.557985
3246	0	0.381155
3247	0	0.621212
3248	0	0.622498
3249	0	0.618739
3250	0	0.621247
3251	0	0.716973
3252	0	0.182698
3253	0	0.613984
3254	0	0.04
3255	0	0.04
3256	0	0.04
3257	0	0.034188
3258	0	0.651535
3259	0	0.0210526
3260	0	0.0210526
3261	0	0.73256
3262	0	0.339024
3263	0	0.344609
3264	0	0.4
3265	0	0.382114
3266	0	0.419231
3267	0	0.389184
3268	0	0.635303
3269	0	0.634992
3270	0	0.635007
3271	0	0.635029
3272	0	0.277778
3273	0	0.277778
3274	0	0
3275	0	0
3276	0	0
3277	0	0
3278	0	0
3279	0	0
3280	0	0
3281	0	0
3282	0	0
3283	0	0
3284	0	0
3285	0	0
3286	0	0
3287	0	0.814286
3288	0	0.74026
3289	0	0.626109
3290	0	0.629968
3291	0	0.626142
3292	0	0.62614
3293	0	0.628989
3294	0	0.628982
3295	0	0
3296	0	0
3297	0	0
3298	0	0
3299	0	0
3300	0	0
3301	0	0
3302	0	0.642772
3303	0	0.64573
3304	0	0.642774
3305	0	0
3306	0	0
3307	0	0
3308	0	0
3309	0	0
3310	0	0
3311	0	0
3312	0	0
3313	0	0
3314	0	0
3315	0	0
3316	0	0
3317	0	0
3318	0	0
3319	0	0
3320	0	0
3321	0	0
3322	0	0
3323	0	0
3324	0	0
3325	0	0
3326	0	0
3327	0	0
3328	0	0
3329	0	0.1
3330	0	0.1
3331	0	0.1
3332	0	0.0666667
3333	0	0.0666667
3334	0	0.047619
3335	0	0.047619
3336	0	0.0151515
3337	0	0.363804
3338	0	0.582533
3339	0	0.581796
3340	0	0.580893
3341	0	0.579613
3342	0	0.581396
3343	0	0.582688
3344	0	0.581399
3345	0	0.121693
3346	0	0.121693
3347	0	0.105747
3348	0	0.105747
3349	0	0.628806
3350	0	0.633131
3351	0	0.841148
3352	0	0.873038
3353	0	0.889668
3354	0	0.906777
3355	0	0.906777
3356	0	0.924384
3357	0	0.942509
3358	0	0.942509
3359	0	0
3360	0	0
3361	0	0
3362	0	0
3363	0	0
3364	0	0
3365	0	0
3366	0	0
3367	0	0
3368	0	0
3369	0	0.768325
3370	0	0.137805
3371	0	0.137805
3372	0	0.165165
3373	0	0.165165
3374	0	0.174603
3375	0	0.174603
3376	0	0.601829
3377	0	0.618203
3378	0	0.619645
3379	0	0.618241
3380	0	0.511293
3381	0	0.0469945
3382	0	0.0513661
3383	0	0.660359
3384	0	0.661911
3385	0	0.782396
3386	0	0.0181818
3387	0	0.0277778
3388	0	0.0277778
3389	0	0.0277778
3390	0	0.0666667
3391	0	0.0666667
3392	0	0.1
3393	0	0.1
3394	0	0.1
3395	0	0.1
3396	0	0
3397	0	0
3398	0	0
3399	0	0
3400	0	0.598703
3401	0	0.593768
3402	0	0.593403
3403	0	0.593405
3404	0	0.593398
3405	0	0.593356
3406	0	0.592043
3407	0	0.592065
3408	0	0.597343
3409	0	0.595466
3410	0	0.047619
3411	0	0.047619
3412	0	0.047619
3413	0	0.0666667
3414	0	0
3415	0	0
3416	0	0
3417	0	0
3418	0	0
3419	0	0
3420	0	0
3421	0	0
3422	0	0.68113
3423	0	0.844717
3424	0	0.853846
3425	0	0.2
3426	0	0.1
3427	0	0.1
3428	0	0.166667
3429	0	0
3430	0	0
3431	0	0
3432	0	0
3433	0	0
3434	0	0
3435	0	0
3436	0	0
3437	0	0
3438	0	0
3439	0	0
3440	0	0
3441	0	0
3442	0	0.579436
3443	0	0.63074
3444	0	0.627151
3445	0	0.627907
3446	0	0.627903
3447	0	0.630599
3448	0	0.629297
3449	0	1
3450	0	0.777778
3451	0	0.75
3452	0	0.611111
3453	0	0.611111
3454	0	0.611111
3455	0	0.611111
3456	0	0.583333
3457	0	0.416667
3458	0	0.416667
3459	0	0.416667
3460	0	0.111111
3461	0	0.0555556
3462	0	0.0555556
3463	0	0.0555556
3464	0	0.0363636
3465	0	0.030303
3466	0	0.0384615
3467	0	0.0384615
3468	0	0.032967
3469	0	0.0190476
3470	0	0.0326797
3471	0	0.0261438
3472	0	0.0263158
3473	0	0.0566667
3474	0	0.0492611
3475	0	0.0408602
3476	0	0.600815
3477	0	0.592713
3478	0	0.558511
3479	0	0.527482
3480	0	0.535714
3481	0	0.506803
3482	0	0.507653
3483	0	0.507653
3484	0	0.477891
3485	0	0.421769
3486	0	0.421769
3487	0	0.217255
3488	0	0.201742
3489	0	0.201742
3490	0	0.181169
3491	0	0.146483
3492	0	0.573368
3493	0	1
3494	0	0.34879
3495	0	0.0837209
3496	0	0.0578755
3497	0	0.648892
3498	0	0.0603922
3499	0	0.0571429
3500	0	0.0531401
3501	0	0.0481036
3502	0	0.0422833
3503	0	0.0412262
3504	0	0.0391121
3505	0	0.038055
3506	0	0.0338266
3507	0	0.05074
3508	0	0.0443975
3509	0	0.0365449
3510	0	0.0383275
3511	0	0.0418118
3512	0	0.0418118
3513	0	0.0418118
3514	0	0.0387597
3515	0	0.0365449
3516	0	0.0327696
3517	0	0.0354374
3518	0	0.0442968
3519	0	0.0454042
3520	0	0.035461
3521	0	0.196005
3522	0	0.176755
3523	0	0.171697
3524	0	0.125992
3525	0	0.0307692
3526	0	0.0307692
3527	0	0.0246154
3528	0	0.340235
3529	0	0.0562771
3530	0	0.0684211
3531	0	0.0684211
3532	0	0.0684211
3533	0	0.0526316
3534	0	0.0684211
3535	0	0.0526316
3536	0	0.0368421
3537	0	0.0263158
3538	0	0.0210526
3539	0	0.0263158
3540	0	0.0473684
3541	0	0.0350877
3542	0	0.057971
3543	0	0.0350877
3544	0	0.0350877
3545	0	0.0350877
3546	0	0.0238095
3547	0	0.255991
3548	0	0.232787
3549	0	0.0929393
3550	0	0.0967263
3551	0	0.0970844
3552	0	0.143774
3553	0	0.0573477
3554	0	0.0547875
3555	0	0.0537634
3556	0	0.0537634
3557	0	0.154902
3558	0	0.0982747
3559	0	0.0972505
3560	0	0.141094
3561	0	0.141933
3562	0	0.028269
3563	0	0.0286517
3564	0	0.0305574
3565	0	0.0178595
3566	0	0.0186583
3567	0	0.0190476
3568	0	0.16829
3569	0	0.1043
3570	0	0.107998
3571	0	0.0535818
3572	0	0.0546535
3573	0	0.183206
3574	0	0.141462
3575	0	0.155011
3576	0	0.0225198
3577	0	0.0264103
3578	0	0.16413
3579	0	0.347368
3580	0	0.352632
3581	0	0.347368
3582	0	0.347368
3583	0	0.347368
3584	0	0.264822
3585	0	0.168069
3586	0	0.176515
3587	0	0.18038
3588	0	0.0292398
3589	0	0.0292398
3590	0	0.0292398
3591	0	0.0315789
3592	0	0.0315789
3593	0	0.0571429
3594	0	0.0571429
3595	0	0.0519481
3596	0	0.034632
3597	0	0.034632
3598	0	0.038961
3599	0	0.025974
3600	0	0.0606061
3601	0	0.0649351
3602	0	0.0649351
3603	0	0.0562771
3604	0	0.0562771
3605	0	0.146245
3606	0	0.146245
3607	0	0.146245
3608	0	0.137681
3609	0	0.137681
3610	0	0.137681
3611	0	0.126667
3612	0	0.126667
3613	0	0.126667
3614	0	0.133333
3615	0	0.105911
3616	0	0.105911
3617	0	0.0924731
3618	0	0.0606061
3619	0	0
3620	0	0
3621	0	0
3622	0	0
3623	0	0
3624	0	0
3625	0	0
3626	0	0
3627	0	0
3628	0	0
3629	0	0
3630	0	0
3631	0	0
3632	0	0
3633	0	0.0623886
3634	0	0.0756303
3635	0	0.0756303
3636	0	0.0784314
3637	0	0.339172
3638	0	0.340878
3639	0	0.343952
3640	0	0
3641	0	0
3642	0	0
3643	0	0.030073
3644	0	0.0281707
3645	0	0.410801
3646	0	0.180952
3647	0	0
3648	0	0
3649	0	0
3650	0	0
3651	0	0
3652	0	0
3653	0	0
3654	0	0
3655	0	0
3656	0	0
3657	0	0
3658	0	0
3659	0	0
3660	0	0
3661	0	0
3662	0	0
3663	0	0
3664	0	0
3665	0	0
3666	0	0
3667	0	0
3668	0	0
3669	0	0
3670	0	0
3671	0	0
3672	0	0
3673	0	0
3674	0	0
3675	0	0
3676	0	0
3677	0	0
3678	0	0
3679	0	0
3680	0	0
3681	0	0
3682	0	0
3683	0	0
3684	0	0
3685	0	0
3686	0	0
3687	0	0
3688	0	0
3689	0	0
3690	0	0
3691	0	0
3692	0	0
3693	0	0.166667
3694	0	0.166667
3695	0	0
3696	0	0
3697	0	0
3698	0	0
3699	0	0
3700	0	0
3701	0	0
3702	0	0
3703	0	0
3704	0	0
3705	0	0
3706	0	0
3707	0	0
3708	0	0
3709	0	0
3710	0	0
3711	0	0
3712	0	0
3713	0	0
3714	0	0
3715	0	0
3716	0	0
3717	0	0
3718	0	0
3719	0	0
3720	0	0
3721	0	0
3722	0	0
3723	0	0
3724	0	0
3725	0	0
3726	0	0
3727	0	0
3728	0	0
3729	0	0
3730	0	0
3731	0	0
3732	0	0
3733	0	0
3734	0	0
3735	0	0
3736	0	0
3737	0	0
3738	0	0
3739	0	0
3740	0	0
3741	0	0
3742	0	0
3743	0	0
3744	0	0
3745	0	0
3746	0	0
3747	0	0
3748	0	0
3749	0	0
3750	0	0
3751	0	0
3752	0	0
3753	0	0
3754	0	0
3755	0	0
3756	0	0
3757	0	0
3758	0	0
3759	0	0
3760	0	0
3761	0	0
3762	0	0
3763	0	0
3764	0	0
3765	0	0
3766	0	0
3767	0	0
3768	0	0
3769	0	0
3770	0	0
3771	0	0
3772	0	0
3773	0	0
3774	0	0
3775	0	0
3776	0	0
3777	0	0
3778	0	0
3779	0	0
3780	0	0
3781	0	0
3782	0	0
3783	0	0
3784	0	0
3785	0	0
3786	0	0
3787	0	0
3788	0	0
3789	0	0
3790	0	0
3791	0	0
3792	0	0
3793	0	0.047619
3794	0	0.047619
3795	0	0.047619
3796	0	0.047619
3797	0	0.047619
3798	0	0.0357143
3799	0	0.0357143
3800	0	0.0357143
3801	0	0.047619
3802	0	0.0222222
3803	0	0.0363636
3804	0	0.025641
3805	0	0.025641
3806	0	0.025641
3807	0	0.021978
3808	0	0.248677
3809	0	0.216092
3810	0	0.202151
3811	0	0.1875
3812	0	0.165775
3813	0	0.147619
3814	0	0.120513
3815	0	0.105205
3816	0	0.100423
3817	0	0.179595
3818	0	0.182468
3819	0	0.206767
3820	0	0.200847
3821	0	0.170599
3822	0	0.159322
3823	0	0.145929
3824	0	0.133333
3825	0	0.117907
3826	0	0.0669307
3827	0	0.067916
3828	0	0.485024
3829	0	0.473799
3830	0	0.465159
3831	0	0.0488756
3832	0	0.0485757
3833	0	0.0540293
3834	0	0.0552065
3835	0	0.0574257
3836	0	0.0603829
3837	0	0.0647256
3838	0	0.0668537
3839	0	0.068323
3840	0	0.071161
3841	0	0.365478
3842	0	0.0190476
3843	0	0.0136479
3844	0	0.196034
3845	0	0.17723
3846	0	0.18386
3847	0	0.00725953
3848	0	0.00725953
3849	0	0.00604961
3850	0	0.0100251
3851	0	0.00626566
3852	0	0.00689223
3853	0	0.0075188
3854	0	0.0107345
3855	0	0.010929
3856	0	0.0103825
3857	0	0.00983607
3858	0	0.0102843
3859	0	0.0120992
3860	0	0.00978337
3861	0	0.00978337
3862	0	0.011181
3863	0	0.011611
3864	0	0.0141176
3865	0	0.0163265
3866	0	0.0170068
3867	0	0.0161565
3868	0	0.0195035
3869	0	0.0203515
3870	0	0.0157262
3871	0	0.0157262
3872	0	0.0171717
3873	0	0.020202
3874	0	0.0190275
3875	0	0.0188261
3876	0	0.0221484
3877	0	0.0188261
3878	0	0.0197445
3879	0	0.018583
3880	0	0.018583
3881	0	0.0207317
3882	0	0.0207317
3883	0	0.0170732
3884	0	0.0158537
3885	0	0.0215924
3886	0	0.0199147
3887	0	0.0195195
3888	0	0.0238095
3889	0	0.0249554
3890	0	0.0249554
3891	0	0.026738
3892	0	0.0196078
3893	0	0.0196078
3894	0	0.0196078
3895	0	0.0196078
3896	0	0.0178253
3897	0	0.0160428
3898	0	0.0160428
3899	0	0.0160428
3900	0	0.0160428
3901	0	0.0196078
3902	0	0.0184874
3903	0	0.0184874
3904	0	0.0184874
3905	0	0.0285714
3906	0	0.0268908
3907	0	0.0285205
3908	0	0.0268908
3909	0	0.024024
3910	0	0.197407
3911	0	0.273075
3912	0	0.270963
3913	0	0.0220394
3914	0	0.0285043
3915	0	0.0282104
3916	0	0.0287981
3917	0	0.0264473
3918	0	0.28227
3919	0	0.0366085
3920	0	0.039554
3921	0	0.0358689
3922	0	0.0347475
3923	0	0.0359773
3924	0	0.0288239
3925	0	0.017673
3926	0	0.017673
3927	0	0.0180938
3928	0	0.0173737
3929	0	0.0252338
3930	0	0.0247317
3931	0	0.0339698
3932	0	0.139345
3933	0	0.155728
3934	0	0.0233918
3935	0	0.0233918
3936	0	0.0261438
3937	0	0.0261438
3938	0	0.0261438
3939	0	0.0261438
3940	0	0.0457516
3941	0	0.0457516
3942	0	0.0392157
3943	0	0.0196078
3944	0	0.0292398
3945	0	0.0233918
3946	0	0.0233918
3947	0	0.0233918
3948	0	0.0292398
3949	0	0.0315789
3950	0	0.0421053
3951	0	0.0421053
3952	0	0.0421053
3953	0	0.0421053
3954	0	0.0421053
3955	0	0.0380952
3956	0	0.034632
3957	0	0.0289855
3958	0	0.0289855
3959	0	0.0289855
3960	0	0.149571
3961	0	0.322623
3962	0	0
3963	0	0
3964	0	0
3965	0	0.00833333
3966	0	0.0190476
3967	0	0.00952381
3968	0	0.00952381
3969	0	0.010989
3970	0	0
3971	0	0
3972	0	0.010989
3973	0	0.032967
3974	0	0.032967
3975	0	0.032967
3976	0	0.010989
3977	0	0
3978	0	0.010989
3979	0	0
3980	0	0
3981	0	0.010989
3982	0	0.0190476
3983	0	0.192808
3984	0	0.210566
3985	0	0
3986	0	0
3987	0	0
3988	0	0
3989	0	0
3990	0	0
3991	0	0
3992	0	0
3993	0	0
3994	0	0
3995	0	0
3996	0	0
3997	0	0
3998	0	0
3999	0	0.0666667
4000	0	0.0666667
4001	0	0.0666667
4002	0	0
4003	0	0
4004	0	0
4005	0	0
4006	0	0
4007	0	0
4008	0	0
4009	0	0
4010	0	0
4011	0	0
4012	0	0
4013	0	0
4014	0	0.123333
4015	0	0.123333
4016	0	0.466523
4017	0	0.0753045
4018	0	0.0853659
4019	0	0.00985222
4020	0	0.00666667
4021	0	0.00333333
4022	0	0.00307692
4023	0	0.00307692
4024	0	0.002849
4025	0	0.00615385
4026	0	0.00666667
4027	0	0.0153846
4028	0	0.017094
4029	0	0.015873
4030	0	0.0147783
4031	0	0.0181452
4032	0	0.0168067
4033	0	0.015015
4034	0	0.0327696
4035	0	0.0323232
4036	0	0.0297619
4037	0	0.0266667
4038	0	0.025641
4039	0	0.0290276
4040	0	0.0179704
4041	0	0.0164251
4042	0	0.0175763
4043	0	0.0185014
4044	0	0.0177305
4045	0	0.0177305
4046	0	0.425011
4047	0	0.348906
4048	0	0.0643275
4049	0	0.0285714
4050	0	0.032967
4051	0	0.0151515
4052	0	0
4053	0	0
4054	0	0
4055	0	0
4056	0	0
4057	0	0
4058	0	0
4059	0	0
4060	0	0
4061	0	0
4062	0	0
4063	0	0
4064	0	0
4065	0	0
4066	0	0
4067	0	0
4068	0	0
4069	0	0
4070	0	0
4071	0	0
4072	0	0
4073	0	0
4074	0	0
4075	0	0
4076	0	0
4077	0	0
4078	0	0
4079	0	0
4080	0	0
4081	0	0
4082	0	0
4083	0	0
4084	0	0
4085	0	0
4086	0	0
4087	0	0
4088	0	0
4089	0	0
4090	0	0
4091	0	0
4092	0	0
4093	0	0
4094	0	0
4095	0	0
4096	0	0
4097	0	0
4098	0	0
4099	0	0
4100	0	0
4101	0	0
4102	0	0
4103	0	0
4104	0	0
4105	0	0
4106	0	0
4107	0	0
4108	0	0
4109	0	0
4110	0	0
4111	0	0
4112	0	0
4113	0	0
4114	0	0
4115	0	0
4116	0	0
4117	0	0
4118	0	0
4119	0	0
4120	0	0
4121	0	0
4122	0	0
4123	0	0
4124	0	0
4125	0	0
4126	0	0
4127	0	0
4128	0	0
4129	0	0
4130	0	0
4131	0	0
4132	0	0
4133	0	0
4134	0	0
4135	0	0
4136	0	0
4137	0	0
4138	0	0
4139	0	0.169693
4140	0	0.165606
4141	0	0.112988
4142	0	0.112577
4143	0	0.0955145
4144	0	0.0943224
4145	0	0.0924956
4146	0	0.092305
4147	0	0.0887709
4148	0	0.027035
4149	0	0.0280036
4150	0	0.0279165
4151	0	0.0342262
4152	0	0.0337302
4153	0	0.0337302
4154	0	0.0337302
4155	0	0.0317016
4156	0	0.0317016
4157	0	0.1094
4158	0	0.0935083
4159	0	0.0871897
4160	0	0.0285518
4161	0	0.0356289
4162	0	0.0353836
4163	0	0.0349489
4164	0	0.0338486
4165	0	0.0272742
4166	0	0.028219
4167	0	0.0292626
4168	0	0.0222113
4169	0	0.0297828
4170	0	0.0732016
4171	0	0.0585626
4172	0	0.0749829
4173	0	0.0221987
4174	0	0.0221987
4175	0	0.130441
4176	0	0.130716
4177	0	0.125883
4178	0	0.0445633
4179	0	0.00793651
4180	0	0.0188934
4181	0	0
4182	0	0
4183	0	0
4184	0	0
4185	0	0
4186	0	0
4187	0	0
4188	0	0
4189	0	0
4190	0	0
4191	0	0
4192	0	0
4193	0	0
4194	0	0
4195	0	0
4196	0	0
4197	0	0
4198	0	0
4199	0	0
4200	0	0
4201	0	0
4202	0	0
4203	0	0
4204	0	0
4205	0	0
4206	0	0
4207	0	0
4208	0	0
4209	0	0
4210	0	0
4211	0	0
4212	0	0
4213	0	0
4214	0	0
4215	0	0
4216	0	0
4217	0	0
4218	0	0
4219	0	0
4220	0	0
4221	0	0
4222	0	0
4223	0	0
4224	0	0
4225	0	0
4226	0	0
4227	0	0
4228	0	0
4229	0	0
4230	0	0
4231	0	0
4232	0	0
4233	0	0
4234	0	0
4235	0	0
4236	0	0
4237	0	0
4238	0	0.032967
4239	0	0.032967
4240	0	0.0285714
4241	0	0.0285714
4242	0	0.05
4243	0	0.052381
4244	0	0.177866
4245	0	0.199275
4246	0	0.203077
4247	0	0.0502117
4248	0	0.0555231
4249	0	0.050238
4250	0	0.0981735
4251	0	0.0996956
4252	0	0.0969369
4253	0	0.100076
4254	0	0.122022
4255	0	0.101814
4256	0	0.0621281
4257	0	0.0214389
4258	0	0.0215492
4259	0	0.0213861
4260	0	0.0223258
4261	0	0.0570832
4262	0	0.0588673
4263	0	0.0630557
4264	0	0.0745882
4265	0	0.0605875
4266	0	0.0432234
4267	0	0.0420585
4268	0	0.0226891
4269	0	0.0226891
4270	0	0.0208986
4271	0	0.0208986
4272	0	0.0211599
4273	0	0.0213847
4274	0	0.014985
4275	0	0.0133333
4276	0	0.0125879
4277	0	0.0125571
4278	0	0.0140791
4279	0	0.0140791
4280	0	0.011796
4281	0	0.011796
4282	0	0.00938967
4283	0	0.00925553
4284	0	0.00937766
4285	0	0.0102302
4286	0	0.010766
4287	0	0.00993789
4288	0	0.00952381
4289	0	0.0085934
4290	0	0.00723654
4291	0	0.00768883
4292	0	0.00633198
4293	0	0.00703934
4294	0	0.00662526
4295	0	0.00745342
4296	0	0.00745342
4297	0	0.00869565
4298	0	0.00869565
4299	0	0.00910973
4300	0	0.00993789
4301	0	0.00910973
4302	0	0.00993789
4303	0	0.010352
4304	0	0.010352
4305	0	0.0100604
4306	0	0.00895141
4307	0	0.00869565
4308	0	0.00869565
4309	0	0.00703934
4310	0	0.00703934
4311	0	0.00621118
4312	0	0.00538302
4313	0	0.00455487
4314	0	0.00523139
4315	0	0.0056338
4316	0	0.00586854
4317	0	0.00508607
4318	0	0.0043036
4319	0	0.00532725
4320	0	0.00481303
4321	0	0.00481303
4322	0	0.00570776
4323	0	0.00532725
4324	0	0.00518327
4325	0	0.00468468
4326	0	0.004662
4327	0	0.004995
4328	0	0.00389484
4329	0	0.0148423
4330	0	0.0473042
4331	0	0.020979
4332	0	0.0295173
4333	0	0.0368279
4334	0	0.0408048
4335	0	0.0360615
4336	0	0.0290365
4337	0	0.0270025
4338	0	0.0881059
4339	0	0.0879917
4340	0	0.115557
4341	0	0.1391
4342	0	0.137213
4343	0	0.0775803
4344	0	0.0814414
4345	0	0.0836036
4346	0	0.0903369
4347	0	0.0903369
4348	0	0.108236
4349	0	0.111182
4350	0	0.0218556
4351	0	0.0219743
4352	0	0.118423
4353	0	0.109919
4354	0	0.109923
4355	0	0.106187
4356	0	0.0561956
4357	0	0.0136733
4358	0	0.0584369
4359	0	0.0599926
4360	0	0.057786
4361	0	0.122581
4362	0	0.131034
4363	0	0.140394
4364	0	0.140394
4365	0	0.0130719
4366	0	0.0130719
4367	0	0.0130719
4368	0	0.0130719
4369	0	0.0130719
4370	0	0.0130719
4371	0	0.0130719
4372	0	0.109741
4373	0	0.114503
4374	0	0.0368995
4375	0	0.0290814
4376	0	0.154509
4377	0	0.604396
4378	0	0.0156291
4379	0	0.0155106
4380	0	0.0156849
4381	0	0.0146756
4382	0	0.0149441
4383	0	0.0152125
4384	0	0.0170506
4385	0	0.0165064
4386	0	0.0159823
4387	0	0.0160706
4388	0	0.172482
4389	0	0.221344
4390	0	0.199275
4391	0	0.0148352
4392	0	0.0152015
4393	0	0.0150183
4394	0	0.0137363
4395	0	0.0124542
4396	0	0.0118598
4397	0	0.0114618
4398	0	0.0140831
4399	0	0.110411
4400	0	0.0994844
4401	0	0.00564972
4402	0	0.00564972
4403	0	0
4404	0	0
4405	0	0
4406	0	0
4407	0	0
4408	0	0
4409	0	0
4410	0	0
4411	0	0
4412	0	0.00621469
4413	0	0.0079096
4414	0	0.00847458
4415	0	0.0142077
4416	0	0.0152542
4417	0	0.0141243
4418	0	0.0146113
4419	0	0.0140269
4420	0	0.0134424
4421	0	0.0896682
4422	0	0.0937299
4423	0	0.0951301
4424	0	0.0953699
4425	0	0.0331002
4426	0	0.0321678
4427	0	0.0312354
4428	0	0.0312354
4429	0	0.0307692
4430	0	0.031746
4431	0	0.0327381
4432	0	0.0327381
4433	0	0.0332341
4434	0	0.0971348
4435	0	0.0488679
4436	0	0.0415543
4437	0	0.0413454
4438	0	0.0365424
4439	0	0.0337832
4440	0	0.0360265
4441	0	0.0351435
4442	0	0.0343733
4443	0	0.0214581
4444	0	0.0223547
4445	0	0.0219482
4446	0	0.023578
4447	0	0.0243148
4448	0	0.0242563
4449	0	0.0249684
4450	0	0.0263553
4451	0	0.0271831
4452	0	0.0270133
4453	0	0.0275182
4454	0	0.0293069
4455	0	0.0291206
4456	0	0.0293069
4457	0	0.0317694
4458	0	0.0311276
4459	0	0.0321902
4460	0	0.0321902
4461	0	0.0336307
4462	0	0.0348294
4463	0	0.0345956
4464	0	0.0367041
4465	0	0.0403361
4466	0	0.0410212
4467	0	0.0385661
4468	0	0.0409099
4469	0	0.0417582
4470	0	0.0399719
4471	0	0.0430108
4472	0	0.0444209
4473	0	0.0459016
4474	0	0.0485096
4475	0	0.0485096
4476	0	0.0508167
4477	0	0.0526316
4478	0	0.0564935
4479	0	0.0551948
4480	0	0.0545455
4481	0	0.0565657
4482	0	0.0558923
4483	0	0.0580014
4484	0	0.059399
4485	0	0.0595065
4486	0	0.0595777
4487	0	0.0644898
4488	0	0.0671769
4489	0	0.0680272
4490	0	0.072695
4491	0	0.0777058
4492	0	0.0811594
4493	0	0.0811594
4494	0	0.0838384
4495	0	0.0866808
4496	0	0.0908084
4497	0	0.095122
4498	0	0.095122
4499	0	0.0963415
4500	0	0.0963415
4501	0	0.101282
4502	0	0.101282
4503	0	0.102564
4504	0	0.112376
4505	0	0.112376
4506	0	0.112376
4507	0	0.112376
4508	0	0.118619
4509	0	0.118619
4510	0	0.12012
4511	0	0.134454
4512	0	0.134454
4513	0	0.151515
4514	0	0.153409
4515	0	0.163306
4516	0	0.165323
4517	0	0.163306
4518	0	0.16129
4519	0	0.16129
4520	0	0.0116959
4521	0	0.0116959
4522	0	0.0116959
4523	0	0.0116959
4524	0	0.0116959
4525	0	0.00584795
4526	0	0
4527	0	0.00653595
4528	0	0.00653595
4529	0	0
4530	0	0.00735294
4531	0	0.00735294
4532	0	0
4533	0	0.00735294
4534	0	0.0130719
4535	0	0.0130719
4536	0	0.0130719
4537	0	0.0130719
4538	0	0.0233918
4539	0	0.0238095
4540	0	0.0238095
4541	0	0.02
4542	0	0.163763
4543	0	0.338711
4544	0	0.157237
4545	0	0.0613553
4546	0	0.230373
4547	0	0.0514172
4548	0	0.055042
4549	0	0.0585434
4550	0	0.253051
4551	0	0
4552	0	0
4553	0	0
4554	0	0
4555	0	0
4556	0	0
4557	0	0
4558	0	0
4559	0	0
4560	0	0
4561	0	0
4562	0	0
4563	0	0
4564	0	0
4565	0	0
4566	0	0
4567	0	0
4568	0	0
4569	0	0
4570	0	0
4571	0	0
4572	0	0
4573	0	0
4574	0	0
4575	0	0
4576	0	0
4577	0	0
4578	0	0
4579	0	0
4580	0	0
4581	0	0
4582	0	0
4583	0	0
4584	0	0
4585	0	0
4586	0	0
4587	0	0
4588	0	0
4589	0	0
4590	0	0
4591	0	0
4592	0	0
4593	0	0
4594	0	0
4595	0	0
4596	0	0
4597	0	0
4598	0	0
4599	0	0
4600	0	0
4601	0	0
4602	0	0
4603	0	0
4604	0	0
4605	0	0
4606	0	0
4607	0	0
4608	0	0
4609	0	0
4610	0	0
4611	0	0
4612	0	0
4613	0	0
4614	0	0
4615	0	0
4616	0	0
4617	0	0
4618	0	0
4619	0	0
4620	0	0
4621	0	0
4622	0	0
4623	0	0
4624	0	0
4625	0	0
4626	0	0
4627	0	0
4628	0	0
4629	0	0
4630	0	0
4631	0	0
4632	0	0
4633	0	0
4634	0	0
4635	0	0
4636	0	0
4637	0	0
4638	0	0
4639	0	0
4640	0	0
4641	0	0
4642	0	0
4643	0	0
4644	0	0
4645	0	0
4646	0	0
4647	0	0
4648	0	0
4649	0	0
4650	0	0
4651	0	0
4652	0	0
4653	0	0
4654	0	0
4655	0	0
4656	0	0
4657	0	0
4658	0	0
4659	0	0
4660	0	0
4661	0	0
4662	0	0
4663	0	0
4664	0	0
4665	0	0
4666	0	0
4667	0	0
4668	0	0
4669	0	0
4670	0	0
4671	0	0
4672	0	0
4673	0	0
4674	0	0
4675	0	0
4676	0	0
4677	0	0
4678	0	0
4679	0	0
4680	0	0
4681	1	0
4682	0	0
4683	0	0
4684	0	0
4685	0	0
4686	0	0
4687	0	0
4688	0	0
4689	0	0
4690	0	0
4691	0	0
4692	0	0
4693	0	0
4694	0	0
4695	0	0
4696	0	0
4697	0	0
4698	0	0
4699	0	0
4700	0	0
4701	0	0
4702	0	0
4703	0	0
4704	0	0
4705	0	0
4706	0	0
4707	0	0
4708	0	0
4709	0	0
4710	0	0
4711	0	0
4712	0	0
4713	0	0
4714	0	0
4715	0	0
4716	0	0
4717	0	0
4718	0	0
4719	0	0
4720	0	0
4721	0	0
4722	0	0
4723	0	0
4724	0	0
4725	0	0
4726	0	0
4727	0	0
4728	0	0
4729	0	0
4730	0	0
4731	0	0
4732	0	0
4733	0	0
4734	0	0
4735	0	0
4736	0	0
4737	0	0
4738	0	0
4739	0	0
4740	0	0
4741	0	0
4742	0	0
4743	1	0
4744	1	0
4745	1	0
4746	0	0
4747	0	0
4748	0	0
4749	0	0
4750	0	0
4751	0	0
4752	0	0
4753	0	0
4754	0	0
4755	0	0
4756	0	0
4757	0	0
4758	0	0
4759	0	0
4760	0	0
4761	0	0
4762	0	0
4763	0	0
4764	0	0
4765	0	0
4766	0	0
4767	0	0
4768	0	0
4769	0	0
4770	0	0
4771	0	0
4772	0	0
4773	0	0
4774	0	0
4775	0	0
4776	0	0
4777	0	0
4778	0	0
4779	0	0
4780	0	0
4781	0	0
4782	0	0
4783	0	0
4784	0	0
4785	0	0
4786	0	0
4787	0	0
4788	0	0
4789	0	0
4790	0	0
4791	0	0
4792	0	0
4793	0	0
4794	0	0
4795	0	0
4796	0	0.52381
4797	0	0.628571
4798	0	0.55
4799	0	0.55
4800	0	0.55
4801	0	0.55
4802	0	0.55
4803	0	0
4804	0	0
4805	0	0.393774
4806	0	0.398705
4807	0	0.39226
4808	0	0.333333
4809	0	0.333333
4810	0	0.333333
4811	0	0
4812	0	0
4813	0	0
4814	0	0
4815	0	0
4816	0	0
4817	0	0
4818	0	0
4819	0	0
4820	0	0
4821	0	0
4822	0	0
4823	1	0
4824	1	0
4825	1	0
4826	0	0
4827	0	0
4828	0	0
4829	0	0
4830	0	0
4831	0	0
4832	0	0
4833	0	0
4834	0	0
4835	0	0
4836	0	0
4837	0	0
4838	0	0
4839	0	0
4840	0	0
4841	0	0
4842	0	0
4843	0	0
4844	0	0
4845	1	0
4846	1	0
4847	1	0
4848	0	0
4849	0	0
4850	0	0
4851	0	0
4852	0	0
4853	0	0
4854	0	0
4855	0	0
4856	0	0
4857	0	0
4858	0	0
4859	0	0
4860	0	0
4861	0	0
4862	0	0
4863	0	0
4864	0	0
4865	0	0
4866	0	0
4867	0	0
4868	0	0
4869	0	0
4870	0	0
4871	0	0
4872	0	0
4873	0	0
4874	0	0
4875	0	0
4876	0	0
4877	0	0
4878	0	0
4879	0	0
4880	0	0
4881	0	0
4882	0	0
4883	0	0
4884	0	0
4885	0	0
4886	0	0
4887	0	0
4888	0	0
4889	0	0
4890	0	0
4891	0	0
4892	0	0
4893	0	0
4894	0	0
4895	0	0
4896	0	0
4897	0	0
4898	0	0
4899	0	0
4900	0	0
4901	0	0
4902	0	0
4903	0	0
4904	0	0
4905	0	0
4906	0	0
4907	0	0
4908	0	0
4909	0	0
4910	0	0
4911	0	0
4912	0	0
4913	0	0
4914	0	0
4915	0	0
4916	0	0
4917	0	0
4918	0	0
4919	0	0
4920	0	0
4921	0	0
4922	0	0
4923	0	0
4924	0	0
4925	0	0
4926	0	0
4927	0	0
4928	0	0
4929	0	0
4930	0	0
4931	0	0
4932	0	0
4933	0	0
4934	0	0
4935	0	0
4936	0	0
4937	0	0
4938	0	0
4939	0	0
4940	0	0
4941	0	0
4942	0	0
4943	0	0
4944	0	0
4945	0	0
4946	0	0
4947	0	0
4948	0	0.394266
4949	0	0
4950	0	0
4951	0	0
4952	0	0.0285714
4953	0	0.408695
4954	0	0.415055
4955	0	0.474167
4956	0	0.530354
4957	0	0.587688
4958	0	0.567208
4959	0	0.203901
4960	0	0.248062
4961	0	0.31016
4962	0	0.393103
4963	0	0.393103
4964	0	0
4965	0	0
4966	0	0
4967	0	0
4968	0	0
4969	0	0
4970	0	0
4971	0	0
4972	0	0
4973	0	0
4974	0	0
4975	0	0
4976	0	0
4977	0	0
4978	0	0
4979	0	0
4980	0	0
4981	0	0
4982	0	0
4983	0	0
4984	0	0
4985	0	0
4986	0	0
4987	0	0
4988	0	0
4989	0	0
4990	0	0
4991	0	0
4992	0	0
4993	0	0
4994	0	0
4995	0	0
4996	0	0
4997	0	0
4998	0	0
4999	0	0
5000	0	0
5001	0	0
5002	0	0
5003	0	0
5004	0	0
5005	0	0
5006	0	0
5007	0	0
5008	0	0
5009	0	0
5010	0	0
5011	0	0
5012	0	0
5013	0	0
5014	0	0
5015	0	0
5016	0	0
5017	0	0
5018	0	0
5019	0	0
5020	0	0
5021	0	0
5022	0	0
5023	0	0
5024	0	0
5025	0	0
5026	0	0
5027	0	0
5028	0	0
5029	0	0
5030	0	0
5031	0	0
5032	0	0
5033	0	0
5034	0	0
5035	0	0
5036	0	0
5037	0	0
5038	0	0
5039	0	0
5040	0	0
5041	0	0
5042	0	0
5043	0	0
5044	0	0
5045	0	0
5046	0	0
5047	0	0
5048	0	0
5049	0	0
5050	0	0
5051	0	0
5052	0	0
5053	0	0
5054	0	0
5055	0	0
5056	0	0
5057	0	0
5058	0	0
5059	0	0
