Site	ColumnScore	SumOfPairsScore
1	1	0
2	1	0
3	1	0
4	1	0
5	1	0
6	1	0
7	1	0
8	1	0
9	1	0
10	1	0
11	1	0
12	1	0
13	1	0
14	1	0
15	1	0
16	1	0
17	1	0
18	1	0
19	1	0
20	1	0
21	1	0
22	1	0
23	1	0
24	1	0
25	1	0
26	1	0
27	1	0
28	1	0
29	1	0
30	1	0
31	1	0
32	1	0
33	1	0
34	1	0
35	1	0
36	1	0
37	1	0
38	1	0
39	1	0
40	1	0
41	1	0
42	1	0
43	1	0
44	1	0
45	1	0
46	1	0
47	1	0
48	1	0
49	1	0
50	1	0
51	1	0
52	1	0
53	1	0
54	1	0
55	1	0
56	1	0
57	1	0
58	1	0
59	1	0
60	1	0
61	1	0
62	1	0
63	1	0
64	1	0
65	1	0
66	1	0
67	1	0
68	1	0
69	1	0
70	1	0
71	1	0
72	1	0
73	1	0
74	1	0
75	1	0
76	1	0
77	1	0
78	1	0
79	1	0
80	1	0
81	1	0
82	1	0
83	1	0
84	1	0
85	1	0
86	1	0
87	1	0
88	1	0
89	1	0
90	1	0
91	1	0
92	1	0
93	1	0
94	1	0
95	1	0
96	1	0
97	1	0
98	1	0
99	1	0
100	1	0
101	1	0
102	1	0
103	1	0
104	1	0
105	1	0
106	1	0
107	1	0
108	1	0
109	1	0
110	1	0
111	1	0
112	1	0
113	1	0
114	1	0
115	1	0
116	1	0
117	1	0
118	1	0
119	1	0
120	1	0
121	1	0
122	1	0
123	1	0
124	1	0
125	1	0
126	1	0
127	1	0
128	1	0
129	1	0
130	1	0
131	1	0
132	1	0
133	1	0
134	1	0
135	1	0
136	1	0
137	1	0
138	1	0
139	1	0
140	1	0
141	1	0
142	1	0
143	1	0
144	1	0
145	1	0
146	1	0
147	1	0
148	1	0
149	1	0
150	1	0
151	1	0
152	1	0
153	1	0
154	1	0
155	1	0
156	1	0
157	1	0
158	1	0
159	1	0
160	1	0
161	1	0
162	1	0
163	1	0
164	1	0
165	1	0
166	1	0
167	1	0
168	1	0
169	1	0
170	1	0
171	1	0
172	1	0
173	1	0
174	0	0
175	0	0
176	0	0
177	0	0
178	0	0
179	0	0
180	0	0
181	0	0
182	0	0
183	0	0
184	1	0
185	0	0
186	0	0
187	0	0
188	0	0
189	0	0
190	0	0
191	0	0
192	0	0
193	0	0
194	0	0
195	0	0
196	0	0
197	0	0
198	1	0
199	0	0
200	0	0
201	0	0
202	0	0
203	1	0
204	0	0
205	0	0
206	0	0
207	0	0
208	1	0
209	1	0
210	1	0
211	1	0
212	0	0
213	0	0
214	0	0
215	0	0
216	0	0
217	0	0
218	0	0
219	0	0
220	0	0
221	0	0
222	0	0
223	0	0
224	0	0
225	0	0
226	0	0
227	0	0
228	0	0
229	0	0
230	0	0
231	0	0
232	0	0
233	0	0
234	0	0
235	0	0
236	0	0
237	0	0
238	0	0
239	0	0
240	0	0
241	0	0
242	0	0
243	0	0
244	0	0
245	0	0
246	0	0
247	0	0
248	0	0
249	0	0
250	0	0
251	0	0
252	0	0
253	0	0
254	0	0
255	0	0
256	0	0
257	0	0
258	0	0
259	0	0
260	0	0
261	0	0
262	0	0
263	0	0
264	0	0
265	0	0
266	0	0
267	0	0
268	0	0
269	0	0
270	0	0
271	0	0
272	0	0
273	0	0
274	0	0
275	0	0
276	0	0
277	0	0
278	0	0
279	0	0
280	0	0
281	0	0
282	0	0
283	0	0
284	0	0
285	0	0
286	0	0
287	0	0
288	0	0
289	0	0
290	0	0
291	0	0
292	0	0
293	1	0
294	1	0
295	1	0
296	0	0
297	0	0
298	0	0
299	0	0
300	0	0
301	0	0
302	0	0
303	0	0
304	0	0
305	0	0
306	0	0
307	0	0
308	0	0
309	0	0
310	0	0
311	0	0
312	0	0
313	0	0
314	0	0
315	0	0
316	0	0
317	0	0
318	0	0
319	0	0
320	0	0
321	0	0
322	0	0
323	0	0
324	0	0
325	0	0
326	0	0
327	0	0
328	0	0
329	0	0
330	0	0
331	0	0
332	0	0
333	0	0
334	0	0
335	0	0
336	0	0
337	0	0
338	1	0
339	1	0
340	1	0
341	0	0
342	0	0
343	0	0
344	0	0
345	0	0
346	0	0
347	0	0
348	0	0
349	0	0
350	0	0
351	0	0
352	0	0
353	0	0
354	0	0
355	0	0
356	0	0
357	0	0
358	0	0
359	0	0
360	0	0
361	0	0
362	0	0
363	0	0
364	0	0
365	0	0
366	0	0
367	0	0
368	0	0
369	0	0
370	0	0
371	0	0
372	0	0
373	0	0
374	0	0
375	0	0
376	0	0
377	0	0
378	0	0
379	0	0
380	0	0
381	0	0
382	0	0
383	0	0
384	0	0
385	0	0
386	0	0
387	0	0
388	0	0
389	0	0
390	0	0
391	0	0
392	0	0
393	0	0
394	0	0
395	0	0
396	0	0
397	0	0
398	0	0
399	0	0
400	0	0
401	0	0
402	0	0
403	0	0
404	0	0
405	0	0
406	0	0
407	0	0
408	0	0
409	0	0
410	0	0
411	0	0
412	0	0
413	0	0
414	0	0
415	0	0
416	0	0
417	0	0
418	0	0
419	0	0
420	0	0
421	0	0
422	0	0
423	0	0
424	0	0
425	0	0
426	0	0
427	0	0
428	0	0
429	0	0
430	0	0
431	0	0
432	0	0
433	0	0
434	0	0
435	0	0
436	0	0
437	0	0
438	0	0
439	0	0
440	0	0
441	0	0
442	0	0
443	0	0
444	0	0
445	0	0
446	0	0
447	0	0
448	0	0
449	0	0
450	0	0
451	0	0
452	0	0
453	0	0
454	0	0
455	0	0
456	0	0
457	0	0
458	0	0
459	0	0
460	0	0
461	0	0
462	0	0
463	0	0
464	0	0
465	0	0
466	0	0
467	0	0
468	0	0
469	0	0
470	0	0
471	0	0
472	0	0
473	0	0
474	0	0
475	0	0
476	0	0
477	0	0
478	0	0
479	0	0
480	0	0
481	0	0
482	0	0
483	0	0
484	0	0
485	0	0
486	0	0
487	0	0
488	0	0
489	0	0
490	0	0
491	0	0
492	0	0
493	0	0
494	0	0
495	0	0
496	0	0
497	0	0
498	0	0
499	0	0
500	0	0
501	0	0
502	0	0
503	0	0
504	0	0
505	0	0
506	0	0
507	0	0
508	0	0
509	0	0
510	0	0
511	0	0
512	0	0
513	0	0
514	0	0
515	0	0
516	0	0
517	0	0
518	0	0
519	0	0
520	0	0
521	0	0
522	0	0
523	0	0
524	0	0
525	0	0
526	0	0
527	0	0
528	0	0
529	0	0
530	0	0
531	0	0
532	0	0
533	0	0
534	0	0
535	0	0
536	0	0
537	0	0
538	0	0
539	0	0
540	0	0
541	0	0
542	0	0
543	0	0
544	0	0
545	0	0
546	0	0
547	0	0
548	0	0
549	0	0
550	0	0
551	0	0
552	0	0
553	0	0
554	0	0
555	0	0
556	0	0
557	0	0
558	0	0
559	0	0
560	0	0
561	0	0
562	0	0
563	0	0
564	0	0
565	0	0
566	0	0
567	0	0
568	0	0
569	0	0
570	0	0
571	0	0
572	0	0
573	0	0
574	0	0
575	0	0
576	0	0
577	0	0
578	0	0
579	0	0
580	0	0
581	0	0
582	0	0
583	0	0
584	0	0
585	0	0
586	0	0
587	0	0
588	0	0
589	0	0
590	0	0
591	0	0
592	0	0
593	0	0
594	0	0
595	0	0
596	0	0
597	0	0
598	0	0
599	0	0
600	0	0
601	0	0
602	0	0
603	0	0
604	0	0
605	0	0
606	0	0
607	0	0
608	0	0
609	0	0
610	0	0
611	0	0
612	0	0
613	0	0
614	0	0
615	0	0
616	0	0
617	0	0
618	0	0
619	0	0
620	0	0
621	0	0
622	0	0
623	0	0
624	0	0
625	0	0
626	0	0
627	0	0
628	0	0
629	0	0
630	0	0
631	0	0
632	0	0
633	0	0
634	0	0
635	0	0
636	0	0
637	0	0
638	0	0
639	0	0
640	0	0
641	0	0
642	0	0
643	0	0
644	0	0
645	0	0.010989
646	0	0.010989
647	0	0.010989
648	0	0
649	0	0
650	0	0
651	0	0
652	0	0
653	0	0
654	0	0
655	0	0
656	0	0
657	0	0.0047619
658	0	0
659	0	0.00362319
660	0	0.00362319
661	0	0.00615385
662	0	0.00529101
663	0	0.00689655
664	0	0.00645161
665	0	0.00534759
666	0	0.00793651
667	0	0.00674764
668	0	0.00885936
669	0	0.0135266
670	0	0.0352941
671	0	0.0586812
672	0	0.0815851
673	0	0.103213
674	0	0.154921
675	0	0.17148
676	0	0.182949
677	0	0.175779
678	0	0.378545
679	0	0.376626
680	0	0.384684
681	0	0.365025
682	0	0
683	0	0
684	0	0
685	0	0
686	0	0
687	0	0
688	0	0
689	0	0
690	0	0
691	0	0
692	0	0
693	0	0
694	0	0
695	0	0
696	0	0
697	0	0
698	0	0
699	0	0
700	0	0
701	0	0
702	0	0
703	0	0
704	0	0
705	0	0
706	0	0
707	0	0
708	0	0
709	0	0
710	0	0
711	0	0
712	0	0.0666667
713	0	0
714	0	0.047619
715	0	0.047619
716	0	0.0296221
717	0	0.025127
718	0	0.024957
719	0	0.0231858
720	0	0.023369
721	0	0.0240891
722	0	0.037535
723	0	0.0399453
724	0	0.0398366
725	0	0.243918
726	0	0.1517
727	0	0.132185
728	0	0.13706
729	0	0.208806
730	0	0.187903
731	0	0.383251
732	0	0.171122
733	0	0.174326
734	0	0.0774194
735	0	0.0883191
736	0	0.16
737	0	0.16
738	0	0.184783
739	0	0.0571429
740	0	0.0659341
741	0	0.0659341
742	0	0.0659341
743	0	0
744	0	0
745	0	0
746	0	0
747	0	0
748	0	0
749	0	0
750	0	0
751	0	0
752	0	0
753	0	0
754	0	0
755	0	0
756	0	0
757	0	0
758	0	0
759	0	0
760	0	0
761	0	0
762	0	0
763	0	0
764	0	0
765	0	0
766	0	0
767	0	0
768	0	0
769	0	0
770	0	0
771	0	0
772	0	0
773	0	0
774	0	0
775	0	0
776	0	0
777	0	0
778	0	0
779	0	0
780	0	0
781	0	0
782	0	0
783	0	0
784	0	0
785	0	0
786	0	0
787	0	0
788	0	0
789	0	0
790	0	0
791	0	0
792	0	0
793	0	0
794	0	0
795	0	0
796	0	0
797	0	0
798	0	0
799	0	0
800	0	0
801	0	0
802	0	0
803	0	0
804	0	0
805	0	0
806	0	0
807	0	0
808	0	0
809	0	0
810	0	0
811	0	0
812	0	0
813	0	0
814	0	0
815	0	0
816	0	0
817	0	0.0277778
818	0	0.0277778
819	0	0.0277778
820	0	0.0277778
821	0	0.0277778
822	0	0
823	0	0
824	0	0
825	0	0
826	0	0
827	0	0
828	0	0
829	0	0
830	0	0
831	0	0
832	0	0
833	0	0
834	0	0
835	0	0
836	0	0
837	0	0
838	0	0
839	0	0
840	0	0
841	0	0
842	0	0
843	0	0
844	0	0
845	0	0
846	0	0
847	0	0
848	0	0
849	0	0
850	0	0
851	0	0
852	0	0
853	0	0
854	0	0
855	0	0
856	0	0
857	0	0
858	0	0
859	0	0
860	0	0
861	0	0
862	0	0
863	0	0
864	0	0
865	0	0
866	0	0
867	0	0
868	0	0
869	0	0
870	0	0
871	0	0
872	0	0
873	0	0
874	0	0
875	0	0
876	0	0
877	0	0
878	0	0
879	0	0
880	0	0
881	0	0
882	0	0
883	0	0
884	0	0
885	0	0
886	0	0
887	0	0
888	0	0
889	0	0
890	0	0
891	0	0
892	0	0
893	0	0
894	0	0
895	0	0
896	0	0
897	0	0
898	0	0
899	0	0
900	0	0
901	0	0
902	0	0
903	0	0
904	0	0
905	0	0
906	0	0
907	0	0
908	0	0
909	0	0
910	0	0
911	0	0
912	0	0
913	0	0
914	0	0
915	0	0
916	0	0
917	0	0
918	0	0
919	0	0
920	0	0
921	0	0
922	0	0
923	0	0
924	0	0
925	0	0
926	0	0
927	0	0
928	0	0
929	0	0
930	0	0
931	0	0
932	0	0
933	0	0
934	0	0
935	0	0
936	0	0
937	0	0
938	0	0
939	0	0
940	0	0
941	0	0
942	0	0
943	0	0
944	0	0
945	0	0
946	0	0
947	0	0
948	0	0
949	0	0
950	0	0
951	0	0
952	0	0
953	0	0
954	0	0
955	0	0
956	0	0
957	0	0
958	0	0
959	0	0
960	0	0
961	0	0
962	0	0
963	0	0
964	0	0
965	0	0
966	0	0
967	0	0
968	0	0
969	0	0
970	0	0
971	0	0
972	0	0
973	0	0
974	0	0
975	0	0
976	0	0
977	0	0
978	0	0
979	0	0
980	0	0
981	0	0
982	0	0
983	0	0
984	0	0
985	0	0
986	0	0
987	0	0
988	0	0
989	0	0
990	0	0
991	0	0
992	0	0
993	0	0
994	0	0
995	0	0
996	0	0
997	0	0
998	0	0
999	0	0
1000	0	0
1001	0	0
1002	0	0
1003	0	0
1004	0	0
1005	0	0
1006	0	0
1007	0	0
1008	0	0
1009	0	0
1010	0	0
1011	0	0
1012	0	0
1013	0	0
1014	0	0
1015	0	0.311
1016	0	0.277967
1017	0	0.0998217
1018	0	0
1019	0	0
1020	0	0
1021	0	0.123333
1022	0	0.174603
1023	0	0.162562
1024	0	0.277314
1025	0	0.0365079
1026	0	0.256751
1027	0	0.0927602
1028	0	0.129369
1029	0	0.108891
1030	0	0.0213371
1031	0	0.0227596
1032	0	0.0241821
1033	0	0.0241821
1034	0	0.0348432
1035	0	0.0188934
1036	0	0.0268293
1037	0	0.0369979
1038	0	0.064482
1039	0	0.0824524
1040	0	0.0744681
1041	0	0.0789007
1042	0	0.0595238
1043	0	0.254912
1044	0	0.317916
1045	0	0.326144
1046	0	0.0707071
1047	0	0.0824524
1048	0	0.0914634
1049	0	0.0853659
1050	0	0.0931174
1051	0	0.0931174
1052	0	0.107962
1053	0	0.112698
1054	0	0.141176
1055	0	0.194296
1056	0	0.306595
1057	0	0.91856
1058	0	0.0151515
1059	0	0.0181818
1060	0	0.0181818
1061	0	0.0222222
1062	0	0.0222222
1063	0	0.0222222
1064	0	0.0277778
1065	0	0.0277778
1066	0	0.0277778
1067	0	0.0277778
1068	0	0.0277778
1069	0	0.0277778
1070	0	0.0277778
1071	0	0.0277778
1072	0	0.0277778
1073	0	0.0277778
1074	0	0.0277778
1075	0	0.0277778
1076	0	0.0277778
1077	0	0.0277778
1078	0	0.0277778
1079	0	0.0277778
1080	0	0.0277778
1081	0	0.0357143
1082	0	0.0357143
1083	0	0.0357143
1084	0	0.0357143
1085	0	0
1086	0	0
1087	0	0
1088	0	0
1089	0	0
1090	0	0
1091	0	0
1092	0	0
1093	0	0
1094	0	0
1095	0	0
1096	0	0
1097	0	0
1098	0	0
1099	0	0
1100	0	0
1101	0	0
1102	0	0
1103	0	0
1104	0	0
1105	0	0.0357143
1106	0	0.0357143
1107	0	0.0357143
1108	0	0
1109	0	0
1110	0	0
1111	0	0
1112	0	0
1113	0	0
1114	0	0
1115	0	0
1116	0	0
1117	0	0
1118	0	0
1119	0	0
1120	0	0
1121	0	0
1122	0	0
1123	0	0
1124	0	0
1125	0	0
1126	0	0
1127	0	0
1128	0	0
1129	0	0
1130	0	0
1131	0	0
1132	0	0
1133	0	0
1134	0	0
1135	0	0
1136	0	0
1137	0	0
1138	0	0
1139	0	0
1140	0	0.047619
1141	0	0.047619
1142	0	0.047619
1143	0	0.047619
1144	0	0.047619
1145	0	0.047619
1146	0	0.047619
1147	0	0.047619
1148	0	0.047619
1149	0	0.751814
1150	0	0.751814
1151	0	0.751814
1152	0	0.047619
1153	0	0
1154	0	0
1155	0	0
1156	0	0
1157	0	0
1158	0	0
1159	0	0
1160	0	0
1161	0	0
1162	0	0
1163	0	0
1164	0	0
1165	0	0
1166	0	0
1167	0	0
1168	0	0
1169	0	0
1170	0	0
1171	0	0
1172	0	0
1173	0	0
1174	0	0
1175	0	0
1176	0	0
1177	0	0
1178	0	0
1179	0	0
1180	0	0
1181	0	0
1182	0	0
1183	0	0
1184	0	0
1185	0	0
1186	0	0
1187	0	0
1188	0	0
1189	0	0
1190	0	0
1191	0	0
1192	0	0
1193	0	0
1194	0	0
1195	0	0
1196	0	0
1197	0	0
1198	0	0
1199	0	0
1200	0	0
1201	0	0
1202	0	0
1203	0	0
1204	0	0
1205	0	0
1206	0	0
1207	0	0
1208	0	0
1209	0	0
1210	0	0
1211	0	0
1212	0	0
1213	0	0
1214	0	0
1215	0	0
1216	0	0
1217	0	0
1218	0	0
1219	0	0
1220	0	0
1221	0	0
1222	0	0
1223	0	0
1224	0	0
1225	0	0
1226	0	0
1227	0	0
1228	0	0
1229	0	0
1230	0	0
1231	0	0
1232	0	0
1233	0	0.952714
1234	0	0.142857
1235	0	0.107143
1236	0	0.107143
1237	0	0.107143
1238	0	0.107143
1239	0	0.107143
1240	0	0.107143
1241	0	0.107143
1242	0	0.107143
1243	0	0.111111
1244	0	0.111111
1245	0	0.111111
1246	0	0.111111
1247	0	0.133333
1248	0	0.127273
1249	0	0.967665
1250	0	0.111111
1251	0	0.190476
1252	0	0.190476
1253	0	0.166667
1254	0	0.166667
1255	0	0.166667
1256	0	0.166667
1257	0	0.166667
1258	0	0
1259	0	0
1260	0	0
1261	0	0
1262	0	0
1263	0	0
1264	0	0
1265	0	0
1266	0	0
1267	0	0
1268	0	0
1269	0	0
1270	0	0
1271	0	0
1272	0	0
1273	0	0
1274	0	0
1275	0	0
1276	0	0
1277	0	0
1278	0	0
1279	0	0.980949
1280	0	0.980949
1281	0	0.861933
1282	0	0.795912
1283	0	0.75
1284	0	0.508398
1285	0	0.628571
1286	0	0.980949
1287	0	0.984711
1288	0	0.988522
1289	0	0.986577
1290	0	0.986577
1291	0	0.986577
1292	0	0.988467
1293	0	0.986539
1294	0	0
1295	0	0
1296	0	0.975099
1297	0	0.960074
1298	0	0.954581
1299	0	0.965725
1300	0	0.976963
1301	0	1
1302	0	0.98659
1303	0	0.98659
1304	0	0.986616
1305	0	0.984726
1306	0	0.984726
1307	0	0.982825
1308	0	1
1309	0	1
1310	0	1
1311	0	0.971153
1312	0	0.971125
1313	0	0.969182
1314	0	0.860606
1315	0	0.572671
1316	0	0.339869
1317	0	0.245059
1318	0	0.142857
1319	0	0.0555556
1320	0	0.0555556
1321	0	0.0277778
1322	0	0.929142
1323	0	0
1324	0	0
1325	0	0
1326	0	0
1327	0	0
1328	0	0
1329	0	0
1330	0	0
1331	0	0
1332	0	0
1333	0	0
1334	0	0
1335	0	0.909658
1336	0	0.214286
1337	0	0.214286
1338	0	0.0357143
1339	0	0.047619
1340	0	0
1341	0	0
1342	0	0
1343	0	0.854667
1344	0	0.828288
1345	0	0.826547
1346	0	0.182266
1347	0	0.219373
1348	0	0.246753
1349	0	0.164502
1350	0	0.209231
1351	0	0.247619
1352	0	0.142857
1353	0	0.142857
1354	0	0.142857
1355	0	0.0952381
1356	0	0.0952381
1357	0	0.0952381
1358	0	0.047619
1359	0	0.047619
1360	0	0.047619
1361	0	0
1362	0	0
1363	0	0
1364	0	0
1365	0	0
1366	0	0
1367	0	0
1368	0	0
1369	0	0
1370	0	0
1371	0	0
1372	0	0
1373	0	0
1374	0	0
1375	0	0
1376	0	0
1377	0	0
1378	0	0
1379	0	0
1380	0	0
1381	0	0.333333
1382	0	0.261147
1383	0	0.0833333
1384	0	0.0833333
1385	0	0.0833333
1386	0	0.432805
1387	0	0
1388	0	0
1389	0	0
1390	0	0
1391	0	0
1392	0	0
1393	0	0
1394	0	0.178138
1395	0	0.940214
1396	0	0
1397	0	0
1398	0	0
1399	0	0
1400	0	0
1401	0	0
1402	0	0
1403	0	0
1404	0	0
1405	0	0.950213
1406	0	0.95779
1407	0	0.961992
1408	0	0.96214
1409	0	0.230769
1410	0	0.230769
1411	0	0.269231
1412	0	0.285714
1413	0	0.318182
1414	0	0.6
1415	0	0.714286
1416	0	0.714286
1417	0	0.714286
1418	0	0
1419	0	0
1420	0	0.996185
1421	0	0.996185
1422	0	0.996189
1423	0	0.982896
1424	0	0
1425	0	0.842857
1426	0	0.66371
1427	1	0
1428	0	0
1429	0	0.720901
1430	0	0.704513
1431	0	0.3
1432	0	0.929424
1433	0	0.949563
1434	0	0.777778
1435	0	0.990494
1436	0	0.992392
1437	0	0.992392
1438	0	0.990503
1439	0	0.98862
1440	0	0.988609
1441	0	0
1442	1	0
1443	1	0
1444	1	0
1445	1	0
1446	1	0
1447	1	0
1448	1	0
1449	1	0
1450	1	0
1451	1	0
1452	1	0
1453	1	0
1454	1	0
1455	1	0
1456	1	0
1457	0	0
1458	1	1
1459	1	1
1460	0	0.982892
1461	0	0.982941
1462	0	0.984827
1463	0	0.986705
1464	0	0.818182
1465	0	0.988599
1466	0	0.990494
1467	0	0.990494
1468	0	0.990494
1469	0	0.992385
1470	0	0.992385
1471	0	0.992385
1472	0	0.992385
1473	0	1
1474	0	1
1475	0	1
1476	0	0.777778
1477	0	0.777778
1478	0	0.777778
1479	0	0.566532
1480	0	0.552419
1481	0	0.507576
1482	0	0.918296
1483	0	0.733933
1484	0	0.729526
1485	0	0.717374
1486	0	0
1487	0	0
1488	0	0
1489	0	0
1490	0	0
1491	0	0
1492	0	0
1493	0	0
1494	0	0
1495	0	0
1496	0	0
1497	0	0
1498	0	0
1499	0	0
1500	0	0
1501	0	0
1502	0	0
1503	0	0
1504	0	0
1505	0	0
1506	0	0
1507	0	0
1508	0	0
1509	0	0.407407
1510	0	0.407407
1511	0	0.700022
1512	0	0.687141
1513	0	0.381818
1514	0	0.381818
1515	0	0.381818
1516	0	0.381818
1517	0	0
1518	0	0
1519	0	0
1520	0	0
1521	0	0
1522	0	0
1523	0	0.916319
1524	0	0.666667
1525	0	0.666667
1526	0	0.47619
1527	0	0.47619
1528	0	0.47619
1529	0	0.47619
1530	0	0.949282
1531	0	0
1532	0	0
1533	0	0
1534	0	0
1535	0	0
1536	0	0
1537	0	0
1538	0	0
1539	0	0
1540	0	0
1541	0	0
1542	0	0
1543	0	0
1544	0	0
1545	0	0
1546	0	0
1547	0	0
1548	0	0
1549	0	0.107143
1550	0	0.0888889
1551	0	0.544613
1552	0	0.380952
1553	0	0.380952
1554	0	0.25
1555	0	0.25
1556	0	0.126667
1557	0	0.441514
1558	0	0.41136
1559	0	0.396443
1560	0	0.378386
1561	0	0.250075
1562	0	0.2
1563	0	0.142857
1564	0	0.2
1565	0	0.1
1566	0	0
1567	0	0
1568	0	0
1569	0	0
1570	0	0
1571	0	0
1572	0	0.0357143
1573	0	0.137055
1574	0	0.174327
1575	0	0.174261
1576	0	0.166033
1577	0	0.225374
1578	0	0.200933
1579	0	0.183297
1580	0	0.149573
1581	0	0.148567
1582	0	0.130939
1583	0	0.111222
1584	0	0.103877
1585	0	0.0666667
1586	0	0.125024
1587	0	0.106061
1588	0	0.0909091
1589	0	0.0857143
1590	0	0.0454545
1591	0	0.082187
1592	0	0
1593	0	0
1594	0	0
1595	0	0
1596	0	0
1597	0	0
1598	0	0
1599	0	0
1600	0	0
1601	0	0
1602	0	0
1603	0	0
1604	0	0.0516063
1605	0	0.0506088
1606	0	0.0528919
1607	0	0.0528919
1608	0	0.0521309
1609	0	0.0729348
1610	0	0.0764706
1611	0	0.0714876
1612	0	0.0955387
1613	0	0.0263718
1614	0	0.0228833
1615	0	0.0928203
1616	0	0.0363636
1617	0	0.0277778
1618	0	0.0357143
1619	0	0.0357143
1620	0	0.0357143
1621	0	0.0357143
1622	0	0.0357143
1623	0	0.0357143
1624	0	0.0357143
1625	0	0.0357143
1626	0	0.0357143
1627	0	0.0357143
1628	0	0.0357143
1629	0	0.205128
1630	0	0.205128
1631	0	0.205128
1632	0	0.205128
1633	0	0.098468
1634	0	0
1635	0	0
1636	0	0
1637	0	0
1638	0	0
1639	0	0
1640	0	0
1641	0	0
1642	0	1
1643	0	1
1644	0	1
1645	0	0.0422687
1646	0	0.0190476
1647	0	0.333333
1648	0	0.333333
1649	0	0.333333
1650	0	0.333333
1651	0	0.333333
1652	0	0.333333
1653	0	0.333333
1654	0	0.333333
1655	0	0.333333
1656	0	0.333333
1657	0	0.166667
1658	0	0.0190476
1659	0	0.0408646
1660	0	0.047619
1661	0	0.0357143
1662	0	0.0277778
1663	0	0.0181818
1664	0	0.025641
1665	0	0.0181818
1666	0	0.0991103
1667	0	0.0968475
1668	0	0.101296
1669	0	0
1670	0	0
1671	0	0
1672	0	0
1673	0	0
1674	0	0
1675	0	0.208244
1676	0	1
1677	0	1
1678	0	0.359015
1679	0	0.910148
1680	0	0
1681	0	0
1682	0	0
1683	0	0
1684	0	0
1685	0	0
1686	0	0
1687	0	0
1688	0	0
1689	0	0
1690	0	0
1691	0	0
1692	0	0
1693	0	0
1694	0	0
1695	0	0.720065
1696	0	0.412199
1697	0	0.666667
1698	0	0.666667
1699	0	0.666667
1700	0	0.666667
1701	0	0.666667
1702	0	0.666667
1703	0	0.392857
1704	0	0.305556
1705	0	0.392857
1706	0	0.305556
1707	0	0.305556
1708	0	0.166667
1709	0	0.166667
1710	0	0.0606061
1711	0	0.0606061
1712	0	0.675292
1713	0	0.50702
1714	0	0.333781
1715	0	0.176895
1716	0	0.179365
1717	0	0.157875
1718	0	0.156496
1719	0	0.150126
1720	0	0.25
1721	0	0.107143
1722	0	0.107143
1723	0	0.107143
1724	0	0.109091
1725	0	0.288314
1726	0	0.0454545
1727	0	0.106061
1728	0	0.0454545
1729	0	0.0454545
1730	0	0.0454545
1731	0	0.202614
1732	0	0.27
1733	0	0.271114
1734	0	0.259549
1735	0	0.340994
1736	0	0.10989
1737	0	0.155556
1738	0	0.0444444
1739	0	0.0222222
1740	0	0.0727273
1741	0	0.0888889
1742	0	0.142857
1743	0	0.142857
1744	0	0.142857
1745	0	0.142857
1746	0	0.214286
1747	0	0.428571
1748	0	0.428571
1749	0	0.321429
1750	0	0.392857
1751	0	0.333333
1752	0	0.358974
1753	0	0.358974
1754	0	0.358974
1755	0	0.358974
1756	0	0.358974
1757	0	0.611111
1758	0	0.611111
1759	0	0.611111
1760	0	1
1761	0	0.26762
1762	0	0.333613
1763	0	0.246831
1764	0	0.338624
1765	0	0.2
1766	0	0.1
1767	0	0
1768	0	0
1769	0	0
1770	0	0
1771	0	0
1772	0	0
1773	0	0
1774	0	0
1775	0	0
1776	0	0
1777	0	0
1778	0	1
1779	0	1
1780	0	1
1781	0	1
1782	0	1
1783	0	1
1784	0	1
1785	0	1
1786	0	1
1787	0	1
1788	0	1
1789	0	1
1790	0	1
1791	0	1
1792	0	1
1793	0	1
1794	0	1
1795	0	1
1796	0	1
1797	0	0
1798	0	0
1799	0	0
1800	0	0.482892
1801	0	0.517504
1802	0	0.438232
1803	0	0.157702
1804	0	0.290598
1805	0	0.126986
1806	0	0.208242
1807	0	0.215087
1808	0	0.0666667
1809	0	0.0666667
1810	0	0
1811	0	0
1812	0	0
1813	0	0
1814	0	0
1815	0	0.24591
1816	0	0.268399
1817	0	0.134058
1818	0	0.116959
1819	0	0.115942
1820	0	0.162055
1821	0	0.106061
1822	0	0.0915033
1823	0	0.13447
1824	0	0
1825	0	0
1826	0	0
1827	0	0
1828	0	0
1829	0	0
1830	0	0
1831	0	0
1832	0	0
1833	0	0
1834	0	0
1835	0	0.117264
1836	0	0.185136
1837	0	0.202592
1838	0	0.363636
1839	0	0.476667
1840	0	1
1841	0	1
1842	0	1
1843	0	1
1844	0	1
1845	0	1
1846	0	1
1847	0	1
1848	0	1
1849	0	1
1850	0	1
1851	0	0.466667
1852	0	1
1853	0	1
1854	0	1
1855	0	1
1856	0	1
1857	0	1
1858	0	1
1859	0	1
1860	0	1
1861	0	0.466667
1862	0	0.466667
1863	0	0.466667
1864	0	0.466667
1865	0	1
1866	0	1
1867	0	1
1868	0	1
1869	0	1
1870	0	1
1871	0	1
1872	0	1
1873	0	1
1874	0	1
1875	0	1
1876	0	1
1877	0	1
1878	0	1
1879	0	1
1880	0	1
1881	0	1
1882	0	1
1883	0	1
1884	0	0.421875
1885	0	0
1886	0	0
1887	0	0
1888	0	0
1889	0	0
1890	0	0
1891	0	0
1892	0	0
1893	0	0
1894	0	0
1895	0	0
1896	0	0
1897	0	0
1898	0	0
1899	0	0
1900	0	0
1901	0	0.182035
1902	0	0.177477
1903	0	0.155914
1904	0	0.190704
1905	0	0.409435
1906	0	0.0909091
1907	0	0.528409
1908	0	0.233766
1909	0	0.246753
1910	0	0.340984
1911	0	0.266667
1912	0	0.266667
1913	0	0.287879
1914	0	0.287879
1915	0	0.287879
1916	0	0.469697
1917	0	0.2
1918	0	0
1919	0	0.1
1920	0	0.1
1921	0	0.1
1922	0	0.1
1923	0	0.1
1924	0	0
1925	0	0
1926	0	0.374538
1927	0	0.444444
1928	0	0.290909
1929	0	0.436476
1930	0	0
1931	0	0.5
1932	0	0.421053
1933	0	0.421053
1934	0	0.180036
1935	0	0.179832
1936	0	0.543091
1937	0	0.527492
1938	0	0.47619
1939	0	0.47619
1940	0	0.244444
1941	0	0.244444
1942	0	0.2
1943	0	0.2
1944	0	0.2
1945	0	0.137255
1946	0	0.152381
1947	0	0.228571
1948	0	0.468992
1949	0	0.379679
1950	0	0.273846
1951	0	0.273846
1952	0	0.273846
1953	0	0.344405
1954	0	0.705128
1955	0	0.576923
1956	0	0.4
1957	0	0.133333
1958	0	0
1959	0	0
1960	0	0
1961	0	0
1962	0	0.466667
1963	0	1
1964	0	1
1965	0	1
1966	0	0.0956487
1967	0	0.0758621
1968	0	0.0731183
1969	0	0.0453968
1970	0	0.0517241
1971	0	0.0444444
1972	0	0.0444444
1973	0	0.0222222
1974	0	0.0222222
1975	0	0.0222222
1976	0	0.0222222
1977	0	0.0222222
1978	0	0.0222222
1979	0	0.0222222
1980	0	0.0181818
1981	0	0.0151515
1982	0	0.0290033
1983	0	0.0298536
1984	0	0.124923
1985	0	0.120256
1986	0	0.117404
1987	0	0.119348
1988	0	0.120125
1989	0	0.115079
1990	0	0.118097
1991	0	0.11377
1992	0	0.118414
1993	0	0.0652174
1994	0	0.0615942
1995	0	0.0619048
1996	0	0.0190476
1997	0	0.00952381
1998	0	0.00952381
1999	0	0.0261438
2000	0	0.0261438
2001	0	0.0261438
2002	0	0.0261438
2003	0	0.00952381
2004	0	0.00952381
2005	0	0.290949
2006	0	0.291221
2007	0	0.270549
2008	0	0.0269151
2009	0	0.027137
2010	0	0.042516
2011	0	0.030303
2012	0	0.0247086
2013	0	0.19445
2014	0	0.026441
2015	0	0.0240655
2016	0	0.0147059
2017	0	0.0367647
2018	0	0.0367647
2019	0	0.0367647
2020	0	0.0326797
2021	0	0.017094
2022	0	0.031685
2023	0	0.0312063
2024	0	0.0282219
2025	0	0.0400927
2026	0	0.0349246
2027	0	0.029246
2028	0	0.0947368
2029	0	0.106719
2030	0	0.1
2031	0	0.0794192
2032	0	0.071888
2033	0	0.0696288
2034	0	0.0669928
2035	0	0.0639659
2036	0	0.0628552
2037	0	0.0274448
2038	0	0.0649806
2039	0	0.0605068
2040	0	0.067963
2041	0	0.0896281
2042	0	0.325515
2043	0	0.0321449
2044	0	0
2045	0	0
2046	0	0
2047	0	0
2048	0	0
2049	0	0
2050	0	0
2051	0	0
2052	0	0.0365854
2053	0	0.0252874
2054	0	0.0241935
2055	0	0.0307692
2056	0	0.0395257
2057	0	0.0147059
2058	0	0.00833333
2059	0	0.00833333
2060	0	0.0571429
2061	0	0.102102
2062	0	0.100529
2063	0	0.012987
2064	0	0.122581
2065	0	0.115966
2066	0	0
2067	0	1
2068	0	1
2069	0	0.142607
2070	0	0.0858921
2071	0	0.0832185
2072	0	0.0864684
2073	0	0.08418
2074	0	0.0909804
2075	0	0.052549
2076	0	0.0512821
2077	0	0.0505279
2078	0	0.0490196
2079	0	0.0452489
2080	0	0.0452489
2081	0	0.046003
2082	0	0.142294
2083	0	0.8
2084	0	0.640058
2085	0	0.381176
2086	0	0.374902
2087	0	0.375578
2088	0	0.418354
2089	0	0.402852
2090	0	0.305556
2091	0	0.142857
2092	0	0.168421
2093	0	0.166667
2094	0	0.166667
2095	0	0
2096	0	0
2097	0	0
2098	0	0
2099	0	0.104762
2100	0	0.12012
2101	0	0.117949
2102	0	0.14518
2103	0	0.218816
2104	0	0.371795
2105	0	0.371795
2106	0	0.589744
2107	0	0.505495
2108	0	0.221309
2109	0	0.0908115
2110	0	0.322483
2111	0	0.472137
2112	0	0.475532
2113	0	0.586494
2114	0	0.586494
2115	0	0.587419
2116	0	0.638384
2117	0	0.665962
2118	0	0.637374
2119	0	0.614493
2120	0	0.614493
2121	0	0.614493
2122	0	0.201902
2123	0	0.195533
2124	0	0.401703
2125	0	0.16116
2126	0	0.513835
2127	0	0.0966974
2128	0	0.0785792
2129	0	0.263843
2130	0	0.253489
2131	0	0.232899
2132	0	0.233814
2133	0	0.233814
2134	0	0.0745783
2135	0	0.326041
2136	0	0.126553
2137	0	0.183102
2138	0	0.0533333
2139	0	0.0562162
2140	0	0.221915
2141	0	0.036715
2142	0	0.0306554
2143	0	0.0390071
2144	0	0.0469858
2145	0	0.0512195
2146	0	0
2147	0	0
2148	0	0
2149	0	0
2150	0	0
2151	0	0
2152	0	0
2153	0	0
2154	0	0
2155	0	0.0255255
2156	0	0.025641
2157	0	0.214807
2158	0	0.0522648
2159	0	0.047619
2160	0	0.191558
2161	0	0.236098
2162	0	0.237461
2163	0	0.112121
2164	0	0.121739
2165	0	0.121739
2166	0	0.10195
2167	0	0.0580694
2168	0	0.248224
2169	0	0.134296
2170	0	0.0625365
2171	0	0.1
2172	0	0.166667
2173	0	0.184757
2174	0	0.0544243
2175	0	0.0479279
2176	0	0.0539235
2177	0	0.0481227
2178	0	0.0590254
2179	0	0.0740741
2180	0	0.107314
2181	0	0.158961
2182	0	0.135533
2183	0	0.195512
2184	0	0.0555556
2185	0	0.142353
2186	0	0.113384
2187	0	0.127057
2188	0	0.145339
2189	0	0.10838
2190	0	0.226105
2191	0	0
2192	0	0
2193	0	0.1
2194	0	0.1
2195	0	0
2196	0	0
2197	0	0.231346
2198	0	0.183824
2199	0	0.183824
2200	0	0.162647
2201	0	0.167071
2202	0	0.25211
2203	0	0.0666667
2204	0	0.0666667
2205	0	0.0666667
2206	0	0.0666667
2207	0	0.0666667
2208	0	0.0888889
2209	0	0.0888889
2210	0	0.0888889
2211	0	0.0444444
2212	0	0.0444444
2213	0	0.0444444
2214	0	0.180461
2215	0	0.462847
2216	0	0.121212
2217	0	0.836555
2218	0	0.333333
2219	0	0.333333
2220	0	0.307692
2221	0	0.333333
2222	0	0.533333
2223	0	0.505495
2224	0	0.558333
2225	0	0.444444
2226	0	0.177778
2227	0	0.447756
2228	0	0.449452
2229	0	0
2230	0	0
2231	0	0
2232	0	0.507387
2233	0	0.622222
2234	0	0
2235	0	0
2236	0	0
2237	0	0
2238	0	0
2239	0	0
2240	0	0
2241	0	0
2242	0	0
2243	0	0
2244	0	0.381818
2245	0	0
2246	0	0
2247	0	0.333333
2248	0	0.333333
2249	0	0.263736
2250	0	0.466967
2251	0	0.421053
2252	0	0.57958
2253	0	0.154412
2254	0	0.0909091
2255	0	0.109091
2256	0	0.27619
2257	0	0.193824
2258	0	0.199057
2259	0	0.213212
2260	0	0.703059
2261	0	0.514286
2262	0	0.434615
2263	0	0.552941
2264	0	0.552941
2265	0	0.859761
2266	0	0.830055
2267	0	0.943363
2268	0	0.910478
2269	0	0.357143
2270	0	0.357143
2271	0	0.357143
2272	0	0.833333
2273	0	0.904762
2274	0	0.975405
2275	0	0.975428
2276	0	0.975474
2277	0	0.977352
2278	0	0
2279	0	0
2280	0	0
2281	0	0
2282	0	0
2283	0	1
2284	0	1
2285	0	1
2286	0	1
2287	0	1
2288	0	1
2289	0	0.984872
2290	0	0.986744
2291	0	0.988622
2292	0	0.990505
2293	0	0.333333
2294	0	0.333333
2295	0	1
2296	0	1
2297	0	0.994329
2298	0	0.994382
2299	0	0.996249
2300	0	0.996249
2301	0	0.994371
2302	0	0.994377
2303	0	0.994377
2304	0	0.990639
2305	0	0.333333
2306	0	0.996246
2307	0	0.996246
2308	0	0.99812
2309	0	0.99812
2310	0	0.996242
2311	0	1
2312	1	1
2313	1	1
2314	1	1
2315	1	1
2316	1	1
2317	1	1
2318	1	1
2319	1	1
2320	0	1
2321	0	1
2322	1	1
2323	1	1
2324	1	1
2325	1	1
2326	1	1
2327	0	0.998126
2328	0	0.998127
2329	0	0.998127
2330	0	0.998127
2331	0	0.998127
2332	0	0.998127
2333	0	1
2334	0	0.792953
2335	1	1
2336	1	1
2337	1	1
2338	1	1
2339	1	1
2340	1	1
2341	1	1
2342	1	1
2343	1	1
2344	1	1
2345	0	1
2346	0	0.998124
2347	0	0.998124
2348	0	0.996255
2349	0	0.996255
2350	0	0.996255
2351	0	0.996255
2352	0	0.996255
2353	0	0.996255
2354	0	0.996255
2355	0	0.996255
2356	0	0
2357	0	0
2358	0	0
2359	0	0
2360	0	0.990628
2361	0	0.983244
2362	0	0.983244
2363	0	0.983244
2364	0	0.985085
2365	0	0.985094
2366	0	0.985094
2367	0	0.714286
2368	0	0.99626
2369	0	0.994398
2370	0	0.994398
2371	0	0.994398
2372	0	0.994398
2373	0	0.994398
2374	0	0.994398
2375	0	0.994398
2376	0	0.957784
2377	0	0.959578
2378	0	0.957745
2379	0	0.94131
2380	0	1
2381	0	1
2382	0	1
2383	0	1
2384	0	1
2385	0	1
2386	0	1
2387	0	1
2388	0	1
2389	0	1
2390	0	0.444444
2391	0	0.444444
2392	0	0.339869
2393	0	0.339869
2394	0	0.339869
2395	0	0.261905
2396	0	0.248739
2397	0	0.191584
2398	0	0.870465
2399	0	0.83482
2400	0	0.422989
2401	0	0.931129
2402	0	1
2403	0	0.985106
2404	0	0.985092
2405	0	0.985106
2406	0	0.992534
2407	0	0.992534
2408	0	0.992527
2409	0	0.992527
2410	0	0.992527
2411	0	0.992527
2412	0	0.992527
2413	0	0.986946
2414	0	0.545455
2415	0	0.972175
2416	0	0.974026
2417	0	0.97218
2418	0	0.97218
2419	0	0.972168
2420	0	0.974014
2421	0	0.774194
2422	0	0.811066
2423	0	0.99252
2424	0	0
2425	0	0
2426	0	0
2427	0	0
2428	0	0
2429	0	0
2430	0	0.992513
2431	0	0.994377
2432	0	0.983215
2433	0	0.502034
2434	0	0.680973
2435	0	0.745484
2436	0	0.946885
2437	0	0.3
2438	0	0.3
2439	0	0.916266
2440	0	0.9358
2441	0	0.934019
2442	0	0
2443	0	0
2444	0	0
2445	0	0.962511
2446	0	0.65
2447	0	0.988811
2448	0	0.988811
2449	0	0.992527
2450	0	0.992527
2451	0	0.994387
2452	0	0.994387
2453	0	0.994387
2454	0	0.994387
2455	0	0.994387
2456	0	0.994387
2457	0	0.994387
2458	0	0.996253
2459	0	0.996253
2460	0	0.996253
2461	0	0.996253
2462	0	1
2463	0	1
2464	1	0
2465	1	0
2466	1	0
2467	1	0
2468	1	0
2469	1	0
2470	1	0
2471	1	0
2472	1	0
2473	1	0
2474	1	0
2475	1	0
2476	1	0
2477	1	0
2478	1	0
2479	1	0
2480	1	0
2481	1	0
2482	1	0
2483	1	0
2484	1	0
2485	1	0
2486	0	0.988803
2487	0	0.988803
2488	0	0.994382
2489	0	0.994382
2490	0	0.990647
2491	0	0.990656
2492	0	0.990656
2493	0	0.990656
2494	0	0.990656
2495	0	0.990656
2496	0	0.990656
2497	0	0.990656
2498	0	0.990656
2499	0	0.990656
2500	0	0.990656
2501	0	0.990656
2502	0	0.990656
2503	0	0.990656
2504	0	0.990656
2505	0	0.990656
2506	0	0.990656
2507	0	0.746129
2508	0	0
2509	0	0.919218
2510	0	0.712304
2511	0	0.712304
2512	0	0.644444
2513	0	0.644444
2514	0	0.778755
2515	0	0.181818
2516	0	0.213768
2517	0	0.719196
2518	0	0.504332
2519	0	0.467737
2520	0	0.695747
2521	0	0.133333
2522	0	0.333333
2523	0	0.333333
2524	0	0
2525	0	0
2526	0	0.608428
2527	0	0.61093
2528	0	0.314351
2529	0	0.898759
2530	0	0.418895
2531	0	0.346154
2532	0	1
2533	0	0.998122
2534	0	0.996249
2535	0	0.996249
2536	0	0.994382
2537	0	0.988792
2538	0	0.990647
2539	0	0.990647
2540	0	0.98693
2541	0	0.98693
2542	0	0.956526
2543	0	0.870834
2544	0	0.767819
2545	0	0.96644
2546	0	0.9664
2547	0	0.666667
2548	0	0.666667
2549	0	0.91219
2550	0	0.943353
2551	0	0
2552	0	0
2553	0	0
2554	0	0
2555	0	0
2556	0	0
2557	0	0
2558	0	0
2559	0	0
2560	0	0
2561	0	0
2562	0	0
2563	0	0.963532
2564	0	0.965927
2565	0	0.416667
2566	0	0.277778
2567	0	0.416667
2568	0	0.416667
2569	0	0.416667
2570	0	0.952675
2571	0	0.851225
2572	0	0.856065
2573	0	0
2574	0	0
2575	0	0
2576	0	0
2577	0	0
2578	0	0
2579	0	0
2580	0	0.1
2581	0	0.1
2582	0	0.1
2583	0	0.1
2584	0	0.1
2585	0	0.1
2586	0	0.1
2587	0	0.1
2588	0	0.194444
2589	0	0.960517
2590	0	0
2591	0	0
2592	0	0.333333
2593	0	0.333333
2594	0	0.333333
2595	0	0.333333
2596	0	0.333333
2597	0	0.333333
2598	0	0.333333
2599	0	0.333333
2600	0	0.333333
2601	0	0.333333
2602	0	0.333333
2603	0	0.333333
2604	0	0.333333
2605	0	0.333333
2606	0	0.333333
2607	0	0.333333
2608	0	0.333333
2609	0	0.333333
2610	0	0.333333
2611	0	0.333333
2612	0	0.333333
2613	0	1
2614	0	1
2615	0	1
2616	0	1
2617	0	1
2618	0	1
2619	0	1
2620	0	1
2621	0	1
2622	0	1
2623	0	0.975487
2624	0	0.177778
2625	0	0.244444
2626	0	0.305556
2627	0	0.979541
2628	0	0.654545
2629	0	0.992527
2630	0	0.994393
2631	0	0.994393
2632	0	0.994393
2633	0	0.994393
2634	0	0
2635	0	0
2636	0	0
2637	0	0
2638	0	0
2639	0	0
2640	0	0
2641	0	0
2642	0	0
2643	0	0
2644	0	0
2645	0	0
2646	0	0
2647	0	0
2648	0	0
2649	0	0
2650	0	0
2651	0	0
2652	0	0
2653	0	0
2654	0	1
2655	1	1
2656	1	1
2657	1	1
2658	1	1
2659	1	1
2660	1	1
2661	1	1
2662	0	1
2663	0	0.959466
2664	0	0.994377
2665	0	0.994377
2666	0	0.996249
2667	0	0.996246
2668	0	0.994377
2669	0	0.996249
2670	0	0.996249
2671	0	0.996249
2672	0	0.996249
2673	0	0.996249
2674	0	0.996249
2675	0	0.996249
2676	0	0.996249
2677	0	0.996249
2678	0	0.996249
2679	0	0.996249
2680	0	0.996249
2681	0	0.996249
2682	0	0.996249
2683	0	0.996249
2684	0	0.996249
2685	0	0.998122
2686	0	0.998126
2687	0	0.998126
2688	0	0.998126
2689	0	0.998126
2690	0	0.998126
2691	0	0.998126
2692	0	0.998126
2693	0	0.998126
2694	0	0.998126
2695	0	0.998126
2696	0	1
2697	0	1
2698	0	1
2699	0	0
2700	0	0
2701	0	0
2702	0	0.333333
2703	0	0.333333
2704	0	0.333333
2705	0	0.333333
2706	0	0.333333
2707	0	0.333333
2708	0	0.333333
2709	0	0.333333
2710	0	0.333333
2711	0	0.333333
2712	0	0.333333
2713	0	0.333333
2714	0	0.333333
2715	0	0.994366
2716	0	0
2717	0	0
2718	0	0.986897
2719	0	0.214286
2720	0	0.985
2721	0	0.985
2722	0	0
2723	0	0.982755
2724	0	0.97899
2725	0	0.947535
2726	0	0.945407
2727	0	0.739262
2728	0	0.81138
2729	0	0.81138
2730	0	0.99626
2731	0	0.994393
2732	0	0.994393
2733	0	0.996256
2734	0	0.99626
2735	0	0.99626
2736	0	0
2737	0	0.998129
2738	1	0
2739	1	0
2740	1	0
2741	1	0
2742	1	0
2743	1	0
2744	1	0
2745	1	0
2746	0	0.998129
2747	0	0.998129
2748	0	0.998129
2749	1	1
2750	1	1
2751	0	0.998127
2752	0	0.998127
2753	0	0.998127
2754	0	0.998127
2755	0	0
2756	0	0.99626
2757	0	0.99626
2758	0	0.99626
2759	0	0.99626
2760	0	0.996256
2761	0	0.998126
2762	0	0.998126
2763	0	0.996256
2764	0	0.666667
2765	0	0.666667
2766	0	0.666667
2767	0	1
2768	0	1
2769	0	0.990663
2770	0	0.515152
2771	0	0.885724
2772	0	0.942953
2773	0	1
2774	0	1
2775	0	1
2776	0	1
2777	0	1
2778	0	1
2779	0	0.69697
2780	0	0.766667
2781	0	0.927395
2782	0	1
2783	0	0.361111
2784	0	0.666667
2785	0	0.666667
2786	0	0.666667
2787	0	0.666667
2788	0	0.666667
2789	0	0.666667
2790	1	0
2791	0	0
2792	0	0
2793	0	0
2794	0	0
2795	0	0
2796	0	0.908635
2797	0	0.992525
2798	0	0.992525
2799	0	0.992525
2800	0	0.998122
2801	0	0
2802	1	0
2803	1	0
2804	1	0
2805	1	0
2806	1	0
2807	1	0
2808	0	0.998126
2809	1	1
2810	0	0.998127
2811	0	0.998127
2812	1	1
2813	1	1
2814	1	1
2815	0	0.998127
2816	0	0.998127
2817	0	0.998127
2818	0	0.996246
2819	0	0.996242
2820	0	0.996242
2821	0	0.988801
2822	0	0.98879
2823	0	0.986939
2824	0	0.986939
2825	0	0.996253
2826	0	0.996253
2827	0	0.992513
2828	0	0.990646
2829	0	0.990647
2830	0	0.990647
2831	0	1
2832	0	1
2833	0	1
2834	0	1
2835	0	1
2836	0	1
2837	0	0.714286
2838	0	0.333333
2839	0	0.333333
2840	0	0.111111
2841	0	0.111111
2842	0	0.106061
2843	0	0.106061
2844	0	0.106061
2845	0	0.0909091
2846	0	0.0909091
2847	0	0.0909091
2848	0	0.0909091
2849	0	0.970123
2850	0	0.780444
2851	0	0
2852	0	0
2853	0	0.864532
2854	0	0.814286
2855	0	0.457471
2856	0	0.457471
2857	0	0.403226
2858	0	0.358289
2859	0	0.336898
2860	0	0.317647
2861	0	0.255128
2862	0	0.257317
2863	0	0.224158
2864	0	0.174972
2865	0	0.159596
2866	0	0.105496
2867	0	0.121454
2868	0	0.109579
2869	0	0.0592593
2870	0	0.0525974
2871	0	0.0545073
2872	0	0.0701299
2873	0	0.0661017
2874	0	0.0654762
2875	0	0.440575
2876	0	0.172555
2877	0	0.166579
2878	0	0.136646
2879	0	0.408488
2880	0	0
2881	0	0
2882	0	0
2883	0	0
2884	0	0
2885	0	0
2886	0	0
2887	0	0
2888	0	0
2889	0	0
2890	0	0
2891	0	0
2892	0	0
2893	0	0
2894	0	0
2895	0	0
2896	0	0
2897	0	0.166667
2898	0	0.166667
2899	0	0.166667
2900	0	0.166667
2901	0	0.3
2902	0	0.2
2903	0	0.2
2904	0	0.266667
2905	0	0.420772
2906	0	0
2907	0	0
2908	0	0
2909	0	0
2910	0	0
2911	0	0
2912	0	0
2913	0	0
2914	0	0
2915	0	0
2916	0	0
2917	0	0
2918	0	0
2919	0	0
2920	0	0
2921	0	0
2922	0	0
2923	0	0
2924	0	0.333333
2925	0	0.333333
2926	0	0.333333
2927	0	0.2
2928	0	0.133333
2929	0	0.177778
2930	0	0.145455
2931	0	0.136364
2932	0	0.142857
2933	0	0.12381
2934	0	0.102941
2935	0	0.0818713
2936	0	0.0692641
2937	0	0.0513834
2938	0	0.0615942
2939	0	0.0433333
2940	0	0.0738462
2941	0	0.111111
2942	0	0.141935
2943	0	0.165323
2944	0	0.42959
2945	0	0.657658
2946	0	0.655052
2947	0	0.744186
2948	0	0.787879
2949	0	0.72961
2950	0	0.739592
2951	0	0.721335
2952	0	0.73064
2953	0	0.68542
2954	0	0.587893
2955	0	0.105072
2956	0	0.553709
2957	0	0
2958	0	0
2959	0	0
2960	0	0
2961	0	0
2962	0	0
2963	0	0
2964	0	0
2965	0	0
2966	0	0
2967	0	0
2968	0	0
2969	0	0
2970	0	0.190691
2971	0	0.385886
2972	0	0.602118
2973	0	0.603342
2974	0	0.724897
2975	0	0
2976	0	0
2977	0	0
2978	0	0
2979	0	0
2980	0	0.7111
2981	0	0.695758
2982	0	0.718497
2983	0	0.750781
2984	0	0.115385
2985	0	0.0888889
2986	0	0.0714286
2987	0	0.0714286
2988	0	0.0666667
2989	0	0.0666667
2990	0	0.1
2991	0	0.0666667
2992	0	0
2993	0	0
2994	0	0
2995	0	0
2996	0	0
2997	0	0
2998	0	0
2999	0	0
3000	0	0
3001	0	0
3002	0	0
3003	0	0
3004	0	0
3005	0	0
3006	0	0
3007	0	0
3008	0	0
3009	0	0
3010	0	0
3011	0	0.333333
3012	0	0.166667
3013	0	0.5
3014	0	0.940533
3015	0	0.942409
3016	0	0.949735
3017	0	0.955255
3018	0	0.955255
3019	0	0.958908
3020	0	0.95891
3021	0	0.957073
3022	0	0.957073
3023	0	0.957073
3024	0	0.953326
3025	0	0.777778
3026	0	0.492492
3027	0	0.573775
3028	0	0.206897
3029	0	0.235294
3030	0	0.914046
3031	0	0.273118
3032	0	0.303136
3033	0	0.333333
3034	0	0.368293
3035	0	0.693038
3036	0	0.657167
3037	0	0.658408
3038	0	0.172414
3039	0	0.111111
3040	0	0.0909091
3041	0	0.133333
3042	0	0
3043	0	0
3044	0	0
3045	0	0
3046	0	0
3047	0	0
3048	0	0
3049	0	0
3050	0	0
3051	0	0.548639
3052	0	0.54382
3053	0	0.52691
3054	0	0.713217
3055	0	0.298462
3056	0	0
3057	0	0
3058	0	0
3059	0	0
3060	0	0
3061	0	0
3062	0	0.333333
3063	0	0.12381
3064	0	0.208333
3065	0	0.219048
3066	0	0.191667
3067	0	0.263736
3068	0	0.263736
3069	0	0.799132
3070	0	0.153846
3071	0	0.153846
3072	0	0.808903
3073	0	0
3074	0	0.1
3075	0	0.194444
3076	0	0.194444
3077	0	0.127273
3078	0	0.104575
3079	0	0.0909091
3080	0	0.858489
3081	0	0.197628
3082	0	0.427692
3083	0	0.443077
3084	0	0.44
3085	0	0.82942
3086	0	0.166667
3087	0	0.5
3088	0	0.65098
3089	0	0.666667
3090	0	0.918665
3091	0	0.922379
3092	0	0.318182
3093	0	0.4
3094	0	0.89936
3095	0	0.901236
3096	0	0.899463
3097	0	0.897694
3098	0	0.897694
3099	0	0.899385
3100	0	1
3101	0	1
3102	0	1
3103	0	1
3104	0	1
3105	0	1
3106	0	1
3107	0	0.333333
3108	0	0.333333
3109	0	0.333333
3110	0	0.333333
3111	0	0.333333
3112	0	0.333333
3113	0	0.333333
3114	0	0.333333
3115	0	0.333333
3116	0	1
3117	0	1
3118	0	0.490112
3119	0	0.865963
3120	0	0.538462
3121	0	0.538462
3122	0	0.538462
3123	0	0.5
3124	0	0.505495
3125	0	0.875089
3126	0	0
3127	0	0.5
3128	0	0.5
3129	0	0.5
3130	0	0.830813
3131	0	0.780741
3132	0	0.780385
3133	0	0.457516
3134	0	0.760769
3135	0	0.676427
3136	0	0.541304
3137	0	0.538515
3138	0	0.531906
3139	0	0.518519
3140	0	0.518519
3141	0	0.35871
3142	0	0.359085
3143	0	0.343362
3144	0	0.389367
3145	0	0.505495
3146	0	0.1
3147	0	0.362211
3148	0	0.443249
3149	0	0.483137
3150	0	0.979439
3151	0	0
3152	0	0
3153	0	0
3154	0	0
3155	0	0
3156	0	0
3157	0	0
3158	0	0
3159	0	0
3160	0	0
3161	0	0.722811
3162	0	0.723029
3163	0	0.732407
3164	0	0.731482
3165	0	0.73352
3166	0	0.738322
3167	0	0.737146
3168	0	0.738757
3169	0	0
3170	0	0
3171	0	0
3172	0	0.749012
3173	0	0.749196
3174	0	0.74637
3175	0	0.744962
3176	0	0.745153
3177	0	0.738955
3178	0	0.738947
3179	0	0.738947
3180	0	0.738947
3181	0	0.740562
3182	0	0.2
3183	0	0
3184	0	0
3185	0	0
3186	0	0
3187	0	0
3188	0	0
3189	0	0
3190	0	0
3191	0	0
3192	0	0
3193	0	0
3194	0	0
3195	0	0
3196	0	0
3197	0	0
3198	0	0
3199	0	0
3200	0	0
3201	0	0
3202	0	0
3203	0	0
3204	0	0
3205	0	0.745671
3206	0	0.745671
3207	0	0.2
3208	0	0.2
3209	0	0.2
3210	0	0.2
3211	0	0.2
3212	0	0.757195
3213	0	0.39039
3214	0	0.503455
3215	0	0.25
3216	0	0.190476
3217	0	0.142857
3218	0	0.142857
3219	0	0.0666667
3220	0	0.0666667
3221	0	0.133333
3222	0	0.0666667
3223	0	0.0666667
3224	0	0.0666667
3225	0	0.672607
3226	0	0.710328
3227	0	0.71168
3228	0	0.711695
3229	0	0.032967
3230	0	0.032967
3231	0	0.032967
3232	0	0.032967
3233	0	0.919982
3234	0	0.912085
3235	0	0.619323
3236	0	0.454081
3237	0	0.4
3238	0	0.383333
3239	0	0.701231
3240	0	0.214286
3241	0	0.282051
3242	0	0.47619
3243	0	0.755788
3244	0	0.75906
3245	0	0.266667
3246	0	0.222222
3247	0	0.749281
3248	0	0.567505
3249	0	0.1
3250	0	0
3251	0	0.748059
3252	0	0.748052
3253	0	0.750893
3254	0	0
3255	0	0
3256	0	0.732779
3257	0	0.731168
3258	0	0.905701
3259	0	0.166667
3260	0	0.166667
3261	0	0.166667
3262	0	0.190476
3263	0	0.921719
3264	0	0.777778
3265	0	0.777778
3266	0	0.939958
3267	0	0
3268	0	0
3269	0	0
3270	0	0
3271	0	0
3272	0	0
3273	0	0
3274	0	0
3275	0	0
3276	0	0
3277	0	0
3278	0	0
3279	0	0
3280	0	0
3281	0	0.927521
3282	0	0.927546
3283	0	0.583333
3284	0	0.230769
3285	0	0.915003
3286	0	0.877224
3287	0	0.877251
3288	0	0
3289	0	0
3290	0	0
3291	0	0
3292	0	0
3293	0	0
3294	0	0.420635
3295	0	0
3296	0	0
3297	0	0
3298	0	0
3299	0	0
3300	0	0
3301	0	0
3302	0	0.851757
3303	0	0.155556
3304	0	0.155556
3305	0	0.0888889
3306	0	0.0444444
3307	0	0.0444444
3308	0	0.789685
3309	0	0
3310	0	0
3311	0	0
3312	0	0.775442
3313	0	0.0952381
3314	0	0.266667
3315	0	0.3
3316	0	0.6
3317	0	0.6
3318	0	0.6
3319	0	0.6
3320	0	0.6
3321	0	0.502654
3322	0	1
3323	0	1
3324	0	0.127273
3325	0	0.397596
3326	0	0.856638
3327	0	0.131868
3328	0	0.355556
3329	0	0.488889
3330	0	0.92408
3331	0	0.944133
3332	0	0.951459
3333	0	0.951461
3334	0	0.949664
3335	0	0.947875
3336	0	0.947877
3337	0	0.333333
3338	0	0.333333
3339	0	0.333333
3340	0	0.967823
3341	0	0.967823
3342	0	0.966001
3343	0	0.965965
3344	0	0.963779
3345	0	0.96374
3346	0	1
3347	0	1
3348	0	0.530303
3349	0	1
3350	0	1
3351	0	1
3352	0	0.333333
3353	0	0.560484
3354	0	0.720666
3355	0	0.269231
3356	0	0.176471
3357	0	0.183824
3358	0	0.696445
3359	0	0.694826
3360	0	0.620632
3361	0	0
3362	0	0
3363	0	0
3364	0	0
3365	0	0.654545
3366	0	0.654545
3367	0	0.121212
3368	0	0.4
3369	0	0.273784
3370	0	0.276956
3371	0	0.588656
3372	0	0.729457
3373	0	0.415406
3374	0	0.183824
3375	0	0.132353
3376	0	0.0882353
3377	0	0.0882353
3378	0	0.0833333
3379	0	0.0583333
3380	0	0.0666667
3381	0	0.0416667
3382	0	0.0367647
3383	0	0.0514706
3384	0	0.0421053
3385	0	0.695471
3386	0	0.669329
3387	0	0.433954
3388	0	0.371014
3389	0	0.305138
3390	0	0.305138
3391	0	0.172714
3392	0	0.192872
3393	0	0.134271
3394	0	0.337972
3395	0	0.25917
3396	0	0.105032
3397	0	0.127016
3398	0	0.134535
3399	0	0.208493
3400	0	0.21978
3401	0	0.166667
3402	0	0.0945455
3403	0	0.134865
3404	0	0.131202
3405	0	0.14952
3406	0	0.0898058
3407	0	0.135345
3408	0	0.216888
3409	0	0.132604
3410	0	0
3411	0	0
3412	0	0
3413	0	0
3414	0	0
3415	0	0
3416	0	0
3417	0	0
3418	0	0
3419	0	0
3420	0	0.147584
3421	0	0.104762
3422	0	0.311424
3423	0	0.129661
3424	0	0.2
3425	0	0.3
3426	0	0.3
3427	0	0.3
3428	0	0.218182
3429	0	0.13916
3430	0	0.272727
3431	0	0.127273
3432	0	0.456615
3433	0	0.456615
3434	0	0.111331
3435	0	0.0998665
3436	0	0.175824
3437	0	0.175824
3438	0	0.175824
3439	0	0.245455
3440	0	0.134713
3441	0	0.161509
3442	0	0
3443	0	0.335788
3444	0	0.3583
3445	0	0.36886
3446	0	0.755367
3447	0	1
3448	0	0.882353
3449	0	0.882353
3450	0	1
3451	0	1
3452	0	1
3453	0	1
3454	0	1
3455	0	0.166667
3456	0	0.166667
3457	0	0.3
3458	0	0.181818
3459	0	0.117647
3460	0	0.114943
3461	0	0.379584
3462	0	0.0857143
3463	0	0.0602151
3464	0	0.0534759
3465	0	0.15516
3466	0	0.163777
3467	0	0.130446
3468	0	0.0709992
3469	0	0.0619202
3470	0	0.0742171
3471	0	0.049114
3472	0	0.0825267
3473	0	0.0918654
3474	0	0.106844
3475	0	0.130335
3476	0	0.126452
3477	0	0.0934883
3478	0	0.163561
3479	0	0.158954
3480	0	0.1162
3481	0	0.127093
3482	0	0.123288
3483	0	0.121437
3484	0	0.0653181
3485	0	0.106802
3486	0	0.166619
3487	0	0.137255
3488	0	0.130179
3489	0	0.139128
3490	0	0.121596
3491	0	0.15
3492	0	0.232332
3493	0	0.26175
3494	0	0.104091
3495	0	0.134898
3496	0	0.148784
3497	0	0.0539112
3498	0	0.0597561
3499	0	0.0520487
3500	0	0.0463768
3501	0	0.0535354
3502	0	0.0545455
3503	0	0.154598
3504	0	0.174371
3505	0	0.0542741
3506	0	0.0457627
3507	0	0.0233786
3508	0	0.0233786
3509	0	0.0418118
3510	0	0.0441347
3511	0	0.0441347
3512	0	0.0269906
3513	0	0.106564
3514	0	0.311748
3515	0	0.298759
3516	0	0.298759
3517	0	0.275794
3518	0	0.0516742
3519	0	0.15186
3520	0	0.144641
3521	0	0.0512821
3522	0	0.0512821
3523	0	0.0380952
3524	0	0.0333333
3525	0	0.025
3526	0	0.193336
3527	0	0.0604622
3528	0	0.169705
3529	0	0
3530	0	0.0258715
3531	0	0
3532	0	0
3533	0	0
3534	0	0
3535	0	0
3536	0	0
3537	0	0
3538	0	0
3539	0	0
3540	0	0
3541	0	0.164897
3542	0	0.0666667
3543	0	0
3544	0	0
3545	0	0
3546	0	0
3547	0	0
3548	0	0.0666667
3549	0	0.0666667
3550	0	0
3551	0	0.0666667
3552	0	0.0666667
3553	0	0.047619
3554	0	0.047619
3555	0	0.358974
3556	0	0
3557	0	0.230769
3558	0	0.122807
3559	0	0.0935673
3560	0	0.0809524
3561	0	0.0779221
3562	0	0.048583
3563	0	0.11912
3564	0	0.15458
3565	0	0.146453
3566	0	0.137104
3567	0	0.180673
3568	0	0.228144
3569	0	0.0357143
3570	0	0.0357143
3571	0	0.0277778
3572	0	0.0277778
3573	0	0.0277778
3574	0	0.0277778
3575	0	0.233352
3576	0	0.249339
3577	0	0.386538
3578	0	0.389423
3579	0	0.3875
3580	0	0.299746
3581	0	0.0666667
3582	0	0
3583	0	0
3584	0	0.255949
3585	0	0
3586	0	0.327479
3587	0	0.32762
3588	0	0.327547
3589	0	0.0333333
3590	0	0.0333333
3591	0	0.0333333
3592	0	0.0333333
3593	0	0.0333333
3594	0	0.0333333
3595	0	0.0261438
3596	0	0.539993
3597	0	0.69187
3598	0	0.0113636
3599	0	0.266667
3600	0	0.266667
3601	0	0.012012
3602	0	0.0174216
3603	0	0.0307692
3604	0	0.0307692
3605	0	0.0307692
3606	0	0.0232558
3607	0	0.0465116
3608	0	0.045977
3609	0	0.521051
3610	0	0.180019
3611	0	0.458755
3612	0	0.143995
3613	0	0.142055
3614	0	0.527132
3615	0	0.524749
3616	0	0.527014
3617	0	0.515334
3618	0	0.51079
3619	0	0.507271
3620	0	0.505059
3621	0	0.507266
3622	0	0.510637
3623	0	0.522107
3624	0	0.0292398
3625	0	0.0292398
3626	0	0.0350877
3627	0	0.0350877
3628	0	0.552832
3629	0	0.593351
3630	0	0.00830281
3631	0	0.00962606
3632	0	0.00809889
3633	0	0.00967937
3634	0	0.00980392
3635	0	0.0106383
3636	0	0.00869565
3637	0	0.0111111
3638	0	0.0121212
3639	0	0.0121816
3640	0	0.387629
3641	0	0.387637
3642	0	0.389585
3643	0	0
3644	0	0
3645	0	0
3646	0	0
3647	0	0
3648	0	0
3649	0	0
3650	0	0
3651	0	0
3652	0	0
3653	0	0
3654	0	0
3655	0	0
3656	0	0
3657	0	0
3658	0	0
3659	0	0
3660	0	0.025641
3661	0	0.0168831
3662	0	0.015847
3663	0	0.537224
3664	0	0.532108
3665	0	0.532167
3666	0	0.530777
3667	0	0.535021
3668	0	0
3669	0	0.47619
3670	0	0.47619
3671	0	0.47619
3672	0	0
3673	0	0.0980392
3674	0	0.250353
3675	0	0.313776
3676	0	0.319988
3677	0	0.047619
3678	0	0.857407
3679	0	0.0857143
3680	0	0.0857143
3681	0	0.0857143
3682	0	0.841142
3683	0	0.856084
3684	0	0.856084
3685	0	0.864071
3686	0	0.872306
3687	0	0.872517
3688	0	0.318681
3689	0	0.0714286
3690	0	0.0714286
3691	0	0.0714286
3692	0	0.0555556
3693	0	0.0222222
3694	0	0.0222222
3695	0	0.0222222
3696	0	0.0606061
3697	0	0.0897436
3698	0	0.215476
3699	0	0.338933
3700	0	0.280967
3701	0	0.180628
3702	0	0.250015
3703	0	0.271793
3704	0	0.122984
3705	0	0.3116
3706	0	0.316958
3707	0	0.296794
3708	0	0.370178
3709	0	0.294645
3710	0	0.339723
3711	0	0.218675
3712	0	0.212423
3713	0	0.20915
3714	0	0.163399
3715	0	0.163399
3716	0	0.578768
3717	0	0.142857
3718	0	0.344022
3719	0	0.354192
3720	0	0.293333
3721	0	0.258333
3722	0	0.279412
3723	0	0.279412
3724	0	0.22807
3725	0	0.22807
3726	0	0.248366
3727	0	0.248366
3728	0	0.286765
3729	0	0.286765
3730	0	0.286765
3731	0	0.286765
3732	0	0.242647
3733	0	0.242647
3734	0	0.241667
3735	0	0.110887
3736	0	0.0952381
3737	0	0.114286
3738	0	0.148567
3739	0	0.125943
3740	0	0.129073
3741	0	0.113559
3742	0	0.104755
3743	0	0.47619
3744	0	0.47619
3745	0	0.288889
3746	0	0.288889
3747	0	0.288889
3748	0	0.361111
3749	0	0.47619
3750	0	0.666667
3751	0	0.104149
3752	0	0.168339
3753	0	0.164017
3754	0	0.482955
3755	0	0
3756	0	0.1
3757	0	0.353333
3758	0	0.509804
3759	0	0.344729
3760	0	0
3761	0	0
3762	0	0
3763	0	0
3764	0	0
3765	0	0
3766	0	0
3767	0	0.548387
3768	0	0.583908
3769	0	0.0888889
3770	0	0.162784
3771	0	0.163837
3772	0	0.108328
3773	0	0
3774	0	0
3775	0	0
3776	0	0
3777	0	0
3778	0	0
3779	0	0
3780	0	0
3781	0	0
3782	0	0.307692
3783	0	0.307692
3784	0	0.220588
3785	0	0.205882
3786	0	0.233333
3787	0	0.233333
3788	0	0.205882
3789	0	0.187135
3790	0	0.216288
3791	0	0.235303
3792	0	0.285889
3793	0	0.0437158
3794	0	0.14991
3795	0	0.144979
3796	0	0.150783
3797	0	0.657475
3798	0	0.656749
3799	0	0.487455
3800	0	0.139894
3801	0	0.101935
3802	0	0.138193
3803	0	0.0658844
3804	0	0.0459902
3805	0	0.0392128
3806	0	0.0528216
3807	0	0
3808	0	0
3809	0	0
3810	0	0
3811	0	0
3812	0	0
3813	0	0
3814	0	0.0509724
3815	0	0.054265
3816	0	0.051653
3817	0	0.0480711
3818	0	0.0443692
3819	0	0.0416819
3820	0	0.0432156
3821	0	0.0445521
3822	0	0.0705866
3823	0	0.106471
3824	0	0.075641
3825	0	0.12253
3826	0	0.083004
3827	0	0.0980392
3828	0	0.102564
3829	0	0
3830	0	0
3831	0	0.244444
3832	0	0.466667
3833	0	0.214286
3834	0	0.214286
3835	0	0.0860595
3836	0	0.0645614
3837	0	0.0610329
3838	0	0.0715962
3839	0	0.0824408
3840	0	0.392857
3841	0	0.0765921
3842	0	0.0823293
3843	0	0.0932301
3844	0	0.0992063
3845	0	0.14028
3846	0	0
3847	0	0
3848	0	0
3849	0	0
3850	0	0
3851	0	0
3852	0	0
3853	0	0
3854	0	0.146589
3855	0	0.149492
3856	0	0.333333
3857	0	0.333333
3858	0	0.333333
3859	0	0.488889
3860	0	0.488889
3861	0	0.488889
3862	0	0.488889
3863	0	0.333333
3864	0	0.333333
3865	0	0.333333
3866	0	0.333333
3867	0	0.333333
3868	0	0.333333
3869	0	0.333333
3870	0	0
3871	0	0
3872	0	0
3873	0	0
3874	0	0.169643
3875	0	0.16369
3876	0	0.118572
3877	0	0.135704
3878	0	0.215962
3879	0	0.226408
3880	0	0.493612
3881	0	0.29414
3882	0	0
3883	0	0.387626
3884	0	0.649596
3885	0	0.808163
3886	0	0.819105
3887	0	0.547534
3888	0	0.180952
3889	0	0.171429
3890	0	0.197802
3891	0	0.107143
3892	0	0.047619
3893	0	0.047619
3894	0	0.0666667
3895	0	0.0666667
3896	0	0.0666667
3897	0	0.0666667
3898	0	0.0666667
3899	0	0.1
3900	0	0.1
3901	0	0.1
3902	0	0.166667
3903	0	0.166667
3904	0	0.166667
3905	0	0.166667
3906	0	0.166667
3907	0	0.3
3908	0	0.3
3909	0	0.3
3910	0	0
3911	0	0
3912	0	0
3913	0	0
3914	0	0
3915	0	0
3916	0	0
3917	0	0.32967
3918	0	0.32967
3919	0	0.342857
3920	0	0.342857
3921	0	0.342857
3922	0	0.583333
3923	0	0.583333
3924	0	0.583333
3925	0	0.583333
3926	0	0
3927	0	0
3928	0	0
3929	0	0
3930	0	0
3931	0	0
3932	0	0.287026
3933	0	0.278113
3934	0	0.0280193
3935	0	0.0181818
3936	0	0.0294486
3937	0	0.0143965
3938	0	0.0139373
3939	0	0
3940	0	0
3941	0	0
3942	0	0
3943	0	0
3944	0	0
3945	0	0
3946	0	0.0143965
3947	0	0.177884
3948	0	0.167202
3949	0	0.103741
3950	0	0.108156
3951	0	0.108156
3952	0	0.1417
3953	0	0.1417
3954	0	0.134615
3955	0	0.0178165
3956	0	0.137716
3957	0	0.157265
3958	0	0.0109815
3959	0	0.00895857
3960	0	0.00981767
3961	0	0.011454
3962	0	0.0102372
3963	0	0.0104869
3964	0	0.0125747
3965	0	0.0133993
3966	0	0.0128713
3967	0	0.014157
3968	0	0.171828
3969	0	0.0714286
3970	0	0.0714286
3971	0	0.133333
3972	0	0.133333
3973	0	0.1
3974	0	0.1
3975	0	0.0585369
3976	0	0.197791
3977	0	0
3978	0	0.0666667
3979	0	0.0666667
3980	0	0.166667
3981	0	0.0517059
3982	0	0.0571059
3983	0	0.230674
3984	0	0.24386
3985	0	0.257783
3986	0	0.253734
3987	0	0.264044
3988	0	0.264465
3989	0	0.209824
3990	0	0.21585
3991	0	0.209533
3992	0	0.487089
3993	0	0.489437
3994	0	0.0994878
3995	0	0.378338
3996	0	0.2
3997	0	0.2
3998	0	0.2
3999	0	0.2
4000	0	0.2
4001	0	0.25
4002	0	0.25
4003	0	0.321429
4004	0	0.5
4005	0	0.5
4006	0	0.119153
4007	0	0.0181818
4008	0	0.0169399
4009	0	0.0175141
4010	0	0.0175141
4011	0	0.0153846
4012	0	0.373759
4013	0	0.606242
4014	0	0.714453
4015	0	0.720978
4016	0	0.0143965
4017	0	0.0139373
4018	0	0.0209059
4019	0	0.024359
4020	0	0.025641
4021	0	0.025641
4022	0	0.0269906
4023	0	0.0615385
4024	0	0.0628205
4025	0	0.0615385
4026	0	0.54145
4027	0	0.543061
4028	0	0.0727273
4029	0	0.0727273
4030	0	0.0727273
4031	0	0.158886
4032	0	0.155925
4033	0	0.158039
4034	0	0.25656
4035	0	0.266907
4036	0	0.0121206
4037	0	0.347246
4038	0	0.0666667
4039	0	0.194444
4040	0	0.194444
4041	0	0.194444
4042	0	0.194444
4043	0	0.111111
4044	0	0.0123389
4045	0	0.0127425
4046	0	0.138564
4047	0	0.158905
4048	0	0.169798
4049	0	0.0151515
4050	0	0.0181818
4051	0	0.0222222
4052	0	0.0222222
4053	0	0
4054	0	0
4055	0	0
4056	0	0
4057	0	0.1
4058	0	0.286064
4059	0	0.285237
4060	0	0.286286
4061	0	0.286597
4062	0	0.0375076
4063	0	0.0414962
4064	0	0.0181422
4065	0	0.692158
4066	0	0.0209059
4067	0	0.0255517
4068	0	0.0243902
4069	0	0.0232288
4070	0	0.0162602
4071	0	0.795204
4072	0	0
4073	0	0
4074	0	0
4075	0	0
4076	0	0
4077	0	0
4078	0	0
4079	0	0
4080	0	0.0666667
4081	0	1
4082	0	0.0941176
4083	0	0.818903
4084	0	0.819671
4085	0	0.0276094
4086	0	0.0301428
4087	0	0.0328218
4088	0	0.0307692
4089	0	0.0358149
4090	0	0.038134
4091	0	0.0277778
4092	0	0.034386
4093	0	0.0234442
4094	0	0.396822
4095	0	0.1
4096	0	0.1
4097	0	0.1
4098	0	0.1
4099	0	0.1
4100	0	0.1
4101	0	0.1
4102	0	0.1
4103	0	0.0666667
4104	0	0.0666667
4105	0	0.23641
4106	0	0.208916
4107	1	0
4108	1	0
4109	1	0
4110	1	0
4111	1	0
4112	1	0
4113	1	0
4114	1	0
4115	1	0
4116	1	0
4117	1	0
4118	1	0
4119	1	0
4120	0	0
4121	0	0
4122	0	0
4123	0	0
4124	0	0
4125	0	0
4126	0	0
4127	0	0
4128	0	0
4129	0	0.280667
4130	0	0.260868
4131	0	0.015847
4132	0	0.0140474
4133	0	0.0136402
4134	0	0.0136646
4135	0	0.0161491
4136	0	0.182037
4137	1	0
4138	1	0
4139	1	0
4140	1	0
4141	1	0
4142	1	0
4143	0	0
4144	0	0
4145	0	0
4146	0	0
4147	0	0
4148	0	0
4149	0	0
4150	0	0
4151	0	0
4152	0	0
4153	0	0
4154	0	0
4155	0	0
4156	0	0
4157	0	0
4158	0	0
4159	0	0
4160	0	0
4161	0	0
4162	0	0
4163	0	0
4164	0	0
4165	0	0
4166	0	0
4167	0	0
4168	0	0
4169	0	0
4170	0	0
4171	0	0
4172	1	0
4173	0	0
4174	0	0
4175	0	0
4176	0	0
4177	0	0
4178	0	0
4179	1	0
4180	1	0
4181	1	0
4182	1	0
4183	1	0
4184	1	0
4185	1	0
4186	1	0
4187	1	0
4188	1	0
4189	0	0
4190	0	0
4191	0	0
4192	0	0
4193	0	0
4194	0	0
4195	0	0
4196	0	0
4197	0	0
4198	0	0
4199	0	0
4200	0	0
4201	0	0
4202	0	0
4203	0	0
4204	0	0
4205	0	0
4206	0	0
4207	0	0
4208	0	0
4209	0	0
4210	0	0
4211	0	0
4212	0	0
4213	0	0
4214	0	0
4215	1	0
4216	1	0
4217	1	0
4218	1	0
4219	1	0
4220	1	0
4221	1	0
4222	1	0
4223	1	0
4224	1	0
4225	1	0
4226	1	0
4227	1	0
4228	1	0
4229	1	0
4230	1	0
4231	1	0
4232	1	0
4233	1	0
4234	0	0
4235	0	0
4236	0	0
4237	0	0
4238	0	0
4239	0	0
4240	1	0
4241	1	0
4242	0	0
4243	0	0
4244	0	0
4245	0	0
4246	0	0
4247	0	0
4248	0	0
4249	0	0
4250	0	0
4251	0	0
4252	0	0
4253	0	0
4254	0	0
4255	0	0
4256	0	0
4257	1	0
4258	1	0
4259	1	0
4260	1	0
4261	1	0
4262	1	0
4263	0	0
4264	0	0
4265	0	0
4266	0	0
4267	0	0
4268	0	0
4269	0	0
4270	0	0
4271	0	0
4272	0	0
4273	0	0
4274	0	0
4275	0	0
4276	0	0
4277	0	0
4278	0	0
4279	0	0
4280	0	0
4281	0	0
4282	0	0
4283	0	0
4284	0	0
4285	0	0
4286	0	0
4287	0	0
4288	0	0
4289	0	0
4290	0	0
4291	0	0
4292	0	0
4293	0	0
4294	0	0
4295	0	0
4296	0	0
4297	0	0
4298	0	0
4299	0	0
4300	0	0
4301	0	0
4302	0	0
4303	0	0
4304	0	0
4305	0	0
4306	0	0
4307	0	0
4308	0	0
4309	0	0
4310	0	0
4311	0	0
4312	0	0
4313	0	0.1
4314	0	0.0666667
4315	0	0.213832
4316	0	0.0487395
4317	0	0.0487395
4318	0	0.0246305
4319	0	0.384333
4320	0	0.379034
4321	0	0.0136275
4322	0	0.33784
4323	0	0.0454545
4324	0	0.0454545
4325	0	0.0454545
4326	0	0.0454545
4327	0	0.0606061
4328	0	0.043956
4329	0	0.043956
4330	0	0.043956
4331	0	0.0367647
4332	0	0.189075
4333	0	0.391191
4334	0	0.393731
4335	0	0.396869
4336	0	0
4337	0	0
4338	0	0
4339	0	0
4340	0	0
4341	0	0
4342	0	0
4343	0	0
4344	0	0
4345	0	0
4346	0	0
4347	0	0
4348	0	0
4349	0	0
4350	0	0
4351	0	0
4352	0	0
4353	0	0
4354	0	0
4355	0	0
4356	0	0
4357	0	0
4358	0	0
4359	0	0
4360	0	0
4361	0	0
4362	0	0
4363	0	0
4364	0	0
4365	0	0
4366	0	0
4367	0	0
4368	0	0
4369	1	0
4370	1	0
4371	1	0
4372	1	0
4373	1	0
4374	1	0
4375	1	0
4376	1	0
4377	1	0
4378	1	0
4379	1	0
4380	1	0
4381	1	0
4382	1	0
4383	1	0
4384	1	0
4385	1	0
4386	1	0
4387	1	0
4388	1	0
4389	1	0
4390	1	0
4391	1	0
4392	1	0
4393	1	0
4394	1	0
4395	1	0
4396	1	0
4397	1	0
4398	1	0
4399	1	0
4400	1	0
4401	1	0
4402	1	0
4403	1	0
4404	1	0
4405	1	0
4406	1	0
4407	1	0
4408	1	0
4409	1	0
4410	1	0
4411	1	0
4412	0	0.275258
4413	0	0.389375
4414	0	0.850202
4415	0	0.850202
4416	0	0.850202
4417	0	0.850202
4418	0	0.807692
4419	0	0.807692
4420	0	0.342443
4421	0	0.359138
4422	0	0.532038
4423	0	0
4424	0	0
4425	0	0
4426	0	0
4427	0	0.21645
4428	0	0.197628
4429	0	0.252033
4430	0	0.232051
4431	0	0.232733
4432	0	0.223329
4433	0	0.193902
4434	0	0.303226
4435	0	0.482608
4436	0	0.491584
4437	0	0.234796
4438	0	0.234234
4439	0	0.172678
4440	0	0.0836707
4441	0	0.0836707
4442	0	0.266852
4443	0	0.173274
4444	0	0.25518
4445	0	0.425529
4446	0	0.458065
4447	0	0.489076
4448	0	0.399471
4449	0	0.230769
4450	0	0.214286
4451	0	0.285714
4452	0	0.285714
4453	0	0.285714
4454	0	0.296703
4455	0	0.307692
4456	0	0.307692
4457	0	0.282051
4458	0	0.282051
4459	0	0.047619
4460	0	0.205128
4461	0	0.205128
4462	0	0.194737
4463	0	0.137652
4464	0	0.372133
4465	0	0.713131
4466	0	0.713131
4467	0	0.713131
4468	0	0
4469	0	0
4470	0	0
4471	0	0
4472	0	0
4473	0	0
4474	0	0
4475	0	0
4476	0	0.358974
4477	0	0.358974
4478	0	0.358974
4479	0	0.307692
4480	0	0.307692
4481	0	0.266667
4482	0	0.19883
4483	0	0.263846
4484	0	0.249261
4485	0	0.145503
4486	0	0.133333
4487	0	0.0836707
4488	0	0.0708749
4489	0	0.0664894
4490	0	0.0423472
4491	0	0.0384181
4492	0	0.0403554
4493	0	0.119085
4494	0	0.158398
4495	0	0.14415
4496	0	0
4497	0	0
4498	0	0
4499	0	0
4500	0	0.166667
4501	0	0
4502	0	0
4503	0	0
4504	0	0
4505	0	0
4506	0	0
4507	0	0
4508	0	0
4509	0	0
4510	0	0
4511	0	0
4512	0	0.0357143
4513	0	0.0357143
4514	0	0.0277778
4515	0	0.047619
4516	0	0.047619
4517	0	0.196201
4518	0	0.229797
4519	0	0.0265924
4520	0	0.0281124
4521	0	0.0233028
4522	0	0.0246075
4523	0	0.160594
4524	0	0.161943
4525	0	0.126923
4526	0	0.139744
4527	0	0.139744
4528	0	0.139744
4529	0	0.129487
4530	0	0.134615
4531	0	0.0243026
4532	0	0.0288109
4533	0	0.194649
4534	0	0.227156
4535	0	0.167232
4536	0	0.168323
4537	0	0.168323
4538	0	0.158387
4539	0	0.15488
4540	0	0.0382065
4541	0	0.0299434
4542	0	0.183124
4543	0	0.0272378
4544	0	0.0222988
4545	0	0.0225973
4546	0	0.0218383
4547	0	0.122436
4548	0	0.122781
4549	0	0.130879
4550	0	0.145486
4551	0	0.149146
4552	0	0.150646
4553	0	0.141872
4554	0	0.150033
4555	0	0.0316742
4556	0	0.134963
4557	0	0.0409188
4558	0	0.0345768
4559	0	0.0240423
4560	0	0.241866
4561	0	0.20139
4562	0	0.123868
4563	0	0.0804598
4564	0	0.100985
4565	0	0.100529
4566	0	0.0368421
4567	0	0.0368421
4568	0	0.0333333
4569	0	0.0368421
4570	0	0.0526316
4571	0	0.0526316
4572	0	0.237123
4573	0	0.0661524
4574	0	0.072884
4575	0	0.50932
4576	0	0.0661765
4577	0	0.0857143
4578	0	0.136364
4579	0	0.2
4580	0	0.2
4581	0	0.2
4582	0	0.163636
4583	0	0.163636
4584	0	0.163636
4585	0	0.25
4586	0	0.25
4587	0	0.25
4588	0	0.2
4589	0	0.825755
4590	0	0.166667
4591	0	0
4592	0	0
4593	0	0
4594	0	0
4595	0	0
4596	0	0
4597	0	0
4598	0	0
4599	0	0
4600	0	0
4601	0	0
4602	0	0
4603	0	0
4604	0	0
4605	0	0
4606	0	0
4607	0	0
4608	0	0
4609	0	0
4610	0	0
4611	0	0
4612	0	0
4613	0	0
4614	0	0
4615	0	0
4616	0	0
4617	0	0
4618	0	0
4619	0	0
4620	0	0
4621	0	0
4622	0	0
4623	0	0
4624	0	0
4625	0	0
4626	0	0
4627	0	0
4628	0	0
4629	0	0
4630	0	0
4631	0	0
4632	0	0
4633	0	0
4634	0	0
4635	0	0
4636	0	0
4637	0	0
4638	0	0
4639	0	0
4640	0	0
4641	0	0
4642	0	0
4643	0	0
4644	0	0
4645	1	0
4646	1	0
4647	1	0
4648	0	0
4649	0	0
4650	0	0
4651	0	0
4652	0	0
4653	0	0
4654	0	0
4655	0	0
4656	0	0
4657	0	0
4658	0	0
4659	0	0
4660	0	0
4661	0	0
4662	0	0
4663	0	0
4664	0	0
4665	0	0
4666	0	0
4667	0	0.500307
4668	0	0.507717
4669	0	0.511809
4670	0	0.355431
4671	0	0.631579
4672	0	0.631579
4673	0	0.631579
4674	0	0.631579
4675	0	0.631579
4676	0	0.631579
4677	0	0.631579
4678	0	0.631579
4679	0	0.631579
4680	0	0.631579
4681	0	0.631579
4682	0	0.0735444
4683	0	0.0735444
4684	0	0.0703021
4685	0	0.0689655
4686	0	0.470069
4687	0	0.231488
4688	0	0.144444
4689	0	0.145455
4690	0	0.139394
4691	0	0.440859
4692	0	0.435961
4693	0	0.383399
4694	0	0.418972
4695	0	0.360294
4696	0	0.294118
4697	0	0.416667
4698	0	0.416667
4699	0	0.416667
4700	0	0.416667
4701	0	0.416667
4702	0	0.416667
4703	0	0.416667
4704	0	0.416667
4705	0	0.416667
4706	0	0.416667
4707	0	0.416667
4708	0	0.166667
4709	0	0.113333
4710	0	0.133333
4711	0	0.123077
4712	0	0.489936
4713	0	0.4
4714	0	0.31058
4715	0	0.333333
4716	0	0.333333
4717	0	0.333333
4718	0	0.333333
4719	0	0.333333
4720	0	0
4721	0	0
4722	0	0.333333
4723	0	0.333333
4724	0	0.333333
4725	0	0.333333
4726	0	0.333333
4727	0	0.333333
4728	0	0.333333
4729	0	0.166667
4730	0	0.166667
4731	0	0.256733
4732	0	0.222906
4733	0	0.184347
4734	0	0
4735	0	0
4736	0	0
4737	0	0
4738	0	0.333333
4739	0	0.333333
4740	0	0.187466
4741	0	0
4742	0	0
4743	0	0
4744	0	0
4745	0	0
4746	0	0
4747	0	0
4748	0	0
4749	0	0
4750	0	0
4751	0	0.0666667
4752	0	0.0666667
4753	0	0.0666667
4754	0	0.142857
4755	0	0.142857
4756	0	0.142857
4757	0	0.160901
4758	0	0.0714286
4759	0	0.529189
4760	0	0.0398551
4761	0	0.252688
4762	0	0.166829
4763	0	0.135314
4764	0	0.102231
4765	0	0.0666667
4766	0	0.0666667
4767	0	0.0666667
4768	0	0.0666667
4769	0	0.0894737
4770	0	0.196646
4771	0	0.206964
4772	0	0.0908505
4773	0	0.155379
4774	0	0.0952159
4775	0	0.0852522
4776	0	0.0839359
4777	0	0.133929
4778	0	0.12634
4779	0	0.110373
4780	0	0.0529839
4781	0	0.083613
4782	0	0.0776557
4783	0	0.0808303
4784	0	0.0776557
4785	0	0.0891312
4786	0	0.11802
4787	0	0.113109
4788	0	0.138293
4789	0	0.126089
4790	0	0.116871
4791	0	0.114875
4792	0	0.120941
4793	0	0.099706
4794	0	0.108861
4795	0	0.120879
4796	0	0.0709304
4797	0	0.072227
4798	0	0.447279
4799	0	0.447279
4800	0	0.105828
4801	0	0.149206
4802	0	0
4803	0	0.320261
4804	0	0.371429
4805	0	0.371429
4806	0	0.428571
4807	0	0.428571
4808	0	0.249221
4809	0	0
4810	0	0
4811	0	0
4812	0	0
4813	0	0
4814	0	0
4815	0	0
4816	0	0
4817	0	0
4818	0	0
4819	0	0
4820	0	0
4821	0	0
4822	0	0
4823	0	0
4824	0	0
4825	0	0
4826	0	0
4827	0	0
4828	0	0
4829	0	0
4830	0	0
4831	0	0
4832	0	0
4833	0	0
4834	0	0
4835	0	0
4836	0	0
4837	0	0
4838	0	0
4839	0	0
4840	0	0
4841	0	0
4842	0	0
4843	0	0
4844	0	0.150936
4845	0	0
4846	0	0
4847	0	0
4848	0	0
4849	0	0
4850	0	0
4851	0	0.3
4852	0	0.3
4853	0	0.3
4854	0	0.3
4855	0	0.3
4856	0	0.3
4857	0	0.3
4858	0	0.3
4859	0	0.190476
4860	0	0.155556
4861	0	0.155556
4862	0	0.155556
4863	0	0.155556
4864	0	0.155556
4865	0	0.155556
4866	0	0.155556
4867	0	0.155556
4868	0	0.399022
4869	0	0.155556
4870	0	0.155556
4871	0	0.402299
4872	0	0
4873	0	0
4874	0	0
4875	0	0
4876	0	0
4877	0	0
4878	0	0
4879	0	0
4880	0	0
4881	0	0
4882	0	0
4883	0	0
4884	0	0
4885	0	0
4886	0	0
4887	0	0
4888	0	0
4889	0	0
4890	0	0
4891	0	0
4892	0	0
4893	0	0
4894	0	0
4895	0	0
4896	0	0
4897	0	0
4898	0	0
4899	0	0
4900	0	0
4901	0	0
4902	0	0
4903	0	0
4904	0	0
4905	0	0
4906	0	0
4907	0	0
4908	0	0
4909	0	0
4910	0	0
4911	0	0
4912	0	0
4913	0	0
4914	0	0
4915	0	0
4916	0	0
4917	0	0
4918	0	0
4919	0	0
4920	0	0
4921	0	0
4922	0	0
4923	0	0
4924	0	0
4925	0	0
4926	0	0
4927	0	0
4928	0	0
4929	0	0
4930	0	0
4931	0	0
4932	0	0
4933	0	0
4934	0	0
4935	0	0
4936	0	0
4937	0	0
4938	0	0
4939	0	0
4940	0	0
4941	0	0
4942	0	0
4943	0	0
4944	0	0
4945	0	0.83004
4946	0	0.822511
4947	0	0.4
4948	0	0.360294
4949	0	0.483333
4950	0	0.385621
4951	0	0.345029
4952	0	0.16578
4953	0	0.142857
4954	0	0.168421
4955	0	0.108225
4956	0	0.119565
4957	0	0.164502
4958	0	0.201235
4959	0	0.147863
4960	0	0.105753
4961	0	0.124328
4962	0	0.133818
4963	0	0.151189
4964	0	0.153846
4965	0	0.320351
4966	0	0.25614
4967	0	0.166667
4968	0	0.27957
4969	0	0.611111
4970	0	0.669312
4971	0	0.636054
4972	0	0.107143
4973	0	0.127273
4974	0	0.262139
4975	0	0.3
4976	0	0.3
4977	0	0.3
4978	0	0.3
4979	0	0.3
4980	0	0.3
4981	0	0.3
4982	0	0.3
4983	0	0.1
4984	0	0.133333
4985	0	0.133333
4986	0	0.133333
4987	0	0.342599
4988	0	0.340247
4989	0	0.211948
4990	0	0.280116
4991	0	0.291101
4992	0	0.201357
4993	0	0.199565
4994	0	0.370115
4995	0	0.55336
4996	0	0.536797
4997	0	0.252964
4998	0	0.252964
4999	0	0.3
5000	0	0.2
5001	0	0.2
5002	0	0.25
5003	0	0.142857
5004	0	0.142857
5005	0	0.227513
5006	0	0.0666667
5007	0	0.0666667
5008	0	0.0666667
5009	0	0.230159
5010	0	0.230159
5011	0	0.214286
5012	0	0.214286
5013	0	0.221675
5014	0	0.1
5015	0	0.075
5016	0	0.075
5017	0	0.0857143
5018	0	0.0909091
5019	0	0.277778
5020	0	0.277778
5021	0	0.333333
5022	0	0.416667
5023	0	0.355556
5024	0	0.355556
5025	0	0.355556
5026	0	0.535714
5027	0	0.535714
5028	0	0.242481
5029	0	0.323887
5030	0	0.31444
5031	0	0.299595
5032	0	0.196078
5033	0	0.196078
5034	0	0.196078
5035	0	0.272727
5036	0	0.272727
5037	0	0.241758
5038	0	0.152047
5039	0	0.152047
5040	0	0.250932
5041	0	0.21164
5042	0	0.773281
5043	0	0.293478
5044	0	0.313333
5045	0	0.323333
5046	0	0.8539
5047	0	0.872931
5048	0	0.876938
5049	0	0.901232
5050	0	0.137931
5051	0	0.137931
5052	0	0.133005
5053	0	0.142857
5054	0	0.125616
5055	0	0.123153
5056	0	0.135468
5057	0	0.135632
5058	0	0.139785
5059	0	0.156989
5060	0	0.153226
5061	0	0.153226
5062	0	0.153226
5063	0	0.153226
5064	0	0.209177
5065	0	0.219231
5066	0	0.776072
5067	0	0.770706
5068	0	0.774433
5069	0	0.767241
5070	0	0.769393
5071	0	0.290909
5072	0	0.1
5073	0	0.166667
5074	0	0
5075	0	0
5076	0	0
5077	0	0
5078	0	0
5079	0	0
5080	0	0
5081	0	0
5082	0	0
5083	0	0
5084	0	0
5085	0	0
5086	0	0
5087	0	0
5088	0	0
5089	0	0
5090	0	0
5091	0	0
5092	0	0
5093	0	0
5094	0	0
5095	0	0
5096	0	0
5097	0	0
5098	0	0
5099	0	0
5100	0	0
5101	0	0
5102	0	0
5103	0	0
5104	0	0
5105	0	0
5106	0	0
5107	0	0
5108	0	0
5109	0	0
5110	0	0
5111	0	0
5112	0	0.88917
5113	0	0.0714286
5114	0	0.0952381
5115	0	0.142857
5116	0	0.142857
5117	0	0.2
5118	0	0.2
5119	0	0.743689
5120	0	0.745453
5121	0	0.743455
5122	0	0.821422
5123	0	0.83364
5124	0	0.842438
5125	0	0.198714
5126	0	0.228164
5127	0	0.0666667
5128	0	0.0897436
5129	0	0.109091
5130	0	0.133333
5131	0	0.133333
5132	0	0.0833333
5133	0	0.107143
5134	0	0.107143
5135	0	0.142857
5136	0	0.142857
5137	0	0.2
5138	0	0.2
5139	0	0.2
5140	0	0.2
5141	0	0.2
5142	0	0.2
5143	0	0.2
5144	0	0.2
5145	0	0.2
5146	0	0.2
5147	0	0.3
5148	0	0.3
5149	0	0.3
5150	0	0.3
5151	0	0.3
5152	0	0.3
5153	0	0.3
5154	0	0.3
5155	0	0.3
5156	0	0.3
5157	0	0.5
5158	0	0.5
5159	0	0
5160	0	0
5161	0	0
5162	0	0
5163	0	0
5164	0	0
5165	0	0
5166	0	0
5167	0	0
5168	0	0
5169	0	0
5170	0	0
5171	0	0
5172	0	0
5173	0	0
5174	0	0
5175	0	0
5176	0	0
5177	0	0
5178	0	0
5179	0	0
5180	0	0
5181	0	0
5182	0	0
5183	0	0
5184	0	0
5185	0	0
5186	0	0
5187	0	0
5188	0	0
5189	0	0
5190	0	0
5191	0	0
5192	0	0
5193	0	0
5194	0	0
5195	0	0
5196	0	0
5197	0	0
5198	0	0
5199	0	0
5200	0	0
5201	0	0
5202	0	0
5203	0	0
5204	0	0
5205	0	0
5206	0	0
5207	0	0
5208	0	0
5209	0	0
5210	0	0
5211	0	0
5212	0	0
5213	0	0
5214	0	0
5215	0	0
5216	0	0
5217	0	0
5218	0	0
5219	0	0
5220	0	0
5221	0	0
5222	0	0
5223	0	0
5224	0	0
5225	0	0
5226	0	0
5227	0	0
5228	0	0
5229	0	0
5230	0	0
5231	0	0
5232	0	0
5233	0	0
5234	0	0
5235	0	0
5236	0	0
5237	0	0
5238	0	0
5239	0	0
5240	0	0
5241	0	0
5242	0	0
5243	0	0
5244	0	0
5245	0	0
5246	0	0
5247	0	0
5248	0	0
5249	0	0
5250	0	0
5251	0	0
5252	0	0
5253	0	0
5254	0	0
5255	0	0
5256	0	0
5257	0	0
5258	0	0
5259	0	0
5260	0	0
5261	0	0
5262	0	0
5263	0	0
5264	0	0
5265	0	0
5266	0	0
5267	0	0
5268	0	0
5269	0	0
5270	0	0
5271	0	0
5272	0	0
5273	0	0
5274	0	0
5275	0	0
5276	0	0
5277	0	0
