Site	ColumnScore	SumOfPairsScore
1	0	1
2	0	0.644444
3	0	0.644444
4	0	0.644444
5	0	0.644444
6	0	0.644444
7	0	0.644444
8	0	0.644444
9	0	0.644444
10	0	0.644444
11	0	0.644444
12	0	0.644444
13	0	0.644444
14	0	0.644444
15	0	0.644444
16	0	0.644444
17	0	0.644444
18	0	0.644444
19	0	0.644444
20	0	0.644444
21	0	0.644444
22	0	0.644444
23	0	0.644444
24	0	0.644444
25	0	0.644444
26	0	0.644444
27	0	0.644444
28	0	0.644444
29	0	0.644444
30	0	0.644444
31	0	0.644444
32	0	0.644444
33	0	0.644444
34	0	0.644444
35	0	0.644444
36	0	0.644444
37	0	0.644444
38	0	0.644444
39	0	0.644444
40	0	0.644444
41	0	0.644444
42	0	0.644444
43	0	0.644444
44	0	0.644444
45	0	0.644444
46	0	0.333333
47	0	0.8
48	1	1
49	1	1
50	1	1
51	1	1
52	1	1
53	1	1
54	1	1
55	1	1
56	1	1
57	1	1
58	1	1
59	1	1
60	1	1
61	1	1
62	1	1
63	1	1
64	1	1
65	1	1
66	1	1
67	1	1
68	1	1
69	1	1
70	1	1
71	1	1
72	1	1
73	1	1
74	1	1
75	1	1
76	1	1
77	1	1
78	1	1
79	1	1
80	1	1
81	1	1
82	1	1
83	1	1
84	1	1
85	1	1
86	1	1
87	1	1
88	1	1
89	1	1
90	1	1
91	1	1
92	1	1
93	1	1
94	1	1
95	1	1
96	1	1
97	1	1
98	1	1
99	1	1
100	1	1
101	1	1
102	1	1
103	1	1
104	1	1
105	1	1
106	1	1
107	1	1
108	0	1
109	0	1
110	0	1
111	0	1
112	0	1
113	0	1
114	0	1
115	0	1
116	0	1
117	0	1
118	0	1
119	0	1
120	0	1
121	0	1
122	0	1
123	0	1
124	0	1
125	0	1
126	0	1
127	0	1
128	0	1
129	0	1
130	0	1
131	0	1
132	0	1
133	0	1
134	0	1
135	0	1
136	0	1
137	0	1
138	0	1
139	0	1
140	0	1
141	0	1
142	0	1
143	0	1
144	0	1
145	1	1
146	1	1
147	1	1
148	1	1
149	1	1
150	1	1
151	1	1
152	0	1
153	0	1
154	0	1
155	0	1
156	0	1
157	0	1
158	0	1
159	0	1
160	0	1
161	0	1
162	0	1
163	0	1
164	0	1
165	0	1
166	0	1
167	0	1
168	0	1
169	0	1
170	0	1
171	0	1
172	0	1
173	0	1
174	0	1
175	0	1
176	0	1
177	0	1
178	0	1
179	0	1
180	0	1
181	0	1
182	1	1
183	1	1
184	1	1
185	1	1
186	1	1
187	1	1
188	1	1
189	1	1
190	1	1
191	0	1
192	0	1
193	0	1
194	0	1
195	0	1
196	0	1
197	0	1
198	0	1
199	1	1
200	1	1
201	1	1
202	1	1
203	1	1
204	1	1
205	1	1
206	1	1
207	1	1
208	1	1
209	1	1
210	1	1
211	1	1
212	1	1
213	1	1
214	1	1
215	1	1
216	1	1
217	1	1
218	1	1
219	1	1
220	1	1
221	1	1
222	1	1
223	1	1
224	1	1
225	1	1
226	1	1
227	1	1
228	1	1
229	1	1
230	1	1
231	1	1
232	1	1
233	1	1
234	1	1
235	1	1
236	1	1
237	1	1
238	1	1
239	1	1
240	1	1
241	1	1
242	1	1
243	1	1
244	1	1
245	1	1
246	1	1
247	1	1
248	1	1
249	1	1
250	1	1
251	1	1
252	1	1
253	1	1
254	1	1
255	1	1
256	1	1
257	1	1
258	1	1
259	1	1
260	1	1
261	1	1
262	1	1
263	1	1
264	1	1
265	1	1
266	1	1
267	1	1
268	0	1
269	0	1
270	0	1
271	0	1
272	0	1
273	0	1
274	0	1
275	0	1
276	1	1
277	1	1
278	0	1
279	0	1
280	0	1
281	0	1
282	0	1
283	0	1
284	0	1
285	0	1
286	0	1
287	0	1
288	0	1
289	1	1
290	1	1
291	1	1
292	1	1
293	1	1
294	1	1
295	1	1
296	1	1
297	1	1
298	0	1
299	0	1
300	0	1
301	0	1
302	0	1
303	0	1
304	0	1
305	0	1
306	0	1
307	0	1
308	0	1
309	1	1
310	1	1
311	1	1
312	1	1
313	1	1
314	1	1
315	1	1
316	1	1
317	1	1
318	1	1
319	1	1
320	1	1
321	1	1
322	1	1
323	1	1
324	1	1
325	1	1
326	1	1
327	1	1
328	0	1
329	0	1
330	0	1
331	0	1
332	0	1
333	0	1
334	0	1
335	0	1
336	1	1
337	1	1
338	1	1
339	1	1
340	1	1
341	1	1
342	1	1
343	1	1
344	1	1
345	1	1
346	1	1
347	1	1
348	1	1
349	1	1
350	1	1
351	1	1
352	1	1
353	1	1
354	1	1
355	1	1
356	1	1
357	1	1
358	1	1
359	1	1
360	1	1
361	1	1
362	0	1
363	0	1
364	0	1
365	0	1
366	0	1
367	0	1
368	0	1
369	0	1
370	0	1
371	0	1
372	0	1
373	0	1
374	0	1
375	0	1
376	0	1
377	0	1
378	0	1
379	0	1
380	0	1
381	0	1
382	0	1
383	0	1
384	0	1
385	0	1
386	0	1
387	0	1
388	0	1
389	0	1
390	0	1
391	0	1
392	0	1
393	0	1
394	1	1
395	0	1
396	0	1
397	0	1
398	0	1
399	0	1
400	0	1
401	0	1
402	0	1
403	0	1
404	0	1
405	0	1
406	0	1
407	0	1
408	0	1
409	0	1
410	0	1
411	0	1
412	0	1
413	0	1
414	0	1
415	0	1
416	0	1
417	0	1
418	0	1
419	0	1
420	0	1
421	0	1
422	0	1
423	0	1
424	0	1
425	1	1
426	0	1
427	0	1
428	0	1
429	0	1
430	0	1
431	0	1
432	0	1
433	0	1
434	0	1
435	0	1
436	0	1
437	0	1
438	0	1
439	0	1
440	0	1
441	0	1
442	0	1
443	0	1
444	0	1
445	0	1
446	0	1
447	0	1
448	0	1
449	0	1
450	0	1
451	0	1
452	0	1
453	0	1
454	0	1
455	0	1
456	0	1
457	0	1
458	0	1
459	0	1
460	0	1
461	0	1
462	0	1
463	0	1
464	0	1
465	0	1
466	0	1
467	0	1
468	0	1
469	0	1
470	0	1
471	0	1
472	0	0.818182
473	0	0.818182
474	0	0.818182
475	0	0.818182
476	0	0.818182
477	0	0.818182
478	0	0.818182
479	0	0.818182
480	0	0.818182
481	0	0.818182
482	0	0.818182
483	0	0.818182
484	0	0.818182
485	0	0.818182
486	0	0.818182
487	0	0.818182
488	0	0.818182
489	0	0.818182
490	0	0.818182
491	0	0.818182
492	0	0.818182
493	0	0.818182
494	0	0.818182
495	0	0.818182
496	0	0.818182
497	0	0.818182
498	0	0.818182
499	0	0.818182
500	0	0.818182
501	0	0.818182
502	0	0.818182
503	0	0.818182
504	0	0.818182
505	0	0.818182
506	0	0.818182
507	0	0.818182
508	0	0.818182
509	0	0.818182
510	0	0.818182
511	0	0.818182
512	0	0.818182
513	0	0.818182
514	0	0.818182
515	0	0.818182
516	0	0.818182
517	0	0.818182
518	0	0.818182
519	0	0.818182
520	0	0.818182
521	0	0.818182
522	0	0.818182
523	0	0.818182
524	0	0.818182
525	0	0.818182
526	0	0.818182
527	0	0.818182
528	0	0.818182
529	0	0.818182
530	0	0.681818
531	0	0.681818
532	0	0.681818
533	0	0.681818
534	0	0.681818
535	0	0.681818
536	0	0.681818
537	0	0.681818
538	0	0.681818
539	0	0.681818
540	0	0.681818
541	0	0.681818
542	0	0.681818
543	0	0.681818
544	0	0.681818
545	0	0.681818
546	0	0.681818
547	0	0.681818
548	0	0.681818
549	0	0.681818
550	0	0.681818
551	0	0.681818
552	0	0.681818
553	0	0.681818
554	0	0.681818
555	0	0.681818
556	0	0.681818
557	0	0.681818
558	0	0.681818
559	0	0.681818
560	0	0.681818
561	0	0.681818
562	0	0.681818
563	0	0.681818
564	0	0.681818
565	0	0.681818
566	0	0.681818
567	0	0.681818
568	0	0.681818
569	0	0.681818
570	0	0.681818
571	0	0.681818
572	0	0.681818
573	0	0.681818
574	0	0.681818
575	0	0.681818
576	0	0.681818
577	0	0.681818
578	0	0.681818
579	0	0.681818
580	0	0.681818
581	0	0.681818
582	0	0.681818
583	0	0.681818
584	0	0.681818
585	0	0.681818
586	0	0.681818
587	0	0.681818
588	0	0.681818
589	0	0.681818
590	0	0.681818
591	0	0.681818
592	0	0.681818
593	0	0.681818
594	0	0.681818
595	0	0.681818
596	0	0.681818
597	0	0.681818
598	0	0.681818
599	0	0.681818
600	0	0.681818
601	0	0.681818
602	0	0.681818
603	0	0.681818
604	0	0.681818
605	0	0.681818
606	0	0.681818
607	0	0.681818
608	0	0.681818
609	0	0.681818
610	0	0.681818
611	0	0.681818
612	0	0.681818
613	0	0.681818
614	0	0.681818
615	0	0.681818
616	0	0.681818
617	0	0.681818
618	0	0.681818
619	0	0.681818
620	0	0.681818
621	0	0.681818
622	0	0.681818
623	0	0.681818
624	0	0.681818
625	0	0.681818
626	0	0.681818
627	0	0.681818
628	0	0.681818
629	0	0.681818
630	0	0.681818
631	0	0.681818
632	0	0.681818
633	0	0.681818
634	0	0.681818
635	0	0.681818
636	0	0.681818
637	0	0.681818
638	0	0.681818
639	0	0.681818
640	0	0.681818
641	0	0.681818
642	0	0.681818
643	0	0.681818
644	0	0.681818
645	0	0.681818
646	0	0.681818
647	0	0.681818
648	0	0.681818
649	0	0.681818
650	0	0.681818
651	0	0.681818
652	0	0.681818
653	0	0.681818
654	0	0.681818
655	0	0.681818
656	0	0.681818
657	0	0.576923
658	0	0.576923
659	0	0.576923
660	0	0.576923
661	0	0.576923
662	0	0.576923
663	0	0.576923
664	0	0.576923
665	0	0.576923
666	0	0.576923
667	0	0.576923
668	0	0.494505
669	0	0.494505
670	0	0.494505
671	0	0.494505
672	0	0.494505
673	0	0.494505
674	0	0.494505
675	0	0.494505
676	0	0.494505
677	0	0.494505
678	0	0.494505
679	0	0.494505
680	0	0.494505
681	0	0.494505
682	0	0.494505
683	0	0.494505
684	0	0.494505
685	0	0.494505
686	0	0.494505
687	0	0.494505
688	0	0.494505
689	0	0.494505
690	0	0.494505
691	0	0.494505
692	0	0.494505
693	0	0.494505
694	0	0.494505
695	0	0.494505
696	0	0.494505
697	0	0.494505
698	0	0.494505
699	0	0.494505
700	0	0.494505
701	0	0.494505
702	0	0.494505
703	0	0.494505
704	0	0.494505
705	0	0.494505
706	0	0.494505
707	0	0.494505
708	0	0.494505
709	0	0.494505
710	0	0.494505
711	0	0.494505
712	0	0.494505
713	0	0.494505
714	0	0.494505
715	0	0.494505
716	0	0.494505
717	0	0.494505
718	0	0.494505
719	0	0.494505
720	0	0.494505
721	0	0.494505
722	0	0.494505
723	0	0.494505
724	0	0.494505
725	0	0.494505
726	0	0.494505
727	0	0.494505
728	0	0.494505
729	0	0.494505
730	0	0.494505
731	0	0.494505
732	0	0.494505
733	0	0.494505
734	0	0.494505
735	0	0.494505
736	0	0.494505
737	0	0.494505
738	0	0.494505
739	0	0.494505
740	0	0.494505
741	0	0.494505
742	0	0.494505
743	0	0.494505
744	0	0.494505
745	0	0.494505
746	0	0.494505
747	0	0.494505
748	0	0.494505
749	0	0.494505
750	0	0.494505
751	0	0.494505
752	0	0.494505
753	0	0.494505
754	0	0.494505
755	0	0.494505
756	0	0.494505
757	0	0.494505
758	0	0.494505
759	0	0.494505
760	0	0.494505
761	0	0.494505
762	0	0.494505
763	0	0.494505
764	0	0.494505
765	0	0.494505
766	0	0.494505
767	0	0.494505
768	0	0.494505
769	0	0.494505
770	0	0.494505
771	0	0.494505
772	0	0.494505
773	0	0.494505
774	0	0.494505
775	0	0.494505
776	0	0.494505
777	0	0.494505
778	0	0.494505
779	0	0.494505
780	0	0.494505
781	0	0.494505
782	0	0.494505
783	0	0.494505
784	0	0.494505
785	0	0.494505
786	0	0.494505
787	0	0.494505
788	0	0.494505
789	0	0.494505
790	0	0.494505
791	0	0.494505
792	0	0.494505
793	0	0.494505
794	0	0.494505
795	0	0.494505
796	0	0.494505
797	0	0.494505
798	0	0.494505
799	0	0.494505
800	0	0.494505
801	0	0.494505
802	0	0.494505
803	0	0.494505
804	0	0.494505
805	0	0.494505
806	0	0.494505
807	0	0.494505
808	0	0.494505
809	0	0.494505
810	0	0.494505
811	0	0.494505
812	0	0.494505
813	0	0.494505
814	0	0.494505
815	0	0.494505
816	0	0.494505
817	0	0.494505
818	0	0.494505
819	0	0.494505
820	0	0.494505
821	0	0.494505
822	0	0.494505
823	0	0.494505
824	0	0.494505
825	0	0.494505
826	0	0.494505
827	0	0.494505
828	0	0.494505
829	0	0.494505
830	0	0.494505
831	0	0.494505
832	0	0.494505
833	0	0.494505
834	0	0.494505
835	0	0.494505
836	0	0.494505
837	0	0.494505
838	0	0.494505
839	0	0.494505
840	0	0.494505
841	0	0.428571
842	0	0.428571
843	0	0.428571
844	0	0.428571
845	0	0.428571
846	0	0.428571
847	0	0.428571
848	0	0.428571
849	0	0.428571
850	0	0.428571
851	0	0.428571
852	0	0.428571
853	0	0.428571
854	0	0.428571
855	0	0.428571
856	0	0.428571
857	0	0.428571
858	0	0.428571
859	0	0.428571
860	0	0.428571
861	0	0.428571
862	0	0.428571
863	0	0.428571
864	0	0.428571
865	0	0.428571
866	0	0.428571
867	0	0.428571
868	0	0.428571
869	0	0.428571
870	0	0.428571
871	0	0.375
872	0	0.375
873	0	0.375
874	0	0.375
875	0	0.375
876	0	0.375
877	0	0.375
878	0	0.375
879	0	0.375
880	0	0.375
881	0	0.375
882	0	0.375
883	0	0.375
884	0	0.375
885	0	0.375
886	0	0.375
887	0	0.375
888	0	0.375
889	0	0.375
890	0	0.375
891	0	0.375
892	0	0.375
893	0	0.375
894	0	0.375
895	0	0.375
896	0	0.375
897	0	0.375
898	0	0.375
899	0	0.375
900	0	0.375
901	0	0.375
902	0	0.375
903	0	0.375
904	0	0.375
905	0	0.375
906	0	0.375
907	0	0.330882
908	0	0.330882
909	0	0.330882
910	0	0.330882
911	0	0.330882
912	0	0.330882
913	0	0.330882
914	0	0.330882
915	0	0.330882
916	0	0.330882
917	0	0.330882
918	0	0.330882
919	0	0.330882
920	0	0.330882
921	0	0.330882
922	0	0.330882
923	0	0.330882
924	0	0.263158
925	0	0.263158
926	0	0.236842
927	0	0.236842
928	0	0.236842
929	0	0.236842
930	0	0.236842
931	0	0.236842
932	0	0.236842
933	0	0.236842
934	0	0.236842
935	0	0.236842
936	0	0.214286
937	0	0.214286
938	0	0.203463
939	0	0.203463
940	0	0.203463
941	0	0.189723
942	0	0.189723
943	0	0.189723
944	0	0.189723
945	0	0.189723
946	0	0.189723
947	0	0.189723
948	0	0.189723
949	0	0.189723
950	0	0.359684
951	0	0.359684
952	0	0.359684
953	0	0.41502
954	0	0.537549
955	0	0.252964
956	0	0.284585
957	0	0.366013
958	0	0.461988
959	0	0.461988
960	0	0.573529
961	0	0.509804
962	0	0.633333
963	0	0.65812
964	0	0.913085
965	0	0.978859
966	0	0.986071
967	0	0.986119
968	0	0.989878
969	0	0.989878
970	0	0
971	0	0
972	0	0
973	0	0
974	0	0
975	0	0
976	0	0
977	0	0
978	0	0
979	0	0
980	0	0
981	0	0
982	0	0
983	0	0
984	0	0
985	0	0
986	0	0
987	0	0
988	0	0
989	0	0
990	0	0
991	0	0
992	0	0
993	0	0
994	0	0
995	0	0
996	0	0
997	0	0
998	0	0
999	0	0
1000	0	0
1001	0	0
1002	0	0
1003	0	0
1004	0	0
1005	0	0
1006	0	0
1007	0	0
1008	0	0
1009	0	0
1010	0	0
1011	0	0
1012	0	0
1013	0	0
1014	0	0
1015	0	0
1016	0	0
1017	0	0
1018	0	0
1019	0	0
1020	0	0
1021	0	0
1022	0	0
1023	0	0
1024	0	0
1025	0	0
1026	0	0
1027	0	0
1028	0	0
1029	0	0
1030	0	0
1031	0	0
1032	0	0
1033	0	0
1034	0	0
1035	0	0
1036	0	0
1037	0	0
1038	0	0
1039	0	0
1040	0	0
1041	0	0
1042	0	0
1043	0	0
1044	0	0
1045	0	0
1046	0	0
1047	0	0
1048	0	0
1049	0	0
1050	0	0
1051	0	0
1052	0	0
1053	0	0
1054	0	0
1055	0	0
1056	0	0
1057	0	0
1058	0	0
1059	0	0
1060	0	0
1061	0	0
1062	0	0
1063	0	0
1064	0	0
1065	0	0
1066	0	0
1067	0	0
1068	0	0
1069	0	0
1070	0	0
1071	0	0
1072	0	0
1073	0	0
1074	0	0
1075	0	0
1076	0	0
1077	0	0
1078	0	0
1079	0	0
1080	0	0
1081	0	0
1082	0	0
1083	0	0
1084	0	0
1085	0	0
1086	0	0
1087	0	0
1088	0	0
1089	0	0
1090	0	0
1091	0	0
1092	0	0
1093	0	0
1094	0	0
1095	0	0
1096	0	0
1097	0	0
1098	0	0
1099	0	0
1100	0	0
1101	0	0
1102	0	0
1103	0	0
1104	0	0
1105	0	0
1106	0	0
1107	0	0
1108	0	0
1109	0	0
1110	0	0
1111	0	0
1112	0	0
1113	0	0
1114	0	0
1115	0	0
1116	0	0
1117	0	0
1118	0	0
1119	0	0
1120	0	0
1121	0	0
1122	0	0
1123	0	0
1124	0	0
1125	0	0
1126	0	0
1127	0	0
1128	0	0
1129	0	0
1130	0	0
1131	0	0
1132	0	0
1133	0	0
1134	0	0
1135	0	0
1136	0	0
1137	0	0
1138	0	0
1139	0	0
1140	0	0
1141	0	0
1142	0	0
1143	0	0
1144	0	0
1145	0	0
1146	0	0
1147	0	0
1148	0	0
1149	0	0
1150	0	0
1151	0	0
1152	0	0
1153	0	0
1154	0	0
1155	0	0
1156	0	0
1157	0	0
1158	0	0
1159	0	0
1160	0	0
1161	0	0
1162	0	0
1163	0	0
1164	0	0
1165	0	0
1166	0	0
1167	0	0
1168	0	0
1169	0	0
1170	0	0
1171	0	0
1172	0	0
1173	0	0
1174	0	0
1175	0	0
1176	0	0
1177	0	0
1178	0	0
1179	0	0
1180	0	0
1181	0	0
1182	0	0
1183	0	0
1184	0	0
1185	0	0
1186	0	0
1187	0	0
1188	0	0
1189	0	0
1190	0	0
1191	0	0
1192	0	0
1193	0	0
1194	0	0.994932
1195	0	0.994932
1196	0	0.994932
1197	0	0.994932
1198	0	0.994932
1199	0	0.994932
1200	0	0.994932
1201	0	0
1202	0	0
1203	0	0
1204	0	0.998308
1205	0	0.998308
1206	0	0.99662
1207	0	0.99662
1208	0	0.994932
1209	0	0.99662
1210	0	0.99662
1211	0	0.99662
1212	0	0.99662
1213	1	1
1214	0	0.993257
1215	0	0.993257
1216	0	0.994937
1217	0	0.993263
1218	0	0.993263
1219	0	0.993263
1220	0	0.984888
1221	0	0.666667
1222	0	0
1223	0	0
1224	0	0
1225	0	0
1226	0	0
1227	0	0
1228	0	0
1229	0	0.99159
1230	0	0.99159
1231	0	0.993263
1232	0	0.993263
1233	0	0.991583
1234	0	0.991583
1235	0	0.991575
1236	0	0.991575
1237	0	0.991547
1238	0	0.6
1239	0	0.986478
1240	0	0
1241	0	0
1242	0	0
1243	0	0
1244	0	0
1245	0	0
1246	0	0
1247	0	0
1248	0	0
1249	0	0
1250	0	0
1251	0	0
1252	0	0
1253	0	0
1254	0	0
1255	0	0
1256	0	0
1257	0	0
1258	0	0
1259	0	0
1260	0	0
1261	0	0
1262	0	0
1263	0	0
1264	0	0
1265	0	0
1266	0	0
1267	0	0
1268	0	0
1269	0	0
1270	0	0
1271	0	0
1272	0	0
1273	0	0
1274	0	0
1275	0	0
1276	0	0
1277	0	0
1278	0	0
1279	0	0.971429
1280	0	0.869887
1281	0	0.871462
1282	0	0.873038
1283	0	0.87146
1284	0	0.25
1285	0	0.25
1286	0	0.868622
1287	0	0.866965
1288	0	0.976521
1289	0	0
1290	0	0
1291	0	0
1292	0	0
1293	0	0
1294	0	0
1295	0	0
1296	0	0
1297	0	0
1298	0	0
1299	0	0
1300	0	0
1301	0	0
1302	0	0
1303	0	0
1304	0	0
1305	0	0
1306	0	0
1307	0	0
1308	0	0
1309	0	0
1310	0	0
1311	0	0
1312	0	0
1313	0	0
1314	0	0
1315	0	0
1316	0	0
1317	0	0
1318	0	0
1319	0	0
1320	0	0
1321	0	0
1322	0	0
1323	0	0
1324	0	0
1325	0	0
1326	0	0
1327	0	0
1328	0	0
1329	0	0
1330	0	0.1
1331	0	0.973199
1332	0	0.973199
1333	0	0.973105
1334	0	0.96304
1335	0	0.725275
1336	0	0.411765
1337	0	0.939278
1338	0	0.922887
1339	0	1
1340	0	0
1341	0	0
1342	0	0
1343	0	0
1344	0	0
1345	0	0.913732
1346	0	0
1347	0	0
1348	0	0
1349	0	0
1350	0	0.74182
1351	0	0.809831
1352	0	0.781832
1353	0	0.675381
1354	0	0.675641
1355	0	0.420799
1356	0	0.511551
1357	0	0.510924
1358	0	0.6
1359	0	0.616601
1360	0	0.585714
1361	0	0.439394
1362	0	0.439394
1363	0	0.235698
1364	0	0.22425
1365	0	0.0666667
1366	0	0.101149
1367	0	0.171307
1368	0	0.196988
1369	0	0.216813
1370	0	0.608696
1371	0	0.608696
1372	0	0.466667
1373	0	0.333333
1374	0	0.25
1375	0	0.214286
1376	0	0.253016
1377	0	0.348485
1378	0	0.348485
1379	0	0.241627
1380	0	0.172827
1381	0	0.144019
1382	0	0.124884
1383	0	0.10678
1384	0	0.144765
1385	0	0.4
1386	0	0.333333
1387	0	0.333333
1388	0	0
1389	0	0
1390	0	0.166667
1391	0	0.166667
1392	0	0.166667
1393	0	0.166667
1394	0	0.166667
1395	0	0.166667
1396	0	0.119441
1397	0	0.833333
1398	0	0.135391
1399	0	1
1400	0	1
1401	0	1
1402	0	0
1403	0	0
1404	0	0
1405	0	0.133939
1406	0	0.088786
1407	0	0.103631
1408	0	0.0918179
1409	0	0.0840294
1410	0	0.076087
1411	0	0.128655
1412	0	0.1
1413	0	0
1414	0	0
1415	0	0
1416	0	0
1417	0	0
1418	0	0
1419	0	0.123428
1420	0	0.0676994
1421	0	0.070568
1422	0	0.0638867
1423	0	0.0654377
1424	0	0.0453412
1425	0	0.156156
1426	0	0.156156
1427	0	0.154655
1428	0	0.218462
1429	0	0.218462
1430	0	0.0753153
1431	0	0.0473738
1432	0	0.475
1433	0	0.322638
1434	0	0.272727
1435	0	0.393939
1436	0	0.173711
1437	0	0.167961
1438	0	0
1439	0	0
1440	0	0
1441	0	0
1442	0	0
1443	0	0
1444	0	0
1445	0	0
1446	0	0
1447	0	0
1448	0	0
1449	0	0
1450	0	0
1451	0	0
1452	0	0
1453	0	0
1454	0	0
1455	0	0
1456	0	0
1457	0	0
1458	0	0
1459	0	0
1460	0	0
1461	0	0
1462	0	0
1463	0	0
1464	0	0
1465	0	0
1466	0	0
1467	0	0
1468	0	0
1469	0	0
1470	0	0
1471	0	0
1472	0	0
1473	0	0
1474	0	0
1475	0	0
1476	0	0
1477	0	0
1478	0	0
1479	0	0
1480	0	0
1481	0	0
1482	0	0
1483	0	0
1484	0	0
1485	0	0
1486	0	0
1487	0	0
1488	0	0
1489	0	0
1490	0	0
1491	0	0
1492	0	0
1493	0	0
1494	0	0
1495	0	0
1496	0	0
1497	0	0
1498	0	0
1499	0	0
1500	0	0
1501	0	0
1502	0	0
1503	0	0
1504	0	0
1505	0	0
1506	0	0
1507	0	0
1508	0	0
1509	0	0
1510	0	0
1511	0	0
1512	0	0
1513	0	0
1514	0	0
1515	0	0
1516	0	0
1517	0	0
1518	0	0
1519	0	0
1520	0	0
1521	0	0
1522	0	0
1523	0	0
1524	0	0
1525	0	0
1526	0	0
1527	0	0
1528	0	0
1529	0	0
1530	0	0
1531	0	0
1532	0	0
1533	0	0
1534	0	0
1535	0	0
1536	0	0
1537	0	0
1538	0	0
1539	0	0
1540	0	0
1541	0	0
1542	0	0
1543	0	0
1544	0	0
1545	0	0
1546	0	0
1547	0	0
1548	0	0
1549	0	0
1550	0	0
1551	0	0
1552	0	0
1553	0	0
1554	0	0
1555	0	0
1556	0	0
1557	0	0
1558	0	0
1559	0	0
1560	0	0
1561	0	0
1562	0	0
1563	0	0
1564	0	0
1565	0	0
1566	0	0
1567	1	0
1568	1	0
1569	1	0
1570	1	0
1571	1	0
1572	1	0
1573	1	0
1574	1	0
1575	1	0
1576	1	0
1577	1	0
1578	1	0
1579	1	0
1580	1	0
1581	1	0
1582	1	0
1583	1	0
1584	1	0
1585	1	0
1586	1	0
1587	1	0
1588	1	0
1589	1	0
1590	1	0
1591	1	0
1592	1	0
1593	1	0
1594	1	0
1595	1	0
1596	1	0
1597	1	0
1598	1	0
1599	1	0
1600	0	0
1601	0	0
1602	0	0
1603	0	0
1604	0	0
1605	0	0
1606	0	0
1607	0	0
1608	0	0
1609	0	0
1610	1	0
1611	1	0
1612	1	0
1613	1	0
1614	1	0
1615	1	0
1616	1	0
1617	1	0
1618	1	0
1619	1	0
1620	1	0
1621	1	0
1622	0	0
1623	0	0
1624	0	0
1625	0	0
1626	0	0
1627	0	0
1628	0	0
1629	0	0
1630	0	0
1631	0	0
1632	0	0
1633	0	0
1634	0	0
1635	0	0
1636	0	0
1637	0	0
1638	0	0
1639	0	0
1640	0	0
1641	0	0
1642	0	0
1643	0	0
1644	0	0
1645	0	0
1646	0	0
1647	0	0.333333
1648	0	0.333333
1649	0	0
1650	0	0.1
1651	0	0.166667
1652	0	0
1653	0	0
1654	0	0.515403
1655	0	0.25
1656	0	0.142857
1657	0	0.133333
1658	0	0.0952381
1659	0	0.0952381
1660	0	0.21303
1661	0	0.218198
1662	0	0.192447
1663	0	0.168405
1664	0	0.316176
1665	0	0.316176
1666	0	0
1667	0	0.4
1668	0	0.4
1669	0	0.321429
1670	0	0.333333
1671	0	0.318182
1672	0	0.534426
1673	0	0.25744
1674	0	0.12543
1675	0	0.178509
1676	0	0.283838
1677	0	0.320272
1678	0	0.105072
1679	0	0.0761905
1680	0	0.489497
1681	0	0.530812
1682	0	0
1683	0	0.166667
1684	0	0.333333
1685	0	0.333333
1686	0	0.4
1687	0	0.4
1688	0	0.466667
1689	0	0.466667
1690	0	0.7598
1691	0	0.734222
1692	0	0.807045
1693	0	0.855322
1694	0	0.779519
1695	0	0.383333
1696	0	0.474359
1697	0	0.371795
1698	0	0.509091
1699	0	0.509091
1700	0	0.424242
1701	0	0.333333
1702	0	0.333333
1703	0	0.0909091
1704	0	0.106061
1705	0	0
1706	0	0
1707	0	0
1708	0	0
1709	0	0
1710	0	0
1711	0	0
1712	0	0
1713	0	0
1714	0	0
1715	0	0
1716	0	0
1717	0	0
1718	0	0
1719	0	1
1720	0	0.0487383
1721	0	0.0763889
1722	0	0.078341
1723	0	0.0846113
1724	0	0.0967742
1725	0	0.094246
1726	0	0.0434335
1727	0	0.164935
1728	0	0.158387
1729	0	0.158971
1730	0	0.0408769
1731	0	0.194444
1732	0	0.194444
1733	0	0.194444
1734	0	0.194444
1735	0	0.190476
1736	0	0.190476
1737	0	0.142857
1738	0	0.285714
1739	0	0.1
1740	0	0.171963
1741	0	0.189818
1742	0	0.123674
1743	0	0.146782
1744	0	0.203922
1745	0	0.255556
1746	0	0.296667
1747	0	0.131868
1748	0	0.104762
1749	0	0.257302
1750	0	0.259836
1751	0	0.284011
1752	0	0
1753	0	0
1754	0	0
1755	0	0
1756	0	0
1757	0	0.2
1758	0	0.2
1759	0	0.1
1760	0	0.0666667
1761	0	0.166667
1762	0	0.133333
1763	0	0.266667
1764	0	0.266667
1765	0	0.266667
1766	0	0.444444
1767	0	0.392857
1768	0	0.0509802
1769	0	0
1770	0	0
1771	0	0
1772	0	0
1773	0	0
1774	0	0
1775	0	0.0609111
1776	0	0.0802962
1777	0	0.0844048
1778	0	0.137596
1779	0	0.0418808
1780	0	0.0437624
1781	0	0.0427023
1782	0	0.126238
1783	0	0.109868
1784	0	0.104643
1785	0	0.0725754
1786	0	0.0667659
1787	0	0.0736108
1788	0	0.047619
1789	0	0.0714286
1790	0	0.0649523
1791	0	0.0614823
1792	0	0.0743705
1793	0	0.104967
1794	0	0.0983088
1795	0	0.219048
1796	0	0.219048
1797	0	0.142857
1798	0	0.178571
1799	0	0.238095
1800	0	0.238095
1801	0	0.238095
1802	0	0.238095
1803	0	0.0922782
1804	0	0.145912
1805	0	0.133967
1806	0	0.0952418
1807	0	0.2
1808	0	0.289231
1809	0	0.289231
1810	0	0.10529
1811	0	0.111983
1812	0	0
1813	0	0
1814	0	0
1815	0	0.304094
1816	0	0.327485
1817	0	0.352632
1818	0	0.405263
1819	0	0.405263
1820	0	0.721053
1821	0	0.721053
1822	0	0.652381
1823	0	0.652381
1824	0	0.129801
1825	0	0
1826	0	0
1827	0	0
1828	0	0
1829	0	0
1830	0	0
1831	0	0
1832	0	0
1833	0	0
1834	0	0
1835	0	0
1836	0	0
1837	0	0
1838	0	0
1839	0	0
1840	0	0
1841	0	0
1842	0	0
1843	0	0
1844	0	0.278831
1845	0	0.277364
1846	0	0.315116
1847	0	0.166667
1848	0	0.166667
1849	0	0.166667
1850	0	0.136364
1851	0	0.2
1852	0	0.231908
1853	0	0.223741
1854	0	0.295238
1855	0	0.202899
1856	0	0.610463
1857	0	0.237024
1858	0	0.225593
1859	0	0.301133
1860	0	0.252614
1861	0	0.237013
1862	0	0.102834
1863	0	0.126535
1864	0	0.133333
1865	0	0.133333
1866	0	0.438406
1867	0	0.167016
1868	0	0.487179
1869	0	0.417582
1870	0	0.378788
1871	0	0.444444
1872	0	0.444444
1873	0	0.392857
1874	0	0.392857
1875	0	0.666667
1876	0	0.666667
1877	0	0.666667
1878	0	0.3
1879	0	0.190476
1880	0	0.138889
1881	0	0.329802
1882	0	0.324289
1883	0	0.370469
1884	0	0.432761
1885	0	0.552815
1886	0	0.283922
1887	0	0.321212
1888	0	0.545455
1889	0	0.746241
1890	0	0.820789
1891	0	0.836743
1892	0	1
1893	0	0.892184
1894	0	0.94153
1895	0	0.333333
1896	0	0.333333
1897	0	0.333333
1898	0	0.333333
1899	0	0.333333
1900	0	0.333333
1901	0	1
1902	0	1
1903	0	1
1904	0	0.973276
1905	0	0.8
1906	0	1
1907	0	0.991611
1908	0	0.991611
1909	0	0.991611
1910	0	0.989947
1911	0	0
1912	0	0
1913	0	0
1914	0	0
1915	0	0
1916	0	0
1917	0	0
1918	0	0
1919	0	0
1920	0	0
1921	0	0
1922	0	0
1923	0	0
1924	0	0
1925	0	0
1926	0	0
1927	0	0
1928	0	0
1929	0	0
1930	0	0
1931	0	0
1932	0	0
1933	0	0
1934	0	0.989975
1935	0	1
1936	0	0.98995
1937	0	0.98995
1938	0	0.988279
1939	0	1
1940	0	1
1941	0	0.989917
1942	0	0.989917
1943	0	1
1944	0	1
1945	0	0.666667
1946	0	0.666667
1947	0	0.975494
1948	0	1
1949	0	1
1950	0	1
1951	0	1
1952	0	1
1953	0	1
1954	0	1
1955	0	0.333333
1956	0	0
1957	0	0
1958	0	0
1959	0	0
1960	0	0.660633
1961	0	0.805858
1962	0	0
1963	0	0
1964	0	0
1965	0	0.887632
1966	0	0.923137
1967	0	0.696716
1968	0	0.649168
1969	0	0.9
1970	0	0.9
1971	0	0.9
1972	0	0.720218
1973	0	0.407132
1974	0	0.515186
1975	0	0.334495
1976	0	0.221212
1977	0	0.259497
1978	0	0.2
1979	0	0.166667
1980	0	0.166667
1981	0	0.333333
1982	0	0.326923
1983	0	0.189916
1984	0	0.19986
1985	0	0.166667
1986	0	0.0952381
1987	0	0.196021
1988	0	0.249412
1989	0	0.224314
1990	0	0.228185
1991	0	0.333333
1992	0	0
1993	0	0
1994	0	0
1995	0	0.116809
1996	0	0.202425
1997	0	0.236453
1998	0	0.407407
1999	0	0.563492
2000	0	0.191388
2001	0	0
2002	0	0
2003	0	0
2004	0	0
2005	0	0
2006	0	0
2007	0	0
2008	0	0
2009	0	0
2010	0	0.268502
2011	0	0.109091
2012	0	0.109091
2013	0	0.136364
2014	0	0.439394
2015	0	0.505495
2016	0	0.494505
2017	0	0.764399
2018	0	0.269841
2019	0	0
2020	0	0
2021	0	0
2022	0	0
2023	0	0
2024	0	0.420441
2025	0	0.492802
2026	0	0.725275
2027	0	0.722723
2028	0	0.278947
2029	0	0.278947
2030	0	0.787262
2031	0	0.5
2032	0	0.5
2033	0	1
2034	0	1
2035	0	0.466667
2036	0	0.466667
2037	0	0.466667
2038	0	0.466667
2039	0	0.834064
2040	0	0.798009
2041	0	0.896159
2042	0	0.808974
2043	0	0
2044	0	0
2045	0	0
2046	0	0
2047	0	0
2048	0	0
2049	0	0.929589
2050	0	0
2051	0	0
2052	0	0
2053	0	0
2054	0	0
2055	0	0
2056	0	0
2057	0	0
2058	0	0
2059	0	0
2060	0	0
2061	0	0
2062	0	0
2063	0	0
2064	0	0
2065	0	0.984819
2066	0	0.981482
2067	0	0
2068	0	0
2069	0	0
2070	0	0
2071	0	0
2072	0	1
2073	0	1
2074	0	1
2075	0	1
2076	0	0.981607
2077	0	0.321429
2078	0	0.428571
2079	0	0.428571
2080	0	0.6
2081	0	0.6
2082	0	0.6
2083	0	0.6
2084	0	0.980002
2085	0	0.978363
2086	0	0.498873
2087	0	1
2088	0	0.695655
2089	0	0.683907
2090	0	0.716844
2091	0	0.51954
2092	0	0.624519
2093	0	0.8268
2094	0	0.955275
2095	0	0.953682
2096	0	0.953644
2097	0	1
2098	1	1
2099	0	1
2100	0	0.971371
2101	0	0
2102	0	0
2103	0	0.047619
2104	0	0.0666667
2105	0	0.1
2106	0	0.133333
2107	0	0.133333
2108	0	0.133333
2109	0	0.133333
2110	0	0.786356
2111	0	0.133333
2112	0	0.0952381
2113	0	0.679426
2114	0	0.774603
2115	0	0
2116	0	0
2117	0	0.428571
2118	0	0.693754
2119	0	0.69149
2120	0	0.696991
2121	0	0.704847
2122	0	0.121212
2123	0	0.0666667
2124	0	0.358974
2125	0	0
2126	0	0
2127	0	0
2128	0	0
2129	0	0
2130	0	0
2131	0	0
2132	0	0
2133	0	0
2134	0	0
2135	0	0
2136	0	0
2137	0	0.1
2138	0	0.1
2139	0	0.166667
2140	0	0.993315
2141	0	0.993326
2142	0	0.993326
2143	0	0
2144	0	0.991661
2145	0	0.991661
2146	0	0.991661
2147	0	0.952381
2148	0	0.95122
2149	0	0.630319
2150	0	0.505682
2151	0	0.893528
2152	0	0.864371
2153	0	0.876458
2154	0	0.70101
2155	0	0.621647
2156	0	0.601133
2157	0	0.425249
2158	0	0.29299
2159	0	0.285714
2160	0	0.4
2161	0	0
2162	0	0
2163	0	0
2164	0	0
2165	0	0
2166	0	0
2167	0	0
2168	0	0.296986
2169	0	0.857143
2170	0	0.705128
2171	0	0.318182
2172	0	0
2173	0	0
2174	0	0
2175	0	0
2176	0	0.166667
2177	0	0.636842
2178	0	0.379832
2179	0	0.307563
2180	0	0.342193
2181	0	0.635407
2182	0	0.47619
2183	0	1
2184	0	1
2185	0	1
2186	0	0
2187	0	0
2188	0	0
2189	0	0
2190	0	0
2191	0	0
2192	0	0.182087
2193	0	0
2194	0	0
2195	0	0
2196	0	0
2197	0	0
2198	0	0
2199	0	0
2200	0	0
2201	0	0
2202	0	0
2203	0	0
2204	0	0
2205	0	0
2206	0	0
2207	1	0
2208	1	0
2209	1	0
2210	0	0
2211	1	0
2212	1	0
2213	1	0
2214	1	0
2215	1	0
2216	1	0
2217	1	0
2218	1	0
2219	1	0
2220	1	0
2221	1	0
2222	1	0
2223	1	0
2224	1	0
2225	1	0
2226	1	0
2227	1	0
2228	1	0
2229	1	0
2230	0	0
2231	0	0
2232	0	0
2233	0	0
2234	0	0
2235	0	0
2236	0	0
2237	0	0
2238	0	0
2239	0	0
2240	0	0
2241	0	0
2242	0	0
2243	0	0
2244	0	0
2245	0	0
2246	0	0
2247	0	0
2248	0	0
2249	0	0
2250	0	0
2251	0	0
2252	0	0
2253	0	1
2254	0	0.272486
2255	0	0.402299
2256	0	0.341085
2257	0	0.104575
2258	0	0.156863
2259	0	0.202279
2260	0	0.210526
2261	0	0.289293
2262	0	0.777778
2263	0	0.622222
2264	0	0.622222
2265	0	0
2266	0	0.393324
2267	0	0.298003
2268	0	0.221576
2269	0	0.335979
2270	0	0.40846
2271	0	0
2272	0	0
2273	0	0
2274	0	0.544262
2275	0	0.0666667
2276	0	0
2277	0	0
2278	0	0
2279	0	0
2280	0	0
2281	0	0
2282	0	0
2283	0	0
2284	0	0
2285	0	0
2286	0	0
2287	0	0.9
2288	0	0.9
2289	0	0.819048
2290	0	0.625963
2291	0	0.296703
2292	0	0.218182
2293	0	0.277778
2294	0	0.876304
2295	0	0.637363
2296	0	0.514706
2297	0	1
2298	0	0.978431
2299	0	0.986713
2300	0	1
2301	0	1
2302	0	1
2303	0	1
2304	1	1
2305	1	1
2306	1	1
2307	1	1
2308	1	1
2309	1	1
2310	1	1
2311	1	1
2312	1	1
2313	1	1
2314	1	1
2315	1	1
2316	1	1
2317	1	1
2318	1	1
2319	1	1
2320	1	1
2321	1	1
2322	1	1
2323	1	1
2324	1	1
2325	1	1
2326	1	1
2327	1	1
2328	1	1
2329	1	1
2330	1	1
2331	1	1
2332	0	1
2333	0	1
2334	0	1
2335	0	1
2336	0	1
2337	0	1
2338	0	1
2339	0	0.649706
2340	0	0.619367
2341	0	0.875473
2342	0	0.709391
2343	0	0.921432
2344	0	0.706345
2345	0	0.525123
2346	0	0.570048
2347	0	0.962045
2348	0	0.971611
2349	0	0.962577
2350	0	0.962751
2351	0	0.95401
2352	0	0.945134
2353	0	0.953967
2354	0	0.96339
2355	0	0.963432
2356	0	0.981652
2357	0	0.981736
2358	0	0.981736
2359	0	0.946843
2360	0	0.946843
2361	0	0.938351
2362	0	0.656823
2363	0	0.357143
2364	0	0.535714
2365	0	0.75
2366	0	0.75
2367	0	0.982533
2368	0	0.993346
2369	0	1
2370	0	1
2371	0	1
2372	1	1
2373	1	1
2374	1	1
2375	1	1
2376	1	1
2377	1	1
2378	1	1
2379	0	0.998337
2380	0	0.998337
2381	0	0.998337
2382	0	0.998337
2383	0	0.998337
2384	0	0.998337
2385	0	0.998337
2386	0	0.998337
2387	0	0.998337
2388	0	0.998337
2389	0	0.998336
2390	0	0.998336
2391	0	0.998335
2392	0	0.996676
2393	0	0
2394	0	0
2395	0	0.333333
2396	0	0.993236
2397	0	0.991543
2398	0	0
2399	0	0
2400	0	0
2401	0	0.75
2402	0	0.75
2403	0	0
2404	0	0.686531
2405	0	0.901922
2406	0	0.534274
2407	0	0.478695
2408	0	0.460739
2409	0	0.252362
2410	0	0.212981
2411	0	0.487101
2412	0	0.290092
2413	0	0.540532
2414	0	0
2415	0	0
2416	0	0
2417	0	0.435154
2418	0	0.456349
2419	0	0.456943
2420	0	0.277895
2421	0	0.647872
2422	0	0.681057
2423	0	0.163636
2424	0	0.158333
2425	0	0.142857
2426	0	0.656526
2427	0	0.480702
2428	0	0.863581
2429	0	0.424605
2430	0	0.327648
2431	0	0.262824
2432	0	0.152381
2433	0	0.141667
2434	0	0
2435	0	0
2436	0	0
2437	0	0
2438	0	0.212121
2439	0	0.266667
2440	0	0.285714
2441	0	0.469697
2442	0	0.368984
2443	0	0.262185
2444	0	0.126984
2445	0	0.428571
2446	0	0.444444
2447	0	0.225
2448	0	0.210526
2449	0	0.184211
2450	0	0.185014
2451	0	0.227114
2452	0	0.418878
2453	0	0.489967
2454	0	0.785084
2455	0	0
2456	0	0
2457	0	0
2458	0	0
2459	0	0
2460	0	0
2461	0	0
2462	0	0
2463	0	0
2464	0	0
2465	0	0
2466	0	0
2467	0	0
2468	0	0
2469	0	0
2470	0	0
2471	0	0
2472	0	0
2473	0	0
2474	0	0
2475	0	0.160756
2476	0	0.2
2477	0	0.162903
2478	0	0.285714
2479	0	0.252747
2480	0	0.164835
2481	0	0.349466
2482	0	0.360927
2483	0	0.624327
2484	0	0.391363
2485	0	0.851552
2486	0	0.698259
2487	0	0.178571
2488	0	0.535714
2489	0	0.75
2490	0	0.75
2491	0	1
2492	0	0.986226
2493	0	0.986718
2494	0	0.321429
2495	0	0.428571
2496	0	0.428571
2497	0	1
2498	0	1
2499	1	1
2500	1	1
2501	1	1
2502	1	1
2503	0	1
2504	0	1
2505	0	1
2506	1	1
2507	1	1
2508	1	1
2509	1	1
2510	0	0
2511	0	0
2512	0	0
2513	0	0
2514	0	0
2515	1	0
2516	1	0
2517	1	0
2518	1	0
2519	1	0
2520	1	0
2521	1	0
2522	1	0
2523	1	0
2524	1	0
2525	1	0
2526	1	0
2527	1	0
2528	1	0
2529	1	0
2530	1	0
2531	1	0
2532	0	0.998337
2533	0	0.998336
2534	0	0.998336
2535	0	0.998336
2536	0	0.998336
2537	1	1
2538	1	1
2539	0	0.998337
2540	0	0.998336
2541	0	0.998336
2542	1	1
2543	0	0.998336
2544	1	1
2545	0	0
2546	0	0
2547	0	0
2548	0	0
2549	0	0
2550	0	0
2551	0	0
2552	0	0
2553	0	0
2554	0	0
2555	0	0
2556	0	0
2557	0	0
2558	0	0
2559	0	0
2560	0	0
2561	0	0
2562	0	0
2563	0	0
2564	0	0
2565	0	0
2566	0	0
2567	0	0
2568	0	0
2569	0	0
2570	0	0
2571	0	0
2572	0	0
2573	0	0
2574	0	0
2575	0	0
2576	0	0
2577	0	0
2578	0	0
2579	0	0
2580	1	0
2581	1	0
2582	1	0
2583	1	0
2584	1	0
2585	1	0
2586	1	0
2587	1	0
2588	1	0
2589	1	0
2590	0	0.996668
2591	0	0.996668
2592	0	0.996665
2593	0	0.998331
2594	0	0.998332
2595	0	0.988374
2596	0	0.988354
2597	0	0
2598	0	0.939394
2599	0	0.87662
2600	0	0.333333
2601	0	0
2602	0	0
2603	0	0
2604	0	0
2605	0	0
2606	0	0.500814
2607	0	0
2608	0	0
2609	0	0.893082
2610	0	0.598983
2611	0	0.772059
2612	0	0.758333
2613	0	0.676471
2614	0	0.535714
2615	0	0.434409
2616	0	0.312821
2617	0	0.317949
2618	0	0.344239
2619	0	0.264368
2620	0	0.116279
2621	0	0.14958
2622	0	0.217469
2623	0	0.664814
2624	0	0.232942
2625	0	0.242553
2626	0	0.451913
2627	0	0.483802
2628	0	0.227812
2629	0	0.229503
2630	0	0.2209
2631	0	0.216754
2632	0	0.3
2633	0	0.338378
2634	0	0.366203
2635	0	0.520431
2636	0	0.280284
2637	0	0.219957
2638	0	0.236912
2639	0	0.123653
2640	0	0.165636
2641	0	0.352585
2642	0	0.105459
2643	0	0.111203
2644	0	0.131868
2645	0	0.141026
2646	0	0.121339
2647	0	0.100529
2648	0	0.0909091
2649	0	0.154594
2650	0	0.166667
2651	0	0.166667
2652	0	0.3
2653	0	0.141422
2654	0	0.192102
2655	0	0.371429
2656	0	0.371429
2657	0	1
2658	0	1
2659	0	0.273653
2660	0	0.2
2661	0	0.333333
2662	0	0.309861
2663	0	0.198349
2664	0	0.396302
2665	0	0.370249
2666	0	0.369338
2667	0	0.604396
2668	0	0.69281
2669	0	0.477544
2670	0	0.887632
2671	0	0.442231
2672	0	0.880556
2673	0	0.902848
2674	0	0.464286
2675	0	1
2676	0	1
2677	0	0.895614
2678	0	0.709815
2679	0	0.755334
2680	0	0.755334
2681	0	0.978303
2682	0	0.979981
2683	0	0.983277
2684	0	0.984943
2685	0	0.266667
2686	0	0.266667
2687	0	0.333333
2688	0	0.333333
2689	0	0.5
2690	0	0.464286
2691	0	1
2692	0	1
2693	0	1
2694	0	1
2695	0	1
2696	0	1
2697	0	1
2698	0	0.998331
2699	0	1
2700	0	1
2701	0	1
2702	0	1
2703	0	1
2704	0	1
2705	0	1
2706	0	0
2707	0	0
2708	0	0
2709	0	0
2710	0	0
2711	1	0
2712	1	0
2713	1	0
2714	1	0
2715	0	0
2716	0	0
2717	0	0
2718	0	0.998332
2719	0	0.998332
2720	0	0.998332
2721	0	0.998331
2722	0	0.998332
2723	0	0.998332
2724	0	0.998332
2725	0	0.998332
2726	0	0.998332
2727	0	0.998332
2728	0	0.998332
2729	0	0.996668
2730	0	0.998335
2731	0	0.998336
2732	0	0.998336
2733	0	0.998336
2734	0	0.998336
2735	0	0.998336
2736	0	0.998336
2737	0	0.998336
2738	0	0.998336
2739	0	1
2740	0	1
2741	0	1
2742	0	0.944937
2743	0	0.644444
2744	0	0.527273
2745	0	0.919386
2746	0	0.190476
2747	0	0.657473
2748	0	0.655583
2749	0	0.798291
2750	0	0.667826
2751	0	0.491004
2752	0	0.107143
2753	0	0.34652
2754	0	0.228687
2755	0	0.138107
2756	0	0.129487
2757	0	0.0795699
2758	0	0.142857
2759	0	0.140082
2760	0	0.164838
2761	0	0.233333
2762	0	0.107143
2763	0	0.142857
2764	0	0.425941
2765	0	0.571069
2766	0	0.166667
2767	0	0.166667
2768	0	0.166667
2769	0	0.333333
2770	0	0.480104
2771	0	0.504784
2772	0	1
2773	0	1
2774	0	0
2775	0	0
2776	0	0
2777	0	0
2778	0	0
2779	0	0
2780	0	0
2781	0	0
2782	0	0.981796
2783	0	0.983426
2784	0	0.983426
2785	0	0.983462
2786	0	0.97197
2787	0	0.870196
2788	0	0.589247
2789	0	0.554889
2790	0	0.8313
2791	0	1
2792	0	0.939817
2793	0	0.941415
2794	0	0.830526
2795	0	1
2796	0	0.848667
2797	0	0.850866
2798	1	0
2799	1	0
2800	1	0
2801	0	0
2802	0	0.949007
2803	0	0.998336
2804	0	0.996671
2805	0	0.996671
2806	0	0.996671
2807	0	0.996671
2808	0	0.996671
2809	0	1
2810	0	1
2811	0	1
2812	0	1
2813	0	1
2814	0	1
2815	0	1
2816	0	0.766667
2817	0	0.611111
2818	0	0.611111
2819	0	0.955426
2820	0	0.67368
2821	0	0.545941
2822	0	0.826482
2823	0	0.205128
2824	0	0.205128
2825	0	0.371067
2826	0	0.340659
2827	0	0.946316
2828	0	0.946316
2829	0	0.925078
2830	0	0.177778
2831	0	0.25
2832	0	0.381818
2833	0	0.490909
2834	0	0.490909
2835	0	0.490909
2836	0	0.993342
2837	0	0.996668
2838	0	0.996665
2839	0	0.996668
2840	0	0.996668
2841	0	0.996668
2842	0	0.996668
2843	0	0.996668
2844	0	0.998332
2845	0	0.998333
2846	0	0
2847	0	0.996671
2848	0	0.998335
2849	0	0.998335
2850	0	0.998335
2851	0	0.998335
2852	0	0.998335
2853	0	0.998335
2854	0	0.998336
2855	0	0.998336
2856	0	0.985114
2857	0	0.874564
2858	0	0.97684
2859	0	1
2860	1	1
2861	0	1
2862	0	0.92
2863	0	0.92
2864	0	0.760313
2865	0	1
2866	0	0.899803
2867	0	0.534056
2868	0	0.268736
2869	0	1
2870	0	0.714286
2871	0	0.328243
2872	0	0.522013
2873	0	0.474098
2874	0	0.305263
2875	0	0.366013
2876	0	1
2877	0	0.955481
2878	0	1
2879	0	0.978532
2880	0	0.978515
2881	0	0.981776
2882	0	0.822932
2883	0	0.555005
2884	0	0.53093
2885	0	0.763362
2886	0	0.32967
2887	0	0.436364
2888	0	0.452175
2889	0	0.998335
2890	0	0.998335
2891	0	0.998335
2892	0	0.998335
2893	0	0.998333
2894	0	1
2895	0	0.993333
2896	0	0.998258
2897	0	0.466667
2898	0	0.469697
2899	0	0.902991
2900	1	0
2901	1	0
2902	1	0
2903	1	0
2904	1	0
2905	1	0
2906	0	0.914861
2907	0	0.695749
2908	0	0.710035
2909	0	0.968694
2910	0	1
2911	0	1
2912	0	0.994989
2913	0	0.993349
2914	0	0.996665
2915	0	1
2916	0	0.5
2917	0	0
2918	0	0
2919	0	0
2920	0	0.166667
2921	0	0.166667
2922	0	0
2923	0	0
2924	0	0
2925	0	0
2926	0	0
2927	0	0
2928	0	0
2929	0	0
2930	0	0
2931	0	0
2932	0	0
2933	0	0
2934	0	0
2935	0	0
2936	0	0
2937	0	0
2938	0	0
2939	0	0
2940	0	0
2941	0	0
2942	0	0
2943	0	0
2944	0	0
2945	0	0
2946	0	0
2947	0	0
2948	0	0
2949	0	0
2950	0	0
2951	0	0
2952	0	0
2953	0	0
2954	0	0
2955	0	0
2956	0	0
2957	0	0
2958	0	0
2959	0	0
2960	0	0
2961	0	0
2962	0	0
2963	0	0
2964	0	0
2965	0	0
2966	0	0
2967	0	0
2968	0	0
2969	0	0
2970	0	0
2971	0	0
2972	0	0
2973	0	0
2974	0	0
2975	0	0
2976	0	0
2977	0	0
2978	0	0
2979	0	0
2980	0	0
2981	0	0
2982	0	0
2983	0	0
2984	0	0
2985	0	0
2986	0	0
2987	0	0
2988	0	0
2989	0	0
2990	0	0
2991	0	0
2992	0	0
2993	0	0
2994	0	0
2995	0	0
2996	0	0
2997	0	0
2998	0	0
2999	0	0
3000	0	0
3001	0	0
3002	0	0
3003	0	0
3004	0	0
3005	0	0
3006	0	0
3007	0	0
3008	0	0
3009	0	0
3010	0	0
3011	0	0
3012	0	0
3013	0	0
3014	0	0
3015	0	0
3016	0	0
3017	0	0
3018	0	0
3019	0	0
3020	0	0
3021	0	0
3022	0	0
3023	0	0
3024	0	0
3025	0	0
3026	0	0
3027	0	0
3028	0	0
3029	0	0
3030	0	0
3031	0	0
3032	0	0
3033	0	0
3034	0	0
3035	0	0
3036	0	0
3037	0	0
3038	0	0
3039	0	0
3040	0	0
3041	0	0
3042	0	0
3043	0	0
3044	0	0
3045	0	0
3046	0	0
3047	0	0
3048	0	0
3049	0	0
3050	0	0
3051	0	0
3052	0	0
3053	0	0
3054	0	0
3055	0	0
3056	0	0
3057	0	0
3058	0	0.993343
3059	0	0.995006
3060	0	0.998333
3061	0	0.998333
3062	0	0.998333
3063	0	0.998333
3064	0	0.998333
3065	0	0.998332
3066	0	0.998332
3067	0	0.998332
3068	0	0.998332
3069	0	0.998332
3070	0	0.998332
3071	0	0
3072	0	0
3073	0	0
3074	0	0
3075	0	0
3076	0	0
3077	0	0
3078	0	0
3079	0	0
3080	0	0
3081	0	0
3082	0	0
3083	0	0
3084	0	0
3085	1	0
3086	0	0.994996
3087	0	0.994832
3088	0	0.876781
3089	0	0.391667
3090	0	0.383333
3091	0	0.870262
3092	0	1
3093	0	1
3094	0	1
3095	0	0.428571
3096	0	0.428571
3097	0	0.428571
3098	0	0.922751
3099	0	0.877553
3100	0	0.63529
3101	0	0.430226
3102	0	0.334983
3103	0	0.397525
3104	0	0.315739
3105	0	0.426446
3106	0	0.400523
3107	0	0.462807
3108	0	0.520548
3109	0	0.711806
3110	0	0.737839
3111	0	0.625746
3112	0	0.615321
3113	0	0.552388
3114	0	0.358145
3115	0	0.663926
3116	0	0.874231
3117	0	0.928392
3118	0	0.4
3119	0	1
3120	0	1
3121	0	0.689951
3122	0	0.406593
3123	0	0.604396
3124	0	0.767436
3125	0	0.966247
3126	0	0.984677
3127	0	0.6
3128	0	0
3129	0	0
3130	0	0
3131	0	0.995004
3132	0	0.995004
3133	0	0.995004
3134	0	0.995004
3135	0	0.995004
3136	0	0.993353
3137	0	0.993353
3138	0	0.333333
3139	0	0.986725
3140	0	0
3141	0	0
3142	0	0.986731
3143	0	0.995008
3144	0	0.995004
3145	0	0.995004
3146	0	0.996665
3147	0	0.996665
3148	0	0.996665
3149	0	0.996665
3150	0	0.996665
3151	0	0.996665
3152	0	0.998331
3153	0	0.998331
3154	0	0.998329
3155	0	0.998329
3156	0	0.998329
3157	0	0.998331
3158	0	0.998331
3159	0	0.998331
3160	0	0.998331
3161	0	0.998331
3162	0	0.998331
3163	0	1
3164	0	0.996665
3165	0	0.996665
3166	0	0.996665
3167	0	0.996665
3168	0	0.993347
3169	0	0.995004
3170	0	0.995004
3171	0	0.995004
3172	0	0.995
3173	0	1
3174	0	0.644269
3175	0	1
3176	0	0.542857
3177	0	0.257143
3178	0	0.952194
3179	0	1
3180	0	1
3181	0	1
3182	0	1
3183	0	0.74026
3184	0	0.83004
3185	0	0.822511
3186	0	0.363571
3187	0	0.392857
3188	0	0.550664
3189	0	0.444444
3190	0	0.266667
3191	0	0
3192	0	0
3193	0	0
3194	0	0
3195	0	0.917103
3196	0	0.9167
3197	0	0.9167
3198	0	0.221979
3199	0	0.255246
3200	0	0
3201	0	0
3202	0	0
3203	0	0
3204	1	0
3205	1	0
3206	1	0
3207	1	0
3208	1	0
3209	1	0
3210	1	0
3211	1	0
3212	1	0
3213	1	0
3214	1	0
3215	1	0
3216	1	0
3217	1	0
3218	0	0.813061
3219	0	0.611461
3220	0	0.887395
3221	0	0.8
3222	0	0.25
3223	0	0.233333
3224	0	0.299517
3225	0	0.359216
3226	0	0.371378
3227	0	0.643855
3228	0	0.5
3229	0	0.5
3230	0	0.5
3231	0	0.1
3232	0	0.356861
3233	0	0.465775
3234	0	0.266292
3235	0	0.209312
3236	0	0.219119
3237	0	0.405283
3238	0	0.118952
3239	0	0.397436
3240	0	0.397436
3241	0	0.435897
3242	0	0.435897
3243	0	0.435897
3244	0	0.6
3245	0	0.647097
3246	0	0.533333
3247	0	0.846154
3248	0	0.846154
3249	0	0.673408
3250	0	0.673713
3251	0	0.333333
3252	0	1
3253	0	1
3254	0	1
3255	0	1
3256	0	1
3257	0	1
3258	0	1
3259	0	1
3260	0	1
3261	0	0.333333
3262	0	0.52381
3263	0	1
3264	0	1
3265	0	1
3266	0	0.991632
3267	0	0.991632
3268	0	0.998333
3269	0	0.998333
3270	0	0.998333
3271	0	0.998333
3272	0	0.996671
3273	0	0.996671
3274	0	0.996671
3275	0	0.813793
3276	1	1
3277	0	0.881128
3278	0	0.99336
3279	1	0
3280	1	0
3281	1	0
3282	1	0
3283	1	0
3284	1	0
3285	1	0
3286	1	0
3287	1	0
3288	1	0
3289	1	0
3290	1	0
3291	1	0
3292	1	0
3293	1	0
3294	1	0
3295	1	0
3296	1	0
3297	1	0
3298	1	0
3299	1	0
3300	1	0
3301	1	0
3302	1	0
3303	1	0
3304	0	0.998331
3305	0	0.996665
3306	0	0.995
3307	0	0.995
3308	0	0.995
3309	0	0.995
3310	0	0.994996
3311	0	0.993336
3312	0	0.993336
3313	0	0
3314	0	0
3315	0	0
3316	0	0
3317	0	0
3318	0	0
3319	0	0
3320	0	0
3321	0	0
3322	0	0
3323	1	0
3324	1	0
3325	1	0
3326	1	0
3327	1	0
3328	1	0
3329	1	0
3330	1	0
3331	1	0
3332	1	0
3333	1	0
3334	0	0.989979
3335	0	0
3336	0	0
3337	0	0.988304
3338	0	0
3339	0	0
3340	0	0
3341	0	0
3342	0	0
3343	1	0
3344	0	0
3345	0	0
3346	0	0.797774
3347	0	0.945915
3348	0	0.88477
3349	0	0.960518
3350	0	0.994983
3351	0	0.993319
3352	0	0.993319
3353	0	0.993319
3354	0	0.99166
3355	0	0.99166
3356	0	0.993325
3357	0	0.993325
3358	0	0.704645
3359	0	1
3360	0	0.988353
3361	0	0.990013
3362	0	0.990013
3363	0	0.991667
3364	0	0.991674
3365	0	0.993325
3366	0	0.998325
3367	0	0.998325
3368	0	0.996654
3369	0	0.996654
3370	0	0.996651
3371	0	0.996651
3372	0	0.996651
3373	0	0.993319
3374	0	0.991653
3375	0	0.991646
3376	0	0.991646
3377	0	0.991646
3378	0	0.991639
3379	0	0.989979
3380	0	0.989937
3381	0	0
3382	0	0
3383	0	0
3384	0	0
3385	0	0
3386	0	0
3387	0	1
3388	0	1
3389	0	0.889695
3390	0	0.739292
3391	0	0.890946
3392	0	0.50404
3393	0	0.49866
3394	0	0.556895
3395	0	0.644109
3396	0	1
3397	0	0.333333
3398	0	0.752606
3399	0	0.285714
3400	0	0.0833333
3401	0	0.20915
3402	0	0.51695
3403	0	0.298875
3404	0	0.110294
3405	0	0.0849673
3406	0	0.247695
3407	0	0.240452
3408	0	0.0767808
3409	0	0.2
3410	0	0.2
3411	0	0.0676533
3412	0	0.139706
3413	0	0.146667
3414	0	0.14
3415	0	0.235969
3416	0	0.278918
3417	0	0.189521
3418	0	0.156363
3419	0	0.286765
3420	0	0.261905
3421	0	0.261905
3422	0	0.130624
3423	0	0
3424	0	0
3425	0	0.415529
3426	0	0.369819
3427	0	0.104651
3428	0	0.0666667
3429	0	0.0619048
3430	0	0.0789474
3431	0	0.0714286
3432	0	0.163862
3433	0	0.19966
3434	0	0.161367
3435	0	0.117967
3436	0	0.0973987
3437	0	0.284931
3438	0	0.380952
3439	0	0.14263
3440	0	0.24158
3441	0	1
3442	0	0.298547
3443	0	0.621562
3444	0	0.616751
3445	0	0.836819
3446	0	0.908185
3447	0	0.916793
3448	0	0.883204
3449	0	0.908274
3450	0	0.883549
3451	0	0.729247
3452	0	0.403805
3453	0	0.510669
3454	0	0.505974
3455	0	0.895029
3456	0	0.902828
3457	0	0.911059
3458	0	0.90799
3459	0	0.909445
3460	0	0.909372
3461	0	0.907754
3462	0	0.913043
3463	0	0.41629
3464	0	0.413265
3465	0	0.380408
3466	0	0.836756
3467	0	0
3468	0	0
3469	0	0
3470	0	0
3471	0	0
3472	0	0
3473	0	0
3474	0	0
3475	0	0
3476	0	0
3477	0	0
3478	0	0.80083
3479	0	0.714269
3480	0	0.556594
3481	0	0.417244
3482	0	0.261564
3483	0	0.51634
3484	0	0.2
3485	0	0.2
3486	0	0.2
3487	0	0.2
3488	0	0.2
3489	0	0.133333
3490	0	0.247909
3491	0	1
3492	0	1
3493	0	0.154575
3494	0	0.184615
3495	0	0.178853
3496	0	0.104658
3497	0	0.0865546
3498	0	0.208507
3499	0	0.083004
3500	0	0.0909091
3501	0	0.0671937
3502	0	0.0671937
3503	0	0.0735931
3504	0	0.159575
3505	0	0.0962072
3506	0	0.0922449
3507	0	0.14149
3508	0	0.1174
3509	0	0.10727
3510	0	0.119048
3511	0	0.147407
3512	0	0
3513	0	0
3514	0	0
3515	0	0
3516	0	0
3517	0	0
3518	0	0
3519	0	0
3520	0	0.17754
3521	0	0.0769231
3522	0	0.0571429
3523	0	0.0659341
3524	0	0.295976
3525	0	0.175139
3526	0	0.134503
3527	0	0.0181818
3528	0	0.032967
3529	0	0.121646
3530	0	0.238095
3531	0	0.238095
3532	0	0.232804
3533	0	0.232804
3534	0	0.185484
3535	0	0.179435
3536	0	0.115034
3537	0	0
3538	0	0
3539	0	0
3540	0	0
3541	0	0
3542	0	0
3543	0	0.0987097
3544	0	0.109657
3545	0	0.0792772
3546	0	0.0867783
3547	0	0.0852045
3548	0	0.0799444
3549	0	0.0540936
3550	0	0.0556866
3551	0	0.0888889
3552	0	0.0727273
3553	0	0.145455
3554	0	0.0533898
3555	0	0.0638845
3556	0	0.0646657
3557	0	0.0893707
3558	0	0.100629
3559	0	0.0833333
3560	0	0.0873515
3561	0	0.0942761
3562	0	0.102415
3563	0	0.143775
3564	0	0.0691942
3565	0	0.120501
3566	0	0.137747
3567	0	0.143836
3568	0	0.0691749
3569	0	0.208642
3570	0	0.0757331
3571	0	0.0781912
3572	0	0.0887505
3573	0	0.0555556
3574	0	0.0555556
3575	0	0.0357143
3576	0	0
3577	0	0.0883582
3578	0	0.142857
3579	0	0
3580	0	0.0880781
3581	0	0.114971
3582	0	0.079421
3583	0	0.149671
3584	0	0.0735816
3585	0	0.071525
3586	0	0.342705
3587	0	0.403135
3588	0	0.1
3589	0	0
3590	0	0
3591	0	0
3592	0	0
3593	0	0
3594	0	0
3595	0	0
3596	0	0
3597	0	0
3598	0	0
3599	0	0
3600	0	0
3601	0	0
3602	0	0
3603	0	0
3604	0	0
3605	0	0
3606	0	0
3607	0	0
3608	0	0
3609	0	0
3610	0	0
3611	0	0
3612	0	0
3613	0	0
3614	0	0.792175
3615	0	0.333333
3616	0	0.333333
3617	0	0
3618	0	0
3619	0	0
3620	0	0
3621	0	0
3622	0	0
3623	0	0
3624	0	0
3625	0	0
3626	0	0
3627	0	0
3628	0	0
3629	0	0
3630	0	0
3631	0	0
3632	0	0
3633	0	0
3634	0	0
3635	0	0
3636	0	0.5
3637	0	0.74495
3638	0	0.809972
3639	0	0.815301
3640	0	0.492611
3641	0	0.504926
3642	0	0.529101
3643	0	0.787056
3644	0	0.793507
3645	0	0.741214
3646	0	0.537346
3647	0	0.517165
3648	0	0.128205
3649	0	0.0222222
3650	0	0.047619
3651	0	0.166667
3652	0	0.166667
3653	0	0.166667
3654	0	0.166667
3655	0	0.166667
3656	0	0.166667
3657	0	0.166667
3658	0	0.166667
3659	0	0
3660	0	0
3661	0	0
3662	0	0
3663	0	0
3664	0	0
3665	0	0
3666	0	0
3667	0	0
3668	0	0
3669	0	0
3670	0	0
3671	0	0
3672	0	0
3673	0	0
3674	0	0
3675	0	0
3676	0	0
3677	0	0
3678	0	0
3679	0	0
3680	0	0
3681	0	0
3682	0	0
3683	0	0
3684	0	0
3685	0	0
3686	0	0
3687	0	0
3688	0	0
3689	0	0
3690	0	0
3691	0	0
3692	0	0
3693	0	0
3694	1	0
3695	1	0
3696	1	0
3697	1	0
3698	0	0
3699	0	0
3700	0	0
3701	0	0
3702	0	0
3703	0	0
3704	0	0
3705	0	0
3706	0	0
3707	0	0
3708	0	0
3709	0	0
3710	0	0
3711	0	0
3712	0	0
3713	0	0
3714	0	0
3715	0	0
3716	0	0
3717	0	0
3718	0	0
3719	0	0
3720	0	0
3721	0	0
3722	0	0
3723	0	0
3724	0	0
3725	0	0
3726	0	0
3727	0	0
3728	0	0
3729	0	0
3730	0	0
3731	0	0
3732	0	0
3733	0	0
3734	0	0
3735	0	0
3736	1	0
3737	1	0
3738	1	0
3739	1	0
3740	1	0
3741	1	0
3742	1	0
3743	1	0
3744	1	0
3745	1	0
3746	1	0
3747	0	0
3748	0	0
3749	0	0
3750	0	0
3751	0	0
3752	0	0
3753	1	0
3754	1	0
3755	1	0
3756	1	0
3757	1	0
3758	1	0
3759	1	0
3760	1	0
3761	1	0
3762	1	0
3763	1	0
3764	1	0
3765	1	0
3766	1	0
3767	1	0
3768	1	0
3769	1	0
3770	1	0
3771	1	0
3772	1	0
3773	1	0
3774	1	0
3775	1	0
3776	1	0
3777	1	0
3778	1	0
3779	1	0
3780	1	0
3781	1	0
3782	1	0
3783	1	0
3784	1	0
3785	1	0
3786	1	0
3787	1	0
3788	1	0
3789	1	0
3790	1	0
3791	1	0
3792	1	0
3793	1	0
3794	1	0
3795	1	0
3796	0	0
3797	0	0
3798	1	0
3799	1	0
3800	1	0
3801	1	0
3802	1	0
3803	1	0
3804	1	0
3805	1	0
3806	1	0
3807	1	0
3808	1	0
3809	1	0
3810	1	0
3811	1	0
3812	1	0
3813	1	0
3814	1	0
3815	1	0
3816	1	0
3817	1	0
3818	1	0
3819	1	0
3820	1	0
3821	1	0
3822	1	0
3823	1	0
3824	1	0
3825	1	0
3826	1	0
3827	1	0
3828	1	0
3829	1	0
3830	1	0
3831	1	0
3832	1	0
3833	1	0
3834	1	0
3835	1	0
3836	1	0
3837	1	0
