Site	ColumnScore	SumOfPairsScore
1	1	0
2	1	0
3	1	0
4	1	0
5	1	0
6	1	0
7	1	0
8	1	0
9	1	0
10	1	0
11	1	0
12	1	0
13	1	0
14	1	0
15	1	0
16	1	0
17	1	0
18	1	0
19	1	0
20	1	0
21	1	0
22	1	0
23	1	0
24	1	0
25	1	0
26	1	0
27	1	0
28	1	0
29	1	0
30	1	0
31	1	0
32	1	0
33	1	0
34	1	0
35	0	0
36	0	0
37	0	0
38	0	0
39	0	0
40	0	0
41	0	0
42	0	0
43	0	0
44	0	0
45	0	0
46	0	0
47	0	0
48	0	0
49	0	0
50	0	0
51	0	0
52	0	0
53	0	0
54	0	0
55	0	0
56	0	0
57	0	0
58	0	0
59	0	0
60	0	0
61	0	0
62	0	0
63	0	0
64	0	0
65	0	0
66	0	0
67	0	0
68	0	0
69	0	0
70	0	0
71	0	0
72	0	0
73	0	0
74	0	0
75	0	0
76	0	0
77	0	0
78	0	0
79	0	0
80	0	0
81	0	0
82	0	0
83	0	0
84	0	0
85	0	0
86	0	0
87	0	0
88	0	0
89	0	0
90	0	0
91	0	0
92	0	0
93	0	0
94	0	0
95	0	0
96	0	0
97	0	0
98	0	0
99	0	0
100	0	0
101	0	0
102	0	0
103	0	0
104	0	0
105	0	0
106	0	0
107	0	0
108	0	0
109	0	0
110	0	0
111	0	0
112	0	0
113	0	0
114	0	0
115	0	0
116	0	0
117	0	0
118	0	0
119	0	0
120	0	0
121	0	0
122	0	0
123	0	0
124	0	0
125	0	0
126	0	0
127	0	0
128	0	0
129	0	0
130	0	0
131	0	0
132	0	0
133	0	0
134	0	0
135	0	0
136	0	0
137	0	0
138	0	0
139	0	0
140	0	0
141	0	0
142	0	0
143	0	0
144	0	0
145	0	0
146	0	0
147	0	0
148	0	0
149	0	0
150	0	0
151	0	0
152	0	0
153	0	0
154	0	0
155	0	0
156	0	0
157	0	0
158	0	0
159	0	0
160	0	0
161	0	0
162	0	0
163	0	0
164	0	0
165	0	0
166	0	0
167	0	0
168	0	0
169	0	0
170	0	0
171	0	0
172	0	0
173	0	0
174	0	0
175	0	0
176	0	0
177	0	0
178	0	0
179	0	0
180	0	0
181	0	0
182	0	0
183	0	0
184	0	0
185	0	0
186	0	0
187	0	0
188	0	0
189	0	0
190	0	0
191	0	0
192	0	0
193	0	0
194	0	0
195	0	0
196	0	0
197	0	0
198	0	0
199	0	0
200	0	0
201	0	0
202	0	0
203	0	0
204	0	0
205	0	0
206	0	0
207	0	0
208	0	0
209	0	0
210	0	0
211	0	0
212	0	0
213	0	0
214	0	0
215	0	0
216	0	0
217	0	0
218	0	0
219	0	0
220	0	0
221	0	0
222	0	0
223	0	0
224	0	0
225	0	0
226	0	0
227	0	0
228	0	0
229	0	0
230	0	0
231	0	0
232	0	0
233	0	0
234	0	0
235	0	0
236	0	0
237	0	0
238	0	0
239	0	0
240	0	0
241	0	0
242	0	0
243	0	0
244	0	0
245	0	0
246	0	0
247	0	0
248	0	0
249	0	0
250	0	0
251	0	0
252	0	0
253	0	0
254	0	0
255	0	0
256	0	0
257	0	0
258	0	0
259	0	0
260	0	0
261	0	0
262	0	0
263	0	0
264	0	0
265	0	0
266	0	0
267	0	0
268	0	0
269	0	0
270	0	0
271	0	0
272	0	0
273	0	0
274	0	0
275	0	0
276	0	0
277	0	0
278	0	0
279	0	0
280	0	0
281	0	0
282	0	0
283	0	0
284	0	0
285	0	0
286	0	0
287	0	0
288	0	0
289	0	0
290	0	0
291	0	0
292	0	0
293	0	0
294	0	0
295	0	0
296	0	0
297	0	0
298	0	0
299	0	0
300	0	0
301	0	0
302	0	0
303	0	0
304	0	0
305	0	0
306	0	0
307	0	0
308	0	0
309	0	0
310	0	0
311	0	0
312	0	0
313	0	0
314	0	0
315	0	0
316	0	0
317	0	0
318	0	0
319	0	0
320	0	0
321	0	0
322	0	0
323	0	0
324	0	0
325	0	0
326	0	0
327	0	0
328	0	0
329	0	0
330	0	0
331	0	0
332	0	0
333	0	0
334	0	0
335	0	0
336	0	0
337	0	0
338	0	0
339	0	0
340	0	0
341	0	0
342	0	0
343	0	0
344	0	0
345	0	0
346	0	0
347	0	0
348	0	0
349	0	0
350	0	0
351	0	0
352	0	0
353	0	0
354	0	0
355	0	0
356	0	0
357	0	0
358	0	0
359	0	0
360	0	0
361	0	0
362	0	0
363	0	0
364	0	0
365	0	0
366	0	0
367	0	0
368	0	0
369	0	0
370	0	0
371	0	0
372	0	0
373	0	0
374	0	0
375	0	0
376	0	0
377	0	0
378	0	0
379	0	0
380	0	0
381	0	0
382	0	0
383	0	0
384	0	0
385	0	0
386	0	0
387	0	0
388	0	0
389	0	0
390	0	0
391	0	0
392	0	0
393	0	0
394	0	0
395	0	0
396	0	0
397	0	0
398	0	0
399	0	0
400	0	0
401	0	0
402	0	0
403	0	0
404	0	0
405	0	0
406	0	0
407	0	0
408	0	0
409	0	0
410	0	0
411	0	0
412	0	0
413	0	0
414	0	0
415	0	0
416	0	0
417	0	0
418	0	0
419	0	0
420	0	0
421	0	0
422	0	0
423	0	0
424	0	0
425	0	0
426	0	0
427	0	0
428	0	0
429	0	0
430	0	0
431	0	0
432	0	0
433	0	0
434	0	0
435	0	0
436	0	0.0181818
437	0	0.0181818
438	0	0.0181818
439	0	0.0181818
440	0	0.0181818
441	0	0.030303
442	0	0.030303
443	0	0.030303
444	0	0.030303
445	0	0.030303
446	0	0.030303
447	0	0.030303
448	0	0.030303
449	0	0.030303
450	0	0.030303
451	0	0.030303
452	0	0.030303
453	0	0.030303
454	0	0.030303
455	0	0.030303
456	0	0.030303
457	0	0.030303
458	0	0.030303
459	0	0.030303
460	0	0.030303
461	0	0.030303
462	0	0.030303
463	0	0.030303
464	0	0.030303
465	0	0.030303
466	0	0.030303
467	0	0.030303
468	0	0.030303
469	0	0.030303
470	0	0.030303
471	0	0.030303
472	0	0.030303
473	0	0.030303
474	0	0.030303
475	0	0.030303
476	0	0.030303
477	0	0.030303
478	0	0.030303
479	0	0.030303
480	0	0.030303
481	0	0.030303
482	0	0.030303
483	0	0.030303
484	0	0.030303
485	0	0.030303
486	0	0.030303
487	0	0.030303
488	0	0.030303
489	0	0.030303
490	0	0.030303
491	0	0.030303
492	0	0.0512821
493	0	0.0512821
494	0	0.0512821
495	0	0.0512821
496	0	0.0512821
497	0	0.0512821
498	0	0.0512821
499	0	0.0512821
500	0	0.0512821
501	0	0.0512821
502	0	0.0512821
503	0	0.0512821
504	0	0.104762
505	0	0.104762
506	0	0.104762
507	0	0.104762
508	0	0.0894737
509	0	0.0809524
510	0	0.0809524
511	0	0.0809524
512	0	0.0809524
513	0	0.0735931
514	0	0.0818713
515	0	0.0818713
516	0	0.0714286
517	0	0.0714286
518	0	0.0714286
519	0	0.0714286
520	0	0.0714286
521	0	0.0761905
522	0	0.0733333
523	0	0.0733333
524	0	0.07
525	0	0.07
526	0	0.0666667
527	0	0.0724638
528	0	0.0724638
529	0	0.0724638
530	0	0.105072
531	0	0.105072
532	0	0.105072
533	0	0.113333
534	0	0.113333
535	0	0.113333
536	0	0.113333
537	0	0.113333
538	0	0.113333
539	0	0.104615
540	0	0.104615
541	0	0.104615
542	0	0.104615
543	0	0.104615
544	0	0.104615
545	0	0.104615
546	0	0.104615
547	0	0.104615
548	0	0.104615
549	0	0.104615
550	0	0.104615
551	0	0.104615
552	0	0.104615
553	0	0.104615
554	0	0.104615
555	0	0.104615
556	0	0.104615
557	0	0.104615
558	0	0.104615
559	0	0.0968661
560	0	0.0968661
561	0	0.0968661
562	0	0.0968661
563	0	0.0968661
564	0	0.0899471
565	0	0.0899471
566	0	0.0899471
567	0	0.0899471
568	0	0.0899471
569	0	0.10582
570	0	0.10582
571	0	0.10582
572	0	0.10582
573	0	0.10582
574	0	0.10582
575	0	0.10582
576	0	0.10582
577	0	0.10582
578	0	0.10582
579	0	0.10582
580	0	0.10582
581	0	0.10582
582	0	0.10582
583	0	0.10582
584	0	0.10582
585	0	0.10582
586	0	0.10582
587	0	0.0899471
588	0	0.0899471
589	0	0.0837438
590	0	0.0837438
591	0	0.0837438
592	0	0.0837438
593	0	0.0837438
594	0	0.0640394
595	0	0.0837438
596	0	0.0837438
597	0	0.0781609
598	0	0.0827586
599	0	0.0795699
600	0	0.0795699
601	0	0.0795699
602	0	0.0795699
603	0	0.0795699
604	0	0.0795699
605	0	0.0752688
606	0	0.0752688
607	0	0.0752688
608	0	0.0752688
609	0	0.0580645
610	0	0.0580645
611	0	0.0752688
612	0	0.0752688
613	0	0.0752688
614	0	0.0752688
615	0	0.0752688
616	0	0.0752688
617	0	0.0752688
618	0	0.0774194
619	0	0.0774194
620	0	0.0752688
621	0	0.0752688
622	0	0.0752688
623	0	0.0752688
624	0	0.0752688
625	0	0.0681818
626	0	0.0681818
627	0	0.0681818
628	0	0.0681818
629	0	0.0681818
630	0	0.0621849
631	0	0.0621849
632	0	0.0621849
633	0	0.0621849
634	0	0.0621849
635	0	0.0621849
636	0	0.0487395
637	0	0.0492063
638	0	0.0492063
639	0	0.0492063
640	0	0.0619048
641	0	0.0619048
642	0	0.0619048
643	0	0.0619048
644	0	0.0587302
645	0	0.0621849
646	0	0.0619048
647	0	0.0619048
648	0	0.0619048
649	0	0.0619048
650	0	0.0619048
651	0	0.0619048
652	0	0.0619048
653	0	0.0619048
654	0	0.0492063
655	0	0.0492063
656	0	0.0650794
657	0	0.0650794
658	0	0.0650794
659	0	0.0650794
660	0	0.0619048
661	0	0.0619048
662	0	0.0619048
663	0	0.0619048
664	0	0.0619048
665	0	0.0619048
666	0	0.0619048
667	0	0.0619048
668	0	0.0650794
669	0	0.0650794
670	0	0.068254
671	0	0.068254
672	0	0.068254
673	0	0.0650794
674	0	0.0650794
675	0	0.0650794
676	0	0.0619048
677	0	0.0619048
678	0	0.0619048
679	0	0.0619048
680	0	0.0619048
681	0	0.0492063
682	0	0.0492063
683	0	0.0492063
684	0	0.0492063
685	0	0.0492063
686	0	0.0492063
687	0	0.0492063
688	0	0.0492063
689	0	0.0492063
690	0	0.0492063
691	0	0.0492063
692	0	0.0492063
693	0	0.0492063
694	0	0.0492063
695	0	0.0492063
696	0	0.0507937
697	0	0.0507937
698	0	0.0587302
699	0	0.0587302
700	0	0.0492063
701	0	0.0492063
702	0	0.0492063
703	0	0.0587302
704	0	0.0492063
705	0	0.0492063
706	0	0.0492063
707	0	0.0492063
708	0	0.0492063
709	0	0.0492063
710	0	0.0465465
711	0	0.0465465
712	0	0.0465465
713	0	0.0465465
714	0	0.0465465
715	0	0.0465465
716	0	0.0465465
717	0	0.0440967
718	0	0.0483642
719	0	0.0465465
720	0	0.0398293
721	0	0.0440967
722	0	0.0440967
723	0	0.0440967
724	0	0.0440967
725	0	0.0418354
726	0	0.0418354
727	0	0.0418354
728	0	0.0418354
729	0	0.0426829
730	0	0.0426829
731	0	0.0426829
732	0	0.0371661
733	0	0.0371661
734	0	0.0353535
735	0	0.0353535
736	0	0.0353535
737	0	0.0353535
738	0	0.0353535
739	0	0.0353535
740	0	0.0363636
741	0	0.0363636
742	0	0.0354374
743	0	0.0354374
744	0	0.0354374
745	0	0.0376523
746	0	0.0402439
747	0	0.0402439
748	0	0.0383275
749	0	0.0406504
750	0	0.0406504
751	0	0.0429733
752	0	0.0401691
753	0	0.0401691
754	0	0.0454545
755	0	0.0496829
756	0	0.0496829
757	0	0.0539112
758	0	0.0539112
759	0	0.0585859
760	0	0.0707071
761	0	0.0888889
762	0	0.0888889
763	0	0.0888889
764	0	0.0888889
765	0	0.0888889
766	0	0.0473118
767	0	0.0473118
768	0	0.0537634
769	0	0.0537634
770	0	0.0537634
771	0	0.0537634
772	0	0.0473118
773	0	0.0473118
774	0	0.0516129
775	0	0.0574713
776	0	0.0492611
777	0	0.0502646
778	0	0.0502646
779	0	0.0502646
780	0	0.0449735
781	0	0.0418719
782	0	0.0517241
783	0	0.0517241
784	0	0.0665025
785	0	0.0665025
786	0	0.0665025
787	0	0.062069
788	0	0.062069
789	0	0.062069
790	0	0.0591133
791	0	0.0591133
792	0	0.0591133
793	0	0.062069
794	0	0.0643678
795	0	0.0643678
796	0	0.0602151
797	0	0.0602151
798	0	0.0602151
799	0	0.0580645
800	0	0.0688172
801	0	0.0516129
802	0	0.046371
803	0	0.046371
804	0	0.0427807
805	0	0.0530303
806	0	0.0530303
807	0	0.0499109
808	0	0.0499109
809	0	0.0499109
810	0	0.0499109
811	0	0.0481283
812	0	0.0481283
813	0	0.0481283
814	0	0.0481283
815	0	0.0470588
816	0	0.0470588
817	0	0.0470588
818	0	0.0481283
819	0	0.0463458
820	0	0.0463458
821	0	0.0492424
822	0	0.0492424
823	0	0.0481283
824	0	0.0481283
825	0	0.0463458
826	0	0.057041
827	0	0.0481283
828	0	0.0436975
829	0	0.0436975
830	0	0.0428571
831	0	0.042042
832	0	0.0414634
833	0	0.0418118
834	0	0.0418118
835	0	0.0414634
836	0	0.0414634
837	0	0.0452962
838	0	0.0442968
839	0	0.0391121
840	0	0.038055
841	0	0.0570825
842	0	0.0570825
843	0	0.0528541
844	0	0.0528541
845	0	0.0337382
846	0	0.0346154
847	0	0.0346154
848	0	0.0397436
849	0	0.0461538
850	0	0.0487805
851	0	0.0731707
852	0	0.0801394
853	0	0.0874862
854	0	0.0983087
855	0	0.11945
856	0	0.234929
857	0	0.255319
858	0	0.275102
859	0	0.284706
860	0	0.283019
861	0	0.30101
862	0	0.321886
863	0	0.31039
864	0	0.418826
865	0	0.891396
866	0	0.904387
867	0	0
868	0	0
869	0	0
870	0	0
871	0	0
872	0	0
873	0	0
874	0	0
875	0	0
876	0	0
877	0	0
878	0	0
879	0	0
880	0	0
881	0	0
882	0	0
883	0	0
884	0	0
885	0	0
886	0	0
887	0	0
888	0	0
889	0	0
890	0	0
891	0	0
892	0	0
893	0	0
894	0	0
895	0	0
896	0	0
897	0	0
898	0	0.0142857
899	0	0.0157895
900	0	0.0233918
901	0	0.0233918
902	0	0.0175439
903	0	0.0116959
904	0	0.0147059
905	0	0.0166667
906	0	0.010989
907	0	0.010989
908	0	0.010989
909	0	0.021978
910	0	0.0128205
911	0	0.0151515
912	0	0.0151515
913	0	0.0151515
914	0	0.0222222
915	0	0.0222222
916	0	0.0222222
917	0	0.0222222
918	0	0.0277778
919	0	0.0277778
920	0	0.0277778
921	0	0.0277778
922	0	0.0277778
923	0	0.0277778
924	0	0.0277778
925	0	0.0277778
926	0	0.0277778
927	0	0.0277778
928	0	0.0357143
929	0	0.047619
930	0	0.047619
931	0	0.047619
932	0	0.047619
933	0	0.047619
934	0	0.0666667
935	0	0.0666667
936	0	0.0666667
937	0	0.0666667
938	0	0.0666667
939	0	0.0666667
940	0	0.0666667
941	0	0
942	0	0
943	0	0
944	0	0
945	0	0
946	0	0
947	0	0
948	0	0
949	0	0
950	0	0
951	0	0
952	0	0
953	0	0
954	0	0
955	0	0
956	0	0
957	0	0
958	0	0
959	0	0
960	0	0
961	0	0
962	0	0
963	0	0
964	0	0
965	0	0
966	0	0
967	0	0
968	0	0
969	0	0
970	0	0
971	0	0
972	0	0
973	0	0
974	0	0
975	0	0
976	0	0
977	0	0
978	0	0
979	0	0
980	0	0.0666667
981	0	0.0666667
982	0	0.047619
983	0	0.047619
984	0	0.047619
985	0	0.0357143
986	0	0.0357143
987	0	0.0833333
988	0	0.166667
989	0	0.416667
990	0	0.416667
991	0	0.416667
992	0	0.416667
993	0	0.466667
994	0	0.466667
995	0	0.466667
996	0	0.466667
997	0	0
998	0	0
999	0	0
1000	0	0
1001	0	0
1002	0	0
1003	0	0
1004	0	0
1005	0	0
1006	0	0
1007	0	0
1008	0	0
1009	0	0
1010	0	0
1011	0	0
1012	0	0
1013	0	0
1014	0	0
1015	0	0
1016	0	0
1017	0	0
1018	0	0
1019	0	0
1020	0	0
1021	0	0
1022	0	0
1023	0	0
1024	0	0
1025	0	0
1026	0	0
1027	0	0
1028	0	0
1029	0	0
1030	0	0
1031	0	0
1032	0	0
1033	0	0
1034	0	0
1035	0	0
1036	0	0
1037	0	0
1038	0	0
1039	0	0
1040	0	0
1041	0	0.166667
1042	0	0
1043	0	0
1044	0	0.333333
1045	0	0.333333
1046	0	0.333333
1047	0	0.166667
1048	0	0.166667
1049	0	0.166667
1050	0	0.166667
1051	0	0.166667
1052	0	0.166667
1053	0	0.166667
1054	0	0.133333
1055	0	0.1
1056	0	0.1
1057	0	0.1
1058	0	0.1
1059	0	1
1060	0	0.666667
1061	0	0.666667
1062	0	0.983607
1063	0	0.983607
1064	0	0.981893
1065	0	0.983696
1066	0	0
1067	0	0
1068	0	0
1069	0	0
1070	0	0
1071	0	0
1072	0	0
1073	0	0
1074	0	0
1075	0	0
1076	0	0
1077	0	0
1078	0	0
1079	0	0
1080	0	0
1081	0	0
1082	0	0
1083	0	0
1084	0	0
1085	0	0
1086	0	0
1087	0	0
1088	0	0
1089	0	0
1090	0	0
1091	0	0
1092	0	0
1093	0	0
1094	0	0
1095	0	0
1096	0	0
1097	0	0
1098	0	0
1099	0	0
1100	0	0
1101	0	0
1102	0	0
1103	0	0
1104	0	0
1105	0	0
1106	0	0
1107	0	0
1108	0	0
1109	0	0
1110	0	0
1111	0	0
1112	0	0
1113	0	0
1114	0	0
1115	0	0
1116	0	0
1117	0	0
1118	0	0
1119	0	0
1120	0	0
1121	0	0
1122	0	0
1123	0	0
1124	0	0
1125	0	0
1126	0	0
1127	0	0
1128	0	0
1129	0	0
1130	0	0
1131	0	0
1132	0	0
1133	0	0
1134	0	0
1135	0	0.98554
1136	0	0.987342
1137	0	0
1138	0	0.980218
1139	0	0.978449
1140	0	0
1141	0	0
1142	0	0
1143	0	0
1144	0	0
1145	0	0
1146	0	0
1147	0	0
1148	0	0
1149	0	0
1150	0	0
1151	0	0
1152	0	0
1153	0	0
1154	0	0
1155	0	0
1156	0	0
1157	0	0
1158	0	0
1159	0	0
1160	0	0
1161	0	0
1162	0	0
1163	0	0
1164	0	0
1165	0	0
1166	0	0
1167	0	0
1168	0	0
1169	0	0
1170	0	0
1171	0	0
1172	0	0
1173	0	0.983784
1174	0	0.985566
1175	0	0.985566
1176	0	0.985566
1177	0	0
1178	0	0
1179	0	0
1180	0	0
1181	0	0
1182	0	0
1183	0	0
1184	0	0
1185	0	0
1186	0	0
1187	0	0
1188	0	0
1189	0	0
1190	0	0
1191	0	0
1192	0	0
1193	0	0
1194	0	0
1195	0	0
1196	0	0
1197	0	0.982039
1198	0	0.982039
1199	0	0.982039
1200	0	0.982039
1201	0	0.1
1202	0	0.987355
1203	0	0.990958
1204	0	0.990958
1205	0	0.994565
1206	0	0.99457
1207	0	0.99457
1208	0	0.99457
1209	0	0.992691
1210	0	0.989048
1211	0	0.981797
1212	0	0.981767
1213	0	1
1214	0	0.6
1215	0	0.25
1216	0	0.2
1217	0	0.2
1218	0	0.3
1219	0	0.107143
1220	0	0.047619
1221	0	0.0666667
1222	0	0.0357143
1223	0	0.0357143
1224	0	0.206667
1225	0	0.108225
1226	0	0.936895
1227	0	0.333333
1228	0	0.333333
1229	0	0.333333
1230	0	0.166667
1231	0	0.601307
1232	0	0.594771
1233	0	0.532164
1234	0	0.563462
1235	0	0.515803
1236	0	0.279272
1237	0	0.187935
1238	0	0.157895
1239	0	0.209489
1240	0	0.157459
1241	0	0.227706
1242	0	0.46193
1243	0	0.272773
1244	0	0.293152
1245	0	0.257772
1246	0	0.194879
1247	0	0.11828
1248	0	0.108466
1249	0	0.115152
1250	0	0.310078
1251	0	0.388292
1252	0	0.12381
1253	0	0.0666667
1254	0	0
1255	0	0
1256	0	0
1257	0	0.0888889
1258	0	0
1259	0	0
1260	0	0
1261	0	0
1262	0	0.398538
1263	0	0.46025
1264	0	0.8077
1265	0	0.32752
1266	0	0.291601
1267	0	0.355995
1268	0	0.363619
1269	0	0.203361
1270	0	0.128342
1271	0	0.105072
1272	0	0.104575
1273	0	0.125
1274	0	0.161905
1275	0	0.0989011
1276	0	0.0769231
1277	0	0.0909091
1278	0	0.0833333
1279	0	0.136364
1280	0	0.163636
1281	0	0.142857
1282	0	0.292793
1283	0	0.166667
1284	0	0.784314
1285	0	0.529412
1286	0	0.433874
1287	0	0.332569
1288	0	0.394038
1289	0	0.494949
1290	0	0.313287
1291	0	0.181435
1292	0	0.15636
1293	0	0.151418
1294	0	0.181557
1295	0	0.513672
1296	0	0.516726
1297	0	0.239958
1298	0	0.241414
1299	0	0.292339
1300	0	0.464441
1301	0	0.415789
1302	0	0.248366
1303	0	0.279412
1304	0	0.248366
1305	0	0.248366
1306	0	0.571429
1307	0	0.571429
1308	0	0.699955
1309	0	0.323137
1310	0	0.323137
1311	0	0.319759
1312	0	0.319759
1313	0	0.785922
1314	0	0.923831
1315	0	0.666346
1316	0	0.692251
1317	0	0.70756
1318	0	0.766509
1319	0	0.843563
1320	0	0.865839
1321	0	0.880761
1322	0	0.950943
1323	0	0.969564
1324	0	0.966071
1325	0	0.966065
1326	0	0.966065
1327	0	0.967837
1328	0	0.969583
1329	0	0.969583
1330	0	0.969583
1331	0	0.355072
1332	0	0.347826
1333	0	0.698645
1334	0	0.264822
1335	0	0.712069
1336	0	0.943259
1337	0	0.943252
1338	0	0.943179
1339	0	0
1340	0	0
1341	0	0
1342	0	0
1343	0	0
1344	0	0.166667
1345	0	0.0666667
1346	0	0.0666667
1347	0	0.047619
1348	0	0.0714286
1349	0	0.0714286
1350	0	0.0833333
1351	0	0.217949
1352	0	0.175824
1353	0	0.25
1354	0	0.321053
1355	0	0.378947
1356	0	0.414286
1357	0	0.528571
1358	0	0.687747
1359	0	0.729231
1360	0	1
1361	0	1
1362	0	1
1363	0	0.931897
1364	0	0.931897
1365	0	0.540169
1366	0	0.994585
1367	0	0.994585
1368	0	0.986371
1369	0	0.620628
1370	0	0.888853
1371	0	0.496283
1372	0	0.273627
1373	0	0.552695
1374	0	0.58297
1375	0	0.612485
1376	0	0.619521
1377	0	0.619521
1378	0	0.972852
1379	0	0.981777
1380	0	0
1381	0	0
1382	0	0
1383	0	0
1384	0	0
1385	0	0
1386	0	0
1387	0	0
1388	0	0
1389	0	0
1390	0	0.59962
1391	0	0
1392	0	0
1393	0	0
1394	0	0
1395	0	0.333333
1396	0	0.333333
1397	0	0.333333
1398	0	0.333333
1399	0	0.333333
1400	0	0.418641
1401	0	0.545341
1402	0	0.545954
1403	0	0.857143
1404	0	0.996404
1405	0	0.996404
1406	0	0.996404
1407	0	0.996404
1408	0	0.996404
1409	0	0.996404
1410	0	0.996404
1411	0	0.996408
1412	0	0.996404
1413	0	0.996408
1414	0	0.996408
1415	0	0.996408
1416	0	0.994619
1417	0	0.994619
1418	0	0.994619
1419	0	0.994633
1420	0	0
1421	0	0.996427
1422	0	0.996427
1423	0	0.994648
1424	0	0.994648
1425	0	0.992867
1426	1	0
1427	0	0
1428	0	0.996433
1429	0	0.996433
1430	0	0.996433
1431	0	0.996433
1432	0	0.996433
1433	0	0.489331
1434	0	0.489331
1435	0	0.956278
1436	0	0.956354
1437	0	0.996446
1438	0	0.996446
1439	0	0.996446
1440	0	0.996446
1441	0	0.996446
1442	0	0.996446
1443	0	0.996446
1444	0	0.996446
1445	0	0
1446	0	0
1447	0	0
1448	0	0
1449	0	0
1450	0	0
1451	0	0
1452	0	0
1453	0	0.994676
1454	0	0.994676
1455	0	0.994676
1456	0	0.994676
1457	0	0.992911
1458	0	0.994681
1459	0	0.994681
1460	0	0.994681
1461	0	0.994681
1462	0	0.994681
1463	0	0.994681
1464	0	0.994681
1465	0	0.994671
1466	0	0.994671
1467	0	0
1468	0	0
1469	0	0
1470	0	0
1471	0	0
1472	0	0
1473	0	0
1474	0	0
1475	0	0.991119
1476	0	0.868966
1477	0	0.442688
1478	0	0.166667
1479	0	0.214286
1480	0	0.214286
1481	0	0.214286
1482	0	0.107143
1483	0	0.340659
1484	0	0.2
1485	0	0.3
1486	0	0.1
1487	0	0.166667
1488	0	0.1
1489	0	0.1
1490	0	0.1
1491	0	0.1
1492	0	0.1
1493	0	0.1
1494	0	0.166667
1495	0	0.166667
1496	0	0.1
1497	0	0.1
1498	0	0.1
1499	0	0.1
1500	0	0.1
1501	0	0.1
1502	0	0.1
1503	0	0.1
1504	0	1
1505	0	1
1506	0	1
1507	0	1
1508	0	1
1509	0	1
1510	0	1
1511	0	1
1512	0	0.419246
1513	0	0.9893
1514	0	0.987524
1515	0	0
1516	0	0
1517	0	0.987534
1518	0	0
1519	0	0
1520	0	0
1521	0	0
1522	0	0
1523	0	0
1524	0	0
1525	0	0
1526	0	0
1527	0	0
1528	0	0
1529	0	0
1530	0	0
1531	0	0
1532	0	0
1533	0	0
1534	0	0
1535	0	0
1536	0	0
1537	0	0
1538	0	0
1539	0	0
1540	0	0
1541	0	0
1542	0	0
1543	0	0
1544	0	0
1545	0	0
1546	0	0
1547	0	0
1548	0	0
1549	0	0
1550	0	0
1551	0	0
1552	0	0
1553	0	0
1554	0	0
1555	0	0
1556	0	0
1557	0	0
1558	0	0
1559	0	0
1560	0	0
1561	0	0
1562	0	0
1563	0	0
1564	0	0
1565	0	0
1566	0	0
1567	0	0
1568	0	0
1569	0	0
1570	0	0
1571	0	0
1572	0	0
1573	0	0
1574	0	0
1575	0	0
1576	0	0
1577	0	0
1578	0	0
1579	0	0
1580	0	0
1581	0	0
1582	0	0
1583	0	0.985784
1584	0	0.985784
1585	0	0.985797
1586	0	0.985797
1587	0	0.987556
1588	0	0.985798
1589	0	0.985786
1590	0	0
1591	0	0.984002
1592	0	0.982232
1593	0	0.982235
1594	0	0.971612
1595	0	0.644444
1596	0	0.644444
1597	0	0.531532
1598	0	0.542042
1599	0	0.906256
1600	0	0.358974
1601	0	0.424242
1602	0	0.318182
1603	0	0.282051
1604	0	0.106061
1605	0	0.882862
1606	0	0.166667
1607	0	0.166667
1608	0	0.166667
1609	0	0.166667
1610	0	0.166667
1611	0	0.166667
1612	0	0.166667
1613	0	0.166667
1614	0	0.166667
1615	0	0.166667
1616	0	0.166667
1617	0	0.166667
1618	0	0
1619	0	0
1620	0	0
1621	0	0.951698
1622	0	0.911902
1623	0	0.669312
1624	0	0.623153
1625	0	0.568966
1626	0	0.555556
1627	0	0.35873
1628	0	0.35873
1629	0	0.392063
1630	0	0.346032
1631	0	0.397177
1632	0	0.475369
1633	0	0.333333
1634	0	0.353333
1635	0	0.384058
1636	0	0.297101
1637	0	0.297101
1638	0	0.25
1639	0	0.134058
1640	0	0.108696
1641	0	0.0978261
1642	0	0.0978261
1643	0	0.0905797
1644	0	0.0750988
1645	0	0.0750988
1646	0	0.0705645
1647	0	0.0436975
1648	0	0.0436975
1649	0	0.0403361
1650	0	0.0345345
1651	0	0.0375375
1652	0	0.0405405
1653	0	0.48323
1654	0	0.147126
1655	0	0.231013
1656	0	0.184494
1657	0	0.459155
1658	0	0.0504202
1659	0	0.0584677
1660	0	0.0502646
1661	0	0.0553846
1662	0	0.0517241
1663	0	0.0517241
1664	0	0.0555556
1665	0	0.0555556
1666	0	0.0517241
1667	0	0.0591133
1668	0	0.0689655
1669	0	0.121951
1670	0	0.062069
1671	0	0.062069
1672	0	0.0544355
1673	0	0.112011
1674	0	0.11471
1675	0	0.11471
1676	0	0.13798
1677	0	0.291411
1678	0	0.141026
1679	0	0.133333
1680	0	0.104878
1681	0	0.0660661
1682	0	0.0597561
1683	0	0.196018
1684	0	0.0646465
1685	0	0.171064
1686	0	0.145071
1687	0	0.151647
1688	0	0.124988
1689	0	0.113119
1690	0	0.113917
1691	0	0.115048
1692	0	0.118412
1693	0	0.130839
1694	0	0.14527
1695	0	0.170988
1696	0	0.13899
1697	0	0.105495
1698	0	0.106049
1699	0	0.100917
1700	0	0.0916593
1701	0	0.084233
1702	0	0.0659557
1703	0	0.0635659
1704	0	0.06044
1705	0	0.0603215
1706	0	0.0602829
1707	0	0.0581417
1708	0	0.085959
1709	0	0.129173
1710	0	0.117647
1711	0	0.115294
1712	0	0.113725
1713	0	0.113725
1714	0	0.0972424
1715	0	0.0540627
1716	0	0.0542386
1717	0	0.0330802
1718	0	0.0348242
1719	0	0.0341206
1720	0	0.0341855
1721	0	0.0352463
1722	0	0.0327945
1723	0	0.0368009
1724	0	0.0337318
1725	0	0.0360188
1726	0	0.0385805
1727	0	0.0424058
1728	0	0.0460028
1729	0	0.0430267
1730	0	0.0535318
1731	0	0.0502842
1732	0	0.0524816
1733	0	0.0571564
1734	0	0.05951
1735	0	0.0741555
1736	0	0.0800613
1737	0	0.0797388
1738	0	0.0756317
1739	0	0.0795509
1740	0	0.0791139
1741	0	0.0873093
1742	0	0.2354
1743	0	0.288024
1744	0	0.310821
1745	0	0.320292
1746	0	0.0443548
1747	0	0.0505747
1748	0	0.045977
1749	0	0.047619
1750	0	0.047619
1751	0	0.0512821
1752	0	0.0553846
1753	0	0.0553846
1754	0	0.0615385
1755	0	0.0688406
1756	0	0.0688406
1757	0	0.0633333
1758	0	0.0633333
1759	0	0.0633333
1760	0	0.0652174
1761	0	0.0692641
1762	0	0.0789474
1763	0	0.0877193
1764	0	0.0789474
1765	0	0.0842105
1766	0	0.0935673
1767	0	0.0935673
1768	0	0.104575
1769	0	0.104575
1770	0	0.117647
1771	0	0.117647
1772	0	0.125
1773	0	0.142857
1774	0	0.142857
1775	0	0.164835
1776	0	0.164835
1777	0	0.164835
1778	0	0.164835
1779	0	0.164835
1780	0	0.164835
1781	0	0.164835
1782	0	0.0277778
1783	0	0.0277778
1784	0	0.0277778
1785	0	0.0357143
1786	0	0.105146
1787	0	0.0978091
1788	0	0.117486
1789	0	0.129164
1790	0	0.117967
1791	0	0.116152
1792	0	0.118073
1793	0	0.125607
1794	0	0.104658
1795	0	0.118431
1796	0	0.280816
1797	0	0.154622
1798	0	0.185383
1799	0	0.188948
1800	0	0.492754
1801	0	0.501583
1802	0	0.343643
1803	0	0.386842
1804	0	0.44
1805	0	0.551261
1806	0	0.551261
1807	0	0.566667
1808	0	0.772245
1809	0	0.772245
1810	0	0.874204
1811	0	0.884238
1812	0	0.857686
1813	0	0.1
1814	0	0.166667
1815	0	0.166667
1816	0	0.166667
1817	0	0.166667
1818	0	0.166667
1819	0	0.166667
1820	0	0
1821	0	0
1822	0	0
1823	0	0
1824	0	0
1825	0	0.333333
1826	0	1
1827	0	1
1828	0	1
1829	0	1
1830	0	1
1831	0	0
1832	0	0
1833	0	0
1834	0	0
1835	0	0
1836	0	0.333333
1837	0	0.373178
1838	0	0.605911
1839	0	0.300263
1840	0	0.571775
1841	0	0
1842	0	0
1843	0	0
1844	0	0
1845	0	0
1846	0	0
1847	0	0
1848	0	0
1849	0	0
1850	0	0
1851	0	0
1852	0	0
1853	0	0
1854	0	0.619685
1855	0	0.90347
1856	0	0.188462
1857	0	0.210084
1858	0	0.273563
1859	0	0.784314
1860	0	0
1861	0	0
1862	0	0
1863	0	0
1864	0	0
1865	0	0
1866	0	0
1867	0	0
1868	0	0
1869	0	0
1870	0	0
1871	0	0
1872	0	0
1873	1	0
1874	1	0
1875	1	0
1876	0	0
1877	0	0.968083
1878	0	0.964568
1879	0	0.964601
1880	0	0.622222
1881	0	0.983946
1882	0	0.985724
1883	0	0
1884	0	0
1885	0	0
1886	0	0.333333
1887	0	0.333333
1888	0	0.333333
1889	0	0.6
1890	0	0.6
1891	0	0.6
1892	0	0.6
1893	0	0.6
1894	0	0.992854
1895	0	0.992854
1896	0	0.992854
1897	0	0.992854
1898	0	0.994638
1899	0	0.994638
1900	0	0.99286
1901	0	0.992867
1902	0	0
1903	0	0
1904	0	0
1905	0	0
1906	0	0
1907	0	0
1908	0	0
1909	0	0
1910	0	0
1911	0	0
1912	0	0
1913	0	0
1914	0	0
1915	0	0
1916	0	0
1917	0	0
1918	0	0
1919	0	0
1920	0	0
1921	0	0
1922	0	0
1923	0	0
1924	0	0
1925	0	0
1926	0	0
1927	0	0
1928	0	0
1929	0	0
1930	0	0
1931	0	0
1932	0	0
1933	0	0
1934	0	0
1935	0	0
1936	0	0
1937	0	0
1938	0	0
1939	0	0
1940	0	0
1941	0	0
1942	0	0
1943	0	0
1944	0	0
1945	0	0
1946	0	0
1947	0	0
1948	0	0
1949	0	0
1950	0	0
1951	0	0
1952	0	0
1953	0	0
1954	0	0
1955	0	0
1956	0	0
1957	0	0
1958	0	0
1959	0	0
1960	0	0
1961	0	0
1962	0	0
1963	0	0
1964	0	0.992867
1965	0	0.994648
1966	0	0.992873
1967	0	0.994652
1968	0	0.994652
1969	0	0.992898
1970	0	0.991127
1971	0	1
1972	0	0.991144
1973	0	0
1974	0	0
1975	0	0
1976	0	0
1977	0	0
1978	0	0.996446
1979	0	0.996446
1980	0	0.994671
1981	0	0.994671
1982	0	0.994671
1983	0	0.992898
1984	0	0.992898
1985	0	0.992898
1986	0	0.952381
1987	0	0.952381
1988	0	0.924973
1989	0	0.795322
1990	0	0.795322
1991	0	0.795322
1992	0	0.795322
1993	0	0.416667
1994	0	0.409357
1995	0	0.392157
1996	0	0.4
1997	0	0.4
1998	0	0.325
1999	0	0.325
2000	0	0.257143
2001	0	0.257143
2002	0	0.257143
2003	0	0.228571
2004	0	0.228571
2005	0	0.307692
2006	0	0.320513
2007	0	0.266667
2008	0	0.552381
2009	0	0.742857
2010	0	0.857143
2011	0	0.857143
2012	0	0.857143
2013	0	0.857143
2014	0	0.742857
2015	0	0.827619
2016	0	0.602216
2017	0	0.169118
2018	0	0.169935
2019	0	0.619844
2020	0	0.5
2021	0	0.5
2022	0	0.5
2023	0	0.5
2024	0	0.5
2025	0	0.5
2026	0	0.5
2027	0	0.5
2028	0	0.5
2029	0	0.5
2030	0	0.5
2031	0	0.5
2032	0	0.5
2033	0	0.166667
2034	0	0.166667
2035	0	0.166667
2036	0	0.166667
2037	0	0.166667
2038	0	0.166667
2039	0	0.166667
2040	0	0.166667
2041	0	0.166667
2042	0	0.166667
2043	0	0.166667
2044	0	0.166667
2045	0	0.166667
2046	0	0.166667
2047	0	0.166667
2048	0	0.166667
2049	0	0.166667
2050	0	0.166667
2051	0	0.166667
2052	0	0.166667
2053	0	0.133333
2054	0	0.133333
2055	0	0.1
2056	0	0.1
2057	0	0.1
2058	0	0.1
2059	0	0.1
2060	0	0.166667
2061	0	0.166667
2062	0	0.166667
2063	0	0.166667
2064	0	0.166667
2065	0	0.166667
2066	0	0.166667
2067	0	0.166667
2068	0	0.166667
2069	0	0.166667
2070	0	0.166667
2071	0	0.166667
2072	0	0.166667
2073	0	0.166667
2074	0	0.166667
2075	0	0.393416
2076	0	0.408081
2077	0	0.428283
2078	0	0.215356
2079	0	0.175824
2080	0	0.236364
2081	0	0.236364
2082	0	0.236364
2083	0	0.2
2084	0	0.222222
2085	0	0.172643
2086	0	0.170328
2087	0	0.511801
2088	0	0.497222
2089	0	0.869538
2090	0	0.515223
2091	0	0.904781
2092	0	0.652752
2093	0	0
2094	0	0
2095	0	0
2096	0	0
2097	0	0
2098	0	0
2099	0	0
2100	0	0
2101	0	0
2102	0	0
2103	0	0
2104	0	0
2105	0	0
2106	0	0
2107	0	0
2108	0	0
2109	0	0
2110	0	0
2111	0	0
2112	0	0
2113	0	0
2114	0	0
2115	0	0
2116	0	0.695023
2117	0	0.98055
2118	0	0.98055
2119	0	0.982311
2120	0	0.982311
2121	0	0.982312
2122	0	0.872792
2123	0	0
2124	0	0
2125	0	0
2126	0	0
2127	0	0
2128	0	0
2129	0	0
2130	0	0
2131	0	0
2132	0	0
2133	0	0
2134	0	0
2135	0	0
2136	0	0
2137	0	0
2138	0	0
2139	0	0
2140	0	0
2141	0	0
2142	0	0
2143	0	0
2144	0	0
2145	0	0
2146	0	0
2147	0	0
2148	0	0
2149	0	0
2150	0	0
2151	0	0
2152	0	0
2153	0	0
2154	0	0
2155	0	0
2156	0	0
2157	0	0
2158	0	0
2159	0	0
2160	0	0
2161	0	0
2162	0	0
2163	0	0
2164	0	0
2165	0	0
2166	0	0
2167	0	0.867717
2168	0	1
2169	0	1
2170	0	0.786311
2171	0	0.63266
2172	0	0.380762
2173	0	0.725275
2174	0	0.44953
2175	0	0
2176	0	0
2177	0	0.967213
2178	0	0.967213
2179	0	1
2180	0	0.967213
2181	0	0.967213
2182	0	1
2183	0	1
2184	0	1
2185	0	1
2186	0	0.636723
2187	0	0.610734
2188	0	0.626739
2189	0	0.653358
2190	0	0.599516
2191	0	0.548699
2192	0	0.4
2193	0	0.4
2194	0	0.298246
2195	0	0.163636
2196	0	0.166667
2197	0	0.333333
2198	0	0.3
2199	0	0.333333
2200	0	0.8
2201	0	0.681818
2202	0	0.38
2203	0	0.732804
2204	0	0.754839
2205	0	0.768939
2206	0	0.723708
2207	0	0
2208	0	0
2209	0	0
2210	0	0
2211	0	0
2212	0	0.166667
2213	0	0
2214	0	0
2215	0	0.304886
2216	0	0.226713
2217	0	0.236443
2218	0	0.201883
2219	0	0.196203
2220	0	0.202464
2221	0	0.111623
2222	0	0.0963145
2223	0	0.0858852
2224	0	0.0746368
2225	0	0.113924
2226	0	0.108401
2227	0	0.0719408
2228	0	0.0706991
2229	0	0.0669024
2230	0	0.071978
2231	0	0.0713499
2232	0	0.0588652
2233	0	0.0561303
2234	0	0.0537356
2235	0	0.0612613
2236	0	0.079955
2237	0	0.105618
2238	0	0.0982334
2239	0	0.105121
2240	0	0.060387
2241	0	0.0693157
2242	0	0.0687522
2243	0	0.073073
2244	0	0.0735743
2245	0	0.0849057
2246	0	0.0909804
2247	0	0.0894118
2248	0	0.0758145
2249	0	0.0682957
2250	0	0.0689223
2251	0	0.0705882
2252	0	0.0718433
2253	0	0.0740203
2254	0	0.0632997
2255	0	0.0639731
2256	0	0.0645363
2257	0	0.0921626
2258	0	0.0887491
2259	0	0.0908456
2260	0	0.0964361
2261	0	0.0814413
2262	0	0.0805534
2263	0	0.0758478
2264	0	0.0719987
2265	0	0.0778095
2266	0	0.0933389
2267	0	0.0831375
2268	0	0.155743
2269	0	0.154536
2270	0	0.171975
2271	0	0.166185
2272	0	0.200708
2273	0	0.196162
2274	0	0.1591
2275	0	0.150973
2276	0	0.151148
2277	0	0.164469
2278	0	0.165442
2279	0	0.17013
2280	0	0.187972
2281	0	0.177901
2282	0	0.150891
2283	0	0.31746
2284	0	0.31746
2285	0	0.31746
2286	0	0.31746
2287	0	0.258142
2288	0	0.284441
2289	0	0
2290	0	0
2291	0	0.508235
2292	0	0.299848
2293	0	0.455286
2294	0	0.639603
2295	0	0
2296	0	0
2297	0	0
2298	0	0
2299	0	0
2300	0	0
2301	0	0
2302	0	0
2303	0	0
2304	0	0
2305	0	0
2306	0	0
2307	0	0
2308	0	0
2309	0	0
2310	0	0
2311	0	0
2312	0	0
2313	0	0
2314	0	0
2315	0	0
2316	0	0
2317	0	0
2318	0	0.333333
2319	0	0.777778
2320	0	0.777778
2321	0	1
2322	0	1
2323	0	1
2324	0	1
2325	0	0.948334
2326	0	0.946281
2327	0	0.672727
2328	0	0.8
2329	0	0.928691
2330	0	0.928691
2331	0	0.928678
2332	0	0.928678
2333	0	0.734392
2334	0	1
2335	0	1
2336	0	0.78474
2337	0	0.738431
2338	0	0.739287
2339	0	0.588028
2340	0	0.536722
2341	0	0.552207
2342	0	0
2343	0	0
2344	0	0
2345	0	0
2346	0	0.886165
2347	0	0
2348	0	0
2349	0	0
2350	0	0
2351	0	0
2352	0	0
2353	0	0
2354	0	0.166667
2355	0	0.333333
2356	0	1
2357	0	1
2358	0	1
2359	0	1
2360	0	1
2361	0	1
2362	0	1
2363	0	1
2364	0	1
2365	0	1
2366	0	0
2367	0	0
2368	0	0.980508
2369	0	0.980506
2370	0	0.982272
2371	0	0.991071
2372	0	0.991079
2373	0	0
2374	0	0
2375	0	0
2376	0	0
2377	0	0
2378	0	0
2379	0	0
2380	0	0
2381	0	0
2382	0	0
2383	0	0
2384	0	0
2385	0	0
2386	0	0
2387	0	0
2388	0	0
2389	0	0
2390	0	0
2391	0	0
2392	0	0
2393	0	0
2394	0	0
2395	0	0
2396	0	0.991119
2397	0	0.991119
2398	0	0.991119
2399	0	0.991119
2400	0	0.991119
2401	0	0.991119
2402	0	0.992886
2403	0	0.992886
2404	0	0.991119
2405	0	0.991119
2406	0	0.991119
2407	0	0
2408	0	0
2409	0	0
2410	0	0
2411	0	0
2412	0	0
2413	0	0
2414	0	0
2415	0	0
2416	0	0
2417	0	0
2418	0	0
2419	0	0
2420	0	0
2421	0	0
2422	0	0
2423	0	0
2424	0	0
2425	0	0
2426	0	0
2427	0	0
2428	0	0
2429	0	0
2430	0	0
2431	0	0
2432	0	0
2433	0	0
2434	0	0
2435	0	0
2436	0	0
2437	0	0
2438	0	0
2439	0	0
2440	0	0
2441	0	0
2442	0	0
2443	0	0
2444	0	0
2445	0	0
2446	0	0
2447	0	0
2448	0	0
2449	0	0
2450	0	0
2451	0	0
2452	0	0
2453	0	0
2454	0	0
2455	0	0
2456	0	0
2457	0	0
2458	0	0
2459	0	0
2460	0	0
2461	0	0
2462	0	0
2463	0	0
2464	0	0
2465	0	0
2466	0	0
2467	0	0
2468	0	0
2469	0	0
2470	0	0
2471	0	0
2472	0	0
2473	0	0
2474	0	0
2475	0	0
2476	0	0
2477	0	0
2478	0	0
2479	0	0
2480	0	0
2481	0	0
2482	0	0
2483	0	0
2484	0	0
2485	0	0
2486	0	0
2487	0	0
2488	0	0
2489	0	0
2490	0	0
2491	0	0
2492	0	0
2493	0	0
2494	0	0
2495	0	0
2496	0	0
2497	0	0
2498	0	0
2499	0	0
2500	0	0
2501	0	0
2502	0	0
2503	0	0
2504	0	0
2505	0	0
2506	0	0
2507	0	0
2508	0	0
2509	0	0
2510	0	0
2511	0	0
2512	0	0
2513	0	0
2514	0	0
2515	0	0
2516	0	0
2517	0	0
2518	0	0
2519	0	0
2520	0	0
2521	0	0
2522	0	0
2523	0	0
2524	0	0
2525	0	0
2526	0	0
2527	0	0
2528	0	0
2529	0	0
2530	0	0
2531	0	0
2532	0	0
2533	0	0
2534	0	0
2535	0	0
2536	0	0
2537	0	0
2538	0	0
2539	0	0
2540	0	0
2541	0	0
2542	0	0
2543	0	0
2544	0	0
2545	0	0
2546	0	0
2547	0	0
2548	0	0
2549	0	0
2550	0	0
2551	0	0
2552	0	0
2553	0	0
2554	0	0
2555	0	0
2556	0	0
2557	0	0
2558	0	0
2559	0	0
2560	0	0
2561	0	0
2562	0	0
2563	0	0
2564	0	0
2565	0	0
2566	0	0
2567	0	0
2568	0	0
2569	0	0
2570	0	0
2571	0	0
2572	0	0
2573	0	0
2574	0	0
2575	0	0
2576	0	0
2577	0	0
2578	0	0
2579	0	0
2580	0	0
2581	0	0
2582	0	0
2583	0	0
2584	1	0
2585	1	0
2586	1	0
2587	1	0
2588	1	0
2589	1	0
2590	1	0
2591	0	0
2592	0	0
2593	0	0
2594	0	0
2595	0	0
2596	0	0
2597	0	0
2598	0	0
2599	0	0
2600	0	0
2601	0	0
2602	0	0
2603	0	0
2604	0	0
2605	0	0
2606	0	0
2607	0	0
2608	0	0
2609	0	0
2610	0	0
2611	0	0
2612	0	0
2613	0	0
2614	0	0
2615	0	0
2616	0	0
2617	0	0
2618	0	0
2619	0	0
2620	0	0
2621	0	0
2622	0	0
2623	0	0
2624	0	0
2625	0	0
2626	0	0
2627	0	0
2628	0	0
2629	0	0
2630	0	0
2631	0	0
2632	0	0
2633	0	0
2634	0	0
2635	0	0
2636	0	0
2637	0	0
2638	0	0
2639	0	0
2640	0	0
2641	0	0
2642	0	0
2643	0	0
2644	0	0
2645	0	0
2646	0	0
2647	0	0
2648	0	0
2649	0	0
2650	0	0
2651	0	0
2652	0	0
2653	0	0
2654	0	0
2655	0	0
2656	0	0
2657	0	0
2658	0	0
2659	0	0
2660	0	0
2661	0	0
2662	0	0
2663	0	0
2664	0	0
2665	0	0
2666	0	0
2667	0	0
2668	0	0
2669	0	0
2670	0	0
2671	0	0
2672	0	0
2673	0	0
2674	0	0
2675	0	0
2676	0	0
2677	0	0
2678	0	0
2679	0	0
2680	0	0
2681	0	0
2682	0	0
2683	0	0
2684	0	0
2685	0	0
2686	0	0
2687	0	0
2688	0	0
2689	0	0
2690	0	0
2691	0	0
2692	0	0
2693	0	0
2694	0	0
2695	0	0
2696	0	0
2697	0	0
2698	0	0
2699	0	0
2700	0	0
2701	0	0
2702	0	0
2703	0	0
2704	0	0
2705	0	0
2706	0	0
2707	0	0
2708	0	0
2709	0	0
2710	0	0
2711	0	0
2712	0	0.992867
2713	0	0.992867
2714	0	0.992867
2715	0	0.992867
2716	0	0.991095
2717	0	0.991095
2718	0	0.991095
2719	0	0.991095
2720	0	0.991079
2721	0	0.973421
2722	0	0.5
2723	0	0.5
2724	0	0.5
2725	0	0.954615
2726	0	0.93511
2727	0	0.913821
2728	0	0.982609
2729	0	0.568672
2730	0	0.542877
2731	0	0.292205
2732	0	0.365703
2733	0	0.288889
2734	0	0.4
2735	0	0.4
2736	0	1
2737	0	0
2738	0	0
2739	0	0
2740	0	0
2741	0	0
2742	0	0
2743	0	0
2744	0	0
2745	0	0
2746	0	0
2747	0	0
2748	0	0
2749	0	0
2750	0	0
2751	0	0
2752	0	0
2753	0	0
2754	0	0
2755	0	0
2756	0	0
2757	0	0
2758	0	0
2759	0	0
2760	0	0
2761	0	0
2762	0	0
2763	0	0
2764	0	0
2765	0	0
2766	0	0
2767	0	0
2768	0	0
2769	0	0
2770	0	0
2771	0	0
2772	0	0
2773	0	0
2774	0	0
2775	0	0
2776	0	0
2777	0	0
2778	0	0
2779	0	0
2780	0	0
2781	0	0
2782	0	0
2783	0	0
2784	0	0
2785	0	0
2786	0	0
2787	0	0
2788	0	0
2789	0	0
2790	0	0
2791	0	0
2792	0	0
2793	0	0
2794	0	0
2795	0	0
2796	0	0
2797	0	0
2798	0	0
2799	0	0
2800	0	0
2801	0	0
2802	0	0
2803	0	0
2804	0	0
2805	0	0
2806	0	0
2807	0	0
2808	0	0
2809	0	0
2810	0	0
2811	0	0
2812	0	0
2813	0	0
2814	0	0
2815	0	0
2816	0	0
2817	0	0
2818	0	0
2819	0	0
2820	0	0
2821	0	0
2822	0	0
2823	0	0
2824	0	0
2825	0	0
2826	0	0
2827	0	0
2828	0	0
2829	0	0
2830	0	0
2831	0	0
2832	0	0
2833	0	0
2834	0	0
2835	0	0
2836	0	0
2837	0	0
2838	0	0
2839	0	0
2840	0	0
2841	0	0
2842	0	0
2843	0	0
2844	0	0
2845	0	0
2846	0	0
2847	0	0
2848	0	0
2849	0	0
2850	0	0
2851	0	0
2852	0	0
2853	0	0
2854	0	0
2855	0	0
2856	0	0
2857	0	0
2858	0	0
2859	0	0
2860	0	0
2861	0	0
2862	0	0
2863	0	0.903279
2864	0	0.903279
2865	0	0.903279
2866	0	0.874141
2867	0	0.573935
2868	0	0.29704
2869	0	0.758333
2870	0	0
2871	0	0.1
2872	0	0
2873	0	0
2874	0	0.1
2875	0	0.111111
2876	0	0.0897436
2877	0	0.184211
2878	0	0.172348
2879	0	0.173077
2880	0	0.133998
2881	0	0.094803
2882	0	0.0996885
2883	0	0.0777314
2884	0	0.0881034
2885	0	0.107632
2886	0	0.152231
2887	0	0.151856
2888	0	0.201255
2889	0	0.289507
2890	0	0.435188
2891	0	0.731712
2892	0	0.861765
2893	0	0.984252
2894	0	0.213991
2895	0	0.438689
2896	0	0.225122
2897	0	0.417883
2898	0	0.673418
2899	0	0.597335
2900	0	0.221259
2901	0	0.256265
2902	0	0.254317
2903	0	0.256094
2904	0	0.291573
2905	0	0.235352
2906	0	0.288199
2907	0	0.319991
2908	0	0.36258
2909	0	0.39797
2910	0	0.393177
2911	0	0.378575
2912	0	0
2913	0	0
2914	0	0
2915	0	0
2916	0	0
2917	0	0
2918	0	0
2919	0	0
2920	0	0
2921	0	0
2922	0	0
2923	0	0
2924	0	0
2925	0	0
2926	0	0
2927	0	0
2928	0	0
2929	0	0
2930	0	0
2931	0	0
2932	0	0
2933	0	0
2934	0	0
2935	0	0
2936	0	0
2937	0	0
2938	0	0
2939	0	0
2940	0	0
2941	0	0
2942	0	0
2943	0	0
2944	0	0
2945	0	0
2946	0	0
2947	0	0
2948	0	0
2949	0	0
2950	0	0
2951	0	0
2952	0	0
2953	0	0
2954	0	0.341538
2955	0	0.33
2956	0	0.326087
2957	0	0.245014
2958	0	0.264615
2959	0	0.247863
2960	0	0.245014
2961	0	0.23545
2962	0	0.219212
2963	0	0.142771
2964	0	0.106122
2965	0	0.106918
2966	0	0.480771
2967	0	0.426264
2968	0	0.393429
2969	0	0.352321
2970	0	0.298302
2971	0	0.255183
2972	0	0.214055
2973	0	0.264501
2974	0	0.211757
2975	0	0.212357
2976	0	0.16129
2977	0	0.134454
2978	0	0.201519
2979	0	0
2980	0	0
2981	0	0
2982	0	0
2983	0	0
2984	0	0
2985	0	0
2986	0	0.448202
2987	0	0.429766
2988	0	0.107143
2989	0	0.047619
2990	0	0.127273
2991	0	0.2
2992	0	0.272727
2993	0	0.272727
2994	0	0.178339
2995	0	0.224214
2996	0	0.246009
2997	0	0.208709
2998	0	0.183333
2999	0	0.193182
3000	0	0.174242
3001	0	0.16129
3002	0	0.13321
3003	0	0.142045
3004	0	0.408602
3005	0	0.0512821
3006	0	0.0350877
3007	0	0.026455
3008	0	0.317498
3009	0	0.269783
3010	0	0
3011	0	0.118577
3012	0	0.138528
3013	0	0.365139
3014	0	0.155556
3015	0	0.0666667
3016	0	0.1
3017	0	0.1
3018	0	0.2
3019	0	0.2
3020	0	0.8
3021	0	0.523944
3022	0	0.369391
3023	0	0.378922
3024	0	0.379932
3025	0	0.0888889
3026	0	0.0888889
3027	0	0.121212
3028	0	0.0666667
3029	0	0.213235
3030	0	0.216655
3031	0	0.233137
3032	0	0.313439
3033	0	0.598068
3034	0	0.414564
3035	0	0.397966
3036	0	0.398369
3037	0	0.555155
3038	0	0.556231
3039	0	0
3040	0	0
3041	0	0
3042	0	0
3043	0	0
3044	0	0
3045	0	0
3046	0	0
3047	0	0
3048	0	0
3049	0	0.333333
3050	0	0.266667
3051	0	0.178571
3052	0	0.64797
3053	0	0.514486
3054	0	0
3055	0	0.282051
3056	0	0.413543
3057	0	0.77681
3058	0	0.504738
3059	0	0.378788
3060	0	0.6
3061	0	0
3062	0	0
3063	0	0
3064	0	0
3065	0	0
3066	0	0
3067	0	0
3068	0	0
3069	0	0
3070	0	0
3071	0	0
3072	0	0
3073	0	0
3074	1	0
3075	1	0
3076	1	0
3077	1	0
3078	0	0
3079	0	0
3080	0	0
3081	0	0
3082	0	0
3083	0	0
3084	0	0
3085	0	0
3086	0	0
3087	0	0
3088	0	0
3089	0	0
3090	0	0
3091	0	0
3092	0	0
3093	0	0
3094	1	0
3095	1	0
3096	1	0
3097	1	0
3098	1	0
3099	1	0
3100	1	0
3101	1	0
3102	1	0
3103	1	0
3104	1	0
3105	1	0
3106	1	0
3107	1	0
3108	1	0
3109	1	0
3110	1	0
3111	0	0
3112	0	0
3113	0	0
3114	0	0.333333
3115	0	0
3116	0	0.823413
3117	0	0.93838
3118	0	0.975084
3119	0	0.975107
3120	0	0.975107
3121	0	1
3122	0	1
3123	0	1
3124	0	1
3125	0	0.982183
3126	0	0.982183
3127	0	0.98041
3128	0	0.954177
3129	0	0.952472
3130	0	0.952496
3131	0	0.952496
3132	0	0.952496
3133	0	0.952496
3134	0	0.784314
3135	0	0.784314
3136	0	0.954186
3137	0	0.952479
3138	0	0.952521
3139	1	0
3140	1	0
3141	1	0
3142	1	0
3143	1	0
3144	1	0
3145	1	0
3146	1	0
3147	1	0
3148	0	0.5
3149	0	0.5
3150	0	0.5
3151	0	0.3
3152	0	0.978296
3153	0	0.976519
3154	0	0.976519
3155	0	0
3156	0	0
3157	0	0
3158	0	0
3159	0	0
3160	0	0
3161	0	0
3162	0	0
3163	0	0
3164	0	0
3165	0	0
3166	0	0
3167	0	0.947377
3168	0	0.493287
3169	0	0.48102
3170	0	0.484884
3171	0	0.485968
3172	0	0.498577
3173	0	0.496745
3174	0	0.491872
3175	0	0.39806
3176	0	0.400545
3177	0	0.332742
3178	0	0.438561
3179	0	0.413333
3180	0	0.236364
3181	0	0.236364
3182	0	0
3183	0	0
3184	0	0
3185	0	0.742857
3186	0	0.742857
3187	0	0.742857
3188	0	0.742857
3189	0	0.742857
3190	0	0.742857
3191	0	0.409231
3192	0	0.409231
3193	0	0.409231
3194	0	0.378917
3195	0	0.298797
3196	0	0.402402
3197	0	0.425403
3198	0	0.425403
3199	0	0.149706
3200	0	0.16492
3201	0	0.153509
3202	0	0.271062
3203	0	0.268689
3204	0	0
3205	0	0
3206	0	0
3207	0	0
3208	0	0
3209	0	0
3210	0	0
3211	0	0
3212	0	0
3213	0	0
3214	0	0
3215	0	0
3216	0	0
3217	0	0
3218	0	0
3219	0	0
3220	0	0
3221	0	0
3222	0	0
3223	0	0
3224	0	0
3225	0	0
3226	0	0.710537
3227	0	0
3228	0	0
3229	0	0
3230	0	0
3231	0	0
3232	0	0
3233	0	0.784314
3234	0	0.784314
3235	0	0.359408
3236	0	0.337888
3237	0	0.243123
3238	0	0
3239	0	0
3240	0	0
3241	0	0
3242	0	0
3243	0	0
3244	0	0
3245	0	0
3246	0	0
3247	0	0
3248	0	0
3249	0	0
3250	0	0.657749
3251	0	0.669376
3252	0	0.482002
3253	0	0.522004
3254	0	0.245767
3255	0	0.221939
3256	0	0.274561
3257	0	0.293598
3258	0	0.239812
3259	0	0.225753
3260	0	0.220898
3261	0	0.244253
3262	0	0.382821
3263	0	0.251288
3264	0	0.33908
3265	0	0.439194
3266	0	0.341991
3267	0	0.328034
3268	0	0.332741
3269	0	0.5473
3270	0	0.423622
3271	0	0.75
3272	0	0.75
3273	0	0.75
3274	0	0.75
3275	0	0.75
3276	0	0.75
3277	0	0.75
3278	0	0.75
3279	0	0
3280	0	0
3281	0	0
3282	0	0
3283	0	0
3284	0	0
3285	0	0
3286	0	0
3287	0	0
3288	0	0
3289	0	0
3290	0	0
3291	0	0
3292	0	0
3293	0	0
3294	0	0
3295	0	0
3296	0	0
3297	0	0
3298	0	0
3299	0	0
3300	0	0
3301	0	0
3302	0	0
3303	0	0
3304	0	0
3305	0	0
3306	0	0
3307	0	0
3308	0	0
3309	0	0
3310	0	0
3311	0	0
3312	0	0
3313	0	0
3314	0	0
3315	0	0
3316	0	0
3317	0	0
3318	0	0
3319	0	0
3320	0	0
3321	0	0
3322	0	0
3323	0	0
3324	0	0
3325	0	0.0357143
3326	0	0.0357143
3327	0	0.0357143
3328	0	0.142857
3329	0	0.0833333
3330	0	0.107143
3331	0	0.69983
3332	0	0.672653
3333	0	0.677551
3334	0	0.677551
3335	0	0.683137
3336	0	0.656863
3337	0	0.438143
3338	0	0.419425
3339	0	0
3340	0	0
3341	0	0
3342	0	0
3343	0	1
3344	0	1
3345	0	1
3346	0	1
3347	0	0.503056
3348	0	0.634137
3349	0	0.954794
3350	0	0.047619
3351	0	0
3352	0	0
3353	0	0
3354	0	0
3355	0	0
3356	0	0
3357	0	0
3358	0	0
3359	0	0
3360	0	0
3361	0	0
3362	0	0
3363	0	0
3364	0	0
3365	0	0
3366	0	0
3367	0	0
3368	0	0
3369	0	0
3370	0	0
3371	0	0
3372	0	0
3373	0	0
3374	0	0
3375	0	0
3376	0	0
3377	0	0
3378	0	0
3379	0	0
3380	0	0
3381	0	0
3382	0	0
3383	0	0
3384	0	0
3385	0	0
3386	0	0
3387	0	0
3388	0	0
3389	0	0
3390	0	0
3391	0	0
3392	0	0
3393	0	0
3394	0	0
3395	0	0
3396	0	0
3397	0	0
3398	0	0
3399	0	0
3400	0	0
3401	0	0
3402	0	0
3403	0	0
3404	0	0
3405	0	0
3406	0	0
3407	0	0
3408	0	0
3409	0	0
3410	0	0
3411	0	0
3412	0	0
3413	0	0
3414	0	0
3415	0	0
3416	0	0
3417	0	0
3418	0	0
3419	0	0
3420	0	0.950585
3421	0	0.617936
3422	0	0.617936
3423	0	0
3424	0	0
3425	0	0
3426	0	0
3427	0	0
3428	0	0
3429	0	0
3430	0	0
3431	0	0
3432	0	0
3433	0	0
3434	0	0
3435	0	0
3436	0	0
3437	0	0
3438	0	0
3439	0	0
3440	0	0
3441	0	0
3442	0	0
3443	0	0
3444	0	0
3445	0	0
3446	0	0
3447	0	0
3448	0	0
3449	0	0
3450	0	0
3451	0	0
3452	0	0
3453	0	0
3454	0	0
3455	0	0
3456	0	0
3457	0	0
3458	0	0
3459	0	0
3460	0	0
3461	0	0
3462	0	0
3463	0	0
3464	0	0
3465	0	0
3466	0	0
3467	0	0
3468	0	0
3469	0	0
3470	0	0
3471	0	0
3472	0	0
3473	0	0
3474	0	0
3475	0	0
3476	0	0
3477	0	0
3478	0	0
3479	0	0
3480	0	0
3481	0	0
3482	0	0
3483	0	0
3484	0	0
3485	0	0
3486	0	0
3487	0	0
3488	0	0
3489	0	0
3490	0	0
3491	0	0
3492	0	0
3493	0	0
3494	0	0
3495	0	0
3496	0	0
3497	0	0
3498	0	0
3499	0	0
3500	0	0
3501	0	0
3502	0	0
3503	0	0
3504	0	0
3505	0	0
3506	0	0
3507	0	0
3508	0	0
3509	0	0
3510	0	0
3511	0	0
3512	0	0
3513	0	0
3514	0	0
3515	0	0
3516	0	0
3517	0	0
3518	0	0
3519	0	0
3520	0	0
3521	0	0
3522	0	0
3523	0	0
3524	0	0
3525	0	0
3526	0	0
3527	0	0
3528	0	0
3529	0	0
3530	0	0
3531	0	0
3532	0	0
3533	0	0
3534	0	0
3535	0	0
3536	0	0
3537	0	0
3538	0	0
3539	0	0
3540	0	0
3541	0	0
3542	0	0
3543	0	0
3544	0	0
3545	0	0
3546	0	0
3547	0	0
3548	0	0
3549	0	0
3550	0	0
3551	0	0
3552	0	0
3553	0	0
3554	0	0
3555	0	0
3556	0	0
3557	0	0
3558	0	0
3559	0	0
3560	0	0
3561	0	0
3562	0	0
3563	0	0
3564	0	0
3565	0	0
3566	0	0
3567	0	0
3568	0	0
3569	0	0
3570	0	0
3571	0	0
3572	0	0
3573	0	0
3574	0	0
3575	0	0
3576	0	0
3577	0	0
3578	0	0
3579	0	0
3580	0	0
3581	0	0
3582	0	0
3583	0	0
3584	0	0
3585	0	0
3586	0	0
3587	0	0
3588	0	0
3589	0	0
3590	0	0
3591	0	0
3592	0	0
3593	0	0
3594	0	0
3595	0	0
3596	0	0
3597	0	0
3598	0	0
3599	0	0
3600	0	0
3601	0	0
3602	0	0
3603	0	0
3604	0	0
3605	0	0
3606	0	0
3607	0	0
3608	0	0
3609	0	0
3610	0	0
3611	0	0
3612	0	0
3613	0	0
3614	0	0.622376
3615	0	0
3616	0	0
3617	0	0
3618	0	0
3619	0	0
3620	0	0
3621	0	0
3622	0	0
3623	0	0
3624	0	0
3625	0	0
3626	0	0
3627	0	0
3628	0	0
3629	0	0
3630	0	0
3631	0	0
3632	0	0
3633	0	0
3634	0	0
3635	0	0
3636	0	0
3637	0	0
3638	0	0
3639	0	0
3640	0	0
3641	0	0
3642	0	0
3643	0	0
3644	0	0
3645	0	0
3646	0	0
3647	0	0
3648	0	0
3649	0	0
3650	0	0
3651	0	0
3652	0	0
3653	0	0
3654	0	0
3655	0	0
3656	0	0
3657	0	0
3658	0	0
3659	0	0
3660	0	0
3661	0	0
3662	0	0
3663	0	0
3664	0	0
3665	0	0
3666	0	0
3667	0	0
3668	0	0
3669	0	0
3670	0	0
3671	0	0
3672	0	0
3673	0	0
3674	0	0
3675	0	0
3676	0	0
3677	0	0
3678	0	0
3679	0	0
3680	0	0
3681	0	0
3682	0	0
3683	0	0
3684	0	0
3685	0	0
3686	0	0
3687	0	0
3688	0	0
3689	0	0
3690	0	0.966228
3691	0	0.959339
3692	0	0
3693	0	0
3694	0	0
3695	0	0
3696	0	0
3697	0	0
3698	0	0
3699	0	0
3700	0	0
3701	0	0
3702	0	0
3703	0	0
3704	0	0
3705	0	0
3706	0	0
3707	0	0
3708	0	0
3709	0	0
3710	0	0
3711	0	0
3712	0	0
3713	0	0
3714	0	0
3715	0	0
3716	0	0
3717	0	0
3718	0	0
3719	0	0
3720	0	0
3721	0	0
3722	0	0
3723	0	0
3724	0	0
3725	0	0
3726	0	0
3727	0	0
3728	0	0
3729	0	0
3730	0	0
3731	0	0
3732	0	0
3733	0	0
3734	0	0
3735	0	0
3736	0	0
3737	0	0
3738	0	0
3739	0	0
3740	0	0
3741	0	0
3742	0	0
3743	0	0
3744	0	0
3745	0	0
3746	0	0
3747	0	0
3748	0	0
3749	0	0
3750	0	0
3751	0	0
3752	0	0
3753	0	0
3754	0	0
3755	0	0
3756	0	0
3757	0	0
3758	0	0
3759	0	0
3760	0	0
3761	0	0
3762	0	0
3763	0	0
3764	0	0
3765	0	0
3766	0	0.0666667
3767	0	0.0666667
3768	0	0.0666667
3769	0	0.0666667
3770	0	0.0666667
3771	0	0.0666667
3772	0	0.0666667
3773	0	0.0666667
3774	0	0.0666667
3775	0	0.0666667
3776	0	0.0666667
3777	0	0.0666667
3778	0	0.0666667
3779	0	0.0666667
3780	0	0.047619
3781	0	0.047619
3782	0	0.047619
3783	0	0.047619
3784	0	0.047619
3785	0	0.047619
3786	0	0.047619
3787	0	0.0357143
3788	0	0.0357143
3789	0	0.0357143
3790	0	0.0357143
3791	0	0.0357143
3792	0	0.0357143
3793	0	0.964466
3794	0	0.959227
3795	0	0.0277778
3796	0	0.0277778
3797	0	0.0277778
3798	0	0.0277778
3799	0	0.0357143
3800	0	0.0357143
3801	0	0.047619
3802	0	0.047619
3803	0	0.047619
3804	0	0.047619
3805	0	0.047619
3806	0	0.047619
3807	0	0.047619
3808	0	0.047619
3809	0	0.047619
3810	0	0
3811	0	0
3812	0	0
3813	0	0
3814	0	0
3815	0	0
3816	0	0
3817	0	0
3818	0	0
3819	0	0
3820	0	0
3821	0	0
3822	0	0
3823	0	0
3824	0	0
3825	0	0
3826	0	0
3827	0	0
3828	0	0
3829	0	0
3830	0	0
3831	0	0
3832	0	0
3833	0	0
3834	0	0
3835	0	0
3836	0	0
3837	0	0
3838	0	0
3839	0	0
3840	0	0
3841	0	0
3842	0	0
3843	0	0
3844	0	0
3845	0	0
3846	0	0
3847	0	0
3848	0	0
3849	0	0
3850	0	0
3851	0	0
3852	0	0
3853	0	0
3854	0	0
3855	0	0
3856	0	0
3857	0	0
3858	0	0
3859	0	0
3860	0	0
3861	0	0
3862	0	0
3863	0	0
3864	0	0
3865	0	0
3866	0	0
3867	0	0
3868	0	0
3869	0	0
3870	0	0
3871	0	0
3872	0	0
3873	0	0
3874	0	0
3875	0	0
3876	0	0
3877	0	0
3878	0	0
3879	0	0
3880	0	0
3881	0	0
3882	0	0
3883	0	0
3884	0	0
3885	0	0
3886	0	0
3887	0	0
3888	0	0
3889	0	0
3890	0	0
3891	0	0
3892	0	0
3893	0	0
3894	0	0
3895	0	0
3896	0	0
3897	0	0
3898	0	0
3899	0	0
3900	0	0
3901	0	0
3902	0	0
3903	0	0
3904	0	0
3905	0	0
3906	0	0
3907	0	0
3908	0	0
3909	0	0
3910	0	0
3911	0	0
3912	0	0
3913	0	0.960912
3914	0	0.959153
3915	0	0.960844
3916	0	0
3917	0	0
3918	0	0
3919	0	0
3920	0	0
3921	0	0
3922	0	0
3923	0	0
3924	0	0
3925	0	0
3926	0	0
3927	0	0
3928	0	0
3929	0	0
3930	0	0
3931	0	0
3932	0	0
3933	0	0
3934	0	0
3935	0	0
3936	0	0
3937	0	0
3938	0	0.0666667
3939	0	0.047619
3940	0	0.955489
3941	0	0.955489
3942	0	1
3943	0	0.166667
3944	0	1
3945	0	1
3946	0	0
3947	0	0
3948	0	0
3949	1	0
3950	1	0
3951	1	0
3952	0	0
3953	0	0
3954	0	0
3955	0	0
3956	0	0
3957	0	0
3958	0	0
3959	0	0
3960	0	0
3961	0	0
3962	0	0
3963	0	0
3964	0	0
3965	0	0
3966	0	0
3967	0	0
3968	0	0
3969	0	0
3970	0	0
3971	0	0
3972	0	0
3973	0	0
3974	0	0
3975	0	0
3976	0	0
3977	0	0
3978	0	0
3979	0	0
3980	0	0
3981	0	0
3982	0	0
3983	0	0
3984	0	0
3985	0	0
3986	0	0
3987	0	0
3988	0	0
3989	0	0
3990	0	0
3991	0	0
3992	0	0
3993	0	0
3994	0	0
3995	0	0
3996	0	0
3997	0	0
3998	0	0
3999	0	0
4000	0	0
4001	0	0
4002	0	0
4003	0	0
4004	0	0
4005	0	0
4006	0	0
4007	0	0
4008	0	0
4009	0	0
4010	0	0
4011	0	0
4012	0	0
4013	0	0
4014	0	0
4015	0	0
4016	0	0
4017	0	0
4018	0	0
4019	0	0
4020	0	0
4021	0	0
4022	0	0
4023	0	0
4024	0	0
4025	0	0
4026	0	0
4027	0	0
4028	0	0
4029	0	0
4030	0	0
4031	0	0
4032	0	0
4033	0	0
4034	0	0
4035	0	0
4036	0	0
4037	0	0
4038	0	0
4039	0	0
4040	0	0
4041	0	0
4042	0	0
4043	0	0
4044	0	0
4045	0	0
4046	0	0
4047	0	0
4048	0	0
4049	0	0
4050	0	0
4051	0	0
4052	0	0
4053	0	0
4054	0	0
4055	0	0
4056	0	0
4057	0	0
4058	0	0
4059	0	0
4060	0	0
4061	0	0
4062	0	0
4063	0	0
4064	0	0
4065	0	0
4066	0	0
4067	0	0
4068	0	0
4069	0	0
4070	0	0
4071	0	0
4072	0	0
4073	0	0
4074	0	0
4075	0	0
4076	0	0
4077	0	0
4078	0	0
4079	0	0
4080	0	0
4081	0	0
4082	0	0
4083	0	0
4084	0	0
4085	0	0
4086	0	0
4087	0	0
4088	0	0
4089	0	0
4090	0	0
4091	0	0
4092	0	0
4093	0	0
4094	0	0
4095	0	0
4096	0	0
4097	0	0
4098	0	0
4099	0	0
4100	0	0
4101	0	0
4102	0	0
4103	0	0
4104	0	0
4105	0	0
4106	0	0
4107	0	0
4108	0	0
4109	0	0
4110	0	0
4111	0	0
4112	0	0
4113	0	0
4114	0	0
4115	0	0
4116	0	0
4117	0	0
4118	0	0
4119	0	0
4120	0	0
4121	0	0
4122	0	0
4123	0	0
4124	0	0
4125	0	0
4126	0	0
4127	0	0
4128	0	0
4129	0	0
4130	0	0
4131	0	0
4132	0	0
4133	0	0
4134	0	0
4135	0	0
4136	0	0
4137	0	0
4138	0	0
4139	0	0
4140	0	0
4141	0	0
4142	0	0
4143	0	0
4144	0	0
4145	0	0
4146	0	0
4147	0	0
4148	0	0
4149	0	0
4150	0	0
4151	0	0
4152	0	0
4153	0	0
4154	0	0
4155	0	0
4156	0	0
4157	0	0
4158	0	0
4159	0	0
4160	0	0
4161	0	0
4162	0	0
4163	0	0
4164	0	0
4165	0	0
4166	0	0
4167	0	0
4168	0	0
4169	0	0
4170	0	0
4171	0	0
4172	0	0
4173	0	0
4174	0	0
4175	0	0
4176	0	0
4177	0	0
4178	0	0
4179	0	0
4180	0	0
4181	0	0
4182	0	0
4183	0	0
4184	0	0
4185	0	0
4186	0	0
4187	0	0
4188	0	0
4189	0	0
4190	0	0
4191	0	0
4192	0	0
4193	0	0
4194	0	0
4195	0	0
4196	0	0
4197	0	0
4198	0	0
4199	0	0
4200	0	0
4201	0	0
4202	0	0
4203	0	0
4204	0	0
4205	0	0
4206	0	0
4207	0	0
4208	0	0
4209	0	0
4210	0	0
4211	0	0
4212	0	0
4213	0	0
4214	0	0
4215	0	0
4216	0	0
4217	0	0
4218	0	0
4219	0	0
4220	0	0
4221	0	0
4222	0	0
4223	0	0
4224	0	0
4225	0	0
4226	0	0
4227	0	0
4228	0	0
4229	0	0
4230	0	0
4231	0	0
4232	0	0
4233	0	0
4234	0	0
4235	0	0
4236	0	0
4237	0	0
4238	0	0
4239	0	0
4240	0	0
4241	0	0
4242	0	0
4243	0	0
4244	0	0
4245	0	0
4246	0	0
4247	0	0
4248	0	0
4249	0	0
4250	0	0
4251	0	0
4252	0	0
4253	0	0
4254	0	0
4255	0	0
4256	0	0
4257	0	0
4258	0	0
4259	0	0
4260	0	0
4261	0	0
4262	0	0
4263	0	0
4264	0	0
4265	0	0
4266	0	0
4267	0	0
4268	0	0
4269	0	0
4270	0	0
4271	0	0
4272	0	0
4273	0	0
4274	0	0
4275	0	0
4276	0	0
4277	0	0
4278	0	0
4279	0	0
4280	0	0
4281	0	0
4282	0	0
4283	0	0
4284	0	0
4285	0	0
4286	0	0
4287	0	0
4288	0	0
4289	0	0
4290	0	0
4291	0	0
4292	0	0
4293	0	0
4294	0	0
4295	0	0
4296	0	0
4297	0	0
4298	0	0
4299	0	0
4300	0	0.981192
4301	0	0
4302	0	0
4303	0	0
4304	0	0
4305	0	0
4306	0	0
4307	0	0
4308	0	0
4309	0	0
4310	0	0
4311	0	0
4312	0	0
4313	0	0
4314	0	0
4315	0	0
4316	0	0
4317	0	0
4318	0	0
4319	0	0
4320	0	0
4321	0	0
4322	0	0
4323	0	0
4324	0	0
4325	0	0
4326	0	0
4327	0	0
4328	0	0
4329	0	0
4330	0	0
4331	0	0
4332	0	0
4333	0	0
4334	0	0
4335	0	0
4336	0	0
4337	0	0
4338	0	0
4339	0	0
4340	0	0
4341	0	0
4342	0	0
4343	0	0
4344	0	0
4345	0	0
4346	0	0
4347	0	0
4348	0	0
4349	0	0
4350	0	0
4351	0	0
4352	0	0
4353	0	0
4354	0	0
4355	0	0
4356	0	0
4357	0	0
4358	0	0
4359	0	0
4360	0	0
4361	0	0
4362	0	0
4363	0	0
4364	0	0
4365	0	0
4366	0	0
4367	0	0
4368	0	0
4369	0	0
4370	0	0
4371	0	0
4372	0	0
4373	0	0
4374	0	0
4375	0	0
4376	0	0
4377	0	0
4378	0	0
4379	0	0
4380	0	0
4381	0	0
4382	0	0
4383	0	0
4384	0	0
4385	0	0
4386	0	0
4387	0	0
4388	0	0
4389	0	0
4390	0	0
4391	0	0
4392	0	0
4393	0	0
4394	0	0
4395	0	0
4396	0	0
4397	0	0
4398	0	0
4399	0	0
4400	0	0
4401	0	0
4402	0	0
4403	0	0
4404	0	0
4405	0	0
4406	0	0
4407	0	0
4408	0	0
4409	0	0
4410	0	0
4411	0	0
4412	0	0
4413	0	0
4414	0	0
4415	0	0
4416	0	0
4417	0	0
4418	0	0
4419	0	0
4420	0	0
4421	0	0
4422	0	0
4423	0	0
4424	0	0
4425	0	0
4426	0	0
4427	0	0
4428	0	0
4429	0	0
4430	0	0
4431	0	0
4432	0	0
4433	0	0
4434	0	0
4435	0	0
4436	0	0
4437	0	0
4438	0	0
4439	0	0
4440	0	0
4441	0	0
4442	0	0
4443	0	0
4444	0	0
4445	0	0
4446	0	0
4447	0	0
4448	0	0
4449	0	0
4450	0	0
4451	0	0
4452	0	0
4453	0	0
4454	0	0
4455	0	0
4456	0	0
4457	0	0
4458	0	0
4459	0	0
4460	0	0
4461	0	0
4462	0	0
4463	0	0
4464	0	0
4465	0	0
4466	0	0
4467	0	0
4468	0	0
4469	0	0
4470	0	0
4471	0	0
4472	0	0
4473	0	0
4474	0	0
4475	0	0
4476	0	0
4477	0	0
4478	0	0
4479	0	0
4480	0	0
4481	0	0
4482	0	0
4483	0	0
4484	0	0
4485	0	0
4486	0	0
4487	0	0
4488	0	0
4489	0	0
4490	0	0
4491	0	0
4492	0	0
4493	0	0
4494	0	0
4495	0	0
4496	0	0
4497	0	0
4498	0	0
4499	0	0
4500	0	0
4501	0	0
4502	0	0
4503	0	0
4504	0	0
4505	0	0
4506	0	0
4507	0	0
4508	0	0
4509	0	0
4510	0	0
4511	0	0
4512	0	0
4513	0	0
4514	0	0
4515	0	0
4516	0	0
4517	0	0
4518	0	0
4519	0	0
4520	0	0
4521	0	0
4522	0	0
4523	0	0
4524	0	0
4525	0	0
4526	0	0
4527	0	0
4528	0	0
4529	0	0
4530	0	0
4531	0	0
4532	0	0
4533	0	0
4534	0	0
4535	0	0
4536	0	0
4537	0	0
4538	0	0
4539	0	0
4540	0	0
4541	0	0
4542	0	0
4543	0	0
4544	0	0
4545	0	0
4546	0	0
4547	0	0
4548	0	0
4549	0	0
4550	0	0
4551	0	0
4552	0	0
4553	0	0
4554	0	0
4555	0	0
4556	0	0
4557	0	0
4558	0	0
4559	0	0
4560	0	0
4561	0	0
4562	0	0
4563	0	0
4564	0	0
4565	0	0
4566	0	0
4567	0	0
4568	0	0
4569	0	0
4570	0	0
4571	0	0
4572	0	0
4573	0	0
4574	0	0
4575	0	0
4576	0	0
4577	0	0
4578	0	0
4579	0	0
4580	0	0
4581	0	0
4582	0	0
4583	0	0
4584	0	0
4585	0	0
4586	0	0
4587	0	0
4588	0	0
4589	0	0
4590	0	0
4591	0	0
4592	0	0
4593	0	0
4594	0	0
4595	0	0
4596	0	0
4597	0	0
4598	0	0
4599	0	0
4600	0	0
4601	0	0
4602	0	0
4603	0	0
4604	0	0
4605	0	0
4606	0	0
4607	0	0
4608	0	0
4609	0	0
4610	0	0
4611	0	0
4612	0	0
4613	0	0
4614	0	0
4615	0	0
4616	0	0
4617	0	0
4618	0	0
4619	0	0
4620	0	0
4621	0	0
4622	0	0.358974
4623	0	0.358974
4624	0	0.27619
4625	0	0.204678
4626	0	0.166667
4627	0	0.371585
4628	0	0.299191
4629	0	0.236903
4630	0	0.202672
4631	0	0.397729
4632	0	1
4633	0	1
4634	0	1
4635	0	1
4636	0	1
4637	0	0.847347
4638	0	0.5
4639	0	0.654545
4640	0	0.609662
4641	0	0.647572
4642	0	0.60696
4643	0	0.365751
4644	0	0.109091
4645	0	0
4646	0	0
4647	0	0
4648	0	0
4649	0	0
4650	0	0
4651	0	0
4652	0	0
4653	0	0
4654	0	0
4655	0	0
4656	0	0
4657	0	0
4658	0	0
4659	0	0
4660	0	0
4661	0	0
4662	0	0
4663	0	0
4664	0	0
4665	0	0
4666	0	0
4667	0	0
4668	0	0
4669	0	0
4670	0	0
4671	0	0
4672	0	0
4673	0	0
4674	0	0
4675	0	0
4676	0	0
4677	0	0
4678	0	0
4679	0	0
4680	0	0
4681	0	0
4682	0	0
4683	0	0
4684	0	0
4685	0	0
4686	0	0
4687	0	0
4688	0	0
4689	0	0
4690	0	0
4691	0	0
4692	0	0
4693	0	0
4694	0	0
4695	0	0
4696	0	0
4697	0	0
4698	0	0
4699	0	0
4700	0	0
4701	0	0
4702	0	0
4703	0	0
4704	0	0
4705	0	0
4706	0	0
4707	0	0
4708	0	0
4709	0	0
4710	0	0
4711	0	0
4712	0	0
4713	0	0
4714	0	0
4715	0	0
4716	0	0
4717	0	0
4718	0	0
4719	0	0
4720	0	0
4721	0	0
4722	0	0
4723	0	0
4724	0	0
4725	0	0
4726	0	0
4727	0	0
4728	0	0
4729	0	0
4730	0	0
4731	0	0
4732	0	0
4733	0	0
4734	0	0
4735	0	0
4736	0	0
4737	0	0
4738	0	0
4739	0	0
4740	0	0
4741	0	0
4742	0	0
4743	0	0
4744	0	0
4745	0	0
4746	0	0
4747	0	0
4748	0	0
4749	0	0
4750	0	0
4751	0	0
4752	0	0
4753	0	0
4754	0	0
4755	0	0
4756	0	0
4757	0	0
4758	0	0
4759	0	0
4760	0	0
4761	0	0
4762	0	0
4763	0	0
4764	0	0
4765	0	0
4766	0	0
4767	0	0
4768	0	0
4769	0	0
4770	0	0
4771	0	0
4772	0	0
4773	0	0
4774	0	0
4775	0	0
4776	0	0
4777	0	0
4778	0	0
4779	0	0
4780	0	0
4781	0	0
4782	0	0
4783	0	0
4784	0	0
4785	0	0
4786	0	0
4787	0	0
4788	0	0
4789	0	0
4790	0	0
4791	0	0
4792	0	0
4793	0	0
4794	0	0
4795	0	0
4796	0	0
4797	0	0
4798	0	0
4799	0	0
4800	0	0
4801	0	0
4802	0	0
4803	0	0
4804	0	0
4805	0	0
4806	0	0
4807	0	0
4808	0	0
4809	0	0
4810	0	0
4811	0	0
4812	0	0
4813	0	0
4814	0	0
4815	0	0
4816	0	0
4817	0	0
4818	0	0
4819	0	0
4820	0	0
4821	0	0
4822	0	0
4823	0	0
4824	0	0
4825	0	0
4826	0	0
4827	0	0
4828	0	0
4829	0	0
4830	0	0
4831	0	0
4832	0	0
4833	0	0
4834	0	0
4835	0	0
4836	0	0
4837	0	0
4838	0	0
4839	0	0
4840	0	0
4841	0	0
4842	0	0
4843	0	0
4844	0	0
4845	0	0
4846	0	0
4847	0	0
4848	0	0
4849	0	0
4850	0	0
4851	0	0
4852	0	0
4853	0	0
4854	0	0
4855	0	0
4856	0	0
4857	0	0
4858	0	0
4859	0	0
4860	0	0
4861	0	0
4862	0	0
4863	0	0
4864	0	0
4865	0	0
4866	0	0
4867	0	0
4868	0	0
4869	0	0
4870	0	0
4871	0	0
4872	0	0
4873	0	0
4874	0	0
4875	0	0
4876	0	0
4877	0	0
4878	0	0
4879	0	0
4880	0	0
4881	0	0
4882	0	0
4883	0	0
4884	0	0
4885	0	0
4886	0	0
4887	0	0
4888	0	0
4889	0	0
4890	0	0
4891	0	0
4892	0	0
4893	0	0
4894	0	0
4895	0	0
4896	0	0
4897	0	0
4898	0	0
4899	0	0
4900	0	0
4901	0	0
4902	0	0
4903	0	0
4904	0	0
4905	0	0
4906	0	0
4907	0	0
4908	0	0
4909	0	0
4910	0	0
4911	0	0
4912	0	0
4913	0	0
4914	0	0.1
4915	0	0.1
4916	0	0.1
4917	0	0.1
4918	0	0.1
4919	0	0.1
4920	0	0.1
4921	0	0.1
4922	0	0.1
4923	0	0.1
4924	0	0.1
4925	0	0.1
4926	0	0.1
4927	0	0.1
4928	0	0.1
4929	0	0.1
4930	0	0.1
4931	0	0.1
4932	0	0.1
4933	0	0.1
4934	0	0.1
4935	0	0.1
4936	0	0.1
4937	0	0.1
4938	0	0.1
4939	0	0.1
4940	0	0.1
4941	0	0.1
4942	0	0.1
4943	0	0.1
4944	0	0.1
4945	0	0.1
4946	0	0.1
4947	0	0.1
4948	0	0.1
4949	0	0.1
4950	0	0.1
4951	0	0.1
4952	0	0.1
4953	0	0.1
4954	0	0.1
4955	0	0.1
4956	0	0.1
4957	0	0.1
4958	0	0.1
4959	0	0.1
4960	0	0.1
4961	0	0.1
4962	0	0.1
4963	0	0.1
4964	0	0.1
4965	0	0.1
4966	0	0.1
4967	0	0.1
4968	0	0.1
4969	0	0.1
4970	0	0.1
4971	0	0.537349
4972	0	0.513786
4973	0	0.551011
4974	0	0.55018
4975	0	0.299499
4976	0	0.177249
4977	0	0.213768
4978	0	0.225296
4979	0	0.203463
4980	0	0.0363636
4981	0	0.0444444
4982	0	0.0444444
4983	0	0.0444444
4984	0	0.0444444
4985	0	0.0222222
4986	0	0.0222222
4987	0	0.0222222
4988	0	0.0222222
4989	0	0.0222222
4990	0	0.0222222
4991	0	0.0222222
4992	0	0.0222222
4993	0	0.0222222
4994	0	0.0222222
4995	0	0.0222222
4996	0	0.0277778
4997	0	0.0277778
4998	0	0.0277778
4999	0	0.0277778
5000	0	0.0277778
5001	0	0.0277778
5002	0	0.0277778
5003	0	0.0277778
5004	0	0.0277778
5005	0	0.0277778
5006	0	0.0277778
5007	0	0.0277778
5008	0	0.0277778
5009	0	0.0277778
5010	0	0.0277778
5011	0	0.0277778
5012	0	0.0277778
5013	0	0.0277778
5014	0	0.0277778
5015	0	0.0277778
5016	0	0.0277778
5017	0	0.0277778
5018	0	0.0277778
5019	0	0.0277778
5020	0	0.0277778
5021	0	0.0277778
5022	0	0.0277778
5023	0	0.0277778
5024	0	0.0277778
5025	0	0.0277778
5026	0	0.0277778
5027	0	0.0277778
5028	0	0.0277778
5029	0	0.0277778
5030	0	0.0277778
5031	0	0.0357143
5032	0	0.0357143
5033	0	0.0357143
5034	0	0.0357143
5035	0	0.0357143
5036	0	0.0357143
5037	0	0.0357143
5038	0	0.0357143
5039	0	0.0357143
5040	0	0.0357143
5041	0	0.0357143
5042	0	0.0357143
5043	0	0.0357143
5044	0	0.0357143
5045	0	0.0357143
5046	0	0.0357143
5047	0	0.0357143
5048	0	0.0357143
5049	0	0.0357143
5050	0	0.0357143
5051	0	0.0357143
5052	0	0.0357143
5053	0	0.0357143
5054	0	0.0357143
5055	0	0.0357143
5056	0	0.0357143
5057	0	0.0357143
5058	0	0.0357143
5059	0	0.0357143
5060	0	0.0357143
5061	0	0.0357143
5062	0	0.0357143
5063	0	0.0357143
5064	0	0.0357143
5065	0	0.0357143
5066	0	0.0357143
5067	0	0.0357143
5068	0	0.0357143
5069	0	0.0357143
5070	0	0.0357143
5071	0	0.0357143
5072	0	0.0357143
5073	0	0.0357143
5074	0	0.0357143
5075	0	0.0357143
5076	0	0.0357143
5077	0	0.0357143
5078	0	0.0357143
5079	0	0.0357143
5080	0	0.0357143
5081	0	0.0357143
5082	0	0.0357143
5083	0	0.0357143
5084	0	0.0357143
5085	0	0.0357143
5086	0	0.0357143
5087	0	0.0357143
5088	0	0.107143
5089	0	0.107143
5090	0	0.107143
5091	0	0.107143
5092	0	0.107143
5093	0	0.107143
5094	0	0.107143
5095	0	0.107143
5096	0	0.107143
5097	0	0.107143
5098	0	0.107143
5099	0	0.107143
5100	0	0.107143
5101	0	0.107143
5102	0	0.107143
5103	0	0.107143
5104	0	0.107143
5105	0	0.107143
5106	0	0.107143
5107	0	0.107143
5108	0	0.107143
5109	0	0.107143
5110	0	0.107143
5111	0	0.107143
5112	0	0.107143
5113	0	0.107143
5114	0	0.107143
5115	0	0.107143
5116	0	0.107143
5117	0	0.107143
5118	0	0.107143
5119	0	0.107143
5120	0	0.107143
5121	0	0.107143
5122	0	0.107143
5123	0	0.107143
5124	0	0.107143
5125	0	0.107143
5126	0	0.107143
5127	0	0.107143
5128	0	0.107143
5129	0	0.107143
5130	0	0.107143
5131	0	0.107143
5132	0	0.107143
5133	0	0.107143
5134	0	0.107143
5135	0	0.107143
5136	0	0.107143
5137	0	0.107143
5138	0	0.107143
5139	0	0.107143
5140	0	0.107143
5141	0	0.107143
5142	0	0.107143
5143	0	0.107143
5144	0	0.107143
5145	0	0.107143
5146	0	0.107143
5147	0	0.107143
5148	0	0.107143
5149	0	0.107143
5150	0	0.107143
5151	0	0.107143
5152	0	0.107143
5153	0	0.107143
5154	0	0.107143
5155	0	0.107143
5156	0	0.107143
5157	0	0.107143
5158	0	0.107143
5159	0	0.107143
5160	0	0.107143
5161	0	0.107143
5162	0	0.107143
5163	0	0.107143
5164	0	0.107143
5165	0	0.107143
5166	0	0.107143
5167	0	0.107143
5168	0	0.107143
5169	0	0.107143
5170	0	0.107143
5171	0	0.107143
5172	0	0.107143
5173	0	0.107143
5174	0	0.107143
5175	0	0.107143
5176	0	0.107143
5177	0	0.107143
5178	0	0.107143
5179	0	0.107143
5180	0	0.107143
5181	0	0.107143
5182	0	0.107143
5183	0	0.107143
5184	0	0.107143
5185	0	0.107143
5186	0	0.107143
5187	0	0.107143
5188	0	0.107143
5189	0	0.107143
5190	0	0.107143
5191	0	0.107143
5192	0	0.107143
5193	0	0.107143
5194	0	0.107143
5195	0	0.107143
5196	0	0.107143
5197	0	0.107143
5198	0	0.107143
5199	0	0.107143
5200	0	0.107143
5201	0	0.107143
5202	0	0.107143
5203	0	0.107143
5204	0	0.107143
5205	0	0.107143
5206	0	0.107143
5207	0	0.107143
5208	0	0.107143
5209	0	0.107143
5210	0	0.107143
5211	0	0.107143
5212	0	0.107143
5213	0	0.107143
5214	0	0.107143
5215	0	0.107143
5216	0	0.107143
5217	0	0.107143
5218	0	0.107143
5219	0	0.107143
