Site	ColumnScore	SumOfPairsScore
1	1	0
2	1	0
3	1	0
4	1	0
5	1	0
6	1	0
7	1	0
8	1	0
9	1	0
10	1	0
11	1	0
12	1	0
13	1	0
14	1	0
15	1	0
16	1	0
17	1	0
18	1	0
19	1	0
20	1	0
21	1	0
22	1	0
23	1	0
24	1	0
25	1	0
26	1	0
27	1	0
28	1	0
29	1	0
30	1	0
31	1	0
32	1	0
33	1	0
34	1	0
35	0	0
36	0	0
37	0	0
38	0	0
39	0	0
40	0	0
41	0	0
42	0	0
43	0	0
44	0	0
45	0	0
46	0	0
47	0	0
48	0	0
49	0	0
50	0	0
51	0	0
52	0	0
53	0	0
54	0	0
55	0	0
56	0	0
57	0	0
58	0	0
59	0	0
60	0	0
61	0	0
62	0	0
63	0	0
64	0	0
65	0	0
66	0	0
67	0	0
68	0	0
69	0	0
70	0	0
71	0	0
72	0	0
73	0	0
74	0	0.047619
75	0	0.047619
76	0	0.047619
77	0	0
78	0	0
79	0	0
80	0	0
81	0	0
82	0	0
83	0	0
84	0	0
85	0	0
86	0	0
87	0	0
88	0	0
89	0	0
90	0	0
91	0	0
92	0	0
93	0	0
94	0	0.0222222
95	0	0
96	0	0.0222222
97	0	0.0444444
98	0	0.0363636
99	0	0.0363636
100	0	0.0363636
101	0	0.653153
102	0	0.653153
103	0	0.643902
104	0	0.488372
105	0	0.62237
106	0	0.596631
107	0	0.598404
108	0	0.598039
109	0	0.558249
110	0	0.557377
111	0	0.539683
112	0	0.695638
113	0	0.719896
114	0	0.719896
115	0	0.557095
116	0	0.478394
117	0	0.509624
118	0	0.522221
119	0	0.614242
120	0	0.628324
121	0	0.906509
122	0	0.911053
123	0	0
124	0	0
125	0	0
126	0	0
127	0	0
128	0	0
129	0	0
130	0	0
131	0	0
132	0	0.285714
133	0	0.333333
134	0	0.333333
135	0	0.333333
136	0	0.25
137	0	0.25
138	0	0.25
139	0	0.2
140	0	0.269231
141	0	0.296703
142	0	0.263736
143	0	0.263736
144	0	0.258333
145	0	0.956428
146	0	0.95169
147	0	0.951687
148	0	0.939881
149	0	0.921114
150	1	0
151	1	0
152	1	0
153	1	0
154	1	0
155	1	0
156	1	0
157	1	0
158	0	0
159	0	0
160	0	0
161	0	0
162	0	0
163	0	0
164	0	0
165	0	0
166	0	0
167	0	0
168	0	0
169	0	0
170	0	0
171	0	0
172	0	0
173	0	0
174	0	0
175	0	0
176	0	0
177	0	0
178	0	0
179	0	0
180	0	0
181	0	0
182	0	0
183	0	0
184	0	0
185	0	0
186	0	0
187	0	0
188	0	0
189	0	0
190	1	0
191	1	0
192	1	0
193	1	0
194	1	0
195	1	0
196	1	0
197	1	0
198	0	0
199	0	0
200	0	0
201	0	0
202	0	0
203	0	0
204	0	0
205	0	0
206	0	0
207	0	0
208	0	0
209	0	0
210	1	0
211	1	0
212	0	0
213	0	0
214	0	0
215	0	0
216	0	0
217	0	0
218	0	0
219	0	0
220	0	0
221	0	0
222	0	0
223	0	0
224	0	0
225	0	0
226	0	0
227	0	0
228	0	0
229	0	0
230	0	0.1
231	0	0.1
232	0	0.0666667
233	0	0.047619
234	0	0.911987
235	0	0.884729
236	0	0.127273
237	0	0.127273
238	0	0.874589
239	0	0
240	0	0
241	0	0
242	0	0
243	0	0
244	0	0
245	0	0
246	0	0
247	0	0
248	0	0.2
249	0	0.2
250	0	0.142857
251	0	0.142857
252	0	0.107143
253	0	0.107143
254	0	0.107143
255	0	0.107143
256	0	0.0357143
257	0	0.047619
258	0	0.0714286
259	0	0.0714286
260	0	0.0714286
261	0	0.285714
262	0	0.214286
263	0	0.222222
264	0	0.2
265	0	0.2
266	0	0.860324
267	0	0.704521
268	0	0.889301
269	0	0.2
270	0	0.1
271	0	0.1
272	0	0.1
273	0	0.166667
274	0	0.885361
275	0	0.111111
276	0	0.111111
277	0	0.142857
278	0	0.142857
279	0	0.0714286
280	0	0.0952381
281	0	0.047619
282	0	0.0666667
283	0	0.2
284	0	0.2
285	0	0.4
286	0	0.666667
287	0	0.666667
288	0	0.47619
289	0	0.666667
290	0	1
291	0	1
292	0	1
293	0	1
294	0	0.92381
295	0	0.949594
296	0	0.954284
297	0	0
298	0	0
299	0	0
300	0	0
301	0	0
302	0	0
303	0	0
304	0	0
305	0	0
306	0	0
307	0	0
308	0	0
309	0	0
310	0	0
311	0	0
312	0	0
313	0	0
314	0	0
315	0	0
316	0	0
317	0	0
318	0	0.966169
319	0	0.0666667
320	0	0.1
321	0	0.3
322	0	0.3
323	0	0.966375
324	0	0.966375
325	0	0.964038
326	0	0.964038
327	0	0.966372
328	0	0.966372
329	0	0.966372
330	0	0.1
331	0	0.961709
332	0	0.964081
333	0	0.964081
334	0	0.964124
335	0	0
336	0	0
337	0	0
338	0	0
339	0	0
340	0	0
341	0	0
342	0	0
343	0	0
344	0	0
345	0	0
346	0	0
347	0	0
348	0	0
349	0	0
350	0	0
351	0	0
352	0	0
353	0	0
354	0	0
355	0	0
356	0	0
357	0	0
358	0	0
359	0	0
360	0	0
361	0	0
362	0	0
363	0	0
364	0	0
365	0	0
366	0	0.978366
367	0	0.980781
368	0	0.978392
369	0	0.976037
370	0	0.976095
371	0	0.97847
372	0	0.971484
373	0	0.973845
374	0	0.973845
375	0	0.973845
376	0	0.973845
377	0	0.973814
378	0	0
379	0	0
380	0	0
381	0	0
382	0	0
383	0	0.96916
384	0	0.487489
385	0	0.964475
386	0	0.978572
387	0	0.969168
388	0	0.97149
389	0	0.97149
390	0	0.97149
391	1	0
392	1	0
393	1	0
394	1	0
395	1	0
396	1	0
397	1	0
398	1	0
399	1	0
400	1	0
401	1	0
402	1	0
403	1	0
404	0	0
405	0	0
406	0	0
407	0	0
408	0	0.980899
409	0	0.980899
410	0	0.980899
411	0	0.980899
412	0	0.980853
413	0	0
414	0	0
415	1	0
416	1	0
417	1	0
418	1	0
419	1	0
420	1	0
421	0	0
422	0	0
423	0	0
424	0	0
425	0	0
426	0	0
427	0	0
428	0	0
429	0	0
430	0	0
431	0	0
432	0	0
433	0	0
434	0	0
435	0	0
436	0	0
437	0	0
438	0	0
439	0	0
440	0	0
441	0	0
442	0	0
443	0	0
444	0	0.333333
445	0	0.333333
446	0	0.980842
447	0	0.976135
448	0	0.983265
449	0	0.985626
450	0	0.985643
451	0	0.985666
452	0	0.98566
453	0	0.988027
454	0	0.988041
455	0	0.988041
456	0	0.990413
457	0	0.990413
458	0	0.992806
459	0	0.990425
460	0	0.992806
461	0	0.992806
462	0	0.992806
463	0	0.988056
464	0	0.988056
465	0	0.98807
466	0	0.98807
467	0	0.98807
468	0	0.985709
469	0	0.988126
470	0	0.990473
471	0	0.988112
472	0	0.988112
473	0	0.988112
474	0	0.988126
475	0	0.988141
476	0	0.988141
477	0	0.990519
478	0	0.995275
479	0	0.995275
480	0	0.992925
481	0	0.99528
482	0	0.99528
483	0	0.99528
484	0	0.99528
485	0	0.997805
486	0	0.99789
487	0	0.997893
488	0	0.993697
489	0	0.993697
490	0	0.991621
491	0	0.989586
492	0	0.991673
493	0	0.991673
494	0	0.991671
495	0	0.989605
496	0	0
497	1	0
498	1	0
499	1	0
500	1	0
501	1	0
502	1	0
503	0	0
504	0	0
505	0	0.997908
506	0	0.997908
507	0	0.997908
508	0	0.997906
509	0	0.997906
510	0	0.997904
511	0	0.997904
512	0	0.997906
513	0	0.995818
514	0	0.995818
515	0	0.995818
516	0	0.989596
517	0	0.987535
518	0	0.985495
519	0	0.98551
520	0	0.98551
521	0	0.98551
522	0	0.98345
523	0	0.983467
524	0	0.983467
525	0	0.983467
526	0	0.979401
527	0	0.981433
528	0	0.981433
529	0	1
530	0	0.943914
531	0	0.480595
532	0	0.952173
533	0	0.995836
534	0	0.98964
535	0	0.991699
536	0	0.991699
537	0	1
538	0	1
539	0	1
540	0	1
541	0	0.99791
542	0	0.997912
543	0	0.997917
544	0	0.997912
545	0	0.995822
546	0	0.993737
547	0	0.995818
548	0	0.995818
549	0	0.997906
550	0	1
551	0	1
552	0	0.6
553	0	0.6
554	0	0.6
555	0	0.166667
556	0	0.166667
557	0	0.166667
558	0	0
559	0	0
560	0	0
561	0	0
562	0	0
563	0	0
564	0	0
565	0	0
566	0	0
567	0	0
568	0	0.98964
569	0	0.991716
570	0	0.991716
571	0	0.991716
572	0	0.993778
573	0	0.993785
574	0	0.993785
575	0	1
576	1	1
577	1	1
578	0	0.997923
579	0	0.997923
580	0	0.997923
581	0	0.997923
582	0	0.997923
583	0	0.997923
584	0	0.997923
585	0	0.997923
586	0	0.997923
587	0	0.997923
588	0	0.995853
589	0	0.997923
590	0	0.993789
591	0	0.991731
592	0	0.991731
593	0	0.991731
594	0	0.991731
595	0	1
596	0	1
597	0	1
598	0	1
599	0	1
600	0	0.980921
601	0	1
602	0	0.43459
603	0	0.83066
604	0	0.83066
605	0	0.28022
606	0	0.626042
607	0	0.778273
608	0	0.866638
609	0	0.985639
610	0	0.985639
611	0	0.985641
612	0	0.987707
613	0	0.993855
614	0	0.49962
615	0	0.49962
616	0	0.497436
617	0	0.621802
618	0	0.620266
619	0	0.620266
620	0	0.622832
621	0	0.860063
622	0	0
623	0	0.3
624	0	0.640658
625	0	0.690584
626	0	0.998008
627	0	0.99801
628	0	0.99801
629	0	0.998018
630	0	0.998022
631	0	0.998022
632	0	0.998022
633	0	0.998022
634	0	0
635	0	0
636	0	0
637	0	0.990212
638	0	0.996077
639	0	0.996077
640	0	0.996077
641	0	0.99608
642	0	0.996084
643	0	0.996084
644	0	0.996092
645	0	0.996092
646	0	0.996092
647	1	1
648	0	0.998041
649	0	1
650	0	1
651	0	1
652	0	0.998041
653	0	0.998041
654	0	0.998041
655	0	0.998041
656	0	0.998041
657	0	0.998039
658	0	0.998039
659	0	0.998039
660	0	0.998039
661	0	0.998045
662	0	0.998045
663	0	0.996092
664	0	0
665	1	0
666	1	0
667	1	0
668	0	0.996088
669	0	0.998043
670	0	0.998045
671	0	0.880758
672	0	0.882484
673	0	0.994135
674	0	0
675	0	0
676	0	0
677	0	0
678	1	0
679	1	0
680	0	0
681	0	0
682	0	1
683	0	1
684	0	1
685	0	1
686	0	1
687	0	1
688	0	1
689	0	1
690	1	1
691	1	1
692	1	1
693	1	1
694	0	0
695	1	0
696	1	0
697	1	0
698	1	0
699	1	0
700	1	0
701	1	0
702	1	0
703	1	0
704	1	0
705	1	0
706	1	0
707	1	0
708	1	0
709	1	0
710	1	0
711	1	0
712	1	0
713	1	0
714	1	0
715	1	0
716	1	0
717	1	0
718	1	0
719	1	0
720	0	0.998099
721	1	1
722	1	1
723	1	1
724	1	1
725	1	1
726	1	1
727	1	1
728	1	1
729	1	1
730	1	1
731	1	1
732	1	1
733	1	1
734	1	1
735	1	1
736	1	1
737	0	0.984892
738	0	0.984892
739	0	1
740	0	1
741	0	0.998101
742	0	0.998101
743	1	1
744	1	1
745	1	1
746	1	1
747	1	1
748	1	1
749	1	1
750	1	1
751	1	1
752	1	1
753	1	1
754	1	1
755	1	1
756	1	1
757	1	1
758	1	1
759	1	1
760	1	1
761	1	1
762	1	1
763	1	1
764	1	1
765	1	1
766	0	1
767	1	1
768	0	1
769	1	1
770	1	1
771	1	1
772	1	1
773	0	0.998106
774	0	0.998106
775	0	0.998106
776	0	0.998106
777	0	0.998106
778	1	1
779	1	1
780	1	1
781	1	1
782	1	1
783	1	1
784	1	1
785	1	1
786	1	1
787	1	1
788	1	1
789	1	1
790	1	1
791	1	1
792	1	1
793	1	1
794	1	1
795	1	1
796	1	1
797	1	1
798	1	1
799	1	1
800	1	1
801	1	1
802	1	1
803	1	1
804	1	1
805	1	1
806	0	1
807	0	1
808	0	1
809	0	1
810	0	1
811	0	1
812	0	0.983014
813	0	1
814	0	0.524844
815	0	0.441013
816	0	0.426742
817	0	0.685954
818	0	1
819	0	0.881359
820	0	0.998111
821	1	1
822	1	1
823	1	1
824	1	1
825	1	1
826	1	1
827	0	1
828	0	1
829	0	1
830	0	1
831	0	1
832	0	1
833	0	1
834	0	0.998119
835	0	0.998119
836	0	0
837	1	1
838	1	1
839	1	0
840	1	0
841	1	0
842	1	0
843	1	0
844	1	1
845	1	1
846	1	1
847	1	1
848	1	1
849	1	1
850	1	1
851	1	1
852	1	1
853	1	1
854	1	1
855	1	1
856	1	1
857	1	1
858	1	1
859	1	1
860	1	1
861	1	1
862	1	1
863	1	1
864	1	1
865	1	1
866	1	1
867	1	1
868	1	1
869	1	1
870	1	1
871	1	1
872	1	1
873	0	1
874	0	1
875	0	1
876	0	1
877	0	0.976679
878	0	0.92543
879	0	0.93881
880	0	0.939096
881	0	0.916001
882	0	1
883	0	0.481481
884	0	0.873596
885	0	0.832408
886	0	1
887	0	0.661905
888	0	0.513772
889	0	0
890	0	0.506667
891	0	0.659507
892	0	0.6619
893	0	0.467568
894	0	0.333333
895	0	0.833333
896	0	0.950221
897	0	0.985061
898	0	1
899	1	1
900	1	1
901	1	1
902	1	1
903	1	1
904	1	1
905	1	1
906	1	0
907	1	0
908	1	0
909	1	0
910	1	0
911	1	0
912	1	0
913	1	0
914	1	0
915	1	0
916	1	0
917	1	0
918	0	1
919	0	1
920	0	0.998119
921	0	0.998119
922	0	0.998119
923	0	0.998119
924	0	0.99812
925	0	0.99812
926	0	0.998119
927	1	1
928	0	0.998127
929	0	0.998127
930	0	0.998127
931	1	1
932	1	1
933	0	0.998129
934	1	1
935	0	0.998129
936	0	0.998129
937	0	0.998129
938	0	0.998129
939	0	0.998129
940	0	0.998129
941	0	0.998129
942	0	0.998129
943	0	0.998129
944	0	0.998129
945	0	0.998131
946	0	0.998131
947	0	0.998131
948	0	0.998131
949	0	0.998131
950	0	0.998129
951	0	0.998131
952	0	0.998131
953	0	0.998131
954	1	0
955	1	0
956	0	1
957	0	1
958	0	1
959	0	1
960	0	1
961	0	1
962	0	1
963	0	1
964	0	0.998131
965	0	0.998131
966	0	1
967	0	1
968	0	1
969	1	1
970	1	1
971	1	1
972	0	1
973	0	1
974	0	1
975	0	1
976	0	0.996263
977	0	0.998129
978	0	0.998129
979	0	0.996263
980	0	0.996263
981	0	0.996267
982	0	0
983	0	0
984	0	0
985	0	0
986	0	0
987	0	0
988	0	0
989	0	0
990	0	0
991	0	0
992	0	0
993	0	0
994	0	0
995	0	0
996	0	0
997	0	0
998	0	0
999	0	0
1000	0	0
1001	0	0.974063
1002	0	0.950589
1003	0	0.822146
1004	0	0.959369
1005	0	0.981372
1006	0	1
1007	0	1
1008	0	1
1009	0	1
1010	0	1
1011	0	1
1012	0	0.983258
1013	1	0
1014	1	0
1015	1	0
1016	1	0
1017	0	0
1018	0	0
1019	0	0
1020	0	0
1021	0	0
1022	0	0
1023	0	0
1024	0	0
1025	0	0
1026	0	0
1027	0	0
1028	0	0
1029	0	0
1030	0	0
1031	0	0
1032	0	0
1033	0	0
1034	0	0.983258
1035	0	0.977705
1036	0	0
1037	0	0
1038	0	0
1039	0	0.990663
1040	0	0.990663
1041	0	0.990663
1042	0	0.990663
1043	0	0.990663
1044	1	0
1045	1	0
1046	1	0
1047	0	0.994377
1048	0	0
1049	0	0
1050	0	0
1051	0	0
1052	0	0
1053	0	0
1054	0	0
1055	0	0
1056	0	0
1057	0	0
1058	0	0
1059	0	0
1060	1	0
1061	1	0
1062	0	0
1063	0	0
1064	0	0
1065	0	0
1066	0	0
1067	0	0
1068	0	0
1069	0	0
1070	0	0
1071	0	0
1072	0	0
1073	0	0
1074	0	0
1075	1	0
1076	1	0
1077	1	0
1078	1	0
1079	0	0
1080	0	0
1081	0	0
1082	0	0
1083	0	0
1084	0	0
1085	0	0
1086	0	0
1087	0	0
1088	0	0
1089	0	0
1090	0	0
1091	0	0.996246
1092	0	0.996249
1093	0	1
1094	0	1
1095	0	1
1096	0	0.99812
1097	0	1
1098	0	1
1099	0	1
1100	0	1
1101	0	1
1102	0	1
1103	0	1
1104	0	1
1105	0	1
1106	0	1
1107	1	0
1108	1	0
1109	1	0
1110	1	0
1111	1	0
1112	1	0
1113	0	0.994382
1114	0	0.994382
1115	0	0.996249
1116	0	0.996249
1117	0	0.994382
1118	0	0.998124
1119	1	1
1120	1	1
1121	1	1
1122	1	1
1123	1	1
1124	1	1
1125	0	0.998124
1126	0	0.998126
1127	0	0.996256
1128	0	0.996256
1129	0	0
1130	1	0
1131	1	0
1132	1	0
1133	1	0
1134	1	0
1135	1	0
1136	1	0
1137	1	0
1138	1	0
1139	1	0
1140	1	0
1141	1	0
1142	1	0
1143	1	0
1144	1	0
1145	1	0
1146	1	0
1147	1	0
1148	0	0.996253
1149	0	0.998126
1150	0	0.998126
1151	0	0.998126
1152	0	0.998126
1153	0	0.998126
1154	0	0.998126
1155	0	0.998124
1156	0	0.998124
1157	0	0.998124
1158	0	0.998124
1159	0	0.99812
1160	0	0.99812
1161	0	0.998117
1162	0	0.998115
1163	0	0.998115
1164	0	0.998115
1165	0	0.998115
1166	0	0.996235
1167	0	0.996235
1168	0	0.996235
1169	0	0.996235
1170	0	0.996235
1171	0	0.996235
1172	0	0.996235
1173	0	0
1174	0	0
1175	0	0
1176	0	0
1177	0	0
1178	0	0
1179	0	0
1180	0	0
1181	0	0
1182	1	0
1183	1	0
1184	1	0
1185	1	0
1186	1	0
1187	1	0
1188	1	0
1189	1	0
1190	0	0.99061
1191	0	0.992478
1192	0	0.992478
1193	0	0.992478
1194	0	0.992471
1195	0	0.990593
1196	1	0
1197	1	0
1198	1	0
1199	1	0
1200	1	0
1201	1	0
1202	0	0
1203	0	0.994334
1204	0	0.992456
1205	0	0.992456
1206	0	0.992456
1207	0	0
1208	0	0
1209	0	0
1210	0	0
1211	1	0
1212	0	0.986832
1213	0	0.990566
1214	0	0.994329
1215	0	0.994329
1216	0	0.992456
1217	0	0.992456
1218	0	0.990584
1219	0	0.990584
1220	0	0.990575
1221	1	1
1222	1	1
1223	1	1
1224	1	1
1225	1	1
1226	1	1
1227	1	1
1228	1	1
1229	1	1
1230	1	1
1231	1	1
1232	1	1
1233	1	1
1234	1	1
1235	1	1
1236	1	1
1237	1	1
1238	1	1
1239	1	1
1240	1	1
1241	1	1
1242	1	1
1243	1	1
1244	1	1
1245	1	1
1246	1	1
1247	1	1
1248	1	1
1249	1	1
1250	1	1
1251	1	1
1252	1	1
1253	1	1
1254	1	1
1255	1	1
1256	1	1
1257	1	1
1258	1	1
1259	1	1
1260	0	0.994336
1261	0	0.992458
1262	0	0.992458
1263	0	0.992464
1264	0	0.992456
1265	0	0.994334
1266	0	0.990584
1267	0	0.990584
1268	0	0.990584
1269	0	0
1270	0	0
1271	0	0
1272	0	0
1273	0	0.983131
1274	0	0.986855
1275	0	0.986855
1276	0	0
1277	0	0
1278	0	0
1279	0	0
1280	0	0
1281	0	0
1282	0	0
1283	0	0
1284	0	0
1285	0	0.992437
1286	0	0.992437
1287	0	0.992437
1288	0	0.992437
1289	0	0.99055
1290	0	0.166667
1291	0	0.166667
1292	0	0
1293	0	0
1294	0	0
1295	0	0
1296	0	0
1297	0	0
1298	0	0
1299	0	0
1300	0	0
1301	0	0.983057
1302	0	0.983035
1303	0	0
1304	0	0
1305	0	0
1306	0	0
1307	0	0
1308	0	0
1309	0	0
1310	0	0
1311	0	0
1312	0	0
1313	0	0
1314	0	0
1315	0	0
1316	0	0
1317	0	0
1318	0	0
1319	0	0
1320	0	0
1321	0	0
1322	0	0
1323	0	0
1324	0	0
1325	0	0
1326	0	0
1327	0	0
1328	0	0
1329	0	0.981106
1330	0	0.981106
1331	0	0.979246
1332	0	0
1333	0	0
1334	0	0
1335	0	0
1336	0	0
1337	0	0
1338	0	0
1339	0	0
1340	0	0
1341	0	0
1342	0	0
1343	0	0
1344	0	0
1345	0	0
1346	0	0.966286
1347	0	0
1348	0	0
1349	0	0
1350	0	0
1351	0	0
1352	0	0
1353	0	0
1354	0	0
1355	0	0
1356	0	0
1357	0	0.960483
1358	0	0.960483
1359	0	0.230769
1360	0	0.230769
1361	0	0.242424
1362	0	0.242424
1363	0	0.242424
1364	0	0.242424
1365	0	0.227273
1366	0	0.227273
1367	0	0.227273
1368	0	0.227273
1369	0	0.272727
1370	0	0.272727
1371	0	0.272727
1372	0	0.272727
1373	0	0.333333
1374	0	0.272727
1375	0	0.142857
1376	0	0.2
1377	0	0.2
1378	0	0.2
1379	0	0.2
1380	0	0.1
1381	0	0.166667
1382	0	0.166667
1383	0	0.166667
1384	0	0.166667
1385	0	0.166667
1386	0	0.166667
1387	0	0.166667
1388	0	0.166667
1389	0	0.166667
1390	0	0.166667
1391	0	0.166667
1392	0	0.166667
1393	0	0.166667
1394	0	0.166667
1395	0	0.166667
1396	0	0.166667
1397	0	0.166667
1398	0	0.166667
1399	0	0.166667
1400	0	0.166667
1401	0	0.166667
1402	0	0.166667
1403	0	0.166667
1404	0	0.166667
1405	0	0.166667
1406	0	0.166667
1407	0	0.166667
1408	0	0.956711
1409	0	0.954849
1410	0	0.333333
1411	0	0.333333
1412	0	0.333333
1413	0	0.166667
1414	0	0.166667
1415	0	0.166667
1416	0	0.934379
1417	0	1
1418	0	1
1419	0	1
1420	0	1
1421	0	1
1422	0	1
1423	0	1
1424	0	1
1425	0	1
1426	0	0.333333
1427	0	0.333333
1428	0	0.333333
1429	0	0.333333
1430	0	0.333333
1431	0	0.333333
1432	0	0.333333
1433	0	0.166667
1434	0	0.166667
1435	0	0.166667
1436	0	0.166667
1437	0	0.166667
1438	0	0.166667
1439	0	0.166667
1440	0	0.166667
1441	0	0.166667
1442	0	0.166667
1443	0	0.166667
1444	0	0.166667
1445	0	0.166667
1446	0	0.166667
1447	0	0.1
1448	0	0.1
1449	0	0.1
1450	0	0.1
1451	0	0.1
1452	0	0.1
1453	0	0.1
1454	0	0.1
1455	0	0.1
1456	0	0.1
1457	0	0.1
1458	0	0.1
1459	0	0.1
1460	0	0.1
1461	0	0.1
1462	0	0.1
1463	0	0.1
1464	0	0.1
1465	0	0.1
1466	0	0.1
1467	0	0.1
1468	0	0.1
1469	0	0.1
1470	0	0.1
1471	0	0.1
1472	0	0.1
1473	0	0.1
1474	0	0.1
1475	0	0.1
1476	0	0.1
1477	0	0.1
1478	0	0.1
1479	0	0.1
1480	0	0.1
1481	0	0.1
1482	0	0.1
1483	0	0.1
1484	0	0.1
1485	0	0.1
1486	0	0.1
1487	0	0.1
1488	0	0.1
1489	0	0.1
1490	0	0.1
1491	0	0.1
1492	0	0.1
1493	0	0.1
1494	0	0.1
1495	0	0.1
1496	0	0.1
1497	0	0.1
1498	0	0.1
1499	0	0.1
1500	0	0.1
1501	0	0.1
1502	0	0.1
1503	0	0.1
1504	0	0.1
1505	0	0.1
1506	0	0.3
1507	0	0.3
1508	0	0.3
1509	0	0.3
1510	0	0.3
1511	0	0.3
1512	0	0.6
1513	0	0.6
1514	0	0.6
1515	0	0.6
1516	0	0.6
1517	0	0.6
1518	0	0.6
1519	0	0.6
1520	0	0.6
1521	0	0.6
1522	0	0.6
1523	0	0.6
1524	0	0.6
1525	0	0.6
1526	0	0.6
1527	0	0.6
1528	0	0.6
1529	0	0.6
1530	0	0.6
1531	0	0.6
1532	0	0.6
1533	0	0.6
1534	0	0.6
1535	0	0.6
1536	0	0.6
1537	0	0.6
1538	0	0.6
1539	0	0.6
1540	0	0.6
1541	0	0.6
1542	0	0.6
1543	0	0.6
1544	0	0.6
1545	0	0.6
1546	0	0.6
1547	0	0.6
1548	0	0.6
1549	0	0.6
1550	0	0.6
1551	0	0.6
1552	0	0.6
1553	0	0.6
1554	0	0.6
1555	0	0.6
1556	0	0.6
1557	0	0.6
1558	0	0.6
1559	0	0.6
1560	0	0.6
1561	0	0.6
1562	0	0.6
1563	0	0.6
1564	0	0.6
1565	0	0.6
1566	0	0.6
1567	0	0.6
1568	0	0.6
1569	0	0.6
1570	0	0.6
1571	0	0.6
1572	0	0.6
1573	0	0.6
1574	0	0.6
1575	0	0.6
1576	0	0.6
1577	0	0.6
1578	0	0.6
1579	0	0.6
1580	0	0.6
1581	0	0.6
1582	0	0.6
1583	0	0.6
1584	0	0.6
1585	0	0.6
1586	0	0.6
1587	0	0.6
1588	0	0.6
1589	0	0.6
1590	0	0.6
1591	0	0.6
1592	0	0.6
1593	0	0.6
1594	0	0.6
1595	0	0.6
1596	0	0.6
1597	0	0.6
1598	0	0.6
1599	0	0.6
1600	0	0.6
1601	0	0.6
1602	0	0.6
1603	0	0.6
1604	0	0.6
1605	0	0.6
1606	0	0.6
1607	0	0.6
1608	0	0.6
1609	0	0.6
1610	0	0.6
1611	0	0.6
1612	0	0.6
1613	0	0.6
1614	0	0.6
1615	0	0.6
1616	0	0.6
1617	0	0.6
1618	0	0.6
1619	0	0.6
1620	0	0.6
1621	0	0.6
1622	0	0.6
1623	0	0.6
1624	0	0.6
1625	0	0.6
1626	0	0.6
1627	0	0.6
1628	0	0.6
1629	0	0.6
1630	0	0.6
1631	0	0.6
1632	0	0.6
1633	0	0.6
1634	0	0.6
1635	0	0.6
1636	0	0.6
1637	0	0.6
1638	0	0.6
1639	0	0.6
1640	0	0.6
1641	0	0.6
1642	0	0.6
1643	0	0.6
1644	0	0.6
1645	0	0.6
1646	0	0.6
1647	0	0.6
1648	0	0.6
1649	0	0.6
1650	0	0.6
1651	0	0.6
1652	0	0.6
1653	0	0.6
1654	0	0.6
1655	0	0.6
1656	0	0.6
1657	0	0.6
1658	0	0.6
1659	0	0.6
1660	0	0.6
1661	0	0.6
1662	0	0.6
1663	0	0.6
1664	0	0.6
1665	0	0.6
1666	0	0.6
1667	0	0.6
1668	0	0.6
1669	0	0.6
1670	0	0.6
1671	0	0.6
1672	0	0.6
1673	0	0.6
1674	0	0.6
1675	0	0.6
1676	0	0.6
1677	0	0.6
1678	0	0.6
1679	0	0.6
1680	0	1
1681	0	1
1682	0	1
1683	0	1
1684	0	1
1685	0	1
1686	0	1
1687	0	0.666667
1688	0	0.666667
1689	0	0.666667
1690	0	0.666667
1691	0	0.666667
1692	0	0.666667
1693	0	0.666667
1694	0	0.666667
1695	0	0.666667
1696	0	0.666667
1697	0	0.666667
1698	0	0.666667
1699	0	0.666667
1700	0	0.666667
1701	0	0.666667
1702	0	0.666667
1703	0	0.666667
1704	0	0.666667
1705	0	0.666667
1706	0	0.666667
1707	0	0.666667
1708	0	0.666667
1709	0	0.666667
1710	0	0.666667
1711	0	0.666667
1712	0	0.666667
1713	0	0.666667
1714	0	0.666667
1715	0	0.666667
1716	0	0.666667
1717	0	0.666667
1718	0	0.666667
1719	0	0.666667
1720	0	0.666667
1721	0	0.666667
1722	0	0.666667
1723	0	0.666667
1724	0	0.666667
1725	0	0.666667
1726	0	0.666667
1727	0	0.666667
1728	0	0.666667
1729	0	0.666667
1730	0	0.666667
1731	0	0.666667
1732	0	0.666667
1733	0	0.666667
1734	0	0.666667
1735	0	0.666667
1736	0	0.666667
1737	0	0.666667
1738	0	0.666667
1739	0	0.666667
1740	0	0.666667
1741	0	0.666667
1742	0	0.666667
1743	0	0.666667
1744	0	0.666667
1745	0	0.666667
1746	0	0.666667
1747	0	0.666667
1748	0	0.666667
1749	0	0.666667
1750	0	0.666667
1751	0	0.47619
1752	0	0.47619
1753	0	0.357143
1754	0	0.357143
1755	0	0.357143
1756	0	0.357143
1757	0	0.357143
1758	0	0.357143
1759	0	0.357143
1760	0	0.357143
1761	0	0.357143
1762	0	0.357143
1763	0	0.357143
1764	0	0.357143
1765	0	0.357143
1766	0	0.357143
1767	0	0.277778
1768	0	0.258333
1769	0	0.183824
1770	0	0.183824
1771	0	0.183824
1772	0	0.183824
1773	0	0.183824
1774	0	0.183824
1775	0	0.163399
1776	0	0.133333
1777	0	0.133333
1778	0	0.114625
1779	0	0.105072
1780	0	0.0911681
1781	0	0.0689655
1782	0	0.0689655
1783	0	0.0602151
1784	0	0.0516129
1785	0	0.0499109
1786	0	0.0460317
1787	0	0.0428571
1788	0	0.052381
1789	0	0.0428571
1790	0	0.0405405
1791	0	0.0758557
1792	0	0.0753546
1793	0	0.077381
1794	0	0.0686275
1795	0	0.0686275
1796	0	0.0660377
1797	0	0.0667634
1798	0	0.0632997
1799	0	0.05
1800	0	0.0789474
1801	0	0.0795739
1802	0	0.079661
1803	0	0.0688525
1804	0	0.066938
1805	0	0.0689201
1806	0	0.070676
1807	0	0.0808853
1808	0	0.0743265
1809	0	0.0731586
1810	0	0.0701262
1811	0	0.0674132
1812	0	0.0667413
1813	0	0.0669653
1814	0	0.0666667
1815	0	0.066886
1816	0	0.0725877
1817	0	0.077193
1818	0	0.0731808
1819	0	0.0727273
1820	0	0.0681188
1821	0	0.0642857
1822	0	0.0627755
1823	0	0.0625992
1824	0	0.0606595
1825	0	0.0589534
1826	0	0.0583129
1827	0	0.0530973
1828	0	0.0517241
1829	0	0.0499783
1830	0	0.0501353
1831	0	0.0504202
1832	0	0.0504202
1833	0	0.0545806
1834	0	0.0651169
1835	0	0.0662548
1836	0	0.070006
1837	0	0.0778813
1838	0	0.0752902
1839	0	0.0763958
1840	0	0.0752723
1841	0	0.0744009
1842	0	0.0740661
1843	0	0.0728869
1844	0	0.0717339
1845	0	0.711779
1846	0	0.705412
1847	0	0
1848	0	0
1849	0	0
1850	0	0
1851	0	0
1852	0	0
1853	0	0
1854	0	0
1855	0	0
1856	1	0
1857	0	0
1858	0	0
1859	0	0
1860	0	0
1861	0	0
1862	0	0
1863	0	0
1864	0	0
1865	0	0
1866	0	0
1867	0	0
1868	0	0.214286
1869	0	0.214286
1870	0	0.214286
1871	0	0.222222
1872	0	0.222222
1873	0	0.243077
1874	0	0.225071
1875	0	0.21164
1876	0	0.136558
1877	0	0.14367
1878	0	0.14367
1879	0	0.14367
1880	0	0.148448
1881	0	0.141026
1882	0	0.141026
1883	0	0.0902439
1884	0	0.0902439
1885	0	0.0939024
1886	0	0.0878049
1887	0	0.0841463
1888	0	0.108014
1889	0	0.10299
1890	0	0.101883
1891	0	0.0949495
1892	0	0.0897317
1893	0	0.0966312
1894	0	0.0926871
1895	0	0.0901361
1896	0	0.0840816
1897	0	0.0873469
1898	0	0.0619608
1899	0	0.0544267
1900	0	0.528602
1901	0	0.119192
1902	0	0.119192
1903	0	0.123232
1904	0	0.124736
1905	0	0.116162
1906	0	0.109043
1907	0	0.107993
1908	0	0.100629
1909	0	0.0908521
1910	0	0.091486
1911	0	0.0873016
1912	0	0.0803336
1913	0	0.0803336
1914	0	0.0776997
1915	0	0.0763001
1916	0	0.0775789
1917	0	0.0818414
1918	0	0.0882353
1919	0	0.0745951
1920	0	0.0824017
1921	0	0.0807453
1922	0	0.0745342
1923	0	0.0753623
1924	0	0.0799172
1925	0	0.0873706
1926	0	0.0927536
1927	0	0.0968944
1928	0	0.104225
1929	0	0.135368
1930	0	0.123457
1931	0	0.14875
1932	0	0.147223
1933	0	0.153267
1934	0	0.143631
1935	0	0.149051
1936	0	0.149051
1937	0	0.457807
1938	0	0.436233
1939	0	0.377118
1940	0	0.3394
1941	0	0.440781
1942	0	0.281446
1943	0	0.197481
1944	0	0.0997334
1945	0	0.0560521
1946	0	0.0517716
1947	0	0.0481589
1948	0	0.0479918
1949	0	0.0486201
1950	0	0.031746
1951	0	0.0315717
1952	0	0.0270862
1953	0	0.0287975
1954	0	0.0285603
1955	0	0.0209933
1956	0	0.0245902
1957	0	0.0310734
1958	0	0.0310734
1959	0	0.0293785
1960	0	0.0298071
1961	0	0.0298071
1962	0	0.030853
1963	0	0.0319549
1964	0	0.0331169
1965	0	0.0424242
1966	0	0.0550528
1967	0	0.0505279
1968	0	0.0497738
1969	0	0.0482655
1970	0	0.0522449
1971	0	0.0522449
1972	0	0.0582794
1973	0	0.0608696
1974	0	0.0453782
1975	0	0.0544355
1976	0	0.0555556
1977	0	0.0598291
1978	0	0.0598291
1979	0	0.0615385
1980	0	0.0615385
1981	0	0.0615385
1982	0	0.0615385
1983	0	0.0666667
1984	0	0.0724638
1985	0	0.0724638
1986	0	0.0790514
1987	0	0.0790514
1988	0	0.0735294
1989	0	0.0735294
1990	0	0.0952381
1991	0	0.0952381
1992	0	0.0952381
1993	0	0.0952381
1994	0	0.0952381
1995	0	0.0952381
1996	0	0.10989
1997	0	0.10989
1998	0	0.10989
1999	0	0.10989
2000	0	0.128205
2001	0	0.128205
2002	0	0.151515
2003	0	0.151515
2004	0	0.151515
2005	0	0.151515
2006	0	0.151515
2007	0	0.151515
2008	0	0.151515
2009	0	0.151515
2010	0	0.181818
2011	0	0.181818
2012	0	0.181818
2013	0	0.181818
2014	0	0.222222
2015	0	0.222222
2016	0	0.222222
2017	0	0.222222
2018	0	0.222222
2019	0	0.222222
2020	0	0.222222
2021	0	0.222222
2022	0	0.222222
2023	0	0.222222
2024	0	0.222222
2025	0	0.244444
2026	0	0.244444
2027	0	0.244444
2028	0	0.277778
2029	0	0.357143
2030	0	0.357143
2031	0	0.47619
2032	0	0.47619
2033	0	0.47619
2034	0	0.47619
2035	0	0.47619
2036	0	0.47619
2037	0	0.285714
2038	0	0.285714
2039	0	0.285714
2040	0	0.285714
2041	0	0.285714
2042	0	0.285714
2043	0	0.285714
2044	0	0.285714
2045	0	0.285714
2046	0	0.285714
2047	0	0.285714
2048	0	0.285714
2049	0	0.285714
2050	0	0.285714
2051	0	0.285714
2052	0	0.285714
2053	0	0.285714
2054	0	0.285714
2055	0	0.285714
2056	0	0.285714
2057	0	0.285714
2058	0	0.285714
2059	0	0.285714
2060	0	0.285714
2061	0	0.285714
2062	0	0.285714
2063	0	0.285714
2064	0	0.285714
2065	0	0.285714
2066	0	0.285714
2067	0	0.285714
2068	0	0.285714
2069	0	0.285714
2070	0	0.285714
2071	0	0.285714
2072	0	0.285714
2073	0	0.285714
2074	0	0.285714
2075	0	0.285714
2076	0	0.285714
2077	0	0.285714
2078	0	0.285714
2079	0	0.285714
2080	0	0.285714
2081	0	0.285714
2082	0	0.285714
2083	0	0.285714
2084	0	0.285714
2085	0	0.285714
2086	0	0.285714
2087	0	0.285714
2088	0	0.285714
2089	0	0.285714
2090	0	0.285714
2091	0	0.285714
2092	0	0.285714
2093	0	0.285714
2094	0	0.4
2095	0	0.4
2096	0	0.4
2097	0	0.4
2098	0	0.4
2099	0	0.4
2100	0	0.4
2101	0	0.4
2102	0	0.4
2103	0	0.4
2104	0	0.4
2105	0	0.4
2106	0	0.4
2107	0	0.4
2108	0	0.4
2109	0	0.3
2110	0	0.3
2111	0	0.3
2112	0	0.3
2113	0	0.3
2114	0	0.3
2115	0	0.3
2116	0	0.3
2117	0	0.3
2118	0	0.3
2119	0	0.3
2120	0	0.3
2121	0	0.3
2122	0	0.3
2123	0	0.3
2124	0	0.3
2125	0	0.3
2126	0	0.3
2127	0	0.3
2128	0	0.3
2129	0	0.3
2130	0	0.3
2131	0	0.3
2132	0	0.3
2133	0	0.3
2134	0	0.3
2135	0	0.3
2136	0	0.3
2137	0	0
2138	0	0
2139	0	0
2140	0	0
2141	0	0
2142	0	0
2143	0	0
2144	0	0
2145	0	0
2146	0	0
2147	0	0
2148	0	0
2149	0	0
2150	0	0
2151	0	0
2152	0	0
2153	0	0
2154	0	0
2155	0	0
2156	0	0
2157	0	0
2158	0	0
2159	0	0
2160	0	0
2161	0	0
2162	0	0
2163	0	0
2164	0	0
2165	0	0.2
2166	0	0.2
2167	0	0.2
2168	0	0.2
2169	0	0.2
2170	0	0.2
2171	0	0.2
2172	0	0.2
2173	0	0.2
2174	0	0.2
2175	0	0.2
2176	0	0.2
2177	0	0.2
2178	0	0.2
2179	0	0.2
2180	0	0.2
2181	0	0.2
2182	0	0.2
2183	0	0.2
2184	0	0.2
2185	0	0.2
2186	0	0.2
2187	0	0.2
2188	0	0.2
2189	0	0.2
2190	0	0.2
2191	0	0.2
2192	0	0.2
2193	0	0.2
2194	0	0.2
2195	0	0.2
2196	0	0.2
2197	0	0.2
2198	0	0.2
2199	0	0.2
2200	0	0.2
2201	0	0.2
2202	0	0.2
2203	0	0.2
2204	0	0.2
2205	0	0.2
2206	0	0.2
2207	0	0.2
2208	0	0.2
2209	0	0.2
2210	0	0.2
2211	0	0.2
2212	0	0.2
2213	0	0.2
2214	0	0.2
2215	0	0.2
2216	0	0.2
2217	0	0.2
2218	0	0.2
2219	0	0.2
2220	0	0.2
2221	0	0.2
2222	0	0.2
2223	0	0.2
2224	0	0.2
2225	0	0.2
2226	0	0.2
2227	0	0.2
2228	0	0.2
2229	0	0.2
2230	0	0.2
2231	0	0.2
2232	0	0.2
2233	0	0.2
2234	0	0.2
2235	0	0.2
2236	0	0.2
2237	0	0.2
2238	0	0.2
2239	0	0.2
2240	0	0.2
2241	0	0.2
2242	0	0.2
2243	0	0.2
2244	0	0.2
2245	0	0.2
2246	0	0.2
2247	0	0.2
2248	0	0.2
2249	0	0.2
2250	0	0.2
2251	0	0.2
2252	0	0.2
2253	0	0.2
2254	0	0.2
2255	0	0.2
2256	0	0.2
2257	0	0.2
2258	0	0.2
2259	0	0.2
2260	0	0.2
2261	0	0.2
2262	0	0.2
2263	0	0.2
2264	0	0.2
2265	0	0.2
2266	0	0.2
2267	0	0.2
2268	0	0.3
2269	0	0.3
2270	0	0.3
2271	0	0.3
2272	0	0.3
2273	0	0.3
2274	0	0.3
2275	0	0.3
2276	0	0.3
2277	0	0.3
2278	0	0.3
2279	0	0.3
2280	0	0.3
2281	0	0.3
2282	0	0.3
2283	0	0.3
2284	0	0.3
2285	0	0.3
2286	0	0.3
2287	0	0.3
2288	0	0.3
2289	0	0.3
2290	0	0.3
2291	0	0.3
2292	0	0.3
2293	0	0.3
2294	0	0.3
2295	0	0.3
2296	0	0.3
2297	0	0.3
2298	0	0.3
2299	0	0.3
2300	0	0.3
2301	0	0.3
2302	0	0.3
2303	0	0.3
2304	0	0.3
2305	0	0.3
2306	0	0.3
2307	0	0.3
2308	0	0.3
2309	0	0.3
2310	0	0.3
2311	0	0.3
2312	0	0.3
2313	0	0.3
2314	0	0.3
2315	0	0.3
2316	0	0.3
2317	0	0.3
2318	0	0.3
2319	0	0.3
2320	0	0.3
2321	0	0.3
2322	0	0.3
2323	0	0.3
2324	0	0.3
2325	0	0.3
2326	0	0.3
2327	0	0.3
2328	0	0.3
2329	0	0.3
2330	0	0.3
2331	0	0.3
2332	0	0.3
2333	0	0.3
2334	0	0.3
2335	0	0.3
2336	0	0.3
2337	0	0.3
2338	0	0.3
2339	0	0.3
2340	0	0.3
2341	0	0.3
2342	0	0.3
2343	0	0.3
2344	0	0.3
2345	0	0.3
2346	0	0.3
2347	0	0.3
2348	0	0.3
2349	0	0.3
2350	0	0.3
2351	0	0.3
2352	0	0.3
2353	0	0.3
2354	0	0.3
2355	0	0.3
2356	0	0.3
2357	0	0.3
2358	0	0.3
2359	0	0.3
2360	0	0.3
2361	0	0.3
2362	0	0.3
2363	0	0.3
2364	0	0.3
2365	0	0.3
2366	0	0.3
2367	0	0.3
2368	0	0.3
2369	0	0.3
2370	0	0.3
2371	0	0.3
2372	0	0.3
2373	0	0.3
2374	0	0.3
2375	0	0.3
2376	0	0.3
2377	0	0.3
2378	0	0.3
2379	0	0.3
2380	0	0.3
2381	0	0.3
2382	0	0.3
2383	0	0.3
2384	0	0.3
2385	0	0.3
2386	0	0.3
2387	0	0.3
2388	0	0.3
2389	0	0.3
2390	0	0.3
2391	0	0.3
2392	0	0.3
2393	0	0.3
2394	0	0.3
2395	0	0.3
2396	0	0.3
2397	0	0.3
2398	0	0.3
2399	0	0.3
2400	0	0.3
2401	0	0.3
2402	0	0.3
2403	0	0.3
2404	0	0.3
2405	0	0.3
2406	0	0.3
2407	0	0.3
2408	0	0.3
2409	0	0.3
2410	0	0.3
2411	0	0.3
2412	0	0.3
2413	0	0.3
2414	0	0.3
2415	0	0.3
2416	0	0.3
2417	0	0.3
2418	0	0.3
2419	0	0.3
2420	0	0.3
2421	0	0.3
2422	0	0.3
2423	0	0.3
2424	0	0.3
2425	0	0.3
2426	0	0.3
2427	0	0.3
2428	0	0.3
2429	0	0.3
2430	0	0.3
2431	0	0.3
2432	0	0.3
2433	0	0.3
2434	0	0.3
2435	0	0.3
2436	0	0.3
2437	0	0.3
2438	0	0.3
2439	0	0.3
2440	0	0.3
2441	0	0.3
2442	0	0.3
2443	0	0.3
2444	0	0.3
2445	0	0.3
2446	0	0.3
2447	0	0.3
2448	0	0.3
2449	0	0.3
2450	0	0.3
2451	0	0.3
2452	0	0.3
2453	0	0.3
2454	0	0.3
2455	0	0.3
2456	0	0.3
2457	0	0.3
2458	0	0.3
2459	0	0.3
2460	0	0.3
2461	0	0.3
2462	0	0.3
2463	0	0.3
2464	0	0.3
2465	0	0.3
2466	0	0.3
2467	0	0.3
2468	0	0.3
2469	0	0.3
2470	0	0.3
2471	0	0.3
2472	0	0.3
2473	0	0.3
2474	0	0.3
2475	0	0.3
2476	0	0.3
2477	0	0.3
2478	0	0.3
2479	0	0.3
2480	0	0.3
2481	0	0.3
2482	0	0.3
2483	0	0.3
2484	0	0.3
2485	0	0.3
2486	0	0.3
2487	0	0.3
2488	0	0.3
2489	0	0.3
2490	0	0.3
2491	0	0.3
2492	0	0.3
2493	0	0.3
2494	0	0.3
2495	0	0.3
2496	0	0.3
2497	0	0.3
2498	0	0.3
2499	0	0.3
2500	0	0.3
2501	0	0.3
2502	0	0.3
2503	0	0.3
2504	0	0.3
2505	0	0.3
2506	0	0.3
2507	0	0.3
2508	0	0.3
2509	0	0.3
2510	0	0.3
2511	0	0.3
2512	0	0.3
2513	0	0.3
2514	0	0.3
2515	0	0.3
2516	0	0.3
2517	0	0.3
2518	0	0.3
2519	0	0.3
2520	0	0.3
2521	0	0.3
2522	0	0.3
2523	0	0.3
2524	0	0.3
2525	0	0.3
2526	0	0.3
2527	0	0.3
2528	0	0.3
2529	0	0.3
2530	0	0.3
2531	0	0.3
2532	0	0.3
2533	0	0.3
2534	0	0.3
2535	0	0.3
2536	0	0.3
2537	0	0.3
2538	0	0.3
2539	0	0.3
2540	0	0.3
2541	0	0.3
2542	0	0.3
2543	0	0.3
2544	0	0.3
2545	0	0.3
2546	0	0.3
2547	0	0.3
2548	0	0.3
2549	0	0.3
2550	0	0.3
2551	0	0.3
2552	0	0.3
2553	0	0.3
2554	0	0.3
2555	0	0.3
2556	0	0.3
2557	0	0.3
2558	0	0.3
2559	0	0.3
2560	0	0.3
2561	0	0.3
2562	0	0.3
2563	0	0.3
2564	0	0.3
2565	0	0.3
2566	0	0.3
2567	0	0.3
2568	0	0.3
2569	0	0.3
2570	0	0.3
2571	0	0.3
2572	0	0.3
2573	0	0.3
2574	0	0.3
2575	0	0.3
2576	0	0.3
2577	0	0.3
2578	0	0.3
2579	0	0.3
2580	0	0.3
2581	0	0.3
2582	0	0.3
2583	0	0.3
2584	0	0.3
2585	0	0.3
2586	0	0.3
2587	0	0.3
2588	0	0.3
2589	0	0.3
2590	0	0.3
2591	0	0.3
2592	0	0.3
2593	0	0.3
2594	0	0.3
2595	0	0.5
2596	0	1
2597	0	1
2598	0	1
2599	0	1
2600	0	1
2601	0	1
2602	0	1
2603	0	1
2604	0	1
2605	0	1
2606	0	1
2607	0	1
2608	0	1
2609	0	1
2610	0	1
2611	0	1
2612	0	1
2613	0	1
2614	0	1
2615	0	1
2616	0	1
2617	0	1
2618	0	1
2619	0	1
2620	0	1
