Site	ColumnScore	SumOfPairsScore
1	0	0
2	0	0
3	0	0
4	0	0
5	0	0
6	0	0
7	0	0
8	0	0
9	0	0
10	0	0
11	0	0
12	0	0
13	0	0.166667
14	0	0.166667
15	0	0.166667
16	0	0.166667
17	0	0.166667
18	0	0.166667
19	0	0
20	0	0
21	0	0.166667
22	0	0.166667
23	0	0.166667
24	0	0.166667
25	0	0.166667
26	0	0.166667
27	0	0.166667
28	0	0.166667
29	0	0.166667
30	0	0.166667
31	0	0
32	0	0.166667
33	0	0.166667
34	0	0.166667
35	0	0.166667
36	0	0.166667
37	0	0.166667
38	0	0.166667
39	0	0.166667
40	0	0
41	0	0
42	0	0
43	0	0
44	0	0
45	0	0
46	0	0
47	0	0
48	0	0
49	0	0
50	0	0
51	0	0
52	0	0
53	0	0
54	0	0
55	0	0
56	0	0
57	0	0
58	0	0
59	0	0
60	0	0
61	0	0
62	0	0
63	0	0
64	0	0
65	0	0
66	0	0
67	0	0
68	0	0
69	0	0
70	0	0
71	0	0
72	0	0
73	0	0
74	0	0
75	0	0
76	0	0
77	0	0
78	0	0
79	0	0
80	0	0
81	0	0
82	0	0
83	0	0
84	0	0
85	0	0
86	0	0
87	0	0
88	0	0
89	0	0
90	0	0
91	0	0
92	0	0
93	0	0
94	0	0
95	0	0
96	0	0
97	0	0
98	0	0
99	0	0
100	0	0
101	0	0
102	0	0
103	0	0
104	0	0
105	0	0
106	0	0
107	0	0.1
108	0	0.1
109	0	0.1
110	0	0.1
111	0	0.1
112	0	0.1
113	0	0.1
114	0	0.1
115	0	0.1
116	0	0.1
117	0	0.1
118	0	0.1
119	0	0.1
120	0	0.1
121	0	0.1
122	0	0.1
123	0	0.1
124	0	0.1
125	0	0.1
126	0	0.1
127	0	0.1
128	0	0.1
129	0	0.1
130	0	0.1
131	0	0.1
132	0	0.1
133	0	0.1
134	0	0.1
135	0	0.1
136	0	0.1
137	0	0.1
138	0	0.1
139	0	0.1
140	0	0.1
141	0	0.1
142	0	0.1
143	0	0.1
144	0	0.1
145	0	0.1
146	0	0.1
147	0	0.1
148	0	0.1
149	0	0.1
150	0	0.1
151	0	0.1
152	0	0.1
153	0	0.1
154	0	0.1
155	0	0.1
156	0	0.1
157	0	0.1
158	0	0.1
159	0	0.1
160	0	0.1
161	0	0.1
162	0	0.1
163	0	0.1
164	0	0.1
165	0	0.1
166	0	0.1
167	0	0.1
168	0	0.1
169	0	0.1
170	0	0.1
171	0	0.1
172	0	0.1
173	0	0.1
174	0	0.1
175	0	0.1
176	0	0.1
177	0	0.1
178	0	0.1
179	0	0.1
180	0	0.1
181	0	0.1
182	0	0.1
183	0	0.1
184	0	0.1
185	0	0.1
186	0	0.1
187	0	0.1
188	0	0.1
189	0	0.1
190	0	0.1
191	0	0.1
192	0	0.1
193	0	0.1
194	0	0.1
195	0	0.1
196	0	0.1
197	0	0.1
198	0	0.1
199	0	0.1
200	0	0.1
201	0	0.1
202	0	0.1
203	0	0.1
204	0	0.1
205	0	0.1
206	0	0.1
207	0	0.1
208	0	0.1
209	0	0.1
210	0	0.1
211	0	0.1
212	0	0.1
213	0	0.1
214	0	0.1
215	0	0.1
216	0	0.1
217	0	0.1
218	0	0.1
219	0	0
220	0	0
221	0	0
222	0	0
223	0	0
224	0	0
225	0	0
226	0	0
227	0	0
228	0	0
229	0	0
230	0	0
231	0	0
232	0	0
233	0	0
234	0	0
235	0	0
236	0	0
237	0	0
238	0	0
239	0	0
240	0	0
241	0	0.1
242	0	0.1
243	0	0.1
244	0	0.1
245	0	0.1
246	0	0.1
247	0	0.1
248	0	0.1
249	0	0.1
250	0	0.1
251	0	0.1
252	0	0.0666667
253	0	0.0666667
254	0	0.0666667
255	0	0.0666667
256	0	0.0666667
257	0	0.0666667
258	0	0.0666667
259	0	0.0666667
260	0	0.0666667
261	0	0.0666667
262	0	0.0666667
263	0	0.0666667
264	0	0.0666667
265	0	0.0666667
266	0	0.0666667
267	0	0.0666667
268	0	0.0666667
269	0	0.0666667
270	0	0.0666667
271	0	0.0666667
272	0	0.0666667
273	0	0.0666667
274	0	0.0666667
275	0	0.0666667
276	0	0.0666667
277	0	0.0666667
278	0	0.0666667
279	0	0.0666667
280	0	0.0666667
281	0	0.0666667
282	0	0.0666667
283	0	0.0666667
284	0	0.0666667
285	0	0.0666667
286	0	0.0666667
287	0	0.0666667
288	0	0.0666667
289	0	0.0666667
290	0	0.0666667
291	0	0.0666667
292	0	0.0666667
293	0	0.0666667
294	0	0.0666667
295	0	0.0666667
296	0	0.0666667
297	0	0.0666667
298	0	0.0666667
299	0	0.0666667
300	0	0.0666667
301	0	0.0666667
302	0	0.0666667
303	0	0.0666667
304	0	0.0666667
305	0	0.0666667
306	0	0.0666667
307	0	0.0666667
308	0	0.0666667
309	0	0.0666667
310	0	0.0666667
311	0	0.0666667
312	0	0.0666667
313	0	0.0666667
314	0	0.0666667
315	0	0.0666667
316	0	0.0666667
317	0	0.0666667
318	0	0.0666667
319	0	0.0666667
320	0	0.0666667
321	0	0.0666667
322	0	0.0666667
323	0	0.0666667
324	0	0.0666667
325	0	0.0666667
326	0	0.0666667
327	0	0.0666667
328	0	0.0666667
329	0	0.0666667
330	0	0.0666667
331	0	0.0666667
332	0	0.0666667
333	0	0.0666667
334	0	0.0666667
335	0	0.0666667
336	0	0.0666667
337	0	0.0666667
338	0	0.0666667
339	0	0.0666667
340	0	0.0666667
341	0	0.0666667
342	0	0.0666667
343	0	0.0666667
344	0	0.0666667
345	0	0.0666667
346	0	0.0666667
347	0	0.0666667
348	0	0.0666667
349	0	0.0666667
350	0	0.0666667
351	0	0.0666667
352	0	0.0666667
353	0	0.0666667
354	0	0.0666667
355	0	0.0666667
356	0	0.0666667
357	0	0.0666667
358	0	0.0666667
359	0	0.0666667
360	0	0.047619
361	0	0.047619
362	0	0.047619
363	0	0.047619
364	0	0.047619
365	0	0.047619
366	0	0.047619
367	0	0.047619
368	0	0.047619
369	0	0.047619
370	0	0.047619
371	0	0.047619
372	0	0.047619
373	0	0.047619
374	0	0.047619
375	0	0.047619
376	0	0.047619
377	0	0.047619
378	0	0.047619
379	0	0.047619
380	0	0.047619
381	0	0.047619
382	0	0.047619
383	0	0.047619
384	0	0.047619
385	0	0.047619
386	0	0.047619
387	0	0.047619
388	0	0.047619
389	0	0.0357143
390	0	0.0357143
391	0	0.0357143
392	0	0.0357143
393	0	0.0357143
394	0	0.0357143
395	0	0.0357143
396	0	0.0357143
397	0	0.0357143
398	0	0.0357143
399	0	0.0357143
400	0	0.0357143
401	0	0.0357143
402	0	0.0357143
403	0	0.0357143
404	0	0.0357143
405	0	0.0357143
406	0	0.0357143
407	0	0.0357143
408	0	0.0357143
409	0	0.0357143
410	0	0.0357143
411	0	0.0357143
412	0	0.0357143
413	0	0.0357143
414	0	0.0357143
415	0	0.0357143
416	0	0.0357143
417	0	0.0357143
418	0	0.0357143
419	0	0.0357143
420	0	0.0357143
421	0	0.0357143
422	0	0.0357143
423	0	0.0357143
424	0	0.0357143
425	0	0.0357143
426	0	0.0357143
427	0	0.0357143
428	0	0.0357143
429	0	0.0357143
430	0	0.0357143
431	0	0.0357143
432	0	0.0357143
433	0	0.0357143
434	0	0.0357143
435	0	0.0357143
436	0	0.0357143
437	0	0.0277778
438	0	0.0277778
439	0	0.0277778
440	0	0.0277778
441	0	0.0277778
442	0	0.0277778
443	0	0.0277778
444	0	0.0277778
445	0	0.0277778
446	0	0.0277778
447	0	0.0277778
448	0	0.0277778
449	0	0.0277778
450	0	0.0277778
451	0	0.0277778
452	0	0.0277778
453	0	0.0277778
454	0	0.0277778
455	0	0.0277778
456	0	0.0277778
457	0	0.0277778
458	0	0.0277778
459	0	0.0277778
460	0	0.0277778
461	0	0.0277778
462	0	0.0277778
463	0	0.0277778
464	0	0.0277778
465	0	0.0277778
466	0	0.0277778
467	0	0.0277778
468	0	0.0277778
469	0	0.0277778
470	0	0.0277778
471	0	0.0277778
472	0	0.0277778
473	0	0.0277778
474	0	0.0222222
475	0	0.0222222
476	0	0.0222222
477	0	0.0222222
478	0	0.0222222
479	0	0.0222222
480	0	0.0222222
481	0	0.0222222
482	0	0.0583333
483	0	0.0583333
484	0	0.0583333
485	0	0.0583333
486	0	0.0583333
487	0	0.0583333
488	0	0.0583333
489	0	0.0583333
490	0	0.0583333
491	0	0.0583333
492	0	0.0583333
493	0	0.0457516
494	0	0.0457516
495	0	0.0409357
496	0	0.0368421
497	0	0.0333333
498	0	0.047619
499	0	0.047619
500	0	0.047619
501	0	0.0519481
502	0	0.0519481
503	0	0.052381
504	0	0.052381
505	0	0.0578947
506	0	0.0578947
507	0	0.0578947
508	0	0.0578947
509	0	0.052381
510	0	0.0519481
511	0	0.05
512	0	0.05
513	0	0.0529101
514	0	0.0529101
515	0	0.0687831
516	0	0.0687831
517	0	0.0687831
518	0	0.0687831
519	0	0.0687831
520	0	0.0687831
521	0	0.0640394
522	0	0.0597701
523	0	0.0430108
524	0	0.0403226
525	0	0.0423387
526	0	0.0443548
527	0	0.0443548
528	0	0.0430108
529	0	0.0430108
530	0	0.0378788
531	0	0.0378788
532	0	0.0492424
533	0	0.0492424
534	0	0.0492424
535	0	0.0378788
536	0	0.0378788
537	0	0.0345345
538	0	0.0327169
539	0	0.0327169
540	0	0.0294872
541	0	0.0307692
542	0	0.0292683
543	0	0.0292683
544	0	0.029036
545	0	0.029036
546	0	0.0282828
547	0	0.0270531
548	0	0.0280193
549	0	0.044724
550	0	0.0430976
551	0	0.0459016
552	0	0.0437158
553	0	0.0576415
554	0	0.0558116
555	0	0.0558116
556	0	0.0558116
557	0	0.0639423
558	0	0.0920886
559	0	0.120679
560	0	0.221911
561	0	0.274038
562	0	0.296752
563	0	0.28815
564	0	0.279917
565	0	0.32973
566	0	0.32973
567	0	0.327409
568	0	0.41161
569	0	0.606169
570	0	0.608115
571	0	0.629128
572	0	0.711649
573	0	0.0253623
574	0	0.0253623
575	0	0.0253623
576	0	0.0253623
577	0	0.0253623
578	0	0.0253623
579	0	0.0253623
580	0	0.0430769
581	0	0.0430769
582	0	0.0190476
583	0	0.0238095
584	0	0.0238095
585	0	0.0238095
586	0	0.0238095
587	0	0.0238095
588	0	0.0238095
589	0	0.0238095
590	0	0.0238095
591	0	0.0238095
592	0	0.0238095
593	0	0.0238095
594	0	0.0238095
595	0	0.0238095
596	0	0.0238095
597	0	0.0238095
598	0	0.025974
599	0	0.025974
600	0	0.025974
601	0	0.0266667
602	0	0.0266667
603	0	0.0266667
604	0	0.0233333
605	0	0.0233333
606	0	0.0233333
607	0	0.0253623
608	0	0.0253623
609	0	0.0233333
610	0	0.0233333
611	0	0.0233333
612	0	0.0215385
613	0	0.0215385
614	0	0.0215385
615	0	0.019943
616	0	0.0185185
617	0	0.0197044
618	0	0.0270936
619	0	0.0252874
620	0	0.0252874
621	0	0.0252874
622	0	0.0322581
623	0	0.0322581
624	0	0.0403226
625	0	0.0403226
626	0	0.0378788
627	0	0.0650794
628	0	0.732896
629	0	0.0114943
630	0	0.0137931
631	0	0.0120968
632	0	0.0201613
633	0	0.016129
634	0	0.0181452
635	0	0.0170455
636	0	0.0208333
637	0	0.030303
638	0	0.0378788
639	0	0.0374332
640	0	0.0352941
641	0	0.0521008
642	0	0.117424
643	0	0.119328
644	0	0.137815
645	0	0.137815
646	0	0.145646
647	0	0.159317
648	0	0.180769
649	0	0.178295
650	0	0.183511
651	0	0.230442
652	0	0.249412
653	0	0.239693
654	0	0.299825
655	0	0.356777
656	0	0.463073
657	0	0.445864
658	0	0.690984
659	0	0.718283
660	0	0.730893
661	0	0.641751
662	0	0.675499
663	0	0
664	0	0
665	0	0
666	0	0
667	0	0
668	0	0.0666667
669	0	0.047619
670	0	0.047619
671	0	0.047619
672	0	0.0606061
673	0	0.0606061
674	0	0.0606061
675	0	0.0727273
676	0	0.0727273
677	0	0.0727273
678	0	0.0641026
679	0	0.0444444
680	0	0.114286
681	0	0.825781
682	0	0.2
683	0	0.2
684	0	0.166667
685	0	0
686	0	0
687	0	0
688	0	0
689	0	0
690	0	0
691	0	0
692	0	0
693	0	0
694	0	0
695	0	0
696	0	0
697	0	0
698	0	0
699	0	0.3
700	0	0.3
701	0	0.3
702	0	0.3
703	0	0.3
704	0	0.3
705	0	0.3
706	0	0.3
707	0	0.3
708	0	0.3
709	0	0.3
710	0	0.3
711	0	0.3
712	0	0.3
713	0	0.3
714	0	0.3
715	0	0.3
716	0	0.3
717	0	0.3
718	0	0.3
719	0	0.2
720	0	0.617669
721	0	0.614637
722	0	0
723	0	0
724	0	0
725	0	0.0761905
726	0	0
727	0	0
728	0	0
729	0	0
730	0	0
731	0	0
732	0	0
733	0	0
734	0	0
735	0	0
736	0	0
737	0	0
738	0	0.625065
739	0	0.133333
740	0	0.788344
741	0	0.788344
742	0	0.788344
743	0	0.756162
744	0	0.756162
745	0	0.741386
746	0	0.712926
747	0	0.620817
748	0	0.559901
749	0	0.40863
750	0	0.507055
751	0	0
752	0	0
753	0	0
754	0	0
755	0	0.5
756	0	0.5
757	0	0.5
758	0	0.5
759	0	0.5
760	0	0.5
761	0	0.5
762	0	0.5
763	0	0.5
764	0	0.5
765	0	0.5
766	0	0.5
767	0	0.5
768	0	0.5
769	0	0.5
770	0	0.5
771	0	0.5
772	0	0.5
773	0	0.5
774	0	0.5
775	0	0.5
776	0	0.5
777	0	0.5
778	0	0.5
779	0	0.5
780	0	0.5
781	0	0.5
782	0	0.5
783	0	0.5
784	0	0.5
785	0	0.5
786	0	0.5
787	0	0.5
788	0	0.5
789	0	0.3
790	0	0.3
791	0	0
792	0	0
793	0	0
794	0	0
795	0	0
796	0	0
797	0	0
798	0	0
799	0	0
800	0	0
801	0	0
802	0	0
803	0	0
804	0	0
805	0	0
806	0	0
807	0	0
808	0	0
809	0	0
810	0	0
811	0	0
812	0	0
813	0	0
814	0	0
815	0	0
816	0	0
817	0	0
818	0	0
819	0	0
820	0	0
821	0	0
822	0	0
823	0	0
824	0	0
825	0	0
826	0	0
827	0	0
828	0	0
829	0	0
830	0	0
831	0	0
832	0	0
833	0	0
834	0	0
835	0	0
836	0	0
837	0	0
838	0	0
839	0	0
840	0	0
841	0	0
842	0	0
843	0	0
844	0	0
845	0	0
846	0	0
847	0	0
848	0	0
849	0	0
850	0	0
851	0	0
852	0	0
853	0	0
854	0	0
855	0	0
856	0	0.474004
857	0	1
858	0	1
859	0	1
860	0	1
861	0	1
862	0	1
863	0	0.320482
864	0	0.597973
865	0	0.714424
866	0	0.725941
867	0	0.755514
868	0	0.0909091
869	0	0.1
870	0	0
871	0	0
872	0	0
873	0	0
874	0	0
875	0	0.4
876	0	0.4
877	0	0
878	0	0
879	0	0
880	0	0
881	0	0.142857
882	0	0
883	0	0.166667
884	0	0.166667
885	0	0.166667
886	0	0.2
887	0	0
888	0	0
889	0	0
890	0	0
891	0	0.3
892	0	0.4
893	0	0.4
894	0	0.4
895	0	0.4
896	0	0.330112
897	0	0
898	0	0
899	0	0.283234
900	0	0.395801
901	0	0.412698
902	0	0.372248
903	0	0.370712
904	0	0.358631
905	0	0.347596
906	0	0.351049
907	0	0.320972
908	0	0.305433
909	0	0.282858
910	0	0.438938
911	0	0.433389
912	0	0.43361
913	0	0.356516
914	0	0.63146
915	0	0.59117
916	0	0.447727
917	0	0.406626
918	0	0.166667
919	0	0
920	0	0
921	0	0
922	0	0
923	0	0
924	0	0.0277778
925	0	0.0181818
926	0	0.0454545
927	0	0.108333
928	0	0.166667
929	0	0.163826
930	0	0.153909
931	0	0.185519
932	0	0.141651
933	0	0.147805
934	0	0.180867
935	0	0.246032
936	0	0.18254
937	0	0.179894
938	0	0.150794
939	0	0.150794
940	0	0.112345
941	0	0.0949562
942	0	0.0858586
943	0	0.0660088
944	0	0.0573871
945	0	0.0486855
946	0	0.0525114
947	0	0.0622951
948	0	0.0638418
949	0	0.0655844
950	0	0.295492
951	0	0.254032
952	0	0.270968
953	0	0.270968
954	0	0.358974
955	0	0.358974
956	0	0.358974
957	0	0.387692
958	0	0.42
959	0	0.42
960	0	0.42
961	0	0.571429
962	0	0.701754
963	0	0.701754
964	0	0.701754
965	0	0
966	0	0
967	0	0
968	0	0
969	0	0
970	0	0
971	0	0
972	0	0
973	0	0
974	0	0
975	0	0
976	0	0
977	0	0
978	0	0
979	0	0
980	0	0
981	0	0
982	0	0
983	0	0
984	0	0
985	0	0
986	0	0
987	0	0
988	0	0
989	0	0
990	0	0
991	0	0
992	0	0
993	0	0
994	0	0
995	0	0
996	0	0
997	0	0
998	0	0
999	0	0
1000	0	0
1001	0	0
1002	0	0
1003	0	0
1004	0	0
1005	0	0
1006	0	0
1007	0	0
1008	0	0
1009	0	0
1010	0	0
1011	0	0
1012	0	0
1013	0	0
1014	0	0
1015	0	0
1016	0	0
1017	0	0
1018	0	0
1019	0	0
1020	0	0
1021	0	0
1022	0	0
1023	0	0
1024	0	0
1025	0	0
1026	0	0
1027	0	0
1028	0	0
1029	0	0
1030	0	0
1031	0	0
1032	0	0
1033	0	0
1034	0	0
1035	0	0
1036	0	0
1037	0	0
1038	0	0
1039	0	0
1040	0	0
1041	0	0
1042	0	0
1043	0	0
1044	0	0
1045	0	0
1046	0	0
1047	0	0
1048	0	0
1049	0	0
1050	0	0
1051	0	0
1052	0	0
1053	0	0
1054	0	0
1055	0	0
1056	0	0
1057	0	0
1058	0	0
1059	0	0
1060	0	0
1061	0	0
1062	0	0
1063	0	0
1064	0	0
1065	0	0
1066	0	0
1067	0	0
1068	0	0
1069	0	0
1070	0	0
1071	0	0
1072	0	0
1073	0	0
1074	0	0
1075	0	0
1076	0	0
1077	0	0
1078	0	0
1079	0	0
1080	0	0
1081	0	0
1082	0	0
1083	0	0
1084	0	0
1085	0	0
1086	0	0
1087	0	0
1088	0	0
1089	0	0
1090	0	0
1091	0	0
1092	0	0
1093	0	0
1094	0	0
1095	0	0
1096	0	0
1097	0	0
1098	0	0
1099	0	0
1100	0	0
1101	0	0
1102	0	0
1103	0	0
1104	0	0
1105	0	0
1106	0	0
1107	0	0
1108	0	0
1109	0	0.2
1110	0	0.2
1111	0	0.2
1112	0	0.210356
1113	0	0.431217
1114	0	0.166667
1115	0	0.141026
1116	0	0.151515
1117	0	0.27465
1118	0	0.277778
1119	0	0.277778
1120	0	0.277778
1121	0	0.277778
1122	0	0.277778
1123	0	0.277778
1124	0	0.277778
1125	0	0.277778
1126	0	0.277778
1127	0	0.277778
1128	0	0.277778
1129	0	0.277778
1130	0	0.277778
1131	0	0.277778
1132	0	0.277778
1133	0	0.277778
1134	0	0.277778
1135	0	0.277778
1136	0	0.277778
1137	0	0.277778
1138	0	0.277778
1139	0	0.277778
1140	0	0.277778
1141	0	0.277778
1142	0	0.277778
1143	0	0.277778
1144	0	0.277778
1145	0	0.277778
1146	0	0.277778
1147	0	0.277778
1148	0	0.277778
1149	0	0.277778
1150	0	0.277778
1151	0	0.277778
1152	0	0.277778
1153	0	0.277778
1154	0	0.19697
1155	0	0.166667
1156	0	0.142857
1157	0	0.338956
1158	0	0.386268
1159	0	0.178947
1160	0	0.227941
1161	0	0.227941
1162	0	0.227941
1163	0	0.227941
1164	0	0.227941
1165	0	0.227941
1166	0	0.227941
1167	0	0.227941
1168	0	0.227941
1169	0	0.202614
1170	0	0.202614
1171	0	0.163158
1172	0	0.147619
1173	0	0.138528
1174	0	0.133005
1175	0	0.21799
1176	0	0.218972
1177	0	0.108815
1178	0	0.0700313
1179	0	0.188782
1180	0	0.0643678
1181	0	0.0513834
1182	0	0.0190476
1183	0	0
1184	0	0
1185	0	0
1186	0	0
1187	0	0
1188	0	0
1189	0	0
1190	0	0
1191	0	0
1192	0	0
1193	0	0
1194	0	0
1195	0	0
1196	1	0
1197	1	0
1198	1	0
1199	0	0
1200	0	0
1201	0	0
1202	0	0
1203	0	0
1204	0	0
1205	0	0
1206	0	0
1207	0	0
1208	0	0
1209	0	0
1210	0	0
1211	0	0
1212	0	0
1213	0	0
1214	0	0
1215	0	0
1216	0	0
1217	0	0
1218	0	0
1219	0	0
1220	0	0
1221	0	0
1222	0	0
1223	0	0
1224	0	0
1225	0	0
1226	0	0
1227	0	0
1228	0	0
1229	0	0
1230	0	0
1231	0	0
1232	0	0
1233	0	0
1234	0	0
1235	0	0
1236	0	0
1237	0	0
1238	0	0
1239	0	0
1240	0	0
1241	0	0
1242	0	0
1243	0	0
1244	0	0
1245	0	0
1246	0	0
1247	0	0
1248	0	0
1249	0	0
1250	0	0
1251	0	0
1252	0	0
1253	0	0
1254	0	0
1255	1	0
1256	1	0
1257	1	0
1258	0	0
1259	0	0
1260	0	0
1261	0	0
1262	0	0
1263	0	0
1264	0	0
1265	0	0
1266	0	0
1267	0	0
1268	0	0
1269	0	0
1270	0	0
1271	0	0
1272	0	0
1273	0	0
1274	0	0
1275	0	0
1276	0	0
1277	0	0
1278	0	0
1279	0	0
1280	0	0
1281	0	0
1282	0	0
1283	0	0
1284	0	0
1285	0	0
1286	0	0
1287	0	0
1288	0	0
1289	0	0
1290	0	0
1291	0	0
1292	0	0
1293	0	0
1294	0	0
1295	0	0
1296	0	0
1297	0	0
1298	0	0
1299	0	0
1300	0	0
1301	0	0
1302	0	0
1303	0	0
1304	0	0
1305	0	0
1306	0	0
1307	0	0
1308	0	0
1309	0	0
1310	0	0
1311	0	0
1312	0	0
1313	0	0
1314	0	0
1315	0	0
1316	0	0
1317	0	0
1318	0	0
1319	0	0
1320	0	0
1321	0	0
1322	0	0
1323	0	0
1324	0	0
1325	0	0
1326	0	0
1327	0	0
1328	0	0
1329	0	0
1330	0	0
1331	0	0
1332	0	0
1333	0	0
1334	0	0
1335	0	0
1336	0	0
1337	0	0
1338	0	0
1339	0	0
1340	0	0
1341	0	0
1342	0	0
1343	0	0
1344	0	0
1345	0	0
1346	0	0
1347	0	0
1348	0	0
1349	0	0
1350	0	0
1351	0	0
1352	0	0
1353	0	0
1354	0	0
1355	0	0
1356	0	0
1357	0	0
1358	1	0
1359	0	0
1360	0	0
1361	0	0
1362	0	0
1363	0	0
1364	0	0
1365	0	0
1366	0	0
1367	0	0
1368	0	0
1369	0	0
1370	0	0
1371	0	0
1372	0	0
1373	0	0
1374	0	0
1375	0	0
1376	0	0
1377	0	0
1378	0	0
1379	0	0
1380	0	0
1381	0	0
1382	0	0
1383	0	0
1384	0	0
1385	0	0
1386	0	0
1387	0	0
1388	0	0
1389	0	0
1390	0	0
1391	0	0
1392	0	0
1393	0	0
1394	0	0
1395	0	0
1396	0	0
1397	0	0
1398	0	0
1399	0	0
1400	0	0
1401	0	0.142774
1402	0	0
1403	0	0
1404	0	0
1405	0	0
1406	0	0
1407	0	0.0277778
1408	0	0.0222222
1409	0	0.043956
1410	0	0.0562771
1411	0	0.0576091
1412	0	0.0574489
1413	0	0.0699062
1414	0	0.0616051
1415	0	0.242931
1416	0	0.0470046
1417	0	0.357011
1418	0	0
1419	0	0
1420	0	0
1421	0	0
1422	0	0
1423	0	0
1424	0	0
1425	0	0
1426	0	0
1427	0	0
1428	0	0
1429	0	0
1430	0	0
1431	0	0
1432	0	0
1433	0	0
1434	0	0
1435	0	0
1436	0	0
1437	0	0
1438	0	0.0545455
1439	0	0.0888889
1440	0	0.454665
1441	0	0.0953846
1442	0	0.19596
1443	0	0.0512821
1444	0	0.0666667
1445	0	0
1446	0	0
1447	0	0
1448	0	0
1449	0	0
1450	0	0.0666667
1451	0	0.0666667
1452	0	0.0666667
1453	0	0.0666667
1454	0	0.0666667
1455	0	0.0666667
1456	0	0.0392157
1457	0	0.0392157
1458	0	0.0392157
1459	0	0.0588235
1460	0	0.0277778
1461	0	0.0877193
1462	0	0.0877193
1463	0	0.0666667
1464	0	0.0877193
1465	0	0.0666667
1466	0	0.0666667
1467	0	0.0666667
1468	0	0.0666667
1469	0	0.0666667
1470	0	0.0666667
1471	0	0.0666667
1472	0	0.0666667
1473	0	0.281429
1474	0	0.0653595
1475	0	0.0653595
1476	0	0.0897436
1477	0	0.0277778
1478	0	0.0384615
1479	0	0.0384615
1480	0	0.0545455
1481	0	0.0833333
1482	0	0.0833333
1483	0	0.0833333
1484	0	0.0833333
1485	0	0.0833333
1486	0	0.0833333
1487	0	0.0833333
1488	0	0.0833333
1489	0	0.0833333
1490	0	0.0666667
1491	0	0.0666667
1492	0	0.0666667
1493	0	0.0666667
1494	0	0.0666667
1495	0	0.0666667
1496	0	0.0666667
1497	0	0.0666667
1498	0	0.0545455
1499	0	0.0666667
1500	0	0.0666667
1501	0	0.0666667
1502	0	0.0545455
1503	0	0.0545455
1504	0	0.0659341
1505	0	0.0571429
1506	0	0.0571429
1507	0	0.393277
1508	0	0.504253
1509	0	0
1510	0	0
1511	0	0
1512	0	0
1513	0	0
1514	0	0
1515	0	0
1516	0	0
1517	0	0
1518	0	0
1519	0	0
1520	0	0
1521	0	0
1522	0	0
1523	0	0
1524	0	0
1525	0	0
1526	0	0
1527	0	0
1528	0	0
1529	0	0
1530	0	0
1531	0	0
1532	0	0
1533	0	0
1534	0	0
1535	0	0
1536	0	0
1537	0	0
1538	0	0
1539	0	0
1540	0	0
1541	0	0
1542	0	0
1543	0	0
1544	0	0
1545	0	0
1546	0	0
1547	0	0
1548	0	0
1549	0	0
1550	0	0
1551	0	0
1552	0	0
1553	0	0
1554	0	0
1555	0	0
1556	0	0
1557	0	0
1558	0	0
1559	0	0
1560	0	0
1561	0	0
1562	0	0
1563	0	0
1564	0	0
1565	0	0
1566	0	0
1567	0	0
1568	0	0
1569	0	0
1570	0	0
1571	0	0
1572	0	0
1573	0	0
1574	0	0
1575	0	0
1576	0	0
1577	0	0
1578	0	0
1579	0	0
1580	0	0
1581	0	0
1582	0	0
1583	0	0
1584	0	0
1585	0	0
1586	0	0
1587	0	0
1588	0	0.0666667
1589	0	0.358955
1590	0	0.355174
1591	0	0.351263
1592	0	0.346781
1593	0	0.340191
1594	0	0.29187
1595	0	0.280944
1596	0	0.278759
1597	0	0.279517
1598	0	0.28018
1599	0	0.347692
1600	0	0.0151515
1601	0	0.0151515
1602	0	0.743785
1603	0	0.743785
1604	0	0.743785
1605	0	0.743785
1606	0	0.743785
1607	0	0
1608	0	0.0128205
1609	0	0.0128205
1610	0	0
1611	0	0
1612	0	0.0392157
1613	0	0.429268
1614	0	0.397561
1615	0	0.362126
1616	0	0.294118
1617	0	0.320119
1618	0	0.4744
1619	0	0.266846
1620	0	0.367037
1621	0	0.468593
1622	0	0.484837
1623	0	0.476225
1624	0	0.498283
1625	0	0.37864
1626	0	0.379728
1627	0	0.110256
1628	0	0.103846
1629	0	0.128205
1630	0	0.128205
1631	0	0.06
1632	0	0.0724638
1633	0	0.140351
1634	0	0.140351
1635	0	0.202614
1636	0	0.254902
1637	0	0.254902
1638	0	0.325758
1639	0	0.336898
1640	0	0.375955
1641	0	0.380435
1642	0	0
1643	0	0
1644	0	0
1645	0	0
1646	0	0
1647	0	0
1648	0	0
1649	0	0
1650	0	0
1651	0	0
1652	0	0
1653	0	0
1654	0	0
1655	0	0
1656	0	0
1657	0	0
1658	0	0
1659	0	0
1660	0	0
1661	0	0
1662	0	0
1663	0	0
1664	0	0
1665	0	0
1666	0	0
1667	0	0
1668	0	0
1669	0	0
1670	0	0
1671	0	0
1672	0	0
1673	0	0
1674	0	0
1675	0	0
1676	0	0
1677	0	0
1678	0	0
1679	0	0
1680	0	0
1681	0	0
1682	0	0
1683	0	0
1684	0	0
1685	0	0
1686	0	0
1687	0	0
1688	0	0
1689	0	0
1690	0	0
1691	0	0
1692	0	0
1693	0	0
1694	0	0
1695	0	0
1696	0	0
1697	0	0
1698	0	0
1699	0	0
1700	0	0
1701	0	0
1702	0	0
1703	0	0
1704	0	0
1705	0	0
1706	0	0
1707	0	0
1708	0	0
1709	0	0
1710	0	0
1711	0	0
1712	0	0
1713	0	0
1714	0	0
1715	0	0
1716	0	0
1717	0	0
1718	0	0
1719	0	0
1720	0	0
1721	0	0
1722	0	0
1723	0	0
1724	0	0
1725	0	0
1726	0	0
1727	0	0
1728	0	0
1729	0	0
1730	0	0
1731	0	0
1732	0	0
1733	0	0
1734	0	0
1735	0	0
1736	0	0
1737	0	0
1738	0	0
1739	0	0
1740	0	0
1741	0	0
1742	0	0
1743	0	0.449922
1744	0	0.0711462
1745	0	0.0514706
1746	0	0.133333
1747	0	0.152381
1748	0	0.133333
1749	0	0.183333
1750	0	0.183333
1751	0	0.183333
1752	0	0.213235
1753	0	0.443065
1754	0	0.0151515
1755	0	0
1756	0	0.0357143
1757	0	0.0357143
1758	0	0.0666667
1759	0	0.0666667
1760	0	0.1
1761	0	0
1762	0	0
1763	0	0
1764	0	0
1765	0	0
1766	0	0
1767	0	0
1768	0	0
1769	0	0
1770	0	0
1771	0	0.1
1772	0	0
1773	0	0
1774	0	0
1775	0	0
1776	0	0
1777	0	0
1778	0	0
1779	0	0.42981
1780	0	0.428227
1781	0	1
1782	0	1
1783	0	1
1784	0	1
1785	0	1
1786	0	1
1787	0	1
1788	0	1
1789	0	1
1790	0	1
1791	0	1
1792	0	1
1793	0	1
1794	0	1
1795	0	1
1796	0	1
1797	0	1
1798	0	1
1799	0	1
1800	0	1
1801	0	1
1802	0	1
1803	0	1
1804	0	1
1805	0	1
1806	0	1
1807	0	1
1808	0	1
1809	0	1
1810	0	1
1811	0	1
1812	0	1
1813	0	1
1814	0	1
1815	0	1
1816	0	1
1817	0	1
1818	0	1
1819	0	1
1820	0	1
1821	0	1
1822	0	1
1823	0	1
1824	0	1
1825	0	1
1826	0	1
1827	0	0.5
1828	0	0.5
1829	0	0.5
1830	0	0.5
1831	0	0.5
1832	0	0.5
1833	0	0.5
1834	0	0.5
1835	0	0.5
1836	0	0.5
1837	0	0.5
1838	0	0.5
1839	0	0.5
1840	0	0.5
1841	0	0.5
1842	0	0.5
1843	0	0.5
1844	0	0.5
1845	0	0.5
1846	0	0.5
1847	0	0.5
1848	0	0.5
1849	0	0.5
1850	0	0.5
1851	0	0.5
1852	0	0.5
1853	0	0.5
1854	0	0.5
1855	0	0.5
1856	0	0.5
1857	0	0.5
1858	0	0.5
1859	0	0.5
1860	0	0.5
1861	0	0.5
1862	0	0.5
1863	0	0.5
1864	0	0.5
1865	0	0.5
1866	0	0.5
1867	0	0.5
1868	0	0.5
1869	0	0.285714
1870	0	0.5
1871	0	0.5
1872	0	0.5
1873	0	0.5
1874	0	0.5
1875	0	0.5
1876	0	0.5
1877	0	0.5
1878	0	0.5
1879	0	0.5
1880	0	0.5
1881	0	0.5
1882	0	0.5
1883	0	0.5
1884	0	0.5
1885	0	0.3
1886	0	0.3
1887	0	0.3
1888	0	0.3
1889	0	0.3
1890	0	0.3
1891	0	0.2
1892	0	0.2
1893	0	0.2
1894	0	0.190476
1895	0	0.190476
1896	0	0.190476
1897	0	0.214286
1898	0	0.583333
1899	0	0.583333
1900	0	0.492392
1901	0	0.030303
1902	0	0.030303
1903	0	0.0444444
1904	0	0.0444444
1905	0	0.0222222
1906	0	0.0277778
1907	0	0.0277778
1908	0	0.0277778
1909	0	0.0277778
1910	0	0
1911	0	0
1912	0	0
1913	0	0
1914	0	0
1915	0	0
1916	0	0
1917	0	0
1918	0	0
1919	0	0
1920	0	0
1921	0	0
1922	0	0
1923	0	0
1924	0	0
1925	0	0.0357143
1926	0	0.0357143
1927	0	0.0357143
1928	0	0.0357143
1929	0	0.241667
1930	0	0.241667
1931	0	0.241667
1932	0	0.241667
1933	0	0.266667
1934	0	0.266667
1935	0	0.266667
1936	0	0.307692
1937	0	0
1938	0	0
1939	0	0
1940	0	0
1941	0	0.192308
1942	0	0.164835
1943	0	0.2
1944	0	0.2
1945	0	0.175
1946	0	0.142857
1947	0	0.142857
1948	0	0.125
1949	0	0.125
1950	0	0.125
1951	0	0.125
1952	0	0.125
1953	0	0.133333
1954	0	0.117647
1955	0	0.117647
1956	0	0.104575
1957	0	0.111111
1958	0	0.137255
1959	0	0.19883
1960	0	0.204762
1961	0	0.37619
1962	0	0.37619
1963	0	0.438095
1964	0	0.438095
1965	0	0.398268
1966	0	0.341991
1967	0	0.37619
1968	0	0.422925
1969	0	0.442029
1970	0	0.442029
1971	0	0.608696
1972	0	0.74026
1973	0	0.675889
1974	0	0.688406
1975	0	0.76087
1976	0	0.764493
1977	0	0.71
1978	0	0.963101
1979	0	0.963101
1980	0	0.959525
1981	0	0.961381
1982	0	0.9632
1983	0	0
1984	0	0
1985	0	0
1986	0	0
1987	0	0
1988	0	0
1989	0	0
1990	0	0
1991	0	0
1992	0	0
1993	0	0
1994	0	0
1995	0	0.97945
1996	0	0.973982
1997	0	0.975827
1998	0	0
1999	0	0
2000	0	0
2001	0	0
2002	0	0
2003	0	0
2004	0	0
2005	0	0
2006	0	0
2007	0	0
2008	0	0
2009	0	0
2010	0	0
2011	0	0
2012	0	0
2013	0	0
2014	0	0
2015	0	0
2016	0	0
2017	0	0
2018	0	0
2019	0	0
2020	0	0
2021	0	0
2022	0	0
2023	0	0
2024	0	0
2025	0	0
2026	0	0
2027	0	0
2028	0	0
2029	0	0
2030	0	0
2031	0	0
2032	0	0
2033	0	0
2034	0	0
2035	0	0
2036	0	0
2037	0	0
2038	0	0
2039	0	0
2040	0	0
2041	0	0
2042	0	0
2043	0	0
2044	0	0
2045	0	0
2046	0	0
2047	0	0
2048	0	0
2049	0	0
2050	0	0
2051	0	0
2052	0	0
2053	0	0
2054	0	0
2055	0	0
2056	0	0
2057	0	0
2058	0	0
2059	0	0
2060	0	0
2061	0	0
2062	0	0
2063	0	0
2064	0	0
2065	0	0
2066	0	0
2067	0	0
2068	0	0
2069	0	0
2070	0	0
2071	0	0
2072	0	0
2073	0	0
2074	0	0
2075	0	0
2076	0	0
2077	0	0
2078	0	0
2079	0	0
2080	0	0
2081	0	0
2082	0	0
2083	0	0
2084	0	0
2085	0	0
2086	0	0
2087	0	0
2088	0	0
2089	0	0
2090	0	0
2091	0	0
2092	0	0
2093	0	0
2094	0	0
2095	0	0
2096	0	0
2097	0	0
2098	0	0
2099	0	0
2100	0	0
2101	0	0
2102	0	0
2103	0	0
2104	0	0
2105	0	0
2106	0	0
2107	0	0
2108	0	0
2109	0	0
2110	0	0
2111	0	0
2112	0	0
2113	0	0
2114	0	0
2115	0	0
2116	0	0
2117	0	0
2118	0	0
2119	0	0
2120	0	0
2121	0	0
2122	0	0
2123	0	0
2124	0	0
2125	0	0
2126	0	0
2127	0	0
2128	0	0
2129	0	0
2130	0	0
2131	0	0
2132	0	0
2133	0	0
2134	0	0
2135	0	0
2136	0	0
2137	0	0
2138	0	0
2139	0	0
2140	0	0
2141	0	0
2142	0	0
2143	0	0
2144	0	0
2145	0	0
2146	0	0
2147	0	0
2148	0	0
2149	0	0
2150	0	0
2151	0	0
2152	0	0
2153	0	0
2154	0	0
2155	0	0
2156	0	0
2157	0	0
2158	0	0
2159	0	0
2160	0	0
2161	0	0
2162	0	0
2163	0	0
2164	0	0
2165	0	0
2166	0	0
2167	0	0
2168	0	0
2169	0	0
2170	0	0
2171	0	0
2172	0	0
2173	0	0
2174	0	0
2175	0	0
2176	0	0
2177	0	0
2178	0	0
2179	0	0
2180	0	0
2181	0	0
2182	0	0
2183	0	0
2184	0	0
2185	0	0
2186	0	0
2187	0	0
2188	0	0
2189	0	0
2190	0	0
2191	0	0
2192	0	0
2193	0	0
2194	0	0
2195	0	0
2196	0	0
2197	0	0
2198	0	0
2199	0	0
2200	0	0
2201	0	0
2202	0	0
2203	0	0
2204	0	0
2205	0	0
2206	0	0
2207	0	0
2208	0	0
2209	0	0
2210	0	0
2211	0	0
2212	0	0
2213	0	0
2214	0	0.8
2215	0	0
2216	0	0.654545
2217	0	0.591395
2218	0	0.861733
2219	0	0.496762
2220	0	0.412129
2221	0	0.407317
2222	0	0.423582
2223	0	0.717949
2224	0	0.717949
2225	0	0.717949
2226	0	0.717949
2227	0	0.717949
2228	0	0.717949
2229	0	0.488372
2230	0	0.904547
2231	0	0.519403
2232	0	0.790398
2233	0	0.985168
2234	0	0.985208
2235	0	0.985208
2236	0	1
2237	0	1
2238	0	1
2239	0	1
2240	0	1
2241	0	1
2242	0	1
2243	0	1
2244	0	1
2245	0	0.987073
2246	0	0.987073
2247	0	0.987073
2248	0	0.988915
2249	0	0.990758
2250	0	0.988925
2251	0	0.988925
2252	0	0.988925
2253	0	0.987001
2254	0	0.981475
2255	0	1
2256	0	1
2257	0	0.952603
2258	0	0.948814
2259	0	1
2260	0	0.714286
2261	0	0.535714
2262	0	0.355556
2263	0	0.222222
2264	0	0.900962
2265	0	0.304762
2266	0	0.304762
2267	0	0.19
2268	0	0.252308
2269	0	0.631708
2270	0	0.931034
2271	0	0.333333
2272	0	0.194444
2273	0	0.4
2274	0	0.4
2275	0	0.4
2276	0	0.392857
2277	0	0.392857
2278	0	0.465179
2279	0	0.616783
2280	0	0.584803
2281	0	0
2282	0	0
2283	0	0
2284	0	0.202186
2285	0	0.665424
2286	0	0.849231
2287	0	0.849231
2288	0	0.849231
2289	0	0.849231
2290	0	1
2291	0	1
2292	0	0.650794
2293	0	0.621622
2294	0	0.806964
2295	0	0.460961
2296	0	0.249206
2297	0	0.32266
2298	0	0.492063
2299	0	0.966693
2300	0	0.986946
2301	0	0.986946
2302	0	0.986946
2303	0	0.986946
2304	0	0.985101
2305	0	0.983277
2306	0	0.977796
2307	0	0.977755
2308	0	0.970982
2309	0	0.190476
2310	0	0.190476
2311	0	0.190476
2312	0	0.489391
2313	0	0.523977
2314	0	0.975954
2315	0	0.975954
2316	0	0.979744
2317	0	0.985221
2318	0	0.987051
2319	0	0.985221
2320	0	0.988884
2321	0	0.987049
2322	0	0.988884
2323	0	0.988884
2324	0	0.988884
2325	0	0.987049
2326	0	0.985235
2327	0	0.983412
2328	0	0
2329	0	0
2330	0	0
2331	0	0
2332	0	0
2333	0	0
2334	0	0
2335	0	0
2336	0	0
2337	0	0
2338	0	0
2339	0	0
2340	0	0
2341	0	0
2342	0	0
2343	0	0
2344	0	0
2345	0	0
2346	0	0
2347	0	0
2348	0	0
2349	0	0
2350	0	0
2351	0	0
2352	0	0
2353	0	0
2354	0	0
2355	0	0
2356	0	0
2357	0	0
2358	0	0
2359	0	0
2360	0	0
2361	0	0
2362	0	0
2363	0	0
2364	0	0
2365	0	0
2366	0	0
2367	0	0
2368	0	0
2369	0	0
2370	0	0.1
2371	0	0.967845
2372	0	0.925926
2373	0	0.859788
2374	0	0.711828
2375	0	0.905171
2376	0	0.906712
2377	0	0.809195
2378	0	0.789174
2379	0	0.723647
2380	0	0.74691
2381	0	0.5
2382	0	0.5
2383	0	0.333333
2384	0	0.333333
2385	0	0.333333
2386	0	0.333333
2387	0	0
2388	0	0
2389	0	0
2390	0	0
2391	0	0
2392	0	0
2393	0	0
2394	0	0
2395	0	0
2396	0	0
2397	0	0
2398	0	0
2399	0	0
2400	0	0
2401	0	0
2402	0	0
2403	0	0
2404	0	0
2405	0	0
2406	0	0
2407	0	0
2408	0	0
2409	1	0
2410	1	0
2411	1	0
2412	1	0
2413	1	0
2414	1	0
2415	1	0
2416	1	0
2417	1	0
2418	1	0
2419	1	0
2420	1	0
2421	1	0
2422	1	0
2423	1	0
2424	1	0
2425	0	0
2426	0	0
2427	0	0
2428	0	0
2429	0	0
2430	0	0
2431	0	0
2432	0	0
2433	0	0
2434	0	0
2435	1	0
2436	1	0
2437	1	0
2438	1	0
2439	1	0
2440	1	0
2441	1	0
2442	1	0
2443	1	0
2444	0	0
2445	0	0
2446	0	0.894196
2447	0	0.738776
2448	0	0.738776
2449	0	0.738776
2450	0	0.709804
2451	0	0.591252
2452	0	0.562594
2453	0	0.664865
2454	0	0.313725
2455	0	0.313725
2456	0	0.313725
2457	0	0.284127
2458	0	0.198606
2459	0	0.194906
2460	0	0.152085
2461	0	0.168645
2462	0	0.547356
2463	0	0.537705
2464	0	0.537705
2465	0	0.216661
2466	0	0.222141
2467	0	0.150452
2468	0	0.135071
2469	0	0.378253
2470	0	0.190476
2471	0	0.180023
2472	0	0.179487
2473	0	0.161545
2474	0	0.161545
2475	0	0.585876
2476	0	0.133333
2477	0	0.133333
2478	0	0.166667
2479	0	0.166667
2480	0	0
2481	0	0
2482	0	0
2483	0	0
2484	0	0
2485	0	0
2486	0	0
2487	0	0
2488	0	0
2489	0	0
2490	0	0
2491	0	0
2492	0	0
2493	0	0
2494	0	0
2495	0	0
2496	0	0
2497	0	0
2498	0	0
2499	0	0
2500	0	0
2501	0	0
2502	0	0
2503	0	0
2504	0	0
2505	0	0
2506	0	0.627325
2507	0	0.608935
2508	0	0.0879121
2509	0	0.0879121
2510	0	0.0761905
2511	0	0.0666667
2512	0	0.0942029
2513	0	0.39447
2514	0	0.047619
2515	0	0.047619
2516	0	0.212045
2517	0	0.165982
2518	0	0.231845
2519	0	0.219907
2520	0	0.190638
2521	0	0.112376
2522	0	0.0315789
2523	0	0.0196078
2524	0	0.0130719
2525	0	0.25064
2526	0	0.186182
2527	0	0.255495
2528	0	0.273514
2529	0	0.259944
2530	0	0.29704
2531	0	0.32241
2532	0	0.37315
2533	0	0.37315
2534	0	0.0815599
2535	0	0.108763
2536	0	0.118493
2537	0	0.169231
2538	0	0.148551
2539	0	0.126667
2540	0	0.150769
2541	0	0.137931
2542	0	0.131183
2543	0	0.0762428
2544	0	0.119728
2545	0	0.131186
2546	0	0.166667
2547	0	0.166667
2548	0	0.333333
2549	0	0.333333
2550	0	0.166667
2551	0	0.166667
2552	0	0.1
2553	0	0.0666667
2554	0	0
2555	0	0
2556	0	0
2557	0	0.0952381
2558	0	0.2
2559	0	0.136364
2560	0	0.112554
2561	0	0.218182
2562	0	0.304839
2563	0	0.420474
2564	0	0.371155
2565	0	0.407105
2566	0	0.307783
2567	0	0.317316
2568	0	0.337266
2569	0	0.338133
2570	0	0.330348
2571	0	0.0707692
2572	0	0.0634921
2573	0	0.0551724
2574	0	0.493324
2575	0	0.109091
2576	0	0.0666667
2577	0	0.0666667
2578	0	0.0666667
2579	0	0.0666667
2580	0	0.0666667
2581	0	0.32163
2582	0	0.316592
2583	0	0.315214
2584	0	0
2585	0	0
2586	0	0
2587	0	0
2588	0	0
2589	0	0
2590	0	0
2591	0	0
2592	0	0
2593	0	0
2594	0	0
2595	0	0
2596	0	0.1
2597	0	0.1
2598	0	0.1
2599	0	0.0666667
2600	0	0.0666667
2601	0	0.0666667
2602	0	0.0666667
2603	0	0.0888889
2604	0	0.399399
2605	0	0.388959
2606	0	0.225225
2607	0	0.228796
2608	0	0
2609	0	0
2610	0	0
2611	0	0
2612	0	0
2613	0	0
2614	0	0
2615	0	0
2616	0	0
2617	0	0
2618	0	0.166667
2619	0	0.166667
2620	0	0
2621	0	0.047619
2622	0	0.047619
2623	0	0.0444444
2624	0	0.0363636
2625	0	0.030303
2626	0	0.030303
2627	0	0.021978
2628	0	0.330707
2629	0	0.261001
2630	0	0.254902
2631	0	0.254902
2632	0	0.0666667
2633	0	0.0545455
2634	0	0.0222222
2635	0	0.0181818
2636	0	0.181609
2637	0	0.149206
2638	0	0.133973
2639	0	0.0775956
2640	0	0.072543
2641	0	0.0542642
2642	0	0.0490114
2643	0	0.0361911
2644	0	0.0343061
2645	0	0.0323397
2646	0	0.03197
2647	0	0.0333696
2648	0	0.0363547
2649	0	0.0383351
2650	0	0.0428371
2651	0	0.0329989
2652	0	0.0335308
2653	0	0.0320078
2654	0	0.0733766
2655	0	0.122727
2656	0	0.0431044
2657	0	0.0459624
2658	0	0
2659	0	0
2660	0	0
2661	0	0
2662	0	0.0658762
2663	0	0.161536
2664	0	0.196696
2665	0	0.224099
2666	0	0.176386
2667	0	0.133825
2668	0	0.182567
2669	0	0.163121
2670	0	0.25421
2671	0	0.295455
2672	0	0.202795
2673	0	0.370283
2674	0	0.0357143
2675	0	0
2676	0	0
2677	0	0
2678	0	0
2679	0	0
2680	0	0
2681	0	0
2682	0	0
2683	0	0
2684	0	0
2685	0	0.0357143
2686	0	0.207752
2687	0	0.0888889
2688	0	0.111111
2689	0	0.111111
2690	0	0.194444
2691	0	0.194444
2692	0	0.4
2693	0	0.5
2694	0	1
2695	0	0.211896
2696	0	0.142786
2697	0	0.130966
2698	0	0
2699	0	0
2700	0	0.354728
2701	0	0.0357143
2702	0	0.558201
2703	0	0.047619
2704	0	0.0666667
2705	0	0.047619
2706	0	0.0666667
2707	0	0.0666667
2708	0	0.389756
2709	0	0.214156
2710	0	0.492719
2711	0	0.0562771
2712	0	0.0615942
2713	0	0.0513834
2714	0	0.0909091
2715	0	0.0738462
2716	0	0.0852273
2717	0	0.548594
2718	0	0.125253
2719	0	0.12
2720	0	0.205638
2721	0	0.18231
2722	0	0.187293
2723	0	0.249632
2724	0	0.281875
2725	0	0.311391
2726	0	0.397765
2727	0	0.565841
2728	0	0.762741
2729	0	0.161905
2730	0	0.186813
2731	0	0.166667
2732	0	0.380952
2733	0	0.503017
2734	0	0.619883
2735	0	0.895302
2736	0	0.895599
2737	0	0.1
2738	0	0
2739	0	0
2740	0	0
2741	0	0.357143
2742	0	0.47619
2743	0	0.47619
2744	0	0.666667
2745	0	0.666667
2746	0	0.949492
2747	0	0.950342
2748	0	0.952112
2749	0	1
2750	0	0.998188
2751	0	0.998187
2752	0	0.998187
2753	0	0.998188
2754	0	0.998188
2755	0	0.998188
2756	0	0.998188
2757	0	0.623302
2758	0	0.623302
2759	0	0.976686
2760	0	1
2761	0	1
2762	0	1
2763	0	0.998188
2764	0	0.998188
2765	0	0.998188
2766	0	0.998188
2767	0	0.998188
2768	0	0
2769	0	0
2770	0	0
2771	0	0
2772	0	0.998188
2773	0	0.998188
2774	0	0.998188
2775	0	0.998188
2776	0	0.998188
2777	0	0.998188
2778	0	0.998188
2779	0	0.998188
2780	0	0.998188
2781	0	0.998188
2782	0	0.996378
2783	0	0.996378
2784	0	0.996382
2785	0	0.996382
2786	0	0.996382
2787	0	0.99458
2788	0	0.99458
2789	0	1
2790	0	0.982004
2791	0	0.982004
2792	0	0.982004
2793	0	0.982004
2794	0	0.982004
2795	0	0.982004
2796	0	0.980209
2797	0	0.980209
2798	0	0.981988
2799	0	0.981988
2800	0	0.981988
2801	0	0.987324
2802	0	0
2803	0	0
2804	0	0.998174
2805	0	0.998174
2806	0	0.998174
2807	0	0.998174
2808	0	0.998179
2809	0	1
2810	0	1
2811	0	0.998188
2812	0	0.998188
2813	0	0.998188
2814	0	0.998188
2815	0	0.998188
2816	0	1
2817	0	1
2818	0	0.47619
2819	0	0.473684
2820	0	0.485294
2821	0	0.469697
2822	0	0.469697
2823	0	0.469697
2824	0	0.949852
2825	0	0.943004
2826	0	0.607486
2827	0	0.96415
2828	0	0.214286
2829	0	0.166667
2830	0	0.956782
2831	0	0.956786
2832	0	0.887395
2833	0	0.877016
2834	0	0.87009
2835	0	0.802714
2836	0	0.5
2837	0	0.5
2838	0	0.5
2839	0	0.5
2840	0	0
2841	0	0
2842	0	0.5
2843	0	0.6
2844	0	0.541975
2845	0	0.705852
2846	0	0.249231
2847	0	0.32
2848	0	0.691094
2849	0	0.590769
2850	0	1
2851	0	1
2852	0	1
2853	0	0.703066
2854	0	1
2855	0	0.756698
2856	0	0.750587
2857	0	0.786666
2858	0	0.789904
2859	0	0.713417
2860	0	0.713347
2861	0	0.679453
2862	0	0.725275
2863	0	0.705128
2864	0	0.509524
2865	0	0.784314
2866	0	0.804406
2867	0	0.965523
2868	0	0.985591
2869	0	1
2870	0	1
2871	0	0.996382
2872	0	0.996382
2873	0	0.996378
2874	0	0.996375
2875	0	0.996375
2876	0	0.998185
2877	0	0.998185
2878	0	0.998185
2879	0	0.998185
2880	0	0.998185
2881	0	1
2882	0	1
2883	0	0.992747
2884	0	0.992747
2885	0	0.990944
2886	0	0.990944
2887	0	0.990944
2888	0	0.990944
2889	0	0.990944
2890	0	0.990944
2891	0	0.990944
2892	0	0.990936
2893	0	0
2894	0	0
2895	0	0
2896	0	0
2897	0	0
2898	0	0
2899	0	0
2900	0	0
2901	0	0
2902	0	0
2903	0	0
2904	0	0
2905	0	0
2906	0	0.333333
2907	0	0.333333
2908	0	0.333333
2909	0	0.333333
2910	0	0.333333
2911	0	0.166667
2912	0	0.98361
2913	0	0.983594
2914	0	0
2915	0	0
2916	0	0
2917	0	0
2918	0	0.913043
2919	0	0.913043
2920	0	0.938389
2921	0	0.782413
2922	0	0.7566
2923	0	0
2924	0	0
2925	0	0
2926	0	0
2927	0	0
2928	0	0.913043
2929	0	0.913043
2930	0	0.913043
2931	0	0.913043
2932	0	0.823848
2933	0	0.553211
2934	0	0.446377
2935	0	0.387879
2936	0	0.360349
2937	0	0.5
2938	0	0.5
2939	0	0.5
2940	0	0.269892
2941	0	0.180284
2942	0	0.270531
2943	0	0.72
2944	0	0.133333
2945	0	0.166667
2946	0	0
2947	0	0.333333
2948	0	0.163743
2949	0	0.24053
2950	0	0.216294
2951	0	0.1
2952	0	0.1
2953	0	0.1
2954	0	0.1
2955	0	0.047619
2956	0	0.047619
2957	0	0.047619
2958	0	0.0357143
2959	0	0.0833333
2960	0	0.0222222
2961	0	0
2962	0	0.05
2963	0	0.0562771
2964	0	0.199815
2965	0	0.104169
2966	0	0.0929619
2967	0	0.187293
2968	0	0.175433
2969	0	0.14432
2970	0	0.085885
2971	0	0.0920921
2972	0	0.148275
2973	0	0.0727037
2974	0	0.0668757
2975	0	0.0688024
2976	0	0.0461149
2977	0	0.0498084
2978	0	0.0565528
2979	0	0.0557449
2980	0	0.0819769
2981	0	0.0935304
2982	0	0.100906
2983	0	0.108859
2984	0	0.200843
2985	0	0.210906
2986	0	0.176863
2987	0	0.292097
2988	0	0.488305
2989	0	0.516448
2990	0	0.263698
2991	0	0.30787
2992	0	0.357666
2993	0	0.379424
2994	0	0.377167
2995	0	0.0498246
2996	0	0.0496894
2997	0	0.0551913
2998	0	0.0487589
2999	0	0.0463768
3000	0	0.0486258
3001	0	0.0549683
3002	0	0.055371
3003	0	0.0498339
3004	0	0.0487265
3005	0	0.309878
3006	0	0.309601
3007	0	0.312931
3008	0	0.311839
3009	0	0.3118
3010	0	0.308079
3011	0	0.307815
3012	0	0.333333
3013	0	0.333333
3014	0	0.192577
3015	0	0.185854
3016	0	0.179746
3017	0	0.147612
3018	0	0.139719
3019	0	0.341729
3020	0	0.302987
3021	0	0.0222222
3022	0	0.0222222
3023	0	0.0277778
3024	0	0.0357143
3025	0	0.0357143
3026	0	0.0357143
3027	0	0.0357143
3028	0	0.0277778
3029	0	0.341991
3030	0	0.0277778
3031	0	0.384714
3032	0	0.337737
3033	0	0.272177
3034	0	0.302956
3035	0	0.302956
3036	0	0.231729
3037	0	0.192308
3038	0	0
3039	0	0
3040	0	0
3041	0	0
3042	0	0
3043	0	0
3044	0	0
3045	0	0
3046	0	0
3047	0	0
3048	0	0
3049	0	0
3050	0	0
3051	0	0
3052	0	0.170213
3053	0	0.108756
3054	0	0.104059
3055	0	0.169118
3056	0	0.125
3057	0	0.0588235
3058	0	0.0588235
3059	0	0.0588235
3060	0	0.0514706
3061	0	0.113392
3062	0	0.123092
3063	0	0.114655
3064	0	0.119169
3065	0	0.0258065
3066	0	0.0215054
3067	0	0.0206897
3068	0	0.0107527
3069	0	0.00860215
3070	0	0.0129032
3071	0	0.0172043
3072	0	0.0151515
3073	0	0.0160428
3074	0	0.0168067
3075	0	0.0277778
3076	0	0.0277778
3077	0	0.0277778
3078	0	0.0181818
3079	0	0.0363636
3080	0	0.0384615
3081	0	0.032967
3082	0	0.0378531
3083	0	0.0593302
3084	0	0.0537046
3085	0	0.048029
3086	0	0.0442815
3087	0	0.0432747
3088	0	0.0417859
3089	0	0.0620913
3090	0	0.0584077
3091	0	0.0587653
3092	0	0.5
3093	0	0.5
3094	0	0.5
3095	0	0.5
3096	0	0.5
3097	0	0.5
3098	0	0.5
3099	0	0.5
3100	0	0.5
3101	0	0.5
3102	0	0.5
3103	0	0.5
3104	0	0.5
3105	0	0.5
3106	0	0.5
3107	0	0.5
3108	0	0.5
3109	0	0.5
3110	0	0.5
3111	0	0.714286
3112	0	0.0836652
3113	0	0.0727578
3114	0	0.0739749
3115	0	0.11752
3116	0	0.139766
3117	0	0.0953498
3118	0	0.125045
3119	0	0.165574
3120	0	0.31954
3121	0	0.0714286
3122	0	0.0952381
3123	0	0.142857
3124	0	0.111111
3125	0	0.0444444
3126	0	0.0277778
3127	0	0.0666667
3128	0	0
3129	0	0
3130	0	0
3131	0	0
3132	0	0
3133	0	0
3134	0	0
3135	0	0
3136	0	0
3137	0	0.1
3138	0	0.0666667
3139	0	0.133333
3140	0	0
3141	0	0
3142	0	0.1
3143	0	0.1
3144	0	0.1
3145	0	0.1
3146	0	0.1
3147	0	0.166667
3148	0	0.119658
3149	0	0.0968661
3150	0	0.0942029
3151	0	0.0869565
3152	0	0.0615942
3153	0	0.0553846
3154	0	0.0507246
3155	0	0.0978261
3156	0	0.0584615
3157	0	0.0646154
3158	0	0.0555556
3159	0	0.0482759
3160	0	0.0720093
3161	0	0.168612
3162	0	0.16
3163	0	0.177727
3164	0	0.287762
3165	0	0.105169
3166	0	0.116359
3167	0	0.112873
3168	0	0.123057
3169	0	0.127583
3170	0	0.166667
3171	0	0
3172	0	0
3173	0	0
3174	0	0
3175	0	0
3176	0	0
3177	0	0
3178	0	0
3179	0	0
3180	0	0
3181	0	0
3182	0	0
3183	0	0
3184	0	0
3185	0	0.0346959
3186	0	0.0808081
3187	0	0.079798
3188	0	0.0818182
3189	0	0.0848485
3190	0	0.0207113
3191	0	0.0209205
3192	0	0.0228543
3193	0	0.0261389
3194	0	0.0294804
3195	0	0.333333
3196	0	0.333333
3197	0	0
3198	0	0.0324675
3199	0	0.0358852
3200	0	0.0340351
3201	0	0.0666667
3202	0	0.0222222
3203	0	0.0286738
3204	0	0.215385
3205	0	0.215385
3206	0	0.215385
3207	0	0.218462
3208	0	0.247863
3209	0	0.026376
3210	0	0.0265902
3211	0	0.0274375
3212	0	0.0297797
3213	0	1
3214	0	1
3215	0	1
3216	0	1
3217	0	1
3218	0	1
3219	0	1
3220	0	0.0416667
3221	0	0.0445161
3222	0	0.0447742
3223	0	0.0405193
3224	0	0.039871
3225	0	0.0355363
3226	0	0.0392258
3227	0	0.0282372
3228	0	0.111111
3229	0	0.111111
3230	0	0.111111
3231	0	0.111111
3232	0	0.111111
3233	0	0.0258456
3234	0	0.0232332
3235	0	0.0968254
3236	0	0.0730159
3237	0	0.068254
3238	0	0.0714286
3239	0	0.0462803
3240	0	0.223512
3241	0	0.133333
3242	0	0.142857
3243	0	0.133333
3244	0	0.133333
3245	0	0.133333
3246	0	0.133333
3247	0	0.133333
3248	0	0.133333
3249	0	0.133333
3250	0	0.196172
3251	0	0.0538733
3252	0	0.0763285
3253	0	0.075641
3254	0	0.604396
3255	0	0.604396
3256	0	0.604396
3257	0	0.604396
3258	0	0.604396
3259	0	0.604396
3260	0	0.52381
3261	0	0.0318489
3262	0	0.0643442
3263	0	0.031975
3264	0	0.0357143
3265	0	0.0357143
3266	0	0.0357143
3267	0	0.0357143
3268	0	0.0358329
3269	0	0.0294118
3270	0	0.0294118
3271	0	0.0294118
3272	0	0.112103
3273	0	0.0537815
3274	0	0.0587302
3275	0	0.0369458
3276	0	0.01
3277	0	0.0362903
3278	0	0.0380952
3279	0	0.0380952
3280	0	0.0383065
3281	0	0.0555556
3282	0	0.123016
3283	0	0.127496
3284	0	0.0365449
3285	0	0.0369979
3286	0	0.0689271
3287	0	0.0717354
3288	0	0.0640047
3289	0	0.0748547
3290	0	0.0789533
3291	0	0.0222222
3292	0	0.0277778
3293	0	0
3294	0	0
3295	0	0
3296	0	0.0277778
3297	0	0
3298	0	0.0277778
3299	0	0.0277778
3300	0	0.0277778
3301	0	0.0277778
3302	0	0.0277778
3303	0	0.0530334
3304	0	0.0656139
3305	0	0.142857
3306	0	0.2
3307	0	0.2
3308	0	0.2
3309	0	0.4
3310	0	0.4
3311	0	0.4
3312	0	0.4
3313	0	0.0656745
3314	0	0.0222222
3315	0	0.0222222
3316	0	0.0222222
3317	0	0.0222222
3318	0	0.0944589
3319	0	0.187698
3320	0	0.251586
3321	0	0.30641
3322	0	0.268421
3323	0	0.397175
3324	0	0.383051
3325	0	0.664773
3326	0	0
3327	0	0.0444444
3328	0	0.0727273
3329	0	0.136232
3330	0	0.10628
3331	0	0.133333
3332	0	0.133333
3333	0	0.109091
3334	0	0.133333
3335	0	0.133333
3336	0	0.181818
3337	0	0.0832653
3338	0	0.134992
3339	0	0.123922
3340	0	0.127193
3341	0	0.185859
3342	0	0.0666667
3343	0	0.622037
3344	0	0.645147
3345	0	0.690423
3346	0	0.0621849
3347	0	0.0823529
3348	0	0.0793651
3349	0	0.145833
3350	0	0.228474
3351	0	0.301375
3352	0	0.0486498
3353	0	0.0695322
3354	0	0.0908521
3355	0	0.0902256
3356	0	0.103383
3357	0	0.26517
3358	0	0.201531
3359	0	0.214286
3360	0	0.284472
3361	0	0.310018
3362	0	0.31795
3363	0	0.333333
3364	0	0.333333
3365	0	0.333333
3366	0	0.134293
3367	0	0.437908
3368	0	0.135457
3369	0	0.156865
3370	0	0.180899
3371	0	0.565309
3372	0	0.608376
3373	0	0.234234
3374	0	0.249206
3375	0	0.28164
3376	0	0.28164
3377	0	0.283422
3378	0	0.283422
3379	0	0.299242
3380	0	0.299242
3381	0	0.620017
3382	0	0.509091
3383	0	0.474359
3384	0	0.638095
3385	0	0.676471
3386	0	0.69281
3387	0	1
3388	0	0.333333
3389	0	0.333333
3390	0	0.3
3391	0	0.3
3392	0	0.45408
3393	0	0.967484
3394	0	0.961957
3395	0	0.963351
3396	0	0.963518
3397	0	0.98008
3398	0	0.98008
3399	0	0.98008
3400	0	0.978298
3401	0	0.978298
3402	0	0.3
3403	0	0.981894
3404	0	0.981894
3405	0	0.980111
3406	0	0
3407	0	0
3408	0	0
3409	0	0
3410	0	0
3411	0	0
3412	0	0
3413	0	0
3414	0	0
3415	0	0
3416	0	0
3417	0	0.6
3418	0	0.974639
3419	0	0.971124
3420	0	0
3421	0	0
3422	0	0.4
3423	0	0.4
3424	0	0.285714
3425	0	0.194444
3426	0	0.974639
3427	0	0.214286
3428	0	0.985516
3429	0	0
3430	0	0
3431	0	0
3432	0	0
3433	0	0
3434	0	0
3435	0	0
3436	0	0
3437	0	0
3438	0	0
3439	0	0
3440	0	0
3441	0	0
3442	0	0
3443	0	0.992732
3444	0	0.992732
3445	0	0.992732
3446	0	0
3447	0	0
3448	0	0.994547
3449	0	0
3450	0	0
3451	0	0
3452	0	0
3453	0	0
3454	0	0
3455	0	0.992726
3456	0	0.992719
3457	0	0.992719
3458	0	0.992719
3459	0	0.992719
3460	0	0.992719
3461	0	0.992719
3462	0	0.95122
3463	0	0.95122
3464	0	0.947368
3465	0	0.9375
3466	0	0.487685
3467	0	0.487685
3468	0	0.913295
3469	0	0.911487
3470	0	0.392857
3471	0	0.717211
3472	0	0.728476
3473	0	0
3474	0	0
3475	0	0
3476	0	0
3477	0	0
3478	0	0
3479	0	0
3480	0	0.836957
3481	0	0.674603
3482	0	0.696552
3483	0	0.651613
3484	0	0.631016
3485	0	0.458537
3486	0	0.458537
3487	0	0.37783
3488	0	0.31789
3489	0	0.299407
3490	0	0.289237
3491	0	0.494397
3492	0	0.628872
3493	0	0.831713
3494	0	0.813003
3495	0	0.899293
3496	0	0.899293
3497	0	0.85027
3498	0	0.850316
3499	0	0.964176
3500	0	0.964176
3501	0	0.888889
3502	0	0.888889
3503	0	0.99275
3504	0	0.99275
3505	0	0.99275
3506	1	0
3507	1	0
3508	1	0
3509	1	0
3510	1	0
3511	1	0
3512	1	0
3513	1	0
3514	1	0
3515	1	0
3516	1	0
3517	1	0
3518	1	0
3519	1	0
3520	1	0
3521	1	0
3522	1	0
3523	1	0
3524	1	0
3525	1	0
3526	1	0
3527	1	0
3528	1	0
3529	1	0
3530	1	0
3531	1	0
3532	1	0
3533	1	0
3534	1	0
3535	0	0.994555
3536	0	0.994555
3537	0	0.994555
3538	0	0.994555
3539	0	0.994555
3540	0	1
3541	0	1
3542	0	1
3543	0	1
3544	0	0.989131
3545	0	0.989131
3546	0	0.989131
3547	0	0.989131
3548	0	0.987335
3549	0	0.98914
3550	0	0.98914
3551	0	0
3552	0	0.989131
3553	0	0.989131
3554	0	0.989131
3555	0	0.989121
3556	0	0.989121
3557	0	0.989121
3558	0	0.989121
3559	0	0.989121
3560	0	0.3
3561	0	0.978321
3562	0	0.499151
3563	0	1
3564	0	0.52381
3565	0	0.52381
3566	0	0.392857
3567	0	0.356098
3568	0	0.242165
3569	0	0.187166
3570	0	0.434593
3571	0	0.430978
3572	0	0.412034
3573	0	0.398518
3574	0	0.471938
3575	0	0.431995
3576	0	0.180681
3577	0	0.356388
3578	0	0.657796
3579	0	0.35034
3580	0	0.378353
3581	0	0.497436
3582	0	0.497436
3583	0	0.756989
3584	0	0.166667
3585	0	0.166667
3586	0	0.166667
3587	0	0.166667
3588	0	0.166667
3589	0	0
3590	0	0
3591	0	0
3592	0	0.971096
3593	0	0.142857
3594	0	0.25
3595	0	0.25
3596	0	0.333333
3597	0	0.333333
3598	0	0.333333
3599	0	0.333333
3600	0	0.6
3601	0	1
3602	0	1
3603	0	1
3604	0	1
3605	0	1
3606	0	0.989135
3607	0	0.989135
3608	0	0.989135
3609	0	0.989135
3610	0	0.989135
3611	0	0.990934
3612	0	0.992737
3613	0	0.992731
3614	0	0.992737
3615	0	0.992737
3616	0	0.992737
3617	1	1
3618	0	0.925926
3619	0	0.912694
3620	0	0.953488
3621	0	0.987309
3622	0	0.987309
3623	0	0.987309
3624	0	0.989117
3625	0	0.989117
3626	0	0.987321
3627	0	0.987321
3628	0	0.990917
3629	0	0
3630	0	0
3631	0	0.994541
3632	0	0.994541
3633	0	0.99455
3634	0	0.99455
3635	0	0.998179
3636	0	0.998179
3637	0	0.996362
3638	0	0.996362
3639	0	0.996362
3640	0	0.996362
3641	0	0.996365
3642	0	0.996362
3643	0	0.996362
3644	0	0.990927
3645	0	0.990927
3646	0	1
3647	0	0.927695
3648	0	0.672659
3649	0	0.681249
3650	0	0.724258
3651	0	0.710185
3652	0	0.697828
3653	0	0.992719
3654	0	0.992726
3655	0	0.994536
3656	0	0
3657	0	0
3658	0	0
3659	0	0
3660	0	0
3661	0	0
3662	0	0
3663	0	0
3664	0	0.994541
3665	0	0.994541
3666	0	0.994541
3667	0	0.996359
3668	0	0.996359
3669	0	0.992726
3670	0	0.992726
3671	0	1
3672	0	0.992737
3673	0	1
3674	0	1
3675	0	0.987306
3676	0	0.985506
3677	0	0.985506
3678	0	0.985506
3679	0	0.985493
3680	0	0.969597
3681	0	0.691896
3682	0	0.63088
3683	0	0.740854
3684	0	0.740854
3685	0	0.642549
3686	0	0.765385
3687	0	0.765385
3688	0	0.719697
3689	0	0.719697
3690	0	0.764113
3691	0	0.764113
3692	0	0.717803
3693	0	0.5
3694	0	0.59373
3695	0	1
3696	0	1
3697	0	1
3698	0	1
3699	0	1
3700	0	1
3701	0	1
3702	0	1
3703	0	1
3704	0	1
3705	0	1
3706	0	1
3707	0	1
3708	0	1
3709	0	1
3710	0	1
3711	0	1
3712	0	1
3713	0	1
3714	0	1
3715	0	1
3716	0	1
3717	0	1
3718	0	1
3719	0	0.333333
3720	0	0.333333
3721	0	0.166667
3722	0	0.166667
3723	0	0.166667
3724	0	0.166667
3725	0	0.2
3726	0	0.503775
3727	0	0.482895
3728	0	0.385321
3729	0	0.268898
3730	0	0.449592
3731	0	0.22
3732	0	0.22
3733	0	0.209524
3734	0	0.209524
3735	0	0.189474
3736	0	0.169591
3737	0	0.163743
3738	0	0.163399
3739	0	0.163399
3740	0	0.163399
3741	0	0.420586
3742	0	0.0811594
3743	0	0.0777929
3744	0	0.076436
3745	0	0.0737489
3746	0	0.400614
3747	0	0.0613108
3748	0	0.0585859
3749	0	0.0518039
3750	0	0.0467687
3751	0	0.0368627
3752	0	0.0357143
3753	0	0.0266183
3754	0	0.549246
3755	0	0.318681
3756	0	0.181489
3757	0	0.181891
3758	0	0.110345
3759	0	0.439394
3760	0	0.4
3761	0	0.4
3762	0	0.4
3763	0	0.4
3764	0	0.355556
3765	0	0.355556
3766	0	0.355556
3767	0	0.177778
3768	0	0.177778
3769	0	0.177778
3770	0	0.177778
3771	0	0.0909091
3772	0	0.0909091
3773	0	0.0909091
3774	0	0.0909091
3775	0	0.0454545
3776	0	0.0454545
3777	0	0.032967
3778	0	0.0534759
3779	0	0.0643939
3780	0	0.0641711
3781	0	0.0555556
3782	0	0.510989
3783	0	0.0577749
3784	0	0.0580686
3785	0	0.0580686
3786	0	0.0575139
3787	0	0.0498384
3788	0	0.345713
3789	0	0.0549451
3790	0	0.0549451
3791	0	0.0549451
3792	0	0.333333
3793	0	0.333333
3794	0	0.333333
3795	0	0.333333
3796	0	0.27285
3797	0	0.186212
3798	0	0.0836445
3799	0	0.275523
3800	0	0.0363475
3801	0	0.0391121
3802	0	0.0233333
3803	0	0.030303
3804	0	0.0294118
3805	0	0.025
3806	0	0.025
3807	0	0.030303
3808	0	0.0363636
3809	0	0.0555556
3810	0	0.0555556
3811	0	0.0357143
3812	0	0.0357143
3813	0	0
3814	0	0
3815	0	0
3816	0	0
3817	0	0.2
3818	0	0.2
3819	0	0.047619
3820	0	0.047619
3821	0	0.142857
3822	0	0.142857
3823	0	0.142857
3824	0	0.0888889
3825	0	0.0888889
3826	0	0.0888889
3827	0	0.0888889
3828	0	0.0888889
3829	0	0.0727273
3830	0	0.0888889
3831	0	0.0888889
3832	0	0.0888889
3833	0	0.0888889
3834	0	0.575318
3835	0	0.116703
3836	0	0.0295567
3837	0	0.0320197
3838	0	0.0320197
3839	0	0.0295567
3840	0	0.031746
3841	0	0.0362903
3842	0	0.0302967
3843	0	0.0281927
3844	0	0.0272109
3845	0	0.0671945
3846	0	0.197097
3847	0	0.260016
3848	0	0.0357686
3849	0	0.0390694
3850	0	0.0461538
3851	0	0.0495192
3852	0	0.0287129
3853	0	0.0317172
3854	0	0.296336
3855	0	0.31214
3856	0	0.318122
3857	0	0.305095
3858	0	0.301302
3859	0	0.0513834
3860	0	0.0278627
3861	0	0.0275184
3862	0	0.02574
3863	0	0.0257166
3864	0	0.107673
3865	0	0.310603
3866	0	0.190476
3867	0	0.190476
3868	0	0.190476
3869	0	0.142857
3870	0	0.142857
3871	0	0.190476
3872	0	0.277027
3873	0	0
3874	0	0
3875	0	0
3876	0	0
3877	0	0.0422323
3878	0	0.0384615
3879	0	0.0377358
3880	0	0.0339367
3881	0	0.0331825
3882	0	0.0242594
3883	0	0.310277
3884	0	0.027957
3885	0	0.0635457
3886	0	0.0196078
3887	0	0.0196078
3888	0	0.0130719
3889	0	0.0196078
3890	0	0.0181818
3891	0	0.0181818
3892	0	0.0277778
3893	0	0.0277778
3894	0	0.0181818
3895	0	0.0181818
3896	0	0.0181818
3897	0	0.0222222
3898	0	0.309273
3899	0	0.110853
3900	0	0.109362
3901	0	0.206935
3902	0	0.0323129
3903	0	0.0289116
3904	0	0.039039
3905	0	0.0355619
3906	0	0.0327169
3907	0	0.0341394
3908	0	0.0576923
3909	0	0.0448718
3910	0	0.0182927
3911	0	0.0177187
3912	0	0.444046
3913	0	0.0452151
3914	0	0.101922
3915	0	0.0372881
3916	0	0.0651899
3917	0	0.0322581
3918	0	0.0327869
3919	0	0.0327869
3920	0	0.149937
3921	0	0.148971
3922	0	0.0512821
3923	0	0.111111
3924	0	0.142857
3925	0	0.0952381
3926	0	0.133333
3927	0	0.166667
3928	0	0.166667
3929	0	0.166667
3930	0	0.166667
3931	0	0.166667
3932	0	0.166667
3933	0	0.166667
3934	0	0.166667
3935	0	0.166667
3936	0	0.166667
3937	0	0.166667
3938	0	0.166667
3939	0	0.166667
3940	0	0.166667
3941	0	0.166667
3942	0	0.166667
3943	0	0.166667
3944	0	0.166667
3945	0	0.166667
3946	0	0.166667
3947	0	0.109255
3948	0	0.0467836
3949	0	0.0441176
3950	0	0.0441176
3951	0	0.0441176
3952	0	0.0441176
3953	0	0.0294118
3954	0	0.0294118
3955	0	0.0294118
3956	0	0.0294118
3957	0	0.0294118
3958	0	0.0233918
3959	0	0.0210526
3960	0	0.11015
3961	0	0
3962	0	0
3963	0	0
3964	0	0
3965	0	0.142857
3966	0	0.142857
3967	0	0.0293254
3968	0	0.0281746
3969	0	0.0901754
3970	0	0.0120167
3971	0	0.0135342
3972	0	0.0401104
3973	0	0.0120504
3974	0	0.0145183
3975	0	0.0145183
3976	0	0.0159698
3977	0	0.0630839
3978	0	0.065316
3979	0	0.114822
3980	0	0.136282
3981	0	0.164545
3982	0	0.0259259
3983	0	0.0177371
3984	0	0.0166169
3985	0	0.0163004
3986	0	0.0134771
3987	0	0.0150943
3988	0	0.0408977
3989	0	0.0392773
3990	0	0.039614
3991	0	0.213203
3992	0	0.2115
3993	0	0.21031
3994	0	0.0666667
3995	0	0.0666667
3996	0	0.0666667
3997	0	0.0666667
3998	0	0.142857
3999	0	0.142857
4000	0	0.142857
4001	0	0.111111
4002	0	0.0353978
4003	0	0.174547
4004	0	0.0196078
4005	0	0.0196078
4006	0	0.0196078
4007	0	0.0210526
4008	0	0.0263158
4009	0	0.0263158
4010	0	0.017316
4011	0	0.012987
4012	0	0.00790514
4013	0	0.253764
4014	0	0.0315789
4015	0	0.0210526
4016	0	0.0292398
4017	0	0.0292398
4018	0	0.0292398
4019	0	0.0292398
4020	0	0.0368421
4021	0	0.0210526
4022	0	0.0210526
4023	0	0.138599
4024	0	0.137828
4025	0	0
4026	0	0
4027	0	0
4028	0	0
4029	0	0
4030	0	0
4031	0	0
4032	0	0
4033	0	0
4034	0	0
4035	0	0
4036	0	0
4037	0	0
4038	0	0
4039	0	0.0254386
4040	0	0.045085
4041	0	0.0408188
4042	0	0.0480862
4043	0	0.374128
4044	0	0.333333
4045	0	1
4046	0	1
4047	0	1
4048	0	1
4049	0	1
4050	0	1
4051	0	1
4052	0	1
4053	0	1
4054	0	1
4055	0	1
4056	0	1
4057	0	1
4058	0	1
4059	0	1
4060	0	1
4061	0	1
4062	0	1
4063	0	1
4064	0	1
4065	0	1
4066	0	1
4067	0	1
4068	0	1
4069	0	1
4070	0	1
4071	0	1
4072	0	1
4073	0	1
4074	0	1
4075	0	1
4076	0	1
4077	0	1
4078	0	1
4079	0	1
4080	0	0.333333
4081	0	0.166667
4082	0	0.1
4083	0	0.0666667
4084	0	0.0666667
4085	0	0.047619
4086	0	0.0555556
4087	0	0.0285714
4088	0	0.262763
4089	0	0.354227
4090	0	0.360137
4091	0	0.0547644
4092	0	0.0530213
4093	0	0.0522819
4094	0	0.0590626
4095	0	0.0208754
4096	0	0.0208754
4097	0	0.0194236
4098	0	0.0880353
4099	0	0
4100	0	0.230958
4101	0	0.0531752
4102	0	0
4103	0	0
4104	0	0
4105	0	0
4106	0	0
4107	0	0
4108	0	0
4109	0	0
4110	0	0
4111	0	0
4112	0	0.0853535
4113	0	0.0752447
4114	0	0.0757576
4115	0	0.0757576
4116	0	0.0638381
4117	0	0.1
4118	0	0.0101587
4119	0	0.00977778
4120	0	0.00977778
4121	0	0.0109986
4122	0	0.00910433
4123	0	0.046504
4124	0	0.0498725
4125	0	0
4126	0	0
4127	0	0
4128	0	1
4129	0	1
4130	0	1
4131	0	1
4132	0	1
4133	0	1
4134	0	1
4135	0	1
4136	0	1
4137	0	1
4138	0	1
4139	0	1
4140	0	1
4141	0	1
4142	0	1
4143	0	1
4144	0	1
4145	0	1
4146	0	1
4147	0	1
4148	0	1
4149	0	1
4150	0	1
4151	0	1
4152	0	1
4153	0	1
4154	0	1
4155	0	1
4156	0	1
4157	0	1
4158	0	1
4159	0	1
4160	0	1
4161	0	1
4162	0	1
4163	0	1
4164	0	1
4165	0	1
4166	0	1
4167	0	1
4168	0	1
4169	0	1
4170	0	1
4171	0	1
4172	0	1
4173	0	1
4174	0	1
4175	0	1
4176	0	1
4177	0	1
4178	0	1
4179	0	1
4180	0	0
4181	0	0
4182	0	0
4183	0	0
4184	0	0
4185	1	0
4186	1	0
4187	1	0
4188	1	0
4189	0	0
4190	0	0
4191	0	0
4192	0	0
4193	0	0
4194	0	1
4195	0	1
4196	0	1
4197	0	1
4198	0	1
4199	0	1
4200	0	1
4201	0	1
4202	0	1
4203	0	1
4204	0	1
4205	0	1
4206	0	1
4207	0	1
4208	0	1
4209	0	1
4210	0	1
4211	0	1
4212	0	1
4213	0	1
4214	0	1
4215	0	1
4216	0	1
4217	0	1
4218	0	0
4219	0	0
4220	0	0
4221	0	0
4222	0	0
4223	0	1
4224	0	0.166667
4225	0	0
4226	0	0
4227	0	0
4228	0	0.0222222
4229	0	0.00950249
4230	0	0.0100627
4231	0	0.00846485
4232	0	0.00973701
4233	0	0.0589792
4234	0	0.0565614
4235	0	0.0537313
4236	0	0.0621093
4237	0	0.0634606
4238	0	0.0885755
4239	0	0.0878837
4240	0	0.254878
4241	0	0.254878
4242	0	0.254878
4243	0	0.0757168
4244	0	0.333333
4245	0	0.333333
4246	0	0.333333
4247	0	0.333333
4248	0	0.333333
4249	0	0.295277
4250	0	0.295277
4251	0	0.333333
4252	0	0.333333
4253	0	0.333333
4254	0	0.296096
4255	0	0.0357143
4256	0	0.0357143
4257	0	0.0357143
4258	0	0.0277778
4259	0	0.0277778
4260	0	0
4261	0	0.0222222
4262	0	0.104762
4263	0	0.104762
4264	0	0.0808824
4265	0	0.174576
4266	0	0.133419
4267	0	0.0947456
4268	0	0.118814
4269	0	0.0292929
4270	0	0.0292929
4271	0	0.0357488
4272	0	0.0937101
4273	0	0.0213904
4274	0	0.0178253
4275	0	0.0213904
4276	0	0.0142857
4277	0	0.0142857
4278	0	0.0142602
4279	0	0.0213371
4280	0	0.0153846
4281	0	0.0141026
4282	0	0.0134146
4283	0	0.00944669
4284	0	0.0549463
4285	0	0.0680621
4286	0	0.0525134
4287	0	0.0666667
4288	0	0.047619
4289	0	0.00745156
4290	0	0.00719712
4291	0	0.00670968
4292	0	0.00699913
4293	0	0.00729847
4294	0	0.009071
4295	0	0.0114275
4296	0	0.0306486
4297	0	0.0382642
4298	0	0.0272666
4299	0	0.0236817
4300	0	0.025001
4301	0	0.0473766
4302	0	0.0497269
4303	0	0.044829
4304	0	0.0409256
4305	0	0.0347882
4306	0	0.0348651
4307	0	0.0355835
4308	0	0.165854
4309	0	0.168229
4310	0	0.167479
4311	0	0.0348565
4312	0	0.0832562
4313	0	0.0823312
4314	0	0.0850242
4315	0	0.0859903
4316	0	0.0830918
4317	0	0.0989824
4318	0	0.112338
4319	0	0.112523
4320	0	0.253763
4321	0	0.253763
4322	0	0.0331359
4323	0	0.0465559
4324	0	0.0509751
4325	0	0.0571839
4326	0	0
4327	0	0
4328	0	0
4329	0	0
4330	0	0
4331	0	0
4332	0	0
4333	0	0
4334	0	0
4335	0	0
4336	0	0
4337	0	0
4338	0	0.583333
4339	0	0.266667
4340	0	0.036985
4341	0	0.025649
4342	0	0.0241521
4343	0	0.0231467
4344	0	0.033488
4345	0	0.0332296
4346	0	0.0320389
4347	0	0.030813
4348	0	0.042996
4349	0	0.052433
4350	0	0.0594506
4351	0	0.130669
4352	0	0.162709
4353	0	0.0387179
4354	0	0.0353597
4355	0	0.0357065
4356	0	0.0477244
4357	0	0.0680842
4358	0	0.0905084
4359	0	0.0902778
4360	0	0.09319
4361	0	0.0920904
4362	0	0.0986086
4363	0	0.119177
4364	0	0.13266
4365	0	0.146305
4366	0	0.0215054
4367	0	0.02
4368	0	0.149495
4369	0	0.236167
4370	0	0.248933
4371	0	0.248933
4372	0	0.248933
4373	0	0.228205
4374	0	0.228205
4375	0	0.0893417
4376	0	0.0790659
4377	0	0.0832761
4378	0	0.0907637
4379	0	0.12435
4380	0	0.176224
4381	0	0.15809
4382	0	0.177749
4383	0	0.194406
4384	0	0.191827
4385	0	0.200893
4386	0	0.26597
4387	0	0.321321
4388	0	0.292308
4389	0	0.1
4390	0	0.1
4391	0	0.1
4392	0	0.1
4393	0	0.166667
4394	0	0.166667
4395	0	0.166667
4396	0	0.290698
4397	0	0.229437
4398	0	0.407112
4399	0	0.589804
4400	0	0.217949
4401	0	0.0952381
4402	0	0.0952381
4403	0	0.0952381
4404	0	0.133333
4405	0	0.166667
4406	0	0.166667
4407	0	0.166667
4408	0	0.166667
4409	0	0.166667
4410	0	0.166667
4411	0	0.166667
4412	0	0.166667
4413	0	0.166667
4414	0	0.224753
4415	0	0.225642
4416	0	0.232826
4417	0	0.234417
4418	0	0.235648
4419	0	0.0514706
4420	0	0.0514706
4421	0	0.075
4422	0	0.0666667
4423	0	0.0666667
4424	0	0.0583333
4425	0	0.05
4426	0	0.05
4427	0	0.05
4428	0	0.05
4429	0	0.0441176
4430	0	0.0441176
4431	0	0.0441176
4432	0	0.0392157
4433	0	0.0392157
4434	0	0.0897436
4435	0	0.276146
4436	0	0.03
4437	0	0.0333333
4438	0	0.0333333
4439	0	0.0199836
4440	0	0.0175411
4441	0	0.0262326
4442	0	0.0438272
4443	0	0.185295
4444	0	0.181441
4445	0	0.17922
4446	0	0
4447	0	0
4448	0	0
4449	0	0
4450	0	0
4451	0	0
4452	0	0
4453	0	0
4454	0	0
4455	0	0
4456	0	0
4457	0	0
4458	0	0
4459	0	0
4460	0	0
4461	0	0
4462	0	0
4463	0	0.0584795
4464	0	0.0920635
4465	0	0.124605
4466	0	0.12295
4467	0	0.110567
4468	0	0.107786
4469	0	0.0933074
4470	0	0.161523
4471	0	0.355856
4472	0	0.149844
4473	0	0.0706223
4474	0	0.141313
4475	0	0.129555
4476	0	0.145749
4477	0	0.0598291
4478	0	0.179487
4479	0	0.0758913
4480	0	0.0804886
4481	0	0.0927048
4482	0	0.0774303
4483	0	0.0659379
4484	0	0.111997
4485	0	0
4486	0	0
4487	0	0
4488	0	0
4489	0	0
4490	0	0
4491	0	0
4492	0	0
4493	0	0
4494	0	0
4495	0	0
4496	0	0
4497	0	0
4498	0	0
4499	0	0
4500	0	0.108423
4501	0	0.0357143
4502	0	0.0357143
4503	0	0.211355
4504	0	0.188946
4505	0	0
4506	0	0
4507	0	0
4508	0	0
4509	0	0
4510	0	0.237543
4511	0	0.238831
4512	0	0.122884
4513	0	0.0211416
4514	0	0.0211416
4515	0	0.0232558
4516	0	0.026738
4517	0	0.026738
4518	0	0.026738
4519	0	0.0374332
4520	0	0.0285205
4521	0	0.0374332
4522	0	0.0445633
4523	0	0.057041
4524	0	0.0571429
4525	0	0.0888889
4526	0	0.0981172
4527	0	0.13648
4528	0	0.126019
4529	0	0.108678
4530	0	0.112863
4531	0	0.155519
4532	0	0.116203
4533	0	0.210625
4534	0	0.247798
4535	0	0.144623
4536	0	0.177782
4537	0	0.15184
4538	0	0.159357
4539	0	0.201705
4540	0	0.19315
4541	0	0.145455
4542	0	0.0952381
4543	0	0.0952381
4544	0	0.1
4545	0	0.333333
4546	0	1
4547	0	1
4548	0	1
4549	0	1
4550	0	1
4551	0	1
4552	0	1
4553	0	1
4554	0	1
4555	1	1
4556	1	1
4557	0	1
4558	0	1
4559	0	1
4560	0	1
4561	0	1
4562	0	1
4563	0	1
4564	0	1
4565	0	1
4566	0	1
4567	0	1
4568	0	1
4569	0	1
4570	0	1
4571	0	1
4572	0	1
4573	0	1
4574	0	1
4575	0	1
4576	0	1
4577	0	1
4578	0	1
4579	0	1
4580	0	1
4581	0	1
4582	0	1
4583	0	1
4584	0	1
4585	0	1
4586	0	1
4587	0	1
4588	0	1
4589	0	1
4590	0	0.299652
4591	0	0.133333
4592	0	0.2
4593	0	0.133333
4594	0	0.133333
4595	0	0.133333
4596	0	0.133333
4597	0	0.133333
4598	0	0.208333
4599	0	1
4600	0	1
4601	0	1
4602	0	1
4603	0	1
4604	0	1
4605	0	0.333333
4606	0	0.216376
4607	0	0.280746
4608	0	0.407484
4609	0	0.642743
4610	0	0.82684
4611	0	0.82684
4612	0	0.833992
4613	0	0.84058
4614	0	0.989955
4615	0	0.983595
4616	0	0.983595
4617	0	0.983595
4618	0	0.985398
4619	0	0.983595
4620	0	0.983595
4621	0	0.983595
4622	0	0.979976
4623	0	0.972765
4624	0	0.948306
4625	0	0.948306
4626	0	0.584211
4627	0	0.939159
4628	0	0.939159
4629	0	0.951753
4630	0	0.392008
4631	0	0.497463
4632	0	0.497463
4633	0	0.79852
4634	0	0.795601
4635	0	0.792701
4636	0	0.789645
4637	0	0.8
4638	0	0.8
4639	0	0.8
4640	0	0.8
4641	0	0.8
4642	0	0.8
4643	0	0.8
4644	0	0.893064
4645	0	0.780731
4646	0	0.613946
4647	0	0.500106
4648	0	0.981795
4649	0	0.981795
4650	0	0.981795
4651	0	0.981795
4652	0	0.983609
4653	0	0.98541
4654	0	0.98541
4655	0	0.98541
4656	0	0.98541
4657	0	0.98541
4658	0	0.98002
4659	0	0.98002
4660	0	0.978234
4661	0	0.978234
4662	0	0.333333
4663	0	0.2
4664	0	0.2
4665	0	0.2
4666	0	0.133333
4667	0	0.133333
4668	0	0.133333
4669	0	0.133333
4670	0	0.133333
4671	0	0.0952381
4672	0	0.597849
4673	0	0.530303
4674	0	0.473938
4675	0	0.474082
4676	0	1
4677	0	1
4678	0	1
4679	0	1
4680	0	0.606349
4681	0	0
4682	0	0
4683	0	1
4684	0	1
4685	0	1
4686	0	1
4687	0	1
4688	0	1
4689	0	0.333333
4690	0	0.333333
4691	0	0.590554
4692	0	0.333333
4693	0	0.333333
4694	0	0.333333
4695	0	0.333333
4696	0	0.333333
4697	0	0.166667
4698	0	0.166667
4699	0	0.166667
4700	0	0.166667
4701	0	0.166667
4702	0	0.166667
4703	0	0.166667
4704	0	0.166667
4705	0	0.1
4706	0	0.0666667
4707	0	0.0952381
4708	0	0.0714286
4709	0	0.186813
4710	0	0.130719
4711	0	0.136842
4712	0	0.181682
4713	0	0.173542
4714	0	0.164642
4715	0	0.118841
4716	0	0.293717
4717	0	0.266625
4718	0	0.256806
4719	0	0.179498
4720	0	0.251021
4721	0	0.0666667
4722	0	0.242594
4723	0	0.232125
4724	0	0.187829
4725	0	0.170505
4726	0	0.209423
4727	0	0.210392
4728	0	0.247456
4729	0	0.53418
4730	0	0.766057
4731	0	0.229947
4732	0	0.289655
4733	0	0.310345
4734	0	0.353276
4735	0	0.353276
4736	0	0.438406
4737	0	0.442029
4738	0	0.482213
4739	0	0.133333
4740	0	0.133333
4741	0	0.133333
4742	0	0.1
4743	0	0.1
4744	0	0.1
4745	0	0.1
4746	0	0.557454
4747	0	0.0714286
4748	0	0.0952381
4749	0	0.140351
4750	0	0.428356
4751	0	0.541022
4752	0	0.316176
4753	0	0.493173
4754	0	0.360294
4755	0	0.86178
4756	0	0.861763
4757	0	0
4758	0	0
4759	0	0
4760	0	0
4761	0	0.925786
4762	0	0.961725
4763	0	0.980392
4764	0	0.857143
4765	0	0
4766	0	0
4767	0	0.5
4768	0	0
4769	0	0
4770	0	0
4771	0	0
4772	0	0
4773	0	0
4774	0	0
4775	0	0
4776	0	0.714286
4777	0	0.535714
4778	0	0.381818
4779	0	0.381818
4780	0	0.689067
4781	0	0.678626
4782	0	0.689111
4783	0	0.454545
4784	0	0.424356
4785	0	0.401386
4786	0	0.640923
4787	0	0.375385
4788	0	0.336182
4789	0	0.327635
4790	0	0.273684
4791	0	0.273684
4792	0	0.326316
4793	0	0.262108
4794	0	0.270655
4795	0	0.236453
4796	0	0.219212
4797	0	0.429359
4798	0	0.431789
4799	0	0.180995
4800	0	0.175716
4801	0	0.145098
4802	0	0.164082
4803	0	0.17517
4804	0	0.373154
4805	0	0.116231
4806	0	0.110087
4807	0	0.136201
4808	0	0.391334
4809	0	0.2
4810	0	0.2
4811	0	0.2
4812	0	0.2
4813	0	0.2
4814	0	0.2
4815	0	0.2
4816	0	0.277778
4817	0	0.128205
4818	0	0.0888889
4819	0	0.0888889
4820	0	0.111111
4821	0	0.155556
4822	0	0.556989
4823	0	0.606452
4824	0	0.653763
4825	0	0.860633
4826	0	0.80117
4827	0	0.80117
4828	0	0.80117
4829	0	0.80117
4830	0	0.80117
4831	0	0.80117
4832	0	0.80117
4833	0	0.80117
4834	0	0.80117
4835	0	0.80117
4836	0	0.80117
4837	0	0.370143
4838	0	0.435797
4839	0	0.752511
4840	0	0.882353
4841	0	0.936923
4842	0	0.938694
4843	0	0.938694
4844	0	0.0833333
4845	0	0.107143
4846	0	0.107143
4847	0	0.142857
4848	0	0.142857
4849	0	0.947498
4850	0	0.949329
4851	0	0.949329
4852	0	0.862525
4853	0	0.864107
4854	0	0.161765
4855	0	0.161765
4856	0	0.661839
4857	0	0.660371
4858	0	1
4859	0	1
4860	0	1
4861	0	1
4862	0	1
4863	0	1
4864	0	1
4865	0	1
4866	0	1
4867	0	1
4868	0	1
4869	0	1
4870	0	1
4871	0	1
4872	0	1
4873	0	1
4874	0	1
4875	0	1
4876	0	1
4877	0	1
4878	0	1
4879	0	1
4880	0	1
4881	0	1
4882	0	1
4883	0	1
4884	0	1
4885	0	1
4886	0	1
4887	0	1
4888	0	1
4889	0	1
4890	0	1
4891	0	1
4892	0	1
4893	0	1
4894	0	1
4895	0	1
4896	0	1
4897	0	1
4898	0	1
4899	0	1
4900	0	1
4901	0	1
4902	0	1
4903	0	1
4904	0	1
4905	0	1
4906	0	1
4907	0	1
4908	0	1
4909	0	1
4910	0	1
4911	0	1
4912	0	0.333333
4913	0	0.673284
4914	0	0.674899
4915	0	0.517647
4916	0	0.517647
4917	0	0.488889
4918	0	0.631233
4919	0	0.624057
4920	0	0.102941
4921	0	0.12
4922	0	0.245438
4923	0	0.393261
4924	0	0.490805
4925	0	0.940114
4926	0	0.943695
4927	0	0
4928	1	0
4929	1	0
4930	1	0
4931	1	0
4932	1	0
4933	1	0
4934	1	0
4935	1	0
4936	1	0
4937	1	0
4938	1	0
4939	1	0
4940	1	0
4941	1	0
4942	1	0
4943	1	0
4944	1	0
4945	1	0
4946	0	0
4947	0	0
4948	0	0
4949	0	1
4950	0	1
4951	0	1
4952	0	1
4953	0	1
4954	0	1
4955	0	1
4956	0	1
4957	0	0.666667
4958	0	0.666667
4959	0	0.940154
4960	0	0.940099
4961	0	0
4962	0	0
4963	0	0
4964	0	0
4965	0	0
4966	0	0
4967	0	0
4968	0	0
4969	0	0
4970	0	0
4971	0	0
4972	0	0
4973	0	0
4974	0	0
4975	0	0
4976	0	0
4977	0	0
4978	0	0
4979	0	0
4980	0	0
4981	0	0
4982	0	0
4983	0	0
4984	0	0
4985	0	0
4986	0	0
4987	0	0
4988	0	0
4989	0	0
4990	0	0
4991	0	0
4992	0	0
4993	0	0
4994	0	0
4995	0	0
4996	0	0
4997	0	0
4998	0	0
4999	0	0
5000	0	0
5001	0	0
5002	0	0
5003	0	0
5004	0	0
5005	0	0
5006	0	0
5007	0	0
5008	0	0
5009	0	0
5010	0	0
5011	0	0
5012	0	0
5013	0	0
5014	0	0
5015	0	0
5016	0	0
5017	0	0
5018	0	0
5019	0	0
5020	0	0
5021	0	0
5022	0	0
5023	0	0
5024	0	0
5025	0	0
5026	0	0
5027	0	0
5028	0	0
5029	0	0
5030	0	0
5031	0	0
5032	0	0
5033	0	0
5034	0	0
5035	0	0
5036	0	0
5037	0	0
5038	0	0
5039	0	0
5040	1	0
5041	0	0
5042	0	0
5043	0	0
5044	0	0
5045	0	0
5046	0	0
5047	0	0
5048	0	0
5049	0	0
5050	0	0
5051	1	0
5052	0	0
5053	0	0
5054	0	0
5055	0	0
5056	0	0
5057	0	0
5058	0	0
5059	0	0
5060	0	0
5061	0	0
5062	0	0
5063	0	0
5064	0	0
5065	0	0
5066	0	0
5067	0	0
5068	0	0
5069	0	0
5070	0	0
5071	0	0
5072	0	0
5073	0	0
5074	0	0
5075	0	0
5076	0	0
5077	0	0
5078	0	0
5079	0	0
5080	0	0
5081	0	0
5082	0	0
5083	0	0
5084	0	0
5085	0	0
5086	0	0
5087	0	0
5088	0	0
5089	0	0
5090	0	0
5091	0	0
5092	0	0
5093	0	0
5094	0	0
5095	0	0
5096	0	0
5097	0	0
5098	0	0
5099	0	0
5100	0	0
5101	0	0
5102	0	0
5103	0	0
5104	0	0
5105	0	0
5106	0	0
5107	0	0
5108	0	0
5109	0	0
5110	0	0
5111	0	0
5112	0	0
5113	0	0
5114	0	0
5115	0	0
5116	0	0
5117	0	0
5118	0	0
5119	0	0
5120	0	0
5121	0	0
5122	0	0
5123	0	0
5124	0	0
5125	0	0
5126	0	0
5127	0	0
5128	0	0
5129	0	0
5130	0	0
5131	0	0
5132	0	0
5133	0	0
5134	0	0
5135	0	0
5136	0	0
5137	0	0
5138	0	0
5139	0	0
5140	0	0
5141	0	0.1
5142	0	0.1
5143	0	0.1
5144	0	0.936306
5145	0	0.934637
5146	0	0.933978
5147	0	0.922353
5148	0	0.91401
5149	0	0.559573
5150	0	0.602024
5151	0	0.639373
5152	0	0.693256
5153	0	0.308652
5154	0	0.285714
5155	0	0.270769
5156	0	0.25974
5157	0	0.30719
5158	0	0.171429
5159	0	0.153846
5160	0	0.102564
5161	0	0.0545455
5162	0	0.0545455
5163	0	0.0833333
5164	0	0.0833333
5165	0	0.0555556
5166	0	0.0555556
5167	0	0.0666667
5168	0	0.0666667
5169	0	0.111111
5170	0	0.111111
5171	0	0.111111
5172	0	0.111111
5173	0	0.111111
5174	0	0.111111
5175	0	0.111111
5176	0	0.111111
5177	0	0.111111
5178	0	0.111111
5179	0	0.111111
5180	0	0.111111
5181	0	0.111111
5182	0	0.111111
5183	0	0.0888889
5184	0	0.0444444
5185	0	0.0357143
5186	0	0.0357143
5187	0	0.0357143
5188	0	0.0714286
5189	0	0.0714286
5190	0	0.0714286
5191	0	0.0714286
5192	0	0.0714286
5193	0	0.047619
5194	0	0.0357143
5195	0	0.0357143
5196	0	0.0277778
5197	0	0.0277778
5198	0	0.0277778
5199	0	0.0277778
5200	0	0.0277778
5201	0	0.0277778
5202	0	0.0277778
5203	0	0.0277778
5204	0	0.0277778
5205	0	0.0277778
5206	0	0.0277778
5207	0	0.0277778
5208	0	0.0555556
5209	0	0.0555556
5210	0	0.0357143
5211	0	0.047619
5212	0	0.047619
5213	0	0.047619
5214	0	0.047619
5215	0	0.047619
5216	0	0.047619
5217	0	0.047619
5218	0	0.047619
5219	0	0.047619
5220	0	0.047619
5221	0	0.047619
5222	0	0.047619
5223	0	0.0714286
5224	0	0.0714286
5225	0	0.0714286
5226	0	0.0714286
5227	0	0.0714286
5228	0	0.142857
5229	0	0.142857
5230	0	0.142857
5231	0	0.142857
5232	0	0.142857
5233	0	0.142857
5234	0	0.142857
5235	0	0.142857
5236	0	0.0714286
5237	0	0.0714286
5238	0	0.0666667
5239	0	0.0666667
5240	0	0.0952381
5241	0	0.0952381
5242	0	0.0952381
5243	0	0.0952381
5244	0	0.0952381
5245	0	0.0952381
5246	0	0.0952381
5247	0	0.0952381
5248	0	0.0952381
5249	0	0.0952381
5250	0	0.0952381
5251	0	0.0952381
5252	0	0.0952381
5253	0	0.0952381
5254	0	0.0952381
5255	0	0.0952381
5256	0	0.0952381
5257	0	0.0952381
5258	0	0.0952381
5259	0	0.0952381
5260	0	0.0952381
5261	0	0.0952381
5262	0	0.0952381
5263	0	0.0952381
5264	0	0.0952381
5265	0	0.0952381
5266	0	0.0952381
5267	0	0.0952381
5268	0	0.0952381
5269	0	0.0952381
5270	0	0.0952381
5271	0	0.0952381
5272	0	0.0952381
5273	0	0.0952381
5274	0	0.0952381
5275	0	0.0952381
5276	0	0.0952381
5277	0	0.0952381
5278	0	0.0952381
5279	0	0.0952381
5280	0	0.0952381
5281	0	0.0952381
5282	0	0.0952381
5283	0	0.0952381
5284	0	0.0952381
5285	0	0.0952381
5286	0	0.0952381
5287	0	0.0952381
5288	0	0.0952381
5289	0	0.0952381
5290	0	0.0952381
5291	0	0.0952381
5292	0	0.0666667
5293	0	0.0666667
5294	0	0.047619
5295	0	0.0952381
5296	0	0.0952381
5297	0	0.0952381
5298	0	0.0952381
5299	0	0.0952381
5300	0	0.0952381
5301	0	0.0952381
5302	0	0.0952381
5303	0	0.0952381
5304	0	0.0952381
5305	0	0.0952381
5306	0	0.0952381
5307	0	0.0952381
5308	0	0.0952381
5309	0	0.0952381
5310	0	0.0952381
5311	0	0.0952381
5312	0	0.0952381
5313	0	0.0952381
5314	0	0.0952381
5315	0	0.0952381
5316	0	0.0952381
5317	0	0.0952381
5318	0	0.0952381
5319	0	0.0952381
5320	0	0.0952381
5321	0	0.0952381
5322	0	0.0952381
5323	0	0.0952381
5324	0	0.0952381
5325	0	0.0952381
5326	0	0.0952381
5327	0	0.0952381
5328	0	0.0952381
5329	0	0.0952381
5330	0	0.0952381
5331	0	0.0952381
5332	0	0.0952381
5333	0	0.0952381
5334	0	0.0952381
5335	0	0.0952381
5336	0	0.0952381
5337	0	0.0952381
5338	0	0.0952381
5339	0	0.0952381
5340	0	0.0952381
5341	0	0.0952381
5342	0	0.0952381
5343	0	0.0952381
5344	0	0.0952381
5345	0	0.0952381
5346	0	0.0952381
5347	0	0.0952381
5348	0	0.0952381
5349	0	0.0952381
5350	0	0.0952381
5351	0	0.0952381
5352	0	0.0952381
5353	0	0.0952381
5354	0	0.0952381
5355	0	0.0952381
5356	0	0.0952381
5357	0	0.0952381
5358	0	0.0952381
5359	0	0.0952381
5360	0	0.0952381
5361	0	0.0952381
5362	0	0.0952381
5363	0	0.0952381
5364	0	0.0952381
5365	0	0.0952381
5366	0	0.0952381
5367	0	0.0952381
5368	0	0.0952381
5369	0	0.0952381
5370	0	0.0952381
5371	0	0.0952381
5372	0	0.0952381
5373	0	0.0952381
5374	0	0.0952381
5375	0	0.0952381
5376	0	0.0952381
5377	0	0.0952381
5378	0	0.0952381
5379	0	0.0952381
5380	0	0.0952381
5381	0	0.0952381
5382	0	0.0952381
5383	0	0.0952381
5384	0	0.0952381
5385	0	0.0952381
5386	0	0.0952381
5387	0	0.0952381
5388	0	0.0952381
5389	0	0.0952381
5390	0	0.0952381
5391	0	0.0952381
5392	0	0.0952381
5393	0	0.0952381
5394	0	0.0952381
5395	0	0.0952381
5396	0	0.0666667
5397	0	0.0952381
5398	0	0.0952381
5399	0	0.0952381
5400	0	0.0952381
5401	0	0.0952381
5402	0	0.0952381
5403	0	0.0952381
5404	0	0.1
5405	0	0.1
5406	0	0.1
5407	0	0.1
5408	0	0.1
5409	0	0.1
5410	0	0.1
5411	0	0.1
5412	0	0.1
5413	0	0.1
5414	0	0.1
5415	0	0.1
5416	0	0.1
5417	0	0.1
5418	0	0.1
5419	0	0.1
5420	0	0.1
5421	0	0
5422	0	0
5423	0	0
5424	0	0
5425	0	0
5426	0	0
5427	0	0
5428	0	0
5429	0	0
5430	0	0
5431	0	0
5432	0	0
5433	0	0
5434	0	0
5435	0	0
5436	0	0
5437	0	0
5438	0	0
5439	0	0
5440	0	0
5441	0	0
5442	0	0
5443	0	0
5444	0	0
5445	0	0
5446	0	0
5447	0	0
5448	0	0
5449	0	0
5450	0	0
5451	0	0
5452	0	0
5453	0	0
5454	0	0
5455	0	0
5456	0	0
5457	0	0
5458	0	0
5459	1	0
5460	0	0
5461	0	0
5462	0	0
5463	0	0
5464	0	0
5465	0	0
5466	1	0
5467	0	0
5468	0	0
5469	0	0
5470	0	0
5471	0	0
5472	0	0
5473	0	0
5474	0	0
5475	0	0
5476	0	0
5477	0	0
5478	0	0
5479	0	0
5480	0	0
5481	0	0
5482	0	0
5483	0	0
5484	0	0
5485	0	0
5486	0	0
5487	0	0
5488	0	0
5489	0	0
5490	0	0
5491	0	0
5492	0	0
5493	0	0
5494	0	0
5495	0	0
5496	0	0
5497	0	0
5498	0	0
5499	0	0
5500	0	0
5501	0	0
5502	0	0
5503	0	0
5504	0	0
5505	0	0
5506	0	0
5507	0	0
5508	0	0
5509	0	0
5510	0	0
5511	0	0
5512	0	0
5513	0	0
5514	0	0
5515	0	0
5516	0	0
5517	0	0
5518	0	0
5519	0	0
5520	0	0
5521	0	0
5522	0	0
5523	0	0
5524	0	0
5525	0	0
5526	0	0
5527	0	0
5528	0	0
5529	0	0
5530	0	0
5531	0	0
5532	0	0
5533	0	0
5534	0	0
5535	0	0
5536	0	0
5537	0	0
5538	0	0
5539	0	0
5540	0	0
5541	0	0
5542	0	0
5543	0	0
5544	0	0
5545	0	0
5546	1	0
5547	1	0
5548	1	0
5549	0	0
5550	0	0
5551	0	0
5552	0	0
5553	0	0
5554	0	0
5555	0	0
5556	0	0
5557	0	0
5558	0	0
5559	0	0
5560	0	0
5561	0	0
5562	0	0
5563	0	0
5564	0	0
5565	0	0
5566	0	0
5567	0	0
5568	0	0
5569	0	0
5570	0	0
5571	0	0
5572	0	0
5573	0	0
5574	0	0
5575	0	0
5576	0	0
5577	0	0
5578	0	0
5579	1	0
5580	1	0
5581	1	0
5582	1	0
5583	0	0
5584	0	0
5585	0	0
5586	0	0
5587	0	0
5588	0	0
5589	0	0
5590	0	0
5591	0	0
5592	0	0
5593	0	0
5594	0	0
5595	0	0
5596	0	0
5597	0	0
5598	0	0
5599	0	0
5600	0	0
5601	0	0
5602	0	0
5603	0	0
5604	0	0
5605	0	0
5606	0	0
5607	0	0
5608	0	0
5609	0	0
5610	0	0
5611	0	0
5612	1	0
5613	0	0
5614	0	0
5615	1	0
5616	1	0
5617	1	0
5618	0	0
5619	0	0
5620	0	0
5621	0	0
5622	0	0
5623	0	0
5624	0	0
5625	0	0
5626	0	0
5627	0	0
5628	0	0
5629	0	0
5630	0	0
5631	0	0
5632	0	0
5633	0	0
5634	0	0
5635	0	0
5636	0	0
5637	0	0
5638	0	0
5639	0	0
5640	1	0
5641	1	0
5642	1	0
5643	0	0
5644	0	0
5645	0	0
5646	0	0
5647	0	0
5648	0	0
5649	0	0
5650	0	0
5651	0	0
5652	0	0
5653	0	0
5654	0	0
5655	0	0
5656	0	0
5657	0	0
5658	0	0
5659	0	0
5660	0	0
5661	0	0
5662	0	0
5663	0	0
5664	0	0
5665	0	0
5666	1	0
5667	1	0
5668	0	0
5669	0	0
5670	0	0
5671	0	0
5672	0	0
5673	0	0
5674	1	0
5675	1	0
5676	1	0
5677	1	0
5678	1	0
5679	1	0
5680	1	0
5681	1	0
5682	1	0
5683	1	0
5684	1	0
5685	1	0
5686	1	0
5687	1	0
5688	1	0
5689	1	0
5690	1	0
5691	1	0
5692	1	0
5693	1	0
5694	1	0
5695	1	0
5696	1	0
5697	1	0
5698	1	0
5699	1	0
5700	1	0
5701	1	0
5702	1	0
5703	1	0
5704	0	0
5705	0	0
5706	0	0
5707	0	0
5708	0	0
5709	0	0
5710	0	0
5711	0	0
5712	0	0
5713	0	0
5714	0	0
5715	0	0
5716	0	0
5717	0	0
5718	0	0
5719	0	0
5720	0	0
5721	0	0
5722	0	0
5723	0	0
5724	0	0
5725	0	0
5726	0	0
5727	0	0
5728	0	0
5729	0	0
5730	0	0
5731	0	0
5732	0	0
5733	0	0
5734	0	0
5735	0	0
5736	0	0
5737	0	0
5738	0	0
5739	1	0
5740	1	0
5741	1	0
5742	1	0
5743	0	0
5744	0	0
5745	0	0
5746	0	0
5747	0	0
5748	0	0
5749	0	0
5750	0	0
5751	0	0
5752	1	0
5753	0	0
5754	0	0
5755	0	0
5756	0	0
5757	0	0
5758	0	0
5759	0	0
5760	0	0
5761	0	0
5762	0	0
5763	0	0
5764	0	0
5765	0	0
5766	0	0
5767	0	0
5768	0	0
5769	0	0
5770	0	0
5771	0	0
5772	0	0
5773	0	0
5774	0	0
5775	0	0
5776	0	0
5777	0	0
5778	0	0
5779	0	0
5780	0	0
5781	0	0
5782	0	0
5783	1	0
5784	1	0
5785	1	0
5786	1	0
5787	1	0
5788	1	0
5789	1	0
5790	1	0
5791	1	0
5792	1	0
5793	1	0
5794	0	0
5795	0	0
5796	0	0
5797	0	0
5798	0	0
5799	0	0
5800	0	0
5801	0	0
5802	0	0
5803	0	0
5804	0	0
5805	0	0
5806	0	0
5807	0	0
5808	0	0
5809	0	0
5810	0	0
5811	0	0
5812	0	0
5813	0	0
5814	1	0
5815	1	0
5816	1	0
5817	1	0
5818	1	0
5819	1	0
5820	1	0
5821	1	0
5822	1	0
5823	0	0
5824	0	0
5825	0	0
5826	0	0
5827	0	0
5828	0	0
5829	0	0
5830	0	0
5831	0	0
5832	0	0
5833	1	0
5834	1	0
5835	1	0
5836	1	0
5837	1	0
5838	1	0
5839	1	0
5840	1	0
5841	1	0
5842	1	0
5843	1	0
5844	1	0
5845	1	0
5846	1	0
5847	1	0
5848	0	0
5849	0	0
5850	0	0
5851	0	0
5852	0	0
5853	0	0
5854	0	0
5855	0	0
5856	0	0
5857	0	0
5858	0	0
5859	0	0
5860	0	0
5861	0	0
5862	0	0
5863	0	0
5864	0	0
5865	0	0
5866	0	0
5867	0	0
5868	0	0
5869	0	0
5870	0	0
5871	0	0
5872	0	0
5873	0	0
5874	0	0
5875	0	0
5876	0	0
5877	0	0
5878	0	0
5879	0	0
5880	0	0
5881	0	0
5882	0	0
5883	0	0
5884	0	0
5885	0	0
5886	0	0
5887	0	0
5888	0	0
5889	0	0
5890	0	0
5891	0	0
5892	0	0
5893	0	0
5894	0	0
5895	0	0
5896	0	0
5897	0	0
5898	0	0
5899	0	0
5900	0	0
5901	0	0
5902	0	0
5903	0	0
5904	0	0
5905	0	0
5906	0	0
5907	0	0
5908	0	0
5909	0	0
