Site	ColumnScore	SumOfPairsScore
1	0	1
2	0	1
3	0	1
4	0	1
5	0	1
6	0	1
7	0	1
8	0	1
9	0	1
10	0	1
11	0	1
12	0	1
13	0	1
14	0	1
15	0	1
16	0	1
17	0	1
18	0	1
19	0	1
20	0	1
21	0	1
22	0	1
23	0	1
24	0	1
25	0	1
26	0	1
27	0	0.666667
28	0	0.666667
29	0	0.666667
30	0	0.666667
31	0	0.666667
32	0	0.666667
33	0	0.666667
34	0	0.666667
35	0	0.666667
36	0	0.666667
37	0	0.666667
38	0	0.666667
39	0	0.666667
40	0	0.666667
41	0	0.666667
42	0	0.666667
43	0	0.666667
44	0	0.666667
45	0	0.666667
46	0	0.666667
47	0	0.666667
48	0	0.666667
49	0	0.666667
50	0	0.666667
51	0	0.666667
52	0	0.666667
53	0	0.47619
54	0	0.47619
55	0	0.47619
56	0	0.47619
57	0	0.47619
58	0	0.47619
59	0	0.47619
60	0	0.47619
61	0	0.47619
62	0	0.47619
63	0	0.47619
64	0	0.47619
65	0	0.47619
66	0	0.47619
67	0	0.47619
68	0	0.47619
69	0	0.47619
70	0	0.47619
71	0	0.47619
72	0	0.47619
73	0	0.47619
74	0	0.47619
75	0	0.47619
76	0	0.47619
77	0	0.47619
78	0	0.47619
79	0	0.47619
80	0	0.47619
81	0	0.47619
82	0	0.47619
83	0	0.47619
84	0	0.47619
85	0	0.47619
86	0	0.47619
87	0	0.47619
88	0	0.47619
89	0	0.47619
90	0	0.47619
91	0	0.47619
92	0	0.47619
93	0	0.47619
94	0	0.47619
95	0	0.47619
96	0	0.47619
97	0	0.47619
98	0	0.47619
99	0	0.47619
100	0	0.47619
101	0	0.47619
102	0	0.47619
103	0	0.47619
104	0	0.47619
105	0	0.47619
106	0	0.47619
107	0	0.47619
108	0	0.47619
109	0	0.47619
110	0	0.47619
111	0	0.47619
112	0	0.47619
113	0	0.47619
114	0	0.47619
115	0	0.47619
116	0	0.47619
117	0	0.47619
118	0	0.47619
119	0	0.47619
120	0	0.47619
121	0	0.47619
122	0	0.47619
123	0	0.47619
124	0	0.47619
125	0	0.47619
126	0	0.47619
127	0	0.47619
128	0	0.47619
129	0	0.47619
130	0	0.47619
131	0	0.47619
132	0	0.47619
133	0	0.47619
134	0	0.47619
135	0	0.47619
136	0	0.47619
137	0	0.47619
138	0	0.47619
139	0	0.47619
140	0	0.47619
141	0	0.47619
142	0	0.47619
143	0	0.47619
144	0	0.47619
145	0	0.47619
146	0	0.47619
147	0	0.47619
148	0	0.47619
149	0	0.47619
150	0	0.47619
151	0	0.47619
152	0	0.47619
153	0	0.47619
154	0	0.47619
155	0	0.47619
156	0	0.47619
157	0	0.47619
158	0	0.47619
159	0	0.47619
160	0	0.47619
161	0	0.47619
162	0	0.47619
163	0	0.47619
164	0	0.47619
165	0	0.47619
166	0	0.47619
167	0	0.47619
168	0	0.47619
169	0	0.47619
170	0	0.47619
171	0	0.47619
172	0	0.47619
173	0	0.47619
174	0	0.47619
175	0	0.47619
176	0	0.47619
177	0	0.47619
178	0	0.47619
179	0	0.47619
180	0	0.47619
181	0	0.47619
182	0	0.47619
183	0	0.47619
184	0	0.47619
185	0	0.47619
186	0	0.47619
187	0	0.47619
188	0	0.47619
189	0	0.47619
190	0	0.47619
191	0	0.47619
192	0	0.47619
193	0	0.47619
194	0	0.47619
195	0	0.47619
196	0	0.47619
197	0	0.47619
198	0	0.47619
199	0	0.47619
200	0	0.47619
201	0	0.47619
202	0	0.47619
203	0	0.47619
204	0	0.47619
205	0	0.47619
206	0	0.47619
207	0	0.47619
208	0	0.47619
209	0	0.47619
210	0	0.47619
211	0	0.47619
212	0	0.47619
213	0	0.47619
214	0	0.47619
215	0	0.47619
216	0	0.47619
217	0	0.47619
218	0	0.47619
219	0	0.47619
220	0	0.47619
221	0	0.47619
222	0	0.47619
223	0	0.47619
224	0	0.47619
225	0	0.47619
226	0	0.47619
227	0	0.47619
228	0	0.47619
229	0	0.47619
230	0	0.47619
231	0	0.47619
232	0	0.47619
233	0	0.47619
234	0	0.47619
235	0	0.47619
236	0	0.47619
237	0	0.47619
238	0	0.47619
239	0	0.47619
240	0	0.47619
241	0	0.47619
242	0	0.47619
243	0	0.47619
244	0	0.47619
245	0	0.47619
246	0	0.47619
247	0	0.47619
248	0	0.47619
249	0	0.47619
250	0	0.47619
251	0	0.47619
252	0	0.47619
253	0	0.47619
254	0	0.47619
255	0	0.47619
256	0	0.47619
257	0	0.47619
258	0	0.47619
259	0	0.47619
260	0	0.47619
261	0	0.47619
262	0	0.47619
263	0	0.47619
264	0	0.47619
265	0	0.47619
266	0	0.47619
267	0	0.47619
268	0	0.47619
269	0	0.47619
270	0	0.47619
271	0	0.47619
272	0	0.47619
273	0	0.47619
274	0	0.47619
275	0	0.47619
276	0	0.47619
277	0	0.47619
278	0	0.47619
279	0	0.47619
280	0	0.47619
281	0	0.47619
282	0	0.47619
283	0	0.47619
284	0	0.47619
285	0	0.47619
286	0	0.47619
287	0	0.47619
288	0	0.47619
289	0	0.47619
290	0	0.47619
291	0	0.47619
292	0	0.47619
293	0	0.47619
294	0	0.47619
295	0	0.47619
296	0	0.47619
297	0	0.47619
298	0	0.47619
299	0	0.47619
300	0	0.47619
301	0	0.47619
302	0	0.47619
303	0	0.47619
304	0	0.47619
305	0	0.47619
306	0	0.47619
307	0	0.47619
308	0	0.47619
309	0	0.47619
310	0	0.47619
311	0	0.47619
312	0	0.47619
313	0	0.47619
314	0	0.47619
315	0	0.47619
316	0	0.47619
317	0	0.47619
318	0	0.47619
319	0	0.47619
320	0	0.47619
321	0	0.47619
322	0	0.47619
323	0	0.47619
324	0	0.47619
325	0	0.47619
326	0	0.47619
327	0	0.47619
328	0	0.47619
329	0	0.47619
330	0	0.47619
331	0	0.47619
332	0	0.47619
333	0	0.47619
334	0	0.47619
335	0	0.47619
336	0	0.47619
337	0	0.47619
338	0	0.47619
339	0	0.47619
340	0	0.47619
341	0	0.47619
342	0	0.47619
343	0	0.47619
344	0	0.47619
345	0	0.47619
346	0	0.47619
347	0	0.47619
348	0	0.47619
349	0	0.47619
350	0	0.47619
351	0	0.47619
352	0	0.47619
353	0	0.47619
354	0	0.47619
355	0	0.47619
356	0	0.47619
357	0	0.47619
358	0	0.47619
359	0	0.47619
360	0	0.47619
361	0	0.47619
362	0	0.47619
363	0	0.47619
364	0	0.47619
365	0	0.47619
366	0	0.47619
367	0	0.47619
368	0	0.47619
369	0	0.47619
370	0	0.47619
371	0	0.47619
372	0	0.47619
373	0	0.47619
374	0	0.47619
375	0	0.47619
376	0	0.47619
377	0	0.47619
378	0	0.47619
379	0	0.47619
380	0	0.47619
381	0	0.47619
382	0	0.47619
383	0	0.47619
384	0	0.47619
385	0	0.47619
386	0	0.47619
387	0	0.47619
388	0	0.47619
389	0	0.47619
390	0	0.47619
391	0	0.47619
392	0	0.47619
393	0	0.47619
394	0	0.47619
395	0	0.47619
396	0	0.47619
397	0	0.47619
398	0	0.47619
399	0	0.47619
400	0	0.47619
401	0	0.47619
402	0	0.47619
403	0	0.47619
404	0	0.47619
405	0	0.47619
406	0	0.47619
407	0	0.47619
408	0	0.47619
409	0	0.47619
410	0	0.47619
411	0	0.47619
412	0	0.47619
413	0	0.47619
414	0	0.47619
415	0	0.47619
416	0	0.47619
417	0	0.47619
418	0	0.47619
419	0	0.47619
420	0	0.47619
421	0	0.47619
422	0	0.47619
423	0	0.47619
424	0	0.47619
425	0	0.47619
426	0	0.47619
427	0	0.47619
428	0	0.47619
429	0	0.47619
430	0	0.47619
431	0	0.47619
432	0	0.47619
433	0	0.47619
434	0	0.47619
435	0	0.47619
436	0	0.47619
437	0	0.47619
438	0	0.47619
439	0	0.47619
440	0	0.47619
441	0	0.47619
442	0	0.47619
443	0	0.47619
444	0	0.47619
445	0	0.47619
446	0	0.47619
447	0	0.47619
448	0	0.47619
449	0	0.47619
450	0	0.47619
451	0	0.47619
452	0	0.47619
453	0	0.47619
454	0	0.47619
455	0	0.47619
456	0	0.47619
457	0	0.47619
458	0	0.47619
459	0	0.47619
460	0	0.47619
461	0	0.47619
462	0	0.47619
463	0	0.47619
464	0	0.47619
465	0	0.47619
466	0	0.47619
467	0	0.47619
468	0	0.47619
469	0	0.47619
470	0	0.47619
471	0	0.47619
472	0	0.47619
473	0	0.47619
474	0	0.47619
475	0	0.47619
476	0	0.47619
477	0	0.47619
478	0	0.47619
479	0	0.47619
480	0	0.47619
481	0	0.47619
482	0	0.47619
483	0	0.47619
484	0	0.47619
485	0	0.47619
486	0	0.47619
487	0	0.47619
488	0	0.47619
489	0	0.47619
490	0	0.47619
491	0	0.47619
492	0	0.47619
493	0	0.47619
494	0	0.47619
495	0	0.47619
496	0	0.47619
497	0	0.47619
498	0	0.47619
499	0	0.47619
500	0	0.47619
501	0	0.47619
502	0	0.47619
503	0	0.47619
504	0	0.47619
505	0	0.47619
506	0	0.47619
507	0	0.47619
508	0	0.47619
509	0	0.47619
510	0	0.47619
511	0	0.47619
512	0	0.47619
513	0	0.47619
514	0	0.47619
515	0	0.47619
516	0	0.47619
517	0	0.47619
518	0	0.47619
519	0	0.47619
520	0	0.47619
521	0	0.47619
522	0	0.47619
523	0	0.47619
524	0	0.47619
525	0	0.47619
526	0	0.47619
527	0	0.47619
528	0	0.47619
529	0	0.47619
530	0	0.47619
531	0	0.47619
532	0	0.47619
533	0	0.47619
534	0	0.47619
535	0	0.47619
536	0	0.47619
537	0	0.47619
538	0	0.47619
539	0	0.47619
540	0	0.47619
541	0	0.47619
542	0	0.47619
543	0	0.47619
544	0	0.47619
545	0	0.47619
546	0	0.47619
547	0	0.47619
548	0	0.47619
549	0	0.47619
550	0	0.47619
551	0	0.47619
552	0	0.47619
553	0	0.47619
554	0	0.47619
555	0	0.47619
556	0	0.47619
557	0	0.47619
558	0	0.47619
559	0	0.47619
560	0	0.47619
561	0	0.47619
562	0	0.47619
563	0	0.47619
564	0	0.47619
565	0	0.47619
566	0	0.47619
567	0	0.47619
568	0	0.47619
569	0	0.47619
570	0	0.47619
571	0	0.47619
572	0	0.47619
573	0	0.47619
574	0	0.47619
575	0	0.47619
576	0	0.47619
577	0	0.47619
578	0	0.47619
579	0	0.47619
580	0	0.47619
581	0	0.47619
582	0	0.47619
583	0	0.47619
584	0	0.47619
585	0	0.47619
586	0	0.47619
587	0	0.47619
588	0	0.47619
589	0	0.47619
590	0	0.47619
591	0	0.47619
592	0	0.47619
593	0	0.47619
594	0	0.47619
595	0	0.47619
596	0	0.47619
597	0	0.47619
598	0	0.47619
599	0	0.47619
600	0	0.47619
601	0	0.47619
602	0	0.47619
603	0	0.47619
604	0	0.47619
605	0	0.47619
606	0	0.47619
607	0	0.47619
608	0	0.47619
609	0	0.47619
610	0	0.47619
611	0	0.47619
612	0	0.47619
613	0	0.47619
614	0	0.47619
615	0	0.47619
616	0	0.47619
617	0	0.47619
618	0	0.47619
619	0	0.47619
620	0	0.47619
621	0	0.47619
622	0	0.47619
623	0	0.47619
624	0	0.47619
625	0	0.47619
626	0	0.47619
627	0	0.47619
628	0	0.47619
629	0	0.47619
630	0	0.47619
631	0	0.47619
632	0	0.47619
633	0	0.47619
634	0	0.47619
635	0	0.47619
636	0	0.47619
637	0	0.47619
638	0	0.47619
639	0	0.47619
640	0	0.47619
641	0	0.47619
642	0	0.47619
643	0	0.47619
644	0	0.47619
645	0	0.47619
646	0	0.47619
647	0	0.47619
648	0	0.47619
649	0	0.47619
650	0	0.47619
651	0	0.47619
652	0	0.47619
653	0	0.47619
654	0	0.47619
655	0	0.47619
656	0	0.357143
657	0	0.357143
658	0	0.357143
659	0	0.357143
660	0	0.357143
661	0	0.357143
662	0	0.357143
663	0	0.357143
664	0	0.357143
665	0	0.357143
666	0	0.357143
667	0	0.357143
668	0	0.357143
669	0	0.357143
670	0	0.357143
671	0	0.357143
672	0	0.357143
673	0	0.357143
674	0	0.357143
675	0	0.357143
676	0	0.277778
677	0	0.277778
678	0	0.222222
679	0	0.222222
680	0	0.222222
681	0	0.222222
682	0	0.222222
683	0	0.222222
684	0	0.222222
685	0	0.222222
686	0	0.222222
687	0	0.222222
688	0	0.222222
689	0	0.222222
690	0	0.222222
691	0	0.222222
692	0	0.222222
693	0	0.222222
694	0	0.222222
695	0	0.222222
696	0	0.222222
697	0	0.222222
698	0	0.222222
699	0	0.222222
700	0	0.222222
701	0	0.222222
702	0	0.222222
703	0	0.222222
704	0	0.222222
705	0	0.222222
706	0	0.222222
707	0	0.222222
708	0	0.222222
709	0	0.222222
710	0	0.222222
711	0	0.222222
712	0	0.222222
713	0	0.222222
714	0	0.222222
715	0	0.222222
716	0	0.222222
717	0	0.222222
718	0	0.222222
719	0	0.222222
720	0	0.222222
721	0	0.222222
722	0	0.222222
723	0	0.222222
724	0	0.222222
725	0	0.222222
726	0	0.222222
727	0	0.222222
728	0	0.222222
729	0	0.222222
730	0	0.181818
731	0	0.181818
732	0	0.181818
733	0	0.181818
734	0	0.181818
735	0	0.181818
736	0	0.181818
737	0	0.181818
738	0	0.181818
739	0	0.181818
740	0	0.151515
741	0	0.151515
742	0	0.151515
743	0	0.151515
744	0	0.151515
745	0	0.151515
746	0	0.12381
747	0	0.12381
748	0	0.12381
749	0	0.12381
750	0	0.12381
751	0	0.12381
752	0	0.12381
753	0	0.12381
754	0	0.12381
755	0	0.12381
756	0	0.12381
757	0	0.12381
758	0	0.12381
759	0	0.12381
760	0	0.152381
761	0	0.152381
762	0	0.152381
763	0	0.152381
764	0	0.12381
765	0	0.12381
766	0	0.12381
767	0	0.12381
768	0	0.152381
769	0	0.152381
770	0	0.152381
771	0	0.152381
772	0	0.152381
773	0	0.152381
774	0	0.152381
775	0	0.108333
776	0	0.108333
777	0	0.108333
778	0	0.108333
779	0	0.108333
780	0	0.108333
781	0	0.108333
782	0	0.0955882
783	0	0.0955882
784	0	0.0955882
785	0	0.0955882
786	0	0.0849673
787	0	0.0849673
788	0	0.0849673
789	0	0.0849673
790	0	0.0849673
791	0	0.0849673
792	0	0.0849673
793	0	0.0915033
794	0	0.0915033
795	0	0.0915033
796	0	0.0818713
797	0	0.0818713
798	0	0.0818713
799	0	0.0760234
800	0	0.0760234
801	0	0.0760234
802	0	0.0760234
803	0	0.0760234
804	0	0.0818713
805	0	0.0736842
806	0	0.0736842
807	0	0.0736842
808	0	0.0736842
809	0	0.0526316
810	0	0.0368421
811	0	0.0368421
812	0	0.0368421
813	0	0.0315789
814	0	0.0233918
815	0	0.0233918
816	0	0.0261438
817	0	0.0261438
818	0	0.0233918
819	0	0.0233918
820	0	0.0210526
821	0	0.0210526
822	0	0.0210526
823	0	0.0175439
824	0	0.0196078
825	0	0.0196078
826	0	0.0196078
827	0	0.0196078
828	0	0.0190476
829	0	0.0217391
830	0	0.0166667
831	0	0.0430769
832	0	0.0430769
833	0	0.0430769
834	0	0.0430769
835	0	0.0541311
836	0	0.0569801
837	0	0.0582011
838	0	0.0608466
839	0	0.0687831
840	0	0.0714286
841	0	0.0763547
842	0	0.0688172
843	0	0.0606061
844	0	0.0588235
845	0	0.0654762
846	0	0.056391
847	0	0.0607832
848	0	0.0783654
849	0	0.371082
850	0	0.356652
851	0	0.3571
852	0	0.361374
853	0	0.036635
854	0	0.0395149
855	0	0.196294
856	0	0.211336
857	0	0.030303
858	0	0.21477
859	0	0.254453
860	0	0
861	0	0.0637838
862	0	0.264994
863	0	0.264882
864	0	0.262598
865	0	0.127273
866	0	0.127273
867	0	0.391918
868	0	0.384303
869	0	0.243186
870	0	0.395692
871	0	0.393677
872	0	0.400896
873	0	0.401222
874	0	0.142857
875	0	0.142857
876	0	0.142857
877	0	0.142857
878	0	0.0714286
879	0	0.1
880	0	0.1
881	0	0.1
882	0	0.1
883	0	0.1
884	0	0.1
885	0	0.1
886	0	0.1
887	0	0.1
888	0	0.1
889	0	0.1
890	0	0.1
891	0	0.1
892	0	0.1
893	0	0.0666667
894	0	0.0666667
895	0	0.1
896	0	0.1
897	0	0.1
898	0	0.1
899	0	0.1
900	0	0.1
901	0	0
902	0	0
903	0	0
904	0	0
905	0	0
906	0	0
907	0	0
908	0	0
909	0	0
910	0	0
911	0	0
912	0	0
913	0	0
914	0	0
915	0	0
916	0	0
917	0	0.439736
918	0	0.437235
919	0	0.445763
920	0	0.0689655
921	0	0.0850575
922	0	0.0896552
923	0	0.429011
924	0	0.419414
925	0	0.421271
926	0	0.2
927	0	0.2
928	0	0.2
929	0	0.2
930	0	0.2
931	0	0.2
932	0	0.2
933	0	0.2
934	0	0.2
935	0	0.2
936	0	0.2
937	0	0.2
938	0	0.2
939	0	0.142857
940	0	0.608655
941	0	0.100629
942	0	0.0967532
943	0	0.455464
944	0	0.261115
945	0	0.418263
946	0	0
947	0	0.0727273
948	0	0.0806452
949	0	0.292308
950	0	0.232386
951	0	0.307765
952	0	0.388819
953	0	0.253111
954	0	0.696629
955	0	0.699488
956	0	0.702514
957	0	0.166667
958	0	0.166667
959	0	0.166667
960	0	0.166667
961	0	0.166667
962	0	0.166667
963	0	0.1
964	0	0.3
965	0	0.575
966	0	0.558333
967	0	0.795322
968	0	0.805263
969	0	0.74026
970	0	0.865133
971	0	0.466667
972	0	0.466667
973	0	0.3
974	0	0
975	0	0
976	0	0.333333
977	0	0.333333
978	0	0
979	0	0
980	0	0
981	0	0
982	0	0.509091
983	0	0
984	0	0
985	0	0
986	0	0
987	0	0
988	0	0
989	0	0
990	0	0
991	0	0
992	0	0.1
993	0	0.1
994	0	0.1
995	0	0.3
996	0	0.3
997	0	0.190476
998	0	0.138889
999	0	0.266667
1000	0	0.238095
1001	0	0.333333
1002	0	0.392857
1003	0	0.194444
1004	0	0.545455
1005	0	0.645378
1006	0	0.95
1007	0	1
1008	0	0.953501
1009	0	0.917639
1010	0	0.994329
1011	0	0.996232
1012	0	0.996232
1013	0	0.996232
1014	0	0.996235
1015	0	0.996235
1016	0	0.996235
1017	0	0.996235
1018	0	0.994366
1019	0	0.994366
1020	0	0.994371
1021	0	0.994371
1022	0	0.996246
1023	0	0.998117
1024	0	0.998117
1025	0	0.998117
1026	0	0.998117
1027	0	0.996239
1028	0	0.994366
1029	0	0.994366
1030	0	0.994366
1031	0	0.992499
1032	0	0.994371
1033	0	0.994371
1034	0	0.994371
1035	0	0.994371
1036	0	0.994371
1037	0	0.994371
1038	0	0.992506
1039	0	0.862434
1040	0	0.939645
1041	0	0.666667
1042	0	0.666667
1043	0	0.904324
1044	0	0.381818
1045	0	0.454545
1046	0	0.518244
1047	0	0.480778
1048	0	0.524638
1049	0	0.990651
1050	0	0.990651
1051	0	0.988785
1052	0	0.988785
1053	0	0.990642
1054	0	0.992492
1055	0	0.992508
1056	0	0.994377
1057	0	0.996249
1058	0	0.996249
1059	0	0.996249
1060	0	0.994377
1061	0	0.994384
1062	0	0.985085
1063	0	0.98332
1064	0	0.98332
1065	0	0.988823
1066	0	0.990698
1067	0	0.992582
1068	0	0.994439
1069	0	0
1070	0	0.99078
1071	0	0.99446
1072	0	0.99446
1073	0	0.992617
1074	0	0.992617
1075	0	0.992617
1076	0	0.6
1077	0	0.190476
1078	0	0.978011
1079	0	0
1080	0	0.333333
1081	0	0.333333
1082	0	0
1083	0	0
1084	0	0
1085	0	0.333333
1086	0	0.333333
1087	0	0.333333
1088	0	0.75
1089	0	0.877016
1090	0	0.460526
1091	0	0.442396
1092	0	0.442396
1093	0	0.454173
1094	0	0.454173
1095	0	0.44086
1096	0	0.44086
1097	0	0.427083
1098	0	0.529538
1099	0	0.375326
1100	0	0.356637
1101	0	0.36223
1102	0	0
1103	0	0
1104	0	0
1105	0	0
1106	0	0
1107	0	0
1108	0	0
1109	0	0
1110	0	0
1111	0	0
1112	0	0
1113	0	0
1114	0	0
1115	0	0
1116	0	0
1117	0	0
1118	0	0
1119	0	0
1120	0	0
1121	0	0
1122	0	0
1123	0	0.435341
1124	0	0.269841
1125	0	0.405295
1126	0	0.75
1127	0	0.194444
1128	0	0.169231
1129	0	0.137566
1130	0	0.358258
1131	0	0
1132	0	1
1133	0	1
1134	0	0.457846
1135	0	0.301201
1136	0	0.932242
1137	0	0.333333
1138	0	0.333333
1139	0	0.333333
1140	0	0.333333
1141	0	0.333333
1142	0	0.333333
1143	0	0.333333
1144	0	0.333333
1145	0	0.333333
1146	0	0.333333
1147	0	0.333333
1148	0	0.333333
1149	0	0.333333
1150	0	0.333333
1151	0	0.977427
1152	0	0.19697
1153	0	0.277778
1154	0	0.428571
1155	0	1
1156	0	1
1157	0	0.998152
1158	0	0.998152
1159	0	0.998152
1160	0	0.998152
1161	0	0.998152
1162	0	0.998153
1163	0	0.998153
1164	0	0.998153
1165	0	0.998153
1166	0	0.998153
1167	0	0.998155
1168	0	0.998155
1169	0	0.998155
1170	0	0.998155
1171	0	0.998155
1172	0	0.996318
1173	0	0.998157
1174	0	0.998157
1175	0	0
1176	1	0
1177	1	0
1178	1	0
1179	1	0
1180	1	0
1181	1	0
1182	1	0
1183	1	0
1184	1	0
1185	1	0
1186	1	0
1187	1	0
1188	1	0
1189	1	0
1190	1	0
1191	1	0
1192	1	0
1193	1	0
1194	0	0.996315
1195	0	0.998157
1196	0	0.998158
1197	0	0.998158
1198	0	0.998158
1199	0	0.998158
1200	0	0.998158
1201	0	0.998158
1202	0	0.998157
1203	0	0.998158
1204	0	0.998158
1205	0	0.998157
1206	0	0.998157
1207	0	0.998157
1208	0	0.998157
1209	0	0.998157
1210	0	0.998157
1211	0	0.998157
1212	0	0.998157
1213	0	0.901918
1214	0	0.996122
1215	0	0
1216	0	0
1217	0	0
1218	0	0.998157
1219	0	0.998155
1220	0	0.998155
1221	0	0
1222	0	0
1223	1	0
1224	1	0
1225	1	0
1226	1	0
1227	1	0
1228	1	0
1229	1	0
1230	1	0
1231	1	0
1232	1	0
1233	1	0
1234	0	0
1235	0	0
1236	0	0
1237	0	0
1238	0	0
1239	0	0
1240	0	0.998163
1241	0	0.998163
1242	0	1
1243	0	1
1244	0	1
1245	0	0.998165
1246	0	0.998165
1247	0	0.998165
1248	0	0.998165
1249	0	0.998165
1250	0	0.998165
1251	0	0.998165
1252	0	0.998165
1253	0	0.998165
1254	0	0.99633
1255	0	0.992679
1256	0	1
1257	0	0.998168
1258	0	0.998168
1259	0	0.99817
1260	0	0.99817
1261	0	0.99817
1262	0	0.99817
1263	1	1
1264	1	1
1265	1	1
1266	1	1
1267	1	1
1268	1	1
1269	0	1
1270	0	1
1271	0	0
1272	0	0
1273	0	0
1274	1	0
1275	0	0.996342
1276	0	0.996342
1277	0	0.989063
1278	0	0.990884
1279	1	1
1280	1	1
1281	1	1
1282	1	1
1283	1	1
1284	1	1
1285	1	1
1286	1	1
1287	1	1
1288	1	1
1289	1	1
1290	0	1
1291	0	1
1292	0	0.996347
1293	0	1
1294	0	1
1295	0	1
1296	0	1
1297	0	1
1298	0	1
1299	0	1
1300	0	1
1301	0	1
1302	0	1
1303	0	0.990868
1304	0	0.989053
1305	0	0.998168
1306	0	0.996339
1307	0	0.996339
1308	0	0.998168
1309	0	1
1310	0	1
1311	0	1
1312	0	1
1313	0	1
1314	0	1
1315	0	1
1316	0	1
1317	0	1
1318	0	1
1319	1	1
1320	1	1
1321	1	1
1322	1	1
1323	1	1
1324	1	1
1325	1	1
1326	1	1
1327	1	1
1328	1	1
1329	1	1
1330	1	1
1331	1	1
1332	1	1
1333	1	1
1334	1	1
1335	1	1
1336	1	1
1337	1	1
1338	0	1
1339	0	0.4
1340	0	0.4
1341	0	0.992689
1342	0	0.991978
1343	0	0.991763
1344	0	0.466667
1345	0	0.466667
1346	1	1
1347	1	1
1348	0	0.799659
1349	0	0.761767
1350	0	0.994502
1351	0	0.994512
1352	0	0.994512
1353	0	0.333333
1354	0	0.992681
1355	0	0.992681
1356	0	0.996337
1357	1	1
1358	0	1
1359	0	0.996339
1360	0	0.996339
1361	0	0.996339
1362	0	0.996339
1363	0	0.976414
1364	0	1
1365	0	0.714286
1366	0	0.714286
1367	0	0.285714
1368	0	0.333333
1369	0	0.466667
1370	0	0.466667
1371	0	0.466667
1372	0	0.4
1373	0	0.2
1374	0	0.133333
1375	0	0.0952381
1376	0	0.0714286
1377	0	0.0714286
1378	0	0.0357143
1379	0	0.0357143
1380	0	0.0555556
1381	0	0.155556
1382	0	0.155556
1383	0	0.290909
1384	0	0.309091
1385	0	0.439394
1386	0	0.987114
1387	0	0.6
1388	0	0.996305
1389	0	0.996301
1390	0	0.99815
1391	0	0.996305
1392	0	1
1393	0	0.988952
1394	0	0.988952
1395	0	0.988962
1396	0	0.987138
1397	0	0.987131
1398	0	0.858535
1399	0	0.626366
1400	1	0
1401	1	0
1402	0	0.800357
1403	0	0.866995
1404	0	0.866995
1405	0	0.595111
1406	0	0.996295
1407	0	0.996295
1408	0	0.996305
1409	0	0.996305
1410	0	0.996305
1411	0	0.996305
1412	0	0.996305
1413	0	0.996305
1414	0	0.996305
1415	0	0.996298
1416	0	0.996298
1417	0	0.996298
1418	0	0.996295
1419	0	0.996295
1420	0	0.99445
1421	0	0.99445
1422	0	0.99445
1423	0	0.99445
1424	0	0.954615
1425	0	0.490909
1426	0	0.983405
1427	0	0
1428	0	0
1429	0	0.795322
1430	0	0.795322
1431	0	0.795322
1432	0	0.795322
1433	0	0.795322
1434	0	0.431746
1435	0	0.431746
1436	0	0.407937
1437	0	0.366999
1438	0	0.366999
1439	0	0.915565
1440	0	0.622222
1441	0	0.622222
1442	0	0.59955
1443	0	0.583333
1444	0	0.466667
1445	0	0.466667
1446	0	0.416667
1447	0	0.290909
1448	0	0.601043
1449	0	0.688942
1450	0	0.278003
1451	0	0.275304
1452	0	0.275304
1453	0	0.275304
1454	0	0.256046
1455	0	0.256046
1456	0	0.202429
1457	0	0.182186
1458	0	0.168691
1459	0	0.104533
1460	0	0.0962072
1461	0	0.0629252
1462	0	0.0573295
1463	0	0.0451178
1464	0	0.0402597
1465	0	0.0537084
1466	0	0.454522
1467	0	0.45073
1468	0	0.447983
1469	0	0.285714
1470	0	0.285714
1471	0	0.08
1472	0	0.0738462
1473	0	0.08
1474	0	0.08
1475	0	0.06
1476	0	0.06
1477	0	0.05
1478	0	0.0646154
1479	0	0.0646154
1480	0	0.048433
1481	0	0.0394089
1482	0	0.046798
1483	0	0.030303
1484	0	0.0268908
1485	0	0.459009
1486	0	0.426877
1487	0	0.26087
1488	0	0.094135
1489	0	0.174659
1490	0	0.482999
1491	0	0
1492	0	0
1493	0	0
1494	0	0
1495	0	0
1496	0	0.181965
1497	0	0.230124
1498	0	0.212076
1499	0	0.208953
1500	0	0.260981
1501	0	0.110615
1502	0	0.103431
1503	0	0.104707
1504	0	0.10226
1505	0	0.0798771
1506	0	0.0694915
1507	0	0.0655738
1508	0	0.0406386
1509	0	0.0239478
1510	0	0.0261248
1511	0	0.0799495
1512	0	0.108861
1513	0	0.0934276
1514	0	0.114451
1515	0	0.0731008
1516	0	0.165584
1517	0	0.00923077
1518	0	0.0118577
1519	0	0.012987
1520	0	0.0105263
1521	0	0.0105263
1522	0	0.0116959
1523	0	0.0116959
1524	0	0.0116959
1525	0	0.0116959
1526	0	0.00584795
1527	0	0.00584795
1528	0	0.0130719
1529	0	0.0157895
1530	0	0.0157895
1531	0	0.0263158
1532	0	0.0210526
1533	0	0.0401691
1534	0	0.0317125
1535	0	0.0545073
1536	0	0.317389
1537	0	0.218323
1538	0	0
1539	0	0
1540	0	0.235001
1541	0	0.235001
1542	0	0.230815
1543	0	0.230417
1544	0	0.233539
1545	0	0.227958
1546	0	0.227493
1547	0	0.224828
1548	0	0.211111
1549	0	0.202071
1550	0	0.15256
1551	0	0.14867
1552	0	0.0124777
1553	0	0.0124777
1554	0	0.00900901
1555	0	0.0126984
1556	0	0.0111111
1557	0	0.0111111
1558	0	0.00404858
1559	0	0.010453
1560	0	0.012685
1561	0	0.169925
1562	0	0.615725
1563	0	0.615725
1564	0	0.615725
1565	0	0.615725
1566	0	0.587738
1567	0	0.509091
1568	0	0.163335
1569	0	0.172871
1570	0	0.0584102
1571	0	0.0593816
1572	0	0.180189
1573	0	0.00952381
1574	0	0.0190476
1575	0	0.021978
1576	0	0.010989
1577	0	0.00952381
1578	0	0.0190476
1579	0	0.021978
1580	0	0.025641
1581	0	0.025641
1582	0	0.025641
1583	0	0.025641
1584	0	0
1585	0	0
1586	0	0
1587	0	0
1588	0	0
1589	0	0.0128205
1590	0	0.00952381
1591	0	0
1592	0	0.00952381
1593	0	0.0166667
1594	0	0.00833333
1595	0	0.246506
1596	0	0.216077
1597	0	0.027668
1598	0	0.027668
1599	0	0.0298368
1600	0	0.0317308
1601	0	0.13793
1602	0	0.0277778
1603	0	0.0357143
1604	0	0.047619
1605	0	0.047619
1606	0	0.047619
1607	0	0.047619
1608	0	0.047619
1609	0	0.047619
1610	0	0.047619
1611	0	0.047619
1612	0	0.047619
1613	0	0.0277778
1614	0	0.0277778
1615	0	0
1616	0	0
1617	0	0
1618	0	0
1619	0	0
1620	0	0
1621	0	0
1622	0	0
1623	0	0
1624	0	0
1625	0	0
1626	0	0
1627	0	0
1628	0	0
1629	0	0
1630	0	0
1631	0	0
1632	0	0
1633	0	0
1634	0	0
1635	0	0.277778
1636	0	0.277778
1637	0	0.277778
1638	0	0.277778
1639	0	0.277778
1640	0	0.277778
1641	0	0.277778
1642	0	0.277778
1643	0	0.277778
1644	0	0.277778
1645	0	0.277778
1646	0	0.149478
1647	0	0.115252
1648	0	0.164307
1649	0	0.0395257
1650	0	0.047619
1651	0	0.0333333
1652	0	0.0380952
1653	0	0.0222222
1654	0	0.0222222
1655	0	0
1656	0	0
1657	0	0
1658	0	0
1659	0	0
1660	0	0
1661	0	0
1662	0	0
1663	0	0
1664	0	0
1665	0	0
1666	0	0
1667	0	0
1668	0	0
1669	0	0
1670	0	0
1671	0	0
1672	0	0
1673	0	0
1674	0	0
1675	0	0
1676	0	0
1677	0	0
1678	0	0
1679	0	0
1680	0	0
1681	0	0
1682	0	0
1683	0	0
1684	0	0
1685	0	0
1686	0	0
1687	0	0
1688	0	0
1689	0	0
1690	0	0
1691	0	0
1692	0	0
1693	0	0
1694	0	0
1695	0	0
1696	0	0
1697	0	0
1698	0	0
1699	0	0
1700	0	0
1701	0	0
1702	0	0
1703	0	0
1704	0	0
1705	0	0
1706	0	0
1707	0	0.0606061
1708	0	0.358966
1709	0	0
1710	0	0
1711	0	0
1712	0	0
1713	0	0
1714	0	0
1715	0	0
1716	0	0
1717	0	0
1718	0	0
1719	0	0
1720	0	0
1721	0	0
1722	0	0
1723	0	0
1724	0	0
1725	0	0
1726	0	0
1727	0	0
1728	0	0
1729	0	0
1730	0	0
1731	0	0
1732	0	0
1733	0	0
1734	0	0
1735	0	0
1736	0	0
1737	0	0
1738	0	0
1739	0	0
1740	0	0
1741	0	0
1742	0	0
1743	0	0
1744	0	0
1745	0	0
1746	0	0
1747	0	0
1748	0	0
1749	0	0
1750	0	0
1751	0	0
1752	0	0
1753	0	0
1754	0	0
1755	0	0
1756	0	0
1757	0	0
1758	0	0
1759	0	0
1760	0	0
1761	0	0
1762	0	0
1763	0	0
1764	0	0
1765	0	0
1766	0	0
1767	0	0
1768	0	0
1769	0	0
1770	0	0
1771	0	0
1772	0	0
1773	0	0
1774	0	0
1775	0	0
1776	0	0
1777	0	0
1778	0	0
1779	0	0
1780	0	0
1781	0	0
1782	0	0
1783	0	0
1784	0	0
1785	0	0
1786	0	0
1787	0	0
1788	0	0
1789	0	0
1790	0	0
1791	0	0
1792	0	0
1793	0	0
1794	0	0
1795	0	0
1796	0	0
1797	0	0
1798	0	0
1799	0	0
1800	0	0
1801	0	0
1802	0	0
1803	0	0
1804	0	0
1805	0	0
1806	0	0
1807	0	0
1808	0	0
1809	0	0
1810	0	0
1811	0	0
1812	0	0
1813	0	0
1814	0	0
1815	0	0
1816	0	0
1817	0	0
1818	0	0
1819	0	0
1820	0	0
1821	0	0
1822	0	0
1823	0	0
1824	0	0
1825	0	0
1826	0	0
1827	1	0
1828	1	0
1829	1	0
1830	1	0
1831	1	0
1832	1	0
1833	1	0
1834	1	0
1835	1	0
1836	1	0
1837	1	0
1838	1	0
1839	1	0
1840	1	0
1841	1	0
1842	1	0
1843	1	0
1844	1	0
1845	0	0
1846	0	0
1847	0	0
1848	0	0
1849	0	0
1850	0	0
1851	0	0
1852	0	0
1853	0	0
1854	0	0
1855	0	0
1856	0	0
1857	0	0
1858	0	0
1859	0	0
1860	0	0
1861	0	0
1862	0	0
1863	0	0
1864	0	0
1865	0	0
1866	0	0
1867	0	0
1868	0	0
1869	0	0
1870	0	0
1871	0	0
1872	0	0
1873	0	0
1874	0	0
1875	0	0
1876	0	0
1877	0	0
1878	0	0
1879	0	0
1880	0	0
1881	0	0
1882	0	0
1883	0	0
1884	0	0
1885	0	0
1886	0	0
1887	0	0
1888	0	0
1889	0	0
1890	0	0
1891	0	0
1892	0	0
1893	0	0.340506
1894	0	0.0367647
1895	0	0.0367647
1896	0	0.0367647
1897	0	0.0333333
1898	0	0.049903
1899	0	0
1900	0	0
1901	0	0
1902	0	0
1903	0	0
1904	0	0
1905	0	0.553623
1906	0	0.578788
1907	0	0.172277
1908	0	0.172277
1909	0	0.0448662
1910	0	0.0421337
1911	0	0.0475425
1912	0	0
1913	0	0
1914	0	0
1915	0	0
1916	0	0.035144
1917	0	0.0302259
1918	0	0.0234415
1919	0	0.0189971
1920	0	0.0245842
1921	0	0
1922	0	0
1923	0	0.066307
1924	0	0.0217391
1925	0	0.0181159
1926	0	0.0134995
1927	0	0.0142835
1928	0	0
1929	0	0
1930	0	0.015978
1931	0	0
1932	0	0
1933	0	0.0148601
1934	0	0.118052
1935	0	0.0175439
1936	0	0.0175439
1937	0	0.0190476
1938	0	0.0157895
1939	0	0.0157895
1940	0	0.0157895
1941	0	0.0175439
1942	0	0.0175439
1943	0	0.0175439
1944	0	0.017316
1945	0	0.0221674
1946	0	0.221244
1947	0	0.224788
1948	0	0
1949	0	0
1950	0	0
1951	0	0
1952	0	0
1953	0	0
1954	0	0
1955	0	0
1956	0	0
1957	0	0
1958	0	0
1959	0	0
1960	0	0
1961	0	0
1962	0	0
1963	0	0
1964	0	0
1965	0	0
1966	0	0
1967	0	0
1968	0	0
1969	0	0
1970	0	0
1971	0	0
1972	0	0
1973	0	0
1974	0	0
1975	0	0
1976	0	0
1977	0	0
1978	0	0
1979	0	0
1980	0	0
1981	0	0
1982	0	0
1983	0	0
1984	0	0
1985	0	0
1986	0	0
1987	0	0
1988	0	0
1989	0	0
1990	0	0
1991	0	0
1992	0	0
1993	0	0
1994	0	0
1995	0	0
1996	0	0
1997	0	0
1998	0	0
1999	0	0
2000	0	0
2001	0	0
2002	0	0
2003	0	0
2004	0	0
2005	0	0
2006	0	0
2007	0	0
2008	0	0
2009	0	0
2010	0	0
2011	0	0
2012	0	0
2013	0	0
2014	0	0
2015	0	0
2016	0	0
2017	0	0
2018	0	0
2019	0	0
2020	0	0
2021	0	0
2022	0	0
2023	0	0
2024	0	0
2025	0	0
2026	0	0
2027	0	0
2028	0	0.0842105
2029	0	0.0343883
2030	0	0.0363118
2031	0	0.0399057
2032	0	0.0417897
2033	0	0.0489718
2034	0	0.052093
2035	0	0.0727603
2036	0	0.0765633
2037	0	0.0621817
2038	0	0.0799534
2039	0	0.085612
2040	0	0.123411
2041	0	0.128636
2042	0	0.105953
2043	0	0.119481
2044	0	0.119435
2045	0	0.120182
2046	0	0.112839
2047	0	0.093961
2048	0	0.0943968
2049	0	0.120453
2050	0	0.281686
2051	0	0.283072
2052	0	0.348174
2053	0	0.348174
2054	0	0.103782
2055	0	0.10128
2056	0	0.264294
2057	0	0.263008
2058	0	0.0533333
2059	0	0.0724638
2060	0	0.0724638
2061	0	0.0790514
2062	0	0.0822511
2063	0	0.0661765
2064	0	0.0761905
2065	0	0.0761905
2066	0	0.0661765
2067	0	0.0363636
2068	0	0
2069	0	0.047619
2070	0	0.115436
2071	0	0.119887
2072	0	0.113037
2073	0	0.128855
2074	0	0.142386
2075	0	0.160773
2076	0	0.165239
2077	0	0.185968
2078	0	0.200521
2079	0	0.226107
2080	0	0.245636
2081	0	0.28927
2082	0	0.298801
2083	0	0.173085
2084	0	0.094686
2085	0	0.0384068
2086	0	0.0266667
2087	0	0.0190476
2088	0	0.0175439
2089	0	0.0220588
2090	0	0.021978
2091	0	0.025641
2092	0	0.030303
2093	0	0.030303
2094	0	0.030303
2095	0	0.030303
2096	0	0.030303
2097	0	0.025641
2098	0	0.025641
2099	0	0.0181818
2100	0	0.0222222
2101	0	0.0222222
2102	0	0.0277778
2103	0	0.0277778
2104	0	0.0277778
2105	0	0.0277778
2106	0	0.0277778
2107	0	0.0277778
2108	0	0.0277778
2109	0	0.0222222
2110	0	0.0222222
2111	0	0.0222222
2112	0	0.0222222
2113	0	0.0222222
2114	0	0.0277778
2115	0	0.0357143
2116	0	0.0357143
2117	0	0.0357143
2118	0	0.0357143
2119	0	0.0357143
2120	0	0.0357143
2121	0	0.0357143
2122	0	0.0357143
2123	0	0.0357143
2124	0	0.0357143
2125	0	0.0357143
2126	0	0.0357143
2127	0	0.0357143
2128	0	0.0357143
2129	0	0.0357143
2130	0	0.0357143
2131	0	0.0357143
2132	0	0.0357143
2133	0	0.0357143
2134	0	0.0277778
2135	0	0.0277778
2136	0	0.0277778
2137	0	0.0277778
2138	0	0.0277778
2139	0	0.0277778
2140	0	0.0277778
2141	0	0.0277778
2142	0	0.0277778
2143	0	0.047619
2144	0	0.047619
2145	0	0.047619
2146	0	0.047619
2147	0	0.047619
2148	0	0.047619
2149	0	0.047619
2150	0	0.047619
2151	0	0.047619
2152	0	0.047619
2153	0	0.047619
2154	0	0.047619
2155	0	0.047619
2156	0	0.047619
2157	0	0.047619
2158	0	0.047619
2159	0	0.047619
2160	0	0.047619
2161	0	0.047619
2162	0	0.047619
2163	0	0.047619
2164	0	0.047619
2165	0	0.047619
2166	0	0.047619
2167	0	0.047619
2168	0	0.047619
2169	0	0.047619
2170	0	0.047619
2171	0	0.807681
2172	0	0.652844
2173	0	0.548283
2174	0	0.619103
2175	0	0.592931
2176	0	0.360434
2177	0	0.245192
2178	0	0.367021
2179	0	0.206452
2180	0	0.216092
2181	0	0.264957
2182	0	0.306667
2183	0	0
2184	0	0
2185	0	0
2186	0	0
2187	0	0
2188	0	0
2189	0	0
2190	0	0
2191	0	0
2192	0	0
2193	0	0
2194	0	0
2195	0	0
2196	0	0
2197	0	0
2198	0	0
2199	0	0
2200	0	0
2201	0	0
2202	0	0
2203	0	0
2204	0	0
2205	0	0
2206	0	0
2207	0	0
2208	0	0
2209	0	0
2210	0	0
2211	0	0
2212	0	0
2213	0	0
2214	0	0
2215	0	0
2216	0	0
2217	0	0
2218	0	0
2219	0	0
2220	0	0
2221	0	0
2222	0	0
2223	0	0
2224	0	0
2225	0	0
2226	0	0
2227	0	0
2228	0	0
2229	0	0
2230	0	0
2231	0	0
2232	0	0
2233	0	0
2234	0	0
2235	0	0
2236	0	0
2237	0	0
2238	0	0
2239	0	0
2240	0	0
2241	0	0
2242	0	0
2243	0	0
2244	0	0
2245	0	0
2246	0	0
2247	0	0
2248	0	0
2249	0	0
2250	0	0
2251	0	0
2252	0	0
2253	0	0
2254	0	0
2255	0	0
2256	0	0
2257	0	0
2258	0	0
2259	0	0
2260	0	0
2261	0	0
2262	0	0
2263	0	0
2264	0	0
2265	0	0
2266	0	0
2267	0	0
2268	0	0
2269	0	0
2270	0	0
2271	0	0
2272	0	0
2273	0	0
2274	0	0
2275	0	0
2276	0	0
2277	0	0
2278	0	0
2279	0	0
2280	0	0
2281	0	0
2282	0	0
2283	0	0
2284	0	0
2285	0	0
2286	0	0
2287	0	0
2288	0	0
2289	0	0
2290	0	0
2291	0	0
2292	0	0
2293	0	0
2294	0	0
2295	0	0
2296	0	0
2297	0	0
2298	0	0
2299	0	0
2300	0	0
2301	0	0
2302	0	0
2303	0	0
2304	0	0
2305	0	0
2306	0	0
2307	0	0
2308	0	0
2309	0	0
2310	0	0
2311	0	0
2312	0	0
2313	0	0
2314	0	0
2315	0	0
2316	0	0
2317	0	0
2318	0	0
2319	0	0
2320	0	0
2321	0	0
2322	0	0
2323	0	0
2324	0	0
2325	0	0
2326	0	0
2327	0	0
2328	0	0
2329	0	0
2330	0	0
2331	0	0
2332	0	0
2333	0	0
2334	0	0
2335	0	0
2336	0	0
2337	0	0
2338	0	0
2339	0	0
2340	0	0
2341	0	0
2342	0	0
2343	0	0
2344	0	0
2345	0	0
2346	0	0
2347	0	0
2348	0	0
2349	0	0
2350	0	0
2351	0	0
2352	0	0
2353	0	0
2354	0	0
2355	0	0
2356	0	0
2357	0	0
2358	0	0
2359	0	0
2360	0	0
2361	0	0
2362	0	0
2363	0	0
2364	0	0
2365	0	0
2366	0	0
2367	0	0
2368	0	0
2369	0	0
2370	0	0
2371	0	0
2372	0	0
2373	0	0
2374	0	0
2375	0	0
2376	0	0
2377	0	0
2378	0	0
2379	0	0
2380	0	0
2381	0	0
2382	0	0
2383	0	0
2384	0	0
2385	0	0
2386	0	0
2387	0	0
2388	0	0
2389	0	0
2390	0	0
2391	0	0
2392	0	0
2393	0	0
2394	0	0
2395	0	0
2396	0	0
2397	0	0
2398	0	0
2399	0	0
2400	0	0
2401	0	0
2402	0	0
2403	0	0
2404	0	0
2405	0	0
2406	0	0
2407	0	0
2408	0	0
2409	0	0
2410	0	0
2411	0	0
2412	0	0
2413	0	0
2414	0	0
2415	0	0
2416	0	0
2417	0	0
2418	0	0
2419	0	0
2420	0	0
2421	0	0
2422	0	0
2423	0	0
2424	0	0
2425	0	0
2426	0	0
2427	0	0
2428	0	0
2429	0	0
2430	0	0
2431	0	0
2432	0	0
2433	0	0
2434	0	0
2435	0	0
2436	0	0
2437	0	0
2438	0	0
2439	0	0
2440	0	0
2441	0	0
2442	0	0
2443	0	0
2444	0	0
2445	0	0
2446	0	0
2447	0	0
2448	0	0
2449	0	0
2450	0	0
2451	0	0
2452	0	0
2453	0	0
2454	0	0
2455	0	0
2456	0	0
2457	0	0
2458	0	0
2459	0	0
2460	0	0
2461	0	0
2462	0	0
2463	0	0
2464	0	0
2465	0	0
2466	0	0
2467	0	0
2468	0	0
2469	0	0
2470	0	0
2471	1	0
2472	1	0
2473	1	0
2474	1	0
2475	1	0
2476	1	0
2477	1	0
2478	1	0
2479	1	0
2480	1	0
2481	1	0
2482	1	0
2483	1	0
2484	1	0
2485	1	0
2486	1	0
2487	1	0
2488	1	0
2489	1	0
2490	1	0
2491	1	0
2492	1	0
2493	1	0
2494	1	0
2495	1	0
2496	1	0
2497	1	0
2498	1	0
2499	1	0
2500	1	0
2501	1	0
2502	1	0
2503	1	0
2504	1	0
2505	1	0
2506	1	0
2507	1	0
2508	1	0
2509	1	0
2510	1	0
2511	1	0
2512	1	0
2513	1	0
2514	1	0
2515	1	0
2516	1	0
2517	1	0
2518	1	0
2519	1	0
