Site	ColumnScore	SumOfPairsScore
1	1	0
2	1	0
3	1	0
4	1	0
5	1	0
6	1	0
7	1	0
8	1	0
9	1	0
10	1	0
11	1	0
12	1	0
13	1	0
14	1	0
15	1	0
16	1	0
17	1	0
18	1	0
19	1	0
20	1	0
21	1	0
22	1	0
23	1	0
24	1	0
25	1	0
26	1	0
27	1	0
28	1	0
29	1	0
30	1	0
31	1	0
32	1	0
33	1	0
34	1	0
35	1	0
36	1	0
37	1	0
38	1	0
39	1	0
40	1	0
41	1	0
42	1	0
43	1	0
44	1	0
45	1	0
46	1	0
47	1	0
48	1	0
49	1	0
50	1	0
51	1	0
52	1	0
53	1	0
54	1	0
55	1	0
56	1	0
57	1	0
58	1	0
59	1	0
60	1	0
61	1	0
62	1	0
63	1	0
64	1	0
65	1	0
66	1	0
67	1	0
68	1	0
69	1	0
70	1	0
71	1	0
72	1	0
73	1	0
74	1	0
75	1	0
76	1	0
77	1	0
78	1	0
79	1	0
80	1	0
81	1	0
82	1	0
83	1	0
84	1	0
85	1	0
86	1	0
87	1	0
88	1	0
89	1	0
90	1	0
91	1	0
92	1	0
93	1	0
94	1	0
95	1	0
96	1	0
97	1	0
98	1	0
99	1	0
100	1	0
101	1	0
102	1	0
103	1	0
104	1	0
105	1	0
106	1	0
107	1	0
108	1	0
109	1	0
110	1	0
111	1	0
112	1	0
113	1	0
114	1	0
115	1	0
116	1	0
117	1	0
118	1	0
119	1	0
120	1	0
121	1	0
122	1	0
123	1	0
124	1	0
125	1	0
126	1	0
127	1	0
128	1	0
129	1	0
130	1	0
131	1	0
132	1	0
133	1	0
134	1	0
135	1	0
136	1	0
137	1	0
138	1	0
139	1	0
140	1	0
141	1	0
142	1	0
143	1	0
144	1	0
145	1	0
146	1	0
147	1	0
148	1	0
149	1	0
150	1	0
151	1	0
152	1	0
153	1	0
154	1	0
155	1	0
156	1	0
157	1	0
158	1	0
159	1	0
160	1	0
161	1	0
162	1	0
163	1	0
164	1	0
165	1	0
166	1	0
167	1	0
168	1	0
169	1	0
170	1	0
171	1	0
172	1	0
173	1	0
174	1	0
175	1	0
176	1	0
177	1	0
178	1	0
179	1	0
180	1	0
181	1	0
182	1	0
183	1	0
184	1	0
185	1	0
186	1	0
187	1	0
188	1	0
189	1	0
190	1	0
191	1	0
192	1	0
193	1	0
194	1	0
195	1	0
196	1	0
197	1	0
198	1	0
199	1	0
200	1	0
201	1	0
202	1	0
203	1	0
204	1	0
205	1	0
206	1	0
207	1	0
208	1	0
209	1	0
210	1	0
211	1	0
212	1	0
213	1	0
214	1	0
215	1	0
216	1	0
217	1	0
218	1	0
219	1	0
220	1	0
221	1	0
222	1	0
223	1	0
224	1	0
225	1	0
226	1	0
227	1	0
228	1	0
229	1	0
230	1	0
231	1	0
232	1	0
233	1	0
234	1	0
235	1	0
236	1	0
237	1	0
238	1	0
239	1	0
240	1	0
241	1	0
242	1	0
243	1	0
244	1	0
245	1	0
246	1	0
247	1	0
248	1	0
249	1	0
250	1	0
251	1	0
252	1	0
253	1	0
254	1	0
255	1	0
256	1	0
257	1	0
258	1	0
259	1	0
260	1	0
261	1	0
262	1	0
263	1	0
264	1	0
265	1	0
266	1	0
267	1	0
268	1	0
269	1	0
270	1	0
271	1	0
272	1	0
273	1	0
274	1	0
275	1	0
276	1	0
277	1	0
278	1	0
279	1	0
280	1	0
281	1	0
282	1	0
283	1	0
284	1	0
285	1	0
286	1	0
287	1	0
288	1	0
289	1	0
290	1	0
291	1	0
292	1	0
293	1	0
294	1	0
295	1	0
296	1	0
297	1	0
298	1	0
299	1	0
300	1	0
301	1	0
302	1	0
303	1	0
304	1	0
305	1	0
306	1	0
307	1	0
308	1	0
309	1	0
310	1	0
311	1	0
312	1	0
313	1	0
314	1	0
315	1	0
316	1	0
317	1	0
318	1	0
319	1	0
320	1	0
321	1	0
322	1	0
323	1	0
324	1	0
325	1	0
326	1	0
327	1	0
328	1	0
329	1	0
330	1	0
331	1	0
332	1	0
333	1	0
334	1	0
335	1	0
336	1	0
337	1	0
338	1	0
339	1	0
340	1	0
341	1	0
342	1	0
343	1	0
344	1	0
345	1	0
346	1	0
347	1	0
348	1	0
349	1	0
350	1	0
351	1	0
352	1	0
353	1	0
354	1	0
355	1	0
356	1	0
357	1	0
358	1	0
359	1	0
360	1	0
361	1	0
362	1	0
363	1	0
364	1	0
365	1	0
366	1	0
367	1	0
368	1	0
369	1	0
370	1	0
371	1	0
372	1	0
373	1	0
374	1	0
375	1	0
376	1	0
377	1	0
378	1	0
379	1	0
380	1	0
381	1	0
382	1	0
383	1	0
384	1	0
385	1	0
386	1	0
387	1	0
388	1	0
389	1	0
390	1	0
391	1	0
392	1	0
393	1	0
394	1	0
395	1	0
396	1	0
397	1	0
398	1	0
399	1	0
400	1	0
401	1	0
402	1	0
403	1	0
404	1	0
405	1	0
406	1	0
407	1	0
408	1	0
409	1	0
410	1	0
411	1	0
412	1	0
413	1	0
414	1	0
415	1	0
416	1	0
417	1	0
418	1	0
419	1	0
420	1	0
421	1	0
422	1	0
423	1	0
424	1	0
425	1	0
426	0	0
427	0	0
428	0	0
429	0	0
430	0	0
431	0	0
432	0	0
433	0	0
434	0	0
435	0	0
436	0	0
437	0	0
438	0	0
439	0	0
440	0	0
441	0	0
442	0	0
443	0	0
444	0	0
445	0	0
446	0	0
447	0	0
448	0	0
449	0	0
450	0	0
451	0	0
452	0	0
453	0	0
454	0	0
455	0	0
456	0	0
457	0	0
458	0	0
459	0	0
460	0	0
461	0	0
462	0	0
463	0	0
464	0	0
465	0	0
466	0	0
467	0	0
468	0	0
469	0	0
470	0	0
471	0	0
472	0	0
473	0	0
474	0	0
475	0	0
476	0	0
477	0	0
478	0	0
479	0	0
480	0	0
481	0	0
482	0	0
483	0	0
484	0	0
485	0	0
486	0	0
487	0	0
488	0	0
489	0	0
490	0	0
491	0	0
492	0	0
493	0	0
494	0	0
495	0	0
496	0	0
497	0	0
498	0	0
499	0	0
500	0	0
501	0	0
502	0	0
503	0	0
504	0	0
505	0	0
506	0	0
507	0	0
508	0	0
509	0	0
510	0	0
511	0	0
512	0	0
513	0	0
514	0	0
515	0	0
516	0	0
517	0	0
518	0	0
519	0	0
520	0	0
521	0	0
522	0	0
523	0	0
524	0	0
525	0	0
526	0	0
527	0	0
528	0	0
529	0	0
530	0	0
531	0	0
532	0	0
533	0	0
534	0	0
535	0	0
536	0	0
537	0	0
538	0	0
539	0	0
540	0	0
541	0	0
542	0	0
543	0	0
544	0	0
545	0	0
546	0	0
547	0	0
548	0	0
549	0	0
550	0	0
551	0	0
552	0	0
553	0	0
554	0	0
555	0	0
556	0	0
557	0	0
558	0	0
559	0	0
560	0	0
561	0	0
562	0	0
563	0	0
564	0	0
565	0	0
566	0	0
567	0	0
568	0	0
569	0	0
570	0	0
571	0	0
572	0	0
573	0	0
574	0	0
575	0	0
576	0	0
577	0	0
578	0	0
579	0	0
580	0	0
581	0	0
582	0	0
583	0	0
584	0	0
585	0	0
586	0	0
587	0	0
588	0	0
589	0	0
590	0	0
591	0	0
592	0	0.0666667
593	0	0.0666667
594	0	0.0666667
595	0	0.0666667
596	0	0
597	0	0
598	0	0
599	0	0
600	0	0
601	0	0
602	0	0
603	0	0
604	0	0
605	0	0
606	0	0
607	0	0
608	0	0
609	0	0
610	0	0
611	0	0
612	0	0
613	0	0
614	0	0
615	0	0
616	0	0
617	0	0
618	0	0
619	0	0
620	0	0
621	0	0
622	0	0
623	0	0
624	0	0
625	0	0
626	0	0
627	0	0
628	0	0
629	0	0
630	0	0
631	0	0
632	0	0
633	0	0
634	0	0
635	0	0
636	0	0
637	0	0
638	0	0
639	0	0
640	0	0
641	0	0
642	0	0
643	0	0
644	0	0
645	0	0
646	0	0
647	0	0
648	0	0
649	0	0
650	0	0
651	0	0
652	0	0
653	0	0
654	0	0
655	0	0
656	0	0
657	0	0
658	0	0
659	0	0
660	0	0
661	0	0
662	0	0
663	0	0
664	0	0
665	0	0
666	0	0
667	0	0
668	0	0
669	0	0
670	0	0
671	0	0
672	0	0
673	0	0
674	0	0
675	0	0
676	0	0
677	0	0
678	0	0
679	0	0
680	0	0
681	0	0
682	0	0
683	0	0
684	0	0
685	0	0
686	0	0
687	0	0
688	0	0
689	0	0
690	0	0
691	0	0
692	0	0
693	0	0
694	0	0
695	0	0
696	0	0
697	0	0
698	0	0
699	0	0
700	0	0
701	0	0
702	0	0
703	0	0
704	0	0
705	0	0
706	0	0
707	0	0
708	0	0
709	0	0
710	0	0
711	0	0
712	0	0
713	0	0
714	0	0
715	0	0
716	0	0
717	0	0
718	0	0.0357143
719	0	0.0357143
720	0	0.0357143
721	0	0.0357143
722	0	0.0357143
723	0	0
724	0	0
725	0	0
726	0	0
727	0	0
728	0	0
729	0	0
730	0	0
731	0	0
732	0	0
733	0	0
734	0	0
735	0	0
736	0	0
737	0	0
738	0	0
739	0	0
740	0	0
741	0	0
742	0	0
743	0	0
744	0	0
745	0	0
746	0	0
747	0	0
748	0	0
749	0	0
750	0	0
751	0	0
752	0	0
753	0	0
754	0	0
755	0	0
756	0	0
757	0	0
758	0	0
759	0	0
760	0	0
761	0	0
762	0	0
763	0	0
764	0	0
765	0	0
766	0	0
767	0	0
768	0	0
769	0	0
770	0	0
771	0	0
772	0	0
773	0	0
774	0	0
775	0	0
776	0	0
777	0	0
778	0	0
779	0	0
780	0	0
781	0	0
782	0	0
783	0	0
784	0	0
785	0	0
786	0	0
787	0	0
788	0	0.0151515
789	0	0.0151515
790	0	0.0151515
791	0	0.0151515
792	0	0.0151515
793	0	0.0151515
794	0	0.0151515
795	0	0.0151515
796	0	0.030303
797	0	0.030303
798	0	0.030303
799	0	0.030303
800	0	0.030303
801	0	0.030303
802	0	0.030303
803	0	0.030303
804	0	0.030303
805	0	0.030303
806	0	0.030303
807	0	0.030303
808	0	0.030303
809	0	0.030303
810	0	0.030303
811	0	0.030303
812	0	0.030303
813	0	0.030303
814	0	0.0181818
815	0	0.0181818
816	0	0.0181818
817	0	0.0512821
818	0	0.0512821
819	0	0
820	0	0
821	0	0
822	0	0
823	0	0
824	0	0
825	0	0
826	0	0
827	0	0
828	0	0
829	0	0
830	0	0
831	0	0
832	0	0
833	0	0
834	0	0
835	0	0
836	0	0
837	0	0
838	0	0
839	0	0
840	0	0
841	0	0
842	0	0
843	0	0
844	0	0
845	0	0
846	0	0
847	0	0
848	0	0
849	0	0
850	0	0
851	0	0
852	0	0
853	0	0
854	0	0
855	0	0
856	0	0
857	0	0
858	0	0
859	0	0
860	0	0
861	0	0
862	0	0
863	0	0
864	0	0
865	0	0
866	0	0
867	0	0
868	0	0
869	0	0
870	0	0
871	0	0
872	0	0
873	0	0
874	0	0
875	0	0
876	0	0
877	0	0
878	0	0
879	0	0
880	0	0
881	0	0
882	0	0
883	0	0.021978
884	0	0.0367647
885	0	0.0294118
886	0	0.0294118
887	0	0.0294118
888	0	0.0294118
889	0	0.0294118
890	0	0.0294118
891	0	0.0294118
892	0	0.0292398
893	0	0.0261438
894	0	0.0294118
895	0	0.0294118
896	0	0.0294118
897	0	0.0294118
898	0	0.0294118
899	0	0.0333333
900	0	0.0333333
901	0	0.0333333
902	0	0.0333333
903	0	0.0380952
904	0	0.043956
905	0	0.043956
906	0	0.043956
907	0	0.043956
908	0	0.043956
909	0	0.043956
910	0	0.043956
911	0	0.0512821
912	0	0.0512821
913	0	0.0512821
914	0	0.043956
915	0	0.043956
916	0	0.043956
917	0	0.0549451
918	0	0.0549451
919	0	0.0549451
920	0	0.0549451
921	0	0.0384615
922	0	0.0285714
923	0	0.0190476
924	0	0.0190476
925	0	0.0190476
926	0	0.0190476
927	0	0.0190476
928	0	0.025641
929	0	0.025641
930	0	0.025641
931	0	0.025641
932	0	0.0190476
933	0	0.0190476
934	0	0.0190476
935	0	0.025641
936	0	0.025641
937	0	0.025641
938	0	0.025641
939	0	0.025641
940	0	0.025641
941	0	0.025641
942	0	0.025641
943	0	0.021978
944	0	0.021978
945	0	0.021978
946	0	0.0190476
947	0	0.0166667
948	0	0.0166667
949	0	0.0166667
950	0	0.0333333
951	0	0.0367647
952	0	0.0367647
953	0	0.0367647
954	0	0.0326797
955	0	0.0326797
956	0	0.0292398
957	0	0.0210526
958	0	0.0210526
959	0	0.017316
960	0	0.0166667
961	0	0.02
962	0	0.0291005
963	0	0.030303
964	0	0.0252101
965	0	0.024024
966	0	0.0192308
967	0	0.013289
968	0	0.020202
969	0	0.0220408
970	0	0.0215488
971	0	0.0302579
972	0	0.0358056
973	0	0.0723562
974	0	0.0814016
975	0	0.0813439
976	0	0.0989863
977	0	0.0910446
978	0	0.104359
979	0	0.117286
980	0	0.122172
981	0	0.113623
982	0	0.107301
983	0	0.107812
984	0	0.113951
985	0	0.503852
986	0	0.522267
987	0	0.522267
988	0	0.522267
989	0	0.522267
990	0	0.556005
991	0	0.556005
992	0	0.556005
993	0	0.556005
994	0	0.556005
995	0	0.556005
996	0	0.556005
997	0	0.556005
998	0	0.556005
999	0	0.556005
1000	0	0.556005
1001	0	0.556005
1002	0	0.556005
1003	0	0.556005
1004	0	0.556005
1005	0	0.557355
1006	0	0.557355
1007	0	0.557355
1008	0	0.528749
1009	0	0.357143
1010	0	0.357143
1011	0	0.357143
1012	0	0.357143
1013	0	0.357143
1014	0	0.500891
1015	0	0.500891
1016	0	0.500891
1017	0	0.601282
1018	0	0.555925
1019	0	0.453906
1020	0	0.477243
1021	0	0.478314
1022	0	0.481256
1023	0	0.481256
1024	0	0.548327
1025	0	0
1026	0	0
1027	0	0
1028	0	0
1029	0	0
1030	0	0
1031	0	0
1032	0	0
1033	0	0
1034	0	0
1035	0	0
1036	0	0
1037	0	0
1038	0	0
1039	0	0
1040	0	0
1041	0	0
1042	0	0
1043	0	0
1044	0	0.285714
1045	0	0.4
1046	0	0.357143
1047	0	0.277778
1048	0	0.277778
1049	0	0
1050	0	0.333333
1051	0	0.5
1052	0	0.5
1053	0	0.3
1054	0	0.3
1055	0	0.4
1056	0	0.4
1057	0	0.583333
1058	0	0.583333
1059	0	0.583333
1060	0	0.583333
1061	0	0.439394
1062	0	0.577379
1063	0	0.128205
1064	0	0.128205
1065	0	0.136364
1066	0	0.136364
1067	0	0.136364
1068	0	0.136364
1069	0	0.136364
1070	0	0.106061
1071	0	0.0897436
1072	0	0.0879121
1073	0	0.0989011
1074	0	0.209524
1075	0	0.209524
1076	0	0.183333
1077	0	0.183333
1078	0	0.189542
1079	0	0.185771
1080	0	0.185771
1081	0	0.193676
1082	0	0.359788
1083	0	0.363441
1084	0	0.606061
1085	0	0.590476
1086	0	0.644518
1087	0	0.511628
1088	0	0.575393
1089	0	0.576431
1090	0	0.746104
1091	0	0.746104
1092	0	0.735577
1093	0	0.727568
1094	0	0.730526
1095	0	0.608044
1096	0	0.572203
1097	0	0.579693
1098	0	0.0277778
1099	0	0.622011
1100	0	0.0909091
1101	0	0.0909091
1102	0	0.619441
1103	0	0
1104	0	0
1105	0	0
1106	0	0
1107	0	0
1108	0	0
1109	0	0
1110	0	0
1111	0	0
1112	0	0
1113	0	0
1114	0	0
1115	0	0
1116	0	0
1117	0	0
1118	0	0
1119	0	0
1120	0	0
1121	0	0
1122	0	0
1123	0	0
1124	0	0
1125	0	0
1126	0	0
1127	0	0
1128	0	0
1129	0	0
1130	0	0
1131	0	0
1132	0	0
1133	0	0
1134	0	0
1135	0	0
1136	0	0
1137	0	0.938269
1138	0	0.142857
1139	0	0.142857
1140	0	0.2
1141	0	0.2
1142	0	0.2
1143	0	0.2
1144	0	0.2
1145	0	0.2
1146	0	0.2
1147	0	0.2
1148	0	0.3
1149	0	0.3
1150	0	0.5
1151	0	0.5
1152	0	0.5
1153	0	0.5
1154	0	0.5
1155	0	0.5
1156	0	0.5
1157	0	1
1158	0	1
1159	0	1
1160	0	1
1161	0	1
1162	0	1
1163	0	1
1164	0	1
1165	0	1
1166	0	1
1167	0	1
1168	0	1
1169	0	1
1170	0	1
1171	0	1
1172	0	1
1173	0	1
1174	0	1
1175	0	1
1176	0	1
1177	0	1
1178	0	1
1179	0	1
1180	0	1
1181	0	1
1182	0	1
1183	0	1
1184	0	1
1185	0	1
1186	0	1
1187	0	1
1188	0	1
1189	0	1
1190	0	1
1191	0	1
1192	0	1
1193	0	1
1194	0	1
1195	0	1
1196	0	1
1197	0	0.946312
1198	0	0.946357
1199	0	0.047619
1200	0	0.047619
1201	0	0.047619
1202	0	0.047619
1203	0	0.047619
1204	0	0.111111
1205	0	0.111111
1206	0	0.111111
1207	0	0.111111
1208	0	0.111111
1209	0	0.111111
1210	0	0.111111
1211	0	0.166667
1212	0	0.166667
1213	0	0.166667
1214	0	0.166667
1215	0	0.166667
1216	0	0.935256
1217	0	0
1218	0	0
1219	0	0
1220	0	0
1221	0	0
1222	0	0
1223	0	0
1224	0	0
1225	0	0
1226	0	0
1227	0	0
1228	0	0
1229	0	0
1230	0	0
1231	0	0
1232	0	0
1233	0	0
1234	0	0
1235	0	0
1236	0	0
1237	0	0
1238	0	0
1239	0	0
1240	0	0
1241	0	0
1242	0	0
1243	0	0
1244	0	0
1245	0	0
1246	0	0
1247	0	0
1248	0	0
1249	0	0
1250	0	0
1251	0	0
1252	0	0
1253	0	0
1254	0	0
1255	0	0
1256	0	0
1257	0	0
1258	0	0
1259	0	0
1260	0	0
1261	0	0
1262	0	0
1263	0	0
1264	0	0
1265	0	0
1266	0	0
1267	0	0
1268	0	0
1269	0	0
1270	0	0
1271	0	0
1272	0	0
1273	0	0
1274	0	0
1275	0	0
1276	0	0
1277	0	0
1278	0	0
1279	0	0
1280	0	0
1281	0	0
1282	0	0
1283	0	0
1284	0	0
1285	0	0
1286	0	0
1287	0	0
1288	0	0
1289	0	0
1290	0	0
1291	0	0
1292	0	0
1293	0	0
1294	0	0
1295	0	0
1296	0	0
1297	0	0
1298	0	0
1299	0	0
1300	0	0
1301	0	0
1302	0	0
1303	0	0
1304	0	0
1305	0	0
1306	0	0
1307	0	0
1308	0	0
1309	0	0
1310	0	0
1311	0	0
1312	0	0
1313	0	0
1314	0	0
1315	0	0
1316	0	0
1317	0	0
1318	0	0
1319	0	0
1320	0	0
1321	0	0
1322	0	0
1323	0	0
1324	0	0
1325	0	0
1326	0	0
1327	0	0
1328	0	0
1329	0	0
1330	0	0
1331	0	0
1332	0	0
1333	0	0
1334	0	0
1335	0	0
1336	0	0
1337	0	0
1338	0	0
1339	0	0
1340	0	0
1341	0	0
1342	0	0
1343	0	0
1344	0	0
1345	0	0.933624
1346	0	0
1347	0	0.939909
1348	0	0.933576
1349	0	0.93189
1350	0	0
1351	0	0
1352	0	0
1353	0	0
1354	0	0
1355	0	0
1356	0	0
1357	0	0
1358	0	0
1359	0	0
1360	0	0
1361	0	0
1362	0	0
1363	0	0
1364	0	0
1365	0	0
1366	0	0
1367	0	0
1368	0	0
1369	0	0
1370	0	0
1371	0	0
1372	0	0
1373	0	0
1374	0	0
1375	0	0
1376	0	0
1377	0	0
1378	0	0
1379	0	0
1380	0	0
1381	0	0
1382	0	0.1
1383	0	0
1384	0	0
1385	0	0.047619
1386	0	0.107143
1387	0	0.0833333
1388	0	0.133333
1389	0	0.181818
1390	0	0.272727
1391	0	0.227273
1392	0	0.886948
1393	0	0.0714286
1394	0	0.0666667
1395	0	0.0666667
1396	0	0
1397	0	0
1398	0	0.0666667
1399	0	0.1
1400	0	0.1
1401	0	0.3
1402	0	0.3
1403	0	0.285714
1404	0	0.392857
1405	0	0.355556
1406	0	0.654545
1407	0	0.457143
1408	0	0.571429
1409	0	0.692029
1410	0	0.967901
1411	0	0
1412	0	0
1413	0	0
1414	0	0
1415	0	0
1416	0	0
1417	0	0
1418	0	0
1419	0	0
1420	0	0
1421	0	0
1422	0	0
1423	0	0
1424	0	0
1425	0	0
1426	0	0
1427	0	0
1428	0	0
1429	0	0
1430	0	0
1431	0	0
1432	0	0
1433	0	0
1434	0	0
1435	0	0
1436	0	0
1437	0	0
1438	0	0
1439	0	0
1440	0	0
1441	0	0
1442	0	0
1443	0	0
1444	0	0
1445	0	0
1446	0	0
1447	0	0
1448	0	0
1449	0	0
1450	0	0
1451	0	0.959777
1452	0	0.2
1453	0	0.2
1454	0	0.2
1455	0	0.2
1456	0	0.2
1457	0	0.166667
1458	0	0.166667
1459	0	0.166667
1460	0	0.166667
1461	0	0.166667
1462	0	0.166667
1463	0	0.166667
1464	0	0.166667
1465	0	0.166667
1466	0	0.166667
1467	0	0.166667
1468	0	0.166667
1469	0	0.166667
1470	0	0.166667
1471	0	0.166667
1472	0	0.166667
1473	0	0.166667
1474	0	0.333333
1475	0	0.333333
1476	0	0.333333
1477	0	0.333333
1478	0	0.333333
1479	0	0.333333
1480	0	0.333333
1481	0	0.333333
1482	0	0.333333
1483	0	0.333333
1484	0	0.333333
1485	0	0.333333
1486	0	0.333333
1487	0	0.333333
1488	0	0.333333
1489	0	0.333333
1490	0	0.333333
1491	0	0.333333
1492	0	0.166667
1493	0	0.166667
1494	0	0.166667
1495	0	0.166667
1496	0	0.166667
1497	0	0.166667
1498	0	0.166667
1499	0	0.1
1500	0	0.1
1501	0	0.1
1502	0	0.1
1503	0	0
1504	0	0
1505	0	0
1506	0	0.0952381
1507	0	0.0952381
1508	0	0.0952381
1509	0	0.285714
1510	0	0.285714
1511	0	0
1512	0	0
1513	0	0
1514	0	0
1515	0	0
1516	0	0
1517	0	0
1518	0	0
1519	0	0
1520	0	0
1521	0	1
1522	0	1
1523	0	1
1524	0	1
1525	0	1
1526	0	1
1527	0	1
1528	0	1
1529	0	1
1530	0	1
1531	0	1
1532	0	1
1533	0	1
1534	0	1
1535	0	1
1536	0	1
1537	0	1
1538	0	1
1539	0	1
1540	0	1
1541	0	1
1542	0	1
1543	0	1
1544	0	1
1545	0	1
1546	0	1
1547	0	1
1548	0	1
1549	0	1
1550	0	1
1551	0	1
1552	0	1
1553	0	1
1554	0	1
1555	0	1
1556	0	1
1557	0	1
1558	0	1
1559	0	1
1560	0	1
1561	0	1
1562	0	1
1563	0	1
1564	0	1
1565	0	1
1566	0	1
1567	0	1
1568	0	1
1569	0	1
1570	0	1
1571	0	1
1572	0	1
1573	0	1
1574	0	1
1575	0	1
1576	0	1
1577	0	1
1578	0	1
1579	0	1
1580	0	1
1581	0	1
1582	0	1
1583	0	1
1584	0	0
1585	0	0
1586	0	0
1587	0	0
1588	0	0
1589	0	0
1590	0	0
1591	0	0.724813
1592	0	0.921456
1593	0	0.974866
1594	0	0.974867
1595	0	0.866553
1596	0	0.819696
1597	0	0.849833
1598	0	0
1599	0	0
1600	0	0
1601	0	0
1602	0	0
1603	0	0
1604	0	0
1605	0	0
1606	0	0
1607	0	0.803696
1608	0	0.583333
1609	0	0.817604
1610	0	0.266667
1611	0	0.266667
1612	0	0.4
1613	0	0.731691
1614	0	0.772179
1615	0	0.587362
1616	0	0.649081
1617	0	0.992
1618	0	0.994941
1619	0	0.994954
1620	0	0.994954
1621	0	0.993286
1622	0	0.994962
1623	0	0.994962
1624	0	0.994962
1625	0	0.994962
1626	0	0.994962
1627	0	0.994962
1628	0	0.994962
1629	0	0.994962
1630	0	0.996637
1631	0	0.996637
1632	0	0
1633	1	0
1634	1	0
1635	1	0
1636	1	0
1637	1	0
1638	1	0
1639	1	0
1640	1	0
1641	1	0
1642	0	0.993291
1643	0	0.996646
1644	0	0.993303
1645	0	0.994971
1646	0	0.994971
1647	0	0.994971
1648	0	0.994971
1649	0	0.994971
1650	0	0.996646
1651	0	0.998322
1652	0	0.998321
1653	0	0.998321
1654	0	1
1655	0	1
1656	0	1
1657	0	1
1658	0	1
1659	0	1
1660	0	0.994979
1661	0	0
1662	1	0
1663	1	0
1664	1	0
1665	0	0
1666	0	0.993315
1667	0	0.99498
1668	0	0
1669	0	0
1670	1	1
1671	1	1
1672	1	1
1673	1	1
1674	0	1
1675	0	1
1676	0	1
1677	0	1
1678	0	1
1679	0	0.998322
1680	0	0.998322
1681	0	0.998324
1682	0	0.998326
1683	0	0.998328
1684	0	0.99666
1685	0	0.99666
1686	0	0.998325
1687	0	0.998325
1688	0	0.998325
1689	0	0.998325
1690	0	0.998325
1691	0	0.998325
1692	0	0.998325
1693	0	0.998325
1694	0	0.998325
1695	0	0.998325
1696	0	0.998329
1697	0	0.996662
1698	0	0.996662
1699	0	0.996662
1700	0	0.998329
1701	0	1
1702	0	1
1703	0	1
1704	0	1
1705	0	1
1706	0	1
1707	0	1
1708	0	1
1709	0	1
1710	0	1
1711	0	1
1712	0	1
1713	0	1
1714	0	1
1715	0	1
1716	0	1
1717	0	1
1718	0	1
1719	0	1
1720	0	1
1721	0	0.625105
1722	0	1
1723	0	1
1724	0	1
1725	1	1
1726	1	1
1727	1	1
1728	1	1
1729	0	1
1730	1	1
1731	1	1
1732	1	1
1733	1	1
1734	1	1
1735	0	1
1736	0	0.998329
1737	0	0.998331
1738	0	0.998332
1739	0	0.998332
1740	0	0.998332
1741	0	0.998332
1742	0	0.998332
1743	0	0.998331
1744	0	0.998331
1745	0	0.998331
1746	0	0.998331
1747	0	0.998331
1748	0	0.998331
1749	0	0.998329
1750	0	0.998329
1751	0	0.998329
1752	0	0.998329
1753	0	0.998329
1754	0	0.998329
1755	1	1
1756	0	0.994993
1757	0	1
1758	0	0.333333
1759	0	0.333333
1760	0	0.333333
1761	0	0.333333
1762	1	1
1763	0	0.333333
1764	0	0.333333
1765	0	0.333333
1766	1	1
1767	1	1
1768	1	1
1769	0	1
1770	0	1
1771	0	1
1772	0	1
1773	0	0.998331
1774	0	0.998331
1775	0	0.998331
1776	0	0.998331
1777	0	0.998331
1778	0	0.998329
1779	0	0.99666
1780	0	0.99666
1781	0	0
1782	0	0.998329
1783	0	0.998329
1784	0	0.998329
1785	0	0
1786	0	1
1787	0	1
1788	0	1
1789	0	1
1790	0	1
1791	0	1
1792	0	1
1793	0	1
1794	0	1
1795	0	1
1796	0	1
1797	0	0.998326
1798	0	0.998326
1799	0	0.998326
1800	0	0.996657
1801	0	0.993325
1802	0	0.993325
1803	0	0
1804	0	0
1805	0	0.993314
1806	0	0.994983
1807	0	0.994983
1808	0	0.994983
1809	0	0.994983
1810	0	0.994983
1811	0	0.994983
1812	0	0.994983
1813	0	0.994983
1814	0	0.994987
1815	0	0.993331
1816	0	0.993336
1817	0	0.993331
1818	0	0.994992
1819	0	0.994992
1820	0	0.994992
1821	0	0.994992
1822	0	0.994992
1823	0	0.835249
1824	0	1
1825	0	1
1826	0	0
1827	0	0
1828	0	0
1829	0	0
1830	0	0
1831	0	0
1832	0	0
1833	0	0
1834	0	0
1835	0	0
1836	0	0.333333
1837	0	0.333333
1838	0	0.333333
1839	0	0.333333
1840	0	0.333333
1841	0	0.333333
1842	0	0.333333
1843	0	1
1844	0	1
1845	0	1
1846	0	0.998332
1847	0	0.998332
1848	0	0.998335
1849	0	0.998333
1850	0	0.998333
1851	0	0.998333
1852	0	0.998333
1853	0	0.998333
1854	0	0.998333
1855	0	0
1856	0	0
1857	0	0
1858	0	0
1859	0	0
1860	0	0
1861	0	0
1862	0	0.998335
1863	0	0.998335
1864	0	0.998335
1865	0	0.996674
1866	0	0.996674
1867	0	0.996674
1868	0	0.996674
1869	0	0.998335
1870	0	0.996674
1871	0	0.998335
1872	0	0.998335
1873	0	0.998335
1874	0	0.998335
1875	0	0.996674
1876	0	0.996674
1877	0	1
1878	0	1
1879	0	1
1880	0	1
1881	0	1
1882	0	1
1883	0	1
1884	0	1
1885	0	1
1886	0	1
1887	0	1
1888	0	1
1889	0	1
1890	0	1
1891	0	0.75
1892	0	0.75
1893	0	0.75
1894	0	0.985092
1895	0	0.985005
1896	0	0.971937
1897	0	0.985067
1898	0	0
1899	0	0
1900	0	0
1901	0	0
1902	0	0
1903	0	0
1904	0	0
1905	0	0
1906	0	0
1907	0	0
1908	0	0
1909	0	0.714286
1910	0	0.714286
1911	0	0.714286
1912	0	0.714286
1913	0	0.714286
1914	0	0.714286
1915	0	0.714286
1916	0	0.714286
1917	0	0.714286
1918	0	0.714286
1919	0	0.714286
1920	0	0.714286
1921	0	0.714286
1922	0	0.714286
1923	0	0.714286
1924	0	0.714286
1925	0	0.714286
1926	0	0.984946
1927	0	0.984896
1928	0	1
1929	0	1
1930	0	1
1931	0	1
1932	0	1
1933	0	0.666667
1934	0	0.363636
1935	0	0.363636
1936	0	0.546154
1937	0	0.519512
1938	0	0.519512
1939	0	0.519512
1940	0	0.581472
1941	0	0.560171
1942	0	0.560171
1943	0	0.553255
1944	0	0.527273
1945	0	0.467835
1946	0	0.693533
1947	0	0.667981
1948	0	0.271441
1949	0	0.274963
1950	0	0.270262
1951	0	0.270262
1952	0	0.270557
1953	0	0.270172
1954	0	0.270172
1955	0	0.415075
1956	0	0.427691
1957	0	0
1958	0	0
1959	0	0
1960	0	0
1961	0	0
1962	0	0
1963	0	0
1964	0	0
1965	0	0
1966	0	0
1967	0	0
1968	0	0
1969	0	0
1970	0	0
1971	0	0
1972	0	0
1973	0	0
1974	0	0
1975	0	0
1976	0	0
1977	0	0
1978	0	0.357143
1979	0	0.277778
1980	0	0.478836
1981	0	0.478836
1982	0	0.349376
1983	0	0.349376
1984	0	0.278003
1985	0	0.278003
1986	0	0.278003
1987	0	0.271795
1988	0	0.278205
1989	0	0.278205
1990	0	0.264634
1991	0	0.264634
1992	0	0.252033
1993	0	0.252033
1994	0	0.247387
1995	0	0.247387
1996	0	0.225159
1997	0	0.224155
1998	0	0.224155
1999	0	0.215541
2000	0	0.178733
2001	0	0.14761
2002	0	0.139548
2003	0	0.124008
2004	0	0.122024
2005	0	0.105712
2006	0	0.0997653
2007	0	0.0933014
2008	0	0.0933014
2009	0	0.0929012
2010	0	0.0800977
2011	0	0.0841924
2012	0	0.0847248
2013	0	0.0858586
2014	0	0.106186
2015	0	0.118095
2016	0	0.110828
2017	0	0.10734
2018	0	0.505632
2019	0	0.534618
2020	0	0.529537
2021	0	0.281754
2022	0	0.282456
2023	0	0.274059
2024	0	0.289044
2025	0	0.274966
2026	0	0.284542
2027	0	0.296033
2028	0	0.274419
2029	0	0.276931
2030	0	0.26398
2031	0	0.353321
2032	0	0.397382
2033	0	0.547184
2034	0	0.333333
2035	0	1
2036	0	1
2037	0	0.333333
2038	0	0.333333
2039	0	0
2040	0	0
2041	0	0.333333
2042	0	0.333333
2043	0	0.333333
2044	0	0.333333
2045	0	0.142857
2046	0	0
2047	0	0
2048	0	0
2049	0	0
2050	0	0
2051	0	0
2052	0	0
2053	0	0
2054	0	0
2055	0	0
2056	0	0
2057	0	0
2058	0	0
2059	0	0
2060	0	0
2061	0	0
2062	0	0
2063	0	0
2064	0	0
2065	0	0
2066	0	0.0222222
2067	0	0.0277778
2068	0	0.0222222
2069	0	0.0181818
2070	0	0.0222222
2071	0	0.0151515
2072	0	0.0363636
2073	0	0.0363636
2074	0	0.0151515
2075	0	0.0181818
2076	0	0
2077	0	0
2078	0	0.0151515
2079	0	0.0151515
2080	0	0.0384615
2081	0	0.0769231
2082	0	0.0769231
2083	0	0.0666667
2084	0	0.0849673
2085	0	0.0877193
2086	0	0.0833333
2087	0	0.0712251
2088	0	0.0967742
2089	0	0.634562
2090	0	0.0584795
2091	0	0.0584795
2092	0	0.0584795
2093	0	0.0578947
2094	0	0.0571429
2095	0	0.0606061
2096	0	0.0562771
2097	0	0.0649351
2098	0	0.0671937
2099	0	0.0615385
2100	0	0.0555556
2101	0	0.0687831
2102	0	0.0767196
2103	0	0.0752688
2104	0	0.0725806
2105	0	0.0739687
2106	0	0.0763828
2107	0	0.0832998
2108	0	0.0871497
2109	0	0.0978548
2110	0	0.134884
2111	0	0.129182
2112	0	0.170407
2113	0	0.531325
2114	0	0.706048
2115	0	0.70758
2116	0	0
2117	0	0
2118	0	0
2119	0	0
2120	0	0
2121	0	0
2122	0	0
2123	0	0
2124	0	0
2125	0	0
2126	0	0
2127	0	0
2128	0	0
2129	0	0
2130	0	0
2131	0	0
2132	0	0
2133	0	0
2134	0	0
2135	0	0
2136	0	0
2137	0	0
2138	0	0.155172
2139	0	0.189474
2140	0	0.163158
2141	0	0.205882
2142	0	0.155556
2143	0	0.155556
2144	0	0.155556
2145	0	0.155556
2146	0	0.194444
2147	0	0.194444
2148	0	0.166667
2149	0	0.214286
2150	0	0.214286
2151	0	0.333333
2152	0	0.25
2153	0	0.214286
2154	0	0.333333
2155	0	0.535714
2156	0	1
2157	0	1
2158	0	0.866667
2159	0	0.862826
2160	0	0.450925
2161	0	0.503175
2162	0	0.607937
2163	0	0.680927
2164	0	0.737815
2165	0	0.93018
2166	0	0.934991
2167	0	0.954058
2168	0	1
2169	0	0.998329
2170	0	0.998329
2171	0	1
2172	0	1
2173	0	1
2174	0	1
2175	0	1
2176	0	0.998332
2177	0	0.996668
2178	0	0.996668
2179	0	0.996668
2180	0	0.996668
2181	0	0
2182	0	0
2183	0	0
2184	1	0
2185	1	0
2186	1	0
2187	1	0
2188	1	0
2189	1	0
2190	1	0
2191	1	0
2192	1	0
2193	1	0
2194	1	0
2195	1	0
2196	0	0
2197	0	0
2198	0	0.995
2199	0	0.996665
2200	0	0.996665
2201	0	0.996665
2202	0	0.996665
2203	0	0.998331
2204	0	0.996665
2205	0	0.996665
2206	0	0.996665
2207	0	0.995004
2208	0	0.990046
2209	0	0.990046
2210	0	0.991694
2211	0	0.991694
2212	0	0
2213	0	0
2214	0	0
2215	0	0
2216	0	0
2217	0	0
2218	0	0
2219	0	0
2220	0	0
2221	0	0
2222	0	0.988196
2223	0	0.988196
2224	0	0.988196
2225	0	0.988196
2226	0	0.988196
2227	0	0.988196
2228	0	0.988196
2229	0	0.988196
2230	0	0.988196
2231	0	0.988196
2232	0	0.98484
2233	0	0
2234	0	0
2235	0	0
2236	0	0
2237	0	0
2238	0	0
2239	0	0
2240	0	0
2241	0	0
2242	0	0
2243	0	0
2244	0	0
2245	0	0
2246	0	0
2247	0	0
2248	0	0
2249	0	0
2250	0	0
2251	0	0
2252	0	0
2253	0	0
2254	0	0
2255	0	0
2256	0	0
2257	0	0
2258	0	0
2259	0	0
2260	0	0
2261	1	0
2262	1	0
2263	1	0
2264	1	0
2265	1	0
2266	1	0
2267	1	0
2268	1	0
2269	1	0
2270	1	0
2271	1	0
2272	1	0
2273	1	0
2274	1	0
2275	1	0
2276	1	0
2277	1	0
2278	0	0
2279	0	0
2280	0	0
2281	0	0
2282	0	0
2283	0	0
2284	0	0
2285	0	0
2286	0	0
2287	0	0
2288	0	0
2289	0	0
2290	0	0
2291	0	0
2292	0	0
2293	0	0
2294	0	0
2295	0	0
2296	0	0
2297	0	0
2298	0	0
2299	0	0
2300	0	0
2301	0	0
2302	0	0
2303	0	0
2304	0	0
2305	0	0
2306	0	0
2307	0	0
2308	0	0
2309	0	0
2310	0	0
2311	0	0
2312	0	0
2313	0	0
2314	0	0
2315	0	0
2316	0	0
2317	0	0.981523
2318	0	0.979851
2319	0	0.2
2320	0	0.2
2321	0	0.2
2322	1	1
2323	1	1
2324	1	1
2325	1	1
2326	1	1
2327	1	1
2328	1	1
2329	1	1
2330	1	1
2331	1	1
2332	1	1
2333	1	1
2334	1	1
2335	1	1
2336	1	1
2337	0	0.971597
2338	0	0.166667
2339	0	0.974932
2340	0	0.973271
2341	0	0.973271
2342	0	0.974932
2343	0	0.974932
2344	0	0.974932
2345	0	0.974932
2346	0	0.974932
2347	0	0.973272
2348	0	0.166667
2349	0	0.971679
2350	0	0.970025
2351	0	0.970025
2352	0	0
2353	0	0
2354	0	0
2355	0	0
2356	0	0
2357	0	0
2358	0	0
2359	0	0
2360	0	0
2361	0	0
2362	0	0
2363	0	0
2364	0	0
2365	0	0
2366	0	0
2367	0	0
2368	0	0
2369	0	0
2370	0	0
2371	0	0
2372	0	0
2373	0	0
2374	0	0
2375	0	0
2376	0	0
2377	0	0
2378	0	0
2379	0	0
2380	0	0.983172
2381	0	0.983187
2382	0	0.978179
2383	0	0.976529
2384	0	0.5
2385	0	0.5
2386	0	0.5
2387	0	0.973171
2388	0	0.5
2389	0	0.5
2390	0	0.5
2391	0	0.5
2392	0	0.5
2393	0	0.5
2394	0	0.5
2395	0	0.5
2396	0	0.5
2397	0	0.5
2398	0	0.5
2399	0	0.5
2400	0	0.5
2401	0	0.5
2402	0	0.5
2403	0	0.5
2404	0	0.5
2405	0	0.5
2406	0	0.5
2407	0	0.5
2408	0	0.5
2409	0	0.5
2410	0	0.5
2411	0	0.5
2412	0	0.5
2413	0	0.5
2414	0	0.5
2415	0	0.5
2416	0	0.333333
2417	0	0.333333
2418	0	0.333333
2419	0	0.333333
2420	0	0.333333
2421	0	0
2422	0	0
2423	0	0
2424	0	0
2425	0	0
2426	0	0
2427	0	0
2428	0	0
2429	0	0
2430	0	0
2431	0	0
2432	0	0
2433	0	0
2434	0	0
2435	0	0
2436	0	0
2437	0	0
2438	0	0
2439	0	0
2440	0	0
2441	0	0
2442	0	0.973144
2443	0	0.973167
2444	0	0
2445	0	0
2446	0	0
2447	0	0
2448	0	0
2449	0	0
2450	0	0
2451	0	0
2452	0	0.509091
2453	0	0.336842
2454	0	0.333333
2455	0	0.347368
2456	0	0.350877
2457	0	0.241107
2458	0	0.221014
2459	0	0.203333
2460	0	0.203333
2461	0	0.935381
2462	0	0.927542
2463	0	0
2464	0	0
2465	0	0
2466	0	0
2467	0	0
2468	0	0
2469	0	0
2470	0	0
2471	0	0
2472	0	0
2473	0	0
2474	0	0
2475	0	0
2476	0	0
2477	0	0
2478	0	0
2479	0	0
2480	0	0
2481	0	0
2482	0	0
2483	0	0
2484	0	0
2485	0	0
2486	0	0
2487	0	0.88719
2488	0	0.858723
2489	0	0.834633
2490	0	0.731736
2491	0	0.678498
2492	0	0.672013
2493	0	0.645122
2494	0	0.337995
2495	0	0.342676
2496	0	0.342623
2497	0	0.293142
2498	0	0.175439
2499	0	0.205128
2500	0	0.205128
2501	0	0.17619
2502	0	0.129231
2503	0	0.203077
2504	0	0.109582
2505	0	0.108053
2506	0	0.110425
2507	0	0.118887
2508	0	0.264634
2509	0	0.4
2510	0	0.335354
2511	0	0.128776
2512	0	0.0766667
2513	0	0.203659
2514	0	0.200079
2515	0	0
2516	0	0
2517	0	0
2518	0	0
2519	0	0
2520	0	0
2521	0	0
2522	0	0
2523	0	0
2524	0	0
2525	0	0
2526	0	0
2527	0	0
2528	0	0
2529	0	0
2530	0	0
2531	0	0
2532	0	0
2533	0	0
2534	0	0
2535	0	0
2536	0	0
2537	0	0
2538	0	0
2539	0	0.0357143
2540	0	0.0714286
2541	0	0.0545455
2542	0	0.0514706
2543	0	0.145552
2544	0	0.551369
2545	0	0.709329
2546	0	0.594604
2547	0	0.468862
2548	0	0.386518
2549	0	0.210524
2550	0	0.19863
2551	0	0.152271
2552	0	0.155434
2553	0	0.363333
2554	0	0.36
2555	0	0.298341
2556	0	0.238474
2557	0	0.140853
2558	0	0.418462
2559	0	0.454545
2560	0	0.5
2561	0	0.552632
2562	0	0
2563	0	0
2564	0	0
2565	0	0
2566	0	0
2567	0	0
2568	0	0
2569	0	0
2570	0	0.594771
2571	0	0
2572	0	0
2573	0	0
2574	0	0.594771
2575	0	0.594771
2576	0	0
2577	0	0
2578	0	0
2579	0	0
2580	0	0
2581	0	0
2582	0	0
2583	0	0.0980891
2584	0	0.08
2585	0	0.1
2586	0	0.0984615
2587	0	0.0830769
2588	0	0.0830769
2589	0	0.09
2590	0	0.0833333
2591	0	0.0740741
2592	0	0.0749482
2593	0	0.05
2594	0	0.0442105
2595	0	0.0420369
2596	0	0.085339
2597	0	0
2598	0	0
2599	0	0
2600	0	0
2601	0	0
2602	0	0
2603	0	0
2604	0	0
2605	0	0
2606	0	0
2607	0	0
2608	0	0
2609	0	0
2610	0	0
2611	0	0
2612	0	0
2613	0	0
2614	0	0
2615	0	0
2616	0	0
2617	0	0
2618	0	0
2619	0	0
2620	0	0
2621	0	0
2622	0	0
2623	0	0
2624	0	0
2625	0	0
2626	0	0
2627	0	0
2628	0	0
2629	0	0
2630	0	0
2631	0	0
2632	0	0
2633	0	0
2634	0	0
2635	0	0
2636	0	0
2637	0	0
2638	0	0
2639	0	0
2640	0	0
2641	0	0
2642	0	0
2643	0	0
2644	0	0
2645	0	0
2646	0	0
2647	0	0
2648	0	0
2649	0	0
2650	0	0
2651	0	0
2652	0	0
2653	0	0
2654	0	0
2655	0	0
2656	0	0
2657	0	0
2658	0	0
2659	0	0
2660	0	0
2661	0	0
2662	0	0
2663	0	0
2664	0	0
2665	0	0
2666	0	0
2667	0	0
2668	0	0
2669	0	0
2670	0	0
2671	0	0
2672	0	0
2673	0	0
2674	0	0
2675	0	0
2676	0	0
2677	0	0
2678	0	0
2679	0	0
2680	0	0
2681	0	0
2682	0	0
2683	0	0
2684	0	0
2685	0	0
2686	0	0
2687	0	0
2688	0	0
2689	0	0
2690	0	0
2691	0	0
2692	0	0
2693	0	0
2694	0	0
2695	0	0
2696	0	0
2697	0	0
2698	0	0
2699	0	0
2700	0	0
2701	0	0
2702	0	0
2703	0	0
2704	0	0
2705	0	0
2706	0	0
2707	0	0
2708	0	0
2709	0	0
2710	0	0
2711	0	0
2712	0	0
2713	0	0
2714	0	0
2715	0	0
2716	0	0
2717	0	0
2718	0	0
2719	0	0
2720	0	0
2721	0	0
2722	0	0
2723	0	0
2724	0	0
2725	0	0
2726	0	0
2727	0	0
2728	0	0
2729	0	0
2730	0	0
2731	0	0
2732	0	0
2733	0	0
2734	0	0
2735	0	0
2736	0	0
2737	0	0
2738	0	0
2739	0	0
2740	0	0
2741	0	0
2742	0	0
2743	0	0
2744	0	0
2745	0	0
2746	0	0
2747	0	0
2748	0	0
2749	0	0
2750	0	0
2751	0	0
2752	0	0
2753	0	0
2754	0	0
2755	0	0
2756	0	0
2757	0	0
2758	0	0
2759	0	0
2760	0	0
2761	0	0
2762	0	0
2763	0	0
2764	0	0
2765	0	0
2766	0	0
2767	0	0
2768	0	0
2769	0	0
2770	0	0
2771	0	0
2772	0	0
2773	0	0
2774	0	0
2775	0	0
2776	0	0
2777	0	0
2778	0	0
2779	0	0
2780	0	0
2781	0	0
2782	0	0
2783	0	0
2784	0	0
2785	0	0
2786	0	0
2787	0	0
2788	0	0
2789	0	0
2790	0	0
2791	0	0
2792	0	0
2793	0	0
2794	0	0.461538
2795	0	0.8
2796	0	0.818182
2797	0	0.818182
2798	0	0.622222
2799	0	0
2800	0	0
2801	0	0
2802	0	0
2803	0	0
2804	0	0
2805	0	0
2806	0	0
2807	0	0
2808	0	0
2809	0	0
2810	0	0
2811	0	0
2812	0	0
2813	0	0
2814	0	0
2815	0	0
2816	0	0
2817	0	0
2818	0	0
2819	0	0
2820	0	0
2821	0	0
2822	0	0
2823	0	0
2824	0	0
2825	0	0
2826	0	0
2827	0	0
2828	0	0
2829	0	0
2830	0	0
2831	0	0
2832	0	0
2833	0	0
2834	0	0
2835	0	0
2836	0	0
2837	0	0
2838	0	0
2839	0	0
2840	0	0
2841	0	0
2842	0	0
2843	0	0
2844	0	0
2845	0	0
2846	0	0
2847	0	0
2848	0	0
2849	0	0
2850	0	0
2851	0	0
2852	0	0
2853	0	0
2854	0	0
2855	0	0
2856	0	0
2857	0	0
2858	0	0
2859	0	0
2860	0	0
2861	0	0
2862	0	0
2863	0	0
2864	0	0
2865	0	0
2866	0	0
2867	0	0
2868	0	0
2869	0	0
2870	0	0
2871	0	0
2872	0	0
2873	0	0
2874	0	0.0769231
2875	0	0.0666667
2876	0	0.0666667
2877	0	0.0847722
2878	0	0.047619
2879	0	0
2880	0	0
2881	0	0
2882	0	0
2883	0	0
2884	0	0
2885	0	0
2886	0	0
2887	0	0
2888	0	0
2889	0	0
2890	0	0
2891	0	0
2892	0	0
2893	0	0
2894	0	0
2895	0	0
2896	0	0.0646824
2897	0	0.0644857
2898	0	0.0368421
2899	0	0.0368421
2900	0	0.0368421
2901	0	0.0368421
2902	0	0.0333333
2903	0	0.0289855
2904	0	0.0622861
2905	0	0.099865
2906	0	0.0769624
2907	0	0.057433
2908	0	0.0548828
2909	0	0.0871212
2910	0	0.0587121
2911	0	0.0587121
2912	0	0.0587121
2913	0	0.0587121
2914	0	0.0587121
2915	0	0.0552585
2916	0	0.0534759
2917	0	0.0534759
2918	0	0.0588235
2919	0	0.0531367
2920	0	0.0724638
2921	0	0.0724638
2922	0	0.0521739
2923	0	0.044126
2924	0	0.0437237
2925	0	0.0395455
2926	0	0.0417356
2927	0	0.0372015
2928	0	0.0319798
2929	0	0.0473112
2930	0	0.041578
2931	0	0.027668
2932	0	0.0285714
2933	0	0.0105263
2934	0	0.0116959
2935	0	0.0116959
2936	0	0.00526316
2937	0	0.00526316
2938	0	0.00584795
2939	0	0.0105263
2940	0	0.0105263
2941	0	0.0233918
2942	0	0.0495753
2943	0	0.72327
2944	0	0.72327
2945	0	0
2946	0	0
2947	0	0
2948	0	0
2949	0	0
2950	0	0
2951	0	0
2952	0	0
2953	0	0
2954	0	0
2955	0	0
2956	0	0
2957	0	0
2958	0	0
2959	0	0
2960	0	0
2961	0	0
2962	0	0
2963	0	0
2964	0	0
2965	0	0
2966	0	0
2967	0	0.0629761
2968	0	0.0583827
2969	0	0.054902
2970	0	0.0852746
2971	0	0.0843574
2972	0	0.065514
2973	0	0.0398072
2974	0	0.0439824
2975	0	0.0793651
2976	0	0.081411
2977	0	0
2978	0	0
2979	0	0
2980	0	0
2981	0	0
2982	0	0
2983	0	0
2984	0	0
2985	0	0
2986	0	0
2987	0	0
2988	0	0
2989	0	0
2990	0	0
2991	0	0
2992	0	0
2993	0	0
2994	0	0
2995	0	0
2996	0	0
2997	0	0
2998	0	0
2999	0	0
3000	0	0
3001	0	0
3002	0	0
3003	0	0
3004	0	0
3005	0	0
3006	0	0
3007	0	0
3008	0	0
3009	0	0
3010	0	0
3011	0	0
3012	0	0
3013	0	0
3014	0	0
3015	0	0
3016	0	0.0147059
3017	0	0.0238095
3018	0	0.0355731
3019	0	0.0133333
3020	0	0.0405118
3021	0	0.0415463
3022	0	0.0452578
3023	0	0.0464174
3024	0	0.0338859
3025	0	0.0329908
3026	0	0.041393
3027	0	0.0401598
3028	0	0.0486817
3029	0	0.0537416
3030	0	0.0491417
3031	0	0.0370964
3032	0	0.0361659
3033	0	0.034974
3034	0	0.0364924
3035	0	0.0375556
3036	0	0.0435444
3037	0	0.0380625
3038	0	0.0373012
3039	0	0.0372071
3040	0	0.0396122
3041	0	0.0328446
3042	0	0.0328976
3043	0	0.0366204
3044	0	0.103093
3045	0	0.123217
3046	0	0.0321122
3047	0	0.0327869
3048	0	0.0369674
3049	0	0.0157262
3050	0	0.0181818
3051	0	0.0212766
3052	0	0.0232558
3053	0	0.0243129
3054	0	0.0420819
3055	0	0.0487179
3056	0	0.0472335
3057	0	0.0455192
3058	0	0.0806723
3059	0	0.110345
3060	0	0.110345
3061	0	0.10299
3062	0	0.10299
3063	0	0.0926829
3064	0	0.091954
3065	0	0.0965517
3066	0	0.0965517
3067	0	0.0795699
3068	0	0.0795455
3069	0	0.0891266
3070	0	0.0891266
3071	0	0.0896552
3072	0	0.137255
3073	0	0.137255
3074	0	0.137255
3075	0	0.137255
3076	0	0.0909091
3077	0	0.0983087
3078	0	0.0763285
3079	0	0.0725806
3080	0	0.189189
3081	0	0.189189
3082	0	0.179232
3083	0	0.179232
3084	0	0.403411
3085	0	0.340578
3086	0	0.340636
3087	0	0.335784
3088	0	0.312856
3089	0	0.322098
3090	0	0.306234
3091	0	0.287619
3092	0	0.1032
3093	0	0.128348
3094	0	0.131064
3095	0	0.109448
3096	0	0.109368
3097	0	0.107876
3098	0	0.0564516
3099	0	0.0584615
3100	0	0.0578947
3101	0	0.0181818
3102	0	0.0181818
3103	0	0.0181818
3104	0	0.0222222
3105	0	0.0222222
3106	0	0.0222222
3107	0	0.0222222
3108	0	0.0222222
3109	0	0.0222222
3110	0	0.0222222
3111	0	0.0222222
3112	0	0.0222222
3113	0	0.0222222
3114	0	0.0222222
3115	0	0.0222222
3116	0	0.0222222
3117	0	0.0222222
3118	0	0.0222222
3119	0	0.0222222
3120	0	0.0222222
3121	0	0.0222222
3122	0	0.0222222
3123	0	0.0222222
3124	0	0.0222222
3125	0	0.0222222
3126	0	0.0222222
3127	0	0.0222222
3128	0	0.0222222
3129	0	0.0222222
3130	0	0.0222222
3131	0	0.0222222
3132	0	0.0222222
3133	0	0.0222222
3134	0	0.0222222
3135	0	0.0222222
3136	0	0.0222222
3137	0	0.0222222
3138	0	0.0222222
3139	0	0.0222222
3140	0	0.0277778
3141	0	0.0277778
3142	0	0.0277778
3143	0	0.0277778
3144	0	0.0277778
3145	0	0.0277778
3146	0	0.0277778
3147	0	0.0277778
3148	0	0.0277778
3149	0	0.0277778
3150	0	0.0277778
3151	0	0.0277778
3152	0	0.0277778
3153	0	0.0277778
3154	0	0.0277778
3155	0	0.0277778
3156	0	0.0277778
3157	0	0.0277778
3158	0	0.0277778
3159	0	0.0277778
3160	0	0.0277778
3161	0	0.0277778
3162	0	0.0277778
3163	0	0.0277778
3164	0	0.0277778
3165	0	0.0277778
3166	0	0.0277778
3167	0	0.0277778
3168	0	0.0277778
3169	0	0.0277778
3170	0	0.0277778
3171	0	0.0277778
3172	0	0.0277778
3173	0	0.0277778
3174	0	0.0277778
3175	0	0.0277778
3176	0	0.0277778
3177	0	0.0277778
3178	0	0.0357143
3179	0	0.0357143
3180	0	0.0357143
3181	0	0.0357143
3182	0	0.0181818
3183	0	0.0181818
3184	0	0.0181818
3185	0	0.0181818
3186	0	0.0181818
3187	0	0.0222222
3188	0	0.0222222
3189	0	0.0222222
3190	0	0.0222222
3191	0	0.0222222
3192	0	0.0222222
3193	0	0.0222222
3194	0	0.0222222
3195	0	0.0222222
3196	0	0.0222222
3197	0	0.0222222
3198	0	0.0222222
3199	0	0.0222222
3200	0	0.0222222
3201	0	0.0222222
3202	0	0.0222222
3203	0	0.0222222
3204	0	0.0222222
3205	0	0.0277778
3206	0	0.0555556
3207	0	0.0555556
3208	0	0.0357143
3209	0	0.0357143
3210	0	0.0357143
3211	0	0.0357143
3212	0	0.0357143
3213	0	0.0357143
3214	0	0.0357143
3215	0	0.0357143
3216	0	0.0357143
3217	0	0.0357143
3218	0	0.0357143
3219	0	0.0357143
3220	0	0.0357143
3221	0	0.0357143
3222	0	0.0357143
3223	0	0.0357143
3224	0	0.0357143
3225	0	0.0357143
3226	0	0.0357143
3227	0	0.0277778
3228	0	0.0277778
3229	0	0.0277778
3230	0	0.10989
3231	0	0.197802
3232	0	0.197802
3233	0	0.176471
3234	0	0.272727
3235	0	0.272727
3236	0	0.333333
3237	0	0.424242
3238	0	0.424242
3239	0	0.424242
3240	0	0.424242
3241	0	0.424242
3242	0	0.424242
3243	0	0.424242
3244	0	0.461538
3245	0	0.461538
3246	0	0.461538
3247	0	0.461538
3248	0	0.461538
3249	0	0.461538
3250	0	0.461538
3251	0	0.461538
3252	0	0.461538
3253	0	0.461538
3254	0	0.461538
3255	0	0.461538
3256	0	0.461538
3257	0	0.461538
3258	0	0.461538
3259	0	0.461538
3260	0	0.342857
3261	0	0.342857
3262	0	0.395604
3263	0	0.461538
3264	0	0.461538
3265	0	0.461538
3266	0	0.461538
3267	0	0.461538
3268	0	0.461538
3269	0	0.461538
3270	0	0.461538
3271	0	0.461538
3272	0	0.461538
3273	0	0.461538
3274	0	0.424242
3275	0	0.424242
3276	0	0.381818
3277	0	0.358974
3278	0	0.358974
3279	0	0.424242
3280	0	0.461538
3281	0	0.461538
3282	0	0.461538
3283	0	0.461538
3284	0	0.461538
3285	0	0.461538
3286	0	0.461538
3287	0	0.461538
3288	0	0.461538
3289	0	0.461538
3290	0	0.461538
3291	0	0.461538
3292	0	0.352381
3293	0	0.352381
3294	0	0.352381
3295	0	0.406593
3296	0	0.406593
3297	0	0.406593
3298	0	0.406593
3299	0	0.406593
3300	0	0.406593
3301	0	0.406593
3302	0	0.406593
3303	0	0.545455
3304	0	0.545455
3305	0	0.545455
3306	0	0.545455
3307	0	0.545455
3308	0	0.545455
3309	0	0.545455
3310	0	0.545455
3311	0	0.545455
3312	0	0.545455
3313	0	0.545455
3314	0	0.545455
3315	0	0.545455
3316	0	0.545455
3317	0	0.545455
3318	0	0.545455
3319	0	0.545455
3320	0	0.545455
3321	0	0.545455
3322	0	0.545455
3323	0	0.545455
3324	0	0.545455
3325	0	0.545455
3326	0	0.545455
3327	0	0.545455
3328	0	0.545455
3329	0	0.545455
3330	0	0.545455
3331	0	0.545455
3332	0	0.545455
3333	0	0.545455
3334	0	0.545455
3335	0	0.545455
3336	0	0.545455
3337	0	0.545455
3338	0	0.545455
3339	0	0.545455
3340	0	0.545455
3341	0	0.545455
3342	0	0.654545
3343	0	0.654545
3344	0	0.654545
3345	0	0.654545
3346	0	0.654545
3347	0	0.654545
3348	0	0.654545
3349	0	0.654545
3350	0	0.654545
3351	0	0.654545
3352	0	0.654545
3353	0	0.654545
3354	0	0.654545
3355	0	0.654545
3356	0	0.654545
3357	0	0.654545
3358	0	0.654545
3359	0	0.654545
3360	0	0.654545
3361	0	0.654545
3362	0	0.654545
3363	0	0.654545
3364	0	0.654545
3365	0	0.654545
3366	0	0.654545
3367	0	0.654545
3368	0	0.654545
3369	0	0.654545
3370	0	0.654545
3371	0	0.654545
3372	0	0.654545
3373	0	0.654545
3374	0	0.654545
3375	0	0.654545
3376	0	0.654545
3377	0	0.8
3378	0	0.8
3379	0	0.8
3380	0	0.8
3381	0	0.8
3382	0	0.8
3383	0	0.8
3384	0	0.8
3385	0	0.8
3386	0	0.8
3387	0	0.8
3388	0	0.8
3389	0	0.8
3390	0	0.8
3391	0	0.8
3392	0	0.8
3393	0	0.8
3394	0	0.8
3395	0	0.8
3396	0	0.8
3397	0	0.8
3398	0	0.8
3399	0	0.8
3400	0	0.8
3401	0	0.6
3402	0	0.6
3403	0	0.6
3404	0	0.6
3405	0	0.6
3406	0	0.6
3407	0	0.6
3408	0	0.3
3409	0	0.3
3410	0	0.3
3411	0	0.3
3412	0	0.5
3413	0	0.5
3414	0	0.5
3415	0	0.5
3416	0	0.5
3417	0	0.5
3418	0	0.5
3419	0	0.5
3420	0	0.5
3421	0	0.5
3422	0	0.5
3423	0	0.5
3424	0	0.5
3425	0	0.5
3426	0	0.5
3427	0	0.5
3428	0	0.5
3429	0	0.5
3430	0	0.5
3431	0	1
3432	0	1
3433	0	1
3434	0	1
3435	0	1
3436	0	1
3437	0	1
3438	0	1
3439	0	1
3440	0	1
3441	0	1
3442	0	1
3443	0	1
3444	0	1
3445	0	1
3446	0	1
3447	0	1
3448	0	1
3449	0	1
3450	0	1
3451	0	1
3452	0	1
3453	0	1
3454	0	1
3455	0	1
3456	0	1
3457	0	1
3458	0	1
3459	0	1
3460	0	1
3461	0	1
3462	0	0.333333
3463	0	1
3464	0	1
3465	0	1
3466	0	1
3467	0	1
3468	0	1
3469	0	1
3470	0	1
3471	0	1
3472	0	1
3473	0	1
3474	0	1
3475	0	1
3476	0	1
3477	0	1
3478	0	1
3479	0	1
3480	0	1
3481	0	1
3482	0	1
3483	0	1
3484	0	1
3485	0	1
3486	0	1
3487	0	1
3488	0	1
3489	0	1
3490	0	1
3491	0	1
3492	0	1
3493	0	1
3494	0	1
3495	0	1
3496	0	1
3497	0	1
3498	0	1
3499	0	1
3500	0	1
3501	0	1
3502	0	1
3503	0	1
3504	0	1
3505	0	1
3506	0	1
3507	0	1
3508	0	1
3509	0	1
3510	0	1
3511	0	1
3512	0	1
3513	0	1
3514	0	1
3515	0	1
3516	0	1
3517	0	1
3518	0	1
3519	0	1
3520	0	1
3521	0	1
3522	0	1
3523	0	1
3524	0	1
3525	0	1
3526	0	1
3527	0	1
3528	0	1
3529	0	1
3530	0	1
3531	0	1
3532	0	1
3533	0	1
3534	0	1
3535	0	1
3536	0	1
3537	0	1
3538	0	1
3539	0	1
3540	0	1
3541	0	1
3542	0	1
3543	0	1
3544	0	1
3545	0	1
3546	0	1
3547	0	1
3548	0	1
3549	0	1
3550	0	1
3551	0	1
3552	0	1
3553	0	1
3554	0	1
3555	0	1
3556	0	1
3557	0	1
3558	0	1
3559	0	1
3560	0	1
3561	0	1
3562	0	1
3563	0	1
3564	0	1
3565	0	1
3566	0	1
3567	0	1
3568	0	1
3569	0	1
3570	0	1
3571	0	1
3572	0	1
3573	0	1
3574	0	0.5
3575	0	0.5
